1.3578323
3.2801695
0.0
0.0
2.8253083
0.0
0.0
0.0
0.0
0.0
0.06747979
0.0
0.0
0.0
1.9530017
0.0
0.0
0.0
0.7130495
2.7112455
0.0
0.0
0.0
2.803174
2.2049422
0.0
0.64386326
0.0
0.0
1.8123093
0.0
0.6915257
0.0
0.0
0.0
0.0
4.983857
0.0
0.0
0.23332164
4.858797
0.1509186
0.0
0.0
0.0
4.0191727
0.0
2.4305718
1.5363308
0.0
0.0
0.0
0.0
0.0
0.0
0.0
0.0
3.5180206
0.0
4.6253214
1.0980397
0.0
0.0
0.0
0.0
0.0
1.4704183
0.0
0.0
2.08025
0.0
0.0
0.62867284
0.0
0.0
0.0
0.0
0.0
2.6338
0.0
0.0
0.0
0.0
0.0
0.0
0.0
0.0
0.0
0.0
1.2589777
1.0064911
0.0
0.0
0.0
0.0
0.0
0.0
3.3247728
0.0
0.58262146
2.4319556
0.0
0.0
4.567427
0.0
0.5751699
0.0
0.0
0.0
0.0
0.0
0.0
0.0
1.318919
0.0
0.0
4.079635
0.0
0.0
0.0
