0.8655807
0.0
0.0
1.7646
0.53343236
0.0
0.22923946
0.0
0.0
0.0
0.0
0.0
0.0
0.0
0.0
0.0
0.0
0.0
0.0
0.0
0.68921065
0.0
1.6444417
0.0
0.0
0.0
0.0
0.0
0.0
0.0
1.0683962
0.0
0.0
0.0
0.0
0.0
1.3654039
0.0
0.0
0.0024636313
0.19067079
1.7960204
0.0
0.0
0.0
0.28809488
0.0
1.2801311
0.0
0.0
1.0845131
0.0
0.0
0.0
0.0
0.80768293
0.16430023
0.63733727
0.0
0.0
0.0
0.0
0.74921227
0.0
0.0
0.0
0.0
0.24092577
0.0
0.0
0.0
0.0
0.0
1.3225291
0.0
0.0
0.56462616
0.57279205
0.0
0.0
0.0
0.26413018
0.34270155
0.0
0.0
0.8560197
0.95791173
0.28546357
0.8003946
0.0
0.0
0.0
0.0
0.0
0.0
0.0
0.0
0.0
0.0
0.24426478
0.0
0.0
0.0
0.3284215
0.0
0.85559386
0.8104146
0.0
0.0
0.0
0.0
0.0
0.0
0.8201265
0.0
0.0
0.0
0.0
0.0
0.0
