0.0
1.8910064
0.12584835
0.0
0.0
0.77440035
0.0
0.0
0.0
0.0
0.0
4.720243
2.7447846
0.0
0.0
0.0
0.0
0.0
0.0
0.0
0.0
0.0
0.0
0.0
3.433923
0.0
0.0
0.0
0.0
2.9047518
0.0
0.0
0.0
0.7948486
2.957812
0.0
2.9579475
0.0
0.0
0.0
0.0
0.0
0.0
3.927644
0.0
0.0
0.0
0.0
0.0
0.0
0.0
0.0
0.0
0.0
3.6576388
0.0
0.0
0.8090486
0.0
3.506305
0.0
0.0
0.0
0.0
0.0
0.0
2.5271199
0.0
0.0
0.0
0.0
0.0
0.0
0.0
0.0
0.0
0.0
0.0
2.1358435
0.0
0.0
0.0
0.0
0.0
0.0
0.0
0.0
0.0
0.0
1.5189325
0.0
3.062678
0.0
0.0
0.0
0.0
0.0
3.3770707
0.0
0.0
0.0
0.0
0.0
4.9572062
0.0
0.0
0.0
0.0
5.503838
0.0
0.0
0.0
0.0
0.0
0.0
3.8685198
2.9296365
4.496746
0.0
3.6466305
