0.0
0.0
0.0
2.29637
0.0
0.19659257
0.0
0.0
0.0
0.0
0.0
1.370981
1.3807509
0.0
0.0
0.0
0.0
0.0
0.0
0.0
1.0975298
0.0
3.376533
0.0
0.0
0.0
0.0
0.0
0.0
0.0
1.8753978
0.0
0.0
1.299804
1.6615573
0.0
0.2701783
0.0
1.2703335
1.1160827
0.0
1.5816461
0.0
1.269354
0.0
0.0
0.0
0.0
0.0
0.0
1.7848192
0.0
0.0
0.0
0.0
0.0
2.5477145
1.408752
0.0
0.0
0.0
0.0
0.0
0.0
0.0
0.92721
0.2881323
0.7554956
0.31805155
0.0
0.0
0.0
0.0
1.9726864
0.0
1.0553792
2.9572315
0.9138937
0.0
0.0
0.0
2.824232
0.0
0.0
0.0
0.47087514
0.0
0.0
0.0
0.0
0.0
0.0
0.0
0.0
0.0
0.0
0.0
0.0
0.0
1.5842782
0.0
0.0
0.61467856
1.0721533
0.0
0.0
2.0548036
0.0
0.9382205
0.0
0.0
0.0
0.17139018
0.0
0.0
0.0
0.0
1.7712202
0.41153803
0.0
