0.0
0.0
0.0
4.053941
0.15801677
0.0
1.4412643
0.09231199
0.0
0.0
0.0
0.6957729
0.24778083
0.0
0.008836273
0.0
0.0
0.0
0.0
0.0
2.3435187
0.0
2.3233852
0.0
0.0
0.0
0.0
0.0
0.0
0.0
2.2784479
0.0
0.0
0.0
1.6485871
0.0
1.4335765
0.0
2.4926744
0.1143622
0.0
5.182279
0.0
0.0
0.0
0.0
0.0
0.0
0.0
0.0
4.260841
0.0
0.0
0.0
0.0
0.0
3.2386987
1.8645295
0.0
0.57738715
0.0
0.0
1.6578625
0.0
0.0
0.24188882
0.008799091
1.8157746
0.0
0.5560636
0.0
0.0
0.0
2.965484
0.0
2.3693912
3.447484
1.0776649
0.27235976
0.0
0.0
2.9142337
0.0
0.0
0.0
3.5761752
0.0
0.4241346
0.0
0.0
0.0
0.0
0.0
0.0
0.48117858
0.0
0.0
0.0
0.0
0.5799397
0.0
0.0
0.0
0.0
0.0
0.0
3.7293003
0.0
1.171064
0.0
0.0
0.0
2.3806858
0.0
0.0
0.0
0.0
0.0
0.0
0.0
