0.0
0.27011925
0.0
2.3758433
4.0564194
0.6345113
1.3510599
0.0
0.5467614
0.18133003
1.5651177
0.0
0.0
0.0
2.3816035
0.0
0.0
0.0
0.0
1.922926
0.0
0.0
0.24008217
0.0
0.0
2.0405686
3.1113617
0.0
1.8978145
0.0
1.8953514
0.0
1.8088506
0.0
0.60542643
0.0
2.4489312
0.0
0.0
1.5324993
1.8567435
2.3181949
0.0
0.0
0.0
1.0803038
0.0
2.143063
0.0
0.0
0.0
0.0
1.3910743
0.0
0.0
0.11334593
0.0
0.23089603
0.0
1.970964
0.0
0.0
1.839293
0.0
0.0
0.0
2.0968165
0.0
0.0
0.0
0.0
0.0
0.0
0.0
0.0
0.0
0.0
0.0
0.0
0.0
0.0
1.3353922
0.0
0.0
0.0
1.8372967
0.28006878
0.0
0.0
0.0
0.0
0.0
0.0
0.0
1.7856992
0.0
0.0
0.0
0.0
2.6230538
0.0
0.0
0.0
1.0981535
0.0
2.5625916
0.0
0.0
0.0
0.0
0.34764022
0.0
0.0
2.7090685
0.0
0.0
1.2922965
0.0
0.0
0.0
