0.0
0.0
1.9335743
0.0
0.0
0.8648247
0.0
0.7989092
0.0
0.0
0.0
0.0
2.9337015
0.0
0.0
0.0
2.3769155
0.0
0.0
0.0
0.0
0.0
2.5789495
0.0
0.0
0.0
0.0
0.0
0.0
0.0
0.0
0.0
0.0
2.906713
1.3609596
0.0
0.0
0.0
2.3007572
0.0
0.0
0.0
0.0
1.7475753
0.0
0.0
0.0
0.0
0.0
0.0
0.0
0.0
0.0
0.0
0.41612735
0.0
1.124951
0.22210951
0.0
0.0
0.0
0.0
0.0
0.0
0.0
1.6469208
0.0
0.0
1.3016306
0.0
0.6539153
0.0
0.0
0.0
0.0
3.2814183
1.8507705
2.547615
0.0
0.0
0.0
0.0
0.0
0.0
0.0
0.0
0.0
0.0
0.0
0.0
0.0
0.0
0.0
0.0
1.3976817
0.0
0.0
0.0
0.0
0.0
0.0
0.0
2.9450314
0.0
0.0
0.0
0.0
0.0
0.0
0.0
0.0
0.0
0.0
0.0
0.0
2.1693413
0.0
2.5241528
0.0
0.0
