2.9719317
3.2415886
0.0
0.0
1.149987
0.0
0.0
0.0
0.0
0.0
0.0
0.0
0.0
0.0
0.22982256
0.0
0.0
0.0
0.0
2.7190588
0.0
0.0
0.0
3.253458
2.6436484
0.0
0.0
0.4182036
0.0
1.4767494
0.0
0.40964997
0.0
0.0
0.0
0.0
2.238917
0.7039702
0.0
0.0
4.257517
0.0
0.0
0.0
0.0
3.4447412
0.0
0.8846438
1.7694293
0.0
0.0
0.0
0.0
0.0
0.0
0.0
0.0
2.747751
0.0
3.292123
0.6989747
1.4001014
0.0
0.0
0.0
0.0
0.8259884
0.0
0.0
1.6478105
0.0
0.0
0.0
0.0
0.0
0.0
0.0
0.0
1.078663
0.0
0.0
0.0
0.0
0.0
0.0
0.0
0.0
0.0
0.0
3.0292253
1.2767963
0.0
0.0
0.0
0.0
0.0
0.0
3.0337791
0.0
0.0
2.1819253
0.29475403
0.0
3.23704
0.0
0.0
0.0
0.0
0.0
0.0
0.0
0.0
0.0
0.0
0.0
0.0
2.483976
0.072450265
0.0
0.0
