2.1029365
0.0
1.2637848
0.0
0.0
0.0
0.0
0.0
0.28633365
0.0
0.0
0.0
2.8899336
0.0
0.0
0.0
0.16440809
0.0
0.0
0.0
0.0
0.0
0.0
0.0
0.0
0.0
0.0
0.0
0.0
0.0
0.0
0.0
0.0
2.880482
0.0
0.0
0.0
0.0
0.0
2.9731166
3.0782568
0.0
0.0
0.0
5.255522
0.0
0.0
0.0
2.6021965
0.0
0.0
0.0
0.0
0.0
0.0
1.4500026
0.0
0.0
0.0
0.0
0.0
5.113231
2.4624598
4.7104
0.0
0.0
0.0
0.0
4.225668
0.0
0.4428127
0.0
0.0
0.0
0.0
0.0
0.106026515
6.0429964
0.0
0.0
0.0
0.0
1.8946898
0.0
0.0
0.0
0.0
2.7641141
2.1898043
0.0
0.0
0.0
2.9784281
0.0
0.0
0.0
2.7951493
0.0
4.046261
0.0
0.0
1.5905918
1.7800204
0.0
0.0
0.0
0.0
0.0
0.0
0.0
0.0
0.0
0.0
0.0
0.0
0.0
0.0
0.0
0.0
0.0
