1.8513314
0.0
0.0
0.0
0.0
0.0
0.0
0.0
1.043292
0.0
0.0
0.0
1.6961383
0.0
0.0
0.0
0.0
0.0
0.0
0.0
0.0
0.0
0.0
0.110810615
0.0
0.0
0.0
0.0
0.0
0.0
0.0
0.0
0.0
2.8532152
0.0
0.0
0.0
0.0
0.0
2.3022752
2.0430334
0.0
0.0
0.0
3.5247507
1.7383225
0.0
0.0
2.0823398
0.0
0.0
0.0
0.0
0.0
0.0
0.62225884
0.0
0.0
0.0
0.0
0.0
3.6219387
2.8661082
5.7432017
0.0
0.0
0.0
0.0
2.1760125
0.0
0.0
0.0
0.0
0.0
0.0
0.0
0.48163283
3.8139687
0.0
0.0
0.0
0.0
2.572334
0.0
0.0
0.0
0.0
2.5405426
3.8330603
0.0
0.0
0.0
3.5391757
0.0
0.0
0.0
2.481145
0.0
3.341968
0.0
1.9492346
1.8987252
0.8212235
0.0
0.0
0.0
0.0
0.0
0.0
0.0
0.0
0.0
0.0
0.0
0.0
0.0
0.0
0.0
0.0
0.0
