0.16067368
0.525789
0.0
4.7448325
0.0
0.0
0.0
0.0
0.0
0.0
0.0
0.03188489
0.0
0.0
0.0
0.0
0.0
0.0
0.0
0.0
4.294455
0.0
1.2103957
0.077364884
0.0
0.0
0.0
0.0
0.0
0.0
3.5409243
0.0
0.0
0.0
0.0
0.0
2.1885893
0.0
0.21992213
2.8302987
2.0874925
4.5686274
0.0
0.0
0.0
0.0
0.0
0.0
0.0
0.0
5.300145
0.0
0.0
0.0
0.0
2.098523
1.1769527
2.9926052
0.0
0.33394137
0.0
0.0
1.5061005
0.0
0.0
0.0
0.771662
2.871055
0.0
1.8568412
0.0
0.0
0.0
3.4164023
0.0
0.0
2.2411146
1.0592391
0.6392647
0.0
0.0
3.414986
0.0
0.0
0.0
3.0952291
0.0
2.5705597
0.0
0.0
0.0
0.0
0.0
0.0
0.0
0.0
0.0
1.0995334
0.0
1.6968127
0.0
0.0
0.0
0.0
0.0
0.0
4.710629
0.0
0.043643035
0.0
0.0
0.0
2.7096393
0.0
0.0
0.0
0.0
0.0
0.0
0.0
