0.0
0.0
0.0
0.21702462
0.3628489
0.0
0.023206048
1.3207713
0.0
0.98468745
0.0
0.0
0.0
0.0
0.0
0.0
1.7035806
0.0
0.0
0.0
0.0
2.1821551
0.0
0.0
1.0066752
0.0
0.74230856
0.12999862
0.7182469
0.0
1.8758831
0.0
0.0
0.0
0.0
0.0
0.15097609
0.0
0.42432308
0.0783257
0.0
0.0
0.0
0.0
0.0
0.27604902
0.0
0.0
0.0
1.1002548
0.0
1.5014101
0.0
0.0
1.3572923
0.0
0.0
0.036411844
0.47690502
0.0
0.0
0.0
0.0
0.0
0.0
0.0
0.0
1.8694668
0.0
0.14465192
0.0
0.0
0.0
2.050495
1.4803095
1.3678408
0.0
0.0
0.0
1.1308453
0.0
1.0948696
0.0
0.0
1.2835735
1.3476906
0.0
0.0
0.0
0.0
0.0
0.0
0.0
0.06685008
0.0
1.0633541
0.0
0.0
0.0
0.041736223
0.0
0.0
0.0
0.0
0.0
0.0
0.36318603
0.0
0.0
1.3286195
0.0
0.0
0.0
0.0
1.0993783
0.0
0.0
0.39092642
1.6563296
0.0
