2.5759306
1.8587246
0.0
0.0
0.0
0.0
0.0
0.0
0.0
0.0
0.0
0.0
0.0
0.0
0.0
0.0
0.0
0.0
3.1349819
2.7160785
0.0
0.0
0.0
3.08612
1.9214603
0.0
0.0
0.0
0.095518425
1.119898
0.0
2.1925077
0.0
0.0
0.0
0.0
2.7949848
2.4698458
0.0
0.0
5.4350386
0.0
0.0
0.0
0.0
5.1385236
0.0
2.6128922
4.540385
0.0
0.0
0.0
0.0
0.0
0.0
0.0
0.0
4.2610297
0.0
3.1814356
2.6033885
1.774017
0.0
0.78774744
0.0
0.0
0.0
0.0
0.0
2.1809855
0.0
0.0
3.309064
0.0
0.0
0.0
0.0
0.0
1.970942
0.0
0.0
0.0
0.0
0.0
0.0
0.0
0.9387728
0.0
0.0
0.09968975
1.8611369
0.0
0.0
0.0
0.0
0.0
0.0
4.4124813
0.0
0.0
4.0349317
0.0
0.0
3.0980444
0.0
0.0
0.0
0.0
0.0
0.0
0.0
0.0
0.0
1.3002694
0.0
0.0
2.7599902
0.0
0.0
0.0
