0.0
0.0
1.4164212
0.0
0.0
0.0
0.0
0.9130175
0.13223979
0.0
0.0
0.0
1.4267844
0.0
0.0
0.0
2.4520097
0.0
0.0
0.0
0.0
0.34193605
2.2838588
0.0
0.26742896
0.0
0.0
0.0
0.0
0.0
0.0
0.0
0.0
1.0304457
1.0147965
0.0
0.0
0.0
1.5796331
0.0
0.0
0.0
0.0
0.8402833
0.0
0.0
0.0
0.0
0.0
0.0
0.0
0.0
0.0
0.0
0.7142651
0.0
0.8565608
0.0
0.0
0.0
0.0
0.0
0.0
0.0
0.0
0.62613285
0.0
0.0
1.8241727
0.0
2.292612
0.0
0.0
0.36613727
0.0
3.4014556
0.47455245
2.2227414
0.0
0.4248946
0.0
0.0
0.0
0.0
0.36326614
0.0
0.0
0.0
0.0
0.0
0.0
0.0
0.0
0.0
0.0
0.0
0.0
0.0
0.0
0.0
0.0
0.0
2.1339147
0.032594852
0.0
0.0
0.0
0.0
0.28018638
0.0
0.0
0.0
0.45096815
0.0
0.0
1.5636069
0.0
2.3263416
0.0
0.0
