0.1917007
0.0
2.2210891
0.0
0.0
0.0
0.0
0.0
4.1012096
0.0
0.0
0.0
0.0
0.0
0.0
2.8680174
0.0
0.19834244
0.85132223
0.0
0.0
0.0
0.0
3.4318368
0.0
0.0
0.0
0.1315872
0.0
0.9823777
0.0
1.594616
0.0
0.0
0.0
2.950181
0.0
0.0
0.0
0.0
0.0
0.0
0.0
0.0
3.8975887
3.0631032
1.3398216
0.0
2.854401
0.0
0.0
2.2106025
0.0
0.0
0.0
0.0
0.0
0.0
0.0
0.0
0.0
4.1949124
0.0
3.56927
1.725595
0.0
0.0
0.0
2.6567671
3.2154574
2.7866368
0.0
0.0
0.14015435
0.0
0.0
0.0
0.9006839
0.0
0.0
3.483051
0.0
0.0
0.0
0.0
0.0
0.0
1.7652391
0.0
0.0
2.0494246
0.0
0.5555576
0.0
0.0
0.0
0.0
0.0
3.5289288
0.0
1.0921708
0.0
0.0
0.0
0.0
0.0
0.0
0.16337569
0.0
0.0
0.0
1.7143654
2.1556041
0.0
0.0
0.0
0.0
0.0
0.0
0.0
