0.0
0.0
1.3247707
0.0
0.0
0.0
0.0
1.0903722
2.2364466
0.0
0.0
0.0
0.70303684
0.0
0.0
0.0
3.3982177
0.84517294
0.0
0.0
0.0
0.0
0.7554337
0.116838075
0.20511383
0.0
0.0
0.0
0.0
0.0
0.0
0.0
0.0
1.8297147
0.0
0.0
0.0
0.0
2.6715512
0.0
0.0
0.0
0.0
0.4369279
1.5490938
0.15716083
0.04446511
0.0
0.80233246
0.0
0.0
0.2900659
0.0
0.0
0.0
0.0
0.0
0.0
0.0
0.0
0.0
2.8326764
0.0
2.239148
0.0
1.2430122
0.0
0.0
3.3362505
0.0
3.6040156
0.0
0.0
0.0
0.0
2.3531473
0.0
3.9485614
0.0
0.0
0.0
0.0
0.3203225
0.0
0.0
0.0
0.0
0.66325927
0.71235096
0.0
0.0
0.0
0.43183342
0.0
0.0
0.0
0.0
0.0
1.3953209
0.0
0.0
0.25605837
2.2290492
0.0
0.0
0.0
0.0
0.0
0.0
0.0
0.0
0.0
0.0
0.0
0.0
0.017149664
0.0
1.1374251
0.0
0.0
