0.0
2.264309
0.062453873
0.0
0.0
0.0
0.0
0.0
0.95819867
0.0
0.0
4.329527
2.8790867
0.0
0.0
0.0
0.0
0.0
0.0
0.0
0.0
0.0
0.0
0.0
3.5619903
0.0
0.0
0.90385175
0.1284234
2.4438465
0.0
0.0
0.0
0.0
1.3746638
0.0
2.3209257
0.0
0.0
0.0
0.0
0.0
0.0
4.091144
0.0
0.1792759
0.0
0.0
0.0
0.0
0.0
0.0
0.0
0.0
3.6246328
0.0
0.0
1.0182456
0.0
2.8113816
0.0
0.0
0.0
0.0
0.0
0.0
0.0
0.0
0.0
0.0
0.0
0.0
0.0
0.0
0.0
0.0
0.0
0.0
2.887061
0.0
0.0
0.0
0.0
0.0
0.0
0.0
0.0
0.0
0.0
2.109289
0.0
1.9227384
0.0
0.0
0.0
0.0
0.0
4.8851447
0.0
0.0
0.0
0.0
0.0
4.5533643
0.0
0.0
0.0
0.0
4.721609
0.0
0.0
0.0
0.0
0.0
0.0
3.4372847
3.0130682
3.786939
0.0
3.7517626
