0.14209376
0.0
0.0
0.0
0.31358835
0.0
0.11700889
1.3162277
0.9654809
1.7935826
0.0
0.0
0.0
0.0
0.0
0.0
0.88650745
0.0
0.0
0.0
0.0
3.3716688
0.0
0.537834
2.2326782
0.0
0.5240217
0.0
1.107137
0.0
1.0828711
0.35772938
0.0
0.0
0.0
0.0
0.0
0.6880985
0.29911673
0.0
0.0
0.0
0.0
0.0
0.0
1.3804832
0.82257116
0.0
0.0
2.657061
0.0
2.5635269
0.0
0.0
1.4647633
0.0
0.0
0.0
0.72313106
0.0
0.0
1.9181432
0.0
0.31650263
1.617703
0.0
0.0
2.464368
0.0
1.2855695
0.0
0.0
0.0
2.5222554
2.558429
1.5584006
0.0
0.0
0.0
2.206115
0.5563165
0.0
0.0
0.0
2.3948045
1.5587652
0.0
0.0
0.0
0.2607958
0.0
0.0
0.0
0.19506618
0.0
1.982472
0.0
0.0
0.0
0.0
0.0
0.0
0.0
0.0
0.0
0.0
0.0
0.0
0.0
2.1536543
0.47397095
0.0
0.0
0.0
2.298582
0.0
0.0
0.0
2.8312244
0.0
