0.79987276
0.0
1.3477774
0.0
0.0
0.0
0.0
0.0
2.4585507
0.0
0.0
0.0
0.0
0.0
0.0
0.6597854
0.0
0.0
0.57688713
0.0
0.0
0.0
0.0
2.46563
0.42296836
0.0
0.0
1.8345342
0.0
1.0920581
0.0
1.3186513
0.0
0.0
0.0
0.991592
0.0
0.0
0.0
0.0
0.0
0.0
0.0
0.0
3.4743612
2.0716298
0.0
0.0
1.9891075
0.0
0.0
2.968589
0.0
0.0
0.07650848
0.0
0.0
0.0
0.0
0.0
0.0
3.6827445
0.0
3.2881012
0.0
0.0
0.0
0.0
2.2369983
1.5119581
1.4754189
0.0
0.0
0.0
0.0
0.0
0.0
0.0
0.0
0.0
2.1781514
0.0
0.0
0.0
0.0
0.0
0.0
0.49138188
0.0
0.0
1.9537165
0.26753324
0.0
0.0
0.0
0.0
0.0
0.0
2.7626987
0.0
0.4457372
0.0
0.0
0.0
0.0
0.0
0.0
0.0
0.0
0.0
0.0
2.6295688
0.99118376
0.0
0.0
0.0
0.0
0.0
0.0
0.0
