0.0
0.0
0.0
0.23076537
5.4759264
0.114741676
4.715418
0.0
2.4157455
2.7305298
0.0
0.0
0.0
0.0
4.0926533
3.055764
0.0
0.0
0.0
0.0
0.0
0.0
0.0
0.0
0.0
3.6896696
0.0
0.0
2.9571972
0.0
0.0
0.0
3.8875465
0.0
0.0
2.3700175
0.0
0.0
2.8311048
0.0
0.0
4.393513
0.0
0.0
0.0
4.32738
4.2756877
0.0
0.0
0.0
0.0
0.0
1.8758464
0.0
0.0
0.0
0.0
0.0
0.0
0.0
0.0
0.0
0.0
0.0
2.1391184
0.0
0.0
0.0
0.0
0.0
0.0
0.0
0.0
0.0
0.0
0.0
3.5079205
0.0
0.0
0.0
3.4501789
0.0
0.0
0.0
0.0
2.6587675
0.0
0.0
0.0
0.0
0.0
0.0
0.0
0.0
4.4903655
0.0
0.0
0.0
0.0
0.0
2.6861026
0.0
0.0
0.0
0.0
0.0
0.0
0.0
0.0
0.0
0.6526125
0.0
0.0
0.0
5.110427
0.0
0.0
0.0
0.0
0.0
