0.0
0.15049656
0.0
2.8046532
3.4044855
0.0
2.0798533
0.0
0.0
1.5728617
1.1628865
0.0
0.0
0.0
1.7499937
0.0
0.0
0.0
0.0
1.2263184
0.32840127
0.0
0.0
0.0
0.0
1.2650222
1.6958597
0.0
0.6746872
0.0
1.5735865
0.0
0.67401665
0.0
0.112922296
0.0
2.0356538
0.0
0.0
1.093101
1.7375535
3.5501246
0.0
0.0
0.0
0.9558985
0.0
0.5889587
0.0
0.0
0.9580666
0.0
1.436603
0.0
0.0
0.6683484
0.0
0.9854883
0.0
1.553153
0.0
0.0
2.4000413
0.0
0.0
0.0
1.5158697
0.0
0.0
0.0
0.0
0.0
0.0
0.0
0.0
0.0
0.0
0.0
0.0
0.0
0.0
2.6643202
0.0
0.0
0.0
2.2149549
0.39066437
0.0
0.0
0.0
0.0
0.0
0.0
0.0
1.4377885
0.0
0.0
0.0
0.0
1.9192417
0.0
0.0
0.0
0.80500406
0.0
1.8935653
0.0
0.0
0.0
0.0
0.40761137
0.0
0.0
1.1720221
0.0
0.0
1.1053456
0.0
0.0
0.0
