0.0
2.3005695
0.0
0.0
0.35014305
0.0
0.0
0.0
1.5441413
0.0
0.0
1.7810211
1.9334605
0.0
0.0
0.0
0.0
0.0
0.27801064
0.0
0.0
0.0
0.0
0.87245893
3.3554924
0.0
0.0
0.60215706
0.0
1.6523014
0.0
0.0
0.0
0.0
0.0
0.0
2.7654097
0.0
0.0
0.0
0.24223751
0.0
0.0
2.2054641
0.0
1.9251747
0.0
0.0
0.8744523
0.0
0.0
0.94733447
0.0
0.0
2.3287852
0.0
0.0
1.4767591
0.0
2.0474055
0.093884125
0.0
0.0
0.0
0.0
0.0
0.0
0.0
0.0
0.6221678
0.0
0.0
0.28813347
0.0
0.0
0.0
0.0
0.0
3.1441495
0.0
0.0
0.0
0.0
0.0
0.0
0.0
0.081847906
0.0
0.0
2.8657796
0.5966536
1.6951487
0.0
0.0
0.045723423
0.0
0.0
4.633246
0.0
0.0
0.0
0.0
0.0
3.3500247
0.0
0.0
0.0
0.0
2.8667815
0.0
0.0
0.0
0.0
0.0
0.0
2.0833206
2.8828125
1.9448117
0.0
2.1376154
