0.0
0.0
0.0
0.0
0.0
0.0
0.18865049
0.8920999
0.0
0.97933805
0.0
0.14567079
0.0
0.0
0.0
0.026732631
0.0
0.0
0.56033844
0.0
0.0
0.0
1.9837036
0.0
0.9278722
0.0
0.0
0.0
1.0235564
0.0
0.0
2.0177848
0.0
0.0
0.0
0.4826684
0.0
0.0
0.49196538
0.0
0.0
0.055779345
0.0
0.0
0.0
0.0
0.0
0.0
0.0
0.0
0.0
0.7276669
0.0
0.0
1.4358332
0.0
0.0
0.0
2.786896
0.0
0.0
0.0
0.0
0.0
0.1463446
0.0
0.0
0.0
0.0
0.0
0.0
0.0
0.0
0.0
0.30777872
0.04011899
0.34383503
0.0
0.0
0.0
0.0
0.0
0.0
0.0
0.0
0.32940102
0.0
0.0
0.0
0.0
0.0
0.6402991
0.0
1.690727
1.3639373
0.0
0.0
0.0
0.0
0.0
0.53762794
0.0
0.0
1.3503312
0.0
0.9659493
0.0
0.0
0.93491375
0.0
0.0
0.0
0.0
0.0
2.3485296
0.0
0.0
1.6291125
0.0
0.0
