0.0
0.0
0.0
0.70408547
1.9418275
0.0
0.0
0.49609244
0.0
0.0
0.38795286
0.0
0.0
0.0
1.1469957
0.0
0.0
0.0
0.0
0.8544541
0.0
0.0
1.9526724
0.0
0.0
0.3776282
1.2558688
0.0
1.0474652
0.0
0.0
0.8248453
0.0
0.0
0.0
0.0
1.7216328
0.0
0.0
0.21887422
2.13449
1.043848
0.0
0.0
0.0
0.0
0.0
3.5132823
0.0
0.0
0.0
0.80601424
0.0
0.0
0.0
0.0
0.0
0.4104281
0.10290316
1.906483
0.0
0.0
0.09677555
0.0
0.0
0.0
0.6392224
0.0
0.0
0.0
0.0
0.0
0.0
0.0
0.0
0.0
0.0
0.0
0.0
0.0
0.0
0.0
0.0
0.0
0.0
0.0
1.6747526
0.0
0.0
0.0
0.0
0.0
0.0
0.73582697
0.0
0.0
0.0
0.96725947
0.0
0.22653681
0.0
0.0
0.0
2.216797
0.0
3.2300613
0.0
0.0
0.0
0.0
0.0
0.0
0.0
2.2390606
0.0
0.0
1.1688734
0.0
0.0
0.0
