0.0
0.0
0.0
1.9526992
3.6890876
1.1125743
0.74614525
0.0
0.0
0.0
2.212172
0.0
0.0
0.0
2.627886
0.0
0.0
0.0
0.0
3.1754646
0.0
0.0
0.30904067
0.0
0.0
2.1858335
2.727638
0.8382853
2.3924844
0.0
1.5516229
1.124668
1.3032092
0.0
0.0
0.0
1.7856401
0.0
0.0
1.9397429
2.5868907
1.6245105
0.0
0.0
0.0
0.74017847
0.0
3.7172809
0.0
0.0
0.6341841
0.0
0.6657027
0.0
0.0
0.0
0.0
0.0
0.0
2.0802548
0.0
0.0
0.0
0.0
0.0
0.0
1.8773723
0.0
0.0
0.0
0.0
0.0
0.0
0.0
0.0
0.0
0.0
0.0
0.0
0.0
0.0
0.8496979
0.0
0.0
0.0
2.283059
1.299739
0.0
0.0
0.0
0.0
0.0
0.0
0.0
0.0
0.0
0.0
0.0
0.0
3.132728
0.0
0.0
0.0
1.7002282
0.0
3.5093
0.0
0.0
0.0
0.0
0.0
0.0
0.0
4.4509015
0.0
0.0
1.584377
0.0
0.0
0.0
