0.0
1.832148
0.0
0.0
0.0
0.9515615
0.0
0.0
0.0
0.0
0.57848805
3.6327295
1.6003448
0.0
0.0
0.0
0.0
0.0
0.0
0.0
0.0
0.0
0.0
0.0
2.6077223
0.0
1.127664
0.0
0.0
1.3989577
0.0
0.0
0.0
0.265474
3.1058836
0.0
3.3690412
0.0
0.0
0.0
0.0
0.0
0.0
2.902796
0.0
0.0
0.0
0.0
0.0
0.0
0.0
0.0
0.0
0.0
3.552307
0.0
0.0
0.99166185
0.0
3.7508433
0.0
0.0
0.0
0.0
0.0
0.0
2.9419148
0.0
0.0
0.0
0.0
0.0
0.0
0.0
0.0
0.0
0.0
0.0
1.0895753
0.0
0.0
0.0
0.0
0.0
0.0
0.0
0.0
0.0
0.0
1.2302881
0.0
2.0608099
0.0
0.0
0.0
0.0
0.0
2.781103
0.0
0.0
0.0
0.0
0.0
4.2661743
0.0
0.0
0.0
0.0
3.8618178
0.0
0.0
0.0
0.0
0.726927
0.0
3.6190522
3.6773734
2.9297836
0.0
3.4879284
