0.0
0.0
0.0
4.99027
0.0
0.0
1.4751195
0.0
0.0
0.0
0.0
1.2045041
0.0
0.0
0.0
0.0
0.0
0.0
0.0
0.0
4.117098
0.0
2.9239926
0.0
0.0
0.0
0.0
0.0
0.0
0.0
3.866866
0.0
0.0
0.0
2.3794847
0.0
2.267916
0.0
2.0025113
0.0
0.0
5.317006
0.0
0.0
0.0
0.0
0.0
0.0
0.0
0.0
5.563617
0.0
0.0
0.0
0.0
0.03836066
3.280754
3.9311364
0.0
0.0
0.0
0.0
0.0
0.0
0.0
0.0
0.0
3.600534
0.0
0.0
0.0
0.0
0.0
4.5264196
0.0
2.1881082
3.5387018
1.6993501
0.0
0.0
0.0
4.326456
0.0
0.0
0.0
3.224699
0.0
0.690291
0.0
0.0
0.0
0.0
0.0
0.0
0.0
0.0
0.0
0.1630815
0.0
1.33001
0.0
0.0
0.0
0.0
0.0
0.0
5.1191297
0.0
1.5501167
0.0
0.0
0.0
4.0288634
0.0
0.0
0.0
0.0
0.0
0.0
0.0
