0.0
1.0002416
0.0
2.1396234
3.552344
1.0988721
1.1617496
0.0
0.0
1.0283331
1.6948541
0.0
0.0
0.0
4.1528606
0.0
0.0
0.0
0.0
2.6537287
0.0
0.0
0.0
0.0
0.0
2.2483644
2.4532564
0.0
1.7268648
0.0
1.2435014
0.1854632
1.8526114
0.0
0.0
0.0
2.3182373
0.0
0.0
2.0511167
2.949695
2.6063418
0.0
0.0
0.0
2.1664903
0.0
1.9585466
0.0
0.0
0.3058571
0.0
1.7883964
0.0
0.0
1.023445
0.0
0.44947946
0.0
2.7413354
0.0
0.0
1.3348604
0.0
0.0
0.0
2.4722397
0.0
0.0
0.0
0.0
0.0
0.0
0.0
0.0
0.0
0.0
0.0
0.0
0.0
0.0
1.4449934
0.0
0.0
0.0
1.4169126
0.11601958
0.0
0.0
0.0
0.0
0.0
0.0
0.0
0.5154022
0.0
0.0
0.0
0.0
2.8029265
0.0
0.0
0.0
1.8241482
0.0
1.7054799
0.0
0.0
0.0
0.0
0.0
0.0
0.0
2.2289162
0.0
0.0
1.9928983
0.0
0.0
0.0
