0.73070633
0.0
2.3940792
0.0
0.0
0.0
0.0
0.38525683
1.765601
0.0
0.0
0.0
0.0
0.0
0.0
0.33578473
0.0
1.8287648
4.3435946
0.25246587
0.0
0.0
0.84077
1.8957789
0.7782216
0.0
0.0
4.1136045
1.5469127
2.3040648
0.0
4.079587
0.0
0.0
0.0
0.89600724
0.0
0.0
0.0
0.0
0.0
0.0
0.0
0.0
0.5494405
1.5088019
0.0
2.1099577
0.6543116
0.0
0.0
4.740941
0.0
0.0
0.0
0.0
0.0
0.0
1.9241602
0.0
0.0
0.7593169
0.0
0.0
0.0
0.0
0.0
0.0
0.4288784
0.87898874
0.84927654
0.0
1.1471891
0.0
0.0
0.0
0.0
0.0
0.0
0.0
0.8412515
0.0
0.0
0.0
0.0
0.0
2.5420327
0.0
0.0
0.0
1.2712064
2.0727146
0.0
1.921833
0.0
0.0
0.0
0.0
0.0
0.0
1.0129251
0.0
0.0
0.0
0.0
1.9196281
0.0
0.0
0.0
0.0
0.0
0.5537339
0.47334272
1.6995882
0.0
0.0
0.0
2.2257683
0.0
0.0
