0.0
0.0
4.9153805
0.0
0.0
2.6080363
0.0
4.159229
3.8169372
0.0
0.0
0.0
5.5314097
0.0
0.0
0.0
6.4985723
1.0435351
0.0
0.0
0.0
0.0
4.58784
0.0
0.0
0.0
0.0
0.0
0.0
0.0
0.0
0.0
0.0
5.52717
3.873708
0.0
0.0
0.0
4.9746804
0.0
0.0
0.0
0.0
4.0600414
0.0
0.0
0.0
0.0
0.0
0.0
0.0
0.0
0.0
0.0
0.0
0.0
5.171422
0.0
0.0
0.0
0.0
0.0
0.0
0.092891015
0.0
5.92585
0.0
0.0
4.295805
0.0
5.875745
0.0
0.0
0.0
0.0
5.45866
5.758825
5.733621
0.0
0.0
0.0
0.0
0.0
0.0
0.0
0.0
0.0
0.0
0.0
0.0
0.0
0.0
0.0
0.0
4.6098433
0.0
0.0
0.0
0.0
0.0
0.0
0.0
7.193299
0.0
0.0
0.0
0.0
0.0
0.0
0.0
0.0
0.0
0.0
0.0
0.0
5.2804074
0.0
5.5796967
0.0
0.0
