0.0
0.0
0.0
0.0
0.6075586
0.0
0.0
0.97910684
0.14895126
0.0
0.0
0.0
0.55251867
0.0
0.21991591
0.0
0.0
0.3193587
1.6153178
0.09955222
0.0
0.0
1.6768668
0.0
2.1391363
0.0
0.0
1.3373117
2.6493435
0.0
0.0
2.17386
0.0
0.0
0.0
0.0
0.2557344
0.0
0.0
0.0
0.2535032
0.0
0.0
0.0
0.0
0.6399987
0.0
2.1838605
0.0
0.0
0.0
1.661911
0.0
0.0
0.0
0.0
0.0
0.0
1.4532361
1.9732726
0.0
0.0
0.0
0.0
0.0
0.0
0.25711536
0.0
0.0
0.0
0.0
0.0
0.0
0.0
0.0
0.0
0.0
0.0
0.35751197
0.0
0.0
0.0
0.0
0.0
0.0
0.0
2.4723032
0.0
0.0
0.0
0.0
2.1480434
0.0
1.3876613
0.0
0.0
0.0
0.0
0.0
0.0
0.0
0.0
0.0
2.9454527
0.0
2.8089514
0.0
0.0
0.0
0.0
0.0
0.0
0.0
2.2809913
0.0
0.0
0.0
1.9018885
0.0
0.0
