0.0
3.7446198
0.0
0.0
0.0
0.0
0.0
0.0
0.0
0.0
0.54406106
5.1927743
2.826592
0.0
0.0
0.0
0.0
0.0
0.0
0.0
0.0
0.0
0.0
0.0
4.198446
0.0
0.0
0.0
0.0
2.9078507
0.0
0.0
0.0
0.10655875
2.8668494
0.0
4.385207
0.0
0.0
0.0
0.14030892
0.0
0.0
4.471352
0.0
0.0
0.0
0.0
0.0
0.0
0.0
0.0
0.0
0.0
4.763792
0.0
0.0
1.8758755
0.0
4.8023715
0.0
0.0
0.0
0.0
0.0
0.0
2.5211084
0.0
0.0
0.0
0.0
0.0
0.0
0.0
0.0
0.0
0.0
0.0
2.3273797
0.0
0.0
0.0
0.0
0.0
0.0
0.0
0.0
0.0
0.0
3.831338
0.0
2.6063235
0.0
0.0
0.0
0.0
0.0
5.306821
0.0
0.0
0.0
0.0
0.0
5.713411
0.0
0.0
0.0
0.0
6.2616787
0.0
0.0
0.0
0.0
0.0
0.0
3.7968767
4.343317
3.2812989
0.0
4.829684
