0.0
0.0
0.0
0.0
4.1254845
0.0
3.6712716
0.0
3.4799087
0.86482096
0.0
0.0
0.0
0.0
2.0018427
3.881809
0.0
0.0
0.0
0.0
0.14847001
0.0
0.0
0.0
0.2564107
2.7425106
0.0
0.0
2.5330093
0.0
0.0
0.16183926
4.229517
0.0
0.0
2.238495
0.0
0.0
3.10462
0.0
0.0
3.1904514
0.0
0.0
0.0
4.084688
3.763447
0.0
0.0
0.0
0.0
0.0
1.4808686
0.0
0.0
0.0
0.0
0.0
0.0
0.0
0.0
0.0
0.0
0.0
2.6497421
0.0
0.0
0.0
0.0
0.0
0.0
0.0
0.0
0.8947674
0.0
0.0
2.1880853
0.0
0.0
0.0
3.6010375
0.0
0.0
0.0
0.0
1.5775867
0.0
0.0
0.0
0.0
0.0
0.0
0.0
0.0
2.9392557
0.0
0.0
0.0
0.0
0.0
1.481311
0.0
0.0
0.0
0.0
0.0
0.0
0.0
0.0
0.0
2.1452482
0.0
0.0
0.0
3.4854577
0.0
0.0
0.0
0.0
0.0
