0.0
0.0
0.0
3.011998
2.1627533
0.0
0.9486835
0.0
0.0
0.0
0.28134447
0.0
0.0
0.0
1.0321631
0.0
0.0
0.0
0.0
0.4646814
0.58346444
0.0
0.0009275079
0.0
0.0
1.4551029
1.8633506
0.0
0.81801164
0.0
2.4259465
0.3096848
0.0
0.0
0.63150716
0.0
1.1721888
0.0
0.0
3.6490426
2.7242334
2.5901294
0.0
0.0
0.0
0.7105054
0.0
2.211659
0.0
0.0
1.4190981
0.0
0.0
0.0
0.0
2.1925712
0.35687563
0.0
0.0
0.7323784
0.0
0.0
2.1355653
0.23902214
0.0
0.0
1.5926174
0.0
0.0
0.0
0.0
0.0
0.0
0.38157672
0.0
0.0
0.0
0.28090405
0.0
0.0
0.0
1.9149892
0.24922366
0.0
0.0
0.78040165
0.5771637
0.4247627
1.1942879
0.0
0.0
0.0
0.0
0.0
0.0
0.0
0.0
0.0
0.0
2.9253893
0.0
0.0
0.0
1.4711056
0.0
1.0483037
0.0
0.0
0.0
0.0
0.0
0.0
0.0
2.2730677
0.0
0.0
0.19614558
0.0
0.0
0.0
