0.18753329
3.7880995
0.0
0.0
2.558946
0.0
0.0
0.0
0.0
0.0
0.8401319
1.4558547
0.08521167
0.0
1.4979067
0.0
0.0
0.0
0.0
1.4684168
0.0
0.0
0.0
1.4879999
3.9896486
0.7416064
0.2748268
0.0
0.0
1.1128752
0.0
0.0
0.0
0.0
0.0
0.0
4.0464754
0.0
0.0
0.0
2.6223588
0.0
0.0
1.1580346
0.0
2.0086114
0.0
0.0
0.0
0.0
0.0
0.0
0.0
0.0
1.7662321
0.0
0.0
2.1959066
0.0
4.3719506
0.0
0.0
0.011401892
0.0
0.0
0.0
2.5868924
0.0
0.0
0.0
0.0
0.0
0.0
0.0
0.0
0.0
0.0
0.0
1.7539902
0.0
0.0
0.0
0.0
0.0
0.0
0.0
0.0
0.0
0.0
3.8265305
0.0
1.2139882
0.0
0.0
0.0
0.0
0.0
4.2320366
0.0
0.0
1.3913462
0.049112227
0.0
5.3330064
0.0
0.0
0.0
0.0
2.1639905
0.0
0.0
0.0
0.0
0.0
0.0
0.33937404
3.6077123
0.9951157
0.0
1.6937009
