3.487
2.5963032
0.0
0.0
0.963884
0.0
0.0
0.0
0.0
0.0
0.0
0.0
0.0
0.0
0.0
0.0
0.0
0.0
0.4645256
3.1765416
0.0
0.0
0.0
3.8488595
2.722601
0.0
0.0
0.0
0.0
1.9907234
0.0
0.4909795
0.0
0.0
0.0
0.0
3.381474
0.9012216
0.0
0.0
4.7197247
0.0
0.0
0.0
0.0
4.917535
0.0
0.49584937
3.2438843
0.0
0.0
0.0
0.0
0.0
0.0
0.0
0.0
4.0225782
0.0
3.1874068
1.6165465
2.8236673
0.0
0.0
0.0
0.0
0.0
0.0
0.0
2.481298
0.0
0.0
0.52299875
0.0
0.0
0.0
0.0
0.0
1.2022309
0.0
0.0
0.0
0.0
0.0
0.0
0.0
0.0
0.0
0.0
3.3226507
2.0470998
0.0
0.0
0.0
0.0
0.0
0.0
2.5483892
0.0
0.0
3.9315612
0.7087694
0.0
2.6664906
0.0
0.0
0.0
0.0
0.0
0.0
0.0
0.0
0.0
0.0
0.0
0.0
2.463757
0.0
0.0
0.0
