0.0
0.0
0.0
3.7511826
0.95288885
0.0
2.173805
0.0
0.0
0.14990304
0.0
0.0
0.0
0.0
0.0
0.0
0.0
0.0
0.0
0.0
2.5863638
0.33897197
0.8588737
0.0
0.0
0.0
0.104980804
0.0
0.0
0.0
2.8109317
0.0
0.0
0.0
0.0
0.0
1.5654736
0.0
1.3680038
0.39965588
0.37449437
3.9950233
0.0
0.0
0.0
0.0
0.0
0.0
0.0
0.0
2.342162
0.0
0.0
0.0
0.0
1.2400231
1.1676087
1.9010559
0.0
0.0
0.0
0.0
2.623313
0.0
0.0
0.0
0.15322989
2.3185978
0.0
0.8038023
0.0
0.0
0.0
2.4494572
0.0
1.9178079
1.3822854
0.44663393
0.0
0.0
0.0
3.3159227
0.0
0.0
0.0
3.0551505
0.0
0.93312794
0.0
0.0
0.0
0.0
0.0
0.0
0.37645662
0.0
0.0
0.0
0.0
1.2186786
0.0
0.0
0.0
0.0
0.0
0.0
3.3926322
0.0
0.0
0.0
0.4116803
0.0
1.7685788
0.0
0.0
0.0
0.0
0.0
0.0
0.0
