0.0
0.18275256
0.0
3.60375
0.0
0.0
1.1440684
0.0
0.0
0.0
0.0
0.77097774
0.0
0.0
0.0
0.0
0.50598687
0.0
0.0
0.0
3.2101839
0.0
2.1010263
0.0
0.0
0.0
0.0
0.0
0.0
0.0
3.4291933
0.0
0.0
0.0
2.426445
0.0
2.392637
0.0
1.3958125
0.106473945
0.0
3.0389018
0.0
0.0
0.0
0.0
0.0
0.0
0.0
0.0
2.7279286
0.0
0.0
0.0
0.0
0.0
2.4909768
3.140286
0.0
0.5860187
0.0
0.0
1.5097207
0.0
0.0
0.7251726
0.0
1.8133018
0.0
0.0
0.0
0.0
0.0
2.774855
0.0
2.9366095
1.1061081
2.0566015
0.0
0.0
0.0
3.5210156
0.0
0.0
0.0
2.609057
0.0
0.0
0.0
0.0
0.0
0.0
0.0
0.0
0.0
0.0
0.0
0.016785674
0.0
2.0714366
0.0
0.0
0.0
0.0
0.0
0.0
2.6100764
0.0
1.3190634
0.0
0.0
0.0
1.3316059
0.0
0.0
0.0
0.0
0.0
0.74829364
0.0
