0.0
0.0
0.0
0.0
0.0
0.0
0.009485178
1.6585172
0.5417409
3.73848
0.0
0.0
0.0
0.0
0.0
0.0
2.4949563
0.0
0.0
0.0
0.0
3.235504
0.0
0.0
0.60583717
0.0
0.3374092
0.08407894
0.9935224
0.0
0.77238077
0.44689184
0.0
0.0
0.0
0.0
0.0
0.0
1.1193024
0.0
0.0
0.0
0.0
0.0
0.0
1.0146977
0.84138906
0.0
0.0
3.2685971
0.0
2.3717108
0.0
0.0
2.2722743
0.0
0.0
0.0
1.3702182
0.0
0.0
1.8181314
0.0
0.0
1.1989625
0.0
0.0
1.762661
0.0
0.0
1.0986218
0.0
0.0
1.9212741
3.9521575
2.5692606
0.0
0.30376983
0.0
2.2675257
0.3156864
0.0
0.0
0.0
3.9668586
1.1919924
0.0
0.0
0.0
0.0
0.0
0.0
0.0
0.0
0.0
2.743048
0.28103334
0.0
0.0
0.0
0.0
0.0
0.0
0.0
0.0
0.0
0.0
0.0
0.0
2.8677478
0.0
0.0
0.0
0.0
3.9659605
0.0
0.0
1.3243971
3.639791
0.0
