0.6904154
1.9484982
0.0
0.0
1.0047421
0.0
0.0
0.0
1.5377222
0.0
0.06449182
0.0
0.0
0.0
0.7409347
0.7772148
0.0
0.0
1.6069106
2.0003426
0.0
0.0
0.0
2.0413172
2.5358412
0.0
0.0
0.0
0.2241834
2.2445228
0.0
1.0831429
0.0
0.0
0.0
0.0
2.1776793
1.1068414
0.0
0.0
3.2716167
0.0
0.0
0.0
0.0
4.2288475
0.0
0.23060416
2.4588902
0.0
0.0
0.0
0.0
0.0
0.0
0.0
0.0
1.684684
0.0
1.5833832
0.7326778
0.042884715
0.0
0.0
0.0
0.0
0.0
0.0
0.0
1.5860996
0.0
0.0
1.037673
0.0
0.0
0.0
0.0
0.0
1.5976421
0.0
0.81902295
0.0
0.0
0.0
0.0
0.0
0.0
0.0
0.0
1.4275268
2.4547124
0.0
0.0
0.0
0.0
0.0
0.0
2.7048416
0.0
0.0
3.2016866
0.0
0.0
1.9167182
0.0
0.0
0.0
0.0
0.0
0.0
0.0
0.0
0.0
0.0
0.0
0.0
2.6125054
0.89396113
0.0
0.0
