0.0
0.0
0.0
0.00046122447
4.3605394
0.20328273
4.4786706
0.0
2.0538888
2.1759002
0.0
0.0
0.0
0.0
3.5391936
2.9831457
0.0
0.0
0.0
0.0
0.0
0.0
0.0
0.0
0.0
3.5931888
0.0
0.0
3.4993253
0.0
0.0
1.1071706
3.959006
0.0
0.0
3.2610755
0.0
0.0
2.290903
0.0
0.0
4.4610023
0.0
0.0
0.0
4.472847
3.1814883
0.0
0.0
0.0
0.0
0.0
2.1580122
0.0
0.0
0.0
0.0
0.0
0.0
0.0
0.0
0.0
0.0
0.0
2.8152537
0.0
0.0
0.0
0.0
0.0
0.0
0.0
0.0
0.29240084
0.0
0.0
1.8988514
0.0
0.0
0.0
3.1450753
0.0
0.0
0.0
0.0
1.5566255
0.0
0.0
0.0
0.0
0.0
0.0
0.0
0.0
3.2613578
0.0
0.0
0.0
0.0
0.0
1.519884
0.0
0.0
0.0
0.0
0.024524093
0.0
0.0
0.0
0.0
0.0
0.0
0.0
0.0
3.741329
0.0
0.0
0.0
0.0
0.0
