0.0
3.520413
0.0
0.0
0.0
0.0
0.0
0.0
0.0
0.0
0.0
3.7127943
1.463105
0.0
0.0
0.0
0.0
0.0
0.0
0.0
0.0
0.0
0.0
0.014904238
5.355771
0.0
0.0
0.0
0.0
3.5560746
0.0
0.0
0.0
0.19779068
1.9472226
0.0
3.1606615
0.11764055
0.0
0.0
0.0
0.0
0.0
3.2608783
0.0
0.15082684
0.0
0.0
0.0
0.0
0.0
0.0
0.0
0.0
3.3649187
0.0
0.0
2.6799786
0.0
3.9190557
0.0
0.0
0.0
0.0
0.0
0.0
1.6719196
0.0
0.0
0.0
0.0
0.0
0.0
0.0
0.0
0.0
0.0
0.0
3.908625
0.0
0.0
0.0
0.0
0.0
0.0
0.0
0.0
0.0
0.0
4.3837004
0.0
3.3823347
0.0
0.0
0.0
0.0
0.0
5.087481
0.0
0.0
0.043511398
0.0
0.0
5.629315
0.0
0.0
0.0
0.0
5.384662
0.0
0.0
0.0
0.0
0.0
0.0
3.8674273
3.4311638
4.0308166
0.0
3.245818
