0.0
0.90597
0.0
2.2015522
2.2052605
0.599018
0.6485896
0.0
0.0
1.8190223
1.721379
0.45092738
0.0
0.0
2.6548648
0.0
0.0
0.0
0.0
1.2156496
0.0
0.0
0.0
0.0
0.0
0.9191351
1.5168691
0.0
0.75133157
0.0
1.5687128
0.0
0.63889366
0.0
0.59164864
0.0
2.0622246
0.0
0.0
1.7875307
1.257682
2.2571561
0.0
0.0
0.0
1.2729558
0.0
0.48278278
0.0
0.0
0.781556
0.0
0.8626768
0.0
0.0
1.317217
0.0
0.2200595
0.0
1.8826107
0.0
0.0
1.4184974
0.0
0.0
0.0
2.5697675
0.0
0.0
0.0
0.0
0.0
0.0
0.30472136
0.0
0.0
0.0
0.0
0.0
0.0
0.0
1.5699043
0.0
0.0
0.0
1.7940441
0.112163365
0.0
0.0
0.0
0.0
0.0
0.0
0.0
0.33124965
0.0
0.0
0.0
0.0
1.822363
0.0
0.0
0.0
1.4724
0.0
1.3584042
0.0
0.0
0.77546275
0.0
0.0
0.0
0.0
0.9176289
0.0
0.0
1.5040958
0.0
0.0
0.0
