1.087622
0.0
0.0
0.0
0.0
0.0
0.0
2.4105806
0.0
0.0
0.0
0.0
0.49234414
0.0
0.0
0.0
0.0
1.4964741
2.03839
0.0
0.0
0.0
2.843424
0.0
1.4065689
0.0
0.07255771
3.138383
2.5140362
0.0
0.0
1.893993
0.0
0.32265764
0.0
0.0
0.0
0.0
0.0
0.0
0.0
0.0
0.0
0.0
0.0
0.0
0.0
2.6276143
0.0
0.0
0.0
3.1976037
0.0
0.0
0.0
0.0
0.0
0.0
1.5733042
0.31957605
0.0
0.0
0.0
0.0
0.0
0.0
0.31307817
0.0
0.0
0.0
0.0
0.0
0.0
0.0
0.0
0.0
0.0
0.18412769
0.0
0.0
0.0
0.0
0.0
0.0
0.0
0.0
3.4050481
0.0
0.0
0.0
0.0
1.8182714
0.0
1.9965858
0.0
0.0
0.0
0.0
0.0
0.0
0.0
0.0
0.2784453
1.5916464
0.0
2.666563
0.0
0.0
0.0
0.0
0.0
0.0
0.0
4.05724
0.0
0.0
0.0
2.451235
0.0
0.0
