0.0
0.0
2.1148362
0.0
0.27957377
0.0
0.0
0.0
3.6074963
0.0
0.0
0.0
0.0
0.0
0.0
2.2661524
0.0
0.30447245
0.760715
0.0
0.0
0.0
0.0
1.5887182
0.0
0.0
0.0113845095
1.5061033
0.0
1.6460263
0.0
1.7918296
0.0
0.0
0.0
2.6136582
0.0
0.0
0.0
0.0
0.0
0.0
0.0
0.0
4.260049
1.9664192
1.6107118
0.0
1.5998743
0.0
0.0
2.2393367
0.0
0.0
0.0
0.0
0.0
0.0
0.0
0.0
0.0
3.7919917
0.0
3.2841065
0.7175551
0.0
0.09673448
0.0
2.2676804
0.8471062
2.3889086
0.0
0.0
0.0
0.0
0.0
0.0
0.23785909
0.0
0.0
3.2958329
0.0
0.0
0.0
0.0
0.0
0.0
0.79201835
0.0
0.0
0.4444994
0.0
0.0
0.0
0.0
0.0
0.2729141
0.0
3.929233
0.0
0.0
0.0
0.0
0.19804409
0.0
0.0
0.0
0.0
0.0
0.0
0.0
2.1032333
2.1886969
0.0
0.0
0.0
0.0
0.0
0.0
0.0
