0.0
2.7889452
0.0
0.0
0.0
0.0
0.0
0.0
0.92301524
0.0
0.0
4.2621217
3.5042083
0.0
0.0
0.0
0.0
0.0
0.0
0.0
0.0
0.0
0.63008654
0.0
2.4442515
0.0
0.0
0.0
0.0
1.5973164
0.0
0.0
0.0
0.0
1.19555
0.0
3.344883
0.0
0.0
0.0
0.0
0.0
0.0
2.7204292
0.0
0.0
0.0
0.0
0.0
0.0
0.0
0.0
0.0
0.0
2.9050643
0.0
0.0
2.7155342
0.0
2.8496776
0.0
0.0
0.0
0.0
0.0
0.0
0.0
0.0
0.0
0.0
0.0
0.0
0.0
0.0
0.0
0.0
0.0
0.0
3.5606246
0.0
0.0
0.0
0.0
0.0
0.0
0.0
0.0
0.0
0.0
0.8204037
0.0
0.26090306
0.0
0.0
0.0
0.0
0.0
5.4179597
0.0
0.0
0.0
0.0
0.0
3.505437
0.0
0.0
0.0
0.0
4.9921026
0.0
0.0
0.0
0.0
0.0
0.0
3.6734588
3.974722
2.9787724
0.0
3.221907
