0.0
0.0
1.9131322
0.0
0.0
0.0
0.0
0.0
4.01869
0.0
0.0
0.0
0.0
0.0
0.0
2.6954029
0.0
0.111621335
0.41064456
0.0
0.0
0.0
0.0
2.9513078
0.023176096
0.0
0.0
1.886934
0.0
1.4694273
0.0
2.0986269
0.0
0.0
0.0
3.28261
0.0
0.0
0.0
0.0
0.0
0.0
0.0
0.0
3.8530264
3.3064945
0.72875595
0.0
2.8944507
0.0
0.0
2.8513474
0.0
0.0
0.0
0.0
0.0
0.0
0.0
0.0
0.0
3.9990778
0.0
3.1315641
0.57210535
0.0
0.0
0.0
1.8719803
2.4524002
1.1329362
0.0
0.0
0.0
0.0
0.0
0.0
0.0
0.0
0.0
3.579752
0.0
0.0
0.0
0.0
0.0
0.0
1.0223855
0.0
0.0
2.4193559
0.0
0.0
0.0
0.0
0.0
0.0
0.0
3.4977922
0.0
0.8503911
0.0
0.0
0.8834813
0.0
0.0
0.0
0.0
0.0
0.0
0.0
2.6803753
1.6767976
0.0
0.0
0.0
0.0
0.0
0.0
0.0
