0.0
2.1679392
0.0
0.0
0.0
1.7014248
0.0
0.0
0.0
0.0
0.0
4.5588374
2.8632314
0.0
0.0
0.0
0.0
0.0
0.0
0.0
0.0
0.0
0.0
0.0
3.229451
0.0
0.0
0.0
0.0
2.231399
0.0
0.0
0.0
3.0465577
3.5782561
0.0
2.7141106
0.0
0.0
0.0
0.0
0.0
0.0
3.932315
0.0
0.0
0.0
0.0
0.0
0.0
0.0
0.0
0.0
0.0
4.093615
0.0
0.0
1.4589288
0.0
2.485205
0.0
0.0
0.0
0.0
0.0
0.0
3.5733306
0.0
0.0
0.0
0.0
0.0
0.0
0.0
0.0
0.0
0.0
0.0
1.1597996
0.0
0.0
0.0
0.0
0.0
0.0
0.0
0.0
0.0
0.0
2.7617784
0.0
2.5149262
0.0
0.0
0.0
0.0
0.0
3.16605
0.0
0.0
0.0
0.0
0.07821812
4.7692676
0.0
0.0
0.0
0.0
5.084512
0.0
0.0
0.0
0.0
0.0
0.0
3.9129856
3.1601615
3.7955863
0.0
4.424111
