0.0
0.0
0.0
4.213874
0.82438266
0.0
2.564566
0.0
0.0
0.03611386
0.0
0.0
0.0
0.0
0.0
0.0
0.0
0.0
0.0
0.0
2.4235332
0.0
2.127062
0.0
0.0
0.0
0.0
0.0
0.0
0.0
2.2150145
0.0
0.0
0.0
0.0605869
0.0
1.5627998
0.0
2.1696725
0.69703585
0.3575587
5.1260214
0.0
0.0
0.0
0.0
0.0
0.0
0.0
0.0
3.5428271
0.0
0.0
0.0
0.0
1.4777993
2.698911
2.1737595
0.0
0.055594064
0.0
0.0
1.3107823
0.0
0.0
0.0
0.0
3.0740619
0.0
1.3569466
0.0
0.0
0.0
3.3538208
0.0
1.2559916
2.667827
0.64331603
0.5374643
0.0
0.0
3.5619044
0.0
0.0
0.0
3.1080563
0.0
1.2613014
0.0
0.0
0.0
0.0
0.0
0.0
0.0
0.0
0.0
0.0
0.0
0.74945277
0.0
0.0
0.0
0.0
0.0
0.0
4.591828
0.0
0.14565012
0.0
0.0
0.0
2.3879805
0.0
0.0
0.0
0.0
0.0
0.0
0.0
