3.1171181
0.0
0.84089035
0.0
0.0
0.0
0.0
0.09047367
0.0
0.0
0.0
0.0
4.416292
0.0
0.0
0.0
0.0
0.0
0.0
0.0
0.0
0.0
0.0
0.0
0.0
0.0
0.0
0.0
0.0
0.0
0.0
0.23763092
0.0
3.8311982
0.0
0.0
0.0
0.0
0.0
2.6445787
3.490286
0.0
0.0
0.0
4.886019
0.0
0.0
0.0
1.8469926
0.0
0.0
0.0
0.0
0.0
0.0
2.3428447
0.0
0.0
0.0
0.0
0.0
5.498191
2.7947192
4.853346
0.0
0.0
0.0
0.0
4.216096
0.0
0.0
0.0
0.0
0.0
0.0
0.0
0.5737984
4.194265
0.0
0.0
0.0
0.0
2.1903212
0.0
0.0
0.0
0.0
1.5877423
3.1524165
0.0
0.0
0.0
1.010169
0.0
0.0
0.0
2.5136452
0.0
3.8038182
0.0
0.0
0.49700767
0.15048297
0.0
0.0
0.0
0.0
0.0
0.0
0.0
0.0
0.0
0.0
0.0
0.0
0.0
0.0
0.0
0.0
0.0
