0.0
0.0
4.3259716
0.0
0.0
0.0
0.0
0.0
5.443904
0.0
0.0
0.0
0.0
0.0
0.0
3.6187756
0.0
0.8406763
2.4016705
0.18135786
0.0
0.0
0.0
4.0642614
0.050442718
0.0
0.0
2.3184786
0.0
2.291785
0.0
3.3005445
0.0
0.0
0.0
2.7843792
0.0
0.0
0.0
0.0
0.0
0.0
0.0
0.0
6.3731904
3.575995
0.44146073
0.0
4.0636783
0.0
0.0
3.4796247
0.0
0.0
0.0
0.0
0.0
0.0
0.0
0.0
0.0
6.2019086
0.0
4.318821
0.0
0.0
0.0
0.0
3.0102937
3.011554
3.5662978
0.0
0.0
0.0
0.0
0.0
0.0
0.54632396
0.0
0.0
4.939804
0.0
0.0
0.0
0.0
0.0
0.0
0.5385329
0.0
0.0
3.3213792
0.0
0.0
0.0
0.0
0.0
0.0
0.0
3.8474731
0.0
1.0480838
0.0
0.0
0.0
0.0
0.0
0.0
0.0
0.0
0.0
0.0
4.5309377
2.821284
0.0
0.0
0.0
0.0
0.0
0.0
0.0
