0.0
0.0
0.0
0.0
4.039039
0.8431498
3.3180883
0.26407695
1.2761002
1.6296616
0.0
0.0
0.0
0.0
4.485016
2.145053
0.0
0.0
0.0
0.0
0.0
0.0
0.0
0.0
0.0
4.3874183
0.0
0.0
3.7917843
0.0
0.0
1.8420463
4.3982277
0.0
0.0
2.5064356
0.0
0.0
2.1547651
0.0
0.0
4.2883625
0.0
0.0
0.0
3.0083601
3.649583
0.47959095
0.0
0.0
0.0
0.0
1.8747662
0.0
0.0
0.0
0.0
0.0
0.0
0.0
0.0
0.0
0.0
0.0
2.3596404
0.0
0.0
0.0
0.0
0.0
0.0
0.0
0.0
0.0
0.0
0.0
2.2765672
0.0
0.0
0.0
3.4686038
0.0
0.0
0.0
0.0
0.71583265
0.0
0.0
0.6555771
0.0
0.0
0.0
0.0
0.0
2.619732
0.0
0.0
0.0
0.0
0.0
0.30358267
0.0
0.0
0.0
0.0
0.3713116
0.0
0.0
0.0
0.0
0.0
0.0
0.0
0.0
4.2370543
0.0
0.0
0.0
0.0
0.0
