1.6091399
0.04296489
0.0
0.0
0.02001229
0.0
0.0
1.467351
0.0
0.0
0.0
0.0
0.0
0.0
0.03065442
0.0
0.0
0.0
2.4971669
0.6206178
0.0
0.0
3.7540512
0.0
0.8844964
0.0
0.0
0.0
2.46533
0.0
0.0
3.0063977
0.0
0.0
0.0
0.0
1.4600577
0.0
0.0
0.0
1.5440352
0.0
0.0
0.0
0.0
0.2831558
0.0
3.4503896
0.0
0.0
0.0
2.6458797
0.0
0.0
0.0
0.0
0.0
0.529339
1.9914541
1.4919907
0.0
0.0
0.0
0.0
0.0
0.0
0.0
0.0
0.0
0.0
0.0
0.0
1.2183836
0.0
0.0
0.0
0.0
0.0
0.0
0.0
0.0
0.0
0.0
0.0
0.0
0.0
3.890628
0.0
0.0
0.0
0.0
0.27675164
0.0
1.77356
0.0
0.0
0.0
1.3990262
0.0
0.0
0.0
0.0
0.0
1.4700156
0.0
3.006841
0.0
0.0
0.0
0.0
0.0
0.0
0.0
2.346008
0.0
0.0
0.94537497
0.0
0.0
0.0
