0.0
2.0537646
0.0
0.0
0.0
0.0
0.0
0.0
0.0
0.0
0.0
3.6737854
2.4097152
0.0
0.0
0.0
0.0
0.0
0.0
0.0
0.0
0.0
0.0
0.0
2.8248627
0.0
0.0
0.70086175
0.0
1.8160881
0.0
0.0
0.0
1.1475816
1.992279
0.0
2.3842187
0.0
0.0
0.0
0.0
0.0
0.0
3.383911
0.0
0.0
0.0
0.0
0.0
0.0
0.0
0.0
0.0
0.0
1.9556639
0.0
0.0
1.0505795
0.0
3.1485393
0.0
0.0
0.0
0.0
0.0
0.0
2.7854104
0.0
0.0
0.0
0.0
0.0
0.0
0.0
0.0
0.0
0.0
0.0
1.3033928
0.0
0.0
0.0
0.0
0.0
0.0
0.0
0.0
0.0
0.0
2.1824636
0.0
3.2751913
0.0
0.0
0.0
0.0
0.0
2.9153423
0.0
0.0
0.0
0.0
0.10308002
4.548719
0.0
0.0
0.0
0.0
4.4093075
0.0
0.0
0.0
0.0
0.0
0.0
2.0530062
1.626492
3.907096
0.0
3.3192828
