0.0
0.0
4.636544
0.0
0.0
2.4657178
0.0
3.244865
2.0483153
0.0
0.0
0.0
3.8847365
0.0
0.0
0.0
4.2392526
0.60671073
0.0
0.0
0.0
0.0
3.8676665
0.0
0.0
0.0
0.0
0.39359504
0.0
0.0
0.0
0.0
0.0
4.0994654
2.8674705
0.0
0.0
0.0
3.610477
0.0
0.0
0.0
0.0
4.2724433
0.0
0.0
0.0
0.0
0.0
0.0
0.0
0.0
0.0
0.0
0.0
0.0
4.216909
0.0
0.0
0.0
0.0
0.0
0.0
0.0
0.0
3.8504832
0.0
0.0
3.4910345
0.0
4.3285904
0.0
0.0
0.0
0.0
3.0206227
5.4639044
3.604979
0.0
0.0
0.0
0.0
0.0
0.0
0.0
0.0
0.0
0.0
0.0
0.0
0.0
0.0
0.0
0.0
2.7367327
0.0
0.0
0.0
0.0
0.0
0.0
0.0
5.120805
0.0
0.0
0.0
0.0
0.0
0.0
0.0
0.0
0.0
0.0
0.0
0.0
3.7582154
0.0
4.715822
0.0
0.0
