2.4042282
0.0
0.0
0.0
0.0
0.0
0.0
0.0
0.0
0.0
0.0
0.0
3.6588902
0.0
0.0
0.0
0.054535605
0.0
0.0
0.0
0.0
0.0
0.0
0.0
0.0
0.0
0.0
0.0
0.0
0.0
0.0
0.0
0.0
4.337483
0.0
0.0
0.0
0.0
0.0
4.6687603
3.4373956
0.0
0.0
0.0
4.71399
0.0
0.0
0.0
0.9894784
0.0
0.0
0.0
0.0
0.0
0.0
3.2643054
0.0
0.0
0.0
0.0
0.0
4.6240516
4.094576
5.2350893
0.0
0.0
0.0
0.0
3.7693624
0.0
0.0
0.0
0.0
0.0
0.0
0.0
2.0872638
6.487149
0.0
0.0
0.0
0.0
2.6035554
0.0
0.0
0.0
0.015040666
3.4043343
4.3805256
0.0
0.0
0.0
4.6803575
0.0
0.0
0.0
3.6512723
0.0
2.9575405
0.0
0.0
2.1190903
1.8276962
0.0
0.0
0.0
0.0
0.0
0.0
0.0
0.0
0.0
0.0
0.0
0.0
0.0
0.0
0.0
0.0
0.0
