0.0
0.0
2.3079062
0.0
0.0
0.0
0.0
0.0
3.350922
0.0
0.0
0.0
0.0
0.0
0.0
2.559186
0.0
0.30808818
0.48932567
0.7902081
0.0
0.0
0.0
4.027787
0.0
0.0
0.0
0.0
0.0
1.6753168
0.0
2.9033499
0.0
0.0
0.0
2.9711366
0.0
0.0
0.0
0.0
0.45545548
0.0
0.0
0.0
4.880982
1.0291404
0.4514616
0.0
4.2548122
0.0
0.0
1.303618
0.0
0.0
0.0
0.0
0.0
0.0
0.0
0.0
0.0
5.303782
0.0
4.7793856
0.0
0.0
0.0
0.0
3.358538
3.6890306
2.464768
0.0
0.0
0.0
0.0
0.0
0.0
0.6296794
0.0
0.0
2.2968388
0.0
0.0
0.0
0.0
0.0
0.0
0.4864468
0.0
0.0
2.4631803
0.0
0.0
0.0
0.0
0.0
0.0
0.0
3.606907
0.0
1.0631499
0.0
0.0
0.0
0.0
0.0
0.0
0.0
0.0
0.0
0.0
3.3159978
3.3517187
0.0
0.0
0.0
0.0
0.0
0.0
0.0
