0.87081635
0.0
0.5430007
0.0
0.29381534
0.0
0.0
0.0
2.2158208
0.0
0.0
0.0
0.0
0.0
0.0
1.452562
0.0
0.35708654
0.39349356
0.0
0.0
0.0
0.0
0.95057535
0.0
0.0
0.0
2.0616188
1.5367862
0.336335
0.0
2.9268985
0.0820243
0.0
0.0
1.3348641
0.0
0.0
0.0
0.0
0.0
0.0
0.0
0.0
3.2401721
1.9502633
0.8258684
0.36978996
1.488306
0.0
0.0
1.7730392
0.0
0.0
0.0
0.0
0.0
0.0
0.0
0.0
0.0
3.452956
0.0
2.8318756
0.2721507
0.0
0.0955971
0.0
1.376813
0.0
0.7239349
0.0
0.0
0.0
0.0
0.0
0.0
0.0
0.0
0.0
2.6088111
0.0
0.0
0.0
0.0
0.0
0.0
0.21527612
0.23954111
0.0
0.2059139
0.0
0.0
0.0
0.0
0.0
0.31061387
0.0
3.1232202
0.0
0.0
0.0
0.0
0.0
0.0
0.29997987
0.0
0.0
0.0
0.0
0.0
1.061532
0.9419778
0.0
0.0
0.0
0.0
0.0
0.0
0.0
