0.0
0.0
2.812671
0.0
0.0
0.0
0.0
0.0
0.5186556
0.0
0.0
0.0
4.0261264
0.0
0.0
0.0
2.0812442
0.08360411
0.0
0.0
0.0
0.0
1.3479745
0.0
0.0
0.0
0.0
1.3094265
0.0
0.0
0.0
0.0
0.0
3.0881035
0.36850667
0.0
0.0
0.0
0.056611665
0.0
0.0
0.0
0.0
1.676728
0.0
0.0
0.0
0.0
0.0
0.0
0.0
0.0
0.0
0.0
0.0
0.0
1.4391456
0.0
0.0
0.0
0.0
0.0
0.0
0.3127481
0.0
2.436754
0.0
0.0
3.5609589
0.0
1.9147276
0.0
0.0
0.0
0.0
0.0
3.5807722
3.6182015
0.0
0.0
0.0
0.0
0.0
0.0
0.0
0.0
0.0
0.0
0.0
0.0
0.0
0.0
0.0
0.0
0.0
0.0
0.0
0.0
0.0
0.0
0.0
0.0
3.884876
0.0
0.0
0.0
0.0
0.0
0.0
0.0
0.0
0.0
0.0
0.6107704
0.0
0.71527207
0.0
3.2752311
0.0
0.0
