0.93895864
0.0
0.0
0.0
0.0
0.0
0.0
2.5297933
0.0
0.0
0.0
0.0
0.0
0.0
0.0
0.0
0.0
2.184349
3.9734344
0.71824044
0.0
0.0
4.55144
0.0
0.78485906
0.0
0.0
2.4158974
2.9018126
0.0
0.0
3.9841185
0.0
0.0
0.0
0.0
0.039072122
0.0
0.0
0.0
0.0
0.0
0.0
0.0
0.0
0.0
0.0
3.6812153
0.0
0.0
0.0
3.3068042
0.0
0.0
0.0
0.0
0.0
0.0
3.1963553
0.9836007
0.0
0.0
0.0
0.0
0.0
0.0
0.0
0.0
0.0
0.0
0.0
0.0
1.5689913
0.0
0.0
0.0
0.0
0.0
0.0
0.0
0.0
0.0
0.0
0.0
0.0
0.0
4.921758
0.0
0.0
0.0
0.0
1.7740854
0.0
3.0301933
0.0
0.0
0.0
0.0
0.0
0.0
0.0
0.0
0.0
0.8796216
0.0
3.7419217
0.0
0.0
0.0
0.0
0.0
0.0
0.0
3.5556881
0.0
0.0
0.0
2.2113297
0.0
0.0
