0.0
0.0
0.0
0.0
0.0
0.0
0.0
1.0311561
0.5422917
3.7452385
0.0
0.0
0.0
0.0
0.0
0.0
1.7328972
0.0
0.0
0.0
0.0
2.8336632
0.5733681
0.0
0.24041763
0.0
0.0
0.0
0.55792964
0.0
0.12055244
0.5632743
0.0
0.0
0.0
0.0
0.0
0.0
1.4702964
0.0
0.0
0.0
0.0
0.0
0.0
1.0640768
1.1077392
0.0
0.0
3.471526
0.0
1.7898787
0.0
0.0
2.2540436
0.0
0.0
0.0
0.99234545
0.0
0.0
2.1077206
0.0
0.024918824
1.3472128
0.0
0.0
1.7855692
0.0
0.0
0.87575865
0.0
0.0
1.5924888
3.8726873
2.9426873
0.0
0.034721747
0.0
2.3140514
0.73379725
0.0
0.0
0.0
4.1703205
1.2191454
0.0
0.0
0.0
0.0
0.0
0.0
0.0
0.0
0.80238074
2.356503
0.0
0.0
0.0
0.0
0.0
0.0
0.0
0.0
0.0
0.0
0.0
0.0
0.0
2.9119534
0.0
0.0
0.0
0.0
4.2242913
0.0
0.0
0.96350026
3.4391172
0.0
