0.0
0.0
0.0
3.4855175
0.0
0.0
0.5809167
0.0
0.0
0.0
0.0
0.34964618
1.1296291
0.0
0.0
0.0
0.0
0.0
0.0
0.0
2.0001538
0.0
2.449237
0.0
0.0
0.0
0.0
0.0
0.0
0.0
1.9983878
0.0
0.0
0.0
0.60262656
0.0
1.4009739
0.0
2.0426893
1.0448222
1.5211313
3.3683093
0.0
0.0
0.0
0.0
0.0
0.0
0.0
0.0
3.9189475
0.0
0.0
0.0
0.0
0.8669617
3.2999287
2.6667526
0.0
0.0
0.0
0.0
0.0
0.0
0.0
0.0
0.0
3.0461273
0.0
1.9634936
0.0
0.0
0.0
3.6611726
0.0
1.6324749
3.805208
0.35900855
0.0
0.0
0.0
3.1493592
0.0
0.0
0.0
2.0650823
0.0
0.24138671
0.0
0.0
0.0
0.0
0.0
0.0
0.0
0.0
0.0
0.0
0.0
0.0
0.0
0.0
0.0
0.0
0.0
0.0
4.39605
0.0
0.047545783
0.0
0.0
0.0
2.8016167
0.0
0.0
0.0
0.0
0.0
0.0
0.0
