0.0
0.0
0.0
0.21529296
5.1267233
0.4164143
5.6541133
0.0
2.3280451
2.9187198
0.0
0.0
0.0
0.0
4.5419383
3.593726
0.0
0.0
0.0
0.0
0.0
0.0
0.0
0.0
0.0
4.431816
0.0
0.0
4.3635135
0.0
0.0
1.4268458
4.4919143
0.0
0.0
4.3318443
0.0
0.0
2.0941534
0.0
0.0
5.37287
0.0
0.0
0.0
5.461588
4.3215413
0.0
0.0
0.0
0.0
0.0
2.9129555
0.0
0.0
0.0
0.0
0.0
0.0
0.0
0.0
0.0
0.0
0.0
3.8049738
0.0
0.0
0.0
0.0
0.0
0.0
0.0
0.0
0.3554175
0.0
0.0
2.2451391
0.0
0.0
0.0
4.41916
0.0
0.0
0.0
0.0
1.5903177
0.0
0.0
0.0
0.0
0.0
0.0
0.0
0.0
2.9751205
0.0
0.0
0.0
0.0
0.0
1.8701955
0.0
0.0
0.0
0.0
0.0
0.0
0.0
0.0
0.0
0.0
0.0
0.0
0.0
4.806509
0.0
0.0
0.0
0.0
0.0
