3.8105698
0.0
0.0
0.0
0.0
0.0
0.0
0.0
0.0
0.0
0.0
0.0
1.6604781
0.0
0.0
0.0
0.0
0.0
0.0
0.0
0.0
0.0
0.0
0.0
0.0
0.0
0.0
0.7232012
0.8802501
0.0
0.0
1.2378682
0.0
2.5215254
0.0
0.0
0.0
0.0
0.0
1.5831163
3.249782
0.0
0.0
0.0
3.2663555
1.4033186
0.0
0.0
1.7126179
0.0
0.0
0.0
0.0
0.0
0.0
2.427311
0.0
0.0
0.0
0.0
0.0
4.7392726
2.2256384
2.3742235
0.0
0.0
0.0
0.0
1.880737
0.0
0.0
0.0
0.0
0.0
0.0
0.0
0.0
2.4223201
0.0
0.0
0.0
0.0
1.861386
0.0
0.0
0.0
0.16538951
1.4450319
1.4087988
0.0
0.0
0.0
1.275861
0.0
0.0
0.0
1.3512213
0.0
2.6689906
0.0
0.7855765
0.46063483
0.0
0.0
0.0
0.0
0.0
0.0
0.0
0.0
0.0
0.0
0.0
0.0
0.0
0.0
0.0
0.0
0.0
0.0
