-0.000000
-0.000000
-0.000000
-0.000000
0.382080
-0.000000
-0.000000
0.113770
-0.000000
-0.000000
-0.000000
-0.000000
-0.000000
-0.000000
-0.000000
-0.000000
0.068787
-0.000000
0.270264
-0.000000
-0.000000
-0.000000
-0.000000
-0.000000
-0.000000
-0.000000
0.578125
-0.000000
-0.000000
0.937988
-0.000000
-0.000000
-0.000000
0.860840
0.051239
-0.000000
-0.000000
-0.000000
-0.000000
2.132812
0.926758
-0.000000
0.270752
-0.000000
-0.000000
-0.000000
-0.000000
-0.000000
0.101929
-0.000000
-0.000000
0.699707
-0.000000
0.022980
-0.000000
0.012268
-0.000000
-0.000000
-0.000000
-0.000000
-0.000000
0.037933
1.020508
-0.000000
-0.000000
0.363037
-0.000000
-0.000000
-0.000000
-0.000000
-0.000000
-0.000000
-0.000000
-0.000000
-0.000000
0.014893
0.779297
0.020294
-0.000000
-0.000000
-0.000000
0.560059
-0.000000
-0.000000
0.259033
-0.000000
-0.000000
0.382324
0.690430
-0.000000
-0.000000
0.042694
-0.000000
-0.000000
-0.000000
-0.000000
0.001892
-0.000000
-0.000000
-0.000000
0.624512
-0.000000
1.104492
0.617676
0.358887
-0.000000
-0.000000
-0.000000
-0.000000
0.731445
-0.000000
-0.000000
-0.000000
-0.000000
-0.000000
0.712891
-0.000000
-0.000000
-0.000000
1.624023
-0.000000
0.024170
-0.000000
-0.000000
-0.000000
-0.000000
-0.000000
-0.000000
-0.000000
-0.000000
1.733398
-0.000000
-0.000000
-0.000000
-0.000000
0.098511
-0.000000
-0.000000
-0.000000
-0.000000
-0.000000
-0.000000
0.047974
0.334717
-0.000000
-0.000000
1.032227
-0.000000
-0.000000
1.322266
-0.000000
-0.000000
0.948730
-0.000000
-0.000000
0.137451
-0.000000
-0.000000
2.212891
-0.000000
-0.000000
0.338623
-0.000000
-0.000000
-0.000000
-0.000000
0.046631
-0.000000
1.086914
-0.000000
-0.000000
1.385742
-0.000000
-0.000000
-0.000000
-0.000000
-0.000000
0.389893
-0.000000
0.205933
-0.000000
-0.000000
-0.000000
0.015747
-0.000000
-0.000000
0.027054
-0.000000
-0.000000
-0.000000
0.288574
0.121460
-0.000000
-0.000000
-0.000000
0.005859
-0.000000
-0.000000
-0.000000
0.029602
-0.000000
-0.000000
-0.000000
0.149170
-0.000000
-0.000000
-0.000000
0.777344
0.147583
-0.000000
-0.000000
0.200073
0.207275
0.015434
0.033813
-0.000000
0.674316
0.214233
-0.000000
0.457764
-0.000000
0.670410
-0.000000
-0.000000
-0.000000
-0.000000
-0.000000
0.412598
-0.000000
0.737305
0.994141
-0.000000
-0.000000
-0.000000
-0.000000
-0.000000
0.819336
-0.000000
-0.000000
-0.000000
0.856445
0.095703
-0.000000
-0.000000
-0.000000
0.683594
-0.000000
-0.000000
-0.000000
0.070312
-0.000000
-0.000000
-0.000000
-0.000000
-0.000000
1.684570
0.115662
-0.000000
-0.000000
-0.000000
0.118042
-0.000000
0.252441
-0.000000
-0.000000
0.041626
-0.000000
-0.000000
-0.000000
-0.000000
0.166992
-0.000000
0.063110
-0.000000
-0.000000
1.119141
-0.000000
-0.000000
-0.000000
1.013672
-0.000000
1.049805
-0.000000
-0.000000
0.332520
1.211914
-0.000000
0.535645
-0.000000
-0.000000
1.218750
-0.000000
-0.000000
-0.000000
1.325195
-0.000000
1.328125
-0.000000
-0.000000
0.168945
-0.000000
-0.000000
-0.000000
0.214355
-0.000000
-0.000000
-0.000000
-0.000000
-0.000000
-0.000000
-0.000000
0.064209
1.587891
-0.000000
-0.000000
1.648438
-0.000000
0.794922
-0.000000
-0.000000
-0.000000
-0.000000
-0.000000
-0.000000
-0.000000
-0.000000
-0.000000
-0.000000
-0.000000
-0.000000
-0.000000
-0.000000
-0.000000
0.100098
-0.000000
-0.000000
-0.000000
-0.000000
0.422852
1.135742
-0.000000
-0.000000
0.056305
0.333008
-0.000000
-0.000000
-0.000000
-0.000000
0.179810
-0.000000
-0.000000
-0.000000
-0.000000
-0.000000
-0.000000
-0.000000
2.033203
1.744141
-0.000000
-0.000000
-0.000000
-0.000000
0.624023
-0.000000
-0.000000
-0.000000
1.276367
-0.000000
-0.000000
-0.000000
-0.000000
2.039062
-0.000000
-0.000000
0.043030
-0.000000
-0.000000
0.534180
-0.000000
0.152222
-0.000000
0.724121
0.623535
0.235596
0.217285
-0.000000
-0.000000
-0.000000
1.821289
-0.000000
0.044189
-0.000000
-0.000000
0.577637
-0.000000
0.505371
-0.000000
-0.000000
-0.000000
-0.000000
-0.000000
0.002197
-0.000000
-0.000000
-0.000000
-0.000000
-0.000000
-0.000000
-0.000000
-0.000000
-0.000000
-0.000000
-0.000000
-0.000000
0.131836
-0.000000
-0.000000
-0.000000
-0.000000
0.324951
-0.000000
-0.000000
-0.000000
-0.000000
-0.000000
0.126709
-0.000000
-0.000000
-0.000000
0.228516
-0.000000
-0.000000
-0.000000
-0.000000
-0.000000
-0.000000
-0.000000
-0.000000
-0.000000
0.514648
0.194580
-0.000000
-0.000000
-0.000000
-0.000000
-0.000000
-0.000000
-0.000000
-0.000000
-0.000000
-0.000000
-0.000000
-0.000000
-0.000000
-0.000000
-0.000000
-0.000000
0.027710
-0.000000
0.043701
-0.000000
-0.000000
-0.000000
-0.000000
-0.000000
-0.000000
-0.000000
-0.000000
-0.000000
-0.000000
-0.000000
-0.000000
0.940430
-0.000000
-0.000000
-0.000000
0.053802
0.138428
0.689941
0.026062
-0.000000
-0.000000
-0.000000
-0.000000
-0.000000
-0.000000
-0.000000
-0.000000
-0.000000
0.875000
-0.000000
-0.000000
0.940430
-0.000000
0.337402
-0.000000
-0.000000
-0.000000
-0.000000
0.189453
