-0.000000
0.312012
-0.000000
-0.000000
-0.000000
0.145752
-0.000000
0.431152
-0.000000
-0.000000
0.541992
0.029114
-0.000000
1.005859
-0.000000
-0.000000
-0.000000
-0.000000
-0.000000
-0.000000
-0.000000
-0.000000
-0.000000
0.040039
-0.000000
-0.000000
0.319824
-0.000000
0.497803
-0.000000
-0.000000
-0.000000
-0.000000
2.228516
-0.000000
-0.000000
0.131714
-0.000000
-0.000000
-0.000000
-0.000000
1.068359
0.288330
2.324219
-0.000000
0.456055
-0.000000
-0.000000
-0.000000
-0.000000
-0.000000
-0.000000
0.146606
0.028595
-0.000000
-0.000000
-0.000000
0.432617
-0.000000
1.230469
-0.000000
0.056244
-0.000000
0.125366
0.142944
-0.000000
-0.000000
-0.000000
-0.000000
-0.000000
-0.000000
-0.000000
0.262451
-0.000000
-0.000000
0.422607
-0.000000
-0.000000
0.042755
-0.000000
-0.000000
0.421143
0.053955
0.093750
-0.000000
-0.000000
-0.000000
0.205688
0.602539
-0.000000
0.589355
-0.000000
0.042358
1.267578
-0.000000
0.438477
0.241943
-0.000000
0.342041
-0.000000
-0.000000
1.036133
0.851074
0.023026
0.442627
1.484375
-0.000000
1.324219
-0.000000
-0.000000
-0.000000
-0.000000
0.989746
-0.000000
-0.000000
-0.000000
0.116455
-0.000000
-0.000000
0.020401
-0.000000
0.090576
0.220581
0.040619
-0.000000
-0.000000
-0.000000
-0.000000
-0.000000
-0.000000
-0.000000
-0.000000
-0.000000
-0.000000
-0.000000
-0.000000
0.427979
-0.000000
-0.000000
-0.000000
0.000427
-0.000000
-0.000000
-0.000000
-0.000000
-0.000000
0.082642
1.628906
-0.000000
-0.000000
3.101562
-0.000000
-0.000000
-0.000000
-0.000000
0.017776
-0.000000
-0.000000
1.018555
-0.000000
0.413574
-0.000000
-0.000000
0.828125
0.193604
-0.000000
-0.000000
-0.000000
-0.000000
-0.000000
0.033142
-0.000000
-0.000000
1.585938
-0.000000
-0.000000
-0.000000
-0.000000
0.935547
-0.000000
-0.000000
-0.000000
2.578125
-0.000000
-0.000000
0.089905
0.229736
-0.000000
-0.000000
2.300781
0.135376
1.216797
-0.000000
-0.000000
0.219849
-0.000000
-0.000000
-0.000000
-0.000000
0.150635
-0.000000
0.878418
-0.000000
-0.000000
0.007751
0.370117
-0.000000
0.063782
0.248901
-0.000000
-0.000000
-0.000000
-0.000000
-0.000000
0.215210
0.121826
-0.000000
-0.000000
-0.000000
0.220459
-0.000000
-0.000000
-0.000000
-0.000000
-0.000000
-0.000000
1.888672
-0.000000
0.001465
0.119873
0.167358
-0.000000
1.386719
-0.000000
-0.000000
-0.000000
-0.000000
-0.000000
-0.000000
2.027344
-0.000000
1.221680
0.260498
-0.000000
-0.000000
-0.000000
-0.000000
-0.000000
-0.000000
0.112305
0.055786
0.283936
0.008759
-0.000000
-0.000000
0.308105
-0.000000
-0.000000
0.612305
-0.000000
-0.000000
1.461914
-0.000000
0.007202
-0.000000
-0.000000
0.288086
-0.000000
-0.000000
-0.000000
0.210449
0.224487
0.261230
1.322266
-0.000000
0.350342
-0.000000
0.373047
-0.000000
-0.000000
-0.000000
-0.000000
0.198853
-0.000000
0.080750
1.357422
-0.000000
-0.000000
0.071411
0.490967
-0.000000
-0.000000
-0.000000
-0.000000
0.371582
-0.000000
0.075928
-0.000000
-0.000000
-0.000000
1.040039
-0.000000
-0.000000
-0.000000
1.200195
-0.000000
-0.000000
-0.000000
0.288330
0.040558
-0.000000
-0.000000
0.631348
0.018860
-0.000000
-0.000000
-0.000000
-0.000000
0.746582
-0.000000
-0.000000
-0.000000
-0.000000
0.003174
-0.000000
-0.000000
-0.000000
-0.000000
-0.000000
-0.000000
-0.000000
-0.000000
-0.000000
-0.000000
-0.000000
-0.000000
0.180542
-0.000000
-0.000000
-0.000000
-0.000000
0.070740
-0.000000
-0.000000
-0.000000
-0.000000
-0.000000
0.347412
2.283203
-0.000000
-0.000000
-0.000000
0.024399
-0.000000
-0.000000
0.116699
-0.000000
-0.000000
-0.000000
-0.000000
0.308350
-0.000000
-0.000000
1.830078
0.030670
-0.000000
-0.000000
0.364502
-0.000000
-0.000000
0.176270
0.307861
-0.000000
2.275391
-0.000000
-0.000000
-0.000000
-0.000000
-0.000000
0.373291
-0.000000
-0.000000
-0.000000
-0.000000
1.562500
0.039703
-0.000000
-0.000000
-0.000000
-0.000000
0.456787
-0.000000
0.281738
-0.000000
-0.000000
-0.000000
-0.000000
-0.000000
-0.000000
0.024658
-0.000000
0.106567
-0.000000
-0.000000
0.092773
-0.000000
1.339844
0.951172
-0.000000
1.595703
-0.000000
0.904297
0.855957
-0.000000
-0.000000
-0.000000
-0.000000
-0.000000
-0.000000
-0.000000
-0.000000
-0.000000
-0.000000
-0.000000
-0.000000
-0.000000
-0.000000
0.614258
-0.000000
-0.000000
0.274414
-0.000000
-0.000000
0.620605
-0.000000
-0.000000
-0.000000
-0.000000
0.026215
-0.000000
-0.000000
-0.000000
-0.000000
-0.000000
-0.000000
0.154785
0.072632
-0.000000
0.250977
-0.000000
-0.000000
-0.000000
-0.000000
1.385742
-0.000000
-0.000000
-0.000000
0.230103
-0.000000
-0.000000
0.450684
0.060211
-0.000000
0.074829
0.130127
0.150391
-0.000000
-0.000000
0.158691
0.119507
0.986328
0.072876
-0.000000
-0.000000
-0.000000
1.708984
-0.000000
-0.000000
-0.000000
-0.000000
0.450195
-0.000000
0.588867
-0.000000
-0.000000
-0.000000
-0.000000
-0.000000
0.169312
0.156494
0.255859
0.525879
-0.000000
-0.000000
-0.000000
1.085938
-0.000000
-0.000000
-0.000000
0.604980
