-0.000000
-0.000000
-0.000000
0.212402
0.749512
0.886230
0.278564
-0.000000
-0.000000
0.393799
-0.000000
-0.000000
-0.000000
-0.000000
-0.000000
-0.000000
-0.000000
-0.000000
-0.000000
-0.000000
-0.000000
-0.000000
0.226562
-0.000000
0.058929
-0.000000
-0.000000
-0.000000
-0.000000
-0.000000
-0.000000
-0.000000
-0.000000
-0.000000
-0.000000
-0.000000
0.128662
-0.000000
-0.000000
-0.000000
0.699219
0.254883
-0.000000
-0.000000
-0.000000
-0.000000
-0.000000
-0.000000
0.061829
-0.000000
-0.000000
1.449219
-0.000000
-0.000000
-0.000000
0.556152
-0.000000
0.101074
-0.000000
-0.000000
-0.000000
0.453369
0.954102
-0.000000
-0.000000
-0.000000
-0.000000
-0.000000
-0.000000
0.372314
-0.000000
-0.000000
0.207642
1.357422
-0.000000
0.023560
-0.000000
0.011841
0.088989
0.621094
-0.000000
0.344971
-0.000000
-0.000000
0.639648
-0.000000
-0.000000
-0.000000
-0.000000
-0.000000
0.752930
-0.000000
-0.000000
-0.000000
0.361328
-0.000000
-0.000000
-0.000000
-0.000000
0.144897
0.288086
-0.000000
-0.000000
0.042908
1.745117
0.025558
-0.000000
-0.000000
-0.000000
2.117188
-0.000000
-0.000000
-0.000000
0.060028
-0.000000
0.395996
1.105469
1.708984
-0.000000
-0.000000
0.085632
-0.000000
-0.000000
-0.000000
-0.000000
-0.000000
1.125000
-0.000000
-0.000000
-0.000000
1.442383
-0.000000
-0.000000
-0.000000
-0.000000
-0.000000
-0.000000
0.385986
-0.000000
-0.000000
0.389648
-0.000000
-0.000000
-0.000000
-0.000000
-0.000000
1.447266
1.351562
-0.000000
0.089600
-0.000000
3.042969
-0.000000
-0.000000
-0.000000
-0.000000
0.018356
-0.000000
0.913574
-0.000000
0.862793
-0.000000
-0.000000
-0.000000
-0.000000
-0.000000
-0.000000
-0.000000
-0.000000
-0.000000
-0.000000
-0.000000
-0.000000
-0.000000
-0.000000
-0.000000
0.210571
-0.000000
-0.000000
0.694824
0.143799
-0.000000
-0.000000
-0.000000
-0.000000
-0.000000
-0.000000
0.101440
-0.000000
-0.000000
-0.000000
0.254395
0.161011
-0.000000
0.216064
0.315918
-0.000000
-0.000000
-0.000000
-0.000000
-0.000000
-0.000000
-0.000000
0.110840
0.075989
-0.000000
-0.000000
0.556152
0.033661
-0.000000
-0.000000
0.142822
-0.000000
-0.000000
0.628418
-0.000000
0.024689
0.150879
1.289062
1.279297
-0.000000
0.477295
-0.000000
-0.000000
-0.000000
-0.000000
-0.000000
-0.000000
-0.000000
-0.000000
0.667969
-0.000000
0.504395
0.229736
-0.000000
1.052734
1.320312
-0.000000
0.727051
0.421875
-0.000000
-0.000000
0.162109
0.136353
0.785156
-0.000000
-0.000000
0.106812
-0.000000
-0.000000
-0.000000
-0.000000
-0.000000
-0.000000
0.074158
0.178589
-0.000000
-0.000000
-0.000000
-0.000000
-0.000000
-0.000000
0.392334
-0.000000
-0.000000
0.010986
-0.000000
-0.000000
0.014648
-0.000000
-0.000000
0.062134
-0.000000
-0.000000
-0.000000
0.119629
-0.000000
-0.000000
1.366211
-0.000000
-0.000000
2.412109
-0.000000
-0.000000
-0.000000
-0.000000
-0.000000
-0.000000
-0.000000
-0.000000
-0.000000
0.131592
-0.000000
-0.000000
-0.000000
-0.000000
0.302246
0.229858
0.061279
-0.000000
-0.000000
-0.000000
0.080383
1.422852
0.024170
0.114990
-0.000000
0.073608
-0.000000
1.200195
0.006317
-0.000000
-0.000000
-0.000000
-0.000000
-0.000000
-0.000000
-0.000000
0.490723
0.253174
-0.000000
0.467773
-0.000000
-0.000000
-0.000000
-0.000000
-0.000000
-0.000000
-0.000000
1.967773
-0.000000
-0.000000
-0.000000
-0.000000
-0.000000
-0.000000
-0.000000
-0.000000
0.070129
0.036255
-0.000000
-0.000000
-0.000000
0.354248
-0.000000
-0.000000
-0.000000
0.217773
-0.000000
-0.000000
0.681641
-0.000000
-0.000000
-0.000000
-0.000000
-0.000000
1.833984
-0.000000
-0.000000
-0.000000
-0.000000
-0.000000
2.187500
-0.000000
-0.000000
-0.000000
-0.000000
-0.000000
0.666016
0.384033
0.389648
-0.000000
-0.000000
-0.000000
0.392578
-0.000000
-0.000000
-0.000000
-0.000000
0.216187
-0.000000
-0.000000
-0.000000
-0.000000
0.455811
-0.000000
-0.000000
-0.000000
0.969727
1.595703
0.136841
-0.000000
-0.000000
1.191406
0.243774
-0.000000
-0.000000
-0.000000
0.007812
0.057190
0.392578
0.203003
-0.000000
-0.000000
-0.000000
-0.000000
-0.000000
-0.000000
0.208740
1.128906
-0.000000
-0.000000
-0.000000
-0.000000
0.651367
-0.000000
1.142578
-0.000000
-0.000000
1.066406
-0.000000
0.147461
-0.000000
-0.000000
0.989258
-0.000000
0.070740
-0.000000
-0.000000
1.169922
-0.000000
-0.000000
-0.000000
-0.000000
-0.000000
-0.000000
-0.000000
-0.000000
-0.000000
0.257080
-0.000000
-0.000000
0.411133
0.047394
-0.000000
-0.000000
-0.000000
-0.000000
0.170410
-0.000000
-0.000000
-0.000000
-0.000000
-0.000000
-0.000000
-0.000000
2.193359
0.073669
-0.000000
0.182617
-0.000000
0.527344
-0.000000
-0.000000
-0.000000
-0.000000
-0.000000
-0.000000
-0.000000
-0.000000
-0.000000
-0.000000
-0.000000
-0.000000
0.161621
-0.000000
0.017609
-0.000000
0.097900
0.002625
-0.000000
-0.000000
0.285156
-0.000000
0.064331
-0.000000
-0.000000
-0.000000
0.037048
-0.000000
-0.000000
-0.000000
0.141113
0.845703
-0.000000
-0.000000
-0.000000
-0.000000
-0.000000
0.248535
