-0.000000
0.389404
-0.000000
-0.000000
0.145020
0.387939
0.053223
0.061798
-0.000000
-0.000000
-0.000000
-0.000000
0.109680
-0.000000
-0.000000
-0.000000
-0.000000
-0.000000
-0.000000
-0.000000
0.303467
-0.000000
0.235718
-0.000000
0.080261
0.083313
-0.000000
-0.000000
-0.000000
0.308350
-0.000000
-0.000000
-0.000000
-0.000000
-0.000000
-0.000000
-0.000000
0.776367
-0.000000
-0.000000
0.293213
-0.000000
-0.000000
-0.000000
-0.000000
0.033203
0.583496
-0.000000
0.106445
-0.000000
-0.000000
0.184937
-0.000000
0.035736
-0.000000
0.000793
-0.000000
0.229736
-0.000000
0.416504
0.204224
-0.000000
0.121399
-0.000000
-0.000000
0.111084
-0.000000
0.005127
-0.000000
1.009766
-0.000000
-0.000000
-0.000000
0.016785
-0.000000
-0.000000
-0.000000
-0.000000
0.006088
1.373047
-0.000000
-0.000000
0.482910
-0.000000
0.366699
0.390381
-0.000000
0.116211
-0.000000
-0.000000
0.080566
0.089600
0.461670
-0.000000
0.434570
-0.000000
-0.000000
-0.000000
-0.000000
0.459229
0.237305
-0.000000
0.185547
0.204468
-0.000000
-0.000000
-0.000000
-0.000000
-0.000000
0.847168
0.344971
0.603516
0.022217
0.206055
0.063477
0.059631
-0.000000
-0.000000
-0.000000
-0.000000
0.482666
-0.000000
-0.000000
-0.000000
-0.000000
-0.000000
0.856934
-0.000000
0.336914
-0.000000
-0.000000
-0.000000
0.143433
-0.000000
-0.000000
-0.000000
-0.000000
0.069458
-0.000000
-0.000000
-0.000000
-0.000000
-0.000000
0.280518
-0.000000
-0.000000
-0.000000
-0.000000
-0.000000
-0.000000
-0.000000
0.387207
1.127930
-0.000000
-0.000000
-0.000000
0.790039
-0.000000
-0.000000
-0.000000
0.946289
-0.000000
-0.000000
-0.000000
-0.000000
-0.000000
0.002563
-0.000000
-0.000000
-0.000000
0.014145
-0.000000
-0.000000
0.148071
-0.000000
-0.000000
0.002350
-0.000000
0.086914
0.920410
-0.000000
-0.000000
-0.000000
0.036072
0.048035
-0.000000
0.004044
-0.000000
-0.000000
-0.000000
-0.000000
-0.000000
0.019165
-0.000000
0.268799
0.347412
-0.000000
-0.000000
-0.000000
0.714844
0.594238
-0.000000
-0.000000
0.189331
0.187744
-0.000000
-0.000000
0.144897
-0.000000
-0.000000
-0.000000
0.176880
0.152466
-0.000000
-0.000000
-0.000000
-0.000000
-0.000000
0.817871
-0.000000
-0.000000
1.134766
-0.000000
-0.000000
0.061646
-0.000000
1.008789
0.222290
-0.000000
-0.000000
-0.000000
-0.000000
0.867676
0.772949
-0.000000
0.457764
-0.000000
-0.000000
0.960449
-0.000000
-0.000000
-0.000000
-0.000000
0.181641
-0.000000
-0.000000
-0.000000
-0.000000
-0.000000
-0.000000
0.084534
-0.000000
-0.000000
0.106384
-0.000000
0.129883
0.001160
-0.000000
-0.000000
0.121094
0.701660
0.161621
0.490479
0.620117
0.079956
0.022461
-0.000000
-0.000000
-0.000000
-0.000000
-0.000000
0.005272
-0.000000
-0.000000
-0.000000
0.328857
0.045654
-0.000000
0.032104
-0.000000
-0.000000
1.129883
0.195435
-0.000000
-0.000000
-0.000000
-0.000000
0.246582
-0.000000
0.105469
-0.000000
-0.000000
-0.000000
-0.000000
-0.000000
-0.000000
0.182861
0.018494
-0.000000
0.482178
-0.000000
0.931152
0.126587
0.164551
-0.000000
-0.000000
-0.000000
0.480957
-0.000000
0.052338
-0.000000
0.005341
-0.000000
-0.000000
-0.000000
-0.000000
-0.000000
0.526855
0.104736
1.048828
-0.000000
-0.000000
-0.000000
0.688965
-0.000000
-0.000000
0.636719
-0.000000
0.059937
1.422852
-0.000000
-0.000000
-0.000000
1.039062
-0.000000
-0.000000
-0.000000
0.462158
0.805176
-0.000000
-0.000000
-0.000000
0.513184
0.313232
2.542969
-0.000000
-0.000000
0.081177
-0.000000
-0.000000
0.873047
-0.000000
-0.000000
-0.000000
-0.000000
-0.000000
0.841797
-0.000000
-0.000000
-0.000000
0.075989
-0.000000
-0.000000
-0.000000
-0.000000
-0.000000
-0.000000
-0.000000
-0.000000
1.063477
-0.000000
-0.000000
0.871094
-0.000000
-0.000000
-0.000000
-0.000000
0.171631
-0.000000
-0.000000
-0.000000
-0.000000
0.290527
0.020233
-0.000000
-0.000000
0.741699
-0.000000
0.409668
0.341797
-0.000000
-0.000000
-0.000000
0.127808
-0.000000
0.101807
-0.000000
-0.000000
0.007019
-0.000000
-0.000000
0.227539
-0.000000
-0.000000
-0.000000
0.621094
-0.000000
0.231567
-0.000000
-0.000000
-0.000000
-0.000000
-0.000000
-0.000000
-0.000000
-0.000000
0.418457
-0.000000
0.060913
0.709473
-0.000000
0.227295
-0.000000
-0.000000
-0.000000
-0.000000
-0.000000
0.204834
0.371338
-0.000000
0.077026
-0.000000
-0.000000
-0.000000
-0.000000
-0.000000
0.530273
-0.000000
-0.000000
-0.000000
-0.000000
-0.000000
-0.000000
0.219482
0.083923
0.021286
-0.000000
-0.000000
0.090698
0.044800
-0.000000
-0.000000
-0.000000
0.003662
0.297607
-0.000000
-0.000000
0.205444
0.338379
0.202759
-0.000000
-0.000000
-0.000000
-0.000000
-0.000000
0.010201
-0.000000
-0.000000
-0.000000
-0.000000
-0.000000
0.194702
-0.000000
-0.000000
0.388916
-0.000000
-0.000000
0.003414
0.788574
-0.000000
-0.000000
0.185547
-0.000000
-0.000000
-0.000000
-0.000000
-0.000000
-0.000000
-0.000000
-0.000000
-0.000000
0.256348
0.071167
-0.000000
-0.000000
-0.000000
-0.000000
-0.000000
-0.000000
-0.000000
