-0.000000
-0.000000
-0.000000
0.058350
-0.000000
-0.000000
0.647461
0.155762
-0.000000
-0.000000
-0.000000
-0.000000
-0.000000
-0.000000
-0.000000
-0.000000
-0.000000
-0.000000
-0.000000
-0.000000
2.404297
-0.000000
0.473389
0.425537
-0.000000
-0.000000
-0.000000
-0.000000
1.513672
2.123047
-0.000000
-0.000000
0.300049
-0.000000
-0.000000
-0.000000
-0.000000
0.331299
-0.000000
0.062927
0.560059
0.571777
-0.000000
-0.000000
-0.000000
-0.000000
1.329102
-0.000000
0.219604
-0.000000
-0.000000
-0.000000
-0.000000
-0.000000
-0.000000
0.491699
-0.000000
-0.000000
-0.000000
0.269043
-0.000000
0.080444
0.144287
-0.000000
-0.000000
0.590332
-0.000000
-0.000000
-0.000000
0.025696
-0.000000
-0.000000
0.125244
2.066406
-0.000000
-0.000000
-0.000000
0.037262
-0.000000
0.245728
-0.000000
-0.000000
-0.000000
-0.000000
0.611328
-0.000000
-0.000000
0.024963
-0.000000
-0.000000
-0.000000
0.333008
-0.000000
-0.000000
-0.000000
-0.000000
0.344238
-0.000000
-0.000000
-0.000000
0.611816
0.614258
0.402344
0.500977
0.241577
-0.000000
-0.000000
-0.000000
-0.000000
0.450684
-0.000000
-0.000000
3.179688
-0.000000
-0.000000
0.451660
0.208130
-0.000000
-0.000000
0.388916
0.739258
-0.000000
-0.000000
-0.000000
-0.000000
-0.000000
-0.000000
-0.000000
-0.000000
-0.000000
0.614258
-0.000000
0.198608
-0.000000
-0.000000
-0.000000
-0.000000
0.090210
-0.000000
-0.000000
-0.000000
-0.000000
-0.000000
-0.000000
-0.000000
-0.000000
2.835938
0.374023
-0.000000
-0.000000
-0.000000
-0.000000
-0.000000
-0.000000
-0.000000
0.069458
0.073242
0.084778
-0.000000
0.006920
0.767090
-0.000000
-0.000000
-0.000000
-0.000000
-0.000000
0.356934
2.070312
0.395264
-0.000000
-0.000000
-0.000000
-0.000000
-0.000000
-0.000000
-0.000000
-0.000000
-0.000000
-0.000000
0.755371
-0.000000
-0.000000
-0.000000
-0.000000
1.537109
0.016113
-0.000000
-0.000000
-0.000000
-0.000000
-0.000000
-0.000000
-0.000000
-0.000000
-0.000000
0.469238
0.333496
-0.000000
-0.000000
0.111755
0.042236
-0.000000
-0.000000
0.043030
-0.000000
-0.000000
-0.000000
0.929199
-0.000000
-0.000000
1.224609
-0.000000
-0.000000
-0.000000
-0.000000
-0.000000
-0.000000
-0.000000
0.103455
0.341553
-0.000000
-0.000000
-0.000000
-0.000000
-0.000000
-0.000000
-0.000000
-0.000000
-0.000000
0.416016
0.645508
-0.000000
0.924316
0.353760
-0.000000
0.498291
0.628906
-0.000000
1.642578
-0.000000
-0.000000
-0.000000
0.154175
-0.000000
-0.000000
-0.000000
-0.000000
-0.000000
-0.000000
-0.000000
0.356934
-0.000000
-0.000000
1.558594
-0.000000
0.373779
0.376953
-0.000000
-0.000000
-0.000000
3.623047
-0.000000
0.101685
-0.000000
0.284668
-0.000000
0.156372
-0.000000
-0.000000
-0.000000
-0.000000
-0.000000
0.414551
-0.000000
-0.000000
0.213501
0.376709
-0.000000
0.423828
0.454590
-0.000000
2.345703
-0.000000
-0.000000
0.634277
-0.000000
-0.000000
-0.000000
-0.000000
-0.000000
0.801270
-0.000000
-0.000000
-0.000000
0.179443
-0.000000
0.511230
-0.000000
-0.000000
-0.000000
-0.000000
-0.000000
-0.000000
1.750000
-0.000000
-0.000000
-0.000000
-0.000000
-0.000000
1.066406
-0.000000
-0.000000
-0.000000
-0.000000
-0.000000
-0.000000
-0.000000
-0.000000
-0.000000
-0.000000
-0.000000
-0.000000
-0.000000
-0.000000
-0.000000
-0.000000
-0.000000
-0.000000
1.251953
-0.000000
-0.000000
-0.000000
-0.000000
-0.000000
-0.000000
-0.000000
-0.000000
-0.000000
-0.000000
-0.000000
-0.000000
-0.000000
-0.000000
0.420654
-0.000000
0.039551
-0.000000
1.558594
-0.000000
-0.000000
-0.000000
-0.000000
-0.000000
-0.000000
-0.000000
-0.000000
1.559570
0.036926
-0.000000
0.571777
-0.000000
0.348389
0.283691
0.008247
-0.000000
-0.000000
-0.000000
-0.000000
-0.000000
-0.000000
0.105042
1.275391
-0.000000
-0.000000
-0.000000
-0.000000
-0.000000
-0.000000
-0.000000
-0.000000
-0.000000
-0.000000
-0.000000
-0.000000
0.021271
-0.000000
-0.000000
-0.000000
1.310547
1.253906
0.743652
-0.000000
-0.000000
0.748535
-0.000000
0.046417
-0.000000
-0.000000
-0.000000
-0.000000
-0.000000
0.219360
-0.000000
-0.000000
-0.000000
-0.000000
0.366699
0.085327
-0.000000
-0.000000
-0.000000
-0.000000
0.514160
-0.000000
0.160645
-0.000000
0.560059
-0.000000
-0.000000
1.864258
-0.000000
-0.000000
-0.000000
-0.000000
-0.000000
-0.000000
-0.000000
-0.000000
-0.000000
0.220703
0.566406
-0.000000
-0.000000
-0.000000
-0.000000
0.004272
-0.000000
-0.000000
-0.000000
0.087341
-0.000000
-0.000000
-0.000000
1.136719
-0.000000
-0.000000
-0.000000
-0.000000
-0.000000
-0.000000
-0.000000
-0.000000
-0.000000
1.210938
-0.000000
0.039307
-0.000000
1.156250
1.347656
-0.000000
-0.000000
-0.000000
-0.000000
-0.000000
-0.000000
-0.000000
-0.000000
-0.000000
-0.000000
-0.000000
-0.000000
0.490479
-0.000000
-0.000000
-0.000000
-0.000000
0.024933
0.116455
1.094727
-0.000000
-0.000000
-0.000000
0.150513
-0.000000
-0.000000
-0.000000
-0.000000
-0.000000
-0.000000
-0.000000
-0.000000
-0.000000
-0.000000
2.740234
0.069946
-0.000000
-0.000000
-0.000000
-0.000000
0.430176
