-0.000000
0.299316
-0.000000
0.742676
-0.000000
0.580078
-0.000000
-0.000000
-0.000000
-0.000000
-0.000000
0.021851
-0.000000
0.239380
-0.000000
-0.000000
0.251221
-0.000000
0.532227
-0.000000
-0.000000
-0.000000
-0.000000
0.055176
0.146362
-0.000000
0.437012
-0.000000
0.012939
-0.000000
-0.000000
-0.000000
-0.000000
-0.000000
0.011147
-0.000000
-0.000000
-0.000000
-0.000000
-0.000000
0.583984
0.251953
0.252441
0.818848
-0.000000
-0.000000
-0.000000
-0.000000
-0.000000
-0.000000
-0.000000
0.724609
-0.000000
0.239136
-0.000000
0.298828
-0.000000
0.112793
-0.000000
0.355957
-0.000000
0.757324
0.639648
-0.000000
-0.000000
-0.000000
-0.000000
-0.000000
-0.000000
-0.000000
-0.000000
-0.000000
0.093811
-0.000000
-0.000000
1.626953
0.594238
-0.000000
-0.000000
-0.000000
-0.000000
0.681152
-0.000000
-0.000000
-0.000000
-0.000000
-0.000000
0.198120
-0.000000
-0.000000
2.111328
0.076721
-0.000000
0.248169
-0.000000
-0.000000
0.146118
-0.000000
0.115906
-0.000000
0.489502
-0.000000
-0.000000
-0.000000
1.811523
0.048004
-0.000000
0.070984
0.012543
0.430664
-0.000000
-0.000000
-0.000000
-0.000000
-0.000000
-0.000000
0.840332
-0.000000
-0.000000
0.834473
-0.000000
-0.000000
-0.000000
-0.000000
-0.000000
0.081604
0.580566
-0.000000
-0.000000
0.468262
-0.000000
-0.000000
-0.000000
-0.000000
-0.000000
-0.000000
-0.000000
-0.000000
1.479492
-0.000000
0.676758
-0.000000
-0.000000
-0.000000
-0.000000
-0.000000
-0.000000
0.415283
-0.000000
0.525391
-0.000000
0.726562
-0.000000
-0.000000
-0.000000
-0.000000
-0.000000
0.003662
2.578125
-0.000000
1.130859
-0.000000
0.053772
1.249023
-0.000000
-0.000000
-0.000000
-0.000000
0.256348
-0.000000
0.130005
0.016083
-0.000000
0.338135
-0.000000
-0.000000
-0.000000
-0.000000
-0.000000
-0.000000
-0.000000
-0.000000
-0.000000
-0.000000
0.163818
-0.000000
0.129028
-0.000000
-0.000000
0.404785
0.009949
-0.000000
0.247192
-0.000000
0.374512
-0.000000
-0.000000
-0.000000
-0.000000
-0.000000
-0.000000
0.168701
-0.000000
-0.000000
-0.000000
-0.000000
-0.000000
0.383057
-0.000000
-0.000000
-0.000000
-0.000000
-0.000000
0.008743
0.057617
0.805664
0.705566
0.184570
-0.000000
0.369629
-0.000000
-0.000000
-0.000000
-0.000000
-0.000000
-0.000000
-0.000000
0.024246
-0.000000
0.808105
0.086365
-0.000000
1.279297
-0.000000
-0.000000
-0.000000
0.332764
-0.000000
-0.000000
0.589355
-0.000000
0.750977
0.945801
-0.000000
0.072021
-0.000000
-0.000000
0.503906
-0.000000
-0.000000
-0.000000
0.506836
0.024170
-0.000000
0.019974
0.428955
0.157227
-0.000000
0.282227
-0.000000
-0.000000
-0.000000
-0.000000
0.859863
-0.000000
-0.000000
-0.000000
-0.000000
-0.000000
-0.000000
1.530273
-0.000000
0.058228
-0.000000
-0.000000
1.074219
-0.000000
0.053345
0.170898
-0.000000
-0.000000
-0.000000
-0.000000
-0.000000
0.299805
2.695312
0.179565
0.443848
-0.000000
0.257324
-0.000000
0.173462
-0.000000
-0.000000
1.095703
-0.000000
0.341553
-0.000000
0.060303
-0.000000
-0.000000
-0.000000
0.042908
-0.000000
-0.000000
-0.000000
-0.000000
-0.000000
0.750488
-0.000000
0.003159
0.184692
0.686523
-0.000000
0.189819
0.011841
0.487061
-0.000000
0.029175
0.585449
-0.000000
0.054474
-0.000000
-0.000000
-0.000000
-0.000000
0.196899
-0.000000
-0.000000
0.273926
-0.000000
-0.000000
-0.000000
-0.000000
-0.000000
-0.000000
-0.000000
-0.000000
0.049683
0.030762
-0.000000
0.009521
-0.000000
-0.000000
0.009705
-0.000000
-0.000000
1.128906
-0.000000
-0.000000
0.368408
0.047302
-0.000000
-0.000000
-0.000000
0.193359
-0.000000
0.871582
-0.000000
0.294189
0.075989
-0.000000
-0.000000
0.257080
-0.000000
-0.000000
1.085938
0.227295
-0.000000
-0.000000
0.200562
2.042969
-0.000000
1.836914
1.596680
-0.000000
-0.000000
-0.000000
-0.000000
1.320312
0.977539
-0.000000
-0.000000
-0.000000
1.176758
-0.000000
-0.000000
0.124146
-0.000000
-0.000000
0.440674
-0.000000
0.065369
0.361572
0.028320
-0.000000
-0.000000
-0.000000
-0.000000
-0.000000
-0.000000
-0.000000
-0.000000
-0.000000
-0.000000
-0.000000
0.736816
0.076172
-0.000000
0.364990
0.507812
-0.000000
0.546387
-0.000000
0.084473
-0.000000
-0.000000
-0.000000
-0.000000
-0.000000
-0.000000
-0.000000
-0.000000
0.240723
-0.000000
-0.000000
-0.000000
-0.000000
-0.000000
-0.000000
0.380371
-0.000000
-0.000000
0.180908
-0.000000
-0.000000
-0.000000
-0.000000
-0.000000
0.286865
-0.000000
-0.000000
0.269287
-0.000000
-0.000000
-0.000000
-0.000000
-0.000000
1.326172
-0.000000
-0.000000
-0.000000
-0.000000
-0.000000
-0.000000
-0.000000
-0.000000
0.163452
0.477295
1.783203
-0.000000
0.302490
-0.000000
-0.000000
0.599121
-0.000000
-0.000000
-0.000000
-0.000000
-0.000000
0.471680
-0.000000
-0.000000
-0.000000
-0.000000
0.382324
-0.000000
0.072205
0.371338
-0.000000
-0.000000
-0.000000
0.155518
-0.000000
-0.000000
-0.000000
-0.000000
-0.000000
-0.000000
-0.000000
0.001007
0.097839
-0.000000
-0.000000
-0.000000
-0.000000
-0.000000
-0.000000
-0.000000
0.621094
