-0.000000
-0.000000
-0.000000
0.467529
-0.000000
0.187744
-0.000000
-0.000000
-0.000000
-0.000000
-0.000000
-0.000000
-0.000000
0.594238
-0.000000
-0.000000
-0.000000
-0.000000
-0.000000
-0.000000
0.545898
-0.000000
0.786621
0.193604
0.101196
-0.000000
-0.000000
-0.000000
-0.000000
-0.000000
-0.000000
-0.000000
-0.000000
-0.000000
-0.000000
-0.000000
0.066284
-0.000000
-0.000000
-0.000000
-0.000000
3.490234
-0.000000
0.547852
-0.000000
0.347656
-0.000000
-0.000000
-0.000000
-0.000000
-0.000000
1.497070
-0.000000
-0.000000
-0.000000
0.917480
0.057556
-0.000000
-0.000000
-0.000000
-0.000000
-0.000000
-0.000000
-0.000000
-0.000000
-0.000000
-0.000000
-0.000000
-0.000000
-0.000000
-0.000000
-0.000000
-0.000000
2.001953
-0.000000
-0.000000
-0.000000
-0.000000
0.091675
-0.000000
-0.000000
0.919922
-0.000000
-0.000000
0.413086
0.357910
-0.000000
0.165894
-0.000000
-0.000000
0.622070
0.366211
-0.000000
-0.000000
-0.000000
0.204102
0.430908
-0.000000
0.006882
0.488525
0.157715
-0.000000
1.375977
-0.000000
1.477539
0.922852
-0.000000
-0.000000
-0.000000
2.746094
-0.000000
-0.000000
1.317383
0.334473
0.400146
0.224121
0.677246
-0.000000
-0.000000
-0.000000
-0.000000
0.010529
-0.000000
-0.000000
0.039795
0.136108
1.495117
-0.000000
-0.000000
-0.000000
0.075134
-0.000000
0.112915
-0.000000
-0.000000
-0.000000
-0.000000
0.136597
-0.000000
-0.000000
0.154541
-0.000000
-0.000000
-0.000000
-0.000000
-0.000000
-0.000000
2.419922
-0.000000
-0.000000
0.794434
-0.000000
-0.000000
-0.000000
-0.000000
-0.000000
-0.000000
0.325684
-0.000000
-0.000000
1.132812
-0.000000
-0.000000
-0.000000
-0.000000
-0.000000
-0.000000
0.199585
0.050537
-0.000000
-0.000000
0.562012
-0.000000
-0.000000
-0.000000
-0.000000
-0.000000
-0.000000
-0.000000
-0.000000
-0.000000
-0.000000
-0.000000
-0.000000
0.270752
0.145020
-0.000000
-0.000000
-0.000000
-0.000000
-0.000000
-0.000000
0.451660
0.000336
0.167603
0.779785
-0.000000
-0.000000
-0.000000
-0.000000
-0.000000
0.302979
-0.000000
-0.000000
0.069946
0.117065
0.018921
1.167969
-0.000000
-0.000000
-0.000000
-0.000000
0.112305
-0.000000
0.553711
0.152832
-0.000000
0.061768
-0.000000
1.807617
-0.000000
-0.000000
-0.000000
-0.000000
-0.000000
-0.000000
-0.000000
-0.000000
0.174316
-0.000000
1.861328
-0.000000
1.908203
-0.000000
-0.000000
-0.000000
-0.000000
0.070740
-0.000000
0.716797
-0.000000
1.260742
-0.000000
0.174194
-0.000000
-0.000000
-0.000000
0.709473
-0.000000
0.647949
0.282959
0.098206
-0.000000
0.377930
0.012589
-0.000000
0.399902
-0.000000
1.059570
-0.000000
-0.000000
-0.000000
-0.000000
-0.000000
-0.000000
-0.000000
-0.000000
-0.000000
-0.000000
-0.000000
0.245605
0.006599
-0.000000
0.775879
-0.000000
0.841309
-0.000000
-0.000000
-0.000000
-0.000000
-0.000000
-0.000000
-0.000000
-0.000000
0.862793
0.758789
-0.000000
0.432129
-0.000000
-0.000000
0.400879
0.488037
-0.000000
-0.000000
-0.000000
-0.000000
0.164185
-0.000000
0.002380
-0.000000
-0.000000
-0.000000
-0.000000
-0.000000
-0.000000
-0.000000
-0.000000
-0.000000
-0.000000
0.466553
-0.000000
-0.000000
0.365479
-0.000000
-0.000000
-0.000000
0.172119
0.171875
-0.000000
-0.000000
-0.000000
-0.000000
-0.000000
-0.000000
-0.000000
-0.000000
-0.000000
-0.000000
-0.000000
0.895020
-0.000000
-0.000000
-0.000000
-0.000000
-0.000000
-0.000000
0.153687
-0.000000
0.833984
-0.000000
-0.000000
-0.000000
0.384277
-0.000000
1.372070
-0.000000
-0.000000
0.668945
0.349854
-0.000000
0.354248
-0.000000
-0.000000
-0.000000
-0.000000
-0.000000
-0.000000
-0.000000
-0.000000
0.181763
-0.000000
-0.000000
-0.000000
0.279541
-0.000000
0.260010
-0.000000
0.161865
0.443848
-0.000000
0.253906
-0.000000
1.603516
-0.000000
-0.000000
-0.000000
-0.000000
-0.000000
-0.000000
-0.000000
0.821777
-0.000000
-0.000000
-0.000000
1.361328
0.059570
-0.000000
-0.000000
-0.000000
-0.000000
0.040222
-0.000000
0.029938
0.137939
-0.000000
0.008057
-0.000000
-0.000000
-0.000000
0.102112
-0.000000
-0.000000
-0.000000
-0.000000
0.023438
-0.000000
-0.000000
-0.000000
-0.000000
2.291016
-0.000000
0.836914
-0.000000
-0.000000
0.194824
-0.000000
-0.000000
-0.000000
-0.000000
-0.000000
-0.000000
1.132812
-0.000000
-0.000000
-0.000000
-0.000000
-0.000000
0.207764
-0.000000
1.011719
0.282959
-0.000000
-0.000000
1.083984
-0.000000
-0.000000
-0.000000
-0.000000
-0.000000
-0.000000
-0.000000
0.016708
-0.000000
-0.000000
-0.000000
0.009079
-0.000000
-0.000000
-0.000000
-0.000000
-0.000000
-0.000000
-0.000000
0.246094
-0.000000
-0.000000
-0.000000
-0.000000
0.649902
-0.000000
-0.000000
0.458252
-0.000000
-0.000000
0.161011
0.076233
-0.000000
-0.000000
-0.000000
-0.000000
-0.000000
0.790527
-0.000000
-0.000000
-0.000000
-0.000000
0.026398
-0.000000
-0.000000
-0.000000
-0.000000
-0.000000
-0.000000
-0.000000
1.067383
-0.000000
-0.000000
-0.000000
-0.000000
-0.000000
0.064392
0.292725
-0.000000
0.612305
-0.000000
-0.000000
-0.000000
-0.000000
-0.000000
1.049805
