-0.000000
1.791016
-0.000000
0.179565
0.131592
-0.000000
-0.000000
0.276367
-0.000000
0.599121
-0.000000
-0.000000
-0.000000
1.506836
-0.000000
-0.000000
-0.000000
-0.000000
-0.000000
-0.000000
-0.000000
-0.000000
-0.000000
-0.000000
-0.000000
-0.000000
0.047577
-0.000000
0.611816
-0.000000
-0.000000
-0.000000
-0.000000
2.009766
-0.000000
-0.000000
-0.000000
-0.000000
-0.000000
-0.000000
-0.000000
-0.000000
-0.000000
0.316162
-0.000000
-0.000000
0.389648
-0.000000
-0.000000
-0.000000
-0.000000
-0.000000
0.759766
-0.000000
-0.000000
-0.000000
-0.000000
-0.000000
-0.000000
-0.000000
-0.000000
0.097412
-0.000000
0.192505
-0.000000
-0.000000
-0.000000
-0.000000
-0.000000
-0.000000
-0.000000
-0.000000
-0.000000
-0.000000
-0.000000
-0.000000
0.824707
-0.000000
0.003960
-0.000000
-0.000000
0.490234
-0.000000
0.185303
-0.000000
-0.000000
-0.000000
-0.000000
0.101562
-0.000000
0.634277
-0.000000
-0.000000
0.212524
0.581055
0.352783
0.137451
-0.000000
0.010941
-0.000000
0.183960
-0.000000
0.334961
-0.000000
0.212280
-0.000000
0.088989
1.728516
-0.000000
-0.000000
-0.000000
-0.000000
0.039551
0.163696
0.049316
0.040955
-0.000000
2.523438
-0.000000
0.219849
-0.000000
0.032349
0.328369
0.051178
-0.000000
0.056854
-0.000000
-0.000000
-0.000000
-0.000000
-0.000000
-0.000000
-0.000000
-0.000000
-0.000000
2.361328
0.804199
-0.000000
-0.000000
-0.000000
0.187012
-0.000000
-0.000000
-0.000000
-0.000000
2.292969
-0.000000
0.661133
0.171021
-0.000000
0.218750
0.258789
-0.000000
-0.000000
-0.000000
-0.000000
-0.000000
-0.000000
0.290039
0.016785
-0.000000
2.265625
0.039612
-0.000000
-0.000000
-0.000000
-0.000000
-0.000000
0.658691
-0.000000
0.277832
0.159546
-0.000000
1.583008
0.035614
0.012573
-0.000000
2.535156
-0.000000
-0.000000
-0.000000
-0.000000
-0.000000
0.383789
-0.000000
0.044312
-0.000000
-0.000000
-0.000000
-0.000000
-0.000000
-0.000000
0.002411
-0.000000
-0.000000
-0.000000
-0.000000
-0.000000
-0.000000
0.150757
-0.000000
-0.000000
-0.000000
-0.000000
-0.000000
-0.000000
-0.000000
-0.000000
-0.000000
-0.000000
-0.000000
-0.000000
-0.000000
-0.000000
-0.000000
-0.000000
-0.000000
0.695801
-0.000000
-0.000000
-0.000000
-0.000000
-0.000000
-0.000000
-0.000000
-0.000000
1.636719
1.446289
1.314453
-0.000000
-0.000000
-0.000000
-0.000000
-0.000000
-0.000000
-0.000000
-0.000000
-0.000000
-0.000000
0.193970
0.482666
1.424805
-0.000000
-0.000000
0.933594
-0.000000
-0.000000
-0.000000
-0.000000
-0.000000
-0.000000
-0.000000
-0.000000
-0.000000
0.025894
-0.000000
-0.000000
-0.000000
2.181641
-0.000000
-0.000000
-0.000000
-0.000000
-0.000000
-0.000000
-0.000000
-0.000000
-0.000000
-0.000000
-0.000000
-0.000000
0.087280
1.416016
2.205078
-0.000000
-0.000000
-0.000000
-0.000000
-0.000000
-0.000000
-0.000000
-0.000000
0.804688
-0.000000
1.077148
1.291016
-0.000000
0.291016
0.017670
0.090149
-0.000000
1.131836
-0.000000
-0.000000
0.183350
-0.000000
0.135986
-0.000000
-0.000000
-0.000000
0.675293
-0.000000
-0.000000
-0.000000
0.064697
-0.000000
-0.000000
-0.000000
0.277588
-0.000000
-0.000000
0.424561
2.736328
-0.000000
-0.000000
0.443359
-0.000000
-0.000000
1.511719
-0.000000
-0.000000
-0.000000
-0.000000
-0.000000
-0.000000
-0.000000
-0.000000
-0.000000
-0.000000
-0.000000
-0.000000
-0.000000
-0.000000
-0.000000
-0.000000
-0.000000
0.137329
-0.000000
-0.000000
-0.000000
-0.000000
0.058014
-0.000000
-0.000000
0.187378
-0.000000
-0.000000
-0.000000
0.389893
-0.000000
-0.000000
0.337402
0.182373
-0.000000
-0.000000
0.033691
-0.000000
0.283691
-0.000000
0.501465
-0.000000
-0.000000
-0.000000
-0.000000
0.035919
-0.000000
0.012695
-0.000000
-0.000000
-0.000000
-0.000000
0.449463
-0.000000
3.208984
2.093750
0.038025
-0.000000
-0.000000
-0.000000
0.016113
-0.000000
1.029297
-0.000000
-0.000000
2.046875
-0.000000
-0.000000
-0.000000
-0.000000
-0.000000
-0.000000
-0.000000
0.246460
-0.000000
-0.000000
0.202637
-0.000000
-0.000000
-0.000000
-0.000000
-0.000000
-0.000000
-0.000000
-0.000000
0.034943
-0.000000
-0.000000
-0.000000
-0.000000
1.483398
-0.000000
1.051758
-0.000000
-0.000000
-0.000000
-0.000000
-0.000000
-0.000000
1.847656
-0.000000
-0.000000
-0.000000
-0.000000
-0.000000
-0.000000
-0.000000
-0.000000
-0.000000
-0.000000
0.026367
-0.000000
-0.000000
-0.000000
-0.000000
-0.000000
-0.000000
-0.000000
-0.000000
-0.000000
-0.000000
0.370361
-0.000000
-0.000000
-0.000000
-0.000000
-0.000000
-0.000000
-0.000000
0.278076
0.903320
-0.000000
-0.000000
-0.000000
-0.000000
-0.000000
0.098267
0.863281
-0.000000
-0.000000
0.359131
0.019073
-0.000000
-0.000000
0.070190
-0.000000
-0.000000
-0.000000
-0.000000
0.228394
-0.000000
-0.000000
-0.000000
-0.000000
0.000305
-0.000000
1.976562
-0.000000
-0.000000
1.580078
-0.000000
-0.000000
0.687988
-0.000000
-0.000000
-0.000000
-0.000000
-0.000000
-0.000000
0.625488
0.521973
0.049805
0.635742
1.912109
-0.000000
0.325928
-0.000000
-0.000000
-0.000000
-0.000000
-0.000000
