-0.000000
0.293457
-0.000000
0.127930
-0.000000
-0.000000
-0.000000
-0.000000
-0.000000
1.263672
-0.000000
-0.000000
-0.000000
0.113647
-0.000000
-0.000000
0.021301
-0.000000
-0.000000
-0.000000
-0.000000
-0.000000
-0.000000
-0.000000
-0.000000
-0.000000
-0.000000
-0.000000
0.276123
-0.000000
-0.000000
-0.000000
-0.000000
0.391113
0.036621
-0.000000
-0.000000
-0.000000
-0.000000
1.851562
0.596680
-0.000000
0.135742
-0.000000
-0.000000
-0.000000
0.494873
-0.000000
-0.000000
-0.000000
-0.000000
0.926758
-0.000000
0.239258
-0.000000
-0.000000
-0.000000
-0.000000
-0.000000
-0.000000
-0.000000
0.220459
0.931152
0.545410
-0.000000
-0.000000
-0.000000
-0.000000
-0.000000
0.673340
-0.000000
-0.000000
0.015793
-0.000000
-0.000000
0.082764
0.083313
-0.000000
-0.000000
-0.000000
-0.000000
0.663086
-0.000000
0.005493
-0.000000
-0.000000
-0.000000
0.281982
-0.000000
-0.000000
-0.000000
-0.000000
-0.000000
-0.000000
-0.000000
-0.000000
0.153564
-0.000000
-0.000000
1.619141
0.203369
-0.000000
0.697266
-0.000000
0.522949
-0.000000
0.253418
0.306152
-0.000000
1.506836
-0.000000
-0.000000
0.099854
0.383057
0.015106
0.052307
-0.000000
0.854004
-0.000000
2.087891
-0.000000
-0.000000
-0.000000
0.002151
-0.000000
-0.000000
-0.000000
-0.000000
-0.000000
-0.000000
0.810547
-0.000000
-0.000000
-0.000000
-0.000000
0.654297
0.450439
-0.000000
-0.000000
-0.000000
-0.000000
-0.000000
0.178345
-0.000000
-0.000000
1.067383
-0.000000
-0.000000
0.955566
0.605957
-0.000000
-0.000000
1.404297
-0.000000
-0.000000
-0.000000
0.223755
-0.000000
0.530273
0.005608
-0.000000
0.676758
-0.000000
0.039856
-0.000000
-0.000000
0.694824
-0.000000
-0.000000
-0.000000
0.079468
-0.000000
-0.000000
1.099609
-0.000000
-0.000000
-0.000000
1.410156
-0.000000
0.957520
-0.000000
-0.000000
0.270996
0.392090
-0.000000
-0.000000
-0.000000
-0.000000
-0.000000
-0.000000
-0.000000
0.885742
-0.000000
-0.000000
-0.000000
0.416504
-0.000000
-0.000000
-0.000000
-0.000000
-0.000000
-0.000000
-0.000000
0.150269
-0.000000
-0.000000
-0.000000
1.049805
0.049530
-0.000000
-0.000000
0.278320
-0.000000
-0.000000
0.163208
-0.000000
-0.000000
0.375244
0.834961
0.684570
-0.000000
0.620605
-0.000000
-0.000000
-0.000000
-0.000000
-0.000000
0.463623
0.093750
-0.000000
0.969727
-0.000000
0.055725
-0.000000
-0.000000
1.350586
1.034180
-0.000000
-0.000000
-0.000000
0.357666
0.145508
-0.000000
-0.000000
-0.000000
0.208984
-0.000000
-0.000000
-0.000000
-0.000000
-0.000000
-0.000000
-0.000000
-0.000000
-0.000000
-0.000000
0.128662
-0.000000
-0.000000
-0.000000
-0.000000
-0.000000
0.387695
-0.000000
-0.000000
0.007019
-0.000000
-0.000000
-0.000000
-0.000000
-0.000000
-0.000000
-0.000000
-0.000000
-0.000000
-0.000000
0.104126
-0.000000
0.166504
-0.000000
-0.000000
1.711914
-0.000000
-0.000000
-0.000000
0.364990
-0.000000
0.284180
-0.000000
-0.000000
0.432617
-0.000000
-0.000000
-0.000000
1.216797
-0.000000
0.973633
-0.000000
-0.000000
-0.000000
-0.000000
-0.000000
-0.000000
0.152344
-0.000000
-0.000000
-0.000000
-0.000000
-0.000000
-0.000000
-0.000000
-0.000000
0.445312
-0.000000
0.754395
-0.000000
-0.000000
-0.000000
0.120972
-0.000000
-0.000000
-0.000000
-0.000000
-0.000000
-0.000000
-0.000000
-0.000000
-0.000000
0.007935
0.493652
-0.000000
-0.000000
-0.000000
-0.000000
-0.000000
-0.000000
-0.000000
0.010147
1.036133
0.391357
-0.000000
0.020752
-0.000000
-0.000000
-0.000000
0.061493
-0.000000
-0.000000
-0.000000
-0.000000
0.083374
-0.000000
-0.000000
-0.000000
-0.000000
-0.000000
1.155273
0.112000
-0.000000
-0.000000
-0.000000
-0.000000
0.355469
-0.000000
-0.000000
-0.000000
-0.000000
-0.000000
-0.000000
0.442139
-0.000000
-0.000000
0.666504
0.749512
0.552246
-0.000000
-0.000000
0.271729
-0.000000
0.114380
-0.000000
0.802246
-0.000000
-0.000000
0.428223
-0.000000
-0.000000
-0.000000
1.094727
0.324219
-0.000000
-0.000000
0.030853
-0.000000
0.547363
0.815918
-0.000000
-0.000000
-0.000000
-0.000000
-0.000000
-0.000000
-0.000000
-0.000000
-0.000000
-0.000000
-0.000000
-0.000000
-0.000000
0.322266
0.102539
-0.000000
-0.000000
-0.000000
-0.000000
-0.000000
0.108154
-0.000000
1.140625
0.660156
-0.000000
0.753418
-0.000000
-0.000000
-0.000000
-0.000000
0.050110
-0.000000
-0.000000
-0.000000
-0.000000
-0.000000
-0.000000
-0.000000
-0.000000
-0.000000
-0.000000
-0.000000
-0.000000
0.920898
0.278320
-0.000000
-0.000000
0.033600
-0.000000
-0.000000
-0.000000
-0.000000
-0.000000
-0.000000
-0.000000
-0.000000
-0.000000
-0.000000
-0.000000
-0.000000
-0.000000
-0.000000
-0.000000
-0.000000
-0.000000
-0.000000
-0.000000
-0.000000
-0.000000
-0.000000
-0.000000
-0.000000
-0.000000
-0.000000
-0.000000
-0.000000
1.023438
-0.000000
-0.000000
-0.000000
0.012573
-0.000000
0.149780
0.076843
1.121094
-0.000000
-0.000000
-0.000000
-0.000000
-0.000000
-0.000000
-0.000000
0.084045
0.685059
-0.000000
0.675293
0.075195
-0.000000
-0.000000
-0.000000
-0.000000
-0.000000
-0.000000
-0.000000
