-0.000000
0.163208
-0.000000
-0.000000
-0.000000
0.163330
0.046204
0.144287
-0.000000
-0.000000
-0.000000
-0.000000
-0.000000
-0.000000
0.014275
-0.000000
-0.000000
-0.000000
-0.000000
-0.000000
0.140015
-0.000000
0.344727
-0.000000
0.100891
0.179810
-0.000000
-0.000000
-0.000000
0.087585
-0.000000
-0.000000
-0.000000
-0.000000
-0.000000
-0.000000
-0.000000
0.517578
-0.000000
0.361816
0.114502
-0.000000
-0.000000
-0.000000
-0.000000
-0.000000
0.828613
-0.000000
0.096375
-0.000000
-0.000000
0.099365
-0.000000
-0.000000
-0.000000
0.185791
0.112671
-0.000000
-0.000000
-0.000000
0.299805
-0.000000
0.208618
-0.000000
-0.000000
0.043091
-0.000000
-0.000000
-0.000000
1.292969
-0.000000
-0.000000
0.007374
-0.000000
-0.000000
-0.000000
-0.000000
-0.000000
-0.000000
1.506836
-0.000000
0.108887
0.325684
-0.000000
0.514160
0.369385
-0.000000
0.160400
-0.000000
-0.000000
-0.000000
0.046265
0.359375
-0.000000
0.031738
-0.000000
0.036316
-0.000000
-0.000000
0.823242
0.264404
-0.000000
0.356445
0.229248
-0.000000
-0.000000
-0.000000
-0.000000
-0.000000
0.729004
0.178833
0.720215
-0.000000
0.064880
-0.000000
0.025330
-0.000000
-0.000000
-0.000000
0.290771
0.358154
-0.000000
-0.000000
-0.000000
-0.000000
-0.000000
0.812012
-0.000000
0.184204
-0.000000
0.031952
-0.000000
0.080200
-0.000000
-0.000000
-0.000000
-0.000000
0.027588
0.095093
-0.000000
-0.000000
-0.000000
-0.000000
0.061768
-0.000000
-0.000000
-0.000000
-0.000000
-0.000000
-0.000000
-0.000000
-0.000000
1.205078
-0.000000
-0.000000
-0.000000
0.747559
-0.000000
-0.000000
-0.000000
0.732910
-0.000000
-0.000000
-0.000000
-0.000000
-0.000000
0.152588
-0.000000
-0.000000
-0.000000
0.057922
0.343506
-0.000000
-0.000000
-0.000000
-0.000000
-0.000000
0.150879
0.109619
1.065430
-0.000000
-0.000000
-0.000000
0.042755
-0.000000
-0.000000
-0.000000
-0.000000
-0.000000
-0.000000
-0.000000
-0.000000
0.003235
-0.000000
0.193848
0.189575
-0.000000
-0.000000
-0.000000
0.617188
0.622070
-0.000000
-0.000000
0.248535
0.155396
-0.000000
-0.000000
0.504395
0.065369
-0.000000
-0.000000
0.119507
0.100830
-0.000000
-0.000000
-0.000000
-0.000000
-0.000000
0.867188
0.079834
-0.000000
1.536133
-0.000000
-0.000000
0.097290
-0.000000
1.323242
0.216797
-0.000000
-0.000000
-0.000000
-0.000000
0.864258
0.724609
-0.000000
0.671387
-0.000000
-0.000000
0.936035
-0.000000
-0.000000
-0.000000
-0.000000
0.164673
-0.000000
-0.000000
-0.000000
-0.000000
-0.000000
-0.000000
0.059204
-0.000000
-0.000000
0.312012
-0.000000
0.192139
-0.000000
-0.000000
-0.000000
0.057983
0.417969
-0.000000
0.453125
0.520996
0.137817
-0.000000
-0.000000
-0.000000
-0.000000
-0.000000
-0.000000
-0.000000
0.053833
-0.000000
-0.000000
0.034180
0.020020
-0.000000
-0.000000
0.479980
-0.000000
1.263672
0.131104
-0.000000
-0.000000
-0.000000
-0.000000
0.652344
-0.000000
0.009094
-0.000000
-0.000000
-0.000000
-0.000000
-0.000000
-0.000000
0.269775
-0.000000
-0.000000
0.719727
-0.000000
1.000977
0.051025
-0.000000
-0.000000
-0.000000
-0.000000
0.571777
-0.000000
-0.000000
-0.000000
0.070984
-0.000000
-0.000000
-0.000000
-0.000000
-0.000000
0.831543
-0.000000
1.094727
-0.000000
-0.000000
-0.000000
0.490234
-0.000000
-0.000000
0.721191
-0.000000
0.066772
1.774414
-0.000000
-0.000000
-0.000000
1.277344
-0.000000
-0.000000
-0.000000
0.623047
1.163086
-0.000000
-0.000000
-0.000000
0.555664
0.265137
2.791016
-0.000000
-0.000000
0.416504
-0.000000
-0.000000
1.015625
-0.000000
-0.000000
-0.000000
-0.000000
-0.000000
0.517578
-0.000000
-0.000000
-0.000000
0.022797
-0.000000
-0.000000
-0.000000
-0.000000
-0.000000
-0.000000
-0.000000
0.611816
1.150391
-0.000000
-0.000000
1.045898
-0.000000
-0.000000
-0.000000
-0.000000
0.068359
-0.000000
-0.000000
-0.000000
-0.000000
0.019775
0.092346
-0.000000
-0.000000
0.835938
-0.000000
0.492188
0.277344
-0.000000
-0.000000
-0.000000
0.447021
-0.000000
0.344727
-0.000000
-0.000000
-0.000000
-0.000000
-0.000000
0.220581
-0.000000
-0.000000
-0.000000
0.383545
-0.000000
0.229126
-0.000000
-0.000000
-0.000000
-0.000000
-0.000000
-0.000000
-0.000000
-0.000000
0.810547
-0.000000
0.080627
0.672852
-0.000000
0.446289
-0.000000
0.037354
-0.000000
-0.000000
-0.000000
0.213989
0.128784
-0.000000
0.364502
-0.000000
-0.000000
-0.000000
-0.000000
-0.000000
0.576172
-0.000000
-0.000000
0.122253
-0.000000
-0.000000
-0.000000
0.173462
0.069397
-0.000000
-0.000000
-0.000000
-0.000000
-0.000000
-0.000000
-0.000000
-0.000000
-0.000000
0.361572
-0.000000
-0.000000
0.099182
0.201538
0.170532
-0.000000
-0.000000
-0.000000
-0.000000
-0.000000
0.009796
-0.000000
-0.000000
-0.000000
-0.000000
-0.000000
-0.000000
-0.000000
-0.000000
0.428955
-0.000000
-0.000000
0.048492
0.677246
-0.000000
-0.000000
0.343994
-0.000000
-0.000000
-0.000000
-0.000000
-0.000000
-0.000000
-0.000000
-0.000000
-0.000000
0.289551
-0.000000
-0.000000
-0.000000
-0.000000
-0.000000
-0.000000
-0.000000
-0.000000
