-0.000000
-0.000000
-0.000000
-0.000000
1.149414
0.810059
-0.000000
-0.000000
-0.000000
0.672363
-0.000000
-0.000000
-0.000000
-0.000000
0.030930
-0.000000
-0.000000
-0.000000
-0.000000
-0.000000
-0.000000
-0.000000
0.468994
-0.000000
-0.000000
-0.000000
0.218994
-0.000000
0.415771
-0.000000
-0.000000
-0.000000
-0.000000
-0.000000
0.000206
-0.000000
-0.000000
-0.000000
-0.000000
-0.000000
0.882812
0.976562
-0.000000
-0.000000
-0.000000
-0.000000
-0.000000
-0.000000
-0.000000
-0.000000
-0.000000
-0.000000
-0.000000
-0.000000
-0.000000
1.296875
0.523926
-0.000000
-0.000000
-0.000000
-0.000000
0.334473
-0.000000
-0.000000
0.078003
-0.000000
-0.000000
-0.000000
-0.000000
-0.000000
-0.000000
-0.000000
0.255127
0.401855
-0.000000
-0.000000
-0.000000
-0.000000
0.097778
-0.000000
-0.000000
0.995117
-0.000000
0.022766
0.310303
-0.000000
-0.000000
-0.000000
-0.000000
-0.000000
-0.000000
-0.000000
-0.000000
0.009674
-0.000000
0.392090
0.026581
-0.000000
-0.000000
1.977539
1.905273
0.896484
0.279053
-0.000000
2.195312
-0.000000
-0.000000
-0.000000
-0.000000
1.626953
-0.000000
-0.000000
0.528320
-0.000000
-0.000000
0.147949
0.031006
1.706055
-0.000000
0.468750
0.298584
0.041046
0.143555
0.008530
-0.000000
0.036530
1.025391
-0.000000
-0.000000
-0.000000
0.594727
-0.000000
0.613281
-0.000000
-0.000000
0.345947
-0.000000
0.645020
-0.000000
-0.000000
-0.000000
-0.000000
-0.000000
-0.000000
-0.000000
0.287598
-0.000000
0.723633
0.523438
-0.000000
-0.000000
1.525391
-0.000000
-0.000000
-0.000000
-0.000000
-0.000000
-0.000000
0.041992
-0.000000
0.642090
-0.000000
-0.000000
-0.000000
-0.000000
-0.000000
-0.000000
-0.000000
-0.000000
-0.000000
-0.000000
0.293701
-0.000000
0.449219
-0.000000
-0.000000
-0.000000
2.429688
-0.000000
1.743164
-0.000000
-0.000000
0.335693
0.035095
-0.000000
-0.000000
-0.000000
-0.000000
-0.000000
0.248779
0.488037
0.283203
0.008545
-0.000000
0.013672
0.215088
-0.000000
-0.000000
-0.000000
-0.000000
-0.000000
-0.000000
-0.000000
-0.000000
0.111511
-0.000000
0.213379
0.231445
1.126953
-0.000000
-0.000000
0.234253
0.189697
-0.000000
0.265381
-0.000000
-0.000000
0.045898
-0.000000
0.348633
-0.000000
0.521484
-0.000000
-0.000000
-0.000000
-0.000000
-0.000000
0.096008
1.458008
-0.000000
-0.000000
-0.000000
-0.000000
-0.000000
-0.000000
1.494141
0.803711
-0.000000
0.092468
0.549316
-0.000000
-0.000000
-0.000000
-0.000000
1.809570
-0.000000
-0.000000
-0.000000
-0.000000
-0.000000
-0.000000
-0.000000
-0.000000
0.394043
0.074646
0.330811
0.020020
-0.000000
-0.000000
-0.000000
-0.000000
-0.000000
-0.000000
-0.000000
0.027191
-0.000000
-0.000000
-0.000000
-0.000000
-0.000000
-0.000000
0.067383
0.324707
-0.000000
-0.000000
-0.000000
-0.000000
-0.000000
0.462158
-0.000000
-0.000000
1.714844
-0.000000
-0.000000
1.119141
-0.000000
-0.000000
-0.000000
-0.000000
-0.000000
-0.000000
0.019043
-0.000000
-0.000000
-0.000000
-0.000000
0.803711
-0.000000
-0.000000
-0.000000
-0.000000
-0.000000
-0.000000
0.630371
0.071777
-0.000000
-0.000000
-0.000000
-0.000000
0.384521
-0.000000
-0.000000
-0.000000
-0.000000
-0.000000
-0.000000
0.247437
-0.000000
-0.000000
-0.000000
-0.000000
0.137329
-0.000000
-0.000000
-0.000000
-0.000000
-0.000000
-0.000000
-0.000000
0.867676
-0.000000
-0.000000
-0.000000
-0.000000
-0.000000
-0.000000
-0.000000
-0.000000
0.315918
-0.000000
-0.000000
-0.000000
-0.000000
0.506348
-0.000000
-0.000000
-0.000000
0.735840
-0.000000
-0.000000
0.316162
-0.000000
-0.000000
-0.000000
-0.000000
-0.000000
0.537109
-0.000000
-0.000000
0.215332
-0.000000
-0.000000
1.123047
-0.000000
-0.000000
-0.000000
-0.000000
-0.000000
2.189453
1.169922
-0.000000
-0.000000
0.575684
0.959473
-0.000000
-0.000000
-0.000000
-0.000000
-0.000000
0.045288
-0.000000
-0.000000
-0.000000
-0.000000
0.858887
-0.000000
-0.000000
-0.000000
0.710938
0.727539
-0.000000
-0.000000
-0.000000
2.697266
-0.000000
0.869629
-0.000000
-0.000000
-0.000000
-0.000000
0.726074
-0.000000
-0.000000
-0.000000
-0.000000
-0.000000
-0.000000
0.610840
-0.000000
1.065430
0.041901
-0.000000
-0.000000
-0.000000
0.125488
-0.000000
1.816406
-0.000000
0.343262
0.703613
-0.000000
1.074219
-0.000000
-0.000000
1.816406
-0.000000
-0.000000
-0.000000
1.690430
0.513184
-0.000000
-0.000000
-0.000000
0.348389
-0.000000
-0.000000
-0.000000
-0.000000
-0.000000
-0.000000
-0.000000
-0.000000
-0.000000
-0.000000
-0.000000
0.050537
-0.000000
-0.000000
-0.000000
-0.000000
-0.000000
-0.000000
-0.000000
-0.000000
-0.000000
-0.000000
3.816406
-0.000000
-0.000000
-0.000000
0.050201
-0.000000
-0.000000
-0.000000
-0.000000
-0.000000
-0.000000
-0.000000
-0.000000
-0.000000
0.636230
-0.000000
-0.000000
-0.000000
0.335205
-0.000000
0.056122
-0.000000
-0.000000
0.059235
0.873535
-0.000000
0.037109
-0.000000
-0.000000
-0.000000
-0.000000
-0.000000
0.755859
-0.000000
-0.000000
-0.000000
-0.000000
-0.000000
-0.000000
-0.000000
-0.000000
-0.000000
-0.000000
0.297852
