-0.000000
-0.000000
-0.000000
-0.000000
0.879883
-0.000000
0.633789
-0.000000
-0.000000
-0.000000
-0.000000
-0.000000
-0.000000
-0.000000
-0.000000
-0.000000
-0.000000
-0.000000
-0.000000
-0.000000
0.519531
-0.000000
-0.000000
-0.000000
-0.000000
-0.000000
0.131592
-0.000000
2.164062
1.268555
-0.000000
-0.000000
-0.000000
0.274902
0.000053
-0.000000
-0.000000
-0.000000
-0.000000
-0.000000
0.627930
-0.000000
-0.000000
-0.000000
-0.000000
-0.000000
1.428711
-0.000000
-0.000000
-0.000000
-0.000000
-0.000000
-0.000000
0.009865
-0.000000
-0.000000
-0.000000
-0.000000
-0.000000
-0.000000
-0.000000
0.012375
-0.000000
-0.000000
-0.000000
0.436035
-0.000000
-0.000000
-0.000000
-0.000000
-0.000000
-0.000000
-0.000000
2.271484
-0.000000
-0.000000
-0.000000
0.027008
-0.000000
0.075317
-0.000000
-0.000000
-0.000000
0.191772
-0.000000
-0.000000
-0.000000
-0.000000
-0.000000
-0.000000
-0.000000
-0.000000
-0.000000
0.008148
-0.000000
-0.000000
-0.000000
-0.000000
-0.000000
-0.000000
1.108398
0.875000
-0.000000
1.101562
-0.000000
-0.000000
-0.000000
-0.000000
-0.000000
-0.000000
-0.000000
-0.000000
0.873535
-0.000000
-0.000000
0.009583
-0.000000
-0.000000
-0.000000
0.190674
0.649902
0.017883
-0.000000
-0.000000
-0.000000
-0.000000
-0.000000
-0.000000
-0.000000
0.142212
-0.000000
-0.000000
-0.000000
-0.000000
-0.000000
-0.000000
-0.000000
-0.000000
-0.000000
-0.000000
-0.000000
-0.000000
-0.000000
0.146973
-0.000000
-0.000000
2.244141
-0.000000
-0.000000
-0.000000
-0.000000
-0.000000
-0.000000
-0.000000
-0.000000
0.129028
-0.000000
-0.000000
-0.000000
0.053009
-0.000000
-0.000000
1.214844
-0.000000
-0.000000
-0.000000
-0.000000
0.381348
-0.000000
-0.000000
-0.000000
-0.000000
-0.000000
-0.000000
-0.000000
-0.000000
-0.000000
-0.000000
-0.000000
0.385498
0.375244
-0.000000
-0.000000
-0.000000
1.122070
-0.000000
-0.000000
-0.000000
-0.000000
-0.000000
0.361572
-0.000000
-0.000000
-0.000000
-0.000000
0.015869
-0.000000
-0.000000
-0.000000
-0.000000
-0.000000
-0.000000
-0.000000
0.184692
-0.000000
-0.000000
-0.000000
0.216431
0.841309
-0.000000
0.252441
0.034424
-0.000000
-0.000000
-0.000000
-0.000000
-0.000000
0.003174
-0.000000
-0.000000
-0.000000
-0.000000
-0.000000
-0.000000
1.582031
-0.000000
-0.000000
0.957031
-0.000000
-0.000000
-0.000000
-0.000000
0.267090
0.421143
-0.000000
-0.000000
0.225342
-0.000000
2.736328
-0.000000
-0.000000
-0.000000
0.141968
-0.000000
0.667969
-0.000000
-0.000000
-0.000000
-0.000000
-0.000000
-0.000000
-0.000000
-0.000000
-0.000000
-0.000000
0.508789
0.961426
-0.000000
0.546387
-0.000000
-0.000000
-0.000000
-0.000000
-0.000000
0.225342
-0.000000
0.973633
-0.000000
-0.000000
-0.000000
0.038666
-0.000000
0.909180
0.189087
-0.000000
-0.000000
0.028198
-0.000000
0.343262
-0.000000
-0.000000
0.494873
0.137573
-0.000000
0.669922
-0.000000
-0.000000
-0.000000
-0.000000
-0.000000
-0.000000
-0.000000
-0.000000
-0.000000
-0.000000
-0.000000
-0.000000
-0.000000
-0.000000
0.106079
0.172852
-0.000000
-0.000000
1.461914
-0.000000
-0.000000
-0.000000
-0.000000
-0.000000
0.389160
-0.000000
-0.000000
0.386475
-0.000000
-0.000000
0.268555
-0.000000
-0.000000
0.155884
-0.000000
-0.000000
-0.000000
-0.000000
0.171021
-0.000000
-0.000000
-0.000000
-0.000000
0.402100
-0.000000
-0.000000
-0.000000
-0.000000
0.012695
0.004677
-0.000000
-0.000000
-0.000000
-0.000000
1.004883
-0.000000
-0.000000
-0.000000
0.269287
-0.000000
-0.000000
-0.000000
1.574219
-0.000000
-0.000000
-0.000000
-0.000000
-0.000000
-0.000000
-0.000000
-0.000000
0.469727
0.799316
-0.000000
0.442871
-0.000000
-0.000000
-0.000000
-0.000000
-0.000000
-0.000000
-0.000000
-0.000000
-0.000000
-0.000000
-0.000000
1.125977
-0.000000
-0.000000
-0.000000
-0.000000
-0.000000
0.082581
-0.000000
0.201782
-0.000000
-0.000000
-0.000000
-0.000000
-0.000000
-0.000000
-0.000000
-0.000000
0.036377
1.490234
-0.000000
-0.000000
-0.000000
0.947266
-0.000000
-0.000000
-0.000000
-0.000000
-0.000000
-0.000000
-0.000000
0.159668
-0.000000
-0.000000
-0.000000
-0.000000
1.424805
-0.000000
-0.000000
-0.000000
-0.000000
-0.000000
-0.000000
-0.000000
0.567383
-0.000000
0.470703
-0.000000
-0.000000
0.824707
-0.000000
-0.000000
-0.000000
0.517090
0.744141
-0.000000
-0.000000
-0.000000
0.706543
0.431641
1.395508
-0.000000
-0.000000
-0.000000
-0.000000
0.013580
-0.000000
-0.000000
-0.000000
0.025330
0.488525
-0.000000
-0.000000
1.380859
-0.000000
-0.000000
-0.000000
-0.000000
-0.000000
-0.000000
0.001724
-0.000000
-0.000000
-0.000000
-0.000000
0.113892
1.428711
1.277344
-0.000000
0.051514
-0.000000
-0.000000
-0.000000
-0.000000
-0.000000
-0.000000
-0.000000
-0.000000
-0.000000
-0.000000
-0.000000
-0.000000
-0.000000
-0.000000
-0.000000
-0.000000
-0.000000
0.081482
2.693359
-0.000000
-0.000000
0.662109
-0.000000
-0.000000
-0.000000
-0.000000
-0.000000
-0.000000
-0.000000
-0.000000
-0.000000
-0.000000
0.117371
2.955078
0.365234
0.059814
-0.000000
-0.000000
-0.000000
-0.000000
