-0.000000
-0.000000
-0.000000
-0.000000
-0.000000
-0.000000
0.165894
-0.000000
-0.000000
-0.000000
0.687012
0.050964
-0.000000
0.892090
-0.000000
-0.000000
-0.000000
-0.000000
-0.000000
-0.000000
-0.000000
-0.000000
0.842773
-0.000000
0.160767
-0.000000
0.417969
-0.000000
1.933594
-0.000000
-0.000000
-0.000000
-0.000000
2.960938
-0.000000
-0.000000
0.066284
-0.000000
0.003326
-0.000000
-0.000000
3.873047
-0.000000
3.259766
-0.000000
0.836914
-0.000000
-0.000000
-0.000000
-0.000000
-0.000000
-0.000000
0.337891
-0.000000
-0.000000
-0.000000
0.142212
-0.000000
-0.000000
0.079590
-0.000000
-0.000000
-0.000000
-0.000000
0.121399
0.503906
-0.000000
-0.000000
-0.000000
-0.000000
-0.000000
-0.000000
-0.000000
-0.000000
-0.000000
-0.000000
-0.000000
0.004120
-0.000000
-0.000000
-0.000000
0.343750
-0.000000
-0.000000
-0.000000
-0.000000
-0.000000
-0.000000
0.694824
-0.000000
0.166016
-0.000000
-0.000000
1.957031
-0.000000
0.465088
0.483887
-0.000000
0.397217
-0.000000
-0.000000
1.486328
0.011047
0.155518
-0.000000
0.629395
0.016815
2.417969
-0.000000
-0.000000
0.106079
-0.000000
1.335938
-0.000000
-0.000000
-0.000000
-0.000000
-0.000000
-0.000000
0.520508
-0.000000
0.087036
1.043945
0.088745
-0.000000
-0.000000
-0.000000
-0.000000
-0.000000
0.524414
-0.000000
-0.000000
0.257812
-0.000000
-0.000000
-0.000000
0.046387
-0.000000
-0.000000
-0.000000
0.397949
-0.000000
-0.000000
-0.000000
-0.000000
-0.000000
-0.000000
1.663086
-0.000000
-0.000000
3.667969
-0.000000
-0.000000
-0.000000
-0.000000
0.000206
-0.000000
-0.000000
-0.000000
0.037445
0.611816
-0.000000
-0.000000
1.352539
-0.000000
-0.000000
-0.000000
-0.000000
-0.000000
-0.000000
0.034485
-0.000000
-0.000000
3.687500
-0.000000
-0.000000
-0.000000
-0.000000
2.693359
-0.000000
-0.000000
-0.000000
2.359375
-0.000000
0.670898
-0.000000
0.160034
-0.000000
-0.000000
2.351562
-0.000000
-0.000000
-0.000000
0.000854
1.000000
-0.000000
-0.000000
-0.000000
-0.000000
0.022278
-0.000000
0.217773
-0.000000
-0.000000
0.268066
0.990723
-0.000000
0.203125
0.251465
-0.000000
-0.000000
-0.000000
-0.000000
-0.000000
0.166626
-0.000000
-0.000000
-0.000000
-0.000000
0.012451
-0.000000
-0.000000
-0.000000
-0.000000
0.604004
-0.000000
2.884766
-0.000000
0.690430
-0.000000
0.058533
-0.000000
1.719727
0.019714
-0.000000
-0.000000
-0.000000
0.002563
-0.000000
2.263672
-0.000000
1.980469
0.623535
0.027008
-0.000000
-0.000000
-0.000000
0.147461
-0.000000
0.190674
-0.000000
0.333252
0.037170
0.071960
-0.000000
0.194092
0.204346
-0.000000
1.885742
-0.000000
-0.000000
0.497803
-0.000000
-0.000000
0.069275
-0.000000
0.713379
-0.000000
-0.000000
-0.000000
1.126953
-0.000000
1.147461
1.958008
-0.000000
-0.000000
-0.000000
0.567383
-0.000000
-0.000000
-0.000000
-0.000000
0.192261
-0.000000
-0.000000
0.364990
-0.000000
-0.000000
0.061829
0.913574
-0.000000
-0.000000
-0.000000
-0.000000
1.094727
-0.000000
-0.000000
-0.000000
-0.000000
0.079346
2.398438
-0.000000
-0.000000
-0.000000
0.647949
-0.000000
0.025085
-0.000000
0.590332
-0.000000
-0.000000
0.300049
1.083008
-0.000000
-0.000000
0.138184
-0.000000
-0.000000
-0.000000
-0.000000
-0.000000
-0.000000
-0.000000
-0.000000
-0.000000
-0.000000
0.239502
-0.000000
-0.000000
-0.000000
-0.000000
-0.000000
-0.000000
-0.000000
-0.000000
-0.000000
0.406982
-0.000000
-0.000000
-0.000000
-0.000000
-0.000000
-0.000000
-0.000000
-0.000000
-0.000000
-0.000000
1.443359
2.037109
-0.000000
-0.000000
0.014679
0.040375
-0.000000
-0.000000
0.485840
-0.000000
-0.000000
-0.000000
0.780273
0.413818
-0.000000
-0.000000
2.167969
0.157104
-0.000000
-0.000000
0.148682
-0.000000
-0.000000
0.045715
1.368164
-0.000000
3.839844
-0.000000
-0.000000
-0.000000
-0.000000
-0.000000
0.403564
0.235718
-0.000000
-0.000000
-0.000000
2.324219
0.028992
-0.000000
-0.000000
-0.000000
-0.000000
-0.000000
-0.000000
0.253906
-0.000000
-0.000000
-0.000000
-0.000000
-0.000000
0.036652
-0.000000
-0.000000
-0.000000
-0.000000
-0.000000
0.068787
-0.000000
3.046875
1.185547
-0.000000
1.897461
-0.000000
1.498047
1.044922
-0.000000
-0.000000
-0.000000
-0.000000
-0.000000
-0.000000
-0.000000
-0.000000
-0.000000
-0.000000
0.196533
-0.000000
-0.000000
-0.000000
0.065735
-0.000000
-0.000000
1.762695
-0.000000
-0.000000
-0.000000
-0.000000
-0.000000
-0.000000
-0.000000
0.004860
-0.000000
-0.000000
-0.000000
-0.000000
-0.000000
-0.000000
0.070374
-0.000000
-0.000000
-0.000000
-0.000000
-0.000000
-0.000000
-0.000000
2.001953
-0.000000
0.029846
-0.000000
0.057587
-0.000000
1.253906
0.148071
-0.000000
-0.000000
0.318115
-0.000000
-0.000000
-0.000000
-0.000000
0.185181
0.071289
2.169922
0.024719
-0.000000
0.000427
-0.000000
2.871094
-0.000000
-0.000000
-0.000000
-0.000000
1.301758
1.086914
-0.000000
-0.000000
0.124634
-0.000000
-0.000000
-0.000000
0.274414
0.300049
0.265869
-0.000000
-0.000000
0.277832
0.666992
1.125977
-0.000000
-0.000000
-0.000000
1.223633
