-0.000000
0.381348
-0.000000
-0.000000
0.012054
1.188477
0.051941
0.427246
-0.000000
-0.000000
-0.000000
-0.000000
-0.000000
0.467285
-0.000000
-0.000000
-0.000000
-0.000000
-0.000000
-0.000000
0.518066
-0.000000
0.039551
-0.000000
-0.000000
0.106812
-0.000000
-0.000000
0.962402
0.418701
-0.000000
-0.000000
-0.000000
-0.000000
-0.000000
-0.000000
-0.000000
0.828613
-0.000000
0.655762
0.557129
-0.000000
-0.000000
-0.000000
-0.000000
-0.000000
1.200195
-0.000000
0.000572
-0.000000
-0.000000
-0.000000
-0.000000
-0.000000
-0.000000
-0.000000
-0.000000
0.128174
-0.000000
-0.000000
0.349365
-0.000000
-0.000000
-0.000000
-0.000000
-0.000000
-0.000000
-0.000000
-0.000000
0.606934
-0.000000
-0.000000
-0.000000
-0.000000
-0.000000
-0.000000
-0.000000
-0.000000
-0.000000
1.739258
-0.000000
-0.000000
0.679688
-0.000000
0.562500
0.427002
-0.000000
0.040802
-0.000000
-0.000000
0.029297
-0.000000
0.912109
-0.000000
-0.000000
-0.000000
0.059265
-0.000000
-0.000000
1.684570
0.289062
-0.000000
-0.000000
-0.000000
-0.000000
0.657715
-0.000000
-0.000000
-0.000000
0.343506
-0.000000
1.360352
0.998535
0.199219
0.043121
0.032776
-0.000000
-0.000000
-0.000000
-0.000000
0.670410
-0.000000
-0.000000
0.014740
-0.000000
-0.000000
0.442627
-0.000000
0.536621
-0.000000
-0.000000
-0.000000
0.006866
-0.000000
-0.000000
0.151489
0.324707
-0.000000
-0.000000
-0.000000
0.144043
-0.000000
-0.000000
-0.000000
-0.000000
-0.000000
-0.000000
-0.000000
-0.000000
-0.000000
-0.000000
-0.000000
1.164062
-0.000000
-0.000000
-0.000000
1.041992
-0.000000
-0.000000
-0.000000
-0.000000
-0.000000
-0.000000
-0.000000
-0.000000
-0.000000
-0.000000
-0.000000
0.003784
-0.000000
0.110535
-0.000000
-0.000000
-0.000000
-0.000000
-0.000000
-0.000000
-0.000000
-0.000000
1.024414
0.018616
-0.000000
0.416748
-0.000000
-0.000000
-0.000000
0.018143
-0.000000
-0.000000
-0.000000
-0.000000
0.289307
-0.000000
-0.000000
-0.000000
0.301758
-0.000000
-0.000000
-0.000000
0.302979
1.138672
-0.000000
-0.000000
0.081055
-0.000000
-0.000000
0.260742
-0.000000
0.072205
-0.000000
0.355957
0.441406
-0.000000
-0.000000
-0.000000
-0.000000
-0.000000
-0.000000
1.428711
-0.000000
-0.000000
1.218750
-0.000000
-0.000000
0.186401
-0.000000
0.928711
0.078125
-0.000000
-0.000000
-0.000000
-0.000000
1.231445
0.694336
-0.000000
1.274414
-0.000000
-0.000000
1.570312
-0.000000
-0.000000
-0.000000
-0.000000
0.051239
-0.000000
0.493652
-0.000000
-0.000000
-0.000000
-0.000000
0.007202
-0.000000
-0.000000
0.281006
-0.000000
-0.000000
0.053284
-0.000000
-0.000000
-0.000000
0.593262
0.354248
0.235474
0.121094
0.010498
-0.000000
-0.000000
-0.000000
-0.000000
-0.000000
-0.000000
0.011314
-0.000000
-0.000000
-0.000000
0.043701
-0.000000
-0.000000
-0.000000
0.706543
-0.000000
1.541992
0.207764
-0.000000
-0.000000
0.025635
-0.000000
0.072510
-0.000000
-0.000000
-0.000000
-0.000000
-0.000000
-0.000000
-0.000000
-0.000000
0.224854
0.184326
-0.000000
1.347656
-0.000000
1.052734
-0.000000
0.187500
-0.000000
-0.000000
-0.000000
0.317139
-0.000000
0.265625
-0.000000
-0.000000
-0.000000
-0.000000
-0.000000
-0.000000
-0.000000
0.685059
0.167847
0.557617
-0.000000
-0.000000
-0.000000
0.922363
-0.000000
-0.000000
0.108582
-0.000000
0.768066
2.130859
-0.000000
-0.000000
-0.000000
1.278320
-0.000000
-0.000000
-0.000000
1.040039
1.123047
-0.000000
-0.000000
-0.000000
0.593262
0.260498
2.953125
-0.000000
-0.000000
-0.000000
-0.000000
-0.000000
1.211914
-0.000000
-0.000000
-0.000000
-0.000000
-0.000000
-0.000000
-0.000000
-0.000000
-0.000000
-0.000000
-0.000000
-0.000000
0.089783
-0.000000
-0.000000
-0.000000
-0.000000
0.354980
1.949219
-0.000000
-0.000000
2.091797
-0.000000
-0.000000
-0.000000
-0.000000
-0.000000
-0.000000
-0.000000
-0.000000
-0.000000
-0.000000
0.102234
-0.000000
-0.000000
0.638672
-0.000000
0.093994
-0.000000
-0.000000
-0.000000
-0.000000
-0.000000
-0.000000
-0.000000
-0.000000
-0.000000
-0.000000
-0.000000
-0.000000
0.189941
-0.000000
-0.000000
-0.000000
0.387451
-0.000000
0.251465
-0.000000
-0.000000
-0.000000
-0.000000
0.469238
-0.000000
-0.000000
-0.000000
0.948242
-0.000000
0.021942
1.428711
-0.000000
1.135742
-0.000000
-0.000000
-0.000000
0.036499
-0.000000
1.152344
0.331055
-0.000000
-0.000000
-0.000000
-0.000000
-0.000000
-0.000000
-0.000000
0.505371
-0.000000
-0.000000
0.230591
-0.000000
-0.000000
-0.000000
0.131226
0.095459
-0.000000
-0.000000
-0.000000
-0.000000
-0.000000
-0.000000
-0.000000
-0.000000
-0.000000
0.929199
-0.000000
-0.000000
0.356689
0.128784
-0.000000
-0.000000
0.166626
-0.000000
-0.000000
-0.000000
0.000320
-0.000000
-0.000000
-0.000000
-0.000000
-0.000000
0.211304
-0.000000
-0.000000
0.288086
-0.000000
-0.000000
-0.000000
1.555664
-0.000000
-0.000000
0.353760
-0.000000
-0.000000
-0.000000
-0.000000
-0.000000
-0.000000
-0.000000
-0.000000
-0.000000
0.238403
-0.000000
-0.000000
-0.000000
1.111328
-0.000000
-0.000000
-0.000000
-0.000000
