-0.000000
-0.000000
-0.000000
-0.000000
-0.000000
-0.000000
-0.000000
0.479980
-0.000000
-0.000000
-0.000000
-0.000000
-0.000000
-0.000000
-0.000000
-0.000000
-0.000000
-0.000000
-0.000000
-0.000000
1.041016
-0.000000
0.485352
-0.000000
-0.000000
-0.000000
-0.000000
-0.000000
2.748047
0.001282
-0.000000
-0.000000
-0.000000
0.346680
0.003159
-0.000000
-0.000000
-0.000000
-0.000000
-0.000000
0.357666
3.265625
0.427002
-0.000000
-0.000000
0.242798
-0.000000
-0.000000
-0.000000
-0.000000
-0.000000
1.746094
-0.000000
0.025543
-0.000000
0.471436
0.038025
-0.000000
-0.000000
-0.000000
-0.000000
-0.000000
-0.000000
-0.000000
-0.000000
-0.000000
-0.000000
-0.000000
-0.000000
-0.000000
-0.000000
-0.000000
0.073181
0.982910
-0.000000
-0.000000
-0.000000
0.008118
-0.000000
-0.000000
-0.000000
0.723145
-0.000000
-0.000000
-0.000000
-0.000000
-0.000000
-0.000000
-0.000000
-0.000000
-0.000000
-0.000000
-0.000000
-0.000000
-0.000000
-0.000000
0.151245
-0.000000
-0.000000
2.517578
1.186523
-0.000000
-0.000000
-0.000000
0.110229
1.215820
-0.000000
-0.000000
-0.000000
1.690430
-0.000000
-0.000000
3.068359
0.110413
-0.000000
-0.000000
-0.000000
-0.000000
-0.000000
0.724609
0.432861
-0.000000
-0.000000
0.018097
-0.000000
-0.000000
0.046631
-0.000000
-0.000000
-0.000000
-0.000000
-0.000000
0.340820
-0.000000
-0.000000
-0.000000
0.719727
0.147095
-0.000000
-0.000000
0.847168
-0.000000
-0.000000
-0.000000
-0.000000
-0.000000
-0.000000
1.647461
-0.000000
0.295654
-0.000000
-0.000000
-0.000000
-0.000000
-0.000000
-0.000000
-0.000000
0.017334
0.109375
-0.000000
-0.000000
-0.000000
-0.000000
-0.000000
-0.000000
-0.000000
0.013672
0.511230
-0.000000
-0.000000
-0.000000
0.364746
-0.000000
-0.000000
-0.000000
-0.000000
-0.000000
-0.000000
-0.000000
-0.000000
-0.000000
-0.000000
0.198975
-0.000000
1.278320
-0.000000
-0.000000
-0.000000
-0.000000
-0.000000
-0.000000
-0.000000
-0.000000
-0.000000
-0.000000
0.292725
-0.000000
-0.000000
-0.000000
0.314453
-0.000000
-0.000000
-0.000000
-0.000000
-0.000000
-0.000000
0.405762
0.818359
0.509277
-0.000000
0.337402
0.332764
0.164429
-0.000000
0.825195
-0.000000
-0.000000
-0.000000
-0.000000
1.594727
-0.000000
-0.000000
-0.000000
-0.000000
-0.000000
-0.000000
-0.000000
-0.000000
0.111328
-0.000000
1.139648
-0.000000
1.242188
-0.000000
-0.000000
0.479736
-0.000000
0.031006
-0.000000
-0.000000
-0.000000
0.063599
-0.000000
-0.000000
-0.000000
-0.000000
-0.000000
0.395508
-0.000000
0.376953
-0.000000
-0.000000
-0.000000
0.385254
-0.000000
-0.000000
0.530273
-0.000000
-0.000000
-0.000000
-0.000000
-0.000000
-0.000000
-0.000000
-0.000000
-0.000000
0.209961
-0.000000
-0.000000
-0.000000
0.251465
0.002769
-0.000000
-0.000000
-0.000000
-0.000000
0.095215
-0.000000
-0.000000
-0.000000
-0.000000
0.166260
-0.000000
-0.000000
0.648438
0.366943
-0.000000
0.904297
-0.000000
-0.000000
-0.000000
0.106567
-0.000000
-0.000000
-0.000000
-0.000000
-0.000000
-0.000000
-0.000000
0.162842
-0.000000
-0.000000
-0.000000
0.731934
-0.000000
-0.000000
-0.000000
-0.000000
-0.000000
0.206299
-0.000000
-0.000000
-0.000000
-0.000000
-0.000000
-0.000000
-0.000000
0.106201
-0.000000
-0.000000
-0.000000
-0.000000
-0.000000
-0.000000
-0.000000
-0.000000
-0.000000
-0.000000
-0.000000
-0.000000
-0.000000
-0.000000
-0.000000
-0.000000
-0.000000
-0.000000
-0.000000
-0.000000
0.188110
-0.000000
-0.000000
0.055420
-0.000000
0.012039
-0.000000
-0.000000
-0.000000
0.874512
-0.000000
-0.000000
0.025726
-0.000000
-0.000000
-0.000000
-0.000000
-0.000000
-0.000000
-0.000000
-0.000000
0.010887
-0.000000
-0.000000
-0.000000
0.175659
-0.000000
-0.000000
-0.000000
-0.000000
-0.000000
-0.000000
-0.000000
-0.000000
1.743164
0.196533
-0.000000
-0.000000
-0.000000
-0.000000
-0.000000
-0.000000
-0.000000
-0.000000
-0.000000
0.024994
0.897461
-0.000000
-0.000000
-0.000000
-0.000000
-0.000000
-0.000000
-0.000000
-0.000000
1.201172
-0.000000
-0.000000
-0.000000
-0.000000
-0.000000
-0.000000
-0.000000
-0.000000
-0.000000
-0.000000
-0.000000
-0.000000
0.303223
0.134155
-0.000000
1.154297
0.034393
-0.000000
0.286133
-0.000000
-0.000000
-0.000000
0.393555
-0.000000
-0.000000
-0.000000
-0.000000
2.107422
-0.000000
-0.000000
0.840820
-0.000000
-0.000000
0.831055
1.205078
-0.000000
-0.000000
-0.000000
-0.000000
1.157227
-0.000000
-0.000000
-0.000000
-0.000000
-0.000000
0.054993
-0.000000
-0.000000
-0.000000
-0.000000
-0.000000
0.075989
-0.000000
-0.000000
-0.000000
-0.000000
-0.000000
-0.000000
-0.000000
-0.000000
-0.000000
-0.000000
-0.000000
-0.000000
0.073853
-0.000000
0.024628
-0.000000
-0.000000
-0.000000
-0.000000
-0.000000
-0.000000
-0.000000
-0.000000
-0.000000
0.125000
-0.000000
-0.000000
-0.000000
-0.000000
-0.000000
-0.000000
-0.000000
-0.000000
-0.000000
-0.000000
-0.000000
-0.000000
-0.000000
0.280273
-0.000000
-0.000000
-0.000000
-0.000000
-0.000000
-0.000000
-0.000000
-0.000000
0.281250
-0.000000
0.888672
-0.000000
-0.000000
-0.000000
0.809082
