-0.000000
-0.000000
-0.000000
0.730957
-0.000000
-0.000000
0.119995
-0.000000
-0.000000
-0.000000
0.453613
-0.000000
-0.000000
-0.000000
-0.000000
-0.000000
-0.000000
-0.000000
-0.000000
-0.000000
0.807129
-0.000000
0.128906
-0.000000
0.021637
-0.000000
0.111511
-0.000000
2.845703
-0.000000
-0.000000
-0.000000
-0.000000
0.118042
0.001534
-0.000000
-0.000000
-0.000000
-0.000000
-0.000000
0.269287
4.265625
0.357910
0.357422
-0.000000
0.133301
-0.000000
-0.000000
-0.000000
-0.000000
-0.000000
0.283203
0.054810
0.147461
-0.000000
-0.000000
-0.000000
-0.000000
-0.000000
-0.000000
-0.000000
1.102539
-0.000000
-0.000000
-0.000000
-0.000000
-0.000000
-0.000000
-0.000000
-0.000000
-0.000000
-0.000000
0.173340
1.500977
-0.000000
-0.000000
-0.000000
0.062347
-0.000000
-0.000000
-0.000000
-0.000000
-0.000000
-0.000000
-0.000000
-0.000000
-0.000000
0.217407
-0.000000
-0.000000
0.343262
-0.000000
-0.000000
0.378418
-0.000000
-0.000000
0.050781
-0.000000
-0.000000
0.643555
0.796387
-0.000000
0.525391
0.706055
-0.000000
-0.000000
-0.000000
0.548340
-0.000000
0.926270
-0.000000
-0.000000
2.167969
-0.000000
-0.000000
-0.000000
-0.000000
-0.000000
-0.000000
0.773926
0.219238
-0.000000
-0.000000
0.018188
-0.000000
-0.000000
-0.000000
-0.000000
-0.000000
-0.000000
-0.000000
-0.000000
-0.000000
-0.000000
-0.000000
-0.000000
0.930664
-0.000000
-0.000000
-0.000000
0.074036
-0.000000
-0.000000
-0.000000
-0.000000
-0.000000
1.081055
1.308594
-0.000000
0.190918
0.791992
-0.000000
-0.000000
-0.000000
-0.000000
0.396240
-0.000000
-0.000000
1.374023
-0.000000
-0.000000
-0.000000
-0.000000
0.053162
-0.000000
-0.000000
-0.000000
-0.000000
-0.000000
-0.000000
-0.000000
0.282227
-0.000000
-0.000000
-0.000000
-0.000000
-0.000000
-0.000000
0.450684
-0.000000
-0.000000
-0.000000
0.394287
-0.000000
0.663574
-0.000000
-0.000000
-0.000000
-0.000000
-0.000000
0.089050
-0.000000
-0.000000
-0.000000
-0.000000
-0.000000
-0.000000
-0.000000
-0.000000
-0.000000
-0.000000
-0.000000
-0.000000
-0.000000
-0.000000
0.615234
0.104431
-0.000000
0.304199
-0.000000
-0.000000
0.308105
-0.000000
-0.000000
0.316406
-0.000000
1.006836
-0.000000
-0.000000
0.934570
-0.000000
-0.000000
-0.000000
-0.000000
-0.000000
-0.000000
-0.000000
-0.000000
-0.000000
-0.000000
0.406494
-0.000000
0.495605
-0.000000
-0.000000
-0.000000
-0.000000
-0.000000
-0.000000
0.480957
-0.000000
0.261230
0.556152
0.072815
-0.000000
-0.000000
-0.000000
-0.000000
-0.000000
0.001221
-0.000000
-0.000000
-0.000000
-0.000000
-0.000000
0.877930
1.303711
-0.000000
-0.000000
-0.000000
-0.000000
-0.000000
-0.000000
-0.000000
-0.000000
-0.000000
-0.000000
-0.000000
-0.000000
-0.000000
1.354492
-0.000000
1.289062
0.592773
-0.000000
-0.000000
-0.000000
0.238647
-0.000000
-0.000000
-0.000000
-0.000000
-0.000000
-0.000000
-0.000000
0.356201
-0.000000
-0.000000
-0.000000
-0.000000
-0.000000
-0.000000
-0.000000
-0.000000
-0.000000
-0.000000
-0.000000
-0.000000
-0.000000
-0.000000
-0.000000
-0.000000
-0.000000
1.169922
0.226929
-0.000000
0.033203
-0.000000
-0.000000
0.631836
-0.000000
-0.000000
0.160034
-0.000000
-0.000000
-0.000000
-0.000000
-0.000000
-0.000000
-0.000000
-0.000000
-0.000000
-0.000000
-0.000000
-0.000000
-0.000000
-0.000000
-0.000000
-0.000000
-0.000000
-0.000000
-0.000000
-0.000000
-0.000000
-0.000000
-0.000000
-0.000000
-0.000000
-0.000000
-0.000000
-0.000000
-0.000000
-0.000000
-0.000000
-0.000000
-0.000000
-0.000000
0.741699
0.874023
-0.000000
-0.000000
-0.000000
-0.000000
-0.000000
-0.000000
-0.000000
-0.000000
-0.000000
-0.000000
0.551758
-0.000000
-0.000000
-0.000000
0.764160
-0.000000
-0.000000
-0.000000
-0.000000
-0.000000
-0.000000
0.060608
2.023438
0.018921
0.564941
-0.000000
-0.000000
-0.000000
-0.000000
-0.000000
0.787598
-0.000000
-0.000000
-0.000000
-0.000000
0.918945
0.138550
-0.000000
-0.000000
-0.000000
-0.000000
-0.000000
-0.000000
-0.000000
-0.000000
-0.000000
-0.000000
-0.000000
-0.000000
-0.000000
-0.000000
-0.000000
0.130005
-0.000000
-0.000000
0.006775
-0.000000
1.496094
-0.000000
-0.000000
1.684570
0.271729
-0.000000
0.001554
-0.000000
0.336426
-0.000000
-0.000000
-0.000000
-0.000000
-0.000000
-0.000000
-0.000000
-0.000000
0.159668
0.786133
-0.000000
-0.000000
0.247437
1.401367
-0.000000
0.760254
-0.000000
-0.000000
-0.000000
-0.000000
-0.000000
-0.000000
-0.000000
-0.000000
0.060974
0.289795
-0.000000
-0.000000
-0.000000
-0.000000
0.118835
-0.000000
-0.000000
-0.000000
-0.000000
-0.000000
-0.000000
-0.000000
-0.000000
-0.000000
0.069519
0.635742
0.115662
-0.000000
0.306152
-0.000000
-0.000000
-0.000000
-0.000000
-0.000000
-0.000000
-0.000000
-0.000000
-0.000000
0.056854
0.166504
-0.000000
-0.000000
-0.000000
-0.000000
0.571777
0.026398
-0.000000
-0.000000
-0.000000
-0.000000
-0.000000
0.950684
-0.000000
0.254883
-0.000000
-0.000000
-0.000000
-0.000000
-0.000000
-0.000000
-0.000000
-0.000000
0.489746
-0.000000
1.305664
-0.000000
-0.000000
-0.000000
1.623047
