-0.000000
-0.000000
-0.000000
0.126099
-0.000000
-0.000000
0.536621
-0.000000
-0.000000
0.369873
-0.000000
-0.000000
-0.000000
0.273926
-0.000000
-0.000000
-0.000000
-0.000000
-0.000000
-0.000000
1.223633
-0.000000
-0.000000
0.262939
-0.000000
0.883789
-0.000000
-0.000000
1.644531
0.473877
-0.000000
-0.000000
0.410645
-0.000000
-0.000000
-0.000000
-0.000000
1.421875
-0.000000
-0.000000
-0.000000
0.425781
0.102722
-0.000000
-0.000000
0.126587
1.130859
-0.000000
0.068726
-0.000000
-0.000000
0.060913
-0.000000
-0.000000
-0.000000
-0.000000
-0.000000
0.069092
-0.000000
1.048828
-0.000000
-0.000000
0.064758
-0.000000
-0.000000
0.449707
-0.000000
-0.000000
-0.000000
-0.000000
-0.000000
-0.000000
-0.000000
1.941406
-0.000000
-0.000000
-0.000000
-0.000000
-0.000000
0.912109
-0.000000
-0.000000
0.162476
-0.000000
0.493164
-0.000000
-0.000000
-0.000000
-0.000000
-0.000000
-0.000000
0.213379
0.402588
-0.000000
-0.000000
-0.000000
0.113037
-0.000000
-0.000000
-0.000000
-0.000000
0.236328
-0.000000
0.879395
-0.000000
-0.000000
-0.000000
-0.000000
-0.000000
-0.000000
-0.000000
0.899414
1.292969
0.075989
0.194092
-0.000000
-0.000000
-0.000000
-0.000000
-0.000000
0.306885
-0.000000
-0.000000
-0.000000
-0.000000
-0.000000
-0.000000
-0.000000
-0.000000
0.632812
0.047333
-0.000000
0.034363
-0.000000
-0.000000
-0.000000
-0.000000
0.143677
-0.000000
-0.000000
-0.000000
-0.000000
-0.000000
-0.000000
-0.000000
0.023438
0.383789
-0.000000
-0.000000
-0.000000
-0.000000
-0.000000
-0.000000
-0.000000
-0.000000
0.192993
0.357666
0.193726
-0.000000
0.050354
-0.000000
0.140137
0.561035
-0.000000
-0.000000
-0.000000
0.195801
0.620117
0.533203
-0.000000
0.142334
-0.000000
-0.000000
-0.000000
-0.000000
-0.000000
-0.000000
-0.000000
0.719238
-0.000000
0.463867
-0.000000
-0.000000
-0.000000
0.261230
0.181885
-0.000000
0.356934
-0.000000
-0.000000
-0.000000
-0.000000
-0.000000
-0.000000
-0.000000
0.358643
0.234131
-0.000000
-0.000000
0.025452
-0.000000
-0.000000
-0.000000
0.032227
-0.000000
-0.000000
-0.000000
0.488770
-0.000000
-0.000000
1.256836
-0.000000
-0.000000
-0.000000
0.031372
0.451416
-0.000000
0.270752
0.297607
-0.000000
-0.000000
-0.000000
-0.000000
-0.000000
0.381592
-0.000000
-0.000000
-0.000000
-0.000000
-0.000000
0.139038
-0.000000
1.386719
0.456787
-0.000000
-0.000000
-0.000000
-0.000000
2.023438
-0.000000
-0.000000
-0.000000
0.121521
0.069275
-0.000000
0.267578
-0.000000
-0.000000
-0.000000
-0.000000
0.525879
-0.000000
-0.000000
0.574707
-0.000000
-0.000000
0.487793
-0.000000
-0.000000
-0.000000
1.543945
0.035645
0.005859
-0.000000
0.262695
-0.000000
0.003593
-0.000000
-0.000000
-0.000000
-0.000000
-0.000000
0.984863
-0.000000
-0.000000
1.044922
-0.000000
-0.000000
0.375732
0.708496
-0.000000
0.947754
-0.000000
-0.000000
-0.000000
-0.000000
-0.000000
-0.000000
-0.000000
-0.000000
-0.000000
-0.000000
-0.000000
-0.000000
-0.000000
-0.000000
-0.000000
0.243286
-0.000000
-0.000000
0.212402
-0.000000
-0.000000
0.819824
-0.000000
-0.000000
-0.000000
-0.000000
-0.000000
1.258789
-0.000000
-0.000000
-0.000000
-0.000000
-0.000000
-0.000000
-0.000000
-0.000000
-0.000000
-0.000000
-0.000000
-0.000000
-0.000000
0.328125
-0.000000
-0.000000
-0.000000
-0.000000
1.511719
0.159912
-0.000000
0.023438
-0.000000
-0.000000
0.003574
-0.000000
-0.000000
0.749512
-0.000000
0.621094
-0.000000
-0.000000
0.139404
-0.000000
0.626953
0.049713
-0.000000
0.999512
-0.000000
-0.000000
-0.000000
-0.000000
-0.000000
-0.000000
-0.000000
-0.000000
0.242188
-0.000000
-0.000000
0.471680
0.018982
0.827148
0.110352
0.158325
-0.000000
-0.000000
-0.000000
-0.000000
-0.000000
-0.000000
-0.000000
0.641113
-0.000000
-0.000000
-0.000000
-0.000000
-0.000000
0.163818
-0.000000
-0.000000
-0.000000
-0.000000
-0.000000
-0.000000
-0.000000
-0.000000
-0.000000
-0.000000
-0.000000
0.661133
0.837402
-0.000000
-0.000000
-0.000000
0.024414
-0.000000
-0.000000
-0.000000
0.032257
-0.000000
-0.000000
0.030396
-0.000000
-0.000000
-0.000000
-0.000000
0.484863
0.044678
-0.000000
0.074341
-0.000000
-0.000000
0.053192
-0.000000
0.411621
-0.000000
-0.000000
-0.000000
0.154663
0.969238
-0.000000
-0.000000
-0.000000
0.225830
-0.000000
0.468994
0.007259
-0.000000
-0.000000
-0.000000
1.142578
-0.000000
-0.000000
-0.000000
-0.000000
-0.000000
-0.000000
-0.000000
-0.000000
0.085022
0.055725
0.012238
-0.000000
1.177734
-0.000000
-0.000000
-0.000000
-0.000000
-0.000000
-0.000000
-0.000000
-0.000000
-0.000000
0.822754
1.087891
-0.000000
-0.000000
1.297852
0.237183
-0.000000
-0.000000
-0.000000
-0.000000
-0.000000
-0.000000
-0.000000
-0.000000
-0.000000
-0.000000
-0.000000
0.050781
1.267578
-0.000000
-0.000000
-0.000000
-0.000000
-0.000000
0.273926
1.599609
-0.000000
-0.000000
0.111389
0.031494
-0.000000
-0.000000
-0.000000
-0.000000
-0.000000
-0.000000
-0.000000
-0.000000
0.512207
-0.000000
2.281250
0.190552
0.156250
-0.000000
-0.000000
-0.000000
-0.000000
