-0.000000
-0.000000
-0.000000
-0.000000
0.654297
-0.000000
-0.000000
-0.000000
-0.000000
-0.000000
-0.000000
-0.000000
-0.000000
0.379883
-0.000000
-0.000000
-0.000000
-0.000000
-0.000000
-0.000000
1.153320
-0.000000
0.256104
-0.000000
0.028137
-0.000000
0.252441
-0.000000
3.609375
1.470703
-0.000000
-0.000000
-0.000000
2.052734
-0.000000
-0.000000
-0.000000
-0.000000
0.021118
0.288086
-0.000000
-0.000000
0.266357
-0.000000
-0.000000
-0.000000
-0.000000
-0.000000
-0.000000
-0.000000
-0.000000
-0.000000
0.413330
-0.000000
-0.000000
-0.000000
-0.000000
-0.000000
-0.000000
0.553223
-0.000000
-0.000000
0.053528
-0.000000
-0.000000
0.114014
-0.000000
-0.000000
-0.000000
-0.000000
-0.000000
-0.000000
-0.000000
-0.000000
-0.000000
-0.000000
1.151367
0.010193
-0.000000
-0.000000
-0.000000
0.135254
-0.000000
-0.000000
-0.000000
-0.000000
-0.000000
-0.000000
1.098633
-0.000000
-0.000000
-0.000000
-0.000000
-0.000000
-0.000000
-0.000000
-0.000000
-0.000000
0.198975
1.822266
1.380859
-0.000000
-0.000000
0.387451
-0.000000
-0.000000
-0.000000
0.593750
-0.000000
-0.000000
-0.000000
-0.000000
2.136719
-0.000000
-0.000000
-0.000000
-0.000000
-0.000000
-0.000000
1.365234
1.608398
-0.000000
0.085144
0.012115
-0.000000
-0.000000
-0.000000
-0.000000
-0.000000
-0.000000
-0.000000
-0.000000
0.036560
-0.000000
-0.000000
1.176758
1.974609
-0.000000
-0.000000
-0.000000
-0.000000
-0.000000
-0.000000
-0.000000
-0.000000
-0.000000
-0.000000
-0.000000
-0.000000
-0.000000
-0.000000
-0.000000
-0.000000
-0.000000
-0.000000
0.004204
-0.000000
-0.000000
-0.000000
-0.000000
-0.000000
-0.000000
-0.000000
-0.000000
-0.000000
-0.000000
-0.000000
-0.000000
0.131958
-0.000000
-0.000000
0.554688
-0.000000
-0.000000
0.002075
-0.000000
-0.000000
1.155273
-0.000000
-0.000000
-0.000000
-0.000000
-0.000000
-0.000000
1.753906
-0.000000
0.668945
-0.000000
-0.000000
-0.000000
0.832031
-0.000000
-0.000000
-0.000000
-0.000000
-0.000000
-0.000000
-0.000000
-0.000000
0.006165
-0.000000
-0.000000
-0.000000
-0.000000
-0.000000
-0.000000
-0.000000
-0.000000
1.340820
-0.000000
-0.000000
0.245239
-0.000000
0.006142
-0.000000
-0.000000
-0.000000
0.095337
-0.000000
-0.000000
-0.000000
-0.000000
-0.000000
-0.000000
-0.000000
-0.000000
-0.000000
0.681641
1.312500
-0.000000
-0.000000
-0.000000
0.067078
0.170898
-0.000000
-0.000000
-0.000000
-0.000000
-0.000000
-0.000000
1.074219
0.205444
0.245483
-0.000000
0.647461
-0.000000
-0.000000
0.206299
-0.000000
-0.000000
-0.000000
0.106995
-0.000000
-0.000000
-0.000000
0.677734
-0.000000
-0.000000
-0.000000
-0.000000
-0.000000
0.646973
-0.000000
0.655762
0.036194
-0.000000
1.290039
-0.000000
-0.000000
-0.000000
-0.000000
-0.000000
1.149414
1.969727
-0.000000
-0.000000
-0.000000
-0.000000
-0.000000
-0.000000
-0.000000
-0.000000
0.529297
-0.000000
1.830078
0.297119
-0.000000
0.056885
0.009674
-0.000000
-0.000000
0.887207
-0.000000
-0.000000
-0.000000
-0.000000
-0.000000
-0.000000
-0.000000
-0.000000
-0.000000
-0.000000
-0.000000
-0.000000
-0.000000
-0.000000
-0.000000
-0.000000
0.356201
-0.000000
-0.000000
0.322754
2.685547
-0.000000
-0.000000
0.570801
-0.000000
-0.000000
0.804199
-0.000000
-0.000000
-0.000000
-0.000000
-0.000000
-0.000000
-0.000000
0.094360
-0.000000
-0.000000
-0.000000
-0.000000
-0.000000
-0.000000
-0.000000
-0.000000
-0.000000
-0.000000
-0.000000
-0.000000
-0.000000
-0.000000
0.017639
-0.000000
0.964355
-0.000000
-0.000000
-0.000000
-0.000000
0.017303
-0.000000
-0.000000
0.280762
-0.000000
-0.000000
-0.000000
2.359375
-0.000000
2.205078
-0.000000
0.351318
-0.000000
-0.000000
-0.000000
-0.000000
-0.000000
-0.000000
-0.000000
-0.000000
-0.000000
-0.000000
-0.000000
1.469727
-0.000000
1.468750
-0.000000
-0.000000
-0.000000
-0.000000
-0.000000
-0.000000
-0.000000
-0.000000
-0.000000
-0.000000
1.039062
-0.000000
-0.000000
-0.000000
-0.000000
-0.000000
-0.000000
-0.000000
0.089417
1.256836
-0.000000
-0.000000
-0.000000
-0.000000
-0.000000
-0.000000
-0.000000
-0.000000
-0.000000
-0.000000
0.024689
-0.000000
-0.000000
-0.000000
-0.000000
-0.000000
0.307617
-0.000000
1.147461
-0.000000
-0.000000
-0.000000
-0.000000
-0.000000
-0.000000
-0.000000
-0.000000
-0.000000
-0.000000
0.754395
0.027832
-0.000000
-0.000000
-0.000000
2.148438
-0.000000
-0.000000
-0.000000
-0.000000
-0.000000
-0.000000
-0.000000
-0.000000
-0.000000
0.104614
-0.000000
-0.000000
-0.000000
-0.000000
-0.000000
-0.000000
0.005318
0.139038
-0.000000
-0.000000
-0.000000
-0.000000
-0.000000
-0.000000
-0.000000
-0.000000
0.182861
0.829102
-0.000000
-0.000000
1.046875
-0.000000
-0.000000
-0.000000
-0.000000
-0.000000
-0.000000
-0.000000
-0.000000
-0.000000
0.000438
-0.000000
-0.000000
0.056152
-0.000000
-0.000000
0.388672
-0.000000
0.716797
0.297119
-0.000000
-0.000000
0.566406
0.057617
-0.000000
-0.000000
-0.000000
-0.000000
-0.000000
0.349121
0.162476
-0.000000
-0.000000
0.916016
-0.000000
0.108154
0.324951
-0.000000
-0.000000
-0.000000
0.597168
