-0.000000
-0.000000
-0.000000
-0.000000
-0.000000
-0.000000
0.002235
-0.000000
-0.000000
1.364258
-0.000000
-0.000000
-0.000000
0.121277
0.001999
-0.000000
0.024841
-0.000000
0.097656
-0.000000
-0.000000
-0.000000
-0.000000
-0.000000
-0.000000
-0.000000
0.002289
-0.000000
1.443359
-0.000000
-0.000000
-0.000000
-0.000000
-0.000000
0.041809
-0.000000
-0.000000
-0.000000
-0.000000
0.298096
1.018555
-0.000000
-0.000000
-0.000000
-0.000000
-0.000000
0.191040
-0.000000
-0.000000
-0.000000
-0.000000
0.549805
-0.000000
0.471680
-0.000000
0.510742
0.077576
-0.000000
-0.000000
-0.000000
-0.000000
0.471680
0.859863
-0.000000
0.066345
-0.000000
-0.000000
-0.000000
-0.000000
0.284668
-0.000000
-0.000000
-0.000000
0.295654
-0.000000
0.006714
-0.000000
-0.000000
-0.000000
-0.000000
-0.000000
0.533203
-0.000000
-0.000000
-0.000000
-0.000000
-0.000000
0.377930
-0.000000
-0.000000
-0.000000
-0.000000
-0.000000
0.060822
0.023926
0.264648
0.140381
-0.000000
-0.000000
1.086914
1.681641
1.043945
0.922852
-0.000000
1.355469
-0.000000
0.038361
0.051941
-0.000000
2.064453
-0.000000
-0.000000
0.789551
-0.000000
-0.000000
-0.000000
-0.000000
0.851074
-0.000000
1.980469
-0.000000
-0.000000
-0.000000
-0.000000
-0.000000
-0.000000
-0.000000
-0.000000
-0.000000
-0.000000
0.957031
-0.000000
-0.000000
-0.000000
-0.000000
0.467285
-0.000000
-0.000000
-0.000000
-0.000000
-0.000000
-0.000000
0.212769
0.294434
-0.000000
1.024414
-0.000000
0.584473
1.022461
0.264404
-0.000000
-0.000000
0.742676
-0.000000
-0.000000
-0.000000
-0.000000
-0.000000
-0.000000
-0.000000
0.041931
0.673828
-0.000000
0.346680
-0.000000
-0.000000
0.748535
0.362305
-0.000000
-0.000000
0.128540
0.113953
-0.000000
1.701172
-0.000000
-0.000000
-0.000000
2.244141
-0.000000
1.197266
-0.000000
-0.000000
-0.000000
0.228882
-0.000000
-0.000000
-0.000000
-0.000000
-0.000000
0.338867
-0.000000
-0.000000
-0.000000
-0.000000
-0.000000
0.368896
-0.000000
-0.000000
-0.000000
-0.000000
-0.000000
-0.000000
-0.000000
0.227661
0.040314
-0.000000
-0.000000
1.322266
0.362061
-0.000000
-0.000000
0.381104
0.208862
-0.000000
-0.000000
-0.000000
-0.000000
0.301025
-0.000000
0.194092
-0.000000
0.774902
-0.000000
-0.000000
-0.000000
-0.000000
-0.000000
0.608398
1.304688
-0.000000
0.943359
-0.000000
-0.000000
-0.000000
-0.000000
1.485352
0.035156
-0.000000
-0.000000
-0.000000
0.836914
-0.000000
-0.000000
-0.000000
0.660645
-0.000000
-0.000000
-0.000000
-0.000000
-0.000000
-0.000000
-0.000000
-0.000000
-0.000000
-0.000000
0.019669
-0.000000
-0.000000
-0.000000
-0.000000
-0.000000
-0.000000
0.106934
-0.000000
-0.000000
-0.000000
-0.000000
-0.000000
-0.000000
-0.000000
-0.000000
-0.000000
0.301758
-0.000000
-0.000000
-0.000000
0.030273
-0.000000
0.354980
-0.000000
-0.000000
1.196289
-0.000000
-0.000000
1.026367
0.159912
-0.000000
0.317383
-0.000000
-0.000000
0.584961
-0.000000
-0.000000
-0.000000
1.416992
-0.000000
1.136719
-0.000000
-0.000000
-0.000000
-0.000000
-0.000000
-0.000000
0.365234
-0.000000
-0.000000
-0.000000
-0.000000
-0.000000
-0.000000
-0.000000
-0.000000
0.291260
-0.000000
0.634277
0.182129
-0.000000
-0.000000
-0.000000
-0.000000
-0.000000
-0.000000
-0.000000
-0.000000
-0.000000
-0.000000
-0.000000
-0.000000
-0.000000
-0.000000
-0.000000
-0.000000
-0.000000
-0.000000
-0.000000
-0.000000
-0.000000
-0.000000
0.494141
-0.000000
-0.000000
0.028320
-0.000000
-0.000000
-0.000000
0.052612
-0.000000
-0.000000
-0.000000
-0.000000
-0.000000
-0.000000
-0.000000
-0.000000
-0.000000
-0.000000
1.117188
-0.000000
-0.000000
-0.000000
-0.000000
-0.000000
0.885742
-0.000000
-0.000000
-0.000000
-0.000000
-0.000000
0.106079
0.064209
-0.000000
-0.000000
1.037109
1.155273
0.199463
-0.000000
-0.000000
0.688965
-0.000000
0.030640
-0.000000
0.714355
0.255615
0.057404
0.671387
-0.000000
-0.000000
-0.000000
1.195312
0.936035
-0.000000
-0.000000
0.051361
0.424561
0.143555
1.089844
-0.000000
-0.000000
-0.000000
-0.000000
-0.000000
-0.000000
-0.000000
-0.000000
-0.000000
-0.000000
-0.000000
0.052612
-0.000000
0.165894
-0.000000
-0.000000
-0.000000
-0.000000
-0.000000
-0.000000
0.778320
-0.000000
0.877930
-0.000000
-0.000000
0.534668
-0.000000
-0.000000
-0.000000
-0.000000
-0.000000
-0.000000
-0.000000
0.357910
-0.000000
-0.000000
-0.000000
0.070740
-0.000000
-0.000000
-0.000000
-0.000000
-0.000000
0.382080
0.685547
-0.000000
-0.000000
0.033539
-0.000000
-0.000000
-0.000000
-0.000000
-0.000000
-0.000000
-0.000000
-0.000000
-0.000000
-0.000000
-0.000000
-0.000000
1.680664
-0.000000
-0.000000
0.123352
0.014801
-0.000000
-0.000000
-0.000000
-0.000000
-0.000000
-0.000000
-0.000000
-0.000000
-0.000000
0.275879
-0.000000
0.414551
-0.000000
0.362549
-0.000000
0.042633
-0.000000
-0.000000
0.058685
1.861328
-0.000000
-0.000000
-0.000000
-0.000000
-0.000000
-0.000000
-0.000000
0.372559
0.795410
-0.000000
0.335693
-0.000000
0.506348
-0.000000
-0.000000
-0.000000
-0.000000
-0.000000
-0.000000
