-0.000000
0.110962
-0.000000
-0.000000
-0.000000
-0.000000
-0.000000
0.214844
-0.000000
-0.000000
0.299316
0.033813
-0.000000
0.333740
-0.000000
-0.000000
-0.000000
-0.000000
-0.000000
-0.000000
0.251709
-0.000000
0.715332
-0.000000
0.248413
0.331299
0.388916
-0.000000
0.770996
-0.000000
-0.000000
-0.000000
-0.000000
-0.000000
-0.000000
-0.000000
-0.000000
-0.000000
0.006683
-0.000000
-0.000000
0.285645
0.616699
1.443359
-0.000000
-0.000000
0.573730
-0.000000
0.008080
-0.000000
-0.000000
-0.000000
0.265137
0.004070
-0.000000
0.638184
0.241089
-0.000000
-0.000000
1.974609
-0.000000
0.076416
-0.000000
-0.000000
0.064941
-0.000000
-0.000000
-0.000000
-0.000000
0.333740
-0.000000
-0.000000
-0.000000
0.671875
-0.000000
-0.000000
-0.000000
0.021088
-0.000000
-0.000000
-0.000000
0.534668
-0.000000
-0.000000
-0.000000
0.016632
-0.000000
0.038727
0.176270
-0.000000
0.178223
-0.000000
-0.000000
1.041016
-0.000000
-0.000000
0.797852
-0.000000
0.373779
0.812988
0.171631
1.833984
0.920898
0.095947
-0.000000
0.545898
-0.000000
1.096680
-0.000000
-0.000000
-0.000000
-0.000000
1.385742
-0.000000
-0.000000
-0.000000
-0.000000
-0.000000
-0.000000
-0.000000
0.307373
0.048248
0.457275
0.088989
-0.000000
-0.000000
-0.000000
-0.000000
-0.000000
-0.000000
-0.000000
-0.000000
0.127197
-0.000000
-0.000000
-0.000000
0.572754
-0.000000
-0.000000
-0.000000
-0.000000
-0.000000
-0.000000
-0.000000
-0.000000
0.461426
-0.000000
0.834473
-0.000000
-0.000000
1.820312
-0.000000
-0.000000
-0.000000
-0.000000
-0.000000
0.075317
0.421143
0.223145
0.016754
0.699219
-0.000000
-0.000000
-0.000000
-0.000000
-0.000000
-0.000000
0.731934
-0.000000
-0.000000
-0.000000
-0.000000
-0.000000
2.134766
0.034912
0.001282
-0.000000
-0.000000
0.923340
-0.000000
-0.000000
-0.000000
1.227539
-0.000000
0.416016
-0.000000
0.031525
-0.000000
-0.000000
0.686523
-0.000000
-0.000000
0.292969
-0.000000
0.456299
-0.000000
-0.000000
-0.000000
-0.000000
-0.000000
-0.000000
0.280762
-0.000000
-0.000000
0.155518
0.152954
0.406982
-0.000000
1.276367
-0.000000
-0.000000
-0.000000
-0.000000
-0.000000
-0.000000
-0.000000
-0.000000
-0.000000
-0.000000
0.228638
-0.000000
-0.000000
-0.000000
-0.000000
0.231079
-0.000000
2.472656
0.685547
1.546875
-0.000000
0.488525
-0.000000
0.993164
-0.000000
-0.000000
-0.000000
-0.000000
0.085571
-0.000000
1.053711
-0.000000
1.738281
-0.000000
0.037445
-0.000000
-0.000000
-0.000000
-0.000000
-0.000000
-0.000000
0.197510
0.276367
-0.000000
0.861328
-0.000000
0.309326
-0.000000
-0.000000
1.211914
-0.000000
0.198486
0.867676
-0.000000
0.199463
0.327393
-0.000000
1.284180
-0.000000
-0.000000
-0.000000
-0.000000
0.009789
0.687988
1.361328
-0.000000
-0.000000
-0.000000
0.383057
-0.000000
-0.000000
-0.000000
-0.000000
-0.000000
-0.000000
0.032562
-0.000000
-0.000000
0.179688
0.045837
0.557617
-0.000000
0.317871
-0.000000
-0.000000
0.597656
-0.000000
-0.000000
-0.000000
-0.000000
-0.000000
0.981445
-0.000000
0.015991
0.256104
0.246094
-0.000000
-0.000000
-0.000000
0.009918
0.033295
-0.000000
0.051758
0.500488
-0.000000
-0.000000
-0.000000
-0.000000
-0.000000
-0.000000
-0.000000
-0.000000
-0.000000
-0.000000
-0.000000
-0.000000
-0.000000
0.433838
-0.000000
-0.000000
-0.000000
-0.000000
-0.000000
-0.000000
-0.000000
-0.000000
-0.000000
-0.000000
-0.000000
-0.000000
0.186279
-0.000000
0.073242
-0.000000
-0.000000
-0.000000
-0.000000
-0.000000
1.513672
0.931641
-0.000000
-0.000000
-0.000000
0.061615
-0.000000
-0.000000
0.382812
-0.000000
0.080505
-0.000000
0.945801
0.094238
-0.000000
-0.000000
1.985352
0.104492
-0.000000
-0.000000
0.445312
1.120117
-0.000000
-0.000000
0.225098
-0.000000
1.910156
0.004822
-0.000000
-0.000000
-0.000000
-0.000000
-0.000000
-0.000000
-0.000000
-0.000000
-0.000000
1.480469
-0.000000
-0.000000
-0.000000
-0.000000
-0.000000
-0.000000
-0.000000
0.156494
0.515137
-0.000000
-0.000000
-0.000000
-0.000000
0.062134
-0.000000
-0.000000
-0.000000
-0.000000
-0.000000
0.069275
-0.000000
2.283203
1.027344
0.036865
1.495117
0.072754
0.936523
0.848145
-0.000000
-0.000000
-0.000000
-0.000000
-0.000000
-0.000000
-0.000000
-0.000000
-0.000000
-0.000000
0.643555
-0.000000
-0.000000
-0.000000
-0.000000
0.113953
-0.000000
1.747070
-0.000000
-0.000000
-0.000000
-0.000000
-0.000000
-0.000000
-0.000000
0.035217
-0.000000
-0.000000
0.051361
-0.000000
-0.000000
-0.000000
0.127197
-0.000000
-0.000000
0.418213
-0.000000
-0.000000
-0.000000
-0.000000
1.843750
-0.000000
-0.000000
0.187988
0.044159
1.291016
0.226807
0.046539
-0.000000
-0.000000
-0.000000
-0.000000
0.120483
-0.000000
-0.000000
0.031738
-0.000000
1.367188
-0.000000
-0.000000
-0.000000
-0.000000
2.109375
-0.000000
0.050995
0.851074
-0.000000
0.237427
1.408203
-0.000000
-0.000000
-0.000000
-0.000000
-0.000000
-0.000000
-0.000000
-0.000000
0.034271
-0.000000
-0.000000
0.912598
0.340576
0.968750
-0.000000
-0.000000
-0.000000
0.959961
