-0.000000
0.393555
-0.000000
-0.000000
0.156494
-0.000000
0.158936
0.206055
-0.000000
-0.000000
-0.000000
0.005798
-0.000000
-0.000000
-0.000000
-0.000000
-0.000000
-0.000000
-0.000000
-0.000000
0.972656
-0.000000
-0.000000
0.219604
0.000191
0.103027
-0.000000
-0.000000
0.057129
0.720215
-0.000000
-0.000000
-0.000000
-0.000000
-0.000000
-0.000000
-0.000000
0.769043
-0.000000
0.019135
-0.000000
-0.000000
0.154053
-0.000000
-0.000000
-0.000000
0.474121
-0.000000
0.148804
-0.000000
-0.000000
0.174927
-0.000000
-0.000000
-0.000000
-0.000000
-0.000000
0.210693
-0.000000
0.193848
0.394043
-0.000000
0.166626
-0.000000
-0.000000
0.033325
-0.000000
-0.000000
-0.000000
-0.000000
-0.000000
-0.000000
0.032623
0.260254
-0.000000
-0.000000
0.633789
0.001007
-0.000000
0.760254
-0.000000
-0.000000
0.815430
-0.000000
0.269043
0.158936
-0.000000
0.203125
0.632812
-0.000000
0.173828
0.130005
0.365967
-0.000000
-0.000000
-0.000000
0.183838
-0.000000
-0.000000
-0.000000
0.174927
-0.000000
0.082947
0.924805
-0.000000
-0.000000
-0.000000
-0.000000
-0.000000
0.076172
-0.000000
0.751953
-0.000000
-0.000000
0.258057
0.109192
-0.000000
-0.000000
-0.000000
-0.000000
0.876465
0.035889
-0.000000
-0.000000
-0.000000
-0.000000
-0.000000
-0.000000
0.071411
-0.000000
0.031219
-0.000000
-0.000000
-0.000000
-0.000000
-0.000000
1.175781
-0.000000
-0.000000
-0.000000
-0.000000
-0.000000
-0.000000
-0.000000
-0.000000
-0.000000
-0.000000
-0.000000
-0.000000
-0.000000
-0.000000
-0.000000
-0.000000
-0.000000
-0.000000
0.331543
0.179565
-0.000000
-0.000000
-0.000000
-0.000000
-0.000000
-0.000000
-0.000000
-0.000000
-0.000000
-0.000000
-0.000000
0.514160
-0.000000
0.088135
0.042694
-0.000000
-0.000000
0.026154
-0.000000
-0.000000
-0.000000
-0.000000
-0.000000
0.129272
-0.000000
-0.000000
-0.000000
-0.000000
-0.000000
-0.000000
-0.000000
-0.000000
-0.000000
-0.000000
-0.000000
0.076599
-0.000000
-0.000000
-0.000000
-0.000000
-0.000000
-0.000000
0.526367
0.090088
0.166992
-0.000000
-0.000000
-0.000000
-0.000000
-0.000000
-0.000000
-0.000000
-0.000000
-0.000000
0.158569
-0.000000
0.102478
-0.000000
0.965820
1.052734
-0.000000
0.026108
-0.000000
-0.000000
-0.000000
-0.000000
-0.000000
0.320557
-0.000000
-0.000000
-0.000000
-0.000000
-0.000000
-0.000000
-0.000000
0.895508
-0.000000
-0.000000
-0.000000
-0.000000
-0.000000
1.436523
-0.000000
0.497803
0.018829
-0.000000
-0.000000
-0.000000
0.554199
-0.000000
-0.000000
-0.000000
-0.000000
0.136719
-0.000000
-0.000000
-0.000000
-0.000000
0.678223
0.169922
-0.000000
-0.000000
-0.000000
0.345459
0.625488
-0.000000
1.018555
0.075562
-0.000000
-0.000000
-0.000000
-0.000000
-0.000000
1.691406
-0.000000
-0.000000
-0.000000
-0.000000
2.507812
-0.000000
-0.000000
-0.000000
3.105469
-0.000000
0.156738
0.687988
-0.000000
-0.000000
0.913086
-0.000000
0.514160
-0.000000
-0.000000
-0.000000
0.336670
-0.000000
-0.000000
-0.000000
-0.000000
-0.000000
-0.000000
0.024841
1.188477
-0.000000
-0.000000
-0.000000
-0.000000
-0.000000
0.729004
-0.000000
0.440918
0.016388
0.149658
-0.000000
0.067627
0.716797
-0.000000
-0.000000
0.172363
0.564941
1.078125
0.493652
1.830078
-0.000000
-0.000000
-0.000000
0.976074
-0.000000
-0.000000
-0.000000
-0.000000
-0.000000
0.791992
-0.000000
0.141235
-0.000000
0.833496
-0.000000
-0.000000
-0.000000
-0.000000
-0.000000
0.220459
-0.000000
-0.000000
0.062744
1.263672
2.523438
-0.000000
-0.000000
-0.000000
-0.000000
-0.000000
0.856934
0.021637
-0.000000
-0.000000
-0.000000
-0.000000
-0.000000
0.171753
-0.000000
-0.000000
-0.000000
-0.000000
0.318848
-0.000000
-0.000000
-0.000000
1.335938
-0.000000
-0.000000
-0.000000
-0.000000
-0.000000
-0.000000
-0.000000
-0.000000
-0.000000
-0.000000
-0.000000
-0.000000
1.089844
0.569824
-0.000000
0.740234
0.125732
-0.000000
-0.000000
0.185913
0.204468
-0.000000
-0.000000
0.800781
-0.000000
-0.000000
-0.000000
-0.000000
-0.000000
-0.000000
-0.000000
-0.000000
0.074768
-0.000000
-0.000000
-0.000000
-0.000000
-0.000000
-0.000000
0.470703
-0.000000
-0.000000
-0.000000
-0.000000
-0.000000
-0.000000
-0.000000
1.765625
-0.000000
-0.000000
-0.000000
-0.000000
-0.000000
-0.000000
-0.000000
-0.000000
0.206299
0.172852
0.503418
-0.000000
0.665039
0.103333
-0.000000
-0.000000
-0.000000
-0.000000
-0.000000
-0.000000
-0.000000
0.041351
-0.000000
-0.000000
0.127930
0.019226
-0.000000
0.653809
0.530273
-0.000000
-0.000000
-0.000000
-0.000000
2.181641
-0.000000
-0.000000
-0.000000
-0.000000
-0.000000
1.177734
0.057770
0.293945
1.254883
-0.000000
-0.000000
-0.000000
-0.000000
-0.000000
-0.000000
-0.000000
0.105652
-0.000000
-0.000000
-0.000000
-0.000000
-0.000000
0.674805
-0.000000
-0.000000
-0.000000
-0.000000
-0.000000
0.302734
1.828125
-0.000000
-0.000000
-0.000000
0.180786
-0.000000
-0.000000
-0.000000
-0.000000
-0.000000
-0.000000
-0.000000
-0.000000
-0.000000
0.741699
-0.000000
-0.000000
1.980469
-0.000000
-0.000000
-0.000000
-0.000000
