-0.000000
-0.000000
-0.000000
-0.000000
-0.000000
-0.000000
-0.000000
-0.000000
-0.000000
-0.000000
-0.000000
-0.000000
-0.000000
0.164917
-0.000000
-0.000000
-0.000000
-0.000000
-0.000000
-0.000000
0.761230
-0.000000
0.915039
0.370117
-0.000000
0.743652
0.208008
-0.000000
-0.000000
-0.000000
-0.000000
-0.000000
0.907227
-0.000000
-0.000000
-0.000000
-0.000000
0.818359
-0.000000
-0.000000
-0.000000
4.062500
0.834473
0.186035
-0.000000
0.461670
-0.000000
-0.000000
-0.000000
-0.000000
-0.000000
0.393066
0.053467
0.097351
-0.000000
-0.000000
0.395508
-0.000000
-0.000000
-0.000000
0.127686
0.158325
-0.000000
-0.000000
0.135010
0.262939
-0.000000
-0.000000
-0.000000
-0.000000
-0.000000
-0.000000
0.052582
1.130859
-0.000000
1.115234
-0.000000
-0.000000
-0.000000
-0.000000
-0.000000
-0.000000
-0.000000
0.057129
0.061584
-0.000000
-0.000000
0.247925
0.000763
-0.000000
-0.000000
0.214355
-0.000000
0.514648
0.077637
-0.000000
0.198975
-0.000000
-0.000000
-0.000000
-0.000000
0.729980
1.653320
0.388672
-0.000000
-0.000000
0.091858
-0.000000
-0.000000
1.291016
-0.000000
0.485840
0.044922
-0.000000
-0.000000
-0.000000
-0.000000
-0.000000
-0.000000
0.155640
-0.000000
0.018341
-0.000000
-0.000000
-0.000000
0.052277
-0.000000
-0.000000
-0.000000
0.441895
0.358643
-0.000000
-0.000000
-0.000000
-0.000000
-0.000000
-0.000000
-0.000000
1.529297
-0.000000
-0.000000
-0.000000
-0.000000
-0.000000
-0.000000
-0.000000
-0.000000
1.280273
-0.000000
0.338135
0.358398
-0.000000
-0.000000
-0.000000
-0.000000
0.037506
-0.000000
0.040161
-0.000000
-0.000000
-0.000000
-0.000000
-0.000000
1.263672
-0.000000
-0.000000
-0.000000
-0.000000
-0.000000
-0.000000
0.094971
0.391846
-0.000000
-0.000000
-0.000000
-0.000000
-0.000000
-0.000000
0.898926
-0.000000
-0.000000
-0.000000
-0.000000
-0.000000
-0.000000
-0.000000
-0.000000
-0.000000
-0.000000
0.156738
-0.000000
0.113159
0.153809
-0.000000
-0.000000
0.022705
0.006256
-0.000000
-0.000000
-0.000000
-0.000000
0.234619
-0.000000
-0.000000
-0.000000
0.659180
-0.000000
0.810547
-0.000000
-0.000000
-0.000000
-0.000000
-0.000000
-0.000000
-0.000000
-0.000000
0.399170
-0.000000
0.028183
1.413086
-0.000000
-0.000000
-0.000000
-0.000000
0.459229
-0.000000
-0.000000
-0.000000
-0.000000
-0.000000
1.258789
-0.000000
0.757324
-0.000000
-0.000000
-0.000000
-0.000000
0.132812
-0.000000
0.193481
-0.000000
0.669434
-0.000000
0.402832
-0.000000
-0.000000
-0.000000
-0.000000
-0.000000
1.529297
-0.000000
-0.000000
0.026917
0.110901
-0.000000
0.355957
1.438477
-0.000000
0.077637
-0.000000
0.493896
-0.000000
-0.000000
-0.000000
-0.000000
0.069275
-0.000000
-0.000000
-0.000000
-0.000000
0.789551
-0.000000
0.061890
-0.000000
-0.000000
0.700195
-0.000000
-0.000000
-0.000000
-0.000000
-0.000000
-0.000000
-0.000000
-0.000000
-0.000000
0.326660
0.640625
1.454102
-0.000000
-0.000000
1.007812
-0.000000
-0.000000
-0.000000
0.136475
-0.000000
0.387451
-0.000000
-0.000000
0.611816
-0.000000
-0.000000
-0.000000
-0.000000
0.056763
-0.000000
-0.000000
-0.000000
0.039032
0.673828
-0.000000
-0.000000
0.416504
-0.000000
-0.000000
1.169922
0.725586
0.467285
-0.000000
0.940918
-0.000000
-0.000000
-0.000000
-0.000000
-0.000000
-0.000000
-0.000000
-0.000000
0.085327
1.317383
-0.000000
0.206055
-0.000000
-0.000000
-0.000000
-0.000000
-0.000000
0.002090
0.059937
-0.000000
-0.000000
-0.000000
0.371338
-0.000000
1.581055
0.031143
-0.000000
0.944824
0.816895
-0.000000
0.161621
0.023285
-0.000000
-0.000000
-0.000000
-0.000000
1.499023
-0.000000
-0.000000
0.370361
-0.000000
1.285156
0.061035
0.333496
-0.000000
-0.000000
0.299561
-0.000000
0.604492
-0.000000
-0.000000
0.992188
-0.000000
-0.000000
-0.000000
-0.000000
-0.000000
-0.000000
-0.000000
1.242188
-0.000000
-0.000000
-0.000000
-0.000000
0.328613
-0.000000
-0.000000
-0.000000
0.499268
0.491211
-0.000000
-0.000000
-0.000000
0.162842
0.607910
-0.000000
-0.000000
-0.000000
0.006531
-0.000000
-0.000000
0.214722
-0.000000
-0.000000
-0.000000
-0.000000
0.943848
-0.000000
-0.000000
2.050781
-0.000000
0.245117
-0.000000
-0.000000
-0.000000
-0.000000
-0.000000
-0.000000
-0.000000
-0.000000
-0.000000
-0.000000
-0.000000
-0.000000
-0.000000
0.078979
-0.000000
-0.000000
-0.000000
1.076172
1.360352
-0.000000
-0.000000
1.161133
-0.000000
-0.000000
-0.000000
-0.000000
-0.000000
-0.000000
0.440186
-0.000000
-0.000000
0.089722
-0.000000
0.065308
-0.000000
-0.000000
-0.000000
-0.000000
-0.000000
-0.000000
-0.000000
0.754883
1.166016
-0.000000
1.321289
0.836914
0.773926
-0.000000
-0.000000
-0.000000
-0.000000
-0.000000
-0.000000
0.052612
-0.000000
-0.000000
-0.000000
-0.000000
-0.000000
0.627441
-0.000000
-0.000000
-0.000000
-0.000000
0.010742
0.132568
-0.000000
-0.000000
0.579102
-0.000000
-0.000000
-0.000000
0.671875
-0.000000
-0.000000
-0.000000
-0.000000
-0.000000
0.061615
-0.000000
-0.000000
1.593750
-0.000000
-0.000000
-0.000000
-0.000000
-0.000000
1.055664
