-0.000000
0.249634
-0.000000
0.413086
-0.000000
0.580566
-0.000000
-0.000000
-0.000000
-0.000000
-0.000000
-0.000000
-0.000000
0.266846
-0.000000
-0.000000
0.119690
-0.000000
0.437012
-0.000000
-0.000000
-0.000000
-0.000000
-0.000000
0.158569
-0.000000
0.606445
-0.000000
1.096680
-0.000000
-0.000000
-0.000000
-0.000000
0.407227
0.012886
-0.000000
-0.000000
-0.000000
0.000519
-0.000000
0.465576
-0.000000
-0.000000
1.220703
-0.000000
-0.000000
-0.000000
-0.000000
-0.000000
-0.000000
-0.000000
0.902344
-0.000000
0.133911
-0.000000
0.756836
-0.000000
-0.000000
-0.000000
0.419434
-0.000000
0.498291
0.846191
-0.000000
-0.000000
-0.000000
-0.000000
-0.000000
-0.000000
-0.000000
-0.000000
-0.000000
0.131958
-0.000000
-0.000000
0.520996
0.489258
-0.000000
-0.000000
-0.000000
-0.000000
1.147461
-0.000000
-0.000000
-0.000000
-0.000000
-0.000000
0.191162
0.140625
-0.000000
2.187500
0.002014
-0.000000
0.061584
-0.000000
-0.000000
0.222778
-0.000000
0.286621
0.032593
0.752441
-0.000000
-0.000000
-0.000000
2.347656
0.622070
-0.000000
0.096863
0.005219
0.604004
-0.000000
-0.000000
0.722168
-0.000000
-0.000000
-0.000000
1.387695
-0.000000
-0.000000
1.133789
-0.000000
-0.000000
-0.000000
-0.000000
-0.000000
0.094421
1.037109
-0.000000
-0.000000
0.029419
-0.000000
-0.000000
-0.000000
-0.000000
-0.000000
-0.000000
-0.000000
-0.000000
0.020508
-0.000000
0.189209
-0.000000
-0.000000
-0.000000
-0.000000
-0.000000
-0.000000
1.145508
-0.000000
0.303955
0.676270
0.677734
-0.000000
-0.000000
-0.000000
-0.000000
0.011612
-0.000000
2.279297
-0.000000
1.968750
-0.000000
-0.000000
0.979492
-0.000000
-0.000000
0.201660
-0.000000
0.462646
-0.000000
-0.000000
0.552246
-0.000000
1.269531
-0.000000
-0.000000
-0.000000
-0.000000
-0.000000
-0.000000
-0.000000
-0.000000
-0.000000
-0.000000
0.259033
-0.000000
0.117676
0.166626
-0.000000
0.753906
-0.000000
-0.000000
-0.000000
-0.000000
0.542480
-0.000000
-0.000000
-0.000000
-0.000000
-0.000000
-0.000000
0.068298
-0.000000
-0.000000
0.076050
-0.000000
-0.000000
0.735840
0.253418
-0.000000
-0.000000
-0.000000
-0.000000
-0.000000
-0.000000
1.087891
-0.000000
0.441406
-0.000000
0.604492
-0.000000
-0.000000
-0.000000
-0.000000
-0.000000
-0.000000
-0.000000
0.244141
0.540527
-0.000000
0.721191
-0.000000
1.499023
0.245361
-0.000000
-0.000000
-0.000000
-0.000000
-0.000000
1.534180
-0.000000
0.612793
1.041016
-0.000000
-0.000000
-0.000000
-0.000000
0.681641
-0.000000
-0.000000
-0.000000
0.704590
0.034485
-0.000000
0.021988
0.510742
-0.000000
-0.000000
0.439209
-0.000000
-0.000000
-0.000000
-0.000000
0.964844
-0.000000
-0.000000
-0.000000
-0.000000
-0.000000
-0.000000
0.483887
-0.000000
-0.000000
0.577637
-0.000000
1.082031
-0.000000
-0.000000
0.027618
-0.000000
-0.000000
-0.000000
-0.000000
-0.000000
1.971680
2.382812
-0.000000
0.680664
-0.000000
0.430908
-0.000000
-0.000000
-0.000000
-0.000000
1.482422
-0.000000
0.142700
0.107605
0.097656
-0.000000
-0.000000
-0.000000
-0.000000
-0.000000
-0.000000
-0.000000
-0.000000
-0.000000
0.683105
-0.000000
-0.000000
0.039612
0.638672
-0.000000
-0.000000
0.167725
0.123474
-0.000000
-0.000000
-0.000000
-0.000000
-0.000000
-0.000000
-0.000000
-0.000000
-0.000000
0.364990
-0.000000
-0.000000
-0.000000
-0.000000
-0.000000
-0.000000
-0.000000
-0.000000
-0.000000
-0.000000
-0.000000
0.075378
-0.000000
-0.000000
0.002838
-0.000000
-0.000000
0.329102
-0.000000
-0.000000
0.934082
-0.000000
-0.000000
-0.000000
-0.000000
-0.000000
-0.000000
-0.000000
0.361328
-0.000000
0.785645
-0.000000
0.202759
0.064148
-0.000000
-0.000000
-0.000000
-0.000000
-0.000000
0.672363
0.250977
-0.000000
-0.000000
0.410400
1.922852
-0.000000
1.877930
1.317383
-0.000000
-0.000000
-0.000000
-0.000000
0.938965
1.027344
-0.000000
-0.000000
-0.000000
2.080078
-0.000000
-0.000000
-0.000000
-0.000000
-0.000000
0.529297
-0.000000
0.137695
0.226318
-0.000000
0.043091
-0.000000
-0.000000
0.021118
-0.000000
-0.000000
-0.000000
-0.000000
-0.000000
0.016815
-0.000000
0.178223
0.475342
0.023987
0.617676
-0.000000
-0.000000
0.770020
-0.000000
-0.000000
-0.000000
0.460938
-0.000000
-0.000000
-0.000000
-0.000000
-0.000000
-0.000000
-0.000000
-0.000000
-0.000000
-0.000000
-0.000000
-0.000000
-0.000000
0.024414
-0.000000
-0.000000
-0.000000
-0.000000
-0.000000
-0.000000
-0.000000
-0.000000
-0.000000
-0.000000
-0.000000
-0.000000
-0.000000
-0.000000
0.000896
-0.000000
-0.000000
0.946289
-0.000000
-0.000000
-0.000000
-0.000000
-0.000000
-0.000000
-0.000000
-0.000000
-0.000000
0.322754
2.087891
-0.000000
0.704102
-0.000000
-0.000000
0.615234
-0.000000
-0.000000
-0.000000
-0.000000
-0.000000
0.727051
-0.000000
-0.000000
-0.000000
-0.000000
-0.000000
-0.000000
-0.000000
0.385010
-0.000000
0.205688
-0.000000
-0.000000
-0.000000
-0.000000
-0.000000
-0.000000
-0.000000
-0.000000
-0.000000
-0.000000
0.149414
0.076538
-0.000000
-0.000000
-0.000000
-0.000000
-0.000000
-0.000000
0.198730
