-0.000000
0.488770
-0.000000
0.434814
-0.000000
1.781250
-0.000000
1.206055
-0.000000
-0.000000
0.322266
-0.000000
-0.000000
0.436035
-0.000000
-0.000000
-0.000000
-0.000000
-0.000000
-0.000000
0.982910
-0.000000
0.301025
0.294922
0.101685
0.322510
-0.000000
-0.000000
1.159180
1.563477
-0.000000
-0.000000
-0.000000
-0.000000
-0.000000
-0.000000
-0.000000
0.220459
-0.000000
-0.000000
0.809570
1.641602
-0.000000
-0.000000
-0.000000
0.023682
-0.000000
-0.000000
0.070312
-0.000000
-0.000000
-0.000000
-0.000000
0.519531
-0.000000
-0.000000
-0.000000
0.010620
-0.000000
1.210938
-0.000000
0.145996
-0.000000
0.012085
-0.000000
-0.000000
-0.000000
-0.000000
-0.000000
-0.000000
-0.000000
-0.000000
0.186768
-0.000000
-0.000000
-0.000000
0.142578
0.009430
-0.000000
-0.000000
-0.000000
-0.000000
0.512207
-0.000000
-0.000000
0.142578
-0.000000
0.002478
-0.000000
-0.000000
0.527832
0.267578
0.806641
-0.000000
-0.000000
-0.000000
0.372803
-0.000000
0.120789
1.791016
0.244873
-0.000000
-0.000000
0.019485
-0.000000
1.289062
0.078735
-0.000000
-0.000000
-0.000000
-0.000000
1.087891
2.000000
0.067688
0.084290
-0.000000
-0.000000
-0.000000
-0.000000
0.287842
1.156250
-0.000000
-0.000000
0.036346
-0.000000
-0.000000
0.257568
-0.000000
-0.000000
-0.000000
-0.000000
-0.000000
0.368896
-0.000000
-0.000000
0.803711
0.815430
-0.000000
-0.000000
-0.000000
-0.000000
-0.000000
-0.000000
-0.000000
-0.000000
-0.000000
1.050781
-0.000000
-0.000000
-0.000000
-0.000000
-0.000000
-0.000000
-0.000000
-0.000000
-0.000000
0.259521
0.357910
0.746582
-0.000000
0.531250
-0.000000
-0.000000
-0.000000
0.435303
-0.000000
-0.000000
0.284912
-0.000000
-0.000000
-0.000000
-0.000000
-0.000000
-0.000000
-0.000000
-0.000000
-0.000000
-0.000000
0.072510
-0.000000
-0.000000
-0.000000
0.727539
-0.000000
0.109680
-0.000000
0.096985
-0.000000
-0.000000
-0.000000
-0.000000
0.355713
0.167847
-0.000000
-0.000000
-0.000000
-0.000000
-0.000000
-0.000000
-0.000000
0.177490
0.536621
-0.000000
-0.000000
-0.000000
-0.000000
0.788574
-0.000000
0.576660
-0.000000
0.604492
0.299072
-0.000000
-0.000000
-0.000000
0.181885
0.095459
-0.000000
1.861328
-0.000000
-0.000000
-0.000000
-0.000000
-0.000000
-0.000000
-0.000000
-0.000000
-0.000000
-0.000000
-0.000000
-0.000000
-0.000000
2.111328
0.359375
-0.000000
1.988281
-0.000000
-0.000000
0.951660
0.125244
-0.000000
-0.000000
-0.000000
-0.000000
-0.000000
-0.000000
-0.000000
0.499023
-0.000000
-0.000000
0.043945
0.172607
-0.000000
0.625488
-0.000000
-0.000000
-0.000000
-0.000000
-0.000000
-0.000000
1.662109
1.509766
-0.000000
0.299316
-0.000000
-0.000000
-0.000000
-0.000000
-0.000000
-0.000000
-0.000000
0.070862
-0.000000
-0.000000
-0.000000
0.388428
-0.000000
0.304932
-0.000000
-0.000000
-0.000000
-0.000000
0.286621
-0.000000
-0.000000
0.313721
-0.000000
-0.000000
-0.000000
-0.000000
-0.000000
-0.000000
-0.000000
-0.000000
-0.000000
-0.000000
-0.000000
0.021912
-0.000000
-0.000000
-0.000000
-0.000000
-0.000000
0.769531
-0.000000
-0.000000
-0.000000
-0.000000
-0.000000
0.513672
-0.000000
0.027405
-0.000000
-0.000000
0.275879
-0.000000
0.636719
-0.000000
0.056030
-0.000000
-0.000000
-0.000000
-0.000000
-0.000000
-0.000000
-0.000000
-0.000000
-0.000000
0.471924
1.433594
-0.000000
-0.000000
-0.000000
-0.000000
-0.000000
-0.000000
-0.000000
0.478027
0.271729
-0.000000
-0.000000
-0.000000
-0.000000
0.633301
0.159912
-0.000000
-0.000000
0.668457
-0.000000
-0.000000
0.822266
-0.000000
-0.000000
-0.000000
-0.000000
1.515625
-0.000000
0.604980
-0.000000
0.283936
-0.000000
-0.000000
-0.000000
1.011719
-0.000000
-0.000000
-0.000000
0.068787
2.630859
0.408936
-0.000000
-0.000000
2.255859
0.057526
-0.000000
-0.000000
-0.000000
-0.000000
-0.000000
0.007690
-0.000000
-0.000000
-0.000000
-0.000000
-0.000000
-0.000000
-0.000000
-0.000000
-0.000000
-0.000000
-0.000000
-0.000000
-0.000000
-0.000000
-0.000000
-0.000000
-0.000000
-0.000000
-0.000000
-0.000000
-0.000000
0.246704
-0.000000
-0.000000
-0.000000
-0.000000
0.165527
0.961914
-0.000000
1.219727
0.340332
-0.000000
2.367188
-0.000000
0.278809
-0.000000
1.409180
-0.000000
-0.000000
0.557129
-0.000000
1.488281
-0.000000
0.353271
-0.000000
-0.000000
-0.000000
0.925781
0.646973
-0.000000
-0.000000
-0.000000
-0.000000
-0.000000
-0.000000
-0.000000
-0.000000
-0.000000
0.034332
-0.000000
-0.000000
0.012024
-0.000000
0.042999
-0.000000
0.015717
0.078918
-0.000000
-0.000000
-0.000000
-0.000000
-0.000000
-0.000000
0.969727
-0.000000
-0.000000
-0.000000
-0.000000
2.457031
-0.000000
-0.000000
0.700684
-0.000000
-0.000000
-0.000000
0.104431
-0.000000
-0.000000
-0.000000
0.067017
0.495850
0.120789
-0.000000
-0.000000
-0.000000
-0.000000
-0.000000
-0.000000
-0.000000
-0.000000
-0.000000
-0.000000
0.395752
-0.000000
-0.000000
-0.000000
-0.000000
-0.000000
-0.000000
-0.000000
-0.000000
0.293701
-0.000000
-0.000000
-0.000000
0.671387
-0.000000
-0.000000
-0.000000
0.169434
