-0.000000
0.677734
-0.000000
0.367920
-0.000000
-0.000000
-0.000000
0.583984
-0.000000
0.028809
-0.000000
-0.000000
-0.000000
1.017578
0.020798
-0.000000
0.066772
-0.000000
0.344971
-0.000000
-0.000000
-0.000000
-0.000000
-0.000000
-0.000000
-0.000000
0.607422
-0.000000
0.413818
-0.000000
-0.000000
-0.000000
-0.000000
1.391602
0.010216
-0.000000
0.018555
-0.000000
-0.000000
-0.000000
0.720703
-0.000000
-0.000000
-0.000000
-0.000000
-0.000000
-0.000000
-0.000000
-0.000000
-0.000000
-0.000000
0.990234
-0.000000
-0.000000
-0.000000
-0.000000
-0.000000
-0.000000
-0.000000
-0.000000
-0.000000
-0.000000
0.962891
-0.000000
-0.000000
-0.000000
-0.000000
-0.000000
-0.000000
0.007996
-0.000000
-0.000000
-0.000000
-0.000000
-0.000000
0.078491
0.927246
-0.000000
0.007019
-0.000000
-0.000000
1.078125
-0.000000
-0.000000
0.634277
-0.000000
-0.000000
0.364990
0.477783
-0.000000
1.400391
-0.000000
-0.000000
-0.000000
1.130859
0.177979
-0.000000
-0.000000
-0.000000
-0.000000
-0.000000
-0.000000
0.332520
0.360840
1.750977
-0.000000
-0.000000
-0.000000
-0.000000
1.860352
0.009766
-0.000000
0.260498
-0.000000
0.070374
0.331543
0.259766
0.508301
-0.000000
0.282471
-0.000000
-0.000000
-0.000000
-0.000000
0.098389
0.078003
0.392822
-0.000000
-0.000000
-0.000000
1.959961
-0.000000
-0.000000
-0.000000
-0.000000
1.521484
-0.000000
-0.000000
0.172729
-0.000000
-0.000000
-0.000000
0.062500
-0.000000
-0.000000
0.837891
-0.000000
0.225342
0.372559
0.259521
-0.000000
1.115234
-0.000000
-0.000000
-0.000000
-0.000000
-0.000000
-0.000000
0.794434
-0.000000
0.423584
1.365234
-0.000000
0.142090
-0.000000
-0.000000
0.177612
-0.000000
1.758789
-0.000000
0.390137
1.261719
-0.000000
-0.000000
0.009094
-0.000000
-0.000000
0.431396
-0.000000
-0.000000
-0.000000
-0.000000
-0.000000
0.168335
-0.000000
-0.000000
0.011902
-0.000000
-0.000000
-0.000000
-0.000000
-0.000000
-0.000000
-0.000000
-0.000000
0.768555
-0.000000
-0.000000
-0.000000
0.354736
-0.000000
-0.000000
-0.000000
0.010986
-0.000000
-0.000000
-0.000000
0.241577
-0.000000
-0.000000
-0.000000
-0.000000
-0.000000
-0.000000
-0.000000
-0.000000
0.048431
0.642090
-0.000000
0.998047
-0.000000
-0.000000
-0.000000
-0.000000
-0.000000
-0.000000
-0.000000
0.790527
-0.000000
0.402832
0.220825
-0.000000
-0.000000
0.612305
-0.000000
-0.000000
-0.000000
-0.000000
-0.000000
0.031555
1.487305
0.797363
0.392090
-0.000000
0.356689
0.185913
-0.000000
-0.000000
-0.000000
-0.000000
-0.000000
-0.000000
0.007721
-0.000000
-0.000000
-0.000000
-0.000000
-0.000000
0.471436
-0.000000
-0.000000
-0.000000
0.416992
0.067383
-0.000000
0.013306
-0.000000
-0.000000
-0.000000
-0.000000
-0.000000
0.104370
0.466553
1.446289
-0.000000
1.695312
0.178955
-0.000000
-0.000000
0.688965
-0.000000
1.519531
-0.000000
-0.000000
1.626953
3.033203
-0.000000
0.552246
-0.000000
-0.000000
1.846680
0.508301
-0.000000
-0.000000
0.284912
-0.000000
1.217773
0.010864
-0.000000
-0.000000
-0.000000
-0.000000
-0.000000
-0.000000
-0.000000
0.064087
-0.000000
-0.000000
0.091309
-0.000000
0.022934
0.229858
2.404297
0.016052
-0.000000
1.402344
0.280518
0.557617
-0.000000
0.739746
-0.000000
-0.000000
-0.000000
-0.000000
-0.000000
-0.000000
-0.000000
-0.000000
-0.000000
-0.000000
-0.000000
-0.000000
-0.000000
-0.000000
-0.000000
-0.000000
-0.000000
-0.000000
0.235840
0.467285
-0.000000
0.263184
0.418457
-0.000000
0.792480
-0.000000
-0.000000
-0.000000
-0.000000
-0.000000
0.111023
-0.000000
0.010086
-0.000000
-0.000000
-0.000000
0.978516
-0.000000
-0.000000
-0.000000
-0.000000
-0.000000
1.922852
-0.000000
-0.000000
-0.000000
1.383789
-0.000000
-0.000000
-0.000000
0.078918
0.961914
-0.000000
0.102051
0.908203
-0.000000
-0.000000
0.413086
-0.000000
0.192017
0.130737
1.289062
0.338623
-0.000000
0.767090
-0.000000
-0.000000
0.664551
1.362305
-0.000000
0.048035
-0.000000
0.179688
-0.000000
-0.000000
0.647461
-0.000000
-0.000000
-0.000000
0.005783
-0.000000
-0.000000
-0.000000
-0.000000
0.011414
-0.000000
-0.000000
-0.000000
-0.000000
0.433105
-0.000000
-0.000000
-0.000000
-0.000000
0.219727
-0.000000
-0.000000
-0.000000
0.628418
-0.000000
-0.000000
-0.000000
-0.000000
-0.000000
-0.000000
-0.000000
0.000858
-0.000000
-0.000000
1.417969
-0.000000
-0.000000
-0.000000
0.259766
-0.000000
-0.000000
-0.000000
-0.000000
-0.000000
-0.000000
-0.000000
-0.000000
0.118896
-0.000000
-0.000000
-0.000000
-0.000000
-0.000000
0.167358
0.112305
-0.000000
-0.000000
-0.000000
-0.000000
0.037048
-0.000000
-0.000000
-0.000000
-0.000000
0.291016
-0.000000
-0.000000
-0.000000
-0.000000
0.715332
-0.000000
-0.000000
-0.000000
0.117676
-0.000000
-0.000000
0.251953
-0.000000
-0.000000
-0.000000
-0.000000
-0.000000
-0.000000
0.362061
0.044098
-0.000000
-0.000000
-0.000000
-0.000000
-0.000000
-0.000000
-0.000000
-0.000000
0.089172
0.089233
-0.000000
0.358154
1.346680
-0.000000
-0.000000
-0.000000
-0.000000
-0.000000
-0.000000
-0.000000
