-0.000000
1.113281
-0.000000
-0.000000
-0.000000
0.115234
0.346680
1.459961
-0.000000
-0.000000
0.472900
-0.000000
0.206421
-0.000000
-0.000000
-0.000000
-0.000000
-0.000000
-0.000000
-0.000000
1.188477
-0.000000
-0.000000
-0.000000
-0.000000
-0.000000
-0.000000
-0.000000
1.690430
1.525391
-0.000000
-0.000000
-0.000000
0.924316
-0.000000
-0.000000
-0.000000
-0.000000
-0.000000
-0.000000
1.910156
-0.000000
-0.000000
0.077087
-0.000000
-0.000000
0.997070
-0.000000
0.053711
-0.000000
-0.000000
-0.000000
-0.000000
0.255615
-0.000000
-0.000000
-0.000000
-0.000000
-0.000000
0.968750
-0.000000
0.147095
-0.000000
0.400146
-0.000000
0.214966
-0.000000
0.106079
-0.000000
-0.000000
-0.000000
-0.000000
-0.000000
-0.000000
-0.000000
-0.000000
0.717285
-0.000000
-0.000000
0.173828
-0.000000
-0.000000
0.741699
0.399658
-0.000000
0.053772
-0.000000
-0.000000
0.992676
-0.000000
-0.000000
-0.000000
0.371826
0.241821
-0.000000
0.073608
0.313477
-0.000000
0.134644
0.951172
0.065247
0.395020
-0.000000
0.792969
-0.000000
0.234497
0.226929
0.701660
-0.000000
-0.000000
-0.000000
-0.000000
1.424805
-0.000000
-0.000000
-0.000000
-0.000000
-0.000000
-0.000000
-0.000000
0.778320
0.099426
0.461182
0.033508
-0.000000
-0.000000
-0.000000
-0.000000
-0.000000
-0.000000
-0.000000
-0.000000
-0.000000
-0.000000
-0.000000
1.384766
0.652832
-0.000000
-0.000000
-0.000000
0.325684
-0.000000
-0.000000
-0.000000
-0.000000
-0.000000
2.146484
-0.000000
-0.000000
-0.000000
-0.000000
-0.000000
-0.000000
-0.000000
-0.000000
0.487549
0.352783
-0.000000
-0.000000
0.049988
-0.000000
-0.000000
-0.000000
-0.000000
1.113281
-0.000000
-0.000000
-0.000000
-0.000000
-0.000000
-0.000000
-0.000000
-0.000000
0.656250
-0.000000
-0.000000
-0.000000
-0.000000
0.095215
-0.000000
0.390625
-0.000000
2.087891
-0.000000
0.722168
-0.000000
0.508789
0.034790
-0.000000
-0.000000
0.689941
1.964844
-0.000000
-0.000000
-0.000000
0.055176
0.164673
-0.000000
-0.000000
-0.000000
0.306396
-0.000000
-0.000000
-0.000000
-0.000000
-0.000000
-0.000000
-0.000000
0.740234
-0.000000
0.275391
0.554199
0.125000
-0.000000
0.017273
-0.000000
0.533691
-0.000000
0.919922
-0.000000
-0.000000
-0.000000
-0.000000
-0.000000
0.735352
-0.000000
-0.000000
0.002472
0.615723
1.013672
-0.000000
-0.000000
0.769043
0.977539
-0.000000
1.165039
0.244873
-0.000000
1.798828
-0.000000
0.516113
-0.000000
0.063354
-0.000000
-0.000000
0.093018
-0.000000
-0.000000
-0.000000
-0.000000
0.016602
0.091248
-0.000000
-0.000000
-0.000000
1.029297
-0.000000
-0.000000
-0.000000
0.030762
0.103027
2.109375
0.114624
0.248291
-0.000000
-0.000000
0.707031
-0.000000
-0.000000
-0.000000
1.530273
-0.000000
0.030884
-0.000000
-0.000000
-0.000000
-0.000000
0.252441
-0.000000
-0.000000
-0.000000
-0.000000
1.526367
-0.000000
-0.000000
0.563965
-0.000000
-0.000000
-0.000000
0.096680
0.062195
0.043091
-0.000000
-0.000000
-0.000000
-0.000000
-0.000000
-0.000000
-0.000000
0.228760
0.619629
-0.000000
-0.000000
1.100586
0.289307
-0.000000
-0.000000
-0.000000
0.397705
0.001373
0.005379
0.317871
0.057587
-0.000000
0.714844
-0.000000
-0.000000
-0.000000
1.060547
-0.000000
-0.000000
-0.000000
-0.000000
1.672852
-0.000000
-0.000000
0.058960
-0.000000
0.213501
-0.000000
-0.000000
-0.000000
-0.000000
0.967285
-0.000000
-0.000000
-0.000000
-0.000000
-0.000000
-0.000000
-0.000000
-0.000000
-0.000000
0.202148
-0.000000
-0.000000
-0.000000
-0.000000
-0.000000
-0.000000
-0.000000
-0.000000
-0.000000
-0.000000
-0.000000
2.476562
-0.000000
1.228516
-0.000000
-0.000000
-0.000000
-0.000000
-0.000000
0.570312
0.012634
-0.000000
-0.000000
-0.000000
-0.000000
1.399414
-0.000000
-0.000000
0.256348
1.683594
-0.000000
-0.000000
-0.000000
-0.000000
-0.000000
0.034058
-0.000000
-0.000000
-0.000000
-0.000000
-0.000000
-0.000000
-0.000000
-0.000000
-0.000000
-0.000000
-0.000000
-0.000000
-0.000000
-0.000000
-0.000000
-0.000000
-0.000000
-0.000000
-0.000000
-0.000000
-0.000000
0.066040
-0.000000
-0.000000
-0.000000
-0.000000
1.042969
0.599121
-0.000000
-0.000000
0.136230
-0.000000
1.500000
-0.000000
-0.000000
-0.000000
-0.000000
-0.000000
-0.000000
0.424561
-0.000000
0.516113
-0.000000
-0.000000
-0.000000
0.273438
-0.000000
0.334229
2.064453
-0.000000
-0.000000
-0.000000
-0.000000
-0.000000
-0.000000
-0.000000
-0.000000
-0.000000
0.122925
-0.000000
0.432373
-0.000000
-0.000000
0.250488
0.045044
0.014198
0.385986
-0.000000
-0.000000
-0.000000
-0.000000
-0.000000
-0.000000
1.021484
-0.000000
0.105286
-0.000000
0.164185
0.307373
0.256592
0.000275
-0.000000
-0.000000
-0.000000
-0.000000
-0.000000
-0.000000
-0.000000
-0.000000
0.191040
0.980957
-0.000000
-0.000000
-0.000000
-0.000000
0.740234
-0.000000
-0.000000
2.191406
-0.000000
-0.000000
1.602539
0.268799
-0.000000
-0.000000
-0.000000
-0.000000
-0.000000
-0.000000
-0.000000
-0.000000
-0.000000
-0.000000
-0.000000
-0.000000
1.692383
-0.000000
-0.000000
-0.000000
-0.000000
