-0.000000
-0.000000
-0.000000
0.174194
-0.000000
0.288330
0.274658
-0.000000
-0.000000
0.021484
-0.000000
-0.000000
-0.000000
-0.000000
0.005962
-0.000000
-0.000000
-0.000000
0.037109
-0.000000
1.721680
-0.000000
0.085327
0.027832
-0.000000
-0.000000
-0.000000
-0.000000
0.987793
0.054138
-0.000000
-0.000000
-0.000000
-0.000000
-0.000000
-0.000000
0.304932
-0.000000
-0.000000
-0.000000
1.173828
-0.000000
-0.000000
-0.000000
-0.000000
0.112549
0.129150
-0.000000
-0.000000
-0.000000
-0.000000
1.148438
-0.000000
0.220703
-0.000000
0.636230
-0.000000
-0.000000
-0.000000
-0.000000
-0.000000
0.658691
0.614258
-0.000000
0.059235
-0.000000
-0.000000
-0.000000
-0.000000
-0.000000
-0.000000
-0.000000
-0.000000
1.551758
-0.000000
0.062378
-0.000000
-0.000000
-0.000000
0.395752
-0.000000
0.137207
-0.000000
-0.000000
-0.000000
-0.000000
-0.000000
-0.000000
-0.000000
-0.000000
-0.000000
-0.000000
-0.000000
-0.000000
0.374268
0.075256
0.120178
-0.000000
-0.000000
-0.000000
1.741211
0.676758
0.070740
-0.000000
1.163086
-0.000000
-0.000000
-0.000000
-0.000000
1.806641
-0.000000
-0.000000
0.761230
-0.000000
-0.000000
0.048645
-0.000000
-0.000000
-0.000000
-0.000000
0.164307
0.040863
-0.000000
0.010803
-0.000000
0.027023
0.595215
-0.000000
-0.000000
0.420410
0.892578
-0.000000
0.199951
-0.000000
-0.000000
-0.000000
-0.000000
0.154175
-0.000000
-0.000000
0.442627
-0.000000
-0.000000
0.810059
-0.000000
-0.000000
0.284180
1.003906
-0.000000
-0.000000
-0.000000
2.275391
-0.000000
-0.000000
-0.000000
-0.000000
-0.000000
-0.000000
-0.000000
-0.000000
0.645020
-0.000000
0.149414
-0.000000
-0.000000
-0.000000
0.128174
-0.000000
-0.000000
-0.000000
-0.000000
-0.000000
-0.000000
0.302490
-0.000000
-0.000000
-0.000000
0.503906
-0.000000
0.921387
-0.000000
-0.000000
-0.000000
-0.000000
0.392822
-0.000000
-0.000000
-0.000000
-0.000000
0.008301
-0.000000
0.101074
0.110352
-0.000000
0.088806
0.011719
-0.000000
-0.000000
-0.000000
-0.000000
-0.000000
-0.000000
-0.000000
0.296631
0.031311
0.473145
0.112610
0.771484
0.066711
-0.000000
-0.000000
0.374023
-0.000000
-0.000000
0.625000
0.239136
0.030548
-0.000000
0.056122
0.171753
-0.000000
0.409912
-0.000000
-0.000000
-0.000000
-0.000000
-0.000000
-0.000000
0.619141
-0.000000
0.528809
-0.000000
-0.000000
-0.000000
-0.000000
1.188477
0.557617
-0.000000
0.693848
-0.000000
-0.000000
-0.000000
0.021576
-0.000000
1.301758
0.134644
-0.000000
-0.000000
-0.000000
-0.000000
0.076782
-0.000000
-0.000000
-0.000000
0.031494
0.086182
0.152588
-0.000000
-0.000000
-0.000000
0.348633
-0.000000
0.197388
-0.000000
-0.000000
-0.000000
-0.000000
-0.000000
-0.000000
-0.000000
1.320312
-0.000000
0.294189
-0.000000
-0.000000
-0.000000
-0.000000
-0.000000
1.101562
-0.000000
-0.000000
1.796875
0.177979
-0.000000
0.458984
-0.000000
-0.000000
-0.000000
-0.000000
-0.000000
0.290039
0.154053
-0.000000
-0.000000
0.326172
-0.000000
0.602539
0.011536
-0.000000
-0.000000
-0.000000
-0.000000
-0.000000
1.073242
0.027222
0.019409
-0.000000
0.256592
0.142578
0.722168
-0.000000
-0.000000
-0.000000
-0.000000
0.055176
-0.000000
0.445557
-0.000000
-0.000000
-0.000000
-0.000000
0.204102
-0.000000
-0.000000
-0.000000
-0.000000
-0.000000
-0.000000
-0.000000
0.526855
-0.000000
-0.000000
-0.000000
-0.000000
-0.000000
-0.000000
-0.000000
-0.000000
-0.000000
-0.000000
-0.000000
-0.000000
-0.000000
-0.000000
-0.000000
-0.000000
-0.000000
0.237793
-0.000000
-0.000000
0.031799
-0.000000
-0.000000
-0.000000
-0.000000
-0.000000
0.987305
-0.000000
-0.000000
-0.000000
-0.000000
0.267822
1.201172
-0.000000
-0.000000
-0.000000
-0.000000
-0.000000
0.714844
0.356201
0.005066
-0.000000
-0.000000
-0.000000
-0.000000
-0.000000
-0.000000
0.876465
-0.000000
-0.000000
-0.000000
-0.000000
0.446289
0.439209
0.169556
-0.000000
-0.000000
-0.000000
0.666992
1.212891
-0.000000
-0.000000
-0.000000
0.786621
-0.000000
0.269287
-0.000000
-0.000000
-0.000000
-0.000000
-0.000000
0.030151
-0.000000
-0.000000
-0.000000
-0.000000
-0.000000
0.226074
0.379639
0.011932
-0.000000
-0.000000
-0.000000
-0.000000
0.191895
-0.000000
1.048828
-0.000000
-0.000000
0.254150
-0.000000
0.057648
-0.000000
-0.000000
0.122314
-0.000000
-0.000000
-0.000000
0.071960
0.934082
-0.000000
-0.000000
-0.000000
0.171143
-0.000000
-0.000000
-0.000000
-0.000000
-0.000000
0.481201
0.450928
-0.000000
-0.000000
0.088623
-0.000000
-0.000000
-0.000000
-0.000000
-0.000000
-0.000000
-0.000000
-0.000000
-0.000000
-0.000000
-0.000000
-0.000000
1.388672
0.682617
-0.000000
0.412354
-0.000000
-0.000000
-0.000000
-0.000000
-0.000000
-0.000000
-0.000000
-0.000000
-0.000000
-0.000000
0.053955
-0.000000
-0.000000
-0.000000
0.458008
-0.000000
0.036713
-0.000000
0.168701
-0.000000
0.007019
-0.000000
0.003784
-0.000000
-0.000000
-0.000000
-0.000000
-0.000000
0.218140
-0.000000
-0.000000
-0.000000
-0.000000
0.849121
-0.000000
0.139648
-0.000000
-0.000000
-0.000000
-0.000000
