-0.000000
0.236206
-0.000000
-0.000000
0.176636
-0.000000
-0.000000
0.473877
-0.000000
-0.000000
-0.000000
-0.000000
-0.000000
0.086914
-0.000000
-0.000000
-0.000000
-0.000000
-0.000000
-0.000000
0.031677
-0.000000
0.778320
-0.000000
0.170654
0.214233
-0.000000
-0.000000
-0.000000
0.207764
-0.000000
-0.000000
-0.000000
-0.000000
-0.000000
-0.000000
-0.000000
1.593750
-0.000000
-0.000000
0.329346
0.551758
-0.000000
-0.000000
-0.000000
0.124023
0.284424
-0.000000
0.087708
-0.000000
-0.000000
-0.000000
-0.000000
0.081482
-0.000000
-0.000000
0.269531
0.328125
-0.000000
-0.000000
0.187866
-0.000000
-0.000000
0.045532
-0.000000
-0.000000
-0.000000
-0.000000
-0.000000
1.660156
-0.000000
-0.000000
-0.000000
-0.000000
-0.000000
-0.000000
-0.000000
-0.000000
-0.000000
1.513672
-0.000000
-0.000000
0.389893
-0.000000
0.581055
0.508301
-0.000000
-0.000000
-0.000000
-0.000000
-0.000000
-0.000000
0.072632
-0.000000
0.032715
-0.000000
-0.000000
-0.000000
-0.000000
1.024414
-0.000000
-0.000000
-0.000000
-0.000000
-0.000000
0.006516
-0.000000
-0.000000
-0.000000
1.055664
0.386963
0.736328
0.082275
0.608398
-0.000000
0.098450
-0.000000
0.481445
-0.000000
-0.000000
0.510254
-0.000000
-0.000000
-0.000000
-0.000000
-0.000000
0.410400
-0.000000
0.200073
-0.000000
-0.000000
-0.000000
0.118896
-0.000000
-0.000000
0.335938
-0.000000
0.372803
-0.000000
-0.000000
-0.000000
-0.000000
-0.000000
-0.000000
-0.000000
-0.000000
0.145996
0.221680
-0.000000
-0.000000
-0.000000
1.313477
0.753418
-0.000000
-0.000000
-0.000000
0.582031
-0.000000
-0.000000
-0.000000
0.552246
-0.000000
-0.000000
-0.000000
-0.000000
-0.000000
-0.000000
0.548828
-0.000000
-0.000000
0.036560
-0.000000
-0.000000
-0.000000
-0.000000
-0.000000
0.076660
-0.000000
-0.000000
0.432373
0.135986
-0.000000
0.438232
-0.000000
-0.000000
-0.000000
-0.000000
-0.000000
-0.000000
-0.000000
-0.000000
-0.000000
0.051514
-0.000000
0.251953
0.675781
0.111877
-0.000000
-0.000000
0.920410
0.123291
-0.000000
-0.000000
0.168213
0.168457
-0.000000
0.187012
-0.000000
0.397461
-0.000000
0.000977
0.167603
-0.000000
-0.000000
0.003174
-0.000000
-0.000000
0.177979
1.406250
-0.000000
-0.000000
1.177734
-0.000000
-0.000000
0.141479
-0.000000
1.075195
-0.000000
-0.000000
-0.000000
-0.000000
-0.000000
0.985840
1.256836
-0.000000
0.080444
-0.000000
-0.000000
0.639648
-0.000000
-0.000000
-0.000000
-0.000000
0.343994
-0.000000
0.351074
-0.000000
-0.000000
-0.000000
-0.000000
-0.000000
-0.000000
-0.000000
0.230591
0.002640
-0.000000
-0.000000
-0.000000
-0.000000
-0.000000
0.122009
-0.000000
-0.000000
0.142944
-0.000000
0.071228
-0.000000
-0.000000
-0.000000
-0.000000
-0.000000
0.057556
-0.000000
-0.000000
-0.000000
-0.000000
-0.000000
-0.000000
-0.000000
0.789551
-0.000000
0.953613
0.137939
-0.000000
-0.000000
-0.000000
-0.000000
0.990234
-0.000000
-0.000000
-0.000000
-0.000000
-0.000000
-0.000000
-0.000000
-0.000000
-0.000000
0.160156
0.126343
0.690430
-0.000000
1.010742
0.039734
0.064453
-0.000000
-0.000000
-0.000000
0.184082
-0.000000
0.118958
-0.000000
-0.000000
-0.000000
-0.000000
-0.000000
-0.000000
-0.000000
1.130859
0.219849
1.452148
-0.000000
-0.000000
-0.000000
-0.000000
-0.000000
-0.000000
0.214966
-0.000000
0.713867
2.462891
-0.000000
-0.000000
-0.000000
0.896484
-0.000000
-0.000000
-0.000000
0.398682
0.609863
-0.000000
-0.000000
0.007690
0.773438
0.033386
2.667969
-0.000000
-0.000000
0.316895
-0.000000
-0.000000
1.287109
-0.000000
-0.000000
-0.000000
-0.000000
-0.000000
0.284180
0.504395
-0.000000
-0.000000
-0.000000
-0.000000
0.025635
-0.000000
-0.000000
-0.000000
0.328857
-0.000000
0.677734
0.554199
-0.000000
-0.000000
1.458984
-0.000000
-0.000000
-0.000000
-0.000000
-0.000000
-0.000000
-0.000000
-0.000000
-0.000000
-0.000000
-0.000000
-0.000000
-0.000000
1.089844
0.250488
-0.000000
-0.000000
-0.000000
-0.000000
-0.000000
0.014404
-0.000000
-0.000000
-0.000000
-0.000000
-0.000000
0.021637
0.326904
0.327393
-0.000000
-0.000000
-0.000000
0.312744
-0.000000
-0.000000
-0.000000
0.533203
-0.000000
-0.000000
-0.000000
-0.000000
-0.000000
-0.000000
0.700195
-0.000000
-0.000000
0.814941
-0.000000
0.801270
-0.000000
0.413574
0.145264
-0.000000
-0.000000
0.392090
0.293457
-0.000000
0.030365
-0.000000
-0.000000
-0.000000
-0.000000
-0.000000
0.777832
-0.000000
-0.000000
-0.000000
-0.000000
0.012726
-0.000000
-0.000000
-0.000000
0.019836
-0.000000
-0.000000
-0.000000
-0.000000
-0.000000
-0.000000
-0.000000
0.121582
0.491943
-0.000000
0.506348
-0.000000
0.448242
0.104065
-0.000000
0.211914
-0.000000
-0.000000
-0.000000
-0.000000
-0.000000
-0.000000
-0.000000
-0.000000
-0.000000
-0.000000
-0.000000
-0.000000
0.273926
-0.000000
-0.000000
-0.000000
0.191040
-0.000000
-0.000000
-0.000000
-0.000000
-0.000000
-0.000000
-0.000000
-0.000000
-0.000000
-0.000000
-0.000000
-0.000000
0.401123
-0.000000
-0.000000
-0.000000
-0.000000
-0.000000
-0.000000
-0.000000
0.118713
