-0.000000
0.677246
-0.000000
0.461426
0.046844
-0.000000
0.045715
0.124146
-0.000000
-0.000000
0.449463
-0.000000
0.733398
-0.000000
-0.000000
-0.000000
-0.000000
-0.000000
-0.000000
-0.000000
-0.000000
-0.000000
-0.000000
-0.000000
0.098206
-0.000000
-0.000000
-0.000000
1.248047
1.016602
-0.000000
-0.000000
-0.000000
-0.000000
-0.000000
-0.000000
-0.000000
-0.000000
-0.000000
1.226562
1.822266
-0.000000
0.077576
-0.000000
-0.000000
-0.000000
0.278320
-0.000000
0.172974
-0.000000
-0.000000
-0.000000
-0.000000
0.160889
-0.000000
-0.000000
-0.000000
-0.000000
-0.000000
0.505859
-0.000000
0.619629
0.094666
-0.000000
-0.000000
0.180176
-0.000000
0.708008
-0.000000
-0.000000
-0.000000
-0.000000
0.357422
0.096863
-0.000000
-0.000000
-0.000000
-0.000000
-0.000000
0.534668
-0.000000
-0.000000
0.568359
-0.000000
-0.000000
-0.000000
-0.000000
0.169434
0.253174
-0.000000
-0.000000
-0.000000
-0.000000
-0.000000
1.000977
0.029480
0.349854
-0.000000
0.194824
0.805664
1.157227
-0.000000
0.028564
1.199219
-0.000000
-0.000000
-0.000000
0.206787
-0.000000
-0.000000
0.109863
-0.000000
1.029297
-0.000000
0.037384
0.940430
-0.000000
-0.000000
-0.000000
0.435059
0.691895
0.009888
0.145752
-0.000000
0.041748
-0.000000
-0.000000
-0.000000
0.783691
-0.000000
0.043427
-0.000000
0.004883
-0.000000
-0.000000
0.660645
1.528320
-0.000000
-0.000000
-0.000000
-0.000000
-0.000000
-0.000000
-0.000000
-0.000000
0.422119
2.679688
-0.000000
-0.000000
0.253662
-0.000000
-0.000000
-0.000000
-0.000000
-0.000000
0.623535
-0.000000
-0.000000
0.533691
0.019852
-0.000000
0.309570
0.150024
-0.000000
1.329102
-0.000000
-0.000000
-0.000000
0.106689
-0.000000
-0.000000
0.462158
1.273438
-0.000000
0.005325
-0.000000
-0.000000
0.042908
-0.000000
1.226562
-0.000000
-0.000000
0.532227
-0.000000
0.068909
-0.000000
0.316650
-0.000000
-0.000000
-0.000000
0.676270
0.677734
-0.000000
-0.000000
-0.000000
0.538574
-0.000000
-0.000000
-0.000000
-0.000000
1.138672
-0.000000
-0.000000
-0.000000
-0.000000
-0.000000
-0.000000
-0.000000
0.076965
-0.000000
-0.000000
0.715332
0.492676
-0.000000
-0.000000
-0.000000
1.527344
-0.000000
0.917480
0.230591
-0.000000
-0.000000
-0.000000
-0.000000
-0.000000
-0.000000
-0.000000
0.351074
1.424805
1.588867
0.086365
-0.000000
-0.000000
-0.000000
-0.000000
0.935547
0.760742
-0.000000
0.395996
-0.000000
1.134766
-0.000000
0.371582
-0.000000
0.114014
0.143188
-0.000000
0.242676
-0.000000
-0.000000
-0.000000
0.160767
-0.000000
-0.000000
-0.000000
1.787109
-0.000000
-0.000000
-0.000000
0.404785
-0.000000
0.917969
0.610352
-0.000000
-0.000000
0.121460
-0.000000
-0.000000
-0.000000
-0.000000
-0.000000
-0.000000
0.813965
-0.000000
-0.000000
-0.000000
-0.000000
0.078491
0.611816
-0.000000
-0.000000
0.914551
-0.000000
-0.000000
-0.000000
-0.000000
-0.000000
-0.000000
0.008087
-0.000000
0.545410
0.162964
-0.000000
-0.000000
-0.000000
-0.000000
0.218506
-0.000000
-0.000000
-0.000000
-0.000000
-0.000000
0.189941
1.796875
0.247437
-0.000000
-0.000000
-0.000000
-0.000000
0.161621
0.033661
0.037781
-0.000000
-0.000000
1.439453
-0.000000
0.181763
0.255615
0.164185
-0.000000
-0.000000
-0.000000
-0.000000
1.059570
-0.000000
-0.000000
-0.000000
-0.000000
-0.000000
-0.000000
-0.000000
-0.000000
-0.000000
0.122314
-0.000000
-0.000000
-0.000000
-0.000000
-0.000000
0.675781
-0.000000
-0.000000
-0.000000
0.807617
-0.000000
-0.000000
-0.000000
-0.000000
0.304443
-0.000000
-0.000000
-0.000000
-0.000000
-0.000000
-0.000000
1.226562
0.607422
0.642090
-0.000000
-0.000000
-0.000000
-0.000000
0.380371
-0.000000
0.012604
-0.000000
-0.000000
0.752441
-0.000000
-0.000000
-0.000000
1.445312
0.222778
0.148315
-0.000000
-0.000000
-0.000000
-0.000000
-0.000000
-0.000000
-0.000000
-0.000000
-0.000000
-0.000000
-0.000000
0.201050
-0.000000
0.598633
-0.000000
0.054932
-0.000000
-0.000000
-0.000000
-0.000000
-0.000000
-0.000000
-0.000000
1.307617
-0.000000
-0.000000
-0.000000
0.212402
-0.000000
-0.000000
-0.000000
0.552246
-0.000000
-0.000000
-0.000000
-0.000000
0.600586
-0.000000
-0.000000
-0.000000
-0.000000
-0.000000
-0.000000
-0.000000
-0.000000
0.489990
-0.000000
-0.000000
-0.000000
-0.000000
0.234375
-0.000000
-0.000000
-0.000000
2.390625
-0.000000
-0.000000
-0.000000
-0.000000
-0.000000
-0.000000
-0.000000
-0.000000
-0.000000
0.148315
0.038269
0.392090
-0.000000
0.079346
0.051361
0.060669
-0.000000
0.514648
-0.000000
-0.000000
-0.000000
-0.000000
-0.000000
-0.000000
-0.000000
-0.000000
0.167969
-0.000000
-0.000000
0.487061
-0.000000
0.048279
-0.000000
-0.000000
-0.000000
-0.000000
-0.000000
-0.000000
-0.000000
0.006592
0.149414
0.171143
0.125732
1.539062
-0.000000
0.178101
-0.000000
0.024567
-0.000000
0.645020
-0.000000
-0.000000
-0.000000
1.523438
-0.000000
-0.000000
-0.000000
-0.000000
-0.000000
-0.000000
-0.000000
-0.000000
-0.000000
0.027344
-0.000000
0.287109
1.002930
-0.000000
-0.000000
-0.000000
0.000305
