-0.000000
0.899902
-0.000000
0.407471
-0.000000
0.809082
-0.000000
-0.000000
-0.000000
-0.000000
-0.000000
-0.000000
-0.000000
-0.000000
-0.000000
-0.000000
0.163452
-0.000000
0.509766
-0.000000
-0.000000
-0.000000
-0.000000
0.211548
0.141113
-0.000000
0.183350
-0.000000
1.034180
0.014343
-0.000000
-0.000000
-0.000000
1.331055
0.031738
-0.000000
-0.000000
-0.000000
-0.000000
-0.000000
0.285400
-0.000000
0.008240
0.926758
-0.000000
-0.000000
-0.000000
-0.000000
-0.000000
-0.000000
-0.000000
0.997070
0.222168
-0.000000
-0.000000
0.096008
-0.000000
0.152588
-0.000000
0.383301
-0.000000
-0.000000
1.001953
-0.000000
-0.000000
0.036499
-0.000000
-0.000000
-0.000000
-0.000000
-0.000000
-0.000000
-0.000000
-0.000000
-0.000000
0.080566
1.237305
-0.000000
-0.000000
-0.000000
-0.000000
0.612305
-0.000000
-0.000000
-0.000000
0.040558
-0.000000
0.244263
-0.000000
-0.000000
2.060547
0.143433
-0.000000
-0.000000
-0.000000
-0.000000
0.303955
-0.000000
0.365967
-0.000000
0.823242
-0.000000
-0.000000
-0.000000
0.688477
-0.000000
-0.000000
0.871094
0.007843
-0.000000
-0.000000
-0.000000
0.672852
-0.000000
0.242798
0.267334
1.034180
-0.000000
-0.000000
1.333984
-0.000000
-0.000000
-0.000000
0.003723
-0.000000
-0.000000
0.745117
-0.000000
-0.000000
-0.000000
0.055634
-0.000000
-0.000000
-0.000000
-0.000000
0.979004
1.283203
-0.000000
-0.000000
-0.000000
0.504883
-0.000000
-0.000000
-0.000000
-0.000000
-0.000000
-0.000000
0.637695
-0.000000
0.348145
0.224854
-0.000000
-0.000000
-0.000000
-0.000000
-0.000000
-0.000000
-0.000000
2.335938
-0.000000
0.284912
-0.000000
0.262451
0.827637
-0.000000
-0.000000
-0.000000
-0.000000
1.232422
-0.000000
0.054810
0.547852
-0.000000
0.877441
0.115967
-0.000000
-0.000000
-0.000000
-0.000000
-0.000000
-0.000000
-0.000000
-0.000000
-0.000000
0.713867
-0.000000
0.214966
0.056274
-0.000000
-0.000000
0.090271
-0.000000
0.054626
-0.000000
0.340576
-0.000000
-0.000000
-0.000000
-0.000000
-0.000000
-0.000000
0.107971
-0.000000
-0.000000
-0.000000
-0.000000
-0.000000
0.096497
-0.000000
-0.000000
-0.000000
0.030762
-0.000000
0.046936
-0.000000
1.804688
0.431641
0.544922
-0.000000
0.167847
-0.000000
-0.000000
-0.000000
-0.000000
-0.000000
-0.000000
0.283447
0.425781
1.043945
0.934570
0.516113
-0.000000
0.041992
-0.000000
-0.000000
-0.000000
0.244385
-0.000000
-0.000000
0.819824
0.195557
1.177734
0.410156
-0.000000
0.004150
-0.000000
-0.000000
1.618164
-0.000000
-0.000000
-0.000000
0.833008
0.014893
-0.000000
-0.000000
0.217651
-0.000000
-0.000000
0.530273
-0.000000
-0.000000
-0.000000
-0.000000
1.662109
-0.000000
-0.000000
-0.000000
-0.000000
-0.000000
-0.000000
1.035156
-0.000000
-0.000000
0.262939
-0.000000
2.365234
-0.000000
-0.000000
-0.000000
-0.000000
-0.000000
-0.000000
0.002167
-0.000000
0.059052
2.587891
-0.000000
1.015625
0.025116
0.359131
-0.000000
0.996094
-0.000000
-0.000000
0.395752
-0.000000
-0.000000
0.018616
0.131958
-0.000000
-0.000000
-0.000000
0.018311
-0.000000
-0.000000
0.084595
-0.000000
-0.000000
1.075195
-0.000000
0.013992
0.246216
1.737305
-0.000000
0.075928
0.058411
0.705078
0.679199
1.110352
0.081238
-0.000000
-0.000000
-0.000000
-0.000000
-0.000000
-0.000000
0.448975
-0.000000
-0.000000
-0.000000
-0.000000
-0.000000
-0.000000
-0.000000
-0.000000
-0.000000
0.100830
-0.000000
0.003174
0.057373
-0.000000
-0.000000
0.104980
0.219238
0.414307
-0.000000
-0.000000
-0.000000
-0.000000
-0.000000
0.142700
0.216064
-0.000000
-0.000000
-0.000000
0.740723
-0.000000
1.484375
-0.000000
0.277100
-0.000000
-0.000000
-0.000000
-0.000000
-0.000000
-0.000000
1.922852
0.522461
-0.000000
-0.000000
0.177856
1.617188
-0.000000
2.000000
1.302734
0.018509
-0.000000
-0.000000
-0.000000
1.134766
1.870117
-0.000000
-0.000000
-0.000000
1.885742
0.002197
-0.000000
0.356445
-0.000000
-0.000000
0.435303
-0.000000
0.222534
0.007935
-0.000000
-0.000000
-0.000000
-0.000000
0.063965
-0.000000
-0.000000
-0.000000
-0.000000
-0.000000
0.055695
-0.000000
-0.000000
-0.000000
-0.000000
0.358643
0.733887
-0.000000
-0.000000
-0.000000
-0.000000
-0.000000
-0.000000
-0.000000
-0.000000
-0.000000
-0.000000
-0.000000
-0.000000
0.009300
-0.000000
-0.000000
-0.000000
-0.000000
-0.000000
-0.000000
-0.000000
-0.000000
-0.000000
0.230225
-0.000000
-0.000000
-0.000000
-0.000000
-0.000000
0.284180
-0.000000
-0.000000
0.280273
-0.000000
-0.000000
-0.000000
-0.000000
-0.000000
2.794922
-0.000000
-0.000000
-0.000000
-0.000000
-0.000000
-0.000000
0.164062
-0.000000
-0.000000
0.139771
1.802734
-0.000000
-0.000000
-0.000000
-0.000000
0.042480
-0.000000
-0.000000
-0.000000
-0.000000
-0.000000
-0.000000
0.141968
0.293945
-0.000000
-0.000000
0.497070
-0.000000
0.794922
0.791992
-0.000000
-0.000000
-0.000000
0.123535
-0.000000
-0.000000
-0.000000
-0.000000
-0.000000
-0.000000
0.061890
-0.000000
-0.000000
1.174805
-0.000000
-0.000000
-0.000000
-0.000000
-0.000000
-0.000000
0.289307
