-0.000000
0.069580
-0.000000
-0.000000
1.561523
-0.000000
-0.000000
-0.000000
-0.000000
0.705078
-0.000000
-0.000000
-0.000000
0.117310
0.017624
-0.000000
0.031860
-0.000000
0.203125
-0.000000
-0.000000
-0.000000
0.502930
-0.000000
0.199829
-0.000000
0.188843
-0.000000
-0.000000
-0.000000
-0.000000
-0.000000
-0.000000
-0.000000
-0.000000
-0.000000
0.134033
0.576172
0.001526
-0.000000
-0.000000
1.762695
-0.000000
2.115234
-0.000000
0.123413
-0.000000
-0.000000
-0.000000
-0.000000
-0.000000
0.330322
-0.000000
-0.000000
-0.000000
-0.000000
0.201538
-0.000000
-0.000000
0.106201
-0.000000
-0.000000
-0.000000
-0.000000
0.122742
-0.000000
-0.000000
-0.000000
-0.000000
-0.000000
-0.000000
-0.000000
-0.000000
-0.000000
-0.000000
-0.000000
-0.000000
-0.000000
0.114868
-0.000000
-0.000000
0.286865
-0.000000
0.389648
-0.000000
0.125366
-0.000000
-0.000000
-0.000000
-0.000000
-0.000000
-0.000000
-0.000000
0.384766
-0.000000
0.009216
-0.000000
-0.000000
0.071533
0.938477
0.274414
0.171021
-0.000000
0.253418
1.392578
0.506348
0.204834
-0.000000
-0.000000
0.481934
-0.000000
-0.000000
-0.000000
0.920410
-0.000000
-0.000000
0.295898
3.097656
-0.000000
-0.000000
0.191162
0.051849
0.751953
-0.000000
-0.000000
0.030014
0.742188
-0.000000
-0.000000
-0.000000
-0.000000
-0.000000
0.560547
-0.000000
-0.000000
0.614258
-0.000000
0.498779
-0.000000
-0.000000
-0.000000
-0.000000
0.410645
-0.000000
-0.000000
0.104370
0.042053
-0.000000
-0.000000
-0.000000
0.454590
-0.000000
-0.000000
-0.000000
-0.000000
-0.000000
-0.000000
0.161133
-0.000000
-0.000000
-0.000000
0.085693
0.506348
-0.000000
-0.000000
-0.000000
-0.000000
-0.000000
-0.000000
-0.000000
-0.000000
-0.000000
-0.000000
-0.000000
0.000435
-0.000000
0.234009
1.233398
-0.000000
-0.000000
0.663086
-0.000000
0.432129
0.336670
-0.000000
-0.000000
-0.000000
0.998047
-0.000000
0.879395
0.576172
-0.000000
0.158936
0.035126
0.269287
0.506836
-0.000000
-0.000000
-0.000000
-0.000000
-0.000000
0.034058
-0.000000
-0.000000
0.163696
-0.000000
-0.000000
-0.000000
0.792480
-0.000000
-0.000000
-0.000000
0.322754
-0.000000
0.187134
-0.000000
-0.000000
-0.000000
-0.000000
-0.000000
-0.000000
-0.000000
-0.000000
-0.000000
0.246460
-0.000000
-0.000000
-0.000000
0.645508
-0.000000
-0.000000
-0.000000
0.250977
-0.000000
-0.000000
-0.000000
-0.000000
-0.000000
0.308350
-0.000000
0.429443
0.083984
-0.000000
0.173828
0.968262
-0.000000
-0.000000
0.743164
-0.000000
-0.000000
0.089966
0.064941
-0.000000
-0.000000
0.136597
-0.000000
0.190186
-0.000000
3.156250
-0.000000
-0.000000
-0.000000
-0.000000
-0.000000
0.011658
-0.000000
-0.000000
-0.000000
-0.000000
-0.000000
-0.000000
-0.000000
-0.000000
0.300781
-0.000000
-0.000000
-0.000000
-0.000000
-0.000000
-0.000000
-0.000000
-0.000000
0.102600
-0.000000
1.781250
-0.000000
-0.000000
-0.000000
-0.000000
0.015747
-0.000000
0.249634
-0.000000
-0.000000
0.025391
-0.000000
-0.000000
-0.000000
0.218018
-0.000000
-0.000000
-0.000000
-0.000000
0.130615
-0.000000
0.277832
-0.000000
-0.000000
0.010063
0.290527
-0.000000
-0.000000
-0.000000
-0.000000
0.383545
-0.000000
-0.000000
-0.000000
0.001953
-0.000000
-0.000000
-0.000000
-0.000000
0.128784
-0.000000
-0.000000
-0.000000
-0.000000
-0.000000
0.871582
-0.000000
-0.000000
-0.000000
-0.000000
-0.000000
-0.000000
1.899414
-0.000000
-0.000000
0.029541
-0.000000
-0.000000
-0.000000
0.573730
-0.000000
-0.000000
-0.000000
0.842285
0.468506
-0.000000
-0.000000
0.048950
-0.000000
-0.000000
-0.000000
0.520508
0.504883
-0.000000
-0.000000
-0.000000
-0.000000
-0.000000
0.666992
-0.000000
-0.000000
0.212891
-0.000000
0.073486
1.829102
-0.000000
-0.000000
-0.000000
0.730957
0.902344
1.386719
-0.000000
-0.000000
-0.000000
-0.000000
0.569336
-0.000000
0.338135
-0.000000
-0.000000
0.753418
-0.000000
-0.000000
0.073792
-0.000000
0.198853
-0.000000
-0.000000
-0.000000
1.891602
-0.000000
-0.000000
-0.000000
-0.000000
-0.000000
0.040985
0.371094
-0.000000
-0.000000
-0.000000
0.021362
-0.000000
0.000000
0.097900
0.197266
1.901367
-0.000000
1.208008
-0.000000
-0.000000
0.137695
-0.000000
0.750000
-0.000000
0.466553
-0.000000
-0.000000
1.024414
-0.000000
0.473389
3.236328
-0.000000
-0.000000
-0.000000
1.594727
0.716797
0.176147
-0.000000
-0.000000
0.224609
-0.000000
-0.000000
-0.000000
-0.000000
-0.000000
-0.000000
-0.000000
0.018753
0.857422
0.691406
-0.000000
-0.000000
0.038544
-0.000000
-0.000000
-0.000000
-0.000000
-0.000000
-0.000000
-0.000000
-0.000000
-0.000000
3.847656
-0.000000
-0.000000
-0.000000
0.106384
0.592773
-0.000000
1.163086
0.240479
-0.000000
-0.000000
-0.000000
0.139282
-0.000000
0.301270
-0.000000
0.609375
-0.000000
-0.000000
-0.000000
-0.000000
-0.000000
-0.000000
-0.000000
1.065430
0.203613
-0.000000
-0.000000
0.621582
-0.000000
-0.000000
-0.000000
0.922852
0.044556
0.032806
-0.000000
-0.000000
-0.000000
-0.000000
-0.000000
-0.000000
-0.000000
-0.000000
0.387207
