-0.000000
-0.000000
-0.000000
0.193970
-0.000000
-0.000000
0.443604
-0.000000
-0.000000
0.739258
0.237061
-0.000000
-0.000000
-0.000000
-0.000000
-0.000000
-0.000000
-0.000000
-0.000000
-0.000000
1.108398
-0.000000
0.172363
-0.000000
-0.000000
-0.000000
0.020660
-0.000000
2.048828
-0.000000
-0.000000
-0.000000
-0.000000
2.417969
-0.000000
-0.000000
-0.000000
-0.000000
-0.000000
-0.000000
-0.000000
1.622070
-0.000000
0.718262
-0.000000
0.005135
-0.000000
-0.000000
-0.000000
-0.000000
-0.000000
-0.000000
0.445068
-0.000000
-0.000000
0.060669
0.208740
-0.000000
-0.000000
0.776367
-0.000000
0.203369
-0.000000
0.148315
0.006958
0.175049
-0.000000
-0.000000
-0.000000
-0.000000
-0.000000
-0.000000
-0.000000
0.237915
-0.000000
-0.000000
0.035400
-0.000000
-0.000000
-0.000000
-0.000000
0.172363
-0.000000
-0.000000
-0.000000
-0.000000
-0.000000
-0.000000
-0.000000
-0.000000
0.324707
-0.000000
-0.000000
0.752930
-0.000000
0.052612
0.198120
-0.000000
0.011948
1.299805
0.686523
1.519531
-0.000000
-0.000000
0.325928
-0.000000
-0.000000
1.284180
-0.000000
-0.000000
0.082153
-0.000000
1.703125
0.047699
-0.000000
-0.000000
-0.000000
-0.000000
-0.000000
0.833984
-0.000000
0.011139
0.499023
-0.000000
-0.000000
0.002762
-0.000000
-0.000000
-0.000000
0.313965
-0.000000
-0.000000
0.206909
-0.000000
-0.000000
-0.000000
-0.000000
-0.000000
-0.000000
-0.000000
0.148926
-0.000000
-0.000000
-0.000000
-0.000000
-0.000000
0.462646
1.158203
-0.000000
-0.000000
0.699219
-0.000000
-0.000000
-0.000000
-0.000000
-0.000000
-0.000000
-0.000000
-0.000000
0.080688
0.308350
-0.000000
0.303955
-0.000000
-0.000000
-0.000000
-0.000000
0.309326
-0.000000
-0.000000
0.068176
-0.000000
-0.000000
1.889648
-0.000000
-0.000000
-0.000000
-0.000000
2.064453
-0.000000
0.708984
-0.000000
0.730957
-0.000000
2.136719
-0.000000
-0.000000
-0.000000
-0.000000
0.830566
0.543457
-0.000000
0.083008
-0.000000
0.265137
-0.000000
-0.000000
-0.000000
-0.000000
-0.000000
-0.000000
-0.000000
-0.000000
-0.000000
0.174805
0.202759
0.004089
0.062561
0.625977
-0.000000
-0.000000
-0.000000
-0.000000
-0.000000
-0.000000
-0.000000
-0.000000
0.397705
-0.000000
-0.000000
-0.000000
-0.000000
-0.000000
-0.000000
0.254395
-0.000000
0.464355
0.340820
0.997070
-0.000000
-0.000000
-0.000000
0.797363
0.223633
-0.000000
-0.000000
0.490967
-0.000000
0.748047
0.673340
-0.000000
0.678711
-0.000000
-0.000000
0.201416
-0.000000
-0.000000
-0.000000
-0.000000
-0.000000
-0.000000
-0.000000
-0.000000
0.266357
0.021622
0.284912
0.040466
-0.000000
2.156250
-0.000000
-0.000000
-0.000000
-0.000000
-0.000000
0.069031
-0.000000
0.569824
-0.000000
-0.000000
-0.000000
0.671387
-0.000000
0.150024
2.402344
-0.000000
-0.000000
0.087769
0.179565
-0.000000
-0.000000
-0.000000
-0.000000
-0.000000
-0.000000
2.310547
0.364990
-0.000000
-0.000000
-0.000000
0.279053
-0.000000
-0.000000
-0.000000
-0.000000
1.306641
-0.000000
-0.000000
-0.000000
-0.000000
-0.000000
2.148438
-0.000000
-0.000000
0.015015
0.318115
-0.000000
-0.000000
-0.000000
0.284180
-0.000000
-0.000000
0.293213
-0.000000
-0.000000
-0.000000
0.075256
-0.000000
-0.000000
-0.000000
-0.000000
-0.000000
-0.000000
-0.000000
-0.000000
-0.000000
-0.000000
-0.000000
-0.000000
-0.000000
-0.000000
-0.000000
-0.000000
-0.000000
-0.000000
0.046936
-0.000000
-0.000000
-0.000000
-0.000000
-0.000000
-0.000000
-0.000000
-0.000000
-0.000000
-0.000000
-0.000000
-0.000000
1.823242
-0.000000
-0.000000
-0.000000
-0.000000
-0.000000
-0.000000
-0.000000
0.133301
-0.000000
-0.000000
-0.000000
0.969238
-0.000000
-0.000000
-0.000000
1.446289
0.185547
-0.000000
-0.000000
-0.000000
-0.000000
-0.000000
0.047729
0.865234
0.255615
2.597656
-0.000000
-0.000000
-0.000000
-0.000000
-0.000000
-0.000000
-0.000000
-0.000000
-0.000000
-0.000000
2.216797
-0.000000
-0.000000
-0.000000
-0.000000
-0.000000
-0.000000
-0.000000
0.011505
0.176025
-0.000000
-0.000000
-0.000000
-0.000000
0.036011
-0.000000
-0.000000
0.057190
-0.000000
-0.000000
-0.000000
-0.000000
2.892578
0.957031
-0.000000
0.408936
0.266602
1.113281
1.144531
-0.000000
-0.000000
-0.000000
-0.000000
-0.000000
-0.000000
-0.000000
-0.000000
0.108398
-0.000000
0.351318
-0.000000
0.019897
0.002926
-0.000000
-0.000000
0.062012
2.007812
-0.000000
-0.000000
-0.000000
-0.000000
-0.000000
-0.000000
-0.000000
-0.000000
-0.000000
-0.000000
-0.000000
-0.000000
-0.000000
-0.000000
0.066467
-0.000000
-0.000000
-0.000000
-0.000000
-0.000000
-0.000000
-0.000000
1.397461
-0.000000
0.213379
-0.000000
0.170776
0.024292
1.357422
-0.000000
0.034576
-0.000000
-0.000000
0.037109
-0.000000
-0.000000
-0.000000
0.181030
-0.000000
1.988281
-0.000000
0.325684
-0.000000
-0.000000
1.664062
-0.000000
-0.000000
0.705078
-0.000000
0.802734
1.053711
0.110962
-0.000000
-0.000000
-0.000000
-0.000000
-0.000000
0.256348
0.191040
0.086365
0.232788
-0.000000
1.884766
0.209351
0.360840
-0.000000
-0.000000
-0.000000
0.629883
