-0.000000
-0.000000
-0.000000
-0.000000
0.498291
1.081055
-0.000000
-0.000000
-0.000000
-0.000000
-0.000000
-0.000000
-0.000000
0.534180
-0.000000
-0.000000
-0.000000
-0.000000
0.078491
-0.000000
-0.000000
-0.000000
-0.000000
0.178589
-0.000000
-0.000000
-0.000000
-0.000000
0.610352
-0.000000
-0.000000
-0.000000
-0.000000
-0.000000
-0.000000
-0.000000
0.869629
0.258301
-0.000000
-0.000000
0.805664
0.101807
-0.000000
0.085388
-0.000000
-0.000000
-0.000000
-0.000000
-0.000000
-0.000000
-0.000000
0.623535
-0.000000
-0.000000
-0.000000
-0.000000
-0.000000
-0.000000
-0.000000
-0.000000
-0.000000
-0.000000
0.562988
-0.000000
-0.000000
-0.000000
-0.000000
-0.000000
-0.000000
-0.000000
-0.000000
-0.000000
0.123840
-0.000000
-0.000000
0.298584
0.018738
-0.000000
0.006508
-0.000000
-0.000000
-0.000000
-0.000000
0.505859
0.260986
0.018036
-0.000000
-0.000000
-0.000000
-0.000000
0.945801
-0.000000
-0.000000
0.005280
1.154297
1.156250
0.083740
-0.000000
-0.000000
-0.000000
0.160156
-0.000000
-0.000000
0.098328
1.642578
-0.000000
-0.000000
-0.000000
-0.000000
1.666992
-0.000000
0.194458
0.849121
0.068298
0.047821
-0.000000
0.470703
-0.000000
-0.000000
-0.000000
-0.000000
-0.000000
-0.000000
-0.000000
0.348145
-0.000000
0.625000
-0.000000
-0.000000
0.114380
1.196289
-0.000000
-0.000000
-0.000000
-0.000000
0.678223
-0.000000
0.020386
-0.000000
-0.000000
0.324219
-0.000000
-0.000000
-0.000000
-0.000000
-0.000000
-0.000000
1.458008
-0.000000
-0.000000
-0.000000
1.418945
-0.000000
-0.000000
-0.000000
0.002586
0.634277
0.046936
-0.000000
-0.000000
0.013878
-0.000000
-0.000000
-0.000000
-0.000000
-0.000000
-0.000000
-0.000000
0.230713
-0.000000
0.043213
-0.000000
-0.000000
0.285889
0.009140
-0.000000
0.026672
-0.000000
-0.000000
0.525391
-0.000000
-0.000000
-0.000000
-0.000000
-0.000000
-0.000000
0.108704
0.332031
-0.000000
0.212646
0.117371
0.673828
-0.000000
-0.000000
-0.000000
0.972168
-0.000000
-0.000000
-0.000000
0.138550
0.086182
-0.000000
-0.000000
-0.000000
-0.000000
-0.000000
0.149658
-0.000000
-0.000000
-0.000000
-0.000000
0.193726
-0.000000
-0.000000
-0.000000
0.206543
0.203857
-0.000000
-0.000000
0.830078
-0.000000
-0.000000
-0.000000
-0.000000
-0.000000
-0.000000
-0.000000
-0.000000
0.264648
1.103516
0.806152
-0.000000
0.134766
0.037170
-0.000000
1.391602
0.564453
-0.000000
-0.000000
0.584961
0.906250
-0.000000
0.338623
-0.000000
1.071289
-0.000000
-0.000000
0.281250
-0.000000
-0.000000
0.018677
0.032654
-0.000000
0.038208
0.003403
-0.000000
0.321777
-0.000000
0.538086
-0.000000
-0.000000
0.111328
0.608887
-0.000000
-0.000000
0.006592
-0.000000
-0.000000
-0.000000
-0.000000
0.200684
0.067383
0.427002
-0.000000
-0.000000
1.041016
0.237671
-0.000000
0.405029
-0.000000
-0.000000
0.905273
-0.000000
-0.000000
0.401123
1.846680
-0.000000
-0.000000
-0.000000
-0.000000
1.693359
0.032471
-0.000000
-0.000000
-0.000000
-0.000000
0.658691
0.447021
0.040039
-0.000000
-0.000000
-0.000000
0.118347
0.010559
0.730957
0.107056
-0.000000
-0.000000
-0.000000
-0.000000
0.031204
-0.000000
0.822754
-0.000000
0.471191
-0.000000
0.428467
-0.000000
-0.000000
-0.000000
-0.000000
0.602051
-0.000000
0.895020
-0.000000
-0.000000
-0.000000
-0.000000
-0.000000
0.797363
-0.000000
-0.000000
-0.000000
-0.000000
-0.000000
-0.000000
-0.000000
-0.000000
-0.000000
-0.000000
-0.000000
0.088745
0.061676
0.083862
-0.000000
-0.000000
-0.000000
-0.000000
-0.000000
-0.000000
0.275635
-0.000000
-0.000000
-0.000000
-0.000000
-0.000000
1.893555
-0.000000
-0.000000
-0.000000
-0.000000
0.123535
1.838867
-0.000000
-0.000000
-0.000000
-0.000000
-0.000000
0.479736
0.655762
0.166504
0.435059
-0.000000
-0.000000
-0.000000
-0.000000
-0.000000
-0.000000
-0.000000
0.065796
-0.000000
-0.000000
-0.000000
-0.000000
0.668457
-0.000000
-0.000000
-0.000000
1.469727
-0.000000
-0.000000
-0.000000
-0.000000
-0.000000
0.585938
0.126099
-0.000000
-0.000000
-0.000000
0.036072
0.771973
-0.000000
-0.000000
-0.000000
-0.000000
-0.000000
-0.000000
-0.000000
0.197510
0.510254
-0.000000
-0.000000
-0.000000
-0.000000
0.549805
-0.000000
0.224854
-0.000000
-0.000000
0.656250
-0.000000
-0.000000
-0.000000
-0.000000
0.033447
-0.000000
-0.000000
0.088440
-0.000000
0.931152
-0.000000
-0.000000
-0.000000
0.284424
-0.000000
-0.000000
-0.000000
-0.000000
0.015579
-0.000000
-0.000000
-0.000000
-0.000000
-0.000000
-0.000000
-0.000000
0.259521
-0.000000
-0.000000
-0.000000
-0.000000
-0.000000
-0.000000
-0.000000
0.421143
0.035278
-0.000000
-0.000000
0.048096
-0.000000
0.161865
0.424561
-0.000000
-0.000000
-0.000000
-0.000000
-0.000000
-0.000000
-0.000000
-0.000000
-0.000000
0.255859
0.269287
-0.000000
0.129150
-0.000000
-0.000000
-0.000000
-0.000000
-0.000000
-0.000000
-0.000000
0.413818
-0.000000
-0.000000
-0.000000
-0.000000
-0.000000
0.122742
-0.000000
0.102600
-0.000000
0.031982
-0.000000
-0.000000
-0.000000
-0.000000
-0.000000
-0.000000
-0.000000
