-0.000000
0.272949
-0.000000
0.009521
2.287109
0.074463
-0.000000
-0.000000
-0.000000
0.212891
-0.000000
-0.000000
-0.000000
0.266602
0.004234
-0.000000
-0.000000
-0.000000
-0.000000
-0.000000
-0.000000
-0.000000
0.587402
-0.000000
0.097778
-0.000000
0.226807
-0.000000
-0.000000
0.236816
-0.000000
-0.000000
-0.000000
-0.000000
-0.000000
-0.000000
-0.000000
0.655273
-0.000000
-0.000000
-0.000000
0.663086
-0.000000
0.424316
-0.000000
-0.000000
-0.000000
-0.000000
-0.000000
-0.000000
-0.000000
0.006470
-0.000000
-0.000000
-0.000000
0.978516
0.364990
-0.000000
-0.000000
0.281738
-0.000000
0.069458
-0.000000
-0.000000
-0.000000
-0.000000
-0.000000
-0.000000
-0.000000
-0.000000
-0.000000
-0.000000
0.022995
-0.000000
-0.000000
-0.000000
-0.000000
-0.000000
0.078918
-0.000000
-0.000000
0.442627
-0.000000
0.041687
0.397461
0.246216
-0.000000
-0.000000
-0.000000
-0.000000
0.453369
-0.000000
-0.000000
-0.000000
-0.000000
0.479492
-0.000000
-0.000000
-0.000000
1.162109
-0.000000
-0.000000
-0.000000
-0.000000
1.722656
0.241821
-0.000000
-0.000000
-0.000000
0.044678
-0.000000
-0.000000
-0.000000
0.805176
-0.000000
0.245483
0.906738
1.982422
-0.000000
-0.000000
0.266357
-0.000000
0.114563
-0.000000
-0.000000
0.040619
1.294922
-0.000000
-0.000000
-0.000000
1.147461
-0.000000
0.339111
-0.000000
-0.000000
1.092773
-0.000000
0.909180
-0.000000
-0.000000
-0.000000
-0.000000
-0.000000
-0.000000
-0.000000
-0.000000
-0.000000
-0.000000
-0.000000
-0.000000
0.007446
1.305664
-0.000000
-0.000000
-0.000000
-0.000000
-0.000000
0.298584
0.151855
-0.000000
0.187378
-0.000000
-0.000000
-0.000000
-0.000000
-0.000000
-0.000000
-0.000000
-0.000000
-0.000000
-0.000000
0.394531
-0.000000
-0.000000
0.045502
-0.000000
0.226074
0.863770
-0.000000
0.261963
0.315430
-0.000000
-0.000000
-0.000000
-0.000000
-0.000000
0.264648
0.770508
-0.000000
-0.000000
0.709961
-0.000000
0.144775
-0.000000
0.139893
-0.000000
-0.000000
-0.000000
-0.000000
-0.000000
-0.000000
0.157349
-0.000000
-0.000000
0.040619
-0.000000
-0.000000
-0.000000
0.656250
-0.000000
-0.000000
-0.000000
0.130615
0.002083
-0.000000
-0.000000
-0.000000
-0.000000
-0.000000
-0.000000
-0.000000
-0.000000
-0.000000
-0.000000
-0.000000
-0.000000
-0.000000
-0.000000
0.646973
-0.000000
-0.000000
-0.000000
0.351318
-0.000000
-0.000000
-0.000000
0.744141
-0.000000
0.229614
0.026917
0.684570
0.375244
-0.000000
0.060699
1.188477
-0.000000
-0.000000
0.403320
-0.000000
-0.000000
-0.000000
0.060669
-0.000000
0.309082
0.120117
-0.000000
0.260010
-0.000000
1.854492
-0.000000
-0.000000
-0.000000
-0.000000
0.172241
-0.000000
-0.000000
-0.000000
-0.000000
-0.000000
-0.000000
-0.000000
0.051453
-0.000000
-0.000000
-0.000000
-0.000000
-0.000000
-0.000000
-0.000000
0.051758
-0.000000
0.263916
-0.000000
-0.000000
0.371094
0.337158
-0.000000
-0.000000
-0.000000
-0.000000
-0.000000
0.790039
-0.000000
-0.000000
-0.000000
-0.000000
-0.000000
0.111755
0.239258
-0.000000
-0.000000
-0.000000
0.144653
-0.000000
-0.000000
0.325928
-0.000000
-0.000000
0.061188
-0.000000
-0.000000
-0.000000
0.381592
-0.000000
-0.000000
-0.000000
-0.000000
-0.000000
-0.000000
-0.000000
-0.000000
0.206543
-0.000000
-0.000000
-0.000000
-0.000000
-0.000000
-0.000000
-0.000000
1.684570
-0.000000
-0.000000
-0.000000
-0.000000
-0.000000
-0.000000
0.461670
-0.000000
0.066528
0.083618
-0.000000
-0.000000
-0.000000
0.588379
-0.000000
-0.000000
-0.000000
0.276611
-0.000000
-0.000000
0.393066
0.076965
-0.000000
-0.000000
-0.000000
0.459229
1.193359
-0.000000
-0.000000
-0.000000
-0.000000
-0.000000
1.586914
-0.000000
-0.000000
-0.000000
-0.000000
-0.000000
0.777832
-0.000000
-0.000000
-0.000000
0.020142
0.260010
0.431885
-0.000000
-0.000000
-0.000000
-0.000000
0.098877
-0.000000
-0.000000
-0.000000
-0.000000
0.409912
-0.000000
-0.000000
-0.000000
0.884766
-0.000000
-0.000000
-0.000000
-0.000000
2.208984
-0.000000
-0.000000
-0.000000
-0.000000
-0.000000
0.162354
0.740723
-0.000000
-0.000000
-0.000000
0.006989
-0.000000
-0.000000
-0.000000
0.145386
1.689453
-0.000000
0.083130
-0.000000
-0.000000
0.593750
-0.000000
0.444824
-0.000000
-0.000000
0.837402
-0.000000
0.795898
-0.000000
0.192505
2.464844
-0.000000
0.018600
-0.000000
1.241211
0.564941
-0.000000
-0.000000
-0.000000
0.024536
-0.000000
-0.000000
-0.000000
-0.000000
-0.000000
-0.000000
-0.000000
-0.000000
1.004883
-0.000000
-0.000000
-0.000000
0.076294
-0.000000
0.240601
0.127930
-0.000000
-0.000000
-0.000000
-0.000000
0.147339
-0.000000
2.917969
-0.000000
-0.000000
-0.000000
0.000458
0.308350
-0.000000
-0.000000
-0.000000
0.004494
-0.000000
-0.000000
-0.000000
-0.000000
-0.000000
-0.000000
0.281006
-0.000000
-0.000000
-0.000000
-0.000000
-0.000000
-0.000000
0.002869
-0.000000
-0.000000
0.081543
-0.000000
0.216919
-0.000000
-0.000000
-0.000000
0.825195
-0.000000
-0.000000
-0.000000
0.671875
-0.000000
-0.000000
-0.000000
-0.000000
-0.000000
-0.000000
0.583984
