-0.000000
-0.000000
-0.000000
0.364990
-0.000000
0.908691
-0.000000
-0.000000
-0.000000
0.432373
-0.000000
-0.000000
-0.000000
-0.000000
0.046204
-0.000000
-0.000000
-0.000000
-0.000000
-0.000000
-0.000000
-0.000000
0.687012
-0.000000
0.067749
0.296631
0.170410
-0.000000
-0.000000
0.707031
-0.000000
-0.000000
0.152710
-0.000000
0.004845
-0.000000
-0.000000
-0.000000
-0.000000
-0.000000
-0.000000
0.041504
0.463135
-0.000000
-0.000000
-0.000000
0.337158
-0.000000
-0.000000
-0.000000
-0.000000
-0.000000
-0.000000
-0.000000
-0.000000
2.427734
-0.000000
-0.000000
-0.000000
-0.000000
-0.000000
0.144897
-0.000000
-0.000000
0.028137
-0.000000
-0.000000
-0.000000
-0.000000
-0.000000
-0.000000
-0.000000
0.184448
-0.000000
-0.000000
-0.000000
-0.000000
-0.000000
-0.000000
-0.000000
-0.000000
0.998047
-0.000000
-0.000000
0.654785
0.004181
-0.000000
0.012329
-0.000000
-0.000000
0.134644
-0.000000
-0.000000
-0.000000
-0.000000
0.030182
-0.000000
-0.000000
-0.000000
1.435547
0.798340
1.000000
0.542969
-0.000000
1.699219
0.510254
-0.000000
-0.000000
-0.000000
0.462158
-0.000000
-0.000000
-0.000000
-0.000000
-0.000000
0.239380
0.923828
0.057373
-0.000000
0.516113
0.868164
0.000412
-0.000000
-0.000000
-0.000000
0.140503
1.830078
-0.000000
-0.000000
-0.000000
1.201172
-0.000000
0.383545
-0.000000
-0.000000
0.177246
-0.000000
0.349854
0.131226
-0.000000
0.012268
-0.000000
-0.000000
-0.000000
-0.000000
-0.000000
-0.000000
0.370361
0.785645
0.000854
-0.000000
0.619629
-0.000000
-0.000000
-0.000000
-0.000000
-0.000000
0.090271
0.473633
-0.000000
0.868652
-0.000000
-0.000000
-0.000000
-0.000000
-0.000000
-0.000000
0.003387
-0.000000
-0.000000
-0.000000
0.351807
-0.000000
-0.000000
-0.000000
-0.000000
-0.000000
0.832520
-0.000000
1.046875
-0.000000
-0.000000
0.120972
-0.000000
-0.000000
-0.000000
0.018631
-0.000000
-0.000000
-0.000000
0.095825
-0.000000
0.248047
-0.000000
0.024048
-0.000000
0.139404
-0.000000
-0.000000
-0.000000
-0.000000
0.240967
-0.000000
-0.000000
-0.000000
-0.000000
-0.000000
0.769531
1.334961
-0.000000
-0.000000
-0.000000
-0.000000
-0.000000
0.316162
-0.000000
-0.000000
-0.000000
-0.000000
0.060303
-0.000000
0.338623
-0.000000
-0.000000
-0.000000
-0.000000
-0.000000
-0.000000
0.508301
-0.000000
0.089294
-0.000000
0.292969
-0.000000
-0.000000
0.946289
0.348877
0.024323
0.110291
0.275146
-0.000000
-0.000000
-0.000000
-0.000000
0.149170
-0.000000
-0.000000
-0.000000
-0.000000
-0.000000
0.062744
-0.000000
-0.000000
0.904785
0.039307
-0.000000
0.051575
-0.000000
-0.000000
-0.000000
1.179688
-0.000000
-0.000000
0.059692
0.195312
-0.000000
-0.000000
-0.000000
-0.000000
-0.000000
-0.000000
0.033386
-0.000000
-0.000000
-0.000000
-0.000000
-0.000000
-0.000000
-0.000000
0.166992
-0.000000
1.263672
-0.000000
-0.000000
1.375977
-0.000000
-0.000000
-0.000000
-0.000000
-0.000000
-0.000000
-0.000000
-0.000000
-0.000000
0.167725
-0.000000
0.490234
-0.000000
-0.000000
-0.000000
-0.000000
-0.000000
-0.000000
-0.000000
-0.000000
0.031372
-0.000000
0.240234
0.046112
0.033783
-0.000000
-0.000000
-0.000000
-0.000000
-0.000000
-0.000000
-0.000000
-0.000000
-0.000000
-0.000000
-0.000000
-0.000000
-0.000000
-0.000000
-0.000000
-0.000000
-0.000000
-0.000000
-0.000000
1.389648
-0.000000
-0.000000
-0.000000
-0.000000
-0.000000
-0.000000
-0.000000
-0.000000
0.363037
0.064819
-0.000000
-0.000000
-0.000000
0.628906
-0.000000
-0.000000
-0.000000
1.250977
-0.000000
-0.000000
0.362549
-0.000000
-0.000000
-0.000000
-0.000000
0.059326
0.324219
0.033752
-0.000000
-0.000000
-0.000000
-0.000000
1.230469
-0.000000
-0.000000
-0.000000
-0.000000
-0.000000
1.718750
0.358643
-0.000000
-0.000000
-0.000000
0.058136
-0.000000
-0.000000
-0.000000
-0.000000
-0.000000
-0.000000
-0.000000
-0.000000
-0.000000
0.042572
0.365723
-0.000000
-0.000000
-0.000000
0.890625
0.563477
-0.000000
-0.000000
-0.000000
2.242188
-0.000000
0.740723
-0.000000
-0.000000
-0.000000
0.090027
-0.000000
-0.000000
-0.000000
-0.000000
-0.000000
-0.000000
-0.000000
0.878418
-0.000000
0.169312
0.120850
-0.000000
0.407959
-0.000000
-0.000000
-0.000000
1.843750
-0.000000
-0.000000
0.476807
-0.000000
0.696777
-0.000000
0.235474
0.285645
-0.000000
-0.000000
-0.000000
0.190918
-0.000000
0.263672
-0.000000
-0.000000
-0.000000
-0.000000
-0.000000
-0.000000
-0.000000
-0.000000
-0.000000
-0.000000
-0.000000
-0.000000
0.025055
-0.000000
-0.000000
-0.000000
-0.000000
0.207397
-0.000000
-0.000000
-0.000000
-0.000000
0.136719
-0.000000
-0.000000
2.246094
-0.000000
0.916504
-0.000000
-0.000000
-0.000000
-0.000000
-0.000000
-0.000000
0.067749
-0.000000
-0.000000
-0.000000
-0.000000
0.565918
-0.000000
-0.000000
-0.000000
0.117493
-0.000000
0.026031
-0.000000
0.476807
0.048187
-0.000000
0.275391
-0.000000
-0.000000
-0.000000
-0.000000
-0.000000
-0.000000
0.216187
0.007446
-0.000000
-0.000000
0.364014
0.327148
-0.000000
0.050781
-0.000000
-0.000000
-0.000000
0.376465
