-0.000000
-0.000000
-0.000000
-0.000000
-0.000000
-0.000000
0.310303
-0.000000
-0.000000
0.702637
0.114197
0.006073
-0.000000
-0.000000
-0.000000
-0.000000
-0.000000
-0.000000
-0.000000
-0.000000
2.035156
-0.000000
0.809570
0.637207
0.001350
-0.000000
0.125000
-0.000000
0.658203
-0.000000
-0.000000
-0.000000
0.550781
0.579590
-0.000000
-0.000000
0.104858
-0.000000
0.005737
-0.000000
-0.000000
4.167969
1.089844
0.653809
-0.000000
0.450684
-0.000000
-0.000000
-0.000000
-0.000000
-0.000000
-0.000000
0.009460
-0.000000
-0.000000
-0.000000
-0.000000
-0.000000
-0.000000
-0.000000
-0.000000
0.634766
-0.000000
0.075928
0.189819
0.256348
-0.000000
-0.000000
-0.000000
-0.000000
-0.000000
-0.000000
-0.000000
-0.000000
-0.000000
0.553223
-0.000000
-0.000000
0.008080
-0.000000
-0.000000
0.003662
-0.000000
0.506836
-0.000000
0.050293
-0.000000
-0.000000
-0.000000
-0.000000
-0.000000
-0.000000
-0.000000
0.707520
-0.000000
0.645508
-0.000000
-0.000000
-0.000000
-0.000000
-0.000000
0.294678
0.107361
0.593262
-0.000000
-0.000000
-0.000000
0.256592
-0.000000
0.854004
0.051758
-0.000000
0.473389
-0.000000
-0.000000
-0.000000
-0.000000
-0.000000
-0.000000
0.566895
-0.000000
0.013672
0.557129
-0.000000
0.536133
-0.000000
-0.000000
-0.000000
-0.000000
1.729492
-0.000000
-0.000000
0.021545
-0.000000
-0.000000
-0.000000
-0.000000
-0.000000
-0.000000
-0.000000
-0.000000
-0.000000
-0.000000
0.442383
-0.000000
-0.000000
0.021164
1.303711
-0.000000
-0.000000
0.707520
-0.000000
-0.000000
-0.000000
-0.000000
0.214722
-0.000000
-0.000000
-0.000000
-0.000000
-0.000000
-0.000000
0.151367
0.924805
-0.000000
-0.000000
0.637207
-0.000000
-0.000000
-0.000000
-0.000000
-0.000000
-0.000000
0.079773
-0.000000
-0.000000
-0.000000
-0.000000
1.087891
-0.000000
-0.000000
-0.000000
0.778809
-0.000000
1.125000
0.139893
-0.000000
-0.000000
-0.000000
0.494873
-0.000000
0.916992
-0.000000
-0.000000
0.138428
0.024902
0.061371
-0.000000
-0.000000
-0.000000
-0.000000
-0.000000
-0.000000
0.100403
-0.000000
1.139648
0.126343
0.162476
-0.000000
-0.000000
0.389648
-0.000000
-0.000000
-0.000000
0.566895
-0.000000
0.166870
-0.000000
-0.000000
-0.000000
-0.000000
-0.000000
-0.000000
-0.000000
1.375000
-0.000000
0.080322
-0.000000
-0.000000
-0.000000
0.012512
-0.000000
-0.000000
-0.000000
-0.000000
0.005737
0.175537
0.146973
-0.000000
0.057190
-0.000000
0.078247
0.461670
0.206421
-0.000000
-0.000000
-0.000000
-0.000000
-0.000000
0.958008
-0.000000
-0.000000
-0.000000
0.233398
-0.000000
0.467773
1.395508
-0.000000
-0.000000
-0.000000
-0.000000
-0.000000
-0.000000
-0.000000
0.201904
-0.000000
-0.000000
-0.000000
-0.000000
-0.000000
2.119141
0.125366
0.339600
0.717773
-0.000000
-0.000000
0.378662
-0.000000
0.207031
-0.000000
-0.000000
-0.000000
0.390625
-0.000000
-0.000000
-0.000000
-0.000000
-0.000000
0.004700
-0.000000
-0.000000
-0.000000
-0.000000
-0.000000
0.078979
-0.000000
-0.000000
0.002136
-0.000000
0.990234
0.227661
-0.000000
-0.000000
-0.000000
0.619629
-0.000000
-0.000000
-0.000000
0.080322
0.958984
-0.000000
-0.000000
-0.000000
-0.000000
0.181152
0.090637
-0.000000
-0.000000
0.737305
-0.000000
-0.000000
0.132935
-0.000000
-0.000000
-0.000000
-0.000000
-0.000000
-0.000000
-0.000000
-0.000000
-0.000000
-0.000000
-0.000000
-0.000000
-0.000000
-0.000000
0.249146
-0.000000
-0.000000
-0.000000
-0.000000
-0.000000
-0.000000
-0.000000
-0.000000
-0.000000
-0.000000
1.149414
1.564453
-0.000000
-0.000000
0.004913
-0.000000
-0.000000
-0.000000
0.400146
-0.000000
-0.000000
-0.000000
-0.000000
0.107300
0.429199
-0.000000
0.016541
0.073181
-0.000000
-0.000000
-0.000000
-0.000000
-0.000000
-0.000000
1.054688
-0.000000
-0.000000
-0.000000
-0.000000
-0.000000
-0.000000
-0.000000
0.150024
-0.000000
-0.000000
-0.000000
-0.000000
-0.000000
0.191284
-0.000000
0.228149
-0.000000
-0.000000
-0.000000
-0.000000
-0.000000
-0.000000
-0.000000
-0.000000
-0.000000
-0.000000
0.090210
-0.000000
0.187500
0.102844
-0.000000
-0.000000
-0.000000
-0.000000
-0.000000
0.154785
-0.000000
0.536621
-0.000000
0.042633
-0.000000
-0.000000
-0.000000
-0.000000
-0.000000
-0.000000
-0.000000
-0.000000
-0.000000
-0.000000
-0.000000
0.248291
0.095703
0.814941
-0.000000
-0.000000
0.849609
0.286377
0.633301
-0.000000
-0.000000
0.432373
-0.000000
-0.000000
-0.000000
-0.000000
-0.000000
-0.000000
0.153564
-0.000000
-0.000000
0.538574
-0.000000
0.101807
0.035370
-0.000000
-0.000000
-0.000000
-0.000000
-0.000000
-0.000000
1.025391
-0.000000
0.082153
-0.000000
1.164062
-0.000000
0.077698
0.062378
-0.000000
-0.000000
-0.000000
-0.000000
-0.000000
-0.000000
-0.000000
0.091492
0.026688
0.543457
-0.000000
-0.000000
-0.000000
-0.000000
0.013428
-0.000000
-0.000000
-0.000000
-0.000000
0.624512
1.302734
0.050781
-0.000000
0.999023
-0.000000
-0.000000
-0.000000
0.208374
0.082642
0.159424
0.466064
-0.000000
2.113281
0.868164
0.770020
-0.000000
-0.000000
-0.000000
2.390625
