-0.000000
0.268555
-0.000000
-0.000000
0.056488
-0.000000
0.006920
0.380127
-0.000000
-0.000000
-0.000000
-0.000000
-0.000000
0.063965
-0.000000
-0.000000
-0.000000
-0.000000
-0.000000
-0.000000
0.106750
-0.000000
0.449951
-0.000000
0.168823
0.320801
-0.000000
-0.000000
-0.000000
0.025696
-0.000000
-0.000000
-0.000000
-0.000000
-0.000000
-0.000000
-0.000000
0.819336
-0.000000
-0.000000
0.509277
-0.000000
-0.000000
-0.000000
-0.000000
-0.000000
0.436279
-0.000000
0.128540
-0.000000
-0.000000
-0.000000
-0.000000
0.015236
-0.000000
-0.000000
0.368408
0.325928
-0.000000
0.114014
0.195801
-0.000000
0.028870
-0.000000
-0.000000
0.118530
-0.000000
-0.000000
-0.000000
1.739258
-0.000000
-0.000000
-0.000000
0.108093
-0.000000
-0.000000
0.125610
-0.000000
-0.000000
1.777344
-0.000000
0.322021
0.317871
-0.000000
0.562500
0.441406
-0.000000
-0.000000
-0.000000
-0.000000
-0.000000
0.027649
0.001343
-0.000000
0.081299
-0.000000
-0.000000
-0.000000
-0.000000
0.855957
-0.000000
-0.000000
-0.000000
-0.000000
-0.000000
-0.000000
-0.000000
-0.000000
-0.000000
0.635742
0.520020
0.294922
-0.000000
0.227417
-0.000000
0.322754
-0.000000
0.200195
-0.000000
-0.000000
0.341064
-0.000000
-0.000000
-0.000000
-0.000000
0.008560
0.686523
-0.000000
-0.000000
0.316162
-0.000000
-0.000000
0.071655
-0.000000
-0.000000
-0.000000
-0.000000
0.309326
0.651855
-0.000000
-0.000000
-0.000000
-0.000000
0.017853
-0.000000
-0.000000
-0.000000
0.250977
-0.000000
-0.000000
-0.000000
1.333984
0.655273
-0.000000
-0.000000
-0.000000
0.446777
0.034058
-0.000000
-0.000000
1.123047
-0.000000
-0.000000
-0.000000
-0.000000
-0.000000
-0.000000
0.005829
-0.000000
-0.000000
0.112122
0.398926
-0.000000
-0.000000
-0.000000
-0.000000
0.083740
-0.000000
0.160400
0.896973
-0.000000
-0.000000
-0.000000
0.007935
-0.000000
-0.000000
-0.000000
-0.000000
-0.000000
-0.000000
-0.000000
-0.000000
0.145020
-0.000000
0.488770
0.287842
-0.000000
-0.000000
-0.000000
1.058594
-0.000000
-0.000000
-0.000000
0.233154
0.283691
-0.000000
0.033508
-0.000000
0.052704
-0.000000
-0.000000
0.099976
0.133911
-0.000000
-0.000000
-0.000000
0.072998
0.182983
1.070312
-0.000000
-0.000000
1.171875
-0.000000
-0.000000
0.025879
-0.000000
1.319336
-0.000000
-0.000000
-0.000000
-0.000000
-0.000000
1.164062
1.129883
-0.000000
-0.000000
-0.000000
-0.000000
0.962402
-0.000000
-0.000000
0.028534
0.110779
0.239868
0.001282
0.211792
-0.000000
-0.000000
-0.000000
-0.000000
0.017944
0.030029
-0.000000
0.118774
0.001999
0.302734
0.111633
-0.000000
-0.000000
-0.000000
0.306152
-0.000000
0.122253
0.792969
0.017853
-0.000000
-0.000000
-0.000000
-0.000000
-0.000000
-0.000000
0.092163
0.101685
-0.000000
-0.000000
0.074707
-0.000000
0.012329
-0.000000
0.562012
-0.000000
1.416992
0.127686
-0.000000
-0.000000
-0.000000
0.089294
1.325195
-0.000000
0.145020
-0.000000
-0.000000
-0.000000
-0.000000
-0.000000
-0.000000
0.022476
-0.000000
0.092529
0.536133
-0.000000
1.060547
0.198975
0.097778
-0.000000
-0.000000
-0.000000
0.434326
-0.000000
0.072571
-0.000000
0.026428
-0.000000
-0.000000
-0.000000
-0.000000
-0.000000
1.340820
-0.000000
1.710938
-0.000000
-0.000000
-0.000000
-0.000000
-0.000000
-0.000000
0.589844
-0.000000
0.151733
1.482422
-0.000000
0.055267
-0.000000
0.976562
-0.000000
-0.000000
-0.000000
0.152588
0.604492
-0.000000
-0.000000
-0.000000
0.589844
0.039856
2.273438
-0.000000
-0.000000
0.721191
-0.000000
-0.000000
1.041992
0.094055
-0.000000
-0.000000
-0.000000
-0.000000
0.407715
0.958984
-0.000000
-0.000000
-0.000000
-0.000000
-0.000000
-0.000000
-0.000000
-0.000000
0.572754
-0.000000
0.229248
0.420166
-0.000000
-0.000000
1.071289
-0.000000
-0.000000
-0.000000
-0.000000
-0.000000
-0.000000
-0.000000
0.389404
-0.000000
-0.000000
0.061249
-0.000000
-0.000000
1.225586
0.266357
-0.000000
-0.000000
-0.000000
-0.000000
-0.000000
0.320557
-0.000000
-0.000000
-0.000000
-0.000000
0.088440
0.038849
0.181396
0.398438
-0.000000
-0.000000
-0.000000
0.266113
-0.000000
-0.000000
-0.000000
-0.000000
-0.000000
-0.000000
-0.000000
-0.000000
-0.000000
-0.000000
0.539062
-0.000000
0.052521
0.939941
-0.000000
0.456543
-0.000000
0.362793
-0.000000
-0.000000
-0.000000
0.320801
0.143799
-0.000000
0.524902
-0.000000
-0.000000
-0.000000
-0.000000
-0.000000
0.799805
-0.000000
-0.000000
-0.000000
-0.000000
0.011948
0.585449
-0.000000
0.021576
0.023041
-0.000000
-0.000000
-0.000000
-0.000000
-0.000000
-0.000000
-0.000000
0.286621
0.415771
-0.000000
-0.000000
0.000580
0.495361
0.442139
-0.000000
0.100098
-0.000000
-0.000000
-0.000000
0.009094
-0.000000
-0.000000
-0.000000
-0.000000
-0.000000
0.092224
-0.000000
-0.000000
0.318848
-0.000000
-0.000000
-0.000000
0.677246
-0.000000
-0.000000
-0.000000
-0.000000
-0.000000
-0.000000
-0.000000
-0.000000
-0.000000
-0.000000
-0.000000
-0.000000
0.602051
-0.000000
-0.000000
-0.000000
-0.000000
-0.000000
-0.000000
-0.000000
-0.000000
