-0.000000
-0.000000
-0.000000
0.692383
-0.000000
-0.000000
0.267334
-0.000000
-0.000000
-0.000000
-0.000000
-0.000000
-0.000000
0.778809
-0.000000
-0.000000
-0.000000
-0.000000
-0.000000
-0.000000
1.367188
-0.000000
0.580566
0.653809
-0.000000
1.224609
-0.000000
-0.000000
-0.000000
1.033203
-0.000000
-0.000000
0.655273
-0.000000
-0.000000
-0.000000
-0.000000
0.910156
-0.000000
-0.000000
-0.000000
2.982422
-0.000000
-0.000000
-0.000000
0.121460
-0.000000
-0.000000
0.210449
-0.000000
-0.000000
-0.000000
-0.000000
0.158325
-0.000000
-0.000000
0.156372
-0.000000
-0.000000
0.468262
0.018204
0.462646
-0.000000
0.054565
0.009491
0.063477
-0.000000
-0.000000
-0.000000
-0.000000
-0.000000
-0.000000
-0.000000
1.740234
-0.000000
-0.000000
-0.000000
-0.000000
-0.000000
0.179688
-0.000000
-0.000000
-0.000000
0.030212
0.375488
-0.000000
-0.000000
-0.000000
-0.000000
-0.000000
-0.000000
0.370117
0.132935
-0.000000
0.121826
-0.000000
0.289795
-0.000000
-0.000000
-0.000000
-0.000000
-0.000000
0.390137
0.549316
-0.000000
-0.000000
0.144287
-0.000000
-0.000000
0.019531
-0.000000
0.758789
0.054199
0.079041
-0.000000
0.055176
-0.000000
-0.000000
-0.000000
-0.000000
0.427002
-0.000000
-0.000000
-0.000000
-0.000000
0.033997
-0.000000
-0.000000
-0.000000
0.321289
-0.000000
-0.000000
0.007996
-0.000000
-0.000000
-0.000000
-0.000000
0.412842
-0.000000
-0.000000
-0.000000
-0.000000
-0.000000
-0.000000
-0.000000
0.367188
0.467529
-0.000000
-0.000000
-0.000000
-0.000000
-0.000000
-0.000000
-0.000000
-0.000000
0.148071
-0.000000
0.542969
-0.000000
-0.000000
0.132080
-0.000000
0.197998
-0.000000
-0.000000
-0.000000
0.178589
0.509766
-0.000000
-0.000000
0.207153
-0.000000
0.045898
-0.000000
-0.000000
-0.000000
0.014648
-0.000000
0.748535
-0.000000
0.424805
-0.000000
-0.000000
-0.000000
0.047424
0.136841
-0.000000
0.191772
-0.000000
-0.000000
-0.000000
0.241333
0.436035
-0.000000
-0.000000
-0.000000
0.487549
-0.000000
-0.000000
-0.000000
0.164551
-0.000000
-0.000000
-0.000000
-0.000000
0.012329
0.104919
0.377197
-0.000000
-0.000000
0.809570
-0.000000
-0.000000
-0.000000
0.161987
-0.000000
0.052765
0.104614
0.209839
-0.000000
-0.000000
-0.000000
-0.000000
-0.000000
0.561035
-0.000000
-0.000000
-0.000000
-0.000000
-0.000000
-0.000000
-0.000000
0.362305
-0.000000
-0.000000
-0.000000
-0.000000
0.081482
1.772461
-0.000000
-0.000000
0.128418
-0.000000
0.202026
-0.000000
0.132080
-0.000000
-0.000000
-0.000000
-0.000000
0.398926
-0.000000
-0.000000
0.770996
-0.000000
-0.000000
0.567383
-0.000000
0.031494
-0.000000
2.375000
0.054199
-0.000000
-0.000000
0.138916
-0.000000
-0.000000
-0.000000
-0.000000
-0.000000
-0.000000
0.020523
0.532715
-0.000000
-0.000000
0.352295
-0.000000
0.064331
-0.000000
0.363281
-0.000000
0.293701
0.099182
-0.000000
-0.000000
-0.000000
0.402832
-0.000000
-0.000000
-0.000000
-0.000000
-0.000000
-0.000000
-0.000000
-0.000000
-0.000000
-0.000000
0.075500
-0.000000
-0.000000
-0.000000
-0.000000
-0.000000
0.613281
-0.000000
-0.000000
-0.000000
-0.000000
-0.000000
1.668945
-0.000000
-0.000000
-0.000000
-0.000000
-0.000000
-0.000000
-0.000000
-0.000000
-0.000000
-0.000000
-0.000000
-0.000000
-0.000000
0.194824
-0.000000
-0.000000
-0.000000
-0.000000
1.298828
1.273438
-0.000000
0.152222
-0.000000
-0.000000
-0.000000
-0.000000
-0.000000
0.572754
-0.000000
-0.000000
-0.000000
-0.000000
0.117554
0.297852
0.855469
0.005722
-0.000000
0.680176
0.307373
-0.000000
0.385498
-0.000000
-0.000000
-0.000000
-0.000000
-0.000000
0.977051
-0.000000
-0.000000
0.525879
-0.000000
1.392578
0.057373
0.536621
-0.000000
0.040222
-0.000000
-0.000000
0.940918
-0.000000
0.028809
0.239990
-0.000000
-0.000000
-0.000000
-0.000000
-0.000000
-0.000000
-0.000000
-0.000000
-0.000000
-0.000000
-0.000000
-0.000000
-0.000000
0.029297
-0.000000
0.324951
-0.000000
0.580078
0.442627
-0.000000
-0.000000
-0.000000
0.040039
-0.000000
-0.000000
0.039551
0.018311
-0.000000
-0.000000
0.052124
-0.000000
-0.000000
-0.000000
0.062988
0.015625
0.063965
-0.000000
1.498047
-0.000000
0.025665
-0.000000
-0.000000
0.424316
-0.000000
-0.000000
-0.000000
-0.000000
0.937988
-0.000000
-0.000000
-0.000000
0.062988
-0.000000
0.369873
-0.000000
-0.000000
-0.000000
0.307129
0.765137
-0.000000
-0.000000
-0.000000
-0.000000
-0.000000
-0.000000
-0.000000
-0.000000
-0.000000
-0.000000
0.044128
-0.000000
1.072266
-0.000000
-0.000000
-0.000000
-0.000000
-0.000000
-0.000000
-0.000000
-0.000000
-0.000000
1.346680
0.620605
-0.000000
-0.000000
1.056641
1.461914
-0.000000
-0.000000
0.192871
-0.000000
-0.000000
-0.000000
0.128540
-0.000000
-0.000000
-0.000000
-0.000000
-0.000000
0.882812
-0.000000
-0.000000
-0.000000
-0.000000
-0.000000
-0.000000
-0.000000
-0.000000
-0.000000
0.270020
0.113770
-0.000000
0.479248
-0.000000
-0.000000
-0.000000
-0.000000
-0.000000
-0.000000
0.626953
-0.000000
1.898438
-0.000000
-0.000000
-0.000000
-0.000000
-0.000000
0.632812
