-0.000000
-0.000000
-0.000000
0.585449
0.420410
0.197998
-0.000000
-0.000000
-0.000000
0.166016
-0.000000
-0.000000
-0.000000
0.028687
0.006851
-0.000000
-0.000000
-0.000000
-0.000000
-0.000000
0.387695
-0.000000
0.140869
-0.000000
0.091187
0.004898
-0.000000
-0.000000
1.767578
0.300049
-0.000000
-0.000000
-0.000000
-0.000000
0.002419
-0.000000
-0.000000
0.027161
-0.000000
-0.000000
-0.000000
-0.000000
-0.000000
-0.000000
-0.000000
-0.000000
0.267334
-0.000000
-0.000000
-0.000000
-0.000000
-0.000000
-0.000000
-0.000000
-0.000000
0.206055
-0.000000
-0.000000
-0.000000
0.335938
-0.000000
0.078003
0.889160
-0.000000
-0.000000
-0.000000
-0.000000
-0.000000
-0.000000
-0.000000
-0.000000
-0.000000
0.053802
-0.000000
-0.000000
-0.000000
0.343018
-0.000000
-0.000000
-0.000000
-0.000000
-0.000000
-0.000000
-0.000000
0.038879
-0.000000
-0.000000
-0.000000
-0.000000
-0.000000
0.507324
-0.000000
-0.000000
-0.000000
-0.000000
-0.000000
0.267578
-0.000000
0.017746
1.255859
0.104065
-0.000000
-0.000000
0.050232
0.475830
0.025558
-0.000000
-0.000000
-0.000000
-0.000000
-0.000000
0.219360
0.937012
-0.000000
-0.000000
0.029175
0.415039
-0.000000
-0.000000
0.360352
0.622559
-0.000000
-0.000000
-0.000000
-0.000000
-0.000000
0.669922
-0.000000
-0.000000
-0.000000
0.514160
-0.000000
0.368164
-0.000000
-0.000000
0.985840
0.459717
0.293213
-0.000000
-0.000000
-0.000000
-0.000000
-0.000000
-0.000000
-0.000000
-0.000000
-0.000000
-0.000000
-0.000000
0.039307
-0.000000
0.116943
-0.000000
-0.000000
-0.000000
-0.000000
-0.000000
-0.000000
0.127930
-0.000000
0.093689
-0.000000
0.163574
-0.000000
-0.000000
-0.000000
-0.000000
0.609863
0.404053
-0.000000
0.133301
0.023529
-0.000000
-0.000000
-0.000000
-0.000000
-0.000000
-0.000000
-0.000000
0.469971
-0.000000
-0.000000
-0.000000
-0.000000
0.671387
-0.000000
0.190918
0.394043
-0.000000
-0.000000
0.374023
-0.000000
-0.000000
-0.000000
0.013611
0.079346
-0.000000
-0.000000
-0.000000
-0.000000
-0.000000
-0.000000
-0.000000
0.003357
-0.000000
-0.000000
0.086731
-0.000000
0.291504
-0.000000
-0.000000
0.003174
-0.000000
-0.000000
-0.000000
0.530273
-0.000000
-0.000000
-0.000000
-0.000000
-0.000000
-0.000000
-0.000000
-0.000000
-0.000000
-0.000000
-0.000000
0.623047
0.453369
-0.000000
-0.000000
-0.000000
0.181763
-0.000000
-0.000000
0.606934
-0.000000
-0.000000
0.347656
-0.000000
-0.000000
-0.000000
0.258301
-0.000000
0.502441
-0.000000
-0.000000
0.120361
-0.000000
-0.000000
0.069824
0.140381
-0.000000
0.480713
-0.000000
-0.000000
0.109192
-0.000000
-0.000000
-0.000000
-0.000000
-0.000000
-0.000000
0.756836
0.250488
-0.000000
0.457275
-0.000000
-0.000000
-0.000000
-0.000000
-0.000000
-0.000000
-0.000000
-0.000000
-0.000000
0.147949
-0.000000
0.334961
-0.000000
-0.000000
0.437256
-0.000000
-0.000000
0.912598
0.611816
-0.000000
-0.000000
-0.000000
-0.000000
0.065613
-0.000000
-0.000000
-0.000000
0.134399
-0.000000
-0.000000
0.149780
0.010132
-0.000000
-0.000000
-0.000000
-0.000000
-0.000000
-0.000000
-0.000000
-0.000000
-0.000000
0.169922
-0.000000
-0.000000
-0.000000
0.329102
-0.000000
0.154053
-0.000000
0.040466
0.116089
-0.000000
-0.000000
-0.000000
-0.000000
-0.000000
-0.000000
-0.000000
-0.000000
-0.000000
-0.000000
-0.000000
0.471680
-0.000000
-0.000000
-0.000000
-0.000000
-0.000000
-0.000000
-0.000000
0.596680
-0.000000
0.243042
-0.000000
-0.000000
-0.000000
0.087708
0.166870
-0.000000
-0.000000
0.937012
-0.000000
-0.000000
-0.000000
-0.000000
-0.000000
-0.000000
-0.000000
0.914551
-0.000000
0.759766
-0.000000
0.707520
-0.000000
-0.000000
1.289062
-0.000000
-0.000000
-0.000000
-0.000000
0.033936
1.514648
-0.000000
-0.000000
0.536621
1.061523
-0.000000
-0.000000
-0.000000
-0.000000
-0.000000
-0.000000
-0.000000
-0.000000
-0.000000
-0.000000
0.032257
-0.000000
-0.000000
-0.000000
-0.000000
0.219482
-0.000000
-0.000000
-0.000000
0.013245
0.418701
-0.000000
-0.000000
-0.000000
-0.000000
-0.000000
-0.000000
-0.000000
-0.000000
-0.000000
-0.000000
-0.000000
-0.000000
-0.000000
0.228394
-0.000000
-0.000000
0.492432
-0.000000
0.717285
-0.000000
0.338867
-0.000000
1.208008
-0.000000
-0.000000
0.094971
-0.000000
0.282227
-0.000000
0.176880
-0.000000
-0.000000
-0.000000
-0.000000
1.001953
-0.000000
0.498047
-0.000000
-0.000000
-0.000000
-0.000000
-0.000000
-0.000000
-0.000000
0.011459
-0.000000
-0.000000
-0.000000
-0.000000
0.110168
-0.000000
-0.000000
0.091187
-0.000000
0.006714
-0.000000
-0.000000
-0.000000
-0.000000
-0.000000
0.286865
-0.000000
-0.000000
-0.000000
0.053101
0.642090
-0.000000
-0.000000
-0.000000
-0.000000
-0.000000
-0.000000
-0.000000
-0.000000
-0.000000
-0.000000
0.547852
-0.000000
-0.000000
-0.000000
-0.000000
-0.000000
-0.000000
0.233643
1.585938
-0.000000
-0.000000
-0.000000
0.389404
-0.000000
-0.000000
-0.000000
-0.000000
-0.000000
0.238403
0.026367
-0.000000
0.172852
0.113525
-0.000000
-0.000000
0.458008
-0.000000
-0.000000
-0.000000
0.523926
