-0.000000
0.477783
-0.000000
-0.000000
2.421875
0.467041
-0.000000
-0.000000
-0.000000
-0.000000
-0.000000
-0.000000
-0.000000
-0.000000
0.028870
-0.000000
-0.000000
-0.000000
0.044189
-0.000000
-0.000000
-0.000000
-0.000000
-0.000000
-0.000000
-0.000000
0.586914
-0.000000
0.113037
2.183594
-0.000000
-0.000000
-0.000000
-0.000000
-0.000000
-0.000000
-0.000000
-0.000000
-0.000000
0.130127
-0.000000
-0.000000
-0.000000
-0.000000
-0.000000
0.124268
-0.000000
-0.000000
-0.000000
-0.000000
-0.000000
0.223877
-0.000000
-0.000000
-0.000000
-0.000000
-0.000000
-0.000000
-0.000000
0.283203
-0.000000
-0.000000
0.608398
-0.000000
-0.000000
0.730957
-0.000000
-0.000000
-0.000000
-0.000000
-0.000000
-0.000000
-0.000000
-0.000000
-0.000000
0.155762
0.304443
-0.000000
0.015854
-0.000000
-0.000000
-0.000000
-0.000000
-0.000000
0.465820
-0.000000
-0.000000
0.102539
0.159912
-0.000000
1.062500
-0.000000
-0.000000
0.206055
1.565430
0.091370
0.091736
-0.000000
-0.000000
-0.000000
0.152100
-0.000000
0.354980
2.115234
0.177734
-0.000000
-0.000000
-0.000000
-0.000000
0.057861
-0.000000
-0.000000
-0.000000
-0.000000
-0.000000
0.015442
0.376953
2.251953
-0.000000
0.136108
0.218750
0.078796
-0.000000
-0.000000
-0.000000
-0.000000
-0.000000
-0.000000
-0.000000
-0.000000
1.750977
-0.000000
-0.000000
-0.000000
-0.000000
0.768066
-0.000000
0.327393
-0.000000
-0.000000
-0.000000
-0.000000
-0.000000
-0.000000
-0.000000
-0.000000
-0.000000
-0.000000
-0.000000
-0.000000
0.163330
-0.000000
-0.000000
-0.000000
-0.000000
0.317871
0.059021
-0.000000
0.407227
-0.000000
-0.000000
0.326416
0.091248
0.225708
-0.000000
-0.000000
-0.000000
-0.000000
1.556641
-0.000000
-0.000000
0.499512
-0.000000
-0.000000
0.032837
-0.000000
0.042603
0.554688
-0.000000
-0.000000
-0.000000
-0.000000
-0.000000
-0.000000
-0.000000
-0.000000
0.805664
-0.000000
-0.000000
-0.000000
0.814453
0.144531
-0.000000
-0.000000
-0.000000
-0.000000
-0.000000
-0.000000
-0.000000
-0.000000
0.464111
0.130493
-0.000000
-0.000000
-0.000000
-0.000000
-0.000000
-0.000000
0.152954
-0.000000
-0.000000
0.303467
0.073303
0.062134
-0.000000
0.039307
0.967773
0.333252
-0.000000
0.751465
-0.000000
0.109863
-0.000000
-0.000000
-0.000000
-0.000000
-0.000000
-0.000000
-0.000000
1.694336
0.186035
-0.000000
0.040588
0.057007
-0.000000
-0.000000
-0.000000
-0.000000
0.010315
0.341309
1.342773
0.174194
0.361816
0.132935
1.417969
-0.000000
-0.000000
0.389648
-0.000000
0.512207
0.008423
-0.000000
-0.000000
-0.000000
-0.000000
1.028320
0.180664
-0.000000
0.231445
-0.000000
-0.000000
0.293701
0.348877
0.262695
-0.000000
0.037842
-0.000000
-0.000000
-0.000000
-0.000000
-0.000000
-0.000000
1.161133
0.061554
-0.000000
1.727539
-0.000000
-0.000000
-0.000000
-0.000000
-0.000000
-0.000000
-0.000000
-0.000000
0.781250
0.754883
-0.000000
-0.000000
0.021790
-0.000000
2.019531
0.726074
-0.000000
-0.000000
-0.000000
-0.000000
0.575684
0.223511
-0.000000
-0.000000
-0.000000
-0.000000
0.066284
0.119019
-0.000000
0.334473
0.007690
0.007446
0.060242
-0.000000
0.020813
0.163208
2.226562
-0.000000
-0.000000
0.123352
0.207642
-0.000000
-0.000000
-0.000000
-0.000000
-0.000000
-0.000000
0.375000
-0.000000
-0.000000
-0.000000
-0.000000
-0.000000
0.440430
-0.000000
-0.000000
-0.000000
-0.000000
-0.000000
-0.000000
-0.000000
-0.000000
-0.000000
-0.000000
-0.000000
-0.000000
0.211914
1.700195
-0.000000
-0.000000
-0.000000
-0.000000
1.017578
-0.000000
0.092102
-0.000000
-0.000000
-0.000000
-0.000000
-0.000000
2.310547
0.741211
-0.000000
0.242310
-0.000000
-0.000000
1.174805
-0.000000
-0.000000
-0.000000
-0.000000
-0.000000
-0.000000
-0.000000
-0.000000
2.195312
-0.000000
0.739746
0.967773
-0.000000
-0.000000
-0.000000
-0.000000
0.987793
-0.000000
-0.000000
0.066956
-0.000000
0.906250
-0.000000
-0.000000
0.407471
1.448242
0.430664
0.333984
-0.000000
0.070374
1.583984
-0.000000
0.156494
-0.000000
-0.000000
-0.000000
-0.000000
0.263428
-0.000000
-0.000000
-0.000000
0.013000
0.253174
-0.000000
-0.000000
-0.000000
1.233398
-0.000000
-0.000000
-0.000000
-0.000000
-0.000000
-0.000000
-0.000000
-0.000000
0.393555
-0.000000
-0.000000
-0.000000
-0.000000
-0.000000
1.505859
-0.000000
-0.000000
-0.000000
0.638672
1.104492
-0.000000
-0.000000
-0.000000
0.412842
-0.000000
-0.000000
-0.000000
-0.000000
-0.000000
-0.000000
-0.000000
-0.000000
0.500488
0.076355
-0.000000
-0.000000
-0.000000
-0.000000
1.124023
0.673340
-0.000000
-0.000000
-0.000000
-0.000000
-0.000000
0.116882
2.318359
-0.000000
-0.000000
0.452637
-0.000000
-0.000000
-0.000000
-0.000000
-0.000000
-0.000000
-0.000000
-0.000000
-0.000000
-0.000000
-0.000000
-0.000000
0.506348
-0.000000
0.242065
-0.000000
-0.000000
0.961914
-0.000000
-0.000000
-0.000000
-0.000000
0.298096
-0.000000
-0.000000
-0.000000
-0.000000
-0.000000
0.057556
0.000061
-0.000000
-0.000000
1.246094
-0.000000
-0.000000
-0.000000
-0.000000
-0.000000
-0.000000
-0.000000
