-0.000000
0.279785
-0.000000
1.261719
-0.000000
1.333984
-0.000000
0.944336
-0.000000
-0.000000
-0.000000
-0.000000
-0.000000
1.051758
-0.000000
-0.000000
0.165283
-0.000000
0.490723
-0.000000
0.643555
-0.000000
-0.000000
0.248901
0.028107
0.141113
0.063049
-0.000000
-0.000000
-0.000000
-0.000000
-0.000000
0.127319
0.085815
-0.000000
-0.000000
0.424805
-0.000000
0.002625
-0.000000
-0.000000
0.262207
0.426758
1.420898
-0.000000
0.119629
-0.000000
-0.000000
-0.000000
-0.000000
-0.000000
0.997070
-0.000000
-0.000000
-0.000000
0.971680
-0.000000
0.024658
-0.000000
1.079102
-0.000000
1.572266
0.984863
-0.000000
-0.000000
-0.000000
-0.000000
-0.000000
-0.000000
-0.000000
-0.000000
-0.000000
0.404297
-0.000000
-0.000000
2.019531
0.913574
-0.000000
-0.000000
-0.000000
-0.000000
0.502930
-0.000000
-0.000000
-0.000000
0.050201
-0.000000
-0.000000
-0.000000
-0.000000
1.567383
0.060089
-0.000000
0.140015
-0.000000
-0.000000
0.035400
-0.000000
0.041718
-0.000000
-0.000000
-0.000000
0.497070
-0.000000
2.333984
0.668945
-0.000000
-0.000000
0.004974
-0.000000
-0.000000
-0.000000
-0.000000
0.103821
0.313721
-0.000000
0.753906
-0.000000
-0.000000
0.291748
-0.000000
-0.000000
-0.000000
-0.000000
-0.000000
0.128906
1.205078
-0.000000
-0.000000
0.703613
-0.000000
-0.000000
-0.000000
-0.000000
-0.000000
0.238647
-0.000000
-0.000000
0.686523
-0.000000
0.088196
-0.000000
-0.000000
-0.000000
-0.000000
-0.000000
-0.000000
1.824219
-0.000000
-0.000000
0.583496
0.581543
-0.000000
-0.000000
-0.000000
-0.000000
-0.000000
-0.000000
1.752930
-0.000000
1.709961
-0.000000
-0.000000
0.948242
-0.000000
-0.000000
0.076416
-0.000000
0.305908
-0.000000
0.273682
-0.000000
-0.000000
0.111511
0.071960
-0.000000
-0.000000
-0.000000
-0.000000
-0.000000
-0.000000
-0.000000
-0.000000
-0.000000
-0.000000
-0.000000
0.143921
0.719727
-0.000000
0.450684
-0.000000
-0.000000
0.246826
-0.000000
0.182373
-0.000000
-0.000000
-0.000000
-0.000000
-0.000000
-0.000000
0.366699
-0.000000
-0.000000
-0.000000
0.302002
-0.000000
0.166870
-0.000000
-0.000000
-0.000000
-0.000000
-0.000000
0.064880
-0.000000
1.256836
-0.000000
-0.000000
-0.000000
-0.000000
-0.000000
-0.000000
-0.000000
-0.000000
-0.000000
-0.000000
-0.000000
-0.000000
-0.000000
0.835449
0.422119
-0.000000
1.056641
-0.000000
-0.000000
-0.000000
0.728516
-0.000000
-0.000000
0.912598
0.024475
0.759277
0.527832
-0.000000
0.083252
-0.000000
-0.000000
0.607910
-0.000000
-0.000000
-0.000000
0.418945
-0.000000
-0.000000
0.046997
-0.000000
0.001526
-0.000000
1.184570
-0.000000
-0.000000
0.511719
-0.000000
1.005859
0.025970
-0.000000
-0.000000
-0.000000
-0.000000
-0.000000
1.253906
0.117249
-0.000000
0.475098
-0.000000
2.263672
-0.000000
-0.000000
-0.000000
-0.000000
-0.000000
-0.000000
-0.000000
-0.000000
2.156250
2.572266
0.459717
-0.000000
-0.000000
0.012268
-0.000000
0.430908
-0.000000
-0.000000
0.578613
-0.000000
-0.000000
0.064880
0.154541
-0.000000
-0.000000
-0.000000
0.048218
-0.000000
0.290527
0.345703
-0.000000
-0.000000
0.631836
-0.000000
0.008698
0.095032
0.611816
-0.000000
0.300537
-0.000000
0.715820
-0.000000
0.357910
-0.000000
-0.000000
0.280273
-0.000000
-0.000000
-0.000000
-0.000000
-0.000000
-0.000000
-0.000000
0.187256
-0.000000
0.061737
-0.000000
-0.000000
-0.000000
-0.000000
0.214844
-0.000000
-0.000000
-0.000000
-0.000000
-0.000000
-0.000000
0.058411
-0.000000
-0.000000
-0.000000
0.522949
-0.000000
-0.000000
0.128906
0.192749
-0.000000
-0.000000
-0.000000
0.691895
-0.000000
-0.000000
-0.000000
-0.000000
-0.000000
-0.000000
0.334473
0.276611
-0.000000
0.006287
0.556641
0.109436
0.072449
-0.000000
0.077820
0.259033
-0.000000
0.651367
1.067383
-0.000000
-0.000000
-0.000000
-0.000000
1.073242
0.750000
-0.000000
-0.000000
-0.000000
1.594727
-0.000000
-0.000000
-0.000000
-0.000000
-0.000000
0.414795
-0.000000
0.062744
0.149170
0.074707
0.070190
-0.000000
-0.000000
-0.000000
0.133423
-0.000000
-0.000000
-0.000000
-0.000000
-0.000000
-0.000000
0.493164
0.155518
0.072388
1.001953
0.192627
0.538574
0.418945
-0.000000
1.169922
-0.000000
-0.000000
-0.000000
-0.000000
-0.000000
-0.000000
-0.000000
-0.000000
0.030899
-0.000000
-0.000000
-0.000000
-0.000000
-0.000000
0.058105
-0.000000
-0.000000
-0.000000
0.122620
-0.000000
-0.000000
-0.000000
-0.000000
-0.000000
-0.000000
-0.000000
-0.000000
0.292969
0.126709
-0.000000
0.054993
-0.000000
-0.000000
1.568359
-0.000000
-0.000000
-0.000000
-0.000000
-0.000000
-0.000000
0.054230
-0.000000
0.220581
0.480713
1.130859
-0.000000
1.185547
-0.000000
-0.000000
0.435303
0.047546
-0.000000
-0.000000
-0.000000
-0.000000
-0.000000
0.123230
-0.000000
-0.000000
-0.000000
-0.000000
-0.000000
-0.000000
0.122437
-0.000000
-0.000000
-0.000000
0.773438
-0.000000
0.081665
-0.000000
-0.000000
-0.000000
0.127563
0.196899
0.041077
-0.000000
0.411377
-0.000000
-0.000000
-0.000000
-0.000000
-0.000000
-0.000000
0.390625
