-0.000000
0.324219
-0.000000
-0.000000
0.081360
0.036865
0.009178
0.139648
-0.000000
-0.000000
-0.000000
-0.000000
-0.000000
-0.000000
-0.000000
-0.000000
-0.000000
-0.000000
-0.000000
-0.000000
0.100159
-0.000000
0.310791
-0.000000
0.150024
0.251709
-0.000000
-0.000000
-0.000000
0.086487
-0.000000
-0.000000
-0.000000
-0.000000
-0.000000
-0.000000
-0.000000
0.647949
-0.000000
-0.000000
0.560547
-0.000000
-0.000000
-0.000000
-0.000000
-0.000000
0.590332
-0.000000
0.138062
-0.000000
-0.000000
0.086182
-0.000000
0.016632
-0.000000
0.081116
0.143799
0.219482
-0.000000
-0.000000
0.218506
-0.000000
0.278809
-0.000000
-0.000000
0.123169
-0.000000
-0.000000
-0.000000
1.608398
-0.000000
-0.000000
0.021072
-0.000000
-0.000000
-0.000000
-0.000000
-0.000000
0.001324
1.703125
-0.000000
0.307129
0.336182
-0.000000
0.571777
0.369141
-0.000000
0.015594
-0.000000
-0.000000
-0.000000
0.051147
0.256592
-0.000000
-0.000000
-0.000000
0.014526
-0.000000
-0.000000
0.756348
0.186523
-0.000000
-0.000000
0.224731
-0.000000
-0.000000
-0.000000
-0.000000
-0.000000
0.607422
0.261719
0.589355
0.138184
0.175659
-0.000000
0.215088
-0.000000
-0.000000
-0.000000
-0.000000
0.371582
-0.000000
-0.000000
-0.000000
-0.000000
-0.000000
0.982910
-0.000000
-0.000000
0.169678
-0.000000
-0.000000
0.114014
-0.000000
-0.000000
-0.000000
-0.000000
0.166382
0.310303
-0.000000
-0.000000
-0.000000
-0.000000
0.025024
-0.000000
-0.000000
-0.000000
0.179688
-0.000000
-0.000000
-0.000000
1.383789
0.881836
-0.000000
-0.000000
-0.000000
0.905273
-0.000000
-0.000000
-0.000000
1.161133
-0.000000
-0.000000
-0.000000
-0.000000
-0.000000
-0.000000
-0.000000
-0.000000
-0.000000
0.081665
0.170654
-0.000000
0.062927
-0.000000
-0.000000
0.032471
-0.000000
0.000977
1.121094
-0.000000
-0.000000
-0.000000
0.019653
0.019424
-0.000000
-0.000000
-0.000000
-0.000000
-0.000000
-0.000000
-0.000000
0.130859
-0.000000
0.419922
0.201782
-0.000000
-0.000000
-0.000000
1.104492
0.133789
-0.000000
-0.000000
0.241333
0.261719
-0.000000
0.043884
0.041351
-0.000000
-0.000000
-0.000000
0.135132
0.143188
-0.000000
-0.000000
-0.000000
-0.000000
-0.000000
1.165039
-0.000000
-0.000000
1.359375
-0.000000
-0.000000
0.088989
-0.000000
1.078125
0.064453
-0.000000
-0.000000
-0.000000
-0.000000
1.090820
1.097656
-0.000000
0.706543
-0.000000
-0.000000
0.959473
-0.000000
-0.000000
-0.000000
0.056122
0.169922
0.020630
0.038940
-0.000000
-0.000000
-0.000000
-0.000000
0.075073
-0.000000
-0.000000
0.218140
-0.000000
0.293213
0.080505
-0.000000
-0.000000
-0.000000
0.489014
-0.000000
0.398438
0.671387
0.063843
-0.000000
-0.000000
-0.000000
-0.000000
-0.000000
-0.000000
0.049133
0.102173
-0.000000
-0.000000
0.223145
0.034424
-0.000000
0.104431
0.357422
-0.000000
1.417969
0.130615
-0.000000
-0.000000
-0.000000
-0.000000
0.979492
-0.000000
0.128174
-0.000000
-0.000000
-0.000000
-0.000000
-0.000000
-0.000000
0.182373
-0.000000
0.039917
0.503906
-0.000000
1.006836
0.139648
0.209473
-0.000000
-0.000000
-0.000000
0.485596
-0.000000
0.080627
-0.000000
-0.000000
-0.000000
-0.000000
-0.000000
-0.000000
0.069519
1.102539
-0.000000
1.509766
-0.000000
-0.000000
-0.000000
0.104736
-0.000000
-0.000000
0.679688
-0.000000
0.115601
1.760742
-0.000000
0.009674
-0.000000
0.896973
-0.000000
-0.000000
-0.000000
0.406494
0.655273
-0.000000
-0.000000
-0.000000
0.550781
0.161621
2.541016
-0.000000
-0.000000
0.596680
-0.000000
-0.000000
1.112305
-0.000000
-0.000000
-0.000000
-0.000000
-0.000000
0.556152
0.424316
-0.000000
-0.000000
0.060638
-0.000000
0.015869
-0.000000
-0.000000
-0.000000
0.354248
-0.000000
0.375000
1.019531
-0.000000
-0.000000
0.947266
-0.000000
-0.000000
-0.000000
-0.000000
0.006226
-0.000000
-0.000000
0.186157
-0.000000
-0.000000
0.028412
-0.000000
-0.000000
0.879883
-0.000000
0.110596
-0.000000
-0.000000
-0.000000
-0.000000
0.308350
-0.000000
-0.000000
-0.000000
-0.000000
0.049988
-0.000000
0.018799
0.283936
-0.000000
-0.000000
-0.000000
0.340820
-0.000000
0.074829
-0.000000
-0.000000
-0.000000
-0.000000
-0.000000
-0.000000
-0.000000
-0.000000
0.871094
-0.000000
0.130493
0.950684
-0.000000
0.315430
-0.000000
0.170776
-0.000000
-0.000000
-0.000000
0.312744
0.191650
-0.000000
0.288086
-0.000000
-0.000000
-0.000000
-0.000000
-0.000000
0.610352
-0.000000
-0.000000
-0.000000
-0.000000
-0.000000
-0.000000
0.136719
0.040894
0.007378
-0.000000
-0.000000
0.044067
-0.000000
-0.000000
-0.000000
-0.000000
0.058105
0.373047
-0.000000
-0.000000
0.261230
0.499268
0.428711
-0.000000
0.082458
-0.000000
-0.000000
-0.000000
0.021774
-0.000000
-0.000000
-0.000000
-0.000000
-0.000000
0.078796
-0.000000
-0.000000
0.406494
-0.000000
-0.000000
-0.000000
0.949707
-0.000000
-0.000000
0.193604
-0.000000
-0.000000
-0.000000
-0.000000
-0.000000
-0.000000
-0.000000
-0.000000
-0.000000
0.560059
-0.000000
-0.000000
-0.000000
-0.000000
-0.000000
-0.000000
-0.000000
-0.000000
