-0.000000
0.891602
-0.000000
0.873047
-0.000000
0.856934
-0.000000
0.066895
-0.000000
-0.000000
0.471924
-0.000000
0.850586
-0.000000
-0.000000
-0.000000
-0.000000
-0.000000
-0.000000
-0.000000
0.278076
-0.000000
-0.000000
-0.000000
-0.000000
-0.000000
-0.000000
-0.000000
1.578125
1.163086
-0.000000
-0.000000
-0.000000
-0.000000
-0.000000
-0.000000
-0.000000
-0.000000
-0.000000
2.425781
0.736328
-0.000000
0.247925
-0.000000
-0.000000
-0.000000
0.948242
-0.000000
0.058807
-0.000000
-0.000000
0.249878
0.031494
0.085693
-0.000000
-0.000000
-0.000000
0.574219
-0.000000
0.910156
-0.000000
0.202271
-0.000000
0.215942
-0.000000
-0.000000
-0.000000
0.840332
-0.000000
-0.000000
-0.000000
-0.000000
0.184814
-0.000000
-0.000000
-0.000000
-0.000000
-0.000000
-0.000000
0.184082
-0.000000
-0.000000
0.629883
1.045898
-0.000000
0.078491
-0.000000
0.005131
-0.000000
-0.000000
-0.000000
0.005188
0.458252
0.096069
-0.000000
-0.000000
0.222656
-0.000000
-0.000000
1.628906
0.047668
-0.000000
-0.000000
0.162964
-0.000000
-0.000000
0.165161
0.167236
-0.000000
-0.000000
-0.000000
0.033630
1.320312
0.354248
0.277344
0.431396
-0.000000
-0.000000
-0.000000
0.850098
0.512207
-0.000000
0.226685
0.015656
0.123047
-0.000000
-0.000000
-0.000000
0.903809
-0.000000
-0.000000
-0.000000
-0.000000
-0.000000
-0.000000
-0.000000
3.277344
-0.000000
-0.000000
-0.000000
0.309814
-0.000000
-0.000000
-0.000000
-0.000000
-0.000000
2.384766
-0.000000
-0.000000
-0.000000
-0.000000
-0.000000
0.894531
-0.000000
-0.000000
0.457031
-0.000000
-0.000000
-0.000000
0.042725
-0.000000
-0.000000
-0.000000
-0.000000
1.553711
-0.000000
-0.000000
-0.000000
-0.000000
-0.000000
-0.000000
-0.000000
1.762695
-0.000000
-0.000000
-0.000000
-0.000000
-0.000000
-0.000000
0.517090
-0.000000
-0.000000
1.023438
-0.000000
0.417725
-0.000000
-0.000000
-0.000000
-0.000000
-0.000000
0.489014
2.117188
-0.000000
-0.000000
-0.000000
0.428223
0.255127
-0.000000
-0.000000
-0.000000
1.282227
0.123962
-0.000000
-0.000000
-0.000000
-0.000000
0.111877
-0.000000
0.105042
-0.000000
0.778320
0.639648
-0.000000
-0.000000
0.033203
-0.000000
0.446777
-0.000000
1.099609
0.051270
-0.000000
-0.000000
-0.000000
-0.000000
-0.000000
-0.000000
-0.000000
0.197632
0.042236
1.086914
-0.000000
-0.000000
0.118103
0.055237
-0.000000
1.547852
1.822266
-0.000000
0.590332
-0.000000
0.229736
-0.000000
-0.000000
-0.000000
-0.000000
0.484863
-0.000000
-0.000000
-0.000000
-0.000000
-0.000000
-0.000000
-0.000000
0.111267
-0.000000
0.024338
-0.000000
-0.000000
-0.000000
0.364990
0.313477
1.274414
-0.000000
-0.000000
-0.000000
0.060303
-0.000000
-0.000000
-0.000000
-0.000000
-0.000000
-0.000000
-0.000000
-0.000000
-0.000000
-0.000000
-0.000000
0.129395
0.025665
-0.000000
-0.000000
0.855469
0.157104
-0.000000
-0.000000
-0.000000
-0.000000
-0.000000
-0.000000
-0.000000
-0.000000
-0.000000
-0.000000
-0.000000
-0.000000
-0.000000
-0.000000
-0.000000
-0.000000
0.065918
-0.000000
-0.000000
0.005310
0.885742
0.087524
-0.000000
-0.000000
-0.000000
-0.000000
0.039154
-0.000000
-0.000000
-0.000000
-0.000000
1.034180
-0.000000
-0.000000
-0.000000
0.674805
-0.000000
-0.000000
-0.000000
-0.000000
0.723145
-0.000000
-0.000000
-0.000000
-0.000000
0.476807
-0.000000
-0.000000
-0.000000
-0.000000
0.953125
-0.000000
-0.000000
-0.000000
-0.000000
0.297607
-0.000000
-0.000000
0.053711
-0.000000
0.270752
-0.000000
0.002785
-0.000000
-0.000000
0.335449
-0.000000
-0.000000
-0.000000
-0.000000
-0.000000
-0.000000
0.720703
0.494141
-0.000000
-0.000000
-0.000000
-0.000000
-0.000000
-0.000000
0.378906
-0.000000
-0.000000
-0.000000
-0.000000
-0.000000
0.706055
-0.000000
-0.000000
1.220703
-0.000000
-0.000000
-0.000000
-0.000000
-0.000000
-0.000000
-0.000000
-0.000000
-0.000000
-0.000000
-0.000000
-0.000000
0.021179
-0.000000
0.105591
0.063721
-0.000000
0.020447
-0.000000
-0.000000
-0.000000
-0.000000
-0.000000
-0.000000
1.614258
-0.000000
-0.000000
-0.000000
0.062988
-0.000000
-0.000000
-0.000000
0.447998
-0.000000
0.089355
-0.000000
-0.000000
0.895020
-0.000000
1.022461
-0.000000
-0.000000
-0.000000
-0.000000
-0.000000
-0.000000
1.221680
-0.000000
1.018555
-0.000000
0.054810
-0.000000
-0.000000
-0.000000
0.297363
1.418945
-0.000000
-0.000000
-0.000000
-0.000000
-0.000000
-0.000000
-0.000000
-0.000000
-0.000000
0.071716
0.984375
-0.000000
-0.000000
-0.000000
0.267822
0.121399
-0.000000
0.413086
-0.000000
0.045776
-0.000000
-0.000000
-0.000000
-0.000000
-0.000000
-0.000000
0.010101
-0.000000
-0.000000
0.437500
-0.000000
-0.000000
-0.000000
-0.000000
-0.000000
-0.000000
-0.000000
-0.000000
-0.000000
-0.000000
0.201294
0.024414
-0.000000
1.576172
-0.000000
-0.000000
-0.000000
-0.000000
-0.000000
1.490234
-0.000000
-0.000000
-0.000000
1.049805
-0.000000
-0.000000
-0.000000
-0.000000
-0.000000
-0.000000
0.004517
-0.000000
-0.000000
0.196289
-0.000000
-0.000000
1.760742
-0.000000
-0.000000
-0.000000
-0.000000
