-0.000000
-0.000000
-0.000000
0.209229
0.484375
-0.000000
0.169922
0.489258
-0.000000
-0.000000
0.156738
-0.000000
-0.000000
0.786133
-0.000000
-0.000000
-0.000000
-0.000000
-0.000000
-0.000000
1.967773
-0.000000
0.331299
-0.000000
0.009010
-0.000000
0.276611
-0.000000
1.440430
0.709473
-0.000000
-0.000000
-0.000000
1.144531
-0.000000
-0.000000
-0.000000
-0.000000
-0.000000
-0.000000
-0.000000
3.203125
0.445312
0.649414
-0.000000
0.327393
-0.000000
-0.000000
-0.000000
-0.000000
-0.000000
0.325195
0.159424
0.048248
-0.000000
-0.000000
-0.000000
-0.000000
-0.000000
-0.000000
-0.000000
0.214844
-0.000000
-0.000000
-0.000000
0.366211
-0.000000
-0.000000
-0.000000
-0.000000
-0.000000
-0.000000
-0.000000
1.161133
-0.000000
0.779297
-0.000000
0.005585
-0.000000
-0.000000
-0.000000
-0.000000
-0.000000
0.151123
-0.000000
-0.000000
-0.000000
0.176147
-0.000000
-0.000000
-0.000000
0.287109
-0.000000
0.068237
-0.000000
-0.000000
0.412598
-0.000000
0.011032
-0.000000
0.137451
-0.000000
1.120117
0.547363
0.051147
-0.000000
-0.000000
0.237305
-0.000000
0.393066
-0.000000
-0.000000
2.447266
-0.000000
0.278809
-0.000000
-0.000000
-0.000000
-0.000000
-0.000000
0.199463
0.087646
-0.000000
-0.000000
-0.000000
0.002472
-0.000000
-0.000000
-0.000000
0.370605
-0.000000
-0.000000
-0.000000
-0.000000
-0.000000
-0.000000
0.053955
-0.000000
-0.000000
-0.000000
0.613281
-0.000000
-0.000000
-0.000000
-0.000000
-0.000000
0.086792
1.479492
-0.000000
-0.000000
0.580566
-0.000000
-0.000000
-0.000000
-0.000000
0.365479
-0.000000
0.302979
0.120117
-0.000000
-0.000000
-0.000000
-0.000000
0.702148
-0.000000
-0.000000
-0.000000
-0.000000
0.039551
-0.000000
-0.000000
0.183105
-0.000000
-0.000000
-0.000000
-0.000000
-0.000000
-0.000000
1.014648
-0.000000
-0.000000
-0.000000
-0.000000
-0.000000
0.562988
0.122559
0.147095
-0.000000
-0.000000
-0.000000
-0.000000
0.079712
0.290039
-0.000000
0.026733
-0.000000
-0.000000
-0.000000
-0.000000
-0.000000
-0.000000
0.143311
-0.000000
-0.000000
-0.000000
0.491699
-0.000000
0.131470
-0.000000
-0.000000
0.024414
-0.000000
-0.000000
-0.000000
0.944824
0.095459
0.523438
-0.000000
-0.000000
1.071289
-0.000000
-0.000000
-0.000000
-0.000000
-0.000000
-0.000000
-0.000000
-0.000000
-0.000000
0.389893
1.178711
-0.000000
0.687500
-0.000000
-0.000000
-0.000000
-0.000000
0.029297
-0.000000
0.210693
-0.000000
0.620117
0.377197
0.153931
-0.000000
-0.000000
-0.000000
-0.000000
-0.000000
1.084961
0.078064
-0.000000
-0.000000
0.189087
-0.000000
-0.000000
0.444336
-0.000000
1.170898
-0.000000
0.708984
0.086426
-0.000000
-0.000000
-0.000000
-0.000000
-0.000000
-0.000000
-0.000000
-0.000000
0.542480
0.137085
0.586426
1.117188
-0.000000
1.157227
-0.000000
0.057129
-0.000000
-0.000000
-0.000000
-0.000000
-0.000000
-0.000000
0.227661
-0.000000
-0.000000
-0.000000
0.030640
0.083740
0.033875
0.267090
-0.000000
-0.000000
0.064209
-0.000000
-0.000000
-0.000000
-0.000000
0.043701
0.762207
-0.000000
-0.000000
0.641113
0.260742
-0.000000
-0.000000
-0.000000
0.188477
1.049805
0.024216
0.168091
-0.000000
-0.000000
-0.000000
0.372803
-0.000000
-0.000000
-0.000000
-0.000000
-0.000000
-0.000000
-0.000000
-0.000000
-0.000000
-0.000000
-0.000000
-0.000000
-0.000000
-0.000000
-0.000000
-0.000000
-0.000000
-0.000000
-0.000000
-0.000000
-0.000000
-0.000000
-0.000000
-0.000000
-0.000000
-0.000000
-0.000000
-0.000000
-0.000000
-0.000000
-0.000000
0.551270
1.574219
-0.000000
0.044617
-0.000000
-0.000000
-0.000000
-0.000000
-0.000000
0.371094
-0.000000
-0.000000
0.228027
0.026001
0.118408
-0.000000
0.814453
-0.000000
-0.000000
-0.000000
0.170532
-0.000000
-0.000000
-0.000000
1.819336
-0.000000
0.058258
-0.000000
-0.000000
-0.000000
-0.000000
-0.000000
0.045288
-0.000000
-0.000000
-0.000000
-0.000000
0.669434
0.107178
-0.000000
0.392090
-0.000000
-0.000000
0.177856
-0.000000
-0.000000
-0.000000
-0.000000
-0.000000
-0.000000
-0.000000
-0.000000
-0.000000
-0.000000
-0.000000
-0.000000
-0.000000
0.019836
-0.000000
0.539062
-0.000000
-0.000000
1.336914
-0.000000
0.852539
-0.000000
-0.000000
-0.000000
-0.000000
-0.000000
-0.000000
-0.000000
-0.000000
-0.000000
-0.000000
-0.000000
0.206665
-0.000000
0.170288
-0.000000
-0.000000
0.608887
0.551270
0.739746
-0.000000
-0.000000
0.231079
-0.000000
-0.000000
-0.000000
-0.000000
-0.000000
0.021545
-0.000000
-0.000000
-0.000000
0.152100
-0.000000
-0.000000
-0.000000
-0.000000
-0.000000
-0.000000
-0.000000
-0.000000
-0.000000
1.746094
-0.000000
0.034088
-0.000000
0.357910
0.912109
0.090088
0.013367
-0.000000
-0.000000
-0.000000
-0.000000
-0.000000
-0.000000
-0.000000
-0.000000
-0.000000
0.124023
0.810547
-0.000000
-0.000000
-0.000000
0.383057
0.036957
0.330566
-0.000000
-0.000000
-0.000000
-0.000000
0.278564
-0.000000
0.542969
-0.000000
-0.000000
-0.000000
-0.000000
0.046875
0.091431
0.708984
-0.000000
1.000977
0.553711
0.186523
-0.000000
-0.000000
-0.000000
0.872070
