-0.000000
0.742188
-0.000000
0.099487
-0.000000
-0.000000
-0.000000
0.133301
-0.000000
-0.000000
-0.000000
-0.000000
-0.000000
-0.000000
-0.000000
-0.000000
-0.000000
-0.000000
-0.000000
-0.000000
0.861816
-0.000000
-0.000000
-0.000000
-0.000000
-0.000000
0.068542
-0.000000
0.493896
0.264893
-0.000000
-0.000000
-0.000000
0.110229
-0.000000
-0.000000
-0.000000
0.429443
-0.000000
0.095886
-0.000000
-0.000000
0.339111
-0.000000
-0.000000
-0.000000
0.782227
-0.000000
-0.000000
-0.000000
-0.000000
0.814941
0.046387
-0.000000
-0.000000
-0.000000
-0.000000
-0.000000
-0.000000
-0.000000
0.392822
0.156616
0.625000
-0.000000
-0.000000
0.054810
-0.000000
-0.000000
-0.000000
-0.000000
-0.000000
-0.000000
0.097107
-0.000000
-0.000000
-0.000000
0.579590
-0.000000
-0.000000
0.393066
-0.000000
-0.000000
0.229492
0.531250
0.160400
-0.000000
-0.000000
0.573730
0.891602
-0.000000
0.838867
-0.000000
0.061646
-0.000000
-0.000000
-0.000000
0.125488
-0.000000
-0.000000
-0.000000
-0.000000
-0.000000
0.626465
0.613281
-0.000000
-0.000000
0.047180
-0.000000
-0.000000
-0.000000
-0.000000
0.436523
0.941895
-0.000000
-0.000000
-0.000000
-0.000000
-0.000000
-0.000000
-0.000000
0.514648
0.073975
-0.000000
-0.000000
-0.000000
-0.000000
-0.000000
-0.000000
0.099121
-0.000000
0.529297
-0.000000
-0.000000
-0.000000
-0.000000
-0.000000
0.868652
-0.000000
-0.000000
-0.000000
-0.000000
-0.000000
-0.000000
0.057220
-0.000000
-0.000000
-0.000000
0.136230
-0.000000
-0.000000
-0.000000
-0.000000
-0.000000
-0.000000
-0.000000
0.384033
0.051514
-0.000000
-0.000000
-0.000000
-0.000000
0.556152
0.048157
-0.000000
-0.000000
-0.000000
-0.000000
-0.000000
0.352783
-0.000000
-0.000000
-0.000000
-0.000000
-0.000000
-0.000000
-0.000000
-0.000000
-0.000000
-0.000000
-0.000000
-0.000000
-0.000000
-0.000000
-0.000000
-0.000000
-0.000000
0.144287
0.152710
-0.000000
-0.000000
0.162964
0.427002
-0.000000
-0.000000
-0.000000
-0.000000
-0.000000
-0.000000
-0.000000
0.200317
0.010254
0.202515
-0.000000
-0.000000
-0.000000
-0.000000
-0.000000
-0.000000
0.104309
-0.000000
-0.000000
0.223022
-0.000000
0.071472
-0.000000
1.175781
1.263672
-0.000000
-0.000000
0.241943
-0.000000
-0.000000
-0.000000
-0.000000
0.203003
-0.000000
-0.000000
0.257812
-0.000000
0.473389
0.264893
-0.000000
-0.000000
-0.000000
-0.000000
-0.000000
-0.000000
-0.000000
-0.000000
-0.000000
1.173828
-0.000000
0.192261
-0.000000
-0.000000
0.411865
-0.000000
-0.000000
-0.000000
-0.000000
-0.000000
-0.000000
0.012421
-0.000000
-0.000000
0.320801
-0.000000
-0.000000
-0.000000
-0.000000
-0.000000
0.448486
-0.000000
0.857910
-0.000000
-0.000000
0.319824
-0.000000
-0.000000
-0.000000
2.314453
0.076233
0.538086
-0.000000
-0.000000
1.327148
-0.000000
-0.000000
-0.000000
2.183594
-0.000000
0.303467
0.759766
-0.000000
0.466553
1.528320
-0.000000
0.270508
-0.000000
-0.000000
-0.000000
-0.000000
-0.000000
-0.000000
-0.000000
-0.000000
-0.000000
-0.000000
-0.000000
0.936523
-0.000000
-0.000000
-0.000000
-0.000000
-0.000000
0.274414
-0.000000
0.277100
0.403320
-0.000000
0.015533
-0.000000
1.435547
-0.000000
-0.000000
1.709961
0.023376
0.182129
0.764648
1.064453
-0.000000
-0.000000
-0.000000
0.592285
-0.000000
-0.000000
-0.000000
-0.000000
-0.000000
-0.000000
-0.000000
0.051117
-0.000000
0.742676
-0.000000
-0.000000
-0.000000
-0.000000
-0.000000
0.309570
-0.000000
-0.000000
-0.000000
0.383789
0.657715
-0.000000
-0.000000
-0.000000
-0.000000
-0.000000
-0.000000
0.022644
-0.000000
-0.000000
-0.000000
0.395508
-0.000000
-0.000000
-0.000000
-0.000000
-0.000000
-0.000000
1.004883
-0.000000
-0.000000
-0.000000
1.045898
-0.000000
-0.000000
-0.000000
-0.000000
1.520508
-0.000000
-0.000000
-0.000000
-0.000000
-0.000000
0.177979
-0.000000
0.973145
0.109497
-0.000000
0.808105
0.751953
-0.000000
-0.000000
-0.000000
0.183960
0.189697
-0.000000
0.350342
-0.000000
-0.000000
-0.000000
-0.000000
-0.000000
-0.000000
-0.000000
-0.000000
-0.000000
-0.000000
0.014526
-0.000000
-0.000000
-0.000000
-0.000000
-0.000000
-0.000000
-0.000000
-0.000000
0.060822
-0.000000
-0.000000
-0.000000
0.724609
-0.000000
-0.000000
-0.000000
-0.000000
-0.000000
-0.000000
-0.000000
-0.000000
0.271729
-0.000000
0.478271
-0.000000
0.102661
0.542969
-0.000000
-0.000000
-0.000000
-0.000000
-0.000000
-0.000000
-0.000000
-0.000000
-0.000000
-0.000000
-0.000000
-0.000000
-0.000000
0.063965
0.462158
-0.000000
-0.000000
-0.000000
-0.000000
1.333984
0.072388
-0.000000
-0.000000
-0.000000
-0.000000
0.794922
0.133423
-0.000000
0.548340
-0.000000
-0.000000
-0.000000
-0.000000
-0.000000
-0.000000
-0.000000
0.033905
-0.000000
-0.000000
-0.000000
-0.000000
-0.000000
-0.000000
-0.000000
-0.000000
0.040894
-0.000000
0.042694
0.457031
1.554688
-0.000000
-0.000000
-0.000000
0.572754
-0.000000
-0.000000
-0.000000
-0.000000
-0.000000
-0.000000
-0.000000
-0.000000
-0.000000
1.613281
-0.000000
-0.000000
1.755859
-0.000000
-0.000000
-0.000000
0.078064
