-0.000000
-0.000000
-0.000000
0.374756
-0.000000
-0.000000
0.346924
0.211914
-0.000000
-0.000000
0.012268
-0.000000
-0.000000
-0.000000
-0.000000
-0.000000
-0.000000
-0.000000
-0.000000
-0.000000
2.945312
-0.000000
1.042969
-0.000000
0.093384
-0.000000
-0.000000
-0.000000
1.690430
1.548828
-0.000000
-0.000000
-0.000000
0.477539
-0.000000
-0.000000
-0.000000
-0.000000
-0.000000
0.133301
1.896484
4.261719
-0.000000
-0.000000
-0.000000
0.284424
-0.000000
-0.000000
0.090393
-0.000000
-0.000000
-0.000000
-0.000000
-0.000000
-0.000000
0.542480
0.648926
-0.000000
-0.000000
-0.000000
-0.000000
0.503906
-0.000000
-0.000000
0.152466
-0.000000
-0.000000
-0.000000
-0.000000
-0.000000
-0.000000
-0.000000
0.028854
2.576172
-0.000000
-0.000000
-0.000000
0.016022
-0.000000
-0.000000
-0.000000
0.743164
-0.000000
-0.000000
-0.000000
0.035645
-0.000000
0.237061
-0.000000
-0.000000
-0.000000
-0.000000
-0.000000
-0.000000
-0.000000
0.038422
0.344727
-0.000000
0.011795
1.835938
2.843750
1.325195
0.000305
-0.000000
1.200195
-0.000000
-0.000000
0.191162
-0.000000
1.234375
-0.000000
-0.000000
2.820312
-0.000000
-0.000000
0.586914
-0.000000
-0.000000
-0.000000
0.708008
1.313477
-0.000000
-0.000000
0.014832
-0.000000
-0.000000
-0.000000
-0.000000
-0.000000
-0.000000
-0.000000
-0.000000
1.109375
-0.000000
-0.000000
0.087891
0.315918
1.070312
-0.000000
-0.000000
0.182251
-0.000000
-0.000000
0.666504
-0.000000
-0.000000
0.676758
0.227783
-0.000000
-0.000000
-0.000000
-0.000000
-0.000000
-0.000000
-0.000000
-0.000000
-0.000000
0.430420
-0.000000
-0.000000
0.231567
-0.000000
-0.000000
-0.000000
-0.000000
-0.000000
-0.000000
1.940430
-0.000000
-0.000000
-0.000000
0.713379
-0.000000
-0.000000
-0.000000
-0.000000
-0.000000
1.164062
1.427734
0.723633
0.248291
-0.000000
0.296143
-0.000000
1.789062
-0.000000
-0.000000
-0.000000
-0.000000
-0.000000
0.207031
-0.000000
0.112061
-0.000000
0.067200
0.415039
-0.000000
-0.000000
-0.000000
0.170166
-0.000000
-0.000000
-0.000000
-0.000000
-0.000000
0.302490
0.426514
0.104187
0.963867
-0.000000
0.028809
0.378174
0.315674
-0.000000
-0.000000
-0.000000
-0.000000
-0.000000
-0.000000
-0.000000
-0.000000
-0.000000
-0.000000
-0.000000
-0.000000
-0.000000
-0.000000
-0.000000
2.152344
-0.000000
-0.000000
-0.000000
-0.000000
-0.000000
-0.000000
0.154663
0.347412
-0.000000
1.669922
-0.000000
-0.000000
0.462891
-0.000000
-0.000000
0.087646
-0.000000
-0.000000
0.011963
-0.000000
-0.000000
0.451904
0.115295
-0.000000
1.396484
0.002533
0.880859
0.983887
-0.000000
0.235840
-0.000000
2.046875
-0.000000
-0.000000
-0.000000
-0.000000
-0.000000
0.699219
-0.000000
-0.000000
-0.000000
0.107178
-0.000000
-0.000000
1.267578
-0.000000
-0.000000
-0.000000
0.032898
-0.000000
-0.000000
-0.000000
1.570312
-0.000000
-0.000000
0.230347
-0.000000
-0.000000
-0.000000
-0.000000
-0.000000
-0.000000
-0.000000
-0.000000
-0.000000
-0.000000
-0.000000
0.186768
-0.000000
-0.000000
-0.000000
-0.000000
-0.000000
-0.000000
1.410156
-0.000000
-0.000000
-0.000000
-0.000000
-0.000000
-0.000000
-0.000000
0.000366
-0.000000
-0.000000
0.391846
-0.000000
0.394531
-0.000000
-0.000000
-0.000000
-0.000000
-0.000000
-0.000000
-0.000000
-0.000000
-0.000000
-0.000000
-0.000000
-0.000000
-0.000000
-0.000000
-0.000000
-0.000000
-0.000000
-0.000000
-0.000000
-0.000000
-0.000000
-0.000000
-0.000000
-0.000000
-0.000000
-0.000000
0.651855
-0.000000
-0.000000
-0.000000
1.454102
-0.000000
-0.000000
-0.000000
-0.000000
-0.000000
-0.000000
-0.000000
0.355225
0.424316
0.408691
-0.000000
-0.000000
-0.000000
0.292480
-0.000000
0.408936
-0.000000
-0.000000
-0.000000
0.260742
0.141357
-0.000000
-0.000000
-0.000000
0.957031
0.050659
-0.000000
-0.000000
-0.000000
-0.000000
-0.000000
-0.000000
-0.000000
-0.000000
-0.000000
-0.000000
0.140381
-0.000000
-0.000000
-0.000000
-0.000000
-0.000000
-0.000000
-0.000000
-0.000000
1.651367
-0.000000
-0.000000
-0.000000
-0.000000
-0.000000
-0.000000
1.152344
-0.000000
-0.000000
-0.000000
-0.000000
-0.000000
0.648926
0.823730
0.093262
0.829102
0.419678
-0.000000
0.172607
-0.000000
-0.000000
-0.000000
0.227783
-0.000000
-0.000000
1.319336
-0.000000
0.746582
-0.000000
-0.000000
1.534180
-0.000000
-0.000000
-0.000000
1.930664
0.289062
0.786621
-0.000000
-0.000000
0.709473
-0.000000
-0.000000
-0.000000
-0.000000
0.027893
-0.000000
-0.000000
0.036835
-0.000000
-0.000000
-0.000000
0.095154
0.160645
-0.000000
-0.000000
-0.000000
-0.000000
-0.000000
-0.000000
0.301758
-0.000000
-0.000000
2.230469
-0.000000
0.801758
-0.000000
0.035614
-0.000000
-0.000000
-0.000000
-0.000000
-0.000000
-0.000000
-0.000000
-0.000000
0.074341
0.895020
-0.000000
0.821289
-0.000000
-0.000000
-0.000000
0.024750
-0.000000
-0.000000
-0.000000
-0.000000
-0.000000
0.040894
-0.000000
-0.000000
-0.000000
-0.000000
-0.000000
0.735840
0.127075
-0.000000
-0.000000
-0.000000
0.866211
-0.000000
-0.000000
-0.000000
-0.000000
-0.000000
0.544434
