-0.000000
0.632324
-0.000000
0.592773
-0.000000
0.172852
0.130615
-0.000000
-0.000000
-0.000000
0.519531
-0.000000
0.742188
-0.000000
-0.000000
-0.000000
-0.000000
-0.000000
-0.000000
-0.000000
0.201050
-0.000000
-0.000000
0.252197
-0.000000
-0.000000
-0.000000
-0.000000
1.140625
1.042969
-0.000000
-0.000000
-0.000000
-0.000000
-0.000000
-0.000000
-0.000000
-0.000000
-0.000000
1.571289
0.738281
-0.000000
0.213501
-0.000000
-0.000000
-0.000000
0.385498
-0.000000
0.078369
-0.000000
-0.000000
0.289795
0.039490
0.105591
-0.000000
-0.000000
-0.000000
0.376221
-0.000000
0.650879
-0.000000
0.310059
-0.000000
-0.000000
-0.000000
0.079590
-0.000000
0.740723
-0.000000
-0.000000
-0.000000
-0.000000
0.362061
0.112976
-0.000000
-0.000000
-0.000000
-0.000000
-0.000000
0.351074
-0.000000
-0.000000
0.363037
0.671875
-0.000000
0.006012
-0.000000
0.029144
-0.000000
-0.000000
-0.000000
0.006683
-0.000000
-0.000000
0.074707
-0.000000
0.259766
-0.000000
-0.000000
1.041992
0.315430
-0.000000
-0.000000
0.090759
-0.000000
-0.000000
0.078674
0.282715
-0.000000
0.096191
-0.000000
-0.000000
1.021484
0.124207
0.303955
0.507324
-0.000000
-0.000000
-0.000000
0.660645
0.393799
-0.000000
0.233521
0.022461
0.331787
-0.000000
-0.000000
-0.000000
0.738770
-0.000000
-0.000000
-0.000000
-0.000000
-0.000000
-0.000000
-0.000000
2.888672
-0.000000
-0.000000
-0.000000
0.241089
-0.000000
-0.000000
-0.000000
-0.000000
-0.000000
2.056641
-0.000000
-0.000000
0.176514
-0.000000
-0.000000
0.425293
-0.000000
-0.000000
0.446045
-0.000000
-0.000000
-0.000000
0.024933
-0.000000
-0.000000
0.102966
-0.000000
1.379883
-0.000000
-0.000000
-0.000000
-0.000000
-0.000000
-0.000000
-0.000000
1.601562
-0.000000
0.002792
-0.000000
-0.000000
-0.000000
-0.000000
0.648926
-0.000000
-0.000000
0.490234
-0.000000
0.420654
-0.000000
-0.000000
-0.000000
-0.000000
-0.000000
0.499756
1.449219
-0.000000
-0.000000
-0.000000
0.583008
0.104309
-0.000000
-0.000000
-0.000000
0.795898
0.114685
-0.000000
-0.000000
-0.000000
-0.000000
0.224854
-0.000000
-0.000000
-0.000000
0.098145
0.487793
-0.000000
-0.000000
0.009766
-0.000000
0.668457
-0.000000
0.906738
0.311523
-0.000000
-0.000000
-0.000000
-0.000000
-0.000000
-0.000000
-0.000000
0.127441
0.609375
1.076172
-0.000000
-0.000000
-0.000000
-0.000000
-0.000000
0.974609
1.593750
-0.000000
0.474121
-0.000000
0.550293
-0.000000
-0.000000
-0.000000
-0.000000
0.296875
-0.000000
-0.000000
-0.000000
-0.000000
-0.000000
-0.000000
-0.000000
-0.000000
-0.000000
0.525391
0.082458
-0.000000
-0.000000
0.360107
0.108398
1.035156
0.166504
-0.000000
-0.000000
0.129761
-0.000000
-0.000000
-0.000000
-0.000000
-0.000000
-0.000000
-0.000000
-0.000000
-0.000000
0.092773
0.019653
0.130859
0.327637
-0.000000
-0.000000
0.830566
0.048737
-0.000000
-0.000000
-0.000000
-0.000000
-0.000000
-0.000000
-0.000000
0.119324
-0.000000
-0.000000
-0.000000
-0.000000
-0.000000
-0.000000
-0.000000
-0.000000
-0.000000
-0.000000
-0.000000
0.101379
1.125000
0.140625
-0.000000
-0.000000
-0.000000
-0.000000
0.160156
-0.000000
-0.000000
-0.000000
-0.000000
1.249023
-0.000000
-0.000000
-0.000000
0.164185
-0.000000
-0.000000
-0.000000
-0.000000
0.660645
-0.000000
-0.000000
-0.000000
-0.000000
0.041870
-0.000000
-0.000000
-0.000000
-0.000000
0.686035
-0.000000
-0.000000
-0.000000
-0.000000
-0.000000
-0.000000
-0.000000
0.040466
-0.000000
0.174316
-0.000000
0.007912
-0.000000
-0.000000
0.188110
-0.000000
-0.000000
-0.000000
-0.000000
-0.000000
-0.000000
0.812988
0.877441
0.084656
-0.000000
0.068665
-0.000000
-0.000000
-0.000000
0.111023
-0.000000
-0.000000
-0.000000
0.237549
-0.000000
0.120605
-0.000000
-0.000000
0.965820
-0.000000
-0.000000
-0.000000
-0.000000
-0.000000
-0.000000
-0.000000
-0.000000
-0.000000
-0.000000
-0.000000
-0.000000
0.126099
-0.000000
0.407471
-0.000000
0.308105
0.019348
-0.000000
-0.000000
-0.000000
-0.000000
-0.000000
-0.000000
1.481445
-0.000000
-0.000000
-0.000000
0.150513
-0.000000
-0.000000
-0.000000
0.444580
-0.000000
0.023682
-0.000000
-0.000000
1.017578
-0.000000
0.506348
-0.000000
-0.000000
-0.000000
-0.000000
-0.000000
-0.000000
0.930176
-0.000000
0.720215
-0.000000
0.097900
-0.000000
-0.000000
-0.000000
0.016464
1.334961
-0.000000
-0.000000
-0.000000
-0.000000
-0.000000
-0.000000
-0.000000
-0.000000
-0.000000
0.100281
1.007812
0.049255
-0.000000
-0.000000
0.342773
0.106079
-0.000000
0.496094
-0.000000
0.140259
-0.000000
-0.000000
-0.000000
-0.000000
-0.000000
-0.000000
0.039459
-0.000000
0.010773
0.457764
-0.000000
-0.000000
-0.000000
-0.000000
-0.000000
-0.000000
-0.000000
-0.000000
-0.000000
-0.000000
0.161011
0.161011
-0.000000
1.671875
-0.000000
-0.000000
-0.000000
-0.000000
0.020981
0.865234
-0.000000
-0.000000
-0.000000
1.123047
-0.000000
-0.000000
-0.000000
-0.000000
-0.000000
-0.000000
-0.000000
-0.000000
-0.000000
-0.000000
-0.000000
-0.000000
1.192383
-0.000000
-0.000000
-0.000000
0.112366
