-0.000000
0.141602
-0.000000
-0.000000
-0.000000
0.140137
0.104187
0.405273
-0.000000
-0.000000
-0.000000
-0.000000
0.180298
0.059814
-0.000000
-0.000000
-0.000000
-0.000000
-0.000000
-0.000000
0.382324
-0.000000
0.260254
-0.000000
-0.000000
0.181152
-0.000000
-0.000000
0.020752
0.175293
-0.000000
-0.000000
-0.000000
-0.000000
-0.000000
-0.000000
-0.000000
0.692383
-0.000000
1.148438
-0.000000
0.227539
-0.000000
-0.000000
-0.000000
0.000862
0.763672
-0.000000
0.058319
-0.000000
-0.000000
0.014282
0.166382
-0.000000
-0.000000
-0.000000
0.167725
0.084229
-0.000000
0.038086
0.358887
-0.000000
-0.000000
-0.000000
-0.000000
0.162842
-0.000000
0.375732
-0.000000
0.402344
-0.000000
-0.000000
-0.000000
0.062195
-0.000000
-0.000000
-0.000000
-0.000000
-0.000000
1.090820
-0.000000
-0.000000
0.779785
0.121460
0.229492
0.470215
-0.000000
0.231445
0.093872
-0.000000
-0.000000
0.034973
0.489502
-0.000000
0.457031
-0.000000
0.041473
-0.000000
-0.000000
0.729492
0.163940
-0.000000
0.338379
0.351562
-0.000000
0.266602
-0.000000
-0.000000
-0.000000
0.666992
0.599121
0.700684
-0.000000
0.178833
0.070007
0.074036
-0.000000
0.111084
-0.000000
0.015762
0.502441
-0.000000
-0.000000
-0.000000
0.195312
-0.000000
0.230713
-0.000000
0.868652
-0.000000
-0.000000
-0.000000
-0.000000
-0.000000
-0.000000
-0.000000
0.318115
-0.000000
-0.000000
-0.000000
-0.000000
-0.000000
-0.000000
0.060181
-0.000000
-0.000000
-0.000000
-0.000000
-0.000000
-0.000000
-0.000000
-0.000000
1.088867
-0.000000
-0.000000
0.002342
0.164185
-0.000000
-0.000000
-0.000000
-0.000000
-0.000000
-0.000000
-0.000000
-0.000000
-0.000000
0.010498
0.195435
-0.000000
-0.000000
0.018631
0.078918
0.189941
-0.000000
-0.000000
-0.000000
-0.000000
-0.000000
0.077393
0.619629
-0.000000
-0.000000
-0.000000
-0.000000
0.165405
0.042053
-0.000000
-0.000000
-0.000000
-0.000000
-0.000000
-0.000000
-0.000000
-0.000000
-0.000000
0.226929
-0.000000
-0.000000
-0.000000
0.014832
0.968750
-0.000000
-0.000000
0.091980
-0.000000
-0.000000
-0.000000
0.092102
0.060638
-0.000000
-0.000000
0.374023
-0.000000
-0.000000
-0.000000
-0.000000
-0.000000
0.109009
0.934570
0.065002
-0.000000
0.920410
-0.000000
-0.000000
0.073853
-0.000000
1.308594
-0.000000
-0.000000
-0.000000
-0.000000
-0.000000
0.794434
0.415771
-0.000000
-0.000000
-0.000000
-0.000000
0.952637
-0.000000
-0.000000
-0.000000
-0.000000
0.218506
-0.000000
0.332275
-0.000000
-0.000000
-0.000000
-0.000000
0.167114
-0.000000
-0.000000
0.005798
-0.000000
0.074951
0.012512
-0.000000
-0.000000
0.084778
0.198608
0.818359
0.148682
0.405273
0.111633
0.044678
-0.000000
-0.000000
-0.000000
-0.000000
-0.000000
-0.000000
-0.000000
-0.000000
-0.000000
0.358154
0.071777
0.034393
-0.000000
0.891113
-0.000000
0.902344
0.089539
-0.000000
-0.000000
-0.000000
-0.000000
0.075195
-0.000000
-0.000000
-0.000000
-0.000000
-0.000000
-0.000000
-0.000000
-0.000000
0.062012
0.001404
-0.000000
1.063477
-0.000000
0.874023
0.007629
0.003662
-0.000000
0.053040
-0.000000
0.489502
-0.000000
-0.000000
-0.000000
-0.000000
-0.000000
-0.000000
-0.000000
-0.000000
-0.000000
0.433105
-0.000000
1.168945
-0.000000
-0.000000
-0.000000
0.683105
-0.000000
-0.000000
0.205566
-0.000000
0.314941
1.230469
-0.000000
0.049835
-0.000000
1.438477
-0.000000
-0.000000
-0.000000
0.427246
1.108398
-0.000000
-0.000000
0.061523
0.531250
0.508301
2.931641
-0.000000
-0.000000
-0.000000
-0.000000
-0.000000
0.696777
-0.000000
-0.000000
-0.000000
-0.000000
-0.000000
0.153809
-0.000000
-0.000000
-0.000000
-0.000000
-0.000000
-0.000000
0.432129
-0.000000
-0.000000
-0.000000
-0.000000
-0.000000
0.536621
-0.000000
-0.000000
1.106445
-0.000000
-0.000000
-0.000000
-0.000000
-0.000000
-0.000000
-0.000000
-0.000000
-0.000000
0.176514
0.129517
-0.000000
-0.000000
1.061523
0.249390
-0.000000
0.306152
-0.000000
-0.000000
-0.000000
-0.000000
-0.000000
0.116333
-0.000000
0.121216
0.008911
-0.000000
0.085449
0.303955
-0.000000
-0.000000
-0.000000
0.631836
-0.000000
0.041748
-0.000000
0.121521
-0.000000
-0.000000
-0.000000
-0.000000
-0.000000
-0.000000
0.101074
-0.000000
-0.000000
0.257080
-0.000000
0.736328
-0.000000
-0.000000
0.028076
0.194336
0.005627
0.697266
0.181641
-0.000000
0.284424
-0.000000
-0.000000
-0.000000
-0.000000
-0.000000
0.723145
-0.000000
-0.000000
0.067749
-0.000000
-0.000000
0.108398
0.031616
0.082336
0.029205
-0.000000
-0.000000
0.176880
0.105225
-0.000000
-0.000000
-0.000000
0.330566
0.649902
-0.000000
-0.000000
0.199097
0.085083
-0.000000
-0.000000
0.026337
-0.000000
-0.000000
-0.000000
0.009750
-0.000000
-0.000000
-0.000000
-0.000000
-0.000000
0.192749
-0.000000
-0.000000
0.367920
-0.000000
-0.000000
-0.000000
0.378662
-0.000000
-0.000000
-0.000000
-0.000000
-0.000000
-0.000000
-0.000000
-0.000000
-0.000000
-0.000000
-0.000000
-0.000000
0.164917
-0.000000
0.049652
-0.000000
1.368164
-0.000000
-0.000000
-0.000000
0.067444
