-0.000000
-0.000000
-0.000000
-0.000000
0.767090
-0.000000
0.105042
-0.000000
-0.000000
1.080078
-0.000000
-0.000000
-0.000000
-0.000000
-0.000000
-0.000000
-0.000000
-0.000000
0.046021
-0.000000
-0.000000
-0.000000
0.655273
-0.000000
0.123657
-0.000000
0.047455
-0.000000
-0.000000
-0.000000
-0.000000
-0.000000
-0.000000
-0.000000
-0.000000
-0.000000
0.706055
-0.000000
-0.000000
-0.000000
-0.000000
1.926758
-0.000000
2.191406
-0.000000
0.044678
-0.000000
-0.000000
-0.000000
-0.000000
-0.000000
0.710449
-0.000000
-0.000000
-0.000000
0.723145
0.227905
-0.000000
-0.000000
-0.000000
-0.000000
0.019577
-0.000000
-0.000000
0.085022
-0.000000
-0.000000
-0.000000
-0.000000
-0.000000
-0.000000
-0.000000
-0.000000
0.085754
-0.000000
-0.000000
-0.000000
-0.000000
0.131226
-0.000000
-0.000000
0.350098
-0.000000
0.378662
-0.000000
0.001742
-0.000000
-0.000000
-0.000000
-0.000000
0.153076
-0.000000
-0.000000
0.637207
0.053467
0.634766
-0.000000
-0.000000
0.000275
0.596191
0.336670
0.847656
-0.000000
-0.000000
1.938477
0.576172
-0.000000
-0.000000
-0.000000
1.963867
-0.000000
-0.000000
-0.000000
0.270508
-0.000000
-0.000000
0.505371
2.449219
-0.000000
-0.000000
-0.000000
0.077576
0.654297
0.015442
-0.000000
0.055450
0.263184
-0.000000
-0.000000
-0.000000
0.583008
-0.000000
0.192627
-0.000000
-0.000000
0.683105
-0.000000
0.021484
-0.000000
-0.000000
-0.000000
-0.000000
-0.000000
-0.000000
-0.000000
0.052612
-0.000000
1.678711
-0.000000
-0.000000
1.230469
1.813477
-0.000000
-0.000000
-0.000000
-0.000000
-0.000000
-0.000000
-0.000000
-0.000000
-0.000000
-0.000000
0.220337
-0.000000
-0.000000
-0.000000
-0.000000
-0.000000
-0.000000
-0.000000
-0.000000
-0.000000
-0.000000
1.752930
-0.000000
-0.000000
0.097900
1.097656
-0.000000
-0.000000
0.902832
-0.000000
-0.000000
-0.000000
-0.000000
-0.000000
-0.000000
1.415039
-0.000000
1.119141
0.018250
-0.000000
0.302979
0.002701
0.500488
0.470947
-0.000000
-0.000000
-0.000000
-0.000000
-0.000000
-0.000000
-0.000000
-0.000000
0.205811
0.021240
0.015564
0.485840
0.563477
-0.000000
-0.000000
-0.000000
0.101074
-0.000000
-0.000000
-0.000000
-0.000000
-0.000000
-0.000000
0.053833
-0.000000
-0.000000
-0.000000
-0.000000
-0.000000
-0.000000
-0.000000
-0.000000
0.984863
-0.000000
0.142944
-0.000000
0.486084
0.088196
-0.000000
0.016602
-0.000000
-0.000000
-0.000000
0.766602
0.776367
0.354980
-0.000000
0.002747
1.104492
-0.000000
-0.000000
0.906738
-0.000000
-0.000000
-0.000000
0.108337
-0.000000
-0.000000
0.114990
-0.000000
-0.000000
-0.000000
4.312500
-0.000000
-0.000000
-0.000000
-0.000000
-0.000000
0.036011
-0.000000
-0.000000
-0.000000
0.008301
-0.000000
-0.000000
-0.000000
-0.000000
0.076782
-0.000000
-0.000000
-0.000000
-0.000000
0.045319
-0.000000
-0.000000
-0.000000
-0.000000
-0.000000
2.369141
0.424561
-0.000000
-0.000000
-0.000000
0.092896
0.309814
0.102905
-0.000000
-0.000000
0.716309
-0.000000
-0.000000
0.151489
0.272705
-0.000000
-0.000000
-0.000000
-0.000000
-0.000000
0.508789
0.049927
-0.000000
-0.000000
0.081299
-0.000000
-0.000000
-0.000000
0.008286
-0.000000
-0.000000
-0.000000
0.052429
-0.000000
0.038696
-0.000000
-0.000000
0.325439
-0.000000
0.308350
-0.000000
-0.000000
-0.000000
-0.000000
-0.000000
0.462402
-0.000000
-0.000000
-0.000000
-0.000000
0.001362
-0.000000
1.415039
-0.000000
-0.000000
-0.000000
-0.000000
-0.000000
-0.000000
-0.000000
-0.000000
-0.000000
-0.000000
0.347656
-0.000000
-0.000000
-0.000000
-0.000000
-0.000000
-0.000000
-0.000000
-0.000000
0.771484
-0.000000
-0.000000
0.086243
-0.000000
-0.000000
1.563477
-0.000000
-0.000000
0.025940
-0.000000
-0.000000
2.326172
-0.000000
-0.000000
-0.000000
0.470947
1.569336
0.602051
-0.000000
-0.000000
-0.000000
-0.000000
0.174438
-0.000000
0.169434
-0.000000
-0.000000
1.946289
-0.000000
-0.000000
-0.000000
-0.000000
-0.000000
-0.000000
-0.000000
0.011871
1.006836
0.143188
-0.000000
-0.000000
-0.000000
-0.000000
0.080200
0.441406
-0.000000
-0.000000
-0.000000
-0.000000
-0.000000
0.214355
0.400391
0.404297
2.472656
-0.000000
1.355469
-0.000000
-0.000000
0.671875
-0.000000
0.854492
-0.000000
-0.000000
-0.000000
-0.000000
0.751465
-0.000000
-0.000000
1.178711
-0.000000
-0.000000
-0.000000
-0.000000
1.888672
-0.000000
-0.000000
-0.000000
0.022400
-0.000000
-0.000000
-0.000000
-0.000000
-0.000000
-0.000000
0.309082
-0.000000
0.016602
0.073120
-0.000000
0.022949
0.117615
-0.000000
-0.000000
-0.000000
-0.000000
-0.000000
-0.000000
-0.000000
-0.000000
-0.000000
3.898438
-0.000000
-0.000000
-0.000000
0.192505
0.492920
-0.000000
0.834961
0.544922
-0.000000
-0.000000
-0.000000
0.184937
-0.000000
0.681152
-0.000000
0.405762
-0.000000
-0.000000
-0.000000
0.006531
-0.000000
-0.000000
-0.000000
2.003906
-0.000000
-0.000000
-0.000000
0.705078
-0.000000
-0.000000
-0.000000
0.722656
-0.000000
0.191040
-0.000000
-0.000000
-0.000000
-0.000000
-0.000000
-0.000000
-0.000000
-0.000000
0.321289
