-0.000000
-0.000000
-0.000000
0.671387
0.194214
0.717285
0.033081
-0.000000
-0.000000
-0.000000
-0.000000
-0.000000
-0.000000
-0.000000
-0.000000
-0.000000
-0.000000
-0.000000
-0.000000
-0.000000
0.509277
-0.000000
-0.000000
0.072266
-0.000000
-0.000000
-0.000000
-0.000000
0.245361
0.437744
-0.000000
-0.000000
-0.000000
-0.000000
-0.000000
-0.000000
0.562500
-0.000000
-0.000000
-0.000000
1.044922
-0.000000
-0.000000
-0.000000
-0.000000
-0.000000
-0.000000
-0.000000
0.074829
-0.000000
-0.000000
1.189453
-0.000000
0.121643
-0.000000
0.238525
-0.000000
-0.000000
-0.000000
-0.000000
-0.000000
0.953613
0.462891
-0.000000
-0.000000
-0.000000
-0.000000
-0.000000
-0.000000
-0.000000
-0.000000
-0.000000
0.210327
1.407227
-0.000000
0.743164
-0.000000
-0.000000
-0.000000
-0.000000
-0.000000
0.318604
-0.000000
-0.000000
0.049255
-0.000000
-0.000000
0.032227
-0.000000
-0.000000
-0.000000
-0.000000
-0.000000
-0.000000
0.267822
0.181396
0.304199
-0.000000
-0.000000
-0.000000
0.922852
-0.000000
0.134277
-0.000000
1.489258
0.132935
-0.000000
-0.000000
-0.000000
1.193359
-0.000000
-0.000000
0.814941
-0.000000
0.046265
0.463379
0.148193
-0.000000
-0.000000
-0.000000
0.005188
0.041473
-0.000000
-0.000000
0.454346
-0.000000
0.969727
-0.000000
-0.000000
0.319336
0.886230
-0.000000
0.155396
-0.000000
-0.000000
-0.000000
-0.000000
0.120239
-0.000000
-0.000000
0.523926
-0.000000
-0.000000
-0.000000
-0.000000
0.016113
0.837402
1.273438
-0.000000
0.289307
-0.000000
1.333984
-0.000000
-0.000000
-0.000000
-0.000000
-0.000000
-0.000000
0.593262
-0.000000
0.690918
-0.000000
0.197510
-0.000000
-0.000000
-0.000000
-0.000000
-0.000000
-0.000000
-0.000000
-0.000000
-0.000000
-0.000000
0.037231
-0.000000
-0.000000
-0.000000
-0.000000
0.031006
0.859863
-0.000000
-0.000000
-0.000000
-0.000000
0.144043
-0.000000
-0.000000
-0.000000
-0.000000
0.470459
0.291992
0.452393
-0.000000
-0.000000
0.059814
0.382080
-0.000000
-0.000000
-0.000000
-0.000000
-0.000000
-0.000000
-0.000000
-0.000000
-0.000000
0.066406
0.054016
0.356934
-0.000000
-0.000000
-0.000000
0.093506
0.215942
-0.000000
0.346680
0.185181
0.199097
-0.000000
0.060760
1.097656
-0.000000
0.059814
-0.000000
-0.000000
-0.000000
-0.000000
-0.000000
-0.000000
0.318359
1.457031
1.036133
-0.000000
0.110107
-0.000000
-0.000000
0.775879
1.544922
-0.000000
0.474121
0.211182
0.059570
-0.000000
0.038940
-0.000000
0.343750
-0.000000
-0.000000
0.179688
-0.000000
0.056519
0.102966
0.019836
-0.000000
-0.000000
0.010544
0.682617
0.319336
-0.000000
0.046997
-0.000000
0.043091
-0.000000
0.453613
-0.000000
-0.000000
0.023193
-0.000000
-0.000000
-0.000000
-0.000000
0.028915
0.057373
-0.000000
-0.000000
-0.000000
0.365234
0.066284
-0.000000
0.988281
-0.000000
-0.000000
1.702148
-0.000000
-0.000000
1.190430
0.438721
-0.000000
-0.000000
-0.000000
0.011536
1.125977
0.068726
-0.000000
-0.000000
0.877441
-0.000000
0.620605
-0.000000
-0.000000
-0.000000
-0.000000
-0.000000
0.076599
1.144531
0.327393
-0.000000
-0.000000
0.039856
0.057098
0.273438
0.023605
-0.000000
-0.000000
-0.000000
0.432861
-0.000000
0.279785
-0.000000
-0.000000
-0.000000
-0.000000
0.549805
-0.000000
-0.000000
-0.000000
-0.000000
-0.000000
-0.000000
-0.000000
-0.000000
-0.000000
-0.000000
-0.000000
-0.000000
-0.000000
-0.000000
-0.000000
-0.000000
-0.000000
-0.000000
-0.000000
-0.000000
-0.000000
0.361084
-0.000000
-0.000000
-0.000000
0.171631
-0.000000
-0.000000
-0.000000
-0.000000
-0.000000
-0.000000
-0.000000
-0.000000
1.404297
0.020508
-0.000000
0.116333
-0.000000
0.136963
0.985352
-0.000000
-0.000000
-0.000000
-0.000000
0.214966
-0.000000
0.203857
0.204468
0.094543
-0.000000
-0.000000
-0.000000
-0.000000
-0.000000
0.037659
-0.000000
-0.000000
-0.000000
-0.000000
-0.000000
0.123474
0.490967
-0.000000
-0.000000
-0.000000
0.538574
0.984375
-0.000000
-0.000000
-0.000000
0.802734
0.188477
-0.000000
-0.000000
-0.000000
-0.000000
-0.000000
-0.000000
-0.000000
-0.000000
-0.000000
-0.000000
-0.000000
-0.000000
0.001831
0.075073
0.065002
-0.000000
-0.000000
-0.000000
-0.000000
0.007812
-0.000000
0.337891
-0.000000
-0.000000
0.671875
-0.000000
0.201660
-0.000000
-0.000000
-0.000000
-0.000000
-0.000000
0.048615
0.361328
0.786621
-0.000000
-0.000000
-0.000000
0.300781
-0.000000
-0.000000
-0.000000
-0.000000
-0.000000
0.300049
0.098816
-0.000000
-0.000000
0.073608
-0.000000
-0.000000
-0.000000
-0.000000
-0.000000
-0.000000
-0.000000
-0.000000
-0.000000
-0.000000
-0.000000
0.007019
-0.000000
-0.000000
0.070679
0.520996
-0.000000
0.479248
-0.000000
-0.000000
0.147339
-0.000000
-0.000000
-0.000000
-0.000000
-0.000000
0.141357
-0.000000
0.009277
-0.000000
0.092041
-0.000000
0.003052
-0.000000
0.120483
-0.000000
-0.000000
-0.000000
0.512695
-0.000000
-0.000000
-0.000000
-0.000000
-0.000000
-0.000000
-0.000000
0.029968
-0.000000
-0.000000
0.785156
-0.000000
0.030029
-0.000000
-0.000000
-0.000000
0.011292
