-0.000000
0.833984
-0.000000
0.909180
0.012299
1.354492
-0.000000
-0.000000
-0.000000
-0.000000
0.458496
-0.000000
0.661621
0.078003
-0.000000
-0.000000
-0.000000
-0.000000
-0.000000
-0.000000
0.380127
-0.000000
-0.000000
-0.000000
-0.000000
-0.000000
-0.000000
-0.000000
1.690430
1.052734
-0.000000
-0.000000
-0.000000
-0.000000
-0.000000
-0.000000
-0.000000
1.444336
-0.000000
1.935547
-0.000000
-0.000000
0.045837
-0.000000
-0.000000
-0.000000
0.926270
-0.000000
-0.000000
-0.000000
-0.000000
0.136108
0.171997
-0.000000
-0.000000
-0.000000
-0.000000
0.902832
-0.000000
1.381836
-0.000000
-0.000000
0.086853
0.134888
-0.000000
0.026001
-0.000000
1.042969
-0.000000
-0.000000
-0.000000
-0.000000
0.235107
-0.000000
-0.000000
-0.000000
-0.000000
-0.000000
-0.000000
0.752441
-0.000000
-0.000000
0.890625
1.237305
-0.000000
0.125122
-0.000000
-0.000000
-0.000000
-0.000000
0.221924
-0.000000
1.023438
0.119019
0.228516
-0.000000
0.160767
-0.000000
-0.000000
1.228516
-0.000000
-0.000000
-0.000000
0.127808
-0.000000
-0.000000
0.297363
-0.000000
-0.000000
-0.000000
-0.000000
1.040039
1.261719
0.279541
0.127563
0.046814
-0.000000
-0.000000
-0.000000
0.122925
0.687500
-0.000000
0.159180
0.013885
-0.000000
-0.000000
-0.000000
-0.000000
1.243164
-0.000000
-0.000000
-0.000000
-0.000000
-0.000000
-0.000000
0.121704
3.531250
-0.000000
-0.000000
-0.000000
0.059875
-0.000000
-0.000000
-0.000000
-0.000000
-0.000000
1.106445
-0.000000
-0.000000
-0.000000
-0.000000
-0.000000
1.006836
-0.000000
-0.000000
0.526855
0.054810
0.016235
-0.000000
-0.000000
-0.000000
0.264648
-0.000000
-0.000000
1.432617
-0.000000
-0.000000
-0.000000
-0.000000
-0.000000
-0.000000
-0.000000
2.138672
-0.000000
-0.000000
-0.000000
-0.000000
-0.000000
-0.000000
0.267334
-0.000000
-0.000000
0.482666
-0.000000
0.107483
-0.000000
-0.000000
-0.000000
-0.000000
-0.000000
0.137207
1.683594
-0.000000
-0.000000
-0.000000
0.254150
0.372070
-0.000000
-0.000000
-0.000000
1.483398
0.069519
-0.000000
-0.000000
-0.000000
-0.000000
0.210205
-0.000000
-0.000000
-0.000000
1.267578
0.600098
-0.000000
-0.000000
-0.000000
-0.000000
0.503906
-0.000000
0.911621
-0.000000
-0.000000
-0.000000
-0.000000
-0.000000
-0.000000
-0.000000
0.358154
0.130493
-0.000000
0.814941
-0.000000
-0.000000
-0.000000
0.039124
-0.000000
1.063477
0.792969
-0.000000
0.646484
-0.000000
0.180908
-0.000000
-0.000000
-0.000000
-0.000000
0.278564
-0.000000
-0.000000
-0.000000
-0.000000
-0.000000
-0.000000
-0.000000
0.108582
-0.000000
-0.000000
0.035950
-0.000000
-0.000000
0.237427
0.380371
1.856445
-0.000000
0.238647
-0.000000
0.105225
-0.000000
-0.000000
-0.000000
-0.000000
-0.000000
0.033478
0.007568
-0.000000
-0.000000
0.014404
-0.000000
0.078857
-0.000000
-0.000000
-0.000000
0.799805
0.142456
-0.000000
-0.000000
-0.000000
-0.000000
-0.000000
-0.000000
-0.000000
-0.000000
-0.000000
-0.000000
-0.000000
-0.000000
-0.000000
-0.000000
0.113342
-0.000000
0.359375
-0.000000
0.176392
0.005005
0.420898
0.041992
-0.000000
-0.000000
-0.000000
-0.000000
0.149902
-0.000000
-0.000000
0.503418
-0.000000
0.184937
-0.000000
-0.000000
-0.000000
0.860352
-0.000000
-0.000000
0.044220
-0.000000
0.953125
-0.000000
-0.000000
-0.000000
-0.000000
0.948242
0.055725
-0.000000
-0.000000
-0.000000
1.121094
-0.000000
-0.000000
-0.000000
0.246094
0.163452
-0.000000
-0.000000
0.053467
-0.000000
0.498535
-0.000000
-0.000000
-0.000000
-0.000000
0.250244
-0.000000
0.320801
-0.000000
-0.000000
-0.000000
-0.000000
0.386963
0.488281
-0.000000
-0.000000
0.070862
-0.000000
-0.000000
-0.000000
0.206055
-0.000000
-0.000000
-0.000000
-0.000000
-0.000000
0.947266
-0.000000
-0.000000
1.197266
-0.000000
-0.000000
-0.000000
-0.000000
0.056824
-0.000000
-0.000000
-0.000000
-0.000000
-0.000000
-0.000000
-0.000000
0.030151
-0.000000
0.285400
0.281494
0.154541
0.021545
-0.000000
-0.000000
-0.000000
-0.000000
-0.000000
-0.000000
1.885742
-0.000000
-0.000000
-0.000000
-0.000000
-0.000000
-0.000000
-0.000000
0.884277
-0.000000
-0.000000
-0.000000
0.020691
0.746582
-0.000000
0.893555
-0.000000
-0.000000
-0.000000
-0.000000
-0.000000
-0.000000
1.045898
-0.000000
0.574219
-0.000000
0.138306
-0.000000
-0.000000
-0.000000
0.372803
0.891113
-0.000000
-0.000000
-0.000000
-0.000000
-0.000000
-0.000000
-0.000000
-0.000000
-0.000000
0.052002
0.729004
0.117615
-0.000000
-0.000000
0.345459
0.103394
-0.000000
0.322021
-0.000000
0.209106
0.071533
-0.000000
-0.000000
-0.000000
-0.000000
0.394043
0.089050
-0.000000
-0.000000
0.220459
-0.000000
-0.000000
-0.000000
-0.000000
-0.000000
-0.000000
0.005051
-0.000000
-0.000000
-0.000000
0.167603
-0.000000
-0.000000
0.454346
-0.000000
-0.000000
-0.000000
-0.000000
0.089783
1.240234
-0.000000
-0.000000
-0.000000
1.086914
-0.000000
-0.000000
-0.000000
-0.000000
-0.000000
-0.000000
-0.000000
-0.000000
-0.000000
0.147217
-0.000000
-0.000000
2.046875
-0.000000
-0.000000
-0.000000
-0.000000
