-0.000000
0.314697
-0.000000
-0.000000
-0.000000
-0.000000
0.035889
0.231445
-0.000000
-0.000000
-0.000000
-0.000000
-0.000000
-0.000000
-0.000000
-0.000000
-0.000000
-0.000000
-0.000000
-0.000000
0.051208
-0.000000
0.277588
-0.000000
0.046295
0.251953
-0.000000
-0.000000
-0.000000
0.047302
-0.000000
-0.000000
-0.000000
-0.000000
-0.000000
-0.000000
-0.000000
0.417236
-0.000000
1.169922
-0.000000
-0.000000
-0.000000
-0.000000
-0.000000
-0.000000
0.563965
-0.000000
0.075623
-0.000000
-0.000000
0.157471
0.032288
-0.000000
-0.000000
-0.000000
0.083923
0.167969
-0.000000
0.080811
0.363037
-0.000000
-0.000000
-0.000000
-0.000000
0.081299
-0.000000
0.078003
-0.000000
0.942383
-0.000000
-0.000000
-0.000000
-0.000000
-0.000000
-0.000000
-0.000000
-0.000000
-0.000000
1.184570
-0.000000
-0.000000
0.619141
-0.000000
0.248535
0.471436
-0.000000
0.196411
-0.000000
-0.000000
-0.000000
0.087402
0.591797
-0.000000
0.060791
-0.000000
0.011696
-0.000000
-0.000000
0.861328
0.059814
-0.000000
0.397217
0.283936
-0.000000
0.400391
-0.000000
-0.000000
-0.000000
0.424072
0.457520
0.723145
-0.000000
0.234741
-0.000000
0.134766
-0.000000
0.078857
-0.000000
0.294922
0.367920
-0.000000
-0.000000
-0.000000
0.005127
-0.000000
0.496338
-0.000000
0.592285
-0.000000
-0.000000
-0.000000
0.022766
-0.000000
-0.000000
-0.000000
0.147095
-0.000000
0.000488
-0.000000
-0.000000
-0.000000
-0.000000
-0.000000
-0.000000
-0.000000
-0.000000
0.032227
-0.000000
-0.000000
-0.000000
-0.000000
1.130859
-0.000000
-0.000000
-0.000000
0.574219
-0.000000
-0.000000
-0.000000
0.316162
-0.000000
-0.000000
-0.000000
-0.000000
-0.000000
0.286133
0.194702
-0.000000
-0.000000
0.014969
0.558105
-0.000000
-0.000000
-0.000000
-0.000000
-0.000000
-0.000000
0.184082
0.658691
-0.000000
-0.000000
-0.000000
0.099854
0.063171
0.051392
-0.000000
-0.000000
-0.000000
-0.000000
-0.000000
-0.000000
-0.000000
-0.000000
0.021973
0.220215
-0.000000
-0.000000
-0.000000
0.338135
0.650879
-0.000000
-0.000000
0.128418
0.077393
-0.000000
-0.000000
0.455078
0.132935
-0.000000
-0.000000
0.208130
0.150635
-0.000000
-0.000000
0.012207
-0.000000
0.150635
0.929199
0.073303
-0.000000
1.140625
-0.000000
-0.000000
0.066040
-0.000000
1.682617
0.256592
-0.000000
-0.000000
0.058746
-0.000000
1.043945
0.472656
-0.000000
-0.000000
-0.000000
-0.000000
0.701172
-0.000000
-0.000000
0.012299
-0.000000
0.190552
-0.000000
0.206055
-0.000000
-0.000000
-0.000000
-0.000000
0.070068
-0.000000
-0.000000
0.218872
-0.000000
0.392334
-0.000000
-0.000000
-0.000000
0.088440
0.374512
0.530273
0.231079
0.660645
0.119812
-0.000000
-0.000000
-0.000000
-0.000000
-0.000000
-0.000000
-0.000000
-0.000000
-0.000000
-0.000000
0.216919
0.109558
0.067566
-0.000000
0.533691
-0.000000
0.849609
0.066711
-0.000000
-0.000000
-0.000000
-0.000000
0.750000
-0.000000
-0.000000
-0.000000
-0.000000
-0.000000
-0.000000
-0.000000
-0.000000
-0.000000
-0.000000
-0.000000
0.950195
-0.000000
1.148438
0.039551
-0.000000
-0.000000
-0.000000
-0.000000
0.495361
-0.000000
-0.000000
-0.000000
0.014648
-0.000000
-0.000000
-0.000000
-0.000000
-0.000000
0.879883
-0.000000
1.258789
-0.000000
-0.000000
-0.000000
0.331543
-0.000000
-0.000000
0.595703
-0.000000
0.105591
1.166992
-0.000000
-0.000000
-0.000000
1.116211
-0.000000
-0.000000
-0.000000
0.672363
1.281250
-0.000000
-0.000000
0.050049
0.578613
0.249756
2.865234
-0.000000
-0.000000
0.156494
-0.000000
-0.000000
0.626465
-0.000000
-0.000000
-0.000000
-0.000000
-0.000000
0.123535
-0.000000
-0.000000
-0.000000
-0.000000
-0.000000
-0.000000
0.397949
-0.000000
-0.000000
-0.000000
-0.000000
0.414795
0.459229
-0.000000
-0.000000
1.088867
-0.000000
-0.000000
-0.000000
-0.000000
-0.000000
-0.000000
-0.000000
0.118347
-0.000000
0.101685
0.015900
-0.000000
-0.000000
1.209961
-0.000000
0.020508
0.095459
-0.000000
-0.000000
-0.000000
0.063599
-0.000000
0.101685
-0.000000
-0.000000
0.064331
-0.000000
-0.000000
0.278076
-0.000000
-0.000000
-0.000000
0.604004
-0.000000
0.224731
-0.000000
-0.000000
-0.000000
-0.000000
-0.000000
-0.000000
-0.000000
-0.000000
0.475586
-0.000000
-0.000000
0.346924
-0.000000
0.655273
-0.000000
0.048584
-0.000000
0.035828
-0.000000
0.562988
0.130249
-0.000000
0.482910
-0.000000
-0.000000
-0.000000
-0.000000
-0.000000
0.790527
-0.000000
-0.000000
0.184814
-0.000000
-0.000000
0.015381
0.081665
0.097900
0.028015
-0.000000
-0.000000
0.005493
0.084961
-0.000000
-0.000000
-0.000000
0.388184
0.351562
-0.000000
-0.000000
0.070618
0.152466
-0.000000
-0.000000
0.067017
-0.000000
-0.000000
-0.000000
0.001465
-0.000000
-0.000000
-0.000000
-0.000000
-0.000000
-0.000000
-0.000000
-0.000000
0.279053
-0.000000
-0.000000
-0.000000
0.668945
-0.000000
-0.000000
0.224854
-0.000000
-0.000000
-0.000000
-0.000000
-0.000000
-0.000000
-0.000000
-0.000000
-0.000000
0.470215
-0.000000
-0.000000
-0.000000
0.687012
-0.000000
-0.000000
-0.000000
-0.000000
