-0.000000
-0.000000
-0.000000
0.216431
-0.000000
-0.000000
-0.000000
0.388672
-0.000000
0.737793
-0.000000
0.052185
-0.000000
0.332275
-0.000000
-0.000000
-0.000000
-0.000000
-0.000000
-0.000000
1.339844
-0.000000
-0.000000
-0.000000
-0.000000
-0.000000
0.398926
-0.000000
2.722656
-0.000000
-0.000000
-0.000000
-0.000000
1.591797
-0.000000
-0.000000
-0.000000
-0.000000
-0.000000
0.466309
0.218506
-0.000000
0.192261
-0.000000
-0.000000
-0.000000
1.459961
-0.000000
-0.000000
-0.000000
-0.000000
0.522461
0.095764
-0.000000
-0.000000
-0.000000
-0.000000
-0.000000
-0.000000
-0.000000
-0.000000
0.351074
0.097717
-0.000000
-0.000000
-0.000000
-0.000000
-0.000000
-0.000000
0.256348
-0.000000
-0.000000
0.178589
-0.000000
-0.000000
-0.000000
0.113953
-0.000000
0.016342
-0.000000
-0.000000
-0.000000
-0.000000
0.400635
-0.000000
-0.000000
-0.000000
0.322510
1.060547
-0.000000
0.201660
-0.000000
-0.000000
-0.000000
-0.000000
-0.000000
0.007263
-0.000000
-0.000000
0.491455
-0.000000
1.159180
0.804688
-0.000000
0.070190
-0.000000
-0.000000
-0.000000
-0.000000
0.744629
-0.000000
-0.000000
1.613281
-0.000000
-0.000000
-0.000000
-0.000000
-0.000000
-0.000000
0.226929
-0.000000
-0.000000
-0.000000
-0.000000
-0.000000
0.040009
-0.000000
-0.000000
-0.000000
-0.000000
0.288330
-0.000000
-0.000000
-0.000000
-0.000000
-0.000000
0.591309
-0.000000
-0.000000
-0.000000
-0.000000
-0.000000
0.047363
1.018555
-0.000000
0.594238
-0.000000
0.295654
0.381592
0.064331
-0.000000
-0.000000
-0.000000
-0.000000
-0.000000
0.042633
-0.000000
-0.000000
-0.000000
0.094910
-0.000000
2.525391
0.773926
-0.000000
-0.000000
-0.000000
0.442871
0.689941
-0.000000
-0.000000
0.094604
0.556641
-0.000000
-0.000000
-0.000000
-0.000000
-0.000000
1.703125
-0.000000
-0.000000
-0.000000
-0.000000
-0.000000
-0.000000
0.476562
0.108765
-0.000000
-0.000000
-0.000000
-0.000000
0.048889
0.152832
-0.000000
-0.000000
-0.000000
0.227173
-0.000000
-0.000000
-0.000000
0.448486
-0.000000
-0.000000
-0.000000
0.171143
-0.000000
-0.000000
-0.000000
-0.000000
0.704590
-0.000000
-0.000000
-0.000000
-0.000000
-0.000000
0.334473
-0.000000
-0.000000
-0.000000
-0.000000
0.363037
-0.000000
-0.000000
-0.000000
-0.000000
-0.000000
-0.000000
-0.000000
1.453125
-0.000000
-0.000000
0.065857
-0.000000
-0.000000
-0.000000
-0.000000
-0.000000
-0.000000
-0.000000
-0.000000
-0.000000
-0.000000
-0.000000
0.395996
-0.000000
0.051025
0.148804
-0.000000
-0.000000
-0.000000
-0.000000
-0.000000
-0.000000
-0.000000
-0.000000
-0.000000
0.139160
0.347900
-0.000000
-0.000000
-0.000000
-0.000000
-0.000000
-0.000000
-0.000000
0.027405
-0.000000
2.076172
-0.000000
-0.000000
-0.000000
0.678711
0.134277
1.763672
1.833984
-0.000000
-0.000000
0.569824
-0.000000
-0.000000
0.805176
-0.000000
1.125000
-0.000000
-0.000000
2.167969
0.794434
-0.000000
0.041016
-0.000000
-0.000000
0.000183
-0.000000
-0.000000
-0.000000
0.185547
-0.000000
0.141602
-0.000000
-0.000000
-0.000000
1.506836
-0.000000
-0.000000
-0.000000
0.094604
-0.000000
-0.000000
-0.000000
-0.000000
-0.000000
-0.000000
-0.000000
1.625000
-0.000000
-0.000000
2.396484
-0.000000
-0.000000
-0.000000
-0.000000
-0.000000
-0.000000
-0.000000
-0.000000
-0.000000
-0.000000
-0.000000
-0.000000
-0.000000
-0.000000
-0.000000
-0.000000
-0.000000
0.163086
0.001369
-0.000000
-0.000000
-0.000000
-0.000000
0.845703
-0.000000
0.130127
-0.000000
-0.000000
-0.000000
0.024704
-0.000000
0.408691
-0.000000
-0.000000
-0.000000
-0.000000
-0.000000
-0.000000
-0.000000
-0.000000
-0.000000
-0.000000
-0.000000
-0.000000
-0.000000
-0.000000
0.205566
-0.000000
0.240967
-0.000000
-0.000000
-0.000000
-0.000000
-0.000000
-0.000000
2.781250
-0.000000
-0.000000
-0.000000
-0.000000
-0.000000
1.008789
-0.000000
-0.000000
-0.000000
1.501953
-0.000000
0.281494
-0.000000
-0.000000
-0.000000
-0.000000
0.273193
-0.000000
-0.000000
-0.000000
-0.000000
-0.000000
-0.000000
0.325439
-0.000000
-0.000000
-0.000000
-0.000000
-0.000000
-0.000000
-0.000000
-0.000000
-0.000000
-0.000000
0.729004
-0.000000
-0.000000
-0.000000
0.048615
-0.000000
-0.000000
-0.000000
0.206543
-0.000000
-0.000000
-0.000000
0.697266
-0.000000
-0.000000
-0.000000
-0.000000
0.041138
-0.000000
0.385986
-0.000000
-0.000000
0.162842
-0.000000
0.749512
-0.000000
-0.000000
-0.000000
-0.000000
-0.000000
-0.000000
-0.000000
-0.000000
0.062439
0.625977
-0.000000
-0.000000
0.365479
-0.000000
0.058319
-0.000000
-0.000000
-0.000000
-0.000000
-0.000000
-0.000000
-0.000000
0.615234
0.023438
-0.000000
-0.000000
-0.000000
-0.000000
0.115723
-0.000000
-0.000000
-0.000000
-0.000000
-0.000000
-0.000000
-0.000000
-0.000000
-0.000000
-0.000000
-0.000000
-0.000000
-0.000000
-0.000000
-0.000000
-0.000000
0.001953
-0.000000
1.570312
0.039520
-0.000000
-0.000000
0.645020
-0.000000
-0.000000
-0.000000
-0.000000
-0.000000
0.607910
-0.000000
-0.000000
0.774414
0.452637
0.311523
1.030273
1.171875
-0.000000
-0.000000
-0.000000
-0.000000
