-0.000000
-0.000000
-0.000000
-0.000000
-0.000000
-0.000000
0.117065
-0.000000
-0.000000
-0.000000
0.110657
-0.000000
-0.000000
-0.000000
-0.000000
-0.000000
-0.000000
-0.000000
-0.000000
-0.000000
0.988281
-0.000000
0.566895
0.134399
0.055328
-0.000000
0.316162
-0.000000
2.941406
0.048401
-0.000000
-0.000000
0.294189
2.001953
-0.000000
-0.000000
0.809570
-0.000000
-0.000000
-0.000000
-0.000000
3.464844
0.512207
0.342285
-0.000000
0.531738
-0.000000
-0.000000
-0.000000
-0.000000
-0.000000
1.220703
0.163574
-0.000000
-0.000000
-0.000000
-0.000000
-0.000000
-0.000000
-0.000000
-0.000000
-0.000000
-0.000000
-0.000000
0.107239
0.472168
-0.000000
-0.000000
-0.000000
-0.000000
-0.000000
-0.000000
-0.000000
0.315918
-0.000000
1.108398
-0.000000
0.016571
-0.000000
-0.000000
-0.000000
0.218994
-0.000000
-0.000000
-0.000000
-0.000000
-0.000000
0.078430
-0.000000
-0.000000
-0.000000
0.156128
-0.000000
0.514648
-0.000000
-0.000000
0.263672
-0.000000
-0.000000
-0.000000
-0.000000
-0.000000
-0.000000
0.417969
-0.000000
-0.000000
-0.000000
0.694824
-0.000000
1.552734
0.171021
-0.000000
1.871094
-0.000000
-0.000000
-0.000000
-0.000000
-0.000000
-0.000000
1.126953
-0.000000
0.026489
0.255859
0.013397
0.243286
-0.000000
-0.000000
-0.000000
-0.000000
0.596680
-0.000000
-0.000000
-0.000000
-0.000000
-0.000000
-0.000000
-0.000000
-0.000000
-0.000000
-0.000000
-0.000000
-0.000000
-0.000000
-0.000000
-0.000000
-0.000000
-0.000000
0.342285
-0.000000
0.020630
-0.000000
-0.000000
-0.000000
-0.000000
-0.000000
0.269775
-0.000000
-0.000000
-0.000000
-0.000000
-0.000000
-0.000000
1.147461
1.153320
-0.000000
-0.000000
-0.000000
-0.000000
-0.000000
-0.000000
-0.000000
-0.000000
-0.000000
0.389160
-0.000000
-0.000000
-0.000000
-0.000000
0.745605
-0.000000
-0.000000
-0.000000
-0.000000
-0.000000
1.358398
0.165161
-0.000000
-0.000000
-0.000000
0.880859
-0.000000
0.057495
-0.000000
-0.000000
0.072876
0.040039
-0.000000
-0.000000
-0.000000
-0.000000
-0.000000
-0.000000
-0.000000
0.050903
0.003632
0.745117
-0.000000
0.875000
-0.000000
-0.000000
-0.000000
0.062500
-0.000000
-0.000000
0.082031
0.133301
-0.000000
0.108643
-0.000000
0.973145
-0.000000
-0.000000
-0.000000
-0.000000
0.406494
-0.000000
-0.000000
-0.000000
-0.000000
0.829590
1.015625
-0.000000
0.480957
-0.000000
-0.000000
-0.000000
0.291260
0.064209
-0.000000
-0.000000
-0.000000
0.447998
0.126221
0.113708
-0.000000
-0.000000
-0.000000
0.122925
-0.000000
1.640625
-0.000000
-0.000000
-0.000000
0.137817
-0.000000
-0.000000
1.095703
-0.000000
0.526367
-0.000000
1.079102
-0.000000
-0.000000
-0.000000
-0.000000
-0.000000
-0.000000
-0.000000
-0.000000
-0.000000
1.240234
-0.000000
0.964844
1.479492
-0.000000
-0.000000
0.011108
-0.000000
0.521484
-0.000000
-0.000000
-0.000000
0.144165
-0.000000
-0.000000
-0.000000
-0.000000
-0.000000
-0.000000
0.223877
0.622559
0.187866
-0.000000
-0.000000
0.631836
-0.000000
0.417725
-0.000000
-0.000000
0.353027
0.756348
-0.000000
-0.000000
-0.000000
0.197021
-0.000000
0.007446
-0.000000
0.218018
0.136475
0.017914
0.095886
1.143555
-0.000000
0.008789
0.579102
-0.000000
-0.000000
-0.000000
-0.000000
-0.000000
0.058502
-0.000000
-0.000000
-0.000000
-0.000000
-0.000000
-0.000000
-0.000000
-0.000000
-0.000000
-0.000000
-0.000000
-0.000000
0.026535
-0.000000
-0.000000
-0.000000
0.006042
-0.000000
-0.000000
-0.000000
0.318115
-0.000000
-0.000000
-0.000000
-0.000000
0.360840
1.151367
-0.000000
-0.000000
-0.000000
-0.000000
-0.000000
-0.000000
-0.000000
-0.000000
-0.000000
-0.000000
0.245361
0.023956
0.075195
-0.000000
-0.000000
0.076721
-0.000000
-0.000000
0.023315
-0.000000
-0.000000
-0.000000
1.470703
-0.000000
0.405029
-0.000000
-0.000000
-0.000000
-0.000000
-0.000000
0.143433
-0.000000
-0.000000
-0.000000
-0.000000
0.750977
0.099854
-0.000000
0.110962
-0.000000
0.582031
-0.000000
-0.000000
-0.000000
-0.000000
0.425049
-0.000000
-0.000000
-0.000000
-0.000000
-0.000000
-0.000000
-0.000000
-0.000000
-0.000000
-0.000000
-0.000000
0.269531
-0.000000
-0.000000
0.791016
-0.000000
0.308350
-0.000000
-0.000000
-0.000000
-0.000000
-0.000000
-0.000000
-0.000000
-0.000000
-0.000000
-0.000000
-0.000000
-0.000000
-0.000000
-0.000000
-0.000000
-0.000000
-0.000000
0.878906
0.760742
-0.000000
-0.000000
0.746582
-0.000000
-0.000000
-0.000000
-0.000000
-0.000000
0.616699
0.247559
-0.000000
-0.000000
0.138306
-0.000000
0.000926
-0.000000
-0.000000
-0.000000
-0.000000
-0.000000
-0.000000
-0.000000
1.396484
-0.000000
0.104126
-0.000000
0.681641
-0.000000
0.997559
-0.000000
-0.000000
-0.000000
-0.000000
0.366211
-0.000000
-0.000000
-0.000000
0.216797
0.030167
-0.000000
0.912598
-0.000000
-0.000000
-0.000000
0.180298
-0.000000
0.106445
-0.000000
-0.000000
1.175781
-0.000000
-0.000000
-0.000000
0.072266
-0.000000
-0.000000
-0.000000
-0.000000
-0.000000
0.099182
-0.000000
-0.000000
0.419922
1.325195
0.156250
-0.000000
-0.000000
-0.000000
0.798340
