-0.000000
-0.000000
-0.000000
-0.000000
0.361328
-0.000000
-0.000000
-0.000000
-0.000000
1.703125
0.095886
-0.000000
-0.000000
0.913574
-0.000000
-0.000000
-0.000000
-0.000000
-0.000000
-0.000000
-0.000000
-0.000000
0.150391
-0.000000
0.100891
-0.000000
-0.000000
-0.000000
-0.000000
-0.000000
-0.000000
-0.000000
-0.000000
-0.000000
-0.000000
-0.000000
0.708984
-0.000000
-0.000000
-0.000000
-0.000000
2.253906
-0.000000
2.853516
-0.000000
0.275635
-0.000000
-0.000000
-0.000000
-0.000000
-0.000000
-0.000000
0.204590
-0.000000
-0.000000
-0.000000
0.061584
-0.000000
-0.000000
-0.000000
-0.000000
-0.000000
-0.000000
0.222290
0.128906
-0.000000
-0.000000
-0.000000
-0.000000
-0.000000
-0.000000
-0.000000
0.104065
-0.000000
-0.000000
-0.000000
-0.000000
-0.000000
0.114075
-0.000000
-0.000000
0.445068
-0.000000
0.346924
-0.000000
0.202881
-0.000000
-0.000000
-0.000000
-0.000000
0.132568
-0.000000
-0.000000
1.617188
-0.000000
0.698242
0.214722
-0.000000
0.055389
0.181763
-0.000000
-0.000000
-0.000000
0.571777
0.882812
0.423096
0.338867
0.873535
-0.000000
1.337891
0.123901
-0.000000
-0.000000
0.823730
0.098694
-0.000000
0.957031
4.589844
-0.000000
-0.000000
-0.000000
0.001511
0.939453
0.032013
1.518555
-0.000000
-0.000000
-0.000000
-0.000000
-0.000000
-0.000000
-0.000000
-0.000000
-0.000000
-0.000000
0.614258
-0.000000
-0.000000
-0.000000
-0.000000
-0.000000
-0.000000
0.800781
-0.000000
-0.000000
-0.000000
0.192871
0.430420
-0.000000
-0.000000
2.128906
-0.000000
-0.000000
-0.000000
-0.000000
-0.000000
-0.000000
-0.000000
0.470703
-0.000000
-0.000000
0.346924
-0.000000
0.439697
-0.000000
-0.000000
-0.000000
-0.000000
-0.000000
-0.000000
-0.000000
-0.000000
-0.000000
1.013672
0.006104
-0.000000
0.433594
-0.000000
0.296875
-0.000000
-0.000000
-0.000000
1.415039
1.058594
-0.000000
0.038269
-0.000000
-0.000000
-0.000000
2.212891
0.328857
0.384033
-0.000000
0.099731
0.078735
0.368164
-0.000000
-0.000000
-0.000000
0.608887
-0.000000
0.211792
-0.000000
-0.000000
0.206055
-0.000000
-0.000000
-0.000000
-0.000000
-0.000000
-0.000000
0.030212
0.672852
-0.000000
-0.000000
-0.000000
-0.000000
-0.000000
0.040985
0.288818
-0.000000
-0.000000
-0.000000
-0.000000
0.671387
-0.000000
2.039062
-0.000000
-0.000000
-0.000000
-0.000000
-0.000000
0.233521
-0.000000
-0.000000
-0.000000
-0.000000
-0.000000
-0.000000
0.901855
-0.000000
1.127930
0.135620
0.597168
0.690918
-0.000000
-0.000000
0.466797
-0.000000
0.858398
-0.000000
-0.000000
-0.000000
-0.000000
0.069702
-0.000000
0.620605
-0.000000
2.421875
-0.000000
-0.000000
-0.000000
-0.000000
-0.000000
-0.000000
0.057190
-0.000000
-0.000000
-0.000000
-0.000000
-0.000000
0.019180
-0.000000
0.345947
-0.000000
-0.000000
0.541992
-0.000000
-0.000000
-0.000000
-0.000000
-0.000000
-0.000000
-0.000000
0.292725
-0.000000
0.093933
-0.000000
0.009369
0.326660
-0.000000
0.425537
-0.000000
-0.000000
0.365967
-0.000000
0.166260
-0.000000
-0.000000
-0.000000
-0.000000
-0.000000
0.093445
-0.000000
0.658203
-0.000000
0.014404
-0.000000
-0.000000
0.129517
-0.000000
-0.000000
1.169922
-0.000000
0.354004
-0.000000
-0.000000
-0.000000
0.498535
-0.000000
-0.000000
-0.000000
-0.000000
0.076660
-0.000000
-0.000000
-0.000000
-0.000000
-0.000000
0.755859
-0.000000
0.077454
-0.000000
-0.000000
-0.000000
-0.000000
0.931641
-0.000000
-0.000000
-0.000000
-0.000000
0.098572
-0.000000
-0.000000
0.507324
-0.000000
-0.000000
0.078125
2.402344
-0.000000
0.113342
0.006317
0.103210
-0.000000
-0.000000
-0.000000
0.275391
-0.000000
-0.000000
0.706543
0.145630
-0.000000
-0.000000
-0.000000
-0.000000
-0.000000
-0.000000
0.309814
0.990723
-0.000000
0.237915
-0.000000
1.127930
2.167969
2.578125
-0.000000
-0.000000
-0.000000
-0.000000
1.087891
0.914551
0.372559
-0.000000
-0.000000
1.030273
0.176758
-0.000000
1.038086
-0.000000
-0.000000
-0.000000
-0.000000
0.246460
0.445068
0.085022
-0.000000
-0.000000
-0.000000
0.152466
-0.000000
0.445557
0.079590
-0.000000
-0.000000
0.113159
0.175537
0.199219
-0.000000
-0.000000
2.427734
-0.000000
1.009766
-0.000000
-0.000000
-0.000000
-0.000000
-0.000000
-0.000000
1.483398
-0.000000
-0.000000
0.956055
-0.000000
-0.000000
1.446289
-0.000000
0.221924
0.012810
-0.000000
0.223145
0.361084
-0.000000
-0.000000
0.430908
-0.000000
-0.000000
-0.000000
-0.000000
-0.000000
-0.000000
-0.000000
-0.000000
0.228760
-0.000000
-0.000000
0.009026
0.060577
-0.000000
0.080933
0.262939
0.014404
-0.000000
-0.000000
-0.000000
-0.000000
-0.000000
1.456055
-0.000000
-0.000000
0.348389
0.181152
0.352295
-0.000000
1.575195
0.516113
-0.000000
-0.000000
-0.000000
0.287109
-0.000000
-0.000000
-0.000000
-0.000000
0.026611
-0.000000
1.083008
-0.000000
-0.000000
-0.000000
-0.000000
1.436523
-0.000000
-0.000000
-0.000000
0.644043
-0.000000
-0.000000
-0.000000
0.341064
0.245972
0.246094
1.325195
-0.000000
-0.000000
-0.000000
-0.000000
-0.000000
-0.000000
-0.000000
1.234375
