-0.000000
-0.000000
-0.000000
-0.000000
0.786133
-0.000000
0.066528
-0.000000
-0.000000
0.357422
-0.000000
-0.000000
-0.000000
-0.000000
-0.000000
-0.000000
-0.000000
-0.000000
-0.000000
-0.000000
0.379883
-0.000000
0.881836
0.047852
0.054535
-0.000000
0.117981
-0.000000
-0.000000
0.477783
-0.000000
-0.000000
-0.000000
-0.000000
-0.000000
-0.000000
-0.000000
0.445068
-0.000000
-0.000000
0.085205
1.149414
0.150757
0.462891
-0.000000
0.052368
-0.000000
-0.000000
-0.000000
-0.000000
-0.000000
-0.000000
-0.000000
-0.000000
-0.000000
1.148438
0.236206
-0.000000
-0.000000
-0.000000
-0.000000
0.034698
-0.000000
-0.000000
0.127563
-0.000000
-0.000000
-0.000000
-0.000000
-0.000000
-0.000000
-0.000000
-0.000000
0.436523
-0.000000
-0.000000
-0.000000
-0.000000
0.055634
-0.000000
-0.000000
0.415283
-0.000000
0.106262
-0.000000
0.220093
-0.000000
-0.000000
-0.000000
-0.000000
-0.000000
-0.000000
-0.000000
0.098511
-0.000000
-0.000000
-0.000000
-0.000000
-0.000000
0.637207
0.865234
1.433594
-0.000000
-0.000000
1.812500
0.852539
-0.000000
-0.000000
-0.000000
0.896484
-0.000000
-0.000000
0.817871
0.187744
-0.000000
0.009094
0.539551
0.893555
-0.000000
-0.000000
0.875977
0.048431
0.383301
0.000824
-0.000000
0.082703
1.213867
-0.000000
-0.000000
-0.000000
0.112732
-0.000000
0.622559
-0.000000
-0.000000
0.152832
-0.000000
0.336670
-0.000000
-0.000000
0.064270
-0.000000
-0.000000
-0.000000
-0.000000
-0.000000
-0.000000
0.833984
0.161255
-0.000000
-0.000000
1.895508
-0.000000
-0.000000
-0.000000
-0.000000
-0.000000
0.395996
-0.000000
-0.000000
0.534668
-0.000000
-0.000000
-0.000000
-0.000000
-0.000000
-0.000000
0.135010
-0.000000
-0.000000
-0.000000
0.032806
-0.000000
-0.000000
-0.000000
-0.000000
0.143188
1.129883
0.016113
0.283936
0.565918
-0.000000
0.088623
-0.000000
0.377930
-0.000000
-0.000000
0.748047
-0.000000
0.313477
0.330566
-0.000000
0.447021
-0.000000
0.342773
0.179932
-0.000000
-0.000000
-0.000000
-0.000000
-0.000000
-0.000000
-0.000000
-0.000000
0.124084
0.122803
0.383789
-0.000000
1.028320
-0.000000
-0.000000
-0.000000
0.198730
-0.000000
0.001099
-0.000000
-0.000000
-0.000000
-0.000000
-0.000000
-0.000000
-0.000000
-0.000000
-0.000000
-0.000000
-0.000000
-0.000000
-0.000000
0.915039
-0.000000
-0.000000
-0.000000
0.425781
0.011047
-0.000000
0.402588
0.230225
0.125000
-0.000000
-0.000000
0.115479
-0.000000
-0.000000
-0.000000
1.267578
-0.000000
-0.000000
0.223877
-0.000000
-0.000000
0.224365
0.050720
-0.000000
0.710938
0.136963
0.074768
-0.000000
-0.000000
3.091797
-0.000000
0.371094
-0.000000
-0.000000
-0.000000
0.137573
-0.000000
0.014885
-0.000000
-0.000000
-0.000000
-0.000000
-0.000000
-0.000000
0.566406
-0.000000
-0.000000
-0.000000
-0.000000
-0.000000
-0.000000
-0.000000
0.147949
0.114807
-0.000000
2.917969
-0.000000
-0.000000
-0.000000
-0.000000
-0.000000
-0.000000
-0.000000
-0.000000
-0.000000
0.201538
-0.000000
-0.000000
-0.000000
0.177979
-0.000000
-0.000000
-0.000000
-0.000000
0.305908
0.207886
0.007935
-0.000000
-0.000000
0.012848
0.019257
-0.000000
-0.000000
-0.000000
-0.000000
-0.000000
-0.000000
0.243774
-0.000000
-0.000000
-0.000000
-0.000000
-0.000000
-0.000000
-0.000000
-0.000000
-0.000000
-0.000000
-0.000000
-0.000000
0.004822
-0.000000
-0.000000
-0.000000
-0.000000
-0.000000
-0.000000
0.134888
-0.000000
-0.000000
-0.000000
-0.000000
-0.000000
-0.000000
0.392822
-0.000000
0.004402
-0.000000
1.098633
-0.000000
-0.000000
-0.000000
-0.000000
-0.000000
-0.000000
-0.000000
0.195801
0.174805
-0.000000
-0.000000
-0.000000
-0.000000
0.423340
0.916992
-0.000000
-0.000000
-0.000000
-0.000000
-0.000000
2.511719
-0.000000
-0.000000
-0.000000
0.085815
0.409912
-0.000000
-0.000000
-0.000000
-0.000000
-0.000000
-0.000000
-0.000000
-0.000000
-0.000000
-0.000000
0.515625
-0.000000
-0.000000
-0.000000
-0.000000
-0.000000
-0.000000
-0.000000
-0.000000
1.636719
-0.000000
-0.000000
-0.000000
-0.000000
-0.000000
0.063538
0.028473
-0.000000
-0.000000
-0.000000
-0.000000
-0.000000
0.232422
0.659668
0.652344
1.219727
-0.000000
0.578125
0.173828
-0.000000
0.712891
-0.000000
1.482422
-0.000000
-0.000000
0.076416
-0.000000
0.521484
-0.000000
0.165405
1.154297
-0.000000
-0.000000
-0.000000
1.194336
0.924805
-0.000000
-0.000000
-0.000000
-0.000000
-0.000000
-0.000000
-0.000000
-0.000000
-0.000000
-0.000000
0.083069
0.033142
-0.000000
-0.000000
-0.000000
0.023712
0.056427
-0.000000
-0.000000
-0.000000
-0.000000
-0.000000
-0.000000
-0.000000
-0.000000
-0.000000
3.324219
0.086365
0.212280
-0.000000
0.205933
0.296143
-0.000000
0.071167
0.245605
-0.000000
-0.000000
-0.000000
0.003113
-0.000000
0.723633
-0.000000
0.005859
-0.000000
-0.000000
-0.000000
-0.000000
-0.000000
-0.000000
-0.000000
0.449951
-0.000000
-0.000000
-0.000000
0.224731
-0.000000
-0.000000
-0.000000
0.464355
-0.000000
0.005219
-0.000000
-0.000000
0.004410
-0.000000
-0.000000
-0.000000
-0.000000
-0.000000
0.424316
