-0.000000
-0.000000
-0.000000
0.778809
-0.000000
0.189697
0.204834
-0.000000
-0.000000
-0.000000
-0.000000
-0.000000
-0.000000
-0.000000
0.028305
-0.000000
0.011749
-0.000000
0.153442
-0.000000
1.251953
-0.000000
0.222290
-0.000000
-0.000000
-0.000000
-0.000000
-0.000000
2.054688
0.343750
-0.000000
-0.000000
-0.000000
-0.000000
0.024567
-0.000000
-0.000000
-0.000000
-0.000000
1.153320
0.874023
1.150391
-0.000000
-0.000000
-0.000000
-0.000000
-0.000000
-0.000000
-0.000000
-0.000000
-0.000000
1.266602
-0.000000
0.254639
-0.000000
0.378418
0.025879
-0.000000
-0.000000
-0.000000
0.012154
0.437256
0.410889
-0.000000
-0.000000
-0.000000
-0.000000
-0.000000
-0.000000
-0.000000
-0.000000
-0.000000
-0.000000
1.440430
-0.000000
0.144043
-0.000000
0.004211
-0.000000
0.850586
-0.000000
0.019043
-0.000000
-0.000000
0.092346
0.143311
-0.000000
0.309814
-0.000000
-0.000000
-0.000000
0.019653
-0.000000
-0.000000
0.334961
-0.000000
-0.000000
-0.000000
-0.000000
0.075562
2.023438
-0.000000
0.768066
-0.000000
-0.000000
-0.000000
-0.000000
-0.000000
-0.000000
2.583984
-0.000000
0.069519
1.028320
-0.000000
-0.000000
0.018372
-0.000000
-0.000000
-0.000000
1.778320
0.013245
-0.000000
-0.000000
-0.000000
-0.000000
-0.000000
-0.000000
-0.000000
0.057495
-0.000000
0.490723
-0.000000
0.097778
-0.000000
-0.000000
-0.000000
-0.000000
0.015991
-0.000000
-0.000000
0.210205
-0.000000
-0.000000
0.804688
-0.000000
0.213379
-0.000000
-0.000000
-0.000000
0.023315
-0.000000
-0.000000
1.290039
-0.000000
-0.000000
-0.000000
-0.000000
-0.000000
0.269531
-0.000000
0.100464
-0.000000
-0.000000
0.015381
-0.000000
-0.000000
0.513184
0.663574
-0.000000
-0.000000
-0.000000
0.001923
-0.000000
-0.000000
-0.000000
-0.000000
-0.000000
0.923828
-0.000000
0.899902
-0.000000
-0.000000
-0.000000
-0.000000
0.935059
0.013428
-0.000000
-0.000000
-0.000000
-0.000000
-0.000000
-0.000000
-0.000000
-0.000000
-0.000000
0.078247
-0.000000
-0.000000
-0.000000
-0.000000
0.290771
-0.000000
-0.000000
0.312012
-0.000000
0.000122
-0.000000
1.330078
0.246460
-0.000000
-0.000000
0.748047
-0.000000
-0.000000
0.851562
-0.000000
0.137939
0.678223
-0.000000
0.637695
-0.000000
1.269531
-0.000000
-0.000000
-0.000000
-0.000000
-0.000000
-0.000000
0.175049
-0.000000
0.693848
-0.000000
0.015198
-0.000000
-0.000000
0.432861
-0.000000
-0.000000
0.528809
-0.000000
0.091064
-0.000000
-0.000000
0.074280
0.406494
0.929688
-0.000000
-0.000000
-0.000000
-0.000000
-0.000000
-0.000000
-0.000000
-0.000000
-0.000000
-0.000000
-0.000000
-0.000000
-0.000000
-0.000000
0.013062
-0.000000
-0.000000
-0.000000
-0.000000
-0.000000
-0.000000
-0.000000
-0.000000
-0.000000
0.300049
-0.000000
-0.000000
-0.000000
-0.000000
-0.000000
-0.000000
-0.000000
0.618652
-0.000000
-0.000000
1.938477
0.012787
-0.000000
-0.000000
-0.000000
-0.000000
0.007568
-0.000000
-0.000000
-0.000000
-0.000000
-0.000000
-0.000000
-0.000000
-0.000000
0.854004
-0.000000
-0.000000
0.367920
-0.000000
-0.000000
-0.000000
0.826172
-0.000000
-0.000000
-0.000000
0.308350
-0.000000
0.483154
-0.000000
0.062744
-0.000000
-0.000000
-0.000000
-0.000000
0.339600
-0.000000
-0.000000
0.103577
-0.000000
0.000786
-0.000000
-0.000000
-0.000000
-0.000000
-0.000000
-0.000000
-0.000000
0.411865
-0.000000
-0.000000
-0.000000
0.458496
0.001286
-0.000000
-0.000000
-0.000000
1.036133
0.024048
-0.000000
0.023926
0.148682
0.063660
-0.000000
0.036560
-0.000000
-0.000000
-0.000000
-0.000000
0.426270
-0.000000
-0.000000
-0.000000
-0.000000
-0.000000
0.914062
-0.000000
-0.000000
-0.000000
-0.000000
-0.000000
-0.000000
-0.000000
-0.000000
-0.000000
0.020752
-0.000000
0.410889
-0.000000
-0.000000
-0.000000
0.604004
0.004059
-0.000000
-0.000000
-0.000000
0.783691
-0.000000
-0.000000
-0.000000
-0.000000
0.572266
0.408691
-0.000000
-0.000000
-0.000000
-0.000000
1.006836
1.469727
-0.000000
-0.000000
-0.000000
0.334961
0.133911
0.749023
-0.000000
-0.000000
-0.000000
-0.000000
0.375244
-0.000000
-0.000000
-0.000000
-0.000000
-0.000000
-0.000000
0.005615
-0.000000
0.020752
-0.000000
-0.000000
0.375244
-0.000000
-0.000000
-0.000000
0.668457
-0.000000
-0.000000
-0.000000
-0.000000
0.547852
-0.000000
-0.000000
0.060303
-0.000000
-0.000000
0.477539
0.051208
0.075684
0.274170
-0.000000
-0.000000
0.232666
-0.000000
-0.000000
-0.000000
-0.000000
-0.000000
1.293945
0.245850
-0.000000
-0.000000
-0.000000
-0.000000
-0.000000
-0.000000
-0.000000
-0.000000
-0.000000
-0.000000
-0.000000
-0.000000
-0.000000
-0.000000
-0.000000
1.557617
0.164062
-0.000000
0.425781
-0.000000
-0.000000
-0.000000
-0.000000
-0.000000
-0.000000
-0.000000
-0.000000
-0.000000
-0.000000
-0.000000
-0.000000
-0.000000
-0.000000
0.520020
-0.000000
0.026886
-0.000000
-0.000000
-0.000000
-0.000000
-0.000000
-0.000000
-0.000000
-0.000000
-0.000000
-0.000000
-0.000000
-0.000000
0.169800
-0.000000
-0.000000
-0.000000
0.365967
-0.000000
1.048828
-0.000000
-0.000000
-0.000000
0.486816
