-0.000000
0.448242
-0.000000
-0.000000
-0.000000
-0.000000
-0.000000
-0.000000
-0.000000
-0.000000
-0.000000
-0.000000
-0.000000
0.375244
0.001793
-0.000000
0.169678
-0.000000
0.982910
-0.000000
-0.000000
-0.000000
-0.000000
0.187744
0.003654
-0.000000
0.290771
-0.000000
0.135010
-0.000000
-0.000000
-0.000000
-0.000000
0.416992
0.038574
-0.000000
-0.000000
-0.000000
-0.000000
-0.000000
-0.000000
-0.000000
0.225830
-0.000000
-0.000000
-0.000000
-0.000000
-0.000000
-0.000000
-0.000000
-0.000000
1.039062
-0.000000
-0.000000
-0.000000
0.868652
-0.000000
-0.000000
-0.000000
-0.000000
0.174927
-0.000000
1.045898
-0.000000
-0.000000
-0.000000
-0.000000
-0.000000
-0.000000
-0.000000
-0.000000
-0.000000
-0.000000
-0.000000
-0.000000
0.521973
1.326172
-0.000000
-0.000000
-0.000000
-0.000000
0.373291
-0.000000
-0.000000
-0.000000
-0.000000
-0.000000
0.139648
0.018463
-0.000000
0.746582
0.078247
-0.000000
-0.000000
-0.000000
-0.000000
-0.000000
-0.000000
-0.000000
-0.000000
0.718750
0.025391
-0.000000
-0.000000
0.744141
-0.000000
0.007336
-0.000000
0.035858
0.522949
-0.000000
0.053528
-0.000000
-0.000000
0.283691
-0.000000
1.262695
-0.000000
-0.000000
0.637695
-0.000000
-0.000000
-0.000000
-0.000000
-0.000000
0.060516
0.882324
-0.000000
-0.000000
-0.000000
0.574707
-0.000000
-0.000000
-0.000000
-0.000000
0.092529
-0.000000
-0.000000
0.441650
-0.000000
0.112610
-0.000000
-0.000000
-0.000000
-0.000000
-0.000000
-0.000000
-0.000000
0.166992
0.434082
-0.000000
0.577148
-0.000000
-0.000000
-0.000000
-0.000000
0.412109
-0.000000
1.306641
-0.000000
0.907227
-0.000000
0.145996
0.389648
-0.000000
-0.000000
0.206665
-0.000000
0.640625
-0.000000
0.141235
0.809570
-0.000000
-0.000000
0.017242
-0.000000
-0.000000
-0.000000
-0.000000
-0.000000
-0.000000
-0.000000
-0.000000
-0.000000
0.013748
0.018066
-0.000000
0.102417
-0.000000
-0.000000
-0.000000
-0.000000
0.104919
-0.000000
-0.000000
-0.000000
-0.000000
-0.000000
-0.000000
0.635254
-0.000000
0.013519
-0.000000
-0.000000
-0.000000
-0.000000
-0.000000
0.495605
-0.000000
-0.000000
-0.000000
-0.000000
-0.000000
0.095764
-0.000000
1.197266
-0.000000
0.036133
-0.000000
-0.000000
-0.000000
-0.000000
-0.000000
-0.000000
0.134888
-0.000000
-0.000000
0.002960
-0.000000
-0.000000
-0.000000
-0.000000
0.662598
-0.000000
-0.000000
-0.000000
-0.000000
-0.000000
-0.000000
-0.000000
0.401123
-0.000000
0.602539
-0.000000
-0.000000
0.453613
-0.000000
0.154541
-0.000000
-0.000000
-0.000000
0.116150
0.040405
-0.000000
0.019150
0.065491
0.114319
-0.000000
0.006104
-0.000000
-0.000000
-0.000000
-0.000000
0.860840
-0.000000
-0.000000
-0.000000
-0.000000
-0.000000
-0.000000
2.410156
-0.000000
-0.000000
0.135864
-0.000000
1.578125
-0.000000
-0.000000
-0.000000
1.111328
-0.000000
-0.000000
0.423584
-0.000000
1.185547
2.769531
-0.000000
1.181641
-0.000000
-0.000000
-0.000000
0.341064
-0.000000
-0.000000
0.461670
-0.000000
0.141235
-0.000000
0.198486
0.287842
-0.000000
-0.000000
-0.000000
-0.000000
-0.000000
0.439453
-0.000000
0.019531
0.478271
-0.000000
-0.000000
0.119812
1.601562
-0.000000
-0.000000
1.740234
0.564941
0.989258
0.840332
1.556641
-0.000000
-0.000000
-0.000000
-0.000000
-0.000000
-0.000000
0.196899
-0.000000
-0.000000
-0.000000
-0.000000
0.002167
-0.000000
-0.000000
-0.000000
-0.000000
-0.000000
-0.000000
-0.000000
0.635742
-0.000000
-0.000000
-0.000000
-0.000000
1.007812
-0.000000
-0.000000
0.228027
-0.000000
-0.000000
0.377197
0.226562
-0.000000
-0.000000
-0.000000
-0.000000
-0.000000
1.070312
-0.000000
-0.000000
0.072693
-0.000000
0.405762
-0.000000
-0.000000
-0.000000
3.214844
-0.000000
-0.000000
-0.000000
-0.000000
0.569336
-0.000000
0.351074
1.096680
-0.000000
-0.000000
-0.000000
-0.000000
1.370117
1.400391
-0.000000
0.541504
0.291260
-0.000000
-0.000000
-0.000000
-0.000000
0.441650
-0.000000
0.556152
-0.000000
-0.000000
0.560059
-0.000000
0.126221
-0.000000
-0.000000
-0.000000
-0.000000
-0.000000
-0.000000
-0.000000
-0.000000
-0.000000
-0.000000
-0.000000
-0.000000
0.024475
-0.000000
0.097412
-0.000000
-0.000000
-0.000000
1.138672
-0.000000
-0.000000
-0.000000
0.048706
-0.000000
-0.000000
-0.000000
-0.000000
-0.000000
-0.000000
-0.000000
-0.000000
-0.000000
-0.000000
0.042969
-0.000000
-0.000000
-0.000000
-0.000000
-0.000000
-0.000000
-0.000000
-0.000000
-0.000000
-0.000000
-0.000000
-0.000000
0.292725
-0.000000
-0.000000
-0.000000
-0.000000
-0.000000
1.406250
-0.000000
-0.000000
-0.000000
-0.000000
-0.000000
0.215088
-0.000000
-0.000000
0.273682
-0.000000
0.464111
-0.000000
-0.000000
-0.000000
-0.000000
-0.000000
-0.000000
-0.000000
-0.000000
-0.000000
-0.000000
-0.000000
-0.000000
-0.000000
-0.000000
-0.000000
-0.000000
-0.000000
0.145630
1.090820
0.006226
-0.000000
-0.000000
-0.000000
-0.000000
-0.000000
-0.000000
-0.000000
-0.000000
-0.000000
0.132812
-0.000000
-0.000000
1.513672
-0.000000
-0.000000
-0.000000
-0.000000
-0.000000
-0.000000
-0.000000
