-0.000000
-0.000000
-0.000000
1.543945
-0.000000
0.338623
0.162964
-0.000000
-0.000000
-0.000000
-0.000000
-0.000000
-0.000000
-0.000000
-0.000000
-0.000000
-0.000000
-0.000000
-0.000000
-0.000000
1.366211
-0.000000
0.344727
-0.000000
-0.000000
-0.000000
-0.000000
-0.000000
1.992188
-0.000000
-0.000000
-0.000000
-0.000000
-0.000000
-0.000000
-0.000000
-0.000000
0.927246
-0.000000
-0.000000
-0.000000
2.921875
0.068665
0.185181
-0.000000
0.432617
-0.000000
-0.000000
-0.000000
-0.000000
-0.000000
1.575195
-0.000000
-0.000000
-0.000000
-0.000000
0.159058
-0.000000
-0.000000
-0.000000
-0.000000
0.769043
0.264404
-0.000000
-0.000000
-0.000000
-0.000000
-0.000000
-0.000000
-0.000000
-0.000000
-0.000000
-0.000000
1.229492
-0.000000
0.188721
-0.000000
-0.000000
-0.000000
0.158691
-0.000000
-0.000000
-0.000000
0.159668
-0.000000
0.009796
-0.000000
-0.000000
-0.000000
-0.000000
0.160645
0.103699
-0.000000
-0.000000
0.200195
-0.000000
0.315918
-0.000000
0.036377
0.438232
-0.000000
-0.000000
-0.000000
-0.000000
0.020874
0.707520
-0.000000
-0.000000
-0.000000
1.311523
-0.000000
-0.000000
2.107422
-0.000000
0.193237
-0.000000
-0.000000
-0.000000
-0.000000
0.261230
0.492920
-0.000000
0.245728
0.022766
-0.000000
-0.000000
0.142944
-0.000000
-0.000000
-0.000000
0.472900
-0.000000
0.244873
-0.000000
-0.000000
-0.000000
1.384766
0.071777
-0.000000
-0.000000
0.759277
-0.000000
-0.000000
-0.000000
-0.000000
-0.000000
-0.000000
0.365234
-0.000000
0.093262
-0.000000
-0.000000
-0.000000
-0.000000
-0.000000
0.084106
-0.000000
0.025024
0.180176
-0.000000
-0.000000
-0.000000
0.358154
-0.000000
-0.000000
-0.000000
0.000854
0.645996
-0.000000
-0.000000
-0.000000
-0.000000
-0.000000
-0.000000
-0.000000
-0.000000
-0.000000
-0.000000
0.098633
-0.000000
0.104309
-0.000000
-0.000000
-0.000000
0.849609
-0.000000
-0.000000
0.560547
-0.000000
-0.000000
-0.000000
-0.000000
-0.000000
-0.000000
0.008545
0.396973
-0.000000
-0.000000
-0.000000
-0.000000
0.054688
-0.000000
-0.000000
-0.000000
-0.000000
0.035522
0.468994
0.308838
-0.000000
-0.000000
0.511719
0.317871
0.085999
-0.000000
0.914062
0.344971
0.526367
-0.000000
-0.000000
1.129883
-0.000000
-0.000000
-0.000000
-0.000000
-0.000000
-0.000000
-0.000000
-0.000000
-0.000000
0.179443
0.792969
-0.000000
0.896484
-0.000000
-0.000000
0.692871
0.227051
0.129517
0.468750
-0.000000
-0.000000
-0.000000
-0.000000
-0.000000
-0.000000
0.394043
-0.000000
0.639648
-0.000000
0.136963
-0.000000
0.147339
-0.000000
0.370361
-0.000000
-0.000000
-0.000000
-0.000000
-0.000000
-0.000000
-0.000000
-0.000000
-0.000000
-0.000000
-0.000000
-0.000000
-0.000000
-0.000000
-0.000000
-0.000000
0.265137
-0.000000
-0.000000
-0.000000
-0.000000
-0.000000
-0.000000
-0.000000
0.702637
-0.000000
-0.000000
0.747559
-0.000000
-0.000000
1.147461
-0.000000
-0.000000
-0.000000
-0.000000
-0.000000
0.082214
-0.000000
-0.000000
-0.000000
-0.000000
-0.000000
-0.000000
0.183350
-0.000000
-0.000000
-0.000000
-0.000000
-0.000000
0.985840
-0.000000
-0.000000
-0.000000
-0.000000
0.091187
1.306641
-0.000000
-0.000000
-0.000000
-0.000000
0.474121
-0.000000
0.389404
0.022095
-0.000000
-0.000000
-0.000000
0.385986
-0.000000
-0.000000
-0.000000
-0.000000
-0.000000
-0.000000
-0.000000
0.494141
-0.000000
-0.000000
-0.000000
-0.000000
-0.000000
-0.000000
-0.000000
-0.000000
0.035278
-0.000000
-0.000000
-0.000000
-0.000000
-0.000000
-0.000000
-0.000000
-0.000000
-0.000000
-0.000000
-0.000000
0.335205
-0.000000
-0.000000
-0.000000
-0.000000
0.311279
-0.000000
-0.000000
-0.000000
0.595703
-0.000000
-0.000000
0.725586
-0.000000
-0.000000
-0.000000
-0.000000
0.141113
1.739258
-0.000000
0.113708
-0.000000
1.610352
-0.000000
-0.000000
-0.000000
-0.000000
-0.000000
-0.000000
-0.000000
-0.000000
-0.000000
-0.000000
-0.000000
0.093994
0.032532
-0.000000
0.213257
0.110596
-0.000000
-0.000000
-0.000000
-0.000000
-0.000000
0.039307
-0.000000
-0.000000
-0.000000
-0.000000
-0.000000
0.088623
-0.000000
-0.000000
-0.000000
-0.000000
-0.000000
-0.000000
0.049927
-0.000000
1.022461
0.345459
-0.000000
1.006836
-0.000000
0.164551
-0.000000
0.217041
-0.000000
-0.000000
-0.000000
-0.000000
0.675781
-0.000000
-0.000000
0.300781
-0.000000
-0.000000
0.776367
0.617676
-0.000000
-0.000000
-0.000000
-0.000000
1.111328
-0.000000
-0.000000
-0.000000
-0.000000
-0.000000
0.700684
0.030640
-0.000000
-0.000000
-0.000000
-0.000000
-0.000000
0.003937
-0.000000
-0.000000
-0.000000
-0.000000
-0.000000
-0.000000
-0.000000
-0.000000
-0.000000
-0.000000
-0.000000
0.089111
0.067871
-0.000000
0.595703
-0.000000
-0.000000
-0.000000
-0.000000
-0.000000
-0.000000
-0.000000
0.023361
0.119629
-0.000000
-0.000000
-0.000000
-0.000000
-0.000000
-0.000000
-0.000000
-0.000000
-0.000000
-0.000000
-0.000000
0.446289
-0.000000
0.355469
-0.000000
-0.000000
-0.000000
-0.000000
-0.000000
-0.000000
0.041016
-0.000000
-0.000000
-0.000000
1.432617
-0.000000
-0.000000
-0.000000
1.427734
