-0.000000
0.587891
-0.000000
0.265625
-0.000000
-0.000000
0.093201
-0.000000
-0.000000
-0.000000
0.153931
0.024902
-0.000000
0.496582
-0.000000
-0.000000
0.166016
-0.000000
0.690918
-0.000000
1.115234
-0.000000
-0.000000
0.497803
-0.000000
-0.000000
0.066833
-0.000000
-0.000000
0.499268
-0.000000
-0.000000
0.171631
-0.000000
0.026581
-0.000000
-0.000000
-0.000000
-0.000000
-0.000000
-0.000000
-0.000000
0.395264
1.021484
-0.000000
0.066284
-0.000000
-0.000000
-0.000000
-0.000000
-0.000000
0.787109
-0.000000
-0.000000
-0.000000
-0.000000
-0.000000
0.143677
-0.000000
-0.000000
0.066467
0.694824
0.695801
-0.000000
-0.000000
-0.000000
-0.000000
-0.000000
-0.000000
-0.000000
-0.000000
-0.000000
-0.000000
-0.000000
-0.000000
1.945312
0.197510
-0.000000
-0.000000
-0.000000
-0.000000
-0.000000
0.412354
-0.000000
-0.000000
-0.000000
-0.000000
0.048523
-0.000000
-0.000000
0.298340
0.124023
0.088745
0.033234
-0.000000
-0.000000
0.032776
-0.000000
0.014328
-0.000000
-0.000000
-0.000000
0.129517
0.807617
-0.000000
1.172852
-0.000000
-0.000000
-0.000000
-0.000000
-0.000000
0.519531
-0.000000
-0.000000
0.311279
-0.000000
0.537598
-0.000000
-0.000000
-0.000000
-0.000000
0.011322
-0.000000
-0.000000
-0.000000
-0.000000
-0.000000
-0.000000
-0.000000
0.627441
-0.000000
-0.000000
-0.000000
-0.000000
-0.000000
-0.000000
-0.000000
-0.000000
-0.000000
-0.000000
-0.000000
-0.000000
-0.000000
-0.000000
-0.000000
0.116943
0.565430
0.239258
-0.000000
0.241455
-0.000000
-0.000000
-0.000000
-0.000000
-0.000000
0.222168
0.017593
-0.000000
1.322266
-0.000000
0.472412
-0.000000
0.704590
1.143555
-0.000000
-0.000000
-0.000000
-0.000000
0.598145
-0.000000
0.050293
-0.000000
-0.000000
-0.000000
-0.000000
-0.000000
-0.000000
-0.000000
-0.000000
-0.000000
0.223145
-0.000000
-0.000000
-0.000000
-0.000000
0.023254
-0.000000
0.426270
-0.000000
0.001953
-0.000000
-0.000000
-0.000000
0.005035
-0.000000
-0.000000
-0.000000
-0.000000
-0.000000
-0.000000
-0.000000
0.263184
-0.000000
-0.000000
-0.000000
0.273926
-0.000000
0.343994
0.066101
-0.000000
-0.000000
-0.000000
-0.000000
0.046753
-0.000000
1.375000
0.719238
0.026245
0.105530
-0.000000
-0.000000
-0.000000
-0.000000
-0.000000
0.201294
-0.000000
-0.000000
-0.000000
-0.000000
-0.000000
0.211548
-0.000000
0.562500
-0.000000
-0.000000
-0.000000
-0.000000
-0.000000
0.517090
-0.000000
-0.000000
-0.000000
0.406494
-0.000000
-0.000000
0.416992
-0.000000
0.429199
-0.000000
-0.000000
-0.000000
0.015015
0.006653
-0.000000
-0.000000
0.243896
0.137451
-0.000000
0.265625
-0.000000
0.306396
0.373291
0.072998
0.041992
-0.000000
-0.000000
-0.000000
-0.000000
-0.000000
-0.000000
1.688477
-0.000000
-0.000000
-0.000000
-0.000000
1.509766
-0.000000
0.095459
-0.000000
-0.000000
-0.000000
-0.000000
0.295166
-0.000000
0.187378
2.085938
-0.000000
-0.000000
-0.000000
-0.000000
0.149048
-0.000000
-0.000000
-0.000000
0.261230
-0.000000
0.142456
-0.000000
0.032654
0.603516
0.043335
-0.000000
-0.000000
-0.000000
-0.000000
0.244629
-0.000000
-0.000000
0.189453
-0.000000
0.018082
-0.000000
-0.000000
-0.000000
-0.000000
0.425781
0.520996
0.202881
0.210327
0.454102
-0.000000
-0.000000
-0.000000
-0.000000
-0.000000
-0.000000
-0.000000
-0.000000
-0.000000
-0.000000
-0.000000
0.187378
-0.000000
-0.000000
0.005543
-0.000000
0.244141
-0.000000
-0.000000
0.806152
-0.000000
-0.000000
-0.000000
-0.000000
-0.000000
0.005684
-0.000000
0.017090
0.299805
-0.000000
0.255127
-0.000000
-0.000000
-0.000000
-0.000000
0.251953
-0.000000
0.451172
-0.000000
0.118103
0.041595
0.399658
-0.000000
0.201538
-0.000000
-0.000000
1.484375
-0.000000
-0.000000
-0.000000
-0.000000
0.180908
-0.000000
0.089233
0.742188
-0.000000
-0.000000
-0.000000
-0.000000
1.654297
0.494141
-0.000000
0.363281
0.572754
0.258057
0.024597
-0.000000
-0.000000
-0.000000
-0.000000
1.418945
-0.000000
-0.000000
-0.000000
-0.000000
-0.000000
-0.000000
-0.000000
-0.000000
-0.000000
-0.000000
0.306885
-0.000000
-0.000000
-0.000000
-0.000000
0.997559
0.041748
-0.000000
0.461670
-0.000000
0.022736
0.017654
-0.000000
0.935547
-0.000000
-0.000000
-0.000000
-0.000000
-0.000000
-0.000000
-0.000000
-0.000000
-0.000000
0.277344
0.593750
-0.000000
0.992188
-0.000000
0.231934
-0.000000
-0.000000
-0.000000
-0.000000
-0.000000
-0.000000
-0.000000
-0.000000
-0.000000
-0.000000
0.313721
-0.000000
0.100830
0.850586
-0.000000
-0.000000
-0.000000
-0.000000
0.398926
-0.000000
-0.000000
-0.000000
-0.000000
-0.000000
-0.000000
-0.000000
-0.000000
0.667480
-0.000000
0.362549
-0.000000
0.883301
-0.000000
-0.000000
-0.000000
-0.000000
-0.000000
-0.000000
-0.000000
-0.000000
-0.000000
0.247192
-0.000000
-0.000000
-0.000000
0.122009
-0.000000
-0.000000
0.930176
-0.000000
-0.000000
-0.000000
0.053467
-0.000000
-0.000000
-0.000000
-0.000000
-0.000000
-0.000000
0.211792
-0.000000
-0.000000
-0.000000
-0.000000
-0.000000
1.693359
-0.000000
-0.000000
-0.000000
-0.000000
