-0.000000
0.066895
-0.000000
0.004852
1.130859
-0.000000
-0.000000
0.072754
-0.000000
1.356445
-0.000000
-0.000000
-0.000000
1.016602
-0.000000
-0.000000
-0.000000
-0.000000
-0.000000
-0.000000
-0.000000
-0.000000
-0.000000
-0.000000
-0.000000
-0.000000
-0.000000
-0.000000
1.064453
-0.000000
-0.000000
-0.000000
-0.000000
-0.000000
-0.000000
-0.000000
-0.000000
-0.000000
-0.000000
-0.000000
0.527344
-0.000000
-0.000000
-0.000000
-0.000000
-0.000000
0.341553
-0.000000
-0.000000
-0.000000
-0.000000
-0.000000
0.116333
-0.000000
-0.000000
-0.000000
0.540039
-0.000000
-0.000000
-0.000000
-0.000000
0.003586
-0.000000
-0.000000
-0.000000
-0.000000
-0.000000
-0.000000
-0.000000
0.137939
-0.000000
-0.000000
0.232178
0.297607
-0.000000
-0.000000
-0.000000
-0.000000
0.177246
-0.000000
-0.000000
0.988770
-0.000000
-0.000000
0.237305
-0.000000
-0.000000
0.164307
-0.000000
-0.000000
-0.000000
-0.000000
-0.000000
-0.000000
-0.000000
-0.000000
0.209106
-0.000000
-0.000000
1.516602
1.559570
0.191772
0.774414
0.153076
1.915039
-0.000000
-0.000000
-0.000000
-0.000000
1.325195
-0.000000
-0.000000
0.766113
0.106750
-0.000000
0.353271
-0.000000
2.404297
-0.000000
0.207153
-0.000000
0.045502
-0.000000
-0.000000
-0.000000
0.094604
0.111572
-0.000000
-0.000000
-0.000000
-0.000000
-0.000000
0.319824
-0.000000
-0.000000
-0.000000
-0.000000
0.189575
-0.000000
-0.000000
-0.000000
-0.000000
0.318359
-0.000000
-0.000000
2.007812
-0.000000
0.791992
0.593750
-0.000000
-0.000000
-0.000000
-0.000000
-0.000000
-0.000000
-0.000000
-0.000000
-0.000000
-0.000000
-0.000000
-0.000000
0.990234
-0.000000
-0.000000
-0.000000
-0.000000
-0.000000
-0.000000
-0.000000
-0.000000
0.264648
0.907227
-0.000000
-0.000000
-0.000000
-0.000000
-0.000000
2.392578
0.303955
1.056641
-0.000000
-0.000000
-0.000000
0.362061
-0.000000
-0.000000
-0.000000
-0.000000
-0.000000
0.219238
0.374023
-0.000000
-0.000000
-0.000000
-0.000000
-0.000000
-0.000000
-0.000000
-0.000000
0.399902
-0.000000
-0.000000
-0.000000
-0.000000
0.106323
-0.000000
-0.000000
0.155029
0.606934
-0.000000
-0.000000
-0.000000
0.298584
-0.000000
0.056458
-0.000000
-0.000000
0.427734
-0.000000
0.175659
-0.000000
-0.000000
-0.000000
-0.000000
-0.000000
-0.000000
-0.000000
0.829590
1.315430
-0.000000
0.485107
-0.000000
-0.000000
-0.000000
-0.000000
-0.000000
-0.000000
-0.000000
-0.000000
0.270752
0.137939
-0.000000
-0.000000
-0.000000
2.578125
-0.000000
-0.000000
-0.000000
-0.000000
-0.000000
0.215820
-0.000000
-0.000000
-0.000000
0.076660
-0.000000
-0.000000
-0.000000
1.194336
-0.000000
-0.000000
-0.000000
-0.000000
-0.000000
0.109131
-0.000000
0.351562
-0.000000
-0.000000
-0.000000
-0.000000
0.091675
0.306641
1.992188
-0.000000
-0.000000
-0.000000
-0.000000
-0.000000
-0.000000
-0.000000
1.138672
-0.000000
-0.000000
2.710938
0.393311
0.199829
0.171387
-0.000000
-0.000000
0.121155
0.533203
-0.000000
-0.000000
-0.000000
-0.000000
0.763672
-0.000000
-0.000000
-0.000000
-0.000000
-0.000000
-0.000000
-0.000000
-0.000000
-0.000000
-0.000000
-0.000000
-0.000000
-0.000000
-0.000000
0.161377
0.325684
-0.000000
-0.000000
-0.000000
-0.000000
-0.000000
-0.000000
-0.000000
-0.000000
-0.000000
-0.000000
-0.000000
-0.000000
-0.000000
-0.000000
-0.000000
-0.000000
-0.000000
-0.000000
-0.000000
-0.000000
-0.000000
-0.000000
-0.000000
-0.000000
-0.000000
-0.000000
0.096252
-0.000000
0.127197
-0.000000
0.402832
-0.000000
0.019653
-0.000000
0.353027
-0.000000
-0.000000
-0.000000
-0.000000
-0.000000
-0.000000
-0.000000
-0.000000
0.469727
-0.000000
-0.000000
0.453369
-0.000000
-0.000000
-0.000000
-0.000000
-0.000000
-0.000000
-0.000000
-0.000000
0.594727
-0.000000
-0.000000
-0.000000
1.138672
1.232422
0.299072
-0.000000
-0.000000
-0.000000
-0.000000
-0.000000
-0.000000
1.077148
-0.000000
-0.000000
0.958008
-0.000000
-0.000000
-0.000000
0.362305
0.603516
-0.000000
-0.000000
0.097961
1.610352
-0.000000
0.687500
-0.000000
-0.000000
-0.000000
-0.000000
0.159424
-0.000000
-0.000000
-0.000000
-0.000000
-0.000000
-0.000000
-0.000000
-0.000000
0.414795
-0.000000
0.120361
-0.000000
-0.000000
-0.000000
-0.000000
-0.000000
-0.000000
1.736328
-0.000000
-0.000000
1.139648
-0.000000
-0.000000
0.960938
-0.000000
-0.000000
-0.000000
0.958008
0.863770
0.705078
-0.000000
-0.000000
-0.000000
-0.000000
-0.000000
-0.000000
-0.000000
-0.000000
-0.000000
0.254639
-0.000000
-0.000000
0.176392
-0.000000
0.006653
-0.000000
-0.000000
-0.000000
-0.000000
-0.000000
-0.000000
-0.000000
-0.000000
-0.000000
-0.000000
2.185547
-0.000000
-0.000000
0.014954
0.044464
-0.000000
-0.000000
0.029663
0.552734
-0.000000
-0.000000
-0.000000
0.135742
-0.000000
0.280273
-0.000000
0.069336
-0.000000
0.025726
0.026184
-0.000000
-0.000000
0.593750
0.066467
0.645996
-0.000000
-0.000000
-0.000000
-0.000000
-0.000000
-0.000000
-0.000000
0.422852
0.457275
-0.000000
0.868652
0.282715
-0.000000
-0.000000
0.025879
-0.000000
-0.000000
-0.000000
-0.000000
