-0.000000
0.434814
-0.000000
-0.000000
-0.000000
0.270264
0.051147
0.276855
-0.000000
-0.000000
-0.000000
-0.000000
-0.000000
0.110413
-0.000000
-0.000000
-0.000000
-0.000000
-0.000000
-0.000000
0.165649
-0.000000
0.198242
-0.000000
0.004799
0.186768
-0.000000
-0.000000
0.337646
0.215820
-0.000000
-0.000000
-0.000000
-0.000000
-0.000000
-0.000000
-0.000000
0.634277
-0.000000
1.500977
-0.000000
-0.000000
-0.000000
-0.000000
-0.000000
-0.000000
0.989746
-0.000000
0.033173
-0.000000
-0.000000
-0.000000
-0.000000
-0.000000
-0.000000
-0.000000
-0.000000
0.268311
-0.000000
-0.000000
0.428955
-0.000000
0.202026
-0.000000
-0.000000
0.046753
-0.000000
0.005371
-0.000000
0.824707
-0.000000
-0.000000
-0.000000
-0.000000
-0.000000
-0.000000
-0.000000
-0.000000
-0.000000
1.836914
-0.000000
-0.000000
0.826172
-0.000000
0.440430
0.423340
-0.000000
0.177612
-0.000000
-0.000000
-0.000000
0.034729
0.739258
-0.000000
-0.000000
-0.000000
0.064331
-0.000000
-0.000000
0.913086
0.079041
-0.000000
0.227295
0.299561
-0.000000
0.423340
-0.000000
-0.000000
-0.000000
0.395996
0.196411
1.154297
0.020996
0.174072
0.027069
0.131592
-0.000000
-0.000000
-0.000000
0.214233
0.499268
-0.000000
-0.000000
-0.000000
-0.000000
-0.000000
0.182373
-0.000000
0.750488
-0.000000
-0.000000
-0.000000
-0.000000
-0.000000
-0.000000
-0.000000
0.601562
-0.000000
-0.000000
-0.000000
-0.000000
-0.000000
-0.000000
-0.000000
-0.000000
-0.000000
-0.000000
-0.000000
-0.000000
-0.000000
-0.000000
-0.000000
1.500977
-0.000000
-0.000000
-0.000000
0.661133
-0.000000
-0.000000
-0.000000
-0.000000
-0.000000
-0.000000
-0.000000
-0.000000
-0.000000
0.254395
0.001801
0.016724
-0.000000
0.072571
0.290527
-0.000000
-0.000000
-0.000000
-0.000000
-0.000000
-0.000000
-0.000000
0.764648
-0.000000
-0.000000
-0.000000
-0.000000
-0.000000
0.012024
-0.000000
-0.000000
-0.000000
-0.000000
-0.000000
-0.000000
-0.000000
-0.000000
-0.000000
0.319336
-0.000000
-0.000000
-0.000000
0.375244
0.929688
-0.000000
-0.000000
0.199585
-0.000000
-0.000000
-0.000000
0.265869
0.019028
-0.000000
-0.000000
0.319092
-0.000000
-0.000000
-0.000000
-0.000000
-0.000000
0.237793
1.434570
-0.000000
-0.000000
1.415039
-0.000000
-0.000000
0.203247
-0.000000
1.498047
0.138550
-0.000000
-0.000000
-0.000000
-0.000000
1.230469
0.643555
-0.000000
0.002808
-0.000000
-0.000000
1.189453
-0.000000
-0.000000
-0.000000
-0.000000
0.187256
-0.000000
0.622559
-0.000000
-0.000000
-0.000000
-0.000000
0.023193
-0.000000
-0.000000
0.050354
-0.000000
-0.000000
-0.000000
-0.000000
-0.000000
-0.000000
0.263428
0.355225
0.156616
0.482422
0.064331
-0.000000
-0.000000
-0.000000
-0.000000
-0.000000
-0.000000
-0.000000
-0.000000
-0.000000
-0.000000
0.345459
-0.000000
-0.000000
-0.000000
1.018555
-0.000000
1.293945
0.079590
-0.000000
-0.000000
-0.000000
-0.000000
0.812500
-0.000000
-0.000000
-0.000000
-0.000000
-0.000000
-0.000000
-0.000000
-0.000000
0.008560
-0.000000
-0.000000
1.223633
-0.000000
1.217773
-0.000000
0.004395
-0.000000
-0.000000
-0.000000
0.610840
-0.000000
0.062347
-0.000000
-0.000000
-0.000000
-0.000000
-0.000000
-0.000000
-0.000000
1.048828
0.289062
1.370117
-0.000000
-0.000000
-0.000000
0.504883
-0.000000
-0.000000
0.311035
-0.000000
0.526855
1.931641
-0.000000
0.011139
-0.000000
1.322266
-0.000000
-0.000000
-0.000000
0.825684
1.244141
-0.000000
-0.000000
-0.000000
0.663574
0.353027
3.466797
-0.000000
-0.000000
-0.000000
-0.000000
-0.000000
1.021484
-0.000000
-0.000000
-0.000000
-0.000000
-0.000000
-0.000000
-0.000000
-0.000000
-0.000000
-0.000000
-0.000000
-0.000000
0.107117
-0.000000
-0.000000
0.107910
-0.000000
0.349121
0.779297
-0.000000
-0.000000
1.417969
-0.000000
-0.000000
-0.000000
-0.000000
0.034790
-0.000000
-0.000000
0.029724
-0.000000
0.273926
0.097961
-0.000000
-0.000000
1.180664
-0.000000
0.241943
0.153320
-0.000000
-0.000000
-0.000000
-0.000000
-0.000000
0.057495
-0.000000
-0.000000
0.026489
-0.000000
-0.000000
0.414307
-0.000000
-0.000000
-0.000000
0.558594
-0.000000
-0.000000
-0.000000
-0.000000
-0.000000
-0.000000
-0.000000
-0.000000
-0.000000
-0.000000
0.522461
-0.000000
0.042816
0.592285
-0.000000
0.763184
-0.000000
0.084473
-0.000000
0.016113
-0.000000
0.937500
0.142090
-0.000000
0.231323
-0.000000
-0.000000
-0.000000
-0.000000
-0.000000
0.724121
-0.000000
-0.000000
0.371582
-0.000000
-0.000000
-0.000000
0.209473
0.088867
-0.000000
-0.000000
-0.000000
0.232788
0.030518
-0.000000
-0.000000
-0.000000
-0.000000
0.727051
-0.000000
-0.000000
0.338623
-0.000000
-0.000000
-0.000000
0.052155
-0.000000
-0.000000
-0.000000
0.016098
-0.000000
-0.000000
-0.000000
-0.000000
-0.000000
0.115662
-0.000000
-0.000000
0.307129
-0.000000
-0.000000
-0.000000
1.081055
-0.000000
-0.000000
0.475342
-0.000000
-0.000000
-0.000000
-0.000000
-0.000000
-0.000000
-0.000000
-0.000000
-0.000000
0.162720
0.034912
0.038879
-0.000000
1.096680
-0.000000
-0.000000
-0.000000
-0.000000
