-0.000000
-0.000000
-0.000000
0.042847
0.283691
0.102783
-0.000000
0.151367
-0.000000
-0.000000
-0.000000
-0.000000
-0.000000
0.542969
-0.000000
-0.000000
-0.000000
-0.000000
-0.000000
-0.000000
-0.000000
-0.000000
-0.000000
-0.000000
-0.000000
-0.000000
-0.000000
-0.000000
1.129883
-0.000000
-0.000000
-0.000000
-0.000000
-0.000000
-0.000000
-0.000000
-0.000000
1.395508
-0.000000
-0.000000
0.964844
0.351562
-0.000000
-0.000000
-0.000000
-0.000000
-0.000000
-0.000000
-0.000000
-0.000000
-0.000000
0.405273
-0.000000
-0.000000
-0.000000
-0.000000
0.328857
-0.000000
-0.000000
-0.000000
0.037903
-0.000000
0.462646
-0.000000
-0.000000
-0.000000
-0.000000
-0.000000
-0.000000
0.295166
-0.000000
-0.000000
0.240601
0.995605
-0.000000
-0.000000
-0.000000
-0.000000
-0.000000
-0.000000
-0.000000
-0.000000
-0.000000
0.133789
1.068359
-0.000000
-0.000000
-0.000000
-0.000000
-0.000000
0.698730
-0.000000
-0.000000
-0.000000
1.051758
-0.000000
-0.000000
-0.000000
-0.000000
-0.000000
0.104065
-0.000000
0.202881
0.320557
1.145508
-0.000000
0.065369
-0.000000
-0.000000
1.745117
-0.000000
0.322998
1.340820
-0.000000
-0.000000
0.328125
-0.000000
1.710938
-0.000000
-0.000000
-0.000000
0.035553
-0.000000
-0.000000
0.389404
-0.000000
-0.000000
-0.000000
-0.000000
-0.000000
1.752930
-0.000000
-0.000000
-0.000000
-0.000000
-0.000000
-0.000000
-0.000000
-0.000000
-0.000000
-0.000000
-0.000000
-0.000000
-0.000000
-0.000000
1.291992
-0.000000
0.457031
0.210571
-0.000000
-0.000000
1.875977
-0.000000
-0.000000
-0.000000
0.143311
0.072021
0.055420
-0.000000
-0.000000
-0.000000
1.368164
0.086487
-0.000000
-0.000000
-0.000000
-0.000000
0.211060
0.215820
-0.000000
0.226074
-0.000000
-0.000000
-0.000000
-0.000000
-0.000000
0.041656
1.080078
-0.000000
1.178711
-0.000000
-0.000000
-0.000000
-0.000000
-0.000000
-0.000000
-0.000000
-0.000000
-0.000000
-0.000000
-0.000000
0.241577
-0.000000
-0.000000
-0.000000
0.812012
-0.000000
-0.000000
-0.000000
0.176270
0.154297
-0.000000
-0.000000
-0.000000
-0.000000
-0.000000
-0.000000
-0.000000
-0.000000
-0.000000
0.595703
0.231079
0.014221
-0.000000
-0.000000
-0.000000
0.227539
0.280273
-0.000000
1.016602
-0.000000
0.574219
-0.000000
-0.000000
-0.000000
-0.000000
-0.000000
-0.000000
-0.000000
0.219971
0.633789
-0.000000
0.221924
0.023987
-0.000000
-0.000000
0.209717
-0.000000
0.101257
-0.000000
0.878418
-0.000000
-0.000000
0.157349
1.158203
-0.000000
-0.000000
-0.000000
-0.000000
-0.000000
-0.000000
-0.000000
-0.000000
-0.000000
-0.000000
0.044373
0.174194
-0.000000
0.281494
-0.000000
-0.000000
-0.000000
0.546875
-0.000000
-0.000000
0.031189
-0.000000
-0.000000
-0.000000
-0.000000
-0.000000
0.109070
0.677734
-0.000000
-0.000000
0.527832
0.096619
-0.000000
0.062256
1.648438
-0.000000
2.388672
-0.000000
-0.000000
1.592773
1.274414
-0.000000
0.285645
-0.000000
-0.000000
2.082031
-0.000000
-0.000000
-0.000000
-0.000000
-0.000000
1.066406
0.095032
-0.000000
-0.000000
-0.000000
-0.000000
-0.000000
0.609375
0.079102
-0.000000
-0.000000
-0.000000
-0.000000
0.051849
0.031555
0.046692
0.545410
-0.000000
-0.000000
0.555176
0.421143
0.007690
-0.000000
0.417236
-0.000000
0.013100
-0.000000
0.093140
-0.000000
-0.000000
-0.000000
-0.000000
-0.000000
0.855957
-0.000000
0.019836
-0.000000
-0.000000
-0.000000
-0.000000
-0.000000
-0.000000
0.134644
0.660645
-0.000000
-0.000000
0.227051
0.015762
0.090027
0.009560
-0.000000
-0.000000
-0.000000
-0.000000
0.479004
-0.000000
-0.000000
-0.000000
-0.000000
-0.000000
2.107422
-0.000000
-0.000000
0.079895
-0.000000
0.041016
2.259766
-0.000000
-0.000000
-0.000000
-0.000000
-0.000000
-0.000000
0.133789
0.021301
0.598633
-0.000000
-0.000000
1.029297
-0.000000
-0.000000
0.051147
-0.000000
0.474365
-0.000000
0.808105
0.104736
-0.000000
0.197754
-0.000000
-0.000000
0.070435
1.695312
0.796875
-0.000000
-0.000000
-0.000000
-0.000000
0.229492
0.546387
-0.000000
-0.000000
-0.000000
-0.000000
0.486572
-0.000000
-0.000000
-0.000000
-0.000000
-0.000000
-0.000000
-0.000000
-0.000000
1.122070
-0.000000
-0.000000
-0.000000
-0.000000
1.623047
-0.000000
-0.000000
-0.000000
1.291992
0.730957
-0.000000
-0.000000
-0.000000
-0.000000
-0.000000
-0.000000
0.079651
-0.000000
-0.000000
2.060547
-0.000000
-0.000000
-0.000000
0.180786
-0.000000
0.004425
-0.000000
-0.000000
-0.000000
-0.000000
0.225342
-0.000000
-0.000000
-0.000000
-0.000000
-0.000000
-0.000000
-0.000000
-0.000000
-0.000000
-0.000000
-0.000000
-0.000000
-0.000000
1.173828
-0.000000
0.897461
-0.000000
0.267822
-0.000000
-0.000000
-0.000000
-0.000000
-0.000000
-0.000000
-0.000000
-0.000000
-0.000000
-0.000000
-0.000000
-0.000000
0.281738
-0.000000
-0.000000
0.510254
-0.000000
0.015503
0.002682
-0.000000
0.058136
-0.000000
-0.000000
0.322510
-0.000000
-0.000000
-0.000000
-0.000000
-0.000000
-0.000000
-0.000000
-0.000000
0.552246
-0.000000
-0.000000
-0.000000
-0.000000
-0.000000
-0.000000
-0.000000
-0.000000
