-0.000000
0.930176
-0.000000
0.871582
-0.000000
0.736816
-0.000000
0.250732
-0.000000
-0.000000
0.589844
-0.000000
0.833496
-0.000000
-0.000000
-0.000000
-0.000000
-0.000000
-0.000000
-0.000000
0.308350
-0.000000
-0.000000
-0.000000
-0.000000
-0.000000
-0.000000
-0.000000
1.373047
1.173828
-0.000000
-0.000000
-0.000000
-0.000000
-0.000000
-0.000000
-0.000000
0.034973
-0.000000
2.019531
0.474365
-0.000000
0.196411
-0.000000
-0.000000
-0.000000
1.004883
-0.000000
0.133423
-0.000000
-0.000000
0.002075
0.128296
-0.000000
-0.000000
-0.000000
-0.000000
0.679688
-0.000000
1.286133
-0.000000
0.347656
0.032715
0.442627
-0.000000
-0.000000
-0.000000
1.025391
-0.000000
-0.000000
-0.000000
-0.000000
0.348633
-0.000000
-0.000000
-0.000000
-0.000000
-0.000000
-0.000000
0.223755
-0.000000
-0.000000
0.892578
1.033203
-0.000000
-0.000000
-0.000000
-0.000000
-0.000000
-0.000000
-0.000000
-0.000000
0.419678
0.039948
0.054688
-0.000000
0.107117
-0.000000
-0.000000
1.276367
-0.000000
-0.000000
-0.000000
0.385010
-0.000000
-0.000000
0.082458
0.046204
-0.000000
-0.000000
-0.000000
0.111145
0.672852
0.183716
0.240234
0.543945
-0.000000
-0.000000
-0.000000
0.185303
0.708496
-0.000000
0.237793
0.013428
0.134521
-0.000000
-0.000000
-0.000000
1.080078
-0.000000
-0.000000
-0.000000
-0.000000
-0.000000
-0.000000
0.052368
3.556641
-0.000000
-0.000000
-0.000000
0.283447
-0.000000
-0.000000
-0.000000
-0.000000
-0.000000
2.732422
-0.000000
-0.000000
-0.000000
-0.000000
-0.000000
0.642090
-0.000000
-0.000000
0.707031
-0.000000
-0.000000
-0.000000
0.040894
-0.000000
0.599609
0.086304
-0.000000
1.728516
-0.000000
-0.000000
-0.000000
-0.000000
-0.000000
-0.000000
-0.000000
2.109375
-0.000000
-0.000000
-0.000000
-0.000000
-0.000000
-0.000000
0.334229
-0.000000
-0.000000
0.876465
-0.000000
0.042053
-0.000000
0.004593
-0.000000
-0.000000
-0.000000
0.446777
2.140625
-0.000000
-0.000000
-0.000000
0.438477
0.384521
-0.000000
-0.000000
-0.000000
1.438477
0.050751
-0.000000
-0.000000
-0.000000
-0.000000
0.126343
-0.000000
0.075989
-0.000000
0.658203
0.555664
-0.000000
-0.000000
0.095947
-0.000000
0.906250
-0.000000
1.071289
-0.000000
-0.000000
-0.000000
-0.000000
-0.000000
-0.000000
-0.000000
-0.000000
0.219238
-0.000000
1.281250
-0.000000
-0.000000
-0.000000
-0.000000
-0.000000
1.350586
1.800781
-0.000000
0.518555
-0.000000
0.420654
-0.000000
-0.000000
-0.000000
-0.000000
0.444336
-0.000000
-0.000000
-0.000000
-0.000000
-0.000000
-0.000000
-0.000000
0.051941
-0.000000
0.218994
-0.000000
-0.000000
-0.000000
0.353516
0.150879
1.573242
0.098633
-0.000000
0.041962
0.142212
0.208130
-0.000000
-0.000000
-0.000000
-0.000000
0.070190
-0.000000
-0.000000
-0.000000
-0.000000
0.028931
0.158203
0.054474
-0.000000
-0.000000
0.838867
0.119080
-0.000000
-0.000000
-0.000000
-0.000000
-0.000000
-0.000000
-0.000000
-0.000000
-0.000000
-0.000000
-0.000000
-0.000000
-0.000000
-0.000000
-0.000000
-0.000000
-0.000000
-0.000000
-0.000000
0.050842
0.757812
0.193481
-0.000000
0.002136
-0.000000
-0.000000
0.203979
0.003677
-0.000000
0.159058
-0.000000
0.929199
-0.000000
-0.000000
-0.000000
0.832520
-0.000000
-0.000000
-0.000000
-0.000000
0.816406
-0.000000
-0.000000
-0.000000
-0.000000
0.863281
-0.000000
-0.000000
-0.000000
-0.000000
0.934082
-0.000000
-0.000000
-0.000000
-0.000000
-0.000000
-0.000000
-0.000000
0.056641
-0.000000
0.596680
-0.000000
-0.000000
-0.000000
-0.000000
0.473389
-0.000000
-0.000000
-0.000000
-0.000000
-0.000000
-0.000000
0.785156
0.503906
-0.000000
-0.000000
0.042328
-0.000000
-0.000000
-0.000000
0.362305
-0.000000
-0.000000
-0.000000
-0.000000
-0.000000
0.311768
-0.000000
-0.000000
0.824219
-0.000000
-0.000000
-0.000000
-0.000000
-0.000000
-0.000000
-0.000000
-0.000000
-0.000000
-0.000000
0.024261
-0.000000
0.106262
-0.000000
0.382324
-0.000000
-0.000000
-0.000000
-0.000000
-0.000000
-0.000000
-0.000000
-0.000000
-0.000000
1.919922
-0.000000
-0.000000
-0.000000
0.232666
-0.000000
-0.000000
-0.000000
0.766113
-0.000000
-0.000000
-0.000000
-0.000000
0.798828
-0.000000
0.604980
-0.000000
-0.000000
-0.000000
-0.000000
-0.000000
-0.000000
1.228516
-0.000000
0.474609
-0.000000
0.151733
-0.000000
-0.000000
-0.000000
0.100525
1.605469
-0.000000
-0.000000
-0.000000
-0.000000
-0.000000
-0.000000
-0.000000
-0.000000
-0.000000
0.099182
0.700684
0.303467
-0.000000
-0.000000
0.173706
0.100830
-0.000000
0.465820
-0.000000
-0.000000
0.008545
-0.000000
-0.000000
-0.000000
-0.000000
-0.000000
0.079041
-0.000000
-0.000000
0.524902
-0.000000
-0.000000
-0.000000
-0.000000
-0.000000
-0.000000
0.014725
-0.000000
-0.000000
-0.000000
0.190674
-0.000000
-0.000000
1.396484
-0.000000
-0.000000
-0.000000
-0.000000
-0.000000
1.556641
-0.000000
-0.000000
-0.000000
1.550781
-0.000000
-0.000000
-0.000000
-0.000000
-0.000000
-0.000000
-0.000000
-0.000000
-0.000000
0.180908
-0.000000
-0.000000
2.257812
-0.000000
-0.000000
-0.000000
0.098328
