-0.000000
-0.000000
-0.000000
0.569336
-0.000000
-0.000000
0.542969
0.687988
-0.000000
-0.000000
0.069519
-0.000000
-0.000000
-0.000000
-0.000000
-0.000000
-0.000000
-0.000000
-0.000000
-0.000000
0.703125
-0.000000
-0.000000
-0.000000
0.028564
-0.000000
-0.000000
-0.000000
2.222656
0.038635
-0.000000
-0.000000
-0.000000
-0.000000
-0.000000
-0.000000
-0.000000
-0.000000
-0.000000
0.055756
2.345703
0.744141
-0.000000
-0.000000
-0.000000
0.006340
0.351318
-0.000000
0.078186
-0.000000
-0.000000
0.700195
-0.000000
0.297852
-0.000000
-0.000000
0.096130
-0.000000
-0.000000
-0.000000
-0.000000
0.079224
-0.000000
-0.000000
-0.000000
0.090088
-0.000000
-0.000000
-0.000000
0.097229
-0.000000
-0.000000
0.372803
2.007812
-0.000000
-0.000000
-0.000000
-0.000000
-0.000000
1.136719
-0.000000
-0.000000
-0.000000
-0.000000
-0.000000
-0.000000
-0.000000
0.460205
0.593262
-0.000000
-0.000000
-0.000000
-0.000000
-0.000000
0.383789
-0.000000
0.116821
-0.000000
-0.000000
1.431641
1.278320
-0.000000
0.104919
0.042908
-0.000000
-0.000000
-0.000000
0.339600
-0.000000
1.650391
0.069336
-0.000000
1.200195
-0.000000
-0.000000
0.129761
-0.000000
-0.000000
-0.000000
0.240356
0.400146
-0.000000
-0.000000
-0.000000
0.022461
-0.000000
-0.000000
-0.000000
-0.000000
-0.000000
-0.000000
-0.000000
-0.000000
-0.000000
-0.000000
-0.000000
1.256836
-0.000000
-0.000000
-0.000000
0.260498
-0.000000
-0.000000
0.444580
-0.000000
0.072876
1.232422
-0.000000
-0.000000
0.105713
-0.000000
0.039795
-0.000000
-0.000000
-0.000000
0.157104
-0.000000
-0.000000
-0.000000
0.007225
-0.000000
0.691895
0.131104
-0.000000
0.058472
-0.000000
-0.000000
0.307129
-0.000000
-0.000000
-0.000000
0.309814
-0.000000
-0.000000
-0.000000
-0.000000
-0.000000
-0.000000
0.820312
0.679688
-0.000000
-0.000000
-0.000000
-0.000000
0.834473
-0.000000
-0.000000
-0.000000
-0.000000
-0.000000
0.298828
-0.000000
-0.000000
-0.000000
-0.000000
1.291992
-0.000000
-0.000000
-0.000000
0.507812
-0.000000
-0.000000
-0.000000
0.484131
-0.000000
-0.000000
-0.000000
-0.000000
-0.000000
-0.000000
-0.000000
0.689941
-0.000000
-0.000000
0.436768
-0.000000
0.916504
0.194336
0.639160
1.592773
-0.000000
-0.000000
-0.000000
-0.000000
-0.000000
-0.000000
-0.000000
0.177612
0.265625
0.289062
-0.000000
-0.000000
-0.000000
-0.000000
-0.000000
0.475830
-0.000000
-0.000000
1.600586
-0.000000
-0.000000
-0.000000
0.308838
-0.000000
-0.000000
0.447021
-0.000000
-0.000000
-0.000000
-0.000000
-0.000000
-0.000000
-0.000000
-0.000000
-0.000000
0.871582
0.608887
-0.000000
-0.000000
-0.000000
-0.000000
-0.000000
0.092773
-0.000000
-0.000000
-0.000000
1.347656
-0.000000
-0.000000
-0.000000
0.422363
-0.000000
1.183594
-0.000000
-0.000000
-0.000000
0.077759
0.146362
0.410400
-0.000000
-0.000000
2.078125
-0.000000
-0.000000
-0.000000
0.155518
-0.000000
-0.000000
-0.000000
-0.000000
0.556641
-0.000000
-0.000000
-0.000000
-0.000000
-0.000000
0.382324
-0.000000
-0.000000
-0.000000
0.741699
-0.000000
-0.000000
1.198242
-0.000000
-0.000000
-0.000000
-0.000000
-0.000000
-0.000000
0.014069
-0.000000
0.687012
-0.000000
0.357422
-0.000000
-0.000000
0.205811
-0.000000
-0.000000
-0.000000
-0.000000
-0.000000
-0.000000
-0.000000
-0.000000
-0.000000
-0.000000
-0.000000
-0.000000
-0.000000
-0.000000
-0.000000
1.405273
0.012634
-0.000000
-0.000000
-0.000000
-0.000000
0.539551
-0.000000
0.010742
-0.000000
-0.000000
-0.000000
-0.000000
-0.000000
0.093750
-0.000000
-0.000000
-0.000000
-0.000000
-0.000000
-0.000000
-0.000000
0.095215
-0.000000
-0.000000
-0.000000
-0.000000
-0.000000
-0.000000
-0.000000
-0.000000
-0.000000
-0.000000
0.356201
-0.000000
-0.000000
-0.000000
-0.000000
1.132812
0.703613
-0.000000
-0.000000
-0.000000
-0.000000
0.482666
-0.000000
-0.000000
-0.000000
0.141113
-0.000000
0.458984
-0.000000
0.051270
-0.000000
-0.000000
-0.000000
-0.000000
-0.000000
-0.000000
-0.000000
-0.000000
-0.000000
-0.000000
-0.000000
-0.000000
0.034607
-0.000000
0.121338
0.436523
-0.000000
-0.000000
-0.000000
-0.000000
1.227539
-0.000000
-0.000000
-0.000000
0.680664
-0.000000
-0.000000
-0.000000
-0.000000
-0.000000
-0.000000
-0.000000
-0.000000
-0.000000
-0.000000
0.258789
-0.000000
-0.000000
0.653320
0.053589
0.017532
-0.000000
1.541016
0.282227
0.433105
-0.000000
-0.000000
-0.000000
-0.000000
-0.000000
-0.000000
-0.000000
0.021683
0.406494
-0.000000
-0.000000
-0.000000
-0.000000
-0.000000
0.018921
0.144287
-0.000000
-0.000000
-0.000000
-0.000000
-0.000000
-0.000000
-0.000000
-0.000000
0.014297
0.574707
-0.000000
-0.000000
-0.000000
-0.000000
-0.000000
-0.000000
-0.000000
-0.000000
-0.000000
-0.000000
-0.000000
-0.000000
0.032501
0.239258
0.098816
-0.000000
-0.000000
-0.000000
0.221069
0.076050
-0.000000
0.584473
-0.000000
-0.000000
-0.000000
1.115234
-0.000000
-0.000000
-0.000000
-0.000000
-0.000000
0.087219
-0.000000
-0.000000
-0.000000
-0.000000
0.081055
0.321045
1.457031
-0.000000
-0.000000
-0.000000
0.252197
