-0.000000
-0.000000
-0.000000
0.087646
-0.000000
0.235596
-0.000000
-0.000000
-0.000000
-0.000000
0.241821
-0.000000
-0.000000
-0.000000
-0.000000
-0.000000
0.095459
-0.000000
0.180420
-0.000000
-0.000000
-0.000000
0.667480
0.706055
0.104431
-0.000000
-0.000000
-0.000000
-0.000000
-0.000000
-0.000000
-0.000000
-0.000000
-0.000000
-0.000000
-0.000000
-0.000000
-0.000000
-0.000000
-0.000000
-0.000000
3.347656
0.083496
1.945312
-0.000000
0.420166
-0.000000
-0.000000
-0.000000
-0.000000
-0.000000
0.553711
0.137329
-0.000000
-0.000000
-0.000000
-0.000000
-0.000000
-0.000000
0.270752
-0.000000
0.044586
-0.000000
-0.000000
-0.000000
0.212769
-0.000000
-0.000000
-0.000000
-0.000000
-0.000000
-0.000000
0.242065
0.099304
-0.000000
0.989746
-0.000000
-0.000000
-0.000000
-0.000000
-0.000000
0.528320
-0.000000
0.128906
-0.000000
-0.000000
-0.000000
0.271240
-0.000000
-0.000000
0.379150
0.185669
-0.000000
0.006073
1.127930
-0.000000
0.236816
-0.000000
0.125977
-0.000000
0.449951
-0.000000
1.425781
0.567871
1.207031
-0.000000
-0.000000
-0.000000
-0.000000
2.185547
0.036377
-0.000000
0.611328
-0.000000
0.185913
-0.000000
0.901367
-0.000000
-0.000000
0.666992
-0.000000
0.214844
-0.000000
-0.000000
0.075195
-0.000000
-0.000000
-0.000000
-0.000000
-0.000000
0.465576
-0.000000
0.209961
-0.000000
-0.000000
0.150269
-0.000000
0.118042
-0.000000
-0.000000
-0.000000
-0.000000
-0.000000
-0.000000
-0.000000
-0.000000
-0.000000
2.144531
-0.000000
0.008789
2.296875
-0.000000
-0.000000
-0.000000
-0.000000
0.209229
-0.000000
0.100708
0.706543
-0.000000
0.513184
-0.000000
-0.000000
1.001953
-0.000000
-0.000000
-0.000000
-0.000000
0.188354
-0.000000
-0.000000
0.423828
-0.000000
-0.000000
-0.000000
-0.000000
-0.000000
-0.000000
-0.000000
-0.000000
-0.000000
-0.000000
-0.000000
-0.000000
-0.000000
-0.000000
-0.000000
-0.000000
-0.000000
0.131348
-0.000000
-0.000000
0.287842
0.002182
0.214233
0.637695
-0.000000
-0.000000
-0.000000
-0.000000
-0.000000
0.829590
-0.000000
-0.000000
-0.000000
0.414062
0.060364
0.661133
-0.000000
-0.000000
-0.000000
-0.000000
0.116211
0.004402
-0.000000
0.651855
1.033203
-0.000000
-0.000000
1.161133
-0.000000
-0.000000
-0.000000
-0.000000
-0.000000
-0.000000
-0.000000
-0.000000
0.156738
0.852051
1.262695
-0.000000
0.875977
-0.000000
-0.000000
-0.000000
-0.000000
-0.000000
-0.000000
1.116211
0.742676
1.135742
0.569336
0.166382
0.515137
-0.000000
-0.000000
1.760742
-0.000000
0.896973
0.170898
0.063904
-0.000000
0.380371
-0.000000
0.173828
1.472656
-0.000000
1.993164
-0.000000
-0.000000
0.215332
-0.000000
0.552734
-0.000000
0.036011
-0.000000
-0.000000
-0.000000
-0.000000
0.882812
0.081787
-0.000000
1.006836
-0.000000
1.307617
-0.000000
-0.000000
-0.000000
-0.000000
-0.000000
-0.000000
-0.000000
-0.000000
1.229492
1.780273
-0.000000
-0.000000
0.115173
-0.000000
1.839844
0.613281
-0.000000
-0.000000
-0.000000
-0.000000
1.014648
-0.000000
-0.000000
-0.000000
-0.000000
-0.000000
0.093262
0.105591
0.630859
-0.000000
0.034607
-0.000000
0.094971
-0.000000
0.025497
0.048828
1.367188
0.041870
0.506836
-0.000000
1.110352
0.093018
-0.000000
-0.000000
-0.000000
-0.000000
-0.000000
-0.000000
-0.000000
-0.000000
-0.000000
-0.000000
-0.000000
0.394043
-0.000000
-0.000000
-0.000000
-0.000000
-0.000000
-0.000000
1.323242
-0.000000
-0.000000
-0.000000
-0.000000
-0.000000
0.069458
0.060059
0.492188
-0.000000
-0.000000
-0.000000
2.308594
-0.000000
0.315918
0.022888
-0.000000
-0.000000
-0.000000
-0.000000
2.142578
-0.000000
-0.000000
0.530273
-0.000000
0.276123
-0.000000
0.146362
-0.000000
0.657715
-0.000000
0.398193
1.167969
-0.000000
0.027222
0.528320
-0.000000
-0.000000
-0.000000
-0.000000
-0.000000
-0.000000
-0.000000
0.407959
1.077148
-0.000000
-0.000000
-0.000000
1.604492
0.212158
-0.000000
0.756836
1.247070
0.188965
0.486328
-0.000000
0.226685
0.330322
-0.000000
0.216675
-0.000000
-0.000000
-0.000000
0.222290
1.171875
-0.000000
-0.000000
-0.000000
0.082642
-0.000000
-0.000000
-0.000000
-0.000000
1.428711
-0.000000
1.631836
-0.000000
-0.000000
0.374512
-0.000000
-0.000000
-0.000000
-0.000000
-0.000000
-0.000000
-0.000000
-0.000000
-0.000000
0.169434
-0.000000
-0.000000
-0.000000
-0.000000
1.885742
-0.000000
-0.000000
-0.000000
1.373047
-0.000000
-0.000000
-0.000000
-0.000000
-0.000000
-0.000000
-0.000000
-0.000000
0.445068
-0.000000
-0.000000
0.078552
-0.000000
-0.000000
0.147827
-0.000000
-0.000000
-0.000000
-0.000000
-0.000000
-0.000000
0.201050
-0.000000
-0.000000
-0.000000
0.287842
0.058716
0.359863
-0.000000
-0.000000
0.578125
-0.000000
-0.000000
-0.000000
0.035583
-0.000000
-0.000000
0.577148
1.038086
-0.000000
-0.000000
-0.000000
0.032318
0.070862
-0.000000
-0.000000
-0.000000
-0.000000
0.004272
-0.000000
1.531250
-0.000000
-0.000000
-0.000000
-0.000000
1.088867
0.181763
-0.000000
-0.000000
-0.000000
-0.000000
-0.000000
-0.000000
-0.000000
-0.000000
1.461914
