-0.000000
-0.000000
-0.000000
-0.000000
0.486572
0.786621
-0.000000
-0.000000
-0.000000
1.318359
-0.000000
-0.000000
-0.000000
-0.000000
0.016815
-0.000000
-0.000000
-0.000000
-0.000000
-0.000000
-0.000000
-0.000000
-0.000000
-0.000000
-0.000000
-0.000000
-0.000000
-0.000000
0.667969
-0.000000
-0.000000
-0.000000
-0.000000
-0.000000
0.013252
-0.000000
-0.000000
-0.000000
-0.000000
-0.000000
0.596191
-0.000000
-0.000000
-0.000000
-0.000000
-0.000000
0.135376
-0.000000
-0.000000
-0.000000
-0.000000
0.115601
-0.000000
0.094360
-0.000000
-0.000000
0.299072
-0.000000
-0.000000
-0.000000
-0.000000
0.177856
0.518555
0.075684
-0.000000
-0.000000
-0.000000
-0.000000
-0.000000
-0.000000
-0.000000
-0.000000
0.140991
-0.000000
-0.000000
-0.000000
-0.000000
-0.000000
-0.000000
-0.000000
-0.000000
0.468750
-0.000000
0.096741
0.147217
0.136353
-0.000000
0.248901
-0.000000
-0.000000
-0.000000
-0.000000
-0.000000
0.045563
-0.000000
0.424316
0.227539
-0.000000
-0.000000
2.343750
0.926270
-0.000000
0.614746
-0.000000
1.111328
-0.000000
0.063293
-0.000000
-0.000000
1.773438
-0.000000
0.004578
0.400146
-0.000000
0.009979
-0.000000
-0.000000
2.355469
-0.000000
0.949707
-0.000000
0.018616
0.183228
0.003204
0.225586
-0.000000
0.347900
-0.000000
-0.000000
-0.000000
0.730469
-0.000000
0.025604
-0.000000
-0.000000
0.861328
-0.000000
-0.000000
-0.000000
-0.000000
-0.000000
-0.000000
0.312256
-0.000000
-0.000000
0.869629
-0.000000
0.366211
0.636230
-0.000000
-0.000000
0.487305
1.025391
-0.000000
-0.000000
-0.000000
0.056274
-0.000000
-0.000000
-0.000000
-0.000000
0.907715
-0.000000
-0.000000
-0.000000
-0.000000
-0.000000
-0.000000
-0.000000
-0.000000
0.128662
-0.000000
-0.000000
1.199219
-0.000000
-0.000000
-0.000000
2.369141
-0.000000
1.775391
-0.000000
-0.000000
0.312012
0.751953
-0.000000
-0.000000
-0.000000
-0.000000
-0.000000
-0.000000
0.294434
1.020508
-0.000000
-0.000000
-0.000000
0.061523
-0.000000
-0.000000
-0.000000
-0.000000
0.193115
-0.000000
-0.000000
-0.000000
0.111511
-0.000000
-0.000000
0.475830
0.140015
-0.000000
-0.000000
0.473145
0.408447
-0.000000
0.275635
-0.000000
-0.000000
0.203735
0.490479
0.400635
-0.000000
1.179688
-0.000000
-0.000000
-0.000000
-0.000000
-0.000000
0.491943
0.652832
-0.000000
0.274658
-0.000000
-0.000000
-0.000000
-0.000000
1.910156
0.816406
-0.000000
-0.000000
0.087219
-0.000000
-0.000000
-0.000000
-0.000000
1.272461
-0.000000
-0.000000
-0.000000
-0.000000
-0.000000
-0.000000
-0.000000
-0.000000
-0.000000
-0.000000
-0.000000
-0.000000
-0.000000
-0.000000
-0.000000
-0.000000
-0.000000
0.143066
-0.000000
-0.000000
-0.000000
-0.000000
-0.000000
-0.000000
-0.000000
-0.000000
0.108887
0.101685
-0.000000
-0.000000
-0.000000
0.183716
-0.000000
0.361816
-0.000000
-0.000000
1.481445
-0.000000
-0.000000
-0.000000
-0.000000
-0.000000
-0.000000
-0.000000
-0.000000
0.083191
-0.000000
-0.000000
-0.000000
0.606934
-0.000000
1.119141
0.007507
-0.000000
-0.000000
-0.000000
-0.000000
-0.000000
0.402832
-0.000000
-0.000000
-0.000000
0.064087
-0.000000
0.421143
-0.000000
-0.000000
-0.000000
-0.000000
0.559570
-0.000000
-0.000000
-0.000000
-0.000000
-0.000000
-0.000000
0.101562
-0.000000
-0.000000
-0.000000
-0.000000
-0.000000
-0.000000
-0.000000
1.458008
-0.000000
-0.000000
-0.000000
-0.000000
-0.000000
-0.000000
-0.000000
0.084595
0.762695
-0.000000
-0.000000
-0.000000
-0.000000
-0.000000
-0.000000
0.015511
-0.000000
-0.000000
-0.000000
-0.000000
0.517090
-0.000000
-0.000000
-0.000000
-0.000000
-0.000000
0.871094
-0.000000
-0.000000
0.052307
-0.000000
-0.000000
1.218750
-0.000000
-0.000000
-0.000000
-0.000000
-0.000000
0.675781
1.527344
-0.000000
-0.000000
1.943359
0.784668
0.976562
-0.000000
-0.000000
0.008057
-0.000000
0.481689
-0.000000
-0.000000
-0.000000
0.019623
0.499756
-0.000000
-0.000000
-0.000000
1.125000
0.501953
-0.000000
-0.000000
0.006073
1.221680
0.143311
1.053711
-0.000000
-0.000000
-0.000000
-0.000000
0.377197
-0.000000
-0.000000
-0.000000
-0.000000
-0.000000
-0.000000
-0.000000
-0.000000
0.736328
-0.000000
-0.000000
-0.000000
-0.000000
-0.000000
-0.000000
1.218750
-0.000000
2.250000
0.529297
-0.000000
1.314453
-0.000000
-0.000000
0.686035
-0.000000
0.029770
0.092712
1.209961
0.060303
-0.000000
-0.000000
-0.000000
0.193970
-0.000000
-0.000000
-0.000000
-0.000000
-0.000000
0.188965
0.294189
-0.000000
-0.000000
-0.000000
-0.000000
-0.000000
-0.000000
-0.000000
-0.000000
-0.000000
-0.000000
-0.000000
-0.000000
-0.000000
-0.000000
-0.000000
1.239258
-0.000000
-0.000000
-0.000000
-0.000000
-0.000000
-0.000000
-0.000000
-0.000000
-0.000000
-0.000000
-0.000000
-0.000000
-0.000000
0.010742
-0.000000
-0.000000
-0.000000
0.398926
-0.000000
0.074585
-0.000000
-0.000000
0.077026
0.749512
0.299561
-0.000000
-0.000000
-0.000000
-0.000000
-0.000000
-0.000000
0.275146
-0.000000
-0.000000
1.694336
0.122925
-0.000000
-0.000000
-0.000000
-0.000000
-0.000000
-0.000000
-0.000000
