0.65827256 0.0 0.0 0.0 0.07479047 0.47522682 0.0 0.0 0.0 0.0 0.0 0.0 0.0 0.31676018 0.0 0.0 
0.94543725 0.2731558 0.3615412 0.0 0.0 0.0 0.0 0.0 0.0 0.6271817 0.0 0.0 0.0 0.051610254 0.30673784 1.553208 
1.0298887 0.0 0.0 0.0 0.0 0.0 0.0 0.0 0.0 0.6302632 0.0 0.0 0.11760312 0.31104523 0.0435414 1.8667797 
1.3068087 0.0 0.0 0.0 0.0 0.0 0.09901255 0.0 0.0 0.06740081 0.0 0.0 0.49351406 1.8204144 0.0 0.0 
2.090562 0.0 0.0 0.0 0.0 0.0 0.0 0.0 0.0 0.0 0.0 0.0 0.42437172 3.7249365 0.0 0.0 
2.024694 0.0 0.7666102 0.0 0.0 0.0 0.0 0.0 0.0 0.0 0.0 0.0 0.68074495 1.970306 0.0 0.0 
1.3287754 0.0 0.0 0.0 0.0 0.0 0.0 0.0 0.0 0.0 0.0 0.5294237 1.4356871 0.019713894 0.0 0.0 
1.1910619 0.0 0.0 0.0 0.0 0.0 0.0 0.0 0.0 0.0 0.0 2.8815372 1.7395402 0.0 0.0 0.0 
0.9710756 0.0 0.7768234 0.0 0.0 0.0 0.0 0.0 0.0 0.0 0.0 0.46055368 0.5927299 0.18275443 0.0 0.0 
0.2511757 0.0 0.71449095 0.0 0.0 0.43883216 0.0 0.0 0.0 0.0 0.0 0.0 0.0 0.11724611 0.0 0.0 
0.0 0.0 0.0 0.0 0.19812363 0.685935 0.0 0.0 0.0 0.10903537 0.48985383 0.0 0.0 0.3184991 0.19907673 0.0 
0.0 0.0 0.46651626 0.0 0.0 0.0 0.0 0.0 0.0 0.0 0.0 0.0 0.095652536 0.50963426 0.14868064 0.27299812 
0.0 0.0 0.0 0.0 0.0 0.0 0.07372441 0.0 0.0 0.0 0.0 0.0 1.3334242 0.0 0.0 0.0 
0.0 0.0 0.0 0.0 0.0 0.0 0.0 0.0 0.0 0.0 0.0 0.0 1.3689334 0.0 0.07280314 0.0 
0.0 0.0 0.0 0.0 0.0 0.0 0.0 0.0 0.0 0.0 0.0 0.0 1.4507223 0.0 2.2372193 0.0 
0.31694388 0.0 0.25924838 0.0 0.0 0.0 0.0 0.0 0.0 0.0 0.0 0.0 0.5288133 0.72851783 1.5750264 0.0 
0.0 0.0 0.0 0.67233473 0.0 0.0 0.0 0.0 0.0 0.0 0.0 0.0 0.40919822 0.05573359 0.0 0.0 
0.0 0.0 0.0 0.033063296 0.0 0.0 0.0 0.0 0.20465331 0.0 0.0 2.5618446 0.86105394 0.2265684 0.0 0.0 
0.0 0.0 0.1414889 0.0 0.0 0.0 0.0 0.0 0.0 0.0 0.0 1.6620938 0.5505902 0.16075909 0.0 0.0 
0.10089238 0.0 0.9454035 0.0 0.0 0.2272461 0.0 0.0 0.0 0.0 0.0 0.0 0.0 0.23400986 0.0 0.0 
0.0 0.20847791 0.0 0.0 0.14510956 0.4800058 0.0 0.0 0.0 0.0 0.0 0.05763808 0.0 0.0 0.0 0.0 
0.0 1.0529133 0.0 0.0 0.0 0.23969924 0.0 0.0 0.0 0.0 0.0 0.0 0.0 0.0 0.0 0.0 
0.0 2.228443 0.0 0.0 0.0 0.0 0.0 0.857387 0.0 0.0 0.0 0.0 0.0 0.0 0.0 0.0 
0.18136366 3.0350661 0.0 0.0 0.0 0.0 0.0 0.0 0.0 0.17646568 0.0 0.0 0.0 0.0 0.0 0.0 
0.0 1.3573917 0.0 0.0 0.0 0.0 0.0 0.0 0.0 1.2127966 0.0 0.0 0.0 0.0 0.9926247 0.0 
0.0 0.0 0.0 0.0 0.0 0.0 0.0 0.0 0.0 0.0 0.0 0.0 0.0 0.0 2.3862574 0.0 
0.0 0.0 0.0 0.0 0.0 0.0 0.0 0.0 0.0 0.0 0.0 0.0 0.0 0.0 0.21612929 0.0 
0.0 0.0 0.0 0.0 0.0 0.0 0.0 0.0 0.0 0.0 0.0 0.8867644 0.0 0.0 0.0 0.0 
0.0 0.0 0.0 1.2381363 0.0 0.7195533 0.0 0.0 0.0 0.0 0.0 2.5735366 0.17708874 0.0 0.0 0.0 
0.0 0.0 0.009948444 1.0135163 0.11711802 0.7104448 0.0 0.0 0.0 0.0 0.22079724 0.28675014 0.0 0.44030294 0.0 0.0 
0.35668477 0.55501914 0.0 0.0 0.0 0.73124117 0.0 0.0 0.0 0.0 0.21830207 0.013818473 0.0 0.0 0.0 0.0 
0.85537356 1.0091 0.0 0.0 0.0 0.6122596 0.0 0.39346802 0.0 0.99319375 0.0 0.0 0.0 0.0 0.0 0.0 
0.5192735 0.0 0.0 0.0 0.0 0.0 0.0 0.8248704 0.0 2.7297254 0.58083475 0.0 0.0 0.0 0.0 0.0 
0.15038686 0.0 0.0 0.0 0.0 0.0 0.0 0.0 0.0 3.126787 0.12297402 0.0 0.0 0.0 0.0 0.0 
0.0 0.0 0.0 0.0 0.0 0.17864236 0.0 0.0 0.0 1.1442437 0.0 0.0 0.0 0.16878489 0.0 0.0 
0.0 0.0 0.0 0.0 0.0 0.0 0.0 0.0 0.0 0.0 0.0 0.0 0.0 0.0 0.0 0.0 
0.0 0.0 0.0 0.0 0.0 0.0 0.0 0.0 0.0 0.0 0.0 0.0 0.7018026 0.0 0.0 0.0 
0.0 0.0 0.0 0.0 0.0 0.0 0.0 0.0 0.7264979 0.0 0.0 0.0 0.68557423 0.0 0.0 0.0 
0.0 0.0 0.0 0.0 0.0 0.0 0.0 0.0 0.0 0.0 0.0 3.137826 1.0705059 0.0 0.0 0.0 
0.19770013 0.0 0.0 0.0 0.0 0.34416723 0.0 0.0 0.0 0.0 0.0 1.5640199 0.5455029 0.0 0.0 0.0 
0.037874352 0.043240122 0.0 0.0 0.0 0.0 0.0 0.0 0.0 0.41062897 0.923538 0.0 0.0 0.0 0.0 0.0 
0.0 0.0 0.0 0.0 0.0 0.8538688 0.0 0.0 0.0 1.368758 0.9152564 0.0 0.0 0.46235684 0.0 0.0 
0.0 0.0 0.0 0.0 0.0 0.0 0.6915031 0.0 0.0 0.3916294 1.7931585 0.0 0.9422359 1.0393332 0.0 0.0 
0.0 0.0 0.0 0.0 0.0 0.0 0.0 0.0 0.0 0.0 3.0947702 0.0 1.6633956 0.44487444 0.0 0.0 
0.0 0.0 0.0 0.0 0.0 0.8310056 0.0 0.0 0.0 0.0 3.1736755 0.0 1.2054237 1.8079164 0.0 0.0 
0.0 0.0 0.0 0.0 0.0 0.006033033 0.0 0.0 0.0 0.0 1.6539568 0.0 0.7916501 4.124843 0.46101338 0.0 
0.0 0.0 0.0 0.0 0.0 0.0 0.0 0.0 0.0 0.0 0.33460295 0.0 0.45959353 3.9701285 0.13521095 0.0 
0.0 0.0 0.0 0.0 0.0 0.0 0.0 0.0 0.0 0.0 0.0 0.0 0.12263912 0.9171724 0.0 0.0 
0.0 0.0 0.0 0.0 0.0 0.0 0.0 0.0 0.0 0.0 0.0 3.5573318 1.5942174 0.0 0.0 0.0 
0.27133554 0.0 0.0 0.0 0.0 0.0 0.0 0.0 0.0 0.0 0.0 3.0033827 1.634004 0.0 0.0 0.0 
0.0 1.2387327 0.0 0.0 0.0 0.0 0.0 0.0 0.0 0.0 0.0 0.0 0.0 0.0 0.0 0.0 
0.0 1.9953015 0.0 0.0 0.0 0.0 0.0 0.0 0.0 0.0 0.0 0.0 0.49039286 0.0 0.0 0.0 
0.0 2.320329 0.0 1.6116716 0.0 0.0 0.036415808 0.5176151 0.0 0.0 0.34471408 0.0 0.43324822 0.0 0.0 0.0 
0.0 2.7230852 0.0 3.886819 0.0 0.0 0.0 0.18067351 0.0 0.0 2.6059735 0.0 0.0 0.0 0.0 0.0 
0.0 2.3676093 0.0 4.3762584 0.0 0.8516193 0.0 0.0 0.58252203 0.0 3.0997357 0.0 0.0 0.0 0.0 0.0 
0.0 1.2351106 0.0 2.8028154 0.0 1.5735023 0.0 0.0 0.0 0.0 2.1020622 0.0 0.0 0.10815763 2.3455365 0.0 
0.0 0.0 0.0 1.635089 0.0 0.44970256 0.0 0.0 0.0 0.0 0.0 0.0 0.0 1.2602636 4.272863 0.0 
0.0 0.0 0.0 0.9612051 0.0 0.0 0.0 0.0 0.0 0.0 0.44034413 0.0 0.0 0.6763691 1.7465241 0.6159814 
0.0 0.0 0.0 0.0 0.0 0.0 0.0 0.0 0.0 0.0 0.0 1.0145795 0.10128221 0.0 0.0 0.0 
0.0 0.0 0.0 0.0 0.0 0.0 0.0 0.0 0.0 0.0 0.0 3.7219152 1.3243593 0.0 0.0 0.0 
0.8325816 1.3205681 0.0 0.0 0.0 0.0 0.0 0.0 0.0 0.0 0.0 0.0 0.0 0.0 0.0 0.0 
0.7215491 2.5903292 0.0 0.45410067 0.0 0.0 0.0 1.040841 0.0 0.15113938 0.0 0.0 0.0 0.0 0.0 0.0 
0.0 3.015075 0.0 2.0509214 0.0 0.0 0.51576436 0.15086958 0.0 2.2296515 0.0 0.9270396 0.0 0.0 0.0 0.0 
0.0 2.320948 0.0 3.1058667 0.0 0.0 0.0 0.0 0.0 2.9318783 0.0 1.3137294 0.0 0.0 0.0 0.0 
0.0 1.8340627 0.0 3.0670636 0.84846437 0.48721534 0.0 0.0 0.0 2.146531 0.0 0.0 0.0 0.0 0.0 0.0 
0.0 2.4091127 0.0 1.0376934 0.93154395 1.552628 0.0 0.0 0.0 1.8604949 0.0 0.0 0.0 0.0 0.0 0.0 
0.0 1.2339464 0.4875111 0.60650307 0.0 1.2900977 0.0 0.0 0.0 1.2420759 0.0 0.0 0.0 0.0 3.272015 0.0 
0.0 0.0 0.0 0.4236631 0.0 0.0 0.33436304 0.0 0.0 0.0 0.0 0.0 0.0 0.0 3.374203 0.0 
0.0 0.0 0.0 0.0 0.0 0.0 0.0 0.0 0.0 0.0 0.0 0.0 0.0 0.0 0.0035933107 0.0 
0.0 0.0 0.0 0.0 0.0 0.0 0.0 0.0 0.5897116 0.0 0.0 1.353748 0.08097638 0.0 0.0 0.0 
1.2599239 0.0 0.0 0.0 0.0 2.0295322 0.0 0.0 0.0 0.0 0.0 0.0 0.0 1.802425 0.0 0.0 
2.1072617 0.0 0.0 0.0 0.0 0.0 0.51141274 0.9617955 0.0 0.07379028 0.0 0.0 0.0 1.5426564 0.0 0.0 
2.1605816 0.0 0.0 0.0 0.0 0.0 0.0 0.0 0.0 1.2684833 0.0 0.0 0.0 0.0 0.0 0.0 
2.9381227 0.0 0.0 0.0 0.0 0.0 0.0 0.0 0.0 1.4726583 0.0 0.39880085 0.0 0.0 0.0 0.0 
3.6886933 0.0 0.0 0.0 0.0 0.0 0.0 0.0 0.0 1.8343272 0.0 0.0 0.0 0.0 0.0 0.0 
2.2966125 0.0 0.0 0.0 0.0 0.0 0.0 0.0 0.0 2.7950075 0.0 0.0 0.0 0.0 0.0 0.0 
0.22475378 0.0 0.4489226 0.0 0.0 0.4416446 0.0 0.0 0.0 2.4599698 0.0 0.0 0.0 0.0 0.0 0.0 
0.0 0.0 0.0 0.0 0.0 0.0 1.4219797 0.0 0.0 0.42153051 0.0 0.0 0.0 0.0 1.5310819 0.0 
0.0 0.0 0.0 0.0 0.0 0.0 0.0 0.0 0.31816068 0.0 0.0 0.0 0.022497468 0.0 0.17798276 0.0 
0.0 0.0 0.0 0.0 0.0 0.0 0.0 0.0 2.5509708 0.0 0.0 0.0 0.0 0.0 0.0 0.0 
0.0 0.0 0.091980785 0.0 0.0 2.531998 0.0 0.0 0.0 0.0 0.9569061 0.0 0.13559778 1.443274 1.5594501 0.0 
0.0 0.0 0.022331152 0.0 0.0 0.76107454 0.5498283 0.02496539 0.0 0.0 1.5757512 0.0 0.2948991 4.308087 1.4270139 0.0 
1.2792369 0.0 0.0 0.0 0.0 0.0 0.0 0.0 0.0 0.0 2.3245704 0.0 0.0 4.8715878 0.0 0.0 
1.7503097 0.0 0.0 0.0 0.0 0.0 0.0 0.0 0.0 0.0 1.5035437 0.0 0.22414802 4.145583 0.0 0.0 
1.7726294 0.0 0.0 0.0 0.0 0.0 0.0 0.0 0.0 0.0 0.19650811 0.0 1.3314139 2.0772045 0.0 0.0 
0.65100163 0.0 0.0 0.0 0.0 0.0 0.0 0.0 0.0 0.0 0.0 0.0 1.7514212 0.6643762 0.0 0.0 
0.0 0.0 0.7423254 0.0 0.0 0.0 0.0 0.0 0.0 0.0 0.0 0.0 2.0322847 0.4250976 0.0 0.0 
0.0 0.0 0.8639859 0.0 0.0 0.0 0.44058603 0.6735668 0.0 0.0 0.0 0.0 1.7737644 0.36853352 0.0 0.0 
0.0 0.0 0.0 0.0 0.0 0.0 0.0 0.0 3.4250467 0.0 0.16949031 0.0 1.3426185 0.0 0.0 0.0 
0.0 0.0 0.0 0.0 0.0 0.0 0.0 0.0 2.9862974 0.0 0.77029055 0.0 0.017302476 0.1640378 0.0 0.98854023 
0.0 0.61924124 0.0 0.0 0.0 0.75751984 0.0 0.0 0.0 0.0 0.5757682 0.0 0.23607747 0.0 1.0505569 0.0 
0.0 0.0 0.10556507 0.0 0.0 0.47116297 0.0 0.0 0.0 0.0 1.3781074 0.0 1.1683292 0.1455304 3.2583938 0.0 
0.0 0.0 0.0 0.0 0.0 0.0 0.0 0.0 0.0 0.0 3.300148 0.0 0.9878326 2.0143797 3.7131054 0.0 
0.0 0.0 0.0 0.0 0.0 0.0 0.0 0.0 0.0 0.0 4.6247764 0.0 1.4910133 2.8209074 2.0835311 0.0 
0.0 0.0 0.0 0.0 0.0 0.0 0.0 0.0 0.0 0.0 4.7985616 0.0 2.6595123 2.1233351 0.04612063 0.0 
0.0 0.0 0.0 0.0 0.0 0.0 0.0 0.0 0.0 0.0 4.54877 0.0 2.4640448 1.351114 0.0 0.0 
0.0 0.0 0.0 1.783088 0.0 0.0 0.0 0.13193326 0.0 0.0 3.298669 0.0 1.5871534 0.7091564 0.0 0.0 
0.0 0.0 0.0 2.8175104 0.0 0.0 0.077986665 0.0 1.7702864 0.0 1.992626 0.0 0.6987708 0.8569603 0.0 0.0 
0.0 0.0 0.0 2.2350738 0.0 0.0 0.0 0.0 2.8705711 0.0 1.6363512 0.0 0.0 0.14801258 0.009428173 0.9450028 
0.0 0.0 0.0 0.60273945 0.0 0.033043697 0.0 0.0 0.39666632 0.0 0.91879433 0.0 0.0 0.19069085 0.0 2.3362143 

