0.0 0.0 0.0 0.0 0.43199477 0.0 0.0 0.0 0.014488477 0.0 0.19686829 0.0 0.0 0.0 0.0 0.0 
0.0 0.0 0.0 0.0 0.7850784 1.3989415 0.0 0.0 0.0 0.0 0.0 0.0 0.0 0.0 0.6581899 0.0 
0.0 0.0 3.8207762 0.0 0.0 0.66393137 0.0 0.0 0.0 0.0 0.0 0.0 0.0 0.0 2.1948998 0.07434181 
0.0 0.0 1.4595025 0.0 0.0 0.0 3.1983523 0.0 0.0 0.0 0.0 0.0 0.68507123 0.0 1.449326 0.0 
0.15046208 0.0 0.0 0.0 0.0 0.0 2.0869517 0.0 0.0 0.0 0.0 0.4873288 0.6613929 0.0 0.0 0.0 
0.32063016 0.0 0.0 0.0 0.0 0.0 0.0 0.0 2.4623466 0.0 0.0 2.176438 0.6094041 0.0 0.0 0.0 
0.0 0.0 1.1457486 0.0 0.0 0.0 0.0 0.0 0.054038625 0.0 0.0 1.0320312 0.25120467 0.0 0.0 0.0 
0.0 0.0 0.5046226 0.06751227 0.0 0.0 0.0 0.0 0.0 0.0 0.0 0.084237546 0.023667507 0.0 0.0 0.0 
0.0 0.34093523 0.0 0.4544836 0.14864028 0.056442633 0.08742794 0.0 0.0 0.0 0.0021338984 0.068176985 0.0 0.0 0.0 0.0 
0.0 0.23768571 0.0 0.43274376 0.13288555 0.0 0.11056242 0.0 0.0 0.0 0.13131541 0.0 0.0 0.035141334 0.0 0.0 
0.0 0.0 0.0 0.0 0.9082464 0.0 0.0 0.0 0.023204498 0.0 0.19090675 0.12376921 0.0 0.0 0.0 0.0 
0.0 0.17085242 0.11196154 0.0 0.9342799 1.0279214 0.0 0.0 0.0 0.0 0.0 0.0 0.0 0.0 0.14234929 0.2598774 
0.0 0.0 4.372304 0.0 0.0 0.71515924 0.0 0.0 0.0 0.0 0.0 0.0 0.0 0.0 1.2117362 0.0 
0.0 0.0 1.2800567 0.0 0.0 0.0 4.701146 0.2520885 0.0 0.0 0.0 0.0 0.5693321 0.0 1.0522426 0.0 
0.0 0.0 0.0 0.0 0.0 0.0 1.5513417 0.0 1.9876609 0.0 0.0 0.0 0.022074178 0.0 0.0 0.0 
0.0 0.0 0.0 0.0 0.0 0.0 0.0 0.0 3.4446075 0.0 0.0 0.3569577 0.0 0.0 0.0 0.0 
0.0 0.0 1.1670479 0.7168303 0.0 0.0 0.0 0.0 0.0 0.0 0.0 0.77919936 0.0 0.0 0.0 0.0 
0.0 1.2021751 0.7728776 1.3518863 0.0 0.0 0.0 0.0 0.0 0.0 0.0 0.9766815 0.10614261 0.0 0.0 0.7357204 
0.09672022 1.436589 0.0 0.98887223 0.8271944 0.0 0.3324979 0.0 0.0 0.033148553 0.0 1.1984633 0.0 0.0 0.0 0.2625412 
0.0 0.63904124 0.0 1.1580424 1.3708152 0.5880683 0.02536452 0.0 0.0 0.08172384 0.042505845 0.29745808 0.0 0.0 0.0 0.0 
0.0 0.0 0.0 0.0 1.1487888 0.0 0.0 0.0 0.0 0.0 0.0 0.09807074 0.0 0.0 0.0 0.0 
0.0 0.6354501 0.5346519 0.0 0.73104656 0.24761817 0.0 0.0 0.0 0.15223342 0.0 0.0 0.0 0.0 0.0 0.6672457 
0.0 0.33330226 3.836527 0.0 0.0 0.0 0.28404647 0.0 0.0 0.25768784 0.0 0.0 0.0 0.0 0.0 0.0 
0.0 0.0 0.0 0.0 0.0 0.0 5.6022196 0.37907213 0.0 0.0 0.0 0.0 0.0 0.0 0.0 0.0 
0.0 0.0 0.0 0.0 0.0 0.0 0.1003837 0.0 2.7138472 0.0 0.0 0.0 0.0 0.0 0.0 0.0 
0.0 0.0 0.0 0.0 0.0 0.12985054 0.0 0.0 2.4652166 0.0 0.0 0.0 0.0 0.0 0.0 0.55454504 
0.2386008 0.573416 0.70601594 0.0 0.0 0.0 0.0 0.0 0.0 0.0 0.0 0.0 0.0 0.0 0.0 1.0592947 
1.1891953 2.6856747 0.0 0.0 0.0 0.0 0.0 0.0 0.0 0.0 0.0 0.47886947 0.0 0.0 0.0 1.0445341 
1.4111717 0.9233606 0.0 0.0 0.21005854 0.0 0.0 0.0 0.0 0.61086893 0.0 1.4576446 0.0 0.0 0.0 0.0 
0.7551361 0.0 0.0 0.0 0.8911312 0.074064344 0.0 0.0 0.0 0.80292195 0.0 1.5673294 0.0 0.0 0.0 0.0 
0.0 0.0 0.0 0.0 1.3274302 0.39894208 0.0 0.0 0.0 0.0 0.0 0.02247756 0.0 0.0 0.0 0.0 
0.0 0.0 1.4672902 0.0 0.0 0.6723319 0.0 0.0 0.0 0.3682151 0.0 0.0 0.0 0.0 0.0 0.72040075 
0.0 0.0 3.1124954 0.0 0.0 0.0 2.0897756 0.27093226 0.0 0.19568586 0.0 0.0 0.0 0.0 0.0 0.0 
0.0 0.0 0.0 0.0 0.0 0.0 4.8612423 0.0 0.0 0.0 0.0 0.06887202 0.0 0.0 0.0 0.0 
0.7110887 0.0 0.0 0.0 0.0 0.0 0.0 0.0 3.486334 0.0 0.0 0.0 0.0 0.0 0.0 0.0 
0.75358546 0.0 0.0 0.0 0.0 0.0 0.0 0.0 0.23284462 0.0 0.0 0.0 0.0 0.0 0.0 1.9673824 
1.6541119 0.0 0.0 0.0 0.0 0.0 0.0 0.0 0.0 0.0 0.0 0.0 0.0 0.7714832 0.0 0.54991215 
2.553095 0.0 0.0 0.0 0.0 0.0 0.0 0.47143954 0.0 0.0 0.0 0.0 0.0 0.47640237 0.0 0.0 
2.3238633 0.0 0.0 0.0 0.0 0.0 0.0 0.0 0.0 0.0 0.0 0.0 0.51439005 0.0 0.0 0.0 
1.6908438 0.0 0.0 0.0 0.0 0.0 0.0 0.0 0.0 0.0 0.0 3.1473036 1.3399656 0.0 0.0 0.0 
0.0 0.0 0.0 0.0 1.2765554 1.042124 0.0 0.0 0.0 0.0 0.17994566 0.0 0.0 0.0 0.0 0.0 
0.0 0.0 2.5102434 0.0 0.0 1.0906911 0.0 0.0 0.0 0.0 0.0 0.0 0.0 0.0 0.0 0.0 
0.0 0.0 2.5162177 0.0 0.0 0.0 3.5647016 0.34510076 0.0 0.0 0.0 0.0 0.0 0.0 0.0 0.0 
0.0 0.0 0.0 0.0 0.0 0.0 2.5749276 0.0 1.1757755 0.0 0.0 0.0 0.0 0.0 0.0 0.0 
0.06615944 0.0 0.0 0.0 0.0 0.0 0.0 0.0 3.2762685 0.0 0.0 0.0 0.0 0.0 0.0 1.0136107 
0.0 0.0 0.0 0.0 0.0 0.0 0.0 0.0 0.0 0.0 0.0 0.0 0.18736428 0.0 0.0 0.606618 
0.0 0.0 0.0 0.0 0.0 0.0 0.0 0.0 0.0 0.0 0.0 0.0 1.1652619 1.2853756 0.47182685 0.0 
0.30581388 0.0 0.25435418 0.0 0.0 0.0 0.0 0.0 0.0 0.0 0.0 0.0 0.8655573 1.7857165 0.974523 0.0 
1.4951664 0.0 0.0 0.0 0.0 0.0 0.0 0.0 0.0 0.0 0.0 0.0 1.403069 0.5093793 0.0 0.0 
0.8841361 0.0 0.0 0.0 0.0 0.0 0.0 0.0 0.0 0.0 0.0 1.9007227 1.0658394 0.0 0.0 0.0 
0.0 0.0 0.0 0.0 0.93270546 1.773855 0.0 0.0 0.0 0.0 0.0 0.24820897 0.0 0.0 0.0 0.0 
0.0 0.41168797 2.938102 0.0 0.0 0.8792442 0.0 0.0 0.0 0.0 0.0 0.0 0.0 0.0 0.0 0.0 
0.0 0.0 1.4835297 0.51839256 0.0 0.0 3.3256917 0.55086297 0.0 0.0 0.0 0.0 0.0 0.0 0.0 0.0 
0.0 0.0 0.0 0.0 0.0 0.0 0.19663154 0.0 2.33803 0.0 0.0 0.0 0.0 0.0 0.0 0.0 
0.0 0.0 0.0 0.0 0.0 0.0 0.0 0.0 0.85580677 0.0 0.0 0.0 0.14307112 0.0 0.0 0.8587248 
0.0 0.0 0.0 0.0 0.0 0.0 0.0 0.0 0.0 0.0 0.0 0.0 0.3638686 0.0 0.0 0.0 
0.0 0.0 0.0 0.0 0.0 0.0 0.0 0.0 0.0 0.0 0.0 0.0 0.31030732 0.0 0.29782563 0.0 
0.0 0.0 0.059498 0.0 0.0 0.0 0.0 0.0 0.0 0.0 0.0 0.0 0.0 0.0 3.0102437 0.0 
0.0 0.0 0.0 0.0 0.0 0.0 0.0 0.0 0.0 0.0 0.0 0.0 0.0 0.07670208 2.206055 0.0 
0.0 0.0 0.0 0.0 0.0 0.0 0.0 0.0 0.0 0.0 0.0 0.0 0.0 0.15433937 0.0 0.0 
0.0 0.0 0.0 0.0 0.6206446 2.3660803 0.0 0.0 0.0 0.0 0.52118504 0.21793613 0.0 0.0 0.0 0.0 
0.0 0.0 1.8696471 0.0 0.0 2.0163562 0.0 0.03126146 0.0 0.0 0.0 0.0 0.0 0.20664039 0.0 0.0 
0.0 0.0 0.42073065 0.0 0.0 0.0 2.2216666 0.91866404 0.0 0.0042151175 0.0 0.0 0.0 0.0 0.0 0.0 
0.0 0.0 0.0 0.0 0.0 0.0 0.0 0.0 0.0 0.0 0.0 0.0 0.0 0.0 0.0 0.0 
0.24867897 0.0 0.0 0.0 0.0 0.0 0.0 0.0 0.0 0.0 0.0 0.0 0.0 0.0 0.0 0.0 
0.60184395 0.035527103 0.0 0.0 0.0 0.0 0.0 0.49585122 0.0 0.0 0.0 0.0 0.0 0.0 0.0 0.0 
0.0 0.0 0.0 0.0 0.0 0.0 0.0 0.0 0.0 2.3209226 0.0 0.0 0.0 0.0 0.0 0.0 
0.0 0.0 0.0 0.0 0.0 0.0 0.0 0.0 0.0 1.0230329 0.0 0.0 0.0 0.0 0.8361277 0.0 
0.0 0.0 0.0 0.0 0.0 0.0 0.0 0.0 0.0 0.0 0.0 0.0 0.29087257 0.0 1.8218617 0.0 
0.0 0.0 0.0 0.0 0.0 0.0 0.0 0.0 0.23752102 0.0 0.0 0.0 0.50468254 0.0 0.7514627 0.0 
0.0 0.0 0.0 0.0 0.14951238 1.9585786 0.0 0.0 0.0 0.0 1.4827652 0.0 0.0 0.0 0.0 0.0 
0.0 0.0 1.1731308 0.0 0.0 3.137848 0.0 0.24785505 0.0 0.0 0.48763242 0.0 0.0 1.9179173 0.0 0.0 
0.0 0.0 0.0 0.0 0.0 0.0 1.6003661 0.67319435 0.0 0.0 1.5857767 0.0 0.0 1.829492 0.0 0.0 
0.5846003 0.0 0.0 0.0 0.0 0.0 0.0 0.0 0.0 0.0 1.0429232 0.0 0.0 0.5303525 0.0 0.0 
0.9330651 0.0 0.0 0.0 0.0 0.0 0.0 0.0 0.0 0.0 0.14809956 0.0 0.0 0.6595927 0.0 0.0 
0.0 0.0 0.0 0.0 0.0 0.0 0.0 0.0 0.0 1.226991 0.0 0.0 0.1480484 0.0 0.0 0.0 
0.0 0.0 0.0 0.0 0.0 0.0 0.0 0.0 0.0 0.18397124 0.0 0.0 0.17680997 0.0 0.0 0.0 
0.0 0.0 0.0 0.0 0.0 0.0 0.0 0.0 0.0 0.0 0.0 0.0 0.9595905 0.0 0.0 0.0 
0.0 0.0 0.0 0.0 0.0 0.0 0.0 0.0 0.0 0.0 0.0 0.0 1.3292625 0.0 0.03812477 0.0 
0.0 0.0 0.0 0.0 0.0 0.0 0.0 0.0 3.6945899 0.0 0.8471909 0.0 0.6052771 0.0 0.3783931 0.0 
0.0 0.24275671 0.0 0.0 0.0 0.40962553 0.0 0.0 0.0 0.0 1.3449547 0.2503799 0.0 0.0 0.0 0.0 
0.0 0.0 0.33921418 0.0 0.0 1.5245655 0.0 0.17987727 0.0 0.0 1.4951562 0.0 0.08202848 0.0 0.7373553 0.0 
0.0 0.0 0.0 0.0 0.0 0.0 1.0133271 0.43128932 0.0 0.0 3.3953757 0.0 0.3497913 1.6703091 1.1774602 0.0 
0.0 0.0 0.0 0.0 0.0 0.0 0.0 0.0 0.0 0.0 4.673138 0.0 0.31833583 2.5419965 0.23028617 0.0 
0.0 0.0 0.0 0.0 0.0 0.0 0.0 0.0 0.0 0.0 4.1200995 0.0 1.3787904 3.2045975 0.0 0.0 
0.0 0.0 0.0 0.0 0.0 0.0 0.0 0.0 0.0 0.0 3.8287356 0.0 2.2839627 1.2004521 0.0 0.0 
0.0 0.0 0.0 0.0 0.0 0.0 0.0 0.0 0.0 0.0 3.4383767 0.0 1.0236775 0.5508396 0.0 0.0 
0.0 0.0 0.0 2.5860658 0.0 0.0 0.0 0.0 0.0 0.0 2.3315196 0.0 0.595646 0.10830367 0.0 0.0 
0.0 0.0 0.0 3.3509228 0.0 0.0 0.0 0.0 2.2721736 0.0 1.7565951 0.0 0.021804474 0.14419478 0.0 0.0 
0.0 0.0 0.0 2.0269175 0.0 0.0 0.0 0.0 1.7265854 0.0 1.0863577 0.0 0.0 0.0 0.0104049 2.1675973 
0.0 0.593896 0.0 0.0 0.0 0.0 0.0 0.06717098 0.0 0.0 0.7878199 0.37553158 0.0 0.0 0.0 0.0 
0.0 1.2976903 0.0 0.0 0.0 0.17336684 0.0 0.11022401 0.0 0.0 0.28694087 0.0 0.0 0.0 0.0 0.0 
0.0 1.6481851 0.0 0.84622645 0.0 0.0 0.0 0.0 0.0 0.0 1.1613185 0.0 0.0 0.0 0.779018 0.0 
0.0 1.696652 0.0 2.4096127 0.0 0.0 0.0 0.0 0.0 0.0 2.1844988 0.0 0.0 0.0 1.7869799 0.0 
0.0 2.5327919 0.0 3.7835047 0.0 0.0 0.0 0.0 0.0 0.0 2.7407625 0.0 0.0 0.0 1.5103202 0.0 
0.0 2.832778 0.0 6.166779 0.0 0.0 0.0 0.0 0.0 0.0 3.2014098 0.0 0.0 0.0 0.16850744 0.0 
0.0 3.1854699 0.0 6.3160596 0.0 0.0 0.0 0.0 0.0 0.0 2.6955373 0.0 0.0 0.0 0.0 0.0 
0.0 1.8990449 0.0 5.83216 0.0 0.0 0.0 0.0 0.0 0.62514114 1.4912386 0.0 0.0 0.0 0.0 0.383348 
0.0 0.2000074 0.0 3.4754677 0.33550042 0.0 0.0 0.0 0.0 0.23719472 0.63312966 0.0 0.0 0.0 0.0 2.3124225 
0.0 0.0 0.0 1.2543167 0.5662862 0.50350976 0.0 0.0 0.0 0.0 0.3505252 0.0 0.0 0.0 0.0 2.1053674 

