0.006720688 0.40511823 0.041993503 0.0 0.07961882 0.0 0.0 0.0 0.0 0.0 0.0 0.0 0.0 0.0 0.0 0.0 
0.38592038 1.0508181 0.2244094 0.0 0.0 0.0 0.0 0.0 0.0 0.0 0.0 0.0 0.0 0.0 0.0 0.45213684 
1.2352046 1.9602008 0.0 0.0 0.0 0.0 0.0 0.0 0.0 0.0 0.0 0.0 0.0 0.0 0.0 1.0560921 
2.1057646 2.3404336 0.0 0.0 0.0 0.0 0.0 0.0 0.0 0.00021670386 0.0 0.0 0.0 0.0 0.0 0.8143907 
2.372886 1.5030913 0.0 0.0 0.0 0.0 0.0 0.2632078 0.0 0.36834097 0.0 0.0 0.0 0.0 0.0 0.0 
1.9573185 0.3288557 0.0 0.0 0.0 0.0 0.0 0.07165758 0.0 0.69261205 0.0 0.0 0.0 0.0 0.0 0.0 
1.2409451 0.0 0.0 0.0 0.0 0.0 0.0 0.0 0.0 0.84059685 0.0 1.2279041 0.046373695 0.0 0.0 0.0 
0.5856882 0.0 0.0 0.0 0.52071065 0.65720344 0.0 0.0 0.0 0.42579243 0.0 0.3958377 0.0 0.0 0.0 0.0 
0.030539747 0.0 0.036475297 0.19758914 0.3498833 0.70197713 0.0 0.0 0.0 0.0 0.08982904 0.0 0.0 0.64713216 0.0 0.0 
0.0 0.0 0.0 0.1535476 0.0 0.15432724 0.0 0.0 0.0 0.0 0.14724568 0.0 0.0 0.12567249 0.0 0.0 
0.79671764 0.79491323 0.315175 0.0 0.0 0.0 0.0 0.0 0.0 0.10253179 0.0 0.0 0.0 0.0 0.0 0.9122162 
1.2541461 1.0497473 0.2408171 0.0 0.0 0.0 0.0 0.0 0.0 1.012871 0.0 0.0 0.0 0.0 0.33194906 1.869064 
1.8698004 0.10012866 0.0 0.0 0.0 0.0 0.0 0.0 0.0 1.0622635 0.0 0.0 0.0 0.22246516 0.060575783 1.5575163 
2.391756 0.0 0.0 0.0 0.0 0.0 0.031256564 0.0 0.0 0.075707644 0.0 0.0 0.0 1.9498109 0.0 0.0 
2.5568347 0.0 0.0 0.0 0.0 0.0 0.0 0.18454443 0.0 0.0 0.0 0.0 0.0069805607 2.4564326 0.0 0.0 
2.0348573 0.0 0.5508679 0.0 0.0 0.0 0.0 0.0 0.0 0.0 0.0 0.0 0.8735421 0.36332613 0.0 0.0 
1.072915 0.0 0.0 0.0 0.0 0.0 0.0 0.0 0.0 0.0 0.0 1.1855369 1.2446896 0.0 0.0 0.0 
0.7917271 0.0 0.0 0.0 0.0 0.0 0.0 0.0 0.0 0.0 0.0 2.0651886 1.2953854 0.0 0.0 0.0 
0.5376078 0.0 0.5807678 0.0 0.0 0.27466246 0.0 0.0 0.0 0.0 0.0 0.0 0.1633045 0.3979456 0.0 0.0 
0.0 0.0 0.28112152 0.09192827 0.0 0.34351537 0.0 0.0 0.0 0.0 0.029340344 0.0 0.0 0.27570122 0.0 0.0 
0.4797642 0.34479 1.0692647 0.0 0.0 0.0 0.0 0.0 0.0 0.66022813 0.0 0.0 0.0 0.0 0.3338198 2.3799937 
0.0 0.0 0.021926906 0.0 0.0 0.0 0.0 0.0 0.0 0.66308326 0.0 0.0 0.6211835 0.0 0.0 1.2885932 
0.0 0.0 0.0 0.0 0.0 0.0 0.28324717 0.057064205 0.0 0.0 0.0 0.0 1.7435135 0.14688385 0.0 0.0 
0.0 0.0 0.0 0.0 0.0 0.0 0.0 0.0 0.0 0.0 0.16676311 0.0 1.5027933 1.397081 0.0 0.0 
0.0 0.0 0.0 0.0 0.0 0.0 0.0 0.0 0.0 0.0 0.0 0.0 0.74766463 2.433751 1.0507795 0.0 
0.18603607 0.0 0.58751136 0.0 0.0 0.0 0.0 0.0 0.0 0.0 0.0 0.0 0.825673 1.4946123 0.5857497 0.0 
0.0 0.0 0.0 0.0 0.0 0.0 0.0 0.0 0.0 0.0 0.0 0.0 0.66775733 0.0 0.0 0.0 
0.0 0.0 0.0 0.0 0.0 0.0 0.0 0.0 0.0 0.0 0.0 3.5012174 1.1000067 0.0 0.0 0.0 
0.2158096 0.0 0.06607628 0.0 0.0 0.012157783 0.0 0.0 0.0 0.0 0.0 1.4407296 0.41390163 0.0 0.0 0.0 
0.046152662 0.0 0.46632785 0.0 0.0 0.55750734 0.0 0.0 0.0 0.0 0.0 0.0 0.0 0.50373 0.0 0.0 
0.0 0.073081836 0.5631144 0.0 0.0 0.0 0.0 0.0 0.0 0.0 0.0 0.0 0.54282665 0.0 0.0 0.7883876 
0.0 0.17949852 0.0 0.0 0.0 0.0 0.13298917 0.5881068 0.0 0.0 0.0 0.0 1.1950214 0.0 0.0 0.0 
0.0 0.26816106 0.0 0.0 0.0 0.0 0.0 0.8811989 0.0 0.0 0.0 0.794188 0.6258765 0.0 0.0 0.0 
0.0 1.2362626 0.0 0.0 0.0 0.0 0.0 0.0 0.0 0.0 0.0 0.0 0.0 0.0 0.0 0.0 
0.0 1.7631497 0.0 0.7363888 0.0 0.546662 0.0 0.0 0.0 0.0 0.0 0.0 0.0 0.0 1.6808178 0.0 
0.0 0.8735988 0.0 1.4022945 0.0 0.0 0.0 0.0 0.0 0.0 0.0 0.0 0.0 0.0 2.9663255 0.0 
0.0 0.0 0.0 0.6369415 0.0 0.0 0.0 0.0 0.0 0.0 0.0 0.0 0.0 0.0 0.15129723 0.13965018 
0.0 0.0 0.0 0.0 0.0 0.0 0.0 0.0 0.0 0.0 0.0 2.5088925 0.0 0.0 0.0 0.0 
0.0 0.0 0.0 0.0 0.0 0.0 0.0 0.0 0.0 0.0 0.0 2.7170403 0.9473402 0.0 0.0 0.0 
0.16726209 0.0 0.6601412 0.0 0.0 0.50644386 0.0 0.0 0.0 0.0 0.0 0.0 0.0 0.3203059 0.0 0.0 
0.0024691932 0.0 0.0 0.0 0.0 0.06543499 0.0 1.0618342 0.0 0.0 0.0 0.0 0.0 0.4093443 0.0 0.0 
0.67158586 0.12306967 0.0 0.0 0.0 0.0 0.83811164 2.5942106 0.0 0.0 0.0 0.0 0.0 0.0 0.0 0.0 
1.6234753 0.0 0.0 0.0 0.0 0.0 0.0 0.7147451 0.0 1.2258865 0.0 0.0 0.0 0.0 0.0 0.0 
1.6486157 0.0 0.0 0.0 0.0 0.0 0.0 0.0 0.0 2.1466208 0.0 0.0 0.0 0.0 0.0 0.0 
0.0 0.0 0.0 0.0 0.0 0.71236646 0.0 0.0 0.0 2.2902281 0.0 0.0 0.0 0.0 0.0 0.0 
0.0 0.0 0.65627766 0.0 0.0 0.0 0.0 0.0 0.0 1.459338 0.0 0.0 0.0 0.0 2.4341714 0.0 
0.0 0.0 0.0 0.0 0.0 0.0 0.0903272 0.0 0.0 0.0 0.0 0.0 0.47463632 0.0 0.7796025 0.0 
0.0 0.0 0.0 0.0 0.0 0.0 0.0 0.0 0.0 0.0 0.0 0.0 0.14185613 0.0 0.0 0.0 
0.0 0.0 0.0 0.0 0.0 0.0 0.0 0.0 0.0 0.0 0.0 2.8860812 1.3746223 0.0 0.0 0.0 
0.0 0.0 0.75130975 0.0 0.0 0.0019521341 0.0 0.0 0.0 0.0 0.0 0.4976628 0.36821836 0.22543895 0.0 0.0 
0.0 0.0 0.0 0.0 0.0 1.8107927 0.38297203 1.302468 0.0 0.0 1.6017684 0.0 0.0 2.5202866 0.0 0.0 
0.19220538 0.0 0.0 0.0 0.0 0.0 1.8413521 0.98930436 0.0 0.24131104 2.8764446 0.0 0.0 3.4667532 0.0 0.0 
0.0 0.0 0.0 0.0 0.0 0.0 0.0 0.0 0.0 0.45324516 2.465966 0.0 0.0 3.0566683 0.0 0.0 
0.0 0.0 0.0 0.0 0.0 0.0 0.0 0.0 0.0 0.0 1.6262996 0.0 0.28160936 1.7882917 0.0 0.0 
0.0 0.0 0.0 0.0 0.0 0.0 0.0 0.0 0.0 0.0 0.6269232 0.0 1.52635 0.77601814 0.0 0.0 
0.0 0.0 2.6529558 0.0 0.0 0.70620465 0.0 0.0 0.0 0.0 0.0 0.0 1.4961874 1.9236655 0.88361543 0.0 
0.0 0.0 1.7445221 0.0 0.0 0.0 1.1547544 0.0 0.0 0.0 0.0 0.0 1.7642224 0.49823168 0.9810397 0.0 
0.0 0.0 0.0 0.0 0.0 0.0 0.0 0.0 1.553281 0.0 0.15652831 0.0 0.55853814 0.0 0.0 0.0 
0.0 0.0 0.0 0.0 0.0 0.0 0.0 0.0 1.1113042 0.0 0.0 2.6929595 0.885567 0.0 0.0 0.0 
0.0 0.0 0.33047086 0.041261762 0.0 0.0 0.0 0.0 0.0 0.0 0.0 1.1378328 0.4582699 0.15152612 0.0 0.0 
0.0 0.5935258 0.35259804 0.0 0.0 0.7209842 0.0 0.31599927 0.0 0.0 0.7950478 0.0 0.120773 0.0 1.1101342 0.0 
0.0 0.0 0.0 0.0 0.0 0.0 0.3926912 0.0 0.0 0.0 2.104415 0.0 0.55751485 1.1843932 1.780428 0.0 
0.0 0.0 0.0 0.0 0.0 0.0 0.0 0.0 0.0 0.0 3.3244896 0.0 0.66005045 1.1005598 1.2204092 0.0 
0.0 0.3950335 0.0 0.0 0.0 0.0 0.0 0.0 0.0 0.0 3.3916836 0.0 1.0334092 0.38400123 0.0327432 0.0 
0.0 0.9539137 0.0 0.68952376 0.0 0.0 0.0 0.0 0.0 0.0 3.1792397 0.0 0.85646397 0.0 0.0 0.0 
0.0 1.438659 0.98177767 1.7907399 0.0 0.61283827 0.0 0.0 0.0 0.0 0.24357706 0.0 0.0 0.19923371 1.4172772 0.0 
0.0 0.0 1.7254202 2.6817136 0.0 0.0 1.1463215 0.0 0.0 0.0 0.0 0.0 0.0 0.0 1.6775188 0.0 
0.0 0.0 0.0 0.65101063 0.0 0.0 1.3377901 0.0 0.15220001 0.0 0.4747708 0.0 0.0 0.0 0.0 0.0 
0.0 0.0 0.0 0.0 0.0 0.0 0.0 0.0 0.43948665 0.0 0.0 1.5842202 0.0 0.0 0.0 0.0 
0.0 0.0 0.0 0.2633657 0.0 0.10150473 0.0 0.0 0.0 0.0 0.0 1.2844286 0.38883442 0.0 0.0 0.0 
0.0 1.351925 0.0 0.84101 0.0 0.0 0.0 0.0 0.0 0.0 0.0 0.0 0.0 0.0 0.0 0.0 
0.0 1.4319755 0.0 1.6634591 0.0 0.0 0.0 0.0 0.0 0.26834694 0.043217354 0.0 0.0 0.0 1.2293557 0.0 
0.0 1.4368243 0.0 2.7167466 0.0 0.0 0.0 0.0 0.0 0.4560586 0.9129314 0.0 0.0 0.0 1.7021093 0.0 
0.0 1.903167 0.0 4.0126557 0.0 0.0 0.0 0.0 0.0 1.0759916 1.2813073 0.0 0.0 0.0 0.94378 0.0 
0.0 1.4232727 0.0 3.440193 0.0 0.0 0.0 0.0 0.0 1.1857485 1.3997649 0.0 0.0 0.0 0.0 0.0 
0.0 0.89378494 0.0 2.618122 0.0 1.5534658 0.0 0.0 0.0 1.2276353 0.0 0.0 0.0 0.0 0.37202787 0.0 
0.0 0.0 1.6806693 2.0874004 0.0 0.0 0.68959963 0.0 0.0 0.10333362 0.0 0.0 0.0 0.0 1.4759574 0.0 
0.0 0.0 0.0 0.0 0.0 0.0 1.867373 0.0 0.0 0.0 0.0 0.0 0.0 0.0 0.0 0.0 
0.0 0.0 0.0 0.0 0.0 0.0 0.0 0.0 0.68873066 0.0 0.0 0.42912647 0.0 0.0 0.0 0.0 
0.0 0.0 0.0 0.13445824 0.0 0.34542695 0.0 0.0 0.0 0.0 0.0 1.1693152 0.1842216 0.0 0.0 0.0 
0.11161733 0.47488663 0.0 0.8400204 0.0 0.0 0.28895786 0.0 0.0 1.0708245 0.0 0.0 0.0 0.0 0.0 0.0 
0.0 0.58110636 0.0 1.5062853 0.0 0.0 0.32871374 0.0 0.0 1.9067495 0.0 0.0 0.0 0.0 0.0 0.0 
0.0 0.39086017 0.0 1.6043266 0.0 0.0 0.2377432 0.0 0.0 2.3883932 0.0 0.0 0.0 0.0 0.0 0.0 
0.0 0.0 0.0 1.2777547 0.118124224 0.0 0.0 0.0 0.0 2.619965 0.0 0.0 0.0 0.0 0.0 0.0 
0.0 0.0 0.0 0.0 0.86036456 0.065238446 0.0 0.0 0.0 1.7631308 0.218843 0.0 0.0 0.0 0.0 0.30926946 
0.0 0.0 0.038000066 0.0 0.16551244 2.8345811 0.0 0.0 0.0 0.5965439 0.0 0.0 0.0 0.0 0.0 0.0 
0.0 0.0 3.024065 0.0 0.0 0.0 0.8747376 0.0 0.0 0.0 0.0 0.0 0.0 0.0 0.690443 0.0 
0.0 0.0 0.0 0.0 0.0 0.0 2.8217006 0.0 0.0 0.0 0.0 0.0 0.0 0.0 0.0 0.0 
0.0 0.0 0.0 0.0 0.0 0.0 0.0 0.0 1.0879388 0.0 0.0 0.7864225 0.0 0.0 0.0 0.0 
0.0 0.0 0.0 0.0 0.0 0.30099988 0.0 0.0 0.0 0.0 0.0 1.3101519 0.3111723 0.0 0.0 0.0 
0.08356351 0.09936028 0.0 0.24893212 0.0 0.0 0.17472252 0.0 0.0 0.19434005 0.004015472 0.0 0.0 0.0 0.0 0.0 
0.01756386 0.095979 0.0 0.39187038 0.0 0.0 0.22610626 0.0 0.0 0.36832607 0.0 0.0 0.0 0.0 0.0 0.0 
0.0 0.03990083 0.0 0.3751314 0.003291063 0.0 0.20738737 0.0 0.0 0.38254872 0.0 0.0 0.0 0.0 0.0 0.0 
0.0 0.0 0.0 0.0 0.12311334 0.0 0.07820134 0.0 0.0 0.09858778 0.0 0.0 0.0 0.0 0.0 0.14576003 
0.0 0.0 0.0 0.0 0.46145093 0.0 0.0 0.0 0.0 0.0 0.6484002 0.0 0.0 0.0 0.0 0.0 
0.0 0.0 0.49521863 0.0 0.0 2.9564505 0.0 0.0 0.0 0.0 0.0 0.0 0.0 0.0 0.0 0.0 
0.0 0.0 2.907252 0.0 0.0 0.0 1.0237213 0.31867296 0.0 0.0 0.0 0.0 0.0 0.6748008 0.7990476 0.0 
0.0 0.0 0.0 0.0 0.0 0.0 2.7605035 0.0 0.0 0.0 0.0 0.0 0.0 0.0 0.0 0.0 
0.0 0.0 0.0 0.0 0.0 0.0 0.0 0.0 0.8135251 0.0 0.0 0.0015810952 0.0 0.0 0.0 0.0 
0.0 0.0 0.0 0.0 0.0 0.0 0.0 0.0 0.0 0.0 0.0 1.4673681 0.5688745 0.0 0.0 0.0 

