0.0 0.0 0.0 0.0 0.0 0.0 0.06213527 0.0 0.0 0.0 0.0 0.0 0.0 0.0 0.0 0.0 
0.0 0.082530834 0.0 0.11805953 0.018281884 0.0 0.0 0.0 0.0 0.0 0.0 0.0 0.0 0.0 0.0 0.0 
0.0 0.51788545 0.4990034 0.35092264 0.0 0.0 0.0 0.0 0.24225593 0.0 0.0 0.0 0.0 0.0 0.0 0.3277621 
0.035842758 0.8172742 0.30966583 0.5140752 0.0 0.0 0.0 0.0 0.0868381 0.0 0.0 0.017474033 0.0 0.0 0.0 0.60854256 
0.11792223 0.91518503 0.0 0.516962 0.59691 0.0 0.50957876 0.0 0.0 0.0 0.0 0.7302464 0.0 0.0 0.0 0.0 
0.2693566 0.5306395 0.0 0.17040783 1.0867857 0.1767819 0.119418085 0.0 0.0 0.0 0.0 0.18873963 0.0 0.022801496 0.0 0.0 
0.46154466 0.2202125 0.54143727 0.0 0.5002124 0.31863838 0.0 0.0 0.0 0.0 0.0 0.0 0.0 0.20966509 0.0 0.4965077 
0.8664428 0.41192415 1.622042 0.0 0.0 0.0 0.0 0.0 0.0 0.47223413 0.0 0.0 0.0 0.0 0.2626232 1.6883593 
1.1706276 0.0 0.14804359 0.0 0.0 0.0 1.1727339 0.0 0.0 0.63774073 0.0 0.0 0.0 0.0 0.0 0.5842458 
1.0296037 0.0 0.0 0.0 0.0 0.0 1.2838095 0.21802633 0.0 0.06376383 0.0 0.8609328 0.20107324 0.0 0.0 0.0 
0.0 0.0 0.0 0.0 0.051847868 0.0 0.180204 0.0 0.0 0.0 0.0 0.0 0.0 0.0 0.0 0.0 
0.20561345 0.26504666 0.13056335 0.0 0.31701213 0.0 0.0 0.0 0.0 0.0 0.0 0.0 0.0 0.06425933 0.0 0.0 
0.30719337 0.832018 1.0694686 0.0 0.0 0.0 0.0 0.0 0.0 0.0002799295 0.0 0.0 0.0 0.0 0.0 1.1209415 
0.47732505 1.115515 0.32431483 0.0 0.0 0.0 0.28738275 0.0 0.0 0.40320802 0.0 0.018058047 0.0 0.0 0.0 0.9295483 
0.74493206 0.44382387 0.0 0.0 0.83483636 0.0 1.1792755 0.0 0.0 0.0 0.0 1.3634418 0.0 0.0 0.0 0.0 
0.97704357 0.0 0.0 0.0 1.1256021 0.00023658574 0.0 0.0 0.0 0.16683128 0.0 0.23662066 0.0 0.0 0.0 0.0 
0.0 0.0 1.5365098 0.0 0.24141908 0.17678809 0.0 0.0 0.0 0.67940974 0.0 0.0 0.0 0.0 0.23452236 0.8706198 
0.0 0.0 1.9319705 0.0 0.0 0.0 0.0 0.0 0.0 0.44995844 0.0 0.0 0.29389662 0.0 1.0675064 1.0653518 
0.56496197 0.0 0.0 0.0 0.0 0.0 2.5666964 0.37498724 0.0 0.0 0.0 0.0 0.9787336 0.0 0.10212162 0.0 
0.47288826 0.0 0.0 0.0 0.0 0.0 0.23746422 0.60590506 0.0 0.0 0.0 0.0 0.6953028 0.3050078 0.0 0.0 
0.15968828 0.0 0.0 0.0 0.2513341 0.03137982 0.0 0.0 0.0 0.0 0.0 0.0 0.0 0.0 0.0 0.0 
0.36285323 0.28472528 0.75832295 0.0 0.19228569 0.0 0.0 0.0 0.18653774 0.08545792 0.0 0.0 0.0 0.0 0.36722106 0.66543126 
0.6150905 0.11273817 1.9516689 0.0 0.0 0.0 0.0 0.0 0.0 0.16474305 0.0 0.0 0.0 0.0 0.34578204 1.7384425 
0.73452306 0.0 0.15232562 0.0 0.0 0.0 1.6800067 0.0 0.0 0.0 0.0 0.33400768 0.13287498 0.0 0.0 0.0 
0.90884095 0.0 0.0 0.0 0.0 0.0 0.6880071 0.0 0.0 0.0 0.0 1.0717868 0.0 0.0 0.0 0.0 
0.31388587 0.0 0.0 0.0 0.0 0.0 0.0 0.0 0.97762954 0.0 0.0 0.2996551 0.0 0.0 0.0 0.0 
0.0 0.0 2.0281835 0.0 0.0 0.0 0.0 0.0 0.0 0.0 0.0 0.0 0.0 0.0 0.0 0.8061113 
0.0 0.0 0.640154 0.0 0.0 0.0 1.1326113 0.0 0.0 0.0 0.0 0.0 0.5651707 0.0 0.17218049 0.0 
0.0 0.0 0.0 0.0 0.0 0.0 2.2696617 1.5947479 0.0 0.0 0.0 0.0 0.48609912 0.0 0.0 0.0 
0.0 0.0 0.0 0.0 0.0 0.0 0.0 0.22285499 2.7069917 0.0 0.0 0.0 0.29448706 0.0 0.0 0.0 
0.11449443 0.09381784 0.0 0.0 0.44584954 0.28942257 0.0 0.0 0.0 0.0 0.0 0.0 0.0 0.0 0.0 0.0 
0.0 0.7784241 0.75159794 0.0 0.086127274 0.0 0.0 0.0 0.0 0.0 0.0 0.0 0.0 0.0 0.0 1.0133724 
0.12787776 0.99850017 1.2997148 0.0 0.0 0.0 0.0 0.0 0.0 0.0 0.0 0.0 0.095969394 0.0 0.0 0.23846532 
0.98551697 0.2623906 0.0 0.0 0.0 0.0 1.3915521 0.016898587 0.0 0.0 0.0 0.0 0.0 0.0 0.0 0.0 
1.6233681 0.0 0.0 0.0 0.0 0.0 0.0 0.0 0.0 0.0 0.0 0.0 0.0 0.0 0.0 0.0 
0.5647331 0.0 0.0 0.0 0.0 0.0 0.0 0.0 0.0 0.0 0.0 0.0 0.0 0.0 0.0 0.0 
0.0 0.0 0.0 0.0 0.0 0.0 0.0 0.0 0.0 0.0 0.0 0.19593391 0.0 0.0 0.0 0.0 
0.0 0.0 0.0 0.0 0.0 0.0 1.9371636 1.9224973 0.0 0.0 0.0 0.0 0.0 0.0 0.0 0.0 
0.0 0.0 0.0 0.0 0.0 0.0 0.4583167 1.4605364 1.7590836 0.0 0.0 0.0 0.0 0.0 0.0 0.0 
0.0 0.0 0.0 0.0 0.0 0.0 0.0 0.0 3.4124615 0.0 0.17468163 0.0 0.0 0.0 0.0 0.0 
0.1886694 0.0 0.0 0.0 0.5126829 0.9733643 0.0 0.0 0.0 0.0 0.0 0.0 0.0 0.10296858 0.0 0.020708393 
0.26543298 0.0 0.057687055 0.0 0.0 1.0455923 0.0 0.0 0.0 0.0 0.0 0.0 0.0 0.38756087 0.0 0.53346765 
0.8030525 0.0 0.7383993 0.0 0.0 0.0 0.0 0.9330544 0.0 0.0 0.0 0.0 0.0 0.0 0.0 0.0 
1.832905 0.0 0.0 0.0 0.0 0.0 0.95359176 0.10639198 0.0 0.0 0.0 0.0 0.0 0.0 0.0 0.0 
2.132106 0.0 0.0 0.0 0.0 0.0 0.0 0.0 0.0 0.044083375 0.0 0.0 0.0 0.0 0.0 0.0 
1.0592877 0.0 0.0 0.0 0.0 0.0 0.0 0.0 0.0 0.0 0.0 0.0 0.2166606 0.0 0.0 0.0 
0.0 0.0 0.0 0.0 0.0 0.0 0.0 0.0 0.0 0.0 0.0 0.3614144 1.0656067 0.0 0.0 0.0 
0.0 0.0 0.0 0.0 0.0 0.0 1.3125339 1.3338706 0.0 0.0 0.0 0.0 0.52457064 0.0 0.0 0.0 
0.0 0.0 0.0 0.0 0.0 0.0 0.0 0.0 3.5734727 0.0 0.0 0.0 0.0 0.0 0.0 0.0 
0.0 0.0 0.0 0.0 0.0 0.19645429 0.0 0.0 1.6395001 0.0 0.09079634 0.0 0.0 0.0 0.0 0.686426 
0.0 0.0 0.0 0.0 0.113182046 0.6907381 0.0 0.0 0.0 0.06578341 1.0818337 0.0 0.0 0.0 0.0 0.1498753 
0.0 0.0 0.0 0.0 0.0 1.6115758 0.0 0.33522564 0.0 0.0 1.7009641 0.0 0.14691235 1.2829529 0.18363918 0.0 
0.0 0.0 0.0 0.0 0.0 0.0 1.6026354 0.56180227 0.0 0.0 2.5716572 0.0 0.21276022 2.7376037 0.0 0.0 
0.0 0.0 0.0 0.0 0.0 0.0 0.0 0.0 0.0 0.0 1.4090056 0.0 0.31769967 2.9888656 0.0 0.0 
0.0 0.0 0.0 0.0 0.0 0.0 0.0 0.0 0.0 0.0 0.0 0.0 1.015196 1.4173057 0.0 0.0 
0.0 0.0 0.0 0.0 0.0 0.0 0.0 0.0 0.0 0.0 0.0 0.0 2.0428243 0.17189613 0.0 0.0 
0.0 0.0 0.0 0.0 0.0 0.0 1.0290364 0.18511677 0.0 0.0 0.0 0.157044 1.6233801 0.0 0.0 0.0 
0.0 0.0 0.0 0.0 0.0 0.0 0.0 0.082858786 2.2954066 0.0 0.0 0.26765797 0.8270686 0.18493938 0.0 0.0 
0.0 0.0 0.0 0.0 0.0 0.0 0.0 0.0 2.9857516 0.0 0.39602038 0.0 0.0 0.03904867 0.0 0.0 
0.0 0.0 0.0 0.0 0.0 0.39687306 0.0 0.0 0.0 0.0 0.25864887 0.0 0.0 0.0 0.0 0.8004596 
0.0 0.17276286 0.0 0.0 0.0 0.0 0.0 0.0 0.0 0.0 1.3323603 0.1713779 0.047432564 0.0 0.0 0.0 
0.0 0.28362852 0.0 0.0 0.0 1.0664921 0.0 0.20487301 0.0 0.0 1.4100194 0.0 0.25639343 0.0 0.0100559145 0.0 
0.0 0.10692527 0.0 0.0 0.0 0.0 0.35371643 0.0 0.0 0.0 1.7264404 0.0 0.2686901 0.32499123 0.92093235 0.0 
0.0 0.09726479 0.0 0.0 0.0 0.0 0.0 0.0 0.0 0.0 1.4828923 0.0 0.0 0.0 2.3293257 0.0 
0.0 0.62217796 0.0 0.30895123 0.0 0.0 0.0 0.0 0.0 0.0 1.1144098 0.0 0.15908308 0.0 1.7645605 0.0 
0.0 0.38023248 0.0 2.790344 0.0 0.0 0.016642036 0.0 0.0 0.0 1.0791192 0.0 0.48524475 0.0 0.14461224 0.0 
0.0 0.0 0.0 3.1410806 0.0 0.0 1.4583187 0.0 0.0 0.0 0.4987603 0.0 0.0 0.0 0.0 0.0 
0.0 0.0 0.0 1.5131894 0.0 0.0 0.0 0.0 2.202176 0.0 0.2791867 0.0 0.0 0.0 0.0 0.0 
0.0 0.0 0.0 0.037149012 0.0 0.3157121 0.0 0.0 0.104519635 0.0 0.23875242 0.0 0.0 0.0 0.0 0.67164475 
0.0 0.0 0.0 0.0 0.0 0.0 0.0 0.0 0.0 0.0 0.04367826 0.0 0.0 0.0 0.0 0.6548136 
0.0 0.61729777 0.0 0.0 0.0 0.0 0.0 0.099465355 0.0 0.0 0.6553249 0.60370183 0.0 0.0 0.0 0.0 
0.0 1.4298878 0.0 0.95922107 0.0 0.16759026 0.0 0.0 0.0 0.0 0.10673058 0.0 0.0 0.0 0.0 0.0 
0.0 2.1907175 0.0 1.7814195 0.0 0.0 0.0 0.0 0.0 1.1373837 0.0 0.0 0.0 0.0 0.0 0.0 
0.0 2.0272667 0.0 1.0050967 0.0 0.0 0.0 0.0 0.47990665 2.2303722 0.0 0.0 0.0 0.0 0.67288095 0.0 
0.0 1.0113931 0.0 1.944605 0.0 0.0 0.0 0.0 0.0 2.136334 0.0 0.0 0.0 0.0 0.788978 0.9209106 
0.0 0.0 0.0 2.5733979 0.0 0.0 1.6596246 0.0 0.0 1.1466261 0.0 0.0 0.0 0.0 0.0 0.0 
0.0 0.0 0.0 1.1347917 0.0 0.0 0.0 0.0 0.0 0.23376441 0.0 0.0 0.0 0.0 0.0 0.0 
0.0 0.0 0.0 0.46454754 0.0 0.09169212 0.0 0.0 1.3899896 0.0 0.0 0.0 0.0 0.0 0.0 0.0 
0.0 0.0 0.0 0.0 0.0 0.578765 0.0 0.0 0.0 0.0 0.09224686 0.0 0.0 0.0 0.0 0.2686468 
0.0 0.0 0.0 0.1889838 0.0 0.0 0.0 0.0 0.0 0.0 0.0 0.0 0.0 0.0 0.0 0.39956325 
0.36285892 0.35796177 0.0 0.33840606 0.0 0.0 0.14776978 0.18406487 0.0 0.29022852 0.21195523 0.06808549 0.0 0.0 0.0 0.0 
0.60049164 0.5488265 0.0 0.9478425 0.0 0.13970013 0.51623255 0.0 0.0 1.1726705 0.044081524 0.0 0.0 0.0 0.0 0.0 
0.0 0.5208852 0.0 0.0 0.39558196 0.21654612 0.0 0.0 0.0 2.4580307 0.0 0.0 0.0 0.0 0.0 0.0 
0.0 0.0 0.0 0.0 0.050964437 0.40991092 0.0 0.0 0.0 2.4133482 0.0 0.0 0.0 0.0 0.0 1.2775762 
0.0 0.0 0.0 0.0 0.0 0.0 0.8022194 0.0 0.0 1.2778429 0.0 0.0 0.0 0.0 0.0 0.0 
0.0 0.0 0.0 0.0 0.0 0.0 3.2111416 0.0 0.0 0.0 0.0 0.0 0.0 0.0 0.0 0.0 
0.0 0.0 0.0 0.0 0.0 0.0 0.0 0.0 1.9519093 0.0 0.0 0.0 0.089759246 0.0 0.0 0.0 
0.0 0.0 0.0 0.0 0.0 0.48938978 0.0 0.0 0.9874227 0.0 0.0 0.0 0.0 0.0 0.0 0.013109983 
0.0 0.0 0.0 0.0 0.0 0.0 0.0 0.0 0.0 0.0 0.0 0.0 0.092547536 0.0 0.0 0.20344564 
0.0 0.03949954 0.0 0.2289764 0.0 0.0 0.0 0.0 0.0 0.0 0.0 0.0 0.0 0.0 0.0 0.039689492 
0.112900704 0.09209009 0.0 0.20265707 0.0 0.0 0.1413082 0.0 0.0 0.114859015 0.051481403 0.0 0.0 0.0 0.0 0.0 
0.02406248 0.0 0.0 0.0 0.014571629 0.0 0.0 0.0 0.16829328 0.44388124 0.4013371 0.0 0.0 0.0 0.0 0.0 
0.0 0.0 0.0 0.0 0.4695409 0.6199787 0.0 0.0 0.0 0.61190903 0.90335876 0.0 0.0 0.0 0.0 0.27536765 
0.0 0.0 0.1776065 0.0 0.0 1.7167087 0.0 0.0 0.0 0.0 0.8790418 0.0 0.0 0.4113101 0.0 0.0 
0.0 0.0 0.48080385 0.0 0.0 0.0 2.1910832 1.0835795 0.0 0.0 0.85935235 0.0 0.0 1.0415941 0.0 0.0 
0.0 0.0 0.0 0.0 0.0 0.0 1.9789311 0.0 0.4971924 0.0 0.5084037 0.0 0.17300636 0.77797735 0.0 0.0 
0.0 0.0 0.0 0.0 0.0 0.0 0.0 0.0 3.1955647 0.0 0.35685527 0.0 0.0 0.04024765 0.0 0.0 
0.0 0.0 0.0 0.0 0.0 0.059229 0.0 0.0 0.117370546 0.0 0.1813766 0.11168264 0.348154 0.004479505 0.0 0.17169097 
0.0 0.0 0.0 0.0 0.0 0.0 0.0 0.0 0.0 0.0 0.0 0.07639085 0.1915823 0.0 0.0 0.24393164 
0.0 0.0070844255 0.0 0.08025544 0.0 0.0 0.0 0.0 0.0 0.0 0.0 0.0 0.0 0.0 0.0 0.0 

