0.0 0.012102079 0.0 0.054740157 0.0 0.0 0.0 0.0 0.0 0.0 0.0 0.0 0.0 0.0 0.0 0.0 
0.0 0.04975744 0.0 0.15136363 0.0 0.0 0.0 0.0 0.0 0.0 0.0 0.0 0.0 0.0 0.0 0.0 
0.0 0.0 0.0 0.0 0.0 0.0 0.0 0.0 0.40997466 0.0 0.14277308 0.0 0.0 0.0 0.0 0.0 
0.0 0.0 0.0 0.0 0.0 0.8018322 0.0 0.0 0.0 0.0 0.35728002 0.0 0.0 0.41032952 0.0 0.0 
0.0 0.0 0.35283786 0.0 0.0 1.9394691 0.0 0.0 0.0 0.0 0.0 0.0 0.0 2.5319269 0.1692063 0.0 
0.38276768 0.0 1.6358236 0.0 0.0 0.0 0.0 0.0 0.0 0.0 0.0 0.0 0.0 3.1532364 0.24502183 0.0 
1.1748942 0.0 0.0 0.0 0.0 0.0 0.452841 0.0 0.0 0.0 0.0 0.0 0.46818078 0.74733424 0.0 0.0 
1.0385988 0.0 0.0 0.0 0.0 0.0 0.0 0.0 0.0 0.0 0.0 2.256502 0.87510765 0.0 0.0 0.0 
1.206751 0.0 0.0 0.0 0.0 0.0 0.0 0.0 0.0 0.0 0.0 2.7739205 1.1906153 0.0 0.0 0.0 
0.6911023 0.0 0.72018784 0.0 0.0 0.26451674 0.0 0.0 0.0 0.0 0.0 0.0 0.0071411952 0.20513287 0.0 0.0 
0.0 0.0004018054 0.0 0.0 0.0 0.0 0.09093776 0.0 0.0 0.0 0.0 0.0 0.0 0.0 0.0 0.0 
0.0 0.25462985 0.0 0.01614974 0.06349922 0.0 0.0 0.0 0.0 0.0 0.0 0.0 0.0 0.0 0.0 0.0 
0.0 0.9440533 0.0 0.0 0.0 0.0 0.0 0.0 0.21841174 0.0 0.0 0.0 0.0 0.0 0.0 0.0 
0.0 2.1469834 0.0 0.0 0.0 0.0 0.0 0.0 0.0 0.0 0.0 0.31935722 0.0 0.0 0.0 0.0 
0.0 2.591611 0.09353362 0.0 0.0 0.15173385 0.0 0.0 0.0 0.0 0.0 0.0 0.0 0.0 1.6623255 0.0 
0.0 1.13519 1.2084851 0.0 0.0 0.0 0.0 0.0 0.0 0.0 0.0 0.0 0.0 0.071667545 3.1586244 0.0 
0.3685716 0.0 0.0 0.0 0.0 0.0 0.79124343 0.0 0.0 0.0 0.0 0.0 0.0 0.986856 1.2765899 0.0 
0.0 0.0 0.0 0.0 0.0 0.0 0.0 0.0 0.0 0.0 0.0 0.0 0.0 0.09746639 0.0 0.0 
0.0 0.0 0.0 0.0 0.0 0.0 0.0 0.0 0.0 0.0 0.0 2.718697 1.1383476 0.0 0.0 0.0 
0.32535157 0.0 1.0867429 0.0 0.0 0.0 0.0 0.0 0.0 0.0 0.0 1.4803865 1.0685415 0.0 0.0 0.0 
0.15215907 0.1241212 0.0 0.0 0.0 0.2679742 0.022738202 0.0 0.0 0.0 0.0 0.0 0.0 0.064230494 0.0 0.0 
0.77753025 0.649208 0.0 0.0 0.0 0.32690382 0.0 0.0 0.0 0.0 0.0 0.0 0.0 0.28255895 0.0 0.0 
1.4343742 1.6378765 0.0 0.0 0.0 0.0 0.0 0.0 0.0 0.0 0.0 0.0 0.0 0.0 0.0 0.63570005 
2.308642 2.767656 0.0 0.0 0.0 0.0 0.0 0.0 0.0 1.0537231 0.0 0.0 0.0 0.0 0.0 0.29488268 
1.3242321 1.7283366 0.0 0.0 0.0 0.0 0.0 0.0 0.0 2.5522723 0.0 0.0 0.0 0.0 0.0 0.0 
0.0 0.0 0.0 0.0 0.0 0.0 0.0 0.0 0.0 2.254695 0.0 0.0 0.0 0.0 1.6575259 0.0 
0.0 0.0 0.0 0.0 0.0 0.0 0.18629771 0.0 0.0 0.45484528 0.0 0.0 0.31055236 0.0 2.3579664 0.0 
0.0 0.0 0.0 0.0 0.0 0.0 0.0 0.0 0.0 0.0 0.0 0.0 0.0 0.0 0.11809538 0.0 
0.0 0.0 0.0 0.0 0.0 0.0 0.0 0.0 1.5841446 0.0 0.50735134 0.0 0.0 0.30654857 0.0 0.0 
0.0 0.0 0.0 0.0 0.0 0.0 0.0 0.0 0.0 0.0 0.22118929 1.3089298 0.6477854 0.0 0.0 0.0 
0.44977668 0.0 0.0 0.0 0.0 0.35741967 0.0 0.0 0.0 0.0 0.22087538 0.0 0.0 0.24639425 0.0 0.0 
1.0036657 0.0 0.0 0.0 0.0 1.3512068 0.0 0.0 0.0 0.17486659 0.01829484 0.0 0.0 1.2279218 0.10045387 0.28209108 
1.3599622 0.0 0.0 0.0 0.0 0.0 0.0 0.0 0.0 0.82074183 0.28531757 0.0 0.0 1.5478691 0.0 1.1680617 
1.2374532 0.0 0.0 0.0 0.0 0.0 0.0 0.0 0.0 0.94933313 0.0 0.0 0.0 1.0237803 0.0 0.0 
0.52107054 0.0 0.0 0.0 0.0 0.0 0.0 0.0 0.0 0.34737444 0.0 0.0 0.0 0.0 0.0 0.0 
0.0 0.0 0.7961904 0.0 0.0 0.0 0.0 0.19340335 0.0 0.0 0.0 0.0 1.8239125 0.0 0.0 0.0 
0.0 0.0 0.0 0.0 0.0 0.0 0.72691983 0.0 0.0 0.0 0.0 0.0 2.0997715 0.0 0.0 0.0 
0.0 0.0 0.0 0.0 0.0 0.0 0.0 0.0 2.7128966 0.0 0.0 0.0 1.5977222 0.0 0.0 0.0 
0.0 0.0 0.0 1.4015052 0.0 0.15403819 0.0 0.0 1.934958 0.0 1.4147606 0.0 0.0 0.79058504 0.0 0.76573265 
0.0 0.0 0.0 1.5441412 0.0 0.15025207 0.0 0.0 0.0 0.0 1.0966998 0.17069972 0.0 0.13216904 0.0 0.5484728 
0.0 0.0 0.0 0.0 0.0 0.0 0.0 0.0 0.240284 0.041323017 0.75521314 0.0 0.1243877 0.0 0.049546912 0.0 
0.0 0.0 0.0 0.0 0.0 0.8507198 0.0 0.0 0.0 0.0 1.3712169 0.0 0.5875169 0.16781425 0.7670707 0.0 
0.0 0.0 0.0 0.0 0.0 0.56555706 0.0 0.0 0.0 0.0 1.92413 0.0 1.1774487 1.3228676 0.757037 0.0 
0.0 0.0 0.0 0.0 0.0 0.0 0.0 0.0 0.0 0.0 3.338794 0.0 1.4335843 1.6400739 0.0 0.0 
0.0 0.0 0.0 0.0 0.0 0.0 0.0 0.12858264 0.0 0.0 1.1677215 0.0 0.56145805 1.9696807 0.0 0.0 
0.0 0.0 0.0 0.2118004 0.0 0.0 0.0 0.7221354 0.0 0.0 0.0 0.0 0.37638915 0.0 0.0 0.0 
0.0 0.0 0.0 0.43095803 0.0 0.0 1.6326765 0.0 1.2248893 0.0 0.0 0.2171795 0.40217978 0.0 0.0 0.0 
0.0 0.0 0.0 0.0 0.0 0.0 0.0 0.0 1.9195861 0.0 0.0 2.29408 0.46516812 0.0 0.0 0.0 
0.0 0.0 0.0 0.0 0.0 0.72545487 0.0 0.0 0.0 0.0 0.0 0.0 0.0 0.0 0.0 0.35326523 
0.0 0.0 0.0 0.5888961 0.011614092 0.700793 0.0 0.0 0.0 0.0 0.029866936 0.0 0.0 0.0 0.0 0.2736237 
0.0 0.29429996 0.0 0.0 0.0 0.0 0.0 0.0 0.13312589 0.0 0.09308357 0.22548276 0.0 0.0 0.0 0.0 
0.0 1.0506924 0.0 0.0 0.0 0.13699698 0.0 0.0 0.0 0.0 0.49210063 0.5202098 0.17712462 0.0 0.0 0.0 
0.0 1.8724713 0.0 0.18694137 0.0 0.46367437 0.0 0.0 0.0 0.0 0.9364655 0.0 0.0 0.0 0.0 0.0 
0.0 2.8977032 0.0 2.034537 0.0 0.049744576 0.0 0.0 0.0 0.0 1.8437608 0.0 0.0 0.0 0.0 0.0 
0.0 3.0059004 0.0 3.8729715 0.0 0.9513095 0.0 0.0 0.0 0.0 0.8054996 0.0 0.0 0.0 1.6445265 0.0 
0.0 0.9659203 0.0 3.915189 0.0 0.0 0.24950676 0.0 0.0 0.0 0.0 0.0 0.0 0.0 0.84381783 0.61242026 
0.0 0.0 0.0 1.1689609 0.0 0.0 2.1777525 0.0 0.0 0.0 0.0 0.0 0.0 0.0 0.0 0.0 
0.0 0.0 0.0 0.0 0.0 0.0 0.0 0.0 0.0 0.0 0.0 1.8335702 0.0 0.0 0.0 0.0 
0.0 0.0 0.0 0.0 0.0 0.34380582 0.0 0.0 0.0 0.0 0.0 1.0353725 0.40798122 0.0 0.0 0.0 
0.0 0.0 0.529964 0.0 0.0 0.3381736 0.0 0.0 0.0 0.0 0.0 0.0 0.0 0.0 0.0 0.0 
0.27148077 1.4661719 0.0 0.0 0.0 0.0 0.0 0.0 0.0 0.0 0.0 0.37388593 0.0 0.0 0.0 0.0 
0.7728784 2.7939994 0.0 0.6873387 0.0 0.0 0.0 0.0 0.0 0.0 0.0 0.95741403 0.0 0.0 0.0 0.0 
0.6106606 3.6750052 0.0 1.720549 0.0 0.0 0.0 0.0 0.0 1.702547 0.0 0.5726501 0.0 0.0 0.0 0.0 
0.0 3.895224 0.0 1.3112992 1.2747602 0.0 0.0 0.0 0.0 3.7634428 0.0 0.0 0.0 0.0 0.0 0.0 
0.0 2.3522289 0.0 0.0 0.63896155 0.3656196 0.0 0.0 0.0 4.0812798 0.0 0.0 0.0 0.0 0.15126203 0.8773358 
0.0 0.0 0.0 0.0 0.0 0.0 0.29036602 0.0 0.0 1.3573025 0.0 0.0 0.0 0.0 2.3632843 0.0 
0.0 0.0 0.0 0.0 0.0 0.0 1.6400467 0.0 0.0 0.0 0.0 0.0 0.0 0.0 0.46369827 0.0 
0.0 0.0 0.0 0.0 0.0 0.0 0.0 0.0 0.4538143 0.0 0.0 0.0 0.0 0.0 0.0 0.0 
0.0 0.0 0.0 0.0 0.0 0.0 0.0 0.0 0.08369063 0.0 0.0 1.9484001 0.60121965 0.0 0.0 0.0 
0.0 0.0 0.7939732 0.0 0.0 0.0 0.0 0.0 0.0 0.0 0.0 0.47586355 0.39376146 0.0 0.0 0.0 
1.9872518 2.2534244 0.0 0.0 0.0 0.0 0.0 0.0220114 0.0 0.0 0.0 0.0 0.0 0.0 0.0 0.17960054 
3.2417634 2.4853394 0.0 0.0 0.0 0.0 0.0 0.0 0.0 1.1587439 0.0 0.0 0.0 0.0 0.0 0.0 
3.7286763 1.3886433 0.0 0.0 0.0 0.0 0.0 0.0 0.0 2.943083 0.0 0.0 0.0 0.0 0.0 0.0 
2.5779605 0.0 0.0 0.0 0.0 0.0 0.0 0.0 0.0 3.7679594 0.0 0.0 0.0 0.0 0.0 0.09266049 
0.75005937 0.0 0.0 0.0 0.0 0.0 0.0 0.0 0.0 2.4142725 0.0 0.0 0.0 0.0 0.0 0.0 
0.0 0.0 0.92838037 0.0 0.0 0.0 0.39565513 0.11463365 0.0 0.009336814 0.0 0.0 0.61714584 0.0 0.43017495 0.0 
0.0 0.0 0.0 0.0 0.0 0.0 1.3276306 0.0 0.0 0.0 0.0 0.0 1.2585185 0.0 0.034620166 0.0 
0.0 0.0 0.0 0.0 0.0 0.0 0.0 0.0 3.4753041 0.0 0.0 0.0 0.69755554 0.0 0.0 0.0 
0.0 0.0 0.0 0.0 0.0 0.0 0.0 0.0 0.88237727 0.0 0.0 0.9479958 0.9203734 0.0 0.0 0.0 
0.0 0.0 0.0 0.0 0.0 0.0 0.0 0.0 0.0 0.0 0.0 0.69518363 0.5576937 0.0 0.0 0.0 
1.9217888 0.0 0.0 0.0 0.0 0.0 0.0 0.0 0.0 0.46413606 0.5806825 0.0 0.0 2.590476 0.0 0.32126427 
2.0833635 0.0 0.0 0.0 0.0 0.0 0.0 0.0 0.0 0.85512364 0.32144153 0.0 0.134179 2.5817153 0.0 0.0 
1.4804715 0.0 0.0 0.0 0.0 0.0 0.0 0.0 0.0 0.63379544 0.0 0.0 1.053125 1.784511 0.0 0.0 
0.2132483 0.0 0.0 0.0 0.0 0.0 0.0 0.0 0.0 0.0 0.065008916 0.0 2.1025496 0.5682383 0.0 0.0 
0.0 0.0 0.0 0.0 0.0 0.0 0.0 0.7602864 0.0 0.0 0.021838492 0.0 2.5533571 0.6796902 0.0 0.0 
0.0 0.0 0.17295203 0.0 0.0 0.0 0.0 1.6163512 0.0 0.0 0.0 0.0 2.3345559 0.75636816 0.0 0.0 
0.0 0.0 0.0 0.0 0.0 0.0 0.0 0.0 2.9436536 0.0 0.82323796 0.0 1.5496159 0.7488139 0.0 0.0 
0.0 0.0 0.0 0.0 0.0 0.0 0.0 0.0 3.8383865 0.0 1.2448094 0.0 0.04838088 0.49843523 0.0 0.13695535 
0.0 0.0 0.0 0.058794677 0.0 0.0 0.0 0.0 0.00730649 0.0 0.82537335 0.35144413 0.38003546 0.21993133 0.0 0.962281 
0.0 0.0 0.0 0.5096845 0.0 0.0 0.0 0.0 0.0 0.0 0.11872804 0.52267456 0.21060802 0.0 0.0 0.34027436 
0.0 0.0 0.0 0.0 0.0 0.0 0.0 0.0 0.0 0.0 2.4381008 0.0 1.629606 2.2819898 1.1213266 0.0 
0.0 0.0 0.0 0.0 0.0 0.0 0.0 0.0 0.0 0.0 3.6011322 0.0 2.521512 2.3287692 0.8725342 0.0 
0.0 0.0 0.0 0.0 0.0 0.0 0.0 0.0 0.0 0.0 4.2724485 0.0 2.9286902 1.6856081 0.07909912 0.0 
0.0 0.0 0.0 0.0 0.0 0.0 0.0 0.40084046 0.0 0.0 4.5570436 0.0 2.2087042 0.98139703 0.0 0.0 
0.0 0.0 0.0 2.2677054 0.0 0.0 0.0 0.69809675 0.0 0.0 3.6115468 0.0 1.2108303 0.36240867 0.0 0.0 
0.0 0.08845609 0.0 4.4305634 0.0 0.0 0.0 0.0 1.5708995 0.0 2.5142965 0.0 0.10631314 0.53256404 0.0 0.0 
0.0 0.0 0.0 3.3751442 0.0 0.0 0.0 0.0 2.6059728 0.0 1.8704388 0.0 0.0 0.1023146 0.18876712 0.23302616 
0.0 0.0 0.0 1.4746002 0.0 0.0 0.0 0.0 0.8018197 0.0 1.2856728 0.0 0.0 0.0 0.18165345 2.8471355 
0.0 0.100283735 0.0 1.0561576 0.3481413 0.09126462 0.0 0.0 0.0 0.0 0.6829234 0.0 0.0 0.0 0.0 1.7383162 
0.0 0.066932626 0.0 0.62955904 0.0 0.0 0.0 0.0 0.0 0.0 0.0 0.04121822 0.0 0.0 0.0 0.3757551 

