0.0 0.0 0.0 0.0 0.061121427 0.017781429 0.26071277 0.0 0.0 0.0 0.0 0.0 0.0 0.0 0.0 0.0 
0.37640816 0.21057595 0.14755128 0.0 0.5127244 0.12652329 0.0 0.0 0.0 0.0 0.0 0.0 0.0 0.12882051 0.0 0.0 
0.9110496 0.7944061 1.4369824 0.0 0.0 0.0 0.0 0.0 0.0 0.1045385 0.0 0.0 0.0 0.010995112 0.0 1.3612734 
1.3481057 1.3232388 1.5316067 0.0 0.0 0.0 0.0 0.0 0.0 0.5824986 0.0 0.0 0.0 0.0 0.0 1.9782577 
1.577913 0.31374845 0.0 0.0 0.0 0.0 2.1101086 0.0 0.0 0.27090454 0.0 0.9411999 0.0 0.0 0.0 0.0 
1.7188284 0.0 0.0 0.0 0.8625122 0.0 0.0 0.0 0.0 0.0 0.0 1.4748164 0.0 0.0 0.0 0.0 
1.5655881 0.0 1.7723916 0.0 0.0 0.0 0.0 0.0 0.0 0.0 0.0 0.0 0.0 0.0 0.0 0.0 
0.92279726 0.0 1.2568667 0.0 0.0 0.0 0.0 0.0 0.0 0.47840625 0.0 0.0 0.0 0.0 0.0 0.1093414 
0.8511336 0.2371894 0.0 0.0 0.90011936 0.0 0.99278504 0.0 0.0 0.47765726 0.0 2.1796296 0.2350925 0.0 0.0 0.0 
0.7590685 0.0 0.0 0.0 0.72159076 0.08421905 0.0 0.0 0.0 0.14950603 0.0 0.54453576 0.0 0.0 0.0 0.0 
0.15487605 0.0 0.0 0.0 0.457187 0.049306303 0.0 0.0 0.0 0.0 0.0 0.0 0.0 0.0 0.0 0.0 
0.4539698 0.37947667 0.69272774 0.0 0.48099315 0.032841966 0.0 0.0 0.0 0.26235127 0.0 0.0 0.0 0.0 0.1848302 0.8703168 
0.31293717 0.20295091 2.2819955 0.0 0.0 0.0 0.0 0.0 0.0 0.8860849 0.0 0.0 0.0 0.0 1.0993179 2.640179 
0.99064726 0.0 1.1993752 0.0 0.0 0.0 1.454761 0.0 0.0 0.11297597 0.0 0.0 0.419872 0.0 0.3746891 0.4688221 
1.7100811 0.0 0.0 0.0 0.0 0.0 2.4388962 0.0 0.0 0.0 0.0 0.0 0.0 0.0 0.0 0.0 
1.450904 0.0 0.0 0.0 0.0 0.0 0.0 0.0 0.793191 0.0 0.0 0.0 0.0 0.51342094 0.0 0.0 
1.6440783 0.0 3.5068038 0.0 0.0 0.0 0.0 0.0 0.0 0.0 0.0 0.0 0.30507028 0.0 0.0 0.0 
1.588189 0.0 0.9633881 0.0 0.0 0.0 1.9803332 0.0 0.0 0.0 0.0 0.0 0.75364995 0.0 0.0 0.0 
0.9664387 0.0 0.0 0.0 0.0 0.0 0.6698407 0.0 0.0 0.0 0.0 1.7952316 0.6231882 0.0 0.0 0.0 
0.94731086 0.0 0.0 0.0 0.0 0.0 0.0 0.0 0.34918013 0.0 0.0 1.2402906 0.6090598 0.0 0.0 0.0 
0.31678 0.19686463 0.0 0.0 0.79201555 0.0 0.0 0.0 0.0 0.0 0.0 0.0 0.0 0.0 0.0 0.0 
0.0 0.34393957 1.4285488 0.0 0.48655623 0.0 0.0 0.0 0.0 0.73753035 0.0 0.0 0.0 0.0 0.72133297 2.138996 
0.0 0.0 2.1979346 0.0 0.0 0.0 0.0 0.0 0.0 0.3792492 0.0 0.0 0.22857912 0.0 1.3210751 1.3617318 
0.0 0.0 0.0 0.0 0.0 0.0 3.186849 0.0 0.0 0.0 0.0 0.0 1.0446299 0.0 0.6810401 0.0 
0.25661945 0.0 0.0 0.0 0.0 0.0 0.21458186 0.0 0.0 0.0 0.0 0.0 0.0 0.0 0.0 0.0 
0.0 0.0 0.0 0.0 0.0 0.0 0.0 0.0 3.2877157 0.0 0.0 0.0 0.0 0.0 0.0 0.0 
0.0 0.0 3.2058175 0.0 0.0 0.0 0.0 0.0 0.0 0.0 0.0 0.0 1.3604017 0.0 0.8145151 0.0 
0.0 0.0 0.0 0.0 0.0 0.0 3.8745737 0.0 0.0 0.0 0.0 0.0 1.7546914 0.0 0.0 0.0 
0.40420592 0.0 0.0 0.0 0.0 0.0 0.0 0.26286417 0.74827987 0.0 0.0 0.655529 0.71933 0.07742276 0.0 0.0 
0.22049265 0.0 0.0 0.0 0.0 0.0 0.0 0.0 1.7869192 0.0 0.0 1.256079 0.36933297 0.048781328 0.0 0.0 
0.30761105 0.42948705 0.0 0.0 1.0065206 0.0 0.0 0.0 0.0 0.24750337 0.0 0.0 0.0 0.0 0.16993971 0.7532514 
0.0 0.0 1.4535102 0.0 0.0 0.0 0.0 0.0 0.0 0.45706457 0.0 0.0 0.0 0.0 0.08574942 2.4678802 
0.0 0.0 0.56159514 0.0 0.0 0.0 0.9359287 0.12877047 0.0 0.0 0.0 0.0 0.57457197 0.0 0.0 0.0 
0.0 0.0 0.0 0.0 0.0 0.0 3.1436982 0.75597614 0.0 0.0 0.0 0.0 0.21278118 0.0 0.0 0.0 
0.0 0.0 0.0 0.0 0.0 0.0 0.0 0.0 4.2583804 0.0 0.0 0.0 0.0 0.0 0.0 0.0 
0.0 0.0 0.3859495 0.0 0.0 0.0 0.0 0.0 2.369885 0.0 0.0 0.0 0.0 0.0 0.18046777 1.7394357 
0.0 0.0 1.944575 0.0 0.0 0.0 0.0 0.0 0.0 0.0 0.0 0.0 0.7553875 0.0 0.4890344 0.0 
0.0 0.0 0.0 0.0 0.0 0.0 3.8132937 0.35041982 0.0 0.0 0.0 0.17452335 0.8720507 0.0 0.0 0.0 
0.0 0.0 0.0 0.0 0.0 0.0 0.0 0.0 3.8552778 0.0 0.0 0.0 0.049607106 0.0 0.0 0.0 
0.0 0.0 0.0 0.039567832 0.0 0.09025912 0.0 0.0 1.5614344 0.0 0.53924996 0.084516704 0.0 0.32523936 0.0 0.0 
0.0 0.0 0.0 0.0 0.7217662 0.5325368 0.0 0.0 0.0 0.031049509 0.0 0.0 0.0 0.0 0.0 0.6456176 
0.0 0.0 0.7164595 0.0 0.0 0.0 0.0 0.627458 0.0 0.0 0.0 0.0 0.0 0.0 0.0 0.0 
0.0 0.0 0.0 0.0 0.0 0.0 2.4857996 1.75261 0.0 0.0 0.0 0.0 0.0 0.0 0.0 0.0 
0.0 0.0 0.0 0.0 0.0 0.0 0.7116797 0.0 0.9730083 0.0 0.0 0.0 0.0 0.0 0.0 0.0 
0.0 0.0 0.0 0.0 0.0 0.0 0.0 0.0 3.3203194 0.0 0.0 0.0 0.0 0.0 0.0 0.0 
0.0 0.0 0.0 0.0 0.0 0.07496929 0.0 0.0 0.0 0.0 0.0 0.0 0.0 0.0 0.0 0.99871063 
0.0 0.0 0.0 0.0 0.0 0.0 1.3534691 0.5401243 0.0 0.0 0.0 0.0 0.0 0.0 0.0 0.0 
0.0 0.0 0.0 0.0 0.0 0.0 1.1874778 1.0899196 0.0 0.0 0.0 0.0 0.0 0.0 0.0 0.0 
0.0 0.0 0.0 0.0 0.0 0.0 0.0 0.0 2.4690368 0.0 0.0 0.02284468 0.0 0.0 0.0 0.0 
0.0 0.0 0.0 0.0 0.0 0.7800236 0.0 0.0 0.0 0.0 0.0 0.0 0.0 0.0 0.0 0.0 
0.0 0.0 0.0 0.0 0.0 2.5893066 0.0 0.0 0.0 0.0 0.56560504 0.0 0.0 0.22116074 0.0 0.0 
0.0 0.0 0.0773323 0.0 0.0 0.77144456 0.0 1.4889475 0.0 0.0 0.0 0.0 0.0 0.8963009 0.0 0.0 
0.26823142 0.0 0.0 0.0 0.0 0.0 1.8997387 1.7373474 0.0 0.0 0.0 0.0 0.0 0.25750646 0.0 0.0 
0.43183732 0.0 0.0 0.0 0.0 0.0 0.0 0.0 0.54723877 0.0 0.0 0.0 0.0 0.0 0.0 0.0 
0.5619746 0.0 0.0 0.0 0.0 0.0 0.0 0.0 0.0 0.0 0.0 0.0 0.0 0.0 0.0 1.8364282 
0.67935723 0.0 0.0 0.0 0.0 0.46860605 0.0 0.0 0.0 0.0 0.0 0.0 0.0 0.0 0.0 0.0 
1.257678 0.0 0.0 0.0 0.0 0.0 1.8062086 2.088968 0.0 0.0 0.0 0.0 0.0 0.0 0.0 0.0 
1.2506752 0.0 0.0 0.0 0.0 0.0 0.0 0.13924582 0.48833278 0.0 0.0 0.0 0.0 0.0 0.0 0.0 
0.5736056 0.0 0.0 0.0 0.0 0.0 0.0 0.0 0.48870125 0.0 0.0 0.0 0.0025403872 0.0 0.0 0.0 
0.0 0.0 0.0 0.0 0.0 0.0 0.0 0.0 0.0 0.0 0.0 0.19811937 0.667487 0.0 0.0 0.0 
0.0 0.0 0.0 0.0 0.0 2.317388 0.0 0.33175594 0.0 0.0 1.7149649 0.0 0.0 0.0 0.0 0.0 
0.0 0.0 0.0 0.0 0.0 2.0779283 0.93255806 0.92752194 0.0 0.0 2.2141123 0.0 0.0 2.2912817 0.0 0.0 
0.0 0.0 0.0 0.0 0.0 0.0 1.2305105 0.0 0.0 0.0 2.880099 0.0 0.0 3.3338604 0.0 0.0 
0.0 0.0 0.0 0.0 0.0 0.0 0.0 0.0 0.0 0.0 1.1517097 0.0 0.0 1.2668902 0.0 0.7189983 
0.0 0.0 0.0 0.0 0.0 0.0 0.0 0.0 0.0 0.0 0.6090257 0.0 0.7167786 0.0 0.0 0.0 
0.0 0.0 0.0 0.0 0.0 0.0 0.0 0.0 0.0 0.0 0.0 0.0 2.399033 0.45273075 0.0 0.0 
0.0 0.0 0.0 0.0 0.0 0.0 1.4890269 1.015885 0.0 0.0 0.0 0.0 2.1013439 2.4464936 0.0 0.0 
0.0 0.0 0.0 0.0 0.0 0.0 0.0 0.0 1.9515213 0.0 1.0757143 0.0 0.45913297 2.6685658 0.0 0.0 
0.0 0.0 0.0 0.0 0.0 0.0 0.0 0.0 0.7119563 0.0 0.9898058 0.0 0.7737297 1.5990989 0.0 0.0 
0.0 0.0 0.0 0.0 0.0 0.0 0.0 0.0 0.0 0.0 0.1011143 0.75169873 1.3432254 0.37121603 0.0 0.0 
0.0 0.83835125 0.0 0.0 0.0 0.72388506 0.0 0.0 0.0 0.0 0.723165 0.0 0.0 0.0 0.0 0.0 
0.0 0.54393506 0.0 0.0 0.0 0.8385066 0.54354155 0.0 0.0 0.0 0.8576456 0.0 0.0 0.0 0.48660588 0.0 
0.0 0.0 0.0 0.0 0.0 0.0 0.0 0.0 0.0 0.0 1.509169 0.0 0.0 0.50908834 1.6192956 0.0 
0.0 0.0 0.0 0.0 0.0 0.0 0.0 0.0 0.0 0.0 1.5546653 0.0 0.0 0.0 1.3010304 0.0 
0.0 0.24795605 0.0 0.0 0.0 0.0 0.0 0.0 0.0 0.0 1.5555645 0.0 1.3669724 0.0 0.0 0.0 
0.0 0.0 0.0 0.47251928 0.0 0.0 1.1984956 0.34760666 0.0 0.0 0.62040555 0.12352529 2.2904723 0.0 0.0 0.0 
0.0 0.0 0.0 1.239347 0.0 0.0 0.0 0.0 1.070334 0.0 0.56267136 0.0 1.6216296 0.0 0.23921157 0.0 
0.0 0.0 0.0 2.0571947 0.0 0.0 0.0 0.0 1.8655119 0.0 1.8163805 0.0 0.0 0.91697687 0.5361263 0.0 
0.0 0.0 0.0 2.4247873 0.0 0.0 0.0 0.0 0.20852384 0.0 1.8036499 0.0 0.0 0.69534034 0.0 0.6972864 
0.0 0.51031214 0.0 2.349436 0.0 0.0 0.0 0.0 0.0 0.0 1.2514597 0.332081 0.28405613 0.021395706 0.0 1.2269841 
0.0 0.7909968 0.0 0.17671719 0.0 0.0 0.0 0.0 0.0 0.0 0.074429214 0.071232155 0.0 0.0 0.0 0.0 
0.0 1.2183288 0.0 0.0 0.0 0.0 0.0 0.0 0.0 0.0 0.0 0.0 0.0 0.0 0.0 0.0 
0.0 1.1512226 0.0 0.0 0.0 0.50415224 0.0 0.0 0.0 0.21246506 0.0 0.0 0.0 0.0 0.805828 0.0 
0.0 1.065513 0.0 0.0 0.0 0.0 0.0 0.0 0.0 0.75780857 0.0 0.0 0.0 0.0 1.6390665 0.0 
0.0 0.09931124 0.0 2.7547512 0.0 0.0 0.0 0.0 0.0 0.75534576 0.0 0.0 0.0 0.0 0.0 0.0 
0.0 0.0 0.0 3.5470443 0.0 0.0 0.72894204 0.0 0.0 0.5489474 0.0 0.0 0.0 0.0 0.0 0.0 
0.0 0.0 0.0 2.5161781 0.0 0.0 0.0 0.0 1.2754939 0.52999306 0.0 0.0 0.0 0.0 0.0 0.0 
0.0 0.0 0.0 1.700112 0.0 0.30966043 0.0 0.0 0.03410058 0.28297782 0.0 0.0 0.0 0.0 0.0 0.0 
0.0 0.0 0.0 1.5674808 0.067741506 0.05618158 0.0 0.0 0.0 0.65206176 0.18597972 0.0 0.0 0.0 0.8454142 1.8428515 
0.0 0.0 0.0 1.3021348 0.38431835 0.041975826 0.0 0.0 0.0 0.39105934 0.20343417 0.0 0.0 0.0 0.51428676 1.4658566 
0.24618827 0.22566192 0.0 0.26687673 0.0 0.0 0.21652257 0.044229373 0.0 0.3062092 0.050384887 0.0015907809 0.0 0.0 0.0 0.0 
0.10301338 0.21476205 0.0 0.0 0.0 0.0 0.034054063 0.0 0.0 1.100964 0.3442071 0.0 0.0 0.0 0.0 0.0 
0.0 0.0 0.0 0.0 0.0 0.98452157 0.0 0.0 0.0 1.9187518 0.3550049 0.0 0.0 0.0 0.0 0.0 
0.0 0.0 0.0 0.0 0.0 1.9499736 0.0 0.0 0.0 2.054245 0.0 0.0 0.0 0.0 0.0 0.0 
0.0 0.0 0.0 1.4151107 0.0 0.0 2.9891026 0.09715867 0.0 1.5149776 0.2690733 0.0 0.0 0.0 0.0 0.0 
0.0 0.0 0.0 0.58498603 0.0 0.0 1.2573929 0.0 0.36352238 0.86468476 0.0 0.0 0.0 0.0 0.0 0.0 
0.0 0.0 0.0 0.0 0.0 0.0 0.0 0.0 2.1384668 0.0 0.0 0.0 0.0 0.0 0.0 0.0 
0.0 0.0 0.0 0.0 0.0 0.5682332 0.0 0.0 0.0 0.0 0.0 0.0 0.0 0.0 0.0 0.14576459 
0.0 0.0 0.0 0.0 0.09483706 0.38370526 0.0 0.0 0.0 0.0 0.0 0.0 0.0 0.0 0.0 0.92682105 
0.0 0.06665697 0.0 0.0 0.1343253 0.04398085 0.0 0.0 0.0 0.0 0.0 0.0 0.0 0.0 0.0 0.51269937 

