0.4627011 2.5806258 0.0 0.45264316 0.22189113 0.0 0.0 0.0 0.0 0.0 0.0 0.63947 0.0 0.0 0.0 0.1481638 
0.6705437 2.85021 0.0 0.5478708 0.6205214 0.0 0.0 0.0 0.0 0.0 0.0 0.521986 0.0 0.0 0.0 0.002283643 
0.7346413 2.8983707 0.0 0.48705152 0.6549436 0.0 0.0 0.0 0.0 0.0 0.0 0.23937067 0.0 0.0 0.0 0.0 
0.84767294 3.092006 0.0 0.34622252 0.83830553 0.0 0.0 0.0 0.0 0.0 0.0 0.32241482 0.0 0.0 0.0 0.0 
1.0827005 3.3498812 0.0 0.34089893 0.83407354 0.0 0.0 0.0 0.0 0.0 0.0 0.1028959 0.0 0.0 0.0 0.0 
1.1597066 3.4216743 0.0 0.5632813 0.7069851 0.0 0.0 0.0 0.0 0.17782867 0.0 0.0 0.0 0.0 0.0 0.0 
0.92192465 2.9300802 0.0 0.5836223 0.74050826 0.0 0.0 0.0 0.0 0.5763211 0.0 0.22361475 0.0 0.0 0.0 0.0 
0.53707504 1.3486245 0.0 0.32373384 1.4806674 0.0 0.0 0.0 0.0 0.91298324 0.0 1.1449301 0.0 0.0 0.0 0.0 
0.002736833 0.16172533 0.0 0.9817578 1.8828394 1.1031468 0.0 0.0 0.0 0.74674964 0.0 0.37459776 0.0 0.0 0.0 0.0 
0.0 0.0 0.0 0.85845953 0.9784341 0.92564553 0.0 0.0 0.0 0.08670679 0.45709634 0.0 0.0 0.89573056 0.0 0.0 
3.4076695 1.4488783 0.0 0.0 0.0 0.0 0.0 0.0 0.0 0.94681513 0.0 0.0 0.0 0.0 0.0 0.0 
4.1303806 0.34147948 0.0 0.0 0.0 0.0 0.0 0.021706834 0.0 1.257183 0.0 0.0 0.0 0.0 0.0 0.0 
4.2722673 0.0 0.0 0.0 0.0 0.0 0.0 0.16756646 0.0 1.2103864 0.0 0.0 0.0 0.0 0.0 0.0 
4.4724293 0.0 0.0 0.0 0.0 0.0 0.0 0.0 0.0 1.2202958 0.0 0.0 0.0 0.0 0.0 0.0 
4.6442122 0.0 0.0 0.0 0.0 0.0 0.0 0.0 0.0 0.9737675 0.0 0.0 0.0 0.42906517 0.0 0.0 
4.281824 0.0 0.0 0.0 0.0 0.0 0.0 0.0 0.0 0.9474416 0.0 0.0 0.0 0.27350608 0.0 0.0 
3.6243002 0.0 0.23265362 0.0 0.0 0.0 0.0 0.0 0.0 0.74440676 0.0 0.0 0.0 0.0 0.0 0.0 
2.4128232 0.0 0.0 0.0 0.0 0.0 0.0 0.0 0.0 0.88933355 0.0 0.9779972 0.6459556 0.0 0.0 0.0 
1.5882431 0.0 0.0 0.0 0.0 0.0 0.0 0.0 0.0 0.42983466 0.0 1.6748273 0.8398144 0.0 0.0 0.0 
0.8928152 0.0 0.33436686 0.0 0.0 0.6462918 0.0 0.0 0.0 0.0 0.0 0.0 0.06821978 0.35844392 0.0 0.0 
2.3910496 0.0 0.0 0.0 0.0 0.0 0.0 0.0 0.0 0.35503417 0.0 0.0 0.9517575 3.0196574 0.0 0.0 
2.8404806 0.0 0.0 0.0 0.0 0.0 0.0 0.0 0.0 0.0 0.0 0.0 1.8410033 3.2459848 0.0 0.0 
2.74127 0.0 0.0 0.0 0.0 0.0 0.0 0.0 0.0 0.0 0.0 0.0 2.2968185 3.715583 0.0 0.0 
2.077623 0.0 0.0 0.0 0.0 0.0 0.0 0.0 0.0 0.0 0.6015138 0.0 2.4889352 4.144246 0.0 0.0 
1.5597179 0.0 0.0 0.0 0.0 0.0 0.0 0.0 0.0 0.0 0.8196533 0.0 2.4457362 4.4929643 0.0 0.0 
1.8470095 0.0 0.2740308 0.0 0.0 0.0 0.0 0.0 0.0 0.0 0.0 0.0 1.8609899 5.1724644 0.0 0.0 
1.8731091 0.0 1.717446 0.0 0.0 0.0 0.0 0.0 0.0 0.0 0.0 0.0 1.9030477 3.39379 0.0 0.0 
1.169808 0.0 0.0 0.0 0.0 0.0 0.0 0.0 0.0 0.0 0.0 0.0136157125 1.978715 0.5533352 0.0 0.0 
0.900356 0.0 0.0 0.0 0.0 0.0 0.0 0.0 0.0 0.0 0.0 3.1767523 2.1209252 0.0 0.0 0.0 
0.85405374 0.0 0.86320204 0.0 0.0 0.0 0.0 0.0 0.16521576 0.0 0.0 1.1574627 1.0009052 0.344544 0.0 0.0 
0.0 0.0 0.0 0.0 0.0 0.0 0.0 0.0 0.0 0.0 3.689142 0.0 2.848031 2.4468389 1.2485504 0.0 
0.0 0.0 0.0 0.0 0.0 0.0 0.0 0.0 0.0 0.0 3.7716405 0.0 3.2207723 2.1931179 1.3245618 0.0 
0.0 0.0 0.0 0.0 0.0 0.0 0.0 0.0 0.0 0.0 3.6457865 0.0 3.3781824 1.9175128 1.6638038 0.0 
0.0 0.0 0.0 0.0 0.0 0.0 0.0 0.0 0.0 0.0 3.7691243 0.0 3.072943 1.2763809 1.8393022 0.0 
0.0 0.0 0.0 0.0 0.0 0.0 0.0 0.0 0.0 0.0 3.375923 0.0 2.095572 0.6297276 2.0260773 0.0 
0.0 0.45923597 0.0 0.0 0.0 0.0 0.0 0.0 0.0 0.0 1.382219 0.0 1.1748719 1.700117 3.636897 0.0 
0.0 0.0 0.56942165 1.3998603 0.0 0.0 0.0 0.0 0.0 0.0 0.0 0.0 1.1276222 0.9959811 3.3515196 0.0 
0.0 0.0 0.0 1.091295 0.0 0.0 0.569195 0.0 0.0 0.0 0.35553965 0.0 1.0872761 0.0 0.13390516 0.0 
0.0 0.0 0.0 0.45105475 0.0 0.0 0.0 0.0 0.0 0.0 0.0 2.3914309 0.8935301 0.0 0.0 0.0 
0.0 0.0 0.0 0.0 0.0 0.0 0.0 0.0 0.0 0.0 0.0 2.2818618 0.95227677 0.0 0.0 0.0 
0.0 2.7236226 0.0 3.9858544 0.0 0.0 0.0 0.0 0.0 0.0 2.1040585 0.0 0.0 0.0 1.6449836 0.0 
0.0 2.8563547 0.0 4.9332676 0.0 0.0 0.0 0.0 0.0 0.0 2.1335216 0.0 0.0 0.0 1.3082787 0.0 
0.0 2.73104 0.0 5.300098 0.0 0.0 0.0 0.0 0.0 0.0 1.714835 0.0 0.0 0.0 1.2189637 0.0 
0.0 2.392621 0.0 5.1994047 0.0 0.0 0.0 0.0 0.0 0.0 1.466396 0.0 0.0 0.0 0.65619975 0.0 
0.0 2.037814 0.0 3.5975056 0.0 0.0 0.0 0.0 0.0 0.8310084 0.7350333 0.0 0.0 0.0 0.5359109 0.0 
0.0 1.7330543 0.0 2.5572116 0.0 0.7109387 0.0 0.0 0.0 1.9090592 0.0 0.0 0.0 0.0 2.8486474 0.0 
0.0 0.0 0.42451426 2.770359 0.0 0.0 0.0 0.0 0.0 1.2437782 0.0 0.0 0.0 0.0 4.12167 0.0 
0.0 0.0 0.0 1.3781952 0.0 0.0 1.7968652 0.0 0.0 0.0 0.0 0.0 0.0 0.0 1.8384916 0.0 
0.0 0.0 0.0 0.0 0.0 0.0 0.0 0.0 0.10840693 0.0 0.0 0.0 0.0 0.0 0.0 0.0 
0.0 0.0 0.0 0.0 0.0 0.0 0.0 0.0 0.09482917 0.0 0.0 1.4935993 0.16676526 0.0 0.0 0.0 
0.0 0.61368805 0.0 3.264437 0.0 0.0 0.0 0.0 0.0 3.81132 0.0 0.0 0.0 0.0 0.0 0.0 
0.0 0.28756574 0.0 3.4394171 0.0 0.0 0.0 0.0 0.0 3.8500407 0.0 0.0 0.0 0.0 0.0 0.0 
0.0 0.2147141 0.0 3.326833 0.0 0.0 0.0 0.0 0.0 3.5980656 0.0 0.0 0.0 0.0 0.0 0.0 
0.0 0.0 0.0 2.4339657 0.30031008 0.047224954 0.0 0.0 0.0 3.0997567 0.0 0.0 0.0 0.0 0.0 0.0 
0.0 0.0 0.0 0.0 1.5467784 0.045616865 0.0 0.0 0.0 2.7611358 0.0 0.0 0.0 0.0 0.0 0.0 
0.0 0.0 0.15617652 0.0 0.4308419 1.3292551 0.0 0.0 0.0 2.6591442 0.0 0.0 0.0 0.0 0.0 1.1904383 
0.0 0.0 2.5563884 0.0 0.0 0.0 1.213032 0.0 0.0 1.2680352 0.0 0.0 0.0 0.0 1.0846674 0.0 
0.0 0.0 0.0 0.0 0.0 0.0 4.4884777 0.0 0.0 0.0 0.0 0.0 0.42725778 0.0 0.07632826 0.0 
0.0 0.0 0.0 0.0 0.0 0.0 0.0 0.0 2.0001264 0.0 0.0 0.0 0.07521151 0.0 0.0 0.0 
0.0 0.0 0.0 0.0 0.0 0.15781927 0.0 0.0 0.82771075 0.0 0.0 0.5539708 0.0 0.0 0.0 0.0 
0.0 0.15794162 0.0 0.77729845 0.0437918 0.0 0.62456787 0.0 0.0 0.9611153 0.0 0.0 0.0 0.0 0.0 0.21446697 
0.0 0.15834911 0.0 0.62512755 0.13318977 0.10654965 0.5785902 0.0 0.0 0.7431562 0.0 0.0 0.0 0.0 0.0 0.39709485 
0.0 0.13636021 0.0 0.5041239 0.14383847 0.13102412 0.48459673 0.0 0.0 0.6349837 0.0 0.0 0.0 0.0 0.0 0.35420248 
0.0 0.0 0.0 0.0 0.56787187 0.336792 0.5416688 0.0 0.0 0.17565754 0.0 0.0 0.0 0.0 0.0 0.0 
0.0 0.0 0.0 0.0 1.7096016 0.8889511 0.0 0.0 0.0 0.0330072 0.0 0.0 0.0 0.0 0.0 0.045465134 
0.0 0.0 2.3987312 0.0 0.0 0.9859229 0.0 0.0 0.0 0.23248726 0.0 0.0 0.0 0.0 0.0 0.73979694 
0.0 0.0 2.9590366 0.0 0.0 0.0 2.9948144 0.23693572 0.0 0.0 0.0 0.0 0.030230016 0.0 0.24349381 0.0 
0.0 0.0 0.0 0.0 0.0 0.0 4.4592133 0.0 0.0 0.0 0.0 0.033520475 0.40877014 0.0 0.0 0.0 
0.0 0.0 0.0 0.0 0.0 0.0 0.0 0.0 3.4270394 0.0 0.0 0.0 0.0 0.0 0.0 0.0 
0.0 0.0 0.0 0.0 0.0 0.5654807 0.0 0.0 0.5345687 0.0 0.29551375 0.20303747 0.0 0.21701777 0.0 0.0 
0.0 0.0 0.0 0.0 0.0 0.0 0.0 0.0 0.0 0.0 0.0 0.0 0.0 0.0 0.0 0.0 
0.0 0.0 0.0 0.0 0.0 0.0 0.0 0.0 0.0 0.0 0.0 0.0 0.0 0.0 0.0 0.0 
0.0 0.0 0.0 0.0036993735 0.0 0.0 0.0 0.0 0.0 0.0 0.0 0.0 0.0 0.0 0.0 0.0 
0.0 0.0 0.0 0.0 0.47126448 0.0 0.0 0.0 0.15130867 0.0 0.5058429 0.0 0.0 0.0 0.0 0.0 
0.0 0.0 0.0 0.0 1.2821158 1.4370127 0.0 0.0 0.0 0.0 0.0 0.06688276 0.0 0.0 0.0 0.0 
0.0 0.0 3.372268 0.0 0.0 0.84866035 0.0 0.0 0.0 0.0 0.0 0.0 0.0 0.0 0.0 0.0 
0.0 0.0 2.2283282 0.13747199 0.0 0.0 4.149782 1.0090387 0.0 0.0 0.0 0.0 0.0 0.0 0.0 0.0 
0.0 0.0 0.0 0.0 0.0 0.0 3.1622198 0.0 1.6908236 0.0 0.0 0.31443202 0.17845458 0.0 0.0 0.0 
0.0 0.0 0.0 0.0 0.0 0.0 0.0 0.0 3.3796227 0.0 0.0 0.110865384 0.0 0.0 0.0 0.0 
0.0 0.0 0.0 0.0 0.0 0.6174909 0.0 0.0 0.0 0.0 0.14840654 0.0 0.0 0.0 0.0 0.0 
0.0 0.0 0.0 0.0 0.0 0.0 0.0 0.0 0.0 0.0 0.0 0.0 0.0 0.0 0.0 0.0 
0.0 0.0 0.0 0.0 0.0 0.0 0.0 0.0 0.0 0.0 0.0 0.0 0.0 0.0 0.0 0.0 
0.0 0.0 0.0 0.0 0.0 0.0 0.0 0.0 0.0 0.0 0.0 0.0 0.0 0.0 0.0 0.0 
0.0 0.0 0.0 0.0 0.65289307 0.0 0.0 0.0 0.13671362 0.0 0.48565456 0.12247789 0.0 0.0 0.0 0.0 
0.0 0.10934758 0.0 0.0 1.0661749 1.5701406 0.0 0.0 0.0 0.0 0.0 0.025395036 0.0 0.0 0.0 0.0 
0.0 0.14898902 3.9299605 0.0 0.0 0.49767834 0.0 0.0 0.0 0.0 0.0 0.0 0.0 0.0 0.0 0.0 
0.0 0.0 1.462321 0.6895048 0.0 0.0 4.7630215 0.9435515 0.0 0.0 0.0 0.0 0.0 0.0 0.0 0.0 
0.0 0.0 0.0 0.0 0.0 0.0 1.6070852 0.0 2.3657908 0.0 0.0 0.3931453 0.0 0.0 0.0 0.0 
0.0 0.0 0.0 0.0 0.0 0.1402173 0.0 0.0 2.3905551 0.0 0.0 0.33773068 0.0 0.0 0.0 0.0 
0.0 0.0 0.0 0.0 0.0 0.43425977 0.0 0.0 0.0 0.0 0.0 0.0 0.0 0.0 0.0 0.0 
0.0 0.0 0.0 0.0 0.0 0.0 0.0 0.0 0.0 0.0 0.0 0.0 0.0 0.0 0.0 0.0 
0.0 0.0 0.0 0.0 0.0 0.0 0.0 0.0 0.0 0.0 0.0 0.0 0.0 0.0 0.0 0.0 
0.0 0.0 0.0 0.0 0.0 0.0 0.0017801952 0.0 0.0 0.0 0.0044973716 0.0 0.0 0.0059424564 0.0 0.0 
0.0 0.0 0.0 0.0 0.6065965 0.0 0.0 0.0 0.0 0.0 0.44284087 0.24281102 0.0 0.0 0.0 0.0 
0.0 0.43077713 0.0 0.0 0.75577396 1.9156651 0.0 0.0 0.0 0.0 0.0 0.0 0.0 0.0 0.0 0.0 
0.0 0.597185 3.520683 0.0 0.0 0.0 0.0 0.52149975 0.0 0.0 0.0 0.0 0.0 0.0 0.0 0.0 
0.0 0.0 0.40993232 0.0 0.0 0.0 4.2869925 1.0725963 0.0 0.0 0.0 0.0 0.0 0.0 0.0 0.0 
0.0 0.0 0.0 0.0 0.0 0.0 0.0 0.0 1.2832131 0.0 0.0 0.3155588 0.0 0.0 0.0 0.0 
0.0 0.0 0.0 0.0 0.0 0.39360055 0.0 0.0 1.0581083 0.0 0.0 0.76540387 0.0 0.0 0.0 0.0 
0.0 0.0 0.0 0.0 0.0 0.48677856 0.0 0.0 0.0 0.0 0.0 0.0371978 0.0 0.0 0.0 0.0 

