0.22905369 0.12868036 0.0 0.0 0.21447998 0.14577506 0.0 0.0 0.0 0.0 0.0 0.0 0.0 0.044966944 0.0 0.0 
1.0211275 0.43138918 0.4060418 0.0 0.057902284 0.2501399 0.0 0.0 0.0 0.0 0.0 0.0 0.0 0.36397913 0.0 0.2713438 
1.5897315 0.6270198 1.1309587 0.0 0.0 0.0 0.0 0.0 0.0 0.25944072 0.0 0.0 0.0 0.016501673 0.0 1.3326992 
1.9873223 0.75719815 0.6512801 0.0 0.0 0.0 0.0 0.0 0.0 0.5907721 0.0 0.0 0.0 0.0 0.0 0.55811787 
2.2473612 0.0 0.0 0.0 0.0 0.0 0.48081177 0.0 0.0 0.14898163 0.0 0.17877877 0.15751787 0.0 0.0 0.0 
1.4607588 0.0 0.0 0.0 0.0 0.0 0.0 0.0 0.0 0.42635468 0.0 2.2177196 0.5658806 0.0 0.0 0.0 
0.96636266 0.0 0.0 0.0 0.0 0.26728842 0.0 0.0 0.0 0.17916146 0.0 1.1426154 0.58783203 0.0 0.0 0.0 
0.29801852 0.0 0.3325005 0.0 0.20767015 0.8804097 0.0 0.0 0.0 0.0 0.0 0.0 0.0 0.72838086 0.0 0.0 
0.0 0.0 0.08476341 0.22882661 0.015070945 0.3386111 0.0 0.0 0.0 0.0 0.19023883 0.0 0.0 0.23763913 0.0 0.0 
0.0 0.0 0.0 0.006372221 0.0 0.0 0.0 0.0 0.0 0.0 0.0 0.0 0.0 0.0 0.0 0.0 
0.3644819 0.0 0.0 0.0 0.3039437 0.40064442 0.0 0.0 0.0 0.0 0.0 0.0 0.0 0.11481755 0.0 0.0 
0.15040337 0.0 0.79198664 0.0 0.0 0.0 0.0 0.0 0.0 0.5009121 0.0 0.0 0.0 0.075484864 0.79539245 1.1290283 
0.2687788 0.0 1.2519795 0.0 0.0 0.0 0.0 0.0 0.0 0.0 0.0 0.0 0.11473432 0.2925652 0.4180277 1.125683 
1.442198 0.0 0.0 0.0 0.0 0.0 0.2222271 0.0 0.0 0.0 0.0 0.0 0.0 1.5057943 0.0 0.0 
1.9047385 0.0 0.0 0.0 0.0 0.0 0.0 0.0 0.0 0.0 0.0 0.0 0.68924755 0.4757996 0.0 0.0 
0.67857856 0.0 0.0 0.0 0.0 0.0 0.0 0.0 0.0 0.0 0.0 1.428701 0.7742168 0.0 0.0 0.0 
0.8153303 0.0 0.0 0.0 0.0 0.0 0.0 0.0 0.13132608 0.0 0.0 3.3323357 1.6295847 0.0 0.0 0.0 
0.6580176 0.0 0.84368277 0.0 0.0 0.24727207 0.0 0.0 0.0 0.0 0.0 0.35384718 0.2581908 0.412201 0.0 0.0 
0.0 0.0 0.56129116 0.0 0.0 0.47907138 0.0 0.0 0.0 0.0 0.0 0.0 0.0 0.3453268 0.0 0.0 
0.0 0.0 0.0 0.044182196 0.0 0.0 0.0 0.0 0.0 0.0 0.0 0.0 0.0 0.0 0.0 0.0 
0.0 0.0 0.0 0.0 0.5589583 0.6628062 0.0 0.0 0.0 0.0 0.24179137 0.0 0.0 0.0 0.0 0.0 
0.0 0.0 0.72909886 0.0 0.0 0.71242857 0.0 0.0 0.0 0.0 0.0 0.0 0.0 0.0 0.57941884 0.0 
0.0 0.0 0.5734497 0.0 0.0 0.0 0.18609382 0.0 0.0 0.0 0.0 0.0 0.8154425 0.0 0.57156545 0.0 
0.0 0.0 0.0 0.0 0.0 0.0 0.0 0.0 0.0 0.0 0.0 0.0 0.3279829 0.0 1.3626804 0.0 
0.1534542 0.0 0.0 0.0 0.0 0.0 0.0 0.0 0.0 0.0 0.0 0.0 0.8251541 0.0 1.2682283 0.0 
0.0 0.0 0.0 0.0 0.0 0.0 0.0 0.0 0.0 0.0 0.0 0.0 0.022664584 0.0 0.0 0.0 
0.0 0.0 0.0 0.0 0.0 0.0 0.0 0.0 0.0 0.0 0.0 4.086673 1.0640539 0.0 0.0 0.0 
0.15105128 0.0 0.1009994 0.0 0.0 0.0 0.0 0.0 0.0 0.0 0.0 2.206315 0.90262383 0.0 0.0 0.0 
0.16345766 0.0 0.86884457 0.0 0.0 0.45593822 0.0 0.0 0.0 0.0 0.0 0.0 0.0 0.25184393 0.0 0.0 
0.0 0.0 0.0 0.035621874 0.0 0.0 0.0 0.0 0.0 0.0 0.019802654 0.0 0.0 0.0084398985 0.0 0.0 
0.0 0.0 0.0 0.0 0.5096035 0.5212081 0.0 0.0 0.0 0.0 0.7893617 0.10653661 0.0 0.0 0.0 0.0 
0.0 0.0 0.0 0.0 0.0 2.228106 0.0 0.0 0.0 0.0 0.0 0.0 0.0 0.0 0.0 0.0 
0.0 0.0 0.0 0.0 0.0 0.0 0.0 0.7689276 0.0 0.0 0.0 0.0 0.0 0.0 0.0 0.0 
0.0 0.0 0.0 0.0 0.0 0.0 0.0 0.0 0.0 0.0 0.0 0.0 0.0 0.0 0.32869774 0.0 
0.0 0.0 0.0 0.0 0.0 0.0 0.0 0.0 0.0 0.0 0.0 0.0 0.0 0.0 2.3388014 0.0 
0.0 0.0 0.0 0.0 0.0 0.0 0.0 0.0 0.0 0.0 0.0 0.0 0.0 0.0 0.04514484 0.0 
0.0 0.0 0.0 0.0 0.0 0.0 0.0 0.0 0.0 0.0 0.0 1.8630365 0.0 0.0 0.0 0.0 
0.0 0.0 0.0 0.0 0.0 0.0 0.0 0.0 0.0 0.0 0.0 3.008153 1.093642 0.0 0.0 0.0 
0.0 0.0 0.80596066 0.0 0.0 0.16687077 0.0 0.0 0.0 0.0 0.0 0.17299667 0.06672618 0.059662208 0.0 0.0 
0.0 0.0 0.0 0.014697054 0.0 0.06469558 0.0 0.0 0.0 0.0 0.0049025826 0.0 0.0 0.08534319 0.0 0.0 
0.0 0.0 0.0 0.0 0.15946645 0.12341352 0.0 0.0 0.0 0.0 1.0710907 0.27746576 0.0 0.0 0.0 0.0 
0.0 0.0 0.0 0.0 0.0 2.7277794 0.0 0.0686643 0.0 0.0 0.9572954 0.0 0.0 0.08200676 0.0 0.0 
0.0 0.0 0.0 0.0 0.0 0.0 0.6644148 0.90866375 0.0 0.29241434 1.7900823 0.0 0.0 0.70064044 0.0 0.0 
0.0 0.0 0.0 0.0 0.0 0.0 0.0 0.0 0.0 0.1641004 1.5157629 0.0 0.0 0.0 0.0 0.0 
0.0 0.0 1.0660608 0.0 0.0 0.0 0.0 0.0 0.0 0.0 0.0 0.0 0.0 0.55351245 1.1075114 0.0 
0.0 0.0 0.0 0.0 0.0 0.0 1.5332253 0.0 0.0 0.0 0.0 0.0 1.2473738 0.0 0.26401561 0.0 
0.0 0.0 0.0 0.0 0.0 0.0 0.0 0.0 1.1910398 0.0 0.0 0.0 0.3075685 0.0 0.0 0.0 
0.0 0.0 0.0 0.0 0.0 0.0 0.0 0.0 0.32363066 0.0 0.0 3.0966752 1.2452465 0.0 0.0 0.0 
0.0 0.0 0.35808375 0.032832995 0.0 0.02879259 0.0 0.0 0.0 0.0 0.0 0.59520173 0.040349275 0.19227743 0.0 0.0 
0.0 0.0 0.16095379 0.0 0.0 0.20086876 0.0 0.0 0.0 0.0 0.0 0.0 0.0 0.11087986 0.0 0.0 
0.0 0.21464108 0.0 0.0 0.02229745 0.0 0.0 0.0 0.0 0.0 0.9284232 0.2902013 0.0 0.0 0.0 0.0 
0.0 0.3266827 0.0 0.0 0.0 1.099674 0.0 0.0 0.0 0.12778324 0.8966724 0.0 0.0 0.0 0.0 0.0 
0.0 0.0 0.0 0.0 0.0 0.0 0.69755566 0.0 0.0 0.040961925 1.9761587 0.0 0.0 0.28381833 0.0 0.0 
0.0 0.0 0.0 0.0 0.0 1.0687666 0.0 0.0 0.0 0.0 2.5061831 0.0 0.0 0.0 0.0 0.0 
0.0 0.0 0.82754153 0.0 0.0 1.6740782 0.0 0.0 0.0 0.0 0.0 0.0 0.0 1.4725357 1.0080929 0.0 
0.0 0.0 0.26181853 0.2777731 0.0 0.0 1.5183952 0.0 0.0 0.0 0.0 0.0 0.9827493 0.0 0.6058921 0.0 
0.0 0.0 0.0 0.0 0.0 0.0 0.0 0.0 1.7086017 0.0 0.0 0.0 0.34374493 0.0 0.0 0.0 
0.0 0.0 0.0 0.0 0.0 0.0 0.0 0.0 0.52321726 0.0 0.0 2.7058177 0.6718804 0.0 0.0 0.0 
0.0 0.0 0.0565535 0.0008423701 0.0 0.12184432 0.0 0.0 0.0 0.0 0.0 0.8671315 0.16285445 0.12690276 0.0 0.0 
0.0 0.0 0.34114197 0.0 0.0 0.2005283 0.0 0.0 0.0 0.0 0.0 0.0 0.0 0.06594037 0.0 0.0 
0.0 0.20268677 0.0 0.0 0.0 0.0 0.0 0.08917047 0.0 0.0 0.483547 0.26030764 0.0 0.0 0.0 0.0 
0.0 0.8050989 0.0 0.0 0.0 0.0 0.0 0.0 0.0 0.0 0.2261908 0.04891692 0.0 0.0 0.0 0.0 
0.0 1.0809505 0.0 0.0 0.0 0.0 0.0 0.0 0.0 0.0 0.7854903 0.0 0.0 0.0 0.0 0.0 
0.0 1.162077 0.0 0.51855963 0.0 0.66515386 0.0 0.0 0.0 0.0 1.7238388 0.0 0.0 0.0 0.0 0.0 
0.0 1.348516 0.6488221 1.6859561 0.0 2.1622636 0.0 0.0 0.0 0.0 0.0 0.0 0.0 0.0 1.4577379 0.0 
0.0 0.0 0.78663945 2.9736333 0.0 0.0 1.0811119 0.0 0.0 0.0 0.0 0.0 0.0 0.0 1.1813767 0.0 
0.0 0.0 0.0 0.2128668 0.0 0.0 1.2289523 0.0 0.0 0.0 0.0 0.0 0.0 0.0 0.0 0.0 
0.0 0.0 0.0 0.0 0.0 0.0 0.0 0.0 0.59652054 0.0 0.0 2.1061232 0.089127466 0.0 0.0 0.0 
0.0 0.0 0.0 0.21372989 0.0 0.28004825 0.0 0.0 0.0 0.0 0.0 1.1351095 0.28165138 0.10226018 0.0 0.0 
0.0 0.0 0.34918717 0.1172799 0.0 0.21744597 0.0 0.0 0.0 0.0 0.02625356 0.0 0.0 0.1486826 0.0 0.0 
0.046548914 0.104226924 0.0 0.0 0.0 0.0 0.07830779 0.06371428 0.0 0.0 0.15230146 0.065403625 0.0 0.0 0.0 0.0 
0.2761275 0.4214724 0.0 0.26959327 0.0 0.0 0.11241295 0.111316144 0.0 0.3034068 0.037282802 0.20568529 0.0 0.0 0.0 0.0 
0.052539293 0.790734 0.0 0.79332185 0.0 0.0 0.083743654 0.10624032 0.0 1.2233734 0.10802077 0.0 0.0 0.0 0.0 0.0 
0.0 0.6688059 0.0 0.0 0.16190463 0.41705596 0.0 0.0 0.0 1.6680566 0.5875006 0.0 0.0 0.0 0.0 0.0 
0.0 0.18034571 0.812128 0.31098285 0.0 2.9383817 0.0 0.0 0.0 0.8726103 0.0 0.0 0.0 0.0 0.09003168 0.0 
0.0 0.0 2.122362 1.2859094 0.0 0.0 0.50451833 0.0 0.0 0.0 0.0 0.0 0.0 0.0 1.4834075 0.0 
0.0 0.0 0.0 0.0 0.0 0.0 1.409835 0.0 0.0 0.0 0.0 0.0 0.0 0.0 0.0 0.0 
0.0 0.0 0.0 0.0 0.0 0.0 0.0 0.0 0.43395594 0.0 0.0 1.9177753 0.0 0.0 0.0 0.0 
0.0 0.0 0.0 0.21296534 0.0 0.38614252 0.0 0.0 0.0 0.0 0.0 1.9504136 0.38400102 0.0 0.0 0.0 
0.0 0.0 0.32789338 0.24257773 0.0 0.52852714 0.0 0.0 0.0 0.0 0.084054306 0.0 0.0 0.37694147 0.0 0.0 
0.025924753 0.027440842 0.0 0.047910493 0.0 0.0 0.07545216 0.0 0.0 0.0 0.051106207 0.0 0.0 0.0 0.0 0.0 
0.267943 0.13229802 0.0 0.32120317 0.0 0.0 0.2806808 0.0724601 0.0 0.18038478 0.08851355 0.0 0.0 0.0 0.0 0.0 
0.07501878 0.12774056 0.0 0.0 0.0 0.0 0.27266166 0.0 0.0 0.5045184 0.11708228 0.0 0.0 0.0 0.0 0.0 
0.0 0.0 0.0 0.0 0.46173376 0.044947043 0.0 0.0 0.13265803 0.2702265 0.5025298 0.26029646 0.0 0.0 0.0 0.0 
0.0 0.0 1.0292065 0.0 0.0 3.7120423 0.0 0.0 0.0 0.0 0.0 0.0 0.0 0.0 0.0 0.0 
0.0 0.0 3.4606311 0.0 0.0 0.0 0.7088695 0.0 0.0 0.0 0.0 0.0 0.0 0.56453955 0.86213094 0.0 
0.0 0.0 0.0 0.0 0.0 0.0 2.3091502 0.0 0.0 0.0 0.0 0.0 0.0 0.0 0.0 0.0 
0.0 0.0 0.0 0.0 0.0 0.0 0.0 0.0 0.0 0.0 0.0 0.9515033 0.0 0.0 0.0 0.0 
0.0 0.0 0.0 0.0 0.0 0.0 0.0 0.0 0.0 0.0 0.0 2.4533737 0.75878817 0.0 0.0 0.0 
0.14313327 0.0 0.39020404 0.0 0.0 0.3943438 0.0 0.0 0.0 0.0 0.0 0.0 0.0 0.0 0.0 0.0 
0.0 0.0 0.0 0.0 0.0 0.0 0.0 0.0 0.0 0.0 0.0 0.0 0.0 0.0 0.0 0.0 
0.0 0.0 0.0 0.0 0.0 0.0 0.0 0.0 0.0 0.0 0.0 0.0 0.0 0.0 0.0 0.0 
0.0 0.0 0.0 0.0 0.0 0.0 0.0 0.0 0.0 0.0 0.18567327 0.032644488 0.0 0.0 0.0 0.0 
0.0 0.0 0.0 0.0 0.28169554 0.0 0.0 0.0 0.044418234 0.0 0.96047646 0.18980399 0.0 0.0 0.0 0.0 
0.0 0.0 0.0 0.0 0.0 3.038359 0.0 0.0 0.0 0.021172222 0.27374497 0.0 0.0 0.0 0.0 0.0 
0.0 0.0 3.0656736 0.0 0.0 1.7356935 0.4847035 0.023276538 0.0 0.0 0.0 0.0 0.0 1.8294846 1.6233453 0.0 
0.0 0.0 0.0 0.0 0.0 0.0 2.8725832 0.0 0.0 0.0 0.40293142 0.0 0.0 1.1888518 0.29878116 0.0 
0.0 0.0 0.0 0.0 0.0 0.0 0.0 0.0 0.0 0.0 0.0 0.0 0.0 0.44376454 0.0 0.0 
0.0 0.0 0.0 0.0 0.0 0.0 0.0 0.0 0.074641064 0.0 0.0 2.383188 1.2060866 0.0 0.0 0.0 
0.23339103 0.0 0.99170303 0.0 0.0 0.0 0.0 0.0 0.0 0.0 0.0 0.7339932 0.97115177 0.0 0.0 0.0 

