0.9544316 0.0 0.0 0.0 0.0 0.0 0.0 0.0 0.0 0.8576771 0.0 0.0 0.0 0.5808691 0.46173447 1.4971223 
0.28152537 0.0 0.0 0.0 0.0 0.0 0.0 0.0 0.0 1.1431943 0.0 0.0 0.09307292 0.6598321 0.48894745 1.5347228 
0.0 0.0 0.0 0.0 0.0 0.0 0.0 0.015084639 0.0 0.18755953 0.0 0.0 1.4730188 0.99768317 0.62715614 0.0 
0.0 0.0 0.0 0.0 0.0 0.0 0.0 0.0 0.0 0.0 0.0 0.0 2.3512733 2.5038605 0.30207747 0.0 
0.28040022 0.0 0.0 0.0 0.0 0.0 0.0 0.0 0.0 0.0 0.0 0.0 1.9835327 3.9355152 0.66592413 0.0 
0.86636406 0.0 0.7707136 0.0 0.0 0.0 0.0 0.0 0.0 0.0 0.0 0.0 1.7275622 2.6280746 0.0 0.0 
0.15146874 0.0 0.0 0.0 0.0 0.0 0.0 0.0 0.0 0.0 0.0 0.5893289 1.4509201 0.33733624 0.0 0.0 
0.20698895 0.0 0.0 0.0 0.0 0.0 0.0 0.0 0.0 0.0 0.0 4.0343823 1.8639283 0.0 0.0 0.0 
0.6716882 0.0 0.66237867 0.0 0.0 0.0 0.0 0.0 0.0 0.0 0.0 1.234412 0.84389293 0.06529867 0.0 0.0 
0.14813937 0.0 0.8075894 0.0 0.0 0.4597373 0.0 0.0 0.0 0.0 0.0 0.0 0.0 0.15353024 0.0 0.0 
0.0 0.0 0.0 0.0 0.0 0.3925101 0.0 0.0 0.0 0.0 1.3417921 0.0 0.8587827 0.52589446 0.5084691 0.0 
0.0 0.0 0.0 0.0 0.0 0.0 0.0 0.5692871 0.0 0.0 1.903284 0.0 1.9033611 0.67384255 0.11954747 0.0 
0.0 0.0 0.0 0.0 0.0 0.0 0.0 0.7179235 0.0 0.0 1.9356719 0.0 2.1951602 0.0 0.0 0.0 
0.0 0.0 0.0 0.0 0.0 0.0 0.0 0.0 0.0 0.0 1.588794 0.0 1.6250175 0.0 1.1699678 0.0 
0.0 0.0 0.0 0.10857177 0.0 0.0 0.0 0.0 1.317795 0.0 0.46664172 0.0 0.36194372 0.5814303 3.7414553 0.0 
0.0 0.0 0.20802024 1.717275 0.0 0.0 0.0 0.0 0.0 0.0 0.0 0.0 0.0 0.82341665 3.4934042 0.0 
0.0 0.0 0.0 1.4231182 0.0 0.0 0.31210753 0.0 0.0 0.0 0.9985082 0.0 0.0 0.0 0.0 0.0 
0.0 0.0 0.0 0.22440407 0.0 0.0 0.0 0.0 0.0 0.0 0.0 2.6647677 0.35279113 0.0 0.0 0.0 
0.0 0.0 0.0 0.0 0.0 0.0 0.0 0.0 0.0 0.0 0.0 2.2525806 0.80940896 0.0 0.0 0.0 
0.18303418 0.0 1.0418285 0.0 0.0 0.14802462 0.0 0.0 0.0 0.0 0.0 0.0 0.0 0.0 0.0 0.0 
0.0 0.43123338 0.0 0.0 0.0 0.47166634 0.0 0.4560045 0.0 0.0 1.288312 0.0 0.21445982 0.0 0.0 0.0 
0.0 1.1840078 0.0 2.142631 0.0 0.0 0.16486843 1.5988611 0.0 0.0 2.021128 0.0 0.0 0.0 0.0 0.0 
0.0 1.8629642 0.0 4.2876325 0.0 0.0 0.28267294 0.0018348917 0.13577592 0.0 1.9387015 0.0 0.0 0.0 0.0 0.0 
0.0 1.5725834 0.0 3.3732216 0.0 0.0 0.0 0.0 1.8346205 0.4787684 0.8863797 0.0 0.0 0.0 0.0 0.0 
0.0 1.1914226 0.0 1.4939497 0.0 0.8318077 0.0 0.0 0.17551799 1.3223451 0.0 0.0 0.0 0.0 1.6170001 0.7975002 
0.0 0.0 0.8312065 1.500058 0.0 0.0 0.0 0.0 0.0 0.76640755 0.0 0.0 0.0 0.0 3.6889849 0.699663 
0.0 0.0 0.0 0.6321543 0.0 0.0 2.1010337 0.0 0.0 0.0 0.0 0.0 0.0 0.0 1.6275282 0.0 
0.0 0.0 0.0 0.0 0.0 0.0 0.0 0.0 0.2501204 0.0 0.0 0.0 0.0 0.0 0.0 0.0 
0.0 0.0 0.0 0.0 0.0 0.0 0.0 0.0 0.3547211 0.0 0.0 1.5488709 0.09610596 0.0 0.0 0.0 
0.0 0.0 0.39979383 0.0 0.0 0.0 0.0 0.0 0.0 0.0 0.0 0.4168338 0.3158936 0.0 0.0 0.0 
0.0 1.150788 0.0 1.8218321 0.0 0.06425965 0.019494224 0.75195783 0.0 0.75794417 0.48239097 0.0 0.0 0.0 0.0 0.0 
0.0 1.5644606 0.0 3.5954833 0.0 0.0 1.1255674 0.0 0.0 2.096127 0.57675403 0.0 0.0 0.0 0.0 0.0 
0.0 1.0286428 0.0 3.3768287 0.32035783 0.0 0.28022492 0.0 1.0193737 2.3292 0.051027864 0.0 0.0 0.0 0.0 0.0 
0.0 0.44345626 0.0 0.0 1.3396162 0.0 0.0 0.0 0.7247268 1.9081284 0.0 0.0 0.0 0.0 0.0 2.9671335 
0.0 0.54002327 0.070212066 0.0 0.58416027 0.60652936 0.0 0.0 0.0 1.3903974 0.0 0.0 0.0 0.0 0.0 3.3374882 
0.0 0.0 1.4865721 0.0 0.0 0.0 1.9356889 0.0 0.0 0.35195136 0.0 0.0 0.0 0.0 0.66052586 0.0 
0.0 0.0 0.0 0.0 0.0 0.0 3.846248 0.0 0.0 0.0 0.0 0.0 0.31196612 0.0 0.0 0.0 
0.0 0.0 0.0 0.0 0.0 0.0 0.0 0.0 2.7730925 0.0 0.0 0.0 0.0 0.0 0.0 0.0 
0.0 0.0 0.0 0.0 0.0 0.17253014 0.0 0.0 0.83061427 0.0 0.0 0.5629791 0.092612505 0.0 0.0 0.0 
0.0 0.0 0.0 0.23195513 0.0 0.0 0.0 0.0 0.0 0.0 0.0 0.5921587 0.33701658 0.0 0.0 0.0 
0.1388312 0.38578236 0.0 1.0742594 0.0 0.029273078 0.72120357 0.0 0.0 0.81089306 0.0 0.0 0.0 0.0 0.0 0.0 
0.0 0.41118976 0.0 1.0038757 0.45442533 0.0 0.68477947 0.0 0.38970363 1.0785899 0.0 0.0 0.0 0.0 0.0 0.0 
0.0 0.42582983 0.0 0.0 0.8719632 0.0 0.0 0.0 0.4464669 1.1055318 0.0 0.0 0.0 0.0 0.0 1.7504394 
0.0 0.36355698 0.033763964 0.0 1.0225022 0.0 0.0 0.0 0.0 1.0657825 0.0 0.0 0.0 0.0 0.054481104 3.5498621 
0.0 0.0 0.8745337 0.0 0.0 0.0 0.0 0.0 0.0 0.3542011 0.0 0.0 0.0 0.0 0.0 1.139313 
0.0 0.0 0.0 0.0 0.0 0.0 3.3397217 1.252091 0.0 0.0 0.0 0.0 0.19546868 0.0 0.0 0.0 
0.0 0.0 0.0 0.0 0.0 0.0 1.297803 0.6125327 1.8298261 0.0 0.0 0.0 0.28597087 0.0 0.0 0.0 
0.0 0.0 0.0 0.0 0.0 0.0 0.0 0.0 4.266655 0.0 0.0 0.0 0.0 0.0 0.0 0.0 
0.0 0.0 0.0 0.2959323 0.0 0.22349432 0.0 0.0 0.7559619 0.0 0.0 0.5866134 0.0 0.0 0.0 0.43213022 
0.0 0.8392357 0.0 1.5952706 0.0 0.0 0.0 0.0 0.0 0.0 0.0 0.70938873 0.0 0.0 0.0 0.79801977 
0.0 0.002866028 0.0 0.0 0.21779987 0.0 0.31587908 0.0 0.0 0.0 0.0 0.0 0.0 0.0 0.0 0.0 
0.28395838 0.20979446 0.30100587 0.0 0.6687842 0.0 0.0 0.0 0.0 0.09736103 0.0 0.0 0.0 0.0 0.0 0.20657462 
0.0 0.5511189 1.3394626 0.0 0.88472587 0.0 0.0 0.0 0.6669533 0.8305031 0.0 0.0 0.0 0.0 0.4846502 2.4672687 
0.0 0.0 1.0469847 0.0 0.0 0.0 0.0 0.0 0.0 0.29455775 0.0 0.0 0.0 0.0 0.0 2.33299 
0.0 0.0 0.0 0.0 0.0 0.0 2.0952203 0.3862307 0.0 0.0 0.0 0.0 0.568117 0.0 0.0 0.0 
0.0 0.0 0.0 0.0 0.0 0.0 2.0998943 1.4027321 0.0 0.0 0.0 0.0 0.0 0.0 0.0 0.0 
0.0 0.0 0.0 0.0 0.0 0.0 0.0 0.0 4.0051847 0.0 0.0 0.0 0.0 0.0 0.0 0.0 
0.039019343 0.16037445 0.0 0.0 0.0 0.0 0.0 0.0 1.371587 0.0 0.0 0.0 0.0 0.0 0.0 1.6071332 
0.11431283 2.6463203 0.0 0.0 0.52219456 0.0 0.0 0.0 0.0 0.0 0.0 0.38749874 0.0 0.0 0.0 1.3878707 
0.52360505 2.0087972 0.0 0.16364056 1.1151093 0.0 0.0 0.0 0.0 0.5176419 0.0 0.37366712 0.0 0.0 0.0 0.07826736 
0.43143573 0.5529691 0.0 0.0 0.33193517 0.0 0.0 0.0 0.0 0.0 0.0 0.0 0.0 0.0 0.0 0.0 
0.525098 1.4602096 0.06284894 0.0 0.5573466 0.0 0.0 0.0 0.0 0.16681668 0.0 0.0 0.0 0.0 0.0 1.1068796 
0.0 1.7465886 0.34689727 0.0 0.1212054 0.0 0.0 0.0 0.0 0.33262813 0.0 0.0 0.0 0.0 0.0 2.2823796 
0.2965822 1.4229046 0.0 0.0 0.0 0.0 0.0 0.79413474 0.0 0.0 0.0 0.0 0.0 0.0 0.0 0.0 
0.64005446 0.23416972 0.0 0.0 0.0 0.0 0.49380732 2.9415598 0.0 0.0 0.0 0.0 0.0 0.0 0.0 0.0 
1.9163114 0.0 0.0 0.0 0.0 0.0 0.0 1.2370365 0.124432236 0.0 0.0 0.0 0.0 0.0 0.0 0.0 
2.5392923 0.0 0.0 0.0 0.0 0.0 0.0 0.0 0.0 0.0 0.0 0.0 0.0 0.0 0.0 0.441932 
2.2231505 0.0 0.0 0.0 0.0 0.0 0.0 0.0 0.0 0.15581916 0.0 0.0 0.0 0.0 0.0 1.1693712 
2.2185378 0.0 0.0 0.0 0.0 0.0 0.0 0.0 0.0 1.1116585 0.0 0.0 0.0 0.0 0.0 0.0 
2.7287395 0.0 0.0 0.0 0.0 0.0 0.0 0.0 0.0 0.95143145 0.0 0.0 0.0 0.0 0.0 0.0 
0.9271632 0.0 0.0 0.0 0.16587284 0.81308955 0.0 0.0 0.0 0.120921955 0.0 0.0 0.0 0.38940942 0.0 0.26647994 
0.5730466 0.0 0.0 0.0 0.0 0.0 0.0 0.0 0.0 0.80976164 0.0 0.0 0.0 0.0 0.0 1.8687174 
0.94565994 0.0 0.0 0.0 0.0 0.0 0.0 0.800064 0.0 0.19313277 0.0 0.0 0.0 0.0 0.0 0.0 
2.1340191 0.0 0.0 0.0 0.0 0.0 0.5105633 3.0749955 0.0 0.54904985 0.0 0.0 0.0 0.0 0.0 0.0 
2.6720486 0.0 0.0 0.0 0.0 0.0 0.0 2.111038 0.0 0.8408288 0.0 0.0 0.0 0.0 0.0 0.0 
2.348002 0.0 0.0 0.0 0.0 0.0 0.0 0.0 0.0 0.46886057 0.0 0.0 0.0 0.82922 0.0 0.0 
1.5329181 0.0 0.0 0.0 0.0 0.0 0.0 0.0 0.0 0.0 0.0 0.0 0.85749096 2.394739 0.0 0.0 
0.33174962 0.0 0.0 0.0 0.0 0.0 0.0 0.0 0.0 0.0 0.0 0.0 1.9634991 2.636515 0.0 0.0 
0.38659436 0.0 0.0 0.0 0.0 0.0 0.0 0.0 0.0 0.0 0.0 0.0 2.651802 3.1054802 0.0 0.0 
0.73223126 0.0 0.0 0.0 0.0 0.0 0.0 0.0 0.0 0.0 0.0 0.0 2.5236816 2.685946 0.0 0.0 
0.0 0.0 0.0 0.0 0.11788782 0.76815236 0.0 0.0 0.0 0.30502746 1.4786433 0.0 0.061649926 0.439541 0.17761238 0.5437646 
0.0 0.0 0.0 0.0 0.0 1.1157653 0.0 0.30337584 0.0 0.18435404 2.4542727 0.0 0.366032 1.3589617 0.0 0.0 
0.0 0.0 0.0 0.0 0.0 0.0 0.24658479 1.8701895 0.0 0.0 3.260312 0.0 0.9288531 2.727497 0.0 0.0 
0.0 0.0 0.0 0.0 0.0 0.0 1.3220805 1.935674 0.0 0.0 2.9208786 0.0 1.1569328 3.4071069 0.0 0.0 
0.0 0.0 0.0 0.0 0.0 0.0 0.0 0.0 0.0 0.0 2.5054095 0.0 1.9878011 3.160145 0.0 0.0 
0.0 0.0 0.0 0.0 0.0 0.0 0.0 0.0 0.0 0.0 2.3919003 0.0 2.7196658 2.4638097 0.0 0.0 
0.0 0.0 0.0 0.0 0.0 0.0 0.0 0.0 0.0 0.0 2.7463772 0.0 3.76943 1.6364069 0.24025874 0.0 
0.0 0.0 0.0 0.0 0.0 0.0 0.0 0.0 0.0 0.0 2.5589473 0.0 3.4105687 1.0574718 1.2361686 0.0 
0.0 0.0 0.0 0.70997995 0.0 0.0 0.0 0.0 0.0 0.0 2.7995155 0.0 2.245966 1.0836599 1.554097 0.0 
0.0 0.0 0.0 3.087855 0.0 0.0 0.0 0.0 0.6504709 0.0 2.469195 0.0 1.231417 0.98007977 1.3626599 0.0 
0.0 0.28174588 0.0 0.0 0.0 0.0 0.0 0.0 0.0 0.0 1.5145036 0.1843774 0.50123036 0.0 0.0 0.0 
0.0 0.6194997 0.0 0.0 0.0 0.46517056 0.0 1.0020958 0.0 0.0 2.5646842 0.0 0.43781954 0.0 0.0 0.0 
0.0 1.1000806 0.0 0.550594 0.0 0.0 0.0 1.5504514 0.0 0.0 3.1892443 0.0 0.7063787 0.18986633 0.46995872 0.0 
0.0 0.65730053 0.0 1.5694188 0.0 0.0 0.0 0.24483769 0.0 0.0 3.5706418 0.0 1.0540935 0.3326834 1.442511 0.0 
0.0 0.38137075 0.0 2.2975566 0.0 0.0 0.0 0.0 0.04715841 0.0 3.6781676 0.0 0.8875606 0.0 1.4051605 0.0 
0.0 1.8767328 0.0 3.1575367 0.0 0.0 0.0 0.0 0.0 0.0 3.4280696 0.0 0.46006763 0.0 0.6964395 0.0 
0.0 3.0714774 0.0 5.0770435 0.0 0.0 0.0 0.0 0.0 0.0 2.8821034 0.0 0.0 0.0 0.20504914 0.0 
0.0 2.8450222 0.0 6.1725316 0.0 0.0 0.0 0.0 0.0 0.0 2.339881 0.0 0.0 0.0 0.30053222 0.0 
0.0 2.0924003 0.0 6.1575217 0.0 0.0 0.0 0.0 0.0 1.0049958 1.3815472 0.0 0.0 0.0 0.51385444 0.0 
0.0 0.63769543 0.0 4.675388 0.0 0.0 0.0 0.0 0.0 1.3310688 0.70790976 0.0 0.0 0.0 0.97039694 1.0964159 

