1.5373919 0.5954127 0.0 0.0 0.0 0.0 0.0 0.011171877 0.0 0.86202675 0.0 0.0 0.0 0.0 0.0 1.197759 
1.7967755 0.0 0.0 0.0 0.0 0.0 0.0 0.0 0.0 1.0906602 0.0 0.0 0.0 0.25658557 0.0 0.7175847 
2.3684149 0.0 0.0 0.0 0.0 0.0 0.0 0.0 0.0 0.45119292 0.0 0.0 0.37177056 1.4905398 0.0 0.0 
2.6199317 0.0 0.0 0.0 0.0 0.0 0.0 0.0 0.0 0.0 0.0 0.0 0.5668221 2.5575712 0.0 0.0 
2.4565613 0.0 0.0 0.0 0.0 0.0 0.0 0.0 0.0 0.0 0.0 0.0 0.14978464 2.8833077 0.0 0.0 
2.1530752 0.0 0.65797174 0.0 0.0 0.0 0.0 0.0 0.0 0.0 0.0 0.0 0.54498905 1.089849 0.0 0.0 
1.5597379 0.0 0.22385982 0.0 0.0 0.0 0.0 0.0 0.0 0.0 0.0 0.2816628 0.9496009 0.0 0.0 0.0 
1.3142226 0.0 0.0 0.0 0.0 0.0 0.0 0.0 0.0 0.0 0.0 1.7141753 0.9709514 0.0 0.0 0.0 
1.0444224 0.0 0.0 0.0 0.0 0.0 0.0 0.0 0.0 0.0 0.0 0.26757547 0.423999 0.0 0.0 0.0 
0.26061207 0.0 0.42249745 0.0 0.0 0.44296372 0.0 0.0 0.0 0.0 0.0 0.0 0.0 0.08675379 0.0 0.0 
0.0 0.0 0.0 0.0 0.0 0.0 0.0 0.0 0.0 0.06473279 0.8544988 0.0 0.5256341 1.5945507 0.0 0.0 
0.0 0.0 0.0 0.0 0.0 0.0 0.0 0.0 0.0 0.0 0.3766091 0.0 1.6123596 1.5187982 0.0 0.0 
0.0 0.0 0.0 0.0 0.0 0.0 0.0 0.0 0.0 0.0 0.0 0.0 2.0560157 1.1744444 0.0 0.0 
0.0 0.0 0.0 0.0 0.0 0.0 0.0 0.0 0.0 0.0 0.0 0.0 1.8099322 0.8307659 0.4305756 0.0 
0.0 0.5639457 0.0 0.0 0.0 0.0 0.0 0.0 0.0 0.0 0.0 0.0 0.98292106 0.89250374 1.7456069 0.0 
0.68069786 0.0 0.0 0.0 0.0 0.0 0.0 0.0 0.0 0.0 0.0 0.0 0.5317955 1.2283355 0.73665756 0.0 
0.50668323 0.0 0.0 0.0 0.0 0.0 0.0 0.0 0.0 0.0 0.3463438 0.0 0.48346066 0.99907935 0.0 0.0 
0.0 0.0 0.0 0.0 0.0 0.0 0.0 0.0 0.0 0.0 0.0 1.2235034 0.734944 0.80951285 0.0 0.0 
0.17482308 0.0 0.17101799 0.0 0.0 0.0 0.0 0.0 0.35125026 0.0 0.0 1.0725287 0.6304428 0.121951036 0.0 0.0 
0.38366893 0.0 0.88434684 0.0 0.0 0.0 0.0 0.0 0.0 0.0 0.0 0.0 0.19920574 0.0 0.0 0.0 
0.0 0.0 0.0 0.0 0.0 0.0 0.0 0.0 0.0 0.0 0.80308527 0.0 0.77179605 0.07623503 0.0 0.0 
0.0 1.2513072 0.0 0.123318136 0.0 0.0 0.0 0.12510233 0.0 0.0 0.29482538 0.0 0.14197467 0.0 0.0 0.0 
0.0 2.9088075 0.0 1.1056815 0.0 0.0 0.0 0.0 0.0 0.0 0.0 0.0 0.0 0.0 0.0 0.0 
0.0 3.539474 0.0 0.0 0.0 0.0 0.0 0.0 0.0 0.0 0.0 0.0 0.0 0.0 0.74125016 0.0 
0.0 2.4282863 0.0 0.0 0.0 0.0 0.0 0.0 0.0 0.52314526 0.0 0.0 0.0 0.0 2.2014182 0.0 
0.0 0.0 0.0 0.0 0.0 0.0 0.0 0.0 0.0 0.0 0.0 0.0 0.0 0.0 2.625755 0.0 
0.0 0.0 0.0 0.0 0.0 0.0 0.0 0.0 0.0 0.0 0.0 0.0 0.3651634 0.0 0.5065399 0.0 
0.0 0.0 0.0 0.0 0.0 0.0 0.0 0.0 0.0 0.0 0.0 0.1894893 0.32930267 0.0 0.0 0.0 
0.0 0.0 0.0 1.5641751 0.0 0.47584957 0.0 0.0 0.0 0.0 0.3430933 1.3549668 0.031931482 0.0 0.0 0.0 
0.0 0.0 0.081117004 0.99184 0.0 0.08068575 0.0 0.0 0.0 0.0 0.6022534 0.25568444 0.0 0.4581298 0.0 0.0 
0.0 1.3162119 0.0 2.058621 0.0 0.0 0.0 0.19231175 0.0 0.6369449 0.76031905 0.0 0.0 0.0 0.0 0.0 
0.0 0.9918581 0.0 1.6839353 0.0 0.0 0.0 0.0 0.0 2.0036027 1.066638 0.0 0.0 0.0 0.0 0.0 
0.0 0.0 0.0 0.0 0.0 0.0 0.0 0.0 0.0 3.0169613 1.4060032 0.0 0.0 0.0 0.0 1.1241318 
0.0 0.0 0.0 0.0 0.0 0.0 0.0 0.0 0.0 2.7563145 0.7061634 0.0 0.0 0.0 0.0 0.14665554 
0.0 0.0 0.0 0.0 0.0 0.0 0.0 0.0 0.0 1.6385038 0.0 0.0 0.0 0.031197965 0.0 0.0 
0.0 0.0 0.0 0.0 0.0 0.0 0.0 0.0 0.0 0.0 0.0 0.0 0.26508242 0.0 0.0 0.0 
0.0 0.0 0.0 0.0 0.0 0.0 0.0 0.0 0.0 0.0 0.0 0.0 0.8010111 0.0 0.0 0.0 
0.0 0.0 0.0 0.0 0.0 0.0 0.0 0.0 0.7020983 0.0 0.0 0.0 0.581539 0.0 0.0 0.0 
0.0 0.0 0.0 0.0 0.0 0.0 0.0 0.0 0.0 0.0 0.0 1.3350286 0.32923657 0.0 0.0 0.0 
0.0 0.0 0.0 0.9328204 0.49804646 0.48104298 0.0 0.0 0.0 0.0 0.0 0.4130728 0.0 0.0 0.0 0.0 
0.0 0.26923972 0.0 0.069521666 0.0 0.0 0.07003596 0.0 0.265017 1.8981378 0.43045038 0.0 0.0 0.0 0.0 0.0 
0.0 0.0 0.0 0.0 0.0 0.11530922 0.0 0.0 0.0 1.5348243 0.80742437 0.0 0.0 0.0 0.0 0.32100025 
0.0 0.0 0.0 0.0 0.0 0.0 0.0 0.0 0.0 0.0 1.310545 0.0 0.4638732 0.28888044 0.0 0.0 
0.0 0.0 0.0 0.0 0.0 0.0 0.0 0.0 0.0 0.0 2.6447651 0.0 1.1224502 0.48146084 0.0 0.0 
0.0 0.0 0.0 0.0 0.0 0.15481311 0.0 0.0 0.0 0.0 2.9501576 0.0 0.84619164 1.6833805 0.056259915 0.0 
0.0 0.0 0.0 0.0 0.0 0.0 0.0 0.0 0.0 0.0 1.6966001 0.0 0.0 3.5139594 0.0 0.0 
0.0 0.0 0.0 0.0 0.0 0.0 0.0 0.0 0.0 0.0 0.0 0.0 0.033365875 2.6028984 0.0 0.0 
0.0 0.0 0.0 0.0 0.0 0.0 0.0 0.0 0.0 0.0 0.0 0.0 0.31329745 0.0 0.0 0.3375346 
0.0 0.0 0.0 0.0 0.0 0.0 0.0 0.0 0.0 0.0 0.0 2.757454 1.0999849 0.0 0.0 0.0 
0.2397473 0.0 0.0 0.0 0.0 0.0 0.0 0.0 0.0 0.0 0.0 1.312907 0.9326405 0.0 0.0 0.0 
0.0 0.17873119 0.0 0.0 0.0 0.0 0.0 0.0 0.0 0.0 0.03706553 0.01396364 0.0 0.0 0.0 0.0 
0.0 0.79536414 0.0 0.0 0.0 0.0 0.0 0.0 0.0 0.0 0.09660716 0.018269286 0.061500147 0.0 0.0 0.0 
0.0 1.8726648 0.0 0.7400513 0.0 0.0 0.0 0.0 0.0 0.0 0.19734061 0.0 0.0 0.0 0.0 0.0 
0.0 2.9421802 0.0 2.843269 0.0 0.0 0.0 0.0 0.0 0.0 1.3013109 0.0 0.0 0.0 0.024342775 0.0 
0.0 2.8480296 0.0 3.7923074 0.0 0.23955196 0.0 0.0 0.0 0.0 1.8100221 0.0 0.0 0.0 0.7807054 0.0 
0.0 1.0090183 0.0 2.583347 0.0 1.0555761 0.0 0.0 0.0 0.0 0.95370984 0.0 0.0 0.11215954 2.3510704 0.0 
0.0 0.0 0.0 1.3281841 0.0 0.0 0.0 0.0 0.0 0.0 0.0 0.0 0.0 1.015317 2.9854174 0.5902933 
0.0 0.0 0.0 0.3694593 0.0 0.0 0.0 0.0 0.0 0.0 0.0 0.0 0.0 0.07482617 0.34020585 0.37357244 
0.0 0.0 0.0 0.0 0.0 0.0 0.0 0.0 0.0 0.0 0.0 1.8461479 0.43366235 0.0 0.0 0.0 
0.09918727 0.0 0.0 0.0 0.0 0.0 0.0 0.0 0.0 0.0 0.0 2.9161355 1.2518126 0.0 0.0 0.0 
0.0628767 0.25226358 0.0 0.0 0.0 0.0 0.07080182 0.0 0.0 0.0 0.0 0.18170822 0.0 0.0 0.0 0.0 
0.45717868 1.2802888 0.0 0.80307966 0.0 0.0 0.0 0.0 0.0 0.067652434 0.0 0.0 0.0 0.0 0.0 0.0 
0.33064574 2.2936563 0.0 1.9519428 0.0 0.0 0.0 0.17754857 0.0 1.5441673 0.0 0.0 0.0 0.0 0.0 0.0 
0.0 2.1486151 0.0 2.4234707 0.0 0.0 0.5014552 0.0 0.0 2.9575295 0.0 0.53016114 0.0 0.0 0.0 0.0 
0.0 1.4069511 0.0 2.067977 1.6193494 0.16820353 0.0 0.0 0.0 2.6247702 0.0 0.28792056 0.0 0.0 0.0 0.0 
0.0 0.46019328 0.0 0.21223336 0.5821663 1.8677695 0.0 0.0 0.0 1.634303 0.0 0.0 0.0 0.0 0.42997646 0.0 
0.0 0.0 1.2909596 0.0 0.0 1.2073605 0.0 0.0 0.0 0.37748855 0.0 0.0 0.0 0.0 3.1437025 0.0 
0.0 0.0 0.0 0.0 0.0 0.0 1.0543861 0.0 0.0 0.0 0.0 0.0 0.0 0.0 2.3229742 0.0 
0.0 0.0 0.0 0.0 0.0 0.0 0.0 0.0 0.0 0.0 0.0 0.0 0.0 0.0 0.0 0.0 
0.0 0.0 0.0 0.0 0.0 0.0 0.0 0.0 0.28882375 0.0 0.0 1.7329975 0.22017424 0.0 0.0 0.0 
0.6012047 0.056089938 0.0 0.0 0.0 0.3499058 0.17752062 0.0 0.0 0.0 0.0 0.0 0.0 0.1020341 0.0 0.0 
1.2055807 0.41516292 0.0 0.0 0.0 0.6550159 0.0 0.0 0.0 0.0 0.0 0.0 0.0 0.64339066 0.0 0.0 
1.1702168 1.2395387 0.8446564 0.0 0.0 0.0 0.0 0.0 0.0 0.603513 0.0 0.0 0.0 0.0 0.0 0.6695515 
1.193516 1.1362816 0.0 0.0 0.0 0.0 0.8775753 0.0 0.0 0.7753053 0.0 0.0 0.0 0.0 0.0 0.0 
1.6478872 0.10841169 0.0 0.0 0.3225695 0.0 0.0 0.0 0.0 1.1069127 0.0 1.3604871 0.0 0.0 0.0 0.0 
0.99050826 0.0 0.0 0.0 0.42869872 0.0 0.0 0.0 0.0 1.5094193 0.0 0.0 0.0 0.0 0.0 0.0 
0.0 0.0 1.9755689 0.0 0.0 0.84446275 0.0 0.0 0.0 0.9779073 0.0 0.0 0.0 0.0 0.041562036 0.0 
0.0 0.0 0.0 0.0 0.0 0.0 2.4855409 0.06738326 0.0 0.0 0.0 0.0 0.0 0.0 1.363103 0.0 
0.0 0.0 0.0 0.0 0.0 0.0 0.0 0.0 0.81479937 0.0 0.0 0.0 0.0 0.0 0.0 0.0 
0.0 0.0 0.0 0.0 0.0 0.0 0.0 0.0 1.9214171 0.0 0.0 0.0 0.0 0.0 0.0 0.0 
0.0649945 0.0 0.0 0.0 0.0 0.08894858 0.0 0.0 0.0 0.0 0.43395552 0.0 0.0 0.1332612 0.0 0.0 
0.099726275 0.0 0.0 0.0 0.0 1.9682057 0.0 0.0 0.0 0.0 0.0 0.0 0.0 1.4964916 0.16478838 0.0 
1.117952 0.0 0.8196356 0.0 0.0 0.0 0.0 0.0 0.0 0.0 0.0 0.0 0.0 2.2839441 0.0 0.0 
1.8589019 0.0 0.0 0.0 0.0 0.0 0.29812378 0.46826017 0.0 0.0 0.0 0.0 0.0 0.81963557 0.0 0.0 
1.4020882 0.0 0.0 0.0 0.0 0.0 0.0 0.0 0.0 0.49158072 0.0 0.0 0.0 0.0 0.0 0.0 
0.7913239 0.0 0.0 0.0 0.0 0.0 0.0 0.0 0.0 0.5220747 0.0 0.56787586 0.45679343 0.0 0.0 0.0 
0.37298045 0.0 1.0019346 0.0 0.0 0.0 0.0 0.0 0.0 0.0 0.0 0.0 0.8365727 0.0 0.0 0.0 
0.0 0.0 0.0 0.0 0.0 0.0 1.074221 1.087244 0.0 0.0 0.0 0.0 0.80531234 0.0 0.0 0.0 
0.0 0.0 0.0 0.0 0.0 0.0 0.0 0.0 3.1961434 0.0 0.03936848 0.0 0.692088 0.0 0.009282768 0.0 
0.0 0.0 0.0 0.0 0.0 0.0 0.0 0.0 1.9596889 0.0 0.5066919 0.0 0.0 0.01317019 0.0 1.0973269 
0.0 0.0 0.0 0.0 0.0 0.0 0.0 0.0 0.094040126 0.0 0.6082291 0.0 0.06597911 0.0 0.0 0.0 
0.0 0.0 0.0 0.0 0.0 1.8202746 0.0 0.0 0.0 0.0 0.83683133 0.0 0.06690283 0.04894285 1.071807 0.0 
0.0 0.0 0.54544014 0.0 0.0 1.5253022 0.0 0.0 0.0 0.0 0.9334773 0.0 0.5504918 2.2848141 1.9834652 0.0 
0.0 0.0 0.0 0.0 0.0 0.0 0.9058049 0.029336408 0.0 0.0 2.9638302 0.0 0.72897065 2.9739885 0.7200934 0.0 
0.0 0.0 0.0 0.0 0.0 0.0 0.0 0.0 0.0 0.0 2.4638278 0.0 0.94187254 1.7231194 0.0 0.0 
0.0 0.0 0.0 0.0 0.0 0.0 0.0 0.0 0.0 0.0 1.5783777 0.041668862 1.6383536 0.5644742 0.0 0.0 
0.0 0.0 0.0 0.0 0.0 0.0 0.0 0.28616667 0.0 0.0 0.7169518 0.0 1.5712011 0.013018213 0.0 0.0 
0.0 0.0 0.0 0.56016713 0.0 0.0 0.0 0.025052004 2.3212612 0.0 0.5797668 0.0 0.64021933 0.18754494 0.0 0.0 
0.0 0.0 0.0 1.0195869 0.0 0.0 0.0 0.0 2.6243145 0.0 0.98097897 0.0 0.0 0.0 0.0 1.0147637 
0.0 0.0 0.0 0.24240011 0.0 0.12281069 0.0 0.0 0.0 0.0 0.6334953 0.0 0.0 0.044253185 0.0 1.6304176 

