0.0 0.0 0.0 0.0 0.0 0.06597078 0.1837406 0.0 0.0 0.0 0.0 0.0 0.0 0.0 0.0 0.0 
0.0 0.0 0.0 0.0 0.73861486 0.011845566 0.0 0.0 0.0 0.0 0.0 0.0 0.0 0.0 0.0 0.0 
0.0 0.13609944 1.2513971 0.0 0.44490898 0.1531915 0.0 0.0 0.14974722 0.115189746 0.0 0.0 0.0 0.0 0.7770936 1.0637519 
0.0 0.0 2.7781484 0.0 0.0 0.0 0.0 0.0 0.0 0.0 0.0 0.0 0.596067 0.0 1.202931 0.0 
0.0 0.0 0.0 0.0 0.0 0.0 3.357158 0.6090981 0.0 0.0 0.0 0.0 1.0949217 0.0 0.6091609 0.0 
0.0 0.0 0.0 0.0 0.0 0.0 0.5895163 0.2877912 0.79560983 0.0 0.0 0.0 0.64537597 0.0 0.0 0.0 
0.0 0.0 0.0 0.0 0.0 0.0 0.0 0.0 2.5169215 0.0 0.16911726 0.044231325 0.0 0.24030715 0.0 0.0 
0.0 0.0 0.07529268 0.19434164 0.0 0.0 0.0 0.0 0.0 0.0 0.29960278 0.5770495 0.26502526 0.0 0.0 0.0 
0.0 0.0 0.0 0.28979346 0.0 0.0 0.023737932 0.0 0.0 0.0 0.09704107 0.27747193 0.23636813 0.0 0.0 0.0386233 
0.0 0.0 0.0 0.0 0.0 0.0 0.0 0.0 0.0 0.0 0.0 0.0 0.0 0.0 0.0 0.0 
0.0 0.0 0.0 0.0 0.0874765 0.18377432 0.23003116 0.0 0.0 0.0 0.07561586 0.0 0.0 0.0 0.0 0.0 
0.0 0.0 0.0 0.0 1.2140256 0.30485725 0.0 0.0 0.0 0.0 0.0 0.0 0.0 0.0 0.0 0.0 
0.0 0.0 1.3637743 0.0 0.21394393 0.3721886 0.0 0.0 0.0 0.0 0.0 0.0 0.0 0.0 0.0 0.82715386 
0.0 0.0 2.4122062 0.0 0.0 0.0 1.0696828 0.40992033 0.0 0.0 0.0 0.0 0.18571451 0.0 0.0 0.0 
0.0 0.0 0.0 0.0 0.0 0.0 4.494916 1.0497087 0.0 0.0 0.0 0.38837108 0.39135373 0.0 0.0 0.0 
0.0 0.0 0.0 0.0 0.0 0.0 0.0 0.0 2.9232132 0.0 0.0 0.23262993 0.3094377 0.0 0.0 0.0 
0.0 0.0 0.0 0.0 0.0 0.30993167 0.0 0.0 1.6627445 0.0 0.1685745 0.0 0.0 0.0 0.0 0.16219991 
0.0 0.0 0.0 0.30997443 0.0 0.0 0.0 0.0 0.0 0.0 0.038009077 0.0 0.0 0.0 0.0 0.28652722 
0.0 0.0 0.0 0.5590633 0.0 0.0 0.0 0.0 0.0 0.0 0.0 0.035342008 0.0 0.0 0.0 0.08763274 
0.0 0.021246301 0.0 0.074852735 0.0 0.0 0.0 0.0 0.0 0.0 0.0 0.0 0.0 0.0 0.0 0.0 
0.0 0.0 0.0 0.0 0.28977132 0.06403181 0.10032669 0.0 0.0 0.0 0.18823907 0.0 0.0 0.0 0.0 0.0 
0.0 0.0 0.0 0.0 1.3504175 0.8578675 0.0 0.0 0.0 0.0 0.0 0.021347642 0.0 0.0 0.0 0.0 
0.0 0.0 2.283108 0.0 0.0 0.9334124 0.0 0.0 0.0 0.0 0.0 0.0 0.0 0.0 0.0 0.2990489 
0.0 0.0 2.0762076 0.0 0.0 0.0 3.099072 1.221283 0.0 0.0 0.0 0.0 0.0 0.0 0.0 0.0 
0.0 0.0 0.0 0.0 0.0 0.0 4.325956 0.0 0.49262604 0.0 0.0 0.496653 0.0 0.0 0.0 0.0 
0.0 0.0 0.0 0.0 0.0 0.0 0.0 0.0 3.7408712 0.0 0.0 0.68010795 0.0 0.0 0.0 0.0 
0.0 0.0 0.14363869 0.0 0.0 0.525257 0.0 0.0 0.7899143 0.0 0.0 0.0 0.0 0.0 0.0 0.12027013 
0.0 0.27406055 0.11647098 0.6496648 0.0 0.0 0.0 0.0 0.0 0.0 0.0 0.05579993 0.0 0.0 0.0 0.9148737 
0.0 0.9827138 0.0 1.0817748 0.41857323 0.0 0.15017779 0.0 0.0 0.0 0.0 0.58648086 0.0 0.0 0.0 0.25067148 
0.0 0.7532782 0.0 0.9052952 0.76685953 0.20350209 0.22136769 0.0 0.0 0.0 0.18965045 0.12768286 0.0 0.04680068 0.0 0.0 
0.0 0.0 0.0 0.0 0.49764937 0.0 0.0 0.0 0.06310406 0.0 0.33152607 0.00087589025 0.0 0.0 0.0 0.0 
0.0 0.0 0.0 0.0 1.1925589 1.1707139 0.0 0.0 0.0 0.0 0.0 0.0013283491 0.0 0.0 0.0 0.0 
0.0 0.0 3.4517481 0.0 0.0 0.9327726 0.0 0.0 0.0 0.0 0.0 0.0 0.0 0.0 0.2983579 0.0 
0.0 0.0 1.7438998 0.15050727 0.0 0.0 4.3331246 0.7944485 0.0 0.0 0.0 0.0 0.0 0.0 0.0 0.0 
0.0 0.0 0.0 0.0 0.0 0.0 2.747097 0.0 1.7401642 0.0 0.0 0.08771804 0.0 0.0 0.0 0.0 
0.0 0.0 0.0 0.0 0.0 0.0 0.0 0.0 3.2187128 0.0 0.0 0.26184484 0.0 0.0 0.0 0.0 
0.0 0.0 1.2536631 0.0 0.0 0.0 0.0 0.0 0.0 0.0 0.0 0.0 0.0 0.0 0.0 0.39201432 
0.047247406 2.081181 0.47279572 0.45816702 0.0 0.0 0.0 0.0 0.0 0.0 0.0 0.3079959 0.0 0.0 0.0 1.5985426 
0.50785875 1.6350031 0.0 0.11556764 0.84989303 0.0 0.5543955 0.0 0.0 0.40334994 0.0 1.719213 0.009035684 0.0 0.0 0.2066706 
0.2473839 0.026135124 0.0 0.48252177 1.6258628 0.28180102 0.0 0.0 0.0 0.3987047 0.0 0.8162637 0.0 0.0 0.0 0.0 
0.0 0.0 0.0 0.0 0.59499 0.0 0.0 0.0 0.028577518 0.0 0.48876914 0.13487673 0.0 0.0 0.0 0.0 
0.0 0.023589086 0.0 0.0 1.0466037 1.4369881 0.0 0.0 0.0 0.0 0.0 0.08489698 0.0 0.0 0.0 0.0 
0.0 0.11967448 3.8619826 0.0 0.0 0.03946109 0.0 0.0 0.0 0.0 0.0 0.0 0.0 0.0 0.0 0.0 
0.0 0.0 1.3819785 0.24811651 0.0 0.0 4.866037 0.24830143 0.0 0.0 0.0 0.0 0.0 0.0 0.0 0.0 
0.0 0.0 0.0 0.0 0.0 0.0 0.79386276 0.0 2.2326052 0.0 0.0 0.27374712 0.0 0.0 0.0 0.0 
0.2745298 0.0 0.0 0.0 0.0 0.52554286 0.0 0.0 1.9553057 0.0 0.0 0.0 0.0 0.06507071 0.0 0.72385776 
0.45417157 0.0 1.9748973 0.0 0.0 0.0 0.0 0.0 0.0 0.0 0.0 0.0 0.0 0.0 0.0 1.2517723 
1.4619819 0.35100067 0.5317723 0.0 0.0 0.0 0.87482536 0.0 0.0 0.08923891 0.0 0.0 0.070604056 0.0 0.0 1.0888895 
1.4459713 0.0 0.0 0.0 0.0 0.0 1.046667 0.0 0.0 0.3040537 0.0 1.5813786 0.35468072 0.0 0.0 0.0 
1.0840073 0.0 0.0 0.0 0.0 0.0 0.0 0.0 0.0 0.10729888 0.0 1.6153554 0.556577 0.0 0.0 0.0 
0.0 0.0 0.0 0.0 0.5932731 0.0 0.0 0.0 0.06773768 0.0 0.7645921 0.17008573 0.0 0.0 0.0 0.0 
0.0 0.0 0.0 0.0 0.7365663 2.4830694 0.0 0.0 0.0 0.0 0.0 0.0 0.0 0.0 0.0 0.0 
0.0 0.0 3.6118538 0.0 0.0 0.0 0.0 0.50074726 0.0 0.0 0.0 0.0 0.0 0.0 0.0 0.0 
0.0 0.0 0.95701253 0.0 0.0 0.0 4.539091 0.0 0.0 0.0 0.0 0.0 0.0 0.0 0.0 0.0 
0.10158929 0.0 0.0 0.0 0.0 0.0 0.0 0.0 1.7470155 0.0 0.0 0.97649896 0.0 0.0 0.0 0.0 
0.0 0.0 0.0 0.0 0.0 0.7424074 0.0 0.0 0.45515978 0.0 0.0 0.0 0.0 0.0 0.0 0.824789 
0.0 0.0 2.4902194 0.0 0.0 0.0 0.0 0.0 0.0 0.0 0.0 0.0 0.0 0.39360777 0.07694961 0.42139295 
1.2169933 0.0 0.0 0.0 0.0 0.0 1.625324 0.030174136 0.0 0.0 0.0 0.0 0.39045018 0.0 0.04732278 0.0 
1.2475325 0.0 0.0 0.0 0.0 0.0 0.5159411 0.2470815 0.0 0.0 0.0 0.22984746 0.51477045 0.0 0.0 0.0 
0.87624544 0.0 0.0 0.0 0.0 0.0 0.0 0.0 0.5852272 0.0 0.0 1.8172457 0.8763257 0.04320007 0.0 0.0 
0.0 0.0 0.0 0.0 0.4531018 0.0 0.0 0.0 0.20230205 0.0 1.0168602 0.12254414 0.0 0.0 0.0 0.0 
0.0 0.0 0.0 0.0 0.24721366 3.0719075 0.0 0.0 0.0 0.0 0.905366 0.0 0.0 0.0 0.0 0.0 
0.0 0.0 2.6761572 0.0 0.0 2.0701265 0.0 0.3699224 0.0 0.0 0.0 0.0 0.0 1.456867 0.0 0.0 
0.0 0.0 0.0 0.0 0.0 0.0 3.188065 0.0 0.0 0.0 0.0 0.0 0.0 0.0 0.0 0.0 
0.0 0.0 0.0 0.0 0.0 0.0 0.0 0.0 0.5483263 0.0 0.0 0.0 0.0 0.0 0.0 0.0 
0.0 0.0 0.0 0.0 0.0 0.0 0.0 0.0 0.0 0.0 0.0 0.067365095 0.0 0.0 0.0 0.0 
0.0 0.0 0.9182827 0.0 0.0 0.0 0.0 0.0 0.0 0.0 0.0 0.0 0.5416311 0.0 0.5999885 0.0 
0.0 0.0 0.0 0.0 0.0 0.0 0.9725383 1.2038585 0.0 0.0 0.0 0.0 0.00685519 0.0 1.2646686 0.0 
0.6488852 0.0 0.0 0.0 0.0 0.0 0.0 0.101220444 0.0 0.0 0.0 0.0 0.6982623 0.0 0.0 0.0 
0.0 0.0 0.0 0.0 0.0 0.0 0.0 0.0 1.9398962 0.0 0.0 0.2895009 0.29689664 0.28364313 0.0 0.0 
0.0 0.0 0.0 0.0 0.23439342 0.0 0.0 0.0 0.11763114 0.0 0.90938026 0.20381683 0.0 0.0 0.0 0.0 
0.0 0.0 0.0 0.0 0.0 1.9642782 0.0 0.0 0.0 0.0 1.2416173 0.0 0.0 0.0 0.0 0.0 
0.0 0.0 1.9279569 0.0 0.0 3.3556988 0.0 0.04140772 0.0 0.0 0.14302509 0.0 0.0 1.8385537 0.78971785 0.0 
0.0 0.0 0.0 0.0 0.0 0.0 1.9999764 0.0 0.0 0.0 1.5970299 0.0 0.0 2.0974784 0.3925547 0.0 
0.0 0.0 0.0 0.0 0.0 0.0 0.0 0.0 0.0 0.0 2.0047722 0.0 0.0 0.3069003 0.0 0.0 
0.0 0.0 0.0 0.0 0.0 0.0 0.0 0.0 0.0 0.0 0.2088354 0.0 0.21690054 0.0 0.0 0.0 
0.0 0.0 0.48174423 0.0 0.0 0.0 0.0 0.15214793 0.0 0.0 0.0 0.0 1.7462934 0.0 0.0 0.0 
0.0 0.0 0.0 0.0 0.0 0.0 0.8100623 0.9904596 0.0 0.0 0.0 0.0 1.2164006 0.0 0.36989272 0.0 
0.0 0.0 0.0 0.0 0.0 0.0 0.0 0.0 1.9904013 0.0 0.0 0.0 0.94115776 0.0 0.32900316 0.0 
0.0 0.0 0.0 0.0 0.0 0.0 0.0 0.0 2.0748208 0.0 0.0 0.0 0.21494661 0.0 0.0 0.0 
0.0 0.091686785 0.0 0.0 0.024532497 0.0 0.0 0.12421267 0.0 0.0 0.57313555 0.3359725 0.0 0.0 0.0 0.0 
0.0 0.5329039 0.0 0.0 0.0 0.2911287 0.0 0.0 0.0 0.0 0.9142285 0.15399387 0.0 0.0 0.0 0.0 
0.0 0.27813244 1.0060021 0.0 0.0 1.7806644 0.0 0.0 0.0 0.0 0.7134808 0.0 0.0 0.0 0.99864596 0.0 
0.0 0.0 0.0 0.0 0.0 0.0 1.0579311 0.0 0.0 0.0 2.538914 0.0 0.116435036 0.6914207 2.2091255 0.0 
0.0 0.0 0.0 0.0 0.0 0.0 0.0 0.0 0.0 0.0 4.6525116 0.0 0.0 0.9865844 0.0 0.0 
0.0 0.0 0.0 0.0 0.0 0.058334336 0.0 0.0 0.0 0.0 4.209615 0.0 0.31460613 1.8276213 0.0 0.0 
0.0 0.0 0.0 0.30016628 0.0 0.0 0.0 0.21691127 0.0 0.0 2.9019058 0.0 1.2272027 1.2936282 0.0 0.0 
0.0 0.0 0.0 1.0451912 0.0 0.0 0.78299224 0.0 0.6597398 0.0 1.7296178 0.0 0.60215825 0.882117 0.0 0.0 
0.0 0.0 0.0 0.5842277 0.0 0.0 0.0 0.0 2.822234 0.0 1.3444878 0.0 0.18922292 0.48094663 0.0 0.0 
0.0 0.0 0.0 0.28931442 0.0 0.0 0.0 0.0 0.9920019 0.0 1.0271618 0.0 0.03399851 0.0 0.0 1.8508258 
0.012712073 0.113151394 0.0 0.0 0.0 0.0 0.07884242 0.14294235 0.0 0.0 0.2818268 0.19690326 0.0 0.0 0.0 0.0 
0.0 0.47230682 0.0 0.0 0.0 0.0 0.0 0.008211568 0.0 0.0 0.56477517 0.30318233 0.0 0.0 0.0 0.0 
0.0 1.1016374 0.0 0.24511516 0.0 0.38841093 0.0 0.0 0.0 0.0 0.0 0.0 0.0 0.0 0.0 0.0 
0.0 1.091797 0.0 0.09305836 0.0 0.0 0.0 0.0 0.0 0.0 0.44786865 0.0 0.0 0.0 0.99522775 0.0 
0.0 0.68178606 0.0 1.1402398 0.0 0.0 0.0 0.0 0.0 0.0 2.1851532 0.0 0.0 0.0 0.8928537 0.0 
0.0 2.0912635 0.0 3.7098203 0.0 0.3579827 0.0 0.0 0.0 0.0 2.7924676 0.0 0.0 0.0 0.03770277 0.0 
0.0 3.1206663 0.0 6.445976 0.0 0.0 0.0 0.0 0.0 0.0 2.4056587 0.0 0.0 0.0 0.0 0.0 
0.0 1.4558172 0.0 5.1447916 0.0 0.0 0.0 0.0 0.7801077 0.0 1.7657665 0.0 0.0 0.0 0.0 0.0 
0.0 0.15557142 0.0 2.6566737 0.0 0.0 0.0 0.0 0.7928629 0.0 1.2550157 0.0 0.0 0.0 0.20377238 2.4131606 
0.0 0.0 0.0 1.3598558 0.4193396 0.22721604 0.0 0.0 0.0 0.0 0.7852016 0.0 0.0 0.0 0.037469566 2.2950304 

