0.37006846 0.0 0.0 0.0 0.6064326 0.27360865 0.0 0.0 0.0 0.0 0.0 0.0 0.0 0.031488843 0.0 0.0 
0.6706174 0.2276959 1.3599935 0.0 0.0 0.0 0.0 0.0 0.0 0.5622032 0.0 0.0 0.0 0.0 0.8021599 1.5818048 
1.2463914 0.0 2.316257 0.0 0.0 0.0 0.0 0.0 0.0 0.58357435 0.0 0.0 0.0 0.1286129 0.87998885 2.6272898 
2.5038714 0.0 0.0 0.0 0.0 0.0 1.5919023 0.0 0.0 0.0 0.0 0.0 0.0650692 1.0584142 0.0 0.0 
2.8393955 0.0 0.0 0.0 0.0 0.0 0.0 0.47876078 0.0 0.0 0.0 0.0 0.0 1.5074939 0.0 0.0 
2.5851486 0.0 0.0 0.0 0.0 0.0 0.0 0.0 0.0 0.0 0.0 0.0 0.21355309 0.0 0.0 0.0 
2.0420249 0.0 0.72263396 0.0 0.0 0.0 0.0 0.0 0.0 0.0 0.0 1.2417327 0.8449615 0.0 0.0 0.0 
1.5293679 0.0 0.0 0.0 0.0 0.0 0.0 0.0 0.0 0.19630766 0.0 2.0194762 0.7122773 0.0 0.0 0.0 
0.69168556 0.0 0.0 0.15347011 0.72232705 1.1199565 0.0 0.0 0.0 0.35944268 0.0 0.86865187 0.0 0.0 0.0 0.0 
0.0 0.0 0.0 0.8883841 1.0112525 1.1714573 0.0 0.0 0.0 0.0 0.25782102 0.0 0.0 0.7938125 0.0 0.0 
0.0 0.0 0.0 0.0 1.0177181 0.62107426 0.0 0.0 0.0 0.0 0.0 0.0 0.0 0.015640154 0.0 0.0 
0.0 0.0 2.2245524 0.0 0.0 0.0 0.0 0.0 0.0 0.5056802 0.0 0.0 0.0 0.0 1.0680786 1.9358692 
0.0 0.0 2.2381961 0.0 0.0 0.0 0.3111555 0.0 0.0 0.0 0.0 0.0 1.3303562 0.0 1.5739236 0.0 
0.0 0.0 0.0 0.0 0.0 0.0 2.7530477 0.09530926 0.0 0.0 0.0 0.0 2.0145369 0.08521045 1.1375058 0.0 
0.80198133 0.0 0.0 0.0 0.0 0.0 0.0 0.0 0.0 0.0 0.0 0.0 1.3614734 3.517188 0.0 0.0 
1.3436646 0.0 0.0 0.0 0.0 0.0 0.0 0.0 0.0 0.0 0.0 0.0 0.0 4.2028947 0.0 0.0 
0.89888585 0.0 0.4449573 0.0 0.0 0.0 0.0 0.0 0.0 0.0 0.0 0.0 0.21898235 1.3294241 0.0 0.0 
1.0085132 0.0 0.0 0.0 0.0 0.0 0.0 0.0 0.0 0.0 0.0 2.4240453 1.6365707 0.0 0.0 0.0 
1.2614086 0.0 0.0 0.0 0.0 0.0 0.0 0.0 0.0 0.0 0.0 3.286139 1.3486571 0.0 0.0 0.0 
0.9216698 0.0 0.0 0.0 0.0 0.7595903 0.0 0.0 0.0 0.0 0.0 1.0412992 0.2962715 0.0 0.0 0.0 
0.0 0.0 0.0 0.0 1.4371101 1.2491424 0.0 0.0 0.0 0.0 0.0 0.0 0.0 0.0 0.0 0.0 
0.0 0.0 2.4087923 0.0 0.0 0.052650064 0.0 0.0 0.0 0.0 0.0 0.0 0.0 0.0 0.08259572 0.4925955 
0.0 0.0 1.81099 0.0 0.0 0.0 1.8185983 1.0930357 0.0 0.0 0.0 0.0 1.1589426 0.0 0.0 0.0 
0.0 0.0 0.0 0.0 0.0 0.0 2.7598133 0.58949995 0.0 0.0 0.0 0.20912513 1.5131356 0.0 0.25624502 0.0 
0.0 0.0 0.0 0.0 0.0 0.0 0.0 0.0 2.5212603 0.0 0.0 0.0 1.1863806 0.0 1.5522981 0.0 
0.0 0.0 0.0 0.0 0.0 1.5646148 0.0 0.0 0.0 0.0 0.6568417 0.0 0.0 3.5230563 1.817315 0.0 
0.0 0.0 0.0 0.0 0.0 0.0 0.0 0.0 0.0 0.0 0.0 0.0 0.0 3.3215945 0.46570802 0.0 
0.0 0.0 0.0 0.0 0.0 0.0 0.0 0.0 0.0 0.0 0.0 0.0 0.25390047 0.0 0.0 0.0 
0.0 0.0 0.0 0.0 0.0 0.0 0.0 0.0 0.0 0.0 0.0 4.2009773 1.8203436 0.0 0.0 0.0 
0.8132882 0.0 0.0 0.0 0.0 0.0 0.0 0.0 0.0 0.0 0.0 3.3954108 1.5301651 0.0 0.0 0.0 
0.0 0.0 0.0 0.0 1.4180325 1.8666544 0.0 0.0 0.0 0.0 0.17928372 0.13102117 0.0 0.0 0.0 0.0 
0.0 0.0 2.7736127 0.0 0.0 0.9863582 0.0 0.1833577 0.0 0.0 0.0 0.0 0.0 0.0 0.0 0.0 
0.0 0.0 0.691864 0.88682383 0.0 0.0 4.22738 1.8627424 0.0 0.0 0.0 0.0 0.0 0.0 0.0 0.0 
0.0 0.0 0.0 0.0 0.0 0.0 3.3983698 0.0 1.4341729 0.0 0.0 0.8515817 0.0 0.0 0.0 0.0 
0.0 0.0 0.0 0.0 0.0 0.0 0.0 0.0 3.0691879 0.0 0.0 1.1811279 0.0 0.0 0.0 0.0 
0.0 0.0 0.0 0.0 0.0 3.6509643 0.0 0.0 0.0 0.0 0.0 0.0 0.0 0.0 1.8476943 0.0 
0.0 0.0 0.30343843 0.0 0.0 0.8926604 0.0 0.0 0.0 0.0 0.0 0.0 0.0 0.8015392 4.6905885 0.0 
0.0 0.0 0.0 0.09010428 0.0 0.0 0.0 0.0 0.0 0.0 0.0 0.0 0.0 0.0 1.897681 0.0 
0.0 0.0 0.0 0.0 0.0 0.0 0.0 0.0 0.0 0.0 0.0 1.1074702 0.1669807 0.0 0.0 0.0 
0.0 0.0 0.0 0.0 0.0 0.0 0.0 0.0 0.0 0.0 0.0 4.638436 1.7368826 0.0 0.0 0.0 
0.0 0.089587845 0.0 0.0 1.2522788 2.0398333 0.0 0.0 0.0 0.0 0.0 0.069446996 0.0 0.0 0.0 0.0 
0.0 0.26166865 4.044558 0.0 0.0 1.1769204 0.0 0.12376149 0.0 0.23486787 0.0 0.0 0.0 0.0 0.20077588 0.0 
0.0 0.0 2.1227248 1.0592055 0.0 0.0 5.0841274 1.3066468 0.0 0.0 0.0 0.0 0.0 0.0 0.0 0.0 
0.0 0.0 0.0 0.0 0.0 0.0 3.2824037 0.0 1.7914579 0.0 0.0 0.7371106 0.0 0.0 0.0 0.0 
0.0 0.0 0.0 0.0 0.0 0.0 0.0 0.0 2.8643725 0.0 0.0 2.0037432 0.0 0.0 0.0 0.0 
0.0 0.0 0.0 0.0 0.0 2.6866345 0.0 0.0 0.0 0.0 0.0 0.0 0.0 0.0 0.0 0.0 
0.0 0.0 3.856222 0.0 0.0 2.6130986 0.0 0.0 0.0 0.0 0.0 0.0 0.0 0.0 2.8877842 0.0 
0.0 0.0 2.0817635 0.1854747 0.0 0.0 0.86738497 0.0 0.0 0.0 0.0 0.0 0.0 0.0 3.7586043 0.0 
0.0 0.0 0.0 0.0 0.0 0.0 0.6871185 0.0 0.0 0.0 0.0 0.0 0.0 0.0 0.0 0.0 
0.0 0.0 0.0 0.0 0.0 0.0 0.0 0.0 0.27241886 0.0 0.0 2.8014433 0.34553075 0.0 0.0 0.0 
0.0 0.0 0.0 0.0 1.0723805 2.5263143 0.0 0.0 0.0 0.0 0.6305048 0.0 0.0 0.0 0.0 0.0 
0.0 0.0 4.3609138 0.0 0.0 1.6096096 0.0 0.0 0.0 0.17838298 0.0 0.0 0.0 0.0 0.0 0.0 
0.0 0.0 3.4730494 0.10837671 0.0 0.0 4.4989285 1.1995156 0.0 0.0 0.0 0.0 0.0 0.0 0.0 0.0 
0.0 0.0 0.0 0.0 0.0 0.0 2.5080855 0.0 2.2375855 0.0 0.0 0.0 0.0 0.0 0.0 0.0 
0.0 0.0 0.0 0.0 0.0 0.0 0.0 0.0 2.8526368 0.0 0.0 2.808524 0.0 0.0 0.0 0.0 
0.0 0.0 0.0 0.0 0.48109907 1.8220689 0.0 0.0 0.0 0.0 0.0 1.3146747 0.0 0.0 0.0 0.0 
0.0 0.0 4.487641 0.0 0.0 2.9870012 0.0 0.0 0.0 0.032542985 0.0 0.0 0.0 0.0 0.0 0.0 
0.0 0.0 4.3141007 0.39977232 0.0 0.0 2.911869 0.0 0.0 0.0 0.0 0.0 0.0 0.0 2.129709 0.0 
0.0 0.0 0.0 0.0 0.0 0.0 3.6093142 0.0 0.0 0.0 0.0 0.0 0.0 0.0 0.0 0.0 
0.0 0.0 0.0 0.0 0.0 0.0 0.0 0.0 1.7670786 0.0 0.0 0.52611434 0.0 0.0 0.0 0.0 
0.0 0.0 0.0 0.0 0.8261627 2.5085015 0.0 0.0 0.0 0.0 1.4712476 0.0 0.0 0.0 0.0 0.0 
0.0 0.0 3.239898 0.0 0.0 3.4207842 0.0 0.0 0.0 0.0 0.0 0.0 0.0 1.0354754 0.0 0.0 
0.0 0.0 3.2902746 0.0 0.0 0.0 3.3680182 1.284412 0.0 0.0 0.0 0.0 0.0 0.06441314 0.0 0.0 
0.0 0.0 0.0 0.0 0.0 0.0 1.5925869 0.0 1.6012896 0.0 0.0 0.0 0.0 0.0 0.0 0.0 
0.096243545 0.0 0.0 0.0 0.0 0.0 0.0 0.0 1.6266935 0.0 0.0 2.823825 0.0 0.0 0.0 0.0 
0.03440162 0.0 0.0 0.0 0.6548877 0.0 0.0 0.0 0.0 0.0 0.0 2.4402103 0.0 0.0 0.0 0.0 
0.0 0.0 3.2720232 0.0 0.0 1.4797812 0.0 0.0 0.0 0.7127122 0.0 0.0 0.0 0.0 0.0 0.0 
0.0 0.0 2.807662 0.0 0.0 0.0 3.0291896 0.5814616 0.0 0.39816332 0.0 0.0 0.0 0.0 0.41332644 0.0 
0.0 0.0 0.0 0.0 0.0 0.0 3.6256158 0.0 0.0 0.0 0.0 0.0 0.0 0.0 0.0 0.0 
0.0 0.0 0.0 0.0 0.0 0.0 0.0 0.0 3.0047517 0.0 0.0 0.0 0.0 0.0 0.0 0.0 
0.0 0.0 0.0 0.0 0.2624056 1.4934409 0.0 0.0 0.0 0.0 1.6579309 0.21083528 0.0 0.0 0.0 0.0 
0.0 0.0 1.8175551 0.0 0.0 4.372241 0.0 0.0 0.0 0.0 0.0 0.0 0.0 0.92161894 0.0 0.0 
0.0 0.0 2.3927288 0.0 0.0 0.0 2.1923375 0.33962554 0.0 0.0 0.0 0.0 0.0 2.3630564 0.2848869 0.0 
0.43758348 0.0 0.0 0.0 0.0 0.0 0.120505825 0.0 0.0 0.0 0.0 0.0 0.0 0.41634956 0.0 0.0 
0.96589404 0.0 0.0 0.0 0.0 0.0 0.0 0.0 0.0 0.0 0.0 0.0 0.0 0.0 0.0 0.1475714 
1.1996105 0.0 0.0 0.0 0.0 0.0 0.0 0.0 0.0 0.13430795 0.0 1.980214 0.0 0.0 0.0 0.0 
0.88021976 0.0 0.9837755 0.0 0.0 0.0 0.0 0.0 0.0 0.7452327 0.0 0.0 0.06529234 0.0 0.0 0.0 
0.0 0.0 0.96210706 0.0 0.0 0.0 1.7182356 2.095275 0.0 0.0 0.0 0.0 0.2449737 0.0 0.0 0.0 
0.0 0.0 0.0 0.0 0.0 0.0 0.947093 0.41733736 1.2479402 0.0 0.0 0.0 0.43105048 0.0 0.0 0.0 
0.0 0.0 0.0 0.0 0.0 0.0 0.0 0.0 3.9550014 0.0 0.0 0.0 0.0 0.0 0.0 0.0 
0.0 0.27773777 0.0 0.0 0.19847319 0.10270654 0.0 0.0 0.0 0.0 1.4557464 0.33573484 0.0 0.0 0.0 0.0 
0.0 0.0 0.3282082 0.0 0.0 3.22719 0.0 0.0 0.0 0.3407769 0.7420995 0.0 0.0 0.0 0.048464596 0.0 
0.0 0.0 1.7409017 0.0 0.0 1.9126251 0.98382384 0.0 0.0 0.0 0.6827518 0.0 0.0 2.0754814 2.275071 0.0 
0.0 0.0 0.0 0.0 0.0 0.0 0.0 0.0 0.0 0.0 2.5170343 0.0 0.0 2.8219914 1.7626312 0.0 
0.0 0.0 0.0 0.0 0.0 0.0 0.0 0.0 0.0 0.0 2.0701604 0.0 0.0 1.9906372 0.0 0.0 
0.0 0.0 0.0 0.0 0.0 0.0 0.0 0.0 0.0 0.0 0.48879513 0.0 1.3272672 0.0 0.0 0.0 
0.0 0.0 0.0 0.0 0.0 0.0 0.0 0.38532078 0.0 0.0 0.0 0.0 2.5203161 0.0 0.0 0.0 
0.0 0.0 0.4284131 0.0 0.0 0.0 1.1034538 1.7257884 0.0 0.0 0.0 0.0 1.9878356 0.0 0.0 0.0 
0.0 0.0 0.0 0.0 0.0 0.0 0.0 0.0 4.177152 0.0 0.0 0.0 1.0736213 0.0 0.0 0.0 
0.0 0.0 0.0 0.0 0.0 0.0 0.0 0.0 3.284797 0.0 0.54430073 0.0 0.0 0.004648924 0.0 0.6972037 
0.0 0.25742245 0.0 0.0 0.098160855 0.0 0.0 0.0 0.0 0.0 0.81648463 0.35010538 0.0 0.0 0.0 0.0 
0.0 0.6084039 0.0 0.0 0.0 0.87796295 0.0 0.0 0.0 0.0 0.584629 0.0 0.0 0.0 0.0 0.0 
0.0 0.0 0.9272023 0.0 0.0 1.5234582 0.0 0.0 0.0 0.0 1.1109133 0.0 0.29329818 0.0 1.9162626 0.0 
0.0 0.0 0.0 0.0 0.0 0.0 0.024450542 0.0 0.0 0.0 3.0440145 0.0 0.8735047 0.71902686 3.4163089 0.0 
0.0 0.0 0.0 0.0 0.0 0.0 0.0 0.0 0.0 0.0 5.0791936 0.0 1.2808263 1.1414782 1.574069 0.0 
0.0 0.0 0.0 0.0 0.0 0.0 0.0 0.0 0.0 0.0 5.0774536 0.0 1.2322186 1.0581095 0.0 0.0 
0.0 0.0 0.0 2.0784416 0.0 0.0 0.0 0.43104768 0.0 0.0 3.5651834 0.0 1.2946118 0.7911716 0.0 0.0 
0.0 0.0 0.0 2.9099607 0.0 0.0 0.35202774 0.0 1.75252 0.0 2.1878304 0.0 0.63899815 0.680889 0.0 0.0 
0.0 0.0 0.0 1.6069791 0.0 0.0 0.0 0.0 3.3196642 0.0 1.5610601 0.0 0.0 0.39425278 0.0 0.4574073 
0.0 0.0 0.0 0.409331 0.0 0.0 0.0 0.0 0.55680126 0.0 0.95984167 0.0 0.0 0.0 0.0 2.3931708 

