0.0 0.0 0.0 0.0 0.0 0.0 0.0 0.0 0.0 0.0 0.0 0.0 0.0 0.0 0.0 0.0 
0.0 0.0 0.0 0.0 0.0 0.0 0.0 0.0 0.0 0.0 0.0 0.0 0.0 0.0 0.0 0.0 
0.0 0.0 0.0 0.0 0.0 0.0 0.14388089 0.0 0.0 0.0 0.0 0.0 0.0 0.0 0.0 0.0 
0.21761294 0.0 0.0 0.0 0.38854194 0.12415755 0.0 0.0 0.0 0.0 0.0 0.0 0.0 0.0 0.0 0.0 
0.62306577 0.13596177 1.3919907 0.0 0.10972572 0.43954152 0.0 0.0 0.0 0.0 0.0 0.0 0.0 0.3134299 0.60812336 0.7906656 
0.9864189 0.0 2.4406464 0.0 0.0 0.0 0.0 0.0 0.0 0.10976082 0.0 0.0 0.0 0.0 0.18541054 1.5866946 
0.76165545 0.0 0.0 0.0 0.0 0.0 2.3014557 0.0 0.0 0.1444668 0.0 0.5727575 0.35605532 0.0 0.0 0.0 
0.6497704 0.0 0.0 0.0 0.0 0.0 0.026388178 0.0 0.0 0.0 0.0 1.9957684 0.7520165 0.0 0.0 0.0 
0.65213335 0.0 0.011492681 0.0 0.0 0.0 0.0 0.0 0.34749237 0.0 0.0 0.62248385 0.3323605 0.0 0.0 0.0 
0.40953395 0.0 0.89119226 0.0 0.0 0.2584667 0.0 0.0 0.0 0.0 0.0 0.0 0.0 0.018364817 0.0 0.0 
0.0 0.0 0.0 0.0 0.0 0.0 0.0 0.0 0.0 0.0 0.0 0.0 0.0 0.0 0.0 0.0 
0.0 0.0 0.0 0.0 0.0 0.0 0.0 0.0 0.0 0.0 0.0 0.0 0.0 0.0 0.0 0.0 
0.046419475 0.0 0.0 0.0 0.032161422 0.157597 0.24917112 0.0 0.0 0.0 0.023717107 0.0 0.0 0.0 0.0 0.0 
0.001227364 0.0 0.0 0.0 0.80848575 0.21265694 0.0 0.0 0.0 0.0 0.0 0.0 0.0 0.0 0.0 0.0 
0.0 0.0 2.2551346 0.0 0.0 0.4803719 0.0 0.0 0.0 0.0628666 0.0 0.0 0.0 0.0 1.1462872 1.11983 
0.0 0.0 3.0962157 0.0 0.0 0.0 0.49283803 0.0 0.0 0.0 0.0 0.0 0.46113402 0.0 1.3324385 0.0019036448 
0.3420665 0.0 0.0 0.0 0.0 0.0 3.6101646 0.0 0.0 0.0 0.0 0.023084417 0.8496351 0.0 0.0 0.0 
0.3438675 0.0 0.0 0.0 0.0 0.0 0.0 0.0 0.909469 0.0 0.0 1.590648 0.6058958 0.0 0.0 0.0 
0.19077867 0.0 0.012962703 0.0 0.0 0.0 0.0 0.0 1.2591965 0.0 0.0 1.0665684 0.10066974 0.18591338 0.0 0.0 
0.13378341 0.0 0.90213746 0.0 0.0 0.0 0.0 0.0 0.0 0.0 0.0 0.028713562 0.012836464 0.0 0.0 0.0 
0.0 0.0 0.0 0.0 0.0 0.0 0.0 0.0 0.0 0.0 0.0 0.0 0.0 0.0 0.0 0.0 
0.0 0.0 0.0 0.0016224869 0.0 0.0 0.0 0.0 0.0 0.0 0.0 0.0 0.0 0.0 0.0 0.0 
0.0 0.0 0.0 0.0 0.24892333 0.13587788 0.1708147 0.0 0.0 0.0 0.10775657 0.0 0.0 0.0 0.0 0.0 
0.0 0.0 0.0 0.0 1.4031534 0.5333323 0.0 0.0 0.0 0.0 0.0 0.0 0.0 0.0 0.0 0.0 
0.0 0.0 2.9285092 0.0 0.0 1.0030792 0.0 0.0 0.0 0.0 0.0 0.0 0.0 0.0 0.7618063 0.7097372 
0.0 0.0 3.4425738 0.0 0.0 0.0 2.030739 0.17216004 0.0 0.0 0.0 0.0 0.38591307 0.0 1.3490292 0.0 
0.0 0.0 0.0 0.0 0.0 0.0 4.340477 0.0 0.0 0.0 0.0 0.0 0.6880871 0.0 0.0 0.0 
0.0 0.0 0.0 0.0 0.0 0.0 0.0 0.0 3.0325208 0.0 0.0 0.69480574 0.3020401 0.0 0.0 0.0 
0.0 0.0 0.0 0.0 0.0 0.24325967 0.0 0.0 0.77358127 0.0 0.0 0.7749742 0.098431036 0.0030306503 0.0 0.0 
0.0 0.0 0.1683545 0.021098131 0.0 0.0 0.0 0.0 0.0 0.0 0.0 0.37814963 0.19153167 0.0 0.0 0.0 
0.0 0.0 0.0 0.0 0.0 0.0 0.0 0.0 0.0 0.0 0.0 0.0 0.0 0.0 0.0 0.0 
0.0 0.0 0.0 0.0 0.0 0.0 0.081422694 0.0 0.0 0.0 0.0 0.0 0.0 0.0 0.0 0.0 
0.0 0.0 0.0 0.0 0.642174 0.0 0.0 0.0 0.0 0.0 0.036101945 0.0 0.0 0.0 0.0 0.0 
0.0 0.0 0.0 0.0 1.338284 0.5153837 0.0 0.0 0.0 0.0 0.0 0.0 0.0 0.0 0.0 0.30697232 
0.0 0.0 3.3253074 0.0 0.0 0.9018257 0.0 0.0 0.0 0.0 0.0 0.0 0.0 0.0 0.24672072 0.26350713 
0.0 0.0 2.4066129 0.0 0.0 0.0 3.8486383 0.95616835 0.0 0.0 0.0 0.0 0.27790236 0.0 0.31930435 0.0 
0.0 0.0 0.0 0.0 0.0 0.0 3.7525842 0.0 0.63299507 0.0 0.0 0.0 0.4830035 0.0 0.0 0.0 
0.0 0.0 0.0 0.0 0.0 0.0 0.0 0.0 3.5963132 0.0 0.0 0.07661119 0.0 0.0 0.0 0.0 
0.0 0.0 0.0 0.0 0.0 0.3328304 0.0 0.0 0.0 0.0 0.0 0.5112816 0.10080847 0.0 0.0 0.0 
0.0 0.0 0.0 0.004470963 0.0 0.0 0.0 0.0 0.0 0.0 0.0 0.19711185 0.16385937 0.0 0.0 0.0 
0.0 0.0 0.0 0.0 0.0 0.0 0.0 0.0 0.0 0.0 0.0 0.0 0.0 0.0 0.0 0.0 
0.0 0.0 0.0 0.0 0.0 0.08220482 0.19501008 0.0 0.0 0.0 0.0 0.0 0.0 0.0 0.0 0.0 
0.0 0.0 0.0 0.0 0.97559106 0.0 0.0 0.0 0.0 0.0 0.0 0.043070957 0.0 0.0 0.0 0.0 
0.0 0.2703231 0.010365859 0.0 1.0225072 0.49919438 0.0 0.0 0.0 0.026851516 0.0 0.0 0.0 0.0 0.0 0.5953151 
0.0 0.059968777 3.8159363 0.0 0.0 0.0 0.0 0.0 0.0 0.0 0.0 0.0 0.0 0.0 0.0 0.0 
0.0 0.0 0.8418228 0.0 0.0 0.0 4.941021 1.3517165 0.0 0.0 0.0 0.0 0.26780874 0.0 0.0 0.0 
0.0 0.0 0.0 0.0 0.0 0.0 1.9142175 0.0 2.0368807 0.0 0.0 0.0 0.104762524 0.0 0.0 0.0 
0.0 0.0 0.0 0.0 0.0 0.0 0.0 0.0 3.2610397 0.0 0.0 0.0 0.0 0.0 0.0 0.0 
0.0 0.0 0.0 0.0 0.0 0.31954387 0.0 0.0 0.0 0.0 0.13804565 0.51233923 0.0 0.0 0.0 0.0 
0.0 0.0 0.0 0.23722355 0.0 0.0 0.0 0.0 0.0 0.0 0.0 0.28614163 0.19074838 0.0 0.0 0.08665004 
0.0 0.0 0.0 0.0 0.0 0.0 0.0 0.0 0.0 0.0 0.0 0.0 0.0 0.0 0.0 0.0 
0.0 0.0 0.0 0.0 0.10147876 0.19228029 0.214372 0.0 0.0 0.0 0.08630158 0.0 0.0 0.0 0.0 0.0 
0.0 0.0 0.0 0.0 1.287647 0.0 0.0 0.0 0.0 0.0 0.0 0.070128605 0.0 0.0 0.0 0.0 
0.0 0.0 0.9777423 0.0 0.4807241 0.72152853 0.0 0.0 0.0 0.17921013 0.0 0.0 0.0 0.0 0.0 0.78800166 
0.0 0.0 3.5396411 0.0 0.0 0.0 0.9670066 0.32537818 0.0 0.24959362 0.0 0.0 0.0 0.0 0.0 0.0 
0.0 0.0 0.0 0.0 0.0 0.0 5.4714303 1.1897854 0.0 0.0 0.0 0.0 0.07490884 0.0 0.0 0.0 
0.0 0.0 0.0 0.0 0.0 0.0 0.0 0.0 3.2444267 0.0 0.0 0.0 0.01905331 0.0 0.0 0.0 
0.0 0.0 0.0 0.0 0.0 0.29545814 0.0 0.0 2.3535595 0.0 0.0 0.0 0.0 0.0 0.0 0.048030566 
0.0 0.0 0.0 0.0 0.0 0.2016831 0.0 0.0 0.0 0.0 0.0 0.047851086 0.0 0.0 0.0 0.0 
0.0 0.0 0.0 0.34639496 0.0 0.0 0.0 0.0 0.0 0.0 0.0 0.123382434 0.05580423 0.0 0.0 0.10043626 
0.0 0.0 0.0 0.0 0.0 0.0 0.0 0.0 0.0 0.0 0.0 0.0 0.0 0.0 0.0 0.0 
0.0 0.0 0.0 0.0 0.29803833 0.05222848 0.048657604 0.0 0.0 0.0 0.14635845 0.0 0.0 0.0 0.0 0.0 
0.0 0.0 0.0 0.0 1.4346147 0.45446944 0.0 0.0 0.0 0.0 0.0 0.012524538 0.0 0.0 0.0 0.0 
0.0 0.0 1.9755374 0.0 0.0 0.8143147 0.0 0.0 0.0 0.043740217 0.0 0.0 0.0 0.0 0.0 0.46024668 
0.0 0.0 2.781999 0.0 0.0 0.0 2.6771066 1.0397323 0.0 0.007954322 0.0 0.0 0.0 0.0 0.0 0.0 
0.0 0.0 0.0 0.0 0.0 0.0 5.0041437 0.5898475 0.0 0.0 0.0 0.07196361 0.0 0.0 0.0 0.0 
0.0 0.0 0.0 0.0 0.0 0.0 0.0 0.0 3.8798792 0.0 0.0 0.093232244 0.037409857 0.0 0.0 0.0 
0.0 0.0 0.0 0.0 0.0 0.6953587 0.0 0.0 1.1347001 0.0 0.097598866 0.0 0.0 0.044482186 0.0 0.0 
0.0 0.0 0.0 0.0 0.0 0.0 0.0 0.0 0.0 0.0 0.0 0.034448363 0.09702733 0.0 0.0 0.05390043 
0.0 0.02315004 0.0 0.27527925 0.0 0.0 0.0 0.0 0.0 0.0 0.0 0.0 0.0 0.0 0.0 0.0 
0.0 0.0 0.0 0.0 0.0 0.0 0.0 0.0 0.0 0.0 0.0 0.0 0.0 0.0 0.0 0.0 
0.0 0.0 0.0 0.0 0.43837678 0.0 0.0 0.0 0.0 0.0 0.32363608 0.020712987 0.0 0.0 0.0 0.0 
0.0 0.0 0.0 0.0 1.1902534 1.2160239 0.0 0.0 0.0 0.0 0.0 0.07398903 0.0 0.0 0.0 0.0 
0.0 0.118542194 2.714994 0.0 0.0 0.57906336 0.0 0.069581896 0.0 0.0 0.0 0.0 0.0 0.0 0.0 0.0 
0.0 0.0 1.7053673 0.0 0.0 0.0 3.6584563 1.5312179 0.0 0.0 0.0 0.0 0.0 0.0 0.0 0.0 
0.0 0.0 0.0 0.0 0.0 0.0 3.295462 0.0 0.8008836 0.0 0.0 0.0 0.0 0.0 0.0 0.0 
0.0 0.0 0.0 0.0 0.0 0.0 0.0 0.0 3.2664523 0.0 0.0 0.0 0.0 0.0 0.0 0.0 
0.0 0.0 0.0 0.0 0.0 0.6610819 0.0 0.0 0.0 0.0 0.052149773 0.23016891 0.0 0.0 0.0 0.0 
0.0 0.0 0.0 0.16799252 0.0 0.0 0.0 0.0 0.0 0.0 0.0 0.19916826 0.16692886 0.0 0.0 0.18627854 
0.0 0.0 0.0 0.087425075 0.0 0.0 0.0 0.0 0.0 0.0 0.0 0.0 0.0 0.0 0.0 0.0 
0.0 0.0 0.0 0.0 0.0 0.0 0.0 0.0 0.0 0.0 0.0 0.0 0.0 0.0 0.0 0.0 
0.0 0.0 0.0 0.0 0.5108987 0.0 0.0 0.0 0.18123752 0.0 0.75459963 0.03358998 0.0 0.0 0.0 0.0 
0.0 0.0 0.0 0.0 0.7254294 2.0908473 0.0 0.0 0.0 0.0 0.49508724 0.0 0.0 0.0 0.0 0.0 
0.0 0.0 2.2836702 0.0 0.0 1.2163472 0.0 0.5331966 0.0 0.14245895 0.0 0.0 0.0 0.0 0.0 0.0 
0.0 0.0 1.006402 0.0 0.0 0.0 4.195613 1.8574836 0.0 0.0 0.0 0.0 0.0 0.0 0.0 0.0 
0.0 0.0 0.0 0.0 0.0 0.0 1.3249445 0.0 1.6267004 0.0 0.0 0.0 0.0 0.0 0.0 0.0 
0.0 0.0 0.0 0.0 0.0 0.0 0.0 0.0 2.5526798 0.0 0.0 0.0 0.0 0.0 0.0 0.0 
0.0 0.0 0.0 0.0 0.0 0.33206198 0.0 0.0 0.0 0.0 0.0 0.13057223 0.0173027 0.0 0.0 0.0 
0.0 0.0 0.0 0.25993687 0.0 0.0 0.0 0.0 0.0 0.0 0.0 0.06220402 0.06579724 0.0 0.0 0.13753757 
0.0 0.0 0.0 0.0002127476 0.0 0.0 0.0 0.0 0.0 0.0 0.0 0.0 0.0 0.0 0.0 0.0 
0.0 0.0 0.0 0.0 0.0 0.0 0.0 0.0 0.0 0.0 0.0 0.0 0.0 0.0 0.0 0.0 
0.0 0.0 0.0 0.0 0.39738393 0.0 0.0 0.0 0.2919386 0.0 1.0623902 0.05308658 0.0 0.0 0.0 0.0 
0.0 0.0 0.0 0.0 0.20526057 1.9427302 0.0 0.0 0.0 0.0 1.6295587 0.0 0.0 0.0 0.0 0.0 
0.0 0.0 1.6340609 0.0 0.0 2.098942 0.0 0.8353757 0.0 0.0 0.742366 0.0 0.0 1.1286627 0.0 0.0 
0.0 0.0 0.45524663 0.4946121 0.0 0.0 3.9482975 1.2796434 0.0 0.0 1.3767126 0.0 0.0 1.2018061 0.0 0.0 
0.0 0.0 0.0 0.0 0.0 0.0 0.0 0.0 2.5219433 0.0 0.7317667 0.0 0.0 0.17506552 0.0 0.0 
0.0 0.0 0.0 0.0 0.0 0.0 0.0 0.0 2.0978987 0.0 0.28410202 0.0 0.0 0.0 0.0 0.4839594 
0.0 0.0 0.0 0.0 0.0 0.0 0.0 0.0 0.0 0.0 0.0 0.21463084 0.3941697 0.0 0.0 0.1364854 
0.0 0.0 0.0 0.27754492 0.0 0.0 0.0 0.0 0.0 0.0 0.0 0.017028987 0.03927783 0.0 0.0 0.039414432 
0.0 0.0 0.0 0.0 0.0 0.0 0.0 0.0 0.0 0.0 0.0 0.0 0.0 0.0 0.0 0.0 

