0.0 0.0 0.0 0.0 0.0 0.0 0.11498389 0.0 0.0 0.0 0.0 0.0 0.0 0.0 0.0 0.0 
0.0 0.102753244 0.0 0.0 0.17970413 0.0 0.0788685 0.0 0.0 0.0 0.0 0.0 0.0 0.0 0.0 0.0 
0.29492512 0.5990612 0.45235378 0.0 0.18188149 0.0 0.0 0.0 0.0 0.0 0.0 0.0 0.0 0.0 0.0 0.14175703 
0.8265585 1.1662226 0.7785356 0.0 0.12454774 0.0 0.0 0.0 0.0 0.3303008 0.0 0.0 0.0 0.0 0.0 1.1331261 
1.5038532 1.4070789 0.77218175 0.0 0.18938825 0.0 0.0 0.0 0.0 0.9740999 0.0 0.0 0.0 0.0 0.13707735 2.3494036 
1.8940817 0.0 0.0 0.0 0.0 0.0 0.0 0.0 0.0 0.98603725 0.0 0.0 0.0 0.0 0.0 1.5832697 
2.4548557 0.0 0.19493413 0.0 0.0 0.0 0.0 0.0 0.0 0.0 0.0 0.0 0.0 0.48770466 0.0 0.0 
2.8929112 0.0 0.119828284 0.0 0.0 0.0 0.0 0.32720625 0.0 0.0 0.0 0.0 0.71980536 0.0 0.0 0.0 
1.7943361 0.0 0.0 0.0 0.0 0.0 0.0 0.0 0.0 0.0 0.0 1.3330995 1.0719402 0.0 0.0 0.0 
1.3321233 0.0 0.0 0.0 0.0 0.0 0.0 0.0 0.535453 0.0 0.0 3.3263779 1.3892572 0.0 0.0 0.0 
0.0 0.007714563 0.0 0.0 0.2341134 0.0 0.14662975 0.0 0.0 0.0 0.0 0.0 0.0 0.0 0.0 0.0 
0.42336547 0.41089496 0.51008356 0.0 0.3458736 0.03585297 0.0 0.0 0.0 0.0 0.0 0.0 0.0 0.0 0.0 0.13311377 
0.77901936 0.9223151 0.90756583 0.0 0.21314612 0.0 0.0 0.0 0.0 0.71433365 0.0 0.0 0.0 0.0 0.07990962 1.5695767 
0.9582624 0.94750786 0.9432444 0.0 0.061125197 0.0 0.0 0.0 0.0 1.4308478 0.0 0.0 0.0 0.0 0.6195927 3.1463552 
0.7138209 0.0 0.0 0.0 0.0 0.0 0.0 0.0 0.0 0.9072987 0.0 0.0 0.2187369 0.0 0.105102345 1.5248944 
0.07160318 0.0 0.0 0.0 0.0 0.0 0.0 0.0 0.0 0.0 0.0 0.0 0.7593557 0.0 0.0 0.0 
0.20379423 0.0 0.0 0.0 0.0 0.0 0.0 0.07830857 0.0 0.0 0.0 0.0 0.99500483 0.45465454 0.5554046 0.0 
1.1970578 0.0 0.65714943 0.0 0.0 0.0 0.0 0.51664346 0.0 0.0 0.0 0.0 0.9131705 0.0 0.7705144 0.0 
1.277361 0.0 0.0 0.0 0.0 0.0 0.0 0.0 0.2550708 0.0 0.0 0.0 0.9876664 0.0 0.0 0.0 
0.53249 0.0 0.0 0.0 0.0 0.0 0.0 0.0 0.3992339 0.0 0.0 3.77761 1.2090851 0.0 0.0 0.0 
0.34144625 0.27871037 0.33464545 0.0 0.5366265 0.0 0.0 0.0 0.0 0.0 0.0 0.0 0.0 0.0 0.0 0.0 
0.5755374 0.65385383 1.1397868 0.0 0.3841664 0.0 0.0 0.0 0.0 0.71418905 0.0 0.0 0.0 0.0 0.40133876 1.6433119 
0.35288602 0.30099028 1.3289453 0.0 0.061298855 0.0 0.0 0.0 0.0 1.360058 0.0 0.0 0.0 0.0 0.8789758 3.398823 
0.0 0.0 0.0 0.0 0.0 0.0 0.0 0.0 0.0 0.6596153 0.0 0.0 1.0136666 0.0 0.26102686 1.3334148 
0.0 0.0 0.0 0.0 0.0 0.0 0.0 1.282263 0.0 0.0 0.0 0.0 1.5815486 0.0 0.0 0.0 
0.0 0.0 0.0 0.0 0.0 0.0 0.0 1.7428856 0.0 0.0 0.0 0.0 1.3333921 0.0 0.0 0.0 
0.0 0.0 0.0 0.0 0.0 0.0 0.0 0.0 0.0 0.0 0.0 0.0 0.40259433 0.7475966 0.6007459 0.0 
0.0 0.0 1.5362742 0.0 0.0 0.0 0.0 0.0 0.0 0.0 0.0 0.0 0.021733083 1.1297634 2.0153904 0.0 
0.0 0.0 0.0 0.0 0.0 0.0 0.0 0.0 0.0 0.0 0.0 0.0 0.44055748 0.0 0.05522178 0.0 
0.0 0.0 0.0 0.0 0.0 0.0 0.0 0.0 0.0 0.0 0.0 1.5367348 0.61187327 0.0 0.0 0.0 
0.5108743 0.6319839 0.86812645 0.0 0.5232259 0.0 0.0 0.0 0.0 0.49063802 0.0 0.0 0.0 0.0 0.21907316 1.2817065 
0.0 0.28003693 1.6102871 0.0 0.27522567 0.0 0.0 0.0 0.0 1.3155668 0.0 0.0 0.0 0.0 0.85676116 3.2249641 
0.0 0.0 0.0 0.0 0.0 0.0 0.0 0.0 0.0 0.3090205 0.0 0.0 1.0485872 0.0 0.28850955 1.1455523 
0.0 0.0 0.0 0.0 0.0 0.0 0.93253976 2.1354413 0.0 0.0 0.0 0.0 1.2477155 0.0 0.0 0.0 
0.0 0.0 0.0 0.0 0.0 0.0 0.0 2.9722073 0.0 0.0 0.0 0.0 0.4450329 0.0 0.0 0.0 
0.0 0.0 0.0 0.0 0.0 0.0 0.0 0.0 2.84638 0.0 1.0075825 0.0 0.0 0.0 0.0 0.0 
0.0 0.0 0.0 0.0 0.0 0.66758186 0.0 0.0 1.2512647 0.0 0.09753251 0.0 0.0 0.0 0.0 0.0 
0.0 0.0 0.7770207 0.0 0.0 0.0 0.0 0.0 0.0 0.0 0.0 0.0 0.0 0.29104397 2.6824262 0.0 
0.0 0.0 0.0 0.0 0.0 0.0 1.4523125 0.0 0.0 0.0 0.0 0.0 0.0 0.0 2.193254 0.0 
0.0 0.0 0.0 0.0 0.0 0.0 0.0 0.0 0.0 0.0 0.0 0.0 0.0 0.0 0.0 0.0 
0.0 0.0 1.6492176 0.0 0.52807194 0.0 0.0 0.0 0.0 1.1547227 0.0 0.0 0.0 0.0 0.736758 2.6994417 
0.0 0.0 0.8011073 0.0 0.0 0.0 0.0 0.0 0.0 0.3760707 0.0 0.0 0.31966436 0.0 0.03765841 1.7453097 
0.0 0.0 0.0 0.0 0.0 0.0 2.007685 1.6087074 0.0 0.0 0.0 0.0 0.93311274 0.0 0.0 0.0 
0.0 0.0 0.0 0.0 0.0 0.0 1.1013981 3.0571492 0.0 0.0 0.0 0.0 0.0 0.0 0.0 0.0 
0.0 0.0 0.0 0.33657268 0.0 0.0 0.0 0.40012568 3.5264375 0.0 0.0 0.0 0.0 0.0 0.0 0.0 
0.0 0.0 0.0 0.0 0.0 0.0 0.0 0.0 2.1598327 0.0 0.0 0.0 0.0 0.0 0.0 0.0 
0.0 2.4686892 0.0 0.0 0.0 0.0 0.0 0.0 0.0 0.48461145 0.0 0.0 0.0 0.0 0.0 1.5063429 
0.0 0.48565865 0.0 0.0 0.0 0.0 0.0 0.0 0.0 0.35825285 0.0 0.0 0.0 0.0 1.7647647 0.0 
0.0 0.0 0.0 0.0 0.0 0.0 2.5275605 0.0 0.0 0.0 0.0 0.0 0.0 0.0 2.3429747 0.0 
0.0 0.0 0.0 0.0 0.0 0.0 0.0 0.0 0.6507896 0.0 0.0 0.0 0.08171639 0.0 0.09422833 0.0 
0.0 0.0 1.7492851 0.0 0.0 0.0 0.0 0.0 0.0 0.18661028 0.0 0.0 0.04236769 0.0 0.07275687 2.4234228 
0.0 0.0 0.0 0.0 0.0 0.0 1.8943764 0.849558 0.0 0.0 0.0 0.0 0.62016326 0.0 0.0 0.0 
0.0 0.0 0.0 0.0 0.0 0.0 2.8556583 2.0635903 0.0 0.0 0.0 0.50629485 0.0 0.0 0.0 0.0 
0.0 0.0 0.0 0.7968168 0.0 0.0 0.0 0.42926288 3.4180288 0.0 0.0 0.0 0.0 0.0 0.0 0.0 
0.16892008 0.0 0.0 0.0 0.0 0.0 0.0 0.0 2.7261918 0.0 0.0 0.0 0.0 0.0 0.0 1.0857713 
0.07698214 0.24154246 0.0 0.0 0.0 0.0 0.0 0.0 0.0 1.1870879 0.0 0.0 0.0 0.0 0.0 4.2757154 
0.0 0.0 0.0 0.0 0.48053563 0.0 0.0 0.0 0.0 2.0829258 0.0 0.0 0.0 0.0 0.0 1.1485468 
0.0 0.0 0.0 0.0 0.0 0.0 0.10757249 0.11458413 0.0 1.090341 0.0 0.0 0.0 0.0 0.0 0.0 
0.0 0.0 0.0 0.0 0.0 0.0 1.214272 0.4055884 0.0 0.0 0.0 0.0 0.3267851 0.0 0.0 0.0 
0.0 0.0 0.0 0.0 0.0 0.0 0.0 0.0 3.4037287 0.0 0.0 0.0 0.37543452 0.0 0.27782732 0.0 
0.0 0.36638802 1.5133295 0.0 0.0 0.0 0.0 0.4405846 0.0 0.0 0.0 0.0 0.0 0.0 0.0 0.0 
0.0 0.0 0.0 0.0 0.0 0.0 3.1985118 1.8548492 0.0 0.0 0.0 0.014147684 0.0 0.0 0.0 0.0 
0.026983988 0.0 0.0 0.1524314 0.0 0.0 0.18678565 0.55641276 1.3348317 0.0 0.0 0.3075997 0.0 0.0 0.0 0.0 
0.31537205 0.0 0.0 0.0 0.0 0.0 0.0 0.0 2.3999147 0.0 0.0 0.0 0.0 0.0 0.0 0.5916799 
0.0 0.0 0.0 0.0 0.0 0.0 0.0 0.0 0.0 0.059816185 0.0 0.0 0.0 0.0 0.0 4.0859346 
0.0 0.0 0.0 0.0 0.18045935 0.0 0.0 0.0 0.0 0.17515081 0.0 0.0 0.0 0.0 0.0 0.8767568 
0.0 0.0 0.0 0.0 0.0 0.0 0.0 1.421232 0.0 0.0 0.0 0.0 0.61693007 0.0 0.0 0.0 
0.0 0.0 0.0 0.0 0.0 0.0 0.0 2.5982764 0.0 0.0 0.0 0.0 0.8562942 0.0 0.0 0.0 
0.0 0.0 0.0 0.0 0.0 0.0 0.0 0.39981228 3.1313593 0.0 0.0 0.0 0.6725472 0.0 0.0 0.0 
0.0 0.0 0.0 0.31709749 0.0 0.0 0.0 0.0 3.7253375 0.0 0.6600669 0.0 0.0 0.0 0.0 0.24697514 
0.0 0.0 0.7995938 0.0 0.0 0.0 0.2078693 1.985625 0.0 0.0 0.0 0.0 0.0 0.0 0.0 0.0 
1.098843 0.0 0.0 0.0 0.0 0.0 1.9933813 2.0470886 0.0 0.89252084 0.0 0.0 0.0 0.0 0.0 0.0 
1.4655125 0.0 0.0 0.0 0.0 0.0 0.0 0.0 0.24547109 1.273303 0.0 0.0 0.0 0.0 0.0 0.0 
0.26749846 0.0 0.0 0.0 0.0 0.0 0.0 0.0 0.0 0.53399086 0.0 0.0 0.0 0.0 0.0 1.3742547 
0.0 0.0 0.0 0.0 0.0 0.0 0.0 0.0 0.0 0.0 0.0 0.0 0.9612034 0.0 0.0 0.0 
0.0 0.0 0.0 0.0 0.0 0.0 0.0 1.7021767 0.0 0.0 0.0 0.0 1.6031244 0.0 0.0 0.0 
0.0 0.0 0.0 0.0 0.0 0.0 0.0 2.606829 0.0 0.0 0.1820313 0.0 1.2679883 0.0 0.0 0.0 
0.0 0.0 0.0 1.6207212 0.0 0.0 0.0 0.6584831 2.7702107 0.0 1.0404296 0.0 0.15609314 0.2552588 0.0 0.0 
0.0 0.0 0.0 2.1661584 0.0 0.0 0.0 0.0 3.1230006 0.0 1.1064271 0.0 0.0 0.0 0.0 0.0 
0.0 0.0 0.0 0.961921 0.0 0.0 0.0 0.0 0.45194986 0.0 0.7063516 0.0 0.0 0.0 0.0 2.2486374 
0.0 0.0 0.885185 0.0 0.0 0.28862545 1.237281 1.8984281 0.0 0.0 1.6668051 0.0 0.0 2.7231324 0.0 0.0 
0.22018184 0.0 0.0 0.0 0.0 0.0 1.0241929 0.41614854 0.0 0.15003365 1.4165922 0.0 0.0 2.3294022 0.0 0.0 
0.0 0.0 0.0 0.0 0.0 0.0 0.0 0.0 0.0 0.0 0.45013613 0.0 0.32951283 0.5098741 0.0 0.0 
0.0 0.0 0.0 0.0 0.0 0.0 0.0 0.0 0.0 0.0 0.0 0.0 2.5778294 0.0 0.0 0.0 
0.0 0.0 0.0 0.0 0.0 0.0 0.0 0.83772826 0.0 0.0 0.0 0.0 3.017982 0.0 0.0 0.0 
0.0 0.0 0.0 0.0 0.0 0.0 0.0 1.9004886 0.17693137 0.0 1.0395409 0.0 1.2280501 0.0 0.0 0.0 
0.0 0.0 0.0 2.597374 0.0 0.0 0.0 0.0 3.2138696 0.0 1.6824726 0.0 0.0 0.0 0.0 0.0 
0.0 0.0 0.0 3.0999238 0.0 0.0 0.0 0.0 2.0084677 0.0 0.9410892 0.0 0.0 0.0 0.0 0.7956324 
0.0 0.0 0.0 1.7380452 0.05446601 0.0 0.0 0.0 0.0 0.0 0.6439052 0.0 0.0 0.0 0.0 2.3262398 
0.0 0.0 0.0 0.46598968 0.47900635 0.45153093 0.0 0.0 0.0 0.0 0.27206218 0.0 0.0 0.0 0.0015110075 1.7522056 
0.0 0.0 0.33222416 0.0 0.0 0.6364954 0.95613116 0.6427842 0.0 0.0 2.6784136 0.0 0.82941717 1.4457371 1.5897567 0.0 
0.0 0.0 0.0 0.0 0.0 0.0 0.0 0.0 0.0 0.0 4.1811304 0.0 1.4688507 1.5049429 1.362117 0.0 
0.0 0.0 0.0 0.0 0.0 0.0 0.0 0.0 0.0 0.0 4.606502 0.0 1.2106616 1.0677626 0.0 0.0 
0.0 0.0 0.0 0.7174394 0.0 0.0 0.0 0.0 0.0 0.0 3.7463465 0.0 1.2195362 0.2171453 0.0 0.0 
0.0 0.0 0.0 3.9546506 0.0 0.0 0.0 0.38851398 0.0 0.0 2.6853209 0.0 0.2762528 0.0 0.0 0.0 
0.0 0.1461357 0.0 4.4418817 0.0 0.0 0.0 0.0 2.335115 0.0 1.9920013 0.0 0.0 0.0 0.0 0.0 
0.0 0.0 0.0 3.082398 0.0 0.0 0.0 0.0 1.1328832 0.0 0.81867963 0.0 0.0 0.0 0.0 1.8556 
0.0 0.0 0.0 1.6609229 0.4908483 0.31356478 0.0 0.0 0.0 0.0 0.49054375 0.0 0.0 0.0 0.0 2.4846678 
0.0 0.0 0.0 0.3898465 0.5349009 0.46012717 0.0 0.0 0.0 0.0 0.0 0.0 0.0 0.0 0.0 1.4023371 
0.0 0.065191306 0.0 0.0 0.16680327 0.026605971 0.0 0.0 0.0 0.0 0.0 0.0 0.0 0.0 0.0 0.5190979 

