2.9459574 0.0 0.0 0.0 0.0 0.0 0.0 0.0 0.0 0.7008545 0.0 0.0 0.0 0.64086527 0.0 0.0 
3.6578498 0.0 0.0 0.0 0.0 0.0 0.0 0.050174445 0.0 0.6639057 0.0 0.0 0.0 0.4401569 0.0 0.0 
3.5811474 0.0 0.0 0.0 0.0 0.0 0.0 0.073402435 0.0 0.39312184 0.0 0.0 0.0 0.0 0.0 0.0 
3.129369 0.0 0.0 0.0 0.0 0.0 0.0 0.0 0.0 0.0070555545 0.0 0.0 0.0 0.0 0.0 0.0 
2.3089972 0.0 0.0 0.0 0.0 0.0 0.0 0.0 0.0 0.26764536 0.0 0.3072106 0.069733426 0.0 0.0 0.0 
1.5720662 0.0 0.0 0.0 0.0 0.0 0.0 0.0 0.0 0.5636707 0.0 0.7436018 0.0 0.0 0.0 0.0 
0.44430336 0.0 0.0 0.45693183 1.1003158 1.0704439 0.0 0.0 0.0 0.6336408 0.0 0.5864284 0.0 0.0 0.0 0.0 
0.0 0.0 0.0 0.9642868 1.1222677 0.99907285 0.0 0.0 0.0 0.113930464 0.26145563 0.0 0.0 0.58452845 0.0 0.0 
0.0 0.0 0.0 0.5428026 0.3584079 0.3303779 0.0 0.0 0.0 0.0 0.3416879 0.0 0.0 0.426787 0.0 0.0 
0.0 0.0 0.0 0.10070211 0.0 0.0 0.0 0.0 0.0 0.0 0.0480124 0.0 0.0 0.010931961 0.0 0.0 
0.34067738 0.0 0.0 0.0 0.0 0.0 0.0 0.0 0.0 0.0 1.6367252 0.0 1.4262104 3.92226 0.030103281 0.0 
1.261592 0.0 0.0 0.0 0.0 0.0 0.0 0.0 0.0 0.0 1.4650049 0.0 1.854411 4.7895007 0.0 0.0 
2.2729573 0.0 0.0 0.0 0.0 0.0 0.0 0.0 0.0 0.0 0.9590725 0.0 1.3017498 5.4186273 0.0 0.0 
2.3703384 0.0 0.0 0.0 0.0 0.0 0.0 0.0 0.0 0.0 0.0 0.0 0.43250167 4.2312503 0.0 0.0 
2.2234142 0.0 0.68006134 0.0 0.0 0.0 0.0 0.0 0.0 0.0 0.0 0.0 0.60246855 1.3944315 0.0 0.0 
1.8343318 0.0 0.6871537 0.0 0.0 0.0 0.0 0.0 0.0 0.0 0.0 0.80261517 1.4375572 0.0 0.0 0.0 
1.7174166 0.0 0.0 0.0 0.0 0.0 0.0 0.0 0.0 0.10219365 0.0 2.3055758 1.1199023 0.0 0.0 0.0 
1.2614844 0.0 0.0 0.0 0.036756568 0.0677007 0.0 0.0 0.0 0.0 0.0 0.61826885 0.34774905 0.0 0.0 0.0 
0.14905393 0.0 0.12653945 0.0 0.3228427 0.67871356 0.0 0.0 0.0 0.0 0.0 0.0 0.0 0.4861075 0.0 0.0 
0.0 0.0 0.0 0.08391176 0.0 0.17447641 0.0 0.0 0.0 0.0 0.06830633 0.0 0.0 0.09976285 0.0 0.0 
0.0 0.6204392 0.0 0.0 0.0 0.0 0.0 0.0 0.0 0.0 2.3678932 0.0 1.330127 0.15992305 2.030444 0.0 
0.0 0.77249056 0.0 0.0 0.0 0.0 0.0 0.0 0.0 0.0 2.5171695 0.0 1.6879176 0.7245301 2.5530405 0.0 
0.0 0.46959507 0.0 0.051957797 0.0 0.0 0.0 0.0 0.0 0.0 2.6857047 0.0 1.3363014 2.0357218 2.5368154 0.0 
0.0 0.0 0.0 0.0 0.0 0.0 0.0 0.0 0.0 0.0 1.963583 0.0 0.5228964 3.0511305 1.9544685 0.0 
0.0 0.0 0.0 0.0 0.0 0.0 0.0 0.0 0.0 0.0 0.825887 0.0 0.44749272 3.2480953 0.10752027 0.0 
0.0 0.0 0.0 0.0 0.0 0.0 0.0 0.0 0.0 0.0 0.28668806 0.0 0.98252565 1.4121143 0.0 0.0 
0.35099185 0.0 0.0 0.0 0.0 0.0 0.0 0.0 0.0 0.0 0.0 2.4902406 1.3619047 0.098491274 0.0 0.0 
0.8175693 0.0 0.0 0.0 0.0 0.0 0.0 0.0 0.0 0.0 0.0 2.0612714 1.1672037 0.0 0.0 0.0 
0.6262973 0.0 0.9315721 0.0 0.0 0.09755251 0.0 0.0 0.0 0.0 0.0 0.0 0.2351311 0.0014867932 0.0 0.0 
0.09177601 0.0 0.22579223 0.0 0.0 0.17352057 0.0 0.0 0.0 0.0 0.0 0.0 0.0 0.09833833 0.0 0.0 
0.0 2.5554576 0.0 2.655238 0.0 0.0 0.0 0.0 0.0 0.5072542 0.0 0.0 0.0 0.0 0.0 0.0 
0.0 3.2661734 0.0 2.4530063 0.0 0.0 0.0 0.0 0.0 0.55133474 0.0 0.0 0.0 0.0 0.32175064 0.0 
0.0 3.9402976 0.0 1.3748327 0.0 0.0 0.0 0.0 0.0 0.63252425 0.0 0.0 0.0 0.0 2.1789098 0.0 
0.0 3.7353883 0.0 0.24285746 0.0 0.0 0.0 0.0 0.0 0.5613811 0.0 0.0 0.0 0.0 4.4063053 0.0 
0.0 1.4146199 0.0 0.038331304 0.0 0.0 0.0 0.0 0.0 0.0 0.0 0.0 0.0 0.0 4.3884406 0.0 
0.0 0.0 0.0 0.38839206 0.0 0.0 0.0 0.0 0.0 0.0 0.0 0.0 0.0 0.0 1.0932252 0.0 
0.0 0.0 0.0 0.4023183 0.0 0.0 0.0 0.0 0.0 0.0 0.0 0.49584183 0.0 0.0 0.0 0.0 
0.0 0.0 0.0 0.061651878 0.0 0.0 0.0 0.0 0.0 0.0 0.0 2.4453661 0.14054927 0.0 0.0 0.0 
0.0 0.0 0.22488567 0.29007366 0.0 0.39253822 0.0 0.0 0.0 0.0 0.0 1.3219967 0.10950799 0.0 0.0 0.0 
0.0 0.0 0.0 0.735243 0.19338551 0.51767266 0.0 0.0 0.0 0.0 0.4155804 0.0 0.0 0.45142922 0.0 0.0 
0.46274033 0.07448125 0.0 0.61799264 0.0 0.22950721 0.0 0.0 0.0 2.5178797 0.0 0.0 0.0 0.0 0.0 0.0 
0.7010196 0.0 0.0 0.0 0.0 0.0 0.0 0.0 0.0 2.9611375 0.0 0.0 0.0 0.0 0.0 0.73703915 
0.4726192 0.0 0.0 0.0 0.0 0.0 0.0 0.0 0.0 3.3899074 0.0 0.0 0.0 0.0 0.0 0.11536174 
0.0 0.0 0.0 0.0 0.0 0.0 0.0 0.0 0.0 3.184224 0.0 0.0 0.0 0.0 0.0 0.0 
0.0 0.0 0.0 0.0 0.0 0.0 0.0 0.0 0.0 1.7058458 0.0 0.0 0.0 0.0 1.108804 0.0 
0.0 0.0 0.0 0.0 0.0 0.0 0.0 0.0 0.0 0.0 0.0 0.0 0.22680934 0.0 0.6548274 0.0 
0.00040954724 0.0 0.0 0.0 0.0 0.0 0.0 0.0 0.0 0.0 0.0 0.0 0.0 0.0 0.0 0.0 
0.47815093 0.0 0.0 0.0 0.0 0.0 0.0 0.0 0.0 0.0 0.0 0.0 0.0 0.0 0.0 0.0 
0.41558242 0.0 0.0 0.0 0.0 0.0 0.0 0.0 0.0 0.0 0.0 1.9415885 0.4614051 0.0 0.0 0.0 
0.20759805 0.0 0.0 0.5070394 1.0313362 0.682726 0.0 0.0 0.0 0.21645892 0.0 1.1622834 0.0 0.0 0.0 0.0 
0.0 0.0 0.0 0.0 0.0 0.2494027 0.0 0.0 0.0 0.53828686 0.93656665 0.0 0.0 0.26809457 0.0 0.23369613 
0.0 0.0 0.0 0.0 0.0 0.3308521 0.0 0.0 0.0 0.3407974 1.5175375 0.0 0.20918782 1.4229513 0.0 0.0 
0.0 0.0 0.0 0.0 0.0 0.0 0.0 0.0 0.0 0.0 2.6284661 0.0 0.64802337 2.0036902 0.0 0.0 
0.0 0.0 0.0 0.0 0.0 0.0 0.0 0.0 0.0 0.0 2.971362 0.0 1.2438391 2.447418 0.0 0.0 
0.0 0.0 0.0 0.0 0.0 0.0 0.0 0.10618366 0.0 0.0 2.6316621 0.0 1.6478765 3.0277803 0.0 0.0 
0.0 0.0 0.0 0.0 0.0 0.0 0.7389876 0.0 0.0 0.0 2.1223974 0.0 1.2094502 4.06802 0.0 0.0 
0.39311594 0.0 0.0 0.0 0.0 0.0 0.0 0.0 0.0 0.0 0.5242944 0.0 0.0 3.4835653 0.0 0.0 
0.33596003 0.0 0.0 0.0 0.0 0.0 0.0 0.0 0.0 0.0 0.0 0.0 0.13381653 1.1588571 0.0 0.0 
0.32827747 0.0 0.0 0.0 0.0 0.0 0.0 0.0 0.0 0.0 0.0 0.45486864 1.117959 0.0 0.0 0.0 
0.80839133 0.0 0.0 0.0 0.0 0.0 0.0 0.0 0.0 0.057524946 0.0 2.6383104 1.1677821 0.0 0.0 0.0 
0.0 0.336295 0.0 0.0 0.0 0.0 0.0 0.0 0.0 0.0 0.57886475 0.131728 0.38668716 0.0 0.04648061 0.0 
0.0 0.749715 0.0 0.0 0.0 0.091946855 0.0 0.00050726533 0.0 0.0 1.0014967 0.0 0.5050388 0.0 0.48947632 0.0 
0.0 1.5493344 0.0 0.09060706 0.0 0.0 0.0 0.58067846 0.0 0.0 2.2091227 0.0 0.42037022 0.0 0.69521856 0.0 
0.0 2.4063785 0.0 2.1942074 0.0 0.0 0.0 0.5200457 0.0 0.0 3.32709 0.0 0.18117337 0.0 0.9346393 0.0 
0.0 2.3703477 0.0 3.452259 0.0 0.0 0.0 0.0 0.0 0.0 3.5109472 0.0 0.0 0.29345447 1.2432687 0.0 
0.0 0.8344345 0.0 2.099574 0.0 0.0 0.0 0.0 0.0 0.0 3.7227557 0.0 0.0 1.7942145 1.6496692 0.0 
0.0 0.0 0.0 0.0 0.0 0.46320206 0.0 0.0 0.0 0.0 2.602371 0.0 0.0 3.2772555 1.714694 0.0 
0.0 0.0 0.0 0.0 0.0 0.0 0.0 0.0 0.0 0.0 0.13744111 0.0 0.0 3.3875735 0.6015209 0.0 
0.0 0.0 0.0 0.0 0.0 0.0 0.0 0.0 0.0 0.0 0.0 0.0 1.2068918 0.45263675 0.0 0.0 
0.0 0.0 0.0 0.0 0.0 0.0 0.0 0.0 0.0 0.0 0.0 3.0122924 1.3750322 0.0 0.0 0.0 
0.14143533 0.5699653 0.0 0.0 0.0 0.0 0.0 0.16975439 0.0 0.0 0.17625356 0.3227655 0.0 0.0 0.0 0.0 
0.0 1.1540517 0.0 1.5055772 0.0 0.0 0.0 0.5222474 0.0 0.9008791 0.105043024 0.041876107 0.0 0.0 0.0 0.0 
0.0 1.645506 0.0 2.8706098 0.0 0.0 0.1450727 0.21544407 0.0 2.1507735 0.3527472 0.0 0.0 0.0 0.0 0.0 
0.0 1.606788 0.0 4.022849 0.0 0.0 0.0 0.0 0.0 2.4560416 0.18035182 0.0 0.0 0.0 0.0 0.0 
0.0 1.5071241 0.0 3.5635154 0.0 0.0 0.0 0.0 0.0 1.7937133 0.0 0.0 0.0 0.0 0.0 0.0 
0.0 1.4784179 0.0 1.8057038 0.0 0.0 0.0 0.0 0.0 0.58535945 0.0 0.0 0.0 0.0 1.2998333 0.0 
0.0 1.6071696 0.0 0.48122337 0.0 1.3412693 0.0 0.0 0.0 0.0 0.0 0.0 0.0 0.0 3.8765519 0.0 
0.0 1.4141331 0.0 0.7503908 0.0 0.0 0.0 0.0 0.0 0.0 0.0 0.0 0.0 0.0 4.6611986 0.13336846 
0.0 0.0 0.0 1.4594556 0.0 0.0 0.0 0.0 0.0 0.0 0.0 0.0 0.0 0.0 1.8156043 0.0 
0.0 0.0 0.0 0.39636064 0.0 0.0 0.0 0.0 0.0 0.0 0.0 0.36918217 0.0 0.0 0.0 0.0 
0.36403242 0.19671164 0.0 0.4387178 0.0 0.0 0.25999913 0.07727884 0.0 0.27373973 0.08649957 0.0 0.0 0.0 0.0 0.0 
0.32234567 0.28717816 0.0 0.86998254 0.0 0.0 0.572538 0.0 0.0 0.952611 0.0 0.0 0.0 0.0 0.0 0.0 
0.16085869 0.3280984 0.0 1.1161262 0.0 0.0 0.7581376 0.0 0.124723285 1.3874912 0.0 0.0 0.0 0.0 0.0 0.0 
0.100198284 0.6094497 0.0 0.9215079 0.0 0.0 0.5622687 0.0 0.0 1.1582668 0.0 0.0 0.0 0.0 0.0 0.0 
0.24623533 1.3220387 0.0 0.2225419 0.0 0.0 0.0 0.0 0.0 1.175855 0.0 0.0 0.0 0.0 0.0 0.0 
0.6147998 2.2211688 0.0 0.0 0.0 0.0 0.0 0.0 0.0 1.6729466 0.0 0.0 0.0 0.0 0.0 0.19437157 
0.0 2.2814465 0.0 0.0 0.0 0.0 0.0 0.0 0.0 2.637156 0.0 0.0 0.0 0.0 0.0 0.10436181 
0.0 0.0 0.0 0.0 0.0 0.0 0.0 0.0 0.0 2.5869553 0.0 0.0 0.0 0.0 2.379784 0.0 
0.0 0.0 0.0 0.0 0.0 0.0 0.87529474 0.0 0.0 1.1109987 0.0 0.0 0.0 0.0 2.5313826 0.0 
0.0 0.0 0.0 0.0 0.0 0.0 0.0 0.0 0.0 0.0 0.0 0.0 0.0 0.0 0.0 0.0 
0.0 0.0 0.0 0.021201137 0.0 0.0 0.0 0.0 0.0 0.0 0.0 0.0 0.0 0.0 0.0 0.0 
0.0 0.0 0.0 0.021021806 0.0 0.0 0.0 0.0 0.0 0.0 0.0 0.0 0.0 0.0 0.0 0.0 
0.120983735 0.0 0.0 0.0 0.0 0.028017119 0.0 0.0 0.0 0.0 0.0 0.0 0.0 0.02947504 0.0 0.0 
0.6826452 0.0 0.0 0.0 0.0 0.3443326 0.0 0.0 0.0 0.053646084 0.0 0.0 0.0 0.35067433 0.0 0.0 
1.2311649 0.0 0.0 0.0 0.0 0.05407943 0.0 0.0 0.0 0.64413637 0.0 0.0 0.0 0.55992836 0.0 0.47902158 
1.177384 0.0 0.0 0.0 0.0 0.0 0.0 0.011523396 0.0 1.2827927 0.69257 0.0 0.0 0.31179956 0.0 1.0790224 
0.0 0.0 0.0 0.0 0.0 0.0 0.0 0.0 0.0 1.500029 0.23680735 0.0 0.0 0.0 0.0 0.0 
0.0 0.0 0.15789832 0.0 0.0 0.0 0.0 0.0 0.0 0.2788583 0.0 0.0 0.7429135 0.0 0.0 0.0 
0.0 0.0 0.0 0.0 0.0 0.0 1.1001177 0.08018696 0.0 0.0 0.0 0.0 1.4157714 0.42088628 0.13996746 0.0 
0.0 0.0 0.0 0.0 0.0 0.0 0.0 0.0 2.7039206 0.0 0.023214417 0.0 1.175905 0.0 0.0 0.0 

