0.038085777 0.018408295 0.0 0.0 0.28679273 0.027449489 0.0961385 0.0 0.0 0.0 0.0 0.0 0.0 0.0 0.0 0.0 
0.55942184 0.44060576 0.4987921 0.0 0.3710613 0.014937043 0.0 0.0 0.0 0.0 0.0 0.0 0.0 0.0 0.0 0.1595449 
0.9005507 0.93219465 1.3121498 0.0 0.09220845 0.0 0.0 0.0 0.0 0.66062224 0.0 0.0 0.0 0.0 0.10287255 1.5630902 
1.2613776 0.96510124 1.1770827 0.0 0.0 0.0 0.0 0.0 0.0 1.3078543 0.0 0.0 0.0 0.0 0.4270603 2.848897 
1.4621476 0.0 0.0 0.0 0.0 0.0 0.0 0.0 0.0 0.82740295 0.0 0.0 0.036291964 0.0 0.28766352 1.1572722 
2.2586212 0.0 0.0 0.0 0.0 0.0 0.0 0.0 0.0 0.0 0.0 0.0 0.0 1.2100515 0.0 0.0 
2.5338497 0.0 0.0 0.0 0.0 0.0 0.0 0.80987656 0.0 0.0 0.0 0.0 0.44767505 1.4538723 0.0 0.0 
1.7572781 0.0 0.0 0.0 0.0 0.0 0.0 0.0 0.0 0.0 0.0 0.0 0.82691395 0.0 0.0 0.0 
1.143105 0.0 0.0 0.0 0.0 0.0 0.0 0.0 0.0 0.0 0.0 4.2467422 1.9128218 0.0 0.0 0.0 
0.9914691 0.0 0.054469753 0.0 0.0 0.0 0.0 0.0 0.0 0.0 0.0 2.3020601 1.347884 0.0 0.0 0.0 
0.5567133 0.38738394 0.0 0.0 0.31499803 0.17322087 0.0 0.0 0.0 0.0 0.0 0.0 0.0 0.0 0.0 0.0 
0.8987831 0.83668536 0.19839284 0.0 0.24130934 0.0 0.0 0.0 0.0 0.53282577 0.0 0.0 0.0 0.0 0.087006435 1.2907366 
0.7490444 0.15518132 0.5956953 0.0 0.0 0.0 0.0 0.0 0.0 1.3976481 0.0 0.0 0.0 0.0 0.82858104 2.6490269 
0.36290017 0.0 0.0 0.0 0.0 0.0 0.0 0.0 0.0 1.0085053 0.0 0.0 0.34956408 0.0 1.0301585 0.24273726 
0.0 0.0 0.0 0.0 0.0 0.0 0.0 0.3871057 0.0 0.0 0.0 0.0 1.2018379 0.0 0.33922482 0.0 
0.0 0.0 0.0 0.0 0.0 0.0 0.0 0.14442721 0.0 0.0 0.0 0.0 1.4918343 0.2320855 1.123131 0.0 
0.04482146 0.0 0.5779656 0.0 0.0 0.0 0.0 0.0 0.08082041 0.0 0.0 0.0 1.3921602 1.5799581 2.216463 0.0 
0.460367 0.0 0.0 0.0 0.0 0.0 0.0 0.0 0.68329674 0.0 0.0 0.0 0.94441754 0.09549733 0.0 0.0 
0.0 0.0 0.0 0.0 0.0 0.0 0.0 0.0 0.0 0.0 0.0 2.661277 0.92352027 0.0 0.0 0.0 
0.0 0.0 0.0 0.0 0.0 0.0 0.0 0.0 0.0 0.0 0.0 3.9962187 1.768359 0.0 0.0 0.0 
0.50380707 0.0 0.0 0.0 0.28151047 0.8446205 0.0 0.0 0.0 0.34189415 0.124184 0.0 0.0 0.33531246 0.0 0.25335374 
0.0 0.0 0.0 0.0 0.0 0.052215934 0.0 0.0 0.0 0.901111 0.16545357 0.0 0.0 0.0 0.4998036 1.563217 
0.0 0.0 0.0 0.0 0.0 0.0 0.0 0.35437453 0.0 0.09788346 0.3586803 0.0 0.87532914 0.0 0.28875113 0.0 
0.0 0.0 0.0 0.0 0.0 0.0 0.0 2.0358963 0.0 0.0 0.026843624 0.0 1.6982322 0.0 0.0 0.0 
0.0 0.0 0.0 0.0 0.0 0.0 0.0 1.5002934 0.0 0.0 0.0 0.0 1.5099655 0.0 0.0 0.0 
0.0 0.0 0.0 0.0 0.0 0.0 0.0 0.0 1.8826294 0.0 0.0 0.0 0.27948058 0.0 0.0 0.0 
0.0 0.0 1.5139343 0.0 0.0 0.0 0.0 0.0 1.9657724 0.0 0.0 0.0 0.14771092 0.0 3.0977137 0.0 
0.0 0.0 0.0 0.0 0.0 0.0 0.052655235 0.0 0.0 0.0 0.0 0.0 0.3135426 0.0 2.5565827 0.0 
0.0 0.0 0.0 0.0 0.0 0.0 0.0 0.0 0.0 0.0 0.0 0.0 0.0 0.0 0.0 0.0 
0.0 0.0 0.0 0.0 0.0 0.0 0.0 0.0 0.0 0.0 0.0 3.4237154 0.69616604 0.0 0.0 0.0 
0.0 0.0 0.0 0.0 0.2095361 0.3361192 0.0 0.0 0.22942859 0.0 0.9270257 0.0 0.18604581 0.0 0.11357726 0.289565 
0.0 0.0 0.0 0.0 0.0 0.92009324 0.0 0.04615765 0.0 0.0 1.6560843 0.0 0.7901104 0.0 0.0 0.0 
0.0 0.0 0.0 0.0 0.0 0.10010794 0.050219804 1.5775199 0.0 0.0 2.896845 0.0 1.1359546 0.12130845 0.0 0.0 
0.0 0.0 0.0 1.148197 0.0 0.0 0.8620042 2.0232418 0.0 0.0 2.8312984 0.0 0.27383035 0.0 0.0 0.0 
0.0 0.0 0.0 2.1524158 0.0 0.0 0.3173573 0.0 2.2595325 0.0 2.7985792 0.0 0.0 0.0 0.0 0.0 
0.0 0.0 0.0 0.3650139 0.0 0.0 0.0 0.0 3.1782439 0.0 1.2370836 0.0 0.0 0.0 0.0 0.0 
0.0 0.0 1.3574119 0.12037812 0.0 1.5946336 0.0 0.0 0.0 0.0 0.0 0.0 0.0 0.0 1.2800122 0.64051896 
0.0 0.0 0.56666327 0.21253614 0.0 0.0 2.7536497 0.0 0.0 0.0 0.0 0.0 0.0 0.0 2.2059958 0.0 
0.0 0.0 0.0 0.0 0.0 0.0 1.733173 0.0 0.0 0.0 0.0 0.0 0.0 0.0 0.0 0.0 
0.0 0.0 0.0 0.0 0.0 0.0 0.0 0.0 1.5833944 0.0 0.0 0.96250033 0.0 0.0 0.0 0.0 
0.0 1.9144669 0.0 0.0 0.0 0.0 0.0 0.0 0.0 0.0 0.0 0.52395284 0.0 0.0 0.0 0.0 
0.0 3.708616 0.0 0.5093293 0.0 0.0 0.0 0.0 0.0 0.0 0.0 0.40215972 0.0 0.0 0.0 0.0 
0.0 5.435668 0.0 4.438105 0.0 0.0 0.018924845 1.0252074 0.0 0.0 0.0 0.0 0.0 0.0 0.0 0.0 
0.0 4.9444547 0.0 6.9268656 0.0 0.0 0.0 0.0 0.030637357 0.0 0.0 0.0 0.0 0.0 0.0 0.0 
0.0 2.6566415 0.0 4.434773 1.3898196 0.0 0.0 0.0 0.92159265 0.4087336 0.22879356 0.0 0.0 0.0 0.0 0.0 
0.0 1.3213595 0.0 0.5372534 3.2568352 0.9144458 0.0 0.0 0.0 0.430113 0.3117235 0.0 0.0 0.0 0.0 3.6105623 
0.0 0.0 1.2457131 0.04370579 0.30232903 2.552518 0.0 0.0 0.0 0.0 0.0 0.0 0.0 0.0 0.0 1.6342136 
0.0 0.0 0.48460007 0.0 0.0 0.0 4.231934 0.0 0.0 0.0 0.0 0.0 0.0 0.0 0.20821352 0.0 
0.0 0.0 0.0 0.0 0.0 0.0 2.0528805 0.0 1.0064259 0.0 0.0 0.0 0.12017991 0.0 0.0 0.0 
0.0 0.0 0.0 0.0 0.0 0.0 0.0 0.0 3.176067 0.0 0.0 0.0 0.0 0.0 0.0 0.0 
2.131674 1.9847238 0.0 0.0 0.0 0.0 0.0 0.0 0.0 0.3775108 0.0 0.0 0.0 0.0 0.0 0.17438953 
2.3750908 2.4451773 0.0 0.0 0.0 0.0 0.11212066 0.0 0.0 2.0097866 0.0 0.0 0.0 0.0 0.0 0.0 
1.9549944 1.8176042 0.0 0.40171772 0.0 0.0 0.30113202 0.0 0.0 3.371989 0.0 0.0 0.0 0.0 0.0 0.0 
1.4901744 0.078349836 0.0 0.0 0.0 0.0 0.0 0.0 0.0 3.3717306 0.0 0.0 0.0 0.0 0.0 0.0 
0.72572315 0.0 0.0 0.0 0.3178429 0.0 0.0 0.0 0.0 2.0235107 0.0 0.0 0.0 0.0 0.0 1.1349207 
0.0 0.0 0.0 0.0 1.4281304 0.0 0.0 0.0 0.0 0.95843947 0.0 0.0 0.0 0.0 0.0 1.647874 
0.0 0.0 0.73891 0.0 0.0 0.0 0.0 0.0 0.0 0.0 0.0 0.0 0.0 0.0 0.0 0.0 
0.0 0.0 0.0 0.0 0.0 0.0 3.0190718 1.5452961 0.0 0.0 0.0 0.0 0.0 0.0 0.0 0.0 
0.0 0.0 0.0 0.0 0.0 0.0 0.0 0.0 2.9071262 0.0 0.0 0.0 0.0 0.0 0.0 0.0 
0.0 0.0 0.0 0.0 0.0 0.52538055 0.0 0.0 2.62835 0.0 0.73920196 0.0 0.0 0.46745887 0.0 0.0 
1.5671991 0.086237065 0.0 0.0 0.0 0.0 0.0 0.0 0.0 0.48748726 0.0 0.0 0.0 0.0 0.0 0.8837365 
2.762161 0.0 0.0 0.0 0.0 0.0 0.0 0.0 0.0 1.25377 0.0 0.0 0.0 0.0 0.0 0.0 
3.2508917 0.0 0.0 0.0 0.0 0.0 0.0 0.0 0.0 1.5810949 0.0 0.0 0.0 0.0 0.0 0.0 
3.2592201 0.0 0.0 0.0 0.0 0.0 0.0 0.0 0.0 0.6851295 0.0 0.0 0.0 0.0 0.0 0.0 
2.170095 0.0 0.0 0.0 0.0 0.0 0.0 0.0 0.0 0.0 0.0 0.0 0.0 0.0 0.0 0.0 
1.719751 0.0 0.0 0.0 0.0 0.0 0.0 0.0 0.0 0.0 0.0 0.0 0.04903026 0.0 0.0 0.0 
1.3605206 0.0 0.945193 0.0 0.0 0.0 0.0 1.6944423 0.0 0.0 0.0 0.0 0.6147066 0.0 0.0 0.0 
1.2303652 0.0 0.0 0.0 0.0 0.0 0.9291157 1.4816704 0.0 0.0 0.0 0.0 0.5387814 0.0 0.0 0.0 
0.7573472 0.0 0.0 0.0 0.0 0.0 0.0 0.0 2.159464 0.0 0.0 0.27960348 0.0 0.0 0.0 0.0 
0.0 0.0 0.0 0.0 0.0 0.83644146 0.0 0.0 0.02335938 0.0 0.0 0.0 0.0 0.0 0.0 0.0 
0.0 0.0 0.0 0.0 0.0 0.0 0.0 0.13869414 0.0 0.0 0.0 0.0 0.36998177 0.762104 0.41168457 0.0 
0.0 0.0 0.0 0.0 0.0 0.0 0.0 0.30907643 0.0 0.0 0.0 0.0 0.8730711 0.0 0.723841 0.0 
0.27921957 0.0 0.0 0.0 0.0 0.0 0.0 0.0 0.0 0.0 0.0 0.0 1.5166272 0.0 1.8927839 0.0 
0.13645993 0.0 0.0 0.0 0.0 0.0 0.0 0.0 0.0 0.0 0.0 0.0 2.1787546 0.05748049 2.2952797 0.0 
0.0 0.0 0.0 0.0 0.0 0.0 0.0 0.0 0.0 0.0 1.0154102 0.0 2.050992 1.021734 0.0 0.0 
0.0 0.0 0.0 0.0 0.0 0.0 0.0 0.24710925 0.0 0.0 0.44541636 0.0 1.761995 2.646735 0.0 0.0 
0.59221125 0.0 0.0 0.0 0.0 0.0 0.0 1.5919272 0.0 0.0 0.56286997 0.0 1.4298619 2.7149112 0.0 0.0 
0.34653842 0.0 0.0 0.0 0.0 0.0 0.17789851 0.0 0.0 0.0 0.0 0.0 0.8663766 1.5506471 0.0 0.0 
0.100321546 0.0 0.0 0.0 0.0 0.0 0.0 0.0 0.58057183 0.0 0.0 0.0299149 0.69848454 0.41449192 0.0 0.0 
0.0 0.0 0.0 0.0 0.0 0.0 0.0 0.0 0.0 0.0 0.0 0.45379522 0.9825317 0.0 0.0 0.0 
0.0 0.0 0.0 0.0 0.0 0.0 0.0 1.3283644 0.0 0.0 3.0176628 0.0 0.8400513 1.5634235 0.0 0.0 
0.0 0.0 0.0 0.0 0.0 0.0 0.0 0.6100905 0.0 0.0 3.9370012 0.0 1.1475387 1.4048411 0.0 0.0 
0.0 0.0 0.0 0.0 0.0 0.0 0.0 0.0 0.0 0.0 3.07926 0.0 1.8230689 0.46392944 0.44168496 0.0 
0.0 0.0 0.0 0.0 0.0 0.0 0.0 0.0 0.0 0.0 2.303398 0.0 2.6804287 0.0 1.1333282 0.0 
0.0 0.0 0.0 0.0 0.0 0.0 0.0 0.0 0.0 0.0 3.203523 0.0 2.3130739 0.0 1.4528532 0.0 
0.0 0.0 0.0 0.0 0.0 0.0 0.0 0.0 0.0 0.0 3.7147222 0.0 1.0209779 0.7476651 1.6243856 0.0 
0.0 0.0 0.0 0.5769585 0.0 0.0 0.0 0.0 0.0 0.0 3.3614564 0.0 0.8278376 2.999313 1.6965462 0.0 
0.0 0.0 0.0 1.312087 0.0 0.0 0.0 0.0 0.0 0.0 3.4923697 0.0 0.32207656 2.9907904 0.44070596 0.0 
0.0 0.0 0.0 0.0 0.0 0.0 0.0 0.0 0.0 0.0 2.2983866 0.0 0.040632464 2.0014374 0.0 0.0 
0.0 0.0 0.0 0.0 0.0 0.0 0.0 0.0 0.0 0.0 0.76604897 1.034068 1.3287055 0.37786162 0.0 0.0 
0.0 1.2640994 0.0 0.0 0.0 0.0 0.0 1.1355015 0.0 0.0 2.3763325 0.0 0.0 0.0 0.19017299 0.0 
0.0 1.0515106 0.0 1.2634743 0.0 0.0 0.0 0.0 0.0 0.0 3.592329 0.0 0.0 0.0 0.0 0.0 
0.0 1.3123012 0.0 3.2813723 0.0 0.0 0.0 0.0 0.0 0.0 3.7413132 0.0 0.0 0.0 0.0 0.0 
0.0 1.8993131 0.0 5.211397 0.0 0.0 0.0 0.0 0.0 0.0 3.177511 0.0 0.0 0.0 0.0 0.0 
0.0 1.7663908 0.0 5.0043497 0.0 0.0 0.0 0.0 0.0 0.0 2.7944303 0.0 0.0 0.0 0.0 0.0 
0.0 1.7084937 0.0 3.8117657 0.0 0.0 0.0 0.0 0.0 0.0 1.4665997 0.0 0.0 0.0 0.0 0.0 
0.0 1.5013261 0.0 4.2705927 0.0 0.4607194 0.0 0.0 0.0 0.0 0.8497742 0.0 0.0 0.0 2.4196026 0.0 
0.0 0.42417964 0.0 4.4295692 0.0 0.0 0.0 0.0 0.0 0.0 1.6405824 0.0 0.0 0.0 3.083672 0.0 
0.0 0.3439863 0.0 3.3362315 0.0 0.0 0.0 0.0 0.0 0.0 1.6964725 0.0 0.0 0.0 1.7567103 1.8501763 
0.0 0.4637282 0.0 2.8356533 0.012476705 0.0 0.0 0.0 0.0 0.0 1.2700557 0.0 0.0 0.0 0.22166418 1.8153864 

