0.0 0.0 0.0 0.0 0.0 0.0 0.059683822 0.0 0.0 0.0 0.0 0.0 0.0 0.0 0.0 0.0 
0.0 0.04888268 0.0 0.0 0.06407164 0.0 0.023777192 0.0 0.0 0.0 0.0 0.0008620471 0.0 0.0 0.0 0.0 
0.111915216 0.7012752 0.14419602 0.0 0.0 0.0 0.0 0.0 0.0 0.0 0.0 0.0 0.0 0.0 0.0 0.018002223 
0.49143687 1.598507 0.42585844 0.0 0.0 0.0 0.0 0.0 0.0 0.0 0.0 0.0 0.0 0.0 0.0 0.51621616 
1.128241 2.455078 0.0 0.0 0.0 0.0 0.0 0.0 0.0 0.0 0.0 0.012601264 0.0 0.0 0.0 0.95921844 
1.7160426 2.5854106 0.0 0.0 0.38241905 0.0 0.0 0.0 0.0 0.3139068 0.0 0.0023141503 0.0 0.0 0.0 0.46809867 
1.6371746 1.3201258 0.0 0.0 0.0 0.0 0.0 0.0 0.0 0.3917208 0.0 0.0 0.0 0.0 0.0 0.1891882 
0.75453454 0.0 0.0 0.0 0.17598116 0.0 0.0 0.0 0.0 0.72836787 0.0 1.418547 0.0 0.0 0.0 0.0 
0.5685562 0.0 0.0 0.0 0.7843389 0.50063866 0.0 0.0 0.0 0.5405205 0.0 0.73917484 0.0 0.0 0.0 0.0 
0.13705811 0.0 0.0 0.22771384 0.46720278 0.7354489 0.0 0.0 0.0 0.0 0.022032024 0.0 0.0 0.65190697 0.0 0.0 
0.0 0.0 0.0 0.0 0.0076565817 0.014177442 0.19777538 0.0 0.0 0.0 0.0 0.0 0.0 0.0 0.0 0.0 
0.369217 0.19453533 0.0 0.0 0.3095052 0.13491964 0.0 0.0 0.0 0.0 0.0 0.0 0.0 0.11864234 0.0 0.0 
1.1163967 0.58845663 0.46950936 0.0 0.0 0.0 0.0 0.0 0.0 0.110109314 0.0 0.0 0.0 0.15828913 0.0 0.9935258 
1.529305 0.8121887 0.5647067 0.0 0.0 0.0 0.0 0.0 0.0 0.84003705 0.0 0.0 0.0 0.0 0.0 1.6448532 
2.050958 0.0 0.0 0.0 0.0 0.0 0.0 0.0 0.0 0.5868511 0.0 0.0 0.0 0.0 0.0 0.6367289 
2.6067152 0.0 0.0 0.0 0.0 0.0 0.0 0.0 0.0 0.13528514 0.0 0.0 0.0 0.8004469 0.0 0.0 
2.7651238 0.0 0.18153574 0.0 0.0 0.0 0.0 0.0 0.0 0.06152856 0.0 0.0 0.556342 0.0 0.0 0.0 
1.5527353 0.0 0.0 0.0 0.0 0.0 0.0 0.0 0.0 0.0 0.0 1.1759403 0.70604086 0.0 0.0 0.0 
1.2532996 0.0 0.0 0.0 0.0 0.0 0.0 0.0 0.0 0.0 0.0 2.024611 1.112614 0.0 0.0 0.0 
0.6875954 0.0 0.54125684 0.0 0.0 0.10257669 0.0 0.0 0.0 0.0 0.0 0.0 0.16367215 0.21889845 0.0 0.0 
0.19211091 0.0 0.0 0.0 0.10802137 0.11840685 0.01121969 0.0 0.0 0.0 0.0 0.0 0.0 0.0 0.0 0.0 
0.46595785 0.21333705 0.0673594 0.0 0.34211156 0.0 0.0 0.0 0.0 0.15395606 0.0 0.0 0.0 0.0 0.15359838 0.2292061 
0.2573128 0.0 1.0374771 0.0 0.0 0.0 0.0 0.0 0.0 0.51187944 0.0 0.0 0.0 0.0 0.6212955 2.168194 
0.0 0.0 0.173304 0.0 0.0 0.0 0.14534721 0.0 0.0 0.00681239 0.0 0.0 0.26587498 0.11573974 0.0 0.217907 
0.0 0.0 0.0 0.0 0.0 0.0 0.0 0.0 0.0 0.0 0.0 0.0 0.7502109 0.8626409 0.0 0.0 
0.0 0.0 0.23134425 0.0 0.0 0.0 0.0 0.0 0.0 0.0 0.0 0.0 0.9614436 1.6862732 0.38319516 0.0 
0.85299754 0.0 0.72388536 0.0 0.0 0.0 0.0 0.0 0.0 0.0 0.0 0.0 1.2769812 1.1825854 0.085631624 0.0 
1.0075791 0.0 0.0 0.0 0.0 0.0 0.29150903 0.0 0.0 0.0 0.0 0.0 1.205053 0.5219835 0.0 0.0 
0.2544947 0.0 0.0 0.0 0.0 0.0 0.0 0.0 0.51112807 0.0 0.0 1.9826916 1.0478294 0.44146195 0.0 0.0 
0.17975661 0.0 0.96038413 0.0 0.0 0.0 0.0 0.0 0.01902825 0.0 0.0 1.1289352 0.7114774 0.0 0.0 0.0 
0.10790542 0.0 0.0 0.0 0.15397513 0.24798548 0.0 0.0 0.0 0.0 0.045723453 0.0 0.0 0.0 0.0 0.0 
0.0 0.0 0.0 0.0 0.36901566 0.50528675 0.0 0.0 0.0 0.0 0.0 0.0 0.0 0.0 0.0 0.1881757 
0.0 0.24369283 0.41066214 0.0 0.0 0.0 0.0 0.0 0.0 0.0 0.0 0.0 0.44591725 0.0 0.0 0.0 
0.0 0.25369248 0.0 0.0 0.0 0.0 0.0 0.0 0.0 0.0 0.0 0.0 0.7810935 0.0 0.0 0.0 
0.0 0.26847053 0.0 0.0 0.0 0.0 0.0 0.0 0.0 0.0 0.0 0.0 0.0 0.0 0.0 0.0 
0.0 0.06759492 0.0 0.0 0.0 0.0 0.0 0.0 0.0 0.0 0.0 0.0 0.10742825 0.0 1.5827904 0.0 
0.0 0.0 0.0 0.2478296 0.0 0.0 0.0 0.0 0.0 0.0 0.0 0.0 0.06864485 0.0 1.8554875 0.0 
0.0 0.0 0.0 0.13379452 0.0 0.0 0.3657902 0.0 0.0 0.0 0.0 0.0 0.35891724 0.010727875 0.0 0.0 
0.0 0.0 0.0 0.0 0.0 0.0 0.0 0.0 1.2149642 0.0 0.0 0.1198397 0.0 0.0 0.0 0.0 
0.0 0.0 0.0 0.0 0.0 0.0 0.0 0.0 0.0 0.0 0.052756004 1.2292533 0.5507407 0.0 0.0 0.0 
0.0 0.0 0.0 0.0 0.33613706 0.0 0.0 0.0 0.0 0.0 0.6277395 0.0 0.0 0.0 0.0 0.0 
0.0 0.0 0.0 0.0 0.07121318 2.0496376 0.0 0.0 0.0 0.0 0.13274166 0.0 0.0 0.23987809 0.0 0.0 
0.37046564 0.0 0.0 0.0 0.0 0.22305948 0.0 0.7524293 0.0 0.0 0.0 0.0 0.0 0.28377706 0.0 0.0 
0.32074204 0.0 0.0 0.0 0.0 0.0 0.14779402 0.99821275 0.0 0.32727787 0.0 0.0 0.0 0.0 0.0 0.0 
0.0 0.0 0.0 0.0 0.0 0.0 0.0 0.0 0.0 2.0915923 0.0 0.0 0.0 0.0 0.0 0.0 
0.0 0.0 0.0 0.0 0.0 0.0 0.0 0.0 0.0 1.3362447 0.0 0.0 0.0 0.0 0.0 0.0 
0.0 0.0 0.0 0.0 0.0 0.0 0.24806808 0.0 0.0 0.0 0.0 0.0 0.6688131 0.0 0.4438796 0.0 
0.0 0.0 0.0 0.0 0.0 0.0 0.0 0.0 0.034720827 0.0 0.0 0.0 0.56354684 0.0 0.0 0.0 
0.0 0.0 0.0 0.0 0.0 0.0 0.0 0.0 2.270659 0.0 0.0 0.0 0.0 0.0 0.0 0.0 
0.0 0.0 0.0 0.17302607 0.0 0.0 0.0 0.0 0.0 0.0 0.0873332 0.2785024 0.023979835 0.0 0.0 0.0 
0.0 0.0 0.0 0.0 0.20963436 0.0 0.0 0.0 0.076696485 0.0 0.84990335 0.12813511 0.0 0.0 0.0 0.0 
0.0 0.0 0.0 0.0 0.0 1.7140017 0.0 0.0 0.0 0.0 1.5243636 0.0 0.0 0.0 0.0 0.0 
0.0 0.0 0.0 0.0 0.0 1.2855535 0.8068775 0.0 0.0 0.0 1.9168655 0.0 0.0 1.8985922 0.0 0.0 
0.0 0.0 0.0 0.0 0.0 0.0 0.26014936 0.0 0.0 0.11197394 2.1965308 0.0 0.0 2.2118561 0.0 0.0 
0.0 0.0 0.0 0.0 0.0 0.0 0.0 0.0 0.0 0.01380574 1.0515738 0.0 0.0 1.070632 0.0 0.0 
0.0 0.0 0.0 0.0 0.0 0.0 0.0 0.0 0.0 0.0 0.0 0.0 0.67825335 0.0 0.0 0.0 
0.0 0.0 0.0 0.0 0.0 0.0 2.651618 0.0 0.0 0.0 0.0 0.0 1.27412 0.0 0.0 0.0 
0.0 0.0 0.0 0.0 0.0 0.0 0.0 0.0 3.3103242 0.0 0.0 0.0 0.75680584 0.0 0.0 0.0 
0.0 0.0 0.0 0.0 0.0 0.06680317 0.0 0.0 1.9036438 0.0 0.029909747 0.0 0.0 0.0 0.0 0.36490062 
0.0 0.0 0.0 0.0 0.0 0.0 0.0 0.0 0.0 0.0 0.027150476 0.0 3.0256808e-05 0.0 0.0 0.55703145 
0.0 0.092338674 0.0 0.0 0.0 0.0 0.0 0.032759167 0.0 0.0 0.55766547 0.21651462 0.0 0.0 0.0 0.0 
0.0 0.6936751 0.0 0.0 0.0 0.838967 0.0 0.0 0.0 0.0 0.5332701 0.0 0.0 0.0 0.0 0.0 
0.0 1.0011708 0.0 0.0 0.0 0.5123503 0.0 0.0 0.0 0.0 0.074465685 0.0 0.0 0.0 0.6285604 0.0 
0.0 1.0413296 0.0 0.0 0.0 0.0 0.0 0.0 0.0 0.0 0.40858465 0.0 0.0 0.0 1.8688567 0.0 
0.0 1.044987 0.0 0.6603291 0.0 0.0 0.0 0.0 0.0 0.0 1.2807428 0.0 0.0 0.0 1.4213554 0.0 
0.0 0.22692318 0.0 2.7795866 0.0 0.0 1.3170478 0.0 0.0 0.0 1.0617516 0.0 0.0 0.0 0.0 0.0 
0.0 0.0 0.0 2.4620824 0.0 0.0 1.341164 0.0 0.28518495 0.0 0.4193019 0.0 0.31280804 0.0 0.0 0.0 
0.0 0.0 0.0 0.35157552 0.0 0.0 0.0 0.0 2.9437122 0.0 0.45389336 0.0 0.0 0.075582705 0.0 0.0 
0.0 0.0 0.0 0.0 0.0 0.41857767 0.0 0.0 0.0 0.0 0.26713973 0.0 0.0 0.0 0.0 0.4721527 
0.0 0.0 0.0 0.09737189 0.0 0.0 0.0 0.0 0.0 0.0 0.0027564727 0.0074489713 0.019429602 0.0 0.0 0.56338215 
0.0 0.14192213 0.0 0.0 0.0 0.0 0.087852016 0.0 0.0 0.0 0.25303423 0.25195292 0.0 0.0 0.0 0.0 
0.31144235 0.6531198 0.0 0.0 0.0 0.0 0.0 0.0 0.0 0.0 0.0 0.24342841 0.0 0.0 0.0 0.0 
0.0 1.282474 0.0 0.0 0.0 0.0 0.0 0.0 0.0 0.83970934 0.0 0.0 0.0 0.0 0.0 0.0 
0.0 1.0423199 0.0 0.0 0.0 0.0 0.0 0.0 0.0 2.1735632 0.0 0.0 0.0 0.0 0.100804344 0.0 
0.0 0.0 0.0 1.1759254 0.0 0.0 0.0 0.0 0.0 2.4083982 0.0 0.0 0.0 0.0 0.5265005 0.0 
0.0 0.0 0.0 2.2437615 0.0 0.0 2.1690106 0.0 0.0 0.8049992 0.0 0.0 0.0 0.0 0.0 0.0 
0.0 0.0 0.0 1.2510253 0.0 0.0 0.0 0.0 1.6774161 0.0 0.0 0.0 0.0 0.0 0.0 0.0 
0.0 0.0 0.0 0.0 0.0 0.32517734 0.0 0.0 1.1568538 0.0 0.043801457 0.0 0.0 0.0 0.0 0.83729917 
0.0 0.0 0.0 0.0 0.0 0.05581166 0.0 0.0 0.0 0.0 0.11090845 0.0 0.0 0.0 0.0 0.6976109 
0.0 0.04517863 0.0 0.28765702 0.0 0.0 0.0 0.0 0.0 0.0 0.0 0.0 0.0 0.0 0.0 0.23482095 
0.17995317 0.1205712 0.0 0.0 0.0 0.0 0.27560014 0.0 0.0 0.0 0.0 0.0 0.0 0.0 0.0 0.0 
0.5970169 0.37819666 0.0 0.0 0.254984 0.0 0.0 0.0 0.0 0.16884142 0.0 0.0 0.0 0.0 0.0 0.0 
0.0 0.6436 0.0 0.0 0.36323375 0.0 0.0 0.0 0.0 1.3021749 0.0 0.0 0.0 0.0 0.0 0.6151706 
0.0 0.21456502 0.28849638 0.0 0.0 0.0 0.0 0.0 0.0 1.5728861 0.0 0.0 0.0 0.0 0.0 0.2146816 
0.0 0.0 0.0 0.0326324 0.0 0.0 3.0239666 0.118295625 0.0 0.60484993 0.0 0.0 0.0 0.0 0.0 0.0 
0.0 0.0 0.0 0.2713514 0.0 0.0 2.2514067 0.0 0.4601891 0.0 0.0 0.0 0.0 0.0 0.0 0.0 
0.0 0.0 0.0 0.0 0.0 0.0 0.0 0.0 2.9590003 0.0 0.0 0.0 0.0 0.0 0.0 0.0 
0.0 0.0 0.0 0.0 0.0 0.578161 0.0 0.0 0.20663348 0.0 0.21251607 0.0 0.0 0.0 0.0 0.79356694 
0.0 0.0 0.0 0.008477781 0.0 0.0 0.0 0.0 0.0 0.0 0.0 0.0 0.0 0.0 0.0 0.6401719 
0.0 0.03222089 0.0 0.17869902 0.0 0.0 0.0 0.0 0.0 0.0 0.0 0.0 0.0 0.0 0.0 0.0 
0.2503152 0.0 0.0 0.0 0.0 0.20476201 0.0 0.0 0.0 0.0 0.0 0.0 0.0 0.06259649 0.0 0.0 
0.22751568 0.0 0.0 0.0 0.37956944 0.18397188 0.0 0.0 0.0 0.0 0.0 0.0 0.0 0.0 0.0 0.03142486 
0.0 0.0 0.0 0.0 0.0 0.0 0.0 0.0 0.0 0.28374752 0.0 0.0 0.0 0.0 0.0 0.8354819 
0.0 0.0 0.523823 0.0 0.0 0.0 0.31106243 0.7731261 0.0 0.0 0.0 0.0 0.0 0.0 0.0 0.0 
0.0 0.0 0.0 0.0 0.0 0.0 2.9009533 1.6031139 0.0 0.0 0.0 0.0 0.0 0.0 0.0 0.0 
0.0 0.0 0.0 0.0 0.0 0.0 0.0 0.0 2.543895 0.0 0.0 0.0 0.0 0.0 0.0 0.0 
0.0 0.0 0.0 0.0 0.0 0.105141744 0.0 0.0 2.0290403 0.0 0.0935397 0.0 0.0 0.0 0.0 0.30741665 
0.0 0.0 0.0 0.0 0.0 0.1363636 0.0 0.0 0.0 0.0 0.2012513 0.0 0.0 0.0 0.0 0.6628465 
0.0 0.06552943 0.0 0.25371063 0.0 0.0 0.0 0.0 0.0 0.0 0.0 0.0 0.0 0.0 0.0 0.2544028 
0.0 0.0 0.0 0.04760089 0.0 0.0 0.0 0.0 0.0 0.0 0.0 0.0 0.0 0.0 0.0 0.0 

