0.0 0.0 0.0 0.0014340691 0.0 0.0 0.065750934 0.0 0.0 0.0 0.0 0.0 0.0 0.0 0.0 0.0 
0.0 0.027305933 0.0 0.0 0.08522735 0.0 0.069749855 0.0 0.0 0.0 0.0 0.0 0.0 0.0 0.0 0.0 
0.11833303 0.28071043 0.036356304 0.0 0.22465548 0.009683356 0.0 0.0 0.0 0.0 0.0 0.0 0.0 0.0 0.0 0.0 
0.33122334 0.9603253 1.216401 0.0 0.025206141 0.055844545 0.0 0.0 0.056060005 0.0 0.0 0.0 0.0 0.0 0.0 0.96728355 
1.0163387 1.739902 0.995263 0.0 0.0 0.0 0.0 0.0 0.0 0.0 0.0 0.0 0.0 0.0 0.0 0.9998904 
1.1262383 1.6540383 0.0 0.0 0.0 0.0 0.7330489 0.0 0.0 0.0 0.0 1.0170466 0.0 0.0 0.0 0.0 
1.3376667 0.59966767 0.0 0.0 0.0 0.0 0.0 0.0 0.0 0.0 0.0 1.2946864 0.0 0.0 0.0 0.0 
1.1518621 0.2819473 0.0 0.0 0.0 0.0 0.0 0.0 0.0 0.34592825 0.0 0.050398245 0.0 0.0 0.0 0.0 
0.8259534 0.094508745 0.0 0.0 0.39392826 0.0 0.0 0.0 0.0 0.55686337 0.0 0.0 0.0 0.0 0.0 0.0 
0.3996905 0.0 0.0 0.0 0.7842615 0.0 0.0 0.112348214 0.0 0.6109942 0.0 0.14533694 0.0 0.0 0.0 0.0 
0.020139929 0.13858654 0.0 0.0 0.0 0.05269757 0.023806227 0.0 0.0 0.0 0.0 0.0 0.0 0.0 0.0 0.0 
0.41541722 0.49870217 0.0 0.0 0.08593101 0.004529409 0.0 0.0 0.0 0.0 0.0 0.0 0.0 0.0 0.0 0.0 
0.7269654 1.1537738 0.0 0.0 0.028555818 0.0 0.0 0.0 0.0 0.19363949 0.0 0.0 0.0 0.0 0.0 0.61499536 
1.1268072 1.0964687 0.8306368 0.0 0.0 0.0 0.0 0.0 0.0 0.44129443 0.0 0.0 0.0 0.0 0.4638843 1.5969963 
2.5495274 0.0 0.0 0.0 0.0 0.0 0.0 0.29425925 0.0 0.5843689 0.0 0.0 0.0 0.0 0.5054742 0.0 
2.9666274 0.0 0.0 0.0 0.0 0.0 0.49870282 0.8681953 0.0 0.0 0.0 0.0 0.0 0.0357875 0.0 0.0 
2.9132597 0.0 0.0 0.0 0.0 0.0 0.0 0.0 0.0 0.2497336 0.0 0.0 0.0 0.13002664 0.0 0.0 
2.4607518 0.0 0.0 0.0 0.0 0.0 0.0 0.0 0.0 0.03255641 0.0 0.0 0.3736351 0.25520065 0.0 0.0 
1.6822488 0.0 0.0 0.0 0.0 0.0 0.0 0.0 0.0 0.036076624 0.0 0.0 0.72506005 0.0 0.0 0.0 
1.0526012 0.0 0.0 0.0 0.0 0.0 0.0 0.0 0.0 0.0 0.0 0.0 0.6205125 0.0 0.0 0.0 
0.39139357 0.0 0.0 0.0 0.0 0.26190177 0.0 0.0 0.0 0.0 0.09383577 0.0 0.0 0.19205269 0.0 0.0 
0.7417335 0.0 0.0 0.0 0.0 0.8438046 0.0 0.0 0.0 0.01794758 0.0 0.0 0.0 0.60752577 0.0 0.017946187 
0.50062436 0.0 0.0 0.0 0.0 0.0 0.0 0.0 0.0 0.71811676 0.0 0.0 0.0 0.037275843 0.18508084 1.5052217 
0.08634445 0.0 1.6363406 0.0 0.0 0.0 0.0 0.0 0.0 0.09413405 0.0 0.0 0.42576486 0.0 0.43977916 0.91527855 
0.6071532 0.0 0.0 0.0 0.0 0.0 0.8983125 0.5229621 0.0 0.0 0.0 0.0 1.6391197 0.74007833 0.7563288 0.0 
0.45603225 0.0 0.0 0.0 0.0 0.0 0.06796883 0.0 0.0 0.0 0.0 0.0 1.9987128 2.124552 0.0 0.0 
0.0 0.0 0.0 0.0 0.0 0.0 0.0 0.0 0.0 0.0 1.0187873 0.0 1.2847495 3.3353522 0.0 0.0 
0.0 0.0 0.0 0.0 0.0 0.0 0.0 0.0 0.0 0.0 1.1596091 0.0 1.8763433 2.7962656 0.0 0.0 
0.0 0.0 0.0 0.0 0.0 0.0 0.0 0.0 0.0 0.0 0.7961593 0.0 1.8020524 1.7884763 0.0 0.0 
0.0139457695 0.0 0.0 0.0 0.0 0.0 0.0 0.0 0.6612221 0.0 0.58869725 0.0 1.0773169 0.8857171 0.0 0.0 
0.0 0.0 0.0 0.0 0.0 0.0 0.0 0.0 0.07661818 0.022272408 0.5006188 0.0 0.0 0.0 0.0 0.0 
0.0 0.0 0.0 0.0 0.07629926 0.6148657 0.0 0.0 0.0 0.0 0.748653 0.0 0.0 0.193838 0.0 0.0 
0.0 0.0 0.0 0.0 0.0 0.20821714 0.0 0.0 0.0 0.0 0.0 0.0 0.017024748 0.5227769 0.0 0.0 
0.0 0.0 0.5077074 0.0 0.0 0.0 0.0 0.7643131 0.0 0.0 0.0 0.0 1.4166317 0.0 0.0 0.0 
0.0 0.0 0.0 0.0 0.0 0.0 0.6377138 1.1915976 0.0 0.0 0.0 0.0 2.1507185 0.0 0.0 0.0 
0.0 0.0 0.0 0.0 0.0 0.0 0.0 0.0 0.0 0.0 0.0 0.0 2.16108 0.0 0.2315814 0.0 
0.0 0.0 0.0 1.6422381 0.0 0.0 0.0 0.0 0.3705535 0.0 1.999363 0.0 0.27094072 0.0 0.67618614 0.0 
0.0 1.0653703 0.0 4.290299 0.0 0.0 0.0 0.0 0.0 0.0 2.5240653 0.0 0.0 0.69181806 0.47557825 0.0 
0.0 0.94425184 0.0 4.014885 0.0 0.0 0.0 0.0 0.0 0.0 1.9868584 0.0 0.0 0.5381437 0.34088188 0.0 
0.0 0.56143504 0.0 2.3960102 0.0 0.0 0.0 0.0 0.0 0.0 1.2884914 0.0 0.0 0.113591336 0.0 0.9948632 
0.0 0.045066133 0.0 0.0 0.0 0.0 0.0 0.0 0.0 0.0 0.36497653 0.031429827 0.03140706 0.0 0.0 0.0 
0.0 0.26716217 0.0 0.0 0.0 0.34539807 0.0 0.0 0.0 0.0 0.8865041 0.1744304 0.0 0.0 0.0 0.0 
0.0 0.5602579 0.0 0.0 0.0 1.9650543 0.0 0.28204405 0.0 0.0 0.2883069 0.0 0.0 0.0 0.0 0.0 
0.0 1.4663521 0.0 0.7782409 0.0 0.0 0.0 1.7311609 0.0 0.0 0.0 0.0 0.0 0.0 0.0 0.0 
0.0 1.9928318 0.0 1.5912263 0.0 0.0 0.22396848 1.1282315 0.0 0.0 0.0 0.0 0.0 0.0 0.0 0.0 
0.0 0.32937163 0.0 1.4462212 0.0 0.0 0.0 0.0 0.0 0.27180037 0.0 0.0 0.0 0.0 0.0 0.0 
0.0 0.0 0.0 1.5615373 0.0 0.0 0.0 0.0 0.0 1.3581597 0.0 0.0 0.0 0.0 0.0 0.0 
0.0 0.0 0.0 3.4693115 0.53704304 0.6083419 0.0 0.0 0.0 2.1491282 0.0 0.0 0.0 0.0 0.0 0.0 
0.0 0.0 0.0 2.8596923 1.0373108 0.57325745 0.0 0.0 0.0 1.5549762 0.32897258 0.0 0.0 0.0 0.21914266 0.34268495 
0.0 0.0 0.0 1.3904945 0.59488857 0.34116155 0.0 0.0 0.0 0.665296 0.28788456 0.0 0.0 0.0 0.33144623 0.9898153 
0.0 0.072689526 0.0 0.0 0.0 0.0 0.0 0.04185009 0.0 0.0 0.26188588 0.09973541 0.0 0.0 0.0 0.0 
0.0 0.20059513 0.0 0.0 0.0 0.0 0.0 0.0 0.0 0.28952122 0.8656076 0.0730726 0.0 0.0 0.0 0.0 
0.0 0.0 0.0 0.0 0.0 2.3673437 0.0 0.20297916 0.0 0.9873501 1.0786337 0.0 0.0 0.0 0.0 0.0 
0.0 0.0 0.0 0.1937347 0.0 1.1908665 1.1110924 0.13147207 0.0 1.0935409 0.88681823 0.0 0.0 1.8419608 0.0 0.0 
0.0 0.0 0.0 0.0 0.0 0.0 0.81298536 0.0 0.0 1.0245069 0.20776004 0.0 0.0 1.7593182 0.0 0.0 
0.0 0.0 0.0 0.0 0.0 0.0 0.0 0.0 0.0 1.1040883 0.0 0.0 0.0 0.0 0.0 0.0 
0.0 0.0 0.0 0.0 0.0 0.0 0.0 0.0 0.0 0.71274596 0.0 1.1996061 0.0 0.0 0.0 0.0 
0.0 0.0 0.0 0.0 0.0 0.0 0.0 0.0 0.0 0.34883997 0.0 0.7701018 0.4776395 0.0 0.0 0.0 
0.0 0.0 0.0 0.0 0.0 0.5963368 0.0 0.0 0.0 0.0 0.0 0.0 0.0 0.0 0.0 0.0 
0.0 0.0 0.07795817 0.0 0.05388102 0.58304304 0.0 0.0 0.0 0.0 0.0 0.0 0.0 0.0 0.0 0.0 
0.0 0.074858405 0.0 0.0 0.0 0.0 0.059783027 0.030966356 0.0 0.0 0.16052768 0.0 0.0 0.0 0.0 0.0 
0.0 0.20969626 0.0 0.0 0.0 0.0 0.0 0.0 0.0 0.0 0.5850285 0.10258141 0.0 0.0 0.0 0.0 
0.0 0.6543286 0.0 0.0 0.0 0.9759194 0.0 0.0 0.0 0.0 0.40795913 0.0 0.0 0.0 0.0 0.0 
0.0 0.19981666 0.90948516 0.0 0.0 1.2648523 0.4502787 0.0 0.0 0.0 0.013057997 0.0 0.0 0.7045258 0.72724295 0.0 
0.0 0.0 0.006735623 0.0 0.0 0.0 0.0 0.0 0.0 0.0 0.0 0.0 0.0 1.9483236 1.8694022 0.0 
0.0 0.0 0.0 0.0 0.0 0.0 0.0 0.0 0.0 0.0 0.21572268 0.0 0.0 1.3108732 0.5012703 0.0 
0.0 0.0 0.0 0.0 0.0 0.0 0.0 0.0 0.0 0.0 0.1469699 0.34561387 0.4751674 0.14091444 0.0 0.0 
0.0 0.0 0.0 0.0 0.0 0.0 0.0 0.0 0.0 0.0 0.0 2.4176636 1.3401132 0.030057326 0.0 0.0 
0.29419187 0.0 0.67581856 0.0 0.0 0.0 0.0 0.0 0.0 0.0 0.0 0.81722105 0.49038935 0.009979472 0.0 0.0 
0.27498943 0.0 0.64725065 0.0 0.0 0.11647341 0.0 0.0 0.0 0.0 0.0 0.0 0.0 0.012223557 0.0 0.0 
0.0 0.045896772 0.0 0.0 0.0 0.0 0.013775272 0.0 0.0 0.0 0.0 0.0 0.0 0.0 0.0 0.0 
0.014480647 0.4454762 0.0 0.0 0.0 0.0 0.0 0.0 0.0 0.0 0.0 0.40084615 0.0 0.0 0.0 0.0 
0.0 1.7123011 0.0 0.0 0.0 0.0 0.0 0.0 0.0 0.0 0.0 0.0 0.0 0.0 0.0 0.0 
0.0 2.672432 0.0 0.0 0.0 0.0 0.0 0.0 0.0 0.029516902 0.0 0.0 0.0 0.0 0.78538865 0.0 
0.0 1.8645773 0.26310354 0.0 0.0 0.0 0.0 0.0 0.0 0.4312483 0.0 0.0 0.0 0.0 3.857115 0.0 
0.0 0.0 0.0 0.0 0.0 0.0 0.0 0.0 0.0 0.0 0.0 0.0 0.0 0.0 3.65849 0.0 
0.0 0.0 0.0 0.3804376 0.0 0.0 0.0 0.0 0.0 0.0 0.0 0.0 0.0 0.0 0.6244453 0.0 
0.0 0.0 0.0 0.0 0.0 0.0 0.0 0.0 0.0 0.0 0.0 0.78574896 0.35545546 0.0 0.0 0.0 
0.0 0.0 0.18121539 0.0 0.0 0.0 0.0 0.0 0.0 0.0 0.0 1.4089539 0.88328755 0.0 0.0 0.0 
0.0 0.0 0.48021072 0.0 0.0 0.0 0.0 0.0 0.0 0.0 0.0 0.25539386 0.43337858 0.0 0.0 0.0 
0.08011791 0.12604497 0.0 0.0 0.0 0.022027992 0.0 0.0 0.0 0.0 0.0 0.0 0.0 0.014981762 0.0 0.0 
0.83390856 0.5239565 0.0 0.0 0.0 0.0 0.0 0.0 0.0 0.0 0.0 0.0 0.0 0.0 0.0 0.0 
1.4767578 1.0655543 0.0 0.0 0.0 0.0 0.0 0.0 0.0 0.8734566 0.0 0.0 0.0 0.0 0.0 0.13228332 
0.71833557 0.88655555 0.0 0.0 0.0 0.0 0.0 0.0 0.0 2.3302698 0.0 0.0 0.0 0.0 0.0 0.0 
0.0 0.0 0.0 0.0 0.0 0.0 0.0 0.0 0.0 2.463381 0.0 0.0 0.0 0.0 0.2375061 0.0 
0.0 0.0 0.0 0.0 0.0 0.0 0.5286123 0.0 0.0 0.7573785 0.0 0.0 0.46667612 0.0 1.8616142 0.0 
0.0 0.0 0.0 0.0 0.0 0.0 0.0 0.0 0.0 0.0 0.0 0.0 0.5817316 0.0 1.1612055 0.0 
0.0 0.0 0.0 0.0 0.0 0.0 0.0 0.0 1.7133912 0.0 0.0 0.0 0.0 0.0 0.07015748 0.0 
0.0 0.0 0.0 0.16995919 0.0 0.0 0.0 0.0 0.0 0.0 0.2723748 0.55829346 0.24653982 0.0 0.0 0.0 
0.0 0.0 0.0 0.37784457 0.0 0.0 0.0 0.0 0.0 0.0 0.038742922 0.41712853 0.18695503 0.0 0.0 0.034449976 
0.23036273 0.0 0.0 0.0 0.0 0.10746282 0.0 0.0 0.0 0.0 0.14253536 0.0 0.0 0.23756084 0.0 0.0 
0.48441222 0.0 0.0 0.0 0.0 0.10234201 0.0 0.0 0.0 0.22883475 0.6318785 0.0 0.0 0.6134234 0.0 0.35623482 
0.03266372 0.0 0.0 0.0 0.0 0.0 0.0 0.0 0.0 0.76624733 1.1577214 0.0 0.0 0.8206836 0.0 0.59157264 
0.0 0.0 0.0 0.0 0.0 0.0 0.0 0.050684027 0.0 0.31493273 1.0821705 0.0 0.18395546 0.46244988 0.0 0.0 
0.0 0.0 0.0 0.0 0.0 0.0 0.0 0.2550264 0.0 0.0 0.0 0.0 0.6891131 0.08284535 0.0 0.0 
0.0 0.0 0.0 0.0 0.0 0.0 0.45204586 0.47738403 0.0 0.0 0.0 0.0 0.6815965 0.0 0.0 0.0 
0.0 0.0 0.0 0.107671455 0.0 0.0 0.0 0.0 2.7252643 0.0 0.40695304 0.0 0.6095071 0.0 0.06658183 0.0 
0.0 0.0 0.0 0.3113239 0.0 0.0 0.0 0.0 1.8367159 0.0 0.83249944 0.0 0.0 0.0 0.07922749 1.6264637 
0.0 0.0 0.0 0.5101977 0.0 0.0 0.0 0.0 0.0 0.0 0.433097 0.058357865 0.0 0.0 0.0 0.93515235 
0.0 0.035136525 0.0 0.5718696 0.0 0.0 0.0 0.0 0.0 0.0 0.010701638 0.12148026 0.020442016 0.0 0.0 0.18212985 

