0.08205767 0.079534635 0.0 0.0 0.35448837 0.06928548 0.00031770207 0.0 0.0 0.0 0.0 0.0 0.0 0.0 0.0 0.0 
0.89637035 0.51757854 0.5114018 0.0 0.17372268 0.21307346 0.0 0.0 0.0 0.0 0.0 0.0 0.0 0.23410803 0.0 0.4175333 
1.7953868 0.98708695 1.0162944 0.0 0.0 0.0 0.0 0.0 0.0 0.4307339 0.0 0.0 0.0 0.05943749 0.0 1.8012888 
2.8089616 1.0024493 0.0 0.0 0.0 0.0 0.0 0.0 0.0 0.7276225 0.0 0.0 0.0 0.06467604 0.0 1.4230429 
3.4708853 0.0 0.0 0.0 0.0 0.0 0.0 0.0 0.0 0.45205665 0.0 0.0 0.0 0.0 0.0 0.0 
3.3234208 0.0 0.0 0.0 0.0 0.0 0.0 0.0 0.0 0.13789532 0.0 0.0 0.0 0.0 0.0 0.0 
2.4750392 0.0 0.0 0.0 0.0 0.0 0.0 0.0 0.0 0.5239606 0.0 0.60289633 0.42982322 0.0 0.0 0.0 
1.5302962 0.0 0.0 0.0 0.0 0.0 0.0 0.0 0.0 0.47095007 0.0 1.5347176 0.5636641 0.0 0.0 0.0 
0.5869686 0.0 0.0 0.14639498 0.5628828 1.0512524 0.0 0.0 0.0 0.023551393 0.0 0.1850768 0.0 0.050410993 0.0 0.0 
0.0 0.0 0.079785556 0.48614657 0.5608611 0.7614857 0.0 0.0 0.0 0.0 0.2722189 0.0 0.0 0.73499626 0.0 0.0 
0.44161376 0.0 0.0 0.0 0.621028 0.25686538 0.0 0.0 0.0 0.0 0.0 0.0 0.0 0.062166788 0.0 0.0 
0.44826844 0.17418754 1.2800647 0.0 0.0 0.0 0.0 0.0 0.0 0.7361178 0.0 0.0 0.0 0.0 0.8066214 1.8158921 
0.4739962 0.0 1.4125777 0.0 0.0 0.0 0.0 0.0 0.0 0.9931557 0.0 0.0 0.40340018 0.009564668 1.2942952 2.6563005 
1.3127038 0.0 0.0 0.0 0.0 0.0 1.490392 0.0 0.0 0.0 0.0 0.0 1.39247 1.5395266 0.4391489 0.0 
2.1652174 0.0 0.0 0.0 0.0 0.0 0.0 0.0 0.0 0.0 0.0 0.0 0.582774 4.2244506 0.0 0.0 
2.4033036 0.0 0.0 0.0 0.0 0.0 0.0 0.0 0.0 0.0 0.0 0.0 0.7011231 3.3444326 0.0 0.0 
1.8770403 0.0 0.8358969 0.0 0.0 0.0 0.0 0.0 0.0 0.0 0.0 0.0 1.4910164 0.14878672 0.0 0.0 
1.0536638 0.0 0.0 0.0 0.0 0.0 0.0 0.0 0.0 0.0 0.0 3.3252394 2.0986629 0.0 0.0 0.0 
0.9793238 0.0 0.0 0.0 0.0 0.0 0.0 0.0 0.0 0.0 0.0 2.0779219 1.1864668 0.0 0.0 0.0 
0.43664503 0.0 0.44268814 0.0 0.0 0.63169086 0.0 0.0 0.0 0.0 0.0 0.0 0.0 0.52609926 0.0 0.0 
0.0 0.0 0.0 0.0 0.9976953 0.5798285 0.0 0.0 0.0 0.0 0.0 0.0 0.0 0.035974614 0.0 0.0 
0.0 0.0 1.8251202 0.0 0.0 0.0 0.0 0.0 0.0 0.27279925 0.0 0.0 0.0 0.0 0.9495415 1.808287 
0.0 0.0 1.0952634 0.0 0.0 0.0 0.29073828 0.0 0.0 0.0 0.0 0.0 1.649668 0.0 0.9600423 0.0 
0.0 0.0 0.0 0.0 0.0 0.0 1.7402294 0.0 0.0 0.0 0.0 0.0 2.3091965 0.0 0.68578875 0.0 
0.0 0.0 0.0 0.0 0.0 0.0 0.0 0.0 0.0 0.0 0.0 0.0 1.4165622 1.0259938 1.5558432 0.0 
0.0 0.0 0.0 0.0 0.0 0.0 0.0 0.0 0.06072085 0.0 0.0 0.0 0.0 2.8163812 2.3093212 0.0 
0.0 0.0 0.0 0.6453898 0.0 0.0 0.0 0.0 0.0 0.0 0.0 0.0 0.72457796 0.8876217 0.0 0.0 
0.0 0.0 0.0 0.0 0.0 0.0 0.0 0.0 0.0 0.0 0.0 2.1883783 0.8356751 0.0 0.0 0.0 
0.0 0.0 0.0 0.0 0.0 0.0 0.0 0.0 0.0 0.0 0.0 3.8605254 1.6716608 0.0 0.0 0.0 
0.3965022 0.0 1.0389042 0.0 0.0 0.06175697 0.0 0.0 0.0 0.0 0.0 0.6612972 0.35589778 0.202988 0.0 0.0 
0.0 0.0 0.0 0.0 1.1006445 1.4701862 0.0 0.0 0.0 0.0 0.0 0.0 0.0 0.0 0.0 0.0 
0.0 0.0 1.1778529 0.0 0.0 0.0 0.0 0.0 0.0 0.0 0.0 0.0 0.0 0.0 0.0 0.0 
0.0 0.025461143 0.0 0.0 0.0 0.0 1.7680794 1.7344986 0.0 0.0 0.0 0.0 0.42827678 0.0 0.0 0.0 
0.0 0.0 0.0 0.0 0.0 0.0 1.740468 0.3238091 0.0 0.0 0.0 0.6965921 0.0 0.0 0.0 0.0 
0.0 0.0 0.0 0.0 0.0 0.0 0.0 0.0 2.2587154 0.0 0.0 0.09414026 0.0 0.0 0.0 0.0 
0.0 0.0 0.38809666 0.61420166 0.0 1.0586565 0.0 0.0 0.0 0.0 0.0 0.0 0.0 0.0 3.3690453 0.0 
0.0 0.0 0.0 1.7459393 0.0 0.0 0.0 0.0 0.0 0.0 0.0 0.0 0.0 0.0 3.115124 0.079918616 
0.0 0.0 0.0 0.54080975 0.0 0.0 0.0 0.0 0.0 0.0 0.0 0.0 0.0 0.0 0.0 0.0 
0.0 0.0 0.0 0.0 0.0 0.0 0.0 0.0 0.21064031 0.0 0.0 2.7697568 0.5663934 0.0 0.0 0.0 
0.0 0.0 0.40025637 0.0 0.0 0.0 0.0 0.0 0.0 0.0 0.0 1.4741726 0.37636685 0.0002896674 0.0 0.0 
0.0 0.0 0.0 0.0 0.63017774 2.2551148 0.0 0.0 0.0 0.0 0.7012831 0.16555108 0.0 0.0 0.0 0.0 
0.0 0.0 0.4876824 0.0 0.0 2.3342612 0.0 0.45411867 0.0 0.0 0.0 0.0 0.0 0.67362887 0.0 0.0 
0.43090096 0.0 0.0 0.0287516 0.0 0.0 2.4433706 2.7903533 0.0 0.0 0.0 0.0 0.0 0.0 0.0 0.0 
1.0519633 0.0 0.0 0.0 0.0 0.0 0.58845973 0.0 0.0 0.73591805 0.0 0.0 0.0 0.0 0.0 0.0 
0.6125492 0.0 0.0 0.0 0.0 0.0 0.0 0.0 0.0 1.2107651 0.0 0.46120486 0.0 0.0 0.0 0.0 
0.0 0.0 1.3228527 0.0 0.0 0.3405478 0.0 0.0 0.0 1.014855 0.0 0.0 0.0 0.0 0.0 0.0 
0.0 0.0 0.64879227 0.0 0.0 0.0 0.5909861 0.0 0.0 0.49012852 0.0 0.0 0.0 0.0 2.1291785 0.0 
0.0 0.0 0.0 0.0 0.0 0.0 0.88663036 0.0 0.0 0.0 0.0 0.0 0.078600556 0.0 0.04578027 0.0 
0.0 0.0 0.0 0.0 0.0 0.0 0.0 0.0 2.297698 0.0 0.0 0.713004 0.0 0.0 0.0 0.0 
0.0 0.0 0.0 0.0 0.0 0.13000542 0.0 0.0 0.0 0.0 0.0 1.2917532 0.25849587 0.0 0.0 0.0 
0.0 0.0 0.0 0.0 0.18021312 1.5821962 0.0 0.0 0.0 0.0 1.5521443 0.037916027 0.0 0.0 0.0 0.0 
0.0 0.0 0.7859715 0.0 0.0 3.6866372 0.0 0.56270623 0.0 0.0 0.8152576 0.0 0.0 1.8132018 0.0 0.0 
0.38265958 0.0 0.44591936 0.0 0.0 0.0 2.4744673 1.3744092 0.0 0.0 1.5641456 0.0 0.0 3.4105582 0.0 0.0 
0.91961414 0.0 0.0 0.0 0.0 0.0 0.0 0.0 0.0 0.0 1.8188113 0.0 0.0 1.9630967 0.0 0.0 
0.06105442 0.0 0.0 0.0 0.0 0.0 0.0 0.0 0.0 0.0 0.0 0.0 0.0 0.6321313 0.0 0.0 
0.0 0.0 2.8086822 0.0 0.0 0.0 0.0 0.0 0.0 0.0 0.0 0.0 0.8667305 0.0 0.0 0.0 
0.011969481 0.0 3.5514581 0.0 0.0 0.0 1.5711724 0.0 0.0 0.0 0.0 0.0 1.9322284 0.0 0.0 0.0 
0.3935423 0.0 0.0 0.0 0.0 0.0 1.7759845 0.0 1.4206582 0.0 0.0 0.0 1.6137098 0.0 0.0 0.0 
0.0 0.0 0.0 0.0 0.0 0.0 0.0 0.0 3.4840274 0.0 0.0 0.28092676 0.36094725 0.0 0.0 0.0 
0.0 0.0 0.0 0.0 0.0 0.17297715 0.0 0.0 0.0 0.0 0.0 0.87247574 0.1473224 0.0 0.0 0.0 
0.0 0.3342842 0.0 0.0 0.0 0.15982154 0.0 0.0 0.0 0.0 1.3797939 0.266103 0.0 0.0 0.0 0.0 
0.0 0.100364335 0.36870047 0.0 0.0 1.765425 0.0 0.1706461 0.0 0.0 1.3641956 0.0 0.0 0.0 0.45075452 0.0 
0.0 0.0 0.058805373 0.0 0.0 0.06715058 1.2602161 0.0 0.0 0.0 2.453017 0.0 0.7330562 1.9765593 1.9817474 0.0 
0.0 0.0 0.0 0.0 0.0 0.0 0.0 0.0 0.0 0.0 4.4200287 0.0 0.25506836 2.0546806 0.90437466 0.0 
0.0 0.0 0.0 0.0 0.0 0.0 0.0 0.0 0.0 0.0 3.553751 0.0 0.0 2.2212045 0.0 0.0 
0.0 0.0 1.5613059 0.0 0.0 0.0 0.0 0.0 0.0 0.0 0.4987174 0.0 1.216976 0.8193024 0.0 0.0 
0.0 0.0 1.741306 0.0 0.0 0.0 2.898948 0.0 0.0 0.0 0.0 0.0 1.7070986 0.0 0.0 0.0 
0.0 0.0 0.0 0.0 0.0 0.0 2.04471 0.0 2.4904025 0.0 0.0 0.059674174 1.1130989 0.0 0.0 0.0 
0.0 0.0 0.0 0.0 0.0 0.0 0.0 0.0 2.9342973 0.0 0.0 0.5245315 0.150473 0.06075181 0.0 0.0 
0.0 0.0 0.0 0.0 0.0 0.24832973 0.0 0.0 0.0 0.0 0.0 0.72109675 0.0 0.0 0.0 0.0 
0.0 0.47055307 0.0 0.0 0.0 0.0 0.0 0.03982389 0.0 0.0 0.7087925 0.43310836 0.0 0.0 0.0 0.0 
0.0 1.2965646 0.0 0.0 0.0 0.16504672 0.0 0.0 0.0 0.0 0.08127624 0.0 0.0 0.0 0.0 0.0 
0.0 1.812726 0.0 0.8377716 0.0 0.0 0.0 0.0 0.0 0.0 0.41274038 0.0 0.050046004 0.0 0.8770034 0.0 
0.0 1.4604583 0.0 0.6702698 0.0 0.0 0.0 0.0 0.0 0.0 1.9048083 0.0 0.0 0.0 1.6802003 0.0 
0.0 2.3335767 0.0 1.0143164 0.0 0.8257643 0.0 0.0 0.0 0.0 1.6938392 0.0 0.0 0.0 1.9345698 0.0 
0.0 2.2501678 0.0 3.9500122 0.0 0.0 0.0 0.0 0.0 0.0 0.0 0.0 0.0 0.0 1.3415504 0.0 
0.0 0.0 0.0 3.8192406 0.0 0.0 2.800243 0.0 0.0 0.0 0.0 0.0 0.0 0.0 0.0007555485 0.0 
0.0 0.0 0.0 0.9849535 0.0 0.0 0.7656126 0.0 0.52043027 0.0 0.0 0.18167505 0.0062578246 0.0 0.0 0.0 
0.0 0.0 0.0 0.0 0.0 0.0 0.0 0.0 1.5201703 0.0 0.0 0.62357795 0.0 0.0 0.0 0.0 
0.0 0.0 0.0 0.0 0.0 0.41825426 0.0 0.0 0.0 0.0 0.100693285 0.31596982 0.0 0.08529807 0.0 0.0 
0.20797478 0.26303342 0.0 0.08637407 0.0 0.0 0.13787374 0.15213248 0.0 0.07572332 0.2271936 0.19211152 0.0 0.0 0.0 0.0 
0.2829903 0.8109091 0.0 0.88826656 0.0 0.0 0.18760698 0.2612592 0.0 0.7804319 0.0 0.15906656 0.0 0.0 0.0 0.0 
0.0 1.2111245 0.0 2.000413 0.0 0.0 0.33189744 0.0 0.0 1.9675411 0.0 0.0 0.0 0.0 0.0 0.0 
0.0 0.9307811 0.0 0.41041094 0.0 0.0 0.0 0.0 0.0 2.8046908 0.23131463 0.0 0.0 0.0 0.0 0.0 
0.0 0.009048721 0.0 0.0 0.6768195 2.346703 0.0 0.0 0.0 2.950072 0.0 0.0 0.0 0.0 0.0 0.0 
0.0 0.0 0.3969963 0.6251074 0.0 0.27866322 0.0 0.0 0.0 2.4932027 0.0 0.0 0.0 0.0 0.6695067 0.0 
0.0 0.0 0.0 0.4736237 0.0 0.0 2.6395025 0.0 0.0 0.69448936 0.0 0.0 0.0 0.0 0.0 0.0 
0.0 0.0 0.0 0.0 0.0 0.0 0.0 0.0 0.0 0.0 0.0 0.0 0.0 0.0 0.0 0.0 
0.0 0.0 0.0 0.0 0.0 0.040377364 0.0 0.0 0.623174 0.0 0.0 0.53926694 0.0 0.0 0.0 0.0 
0.0 0.0 0.0 0.0 0.0 0.45814645 0.0 0.0 0.0 0.0 0.0 0.20370886 0.0 0.0 0.0 0.0 
0.1327939 0.076635756 0.0 0.14562663 0.0 0.0 0.17692843 0.0423553 0.0 0.046402205 0.09902108 0.0 0.0 0.0 0.0 0.0 
0.36104396 0.18485357 0.0 0.4963043 0.0 0.0 0.40011337 0.09198202 0.0 0.36974645 0.065143555 0.0 0.0 0.0 0.0 0.0 
0.22167452 0.14416467 0.0 0.30104542 0.0 0.0 0.5070637 0.0 0.051685397 0.8886853 0.0 0.0 0.0 0.0 0.0 0.0 
0.0 0.0 0.0 0.0 0.6334996 0.0 0.0 0.0 0.36888748 1.0351412 0.52471733 0.0 0.0 0.0 0.0 0.0 
0.0 0.0 0.0 0.0 0.27061346 3.1535964 0.0 0.0 0.0 0.7027891 0.59586865 0.0 0.0 0.0 0.0 0.0 
0.0 0.0 2.3695366 0.0 0.0 1.9128704 0.2453111 0.0 0.0 0.20581658 0.0 0.0 0.0 1.0556705 0.0 0.0 
0.0 0.0 0.10606313 0.0 0.0 0.0 4.1763964 0.0 0.0 0.0 0.0 0.0 0.0 0.80991334 0.0 0.0 
0.0 0.0 0.0 0.0 0.0 0.0 0.0 0.0 1.0699841 0.0 0.0 0.0 0.0 0.0 0.0 0.0 
0.0 0.0 0.0 0.0 0.0 0.0 0.0 0.0 1.1896548 0.0 0.0 0.7866075 0.84130675 0.0 0.0 0.0 
0.0 0.0 0.37657452 0.0 0.0 0.0 0.0 0.0 0.0 0.0 0.0 0.5407778 0.72041565 0.0 0.0 0.0 

