0.0 0.012630438 0.0 0.0 0.2639545 0.0 0.113085486 0.0 0.0 0.0 0.0 0.0 0.0 0.0 0.0 0.0 
0.35504144 0.38564566 0.59397715 0.0 0.3069866 0.059797168 0.0 0.0 0.0 0.0 0.0 0.0 0.0 0.0 0.0 0.16613828 
0.8518439 1.0635626 1.5665842 0.0 0.072013594 0.0 0.0 0.0 0.0 0.0 0.0 0.0 0.0 0.0 0.0 1.0394647 
1.5986079 2.0935931 1.9169396 0.0 0.0 0.0 0.0 0.0 0.0 0.032067444 0.0 0.0 0.0 0.0 0.0 1.6942182 
1.9491551 1.3282841 0.12799385 0.0 0.0 0.0 0.7292827 0.0 0.0 0.13444433 0.0 0.4916744 0.0 0.0 0.0 0.8129817 
1.3605078 0.0 0.0 0.0 0.0 0.0 0.0657363 0.0 0.0 0.41198117 0.0 2.2724614 0.0 0.0 0.0 0.0 
0.88235843 0.0 0.0 0.0 0.5248323 0.14567192 0.0 0.0 0.0 0.3483036 0.0 1.824178 0.0 0.0 0.0 0.0 
0.3565705 0.0 0.0 0.1458659 0.64958006 1.0359626 0.0 0.0 0.0 0.0 0.0 0.0 0.0 0.49048218 0.0 0.0 
0.0 0.0 0.15079607 0.34801877 0.4447124 0.60962117 0.0 0.0 0.0 0.0 0.21849692 0.0 0.0 0.5493929 0.0 0.0 
0.0 0.0 0.0 0.16483265 0.0 0.0 0.0 0.0 0.0 0.0 0.11581677 0.0 0.0 0.053123638 0.0 0.0 
0.45211896 0.33768898 0.0067846254 0.0 0.60155976 0.0 0.0 0.0 0.0 0.0 0.0 0.0 0.0 0.0 0.0 0.0 
0.70451385 0.7685882 0.90804505 0.0 0.17999196 0.0 0.0 0.0 0.0 0.5037593 0.0 0.0 0.0 0.0 0.124069944 1.4457277 
1.0596625 0.39983207 1.3883433 0.0 0.0 0.0 0.0 0.0 0.0 0.9140017 0.0 0.0 0.0 0.0 0.70558673 2.1750786 
2.464334 0.0 0.5669124 0.0 0.0 0.0 0.027616067 0.0 0.0 0.0656904 0.0 0.0 0.0 0.0 0.58079845 0.0 
2.9407232 0.0 0.0 0.0 0.0 0.0 0.1541631 0.67636436 0.0 0.0 0.0 0.0 0.0 0.0 0.0 0.0 
2.3488145 0.0 0.0 0.0 0.0 0.0 0.0 0.0 0.0 0.0 0.0 0.9181752 0.45723307 0.0 0.0 0.0 
1.7467045 0.0 0.0 0.0 0.0 0.0 0.0 0.0 0.0 0.0 0.0 3.7405522 1.4110024 0.0 0.0 0.0 
1.0300422 0.0 0.10026491 0.0 0.0 0.36249644 0.0 0.0 0.0 0.0 0.0 1.9095417 0.82575166 0.0 0.0 0.0 
0.30737618 0.0 0.46663767 0.0 0.0 0.72189164 0.0 0.0 0.0 0.0 0.0 0.0 0.0 0.63791746 0.0 0.0 
0.0 0.0 0.016602907 0.24851194 0.03662993 0.31195968 0.0 0.0 0.0 0.0 0.21401659 0.0 0.0 0.2367397 0.0 0.0 
0.59672296 0.11084851 0.0 0.0 0.7003852 0.35386539 0.0 0.0 0.0 0.18057188 0.0 0.0 0.0 0.0 0.0 0.27821913 
0.10164665 0.0 0.90287703 0.0 0.0 0.0 0.0 0.0 0.0 1.1618502 0.0 0.0 0.0 0.0 0.63433963 2.5616994 
0.0 0.0 0.3775475 0.0 0.0 0.0 0.0 0.0 0.0 0.5698416 0.0 0.0 0.09251596 0.0 1.2290506 0.32437825 
0.44285718 0.0 0.0 0.0 0.0 0.0 0.42166296 0.0 0.0 0.0 0.0 0.0 0.57491887 0.27821776 1.6850301 0.0 
1.4494888 0.0 0.0 0.0 0.0 0.0 0.0 0.79598534 0.0 0.0 0.0 0.0 0.8816382 1.2248901 1.3363193 0.0 
1.5919865 0.0 0.0 0.0 0.0 0.0 0.0 0.0 0.09391937 0.0 0.0 0.0 0.951091 0.0 0.0 0.0 
0.5928568 0.0 0.0 0.0 0.0 0.0 0.0 0.0 0.021460246 0.0 0.0 3.3049002 1.8572031 0.0 0.0 0.0 
0.48073056 0.0 0.0 0.0 0.0 0.0 0.0 0.0 0.0 0.0 0.0 3.9470978 1.9710159 0.0 0.0 0.0 
0.49063525 0.0 0.93148965 0.0 0.0 0.31833392 0.0 0.0 0.0 0.0 0.0 0.46388742 0.260912 0.3055051 0.0 0.0 
0.0 0.0 0.5578219 0.0 0.0 0.46632928 0.0 0.0 0.0 0.0 0.0 0.0 0.0 0.24804911 0.0 0.0 
0.0 0.0 0.0 0.0 0.6794704 1.1003964 0.0 0.0 0.0 0.47797775 0.26738533 0.0 0.0 0.0025178269 0.4038611 0.66165125 
0.0 0.0 0.07629341 0.0 0.0 0.0 0.0 0.19714819 0.0 0.116805896 0.64097923 0.0 0.48331767 0.0 0.0789056 0.6516546 
0.0 0.0 0.0 0.0 0.0 0.0 0.27354017 0.671469 0.0 0.0 1.1210785 0.0 1.4953926 0.0 0.0 0.0 
0.0 0.0 0.0 0.0 0.0 0.0 0.0 0.5903509 0.0 0.0 0.0 0.0 1.5809696 0.0 0.6990359 0.0 
0.0 0.0 0.06350914 0.0 0.0 0.0 0.0 0.0 0.46306562 0.0 0.0 0.0 1.13995 0.986694 2.7572877 0.0 
0.0 0.0 0.0 0.0 0.0 0.0 0.0 0.0 0.64312446 0.0 0.0 0.0 0.6445501 0.39367747 1.3149477 0.0 
0.0 0.0 0.0 0.0 0.0 0.0 0.0 0.0 0.0 0.0 0.0 0.38749817 0.32000333 0.0 0.0 0.0 
0.0 0.0 0.0 0.0 0.0 0.0 0.0 0.0 0.0 0.0 0.0 4.2786107 1.346826 0.0 0.0 0.0 
0.0 0.0 0.4231419 0.0 0.0 0.08260873 0.0 0.0 0.0 0.0 0.0 1.6720674 0.54510283 0.11713462 0.0 0.0 
0.09998006 0.0 0.9085817 0.0 0.0 0.31180784 0.0 0.0 0.0 0.0 0.0 0.0 0.0 0.1266419 0.0 0.0 
0.0 0.0 0.0 0.0 0.2165406 1.3900142 0.0 0.0 0.0 0.0 1.7041984 0.0 0.19161378 0.0 0.034953713 0.0 
0.0 0.0 0.0 0.0 0.0 0.89584976 0.0 1.4372094 0.0 0.0 2.1880078 0.0 0.25665516 0.0 0.0 0.0 
0.0 0.0 0.0 0.0 0.0 0.0 1.3611268 2.1631305 0.0 0.0 3.0834925 0.0 0.0 0.0 0.0 0.0 
0.0 0.0 0.0 0.0 0.0 0.0 0.0 0.0 1.4286318 0.0 1.8564994 0.0 0.0 0.0 0.0 0.0 
0.0 0.0 0.25025988 0.0 0.0 1.3196287 0.0 0.0 1.2171096 0.0 0.0 0.0 0.0 0.0 1.5555239 0.0 
0.0 0.0 0.89633656 0.2127877 0.0 0.0 0.09349719 0.0 0.0 0.0 0.0 0.0 0.0 0.0 2.498726 0.0 
0.0 0.0 0.0 0.0 0.0 0.0 0.6388309 0.0 0.0 0.0 0.0 0.0 0.0 0.0 0.0 0.0 
0.0 0.0 0.0 0.0 0.0 0.0 0.0 0.0 0.1381008 0.0 0.0 2.7940319 0.42089832 0.0 0.0 0.0 
0.0 0.0 0.0 0.0 0.0 0.10228187 0.0 0.0 0.0 0.0 0.0 2.325939 0.67577004 0.0 0.0 0.0 
0.0 0.0 0.78633326 0.0 0.0 0.20990282 0.0 0.0 0.0 0.0 0.0 0.0 0.0 0.02506502 0.0 0.0 
0.0 0.6025381 0.0 0.0 0.0 0.7441484 0.0 0.2839666 0.0 0.0 1.3442227 0.3300529 0.0 0.0 0.0 0.0 
0.0 0.9821669 0.0 2.0887086 0.0 0.82695997 0.16204453 1.5885345 0.0 0.0 1.5164483 0.0 0.0 0.0 0.0 0.0 
0.0 1.2611634 0.0 3.4789836 0.0 0.0 1.5814033 1.0862645 0.24175677 0.487567 2.5478237 0.0 0.0 0.0 0.0 0.0 
0.0 0.22494154 0.0 1.2181302 0.0 0.029906213 0.0 0.0 2.1784213 0.08234903 2.4143937 0.0 0.0 0.0 0.0 0.0 
0.0 0.0 0.0 0.13309018 0.0 3.7095716 0.0 0.0 0.0 0.0 0.0 0.0 0.0 0.0 0.0 0.0 
0.0 0.0 2.78688 0.28951746 0.0 0.0 0.99716026 0.0 0.0 0.0 0.0 0.0 0.0 0.0 2.0602984 0.0 
0.0 0.0 0.0 0.0 0.0 0.0 2.7057877 0.0 0.0 0.0 0.0 0.0 0.0 0.0 0.3120799 0.0 
0.0 0.0 0.0 0.0 0.0 0.0 0.0 0.0 0.98223245 0.0 0.0 1.2362928 0.0 0.0 0.0 0.0 
0.0 0.0 0.0 0.0 0.0 0.0 0.0 0.0 0.0 0.0 0.0 2.4830322 0.8714516 0.0 0.0 0.0 
0.0 0.0 0.47676104 0.0 0.0 0.0 0.0 0.0 0.0 0.0 0.0 0.28642502 0.0 0.0 0.0 0.0 
0.15044224 0.91103053 0.0 1.0062363 0.0 0.099829555 0.0 0.45613086 0.0 0.26876464 0.61358804 0.20717695 0.0 0.0 0.0 0.0 
0.0 1.3082266 0.0 2.70886 0.0 0.3468814 0.8204904 0.67969185 0.0 1.5662714 0.42537665 0.0 0.0 0.0 0.0 0.0 
0.0 0.87650996 0.0 2.1132529 0.26376233 0.0 1.2663916 0.0 1.1342708 1.699302 0.797878 0.0 0.0 0.0 0.0 0.0 
0.0 0.0 0.0 0.0 1.4330649 0.6211079 0.0 0.0 0.7157175 0.15509772 1.0145987 0.0 0.0 0.0 0.0 0.7924354 
0.0 0.03397609 0.104140565 0.0 0.5494062 3.932668 0.0 0.0 0.0 0.0 0.0 0.0 0.0 0.0 0.0 0.0 
0.0 0.0 4.683833 0.0 0.0 0.0 1.1660935 0.0 0.0 0.0 0.0 0.0 0.0 0.0 1.6778781 0.0 
0.0 0.0 0.0 0.0 0.0 0.0 4.137596 0.0 0.0 0.0 0.0 0.0 0.0 0.0 0.43705076 0.0 
0.0 0.0 0.0 0.0 0.0 0.0 0.0 0.0 1.6244702 0.0 0.0 0.37426183 0.0 0.0 0.0 0.0 
0.0 0.0 0.0 0.0 0.0 0.0 0.0 0.0 0.2895743 0.0 0.0 2.3284767 0.57011634 0.0 0.0 0.0 
0.0 0.0 0.42366543 0.0 0.0 0.0 0.0 0.0 0.0 0.0 0.0 0.50547063 0.016116805 0.0 0.0 0.0 
0.31900504 0.26759157 0.0 0.61684346 0.0 0.0 0.31069413 0.0 0.0 0.4265295 0.008716147 0.0 0.0 0.0 0.0 0.0 
0.0 0.2551052 0.0 0.8061311 0.0 0.0 0.43576965 0.0 0.043081302 0.93876636 0.0 0.0 0.0 0.0 0.0 0.0 
0.0 0.05498614 0.0 0.01879701 0.2558917 0.0 0.48734242 0.0 0.27189448 0.2696992 0.0 0.0 0.0 0.0 0.0 0.0 
0.0 0.12382128 0.0 0.0 1.1165593 0.28407425 0.0 0.0 0.0 0.0 0.0 0.0 0.0 0.0 0.0 0.0 
0.0 1.1387384 1.0736651 0.0 0.29674318 1.7860782 0.0 0.0 0.0 0.11191422 0.0 0.0 0.0 0.0 0.0 0.0 
0.0 0.3485964 4.982281 0.0 0.0 0.0 0.51094633 0.0 0.0 0.0 0.0 0.0 0.0 0.0 1.1507623 0.0 
0.0 0.0 0.0 0.0 0.0 0.0 4.478691 0.0 0.0 0.0 0.0 0.0 0.0 0.0 0.35186195 0.0 
0.0 0.0 0.0 0.0 0.0 0.0 0.0 0.0 1.6457727 0.0 0.0 0.0 0.0 0.0 0.0 0.0 
0.0 0.0 0.0 0.0 0.0 0.0 0.0 0.0 0.97660875 0.0 0.0 1.7379882 0.15018359 0.0 0.0 0.0 
0.0 0.0 0.33297762 0.0 0.0 0.0 0.0 0.0 0.0 0.0 0.0 0.6335254 0.0 0.0 0.0 0.0 
0.0 0.0 0.0 0.049355965 0.0 0.0 0.0 0.0 0.0 0.0018615238 0.0 0.0 0.0 0.0 0.0 0.0 
0.0 0.0 0.0 0.039159935 0.0 0.0 0.0 0.0 0.0 0.033282284 0.0 0.0 0.0 0.0 0.0 0.0 
0.16095385 0.0 0.0 0.0 0.07049165 0.0 0.017976211 0.0 0.010560524 0.0 0.28502044 0.0 0.0 0.0 0.0 0.0 
0.26013747 0.0 0.0 0.0 0.7642694 0.44384342 0.0 0.0 0.0 0.0 0.28786308 0.0531196 0.0 0.0 0.0 0.0 
0.0 0.0 0.55352896 0.0 0.0 1.7647741 0.0 0.0 0.0 0.24579525 0.0 0.0 0.0 0.0 0.0 0.0 
0.0 0.0 4.036115 0.0 0.0 0.0 0.46927306 0.49894708 0.0 0.12775195 0.0 0.0 0.0 0.0 0.0 0.0 
0.0 0.0 0.0 0.0 0.0 0.0 4.066786 0.04959377 0.0 0.0 0.0 0.0 0.02095148 0.0 0.0 0.0 
0.0 0.0 0.0 0.0 0.0 0.0 0.0 0.0 1.5909244 0.0 0.0 0.0 0.0 0.0 0.0 0.0 
0.0 0.0 0.0 0.0 0.0 0.06313853 0.0 0.0 0.90823174 0.0 0.0 0.8480159 0.0 0.0 0.0 0.0 
0.0 0.0 0.02506699 0.0 0.0 0.08213572 0.0 0.0 0.0 0.0 0.0 0.5457703 0.0 0.0 0.0 0.0 
0.0 0.0 0.0 0.0 0.0 0.0 0.0 0.0 0.0 0.0 0.0 0.0 0.0 0.0 0.0 0.0 
0.0 0.0 0.0 0.0 0.0 0.0 0.0 0.0 0.0 0.0 0.0 0.0 0.0 0.0 0.0 0.0 
0.0 0.0 0.0 0.0 0.10540391 0.0 0.0 0.0 0.18797195 0.0 0.53238183 0.0 0.0 0.0 0.0 0.0 
0.0 0.0 0.0 0.0 0.5568012 0.42990112 0.0 0.0 0.0 0.0 1.2176381 0.0 0.0 0.0 0.0 0.0 
0.0 0.0 0.0 0.0 0.0 2.8634887 0.0 0.039023183 0.0 0.0 1.1199402 0.0 0.0 0.69819736 0.0 0.0 
0.0 0.0 2.3684123 0.0 0.0 0.26582018 1.295717 1.3862591 0.0 0.0 0.3526332 0.0 0.0 1.5408328 0.0 0.0 
0.0 0.0 0.0 0.0 0.0 0.0 3.5139797 0.68442786 0.0 0.0 0.20845193 0.0 0.16205603 0.7864051 0.0 0.0 
0.0 0.0 0.0 0.0 0.0 0.0 0.0 0.0 2.370991 0.0 0.0 0.0 0.27227414 0.0 0.0 0.0 
0.0 0.0 0.0 0.0 0.0 0.0 0.0 0.0 1.0984195 0.0 0.0 0.72661924 0.8025091 0.0 0.0 0.0 
0.0 0.0 0.11587392 0.0 0.0 0.0 0.0 0.0 0.0 0.0 0.0 0.50224423 0.50729156 0.0 0.0 0.0 

