0.5557126 0.0 0.0 0.0 0.0 0.6050512 0.0 0.0 0.0 0.0 0.20175192 0.0 0.0 0.54635596 0.0 0.0 
1.318943 0.0 0.0 0.0 0.0 1.1088462 0.0 0.0 0.0 0.05439939 0.011284461 0.0 0.0 1.7117629 0.120845094 0.38742676 
1.8742335 0.0 0.0 0.0 0.0 0.0 0.0 0.0902558 0.0 0.39170578 0.03610146 0.0 0.0 2.3162014 0.0 0.5196249 
2.444454 0.0 0.0 0.0 0.0 0.0 0.0 0.0 0.0 0.25522843 0.0 0.0 0.0 2.8032076 0.0 0.0 
3.2167594 0.0 0.0 0.0 0.0 0.0 0.0 0.0 0.0 0.0 0.0 0.0 0.008154549 2.9899802 0.0 0.0 
3.586769 0.0 0.11589119 0.0 0.0 0.0 0.0 0.0 0.0 0.0 0.0 0.0 0.5143801 2.098018 0.0 0.0 
2.8136754 0.0 1.1204487 0.0 0.0 0.0 0.0 0.0 0.0 0.0 0.0 0.0 0.940963 0.0 0.0 0.0 
1.9237024 0.0 0.0 0.0 0.0 0.0 0.0 0.0 0.0 0.0 0.0 1.9557606 1.6285727 0.0 0.0 0.0 
1.5367494 0.0 0.0 0.0 0.0 0.0 0.0 0.0 0.0 0.0 0.0 1.9752032 1.0816985 0.0 0.0 0.0 
0.8861479 0.0 0.12477285 0.0 0.0 0.3840398 0.0 0.0 0.0 0.0 0.0 0.0 0.0 0.25142753 0.0 0.0 
0.0 0.0 0.0 0.0 0.0 0.0 0.0 0.0 0.017897774 0.0 0.8021566 0.0 0.2839954 0.0 0.23137452 0.0 
0.0 0.0 0.0 0.0 0.0 0.7166479 0.0 0.0 0.0 0.0 1.4583049 0.0 0.7530931 0.812423 0.8659621 0.0 
0.0 0.0 0.0 0.0 0.0 0.23011082 0.0 0.0 0.0 0.0 2.0129402 0.0 1.378962 2.550262 0.96661 0.0 
0.0 0.0 0.0 0.0 0.0 0.0 0.0 0.0 0.0 0.0 2.7773643 0.0 1.8468702 3.1723533 0.48792768 0.0 
0.0 0.0 0.0 0.0 0.0 0.0 0.0 0.0 0.0 0.0 2.0705874 0.0 1.8691621 3.5887094 0.83209866 0.0 
0.0 0.0 0.0 0.0 0.0 0.0 0.0 0.0 0.0 0.0 0.44887105 0.0 1.5790446 3.3141441 1.4593349 0.0 
1.020218 0.0 0.0 0.0 0.0 0.0 0.0 0.0 0.0 0.0 0.0 0.0 1.3353394 2.3318372 0.0 0.0 
0.89143956 0.0 0.0 0.0 0.0 0.0 0.0 0.0 0.0 0.0 0.0 0.6634214 1.0640434 0.5138382 0.0 0.0 
0.6602581 0.0 0.0 0.0 0.0 0.0 0.0 0.0 0.0 0.0 0.0 2.8403265 1.4476928 0.0 0.0 0.0 
0.69369453 0.0 0.72912604 0.0 0.0 0.0 0.0 0.0 0.0 0.0 0.0 1.2862718 0.7471884 0.0 0.0 0.0 
0.0 0.3065998 0.0 0.0 0.0 0.0 0.0 0.0 0.0 0.0 0.37814948 0.23365399 0.118456036 0.0 0.0 0.0 
0.0 1.1232251 0.0 0.0 0.0 0.22291255 0.0 0.0 0.0 0.0 0.2782211 0.08589326 0.20601787 0.0 0.0 0.0 
0.0 2.4559972 0.0 0.05836681 0.0 0.0 0.0 0.0 0.0 0.0 0.0 0.0 0.0 0.0 0.3690923 0.0 
0.0 4.1261873 0.0 1.6277683 0.0 0.0 0.0 0.0 0.0 0.0 0.0 0.0 0.0 0.0 1.4481003 0.0 
0.0 5.3032646 0.0 2.506099 0.0 0.0 0.0 0.0 0.0 0.0 0.0 0.0 0.0 0.0 3.337094 0.0 
0.0 3.396347 0.0 2.0652103 0.0 0.0 0.0 0.0 0.0 0.0 0.0 0.0 0.0 0.0 4.6330137 0.017784059 
0.0 0.0 0.0 1.0329652 0.0 0.0 0.0 0.0 0.0 0.0 0.0 0.0 0.10741189 0.0 3.602759 0.0 
0.0 0.0 0.0 0.20401037 0.0 0.0 0.0 0.0 0.0 0.0 0.0 0.0 0.322016 0.38877425 0.07344012 0.0 
0.0 0.0 0.0 0.0 0.0 0.0 0.0 0.0 0.0 0.0 0.0 0.8240918 0.6075338 0.0023233145 0.0 0.0 
0.0 0.0 0.17212318 0.0 0.0 0.0 0.0 0.0 0.13471802 0.0 0.0 1.724362 0.92602926 0.0 0.0 0.0 
0.1776396 0.28123656 0.0 0.0 0.0 0.0 0.04819849 0.14236623 0.0 0.025937505 0.13528809 0.19386882 0.0 0.0 0.0 0.0 
0.78598464 0.9698371 0.0 0.67054474 0.0 0.0 0.0 0.0 0.0 0.39667585 0.0 0.07014753 0.0 0.0 0.0 0.0 
0.9384252 1.5486641 0.0 0.70498604 0.0 0.33043903 0.0 0.0 0.0 2.058603 0.0 0.0 0.0 0.0 0.0 0.0 
0.034247715 1.7624602 0.0 0.0 0.0 0.0 0.0 0.0 0.0 4.3351755 0.0 0.0 0.0 0.0 0.0 0.0 
0.0 0.75554556 0.0 0.0 0.0 0.0 0.0 0.0 0.0 5.2844067 0.0 0.0 0.0 0.0 0.0 0.8441259 
0.0 0.0 0.0 0.0 0.0 0.0 0.0 0.0 0.0 3.733361 0.0 0.0 0.0 0.0 1.0199745 0.0 
0.0 0.0 0.0 0.0 0.0 0.0 0.0 0.0 0.0 0.87203306 0.0 0.0 0.65412605 0.0 1.7443534 0.0 
0.0 0.0 0.0 0.0 0.0 0.0 0.0 0.0 0.0 0.0 0.0 0.0 0.94056565 0.0 0.645655 0.0 
0.0 0.0 0.0 0.5995609 0.0 0.0 0.0 0.0 2.1117873 0.0 0.46861768 0.0 0.0 0.0 0.0 0.0 
0.0 0.0 0.0 0.89861745 0.0 0.0 0.0 0.0 0.1335043 0.0 0.97776383 0.40967062 0.0 0.17595819 0.0 0.0 
0.20461328 0.07128932 0.0 0.16211948 0.0 0.0 0.22561248 0.0773433 0.0 0.08173825 0.16128528 0.0 0.0 0.0 0.0 0.0 
0.59732264 0.0 0.0 0.0 0.0 0.0 0.1812306 0.0 0.06713213 0.606625 0.48272446 0.0 0.0 0.0 0.0 0.0 
0.51775587 0.0 0.0 0.0 0.0 0.9811354 0.0 0.0 0.0 1.357074 0.5010357 0.0 0.0 0.7981175 0.0 0.07248159 
0.0 0.0 0.0 0.0 0.0 0.19251928 0.0 0.0 0.0 1.579097 0.8533389 0.0 0.0 1.125677 0.0 0.63690305 
0.0 0.0 0.0 0.0 0.0 0.0 0.0 0.0 0.0 0.0 0.034881406 0.0 0.0 1.2755065 0.0 0.0 
0.0 0.0 0.0 0.0 0.0 0.0 0.0 0.0057843775 0.0 0.0 0.0 0.0 0.23192675 0.0 0.0 0.0 
0.0 0.0 0.0 0.0 0.0 0.0 1.0457761 0.0 0.0 0.0 0.0 0.0 1.4034315 0.0 0.0 0.0 
0.0 0.0 0.0 0.0 0.0 0.0 0.0 0.0 2.8457634 0.0 0.0 1.1522424 1.2298934 0.0 0.0 0.0 
0.0 0.0 0.0 0.0 0.0 0.0 0.0 0.0 1.4608173 0.0 0.0 0.0 0.15897469 0.0 0.0 0.1340908 
0.0 0.0 0.0 0.7590509 0.27799502 0.7860579 0.0 0.0 0.0 0.0 0.62844676 0.0 0.0 0.480877 0.0 0.49613467 
0.0 0.28743443 0.1636104 0.3616934 0.0 0.0 0.0 0.0 0.24329287 0.0 0.0 0.0 0.0 0.0 0.0 0.1144947 
0.0 0.41446087 0.0 0.0 0.0 0.0 0.0 0.0 0.50887674 0.0 0.15883493 0.0 0.09842014 0.0 0.0 0.0 
0.0 0.25536686 0.0 0.0 0.0 0.5894898 0.0 0.0 0.0 0.0 1.1476018 0.14089188 0.53571117 0.0 0.06751482 0.0 
0.0 0.0 0.0 0.0 0.0 0.67697626 0.0 0.0 0.0 0.0 2.103358 0.0 0.43119085 0.0 0.0 0.0 
0.0 0.0 0.0 0.0 0.0 1.2654967 0.0 0.0 0.0 0.0 2.7132533 0.0 0.0 1.387533 0.0 0.0 
0.0 0.0 0.0 1.6887766 0.0 0.0 0.0 0.33389193 0.0 0.0 0.62950885 0.0 0.0 1.6850886 0.0 0.0 
0.0 0.0 0.0 1.5525044 0.0 0.0 1.4357268 0.0 0.10926515 0.0 0.0 0.0 0.0 0.0 0.0 0.0 
0.0 0.0 0.0 0.0 0.0 0.0 0.0 0.0 0.4982104 0.0 0.0 1.3094183 0.0 0.0 0.0 0.0 
0.0 0.0 0.0 0.0 0.0 0.0 0.0 0.0 0.0 0.0 0.0 1.4509354 0.21243416 0.0 0.0 0.0 
0.0 0.0 0.0 0.0 0.0 0.646026 0.0 0.0 0.0 0.0 0.0 0.0 0.0 0.0 0.0 0.0 
0.16821654 1.1141137 0.71813667 0.44520605 0.0 0.0 0.0 0.0 0.32862487 0.0 0.0 0.0 0.0 0.0 0.0 0.51073873 
0.0 1.7945099 0.0 0.0 0.0 0.0 0.0 0.0 0.023437519 0.0 0.0 1.1562976 0.0 0.0 0.0 0.0 
0.0 2.8272326 0.0 0.0 0.0659218 0.0 0.0 0.0 0.0 0.0 0.0 2.0399075 0.0 0.0 0.0 0.0 
0.0 3.5519373 0.0 0.67288154 0.0 0.0 0.0 0.0 0.0 0.0 0.0 0.0 0.0 0.0 0.0 0.0 
0.0 4.544595 0.0 2.0979002 0.0 0.0 0.0 0.0 0.0 1.4803389 0.0 0.0 0.0 0.0 0.0 0.0 
0.0 2.2839997 0.0 1.8922125 0.0 0.0 0.0 0.0 0.0 1.0734144 0.0 0.0 0.0 0.0 1.8580239 0.0 
0.0 0.0 0.0 0.8802702 0.0 0.0 0.91182977 0.0 0.0 0.0 0.0 0.0 0.0 0.0 0.81016403 0.24681892 
0.0 0.0 0.0 0.0 0.0 0.0 0.0 0.0 0.0 0.0 0.0 0.0 0.0 0.0 0.0 0.0 
0.0 0.0 0.0 0.0 0.0 0.0 0.0 0.0 0.0 0.0 0.0 2.0941875 0.598698 0.0 0.0 0.0 
0.0 0.0 0.86833704 0.0 0.0 0.0 0.0 0.0 0.0 0.0 0.0 0.8025259 0.86800134 0.0 0.0 0.0 
1.1060562 1.4689534 0.812315 0.0 0.0 0.0 0.0 0.0 0.0 0.0 0.0 0.0 0.0 0.0 0.0 0.47678557 
2.0519955 2.2730541 0.0 0.0 0.0 0.0 0.0 0.0 0.0 0.11553906 0.0 0.0 0.0 0.0 0.0 0.02660815 
3.3933709 1.8313972 0.0 0.0 0.0 0.0 0.0 0.0 0.0 1.5052459 0.0 1.1408654 0.0 0.0 0.0 0.0 
3.3335788 1.0949531 0.0 0.0 0.0 0.0 0.0 0.0 0.0 3.7738395 0.0 0.0 0.0 0.0 0.0 0.0 
0.89736044 0.0 0.0 0.0 0.0 0.0 0.0 0.0 0.0 4.9148536 0.0 0.0 0.0 0.0 0.0 0.0 
0.0 0.0 0.0 0.0 0.0 0.0 0.0 0.0 0.0 2.8681958 0.0 0.0 0.0 0.0 0.49852747 0.0 
0.0 0.0 0.0 0.0 0.0 0.0 0.24698727 0.0 0.0 0.0 0.0 0.0 0.25151634 0.0 1.6875583 0.0 
0.0 0.0 0.0 0.0 0.0 0.0 0.0 0.0 0.0 0.0 0.0 0.0 0.3979861 0.0 0.062307566 0.0 
0.0 0.0 0.0 0.0 0.0 0.0 0.0 0.0 2.1001666 0.0 0.0 0.0018711165 0.3252157 0.0 0.0 0.0 
0.0 0.0 0.051523734 0.0 0.0 0.0 0.0 0.0 0.0 0.0 0.0 1.1931099 0.82757425 0.0 0.0 0.0 
1.5660089 0.0 0.86487234 0.0 0.0 0.2637263 0.0 0.0 0.0 0.06370427 0.0 0.0 0.0 2.0981607 0.412373 0.27039424 
2.3777835 0.0 0.0 0.0 0.0 0.0 0.0 0.24451469 0.0 0.24849087 0.0 0.0 0.0 1.2566607 0.0 0.0 
2.4460387 0.0 0.0 0.0 0.0 0.0 0.0 0.0 0.0 1.1885206 0.0 0.0 0.0 0.5748104 0.0 0.0 
2.1228411 0.0 0.0 0.0 0.0 0.0 0.0 0.0 0.0 1.3931122 0.0 0.0 0.5889358 0.0 0.0 0.0 
0.15786242 0.0 0.0 0.0 0.0 0.0 0.0 0.0 0.0 0.0 0.0 0.0 1.5098308 0.0 0.0 0.0 
0.0 0.0 0.0 0.0 0.0 0.0 0.0 0.0 0.0 0.0 0.0 0.0 1.9342511 0.0 0.0 0.0 
0.0 0.0 0.0 0.0 0.0 0.0 0.0 0.0 0.0 0.0 0.0 0.0 2.1163375 0.37974814 0.03616588 0.0 
0.0 0.0 0.0 0.0 0.0 0.0 0.0 0.0 3.6532073 0.0 0.91776437 0.0 1.2363394 0.12570634 0.26553142 0.0 
0.0 0.0 0.0 0.0 0.0 0.0 0.0 0.0 2.3478134 0.0 1.089096 0.0 0.13169575 0.3139025 0.0 1.5462238 
0.0 0.0 0.0 0.7090353 0.0 0.0 0.0 0.0 0.0 0.0 0.45531726 0.70992935 0.258456 0.0 0.0 0.57987535 
0.0 0.0 0.31915063 0.0 0.0 1.6398721 0.0 0.0 0.0 0.0 1.2636261 0.0 0.9291958 2.1453264 2.1501036 0.0 
0.0 0.0 0.0 0.0 0.0 0.0 0.3006134 0.09397422 0.0 0.0 3.0377996 0.0 1.6814997 3.1255631 1.5129254 0.0 
0.0 0.0 0.0 0.0 0.0 0.0 0.0 0.0 0.0 0.0 3.1635528 0.0 2.5321808 2.2682302 0.0 0.0 
0.0 0.0 0.0 0.0 0.0 0.0 0.0 0.0 0.0 0.0 2.7834957 0.0 3.1208956 1.1083555 0.0 0.0 
0.0 0.0 0.0 0.0 0.0 0.0 0.0 0.46582413 0.0 0.0 2.8084083 0.0 2.64201 0.077907674 0.0 0.0 
0.0 0.0 0.0 2.221052 0.0 0.0 0.0 0.34061056 0.29003575 0.0 2.3831036 0.0 1.0445447 0.007819004 0.0 0.0 
0.0 0.0 0.0 3.519164 0.0 0.0 0.0 0.0 2.6078546 0.0 1.9479151 0.0 0.049911566 0.35496297 0.0 0.0 
0.0 0.0 0.0 2.495498 0.0 0.0 0.0 0.0 1.8512998 0.0 1.4135491 0.0 0.0 0.0 0.281864 1.8692886 
0.0 0.0 0.0 0.9461931 0.23996836 0.14379498 0.0 0.0 0.0 0.0 0.83031493 0.0 0.0 0.0 0.0 2.4472713 
0.0 0.10876223 0.0 0.7371478 0.20850992 0.0 0.0 0.0 0.0 0.0 0.10899043 0.0 0.0 0.0 0.0 0.90903676 

