1.2500592 0.0 0.0 0.0 0.0 1.4885111 0.0 0.0 0.0 0.0 0.0 0.0 0.0 1.258618 0.0 0.0 
2.1674933 0.4088105 0.0 0.0 0.0 0.0 0.0 0.0 0.0 0.16903462 0.0 0.0 0.0 1.0692134 0.0 0.7850325 
2.6879842 0.0 0.0 0.0 0.0 0.0 0.0 0.0 0.0 0.5191332 0.0 0.0 0.0 0.37260762 0.0 0.13014904 
3.6057787 0.0 0.0 0.0 0.0 0.0 0.0 0.0 0.0 0.82598776 0.0 0.0 0.0 0.04902657 0.0 0.0 
3.9417615 0.0 0.0 0.0 0.0 0.0 0.0 0.0 0.0 1.0090979 0.0 0.0 0.0 0.0 0.0 0.0 
2.9391627 0.0 0.048044827 0.0 0.0 0.0 0.0 0.0 0.0 0.9876821 0.0 0.0 0.30514383 0.0 0.0 0.0 
1.9969058 0.0 0.0 0.0 0.0 0.0 0.0 0.0 0.0 0.45317438 0.0 2.061467 0.9138831 0.0 0.0 0.0 
1.3101648 0.0 0.0 0.0 0.0 0.0 0.0 0.0 0.0 0.0 0.0 0.7342315 0.47489864 0.0 0.0 0.0 
0.35457596 0.0 0.4253536 0.0 0.0 0.6306344 0.0 0.0 0.0 0.0 0.0 0.0 0.0 0.35795352 0.0 0.0 
0.0 0.0 0.000655625 0.0 0.0 0.16477674 0.0 0.0 0.0 0.0 0.0 0.0 0.0 0.08553629 0.0 0.0 
0.0 0.0 0.0 0.0 0.0 1.4064441 0.0 0.0 0.0 0.0648226 0.7821161 0.0 0.17060825 1.2805969 0.6594917 0.16345619 
0.17849326 0.0 0.0 0.0 0.0 0.34271088 0.0 0.0 0.0 0.0 1.3243823 0.0 0.3961454 3.0951383 0.6905591 0.0 
0.30455542 0.0 0.0 0.0 0.0 0.0 0.091105975 0.0 0.0 0.0 2.0409062 0.0 0.39951766 4.0768676 0.0 0.0 
0.82970256 0.0 0.0 0.0 0.0 0.0 0.0 0.0 0.0 0.0 0.0 0.0 0.8476621 4.213035 0.0 0.0 
1.8063829 0.0 1.3461713 0.0 0.0 0.0 0.0 0.0 0.0 0.0 0.0 0.0 1.8531902 2.9029942 0.0 0.0 
1.9449723 0.0 0.2788302 0.0 0.0 0.0 0.0 0.0 0.0 0.0 0.0 0.0 2.3521128 0.9661069 0.0 0.0 
1.3148146 0.0 0.0 0.0 0.0 0.0 0.0 0.0 0.0 0.0 0.0 1.8809711 1.8161192 0.1626162 0.0 0.0 
0.8638622 0.0 0.0 0.0 0.0 0.0 0.0 0.0 0.45383045 0.0 0.0 1.9755985 1.2187179 0.024349876 0.0 0.0 
0.60244906 0.0 1.2096539 0.0 0.0 0.0 0.0 0.0 0.0 0.0 0.0 0.06337936 0.3247381 0.009824201 0.0 0.0 
0.09439406 0.0 0.25224784 0.0 0.0 0.07056178 0.0 0.0 0.0 0.0 0.0 0.0 0.0 0.03559512 0.0 0.0 
0.0 0.18790217 0.0 0.0 0.0 0.4514699 0.0 0.0 0.0 0.0 0.87972695 0.0 0.45300275 0.0 0.5567745 0.0 
0.0 0.036357842 0.0 0.0 0.0 0.2588026 0.0 0.0 0.0 0.0 0.71630937 0.0 0.6837173 0.0 1.2020291 0.0 
0.0 0.6210671 0.0 0.0 0.0 0.0 0.0 0.0 0.0 0.0 0.7269235 0.0 0.35132098 0.14732388 2.3171575 0.0 
0.0 1.6610657 0.0 0.0 0.0 0.0 0.0 0.0 0.0 0.0 0.30902803 0.0 0.44366223 0.0 3.7041907 0.0 
0.0 1.0922985 0.0 0.4835008 0.0 0.0 0.0 0.0 0.0 0.0 0.0 0.0 1.4378963 0.0 3.7219746 0.0 
0.0 0.0 0.0 1.09479 0.0 0.0 0.693612 0.0 0.0 0.0 0.0 0.0 1.4100724 0.0 0.75391644 0.0 
0.0 0.0 0.0 0.5147034 0.0 0.0 0.0 0.0 0.21970567 0.0 0.0 0.9053165 0.8562609 0.0 0.0 0.0 
0.0 0.0 0.0 0.5628716 0.0 0.0 0.0 0.0 0.8274488 0.0 0.05405228 2.2278035 0.4819544 0.0 0.0 0.0 
0.0 0.0 0.518697 0.3110981 0.0 0.088919505 0.0 0.0 0.0 0.0 0.2991027 0.87444246 0.19523148 0.23666647 0.0 0.0 
0.0 0.0 0.12025827 0.28138375 0.0 0.01988133 0.0 0.0 0.0 0.0 0.23223701 0.0 0.0 0.3244083 0.0 0.0 
0.0 0.93426734 0.0 0.0 0.0 0.0 0.0 0.0 0.0 0.0 0.14486074 0.4162926 0.0 0.0 0.0 0.0 
0.0 1.923174 0.0 0.0 0.0 0.24246058 0.0 0.0 0.0 0.0 0.0 0.0 0.0 0.0 0.0 0.0 
0.0 3.1651332 0.0 0.0 0.0 0.0 0.0 0.0 0.0 1.9683815 0.0 0.0 0.0 0.0 0.189725 0.0 
0.0 2.581368 0.0 0.0 0.0 0.0 0.0 0.0 0.0 2.8857627 0.0 0.0 0.0 0.0 1.4061435 0.0 
0.0 0.100038305 0.0 0.0 0.0 0.0 0.0 0.0 0.0 1.2529655 0.0 0.0 0.0 0.0 2.375628 0.0 
0.0 0.0 0.0 0.0 0.0 0.0 0.0 0.0 0.0 0.0 0.0 0.0 0.0 0.0 1.02688 0.0 
0.0 0.0 0.0 0.0 0.0 0.0 0.0 0.0 0.1766432 0.0 0.0 0.0 0.0 0.0 0.0 0.0 
0.0 0.0 0.0 0.0 0.0 0.0 0.0 0.0 0.0 0.0 0.0 1.5595421 0.0 0.0 0.0 0.0 
0.0 0.0 0.0 1.1509647 0.41575012 0.7526404 0.0 0.0 0.0 0.0 0.0 1.4454075 0.0 0.0 0.0 0.0 
0.0 0.0 0.0 0.6664736 0.535758 0.6749655 0.0 0.0 0.0 0.0 0.3459649 0.0 0.0 0.67156965 0.0 0.0 
0.8334662 0.23089676 0.0 0.0 0.0 0.0 0.07943851 0.0 0.0 0.4400265 0.48065266 0.0 0.0 0.0 0.0 0.0 
0.71183604 0.27968162 0.0 0.0 0.0 0.57398695 0.0 0.0 0.0 2.1687822 0.4582177 0.0 0.0 0.0 0.0 0.0 
0.0 0.0 0.0 0.0 0.0 0.0 0.0 0.0 0.0 3.951781 0.40508536 0.0 0.0 0.0 0.0 0.0 
0.0 0.0 0.0 0.0 0.0 0.30861807 0.0 0.0 0.0 2.384254 0.0919684 0.0 0.0 0.0 0.0 0.0 
0.0 0.0 0.0 0.0 0.0 0.0 0.57216877 0.0 0.0 0.20021781 0.0 0.0 0.0 0.33945876 0.0 0.0 
0.40783995 0.0 0.0 0.0 0.0 0.0 0.0 0.0 0.0 0.0 0.0 0.0 0.0 0.0 0.0 0.0 
0.79766953 0.0 0.0 0.0 0.0 0.0 0.0 0.0 0.22272769 0.0 0.0 0.0 0.22225977 0.0 0.0 0.0 
0.047749702 0.0 0.0 0.0 0.0 0.0 0.0 0.0 0.0 0.0 0.0 1.72941 1.2719296 0.0 0.0 0.0 
0.020575274 0.0 0.0 0.0 0.0 0.0 0.0 0.0 0.0 0.0 0.0 2.0398347 1.2085173 0.0 0.0 0.0 
0.2617942 0.0 0.32679433 0.0 0.0 0.3378806 0.0 0.0 0.0 0.0 0.0 0.0 0.0 0.21569538 0.0 0.0 
0.0 0.0 0.0 0.0 0.0 0.0 0.0 0.0 0.07328002 0.10277572 0.6249358 0.0 0.0 0.0 0.0 0.0 
0.0 0.0 0.0 0.0 0.0 0.033681303 0.0 0.0 0.0 0.18529469 1.262077 0.0 0.0 0.0 0.0 0.0 
0.0 0.0 0.0 0.0 0.0 0.83809984 0.0 0.07707161 0.0 0.0 2.3666365 0.0 0.2066039 0.0 0.0 0.0 
0.0 0.0 0.0 0.0 0.0 1.2567065 0.16643587 0.11883308 0.0 0.0 3.521104 0.0 0.5217277 1.386399 0.0 0.0 
0.0 0.0 0.0 0.0 0.0 0.0 1.0510263 0.0 0.0 0.0 2.862782 0.0 0.33339202 3.1780977 0.0146035105 0.0 
0.0 0.0 0.0 0.0 0.0 0.0 0.0 0.0 0.13079529 0.0 0.059159532 0.0 0.46748364 3.7186565 1.1534878 0.0 
0.0 0.0 0.0 0.0 0.0 0.0 0.0 0.0 0.0 0.0 0.0 0.0 0.70302415 1.6755724 0.0 0.0 
0.0 0.0 0.0 0.0 0.0 0.0 0.0 0.0 0.0 0.0 0.0 1.2045074 1.097436 0.0 0.0 0.0 
0.0 0.0 0.0 0.0 0.0 0.0 0.0 0.0 0.0 0.0 0.0 3.1782484 1.7396038 0.0 0.0 0.0 
0.2040746 0.0 0.9456675 0.0 0.0 0.0 0.0 0.0 0.0 0.0 0.0 0.8748841 0.41238272 0.073709734 0.0 0.0 
0.0 0.043786682 0.0 0.0 0.0 0.0 0.0 0.0 0.0 0.0 0.35034472 0.1804857 0.0 0.0 0.0 0.0 
0.0 0.63947845 0.0 0.0 0.0 0.0 0.0 0.030280173 0.0 0.0 0.88118935 0.5084611 0.0 0.0 0.0 0.0 
0.0 1.297548 0.0 0.0 0.0 0.27172977 0.0 0.60185033 0.0 0.0 1.4579418 0.034337804 0.0 0.0 0.0 0.0 
0.0 2.3935454 0.0 2.2229323 0.0 0.09613566 0.0 0.0 0.0 0.0 1.7998817 0.0 0.0 0.0 0.0 0.0 
0.0 2.3735883 0.0 2.1421933 0.0 0.3786632 0.0 0.0 0.16858251 0.0 1.1906539 0.0 0.0 0.0 1.7320617 0.0 
0.0 1.1476607 0.0 2.0706446 0.0 0.54990155 0.0 0.0 0.0 0.0 0.0 0.0 0.0 0.0 4.360036 0.0 
0.0 0.0 0.0 1.651994 0.0 0.0 0.086715534 0.0 0.0 0.0 0.0 0.0 0.0 0.0 3.4786553 0.18899494 
0.0 0.0 0.0 1.0800127 0.0 0.0 0.4322426 0.0 0.0 0.0 0.04733128 0.0 0.0 0.0 0.0 0.0 
0.0 0.0 0.0 0.0 0.0 0.0 0.0 0.0 0.11301024 0.0 0.0 2.2331781 0.53806347 0.0 0.0 0.0 
0.0 0.0 0.26617596 0.0 0.0 0.0 0.0 0.0 0.0 0.0 0.0 1.4984971 0.5132452 0.0 0.0 0.0 
0.016822774 0.12335643 0.0 0.0 0.0 0.0 0.08134755 0.1349045 0.0 0.0 0.2041583 0.14451511 0.0 0.0 0.0 0.0 
0.38098562 0.57525486 0.0 0.25762495 0.0 0.0 0.09933453 0.0 0.0 0.009925421 0.25805503 0.37378103 0.0 0.0 0.0 0.0 
0.2469921 1.2191983 0.0 1.6986344 0.0 0.0 0.3294755 0.0 0.0 0.9093227 0.0 0.32086712 0.0 0.0 0.0 0.0 
0.0 1.9457653 0.0 1.8677204 0.0 0.0 0.0 0.0 0.0 2.4987195 0.0 0.0 0.0 0.0 0.0 0.0 
0.0 2.3850942 0.0 0.49843204 0.56657857 0.0 0.0 0.0 0.33864278 3.3315318 0.0 0.0 0.0 0.0 0.0 0.33042157 
0.0 1.1464707 0.73989385 0.0 0.0 0.5862695 0.0 0.0 0.0 2.6111465 0.0 0.0 0.0 0.0 1.6901963 1.1157559 
0.0 0.0 0.0 0.12575236 0.0 0.0 2.2471516 0.0 0.0 0.95249736 0.0 0.0 0.0 0.0 2.5201602 0.0 
0.0 0.0 0.0 0.0 0.0 0.0 0.5017765 0.0 0.0 0.0 0.0 0.0 0.0 0.0 0.39274448 0.0 
0.0 0.0 0.0 0.0 0.0 0.0 0.0 0.0 1.8318582 0.0 0.0 0.0 0.0 0.0 0.0 0.0 
0.0 0.0 0.0 0.0 0.0 0.024697132 0.0 0.0 0.0 0.0 0.0 0.971933 0.35990363 0.0 0.0 0.0 
0.070191294 0.045326505 0.0 0.05213914 0.0 0.0 0.106929004 0.0 0.0 0.0 0.0747998 0.0 0.0 0.0 0.0 0.0 
0.48139736 0.35460365 0.0 0.1316521 0.0 0.0 0.3938596 0.0 0.0 0.0 0.0 0.0 0.0 0.0 0.0 0.0 
1.0604961 0.8935116 0.0 0.0 0.0 0.0 0.0 0.0 0.0 0.54784924 0.0 0.0 0.0 0.0 0.0 0.0 
1.1081359 1.4596163 0.0 0.0 0.26612294 0.0 0.0 0.0 0.0 1.8430063 0.0 0.0 0.0 0.0 0.0 1.2533708 
0.35173696 0.94840723 0.0 0.0 0.51442885 0.0 0.0 0.0 0.0 2.558183 0.0 0.0 0.0 0.0 0.0 2.8269103 
0.0 0.0 0.0 0.0 0.0 0.0 0.1326252 0.0 0.0 1.5142227 0.0 0.0 0.0 0.0 0.0 0.0 
0.0 0.0 0.0 0.0 0.0 0.0 3.2971017 1.1081712 0.0 0.0 0.0 0.0 0.110342294 0.0 0.0 0.0 
0.0 0.0 0.0 0.0 0.0 0.0 0.0 0.0 2.1904001 0.0 0.0 0.0 0.44444692 0.0 0.0 0.0 
0.0 0.0 0.0 0.0 0.0 0.0 0.0 0.0 3.085895 0.0 0.0 0.0 0.0 0.0 0.0 0.0 
0.0 0.0 0.0 0.0 0.0 0.0 0.0 0.0 0.0 0.0 0.04901334 0.49522665 0.29022294 0.0 0.0 0.0 
0.0 0.0 0.0 0.0 0.0 0.0 0.0 0.0 0.0 0.0 0.0 0.0 0.0 0.0 0.0 0.0 
0.49530748 0.0 0.0 0.0 0.0 0.23279381 0.0 0.0 0.0 0.0 0.034458242 0.0 0.0 0.18564045 0.0 0.0 
0.8002428 0.0 0.0 0.0 0.0 0.6298002 0.0 0.0 0.0 0.45459816 0.0 0.0 0.0 0.5104679 0.03765659 0.42750362 
0.0 0.0 0.0 0.0 0.0 0.0 0.0 0.0 0.0 1.1427035 0.5565153 0.0 0.0 0.0 0.24110259 1.8101896 
0.0 0.0 0.0 0.0 0.0 0.0 0.0 0.4172005 0.0 0.34775406 0.5206686 0.0 0.16597334 0.0 0.0 0.0 
0.0 0.0 0.0 0.0 0.0 0.0 0.86952955 1.9480393 0.0 0.0 0.0 0.0 0.96728474 0.0 0.0 0.0 
0.0 0.0 0.0 0.0 0.0 0.0 1.4328594 1.663639 0.46661946 0.0 0.0 0.0 1.021946 0.0 0.0 0.0 
0.0 0.0 0.0 0.0 0.0 0.0 0.0 0.0 4.4934297 0.0 0.12799406 0.0 0.4974963 0.0 0.0 0.0 
0.0 0.0 0.0 0.0 0.0 0.0 0.0 0.0 1.8697883 0.0 0.5625045 0.0 0.031029604 0.07360523 0.0 1.3705847 
0.0 0.0 0.0 0.19781733 0.0 0.0 0.0 0.0 0.0 0.0 0.20429945 0.19221058 0.07011303 0.0 0.0 0.7287158 

