0.12228422 0.0 0.0 0.0 0.0 0.22689015 0.15050687 0.0 0.0 0.0 0.0057540257 0.0 0.0 0.07213362 0.0 0.0 
0.67359895 0.0 0.0 0.0 0.2022166 0.9006019 0.0 0.0 0.0 0.0 0.0 0.0 0.0 0.6406987 0.0 0.0 
1.443104 0.30312258 0.9016853 0.0 0.0 0.0 0.0 0.0 0.0 0.07311408 0.0 0.0 0.0 0.630775 0.0 0.74131525 
1.8668244 0.087701134 0.83449143 0.0 0.0 0.0 0.0 0.0 0.0 0.76453435 0.0 0.0 0.0 0.0 0.0 1.2439989 
2.4478962 0.0 0.0 0.0 0.0 0.0 0.0 0.0 0.0 0.98033834 0.0 0.0 0.0 0.0 0.0 0.0 
2.9785526 0.0 0.6396128 0.0 0.0 0.0 0.0 0.0 0.0 0.6757578 0.0 0.0 0.0 0.0 0.0 0.0 
2.7499285 0.0 0.3780425 0.0 0.0 0.0 0.0 0.0 0.0 0.25786442 0.0 0.0 0.31488967 0.0 0.0 0.0 
1.9815521 0.0 0.0 0.0 0.0 0.0 0.0 0.0 0.0 0.0 0.0 1.5379108 0.93968004 0.0 0.0 0.0 
1.5520519 0.0 0.0 0.0 0.0 0.0 0.0 0.0 0.0 0.0 0.0 1.6119049 1.0855303 0.0 0.0 0.0 
0.7938132 0.0 0.86037844 0.0 0.0 0.06939249 0.0 0.0 0.0 0.0 0.0 0.0 0.25344378 0.0 0.0 0.0 
0.0051890947 0.0 0.0 0.0 0.024249382 0.11256492 0.0 0.0 0.0 0.0 0.20353387 0.0 0.0 0.0 0.0 0.0 
0.0 0.0 0.0 0.0 0.17898029 1.2363002 0.0 0.0 0.0 0.0 0.0 0.0 0.0 0.52777064 0.0 0.0 
0.1010239 0.0 0.9907986 0.0 0.0 0.0 0.0 0.0 0.0 0.03336138 0.0 0.0 0.0 1.0848612 0.83021176 0.5029554 
0.31353632 0.0 0.92026013 0.0 0.0 0.0 0.0 0.0 0.0 0.0 0.0 0.0 0.090063885 0.39850897 0.30051005 0.0 
0.324534 0.0 0.0 0.0 0.0 0.0 0.0 0.0 0.0 0.0 0.0 0.0 0.62103045 0.11134682 0.26101112 0.0 
0.59971815 0.0 0.0 0.0 0.0 0.0 0.0 0.0 0.0 0.0 0.0 0.0 1.8392351 0.4631748 0.3091048 0.0 
0.7736967 0.0 0.0 0.0 0.0 0.0 0.0 0.0 0.0 0.0 0.0 0.0 1.8787416 1.2495197 0.0 0.0 
0.46933928 0.0 0.0 0.0 0.0 0.0 0.0 0.0 0.0 0.0 0.0 0.09888643 1.3174609 0.9306559 0.0 0.0 
0.4331872 0.0 0.0 0.0 0.0 0.0 0.0 0.0 1.5877135 0.0 0.0 1.4383911 1.0631614 0.36191133 0.0 0.0 
0.31033102 0.0 1.0957263 0.0 0.0 0.0 0.0 0.0 0.31962082 0.0 0.0 0.9053689 0.7252997 0.0 0.0 0.0 
0.0 0.0 0.0 0.0 0.10656645 0.0 0.0 0.0 0.13133411 0.0 0.42532545 0.0 0.0 0.0 0.0 0.0 
0.0 0.0 0.0 0.0 0.0914895 1.2048938 0.0 0.0 0.0 0.0 0.55198616 0.0 0.0 0.0 0.1745211 0.0 
0.0 0.0 0.6415036 0.0 0.0 1.8942704 0.0 0.0 0.0 0.0 0.0 0.0 0.0 0.09101061 0.97992355 0.0 
0.0 0.0 0.37799752 0.0 0.0 0.0 0.0 0.0 0.0 0.0 0.0 0.0 0.06440124 0.0 1.3574696 0.0 
0.0 0.0 0.0 0.0 0.0 0.0 0.0 0.0 0.0 0.0 0.0 0.0 0.6296853 0.0 1.2497514 0.0 
0.0 0.0 0.0 0.0 0.0 0.0 0.0 0.0 0.0 0.0 0.0 0.0 1.8081554 0.0 1.3490609 0.0 
0.0 0.0 0.0 0.0 0.0 0.0 0.1676185 0.0 0.0 0.0 0.0 0.0 1.7061291 0.0 0.6082304 0.0 
0.0 0.0 0.0 0.3834719 0.0 0.0 0.0 0.0 1.3176287 0.0 0.22847468 0.0 0.45315063 0.29246417 0.0 0.0 
0.0 0.0 0.0 0.10292527 0.0 0.0 0.0 0.0 2.025977 0.0 0.6639053 0.3596836 0.0 0.10784591 0.0 0.0 
0.0 0.0 0.0 0.23177655 0.0 0.0 0.0 0.0 0.0 0.0 0.32197213 0.9438137 0.4821303 0.0 0.0 0.0 
0.0 0.0 0.0 0.0 0.1278474 0.0 0.0 0.0 0.056593392 0.0 0.53437936 0.077415824 0.0 0.0 0.0 0.0 
0.0 0.0 0.0 0.0 0.31972066 0.37158364 0.0 0.0 0.0 0.0 1.1221607 0.18451455 0.0 0.0 0.0 0.0 
0.0 0.0 0.0 0.0 0.0 2.4709237 0.0 0.0 0.0 0.0 0.49691758 0.0 0.0 0.0 0.0 0.0 
0.0 0.0 0.3517946 0.0 0.0 0.0 0.0 0.034214392 0.0 0.11271414 0.0 0.0 0.0 0.0 0.0 0.0 
0.0 0.0 0.0 0.0 0.0 0.0 0.0 0.0 0.0 0.47610116 0.0 0.0 0.0 0.0 0.0 0.0 
0.0 0.0 0.0 0.0 0.0 0.0 0.0 0.0 0.0 0.22528899 0.0 0.0 0.0 0.0 0.0 0.0 
0.0 0.0 0.0 0.15673193 0.0 0.0 0.13356501 0.0 0.0 0.0 0.0 0.0 0.468773 0.0 0.0 0.0 
0.0 0.0 0.0 0.41333193 0.0 0.0 0.0 0.0 2.0717905 0.0 0.0 0.0 0.0 0.0 0.0 0.0 
0.0 0.0 0.0 0.3356131 0.0 0.2231848 0.0 0.0 0.7089365 0.0 0.53381294 0.0 0.0 0.0 0.0 0.9711771 
0.0 0.0 0.0 0.44145468 0.0 0.0 0.0 0.0 0.0 0.0 0.23060194 0.120036766 0.0 0.0 0.0 0.75278056 
0.0 0.033539105 0.0 0.0 0.0 0.0 0.0 0.0 0.0 0.0 0.40992048 0.22055486 0.0 0.0 0.0 0.0 
0.0 0.17415267 0.0 0.0 0.34980944 0.0 0.0 0.0 0.0 0.0 1.000395 0.5367689 0.0 0.0 0.0 0.0 
0.0 0.5776578 0.0 0.0 0.0 1.8001857 0.0 0.0 0.0 0.0 0.19961523 0.0 0.0 0.0 0.0 0.0 
0.0 0.54256564 1.1909397 0.0 0.0 0.28668615 0.0 0.0 0.0 0.616941 0.0 0.0 0.0 0.0 0.0 0.0 
0.0 0.08106225 0.0 0.6483956 0.0 0.0 0.6079325 0.0 0.0 0.0 0.0 0.0 0.0 0.0 0.0 0.0 
0.0 0.0 0.0 0.82209194 0.0 0.0 2.0213273 0.0 0.0 0.0 0.0 0.0 0.0 0.0 0.0 0.0 
0.0 0.0 0.0 0.06086918 0.0 0.0 0.010762155 0.0 0.50571954 0.0 0.0 1.3059487 0.0 0.0 0.0 0.0 
0.0 0.0 0.0 0.08795938 0.0 0.06700772 0.0 0.0 1.8896499 0.0 0.0 0.17400819 0.0 0.0 0.0 0.0 
0.0 0.0 0.0 0.2851108 0.0 1.3850656 0.0 0.0 0.0 0.0 0.6433353 0.0 0.0 0.4101961 0.0 0.33812845 
0.0 0.0 0.0 0.4581964 0.12754875 0.19054407 0.0 0.0 0.0 0.0 0.28121182 0.0 0.0 0.0114206895 0.0 0.49192098 
0.0 0.050342485 0.0 0.0 0.0 0.0 0.10352404 0.0 0.0 0.0 0.21490936 0.103101954 0.0 0.0 0.0 0.0 
0.22285609 0.12734511 0.0 0.0 0.48666757 0.0 0.0 0.0 0.0 0.0 0.43541983 0.38964966 0.0 0.0 0.0 0.0 
0.0 0.7486089 0.0 0.0 0.78700835 0.6591147 0.0 0.0 0.0 0.3760049 0.0 0.0 0.0 0.0 0.0 0.0 
0.0 0.26963165 2.1415768 0.0 0.0 1.127166 0.0 0.0 0.0 1.0392691 0.0 0.0 0.0 0.0 0.0 0.0 
0.0 0.0 1.1711897 0.062020008 0.0 0.0 1.9316626 0.0 0.0 0.34384793 0.0 0.0 0.0 0.0 0.10196298 0.0 
0.0 0.0 0.0 0.0 0.0 0.0 2.627116 0.0 0.0 0.0 0.0 0.0 0.0 0.0 0.0 0.0 
0.0 0.0 0.0 0.0 0.0 0.0 0.0 0.0 1.8926713 0.0 0.0 0.0 0.0 0.0 0.0 0.0 
0.0 0.0 0.0 0.0 0.0 0.0 0.0 0.0 0.23699412 0.0 0.0 1.9290653 0.18779622 0.0 0.0 0.0 
0.0 0.0 0.0 0.0 0.0 0.71747303 0.0 0.0 0.0 0.0 0.0 0.27010593 0.09319691 0.0 0.0 0.0 
0.0 0.0 0.0 0.45654675 0.2992382 0.44742155 0.0 0.0 0.0 0.0 0.08283135 0.0 0.0 0.32507873 0.0 0.0 
0.055938642 0.0 0.0 0.0 0.0 0.0 0.14381257 0.0 0.0 0.0 0.08720968 0.0 0.0 0.0 0.0 0.0 
0.18012244 0.0 0.0 0.0 0.5873565 0.0 0.0 0.0 0.0 0.0 0.26009214 0.05919811 0.0 0.0 0.0 0.0 
0.0 0.19371432 0.0 0.0 1.1251365 0.21630299 0.0 0.0 0.0 0.41048717 0.0 0.0 0.0 0.0 0.0 0.0 
0.0 0.0 1.9973289 0.0 0.0 0.0 0.0 0.0 0.0 0.5933911 0.0 0.0 0.0 0.0 0.0 0.0 
0.0 0.0 1.5442961 0.0 0.0 0.0 3.1711314 0.0 0.0 0.0 0.0 0.0 0.0 0.0 0.0 0.0 
0.0 0.0 0.0 0.0 0.0 0.0 1.9128028 0.0 0.92976207 0.0 0.0 0.0 0.0 0.0 0.0 0.0 
0.0 0.0 0.0 0.0 0.0 0.0 0.0 0.0 1.8300741 0.0 0.0 0.0 0.0 0.0 0.0 0.0 
0.0 0.0 0.0 0.0 0.0 0.0 0.0 0.0 0.0 0.0 0.0 2.752223 0.37653464 0.0 0.0 0.0 
0.011717644 0.0 0.0 0.0 0.0 0.0 0.0 0.0 0.0 0.0 0.0 2.0888681 0.93933505 0.0 0.0 0.0 
0.1363843 0.0 0.3928263 0.0 0.0 0.44536752 0.0 0.0 0.0 0.0 0.0 0.0 0.0 0.29988757 0.0 0.0 
0.0 0.0 0.0 0.0 0.0 0.0 0.0 0.0 0.0 0.0 0.07293977 0.0 0.0 0.0 0.0 0.0 
0.0 0.0 0.0 0.0 0.67649287 0.0 0.0 0.0 0.0 0.0 0.41504753 0.110534206 0.0 0.0 0.0 0.0 
0.0 0.006127162 0.0 0.0 0.7680224 1.5244238 0.0 0.0 0.0 0.0 0.0 0.0 0.0 0.0 0.0 0.0 
0.0 0.63221693 1.6465615 0.0 0.0 0.0 0.0 0.2273276 0.0 0.0 0.0 0.0 0.0 0.0 0.0 0.0 
0.0 0.52705 0.45248616 0.0 0.0 0.0 1.1693752 0.1034784 0.0 0.0 0.0 0.0 0.0 0.0 0.0 0.0 
0.0 0.0 0.0 0.0 0.0 0.0 0.0 0.0 0.10807486 0.0 0.0 0.0 0.0 0.0 0.5566279 0.0 
0.54059935 0.0 0.0 0.0 0.0 0.0 0.0 0.0 0.0 0.0 0.0 0.0 0.0 0.0 0.0 0.0 
0.0 0.0 0.0 0.0 0.0 0.0 0.0 0.0 0.0 0.0 0.0 0.8436768 0.0 0.0 0.0 0.0 
0.0 0.0 0.0 0.0 0.0 0.0 0.0 0.0 0.0 0.0 0.0 3.1632483 0.8474759 0.0 0.0 0.0 
0.33644047 0.0 0.9271809 0.0 0.0 0.06394602 0.0 0.0 0.0 0.0 0.0 0.34599668 0.29415005 0.0 0.0 0.0 
0.0 0.0 0.0 0.0 0.0 0.0 0.0 0.0 0.0 0.0 0.18147133 0.0 0.0 0.0 0.0 0.0 
0.0 0.0 0.0 0.0 0.6121484 0.0 0.0 0.0 0.0 0.0 0.9380802 0.0649637 0.0 0.0 0.0 0.0 
0.0 0.0 0.0 0.0 0.0 3.2913668 0.0 0.0 0.0 0.0 0.45157638 0.0 0.0 0.24045607 0.0 0.0 
0.37737206 0.0 0.16268708 0.0 0.0 0.17581975 0.0767858 1.0212086 0.0 0.0 0.0 0.0 0.0 0.86577344 0.0 0.0 
0.0 0.0 0.0 0.0 0.0 0.0 0.1881032 0.44407207 0.0 0.95800066 0.0 0.0 0.0 0.0 0.0 0.0 
0.0 0.0 0.0 0.0 0.0 0.0 0.0 0.0 0.0 0.0 0.0 0.0 0.0 0.0 0.0 0.0 
0.38800317 0.0 0.0 0.0 0.0 0.0 0.0 0.0 0.0 0.0 0.0 0.0 0.7034805 0.0 0.2507072 0.0 
0.0 0.0 0.0 0.0 0.0 0.0 0.0 0.0 0.0 0.0 0.0 0.0 0.31760246 0.0 0.0 0.0 
0.0 0.0 0.0 0.0 0.0 0.0 0.0 0.0 0.96700335 0.0 0.0 1.8794463 0.7796267 0.0 0.0 0.0 
0.0 0.0 0.69827294 0.0 0.0 0.0 0.0 0.0 0.0 0.0 0.0 1.0768598 0.76878357 0.0 0.0 0.0 
0.0 0.0 0.0 0.0 0.0 0.0 0.0 0.0 0.0 0.0 0.19666016 0.0 0.0 0.0 0.0 0.0 
0.0 0.0 0.0 0.0 0.34993652 0.0 0.0 0.0 0.016237233 0.0 1.1174878 0.19071761 0.0 0.0 0.0 0.0 
0.0 0.0 0.0 0.0 0.0 2.4281685 0.0 0.0 0.0 0.0 1.6875708 0.0 0.0 0.0 0.0 0.0 
0.0 0.0 0.020550277 0.0 0.0 1.2813683 0.6897376 0.82359266 0.0 0.0 2.1984267 0.0 0.0 2.2308593 0.50091994 0.0 
0.0 0.0 0.0 0.0 0.0 0.0 0.20896241 0.0 0.0 0.0 3.8969355 0.0 0.0 2.3949587 0.0 0.0 
0.0 0.0 0.0 0.0 0.0 0.0 0.0 0.0 0.0 0.0 2.0690122 0.0 0.42472744 2.5012891 0.0 0.0 
0.0 0.0 0.0 0.0 0.0 0.0 0.0 0.0 0.0 0.0 0.667366 0.0 1.98089 1.8673594 0.0 0.0 
0.0 0.0 0.0 0.0 0.0 0.0 0.0 0.0 1.1030824 0.0 0.301109 0.0 2.0176294 0.42580122 0.0 0.0 
0.0 0.0 0.0 0.0 0.0 0.0 0.0 0.0 2.6420057 0.0 0.25224853 0.027889065 0.62743884 0.33201584 0.0 0.0 
0.0 0.0 0.0 0.0 0.0 0.0 0.0 0.0 0.0 0.0 0.07149315 1.0797123 0.63292 0.0 0.0 0.0 

