1.0163782 0.90559936 0.31218618 0.0 0.0 0.0 0.0 0.0 0.0 0.0 0.0 0.0 0.0 0.0 0.0 0.21684046 
1.919861 1.2657949 0.32558405 0.0 0.0 0.0 0.0 0.0 0.0 0.33649752 0.0 0.0 0.0 0.0 0.0 1.6914678 
2.7762735 0.7065695 0.0 0.0 0.0 0.0 0.0 0.0 0.0 1.0896404 0.0 0.0 0.0 0.0 0.0 0.8193159 
3.5538244 0.0 0.0 0.0 0.0 0.0 0.0 0.0 0.0 0.901961 0.0 0.0 0.0 0.7195211 0.0 0.0 
3.6752841 0.0 0.0 0.0 0.0 0.0 0.0 0.0 0.0 0.34252173 0.0 0.0 0.0 0.97418845 0.0 0.0 
3.703718 0.0 0.11295822 0.0 0.0 0.0 0.0 0.0 0.0 0.42246425 0.0 0.0 0.0 0.18772203 0.0 0.0 
3.562292 0.0 0.70424074 0.0 0.0 0.0 0.0 0.0 0.0 0.3489024 0.0 0.0 0.0 0.0 0.0 0.0 
3.4290547 0.0 0.0 0.0 0.0 0.0 0.0 0.0 0.0 0.51041406 0.0 0.43599442 0.099099234 0.0 0.0 0.0 
2.9370894 0.0 0.0 0.0 0.0 0.0 0.0 0.0 0.0 0.5753396 0.0 0.3176404 0.011767603 0.0 0.0 0.0 
1.6325936 0.0 0.0 0.0 0.0 0.0 0.0 0.0 0.0 0.5379291 0.0 0.13251728 0.0 0.0 0.0 0.0 
0.7937736 0.0 0.24386474 0.0 0.0 0.0 0.0 0.0 0.0 0.21759477 0.0 0.0 0.0 0.5757151 0.19026197 0.8564259 
0.5555402 0.0 0.5205768 0.0 0.0 0.0 0.0 0.0 0.0 0.24744499 0.0 0.0 0.29884762 0.1609911 0.11507456 1.471276 
0.84010905 0.0 0.0 0.0 0.0 0.0 0.0 0.0 0.0 0.0 0.0 0.0 1.4071047 0.26003703 0.0 0.0 
0.84355724 0.0 0.0 0.0 0.0 0.0 0.0 0.0 0.0 0.0 0.0 0.0 1.395116 1.7204646 0.0 0.0 
0.93698996 0.0 0.0 0.0 0.0 0.0 0.0 0.0 0.0 0.0 0.0 0.0 1.0543591 3.7674656 0.0 0.0 
1.4756454 0.0 0.38926303 0.0 0.0 0.0 0.0 0.0 0.0 0.0 0.39781022 0.0 0.64447874 4.384313 0.0 0.0 
2.1500666 0.0 0.10819891 0.0 0.0 0.0 0.0 0.0 0.0 0.0 0.0 0.0 1.0948945 2.8746064 0.0 0.0 
2.7895398 0.0 0.0 0.0 0.0 0.0 0.0 0.0 0.0 0.0 0.0 0.0 1.4439286 2.3294299 0.0 0.0 
2.3791273 0.0 0.0 0.0 0.0 0.0 0.0 0.0 0.0 0.0 0.0 0.14962444 1.6240448 1.2869524 0.0 0.0 
1.7977439 0.0 0.0 0.0 0.0 0.0 0.0 0.0 0.0 0.0 0.0 0.21924344 1.52659 0.47471294 0.0 0.0 
0.0 0.0 0.0 0.0 0.0 1.8630614 0.0 0.0 0.0 0.0 0.05092694 0.0 0.02713415 1.1021613 0.15562455 0.0 
0.0 0.0 0.0 0.0 0.0 0.0 0.0 0.37250453 0.0 0.0 0.0 0.0 0.68534744 0.6894079 0.0 0.0 
0.0 0.0 0.0 0.0 0.0 0.0 0.0 0.10030635 0.0 0.0 0.0 0.0 1.3738242 0.0 0.0 0.0 
0.0 0.0 0.0 0.0 0.0 0.0 0.0 0.0 0.0 0.0 0.0 0.0 1.2021344 0.0 0.0 0.0 
0.0 0.34577164 0.0 0.0 0.0 0.0 0.0 0.0 0.0 0.0 0.0 0.0 0.9292876 0.0 1.59608 0.0 
0.0 0.0 0.0 0.0 0.0 0.0 0.0 0.0 0.0 0.0 0.4009305 0.0 0.9398888 0.0 2.7265983 0.0 
0.0 0.0 0.0 0.0 0.0 0.0 0.0 0.0 0.0 0.0 1.3753296 0.0 1.2938362 1.3452305 1.9500794 0.0 
0.0 0.0 0.0 0.0 0.0 0.0 0.0 0.0 0.0 0.0 1.1051841 0.0 2.05511 1.9485897 0.32806766 0.0 
0.0 0.0 0.0 0.0 0.0 0.0 0.0 0.0 0.0 0.0 0.98703504 0.0 1.8024305 1.7649419 0.0 0.0 
0.0 0.0 0.0 0.0 0.0 0.0 0.0 0.0 0.5247762 0.0 0.92360634 0.0 1.6401888 1.118085 0.0 0.0 
0.0 0.0 0.0 0.0 0.0 1.790348 0.0 0.0 0.0 0.0 1.4230742 0.0 0.07869694 0.0 0.13619335 0.0 
0.0 0.0 0.0 0.0 0.0 0.9894121 0.18082489 0.85005534 0.0 0.0 1.5235891 0.0 0.0 1.6789445 0.0 0.0 
0.15276758 0.0 0.0 0.0 0.0 0.0 0.00031584315 0.0 0.0 0.0 1.1980169 0.0 0.0 1.3216532 0.0 0.0 
0.0 0.0 0.0 0.0 0.0 0.0 0.0 0.0 0.0 1.5160588 0.0 0.0 0.0 0.0 0.0 0.0 
0.0 0.0 0.0 0.0 0.0 0.0 0.0 0.0 0.0 2.2083642 0.0 0.0 0.0 0.0 0.0 0.0 
0.0 0.0 0.0 0.0 0.0 0.0 0.0 0.0 0.0 1.1763517 0.0 0.0 1.512635 0.0 0.0 0.0 
0.0 0.0 0.0 0.0 0.0 0.0 0.0 0.0 0.0 0.0 0.0 0.0 1.3580977 0.0 0.18994324 0.0 
0.0 0.0 0.0 2.7011783 0.0 0.0 0.0 0.0 0.0 0.0 0.15780947 0.0 0.0 0.0 1.0487717 0.0 
0.0 0.0 0.0 3.3444388 0.0 0.0 0.0 0.0 1.6646453 0.0 1.6396211 0.0 0.0 0.0 1.2514343 0.0 
0.0 0.0 0.0 3.38067 0.0 0.0 0.0 0.0 0.002409529 0.0 1.7219098 0.0 0.0 0.0 0.8788107 0.8724204 
0.0 0.8405915 0.0 0.0 0.0 0.49868876 0.0 0.19785143 0.0 0.0 0.9313745 0.0 0.0 0.0 0.0 0.0 
0.0 0.28501138 0.0 0.0 0.0 1.0953903 0.47839552 0.0 0.0 0.07075554 1.468948 0.0 0.0 0.0 0.60646486 0.0 
0.0 0.0 0.0 0.0 0.0 0.0 0.14220367 0.0 0.0 0.0 1.6478301 0.0 0.0 1.5261284 0.70778674 0.0 
0.0 0.0 0.0 0.0 0.0 0.0 0.0 0.0 0.0 0.0 0.84189695 0.0 0.0 1.7201368 0.0 0.0 
0.0 0.0 0.0 0.0 0.0 0.0 0.0 0.0 0.0 0.0 0.0 0.0 0.0 0.0 0.0 0.0 
0.0 0.0 0.0 0.0 0.0 0.0 0.0 0.0 0.0 0.0 0.0 0.0 0.35981077 0.0 0.0 0.0 
0.0 0.0 0.0 0.0 0.0 0.0 0.79298764 0.0 0.0 0.0 0.0 0.65161216 0.31081653 0.0 0.0 0.0 
0.0 0.0 0.0 1.0946056 0.0 0.0 0.0 0.0 2.2435935 0.5948371 0.0 0.099947914 0.0 0.0 0.0 0.0 
0.0 0.0 0.0 2.1173058 0.23431712 1.1053874 0.0 0.0 0.0 0.62003034 0.0 0.0 0.0 0.0 0.0 0.0 
0.0 0.0 0.0 1.8602247 1.1093105 1.0527735 0.0 0.0 0.0 0.5705391 0.6168962 0.0 0.0 0.0 0.09432985 1.35257 
0.0 0.7909371 0.0 0.2740826 0.0 0.0 0.0 0.0 0.0 0.118594736 0.13557446 0.038194448 0.0 0.0 0.0 0.0 
0.0 1.0892801 0.0 0.02910047 0.0 0.5438353 0.0 0.0 0.0 0.0 0.0 0.0 0.0 0.0 0.0 0.0 
0.0 0.5138506 0.0 0.0 0.0 0.872188 0.0 0.0 0.0 0.0 0.0 0.0 0.0 0.0 2.3980696 0.0 
0.0 0.0 0.0 0.0 0.0 0.7029749 0.0 0.0 0.0 0.0 0.5307507 0.0 0.0 0.0 3.3218482 0.0 
0.0 0.0 0.0 0.63595355 0.0 0.0 0.0 0.0 0.0 0.0 0.92844576 0.0 0.0 0.0 0.7544641 0.0 
0.0 0.0 0.0 1.2899295 0.0 0.0 0.5958438 0.09682725 0.0 0.0 0.0 0.0 0.0 0.42694464 0.0 0.0 
0.051515188 0.0 0.0 0.0 0.0 0.0 0.0 0.0 0.0 0.0 0.0 0.0 0.0 0.0 0.0 0.0 
0.0 0.0 0.0 0.0 0.0 0.0 0.0 0.0 0.053199027 0.0 0.0 2.138739 0.0 0.0 0.0 0.0 
0.0 0.0 0.0 0.0 0.0 0.56607014 0.0 0.0 0.0 0.0 0.0 1.1479542 0.2297466 0.0 0.0 0.0 
0.0 0.0 0.0 0.0 0.35971203 1.1246047 0.0 0.0 0.0 0.0 0.0 0.0 0.0 0.25754035 0.0 0.0 
0.21640094 0.25050932 0.0 0.25727582 0.0 0.0 0.22572853 0.07021381 0.0 0.28943464 0.09118336 0.08102706 0.0 0.0 0.0 0.0 
0.0 0.39014554 0.0 0.0 0.0 0.0 0.21366759 0.0 0.0 0.40705228 0.0 0.0 0.0 0.0 0.0 0.0 
0.0 0.5655134 0.0 0.0 0.228192 0.7546277 0.0 0.0 0.0 0.7965184 0.0 0.0 0.0 0.0 0.0 0.0 
0.0 0.12808032 1.0047351 0.0 0.0 0.46414238 0.0 0.0 0.0 1.2177892 0.0 0.0 0.0 0.0 0.71496564 0.0 
0.0 0.0 0.0 0.0 0.0 0.0 1.6819654 0.0 0.0 0.5639849 0.0 0.0 0.0 0.0 1.2841226 0.0 
0.0 0.0 0.0 0.0 0.0 0.0 0.40344372 0.0 0.0 0.0 0.0 0.0 0.0 0.63679314 0.62189823 0.0 
0.0 0.0 0.0 0.0 0.0 0.0 0.0 0.0 0.0 0.0 0.0 0.0 0.0 0.89789695 0.0 0.0 
0.0 0.0 0.0 0.0 0.0 0.0 0.0 0.0 0.0 0.0 0.0 0.0 0.0 0.17323607 0.0 0.0 
0.0 0.0 0.0 0.0 0.0 0.0 0.0 0.0 0.0 0.0 0.0 3.5491552 1.6751586 0.0 0.0 0.0 
0.6261729 0.0 0.69639575 0.0 0.0 0.0 0.0 0.0 0.0 0.0 0.0 0.6567898 0.7608167 0.04006502 0.0 0.0 
0.086529225 0.057405412 0.0 0.097014934 0.0 0.0 0.12328747 0.008154541 0.0 0.0068646036 0.07662472 0.0 0.0 0.0 0.0 0.0 
0.19753851 0.0 0.0 0.0 0.33877718 0.0 0.16890399 0.0 0.057201054 0.0 0.54608 0.15384315 0.0 0.0 0.0 0.0 
0.0 0.09542948 0.0 0.0 0.8954886 1.3762953 0.0 0.0 0.0 0.03316656 0.0 0.17675486 0.0 0.0 0.0 0.0 
0.0 0.6997514 1.9246612 0.0 0.0 0.0 0.0 0.0 0.0 0.0 0.0 0.0 0.0 0.0 0.0 0.0 
0.0 0.69431967 0.2781868 0.0 0.0 0.0 2.5948102 0.0 0.0 0.0 0.0 0.0 0.0 0.0 0.0 0.0 
0.0 0.0 0.0 0.0 0.0 0.0 0.0 0.0 0.41500416 0.0 0.0 0.0 0.0 0.0 1.0678517 0.0 
0.0 0.0 0.0 0.0 0.0 0.0 0.0 0.0 0.0 0.0 0.0 0.0 0.0 0.0 2.0234725 0.0 
0.0 0.0 0.0 0.0 0.0 0.0 0.0 0.0 0.0 0.0 0.21450314 0.0 0.0 0.009799637 0.0 0.0 
0.0 0.0 0.0 0.0 0.0 0.0 0.0 0.0 0.0 0.0 0.0 2.2284095 0.0 0.0 0.0 0.0 
0.0 0.0 0.0 0.0 0.0 0.0 0.0 0.0 0.0 0.0 0.0 1.9214429 0.70440584 0.0 0.0 0.0 
0.0 0.0 0.0 0.0 0.0 0.0 0.0 0.0 0.0 0.0 0.0 0.0 0.0 0.0 0.0 0.0 
0.0 0.0 0.0 0.0 0.389759 0.0 0.0 0.0 0.15648891 0.0 0.763156 0.09647556 0.0 0.0 0.0 0.0 
0.0 0.0 0.0 0.0 0.6033288 2.3699038 0.0 0.0 0.0 0.0 0.05550926 0.12502506 0.0 0.0 0.0 0.0 
0.0 0.0 0.9760853 0.0 0.0 0.59214884 0.0 0.2866851 0.0 0.0 0.0 0.0 0.0 0.1656897 0.0 0.0 
0.29002973 0.24000181 0.0 0.0 0.0 0.0 1.4927467 0.7997109 0.0 0.2685836 0.0 0.0 0.0 0.0 0.0 0.0 
0.0 0.0 0.0 0.0 0.0 0.0 0.0 0.0 0.0 0.6542473 0.0 0.0 0.0 0.0 0.0 0.0 
0.0 0.0 0.0 0.0 0.0 0.0 0.0 0.0 0.0 0.0 0.0 0.0 0.0 0.0 1.4741362 0.0 
0.0 0.0 0.0 0.0 0.0 0.0 0.0 0.0 0.0 0.0 0.0 0.0 0.0 0.0 0.706153 0.0 
0.0 0.0 0.0 0.0 0.0 0.0 0.0 0.0 0.6906599 0.0 0.0 0.0 0.0 0.0 0.0 0.0 
0.0 0.0 0.0 0.0 0.0 0.0 0.0 0.0 0.0 0.0 0.0 1.5358058 0.5211509 0.0 0.0 0.0 
0.0 0.0 0.0 0.0 0.0 0.0 0.0 0.0 0.0 0.0 0.0 0.0 0.0 0.0 0.0 0.0 
0.0 0.0 0.0 0.0 0.3245711 0.0 0.0 0.0 0.26716754 0.0 0.9369278 0.07640657 0.0 0.0 0.0 0.0 
0.0 0.0 0.0 0.0 0.03336402 2.354569 0.0 0.0 0.0 0.0 1.2137694 0.0 0.0 0.0 0.0 0.0 
0.0 0.0 1.183371 0.0 0.0 2.7314432 0.0 0.4312532 0.0 0.0 0.06564212 0.0 0.0 1.981284 0.026220009 0.0 
0.17650591 0.0 0.0 0.0 0.0 0.0 1.7523825 1.3505172 0.0 0.0 2.0980608 0.0 0.0 1.5248382 0.0 0.0 
0.0 0.0 0.0 0.0 0.0 0.0 0.0 0.0 0.0 0.0 0.2315341 0.0 0.0 0.0 0.0 0.0 
0.0 0.0 0.0 0.0 0.0 0.0 0.0 0.0 0.0 0.0 0.0 0.0 1.0695066 0.0 0.0 0.0 
0.0 0.0 0.0 0.0 0.0 0.0 0.39803606 0.0 0.0 0.0 0.0 0.0 1.9867849 0.0 0.0 0.0 
0.0 0.0 0.0 0.0 0.0 0.0 0.0 0.0 2.8865452 0.0 0.0 0.0 0.5067656 0.0 0.0 0.0 
0.0 0.0 0.0 0.0 0.0 0.0 0.0 0.0 0.36216477 0.0 0.06151533 0.4258298 0.45798385 0.0 0.0 0.0 

