0.08623266 0.0 0.0 0.0 0.24052393 0.10718666 0.17334153 0.0 0.0 0.0 0.0 0.0 0.0 0.0 0.0 0.0 
0.5723713 0.18777213 0.008990567 0.0 0.7167466 0.019951642 0.0 0.0 0.0 0.06352921 0.0 0.0 0.0 0.0 0.0 0.15098245 
0.16809289 0.32546216 1.686216 0.0 0.08914947 0.0 0.0 0.0 0.0 1.0277916 0.0 0.0 0.0 0.0 0.84818506 2.4138758 
0.0 0.0 1.8303759 0.0 0.0 0.0 0.0 0.0 0.0 0.75652677 0.0 0.0 0.5035919 0.0 1.4371663 1.8128719 
0.42680752 0.0 0.0 0.0 0.0 0.0 2.5413735 0.63924956 0.0 0.0 0.0 0.0 1.589853 0.0 0.8159036 0.0 
0.7372767 0.0 0.0 0.0 0.0 0.0 0.53281283 0.94153184 0.0 0.0 0.0 0.0 1.1150899 0.81267345 0.0 0.0 
0.54790086 0.0 0.0 0.0 0.0 0.0 0.0 0.0 1.966335 0.0 0.0 0.14120153 0.8210522 0.7132109 0.0 0.0 
0.06601268 0.0 0.5455702 0.0 0.0 0.0 0.0 0.0 0.9531988 0.0 0.12652756 0.6736704 0.818545 0.30313465 0.0 0.0 
0.0 0.0 0.42001304 0.0 0.0 0.0 0.0 0.0 0.0 0.0 0.010579038 0.29177445 0.5433912 0.0 0.0 0.0 
0.0 0.0 0.0 0.0 0.0 0.0 0.0 0.0 0.0 0.0 0.0 0.0 0.0 0.0 0.0 0.0 
0.18874143 0.0 0.0 0.0 0.46356553 0.19906819 0.0 0.0 0.0 0.0 0.0 0.0 0.0 0.0 0.0 0.0 
0.0 0.1273194 0.4364264 0.0 0.98845017 0.0 0.0 0.0 0.12722999 0.4715395 0.0 0.0 0.0 0.0 0.47134286 1.0785623 
0.0 0.0 1.8639523 0.0 0.0 0.0 0.0 0.0 0.0 0.24221495 0.0 0.0 0.22468193 0.0 0.3470962 2.5619354 
0.0 0.0 0.44125468 0.0 0.0 0.0 1.2417175 0.46040595 0.0 0.0 0.0 0.0 1.4036257 0.0 0.15308376 0.0 
0.0 0.0 0.0 0.0 0.0 0.0 2.5346053 1.8071094 0.0 0.0 0.0 0.0 1.4840311 0.0 0.0 0.0 
0.0 0.0 0.0 0.0 0.0 0.0 0.0 0.0 3.2940798 0.0 0.0 0.0 0.64859664 0.0 0.0 0.0 
0.0 0.0 0.0 0.548238 0.0 0.0 0.0 0.0 3.4454246 0.0 0.42750078 0.0 0.0 0.0 0.0 0.0 
0.0 0.0 0.0 1.5167996 0.0 0.0 0.0 0.0 0.0 0.0 0.6273834 0.5672053 0.3866055 0.0 0.0 0.7814096 
0.0 0.33862385 0.0 1.5226542 0.1750761 0.0 0.0 0.0 0.0 0.0 0.44529045 0.65860224 0.105038196 0.0 0.0 0.3539818 
0.0 0.086271 0.0 0.3438656 0.03229493 0.0 0.103739895 0.0 0.0 0.0 0.11231348 0.0 0.0 0.03399568 0.0 0.0 
0.0 0.0 0.0 0.0 0.79819643 0.34005612 0.0 0.0 0.0 0.0 0.0 0.0 0.0 0.0 0.0 0.0 
0.0 0.0 0.82029265 0.0 0.928511 0.0761421 0.0 0.0 0.0 0.0 0.0 0.0 0.0 0.0 0.25539917 0.8720196 
0.0 0.0 1.6883982 0.0 0.0 0.0 0.0 0.3894679 0.0 0.0 0.0 0.0 0.18083581 0.0 0.0 0.0 
0.0 0.0 0.0 0.0 0.0 0.0 3.5147402 1.6622638 0.0 0.0 0.0 0.0 0.39684755 0.0 0.0 0.0 
0.0 0.0 0.0 1.27615 0.0 0.0 1.5763233 0.61360717 2.2035377 0.0 0.0 0.00026656687 0.059046246 0.0 0.0 0.0 
0.0 0.0 0.0 2.1489077 0.0 0.0 0.0 0.0 4.6945844 0.0 0.0 0.0 0.0 0.0 0.0 0.0 
0.0 0.0 0.0 1.6333692 0.0 0.0 0.0 0.0 1.1162835 0.0 0.0 0.0 0.0 0.0 0.0 2.1707537 
0.0 0.95202696 0.0 1.6339725 0.78473306 0.0 0.0 0.0 0.0 0.0 0.0 0.8114972 0.0 0.0 0.0 1.7555361 
0.0 0.75517654 0.0 1.750667 1.666345 0.39718336 0.0 0.0 0.0 0.11752528 0.0 0.33811143 0.0 0.0 0.0 0.13170226 
0.0 0.115534425 0.0 1.0558301 1.0634223 0.45874697 0.0 0.0 0.0 0.0 0.39527228 0.0 0.0 0.56299084 0.0 0.0 
0.0 0.0 0.0 0.0 1.0857736 0.48629522 0.0 0.0 0.0 0.0 0.25707805 0.07086524 0.0 0.0 0.0 0.0 
0.0 0.0 0.62071276 0.0 0.3680814 1.2852058 0.0 0.0 0.0 0.0 0.0 0.0 0.0 0.0 0.0 0.0 
0.0 0.0 2.149637 0.0 0.0 0.0 1.0974609 1.274049 0.0 0.0 0.0 0.0 0.0 0.0 0.0 0.0 
0.0 0.0 0.0 0.3298871 0.0 0.0 4.0799055 0.7631768 0.0 0.0 0.0 0.11895929 0.0 0.0 0.0 0.0 
0.0 0.0 0.0 0.0 0.0 0.0 0.0 0.0 3.0792081 0.0 0.0 1.1136675 0.0 0.0 0.0 0.0 
0.30115205 0.0 0.0 0.0 0.0 0.0 0.0 0.0 0.13755448 0.0 0.0 0.0 0.0 0.0 0.0 1.1316504 
0.4280507 1.317646 0.0 0.0 0.0 0.0 0.0 0.0 0.0 0.0 0.0 0.0 0.0 0.0 0.0 1.543667 
0.70829827 1.1083512 0.0 0.0 0.3813917 0.0 0.0 0.0 0.0 0.50183976 0.0 0.87704134 0.0 0.0 0.0 0.0 
0.90910053 0.0 0.0 0.0 1.007491 0.0 0.0 0.0 0.0 0.9520408 0.0 1.6932311 0.0 0.0 0.0 0.0 
0.4039604 0.0 0.0 0.13102926 0.8859958 1.015476 0.0 0.0 0.0 0.30851668 0.0 0.17248243 0.0 0.17195898 0.0 0.0 
0.0 0.0 0.0 0.0 0.8079528 0.7322602 0.0 0.0 0.0 0.0 0.46515492 0.29508337 0.0 0.0 0.0 0.0 
0.0 0.0 0.94365317 0.0 0.0 2.6913352 0.0 0.0 0.0 0.0 0.0 0.0 0.0 0.0 0.0 0.0 
0.0 0.0 2.559761 0.0 0.0 0.0 1.5861115 1.471699 0.0 0.0 0.0 0.0 0.0 0.0 0.0 0.0 
0.57606345 0.0 0.0 0.0 0.0 0.0 2.6160457 0.0 0.0 0.0 0.0 0.0 0.0 0.0 0.0 0.0 
1.3146282 0.0 0.0 0.0 0.0 0.0 0.0 0.0 0.15362291 0.0 0.0 0.18830884 0.0 0.0 0.0 0.0 
1.9950535 0.0 0.0 0.0 0.0 0.0 0.0 0.0 0.0 0.0 0.0 0.0 0.0 1.1331122 0.0 0.0 
2.1190138 0.0 0.19937463 0.0 0.0 0.0 0.0 0.0 0.0 0.0 0.0 0.0 0.0 1.1650177 0.0 0.0 
2.129786 0.0 0.0 0.0 0.0 0.0 0.0 0.0 0.0 0.0 0.0 0.0 0.64797586 0.0 0.0 0.0 
1.7043992 0.0 0.0 0.0 0.0 0.0 0.0 0.0 0.0 0.0 0.0 2.9598963 1.6542631 0.0 0.0 0.0 
1.3666936 0.0 0.0 0.0 0.0 0.0 0.0 0.0 0.0 0.0 0.0 1.5952374 1.2669946 0.0 0.0 0.0 
0.0 0.0 0.0 0.0 0.575477 0.64064336 0.0 0.0 0.0 0.0 0.9231449 0.27545506 0.0 0.0 0.0 0.0 
0.0 0.0 1.0933328 0.0 0.0 3.71786 0.0 0.0 0.0 0.0 0.0 0.0 0.0 0.3239286 0.0 0.0 
0.0 0.0 3.597744 0.0 0.0 0.0 0.959407 0.40582335 0.0 0.0 0.0 0.0 0.0 0.9129178 0.7790783 0.0 
0.0 0.0 0.0 0.0 0.0 0.0 1.0877423 0.0 0.0 0.0 0.0 0.0 0.0 0.0 0.0 0.0 
0.0 0.0 0.0 0.0 0.0 0.0 0.0 0.0 0.0 0.0 0.0 0.0 0.42721456 0.0 0.0 0.0 
0.0 0.0 0.0 0.0 0.0 0.7322346 0.0 0.0 0.0 0.0 0.0 0.015801348 2.0461488 1.4861634 0.0 0.0 
0.0 0.0 0.5020901 0.0 0.0 0.0 0.0 0.0 0.0 0.0 0.0 0.0 1.622395 3.19818 0.0 0.0 
0.42967692 0.0 0.0 0.0 0.0 0.0 0.0 0.0 0.0 0.0 0.0 0.0 1.0591663 1.9682266 0.0 0.0 
0.1491038 0.0 0.0 0.0 0.0 0.0 0.0 0.0 0.0 0.0 0.0 1.3202307 0.7084517 0.28117737 0.0 0.0 
0.45997044 0.0 0.0 0.0 0.0 0.0 0.0 0.0 0.3609937 0.0 0.0 2.996352 1.3238883 0.0 0.0 0.0 
0.0 0.0 0.0 0.0 0.47199982 0.068883374 0.0 0.0 0.0 0.0 1.1856179 0.3705702 0.0 0.0 0.0 0.0 
0.0 0.0 0.18020695 0.0 0.0 3.4331172 0.0 0.0 0.0 0.0 0.29696324 0.0 0.0 0.0 0.0 0.0 
0.0 0.0 2.6483102 0.0 0.0 1.0668395 0.04508631 0.0 0.0 0.0 0.0 0.0 0.0 1.173839 1.1055516 0.0 
0.0 0.0 0.0 0.0 0.0 0.0 0.0 0.0 0.0 0.0 0.0 0.0 0.10342437 0.0 0.0073711425 0.0 
0.0 0.0 0.0 0.0 0.0 0.0 0.0 0.0 0.0 0.0 0.0 0.0 0.28474247 0.0 0.0 0.0 
0.0 0.0 0.0 0.0 0.0 0.0 0.0 0.0 0.0 0.0 0.0 0.56412184 0.974449 0.0 0.0 0.0 
0.0 0.0 0.0 0.0 0.0 0.0 0.0 0.0 0.0 0.0 0.0 0.0 0.6339235 0.0 1.7656584 0.0 
0.0 0.0 0.0 0.81435955 0.0 0.0 0.0 0.0 0.0 0.0 0.0 0.0 0.0 0.24128395 1.6043243 0.0 
0.0 0.0 0.0 0.40122926 0.0 0.0 0.0 0.0 0.0 0.0 0.09672351 0.0 0.0 0.021203548 0.0 0.0 
0.0 0.0 0.0 0.0 0.0 0.0 0.0 0.0 0.23220277 0.0 0.0 2.0663192 0.51760334 0.0 0.0 0.0 
0.0 0.0 0.0 0.0 0.25338677 0.0 0.0 0.0 0.0 0.0 1.0491122 0.35084546 0.0 0.0 0.0 0.0 
0.0 0.0 0.0 0.0 0.0 1.7639196 0.0 0.0 0.0 0.0 0.9876729 0.0 0.0 0.0 0.0 0.0 
0.0 0.0 0.7666761 0.0 0.0 2.764483 0.0 0.0 0.0 0.0 0.62350863 0.0 0.0 0.35790688 0.3291229 0.0 
0.0 0.0 0.0 0.0 0.0 0.0 0.486937 0.0 0.0 0.0 1.221961 0.0 0.0 1.0795348 0.16797568 0.0 
0.0 0.0 0.0 0.0 0.0 0.0 0.0 0.0 0.0 0.08007462 0.9798878 0.0 0.0 0.0 0.0 0.0 
0.0 0.0 0.0 0.0 0.0 0.0 0.0 0.0 0.0 1.6004056 0.0 0.0 0.0 0.0 0.0 0.0 
0.0 0.0 0.0 0.0 0.0 0.0 0.0 0.0 0.0 1.5343426 0.0 0.0 0.25923967 0.0 0.0 0.0 
0.0 0.0 0.0 0.0 0.0 0.0 0.0 0.0 0.0 0.008339893 0.0 0.0 0.60883045 0.0 1.1069015 0.0 
0.0 0.0 0.0 0.0 0.0 0.0 0.0 0.0 0.0 0.0 0.0 0.0 0.083454356 0.0 0.33858252 0.0 
0.0 0.0 0.0 0.0 0.0 0.0 0.0 0.0 1.5390397 0.0 0.0 0.0 0.0 0.0 0.0 0.0 
0.0 0.12710704 0.0 0.0 0.10520374 0.0 0.0 0.059161283 0.0 0.0 0.6642638 0.31819206 0.0 0.0 0.0 0.0 
0.0 0.52552956 0.0 0.0 0.0 0.10744457 0.0 0.0 0.0 0.0 1.114659 0.16406064 0.0 0.0 0.0 0.0 
0.0 0.2575467 0.0 0.0 0.0 1.7153766 0.0 0.16920795 0.0 0.28449532 1.4452428 0.0 0.0 0.0 0.0 0.0 
0.0 0.0 0.0 0.0 0.0 1.1651947 1.0086446 0.0 0.0 0.36154932 2.4972005 0.0 0.0 1.2464849 1.5025226 0.0 
0.0 0.0 0.0 0.0 0.0 0.0 0.0 0.0 0.0 0.0 4.004717 0.0 0.0 2.3110423 0.75422436 0.0 
0.0 0.0 0.0 0.0 0.0 0.0 0.0 0.0 0.0 0.0 3.946732 0.0 0.0 1.9893054 0.0 0.0 
0.0 0.0 0.0 0.0 0.0 0.0 0.0 0.0 0.0 0.0 1.4788395 0.0 1.0294031 0.9818411 0.0 0.0 
0.0 0.0 0.0 0.0 0.0 0.0 0.0 0.0 0.0 0.0 0.3369878 0.0 2.2048924 0.46750113 0.0 0.0 
0.0 0.0 0.0 0.0 0.0 0.0 0.0 0.0 2.4961183 0.0 0.957347 0.0 1.3908833 0.0 0.0 0.0 
0.0 0.0 0.0 0.0 0.0 0.0 0.0 0.0 1.9043918 0.0 1.0405457 0.0 0.18841805 0.22717038 0.0 1.7726566 
0.0 0.1370223 0.0 0.0 0.0 0.0 0.035487063 0.15859425 0.0 0.0 0.36999053 0.2852508 0.0 0.0 0.0 0.0 
0.0 0.58737403 0.0 0.0 0.0 0.0 0.0 0.16046916 0.0 0.0 0.6850528 0.50951815 0.0 0.0 0.0 0.0 
0.0 1.2907639 0.0 0.22836453 0.0 0.22694466 0.0 0.120364934 0.0 0.0 0.4711212 0.0 0.0 0.0 0.0 0.0 
0.0 1.5581449 0.0 0.37185776 0.0 0.5422487 0.0 0.0 0.0 0.0 0.5895042 0.0 0.0 0.0 0.74852055 0.0 
0.0 0.5162473 0.0 1.1205912 0.0 0.0721551 0.0 0.0 0.0 0.0 1.9762001 0.0 0.0 0.0 2.4322968 0.0 
0.0 0.50655067 0.0 3.149363 0.0 0.0 0.0 0.0 0.0 0.0 3.4979293 0.0 0.0 0.0 1.5824223 0.0 
0.0 1.9091322 0.0 5.566204 0.0 0.0 0.0 0.0 0.0 0.0 3.1160142 0.0 0.0 0.0 0.31082833 0.0 
0.0 1.2338655 0.0 5.236156 0.0 0.0 0.0 0.0 0.41055128 0.0 2.096553 0.0 0.0 0.0 0.15362461 0.0 
0.0 0.0 0.0 3.0931845 0.0 0.0 0.0 0.0 0.6926292 0.0 1.4400259 0.0 0.0 0.0 0.25415033 1.7893311 
0.0 0.0 0.0 1.0136275 0.27294508 0.1003318 0.0 0.0 0.0 0.0 0.7646151 0.0 0.0 0.0 0.0 2.205513 

