0.0 0.0 0.0 0.0 0.0024574883 0.0 0.13609718 0.0 0.0 0.0 0.0 0.0 0.0 0.0 0.0 0.0 
0.068007514 0.2698415 0.042720336 0.0 0.24709773 0.0 0.0 0.0 0.0 0.0 0.0 0.0 0.0 0.0 0.0 0.0 
0.73125017 0.76370806 0.39821365 0.0 0.0 0.0 0.0 0.0 0.0 0.0 0.0 0.0 0.0 0.0 0.0 0.72934103 
1.7562593 1.2854246 0.29924464 0.0 0.0 0.0 0.0 0.0 0.0 0.43594903 0.0 0.0 0.0 0.0 0.0 1.7209454 
2.7592595 0.87991303 0.0 0.0 0.0 0.0 0.0 0.0 0.0 0.55985916 0.0 0.0 0.0 0.5771394 0.0 1.1413722 
3.0939176 0.0 0.0 0.0 0.0 0.0 0.0 0.11772892 0.0 0.65686 0.0 0.0 0.0 0.31760877 0.0 0.0 
2.6814535 0.0 0.0 0.0 0.0 0.0 0.0 0.1059788 0.0 0.40050453 0.0 0.0 0.0 0.0 0.0 0.0 
1.6756897 0.0 0.0 0.0 0.0 0.0 0.0 0.0 0.0 0.41971636 0.0 1.5612744 0.79446304 0.0 0.0 0.0 
1.1193165 0.0 0.0 0.0 0.0 0.019061483 0.0 0.0 0.0 0.19467992 0.0 1.3620152 0.94818896 0.0 0.0 0.0 
0.515814 0.0 0.35381812 0.0 0.0 0.62938666 0.0 0.0 0.0 0.0 0.0 0.0 0.0 0.48703042 0.0 0.0 
0.085443124 0.13943665 0.0 0.0 0.3462709 0.0 0.0 0.0 0.0 0.0 0.0 0.0 0.0 0.0 0.0 0.0 
0.6298338 0.5557526 0.4969784 0.0 0.0 0.0 0.0 0.0 0.0 0.13250272 0.0 0.0 0.0 0.0 0.0 0.81811994 
0.72685844 0.8652436 0.828501 0.0 0.0 0.0 0.0 0.0 0.0 1.0880897 0.0 0.0 0.0 0.0 0.5387532 2.4040253 
0.65196794 0.0 0.0 0.0 0.0 0.0 0.0 0.0 0.0 0.9664426 0.0 0.0 0.34660333 0.18952629 0.5231202 2.004195 
0.7219143 0.0 0.0 0.0 0.0 0.0 0.59147936 0.0 0.0 0.0 0.0 0.0 0.78017646 1.7463589 0.0 0.0 
1.2657021 0.0 0.0 0.0 0.0 0.0 0.0 0.0 0.0 0.0 0.0 0.0 0.72837985 3.4170206 0.0 0.0 
1.3997918 0.0 0.85221624 0.0 0.0 0.0 0.0 0.0 0.0 0.0 0.0 0.0 1.1618823 1.6132455 0.0 0.0 
0.85151994 0.0 0.0 0.0 0.0 0.0 0.0 0.0 0.0 0.0 0.0 0.8547728 1.5549984 0.0 0.0 0.0 
0.6051261 0.0 0.0 0.0 0.0 0.0 0.0 0.0 0.0 0.0 0.0 3.293155 1.463923 0.0 0.0 0.0 
0.6113221 0.0 0.33904156 0.0 0.0 0.0 0.0 0.0 0.0 0.0 0.0 0.6397157 0.3500477 0.21980727 0.0 0.0 
0.5673832 0.40936536 0.035461035 0.0 0.4651391 0.0 0.0 0.0 0.0 0.0 0.0 0.0 0.0 0.0 0.0 0.0 
0.36066887 0.6059811 1.2114854 0.0 0.0 0.0 0.0 0.0 0.0 0.73148316 0.0 0.0 0.0 0.0 0.5094618 2.403507 
0.0 0.0 0.37376687 0.0 0.0 0.0 0.0 0.0 0.0 0.43752682 0.0 0.0 0.51714385 0.0 0.050009876 1.7752924 
0.0 0.0 0.0 0.0 0.0 0.0 0.8538434 0.0 0.0 0.0 0.0 0.0 1.5260493 0.0 0.0 0.0 
0.0 0.0 0.0 0.0 0.0 0.0 0.0 0.0 0.0 0.0 0.0 0.0 0.7965209 0.0 0.030356213 0.0 
0.0 0.0 0.22085369 0.0 0.0 0.0 0.0 0.0 0.2102493 0.0 0.0 0.0 0.2948531 0.0 2.6696615 0.0 
0.0 0.0 0.7713076 0.29416484 0.0 0.0 0.0 0.0 0.0 0.0 0.0 0.0 0.071601644 0.20304874 2.5096817 0.0 
0.0 0.0 0.0 0.52488047 0.0 0.0 0.54697025 0.0 0.0 0.0 0.0 0.0 0.3132782 0.0 0.0 0.0 
0.0 0.0 0.0 0.0 0.0 0.0 0.0 0.0 0.0 0.0 0.0 2.5364618 0.5460527 0.0 0.0 0.0 
0.0 0.0 0.0 0.0 0.0 0.0 0.0 0.0 0.0 0.0 0.0 1.8831924 0.7243999 0.0 0.0 0.0 
0.22201796 0.014812177 0.0 0.0 0.5687308 0.44547695 0.0 0.0 0.0 0.0 0.0 0.0 0.0 0.0 0.0 0.32429034 
0.0 0.0 0.7651545 0.0 0.0 0.0 0.0 0.0 0.0 0.0 0.0 0.0 0.1662865 0.0 0.0 1.4942878 
0.0 0.07873755 0.0 0.0 0.0 0.0 0.093814515 0.5696244 0.0 0.0 0.0 0.0 0.9025677 0.0 0.0 0.0 
0.0 0.0 0.0 0.0 0.0 0.0 0.18815883 1.2145157 0.0 0.0 0.0 0.8401778 0.0 0.0 0.0 0.0 
0.6238622 0.5484295 0.0 0.0 0.0 0.0 0.0 0.0 0.3296631 0.19985932 0.0 0.0 0.0 0.0 0.0 0.0 
0.0 0.0 0.0 0.0 0.0 0.0 0.0 0.0 0.0 1.757739 0.0 0.0 0.0 0.0 1.0468874 0.0 
0.0 0.0 0.0 0.0 0.0 0.0 0.0 0.0 0.0 1.4450154 0.0 0.0 0.0 0.0 3.0122669 0.0 
0.0 0.0 0.0 0.0 0.0 0.0 0.81650233 0.0 0.0 0.0 0.0 0.0 0.0 0.0 1.0278503 0.0 
0.0 0.0 0.0 0.0 0.0 0.0 0.0 0.0 0.37663338 0.0 0.0 0.0 0.0 0.0 0.0 0.0 
0.0 0.0 0.0 0.0 0.0 0.0 0.0 0.0 0.3669639 0.0 0.0 1.4220631 0.5053227 0.0 0.0 0.0 
0.0 0.0 0.0 0.0 0.36015156 2.1170416 0.0 0.0 0.0 0.0 0.037838854 0.0 0.0 0.3771586 0.0 0.0 
0.0 0.0 0.0 0.0 0.0 0.65755194 0.0 0.95830756 0.0 0.0 0.0 0.0 0.0 0.7753848 0.0 0.0 
0.77275515 0.0 0.0 0.0 0.0 0.0 0.8928472 2.9325964 0.0 0.0 0.0 0.0 0.0 0.0 0.0 0.0 
1.7612386 0.0 0.0 0.0 0.0 0.0 0.0 0.53242296 0.0 1.1333215 0.0 0.0 0.0 0.0 0.0 0.0 
1.607108 0.0 0.0 0.0 0.0 0.0 0.0 0.0 0.0 2.0696404 0.0 0.0 0.0 0.0 0.0 0.0 
0.0 0.0 0.0 0.0 0.0 0.0 0.0 0.0 0.0 1.1433656 0.0 0.0 0.0 0.0 0.0 0.0 
0.0 0.0 0.05594972 0.0 0.0 0.0 0.3346888 0.0 0.0 0.0 0.0 0.0 0.6357092 0.0 0.3969937 0.0 
0.0 0.0 0.0 0.0 0.0 0.0 1.2639229 0.0 0.0 0.0 0.0 0.0 1.3279939 0.0 0.058588684 0.0 
0.0 0.0 0.0 0.0 0.0 0.0 0.0 0.0 3.485611 0.0 0.0 0.0 0.16708525 0.0 0.0 0.0 
0.0 0.0 0.0 0.0 0.0 0.0 0.0 0.0 0.99141383 0.0 0.28720608 0.583163 0.23984657 0.01957322 0.0 0.0 
0.0 0.0 0.0 0.0 0.0 2.025626 0.0 0.0 0.0 0.0 1.6441061 0.0 0.0 0.0 0.0 0.0 
0.0 0.0 0.0 0.0 0.0 2.2017145 0.0 1.396721 0.0 0.0 2.096562 0.0 0.0 2.6725435 0.0 0.0 
0.0064846464 0.0 0.0 0.0 0.0 0.0 2.0975807 1.0552127 0.0 0.0 3.5517259 0.0 0.0 3.9621582 0.0 0.0 
0.0 0.0 0.0 0.0 0.0 0.0 0.0 0.0 0.0 0.0 2.8252485 0.0 0.0 3.1393933 0.0 0.0 
0.0 0.0 0.0 0.0 0.0 0.0 0.0 0.0 0.0 0.0 0.0 0.0 0.10956898 1.0115428 0.0 0.0 
0.0 0.0 1.2145966 0.0 0.0 0.0 0.0 0.0 0.0 0.0 0.0 0.0 2.1940198 0.0 0.0 0.0 
0.0 0.0 0.0 0.0 0.0 0.0 1.9009657 0.3997705 0.0 0.0 0.0 0.0 1.770375 0.0 0.0 0.0 
0.0 0.0 0.0 0.0 0.0 0.0 0.22565123 0.0 3.0286012 0.0 0.0 0.0 1.1564249 0.0 0.0 0.0 
0.0 0.0 0.0 0.0 0.0 0.0 0.0 0.0 3.24034 0.0 0.49496332 0.0 0.0 0.14247864 0.0 0.0043443893 
0.0 0.0 0.0 0.015035395 0.0 0.14074013 0.0 0.0 0.0 0.0 0.37008888 0.0 0.0 0.0 0.0 0.6019977 
0.0 0.6817652 0.0 0.0 0.0 0.5619191 0.0 0.0 0.0 0.0 1.0445255 0.0 0.0 0.0 0.0 0.0 
0.0 0.7980346 0.03917339 0.0 0.0 0.884487 0.0 0.55166554 0.0 0.0 1.1851732 0.0 0.09607662 0.0 1.009061 0.0 
0.0 0.0 0.0 0.0 0.0 0.0 0.6797281 0.0 0.0 0.0 2.5057566 0.0 0.23041762 1.1116796 1.4889996 0.0 
0.0 0.0 0.0 0.0 0.0 0.0 0.0 0.0 0.0 0.0 3.465548 0.0 0.0 0.9069555 0.9921146 0.0 
0.0 0.5839618 0.0 0.0 0.0 0.0 0.0 0.0 0.0 0.0 1.5582987 0.0 0.0 0.27538833 0.26869667 0.0 
0.0 0.65854377 0.0 3.0231977 0.0 0.0 0.0 0.0 0.0 0.0 0.74813753 0.0 0.9778972 0.0 0.0 0.0 
0.0 0.0 0.0 2.8621507 0.0 0.0 3.8374565 0.0 0.0 0.0 0.22502787 0.26377714 0.42432302 0.0 0.0 0.0 
0.0 0.0 0.0 0.9755442 0.0 0.0 0.0 0.0 2.9283779 0.0 0.0 0.5003673 0.02382037 0.0 0.0 0.0 
0.0 0.0 0.0 0.0 0.0 0.7116178 0.0 0.0 0.78247833 0.0 0.4123944 0.0 0.0 0.21974185 0.0 0.7461305 
0.0 0.0 0.0 0.0 0.0 0.29043525 0.0 0.0 0.0 0.0 0.10737851 0.0 0.0 0.0 0.0 0.6362281 
0.0 0.78729624 0.0 0.08663721 0.0 0.0 0.0 0.0 0.0 0.0 0.30814636 0.24907008 0.0 0.0 0.0 0.0 
0.0 1.5473694 0.0 0.89945716 0.0 0.0 0.0 0.0 0.0 0.0 0.0 0.0 0.0 0.0 0.0 0.0 
0.0 1.6950439 0.0 1.1984684 0.0 0.0 0.0 0.0 0.0 0.14593512 0.0 0.0 0.0 0.0 0.36391705 0.0 
0.0 1.6065466 0.0 0.39705345 0.0 0.0 0.0 0.0 0.0 0.46509963 0.22496596 0.0 0.0 0.0 1.5114655 0.0 
0.0 2.150446 0.0 2.188028 0.0 0.0 0.0 0.0 0.0 1.3900993 0.0 0.0 0.0 0.0 2.00505 0.12302581 
0.0 0.7494622 0.0 4.631454 0.0 0.0 0.4201713 0.0 0.0 0.96152 0.0 0.0 0.0 0.0 0.73580486 0.0 
0.0 0.0 0.0 2.549822 0.0 0.0 2.6479068 0.0 0.0 0.0 0.0 0.18826509 0.0 0.0 0.0 0.0 
0.0 0.0 0.0 0.21003559 0.0 0.0 0.0 0.0 1.4593062 0.0 0.0 0.5857146 0.0 0.0 0.0 0.0 
0.0 0.0 0.0 0.0 0.0 1.1661131 0.0 0.0 0.0 0.0 0.12734735 0.0 0.0 0.07797425 0.0 0.0 
0.0 0.0 0.0 0.053477854 0.0 0.18917087 0.0 0.0 0.0 0.0 0.0 0.0 0.0 0.0 0.0 0.14467484 
0.30737445 0.23989071 0.0 0.34006134 0.0 0.0 0.25084183 0.09389208 0.0 0.33361083 0.11898872 0.009620614 0.0 0.0 0.0 0.0 
0.24257304 0.5710997 0.0 0.9668866 0.0 0.0 0.37387228 0.0 0.0 1.1306643 0.0 0.0 0.0 0.0 0.0 0.0 
0.0 0.65229887 0.0 0.24071206 0.0 0.0 0.09031704 0.0 0.0 2.0476933 0.0 0.0 0.0 0.0 0.0 0.0 
0.0 0.4096631 0.0 0.0 0.5547416 1.0060778 0.0 0.0 0.0 2.474422 0.0 0.0 0.0 0.0 0.0 0.0 
0.0 0.0 0.7484743 0.0 0.0 0.54087675 0.0 0.0 0.0 2.43684 0.0 0.0 0.0 0.0 0.28733695 0.22531728 
0.0 0.0 0.0 0.0 0.0 0.0 2.1264443 0.0 0.0 1.2646031 0.0 0.0 0.0 0.0 0.41207385 0.0 
0.0 0.0 0.0 0.0 0.0 0.0 1.4423094 0.0 0.0 0.0 0.0 0.0 0.0 0.0 0.0 0.0 
0.0 0.0 0.0 0.0 0.0 0.0 0.0 0.0 1.3430902 0.0 0.0 0.712546 0.0 0.0 0.0 0.0 
0.0 0.0 0.0 0.0 0.0 0.6972294 0.0 0.0 0.0 0.0 0.0 0.20722249 0.0 0.0 0.0 0.0 
0.0 0.0 0.0 0.0 0.0 0.15942481 0.0 0.0 0.0 0.0 0.0 0.0 0.0 0.0 0.0 0.0 
0.05008812 0.06406933 0.0 0.10284966 0.0 0.0 0.10148614 0.0 0.0 0.03370862 0.032092296 0.0 0.0 0.0 0.0 0.0 
0.17220038 0.066299155 0.0 0.13920793 0.0 0.0 0.20255671 0.0 0.0 0.23512632 0.118250534 0.0 0.0 0.0 0.0 0.0 
0.05909008 0.0 0.0 0.0 0.4034854 0.0 0.0 0.0 0.16664308 0.41854328 0.8083511 0.0 0.0 0.0 0.0 0.0 
0.0 0.0 0.0 0.0 0.44393265 1.8640795 0.0 0.0 0.0 0.45736092 1.1410921 0.0 0.0 0.0 0.0 0.13588305 
0.0 0.0 2.122745 0.0 0.0 1.9801612 0.0 0.0 0.0 0.26434192 0.0 0.0 0.0 1.1647581 0.0 0.0 
0.0 0.0 1.2668867 0.0 0.0 0.0 3.8511224 1.261783 0.0 0.0 0.0 0.0 0.15546948 1.3845445 0.0 0.0 
0.0 0.0 0.0 0.0 0.0 0.0 0.99608713 0.0 0.3145291 0.0 0.0 0.0 0.4307394 0.0 0.0 0.0 
0.0 0.0 0.0 0.0 0.0 0.0 0.0 0.0 2.1659782 0.0 0.0 0.47481152 0.6117123 0.0 0.0 0.0 
0.0 0.0 0.4609334 0.0 0.0 0.0 0.0 0.0 0.0 0.0 0.0 0.86364615 0.9680889 0.0 0.0 0.0 
0.0 0.0 0.15567562 0.0 0.0 0.0 0.0 0.0 0.0 0.0 0.0 0.0 0.204926 0.0 0.0 0.0 

