1.1458204 0.39989907 0.0 0.0 0.0 0.607244 0.0 0.0 0.0 0.0 0.0 0.0 0.0 0.8508954 0.0 0.0 
1.9323006 0.97771513 0.0 0.0 0.0 0.0 0.0 0.17235188 0.0 0.14398015 0.0 0.0 0.0 0.32855996 0.0 0.6206392 
2.5253859 0.81978714 0.0 0.0 0.0 0.0 0.0 0.0 0.0 0.83047915 0.0 0.0 0.0 0.012586296 0.0 0.44224784 
3.2089925 0.0 0.0 0.0 0.0 0.0 0.0 0.0 0.0 1.3681101 0.0 0.0 0.0 0.0 0.0 0.0 
3.5893788 0.0 0.0 0.0 0.0 0.0 0.0 0.0 0.0 1.0072526 0.0 0.0 0.0 0.4363046 0.0 0.0 
3.5599186 0.0 0.0 0.0 0.0 0.0 0.0 0.0 0.0 0.35455632 0.0 0.0 0.0 1.7320399 0.0 0.0 
3.0925794 0.0 1.2653334 0.0 0.0 0.0 0.0 0.0 0.0 0.23018628 0.0 0.0 0.19049977 0.5902706 0.0 0.0 
2.2063768 0.0 0.0 0.0 0.0 0.0 0.0 0.0 0.0 0.0 0.0 0.045418262 1.0139406 0.0 0.0 0.0 
1.7713469 0.0 0.0 0.0 0.0 0.0 0.0 0.0 0.0 0.0 0.0 2.5161374 1.5828485 0.0 0.0 0.0 
1.3870885 0.0 0.13475363 0.0 0.0 0.0 0.0 0.0 0.0 0.0 0.0 1.0247425 0.9457075 0.0 0.0 0.0 
0.49830833 0.0 0.0 0.0 0.0 0.9631824 0.0 0.0 0.0 0.0 0.82623184 0.0 0.067568675 1.5599294 0.25686103 0.28505942 
0.68175924 0.0 0.0 0.0 0.0 0.0 0.0 0.0 0.0 0.039421085 1.4144944 0.0 0.29794937 2.7757614 0.052397296 0.20066302 
0.31739974 0.0 0.0 0.0 0.0 0.0 0.0 0.0 0.0 0.0 1.8350307 0.0 0.7708753 3.1554823 0.0 0.0 
0.0 0.0 0.0 0.0 0.0 0.0 0.0 0.0 0.0 0.0 0.76546407 0.0 1.4042028 2.925651 0.0 0.0 
0.0 0.0 0.0 0.0 0.0 0.0 0.0 0.0 0.0 0.0 0.0 0.0 2.0553231 2.5153644 0.0 0.0 
0.0 0.0 0.9500809 0.0 0.0 0.0 0.0 0.0 0.0 0.0 0.0 0.0 2.086337 2.3714442 1.200793 0.0 
0.3591524 0.0 1.5258639 0.0 0.0 0.0 0.0 0.0 0.0 0.0 0.0 0.0 1.96949 1.8714315 1.6009598 0.0 
1.094126 0.0 0.0 0.0 0.0 0.0 0.7282634 0.0 0.0 0.0 0.0 0.0 1.4124588 0.9598652 0.0 0.0 
0.47750983 0.0 0.0 0.0 0.0 0.0 0.0 0.0 0.018773105 0.0 0.0 1.2541772 1.0606638 0.35445917 0.0 0.0 
0.34100115 0.0 0.0 0.0 0.0 0.0 0.0 0.0 1.021539 0.0 0.0 1.9786791 1.1176252 0.0 0.0 0.0 
0.0 0.16041113 0.0 0.0 0.0 0.22338238 0.0 0.0 0.0 0.0 0.8969736 0.0 0.6764719 0.0 0.5371042 0.0 
0.0 0.10135456 0.0 0.0 0.0 0.0 0.0 0.0 0.0 0.0 1.020183 0.0 0.9934718 0.6897848 0.7264949 0.0 
0.0 1.0563215 0.0 0.0 0.0 0.0 0.0 0.0 0.0 0.0 1.0317259 0.0 0.9731795 0.49298027 0.41204584 0.0 
0.0 2.3595939 0.0 0.0 0.0 0.0 0.0 0.0 0.0 0.0 0.16489375 0.0 0.8481559 0.0 0.5545634 0.0 
0.0 3.6233516 0.0 0.37781447 0.0 0.0 0.0 0.0 0.0 0.0 0.3262406 0.0 0.23058014 0.0 1.1322113 0.0 
0.0 3.165205 0.0 0.20593749 0.0 0.0 0.0 0.0 0.0 0.0 0.0 0.0 0.25538152 0.0 2.273489 0.0 
0.0 0.0 0.0 1.1047206 0.0 0.0 0.0 0.0 0.0 0.0 0.0 0.0 0.40150464 0.0 2.602558 0.0 
0.0 0.0 0.0 0.71279174 0.0 0.0 1.0019406 0.0 0.0 0.0 0.105548844 0.0 0.5046386 0.5787227 1.0291617 0.0 
0.0 0.0 0.0 0.0 0.0 0.0 0.0 0.0 1.496334 0.0 0.05616027 0.0 0.17838739 0.0 0.0 0.0 
0.0 0.0 0.0 0.0 0.0 0.0 0.0 0.0 0.9052608 0.0 0.15870579 1.1619642 0.588002 0.0 0.0 0.0 
0.0 1.0060265 0.0 0.0 0.0 0.0 0.0 0.0 0.0 0.0 0.13134083 0.15885477 0.0 0.0 0.0 0.0 
0.0 1.8398489 0.0 0.27658886 0.0 0.027535677 0.0 0.0 0.0 0.0 0.0 0.0 0.0 0.0 0.0 0.0 
0.0 2.9298568 0.0 1.3423941 0.0 0.0 0.0 0.0 0.0 0.78223634 0.0 0.0 0.0 0.0 0.0 0.0 
0.0 3.3064005 0.0 0.84490085 0.0 0.0 0.0 0.0 0.0 2.6378925 0.0 0.0 0.0 0.0 0.0 0.0 
0.0 1.9299972 0.0 0.0 0.0 0.0 0.0 0.0 0.0 3.9491732 0.0 0.0 0.0 0.0 0.0 0.8584157 
0.0 0.0 0.0 0.0 0.0 0.0 0.0 0.0 0.0 2.909897 0.0 0.0 0.0 0.0 0.0 0.0 
0.0 0.0 0.0 0.0 0.0 0.0 0.0 0.0 0.0 1.3087342 0.0 0.0 0.113310784 0.0 0.0 0.0 
0.0 0.0 0.0 0.46546626 0.0 0.0 0.0 0.0 0.0 0.0 0.0 0.0 0.42838442 0.0 0.039178967 0.0 
0.0 0.0 0.0 0.9980834 0.0 0.0 0.0 0.0 2.5720172 0.0 0.7247866 0.0 0.0 0.0 0.0 0.0 
0.0 0.0 0.0 0.73422396 0.0 0.06813571 0.0 0.0 0.3576992 0.0 0.9029711 0.0 0.0 0.052047297 0.0 0.8785056 
0.42871574 0.5062532 0.0 0.54361206 0.0 0.0 0.0 0.0 0.0 0.5250665 0.0 0.0 0.0 0.0 0.0 0.0 
0.5895918 0.6326455 0.0 0.0 0.0 0.123313874 0.0 0.0 0.0 2.053537 0.028489852 0.0 0.0 0.0 0.0 0.0 
0.04940259 0.0 0.0 0.0 0.0 0.5242154 0.0 0.0 0.0 3.4097128 0.63349736 0.0 0.0 0.16208631 0.0 0.0 
0.0 0.0 0.0 0.0 0.0 0.0 0.0 0.0 0.0 3.1869154 0.7973709 0.0 0.0 0.68460405 0.0 0.108239375 
0.0 0.0 0.0 0.0 0.0 0.0 0.0 0.0 0.0 1.0789098 0.0 0.0 0.0 0.22035387 0.0 0.0 
0.0 0.0 0.0 0.0 0.0 0.0 0.0 0.0 0.0 0.0 0.0 0.0 0.08209418 0.0 0.0 0.0 
0.0 0.0 0.0 0.0 0.0 0.0 0.6676891 0.0 0.0 0.0 0.0 0.0 1.0261612 0.0 0.0 0.0 
0.0 0.0 0.0 0.0 0.0 0.0 0.0 0.0 2.5103428 0.0 0.0 1.5344245 1.0684301 0.0 0.0 0.0 
0.0 0.0 0.0 0.50175285 0.0 0.3978021 0.0 0.0 1.599446 0.0 0.0 0.0 0.0 0.0 0.0 0.0 
0.0 0.0 0.0 0.49989533 0.39014286 1.1370299 0.0 0.0 0.0 0.0 0.7167482 0.0 0.0 0.5526765 0.0 0.73208 
0.23176537 1.223389 0.09920393 0.24712853 0.0 0.0 0.0 0.0 0.57275754 0.0 0.0 0.0 0.0 0.0 0.0 0.4634237 
0.0 1.5250928 0.0 0.0 0.0 0.0 0.0 0.0 0.28510928 0.08090921 0.0 0.4566519 0.0 0.0 0.0 0.29050198 
0.0 0.59528583 0.0 0.0 0.0560681 0.803023 0.0 0.0 0.0 0.0 0.7758224 0.24642166 0.5277734 0.0 0.0 0.0 
0.0 0.0 0.0 0.0 0.0 1.5570931 0.0 0.0 0.0 0.0 2.8319788 0.0 0.20969586 0.7063163 0.0 0.0 
0.0 0.0 0.0 0.0 0.0 1.9134717 0.0 0.0 0.0 0.0 2.72593 0.0 0.0 3.0578063 0.0 0.0 
0.0 0.0 0.0 0.77951604 0.0 0.0 0.0 0.7975283 0.0 0.0 0.13305132 0.0 0.0 2.048691 0.0 0.0 
0.0 0.0 0.0 0.22758317 0.0 0.0 1.8246653 0.0 0.36198422 0.0 0.0 0.0 0.0 0.0 0.0 0.0 
0.0 0.0 0.0 0.0 0.0 0.0 0.0 0.0 1.0751379 0.0 0.0 3.0202453 0.27445585 0.0 0.0 0.0 
0.0 0.0 0.0 0.0 0.0 0.22168425 0.0 0.0 0.0 0.0 0.0 1.559122 0.49710655 0.0 0.0 0.0 
0.0 0.0 0.0 0.0 0.0 0.7980855 0.0 0.0 0.0 0.0 0.0 0.0 0.0 0.012517966 0.0 0.0 
0.9318574 2.0350504 0.020668518 0.0 0.0 0.0 0.0 0.0 0.0 0.0 0.0 0.0 0.0 0.0 0.0 0.5097924 
0.5950958 2.872856 0.0 0.0 0.0 0.0 0.0 0.0 0.0 0.0 0.0 0.37790745 0.0 0.0 0.0 0.0 
0.0 2.260231 0.0 0.0 0.0 0.0 0.0 0.07670806 0.0 0.0 0.0 2.0956142 0.0 0.0 0.0 0.0 
0.0 1.3122325 0.0 0.27426133 0.0 0.6607528 0.0 0.0 0.0 0.0 0.0 0.6925577 0.0 0.0 0.0 0.0 
0.0 0.99357086 0.0 2.234706 0.0 4.146439 0.0 0.0 0.0 0.51115006 1.0381308 0.0 0.0 0.0 0.14723559 0.0 
0.0 0.0 0.9284815 3.0306063 0.0 1.4661975 0.0 0.0 0.0 0.0 0.0 0.0 0.0 1.207566 2.2543597 0.0 
0.0 0.0 0.0 1.9883083 0.0 0.0 1.793428 0.0 0.0 0.0 0.0 0.0 0.0 0.0 0.40897083 0.6872474 
0.0 0.0 0.0 0.0 0.0 0.0 0.0 0.0 0.0 0.0 0.0 0.482327 0.0 0.0 0.0 0.0 
0.0 0.0 0.0 0.0 0.0 0.0 0.0 0.0 0.0 0.0 0.0 3.3996348 1.1189576 0.0 0.0 0.0 
0.0 0.0 0.73735446 0.0 0.0 0.0030602887 0.0 0.0 0.0 0.0 0.0 0.61317873 0.35088593 0.0 0.0 0.0 
1.6296936 0.0 0.0 0.0 0.0 0.0 0.0 0.0 0.0 0.0 0.0 0.0 0.0 2.234253 0.0 0.0 
2.3981566 0.0 0.0 0.0 0.0 0.0 0.0 0.6505821 0.0 0.0 0.0 0.0 0.0 0.17485386 0.0 0.0 
2.6173277 0.0 0.0 0.0 0.0 0.0 0.0 0.020852834 0.0 0.0 0.0 0.22814345 0.0 0.0 0.0 0.0 
1.8047838 0.0 0.0 0.0 0.0 0.0 0.0 0.0 0.0 1.690128 0.0 2.195489 0.0 0.0 0.0 0.0 
0.0 0.5040367 0.0 0.0 0.0 0.39537746 0.0 0.0 0.0 2.9136415 0.0 0.0 0.0 0.0 0.0 0.0 
0.0 0.0 1.7871535 0.0 0.0 1.7793207 0.0 0.0 0.0 1.4445585 0.0 0.0 0.0 0.0 1.4851618 0.0 
0.0 0.0 0.0 0.0 0.0 0.0 1.3612337 0.0 0.0 0.0 0.0 0.0 0.0 0.0 2.1986456 0.0 
0.0 0.0 0.0 0.0 0.0 0.0 0.0 0.0 0.0 0.0 0.0 0.0 0.0 0.0 0.0 0.0 
0.0 0.0 0.0 0.0 0.0 0.0 0.0 0.0 0.8705886 0.0 0.0 2.2117548 0.3094498 0.0 0.0 0.0 
0.0 0.0 0.32576162 0.0 0.0 0.0 0.0 0.0 0.0 0.0 0.0 1.3728764 0.5148947 0.0 0.0 0.0 
0.0 0.0 0.0 0.0 0.0 2.144447 0.0 0.0 0.0 0.0 1.2326564 0.0 0.7204558 3.1343586 1.6532025 0.0 
0.44927987 0.0 0.0 0.0 0.0 0.0 0.4981076 0.0 0.0 0.0 1.3702924 0.0 0.10983211 4.9294353 0.0 0.0 
2.0915446 0.0 0.0 0.0 0.0 0.0 0.0 0.0 0.0 0.0 0.38616204 0.0 0.0 4.236957 0.0 0.0 
2.36135 0.0 0.0 0.0 0.0 0.0 0.0 0.0 0.0 0.0 0.0 0.0 0.0 0.6038581 0.0 0.0 
1.5641084 0.0 0.0 0.0 0.0 0.0 0.0 0.0 0.0 0.7086053 0.0 0.31217483 0.0 0.0 0.0 0.0 
0.4546319 0.0 2.8756804 0.0 0.0 0.0 0.0 0.0 0.0 0.9293298 0.0 0.0 0.0 0.0 0.0 0.0 
0.3194351 0.0 0.81571376 0.0 0.0 0.0 1.5112674 0.0 0.0 0.0 0.0 0.0 0.60798174 0.0 0.6935214 0.0 
0.0 0.0 0.0 0.0 0.0 0.0 0.0 0.0 0.7126922 0.0 0.0 0.0 0.067692265 0.0 0.0 0.0 
0.0 0.0 0.0 0.0 0.0 0.0 0.0 0.0 2.5727537 0.0 0.0 0.0 0.0017970875 0.0 0.0 0.0 
0.0 0.0 0.0 0.0 0.0 0.0 0.0 0.0 0.0 0.0 0.0 1.1825047 0.7347448 0.0 0.0 0.0 
0.0 0.89027953 0.0 0.0 0.0 0.96466094 0.0 0.0 0.0 0.0 1.0742214 0.0 0.4644696 0.0 2.3929527 0.0 
0.0 0.0 0.0 0.0 0.0 0.6001222 0.0 0.0 0.0 0.0 2.186028 0.0 0.56613266 1.2964073 4.2067504 0.0 
0.0 0.0 0.0 0.0 0.0 0.0 0.0 0.0 0.0 0.0 3.7225304 0.0 0.3351236 3.6574655 3.34283 0.0 
0.0 0.0 0.0 0.0 0.0 0.0 0.0 0.0 0.0 0.0 5.1954494 0.0 0.121790916 3.9052463 0.0 0.0 
0.0 0.0 0.0 0.0 0.0 0.0 0.0 0.0 0.0 0.0 4.6752267 0.0 0.83126587 2.6721883 0.0 0.0 
0.0 0.0 0.3767321 0.0 0.0 0.0 0.0 0.0 0.0 0.0 1.0391347 0.0 2.0812356 1.8874809 0.0 0.0 
0.0 0.0 1.0934916 0.0 0.0 0.0 1.3388315 0.0 0.0 0.0 0.0 0.0 2.3273466 1.1415579 0.0 0.0 
0.0 0.0 0.0 0.0 0.0 0.0 0.0 0.0 3.4526432 0.0 0.5887628 0.0 1.1883037 0.18131474 0.0 0.0 
0.0 0.0 0.0 0.0 0.0 0.0 0.0 0.0 2.912417 0.0 0.62014836 0.0 0.104446694 0.17094809 0.0 0.72683704 
0.0 0.0 0.0 0.1259732 0.0 0.0 0.0 0.0 0.0 0.0 0.26009533 0.72857773 0.33994353 0.0 0.0 0.3238221 

