0.0 0.0 0.0 0.01659051 0.0 0.0 0.0736231 0.0 0.0 0.0 0.0 0.0 0.0 0.0 0.0 0.0 
0.0 0.12627622 0.0 0.14431837 0.056299888 0.0 0.0 0.0 0.049818728 0.0 0.0 0.0 0.0 0.0 0.0 0.0 
0.011731859 0.6670802 0.39816612 0.18170643 0.0 0.0 0.0 0.0 0.117857784 0.0 0.0 0.0 0.0 0.0 0.0 0.11566459 
0.18806523 1.5744485 0.29338244 0.30334058 0.0 0.0 0.0 0.0 0.23957661 0.0 0.0 0.12374626 0.0 0.0 0.0 0.5532582 
0.64218515 2.539052 0.0 0.09897104 0.008537069 0.0 0.0 0.0 0.0 0.0 0.0 0.32591414 0.0 0.0 0.0 0.51444 
1.1954108 2.936161 0.0 0.012368828 1.0913881 0.0 0.0 0.0 0.0 0.0 0.0 0.33301145 0.0 0.0 0.0 0.44042686 
1.3647557 2.352054 0.0 0.0 0.5052222 0.0 0.0 0.0 0.0 0.24140555 0.0 0.0 0.0 0.0 0.0 0.8570218 
0.7834762 0.92298764 0.0 0.0 0.24376881 0.0 0.0 0.0 0.0 0.98583984 0.0 0.66758955 0.0 0.0 0.0 0.0 
0.73156327 0.0 0.0 0.0 1.17993 0.0 0.0 0.0 0.0 0.6722573 0.0 1.6451794 0.0 0.0 0.0 0.0 
0.5527238 0.0 0.0 0.0 0.75653654 0.53768796 0.0 0.0 0.0 0.18932295 0.0 0.13801156 0.0 0.15549067 0.0 0.0 
0.022156421 0.2466482 0.0 0.0 0.0 0.10032512 0.0 0.0 0.0 0.0 0.0 0.0 0.0 0.0 0.0 0.0 
0.5285854 0.9842848 0.0 0.0 0.069640435 0.0 0.0 0.0 0.0 0.0 0.0 0.0 0.0 0.0 0.0 0.0 
1.3620117 1.9789411 0.19926873 0.0 0.0 0.0 0.0 0.0 0.0 0.0 0.0 0.0 0.0 0.0 0.0 0.9710984 
2.2206724 2.3322487 0.0 0.0 0.0 0.0 0.0 0.0 0.0 0.8029733 0.0 0.0 0.0 0.0 0.0 1.6350275 
2.9236922 0.88154495 0.0 0.0 0.0 0.0 0.0 0.0 0.0 1.3903614 0.0 0.0 0.0 0.0 0.0 0.16811682 
3.3075218 0.0 0.0 0.0 0.0 0.0 0.0 0.0 0.0 1.1407249 0.0 0.0 0.0 0.046741225 0.0 0.0 
2.9190552 0.0 0.8501833 0.0 0.0 0.0 0.0 0.0 0.0 0.6105 0.0 0.0 0.0 0.0 0.0 0.0 
2.185947 0.0 0.0 0.0 0.0 0.0 0.0 0.0 0.0 0.38108703 0.0 0.043452263 0.51962984 0.0 0.0 0.0 
1.4994295 0.0 0.0 0.0 0.0 0.0 0.0 0.0 0.0 0.0 0.0 1.9249426 1.163418 0.0 0.0 0.0 
1.2076921 0.0 0.0 0.0 0.0 0.0 0.0 0.0 0.0 0.0 0.0 0.95391107 0.7369083 0.0 0.0 0.0 
0.7015929 0.0 0.0 0.0 0.0 0.52037036 0.0 0.0 0.0 0.0 0.0 0.0 0.0 0.33868542 0.0 0.0 
1.3789928 0.0 0.0 0.0 0.0 0.6320703 0.0 0.0 0.0 0.23967242 0.0 0.0 0.0 0.81596005 0.0 0.5157269 
1.4466395 0.0 0.21723467 0.0 0.0 0.0 0.0 0.0 0.0 1.1212317 0.0 0.0 0.0 0.6060541 0.20777173 1.7285134 
1.2296153 0.0 0.0 0.0 0.0 0.0 0.0 0.0 0.0 1.0680743 0.0 0.0 0.0 0.7379459 0.0 0.2627359 
1.7462742 0.0 0.0 0.0 0.0 0.0 0.0 0.0 0.0 0.15876035 0.0 0.0 0.45639795 0.6259331 0.0 0.0 
1.2959887 0.0 0.0 0.0 0.0 0.0 0.0 0.0 0.0 0.0 0.0 0.0 1.3705128 1.2909962 0.41830713 0.0 
0.83930624 0.0 1.9613351 0.0 0.0 0.0 0.0 0.0 0.0 0.0 0.0 0.0 2.2117867 0.6408647 0.783381 0.0 
1.261758 0.0 0.0 0.0 0.0 0.0 0.831291 0.0 0.0 0.0 0.0 0.0 2.0813682 0.51918817 0.0 0.0 
0.6175654 0.0 0.0 0.0 0.0 0.0 0.0 0.0 0.38556153 0.0 0.0 1.0494882 1.202965 0.39809325 0.0 0.0 
0.36841866 0.0 0.0 0.0 0.0 0.0 0.0 0.0 1.3987218 0.0 0.0 1.445598 0.7037195 0.043039396 0.0 0.0 
0.0 0.0 0.0 0.0 0.0 0.0 0.0 0.0 0.0 0.19304557 0.7754698 0.0 0.020715885 0.1582382 0.053302303 0.118755125 
0.0 0.0 0.0 0.0 0.0 0.8327812 0.0 0.0 0.0 0.28009126 1.3023865 0.0 0.35608774 1.0405544 0.63053083 0.31055215 
0.0 0.0 0.0 0.0 0.0 0.0032167584 0.0 0.0 0.0 0.0 1.7075294 0.0 1.0365833 1.8611653 0.45405048 0.0 
0.0 0.0 0.0 0.0 0.0 0.0 0.0 0.0 0.0 0.0 1.5498383 0.0 1.584204 1.4900454 0.0 0.0 
0.0 0.0 0.0 0.0 0.0 0.0 0.0 0.0 0.0 0.0 0.0 0.0 1.6077584 0.065443344 0.7832322 0.0 
0.0 0.0 0.0 0.0 0.0 0.0 0.0 0.0 0.0 0.0 0.0 0.0 1.8298584 0.0 1.7998424 0.0 
0.0 0.0 0.32688147 0.0 0.0 0.0 0.0 0.0 0.0 0.0 0.0 0.0 1.8245895 0.0 1.9977126 0.0 
0.0 0.0 0.0 0.4838552 0.0 0.0 1.9712238 0.0 0.0 0.0 0.0 0.0 1.0617594 0.0 0.33865827 0.0 
0.0 0.0 0.0 0.0 0.0 0.0 0.0 0.0 1.9576886 0.0 0.0 0.0 0.3336689 0.0 0.0 0.0 
0.0 0.0 0.0 0.0 0.0 0.0 0.0 0.0 0.98228014 0.0 0.14286785 0.940261 0.45572066 0.0 0.0 0.0 
0.0 0.12416901 0.0 0.0 0.0 0.0 0.0 0.0 0.0 0.0 0.6846717 0.0 0.32363796 0.0 0.0 0.0 
0.0 0.27578124 0.0 0.0 0.0 0.39767534 0.0 0.0 0.0 0.0 1.300315 0.0 0.5754797 0.0 0.23508288 0.0 
0.0 0.5515391 0.0 0.0 0.0 0.49315488 0.0 0.0 0.0 0.0 1.7844722 0.0 0.21020769 0.0 0.0 0.0 
0.0 1.3714819 0.0 1.5510255 0.0 0.0 0.0 0.0 0.0 0.0 1.711437 0.0 0.0 0.0 0.121223465 0.0 
0.0 1.5697688 0.0 1.0244569 0.0 0.0 0.0 0.0 1.2731192 0.0 1.4735979 0.0 0.0 0.0 0.47163957 0.0 
0.0 0.11638947 0.0 0.5257356 0.0 0.0 0.0 0.0 0.0 0.39805284 0.32481286 0.0 0.0 0.0 0.25996292 0.8943294 
0.0 0.0 0.0 1.1757361 0.0 0.0 1.5457519 0.0 0.0 0.0 0.0 0.0 0.35594457 0.0 0.5532364 0.0 
0.0 0.0 0.0 0.5352435 0.0 0.0 0.637478 0.0 0.0 0.0 0.0 0.0 0.0 0.0 0.0 0.0 
0.0 0.0 0.0 0.0 0.0 0.0 0.0 0.0 2.7649174 0.0 0.0 0.0 0.0 0.0 0.0 0.0 
0.0 0.0 0.0 0.0 0.0 0.01067061 0.0 0.0 0.12220824 0.0 0.27784154 0.0 0.006429054 0.0 0.0 0.5832751 
0.0 0.3577359 0.0 0.0 0.0 0.0 0.0 0.13066623 0.0 0.0 0.3446085 0.39764908 0.0 0.0 0.0 0.0 
0.0 1.1256698 0.0 0.41796583 0.0 0.0 0.0 0.0 0.0 0.0 0.55310243 0.24049169 0.0 0.0 0.0 0.0 
0.0 1.7450689 0.0 2.295721 0.0 0.10096422 0.0 0.0 0.0 1.2305137 0.17145415 0.0 0.0 0.0 0.0 0.0 
0.0 2.0472646 0.0 1.8734283 0.0 0.0 0.0 0.0 0.7253074 3.226577 0.0 0.0 0.0 0.0 0.0 0.0 
0.0 0.23737226 0.0 0.0 0.10391877 0.0 0.0 0.0 0.0 3.1677911 0.0 0.0 0.0 0.0 0.0 3.3691308 
0.0 0.0 0.0 0.26553902 0.0 0.0 0.4423286 0.0 0.0 0.70536774 0.0 0.0 0.0 0.0 0.0 0.1427658 
0.0 0.0 0.0 0.8262792 0.0 0.0 2.4654226 0.09421711 0.0 0.0 0.0 0.0 0.0 0.0 0.0 0.0 
0.0 0.0 0.0 0.0 0.0 0.0 0.0 0.0 2.5501168 0.0 0.0 0.0 0.0 0.0 0.0 0.0 
0.0 0.0 0.0 0.0 0.0 0.0 0.0 0.0 2.6141372 0.0 0.4314836 0.0 0.0 0.0 0.0 0.6519069 
0.0 0.0 0.0 0.0084000975 0.0 0.08050898 0.0 0.0 0.0 0.0 0.40498087 0.0 0.0 0.0 0.0 1.0731138 
0.22529043 0.17808333 0.0 0.1380384 0.0 0.0 0.2707943 0.0 0.0 0.046395008 0.14825182 0.0 0.0 0.0 0.0 0.0 
0.5245843 0.48671275 0.0 0.5875491 0.0 0.0 0.59201014 0.0 0.0 0.514151 0.0 0.0 0.0 0.0 0.0 0.0 
0.06178162 0.73446536 0.0 0.0 0.5876565 0.0 0.0 0.0 0.0 1.9848336 0.0 0.0 0.0 0.0 0.0 0.0 
0.0 0.27103442 0.70878243 0.0 1.055278 0.0 0.0 0.0 0.4459827 2.6203623 0.0 0.0 0.0 0.0 0.0 2.3768392 
0.0 0.0 0.0 0.0 0.0 0.0 0.0 0.0 0.0 0.786797 0.0 0.0 0.0 0.0 0.0 1.2197715 
0.0 0.0 0.0 0.0 0.0 0.0 3.2019174 0.70354617 0.0 0.0 0.0 0.0 0.0 0.0 0.0 0.0 
0.0 0.0 0.0 0.278532 0.0 0.0 1.4565859 1.0367903 1.2726958 0.0 0.0 0.0 0.0 0.0 0.0 0.0 
0.0 0.0 0.0 0.22276972 0.0 0.0 0.0 0.0 3.8773692 0.0 0.1587713 0.0 0.0 0.0 0.0 0.0 
0.0 0.0 0.0 0.0 0.0 0.4245662 0.0 0.0 0.21584317 0.0 0.24721119 0.0 0.0 0.0 0.0 1.306715 
0.0 0.0 0.0 0.19768706 0.08770024 0.0 0.0 0.0 0.0 0.0 0.059471317 0.0 0.0 0.0 0.0 0.90755266 
0.044000383 0.023200164 0.0 0.0 0.0 0.01570426 0.3003313 0.0 0.0 0.0 0.0 0.0 0.0 0.0 0.0 0.0 
0.3230872 0.14116491 0.0 0.0 0.58565164 0.0 0.0 0.0 0.0 0.035905417 0.0 0.0 0.0 0.0 0.0 0.0 
0.0 0.35762218 0.481238 0.0 0.9689225 0.0 0.0 0.0 0.29677907 0.6837048 0.0 0.0 0.0 0.0 0.0 1.379836 
0.0 0.008227646 0.89982504 0.0 0.0 0.0 0.0 0.0 0.0 0.56492704 0.0 0.0 0.0 0.0 0.0 1.7517066 
0.0 0.0 0.0 0.0 0.0 0.0 2.4869003 1.1002301 0.0 0.037040006 0.0 0.0 0.19298242 0.0 0.0 0.0 
0.0 0.0 0.0 0.19279872 0.0 0.0 3.295563 2.3485126 0.0 0.0 0.0 0.0 0.0 0.0 0.0 0.0 
0.0 0.0 0.0 0.0 0.0 0.0 0.0 0.0 3.8815556 0.0 0.0 0.0 0.0 0.0 0.0 0.0 
0.0 0.0 0.0 0.0 0.0 0.22155294 0.0 0.0 1.7820231 0.0 0.15270887 0.0 0.0 0.0 0.0 0.858248 
0.0 0.0 0.0 0.0 0.0 0.11899069 0.0 0.0 0.0 0.0 0.17130843 0.0 0.0 0.0 0.0 0.98582035 
0.0 0.09646892 0.0 0.21397895 0.08648949 0.0 0.0 0.0 0.0 0.0 0.0 0.0 0.0 0.0 0.0 0.34823042 
0.15189579 0.0 0.0 0.0 0.07245884 0.22296858 0.12962036 0.0 0.0 0.0 0.0 0.0 0.0 0.0 0.0 0.0 
0.19130541 0.14350073 0.0 0.0 0.7477472 0.0 0.0 0.0 0.0 0.0 0.0 0.0 0.0 0.0 0.0 0.0 
0.0 0.13561024 0.47987545 0.0 0.35699105 0.0 0.0 0.0 0.0 0.5789012 0.0 0.0 0.0 0.0 0.077903464 1.9364042 
0.0 0.0 0.6703715 0.0 0.0 0.0 0.0 0.3866756 0.0 0.17229077 0.0 0.0 0.0 0.0 0.0 0.0 
0.0 0.0 0.0 0.0 0.0 0.0 3.4966505 2.4684052 0.0 0.0 0.0 0.0 0.0 0.0 0.0 0.0 
0.0 0.0 0.0 0.0 0.0 0.0 0.78635883 1.1520928 2.2887335 0.0 0.0 0.0 0.0 0.0 0.0 0.0 
0.0 0.0 0.0 0.0 0.0 0.0 0.0 0.0 3.3821898 0.0 0.05272104 0.0 0.0 0.0 0.0 0.0 
0.0 0.0 0.0 0.0 0.0 0.4258691 0.0 0.0 0.0 0.0 0.16177735 0.0 0.0 0.0 0.0 0.8132251 
0.0 0.040382583 0.0 0.23105606 0.09549009 0.0 0.0 0.0 0.0 0.0 0.021267498 0.0 0.0 0.0 0.0 0.65948915 
0.0 0.03021216 0.0 0.105286 0.0 0.0 0.0 0.0 0.0 0.0 0.0 0.0 0.0 0.0 0.0 0.0 
0.20757551 0.0 0.0 0.0 0.10613795 0.073925376 0.0 0.0 0.0 0.003983047 0.029915245 0.0 0.0 0.0 0.0 0.0 
0.0 0.0 0.0 0.0 0.74090135 0.5967603 0.0 0.0 0.0 0.22615618 0.0 0.0 0.0 0.0 0.17339014 0.6345838 
0.0 0.0 0.19433753 0.0 0.0 0.0 0.0 0.111738876 0.0 0.18132529 0.0 0.0 0.0 0.0 0.0 0.46351704 
0.0 0.0 0.034615677 0.0 0.0 0.0 1.7917633 1.7740722 0.0 0.0 0.0 0.0 0.0 0.0 0.0 0.0 
0.0 0.0 0.0 0.0 0.0 0.0 2.6419785 1.7082443 0.0 0.0 0.0 0.0 0.0 0.0 0.0 0.0 
0.0 0.0 0.0 0.0 0.0 0.0 0.0 0.0 3.7521691 0.0 0.0 0.0 0.0 0.0 0.0 0.0 
0.0 0.0 0.0 0.0 0.0 0.39194375 0.0 0.0 1.2696348 0.0 0.12895527 0.0 0.0 0.0 0.0 0.7263206 
0.0 0.0 0.0 0.028035484 0.0 0.0 0.0 0.0 0.0 0.0 0.083308995 0.0 0.031366028 0.0 0.0 0.73955995 
0.0 0.037947018 0.0 0.22960514 0.0 0.0 0.0 0.0 0.0 0.0 0.0 0.0 0.0 0.0 0.0 0.15804404 
0.0 0.0 0.0 0.008125868 0.0 0.0 0.0 0.0 0.0 0.0 0.0 0.0 0.0 0.0 0.0 0.0 

