0.0 0.0 0.0 0.0 0.00624796 0.0 0.14384007 0.0 0.0 0.0 0.0 0.0 0.0 0.0 0.0 0.0 
0.031907815 0.36538136 0.09684707 0.0 0.22598499 0.0 0.0 0.0 0.0 0.0 0.0 0.0 0.0 0.0 0.0 0.0 
0.44215044 1.0723556 0.5207251 0.0 0.0 0.0 0.0 0.0 0.0 0.0 0.0 0.0 0.0 0.0 0.0 0.64793724 
1.2821754 2.1509194 0.0 0.0 0.0 0.0 0.0 0.0 0.0 0.0 0.0 0.0 0.0 0.0 0.0 1.1171834 
2.3766885 2.991869 0.0 0.0 0.0 0.0 0.0 0.0 0.0 0.0 0.0 0.0 0.0 0.0 0.0 0.8302692 
2.6806877 2.1588957 0.0 0.0 0.0 0.0 0.0 0.0 0.0 0.0 0.0 0.0 0.0 0.0 0.0 0.0 
2.206637 1.0643442 0.0 0.0 0.0 0.0 0.0 0.075488314 0.0 0.5814948 0.0 0.0 0.0 0.0 0.0 0.0 
1.5790141 0.21925305 0.0 0.0 0.0 0.0 0.0 0.0 0.0 1.0794121 0.0 0.8632246 0.0 0.0 0.0 0.0 
0.89574444 0.0 0.0 0.0 0.900834 0.5518805 0.0 0.0 0.0 0.7575665 0.0 1.2589885 0.0 0.0 0.0 0.0 
0.28676918 0.0 0.0 0.61605877 1.0168538 0.9937944 0.0 0.0 0.0 0.069279745 0.0 0.0 0.0 0.47604206 0.0 0.0 
0.12729982 0.20103438 0.0 0.0 0.24651521 0.07226978 0.0 0.0 0.0 0.0 0.0 0.0 0.0 0.0037384108 0.0 0.0 
0.8571692 0.8552053 0.5502598 0.0 0.049891464 0.0 0.0 0.0 0.0 0.0 0.0 0.0 0.0 0.0 0.0 0.6541403 
1.4308026 1.118528 1.0177649 0.0 0.0 0.0 0.0 0.0 0.0 0.7446227 0.0 0.0 0.0 0.0 0.22420935 2.5326147 
2.0157404 0.045156382 0.0 0.0 0.0 0.0 0.0 0.0 0.0 1.0285327 0.0 0.0 0.0 0.028773569 0.0 1.5837626 
2.8855336 0.0 0.0 0.0 0.0 0.0 0.40299314 0.0 0.0 0.10104264 0.0 0.0 0.0 2.289584 0.0 0.0 
3.0255408 0.0 0.0 0.0 0.0 0.0 0.0 0.0 0.0 0.0 0.0 0.0 0.0 3.2166085 0.0 0.0 
2.5572531 0.0 1.1497235 0.0 0.0 0.0 0.0 0.0 0.0 0.0 0.0 0.0 0.0 1.3880984 0.0 0.0 
2.0899315 0.0 0.7287237 0.0 0.0 0.0 0.0 0.0 0.0 0.0 0.0 0.2807122 1.2304096 0.0 0.0 0.0 
1.7741064 0.0 0.0 0.0 0.0 0.0 0.0 0.0 0.0 0.0 0.0 2.877816 1.6445698 0.0 0.0 0.0 
1.3850175 0.0 0.0 0.0 0.0 0.0 0.0 0.0 0.0 0.0 0.0 1.150552 0.77601177 0.0 0.0 0.0 
0.55439603 0.0 0.0 0.0 0.26075527 0.5485127 0.0 0.0 0.0 0.0 0.0 0.0 0.0 0.19573495 0.0 0.0 
0.4909884 0.32245097 0.9032272 0.0 0.0 0.0 0.0 0.0 0.0 0.4801817 0.0 0.0 0.0 0.0 0.42516232 1.3604658 
0.0 0.0 1.0686392 0.0 0.0 0.0 0.0 0.0 0.0 0.27976817 0.0 0.0 0.5148147 0.0 0.0 1.7667668 
0.0 0.0 0.0 0.0 0.0 0.0 0.96046513 0.0 0.0 0.0 0.0 0.0 1.8126488 0.0 0.0 0.0 
0.0 0.0 0.0 0.0 0.0 0.0 0.0 0.0 0.0 0.0 0.0 0.0 1.7701886 0.46857026 0.0 0.0 
0.0 0.0 0.0 0.0 0.0 0.0 0.0 0.0 0.0 0.0 0.0 0.0 0.6254435 2.4646964 0.83413744 0.0 
0.46911415 0.0 0.7211016 0.0 0.0 0.0 0.0 0.0 0.0 0.0 0.0 0.0 0.2819196 2.6506796 1.2418275 0.0 
0.8560513 0.0 0.0 0.0 0.0 0.0 0.0 0.0 0.0 0.0 0.0 0.0 0.90138644 0.78097856 0.0 0.0 
0.5022865 0.0 0.0 0.0 0.0 0.0 0.0 0.0 0.0 0.0 0.0 2.1060119 1.1749674 0.0 0.0 0.0 
0.5929692 0.0 0.0 0.0 0.0 0.0 0.0 0.0 0.12721682 0.0 0.0 2.6000447 1.2866802 0.0 0.0 0.0 
0.0 0.0 0.0 0.0 0.47238743 1.0443716 0.0 0.0 0.0 0.0 0.19894817 0.0 0.0 0.22662345 0.0 0.0 
0.0 0.0 0.21568331 0.0 0.0 1.1015673 0.0 0.0 0.0 0.0 0.0 0.0 0.0 0.43805432 0.0 0.2277883 
0.0 0.0 0.0 0.0 0.0 0.0 0.0 1.1123261 0.0 0.0 0.0 0.0 0.782156 0.0 0.0 0.0 
0.0 0.0 0.0 0.0 0.0 0.0 0.053086728 1.2583102 0.0 0.0 0.0 0.0 0.26524138 0.0 0.0 0.0 
0.0 0.14161327 0.0 0.0 0.0 0.0 0.0 0.0 0.0 0.0 0.0 0.026459657 0.0 0.0 0.0 0.0 
0.0 0.23425584 0.0 0.0 0.0 0.0 0.0 0.0 0.0 0.0 0.0 0.0 0.0 0.0 2.4016924 0.0 
0.0 0.0 0.0 0.0 0.0 0.0 0.0 0.0 0.0 0.0 0.0 0.0 0.0 0.0 4.3930573 0.0 
0.0 0.0 0.0 0.0 0.0 0.0 0.0 0.0 0.0 0.0 0.0 0.0 0.4834453 0.0 2.4373798 0.0 
0.0 0.0 0.0 0.0 0.0 0.0 0.0 0.0 0.0 0.0 0.0 0.05539523 0.6078503 0.0 0.0 0.0 
0.0 0.0 0.0 0.0 0.0 0.0 0.0 0.0 0.9186267 0.0 0.0 1.8222677 0.66297835 0.0 0.0 0.0 
0.0 0.0 0.0 0.0 0.29194504 0.72294754 0.0 0.0 0.0 0.0 1.0302438 0.0 0.0 0.0 0.055580452 0.0 
0.0 0.0 0.0 0.0 0.0 2.947341 0.0 0.15607493 0.0 0.0 0.94991535 0.0 0.0 1.0078013 0.0 0.0 
0.23405598 0.0 0.0 0.0 0.0 0.0 1.2555927 2.166987 0.0 0.0 1.7686535 0.0 0.0 2.2284033 0.0 0.0 
0.7625081 0.0 0.0 0.0 0.0 0.0 1.364433 0.0 0.0 0.6107821 1.4993849 0.0 0.0 1.092865 0.0 0.0 
0.12843734 0.0 0.0 0.0 0.0 0.0 0.0 0.0 0.0 1.9698778 0.0 0.0 0.0 0.0 0.0 0.0 
0.0 0.0 0.0 0.0 0.0 0.0 0.0 0.0 0.0 2.2377212 0.0 0.0 0.0 0.0 0.0 0.0 
0.0 0.0 1.2822137 0.0 0.0 0.0 0.0 0.0 0.0 1.3057967 0.0 0.0 1.3620282 0.0 1.4101763 0.0 
0.0 0.0 0.0 0.0 0.0 0.0 1.2947124 0.0 0.0 0.0 0.0 0.0 1.3838712 0.0 1.2877034 0.0 
0.0 0.0 0.0 0.0 0.0 0.0 0.0 0.0 2.2791348 0.0 0.0 0.0 0.7598942 0.0 0.0 0.0 
0.0 0.0 0.0 0.0 0.0 0.0 0.0 0.0 2.0147095 0.0 0.0 0.0 0.0 0.0 0.0 0.0 
0.0 0.22439474 0.0 0.0 0.0 0.0 0.0 0.0 0.0 0.0 1.2319055 0.3434646 0.0 0.0 0.0 0.0 
0.0 0.16782944 0.0 0.0 0.0 1.6747973 0.0 0.26453805 0.0 0.0 1.5857725 0.0 0.0 0.0 0.0 0.0 
0.0 0.0 0.0 0.0 0.0 0.48996902 1.7898695 0.0 0.0 0.0 1.9815228 0.0 0.0 2.0824194 0.48444408 0.0 
0.0 0.0 0.0 0.0 0.0 0.0 0.0 0.0 0.0 0.0 2.5199463 0.0 0.0 2.1464956 0.0 0.0 
0.0 0.0 0.0 0.0 0.0 0.0 0.0 0.0 0.0 0.0 2.0418239 0.0 0.0 0.40049198 0.0 0.0 
0.0 0.0 0.0 0.0 0.0 0.0 0.0 0.0 0.0 0.0 0.85851604 0.0 0.78041244 0.0 0.0 0.0 
0.0 0.0 0.0 0.0 0.0 0.0 1.9733666 0.0 0.0 0.0 0.0 0.0 1.5953643 0.0 0.0 0.0 
0.0 0.0 0.0 0.0 0.0 0.0 2.7009811 0.88142264 0.68638396 0.0 0.0 0.0 0.7747801 0.0 0.0 0.0 
0.0 0.0 0.0 0.0 0.0 0.0 0.0 0.0 4.2754493 0.0 0.0020061694 0.0 0.0 0.0 0.0 0.0 
0.0 0.0 0.0 0.0 0.0 0.010036834 0.0 0.0 1.0536407 0.0 0.15690114 0.0 0.06151671 0.0 0.0 0.6137772 
0.0 0.48670885 0.0 0.0 0.0 0.0 0.0 0.13181864 0.0 0.0 0.721628 0.4205506 0.0 0.0 0.0 0.0 
0.0 1.1912018 0.0 0.031673964 0.0 0.4093085 0.0 0.0 0.0 0.0 0.18376683 0.0 0.0 0.0 0.0 0.0 
0.0 1.6699307 0.0 0.8102741 0.0 0.13741994 0.0 0.0 0.0 0.0 0.0 0.0 0.0 0.0 0.51370734 0.0 
0.0 1.7397344 0.0 0.33658177 0.0 0.0 0.0 0.0 0.0 0.0 0.0023973081 0.0 0.0 0.0 2.6507492 0.0 
0.0 1.8381257 0.0 0.0 0.0 0.0 0.0 0.0 0.0 0.0 1.2302316 0.0 0.0 0.0 2.0937881 1.6974086 
0.0 0.81849915 0.0 2.0617552 0.0 0.0 0.0 0.0 0.0 0.0 0.71286005 0.0 0.0 0.0 0.2645874 0.0 
0.0 0.0 0.0 3.1866057 0.0 0.0 2.2873862 1.078709 0.0 0.0 0.0 0.0 0.0 0.0 0.0 0.0 
0.0 0.0 0.0 1.385568 0.0 0.0 0.0 0.0 2.3353112 0.0 0.0 0.0 0.0 0.0 0.0 0.0 
0.0 0.0 0.0 0.0 0.0 0.0 0.0 0.0 2.7602422 0.0 0.30421558 0.0 0.0 0.0 0.0 0.5483753 
0.0 0.0 0.0 0.0 0.0 0.19108585 0.0 0.0 0.0 0.0 0.47492725 0.0 0.0 0.0 0.0 1.170139 
0.1651402 0.21312341 0.0 0.043062218 0.0 0.0 0.21661067 0.0 0.0 0.0 0.20421988 0.172943 0.0 0.0 0.0 0.0 
0.3357979 0.7262434 0.0 0.4564841 0.0 0.0 0.2962573 0.0 0.0 0.36088616 0.0 0.16932333 0.0 0.0 0.0 0.0 
0.05864946 1.3233885 0.0 0.33428803 0.0 0.0 0.0 0.0 0.0 1.9463564 0.0 0.0 0.0 0.0 0.0 0.0 
0.0 0.88168555 0.0 0.0 0.02702704 0.0 0.0 0.0 0.0 3.6036012 0.0 0.0 0.0 0.0 0.083349034 0.53408474 
0.0 0.0 0.0 0.0 0.0 0.0 0.0 0.0 0.0 3.1964116 0.0 0.0 0.0 0.0 0.0 0.8110323 
0.0 0.0 0.0 0.9413824 0.0 0.0 1.1955535 0.0 0.0 1.6221164 0.0 0.0 0.0 0.0 0.0 0.0 
0.0 0.0 0.0 1.5282065 0.0 0.0 0.66200846 0.40504777 0.0 0.15531448 0.0 0.0 0.0 0.0 0.0 0.0 
0.0 0.0 0.0 0.61153036 0.0 0.0 0.0 0.0 3.4908845 0.0 0.0 0.0 0.0 0.0 0.0 0.0 
0.0 0.0 0.0 0.0 0.0 0.42537206 0.0 0.0 0.79024655 0.0 0.3622976 0.0 0.0 0.0 0.0 1.5942159 
0.0 0.0 0.0 0.13266122 0.062178947 0.027988508 0.0 0.0 0.0 0.0 0.18574035 0.0 0.0 0.0 0.0 1.1060201 
0.18232127 0.11810998 0.0 0.0 0.0 0.0 0.2861008 0.0 0.0 0.0 0.0 0.0 0.0 0.0 0.0 0.0 
0.7411178 0.3905279 0.0 0.0 0.28932944 0.0 0.0 0.0 0.0 0.17100364 0.0 0.0 0.0 0.0 0.0 0.0 
0.35449022 0.82327956 0.0 0.0 0.7592812 0.0 0.0 0.0 0.0 1.2539951 0.0 0.0 0.0 0.0 0.0 1.0283934 
0.0 0.2320272 0.41023943 0.0 0.0 0.0 0.0 0.0 0.0 1.4142674 0.0 0.0 0.0 0.0 0.0 1.7921621 
0.0 0.0 0.0 0.0 0.0 0.0 2.0412648 0.6978104 0.0 0.53015524 0.0 0.0 0.0 0.0 0.0 0.0 
0.0 0.0 0.0 0.502729 0.0 0.0 2.8509257 1.8436918 0.0 0.0 0.0 0.0 0.0 0.0 0.0 0.0 
0.0 0.0 0.0 0.38033685 0.0 0.0 0.0 0.0 3.7042074 0.0 0.0 0.0 0.0 0.0 0.0 0.0 
0.0 0.0 0.0 0.0 0.0 0.003996946 0.0 0.0 2.211344 0.0 0.20629194 0.0 0.0 0.0 0.0 0.98502785 
0.0 0.0 0.0 0.0 0.0 0.3251558 0.0 0.0 0.0 0.0 0.37577185 0.0 0.0 0.0 0.0 1.3405373 
0.0 0.09821179 0.0 0.16944155 0.15424079 0.0 0.0 0.0 0.0 0.0 0.0 0.0 0.0 0.0 0.0 0.5499799 
0.20174657 0.0 0.0 0.0 0.0 0.19889581 0.0 0.0 0.0 0.0 0.045412675 0.0 0.0 0.051440977 0.0 0.0 
0.2728184 0.0 0.0 0.0 0.3856327 0.33995813 0.0 0.0 0.0 0.11491509 0.0 0.0 0.0 0.0 0.0 0.07263836 
0.0 0.0 0.0 0.0 0.06859491 0.0 0.0 0.0 0.0 0.54789156 0.0 0.0 0.0 0.0 0.0 1.3024069 
0.0 0.0 0.05774698 0.0 0.0 0.0 0.0 0.9523125 0.0 0.0 0.0 0.0 0.0 0.0 0.0 0.0 
0.0 0.0 0.0 0.0 0.0 0.0 2.768662 2.5204287 0.0 0.0 0.0 0.0 0.0 0.0 0.0 0.0 
0.0 0.0 0.0 0.0 0.0 0.0 0.5850894 1.0074297 2.431584 0.0 0.0 0.0 0.0 0.0 0.0 0.0 
0.0 0.0 0.0 0.0 0.0 0.0 0.0 0.0 3.3930118 0.0 0.0 0.0 0.0 0.0 0.0 0.0 
0.0 0.0 0.0 0.0 0.0 0.48174566 0.0 0.0 0.0 0.0 0.28029194 0.0 0.0 0.0 0.0 1.1428941 
0.0 0.0 0.0 0.058653213 0.13805166 0.006634347 0.0 0.0 0.0 0.0 0.0 0.0 0.0 0.0 0.0 0.7934535 
0.0 0.042596094 0.0 0.1206162 0.0 0.0 0.0 0.0 0.0 0.0 0.0 0.0 0.0 0.0 0.0 0.045902427 

