0.0 0.0 0.0 0.0 0.0 0.0 0.0 0.0 0.0 0.0 0.0 0.0 0.0 0.0 0.0 0.0 
0.0 0.0 0.0 0.031372678 0.0 0.0 0.0 0.0 0.0 0.0 0.0 0.0 0.0 0.0 0.0 0.0 
0.0 0.04482881 0.0 0.13163912 0.0 0.0 0.0 0.0 0.0 0.0 0.0 0.0 0.0 0.0 0.0 0.0 
0.0 0.10063948 0.0 0.2171573 0.0 0.0 0.0 0.0 0.0 0.0 0.0 0.0 0.0 0.0 0.0 0.0 
0.0 0.26648352 0.0 0.32761368 0.027575307 0.0 0.0 0.0 0.08462311 0.0 0.0 0.0015159026 0.0 0.0 0.0 0.0 
0.0 0.71983445 0.06553246 0.39775336 0.0848544 0.0 0.0 0.0 0.10934341 0.0 0.0 0.018195435 0.0 0.0 0.0 0.03774343 
0.12380171 1.4271802 0.0 0.41949698 0.0 0.0 0.0 0.0 0.0 0.0 0.0 0.13084511 0.0 0.0 0.0 0.2619495 
0.4500369 2.4754474 0.0 0.09204522 0.0 0.0 0.0 0.0 0.0 0.0 0.0 0.1679089 0.0 0.0 0.0 0.5023594 
0.9477703 3.250017 0.0 0.0 0.17572999 0.0 0.0 0.0 0.0 0.0 0.0 0.0 0.0 0.0 0.0 0.7424826 
1.2025725 2.9935904 0.0 0.0 0.72758675 0.0 0.0 0.0 0.0 0.36111498 0.0 0.0 0.0 0.0 0.0 0.40879598 
0.0 0.0 0.0 0.019524481 0.0 0.0 0.0 0.0 0.0 0.0 0.0 0.0 0.0 0.0 0.0 0.0 
0.0 0.0 0.0 0.0028072856 0.0 0.0 0.08112369 0.0 0.0 0.0 0.0 0.0 0.0 0.0 0.0 0.0 
0.0 0.23591109 0.0 0.09447217 0.08236501 0.0 0.0 0.0 0.0022435784 0.0 0.0 0.0 0.0 0.0 0.0 0.0 
0.063051075 0.9001533 0.2031602 0.054729994 0.0 0.0 0.0 0.0 0.065645784 0.0 0.0 0.0 0.0 0.0 0.0 0.259678 
0.3879247 1.790683 0.0 0.0 0.0 0.0 0.0 0.0 0.0 0.0 0.0 0.1375591 0.0 0.0 0.0 0.3884011 
1.278051 2.726796 0.0 0.0 0.103304006 0.0 0.0 0.0 0.0 0.0 0.0 0.0 0.0 0.0 0.0 0.8962567 
2.3590558 2.534391 0.0 0.0 0.21819085 0.0 0.0 0.0 0.0 0.4638901 0.0 0.0 0.0 0.0 0.0 1.1031352 
3.0148318 1.1033425 0.0 0.0 0.0 0.0 0.0 0.37500215 0.0 1.1452734 0.0 0.0 0.0 0.0 0.0 0.47729805 
3.1890235 0.0 0.0 0.0 0.0 0.0 0.0 0.5381306 0.0 1.538115 0.0 0.0 0.0 0.29821378 0.0 0.0 
3.0339682 0.0 0.0 0.0 0.0 0.0 0.0 0.33887964 0.0 1.3710904 0.0 0.0 0.0 0.048594102 0.0 0.0 
0.0 0.0 0.0 0.0 0.0 0.0 0.11847788 0.0 0.0 0.0 0.0 0.0 0.0 0.0 0.0 0.0 
0.020280246 0.17070632 0.0 0.0 0.21591073 0.0 0.0 0.0 0.0 0.0 0.0 0.0 0.0 0.0 0.0 0.0 
0.4604564 0.8592038 0.43569884 0.0 0.0 0.0 0.0 0.0 0.0 0.0 0.0 0.0 0.0 0.0 0.0 0.4203354 
1.4337723 1.7243447 0.37118626 0.0 0.0 0.0 0.0 0.0 0.0 0.261119 0.0 0.0 0.0 0.0 0.0 1.4873158 
2.2879338 2.0243611 0.0 0.0 0.0 0.0 0.0 0.0 0.0 0.937301 0.0 0.0 0.0 0.0 0.0 1.6116633 
2.8371522 0.020095984 0.0 0.0 0.0 0.0 0.0 0.0 0.0 1.4398155 0.0 0.0 0.0 0.0 0.0 1.0942214 
2.456942 0.0 0.0 0.0 0.0 0.0 0.0 0.28676414 0.0 1.3994828 0.0 0.0 0.0 1.0041904 0.0 0.0 
1.7463921 0.0 0.0 0.0 0.0 0.0 0.0 0.30168962 0.0 0.72097677 0.0 0.0 0.9498927 2.133398 0.0 0.0 
0.94618994 0.0 0.0 0.0 0.0 0.0 0.0 0.013135485 0.0 0.0 0.0 0.0 2.0552726 2.8373454 0.0 0.0 
0.59896237 0.0 0.0 0.0 0.0 0.0 0.0 0.0 0.0 0.0 0.0 0.0 2.3435006 3.2252986 0.0 0.0 
0.089587286 0.0 0.0 0.0 0.0 0.22436863 0.20627816 0.0 0.0 0.0 0.0 0.0 0.0 0.041372642 0.0 0.0 
0.62275463 0.14683872 0.0 0.0 0.34389853 0.29040805 0.0 0.0 0.0 0.0 0.0 0.0 0.0 0.24820188 0.0 0.0 
1.0386214 0.6291848 1.3252332 0.0 0.0 0.0 0.0 0.0 0.0 0.5093117 0.0 0.0 0.0 0.0 0.50726646 1.9379132 
1.4181664 0.03722869 0.7927602 0.0 0.0 0.0 0.0 0.0 0.0 0.97917044 0.0 0.0 0.0 0.0 0.1679038 2.8207324 
0.8995985 0.0 0.0 0.0 0.0 0.0 0.49443543 0.0 0.0 1.0008023 0.0 0.0 1.0714889 0.1939629 0.0 0.0 
0.0 0.0 0.0 0.0 0.0 0.0 0.0 0.5445835 0.0 0.0 0.0 0.0 2.0868664 1.5238456 0.0 0.0 
0.0 0.0 0.0 0.0 0.0 0.0 0.0 0.3276887 0.0 0.0 0.95447254 0.0 2.5294619 1.8174579 0.0 0.0 
0.0 0.0 0.0 0.0 0.0 0.0 0.0 0.0 0.0 0.0 1.6596591 0.0 2.8002872 1.1450824 0.24922045 0.0 
0.0 0.0 0.0 0.0 0.0 0.0 0.0 0.0 0.0 0.0 2.0760217 0.0 2.5029929 0.5309963 1.3174365 0.0 
0.0 0.10183624 0.0 1.6078324 0.0 0.0 0.0 0.0 0.0 0.0 2.3618863 0.0 1.6060945 0.61125094 1.8660982 0.0 
0.19799645 0.0 0.0 0.0 0.06670859 0.18661648 0.0 0.0 0.0 0.0 0.0 0.0 0.0 0.0 0.0 0.0 
0.078265026 0.0 0.0 0.0 0.54554415 1.1411593 0.0 0.0 0.0 0.02949277 0.0 0.0 0.0 0.26040912 0.0 0.05478849 
0.0 0.0 1.3834913 0.0 0.0 0.0 0.0 0.0 0.0 0.21797246 0.0 0.0 0.0 0.0 0.46598762 1.3210346 
0.0 0.0 0.5197288 0.0 0.0 0.0 0.05882609 0.23527353 0.0 0.0 0.0 0.0 1.5599319 0.0 0.0 0.0 
0.0 0.0 0.0 0.0 0.0 0.0 0.5512098 0.72802955 0.0 0.0 0.0 0.39662874 2.2850845 0.0 0.0 0.0 
0.0 0.0 0.0 0.0 0.0 0.0 0.0 0.42925483 0.0 0.0 0.0 0.38728395 2.2062538 0.0 0.0 0.0 
0.0 0.0 0.0 2.4581616 0.0 0.0 0.0 0.16609494 0.0 0.0 2.4104593 0.0 0.5655511 0.0 0.0 0.0 
0.0 1.2003969 0.0 4.541663 0.0 0.0 0.0 0.0 0.0 0.0 2.377783 0.0 0.0 0.0 0.0 0.0 
0.0 2.0829349 0.0 5.182095 0.0 0.0 0.0 0.0 0.0 0.19504538 1.3892848 0.0 0.0 0.0 0.0 0.0 
0.0 1.4623172 0.0 4.9690876 0.0 0.0 0.0 0.0 0.0 1.3629429 0.62417954 0.0 0.0 0.0 0.50183505 0.0 
0.0 0.40883848 0.0 0.0 0.0 0.0 0.0 0.0 0.26057094 0.0 0.0 0.0 0.0 0.0 0.0 0.0 
0.0 0.27734613 0.0 0.0 0.0033261068 0.45731962 0.0 0.0 0.0 0.0 0.0 0.0 0.0 0.0 0.0 0.44788402 
0.0 0.05839616 0.5589683 0.0 0.0 0.9199104 0.0 0.0 0.0 0.0 0.0 0.0 0.0 0.0 0.0 0.0 
0.0 0.0 0.0 0.0 0.0 0.0 0.62549573 1.5583954 0.0 0.0 0.0 0.0 0.0 0.0 0.0 0.0 
0.0 0.0 0.0 0.17110194 0.0 0.0 0.81849134 0.8483439 0.0 0.0 0.0 0.0 0.0 0.0 0.0 0.0 
0.0 0.0 0.0 1.8891798 0.0 0.0 0.0 0.0 1.6178689 0.2762981 0.0 2.0599813 0.0 0.0 0.0 0.0 
0.0 0.0 0.0 3.8684702 0.0 0.0 0.0 0.0 0.0 1.1142673 0.0 0.0 0.0 0.0 0.0 0.0 
0.0 0.0 0.0 4.138643 0.06851023 0.28639254 0.0 0.0 0.0 2.1402073 0.32159165 0.0 0.0 0.0 0.0 0.0 
0.0 0.0 0.0 2.8694625 0.44614518 0.06638348 0.0 0.0 0.0 2.329735 0.0 0.0 0.0 0.0 0.0 0.7656179 
0.0 0.0 0.0 1.717368 0.5740792 0.07966989 0.0 0.0 0.0 1.8878324 0.0 0.0 0.0 0.0 0.0 1.3300773 
0.47296372 0.53622776 0.0 0.0 0.0 0.0 0.0 0.0 0.0 0.0 0.0 0.0 0.0 0.0 0.0 0.0 
0.0 1.653319 0.0 0.0 0.0 0.0 0.0 0.0 0.0 0.0 0.0 0.0 0.0 0.0 0.0 0.0 
0.04221152 1.539784 0.0 0.0 0.0 0.0 0.0 0.041239023 0.0 0.19411027 0.0 0.0 0.0 0.0 0.0 0.0 
1.1603888 0.045044187 0.0 0.0 0.0 0.0 0.08516142 1.5925614 0.0 0.94897485 0.0 0.0 0.0 0.0 0.0 0.0 
1.3330054 0.0 0.0 0.0 0.0 0.0 0.0 0.0 0.0 1.1246874 0.0 0.0 0.0 0.0 0.0 0.0 
0.0 0.0 0.0 0.0 0.0 0.0 0.0 0.0 0.0 1.0563117 0.0 1.4479626 0.0 0.0 0.0 0.0 
0.0 0.0 0.0 0.0 0.0 0.0 0.0 0.0 0.0 1.0152729 0.0 1.7287657 0.0 0.0 0.0 0.0 
0.0 0.0 0.0 0.009503137 0.0 1.0282388 0.0 0.0 0.0 0.3586192 0.0 0.0 0.0 0.0 0.0 0.0 
0.0 0.0 0.0 0.20422634 0.342448 0.66946226 0.0 0.0 0.0 0.041688208 0.0 0.0 0.0 0.0 0.0 0.15979323 
0.0 0.0 0.0 0.0 0.08032461 0.019078054 0.030042673 0.0 0.0 0.0 0.0 0.0 0.0 0.0 0.0 0.2679561 
0.7006984 0.0 0.0 0.0 0.0 0.24789977 0.0 0.0 0.0 0.0 1.2786621 0.0 0.0 0.9253623 0.0 0.16947073 
1.302839 0.0 0.0 0.0 0.0 0.0 0.0 0.0 0.0 0.0 1.7403202 0.0 0.0 1.0364588 0.0 0.0 
0.0 0.0 0.0 0.0 0.0 0.0636701 0.0 0.0 0.0 0.9105926 0.68169796 0.0 0.0 1.1369399 0.0 0.0 
0.035935666 0.0 1.191982 0.0 0.0 0.0 0.0 0.0 0.0 0.4611988 0.0 0.0 0.0 1.4830203 0.8301476 0.0 
1.1554592 0.0 0.0 0.0 0.0 0.0 0.0 0.0 0.0 0.0 0.0 0.0 0.0 0.23280576 0.048580438 0.0 
0.10367814 0.0 0.0 0.0 0.0 0.0 0.0 0.0 0.0 0.0 0.0 0.0 0.04114615 0.0 0.0 0.0 
0.0 0.0 0.0 0.0 0.0 0.0 0.0 0.0 0.0 0.0 0.0 2.739692 1.4845825 0.0 0.0 0.0 
0.37614805 0.0 0.913754 0.0 0.0 0.0 0.0 0.0 0.0 0.0 0.0 0.8641262 1.0922086 0.0 0.0 0.0 
0.20430146 0.0 0.40224722 0.0 0.0 0.115624174 0.0 0.0 0.0 0.0 0.0 0.0 0.0 0.0020901486 0.0 0.0 
0.0 0.0 0.0 0.0003429614 0.0 0.0 0.0 0.0 0.0 0.0 0.0 0.0 0.0 0.0 0.0 0.0 
0.0 0.0 0.0 0.0 0.0 0.0 0.0 0.0 0.0 0.0 1.5414103 0.0 0.34761494 0.0 0.47852653 0.0 
0.0 0.0 0.0 0.0 0.0 0.0 0.0 0.0 0.0 0.0 2.4319358 0.0 0.32702702 0.8572319 0.052395836 0.0 
0.0 0.0 0.0 0.0 0.0 0.08681995 0.0 0.0 0.0 0.0 3.10247 0.0 0.56660277 1.4941599 0.0 0.0 
0.0 0.0 0.0 0.0 0.0 0.38167414 0.0 0.0 0.0 0.0 2.3457801 0.0 1.7704539 2.3612812 1.200056 0.0 
0.0 0.0 0.0 0.0 0.0 0.0 1.1427891 0.0 0.0 0.0 2.400844 0.0 1.9195635 2.5423176 1.318987 0.0 
0.0 0.0 0.0 0.0 0.0 0.0 0.0 0.0 0.76442343 0.0 1.8720592 0.0 0.9734463 1.6250453 0.0 0.0 
0.0 0.0 0.0 0.0 0.0 0.0 0.0 0.0 1.3062351 0.0 0.85684603 0.6448232 0.81594175 0.7394589 0.0 0.0 
0.0 0.0 0.0025374629 0.0 0.0 0.0 0.0 0.0 0.0 0.0 0.07010315 1.4584595 0.9856313 0.0 0.0 0.0 
0.0 0.0 0.2971051 0.0 0.0 0.0 0.0 0.0 0.0 0.0 0.0 0.09484874 0.3088833 0.0 0.0 0.0 
0.0 0.0 0.0 0.0 0.0 0.0 0.0 0.0 0.0 0.0 0.0 0.0 0.0 0.0 0.0 0.0 
0.0 1.0610901 0.0 0.0 0.0 0.0 0.0 0.10791288 0.0 0.0 0.40464902 0.07603125 0.0 0.0 0.0 0.0 
0.0 1.64982 0.0 0.0 0.0 0.0 0.0 0.18033098 0.0 0.0 0.9921545 0.0 0.0 0.0 0.5229866 0.0 
0.0 2.004105 0.0 1.5129691 0.0 0.0 0.0 0.0 0.0 0.0 1.9382427 0.0 0.0 0.0 1.0430117 0.0 
0.0 2.101785 0.0 4.3351727 0.0 0.8663359 0.0 0.0 0.0 0.0 2.0639288 0.0 0.0 0.0 2.0391486 0.0 
0.0 1.0682983 0.0 5.281926 0.0 0.0 0.0 0.0 0.0 0.0 2.099017 0.0 0.0 0.10750271 2.2256646 0.0 
0.0 0.0 0.0 3.9621305 0.0 0.0 0.0 0.0 0.6505866 0.0 2.4858797 0.0 0.0 0.47009447 1.2059896 0.45565203 
0.0 0.10519857 0.0 2.0558257 0.0 0.0 0.0 0.0 0.5113044 0.0 1.7493056 0.0 0.0 0.3913165 0.0 2.0968864 
0.0 0.18346928 0.0 1.4943632 0.0 0.0 0.0 0.0 0.0 0.0 0.8501316 0.8132874 0.19876789 0.0 0.0 0.97719765 
0.0 0.0 0.0 0.49600002 0.0 0.0 0.0 0.0 0.0 0.0 0.118487775 0.34384212 0.16992383 0.0 0.0 0.116936944 
0.0 0.0 0.0 0.0 0.0 0.0 0.0 0.0 0.0 0.0 0.0 0.0 0.0 0.0 0.0 0.0 

