0.0 0.0 0.0 0.0 0.0 0.0 0.099763244 0.0 0.0 0.0 0.0 0.0 0.0 0.0 0.0 0.0 
0.0 0.08073839 0.0 0.0 0.14552975 0.0 0.059826583 0.0 0.0 0.0 0.0 0.013436168 0.0 0.0 0.0 0.0 
0.13053317 0.8193035 0.36293945 0.016351908 0.019768238 0.0 0.0 0.0 0.12827015 0.0 0.0 0.0 0.0 0.0 0.0 0.16909142 
0.43718162 2.0314295 0.62445027 0.10237114 0.0 0.0 0.0 0.0 0.0 0.0 0.0 0.0 0.0 0.0 0.0 0.80575377 
1.0219163 3.3743489 0.0 0.0 0.0 0.0 0.0 0.0 0.0 0.0 0.0 0.46323565 0.0 0.0 0.0 0.9316904 
2.007368 3.0427768 0.0 0.0 0.91981006 0.0 0.0 0.0 0.0 0.4092535 0.0 0.6024884 0.0 0.0 0.0 0.68245804 
2.5451617 1.2360746 0.0 0.0 0.39714777 0.0 0.0 0.016906604 0.0 1.0293496 0.0 0.0 0.0 0.0 0.0 0.07284451 
2.525793 0.0 0.0 0.0 0.0 0.0 0.0 0.31415564 0.0 1.3758998 0.0 0.0 0.0 0.40754798 0.0 0.0 
2.4713385 0.0 0.0 0.0 0.0 0.0 0.0 0.30178958 0.0 1.3408045 0.0 0.0 0.0 0.28292096 0.0 0.0 
2.2655332 0.0 0.0 0.0 0.0 0.0 0.0 0.2647118 0.0 0.850294 0.0 0.0 0.0 0.09483426 0.0 0.0 
0.0 0.009880875 0.0 0.0 0.15386179 0.0 0.17133628 0.0 0.0 0.0 0.0 0.0 0.0 0.0 0.0 0.0 
0.46098098 0.4277001 0.24066049 0.0 0.35952342 0.061262637 0.0 0.0 0.0 0.0 0.0 0.0 0.0 0.0 0.0 0.0 
1.2581335 0.9545611 0.8330716 0.0 0.0 0.0 0.0 0.0 0.0 0.1767484 0.0 0.0 0.0 0.036864407 0.0 1.3284532 
2.3317523 1.4169182 0.645803 0.0 0.0 0.0 0.0 0.0 0.0 0.8708041 0.0 0.0 0.0 0.0 0.0 2.2215886 
3.153419 0.0 0.0 0.0 0.0 0.0 0.0 0.0 0.0 1.4673668 0.0 0.0 0.0 0.0 0.0 1.0351123 
2.8941898 0.0 0.0 0.0 0.0 0.0 0.0 0.20409755 0.0 1.2398989 0.0 0.0 0.0 0.0 0.0 0.0 
2.301375 0.0 0.0 0.0 0.0 0.0 0.0 0.0 0.0 0.9625635 0.0 0.0 0.8844249 1.123995 0.0 0.0 
1.4210777 0.0 0.0 0.0 0.0 0.0 0.0 0.0 0.0 0.0 0.0 0.0 1.7716681 2.1423755 0.0 0.0 
0.5640352 0.0 0.0 0.0 0.0 0.0 0.0 0.0 0.0 0.0 0.0 0.0 2.0648859 2.4852808 0.0 0.0 
0.32114524 0.0 0.0 0.0 0.0 0.0 0.0 0.0 0.0 0.0 0.4701048 0.0 1.9904816 2.3643444 0.0 0.0 
0.30025166 0.038488723 0.0 0.0 0.48022687 0.05642505 0.0 0.0 0.0 0.0 0.0 0.0 0.0 0.0 0.0 0.0 
0.6434701 0.4247028 0.9028836 0.0 0.117865495 0.0 0.0 0.0 0.13762039 0.5018243 0.0 0.0 0.0 0.0 0.4072016 1.3475273 
0.57090926 0.0 1.4596595 0.0 0.0 0.0 0.0 0.0 0.0 1.1319964 0.0 0.0 0.0 0.0 1.1434329 2.8842814 
0.7535094 0.0 0.0 0.0 0.0 0.0 0.55829114 0.0 0.0 0.4564253 0.0 0.0 1.1841446 0.4152661 0.8875939 0.6794808 
0.56811225 0.0 0.0 0.0 0.0 0.0 0.4009477 0.7355815 0.0 0.0 0.0 0.0 1.6156571 1.6792918 0.0 0.0 
0.0 0.0 0.0 0.0 0.0 0.0 0.0 0.17139558 0.0 0.0 0.056807965 0.0 2.3613653 1.6172307 0.0 0.0 
0.0 0.0 0.0 0.0 0.0 0.0 0.0 0.0 0.0 0.0 1.2350061 0.0 2.9930356 1.2536381 0.0 0.0 
0.0 0.0 0.0 0.0 0.0 0.0 0.0 0.0 0.0 0.0 2.0231454 0.0 2.632078 0.8026281 0.18861513 0.0 
0.0 0.0 0.0 0.7553925 0.0 0.0 0.0 0.0 0.0 0.0 2.147032 0.0 1.4765267 0.54531384 1.0605677 0.0 
0.0 0.59480506 0.0 2.7919283 0.0 0.0 0.0 0.0 0.61497766 0.0 1.9422746 0.0 0.57470673 0.64727396 1.1259284 0.0 
0.33799517 0.22801477 0.0 0.0 0.69496614 0.20691586 0.0 0.0 0.0 0.0 0.0 0.0 0.0 0.0 0.0 0.0 
0.0 0.4555145 1.0152447 0.0 0.0 0.0 0.0 0.0 0.0 0.57190627 0.0 0.0 0.0 0.0 0.44292748 2.304664 
0.0 0.34430426 0.23241824 0.0 0.0 0.0 0.0 0.0 0.0 0.0 0.0 0.0 0.83286697 0.0 0.09386079 0.4530309 
0.0 0.0 0.0 0.0 0.0 0.0 0.2694469 0.8273716 0.0 0.0 0.0 0.0 1.9255269 0.0 0.0 0.0 
0.0 0.0 0.0 0.0 0.0 0.0 0.0 1.2589681 0.0 0.0 0.0 0.0 1.4991475 0.0 0.0 0.0 
0.0 0.74346006 0.0 0.88246185 0.0 0.0 0.0 0.0 0.0 0.0 0.0 0.0 0.15891849 0.0 0.0 0.0 
0.0 2.73538 0.0 4.2697244 0.0 0.0 0.0 0.0 0.0 0.0 0.14157808 0.0 0.0 0.0 0.0 0.0 
0.0 2.697639 0.0 6.258185 0.0 0.0 0.0 0.0 0.0 0.0 1.33414 0.0 0.0 0.0 0.0 0.0 
0.0 1.7842118 0.0 5.7057424 0.0477307 0.0 0.0 0.0 0.0 0.98107815 1.3863842 0.0 0.0 0.0 0.0 0.0 
0.0 0.19545148 0.0 3.9483948 0.4539731 0.0 0.0 0.0 0.0 1.3523484 0.62723297 0.0 0.0 0.0 0.12647967 0.580025 
0.117479816 0.01816952 0.0 0.0 0.63557816 0.8618563 0.0 0.0 0.0 0.0 0.0 0.0 0.0 0.0 0.0 0.59295523 
0.0 0.0 0.0 0.0 0.0 0.0 0.0 0.07571909 0.0 0.0 0.0 0.0 0.0 0.0 0.0 1.2032778 
0.35936072 0.0 0.0 0.0 0.0 0.0 0.0 2.0833719 0.0 0.0 0.0 0.0 0.0 0.0 0.0 0.0 
1.413316 0.0 0.0 0.0 0.0 0.0 0.018064944 3.061094 0.0 0.0 0.0 0.0 0.0 0.0 0.0 0.0 
2.0349576 0.0 0.0 0.0 0.0 0.0 0.0 0.5171009 0.0 0.5282178 0.0 0.0 0.0 0.0 0.0 0.0 
0.957331 0.0 0.0 0.0 0.0 0.0 0.0 0.0 0.0 1.1582572 0.0 0.0 0.0 0.0 0.0 0.0 
0.0 0.0 0.0 0.0 0.0 0.0 0.0 0.0 0.0 2.4377553 0.0 0.0 0.0 0.0 0.0 0.0 
0.0 0.0 0.0 0.23056988 0.0 0.0 0.0 0.0 0.0 2.8531656 0.0 0.35598746 0.0 0.0 0.0 0.0 
0.0 0.0 0.0 1.334838 1.2521318 0.88704157 0.0 0.0 0.0 2.0588477 0.0 0.0 0.0 0.0 0.0 0.0 
0.0 0.0 0.0 1.2344298 1.2517841 1.291817 0.0 0.0 0.0 0.7842116 0.0 0.0 0.0 0.0 0.0 0.0 
0.0 0.0 0.0 0.0 0.0 1.4745216 0.0 0.0 0.0 0.09481998 1.2002933 0.0 0.0 0.00025189295 0.0 0.4509344 
0.0 0.0 0.0 0.0 0.0 0.586192 0.0 1.4870347 0.0 0.0 1.6136118 0.0 0.0 1.218257 0.0 0.0 
0.0 0.0 0.0 0.0 0.0 0.0 2.0304892 2.8530235 0.0 0.3321819 2.5860844 0.0 0.0 1.8737438 0.0 0.0 
0.0 0.0 0.0 0.0 0.0 0.0 0.596788 0.5197368 0.0 0.67082757 1.2850739 0.0 0.0 2.0164835 0.0 0.0 
0.6527377 0.0 0.0 0.0 0.0 0.0 0.0 0.0 0.0 0.0 0.0 0.0 0.0 3.307928 0.0 0.0 
0.50681967 0.0 0.0 0.0 0.0 0.0 0.0 0.0 0.0 0.0 0.0 0.0 0.0 3.5460203 0.0 0.0 
0.0 0.0 0.0 0.0 0.0 0.0 0.0 0.0 0.0 0.0 0.0 0.0 0.07521635 0.42077768 0.0 0.0 
0.06960489 0.0 0.0 0.0 0.0 0.0 0.0 0.0 0.0 0.0 0.0 1.1058657 1.069209 0.0 0.0 0.0 
0.66754466 0.0 0.0 0.0 0.0 0.0 0.0 0.0 0.0 0.0 0.0 1.9290115 1.1653949 0.0 0.0 0.0 
0.6983743 0.0 0.2891837 0.0 0.0 0.33496636 0.0 0.0 0.0 0.0 0.0 0.0 0.12908609 0.20198745 0.0 0.0 
0.0 0.09463373 0.0 0.0 0.0 0.74958247 0.0 0.0 0.0 0.0 1.7433494 0.0 0.021191955 0.0 0.0 0.0 
0.0 0.1747274 0.0 0.0 0.0 1.1303277 0.0 0.9597762 0.0 0.0 1.722307 0.0 0.2626564 0.48509118 0.0 0.0 
0.0 0.08511373 0.0 0.68694097 0.0 0.0 1.6625993 0.7162114 0.0 0.0 2.275301 0.0 0.28575313 1.1726798 0.0 0.0 
0.0 0.0 0.0 0.682351 0.0 0.0 0.0 0.0 0.9425198 0.0 2.0834231 0.0 0.0 0.05176998 0.0 0.0 
0.0 0.46568012 0.0 0.0 0.0 0.0 0.0 0.0 0.0 0.0 0.67691773 0.0 0.0 0.017240994 1.5172372 0.0 
0.0 1.5369072 0.0 0.0 0.0 0.0 0.0 0.0 0.0 0.0 0.0 0.0 0.17210323 0.6743161 2.945567 0.0 
0.0 0.42739367 0.0 0.0 0.0 0.0 0.0 0.0 0.0 0.0 0.0 0.0 0.0 0.93192524 1.3521918 0.0 
0.0 0.0 0.0 0.0 0.0 0.0 0.0 0.0 0.0 0.0 0.0 0.0 0.0 0.0041601583 0.0 0.0 
0.011772957 0.0 0.0 0.0 0.0 0.0 0.0 0.0 0.0 0.0 0.0 2.734847 1.0313188 0.0 0.0 0.0 
0.45579222 0.0 0.82155573 0.0 0.0 0.0 0.0 0.0 0.0 0.0 0.0 1.3838716 0.82866126 0.0 0.0 0.0 
0.0 2.2866182 0.0 0.0 0.0 0.0 0.0 0.06750621 0.0 0.0 0.0 0.21531603 0.0 0.0 0.0 0.0 
0.0 4.0992565 0.0 1.6129088 0.0 0.0 0.0 0.22611384 0.0 0.0 0.0 0.0 0.0 0.0 0.0 0.0 
0.0 4.9104795 0.0 3.1068928 0.0 0.0 0.0 0.0 0.0 0.58197975 0.0 0.0 0.0 0.0 0.0 0.0 
0.0 4.086234 0.0 2.9257941 0.0 0.0 0.0 0.0 0.0 1.0644252 0.0 0.0 0.0 0.0 0.0 0.0 
0.0 3.0777342 0.0 0.09973374 0.0 0.0 0.0 0.0 0.0 1.8326962 0.0 0.0 0.0 0.0 0.8218725 0.18174802 
0.0 0.18838747 0.0 0.0 0.0 0.0 0.0 0.0 0.0 2.2624729 0.0 0.0 0.0 0.0 3.1696668 0.0 
0.0 0.0 0.0 0.0 0.0 0.0 0.0 0.0 0.0 1.0210758 0.0 0.0 0.0 0.0 3.9600594 0.0 
0.0 0.0 0.0 0.0 0.0 0.0 0.0 0.0 0.0 0.0 0.0 0.0 0.0 0.0 1.1181055 0.0 
0.0 0.0 0.0 0.0 0.0 0.0 0.0 0.0 0.82749975 0.0 0.0 0.05241503 0.49907982 0.0 0.0 0.0 
0.0 0.0 0.031607132 0.0 0.0 0.0 0.0 0.0 0.0 0.0 0.0 1.6130556 1.1383067 0.0 0.0 0.0 
1.9568579 0.98270714 0.0 0.0 0.0 0.0 0.0 0.6591284 0.0 0.8901343 0.0 0.0 0.0 0.0 0.0 0.0 
1.9257247 1.015542 0.0 0.0 0.0 0.0 0.0 0.46512616 0.0 2.631026 0.0 0.0 0.0 0.0 0.0 0.0 
1.7782168 0.0 0.0 0.0 0.0 0.0 0.0 0.0 0.0 4.0157065 0.0 0.0 0.0 0.0 0.0 0.0 
1.3102487 0.0 0.0 0.0 0.0 0.0 0.0 0.0 0.0 3.823903 0.0 0.0 0.0 0.0 0.0 0.024211485 
0.0 0.0 0.0 0.0 0.0 0.0 0.0 0.0 0.0 2.9993565 0.0 0.0 0.0 0.0 0.0 0.0 
0.0 0.0 0.0 0.0 0.0 0.0 0.0 0.0 0.0 1.2789638 0.0 0.0 0.78432435 0.0 0.0 0.0 
0.0 0.0 0.0 0.0 0.0 0.0 0.0 0.0 0.0 0.0 0.0 0.0 1.6667488 0.0 1.0497599 0.0 
0.0 0.0 0.0 0.0 0.0 0.0 0.0 0.0 1.1701658 0.0 0.0 0.0 1.6116207 0.0 1.1777828 0.0 
0.0 0.0 0.0 0.0 0.0 0.0 0.0 0.0 3.0109298 0.0 0.60653895 0.0 0.10236269 0.0 0.06236933 0.0 
0.0 0.0 0.0 0.43388075 0.0 0.0 0.0 0.0 0.0 0.0 0.57978326 0.68219507 0.450252 0.0 0.0 0.35762 
0.090185866 0.0 0.0 0.0 0.0 0.04586421 0.0 0.10658026 0.0 0.36557615 1.2694377 0.0 0.016464531 1.9822427 0.0 0.0 
0.0 0.0 0.0 0.0 0.0 0.0 0.0 0.0 0.0 0.429095 1.7947387 0.0 0.4121822 2.7899916 0.0 0.0 
0.0 0.0 0.0 0.0 0.0 0.0 0.0 0.0 0.0 0.0075977184 1.8022244 0.0 1.0873622 2.7261758 0.0 0.0 
0.0 0.0 0.0 0.0 0.0 0.0 0.0 0.0 0.0 0.0 2.0593526 0.0 2.2997181 2.0948164 0.0 0.0 
0.0 0.0 0.0 0.0 0.0 0.0 0.0 0.0 0.0 0.0 2.781157 0.0 2.375014 1.3231883 0.0 0.0 
0.0 0.0 0.0 0.0 0.0 0.0 0.0 0.16760059 0.0 0.0 2.2539322 0.0 1.6378499 0.66094345 0.0 0.0 
0.0 0.0 0.0 1.9741625 0.0 0.0 0.0 0.23771839 0.75220644 0.0 1.5393933 0.0 0.7512358 0.58750707 0.0 0.0 
0.0 0.0 0.0 2.4435077 0.0 0.0 0.0 0.0 3.0806787 0.0 1.7339772 0.0 0.25726914 0.1971494 0.31001353 0.0 
0.0 0.0 0.0 1.1696917 0.0 0.0 0.0 0.0 1.4642289 0.0 1.2329695 0.0 0.0 0.0 0.12004404 2.5594902 
0.0 0.030861061 0.0 0.82213235 0.09696668 0.0 0.0 0.0 0.0 0.0 0.56879455 0.0 0.0 0.0 0.0 1.4070174 

