0.0 0.07801069 0.0 0.0 0.06689927 0.0 0.017935565 0.0 0.0 0.0 0.0 0.00518734 0.0 0.0 0.0 0.0 
0.16502777 0.58225906 0.26399648 0.0 0.046255074 0.0 0.0 0.0 0.0 0.0 0.0 0.0 0.0 0.0 0.0 0.0 
0.93623817 1.2425193 0.34415796 0.0 0.0 0.0 0.0 0.0 0.0 0.113981426 0.0 0.0 0.0 0.0 0.0 1.0509063 
1.7473633 1.79976 0.0 0.0 0.0 0.0 0.0 0.0 0.0 0.7728756 0.0 0.0 0.0 0.0 0.0 1.8675617 
2.0547187 0.720026 0.0 0.0 0.0 0.0 0.0 0.0 0.0 1.4521068 0.0 0.0 0.0 0.0 0.0 1.7995028 
1.4953133 0.0 0.0 0.0 0.0 0.0 0.0 0.0 0.0 0.9097722 0.0 0.0 0.035725772 0.5472697 0.0 0.0 
1.5322769 0.0 0.0 0.0 0.0 0.0 0.0 0.49450713 0.0 0.0 0.0 0.0 0.90094095 1.1750644 0.0 0.0 
1.1349708 0.0 0.0 0.0 0.0 0.0 0.0 0.0 0.0 0.0 0.0 0.0 0.8747311 1.0731567 0.0 0.0 
0.53485817 0.0 0.0 0.0 0.0 0.0 0.0 0.0 1.2309177 0.0 0.0 0.0 1.0028149 0.27543792 0.0 0.0 
0.34191117 0.0 0.65862554 0.0 0.0 0.0 0.0 0.0 0.90116405 0.0 0.0 0.7220974 0.81497556 0.0 0.0 0.0 
0.4930419 0.35078812 0.0 0.0 0.09312298 0.19643268 0.0 0.0 0.0 0.0 0.0 0.0 0.0 0.1455042 0.0 0.0 
0.9718308 1.0823913 0.65085375 0.0 0.0 0.0 0.0 0.0 0.0 0.27820015 0.0 0.0 0.0 0.0 0.010951996 0.9514857 
1.306155 0.98637897 0.83480775 0.0 0.0 0.0 0.0 0.0 0.0 0.9834689 0.0 0.0 0.0 0.0 0.1895942 2.868895 
0.67910755 0.0 0.0 0.0 0.0 0.0 0.0 0.0 0.0 1.1380504 0.0 0.0 0.6154921 0.0 0.0 0.941898 
0.0 0.0 0.0 0.0 0.0 0.0 0.0 0.16555978 0.0 0.0 0.0 0.0 1.58573 0.5303253 0.0 0.0 
0.0 0.0 0.0 0.0 0.0 0.0 0.0 0.115497276 0.0 0.0 0.0 0.0 1.3514949 1.0555575 0.0 0.0 
0.0 0.0 0.0 0.0 0.0 0.0 0.0 0.0 0.0 0.0 0.0 0.0 1.050327 0.6950772 0.0 0.0 
0.0 0.0 0.0 0.16319838 0.0 0.0 0.0 0.0 1.5403802 0.0 0.0 0.0 0.8954844 0.0 0.0 0.0 
0.0 1.51557 0.0 1.3396538 0.0 0.0 0.0 0.0 1.4080406 0.0 0.0 0.0 0.0 0.0 0.0 1.3269902 
0.0 1.8178526 0.0 1.239044 0.24931404 0.0 0.0 0.0 0.0 0.0 0.0 1.0637428 0.0 0.0 0.0 1.101602 
0.56210166 0.0 0.0 0.0 0.038821526 0.97457296 0.0 0.0 0.0 0.0 0.0 0.0 0.0 0.55988014 0.0 0.0 
0.24373172 0.0 0.5661839 0.0 0.0 0.0 0.0 0.0 0.0 0.32505596 0.0 0.0 0.0 0.25573885 0.0779375 0.9272092 
0.0 0.0 0.5481632 0.0 0.0 0.0 0.0 0.0 0.0 0.0 0.0 0.0 0.8053855 0.0 0.0 0.0 
0.0 0.0 0.0 0.0 0.0 0.0 0.10076452 0.2635504 0.0 0.0 0.0 0.0 1.965961 0.0 0.0 0.0 
0.0 0.0 0.0 0.0 0.0 0.0 0.0 0.0 0.0 0.0 0.0 0.95009804 1.2051136 0.0 0.0 0.0 
0.0 0.56308156 0.0 1.6558537 0.0 0.0 0.0 0.0 0.0 0.0 0.0 0.0 0.0 0.0 0.0 0.0 
0.0 2.843875 0.0 3.2296762 0.0 0.0 0.0 0.0 0.0 0.0 0.0 0.0 0.0 0.0 0.0 0.0 
0.51795816 2.3835945 0.0 1.4721106 0.0 0.0 0.0 0.0 0.0 0.021877836 0.0 0.0 0.0 0.0 0.0 1.9029864 
0.24714328 0.46135154 0.0 0.0 0.05379641 0.0 0.0 0.0 0.0 1.1017027 0.0 0.0 0.0 0.0 0.0 2.1268427 
0.3717667 0.0 0.0 0.0 0.0 0.0 0.0 0.0 0.0 1.1549771 0.0 0.0 0.0 0.0 0.0 0.0 
0.0 0.0 0.0 0.0 0.07273599 1.0986254 0.0 0.0 0.0 0.0 0.88779294 0.0 0.0 0.10344497 0.06835562 0.0 
0.0 0.0 0.0 0.0 0.0 2.1619115 0.0 0.0 0.0 0.0 0.0 0.0 0.0 1.2647913 0.0 0.0 
0.0 0.0 0.0 0.0 0.0 0.0 0.0 0.79351026 0.0 0.0 0.0 0.0 0.0 0.42126712 0.0 0.0 
0.0 0.0 0.0 0.0 0.0 0.0 0.18274292 0.9280131 0.0 0.0 0.0 0.0 0.0 0.0 0.0 0.0 
1.0659726 0.0 0.0 0.0 0.0 0.0 0.0 0.0 0.17516677 0.49125642 0.0 0.9444728 0.0 0.0 0.0 0.0 
1.451628 0.0 0.0 0.0 0.0 0.0 0.0 0.0 0.0 2.1713426 0.0 0.0 0.0 0.0 0.0 0.0 
0.39982194 0.0 0.0 0.0 0.0 0.0 0.0 0.0 0.0 2.369429 0.0 0.0 0.0 0.021877661 0.0 1.0852734 
0.0 0.0 0.0 0.0 0.0 0.0 0.0 0.0 0.0 1.4541031 0.0 0.0 0.0 0.96953285 0.0 0.4404046 
0.48491934 0.0 0.0 0.0 0.0 0.0 0.0 0.0 0.0 0.29453906 0.0 0.0 0.6626924 1.0726 0.0 0.0 
0.92933655 0.0 0.0 0.0 0.0 0.0 0.0 0.0 0.0 0.0 0.0 0.0 1.4338076 0.9595016 0.0 0.0 
0.0 0.2015721 0.0 0.0 0.060862698 0.064222574 0.0 0.0 0.0 0.0 0.7732066 0.4244041 0.0 0.0 0.0 0.0 
0.0 0.29609153 0.0 0.0 0.0 2.2024157 0.0 0.0 0.0 0.0 0.45191455 0.0 0.0 0.0 0.29273427 0.0 
0.0 0.0 0.22814924 0.0 0.0 0.74602944 0.5407171 0.0 0.0 0.0 0.0 0.0 0.0 1.6380994 0.14141352 0.0 
0.50032127 0.0 0.0 0.0 0.0 0.0 0.63343024 0.0 0.0 0.17921555 0.0 0.0 0.0 1.3348314 0.0 0.0 
0.0 0.0 0.0 0.0 0.0 0.0 0.0 0.0 0.0 0.7428119 0.0 0.0 0.0 0.0 0.0 0.35999167 
0.0 0.0 0.0 0.0 0.0 0.0 0.0 0.0 0.0 0.45728433 0.0 0.2633354 0.8697858 0.0 0.0 0.0 
0.0 0.0 0.0 0.0 0.0 0.0 0.0 0.0 0.0 0.0 0.0 0.0 2.6857982 0.0 0.0 0.0 
0.0 0.0 0.0 0.0 0.0 0.0 0.0 0.0 0.0 0.0 0.16016802 0.0 2.706384 1.8056396 0.0 0.0 
0.0 0.0 0.0 0.0 0.0 0.0 0.0 0.0 0.0 0.0 1.7462674 0.0 1.7246382 2.2114494 0.26573837 0.0 
0.0 0.0 0.0 0.0 0.0 0.0 0.0 0.0 0.647345 0.0 1.7521914 0.0 1.4735308 1.7658995 0.40988123 0.0 
0.2973881 0.81162417 0.0 0.0 0.24369982 0.0 0.0 0.0 0.0 0.0 0.0 0.21950665 0.0 0.0 0.0 0.0 
0.0 1.9510362 0.39331332 0.0 0.0 0.018802755 0.0 0.0 0.0 0.56784964 0.0 0.0 0.0 0.0 0.0 0.0 
0.0 0.7063008 1.7799982 0.0 0.0 0.031583026 0.13057213 0.0 0.0 0.6603589 0.0 0.0 0.0 0.0 1.9227087 0.0 
0.0 0.0 0.0 0.0 0.0 0.0 0.38813823 0.0 0.0 0.0 0.0 0.0 0.0 0.0 2.5965092 0.0 
0.0 0.0 0.0 0.0 0.0 0.0 0.0 0.0 0.0 0.0 0.0 0.0 0.0 0.10256355 0.24203832 0.0 
0.0 0.0 0.0 0.0 0.0 0.0 0.0 0.0 0.0 0.0 0.0 0.0 1.7637074 0.0 0.0 0.0 
0.0 0.0 0.0 0.0 0.0 0.0 0.0 0.0 0.0 0.0 0.0 2.4504135 3.1068528 0.0 0.0 0.0 
0.0 0.0 0.0 1.3638276 0.0 0.0 0.0 0.0 0.0 0.0 0.22887701 0.0 1.8201481 0.0 0.0 0.0 
0.0 0.18620406 0.0 4.2965326 0.0 0.0 0.0 0.0 0.9034805 0.0 1.6952444 0.0 0.0 0.0 0.09228264 0.0 
0.0 0.5302973 0.0 4.0152454 0.0 0.0 0.0 0.0 0.5314541 0.0 1.5647589 0.0 0.0 0.0 1.0351462 0.3547472 
0.72236466 0.22525851 0.0 0.0 0.47444272 0.16887683 0.0 0.0 0.0 0.005930405 0.0 0.0 0.0 0.0 0.0 0.0 
0.0 0.7776097 0.3889224 0.0 0.0 0.0 0.0 0.0 0.0 1.2921189 0.0 0.0 0.0 0.0 0.0 0.7942641 
0.0 0.0 0.69617367 0.0 0.0 0.0 0.5701142 0.0 0.0 0.38318276 0.0 0.0 0.0 0.0 0.0 0.0 
0.0 0.0 0.0 0.0 0.0 0.30888408 0.19377588 0.0 0.0 0.0 0.0 0.0 0.45103586 0.0 1.1566494 0.0 
0.0 0.0 0.0 0.0 0.0 0.0 0.0 0.0 0.0 0.0 0.0 0.0 0.08277665 0.0 1.3595846 0.0 
0.0 0.0 0.0 1.4671515 0.0 0.0 0.0 0.0 0.0 0.0 0.0 0.0 0.0 0.0 0.0 0.0 
0.0 0.0 0.0 2.7953331 0.0 0.0 0.0 0.0 0.0 0.0 0.0 1.5623121 0.0 0.0 0.0 0.0 
0.0 0.0 0.0 2.680903 0.0 0.0 0.0 0.0 0.4099396 1.1181154 0.0 1.5818942 0.0 0.0 0.0 0.0 
0.0 0.0 0.0 1.997235 0.0 0.19708696 0.0 0.0 0.0 1.6491106 0.0 0.0 0.0 0.0 0.0 0.0 
0.0 0.0 0.0 1.5805649 0.30365857 0.32725912 0.0 0.0 0.0 1.3708993 0.0 0.0 0.0 0.0 0.4200861 1.3083179 
0.0 0.0 0.0 0.0 0.44006255 1.5919878 0.0 0.0 0.0 0.0 0.0 0.0 0.0 0.09588841 0.0 0.0613678 
0.0 0.0 0.0 0.0 0.0 0.0 0.0 0.0 0.0 0.0 0.0 0.0 0.0 0.0 0.0 0.0 
0.0 0.26210994 0.0 0.0 0.0 0.0 0.27618352 0.8008234 0.0 0.0 0.0 0.0 0.0 0.0 0.0 0.0 
0.0 0.0 0.0 0.0 0.0 0.0 0.0 0.6660246 0.0 0.28710964 0.0 0.0 0.0 0.0 0.0 0.0 
0.0 0.0 0.0 0.0 0.0 0.0 0.0 0.0 0.0 1.1897794 0.0 0.0 0.0 0.0 0.0 0.0 
0.0 0.0 0.0 0.0 0.0 0.0 0.6640475 0.0 0.0 0.1983914 0.0 0.0 0.0 0.0 0.0 0.0 
0.0 0.0 0.0 0.0 0.0 0.0 0.0 0.0 0.0 0.109953165 0.0 0.0 0.0 0.0 0.0 0.0 
0.0 0.0 0.0 0.0 0.0 0.0 0.0 0.0 0.85821074 0.0 0.0 0.9072354 0.0 0.0 0.0 0.0 
0.0 0.0 0.09377089 0.0 0.0 0.35996544 0.0 0.0 0.0 0.0 0.0 0.0 0.00040667504 0.0 0.0 0.0 
0.0 0.0 0.0 0.0 0.0 0.1981034 0.0 0.0 0.0 0.0 0.0 0.0 0.0 0.0 0.0 0.41984832 
0.0 0.0 0.0 0.0 0.06909219 1.9353046 0.0 0.0 0.0 0.0 1.2408023 0.0 0.0 0.0 0.0 0.0 
0.0 0.0 0.0 0.0 0.0 2.4916093 0.0 0.9584766 0.0 0.0 0.7286111 0.0 0.0 1.7319139 0.0 0.0 
0.8224209 0.0 0.0 0.0 0.0 0.0 1.4084599 2.4955409 0.0 0.11234361 2.4656832 0.0 0.0 1.0472169 0.0 0.0 
0.0 0.0 0.0 0.0 0.0 0.0 0.0 0.17107978 0.0 1.3331511 1.2314751 0.0 0.0 0.0 0.0 0.0 
0.0 0.0 0.0 0.0 0.0 0.0 0.0 0.0 0.0 0.43253163 0.0 0.0 0.0 0.0 0.0 0.0 
0.0 0.0 0.0 0.0 0.0 0.0 1.1568646 0.0 0.0 0.0 0.0 0.0 0.9367644 0.1677323 0.0 0.0 
0.0 0.0 0.0 0.0 0.0 0.0 0.0 0.0 1.1719849 0.0 0.0 0.0 0.47766632 0.0 0.0 0.0 
0.0 0.0 0.0 0.0 0.0 0.0 0.0 0.0 1.8418351 0.0 0.0 0.0 0.41657495 0.0 0.0 0.0 
0.0 0.0 0.0 0.0 0.0 0.0 0.0 0.0 0.0 0.0 0.0 0.71196425 0.5379448 0.0 0.0 0.0 
0.0 0.0 0.0 0.005877666 0.0 0.0 0.0 0.0 0.0 0.0 0.0 0.0 0.04000642 0.0 0.0 0.0 
0.0 0.19671898 0.0 0.0 0.0 0.53699917 0.0 0.0 0.0 0.0 1.5092442 0.13910109 0.0 0.0 0.0 0.0 
0.0 0.0 0.06570771 0.0 0.0 1.7030156 0.0 0.81511027 0.0 0.0 1.7739356 0.0 0.0 0.60167176 0.39955735 0.0 
0.0 0.0 0.0 0.0 0.0 0.0 1.5045751 0.8139335 0.0 0.0 3.6226547 0.0 0.0 2.0995278 0.0 0.0 
0.0 0.0 0.0 0.0 0.0 0.0 0.0 0.0 0.0 0.0 4.556769 0.0 0.0 1.6577742 0.0 0.0 
0.0 0.0 0.0 0.0 0.0 0.12984541 0.0 0.0 0.0 0.0 2.612391 0.0 0.40586603 1.7466266 0.0 0.0 
0.0 0.0 0.0 0.58767605 0.0 0.0 0.7748538 0.0 0.0 0.0 1.7400635 0.0 1.7477492 1.0840698 0.0 0.0 
0.0 0.0 0.0 0.14116424 0.0 0.0 0.0 0.0 3.2437642 0.0 1.6613301 0.0 0.52263373 0.4689084 0.0 0.0 
0.0 0.0 0.0 0.059152745 0.0 0.0 0.0 0.0 1.2890205 0.0 1.099341 0.0 0.0 0.42100254 0.0 1.6674175 
0.0 0.0 0.0 0.5240916 0.0 0.0 0.0 0.0 0.0 0.0 0.28414953 0.49756262 0.11273478 0.0 0.0 0.5530381 
0.0 0.0 0.0 0.23282444 0.0 0.0 0.0 0.0 0.0 0.0 0.0 0.03159406 0.0 0.0 0.0 0.0 

