1.4705956 2.0572743 0.0 0.0 0.0 0.0 0.0 0.0 0.0 0.0 0.0 0.0 0.0 0.0 0.0 0.65826285 
2.4649153 2.4416547 0.0 0.0 0.0 0.0 0.0 0.0 0.0 0.69032055 0.0 0.0 0.0 0.0 0.0 0.6596277 
3.6782954 1.2433289 0.0 0.0 0.0 0.0 0.0 0.0 0.0 1.1615648 0.0 0.0 0.0 0.0 0.0 0.0 
4.0821605 0.0 0.0 0.0 0.0 0.0 0.0 0.0 0.0 1.239144 0.0 0.0 0.0 0.0 0.0 0.0 
3.9132197 0.0 0.0 0.0 0.0 0.0 0.0 0.0 0.0 0.8855898 0.0 0.0 0.0 0.06238904 0.0 0.0 
3.3831646 0.0 0.0 0.0 0.0 0.0 0.0 0.0 0.0 0.6158618 0.0 0.0 0.0 0.0 0.0 0.0 
2.426559 0.0 0.0 0.0 0.0 0.0 0.0 0.0 0.0 0.85759866 0.0 0.9354478 0.5313937 0.0 0.0 0.0 
1.6344572 0.0 0.0 0.0 0.0 0.0 0.0 0.0 0.0 0.53014463 0.0 1.7568934 0.7085899 0.0 0.0 0.0 
0.79894423 0.0 0.084653184 0.0 0.13210991 0.8301885 0.0 0.0 0.0 0.0 0.0 0.0 0.0 0.26388142 0.0 0.0 
0.0 0.0 0.36751494 0.09582699 0.14911225 0.596504 0.0 0.0 0.0 0.0 0.061632097 0.0 0.0 0.46372125 0.0 0.0 
1.7318755 0.0 0.0 0.0 0.0 0.0 0.0 0.039821446 0.0 0.59095126 0.0 0.0 0.0 1.8703502 0.0 0.69251865 
2.0668275 0.0 0.0 0.0 0.0 0.0 0.0 0.025579989 0.0 0.7981403 0.0 0.0 0.16017197 2.2309349 0.0 0.0 
2.1347444 0.0 0.0 0.0 0.0 0.0 0.0 0.0 0.0 0.44676015 0.0 0.0 1.5031583 2.0489798 0.0 0.0 
2.276972 0.0 0.0 0.0 0.0 0.0 0.0 0.0 0.0 0.0 0.0 0.0 2.142711 3.1057734 0.0 0.0 
2.5060024 0.0 0.0 0.0 0.0 0.0 0.0 0.0 0.0 0.0 0.0 0.0 1.4471134 4.792349 0.0 0.0 
2.3667192 0.0 1.2531174 0.0 0.0 0.0 0.0 0.0 0.0 0.0 0.0 0.0 1.4723723 3.423084 0.0 0.0 
1.5426319 0.0 0.0 0.0 0.0 0.0 0.0 0.0 0.0 0.0 0.0 0.0 1.8139589 0.27862066 0.0 0.0 
1.2392164 0.0 0.0 0.0 0.0 0.0 0.0 0.0 0.0 0.0 0.0 3.4286077 2.159996 0.0 0.0 0.0 
1.1426736 0.0 0.34948862 0.0 0.0 0.0 0.0 0.0 0.0 0.0 0.0 1.674213 1.2348456 0.0 0.0 0.0 
0.4487295 0.0 0.76410466 0.0 0.0 0.38959044 0.0 0.0 0.0 0.0 0.0 0.0 0.0 0.14236516 0.0 0.0 
0.0 0.0 0.0 0.0 0.0 0.047751218 0.0 0.0 0.0 0.0 2.173125 0.0 1.5942227 2.4355786 1.1211151 0.0 
0.0 0.0 0.0 0.0 0.0 0.0 0.0 0.13080354 0.0 0.0 3.311629 0.0 2.5649385 2.664574 0.61531156 0.0 
0.0 0.0 0.0 0.0 0.0 0.0 0.0 0.0 0.0 0.0 3.366615 0.0 2.9169226 1.9107134 0.4493916 0.0 
0.0 0.0 0.0 0.0 0.0 0.0 0.0 0.0 0.0 0.0 3.010597 0.0 2.6949666 1.0319791 1.0430526 0.0 
0.0 0.0 0.0 0.0 0.0 0.0 0.0 0.0 0.0 0.0 1.5118067 0.0 1.7272189 2.1041744 3.203123 0.0 
0.0 0.0 0.387432 0.0 0.0 0.0 0.0 0.0 0.0 0.0 0.4427557 0.0 1.2627627 2.0775695 3.4529393 0.0 
0.0 0.0 0.0 0.6044393 0.0 0.0 0.04546029 0.0 0.0 0.0 0.9376508 0.0 1.0486199 0.79153275 0.2588644 0.0 
0.0 0.0 0.0 0.0 0.0 0.0 0.0 0.0 0.0 0.0 0.052958906 1.7599378 0.73684275 0.0487627 0.0 0.0 
0.0 0.0 0.0 0.0 0.0 0.0 0.0 0.0 0.0 0.0 0.0 2.7193933 1.1868161 0.0 0.0 0.0 
0.23560075 0.0 1.1323214 0.0 0.0 0.0 0.0 0.0 0.0 0.0 0.0 0.50190294 0.37501472 0.0 0.0 0.0 
0.0 1.5792708 0.0 0.4715386 0.0 0.0 0.0 0.33232087 0.0 0.0 1.2854301 0.0 0.49739987 0.0 1.0998544 0.0 
0.0 2.356189 0.0 2.8045452 0.0 0.0 0.0 0.0 0.0 0.0 2.2335641 0.0 0.0 0.0 1.2014334 0.0 
0.0 3.0048466 0.0 4.678022 0.0 0.0 0.0 0.0 0.0 0.0 2.5166018 0.0 0.0 0.0 0.18563099 0.0 
0.0 3.2831838 0.0 4.4397845 0.0 0.0 0.0 0.0 0.0 0.0 1.561368 0.0 0.0 0.0 0.034684077 0.0 
0.0 3.0434647 0.0 3.1212723 0.0 0.0 0.0 0.0 0.0 0.690976 0.0 0.0 0.0 0.0 2.7171452 0.0 
0.0 0.9458048 0.28217983 2.8788707 0.0 0.0 0.0 0.0 0.0 0.27630815 0.0 0.0 0.0 0.0 4.4368234 0.54940367 
0.0 0.0 0.0 2.1067214 0.0 0.0 1.5546494 0.0 0.0 0.0 0.0 0.0 0.014427237 0.0 2.352314 0.0 
0.0 0.0 0.0 0.91666484 0.0 0.0 0.0 0.0 0.0 0.0 0.0 0.0 0.0 0.0 0.0 0.0 
0.0 0.0 0.0 0.5789643 0.0 0.0 0.0 0.0 0.56645614 0.0 0.0706682 1.2499964 0.0 0.0 0.0 0.0 
0.0 0.0 0.32333642 0.0 0.0 0.0 0.0 0.0 0.0 0.0 0.0 0.83144486 0.27390468 0.0 0.0 0.0 
0.0 1.4898117 0.0 2.7343974 0.0 0.0 0.4056515 0.0 0.0 1.8727171 0.0 0.0 0.0 0.0 0.0 0.0 
0.0 1.5813061 0.0 3.9182196 0.0 0.0 0.17579326 0.0 0.17804167 2.92796 0.0 0.0 0.0 0.0 0.0 0.0 
0.0 1.4788898 0.0 3.5974116 0.080186434 0.0 0.0 0.0 0.0 3.6271875 0.0 0.0 0.0 0.0 0.0 0.0 
0.0 1.6294667 0.0 1.4293034 1.6572741 0.0 0.0 0.0 0.0 3.6519227 0.0 0.0 0.0 0.0 0.0 2.0477872 
0.0 1.9202752 0.0 0.0 1.1970453 0.0 0.0 0.0 0.0 3.047084 0.0 0.0 0.0 0.0 0.0 3.213228 
0.0 0.42864397 0.24109355 0.20071802 0.0 0.0 0.05439563 0.0 0.0 1.1353233 0.0 0.0 0.0 0.0 0.13860859 0.0 
0.0 0.0 0.0 0.018858213 0.0 0.0 2.7982743 0.0 0.0 0.0 0.0 0.0 0.0 0.0 0.0 0.0 
0.0 0.0 0.0 0.0 0.0 0.0 0.0 0.0 2.1537635 0.0 0.0 0.0 0.0 0.0 0.0 0.0 
0.0 0.0 0.0 1.020263 0.0 0.7843988 0.0 0.0 1.1112572 0.0 0.0 0.0 0.0 0.0 0.0 0.0 
0.0 0.0 0.0 1.5451918 0.09008383 0.57201844 0.0 0.0 0.0 0.0 0.3413329 0.7632966 0.0 0.0 0.0 0.0 
0.42598665 0.56890905 0.0 0.8667058 0.15900359 0.0 0.55741614 0.0 0.10292339 0.5807722 0.0 0.0 0.0 0.0 0.0 0.0 
0.6311762 1.1960709 0.3790463 0.42392272 0.0 0.0 0.0 0.0 0.11383316 1.0029132 0.0 0.0 0.0 0.0 0.0 0.6858713 
0.6408133 1.8952006 0.022441115 0.0 0.59773123 0.0 0.0 0.0 0.0 1.812602 0.0 0.0 0.0 0.0 0.0 2.2124305 
0.604424 1.6265475 0.0 0.0 1.7851269 0.0 0.0 0.0 0.0 2.008096 0.0 0.0 0.0 0.0 0.0 3.4340544 
0.923164 0.0 0.0 0.0 0.011853665 0.0 0.0 0.0 0.0 0.86468667 0.0 0.0 0.0 0.0 0.0 1.0207715 
1.0557747 0.0 0.0 0.0 0.0 0.0 1.1766938 1.8964846 0.0 0.0 0.0 0.0 0.0 0.0 0.0 0.0 
1.7307743 0.0 0.0 0.0 0.0 0.0 0.25845635 1.5080177 0.0 0.0 0.0 0.0 0.0 0.0 0.0 0.0 
1.7102121 0.0 0.0 0.0 0.0 0.0 0.0 0.0 1.7232552 0.0 0.0 0.0 0.0 0.0 0.0 0.0 
0.8100213 0.0 0.0 0.0 0.0 0.0 0.0 0.0 0.0 0.0 0.0 0.10627909 0.0 0.0 0.0 0.0 
0.0 0.023718785 0.0 0.0 0.34734607 0.0 0.0 0.0 0.0 0.0 0.0 1.4662968 0.0 0.0 0.0 0.0 
0.80778396 0.26739436 0.12322171 0.0 0.5028974 0.32518783 0.0 0.0 0.0 0.0 0.0 0.0 0.0 0.23502809 0.0 0.0 
1.1042674 0.5914993 1.1588897 0.0 0.0 0.0 0.0 0.0 0.0 0.8478933 0.0 0.0 0.0 0.0 0.21790726 1.9018804 
0.7868776 0.0 0.35509396 0.0 0.0 0.0 0.0 0.0 0.0 1.7670734 0.0 0.0 0.0 0.0 0.11469786 2.8657758 
0.6481807 0.0 0.0 0.0 0.0 0.0 0.0 0.0 0.0 1.5097044 0.0 0.0 0.2285633 0.0 0.0 0.6697798 
0.90359586 0.0 0.0 0.0 0.0 0.0 0.0 2.0303862 0.0 0.0 0.0 0.0 0.9694324 0.39124206 0.0 0.0 
2.046664 0.0 0.0 0.0 0.0 0.0 0.6897914 3.374712 0.0 0.0 0.0 0.0 0.78472936 2.6770036 0.0 0.0 
2.438684 0.0 0.0 0.0 0.0 0.0 0.0 0.0 0.0 0.0 0.0 0.0 0.036922336 3.2451978 0.0 0.0 
1.9937832 0.0 0.0 0.0 0.0 0.0 0.0 0.0 0.0 0.0 0.0 0.0 0.0 2.204302 0.0 0.0 
1.5476887 0.0 0.0 0.0 0.0 0.0 0.0 0.0 0.0 0.0 0.0 0.0 0.65121794 0.0 0.0 0.0 
1.4964963 0.0 0.0 0.0 0.0 0.0 0.0 0.0 0.0 0.0 0.0 1.3430831 1.2092324 0.0 0.0 0.0 
0.43270352 0.0 0.0 0.0 0.44823307 0.5036703 0.0 0.0 0.0 0.30320728 0.0 0.0 0.0 0.12470818 0.27365458 0.5340725 
0.0 0.0 0.98605096 0.0 0.0 0.0 0.0 0.0 0.0 0.93335557 0.0 0.0 0.0 0.0 0.99779373 2.2763433 
0.0 0.0 0.0 0.0 0.0 0.0 0.0 0.07887781 0.0 0.3491933 0.0 0.0 0.9151012 0.0 0.12026195 0.0 
0.0 0.0 0.0 0.0 0.0 0.0 0.0 2.0385492 0.0 0.0 0.22884227 0.0 1.6728319 0.0 0.0 0.0 
0.0 0.0 0.0 0.0 0.0 0.0 0.0 3.1329575 0.0 0.0 0.20534758 0.0 2.3471105 0.0 0.0 0.0 
0.0 0.0 0.0 0.0 0.0 0.0 0.0 1.1482599 1.2119261 0.0 1.9472128 0.0 2.051125 2.0655055 0.8638447 0.0 
0.0 0.0 0.0 0.0 0.0 0.0 0.0 0.0 1.1726483 0.0 3.2024913 0.0 1.2323935 3.6185298 1.6866735 0.0 
0.0 0.0 0.0 0.0 0.0 0.0 0.0 0.0 0.0 0.0 2.513415 0.0 0.7112421 5.5538826 0.8672605 0.0 
0.0 0.0 0.0 0.0 0.0 0.0 0.0 0.0 0.0 0.0 1.3684096 0.0 1.0923814 4.232878 0.0 0.0 
0.29830125 0.0 0.0 0.0 0.0 0.0 0.0 0.0 0.0 0.0 0.0 0.0 1.2446378 1.7954518 0.0 0.0 
0.0 0.0 0.0 0.0 0.116945796 1.2101624 0.0 0.0 0.0 0.17804345 0.5673882 0.0 0.0 0.0 0.71252483 0.40316695 
0.0 0.0 0.15484218 0.0 0.0 0.0 0.0 0.48673147 0.0 0.0 0.69934857 0.0 0.79034334 0.0 0.40055203 0.0 
0.0 0.0 0.0 0.0 0.0 0.0 0.7639412 2.2186844 0.0 0.0 1.4006962 0.0 1.3606858 0.0 0.0 0.0 
0.0 0.0 0.0 0.0 0.0 0.0 0.0 2.7677085 0.0 0.0 0.72609633 0.0 0.8998675 0.0 0.0 0.0 
0.0 0.0 0.0 1.2833602 0.0 0.0 0.0 1.0124563 1.9985974 0.0 0.7206443 0.0 0.47113383 0.0 0.0 0.0 
0.0 0.0 0.0 1.7646626 0.0 0.0 0.0 0.0 1.5157943 0.0 1.236068 0.0 0.18519574 0.0 0.45852065 0.0 
0.0 0.40023306 0.0 1.1136192 0.0 0.0 0.0 0.0 0.0 0.0 1.780833 0.0 0.007400647 0.0 3.4668374 0.0 
0.0 0.0 0.0 0.12863094 0.0 1.3236282 0.0 0.0 0.0 0.0 2.3300724 0.0 0.09214352 0.27982083 4.9493856 0.0 
0.0 0.0 0.0 0.56019616 0.0 0.0 0.0 0.0 0.0 0.0 2.3678992 0.0 0.5586351 2.2273648 4.1549706 0.0 
0.0 0.0 0.0 0.8501642 0.0 0.0 0.0 0.0 0.0 0.0 2.9064388 0.0 0.5558267 2.7808495 0.60097206 0.0 
0.0 0.0 0.0 0.0 0.0 1.2477841 0.0 0.05317443 0.0 0.0 1.8632109 0.0 0.16381456 0.0 0.0 0.0 
0.0 0.0 0.0 0.0 0.0 0.9664723 0.08288477 1.61063 0.0 0.0 1.9473802 0.0 0.15650325 0.0 0.0 0.0 
0.0 0.0 0.0 2.2679167 0.0 0.0 1.7525004 2.5902014 0.0 0.0 2.6351738 0.0 0.0 0.0 0.0 0.0 
0.0 0.0 0.0 3.5274096 0.0 0.0 0.0 0.5969248 2.3507736 0.25407964 2.0388923 0.0 0.0 0.0 0.0 0.0 
0.0 0.0 0.0 3.1090035 0.0 0.0 0.0 0.0 2.129936 0.50726885 0.85828406 0.0 0.0 0.0 0.0 0.0 
0.0 0.007061625 0.0 2.4705245 0.0 0.0 0.0 0.0 0.0 1.0205905 0.13432032 0.0 0.0 0.0 0.0 0.33264172 
0.0 0.48389181 0.0 1.4201684 0.0 0.12934235 0.0 0.0 0.0 1.0527344 0.0 0.0 0.0 0.0 0.0 0.0 
0.0 0.681219 0.0 0.7418971 0.0 0.9564174 0.0 0.0 0.0 0.8790321 0.0 0.0 0.0 0.0 1.6655298 0.0 
0.0 0.10298948 0.0 2.3602986 0.0 0.9123743 0.0 0.0 0.0 0.04798006 0.011128452 0.0 0.0 0.0 3.987261 0.0 
0.0 0.0 0.0 3.6471467 0.0 0.0 0.0 0.0 0.0 0.0 1.3944932 0.0 0.0 0.0 3.6541111 0.0 

