0.064089015 0.0 0.0 0.0 0.07962873 0.12845871 0.2454841 0.0 0.0 0.0 0.0 0.0 0.0 0.0 0.0 0.0 
0.3495048 0.0 0.0 0.0 0.42699578 0.51892614 0.0 0.0 0.0 0.0 0.0 0.0 0.0 0.2879121 0.0 0.0 
0.46800593 0.04005272 1.7503635 0.0 0.0 0.0 0.0 0.0 0.0 0.2115938 0.0 0.0 0.0 0.11111658 0.38010228 1.5175252 
0.6868242 0.0 0.77973205 0.0 0.0 0.0 1.1467614 0.0 0.0 0.2216601 0.0 0.0 0.0 0.0 0.0 0.4735034 
1.1484642 0.0 0.0 0.0 0.019614749 0.0 1.5371922 0.0 0.0 0.0 0.0 1.2067719 0.0 0.0 0.0 0.0 
1.487511 0.0 0.10359591 0.0 0.0 0.0 0.0 0.0 0.06515905 0.0 0.0 0.22783178 0.0 0.052420676 0.0 0.0 
1.3363619 0.0 2.968115 0.0 0.0 0.0 0.0 0.0 0.0 0.0 0.0 0.0 0.0 0.0 0.0 0.294809 
1.1038309 0.0 0.0 0.0 0.0 0.0 1.720018 0.0 0.0 0.16717727 0.0 0.078132585 0.28485692 0.0 0.0 0.0 
0.8034809 0.0 0.0 0.0 0.0 0.0 0.2738637 0.0 0.0 0.0 0.0 1.4964331 0.6357187 0.0 0.0 0.0 
0.70672226 0.0 0.0 0.0 0.0 0.0 0.0 0.0 0.21624026 0.0 0.0 0.69428754 0.36569595 0.0 0.0 0.0 
0.0 0.0 0.0 0.0 0.4160405 0.0 0.0 0.0 0.0 0.0 0.0 0.0 0.0 0.0 0.0 0.0 
0.0 0.14414063 0.6205665 0.0 0.46375865 0.5637905 0.0 0.0 0.30426466 0.13383976 0.0 0.0 0.0 0.0 0.4722371 0.8917097 
0.0 0.0 2.457185 0.0 0.0 0.0 0.0 0.0 0.0 0.050256345 0.0 0.0 0.03632608 0.0 0.9787709 1.4081706 
0.3054148 0.0 0.0 0.0 0.0 0.0 2.7490427 0.0 0.0 0.0 0.0 0.0 0.38749415 0.0 0.0 0.0 
0.38920528 0.0 0.0 0.0 0.0 0.0 0.40740463 0.0 0.0 0.0 0.0 0.16772771 0.0 0.0 0.0 0.0 
0.0 0.0 0.43779868 0.0 0.0 0.0 0.0 0.0 1.4192523 0.0 0.0 0.0 0.0 0.0 0.0 0.0 
0.0 0.0 3.4780405 0.0 0.0 0.0 0.0 0.0 0.0 0.0 0.0 0.0 0.77095526 0.0 0.4147371 0.0 
0.19194521 0.0 0.0 0.0 0.0 0.0 3.320489 0.0 0.0 0.0 0.0 0.0 1.1048026 0.0 0.0 0.0 
0.337442 0.0 0.0 0.0 0.0 0.0 0.0 0.0 0.7487425 0.0 0.0 0.97568214 0.72847015 0.014250979 0.0 0.0 
0.18085621 0.0 0.0 0.0 0.0 0.0 0.0 0.0 1.4477127 0.0 0.0 0.9173213 0.18518427 0.096903004 0.0 0.0 
0.07816982 0.28844693 0.0 0.0 0.7435014 0.0 0.0 0.0 0.0 0.0 0.0 0.0 0.0 0.0 0.0 0.07620626 
0.0 0.6050862 1.188642 0.0 0.49055892 0.0 0.0 0.0 0.0 0.24817926 0.0 0.0 0.0 0.0 0.4507844 1.5871519 
0.0 0.3536719 2.277465 0.0 0.0 0.0 0.0 0.0 0.0 0.0 0.0 0.0 0.15400405 0.0 0.8230566 0.0 
0.0 0.0 0.0 0.0 0.0 0.0 3.839908 0.0 0.0 0.0 0.0 0.0 0.063959494 0.0 0.0 0.0 
0.0 0.0 0.0 0.0 0.0 0.0 0.0 0.0 1.8224841 0.0 0.0 0.0 0.0 0.0 0.0 0.0 
0.0 0.0 1.2450908 0.0 0.0 0.40799528 0.0 0.0 1.3710663 0.0 0.0 0.0 0.0 0.0 0.0 0.12668411 
0.0 0.0 2.97193 0.0 0.0 0.0 0.7150838 0.0 0.0 0.0 0.0 0.0 0.6831652 0.0 0.09232779 0.0 
0.0 0.0 0.0 0.0 0.0 0.0 3.656015 0.0 0.0 0.0 0.0 0.23753896 0.61629885 0.0 0.0 0.0 
0.0 0.0 0.0 0.0 0.0 0.0 0.0 0.0 3.641709 0.0 0.0 0.0 0.0 0.0 0.0 0.0 
0.0 0.0 0.0 0.43752694 0.0 0.06881967 0.0 0.0 0.94377995 0.0 0.0754012 0.7441447 0.0 0.0 0.0 0.0 
0.16388144 0.5683069 0.2789212 0.0 0.7283983 0.0 0.0 0.0 0.48425546 0.33508784 0.0 0.0 0.0 0.0 0.25980747 1.3590544 
0.0 0.23823869 1.2891945 0.0 0.0 0.0 0.0 0.0 0.0 0.41480076 0.0 0.0 0.0 0.0 0.0 1.8887304 
0.0 0.0 0.9342287 0.0 0.0 0.0 2.1921546 0.0 0.0 0.0 0.0 0.0 0.15302126 0.0 0.0 0.0 
0.0 0.0 0.0 0.0 0.0 0.0 3.112582 0.0 0.0 0.0 0.0 0.0 0.0 0.0 0.0 0.0 
0.0 0.0 0.0 0.0 0.0 0.0 0.0 0.0 3.7458568 0.0 0.0 0.0 0.0 0.0 0.0 0.0 
0.0 0.0 1.3122228 0.0 0.0 0.5653762 0.0 0.0 0.0 0.0 0.0 0.0 0.0 0.0 0.0 0.16246462 
0.0 0.0 0.3900047 0.0 0.0 0.0 2.0909255 0.0 0.0 0.0 0.0 0.0 0.0 0.0 0.0 0.0 
0.015825536 0.0 0.0 0.0 0.0 0.0 0.90867436 0.014852837 0.114970505 0.0 0.0 0.0 0.0 0.0 0.0 0.0 
0.31871042 0.0 0.0 0.0 0.0 0.0 0.0 0.0 1.415573 0.0 0.0 0.0 0.0 0.0 0.0 0.0 
0.0 0.0 0.0 0.0 0.0 0.0 0.0 0.0 0.0 0.0 0.0 0.278729 0.0 0.0 0.0 0.0 
0.0 0.66006786 0.20396608 0.0 0.30375642 0.0 0.0 0.0 0.0 0.2705013 0.0 0.0 0.0 0.0 0.0 1.6234404 
0.0 1.1400188 0.6343646 0.0 0.0 0.0 0.0 0.0 0.0 0.0 0.0 0.0 0.0 0.0 0.0 0.0 
0.15323623 0.08592254 0.0 0.0 0.0 0.0 1.9586606 1.4811815 0.0 0.0 0.0 0.0 0.0 0.0 0.0 0.0 
0.66540855 0.0 0.0 0.0 0.0 0.0 0.0 0.0 0.18297386 0.0 0.0 0.0 0.0 0.0 0.0 0.0 
0.15503378 0.0 0.0 0.0 0.0 0.0 0.0 0.0 0.73762655 0.0 0.0 0.0 0.0 0.0 0.0 0.0 
0.50918996 0.0 0.0 0.0 0.0 0.9388222 0.0 0.0 0.0 0.0 0.0 0.0 0.0 0.0 0.0 0.0 
1.1780425 0.0 0.0 0.0 0.0 0.0 2.0011723 1.8121401 0.0 0.0 0.0 0.0 0.0 0.0 0.0 0.0 
1.9633274 0.0 0.0 0.0 0.0 0.0 0.0 0.17240508 0.0 0.0 0.0 0.0 0.0 0.0 0.0 0.0 
1.8885384 0.0 0.0 0.0 0.0 0.0 0.0 0.0 0.0 0.0 0.0 0.0 0.0 0.0 0.0 0.0 
1.105174 0.0 0.0 0.0 0.0 0.0 0.0 0.0 0.0 0.0 0.0 0.0 0.59430075 0.0 0.0 0.0 
0.0034185313 0.0 0.0 0.0 0.0 1.6229284 0.0 0.0 0.0 0.0 0.0 0.0 0.0 0.8145376 0.0 0.15129736 
0.75395113 0.0 0.0 0.0 0.0 0.0 0.59745497 1.7749923 0.0 0.0 0.0 0.0 0.0 0.4028359 0.0 0.0 
1.8517264 0.0 0.0 0.0 0.0 0.0 1.250305 1.2864661 0.0 0.0 0.0 0.0 0.0 0.0707675 0.0 0.0 
1.9668264 0.0 0.0 0.0 0.0 0.0 0.0 0.0 0.0 0.15649612 0.0 0.0 0.0 0.0 0.0 0.0 
1.0498484 0.0 0.0 0.0 0.0 0.0 0.0 0.0 0.0 0.0 0.0 0.0 0.0 0.0 0.0 0.8534318 
0.2455736 0.0 0.0 0.0 0.0 0.0 0.0 0.0 0.0 0.005734537 0.0 0.0 1.0548543 0.0 0.0 0.0 
0.36355212 0.0 0.0 0.0 0.0 0.0 1.2244147 1.1413417 0.0 0.0 0.0 0.0 1.4701262 1.870327 0.0 0.0 
0.0 0.0 0.0 0.0 0.0 0.0 0.0 0.0 0.0 0.0 0.6606054 0.0 1.0158542 2.3742692 0.0 0.0 
0.0 0.0 0.0 0.0 0.0 0.0 0.0 0.0 0.0 0.0 0.45764402 0.0 1.7045119 2.8872125 0.0 0.0 
0.0 0.0 0.0 0.0 0.0 0.0 0.0 0.0 0.0 0.0 0.5718412 0.0 2.099088 1.8916286 0.0 0.0 
0.0 0.0 0.0 0.0 0.0 2.2075188 0.0 0.7383971 0.0 0.0 2.1185336 0.0 0.26719427 1.5948957 0.2057888 0.0 
0.0 0.0 0.0 0.0 0.0 0.0 2.0785868 1.0799979 0.0 0.0 3.656837 0.0 0.12698211 3.460314 0.0 0.0 
0.0 0.0 0.0 0.0 0.0 0.0 0.012380375 0.0 0.0 0.0 2.7454884 0.0 0.0 4.064301 0.0 0.0 
0.0 0.0 0.0 0.0 0.0 0.0 0.0 0.0 0.0 0.0 0.9453699 0.0 0.16873887 2.1794221 0.0 0.0 
0.0 0.0 0.0 0.0 0.0 0.0 0.0 0.0 0.0 0.0 1.0438849 0.0 2.5027893 0.0 0.0 0.0 
0.0 0.0 0.0 0.0 0.0 0.0 0.0 0.0 0.0 0.0 0.0 0.0 3.5562067 0.0 0.0 0.0 
0.0 0.0 0.0 0.0 0.0 0.0 0.0 0.68608963 0.0 0.0 0.5009263 0.0 2.9486287 0.02652789 0.0 0.0 
0.0 0.0 0.0 0.0 0.0 0.0 0.0 0.0 1.177127 0.0 2.2628949 0.0 0.8156441 0.20634198 0.7377292 0.0 
0.0 0.013023037 0.0 2.476053 0.0 0.0 0.0 0.0 0.0 0.0 2.130112 0.0 0.7603811 0.51837796 1.2445638 0.0 
0.0 0.6560581 0.0 3.5433378 0.0 0.0 0.0 0.0 0.0 0.0 1.8790364 0.0 0.590757 0.39859506 0.94421226 0.0 
0.0 1.1014656 0.0 0.0 0.0 1.1101041 0.0 0.6938571 0.0 0.0 1.275884 0.0 0.0 0.0 0.14831911 0.0 
0.0 1.1496478 0.0 0.0 0.0 0.0 0.5642883 0.0 0.0 0.0 1.7532037 0.0 0.0 0.0 1.228516 0.0 
0.0 0.52985823 0.0 0.0 0.0 0.0 0.0 0.0 0.0 0.0 1.7994225 0.0 0.0 0.0 2.698726 0.0 
0.0 1.1383013 0.0 0.0 0.0 0.0 0.0 0.0 0.0 0.0 1.2732971 0.0 0.0 0.0 1.8442991 0.0 
0.0 1.460938 0.0 2.056987 0.0 0.0 0.0 0.0 0.0 0.0 1.1665971 0.0 0.74157107 0.0 0.0 0.0 
0.0 0.13194764 0.0 3.4646063 0.0 0.0 0.53570557 0.6097176 0.0 0.0 0.40499032 0.39536354 0.4817083 0.0 0.0 0.0 
0.0 0.0 0.0 3.3029394 0.0 0.0 0.0 0.0 0.90914106 0.0 0.22372732 0.017817467 0.0 0.0 0.0 0.0 
0.0 0.0 0.0 3.3180807 0.0 0.0 0.0 0.0 0.6618672 0.0 0.45962685 0.0 0.0 0.0 0.0 0.0 
0.0 0.45578936 0.0 3.7190173 0.0 0.0 0.0 0.0 0.0 1.2914212 0.18439424 0.0 0.0 0.0 0.47714692 0.4762397 
0.0 0.0 0.0 3.0044131 0.29548457 0.0 0.0 0.0 0.0 1.3169653 0.1957804 0.0 0.0 0.0 1.0195568 1.5935057 
0.0 1.3690027 0.0 1.3979883 0.0 0.0 0.0 0.17878786 0.0 0.4455558 0.0 0.033866912 0.0 0.0 0.0 0.0 
0.0 1.7734003 0.0 1.4909017 0.0 0.0 0.0 0.0 0.0 1.6382306 0.0 0.0 0.0 0.0 0.0 0.0 
0.0 1.1489794 0.0 0.0 0.0 0.6199042 0.0 0.0 0.0 2.3346987 0.0 0.0 0.0 0.0 0.88318807 0.0 
0.0 0.12136212 0.0 0.7275146 0.0 0.0 0.0 0.0 0.0 2.6320217 0.0 0.0 0.0 0.0 1.370146 0.0 
0.0 0.0 0.0 2.626207 0.0 0.0 0.8017768 0.0 0.0 2.041439 0.0 0.0 0.0 0.0 0.0 0.0 
0.0 0.0 0.0 1.9140253 0.0 0.0 0.0 0.0 0.0 1.7739936 0.0 0.0 0.0 0.0 0.0 0.0 
0.0 0.0 0.0 1.5253764 0.0 0.0 0.0 0.0 1.4330782 1.2012682 0.0 0.0 0.0 0.0 0.0 0.0 
0.0 0.0 0.0 0.8860728 0.0 0.5816539 0.0 0.0 0.0 0.82327855 0.0 0.0 0.0 0.0 0.0 0.04503147 
0.0 0.0 0.0 0.9762335 0.41474792 0.2881086 0.0 0.0 0.0 0.8931311 0.0 0.0 0.0 0.0 0.0 1.5071952 
0.0 0.0 0.0 0.41650835 0.42458546 0.30290058 0.0 0.0 0.0 0.3345363 0.0 0.0 0.0 0.0 0.0 0.95092225 
0.4127681 0.39499426 0.0 0.7716359 0.0 0.0 0.63369066 0.0 0.0 1.1253653 0.0 0.0 0.0 0.0 0.0 0.0 
0.0 0.28945124 0.0 0.0 0.0 0.0 0.043738328 0.0 0.2224989 2.161435 0.3448255 0.0 0.0 0.0 0.0 0.0 
0.0 0.0 0.0 0.0 0.15547985 1.4189439 0.0 0.0 0.0 2.1049283 0.55079406 0.0 0.0 0.0 0.0 0.0 
0.0 0.0 0.0 0.0 0.0 1.4227974 0.26950943 0.0 0.0 1.1256331 0.0 0.0 0.0 0.0 0.0 0.0 
0.0 0.0 0.0 0.55921525 0.0 0.0 3.2361517 0.0 0.0 0.0 0.39766046 0.0 0.0 0.20543349 0.0 0.0 
0.0 0.0 0.0 0.0 0.0 0.0 0.0 0.0 1.9037925 0.0 0.0 0.0 0.0 0.0 0.0 0.0 
0.0 0.0 0.0 0.0 0.0 0.0 0.0 0.0 1.7691047 0.0 0.0 0.0 0.0 0.0 0.0 0.7378723 
0.0 0.0 0.0 0.0 0.0 0.032620594 0.0 0.0 0.0 0.0 0.0 0.0 0.0 0.0 0.0 0.48072487 
0.0 0.024268208 0.0 0.16682163 0.0586259 0.0 0.024844537 0.0 0.0 0.0 0.0 0.0 0.018293865 0.0 0.0 0.30386466 
0.0 3.5817502e-05 0.0 0.0 0.0 0.0 0.0 0.0 0.0 0.0 0.0 0.0 0.0 0.0 0.0 0.017235428 

