0.0 0.0 0.0 0.0 0.0 0.0 0.033182293 0.0 0.0 0.0 0.0 0.0 0.0 0.0 0.0 0.0 
0.0 0.0 0.0 0.0 0.19311622 0.008929849 0.23855919 0.0 0.0 0.0 0.0 0.0 0.0 0.0 0.0 0.0 
0.35091442 0.12721705 0.051846977 0.0 0.5951717 0.22853959 0.0 0.0 0.0 0.0 0.0 0.0 0.0 0.0 0.0 0.0 
0.7403222 0.4422878 2.07469 0.0 0.19030109 0.058583543 0.0 0.0 0.0 0.011913691 0.0 0.0 0.0 0.0 0.52793556 1.1805322 
1.2290012 0.46405274 2.9948108 0.0 0.0 0.0 0.0 0.0 0.0 0.1339948 0.0 0.0 0.0 0.0 0.33253378 1.8344823 
1.5625775 0.0 0.0 0.0 0.0 0.0 2.3040674 0.0 0.0 0.18625835 0.0 0.45121643 0.32004148 0.0 0.0 0.0 
1.0959806 0.0 0.0 0.0 0.0 0.0 0.0 0.0 0.0 0.0 0.0 2.8833325 0.6897715 0.0 0.0 0.0 
0.84188724 0.0 0.0 0.0 0.0 0.0 0.0 0.0 0.022383198 0.0 0.0 1.4370048 0.49510282 0.0 0.0 0.0 
0.4444109 0.0 0.8232107 0.0 0.0 0.4044274 0.0 0.0 0.0 0.0 0.0 0.0 0.0 0.31358564 0.0 0.0 
0.0 0.0 0.0 0.0 0.0 0.071921155 0.0 0.0 0.0 0.0 0.0 0.0 0.0 0.05905205 0.0 0.0 
0.0 0.0 0.0 0.0 0.0034343004 0.0 0.2203629 0.0 0.0 0.0 0.0 0.0 0.0 0.0 0.0 0.0 
0.20024158 0.07389385 0.0 0.0 0.6162115 0.0 0.0 0.0 0.0 0.0 0.0 0.0 0.0 0.0 0.0 0.0 
0.18507804 0.22994006 0.56148535 0.0 0.63860583 0.15184426 0.0 0.0 0.074469045 0.48277032 0.0 0.0 0.0 0.0 0.23407371 1.071225 
0.0 0.0 2.3669486 0.0 0.0 0.5694527 0.0 0.0 0.0 0.471691 0.0 0.0 0.0 0.0 1.4116915 1.5941741 
0.66107106 0.0 2.7881353 0.0 0.0 0.0 0.5260091 0.0 0.0 0.0 0.0 0.0 0.029779017 0.0 1.698028 0.0 
1.3506595 0.0 0.0 0.0 0.0 0.0 2.9969435 0.6990864 0.0 0.0 0.0 0.0 0.69378877 0.0 0.0 0.0 
0.81789315 0.0 0.0 0.0 0.0 0.0 0.0 0.0 0.80293065 0.0 0.0 2.4395645 0.97385734 0.0 0.0 0.0 
0.7880665 0.0 0.0 0.0 0.0 0.0 0.0 0.0 1.1248677 0.0 0.0 2.6007855 1.1316106 0.0 0.0 0.0 
0.25704706 0.0 1.1338562 0.0 0.0 0.06414664 0.0 0.0 0.0 0.0 0.0 0.27421898 0.11393875 0.11095812 0.0 0.0 
0.0 0.0 0.12648584 0.0 0.0 0.11119759 0.0 0.0 0.0 0.0 0.0 0.0 0.0 0.0710694 0.0 0.0 
0.09014118 0.019771677 0.0 0.0 0.34949908 0.030741215 0.054580547 0.0 0.0 0.0 0.0 0.0 0.0 0.0 0.0 0.0 
0.28773975 0.38322926 0.22829378 0.0 0.74556905 0.0 0.0 0.0 0.0 0.1659724 0.0 0.0 0.0 0.0 0.0 0.6377488 
0.0 0.0 0.7845389 0.0 0.8196302 0.0 0.0 0.0 0.0 0.702662 0.0 0.0 0.0 0.0 0.18623166 2.4778774 
0.0 0.0 1.3642422 0.0 0.0 0.6324309 0.0 0.0 0.0 0.0 0.0 0.0 0.0 0.0 0.6543223 0.0 
0.0 0.0 2.5359907 0.0 0.0 0.0 1.0850172 1.1335299 0.0 0.0 0.0 0.0 0.36749345 0.0 1.7018977 0.0 
0.4318001 0.0 0.0 0.0 0.0 0.0 2.5934014 0.76142496 0.0 0.0 0.0 0.0 0.89741683 0.0 0.08783345 0.0 
0.0143140815 0.0 0.0 0.0 0.0 0.0 0.0 0.0 3.040958 0.0 0.0 1.1057706 0.3418386 0.0 0.0 0.0 
0.0 0.0 0.0 0.0 0.0 0.0 0.0 0.0 1.6428243 0.0 0.0 2.845407 1.1579913 0.0 0.0 0.0 
0.0 0.0 0.52756923 0.17940094 0.0 0.22335702 0.0 0.0 0.0 0.0 0.0 1.0291097 0.07575409 0.0 0.0 0.0 
0.0 0.0 0.046241973 0.39943627 0.0 0.3399756 0.0 0.0 0.0 0.0 0.09374273 0.0 0.0 0.05130948 0.0 0.0 
0.2939716 0.0 0.0 0.0 0.72726995 0.092114985 0.0 0.0 0.0 0.0 0.0 0.0 0.0 0.0 0.0 0.0 
0.0 0.33125603 1.1911447 0.0 0.8792285 0.0 0.0 0.0 0.5289307 0.69205326 0.0 0.0 0.0 0.0 0.6092321 2.0257807 
0.0 0.0 0.47425818 0.0 0.0 0.0 0.0 0.0 0.0 0.023277733 0.0 0.0 0.0 0.0 0.0 2.0755444 
0.0 0.0 0.0 0.0 0.0 0.6024616 0.2760298 0.0 0.0 0.0 0.0 0.0 0.12413913 0.0 0.0 0.0 
0.0 0.0 1.5956947 0.0 0.0 0.0 0.20500049 1.7870601 0.0 0.0 0.0 0.0 0.18771906 0.0 0.001582548 0.0 
0.0 0.0 0.0 0.0 0.0 0.0 1.5654732 0.0 1.737899 0.0 0.0 0.0 0.01108776 0.0 0.0 0.0 
0.0 0.0 0.0 0.0 0.0 0.0 0.0 0.0 2.7479494 0.0 0.0 0.0 0.0 0.0 0.0 0.0 
0.0 0.0 0.0 0.0 0.0 0.0 0.0 0.0 0.96554095 0.0 0.0 2.162643 0.29112625 0.0 0.0 0.0 
0.0 0.0 0.0 0.0 0.0 0.0 0.0 0.0 0.0 0.0 0.0 1.3520187 0.0 0.0 0.0 0.0 
0.012929972 0.06415806 0.0 0.5472934 0.9015749 0.24383017 0.0 0.0 0.0 0.0172467 0.0 0.2207134 0.0 0.0 0.0 0.0 
0.09301475 0.27336034 0.0 0.0 0.9807689 0.33793718 0.0 0.0 0.0 0.0 0.0 0.0 0.0 0.0 0.0 0.057090875 
0.0 0.5945949 0.6366978 0.0 0.15054789 0.0 0.0 0.0 0.0 0.10126375 0.0 0.0 0.0 0.0 0.0 1.7577851 
0.0 0.8161564 0.0 0.0 0.0 0.0 0.074987106 0.17990437 0.0 0.0 0.0 0.0 0.0 0.0 0.0 0.0 
0.0 0.011016386 0.0 0.0 0.0 0.0 0.0 1.7127719 0.0 0.0 0.0 0.46663073 0.0 0.0 0.0 0.0 
0.0 0.0 0.0 0.0 0.0 0.0 0.0 0.966723 0.0 0.0 0.0 0.0 0.0 0.0 0.0 0.0 
0.4453574 0.0 0.0 0.0 0.0 0.0 0.0 0.0 0.0 0.0 0.0 0.0 0.0 0.0 0.0 0.0 
0.5404722 0.0 0.0 0.0 0.0 0.0 0.0 0.0 0.0 0.0 0.0 0.0 0.0 0.0 0.0 0.0 
0.9316274 0.0 0.0 0.0 0.0 0.0 0.0 0.0 0.0 0.0 0.0 0.12976794 0.0 0.0 0.0 0.0 
1.1486987 0.0 0.0 0.0 0.0 0.0 0.0 0.0 0.0 0.0 0.0 0.76831913 0.0 0.0 0.0 0.0 
1.098257 0.0 0.0 0.0 0.0 0.0 0.0 0.0 0.0 0.2983295 0.0 0.35287273 0.0 0.0 0.0 0.0 
0.0 0.0 0.0 0.0 0.75642663 1.5743022 0.0 0.0 0.0 0.03978714 0.14866865 0.0 0.0 0.0 0.0 0.5913686 
0.0003187284 0.0 0.11794016 0.0 0.0 1.3200989 0.0 0.39018112 0.0 0.0 0.0 0.0 0.0 0.37408304 0.0 0.0 
0.9186552 0.0 0.0 0.0 0.0 0.0 1.5812238 2.143573 0.0 0.0 0.0 0.0 0.0 0.0 0.0 0.0 
0.6064445 0.0 0.0 0.0 0.0 0.0 0.0 1.1015022 0.0 0.7085449 0.0 0.0 0.0 0.0 0.0 0.0 
0.65282285 0.0 0.0 0.0 0.0 0.0 0.0 0.0 0.0 0.32309222 0.0 0.0 0.0 0.0 0.0 0.0 
1.5134304 0.0 0.20589787 0.0 0.0 0.0 0.0 0.0 0.0 0.0 0.0 0.0 0.15071642 0.041074775 0.0 0.0 
1.0981144 0.0 0.0 0.0 0.0 0.0 0.0 0.0 0.0 0.0 0.0 0.0 0.12138373 0.8535074 0.0 0.0 
1.1233001 0.0 0.0 0.0 0.0 0.0 0.0 0.0 0.0 0.0 0.0 0.0 0.5001439 2.435033 0.0 0.0 
0.6520771 0.0 0.0 0.0 0.0 0.0 0.0 0.0 0.0 0.0 0.0 0.0 1.347788 1.6279377 0.0 0.0 
0.8982101 0.0 0.0 0.0 0.0 0.0 0.0 0.0 0.0 0.0 0.0 0.2563325 1.6167684 0.6100667 0.0 0.0 
0.0 0.0 0.0 0.0 0.17118257 1.3772943 0.0 0.0 0.0 0.0 1.9445258 0.0 0.0 0.0 0.0 0.0 
0.0 0.0 0.0 0.0 0.0 2.2958622 0.0 0.95918757 0.0 0.0 2.325448 0.0 0.21243785 1.9235474 0.0 0.0 
0.0 0.0 0.0 0.0 0.0 0.0 2.7496517 1.0483388 0.0 0.0 3.9334648 0.0 0.0 3.0211165 0.0 0.0 
0.0 0.0 0.0 0.0 0.0 0.0 0.0 0.0 0.0 0.0 2.9385128 0.0 0.0 2.4578528 0.0 0.0 
0.0 0.0 0.07690385 0.0 0.0 0.0 0.0 0.0 0.0 0.0 0.0 0.0 0.29192168 1.1238163 0.0 0.0 
0.0 0.0 0.11985521 0.0 0.0 0.0 0.7287614 0.0 0.0 0.0 0.24147314 0.0 3.1996388 0.4185297 0.0 0.0 
0.0 0.0 0.0 0.0 0.0 0.0 0.0 0.0 0.0 0.0 0.2368969 0.0 3.1488361 0.39125803 0.0 0.0 
0.0 0.0 0.0 0.0 0.0 0.0 0.0 0.0 0.0 0.0 1.3075807 0.0 1.7573283 2.4788375 0.0298156 0.0 
0.0 0.0 0.0 0.0 0.0 0.0 0.0 0.0 0.0 0.0 1.9957106 0.0 1.2061708 2.024803 0.0 0.0 
0.0 0.0 0.0 0.740592 0.0 0.0 0.0 0.0 0.46083677 0.0 1.5563688 0.0 1.1295327 1.026877 0.0 0.0 
0.0 0.56803745 0.0 0.0 0.0 0.3754599 0.0 0.123100966 0.0 0.0 1.6787171 0.304087 0.0 0.0 0.0 0.0 
0.0 1.2297388 0.0 0.0 0.0 1.2700353 0.0 0.5841575 0.0 0.0 1.4609178 0.0 0.0 0.0 0.0 0.0 
0.0 1.2759855 0.0 0.0 0.0 0.0 0.4349932 0.0 0.0 0.0 2.0004272 0.0 0.0 0.0 0.7931631 0.0 
0.0 0.865017 0.0 0.0 0.0 0.0 0.0 0.0 0.0 0.0 1.9021877 0.0 0.0 0.0 1.2777599 0.0 
0.0 2.0380244 0.0 0.8800457 0.0 0.0 0.0 0.0 0.0 0.0 0.03304641 0.0 0.0 0.0 0.5172497 0.0 
0.0 1.7252588 0.0 1.9910376 0.0 0.0 0.91037375 0.0 0.0 0.0 0.28786796 0.0 1.2319808 0.0 0.0 0.0 
0.0 0.0 0.0 2.1739614 0.0 0.0 0.0 0.0 0.0 0.0 0.0 0.0 0.68615055 0.0 0.0 0.0 
0.0 0.0 0.0 1.9220271 0.0 0.0 0.0 0.0 0.80265534 0.0 0.0 0.0 0.0 0.0 0.75603586 0.0 
0.0 0.0 0.0 3.462506 0.0 0.0 0.0 0.0 0.0 0.0 0.7366714 0.0 0.0 0.0 1.2221382 0.0 
0.0 0.11870455 0.0 3.211955 0.052259542 0.0 0.0 0.0 0.0 0.0 1.0195993 0.0 0.0 0.0 0.8974256 1.7041774 
0.0 0.90252197 0.0 0.39854115 0.0 0.0 0.0 0.4049123 0.0 0.0 0.68068653 0.5364734 0.0 0.0 0.0 0.0 
0.0 1.6097566 0.0 1.9056946 0.0 0.0 0.0 0.0 0.0 0.75746804 0.0971057 0.0 0.0 0.0 0.0 0.0 
0.0 1.7528578 0.0 0.97311985 0.0 0.0 0.0 0.0 0.0 1.8552841 0.17521513 0.0 0.0 0.0 0.0 0.0 
0.0 0.81424546 0.0 0.0 0.0 1.0881276 0.0 0.0 0.0 2.5243006 0.0076477192 0.0 0.0 0.0 0.70057815 0.0 
0.0 0.0 0.0 1.1003747 0.0 0.0 0.0 0.0 0.0 2.5529726 0.0 0.0 0.0 0.0 0.49482208 0.0 
0.0 0.0 0.0 1.5149006 0.0 0.0 2.0014975 0.0 0.0 1.9044071 0.0 0.0 0.0 0.0 0.0 0.0 
0.0 0.0 0.0 0.44281095 0.0 0.0 0.0 0.0 0.061248917 1.2501377 0.0 0.0 0.0 0.0 0.0 0.0 
0.0 0.0 0.0 0.0 0.0 0.026082836 0.0 0.0 0.87223405 0.8107814 0.0 0.0 0.0 0.0 0.0 0.0 
0.0 0.0 0.0 0.42871147 0.0 0.045837566 0.0 0.0 0.0 1.0309422 0.0 0.0 0.0 0.0 0.24091156 0.13864596 
0.0 0.0 0.0 0.7945404 0.47220504 0.07762264 0.0 0.0 0.0 0.9689143 0.0 0.0 0.0 0.0 0.63207394 1.4267311 
0.46181616 0.33115548 0.0 0.6132239 0.0 0.0 0.44142398 0.15315083 0.0 0.506536 0.08502281 0.0 0.0 0.0 0.0 0.0 
0.27945444 0.32222435 0.0 0.48523623 0.0 0.0 0.6004265 0.0 0.03369033 1.4999129 0.039473467 0.0 0.0 0.0 0.0 0.0 
0.0 0.0 0.0 0.0 0.3261678 0.0 0.0 0.0 0.22701198 2.1767402 0.5865198 0.0 0.0 0.0 0.0 0.0 
0.0 0.0 0.0 0.0 0.0 2.21621 0.0 0.0 0.0 1.8111209 0.6193035 0.0 0.0 0.0 0.0 0.0 
0.0 0.0 0.28381595 0.0 0.0 0.73155814 1.6597393 0.0 0.0 0.7360006 0.15008028 0.0 0.0 0.36410257 0.0 0.0 
0.0 0.0 0.0 0.0 0.0 0.0 3.3457232 0.0 0.0 0.0 0.5556254 0.0 0.0 0.69480485 0.0 0.0 
0.0 0.0 0.0 0.0 0.0 0.0 0.0 0.0 2.6503553 0.0 0.08384529 0.0 0.0 0.0 0.0 0.0 
0.0 0.0 0.0 0.0 0.0 0.0 0.0 0.0 0.9352714 0.0 0.0 0.0 0.16525795 0.0 0.0 0.3228278 
0.0 0.0 0.0 0.0 0.0 0.0 0.0 0.0 0.0 0.0 0.0 0.17699286 0.3119688 0.0 0.0 0.27884454 
0.0 0.00041199732 0.0 0.0 0.0 0.0 0.061438352 0.0 0.0 0.0 0.0 0.0 0.0 0.0 0.0 0.17516518 

