0.0 0.0 0.0 0.0 0.0 0.05605334 0.23045744 0.0 0.0 0.0 0.0 0.0 0.0 0.0 0.0 0.0 
0.33994707 0.08817854 0.0 0.0 0.45155275 0.23833239 0.0 0.0 0.0 0.0 0.0 0.0 0.0 0.21123782 0.0 0.0 
1.1369357 0.50864786 0.98496974 0.0 0.0 0.24735647 0.0 0.0 0.0 0.0 0.0 0.0 0.0 0.44773564 0.0 0.80889606 
1.7650164 1.2737931 1.5596064 0.0 0.0 0.0 0.0 0.0 0.0 0.2892198 0.0 0.0 0.0 0.0 0.0 1.4419341 
2.413344 1.3746636 0.2965997 0.0 0.0 0.0 0.29233763 0.0 0.0 0.34361932 0.0 0.0 0.0 0.0 0.0 0.48954573 
2.193452 0.0 0.0 0.0 0.0 0.0 0.053286247 0.0 0.0 0.1790592 0.0 1.0615793 0.047881268 0.0 0.0 0.0 
1.5057019 0.0 0.0 0.0 0.0 0.0 0.0 0.0 0.0 0.5930642 0.0 2.3162644 0.47115755 0.0 0.0 0.0 
0.877978 0.0 0.0 0.0 0.38060117 0.77934533 0.0 0.0 0.0 0.09394318 0.0 0.8408209 0.1196018 0.0 0.0 0.0 
0.10503186 0.0 0.20896691 0.18878543 0.50035214 0.9418772 0.0 0.0 0.0 0.0 0.0 0.0 0.0 0.8257247 0.0 0.0 
0.0 0.0 0.0 0.28020468 0.060624495 0.29667628 0.0 0.0 0.0 0.0 0.24332419 0.0 0.0 0.22909105 0.0 0.0 
0.11412713 0.0 0.0 0.0 0.13806006 0.20620081 0.22576445 0.0 0.0 0.0 0.0 0.0 0.0 0.0 0.0 0.0 
0.39307562 0.0 0.0 0.0 0.7024311 0.48103315 0.0 0.0 0.0 0.0 0.0 0.0 0.0 0.21297777 0.0 0.0 
0.27649006 0.0 1.7003793 0.0 0.0 0.0 0.0 0.0 0.0 0.6827029 0.0 0.0 0.0 0.0 1.0792503 2.2055836 
1.2098466 0.0 1.6586926 0.0 0.0 0.0 0.21143845 0.0 0.0 0.028091129 0.0 0.0 0.0 0.57025325 0.64651924 0.909499 
2.5335891 0.0 0.0 0.0 0.0 0.0 0.8643145 0.0 0.0 0.0 0.0 0.0 0.0019167364 1.3428693 0.0 0.0 
2.3632123 0.0 0.0 0.0 0.0 0.0 0.0 0.13199459 0.0 0.0 0.0 0.0 0.6289166 0.12971449 0.0 0.0 
1.085248 0.0 0.0 0.0 0.0 0.0 0.0 0.0 0.0 0.0 0.0 2.527935 1.0900242 0.0 0.0 0.0 
1.1269889 0.0 0.0 0.0 0.0 0.0 0.0 0.0 0.0 0.0 0.0 2.80848 1.6657664 0.0 0.0 0.0 
0.73683923 0.0 0.8263476 0.0 0.0 0.40197343 0.0 0.0 0.0 0.0 0.0 0.0 0.185507 0.41458312 0.0 0.0 
0.0 0.0 0.5431234 0.0 0.0 0.4804991 0.0 0.0 0.0 0.0 0.0 0.0 0.0 0.25556868 0.0 0.0 
0.084484026 0.0 0.0 0.0 0.27755168 0.24644375 0.0 0.0 0.0 0.0 0.0 0.0 0.0 0.0 0.0 0.0 
0.0 0.0 0.0 0.0 0.9583497 1.0638828 0.0 0.0 0.0 0.0 0.0 0.0 0.0 0.0 0.042063177 0.019560497 
0.0 0.0 1.8460233 0.0 0.0 0.0 0.0 0.0 0.0 0.0 0.0 0.0 0.0 0.0 1.0111712 1.1065761 
0.0 0.0 0.22972327 0.0 0.0 0.0 0.86971605 0.0 0.0 0.0 0.0 0.0 1.0027645 0.0 1.6405109 0.0 
0.0 0.0 0.0 0.0 0.0 0.0 0.11927517 0.0 0.0 0.0 0.0 0.0 0.5213264 0.0 2.2486153 0.0 
1.3236294 0.0 0.0 0.0 0.0 0.0 0.0 0.0 0.0 0.0 0.0 0.0 1.3543568 0.22336689 0.40147936 0.0 
0.0 0.0 0.0 0.0 0.0 0.0 0.0 0.0 0.0 0.0 0.0 0.382907 0.41917896 0.0 0.0 0.0 
0.0 0.0 0.0 0.0 0.0 0.0 0.0 0.0 0.0 0.0 0.0 4.2235684 1.8878273 0.0 0.0 0.0 
0.18091865 0.0 0.86538804 0.0 0.0 0.0 0.0 0.0 0.0 0.0 0.0 1.4886649 0.69107354 0.16112787 0.0 0.0 
0.15967444 0.0 0.92753947 0.0 0.0 0.32864136 0.0 0.0 0.0 0.0 0.0 0.0 0.0 0.08155144 0.0 0.0 
0.0 0.0 0.0 0.0 0.46806955 0.0 0.0 0.0 0.08248882 0.0 0.5764558 0.0 0.0 0.0 0.0 0.0 
0.0 0.0 0.0 0.0 0.80848473 1.8472207 0.0 0.0 0.0 0.0 0.31152952 0.0 0.0 0.0 0.05792883 0.07860456 
0.0 0.0 0.53852844 0.0 0.0 0.3162554 0.0 0.027322501 0.0 0.0 0.0 0.0 0.0 0.0 0.0 0.0 
0.0 0.0 0.0 0.0 0.0 0.0 1.5552444 0.36742556 0.0 0.0 0.0 0.0 0.07168923 0.0 0.0 0.0 
0.0 0.0 0.0 0.0 0.0 0.0 0.0 0.0 0.0 0.0 0.0 0.0 0.0 0.0 1.6926185 0.0 
0.0 0.0 0.19762711 0.0 0.0 0.0 0.0 0.0 0.9913517 0.0 0.0 0.0 0.5625818 0.0 2.5820458 0.0 
0.0 0.0 0.0 0.0 0.0 0.0 0.0 0.0 0.0 0.0 0.0 0.0 0.18396357 0.0 0.0 0.0 
0.0 0.0 0.0 0.0 0.0 0.0 0.0 0.0 0.016250651 0.0 0.0 2.3974748 0.3028323 0.0 0.0 0.0 
0.0 0.0 0.0 0.0 0.0 0.0 0.0 0.0 0.0 0.0 0.0 1.8976753 0.4572366 0.0 0.0 0.0 
0.0 0.0 0.87759084 0.0 0.0 0.10804206 0.0 0.0 0.0 0.0 0.0 0.09406307 0.0 0.0 0.0 0.0 
0.0 0.0 0.0 0.0 0.44393593 0.0 0.0 0.0 0.25100476 0.0 1.0357144 0.015952364 0.0 0.0 0.0 0.0 
0.0 0.0 0.0 0.0 0.24327129 1.8886182 0.0 0.0 0.0 0.0 1.8072646 0.0 0.0 0.0 0.0 0.0 
0.0 0.0 0.0 0.0 0.0 2.0280411 0.39110184 0.40851313 0.0 0.0 1.4706231 0.0 0.0 0.68124825 0.0 0.0 
0.0 0.0 0.0 0.0 0.0 0.0 2.1930945 0.2100422 0.0 0.0 1.6666203 0.0 0.0 0.16270602 0.0 0.0 
0.0 0.0 0.0 0.0 0.0 0.0 0.0 0.0 1.7748939 0.0 0.0 0.0 0.0 0.0 0.0 0.0 
0.0 0.0 1.9240106 0.0 0.0 0.0 0.0 0.0 0.0 0.0 0.0 0.0 0.0 0.0 1.1126235 0.0 
0.0 0.0 0.0 0.0 0.0 0.0 3.1948743 0.0 0.0 0.0 0.0 0.0 0.65344924 0.0 0.0 0.0 
0.0 0.0 0.0 0.0 0.0 0.0 0.0 0.0 1.4326844 0.0 0.0 0.21422637 0.0 0.0 0.0 0.0 
0.0 0.0 0.0 0.0 0.0 0.10033916 0.0 0.0 0.0 0.0 0.0 1.4352036 0.1543418 0.0 0.0 0.0 
0.0 0.0 0.30756578 0.0 0.0 0.0 0.0 0.0 0.0 0.0 0.0 0.32253242 0.09099269 0.0 0.0 0.0 
0.0 0.047220003 0.0 0.0 0.14856634 0.0 0.0 0.035263047 0.0 0.0 0.843674 0.27188897 0.0 0.0 0.0 0.0 
0.0 0.50580436 0.0 0.0 0.0 0.8902781 0.0 0.011480302 0.0 0.0 1.5003841 0.32806784 0.0 0.0 0.0 0.0 
0.0 0.38442546 0.0 0.88895947 0.0 1.7669008 0.4495032 0.0 0.0 0.0 1.0765107 0.0 0.0 0.0 0.0 0.0 
0.0 0.0 0.0 0.11995146 0.0 0.0 0.5586533 0.0 0.36775836 0.0 1.6004897 0.0 0.0 0.0 0.0 0.0 
0.0 0.0 0.0 0.0 0.0 0.51997536 0.0 0.0 1.3552173 0.0 0.0 0.0 0.0 0.0 0.0 1.0362561 
0.0 0.0 1.902156 0.111077085 0.0 0.0 0.79590064 0.0 0.0 0.0 0.0 0.0 0.0 0.0 0.712665 0.0 
0.0 0.0 0.0 0.0 0.0 0.0 4.4693437 0.0 0.0 0.0 0.0 0.0 0.49685925 0.0 0.0 0.0 
0.0 0.0 0.0 0.0 0.0 0.0 0.0 0.0 2.8844047 0.0 0.0 0.0 0.08010425 0.0 0.0 0.0 
0.0 0.0 0.0 0.0 0.0 0.2684599 0.0 0.0 0.07360925 0.0 0.0 0.94354165 0.13343798 0.0 0.0 0.0 
0.0 0.0 0.0 0.0 0.0 0.0 0.0 0.0 0.0 0.0 0.0 0.3901439 0.2340088 0.0 0.0 0.0 
0.0 0.18797521 0.0 0.0 0.0 0.0 0.0 0.23337339 0.0 0.0 0.47454035 0.3901253 0.0 0.0 0.0 0.0 
0.0 0.8474735 0.0 0.5716421 0.0 0.19108766 0.0 0.083202705 0.0 0.0 0.772757 0.35544002 0.0 0.0 0.0 0.0 
0.0 1.0057882 0.0 1.0114702 0.0 0.5276198 0.42160276 0.0 0.0 0.66986954 0.43127754 0.0 0.0 0.0 0.0 0.0 
0.0 0.39671168 0.0 0.0 0.97128177 0.3164503 0.0 0.0 0.9182773 1.0579927 0.19932519 0.0 0.0 0.0 0.0 0.0 
0.0 0.0 1.5329623 0.0 0.0 1.4657707 0.0 0.0 0.0 0.1872678 0.0 0.0 0.0 0.0 0.47020286 2.1761377 
0.0 0.0 1.4835484 0.32546943 0.0 0.0 2.7808716 0.0 0.0 0.0 0.0 0.0 0.0 0.0 0.61605346 0.0 
0.0 0.0 0.0 0.0 0.0 0.0 3.478182 0.0 0.0 0.0 0.0 0.0 0.34193248 0.0 0.0 0.0 
0.0 0.0 0.0 0.0 0.0 0.0 0.0 0.0 3.4638906 0.0 0.0 0.1111113 0.0 0.0 0.0 0.0 
0.0 0.0 0.0 0.0 0.0 0.41881168 0.0 0.0 0.0 0.0 0.14358774 0.5439731 0.0 0.038162597 0.0 0.0 
0.0 0.0 0.0 0.2578481 0.0 0.0 0.0 0.0 0.0 0.0 0.0 0.3184054 0.0958458 0.0 0.0 0.0 
0.13131416 0.09652793 0.0 0.0047706403 0.0 0.0 0.16979831 0.14731385 0.0 0.0 0.19785309 0.0 0.0 0.0 0.0 0.0 
0.35256925 0.3449363 0.0 0.5625805 0.0 0.07257587 0.30710712 0.0 0.0 0.21402782 0.09687357 0.0 0.0 0.0 0.0 0.0 
0.0 0.23767488 0.0 0.0 0.6451381 0.0 0.0 0.0 0.040590633 0.6931357 0.0 0.0 0.0 0.0 0.0 0.0 
0.0 0.40762258 0.0 0.0 1.3588785 0.7705138 0.0 0.0 0.0 0.63991386 0.0 0.0 0.0 0.0 0.0 0.10230676 
0.0 0.073753975 3.3542218 0.0 0.0 0.6549572 0.0 0.0 0.0 0.017124675 0.0 0.0 0.0 0.0 0.0 0.2093483 
0.0 0.0 1.1461253 0.0 0.0 0.0 4.471499 0.27917123 0.0 0.0 0.0 0.0 0.0 0.0 0.0 0.0 
0.0 0.0 0.0 0.0 0.0 0.0 2.154037 0.0 1.5061227 0.0 0.0 0.0 0.0 0.0 0.0 0.0 
0.0 0.0 0.0 0.0 0.0 0.0 0.0 0.0 3.037447 0.0 0.0 0.057994902 0.0 0.0 0.0 0.0 
0.0 0.0 0.0 0.0 0.0 0.3899622 0.0 0.0 0.0 0.0 0.0 0.36573935 0.0 0.0 0.0 0.0 
0.0 0.0 0.0 0.29258567 0.0 0.0 0.0 0.0 0.0 0.0 0.0 0.08219233 0.0018345192 0.0 0.0 0.01784601 
0.0 0.018940773 0.0 0.029813707 0.0 0.0 0.030944357 0.0 0.0 0.0 0.011497062 0.0 0.0 0.0 0.0 0.0 
0.10254483 0.0 0.0 0.0 0.0 0.088718295 0.115171075 0.0 0.0 0.0 0.097054176 0.0 0.0 0.0 0.0 0.0 
0.0 0.0 0.0 0.0 0.7638499 0.0 0.0 0.0 0.0 0.0 0.21865204 0.13126497 0.0 0.0 0.0 0.0 
0.0 0.00431983 0.0 0.0 0.77391136 1.4370856 0.0 0.0 0.0 0.0033230446 0.0 0.0 0.0 0.0 0.0 0.008604596 
0.0 0.0 3.178299 0.0 0.0 0.0 0.0 0.48880804 0.0 0.19393113 0.0 0.0 0.0 0.0 0.0 0.0 
0.0 0.0 0.09877792 0.0 0.0 0.0 4.664255 1.3805088 0.0 0.0 0.0 0.0 0.0 0.0 0.0 0.0 
0.0 0.0 0.0 0.0 0.0 0.0 0.3484979 0.0 1.8015976 0.0 0.0 0.0 0.0 0.0 0.0 0.0 
0.0 0.0 0.0 0.0 0.0 0.11294861 0.0 0.0 2.112207 0.0 0.0 0.0028892457 0.0 0.0 0.0 0.0 
0.0 0.0 0.0 0.0 0.0 0.2924174 0.0 0.0 0.0 0.0 0.0 0.28761432 0.0 0.0 0.0 0.0 
0.0 0.0 0.0 0.08638423 0.0 0.0 0.0 0.0 0.0 0.0 0.0 0.0 0.06355162 0.0 0.0 0.0 
0.0 0.0 0.0 0.0 0.0 0.0 0.0 0.0 0.0 0.0 0.0 0.0 0.0 0.0 0.0 0.0 
0.0 0.0 0.0 0.0 0.00021154433 0.0 0.0 0.0 0.03503232 0.0 0.23032759 0.0 0.0 0.0 0.0 0.0 
0.0 0.0 0.0 0.0 0.57849777 0.0 0.0 0.0 0.0 0.0 1.0552597 0.0 0.0 0.0 0.0 0.0 
0.0 0.0 0.0 0.0 0.042285882 2.4662156 0.0 0.0 0.0 0.0 1.1537288 0.0 0.0 0.03303116 0.0 0.0 
0.0 0.0 2.414302 0.0 0.0 0.5417662 0.6958378 1.3437046 0.0 0.0 0.115676925 0.0 0.0 0.9249646 0.0 0.0 
0.0 0.0 0.0 0.0 0.0 0.0 4.060711 1.2627356 0.0 0.0 0.0 0.0 0.07083939 0.7147604 0.0 0.0 
0.0 0.0 0.0 0.0 0.0 0.0 0.0 0.0 2.6878443 0.0 0.0 0.0 0.22950341 0.0 0.0 0.0 
0.0 0.0 0.0 0.0 0.0 0.0 0.0 0.0 1.8331451 0.0 0.0 0.097225815 0.44780093 0.0 0.0 0.0 
0.0 0.0 0.0 0.0 0.0 0.0 0.0 0.0 0.0 0.0 0.0 0.37394774 0.3907684 0.0 0.0 0.0 
0.0 0.0 0.0 0.18115613 0.0 0.0 0.0 0.0 0.0 0.0 0.0 0.069218665 0.06288807 0.0 0.0 0.0 

