0.4484137 0.0 0.0 0.0 0.0 0.3005303 0.0 0.0 0.0 0.0 0.13672146 0.0 0.0 0.17465332 0.0 0.0 
0.88597697 0.0 0.0 0.0 0.0 1.3189368 0.0 0.0 0.0 0.15969718 0.0 0.0 0.0 0.96657264 0.0 0.18266508 
1.049917 0.0 0.16289034 0.0 0.0 0.0 0.0 0.0 0.0 0.8594816 0.0 0.0 0.0 1.4678022 0.50400835 1.2831258 
1.010177 0.0 0.0 0.0 0.0 0.0 0.0 0.0 0.0 0.73088205 0.0 0.0 0.3238871 1.6864337 0.42987978 0.3106666 
1.7604712 0.0 0.0 0.0 0.0 0.0 0.0 0.0 0.0 0.0 0.0 0.0 1.1160097 2.230476 0.0 0.0 
2.799246 0.0 0.0 0.0 0.0 0.0 0.0 0.0 0.0 0.0 0.0 0.0 0.92103934 3.5658627 0.0 0.0 
2.8384075 0.0 1.0123934 0.0 0.0 0.0 0.0 0.0 0.0 0.0 0.0 0.0 1.5487614 1.8492975 0.0 0.0 
1.4526772 0.0 0.0 0.0 0.0 0.0 0.0 0.0 0.0 0.0 0.0 0.62694347 1.7611549 0.0 0.0 0.0 
1.3032563 0.0 0.0 0.0 0.0 0.0 0.0 0.0 0.0 0.0 0.0 3.6492422 2.1619422 0.0 0.0 0.0 
1.0990428 0.0 0.4892397 0.0 0.0 0.0 0.0 0.0 0.0 0.0 0.0 1.1108167 0.7111889 0.008908942 0.0 0.0 
0.0 0.0 0.0 0.0 0.005793549 0.0 0.0 0.0 0.23547354 0.13431315 0.6848839 0.0 0.07498084 0.0 0.037285402 0.0 
0.0 0.0 0.0 0.0 0.0 0.869909 0.0 0.0 0.0 0.0 1.2765093 0.0 0.37199873 0.1571311 0.5994022 0.0 
0.0 0.0 0.0 0.0 0.0 1.007045 0.0 0.0 0.0 0.0 1.5012984 0.0 1.1911657 1.0910596 1.1182443 0.0 
0.0 0.0 0.0 0.0 0.0 0.0 0.0 0.0 0.0 0.0 2.3984852 0.0 1.9631653 1.2726855 0.9959039 0.0 
0.0 0.0 0.0 0.0 0.0 0.0 0.0 0.0 0.0 0.0 2.133301 0.0 1.8734728 0.87167335 1.2420754 0.0 
0.0 0.0 0.0 0.0 0.0 0.0 0.0 0.0 0.0 0.0 0.0 0.0 1.5170789 1.8468122 3.175031 0.0 
0.0 0.0 0.48262483 0.0 0.0 0.0 0.0 0.0 0.0 0.0 0.0 0.0 1.25347 1.198026 2.767967 0.0 
0.0 0.0 0.0 0.0 0.0 0.0 0.035466947 0.0 0.0 0.0 0.0 0.0 1.2119418 0.0 0.0 0.0 
0.0 0.0 0.0 0.0 0.0 0.0 0.0 0.0 0.0 0.0 0.0 2.9439356 1.0544341 0.0 0.0 0.0 
0.14077318 0.0 0.0 0.0 0.0 0.0 0.0 0.0 0.0 0.0 0.0 2.5772152 1.205666 0.0 0.0 0.0 
0.0 0.089806944 0.0 0.0 0.0 0.0 0.0 0.0 0.0 0.0 0.34709132 0.12503138 0.0 0.0 0.0 0.0 
0.0 0.7571125 0.0 0.0 0.0 0.0 0.0 0.0 0.0 0.0 0.5744502 0.3535745 0.118330464 0.0 0.0 0.0 
0.0 1.6579558 0.0 0.0 0.0 0.283176 0.0 0.09347999 0.0 0.0 0.5559247 0.0 0.0 0.0 0.0 0.0 
0.0 2.5892985 0.0 2.8744357 0.0 0.0 0.2050467 0.0 0.0 0.0 1.1876057 0.0 0.0 0.0 0.0 0.0 
0.0 2.893323 0.0 3.4583528 0.0 0.0 0.0 0.0 0.39768007 0.0 1.5007063 0.0 0.0 0.0 0.0 0.0 
0.0 2.0116365 0.0 2.363168 0.0 0.14176854 0.0 0.0 0.06321189 0.0 0.09678933 0.0 0.0 0.0 2.6292202 0.0 
0.0 0.0 0.0 1.1781349 0.0 0.0 0.0 0.0 0.0 0.0 0.0 0.0 0.0 0.0 4.130906 0.39965993 
0.0 0.0 0.0 0.27162868 0.0 0.0 1.423725 0.0 0.0 0.0 0.0 0.0 0.0 0.0 1.6701448 0.0 
0.0 0.0 0.0 0.0 0.0 0.0 0.0 0.0 0.0 0.0 0.0 0.0 0.0 0.0 0.0 0.0 
0.0 0.0 0.0 0.0 0.0 0.0 0.0 0.0 0.1971793 0.0 0.0 1.8891636 0.60606885 0.0 0.0 0.0 
0.04462323 0.34976324 0.0 0.0 0.10430508 0.0 0.02063925 0.0 0.0 0.0 0.0 0.47022548 0.0 0.0 0.0 0.0 
0.62754357 1.8152865 0.0 0.104367256 0.0 0.0 0.0 0.0 0.0 0.0 0.0 0.27368942 0.0 0.0 0.0 0.0 
0.28086397 3.769128 0.0 1.7926861 0.0 0.0 0.0 0.0 0.0 0.74887323 0.0 0.012996763 0.0 0.0 0.0 0.0 
0.0 5.151374 0.0 2.7687705 0.0 0.0 0.0 0.0 0.0 3.141001 0.0 0.06296109 0.0 0.0 0.0 0.0 
0.0 3.7657995 0.0 0.4074865 2.2905846 0.0 0.0 0.0 0.0 4.137321 0.0 0.0 0.0 0.0 0.0 0.8424148 
0.0 0.4653821 0.0 0.0 1.178289 0.058941662 0.0 0.0 0.0 3.4802103 0.0 0.0 0.0 0.0 0.0 1.7048671 
0.0 0.0 0.0 0.0 0.0 0.15384102 0.31463885 0.0 0.0 0.9352717 0.0 0.0 0.0 0.0 1.1288145 0.0 
0.0 0.0 0.0 0.0 0.0 0.0 1.903341 0.0 0.0 0.0 0.0 0.0 0.0 0.0 0.855055 0.0 
0.0 0.0 0.0 0.0 0.0 0.0 0.0 0.0 2.699848 0.0 0.0 0.0 0.0 0.0 0.0 0.0 
0.0 0.0 0.0 0.0 0.0 0.0 0.0 0.0 1.2006477 0.0 0.0 0.33167782 0.18631867 0.0 0.0 0.0 
0.8892053 0.28788936 0.0 0.0 0.3722075 0.0094411075 0.0 0.0 0.0 0.0 0.0 0.0 0.0 0.0 0.0 0.0 
1.9086978 0.83416426 0.007444944 0.0 0.0 0.0 0.0 0.0 0.0 0.5989433 0.0 0.0 0.0 0.0 0.0 1.0938891 
2.678552 0.9610307 0.0980998 0.0 0.0 0.0 0.043726318 0.0 0.0 2.0836358 0.0 0.0 0.0 0.0 0.0 1.1239603 
2.772828 0.0 0.0 0.0 0.0 0.0 0.49403375 0.0 0.0 3.1993127 0.0 0.0 0.0 0.0 0.0 0.42231 
1.1771116 0.0 0.0 0.0 0.0 0.0 0.0 0.0 0.0 2.367453 0.0 0.0 0.0 0.0 0.0 0.50021726 
0.0 0.0 0.0 0.0 0.0 0.0 0.0 0.0 0.0 0.3904737 0.0 0.0 0.24203564 0.0 0.0 0.0 
0.0 0.0 0.6784082 0.0 0.0 0.0 0.990604 0.17448558 0.0 0.0 0.0 0.0 1.1605958 0.0 0.0 0.0 
0.0 0.0 0.0 0.0 0.0 0.0 0.5874143 0.0 2.3641746 0.0 0.0 0.0 1.0766311 0.0 0.0 0.0 
0.0 0.0 0.0 0.0 0.0 0.0 0.0 0.0 4.5078497 0.0 0.4419988 0.0 0.0 0.0 0.0 0.0 
0.0 0.0 0.0 0.30461186 0.0 0.20900428 0.0 0.0 0.38919082 0.0 0.85127586 0.0 0.0 0.100392304 0.0 0.86174613 
0.40603125 0.14487892 0.5684606 0.0 0.5721097 0.0 0.0 0.0 0.0 0.18766876 0.0 0.0 0.0 0.0 0.31910545 0.71241695 
0.04340711 0.0 1.6128677 0.0 0.0 0.0 0.0 0.0 0.0 0.60471976 0.0 0.0 0.0 0.0 0.9264137 2.5584903 
0.28991836 0.0 0.0 0.0 0.0 0.0 0.6655278 0.0 0.0 0.0 0.0 0.0 1.020212 0.0 0.20454283 0.05265484 
0.0 0.0 0.0 0.0 0.0 0.0 0.0 0.0 0.0 0.0 0.0 0.0 1.3010709 0.21651134 0.0 0.0 
0.0 0.0 0.0 0.0 0.0 0.0 0.0 0.0 0.0 0.0 0.0 0.0 1.2090145 0.0 0.0 0.0 
0.0 0.0 0.0 0.0 0.0 0.0 0.0 0.24583687 0.0 0.0 0.0 0.0 0.6859799 0.0 0.0 0.0 
0.0 0.0 0.0 1.1387593 0.0 0.0 0.0 0.9556456 0.0 0.0 0.0 0.0 0.07882565 0.0 0.0 0.0 
0.0 0.0 0.0 2.010974 0.0 0.0 0.0 0.0 3.7680278 0.0 0.0 0.0 0.0 0.0 0.0 0.0 
0.0 0.0 0.0 1.9340847 0.0 0.0 0.0 0.0 1.3067273 0.0 0.0 0.0 0.0 0.0 0.0 1.4066182 
0.0 0.24760233 0.0 1.8255941 1.421192 1.2615392 0.0 0.0 0.0 0.0 0.20577858 0.40460202 0.0 0.0 0.0 0.6632254 
0.0 0.0 0.6961949 0.0 0.68986255 0.32996917 0.0 0.0 0.0 0.0 0.0 0.0 0.0 0.0 0.022133172 0.8575509 
0.0 0.14475958 1.49096 0.0 0.0 0.0 0.0 0.0 0.0 0.0 0.0 0.0 0.0 0.0 0.2794736 0.069997735 
0.0 0.07827274 0.0 0.0 0.0 0.0 0.025715088 0.6342248 0.0 0.0 0.0 0.0 1.0661573 0.0 0.27851647 0.0 
0.18420134 0.0 0.0 0.0 0.0 0.0 0.0 1.2411132 0.0 0.0 0.0 0.0 0.23798491 0.0 0.0 0.0 
1.0121535 0.24410763 0.0 0.0 0.0 0.0 0.0 0.7970999 0.0 0.0 0.0 0.0 0.0 0.0 0.0 0.0 
1.0322096 1.4161587 0.0 1.1201192 0.0 0.0 0.0 0.61801094 0.0 0.0 0.0 0.0 0.0 0.0 0.0 0.0 
1.3081428 0.64158005 0.0 0.0 0.0 0.0 0.0 0.0 0.0 0.0 0.0 0.0 0.0 0.0 0.0 0.0 
1.8092215 0.0 0.0 0.0 0.0 0.0 0.0 0.0 0.0 0.0 0.0 0.0 0.0 0.0 0.0 0.0 
1.2111877 0.0 0.0 0.0 0.0 0.0 0.0 0.0 0.0 0.0 0.0 0.0 0.0 0.0 0.0 0.0 
0.7720122 0.08502234 0.0 0.0 0.0 0.0 0.0 0.0 0.0 0.33227575 0.0 0.5945871 0.0 0.0 0.0 0.0 
0.0 0.0 0.0 0.0 0.16537446 0.7210153 0.0 0.0 0.0 0.16039756 0.0 0.0 0.0 0.0 0.0 0.5642594 
0.0 0.0 0.13885885 0.0 0.0 0.0 0.0 1.5850613 0.0 0.07289018 0.0 0.0 0.0 0.0 0.0 0.0 
1.2138355 0.0 0.0 0.0 0.0 0.0 1.2625464 2.5775828 0.0 1.2538824 0.0 0.0 0.0 0.0 0.0 0.0 
1.3509388 0.0 0.0 0.0 0.0 0.0 0.0 0.9261865 0.0 2.0420873 0.0 0.0 0.0 0.0 0.0 0.0 
0.6720149 0.0 0.0 0.0 0.0 0.0 0.0 0.0 0.0 2.6062331 0.0 0.0 0.0 1.1899399 0.0 0.0 
0.0 0.0 0.0 0.0 0.0 0.0 0.0 0.0 0.0 1.7370316 0.0 0.0 0.0 2.9455142 0.0 0.0 
0.5078176 0.0 0.0 0.0 0.0 0.0 0.0 0.0 0.0 0.13393115 0.0 0.0 0.0 3.5852544 0.0 0.0 
1.473547 0.0 0.0 0.0 0.0 0.0 0.0 0.0 0.0 0.0 0.0 0.0 0.061973326 3.53352 0.0 0.0 
2.0210087 0.0 0.0 0.0 0.0 0.0 0.0 0.0 0.0 0.0 0.0 0.0 0.89135617 1.7550299 0.0 0.0 
2.2856843 0.0 0.0 0.0 0.0 0.0 0.0 0.0 0.0 0.0 0.0 0.0 1.5152866 0.0 0.0 0.0 
0.0 0.0 0.0 0.0 0.0 1.5678408 0.0 0.51228184 0.0 0.21839449 1.6527305 0.0 0.0 0.0 0.0 0.0 
0.0 0.0 0.0 0.0 0.0 0.0 1.2168083 2.182108 0.0 0.12918791 2.3981981 0.0 0.0 0.9723042 0.0 0.0 
0.0 0.0 0.0 0.0 0.0 0.0 2.0585392 1.9655638 0.0 0.0 1.6937323 0.0 0.5522912 1.2077845 0.0 0.0 
0.0 0.0 0.0 0.0 0.0 0.0 0.0 0.0 0.0 0.0 1.4065588 0.0 1.0817893 0.73125595 0.0 0.0 
0.0 0.0 0.0 0.0 0.0 0.0 0.0 0.0 0.0 0.0 1.871959 0.0 1.978569 1.310738 0.0 0.0 
0.0 0.0 0.0 0.0 0.0 0.0 0.0 0.0 0.0 0.0 2.8637578 0.0 2.985161 1.5075997 1.8250432 0.0 
0.0 0.0 0.0 0.0 0.0 0.0 0.0 0.0 0.0 0.0 3.8430161 0.0 2.934575 2.6767201 2.8868105 0.0 
0.0 0.0 0.0 0.0 0.0 0.0 0.0 0.0 0.0 0.0 3.8827388 0.0 2.6199646 4.4272842 3.006935 0.0 
0.0 0.0 0.0 0.0 0.0 0.0 0.0 0.0 0.0 0.0 3.332084 0.0 2.2963543 5.131667 1.1218313 0.0 
0.0 0.0 0.0 0.0 0.0 0.0 0.0 0.0 0.0 0.0 2.3975544 0.0 1.7492999 3.9875178 0.0 0.0 
0.0 0.0 0.0 0.0 0.0 1.4621916 0.0 0.6830991 0.0 0.0 1.890605 0.0 0.0 0.0 0.0 0.0 
0.0 0.0 0.0 0.045614276 0.0 0.0 0.953621 1.5625478 0.0 0.0 2.0274324 0.0 0.6973435 0.0 0.0 0.0 
0.0 0.0 0.0 1.7880447 0.0 0.0 0.18175626 0.8372384 0.0 0.0 2.6709273 0.0 0.42966038 0.0 0.0 0.0 
0.0 0.0 0.0 2.1336536 0.0 0.0 0.0 0.0 1.1934725 0.0 2.405076 0.0 0.0 0.0 0.27736163 0.0 
0.0 1.6175418 0.0 3.0974064 0.0 0.0 0.0 0.0 0.0 0.0 1.8544664 0.0 0.0 0.0 0.70953125 0.0 
0.0 2.399519 0.0 4.3429527 0.0 0.0 0.0 0.0 0.0 0.0 1.592583 0.0 0.0 0.0 1.4084771 0.0 
0.0 2.083195 0.0 3.6387732 0.0 0.0 0.0 0.0 0.0 0.0 1.5004162 0.0 0.0 0.0 2.992503 0.0 
0.0 1.4818583 0.0 2.9982321 0.0 0.098865 0.0 0.0 0.0 0.0 1.6819229 0.0 0.13274863 0.0 4.5745587 0.0 
0.0 0.43740326 0.0 3.4927316 0.0 0.0 0.0 0.0 0.0 0.0 2.0411963 0.0 0.3952464 0.0 4.8949137 0.0 
0.0 0.0 0.0 3.946018 0.0 0.0 0.0 0.0 0.0 0.0 2.651181 0.0 0.0 1.0696921 3.0249388 0.0 

