0.0 0.41881117 0.4237243 0.5069958 0.0 0.0 0.0 0.0 0.2600613 0.0 0.0 0.0 0.0 0.0 0.0 0.17657743 
0.0 0.6495868 0.30288452 0.492439 0.0 0.0 0.0 0.0 0.17385451 0.0 0.0 0.05102043 0.0 0.0 0.0 0.43062463 
0.0 0.8001124 0.0 0.74875784 0.50717497 0.019716263 0.2648984 0.0 0.0 0.08323249 0.0 0.55871725 0.0 0.0 0.0 0.03043941 
0.0 0.5516932 0.0 0.7006281 0.5633597 0.04901591 0.1991356 0.0 0.0 0.0 0.14659518 0.0 0.0 0.11602684 0.0 0.004907061 
0.0 0.0 0.0 0.17720722 0.30411592 0.17023358 0.26807496 0.0 0.0 0.0 0.21418768 0.0 0.0 0.19888332 0.0 0.0 
0.0 0.0 0.0 0.0 0.80193675 0.12236026 0.0 0.0 0.0 0.0 0.0 0.0 0.0 0.0 0.0 0.0 
0.0 0.0 1.5439951 0.0 0.27834105 1.0794027 0.0 0.0 0.0 0.17180693 0.0 0.0 0.0 0.0 1.0466229 0.9749177 
0.0 0.0 3.463387 0.0 0.0 0.0 0.0 0.0 0.0 0.0 0.0 0.0 0.082608044 0.0 1.4560664 1.0474511 
0.5075902 0.0 0.0 0.0 0.0 0.0 3.3440108 0.0 0.0 0.0 0.0 0.0 0.9150126 0.0 0.0 0.0 
0.5450859 0.0 0.0 0.0 0.0 0.0 0.044026688 0.044936582 0.0 0.0 0.0 1.4558336 0.6661857 0.0 0.0 0.0 
0.19749175 1.0772744 1.3477223 0.28445023 0.0 0.0 0.0 0.0 0.4832022 0.0 0.0 0.0 0.0 0.0 0.0 0.9521044 
0.3061594 1.645347 0.86059135 0.48664668 0.0 0.0 0.1896398 0.0 0.0 0.22270417 0.0 0.17173848 0.027100682 0.0 0.0 1.3076323 
0.41228053 1.4155481 0.0 0.41691393 1.1431448 0.0 1.0110717 0.0 0.0 0.37134305 0.0 2.0001466 0.19986378 0.0 0.0 0.08388436 
0.30618367 0.010254633 0.0 0.5306632 1.3159637 0.13967215 0.16032688 0.0 0.0 0.05251978 0.0 0.510219 0.0 0.0 0.0 0.0 
0.0 0.0 0.0 0.0 0.8410308 0.7862183 0.0 0.0 0.0 0.0 0.29682562 0.0 0.0 0.45778897 0.0 0.0 
0.0 0.0 0.0 0.0 1.3625056 0.20554161 0.0 0.0 0.0 0.0 0.0 0.0 0.0 0.0 0.0 0.0 
0.0 0.0835064 2.2982466 0.0 0.08088025 0.89825636 0.0 0.0 0.0 0.14110021 0.0 0.0 0.0 0.0 0.934627 1.251536 
0.0 0.0 3.8154016 0.0 0.0 0.0 0.7469744 0.0 0.0 0.0 0.0 0.0 0.2584024 0.0 1.4247041 0.0 
0.0 0.0 0.0 0.0 0.0 0.0 4.578933 0.6822375 0.0 0.0 0.0 0.0 0.89370745 0.0 0.2206861 0.0 
0.0 0.0 0.0 0.0 0.0 0.0 0.0 0.0 2.2807412 0.0 0.0 0.0 0.30369693 0.0 0.0 0.0 
0.68202055 0.5284793 2.4997303 0.0 0.0 0.0 0.0 0.0 0.0 0.20363888 0.0 0.0 0.0 0.0 0.18933435 1.7789092 
0.949675 0.40221298 1.2230818 0.0 0.0 0.0 1.3611329 0.0 0.0 0.5787992 0.0 0.0 0.05232217 0.0 0.0 1.134458 
0.941578 0.0 0.0 0.0 0.020522423 0.0 1.7897006 0.0 0.0 0.08255908 0.0 2.4712906 0.42981356 0.0 0.0 0.0 
0.86173886 0.0 0.0 0.0 0.0 0.0 0.0 0.0 0.0 0.0 0.0 1.6668845 0.2955411 0.0 0.0 0.0 
0.39189342 0.0 0.013301916 0.0 0.26493898 0.5718058 0.0 0.0 0.056739192 0.0 0.0 0.0 0.0 0.0 0.0 0.0 
0.0 0.0 0.0 0.0 1.4278007 0.50767285 0.0 0.0 0.22826964 0.0 0.0 0.0 0.0 0.0 0.0 0.28308815 
0.0 0.21632086 2.4052007 0.0 0.0 0.58539397 0.0 0.0 0.0 0.16736503 0.0 0.0 0.0 0.0 0.0 1.0958743 
0.0 0.0 2.558032 0.0 0.0 0.0 2.7840204 0.7082635 0.0 0.0 0.0 0.0 0.44262958 0.0 0.10132153 0.0 
0.0 0.0 0.0 0.0 0.0 0.0 4.4929266 1.0861292 0.0 0.0 0.0 0.0 0.4343962 0.0 0.0 0.0 
0.0 0.0 0.0 0.0 0.0 0.0 0.0 0.0 3.6866047 0.0 0.0 0.0 0.080831096 0.0 0.0 0.0 
0.29374802 0.0 3.5561779 0.0 0.0 0.0 0.0 0.0 0.0 0.0 0.0 0.0 0.0 0.0 1.3208888 1.7228974 
1.0644982 0.0 0.7446787 0.0 0.0 0.0 2.740302 0.0 0.0 0.0 0.0 0.0 0.5200013 0.0 0.0 0.0 
0.8013861 0.0 0.0 0.0 0.0 0.0 1.2377064 0.0 0.0 0.0 0.0 2.053336 0.49865717 0.0 0.0 0.0 
0.75784326 0.0 0.0 0.0 0.0 0.0 0.0 0.0 1.9756298 0.0 0.0 2.6277113 0.3128271 0.0 0.0 0.0 
0.34275094 0.0 0.5209792 0.0 0.0 0.035250798 0.0 0.0 0.039041106 0.0 0.0 0.82494426 0.0 0.0 0.0 0.0 
0.0 0.0572719 0.4678312 0.0 1.6707629 0.4221511 0.0 0.0 0.0 0.19411497 0.0 0.0 0.0 0.0 0.0 1.0984533 
0.0 0.3203326 2.859503 0.0 0.0 0.0 0.0 0.0 0.0 0.0 0.0 0.0 0.0 0.0 0.0 0.27208376 
0.0 0.0 0.77088666 0.0 0.0 0.0 4.165087 1.740583 0.0 0.0 0.0 0.0 0.0 0.0 0.0 0.0 
0.0 0.0 0.0 0.0 0.0 0.0 2.4614546 0.43219465 1.7144132 0.0 0.0 0.0 0.053130068 0.0 0.0 0.0 
0.0 0.0 0.0 0.0 0.0 0.0 0.0 0.0 3.692134 0.0 0.046247408 0.0 0.0 0.0 0.0 0.0 
0.0 0.0 3.0093818 0.0 0.0 0.0 0.0 0.0 0.0 0.0 0.0 0.0 0.0 0.0 0.8165411 0.0 
0.6480977 0.0 0.0 0.0 0.0 0.0 2.4990685 0.9100378 0.0 0.0 0.0 0.0 0.23386876 0.0 0.0 0.0 
1.5752996 0.0 0.0 0.0 0.0 0.0 0.0 0.0 0.0 0.0 0.0 0.113247484 0.0 0.0 0.0 0.0 
2.0679283 0.0 0.0 0.0 0.0 0.0 0.0 0.0 0.13684234 0.0 0.0 1.6582856 0.0 0.0 0.0 0.0 
0.99642617 0.0 0.0 0.0 0.06458018 0.0 0.0 0.0 0.0 0.0 0.0 1.1389273 0.0 0.0 0.0 0.0 
0.38537645 0.0 0.0 0.0 1.0338249 0.0 0.0 0.0 0.0 0.8834405 0.0 0.06768046 0.0 0.0 0.0 0.0 
0.36102816 0.0 1.2395447 0.0 0.0 0.0 0.0 0.82352114 0.0 0.51475334 0.0 0.0 0.0 0.0 0.0 0.0 
0.33521602 0.0 0.0 0.0 0.0 0.0 3.3291476 2.7616625 0.0 0.0 0.0 0.0 0.0 0.0 0.0 0.0 
0.43765476 0.0 0.0 0.0 0.0 0.0 0.0 0.0 2.1227047 0.0 0.0 0.0 0.0 0.0 0.0 0.0 
0.0 0.0 0.0 0.0 0.0 0.08936912 0.0 0.0 1.5963231 0.0 0.0 0.0 0.0 0.0 0.0 0.0 
0.0 0.0 2.2777338 0.0 0.0 1.5670581 0.0 0.9976135 0.0 0.0 0.0 0.0 0.0 1.5078471 0.0 0.0 
0.8394683 0.0 0.0 0.0 0.0 0.0 2.4495804 1.6163918 0.0 0.0 0.0 0.0 0.0 1.7566557 0.0 0.0 
1.559262 0.0 0.0 0.0 0.0 0.0 0.0 0.0 0.0 0.0 0.0 0.0 0.0 1.0787632 0.0 0.0 
2.0383835 0.0 0.0 0.0 0.0 0.0 0.0 0.0 0.0 0.0 0.0 0.0 0.0 0.708021 0.0 0.0 
1.0490414 0.0 0.0 0.0 0.0 0.0 0.0 0.0 0.0 0.0 0.0 0.0 0.0 0.0 0.0 0.0 
1.1084332 0.0 0.79312545 0.0 0.0 0.0 0.0 0.0 0.0 0.013188776 0.0 0.0 0.41554075 0.0 0.0 0.0 
1.660136 0.0 1.4619645 0.0 0.0 0.0 0.0 1.0337477 0.0 0.0 0.0 0.0 0.84868157 0.0 0.0 0.0 
1.7834378 0.0 0.0 0.0 0.0 0.0 2.5152228 1.94379 0.0 0.0 0.0 0.0 0.25032318 0.14895165 0.0 0.0 
0.74416184 0.0 0.0 0.0 0.0 0.0 0.0 0.0 2.128525 0.0 0.0 0.0 0.0 0.0 0.0 0.0 
0.0 0.0 0.0 0.0 0.0 0.0 0.0 0.0 0.57811207 0.0 0.0 0.14631261 0.6333254 0.0 0.0 0.0 
0.0 0.0 0.6760738 0.0 0.0 1.7480233 0.8198053 1.043078 0.0 0.0 2.7609096 0.0 0.474315 1.8708848 0.75784963 0.0 
0.0 0.0 0.0 0.0 0.0 0.0 1.9986663 0.2715423 0.0 0.0 3.726843 0.0 0.9135413 3.2762017 1.0820216 0.0 
0.0 0.0 0.0 0.0 0.0 0.0 0.0 0.0 0.058437455 0.0 3.910851 0.0 0.6937778 3.7214248 0.033260748 0.0 
0.0 0.0 0.0 0.0 0.0 0.0 0.0 0.0 0.0 0.0 2.0294597 0.0 0.84031594 3.6538641 0.0 0.0 
0.0 0.0 0.0 0.0 0.0 0.0 0.0 0.0 0.0 0.0 1.0094483 0.0 1.7244619 0.9324059 0.0 0.0 
0.0 0.0 0.0 0.0 0.0 0.0 0.0 0.0 0.0 0.0 1.1211535 0.0 2.1001341 0.0 0.0 0.0 
0.0 0.0 0.0 0.0 0.0 0.0 1.5086645 1.2618948 0.0 0.0 0.0 0.0 2.183864 0.29283643 0.0 0.0 
0.0 0.0 0.0 0.0 0.0 0.0 1.0234327 0.27143043 0.37270543 0.0 0.0 0.0 1.5729737 1.8334945 0.0 0.0 
0.0 0.0 0.0 0.0 0.0 0.0 0.0 0.0 2.3607068 0.0 1.1996032 0.0 0.13939615 1.8583405 0.0 0.0 
0.0 0.0 0.0 0.0 0.0 0.0 0.0 0.0 0.5229349 0.0 0.8234573 0.062168255 0.928248 0.6422944 0.0 0.0 
0.0 1.8050667 0.0 1.5592923 0.0 0.59840256 0.0 0.2940085 0.0 0.0 1.1004045 0.0 0.0 0.0 0.45197397 0.0 
0.0 1.3350499 0.0 2.4206016 0.0 0.0 0.0 0.0 0.051745627 0.0 2.073396 0.0 0.0 0.0 2.129231 0.0 
0.0 1.0265813 0.0 1.5524212 0.0 0.0 0.0 0.0 0.19803774 0.0 3.2046347 0.0 0.0 0.0 2.4076502 0.0 
0.0 1.4922454 0.0 0.0 0.0 0.93387073 0.0 0.0 0.0 0.0 2.693989 0.0 0.0 0.0 2.5466342 0.0 
0.0 1.0472298 0.0 0.30836585 0.0 0.0 0.0 0.0 0.0 0.0 2.5377665 0.0 0.0 0.0 1.0523388 0.0 
0.0 0.0 0.0 1.1784958 0.0 0.0 0.0 0.0 0.0 0.0 2.1384614 0.0 0.33046955 0.0 0.0 0.0 
0.0 0.0 0.0 1.1819541 0.0 0.0 0.47113287 0.5262628 0.0 0.0 0.0 0.0 0.8042463 0.0 0.0 0.0 
0.0 0.0 0.0 1.0746893 0.0 0.0 0.0 0.0 1.4060539 0.0 0.0 0.0 0.7294016 0.0 0.3727528 0.0 
0.0 0.0 0.0 0.965664 0.0 0.0 0.0 0.0 1.7333375 0.0 1.0058178 0.0 0.0 0.34431043 0.6154071 0.0 
0.0 0.011012904 0.0 2.0961044 0.0 0.0 0.0 0.0 0.0 0.0 1.3747804 0.0 0.0 0.10401637 0.037033886 1.7843312 
0.0 1.6311717 0.0 2.7720559 0.0 0.0 0.359605 0.057078063 0.0 1.7990181 0.0 0.0 0.0 0.0 0.0 0.0 
0.0 1.6356534 0.0 3.3803341 0.0 0.0 0.37590325 0.0 0.05736318 2.3238838 0.0 0.0 0.0 0.0 0.0 0.0 
0.0 0.82564694 0.0 1.7023795 0.0 0.0 0.0 0.0 0.28222242 2.6895986 0.93608147 0.0 0.0 0.0 0.0 0.0 
0.0 0.0 0.0 0.0 0.15764755 1.8367069 0.0 0.0 0.0 2.8557067 1.2014989 0.0 0.0 0.0 0.51684403 0.0 
0.0 0.0 0.0 0.66959566 0.0 1.4926198 0.0 0.0 0.0 2.4238722 1.2289847 0.0 0.0 0.0 0.4268241 0.0 
0.0 0.0 0.0 2.9821634 0.0 0.0 1.0521691 0.0 0.0 1.1496384 1.6868359 0.0 0.0 0.0 0.0 0.0 
0.0 0.0 0.0 2.480581 0.0 0.0 0.0 0.0 0.32371455 0.5352936 0.43066126 0.0 0.0 0.0 0.0 0.0 
0.0 0.0 0.0 1.2915053 0.0 0.0 0.0 0.0 2.2542794 0.0 0.0 0.0 0.0 0.0 0.0 0.0 
0.0 0.0 0.0 0.36641338 0.0 0.011188842 0.0 0.0 0.0 0.0 0.0053956024 0.0 0.0 0.0 0.42416388 1.2255794 
0.0 0.0 0.0 0.76197207 0.40111706 0.14561781 0.0 0.0 0.0 0.3633088 0.17668384 0.0 0.0 0.0 0.6588646 1.9806653 
0.345239 0.2923921 0.0 1.1292915 0.0 0.0 0.7542674 0.0 0.032057468 1.2820855 0.0 0.0 0.0 0.0 0.0 0.0 
0.065144286 0.29481477 0.0 1.1632379 0.0 0.0 0.8870223 0.0 0.120073274 1.4615332 0.0 0.0 0.0 0.0 0.0 0.0 
0.0 0.2591671 0.0 0.0 0.38051486 0.0 0.23291954 0.0 0.112583354 0.89525336 0.004400324 0.0 0.0 0.0 0.0 0.29223666 
0.0 0.5360276 0.0 0.0 0.08193811 1.1604064 0.0 0.0 0.0 0.13375607 0.59467584 0.0 0.0 0.0 0.0 0.0 
0.0 0.57690144 0.0 1.639948 0.0 1.8707223 0.31343067 0.0 0.0 0.0 0.6578558 0.0 0.0 0.0 0.0 0.0 
0.0 0.4721644 0.0 3.734205 0.0 0.0 2.7872112 0.0 0.0 0.0 1.5614843 0.0 0.0 0.25760648 0.0 0.0 
0.0 0.0 0.0 2.9574692 0.0 0.0 0.0 0.0 2.5880635 0.0 1.5359662 0.0 0.0 0.0136157945 0.0 0.39140072 
0.0 0.0 0.0 1.4276588 0.0 0.18875313 0.0 0.0 1.1491508 0.0 0.71770924 0.0 0.0 0.0 0.0 2.4446814 
0.0 0.0 0.0 0.3589062 0.0 0.1413559 0.0 0.0 0.0 0.0 0.14734405 0.0 0.0 0.0 0.0 1.2928683 
0.0 0.0 0.0 0.0 0.18570393 0.046990037 0.0 0.0 0.0 0.0 0.0 0.0 0.0 0.0 0.0 0.58668447 

