1.7159896 0.61534417 0.0 0.0 0.0 0.0 0.0 0.0 0.0 0.04213239 0.0 0.0 0.0 0.6959846 0.0 0.5843234 
2.185355 0.45937073 0.0 0.0 0.0 0.0 0.0 0.036641926 0.0 0.8646409 0.0 0.0 0.0 0.414856 0.0 1.0086712 
2.766761 0.0 0.0 0.0 0.0 0.0 0.0 0.0 0.0 1.4072396 0.0 0.0 0.0 0.3126306 0.0 0.01225784 
3.4300277 0.0 0.0 0.0 0.0 0.0 0.0 0.0 0.0 0.8036515 0.0 0.0 0.0 1.0275663 0.0 0.0 
3.55513 0.0 0.0 0.0 0.0 0.0 0.0 0.0 0.0 0.0 0.0 0.0 0.0 2.2293963 0.0 0.0 
2.9964635 0.0 0.6886644 0.0 0.0 0.0 0.0 0.0 0.0 0.0 0.0 0.0 0.008870192 1.582133 0.0 0.0 
2.4056575 0.0 0.8235487 0.0 0.0 0.0 0.0 0.0 0.0 0.0 0.0 0.0 1.0797389 0.0 0.0 0.0 
1.5498259 0.0 0.0 0.0 0.0 0.0 0.0 0.0 0.0 0.0 0.0 2.473324 1.502952 0.0 0.0 0.0 
1.1868057 0.0 0.0 0.0 0.0 0.0 0.0 0.0 0.0 0.0 0.0 1.5514742 1.2000598 0.0 0.0 0.0 
0.4214791 0.0 0.66388893 0.0 0.0 0.44009435 0.0 0.0 0.0 0.0 0.0 0.0 0.0 0.37385947 0.0 0.0 
0.031123143 0.0 0.0 0.0 0.0 0.07827212 0.0 0.0 0.0 0.3742134 1.3610352 0.0 0.39311576 1.8944455 0.3883313 0.55533546 
0.0 0.0 0.0 0.0 0.0 0.0 0.0 0.0 0.0 0.0790638 1.6718975 0.0 0.9446865 2.8000333 0.25463408 0.0 
0.0 0.0 0.0 0.0 0.0 0.0 0.0 0.0 0.0 0.0 1.705096 0.0 1.9794471 3.0247102 0.0 0.0 
0.0 0.0 0.0 0.0 0.0 0.0 0.0 0.0 0.0 0.0 1.7922174 0.0 2.5522187 3.022265 0.0 0.0 
0.0 0.0 0.0 0.0 0.0 0.0 0.0 0.0 0.0 0.0 1.2254369 0.0 1.9725134 3.6197803 0.41946304 0.0 
0.0 0.0 1.345403 0.0 0.0 0.0 0.0 0.0 0.0 0.0 0.0 0.0 1.668461 3.448095 1.404552 0.0 
0.4522017 0.0 0.60822177 0.0 0.0 0.0 0.0 0.0 0.0 0.0 0.0 0.0 1.7643728 1.0996796 0.0 0.0 
0.026772808 0.0 0.0 0.0 0.0 0.0 0.06942013 0.0 0.0 0.0 0.0 1.9902335 1.3270469 0.0 0.0 0.0 
0.15656738 0.0 0.0 0.0 0.0 0.0 0.0 0.0 0.9164097 0.0 0.0 3.0798292 1.4402575 0.0 0.0 0.0 
0.10184403 0.0 1.307249 0.0 0.0 0.14667426 0.0 0.0 0.14810444 0.0 0.0 0.75758576 0.046348356 0.0 0.0 0.0 
0.0 0.096122645 0.0 0.0 0.0 0.0 0.0 0.0 0.0 0.0 1.2504303 0.0 0.9831999 0.0 0.72856784 0.0 
0.0 0.3298099 0.0 0.0 0.0 0.0 0.0 0.0 0.0 0.0 1.7990637 0.0 1.215916 0.03232056 1.2016575 0.0 
0.0 0.95108676 0.0 0.65433335 0.0 0.0 0.0 0.0 0.0 0.0 2.2790658 0.0 1.2365458 0.0 1.1183264 0.0 
0.0 1.6411433 0.0 1.9690002 0.0 0.0 0.0 0.0 0.0 0.0 2.5336366 0.0 0.56703854 0.0 0.70312554 0.0 
0.0 2.1674001 0.0 1.3272969 0.0 0.0 0.0 0.0 0.0 0.0 1.4951535 0.0 0.0 0.0 1.9487016 0.0 
0.0 2.1597922 0.37575054 1.9924748 0.0 0.0 0.0 0.0 0.0 0.0 0.0 0.0 0.0 0.0 3.7098424 0.0 
0.0 0.8308587 0.0 2.4050474 0.0 0.0 0.50513846 0.0 0.0 0.0 0.0 0.0 0.0 0.0 2.1057472 0.0 
0.0 0.0 0.0 0.6542455 0.0 0.0 0.0 0.0 0.0 0.0 0.0 0.024538398 0.0 0.0 0.0 0.0 
0.0 0.0 0.0 0.0 0.0 0.0 0.0 0.0 0.0 0.0 0.0 2.1065176 0.0 0.0 0.0 0.0 
0.39722794 0.0 0.0 0.0 0.0 0.0 0.0 0.0 0.0 0.0 0.0 1.3826995 0.0 0.0 0.0 0.0 
0.0 1.3509679 0.0 0.73589784 0.0 0.0 0.0 0.1652883 0.0 0.0 0.2191004 0.0 0.0 0.0 0.0 0.0 
0.0 2.0790157 0.0 2.8732517 0.0 0.0 0.0 0.0 0.0 0.7792329 0.07461111 0.0 0.0 0.0 0.0 0.0 
0.0 2.427834 0.0 4.4831724 0.0 0.0 0.0 0.0 0.07903226 1.670001 0.0 0.0 0.0 0.0 0.0 0.0 
0.0 2.2432265 0.0 3.699517 0.0 0.0 0.0 0.0 0.0 2.4519916 0.0 0.0 0.0 0.0 0.0 0.0 
0.0 2.0704613 0.0 0.5535312 0.9676087 0.0 0.0 0.0 0.0 2.859222 0.0 0.0 0.0 0.0 0.0 1.3218228 
0.0 0.6683014 0.0 0.0 0.0 1.4474263 0.0 0.0 0.0 2.6283257 0.0 0.0 0.0 0.0 1.7238749 0.5257553 
0.0 0.0 0.0 0.0 0.0 0.0 0.95729375 0.0 0.0 1.3594098 0.0 0.0 0.0 0.0 2.0662916 0.0 
0.0 0.0 0.0 0.0 0.0 0.0 0.0 0.0 0.0 0.0 0.0 0.0 0.0 0.0 0.0 0.0 
1.0542225 0.0 0.0 0.0 0.0 0.0 0.0 0.0 0.0 0.0 0.0 0.0 0.0 0.0 0.0 0.0 
1.3465152 0.0 0.0 0.0 0.0 0.0 0.0 0.0 0.0 0.0 0.0 0.0 0.41382432 0.0 0.0 0.0 
0.3004135 0.9443598 0.0 1.14195 0.0 0.0 0.19420087 0.0 0.0 0.81879926 0.0 0.0 0.0 0.0 0.0 0.0 
0.069028586 1.535627 0.0 1.4457189 0.0 0.0 0.0 0.0 0.074352935 1.9933807 0.0 0.0 0.0 0.0 0.0 0.0 
0.26372653 1.7072384 0.0 0.9684884 0.0 0.0 0.0 0.0 0.0 2.26842 0.0 0.0 0.0 0.0 0.0 0.89556724 
0.5633696 1.8547189 0.0 0.0 1.5290172 0.0 0.0 0.0 0.0 2.25681 0.0 0.0 0.0 0.0 0.0 2.240855 
0.0 0.67420924 0.0 0.0 1.3668419 0.0 0.0 0.0 0.0 2.1305852 0.0 0.0 0.0 0.0 0.0 3.0388532 
0.0 0.0 0.5362828 0.0 0.0 0.0 0.0 0.0 0.0 1.4665622 0.0 0.0 0.0 0.0 0.0 0.0 
0.19351272 0.0 0.0 0.0 0.0 0.0 2.7472432 0.4768327 0.0 0.0 0.0 0.0 1.1087588 0.3354016 0.735699 0.0 
0.0 0.0 0.0 0.0 0.0 0.0 0.0 0.0 0.0 0.0 0.5586099 0.0 1.30094 1.8128487 0.0 0.0 
0.0 0.0 0.0 0.0 0.0 0.0 0.0 0.0 0.0 0.0 1.0424353 0.0 0.93484336 3.2583325 0.0 0.0 
0.0 0.0 0.0 0.0 0.0 0.0 0.0 0.0 0.0 0.0 1.0306536 0.0 2.1369827 2.7244487 0.0 0.0 
0.97288984 1.0993522 0.14907819 0.0 0.0 0.0 0.0 0.0 0.0 0.2975776 0.0 0.0 0.0 0.0 0.0 0.6091205 
1.3258442 1.3634423 0.28450125 0.0 0.0 0.0 0.0 0.0 0.0 1.2181722 0.0 0.0 0.0 0.0 0.0 1.825506 
1.6082032 0.37536624 0.0 0.0 0.066512175 0.0 0.0 0.0 0.0 1.2197673 0.0 0.0 0.0 0.0 0.0 1.3762122 
1.4482303 0.0 0.0 0.0 0.4094585 0.0 0.0 0.0 0.0 0.76956093 0.0 0.0 0.0 0.0 0.0 0.6599558 
0.14270656 0.0 0.0 0.0 0.0 0.0 0.0 0.08054127 0.0 0.3065266 0.0 0.0 0.0 0.0 0.0 0.0 
0.0 0.0 0.3484298 0.0 0.0 0.0 0.0 0.8638814 0.0 0.0 0.0 0.0 1.9986494 0.0 0.0 0.0 
0.0 0.0 0.0 0.0 0.0 0.0 1.4776207 1.4471598 0.0 0.0 0.0 0.0 2.635992 0.0 0.0 0.0 
0.0 0.0 0.0 0.0 0.0 0.0 0.0 0.0 1.8036458 0.0 0.8146747 0.0 1.7716571 0.0 0.52946264 0.0 
0.0 0.0 0.0 0.654775 0.0 0.0 0.0 0.0 0.43821993 0.0 1.9614305 0.0 0.39906466 0.112152226 1.2079912 0.0 
0.0 0.8530199 0.0 3.477244 0.0 0.0 0.0 0.0 0.0 0.0 1.9767296 0.0 0.64463097 0.43232003 1.2651895 0.0 
0.74614185 0.6380431 0.28233045 0.0 0.0 0.0 0.0 0.0 0.0 0.66840124 0.0 0.0 0.0 0.0 0.1292428 1.8772302 
0.19133799 0.0 0.0 0.0 0.0 0.0 0.0 0.0 0.0 0.569809 0.0 0.0 0.07701759 0.0 0.0 1.4286417 
0.24392839 0.0 0.0 0.0 0.0 0.0 0.0 0.0 0.0 0.0 0.0 0.0 0.5482244 0.0 0.0 0.0 
0.0 0.0 0.0 0.0 0.0 0.0 0.0 0.0 0.0 0.0 0.0 0.0 0.85442936 0.0 0.0 0.0 
0.0 0.0 0.0 0.0 0.0 0.0 0.0 0.19390552 0.0 0.0 0.0 0.0 0.8870333 0.0 0.0 0.0 
0.0 0.0 0.0 0.0 0.0 0.0 0.74120855 1.4270554 0.0 0.0 0.4038304 0.0 0.76948136 0.0 0.0 0.0 
0.0 0.0 0.0 1.7792028 0.0 0.0 0.79115045 1.2439574 0.9286371 0.0 0.0 0.0 0.32409632 0.0 0.0 0.0 
0.0 0.0 0.0 2.1982377 0.0 0.0 0.0 0.0 2.6597533 0.0 0.07840365 0.0 0.0 0.0 0.0 0.0 
0.0 0.0 0.0 2.430626 0.0 0.0 0.0 0.0 0.0 0.5228653 0.0 0.0 0.0 0.0 0.0 0.0 
0.0 0.15962383 0.0 3.431161 0.0 0.0 0.0 0.0 0.0 1.7091223 0.037364803 0.0 0.0 0.0 0.89471644 0.7589793 
0.0 0.0 0.0 0.0 0.0 0.40347618 0.0 0.0 0.0 0.0 0.0 0.0 0.16329546 1.119217 0.0 0.20438853 
0.0 0.0 0.0 0.0 0.0 0.0 0.0 0.20956682 0.0 0.0 0.0 0.0 0.7508616 0.0 0.0 0.0 
0.0 0.0 0.0 0.0 0.0 0.0 0.0 0.46118867 0.0 0.0 0.0 0.0 0.0 0.0 0.0 0.0 
0.0 0.0 0.0 0.0 0.0 0.0 0.0 0.39750105 0.0 0.0 0.0 0.0 0.11110385 0.0 0.0 0.0 
0.0 0.0 0.0 0.0 0.0 0.0 0.0 0.0 0.0 0.17107452 0.0 0.0 0.0 0.0 0.0 0.0 
0.0 0.0 0.0 2.4930108 0.0 0.0 2.2817018 0.39474726 0.0 0.000984218 0.0 0.0 0.0 0.0 0.0 0.0 
0.0 0.0 0.0 2.1831768 0.0 0.0 0.0 0.0 1.5516347 0.12840351 0.0 0.0 0.0 0.0 0.0 0.0 
0.0 0.0 0.0 1.1523045 0.0 0.076137275 0.0 0.0 1.352149 0.0 0.0 0.0 0.0 0.0 0.0 0.0 
0.0 0.0 0.0 0.5601274 0.0 0.20662159 0.0 0.0 0.0 0.42548728 0.0 0.0 0.0 0.0 0.0 0.763943 
0.0 0.0 0.0 0.7243217 0.42211458 0.20439342 0.0 0.0 0.0 0.6728118 0.0 0.0 0.0 0.0 0.0 1.1406759 
0.0 0.0 0.0 0.0 0.0 1.321851 0.0 0.27866405 0.0 0.0 1.4141613 0.0 0.40073287 0.5543828 0.0 0.0 
0.0 0.0 0.0 0.0 0.0 0.0 0.46927696 1.0723279 0.0 0.0 2.5333328 0.0 0.0 1.5214666 0.0 0.0 
0.0 0.0 0.0 0.0 0.0 0.0 0.0 0.0 0.0 0.8045382 2.0067394 0.0 0.0 0.733796 0.0 0.0 
0.0 0.0 0.0 0.0 0.0 0.0 0.0 0.0 0.0 1.500367 0.17419548 0.0 0.0 0.0 0.0 0.0 
0.0 0.0 0.0 0.0 0.0 0.0 0.1873834 0.0 0.0 0.76192886 0.0 0.0 0.0 0.0 0.0 0.0 
0.0 0.0 0.0 0.0 0.0 0.0 1.5773377 0.0 0.0 0.0 0.0 0.0 0.0 0.0 0.0 0.0 
0.0 0.0 0.0 0.0 0.0 0.0 0.0 0.0 2.5297108 0.0 0.0 0.0 0.0 0.0 0.0 0.0 
0.0 0.0 0.0 0.0 0.0 0.8672183 0.0 0.0 0.29193404 0.0 0.0 0.0 0.0 0.0 0.0 0.38621145 
0.0 0.0 0.0 0.075461976 0.0 0.0 0.0 0.0 0.0 0.0 0.0 0.0054246634 0.053605594 0.0 0.0 0.63514906 
0.0 0.034472425 0.0 0.07773014 0.0 0.0 0.0 0.0 0.0 0.0 0.0 0.0 0.0 0.0 0.0 0.052562665 
0.0 1.0005357 0.0 0.5019833 0.0 0.56308323 0.0 0.65461135 0.0 0.0 1.1275164 0.0 0.0 0.0 0.0 0.0 
0.0 0.83459383 0.0 0.0 0.0 0.0 0.35828108 0.0 0.0 0.6522894 2.0760903 0.0 0.0 0.0 0.6707136 0.0 
0.0 0.0 0.0 0.0 0.0 0.20099366 0.0 0.0 0.0 0.27711955 2.8667276 0.0 0.0 0.4877281 0.33974093 0.0 
0.0 0.0 0.0 0.0 0.0 0.9818869 0.0 0.0 0.0 0.0 2.1183028 0.0 0.0 1.4280162 0.0 0.0 
0.0 0.0 0.0 0.6596419 0.0 0.0 1.5547271 0.0 0.0 0.0 1.6569335 0.0 0.30033505 0.7346938 0.0 0.0 
0.0 0.0 0.0 0.0 0.0 0.0 0.23542532 0.0 1.3159822 0.0 0.2853318 0.0 0.8376967 0.10710796 0.0 0.0 
0.0 0.0 0.0 0.0 0.0 0.0 0.0 0.0 2.7423635 0.0 0.20506907 0.0 0.09050785 0.0 0.0 0.2120986 
0.0 0.0 0.0 0.0 0.0 0.12146884 0.0 0.0 0.0 0.0 0.09675604 0.0 0.075623915 0.0 0.0 0.53013885 
0.0 0.032573123 0.0 0.3354355 0.0 0.0 0.0 0.0 0.0 0.0 0.0 0.0022279844 0.001818575 0.0 0.0 0.34843847 
0.0 0.0 0.0 0.059704922 0.0 0.0 0.0 0.0 0.0 0.0 0.0 0.0 0.0 0.0 0.0 0.0 

