0.35483116 0.0 0.0 0.0 0.34850067 0.6091352 0.0 0.0 0.0 0.0 0.0 0.0 0.0 0.17843753 0.0 0.0 
0.98360676 0.0 1.0482528 0.0 0.0 0.5387748 0.0 0.0 0.0 0.0 0.0 0.0 0.0 0.67520934 0.28615868 0.58725435 
1.47453 0.0 1.7285942 0.0 0.0 0.0 0.0 0.0 0.0 0.34217718 0.0 0.0 0.0 0.5092118 0.1557111 1.404785 
2.6125343 0.0 0.0 0.0 0.0 0.0 0.20025237 0.0 0.0 0.34912568 0.0 0.0 0.0 0.31811902 0.0 0.0 
3.715618 0.0 0.0 0.0 0.0 0.0 0.0 0.0 0.0 0.0 0.0 0.0 0.0 0.22117886 0.0 0.0 
4.2760053 0.0 0.0 0.0 0.0 0.0 0.0 0.0 0.0 0.0 0.0 0.0 0.0 0.36746773 0.0 0.0 
4.06705 0.0 0.0 0.0 0.0 0.0 0.0 0.0 0.0 0.19967139 0.0 0.0 0.18589847 0.0 0.0 0.0 
3.0715594 0.0 0.0 0.0 0.0 0.0 0.0 0.0 0.0 0.11622022 0.0 0.40076095 0.78784704 0.0 0.0 0.0 
2.101575 0.0 0.0 0.0 0.0 0.0 0.0 0.0 0.0 0.0 0.0 1.2488374 0.9829319 0.0 0.0 0.0 
1.3462099 0.0 0.47465992 0.0 0.0 0.0 0.0 0.0 0.0 0.0 0.0 0.06670146 0.58594686 0.0 0.0 0.0 
0.0 0.0 0.0 0.0 0.65260303 0.6667586 0.0 0.0 0.0 0.0 0.0 0.0 0.0 0.0 0.0 0.0 
0.0 0.0 1.4478854 0.0 0.0 0.46360165 0.0 0.0 0.0 0.051823217 0.0 0.0 0.0 0.0 1.4404719 0.6917396 
0.0 0.0 2.19479 0.0 0.0 0.0 0.0 0.0 0.0 0.0 0.0 0.0 0.7091739 0.031056412 1.835729 0.24626905 
0.0 0.0 0.0 0.0 0.0 0.0 1.202707 0.0 0.0 0.0 0.0 0.0 1.4241 1.0939454 0.6967914 0.0 
0.0 0.0 0.0 0.0 0.0 0.0 0.0 0.0 0.0 0.0 0.0 0.0 2.001304 2.6023211 0.0 0.0 
0.0 0.0 0.0 0.0 0.0 0.0 0.0 0.0 0.0 0.0 0.0 0.0 2.3362637 3.3624835 0.0 0.0 
0.32109165 0.0 0.0 0.0 0.0 0.0 0.0 0.0 0.0 0.0 0.0 0.0 2.5252893 3.1124609 0.0 0.0 
0.6756845 0.0 0.0 0.0 0.0 0.0 0.0 0.0 0.0 0.0 0.3382766 0.0 2.4603631 2.470427 0.0 0.0 
0.1600743 0.0 0.0 0.0 0.0 0.0 0.0 0.0 0.0 0.0 0.5745454 0.25969484 1.1957064 1.9930986 0.0 0.0 
0.15210728 0.0 0.7907283 0.0 0.0 0.0 0.0 0.0 0.37890336 0.0 0.113842174 0.8206059 0.7945617 0.707719 0.0 0.0 
0.0 0.0 0.0 0.0 0.91705734 0.83069056 0.0 0.0 0.0 0.0 0.23347259 0.013319805 0.0 0.0 0.0 0.0 
0.0 0.0 1.047019 0.0 0.0 1.0314846 0.0 0.0 0.0 0.0 0.0 0.0 0.0 0.0 0.2750345 0.0 
0.0 0.0 1.8164409 0.0 0.0 0.0 0.18379731 0.08725855 0.0 0.0 0.0 0.0 1.0573021 0.0 0.4538281 0.0 
0.0 0.0 0.0 0.0 0.0 0.0 1.0114866 0.0 0.0 0.0 0.0 0.0 1.3188056 0.0 0.0 0.0 
0.0 0.0 0.0 0.0 0.0 0.0 0.0 0.0 0.3182808 0.0 0.0 0.0 1.0979406 0.0 0.006824687 0.0 
0.0 0.96310437 0.0 0.69382745 0.0 0.0 0.0 0.0 0.0 0.0 0.0 0.0 0.6978515 0.0 0.64472234 0.0 
0.0 1.7199137 0.0 2.9140503 0.0 0.0 0.0 0.0 0.0 0.0 0.0 0.0 0.45733023 0.0 0.0 0.0 
0.0 0.0 0.0 2.790237 0.0 0.0 0.0 0.0 0.0 0.0 0.0 0.114726216 0.47463888 0.0 0.0 0.0 
0.0 0.0 0.0 3.1910295 0.0 0.0 0.0 0.0 0.0 0.0 1.3454815 0.015841916 0.0 0.4191543 0.0 0.0 
0.0 0.0 0.0 2.7149985 0.2217075 0.45704907 0.0 0.0 0.0 0.0 1.7618648 0.20168546 0.0 1.1229359 0.0 0.0 
0.0 0.0 0.0 0.0 0.6720343 0.80383354 0.0 0.0 0.0 0.0 0.6460465 0.3001013 0.0 0.0 0.0 0.0 
0.0 0.0 0.0 0.0 0.0 2.5301337 0.0 0.0 0.0 0.0 0.0 0.0 0.0 0.0 0.0 0.0 
0.0 0.15107368 0.6101911 0.0 0.0 0.0 0.41228697 1.4543768 0.0 0.0 0.0 0.0 0.0 0.0 0.0 0.0 
0.0 0.0 0.0 0.0 0.0 0.0 0.3426942 0.0 0.0 0.8632387 0.0 0.0 0.0 0.0 0.0 0.0 
0.0 0.0 0.0 0.0 0.0 0.0 0.0 0.0 0.0 1.2419237 0.0 0.0 0.0 0.0 0.0 0.0 
0.0 0.0 0.0 0.0 0.0 0.0 0.0 0.0 0.0 0.9794415 0.0 0.0 0.0 0.0 0.0 0.0 
0.0 0.0 0.0 0.0 0.0 0.0 0.0 0.0 0.0 0.72343606 0.0 0.0 0.0 0.0 0.0 0.0 
0.0 0.0 0.0 0.0 0.0 0.0 0.0 0.0 0.0 0.62547034 0.0 0.0 0.0 0.0 0.0 0.0 
0.0 0.0 0.0 0.0 0.0 0.0 0.0 0.0 0.0 0.3072811 0.0 0.39789397 0.0 0.0 0.0 0.0 
0.0 0.0 0.0 0.85617 0.069763444 1.0250013 0.0 0.0 0.0 0.0 0.0 0.039388776 0.0 0.0 0.0 0.0 
0.0 0.0 0.0 0.0 0.4807111 0.49751383 0.0 0.0 0.0 0.0 1.0536878 0.34109437 0.0 0.0 0.0 0.0 
0.0 0.0 0.0 0.0 0.0 3.4207406 0.0 0.0 0.0 0.09490043 0.6110864 0.0 0.0 0.16539297 0.0 0.0 
0.0 0.0 0.0 0.0 0.0 0.0 0.9611774 0.9615038 0.0 1.0618128 0.36284748 0.0 0.0 1.4617248 0.0 0.0 
0.0 0.0 0.0 0.0 0.0 0.0 0.7517947 0.0 0.0 1.6268977 0.38875106 0.0 0.0 0.18337557 0.0 0.0 
0.0 0.0 0.0 0.0 0.0 0.0 0.0 0.0 0.0 1.0256373 0.0 0.0 0.0 0.0 0.0 0.0 
0.057315398 0.0 0.0 0.0 0.0 0.0 0.0 0.0 0.0 0.0 0.0 0.0 0.0 0.94689 0.0 0.0 
0.6634535 0.0 0.0 0.0 0.0 0.0 0.0 0.0 0.0 0.0 0.0 0.0 0.3002891 1.0662909 0.0 0.0 
0.28201526 0.0 0.0 0.0 0.0 0.0 0.0 0.0 0.0 0.0 0.0 0.0 0.5892312 0.0 0.0 0.0 
0.0 0.0 0.0 0.0 0.0 0.0 0.0 0.0 0.0 0.0 0.0 2.920563 2.035601 0.0 0.0 0.0 
0.0 0.0 0.0 0.0 0.0 0.0 0.0 0.0 0.0 0.0 0.0 2.3840518 1.7792227 0.0 0.0 0.0 
0.0 0.07619171 0.0 0.0 0.36127788 0.0 0.0 0.0 0.25957733 0.0 0.8402202 0.31271476 0.0 0.0 0.0 0.0 
0.0 0.15327476 0.19801113 0.0 0.0 1.7985511 0.0 0.0 0.0 0.0 0.23927769 0.0 0.0 0.0 0.0 0.0 
0.0 0.0 1.4788438 0.0 0.0 1.4202461 0.33987388 0.0 0.0 0.0 0.82476074 0.0 0.18103918 0.0 0.9419916 0.0 
0.0 0.0 0.0 0.0 0.0 0.0 0.5226974 0.0 0.0 0.0 3.6559067 0.0 0.66682464 0.17777145 0.3275038 0.0 
0.0 0.0 0.0 0.0 0.0 0.0 0.0 0.0 0.0 0.0 3.7142086 0.0 0.5905166 0.14484268 0.0 0.0 
0.0 0.0 0.0 0.0 0.0 0.0 0.0 0.0 0.0 0.0 1.8236413 0.0 1.072659 1.3276895 0.75970024 0.0 
0.0 0.0 0.0 0.0 0.0 0.0 0.0 0.0 0.0 0.0 0.0 0.0 1.1143286 2.0366101 2.781891 0.0 
0.0 0.0 0.0 0.0 0.0 0.0 0.0 0.0 0.2822447 0.0 0.0 0.0 0.4293365 0.82083124 0.6861514 0.0 
0.0 0.0 0.0 0.0 0.0 0.0 0.0 0.0 0.0 0.0 0.0 1.5917689 0.29875308 0.0 0.0 0.0 
0.0 0.0 0.0 0.0 0.0 0.0 0.0 0.0 0.0 0.0 0.0 4.3054924 1.4169432 0.0 0.0 0.0 
0.0 0.8771466 0.0 0.0 0.30303338 0.0 0.0 0.0 0.0 0.0 0.0 0.39029983 0.0 0.0 0.0 0.0 
0.0 2.6622074 0.0 0.0 0.0 0.0 0.0 0.0 0.0 0.0 0.0 0.0 0.0 0.0 0.0 0.0 
0.0 3.941648 0.0 0.0 0.0 0.0 0.0 0.0 0.0 0.0 0.0 0.0 0.0 0.0 0.0 0.0 
0.0 2.9932466 0.0 2.0491667 0.0 0.0 0.21851218 0.0 0.0 0.0 0.0 0.0 0.0 0.0 0.0 0.0 
0.0 2.4744174 0.0 4.157103 0.0 0.0 0.0 0.0 0.0 0.0 0.8282894 0.0 0.0 0.0 0.0 0.0 
0.0 2.6200585 0.0 3.6873338 0.0 0.12186085 0.0 0.0 0.0 0.0 0.5913334 0.0 0.0 0.0 0.0 0.0 
0.0 0.97742087 0.0 2.7610881 0.0 0.35161647 0.0 0.0 0.0 0.0 0.0 0.0 0.0 0.0 2.5780773 0.0 
0.0 0.0 0.0 1.1542252 0.0 0.0 0.0 0.0 0.0 0.0 0.0 0.0 0.0 0.0 2.8077893 0.4975064 
0.0 0.0 0.0 0.0 0.0 0.0 0.0 0.0 0.0 0.0 0.0 0.0 0.0 0.0 0.0 0.0 
0.0 0.0 0.0 0.0 0.0 0.0 0.0 0.0 0.0 0.0 0.0 2.4222293 0.31778234 0.0 0.0 0.0 
1.1868709 0.0 0.0 0.0 0.0 1.1183605 0.0 0.0 0.0 0.0 0.0 0.07084216 0.0 0.14591786 0.0 0.0 
1.7958667 0.8113404 0.0 0.0 0.0 0.0 0.0 0.26341814 0.0 0.0 0.0 0.0 0.0 0.0 0.0 0.0 
1.1927391 1.7181909 0.0 0.0 0.0 0.0 0.0 0.6367505 0.0 0.92690927 0.0 0.0 0.0 0.0 0.0 0.0 
0.8365384 1.4422143 0.0 0.0 0.0 0.0 0.0 0.0 0.0 2.5866394 0.0 0.0 0.0 0.0 0.0 0.0 
1.1961346 1.0187426 0.0 0.0 0.0 0.0 0.0 0.0 0.0 3.5474248 0.0 0.0 0.0 0.0 0.0 0.0 
0.07675408 0.83327246 0.0 0.0 0.2886039 0.0 0.0 0.0 0.0 3.1636739 0.0 0.0 0.0 0.0 0.0 0.3343003 
0.0 0.0 0.0 0.0 0.0 0.4234631 0.0 0.0 0.0 2.0998294 0.0 0.0 0.0 0.0 0.0 0.0 
0.0 0.0 0.0 0.0 0.0 0.0 0.6975772 0.0 0.0 0.36124232 0.0 0.0 0.0 0.0 1.9409664 0.0 
0.0 0.0 0.0 0.0 0.0 0.0 0.4076031 0.0 0.0 0.0 0.0 0.0 0.0 0.0 0.0845177 0.0 
0.0 0.0 0.0 0.0 0.0 0.0 0.0 0.0 2.0489264 0.0 0.0 0.0 0.0 0.0 0.0 0.0 
0.0 0.0 0.0 0.0 0.0 1.7747934 0.0 0.0 0.0 0.0 0.8826343 0.0 0.0 0.81484914 0.183639 0.0 
0.89974624 0.0 0.0 0.0 0.0 1.5685556 0.0 0.0 0.0 0.0 0.054361857 0.0 0.0 2.7888591 0.0 0.0 
2.0322783 0.0 0.0 0.0 0.0 0.0 0.8735893 0.0 0.0 0.0 0.0 0.0 0.0 3.1410303 0.0 0.0 
1.9573252 0.0 0.0 0.0 0.0 0.0 0.0 0.0 0.0 1.5966938 0.0 0.0 0.0 1.708307 0.0 0.0 
1.8394601 0.0 0.0 0.0 0.0 0.0 0.0 0.0 0.0 2.0938978 0.0 0.0 0.0 0.0 0.0 0.0 
0.9854811 0.0 0.0 0.0 0.0 0.0 0.0 0.0 0.0 1.4793078 0.0 0.0 0.0 0.0 0.0 0.0 
0.0 0.0 0.0 0.0 0.0 0.0 0.0 0.0 0.0 0.23643503 0.0 0.0 0.9580638 0.0 0.0 0.0 
0.0 0.0 0.81689227 0.0 0.0 0.0 0.59277135 0.554067 0.0 0.0 0.0 0.0 1.8283757 0.0 0.0 0.0 
0.0 0.0 0.0 0.0 0.0 0.0 0.0065237805 0.0 1.7966722 0.0 0.0 0.0 1.685048 0.0 0.0 0.0 
0.0 0.0 0.0 0.0 0.0 0.0 0.0 0.0 3.8922474 0.0 0.0 0.0 0.2867996 0.0 0.0 0.0 
0.0 0.11913872 0.0 0.0 0.0 0.5317614 0.0 0.0 0.0 0.0 1.0843507 0.0 0.41135085 0.0 0.63140833 0.0 
0.0 0.0 0.2403363 0.0 0.0 1.8064125 0.0 0.0 0.0 0.0 1.5146148 0.0 0.6515319 0.36048734 2.3653264 0.0 
0.0 0.0 0.0 0.0 0.0 0.23648128 0.16758671 0.0 0.0 0.0 2.8762999 0.0 0.8236081 2.71238 3.1310346 0.0 
0.0 0.0 0.0 0.0 0.0 0.0 0.0 0.0 0.0 0.0 4.254507 0.0 1.0369725 3.432255 1.9421079 0.0 
0.0 0.0 0.0 0.0 0.0 0.0 0.0 0.0 0.0 0.0 4.228171 0.0 1.8725902 2.6381352 0.040991858 0.0 
0.0 0.0 0.0 0.0 0.0 0.0 0.0 0.0 0.0 0.0 3.7983637 0.0 2.9656525 1.3894858 0.0 0.0 
0.0 0.0 0.0 0.0 0.0 0.0 0.0 0.0 0.0 0.0 1.8856514 0.0 2.8533792 0.9953029 0.0 0.0 
0.0 0.0 0.0 0.0 0.0 0.0 0.17837235 0.4746347 0.3772197 0.0 0.89158493 0.0 1.8130416 1.0718473 0.0 0.0 
0.0 0.0 0.0 0.22026129 0.0 0.0 0.0 0.0 3.751095 0.0 1.2958978 0.0 0.87556875 0.5014674 0.0 0.0 
0.0 0.0 0.0 0.0 0.0 0.0 0.0 0.0 2.309624 0.0 0.97771806 0.0 0.0 0.3589886 0.0 1.5365045 

