0.5312694 0.0 0.0 0.0 0.0 1.3644464 0.0 0.0 0.0 0.33526492 0.45262036 0.0 0.0 1.5721039 0.56771624 0.32762277 
0.7307379 0.0 0.26209837 0.0 0.0 0.0 0.0 0.0 0.0 0.30998617 0.49763504 0.0 0.28955173 2.7177644 0.8523376 0.44199356 
1.288382 0.0 0.0 0.0 0.0 0.0 0.0 0.0 0.0 0.0 0.78884226 0.0 1.0701121 3.3165278 0.21001334 0.0 
1.508444 0.0 0.0 0.0 0.0 0.0 0.0 0.0 0.0 0.0 0.21133608 0.0 1.5834533 3.4553986 0.0 0.0 
1.9689636 0.0 0.0 0.0 0.0 0.0 0.0 0.0 0.0 0.0 0.0 0.0 2.0829637 4.00047 0.0 0.0 
2.2586112 0.0 0.8585628 0.0 0.0 0.0 0.0 0.0 0.0 0.0 0.0 0.0 1.7460039 4.584325 0.0 0.0 
2.3410468 0.0 1.7719274 0.0 0.0 0.0 0.0 0.0 0.0 0.0 0.0 0.0 1.3686109 3.285194 0.0 0.0 
2.4769092 0.0 0.0 0.0 0.0 0.0 0.0 0.0 0.0 0.0 0.0 0.0 1.607012 1.0331235 0.0 0.0 
2.0059009 0.0 0.0 0.0 0.0 0.0 0.0 0.0 0.0 0.0 0.0 1.9444562 1.7038428 0.0 0.0 0.0 
1.4237583 0.0 0.0 0.0 0.0 0.0 0.0 0.0 0.0 0.0 0.0 1.9170681 1.3861572 0.0 0.0 0.0 
0.0 0.0 0.0 0.0 0.0 1.0386069 0.0 0.0 0.0 0.0 1.322599 0.0 0.5707362 0.0 0.75979835 0.0 
0.0 0.0 0.0 0.0 0.0 0.61515194 0.0 0.0 0.0 0.0 0.6525456 0.0 1.1931703 0.86514753 1.1266214 0.0 
0.0 0.0 0.0 0.0 0.0 0.0 0.0 0.0 0.0 0.0 0.16188338 0.0 1.7253201 0.6205839 1.2647924 0.0 
0.0 1.1455666 0.0 0.0 0.0 0.0 0.0 0.0 0.0 0.0 0.0 0.0 1.6051348 0.0 0.9728313 0.0 
0.0 2.7928748 0.0 0.0 0.0 0.0 0.0 0.0 0.0 0.0 0.0 0.0 0.9157779 0.0 1.5157871 0.0 
0.0 3.1409402 0.0 0.0 0.0 0.0 0.0 0.0 0.0 0.0 0.0 0.0 0.80212 0.0 3.0634108 0.0 
0.0 0.23090696 0.0 0.0 0.0 0.0 0.0 0.0 0.0 0.0 0.0 0.0 0.8276727 0.0 3.075363 0.0 
0.0 0.0 0.0 0.0 0.0 0.0 0.0 0.0 0.0 0.0 0.0 0.0 1.0110605 0.43570393 0.8286578 0.0 
0.0 0.0 0.0 0.0 0.0 0.0 0.0 0.0 0.0 0.0 0.0 0.5856409 1.3742988 0.74489206 0.0 0.0 
0.0 0.0 0.0 0.0 0.0 0.0 0.0 0.0 0.9573517 0.0 0.08670981 1.3918111 0.93726224 0.7656294 0.0 0.0 
0.0 1.075043 0.0 0.0 0.0 0.38043362 0.0 0.0 0.0 0.0 0.77521837 0.28017554 0.0 0.0 0.0 0.0 
0.0 2.015257 0.0 0.39962137 0.0 1.0475104 0.0 0.14506449 0.0 0.0 0.018940644 0.0 0.0 0.0 0.0 0.0 
0.0 3.1014802 0.0 1.6275123 0.0 0.0 0.0 0.10536119 0.0 0.09157731 0.0 0.0 0.0 0.0 0.011092976 0.0 
0.0 2.6522741 0.0 0.26941702 0.0 0.0 0.0 0.0 0.0 1.5385791 0.0 0.0 0.0 0.0 0.0 0.0 
0.0 0.47408628 0.0 0.0 0.0 0.0 0.0 0.0 0.0 2.457435 0.0 0.0 0.0 0.0 0.0 0.0 
0.0 0.0 0.0 0.0 0.0 0.0 0.0 0.0 0.0 2.8034747 0.0 0.0 0.0 0.0 0.8415329 0.0 
0.0 0.0 0.0 0.0 0.0 0.0 0.0 0.0 0.0 0.5815995 0.0 0.0 0.25581896 0.0 2.2475386 0.0 
0.0 0.0 0.0 0.0 0.0 0.0 0.0 0.0 0.0 0.0 0.0 0.0 0.7260861 0.0 1.250849 0.0 
0.0 0.0 0.0 0.0 0.0 0.0 0.0 0.0 0.45850638 0.0 0.0 0.0 0.5698747 0.0 0.0 0.0 
0.0 0.0 0.0 1.7050912 0.0 0.0 0.0 0.0 0.96517557 0.0 0.25150692 0.54486644 0.0 0.0 0.0 0.0 
0.6525744 0.62368226 0.0 0.17696424 0.0 0.0 0.0 0.19109283 0.0 0.7029704 0.68954307 0.0057135522 0.0 0.0 0.0 0.0 
0.052918557 0.67486334 0.0 0.0 0.0 0.47796488 0.0 0.2713393 0.0 2.517223 0.9027461 0.0 0.0 0.0 0.0 0.0 
0.0 0.0 0.0 0.0 0.0 0.0 0.0 0.0 0.0 4.1568236 1.4785448 0.0 0.0 0.49422947 0.0 0.0 
0.0 0.0 0.0 0.0 0.0 0.0 0.0 0.0 0.0 3.4394472 2.088018 0.0 0.0 1.137177 0.0 0.0 
0.0 0.0 0.0 0.0 0.0 0.0 0.0 0.0 0.0 2.0044081 1.9438812 0.0 0.0 1.4339598 0.0 0.0 
0.0 0.0 0.0 0.0 0.0 0.0 0.0 0.0 0.0 0.0 0.0 0.0 0.015128829 1.3269148 0.0 0.0 
0.0 0.0 0.033927258 0.0 0.0 0.0 0.0 0.0 0.0 0.0 0.0 0.0 0.54915017 0.066100605 0.0 0.0 
0.0 0.0 0.0 0.0 0.0 0.0 0.30671287 0.0 0.0 0.0 0.0 0.0 0.6476757 0.0 0.0 0.0 
0.0 0.0 0.0 0.0 0.0 0.0 0.0 0.0 1.7657802 0.0 0.0 0.629166 0.7775763 0.0 0.0 0.0 
0.0 0.0 0.0 0.0 0.0 0.0 0.0 0.0 0.0 0.0 0.0 1.1043916 0.34924942 0.0 0.0 0.0 
0.0 0.47785807 0.0 0.0 0.0 0.0 0.0 0.0 0.40629348 0.0 0.0 0.0 0.0 0.0 0.0 0.0 
0.0 0.82453805 0.0 0.0 0.0 0.0 0.0 0.0 0.21718606 0.0 0.0 0.0 0.0 0.0 0.0 0.0 
0.0 0.8835874 0.0 0.0 0.0 0.17886603 0.0 0.0 0.0 0.0 0.39236408 0.0 0.3197521 0.0 0.0 0.0 
0.0 0.86953384 0.0 0.0 0.0 0.0 0.0 0.0 0.0 0.0 2.1237137 0.0 0.81080145 0.0 0.6421867 0.0 
0.0 0.96331996 0.0 0.20014277 0.0 0.0 0.0 0.0 0.0 0.0 4.0315967 0.0 0.8350743 0.0 0.44774973 0.0 
0.0 0.517585 0.0 1.5508447 0.0 1.5725992 0.0 0.0 0.0 0.0 4.5567536 0.0 0.0 1.7373848 0.18467624 0.0 
0.0 0.0 0.0 2.720239 0.0 0.2734993 0.0 0.0 0.0 0.0 2.284442 0.0 0.0 3.9876103 0.015952408 0.0 
0.0 0.0 0.0 1.5182766 0.0 0.0 0.7264542 0.0 0.0 0.0 0.70017594 0.0 0.0 2.293974 0.0 0.0 
0.0 0.0 0.0 0.0 0.0 0.0 0.0 0.0 0.0 0.0 0.0 0.0 0.0 0.0 0.0 0.0 
0.0 0.0 0.0 0.0 0.0 0.0 0.0 0.0 0.0 0.0 0.0 3.418294 1.4192008 0.0 0.0 0.0 
0.021512236 1.4880214 0.0 0.0 0.0 0.0 0.0 0.0 0.20476371 0.0 0.0 0.05295755 0.0 0.0 0.0 0.37139055 
0.0 2.7871816 0.0 0.0 0.0 0.0 0.0 0.0 0.0 0.0 0.0 1.2905844 0.0 0.0 0.0 0.0 
0.0 3.89988 0.0 1.9778024 0.0 0.0 0.0 0.0 0.0 0.0 0.0 1.076636 0.0 0.0 0.0 0.0 
0.0 4.140716 0.0 4.0865264 0.0 0.0 0.0 0.0 0.0 0.66849136 0.0 0.0 0.0 0.0 0.0 0.0 
0.0 3.8797657 0.0 4.9283214 0.0 0.0 0.0 0.0 0.0 1.1146573 0.0 0.0 0.0 0.0 0.0 0.0 
0.0 3.3937564 0.0 4.2242937 0.0 0.5748078 0.0 0.0 0.0 1.2015443 0.0 0.0 0.0 0.0 0.0 0.0 
0.0 1.8617532 0.0 3.735887 0.0 2.5097573 0.0 0.0 0.0 0.11115676 0.0 0.0 0.0 0.0 2.14254 0.0 
0.0 0.0 0.0 2.9303002 0.0 0.0 0.0 0.0 0.0 0.0 0.0 0.0 0.0 0.0 2.8327284 0.09153973 
0.0 0.0 0.0 0.49378133 0.0 0.0 0.0 0.0 0.0 0.0 0.32527128 0.0 0.0 0.0 0.0 0.0 
0.0 0.0 0.0 0.0 0.0 0.0 0.0 0.0 0.0 0.0 0.0 2.2913957 0.068969324 0.0 0.0 0.0 
1.7133213 1.6781464 0.016553726 0.0 0.0 0.0 0.0 0.0 0.0 0.0 0.0 0.0 0.0 0.0 0.0 0.5766967 
2.6835768 2.0350397 0.0 0.0 0.0 0.0 0.0 0.0 0.0 0.98092973 0.0 0.0 0.0 0.0 0.0 0.0 
3.3484552 1.1528454 0.0 0.0 0.0 0.0 0.0 0.0 0.0 2.292009 0.0 0.698375 0.0 0.0 0.0 0.0 
2.8982291 0.382326 0.0 0.0 0.0 0.0 0.0 0.0 0.0 3.173191 0.0 0.20529363 0.0 0.0 0.0 0.0 
2.1397946 0.32842523 0.0 0.0 0.0 0.0 0.0 0.0 0.0 2.8776524 0.0 0.0 0.0 0.0 0.0 0.0 
1.0345241 0.6710215 0.0 0.0 0.0 0.0 0.0 0.0 0.0 2.772909 0.0 0.0 0.0 0.0 0.0 0.0 
0.0 0.013594577 0.0 0.0 0.0 0.0 0.0 0.0 0.0 2.586584 0.0 0.0 0.0 0.0 0.0 0.0 
0.0 0.0 0.701691 0.0 0.0 0.0 0.0 0.0 0.0 1.1633638 0.0 0.0 0.0 0.0 1.7063389 0.0 
0.0 0.0 0.0 0.0 0.0 0.0 0.7654655 0.0 0.0 0.0 0.0 0.0 0.0 0.0 0.86897916 0.0 
0.0 0.0 0.0 0.0 0.0 0.0 0.0 0.0 0.6900125 0.0 0.0 0.0 0.0 0.0 0.0 0.0 
1.4834024 0.0 0.33523503 0.0 0.0 0.0 0.0 0.0 0.0 0.11511095 0.0 0.0 0.0 1.8089153 0.0 0.044870418 
2.3429735 0.0 0.0 0.0 0.0 0.0 0.0 0.0 0.0 0.21330501 0.0 0.0 0.0 1.1541656 0.0 0.0 
3.1227345 0.0 0.0 0.0 0.0 0.0 0.0 0.0 0.0 0.5011815 0.0 0.0 0.0 0.0 0.0 0.0 
4.0931478 0.0 0.0 0.0 0.0 0.0 0.0 0.0 0.0 0.39412132 0.0 0.0 0.0 0.0 0.0 0.0 
4.4063544 0.0 0.0 0.0 0.0 0.0 0.0 0.0 0.0 0.2636913 0.0 0.0 0.0 0.0 0.0 0.0 
3.7111633 0.0 0.0 0.0 0.0 0.0 0.0 0.0 0.0 0.4921363 0.0 0.0 0.0 0.0 0.0 0.0 
1.4920228 0.0 0.0 0.0 0.0 0.0 0.0 0.0 0.0 0.7787381 0.0 0.0 0.0 0.0 0.0 0.0 
0.2892708 0.0 1.7547357 0.0 0.0 0.0 0.0 0.0 0.0 0.0 0.0 0.0 1.189793 0.0 0.0 0.0 
0.15620816 0.0 0.0 0.0 0.0 0.0 1.0393789 0.0 0.0 0.0 0.0 0.0 1.4133979 0.0 0.0 0.0 
0.0 0.0 0.0 0.0 0.0 0.0 0.0 0.0 3.1256285 0.0 0.0 0.0 0.57805216 0.0 0.0 0.0 
0.0 0.0 0.0 0.0 0.0 1.3921847 0.0 0.0 0.0 0.0 1.4790328 0.0 0.83585054 2.459053 1.7738656 0.0 
0.0 0.0 0.0 0.0 0.0 0.0 0.0 0.0 0.0 0.0 2.1701133 0.0 1.3093292 2.7280731 1.5996555 0.0 
0.0 0.0 0.0 0.0 0.0 0.0 0.0 0.0 0.0 0.0 1.4388812 0.0 1.7806971 2.1586769 1.1577842 0.0 
0.0 0.0 0.0 0.0 0.0 0.0 0.0 0.0 0.0 0.0 0.3747599 0.0 2.7207162 1.499553 0.95896727 0.0 
0.0 0.0 0.0 0.0 0.0 0.0 0.0 0.0 0.0 0.0 0.112763286 0.0 3.0968096 1.4368368 1.0560398 0.0 
0.0 0.0 0.0 0.0 0.0 0.0 0.0 0.0 0.0 0.0 0.9056297 0.0 2.9503138 1.1747723 0.0 0.0 
0.0 0.0 0.0 0.0 0.0 0.0 0.0 0.0 0.0 0.0 1.0718235 0.0 2.5954762 1.2650661 0.0 0.0 
0.0 0.0 0.0 0.0 0.0 0.0 0.0 0.00019218773 0.0 0.0 0.15893364 0.0 2.3765333 1.140268 0.0 0.0 
0.0 0.0 0.0 0.0 0.0 0.0 0.0 0.0 1.7930726 0.0 0.48877844 0.0 2.0262249 0.38462788 0.0 0.0 
0.0 0.0 0.0 0.0 0.0 0.0 0.0 0.0 3.6247988 0.0 0.8617776 0.0 0.34381348 0.291418 0.0 0.0 
0.0 0.22808273 0.0 0.0 0.0 0.6946195 0.0 0.25111187 0.0 0.0 2.1475418 0.0 0.7995071 0.0 1.5148855 0.0 
0.0 0.0 0.0 0.0 0.0 0.0 0.0 0.0 0.0 0.0 3.690413 0.0 0.8963419 0.0 2.1114259 0.0 
0.0 0.0 0.0 0.0 0.0 0.0 0.0 0.0 0.0 0.0 4.7247467 0.0 1.3044165 0.6236122 1.6742727 0.0 
0.0 0.0 0.0 0.0 0.0 0.0 0.0 0.0 0.0 0.0 4.6771555 0.0 1.9935365 0.47002378 1.1949409 0.0 
0.0 0.0 0.0 0.0 0.0 0.0 0.0 0.0 0.0 0.0 4.2353573 0.0 2.3374534 0.01765196 1.1216698 0.0 
0.0 0.0 0.0 0.0 0.0 0.0 0.0 0.0 0.0 0.0 4.338109 0.0 1.8020452 0.099887945 0.7530082 0.0 
0.0 0.0 0.0 2.8202276 0.0 0.0 0.0 0.0 0.0 0.0 3.8490856 0.0 0.6380608 0.31052506 0.25949645 0.0 
0.0 0.033594944 0.0 4.7703023 0.0 0.0 0.0 0.0 0.2800751 0.0 2.8462992 0.0 0.0 0.5413238 0.2333201 0.0 
0.0 0.0 0.0 3.7812736 0.0 0.0 0.0 0.0 1.6280968 0.0 2.201215 0.0 0.0 0.11048009 0.14999415 0.032196935 
0.0 0.0 0.0 1.5617775 0.0 0.0 0.0 0.0 0.6357561 0.0 1.3844782 0.0 0.0 0.0 0.0 2.5972083 

