0.42300493 0.0 0.0 0.0 0.0 0.37711954 0.0 0.0 0.0 0.0 0.0 0.0 0.0 0.21749362 0.0 0.0 
1.2553537 0.08610175 0.0 0.0 0.0 1.0584717 0.0 0.0 0.0 0.0 0.0 0.0 0.0 0.9128227 0.0 0.0 
1.9736683 0.23429133 0.0 0.0 0.0 0.0 0.0 0.0 0.0 0.05858771 0.0 0.0 0.0 0.9582404 0.0 0.59460384 
2.2988877 0.0 0.0 0.0 0.0 0.0 0.0 0.0 0.0 0.3126172 0.0 0.0 0.0 0.18513772 0.0 0.0 
3.1270378 0.0 0.0 0.0 0.0 0.0 0.0 0.0 0.0 0.50810295 0.0 0.0 0.0 0.0 0.0 0.0 
3.475804 0.0 0.0 0.0 0.0 0.0 0.0 0.0 0.0 0.37085977 0.0 0.28248435 0.0 0.0 0.0 0.0 
3.0698073 0.0 0.3556934 0.0 0.0 0.0 0.0 0.0 0.0 0.13054642 0.0 1.0755435 0.0 0.0 0.0 0.0 
2.0403726 0.0 0.112118155 0.0 0.0 0.0 0.0 0.0 0.0 0.0 0.0 1.2732986 0.022310711 0.0 0.0 0.0 
1.0806373 0.0 0.0 0.0 0.09831341 0.0 0.0 0.0 0.0 0.061154757 0.0 1.4413633 0.0 0.0 0.0 0.0 
0.4990705 0.0 0.0 0.14984998 1.2466466 0.7764003 0.0 0.0 0.0 0.18881619 0.0 0.7213428 0.0 0.0 0.0 0.0 
0.0 0.0 0.0 0.0 0.0 0.0 0.0 0.0 0.11993919 0.015755557 0.58599627 0.0 0.0 0.10387144 0.0 0.0 
0.0 0.0 0.0 0.0 0.0 1.0892425 0.0 0.0 0.0 0.029478963 1.0302857 0.0 0.0 1.1550183 0.47878724 0.119733155 
0.0 0.0 0.12038611 0.0 0.0 0.9133752 0.0 0.0 0.0 0.0 0.8865934 0.0 0.056401223 2.8460684 0.6287787 0.0 
0.6005577 0.0 0.38463938 0.0 0.0 0.0 0.0 0.0 0.0 0.0 0.3807177 0.0 0.15303352 3.8237019 0.5044077 0.0 
1.444899 0.0 0.013685759 0.0 0.0 0.0 0.0 0.0 0.0 0.0 0.0 0.0 0.4429648 3.106058 0.0 0.0 
2.5139103 0.0 0.4683298 0.0 0.0 0.0 0.0 0.0 0.0 0.0 0.0 0.0 0.72357994 2.1254618 0.0 0.0 
3.1329432 0.0 0.9454409 0.0 0.0 0.0 0.0 0.0 0.0 0.0 0.0 0.0 0.88511926 0.9804497 0.0 0.0 
3.2543566 0.0 0.6532843 0.0 0.0 0.0 0.0 0.0 0.0 0.0 0.0 0.6540998 1.0577571 0.0 0.0 0.0 
2.4338536 0.0 0.0 0.0 0.0 0.0 0.0 0.0 0.0 0.0 0.0 2.080887 1.2504867 0.0 0.0 0.0 
1.8255262 0.0 0.0 0.0 0.0 0.0 0.0 0.0 0.0 0.0 0.0 2.224943 0.939874 0.0 0.0 0.0 
0.0 0.24933141 0.0 0.0 0.0 0.0 0.0 0.0 0.0 0.0 0.18086492 0.0 0.0 0.0 0.0 0.0 
0.0 1.1768209 0.0 0.0 0.0 0.0205824 0.0 0.0 0.0 0.0 0.0 0.0 0.0 0.0 0.0 0.0 
0.0 2.146703 0.0 0.0 0.0 0.0 0.0 0.0 0.0 0.0 0.0 0.0 0.059449174 0.0 1.0004625 0.0 
0.0 2.6218293 0.0 0.0 0.0 0.0 0.0 0.0 0.0 0.0 0.0 0.0 0.0 0.0 2.6237268 0.0 
0.0 1.1335975 0.0 0.0 0.0 0.0 0.0 0.0 0.0 0.0 0.0 0.0 0.11784607 0.0 3.3768785 0.0 
0.0 0.0 0.0 0.0 0.0 0.0 0.0 0.0 0.0 0.0 0.0 0.0 0.30174208 0.0 3.0854905 0.0 
0.0 0.0 0.0 0.0 0.0 0.0 0.0 0.0 0.0 0.0 0.0 0.0 0.5448704 0.33064586 1.9102685 0.0 
1.2550961 0.0 0.0 0.0 0.0 0.0 0.0 0.0 0.0 0.0 0.0 0.0 1.4294299 0.51104707 0.0 0.0 
1.1685561 0.0 0.0 0.0 0.0 0.0 0.0 0.0 0.0 0.0 0.0 1.1184019 1.4440279 0.4136091 0.0 0.0 
0.9080746 0.0 0.0 0.0 0.0 0.0 0.0 0.0 0.0 0.0 0.0 2.3989906 1.7084147 0.24047932 0.0 0.0 
0.29407105 0.35513237 0.0 0.0 0.0 0.0 0.0 0.0 0.0 0.0 0.40967807 0.43634292 0.0 0.0 0.0 0.0 
1.0341319 1.1376817 0.0 0.0 0.0 0.67027426 0.0 0.0 0.0 0.0 0.0 0.0 0.0 0.0 0.0 0.0 
0.31360534 1.8831198 0.0 0.0 0.0 0.0 0.0 0.0 0.0 1.0322604 0.0 0.0 0.0 0.0 0.0 0.0 
0.0 1.2496496 0.0 0.0 0.0 0.0 0.0 0.0 0.0 2.6232648 0.0 0.0 0.0 0.0 0.0 0.0 
0.0 0.0 0.0 0.0 0.0 0.0 0.0 0.0 0.0 2.0373535 0.0 0.0 0.0 0.0 1.7468699 0.0 
0.0 0.0 0.0 0.0 0.0 0.0 0.0 0.0 0.0 0.0 0.0 0.0 0.0 0.0 2.8045151 0.0 
0.0 0.0 0.0 0.0 0.0 0.0 0.0 0.0 0.0 0.0 0.0 0.0 0.43165487 0.0 3.573624 0.0 
0.0 0.0 0.0 0.0 0.0 0.0 0.0 0.0 0.0 0.0 0.0 0.0 1.706952 0.0 2.8282793 0.0 
0.0 0.0 0.0 0.0 0.0 0.0 0.0 0.0 0.0 0.0 0.0 0.0 1.579512 0.0 0.0 0.0 
0.0 0.0 0.0 0.0 0.0 0.0 0.0 0.0 0.19120196 0.0 0.0 0.8612838 0.8731865 0.4043473 0.0 0.0 
0.04866263 0.871536 0.0 0.0 0.2470428 0.0 0.06087946 0.0 0.6137826 0.27693737 0.0 0.8388324 0.0 0.0 0.0 0.0 
0.037753936 0.14608343 0.0 0.0 0.41038448 1.3938711 0.0 0.0 0.0 1.0312071 1.0261644 0.0 0.0 0.0 0.0 0.0 
0.0 0.0 0.0 0.0 0.0 1.0971849 0.0 0.0 0.0 1.8103704 2.0639544 0.0 0.0 1.4787923 0.0 0.0 
0.0 0.0 0.0 0.0 0.0 0.0 0.0 0.0 0.0 1.5939227 2.7380223 0.0 0.0 0.9354642 0.0 0.0 
0.0 0.0 0.0 0.0 0.0 0.0 0.0 0.0 0.0 0.87026197 1.3331368 0.0 0.0 0.24849546 0.0 0.0 
0.0 0.0 0.0 0.0 0.0 0.0 0.0 0.0 0.0 0.23035038 0.0 0.0 0.32064766 0.0 0.0 0.0 
0.0 0.0 0.0 0.0 0.0 0.0 0.0 0.0 0.0 0.0 0.0 0.0 0.85166305 0.0 0.0 0.0 
0.0 0.0 0.0 0.0 0.0 0.0 0.0 0.0 0.0 0.0 0.0 0.0 1.184074 0.0 0.57706314 0.0 
0.0 0.0 0.0 0.0 0.0 0.0 0.0 0.0 0.0 0.0 0.0 0.0 0.94079524 0.0 0.0 0.0 
0.0 0.0 0.0 0.0 0.0 0.0 0.0 0.0 1.4594742 0.0 0.0 0.0 0.0 0.0 0.0 0.0 
0.16476883 2.1551173 0.0 0.0 0.0 0.0 0.0 0.0 0.0 0.0 0.0 1.7434224 0.0 0.0 0.0 0.0 
0.0 1.9377011 0.0 0.0 0.20051822 0.0 0.0 0.0 0.0 0.0 0.0 2.144702 0.2535653 0.0 0.0 0.0 
0.0 1.7944582 0.0 0.0 0.0 0.53489107 0.0 0.0 0.0 0.0 0.0 0.0 0.0 0.0 0.0 0.0 
0.0 2.8392293 0.0 0.16548303 0.0 0.0 0.0 0.0 0.0 0.0 1.5219665 0.0 0.0 0.0 0.0 0.0 
0.0 3.2463405 0.0 1.070599 0.0 0.0 0.0 0.0 0.0 0.0 2.1121733 0.0 0.0 0.0 0.0 0.0 
0.0 2.209142 0.0 1.2473961 0.0 0.0 0.0 0.0 0.0 0.0 1.2563916 0.0 0.0 0.0 0.0 0.0 
0.0 0.0 0.0 0.58463496 0.0 0.0 0.0 0.0 0.0 0.0 0.0 0.0 0.0 0.0 0.0 0.0 
0.0 0.0 0.0 0.0 0.0 0.0 2.1839063 0.0 0.0 0.0 0.0 0.0 0.0 0.0 0.0 0.0 
0.0 0.0 0.0 0.0 0.0 0.0 0.0 0.0 0.18746346 0.0 0.0 0.0 0.0 0.0 0.0 0.0 
0.0 0.0 0.0 0.0 0.0 0.0 0.0 0.0 1.4927218 0.0 0.0 0.0 0.0 0.0 0.0 0.0 
2.3685029 0.0 0.0 0.0 0.0 0.0 0.0 0.0 0.0 0.0 0.0 0.0 0.0 0.0 0.0 0.0 
3.355241 0.0 0.0 0.0 0.0 0.0 0.0 0.0 0.0 0.016755398 0.0 1.810781 0.0 0.0 0.0 0.0 
3.3025541 0.47401956 0.0 0.0 0.0 0.0 0.0 0.0 0.0 1.567529 0.0 0.43080214 0.0 0.0 0.0 0.0 
1.2900652 1.7683108 0.0 0.0 0.0 0.0 0.0 0.0 0.0 3.3351183 0.0 0.0 0.0 0.0 0.0 0.0 
0.0 0.78460133 0.0 0.0 0.0 0.0 0.0 0.0 0.0 4.1163397 0.0 0.0 0.0 0.0 0.0 0.0 
0.0 0.0 0.0 0.0 0.0 0.0 0.0 0.0 0.0 3.1666656 0.0 0.0 0.0 0.0 0.0 0.0 
0.0 0.0 0.0 0.0 0.0 0.0 0.0 0.0 0.0 0.89526373 0.0 0.0 0.0 0.0 0.14448501 0.0 
0.0 0.0 0.0 0.0 0.0 0.0 0.4328262 0.0 0.0 0.0 0.0 0.0 0.0 0.0 0.0 0.0 
0.0 0.0 0.0 0.0 0.0 0.0 0.0 0.0 0.92487997 0.0 0.0 0.0 0.0 0.0 0.0 0.0 
0.0 0.0 0.0 0.0 0.0 0.0 0.0 0.0 1.4362252 0.0 0.0 0.0 0.26343572 0.0 0.0 0.0 
1.8826975 0.0 0.0 0.0 0.0 0.0 0.0 0.0 0.0 0.0 1.0220177 0.0 0.0 3.5708632 0.0 0.0 
2.8298225 0.0 0.0 0.0 0.0 0.0 0.0 0.0 0.0 0.0 0.0 0.0 0.0 2.3308582 0.0 0.0 
3.3551304 0.0 0.0 0.0 0.0 0.0 0.0 0.0 0.0 1.4034783 0.0 0.0 0.17709166 1.1326163 0.0 0.0 
2.2420416 0.0 0.0 0.0 0.0 0.0 0.0 0.0 0.0 2.6419513 0.0 0.0 0.0 0.07708258 0.0 0.0 
0.37096778 0.0 0.0 0.0 0.0 0.0 0.0 0.0 0.0 2.3307683 0.0 0.0 0.30219674 0.0 0.0 0.0 
0.0 0.0 0.0 0.0 0.0 0.0 0.0 0.0 0.0 1.1699622 0.0 0.0 1.1833802 0.0 0.0 0.0 
0.0 0.0 0.0 0.0 0.0 0.0 0.0 0.0 0.0 0.0 0.0 0.0 1.744719 0.0 0.0 0.0 
0.0 0.0 0.0 0.0 0.0 0.0 0.08554352 0.0 9.417534e-06 0.0 0.0 0.0 1.4081432 0.0 0.0 0.0 
0.0 0.0 0.0 0.0 0.0 0.0 0.0 0.0 2.9963691 0.0 0.17568816 0.0 0.693815 0.15855333 0.0 0.0 
0.0 0.0 0.0 0.0 0.0 0.0 0.0 0.0 1.3006041 0.0 0.5434403 0.0 0.38825822 0.0 0.0 0.6536967 
0.0 0.0 0.0 0.0 0.0 0.0 0.0 0.0 0.0 0.0 3.7294922 0.0 1.3765918 2.485175 3.1040514 0.0 
0.0 0.0 0.0 0.0 0.0 0.0 0.0 0.0 0.0 0.0 4.6282063 0.0 1.8161294 2.7860672 1.5472289 0.0 
0.0 0.0 0.0 0.0 0.0 0.0 0.0 0.0 0.0 0.0 4.425892 0.0 2.8741877 2.0634582 0.14721446 0.0 
0.0 0.0 0.0 0.0 0.0 0.0 0.0 0.0 0.0 0.0 4.3849373 0.0 3.1333792 1.4359113 0.0 0.0 
0.0 0.0 0.0 0.0 0.0 0.0 0.0 0.0 0.0 0.0 4.771288 0.0 2.6329148 1.3336813 0.0 0.0 
0.0 0.0 0.0 0.12167239 0.0 0.0 0.0 0.7461442 0.0 0.0 4.294318 0.0 1.6101063 1.1387984 0.0 0.0 
0.0 0.0 0.0 3.016011 0.0 0.0 0.0 0.12386817 0.0 0.0 3.232261 0.0 0.32861906 1.102425 0.0 0.0 
0.0 0.0 0.0 2.9051054 0.0 0.0 0.0 0.0 2.097753 0.0 2.2600043 0.0 0.0 0.85732406 0.0 0.0 
0.0 0.0 0.0 1.5510274 0.0 0.0 0.0 0.0 1.9907618 0.0 1.5994906 0.0 0.0 0.24654731 0.097737744 1.6700723 
0.0 0.0 0.0 0.7912711 0.0 0.0 0.0 0.0 0.0 0.0 1.0807045 0.0 0.0 0.0 0.0 2.1410449 
0.0 1.2609082 0.0 2.1642408 0.0 0.0 0.0 0.0 0.0 0.0 1.5562451 0.0 0.0 0.0 2.1696594 0.0 
0.0 1.8350253 0.0 3.3198116 0.0 0.0 0.0 0.0 0.0 0.0 2.7301452 0.0 0.0 0.0 2.4142346 0.0 
0.0 2.3923252 0.0 4.5088153 0.0 0.0 0.0 0.0 0.0 0.0 3.2039618 0.0 0.0 0.0 1.4602598 0.0 
0.0 2.8161674 0.0 5.15145 0.0 0.0 0.0 0.0 0.0 0.0 3.35712 0.0 0.0 0.0 0.36710292 0.0 
0.0 2.9784737 0.0 6.046744 0.0 0.0 0.0 0.0 0.0 0.0 3.1881843 0.0 0.0 0.0 0.0 0.0 
0.0 2.8478668 0.0 7.0785728 0.0 0.0 0.0 0.0 0.0 0.0 2.5067568 0.0 0.0 0.0 0.0 0.0 
0.0 2.198477 0.0 6.2496567 0.0 0.0 0.0 0.0 0.0 0.5122044 1.6355138 0.0 0.0 0.0 0.0 0.0 
0.0 0.5939964 0.0 4.1249723 0.041546777 0.0 0.0 0.0 0.102399364 0.0 1.0604521 0.0 0.0 0.0 0.049996346 2.1491656 
0.0 0.0 0.0 2.0015643 0.6915258 0.39114356 0.0 0.0 0.0 0.0 0.77467316 0.0 0.0 0.0 0.24639054 2.9045534 
0.0 0.0 0.0 0.6505451 0.5344009 0.25421506 0.0 0.0 0.0 0.0 0.2159034 0.0 0.0 0.0 0.12455486 1.6177573 

