0.0 0.0 0.0 0.015756952 0.0 0.0 0.0 0.0 0.0 0.0 0.0 0.0 0.0 0.0 0.0 0.0 
0.0 0.0 0.0 0.0 0.0 0.0 0.13389762 0.0 0.0 0.0 0.0 0.0 0.0 0.0 0.0 0.0 
0.0 0.22550604 0.0 0.0 0.1865238 0.0 0.0 0.0 0.0 0.0 0.0 0.02599264 0.0 0.0 0.0 0.0 
0.14726253 1.0333648 0.32947597 0.0 0.0 0.0 0.0 0.0 0.098909706 0.0 0.0 0.0 0.0 0.0 0.0 0.39476344 
0.4985918 2.2209566 0.13255748 0.0 0.0 0.0 0.0 0.0 0.0 0.0 0.0 0.0 0.0 0.0 0.0 0.6628084 
1.2151815 3.630338 0.0 0.17978522 0.22678578 0.0 0.0 0.0 0.0 0.0 0.0 0.40402243 0.0 0.0 0.0 0.74529386 
1.3542047 3.1429079 0.0 0.019314755 0.44949698 0.0 0.0 0.0 0.0 0.018518474 0.0 0.1470151 0.0 0.0 0.0 0.46717936 
0.8932236 1.4783081 0.0 0.0 1.217446 0.0 0.0 0.0 0.0 0.50038874 0.0 1.1100607 0.0 0.0 0.0 0.0 
0.54449636 0.68720984 0.0 0.270781 1.4553598 0.353567 0.0 0.0 0.0 0.5985152 0.0 0.60644364 0.0 0.0 0.0 0.0 
0.30278644 0.5603305 0.0029101558 0.6275888 0.58821523 0.0 0.0 0.0 0.0 0.4180288 0.0 0.0 0.0 0.0 0.0 0.0 
0.0 0.0 0.0 0.0 0.0 0.0 0.08078716 0.0 0.0 0.0 0.0 0.0 0.0 0.0 0.0 0.0 
0.023766745 0.113029 0.0 0.0 0.22019607 0.013455145 0.014730483 0.0 0.0 0.0 0.0 0.0 0.0 0.0 0.0 0.0 
0.6921134 0.5921886 0.35561618 0.0 0.11329717 0.0 0.0 0.0 0.0 0.0 0.0 0.0 0.0 0.0 0.0 0.30219376 
1.4383439 1.071651 0.8155143 0.0 0.0 0.0 0.0 0.0 0.0 0.45439526 0.0 0.0 0.0 0.0 0.0 1.8198844 
2.3637228 0.8829244 0.0 0.0 0.0 0.0 0.0 0.0 0.0 0.8955179 0.0 0.0 0.0 0.0 0.0 1.5604141 
3.3095338 0.0 0.0 0.0 0.0 0.0 0.0 0.0 0.0 0.6570308 0.0 0.0 0.0 0.6184037 0.0 0.0 
3.1321168 0.0 0.0 0.0 0.0 0.0 0.0 0.0 0.0 0.28616327 0.0 0.0 0.0 0.0 0.0 0.0 
2.6159842 0.0 0.0 0.0 0.0 0.0 0.0 0.0 0.0 0.4902333 0.0 0.0 0.0 0.0 0.0 0.0 
2.2119787 0.0 0.06801714 0.0 0.0 0.0 0.0 0.0 0.0 0.38820028 0.0 0.61575425 0.376117 0.0 0.0 0.0 
2.2792265 0.0 0.6156875 0.0 0.0 0.0 0.0 0.0 0.0 0.49379653 0.0 0.013650075 0.44974267 0.0 0.0 0.0 
0.0 0.0 0.0 0.0 0.0 0.14536443 0.18629897 0.0 0.0 0.0 0.0 0.0 0.0 0.012650318 0.0 0.0 
0.4801984 0.020238558 0.0 0.0 0.40194052 0.24110383 0.0 0.0 0.0 0.0 0.0 0.0 0.0 0.117800064 0.0 0.0 
0.66843814 0.5220125 1.1377839 0.0 0.0 0.0 0.0 0.0 0.0 0.6379497 0.0 0.0 0.0 0.0 0.58828825 1.6719655 
0.4093782 0.0 1.1953067 0.0 0.0 0.0 0.0 0.0 0.0 0.7010105 0.0 0.0 0.20795389 0.0 0.6369225 2.8600643 
0.3030137 0.0 0.0 0.0 0.0 0.0 1.1980209 0.0 0.0 0.1228853 0.0 0.0 1.2588016 0.1285294 0.0 0.0 
0.38601294 0.0 0.0 0.0 0.0 0.0 0.0 0.0 0.0 0.0 0.0 0.0 1.2603093 2.6935403 0.0 0.0 
1.0278711 0.0 0.0 0.0 0.0 0.0 0.0 0.0 0.0 0.0 0.0 0.0 0.7363483 2.994501 0.0 0.0 
1.7154765 0.0 0.0 0.0 0.0 0.0 0.0 0.0 0.0 0.0 0.0 0.0 0.47177607 1.4072175 0.0 0.0 
1.1948237 0.0 0.0 0.0 0.0 0.0 0.0 0.0 0.0 0.0 0.0 0.031221218 0.8354838 0.5722058 0.0 0.0 
1.4754187 0.0 0.0 0.0 0.0 0.0 0.0 0.0 0.0 0.0 0.0 0.7112491 1.5772934 0.11269166 0.0 0.0 
0.051288757 0.0 0.0 0.0 0.0925755 0.1796293 0.16152082 0.0 0.0 0.0 0.034612864 0.0 0.0 0.0 0.0 0.0 
0.0 0.0 0.0 0.0 0.82458454 0.6765896 0.0 0.0 0.0 0.0 0.0 0.0 0.0 0.08515585 0.0 0.0 
0.0 0.0 1.664345 0.0 0.0 0.0 0.0 0.0 0.0 0.27019006 0.0 0.0 0.0 0.0 0.4543236 1.5536016 
0.0 0.0 0.97945297 0.0 0.0 0.0 0.24877127 0.0 0.0 0.0 0.0 0.0 1.1967618 0.0 0.0 0.0 
0.0 0.0 0.0 0.0 0.0 0.0 0.4183063 0.0 0.0 0.0 0.0 0.26719832 1.5328448 0.0 0.0 0.0 
0.0 0.0 0.0 0.0 0.0 0.0 0.0 0.0 0.0 0.0 0.0 0.0 0.9981187 0.0 0.5863245 0.0 
0.0 0.0 0.0 0.0 0.0 0.0 0.0 0.0 0.0 0.0 0.0 0.0 0.0 0.0 2.107104 0.0 
0.0 0.0 0.0 0.0 0.0 0.0 0.0 0.0 0.0 0.0 0.9562668 0.0 0.0 0.2859246 1.3347025 0.0 
0.0 0.0 0.0 0.0 0.0 0.0 0.0 0.0 0.0 0.0 0.1601412 0.0 0.70085824 0.25569502 0.12572943 0.0 
0.0 0.0 0.0 0.0 0.0 0.0 0.0 0.0 0.0 0.0 0.0 0.010817833 1.6805139 0.22537968 0.0 0.0 
0.0 0.23473012 0.0 0.0 0.28881365 0.0 0.0 0.0 0.28500888 0.0 0.0 0.0 0.0 0.0 0.0 0.0 
0.0 0.3393572 0.0 0.0 0.85013026 0.7247159 0.0 0.0 0.0 0.0 0.0 0.06261848 0.0 0.0 0.0 0.5035056 
0.0 0.78596795 1.3764453 0.0 0.0 0.60065633 0.0 0.0 0.0 0.0 0.0 0.0 0.0 0.0 0.0 0.0 
0.4337857 0.6092478 0.0 0.0 0.0 0.0 0.90577 1.124646 0.0 0.0 0.0 0.0 0.0 0.0 0.0 0.0 
1.1204743 0.0 0.0 0.0 0.0 0.0 0.5061419 1.3472337 0.0 0.6437206 0.0 0.0 0.0 0.0 0.0 0.0 
0.42028594 0.0 0.0 0.0 0.0 0.0 0.0 0.0 0.0 2.3275373 0.0 0.0 0.0 0.0 0.0 0.0 
0.0 0.0 0.0 0.0 0.0 0.0 0.0 0.0 0.0 1.1441543 0.0 0.0 0.0 0.0 0.0 0.0 
0.0 0.0 0.0 0.0 0.0 0.0 0.0 0.0 0.0 0.0 0.0 0.0 0.57160705 0.0 0.7463694 0.0 
0.0 0.0 0.0 0.0 0.0 0.0 0.0 0.0 0.0 0.0 0.0 0.0 0.523945 0.0 0.76337075 0.0 
0.0 0.0 0.0 0.51574665 0.0 0.0 0.0 0.0 1.0436898 0.0 0.28630325 0.0 0.52403384 0.0 0.09740825 0.0 
0.6076703 1.2046449 0.0 0.0 0.017758563 0.0 0.0 0.0 0.0 0.0 0.0 0.0 0.0 0.0 0.0 0.30084464 
0.28622654 1.6601297 0.0 0.0 0.39722753 0.0 0.0 0.0 0.0 0.48865867 0.0 0.0 0.0 0.0 0.0 1.0226225 
0.6697055 0.5515861 0.5365684 0.0 0.0 0.0 0.0 0.0 0.0 1.1761535 0.0 0.0 0.0 0.0 0.0 0.0 
0.86358196 0.0 0.0 0.0 0.0 0.0 1.7398403 1.8982562 0.0 1.4687911 0.0 0.0 0.0 0.0 0.0 0.0 
0.0 0.0 0.0 0.0 0.0 0.0 0.54522306 0.0 0.0 1.1287794 0.0 0.0 0.0 0.0 0.0 0.0 
0.0 0.0 0.0 0.0 0.0 0.0 0.0 0.0 0.0 0.0 0.0 0.0 0.27984446 0.0 0.0 0.0 
0.0 0.0 0.0 0.0 0.0 0.0 0.0 0.0 0.0 0.0 0.0 0.0 1.2405375 0.0 0.0 0.0 
0.0 0.0 0.0 0.0 0.0 0.0 0.0 0.0 0.0 0.0 0.94312733 0.0 0.80499625 0.0 0.0 0.0 
0.0 0.0 0.0 1.7638228 0.0 0.0 0.0 0.0 2.168268 0.0 1.1934254 0.0 0.042336203 0.0 0.0 0.0 
0.0 0.0 0.0 2.262411 0.0 0.0 0.0 0.0 2.0823386 0.0 0.9756666 0.0 0.0 0.0 0.0 0.7083633 
0.9525351 0.0 0.0 0.0 0.0 0.0 0.0 0.0 0.0 0.29475737 0.0 0.0 0.0 0.14519334 0.0 1.1023439 
0.24853681 0.0 0.0 0.0 0.0 0.0 0.0 0.0 0.0 0.75552994 0.0 0.0 0.0 0.0 0.0 0.105337776 
0.08408007 0.0 0.033615936 0.0 0.0 0.0 0.0 0.006186977 0.0 0.96871567 0.0 0.0 0.0 0.0 0.0 0.0 
0.0 0.0 0.0 0.0 0.0 0.0 0.0 1.0172395 0.0 0.0 0.0 0.0 0.8895937 0.0 0.35005218 0.0 
0.0 0.0 0.0 0.0 0.0 0.0 0.0 0.0 0.0 0.0 0.0 0.0 1.1739845 0.0 0.0 0.0 
0.0 0.0 0.0 0.0 0.0 0.0 0.0 0.0 0.0 0.0 0.0 0.0 0.23293619 0.0 0.0 0.0 
0.0 0.0 0.0 2.0834546 0.0 0.0 0.0 0.42899293 0.0 0.0 0.53769726 0.0013151467 0.28452712 0.0 0.0 0.0 
0.0 0.0 0.0 4.176835 0.0 0.0 0.0 0.0 1.417081 0.0 1.4651431 0.0 0.0 0.0 0.0 0.0 
0.0 0.036659475 0.0 3.4060166 0.0 0.0 0.0 0.0 1.0526997 0.0 0.81526476 0.0 0.0 0.0 0.0 1.2045765 
0.0 0.0 0.0 1.5786257 0.39008543 0.1465956 0.0 0.0 0.0 0.0 0.46215796 0.0 0.0 0.0 0.0 2.1761436 
0.0 0.0 0.0 0.0 0.0 1.2167635 0.0 0.0 0.0 0.0 1.4290045 0.0 0.23690636 1.2465134 0.0 0.0 
0.0 0.0 0.0 0.0 0.0 0.0 0.0 0.30364203 0.0 0.0 2.296893 0.0 0.27191764 1.0750515 0.0 0.0 
0.0 0.0 0.0 0.0 0.0 0.0 0.0 1.1963692 0.0 0.0 1.3594698 0.0 0.5629642 0.0 0.0 0.0 
0.0 0.0 0.0 0.0 0.0 0.0 0.0 1.578131 0.0 0.0 0.0 0.0 1.2588713 0.0 0.0 0.0 
0.0 0.0 0.0 0.0 0.0 0.0 0.32893062 0.27978635 0.0 0.0 0.0 0.0 0.552005 0.0 0.0 0.0 
0.0 0.0 0.0 0.0 0.0 0.0 0.0 0.0 0.8408296 0.0 0.0 0.0 0.0 0.0 0.0 0.0 
0.0 0.0 0.0 1.4140741 0.0 0.0 0.0 0.0 1.1624292 0.49598223 0.0 0.5278243 0.0 0.0 0.0 0.0 
0.0 0.0 0.0 1.6338615 0.0 0.0 0.0 0.0 0.0 0.64785403 0.0 0.0 0.0 0.0 0.0 0.7310368 
0.0 0.0 0.0 1.1166154 0.38525388 0.41889876 0.0 0.0 0.0 0.23920995 0.007599931 0.0 0.0 0.0 0.0 1.8111162 
0.0 0.0 0.0 0.20755056 0.46125084 0.33787912 0.0 0.0 0.0 0.0 0.0 0.0 0.0 0.0 0.0 0.98884827 
0.0 0.2017615 0.0 0.0 0.0 0.52100694 0.0 0.43275774 0.0 0.0 1.9301157 0.0 0.30095702 0.0 0.32017505 0.0 
0.0 0.0 0.0 0.0 0.0 0.0 0.0 1.2846202 0.0 0.0 3.7699862 0.0 0.09040643 0.1889489 0.0 0.0 
0.0 0.0 0.0 0.0 0.0 0.0 0.0 0.7863421 0.0 0.0 4.381726 0.0 0.0 1.1318965 0.0 0.0 
0.0 0.0 0.0 1.3709154 0.0 0.0 0.0 0.3336056 0.0 0.0 3.360278 0.0 0.0 1.6376096 0.0 0.0 
0.0 0.0 0.0 1.5612712 0.0 0.0 1.2321678 0.0 0.0 0.0 2.2966275 0.0 0.0 1.5767133 0.0 0.0 
0.0 0.0 0.0 0.37841916 0.0 0.0 0.0 0.0 2.2917511 0.0 1.146349 0.0 0.0 0.68791306 0.0 0.0 
0.0 0.0 0.0 0.331177 0.0 0.0 0.0 0.0 0.85803246 0.0 0.32265103 0.0 0.0 0.0 0.0 1.2126445 
0.0 0.0 0.0 0.18051144 0.0 0.0 0.0 0.0 0.0 0.0 0.00053351745 0.0 0.003336601 0.0 0.0 0.974925 
0.0 0.0 0.0 0.0 0.146187 0.10288936 0.0 0.0 0.0 0.0 0.0 0.0 0.0 0.0 0.0 0.6011048 
0.0 0.031999294 0.0 0.0 0.0 0.0 0.0 0.0 0.0 0.0 0.0 0.0 0.0 0.0 0.0 0.086252786 
0.0 1.2704325 0.0 0.43115884 0.0 0.0 0.0 0.57371515 0.0 0.030698765 0.71974164 0.13215058 0.0 0.0 0.0 0.0 
0.0 1.6810381 0.0 1.3160511 0.0 0.0 0.0 0.49521405 0.0 0.5569623 1.3328048 0.0 0.0 0.0 0.0 0.0 
0.0 1.7598381 0.0 3.6340127 0.0 0.27567074 0.0 0.0 0.0 0.04045746 2.196409 0.0 0.0 0.0 0.0 0.0 
0.0 1.9325871 0.0 5.2698474 0.0 0.70315605 0.0 0.0 0.0 0.0 2.1228108 0.0 0.0 0.0 0.22749825 0.0 
0.0 1.1736362 0.0 4.69308 0.0 0.0 0.014883317 0.0 0.07592519 0.0 1.8817537 0.0 0.0 0.0 0.43872654 0.0 
0.0 0.13463643 0.0 2.7532694 0.0 0.0 0.0 0.0 0.8054117 0.0 1.6696976 0.0 0.0 0.025554247 0.26009303 2.5417323 
0.0 0.17999272 0.0 1.2078472 0.34382164 0.25878477 0.0 0.0 0.0 0.0 0.9769458 0.0 0.0 0.049033135 0.0 2.1888201 
0.0 0.060022686 0.0 0.6596893 0.09411412 0.0 0.0 0.0 0.0 0.0 0.12640801 0.12818404 0.0 0.0 0.0 0.6848328 
0.0 0.013355922 0.0 0.117269814 0.0 0.0 0.0 0.0 0.0 0.0 0.0 0.0 0.0 0.0 0.0 0.0 
0.0 0.0 0.0 0.0008445941 0.0 0.0 0.0 0.0 0.0 0.0 0.0 0.0 0.0 0.0 0.0 0.0 

