0.0 0.0 0.0 0.0 0.0 0.0 0.13477626 0.0 0.0 0.0 0.0 0.0 0.0 0.0 0.0 0.0 
0.0 0.14039306 0.0 0.0 0.26685506 0.0 0.008833325 0.0 0.0 0.0 0.0 0.0 0.0 0.0 0.0 0.0 
0.5495626 0.6007635 0.5128371 0.0 0.0 0.1817314 0.0 0.0 0.0 0.0 0.0 0.0 0.0 0.0 0.0 0.5607066 
1.4758725 1.2791276 0.6479161 0.0 0.0 0.0 0.0 0.0 0.0 0.29253215 0.0 0.0 0.0 0.0 0.0 1.5409045 
2.7582123 1.6664264 0.0 0.0 0.0 0.0 0.0 0.0 0.0 0.8351329 0.0 0.0 0.0 0.0 0.0 1.8401672 
3.3423295 0.0 0.0 0.0 0.0 0.0 0.0 0.07371487 0.0 1.1057702 0.0 0.0 0.0 0.0 0.0 0.6149416 
3.559354 0.0 0.0 0.0 0.0 0.0 0.0 0.08974598 0.0 1.1096791 0.0 0.0 0.0 0.5598117 0.0 0.0 
3.6267838 0.0 0.0 0.0 0.0 0.0 0.0 0.015205562 0.0 0.7477927 0.0 0.0 0.0 1.2636386 0.0 0.0 
2.8904297 0.0 0.0 0.0 0.0 0.0 0.0 0.0 0.0 0.2536097 0.0 0.0 0.3804685 0.912777 0.0 0.0 
1.7918928 0.0 0.0 0.0 0.0 0.0 0.0 0.0 0.0 0.0 0.0 0.0 0.8700661 0.09564719 0.0 0.0 
0.059428018 0.24538445 0.0 0.0 0.07847818 0.11709453 0.0 0.0 0.0 0.0 0.0 0.0 0.0 0.0 0.0 0.0 
0.68882495 0.9258403 0.0 0.0 0.20431519 0.0 0.0 0.0 0.0 0.0 0.0 0.0 0.0 0.0 0.0 0.0 
0.9774795 1.639153 0.7891805 0.0 0.0 0.0 0.0 0.0 0.0 0.60527664 0.0 0.0 0.0 0.0 0.45684838 2.1628702 
1.3342462 0.800187 0.17911562 0.0 0.0 0.0 0.0 0.0 0.0 1.1325557 0.0 0.0 0.006274402 0.0 0.6993417 2.84376 
1.2129669 0.0 0.0 0.0 0.0 0.0 0.279885 0.0 0.0 0.6459094 0.0 0.0 1.0736072 0.3890468 0.16434596 0.0 
0.043174427 0.0 0.0 0.0 0.0 0.0 0.0 0.46140635 0.0 0.0 0.3307533 0.0 1.5805857 2.3745522 0.0 0.0 
0.0 0.0 0.0 0.0 0.0 0.0 0.0 0.0 0.0 0.0 1.7504634 0.0 2.041679 3.681306 0.0 0.0 
0.0 0.0 0.0 0.0 0.0 0.0 0.0 0.0 0.0 0.0 2.1845558 0.0 2.7278695 4.170827 0.0 0.0 
0.0 0.0 0.0 0.0 0.0 0.0 0.0 0.0 0.0 0.0 1.9807408 0.0 2.3926532 3.8449078 0.0 0.0 
0.0 0.0 0.0 0.0 0.0 0.0 0.0 0.0 0.0 0.0 1.7645425 0.0 1.6676253 2.6144884 0.0 0.0 
0.736444 0.0 0.0 0.0 0.0 0.49897963 0.0 0.0 0.0 0.0 0.0 0.0 0.0 0.22213483 0.0 0.0 
1.0925546 0.20298506 0.0 0.0 0.0 0.40916592 0.0 0.0 0.0 0.25292814 0.0 0.0 0.0 0.30058098 0.0 0.8811008 
0.1845411 0.12481585 0.17316031 0.0 0.0 0.0 0.0 0.0 0.0 0.36417004 0.0 0.0 0.0 0.0 0.0 1.4879321 
0.0 0.0 0.0 0.0 0.0 0.0 0.0 0.36483854 0.0 0.0 0.0 0.0 1.1629174 0.0 0.0 0.0 
0.0 0.0 0.0 0.0 0.0 0.0 0.0 1.4402134 0.0 0.0 0.0 0.0 2.0795302 0.0 0.0 0.0 
0.0 0.0 0.0 0.0 0.0 0.0 0.0 0.20365493 0.0 0.0 0.0 0.0 2.0785027 0.0 0.0 0.0 
0.0 0.5528469 0.0 1.649647 0.0 0.0 0.0 0.0 0.0 0.0 0.92128414 0.0 1.0563884 0.0 0.0 0.0 
0.0 1.8903521 0.0 4.924308 0.0 0.0 0.0 0.0 0.0 0.0 2.9289217 0.0 0.18604752 0.0 0.8629884 0.0 
0.0 1.715285 0.0 5.5506463 0.0 0.0 0.0 0.0 0.0 0.0 2.889449 0.0 0.0 0.88370013 1.5136738 0.0 
0.0 1.0776933 0.0 4.4532814 0.0 0.0 0.0 0.0 0.034727354 0.0 2.4070814 0.0 0.0 0.7163834 1.1144338 0.0 
0.0 0.0 0.0 0.0 0.0 0.10858643 0.0 0.0 0.0 0.22505996 0.8230801 0.0 0.0 0.21626818 0.014587447 0.23135123 
0.0 0.0 0.0 0.0 0.0 1.2951005 0.0 0.0 0.0 0.24602276 1.4832373 0.0 0.14354298 1.1047132 0.0 0.63952166 
0.0 0.0 0.0 0.0 0.0 0.8447123 0.0 0.08593081 0.0 0.0 0.8498434 0.0 0.36863256 2.131798 0.0 0.0 
0.6629958 0.0 0.0 0.0 0.0 0.0 0.0 2.0116997 0.0 0.0 0.0 0.0 0.0 1.2095009 0.0 0.0 
0.9668563 0.0 0.0 0.0 0.0 0.0 0.0 1.6173582 0.0 0.0 0.0 0.0 0.0 0.0 0.0 0.0 
0.9910789 0.0 0.0 0.0 0.0 0.0 0.0 0.0 0.0 0.28417182 0.0 0.0 0.0 0.0 0.0 0.0 
0.0 0.0 0.0 0.26647857 0.0 0.0 0.0 0.0 0.0 1.7486452 0.0 0.86185503 0.0 0.0 0.0 0.0 
0.0 0.0 0.0 3.1531022 0.0 0.09555076 0.0 0.0 0.0 2.9394763 0.0 0.0 0.0 0.0 0.0 0.0 
0.0 0.0 0.0 4.1522727 0.7384004 1.2792408 0.0 0.0 0.0 2.6300538 0.0 0.0 0.0 0.0 0.0 0.0 
0.0 0.0 0.0 2.7693193 1.0256776 0.75376856 0.0 0.0 0.0 1.862414 0.28270692 0.0 0.0 0.0 0.6965006 0.764754 
0.0 0.48555848 0.0 0.0 0.0 0.0 0.0 0.0 0.112213105 0.0 0.5680129 0.24546057 0.36026305 0.0 0.0 0.0 
0.0 0.59976846 0.0 0.0 0.0 0.7682668 0.0 0.0 0.0 0.0 2.1269746 0.0 0.53462166 0.0 0.0 0.0 
0.0 0.0 0.0 0.0 0.0 1.5588803 0.0 0.71366507 0.0 0.0 3.1863437 0.0 0.0 1.4356003 0.51337934 0.0 
0.0 0.0 0.0 0.0 0.0 0.41749072 1.1308347 0.706793 0.0 0.0 3.6138353 0.0 0.0 3.8243437 0.0 0.0 
0.0 0.0 0.0 0.0 0.0 0.0 0.0 0.0 0.0 0.0 1.6871159 0.0 0.0 5.068716 0.0 0.0 
0.20480825 0.0 0.0 0.0 0.0 0.0 0.0 0.0 0.0 0.0 0.0 0.0 0.0 2.1885457 0.0 0.0 
0.0 0.0 0.0 0.0 0.0 0.0 0.0 0.0 0.0 0.18847658 0.0 0.0 0.0 0.0 0.0 0.0 
0.0 0.0 0.0 0.0 0.0 0.0 0.0 0.0 0.0 0.9292863 0.0 3.191946 0.80453753 0.0 0.0 0.0 
0.22959016 0.0 0.0 0.0 0.0 0.56474656 0.0 0.0 0.0 0.67441857 0.0 0.7425492 0.35088122 0.0 0.0 0.0 
0.0 0.0 0.15316768 0.02825035 0.29816732 1.156843 0.0 0.0 0.0 0.0 0.0 0.0 0.0 0.103475876 0.0 0.0 
0.1297965 2.5187805 0.0 0.0 0.0 0.0 0.0 0.0 0.0 0.0 0.0 0.9364222 0.0 0.0 0.0 0.0 
0.0 3.2918334 0.0 1.0668129 0.0 0.0 0.0 0.0 0.0 0.0 0.0 1.27259 0.0 0.0 0.0 0.0 
0.0 3.2964354 0.0 3.017321 0.0 0.76714975 0.0 0.0 0.0 0.028831344 0.0 0.0 0.0 0.0 0.0 0.0 
0.0 2.0859404 0.0 3.009143 0.0 1.0098212 0.0 0.0 0.0 0.0 1.0674746 0.0 0.0 0.0 1.5832168 0.0 
0.0 0.0 0.0 1.7784072 0.0 2.890105 0.0 0.0 0.0 0.0 1.6805457 0.0 0.0 1.2225981 3.1104183 0.0 
0.0 0.0 0.0 1.0326695 0.0 0.30921054 0.0 0.0 0.0 0.0 0.84631187 0.0 0.0 3.2373703 2.3398974 0.0 
0.0 0.0 0.0 0.20200497 0.0 0.0 0.0 0.0 0.0 0.0 0.0 0.0 0.0 1.0976712 0.0 0.0 
0.0 0.0 0.0 0.0 0.0 0.0 0.0 0.0 0.0 0.0 0.0 2.6333127 0.51156074 0.0 0.0 0.0 
0.3815834 0.0 0.0 0.0 0.0 0.0 0.0 0.0 0.0 0.0 0.0 3.6866014 1.7207928 0.0 0.0 0.0 
0.62674886 0.0 0.811354 0.0 0.0 0.29493743 0.0 0.0 0.0 0.0 0.0 0.2498875 0.23145251 0.1933462 0.0 0.0 
2.1072733 2.0907998 0.0 0.0 0.0 0.0 0.0 0.30168247 0.0 0.0344364 0.0 0.0 0.0 0.0 0.0 0.0 
2.4472082 2.258205 0.0 0.0 0.0 0.0 0.0 0.0 0.0 1.1812221 0.0 0.5458429 0.0 0.0 0.0 0.0 
1.914999 2.6007547 0.0 0.0 0.0 0.0 0.0 0.0 0.0 2.1356363 0.0 0.41619685 0.0 0.0 0.0 0.0 
0.0 2.887807 0.0 0.0 0.0 0.0 0.0 0.0 0.0 1.9689249 0.0 0.0 0.0 0.0 0.0 0.0 
0.0 1.7030303 0.0 0.0 0.0 0.0 0.0 0.0 0.0 2.0358975 0.0 0.0 0.0 0.0 0.5442964 0.0 
0.0 0.0 0.0 0.0 0.0 1.9907539 0.0 0.0 0.0 0.778339 0.0 0.0 0.0 0.0 3.574344 0.0 
0.0 0.0 0.0 0.38605738 0.0 0.0 0.0 0.0 0.0 0.0 0.0 0.0 0.0 0.05958172 2.6576564 0.0 
0.0 0.0 0.0 0.0 0.0 0.0 0.0 0.0 0.0 0.0 0.045374945 0.0 0.0 0.0 0.0 0.0 
0.0 0.0 0.0 0.0 0.0 0.0 0.0 0.0 0.0 0.0 0.0 3.1401794 0.8686694 0.0 0.0 0.0 
0.1177187 0.0 0.70555806 0.0 0.0 0.0 0.0 0.0 0.0 0.0 0.0 1.5410799 0.87416357 0.0 0.0 0.0 
2.3917627 0.0 0.0 0.0 0.0 0.0 0.0 0.07223183 0.0 0.0 0.42956784 0.0 0.0 3.6450756 0.0 0.0 
3.1520176 0.0 0.0 0.0 0.0 0.0 0.0 0.0 0.0 0.1974181 0.0 0.0 0.0 2.992934 0.0 0.0 
3.9548345 0.0 0.0 0.0 0.0 0.0 0.0 0.0 0.0 0.66863334 0.0 0.0 0.0 1.241948 0.0 0.0 
3.8873115 0.0 0.0 0.0 0.0 0.0 0.0 0.0 0.0 1.1806861 0.0 0.0 0.0 0.0 0.0 0.0 
1.8809539 0.0 0.0 0.0 0.0 0.0 0.0 0.0 0.0 1.5968779 0.0 0.0 0.0 0.0 0.0 0.0 
0.0 0.0 0.9989749 0.0 0.0 0.30904564 0.0 0.0 0.0 0.6027189 0.0 0.0 0.38423443 0.0 0.0 0.0 
0.0 0.0 0.83406025 0.0 0.0 0.0 0.0 0.0 0.0 0.0 0.0 0.0 0.7270854 0.0 2.1145372 0.0 
0.0 0.0 0.0 0.0 0.0 0.0 0.0 0.0 0.0 0.0 0.0 0.0 0.0 0.12446291 0.5043874 0.0 
0.0 0.0 0.0 0.0 0.0 0.0 0.0 0.0 0.75336874 0.0 0.0 0.0 0.0 0.0 0.0 0.0 
0.0 0.0 0.0 0.0 0.0 0.0 0.0 0.0 0.0 0.0 0.0 1.7381527 1.1755978 0.0 0.0 0.0 
0.0 0.0 0.0 0.0 0.0 0.0 0.0 0.0 0.0 0.0 2.5852342 0.0 1.2358664 3.0490215 2.5689387 0.0 
0.0 0.0 0.0 0.0 0.0 0.0 0.0 0.0 0.0 0.0 3.6438296 0.0 1.8656482 4.3541994 1.7469162 0.0 
0.0 0.0 0.0 0.0 0.0 0.0 0.0 0.0 0.0 0.0 4.028735 0.0 2.2143795 4.7627106 0.2506014 0.0 
0.0 0.0 0.0 0.0 0.0 0.0 0.0 0.0 0.0 0.0 3.5390055 0.0 2.1356447 4.394487 0.0 0.0 
0.0 0.0 0.0 0.0 0.0 0.0 0.0 0.0 0.0 0.0 2.7311232 0.0 1.7014776 2.3920162 0.0 0.0 
0.0 0.0 0.0 0.0 0.0 0.0 0.0 0.0 0.0 0.0 1.0541722 0.0 1.942512 0.43693385 0.0 0.0 
0.0 0.0 1.6449083 0.0 0.0 0.0 0.0 0.0 0.0 0.0 0.08653881 0.0 1.7713501 0.48106244 0.4265858 0.0 
0.0 0.0 0.0 0.025040427 0.0 0.0 0.52099705 0.0 1.2233794 0.0 1.4232417 0.0 0.8922337 0.2970561 1.0342628 0.0 
0.0 0.0 0.0 0.29655787 0.0 0.0 0.0 0.0 1.9312255 0.0 1.513895 0.0 0.0 0.24892402 0.34876895 1.2634215 
0.0 0.0 0.0 1.0783556 0.0 0.0 0.0 0.0 0.0 0.0 0.7602405 0.7907522 0.29694372 0.0 0.0 0.5686206 
0.0 1.4921782 0.0 0.38678247 0.0 0.0 0.0 0.0 0.0 0.0 0.8187867 0.0 0.44366896 0.0 2.8998933 0.0 
0.0 1.2921538 0.0 1.3110172 0.0 0.0 0.0 0.0 0.0 0.0 1.9768555 0.0 0.26031435 0.0 4.0736527 0.0 
0.0 1.3619815 0.0 2.2483284 0.0 0.0 0.0 0.0 0.0 0.0 2.7261467 0.0 0.60905653 0.0 3.7901192 0.0 
0.0 1.5584974 0.0 3.747252 0.0 0.0 0.0 0.0 0.0 0.0 3.18595 0.0 0.5820797 0.0 2.716283 0.0 
0.0 1.6289966 0.0 4.1882734 0.0 0.0 0.0 0.0 0.0 0.0 3.6623287 0.0 0.22695781 0.0 0.82466775 0.0 
0.0 2.040151 0.0 5.2234993 0.0 0.0 0.0 0.0 0.0 0.0 2.9262276 0.0 0.0 0.0 0.0 0.0 
0.0 1.7443821 0.0 4.734859 0.0 0.0 0.0 0.0 0.0 0.0 1.3975974 0.0 0.0 0.0 0.0 0.0 
0.0 0.1692514 0.0 3.3080893 0.0 0.0 0.2655442 0.0 0.18175508 0.0 0.8789672 0.0 0.0 0.0 0.41479063 0.14178042 
0.0 0.0 0.0 1.3708384 0.15212947 0.0 0.0 0.0 0.45055363 0.0 0.93931705 0.0 0.0 0.0 0.4344821 2.4128914 
0.0 0.28780156 0.0 1.1768968 0.36017266 0.08392283 0.0 0.0 0.0 0.0 0.43610913 0.0 0.0 0.0 0.0 1.2991383 

