0.0 0.0 0.0 0.0 0.039330266 0.047593623 0.2490987 0.0 0.0 0.0 0.0 0.0 0.0 0.0 0.0 0.0 
0.0 0.0 0.0 0.0 0.6877922 0.20382258 0.0 0.0 0.0 0.0 0.0 0.0 0.0 0.0 0.0 0.0 
0.0 0.0 1.3756549 0.0 0.0 0.87122995 0.0 0.0 0.0 0.23216748 0.0 0.0 0.0 0.33995935 0.96198267 0.9408682 
0.70177996 0.0 2.608498 0.0 0.0 0.0 0.0 0.0 0.0 0.3829502 0.0 0.0 0.0 0.80050004 1.5366935 1.648263 
2.102387 0.0 0.0 0.0 0.0 0.0 0.7345919 0.0 0.0 0.0 0.0 0.0 0.37023914 1.3461884 0.7486728 0.0 
3.2305584 0.0 0.0 0.0 0.0 0.0 0.0 0.0 0.0 0.0 0.0 0.0 0.303733 2.0817137 0.0 0.0 
3.8133461 0.0 0.0 0.0 0.0 0.0 0.0 0.11345361 0.0 0.0 0.0 0.0 0.5738446 2.1836283 0.0 0.0 
3.2548828 0.0 0.0 0.0 0.0 0.0 0.0 0.0 0.0 0.0 0.0 0.0 0.9087522 1.0027708 0.0 0.0 
2.496811 0.0 0.0 0.0 0.0 0.0 0.0 0.0 0.0 0.0 0.0 0.7737305 1.4982569 0.0 0.0 0.0 
1.8119844 0.0 0.0 0.0 0.0 0.0 0.0 0.0 0.0 0.0 0.0 1.8037648 1.529511 0.0 0.0 0.0 
0.07609524 0.026394797 0.0 0.0 0.20848608 0.07769826 0.02047485 0.0 0.0 0.0 0.0 0.0 0.0 0.0 0.0 0.0 
0.0005683154 0.34682903 0.0 0.0 0.9851152 0.0 0.0 0.0 0.0 0.0 0.0 0.0 0.0 0.0 0.0 0.0 
0.0 0.53816235 1.8825835 0.0 0.0 0.0 0.0 0.0 0.0 0.18874595 0.0 0.0 0.0 0.0 1.6788579 1.11425 
0.0 0.0 2.5150132 0.0 0.0 0.0 0.0 0.0 0.0 0.0 0.0 0.0 0.70606554 0.0 2.69249 0.0 
0.0 0.0 0.0 0.0 0.0 0.0 1.2102287 0.0 0.0 0.0 0.0 0.0 2.1229022 0.0 2.3266504 0.0 
0.0 0.0 0.0 0.0 0.0 0.0 0.0 0.0 0.0 0.0 0.26787192 0.0 2.6165445 1.0863552 1.6547813 0.0 
0.0 0.0 0.0 0.0 0.0 0.0 0.0 0.0 0.0 0.0 2.0938358 0.0 2.389111 3.4498484 0.93945354 0.0 
0.0 0.0 0.0 0.0 0.0 0.0 0.0 0.0 0.0 0.0 2.5755398 0.0 2.0068264 4.5791326 0.0 0.0 
0.0 0.0 0.0 0.0 0.0 0.0 0.0 0.0 0.0 0.0 1.7713767 0.0 1.882734 3.0525963 0.0 0.0 
0.0 0.0 0.0 0.0 0.0 0.0 0.0 0.0 0.23949409 0.0 0.5675854 1.0034109 1.7639064 1.2782938 0.0 0.0 
0.26078236 0.0 0.0 0.0 0.23229277 0.24038082 0.0 0.0 0.0 0.0 0.12736534 0.0 0.0 0.0 0.0 0.0 
0.0 0.0 0.0 0.0 1.1152929 0.6253136 0.0 0.0 0.0 0.0 0.0 0.0 0.0 0.0 0.0 0.13664787 
0.0 0.0 0.87114084 0.0 0.0 0.0 0.0 0.0 0.0 0.06683938 0.0 0.0 0.0 0.0 0.0 0.2060227 
0.0 0.037399136 0.8294828 0.0 0.0 0.0 0.0 1.3352249 0.0 0.0 0.0 0.0 0.6570594 0.0 0.0 0.0 
0.0 0.0 0.0 0.0 0.0 0.0 0.85880685 1.9297754 0.0 0.0 0.0 0.0 1.362123 0.0 0.0 0.0 
0.0 0.0 0.0 0.0 0.0 0.0 0.0 0.0 0.7435024 0.0 0.0 0.0 1.4040161 0.0 0.0 0.0 
0.0 0.0 0.0 1.807721 0.0 1.0359142 0.0 0.0 0.0 0.0 0.55054736 0.0 0.0 0.0 0.87498206 0.0 
0.0 0.0 0.0 4.6052694 0.0 0.71059924 0.0 0.0 0.0 0.0 2.9331996 0.0 0.0 0.96704996 2.1522598 0.0 
0.0 0.0 0.0 5.0927052 0.0 0.0 0.0 0.0 0.0 0.0 3.5337636 0.0 0.0 1.678317 1.4774728 0.0 
0.0 0.0 0.0 3.3857355 0.0 0.0 0.0 0.0 0.13177504 0.0 2.6441014 0.0 0.0 0.6400511 0.0 0.8839104 
0.0 0.0 0.0 0.0 0.4719469 0.0 0.0 0.0 0.077692926 0.0 0.7622548 0.0 0.0 0.0 0.0 0.0 
0.0 0.0 0.0 0.0 0.8798658 1.9163535 0.0 0.0 0.0 0.0 0.87298405 0.0 0.0 0.0 0.0 0.0 
0.0 0.0 0.0 0.0 0.0 1.8935909 0.0 0.56189185 0.0 0.0 0.0 0.0 0.0 0.7402647 0.0 0.0 
0.13609122 0.0 0.0 0.0 0.0 0.0 1.3201407 3.439919 0.0 0.0 0.0 0.0 0.0 0.099752806 0.0 0.0 
1.1219764 0.0 0.0 0.0 0.0 0.0 1.2634426 2.6861975 0.0 0.0 0.0 0.0 0.0 0.0 0.0 0.0 
1.0936251 0.0 0.0 0.0 0.0 0.0 0.0 0.0 0.0 0.0 0.0 0.0 0.0 0.0 0.0 0.0 
0.0 0.0 0.0 0.0 0.0 0.0 0.0 0.0 0.0 0.4145244 0.0 0.21689177 0.0 0.0 0.0 0.0 
0.0 0.0 0.0 2.3356574 0.0 1.0993824 0.0 0.0 0.0 1.8173083 0.0 0.0 0.0 0.0 0.0 0.0 
0.0 0.0 0.0 3.7545485 0.9706818 1.4908676 0.0 0.0 0.0 1.3013519 0.13809587 0.0 0.0 0.0 0.79138494 0.0 
0.0 0.0 0.0 2.8661325 1.2553076 0.8632928 0.0 0.0 0.0 0.3166734 1.08259 0.0 0.0 0.0 0.6821346 2.1177018 
0.0 0.4000303 0.0 0.0 0.039520733 0.0 0.0 0.0 0.53453416 0.0 0.0 0.33968994 0.0 0.0 0.0 0.0 
0.0 0.18423598 0.0 0.0 0.26663086 1.6028335 0.0 0.0 0.0 0.0 1.3867785 0.32496962 0.0 0.0 0.0 0.0 
0.0 0.0 0.0 0.0 0.0 3.410379 0.0 0.9595626 0.0 0.0 2.5893471 0.0 0.0 1.4129628 0.0 0.0 
0.0 0.0 0.0 0.0 0.0 0.49283063 2.8894942 1.8256493 0.0 0.0 3.754228 0.0 0.0 4.055557 0.0 0.0 
0.52633464 0.0 0.0 0.0 0.0 0.0 1.5289769 0.0 0.0 0.0 1.4816537 0.0 0.0 4.9236774 0.0 0.0 
1.3245418 0.0 0.0 0.0 0.0 0.0 0.0 0.0 0.0 0.0 0.0 0.0 0.0 2.2516673 0.0 0.0 
0.6660309 0.0 0.0 0.0 0.0 0.0 0.0 0.0 0.0 0.0 0.0 0.0 0.0 0.0 0.0 0.0 
0.04655156 0.0 0.0 0.0 0.0 0.0 0.0 0.0 0.0 0.43838167 0.0 2.9642026 1.0353519 0.0 0.0 0.0 
0.16723256 0.0 0.0 0.0 0.0 0.39198864 0.0 0.0 0.0 0.73801774 0.0 0.5607034 0.7129774 0.0 0.0 0.0 
0.0 0.0 0.0 0.07412432 0.42003688 1.186954 0.0 0.0 0.0 0.024617415 0.0 0.0 0.0 0.0 0.0 0.0 
0.16129532 1.6319381 0.0 0.0 0.0 0.0 0.0 0.0 0.0 0.0 0.0 0.0 0.0 0.0 0.0 0.0 
0.0 2.448338 0.0 0.0 0.0 0.0 0.0 0.0 0.0 0.0 0.0 1.1756519 0.0 0.0 0.0 0.0 
0.0 2.4478068 0.0 0.0 0.0 0.9069566 0.0 0.0 0.0 0.0 0.0 0.21078438 0.0 0.0 0.0 0.0 
0.0 0.95527273 0.0 1.8941697 0.0 0.966793 0.38255337 0.0 0.0 0.0 1.3354629 0.0 0.0 0.0 0.26862627 0.0 
0.0 0.0 0.0 0.9392463 0.0 1.6626046 0.0 0.0 0.0 0.0 2.922593 0.0 0.0 2.4836202 1.9999933 0.0 
0.0 0.0 0.0 0.0 0.0 0.0 0.0 0.0 0.0 0.0 1.2138407 0.0 0.0 3.7444072 1.8417253 0.0 
0.0 0.0 0.0 0.29499975 0.0 0.0 0.0 0.0 0.0 0.0 0.2671802 0.0 0.088798866 1.608057 0.0 0.0 
0.0 0.0 0.0 0.0 0.0 0.0 0.0 0.0 0.0 0.0 0.0 3.001293 0.7412231 0.0 0.0 0.0 
0.23163845 0.0 0.0 0.0 0.0 0.0 0.0 0.0 0.0 0.0 0.0 3.7931418 1.6481098 0.0 0.0 0.0 
0.40609047 0.0 0.87193733 0.0 0.0 0.27748534 0.0 0.0 0.0 0.0 0.0 0.09530251 0.101455286 0.32243034 0.0 0.0 
1.5761635 0.31212443 0.0 0.0 0.0 0.0 0.0 0.039128512 0.0 0.0 0.0 0.0 0.0 0.0 0.0 0.0 
1.7287173 1.3522557 0.0 0.0 0.0 0.0 0.0 0.0 0.0 0.0 0.0 0.0 0.0 0.0 0.0 0.0 
0.7378915 2.0256748 0.0 0.0 0.0 0.0 0.0 0.0 0.0 0.20969522 0.0 1.3484495 0.0 0.0 0.0 0.0 
0.0 2.9151351 0.0 0.0 0.0 0.0 0.0 0.0 0.0 1.1920753 0.0 0.0 0.0 0.0 0.0 0.0 
0.0 2.306797 0.0 0.0 0.0 0.0 0.0 0.0 0.0 0.7518431 0.0 0.0 0.0 0.0 0.69068 0.0 
0.0 0.5776525 0.0 0.8438223 0.0 0.7238298 0.0 0.0 0.0 0.0 0.0 0.0 0.0 0.0 3.7837384 0.0 
0.0 0.0 0.0 1.5996348 0.0 0.0 0.0 0.0 0.0 0.0 0.0 0.0 0.0 0.0 2.677365 0.0 
0.0 0.0 0.0 0.19508672 0.0 0.0 0.0 0.0 0.0 0.0 0.0 0.0 0.0 0.0 0.0 0.0 
0.0 0.0 0.0 0.0 0.0 0.0 0.0 0.0 0.0 0.0 0.0 3.5131516 0.68745846 0.0 0.0 0.0 
0.0146779455 0.0 0.6250569 0.0 0.0 0.0 0.0 0.0 0.0 0.0 0.0 1.4949454 0.55683833 0.0 0.0 0.0 
1.1519741 0.0 0.0 0.0 0.0 1.1003301 0.0 0.0 0.0 0.0 0.0 0.0 0.0 3.0892494 0.032392696 0.0 
2.443655 0.0 0.0 0.0 0.0 0.0 0.0 0.0 0.0 0.0 0.0 0.0 0.0 2.656186 0.0 0.0 
2.8649497 0.0 0.0 0.0 0.0 0.0 0.0 0.0 0.0 0.7693328 0.0 0.0 0.0 0.9076287 0.0 0.0 
3.3177316 0.0 0.0 0.0 0.0 0.0 0.0 0.0 0.0 2.3003917 0.0 0.0 0.0 0.0 0.0 0.0 
2.0750911 0.0 0.0 0.0 0.0 0.0 0.0 0.0 0.0 3.0337803 0.0 0.0 0.0 0.0 0.0 0.0 
0.17843296 0.0 0.721755 0.0 0.0 0.0 0.0 0.0 0.0 2.549848 0.0 0.0 0.0 0.0 0.0 0.0 
0.0 0.0 0.0 0.0 0.0 0.0 0.0 0.0 0.0 0.96768427 0.0 0.0 0.3114522 0.0 2.3353126 0.0 
0.0 0.0 0.0 0.0 0.0 0.0 0.0 0.0 0.0 0.0 0.0 0.0 0.0 0.0 0.031234294 0.0 
0.0 0.0 0.0 0.0 0.0 0.0 0.0 0.0 1.3340384 0.0 0.0 0.41281936 0.0 0.0 0.0 0.0 
0.0 0.0 0.03386491 0.0 0.0 0.0 0.0 0.0 0.0 0.0 0.0 1.6439096 0.78557575 0.0 0.0 0.0 
0.0 0.0 0.045222897 0.0 0.0 1.8332636 0.0 0.0 0.0 0.0 1.2199291 0.0 0.6234782 1.0921667 2.7505124 0.0 
0.0 0.0 0.0 0.0 0.0 0.120408714 0.0 0.0 0.0 0.0 2.563363 0.0 0.35862678 3.2773767 2.7192533 0.0 
0.0 0.0 0.0 0.0 0.0 0.0 0.0 0.0 0.0 0.0 3.3525693 0.0 0.33177906 4.2579637 0.6469932 0.0 
0.0 0.0 0.0 0.0 0.0 0.0 0.0 0.0 0.0 0.0 2.5270116 0.0 0.38623273 3.483034 0.0 0.0 
0.0 0.0 0.0 0.0 0.0 0.0 0.0 0.0 0.0 0.0 1.2942735 0.0 1.1918736 1.4719031 0.0 0.0 
0.0 0.0 0.3303069 0.0 0.0 0.0 0.0 0.0 0.0 0.0 0.0 0.0 1.9142984 0.48943755 0.0 0.0 
0.0 0.0 1.3645512 0.0 0.0 0.0 0.51298475 0.0 0.0 0.0 0.0 0.0 2.5978053 0.3339959 0.0 0.0 
0.0 0.0 0.0 0.0 0.0 0.0 0.34289286 0.0 1.0730529 0.0 0.0 0.0 2.1644113 0.0 0.0 0.0 
0.0 0.0 0.0 0.0 0.0 0.0 0.0 0.0 3.5883873 0.0 0.0 0.0 0.6110507 0.05634097 0.0 0.0 
0.0 0.0 0.0 0.0 0.0 0.0 0.0 0.0 0.0 0.0 0.0 1.2575022 0.9537063 0.0 0.0 0.0 
0.0 0.8212923 0.0 0.0 0.0 0.5195751 0.0 0.0 0.0 0.0 0.31023794 0.0 0.23581873 0.0 1.0345842 0.0 
0.0 0.13882071 0.0 0.0 0.0 0.11377402 0.0 0.0 0.0 0.0 1.45233 0.0 0.8746472 0.0 3.253747 0.0 
0.0 0.0 0.0 0.0 0.0 0.0 0.0 0.0 0.0 0.0 3.2643738 0.0 0.74754536 0.0 4.034004 0.0 
0.0 0.0 0.0 0.0 0.0 0.0 0.0 0.0 0.0 0.0 4.5918646 0.0 0.91041934 0.220317 2.921217 0.0 
0.0 0.0 0.0 0.0 0.0 0.0 0.0 0.0 0.0 0.0 5.6821203 0.0 1.547905 0.80521053 0.6240318 0.0 
0.0 0.0 0.0 1.3375527 0.0 0.0 0.0 0.0 0.0 0.0 4.5246687 0.0 1.4838622 1.1512808 0.0 0.0 
0.0 0.0 0.0 2.4834058 0.0 0.0 0.0 0.0 0.0 0.0 2.9071798 0.0 1.0743291 1.5264043 0.0 0.0 
0.0 0.0 0.0 1.6179305 0.0 0.0 0.0 0.0 2.3737261 0.0 2.2599401 0.0 0.76067245 0.83103645 0.0130627155 0.0 
0.0 0.0 0.0 0.043552235 0.0 0.0 0.0 0.0 2.182551 0.0 1.4626485 0.0 0.0 0.592854 0.0 1.6856383 
0.0 0.0 0.0 0.5359187 0.0 0.0 0.0 0.0 0.0 0.0 0.6526056 0.52999556 0.22263308 0.0 0.0 1.0108572 

