0.0 0.0 0.0 0.019985663 0.0 0.0 0.0 0.0 0.0 0.0 0.0 0.0 0.0 0.0 0.0 0.0 
0.0 0.0 0.0 0.0063643567 0.0 0.0 0.07599829 0.0 0.0 0.0 0.0 0.0 0.0 0.0 0.0 0.0 
0.0 0.10213594 0.0 0.0 0.16885045 0.0 0.051041685 0.0 0.0 0.0 0.0 0.0 0.0 0.0 0.0 0.0 
0.10947269 0.8323674 0.42248082 0.030560013 0.045701265 0.0 0.0 0.0 0.14488997 0.0 0.0 0.0 0.0 0.0 0.0 0.19612388 
0.487448 1.8882866 0.60607994 0.0 0.0 0.0 0.0 0.0 0.0 0.0 0.0 0.0 0.0 0.0 0.0 0.7413775 
1.2659668 3.1050155 0.0 0.0 0.0 0.0 0.0 0.0 0.0 0.0 0.0 0.4651154 0.0 0.0 0.0 1.0003005 
2.2429848 3.051893 0.0 0.0 0.46890444 0.0 0.0 0.0 0.0 0.21563546 0.0 0.074404836 0.0 0.0 0.0 0.58030665 
2.9190292 1.922291 0.0 0.0 0.0 0.0 0.0 0.26339114 0.0 0.5830843 0.0 0.0 0.0 0.0 0.0 0.0 
3.070064 1.2259028 0.0 0.0 0.0 0.0 0.0 0.61487496 0.0 0.9844401 0.0 0.0 0.0 0.0 0.0 0.0 
3.1079717 0.48310816 0.0 0.0 0.0 0.0 0.0 0.48261565 0.0 1.1158377 0.0 0.0 0.0 0.0 0.0 0.0 
0.0 0.0 0.0 0.011098046 0.0 0.0 0.074167445 0.0 0.0 0.0 0.0 0.0 0.0 0.0 0.0 0.0 
0.0 0.25886437 0.0 0.0 0.18412647 0.0 0.0 0.0 0.0 0.0 0.0 0.0 0.0 0.0 0.0 0.0 
0.4256339 0.7671713 0.23031819 0.0 0.11806554 0.0 0.0 0.0 0.0 0.0 0.0 0.0 0.0 0.0 0.0 0.25306407 
1.3004801 1.3758063 0.50997543 0.0 0.03538966 0.0 0.0 0.0 0.0 0.24448535 0.0 0.0 0.0 0.0 0.0 1.2933649 
2.3057117 1.4484111 0.14262636 0.0 0.0 0.0 0.0 0.0 0.0 1.0932075 0.0 0.0 0.0 0.0 0.0 2.182615 
2.8838806 0.0 0.0 0.0 0.0 0.0 0.0 0.0 0.0 1.3678166 0.0 0.0 0.0 0.0 0.0 0.98711425 
3.3193681 0.0 0.0 0.0 0.0 0.0 0.0 0.30969375 0.0 0.9886197 0.0 0.0 0.0 1.2641183 0.0 0.0 
3.4727926 0.0 0.0 0.0 0.0 0.0 0.0 0.20358385 0.0 0.66124547 0.0 0.0 0.6835473 2.3525445 0.0 0.0 
3.3143284 0.0 0.0 0.0 0.0 0.0 0.0 0.0 0.0 0.0 0.0 0.0 1.0365555 3.2988522 0.0 0.0 
2.8806887 0.0 0.0 0.0 0.0 0.0 0.0 0.0 0.0 0.0 0.0 0.0 1.4068384 2.7189925 0.0 0.0 
0.0288102 0.20834695 0.0 0.0 0.19246188 0.0 0.0 0.0 0.0 0.0 0.0 0.0 0.0 0.0 0.0 0.0 
0.63268477 0.77132094 0.4866119 0.0 0.0 0.0 0.0 0.0 0.0 0.0 0.0 0.0 0.0 0.0 0.0 0.54770994 
0.9706821 1.1328076 0.5458884 0.0 0.0 0.0 0.0 0.0 0.0 0.9774605 0.0 0.0 0.0 0.0 0.17941232 1.9228208 
1.0208015 0.1495956 0.013764285 0.0 0.0 0.0 0.0 0.0 0.0 1.496463 0.0 0.0 0.0 0.0 0.9079885 2.1858807 
0.68434304 0.0 0.0 0.0 0.0 0.0 0.18591218 0.015278637 0.0 0.56461024 0.0 0.0 0.88065004 0.624938 0.70568365 0.18860431 
0.07250899 0.0 0.0 0.0 0.0 0.0 0.0 1.1339355 0.0 0.0 0.0 0.0 1.6833152 1.497315 0.0 0.0 
0.0 0.0 0.0 0.0 0.0 0.0 0.0 0.4348629 0.0 0.0 0.4437989 0.0 2.876375 1.9943484 0.0 0.0 
0.0 0.0 0.0 0.0 0.0 0.0 0.0 0.0 0.0 0.0 1.9147534 0.0 3.6339397 2.4002728 0.39173692 0.0 
0.0 0.0 0.0 0.0 0.0 0.0 0.0 0.0 0.0 0.0 2.8325143 0.0 3.4065163 3.2401202 1.2661748 0.0 
0.0 0.0 0.0 0.0 0.0 0.0 0.0 0.0 0.0 0.0 2.8537576 0.0 2.3668678 3.5053759 1.493423 0.0 
0.6637077 0.2551943 0.0 0.0 0.21793377 0.43969077 0.0 0.0 0.0 0.0 0.0 0.0 0.0 0.23778838 0.0 0.0 
0.7432836 1.1257538 0.7629252 0.0 0.0 0.0 0.0 0.0 0.0 0.4731664 0.0 0.0 0.0 0.0 0.1329991 1.8340366 
0.24441065 0.65458864 0.53417015 0.0 0.0 0.0 0.0 0.0 0.0 0.9862987 0.0 0.0 0.25228554 0.0 0.0 2.726414 
0.0 0.0 0.0 0.0 0.0 0.0 0.0 0.0 0.0 0.0 0.0 0.38280937 1.5526457 0.0 0.0 0.0 
0.0 0.0 0.0 0.0 0.0 0.0 0.0 1.1680835 0.0 0.0 0.0 0.0 2.2318566 0.0 0.0 0.0 
0.0 0.0 0.0 0.0 0.0 0.0 0.0 0.9646624 0.0 0.0 1.4013515 0.0 1.3729405 0.0 0.0 0.0 
0.0 0.0 0.0 0.9574026 0.0 0.0 0.0 0.0 1.0728177 0.0 2.3990324 0.0 0.8459852 0.0 0.26509798 0.0 
0.0 1.5586817 0.0 3.4649527 0.0 0.0 0.0 0.0 0.0 0.0 2.5653849 0.0 0.47737312 0.0 0.7187399 0.0 
0.0 2.801269 0.0 4.8866806 0.0 0.0 0.0 0.0 0.0 0.0 2.274997 0.0 0.015198745 0.0 1.9297767 0.0 
0.0 2.2309873 0.0 5.3289537 0.0 0.0 0.0 0.0 0.0 0.0 1.5944821 0.0 0.0 0.0 3.0431283 0.0 
0.3388425 0.0 0.0 0.0 0.24883556 1.3925128 0.0 0.0 0.0 0.0879799 0.0 0.0 0.0 0.65470695 0.0 0.124686845 
0.0 0.0 0.064117536 0.0 0.0 0.041443273 0.0 0.0 0.0 0.0 0.0 0.0 0.0 0.66842306 0.0 0.8764553 
0.0 0.0 0.0 0.0 0.0 0.0 0.0 0.9281552 0.0 0.0 0.0 0.0 0.60328156 0.0 0.0 0.0 
0.0 0.0 0.0 0.0 0.0 0.0 0.0 2.2401145 0.0 0.0 0.0 0.0 0.47982502 0.0 0.0 0.0 
0.0822126 0.0 0.0 0.0 0.0 0.0 0.0 1.7482864 0.0 0.0 0.0 0.43856308 0.33953798 0.0 0.0 0.0 
0.0 0.18933438 0.0 3.0381613 0.0 0.0 0.0 0.0 0.89046806 0.46342427 0.0 0.09047559 0.0 0.0 0.0 0.0 
0.0 0.46648172 0.0 5.231955 0.0 0.07799943 0.0 0.0 0.0 1.7723955 0.7446626 0.0 0.0 0.0 0.0 0.0 
0.0 0.4827183 0.0 4.7207694 0.29614416 0.28158626 0.0 0.0 0.0 2.6137269 0.85012954 0.0 0.0 0.0 0.0 0.0 
0.0 0.14842817 0.0 3.983133 0.0 0.0 0.0 0.0 0.0 3.1933632 0.0 0.0 0.0 0.0 0.0 0.0 
0.0 0.0 0.0 2.8361468 0.0 0.073079824 0.0 0.0 0.0 3.0671148 0.0 0.0 0.0 0.0 0.60650414 0.0 
0.0 0.0 0.0 0.0 0.0 1.0869701 0.0 0.0 0.094753906 0.0 0.7686 0.0 0.092662886 0.0 0.28287506 0.064055376 
0.0 0.0 0.0 0.0 0.0 2.4934866 0.0 0.0 0.0 0.0 0.8428536 0.0 0.25101864 1.3098115 0.0 0.0 
0.008500021 0.0 0.0 0.0 0.0 0.0 1.0895454 1.5812957 0.0 0.0 1.679738 0.0 0.0 2.3746083 0.0 0.0 
0.8525449 0.0 0.0 0.0 0.0 0.0 0.0 1.1711388 0.0 0.0 0.0 0.0 0.0 1.6097441 0.0 0.0 
0.6164901 0.0 0.0 0.0 0.0 0.0 0.0 0.0 0.0 0.6686494 0.0 0.0 0.0 0.0 0.0 0.0 
0.25907588 0.0 0.0 0.0 0.0 0.0 0.0 0.0 0.0 1.2041162 0.0 1.340139 0.0 0.0 0.0 0.0 
0.037435014 0.0 0.0 0.0 0.0 0.0 0.0 0.0 0.0 0.9767208 0.0 0.48442414 0.0 0.0 0.0 0.0 
0.0 0.0 0.0 0.5957405 0.92871183 1.2204847 0.0 0.0 0.0 0.4583933 0.0 0.0 0.0 0.0 0.0 0.0 
0.0 0.0 0.0 0.6739744 0.70094645 0.987212 0.0 0.0 0.0 0.5100485 0.0 0.0 0.0 0.0 0.0 0.0 
0.0 0.0 0.0 0.4036819 0.24479246 0.25702617 0.16190268 0.0 0.0 0.47240347 0.0 0.0 0.0 0.0 0.0 0.31244707 
0.0 1.7424693 0.0 0.0 0.0 0.0 0.0 0.0 0.0 0.0 0.0 0.054271847 0.0 0.0 0.0 0.0 
0.0 2.5754972 0.0 0.0 0.0 0.0 0.0 0.0 0.0 0.0 0.0 0.0 0.0 0.0 0.0 0.0 
0.0 1.6640241 0.0 0.049854763 0.0 0.08449939 1.0025884 0.0 0.0 0.0 0.52658117 0.0 0.0 0.52678 0.0 0.0 
0.0 0.0 0.0 0.0 0.0 0.0 0.0 0.0 0.0 0.0 0.2375797 0.0 0.0 3.041425 0.0 0.0 
0.0 0.0 0.0 0.0 0.0 0.0 0.0 0.0 0.0 0.0 0.0 0.0 0.0 2.2113593 0.0 0.0 
0.0 0.0 0.0 0.0 0.0 0.0 0.0 0.0 0.0 0.0 0.0 0.0 0.0 0.0 0.0 0.0 
0.2755901 0.0 0.0 0.0 0.0 0.0 0.0 0.0 0.0 0.0 0.0 2.362662 1.1643319 0.0 0.0 0.0 
0.8477109 0.0 0.098198935 0.0 0.0 0.0 0.0 0.0 0.0 0.0 0.0 1.015855 0.9079336 0.0 0.0 0.0 
0.53459954 0.0 0.78384054 0.0 0.0 0.27640766 0.0 0.0 0.0 0.0 0.0 0.0 0.005365409 0.0 0.0 0.0 
0.0 0.0 0.0 0.0 0.0 0.01219476 0.0 0.0 0.0 0.0 0.0 0.0 0.0 0.012353808 0.0 0.0 
1.7135817 2.0401094 0.0 0.0 0.0 0.0 0.0 0.40537608 0.0 0.0 0.0 0.0 0.0 0.0 0.0 0.0 
0.84520656 3.63109 0.0 0.0 0.0 0.0 0.0 0.3930387 0.0 0.1601199 0.0 0.0 0.0 0.0 0.0 0.0 
0.0 3.2927203 0.0 0.0 0.0 0.0 0.0 0.0 0.0 1.0586917 0.0 0.0 0.0 0.0 0.0 0.0 
0.0 0.64315164 0.0 0.0 0.0 0.0 0.0 0.0 0.0 0.19613644 0.0 0.0 0.0 0.0 3.1699858 0.0 
0.0 0.0 0.0 0.0 0.0 0.0 0.0 0.0 0.0 0.0 0.0 0.0 0.0 0.0 3.6603699 0.0 
0.0 0.0 0.0 0.0 0.0 0.0 0.0 0.0 0.0 0.0 0.0 0.0 0.0 0.2586509 0.6768712 0.0 
0.0 0.0 0.0 0.0 0.0 0.0 0.0 0.0 0.0 0.0 0.0 0.947227 0.7185196 0.030109063 0.0 0.0 
0.07196014 0.0 0.0 0.0 0.0 0.0 0.0 0.0 0.1849827 0.0 0.0 2.0857852 1.3797857 0.0 0.0 0.0 
0.332437 0.0 1.0807675 0.0 0.0 0.0 0.0 0.0 0.0 0.0 0.0 0.57372487 0.7539765 0.0 0.0 0.0 
0.0 0.0 0.033961903 0.0 0.0 0.0 0.0 0.0 0.0 0.0 0.0 0.0 0.0 0.0 0.0 0.0 
1.756326 0.0 0.0 0.0 0.0 0.20599598 0.0 0.24498965 0.0 0.32170647 0.8751615 0.0 0.0 2.2650738 0.0 0.0 
2.4295285 0.0 0.0 0.0 0.0 0.0 0.0 0.36808544 0.0 1.0682344 0.97946286 0.0 0.0 2.2191687 0.0 0.0 
1.6287069 0.0 0.0 0.0 0.0 0.0 0.0 0.0 0.0 2.1689823 0.2328169 0.0 0.0 0.4032803 0.0 0.0 
0.0 0.0 0.0 0.0 0.0 0.0 0.0 0.0 0.0 2.1190565 0.0 0.0 1.0907112 0.0 0.0 0.0 
0.0 0.0 0.0 0.0 0.0 0.0 0.0 0.0 0.0 0.293877 0.0 0.0 1.9682927 0.0 2.227284 0.0 
0.0 0.0 0.0 0.0 0.0 0.0 0.0 0.0 0.0 0.0 0.0 0.0 1.3756831 0.07721559 2.0452607 0.0 
0.0 0.0 0.0 0.0 0.0 0.0 0.0 0.0 1.6728866 0.0 0.033333287 0.0 0.5742704 0.0 0.40561622 0.0 
0.0 0.0 0.0 0.0 0.0 0.0 0.0 0.0 0.84935975 0.0 0.45916635 0.8042666 0.7671087 0.0 0.0 0.0 
0.0 0.0 0.0 0.31401715 0.0 0.0 0.0 0.0 0.0 0.0 0.18984753 0.9608716 0.5362002 0.0 0.0 0.0 
0.0 0.0 0.0 0.04739329 0.0 0.0 0.042140007 0.0 0.0 0.0 0.0029450767 0.0 0.06657444 0.0 0.0 0.0 
0.0 0.0 0.0 0.0 0.0 0.40713924 0.0 0.0 0.0 0.0 1.5538715 0.0 0.9604985 1.0744538 1.432444 0.0 
0.0 0.0 0.0 0.0 0.0 0.0 0.0 0.066104874 0.0 0.0 2.9992244 0.0 1.124552 2.4660652 1.222258 0.0 
0.0 0.0 0.0 0.0 0.0 0.0 0.0 0.0 0.0 0.0 4.001193 0.0 1.4525596 2.1093822 0.0 0.0 
0.0 0.0 0.0 0.0 0.0 0.0 0.0 0.0 0.0 0.0 3.3781843 0.0 1.5612571 1.303078 0.0 0.0 
0.0 0.0 0.0 1.8439285 0.0 0.0 0.0 0.0 0.0 0.0 2.3934371 0.0 1.6012193 0.6521173 0.0 0.0 
0.0 0.0 0.0 2.34919 0.0 0.0 0.103237934 0.0 1.2921487 0.0 2.0043294 0.0 1.3220799 0.23933336 0.6430258 0.0 
0.0 0.0 0.0 1.5750961 0.0 0.0 0.0 0.0 2.50911 0.0 1.8026559 0.0 0.14910576 0.08497039 0.55274385 1.6166973 
0.0 0.0 0.0 0.9703287 0.0 0.0 0.0 0.0 0.0 0.0 0.9291441 0.0 0.0 0.0 0.0 1.825752 
0.0 0.0 0.0 0.76158893 0.0 0.0 0.0 0.0 0.0 0.0 0.17012906 0.30632463 0.0 0.0 0.0 0.65973777 
0.0 0.0 0.0 0.28260842 0.0 0.0 0.0 0.0 0.0 0.0 0.0 0.0 0.0 0.0 0.0 0.0 

