1.7379919 2.0153496 0.0 0.0 0.0 0.0 0.0 0.0 0.0 0.0 0.0 0.0 0.0 0.0 0.0 0.98663116 
2.7541776 2.190644 0.0 0.0 0.0 0.0 0.0 0.0 0.0 0.78924274 0.0 0.0 0.0 0.0 0.0 0.7417961 
3.7600522 0.39615467 0.0 0.0 0.0 0.0 0.0 0.14390525 0.0 1.4141687 0.0 0.0 0.0 0.0 0.0 0.0 
4.1391215 0.0 0.0 0.0 0.0 0.0 0.0 0.0 0.0 1.21872 0.0 0.0 0.0 0.6616982 0.0 0.0 
3.9888258 0.0 0.0 0.0 0.0 0.0 0.0 0.0 0.0 0.49946123 0.0 0.0 0.0 0.96350753 0.0 0.0 
3.4668071 0.0 0.44220895 0.0 0.0 0.0 0.0 0.0 0.0 0.50559956 0.0 0.0 0.0 0.0 0.0 0.0 
2.442758 0.0 0.42719865 0.0 0.0 0.0 0.0 0.0 0.0 0.47553045 0.0 0.14877488 0.61298496 0.0 0.0 0.0 
1.6598197 0.0 0.0 0.0 0.0 0.0 0.0 0.0 0.0 0.38946193 0.0 2.387674 1.0231102 0.0 0.0 0.0 
0.9287614 0.0 0.0 0.0 0.32318863 0.76727057 0.0 0.0 0.0 0.0599788 0.0 0.9855757 0.37030172 0.0 0.0 0.0 
0.053515296 0.0 0.25128645 0.2040462 0.45026916 0.93458325 0.0 0.0 0.0 0.0 0.014191488 0.0 0.0 0.8088681 0.0 0.0 
1.5528237 0.0 0.0 0.0 0.0 0.0 0.0 0.24537916 0.0 0.57730603 0.20822859 0.0 0.0 2.1323166 0.0 0.92132705 
1.421146 0.0 0.0 0.0 0.0 0.0 0.0 0.11205399 0.0 0.74137557 0.20501453 0.0 0.6290202 2.4634674 0.0 0.0 
1.2309262 0.0 0.0 0.0 0.0 0.0 0.0 0.0 0.0 0.0815295 0.0 0.0 1.9523125 2.4954677 0.0 0.0 
1.431232 0.0 0.0 0.0 0.0 0.0 0.0 0.0 0.0 0.0 0.0 0.0 2.5708895 3.6212218 0.0 0.0 
1.5295066 0.0 0.0 0.0 0.0 0.0 0.0 0.0 0.0 0.0 0.0 0.0 1.8799968 5.1447644 0.0 0.0 
1.7948297 0.0 1.5569013 0.0 0.0 0.0 0.0 0.0 0.0 0.0 0.0 0.0 1.3976849 4.306111 0.0 0.0 
1.5145288 0.0 1.208825 0.0 0.0 0.0 0.0 0.0 0.0 0.0 0.0 0.0 1.3867548 0.9459765 0.0 0.0 
0.77038264 0.0 0.0 0.0 0.0 0.0 0.0 0.0 0.0 0.0 0.0 3.0257547 1.7124683 0.0 0.0 0.0 
0.91534996 0.0 0.0 0.0 0.0 0.0 0.0 0.0 0.0 0.0 0.0 3.1682572 1.5015597 0.0 0.0 0.0 
0.6752115 0.0 0.7065136 0.0 0.0 0.49676913 0.0 0.0 0.0 0.0 0.0 0.062199965 0.04837703 0.40850326 0.0 0.0 
0.0 0.0 0.0 0.0 0.0 0.0 0.0 0.23408936 0.0 0.0 1.9539349 0.0 1.7052758 2.2849617 1.0288815 0.0 
0.0 0.0 0.0 0.0 0.0 0.0 0.0 0.2098908 0.0 0.0 3.2140288 0.0 2.4375536 1.9700981 0.57217056 0.0 
0.0 0.0 0.0 0.0 0.0 0.0 0.0 0.0 0.0 0.0 2.9656432 0.0 2.55882 1.16842 0.9663058 0.0 
0.0 0.0 0.0 0.0 0.0 0.0 0.0 0.0 0.0 0.0 3.0625918 0.0 2.3433325 0.21186224 1.778865 0.0 
0.0 0.0 0.0 0.0 0.0 0.0 0.0 0.0 0.0 0.0 2.430571 0.0 1.192872 1.0555418 3.1662285 0.0 
0.0 0.0 0.2204515 0.019983694 0.0 0.0 0.0 0.0 0.0 0.0 0.0 0.0 0.09361443 2.4048533 3.9084861 0.0 
0.0 0.0 0.0 0.9783179 0.0 0.0 0.0 0.0 0.0 0.0 0.0 0.0 0.2925977 0.9557432 1.2392408 0.0 
0.0 0.0 0.0 0.0 0.0 0.0 0.0 0.0 0.0 0.0 0.0 0.853915 0.56124014 0.0 0.0 0.0 
0.0 0.0 0.0 0.0 0.0 0.0 0.0 0.0 0.0 0.0 0.0 4.6405587 1.618958 0.0 0.0 0.0 
0.46058986 0.0 0.4969983 0.0 0.0 0.0 0.0 0.0 0.0 0.0 0.0 1.7403541 0.6987955 0.0 0.0 0.0 
0.0 1.7289423 0.0 1.0056 0.0 0.0 0.0 0.5912679 0.0 0.0 1.059098 0.0 0.24008144 0.0 0.9362095 0.0 
0.0 2.540433 0.0 3.4668787 0.0 0.0 0.0 0.18172598 0.0 0.0 1.9479783 0.0 0.0 0.0 1.0897446 0.0 
0.0 2.7808669 0.0 5.318065 0.0 0.0 0.0 0.0 0.055393312 0.0 2.0794308 0.0 0.0 0.0 0.4944768 0.0 
0.0 2.1669743 0.0 4.4364514 0.0 0.0 0.0 0.0 0.0 0.04388276 1.573693 0.0 0.0 0.0 0.0 0.0 
0.0 1.2253401 0.0 2.0925238 0.0 0.33681864 0.0 0.0 0.0 0.54830915 0.18174797 0.0 0.0 0.0 1.0323728 0.0 
0.0 0.0 0.89425915 1.1846825 0.0 1.9192767 0.0 0.0 0.0 0.75544727 0.0 0.0 0.0 0.0 4.3620253 0.0 
0.0 0.0 0.67920446 0.9350764 0.0 0.0 0.0 0.0 0.0 0.0 0.0 0.0 0.0 0.0 4.496435 0.0 
0.0 0.0 0.0 0.0 0.0 0.0 0.49739778 0.0 0.0 0.0 0.0 0.0 0.0 0.0 0.37840772 0.0 
0.0 0.0 0.0 0.0 0.0 0.0 0.0 0.0 0.0 0.0 0.0 2.1424026 0.18592261 0.0 0.0 0.0 
0.0 0.0 0.0 0.0 0.0 0.0 0.0 0.0 0.0 0.0 0.0 2.2980382 0.7606987 0.0 0.0 0.0 
0.0 1.3081912 0.0 2.5507824 0.0 0.0 0.4187353 0.25368118 0.0 2.3404193 0.0 0.0 0.0 0.0 0.0 0.0 
0.0 0.9560045 0.0 3.4533706 0.0 0.0 0.27641788 0.0 0.15783176 3.510208 0.0 0.0 0.0 0.0 0.0 0.0 
0.0 0.1323124 0.0 3.2046056 0.105061434 0.0 0.0 0.0 0.0 3.3232756 0.020939866 0.0 0.0 0.0 0.0 0.041109353 
0.0 0.0 0.0 1.2280698 1.4187342 0.0 0.0 0.0 0.0 2.199597 0.0 0.0 0.0 0.0 0.0 0.6539977 
0.0 0.27855986 0.0 0.0 1.7090453 0.6753231 0.0 0.0 0.0 1.6056714 0.0 0.0 0.0 0.0 0.0 1.3105699 
0.0 0.56184065 2.9197557 0.0 0.0 1.6009474 0.0 0.0 0.0 1.5573457 0.0 0.0 0.0 0.0 0.961513 0.4256551 
0.0 0.0 2.9870656 0.0 0.0 0.0 2.9076288 0.0 0.0 0.0035628565 0.0 0.0 0.0 0.0 2.5233638 0.0 
0.0 0.0 0.0 0.0 0.0 0.0 3.3042965 0.0 0.0 0.0 0.0 0.0 0.08498095 0.0 0.6586399 0.0 
0.0 0.0 0.0 0.0 0.0 0.0 0.0 0.0 1.7407302 0.0 0.0 0.0 0.0 0.0 0.0 0.0 
0.0 0.0 0.0 0.0 0.0 0.0 0.0 0.0 0.35859704 0.0 0.0 1.6084381 0.4383427 0.0 0.0 0.0 
0.14608356 0.22208886 0.0 0.8827729 0.0 0.0 0.585623 0.0 0.0 1.0229032 0.0 0.0 0.0 0.0 0.0 0.0 
0.0 0.09942736 0.0 0.80976295 0.13919005 0.0 0.65873355 0.0 0.12467691 0.79250276 0.0 0.0 0.0 0.0 0.0 0.040762898 
0.0 0.16125466 0.0 0.14484403 0.62987876 0.17626679 0.5277732 0.0 0.0 0.054781873 0.0 0.0 0.0 0.0 0.0 0.21615507 
0.0 0.49550277 0.0 0.0 1.0491304 0.0 0.0 0.0 0.0 0.03131007 0.0 0.0 0.0 0.0 0.0 0.95314837 
0.0 0.9905964 0.0 0.0 1.4078903 0.0 0.0 0.0 0.0 1.0098169 0.0 0.0 0.0 0.0 0.0 2.2583225 
0.0 0.77818966 2.7878606 0.0 0.0 0.0 0.0 0.0 0.0 1.1595362 0.0 0.0 0.0 0.0 0.0 0.89057493 
0.0 0.0 1.3097129 0.0 0.0 0.0 3.8976507 1.0669363 0.0 0.0 0.0 0.0 0.42619723 0.0 0.49662292 0.0 
0.0 0.0 0.0 0.0 0.0 0.0 2.808993 0.15986703 0.22822082 0.0 0.0 0.0 0.25148398 0.0 0.0 0.0 
0.0 0.0 0.0 0.0 0.0 0.0 0.0 0.0 3.7622545 0.0 0.0 0.0 0.0 0.0 0.0 0.0 
0.0 0.0 0.0 0.0 0.0 0.0 0.0 0.0 0.6367984 0.0 0.0 0.59200764 0.42309904 0.0 0.0 0.0 
0.0 0.0 0.0 0.0 0.0 0.0 0.12835768 0.0 0.0 0.0 0.0 0.0 0.0 0.0 0.0 0.0 
0.0 0.050060816 0.0 0.0 0.27104485 0.0 0.06649222 0.0 0.0 0.0 0.0 0.002276577 0.0 0.0 0.0 0.0 
0.43931177 0.49403483 0.3840618 0.0 0.3777258 0.0 0.0 0.0 0.0 0.0 0.0 0.0 0.0 0.0 0.0 0.28070647 
0.35181767 0.9900231 0.32131922 0.0 1.0221698 0.0 0.0 0.0 0.0 0.9113248 0.0 0.0 0.0 0.0 0.1256886 2.1215773 
0.0 0.5935879 0.11149545 0.0 0.70308274 0.0 0.0 0.0 0.0 1.3330092 0.0 0.0 0.0 0.0 0.0 2.899725 
0.0 0.0 0.006628033 0.0 0.0 0.0 0.8514717 1.0733197 0.0 0.6547486 0.0 0.0 0.15083276 0.0 0.0 0.0 
0.0 0.0 0.0 0.0 0.0 0.0 3.3793669 3.2756042 0.0 0.0 0.0 0.0 0.2639733 0.0 0.0 0.0 
0.0 0.0 0.0 0.0 0.0 0.0 0.24556966 0.67945427 3.2542872 0.0 0.0 0.0 0.43087798 0.0 0.0 0.0 
0.0 0.0 0.0 0.0 0.0 0.0 0.0 0.0 3.9081252 0.0 0.0 0.0 0.0 0.0 0.0 0.0 
0.0 0.0 0.0 0.0 0.0 0.0 0.0 0.0 0.0 0.0 0.2622832 0.04620093 0.25575072 0.0 0.0 0.5319944 
0.0 0.0 0.0 0.0 0.09498993 0.094147 0.24850325 0.0 0.0 0.0 0.0 0.0 0.0 0.0 0.0 0.0 
0.47743514 0.22458513 0.03553662 0.0 0.61972094 0.06639652 0.0 0.0 0.0 0.0 0.0 0.0 0.0 0.0 0.0 0.0 
0.5542947 0.6365104 0.95467484 0.0 0.40964496 0.0 0.0 0.0 0.0 0.80575013 0.0 0.0 0.0 0.0 0.3729598 1.9724705 
0.0 0.0 0.65416336 0.0 0.31359857 0.0 0.0 0.0 0.0 1.4692967 0.0 0.0 0.0 0.0 0.40324235 3.36037 
0.0 0.0 0.0 0.0 0.13830444 0.0 0.0 0.4161492 0.0 0.5114949 0.0 0.0 0.5004126 0.0 0.0 0.0 
0.0 0.0 0.0 0.0 0.0 0.0 1.7668757 3.4800336 0.0 0.0 0.0 0.0 0.633282 0.0 0.0 0.0 
0.0 0.0 0.0 0.0 0.0 0.0 1.4288101 2.932262 1.3114525 0.0 0.0 0.0 0.23962675 0.0 0.0 0.0 
0.0 0.0 0.0 0.0 0.0 0.0 0.0 0.0 4.7792106 0.0 0.09832956 0.0 0.0 0.0 0.0 0.0 
0.0 0.0 0.0 0.0 0.0 0.0 0.0 0.0 1.8939437 0.0 0.44612032 0.0 0.0 0.0 0.0 1.2842541 
0.0 0.0 0.0 0.2304985 0.0 0.0 0.0 0.0 0.0 0.0 0.4097345 0.0 0.0 0.0 0.0 1.1329302 
0.29400572 0.038483575 0.0 0.0 0.20786962 0.20886493 0.0 0.0 0.0 0.0 0.0 0.0 0.0 0.0 0.0 0.0 
0.5283444 0.3209187 0.0 0.0 0.66858876 0.16362256 0.0 0.0 0.0 0.18006033 0.0 0.0 0.0 0.0 0.0 0.39564466 
0.0 0.0 0.69454116 0.0 0.0487753 0.0 0.0 0.0 0.0 1.0855935 0.0 0.0 0.0 0.0 0.5659371 2.6585946 
0.0 0.0 0.0 0.0 0.0 0.0 0.0 0.3537364 0.0 0.37792253 0.0 0.0 0.54658383 0.0 0.0 0.0 
0.0 0.0 0.0 0.0 0.0 0.0 1.2488433 3.1389227 0.0 0.0 0.0 0.0 0.76986694 0.0 0.0 0.0 
0.0 0.0 0.0 0.0 0.0 0.0 0.759814 3.775903 0.0 0.0 0.0 0.0 0.28563327 0.0 0.0 0.0 
0.0 0.0 0.0 0.8307749 0.0 0.0 0.0 0.27177548 4.3428926 0.0 0.71189433 0.0 0.0 0.20355502 0.0 0.0 
0.0 0.0 0.0 0.52821803 0.0 0.0 0.0 0.0 2.9006612 0.0 0.71354824 0.0 0.0 0.0 0.0 1.1306621 
0.0 0.0 0.0 0.18854472 0.0 0.25145596 0.0 0.0 0.0 0.0 0.6542743 0.0 0.0 0.0 0.0 1.8435856 
0.0 0.037668113 0.0 0.2245236 0.18374345 0.0 0.0 0.0 0.0 0.0 0.0 0.0 0.0 0.0 0.0 0.8562063 
0.19773985 0.0 0.0 0.0 0.20130181 0.18194717 0.0 0.0 0.0 0.19192865 0.2966257 0.0 0.0 0.0 0.0 0.0 
0.0 0.0 0.0 0.0 0.49326813 1.0641549 0.0 0.0 0.0 0.46459863 0.39736378 0.0 0.0 0.0 0.4138574 0.85622585 
0.0 0.0 0.013519529 0.0 0.0 0.0 0.0 0.54050994 0.0 0.0 0.39654198 0.0 0.18862487 0.0 0.0 0.0 
0.0 0.0 0.0 0.0 0.0 0.0 1.225938 2.736529 0.0 0.0 0.6673045 0.0 0.62437636 0.0 0.0 0.0 
0.0 0.0 0.0 0.0 0.0 0.0 1.3825599 3.095686 0.0 0.0 0.0 0.0 0.023817629 0.0 0.0 0.0 
0.0 0.0 0.0 0.5440699 0.0 0.0 0.0 0.42873126 3.884809 0.0 0.0 0.0 0.0 0.0 0.0 0.0 
0.0 0.0 0.0 1.0846409 0.0 0.0 0.0 0.0 2.7850094 0.0 0.2348001 0.0 0.0 0.0 0.0 0.5412167 
0.0 0.0 0.0 0.73208195 0.0 0.38330764 0.0 0.0 0.0 0.0 0.6524798 0.0 0.0 0.0 0.0 2.137894 
0.0 0.0 0.0 0.24337578 0.35673952 0.20272774 0.0 0.0 0.0 0.0 0.12957376 0.0 0.0 0.0 0.0 1.244089 
0.0 0.10497638 0.0 0.11290148 0.03671646 0.0 0.0 0.0 0.0 0.0 0.0 0.0 0.0 0.0 0.0 0.26175776 

