0.0 0.022922345 0.0 0.019922115 0.0 0.0 0.024338989 0.0 0.0 0.0 0.0 0.0 0.0 0.0 0.0 0.0 
0.0 0.44234908 0.2734524 0.39364308 0.0 0.0 0.0 0.0 0.14836071 0.0 0.0 0.0 0.0 0.0 0.0 0.0 
0.052174125 0.8823781 0.70476025 0.6091827 0.0 0.0 0.0 0.0 0.36156484 0.0 0.0 0.0 0.0 0.0 0.0 0.66030294 
0.0 0.9454916 0.0 0.5473053 0.15030262 0.0 0.14629164 0.0 0.0 0.10134801 0.0 0.76147544 0.0 0.0 0.0 0.3155696 
0.0 0.8893931 0.0 0.7706708 1.0891619 0.36178663 0.3759883 0.0 0.0 0.0 0.0 0.53175104 0.0 0.0 0.0 0.0 
0.0 0.013517356 0.0 0.0 1.2122203 0.412404 0.0 0.0 0.0 0.0 0.16117257 0.0 0.0 0.38483244 0.0 0.0 
0.0 0.0 0.99260604 0.0 0.454153 1.0066073 0.0 0.0 0.012556989 0.008523386 0.0 0.0 0.0 0.36262617 0.5441089 0.6489699 
0.43539348 0.0 2.696588 0.0 0.0 0.0 0.0 0.0 0.0 0.060602438 0.0 0.0 0.0 0.0 0.8090701 1.4597319 
0.7834634 0.0 0.0 0.0 0.0 0.0 2.6383493 0.0 0.0 0.0 0.0 0.0 0.454773 0.0 0.0 0.0 
0.53506577 0.0 0.0 0.0 0.0 0.0 0.34835327 0.0 0.0 0.0 0.0 1.3323642 0.4889236 0.0 0.0 0.0 
0.053489525 0.0 0.0 0.0 0.2020402 0.24649262 0.04070156 0.0 0.0 0.0 0.0 0.0 0.0 0.10840409 0.0 0.0 
0.4410492 0.596296 0.71126425 0.0 0.035662644 0.0 0.0 0.0 0.03878295 0.0 0.0 0.0 0.0 0.011543192 0.0 0.11514393 
0.5943971 1.2759922 1.3785104 0.0 0.0 0.0 0.0 0.0 0.0 0.0 0.0 0.0 0.0 0.0 0.0 1.3416581 
0.28354013 1.0494571 0.0 0.0 0.0 0.0 0.85638785 0.0 0.0 0.40606457 0.0 1.3706357 0.066353396 0.0 0.0 0.19352216 
0.60217 0.0 0.0 0.0 1.2461133 0.0 0.64603996 0.0 0.0 0.11209081 0.0 1.7355455 0.0 0.0 0.0 0.0 
0.27486902 0.0 0.0 0.0 1.6124141 0.52651346 0.0 0.0 0.0 0.0 0.0 0.0 0.0 0.0 0.0 0.0 
0.0 0.0 2.2771091 0.0 0.20062506 1.2245016 0.0 0.0 0.0 0.0 0.0 0.0 0.0 0.0 0.46644783 0.443414 
0.0 0.0 2.9754157 0.0 0.0 0.0 0.22942689 0.0 0.0 0.0 0.0 0.0 0.46553767 0.0 1.5801039 0.0 
0.0 0.0 0.0 0.0 0.0 0.0 3.8800354 0.3572619 0.0 0.0 0.0 0.0 0.88182116 0.0 0.0 0.0 
0.19939618 0.0 0.0 0.0 0.0 0.0 0.0 0.0 1.4038284 0.0 0.0 0.4382306 0.4481184 0.0 0.0 0.0 
0.12876615 0.0 0.0 0.0 0.4296924 0.37650558 0.0 0.0 0.0 0.0 0.0 0.0 0.0 0.10081432 0.0 0.0 
0.4902626 0.027751883 1.914506 0.0 0.0 0.4411 0.0 0.0 0.020354647 0.0 0.0 0.0 0.0 0.4227049 0.616182 0.8856963 
0.9619878 0.0 2.3297715 0.0 0.0 0.0 0.35894427 0.0 0.0 0.0 0.0 0.0 0.0 0.0 0.0 1.2460092 
0.62874115 0.0 0.0 0.0 0.0 0.0 2.2945273 0.0 0.0 0.0 0.0 1.1886518 0.22000982 0.0 0.0 0.0 
0.7305102 0.0 0.0 0.0 0.0 0.0 0.0 0.0 0.0 0.0 0.0 2.2111347 0.06032037 0.0 0.0 0.0 
0.33327883 0.0 0.0 0.0 0.124013074 0.31460685 0.0 0.0 0.9176973 0.0 0.0 0.64551187 0.0 0.0 0.0 0.0 
0.0 0.0 2.849956 0.0 0.0 1.1580651 0.0 0.0 0.0 0.0 0.0 0.0 0.0 0.0 0.0 0.4142116 
0.0 0.0 2.4005623 0.0 0.0 0.0 2.1504037 0.24946131 0.0 0.0 0.0 0.0 0.068071604 0.0 0.2587226 0.0 
0.0 0.0 0.0 0.0 0.0 0.0 4.0329833 0.89900655 0.0 0.0 0.0 0.0 0.4526425 0.0 0.0 0.0 
0.0 0.0 0.0 0.0 0.0 0.0 0.0 0.0 3.1594067 0.0 0.0 0.0 0.0 0.0 0.0 0.0 
0.0 0.06170663 0.0 0.0 0.79179674 0.26654 0.0 0.0 0.0 0.0 0.0 0.0 0.0 0.0 0.0 0.04047985 
0.0 0.24450669 2.637623 0.0 0.0 0.6151871 0.0 0.0 0.0 0.0 0.0 0.0 0.0 0.0 1.2439988 1.2604742 
0.160951 0.0 2.4464335 0.0 0.0 0.0 1.2674049 0.0 0.0 0.0 0.0 0.0 0.39802492 0.0 0.6780023 0.0 
0.95359117 0.0 0.0 0.0 0.0 0.0 2.5733979 0.0 0.0 0.0 0.0 0.44302067 0.055099607 0.0 0.0 0.0 
1.1062813 0.0 0.0 0.0 0.0 0.0 0.0 0.0 0.51032203 0.0 0.0 1.2942084 0.0 0.0 0.0 0.0 
0.19761954 0.0 0.0 0.0 0.0 0.0 0.0 0.0 0.0 0.0 0.0 0.9627768 0.0 0.0 0.0 0.0 
0.0 0.0 1.4524627 0.0 0.0 0.0 0.0 0.0 0.0 0.08631727 0.0 0.0 0.0 0.0 0.0 0.0 
0.0 0.0 0.0 0.0 0.0 0.0 2.9183369 1.7060298 0.0 0.0 0.0 0.0 0.0 0.0 0.0 0.0 
0.0 0.0 0.0 0.0 0.0 0.0 1.8436353 1.1919936 1.1816702 0.0 0.0 0.0 0.0 0.0 0.0 0.0 
0.0 0.0 0.0 0.0 0.0 0.0 0.0 0.0 3.5126002 0.0 0.0 0.0 0.0 0.0 0.0 0.0 
0.16847022 1.1029663 0.0 0.0 0.7377106 0.0 0.0 0.0 0.0 0.029873844 0.0 0.0 0.0 0.0 0.0 1.1260751 
0.12697762 1.4683682 1.9592844 0.0 0.0 0.34619236 0.0 0.0 0.0 0.0 0.0 0.0 0.0 0.0 0.64402086 0.82894236 
1.2801788 0.0 0.31437653 0.0 0.0 0.0 1.6958556 0.7064615 0.0 0.0 0.0 0.0 0.0 0.0 0.9127733 0.0 
2.3615475 0.0 0.0 0.0 0.0 0.0 0.9782029 0.30000895 0.0 0.0 0.0 0.0 0.0 0.0 0.0 0.0 
2.3638122 0.0 0.0 0.0 0.0 0.0 0.0 0.0 0.0 0.0 0.0 0.0 0.0 0.0 0.0 0.0 
1.0621693 0.0 0.0 0.0 0.0 0.0 0.0 0.0 0.0 0.0 0.0 0.0 0.0 0.0 0.0 0.0 
0.5206683 0.0 0.6887261 0.0 0.0 0.0 0.0 0.0 0.0 0.0 0.0 0.084706664 0.6614139 0.0 0.0 0.0 
0.44005287 0.0 0.0 0.0 0.0 0.0 2.3619165 1.5735911 0.0 0.0 0.0 0.0 0.40478343 0.0 0.0 0.0 
0.0 0.0 0.0 0.0 0.0 0.0 0.0 0.0 3.3577297 0.0 0.0 0.0 0.0 0.0 0.0 0.0 
0.0 0.0 0.0 0.0 0.0 0.06510663 0.0 0.0 2.5540354 0.0 0.0 0.0 0.0 0.0 0.0 0.0 
0.3149729 0.0 0.0 0.0 0.0 0.0 0.0 0.0 0.0 1.1636579 0.0 0.0 0.0 0.0 0.0 2.004394 
0.23259513 0.0 0.85709876 0.0 0.0 0.0 0.0 0.24970119 0.0 0.92545503 0.0 0.0 0.0 0.0 0.0 0.0 
1.2480952 0.0 0.0 0.0 0.0 0.0 2.5149949 1.5774131 0.0 0.0 0.0 0.0 0.31891948 0.66772264 0.24577226 0.0 
1.3481075 0.0 0.0 0.0 0.0 0.0 0.0 0.0 0.0 0.0 0.0 0.0 0.066714406 1.7064459 0.0 0.0 
0.29570296 0.0 0.0 0.0 0.0 0.0 0.0 0.0 0.0 0.0 0.0 0.0 0.046115004 1.3715984 0.0 0.0 
0.0 0.0 0.0 0.0 0.0 0.0 0.0 0.0 0.0 0.0 0.0 0.0 1.9287299 0.0 0.0 0.0 
0.0 0.0 0.0 0.0 0.0 0.0 0.0 0.041325204 0.0 0.0 0.0 0.08903016 2.0139763 0.0 0.0 0.0 
0.10964617 0.0 0.0 0.0 0.0 0.0 1.5499654 0.79110885 0.945288 0.0 0.0 0.0 1.4762383 0.0 0.0 0.0 
0.0 0.0 0.0 0.0 0.0 0.0 0.0 0.0 4.235949 0.0 0.06970691 0.0 0.0 0.023449086 0.0 0.0 
0.0 0.0 0.0 0.0 0.0 0.39410585 0.0 0.0 0.97068536 0.0 0.21828404 0.0 0.0 0.0 0.0 0.57760346 
0.0 0.0 0.0 0.0 0.0 0.0 0.0 0.3564331 0.0 0.2037041 2.1727977 0.0 0.21563245 0.1427483 0.0 0.011131643 
0.0 0.0 0.0 0.0 0.0 0.0 0.29629186 1.3885198 0.0 0.0 1.8233122 0.0 1.4449292 0.84800065 0.0 0.0 
0.0 0.0 0.0 0.0 0.0 0.0 1.5755403 0.5421233 0.0 0.0 1.0951797 0.0 1.7576867 1.1489977 0.0 0.0 
0.0 0.0 0.0 0.0 0.0 0.0 0.0 0.0 1.2907573 0.0 1.0965736 0.0 1.2811878 0.5846923 1.3539232 0.0 
0.0 0.0 0.0 0.0 0.0 0.0 0.0 0.0 0.0 0.0 1.1605598 0.0 0.8066116 0.2013143 1.7090524 0.0 
0.0 0.0 0.0 0.121817306 0.0 0.0 0.0 0.0 0.0 0.0 1.1988971 0.0 1.5696448 0.0 0.21491791 0.0 
0.0 0.0 0.0 2.1372788 0.0 0.0 2.0374713 0.008981347 0.0 0.0 0.51383686 0.0 0.870552 0.0 0.0 0.0 
0.0 0.0 0.0 1.2021029 0.0 0.0 0.0 0.0 2.466121 0.0 0.21022046 0.2515948 0.6083253 0.0 0.0 0.0 
0.0 0.0 0.0 0.0 0.0 0.0 0.0 0.0 2.0119798 0.0 0.3899497 0.0 0.0 0.10818095 0.0 0.19919842 
0.0 0.0 0.0 0.0 0.0 0.22964612 0.0 0.0 0.0 0.0 0.31173417 0.0 0.0 0.0 0.0 0.7346919 
0.0 0.0 0.0 0.0 0.0 0.51190066 0.0 1.1179715 0.0 0.0 2.3144433 0.0 0.26531994 0.0 0.0 0.0 
0.0 0.75911075 0.0 1.6754564 0.0 0.0 0.3248135 1.5422275 0.0 0.0 2.4438026 0.0 0.06940645 0.0 0.0 0.0 
0.0 1.0986973 0.0 1.6182454 0.0 0.0 0.0 0.0 0.59108925 0.0 1.3589773 0.0 0.0 0.0 0.0 0.0 
0.0 1.2225858 0.0 0.14904752 0.0 0.0 0.0 0.0 1.2819467 0.0 0.14288978 0.0 0.0 0.0 1.0478076 0.0 
0.0 1.5486418 0.0 0.07906045 0.0 0.0 0.0 0.0 0.0 0.09222306 0.0 0.0 0.0 0.0 1.6870188 0.6151691 
0.0 0.0 0.0 2.815772 0.0 0.0 0.48050576 0.0 0.0 0.8537627 0.0 0.0 0.0 0.0 0.8056691 0.0 
0.0 0.0 0.0 2.2975192 0.0 0.0 0.386512 0.0 0.0 0.05229759 0.0 0.0 0.0 0.0 0.0 0.0 
0.0 0.0 0.0 0.89359665 0.0 0.0 0.0 0.0 2.1043503 0.0 0.0 0.0 0.0 0.0 0.0 0.0 
0.0 0.0 0.0 0.0 0.0 0.4971639 0.0 0.0 0.0 0.0 0.08033258 0.0 0.0 0.0 0.0 0.5250128 
0.0 0.0 0.0 0.024225282 0.0 0.0 0.0 0.0 0.0 0.0 0.0 0.0 0.0 0.0 0.0 0.74319625 
0.0 1.4756994 0.0 2.400514 0.0 0.044348255 0.0 1.1473411 0.0 0.4901207 0.9872763 0.0 0.0 0.0 0.0 0.0 
0.0 1.9680347 0.0 4.2778068 0.0 0.0 0.8263293 0.20784046 0.0 1.9215263 1.2219485 0.0 0.0 0.0 0.0 0.0 
0.0 0.90935266 0.0 2.0920143 0.0 0.0 0.0 0.0 1.1815829 2.6099787 1.4269639 0.0 0.0 0.0 0.0 0.0 
0.0 0.0 0.0 0.0 0.2443949 0.9749127 0.0 0.0 0.0 2.491533 0.31866628 0.0 0.0 0.0 0.0 1.9296563 
0.0 0.0 0.0 0.0 0.0 0.040119916 0.0 0.0 0.0 1.959648 0.0 0.0 0.0 0.0 0.0 0.0 
0.0 0.0 0.0 0.0 0.0 0.0 2.6302829 0.0 0.0 0.5669216 0.0 0.0 0.0 0.0 0.0 0.0 
0.0 0.0 0.0 0.0 0.0 0.0 0.0 0.0 1.4618096 0.0 0.0 0.0 0.0 0.0 0.0 0.0 
0.0 0.0 0.0 0.0 0.0 0.0 0.0 0.0 2.1843271 0.0 0.0 0.0 0.0 0.0 0.0 0.076806806 
0.0 0.0 0.0 0.0 0.0 0.25156522 0.0 0.0 0.0 0.0 0.046239473 0.0 0.0 0.0 0.0 0.48315787 
0.0 0.038222093 0.0 0.17153287 0.0 0.0 0.0 0.0 0.0 0.0 0.0 0.0 0.056389652 0.0 0.0 0.3999895 
0.0 0.7931319 0.0 1.8623594 0.0 0.0 0.68098116 0.28022915 0.0 1.7226754 0.0019147061 0.0 0.0 0.0 0.0 0.0 
0.0 0.3440697 0.0 1.266288 0.1332336 0.0 0.6038657 0.0 0.82803845 2.3922226 0.11004543 0.0 0.0 0.0 0.0 0.0 
0.0 0.0 0.0 0.0 0.918331 0.17712313 0.0 0.0 0.39705285 1.3354832 1.0143125 0.0 0.0 0.0 0.0 1.6589881 
0.0 0.0 0.0 0.0 0.19543865 2.4777577 0.0 0.0 0.0 0.0 1.5086522 0.0 0.0 0.0 0.0 0.0 
0.0 0.0 0.08218926 0.0 0.0 1.1741095 1.3452358 0.0488168 0.0 0.0 1.0775883 0.0 0.0 0.62027365 0.0 0.0 
0.0 0.0 0.0 0.6969681 0.0 0.0 2.88141 0.1883126 0.006008167 0.0 1.2314394 0.0 0.0 0.94197285 0.0 0.0 
0.0 0.0 0.0 0.0 0.0 0.0 0.0 0.0 3.6491575 0.0 0.96961814 0.0 0.0 0.13937539 0.0 0.0 
0.0 0.0 0.0 0.0 0.0 0.01317247 0.0 0.0 1.0605373 0.0 0.5185378 0.0 0.022801198 0.039681345 0.0 1.359513 
0.0 0.0 0.0 0.0 0.0 0.0 0.0 0.0 0.0 0.0 0.0076434724 0.046387583 0.08879624 0.0 0.0 0.6083237 
0.0 0.030165147 0.0 0.2870548 0.0 0.0 0.0 0.0 0.0 0.0 0.0 0.0 0.0 0.0 0.0 0.026789274 

