0.0 0.13454224 0.0 0.37743714 0.0 0.0 0.0 0.0 0.045227464 0.0 0.0 0.0 0.0 0.0 0.0 0.0 
0.0 0.40018594 0.37137565 0.5081648 0.0 0.0 0.0 0.0 0.27954274 0.0 0.0 0.0 0.0 0.0 0.0 0.178859 
0.0 0.59796256 0.06370598 0.5765516 0.0 0.0 0.0 0.0 0.16047117 0.0 0.0 0.11221123 0.0 0.0 0.0 0.23164877 
0.0 0.7430702 0.0 0.8220305 0.5028793 0.16356629 0.25945523 0.0 0.0 0.0 0.091407076 0.32656917 0.0 0.0 0.0 0.0 
0.0 0.34558165 0.0 0.54214835 0.5234163 0.22024885 0.5055291 0.0 0.0 0.0 0.18580484 0.0 0.0 0.1748558 0.0 0.0 
0.11293301 0.0 0.0 0.0 0.896822 0.14622958 0.0 0.0 0.0 0.0 0.0 0.0 0.0 0.0 0.0 0.0 
0.39433256 0.03316698 1.2976296 0.0 0.28228393 0.5555062 0.0 0.0 0.0 0.36798763 0.0 0.0 0.0 0.0 0.6180615 1.2313033 
0.95360667 0.0 3.0755339 0.0 0.0 0.0 0.0 0.0 0.0 0.47995764 0.0 0.0 0.0 0.0 1.28896 2.3222926 
2.0218527 0.0 0.5237406 0.0 0.0 0.0 1.9897907 0.0 0.0 0.04275341 0.0 0.0 0.25330424 0.0 0.0 0.0 
1.6293441 0.0 0.0 0.0 0.0 0.0 1.4712287 0.35907906 0.0 0.0 0.0 1.080718 0.30326813 0.0 0.0 0.0 
0.07794514 0.6370827 0.5186789 0.30118605 0.114847474 0.0 0.0 0.0 0.263692 0.0 0.0 0.0 0.0 0.0 0.0 0.04808147 
0.21272467 1.5065674 1.273019 0.6498448 0.0 0.0 0.0 0.0 0.5590972 0.0 0.0 0.0 0.0 0.0 0.0 1.1207862 
0.25467172 2.0394855 0.110360116 0.67156285 0.0 0.0 0.392227 0.0 0.0 0.1606351 0.0 0.9114809 0.0037848055 0.0 0.0 1.0531518 
0.34738892 1.5135044 0.0 0.70930576 1.5689406 0.0 0.75133526 0.0 0.0 0.13435315 0.0 1.5438119 0.0 0.0 0.0 0.0 
0.30547628 0.0 0.0 0.2413569 1.9353404 0.6683904 0.0 0.0 0.0 0.0 0.0 0.05521159 0.0 0.15375575 0.0 0.0 
0.0 0.0 0.28138104 0.0 1.6457926 0.49069655 0.0 0.0 0.0 0.05335484 0.0 0.0 0.0 0.017057762 0.0 0.0 
0.0 0.0 2.1908822 0.0 0.3166362 0.0 0.0 0.0 0.0 0.8542661 0.0 0.0 0.0 0.0 1.1957072 2.3340921 
0.0 0.0 3.0416121 0.0 0.0 0.0 0.0 0.0 0.0 0.0 0.0 0.0 0.7068188 0.0 2.2868261 0.6995376 
0.089998275 0.0 0.0 0.0 0.0 0.0 3.5169044 0.882024 0.0 0.0 0.0 0.0 1.4571977 0.04786706 1.4304471 0.0 
0.57658345 0.0 0.0 0.0 0.0 0.0 0.6227417 0.7621074 0.0 0.0 0.0 0.0 1.0906998 0.60813093 0.0 0.0 
0.7538638 0.73755455 1.505554 0.0 0.06726846 0.0 0.0 0.0 0.03617492 0.0 0.0 0.0 0.0 0.0 0.0 1.0731426 
1.2523667 1.5301895 2.01082 0.0 0.0 0.0 0.0 0.0 0.0 0.43227607 0.0 0.0 0.0 0.0 0.0 2.2091293 
1.4922535 0.98982316 0.0 0.0 0.0 0.0 1.5183945 0.0 0.0 0.6073031 0.0 0.68039036 0.11046831 0.0 0.0 0.937572 
1.3713276 0.0 0.0 0.0 0.5322782 0.0 0.9542793 0.0 0.0 0.0 0.0 2.0405145 0.0 0.0 0.0 0.0 
1.2848427 0.0 0.0 0.0 0.78826016 0.1402171 0.0 0.0 0.0 0.0104716495 0.0 0.52727747 0.0 0.0 0.0 0.0 
0.1862829 0.0 1.5708907 0.0 1.1037607 0.3716278 0.0 0.0 0.04333182 0.3324843 0.0 0.0 0.0 0.0 0.0 0.2157665 
0.0 0.0 2.4582868 0.0 0.053712577 0.0 0.0 0.0 0.0 0.27314204 0.0 0.0 0.0 0.0 0.017759606 2.0728855 
0.0 0.0 1.2719759 0.0 0.0 0.0 1.6992573 0.64431703 0.0 0.0 0.0 0.0 1.5458943 0.0 0.5675239 0.0 
0.0 0.0 0.0 0.0 0.0 0.0 3.5597272 2.222474 0.0 0.0 0.0 0.0 1.3413965 0.0 0.5107181 0.0 
0.0 0.0 0.0 0.0 0.0 0.0 0.0 0.0 3.587582 0.0 0.0 0.0 0.6274701 0.0 0.0 0.0 
0.5807708 0.5265582 2.4379532 0.0 0.0 0.0 0.0 0.0 0.0 0.9435979 0.0 0.0 0.0 0.0 1.2482331 2.5554805 
1.4835552 0.0 2.3597746 0.0 0.0 0.0 0.5472445 0.0 0.0 0.30260724 0.0 0.0 0.256854 0.0 0.9681167 1.6606436 
1.8425918 0.0 0.0 0.0 0.0 0.0 2.7651298 0.0 0.0 0.0 0.0 0.21753636 0.6294089 0.0 0.0 0.0 
1.1904682 0.0 0.0 0.0 0.0 0.0 0.0 0.0 0.08763036 0.0 0.0 1.4865056 0.3704722 0.0 0.0 0.0 
0.7249361 0.0 0.0 0.0 0.0 0.0 0.0 0.0 1.4647589 0.0 0.0 1.2923093 0.0 0.0 0.0 0.0 
0.0 0.0 2.7622955 0.0 0.009078972 0.0083313435 0.0 0.0 0.0 0.0 0.0 0.0 0.0 0.0 0.0 0.63304454 
0.0 0.0 2.0317848 0.0 0.0 0.0 0.0 0.0 0.0 0.0 0.0 0.0 0.0 0.0 0.0 0.021239486 
0.0 0.0 0.0 0.0 0.0 0.0 3.7550108 2.7106478 0.0 0.0 0.0 0.0 0.15396161 0.0 0.0 0.0 
0.0 0.0 0.0 0.49672943 0.0 0.0 2.155963 1.801421 2.1759067 0.0 0.0 0.0 0.19697772 0.0 0.0 0.0 
0.0 0.0 0.0 0.2978806 0.0 0.0 0.0 0.0 4.6027117 0.0 0.041982777 0.0 0.0 0.0 0.0 0.0 
0.0 0.14565612 1.9535617 0.0 0.0 0.0 0.0 0.0 0.0 0.06875253 0.0 0.0 0.0 0.0 0.5025658 1.1680404 
0.21500836 0.0 0.30003035 0.0 0.0 0.0 0.5675625 0.49853635 0.0 0.0 0.0 0.0 0.9897235 0.0 0.5303642 0.0 
1.3088431 0.0 0.0 0.0 0.0 0.0 0.7909036 0.783845 0.0 0.0 0.0 0.0 0.46310568 0.0 0.0 0.0 
1.8377548 0.0 0.0 0.0 0.0 0.0 0.0 0.0 0.9680122 0.0 0.0 0.213994 0.0 0.0 0.0 0.0 
0.32412642 0.0 0.0 0.0 0.014935955 0.0 0.0 0.0 0.0 0.0 0.0 1.3358598 0.0 0.0 0.0 0.0 
0.0 0.0 0.6343862 0.0 0.25638002 0.0 0.0 0.0 0.0 0.0 0.0 0.0 0.0 0.0 0.0 0.0 
0.0 0.0 0.6547464 0.0 0.0 0.0 0.6074385 1.9152497 0.0 0.0 0.0 0.0 0.0 0.0 0.0 0.0 
0.0 0.0 0.0 0.0 0.0 0.0 3.441184 3.5237718 0.0 0.0 0.0 0.0 0.0 0.0 0.0 0.0 
0.0 0.0 0.0 0.0 0.0 0.0 0.0 0.24990286 3.3869898 0.0 0.0 0.46164998 0.0 0.0 0.0 0.0 
0.0 0.0 0.0 0.0 0.0 0.46794057 0.0 0.0 2.0675974 0.0 0.0 0.0 0.0 0.0 0.0 0.0 
0.0 0.0 0.5088863 0.0 0.0 0.2631869 0.0 0.76858205 0.0 0.0 0.0 0.0 0.0 0.3369902 0.0 0.0 
0.51695114 0.0 0.0 0.0 0.0 0.0 0.98095345 2.4694138 0.0 0.0 0.0 0.0 0.0 0.0 0.0 0.0 
1.9205309 0.0 0.0 0.0 0.0 0.0 0.0 0.4203028 0.0 0.0 0.0 0.0 0.0 0.0 0.0 0.0 
1.9866393 0.0 0.0 0.0 0.0 0.0 0.0 0.0 0.0 0.0 0.0 0.0 0.0 0.0 0.0 0.0 
0.70434844 0.0 0.0 0.0 0.0 0.0 0.0 0.0 0.0 0.0 0.0 0.0 0.0 0.0 0.0 0.0 
0.5719035 0.0 0.25883377 0.0 0.0 0.0 0.0 0.0 0.0 0.0 0.0 0.0 0.0 0.0 0.0 0.0 
1.2682438 0.0 0.6622356 0.0 0.0 0.0 0.9025983 2.3059149 0.0 0.0 0.0 0.0 0.12510355 0.0 0.0 0.0 
1.0764464 0.0 0.0 0.0 0.0 0.0 2.2167084 2.2480543 0.0 0.0 0.0 0.0 0.0 0.0 0.0 0.0 
0.34858656 0.0 0.0 0.0 0.0 0.0 0.0 0.0 2.7892077 0.0 0.0 0.16003335 0.0 0.0 0.0 0.0 
0.0 0.0 0.0 0.0 0.0 0.13244562 0.0 0.0 0.09976643 0.0 0.0 0.070025355 0.3817652 0.0 0.0 0.0 
0.0 0.0 0.0 0.0 0.0 1.4955132 0.13408746 1.9542689 0.0 0.0 3.7532225 0.0 0.48187453 2.522676 0.0 0.0 
0.0 0.0 0.0 0.0 0.0 0.0 1.8570771 1.3913499 0.0 0.0 3.7843857 0.0 0.3557654 3.7016025 0.0 0.0 
0.0 0.0 0.0 0.0 0.0 0.0 0.0 0.0 0.0 0.0 2.5986538 0.0 0.021594748 4.237563 0.0 0.0 
0.0 0.0 0.0 0.0 0.0 0.0 0.0 0.0 0.0 0.0 0.37249148 0.0 0.34922475 2.685416 0.0 0.0 
0.0 0.0 0.0 0.0 0.0 0.0 0.0 0.0 0.0 0.0 0.17902513 0.0 1.2933404 0.0 0.0 0.0 
0.0 0.0 0.0 0.0 0.0 0.0 0.0 0.0 0.0 0.0 0.0 0.0 2.4436853 0.0 0.0 0.0 
0.0 0.0 0.0 0.0 0.0 0.0 1.6059787 1.8981987 0.0 0.0 0.0 0.0 1.8599269 0.80864215 0.0 0.0 
0.0 0.0 0.0 0.0 0.0 0.0 0.67173934 0.0 1.5526167 0.0 0.0 0.0 0.7466019 1.8323964 0.0 0.0 
0.0 0.0 0.0 0.0 0.0 0.0 0.0 0.0 2.6607223 0.0 0.7066131 0.0 0.0 1.518113 0.0 0.0 
0.0 0.0 0.0 0.0 0.0 0.0 0.0 0.0 0.0 0.0 0.32334363 0.6053661 0.98923343 0.3135455 0.0 0.0 
0.0 1.6991829 0.0 0.71093506 0.0 0.22713211 0.0 1.1641822 0.0 0.0 2.4407716 0.0 0.0 0.0 0.3133121 0.0 
0.0 0.83090097 0.0 0.96227497 0.0 0.0 0.0 0.0 0.0 0.0 3.26712 0.0 0.0 0.0 1.4606949 0.0 
0.0 0.0 0.0 0.0 0.0 0.0 0.0 0.0 0.0 0.0 3.0330675 0.0 0.0 0.68069756 2.3750377 0.0 
0.0 0.44247895 0.0 0.0 0.0 0.0 0.0 0.0 0.0 0.0 2.711072 0.0 0.0 0.38867712 2.3051016 0.0 
0.0 0.4513045 0.0 0.0 0.0 0.0 0.0 0.0 0.0 0.0 2.4757822 0.0 0.6328645 0.0 0.04950784 0.0 
0.0 0.0 0.0 0.0 0.0 0.0 0.0 0.29838717 0.0 0.0 0.9465276 0.0 1.0674009 0.0 0.0 0.0 
0.0 0.0 0.0 0.18358465 0.0 0.0 0.0 0.5302829 0.0 0.0 0.0 0.0 1.1636776 0.0 0.0 0.0 
0.0 0.0 0.0 0.41857147 0.0 0.0 0.0 0.0 2.133614 0.0 0.20069818 0.0 0.2874598 0.23803613 0.27626628 0.0 
0.0 0.0 0.0 0.6734587 0.0 0.0 0.0 0.0 1.5979596 0.0 1.3535619 0.0 0.0 0.59241945 0.0 0.29185474 
0.0 0.12666407 0.0 1.6911396 0.0 0.0 0.0 0.0 0.0 0.0 1.2352082 0.26575276 0.19199674 0.15885767 0.0 1.3057567 
0.0 2.104747 0.0 2.739415 0.0 0.0 0.0 0.16224992 0.0 1.4494497 0.17617452 0.0 0.0 0.0 0.0 0.0 
0.0 2.047079 0.0 2.6184094 0.0 0.0 0.0 0.0 0.0 1.5827973 0.649663 0.0 0.0 0.0 0.0 0.0 
0.0 1.1771837 0.0 0.5386006 0.0 0.46263653 0.0 0.0 0.0 1.9582533 1.4735448 0.0 0.0 0.0 1.0238439 0.0 
0.0 0.0 0.0 0.0 0.0 1.1308582 0.0 0.0 0.0 2.3914075 1.9563622 0.0 0.0 0.0 1.56468 0.0 
0.0 0.0 0.0 1.262013 0.0 0.0 0.0 0.0 0.0 1.5132896 2.2982879 0.0 0.0 0.0 0.33190173 0.0 
0.0 0.0 0.0 2.3487027 0.0 0.0 0.0 0.0 0.0 0.11748406 1.0707692 0.0 0.0 0.0 0.0 0.0 
0.0 0.0 0.0 1.7700307 0.0 0.0 0.0 0.0 1.0138876 0.0 0.0 0.0 0.0 0.0 0.0 0.0 
0.0 0.0 0.0 0.58032453 0.0 0.0 0.0 0.0 1.8875495 0.0 0.0 0.0 0.0 0.0 0.0 0.0 
0.0 0.0 0.0 0.6099509 0.0 0.0 0.0 0.0 0.0 0.0 0.24717131 0.0 0.0 0.0 0.6389715 1.7307351 
0.0 0.0 0.0 1.0274137 0.29976168 0.07866588 0.0 0.0 0.0 0.16872182 0.28077954 0.0 0.0 0.0 0.4843914 1.7493336 
0.23744486 0.6794498 0.0 1.6123552 0.0 0.0 0.82818174 0.0 0.0 1.9291513 0.0 0.0 0.0 0.0 0.0 0.0 
0.0 0.7626506 0.0 0.5587815 0.0 0.0 0.56901664 0.0 0.034765426 2.2901716 0.0 0.0 0.0 0.0 0.0 0.0 
0.0 0.48271346 0.0 0.0 0.01281096 0.054310977 0.0 0.0 0.0 1.8869243 0.5733238 0.0 0.0 0.0 0.0 0.0 
0.0 0.0 0.0 0.0 0.0 1.5766609 0.0 0.0 0.0 1.1036559 1.1057508 0.0 0.0 0.0 0.0 0.0 
0.0 0.0 0.0 3.1248097 0.0 0.53817046 0.8592356 0.0 0.0 0.47830087 1.8430259 0.0 0.0 0.0 0.0 0.0 
0.0 0.0 0.0 3.8258476 0.0 0.0 1.337242 0.0 0.0842794 0.0 2.0705855 0.0 0.0 0.25668424 0.0 0.0 
0.0 0.0 0.0 2.8306694 0.0 0.0 0.0 0.0 2.606944 0.0 1.2437794 0.0 0.0 0.0 0.0 0.9798731 
0.0 0.0 0.0 0.9431274 0.0 0.0 0.0 0.0 0.3027663 0.0 0.46802747 0.0 0.0 0.0 0.0 1.9960973 
0.0 0.0 0.0 0.09524298 0.048493266 0.2494748 0.0 0.0 0.0 0.0 0.032233693 0.0 0.0 0.0 0.0 1.3378872 
0.0 0.05826839 0.0 0.0 0.24942231 0.086335376 0.0 0.0 0.0 0.0 0.0 0.0 0.0 0.0 0.0 0.670714 

