0.0 0.0 0.0 0.0 0.0 0.0 0.16891994 0.0 0.0 0.0 0.0 0.0 0.0 0.0 0.0 0.0 
0.047954965 0.119680054 0.0 0.0 0.3409767 0.032294393 0.0 0.0 0.0 0.0 0.0 0.008411497 0.0 0.0 0.0 0.0 
0.48866716 0.8023651 0.8961373 0.0 0.0 0.0 0.0 0.0 0.110551834 0.0 0.0 0.0 0.0 0.0 0.0 0.6436233 
0.8571337 1.7375686 1.2804115 0.0 0.0 0.0 0.0 0.0 0.0 0.18292934 0.0 0.0 0.0 0.0 0.0 1.6444509 
0.9381452 1.8253663 0.0 0.0 0.0 0.0 0.9071829 0.0 0.0 0.37244913 0.0 0.7602203 0.0 0.0 0.0 0.7784785 
1.1614087 0.0 0.0 0.0 1.3025761 0.0 0.6627337 0.0 0.0 0.044143353 0.0 1.6503651 0.0 0.0 0.0 0.0 
1.3841747 0.0 0.0 0.0 0.92498666 0.81096685 0.0 0.0 0.0 0.0 0.0 0.0 0.0 0.1920836 0.0 0.0 
1.2475537 0.0 2.1371348 0.0 0.0 0.0 0.0 0.0 0.0 0.37341118 0.0 0.0 0.0 0.18022993 0.0 0.56179005 
1.4372892 0.8863192 1.0235059 0.0 0.0 0.0 0.4236244 0.0 0.0 0.65153384 0.0 0.0 0.0 0.0 0.0 1.4534904 
1.4310926 0.0 0.0 0.0 0.0 0.0 1.4648933 0.0 0.0 0.4804719 0.0 1.3473663 0.25639296 0.0 0.0 0.0 
0.00080047175 0.0 0.0 0.0 0.26760775 0.0 0.17148083 0.0 0.0 0.0 0.0 0.0 0.0 0.0 0.0 0.0 
0.4767982 0.2556377 0.4422339 0.0 0.44845355 0.0 0.0 0.0 0.0 0.0 0.0 0.0 0.0 0.0 0.0 0.29701596 
0.69950277 0.40984297 1.9498017 0.0 0.0 0.0 0.0 0.0 0.0 0.6512058 0.0 0.0 0.0 0.0 0.7252184 2.108681 
1.3334368 0.0 1.595197 0.0 0.0 0.0 0.41291958 0.0 0.0 0.54797155 0.0 0.0 0.0 0.0 0.27367985 1.8699981 
1.5860316 0.0 0.0 0.0 0.0 0.0 2.556113 0.0 0.0 0.0 0.0 0.098191395 0.068069994 0.0 0.0 0.0 
1.501735 0.0 0.0 0.0 0.0 0.0 0.0 0.0 0.0 0.0 0.0 0.69911945 0.0 0.0 0.0 0.0 
1.247275 0.0 1.6950625 0.0 0.0 0.0 0.0 0.0 0.8694048 0.0 0.0 0.0 0.0 0.0 0.0 0.0 
1.2572529 0.0 3.570514 0.0 0.0 0.0 0.0 0.0 0.0 0.26986378 0.0 0.0 0.49994773 0.0 0.6417389 1.3099847 
1.4032305 0.0 0.0 0.0 0.0 0.0 2.1108496 0.0 0.0 0.0 0.0 0.0 0.7888126 0.053795256 0.0 0.0 
1.0673057 0.0 0.0 0.0 0.0 0.0 1.1981652 0.8362551 0.0 0.0 0.0 0.13444526 0.49989212 0.40246597 0.0 0.0 
0.24379887 0.16631788 0.1615035 0.0 0.59713584 0.0 0.0 0.0 0.0 0.0 0.0 0.0 0.0 0.0 0.0 0.0 
0.06493388 0.68014336 1.4877017 0.0 0.74510854 0.0 0.0 0.0 0.76321477 0.66128826 0.0 0.0 0.0 0.0 0.65416723 1.7697366 
0.0 0.11388539 2.7365842 0.0 0.0 0.0 0.0 0.0 0.0 0.3171749 0.0 0.0 0.3009398 0.0 1.1790179 2.7289014 
0.0 0.0 0.6253954 0.0 0.0 0.0 2.2743084 0.0 0.0 0.0 0.0 0.0 1.4643459 0.0 0.26040226 0.0 
0.22007932 0.0 0.0 0.0 0.0 0.0 1.9853095 0.0 0.0 0.0 0.0 0.0 0.4239158 0.35827205 0.0 0.0 
0.36760965 0.0 0.0 0.0 0.0 0.0 0.0 0.0 2.5233955 0.0 0.0 0.0 0.0 0.0 0.0 0.0 
0.0 0.0 1.88858 0.0 0.0 0.0 0.0 0.0 0.8063917 0.0 0.0 0.0 0.0 0.0 0.0 0.9372809 
0.0 0.0 2.2581975 0.0 0.0 0.0 0.0 0.0 0.0 0.0 0.0 0.0 1.2960058 0.0 0.7275655 0.0 
0.0 0.0 0.0 0.0 0.0 0.0 2.977922 1.5070014 0.0 0.0 0.0 0.0 1.2403402 0.0 0.58378613 0.0 
0.07001683 0.0 0.0 0.0 0.0 0.0 0.0 0.681834 1.2524202 0.0 0.0 0.0 0.80267304 0.0 0.0 0.0 
0.5836459 1.2854059 0.0 0.0 0.5630217 0.0 0.0 0.0 0.0 0.19443369 0.0 0.0 0.0 0.0 0.0 0.7233219 
0.08642687 1.6354587 0.6706772 0.0 0.60812676 0.0 0.0 0.0 0.0 0.69355595 0.0 0.0 0.0 0.0 0.028206393 2.3289604 
0.0 1.337829 0.0857925 0.0 0.0 0.0 0.0 0.033952653 0.0 0.0 0.0 0.0 0.0 0.0 0.0 0.0 
0.0 0.0 0.0 0.0 0.0 0.0 1.3936129 1.8912 0.0 0.0 0.0 0.0 0.0 0.0 0.0 0.0 
0.71381646 0.0 0.0 0.0 0.0 0.0 0.0 0.0 0.27207625 0.0 0.0 0.0 0.0 0.0 0.0 0.0 
0.0 0.0 0.0 0.0 0.0 0.0 0.0 0.0 2.4030483 0.0 0.0 0.0 0.0 0.0 0.0 0.2132995 
0.0 0.0 0.0 0.0 0.0 0.0 0.0 0.0 0.0 0.0 0.0 0.0 0.0 0.0 0.0 1.2911752 
0.0 0.0 0.0 0.0 0.0 0.0 1.0174321 0.8962534 0.0 0.0 0.0 0.0 0.538626 0.0 0.0 0.0 
0.0 0.0 0.0 0.0 0.0 0.0 2.032165 2.3317475 0.0 0.0 0.0 0.0 0.5271945 0.0 0.0 0.0 
0.0 0.0 0.0 0.0 0.0 0.0 0.0 0.0 4.1720953 0.0 0.19022009 0.0 0.0 0.0 0.0 0.0 
0.6131247 0.0 0.0 0.0 0.061669044 0.0 0.0 0.0 0.0 0.97886014 0.0 0.0 0.0 0.0 0.0 1.7459658 
0.40183732 0.0 0.0 0.0 0.0 0.0 0.0 0.2612388 0.0 0.49558157 0.0 0.0 0.0 0.0 0.0 0.40607482 
1.581547 0.0 0.0 0.0 0.0 0.0 1.0091223 2.0198817 0.0 0.09293011 0.0 0.0 0.0 0.0 0.0 0.0 
2.616004 0.0 0.0 0.0 0.0 0.0 0.6758131 1.5115852 0.0 0.0 0.0 0.0 0.0 0.0 0.0 0.0 
1.5732086 0.0 0.0 0.0 0.0 0.0 0.0 0.0 0.22153082 0.27015918 0.0 0.0 0.0 0.0 0.0 0.0 
0.0 0.0 0.0 0.0 0.0 0.0 0.0 0.0 0.0 0.0 0.0 0.0 0.0 0.0 0.0 0.5206407 
0.0 0.0 0.0 0.0 0.0 0.0 0.0 0.0 0.0 0.0 0.0 0.0 1.2827257 0.0 0.0 0.0 
0.0 0.0 0.0 0.0 0.0 0.0 1.0467405 2.096199 0.0 0.0 0.0 0.0 0.24131195 0.0 0.0 0.0 
0.0 0.0 0.0 0.0 0.0 0.0 0.0 1.0468293 2.828966 0.0 0.0 0.0 0.0 0.0 0.0 0.0 
0.0 0.0 0.0 0.4543809 0.0 0.0 0.0 0.0 3.0195136 0.0 0.34368417 0.0 0.0 0.13692665 0.0 0.0 
0.0 0.0 0.0 0.0 0.0 0.86172014 0.0 0.022477642 0.0 0.100222126 2.2861674 0.0 0.5110195 0.8176694 0.0 0.0 
0.0 0.0 0.0 0.0 0.0 0.7085318 0.0 1.1302377 0.0 0.0 3.4226007 0.0 0.9117534 2.1334004 0.0 0.0 
0.0 0.0 0.0 0.0 0.0 0.0 1.918114 0.94872147 0.0 0.0 3.0833845 0.0 0.77538466 3.244283 0.0 0.0 
0.0 0.0 0.0 0.0 0.0 0.0 0.0 0.0 0.15163058 0.0 1.4926268 0.0 0.5032783 3.8812072 0.0 0.0 
0.0 0.0 0.0 0.0 0.0 0.0 0.0 0.0 0.14834613 0.0 1.2928864 0.0 0.26227623 2.239072 0.0 0.0 
0.0 0.0 0.0 0.0 0.0 0.0 0.0 0.0 0.0 0.0 0.55368495 0.0 0.91132396 0.92467344 0.0 0.0 
0.0 0.0 0.0 0.0 0.0 0.0 0.95224786 0.61283 0.0 0.0 0.0 0.0 1.1834561 0.0 0.0 0.0 
0.3991985 0.0 0.0 0.0 0.0 0.0 1.6673834 1.3753034 0.03899527 0.0 0.0 0.0 0.6801041 0.0 0.0 0.0 
0.029016707 0.0 0.0 0.0 0.0 0.0 0.0 0.0 3.6092954 0.0 0.0 0.48841682 0.0 0.0 0.0 0.0 
0.0 0.0 0.0 0.0 0.0 0.4013173 0.0 0.0 0.3591564 0.0 0.0 0.0 0.0 0.0 0.0 0.0 
0.0 0.6987368 0.0 0.0 0.0 0.40844238 0.0 0.81459093 0.0 0.0 2.2418687 0.0 0.12879924 0.0 0.0 0.0 
0.0 1.5566757 0.0 1.0391636 0.0 0.43896323 0.0 0.67295456 0.0 0.0 2.7023559 0.0 0.0 0.0 0.0 0.0 
0.0 1.8683931 0.0 1.6279902 0.0 0.0 0.0 0.0 0.0 0.0 2.0333965 0.0 0.0 0.0 1.1074091 0.0 
0.0 0.9655373 0.0 0.051482074 0.0 0.0 0.0 0.0 1.1688163 0.0 1.4517819 0.0 0.0 0.0 3.2021456 0.0 
0.0 0.6622673 0.0 0.0 0.0 0.0 0.0 0.0 0.0 0.0 2.0346537 0.0 0.0 0.0 2.6633742 1.5459224 
0.0 0.0 0.0 0.593413 0.0 0.0 0.0 0.0 0.0 0.0 2.2096136 0.0 0.62305033 0.0 1.0263339 0.0 
0.0 0.0 0.0 1.2539284 0.0 0.0 1.361595 0.98510486 0.0 0.0 0.7962413 0.0 0.22733943 1.1710377 0.0 0.0 
0.0 0.0 0.0 0.0 0.0 0.0 0.0 0.0 1.6778405 0.0 0.5425962 0.0 0.28211665 0.7835525 0.0 0.0 
0.0 0.0 0.0 0.0 0.0 0.0 0.0 0.0 2.1244254 0.0 0.28121838 0.0 0.12313183 0.5273796 0.0 0.0 
0.0 0.0 0.0 0.0 0.0 0.0 0.0 0.0 0.0 0.0 0.14395905 0.4378442 0.64316267 0.0 0.0 0.0 
0.0 1.4062947 0.0 1.5847628 0.0 0.0 0.0 0.70713985 0.0 0.5569452 0.55114377 0.28862983 0.0 0.0 0.0 0.0 
0.0 2.1264534 0.0 3.1634047 0.0 0.0 0.19846797 0.0 0.0 1.8099899 0.040353388 0.0 0.0 0.0 0.0 0.0 
0.0 2.1464953 0.0 2.1400738 0.0 0.0 0.0 0.0 0.35792187 2.509656 0.0 0.0 0.0 0.0 0.0 0.0 
0.0 0.9870074 0.0 0.0 0.0 0.0 0.0 0.0 0.0 2.732639 0.0 0.0 0.0 0.0 0.7240633 2.3875556 
0.0 0.0 0.0 0.0 0.0 0.0 0.0 0.0 0.0 2.0610926 0.0 0.0 0.0 0.0 0.8681856 0.0 
0.0 0.0 0.0 1.3252358 0.0 0.0 0.52810174 0.0 0.0 0.68346435 0.0 0.0 0.0 0.0 0.52628 0.0 
0.0 0.0 0.0 1.9029763 0.0 0.0 0.0 0.0 0.39803258 0.0 0.0 0.0 0.0 0.0 0.52255714 0.0 
0.0 0.0 0.0 1.6376718 0.0 0.0 0.0 0.0 2.385151 0.0 0.9002759 0.0 0.0 0.0 0.2844504 0.0 
0.0 0.0 0.0 0.79790133 0.0 0.0 0.0 0.0 0.52559257 0.0 1.1717736 0.0 0.0 0.17128113 0.0 1.4385409 
0.0 0.14126164 0.0 1.2141132 0.0 0.0 0.0 0.0 0.0 0.0 0.7175978 0.6295068 0.11228739 0.0 0.0 1.0366242 
0.48151103 0.48989952 0.0 1.1347376 0.0 0.0 0.7016885 0.0 0.0 1.1515701 0.0 0.0 0.0 0.0 0.0 0.0 
0.18358758 0.47244558 0.0 0.08322199 0.09814394 0.0 0.23779733 0.0 0.10834205 2.1776397 0.0 0.0 0.0 0.0 0.0 0.0 
0.0 0.3065549 0.0 0.0 1.0936705 0.0 0.0 0.0 0.0 2.3778956 0.0 0.0 0.0 0.0 0.0 1.4007279 
0.0 0.0 0.0 0.0 0.0 0.0 0.0 0.0 0.0 1.4351276 0.0 0.0 0.0 0.0 0.0 1.6847609 
0.0 0.0 0.0 0.0 0.0 0.0 2.3508778 0.1699108 0.0 0.7407027 0.0 0.0 0.0 0.0 0.0 0.0 
0.0 0.0 0.0 0.8340169 0.0 0.0 1.9630094 0.67749596 0.0 0.16411373 0.0 0.0 0.0 0.0 0.0 0.0 
0.0 0.0 0.0 1.179124 0.0 0.0 0.0 0.0 3.4005764 0.0 0.0 0.0 0.0 0.0 0.0 0.0 
0.0 0.0 0.0 0.63062596 0.0 0.4500538 0.0 0.0 1.5182934 0.0 0.2425467 0.0 0.0 0.0 0.0 0.8263212 
0.0 0.0 0.0 0.69555277 0.2661162 0.135344 0.0 0.0 0.0 0.0 0.44730312 0.0 0.0 0.0 0.44999003 2.15496 
0.0 0.09843392 0.0 0.6320926 0.2574769 0.0 0.0 0.0 0.0 0.0 0.0023651384 0.0 0.0 0.0 0.06283262 0.97976786 
0.06280139 0.0 0.0 0.0 0.0 0.0 0.07727561 0.0 0.0 0.21161975 0.12626357 0.0 0.0 0.0 0.0 0.0 
0.0 0.0 0.0 0.0 0.49916202 0.043692753 0.0 0.0 0.0 0.31489646 0.6119528 0.0 0.0 0.0 0.0 0.033052836 
0.0 0.0 0.0 0.0 0.25589487 1.651267 0.0 0.0 0.0 0.107886285 0.5116806 0.0 0.0 0.0 0.0 0.082109116 
0.0 0.0 0.38020447 0.0 0.0 0.0 0.14080518 1.4226391 0.0 0.0 0.3420634 0.0 0.0 0.0 0.0 0.0 
0.0 0.0 0.0 0.0 0.0 0.0 3.38508 2.50111 0.0 0.0 0.41272628 0.0 0.0 0.0 0.0 0.0 
0.0 0.0 0.0 0.0 0.0 0.0 0.29537696 0.24513207 2.6316466 0.0 0.0 0.0 0.0 0.0 0.0 0.0 
0.0 0.0 0.0 0.0 0.0 0.0 0.0 0.0 2.9034247 0.0 0.0 0.0 0.0 0.0 0.0 0.0 
0.0 0.0 0.0 0.0 0.0 0.6735914 0.0 0.0 0.0 0.0 0.0 0.0 0.0 0.0 0.0 0.85899305 
0.0 0.0 0.0 0.0 0.23946571 0.20211193 0.0 0.0 0.0 0.0 0.0 0.0 0.0 0.0 0.0 0.9614885 
0.0 0.09779026 0.0 0.0 0.07133215 0.0 0.0 0.0 0.0 0.0 0.0 0.0 0.0 0.0 0.0 0.27963144 

