0.0 0.0 0.0 0.0 0.029088005 0.0 0.11154069 0.0 0.0 0.0 0.0 0.0 0.0 0.0 0.0 0.0 
0.007978443 0.48741207 0.19851533 0.06714305 0.15466681 0.0 0.0 0.0 0.0 0.0 0.0 0.0 0.0 0.0 0.0 0.0 
0.25972685 1.3737577 0.70374924 0.077874854 0.0 0.0 0.0 0.0 0.19600928 0.0 0.0 0.0 0.0 0.0 0.0 0.7638957 
0.9276057 2.3224776 0.0 0.0018837936 0.0 0.0 0.0 0.0 0.0 0.031629596 0.0 0.041560277 0.0 0.0 0.0 1.1210966 
2.0882192 2.3826692 0.0 0.0 0.61782604 0.0 0.0 0.0 0.0 0.2155599 0.0 0.39631444 0.0 0.0 0.0 0.63087344 
2.709748 0.8159926 0.0 0.0 0.0 0.0 0.0 0.43628472 0.0 0.39299077 0.0 0.0 0.0 0.56209016 0.0 0.04128067 
2.575177 0.0 0.0 0.0 0.0 0.0 0.0 0.3668577 0.0 0.37807995 0.0 0.0 0.0 0.35557926 0.0 0.0 
2.80058 0.0 0.0 0.0 0.0 0.0 0.0 0.053554535 0.0 0.37912363 0.0 0.0 0.0 0.0 0.0 0.0 
2.3918085 0.0 0.0 0.0 0.0 0.0 0.0 0.0 0.0 0.6272664 0.0 0.029067226 0.082810536 0.0 0.0 0.0 
1.5909616 0.0 0.0 0.0 0.0 0.0 0.0 0.0 0.0 0.8060954 0.0 1.4258515 0.3148036 0.0 0.0 0.0 
0.14277013 0.27304494 0.1435617 0.0 0.40570384 0.004433349 0.0 0.0 0.0 0.0 0.0 0.0 0.0 0.0 0.0 0.0 
0.802011 0.80205834 0.77897364 0.0 0.0 0.0 0.0 0.0 0.0246577 0.10191341 0.0 0.0 0.0 0.0 0.0 1.0784556 
1.3981402 1.2905513 1.1369216 0.0 0.0 0.0 0.0 0.0 0.0 0.79821604 0.0 0.0 0.0 0.0 0.07863338 2.3134313 
1.9950051 0.49119723 0.0 0.0 0.0 0.0 0.43722183 0.0 0.0 1.2088262 0.0 0.0 0.0 0.0 0.0 1.6121835 
1.9504402 0.0 0.0 0.0 0.0 0.0 0.0 0.14570531 0.0 0.7460844 0.0 0.0 0.2942866 0.50258905 0.0 0.0 
1.7470039 0.0 0.0 0.0 0.0 0.0 0.0 0.030930214 0.0 0.025623027 0.0 0.0 0.8663801 2.3263054 0.0 0.0 
2.3746083 0.0 0.0 0.0 0.0 0.0 0.0 0.0 0.0 0.0 0.0 0.0 0.6086195 4.338293 0.0 0.0 
2.3340201 0.0 0.0 0.0 0.0 0.0 0.0 0.0 0.0 0.0 0.0 0.0 0.23779337 4.1513467 0.0 0.0 
2.0410693 0.0 0.62983024 0.0 0.0 0.0 0.0 0.0 0.0 0.0 0.0 0.0 0.8523229 1.4098717 0.0 0.0 
1.3557377 0.0 0.0 0.0 0.0 0.0 0.0 0.0 0.0 0.0 0.0 1.5940677 1.6251954 0.0 0.0 0.0 
0.572761 0.62800235 0.7546638 0.0 0.22991836 0.0 0.0 0.0 0.004860066 0.2656837 0.0 0.0 0.0 0.0 0.052251413 1.0354729 
0.5618804 0.7685143 1.5601913 0.0 0.0 0.0 0.0 0.0 0.0 1.179882 0.0 0.0 0.0 0.0 0.8194993 2.8361206 
0.41533995 0.0 0.38045865 0.0 0.0 0.0 0.29896474 0.0 0.0 1.0010352 0.0 0.0 0.6415163 0.0 0.66502476 1.8700508 
0.64255327 0.0 0.0 0.0 0.0 0.0 1.3822762 1.014671 0.0 0.0 0.0 0.0 1.3735853 0.22316238 0.0 0.0 
0.0 0.0 0.0 0.0 0.0 0.0 0.0 1.0761566 0.0 0.0 0.0 0.0 1.7697883 0.2596168 0.0 0.0 
0.0 0.0 0.0 0.0 0.0 0.0 0.0 0.0 0.0 0.0 0.8002131 0.0 2.2234986 0.57174987 0.26961982 0.0 
0.0 0.0 0.0 0.0 0.0 0.0 0.0 0.0 0.0 0.0 1.9960136 0.0 1.906155 1.7876858 1.8114142 0.0 
0.0 0.0 0.0 0.0 0.0 0.0 0.0 0.0 0.0 0.0 1.0188142 0.0 0.85080963 3.2203648 3.018332 0.0 
0.0 0.0 0.0 0.0 0.0 0.0 0.0 0.0 0.0 0.0 0.20569837 0.0 0.9151653 2.3715725 1.0635389 0.0 
0.0 0.0 0.0 0.0 0.0 0.0 0.0 0.0 0.0 0.0 0.5261124 0.13054633 1.1360035 0.29495808 0.0 0.0 
0.14812858 0.50717777 1.5663288 0.0 0.43663388 0.0 0.0 0.0 0.0 1.0815555 0.0 0.0 0.0 0.0 0.68242496 2.5774298 
0.0 0.0 1.0273638 0.0 0.0 0.0 0.0 0.0 0.0 0.61711055 0.0 0.0 0.6107012 0.0 0.6465455 2.1690135 
0.0 0.0 0.0 0.0 0.0 0.0 1.5929793 0.80205536 0.0 0.0 0.0 0.0 1.8176663 0.0 0.33306175 0.0 
0.0 0.0 0.0 0.0 0.0 0.0 0.31970724 2.2052295 0.0 0.0 0.0 0.0 1.3535733 0.0 0.0 0.0 
0.0 0.0 0.0 0.0 0.0 0.0 0.0 0.72922456 1.8443959 0.0 0.25666437 0.0 0.71427494 0.0 0.0 0.0 
0.0 0.0 0.0 1.5230533 0.0 0.0 0.0 0.0 0.82854414 0.0 1.0053046 0.0 0.0 0.0 0.0 0.0 
0.0 1.6646531 0.0 1.6567316 0.0 0.0 0.0 0.0 0.0 0.0 0.65191644 0.0 0.0 0.0 0.8264495 0.0 
0.0 1.406496 0.0 1.8038422 0.0 1.2722154 0.0 0.0 0.0 0.0 0.0 0.0 0.0 0.0 4.230788 0.0 
0.0 0.0 0.037713397 2.2235289 0.0 0.0 0.0 0.0 0.0 0.0 0.0 0.0 0.0 0.0 4.5606356 0.0 
0.0 0.0 0.0 1.6700109 0.0 0.0 0.4578438 0.0 0.0 0.0 0.0 0.0 0.0 0.0 1.1064755 0.0 
0.0 0.0 1.7909857 0.0 0.0 0.0 0.0 0.0 0.0 0.5073138 0.0 0.0 0.10398945 0.0 0.34156573 2.7848077 
0.0 0.0 0.0 0.0 0.0 0.0 1.418838 0.6745068 0.0 0.0 0.0 0.0 1.1386914 0.0 0.0 0.0 
0.0 0.0 0.0 0.0 0.0 0.0 2.1161575 2.8843894 0.0 0.0 0.0 0.06140712 0.5066223 0.0 0.0 0.0 
0.0 0.0 0.0 0.7177006 0.0 0.0 0.0 1.1718128 3.3332927 0.0 0.0 0.0 0.0 0.0 0.0 0.0 
0.0 0.0 0.0 1.9936697 0.0 0.0 0.0 0.0 3.130095 0.0 0.09974502 0.0 0.0 0.0 0.0 0.0 
0.0 0.00073324726 0.0 1.7477828 0.0 0.0 0.0 0.0 0.0 0.53420424 0.0 0.0 0.0 0.0 0.0 0.0 
0.0 1.4415141 0.0 0.5630317 0.76095325 0.0 0.0 0.0 0.0 1.842973 0.0 0.0 0.0 0.0 0.0 0.0066271527 
0.0 1.5624057 0.037974764 0.0 0.0 0.85725117 0.0 0.0 0.0 2.3976483 0.0 0.0 0.0 0.0 0.39881086 0.026700262 
0.0 0.0 1.6500257 0.0 0.0 0.0 0.21996297 0.0 0.0 1.7386848 0.0 0.0 0.0 0.0 2.3744493 0.0 
0.0 0.0 0.0 0.0 0.0 0.0 2.5050592 0.0 0.0 0.17783937 0.0 0.0 0.0 0.0 0.84003234 0.0 
0.0 0.020423075 0.9245621 0.0 0.0 0.0 0.0 0.5835433 0.0 0.0 0.0 0.0 0.17701788 0.0 0.0 0.0 
0.0 0.0 0.0 0.0 0.0 0.0 3.1524906 2.4426363 0.0 0.0 0.0 0.58479655 0.030435957 0.0 0.0 0.0 
0.0 0.0 0.0 0.87826824 0.0 0.0 0.6935639 1.2313027 1.8341305 0.0 0.0 0.63457155 0.0 0.0 0.0 0.0 
0.0 0.0 0.0 1.5182809 0.0 0.0 0.0 0.0 3.531942 0.0 0.0 0.0 0.0 0.0 0.0 0.0 
0.0 0.35190275 0.0 0.577201 0.0 0.0 0.0 0.0 0.0 0.0 0.0 0.0 0.0 0.0 0.0 1.301591 
0.19756816 2.186027 0.0 0.0 0.91242194 0.0 0.0 0.0 0.0 0.110210806 0.0 0.0 0.0 0.0 0.0 1.7535875 
1.0769098 2.050133 0.0 0.0 1.9541365 0.0 0.0 0.0 0.0 1.335323 0.0 0.0 0.0 0.0 0.0 1.4856113 
0.37367725 0.03773907 0.0 0.0 0.53050965 0.08552334 0.0 0.0 0.0 1.8256793 0.0 0.0 0.0 0.0 0.0 0.0 
0.0 0.0 1.0099905 0.0 0.0 0.0 1.2086164 0.8591674 0.0 0.64534044 0.0 0.0 0.0 0.0 0.2848634 0.0 
0.0 0.0 0.0 0.0 0.0 0.0 2.386129 0.426534 0.0 0.0 0.0 0.0 0.27788782 0.0 0.0 0.0 
0.0 0.0 0.039366793 0.0 0.0 0.0 0.8212692 2.541242 0.0 0.0 0.0 0.0 0.0 0.0 0.0 0.0 
0.64234316 0.0 0.0 0.0 0.0 0.0 1.8499929 2.5012581 0.0 0.0 0.0 0.0 0.0 0.0 0.0 0.0 
1.8823187 0.0 0.0 0.0 0.0 0.0 0.0 0.0 1.0190846 0.0 0.0 0.0 0.0 0.0 0.0 0.0 
2.2001708 0.0 0.0 0.0 0.0 0.0 0.0 0.0 0.0 0.0 0.0 0.0 0.0 0.0 0.0 0.13274626 
1.8727068 0.0 0.0 0.0 0.0 0.0 0.0 0.0 0.0 0.44235036 0.0 0.0 0.0 0.0 0.0 0.13285922 
1.8938392 0.0 0.0 0.0 0.0 0.0 0.0 0.0 0.0 1.568227 0.0 0.0 0.0 0.0 0.0 0.0 
1.2491263 0.0 0.0 0.0 0.0 0.0 0.0 0.0 0.0 1.5753707 0.0 0.0 0.0 0.0 0.0 0.0 
0.20079727 0.0 0.0 0.0 0.0 0.0 0.0 0.44756126 0.0 0.19328576 0.0 0.0 0.83577675 0.0697143 0.0 0.0 
0.0 0.0 0.880686 0.0 0.0 0.0 0.24600922 1.4927938 0.0 0.0 0.0 0.0 1.2742224 0.54267323 0.0 0.0 
0.0 0.0 0.0 0.0 0.0 0.0 0.28750587 0.0 1.8423711 0.0 0.0 0.0 1.1734377 0.27340978 0.005208239 0.0 
0.1980998 0.0 0.13249254 0.0 0.0 0.0 1.9603907 2.5074985 0.0 0.0 2.1116228 0.0 0.0 3.103781 0.0 0.0 
1.0357485 0.0 0.0 0.0 0.0 0.0 0.780995 0.34378505 0.0 0.0 1.127197 0.0 0.0 2.803888 0.0 0.0 
1.5376216 0.0 0.0 0.0 0.0 0.0 0.0 0.0 0.0 0.0 0.0 0.0 0.0 2.0563555 0.0 0.0 
1.290761 0.0 0.0 0.0 0.0 0.0 0.0 0.0 0.0 0.0 0.0 0.0 1.2581183 2.0486789 0.0 0.0 
0.69765884 0.0 0.0 0.0 0.0 0.0 0.0 0.0 0.0 0.0 0.0 0.0 2.0194056 2.3481352 0.0 0.0 
0.15264404 0.0 0.0 0.0 0.0 0.0 0.0 0.0 0.0 0.0 0.18681838 0.0 2.6087976 1.8800968 0.0 0.0 
0.0 0.0 0.0 0.0 0.0 0.0 0.0 0.0 0.0 0.0 1.5787771 0.0 2.32344 1.0341579 0.0 0.0 
0.0 0.0 0.0 0.0 0.0 0.0 0.0 0.5866876 0.0 0.0 1.5413593 0.0 1.6977572 0.52109766 0.0 0.0 
0.0 0.0 0.0 1.443275 0.0 0.0 0.0 0.549207 0.8264146 0.0 1.3355095 0.0 0.8565874 0.634838 0.0 0.0 
0.0 0.0 0.0 2.16187 0.0 0.0 0.0 0.0 3.1658978 0.0 1.7341857 0.0 0.14899677 0.3659221 0.20885111 0.0 
0.0 0.0 0.0 0.0 0.0 0.0 1.6842339 0.74325544 0.0 0.0 2.7132194 0.0 0.34033078 2.470616 1.5321405 0.0 
0.0 0.0 0.0 0.0 0.0 0.0 0.0 0.0 0.0 0.0 4.124052 0.0 0.85006964 3.0684612 1.2971736 0.0 
0.0 0.0 0.0 0.0 0.0 0.0 0.0 0.0 0.0 0.0 3.9888334 0.0 1.4533913 3.4117432 0.3598861 0.0 
0.0 0.0 0.0 0.0 0.0 0.0 0.0 0.0 0.0 0.0 3.5664048 0.0 3.0808184 2.208674 0.0 0.0 
0.0 0.0 0.0 0.0 0.0 0.0 0.0 0.0 0.0 0.0 2.9981632 0.0 3.169635 1.3222251 0.19367619 0.0 
0.0 0.0 0.0 0.0 0.0 0.0 0.0 0.0 0.0 0.0 2.9380949 0.0 1.9233544 0.3277594 0.07835147 0.0 
0.0 1.2350377 0.0 3.1223269 0.0 0.0 0.0 0.047884233 0.0 0.0 3.1617553 0.0 0.6452957 0.0 0.0 0.0 
0.0 2.095502 0.0 5.220575 0.0 0.0 0.0 0.0 0.31407997 0.0 2.3168511 0.0 0.0 0.0 0.0 0.0 
0.0 1.2858748 0.0 4.573446 0.0 0.0 0.0 0.0 0.86955804 0.0 1.1858723 0.0 0.0 0.0 0.0 0.0 
0.0 0.0 0.0 2.7130203 0.11110612 0.0 0.0 0.0 0.14043052 0.0 0.68232876 0.0 0.0 0.0 0.0913945 2.2167237 
0.0 1.9226419 0.0 1.6063215 0.0 0.0 0.0 0.0 0.0 0.0 0.4694072 0.0 0.0 0.0 1.3122494 0.0 
0.0 1.4881111 0.0 2.6879957 0.0 0.0 0.0 0.0 0.0 0.0 1.6282281 0.0 0.0 0.0 2.8738613 0.0 
0.0 2.153265 0.0 3.5302873 0.0 0.0 0.0 0.0 0.0 0.0 2.187846 0.0 0.0 0.0 2.6156857 0.0 
0.0 2.9138834 0.0 5.195296 0.0 0.0 0.0 0.0 0.0 0.0 2.3710992 0.0 0.0 0.0 1.3687036 0.0 
0.0 2.990945 0.0 5.9665823 0.0 0.0 0.0 0.0 0.0 0.0 2.0600107 0.0 0.0 0.0 0.4303311 0.0 
0.0 2.5302706 0.0 5.9351315 0.0 0.0 0.0 0.0 0.0 0.88517 1.4094194 0.0 0.0 0.0 0.0 0.0 
0.0 1.3907963 0.0 5.4333725 0.0 0.0 0.0 0.0 0.0 2.0654757 0.8877737 0.0 0.0 0.0 0.0 0.0 
0.0 0.3261792 0.0 3.7985668 0.39692137 0.0 0.0 0.0 0.0 2.1148438 0.108106464 0.0 0.0 0.0 0.0 1.2675794 
0.0 0.0 0.0 2.0258112 0.54911023 0.04780847 0.0 0.0 0.0 1.1810389 0.0 0.0 0.0 0.0 0.0 1.5754385 
0.0 0.0 0.0 0.7092627 0.47766453 0.35005802 0.0 0.0 0.0 0.33584693 0.0 0.0 0.0 0.0 0.118137375 1.283847 

