0.0 0.0 0.0 0.0 0.0 0.0 0.0 0.0 0.0 0.0 0.0 0.0 0.0 0.0 0.0 0.0 
0.0 0.0 0.0 0.0 0.0 0.0 0.0 0.0 0.0 0.0 0.0 0.0 0.0 0.0 0.0 0.0 
0.0 0.0 0.0 0.013188157 0.0 0.0 0.0 0.0 0.0 0.0 0.0 0.0 0.0 0.0 0.0 0.0 
0.0 0.0 0.0 0.0 0.0 0.0 0.108966134 0.0 0.0 0.0 0.0 0.0 0.0 0.0 0.0 0.0 
0.0008767359 0.0 0.0 0.0 0.39361626 0.005013004 0.07926236 0.0 0.0 0.0 0.0 0.0 0.0 0.0 0.0 0.0 
0.0 0.0 0.32620525 0.0 0.6270615 0.9780418 0.0 0.0 0.0 0.00025351718 0.0 0.0 0.0 0.16486397 0.2454559 0.40553707 
0.16378827 0.0 2.9611907 0.0 0.0 0.0040309057 0.0 0.0 0.0 0.1828129 0.0 0.0 0.0 0.318506 1.2419978 1.7082769 
1.118356 0.0 1.3888216 0.0 0.0 0.0 2.0990434 0.0 0.0 0.0 0.0 0.0 0.3503521 0.0 0.09667058 0.0 
0.99665016 0.0 0.0 0.0 0.0 0.0 2.2775915 0.005360298 0.0 0.0 0.0 1.412413 0.37251407 0.0 0.0 0.0 
0.93284523 0.0 0.0 0.0 0.0 0.0 0.0 0.0 0.7530812 0.0 0.0 2.370137 0.86241394 0.0 0.0 0.0 
0.0 0.0 0.0 0.0 0.0 0.0 0.0 0.0 0.0 0.0 0.0 0.0 0.0 0.0 0.0 0.0 
0.0 0.0 0.0 0.01689481 0.0 0.0 0.0 0.0 0.0 0.0 0.0 0.0 0.0 0.0 0.0 0.0 
0.0 0.0 0.0 0.0 0.0 0.0 0.09503205 0.0 0.0 0.0 0.0 0.0 0.0 0.0 0.0 0.0 
0.0 0.045532882 0.0 0.0 0.22043741 0.0 0.107933424 0.0 0.0 0.0 0.0 0.0 0.0 0.0 0.0 0.0 
0.109162256 0.35869673 0.0 0.0 0.6087718 0.0 0.0 0.0 0.0 0.0 0.0 0.0 0.0 0.0 0.0 0.15730757 
0.0 0.66458 0.96721375 0.0 0.7507969 0.15566736 0.0 0.0 0.0020188205 0.52102566 0.0 0.0 0.0 0.0 0.8758535 1.5724199 
0.0 0.004941633 3.2507694 0.0 0.0 0.15897906 0.0 0.0 0.0 0.0 0.0 0.0 0.008933723 0.0 2.1857216 0.7911745 
0.41806933 0.0 0.0 0.0 0.0 0.0 3.6895444 0.8471814 0.0 0.0 0.0 0.0 0.59861785 0.0 1.2266872 0.0 
0.37050983 0.0 0.0 0.0 0.0 0.0 1.2908075 0.7439699 0.0 0.0 0.0 0.0 0.26802504 0.0 0.0 0.0 
0.22749536 0.0 0.0 0.0 0.0 0.0 0.0 0.0 2.5929158 0.0 0.0 1.4259886 0.24117602 0.0 0.0 0.0 
0.0 0.0 0.0 0.023433978 0.0 0.0 0.0 0.0 0.0 0.0 0.0 0.0 0.0 0.0 0.0 0.0 
0.0 0.0 0.0 0.00459582 0.0 0.0 0.06979465 0.0 0.0 0.0 0.0 0.0 0.0 0.0 0.0 0.0 
0.0 0.05689162 0.0 0.0 0.17646495 0.0 0.14140819 0.0 0.0 0.0 0.0 0.0 0.0 0.0 0.0 0.0 
0.33336076 0.4272292 0.36616468 0.0 0.42252952 0.0 0.0 0.0 0.0 0.0 0.0 0.0 0.0 0.0 0.0 0.073539205 
0.2906613 0.93536097 0.30574432 0.0 0.8693925 0.0 0.0 0.0 0.12066269 0.6980791 0.0 0.0 0.0 0.0 0.106150344 1.7449915 
0.0 0.8141014 0.58588505 0.0 0.66459954 0.0 0.0 0.0 0.0 1.0457696 0.0 0.0 0.0 0.0 0.17195605 2.7035236 
0.0 0.0 1.2047548 0.0 0.0 0.0 0.698588 0.0 0.0 0.22846457 0.0 0.0 0.45805758 0.0 0.43375492 0.0 
0.0 0.0 0.0 0.0 0.0 0.0 3.679503 2.4377735 0.0 0.0 0.0 0.0 0.6739764 0.0 0.48731333 0.0 
0.0 0.0 0.0 0.0 0.0 0.0 0.0 0.0 2.9728177 0.0 0.0 0.0 0.37705737 0.0 0.0 0.0 
0.0 0.0 0.0 0.0 0.0 0.0 0.0 0.0 3.1167269 0.0 0.01705751 0.0 0.0 0.0 0.0 0.0 
0.0 0.0 0.0 0.0 0.0 0.0 0.09016311 0.0 0.0 0.0 0.0 0.0 0.0 0.0 0.0 0.0 
0.0 0.027464075 0.0 0.0 0.15238419 0.0 0.1277208 0.0 0.0 0.0 0.0 0.0 0.0 0.0 0.0 0.0 
0.35509604 0.4303395 0.38176033 0.0 0.32346705 0.0 0.0 0.0 0.0 0.0 0.0 0.0 0.0 0.0 0.0 0.04696098 
0.4951729 0.94670975 0.8526028 0.0 0.5454696 0.0 0.0 0.0 0.0 0.74634105 0.0 0.0 0.0 0.0 0.1630515 1.6026877 
0.21257158 0.65482986 0.5844753 0.0 0.7578376 0.0 0.0 0.0 0.0 1.3722202 0.0 0.0 0.0 0.0 0.49353224 3.3361356 
0.0 0.0 0.0 0.0 0.2923614 0.0 0.0 0.04324694 0.0 0.45140862 0.0 0.0 0.15422593 0.0 0.0 0.29906115 
0.0 0.0 0.0 0.0 0.0 0.0 1.6755493 2.820294 0.0 0.0 0.0 0.0 0.47500855 0.0 0.0 0.0 
0.0 0.0 0.0 0.0 0.0 0.0 1.5436347 2.5226774 1.2196244 0.0 0.0 0.0 0.6512197 0.0 0.0 0.0 
0.0 0.0 0.0 0.0 0.0 0.0 0.0 0.0 4.682616 0.0 0.28727373 0.0 0.0 0.0 0.0 0.0 
0.0 0.0 0.0 0.0 0.0 0.0 0.0 0.0 1.7514725 0.0 0.6106331 0.0 0.0 0.07424482 0.0 1.4462266 
0.0 0.0 0.0 0.0 0.14191824 0.0 0.18011068 0.0 0.0 0.0 0.0 0.0 0.0 0.0 0.0 0.0 
0.35732195 0.32576096 0.31857622 0.0 0.43444228 0.026117355 0.0 0.0 0.0 0.0 0.0 0.0 0.0 0.0 0.0 0.0 
0.59137976 0.8788782 0.86819446 0.0 0.3966081 0.0 0.0 0.0 0.0 0.7176644 0.0 0.0 0.0 0.0 0.19953461 1.5700963 
0.15082128 0.6129273 1.2043666 0.0 0.48034382 0.0 0.0 0.0 0.0 1.4231907 0.0 0.0 0.0 0.0 0.70821905 3.3882546 
0.0 0.0 0.0 0.0 0.2673115 0.0 0.0 0.0 0.0 0.5289746 0.0 0.0 0.5332776 0.0 0.0 0.8505027 
0.0 0.0 0.0 0.0 0.0 0.0 1.1891462 3.0836325 0.0 0.0 0.0 0.0 0.62921125 0.0 0.0 0.0 
0.0 0.0 0.0 0.0 0.0 0.0 0.64188635 3.5412452 0.0 0.0 0.0 0.0 0.119309336 0.0 0.0 0.0 
0.0 0.0 0.0 0.14581113 0.0 0.0 0.0 0.20956247 4.2738695 0.0 0.0 0.0 0.0022463724 0.0 0.0 0.0 
0.0 0.0 0.0 0.19156277 0.0 0.0 0.0 0.0 2.8209658 0.0 0.48334315 0.0 0.0 0.0 0.0 1.0133727 
0.0 0.0 0.0 0.16071795 0.0 0.32250398 0.0 0.0 0.0 0.0 0.61261934 0.0 0.0 0.0 0.0 1.7481898 
0.26906 0.17956167 0.0 0.0 0.54023623 0.025902547 0.0 0.0 0.0 0.0 0.0 0.0 0.0 0.0 0.0 0.0 
0.5652774 0.6087895 0.8282144 0.0 0.2988796 0.0 0.0 0.0 0.0 0.5076429 0.0 0.0 0.0 0.0 0.2532735 1.2977283 
0.08234155 0.24948506 1.2582468 0.0 0.24889016 0.0 0.0 0.0 0.0 1.4035509 0.0 0.0 0.0 0.0 0.7596852 3.1169033 
0.0 0.0 0.0 0.0 0.06378992 0.0 0.0 0.0 0.0 0.5813958 0.0 0.0 0.8044916 0.0 0.0 0.987976 
0.0 0.0 0.0 0.0 0.0 0.0 1.1332166 2.8239393 0.0 0.0 0.0 0.0 0.9212259 0.0 0.0 0.0 
0.0 0.0 0.0 0.0 0.0 0.0 0.7666401 3.7404437 0.0 0.0 0.0 0.0 0.19685791 0.0 0.0 0.0 
0.0 0.0 0.0 0.5660932 0.0 0.0 0.0 0.84551865 4.028886 0.0 0.28393054 0.0 0.0 0.0 0.0 0.0 
0.0 0.0 0.0 0.8484545 0.0 0.0 0.0 0.0 3.105943 0.0 0.45869863 0.0 0.0 0.0 0.0 0.6084722 
0.0 0.0 0.0 0.35171336 0.0 0.27336887 0.0 0.0 0.0 0.0 0.5680112 0.0 0.0 0.0 0.0 1.8473283 
0.0 0.0 0.0 0.09674154 0.24593851 0.15127459 0.0 0.0 0.0 0.0 0.021318192 0.0 0.0 0.0 0.0 1.0408875 
0.47156748 0.13048 0.0 0.0 0.7127087 0.13537204 0.0 0.0 0.0 0.099420965 0.0 0.0 0.0 0.0 0.0 0.31055158 
0.0 0.0 1.3448534 0.0 0.26295143 0.0 0.0 0.0 0.0 1.1075597 0.0 0.0 0.0 0.0 0.7262399 2.6531827 
0.0 0.0 0.2795584 0.0 0.0 0.0 0.0 0.0 0.0 0.46812904 0.0 0.0 0.49209088 0.0 0.123863116 1.4509655 
0.0 0.0 0.0 0.0 0.0 0.0 1.6143811 2.1931248 0.0 0.0 0.0 0.0 0.973965 0.0 0.0 0.0 
0.0 0.0 0.0 0.0 0.0 0.0 0.9671302 3.7273045 0.0 0.0 0.0 0.0 0.21969472 0.0 0.0 0.0 
0.0 0.0 0.0 1.0376852 0.0 0.0 0.0 1.1841828 3.7596812 0.0 0.40407866 0.0 0.0 0.0 0.0 0.0 
0.0 0.0 0.0 1.1588311 0.0 0.0 0.0 0.0 3.2041285 0.0 0.5101778 0.0 0.0 0.0 0.0 0.35434398 
0.0 0.0 0.0 0.57591724 0.0 0.2670192 0.0 0.0 0.0 0.0 0.54715663 0.0 0.0 0.0 0.0 1.9801856 
0.0 0.0 0.0 0.2569224 0.3519517 0.2535466 0.0 0.0 0.0 0.0 0.11831352 0.0 0.0 0.0 0.0 1.1913562 
0.0 0.104174264 0.0 0.067179404 0.065022625 0.0 0.0 0.0 0.0 0.0 0.0 0.0 0.0 0.0 0.0 0.2963571 
0.0 0.2865359 0.0 0.0 0.783413 0.0 0.0 0.0 0.0 0.50134975 0.0 0.0 0.0 0.0 0.3743478 1.1902058 
0.0 0.0 0.48214817 0.0 0.0 0.0 0.0 0.0 0.0 0.3342142 0.0 0.0 0.06954725 0.0 0.0051964074 1.7595354 
0.0 0.0 0.0 0.0 0.0 0.0 1.0563185 1.9808137 0.0 0.0 0.0 0.0 0.48172396 0.0 0.0 0.0 
0.0 0.0 0.0 0.0 0.0 0.0 1.8325884 3.6203184 0.0 0.0 0.0 0.0 0.0 0.0 0.0 0.0 
0.0 0.0 0.0 0.8936914 0.0 0.0 0.0 1.6557113 3.589721 0.0 0.0 0.0 0.0 0.0 0.0 0.0 
0.0 0.0 0.0 1.1906929 0.0 0.0 0.0 0.0 3.3616748 0.0 0.3253563 0.0 0.0 0.0 0.0 0.0 
0.0 0.0 0.0 0.62488586 0.0 0.2127198 0.0 0.0 0.0 0.0 0.44082344 0.0 0.0 0.0 0.0 1.8416399 
0.0 0.0 0.0 0.19794914 0.31583944 0.3061679 0.0 0.0 0.0 0.0 0.12690905 0.0 0.0 0.0 0.0 1.3322455 
0.0 0.1043515 0.0 0.057454925 0.1081708 0.0 0.0 0.0 0.0 0.0 0.0 0.0 0.0 0.0 0.0 0.3772408 
0.0 0.017964344 0.0 0.06256967 0.0 0.0 0.0 0.0 0.0 0.0 0.0 0.0 0.0 0.0 0.0 0.0 
0.0 0.0 0.0 0.0 0.11525505 0.6853312 0.0 0.0 0.0 0.22287238 0.40731233 0.0 0.0 0.0 0.11006181 0.6788547 
0.0 0.0 0.0 0.0 0.0 0.0 0.0 1.3186871 0.0 0.0 0.5241557 0.0 0.046145357 0.0 0.0 0.0 
0.0 0.0 0.0 0.0 0.0 0.0 2.3904722 2.9803202 0.0 0.0 0.33268178 0.0 0.0 0.0 0.0 0.0 
0.0 0.0 0.0 0.3969464 0.0 0.0 0.76269495 1.4743285 2.217047 0.0 0.0 0.0 0.0 0.0 0.0 0.0 
0.0 0.0 0.0 0.7034737 0.0 0.0 0.0 0.0 3.7755096 0.0 0.0 0.0 0.0 0.0 0.0 0.0 
0.0 0.0 0.0 0.26093456 0.0 0.24080664 0.0 0.0 0.24698022 0.0 0.23528135 0.0 0.0 0.0 0.0 1.5783048 
0.0 0.0 0.0 0.19779262 0.23707685 0.3311586 0.0 0.0 0.0 0.0 0.14645374 0.0 0.0 0.0 0.0 1.288936 
0.0 0.109032504 0.0 0.052202385 0.12557966 0.0 0.0 0.0 0.0 0.0 0.0 0.0 0.0 0.0 0.0 0.41978154 
0.0 0.0154971 0.0 0.028248042 0.0 0.0 0.0 0.0 0.0 0.0 0.0 0.0 0.0 0.0 0.0 0.0 
0.0 0.0 0.0 8.5856766e-05 0.0 0.0 0.0 0.0 0.0 0.0 0.0 0.0 0.0 0.0 0.0 0.0 
0.0 0.0 0.0 0.0 0.0 1.4455304 0.0 0.340895 0.0 0.0 1.745778 0.0 0.0 0.0 0.0 0.0 
0.0 0.0 0.0 0.19987553 0.0 0.63015264 1.0706718 1.8489531 0.0 0.0 1.7633666 0.0 0.0 0.6057187 0.0 0.0 
0.0 0.0 0.0 2.0606246 0.0 0.0 2.3282635 1.4400514 0.24755087 0.0 1.8115153 0.0 0.0 0.64237726 0.0 0.0 
0.0 0.0 0.0 1.3776666 0.0 0.0 0.0 0.0 3.734657 0.0 1.089204 0.0 0.0 0.052079782 0.0 0.0 
0.0 0.0 0.0 0.18584934 0.0 0.0 0.0 0.0 1.3009559 0.0 0.48852912 0.0 0.0 0.0 0.0 1.8552519 
0.0 0.0 0.0 0.030105017 0.0 0.28743523 0.0 0.0 0.0 0.0 0.23852634 0.0 0.0 0.0 0.0 1.2519163 
0.0 0.11109213 0.0 0.056419726 0.15870297 0.0 0.0 0.0 0.0 0.0 0.0 0.0 0.0 0.0 0.0 0.47093034 
0.0 0.02562229 0.0 0.05570897 0.0 0.0 0.0 0.0 0.0 0.0 0.0 0.0 0.0 0.0 0.0 0.0 
0.0 0.0 0.0 0.0 0.0 0.0 0.0 0.0 0.0 0.0 0.0 0.0 0.0 0.0 0.0 0.0 
0.0 0.0 0.0 0.0 0.0 0.0 0.0 0.0 0.0 0.0 0.0 0.0 0.0 0.0 0.0 0.0 

