0.0 0.0 0.0 0.013199236 0.0 0.0 0.0 0.0 0.0 0.0 0.0 0.0 0.0 0.0 0.0 0.0 
0.0 0.0 0.0 0.0 0.0 0.0 0.070249125 0.0 0.0 0.0 0.0 0.0 0.0 0.0 0.0 0.0 
0.0 0.101765595 0.0 0.03678846 0.08459262 0.0 0.0 0.0 0.0 0.0 0.0 0.0 0.0 0.0 0.0 0.0 
0.042839754 0.696931 0.18530318 0.0 0.0 0.0 0.0 0.0 0.034912635 0.0 0.0 0.0 0.0 0.0 0.0 0.1824599 
0.33281052 1.658595 0.014391396 0.089262664 0.0 0.0 0.0 0.0 0.0 0.0 0.0 0.0 0.0 0.0 0.0 0.39234328 
0.77108055 2.880821 0.0 0.22205572 0.0 0.0 0.0 0.0 0.0 0.0 0.0 0.37104112 0.0 0.0 0.0 0.5653453 
0.9637957 2.9669373 0.0 0.0 0.19211903 0.0 0.0 0.0 0.0 0.0 0.0 0.4876155 0.0 0.0 0.0 0.16181341 
0.8248964 2.2843602 0.0 0.0 0.62322557 0.0 0.0 0.0 0.0 0.116359204 0.0 0.60985875 0.0 0.0 0.0 0.0 
0.7732318 2.1142957 0.0 0.024352385 0.67537904 0.0 0.0 0.0 0.0 0.2557193 0.0 0.06173365 0.0 0.0 0.0 0.0 
0.5507449 2.0611699 0.0 0.27560258 0.43338743 0.0 0.0 0.0 0.0 0.28448573 0.0 0.0 0.0 0.0 0.0 0.0 
0.0 0.0 0.0 0.00868262 0.0 0.0 0.06495964 0.0 0.0 0.0 0.0 0.0 0.0 0.0 0.0 0.0 
0.0 0.09777872 0.0 0.004102979 0.1339137 0.0 0.059363678 0.0 0.0 0.0 0.0 0.0 0.0 0.0 0.0 0.0 
0.26495284 0.44310993 0.35741252 0.0 0.13509044 0.07613081 0.0 0.0 0.0 0.0 0.0 0.0 0.0 0.0 0.0 0.2353576 
0.8919806 0.8767766 0.5661765 0.0 0.0 0.0 0.0 0.0 0.0 0.18657804 0.0 0.0 0.0 0.0 0.0 1.2143131 
1.9421694 1.104854 0.0 0.0 0.0 0.0 0.0 0.0 0.0 0.523121 0.0 0.0 0.0 0.13744307 0.0 1.2661709 
2.7777014 0.0 0.0 0.0 0.0 0.0 0.0 0.044262707 0.0 0.32341123 0.0 0.0 0.0 0.6303112 0.0 0.3525149 
3.2106922 0.0 0.0 0.0 0.0 0.0 0.0 0.7193343 0.0 0.49300158 0.0 0.0 0.0 0.557716 0.0 0.0 
3.3211062 0.0 0.0 0.0 0.0 0.0 0.0 0.095642105 0.0 0.6409876 0.0 0.0 0.0 0.28378722 0.0 0.0 
3.573875 0.0 0.0 0.0 0.0 0.0 0.0 0.0 0.0 0.6239368 0.0 0.0 0.0 0.0 0.0 0.0 
3.2678869 0.0 0.0 0.0 0.0 0.0 0.0 0.0 0.0 0.71743757 0.0 0.0 0.0 0.0 0.0 0.0 
0.0 0.09944057 0.0 0.0 0.099041246 0.00042794645 0.058978036 0.0 0.0 0.0 0.0 0.008034587 0.0 0.0 0.0 0.0 
0.41097566 0.62532806 0.0 0.0 0.111701824 0.0 0.0 0.0 0.0 0.0 0.0 0.0 0.0 0.0 0.0 0.0 
0.6293217 1.5356928 0.567342 0.0 0.0 0.0 0.0 0.0 0.0 0.33600613 0.0 0.0 0.0 0.0 0.14438345 1.4546006 
0.96996254 1.4274354 0.40722814 0.0 0.0 0.0 0.0 0.0 0.0 0.5789964 0.0 0.0 0.0 0.0 0.4845906 2.5306985 
1.0114181 0.0 0.0 0.0 0.0 0.0 0.40591615 0.0 0.0 0.42857692 0.0 0.0 0.7276743 0.0 0.0 0.0 
0.8196189 0.0 0.0 0.0 0.0 0.0 0.0 0.57587147 0.0 0.0 0.0 0.0 0.94608253 2.2234747 0.0 0.0 
0.9153586 0.0 0.0 0.0 0.0 0.0 0.0 0.0 0.0 0.0 1.5809851 0.0 1.1067432 3.979158 0.0 0.0 
0.80692255 0.0 0.0 0.0 0.0 0.0 0.0 0.0 0.0 0.0 2.490007 0.0 1.3848372 4.5716696 0.0 0.0 
0.79541403 0.0 0.0 0.0 0.0 0.0 0.0 0.0 0.0 0.0 1.8851993 0.0 1.767054 4.189214 0.0 0.0 
1.1130904 0.0 0.0 0.0 0.0 0.0 0.0 0.0 0.0 0.0 0.848403 0.0 1.9445639 3.7598228 0.0 0.0 
0.5391661 0.18331532 0.0 0.0 0.11755789 0.148525 0.0 0.0 0.0 0.0 0.0 0.0 0.0 0.04925362 0.0 0.0 
0.92118275 0.5465602 0.0 0.0 0.0 0.0 0.0 0.0 0.0 0.3569292 0.0 0.0 0.0 0.0 0.0 1.2591115 
0.79334337 0.69153094 0.057719287 0.0 0.0 0.0 0.0 0.0 0.0 0.6663548 0.0 0.0 0.0 0.0 0.0 2.0036228 
0.3860669 0.086670935 0.0 0.0 0.0 0.0 0.0 0.07335469 0.0 0.0 0.0 0.0 0.6461127 0.0 0.0 0.0 
0.0 0.0 0.0 0.0 0.0 0.0 0.0 1.5127728 0.0 0.0 0.0 0.0 1.1324492 0.0 0.0 0.0 
0.0 0.0 0.0 0.0 0.0 0.0 0.0 0.37921852 0.0 0.0 0.0 0.0 1.7106812 0.0 0.0 0.0 
0.0 0.0 0.0 0.0 0.0 0.0 0.0 0.0 0.0 0.0 0.6152821 0.0 1.2906414 0.0 0.8937499 0.0 
0.0 0.7086206 0.0 0.9252242 0.0 0.0 0.0 0.0 0.0 0.0 2.995128 0.0 0.8527962 1.3889155 1.2440091 0.0 
0.0 0.8792356 0.0 1.2650609 0.0 0.0 0.0 0.0 0.0 0.0 3.3065147 0.0 0.77446437 1.4488313 1.2518091 0.0 
0.0 0.81029797 0.0 1.6960982 0.0 0.0 0.0 0.0 0.0 0.0 2.558162 0.0 1.4195782 1.3529382 1.561262 0.0 
0.33365414 0.37050682 0.021015372 0.0 0.088951744 0.0 0.0 0.0 0.25112647 0.28225675 0.0 0.0 0.0 0.0 0.21546651 0.75634253 
0.0 0.0 0.0 0.0 0.0 0.0 0.0 0.0 0.0 0.64007676 0.0 0.0 0.24850295 0.0 0.23294847 2.2635245 
0.0 0.0 0.0 0.0 0.0 0.44241422 0.0 0.0 0.0 0.0 0.2111557 0.0 0.58643776 0.6931453 0.0 0.0 
0.71047616 0.0 0.0 0.0 0.0 0.0 0.26307023 1.5253265 0.0 0.0 0.0 0.0 0.040293828 1.5974208 0.0 0.0 
0.9325815 0.0 0.0 0.0 0.0 0.0 0.0 1.670899 0.0 0.0 0.0 0.0 0.0 0.23093814 0.0 0.0 
0.50388277 0.0 0.0 0.0 0.0 0.0 0.0 0.0 0.1093037 0.0 0.0 0.0 0.29554027 0.0 0.0 0.0 
0.0 0.0 0.0 0.0 0.0 0.0 0.0 0.0 0.0 0.44919005 0.0 1.0826849 0.6125016 0.0 0.0 0.0 
0.0 0.0 0.0 1.6482008 0.0 0.0 0.0 0.0 0.0 1.110237 0.0 0.0 0.0 0.0 0.0 0.0 
0.0 0.3036905 0.0 3.5425003 0.0 0.0 0.0 0.0 0.0 1.2875394 0.25088724 0.0 0.0 0.0 0.87715524 0.0 
0.0 1.1165991 0.0 4.244334 0.0 0.0 0.0 0.0 0.0 1.3119451 0.36125225 0.0 0.0 0.0 1.9218783 0.0 
0.0 0.11762321 0.0605272 0.0 0.039353848 0.0 0.0 0.0 0.0 0.0 0.0 0.0 0.0 0.0 0.013299063 0.5648111 
0.0 0.18914948 0.0 0.0 0.0 0.0 0.0 0.28796 0.0 0.0 0.0 0.0 0.87796247 0.0 0.0 0.0 
0.0 0.0 0.0 0.0 0.0 0.0 0.64224637 0.5631273 0.0 0.0 0.035753056 0.0 0.8425867 0.0 0.0 0.0 
0.0 0.0 0.0 0.0 0.0 0.10894793 0.0 0.008480288 0.0 0.0 0.51177454 0.0 0.0 1.3895882 0.0 0.0 
0.0 0.0 0.0 0.5205875 0.0 0.0 0.0 0.0 0.0 0.0 0.4966589 0.0 0.0 3.2166064 0.0 0.0 
0.0 0.0 0.0 0.6723563 0.0 0.0 0.0 0.0 0.0 0.0 0.24194422 0.0 0.0 0.5491335 0.0 0.0 
0.0 0.0 0.0 0.0 0.0 0.0 0.0 0.0 0.0 0.0 0.0 1.367581 0.0 0.0 0.0 0.0 
0.0 0.0 0.0 0.0 0.0 0.0 0.0 0.0 0.0 1.4316176 0.0 1.2109898 0.0 0.0 0.0 0.0 
0.0 0.0 0.0 0.75817853 0.0 0.0 0.0 0.0 0.0 1.7099845 0.0 0.0 0.0 0.0 0.0 0.0 
0.0 0.0 0.0 1.1600837 0.0 0.039640352 0.0 0.0 0.0 1.922797 0.0 0.0 0.0 0.0 0.0 0.0 
0.0 0.0 0.0 0.0 0.0 1.2519772 0.0 0.0 0.0 0.0 0.0 0.0 0.0 0.17524496 0.0 0.0 
0.0 0.0 0.0 0.0 0.0 0.0 0.0 1.8420464 0.0 0.0 0.0 0.0 0.0 0.0 0.0 0.0 
0.0 0.76209116 0.0 0.0 0.0 0.0 0.21746552 0.9132739 0.0 0.0 0.0 0.0 0.0 0.0 0.0 0.0 
0.0 0.17762767 0.0 0.0 0.0 0.0 0.0 0.0 0.0 0.30749455 0.0 0.0 0.0 0.0 0.0 0.0 
0.0 0.0 0.0 0.0 0.0 0.0 0.0 0.0 0.0 0.0 0.0 0.0 0.0 0.0 2.6482239 0.0 
0.0 0.0 0.0 0.13053545 0.0 0.0 0.0 0.0 0.0 0.0 0.0 0.0 0.0 0.0 1.5700457 0.0 
0.0 0.0 0.0 0.09231045 0.0 0.0 0.0 0.0 0.0 0.0 0.0 0.0 0.0 0.0 0.0 0.0 
0.0 0.0 0.0 0.0 0.0 0.0 0.0 0.0 0.0 0.0 0.0 1.9917084 0.48255694 0.0 0.0 0.0 
0.0037396215 0.0 0.7186232 0.0 0.0 0.0 0.0 0.0 0.0 0.0 0.0 0.5982543 0.34972072 0.0 0.0 0.0 
0.0 0.0 0.026429739 0.0 0.0 0.0 0.0 0.0 0.0 0.0 0.0 0.0 0.0 0.0 0.0 0.0 
0.0 0.0 0.0 0.0 0.0 2.3347852 0.0 0.09639202 0.0 0.0 0.81800634 0.0 0.0 0.6382746 0.0 0.0 
0.5100091 0.0 0.0 0.0 0.0 0.16782847 1.3783711 1.2531319 0.0 0.0 0.84438056 0.0 0.0 1.8968414 0.0 0.0 
0.70422333 0.0 0.0 0.0 0.0 0.0 0.5425955 0.0 0.0 0.71967226 0.9457887 0.0 0.0 0.42779735 0.0 0.0 
0.0 0.0 0.0 0.0 0.0 0.0 0.0 0.0 0.0 1.6188246 0.0 0.0 0.0 0.0 0.0 0.0 
0.0 0.0 0.20151748 0.0 0.0 0.0 0.0 0.0 0.0 1.0062902 0.0 0.0 0.2448621 0.0 0.31021577 0.0 
0.0 0.0 0.0 0.0 0.0 0.0 0.08008446 0.0 0.0 0.0 0.0 0.0 0.9703937 0.0 1.570554 0.0 
0.0 0.0 0.0 0.0 0.0 0.0 0.0 0.0 0.0 0.0 0.0 0.0 0.2923292 0.0 0.2816947 0.0 
0.0 0.0 0.0 0.0 0.0 0.0 0.0 0.0 1.3923813 0.0 0.0 0.0 0.11155319 0.0 0.0 0.0 
0.0 0.0 0.0 0.0 0.0 0.0 0.0 0.0 0.0 0.0 0.0 0.7335613 0.49634308 0.0 0.0 0.0 
0.0 0.0 0.0 0.0 0.0 0.0 0.00069107395 0.0 0.0 0.0 0.0 0.038674027 0.07044308 0.0 0.0 0.0 
0.0 0.4107489 0.0 0.0 0.0 1.0854781 0.0 0.0 0.0 0.0 0.5422196 0.0 0.0 0.0 0.0691067 0.0 
0.0 0.0 0.2991294 0.0 0.0 0.24045867 1.0019653 0.0 0.0 0.0 0.87446326 0.0 0.0 1.1002219 1.292726 0.0 
0.0 0.0 0.0 0.0 0.0 0.0 0.03912828 0.0 0.0 0.0 2.8463032 0.0 0.0 1.2340431 0.46118546 0.0 
0.0 0.0 0.0 0.0 0.0 0.0 0.0 0.0 0.0 0.0 3.3736057 0.0 0.0 1.2809311 0.0 0.0 
0.0 0.0 0.0 0.0 0.0 0.0 0.0 0.0 0.0 0.0 1.744343 0.0 0.9489499 0.7703055 0.0 0.0 
0.0 0.0 0.04076353 0.45758256 0.0 0.0 0.88466924 0.0 0.0 0.0 1.1334224 0.0 1.3696058 0.9319934 0.0 0.0 
0.0 0.0 0.0 0.14678341 0.0 0.0 0.0 0.0 2.435137 0.0 1.2797284 0.0 0.67871356 0.2074494 0.17403413 0.0 
0.0 0.0 0.0 0.044933427 0.0 0.0 0.0 0.0 1.5682223 0.0 0.97203356 0.0 0.0 0.2883024 0.0 1.5421754 
0.0 0.0 0.0 0.5318023 0.0 0.0 0.0 0.0 0.0 0.0 0.26818776 0.47729048 0.14008684 0.0 0.0 0.36313602 
0.0 0.0 0.0 0.26749107 0.0 0.0 0.0 0.0 0.0 0.0 0.0 0.054909453 0.0 0.0 0.0 0.0 
0.0 0.7818154 0.0 0.15734759 0.0 0.0 0.0 0.0 0.0 0.0 0.0 0.0 0.0 0.0 0.0 0.0 
0.0 0.94350976 0.01957919 0.16328636 0.0 0.0 0.0 0.0 0.0 0.0 0.0 0.0 0.0 0.0 0.84485847 0.0 
0.0 0.53719187 0.0 0.36093298 0.0 0.0 0.0 0.0 0.0 0.0 0.88248736 0.0 0.0 0.0 1.6384579 0.0 
0.0 1.4039944 0.0 2.1478012 0.0 0.0 0.0 0.0 0.0 0.0 2.063066 0.0 0.0 0.0 0.81152326 0.0 
0.0 2.4915047 0.0 4.70458 0.0 0.0 0.0 0.0 0.0 0.0 1.7473404 0.0 0.0 0.0 0.0 0.0 
0.0 1.6377023 0.0 4.2808127 0.0 0.0 0.0 0.0 0.03141359 0.0 1.2217708 0.0 0.0 0.0 0.062508866 0.0 
0.0 0.12631254 0.0 2.4766433 0.0 0.0 0.0 0.0 0.70632166 0.0 1.0297037 0.0 0.0 0.0 0.18199982 1.8199767 
0.0 0.043373488 0.0 0.8047862 0.26923382 0.1960955 0.0 0.0 0.0 0.0 0.59670216 0.0 0.0 0.0 0.0 1.8468747 
0.0 0.08953785 0.0 0.58318377 0.08336749 0.0 0.0 0.0 0.0 0.0 0.022912124 0.0 0.0 0.0 0.0 0.53069603 
0.0 0.0 0.0 0.16509545 0.0 0.0 0.0 0.0 0.0 0.0 0.0 0.0 0.0 0.0 0.0 0.0 

