0.14331286 0.29248065 0.23539713 0.0 0.42202112 0.118074805 0.0 0.0 0.0 0.0 0.0 0.0 0.0 0.0459681 0.0 0.0 
0.5294171 1.1871457 1.2357371 0.0 0.0 0.0 0.0 0.0 0.1640298 0.0 0.0 0.0 0.0 0.0 0.0 0.66899824 
0.97749406 2.5374777 1.1512457 0.0 0.0 0.0 0.0 0.0 0.0 0.0 0.0 0.0 0.0 0.0 0.0 1.2616105 
1.4917527 3.2721317 0.0 0.0 0.0 0.0 0.0 0.0 0.0 0.0 0.0 1.1475936 0.0 0.0 0.0 0.69904363 
1.8526765 2.4610057 0.0 0.0 0.40821287 0.0 0.0 0.0 0.0 0.0 0.0 1.3910306 0.0 0.0 0.0 0.0 
1.6609098 1.8174142 0.0 0.0 0.6775574 0.0 0.0 0.0 0.0 0.0 0.0 0.39016733 0.0 0.0 0.0 0.0 
1.5349578 1.9611086 0.0 0.0 0.94992495 0.0 0.0 0.0 0.0 0.11990249 0.0 0.0 0.0 0.0 0.0 0.0 
1.3325776 2.0199971 0.0 0.0 0.6017113 0.0 0.0 0.0 0.0 0.63653266 0.0 0.0 0.0 0.0 0.0 0.0 
1.0047452 1.5569719 0.0 0.0 0.46820962 0.0 0.0 0.0 0.0 1.025533 0.0 0.3410416 0.0 0.0 0.0 0.0 
0.8021699 0.53341234 0.0 0.0 1.2501129 0.0 0.0 0.0 0.0 0.7819383 0.0 1.4520265 0.0 0.0 0.0 0.0 
0.5945136 0.37158978 0.9361169 0.0 0.3218474 0.06239581 0.0 0.0 0.0 0.031982098 0.0 0.0 0.0 0.0 0.0 0.6686173 
1.3090165 0.38908437 1.967961 0.0 0.0 0.0 0.0 0.0 0.0 0.6448418 0.0 0.0 0.0 0.0 0.5576275 2.039655 
2.6082299 0.0 0.7073441 0.0 0.0 0.0 0.09676564 0.0 0.0 0.5932035 0.0 0.0 0.0 0.14557219 0.0 1.5100634 
3.865939 0.0 0.0 0.0 0.0 0.0 0.3452969 0.32872033 0.0 0.34125564 0.0 0.0 0.0 0.58657354 0.0 0.0 
4.2459164 0.0 0.0 0.0 0.0 0.0 0.0 0.0 0.0 0.028617349 0.0 0.0 0.0 0.74530536 0.0 0.0 
4.2727585 0.0 0.0 0.0 0.0 0.0 0.0 0.0 0.0 0.12984271 0.0 0.0 0.0 0.81115043 0.0 0.0 
4.1989894 0.0 0.7539681 0.0 0.0 0.0 0.0 0.0 0.0 0.3380987 0.0 0.0 0.0 0.90734065 0.0 0.0 
3.5127723 0.0 2.0492442 0.0 0.0 0.0 0.0 0.0 0.0 0.660179 0.0 0.0 0.0 0.0 0.0 0.0 
2.9982862 0.0 0.4959514 0.0 0.0 0.0 0.0 0.0 0.0 0.466478 0.0 0.0 0.7730514 0.0 0.0 0.0 
2.25509 0.0 0.0 0.0 0.0 0.0 0.0 0.0 0.0 0.0 0.0 1.7565997 1.159974 0.0 0.0 0.0 
0.08742733 0.20013916 1.7615603 0.0 0.2920808 0.0 0.0 0.0 0.0 0.9428432 0.0 0.0 0.0 0.0 0.9531378 2.2919292 
0.0 0.0 2.1495404 0.0 0.0 0.0 0.0 0.0 0.0 0.76606745 0.0 0.0 0.110012814 0.0 1.8583878 2.6506035 
0.51347125 0.0 0.0 0.0 0.0 0.0 1.4480299 0.0 0.0 0.0 0.0 0.0 1.7201079 0.28295982 1.5545455 0.0 
0.4951131 0.0 0.0 0.0 0.0 0.0 0.029668225 0.82186973 0.0 0.0 0.0 0.0 1.9476695 2.4954038 0.23289199 0.0 
0.28273782 0.0 0.0 0.0 0.0 0.0 0.0 0.0 0.0 0.0 0.9371869 0.0 2.0858235 3.7946727 0.0 0.0 
0.049753558 0.0 0.0 0.0 0.0 0.0 0.0 0.0 0.0 0.0 1.1095331 0.0 1.8172456 4.4393587 0.0 0.0 
0.0 0.0 1.0768895 0.0 0.0 0.0 0.0 0.0 0.0 0.0 0.0 0.0 2.4166317 3.5078692 0.18559502 0.0 
0.16355784 0.0 2.3377233 0.0 0.0 0.0 0.0 0.0 0.0 0.0 0.0 0.0 2.525493 2.165324 0.6706846 0.0 
0.8269859 0.0 0.0 0.0 0.0 0.0 0.76897126 0.0 0.0 0.0 0.0 0.0 2.3931432 1.360952 0.0 0.0 
0.796213 0.0 0.0 0.0 0.0 0.0 0.0 0.0 0.0 0.0 0.0 0.6687316 1.6777061 0.8510301 0.0 0.0 
0.0 0.0 1.3395145 0.0 0.07027174 0.0 0.0 0.0 0.0 0.84606457 0.0 0.0 0.0 0.0 0.7759118 2.6652212 
0.0 0.0 0.0 0.0 0.0 0.0 0.066576585 0.393512 0.0 0.0 0.0 0.0 1.3026618 0.0 0.936493 0.0 
0.0 0.0 0.0 0.0 0.0 0.0 1.3413464 2.3912206 0.0 0.0 0.0 0.0 2.4327242 0.0 1.1079335 0.0 
0.0 0.0 0.0 0.0 0.0 0.0 0.0 0.9441158 0.37843108 0.0 0.0 0.0 2.2075913 0.0 1.2083867 0.0 
0.0 0.0 0.0 0.0 0.0 0.0 0.0 0.0 1.306439 0.0 1.5001118 0.0 0.6321414 0.0 1.2742231 0.0 
0.0 0.40352455 0.0 0.0 0.0 0.0 0.0 0.0 0.0 0.0 1.0959449 0.0 0.38841414 0.0 2.654953 0.0 
0.0 2.088804 0.0 0.34960064 0.0 0.0 0.0 0.0 0.0 0.0 1.1490029 0.0 0.6467794 0.0 3.3990233 0.0 
0.0 0.9613664 0.0 1.2050579 0.0 0.0 0.0 0.0 0.0 0.0 0.2620563 0.0 1.5172969 0.0 2.6451635 0.0 
0.0 0.0 0.0 1.3822246 0.0 0.0 1.6065853 0.0 0.0 0.0 0.10721433 0.0 1.2386979 0.0 1.01689 0.0 
0.0 0.0 0.0 0.22745626 0.0 0.0 0.0 0.0 1.1922274 0.0 0.15503842 0.0 0.7828219 0.0 0.0 0.0 
0.0 0.0 0.06333703 0.0 0.0 0.0 0.0 0.79313093 0.0 0.14432724 0.0 0.0 0.0 0.0 0.0 0.0 
0.0 0.0 0.0 0.0 0.0 0.0 1.9693509 3.0189698 0.0 0.0 0.0 0.0 0.6574039 0.0 0.0 0.0 
0.0 0.0 0.0 0.0 0.0 0.0 1.2469498 2.750536 0.0 0.0 0.0 0.0 0.2575152 0.0 0.0 0.0 
0.0 0.0 0.0 0.0 0.0 0.0 0.0 0.0 3.44511 0.0 0.0 0.0 0.0 0.0 0.0 0.0 
0.0 0.0 0.0 0.73897886 0.0 0.0 0.0 0.0 1.0202702 0.038696263 0.0 0.0 0.0 0.0 0.0 0.0 
0.0 1.2134528 0.0 0.51417744 0.0 0.0 0.0 0.0 0.0 2.6657352 0.0 0.0 0.0 0.0 1.005354 1.8129386 
0.0 0.7391179 0.0 0.4042254 0.0 0.0 0.0 0.0 0.0 3.0433881 0.0 0.0 0.0 0.0 1.2081277 2.070257 
0.0 0.0 0.0 1.2882369 0.0 0.0 0.85116875 0.0 0.0 1.9027892 0.0 0.0 0.0 0.0 0.88737017 0.0 
0.0 0.0 0.0 1.0401134 0.0 0.0 0.3148678 0.0 0.0 0.0 0.0 0.0 0.0 0.0 0.05070451 0.0 
0.0 0.0 0.0 0.3847671 0.0 0.0 0.0 0.0 2.888323 0.0 0.0 0.0 0.0 0.0 0.0 0.0 
0.0 0.0 0.0 0.0 0.0 0.4064231 0.4333752 2.0158668 0.0 0.0 2.2603939 0.0 0.24148454 0.5749251 0.0 0.0 
0.0 0.0 0.0 0.5019899 0.0 0.0 2.7905643 2.9647164 0.0 0.0 1.8111888 0.0 0.0 0.51178527 0.0 0.0 
0.0 0.0 0.0 1.1851728 0.0 0.0 0.9531834 0.0 3.4848166 0.0 0.94952154 0.0 0.0 0.0 0.0 0.0 
0.0 0.0 0.0 0.3800625 0.0 0.0 0.0 0.0 3.1601362 0.0 0.0 0.0 0.0 0.0 0.0 0.0 
0.0 0.0 0.0 0.0 0.097178094 0.0 0.0 0.0 0.3457079 1.2134478 0.0 0.0 0.0 0.0 0.0 2.7128103 
0.0 0.0 0.0 0.0 0.68977284 0.0 0.0 0.0 0.0 2.379815 0.0 0.0 0.0 0.0 0.0 4.1204195 
0.0 0.0 0.0 0.0 0.0 0.0 1.661798 0.0 0.0 1.323395 0.0 0.0 0.0 0.0 0.0 0.0 
0.0 0.0 0.0 0.0 0.0 0.0 3.3858125 1.283073 0.0 0.0 0.0 0.0 0.0 0.0 0.0 0.0 
0.0 0.0 0.0 0.0 0.0 0.0 0.0 0.0 3.201296 0.0 0.0 0.0 0.0 0.0 0.0 0.0 
0.0 0.0 0.0 0.0 0.0 0.0 0.0 0.0 3.2949352 0.0 0.0 0.0 0.0 0.0 0.0 0.12976992 
0.0 0.9261953 0.0 2.9058583 0.0 0.64128053 0.78279394 1.8312919 0.0 0.0 2.1877806 0.0 0.0 0.0 0.0 0.0 
0.0 0.5923103 0.0 4.3609114 0.0 0.0 1.9803929 0.23927222 1.3071027 0.0 2.1101646 0.0 0.0 0.32839227 0.0 0.0 
0.0 0.0 0.0 2.7701998 0.0 0.0 0.0 0.0 3.163092 0.0 1.2220834 0.0 0.0 0.0 0.0 0.6797627 
0.0 0.0 0.0 0.0 0.75767964 0.12833261 0.0 0.0 0.90372276 0.0 0.0 0.0 0.0 0.0 0.0 3.7693582 
0.0 0.0 0.0 0.0 1.1115571 0.0 0.0 0.0 0.0 0.27234802 0.0 0.0 0.0 0.0 0.12696801 4.352532 
0.0 0.0 0.0 0.0 0.0 0.0 0.0 0.0 0.0 0.0 0.0 0.0 0.19616617 0.0 0.0 0.27000082 
0.0 0.0 0.0 0.0 0.0 0.0 3.2996314 2.6855092 0.0 0.0 0.0 0.0 0.3255176 0.0 0.0 0.0 
0.0 0.0 0.0 0.002052769 0.0 0.0 1.5729605 2.3822458 2.0224829 0.0 0.0 0.0 0.0 0.0 0.0 0.0 
0.0 0.0 0.0 0.07416265 0.0 0.0 0.0 0.0 4.577668 0.0 0.26873904 0.0 0.0 0.0 0.0 0.0 
0.0 0.0 0.0 0.0 0.0 0.22594297 0.0 0.0 0.86588585 0.0 0.33046144 0.0 0.0 0.0 0.0 1.2758416 
0.0 1.6554862 0.0 3.6603422 0.0 0.0009776056 0.94838476 0.066688865 0.0 1.6949384 0.5806823 0.0 0.0 0.0 0.0 0.0 
0.0 0.61821735 0.0 3.1918433 0.17028484 0.0 0.7500225 0.0 1.403771 1.0321416 0.3455206 0.0 0.0 0.0 0.0 0.0 
0.0 0.0 0.0 0.6038548 1.257594 0.4166159 0.0 0.0 0.4666601 0.003696613 0.0 0.0 0.0 0.0 0.0 2.7117634 
0.0 0.11214804 0.0 0.0 1.5841136 0.0 0.0 0.0 0.0 0.29470566 0.0 0.0 0.0 0.0 0.740735 4.4115844 
0.0 0.0 0.24254844 0.0 0.006875448 0.0 0.0 0.0 0.0 0.104269266 0.0 0.0 0.0 0.0 0.0 2.3873734 
0.0 0.0 0.0 0.0 0.0 0.0 2.781543 2.0106587 0.0 0.0 0.0 0.0 0.66326004 0.0 0.0 0.0 
0.0 0.0 0.0 0.43241912 0.0 0.0 2.550394 3.0449834 0.11767727 0.0 0.0 0.0 0.0 0.0 0.0 0.0 
0.0 0.0 0.0 0.4361255 0.0 0.0 0.0 0.0 4.594085 0.0 0.046992525 0.0 0.0 0.0 0.0 0.0 
0.0 0.0 0.0 0.0 0.0 0.0 0.0 0.0 2.1077127 0.0 0.28906736 0.0 0.0 0.0 0.0 1.1037049 
0.0 0.0 0.0 0.13230583 0.0 0.2536853 0.0 0.0 0.0 0.0 0.46772355 0.0 0.0 0.0 0.0 1.3709993 
0.0 0.4166574 0.0 1.2338916 0.0 0.0057744756 0.67807704 0.0 0.30318898 1.3101324 0.0 0.0 0.0 0.0 0.0 0.0 
0.0 0.10286282 0.0 0.0 0.74129313 0.3053145 0.0 0.0 0.0 0.59163076 0.0 0.0 0.0 0.0 0.0 0.35450917 
0.0 0.5820625 0.0 0.0 1.2600478 0.0 0.0 0.0 0.0 0.28141576 0.0 0.0 0.0 0.0 0.0 2.238149 
0.0 0.87959945 0.4168806 0.0 0.22693667 0.0 0.0 0.0 0.0 0.54167056 0.0 0.0 0.0 0.0 0.0 3.0715864 
0.0 0.0 0.0 0.0 0.0 0.0 0.9832893 1.2067354 0.0 0.22158852 0.0 0.0 0.064594716 0.0 0.0 0.0 
0.0 0.0 0.0 0.0 0.0 0.0 3.0438592 3.3054905 0.0 0.0 0.0 0.32279852 0.0 0.0 0.0 0.0 
0.0 0.0 0.0 0.44202253 0.0 0.0 0.0 1.50131 3.255642 0.0 0.0 0.0 0.0 0.0 0.0 0.0 
0.0 0.0 0.0 0.19596295 0.0 0.0 0.0 0.0 3.2985735 0.0 0.21246988 0.0 0.0 0.0 0.0 0.0 
0.0 0.0 0.0 0.0 0.0 0.4912215 0.0 0.0 0.0 0.0 0.4315759 0.0 0.0 0.0 0.0 1.2830173 
0.0 0.005775992 0.0 0.07943798 0.19467339 0.03454931 0.0 0.0 0.0 0.0 0.0 0.0 0.0 0.0 0.0 0.8456501 
0.13703449 0.0 0.0 0.0 0.039854795 0.24197844 0.08928371 0.0 0.0 0.0023117326 0.0 0.0 0.0 0.0 0.0 0.0 
0.3458132 0.0 0.0 0.0 0.4582548 0.6689181 0.0 0.0 0.0 0.20176618 0.0 0.0 0.0 0.0 0.0 0.16781108 
0.0 0.0 0.0 0.0 0.3605109 0.6092291 0.0 0.0 0.0 0.47502846 0.0 0.0 0.0 0.0 0.0 1.6400545 
0.0 0.0 0.39957184 0.0 0.0 0.0 0.0 0.921498 0.0 0.07928015 0.0 0.0 0.0 0.0 0.0 0.0 
0.0 0.0 0.0 0.0 0.0 0.0 2.5616121 3.0085835 0.0 0.0 0.0 0.0 0.0 0.0 0.0 0.0 
0.3656737 0.0 0.0 0.0 0.0 0.0 1.6382223 1.869407 0.2415582 0.0 0.0 0.0 0.0 0.0 0.0 0.0 
0.3308997 0.0 0.0 0.0 0.0 0.0 0.0 0.0 3.9293525 0.0 0.0 0.0 0.0 0.0 0.0 0.0 
0.0 0.0 0.0 0.0 0.0 0.6643398 0.0 0.0 0.5881207 0.0 0.0 0.0 0.0 0.0 0.0 0.42478555 
0.0 0.0 0.0 0.0 0.0 0.18933585 0.0 0.0 0.0 0.0 0.07212716 0.0 0.0 0.0 0.0 0.74195975 
0.0 0.099805646 0.0 0.10885547 0.011227183 0.0 0.0 0.0 0.0 0.0 0.0 0.0 0.0 0.0 0.0 0.20854278 

