0.0 0.0 0.0 0.0 0.0 0.0 0.013000555 0.0 0.0 0.0 0.016660115 0.0 0.0 0.0 0.0 0.0 
0.28602377 0.0 0.0 0.0 0.15650225 0.3842397 0.0 0.0 0.0 0.0 0.0 0.0 0.0 0.032139055 0.0 0.0 
0.5037467 0.0 0.060918573 0.0 0.3964594 1.01634 0.0 0.0 0.0 0.0 0.0 0.0 0.0 0.7106433 0.07376973 0.020467106 
0.5112037 0.0 2.0728915 0.0 0.0 0.0 0.0 0.0 0.0 0.6069136 0.0 0.0 0.0 0.8414846 0.84405494 1.4199547 
1.1594483 0.0 2.9017093 0.0 0.0 0.0 0.0 0.0 0.0 0.120870784 0.0 0.0 0.0 0.29370418 0.86952657 0.0 
2.1212497 0.0 0.0 0.0 0.0 0.0 1.5847512 0.0 0.0 0.0 0.0 0.0 0.89432055 0.0 0.0 0.0 
1.5475222 0.0 0.0 0.0 0.0 0.0 0.0 0.0 0.0 0.0 0.0 2.4351733 1.4236902 0.0 0.0 0.0 
1.0408049 0.0 0.0 0.0 0.0 0.0 0.0 0.0 0.8092441 0.0 0.0 2.7142675 1.2545837 0.0 0.0 0.0 
0.62982225 0.0 1.1368291 0.0 0.0 0.16667551 0.0 0.0 0.03398535 0.0 0.0 0.33319327 0.2485786 0.33338 0.0 0.0 
0.07396117 0.0 0.58010113 0.0 0.0 0.33891466 0.0 0.0 0.0 0.0 0.0 0.0 0.0 0.15028009 0.0 0.0 
0.0 0.0 0.0 0.0 0.0 0.0 0.0 0.0 0.0 0.0 0.0 0.0 0.0 0.0 0.0 0.0 
0.0 0.0 0.0 0.0 0.35851574 0.10294354 0.0 0.0 0.04985104 0.0 0.20958103 0.0 0.0 0.0 0.0 0.0 
0.0 0.0 0.0 0.0 0.7748578 1.3856082 0.0 0.0 0.0 0.0 0.0 0.0 0.0 0.0 0.37434644 0.0 
0.0 0.0 2.5082748 0.0 0.0 0.27043363 0.0 0.0 0.0 0.0 0.0 0.0 0.0 0.0 1.7971698 0.0 
0.0 0.0 3.2266166 0.0 0.0 0.0 0.020938436 0.0 0.0 0.0 0.0 0.0 0.44608784 0.0 2.6198823 0.0 
0.40492356 0.0 0.0 0.0 0.0 0.0 2.1218872 0.0 0.0 0.0 0.0 0.0 1.2609459 0.0 1.1442912 0.0 
0.6432213 0.0 0.0 0.0 0.0 0.0 0.0 0.0 1.4332377 0.0 0.0 1.3719993 1.317899 0.0 0.0 0.0 
0.0 0.0 0.0 0.0 0.0 0.0 0.0 0.0 1.8108953 0.0 0.0 3.0503447 1.0478225 0.0 0.0 0.0 
0.0 0.0 0.7687957 0.0 0.0 0.053956643 0.0 0.0 0.0 0.0 0.0 1.4741955 0.4686901 0.09426985 0.0 0.0 
0.0 0.0 0.7822966 0.0 0.0 0.17586029 0.0 0.0 0.0 0.0 0.0 0.0 0.0 0.0 0.0 0.0 
0.0 0.18711855 0.0 0.0 0.0 0.0 0.0 0.0 0.0 0.0 0.0 0.0 0.0 0.0 0.0 0.0 
0.0 0.05062679 0.0 0.0 0.5866361 0.0 0.0 0.0 0.0 0.0 0.18235618 0.13129008 0.0 0.0 0.0 0.0 
0.0 0.0 0.0 0.0 1.1202946 1.4671335 0.0 0.0 0.0 0.0 0.0 0.0 0.0 0.0 0.0 0.0 
0.0 0.0 2.150696 0.0 0.0 0.6887675 0.0 0.0 0.0 0.0 0.0 0.0 0.0 0.0 0.7659296 0.0 
0.0 0.0 3.6169598 0.0 0.0 0.0 0.3163264 0.0 0.0 0.0 0.0 0.0 0.0 0.0 2.1775315 0.0 
0.0 0.0 0.0 0.0 0.0 0.0 2.6923723 0.0 0.2389616 0.0 0.0 0.0 0.5454549 0.0 1.7716248 0.0 
0.0 0.0 0.0 0.0 0.0 0.0 0.0 0.0 1.8267901 0.0 0.0 0.015917279 0.65874416 0.0 0.0 0.0 
0.0 0.0 0.0 0.0 0.0 0.0 0.0 0.0 1.7712771 0.0 0.0 1.8514961 0.30851418 0.0 0.0 0.0 
0.0 0.0 0.0 0.0 0.0 0.25716895 0.0 0.0 0.0 0.0 0.0 1.4265597 0.20260672 0.0 0.0 0.0 
0.0 0.0 0.46156728 0.010617945 0.0 0.06398937 0.0 0.0 0.0 0.0 0.0 0.1008652 0.0 0.0 0.0 0.0 
0.045945268 0.0 0.0 0.0 0.0 0.0 0.0 0.0 0.0 0.0 0.08014341 0.0 0.0 0.054158904 0.0 0.0 
0.0 0.0 0.0 0.0 0.50495696 0.0 0.0 0.0 0.0 0.0 0.5989804 0.12656686 0.0 0.0 0.0 0.0 
0.0 0.0 0.0 0.0 1.2767682 1.2860384 0.0 0.0 0.0 0.0 0.0 0.0 0.0 0.0 0.0 0.0 
0.0 0.0 2.0162146 0.0 0.0 0.50810117 0.0 0.0 0.0 0.9964385 0.0 0.0 0.0 0.0 0.0 0.0 
0.0 0.0 3.771999 0.0 0.0 0.0 0.8105152 0.0 0.0 0.8424182 0.0 0.0 0.0 0.0 0.16576694 0.0 
0.0 0.0 0.0 0.0 0.0 0.0 3.4575408 0.0 0.16342221 0.0 0.0 0.0 0.0 0.0 0.44767052 0.0 
0.0 0.0 0.0 0.0 0.0 0.0 0.6770481 0.0 1.5637722 0.0 0.0 0.0 0.3592131 0.0 0.0 0.0 
0.0 0.0 0.0 0.0 0.0 0.0 0.0 0.0 1.7777784 0.0 0.0 1.0045398 0.14464928 0.0 0.0 0.0 
0.0 0.0 0.0 0.0 0.0 0.290437 0.0 0.0 0.0 0.0 0.0 1.1763304 0.1117045 0.03433405 0.0 0.0 
0.0 0.0 0.22320297 0.012775619 0.0 0.020196714 0.0 0.0 0.0 0.0 0.0 0.1314026 0.0 0.0 0.0 0.0 
0.0 0.0 0.0 0.0 0.0 0.0 0.0 0.0 0.0 0.0 0.2484769 0.0 0.0 0.11417822 0.0 0.0 
0.0 0.0 0.0 0.0 0.5660678 0.0 0.0 0.0 0.0 0.0 0.92207426 0.0 0.0 0.0 0.0 0.0 
0.0 0.0 0.0 0.0 1.3174837 1.4370649 0.0 0.0 0.0 0.0 0.4970574 0.0 0.0 0.0 0.0 0.0 
0.0 0.0 2.1847055 0.0 0.0 0.42452377 0.0 0.0 0.0 0.6852659 0.0 0.0 0.0 0.0 0.0 0.0 
0.0 0.0 3.8366392 0.0 0.0 0.0 1.1573358 0.40364623 0.0 0.49409068 0.0 0.0 0.0 0.0 0.0 0.0 
0.0 0.0 0.0 0.0 0.0 0.0 3.8867602 0.0 0.20978135 0.0 0.0 0.0 0.0 0.0 0.0 0.0 
0.0 0.0 0.0 0.0 0.0 0.0 1.144531 0.0 1.6981114 0.0 0.0 0.0 0.30415922 0.0 0.0 0.0 
0.0 0.0 0.0 0.0 0.0 0.0 0.0 0.0 1.9271567 0.0 0.0 0.81518865 0.13685347 0.0 0.0 0.0 
0.0 0.0 0.0 0.0 0.0 0.36690393 0.0 0.0 0.0 0.0 0.0 1.0582395 0.15081818 0.12887129 0.0 0.0 
0.0 0.0 0.24594799 0.0 0.0 0.0 0.0 0.0 0.0 0.0 0.0 0.1215647 0.0 0.0 0.0 0.0 
0.0 0.10708093 0.0 0.0 0.0 0.0 0.0 0.0 0.0 0.0 0.16504891 0.0 0.0 0.0 0.0 0.0 
0.0 0.0 0.0 0.0 0.5743902 0.0 0.0 0.0 0.0 0.0 0.8648972 0.09700924 0.0 0.0 0.0 0.0 
0.0 0.0 0.0 0.0 1.4297125 1.5436487 0.0 0.0 0.0 0.0 0.4999481 0.0 0.0 0.0 0.0 0.0 
0.0 0.0 1.9690346 0.0 0.0 0.6982483 0.0 0.0 0.0 0.57461447 0.0 0.0 0.0 0.0 0.0 0.0 
0.0 0.0 3.5057824 0.0 0.0 0.0 1.2293247 0.4623915 0.0 0.3801344 0.0 0.0 0.0 0.0 0.0 0.0 
0.0 0.0 0.0 0.0 0.0 0.0 3.8901947 0.0 0.33020395 0.0 0.0 0.0 0.045902 0.0 0.0 0.0 
0.0 0.0 0.0 0.0 0.0 0.0 0.94573045 0.0 1.7834063 0.0 0.0 0.0027472898 0.4546997 0.0 0.0 0.0 
0.0 0.0 0.0 0.0 0.0 0.0 0.0 0.0 1.8498173 0.0 0.0 0.96736753 0.012543529 0.0 0.0 0.0 
0.0 0.0 0.0 0.0 0.0 0.6443799 0.0 0.0 0.0 0.0 0.0 0.70727766 0.0 0.42137498 0.0 0.0 
0.0 0.0 0.11293259 0.23846117 0.0 0.037263826 0.0 0.0 0.0 0.0 0.096601605 0.071436465 0.0 0.06094204 0.0 0.0 
0.0 0.030367238 0.0 0.0 0.0 0.0 0.0 0.0 0.0 0.02654273 0.013394797 0.0 0.0 0.0 0.0 0.0 
0.0 0.0 0.0 0.0 0.7274261 0.0 0.0 0.0 0.002990637 0.0 0.5629443 0.25931793 0.0 0.0 0.0 0.0 
0.0 0.0 0.0 0.0 1.4955714 1.6569369 0.0 0.0 0.0 0.0 0.10797131 0.0 0.0 0.0 0.0 0.0 
0.0 0.0 1.7975936 0.0 0.0 0.7391169 0.0 0.0 0.0 0.8080917 0.0 0.0 0.0 0.0 0.0 0.0 
0.0 0.0 3.086885 0.0 0.0 0.0 1.0861962 0.5907366 0.0 0.5396981 0.0 0.0 0.0 0.0 0.0 0.0 
0.0 0.0 0.0 0.0 0.0 0.0 3.521136 0.13993116 0.0 0.0 0.0 0.0 0.0 0.0 0.0 0.0 
0.0 0.0 0.0 0.0 0.0 0.0 0.42210463 0.0 1.1463399 0.0 0.0 0.0 0.1062254 0.0 0.0 0.0 
0.0 0.0 0.0 0.0 0.0 0.0 0.0 0.0 1.1315957 0.0 0.0 1.2310896 0.062988386 0.0 0.0 0.0 
0.0 0.0 0.0 0.0 0.0 0.43130666 0.0 0.0 0.0 0.0 0.0 0.8670752 0.10210888 0.024409562 0.0 0.0 
0.0 0.0 0.21930957 0.08677395 0.0 0.26326844 0.0 0.0 0.0 0.0 0.0 0.0 0.0 0.0 0.0 0.0 
0.0 0.0 0.0 0.0 0.0 0.0 0.0031904364 0.0 0.0 0.0 0.06252528 0.0 0.0 0.0 0.0 0.0 
0.0 0.0 0.0 0.0 0.7054509 0.0 0.0 0.0 0.0 0.0 0.61431116 0.2800863 0.0 0.0 0.0 0.0 
0.0 0.0 0.0 0.0 1.1230055 1.8985744 0.0 0.0 0.0 0.0 0.0 0.0 0.0 0.0 0.0 0.0 
0.0 0.0 1.0572879 0.0 0.0 0.43310004 0.0 0.114687264 0.0 0.80691004 0.0 0.0 0.0 0.0 0.0 0.0 
0.0 0.0 2.0788555 0.0 0.0 0.0 0.690958 1.3069984 0.0 0.6898221 0.0 0.0 0.0 0.0 0.0 0.0 
0.18739694 0.0 0.0 0.0 0.0 0.0 2.8362253 0.53578526 0.0 0.0 0.0 0.0 0.0 0.0 0.1478046 0.0 
0.4265678 0.0 0.0 0.0 0.0 0.0 0.0 0.0 0.0 0.0 0.0 0.0 0.0 0.0 0.0 0.0 
0.0 0.0 0.0 0.0 0.0 0.0 0.0 0.0 0.5640939 0.0 0.0 0.84506965 0.31721467 0.0 0.0 0.0 
0.0 0.0 0.0 0.0 0.0 0.0 0.0 0.0 0.0 0.0 0.0 1.3855909 0.7304094 0.0 0.0 0.0 
0.0 0.0 0.4492281 0.0 0.0 0.0 0.0 0.0 0.0 0.0 0.0 0.0 0.32396305 0.0 0.0 0.0 
0.0 0.0 0.0 0.0 0.0 0.0 0.0 0.0 0.0 0.0 0.12820302 0.0 0.0 0.0 0.0 0.0 
0.0 0.0 0.0 0.0 0.48922628 0.0 0.0 0.0 0.10524903 0.0 1.0394565 0.11148289 0.0 0.0 0.0 0.0 
0.0 0.0 0.0 0.0 0.5512653 2.0765452 0.0 0.0 0.0 0.054965485 1.4359101 0.0 0.0 0.0 0.0 0.0 
0.0 0.0 0.2868179 0.0 0.0 1.5879567 0.0 1.0491335 0.0 0.8493922 1.3141737 0.0 0.0 0.17301455 0.0 0.0 
0.0 0.0 1.4316837 0.0 0.0 0.0 1.0663733 1.7872832 0.0 0.47691435 0.79535514 0.0 0.0 0.12413094 0.0 0.0 
0.0 0.0 0.0 0.0 0.0 0.0 2.492125 0.26316744 0.0 0.0 0.0 0.0 0.33396786 0.13222772 0.6323607 0.0 
0.0 0.0 0.0 0.0 0.0 0.0 0.0 0.0 0.36698228 0.0 0.0 0.0 0.74915516 0.17218691 0.0 0.0 
0.0 0.0 0.0 0.0 0.0 0.0 0.0 0.0 1.5815548 0.0 0.0 0.0 0.7834036 0.13868624 0.0 0.0 
0.0 0.0 0.0 0.0 0.0 0.0 0.0 0.0 0.0 0.0 0.0 1.3270353 1.1502806 0.0 0.0 0.0 
0.0 0.0 0.1814017 0.0 0.0 0.0 0.0 0.0 0.0 0.0 0.0 0.58830595 0.6179972 0.0 0.0 0.0 
0.0 0.0 0.0 0.0 0.0 0.0 0.0 0.0 0.0 0.0 0.097418666 0.0 0.0 0.0 0.0 0.0 
0.0 0.0 0.0 0.0 0.2533802 0.0 0.0 0.0 0.109390065 0.0 1.0878779 0.19902515 0.0 0.0 0.0 0.0 
0.0 0.0 0.0 0.0 0.07612198 0.8961805 0.0 0.0 0.0 0.0 2.080882 0.0 0.0 0.0 0.0 0.0 
0.0 0.0 0.0 0.0 0.0 1.6328051 0.0 1.2853633 0.0 0.050789904 2.770074 0.0 0.0 0.22803143 0.0 0.0 
0.0 0.0 0.0 0.0 0.0 0.732555 1.3110284 1.3601958 0.0 0.0 2.8655639 0.0 0.2077064 1.0172399 0.0 0.0 
0.0 0.0 0.0 0.76482165 0.0 0.0 1.8168916 0.0 0.0 0.0 2.2282853 0.0 0.34422404 0.9468291 0.41510266 0.0 
0.0 0.0 0.0 0.0 0.0 0.0 0.0 0.0 2.15951 0.0 1.7853988 0.0 0.3404885 0.90455365 0.5721844 0.0 
0.0 0.0 0.0 0.0 0.0 0.0 0.0 0.0 2.097616 0.0 1.2678142 0.0 0.06227573 0.3479056 0.0 0.6826665 
0.0 0.0 0.0 0.60119987 0.0 0.0 0.0 0.0 0.0 0.0 0.68652016 0.63348484 0.41949624 0.0 0.0 0.8279111 
0.0 0.0 0.0 0.7801541 0.0 0.0 0.0 0.0 0.0 0.0 0.11960551 0.53949654 0.17946279 0.0 0.0 0.25666654 

