0.0 0.0 0.0 0.0 0.0 0.0 0.1800815 0.0 0.0 0.0 0.0 0.0 0.0 0.0 0.0 0.0 
0.029999565 0.18256374 0.0 0.0 0.329521 0.021785945 0.0 0.0 0.0 0.0 0.0 0.0149497315 0.0 0.0 0.0 0.0 
0.6302098 0.820264 0.5735902 0.0 0.0 0.0 0.0 0.0 0.0 0.0 0.0 0.0 0.0 0.0 0.0 0.6391642 
1.6159556 1.5343482 0.48257864 0.0 0.0 0.0 0.0 0.0 0.0 0.41890097 0.0 0.0 0.0 0.0 0.0 1.7549446 
2.9266858 1.5309987 0.0 0.0 0.0 0.0 0.0 0.0 0.0 0.7393314 0.0 0.0 0.0 0.0070261657 0.0 1.6695844 
3.542567 0.0 0.0 0.0 0.0 0.0 0.0 0.430488 0.0 0.8483531 0.0 0.0 0.0 0.40439054 0.0 0.092904605 
3.1716285 0.0 0.0 0.0 0.0 0.0 0.0 0.84907025 0.0 0.68386865 0.0 0.0 0.0 0.0 0.0 0.0 
2.330259 0.0 0.0 0.0 0.0 0.0 0.0 0.0 0.0 0.635312 0.0 0.23224789 0.3915854 0.0 0.0 0.0 
1.5889306 0.0 0.0 0.0 0.0 0.0 0.0 0.0 0.0 0.34956524 0.0 0.6177119 0.6164403 0.0 0.0 0.0 
0.9803433 0.0 0.2317372 0.0 0.0 0.30171895 0.0 0.0 0.0 0.0 0.0 0.0 0.16003537 0.0 0.0 0.0 
0.04145589 0.0 0.0 0.0 0.19951054 0.08017774 0.16697705 0.0 0.0 0.0 0.0 0.0 0.0 0.0 0.0 0.0 
0.66449326 0.2959 0.19363372 0.0 0.47060156 0.0 0.0 0.0 0.0 0.0 0.0 0.0 0.0 0.0 0.0 0.11587294 
0.8715449 0.59881335 1.2915939 0.0 0.0 0.0 0.0 0.0 0.0 0.8450398 0.0 0.0 0.0 0.0 0.47232825 2.4395638 
0.75626284 0.0 0.28058642 0.0 0.0 0.0 0.0 0.0 0.0 1.3195032 0.0 0.0 0.19941454 0.0 0.62228274 2.626119 
0.88346934 0.0 0.0 0.0 0.0 0.0 0.7871617 0.0 0.0 0.3194463 0.0 0.0 1.3804854 1.0850083 0.2661742 0.0 
1.3905572 0.0 0.0 0.0 0.0 0.0 0.0 0.40644932 0.0 0.0 0.0 0.0 1.4300371 3.4827893 0.0 0.0 
1.4954327 0.0 0.0 0.0 0.0 0.0 0.0 0.0 0.0 0.0 0.0 0.0 1.3609456 3.4255006 0.0 0.0 
0.9041145 0.0 0.0 0.0 0.0 0.0 0.0 0.0 0.0 0.0 0.035788 0.0 1.6358919 1.5446144 0.0 0.0 
0.5717221 0.0 0.0 0.0 0.0 0.0 0.0 0.0 0.0 0.0 0.0 1.5467049 1.5220786 0.6660989 0.0 0.0 
0.513166 0.0 0.60379577 0.0 0.0 0.0 0.0 0.0 0.0 0.0 0.0 0.65481174 0.7028652 0.4859812 0.0 0.0 
0.3065182 0.0 0.0 0.0 0.30751795 0.2532116 0.0 0.0 0.0 0.0 0.0 0.0 0.0 0.0 0.0 0.0 
0.29146785 0.34349072 0.5052093 0.0 0.58564883 0.0 0.0 0.0 0.0 0.2876618 0.0 0.0 0.0 0.0 0.42353857 0.8444763 
0.0 0.0 1.7019906 0.0 0.0 0.0 0.0 0.0 0.0 0.2619578 0.0 0.0 0.31523657 0.0 0.39934862 2.4159331 
0.0 0.0 0.0 0.0 0.0 0.0 0.7355817 0.0 0.0 0.0 0.0 0.0 1.7350307 0.0 0.0 0.0 
0.0 0.0 0.0 0.0 0.0 0.0 0.0 0.0 0.0 0.0 0.0 0.0 1.9174724 0.0 0.0 0.0 
0.0 0.0 0.0 0.0 0.0 0.0 0.0 0.0 0.0 0.0 0.0 0.0 1.0404235 0.0 0.60007983 0.0 
0.0 0.36261672 0.0 0.9155757 0.0 0.0 0.0 0.0 0.24165776 0.0 0.0 0.0 0.0 0.16173875 1.3723814 0.0 
0.0 1.7415295 0.0 2.7844524 0.0 0.0 0.0 0.0 0.0 0.0 0.1408717 0.0 0.063532576 0.0 0.0 0.0 
0.0 0.7798225 0.0 2.5048969 0.31136125 0.0 0.0 0.0 0.0 0.0 0.16451934 1.3326617 0.1871354 0.0 0.0 0.00073585333 
0.0 0.0 0.0 1.237789 0.39502215 0.0 0.0 0.0 0.0 0.0 0.09701806 1.2872491 0.45272362 0.034200765 0.0 0.0 
0.0 0.0 0.0 0.0 0.46264488 0.44185758 0.0 0.0 0.0 0.0 0.067579396 0.0 0.0 0.0 0.0 0.0 
0.0 0.0 0.0 0.0 0.40868992 0.94190806 0.0 0.0 0.0 0.0 0.0 0.0 0.0 0.0 0.0 0.4140809 
0.0 0.0 0.33385366 0.0 0.0 0.0 0.0 0.56906444 0.0 0.0 0.0 0.0 0.2968846 0.0 0.0 0.0 
0.0 0.12383344 0.0 0.0 0.0 0.0 1.0572802 1.8280635 0.0 0.0 0.0 0.0 0.0 0.0 0.0 0.0 
0.8114957 0.23824528 0.0 0.0 0.0 0.0 0.0 0.38076043 0.0 0.0 0.0 0.06880993 0.0 0.0 0.0 0.0 
0.74861616 0.29915357 0.0 0.0 0.0 0.0 0.0 0.0 0.0 1.1862104 0.0 0.0 0.0 0.0 0.0 0.0 
0.0 0.0 0.0 0.0 0.0 0.0 0.0 0.0 0.0 1.8117577 0.0 0.0 0.0 0.0 1.4612045 0.0 
0.0 0.0 0.0 0.0 0.0 0.0 0.0 0.0 0.0 1.9089111 0.0 0.0 0.0 0.0 1.0914129 0.0 
0.0 0.0 0.0 0.0 0.0 0.0 0.0 0.0 0.0 0.64199233 0.0 0.0 0.0 0.0 0.0 0.0 
0.0 0.0 0.0 0.0 0.0 0.0 0.0 0.0 0.0 0.0 0.0 0.400295 0.17768826 0.0 0.0 0.0 
0.0 0.0 0.0 0.0 0.52275676 0.21939725 0.0 0.0 0.0 0.0 0.909313 0.0 0.0 0.0 0.0 0.0 
0.0 0.0 0.0 0.0 0.0 2.8735073 0.0 0.0 0.0 0.0 0.8799562 0.0 0.0 0.5671996 0.0 0.0 
0.02739456 0.0 0.0 0.0 0.0 0.6625994 0.39941475 1.9445114 0.0 0.0 0.6963489 0.0 0.0 1.6583322 0.0 0.0 
1.0261465 0.0 0.0 0.0 0.0 0.0 2.4429505 1.2483162 0.0 0.65246475 0.8332056 0.0 0.0 1.0219074 0.0 0.0 
0.94869214 0.0 0.0 0.0 0.0 0.0 0.0 0.0 0.0 1.6226771 0.0 0.0 0.0 0.41169128 0.0 0.0 
0.55140334 0.0 0.0 0.0 0.0 0.0 0.0 0.0 0.0 1.8342254 0.0 0.0 0.0 0.0 0.0 0.0 
0.0 0.0 0.46676135 0.0 0.0 0.0 0.0 0.0 0.0 0.6221318 0.0 0.0 0.7344932 0.0 0.0 0.0 
0.0 0.0 0.0 0.0 0.0 0.0 0.5581999 0.0 0.0 0.0 0.0 0.0 1.7281222 0.0 0.0 0.0 
0.052494492 0.0 0.0 0.0 0.0 0.0 0.0 0.0 0.2078082 0.0 0.0 0.0 1.7136253 0.0 0.0 0.0 
0.0 0.0 0.0 0.0 0.0 0.0 0.0 0.0 1.0272442 0.0 0.0 0.2570434 0.67004216 0.0 0.0 0.0 
0.0 0.0 0.0 0.0 0.14166191 0.0 0.0 0.0 0.0 0.0 1.1282291 0.27958205 0.0 0.0 0.0 0.0 
0.0 0.0 0.0 0.0 0.0 1.869827 0.0 0.30697417 0.0 0.0 2.0227246 0.0 0.0 0.0 0.07200657 0.0 
0.0 0.0 0.0 0.0 0.0 1.4925115 1.6162003 0.39248204 0.0 0.0 2.3650434 0.0 0.0 2.1973774 0.3678956 0.0 
0.0 0.0 0.0 0.0 0.0 0.0 1.4452599 0.0 0.0 0.0 3.0731134 0.0 0.0 3.1544237 0.0 0.0 
0.0 0.0 0.0 0.0 0.0 0.0 0.0 0.0 0.061548132 0.0 1.59716 0.0 0.0 1.7615236 0.0 0.0 
0.0 0.0 0.3154019 0.0 0.0 0.0 0.0 0.0 0.0 0.0 0.605753 0.0 1.597467 0.0 0.0 0.0 
0.0 0.0 0.0 0.0 0.0 0.0 1.1741357 0.0 0.0 0.0 0.0 0.0 2.8937862 0.0 0.29625303 0.0 
0.0 0.0 0.0 0.0 0.0 0.0 1.8310221 0.31491572 0.0 0.0 0.0 0.0 1.6116102 0.0033121407 0.0 0.0 
0.0 0.0 0.0 0.0 0.0 0.0 0.0 0.0 3.698739 0.0 0.0 0.0 0.3841526 0.14187208 0.0 0.0 
0.0 0.0 0.0 0.0 0.0 0.0 0.0 0.0 1.2808621 0.0 0.29489273 0.19433403 0.26535422 0.069466375 0.0 0.0 
0.0 0.3027868 0.0 0.0 0.0 0.0 0.0 0.11244318 0.0 0.0 0.66702694 0.38472596 0.0 0.0 0.0 0.0 
0.0 1.1064366 0.0 0.0 0.0 0.6339599 0.0 0.0 0.0 0.0 0.47545382 0.0 0.0 0.0 0.0 0.0 
0.0 1.3761401 0.0 0.38765866 0.0 0.6323532 0.14651339 0.0 0.0 0.0 0.26246968 0.0 0.0 0.0 0.52587616 0.0 
0.0 1.3110207 0.0 0.3127101 0.0 0.0 0.0 0.0 0.0 0.0 0.692753 0.0 0.0 0.0 2.1290307 0.0 
0.0 2.0379229 0.0 0.0 0.0 0.0 0.0 0.0 0.0 0.0 1.2887751 0.0 0.0 0.0 2.2753894 0.6653143 
0.0 2.1795788 0.0 1.9823431 0.0 0.0 0.0 0.0 0.0 0.0 0.43626103 0.0 0.0 0.0 0.9795553 0.0 
0.0 0.0 0.0 3.4317963 0.0 0.0 2.861641 0.09489365 0.0 0.0 0.0 0.0 0.4237668 0.0 0.0 0.0 
0.0 0.0 0.0 1.3992705 0.0 0.0 0.08861644 0.0 1.4293146 0.0 0.0 0.0 0.27016538 0.0 0.0 0.0 
0.0 0.0 0.0 0.037182707 0.0 0.0 0.0 0.0 2.6134257 0.0 0.16808118 0.0 0.0 0.0 0.0 0.0 
0.0 0.0 0.0 0.0 0.0 0.106178716 0.0 0.0 0.0 0.0 0.31958017 0.0 0.0 0.0 0.0 0.6726298 
0.14352259 0.25078243 0.0 0.0 0.0 0.0 0.11874339 0.07739806 0.0 0.0 0.2436873 0.25103197 0.0 0.0 0.0 0.0 
0.26587686 0.7743816 0.0 0.6383923 0.0 0.0 0.2938491 0.0 0.0 0.089218795 0.0 0.27519494 0.0 0.0 0.0 0.0 
0.082298234 1.3822539 0.0 1.0184374 0.0 0.0 0.0 0.0 0.0 1.2332762 0.0 0.0 0.0 0.0 0.0 0.0 
0.0 1.6343565 0.0 0.0 0.13615534 0.0 0.0 0.0 0.554472 2.9900272 0.0 0.0 0.0 0.0 0.0 0.0 
0.0 0.591496 0.0 0.0 0.0 0.0 0.0 0.0 0.0 3.5692647 0.0 0.0 0.0 0.0 0.2830904 2.3136907 
0.0 0.0 0.0 1.1437896 0.0 0.0 1.0049515 0.0 0.0 2.710471 0.0 0.0 0.0 0.0 0.0 0.0 
0.0 0.0 0.0 1.7230309 0.0 0.0 2.347131 0.24496351 0.0 0.40440404 0.0 0.0 0.0 0.0 0.0 0.0 
0.0 0.0 0.0 0.13865517 0.0 0.0 0.0 0.0 3.1433039 0.0 0.0 0.0 0.0 0.0 0.0 0.0 
0.0 0.0 0.0 0.0 0.0 0.48959088 0.0 0.0 1.3404199 0.0 0.0 0.0 0.0 0.0 0.0 0.74886423 
0.0 0.0 0.0 0.0 0.0 0.07774855 0.0 0.0 0.0 0.0 0.15739954 0.0 0.0 0.0 0.0 0.9124647 
0.19773729 0.13301058 0.0 0.0690764 0.0 0.0 0.23931499 0.0 0.0 0.0 0.014281159 0.0 0.0 0.0 0.0 0.0 
0.7667282 0.43776563 0.0 0.0 0.03843341 0.0 0.29788476 0.0 0.0 0.056321505 0.0 0.0 0.0 0.0 0.0 0.0 
0.8995513 0.9412755 0.0 0.0 0.60059965 0.0 0.0 0.0 0.0 1.1883967 0.0 0.0 0.0 0.0 0.0 0.0 
0.0 0.7049435 0.0 0.0 0.5690995 0.0 0.0 0.0 0.0 2.3141985 0.0 0.0 0.0 0.0 0.0 2.4115443 
0.0 0.0 0.019595776 0.0 0.0 0.0 0.15271868 0.0 0.0 1.4932528 0.0 0.0 0.0 0.0 0.0 0.0 
0.0 0.0 0.0 0.0 0.0 0.0 3.8309338 1.5392634 0.0 0.0 0.0 0.0 0.0 0.0 0.0 0.0 
0.0 0.0 0.0 0.0 0.0 0.0 0.9809512 0.49485403 1.9565382 0.0 0.0 0.0 0.0 0.0 0.0 0.0 
0.0 0.0 0.0 0.0 0.0 0.0 0.0 0.0 3.7525995 0.0 0.0 0.0 0.0 0.0 0.0 0.0 
0.0 0.0 0.0 0.0 0.0 0.4894514 0.0 0.0 0.0 0.0 0.20112205 0.0 0.0 0.0 0.0 0.7489527 
0.0 0.0 0.0 0.019906737 0.0 0.0 0.0 0.0 0.0 0.0 0.0 0.0 0.0 0.0 0.0 0.69993883 
0.08641796 0.0 0.0 0.0 0.0 0.021858059 0.0 0.0 0.0 0.0 0.047609173 0.0 0.0 0.054175176 0.0 0.0 
0.5044751 0.0 0.0 0.0 0.06124448 0.3481784 0.0 0.0 0.0 0.22564125 0.09097164 0.0 0.0 0.08676224 0.0 0.0 
0.1503346 0.0 0.0 0.0 0.52973044 0.46881443 0.0 0.0 0.0 0.607118 0.43845147 0.0 0.0 0.0 0.22574814 1.0596452 
0.0 0.0 0.0 0.0 0.0 0.0 0.0 0.43384767 0.0 0.3755815 0.43894553 0.0 0.0 0.0 0.0 0.30231395 
0.0 0.0 0.083023146 0.0 0.0 0.0 1.7204151 2.2973304 0.0 0.0 0.0 0.0 0.32063317 0.0 0.0 0.0 
0.0 0.0 0.0 0.0 0.0 0.0 2.7345822 2.1810632 0.0 0.0 0.0 0.0 0.2043799 0.0 0.0 0.0 
0.0 0.0 0.0 0.0 0.0 0.0 0.0 0.0 4.5373273 0.0 0.0 0.0 0.22280248 0.0 0.0 0.0 
0.0 0.0 0.0 0.0 0.0 0.10350734 0.0 0.0 1.8504529 0.0 0.023730384 0.0 0.0 0.0 0.0 0.8767667 
0.0 0.0 0.0 0.0 0.0 0.0 0.0 0.0 0.0 0.0 0.16730168 0.0 0.0 0.0 0.0 0.81596684 
0.0 0.084480666 0.0 0.27300277 0.0 0.0 0.0 0.0 0.0 0.0 0.0 0.0 0.011527486 0.0 0.0 0.22315957 

