0.89980894 0.0 0.0 0.0 0.0 0.8292692 0.0 0.0 0.0 0.0 0.0 0.0 0.0 0.684847 0.0 0.0 
1.8323972 0.2088428 0.0 0.0 0.0 0.5663155 0.0 0.0 0.0 0.0 0.0 0.0 0.0 1.2672181 0.0 0.3100178 
2.223273 0.55656993 0.0 0.0 0.0 0.0 0.0 0.15548344 0.0 0.06008708 0.0 0.0 0.0 0.78377 0.0 0.35150996 
2.931487 0.15523063 0.0 0.0 0.0 0.0 0.0 0.0 0.0 0.42873478 0.0 0.0 0.0 0.0 0.0 0.0 
3.5270197 0.0 0.0 0.0 0.0 0.0 0.0 0.0 0.0 0.28238285 0.0 0.0 0.0 0.0 0.0 0.0 
3.6038954 0.0 0.0 0.0 0.0 0.0 0.0 0.0 0.0 0.49206132 0.0 0.0 0.0 0.0 0.0 0.0 
2.8533766 0.30602843 0.0 0.0 0.0 0.0 0.0 0.0 0.0 0.6097891 0.0 0.0 0.0 0.0 0.0 0.0 
1.5827327 0.0 0.0 0.0 0.0 0.0 0.0 0.0 0.0 0.9790107 0.0 1.1783758 0.0 0.0 0.0 0.0 
0.95568615 0.0 0.0 0.0 0.9646801 0.14831114 0.0 0.0 0.0 0.6590455 0.0 1.5603198 0.0 0.0 0.0 0.0 
0.37244028 0.0 0.0 0.29901424 1.0838408 0.8839651 0.0 0.0 0.0 0.08285013 0.0 0.0 0.0 0.37763432 0.0 0.0 
0.0 0.0 0.0 0.0 0.0 0.28289592 0.0 0.0 0.0 0.13484903 0.8344174 0.0 0.1253689 0.5892358 0.13432343 0.16817263 
0.0 0.0 0.0 0.0 0.0 1.2947423 0.0 0.0 0.0 0.0 1.2215656 0.0 0.37681544 2.4855938 0.5661362 0.0 
1.1077807 0.0 0.0 0.0 0.0 0.0 0.0 0.0 0.0 0.0 1.334775 0.0 0.55095255 4.400501 0.2421061 0.0 
2.243267 0.0 0.0 0.0 0.0 0.0 0.0 0.0 0.0 0.0 1.4252408 0.0 0.37873918 4.8906507 0.0 0.0 
2.579228 0.0 0.0 0.0 0.0 0.0 0.0 0.0 0.0 0.0 0.0 0.0 0.26865238 4.2110887 0.0 0.0 
3.42712 0.0 0.591436 0.0 0.0 0.0 0.0 0.0 0.0 0.0 0.0 0.0 0.49338114 2.9161491 0.0 0.0 
3.2169766 0.0 2.0954833 0.0 0.0 0.0 0.0 0.0 0.0 0.0 0.0 0.0 0.94912523 0.5213724 0.0 0.0 
2.6350908 0.0 0.3922385 0.0 0.0 0.0 0.0 0.0 0.0 0.0 0.0 1.0156022 1.5985396 0.0 0.0 0.0 
2.1484582 0.0 0.0 0.0 0.0 0.0 0.0 0.0 0.0 0.0 0.0 2.8810084 1.7740132 0.0 0.0 0.0 
1.3789592 0.0 0.0 0.0 0.0 0.0 0.0 0.0 0.0 0.0 0.0 1.2248578 0.83841103 0.0 0.0 0.0 
0.0 0.2107863 0.0 0.0 0.0 0.0 0.0 0.0 0.0 0.0 0.6826424 0.0 0.43139827 0.0 0.21338637 0.0 
0.0 0.28999865 0.0 0.0 0.0 0.16174364 0.0 0.0 0.0 0.0 1.3288463 0.0 0.8410852 0.0 1.4075431 0.0 
0.0 0.0 0.0 0.0 0.0 0.0 0.0 0.0 0.0 0.0 2.2570255 0.0 1.4558189 1.1196119 2.7673001 0.0 
0.0 0.0 0.0 0.0 0.0 0.0 0.0 0.0 0.0 0.0 3.6608918 0.0 1.4282213 2.6989505 2.6437337 0.0 
0.0 0.0 0.0 0.0 0.0 0.0 0.0 0.0 0.0 0.0 3.6181254 0.0 1.1590123 3.6235979 1.9025257 0.0 
0.0 0.0 0.0 0.0 0.0 0.0 0.0 0.0 0.0 0.0 1.4115167 0.0 1.5926677 3.5015576 2.2620502 0.0 
0.0 0.0 1.1475158 0.0 0.0 0.0 0.0 0.0 0.0 0.0 0.062279277 0.0 2.014858 2.0388095 1.2352139 0.0 
0.56987876 0.0 0.0 0.0 0.0 0.0 0.21066676 0.0 0.0 0.0 0.0 0.0 1.9441316 0.88940084 0.0 0.0 
0.658237 0.0 0.0 0.0 0.0 0.0 0.0 0.0 0.0 0.0 0.0 2.2691877 1.5782309 0.09736001 0.0 0.0 
0.53956 0.0 0.0 0.0 0.0 0.0 0.0 0.0 0.41624308 0.0 0.0 2.3276925 1.2253991 0.0 0.0 0.0 
0.0 0.49312618 0.0 0.0 0.0 0.0 0.0 0.02574478 0.0 0.0 0.22745425 0.35236052 0.0 0.0 0.0 0.0 
0.0 1.3598113 0.0 0.13699463 0.0 0.0 0.0 0.17638159 0.0 0.0 0.19603401 0.0 0.0 0.0 0.0 0.0 
0.0 1.8855121 0.0 0.95752865 0.0 0.0 0.0 0.0 0.0 0.0 0.22426331 0.0 0.0 0.0 0.4146554 0.0 
0.0 1.7218435 0.0 1.5562649 0.0 0.0 0.0 0.0 0.0 0.0 0.68141294 0.0 0.0 0.0 2.0933192 0.0 
0.0 1.9391414 0.0 1.4076376 0.0 0.0 0.0 0.0 0.0 0.0 0.31350833 0.0 0.0 0.0 3.8936493 0.0 
0.0 1.8207511 0.0 1.4899884 0.0 0.0 0.0 0.0 0.0 0.0 0.0 0.0 0.0 0.0 5.2029634 0.0 
0.0 0.0 0.0 1.9001958 0.0 0.0 0.0 0.0 0.0 0.0 0.0 0.0 0.38941908 0.0 4.503407 0.0 
0.0 0.0 0.0 0.71677417 0.0 0.0 1.2022219 0.0 0.0 0.0 0.0 0.0 0.8341297 0.0 1.5481286 0.0 
0.0 0.0 0.0 0.0 0.0 0.0 0.0 0.0 0.3254119 0.0 0.0 0.049558222 0.71300024 0.0 0.0 0.0 
0.0 0.0 0.0 0.0 0.0 0.0 0.0 0.0 1.0159165 0.0 0.0 1.4665227 0.59909034 0.0 0.0 0.0 
0.30626562 0.23943709 0.0 0.21486413 0.0 0.0 0.20488238 0.18945433 0.0 0.26905993 0.14540577 0.0 0.0 0.0 0.0 0.0 
0.2791789 0.51940393 0.0 0.7900997 0.0 0.0 0.39978367 0.0 0.0 0.9467501 0.0 0.043220207 0.0 0.0 0.0 0.0 
0.0 0.84176695 0.0 1.446393 0.0 0.0 0.5774803 0.0 0.0 1.6609225 0.0 0.023737997 0.0 0.0 0.0 0.0 
0.0 1.2986851 0.0 0.78442925 0.21030822 0.0 0.0 0.0 0.0 2.5900803 0.0 0.0 0.0 0.0 0.0 0.0 
0.0 1.4988235 0.0 0.0 0.5775724 0.0 0.0 0.0 0.0 3.9062457 0.0 0.0 0.0 0.0 0.0 0.40725666 
0.0 0.5012039 0.003828261 0.0 0.0 0.0 0.0 0.0 0.0 3.777214 0.0 0.0 0.0 0.0 1.1858371 1.2527392 
0.0 0.0 0.0 0.1886742 0.0 0.0 1.5318456 0.0 0.0 2.086032 0.0 0.0 0.0 0.0 1.8823395 0.0 
0.0 0.0 0.0 0.14842053 0.0 0.0 1.2426931 0.0 0.0 0.0 0.0 0.0 0.0 0.0 0.8255345 0.0 
0.0 0.0 0.0 0.0 0.0 0.0 0.0 0.0 2.6289835 0.0 0.0 0.0 0.0 0.0 0.0 0.0 
0.0 0.0 0.0 0.0 0.0 0.0 0.0 0.0 1.0305276 0.0 0.18270661 0.0 0.0 0.0 0.0 0.0 
0.041620824 0.0649607 0.0 0.114866585 0.0 0.0 0.14441861 0.0 0.0 0.0 0.022174837 0.0 0.0 0.0 0.0 0.0 
0.20601524 0.078431375 0.0 0.26137263 0.0 0.0 0.58450323 0.0 0.0 0.0 0.0 0.0 0.0 0.0 0.0 0.0 
0.60392916 0.28766376 0.0 0.0 0.55313015 0.0 0.2960317 0.0 0.0 0.3411353 0.0 0.0 0.0 0.0 0.0 0.0 
0.40041667 0.60417724 0.0 0.0 1.1066778 0.0 0.0 0.0 0.39733806 1.4519584 0.0 0.0 0.0 0.0 0.0 1.2174693 
0.0 0.2189001 0.8462887 0.0 0.83852077 0.0 0.0 0.0 0.0 2.1963303 0.0 0.0 0.0 0.0 0.0 3.0696757 
0.0 0.0 0.7249228 0.0 0.0 0.0 1.1002382 0.0 0.0 1.2088914 0.0 0.0 0.0 0.0 0.0 0.0 
0.0 0.0 0.0 0.0 0.0 0.0 4.2423058 1.7587543 0.0 0.0 0.0 0.0 0.0 0.0 0.0 0.0 
0.0 0.0 0.0 0.0 0.0 0.0 1.0325298 0.2954725 2.63563 0.0 0.0 0.0 0.17745058 0.0 0.0 0.0 
0.0 0.0 0.0 0.0 0.0 0.0 0.0 0.0 3.9945147 0.0 0.0 0.0 0.0 0.0 0.0 0.0 
0.0 0.0 0.0 0.0 0.0 0.27586883 0.0 0.0 0.045983616 0.0 0.3116333 0.0 0.0 0.0 0.0 0.9237799 
0.0 0.0 0.0 0.0 0.0 0.0 0.16659987 0.0 0.0 0.0 0.0 0.0 0.0 0.0 0.0 0.0 
0.089880526 0.017630495 0.0 0.0 0.43409264 0.03810817 0.05632791 0.0 0.0 0.0 0.0 0.0 0.0 0.0 0.0 0.0 
0.28258744 0.35607776 0.2788021 0.0 0.7920472 0.0 0.0 0.0 0.0 0.17625305 0.0 0.0 0.0 0.0 0.0 0.6984264 
0.0 0.30361158 1.1482894 0.0 1.0602494 0.0 0.0 0.0 0.0 1.104821 0.0 0.0 0.0 0.0 0.55160445 2.7918446 
0.0 0.0 0.7697583 0.0 0.05392743 0.0 0.0 0.0 0.0 0.5714981 0.0 0.0 0.0 0.0 0.0 1.4422493 
0.0 0.0 0.0 0.0 0.0 0.0 3.1101322 2.783122 0.0 0.0 0.0 0.0 0.37977922 0.0 0.0 0.0 
0.0 0.0 0.0 0.0 0.0 0.0 2.7927902 3.2272503 0.44018367 0.0 0.0 0.0 0.0 0.0 0.0 0.0 
0.0 0.0 0.0 0.0 0.0 0.0 0.0 0.0 4.873631 0.0 0.0 0.0 0.0 0.0 0.0 0.0 
0.0 0.0 0.0 0.0 0.0 0.03817123 0.0 0.0 2.1521015 0.0 0.058058128 0.0 0.0 0.0 0.0 0.684272 
0.0 0.0 0.0 0.0 0.0 0.082926705 0.0 0.0 0.0 0.0 0.2616166 0.0 0.0 0.0 0.0 1.0613654 
0.014011193 0.0 0.0 0.0 0.16914645 0.08146423 0.21676208 0.0 0.0 0.0 0.0 0.0 0.0 0.0 0.0 0.0 
0.42386124 0.27798313 0.0 0.0 0.8131558 0.0 0.0 0.0 0.0 0.0 0.0 0.0 0.0 0.0 0.0 0.0 
0.0 0.62703985 1.1257257 0.0 0.96035624 0.0 0.0 0.0 0.23244661 0.8834689 0.0 0.0 0.0 0.0 0.5461554 2.4242148 
0.0 0.0 1.0676185 0.0 0.24216568 0.0 0.0 0.0 0.0 0.84590775 0.0 0.0 0.0 0.0 0.0 2.901661 
0.0 0.0 0.0 0.0 0.0 0.0 1.7481017 1.6654125 0.0 0.13139422 0.0 0.0 0.597423 0.0 0.0 0.0 
0.0 0.0 0.0 0.0 0.0 0.0 3.1934578 3.9110847 0.0 0.0 0.0 0.0 0.06411269 0.0 0.0 0.0 
0.0 0.0 0.0 0.039910026 0.0 0.0 0.0 1.3619862 4.1117535 0.0 0.0 0.0 0.0 0.0 0.0 0.0 
0.0 0.0 0.0 0.0 0.0 0.0 0.0 0.0 3.8558064 0.0 0.32937878 0.0 0.0 0.0 0.0 0.0 
0.0 0.0 0.0 0.0 0.0 0.3112155 0.0 0.0 0.0 0.0 0.5101753 0.0 0.0 0.0 0.0 1.3595567 
0.0 0.0 0.0 0.10793711 0.02765327 0.0 0.0 0.0 0.0 0.0 0.05205854 0.0 0.0 0.0 0.0 0.8433505 
0.3754006 0.105801135 0.0 0.0 0.22201267 0.22573388 0.0 0.0 0.0 0.0 0.0 0.0 0.0 0.0 0.0 0.0 
0.4687393 0.5094597 0.0 0.0 0.8898646 0.0 0.0 0.0 0.0 0.2145518 0.0 0.0 0.0 0.0 0.0 0.6414658 
0.0 0.29742876 0.6113709 0.0 0.28811008 0.0 0.0 0.0 0.0 0.8070587 0.0 0.0 0.0 0.0 0.0 2.4130921 
0.0 0.0 0.0 0.0 0.0 0.0 0.0 1.1958295 0.0 0.23379654 0.0 0.0 0.13378593 0.0 0.0 0.0 
0.0 0.0 0.0 0.0 0.0 0.0 2.5965483 3.6588254 0.0 0.0 0.0 0.07222593 0.12325391 0.0 0.0 0.0 
0.0 0.0 0.0 0.17800255 0.0 0.0 0.7982061 2.831566 1.9507079 0.0 0.0 0.0 0.0 0.0 0.0 0.0 
0.0 0.0 0.0 0.73984355 0.0 0.0 0.0 0.0 4.338898 0.0 0.2845648 0.0 0.0 0.018455677 0.0 0.0 
0.0 0.0 0.0 0.10547714 0.0 0.41437817 0.0 0.0 1.0010368 0.0 0.60415226 0.0 0.0 0.03820041 0.0 1.4123042 
0.0 0.0 0.0 0.17560303 0.011214212 0.08300622 0.0 0.0 0.0 0.0 0.2895711 0.0 0.0 0.0 0.0 1.2454599 
0.0 0.088839985 0.0 0.29910165 0.047462665 0.0 0.0 0.0 0.0 0.0 0.0 0.0 0.0 0.0 0.0 0.29393947 
0.27452338 0.0 0.0 0.0 0.19404158 0.3136383 0.0 0.0 0.0 0.21792611 0.3908076 0.0 0.0 0.008052766 0.0 0.0 
0.0 0.0 0.0 0.0 0.5152728 0.9716795 0.0 0.0 0.0 0.5108008 0.64809155 0.0 0.0 0.0 0.08315514 1.0277708 
0.0 0.0 0.015993748 0.0 0.0 0.19168803 0.0 0.89690053 0.0 0.00064694136 0.3159596 0.0 0.0 0.045855924 0.0 0.0 
0.0 0.0 0.0 0.0 0.0 0.0 1.7347932 3.3026497 0.0 0.0 0.0 0.0 0.20263566 0.0 0.0 0.0 
0.0 0.0 0.0 0.0 0.0 0.0 2.4901843 2.847964 0.0 0.0 0.0 0.0 0.0 0.0 0.0 0.0 
0.0 0.0 0.0 0.0 0.0 0.0 0.0 0.0 4.331903 0.0 0.0 0.10637969 0.0 0.0 0.0 0.0 
0.0 0.0 0.0 0.0 0.0 0.0 0.0 0.0 1.9227619 0.0 0.0 0.0 0.0 0.0 0.0 0.4033259 
0.0 0.0 0.0 0.0 0.0 0.5716678 0.0 0.0 0.0 0.0 0.19656742 0.0 0.0 0.0 0.0 1.3355359 
0.0 0.10515144 0.0 0.1573087 0.21089312 0.0 0.0 0.0 0.0 0.0 0.0 0.0 0.0 0.0 0.0 0.6923454 
0.0 0.020986436 0.0 0.1300115 0.0 0.0 0.0 0.0 0.0 0.0 0.0 0.0 0.0 0.0 0.0 0.0 

