0.0 0.0 0.0 0.0 0.0 0.0 0.11807163 0.0 0.0 0.0 0.0 0.0 0.0 0.0 0.0 0.0 
0.0 0.081560224 0.0 0.0 0.23872125 0.0 0.103513986 0.0 0.0 0.0 0.0 0.0 0.0 0.0 0.0 0.0 
0.3046233 0.5195787 0.54312754 0.0 0.26679105 0.031865507 0.0 0.0 0.0 0.0 0.0 0.0 0.0 0.0 0.0 0.16046949 
0.95101696 1.1969595 1.086165 0.0 0.04078769 0.0 0.0 0.0 0.0 0.0 0.0 0.0 0.0 0.0 0.0 1.032847 
2.037002 2.1398518 0.95302546 0.0 0.0 0.0 0.0 0.0 0.0 0.43369204 0.0 0.0 0.0 0.0 0.0 1.8162564 
3.1372697 1.536531 0.0 0.0 0.0 0.0 0.0 0.0 0.0 0.6165537 0.0 0.0 0.0 0.0 0.0 1.1503927 
3.6486716 0.0 0.0 0.0 0.0 0.0 0.0 0.0 0.0 0.3828484 0.0 0.0 0.0 0.0 0.0 0.0 
3.4790764 0.0 0.0 0.0 0.0 0.0 0.0 0.0 0.0 0.20185916 0.0 0.0745174 0.0 0.0 0.0 0.0 
2.4758077 0.0 0.0 0.0 0.0 0.0 0.0 0.0 0.0 0.39841327 0.0 0.58893263 0.0 0.0 0.0 0.0 
1.458951 0.0 0.0 0.0 0.0 0.0 0.0 0.0 0.0 0.6314448 0.0 1.6773897 0.055984892 0.0 0.0 0.0 
0.0 0.04501544 0.0 0.0 0.24381927 0.0 0.12823242 0.0 0.0 0.0 0.0 0.0 0.0 0.0 0.0 0.0 
0.3835135 0.432485 0.51775503 0.0 0.374613 0.0034350976 0.0 0.0 0.0 0.0 0.0 0.0 0.0 0.0 0.0 0.18250005 
0.7336588 0.86759615 1.0217137 0.0 0.34053797 0.0 0.0 0.0 0.0 0.6669396 0.0 0.0 0.0 0.0 0.13655885 1.5950934 
1.3771776 0.73130625 1.0222576 0.0 0.0 0.0 0.0 0.0 0.0 1.2663261 0.0 0.0 0.0 0.0 0.73980904 2.9272912 
2.3759723 0.0 0.0 0.0 0.0 0.0 0.0 0.0 0.0 1.0475646 0.0 0.0 0.0 0.28042004 0.7603013 1.5890831 
3.1845977 0.0 0.0 0.0 0.0 0.0 0.0 0.4941914 0.0 0.061704356 0.0 0.0 0.35801828 1.3306109 0.0 0.0 
3.5831273 0.0 0.0 0.0 0.0 0.0 0.0 0.0 0.0 0.0 0.0 0.0 0.29582185 2.8473566 0.0 0.0 
3.6371403 0.0 0.0 0.0 0.0 0.0 0.0 0.0 0.0 0.0 0.0 0.0 0.3571846 2.5946133 0.0 0.0 
2.8467243 0.0 1.0314326 0.0 0.0 0.0 0.0 0.0 0.0 0.0 0.0 0.0 1.0326043 0.06711785 0.0 0.0 
1.790585 0.0 0.12697165 0.0 0.0 0.0 0.0 0.0 0.0 0.0 0.0 2.3331378 1.8627474 0.0 0.0 0.0 
0.37903413 0.30893642 0.33603805 0.0 0.54534674 0.0 0.0 0.0 0.0 0.0 0.0 0.0 0.0 0.0 0.0 0.0 
0.5565713 0.75080276 1.1413578 0.0 0.4388777 0.0 0.0 0.0 0.0 0.7949902 0.0 0.0 0.0 0.0 0.33350557 1.7749962 
0.38090372 0.30735815 1.2958022 0.0 0.07663158 0.0 0.0 0.0 0.0 1.4304153 0.0 0.0 0.0 0.0 0.90241367 3.3370101 
0.0 0.0 0.0 0.0 0.0 0.0 0.0 0.0 0.0 0.7560503 0.0 0.0 0.9989458 0.0 1.0657578 1.1230313 
0.0 0.0 0.0 0.0 0.0 0.0 0.0 1.334899 0.0 0.0 0.0 0.0 2.0796309 0.0 1.0605037 0.0 
0.0 0.0 0.0 0.0 0.0 0.0 0.0 1.3061876 0.0 0.0 0.0 0.0 2.951615 0.5951563 1.3149421 0.0 
0.0 0.0 0.0 0.0 0.0 0.0 0.0 0.0 0.0 0.0 1.0176919 0.0 2.5877185 2.1845143 1.78901 0.0 
0.0 0.0 0.0 0.0 0.0 0.0 0.0 0.0 0.0 0.0 0.34732157 0.0 1.5681467 4.119399 1.9181588 0.0 
0.0 0.0 0.33338183 0.0 0.0 0.0 0.0 0.0 0.0 0.0 0.0 0.0 1.2726206 2.9241433 0.20965545 0.0 
0.0 0.0 0.0 0.0 0.0 0.0 0.0 0.0 0.0 0.0 0.0 0.06928395 1.2742909 0.34025487 0.0 0.0 
0.46917042 0.37523708 1.0636084 0.0 0.63760805 0.0 0.0 0.0 0.018736206 0.54769486 0.0 0.0 0.0 0.0 0.3341347 1.4041377 
0.0 0.0 1.7635059 0.0 0.25232697 0.0 0.0 0.0 0.0 1.3083138 0.0 0.0 0.0 0.0 0.80927277 3.3702347 
0.0 0.0 0.0 0.0 0.0 0.0 0.0 0.0 0.0 0.32895443 0.0 0.0 1.2023982 0.0 0.0497943 1.145616 
0.0 0.0 0.0 0.0 0.0 0.0 0.6656104 2.1723154 0.0 0.0 0.0 0.0 1.9626048 0.0 0.0 0.0 
0.0 0.0 0.0 0.0 0.0 0.0 0.0 3.1168685 0.0 0.0 0.0 0.0 1.8927224 0.0 0.0 0.0 
0.0 0.0 0.0 0.0 0.0 0.0 0.0 0.71642196 1.9748178 0.0 0.95101964 0.0 0.9993667 0.0 0.0 0.0 
0.0 0.0 0.0 0.49201867 0.0 0.0 0.0 0.0 1.8399998 0.0 1.4253408 0.0 0.0 0.0 1.1822321 0.0 
0.0 0.72592586 0.0 1.1967906 0.0 0.79545575 0.0 0.0 0.0 0.0 0.0 0.0 0.0 0.0 4.5600834 0.0 
0.0 0.0 0.0 1.9598672 0.0 0.0 0.0 0.0 0.0 0.0 0.0 0.0 0.0 0.0 4.8287597 0.5287983 
0.0 0.0 0.0 0.96765804 0.0 0.0 0.045934945 0.0 0.0 0.0 0.0 0.0 0.0 0.0 0.8760521 0.0 
0.0 0.017504035 1.8494853 0.0 0.5805553 0.0 0.0 0.0 0.0 0.91815346 0.0 0.0 0.0 0.0 0.77851367 2.7876935 
0.0 0.0 0.9968952 0.0 0.0 0.0 0.0 0.0 0.0 0.123272225 0.0 0.0 0.50649124 0.0 0.0 1.6914382 
0.0 0.0 0.0 0.0 0.0 0.0 2.0100582 1.858079 0.0 0.0 0.0 0.36630306 1.1423755 0.0 0.0 0.0 
0.0 0.0 0.0 0.0 0.0 0.0 1.0633645 3.5501482 0.0 0.0 0.0 0.48103145 0.029200472 0.0 0.0 0.0 
0.0 0.0 0.0 2.6935225 0.0 0.0 0.0 0.98935837 3.145116 0.0 0.0 0.0 0.0 0.0 0.0 0.0 
0.0 0.34408298 0.0 3.478785 0.0 0.0 0.0 0.0 2.6072414 0.0 0.0 0.0 0.0 0.0 0.0 0.0 
0.0 2.8661711 0.0 1.8103684 0.0 0.0 0.0 0.0 0.0 0.9022183 0.0 0.0 0.0 0.0 0.0 0.9848457 
0.0 2.7790627 0.0 0.0 0.45676988 0.59482265 0.0 0.0 0.0 1.9617037 0.0 0.0 0.0 0.0 0.4571346 1.6027485 
0.0 0.0 0.0 0.0 0.0 0.0 0.0 0.0 0.0 1.2533989 0.0 0.0 0.0 0.0 3.0384388 0.0 
0.0 0.0 0.0 0.0 0.0 0.0 1.5655445 0.0 0.0 0.0 0.0 0.0 0.0 0.0 1.8329543 0.0 
0.0 0.0 1.7372581 0.0 0.0 0.0 0.0 0.0 0.0 0.09303868 0.0 0.0 0.0 0.0 0.0 1.8052819 
0.0 0.0 0.0 0.0 0.0 0.0 1.2792476 1.3712809 0.0 0.0 0.0 0.0 0.23524694 0.0 0.0 0.0 
0.0 0.0 0.0 0.0 0.0 0.0 2.7288508 2.7515953 0.0 0.0 0.0 1.2046695 0.0 0.0 0.0 0.0 
0.20305754 0.0 0.0 1.0719472 0.0 0.0 0.0 0.6606621 2.7773175 0.0 0.0 0.34414575 0.0 0.0 0.0 0.0 
0.3161187 0.0 0.0 1.4691985 0.0 0.0 0.0 0.0 1.9164187 0.0 0.0 0.0 0.0 0.0 0.0 0.0 
0.589394 1.2083529 0.0 0.0 0.17765379 0.0 0.0 0.0 0.0 1.366463 0.0 0.0 0.0 0.0 0.0 2.8426893 
0.39608636 0.24148889 0.0 0.0 1.5327032 0.0 0.0 0.0 0.0 2.6032515 0.0 0.0 0.0 0.0 0.0 3.2968733 
0.0 0.0 0.0 0.0 0.5371916 0.0 0.0 0.0 0.0 2.3380094 0.0 0.0 0.0 0.0 0.0 0.2986436 
0.0 0.0 0.3510486 0.0 0.0 0.0 0.12070416 0.231158 0.0 0.804997 0.0 0.0 0.0 0.0 0.0 0.0 
0.0 0.0 0.0 0.0 0.0 0.0 1.9395359 0.25544488 0.0 0.0 0.0 0.0 0.7791009 0.0 0.0 0.0 
0.0 0.0 0.5694811 0.0 0.0 0.0 0.0 0.9401509 0.0 0.0 0.0 0.0 0.0 0.0 0.0 0.0 
0.0 0.0 0.0 0.0 0.0 0.0 1.6021246 3.1772065 0.0 0.0 0.0 0.0 0.0 0.0 0.0 0.0 
1.9398464 0.0 0.0 0.0 0.0 0.0 0.4938318 2.0065777 0.0 0.0 0.0 0.0 0.0 0.0 0.0 0.0 
2.8837373 0.0 0.0 0.0 0.0 0.0 0.0 0.0 0.14938831 0.37905142 0.0 0.0 0.0 0.0 0.0 0.0 
1.8340485 0.0 0.0 0.0 0.0 0.0 0.0 0.0 0.0 0.62953293 0.0 0.0 0.0 0.0 0.0 1.1891369 
0.9657331 0.0 0.0 0.0 0.0 0.0 0.0 0.0 0.0 1.0995655 0.0 0.0 0.0 0.0 0.0 0.46125773 
0.35619414 0.0 0.0 0.0 0.0 0.0 0.0 0.0 0.0 0.4710999 0.0 0.0 0.52131015 0.0 0.0 0.0 
0.0 0.0 0.0 0.0 0.0 0.0 0.0 1.1312698 0.0 0.0 0.0 0.0 1.7191464 0.13353959 0.0 0.0 
0.0 0.0 0.0 0.0 0.0 0.0 0.0 2.0677154 0.0 0.0 0.0 0.0 1.8311422 0.7717102 0.0 0.0 
0.0 0.0 0.0 0.0 0.0 0.0 0.2816548 0.16521986 2.1625657 0.0 0.60992795 0.0 1.396683 1.0495597 0.0 0.0 
0.0 0.0 0.61015326 0.0 0.0 2.1942873 0.0 1.6902177 0.0 0.0 1.4882991 0.0 0.0 2.109088 0.0 0.0 
0.47267863 0.0 0.0 0.0 0.0 0.0 2.0513513 2.6787438 0.0 0.0 1.6271882 0.0 0.0 2.634631 0.0 0.0 
0.9533966 0.0 0.0 0.0 0.0 0.0 0.0 0.0 0.0 0.0 0.48191896 0.0 0.0 2.1622958 0.0 0.0 
0.8447493 0.0 0.0 0.0 0.0 0.0 0.0 0.0 0.0 0.0 0.0 0.0 0.57660544 1.7237161 0.0 0.0 
0.0 0.0 0.0 0.0 0.0 0.0 0.0 0.0 0.0 0.0 0.0 0.0 2.3084908 1.4921321 0.0 0.0 
0.0 0.0 0.0 0.0 0.0 0.0 0.0 0.0 0.0 0.0 0.012422102 0.0 3.5015056 1.0519218 0.0 0.0 
0.0 0.0 0.0 0.0 0.0 0.0 0.0 0.62415534 0.0 0.0 1.523379 0.0 2.9929643 0.28713894 0.0 0.0 
0.0 0.0 0.0 0.0 0.0 0.0 0.0 1.1974887 0.0 0.0 1.8838416 0.0 1.7774603 0.0 0.0 0.0 
0.0 0.0 0.0 2.7571492 0.0 0.0 0.0 0.21080305 1.6779134 0.0 1.6732076 0.0 0.57821465 0.008499473 0.0 0.0 
0.0 0.0 0.0 3.35853 0.0 0.0 0.0 0.0 2.7068605 0.0 1.7445861 0.0 0.0 0.05120507 0.34018826 0.0 
0.0 0.0 0.0 0.0 0.0 1.8031914 0.27496824 1.0181237 0.0 0.0 2.6936648 0.0 0.006196685 1.2068418 0.34424388 0.0 
0.0 0.0 0.0 0.0 0.0 0.0 1.5857109 0.41054285 0.0 0.0 3.8462374 0.0 0.57612026 2.9460893 0.8789211 0.0 
0.0 0.0 0.0 0.0 0.0 0.0 0.0 0.0 0.0 0.0 4.602269 0.0 1.5797635 2.7058964 0.60460556 0.0 
0.0 0.0 0.0 0.0 0.0 0.0 0.0 0.0 0.0 0.0 4.1992354 0.0 2.3643756 1.837132 0.0 0.0 
0.0 0.0 0.0 0.0 0.0 0.0 0.0 0.0 0.0 0.0 3.6355476 0.0 3.0204034 0.8358356 0.0 0.0 
0.0 0.0 0.0 1.1094222 0.0 0.0 0.0 0.0 0.0 0.0 3.393121 0.0 2.019077 0.0 0.0 0.0 
0.0 0.9512433 0.0 4.452291 0.0 0.0 0.0 0.20790263 0.18844192 0.0 3.353091 0.0 0.149586 0.0 0.0 0.0 
0.0 1.4449308 0.0 5.6783867 0.0 0.0 0.0 0.0 1.1368183 0.0 2.3995125 0.0 0.0 0.0 0.0 0.0 
0.0 0.86847305 0.0 4.579225 0.0 0.0 0.0 0.0 0.69458777 0.61820936 0.8531665 0.0 0.0 0.0 0.0 0.40741208 
0.0 0.0 0.0 2.7431102 0.29103225 0.0 0.0 0.0 0.0 0.47305167 0.43658632 0.0 0.0 0.0 0.07972634 2.2253075 
0.0 1.9165853 0.0 1.0275309 0.0 0.48329967 0.0 0.21888165 0.0 0.0 0.65613014 0.0 0.0 0.0 0.0 0.0 
0.0 2.069082 0.0 2.5833268 0.0 0.0 0.0 0.0 0.0 0.0 1.5338776 0.0 0.0 0.0 1.5948608 0.0 
0.0 2.1820586 0.0 3.8234663 0.0 0.0 0.0 0.0 0.0 0.0 2.793563 0.0 0.0 0.0 1.9951577 0.0 
0.0 3.1661887 0.0 5.156613 0.0 0.0 0.0 0.0 0.0 0.0 3.1269734 0.0 0.0 0.0 0.8578657 0.0 
0.0 3.3345587 0.0 6.845913 0.0 0.0 0.0 0.0 0.0 0.0 2.754954 0.0 0.0 0.0 0.0 0.0 
0.0 2.6169953 0.0 7.191568 0.0 0.0 0.0 0.0 0.0 1.1925055 1.8871714 0.0 0.0 0.0 0.0 0.0 
0.0 1.505196 0.0 5.8782306 0.0 0.0 0.0 0.0 0.0 2.0473366 1.1237686 0.0 0.0 0.0 0.0 0.62308466 
0.0 0.2783202 0.0 3.7543173 0.5924558 0.0 0.0 0.0 0.0 1.6372771 0.33803946 0.0 0.0 0.0 0.0 2.1101365 
0.0 0.0 0.0 1.8073266 0.7293963 0.3971116 0.0 0.0 0.0 0.7726907 0.0 0.0 0.0 0.0 0.0 2.1606758 
0.0 0.0 0.0 0.54554594 0.6063009 0.49280566 0.0 0.0 0.0 0.12491211 0.0 0.0 0.0 0.0 0.0 1.2721664 

