2.0010452 0.0 0.005457405 0.0 0.0 0.0 0.0 0.0 0.0 1.2807988 0.0 0.0 0.0 0.0 0.0 1.7463857 
2.7200403 0.0 0.0 0.0 0.0 0.0 0.0 0.0 0.0 1.6282476 0.0 0.0 0.0 0.3054316 0.0 0.0 
2.7768657 0.0 0.0 0.0 0.0 0.0 0.0 0.046801463 0.0 0.92144746 0.0 0.0 1.132343 1.5699543 0.0 0.0 
2.2465775 0.0 0.0 0.0 0.0 0.0 0.0 0.10245834 0.0 0.0 0.0 0.0 2.1634078 3.0647259 0.0 0.0 
1.6572756 0.0 0.0 0.0 0.0 0.0 0.0 0.0 0.0 0.0 0.0 0.0 2.6855447 4.0718327 0.0 0.0 
1.5706383 0.0 0.0 0.0 0.0 0.0 0.0 0.0 0.0 0.0 0.4269922 0.0 2.2775526 5.326789 0.0 0.0 
2.0970838 0.0 0.69185627 0.0 0.0 0.0 0.0 0.0 0.0 0.0 0.0 0.0 1.4035339 5.052812 0.0 0.0 
1.8971096 0.0 1.4440945 0.0 0.0 0.0 0.0 0.0 0.0 0.0 0.0 0.0 1.332016 1.7277259 0.0 0.0 
1.0888038 0.0 0.0 0.0 0.0 0.0 0.0 0.0 0.0 0.0 0.0 1.9593431 1.7048417 0.0 0.0 0.0 
1.1041138 0.0 0.0 0.0 0.0 0.0 0.0 0.0 0.0 0.0 0.0 3.2744591 1.6930299 0.0 0.0 0.0 
0.0 0.0 0.0 0.0 0.0 0.0 0.0 0.2537127 0.0 0.0 1.606368 0.0 1.4026147 1.9730188 0.5510855 0.0 
0.0 0.0 0.0 0.0 0.0 0.0 0.0 0.43120396 0.0 0.0 1.1749443 0.0 2.760255 1.7280835 0.13862838 0.0 
0.0 0.0 0.0 0.0 0.0 0.0 0.0 0.0 0.0 0.0 0.90975136 0.0 3.7889638 0.7483372 0.4673903 0.0 
0.0 0.0 0.0 0.0 0.0 0.0 0.0 0.0 0.0 0.0 1.7680355 0.0 3.5815365 0.5890835 1.2122222 0.0 
0.0 0.0 0.0 0.0 0.0 0.0 0.0 0.0 0.0 0.0 2.4949517 0.0 2.7685175 0.31561354 1.9571342 0.0 
0.0 0.07596482 0.0 0.0 0.0 0.0 0.0 0.0 0.0 0.0 2.7613199 0.0 1.4221478 1.0133673 2.7796175 0.0 
0.0 0.28090772 0.0 0.86280525 0.0 0.0 0.0 0.0 0.0 0.0 0.6742543 0.0 0.3623855 2.1960905 3.6984465 0.0 
0.0 0.0 0.119427264 1.1462991 0.0 0.0 0.0 0.0 0.0 0.0 0.0 0.0 0.39490825 1.363253 1.8039613 0.019777004 
0.0 0.0 0.0 0.0 0.0 0.0 0.0 0.0 0.0 0.0 0.0 0.0 0.7131871 0.0 0.0 0.0 
0.0 0.0 0.0 0.0 0.0 0.0 0.0 0.0 0.0 0.0 0.0 4.031827 1.3630606 0.0 0.0 0.0 
0.0 0.0 0.0 0.0 0.0 0.0 0.0 0.88201255 0.0 0.0 2.6155436 0.0 1.5028836 0.12037905 0.64066416 0.0 
0.0 0.0 0.0 1.3635783 0.0 0.0 0.0 0.6500024 0.0 0.0 2.85718 0.0 1.0658455 0.0 0.22548069 0.0 
0.0 0.85625654 0.0 3.5835054 0.0 0.0 0.0 0.0 0.89478165 0.0 2.3553736 0.0 0.12380721 0.0 0.0 0.0 
0.0 2.3326657 0.0 4.8707304 0.0 0.0 0.0 0.0 0.68026406 0.0 1.1340704 0.0 0.0 0.0 0.0 0.0 
0.0 3.0336077 0.0 5.107255 0.0 0.0 0.0 0.0 0.0 0.0 0.0 0.0 0.0 0.0 0.0 0.0 
0.0 3.1613493 0.0 3.382621 0.0 0.0 0.0 0.0 0.0 1.3037179 0.0 0.0 0.0 0.0 0.66077703 0.0 
0.0 1.8453066 0.0 1.7790979 0.0 0.83187383 0.0 0.0 0.0 1.7563033 0.0 0.0 0.0 0.0 3.9485347 0.3391262 
0.0 0.0 0.0 0.7808195 0.0 0.0 0.0 0.0 0.0 0.24090827 0.0 0.0 0.0 0.0 4.5098314 0.40536657 
0.0 0.0 0.0 0.0 0.0 0.0 0.18189098 0.0 0.0 0.0 0.0 0.0 0.0 0.0 1.2266707 0.0 
0.0 0.0 0.0 0.0 0.0 0.0 0.0 0.0 0.0 0.0 0.0 0.7870399 0.058957316 0.0 0.0 0.0 
0.0 2.173002 0.0 4.0729976 0.0 0.0 0.519045 0.67865694 0.0 0.9906696 1.2352163 0.0 0.0 0.0 0.0 0.0 
0.0 2.0617368 0.0 5.348396 0.0 0.0 0.0 0.0 0.82259524 1.6999176 1.1404403 0.0 0.0 0.0 0.0 0.0 
0.0 1.8120483 0.0 4.8310595 0.0 0.0 0.0 0.0 0.36841044 1.6256682 0.0 0.0 0.0 0.0 0.0 0.37377986 
0.0 2.3088982 0.0 3.2433033 0.0 0.0 0.0 0.0 0.0 2.1611223 0.0 0.0 0.0 0.0 0.0 1.9060085 
0.0 2.6190257 0.0 0.82041633 0.7500557 0.0 0.0 0.0 0.0 3.1925826 0.0 0.0 0.0 0.0 0.0 2.2810903 
0.0 2.2065053 0.0 0.0 2.2010431 0.0 0.0 0.0 0.0 3.6521752 0.0 0.0 0.0 0.0 0.0 2.428422 
0.0 0.0 0.0 0.0 0.28277647 0.0 0.0 0.0 0.0 3.1151397 0.0 0.0 0.0 0.0 0.0 0.4076036 
0.0 0.0 0.13551193 0.0 0.0 0.0 0.4594251 0.0 0.0 1.2959973 0.0 0.0 0.0 0.0 1.643121 0.0 
0.0 0.0 0.0 0.0 0.0 0.0 1.6363249 0.0 0.0 0.0 0.0 0.0 0.17260595 0.0 0.81534785 0.0 
0.0 0.0 0.0 0.0 0.0 0.0 0.0 0.0 2.107588 0.0 0.0 0.0 0.18346864 0.0 0.0 0.0 
0.0 0.93641907 0.0 2.756014 0.0 0.0 1.1168323 0.0 0.35361168 2.5107722 0.0 0.0 0.0 0.0 0.0 0.0 
0.0 0.31021905 0.0 1.9679389 0.6948715 0.4207316 0.15913148 0.0 0.5155685 1.9918681 0.0 0.0 0.0 0.0 0.0 0.50246674 
0.0 0.052167475 0.0 0.0 0.38585377 1.0397482 0.0 0.0 0.0 1.4259365 0.0 0.0 0.0 0.0 0.0 2.5492156 
0.2629889 0.19233511 0.0 0.0 0.0 0.0 0.0 0.0 0.0 1.6633673 0.0 0.0 0.0 0.0 0.0 3.170495 
1.5170499 0.0 0.0 0.0 0.0 0.0 0.0 0.0 0.0 1.7141469 0.0 0.0 0.0 0.0 0.0 2.4159303 
1.5297564 0.0 0.0 0.0 0.0 0.0 0.0 0.0 0.0 1.5644994 0.0 0.0 0.0 0.0 0.0 0.0 
0.33570272 0.0 0.0 0.0 0.0 0.0 0.0 0.42126894 0.0 0.41196793 0.0 0.0 0.6524219 0.0 0.0 0.0 
0.0 0.0 0.7340644 0.0 0.0 0.0 0.013010148 1.9777653 0.0 0.0 0.0 0.0 1.5488076 0.0 0.0 0.0 
0.0 0.0 0.0 0.0 0.0 0.0 0.8008249 0.2925446 1.1212839 0.0 0.0 0.0 1.5772679 0.0 0.0 0.0 
0.0 0.0 0.0 0.0 0.0 0.0 0.0 0.0 4.384381 0.0 0.0 0.0 0.46376604 0.0 0.0 0.0 
0.0 0.09846293 0.0 0.23976503 0.45833266 0.0 0.31932163 0.0 0.29735067 0.35943985 0.0 0.0 0.0 0.0 0.0 0.0 
0.0 0.30169874 0.28452605 0.0 0.43939927 0.0 0.0 0.0 0.43783864 0.27901196 0.0 0.0 0.0 0.0 0.0 1.1669139 
0.0 0.1364823 1.0638689 0.0 0.0 0.0 0.0 0.0 0.0 0.44454962 0.0 0.0 0.0 0.0 0.64665776 2.628264 
0.0 0.0 0.8583194 0.0 0.0 0.0 0.0 0.0 0.0 0.031031054 0.0 0.0 0.8805877 0.0 0.7142514 1.8193837 
0.0 0.0 0.0 0.0 0.0 0.0 0.0049390066 0.0 0.0 0.0 0.60203457 0.0 1.8037223 0.14238837 0.0 0.0 
0.0 0.0 0.0 0.0 0.0 0.0 0.0 0.93383193 0.0 0.0 1.7860285 0.0 2.145022 0.44596657 0.0 0.0 
0.0 0.0 0.0 0.0 0.0 0.0 0.0 1.2159457 0.0 0.0 1.819271 0.0 1.760401 0.79126513 0.0 0.0 
0.0 0.0 0.0 1.4870875 0.0 0.0 0.0 0.75008184 0.8247081 0.0 1.3634052 0.0 0.77068686 0.8876633 0.0 0.0 
0.0 0.0 0.0 2.3910663 0.0 0.0 0.0 0.0 3.905811 0.0 1.4872053 0.0 0.16646634 0.35672823 0.0 0.0 
0.0 0.0 0.0 1.373399 0.0 0.0 0.0 0.0 2.7803683 0.0 1.4773804 0.0 0.0 0.08218486 0.0 1.5567011 
0.53428805 0.88700473 0.0 0.0 0.32754695 0.0 0.0 0.0 0.0 0.0 0.0 0.0 0.0 0.0 0.0 0.0 
0.21337198 1.7491767 0.43665144 0.0 0.3459489 0.0 0.0 0.0 0.0 0.010765079 0.0 0.0 0.0 0.0 0.0 1.4557102 
0.0 2.1221564 0.44029024 0.0 0.0 0.0 0.0 0.0 0.0 0.0 0.0 0.0 0.0 0.0 0.0 1.0017745 
0.0 1.7541003 0.0 0.0 0.0 0.0 0.0 0.35758972 0.0 0.0 0.0 0.0 1.0888885 0.0 0.0 0.0 
0.0 1.6187581 0.0 0.0 0.0 0.0 0.0 2.1227064 0.0 0.0 0.0 0.0 0.6006578 0.0 0.0 0.0 
0.0 2.220295 0.0 1.2074463 0.0 0.0 0.0 1.635919 0.0 0.0 0.0 0.0 0.0 0.0 0.0 0.0 
0.0 3.80602 0.0 5.333422 0.0 0.0 0.0 0.0 0.0 0.0 0.0 0.0 0.0 0.0 0.0 0.0 
0.0 4.1848607 0.0 6.096015 0.0 0.0 0.0 0.0 0.0 0.0 0.0 0.0 0.0 0.0 0.0 0.0 
0.0 2.68563 0.0 4.2364774 0.43020248 0.0 0.0 0.0 0.0 0.0 0.0 0.0 0.0 0.0 0.0 1.5819199 
0.0 1.3165964 0.0 2.038196 2.074235 0.0 0.0 0.0 0.0 0.0 0.0 0.0 0.0 0.0 0.0 1.8671708 
1.0525229 0.3136325 0.0 0.0 0.18260443 0.0 0.0 0.0 0.0 0.29841548 0.0 0.0 0.0 0.0 0.0 1.0081242 
1.0410346 0.0 0.0 0.0 0.0 0.0 0.0 0.0 0.0 0.88291293 0.0 0.0 0.0 0.0 0.0 1.5799285 
1.8269912 0.0 0.0 0.0 0.0 0.0 0.0 0.9945572 0.0 0.30402544 0.0 0.0 0.0 0.0 0.0 0.0 
2.8192785 0.0 0.0 0.0 0.0 0.0 0.0 3.170501 0.0 0.5952165 0.0 0.0 0.0 0.0 0.0 0.0 
3.0205247 0.0 0.0 0.0 0.0 0.0 0.0 2.2385638 0.0 1.1613464 0.0 0.0 0.0 0.0 0.0 0.0 
2.5604985 0.0 0.0 0.0 0.0 0.0 0.0 0.0 0.0 2.1425893 0.0 0.0 0.0 0.0 0.0 0.0 
1.9467609 0.0 0.0 0.0 0.0 0.0 0.0 0.0 0.0 2.3782804 0.0 0.0 0.0 0.0 0.0 0.0 
1.6939554 0.0 0.0 0.0 0.0 0.0 0.0 0.0 0.0 2.3663292 0.0 0.0 0.0 0.0 0.0 0.0 
1.6403422 0.0 0.0 0.0 0.0 0.0 0.0 0.0 0.0 1.5613222 0.0 0.0 0.0 0.0 0.0 0.0 
1.0651052 0.0 0.0 0.0 0.0 0.0 0.0 0.0 0.0 0.99724615 0.0 0.0 0.0 0.0 0.0 0.0 
0.0 0.0 0.0 0.0 0.0 0.8299235 0.0 0.0 0.0 0.423454 1.2009822 0.0 0.0 0.8657034 0.05456978 0.6050354 
0.0 0.0 0.0 0.0 0.0 0.0 0.0 0.7515148 0.0 0.16108868 1.9556632 0.0 0.20860119 1.271749 0.0 0.0 
0.0 0.0 0.0 0.0 0.0 0.0 0.26815906 2.1705487 0.0 0.0 1.9721606 0.0 0.8398795 1.8976469 0.0 0.0 
0.49919763 0.0 0.0 0.0 0.0 0.0 0.6742105 2.1417012 0.0 0.0 1.0384742 0.0 0.9238661 2.9272575 0.0 0.0 
1.050965 0.0 0.0 0.0 0.0 0.0 0.0 0.0 0.0 0.0 1.03522 0.0 0.6624671 4.002357 0.0 0.0 
0.73122287 0.0 0.0 0.0 0.0 0.0 0.0 0.0 0.0 0.0 1.0948962 0.0 0.7367992 4.5963817 0.0 0.0 
0.22102411 0.0 0.0 0.0 0.0 0.0 0.0 0.0 0.0 0.0 1.0199639 0.0 1.7131897 4.509184 0.0 0.0 
0.55064726 0.0 0.0 0.0 0.0 0.0 0.0 0.0 0.0 0.0 0.40216562 0.0 2.4213305 4.2218466 0.0 0.0 
1.1396724 0.0 0.0 0.0 0.0 0.0 0.0 0.0 0.0 0.0 0.0 0.0 2.5085049 3.4651756 0.0 0.0 
1.1601086 0.0 0.0 0.0 0.0 0.0 0.0 0.0 0.0 0.0 0.0 0.0 2.2811127 1.9030303 0.0 0.0 
0.0 0.0 0.0 0.0 0.0 0.669391 0.0 0.15144277 0.0 0.0 2.2549427 0.0 0.6807718 0.0 0.09411462 0.0 
0.0 0.0 0.0 0.0 0.0 0.43074608 0.0 1.3393403 0.0 0.0 3.394094 0.0 0.99823993 0.2978499 0.039773628 0.0 
0.0 0.0 0.0 0.0 0.0 0.0 0.06293703 1.5590106 0.0 0.0 3.6944475 0.0 1.5710549 0.5428252 0.55408686 0.0 
0.0 0.0 0.0 0.0 0.0 0.0 0.0 0.0 0.0 0.0 3.7337062 0.0 1.634244 0.94362164 1.7998695 0.0 
0.0 0.0 0.0 0.0 0.0 0.0 0.0 0.0 0.16755287 0.0 3.7395778 0.0 1.7882316 0.84257704 2.9213464 0.0 
0.0 0.0 0.0 0.0 0.0 0.0 0.0 0.0 0.0 0.0 4.0899973 0.0 1.9043244 1.0776248 3.2850673 0.0 
0.0 0.22252867 0.0 0.0 0.0 0.0 0.0 0.0 0.0 0.0 4.3882313 0.0 2.5584855 1.1975722 3.1707203 0.0 
0.0 0.0 0.0 0.5629908 0.0 0.0 0.0 0.0 0.0 0.0 4.1320534 0.0 2.7050219 2.0019794 2.9344158 0.0 
0.0 0.0 0.0 1.7262034 0.0 0.0 0.0 0.0 0.0 0.0 3.4395528 0.0 2.0323896 2.4452696 2.3260176 0.0 
0.0 0.0 0.0 1.9247797 0.0 0.0 0.0 0.0 0.0 0.0 2.8069682 0.0 1.3621639 1.9272599 0.6317975 0.0 

