0.62629014 1.9843127 0.38690197 0.0 0.0 0.0 0.0 0.0 0.0 0.079386875 0.0 0.0 0.0 0.0 0.0 0.7949804 
0.4933665 0.7714944 0.0 0.0 0.42673832 0.0 0.27970892 0.0 0.0 0.5481786 0.0 2.0116792 0.023071997 0.0 0.0 0.0 
0.2057039 0.0 0.0 0.5456488 1.3554256 0.72600794 0.0 0.0 0.0 0.62050354 0.0 1.0466924 0.0 0.0 0.0 0.0 
0.0 0.0 0.0 0.7242528 0.880871 0.9751615 0.0 0.0 0.0 0.0 0.34120274 0.0 0.0 0.8225402 0.0 0.0 
0.002291631 0.0 0.0 0.0 0.258358 0.86318576 0.0 0.0 0.0 0.0 0.0 0.0 0.0 0.5562554 0.0 0.0 
0.7026498 0.64601797 0.22645855 0.0 0.0 0.0 0.0 0.0 0.0 0.0 0.0 0.0 0.0 0.24682155 0.0 0.0 
0.8461917 1.4830774 1.173971 0.0 0.0 0.0 0.0 0.0 0.0 0.0 0.0 0.0 0.0 0.0 0.0 0.81296426 
0.53422296 1.3115921 0.0 0.0 0.0 0.0 0.31336108 0.0 0.0 0.5199773 0.0 0.83077025 0.0 0.0 0.0 0.22177617 
0.6461058 0.0 0.0 0.0 0.7475852 0.0 0.10154079 0.0 0.0 0.6660071 0.0 2.3207135 0.30207098 0.0 0.0 0.0 
0.3125701 0.0 0.0 0.37269917 0.95828724 0.9277734 0.0 0.0 0.0 0.15203485 0.0 0.3951607 0.0 0.05439987 0.0 0.0 
1.1965243 0.0 1.4948502 0.0 0.0 0.0 0.0 0.0 0.0 0.0 0.0 0.0 0.0 0.0 0.0 0.0 
0.85774565 0.0 0.0 0.0 0.0 0.0 0.20910089 0.0 0.0 0.13896203 0.0 1.295162 0.3986867 0.0 0.0 0.0 
0.99256986 0.0 0.0 0.0 0.0 0.0 0.0 0.0 0.0 0.21610832 0.0 3.0789256 0.9072996 0.0 0.0 0.0 
0.75520986 0.0 0.0 0.0 0.16824058 0.8207697 0.0 0.0 0.0 0.0 0.0 0.55557823 0.116786435 0.076757945 0.0 0.0 
0.2021748 0.0 0.0 0.0 0.3787558 1.5642755 0.0 0.0 0.0 0.0 0.45407096 0.0 0.0 1.120968 0.0 0.0 
0.57391053 0.0 0.16999349 0.0 0.0 2.0967402 0.0 0.0 0.0 0.0 0.0 0.0 0.0 1.9304268 0.0 0.0 
0.9894789 0.0 1.9691921 0.0 0.0 0.0 0.0 0.0 0.0 0.0 0.0 0.0 0.0 1.1128153 0.0 0.0 
0.9963451 0.0 0.6102951 0.0 0.0 0.0 0.87674457 0.0 0.0 0.0 0.0 0.0 0.04240454 0.0 0.0 0.0 
0.75480133 0.0 0.0 0.0 0.0 0.0 0.0 0.0 0.0 0.0 0.0 3.2931209 0.963285 0.0 0.0 0.0 
0.9939783 0.0 0.0 0.0 0.0 0.0 0.0 0.0 0.0 0.021153651 0.0 2.3703387 0.9795225 0.0 0.0 0.0 
0.44665828 0.0 1.943871 0.0 0.0 0.0 0.0 0.0 0.0 0.0 0.0 0.0 0.0 1.9114549 0.31086886 0.0 
0.66498405 0.0 0.0 0.0 0.0 0.0 0.16835648 0.0 0.0 0.0 0.0 0.0 0.18338734 0.0 0.0 0.0 
0.58115566 0.0 0.0 0.0 0.0 0.0 0.0 0.0 0.0 0.0 0.0 4.35339 1.1974808 0.0 0.0 0.0 
0.6866539 0.0 0.0 0.0 0.0 0.0 0.0 0.0 0.0 0.0 0.0 3.1584394 1.2466253 0.0 0.0 0.0 
0.0 0.0 0.0 0.0 0.0 1.1060922 0.0 0.0 0.0 0.0 0.08661646 0.0 0.0 0.1282191 0.0 0.0 
0.0 0.0 0.17173019 0.0 0.0 3.5783002 0.0 0.0 0.0 0.0 0.3525842 0.0 0.0 1.3608938 0.2123052 0.0 
0.0 0.0 2.4992797 0.0 0.0 1.029727 0.0 0.0 0.0 0.0 0.0 0.0 0.0 2.5025003 1.6349465 0.0 
0.40993652 0.0 1.1656314 0.0 0.0 0.0 1.1896049 0.0 0.0 0.0 0.0 0.0 0.0 0.77594614 0.0 0.0 
0.0 0.0 0.0 0.0 0.0 0.0 0.0 0.0 0.0 0.0 0.0 1.2693473 0.29680496 0.0 0.0 0.0 
0.54646313 0.0 0.0 0.0 0.0 0.0 0.0 0.0 0.0 0.0 0.0 4.4065704 1.512202 0.0 0.0 0.0 
0.0 0.0 2.2646012 0.0 0.0 0.114162356 0.0 0.0 0.0 0.0 0.0 0.0 0.0 1.7022253 2.8654268 0.0 
0.0 0.0 0.0 0.0 0.0 0.0 0.031725302 0.0 0.0 0.0 0.0 0.0 0.0 0.15208086 0.0 0.0 
0.0 0.0 0.0 0.0 0.0 0.0 0.0 0.0 0.0 0.0 0.0 1.0252848 0.0 0.0 0.0 0.0 
0.22589742 0.0 0.0 0.0 0.0 0.0 0.0 0.0 0.0 0.0 0.0 5.1462474 1.2783563 0.0 0.0 0.0 
0.0 0.0 0.0 0.0 0.0 0.0 0.0 0.0 0.0 0.0 0.0 2.5137255 0.1100636 0.0 0.0 0.0 
0.0 0.0 0.0 0.0 0.0 2.9610558 0.0 0.0 0.0 0.0 0.0 0.0 0.0 0.0 0.0 0.0 
0.0 0.0 3.2383344 0.0 0.0 3.2131355 0.0 0.0 0.0 0.0 0.0 0.0 0.0 0.50433695 1.9585357 0.0 
0.0 0.0 2.5690672 0.25509286 0.0 0.0 1.4210275 0.0 0.0 0.0 0.0 0.0 0.0 0.68680775 2.088669 0.0 
0.0 0.0 0.0 0.0 0.0 0.0 0.65191585 0.0 0.0 0.0 0.0 0.0 0.0 0.0 0.0 0.0 
0.0 0.0 0.0 0.0 0.0 0.0 0.0 0.0 0.0 0.0 0.0 3.961997 0.69075096 0.0 0.0 0.0 
0.0 0.0 2.1759303 0.0 0.0 3.495367 0.0 0.0 0.0 0.0 0.0 0.0 0.0 0.83216274 2.3301773 0.0 
0.0 0.0 0.1433293 0.0 0.0 0.0 0.5903364 0.0 0.0 0.0 0.0 0.0 0.0 1.408676 1.8867681 0.0 
0.0 0.0 0.0 0.0 0.0 0.0 0.0 0.0 0.0 0.0 0.0 0.0 0.0 0.0 0.0 0.0 
0.5845786 0.0 0.0 0.0 0.0 0.0 0.0 0.0 0.0 0.0 0.0 2.5481496 0.0 0.0 0.0 0.0 
2.04415 0.0 0.0 0.0 0.0 0.0 0.0 0.0 0.0 0.0 0.0 3.3307436 0.0 0.0 0.0 0.0 
1.714741 0.44903225 0.0 0.0 0.0 0.0 0.0 0.0 0.0 0.1164383 0.0 0.6845683 0.0 0.0 0.0 0.0 
0.0 0.61924136 1.5612618 0.0 0.0 1.2614381 0.0 0.0 0.0 1.0772374 0.0 0.0 0.0 0.0 0.0 0.0 
0.0 0.0 2.1306062 0.0 0.0 0.0 0.0 0.0 0.0 0.0 0.0 0.0 0.0 0.0 1.794044 0.0 
0.0 0.0 0.0 0.0 0.0 0.0 0.4156361 0.0 0.0 0.0 0.0 0.0 0.0 0.0 0.0 0.0 
0.0 0.0 0.0 0.0 0.0 0.0 0.0 0.0 0.2693979 0.0 0.0 1.3974807 0.0 0.0 0.0 0.0 
0.0 0.0 1.5761588 0.0 0.0 3.7829485 0.0 0.0 0.0 0.0 0.585377 0.0 0.0 0.0 0.92083114 0.0 
0.0 0.0 1.4410834 0.0 0.0 1.6143734 1.4142132 0.0 0.0 0.0 0.8477714 0.0 0.0 2.7408304 2.3811464 0.0 
0.0 0.0 0.0 0.0 0.0 0.0 0.0 0.0 0.0 0.0 1.3405044 0.0 0.0 3.4398406 0.6266722 0.0 
0.65859187 0.0 0.0 0.0 0.0 0.0 0.0 0.0 0.0 0.0 0.0 0.0 0.0 2.5277774 0.0 0.0 
2.0359285 0.0 0.0 0.0 0.0 0.0 0.0 0.0 0.0 0.0 0.0 0.29249054 0.09358689 0.07959127 0.0 0.0 
2.9711087 0.0 0.0 0.0 0.0 0.0 0.0 0.0 0.0 0.0 0.0 0.32121262 0.0 0.0 0.0 0.0 
1.695013 0.0 0.019280512 0.0 0.0 0.0 0.0 0.0 0.0 0.5403693 0.0 0.0 0.0 0.0 0.0 0.0 
1.0099552 0.0 3.2042243 0.0 0.0 0.0 0.0 0.041481495 0.0 0.0 0.0 0.0 0.3359455 0.0 0.0 0.0 
1.2164066 0.0 0.0 0.0 0.0 0.0 0.58234394 0.0 0.0 0.0 0.0 0.0 0.3819381 0.0 0.0 0.0 
0.15560803 0.0 0.0 0.0 0.0 0.0 0.0 0.0 0.24310452 0.0 0.0 0.0 0.12656085 0.0 0.0 0.0 
0.0 0.7220108 0.0 0.0 0.0 1.2037466 0.0 0.0 0.0 0.0 0.77205145 0.0 0.0 0.0 0.0 0.0 
0.0 0.0 1.1660974 0.0 0.0 1.6344578 0.27265558 0.0 0.0 0.0 1.3976251 0.0 0.27324086 0.0 2.6561747 0.0 
0.0 0.0 0.0 0.0 0.0 0.30843404 0.19987372 0.0 0.0 0.0 3.2430048 0.0 0.25978196 2.3704267 3.9266884 0.0 
0.0 0.0 0.0 0.0 0.0 0.0 0.0 0.0 0.0 0.0 4.4032154 0.0 0.72113913 3.6896808 2.5352225 0.0 
0.0 0.0 0.0 0.0 0.0 0.0 0.0 0.0 0.0 0.0 4.212993 0.0 1.5129801 3.3884475 0.24078657 0.0 
0.0 0.0 0.0 0.0 0.0 0.0 0.0 0.0 0.0 0.0 3.5705698 0.0 2.574601 2.2691762 0.0 0.0 
0.0 0.0 0.0 0.0 0.0 0.0 0.0 0.0 0.0 0.0 2.2299716 0.0 2.5816152 1.9669346 0.0 0.0 
0.0 0.0 1.6182182 0.0 0.0 0.0 0.0 0.0653453 0.0 0.0 0.9663257 0.0 2.3792083 2.998977 0.0 0.0 
0.0 0.0 0.0 0.0 0.0 0.0 1.2668008 0.0 0.0 0.0 1.3758547 0.0 1.6659092 3.0891745 0.0 0.0 
0.0 0.0 0.0 0.0 0.0 0.0 0.0 0.0 0.16933812 0.0 1.3510666 0.0 0.44233865 1.9051152 0.0 0.0 
0.0 1.0731217 0.0 0.04985051 0.0 0.0 0.0 0.0 0.0 0.0 0.33226594 0.08641112 0.0 0.0 0.0 0.0 
0.0 1.4698942 0.0 0.3638087 0.0 0.48844248 0.0 0.0 0.0 0.0 0.0 0.0 0.0 0.0 0.0 0.0 
0.0 0.9400468 0.0 0.33205545 0.0 0.12116739 0.0 0.0 0.0 0.0 1.0343018 0.0 0.12535746 0.0 2.7804403 0.0 
0.0 0.39780423 0.0 0.55084765 0.0 0.0 0.0 0.0 0.0 0.0 2.6821973 0.0 0.31365484 0.0 3.935066 0.0 
0.0 0.6613834 0.0 1.8118718 0.0 0.0 0.0 0.0 0.0 0.0 3.654473 0.0 0.47039628 0.0 2.8705556 0.0 
0.0 1.033879 0.0 2.9780896 0.0 0.0 0.0 0.0 0.0 0.0 4.5879035 0.0 0.5927844 0.0 0.9042086 0.0 
0.0 1.713837 0.0 3.1385536 0.0 0.0 0.0 0.0 0.0 0.0 4.5905504 0.0 0.26412064 0.0 0.1898676 0.0 
0.0 1.315574 0.0 3.0854204 0.0 0.29293963 0.0 0.0 0.0 0.0 3.5698004 0.0 0.5469372 0.5055817 1.4366574 0.0 
0.0 0.0 0.0 2.9861894 0.0 0.0 0.608715 0.0 0.0 0.0 3.1199718 0.0 0.20079093 2.1733847 2.2401204 0.0 
0.0 0.0 0.0 1.6764535 0.0 0.0 0.0 0.0 0.0 0.0 3.253358 0.0 0.0 2.3521144 0.7564557 0.0 
0.31922352 0.46644193 0.0 0.3841906 0.0 0.0 0.28654045 0.1519022 0.0 0.40797365 0.12533498 0.30287656 0.0 0.0 0.0 0.0 
0.0 1.0866879 0.0 1.331641 0.0 0.0 0.07721166 0.06729166 0.0 1.0572517 0.0 0.041709483 0.0 0.0 0.0 0.0 
0.0 1.6619714 0.0 2.0034153 0.0 0.0 0.18501921 0.0 0.0 1.3353902 0.0 0.0 0.0 0.0 0.0 0.0 
0.0 1.7049088 0.0 2.8462803 0.0 0.0 0.0 0.0 0.0 1.6828005 0.0015803836 0.0 0.0 0.0 0.0 0.0 
0.0 1.5939201 0.0 4.326871 0.0 0.0 0.0 0.0 0.0 2.3532012 0.5623724 0.0 0.0 0.0 0.09643774 0.0 
0.0 1.6510502 0.0 5.0290966 0.0 0.0 0.0 0.0 0.0 2.4820845 1.1699154 0.0 0.0 0.0 0.0 0.0 
0.0 1.7232689 0.0 4.7546115 0.0 0.0 0.0 0.0 0.0 1.8420233 1.1415621 0.0 0.0 0.0 0.0 0.0 
0.0 1.6905844 0.0 4.5284104 0.0 0.73055613 0.0 0.0 0.0 1.0773492 0.24485463 0.0 0.0 0.0 0.08502957 0.0 
0.0 0.81910264 0.0 4.2465715 0.0 0.3139201 0.0 0.0 0.0 0.30917466 0.18034244 0.0 0.0 0.0 2.309918 0.0 
0.0 0.0 0.0 3.272604 0.0 0.0 0.0 0.0 0.0 0.0 1.0498785 0.0 0.0 0.0 2.7098672 0.23772542 
0.27453455 0.13116474 0.0 0.3065678 0.0 0.0 0.29988974 0.10972242 0.0 0.15087673 0.12518862 0.0 0.0 0.0 0.0 0.0 
0.40480366 0.27556336 0.0 0.60101235 0.0 0.0 0.5164846 0.13307418 0.0 0.59776837 0.022937695 0.0 0.0 0.0 0.0 0.0 
0.35200545 0.43046376 0.0 1.0581601 0.0 0.0 0.7314016 0.0 0.0 1.256751 0.0 0.0 0.0 0.0 0.0 0.0 
0.09092885 0.70505583 0.0 1.7632023 0.0 0.0 0.8281004 0.0 0.0 1.8559173 0.0 0.0 0.0 0.0 0.0 0.0 
0.0 0.7954275 0.0 2.1031396 0.0 0.045531943 1.0238639 0.0 0.0 2.2468607 0.0 0.0 0.0 0.0 0.0 0.0 
0.0 0.4800999 0.0 1.7593381 0.22282827 0.0 0.78478646 0.0 0.0 2.169062 0.0 0.0 0.0 0.0 0.0 0.40922573 
0.0 0.15393469 0.0 1.5111816 0.2355318 0.0 0.17442417 0.0 0.0 1.7164451 0.0 0.0 0.0 0.0 0.0 0.82372963 
0.0 0.5540477 0.0 1.9549545 0.0 0.4698949 0.0109160505 0.0 0.0 1.4743706 0.0 0.0 0.0 0.0 0.0 0.0 
0.0 0.7563433 0.0 1.7857915 0.0 0.19560543 0.50804883 0.0 0.0 1.6680734 0.0 0.0 0.0 0.0 0.0 0.0 
0.0 0.0 0.0 1.1938215 0.078611635 0.016038306 0.05844122 0.0 0.08317836 1.3681037 0.0 0.0 0.0 0.0 0.5773017 0.6010487 

