0.2756732 0.5893501 0.0 0.0 0.16228873 0.15242493 0.0 0.0 0.0 0.0 0.0 0.0 0.0 0.05650241 0.0 0.0 
0.9637454 1.5704668 0.15347907 0.0 0.0 0.0 0.0 0.0 0.0 0.0 0.0 0.0 0.0 0.0 0.0 0.43151888 
1.8785473 2.331583 0.0 0.0 0.0 0.0 0.0 0.0 0.0 0.6273997 0.0 0.0 0.0 0.0 0.0 1.5160532 
2.4175727 1.4504049 0.0 0.0 0.0 0.0 0.0 0.0 0.0 1.4982002 0.0 0.0 0.0 0.0 0.0 1.1320156 
2.5307622 0.0 0.0 0.0 0.0 0.0 0.0 0.0 0.0 1.6852235 0.0 0.0 0.0 0.0 0.0 0.2647081 
2.9886057 0.0 0.0 0.0 0.0 0.0 0.0 0.0 0.0 0.2982765 0.0 0.0 0.0 1.3009361 0.0 0.0 
3.4803386 0.0 0.43971246 0.0 0.0 0.0 0.0 0.0 0.0 0.0 0.0 0.0 0.0 1.3900965 0.0 0.0 
3.0558374 0.0 0.13941246 0.0 0.0 0.0 0.0 0.0 0.0 0.0 0.0 0.0 0.5850328 0.0 0.0 0.0 
2.2522397 0.0 0.0 0.0 0.0 0.0 0.0 0.0 0.0 0.0 0.0 2.614882 1.5044172 0.0 0.0 0.0 
1.7133268 0.0 0.0 0.0 0.0 0.0 0.0 0.0 0.0 0.0 0.0 2.5166228 1.3086625 0.0 0.0 0.0 
0.98856837 0.0 0.0 0.0 0.0 1.1109643 0.0 0.0 0.0 0.0 0.0 0.0 0.0 0.8405478 0.0 0.0 
1.309411 0.0 0.30649418 0.0 0.0 0.0 0.0 0.0 0.0 0.6792021 0.0 0.0 0.0 0.7309101 0.24939342 1.3896751 
1.1062249 0.0 0.002559293 0.0 0.0 0.0 0.0 0.0 0.0 0.98453283 0.0 0.0 0.0 0.43860844 0.0 1.4283059 
0.8279944 0.0 0.0 0.0 0.0 0.0 0.0 0.0 0.0 0.39140782 0.0 0.0 0.6769149 0.0 0.0 0.0 
0.0 0.0 0.0 0.0 0.0 0.0 0.0 0.0 0.0 0.0 0.0 0.0 1.9075135 0.0 0.0 0.0 
0.0 0.0 0.53281367 0.0 0.0 0.0 0.0 0.0 0.0 0.0 0.0 0.0 2.144054 0.5166658 0.837693 0.0 
0.07142058 0.0 1.1604099 0.0 0.0 0.0 0.0 0.0 0.0 0.0 0.0 0.0 1.8447663 1.3519102 2.2646008 0.0 
0.9763929 0.0 0.0 0.0 0.0 0.0 0.0 0.0 0.0 0.0 0.0 0.0 1.5136334 1.6811417 0.58096534 0.0 
0.4754977 0.0 0.0 0.0 0.0 0.0 0.0 0.0 0.0 0.0 0.0 0.041944668 0.8399767 1.0535368 0.0 0.0 
0.08508469 0.0 0.0 0.0 0.0 0.0 0.0 0.0 0.0 0.0 0.0 2.6566753 1.47557 0.13066861 0.0 0.0 
0.0 0.0 0.0 0.0 0.0 1.0602479 0.0 0.0 0.0 0.0 0.52907604 0.0 0.0 0.5212034 0.0 0.0 
0.0 0.0 0.0 0.0 0.0 0.050003722 0.0 0.0 0.0 0.0 0.0 0.0 0.32421935 1.2045408 0.0 0.0 
0.0 0.0 0.0 0.0 0.0 0.0 0.0 0.0 0.0 0.0 0.0 0.0 1.1780372 0.0021993294 0.0 0.0 
0.0 0.0 0.0 0.0 0.0 0.0 0.0 0.0 0.0 0.0 0.0 0.0 1.1820046 0.0 0.0 0.0 
0.0 1.1528108 0.0 0.0 0.0 0.0 0.0 0.0 0.0 0.0 0.0 0.0 0.4837473 0.0 0.0 0.0 
0.0 2.0247738 0.0 0.0 0.0 0.0 0.0 0.0 0.0 0.0 0.0 0.0 0.0 0.0 0.23710184 0.0 
0.0 0.0 0.0 0.0 0.0 0.0 0.0 0.0 0.0 0.0 0.0 0.0 0.105701685 0.0 2.3342617 0.0 
0.0 0.0 0.0 0.0 0.0 0.0 0.0 0.0 0.0 0.0 0.0 0.0 0.64753085 0.0 2.5411644 0.0 
0.0 0.0 0.0 0.0 0.0 0.0 0.0 0.0 0.0 0.0 0.0 0.0 0.25396895 0.0 0.0 0.0 
0.0 0.0 0.0 0.5414291 0.0 0.0 0.0 0.0 0.98135805 0.0 0.4025295 0.19256055 0.0438158 0.2580497 0.0 0.0 
0.0 0.49352676 0.0 0.0 0.0 0.7582752 0.0 0.0 0.0 0.0 0.4443018 0.14571218 0.09128529 0.0 0.0 0.0 
0.0 1.2009765 0.0 0.0 0.0 0.8928911 0.0 0.0 0.0 0.0 0.0 0.0 0.0 0.0 0.0 0.0 
0.0 1.9355304 0.0 0.0 0.0 0.0 0.0 1.3369889 0.0 0.0 0.3631425 0.0 0.0 0.0 0.0 0.0 
0.2737323 1.1182672 0.0 0.0 0.0 0.0 0.0 0.66358936 0.0 0.8106416 0.42366758 0.0 0.0 0.0 0.0 0.0 
0.62696487 0.0 0.0 0.0 0.0 0.0 0.0 0.0 0.0 1.9992028 0.0 0.0 0.0 0.0 0.0 0.0 
0.0 0.0 0.0 0.0 0.0 0.0 0.0 0.0 0.0 2.0344443 0.0 0.0 0.0 0.0 0.0 0.0 
0.0 0.0 0.0 0.0 0.0 0.0 0.0 0.0 0.0 0.2839074 0.0 0.0 0.0 0.0 0.0 0.0 
0.0 0.0 0.0 0.0 0.0 0.0 0.0 0.0 0.0 0.0 0.0 0.0 0.7438645 0.0 0.0 0.0 
0.0 0.0 0.0 0.0 0.0 0.0 0.0 0.0 0.46094507 0.0 0.0 0.0 1.1912451 0.0 0.0 0.0 
0.0 0.0 0.0 0.0 0.0 0.0 0.0 0.0 1.4948504 0.0 0.0 0.0 0.0 0.0 0.0 0.0 
0.30722415 0.43024775 0.0 0.0 0.0 0.0 0.0 0.0 0.0 0.17702207 1.173513 0.0 0.0 0.0 0.0 0.0 
0.0 0.19779539 0.0 0.0 0.0 0.66764724 0.0 0.5142244 0.0 1.8398507 1.6802502 0.0 0.0 0.018018804 0.0 0.0 
0.0 0.0 0.0 0.0 0.0 0.0 0.0 0.4997977 0.0 3.3922262 2.4510777 0.0 0.0 1.1239183 0.0 0.0 
0.0 0.0 0.0 0.0 0.0 0.0 0.0 0.0 0.0 2.4513352 2.7326813 0.0 0.0 1.0043582 0.0 0.0 
0.0 0.0 0.0 0.0 0.0 0.0 0.0 0.0 0.0 0.022471312 2.1984236 0.0 0.009760506 1.0822078 0.0 0.0 
0.0 0.0 0.0 0.0 0.0 0.0 0.0 0.0 0.0 0.0 0.7820896 0.0 0.055643044 1.3063707 0.0 0.0 
0.0 0.0 0.088021696 0.0 0.0 0.0 0.0 0.0 0.0 0.0 0.0 0.0 0.2549734 0.7532009 0.0 0.0 
0.0 0.0 0.0 0.0 0.0 0.0 1.7725916 0.0 0.0 0.0 0.0 0.0 0.447352 0.0 0.0 0.0 
0.0 0.0 0.0 0.0 0.0 0.0 0.24577884 0.0 1.0650222 0.0 0.0 1.1288013 0.72218066 0.0 0.0 0.0 
0.0 0.0 0.0 0.0 0.0 0.0 0.0 0.0 0.26699927 0.0 0.0 1.0225128 0.5038431 0.0 0.0 0.0 
0.0 0.94054437 0.0 0.0 0.0 0.0 0.0 0.0 0.0091754645 0.0 0.5202341 0.18382981 0.0 0.0 0.0 0.0 
0.0 1.0444843 0.0 0.0 0.0 0.5480307 0.0 0.0 0.0 0.0 1.1688062 0.0 0.0 0.0 0.0 0.0 
0.0 0.73994356 0.0 0.0 0.0 0.0 0.0 0.0 0.0 0.0 1.5269561 0.0 0.16715239 0.0 0.0 0.0 
0.0 0.7090254 0.0 0.8048786 0.0 0.0 0.0 0.0 0.0 0.0 2.7796774 0.0 0.18393604 0.0 0.0 0.0 
0.0 1.5083258 0.0 1.3088753 0.0 0.0 0.0 0.0 0.0 0.0 2.930591 0.0 0.0 0.0 0.0 0.0 
0.0 2.5524113 0.0 2.005954 0.0 0.0 0.0 0.0 0.0 0.0 2.2600346 0.0 0.0 0.0 1.0232084 0.0 
0.0 1.8250533 0.0 2.5046906 0.0 0.0 0.0 0.0 0.0 0.0 0.5048362 0.0 0.0 0.07908208 1.9733 0.0 
0.0 0.0 0.0 0.9704895 0.0 0.0 2.152755 0.0 0.0 0.0 0.0 0.0 0.0 0.0 0.47332293 0.0 
0.0 0.0 0.0 0.0 0.0 0.0 0.0 0.0 0.0 0.0 0.0 0.0 0.0 0.0 0.0 0.0 
0.0 0.0 0.0 0.0 0.0 0.0 0.0 0.0 0.18621413 0.0 0.0 1.7158055 0.57856333 0.0 0.0 0.0 
0.0 2.4009593 0.0 0.0 0.0 0.0 0.0 0.0 0.0 0.0 0.0 1.5502999 0.0 0.0 0.0 0.0 
0.0 3.0719733 0.0 1.5420052 0.0 0.0 0.0 0.0 0.0 0.0 0.0 1.7638856 0.0 0.0 0.0 0.0 
0.0 3.2257695 0.0 3.9645472 0.0 0.07622495 0.0 0.0 0.0 0.45779827 0.0 0.0 0.0 0.0 0.0 0.0 
0.0 3.5401275 0.0 4.8057785 0.0 0.0 0.0 0.0 0.0 1.4524802 0.0 0.0 0.0 0.0 0.0 0.0 
0.0 3.5877192 0.0 3.4659865 0.69834745 0.0 0.0 0.0 0.0 2.836353 0.0 0.0 0.0 0.0 0.0 0.1283708 
0.0 2.936385 0.0 0.71821374 0.92885816 0.0 0.0 0.0 0.0 3.5432336 0.0 0.0 0.0 0.0 0.0 2.3498769 
0.0 0.0 0.0 0.0 0.0 0.0 0.0 0.0 0.0 2.2013423 0.0 0.0 0.0 0.0 1.7496611 0.0 
0.0 0.0 0.0 0.0 0.0 0.0 1.9320682 0.0 0.0 0.0 0.0 0.0 0.0 0.0 2.255173 0.0 
0.0 0.0 0.0 0.0 0.0 0.0 0.0 0.0 0.033874545 0.0 0.0 0.0 0.0 0.0 0.16637067 0.0 
0.0 0.0 0.0 0.0 0.0 0.0 0.0 0.0 1.9624164 0.0 0.0 0.0 0.06837787 0.0 0.0 0.0 
2.328344 2.4949284 0.0 0.0 0.0 0.0 0.0 0.0 0.0 0.49415028 0.0 0.0 0.0 0.0 0.0 0.0 
3.0493045 1.8329916 0.0 0.0 0.0 0.0 0.0 0.0 0.0 1.6735183 0.0 1.2178415 0.0 0.0 0.0 0.0 
3.0719888 1.3135659 0.0 0.0 0.0 0.0 0.0 0.0 0.0 3.3003993 0.0 0.051203787 0.0 0.0 0.0 0.0 
2.2620275 0.9786162 0.0 0.0 0.0 0.0 0.0 0.0 0.0 4.366871 0.0 0.0 0.0 0.0 0.0 0.0 
0.7643113 0.0 0.0 0.0 0.6634006 0.0 0.0 0.0 0.0 4.7020364 0.0 0.0 0.0 0.0 0.0 0.992887 
0.0 0.0 0.0 0.0 0.3120835 0.0 0.0 0.0 0.0 3.3501456 0.0 0.0 0.0 0.0 0.0 0.0 
0.0 0.0 0.0 0.0 0.0 0.0 0.0 0.0 0.0 0.941465 0.0 0.0 0.0 0.0 0.0 0.0 
0.0 0.0 0.0 0.0 0.0 0.0 1.3205776 0.37693596 0.0 0.0 0.0 0.0 0.88543546 0.0 0.0 0.0 
0.0 0.0 0.0 0.0 0.0 0.0 0.0 0.0 3.7344143 0.0 0.0 0.0 0.90006244 0.0 0.038027987 0.0 
0.0 0.0 0.0 0.0 0.0 0.0 0.0 0.0 2.4553263 0.0 0.42243475 0.0 0.06510882 0.0 0.0 0.7515265 
2.9478426 0.0 0.0 0.0 0.0 0.0 0.061487764 0.3537454 0.0 0.0 0.0 0.0 0.0 2.6482456 0.0 0.0 
3.251754 0.0 0.0 0.0 0.0 0.0 0.0 0.0 0.0 0.33290753 0.0 0.0 0.0 1.6922122 0.0 0.0 
3.5903642 0.0 0.0 0.0 0.0 0.0 0.0 0.0 0.0 0.6302253 0.0 0.0 0.59928024 1.1636506 0.0 0.0 
2.2948802 0.0 0.0 0.0 0.0 0.0 0.0 0.0 0.0 0.78141993 0.0 0.0 1.0718102 0.82180256 0.0 0.0 
0.21628948 0.0 0.0 0.0 0.0 0.0 0.0 0.0 0.0 0.0 0.0 0.0 1.7641742 0.0 0.0 0.0 
0.0 0.0 0.0 0.0 0.0 0.0 0.0 0.62880653 0.0 0.0 0.0 0.0 1.9696243 0.0 0.0 0.0 
0.0 0.0 0.0 0.0 0.0 0.0 0.0 1.8574873 0.0 0.0 0.0 0.0 1.4300281 0.0 0.0 0.0 
0.0 0.0 0.0 0.24038985 0.0 0.0 0.07950847 0.3596176 3.2390904 0.0 0.62556225 0.0 0.730646 0.31682312 0.0 0.0 
0.0 0.0 0.0 0.55026627 0.0 0.0 0.0 0.0 3.892889 0.0 1.0436885 0.0 0.0 0.018403344 0.0 0.37723193 
0.0 0.0 0.0 0.15329014 0.0 0.0 0.0 0.0 0.35604534 0.0 0.7891267 0.0 0.0 0.0 0.0 2.0915406 
0.0 0.0 0.0 0.0 0.0 0.0 0.2663003 0.0 0.0 0.0 3.6291223 0.0 2.220886 3.8435621 1.8683817 0.0 
0.0 0.0 0.0 0.0 0.0 0.0 0.0 0.0 0.0 0.0 4.044861 0.0 2.399702 4.137722 0.52570814 0.0 
0.0 0.0 0.0 0.0 0.0 0.0 0.0 0.0 0.0 0.0 4.1745195 0.0 3.2842605 3.6312013 0.0 0.0 
0.0 0.0 0.0 0.0 0.0 0.0 0.0 0.0 0.0 0.0 4.117069 0.0 3.5763593 2.4135778 0.0 0.0 
0.0 0.0 0.0 0.0 0.0 0.0 0.0 0.03883744 0.0 0.0 4.0399485 0.0 2.346812 1.211477 0.0 0.0 
0.0 0.0 0.0 1.3614802 0.0 0.0 0.0 0.8413466 0.0 0.0 3.2912357 0.0 1.0284673 0.55555457 0.0 0.0 
0.0 0.0 0.0 3.924117 0.0 0.0 0.0 0.018560156 1.8593317 0.0 2.3834627 0.0 0.0 0.55920917 0.0 0.0 
0.0 0.0 0.0 3.2825089 0.0 0.0 0.0 0.0 2.677078 0.0 1.4887614 0.0 0.0 0.0 0.0 0.6172875 
0.0 0.0 0.0 1.3643397 0.0 0.012851529 0.0 0.0 0.51269555 0.0 0.8893302 0.0 0.0 0.0 0.0 2.6050723 
0.0 0.0 0.0 0.57203233 0.4301816 0.34351808 0.0 0.0 0.0 0.0 0.45897043 0.0 0.0 0.0 0.0 1.7416234 

