0.6791863 0.0 0.0 0.0 0.08093367 1.1459773 0.0 0.0 0.0 0.0 0.0 0.0 0.0 0.6561725 0.0 0.0 
0.7831896 0.0 0.9215699 0.0 0.0 0.0 0.0 0.0 0.0 0.47623605 0.0 0.0 0.0 0.31994832 0.41469526 1.6051495 
0.63921225 0.0 0.72898895 0.0 0.0 0.0 0.0 0.0 0.0 0.24858344 0.0 0.0 0.63471264 0.0 0.0 1.3816961 
0.80721897 0.0 0.0 0.0 0.0 0.0 0.2161774 0.0 0.0 0.0 0.0 0.0 1.5490308 0.23537046 0.0 0.0 
0.7227573 0.0 0.0 0.0 0.0 0.0 0.0 0.0 0.0 0.0 0.0 0.0 2.223454 2.332785 0.0 0.0 
0.20335369 0.0 0.0 0.0 0.0 0.0 0.0 0.0 0.0 0.0 1.6452299 0.0 1.5615185 4.6636906 0.0 0.0 
0.28710207 0.0 0.0 0.0 0.0 0.0 0.0 0.0 0.0 0.0 1.3784435 0.0 1.3436432 4.4611335 0.0 0.0 
0.50763786 0.0 0.0 0.0 0.0 0.0 0.0 0.0 0.0 0.0 0.901144 0.0 1.4429884 2.4502094 0.0 0.0 
0.3243437 0.0 0.0 0.0 0.0 0.0 0.0 0.0 0.0 0.0 0.499455 0.5299026 1.1909726 1.1038364 0.0 0.0 
0.3003079 0.0 0.3170562 0.0 0.0 0.0 0.0 0.0 0.0 0.0 0.068055786 0.6803694 0.7389887 0.5478649 0.0 0.0 
0.0 0.0 0.0 0.0 0.12242488 1.4803872 0.0 0.0 0.0 0.0 0.5823417 0.0 0.0 0.37595108 0.1770389 0.0 
0.0 0.0 0.5115399 0.0 0.0 1.1395912 0.0 0.0 0.0 0.0 0.0 0.0 0.0 1.2759433 0.1698284 0.0 
0.0 0.0 0.09305595 0.0 0.0 0.0 0.0 0.68899536 0.0 0.0 0.0 0.0 1.0690848 0.0 0.005402848 0.0 
0.0 0.0 0.0 0.0 0.0 0.0 0.0 0.3538404 0.0 0.0 0.0 0.0 1.8981469 0.0 0.0 0.0 
0.0 0.0 0.0 0.0 0.0 0.0 0.0 0.0 0.0 0.0 0.0 1.0257343 1.9535 0.0 0.0 0.0 
0.0 0.60115975 0.0 0.8955218 0.0 0.0 0.0 0.0 0.0 0.0 0.0 0.0 1.1976916 0.0 0.0 0.0 
0.0 2.7206612 0.0 3.2997787 0.0 0.0 0.0 0.0 0.0 0.0 0.23040074 0.0 0.0 0.2722769 0.7037778 0.0 
0.0 3.0631456 0.0 3.6886976 0.0 0.0 0.0 0.0 0.0 0.0 0.35847926 0.0 0.0 0.0 0.115118936 0.0 
0.0 1.6786542 0.0 2.6401145 0.27509305 0.0 0.0 0.0 0.0 0.0 0.35872662 0.0 0.0 0.0 0.0 0.119674206 
0.0 0.0 0.0 1.5554721 0.51587933 0.0 0.0 0.0 0.0 0.0 0.21891582 0.7930151 0.0031902045 0.0 0.0 0.0 
0.0 0.0 0.0 0.0 0.0 0.606336 0.0 0.0 0.0 0.0 1.1256948 0.08735661 0.17081961 0.0 0.02816543 0.0 
0.0 0.0 0.0 0.0 0.0 2.6855655 0.0 0.0 0.0 0.0 0.7863983 0.0 0.0 0.48545113 0.0 0.0 
0.0 0.0 0.0 0.0 0.0 0.0 0.3542519 1.0101961 0.0 0.0 0.0014273189 0.0 0.0 1.2742318 0.0 0.0 
0.0 0.0 0.0 0.17186528 0.0 0.0 0.047798857 0.0 0.0 0.0 0.0 0.0 0.0 0.0 0.0 0.0 
0.0 0.0 0.0 0.0 0.0 0.0 0.0 0.0 0.0 0.46220997 0.0 0.20375192 0.0 0.0 0.0 0.0 
0.0 0.0 0.0 0.0 0.0 0.0 0.0 0.0 0.0 2.135658 0.0 0.2856004 0.0 0.0 0.0 0.0 
0.0 0.0 0.0 0.0 0.0 0.0 0.0 0.0 0.0 3.0318599 0.0 0.0 0.0 0.0 0.0 0.0 
0.0 0.0 0.0 0.030004974 0.0 0.0 0.0 0.0 0.0 2.3429425 0.0 0.0 0.0 0.0 0.49823046 0.0 
0.0 0.0 0.0 0.0 0.0 0.0 0.0 0.0 0.0 1.2234302 0.0 0.0 0.0 0.0 0.0 0.0 
0.0 0.0 0.0 0.0 0.0 0.0 0.0 0.0 0.0 0.1575931 0.0 0.0 0.0 0.0 0.0 0.0 
0.0 0.4105687 0.0 0.0 0.0 0.0 0.0 0.0 0.0 0.0 1.0033396 0.34272215 0.0 0.0 0.0 0.0 
0.0 0.17404617 0.0 0.0 0.0 2.0607789 0.0 0.0 0.0 0.0 1.081048 0.0 0.0 0.0 0.0 0.0 
0.0 0.0 0.0 0.03525064 0.0 1.9419353 0.89774215 0.0 0.0 0.0 0.33603957 0.0 0.0 1.5805882 0.72427845 0.0 
0.0 0.0 0.0 0.080339804 0.0 0.0 0.37599102 0.0 0.0 0.0 0.0 0.0 0.0 1.9132875 0.0 0.0 
0.0 0.0 0.0 0.0 0.0 0.0 0.0 0.0 0.0 0.0 0.0 0.0 0.0 0.0 0.0 0.70635563 
0.0 0.0 0.0 0.0 0.0 0.0 0.0 0.0 0.0 0.48579186 0.0 0.8076389 0.0 0.0 0.0 0.727993 
0.39510044 0.0 0.0 0.0 0.0 0.0 0.0 0.0 0.0 0.30246475 0.0 0.81581664 1.6867191 0.0 0.0 0.0 
0.1567924 0.0 0.0 0.0 0.0 0.0 0.0 0.0 0.0 0.0 0.0 0.0 1.2931232 0.2926935 0.0 0.0 
0.0 0.0 0.0 0.0 0.0 0.0 0.0 0.0 0.0 0.0 0.060652807 0.0 0.5732338 0.92028475 0.0 0.0 
0.0 0.0 0.0 0.0 0.0 0.0 0.0 0.0 0.658288 0.0 0.30362582 0.0 0.502039 0.28643957 0.0 0.0 
0.10667662 0.31145084 0.0 0.0 0.01576101 0.0 0.040089294 0.0 0.0 0.0 0.45308247 0.39284396 0.0 0.0 0.0 0.0 
0.0 1.0359038 0.0 0.0 0.0 0.5439807 0.0 0.0 0.0 0.0 0.0 0.0 0.0 0.0 0.0 0.0 
0.0 1.2288475 2.2097535 0.0 0.0 1.4360821 0.0 0.0 0.0 0.1445151 0.0 0.0 0.0 0.0 1.546514 0.0 
0.0 0.0 1.5589306 0.0 0.0 0.040195763 0.0 0.0 0.0 0.0 0.0 0.0 0.0 0.0 3.5145483 0.0 
0.0 0.0 0.0 0.0 0.0 0.0 0.0 0.0 0.0 0.0 0.0 0.0 0.0 0.0 1.7471894 0.84587336 
0.0 0.0 0.0 0.0 0.0 0.0 0.0 0.0 0.0 0.0 0.0 0.0 0.7864407 0.0 0.0 0.0 
0.0 0.0 0.0 0.0 0.0 0.0 0.0 0.0 0.0 0.0 0.0 1.7526782 2.14912 0.0 0.0 0.0 
0.0 0.0 0.0 0.0 0.0 0.0 0.0 0.0 0.0 0.0 0.0 1.7455797 2.2005959 0.0 0.0 0.0 
0.0 0.0 0.0 1.6334832 0.0 0.0 0.0 0.0 1.6740375 0.0 0.4624086 0.0 0.3059293 0.53136986 0.0 0.0 
0.0 0.0 0.0 1.8008246 0.0 0.0 0.0 0.0 0.23937342 0.0 1.2687988 0.0 0.0 0.69548357 0.0 0.44162756 
0.33226064 0.13036281 0.0 0.0 0.086675026 0.0 0.41433072 0.0 0.0 0.0 0.11602414 0.19433442 0.0 0.0 0.0 0.0 
0.54944044 0.66449076 0.0 0.0 0.6247313 0.0 0.0 0.0 0.0 0.030829463 0.0 0.0 0.0 0.0 0.0 0.0 
0.0 1.472964 1.6965852 0.0 0.0 0.0 0.0 0.0 0.0 1.22105 0.0 0.0 0.0 0.0 0.0 0.20003286 
0.0 0.0 1.7534667 0.0 0.0 0.0 0.0 0.0 0.0 0.5798597 0.0 0.0 0.0 0.0 1.813773 0.0 
0.0 0.0 0.0 0.0 0.0 0.0 0.6235712 0.0 0.0 0.0 0.0 0.0 0.005141452 0.0 1.8576697 0.0 
0.0 0.0 0.0 0.0 0.0 0.0 0.0 0.22044192 0.0 0.0 0.0 0.0 0.0 0.0 0.050155625 0.0 
0.0 0.0 0.0 0.15044811 0.0 0.0 0.0 0.0 0.0 0.0 0.0 0.0 0.0 0.0 0.0 0.0 
0.0 0.0 0.0 0.0 0.0 0.0 0.0 0.0 0.8092106 0.0 0.0 3.582487 0.7517684 0.0 0.0 0.0 
0.0 0.0 0.0 0.0 0.0 0.0 0.0 0.0 0.0 0.0 0.0 0.8852142 0.3444929 0.0 0.0 0.0 
0.0 0.0 0.0 0.26463258 0.0 0.71861345 0.0 0.0 0.0 0.0 0.0 0.0 0.0 0.0 0.0 0.18763894 
0.354062 0.0 0.0 0.0 0.08343188 0.17251956 0.054344162 0.0 0.0 0.0 0.09721726 0.0 0.0 0.0 0.0 0.0 
0.3968314 0.012239149 0.0 0.0 0.93995994 0.44169825 0.0 0.0 0.0 0.1110414 0.0 0.0 0.0 0.0 0.0 0.0 
0.0 0.08519877 0.71802354 0.0 0.0 0.0 0.0 0.0 0.0 0.79626006 0.0 0.0 0.0 0.0 0.0 1.2658706 
0.0 0.0 0.0 0.0 0.0 0.0 1.3154587 0.0 0.0 0.0 0.0 0.0 0.12988533 0.0 0.0 0.0 
0.0 0.0 0.0 0.0 0.0 0.5825223 1.3543483 0.0 0.0 0.0 0.0 0.0 0.0 0.0 0.0 0.0 
0.0 0.0 0.0 0.0 0.0 0.0 0.0 0.0 1.1733135 0.0 0.0 0.0 0.0 0.0 0.5786086 0.0 
0.0 0.0 0.0 0.7472168 0.0 0.0 0.0 0.0 0.436328 0.0 0.0 0.0 0.0 0.0 0.0 0.0 
0.0 0.0 0.0 0.0 0.0 0.0 0.0 0.0 0.0 0.0 0.0 1.2123001 0.0 0.0 0.0 0.0 
0.0 0.0 0.0 0.0 0.0 0.0 0.0 0.0 0.0 0.0 0.0 2.5273592 0.7939599 0.0 0.0 0.0 
0.0 0.0 0.46596503 0.0 0.0 0.32234648 0.0 0.0 0.0 0.0 0.0 0.0 0.09794636 0.0 0.0 0.0 
0.0 0.0 0.0 0.0 0.32082492 0.0 0.0 0.0 0.086044714 0.0 0.59981364 0.0 0.0 0.0 0.0 0.0 
0.0 0.0 0.0 0.0 0.725361 2.0301583 0.0 0.0 0.0 0.0 0.24585605 0.0 0.0 0.0 0.0 0.048750926 
0.0 0.0 0.20232064 0.0 0.0 0.49341547 0.0 0.7133577 0.0 0.0 0.0 0.0 0.0 0.0 0.0 0.0 
0.0 0.0 0.0 0.0 0.0 0.0 1.821185 2.2695787 0.0 0.0 0.0 0.0 0.0 0.0 0.0 0.0 
0.0 0.0 0.0 0.0 0.0 0.0 0.0 0.19844632 0.0 0.0 0.0 0.0 0.0 0.0 0.0 0.0 
0.0 0.0 0.0 0.0 0.0 0.0 0.0 0.0 0.10367358 0.0 0.0 0.0 0.0 0.0 0.017376095 0.0 
0.0 0.0 0.0 0.0 0.0 0.0 0.0 0.0 0.0 0.0 0.0 0.0 0.0 0.0 0.8323871 0.0 
0.0 0.0 0.0 0.0 0.0 0.0 0.0 0.0 0.0 0.0 0.0 0.0 0.0 0.0 0.0 0.0 
0.0 0.0 0.0 0.0 0.0 0.0 0.0 0.0 0.10027741 0.0 0.0 2.4267066 0.38130796 0.0 0.0 0.0 
0.0 0.0 0.49182117 0.0 0.0 0.0 0.0 0.0 0.0 0.0 0.0 0.932004 0.34252018 0.0 0.0 0.0 
0.0 0.0 0.0 0.0 0.3784371 0.0 0.0 0.0 0.21693778 0.0 0.9649229 0.01177761 0.0 0.0 0.0 0.0 
0.0 0.0 0.0 0.0 0.094482385 2.2320852 0.0 0.0 0.0 0.0 1.6891516 0.0 0.0 0.0 0.0 0.0 
0.0 0.0 0.26155922 0.0 0.0 3.15601 0.0 1.0011761 0.0 0.0 1.007428 0.0 0.0 2.2186284 0.0 0.0 
0.6110392 0.0 0.0 0.0 0.0 0.0 2.6650364 2.2089052 0.0 0.0 2.1732767 0.0 0.0 1.9702629 0.0 0.0 
0.0 0.0 0.0 0.0 0.0 0.0 0.0 0.0 0.0 0.28121036 1.0097517 0.0 0.0 0.0 0.0 0.0 
0.0 0.0 0.0 0.0 0.0 0.0 0.0 0.0 0.0 0.0 0.0 0.0 0.0 0.0 0.0 0.0 
0.0 0.0 0.42057723 0.0 0.0 0.0 0.71880287 0.0 0.0 0.0 0.0 0.0 1.0748458 0.0 0.2425827 0.0 
0.0 0.0 0.0 0.0 0.0 0.0 0.0 0.0 0.0 0.0 0.0 0.0 0.46557152 0.0 0.0 0.0 
0.0 0.0 0.0 0.0 0.0 0.0 0.0 0.0 1.9444892 0.0 0.0 0.4132159 0.3142829 0.0 0.0 0.0 
0.0 0.0 0.17534474 0.0 0.0 0.0 0.0 0.0 0.0 0.0 0.0 0.9764936 0.6961867 0.0 0.0 0.0 
0.0 0.037805647 0.0 0.0 0.10166805 0.0 0.0 0.042987324 0.0 0.0 0.766231 0.2643664 0.0 0.0 0.0 0.0 
0.0 0.44437048 0.0 0.0 0.0 0.6441857 0.0 0.0 0.0 0.0 1.5591123 0.21729594 0.0 0.0 0.0 0.0 
0.0 0.0 0.50398755 0.0 0.0 1.8873999 0.0 0.62556857 0.0 0.0 1.6272907 0.0 0.0 0.32209107 0.61466736 0.0 
0.0 0.0 0.0 0.0 0.0 0.0 1.848547 0.25142175 0.0 0.0 3.4890807 0.0 0.0 2.0179553 1.0042517 0.0 
0.0 0.0 0.0 0.0 0.0 0.0 0.0 0.0 0.0 0.0 5.177496 0.0 0.0 1.9980098 0.0 0.0 
0.0 0.0 0.0 0.0 0.0 1.1218438 0.0 0.0 0.0 0.0 2.8403754 0.0 0.5238805 2.7463112 0.0 0.0 
0.0 0.0 0.0752404 0.0 0.0 0.0 1.0750747 0.0 0.0 0.0 1.8602661 0.0 2.0390413 2.0913916 0.0 0.0 
0.0 0.0 0.0 0.0 0.0 0.0 0.0 0.0 2.4566555 0.0 1.5525407 0.0 1.3449531 0.65445566 0.0 0.0 
0.0 0.0 0.0 0.0 0.0 0.0 0.0 0.0 2.5696073 0.0 0.9366748 0.0 0.2932713 0.5174952 0.0 0.7110155 
0.0 0.0 0.0 0.04429755 0.0 0.0 0.0 0.0 0.0 0.0 0.19654107 0.75110173 0.41575652 0.0 0.0 0.097341426 

