0.0 0.0 0.0 0.0 0.0 0.0 0.0 0.0 0.0 0.0 0.0 0.0 0.0 0.0 0.0 0.0 
0.0 0.0 0.0 0.0013494566 0.0 0.0 0.0 0.0 0.0 0.0 0.0 0.0 0.0 0.0 0.0 0.0 
0.09827003 0.0 0.0 0.0 0.0 0.2467883 0.17537645 0.0 0.0 0.0 0.16861637 0.0 0.0 0.014981739 0.0 0.0 
0.40211025 0.0 0.0 0.0 0.32379338 1.1851072 0.0 0.0 0.0 0.0 0.0 0.0 0.0 0.7419459 0.0 0.0 
0.9352091 0.0 2.234471 0.0 0.0 0.0 0.0 0.0 0.0 0.0 0.0 0.0 0.0 1.0131061 0.3810048 0.9920137 
1.3023047 0.0 2.065968 0.0 0.0 0.0 0.70458925 0.0 0.0 0.008632354 0.0 0.0 0.0 0.0 0.0 0.69720113 
0.92214817 0.0 0.0 0.0 0.0 0.0 1.7049012 0.0 0.0 0.1209186 0.0 1.8967332 0.44824928 0.0 0.0 0.0 
1.0478549 0.0 0.0 0.0 0.0 0.0 0.0 0.0 0.0 0.0 0.0 2.6561494 0.92942226 0.0 0.0 0.0 
0.7979271 0.0 0.538592 0.0 0.0 0.3573249 0.0 0.0 0.0 0.0 0.0 0.0 0.059958823 0.33269152 0.0 0.0 
0.124485 0.0 0.65937626 0.0 0.0 0.5004183 0.0 0.0 0.0 0.0 0.0 0.0 0.0 0.18725583 0.0 0.0 
0.0 0.0 0.0 0.0 0.0 0.0 0.0 0.0 0.0 0.0 0.0 0.0 0.0 0.0 0.0 0.0 
0.0 0.0 0.0 0.0 0.0 0.0 0.0 0.0 0.0 0.0 0.0 0.0 0.0 0.0 0.0 0.0 
0.0 0.0 0.0 0.0 0.22830433 0.0 0.00835488 0.0 0.0 0.0 0.057337582 0.0 0.0 0.0 0.0 0.0 
0.0 0.0 0.0 0.0 0.5737281 0.82998085 0.0 0.0 0.0 0.0 0.0 0.0 0.0 0.0 0.25135797 0.0 
0.0 0.0 3.341898 0.0 0.0 0.42910928 0.0 0.0 0.0 0.0 0.0 0.0 0.0 0.38692153 1.9407556 0.6078888 
0.5224895 0.0 2.3714721 0.0 0.0 0.0 1.7352985 0.0 0.0 0.0 0.0 0.0 0.37758774 0.0 1.1491972 0.0 
0.7697427 0.0 0.0 0.0 0.0 0.0 2.5977561 0.0 0.0 0.0 0.0 0.54873717 0.6141338 0.0 0.0 0.0 
0.6647627 0.0 0.0 0.0 0.0 0.0 0.0 0.0 1.0014331 0.0 0.0 2.7661922 0.99564534 0.0 0.0 0.0 
0.42383492 0.0 0.97232366 0.0 0.0 0.0 0.0 0.0 0.26952037 0.0 0.0 1.217789 0.5686166 0.12537143 0.0 0.0 
0.34420696 0.0 0.99812984 0.0 0.0 0.13061857 0.0 0.0 0.0 0.0 0.0 0.0 0.0 0.0 0.0 0.0 
0.0 0.0 0.0 0.0 0.0 0.0 0.0 0.0 0.0 0.0 0.0 0.0 0.0 0.0 0.0 0.0 
0.0 0.0 0.0 0.0 0.0 0.0 0.10022968 0.0 0.0 0.0 0.011136053 0.0 0.0 0.0 0.0 0.0 
0.0 0.0 0.0 0.0 0.5222124 0.0 0.0 0.0 0.0 0.0 0.07036737 0.08979748 0.0 0.0 0.0 0.0 
0.0 0.18831061 0.0 0.0 0.9040784 0.69566697 0.0 0.0 0.0 0.0 0.0 0.0 0.0 0.0 0.058884338 0.0 
0.0 0.0 4.1946564 0.0 0.0 0.8263489 0.0 0.0 0.0 0.0 0.0 0.0 0.0 0.0 2.0544095 0.0 
0.0 0.0 2.451886 0.0 0.0 0.0 3.1012826 0.0 0.0 0.0 0.0 0.0 0.7049601 0.0 2.6894546 0.0 
0.0 0.0 0.0 0.0 0.0 0.0 2.9649029 0.0 0.0 0.0 0.0 0.0 0.62827814 0.0 0.0 0.0 
0.0 0.0 0.0 0.0 0.0 0.0 0.0 0.0 2.686427 0.0 0.0 1.173952 0.35322946 0.0 0.0 0.0 
0.0 0.0 0.07500239 0.0 0.0 0.0 0.0 0.0 0.03459843 0.0 0.0 1.5853325 0.5917543 0.0 0.0 0.0 
0.0 0.0 0.55662274 0.0 0.0 0.0 0.0 0.0 0.0 0.0 0.0 0.3951531 0.3783862 0.0 0.0 0.0 
0.0 0.0 0.0 0.013963437 0.0 0.0 0.0 0.0 0.0 0.0 0.0 0.0 0.0 0.0 0.0 0.0 
0.0 0.0 0.0 0.0 0.015523113 0.029770061 0.2343619 0.0 0.0 0.0 0.020551296 0.0 0.0 0.0 0.0 0.0 
0.0 0.0 0.0 0.0 0.9710834 0.0 0.0 0.0 0.0 0.0 0.11088911 0.051232293 0.0 0.0 0.0 0.0 
0.0 0.0 0.0 0.0 0.9310986 0.499992 0.0 0.0 0.0 0.4773298 0.0 0.0 0.0 0.0 0.0 0.7752946 
0.0 0.0 3.794759 0.0 0.0 0.6970673 0.0 0.0 0.0 0.58588576 0.0 0.0 0.0 0.0 0.23866652 0.0 
0.0 0.0 1.6384833 0.0 0.0 0.0 4.511887 0.7280388 0.0 0.0 0.0 0.0 0.83341235 0.0 0.9599497 0.0 
0.0 0.0 0.0 0.0 0.0 0.0 2.5568671 0.0 1.2349511 0.0 0.0 0.0 0.591136 0.0 0.0 0.0 
0.0 0.0 0.0 0.0 0.0 0.0 0.0 0.0 3.636473 0.0 0.0 0.0 0.0 0.0 0.0 0.0 
0.0 0.0 0.0 0.0 0.0 0.013021 0.0 0.0 0.0 0.0 0.0 0.9073186 0.33955008 0.0 0.0 0.0 
0.0 0.0 0.0 0.26954862 0.0 0.0 0.0 0.0 0.0 0.0 0.0 0.49289224 0.270459 0.0 0.0 0.0 
0.0 0.0 0.0 0.0 0.0 0.0 0.05456405 0.0 0.0 0.0 0.0 0.0 0.0 0.0 0.0 0.0 
0.0 0.0 0.0 0.0 0.32901323 0.02224338 0.17087695 0.0 0.0 0.0 0.0 0.0 0.0 0.0 0.0 0.0 
0.0 0.11628527 0.0 0.0 1.3276201 0.0 0.0 0.0 0.0 0.0 0.0 0.0 0.0 0.0 0.0 0.04631285 
0.0 0.36897376 0.92566586 0.0 0.5725447 0.12816858 0.0 0.0 0.0 0.40295422 0.0 0.0 0.0 0.0 0.0 1.3845981 
0.0 0.0 3.1051335 0.0 0.0 0.0 0.63900274 0.0 0.0 0.4561835 0.0 0.0 0.0 0.0 0.0 0.0 
0.0 0.0 0.0 0.03084974 0.0 0.0 5.3806553 1.806846 0.0 0.0 0.0 0.0 0.21967034 0.0 0.0 0.0 
0.0 0.0 0.0 0.0 0.0 0.0 0.8948092 0.0 3.248728 0.0 0.0 0.0 0.1606027 0.0 0.0 0.0 
0.0 0.0 0.0 0.0 0.0 0.0 0.0 0.0 3.29341 0.0 0.03179384 0.0 0.0 0.0 0.0 0.0 
0.0 0.0 0.0 0.0 0.0 0.010429807 0.0 0.0 0.0 0.0 0.040875755 0.45180222 0.1786093 0.0 0.0 0.0 
0.0 0.0 0.0 0.37380254 0.0 0.0 0.0 0.0 0.0 0.0 0.0 0.232981 0.11762442 0.0 0.0 0.19709542 
0.0 0.0 0.0 0.0 0.0 0.06392792 0.20548993 0.0 0.0 0.0 0.0 0.0 0.0 0.0 0.0 0.0 
0.11772816 0.0 0.0 0.0 0.7210249 0.0 0.0 0.0 0.0 0.0 0.0 0.0 0.0 0.0 0.0 0.0 
0.0502073 0.30224526 0.0 0.0 1.1622298 0.0 0.0 0.0 0.025327444 0.25967214 0.0 0.0 0.0 0.0 0.0 1.0953056 
0.0 0.23630622 1.5385429 0.0 0.0 0.0 0.0 0.0 0.0 0.5898179 0.0 0.0 0.0 0.0 0.0 1.5003096 
0.0 0.0 1.2028596 0.0 0.0 0.0 2.7966893 1.1984713 0.0 0.6675983 0.0 0.0 0.02540446 0.0 0.0 0.0 
0.0 0.0 0.0 0.27364978 0.0 0.0 4.4471383 1.823209 0.0 0.0 0.0 0.0 0.0 0.0 0.0 0.0 
0.0 0.0 0.0 0.0 0.0 0.0 0.0 0.0 4.361554 0.0 0.0 0.0 0.0 0.0 0.0 0.0 
0.0 0.0 0.0 0.0 0.0 0.5298644 0.0 0.0 1.8663069 0.0 0.2602671 0.0 0.0 0.0 0.0 0.5887772 
0.0 0.0 0.0 0.0 0.0 0.0 0.0 0.0 0.0 0.0 0.12911725 0.17912912 0.0 0.0 0.0 0.5431411 
0.0 0.0 0.0 0.35634786 0.0 0.0 0.0 0.0 0.0 0.0 0.0 0.06585705 0.0385234 0.0 0.0 0.120707296 
0.037466925 0.0 0.0 0.0 0.09472213 0.22489387 0.27387697 0.0 0.0 0.0 0.0 0.0 0.0 0.0 0.0 0.0 
0.032840338 0.0 0.0 0.0 1.1276652 0.04834707 0.0 0.0 0.0 0.0 0.0 0.0 0.0 0.0 0.0 0.0 
0.0 0.0 0.76079124 0.0 0.7151159 0.0 0.0 0.0 0.0 0.60200125 0.0 0.0 0.0 0.0 0.0 1.8250629 
0.0 0.0 2.0330112 0.0 0.0 0.0 0.0 0.11259869 0.0 0.37925428 0.0 0.0 0.0 0.0 0.0 0.0 
0.0 0.0 0.0 0.0 0.0 0.0 4.5338907 2.1904519 0.0 0.0 0.0 0.0 0.10361232 0.0 0.0 0.0 
0.0 0.0 0.0 0.0 0.0 0.0 2.1996207 1.2161673 2.1855953 0.0 0.0 0.0 0.07183196 0.0 0.0 0.0 
0.0 0.0 0.0 0.0 0.0 0.0 0.0 0.0 4.206916 0.0 0.0 0.0 0.0 0.0 0.0 0.0 
0.0 0.0 0.0 0.0 0.0 0.59245366 0.0 0.0 0.12723291 0.0 0.103154376 0.0 0.0 0.0 0.0 0.5753302 
0.0 0.0 0.0 0.12683792 0.0 0.0 0.0 0.0 0.0 0.0 0.0 0.0 0.0 0.0 0.0 0.6291038 
0.0 0.014322516 0.0 0.22724694 0.0 0.0 0.0 0.0 0.0 0.0 0.0 0.0 0.0 0.0 0.0 0.0 
0.029466238 0.0 0.0 0.0 0.25112906 0.23806447 0.025856754 0.0 0.0 0.0 0.088362634 0.0 0.0 0.0 0.0 0.0 
0.0 0.0 0.0 0.0 1.3719476 0.71757835 0.0 0.0 0.0 0.0 0.0 0.0 0.0 0.0 0.0 0.0 
0.0 0.0 1.1349444 0.0 0.0 0.0 0.0 0.0 0.0 0.14834535 0.0 0.0 0.0 0.0 0.0 1.1987867 
0.0 0.0 1.5117365 0.0 0.0 0.0 1.7844634 1.4710975 0.0 0.251625 0.0 0.0 0.0 0.0 0.0 0.0 
0.0 0.0 0.0 0.0 0.0 0.0 4.73362 2.1182604 0.0 0.0 0.0 0.08969283 0.0 0.0 0.0 0.0 
0.0 0.0 0.0 0.0 0.0 0.0 0.0 0.0 3.9479344 0.0 0.0 0.0 0.0 0.0 0.0 0.0 
0.0 0.0 0.0 0.0 0.0 0.25882474 0.0 0.0 2.3749535 0.0 0.072651654 0.0 0.0 0.10025378 0.0 0.12444022 
0.0 0.0 0.0 0.0 0.0 0.08551584 0.0 0.0 0.0 0.0 0.09940857 0.0 0.0 0.0 0.0 0.49216196 
0.0 0.01893505 0.0 0.15912955 0.0 0.0 0.0 0.0 0.0 0.0 0.0 0.0 0.0 0.0 0.0 0.2953363 
0.0 0.0 0.0 0.05961763 0.0 0.0 0.0 0.0 0.0 0.0 0.0 0.0 0.0 0.0 0.0 0.0 
0.0 0.0 0.0 0.0 0.40935752 0.0 0.0 0.0 0.17867604 0.0 0.53247386 0.0 0.0 0.0 0.0 0.0 
0.0 0.0 0.0 0.0 0.88172495 1.6738737 0.0 0.0 0.0 0.0 0.18312563 0.0 0.0 0.0 0.0 0.023266982 
0.0 0.0 1.1582798 0.0 0.0 0.7834695 0.0 0.7535028 0.0 0.0 0.0 0.0 0.0 0.0 0.0 0.0 
0.0 0.0 0.5730111 0.0 0.0 0.0 3.1140585 2.5110056 0.0 0.0 0.0 0.0 0.0 0.0 0.0 0.0 
0.0 0.0 0.0 0.0 0.0 0.0 2.8729942 1.0184075 0.66439205 0.0 0.0 0.0 0.0 0.0 0.0 0.0 
0.0 0.0 0.0 0.0 0.0 0.0 0.0 0.0 3.8720784 0.0 0.0 0.0 0.0 0.0 0.0 0.0 
0.0 0.0 0.0 0.0 0.0 0.7499688 0.0 0.0 0.4155881 0.0 0.09917115 0.0 0.0 0.0042264983 0.0 0.2756995 
0.0 0.0 0.0 0.09478787 0.0 0.0 0.0 0.0 0.0 0.0 0.011856915 0.06415972 0.032728963 0.0 0.0 0.60582924 
0.0 0.06279589 0.0 0.24547967 0.0 0.0 0.0 0.0 0.0 0.0 0.0 0.0 0.0 0.0 0.0 0.018951386 
0.0 0.0 0.0 0.0 0.0 0.0 0.0 0.0 0.0 0.0 0.0 0.0 0.0 0.0 0.0 0.0 
0.0 0.0 0.0 0.0 0.40543035 0.0 0.0 0.0 0.35140803 0.0 0.95886374 0.0018654317 0.0 0.0 0.0 0.0 
0.0 0.0 0.0 0.0 0.21062607 1.7947149 0.0 0.0 0.0 0.0 1.5177834 0.0 0.0 0.0 0.0 0.0 
0.0 0.0 1.0668083 0.0 0.0 2.045767 0.0 1.0027092 0.0 0.0 0.931421 0.0 0.0 0.8237717 0.0 0.0 
0.0 0.0 0.26523426 0.7398583 0.0 0.0 3.813058 1.93455 0.0 0.0 1.4519581 0.0 0.0 0.94667614 0.0 0.0 
0.0 0.0 0.0 0.0 0.0 0.0 0.59755445 0.0 2.526029 0.0 0.6287165 0.0 0.0 0.0 0.0 0.0 
0.0 0.0 0.0 0.0 0.0 0.0 0.0 0.0 2.79819 0.0 0.15433303 0.0 0.0 0.0 0.0 0.46184316 
0.0 0.0 0.0 0.0 0.0 0.020560078 0.0 0.0 0.0 0.0 0.02736354 0.0 0.17733938 0.0 0.0 0.55369234 
0.0 0.0 0.0 0.22499722 0.0 0.0 0.0 0.0 0.0 0.0 0.0 0.0 0.0 0.0 0.0 0.3893261 
0.0 0.0 0.0 0.103376985 0.0 0.0 0.0 0.0 0.0 0.0 0.0 0.0 0.0 0.0 0.0 0.0 
0.0 0.0 0.0 0.0 0.0 0.0 0.0 0.0 0.0 0.0 0.0 0.0 0.0 0.0 0.0 0.0 

