0.0 0.0 0.0 0.0 0.0 0.0 0.0 0.0 0.0 0.0 0.0 0.0 0.0 0.0 0.0 0.0 
0.0 0.0 0.0 0.0 0.0 0.0 0.16413334 0.0 0.0 0.0 0.0 0.0 0.0 0.0 0.0 0.0 
0.08672127 0.18002711 0.0 0.0 0.32140353 0.057896256 0.0 0.0 0.0 0.0 0.0 0.0 0.0 0.029036872 0.0 0.0 
0.8276906 0.74028456 0.53201437 0.0 0.0 0.0 0.0 0.0 0.0 0.0 0.0 0.0 0.0 0.0 0.0 0.7628489 
1.39109 1.0104251 0.6427912 0.0 0.0 0.0 0.0 0.0 0.0 0.71042734 0.0 0.0 0.0 0.0 0.00028081238 1.8464377 
2.121069 0.2012148 0.0 0.0 0.0 0.0 0.0 0.0 0.0 0.76073134 0.0 0.0 0.0 0.0 0.0 1.0534425 
2.951007 0.0 0.0 0.0 0.0 0.0 0.0 0.0 0.0 0.17101789 0.0 0.0 0.0 1.1031529 0.0 0.0 
2.8937807 0.0 0.79519594 0.0 0.0 0.0 0.0 0.0 0.0 0.0 0.0 0.0 0.0 0.071757205 0.0 0.0 
2.0455396 0.0 0.0 0.0 0.0 0.0 0.0 0.0 0.0 0.0 0.0 0.62970376 0.86702764 0.0 0.0 0.0 
1.562589 0.0 0.0 0.0 0.0 0.0 0.0 0.0 0.0 0.0 0.0 2.718027 1.532997 0.0 0.0 0.0 
0.0 0.0 0.0 0.0 0.0 0.0 0.0 0.0 0.0 0.0 0.0 0.0 0.0 0.0 0.0 0.0 
0.0710977 0.0 0.0 0.0 0.067159005 0.18451363 0.26592213 0.0 0.0 0.0 0.0 0.0 0.0 0.0 0.0 0.0 
0.5297697 0.0 0.0 0.0 0.55849445 0.3874738 0.0 0.0 0.0 0.0 0.0 0.0 0.0 0.27831885 0.0 0.0 
0.393299 0.18711494 1.4168259 0.0 0.0 0.0 0.0 0.0 0.0 0.7438045 0.0 0.0 0.0 0.0 0.7142363 2.2022467 
0.0 0.0 0.792083 0.0 0.0 0.0 0.024244068 0.0 0.0 0.50226766 0.0 0.0 0.15686525 0.0 0.0 1.9990569 
0.12804641 0.0 0.0 0.0 0.0 0.0 0.29261613 0.0 0.0 0.0 0.0 0.0 0.9228047 0.0 0.0 0.0 
0.17933841 0.0 0.0 0.0 0.0 0.0 0.0 0.0 0.0 0.0 0.0 0.0 1.2287583 1.3250958 0.31757277 0.0 
0.9574594 0.0 0.88815516 0.0 0.0 0.0 0.0 0.0 0.0 0.0 0.0 0.0 0.8177614 0.9493195 0.4301569 0.0 
2.1657622 0.0 0.0 0.0 0.0 0.0 0.0 0.0 0.0 0.0 0.0 0.0 0.7620342 0.0 0.0 0.0 
1.4342285 0.0 0.0 0.0 0.0 0.0 0.0 0.0 0.0 0.0 0.0 1.912194 0.69265854 0.0 0.0 0.0 
0.0 0.0 0.0 0.002778452 0.0 0.0 0.039881274 0.0 0.0 0.0 0.0 0.0 0.0 0.0 0.0 0.0 
0.030474123 0.0 0.0 0.0 0.33605295 0.16658351 0.09542986 0.0 0.0 0.0 0.018508466 0.0 0.0 0.0 0.0 0.0 
0.0 0.0 0.0 0.0 1.021091 0.7781964 0.0 0.0 0.0 0.0 0.0 0.0 0.0 0.047709472 0.0559697 0.21604393 
0.0 0.0 1.844939 0.0 0.0 0.0 0.0 0.0 0.0 0.0 0.0 0.0 0.0 0.0 0.063047856 1.8002477 
0.0 0.0 0.0 0.0 0.0 0.0 0.010854514 0.0 0.0 0.0 0.0 0.0 0.9833583 0.0 0.0 0.0 
0.0 0.0 0.0 0.0 0.0 0.0 0.0 0.12061916 0.0 0.0 0.0 0.0 0.5571349 0.0 0.0 0.0 
0.0 0.0 0.0 0.0 0.0 0.0 0.0 0.0837653 0.0 0.0 0.0 0.0 0.45376605 0.0 0.9370412 0.0 
0.0 0.0 0.0 0.0 0.0 0.0 0.0 0.0 0.0 0.0 0.0 0.0 0.0 0.86049575 2.0429797 0.0 
0.15744841 0.0 0.0 0.0 0.0 0.0 0.0 0.0 0.0 0.0 0.0 0.0 0.0 1.1662897 0.9188234 0.0 
0.0 0.0 0.0 0.0 0.0 0.0 0.0 0.0 0.0 0.0 0.0 0.0 0.5500347 0.0 0.0 0.0 
0.0 0.0 0.0 0.0 0.043312065 0.0 0.2027186 0.0 0.0 0.0 0.0 0.0 0.0 0.0 0.0 0.0 
0.0 0.0 0.0 0.0 0.8240179 0.0 0.0 0.0 0.049043838 0.0 0.0 0.0 0.0 0.0 0.0 0.0 
0.0 0.0 0.45133996 0.0 0.9135233 1.1483154 0.0 0.0 0.0 0.0 0.0 0.0 0.0 0.0 0.17078568 0.71264607 
0.0 0.10098586 1.9360389 0.0 0.0 8.4757805e-05 0.0 0.0 0.0 0.0 0.0 0.0 0.0 0.0 0.037935227 0.23637761 
0.7730819 0.0 0.0 0.0 0.0 0.0 1.6027063 1.4234124 0.0 0.49414557 0.0 0.0 0.0 0.0 0.0 0.0 
0.24653389 0.0 0.0 0.0 0.0 0.0 0.0 1.025033 0.0 1.6015881 0.0 0.0 0.0 0.0 0.0 0.0 
0.0 0.0 0.0 0.0 0.0 0.0 0.0 0.0 0.0 1.1743338 0.0 0.0 0.071971655 0.0 0.0 0.0 
0.0 0.0 0.0 0.0 0.0 0.0 0.0 0.0 0.0 0.0 0.0 0.0 1.3038777 0.29759112 0.4483173 0.0 
0.0 0.0 0.0 0.0 0.0 0.0 0.0 0.0 0.0 0.0 0.081882864 0.0 1.4701447 1.0029471 2.0228927 0.0 
0.0 0.0 0.0 0.0 0.0 0.0 0.0 0.0 0.6667458 0.0 1.061894 0.0 0.8558635 1.0428383 0.47989994 0.0 
0.107184306 0.17308989 0.0 0.0 0.42088956 0.0 0.0 0.0 0.0 0.0 0.0 0.0 0.0 0.0 0.0 0.0 
0.0012842007 0.55001193 0.0 0.0 0.6823065 0.0 0.0 0.0 0.10759783 0.0 0.0 0.0 0.0 0.0 0.0 0.709005 
0.0 1.2480856 0.22062007 0.0 0.94721997 0.0 0.0 0.0 0.0 0.5167813 0.0 0.0 0.0 0.0 0.0 1.2359226 
0.0 0.8711103 2.0540228 0.0 0.0 0.0 0.0 0.08004008 0.0 1.0629197 0.0 0.0 0.0 0.0 0.106852934 0.0 
0.0 0.0 0.0 0.0 0.0 0.0 3.060107 2.1330626 0.0 1.007509 0.0 0.0 0.0 0.0 0.0 0.0 
0.0 0.0 0.0 0.0 0.0 0.0 0.0 0.17831641 0.0 0.0 0.20813268 0.0 0.31945938 0.0 0.0 0.0 
0.0 0.0 0.0 0.0 0.0 0.0 0.0 0.0 0.0 0.0 0.8414468 0.0 0.6783876 0.0 0.0 0.0 
0.0 0.0 0.0 0.34145606 0.0 0.0 0.0 0.0 0.0 0.0 1.560248 0.0 0.9877513 0.0 0.0 0.0 
0.0 0.0 0.0 2.4301262 0.0 0.0 0.0 0.0 1.284734 0.0 1.8519312 0.0 0.5961976 0.0 1.4184895 0.0 
0.0 0.0 0.0 2.7888646 0.0 0.0 0.0 0.0 2.0937011 0.0 2.2122474 0.0 0.0 0.5412249 1.7527535 0.4145813 
0.55250263 0.51835304 0.37513226 0.0 0.37283435 0.0 0.0 0.0 0.0 0.122253135 0.0 0.0 0.0 0.0 0.0 0.65746844 
0.3964822 0.5277526 0.0 0.0 0.6861459 0.0 0.0 0.0 0.0 0.6471965 0.0 0.0 0.0 0.0 0.0 2.2770343 
0.0 0.023545487 0.0 0.0 0.8910901 0.0 0.0 0.0 0.0 0.7894052 0.0 0.0 0.0 0.0 0.0 0.9293117 
0.0 0.0 1.1928372 0.0 0.0 0.0 0.06479728 1.4093558 0.0 0.0 0.0 0.0 0.0 0.0 0.0 0.0 
0.0 0.0 0.0 0.0 0.0 0.0 1.9461755 2.4019198 0.0 0.0 0.0 0.0 1.0445842 0.0 0.0 0.0 
0.0 0.0 0.0 0.0 0.0 0.0 0.0 0.20793681 0.32411316 0.0 0.0 0.0 0.31838548 0.0 0.0 0.0 
0.0 0.0 0.0 1.7821443 0.0 0.0 0.0 0.0 0.5528199 0.0 0.016258107 0.0 0.0 0.0 0.0 0.0 
0.0 0.37109604 0.0 5.528105 0.0 0.0 0.0 0.0 0.0 0.0 1.0471541 0.0 0.0 0.0 0.0 0.0 
0.0 0.6380414 0.0 4.5187016 0.0 0.0 0.0 0.0 0.5379103 0.72310936 0.5034419 0.0 0.0 0.0 0.0 0.0 
0.0 0.0 0.0 2.439236 0.36366227 0.13990712 0.0 0.0 0.0 0.80332047 0.39446288 0.0 0.0 0.0 0.7140218 2.1875563 
0.13287713 0.35682166 1.1638565 0.0 0.4766029 0.0 0.0 0.0 0.23751253 0.7004246 0.0 0.0 0.0 0.0 0.5502786 1.9458816 
0.0 0.0 0.0 0.0 0.0 0.0 0.0 0.0 0.0 0.4277782 0.0 0.0 0.0 0.0 0.0 2.2581923 
0.0 0.0 0.0 0.0 0.39926684 0.0 0.0 0.0 0.0 0.0 0.0 0.0 0.2892843 0.0 0.0 0.0 
0.0 0.0 0.0 0.0 0.0 0.0 0.0 2.064746 0.0 0.0 0.0 0.0 0.26157415 0.0 0.0 0.0 
0.0 0.0 0.0 0.0 0.0 0.0 1.83034 2.0720775 0.0 0.0 0.0 0.0 0.0 0.0 0.0 0.0 
0.0 0.0 0.0 0.050909787 0.0 0.0 0.60602796 0.0 1.610501 0.0 0.0 0.0 0.0 0.0 0.0 0.0 
0.0 0.0 0.0 0.3101799 0.0 0.0 0.0 0.0 1.759893 0.8371168 0.0 0.5535189 0.0 0.0 0.0 0.0 
0.0 0.0 0.0 1.4071838 0.0 0.11809094 0.0 0.0 0.0 1.1989892 0.0 0.0 0.0 0.0 0.0 0.0 
0.0 0.0 0.0 1.1685659 0.24645 0.49666566 0.0 0.0 0.0 0.8930134 0.0 0.0 0.0 0.0 0.0 1.4721193 
0.0 0.0 0.0 0.48895022 0.52758455 0.39977258 0.0 0.0 0.0 0.24668273 0.0 0.0 0.0 0.0 0.0 1.1277126 
0.0 0.1268504 0.9513845 0.0 0.0 0.0 0.0 0.0 0.0 0.0 0.0 0.0 0.0 0.0 0.0 1.7340368 
0.0 0.43059063 0.0 0.0 0.0 0.0 0.0 0.034144923 0.0 0.0 0.0 0.0 0.0 0.0 0.0 0.0 
0.0 0.0 0.0 0.0 0.0 0.0 0.0 2.192962 0.0 0.0 0.0 0.0 0.0 0.0 0.0 0.0 
0.0 0.0 0.0 0.0 0.0 0.0 0.0 2.0407076 0.0 0.5596187 0.0 0.0 0.0 0.0 0.0 0.0 
0.020763654 0.0 0.0 0.12288904 0.0 0.0 1.6152093 0.8105992 0.0 0.0 0.0 0.0 0.0 0.06581313 0.0 0.0 
0.0 0.0 0.0 0.0 0.0 0.0 0.0 0.0 0.7836061 0.0 0.0 0.0 0.0 0.19669458 0.0 0.0 
0.0 0.0 0.0 0.0 0.0 0.0 0.0 0.0 1.415685 0.0 0.0 0.3667125 0.0 0.0 0.0 0.0 
0.0 0.0 0.0 0.0 0.0 0.3004016 0.0 0.0 0.0 0.0 0.0 0.097226694 0.18985553 0.0 0.0 0.0 
0.0 0.0 0.0 0.0 0.0 0.036906973 0.0061504804 0.0 0.0 0.0 0.0 0.0 0.08311039 0.0 0.0 0.36492908 
0.0 0.010431584 0.0 0.0 0.0 0.0 0.004797861 0.0 0.0 0.0 0.0 0.0 0.0 0.0 0.0 0.075952984 
0.0 0.0 0.013863418 0.0 0.0 1.2375429 0.0 0.25074995 0.0 0.0 0.0 0.0 0.0 0.30878857 0.0 0.0 
0.5199165 0.0 0.0 0.0 0.0 0.0 0.5097292 2.6586041 0.0 0.4025603 0.0 0.0 0.0 0.0 0.0 0.0 
0.0 0.0 0.0 0.0 0.0 0.0 0.0 1.8288623 0.0 1.4758837 0.0 0.0 0.0 0.0 0.0 0.0 
0.0 0.0 0.0 0.0 0.0 0.0 0.0 0.0 0.0 0.3285029 0.0 0.0 0.0 0.0 0.0 0.0 
0.0 0.0 0.0 0.0 0.0 0.0 0.13895696 0.0 0.0 0.0 0.0 0.0 0.42392296 0.0 0.0 0.0 
0.0 0.0 0.0 0.0 0.0 0.0 0.0 0.0 1.6632671 0.0 0.0 0.0 0.13300325 0.0 0.0 0.0 
0.0 0.0 0.0 0.0 0.0 0.0 0.0 0.0 1.5473212 0.0 0.0 0.0 0.05251115 0.0 0.0 0.21710014 
0.0 0.0 0.0 0.063506186 0.0 0.0 0.0 0.0 0.0 0.0 0.06433508 0.6285219 0.32245177 0.0 0.0 0.14233565 
0.0 0.0 0.0 0.25145233 0.0 0.0 0.0 0.0 0.0 0.0 0.008003291 0.13811211 0.093806595 0.0 0.0 0.0 
0.0 0.0 0.0 0.0 0.0 0.0 0.0 0.0 0.0 0.0 0.0 0.0 0.0 0.0 0.0 0.0 
0.0 0.0 0.0 0.0 0.0 2.2177272 0.0 0.90354216 0.0 0.0 2.206852 0.0 0.0 1.620399 0.0 0.0 
0.0 0.0 0.0 0.0 0.0 0.0 1.7269267 2.290008 0.0 0.0 3.931071 0.0 0.0 2.368939 0.0 0.0 
0.0 0.0 0.0 0.0 0.0 0.0 0.0 0.015855119 0.0 0.0 3.1323211 0.0 0.0465706 1.5690695 0.0 0.0 
0.0 0.0 0.0 0.0 0.0 0.0 0.0 0.0 0.0 0.0 0.8278487 0.0 0.38405466 0.83758646 0.0 0.0 
0.0 0.0 0.0 0.0 0.0 0.0 0.0 0.0 0.45000032 0.0 0.21320722 0.0 1.4110639 0.3868196 0.0 0.0 
0.0 0.0 0.0 0.0 0.0 0.0 0.0 0.0 2.9677997 0.0 0.75270873 0.0 0.37425095 0.0 0.0 0.0 
0.0 0.0 0.0 0.0 0.0 0.0 0.0 0.0 0.51069206 0.0 0.73471624 0.0 0.054902606 0.0 0.0 1.5660832 
0.0 0.0 0.0 0.40389213 0.0 0.0 0.0 0.0 0.0 0.0 0.117907494 0.16095027 0.0 0.0 0.0 0.67628515 
0.0 0.0 0.0 0.2838003 0.0 0.0 0.0 0.0 0.0 0.0 0.0 0.0 0.0 0.0 0.0 0.0 
0.0 0.0 0.0 0.0 0.0 0.0 0.0 0.0 0.0 0.0 0.0 0.0 0.0 0.0 0.0 0.0 

