0.0 0.0 0.0 0.017389037 0.0 0.0 0.0 0.0 0.0 0.0 0.0 0.0 0.0 0.0 0.0 0.0 
0.0 0.0 0.0 0.028969225 0.0 0.0 0.029526392 0.0 0.0 0.0 0.0 0.0 0.0 0.0 0.0 0.0 
0.0 0.02868755 0.0 0.028671466 0.033668004 0.0 0.020108087 0.0 0.0 0.0 0.0 0.0 0.0 0.0 0.0 0.0 
0.0 0.51214945 0.050986413 0.0 0.019629955 0.0 0.0 0.0 0.0 0.0 0.0 0.0 0.0 0.0 0.0 0.0 
0.30617678 1.2387661 0.115691036 0.0 0.0 0.0 0.0 0.0 0.0 0.0 0.0 0.0 0.0 0.0 0.0 0.3759307 
1.1664463 2.2669885 0.0 0.0 0.0 0.0 0.0 0.0 0.0 0.0 0.0 0.0 0.0 0.0 0.0 0.9798502 
2.0628724 2.7334807 0.0 0.0 0.0 0.0 0.0 0.0 0.0 0.17930472 0.0 0.0 0.0 0.0 0.0 0.94293785 
2.354932 1.9071354 0.0 0.0 0.0 0.0 0.0 0.5811042 0.0 0.49959004 0.0 0.0 0.0 0.0 0.0 0.041121915 
1.6867634 0.44827437 0.0 0.0 0.0 0.0 0.0 0.43021858 0.0 0.96891725 0.0 0.0 0.0 0.0 0.0 0.0 
1.2962703 0.0 0.0 0.0 0.0065449104 0.0 0.0 0.0 0.0 0.9125562 0.0 0.5103488 0.0 0.0 0.0 0.0 
0.0 0.0 0.0 0.0 0.0 0.0 0.069288045 0.0 0.0 0.0 0.0 0.0 0.0 0.0 0.0 0.0 
0.0 0.07612384 0.0 0.0 0.08582968 0.0 0.010743013 0.0 0.0 0.0 0.0 0.0067185163 0.0 0.0 0.0 0.0 
0.16106632 0.55096763 0.20513535 0.0 0.00077214837 0.0 0.0 0.0 0.0 0.0 0.0 0.0 0.0 0.0 0.0 0.096721105 
0.9221801 1.1705363 0.23203507 0.0 0.0 0.0 0.0 0.0 0.0 0.18032733 0.0 0.0 0.0 0.0 0.0 1.0249413 
1.652134 1.5327874 0.0 0.0 0.0 0.0 0.0 0.0 0.0 0.8355842 0.0 0.0 0.0 0.0 0.03979461 1.9101976 
2.280794 0.124933295 0.0 0.0 0.0 0.0 0.0 0.0 0.0 1.1217345 0.0 0.0 0.0 0.18415758 0.0 1.5562494 
2.6586769 0.0 0.0 0.0 0.0 0.0 0.0 0.49008822 0.0 0.623096 0.0 0.0 0.0 1.6620148 0.0 0.0 
2.7637112 0.0 0.0 0.0 0.0 0.0 0.0 0.7840029 0.0 0.31031454 0.0 0.0 0.4311098 2.2967174 0.0 0.0 
1.8536595 0.0 0.0 0.0 0.0 0.0 0.0 0.0 0.0 0.0 0.0 0.0 0.71766746 1.3801904 0.0 0.0 
1.2218287 0.0 0.0 0.0 0.0 0.0 0.0 0.0 0.0 0.0 0.0 0.0 1.0709839 0.51717716 0.0 0.0 
0.0 0.084736176 0.0 0.0 0.0 0.10420112 0.09786565 0.0 0.0 0.0 0.0 0.0 0.0 0.0 0.0 0.0 
0.4613522 0.4407043 0.0 0.0 0.14153928 0.0 0.0 0.0 0.0 0.0 0.0 0.0 0.0 0.07092143 0.0 0.0 
0.8618062 1.084306 0.58485883 0.0 0.0 0.0 0.0 0.0 0.0 0.39312527 0.0 0.0 0.0 0.0 0.14352386 1.2500651 
1.0568585 0.79163843 0.38329884 0.0 0.0 0.0 0.0 0.0 0.0 1.067542 0.0 0.0 0.0 0.0 0.34806442 2.5286524 
0.3036428 0.0 0.0 0.0 0.0 0.0 0.0 0.0 0.0 0.7630477 0.0 0.0 0.5314872 0.0 0.0 0.63245255 
0.0 0.0 0.0 0.0 0.0 0.0 0.0 0.33319712 0.0 0.0 0.0 0.0 1.7321401 0.60705805 0.0 0.0 
0.0 0.0 0.0 0.0 0.0 0.0 0.0 0.0 0.0 0.0 0.23670617 0.0 2.0852685 1.0006759 0.0 0.0 
0.0 0.0 0.0 0.0 0.0 0.0 0.0 0.0 0.0 0.0 1.5090837 0.0 1.9737709 2.4305415 0.37279785 0.0 
0.0 0.0 0.0 0.0 0.0 0.0 0.0 0.0 0.0 0.0 2.1398509 0.0 0.9996286 3.2435277 0.0 0.0 
0.0 0.0 0.0 0.3514085 0.0 0.0 0.0 0.0 0.20423535 0.0 2.191963 0.0 0.54914385 1.9605755 0.0 0.0 
0.38587 0.0 0.0 0.0 0.0 0.3228311 0.0 0.0 0.0 0.0 0.0 0.0 0.0 0.12959474 0.0 0.0 
0.6787494 0.021804495 0.0 0.0 0.02033288 0.75345665 0.0 0.0 0.0 0.0 0.0 0.0 0.0 0.45973632 0.0 0.18475938 
0.24162485 0.19864239 0.15241572 0.0 0.0 0.0 0.0 0.0 0.0 0.47972554 0.0 0.0 0.0 0.0 0.0 1.4992784 
0.0 0.0 0.0 0.0 0.0 0.0 0.0 0.0 0.0 0.0 0.0 0.0 0.52991915 0.0 0.0 0.0 
0.0 0.0 0.0 0.0 0.0 0.0 0.0 0.7628476 0.0 0.0 0.0 0.0 0.9202385 0.0 0.0 0.0 
0.14173895 0.2338748 0.0 0.0 0.0 0.0 0.0 1.522819 0.0 0.0 0.0 0.0 0.8306781 0.0 0.0 0.0 
0.0 1.6612847 0.0 0.42651817 0.0 0.0 0.0 0.047291093 0.0 0.0 0.0 0.0 0.45478618 0.0 0.0 0.0 
0.0 1.3417922 0.0 2.958394 0.0 0.0 0.0 0.0 0.0 0.0 0.04035417 0.0 0.018681608 0.0 0.57990175 0.0 
0.0 0.0 0.0 3.5198376 0.0 0.0 0.0 0.0 0.0 0.0 1.0976435 0.0 0.0 0.385641 1.3840787 0.0 
0.0 0.0 0.0 3.268471 0.0 0.0 0.0 0.0 0.0 0.0 1.3305322 0.0 0.0 0.06090583 0.8523494 0.45807716 
0.0 0.0 0.0 0.0 0.0 0.0 0.0 0.0 0.1552996 0.08979128 0.54083216 0.0 0.0 0.0 0.0 0.0 
0.0 0.0 0.0 0.0 0.0 1.4016414 0.0 0.0 0.0 0.058569703 0.83607626 0.0 0.0 0.6225749 0.09639077 0.26986286 
0.0 0.0 0.0 0.0 0.0 1.1289291 0.0 0.0 0.0 0.0 0.4263196 0.0 0.08539984 1.3503599 0.0 0.0 
0.3051391 0.0 0.0 0.0 0.0 0.0 0.0 0.7197804 0.0 0.0 0.7475113 0.0 0.0 0.6025764 0.0 0.0 
1.1166927 0.0 0.0 0.0 0.0 0.0 0.0 1.6692536 0.0 0.0 0.0 0.0 0.0 0.0 0.0 0.0 
1.6234195 0.0 0.0 0.0 0.0 0.0 0.0 0.0 0.0 1.2826533 0.0 0.0 0.0 0.0 0.0 0.0 
0.73985165 0.0 0.0 0.0 0.0 0.0 0.0 0.0 0.0 1.4660006 0.0 0.0 0.0 0.0 0.0 0.0 
0.0 0.0 0.0 0.0 0.0 0.0 0.0 0.0 0.0 1.5704545 0.0 0.0 0.0 0.0 0.0 0.0 
0.0 0.0 0.0 0.0 0.0 0.0 0.0 0.0 0.0 1.3965738 0.0 0.0 0.0 0.0 0.0 0.0 
0.0 0.0 0.0 0.097676486 0.0 0.1976633 0.0 0.0 0.0 1.2615777 0.0 0.0 0.0 0.0 0.4266916 0.13218345 
0.0 0.0 0.0 0.0 0.0 0.0 0.0 0.0 0.028188042 0.0 0.6088858 0.0 0.13961817 0.0 0.0 0.0 
0.0 0.0 0.0 0.0 0.0 0.29691678 0.0 0.0 0.0 0.0 1.3486217 0.0 0.34855974 0.0 0.0 0.0 
0.0 0.0 0.0 0.0 0.0 1.1737387 0.0 0.0 0.0 0.0 1.8633821 0.0 0.0 0.46994838 0.0 0.0 
0.0 0.0 0.0 0.0 0.0 0.0 0.5029205 0.02659969 0.0 0.0 2.4746773 0.0 0.0 2.2949564 0.0 0.0 
0.0 0.0 0.0 0.0 0.0 0.0 0.0 0.0 0.0 0.09926249 1.1822417 0.0 0.0 2.3002841 0.0 0.0 
0.0 0.0 0.0 0.0 0.0 0.0 0.0 0.0 0.0 0.0 0.0 0.0 0.29012555 1.4782245 0.0 0.0 
0.0 0.0 0.0 0.0 0.0 0.0 1.0889949 0.0 0.0 0.0 0.0 0.0 0.5213621 0.5954591 0.0 0.0 
0.0 0.0 0.0 0.0 0.0 0.0 0.0 0.0 0.05245981 0.0 0.0 0.105871454 0.7031432 0.2230939 0.0 0.0 
0.0 0.0 0.34035867 0.0 0.0 0.0 0.0 0.0 0.43722323 0.0 0.0 0.19035888 0.44574702 0.0 0.0 0.0 
0.0 0.0 0.4434944 0.0 0.0 0.0 0.0 0.0 0.0 0.0 0.0 0.0 0.36914176 0.0 0.0 0.0 
0.0 0.16627656 0.0 0.0 0.0 0.0 0.0 0.04742395 0.0 0.0 0.3679747 0.27826008 0.0 0.0 0.0 0.0 
0.0 0.82854295 0.0 0.0 0.0 0.0 0.0 0.0 0.0 0.0 0.81648594 0.4324561 0.0 0.0 0.0 0.0 
0.0 1.5154788 0.0 0.23466931 0.0 0.5190477 0.0 0.0 0.0 0.0 0.23695359 0.0 0.0 0.0 0.0 0.0 
0.0 1.8680826 0.0 0.0 0.0 0.0 0.0 0.0 0.0 0.0 0.0 0.0 0.0 0.0 1.6630586 0.0 
0.0 1.0519252 0.0 1.2350304 0.0 0.0 0.0 0.0 0.0 0.0 0.0 0.0 0.0 0.0 2.7685962 0.0 
0.0 0.0 0.0 1.7703327 0.0 0.0 0.56892705 0.0 0.0 0.0 0.09949421 0.0 0.0 0.0 1.9615796 0.0 
0.0 0.0 0.0 1.7565838 0.0 0.0 0.296129 0.0 0.0 0.0 0.23653418 0.0 0.2970668 0.0 0.21750255 0.0 
0.0 0.0 0.0 0.99599403 0.0 0.0 0.0 0.0 1.7767929 0.0 0.48431435 0.0 0.0 0.0 0.0 0.0 
0.0 0.0 0.0 0.5943653 0.0 0.0 0.0 0.0 0.0 0.0 0.39360064 0.55267906 0.37408108 0.0 0.0 0.0 
0.0 0.0 0.0 0.5622498 0.0 0.0 0.0 0.0 0.0 0.0 0.09607291 0.44893822 0.23587103 0.0 0.0 0.19155031 
0.069592625 0.09206724 0.0 0.0 0.0 0.0 0.2105744 0.0 0.0 0.0 0.16010982 0.07278404 0.0 0.0 0.0 0.0 
0.4597145 0.45018968 0.0 0.10489249 0.0 0.0 0.16704811 0.0 0.0 0.027892675 0.0 0.28072813 0.0 0.0 0.0 0.0 
0.10106982 1.0627363 0.0 0.0 0.0 0.0 0.0 0.0 0.0 1.4336581 0.0 0.0 0.0 0.0 0.0 0.0 
0.0 1.03358 0.0 0.0 0.0 0.0 0.0 0.0 0.0 2.5516849 0.0 0.0 0.0 0.0 0.0 0.0 
0.0 0.0 0.0 0.3310246 0.0 0.0 0.048825376 0.0 0.0 2.3188808 0.0 0.0 0.0 0.0 0.09317814 0.0 
0.0 0.0 0.0 1.2863417 0.0 0.0 2.2596295 0.0 0.0 1.0564857 0.0 0.0 0.0 0.0 0.39880365 0.0 
0.0 0.0 0.0 0.5782265 0.0 0.0 0.0 0.0 1.2031747 0.18866009 0.0 0.0 0.0 0.0 0.021663725 0.0 
0.0 0.0 0.0 0.096903995 0.0 0.0 0.0 0.0 1.3714691 0.0 0.0 0.0 0.0 0.0 0.0 0.6143388 
0.0 0.0 0.0 0.22895628 0.0 0.0 0.0 0.0 0.0 0.0 0.049787737 0.0 0.0 0.0 0.0 0.599572 
0.0 0.0 0.0 0.49273345 0.0 0.0 0.0 0.0 0.0 0.0 0.0 0.0 0.0 0.0 0.0 0.26369298 
0.13432787 0.14649843 0.0 0.0 0.0 0.0 0.19669062 0.0 0.0 0.0 0.0 0.0 0.0 0.0 0.0 0.0 
0.6545358 0.44276056 0.0 0.0 0.2070446 0.0 0.0 0.0 0.0 0.098729745 0.0 0.0 0.0 0.0 0.0 0.0 
0.18627225 0.7484325 0.0 0.0 0.50469947 0.0 0.0 0.0 0.0 1.0262978 0.0 0.0 0.0 0.0 0.0 1.1125543 
0.0 0.20610811 0.0 0.0 0.0 0.0 0.0 0.0 0.0 1.3450431 0.0 0.0 0.0 0.0 0.0 0.8651334 
0.0 0.0 0.0 0.0 0.0 0.0 2.3417592 0.46010387 0.0 0.3684068 0.0 0.0 0.0 0.0 0.0 0.0 
0.0 0.0 0.0 0.0 0.0 0.0 2.3292058 0.60393316 0.06175587 0.0 0.0 0.0 0.0 0.0 0.0 0.0 
0.0 0.0 0.0 0.0 0.0 0.0 0.0 0.0 2.9587634 0.0 0.0 0.0 0.0 0.0 0.0 0.0 
0.0 0.0 0.0 0.0 0.0 0.37282276 0.0 0.0 0.7679633 0.0 0.16630399 0.0 0.0 0.0 0.0 0.95927817 
0.0 0.0 0.0 0.08440719 0.0 0.0 0.0 0.0 0.0 0.0 0.036384277 0.0 0.0 0.0 0.0 0.58111733 
0.0 0.02745853 0.0 0.19329086 0.0 0.0 0.0 0.0 0.0 0.0 0.0 0.0 0.0 0.0 0.0 0.001078051 
0.33326745 0.0046949144 0.0 0.0 0.0 0.11525425 0.0 0.0 0.0 0.0 0.0 0.0 0.0 0.042457484 0.0 0.0 
0.36893803 0.067235425 0.0 0.0 0.17632142 0.056123972 0.0 0.0 0.0 0.19068123 0.0 0.0 0.0 0.0 0.0 0.4045802 
0.0 0.0 0.0 0.0 0.0 0.0 0.0 0.0 0.0 0.48933077 0.0 0.0 0.0 0.0 0.0 1.1179736 
0.0 0.0 0.0 0.0 0.0 0.0 0.2432337 0.6386934 0.0 0.0 0.0 0.0 0.0 0.0 0.0 0.0 
0.0 0.0 0.0 0.0 0.0 0.0 1.9394028 1.76603 0.0 0.0 0.0 0.0 0.0 0.0 0.0 0.0 
0.0 0.0 0.0 0.0 0.0 0.0 0.0 0.30127126 2.5072317 0.0 0.0 0.0 0.035880342 0.0 0.0 0.0 
0.0 0.0 0.0 0.0 0.0 0.0 0.0 0.0 2.2375693 0.0 0.19955021 0.0 0.0 0.0 0.0 0.2323828 
0.0 0.0 0.0 0.0 0.0 0.1680837 0.0 0.0 0.0 0.0 0.27510488 0.0 0.0 0.0 0.0 0.8199845 
0.0 0.059034992 0.0 0.26790178 0.0033406988 0.0 0.0 0.0 0.0 0.0 0.0 0.0 0.0 0.0 0.0 0.31241322 
0.0 0.00049046683 0.0 0.06443288 0.0 0.0 0.0 0.0 0.0 0.0 0.0 0.0 0.0 0.0 0.0 0.0 

