0.0 0.0 0.0 0.0 0.0 0.0 0.0 0.0 0.0 0.0 0.0 0.0 0.0 0.0 0.0 0.0 
0.0 0.0 0.0 0.0 0.0 0.0 0.039313868 0.0 0.0 0.0 0.0 0.0 0.0 0.0 0.0 0.0 
0.0 0.015525215 0.0 0.0 0.10999643 0.0 0.12557717 0.0 0.0 0.0 0.0 0.0 0.0 0.0 0.0 0.0 
0.17023362 0.45607412 0.2671733 0.0 0.19403726 0.0 0.0 0.0 0.0 0.0 0.0 0.0 0.0 0.0 0.0 0.0 
0.67110217 1.1434646 0.6561487 0.0 0.0 0.0 0.0 0.0 0.0 0.0 0.0 0.0 0.0 0.0 0.0 0.9625019 
1.3184972 2.11612 0.35281864 0.0 0.0 0.0 0.0 0.0 0.0 0.10158433 0.0 0.0 0.0 0.0 0.0 1.3535483 
1.59655 1.843248 0.0 0.0 0.0065878555 0.0 0.65846217 0.0 0.0 0.0 0.0 0.36982626 0.0 0.0 0.0 0.29723868 
1.4415548 0.08746944 0.0 0.0 0.5594115 0.0 0.0 0.0 0.0 0.309771 0.0 0.9080342 0.0 0.0 0.0 0.0 
1.3448074 0.0 0.47858405 0.0 0.0 0.0 0.0 0.0 0.0 0.49081904 0.0 0.0 0.0 0.0 0.0 0.0 
1.5730674 0.0 0.93115634 0.0 0.0 0.0 0.0 0.0 0.0 0.4776371 0.0 0.0 0.0 0.0 0.0 0.0 
0.0 0.0 0.0 0.0 0.0 0.0 0.0 0.0 0.0 0.0 0.0 0.0 0.0 0.0 0.0 0.0 
0.0 0.0 0.0 0.0 0.0 0.05668795 0.18271174 0.0 0.0 0.0 0.0 0.0 0.0 0.0 0.0 0.0 
0.26050377 0.13115858 0.0 0.0 0.38866347 0.0 0.0 0.0 0.0 0.0 0.0 0.0 0.0 0.0 0.0 0.0 
0.6771576 0.6430468 0.9752244 0.0 0.0 0.0 0.0 0.0 0.11713597 0.24568006 0.0 0.0 0.0 0.0 0.32284242 1.1496824 
1.2223756 0.65770924 1.264064 0.0 0.0 0.0 0.0 0.0 0.0 0.5255177 0.0 0.0 0.0 0.0 0.120357975 2.3589163 
1.834286 0.0 0.0 0.0 0.0 0.0 0.72126377 0.0 0.0 0.0 0.0 0.048558205 0.0 0.31124094 0.0 0.26700795 
2.497477 0.0 0.0 0.0 0.0 0.0 0.0 0.0 0.0 0.04621542 0.0 0.0 0.0 0.116794325 0.0 0.0 
1.907342 0.0 0.0 0.0 0.0 0.0 0.0 0.0 0.0 0.23162594 0.0 0.0 0.0 0.0 0.0 0.0 
1.329931 0.0 0.7400308 0.0 0.0 0.0 0.0 0.0 0.0 0.009931885 0.0 0.0 0.09051286 0.0 0.0 0.0 
1.613385 0.0 0.23845524 0.0 0.0 0.0 0.0 0.0 0.0 0.0 0.0 0.0 0.7516289 0.2991515 0.0045704246 0.0 
0.0 0.0 0.0 0.005414808 0.0 0.0 0.022358416 0.0 0.0 0.0 0.0 0.0 0.0 0.0 0.0 0.0 
0.14869785 0.0 0.0 0.0 0.16110355 0.24803093 0.26903808 0.0 0.0 0.0 0.0 0.0 0.0 0.0 0.0 0.0 
0.318076 0.014465025 0.0 0.0 0.75334483 0.48781943 0.0 0.0 0.0 0.0 0.0 0.0 0.0 0.15453422 0.0 0.0 
0.0 0.3756922 1.759278 0.0 0.0 0.0 0.0 0.0 0.0 0.5501415 0.0 0.0 0.0 0.0 0.22100438 2.1332679 
0.110883236 0.38568464 1.1483848 0.0 0.0 0.0 0.0 0.0 0.0 0.0 0.0 0.0 0.373982 0.0 0.092216164 1.0338278 
1.4514974 0.0 0.0 0.0 0.0 0.0 0.3167022 0.20470409 0.0 0.0 0.0 0.0 0.8417032 0.0 0.059529424 0.0 
2.108894 0.0 0.0 0.0 0.0 0.0 0.0 0.6321457 0.0 0.0 0.0 0.0 0.21577074 0.0 0.0 0.0 
0.87242997 0.0 0.0 0.0 0.0 0.0 0.0 0.0 0.0 0.0 0.0 0.0 0.0 0.09709767 0.0 0.0 
0.0 0.0 0.0 0.0 0.0 0.0 0.0 0.0 0.0 0.0 0.0 0.0 1.1268866 0.51908076 0.0 0.0 
0.0 0.0 0.36386892 0.0 0.0 0.0 0.0 0.7067583 0.0 0.0 0.0 0.0 1.9997408 0.72476315 0.4270509 0.0 
0.0 0.0 0.0 0.0 0.0 0.0 0.15812406 0.0 0.0 0.0 0.0 0.0 0.0 0.0 0.0 0.0 
0.031894717 0.0 0.0 0.0 0.50438327 0.042387888 0.0 0.0 0.0 0.0 0.0 0.0 0.0 0.0 0.0 0.0 
0.0 0.174919 0.27500173 0.0 0.9526192 0.45537215 0.0 0.0 0.0 0.2301001 0.0 0.0 0.0 0.0 0.16738836 0.77208555 
0.0 0.0 2.0217392 0.0 0.0 0.0 0.0 0.0 0.0 0.113847524 0.0 0.0 0.0 0.0 0.5059104 1.9910852 
0.5138632 0.0 0.0 0.0 0.0 0.0 0.5434024 0.71196604 0.0 0.0 0.0 0.0 0.44474268 0.0 0.0 0.0 
0.2893183 0.0 0.0 0.0 0.0 0.0 0.58200336 1.5824616 0.0 0.0 0.0 0.0 0.665073 0.0 0.0 0.0 
0.0 0.0 0.0 0.0 0.0 0.0 0.0 0.021802112 0.0 0.0 0.0 0.0 1.5068097 0.102803625 0.21445082 0.0 
0.0 0.0 0.0 0.0 0.0 0.0 0.0 0.0 0.0 0.0 1.1460383 0.0 1.3620741 0.48565516 0.0 0.0 
0.0 0.0 0.0 0.0 0.0 0.0 0.0 0.0 0.0 0.0 0.7031346 0.0 1.3067774 0.0 0.0 0.0 
0.0 0.0 0.0 1.2584095 0.0 0.0 0.0 0.10573454 0.23617515 0.0 0.84530014 0.0 1.4703301 0.042112596 0.0 0.0 
0.10821293 0.047001842 0.0 0.0 0.28061125 0.0 0.0 0.0 0.0 0.0 0.0 0.0 0.0 0.0 0.0 0.0 
0.1596606 0.2694638 0.0 0.0 0.40253484 0.0 0.0 0.0 0.11453822 0.0 0.0 0.0 0.0 0.0 0.0 0.5311307 
0.0 0.2941259 0.3322603 0.0 0.7013928 0.11582658 0.0 0.0 0.0 0.4913069 0.0 0.0 0.0 0.0 0.36293608 1.3098764 
0.0 0.0 1.604119 0.0 0.0 0.0 0.0 0.0 0.0 0.36534184 0.0 0.0 0.0 0.0 0.33412737 0.13730517 
0.0 0.0 0.0 0.0 0.0 0.0 2.7319233 2.4153295 0.0 0.0 0.0 0.0 1.0144799 0.0 0.0 0.0 
0.0 0.0 0.0 0.0 0.0 0.0 0.09129312 1.0576899 0.0 0.0 0.0 0.0 1.5785445 0.0 0.0 0.0 
0.0 0.0 0.0 0.0 0.0 0.0 0.0 0.0 0.0 0.0 0.57410365 0.0 1.3814775 0.0 0.0 0.0 
0.0 0.0 0.0 0.904295 0.0 0.0 0.0 0.0 0.0 0.0 2.6032937 0.0 0.4593808 0.0 0.0 0.0 
0.0 0.04780784 0.0 3.917366 0.0 0.0 0.0 0.0 0.0 0.0 1.9757955 0.0 0.0 0.0 0.0 0.0 
0.0 0.39601755 0.0 4.01594 0.0 0.0 0.0 0.0 1.292563 0.0 1.1756647 0.0 0.0 0.0 0.0 0.0 
0.27485445 0.18571208 0.005829744 0.0 0.49310696 0.0 0.0 0.0 0.0 0.016962614 0.0 0.0 0.0 0.0 0.0 0.05748318 
0.0 0.14016052 0.0 0.0 0.5615268 0.0 0.0 0.0 0.035636704 0.39797312 0.0 0.0 0.0 0.0 0.0 1.8765317 
0.0 0.0 0.0 0.0 0.46286517 0.19632074 0.0 0.0 0.0 0.31849995 0.0 0.0 0.0 0.0 0.0 0.5043376 
0.0 0.0 0.7087339 0.0 0.0 0.0 0.0 1.2098361 0.0 0.0 0.0 0.0 0.09071818 0.0 0.0 0.0 
0.0 0.0 0.0 0.0 0.0 0.0 2.3600652 2.8374846 0.0 0.0 0.0 0.0 0.9915622 0.0 0.0 0.0 
0.0 0.0 0.0 0.0 0.0 0.0 0.0 0.492979 1.2335876 0.0 0.0 0.0 0.05605308 0.0 0.0 0.0 
0.0 0.0 0.0 1.9119501 0.0 0.0 0.0 0.0 1.1674979 0.0 0.06617777 0.0 0.0 0.0 0.0 0.0 
0.0 0.35491517 0.0 4.6775947 0.0 0.0 0.0 0.0 0.0 0.103176504 1.088009 0.0 0.0 0.0 0.0 0.0 
0.0 0.3607043 0.0 4.322635 0.06853079 0.0 0.0 0.0 0.0 1.0610641 0.68265337 0.0 0.0 0.0 0.0 0.8738755 
0.0 0.0 0.0 2.1610093 0.54931366 0.05515033 0.0 0.0 0.0 0.57361436 0.17004347 0.0 0.0 0.0 0.0 1.9308548 
0.10415383 0.4414875 0.5971551 0.0 0.578223 0.0 0.0 0.0 0.19349074 0.2775256 0.0 0.0 0.0 0.0 0.35265183 1.0824366 
0.0 0.0 0.0 0.0 0.0 0.0 0.0 0.0 0.0 0.0 0.0 0.0 0.0 0.0 0.0 1.7137582 
0.0 0.0 0.0 0.0 0.30995294 0.0 0.0 0.0 0.0 0.0 0.0 0.2970271 0.0 0.0 0.0 0.0 
0.0 0.0 0.0 0.0 0.0 0.20435166 0.0 2.1629143 0.0 0.0 0.0 0.0 0.0 0.0 0.0 0.0 
0.0 0.0 0.0 1.1978011 0.0 0.0 2.1646895 1.8326813 0.24477106 0.0 0.0 0.0 0.0 0.0 0.0 0.0 
0.0 0.0 0.0 0.86517423 0.0 0.0 1.3349228 0.0 1.7175566 0.0 0.0 0.0 0.0 0.0 0.0 0.0 
0.0 0.0 0.0 0.50170904 0.0 0.0 0.0 0.0 1.0186148 0.9407868 0.0 1.1934681 0.0 0.0 0.0 0.0 
0.0 0.0 0.0 1.34213 0.0 0.49039316 0.0 0.0 0.0 0.9625235 0.0 0.0 0.0 0.0 0.0 0.0 
0.0 0.0 0.0 0.96024346 0.25968364 0.63445216 0.0 0.0 0.0 0.70436895 0.0 0.0 0.0 0.0 0.0 1.0474858 
0.0 0.0 0.0 0.24194402 0.39597824 0.27239522 0.0 0.0 0.0 0.032027338 0.0 0.0 0.0 0.0 0.0 0.81418145 
0.0 0.09138736 0.7444645 0.0 0.20314348 0.0 0.0 0.0 0.0 0.31761813 0.0 0.0 0.0 0.0 0.23604159 1.4983708 
0.0 0.0 0.0 0.0 0.0 0.0 0.20279108 0.0 0.0 0.0 0.0 0.0 0.0 0.0 0.0 0.0 
0.0 0.0 0.0 0.0 0.0 0.0 0.36919972 0.70256054 0.0 0.0 0.0 0.4686012 0.0 0.0 0.0 0.0 
0.0 0.0 0.0 0.0 0.0 0.0 0.0 0.94129974 0.0 0.12273595 0.0 0.0 0.0 0.0 0.0 0.0 
0.0 0.0 0.0 0.40478104 0.0 0.0 0.97767687 0.0 0.0 0.0 0.0 0.0 0.0 0.0 0.0 0.0 
0.0 0.0 0.0 0.0 0.0 0.0 1.3821486 0.0 0.0 0.0 0.0 0.0 0.0 0.0 0.0 0.0 
0.0 0.0 0.0 0.0 0.0 0.0 0.0 0.0 0.40262353 0.0 0.0 1.21322 0.0 0.0 0.0 0.0 
0.0 0.0 0.073136315 0.0 0.0 0.515287 0.0 0.0 0.0 0.0 0.0 0.27146965 0.049318388 0.0 0.0 0.0 
0.0 0.0 0.08842397 0.0 0.0 0.22535503 0.0 0.0 0.0 0.0 0.0 0.0 0.0 0.0 0.0 0.0 
0.0 0.003414314 0.0 0.0 0.0 0.0 0.0 0.0 0.0 0.0 0.0 0.0 0.0 0.0 0.0 0.0074497056 
0.0 0.0 0.0 0.0 0.0 0.4933952 0.0 0.0 0.0 0.0 0.0 0.0 0.0 0.0 0.0 0.24831638 
0.43899855 0.0 0.0 0.0 0.0 0.0 0.7886016 1.3799429 0.0 0.0 0.0 0.0 0.0 0.0 0.0 0.0 
0.5585726 0.0 0.0 0.0 0.0 0.0 0.0 1.474843 0.0 0.42293197 0.0 0.0 0.0 0.0 0.0 0.0 
0.0 0.0 0.0 0.0 0.0 0.0 0.0 0.0 0.0 0.64522713 0.0 0.0 0.0 0.0 0.0 0.0 
0.0 0.0 0.0 0.0 0.0 0.0 0.29537496 0.0 0.0 0.0 0.0 0.0 0.0 0.0 0.18234016 0.0 
0.0 0.0 0.0 0.0 0.0 0.0 0.0 0.0 0.0 0.0 0.0 0.0 0.0 0.0 0.0 0.0 
0.0 0.0 0.0 0.0 0.0 0.0 0.0 0.0 1.7471457 0.0 0.0 0.13766307 0.10304697 0.0 0.0 0.0 
0.0 0.0 0.2656054 0.0 0.0 0.0 0.0 0.0 0.0 0.0 0.0 1.0155027 0.76298654 0.0 0.0 0.0 
0.0 0.0 0.075681806 0.0 0.0 0.0 0.0 0.0 0.0 0.0 0.0 0.046210274 0.16347559 0.0 0.0 0.0 
0.0 0.0 0.0 0.0 0.0 0.0 0.0 0.0 0.0 0.0 0.0 0.0 0.0 0.0 0.0 0.0 
0.0 0.0 0.0 0.0 0.0 1.8531401 0.0 0.50859684 0.0 0.0 1.0935273 0.0 0.0 1.2570587 0.0 0.0 
0.0 0.0 0.0 0.0 0.0 0.0 1.443659 1.9372656 0.0 0.0 2.541043 0.0 0.0 1.4213532 0.0 0.0 
0.0 0.0 0.0 0.0 0.0 0.0 0.0 0.0 0.0 0.0 2.3737981 0.0 0.0 0.67161196 0.0 0.0 
0.0 0.0 0.0 0.0 0.0 0.0 0.0 0.0 0.0 0.0 0.0038152188 0.0 0.11591244 0.661438 0.0 0.0 
0.0 0.0 0.3593491 0.0 0.0 0.0 0.2239757 0.0 0.0 0.0 0.0 0.0 1.178271 1.2415037 0.0 0.0 
0.0 0.0 0.0 0.0 0.0 0.0 0.0 0.0 1.420846 0.0 0.3202134 0.0 1.0943034 0.0 0.0 0.0 
0.0 0.0 0.0 0.0 0.0 0.0 0.0 0.0 2.7179234 0.0 0.5837833 0.0 0.07097295 0.24392745 0.0 0.33417985 
0.0 0.0 0.0 0.12771872 0.0 0.0 0.0 0.0 0.0 0.0 0.23165822 0.8813052 0.46955097 0.0 0.0 0.0012081605 
0.0 0.0 0.0 0.2055873 0.0 0.0 0.0 0.0 0.0 0.0 0.0031305961 0.18775877 0.14018367 0.0 0.0 0.0 
0.0 0.0 0.0 0.0 0.0 0.0 0.0 0.0 0.0 0.0 0.0 0.0 0.0 0.0 0.0 0.0 

