0.0 0.0 0.0 0.0 0.0 0.0 0.0 0.0 0.0 0.0 0.0 0.0 0.0 0.0 0.0 0.0 
0.0 0.0 0.0 0.0 0.0 0.0 0.0 0.0 0.0 0.0 0.0 0.0 0.0 0.0 0.0 0.0 
0.0 0.0 0.0 0.0051695053 0.0 0.0 0.0 0.0 0.0 0.0 0.0 0.0 0.0 0.0 0.0 0.0 
0.0 0.0 0.0 0.0 0.0 0.02232179 0.23109573 0.0 0.0 0.0 0.0 0.0 0.0 0.0 0.0 0.0 
0.15501615 0.0 0.0 0.0 0.5976648 0.078042984 0.0 0.0 0.0 0.0 0.0 0.0 0.0 0.0 0.0 0.0 
0.18055385 0.16444239 1.6174692 0.0 0.0 0.4981144 0.0 0.0 0.0 0.23780954 0.0 0.0 0.0 0.17041716 0.77579695 1.2358087 
0.7700311 0.0 2.6977623 0.0 0.0 0.0 0.0 0.0 0.0 0.16128197 0.0 0.0 0.0 0.0 0.6940848 1.5165398 
1.1622562 0.0 0.0 0.0 0.0 0.0 2.8012874 0.0 0.0 0.0 0.0 0.0 0.5069933 0.0 0.0 0.0 
0.7600013 0.0 0.0 0.0 0.0 0.0 0.0 0.0 0.0 0.0 0.0 1.6213261 0.53503346 0.0 0.0 0.0 
0.7501563 0.0 0.0 0.0 0.0 0.0 0.0 0.0 0.7696519 0.0 0.0 1.0340347 0.44420695 0.0 0.0 0.0 
0.0 0.0 0.0 0.0 0.0 0.0 0.0 0.0 0.0 0.0 0.0 0.0 0.0 0.0 0.0 0.0 
0.0 0.0 0.0 0.0 0.0 0.0 0.0 0.0 0.0 0.0 0.0 0.0 0.0 0.0 0.0 0.0 
0.0 0.0 0.0 0.0 0.0 0.0 0.060505874 0.0 0.0 0.0 0.0 0.0 0.0 0.0 0.0 0.0 
0.01393069 0.0 0.0 0.0 0.32178944 0.050155595 0.16337177 0.0 0.0 0.0 0.0 0.0 0.0 0.0 0.0 0.0 
0.0 0.1144556 0.0 0.0 0.8832363 0.042291194 0.0 0.0 0.0 0.0 0.0 0.0 0.0 0.0 0.0 0.21229106 
0.0 0.018315794 2.465164 0.0 0.0 0.39956018 0.0 0.0 0.0 0.37952775 0.0 0.0 0.0 0.0 1.3787385 1.5098456 
0.0 0.0 2.708296 0.0 0.0 0.0 1.069109 0.0 0.0 0.0 0.0 0.0 0.5741585 0.0 1.8700671 0.0 
0.252377 0.0 0.0 0.0 0.0 0.0 3.719002 0.44302815 0.0 0.0 0.0 0.0 0.866978 0.0 0.0 0.0 
0.48976102 0.0 0.0 0.0 0.0 0.0 0.0 0.0 1.7199388 0.0 0.0 0.45349148 0.67618775 0.0 0.0 0.0 
0.15928835 0.0 0.0 0.0 0.0 0.0 0.0 0.0 1.4666437 0.0 0.0 1.2223212 0.375596 0.0 0.0 0.0 
0.0 0.0 0.0 0.0 0.0 0.0 0.0 0.0 0.0 0.0 0.0 0.0 0.0 0.0 0.0 0.0 
0.0 0.0 0.0 0.012292409 0.0 0.0 0.0 0.0 0.0 0.0 0.0 0.0 0.0 0.0 0.0 0.0 
0.0 0.0 0.0 0.0 0.019579098 0.0 0.23970757 0.0 0.0 0.0 0.0 0.0 0.0 0.0 0.0 0.0 
0.08020778 0.01755767 0.0 0.0 0.79320276 0.0 0.0 0.0 0.0 0.0 0.0 0.0 0.0 0.0 0.0 0.0 
0.0 0.2824374 0.47733623 0.0 1.0134332 0.0 0.0 0.0 0.33240584 0.46121883 0.0 0.0 0.0 0.0 0.30834365 1.5622642 
0.0 0.06612504 2.4650753 0.0 0.0 0.040866613 0.0 0.0 0.0 0.336989 0.0 0.0 0.0 0.0 0.4878379 1.2596062 
0.0 0.0 1.308553 0.0 0.0 0.0 3.109756 0.7702521 0.0 0.0 0.0 0.0 0.9470995 0.0 0.7987455 0.0 
0.0 0.0 0.0 0.0 0.0 0.0 3.095673 1.1290354 0.0 0.0 0.0 0.0 0.51793194 0.0 0.0 0.0 
0.0 0.0 0.0 0.0 0.0 0.0 0.0 0.0 3.8640304 0.0 0.0 0.0 0.0 0.0 0.0 0.0 
0.0 0.0 0.0 0.0 0.0 0.0 0.0 0.0 0.87296206 0.0 0.078312874 0.33522764 0.22470133 0.0 0.0 0.0 
0.0 0.0003696063 0.0 0.028250832 0.0 0.0 0.0 0.0 0.0 0.0 0.0 0.0 0.0 0.0 0.0 0.0 
0.0 0.0 0.0 0.0 0.0 0.0 0.13141622 0.0 0.0 0.0 0.0 0.0 0.0 0.0 0.0 0.0 
0.08033194 0.008532554 0.0 0.0 0.40899226 0.025845774 0.06463704 0.0 0.0 0.0 0.0 0.0 0.0 0.0 0.0 0.0 
0.07667731 0.3373617 0.028223652 0.0 0.9551492 0.0 0.0 0.0 0.17137502 0.0983198 0.0 0.0 0.0 0.0 0.0 0.73493356 
0.0 0.29346415 1.0798721 0.0 0.7319154 0.0 0.0 0.0 0.0 0.8114861 0.0 0.0 0.0 0.0 0.23661007 2.3453476 
0.0 0.0 1.6883014 0.0 0.0 0.0 0.40082622 0.0 0.0 0.13255082 0.0 0.0 0.040607147 0.0 0.0 0.0 
0.0 0.0 0.0 0.0 0.0 0.0 4.1431026 2.4317641 0.0 0.0 0.0 0.0 0.23889913 0.0 0.0 0.0 
0.0 0.0 0.0 0.0 0.0 0.0 0.8637986 0.98256665 2.7320077 0.0 0.0 0.0 0.26470453 0.0 0.0 0.0 
0.0 0.0 0.0 0.0 0.0 0.0 0.0 0.0 3.6384685 0.0 0.13671517 0.0 0.0 0.0 0.0 0.0 
0.0 0.0 0.0 0.0 0.0 0.15454257 0.0 0.0 0.0 0.0 0.23317319 0.036704093 0.051111095 0.0 0.0 0.42992455 
0.0 0.0 0.0 0.0 0.0 0.0 0.102442056 0.0 0.0 0.0 0.0 0.0 0.0 0.0 0.0 0.0 
0.0 0.05570083 0.0 0.0 0.23518682 0.0 0.14834741 0.0 0.0 0.0 0.0 0.0 0.0 0.0 0.0 0.0 
0.23726635 0.33709615 0.1705625 0.0 0.61368275 0.0 0.0 0.0 0.0 0.0 0.0 0.0 0.0 0.0 0.0 0.26328623 
0.0 0.59182775 0.9275091 0.0 1.214276 0.0 0.0 0.0 0.19826154 0.80292386 0.0 0.0 0.0 0.0 0.41505027 2.209932 
0.0 0.24741007 0.9906962 0.0 0.071472205 0.0 0.0 0.0 0.0 0.50783336 0.0 0.0 0.0 0.0 0.0 1.8991064 
0.0 0.0 0.0 0.0 0.0 0.0 2.8203962 1.8999149 0.0 0.0 0.0 0.0 0.26168638 0.0 0.0 0.0 
0.0 0.0 0.0 0.0 0.0 0.0 3.1164625 2.7083201 0.16687162 0.0 0.0 0.0 0.0 0.0 0.0 0.0 
0.0 0.0 0.0 0.0 0.0 0.0 0.0 0.0 4.468817 0.0 0.0 0.0 0.0 0.0 0.0 0.0 
0.0 0.0 0.0 0.0 0.0 0.2902464 0.0 0.0 1.7537241 0.0 0.11169213 0.0 0.0 0.0 0.0 0.8799563 
0.0 0.0 0.0 0.0010687634 0.0 0.0 0.0 0.0 0.0 0.0 0.16107479 0.0 0.0 0.0 0.0 0.79143876 
0.0 0.0043129176 0.0 0.0 0.16956013 0.0 0.16679704 0.0 0.0 0.0 0.0 0.0 0.0 0.0 0.0 0.0 
0.41047093 0.376583 0.30731893 0.0 0.4498781 0.0 0.0 0.0 0.0 0.0 0.0 0.0 0.0 0.0 0.0 0.011598541 
0.2710689 0.92217004 0.81222993 0.0 0.84872824 0.0 0.0 0.0 0.091518834 0.7633157 0.0 0.0 0.0 0.0 0.23965277 1.8946601 
0.0 0.49143717 0.8649705 0.0 0.59509856 0.0 0.0 0.0 0.0 1.0895182 0.0 0.0 0.0 0.0 0.20759691 2.9637616 
0.0 0.0 0.0 0.0 0.0 0.0 1.1647128 0.9558107 0.0 0.16106516 0.0 0.0 0.23938556 0.0 0.0 0.0 
0.0 0.0 0.0 0.0 0.0 0.0 3.077991 3.5235994 0.0 0.0 0.0 0.0 0.0 0.0 0.0 0.0 
0.0 0.0 0.0 0.0 0.0 0.0 0.07383815 1.5005472 3.4000657 0.0 0.0 0.0 0.0 0.0 0.0 0.0 
0.0 0.0 0.0 0.0 0.0 0.0 0.0 0.0 3.6643023 0.0 0.025216373 0.0 0.0 0.0 0.0 0.0 
0.0 0.0 0.0 0.0 0.0 0.3765239 0.0 0.0 0.0 0.0 0.36246994 0.0 0.0 0.0 0.0 1.0195944 
0.0 0.006692808 0.0 0.14141613 0.043679923 0.0 0.0 0.0 0.0 0.0 0.0 0.0 0.0 0.0 0.0 0.6610052 
0.34575555 0.13626638 0.054511014 0.0 0.5798489 0.03977169 0.0 0.0 0.0 0.0 0.0 0.0 0.0 0.0 0.0 0.0 
0.526848 0.55409104 0.9428709 0.0 0.47742867 0.0 0.0 0.0 0.0 0.663154 0.0 0.0 0.0 0.0 0.3632111 1.5736752 
0.0 0.00912643 1.2597558 0.0 0.47363174 0.0 0.0 0.0 0.0 1.3480749 0.0 0.0 0.0 0.0 0.6103579 3.2683535 
0.0 0.0 0.0 0.0 0.0 0.0 0.05770368 0.036111094 0.0 0.39921758 0.0 0.0 0.4816811 0.0 0.0 0.0 
0.0 0.0 0.0 0.0 0.0 0.0 2.490898 3.1643946 0.0 0.0 0.0 0.0 0.50061244 0.0 0.0 0.0 
0.0 0.0 0.0 0.0 0.0 0.0 1.3277422 2.6505036 1.8132768 0.0 0.0 0.0 0.03135801 0.0 0.0 0.0 
0.0 0.0 0.0 0.0 0.0 0.0 0.0 0.0 4.693896 0.0 0.0 0.0 0.0 0.0 0.0 0.0 
0.0 0.0 0.0 0.0 0.0 0.15991727 0.0 0.0 1.130694 0.0 0.25992608 0.0 0.0 0.0 0.0 1.2617556 
0.0 0.0 0.0 0.06831623 0.0 0.0 0.0 0.0 0.0 0.0 0.16737178 0.0 0.0 0.0 0.0 0.93336904 
0.0 0.08817644 0.0 0.24608564 0.0 0.0 0.0 0.0 0.0 0.0 0.0 0.0 0.0 0.0 0.0 0.18252246 
0.61276704 0.6169402 0.0 0.0 0.60459644 0.0 0.0 0.0 0.0 0.14839786 0.0 0.0 0.0 0.0 0.0 0.33186978 
0.0 0.38606533 0.6905125 0.0 0.31476298 0.0 0.0 0.0 0.0 1.0988114 0.0 0.0 0.0 0.0 0.6499187 2.5160227 
0.0 0.0 0.0 0.0 0.0 0.0 0.0 0.029864363 0.0 0.5698881 0.0 0.0 0.16860133 0.0 0.0 0.56733435 
0.0 0.0 0.0 0.0 0.0 0.0 1.5917832 2.7947872 0.0 0.0 0.0 0.0 0.5182144 0.0 0.0 0.0 
0.0 0.0 0.0 0.0 0.0 0.0 1.1810132 3.418876 0.0 0.0 0.0 0.0 0.10694575 0.0 0.0 0.0 
0.0 0.0 0.0 0.18225831 0.0 0.0 0.0 0.0 4.4525194 0.0 0.23389843 0.0 0.0 0.100829296 0.0 0.0 
0.0 0.0 0.0 0.0 0.0 0.0 0.0 0.0 2.5016315 0.0 0.4305568 0.0 0.0 0.0 0.0 1.0794806 
0.0 0.0 0.0 0.008493362 0.0 0.2556918 0.0 0.0 0.0 0.0 0.47907415 0.0 0.0 0.0 0.0 1.3568404 
0.0 0.06852267 0.0 0.19883412 0.1123695 0.0 0.0 0.0 0.0 0.0 0.0 0.0 0.0 0.0 0.0 0.53349316 
0.0 0.013908442 0.0 0.099228114 0.0 0.0 0.0 0.0 0.0 0.0 0.0 0.0 0.0 0.0 0.0 0.0 
0.04894739 0.0 0.0 0.0 0.44059065 0.6918621 0.0 0.0 0.0 0.64123005 0.2399911 0.0 0.0 0.0 0.38829547 0.9867641 
0.0 0.0 0.039321203 0.0 0.0 0.0 0.0 0.2775483 0.0 0.25034252 0.16876249 0.0 0.0066454634 0.0 0.0 0.55456376 
0.0 0.0 0.0 0.0 0.0 0.0 0.94471234 2.4169877 0.0 0.0 0.10149842 0.0 0.62782913 0.0 0.0 0.0 
0.0 0.0 0.0 0.0 0.0 0.0 1.745711 3.0048234 0.0 0.0 0.0 0.0 0.21117435 0.0 0.0 0.0 
0.0 0.0 0.0 0.0 0.0 0.0 0.0 0.5008786 3.8850064 0.0 0.0 0.0 0.122268945 0.0 0.0 0.0 
0.0 0.0 0.0 0.23254164 0.0 0.0 0.0 0.0 2.9860518 0.0 0.22324601 0.0 0.0 0.0 0.0 0.4708871 
0.0 0.0 0.0 0.2106631 0.0 0.37832272 0.0 0.0 0.0 0.0 0.5715335 0.0 0.0 0.0 0.0 1.6960219 
0.0 0.022816902 0.0 0.14746079 0.1986089 0.017940305 0.0 0.0 0.0 0.0 0.008909654 0.0 0.0 0.0 0.0 0.8894248 
0.0 0.04298771 0.0 0.16776383 0.0 0.0 0.0 0.0 0.0 0.0 0.0 0.0 0.0 0.0 0.0 0.05916245 
0.0 0.0 0.0 0.00051785633 0.0 0.0 0.0 0.0 0.0 0.0 0.0 0.0 0.0 0.0 0.0 0.0 
0.0 0.0 0.0 0.0 0.106443964 1.0187402 0.0 0.0 0.0 0.0 1.889993 0.0 0.41340137 0.0 0.0 0.0 
0.0 0.0 0.0 0.0 0.0 1.3810258 0.0 1.34416 0.0 0.0 2.1609676 0.0 0.35646576 0.7676124 0.0 0.0 
0.0 0.0 0.0 1.0324193 0.0 0.0 2.061799 2.594699 0.0 0.0 2.4826894 0.0 0.0 1.0135119 0.0 0.0 
0.0 0.0 0.0 1.6120658 0.0 0.0 0.97502023 0.70271903 2.7514882 0.0 1.5261157 0.0 0.0 0.54023796 0.0 0.0 
0.0 0.0 0.0 0.87009895 0.0 0.0 0.0 0.0 3.715504 0.0 0.8900253 0.0 0.0 0.03454809 0.0 0.38589814 
0.0 0.0 0.0 0.11028917 0.0 0.16892311 0.0 0.0 0.0 0.0 0.4901257 0.0 0.0 0.0 0.0 1.6894798 
0.0 0.0 0.0 0.065842904 0.16981289 0.19437549 0.0 0.0 0.0 0.0 0.055894427 0.0 0.0 0.0 0.0 1.0941918 
0.0 0.09977699 0.0 0.11784987 0.019794285 0.0 0.0 0.0 0.0 0.0 0.0 0.0 0.0 0.0 0.0 0.2510199 
0.0 0.0 0.0 0.0392587 0.0 0.0 0.0 0.0 0.0 0.0 0.0 0.0 0.0 0.0 0.0 0.0 
0.0 0.0 0.0 0.0 0.0 0.0 0.0 0.0 0.0 0.0 0.0 0.0 0.0 0.0 0.0 0.0 

