0.096884
-0.546684
1.347586
-0.147122
-0.357269
-0.386918
-0.013081
0.296572
0.964844
0.305825
0.626010
0.745791
-1.005687
0.304983
0.657082
-0.752664
-0.183846
0.675348
0.174558
-0.765992
-0.730830
-0.347328
-0.076710
-0.353339
0.127879
0.429000
-1.533321
0.224024
-1.261026
-0.306214
0.277375
0.172856
-0.311047
0.134668
-0.484951
1.760363
0.105490
0.035269
0.384943
-0.098454
-0.560219
-0.100077
0.539175
0.084478
0.152638
-0.067265
-1.189807
-0.665034
1.080576
1.209633
-0.879118
0.024838
-0.204570
-0.123635
-0.032293
0.096911
-0.179293
-0.678066
0.881482
0.254907
-1.263635
-0.797757
-0.136820
0.436104
0.110333
-1.414364
0.098565
-0.158799
-0.112192
0.949222
-0.336804
-0.617708
0.085458
-0.057830
0.017658
0.241781
0.778817
0.414947
-0.271249
0.014443
0.795901
0.611424
-0.374722
-0.062907
-0.368067
-0.477679
-0.026357
-0.078172
0.058606
0.029869
-0.019085
-0.006256
-0.192049
0.152278
0.347783
-0.311822
0.111912
0.470377
0.229783
0.353051
0.486551
0.619227
-1.625402
0.243670
0.056519
-0.677649
0.200366
0.013516
0.666817
0.000739
0.469671
-0.496281
-0.095060
1.247378
-1.470214
-0.188197
-0.710369
0.422564
0.867746
-0.461949
-0.507967
-0.307166
-0.693763
-0.954322
-1.154562
-0.322096
0.291012
0.843549
-0.246074
0.142647
-0.001299
-0.219620
-0.749995
0.556232
1.383226
-0.222722
-0.664661
-0.919453
1.910833
-1.089645
-0.040691
-0.302423
0.809030
0.034755
0.196998
-2.283616
0.393927
0.423149
0.084746
0.083731
0.297291
-0.290995
0.343692
0.762966
-0.117759
-0.331977
0.489886
0.053371
0.140141
0.061769
-0.136620
0.211445
0.474484
0.831816
-0.079071
-1.563091
1.106612
2.411355
-1.652077
-0.989297
0.805876
-0.763773
0.900476
-0.197197
-0.954021
0.284572
-0.809752
-0.197646
0.288104
0.411345
0.602561
-0.493665
1.430846
-0.173762
0.952869
-0.208825
0.464464
-0.054026
1.040955
0.790301
0.365301
0.323197
0.595837
-0.377548
0.309898
-0.658230
0.113513
0.148463
1.148947
-0.311835
0.067416
-0.064756
-0.133807
-1.543411
0.357787
-1.323178
-0.330061
0.515313
2.123958
-0.736366
0.075816
-0.226035
0.376988
-1.502587
1.211922
0.333152
0.184318
0.146142
0.004374
0.261445
-0.656102
0.496902
0.279208
0.106694
-1.404194
0.648868
-0.595536
0.831311
0.212010
-0.583747
0.773276
0.831751
0.015460
-0.115632
0.424043
-1.069318
1.788015
0.061699
0.091459
-0.115145
-1.960450
0.497005
-0.026200
-0.376057
-0.885506
-0.257801
-0.044340
-0.390216
0.846795
-0.601925
-0.096036
1.438974
0.488630
-0.173615
1.029870
0.645045
-0.044002
-0.735584
-0.647454
0.054273
1.651233
0.149414
1.269528
-0.431198
-0.369067
0.320859
0.019935
0.278917
0.470256
1.541422
-1.436080
0.159306
-0.420802
-0.059750
-0.029176
-0.353354
-0.228253
0.057247
0.626520
0.159655
-0.784671
0.012458
0.224580
0.000630
-0.778484
-0.245840
-0.751810
-0.041729
1.362484
-1.044814
-0.015200
0.076997
-0.755481
0.206350
-0.483519
-0.034136
-0.253294
-0.268660
-0.318851
0.108560
0.391572
-0.392221
0.149828
0.019083
-0.414964
-0.243622
1.326444
-0.049187
-0.586876
-0.192206
0.885494
0.900695
-0.473674
-0.380454
0.215390
0.192690
0.098959
0.446126
-0.661619
0.292014
-0.195753
-0.252443
0.383697
0.930057
-0.802889
-0.229578
-0.646186
1.174238
0.354629
0.406037
-0.134967
-0.047699
0.877273
-0.099029
0.812082
-0.266109
-0.023010
0.707364
-1.516081
-0.231097
0.068626
-0.086838
-0.394035
0.263651
-0.337390
0.642835
0.135377
-0.086649
1.277892
-0.120465
-0.727064
-0.105872
-1.411385
1.265714
0.063924
-0.568996
0.398347
-0.957236
-0.026157
0.433310
0.312733
-0.130957
0.476128
0.574819
1.281197
-0.506156
-0.221339
0.500748
0.078378
0.197112
0.676182
0.176039
-0.228813
-0.228819
-0.250904
0.222414
-1.635013
0.298905
0.038590
1.224249
0.160928
-0.284564
0.036162
0.622558
0.117376
1.212608
0.756654
-0.162587
0.033871
0.007196
0.938044
-0.214614
0.001728
2.286028
0.329165
0.592375
-0.212836
-0.162995
-0.266678
1.083908
0.129513
-0.292290
0.626117
-0.587339
-0.355713
0.436792
0.361888
1.121326
0.450816
0.048919
-0.503972
-0.265599
-0.269088
0.054165
0.815322
0.132749
0.730825
-0.669204
1.233421
0.249671
-0.241201
-0.123687
0.260809
-1.115064
0.001914
1.221311
-0.356810
0.252508
-0.642944
0.137730
1.185504
-0.022927
1.089733
0.270389
0.375858
0.586617
-0.157737
0.030811
-0.062855
0.667202
-0.997269
-0.634235
1.447298
0.544444
-0.306435
-0.487941
0.339497
0.233546
-0.780978
-0.661692
1.459902
-0.526409
0.288482
-0.272574
0.192264
0.231113
0.654996
-0.281971
-0.159106
-0.224821
-1.010212
-0.813260
0.944048
0.318097
1.687654
-0.158112
0.186661
-0.393123
-0.800649
-0.167775
0.841027
-0.888925
0.110727
0.475109
-0.000959
0.429288
0.635397
0.697397
-0.024650
0.890903
0.555979
-0.745288
-0.501737
0.290572
-0.527631
0.802673
0.551707
0.385460
0.344028
0.033644
-0.323728
0.048832
-0.070056
0.008768
1.187366
-0.004647
1.738417
0.159237
-0.214532
0.006268
