-0.174688
0.507788
1.405851
0.814832
1.459479
0.529436
-0.346078
-1.595203
-0.902671
1.523505
-0.473499
3.610346
-0.181810
0.258788
0.583416
1.105844
-0.094832
0.071672
-0.127492
0.115293
-1.444493
-0.088993
0.970798
-0.205693
0.005742
0.914063
0.055239
-0.669984
-1.916521
-0.055716
0.106821
2.437257
-0.787896
0.960731
1.562934
0.725847
-0.148977
0.662268
-2.376819
-0.568323
-0.389299
1.551001
-1.847489
-1.251523
0.737676
-0.421114
0.076614
-0.755411
0.556767
-0.633548
-2.063169
-1.052088
-2.516263
-0.927476
0.013776
-1.469290
-0.476905
-0.619309
-0.277268
-1.090407
-0.468431
-0.394747
-0.594495
-0.516599
-0.662573
-0.151190
0.211835
-1.842700
-0.311733
1.004026
-0.335438
0.480609
0.136590
-0.114057
-0.054432
-0.134626
-0.052292
-1.314575
0.787350
0.378844
-0.324464
-0.578863
-0.827779
-2.540624
0.009683
0.691776
-0.427022
1.100065
0.530062
2.160822
-0.051913
-0.328630
-1.771079
-2.614707
0.378360
-0.495947
-0.059131
-0.631379
0.629508
0.850129
-1.614870
0.465109
-0.643286
-0.066680
0.740261
0.104599
0.206326
-0.304837
0.093277
-0.107247
0.293285
0.251874
1.812846
-2.382939
-0.380708
0.228830
-0.304522
-0.135919
0.751231
0.430947
-0.135854
0.975713
-0.076641
-2.197905
-0.584570
-0.427575
0.164897
3.587533
0.921691
0.218357
-0.296101
-0.734818
0.254129
0.564535
0.492311
-2.502381
0.866435
-0.414078
1.533014
1.617038
1.195869
-0.231871
-0.691259
-0.274981
1.218483
-1.443393
0.810925
-1.529008
-0.217608
-0.240253
-0.246298
-0.133204
0.614159
2.071383
0.192840
0.874978
-0.413810
0.245218
0.059888
-1.183976
-0.334572
-0.486194
0.617768
2.044673
0.492732
-0.544089
-0.100024
3.986327
-0.189521
0.660297
-0.841075
-0.489402
-0.706803
0.073423
-1.324250
-0.128136
-0.273385
-1.104143
-0.172576
0.838002
0.967142
0.835697
-0.176432
-0.231477
0.001417
-0.065699
0.493824
-2.363960
1.788628
-0.859819
-0.984436
-0.920332
0.168072
1.289136
-0.154130
-0.965525
-0.786846
0.115610
-0.668637
-0.301209
0.324034
0.062377
0.112092
-0.453521
-1.834594
-1.126890
-0.123135
-0.244259
4.205810
-1.207734
-0.306578
-0.421259
-0.754529
-1.016080
0.720657
-0.121306
0.128189
1.480524
-0.495801
0.226948
-0.873081
-0.187460
-0.497824
-0.811145
-1.136284
1.087136
0.547727
-0.453744
-1.764852
-0.398829
0.755837
-0.745376
-0.034867
0.682876
-0.121733
-2.168733
-0.022584
-0.816378
0.298056
-1.289328
1.059491
0.291475
-0.647054
-0.217248
-0.503342
-0.238926
0.865654
0.964968
0.073764
-1.170566
-0.449535
1.854653
-1.219077
-0.180671
0.637494
-0.261033
-0.749067
-0.348644
-0.207641
0.817766
-0.211451
0.691419
-2.306494
0.166001
-0.810179
0.750494
0.257356
1.414637
0.141888
1.290240
0.555534
0.532354
-0.010007
0.748511
0.289170
-0.312432
-0.215956
-1.214476
-1.547530
1.809262
-0.151236
0.174552
0.309012
0.322803
-0.659673
-0.208645
-1.525879
-0.414208
0.144762
-1.293250
-0.326137
-0.003908
-1.463016
1.657965
1.644885
0.186644
-1.057763
-0.043724
-0.573862
-1.605235
-0.695128
-0.763863
-0.107903
-1.919860
0.019675
-0.168728
-2.489164
0.146077
0.777901
0.690188
1.430706
0.783939
0.077118
1.657794
-0.903572
-0.337302
-0.429603
-1.382785
-0.103144
-0.449209
0.022094
-0.372694
-0.658442
1.432584
-0.459411
0.018290
0.167412
2.302416
-1.586962
0.940076
0.081101
-0.165363
0.276060
0.664089
0.180785
0.171653
0.294443
4.537798
-0.613387
0.825624
0.171146
-0.586321
-0.144524
0.067002
1.270363
0.755541
-0.343759
-1.536415
1.190537
-0.356196
0.282126
0.721146
-2.757811
0.144157
0.542694
-0.084147
-0.001217
-1.218778
0.100872
0.286488
-0.897567
0.385139
2.821299
1.221304
1.510142
0.621861
-0.947660
0.392428
0.710692
-1.361677
0.816733
-0.090008
-0.004628
-0.791124
-0.171519
0.015644
0.491207
-0.779968
-0.119357
-0.406877
0.146107
0.053768
-0.031425
0.048690
0.536980
0.839331
1.860779
-0.395271
-1.561823
0.165783
1.339024
-0.181561
0.007678
1.297575
-1.592721
-0.006350
0.061752
-0.898022
0.036106
1.144466
0.920328
0.132376
-1.975154
0.366341
0.664145
0.893857
-1.397657
0.427929
-1.006286
-1.592574
0.227951
-0.393829
-0.670573
0.487333
-0.833346
0.728895
-1.009814
-0.534297
0.399300
-0.020053
0.390246
-0.131822
0.827354
0.344035
-0.670673
-1.641367
-1.946668
-0.059773
0.348974
-0.215165
0.867715
0.581492
-1.056960
1.025429
0.160242
0.141203
0.555220
-0.621880
0.253812
3.320305
-0.018492
-2.143899
2.762912
-0.679737
-0.424606
-0.599617
1.080585
0.252211
-1.312329
0.075315
2.031327
-0.215194
0.192581
-0.066755
1.858200
-0.856124
1.024262
0.665362
-0.252339
0.652923
-1.165971
-0.718533
-0.217097
3.989281
-4.322745
1.404563
-0.660594
-1.103713
0.439929
-0.564563
0.650614
0.174212
-0.135080
0.353374
1.907059
-0.414389
0.240182
1.030113
1.390767
-0.342453
0.013902
-0.157048
0.865481
0.282138
-0.094694
-2.269771
-1.079606
-0.153293
-0.297113
-2.476099
-1.104358
0.304745
-0.034057
-0.536052
1.018451
-0.766584
0.829723
0.951814
-0.464890
-0.138528
