0.057811
-0.078226
0.279879
-0.313021
0.195654
0.703357
0.527953
-0.653801
-0.273564
1.498442
-1.031636
-0.643761
0.328332
-0.745892
0.057340
0.908639
-0.386384
0.447108
0.263105
0.611522
0.193265
0.226070
0.006876
-0.116167
0.251762
0.496801
-1.014447
0.447404
-0.041768
-0.240114
0.171626
0.523567
0.656809
0.274056
0.998155
0.525284
0.068629
0.679625
1.375023
-0.048933
-0.659480
0.017987
0.829658
0.709628
-0.466021
0.017821
0.765034
-0.032237
-0.419346
1.068450
-0.231561
-0.668544
1.256217
-0.205140
-0.262158
-0.985451
-0.050703
-0.520464
0.604438
-0.455871
-0.877757
0.294657
0.899816
-0.027578
-0.648132
-0.470705
-0.330070
-0.617817
-0.357303
0.086390
-0.023508
0.578678
0.284210
-0.267194
0.193092
0.531165
0.682716
1.055908
-0.170974
-0.666071
0.539463
-0.392415
-0.146250
-0.032560
0.446020
-0.061202
-0.278939
0.105508
-0.584172
-0.430661
-0.175929
0.092249
-0.616443
0.045776
1.077573
-0.164785
0.330626
0.256684
0.429334
0.211609
-0.293044
0.083237
0.279698
0.119139
0.379734
-0.147420
-0.306756
0.579965
0.055543
-0.950331
-0.152674
-0.014684
0.727987
-0.249866
-0.251152
0.128864
-0.402642
1.023604
0.058163
-0.410695
-0.022181
-0.016884
0.340492
-0.207882
-0.006464
-0.226988
-0.646141
-0.028008
0.128016
-0.103084
0.699057
0.384311
-0.740376
0.862620
0.297230
-1.546568
0.068308
0.098334
0.901003
0.577579
-0.408296
-0.190523
-0.249487
0.018388
0.360504
0.102355
0.197071
0.670740
-0.147434
-0.676254
0.537152
0.657596
-0.214246
-0.584753
-0.364680
0.192457
-0.197839
1.810949
0.011845
0.339514
-0.659754
0.238786
0.188845
1.856330
0.676570
-0.505488
0.941933
-0.218600
-1.646390
-0.388858
0.021177
0.007412
-0.729864
-0.098550
-0.401140
-0.003635
-0.301264
-0.513342
0.310431
0.143936
0.313177
-0.754129
0.583164
-0.131896
0.177157
0.495815
-0.013394
-1.580440
-0.031634
0.728968
-0.268853
-0.472869
-0.137198
-0.145624
-0.169324
-0.503296
0.163728
-0.033090
0.351953
-0.376946
0.396190
-0.442990
-0.034928
-0.392426
1.517023
-0.123795
0.060864
-0.491402
-0.098526
0.122153
-0.165781
-0.129314
0.044669
1.347841
0.215003
-0.467717
-0.122954
0.297831
-0.020537
0.108311
-0.654950
1.190848
-0.534711
-0.268445
-0.410955
0.175181
0.089958
0.906022
-0.145393
0.296121
0.196922
1.143588
0.023799
0.521046
-0.265992
-1.014951
0.456552
0.140024
-0.210670
-0.830670
-0.328560
0.379552
0.769139
0.307660
-1.361936
0.485844
0.414265
-0.207700
0.174761
-1.137279
-0.229511
0.825617
0.680605
-0.228327
0.802720
0.197891
-0.005760
-0.801032
-0.083732
0.366650
0.511674
-0.226419
-1.094246
-0.545027
0.006353
0.779739
0.181253
0.542642
0.208918
0.302416
-0.004016
0.332191
-0.399134
-0.343510
0.342983
-0.583334
0.024212
-0.859275
0.691541
-0.023607
-0.108046
1.087020
-0.181149
-0.096343
1.560916
0.091539
0.718905
-0.389639
1.715289
1.097146
0.372527
-0.015684
-0.920758
-0.144478
-0.420649
0.286691
0.964963
-0.211098
-0.697846
0.037060
0.226910
-0.278415
0.193358
-0.108499
0.239709
0.059857
-0.176943
-0.094833
0.185979
0.326824
1.050530
0.154454
-0.242133
-0.386469
1.420880
0.863579
0.045799
-0.295315
-0.046564
0.541387
-0.152320
-0.136000
0.485453
-0.129168
-0.321460
0.437853
0.111901
-0.292238
0.265302
-0.080492
0.059692
0.558367
0.692102
0.420122
0.317129
-0.180867
0.905224
-1.416945
0.146546
0.186161
-0.262081
-0.042054
-0.015864
0.137590
-0.165616
1.730283
0.393322
-0.054595
0.098995
-0.570251
-0.697394
-0.196463
-0.482575
0.295854
0.043723
0.113505
-0.978810
0.514853
-0.189755
0.335281
-0.382899
-0.194709
-0.163566
-0.291069
-0.398538
-0.223972
1.280630
-0.113745
-0.587295
0.440913
0.117520
0.802559
-0.118935
0.318449
0.048541
0.059746
-0.593078
0.425469
-0.031035
1.402231
0.284124
-0.048575
0.159354
0.566315
0.083989
1.223952
-0.278182
-0.661706
1.591662
-0.267614
0.144633
-0.190558
0.226099
-0.085862
-0.792455
-0.043997
0.051398
0.343042
-0.067194
0.000182
-0.070267
0.598187
-0.259433
-0.433095
-0.857524
1.347496
0.709682
0.514431
-0.662646
-1.336925
0.377730
0.239419
-0.917256
0.328311
-2.121333
0.143437
-0.121840
0.172317
-0.715011
-0.003426
-0.654198
-0.692807
-0.264170
0.212323
-0.406920
1.402004
-1.856878
0.000897
1.075413
0.516564
-0.303991
-1.176859
-1.475577
-0.603360
0.216033
0.397535
0.165737
-0.308793
-0.177382
2.332989
-0.395106
0.412841
0.473448
0.862423
-0.301449
-0.095969
0.468021
-0.118522
0.197252
-0.502622
-0.373932
-0.003256
-0.484582
0.258826
-0.182267
-0.659091
0.569458
0.763112
0.289614
-0.278017
-0.166373
0.325280
-0.138756
-0.445045
-1.352906
-0.651360
-0.177001
0.006062
-0.715497
-0.114069
0.084297
-0.709067
-0.141523
0.370551
1.645396
-0.165889
-0.515408
-0.653015
0.499062
0.722187
0.192603
-0.250620
0.479680
0.560009
0.494865
-0.044482
0.390621
-0.111228
0.321608
-0.053006
-0.056940
0.103730
0.056743
-0.486037
0.158270
-0.878242
0.795268
1.231802
-0.170855
-0.697735
