0.072219
0.542356
-0.120581
-0.168184
-0.191920
-0.393800
0.021601
-0.485019
0.003759
-0.343198
1.027862
-1.160670
-1.381479
0.376551
-0.364133
-0.176903
0.577166
0.005447
0.062254
-0.196997
-0.016248
-1.608701
0.271223
0.555457
0.091959
0.087906
1.637923
-0.006619
0.294642
-0.523142
0.336948
0.716010
1.004783
-0.564454
0.036513
-0.559656
-0.069389
0.980099
0.875126
-0.072538
0.976485
0.647165
0.948981
0.012477
-0.252433
-0.330387
-0.584924
0.470141
-0.535322
0.346543
0.563509
-0.716211
0.523582
0.448741
-0.120319
0.642584
-0.073132
0.005640
2.055202
0.369145
0.474799
0.969322
0.561036
0.090701
-0.584213
-0.500944
-0.744172
-0.018161
0.305693
0.523846
0.530404
-0.392676
-0.421417
0.552526
0.383884
0.673409
0.181108
1.075746
-0.472458
0.563623
1.502431
-0.696225
-0.000945
-0.385085
0.039959
-0.122133
0.861726
1.881015
-0.766145
0.148999
-0.378636
-1.908906
0.094896
0.487067
1.753570
0.605974
-0.198051
0.132970
-0.236716
-0.009648
-0.084447
-0.452047
0.812371
0.570888
0.127682
-0.152252
-0.040364
0.521819
0.007289
0.515004
-0.186131
0.176933
-0.320399
-0.147425
0.006148
0.617712
-0.477925
-1.241551
-0.493388
-0.076945
-0.350843
-0.375268
-0.582918
0.272927
0.109364
0.135284
-0.651185
-0.591234
-0.005859
-0.204192
-0.417333
-0.321679
0.449481
0.250028
-1.480407
0.565306
0.597170
0.850984
0.699050
0.265563
-0.502946
-0.129337
-0.690936
0.021297
-0.230790
-0.040902
-0.225635
1.365006
-0.163386
-1.029200
0.036178
-0.062943
0.987477
-0.976926
-0.267480
0.691957
0.780459
0.145745
-0.534954
0.133992
-0.117206
-0.023734
0.319440
-0.337829
-0.615363
-0.023324
1.214125
-1.010756
-0.906339
0.204227
0.075816
0.064714
1.448042
-0.208170
-0.303606
-0.157979
-0.009329
-0.135222
0.043605
-0.241872
0.368090
-0.788388
-0.084081
-0.259163
0.077819
-0.068073
-0.605567
0.154456
0.317532
0.386195
0.424913
1.356751
-0.660504
0.189829
0.017857
-0.556547
-0.253833
0.299881
-0.136464
-0.192550
-0.485417
0.392208
0.574775
0.354813
1.053249
0.770315
-0.241884
0.511295
-0.422638
-0.040029
-0.026568
0.008314
-0.658122
2.019689
-0.431814
-0.075599
0.027650
-0.231787
-0.369290
-0.178606
-1.530780
-0.663514
-0.213927
0.441201
-0.383036
0.072388
0.177829
0.994627
0.109359
-0.107827
-0.006184
0.601947
-0.216127
0.032396
1.146739
-0.804447
0.009614
-0.328169
-0.600366
-0.814900
0.488243
1.928242
0.410358
-0.010377
0.788120
0.445993
-1.525110
-0.573017
0.013742
-0.236713
1.456210
-0.132145
0.396580
-0.082701
0.836451
0.440340
-0.399212
1.214658
0.081216
0.693002
0.193553
-0.943940
-0.124838
0.384061
0.716582
-0.397470
-0.205464
0.647086
-0.096332
-0.375434
0.173769
0.118052
-0.269400
-0.226600
-0.166844
0.059381
0.581421
0.272158
0.262599
-1.094439
0.322559
-0.301024
0.075047
0.261285
0.820798
0.656926
-0.000846
0.822684
1.089835
1.408634
0.056094
0.336714
0.020840
0.203229
-0.681736
-0.394055
0.893937
0.193585
-0.379222
0.351617
0.396555
0.145238
0.638480
0.199764
0.819054
-0.272230
0.100359
0.082277
0.074837
-0.353157
0.747406
-0.016395
0.238113
-0.302953
0.863932
-1.035688
-0.034619
-0.072254
-0.301764
0.368671
-0.454748
-0.228970
0.451735
-0.468709
0.187279
-1.023627
-0.022510
-0.377968
-0.196239
-0.070109
-0.245180
-0.143042
0.390026
-0.332435
0.559084
0.868432
0.216306
-1.602836
1.121963
0.123212
-0.196720
-0.170276
0.111556
-0.006821
-0.106571
-0.037983
-0.263734
-0.228850
-0.234276
-0.348022
0.575490
0.335724
0.215903
0.195176
-0.216048
-0.667397
0.899808
0.626925
-0.170224
0.608319
0.094796
-0.257450
-0.216104
0.277313
0.023628
0.052397
-0.364685
0.102893
0.595617
0.567253
-0.881648
0.472140
0.488977
0.274347
-0.448112
0.027251
0.738156
-0.108720
-0.358835
-0.143031
0.065378
-0.194701
-0.178942
0.793330
-0.342166
-1.879594
0.119258
0.178749
0.961604
0.456173
-0.167967
0.123127
-0.700884
-0.347426
-1.351143
-0.186153
-0.287924
0.055773
-0.086680
0.169952
-0.457880
1.989682
-0.374392
-0.218274
0.033610
0.332154
-0.424682
0.067134
0.222323
1.063244
0.604000
0.992884
0.033207
-0.096730
0.333819
-0.243674
0.162645
0.909407
-0.046987
0.349610
-1.354177
0.247218
0.352847
0.419140
-0.078277
1.229903
0.268477
0.537685
-0.152330
0.786455
-1.033497
-0.993175
-0.321555
-0.911436
-0.076816
-0.888919
0.258709
-0.100273
-0.147513
-0.332097
-0.097832
0.626464
-0.237320
0.839038
0.362335
-0.305171
-0.251332
0.586089
-0.168428
0.404990
-2.944567
-2.889610
0.114314
0.371808
0.649256
1.648592
0.185136
0.170819
0.246340
-0.297025
0.590310
1.030992
-0.113209
-1.438565
0.112571
-0.862852
-0.162330
-0.070495
0.102274
-0.067830
-0.007990
0.386482
0.080882
0.624795
-0.555387
0.286995
-0.269981
-1.252275
-0.504722
-0.539258
-0.363836
-0.309139
-2.157158
0.301947
-1.051344
-0.359359
1.216799
0.030904
0.216527
-0.236266
-0.461823
0.241296
-0.129925
0.095533
0.315997
0.623035
-0.141329
-0.665491
-1.384833
-0.037669
