0.106178
-0.377319
1.534813
-0.691878
0.397706
-0.234060
0.400287
-0.085044
0.554578
0.766689
0.084511
-0.285804
-0.118769
-0.443629
0.182359
0.470810
0.519233
0.275794
0.714913
-0.063663
-0.614521
0.203738
-0.126087
-0.677983
-0.329984
-0.577959
-1.794062
0.552397
0.012535
0.006857
0.212979
-0.184594
0.298253
0.738788
0.411174
1.577911
0.222277
-0.282867
1.196990
0.285267
-1.468454
-0.250508
0.712091
1.495411
-0.299635
0.036741
-1.371267
0.206022
1.012733
0.564689
-0.688836
0.953649
1.148388
-0.277004
0.004813
-0.405127
-1.513594
-0.747404
-1.572485
0.272969
-1.214813
0.765407
-1.150288
0.249774
0.280922
-0.341456
-0.182168
-0.231190
-0.239860
-0.038481
-0.407009
0.153566
0.382097
-0.391400
-0.225996
0.958727
0.922690
1.293688
-0.452658
-0.124056
-0.098918
1.300448
-1.129857
0.405309
0.296953
-0.415028
-0.166890
-0.699627
0.466533
-0.306710
0.002425
-0.011295
-0.082715
0.378794
-1.267368
0.038367
-0.040604
0.109173
0.125825
0.270819
0.089314
0.254398
-0.073821
0.115382
0.239377
-0.388824
0.088351
-0.508498
0.897068
-0.444376
0.485866
-0.363768
0.017340
0.645260
-1.190984
-0.803351
-0.518682
1.672980
1.527681
-0.514386
-0.392103
-0.159617
-0.500392
-0.628847
0.132089
-0.354583
0.693904
0.042278
0.890457
-0.099662
0.411334
0.571059
-0.574610
-0.068118
1.709197
-0.476430
-0.282582
-1.082922
2.347709
-0.488215
-0.271603
-0.169988
0.942822
-0.771218
0.524841
-1.410352
-0.023850
0.804075
0.079014
-0.091118
-0.243842
0.296629
0.265259
0.887798
0.352423
0.210126
-1.043459
1.255745
0.389372
0.083704
-0.909800
0.408533
-0.103951
0.925004
0.169301
-1.314295
0.745837
0.997850
-1.373675
-0.675571
0.754084
-0.023651
-0.219119
0.373014
-0.377692
0.522571
-0.479206
0.274705
-0.087680
0.303467
0.831980
-0.250179
1.576799
-0.159676
1.209900
-0.090690
0.593182
-0.234681
1.017293
1.872363
-0.141712
-0.839883
1.091855
-0.310620
0.010946
-0.042208
0.057289
-0.211336
1.134959
-0.288357
0.311827
-0.864550
0.358177
-2.018126
1.635123
-1.951667
-0.346096
-0.359767
0.746500
0.408969
0.072561
-0.430897
0.273837
0.337044
1.070130
-0.155191
-0.062722
0.623456
0.098457
-0.499570
0.107432
1.461231
0.395398
-0.230946
-1.896829
0.841447
0.770187
1.693586
-0.445029
-0.630668
1.244748
0.432061
-0.030733
0.559440
-0.320977
-1.677047
0.644130
0.525670
0.403402
-0.320008
-1.404882
-0.069933
-0.655891
0.037523
-1.756386
0.258326
0.197609
0.123210
1.105407
-0.690214
-0.734275
1.375570
0.484398
-0.356519
1.386160
-0.326553
0.358598
-1.427150
-1.117460
-0.891760
2.051343
0.359498
-0.184655
-0.063435
-0.157237
-0.096155
0.466530
0.483112
0.940609
1.510693
-1.465918
0.302582
-0.240224
-0.398460
-0.064377
0.029213
-0.591606
-0.397654
1.270186
-0.020187
-0.440515
-0.263530
0.440986
-0.132147
0.556755
-0.677477
-0.256538
-0.664135
2.538276
0.109960
0.095641
-0.003076
-0.520833
0.336239
-0.647015
0.021407
-1.211651
-0.579720
-0.137454
-0.268744
0.038212
-0.523048
-0.287819
0.052001
-0.264221
-0.698671
0.547045
-0.273023
-0.131606
0.439400
0.697441
1.108794
0.560747
0.263326
0.080691
0.336381
0.250519
0.709826
0.440052
0.198490
-0.106771
-0.300120
0.079482
0.653924
-0.375678
-0.244729
-0.208937
-0.047153
0.262530
-0.367067
-0.158406
0.089258
1.121014
0.019193
0.116762
-0.405010
-0.370793
0.364987
-1.044981
-0.165604
-0.183108
-0.141952
-0.289565
0.113018
-0.495369
-0.879859
-0.322926
0.298145
1.065646
-0.613806
-0.007471
-0.911748
-1.488812
1.279440
-0.000586
-0.107482
-0.092075
0.077624
-0.262810
-0.270621
0.009505
-0.078467
0.407298
-0.025099
0.692484
-0.415720
0.401719
-0.284216
-0.064207
0.258944
0.314190
1.051889
-0.810901
0.395218
-0.124733
0.233985
-1.882922
0.516793
-0.327152
1.370926
0.300775
-0.191919
-0.110237
-0.187560
-0.094282
1.489383
0.127854
-0.538762
0.177265
0.035379
1.079080
-0.204904
1.155117
1.628826
0.017520
-0.066561
0.127343
0.108830
-0.328825
0.746210
-0.124304
-0.261066
0.444570
-1.288474
-1.031761
-0.439843
1.914125
0.867911
0.115047
-1.007259
0.712404
-0.509679
1.091403
-0.014773
0.780837
0.714638
0.608420
-0.647574
0.470342
0.239329
0.355362
-0.394660
-0.156255
-0.588281
-0.667439
0.586409
-0.087459
0.749230
0.807393
-0.556515
1.606386
-0.664193
0.933146
0.599945
0.055013
-0.270784
0.141116
-0.335623
-0.317465
0.738322
-0.674164
-0.253491
1.205738
-0.381221
0.182157
-0.916544
0.100161
-0.055466
0.635038
-0.257277
2.705080
0.771878
0.897944
-0.476755
0.138623
-0.725282
0.505412
-0.391787
0.018316
-0.211075
-1.439834
0.939674
0.462234
0.555771
-0.114802
0.870919
0.723591
0.207264
-0.348843
-0.139454
0.506341
-0.855154
1.510976
0.834041
0.191844
0.069858
0.489137
0.422652
0.014391
-0.005697
0.063196
0.002620
-0.441106
-0.020061
-0.816354
0.725563
-0.289709
0.922413
0.150258
0.617274
-0.042538
0.031955
-0.050639
-0.179453
1.340308
-0.152132
1.530219
1.501956
-0.060952
-0.129465
