0.075844
0.407128
-0.021431
-0.084055
-0.090902
-0.223745
0.002002
-0.057641
0.196096
-0.188538
0.913802
-0.977821
-1.382206
0.216830
-0.531495
-0.148281
0.378694
0.231728
-0.020860
-0.337453
0.252503
-1.285654
0.391980
0.461670
0.042332
0.139673
1.088551
0.225040
0.216800
-0.866959
0.270940
0.381083
1.086737
-0.438654
-0.071104
-0.399445
-0.072738
1.058117
0.819881
-0.108472
0.934322
0.500035
0.656938
0.075328
-0.422654
-0.188297
0.134862
0.382231
-0.312144
0.686990
0.452916
-0.704942
0.509314
0.551350
-0.049810
0.484347
-0.151561
-0.407566
1.349050
0.265390
-0.097400
0.931871
0.437149
0.224849
-0.521876
-0.679908
-0.582059
-0.043712
0.253636
0.216429
0.440677
-0.095545
-0.223032
0.353506
0.368172
0.562057
0.236597
1.102092
-0.349290
1.009642
1.372808
-0.380626
-0.082333
0.102398
0.211899
-0.050987
0.816641
1.064355
-0.601411
-0.001882
-0.280394
-1.930692
0.156379
0.434735
1.701469
0.129335
-0.203817
0.199715
-0.179648
-0.134986
-0.103974
-0.321911
0.709147
0.470684
0.065516
-0.181399
-0.005904
0.600258
0.030713
0.206690
-0.121132
-0.093754
-0.169377
0.097251
-0.216556
0.576776
-0.333061
-0.451419
-0.561750
-0.093687
-0.284078
-0.387246
-0.242908
0.395075
0.128791
-0.037492
-0.507231
-0.345909
-0.096765
-0.064751
-0.665572
-0.102345
-0.315086
-0.368630
-0.924968
0.368510
0.795642
0.882440
0.474794
0.091221
-0.451128
-0.087557
-0.727696
0.194594
-0.100861
0.070240
-0.069998
1.097745
-0.190179
-0.056431
0.254955
0.333824
0.439502
-0.702492
-0.345087
0.656269
0.676203
-0.048509
-0.180011
-0.726272
0.000969
-0.099168
0.170404
-0.111102
-0.419037
-0.099142
1.318716
-0.931387
-0.690116
-0.172078
0.185726
0.002671
1.339569
-0.181975
-0.297400
0.126764
-0.117616
0.028575
0.151712
-0.036041
0.206450
-0.717888
0.006993
-0.199751
0.124949
-0.026622
-0.698300
0.148462
-0.034867
0.464452
0.343951
1.001322
-0.665859
-0.016474
-0.023820
-0.462655
-0.233768
0.247704
-0.142979
-0.149949
-0.248294
0.586368
0.414313
0.034722
0.792281
0.544027
-0.176552
0.392269
-0.651007
-0.027325
-0.012120
0.006117
-0.415211
2.044501
-0.156737
-0.068963
-0.015147
-0.097188
-0.076483
-0.292551
-1.164080
-0.058556
-0.164766
0.472673
-0.385580
0.018942
-0.053715
0.721615
0.044531
0.116358
-0.344562
1.254763
-0.112728
0.019388
0.918792
-0.431548
0.139119
-0.377549
-0.657210
-0.916702
0.209540
1.046334
0.369303
-0.274895
1.746614
0.354970
-1.156590
-0.546520
-0.019316
0.219140
1.206381
-0.256947
0.420590
-0.091944
0.871119
0.514557
-0.459936
0.911076
0.031594
0.850383
0.178644
-0.679685
0.035182
0.106472
0.242949
-0.203254
0.012226
0.426320
0.021774
-0.446342
0.030893
0.159110
-0.244929
-0.164007
-0.104141
0.103442
0.509730
0.242895
0.931782
-0.954297
0.515970
-0.288286
-0.271037
0.194038
0.733770
0.321896
-0.158332
0.748936
1.093874
1.069409
-0.300992
0.257303
0.014444
0.196550
-0.668959
-0.410636
0.651545
0.114050
-0.368510
0.388473
0.450773
0.150333
0.448787
0.310090
0.745853
-0.161777
0.379657
0.236575
0.041147
-0.494487
0.562622
-0.088371
0.042183
-0.244825
0.931195
-1.424476
-0.026496
-0.054037
-0.262920
0.292785
-0.419619
-0.190368
0.530425
-0.622314
0.089552
-0.778530
-0.273172
-0.372804
-0.029423
0.046868
-0.097214
-0.093851
0.314228
0.108571
0.555749
0.637587
0.176581
-1.639750
1.159218
-0.007228
-0.055588
-0.083376
0.147461
0.199259
-0.124109
0.124027
-0.047357
-0.196055
-0.375562
-0.304855
-0.070658
0.133030
0.116687
0.100213
-0.124346
-0.731588
0.471945
0.390426
-0.090199
0.124759
-0.115180
0.032977
-0.272822
0.201769
-0.187195
-0.032740
-1.185077
0.005635
0.790262
0.409240
-0.469971
0.466796
0.293495
0.083072
-0.214943
0.055122
0.314837
-0.013481
-0.450186
0.396407
0.131010
-0.153782
-0.155553
1.219231
-0.346622
-1.438560
-0.137264
0.240358
0.694125
0.374250
-0.013843
0.018328
-0.363690
-0.367760
-0.970412
0.047190
-0.413802
0.407304
-0.097067
0.286096
-0.393768
1.000601
-0.215991
-0.407938
0.045572
0.488648
-0.491984
0.232756
0.300601
0.843766
0.575243
0.871088
-0.198909
0.026884
0.167821
-0.148022
0.076811
0.603195
-0.015573
0.030233
-1.287354
0.062660
0.348920
0.225041
0.009218
1.294089
0.069625
0.527750
-0.286799
0.722892
-0.851353
-1.311840
-0.082790
-0.501775
-0.028840
-0.523600
0.219732
0.106120
-0.015407
-0.200898
-0.304073
0.482724
-0.030673
0.551617
0.394059
-0.176804
0.019121
0.468814
-0.199765
0.232236
-2.774772
-2.174804
-0.197770
0.299377
0.251915
1.050483
0.332948
0.131198
0.170210
-0.404578
0.707397
0.704055
-0.238729
-1.168404
0.255312
-0.730620
0.035167
-0.053143
-0.086563
-0.023558
0.144339
0.163353
-0.004971
0.401047
-0.339279
0.187110
-0.102029
-1.254981
-0.116341
-0.254468
-0.280331
-0.452497
-1.629284
0.331083
-0.640672
-0.297531
1.125666
0.015321
-0.374066
-0.169411
-0.320297
0.723826
-0.087711
0.154372
0.057732
0.275346
0.250351
-0.846154
-1.342851
0.180895
