0.246456
0.162002
-0.255298
-0.342832
-0.248649
0.205705
0.733741
-1.027889
-0.393981
0.086545
-0.140947
0.465867
0.028621
-0.760742
0.572199
-0.484222
-0.543826
0.379013
0.110734
0.229048
-1.149553
0.217361
0.193032
0.404207
-0.207615
-0.811262
-0.397715
-0.657958
0.258008
-0.593939
0.125867
1.452110
0.299090
-0.348408
0.247828
-0.295066
0.084840
0.388007
0.812422
-0.402860
-0.746354
0.899492
-0.166108
-0.693530
1.024026
-0.220137
0.781907
0.020703
-0.355275
-0.466494
-0.228450
0.233785
0.695211
0.251867
-0.061335
-0.132210
0.507744
-0.384963
-0.277523
0.270662
-0.400060
-0.744940
-1.249256
0.296152
0.133381
-0.264716
0.950035
-0.487306
-0.704788
0.047100
-0.908137
0.086629
0.484768
0.181433
0.165475
0.338730
-0.066859
0.977689
-0.134783
0.071489
-0.349410
-0.380847
-0.315520
-1.183786
0.030025
-0.145573
-0.167600
0.042241
0.574656
-0.733617
-0.033833
-0.030451
0.200593
-0.771050
1.375224
0.075451
0.262978
0.216764
-0.223617
0.055676
0.161281
0.177748
-0.635377
-0.085818
-0.661761
-0.231547
0.670071
0.015508
-0.227463
0.449257
0.108951
0.176775
0.245681
0.779747
-0.467844
0.935542
-0.697874
-0.168258
0.488514
-0.528343
-0.065526
0.080032
0.135504
-0.071777
-0.142909
-0.406690
-0.313089
-0.760784
0.031281
0.067395
-0.024824
-0.096216
-0.364810
-0.124037
0.032504
-0.684188
0.853469
-0.622155
1.264450
-0.035129
-0.477357
-0.020280
-0.004550
-0.448087
0.040778
0.226400
-0.304795
-0.510947
-0.022440
-1.131070
-0.321387
-0.268339
0.019476
1.057569
-0.811992
-0.053813
-0.193868
-0.013990
0.282525
-0.045859
-0.889328
0.258868
0.251290
0.592875
0.039417
-1.589915
-0.608355
1.428520
-0.861882
-0.562917
0.356402
0.010920
-0.834221
-0.468572
-2.104319
0.659709
-0.007704
-1.497323
-0.210718
0.959847
0.788197
0.037586
-0.299304
-0.268823
1.038384
-0.425355
0.383814
-0.200736
0.398976
0.137577
-0.038243
0.140009
-0.257715
0.427748
0.114485
-0.378178
-0.322634
0.425327
-0.191169
-0.130858
-0.059296
-0.358201
-0.189237
0.230435
0.058681
1.182584
-0.294546
-0.741189
0.870172
-0.106448
-0.073885
-0.387931
-0.623925
-2.222945
-0.257070
0.471071
0.774025
-0.040339
-0.358564
-0.057467
-0.690354
-0.019288
-1.138726
-0.960393
-0.828671
0.858071
-0.306859
-0.346091
0.037443
0.309778
0.548578
-0.034478
-0.097668
1.278843
-0.178556
-1.176578
0.802107
-0.139061
0.165836
0.212543
1.329386
0.659166
0.388885
0.078884
-1.027337
0.130825
-0.461797
-0.420522
0.675143
-0.921925
0.245898
0.847489
0.455574
-0.035246
-0.145745
0.061732
0.359985
-0.722310
0.249278
-0.620246
0.690924
0.965911
0.060620
-0.313181
0.106438
-0.233155
-0.444267
1.292826
0.115555
1.065590
0.162445
-0.254773
-0.012986
-0.161996
0.090562
0.349838
0.136484
0.040927
-0.372642
-0.644427
-0.125714
-0.352753
1.096147
0.074570
-0.403311
-0.527690
1.127373
-0.297125
0.779645
-0.750306
0.104971
-0.284115
0.761060
0.038816
-0.908415
0.249695
-1.079485
0.191935
-0.987955
-0.261279
0.287491
0.114619
-0.311358
-0.262893
-0.032457
0.524263
0.839849
0.112600
0.178532
-0.176892
1.835905
0.444324
-0.181017
-0.195308
0.062000
0.033540
-0.094339
-0.473048
-0.055284
-0.240003
-0.153418
-0.396575
-0.012371
1.288303
0.937258
-0.005209
0.143312
0.804765
-0.245831
0.775427
-0.398741
0.106122
0.235564
0.229206
0.133444
-0.363663
0.027101
-1.369063
-1.098505
0.259431
-0.256715
-0.005366
-0.156036
-0.157754
0.082949
0.250013
-0.656330
-0.610665
0.385532
-0.595738
-0.288081
-1.394480
1.031227
-0.037169
-0.182026
0.266523
-1.047245
0.310896
-0.119954
0.352454
0.311163
-0.093025
-0.398665
0.546118
1.520842
-0.446573
-0.012898
0.303824
0.005681
-0.308342
-0.232660
0.052165
-0.321433
0.504423
-0.609447
0.217801
0.912449
0.750523
0.038431
-0.359017
0.191543
-0.195776
-0.067441
0.281523
0.343692
0.070583
1.422530
-0.055676
-0.540743
0.060931
0.068236
-0.243113
-0.051516
1.075834
-1.313215
0.119297
0.308843
-0.456244
-0.049475
0.128587
-0.039733
-0.552682
-0.322525
-0.478489
-0.460279
0.286801
0.597605
0.940185
0.223028
0.000193
-0.083806
-0.471006
0.341484
0.665131
0.444334
0.450324
-1.040115
0.966360
-0.334299
0.096696
-0.620005
-0.462190
-0.316064
-0.014938
0.538376
-0.069379
0.220036
-0.070530
0.363752
0.041037
-0.820846
0.928358
-0.213608
1.813630
0.295651
-1.017311
-0.117867
0.355260
-0.170807
0.402357
0.284682
0.004108
1.078850
0.170846
0.071139
-0.423927
-0.408725
0.081842
-0.212387
-0.110956
0.923976
0.773620
-1.341578
0.048064
1.195219
-0.823529
-0.327345
0.266184
-0.041004
-0.391902
0.261198
-0.864494
0.280587
-0.684886
0.507592
-0.624105
-0.021249
-0.193088
-0.494477
0.444417
0.341197
-0.234359
-0.063085
0.560654
0.441255
0.675381
-0.553305
1.276945
0.970967
-1.114000
0.523660
-0.222192
1.162545
-0.729585
-0.333245
-1.766195
0.120471
-0.075856
0.240230
0.805896
-1.262529
0.267798
-0.201922
0.275711
0.419715
-0.326756
2.049730
0.275578
1.547886
-1.111857
