-0.115420
1.738291
-0.782844
0.580754
0.243191
-1.607352
-0.492342
-0.011257
0.025614
-1.494445
1.946736
-0.064813
-1.266235
0.810038
-0.208953
-1.032116
0.243877
0.047512
-0.502201
-0.607163
0.217656
-1.118504
1.000444
0.271712
0.009256
1.333709
0.229923
0.954751
-1.338121
-0.616105
-0.352873
0.263159
0.480624
-2.134191
-0.619045
-1.515637
-0.648791
-1.090738
-0.239880
-0.560888
-0.393590
2.260512
-0.659376
-2.958920
0.073365
-0.303925
0.593927
-0.355525
-0.538861
-0.449530
-1.649941
-1.768293
-0.405103
0.152676
-0.315755
1.321312
1.266990
-0.463693
-0.376024
0.755209
-1.396553
3.769122
1.371294
1.215669
-0.500938
-1.297587
-0.747703
0.147824
-0.105752
-0.216732
0.755261
-1.804426
-0.538207
0.192363
0.611680
-0.272701
-0.823295
-2.549859
-0.447062
0.043024
-0.960702
-0.482495
0.617206
-1.877314
0.256295
-0.574954
0.710800
1.056624
-0.061960
0.932493
-0.388520
-0.433059
1.141703
-1.564639
-1.061145
-0.648531
-0.319341
0.787141
-0.760825
0.269898
-0.306946
0.089020
-0.054693
-0.810599
1.611545
-0.016425
0.164059
0.000790
0.256454
0.171881
0.103138
1.944602
-2.025165
-0.750292
-1.407892
0.537188
0.618778
-0.062223
0.325843
0.373989
0.060971
-0.633992
1.251327
0.375585
0.371118
-0.321508
0.165255
-0.115189
0.078847
0.962749
-0.181229
0.264720
-0.593277
0.155468
-1.015537
-0.336184
1.373708
1.215986
1.969067
-0.300019
-0.248315
-0.186334
-0.313451
0.333463
-0.039309
0.195943
-0.264101
-0.402952
-0.370830
-0.473310
0.658059
-0.179806
0.123778
-0.301942
-0.219595
0.580992
2.310657
0.034611
-0.336067
-0.983352
0.312676
-0.026077
0.356065
-0.582599
-0.985490
2.587136
-1.472480
0.482313
-0.285713
0.577997
-0.581129
0.531533
-0.702596
0.906716
1.591532
0.240644
-0.196853
2.196544
0.099011
-0.839352
0.296579
-0.441904
-1.800415
-0.340168
-0.788493
-0.349835
0.439979
0.873382
0.465167
-0.860282
0.945352
-0.214628
0.026005
0.225485
-0.223298
-0.263506
-0.040031
0.355764
-0.525678
-0.546061
0.385100
0.114404
0.143436
1.908543
0.326704
3.482276
2.392300
0.938648
1.990048
-1.032070
-0.460860
-0.219676
-1.243307
2.310899
-0.964760
0.951532
-0.464063
-0.410329
-0.115892
0.108695
-0.789429
-0.826344
-0.661069
1.304562
0.111106
0.668119
1.121974
1.734416
-0.492845
-0.835044
0.269749
0.095667
-0.383941
0.525149
0.669689
-0.332724
0.027234
-0.337999
-0.117028
-0.584539
2.239176
1.179452
1.815003
1.877726
-0.808364
0.692819
-1.170695
-0.089716
-0.131711
-0.724540
0.818930
-0.152415
-0.544359
-0.269820
1.319053
0.329755
-0.448918
0.211668
0.379628
0.284825
-0.482183
-0.373693
0.227618
0.106922
-0.295491
-0.641158
-0.937441
0.336112
-0.285779
0.370475
0.421908
-0.533373
-0.029256
-0.340923
1.178998
0.852186
0.267830
2.173913
-0.130360
-0.631160
-0.465822
-1.167738
0.040782
0.502134
0.201297
0.396983
0.454587
0.077963
1.251202
1.776816
-0.585819
0.183762
0.753631
-0.197598
1.239290
-0.654810
1.540300
-0.049754
0.199619
-0.362398
0.059312
0.241509
0.007754
-0.152810
1.124810
-0.309611
-0.573791
0.624214
0.526207
0.286168
0.404787
0.095337
0.119831
0.415718
-1.611820
-0.228124
0.007285
-0.094137
0.458471
0.675564
0.176507
-0.559103
2.334829
-0.928271
0.001295
-0.727948
-0.902225
0.498160
-1.505682
0.419965
-0.606501
-1.040440
0.151892
0.017445
-0.000916
0.196385
0.866607
-0.069807
-0.193917
0.359586
-0.059983
-0.305668
0.418404
-0.364526
0.148827
0.783140
-0.138898
-0.374831
0.302059
0.162465
0.584688
1.708879
0.601709
0.212897
-0.311085
-0.746617
0.856169
2.136222
-0.084167
0.112998
-0.683831
-0.382527
-0.032920
1.324777
1.024140
0.466684
0.599859
0.777597
-0.124084
-0.730412
-1.039747
-0.438405
0.004225
0.496865
0.117852
-0.289783
1.593497
0.055189
0.648927
-0.850171
0.394617
-0.567227
0.163202
0.210724
-0.100167
-0.001965
1.146546
0.185244
0.722906
1.028851
-0.451014
-0.209836
0.906080
0.215580
-1.657938
0.480782
0.096480
0.016752
-0.334234
0.535776
0.569279
2.152823
-0.709711
0.481556
-0.006769
1.110860
-0.609680
0.194935
0.824916
1.751897
0.731790
-0.065730
-0.268234
-0.016974
1.733001
-0.467166
-1.223912
-1.393627
-0.190758
0.347687
-0.593586
0.433848
0.671238
0.349327
0.496370
-0.842338
1.204322
-0.284712
-1.027522
1.079872
0.313438
0.954067
1.527590
-0.563814
0.004107
-1.016114
-0.141085
-0.218470
0.166694
-1.330602
0.363724
-1.308577
0.528687
0.872597
-0.070519
1.160840
-0.471729
-0.215611
-2.256727
-0.742075
-1.310659
-0.211858
1.097895
-0.830877
2.168042
-0.176489
-0.000267
0.279622
-0.521727
0.079333
0.580307
1.381419
-0.023709
0.238945
0.204905
0.136050
0.061549
0.514954
0.050738
0.704682
-0.231385
0.291637
-0.104576
0.901172
-2.283983
-0.319132
0.277401
-0.781067
-0.681425
0.042689
-0.317836
-0.670866
-2.783425
0.137711
1.700334
-1.131936
0.301881
-0.106467
0.172893
-1.322448
0.430055
0.135403
-0.442981
0.635985
-0.724150
1.905276
-2.278739
-0.155578
-0.321473
1.590109
