-0.441957
0.758982
0.875639
0.380551
1.895755
0.646274
-0.883414
0.827662
0.945163
-0.395836
0.292349
-0.938569
-0.049160
-0.235065
-0.549440
-0.432591
-1.413436
0.846300
0.596981
-0.328206
-0.461982
-0.245576
-0.378126
-0.802836
-0.157894
-1.860401
-1.731426
-0.334972
-1.081518
-0.112106
0.325594
-0.768397
1.001746
-0.068149
-0.532227
2.417471
0.235271
-0.731150
-1.790171
0.221177
-0.443582
-0.469282
0.664866
2.565160
-0.045637
-0.164545
-1.743036
-1.178902
0.650902
0.333172
-0.851942
-0.291170
-0.519121
0.308699
0.038203
-0.808735
0.117836
-0.621874
-1.674411
-1.310781
-0.761642
0.826727
-1.028817
-0.603340
-0.013811
0.323263
-1.151363
0.208382
-1.149727
-0.295385
0.184151
0.759536
-0.123697
-0.380064
0.711634
0.640634
2.048162
-1.943259
-0.664649
0.264810
-0.116628
1.505627
-0.017128
1.412073
-0.599244
0.349361
-0.540220
0.299491
0.322543
0.027152
-0.248274
0.092614
-0.596205
0.813333
-2.895271
-0.133989
-0.102476
-0.372253
0.489905
-0.079055
0.314363
0.167254
0.233380
0.383924
0.878531
-0.121152
-0.046801
-0.306885
-0.384896
-0.646137
0.143895
-0.511183
0.773943
-0.356956
0.710069
-0.702325
1.649108
1.422103
-0.539071
0.672163
0.261809
0.920501
-0.008869
-0.660778
0.089752
-0.759598
0.923632
-0.207815
0.525674
-0.758171
-0.176526
-0.822933
-0.167175
-0.555592
1.382367
0.147463
-0.536388
0.545777
2.247116
-0.935507
-0.123237
-0.318773
0.340969
-0.636085
1.140549
0.360126
0.371832
1.662569
0.555342
1.398690
-0.317348
0.907337
-0.643913
0.806905
-0.144917
0.220078
-0.677594
0.995210
0.704992
-0.321130
-1.066042
0.064906
1.199254
1.462379
0.444622
-0.114238
-0.253234
0.036228
0.922402
0.597214
0.276494
0.725512
-0.194693
0.710722
1.187144
0.701657
-0.126334
-0.084997
0.122836
-0.597506
0.520439
0.183075
1.819424
-0.344508
0.316822
-0.216627
-0.427432
-1.029242
-0.163281
-2.306038
-1.090239
-0.921308
0.147117
0.097391
-0.273889
0.397871
-0.198790
0.265749
0.450420
-0.326208
0.372036
0.340912
-1.343465
1.708796
1.171366
-1.442679
-0.303086
-1.000877
0.078183
1.584324
-0.210402
-0.251032
0.402792
1.817779
0.957438
-1.042992
-0.446505
0.798730
-0.402933
-0.331993
0.893327
0.644466
1.283659
-1.004796
-0.617712
2.725443
1.072156
1.282501
-1.748638
-0.598380
0.928761
-1.747947
-0.097264
0.183323
0.140583
-0.035396
1.210403
0.377140
0.311807
-1.649435
-1.058901
-0.564793
-1.923459
-0.897685
1.643303
0.470117
-0.200387
-0.250800
0.197042
1.398933
0.395179
1.535833
-2.398231
-0.407823
1.835172
-0.767970
0.366009
-1.529633
-1.278926
-0.129968
2.069672
0.265182
0.549066
0.051739
-0.217725
0.213504
-0.086267
-0.770799
1.566891
0.456117
0.105097
-0.252249
0.108324
-0.106716
-0.610113
-0.367915
-1.024264
-1.286215
-0.113333
0.150497
-0.223462
0.652309
1.209160
0.135558
0.442033
-0.993002
-0.125501
-0.425297
2.544660
-0.382490
-0.531373
-0.852897
-1.700419
0.501977
2.088297
-0.237682
-1.637671
-0.849352
0.217842
-0.888554
-0.067381
-0.635921
0.260787
0.534614
-0.918445
-0.134033
-1.266115
-0.271946
0.449320
1.112886
-2.385245
1.147335
0.970525
2.180420
0.325211
-0.533809
0.298666
2.118973
1.362026
0.427313
-0.528431
-0.177520
-1.028202
-0.366147
-0.844756
-0.057436
-0.538408
-0.161782
0.012255
-0.364379
1.502423
-0.155651
0.946607
0.605722
0.409653
-0.433646
-1.024198
1.408839
0.007184
-0.744419
0.409001
-0.000840
0.033063
0.124735
-0.540455
-0.051684
-0.944413
1.119516
0.808941
1.051567
0.746929
-1.050305
-3.015828
-0.006904
-0.014806
-0.310474
-0.507921
-1.852432
-0.021678
-0.239858
-0.101408
-0.042251
0.650544
0.062771
0.037219
0.211406
-0.937541
0.304652
0.115443
-0.525931
1.081344
-0.433295
-0.254408
-1.887328
-0.004362
0.708183
-1.216455
-1.079079
-1.751731
-0.142965
0.689956
0.119641
-0.227222
0.116706
-0.235760
1.181621
0.113774
-0.116613
-0.829698
0.596298
1.981232
-0.364340
2.529866
0.013235
0.189751
0.836644
0.939657
0.150837
0.069060
0.406153
0.145732
-0.714147
-0.005166
-1.201826
-0.819227
-0.223498
1.374837
0.679079
-0.906835
-2.222661
0.457661
-0.245249
-1.269969
-0.544442
-0.413022
0.261223
0.111765
-1.782546
0.189564
-0.010256
0.990041
-0.261435
0.407421
-0.800676
-0.888685
-2.150505
-1.095694
-0.818995
-0.611550
-1.659680
-0.653499
-2.497707
0.431995
0.613241
0.423971
-0.722733
0.501783
-0.105144
-0.552508
1.517101
-0.074927
-0.815808
1.398491
-0.685095
-1.193972
-0.625910
0.861492
-0.262821
0.651286
-0.495220
1.658870
-0.937444
1.036281
-0.933435
-0.319173
-0.046021
0.791767
-0.237262
-0.221083
0.251377
-0.389895
-0.497289
0.245864
1.388647
-0.353263
2.037333
0.963164
1.005328
-0.043873
-1.203356
0.129835
-0.404685
1.329005
0.854147
1.355322
-0.098025
0.529003
-2.150235
-0.711420
0.112898
0.220481
-0.490166
-0.300320
-0.949295
-0.142948
1.027562
-0.751765
1.486094
-0.344598
-0.374913
0.398034
0.564732
0.085153
-0.445744
0.018672
-0.944081
-2.424769
0.629378
-1.418843
0.996017
