0.261352
0.089289
0.034573
-0.149130
-0.729101
-0.000972
0.125953
0.578293
-0.615425
0.311400
0.271376
0.764705
-0.264470
-0.071625
0.853168
-0.034124
0.649756
0.511198
0.233653
0.145368
0.382537
-0.109141
0.643538
-0.348096
0.080240
0.095705
-0.775380
0.395517
0.132106
0.009597
0.693748
-0.528180
0.128063
0.016995
-0.825149
1.536019
-0.013537
-0.585958
1.044800
-0.033938
-0.583834
0.966385
0.030146
-1.687196
0.106998
0.174661
-0.618099
-0.836295
-0.158076
-0.909111
0.511636
-0.466345
1.200635
-0.565448
-0.212223
0.561102
-0.689715
-0.008132
0.598219
0.351396
-1.413403
1.153236
0.613341
1.802599
0.138129
-0.959522
0.492093
0.709687
-0.420936
0.409721
-0.080246
-0.031700
-0.057987
0.105551
-0.271195
1.045271
0.369526
0.113205
0.029723
0.015022
-0.467340
-0.439415
0.461424
0.964364
0.980262
-0.329704
-0.011645
-0.986396
0.405700
-0.187918
-0.008497
0.563311
0.753024
-0.710237
-0.272175
-0.064094
-0.279764
0.366059
-0.294378
-0.064550
0.621545
0.057952
0.173643
-1.185540
-0.143481
-0.082628
-0.035932
-0.047657
0.493585
-1.210453
0.129761
0.522466
-1.048934
1.326578
-0.685261
-0.534088
-0.377166
0.274855
0.735487
-0.533279
-0.454506
-0.981228
0.761008
-0.334805
-0.923340
0.256028
-0.491536
-0.277241
-0.070861
0.475544
-0.047969
0.752859
-0.694957
0.159438
0.399161
-0.634946
0.432012
-0.714768
1.319548
-0.867603
0.078453
-0.255858
0.311839
1.169548
-0.322958
-1.703260
-0.292206
-0.160657
0.818304
-0.188208
0.908431
-0.572498
-0.428438
0.377298
-0.265559
0.131946
-0.596047
-0.691926
0.033957
-0.768760
0.508422
0.343844
-0.298388
0.278085
0.189271
0.894133
0.521277
0.875328
-0.445833
-0.670001
0.693755
-1.297452
-0.669029
0.398899
0.695150
-0.000792
-0.250497
1.950392
0.116031
0.060926
0.158353
-0.330271
0.065837
0.062820
0.450542
-0.386334
0.275910
0.356682
1.304641
1.328894
0.516199
0.690089
-0.085611
-0.955433
0.274590
-0.193172
0.363187
0.445131
0.839128
-0.134110
0.125884
-0.535294
-0.619569
-1.860987
-0.241569
-0.775867
1.205189
-0.680758
1.862522
-0.607227
-0.182823
-0.186643
0.607700
-1.198658
0.039333
-0.408888
-0.255098
-0.337786
1.377519
0.017623
0.784282
-0.138613
-0.161574
0.771760
-0.555589
0.198838
-0.377595
0.158022
0.410082
0.218116
0.822875
0.520842
-0.030913
-0.614042
0.362027
0.428528
-0.068909
-0.033924
0.140717
0.399167
-1.359328
-0.920611
0.613957
0.316854
-1.330248
-0.660350
-0.286753
-0.128321
0.814174
-0.513550
-0.309252
1.241937
0.677563
-0.025752
0.684784
-0.171921
-0.161404
-0.846346
-0.519084
0.258766
-0.728313
0.093606
0.662312
-1.102210
-0.411921
-0.241887
1.039907
0.218811
0.471628
1.516207
-1.720725
0.104774
0.113667
0.021250
-0.212727
-0.173163
0.011374
0.105359
0.781681
0.548221
0.570256
-0.250014
0.020349
-0.745069
-0.085610
-0.406289
0.699407
-0.841410
0.669125
-0.230508
0.237226
0.518334
0.570227
0.226933
-0.515587
-0.102376
0.440828
0.097230
0.588726
0.206182
0.556621
0.139694
0.020270
0.500221
0.706497
-0.033595
1.193276
0.821821
-0.668305
0.357733
0.527885
-0.151932
-0.603221
-1.132980
-1.246654
-0.179573
0.405336
-0.284390
-0.741627
0.328662
0.105563
-0.311829
0.610953
0.324381
-0.251468
1.099597
0.335708
0.187565
0.521381
0.102225
-1.144884
0.130415
0.250615
0.223994
0.380217
0.479539
0.973796
0.203169
-0.583040
-0.342570
-0.210358
-0.189366
0.298074
-0.165491
-0.597150
0.506224
0.293601
0.921360
0.059284
0.125579
-0.434640
0.295119
0.424718
0.064648
0.020662
-0.145398
-1.407641
0.667425
-0.327609
0.724693
0.398156
1.024371
0.162899
0.241647
0.631023
0.181861
0.136637
-0.079892
0.066637
0.768280
-0.636275
0.325754
-0.260834
1.180404
0.382731
-0.431496
-2.319940
0.234147
0.544535
0.187238
0.752369
-0.242874
0.014320
-0.139752
0.445021
0.988993
0.688875
-0.434955
-0.189069
-0.065096
0.869237
-0.189223
-0.131758
0.269164
0.788469
1.008373
-0.898131
-0.265217
-0.478368
0.361887
0.527032
0.369297
1.070023
0.480307
0.416840
-0.004991
0.069214
0.001541
0.399655
-0.337016
0.829215
0.319244
-0.202890
0.165924
0.227442
0.681946
1.612598
-1.141191
0.199599
0.031216
0.310521
-0.838560
-1.197064
-0.238710
-0.543364
-0.022714
-0.195096
0.481217
0.667590
0.206010
0.269726
0.650603
0.193618
-0.152515
-0.298795
0.252056
-0.283431
0.250451
0.010171
-1.257073
-0.333692
0.492456
0.757340
-0.084975
-0.738103
0.163234
0.214462
-0.068529
-0.664263
-0.497287
0.110550
0.578787
-0.223267
0.167555
0.729083
-0.213575
0.362632
-0.084686
0.340630
-0.384585
-0.238941
0.068141
0.759942
0.751468
1.485709
0.231036
0.790322
0.894201
-0.602782
0.501561
-0.189733
-0.447705
-0.786082
1.242715
-0.474200
0.589553
-0.691446
1.151006
-0.179874
0.676086
0.235079
-0.324777
0.303501
0.403177
1.177631
1.320366
-0.141904
-0.755557
-0.407200
0.415471
0.631673
-0.760409
-0.105429
0.083659
-0.254504
-0.071612
0.636037
0.233508
0.644602
0.278481
