0.353220
1.501615
-0.293504
0.065748
-0.227363
-1.370666
0.051855
-0.703826
-1.015465
-0.412905
2.127695
0.240728
-0.527707
0.757172
0.200580
0.347560
1.782528
-0.516840
-0.502194
-0.282084
-0.619177
-1.316056
0.930170
0.448761
-0.082290
0.028625
1.570214
0.247705
-0.127114
0.173639
0.414853
0.909965
0.313865
-0.481462
0.522655
-0.930543
-0.280933
0.363548
-0.227336
-0.468475
-0.439212
2.276301
-0.926392
-2.505515
0.448307
-0.257718
-0.159427
0.602765
-0.811155
-1.168032
-0.520643
-0.523831
-0.355958
-0.841608
-0.289002
1.701709
-0.140382
-0.410476
-0.550424
0.810813
-0.220838
2.542090
0.147033
0.562565
-0.232363
0.172423
-0.316580
-0.107740
0.039295
-0.418409
0.053658
-1.918375
-0.467145
0.316820
0.112856
0.583432
-1.206321
-0.896680
-0.290795
0.286479
-0.998960
-0.757837
-0.177946
-2.033706
0.733384
-0.301238
0.150402
0.758572
2.030635
0.195661
-0.401529
0.146362
0.554211
-0.546347
0.075150
0.351835
-0.470000
-0.052015
-0.520498
0.204071
-0.250254
-0.535982
1.700176
0.372982
-0.060365
0.221696
0.440815
-0.414862
0.620509
1.196527
-0.058963
2.116509
-1.109445
-0.921662
-0.872921
0.168914
-0.471917
-1.256908
1.240878
-0.418809
-0.104467
-0.322684
0.776661
-0.078636
0.418577
0.264031
-0.153452
-0.223979
0.374349
0.067721
0.532612
0.177067
0.142220
0.161804
-1.735513
-0.520300
0.679785
-0.028469
1.078948
0.193303
-0.341698
0.085164
-0.042569
-0.089001
-0.126300
-0.176067
-0.908679
-0.660595
-0.001150
-1.655651
0.166519
-0.450039
1.110406
1.513842
0.647731
0.841733
-0.628205
-0.732378
-0.372519
0.110250
-0.350795
0.074655
0.393862
-0.710911
-1.164792
0.270258
-1.513207
0.290021
0.309900
0.946426
-0.940370
0.233379
-1.132609
0.034993
-0.277156
-0.889030
0.709252
0.621353
-0.243154
0.101111
0.303071
0.175309
-2.158762
-0.358724
-0.020207
-0.128420
0.220545
0.415751
1.594932
0.376030
0.323092
0.434029
-0.731291
0.696208
-0.120718
-0.134415
-0.438416
0.095095
-0.096742
-0.288371
0.458573
-0.071363
0.845716
0.720450
-0.683160
2.339983
0.391367
0.047394
1.307741
-0.669012
-0.080493
-0.174051
-1.319760
1.221647
-0.983487
-0.516837
0.464955
-0.471260
-0.564328
-0.439330
-1.071811
-1.650178
-0.822771
0.282283
-1.130592
-0.321439
1.722621
0.674836
-0.408960
-0.451706
0.508660
-0.760965
-0.237346
0.546434
0.212777
-0.876564
-1.792163
-0.251325
1.464358
0.400772
2.017338
1.192745
0.328504
0.612588
-1.849840
0.536253
-2.072001
0.461827
0.107261
-1.218249
0.019932
-1.195400
0.287168
-0.069541
-0.558415
-0.076466
-0.384952
0.626706
0.369032
-0.126729
-0.623612
-0.715145
-0.626793
0.729695
0.172233
-1.310628
0.117598
0.522485
-0.809413
0.922561
0.087991
0.112233
0.167163
0.001189
1.097046
0.989881
0.164156
0.887236
-0.600055
-0.284938
-0.556232
-1.403158
0.553378
0.578015
-0.303484
0.607986
0.312550
0.010522
-0.244081
1.227094
0.133426
0.356687
1.068486
0.184002
-0.090969
-0.317616
0.188372
0.549872
0.135851
-0.432684
-0.428467
0.083750
-0.298823
-0.543674
1.162105
-0.232879
-0.653609
0.388104
0.184408
0.200868
1.781264
-0.041504
0.396555
-0.005640
-1.431901
-0.476841
0.147367
-0.467940
0.166621
0.808414
0.374777
-0.224869
0.572702
-0.018194
0.410475
-1.210674
-0.143183
0.300301
-0.757852
0.013735
-1.272150
-0.467706
-0.133189
-0.360937
-0.543972
0.566476
0.544662
-0.009945
0.634798
0.687429
-0.130191
-0.377399
0.260510
-0.385492
0.045279
-0.666155
-0.698022
-0.430880
0.784588
0.109943
1.286632
0.872748
0.939621
0.327225
-0.284040
-0.635745
0.813170
2.255459
-0.052021
0.515362
-0.264156
0.592717
0.269877
1.299111
1.600011
0.691042
2.014267
0.815234
0.150418
-0.574855
-1.553173
0.247735
-0.201876
1.483338
-0.183762
-0.137869
1.306188
0.043285
0.652793
-1.852895
0.732039
-0.273110
-0.307753
-0.991846
-0.111970
-1.477032
1.133861
0.505704
-0.403184
0.682299
-1.143494
-0.017511
-0.177822
0.808289
-1.677159
-0.157630
-0.135334
-0.693421
-0.271386
0.861724
0.856505
2.386076
-0.979998
0.683450
0.178791
-0.168138
-0.540296
-0.602356
0.356708
1.364435
1.158869
-0.177076
1.574806
-0.286740
2.544751
-0.340113
-0.669294
0.269137
0.323585
1.004966
-0.284818
0.374697
0.031645
0.820190
-0.456542
-0.537094
0.804374
0.214275
-0.011574
-0.239499
0.739564
1.664357
-0.717952
-0.571860
-0.333190
-1.896467
0.054937
-0.387804
-0.022827
-0.313533
0.683700
-0.302879
0.251851
-1.098234
0.490854
0.285941
-0.173315
-0.194028
-1.051761
0.962679
-1.958109
-0.835228
0.009178
0.958668
2.522383
0.763453
-0.538200
0.616724
-0.831468
-0.119444
-0.149360
2.622765
0.033505
0.073582
-0.532625
0.348030
0.102795
0.186855
0.910842
0.524960
-0.585855
0.942671
0.573134
1.635639
-1.983733
0.044951
-0.323066
1.509575
-0.649005
-1.534673
-0.070394
0.480974
-2.838829
0.219283
-0.000435
-1.245737
-0.659275
-0.368690
0.859135
-0.309498
-0.506833
-0.493526
-0.125173
-0.187055
1.403304
0.721969
-0.188209
-0.474213
0.075225
-0.605308
