0.189265
0.383881
-0.059037
-0.069369
0.468783
0.633093
0.289084
-0.204204
0.388360
-0.112042
0.048988
-0.038213
0.496541
0.018477
-0.619235
0.446763
0.402844
0.527823
1.327736
-0.321727
-0.643898
0.593304
-0.184300
-0.047611
0.020948
-0.794011
-0.962614
-0.489789
-0.763371
0.098547
-0.089388
-0.063005
0.244802
-0.020930
-0.270796
2.335212
0.444619
-0.137605
-0.041151
0.324466
-0.832377
0.100573
0.355007
1.722144
0.500738
-0.102421
-1.181875
0.399445
0.268500
-0.432982
-0.946484
0.924305
0.115117
-0.641643
0.165181
-0.498486
-0.353181
-0.347420
-1.048786
0.205166
-0.141542
0.911490
-0.068370
-0.118496
0.051545
0.548580
-0.733431
0.181440
-0.429049
-1.233168
0.070295
1.449011
-0.032829
-0.496170
-0.160896
0.579359
1.082370
-0.559702
-0.549343
-0.227820
1.018358
0.958290
-0.393032
0.937491
-0.287867
-0.149838
-0.265538
0.251186
-0.268957
0.202086
-0.215576
-0.081617
0.423987
0.412677
-1.255796
0.003142
-0.055444
-0.221858
0.011790
-0.179467
-0.031235
0.040163
0.271934
1.233653
-0.397313
0.258434
0.064580
-0.913229
-0.324561
-0.253022
0.210945
0.428905
-0.094091
-0.396374
0.729040
-0.419988
-0.073307
0.722327
1.329793
-0.207671
-0.248750
0.155412
-0.190186
-1.010710
0.302119
-0.080760
0.155610
-0.218946
0.731043
-0.716548
1.072974
-0.237039
-0.044412
-0.561246
1.293952
0.503925
-0.225063
-0.817189
1.413198
-0.284101
-0.119857
-0.100085
0.342683
-0.704512
0.069099
0.681095
0.095625
0.986631
-0.061065
-1.052130
-0.131985
0.311196
0.473594
-0.131218
0.609444
-0.878655
-0.180333
0.903603
0.046153
0.565023
-0.650227
0.244620
0.443168
0.121657
-0.019533
-0.175306
-0.428245
0.521194
0.052470
0.427824
0.390207
0.247684
-1.219899
0.448284
0.328719
0.451095
0.039763
0.147768
0.961972
-0.482044
0.388430
0.494853
1.175327
-0.282601
0.231131
-0.421994
0.555051
-0.123487
0.309767
-0.079181
-0.471245
-0.928976
1.280212
0.239936
-0.278249
0.405819
-0.084941
-0.190932
0.654651
-0.063714
0.549798
-0.699291
-0.048352
0.001372
0.883533
-0.150351
-0.457080
-0.259873
-0.799482
1.289529
0.018413
-0.216637
-0.468029
-0.516335
0.247511
-1.094370
-0.021114
-0.376873
-0.327076
-0.883403
-0.763752
0.445158
0.207698
-0.383914
0.488302
1.303848
0.719562
0.913107
-0.347866
-0.545155
1.162262
-1.404516
0.125741
0.038572
-0.137620
-0.492058
-0.093892
0.548811
0.427723
-0.744075
-0.157643
0.604460
-1.031981
-0.347394
-2.562160
0.148320
-0.375988
0.272563
-0.057093
-0.406301
-0.513447
1.291143
-0.420177
-0.227398
0.073340
-0.588487
0.190319
-0.520588
-0.960860
-1.096460
1.552856
-0.593886
-0.354546
1.051377
0.330033
0.532517
0.345842
-0.117038
1.006380
0.507317
0.068345
-0.287410
0.154326
-0.356452
-0.197521
0.281406
-0.463441
-0.890525
-0.489118
0.005540
-0.085540
0.224973
0.267072
0.608144
-0.383923
-0.284675
-0.211090
-0.188259
1.507658
0.104225
0.212628
-0.040898
-0.237405
0.307858
0.115987
0.181755
-0.276300
-0.394614
0.024189
-0.534458
-0.371415
-0.322776
0.545788
0.106945
0.279661
-0.577620
-0.451120
-0.271995
-0.141812
0.956376
0.053574
0.632199
1.292827
0.352777
-0.524064
1.089891
0.100530
1.365448
0.862821
0.597480
0.026821
-0.091672
-0.314426
0.208705
-0.016959
-0.649275
0.000628
-0.463195
0.410208
-0.807507
-0.194152
-0.068195
0.454027
-0.058127
0.445918
-0.389163
0.049327
0.591629
-1.430210
-0.483022
-0.064443
0.002427
0.008728
-0.032231
-0.352367
-1.272393
-0.547694
0.834899
0.410501
-0.329053
1.300368
-1.051228
-0.193241
-0.030792
-0.103102
0.013359
1.392455
0.341134
-0.109926
0.257627
-0.571027
-0.833264
-0.202278
-0.670979
-0.004550
0.180911
2.175817
-0.124247
-0.132168
0.137390
-0.052889
0.310936
-0.464652
0.464194
-0.097672
0.243652
-0.334094
0.264063
-0.713893
0.364680
0.292949
0.166329
-0.069130
-1.876606
-0.314074
1.767310
-0.682353
-0.386941
-0.467811
0.159893
0.243828
-0.204153
1.251971
-0.499402
-0.262871
-0.558702
0.402611
-0.508354
-0.169355
-0.195911
-0.254983
2.095760
-0.161290
-0.940533
-0.784744
-0.504342
1.470999
0.606328
-0.022918
-0.867743
0.668667
0.630619
0.948590
-0.970603
-0.131590
-0.014465
0.192581
-0.111061
0.006179
0.577736
0.677910
0.191417
0.013594
0.304163
-0.868626
-0.888207
-0.250423
-0.388411
0.330658
-0.588071
1.147853
-0.093339
0.010323
-0.995160
0.334206
-0.853276
-0.080111
-0.914358
-0.504548
-0.347071
0.311563
0.292852
1.758143
0.697908
-0.346497
-0.399460
0.589827
-0.279057
1.408011
0.251234
3.279756
0.646614
0.800148
-0.292517
0.128357
-1.193790
-0.269069
-0.173977
0.021852
0.434578
-1.283919
0.825171
0.204327
1.001993
-1.070769
0.517668
0.567336
0.535342
0.104560
0.015787
0.201341
-0.198120
1.378550
0.614759
0.844501
-0.497073
0.429102
-0.274906
-0.578385
0.032023
0.106741
0.504837
0.049302
-0.419876
-0.910248
0.620918
-0.615920
1.078089
1.285677
-0.052531
0.092051
0.626542
-0.001476
-0.593279
0.039844
0.299296
-1.027844
1.003234
-0.564304
-0.389813
