0.014583
0.560052
-0.257952
0.455094
-0.059059
0.519682
-0.521938
1.064383
0.205963
-0.369141
-0.361633
1.204192
0.591867
-0.040848
-0.134002
0.120441
-0.815211
0.661919
1.388903
0.326878
-1.009131
0.692108
0.041044
-0.493779
-0.040149
-0.302565
-1.410381
-0.297819
-1.521886
1.234385
0.244379
-0.747870
-0.313057
-0.028033
-0.787102
2.858071
0.336737
0.167862
-1.586643
0.640236
-0.457912
-0.268240
-0.174758
1.260368
1.245903
-0.064424
-1.307598
-0.424903
0.587025
-0.430862
-1.174038
1.232039
-1.348080
-0.085900
0.216954
0.104619
-0.478955
0.301585
0.309506
-0.201072
-0.531905
0.722230
-0.398461
0.076117
-0.145764
0.196069
-0.323631
0.339831
0.028766
-0.632154
-0.015222
0.818261
-0.115589
-0.323736
0.292078
0.224842
1.416094
-2.998438
-0.310952
0.044847
0.663106
1.601603
-0.472051
1.774381
-0.209261
-0.087374
-0.373126
0.686066
0.081100
0.903585
0.053862
0.392946
0.218659
-0.444239
-1.709613
-0.810629
-0.235899
-0.202619
0.114391
-0.380931
0.122873
0.289900
-1.406818
0.471780
-0.304522
-0.147492
0.283775
-1.223038
-0.100353
0.115666
0.356861
-0.039643
-0.271672
-0.255228
0.161053
-1.244665
1.001244
0.579699
1.486757
0.047029
0.129990
-0.669385
0.059448
-1.117273
-0.108056
-0.307386
0.265017
0.078108
0.262512
-0.364875
0.177295
-0.289985
-0.263041
0.106204
1.150413
0.272773
-0.984234
-0.827760
1.655379
-0.895929
0.281176
-0.125188
0.125203
-0.415114
0.101525
0.235896
0.444172
1.217305
0.862189
-0.052602
0.193977
0.163738
-0.164627
0.572975
0.646430
-0.483566
0.761412
-1.273433
0.460837
0.585889
-0.082491
0.151244
0.019917
-0.338994
-0.138833
0.207428
-0.243720
2.614092
0.507474
0.408217
0.335557
0.109051
-0.895947
0.649151
0.675870
0.420133
-0.025312
0.602238
0.523480
-0.306186
-0.115400
0.621304
1.633580
-0.085133
0.676391
-1.004290
0.642746
0.011881
0.190325
-2.067559
-0.167627
-0.181094
1.191099
-0.008301
0.001414
0.582856
-0.430451
-0.181441
0.604792
-0.181593
0.614102
-0.200420
-1.079635
0.663810
-0.532173
-0.771383
-1.280117
-0.148548
0.815213
1.658077
-0.078453
-0.176998
0.857236
-2.610532
0.739315
-1.046510
-0.110705
-0.059453
-0.459431
-0.505477
-0.331095
-0.385892
-0.017679
0.331172
0.436025
1.528215
0.667162
0.606304
-0.704093
-0.338662
1.491616
-1.666080
-0.183139
-0.708052
0.099853
-0.121557
1.612747
-0.432695
0.086362
-1.195732
-0.839781
-0.094259
-1.215741
-0.795090
-1.412875
-0.186957
0.589764
0.444699
0.047474
-0.014842
-0.467191
2.347041
-1.530097
-0.234521
0.322101
-0.837823
-0.212654
-0.887200
-1.148882
-0.706970
1.695408
-0.102146
0.121382
0.753339
-0.499408
-0.037504
0.785038
-0.966552
1.356867
0.733871
-0.707253
-0.654797
0.155014
-0.068796
-0.633754
-0.039130
-0.830312
-0.790715
-1.258850
1.083576
0.062371
0.292775
-0.314546
-0.042750
-1.614554
-0.740056
-0.801686
-0.862386
1.389188
-1.282910
-0.368996
-0.270462
-0.378539
0.705765
1.579598
-0.241125
-0.597932
-0.548347
0.487934
-0.440930
-0.086595
-0.500954
0.397076
0.313117
-0.167111
-0.391424
-0.346117
-0.253076
-0.404833
1.418899
-0.672291
0.729663
0.892884
0.919319
-1.729167
0.157325
0.308794
2.033739
0.350601
0.266411
-0.176199
-0.145319
0.433601
0.818378
-0.498815
0.084642
0.156278
0.834395
0.264416
-0.366824
-0.107471
-0.261760
0.657714
-0.043819
0.854159
0.175428
-0.212712
2.138732
-2.083791
-0.633094
0.147811
0.222384
-0.067981
0.040051
-0.250832
-0.650790
-0.497899
1.167452
1.421868
0.909888
1.190579
-1.385686
-0.539527
0.236544
-0.094418
0.162105
0.766145
-0.741001
-0.064681
-0.466757
-0.760303
-0.511853
0.194677
-0.075557
0.481483
0.657998
0.132609
0.453218
-0.365862
-0.082015
0.163471
-0.400923
-0.301871
-0.030835
-0.100371
0.624961
-0.843619
0.193403
-0.150390
-0.021950
0.544674
0.133265
0.035647
-1.731941
-0.002348
2.530408
-0.319820
-0.578810
-0.938707
0.767634
0.521553
-0.198424
1.474423
1.218074
0.062215
0.162308
0.554957
-1.311300
-0.032085
0.514977
0.294776
1.398748
0.373098
-0.624580
-0.020072
-0.248319
0.020318
0.500511
0.516599
-1.787641
0.096905
0.288910
0.619558
-0.477859
-0.047367
0.268370
0.186799
-1.258295
0.161481
0.277550
0.589260
0.059245
0.125434
-0.864419
-0.757195
-0.565140
-0.595359
-0.964303
-0.084385
-1.054868
1.075403
0.138712
1.149225
-0.573699
1.000657
-0.073478
-0.059941
-0.148896
-0.341514
-0.882708
0.049410
-0.239617
2.465854
0.503918
-1.832031
-0.422560
0.898894
-0.439589
0.796238
-0.129932
2.652600
0.945894
0.898518
-0.232896
0.034359
-0.965342
-0.255990
0.049400
0.820301
0.463707
-1.614986
-0.610551
-0.277981
1.727006
-0.620743
0.507619
0.826595
0.869400
-0.055292
0.220418
0.857504
0.021263
1.099799
0.613833
0.072131
-0.110803
0.516356
0.434964
-0.570932
0.082489
0.745379
0.118109
0.206779
-0.855744
-0.233941
1.013341
-1.015038
1.281804
1.375116
-0.956992
0.358568
-0.022037
-0.192496
-0.147462
-0.282990
0.095307
-1.922319
-0.340715
-0.892052
0.163746
