0.107366
1.049369
-0.516764
0.843146
0.243567
-0.033345
-0.840925
0.054633
-1.554263
-0.454168
-0.822381
3.571280
-0.468953
0.133676
0.847477
-0.169741
0.785481
0.027396
0.042063
-0.371455
0.144194
0.275918
1.422664
0.098500
0.046220
1.827364
0.189983
0.085138
-1.385847
-0.656753
0.554467
0.444017
0.272122
-0.653552
-0.659140
-0.187270
0.020389
-0.000580
-1.945380
-0.219497
-0.053893
1.804908
-2.430719
-2.099385
0.482378
-0.103399
2.492318
0.197389
-0.015573
-1.887144
-0.517044
-0.726462
-1.723094
-1.157168
-0.086828
0.481686
0.446708
-1.105598
-1.092936
0.216299
-1.117541
1.447987
0.092649
1.989757
-0.389502
-1.536198
0.889679
-0.019429
-1.363586
1.123138
-0.082623
0.461264
0.362927
0.021076
-0.125349
0.328250
0.086989
-1.478258
1.206952
-0.330273
0.352525
-0.289672
-0.161749
0.168874
0.125800
-0.369878
-0.215355
-0.634098
-0.027078
1.133245
0.001966
0.053785
0.947733
-2.814942
-0.248170
-0.611012
-0.315825
-0.077003
-0.195715
0.039223
-0.056432
0.464880
-0.862611
-0.333876
0.342166
-0.097071
0.271187
-0.704515
-0.199751
-1.206590
0.314665
0.010090
-0.386598
0.493750
0.036736
1.105796
0.393528
0.646549
0.914269
-0.061229
-0.167997
-0.374284
0.460427
0.180608
0.524505
-0.015926
0.671807
3.276189
0.320021
0.811432
-0.172378
-0.452119
-0.421225
0.249837
0.815036
-2.150343
0.873984
-0.776821
1.207000
-0.174528
1.055756
-0.073386
-0.380699
1.624014
0.691395
0.142195
-0.032926
-0.859830
0.438104
-0.996242
-0.165973
-0.019099
-0.625447
1.223859
-0.265412
0.275266
-0.225351
-2.048254
-0.237115
-1.023499
0.814932
-0.094504
0.430781
0.418900
0.444951
1.426649
-0.643734
2.720314
0.004921
-0.045475
0.044083
0.030305
-1.175543
0.289305
0.192701
-1.133788
-0.340498
1.678656
0.163317
0.968771
0.149143
0.591854
-0.418555
-0.139404
0.014291
-0.585952
0.364600
-0.309604
0.739245
0.188326
-0.074580
-0.094020
0.481710
0.221615
-0.016982
-0.018144
-0.917627
0.109676
-0.524901
-0.388989
-0.041529
-0.133636
-0.077872
-0.002833
-2.458053
0.974172
1.096258
-0.787779
2.166392
-0.058946
-0.169206
-0.317752
0.074151
-2.738945
-0.158610
-0.501161
0.300476
0.236198
0.088249
0.080560
0.396397
-0.320136
-1.127869
0.834745
2.010572
0.490573
0.206293
-1.134542
-0.086741
0.627626
0.408562
-0.213209
0.013022
0.675122
-0.194239
1.323816
0.272402
-0.926753
0.038303
0.013613
0.543980
-0.110120
1.158860
-0.145471
-1.682700
-0.210804
1.200635
1.156159
0.000890
-1.467763
-1.185394
1.396834
-0.533056
-0.100222
-0.017494
-0.902591
-0.163127
-0.645576
-0.157170
1.044806
-1.350242
0.360581
0.408147
-0.067006
-1.039522
0.105012
-0.208039
0.664953
0.063482
1.412070
0.259112
-0.281523
-0.017484
0.729548
0.311927
-0.457278
-0.115688
-0.038356
-0.589985
2.265243
-0.376206
0.352593
-1.003218
-0.820585
-1.050417
-0.099662
-1.119827
-1.154377
-0.196022
-1.452151
-0.562657
0.601547
-0.686913
0.458835
1.330065
0.225720
-0.319749
-0.027433
0.456744
-0.008841
-0.182273
-0.501116
-0.123479
0.123184
-0.304278
-0.380619
0.714613
0.295187
-0.509460
0.208815
1.622146
0.153867
0.015196
0.556034
-2.946699
0.099018
-0.088261
0.204678
0.189564
-0.139450
0.103361
-0.366424
0.493950
1.222631
-0.265044
1.044355
-0.025458
1.506740
-0.901284
0.755604
-0.724776
-0.402909
-0.117070
0.790140
0.278047
-0.419906
0.272032
2.848393
-1.094593
-0.400639
0.439315
-0.080905
-0.057604
-0.005781
0.956674
-0.283524
0.750281
-0.203675
0.704308
1.299532
0.159353
1.097699
-0.253145
0.503166
0.172340
-0.553414
0.076706
0.126310
0.083184
-0.436084
-0.174587
0.709959
0.212628
0.962257
0.630579
0.220503
-0.585934
0.608008
0.440998
-1.545554
0.004999
-0.091643
0.288765
0.832697
0.396809
0.057891
0.204605
-0.734504
0.551160
-0.894937
0.699592
0.026211
0.269660
-0.628565
0.586971
1.380935
1.254492
-0.692531
-1.235036
0.301414
0.178646
-0.351599
0.493666
-0.234917
0.871374
1.603021
0.066674
-1.115939
-0.166858
0.392873
0.694628
0.444031
0.417449
1.132191
1.588330
0.163638
-2.047535
-0.481268
0.521660
-0.554156
0.816892
0.098106
-0.255422
0.419969
-0.572014
0.386197
-0.949218
-1.838692
0.071949
-0.519780
0.652041
-0.538075
-0.359412
-0.378117
-0.900125
-1.431776
-0.927248
0.032420
-1.317663
0.156064
2.191864
1.585348
0.408919
-0.069592
-0.129735
0.548084
-0.251316
0.171171
0.510662
-0.735269
0.430634
-0.993881
1.197218
-0.956918
-0.389508
0.799387
0.609670
-0.013518
-0.469338
-0.625330
0.658274
-0.088006
-0.624528
-0.600001
1.200487
-0.531343
0.060727
0.679598
-0.136678
0.207899
0.141311
-0.328153
-0.337637
2.810956
0.779834
0.532666
0.081230
0.656481
-0.295730
0.534010
-0.018673
-0.472730
0.014023
0.737980
-0.026520
-0.022597
0.003021
2.151212
1.001807
0.986947
0.543951
-0.608881
1.329150
1.388218
1.639542
-1.132330
-0.661214
0.229274
-0.691047
-1.867513
0.429270
-0.070968
-0.189131
-0.231996
-0.271390
-0.272723
0.960344
-0.846787
0.753858
0.236186
