-0.402305
1.587454
-0.451907
0.430043
-0.183763
-1.909495
-0.528641
-0.567299
-0.987916
-0.391508
1.892635
-0.551517
-1.367893
0.519837
0.293163
0.331871
1.303421
-0.678492
-0.550634
-0.398732
-0.253460
-1.426909
0.924454
0.199053
-0.312758
0.346680
1.759342
0.726399
-0.730093
0.018393
0.679041
0.617277
0.670080
-0.625362
0.282698
-0.967728
-0.098697
-0.084193
-0.721879
-0.321949
-0.248226
2.264760
-0.869944
-2.745337
-0.063905
-0.370495
-0.153531
0.288217
-1.179212
-1.059797
-1.141066
-0.438505
-0.773738
-0.416222
-0.288739
1.879650
-0.585199
-0.932788
-1.256734
0.847592
-0.608390
2.991225
-0.813639
1.125691
-0.247791
-0.247432
-0.256257
0.101496
-0.197615
-0.406168
-0.293683
-1.966087
-0.262260
0.399413
0.650577
0.679796
-1.063553
-1.146747
-0.201483
0.416494
-0.847035
-0.501055
-0.592801
-1.637318
0.773492
-0.550039
0.141232
0.211693
2.628287
0.192306
-0.357467
-0.122582
0.796183
-0.741686
-0.833635
0.412727
-0.473921
-0.071438
-0.903261
0.184177
-0.114498
-0.745367
1.720993
-0.032486
0.119357
-0.033199
0.335185
0.219879
0.478024
0.852905
0.003511
1.370889
-1.672399
-0.477899
-1.063308
0.324629
0.088327
-0.060851
-0.432285
-0.215742
-0.027777
-0.733847
0.385099
0.172199
0.632955
0.200347
0.181365
0.274101
0.410424
0.387157
-0.096702
-0.201460
-0.232747
0.553697
-1.206173
-0.331413
0.443424
0.812415
1.249358
-0.146848
0.037126
0.015191
-0.266875
0.703741
0.062587
0.212438
-0.719090
-0.441091
0.187517
-1.352664
0.005678
0.019626
1.197508
1.963646
0.672485
0.906751
-0.917488
-0.654183
0.039278
-0.477235
0.039014
0.016484
0.712775
-0.725504
-0.802685
1.515479
-1.478290
-0.109221
0.347548
1.337711
-0.660508
0.699010
-0.363117
0.329495
0.254754
-1.146148
0.489318
1.189439
-0.437477
0.022479
0.246312
-0.335138
-2.170225
-0.413338
0.024845
0.482791
-0.174838
1.000307
1.014391
0.233883
0.363080
-0.258828
-1.451102
0.530731
-0.019524
-0.469003
-0.223433
0.351666
-0.035900
-0.338833
0.554061
0.468320
0.729900
0.497836
-0.641567
2.004608
1.104296
0.121229
1.423381
-0.469581
-0.161557
-0.130794
-1.017083
2.373651
-1.058500
0.053596
0.369741
-0.235744
-0.041994
-0.073047
-1.150658
-0.693466
-0.749993
0.418767
-0.318321
-0.075175
2.399338
0.673211
-0.519638
-0.628294
1.042084
-0.605247
-0.359706
0.519492
0.001140
-0.292286
-1.831991
-0.064183
1.274955
0.510889
1.570438
2.145916
0.837152
0.897273
-0.335218
0.821467
-2.148084
0.169206
0.237089
-0.732356
1.233266
-0.754572
0.042101
-0.161807
-0.056761
0.133430
-0.221845
0.719061
0.470759
-0.066188
-1.145265
0.160060
0.037278
0.385010
-0.138787
-1.225933
-0.480849
0.378622
-0.266384
1.185649
0.179857
0.080228
0.143370
-0.255336
0.792738
0.852510
0.087228
1.327861
-0.288446
-0.221268
-0.989489
-1.461263
0.928109
-0.187061
-0.196958
0.741576
0.233343
0.185103
-0.085511
1.815833
-0.312475
0.635030
1.081341
0.613807
0.562352
-0.516512
-0.809699
0.617861
0.476224
-0.532537
-0.764752
0.083034
-0.336432
-0.473331
0.923627
0.016698
-0.839292
0.387130
0.936590
0.495544
1.460315
0.145723
0.518692
0.083744
-1.393049
-0.812492
0.027578
-0.316672
0.406953
0.383844
0.314237
-0.214805
0.724149
-0.669413
-0.194081
-0.354615
-0.400570
0.182902
-0.768075
0.334511
-1.121460
-0.582355
0.130469
-0.140722
-0.676668
0.531576
0.097555
0.197036
0.911633
0.326841
0.172994
-0.385307
0.529214
-0.291769
0.032425
-1.337704
-0.270829
-0.480573
0.651916
0.244477
0.648336
0.846465
1.260472
-0.375921
-0.067992
-0.844997
0.037256
1.947584
0.095686
0.680006
-0.292332
0.478707
0.249855
1.545272
1.553160
0.728361
0.773196
0.819097
0.218034
-0.824598
-1.210825
0.322038
0.124519
1.335024
-0.089594
-0.237269
1.399040
-0.057808
0.925340
-1.561342
0.766597
-0.302408
-0.305021
0.200970
-0.363449
-0.812451
1.178435
0.478382
-0.312891
0.927701
-0.790793
0.034770
0.515425
0.200508
-1.022650
0.292532
0.187267
-0.257921
-0.172978
0.795778
1.024331
1.781167
-0.560729
0.993362
0.468649
-0.426449
-1.279947
-0.698646
0.317483
2.282493
1.348522
-0.923741
1.974007
0.162450
2.816646
-0.130331
-0.756885
-0.332673
0.340854
0.663956
0.049822
0.674672
0.133017
0.503343
-0.317293
-1.034614
1.099692
0.365752
-0.504084
-0.280896
-0.869590
1.222192
-0.202158
1.150402
-0.280341
-1.166405
0.053715
-0.183841
0.169119
-0.948344
0.429227
-0.610878
0.179642
-1.646045
0.639806
0.290369
-0.258516
0.018491
-1.213867
0.963799
-2.077102
-2.283953
0.493857
1.042778
2.313669
0.213033
-0.586416
0.292562
-0.764394
-0.061902
0.491398
2.085566
0.006680
0.495161
0.566218
0.636809
0.405598
0.538823
1.226220
0.599795
-0.762750
0.910301
0.741048
1.789037
-2.456630
-0.082639
-0.600000
0.559058
-0.712224
-1.120151
0.148516
-0.075500
-3.191601
-0.086027
0.472288
-1.100446
0.123959
-0.186392
0.394206
-0.482480
-0.386064
-0.134906
-0.198839
0.474005
1.126798
1.024593
-0.873130
-1.059474
-0.124573
-0.015214
