-0.198309
-0.131934
1.114154
0.141239
0.431141
0.056808
-0.563691
0.310724
0.597535
-0.761959
0.579646
-0.067439
-1.227353
0.070150
-0.094989
-0.420154
-0.376033
1.380768
0.003760
-0.722553
-0.744130
-0.028655
-0.365321
-0.549173
-0.026954
0.004038
-0.647982
-0.534993
-2.666526
0.005257
0.024617
-0.111173
0.072543
-0.491911
-0.535511
2.736578
-0.111396
-1.136612
0.090798
-0.156545
-0.931839
-0.084030
0.606167
-0.515723
-0.091279
-0.155110
-2.894665
-1.472959
0.756895
0.161323
-1.801749
0.083805
-0.020930
0.129607
-0.271727
-0.583739
-0.652462
-1.308599
-1.779612
-0.285237
-1.227267
0.084663
0.777469
-0.258409
-0.232281
-0.168768
-0.856974
-0.026847
-0.016307
-0.482838
-0.116703
-0.082556
-0.348698
-0.596729
0.004846
0.610035
1.519414
-1.437130
-0.810329
0.161828
1.656118
0.806854
-0.210863
-1.181087
-0.237235
-0.283828
-0.391360
0.821718
-0.260249
0.820624
-0.174680
-1.054183
-0.186136
-0.265024
-1.965408
-0.258805
-0.137941
0.380567
0.245595
0.261105
0.277557
0.368766
-0.120628
0.938927
0.660768
0.058651
0.359713
-0.020482
0.623895
0.106420
0.369691
-0.031249
0.012865
-0.621969
-0.427553
-0.660433
0.046732
2.059412
-0.302095
0.203455
-0.531235
0.088432
-1.065406
-1.753852
-0.824009
-0.329915
0.891139
0.799014
0.017611
-0.409057
0.854572
-0.183081
-0.309987
0.068783
1.534363
-0.313908
0.337463
-0.074979
2.105759
-0.458749
0.578589
-0.358229
0.410987
-0.847219
0.334448
-1.820008
0.845452
0.618705
-0.103852
-2.004368
0.322147
1.188558
1.772668
0.026465
0.136560
-0.601200
0.577778
2.257239
0.664123
-0.708646
-0.841565
0.176516
1.182168
1.344775
-0.156949
-0.161092
0.344104
0.238368
-0.077827
0.652936
0.831497
-0.713810
0.157619
0.586959
0.836372
1.178775
-0.221994
0.171809
0.317723
-0.735465
0.540796
-0.575870
0.627208
-0.216501
0.671913
-0.385250
0.453702
-0.377470
1.080292
-0.933712
0.023183
-1.121892
0.687923
-0.037863
-0.034674
-0.511953
0.559869
-0.086878
0.731752
-0.446966
0.207505
-1.008582
-0.698406
-0.708444
1.221414
-1.231378
-0.240168
0.269392
2.317825
-0.230364
-0.041583
-0.213193
0.408354
0.329268
0.762957
-0.243659
-0.429459
0.074751
-0.217970
-0.052336
-2.687279
2.448388
0.593647
-0.031610
-2.285937
1.095791
0.030954
1.406753
-0.727687
-1.427692
1.379348
-0.445293
0.044525
-0.134676
0.425200
-0.258904
0.770512
0.591771
-0.387249
-1.647504
-0.155033
2.914148
-0.512751
0.294869
-2.319627
-0.261344
-0.924169
-0.219187
0.309978
-1.019393
1.310185
1.892865
-0.878253
0.021190
1.113900
0.423959
0.023395
-0.463219
-0.990415
0.357857
2.632532
-0.481334
0.258144
0.033371
-0.011085
0.805211
0.405569
-0.421914
0.952737
0.552073
-0.933512
-0.006235
0.244224
-0.357754
0.162440
0.245132
-0.359476
-0.281262
0.614242
1.097300
-0.146162
0.382873
0.585766
0.516631
1.543293
0.109805
0.594579
0.047955
1.399299
1.084203
-0.471671
-0.070851
-0.262429
1.391183
0.801101
-0.154950
0.089223
-0.228606
0.339702
-0.287056
0.485968
-0.149931
0.585389
-0.274057
-0.143378
-0.237541
-0.664761
0.095786
-0.015712
0.998318
-0.068784
0.367316
0.097918
0.427673
0.580264
0.523516
0.345849
0.411648
0.577917
1.015000
-0.156974
-0.463535
-0.019972
0.093957
-1.061571
-0.429854
-0.553791
-0.182127
0.109386
-0.515634
0.189794
-0.373538
0.595994
0.114879
0.697753
-0.790075
0.574714
1.598083
-0.650186
0.110189
0.125718
-0.336793
-0.074027
-0.064448
-0.437385
-0.115381
-0.464187
0.494591
1.454333
-0.059377
0.758401
-0.886714
-1.564984
0.205688
0.329055
-0.955693
1.288267
0.394560
-0.022817
1.419260
-0.871434
-1.426753
1.295644
0.189462
1.516208
0.368993
1.981702
0.187278
-0.207736
0.155508
0.268274
-0.136217
-0.072174
-0.321981
-0.303085
-0.236288
-0.658129
-0.305016
-1.038096
1.987776
0.216429
-0.111002
-0.027920
0.877598
-0.323534
1.897200
0.575235
-0.307074
-0.268945
0.293949
1.565975
-0.233233
1.307829
1.476655
-0.439665
-0.293250
0.258445
0.414468
-0.372542
0.148174
0.527370
1.684300
-0.324338
-1.025347
-0.753522
0.552029
1.730281
1.484703
-0.156025
-0.085866
-0.005061
0.407441
0.751231
-0.944143
0.338673
0.271610
0.795585
-0.628634
0.809946
0.000859
0.906284
-0.055560
0.282424
-0.076692
-0.375134
-1.165036
0.013618
-0.651165
-0.376262
0.210749
-0.787102
-0.980991
0.161425
0.141762
-0.136365
0.835825
0.035153
-0.711373
-0.393893
0.104812
-0.236005
-1.039450
1.922214
1.214496
-0.871922
-1.133521
2.024921
0.299869
-1.046242
0.420641
0.822402
-1.857065
1.580999
-0.408110
0.414987
-1.126393
0.759256
0.140591
0.717240
0.399395
-1.213722
0.240019
1.222778
2.131095
0.281866
1.050976
0.000913
-0.167536
-0.188850
-0.741571
0.474954
0.115138
0.612114
0.558396
0.790893
0.759716
0.324815
-0.825274
-0.219058
-0.115923
-0.387962
0.119709
-1.342064
-0.437391
-1.344501
0.778234
0.984636
0.529369
1.636970
-0.696756
0.289765
1.520765
0.104537
-0.169385
-0.221867
0.435994
-1.850622
1.771858
-0.747996
-0.117169
