-0.727094
1.826914
-0.966249
0.333887
1.510400
-0.220334
-0.448590
0.521506
-0.297912
-0.830598
0.465013
0.012921
-0.416615
0.271745
-0.321733
-0.932124
-0.682323
0.559206
-0.372788
-0.144392
0.574373
-0.222128
0.190337
-0.078856
-0.168601
0.096383
-1.581618
0.714181
-0.936485
-0.743421
0.357702
-0.708130
1.591072
-1.145461
-0.474663
-1.208339
0.022443
-1.261162
-0.731504
0.232802
-0.229612
1.333910
-1.092341
-0.887182
-0.392948
-0.234601
2.127884
0.071747
-0.932871
-0.847735
-0.431523
-1.749086
0.141105
-0.042826
-0.349905
0.341602
1.218078
-1.191402
-2.080473
-0.414991
-2.022753
2.252508
1.010408
1.307591
0.035384
-1.729700
-0.771966
0.706844
-1.498577
-1.031691
0.690725
0.120274
-0.384334
-0.043424
0.817893
0.216218
0.406031
-2.304622
0.084297
-0.381033
-0.407506
-0.011695
0.775289
0.141004
-0.715087
-0.031628
-0.098593
0.575235
-0.073978
0.318570
-0.155058
0.793678
0.973022
-1.231420
-2.103799
-0.165357
-0.274967
-0.000025
-0.319232
0.060204
0.670756
-0.001232
0.016965
-0.721336
0.800222
-0.164480
-0.066865
0.338102
-1.396492
-1.194473
-0.266599
0.694719
-1.346977
0.742268
0.562025
0.841404
1.482213
0.779522
-1.627667
0.396150
0.563974
0.204720
0.931482
1.489658
2.223722
0.027300
0.651071
-0.114790
0.013795
0.317385
-0.246480
0.058965
-1.608778
-0.408968
0.383078
-1.166973
1.268226
1.348056
2.161962
-0.708413
0.231400
-0.317571
-0.387261
0.972312
1.035824
2.627784
0.105805
-0.010225
0.208404
0.820083
0.122123
0.233597
-1.403492
-1.009747
-0.540616
-0.460169
0.396804
-1.062965
0.373219
-0.686655
0.514548
-0.486882
1.316481
1.419283
0.536802
2.372501
-1.178140
-0.469930
0.982309
0.798000
0.001511
1.665549
-0.788387
0.810363
1.551163
0.189373
-0.334804
1.550805
-0.462469
-0.717173
0.582556
-0.248373
-0.604360
-0.334655
-0.998147
0.574202
-0.204257
-0.000838
-0.829842
-1.715143
-0.435526
-0.129456
-0.617340
0.229072
-0.515309
-0.416641
-0.399857
0.661205
-0.752698
-0.342878
0.227452
0.440095
-0.112031
2.687873
-0.223803
2.229775
1.403422
-0.465562
-0.045481
0.790831
-0.510999
-0.434647
0.151652
1.775466
-0.897742
0.006357
-0.592250
-0.307120
-0.470825
0.065910
1.366551
0.111877
-0.164543
-0.193427
2.093948
1.611915
1.223556
0.585614
-0.970107
-0.031823
0.369534
-0.287159
-0.343851
1.496535
0.258148
0.988575
-0.693045
-0.084073
-0.282754
-0.348748
0.660939
-0.457042
0.851197
0.375285
0.983163
1.088243
0.108091
0.362520
-0.061501
0.437153
-0.085401
0.607144
-1.057640
-0.399343
0.436846
-0.211489
0.289579
-1.186214
0.367689
0.081107
-1.591093
0.018834
0.925535
-0.341782
-0.492735
-0.118120
-1.495255
0.486350
0.278705
-0.316853
1.601454
-0.867327
-0.144492
-0.033970
0.301958
-0.492439
-0.478864
0.371960
0.843589
0.747525
0.176656
0.447558
1.650248
0.024118
-0.371045
-0.777244
0.556704
-0.297087
1.333767
-0.080590
-0.582600
-0.179806
-0.072387
-0.230252
1.525005
-0.407219
0.292129
-0.573215
0.780528
-0.847471
-0.328590
-0.014144
0.764930
0.552341
0.083368
0.263384
-0.278496
-0.462526
0.578824
0.880132
-0.669301
0.306930
0.903837
1.042300
-1.272480
-0.702917
0.066203
1.120255
1.637251
0.380904
-0.143797
-0.293062
0.187451
-0.543966
0.118595
0.284252
-0.236583
0.630072
-0.842287
0.228840
-0.097678
-0.637403
0.422787
0.968617
0.046802
0.050916
0.282414
0.879116
0.224292
-0.522291
0.282410
-0.255786
0.432354
0.046782
-0.279892
-0.091430
0.223460
0.025262
-0.962514
1.629292
-0.663718
1.160637
0.470105
-1.339586
-0.080765
-0.411370
-1.983141
-0.197541
-0.125376
-0.704971
-0.032745
-0.036895
-0.688661
0.633847
-0.644927
0.704616
-0.985210
0.410516
-0.376181
-1.433254
0.172310
-0.560786
-0.022652
-0.559573
0.446166
0.372140
1.277540
-0.452638
-0.154711
-0.659492
1.105906
-0.128035
0.150475
0.321128
0.029372
0.537338
0.784735
0.100153
-0.359863
0.891823
-0.175700
-0.315810
2.358550
-2.042881
0.700228
2.030994
0.788917
0.307924
-0.383312
-0.203678
0.059701
-0.782383
0.137250
0.627222
0.113573
0.926724
-0.850591
0.127999
-0.574963
-0.621163
1.338952
0.389634
-2.008168
-0.062766
-0.429891
-0.518206
-1.703769
-2.725156
-0.795196
-0.294318
0.294666
0.102289
0.352417
0.159147
-0.159137
-1.589577
-0.671749
-0.641916
-1.426600
-0.539161
-0.247775
-0.391647
-0.127209
-0.046884
0.020051
-0.296380
-0.331695
0.268839
0.153340
-0.260776
0.214766
-1.010042
-0.367667
-0.257384
-0.128194
1.025381
0.482939
-0.528545
-0.170556
-1.570187
-0.398771
-0.066374
0.460863
-0.557300
0.997451
0.032701
-0.265959
0.188290
-0.630010
0.178339
1.614489
-0.235242
0.090181
0.872688
0.919378
1.470344
0.717475
1.652466
0.256613
0.338747
-0.653669
-0.083155
0.747367
1.140073
-0.340582
0.158524
-0.152341
-1.568568
-1.335590
1.163766
-0.003865
-1.351444
-0.727918
-0.072597
2.209822
-0.858444
-0.374707
0.927110
-1.029368
-0.611448
0.714729
0.688751
-0.138036
0.068742
-1.078135
-0.373145
-2.476912
-0.711135
-0.166869
1.171440
