0.420918
-0.232815
0.803494
-0.202626
-0.207804
-0.478663
0.457089
-0.072678
-0.136400
0.024203
0.048758
-0.615748
0.198064
-0.065309
0.733477
-0.273504
-0.332166
0.054013
-0.252293
0.336069
-0.642840
0.003643
-0.132313
-0.695895
0.185992
-0.320615
-1.164472
-0.017704
0.813115
1.215977
0.179629
-0.367058
-0.531291
-0.229024
0.101711
0.201240
0.020796
-1.213395
1.240218
0.030549
-1.228117
-0.151578
0.560815
-0.410355
-0.122517
0.213050
-1.918572
-0.593976
0.633400
0.006375
0.372729
0.361284
1.096403
-0.510873
-0.261297
-0.104403
-0.263203
-0.217594
-1.311390
0.278120
-1.020755
-0.470845
-0.855886
-0.044628
0.227548
0.131689
-0.063488
-0.083447
0.035056
0.641945
-0.247321
-0.224795
0.056650
-0.420592
0.193487
0.339131
0.289290
-0.567260
-0.512654
-0.984332
-1.288288
0.384296
-0.092354
-1.477923
0.626023
-0.359938
-0.445131
-0.363877
0.279814
-0.022243
0.064621
0.941737
0.171824
-0.304162
-1.762894
0.000358
-0.052731
0.367850
0.023871
-0.035677
0.110900
-0.104329
-0.181993
-0.566756
0.418797
0.021943
-0.234802
-0.337964
1.133490
-0.589949
0.380334
0.072534
-0.220465
0.177400
-1.055486
-1.088953
-0.327442
1.059909
0.918123
-0.124525
-0.018296
-0.029351
-0.132954
-0.626834
-0.683627
-0.106495
0.239469
-1.176856
0.572304
0.308935
0.929562
0.932632
-0.520291
1.442252
0.839950
-0.088161
-1.082957
-0.758864
1.612715
-0.151989
-0.623225
-0.316352
0.992961
-0.450874
-0.157922
-1.852535
0.189810
-0.306172
0.735059
-0.336162
0.210900
0.215586
0.134470
0.373981
0.395285
0.239040
-0.108903
1.300817
0.795462
0.801906
-0.441085
0.361124
0.236737
0.250778
0.118525
0.397708
-0.184184
0.517017
-0.231070
-0.144264
0.044470
-0.743670
-0.695977
0.213730
0.061180
0.289768
-0.173693
0.223077
-0.024776
-0.347487
0.455317
-0.241335
-0.148132
-0.189123
0.423193
-0.381560
0.644521
0.010717
0.832457
0.424827
0.128222
-0.337218
0.713735
-0.294227
0.033100
-0.180426
0.572756
0.018452
0.417563
-0.257738
-0.128422
-1.383676
-0.704515
-0.519967
1.527976
-1.031705
-0.028193
-0.423958
1.812020
-0.627729
0.017381
-0.299584
-0.089407
-0.568823
0.549631
1.015024
-0.133557
-0.098750
-0.133234
0.393036
0.510510
1.063052
0.181491
-0.005639
-2.077168
0.942054
-0.354804
1.242250
-0.096660
-0.607678
1.303179
0.126069
-0.126667
-0.297527
-0.584605
-0.758200
0.659995
0.333662
0.802885
-0.235286
-0.381868
-0.089379
-0.611681
0.681480
-2.298278
-0.169226
0.032219
-0.131199
0.971817
-0.698879
-0.719812
1.469216
0.418285
-0.152331
0.850311
-0.496255
0.113770
-0.740901
-0.199942
-0.142150
0.484472
0.653454
0.146440
-0.522934
-0.175754
0.157048
-0.047802
0.154374
0.451590
1.175312
-0.785492
0.164966
-0.058181
-0.271750
0.482115
-0.034531
-0.171823
0.340602
0.803699
-0.259279
-1.132169
-0.419181
0.917322
-0.123678
1.187881
-0.107507
0.605365
-0.755741
1.506892
0.346712
0.202852
-0.080409
0.292962
-0.460300
0.027315
-0.075900
-0.562769
-0.269643
0.145828
-0.304761
0.297080
-0.122575
0.162865
-0.637241
-0.217131
0.147687
0.390578
0.224957
-0.034524
0.329253
-0.121633
0.130309
-0.275602
-0.202227
-0.226239
1.140767
0.413342
-0.455616
0.350116
0.656490
-0.017879
-0.169087
0.510930
0.720100
-0.242578
-0.055965
0.248267
-0.111761
0.133072
0.284724
-0.448414
-0.175029
0.792250
-0.159926
0.277228
-0.179265
0.092974
0.138394
-0.527297
0.480371
-0.101249
0.001191
-0.210450
-0.087358
-0.369861
0.558680
-0.475222
-0.503989
0.764462
-0.030225
0.455119
-0.949392
-0.257543
0.508314
-0.189463
0.474687
0.012109
0.252380
-0.102062
0.546955
0.418963
-0.174331
0.410925
0.205436
0.682062
-0.020740
2.632776
-0.070723
-0.393688
0.345798
0.103308
0.403029
-0.601633
0.446963
-0.261070
-0.215406
-0.561790
0.384921
0.192099
1.033516
0.287732
-0.253587
0.095516
-1.053245
0.127731
2.005409
-0.077011
-0.535779
0.405713
-0.341908
0.714905
-0.304963
0.803692
1.476446
-0.210727
-0.499299
-0.224291
-0.082030
-0.292701
-0.087361
0.244154
0.448625
-0.498151
-0.421732
-0.788579
-0.064352
1.583449
0.429757
0.426292
0.030289
-0.153190
-0.905147
0.407534
0.108874
0.566693
0.443334
0.233188
-0.902351
0.554272
1.175532
0.965019
-0.161178
-0.349667
-0.267295
0.271855
-0.568563
0.613382
0.533715
1.001558
-0.487863
0.460016
-0.200317
0.304195
0.977538
-0.062140
-0.078453
-0.054112
-0.122788
-0.433224
-0.089869
-0.249786
-0.903194
-0.161056
0.653131
0.113174
-0.412121
-0.691081
-0.496601
-0.869263
0.034081
1.430280
0.747637
0.884286
-0.277163
0.250559
-0.733705
0.446468
-0.469025
-0.251826
-0.027345
-1.461022
-0.179373
1.325890
-0.010735
0.749585
0.976417
0.447151
-0.246441
-0.555610
0.047088
0.106330
-0.327724
-0.415510
0.363847
-0.041404
0.231030
0.074395
0.378882
-0.251007
-0.472219
0.339722
0.346489
-0.299686
0.088760
-0.403675
0.113275
-0.818408
-0.136248
1.271745
0.340533
-0.182074
-1.190208
-0.032264
0.143248
-0.155764
0.380610
-0.019474
1.694487
-0.065215
-0.427665
