0.132382
-0.586039
0.904236
-0.301705
-0.119950
0.176032
0.446858
-0.285376
-0.158075
1.463910
-0.092508
0.098202
-0.000960
-0.021977
0.040665
0.412242
0.578531
0.643597
0.302638
0.387890
0.405382
-0.336915
0.192121
0.041778
-0.065401
0.530005
-0.290161
0.264150
0.041892
0.033076
0.482619
-0.036055
0.540861
0.594862
0.242682
1.538859
0.245869
0.548593
1.070262
-0.035958
-0.135795
0.171540
0.535177
-0.194335
-0.056910
0.077493
0.011918
-0.275334
0.115049
0.230551
-0.111344
-0.406574
1.154920
-0.666625
-0.117537
-0.324192
-0.883515
0.010679
1.272807
0.022335
-0.502497
0.168830
0.551149
0.940221
-0.131900
-0.226717
0.113673
-0.038776
0.078523
0.071209
0.010388
-0.165368
0.168902
0.305439
-0.451496
0.515710
0.412752
1.071923
-0.017428
-0.227774
-0.250080
-0.374061
-0.066782
0.703070
0.423955
-0.140370
-0.079315
-0.777753
0.180555
-0.383247
-0.016925
0.409065
-0.039013
-0.601579
0.586751
0.264798
0.154181
0.321771
0.189102
0.012019
0.050778
0.004549
0.294581
-0.411432
-0.121723
-0.076474
-0.443839
0.134260
0.448030
-1.090579
-0.048645
0.214952
0.229879
0.641112
-0.307026
-0.285153
-0.486913
-0.091952
0.397994
-0.220112
-0.537526
-0.388394
-0.074331
-0.778098
-0.716729
0.283946
-0.497932
-0.461883
0.193476
0.188714
0.609130
0.291039
-0.293399
0.202392
0.314696
-0.839757
-0.042534
-0.477165
1.050260
0.076442
-0.152541
-0.018652
-0.220389
0.760684
0.229529
-1.102077
0.034207
0.400525
0.158268
-0.601787
0.867462
-0.370582
-0.020119
0.037626
-0.533898
0.032237
-1.184351
0.152959
-0.186207
-0.263804
0.202771
0.310980
-0.737808
0.623545
0.194667
-0.431472
1.009954
0.351491
-1.958008
-0.764242
0.103025
-0.650735
-0.271782
0.101061
-0.346427
-0.059367
-0.080881
0.605666
0.104318
0.427020
0.534772
-0.160745
0.619115
0.036091
0.278278
0.411889
0.006603
-0.464011
0.878089
1.082039
0.308198
0.335132
-0.491434
-0.550957
0.083159
-0.152437
0.109621
0.084007
0.172911
-0.132271
0.252217
-0.363940
0.051396
-1.602637
0.316312
-1.146810
0.943328
-0.725191
0.734619
-0.431680
-0.074999
-0.329190
0.476996
-0.040597
0.304039
-0.065737
-0.451964
0.330947
0.958775
-0.149718
-0.364620
0.093692
0.375220
0.010766
-0.832776
0.394761
-0.246463
0.275991
0.258515
0.123774
0.394873
0.567011
-0.116992
-0.388556
0.187556
-0.525797
-0.400868
-0.079116
0.110171
-0.067387
-1.230335
-0.019129
0.609827
-0.023316
-0.975009
0.209682
-0.339724
-0.252676
0.234811
-0.609341
-0.744442
0.924052
0.707756
-0.195928
0.787121
0.189982
-0.279934
-0.526932
-0.515951
0.034195
-0.663860
-0.370964
-0.557549
-0.605874
0.261898
0.096139
0.443867
0.342077
0.324992
0.354030
-0.758078
0.133546
-0.136646
0.099349
0.090428
-0.187771
-0.037651
0.001279
0.490909
0.038604
0.354708
0.236807
-0.041560
-0.820447
-0.090609
-0.215281
0.290464
-0.371689
1.389313
0.202304
0.638786
0.273203
-0.241741
0.171615
-0.839912
0.208867
0.463821
0.141031
0.007130
0.230763
0.103999
-0.017906
0.164931
0.432170
0.174524
-0.151886
0.280151
0.043999
0.034221
0.120713
0.839664
-0.194426
-0.377515
-0.643393
0.321697
0.066949
-0.066478
-0.134095
-0.771775
0.198875
0.066551
-0.051579
0.287083
0.243877
-0.259745
1.023676
0.007406
0.085185
0.369952
0.008756
-0.121093
0.554336
0.548798
0.003429
0.204041
0.018603
1.208083
-0.551632
0.181704
-0.173574
-0.417650
-0.097452
0.213339
0.036485
-0.522739
1.139667
0.296535
0.663015
-0.524386
-0.327814
-0.200424
0.416621
-0.524174
-0.172245
-0.008404
-0.200175
-1.036120
0.096549
-0.218655
1.030680
-0.098772
0.552442
0.307052
-0.558790
-0.192028
0.095232
0.984769
-0.162324
-0.384108
0.707779
-0.520220
0.586469
-0.231252
0.284795
0.034197
0.108021
-2.032279
0.034169
0.094672
0.112965
0.180381
-0.124373
0.031902
-0.189056
0.219309
-0.187175
0.100901
-0.697126
0.055316
-0.731826
0.977698
-0.129007
-0.461251
-0.252537
0.232168
0.655465
-0.215919
-0.127094
-0.318827
-0.018819
-0.093150
0.485073
0.651522
0.075359
0.050445
0.281373
-0.262913
-0.017909
0.049721
-0.268454
0.326521
0.302728
-0.409832
0.389082
-0.698141
0.299707
1.029340
-0.073948
0.067588
0.140586
-0.519068
-0.932958
-0.925515
-0.300857
-0.141876
1.284913
-0.292762
-0.043852
1.077841
0.572129
0.218251
-0.374831
0.392731
-0.284499
-0.039897
0.094554
0.255832
-0.132833
-0.146609
0.821391
-0.267483
0.755713
0.916544
0.222085
-0.058621
-0.139095
0.361978
-0.100123
-0.344723
-0.172326
-0.076848
0.054900
-0.373457
-0.179414
-0.071041
0.286089
0.389009
0.063386
0.348450
-0.216328
-0.436035
0.055247
0.321308
0.173480
-0.677901
-0.416167
0.250520
0.079174
-0.678085
-0.031143
0.123764
-0.471414
-0.682616
0.572656
0.544015
0.238877
-0.511314
0.285297
0.278886
0.523636
0.016565
0.019591
0.179644
0.372401
0.371487
1.184828
0.221991
-0.499584
0.251777
0.624572
0.058620
-0.337763
-0.093733
-0.338688
0.464481
-0.612958
1.193204
0.587021
-0.095380
0.082649
