-0.218411
0.531593
-0.097380
0.355914
-0.115947
-0.222541
0.066920
-0.362907
-0.271932
0.257694
0.321151
2.806633
-0.686003
-0.005734
0.903600
-0.069499
0.111242
0.289573
0.087363
0.196276
-0.432084
0.409300
0.936538
-0.332663
-0.095228
0.942853
-1.507857
0.263635
-1.583922
0.596170
0.294649
0.532446
-0.571243
-0.243538
-0.192089
0.385832
-0.222683
-0.510408
0.023697
-0.241918
-0.856317
1.501765
-1.332282
-1.862418
1.056677
-0.246558
0.816617
-0.093493
0.007073
-1.327395
-1.493708
-0.654308
-0.460129
-0.409453
-0.245635
-0.109858
0.152144
-0.327756
-0.088234
0.283454
-1.974180
0.809687
-0.300856
1.608232
0.306201
-2.034761
0.882062
-0.084360
-0.580692
-0.162659
-0.526216
-0.048974
0.120831
-0.080283
-0.027950
-0.271261
0.196470
-2.139331
0.042406
0.034784
-0.849729
-0.082367
-0.226588
-0.298168
-0.401244
-0.201645
-0.141726
-1.101835
0.908152
1.791558
0.014465
0.842198
0.978105
-2.455803
-0.550283
-0.748876
-0.231127
0.328333
-0.382128
0.311504
-0.405193
0.233301
-1.729551
-1.468688
0.070156
-0.166940
0.249374
0.032972
-0.575066
-0.358759
0.316073
-0.014885
-1.176883
0.421373
-0.312951
0.002591
-0.157600
0.152207
0.641472
-0.152990
-0.268476
-0.695732
0.205830
-0.368678
-0.172795
0.309498
0.100968
0.691436
0.468072
1.133640
-0.272582
0.455045
-1.115158
0.259389
1.374135
-1.530707
0.670710
-0.278278
2.086609
0.111518
0.765384
-0.343371
-0.273998
0.740739
0.213636
-0.132352
0.526462
-0.785515
0.362314
-0.566869
0.173145
-0.519043
0.007658
1.382367
-0.085112
-0.930993
0.059238
-1.733966
0.495308
-0.951288
0.984209
-0.313473
0.144207
1.163204
0.292271
2.038782
-0.231887
3.883855
0.316778
0.208824
0.005466
-0.399710
-0.838721
0.419454
0.358484
0.596777
-0.624350
1.733741
0.010250
0.321427
0.584680
0.037710
-0.038038
-0.146902
-0.345126
-0.284439
0.977078
-0.039543
0.611607
-0.317298
-0.001684
-0.949938
0.270586
0.215136
-0.016790
-0.852392
-0.242442
0.335120
0.410162
-0.446871
0.327002
-0.272013
0.110069
-0.368574
-1.817677
1.015023
0.727021
-0.123882
3.402643
-0.752909
-0.366877
-0.384346
0.743128
-2.386859
0.054437
0.117433
0.116184
-0.106889
-0.264033
0.438763
-0.113647
0.381320
-0.597125
0.721074
0.940059
0.764814
0.327146
0.938928
-0.151960
0.188111
1.781943
-0.058857
-0.235913
0.777589
-0.229350
-0.509244
0.313883
-0.572729
0.481346
0.649248
0.169193
0.520751
1.164259
0.595607
-1.760447
-0.515407
0.283202
0.582407
1.270431
-1.336966
0.225685
2.269840
0.174014
-0.076253
-0.094732
-0.612640
-0.278378
-0.924878
-0.092500
-0.104206
-0.547230
0.762217
-0.145913
-0.225667
-0.714515
0.186952
-0.120908
0.826956
0.243605
1.740310
-0.230612
-0.351256
0.095657
0.146861
0.012971
0.089278
-0.508717
0.320494
0.349237
1.694548
0.077475
-0.043608
1.067258
-0.005751
-2.182501
-0.582793
-0.414582
-0.840576
0.247203
-0.602266
-0.492004
0.494546
0.841953
0.765953
0.343446
-0.272011
-0.440043
-0.136551
0.611920
-0.581295
-0.300681
-0.230911
-0.789117
-0.236920
0.131052
-0.093723
0.153223
-0.124324
0.032791
1.035653
2.134100
0.343143
-0.194755
0.091156
-2.814806
-0.152146
-0.091765
-0.436899
0.032657
-0.323110
0.541479
-0.461683
1.277573
1.365376
0.201060
0.687478
0.095059
2.745266
-0.641464
0.721319
-1.035207
-0.333475
0.701421
0.496971
0.174800
0.169880
0.216015
2.982498
-1.807582
-0.122908
-0.153149
-0.200513
0.086805
-0.194824
0.076541
-0.217655
0.360657
-0.445487
0.549412
0.583966
-0.287893
-0.180640
0.793580
-0.150454
0.265275
-0.232302
-1.792388
0.484108
-0.244174
0.232437
-0.130394
-0.051766
0.172624
0.873350
1.267819
0.627846
-0.619099
0.144512
-0.449535
-0.642062
0.026448
-0.429015
-0.245213
1.592518
-0.165804
-0.351849
-0.359177
0.750066
1.410923
0.756759
0.465283
-0.179461
0.076890
0.456067
0.682253
2.133762
1.934982
0.158273
-1.562680
0.488787
-0.009575
-0.310636
0.547152
0.495492
0.347334
1.016363
-0.518428
-0.716880
-0.304804
0.419340
0.978312
0.710354
0.354693
0.676915
0.978403
0.351260
-0.987580
1.004507
0.504662
-0.557526
0.322411
-0.598699
0.243704
0.231357
0.619976
0.512602
-0.526790
-1.685634
0.046709
0.039641
0.570221
-0.135751
0.102573
-0.054032
-0.201286
-0.789827
-0.150613
-0.312551
-0.225414
-0.226186
-0.337770
2.458884
0.767528
1.454235
0.210935
0.692079
-0.523548
0.084427
0.408042
-0.443513
-0.201076
-1.226711
1.963657
-0.364366
-0.567621
0.466564
-0.081676
-0.095594
-1.141692
-1.136130
2.642993
0.539999
0.728770
-0.062532
1.529504
-1.164177
-0.206682
0.512032
0.315413
0.648838
0.053942
-0.522893
-0.090277
2.293677
-0.488856
1.223457
-0.026511
-0.156107
0.203717
1.018367
0.767572
-0.186764
-0.058997
0.794531
-0.205963
0.536771
0.129956
1.696982
-0.175986
1.592302
0.063656
-0.819279
0.489514
0.240454
0.867440
-1.077455
-0.363159
-0.078280
-0.334868
-0.749289
0.279727
-0.570700
-0.342882
0.594990
-0.538143
0.179481
0.134667
-0.577577
0.852232
0.085796
