-0.178155
1.128177
-0.142666
0.857388
0.526720
0.056757
-0.856786
0.144808
-1.507389
0.375392
-0.386479
3.927771
-0.659377
-0.192859
0.660042
0.283553
0.390051
0.072369
-0.204333
0.304578
0.255139
0.656080
1.457017
-0.433666
-0.140601
2.260967
0.206146
0.573464
-2.116653
0.131317
0.471834
-0.078870
0.158290
-0.216215
-0.216499
0.281530
-0.111492
-0.007600
-2.123727
-0.092892
-0.296250
1.635759
-2.095298
-1.760742
0.735354
-0.082476
1.621794
-0.402414
-0.183560
-1.968248
-1.492437
-0.762761
-2.067314
-0.624738
-0.080789
0.106637
-0.155995
-0.552316
0.067572
-0.209005
-1.314534
2.369629
-0.273034
2.008400
-0.225889
-1.418561
1.099667
-0.209545
-1.050621
0.143842
-0.361816
0.661957
0.086148
-0.074991
0.164151
0.366010
0.105910
-2.181125
0.824107
-0.003401
0.187619
-0.328919
-0.347731
0.153862
-0.125771
-0.078371
-0.501323
-1.119035
0.504916
1.845689
-0.072268
0.250018
0.385859
-3.412570
-0.586816
-0.782101
-0.303995
-0.087939
-0.261454
0.231742
-0.281633
0.238737
-0.667830
-0.443854
0.545837
-0.224029
-0.188951
0.091508
0.004886
-1.453285
0.170874
-0.224310
-0.544135
-0.108312
-0.090182
0.424830
1.052767
0.322978
0.728669
0.022647
-0.174434
-1.002192
0.286716
-0.171179
0.523387
-0.088702
0.567864
3.198982
0.393971
0.902581
-0.114489
-0.503548
-0.140772
0.425048
0.619730
-2.434662
0.158326
-0.209723
1.434574
0.222472
1.617054
-0.175824
-0.400963
1.728795
0.859784
-0.063484
0.082592
-0.710707
0.359921
-1.109636
-0.095459
-0.127135
-0.328645
1.699953
-0.332097
0.188803
-0.157206
-1.542091
0.450491
-1.691822
1.370003
-0.336510
0.694010
1.121248
0.832830
2.587576
-0.430765
3.909215
0.292151
0.208146
-0.039796
0.076022
-1.078841
0.728227
1.336418
-0.651291
-0.284048
2.530753
0.184216
0.770732
-0.048162
0.597520
-0.267340
-0.088621
-0.243957
-0.339799
0.769791
-0.623873
0.465076
-0.470550
-0.279024
-1.029156
0.208365
-0.001484
-0.097388
-0.183813
-0.675497
0.251697
-0.510515
-0.468717
0.140212
0.301715
-0.521479
-0.008727
-1.935135
0.681073
1.170749
-1.134712
2.741138
-0.049446
-0.361411
-0.312397
0.489347
-1.603092
0.064933
-0.910825
-0.107412
0.399786
0.309550
-0.071689
0.328564
-0.031027
-1.017280
1.100906
1.794049
0.731554
0.372168
0.033568
-0.777396
0.319391
1.043603
-0.547710
-0.199029
0.465003
-0.133370
0.296643
0.175075
-0.876146
0.322711
0.379755
0.445272
0.744897
1.466397
0.349602
-1.955707
-0.222284
1.172047
1.211868
0.538535
-1.586171
-0.151853
2.435170
-0.991431
-0.209227
0.315523
-1.276358
-0.065276
-0.505169
-0.114271
0.544662
-1.120159
0.734977
-0.745507
0.151461
-1.088900
0.114199
0.129293
0.230916
0.506631
1.799554
0.136572
-0.193567
-0.012350
0.285111
0.191681
-0.073266
-0.478321
-0.130451
-0.497851
2.667713
-0.069006
0.517988
-0.330135
-1.071215
-1.424866
0.026287
-0.904694
-1.264454
0.198718
-0.040203
-0.887006
0.596116
-0.369071
1.161508
1.938695
-0.074595
-0.529388
-0.332280
0.528522
-0.757117
-0.224098
-0.452772
-1.229028
0.178141
0.177493
-0.194538
-0.296531
-0.048952
-0.233049
0.894486
1.652076
0.226090
-0.039812
0.981072
-3.425133
-0.076931
-0.008495
0.030317
0.334591
0.069892
0.400400
-0.274337
1.062738
0.974181
-0.840757
1.486683
-0.053647
1.808072
-0.939995
0.643605
-0.426320
-0.296133
0.328013
1.064469
-0.010081
-0.155106
0.342575
3.795116
-1.132603
-0.392374
0.230200
-0.240801
0.090732
-0.278408
0.884259
-0.281370
0.882133
0.108070
0.510894
1.300893
0.279346
0.079036
-0.369713
0.062860
0.522968
-0.358490
-1.063265
0.609171
-0.022979
0.028743
-0.447723
0.494763
0.662351
0.738118
0.560937
0.741095
-0.434935
0.525933
0.005605
-1.334446
-0.349128
0.055115
0.271950
1.373119
0.147643
-0.257435
-0.696747
-0.056163
1.240479
-0.508694
0.710220
0.110674
0.167362
0.350864
0.956556
2.290782
1.059052
-0.846386
-1.067635
0.593711
0.398061
-0.342912
0.814114
-0.142137
0.550756
1.292503
-0.153208
-1.256629
-0.071816
0.535107
1.196005
1.499254
0.003592
1.378673
1.688331
0.427628
-2.458246
-0.058350
0.033578
-0.624832
0.870993
-0.229116
0.196795
0.276995
-0.480220
0.571092
-0.444684
-1.898500
0.075166
-0.195944
0.776384
-0.751760
-0.571656
-0.263262
-1.085413
-1.697366
-1.025891
-0.222847
-0.784183
-0.113321
0.416832
2.209522
0.621071
0.899831
-0.058019
0.734014
-0.322417
0.147530
0.639953
-0.447599
0.099460
-1.616881
1.566961
-1.150174
-0.839877
0.653565
0.911837
0.189462
-1.112600
-0.632307
1.508214
0.124720
-0.022676
-0.575058
1.083002
-1.186231
-0.085521
0.841349
0.395169
0.442850
-0.032018
0.099420
-0.289986
3.518410
-1.028966
1.405209
0.277285
0.561364
-0.101379
0.642309
0.350519
-0.290155
-0.104191
0.920541
0.357757
0.047029
-0.283545
1.693259
1.005825
1.334369
0.193144
-0.574606
1.008325
0.864837
1.576483
-0.787521
-0.043781
0.151304
-0.715134
-2.269405
0.765722
0.029271
-0.367477
0.160418
-0.722135
-0.343077
-0.401541
-0.457080
0.311575
0.748567
