-0.462708
1.270781
-0.857323
0.546231
0.734772
0.124803
-1.328860
0.126293
-0.420796
-0.449517
0.487207
0.408582
-1.145787
0.227864
-0.114179
0.026915
0.177036
0.601486
0.284975
-0.114409
0.656040
-0.444779
1.019329
0.124520
-0.198136
0.695342
0.435939
0.138038
-2.451202
0.159162
0.440056
-0.139911
1.286273
-0.453904
-0.653093
1.296796
0.000931
0.224344
-2.139178
0.094855
0.322399
1.196209
0.094907
0.596671
0.104987
-0.262479
0.110762
-0.425606
-0.677048
-0.956164
-1.795850
-0.141526
-1.422583
0.135955
-0.142690
0.103820
-0.501555
-0.386289
0.118315
-0.288050
-0.325169
2.974471
-0.260974
1.406166
-0.252144
-0.157904
-0.042967
0.522467
-0.944140
-1.035876
0.094259
0.058550
-0.183546
0.085503
0.643988
0.609379
0.637810
-2.227127
-0.247548
0.259605
0.951720
0.168115
-0.061890
1.808123
-0.470001
-0.052056
-0.226099
-0.276495
0.911305
1.053713
-0.312326
-0.409810
0.525819
-1.581767
-1.162010
-0.121294
-0.428843
-0.181168
-0.316976
0.010228
-0.460570
-0.535793
0.518765
0.241054
0.706762
0.129499
-0.352865
0.354515
-0.670889
-1.164023
-0.132897
-0.262250
-0.893237
-0.689299
1.340686
-0.031596
1.507285
0.344337
-0.477020
0.407808
-0.190506
-0.419835
-0.359192
-0.223394
0.153896
0.053857
0.413915
1.134405
0.310702
0.171928
-0.053536
-1.190373
0.310053
0.276944
0.624609
-0.216148
-0.386575
0.791298
1.578836
-0.678524
0.800122
-0.100297
-0.631602
0.829333
0.755359
1.111334
0.017718
1.435738
0.081000
-1.404786
-0.154118
0.315920
0.583887
0.999099
-0.316391
0.164107
-0.910046
0.070556
0.307584
-0.949780
0.574469
-0.138056
1.322074
0.095602
-0.076241
2.376821
-0.477902
1.096845
1.270486
0.832197
-0.222542
0.301901
0.010711
1.025450
2.181421
-0.682731
0.036009
1.949013
0.397350
-0.039711
0.088379
0.156817
0.577615
-0.164455
-0.504274
-0.072064
0.009579
-0.120603
-0.155213
-1.257871
-0.146753
-1.064297
-0.555566
-0.062651
-0.078296
0.365035
-0.242285
0.192178
-0.026762
-0.402537
0.580233
0.597969
-0.544493
0.966418
-0.361966
0.902326
0.977566
-0.835833
0.405060
1.046110
-0.267261
-0.184507
0.646459
1.500378
-0.310324
-1.594761
-0.463022
0.229349
-0.094627
-0.420789
-1.013489
-0.182458
-0.340207
0.577869
1.873083
1.094787
1.690742
1.242042
-0.914386
-0.040571
1.256128
-1.688460
-0.236649
0.063183
0.287715
1.097737
-0.536352
-0.222307
0.464305
-0.359630
-0.263194
2.375687
0.409003
-0.108202
-0.743598
0.300390
-0.611089
0.222310
0.197944
-0.330542
1.115691
1.731027
-1.497498
-0.212443
0.911053
-1.165073
-0.181255
0.216487
-0.696690
-0.091606
-0.203855
-0.059348
0.029675
0.971114
-0.105122
-0.089502
0.397095
0.111723
1.078339
0.832177
0.354768
-0.518242
0.145851
-0.207962
-0.729943
0.130550
-0.859095
-0.220445
-1.044024
1.269962
0.263751
0.454070
0.088211
-1.018532
-0.774162
0.405676
-0.742707
-0.343959
1.371439
1.521546
-0.337571
0.438199
-0.388377
1.245376
2.030640
-0.139922
-0.337761
-0.258700
0.682848
-0.351383
-0.583895
-0.293603
-0.635574
1.022697
0.461951
-0.436058
-1.726236
-0.520093
0.884037
1.274975
0.473027
0.019660
0.341218
0.998612
-1.748798
-0.422238
-0.028803
1.283943
0.382414
0.175509
0.164931
-0.158448
1.096341
-1.078577
-0.743431
0.554237
-0.229918
0.441373
-0.340054
0.064763
0.307102
-0.179278
0.571164
0.527579
0.128365
-0.138864
-0.070804
1.400819
-0.138709
-0.900103
0.348606
-0.194141
0.676542
-0.284510
0.046919
-1.089589
0.085465
1.277690
-0.079567
0.851611
1.272316
-0.089706
-0.487757
-0.632216
0.125002
-0.733553
0.356864
0.747681
0.130251
0.187832
-0.760257
0.120741
0.048254
-0.188133
-0.079551
0.702905
0.181123
0.551396
-0.273420
-0.284377
-0.804851
-0.392159
0.319055
0.486728
0.140121
0.037636
0.164189
-0.540776
0.021625
-0.732865
0.636107
0.126161
-0.039971
0.142790
-0.133557
1.186052
0.385997
-0.587385
-0.477231
0.559520
0.384261
-0.058333
1.079481
-1.445742
0.318339
0.960621
0.264074
-0.602551
-0.079164
-0.098262
0.465356
2.725488
0.542272
0.488086
0.666386
-0.350134
-1.572277
-0.317285
-0.342315
0.014022
1.162162
0.072176
0.806865
-0.289823
0.034399
0.192494
0.448042
-0.820074
-0.252852
0.127921
0.026858
-0.297722
-0.207785
0.293324
-1.007385
-0.932917
-0.531763
-1.176460
-0.983960
-0.155008
-1.090824
-0.013933
-0.326905
0.105943
-0.019375
-0.531005
0.313794
-0.214853
0.029039
-0.551912
0.495201
-0.007758
1.668212
-1.016804
-1.460157
0.376799
1.159343
0.312923
-0.275540
-0.287745
0.914744
-1.777835
0.874505
-0.389339
0.373799
-0.265039
-0.067554
0.268156
0.856991
0.357630
0.499793
1.155898
-0.818030
2.108459
-1.018032
0.769548
0.424852
0.903366
0.082320
0.262238
0.062540
0.233408
0.317913
1.213863
-0.131302
0.362798
-0.469550
-0.933033
-0.013324
1.027396
0.093214
-0.292730
-1.278322
-0.188770
0.352715
0.618721
0.860679
0.477335
0.316407
-1.657880
1.008963
0.227043
-0.186090
0.035779
-0.578536
0.056896
-2.649580
-0.596912
-1.446428
1.089216
