0.521426
0.099158
0.835365
-0.250149
0.163641
0.081314
0.570574
-0.101847
0.798832
1.788115
-0.188833
-0.108842
0.215128
1.079803
-0.086615
0.638107
0.116771
0.441770
0.468708
0.484365
-0.043651
-0.099247
0.333563
-0.056793
0.201107
2.449162
-0.412899
0.149262
-0.748297
-0.293307
0.245898
0.228550
0.269393
0.090751
0.991635
0.544804
0.043072
1.296808
0.941328
0.003924
-0.492122
0.244244
0.480110
0.899404
-0.484575
-0.164034
0.274591
0.335768
0.767944
1.715703
-0.690496
-0.890358
0.697899
-0.313931
-0.134351
-0.537040
0.486539
-0.415390
1.539178
-0.076214
-1.110246
0.836472
1.671264
0.241846
-0.778862
-0.999084
-0.428979
-0.794641
0.015922
-0.033290
0.510725
0.304154
0.189379
-0.155004
-0.472145
0.383729
0.646570
0.509946
-0.356254
-0.514171
0.116137
0.025094
0.156564
0.156829
0.077357
-0.219889
0.069592
0.333108
-0.758347
0.086793
-0.179963
0.038022
-0.930249
0.385542
1.196956
-0.495689
0.190223
0.564205
0.636856
0.116492
-0.098779
0.105671
-0.160209
0.088352
1.053327
-0.616962
-0.434573
-0.318941
0.328886
-0.723829
-0.141407
0.633146
0.680764
0.408716
-0.834705
0.044023
-0.148236
0.189228
1.526325
-0.297156
-0.557564
0.080450
0.006500
-0.312058
0.227189
-0.136780
-0.354343
0.838284
0.124149
-0.085552
0.571396
0.227522
-0.758789
0.495111
0.112143
-0.363389
-0.219048
-0.563352
1.141040
0.011210
-0.155337
-0.194304
-0.386421
0.542252
0.625171
-0.373703
0.165613
0.725350
0.029592
-0.628064
0.775633
-0.186309
-0.230975
-0.818707
-0.150013
0.264989
0.573831
1.304395
-0.017425
-0.073106
-0.260303
0.105014
-0.625684
0.434383
0.077661
-0.662141
0.934957
0.827780
-2.468673
-0.562521
0.196877
0.024983
-0.533630
0.067979
-0.469512
-0.856204
-0.282311
-0.096436
0.679113
0.286012
0.180207
-0.782907
0.893818
-0.124807
0.069595
-0.258829
0.026574
-1.288837
0.324088
0.531606
0.226523
-0.441462
1.112823
-0.044725
-0.046230
-0.267768
-0.222003
-0.313606
0.251025
-0.204354
0.382255
-0.585491
0.160204
-0.304221
1.302436
-0.142555
0.973507
-0.241034
-0.054024
0.001836
-0.136015
-0.135426
-0.085288
1.497194
0.234167
0.388290
-0.167800
0.370361
-0.109610
0.366320
-1.225612
0.302498
0.263371
0.179350
0.100299
0.532220
-0.382304
1.314763
-0.199474
-0.030378
0.118635
1.577494
0.091003
-0.229866
-0.055411
-1.099752
1.183372
0.055132
-0.450258
-0.744095
-0.572244
0.471893
0.138715
0.444653
-2.010303
0.663374
0.296672
-0.140816
0.002190
-1.427007
-0.778872
1.246790
0.673710
-0.227467
1.067762
0.384850
-0.388952
-0.117032
-0.250722
0.521898
0.309468
-0.609342
-0.548841
0.406737
-0.280210
1.054505
-0.011563
0.645222
0.252574
0.143581
-0.339609
0.148492
-0.510949
-0.196910
0.702709
-1.029251
0.225587
0.004083
0.448153
0.002737
-0.181215
0.773078
-0.911254
-0.757381
1.087191
0.361788
-2.097703
-0.178281
1.870746
0.586784
0.292518
0.088153
-1.975879
-0.155034
-0.330061
0.065343
1.239610
-0.353484
-0.625738
0.026182
0.107021
-0.458696
0.217338
-0.188223
-0.088465
-0.934376
0.175406
-0.251305
0.128261
0.258229
0.160371
0.402360
-0.010710
-0.234047
0.757392
0.748915
-0.087305
0.381113
-0.486233
0.149275
-0.120431
-0.175608
1.064873
-0.566760
-0.717625
0.608238
0.074945
-0.122374
0.018436
0.004747
0.197421
0.200606
0.645440
0.425064
0.410628
-0.009338
1.614172
-0.619256
-0.508145
-0.040048
-0.157677
-0.262523
-0.222557
-0.045442
-0.101056
2.845783
0.250778
0.168361
-0.064370
-0.082286
-0.104325
0.905220
-2.580721
1.722932
-0.058530
-0.074533
1.144581
0.327465
-0.145865
-0.479403
-0.448931
-0.371772
0.144665
-0.453164
-0.488881
-0.033091
0.445532
0.131587
-0.427091
0.344343
-0.358910
0.749387
0.061681
0.042010
0.173246
0.491854
-0.789503
0.158438
0.329231
1.495601
0.231101
-0.176553
0.088610
-0.638305
-0.242970
1.431170
-0.553178
-0.661318
1.532894
-0.390007
0.539145
-0.278136
-0.030188
-0.217790
-0.437519
0.391099
0.145115
0.129024
-0.010794
0.335194
-0.137047
1.556421
-0.273612
0.094661
-0.644349
1.959565
-0.200628
0.306295
-0.053764
0.174636
0.371163
0.397367
-1.823817
0.665032
-1.934333
0.055888
0.082440
-0.459296
0.486323
-0.083451
-0.866460
-0.489568
-0.571651
-0.556668
0.320106
1.711378
-1.302179
0.136792
0.566930
1.091195
1.752663
-0.669181
0.601035
-0.599220
0.163575
0.481646
0.045594
-0.309559
0.007888
3.117107
-0.496877
0.091857
0.731378
1.026629
-0.267503
0.124540
0.351538
-0.131863
0.050960
-0.638812
-0.366504
0.387850
-0.043892
0.142009
-0.342303
-0.504608
0.653177
-0.077042
0.157741
-0.444539
-1.066348
0.660757
-0.116474
-0.142309
-0.894134
-0.932328
0.157699
0.099496
-0.931927
-0.098561
0.668703
-0.621274
-0.044078
0.060124
1.247930
-0.315580
0.538624
-0.732399
0.666591
1.204047
0.269527
-0.565051
0.147843
1.093067
0.740546
-0.079962
0.837743
0.338508
0.539558
-0.519603
-0.047787
0.285439
0.077525
-0.890638
0.431768
-0.305598
0.776004
0.909110
-0.763664
0.030500
