-0.060253
-0.263351
0.726586
-0.019916
0.080614
0.044348
0.119468
0.111733
0.309165
-0.074254
-0.080375
-0.286535
0.106372
-0.499365
0.628006
-0.018009
-0.974629
-0.102497
-0.556900
0.131268
-0.840826
0.355440
-0.411437
-0.769949
0.016770
-0.934229
-1.437321
-0.368182
0.546571
0.154624
-0.033704
-0.203618
-0.373212
0.411387
-0.094415
0.667289
-0.312701
-0.607257
-0.150539
0.104308
-0.415697
-0.337579
0.195847
-1.073302
0.264729
0.098241
-2.083370
-1.105017
0.314171
0.623769
0.087280
0.393961
-0.106601
-0.252491
-0.043045
-0.252726
-0.275707
0.075255
0.286064
-0.460152
-0.471109
-1.295652
-0.799463
-0.305196
0.276760
0.455572
0.220359
-0.106707
0.075680
0.742604
-0.572037
0.010304
-0.129160
-0.121318
0.210392
0.160786
0.330856
-0.360677
-0.017345
-0.082395
-1.077501
-0.039326
-0.205869
-1.134577
-0.110164
0.245210
0.123095
0.150634
0.442516
-0.131055
0.137146
0.727201
-0.471804
0.473681
-0.801806
0.071175
0.029995
-0.100286
0.072418
0.242818
-0.015460
0.155249
-0.364044
-0.936664
-0.185983
0.133766
0.443597
0.003393
0.650779
0.276718
-0.069476
0.175083
0.262744
-0.219912
-0.400355
-0.714066
0.305760
-0.133003
-0.399926
0.267639
0.029493
0.338350
-0.346341
-0.791942
-0.666594
-0.371938
-0.076634
-0.555937
-0.120756
0.173540
0.194845
0.061531
-0.408012
0.326248
-0.228144
-0.389756
0.165494
0.178360
0.955698
-0.029803
-0.255427
-0.052399
0.810781
-0.871608
-0.018299
-1.321831
0.470457
-0.835097
0.244646
0.690467
0.183501
-0.218469
-0.093413
0.732612
0.217180
0.014477
0.251620
0.385625
0.290609
-0.360150
-0.445141
-0.035774
-0.103062
0.755270
0.361502
-0.645927
0.127743
0.548159
0.203768
0.306458
0.135527
-0.334539
-0.141415
0.001219
-0.461761
1.867418
-0.242230
-0.314999
-0.332821
-0.217125
0.374203
0.054750
0.177256
-0.132929
0.432938
-0.072422
0.150540
0.381363
0.740266
-1.020070
-0.011166
0.091592
-0.355813
0.167513
0.079585
-0.266355
0.133366
0.548543
0.260909
-0.193521
-0.009202
-0.549132
-0.581243
-0.216646
0.402753
-0.972332
-0.097386
-0.130389
2.167843
-0.965397
0.106305
-0.240506
-0.057047
-0.644568
0.526762
1.315907
0.149280
0.176830
0.035792
0.710194
1.005271
-0.179312
0.499793
-0.381413
-2.290435
0.695636
-0.139028
0.015620
-0.447485
-0.563532
0.399179
0.063084
-0.168139
-0.024008
-0.045951
-0.846050
0.170170
-0.009871
0.197065
-0.304292
-0.515848
-0.477783
-0.399732
0.388107
0.464627
-0.032690
0.380958
-0.485830
0.573812
0.658467
-0.205637
0.273847
-0.464581
-0.070973
0.540918
0.031565
0.170174
-0.976003
0.111692
-0.169037
1.825287
1.265567
0.057940
-0.408962
-0.143067
0.117555
0.113873
0.003347
0.077894
0.429300
-0.198402
0.218247
0.043108
0.091431
-0.078351
0.424850
-0.161449
0.078079
-0.269230
-0.273991
-0.140189
-0.157556
1.176035
0.242390
0.430711
-0.823552
1.660046
-0.415020
0.266662
-0.619431
-0.027008
-0.333858
0.960717
-0.140178
0.211752
-0.054905
-0.963329
-0.165512
-0.148599
-0.369228
0.273551
0.070209
0.119543
-0.386996
-0.530913
0.463092
-0.468293
0.634889
0.363208
-0.000165
-1.000153
0.202782
0.018257
0.102165
0.685663
0.257286
0.333274
-0.515244
-0.196125
0.237601
-0.255772
-0.176761
-0.807578
0.215403
-0.060303
0.370317
0.388999
0.092885
-0.341224
0.220908
0.463384
-0.055378
0.179403
-0.183006
0.094263
0.126241
-0.232789
0.076043
-0.183383
0.166245
0.095046
-0.012903
0.002958
0.152584
-0.162908
0.058750
-0.567433
-0.412376
1.040266
0.071202
-0.411438
-0.977119
0.188672
-0.409616
-0.030840
0.121952
-1.177248
-1.204349
0.025945
0.223887
0.319458
-0.334409
0.953076
0.874023
1.427411
-0.115070
0.576589
0.227776
-0.068974
0.007468
0.571815
-0.272557
-0.383782
-0.956122
-0.284295
-0.209435
0.339230
-0.110363
-0.236609
-0.151218
0.176452
-0.038023
-0.170476
0.195527
0.556519
0.280016
0.776037
0.248882
-0.231943
0.313613
1.043861
-0.051115
-0.027687
2.368220
-0.284890
-0.055586
0.030290
0.187200
-0.193648
0.501251
-0.030961
-1.512810
-0.679757
-0.693829
-0.634638
-0.190862
1.812034
0.827828
-0.287527
-1.077242
-0.656520
-0.844028
0.145214
0.299392
1.018130
0.271514
0.307401
-0.663550
0.153214
0.439247
0.098627
0.134593
0.380678
-0.004362
0.595350
-0.401276
0.744409
0.087284
0.703098
-0.609853
-0.403812
-0.073340
0.195579
1.407776
0.044511
0.511749
-0.002377
-0.028809
-0.121015
-0.116183
-0.658567
-0.837290
0.193262
0.231440
-0.168829
-0.792413
-0.218559
-0.045440
-1.376407
0.134840
-0.404320
1.088266
-0.428783
0.442748
0.935729
-0.274780
0.417761
-0.348122
-0.058822
-0.017478
-0.742972
-1.151574
0.811553
-0.319842
0.073068
0.734656
0.081628
-0.230189
0.178447
-0.311343
0.247961
0.517888
0.158093
0.211415
0.205418
0.005206
-0.086124
0.369405
-0.190897
-0.842733
-0.227471
-0.149596
0.014093
-0.940169
-0.270065
0.198303
-0.531085
-0.092204
0.107430
0.448784
-0.489289
-0.490954
-0.002638
0.484538
0.107079
0.032455
-0.327186
0.590666
1.020196
0.341975
