0.539024
-0.393496
0.577940
-0.648416
-0.491952
0.053801
0.536160
-0.029991
0.502257
0.481000
-0.293277
-1.885152
0.135258
0.461598
0.327648
0.286411
0.229575
0.270341
0.330331
0.338135
0.355934
-0.521124
-0.023321
-0.314553
0.275698
-0.087274
-0.704984
0.353583
0.778409
-0.508803
0.353791
-0.535083
0.582343
-0.156132
-0.130198
1.101041
0.218242
0.354640
1.636800
0.179002
-0.148888
0.043751
1.141923
0.718025
-0.803389
-0.028965
-0.626468
-0.182940
-0.153458
0.981589
0.482123
-0.197546
1.779771
-0.278948
-0.302905
-0.010540
-0.335489
-0.277737
1.576063
0.139917
-0.897059
0.388857
0.131979
0.235660
-0.209857
-0.846367
-0.502158
-0.069798
-0.154342
0.618273
0.223824
0.029465
0.117427
-0.006501
-0.118790
0.684900
0.823075
1.328072
-0.550601
-0.268010
-0.302166
-0.132036
-0.025807
0.521312
0.081207
-0.446632
0.166163
0.430620
-0.632479
-0.317342
-0.158369
-0.008573
-0.077482
1.321684
0.382981
0.101503
0.026292
0.377979
0.132945
0.030567
-0.311450
-0.078479
0.555843
-0.253665
0.789328
-0.103845
-0.375556
-0.314205
0.385671
-0.636632
-0.240326
0.221325
-0.222626
0.064643
-0.118058
-0.242422
-0.342960
0.117251
0.984829
-0.297557
-0.476926
-0.000276
-0.062901
-0.560130
-0.249155
-0.073398
-0.700576
-1.254465
0.519729
0.302134
0.562225
0.596518
-1.002005
0.504488
-0.423359
-0.188253
-0.081240
-0.069901
1.576009
0.001959
-0.932250
-0.174193
0.155936
-0.159454
-0.098702
-0.821310
-0.131208
0.930813
0.360282
0.117854
0.449680
-0.242793
-0.392920
-0.725280
0.023962
0.536198
0.656149
1.346766
-0.046974
-0.273019
-0.543467
0.094774
-0.178285
0.216301
0.360087
-0.052138
1.327130
-1.117380
-1.078019
-0.532294
0.272966
-0.284965
-0.046604
-0.171302
-0.183933
0.359685
-0.186863
0.823752
0.536646
-0.329142
0.485919
-1.011481
0.504483
-0.189181
0.418214
-0.138519
-0.392129
-0.252149
0.755483
0.684476
0.092240
0.180874
0.432133
-0.154404
0.172559
-0.177642
-0.005586
0.342712
0.913352
-0.255534
0.029078
-0.618070
-0.201455
-1.220765
2.118261
-0.523320
0.563279
-0.135649
-0.200142
0.203152
-0.021549
-0.117020
-0.200732
1.867458
-0.146742
0.366389
-0.158068
0.161364
0.144378
0.160072
0.809970
0.358339
0.492579
0.599637
-0.726596
0.528729
-0.246215
1.526470
-0.020381
-0.302317
0.458545
1.415125
-0.150327
-0.041023
0.093651
-0.836918
0.923024
0.193087
-0.168016
-0.598941
-0.984602
-0.275038
0.250295
0.525510
-1.430670
0.419747
0.056020
-0.734486
0.576751
-0.621945
-0.543125
0.641746
0.742419
-0.259309
1.335032
0.039176
0.122567
-0.476954
-0.529619
0.654275
0.547300
0.012670
-0.269431
-0.406643
0.305629
0.452361
0.391245
0.201611
0.293337
0.185077
-0.674470
0.291648
-0.426778
-0.422122
-0.057112
-0.194975
0.087905
0.028398
1.099233
-1.101110
-0.267683
0.181826
0.193040
-0.223528
1.910126
-0.094661
0.547264
-0.031910
2.111266
1.614228
0.242790
0.165561
-0.434131
-0.499633
-0.816922
0.086462
0.337817
-0.405115
-0.228308
0.365437
0.482078
0.007135
0.489893
0.359898
-0.036394
-0.683969
0.395442
0.060249
-0.174863
-0.350086
-0.289248
0.132147
0.043611
-0.605465
1.691685
0.651605
0.175347
0.513726
-0.532314
0.421525
-0.244252
-0.090917
0.755335
-0.624992
-0.153140
0.208866
0.006481
-0.772966
0.516169
-0.101570
-0.049584
0.183667
0.756317
-0.124663
0.243298
-0.209593
0.301859
-2.026987
0.564551
-0.198076
-0.314423
-0.073530
0.023026
-0.083999
-0.680638
0.819200
-0.172733
0.458566
0.451709
0.296783
-0.333030
0.282405
-0.806054
0.932726
-0.295045
0.163594
-0.331542
0.712702
-0.231655
-0.207378
0.115040
-0.227644
-0.169657
-0.020091
-0.128466
-0.206820
1.212519
0.103595
0.046294
0.618748
-0.141943
0.741196
-0.159550
0.351659
-0.071842
0.280291
-1.033164
0.402384
0.339868
1.302626
0.456098
-0.158916
0.179936
0.036312
0.059399
0.066546
-0.240439
-0.056209
2.067041
-0.070967
0.472751
-0.264495
-0.460282
0.431083
-0.443175
-0.088485
-0.132167
0.484906
-0.169417
0.127665
-0.299797
0.702950
-0.042842
-0.461282
-1.065718
0.364649
1.367113
0.124110
0.367639
-0.194992
0.115652
-0.069187
-0.672963
0.285066
-0.631924
-0.002741
0.500328
-0.821180
-0.218756
0.104494
-0.952756
-0.238482
-0.165591
-0.320325
0.121162
1.887811
-0.097743
0.377515
0.853848
0.185176
1.091322
-1.321798
0.469929
0.064941
-0.158682
-0.084646
-0.028603
0.012189
-0.065499
-0.036068
-0.674872
0.634047
-0.387075
1.135657
0.329706
-0.258290
-0.110057
-0.068458
0.091242
-0.477469
-1.753029
-0.116789
-0.173341
0.215888
-0.038799
0.505928
0.445092
0.044017
-0.119390
-0.451065
-0.620430
0.710981
0.135591
-1.591920
0.173542
-0.177947
0.482815
0.180155
-0.559702
-0.017824
0.045430
-0.530326
0.266384
0.373249
0.259884
0.202322
0.114785
-0.835655
-0.039797
0.135369
0.115010
-0.179535
-0.376145
0.941174
0.277783
0.848289
0.272096
0.070289
-0.265298
0.880192
0.030447
-0.253340
-0.079782
-0.190648
0.202962
-0.025704
0.600027
0.204176
-0.077099
0.177379
