0.085141
0.865023
-0.149384
0.095363
0.640510
-0.794175
0.310688
0.156059
0.238962
-1.080366
0.734740
-1.019864
-0.932190
0.784108
0.348473
-0.772260
0.258366
-0.621743
0.004985
-0.197908
0.476422
-1.188883
0.598358
0.150973
-0.026754
0.855693
-0.431447
0.439903
1.176225
-0.389160
0.180290
-0.319950
0.831255
-1.068516
-0.177066
-2.219993
-0.450829
-1.113078
1.848687
-0.250631
-0.075208
0.819965
0.408176
-0.370778
-0.177778
-0.041291
0.373701
0.851923
0.126995
0.258128
0.300080
-1.640167
1.271355
0.126530
-0.353365
0.409766
0.865159
-0.273075
0.342879
0.714580
-1.133460
2.225825
0.969029
1.037515
-0.225614
-1.268272
-1.203659
0.314454
-0.031221
1.092982
1.319071
-0.654678
-0.326521
0.489907
0.411043
0.243005
-0.733335
-0.479158
-0.502303
-0.666957
-0.571858
-0.141789
0.808885
-0.568456
0.379105
-0.256043
1.106884
1.128306
-1.344432
0.140784
-0.098640
-0.336815
1.026745
-0.362578
-0.266566
0.013322
-0.252464
0.902298
-0.304137
0.077210
-0.023236
-0.169773
-0.189250
-0.997159
1.377233
-0.152572
-0.525748
0.405245
0.320398
-0.678461
0.025658
0.737272
-1.111230
0.229348
-0.414947
0.261531
0.227845
0.301865
0.003090
0.349920
-0.204776
-0.106382
0.199257
1.047008
0.514376
0.245862
-0.185993
-1.077466
0.223431
1.003074
0.307385
0.866620
-0.640181
0.942417
-0.195859
0.053863
0.674456
0.347022
1.726134
0.050331
-0.732953
-0.385962
0.236594
0.475916
0.025677
-0.440532
-0.113813
0.657446
0.185510
-0.136725
0.309128
-0.210810
-0.639323
-2.111140
-0.395350
0.841163
1.283817
0.131172
-0.658348
0.583662
0.197250
-0.036518
-0.751560
-0.078985
-0.328388
2.080114
0.415273
-0.771403
-0.021767
0.192960
-0.298365
-0.155559
0.449720
0.564127
1.415810
-0.175802
-0.402625
1.607288
-0.417224
-0.751929
0.652336
-0.845783
-0.017662
-0.144285
-0.913309
-0.408165
-0.040814
0.037872
-0.002135
0.839404
0.651692
0.953254
-0.021546
-0.057178
-0.208039
-0.207971
0.358643
0.087386
0.241577
-0.417588
-0.267428
-0.155922
0.621208
0.956401
1.113897
0.710452
1.399290
0.199796
0.757404
-0.676420
-0.149609
-0.180001
-0.599771
1.759663
-0.154236
1.471387
-0.527743
-0.098403
-0.099482
0.799969
0.633636
0.123944
0.004057
1.342360
0.131257
0.423378
0.363033
1.507619
0.114379
0.233967
0.332087
1.501230
-0.331729
0.168503
0.249719
0.121896
0.251406
-0.038527
-0.913077
-0.742833
0.093182
-0.561426
0.725124
0.926207
-0.586513
0.550402
-0.652265
-0.239825
0.512150
-0.347231
0.063655
-0.314450
0.553847
-0.285483
1.751726
-0.042293
-0.097717
-0.261743
0.066035
0.743818
-0.709060
-0.506894
0.109392
0.068793
0.068371
-0.153481
-0.868486
1.035867
0.028879
-0.145563
0.105993
-0.182864
-0.180640
-0.357847
0.266817
-0.340026
0.204524
0.869756
1.932785
-1.263793
-0.532350
-0.411665
-0.024443
-0.194521
1.165147
-0.036934
0.073732
0.198093
2.064023
1.264648
0.138784
0.167576
-0.600454
-1.216966
0.402169
-0.337836
1.474650
-0.270028
0.365251
0.278706
0.380155
-0.023238
0.830604
0.166354
0.355629
-0.195629
0.585828
0.100926
0.810476
-0.210706
-0.422008
0.061408
0.137273
-0.244829
-0.029889
-0.241165
-0.201828
-0.532780
0.259348
0.344256
-0.287270
-0.398939
1.591479
-0.600744
0.410725
-0.653053
0.250938
0.084932
-0.663927
0.469212
-0.486227
-0.528078
0.721948
-0.069609
0.619589
1.233560
0.441102
-0.949443
0.264374
0.198320
-0.237428
-0.020794
0.235441
-0.195726
-0.276941
1.450204
0.365438
-0.386698
-0.497600
0.325417
0.523456
1.344605
-0.512861
0.353072
-0.334012
-0.168891
0.001041
0.689657
-0.498560
0.054546
0.349711
0.285236
-0.652293
0.028792
-0.627749
-0.058213
0.710899
0.080020
-0.034695
0.362663
-0.897837
0.004428
-0.007305
0.267946
0.233994
-0.435908
0.653801
-0.239177
0.184197
-0.088924
0.430087
-0.491437
-0.104492
-0.123284
-0.180783
-0.287051
0.119291
-0.326420
1.049926
0.291649
-0.079335
-0.275633
0.749037
-0.402326
-0.347739
0.552442
-0.588800
0.265193
-0.436230
-0.045619
-0.568826
1.796097
-0.236300
0.311451
-0.345034
1.070969
-0.128202
-0.334424
0.856149
0.554187
0.733112
0.150726
-1.616429
0.560037
-0.201284
-0.293568
-0.222420
-1.320335
0.020711
0.360938
-0.784223
-0.018988
-0.084242
0.366396
0.403057
0.288229
0.471506
0.701212
-0.258222
1.040865
0.184906
-0.586674
0.653792
-0.894629
-0.110867
-0.626717
0.253654
0.213944
-0.028969
-0.603676
-0.236971
-0.388812
-0.810415
1.280050
0.493292
0.460868
-1.753723
-0.233884
-0.778297
-0.880130
-1.064999
-0.434707
1.304396
-1.002676
0.322046
1.144723
0.522834
-0.347446
-0.682593
-0.237856
0.492015
0.641447
0.209299
-1.237738
0.325306
-0.544473
-0.001710
0.314181
-0.414308
0.516308
-0.060112
-0.416797
-0.612023
0.308405
-0.922598
-0.285591
0.234141
-1.261390
-0.945016
0.694821
-0.590557
-0.700583
-2.107414
1.204996
1.048622
-0.232953
0.570814
-0.093140
0.046174
-0.612575
0.630993
-1.430726
-0.165363
0.046497
-0.968695
0.876927
-1.138229
0.254261
-0.987320
1.204050
