0.403159
0.646394
-0.080618
-0.206698
-0.031370
-0.594995
0.197311
-0.626049
-0.542239
-0.329141
1.774230
-0.522334
-0.535278
0.282072
0.115618
-0.021690
0.582805
0.047741
-0.127441
-0.193996
-0.519961
-1.947838
0.183584
0.550639
0.340426
0.142363
2.076483
-0.195746
0.549210
0.445525
0.649419
0.968471
0.597951
-0.360774
0.115602
-0.431314
-0.058320
0.685526
0.661679
-0.064064
0.653005
0.566609
0.716535
0.095088
0.137156
-0.245139
-1.391480
0.575876
-0.230851
-0.580857
0.629366
-0.607967
0.299436
-0.233562
-0.387527
0.937016
0.149104
0.524869
2.045255
0.624625
1.527182
0.970135
0.802869
0.216603
-0.397705
0.910353
-0.313832
0.003070
0.421811
0.854195
0.231066
-1.790637
-0.377043
0.787389
0.190723
0.761075
-0.272569
1.194894
-0.276622
-0.184308
0.037354
-0.712107
0.065398
-0.766956
0.124995
-0.479406
0.275673
0.119502
0.525314
0.051905
-0.360082
0.256385
0.184918
-0.618331
1.364344
1.136622
-0.168301
0.222549
-0.249916
0.255401
0.233453
-0.930168
1.043743
0.529967
0.270714
0.024002
-0.090997
0.020228
0.353832
0.257802
-0.225718
0.731972
-0.329824
0.140318
-0.243178
0.450327
-0.542102
-1.610750
0.650746
-0.067063
-0.286203
-0.513146
-0.734201
0.220283
0.158569
0.061034
-0.491095
-0.521431
-0.050417
0.080699
0.563172
-0.478881
1.757637
0.183149
-1.663865
0.422214
-0.387126
0.044489
1.056478
0.139641
-0.650556
-0.023840
-0.694214
0.065460
-0.245716
-0.329290
-0.868295
1.022781
-0.192898
-2.658924
0.070386
-0.731084
1.359350
0.373849
-0.340152
0.792714
-0.244964
-0.103910
-1.314916
1.990561
-0.069799
0.606624
0.067340
-0.657904
-1.163329
0.041567
-0.261725
-0.348658
-1.321686
-0.051836
-0.133424
-0.053630
0.030331
-0.048388
0.396208
-0.740241
0.387084
0.162372
-0.071399
0.134185
0.411118
0.317186
-0.450896
-0.089593
-0.219573
-0.278378
0.004698
0.228898
0.633348
0.798147
0.666237
1.522477
-0.467285
0.225951
-0.117591
-0.048814
-0.256128
0.100845
-0.036338
-0.103374
-0.313878
-0.432399
0.480951
0.493246
0.516204
0.621921
0.182968
-0.123384
-0.208668
-0.038192
-0.052908
-0.071948
-0.724724
0.671111
-0.518108
-0.328752
0.310622
-0.277531
-0.401739
0.797203
-1.914463
-1.724995
-0.403709
0.618804
-0.618557
-0.023415
0.725923
0.767846
0.067850
-0.468020
-0.085855
-1.493820
-0.228417
-0.072598
0.865695
-1.051209
-0.687899
-0.250853
0.895290
0.477607
1.039232
2.072306
-0.102641
0.225483
-1.742755
0.344558
-1.884850
-0.043853
0.517109
-1.108538
0.506047
-0.481601
0.459553
-0.002443
0.307654
-0.087620
-0.016891
1.317896
0.070841
-0.009411
-0.069259
-0.894666
-0.141487
0.635684
1.177466
-0.968010
-0.128780
0.784594
-0.448116
0.374232
0.216093
-0.030471
0.278953
-0.067621
0.156395
0.154659
0.351068
0.262785
-0.925298
-1.063367
0.070048
-0.740903
0.070332
0.207814
0.584187
0.907096
-0.274563
0.088549
0.944675
1.186503
1.133307
0.303068
0.180736
-0.175466
-0.535460
-0.397298
1.248331
0.238816
-0.234825
0.207126
0.026431
0.122154
-0.206974
0.128805
0.664477
-0.055279
0.289081
-0.228731
-0.011670
-0.181089
1.304387
-0.190781
0.159526
-0.059758
-0.917428
-0.420915
0.064918
0.167636
-0.277117
0.649104
0.575355
-0.170742
0.536838
-0.063463
0.305833
-1.132370
-0.057067
-0.229420
-0.141210
-0.096150
-0.535427
-0.134951
0.201567
-1.015337
0.447429
0.494734
0.324656
-1.060468
0.699264
0.315042
-0.422381
-0.091521
0.096610
-0.492608
-0.026755
-0.004344
-0.221105
-0.134258
-0.150951
-0.521336
1.790844
0.206049
0.035878
0.342688
-0.396588
-0.487102
1.350537
1.095514
-0.159977
0.844579
0.202122
0.280478
0.104712
-0.334308
-0.170965
-0.064526
2.177802
0.248956
-0.445523
0.610284
-1.876399
0.505604
0.316667
0.725534
-0.490505
-0.016882
0.462867
0.005321
0.220572
-1.837801
0.263734
-0.086961
-0.091859
-1.062037
-0.126397
-2.489165
0.404495
-0.371988
0.569007
0.050554
-0.315875
0.146734
-0.788112
-0.366854
-1.395043
-0.545646
0.332513
-0.702090
-0.135461
-0.286125
0.217940
2.840827
-0.263552
0.111402
0.293349
-0.307765
-0.582952
-0.385956
0.391512
0.941506
0.700254
0.232201
-0.208490
-0.230540
1.284177
-0.263793
0.114127
1.748180
0.092871
1.009032
-1.026176
0.033829
-0.447941
0.589816
-0.222647
0.342041
0.757246
0.242887
0.269263
0.250671
-0.492513
0.347868
-0.194598
-1.157117
-0.114847
-1.768528
0.391611
-0.312940
-0.018986
-0.487051
0.608271
0.634104
-0.189643
0.334886
0.356289
-0.365895
-0.880436
0.128776
-0.002969
0.931028
-2.130598
-1.317671
-0.381923
0.059187
1.088707
2.519091
-0.072700
-0.055515
0.678063
-0.273693
-0.514197
1.604234
0.246111
-0.921362
0.051843
-0.948020
-0.188156
0.019170
0.076936
0.002355
-0.138333
0.381740
0.140968
0.902879
-1.170196
0.368059
-0.554744
0.314608
-0.303414
-0.864249
-0.048239
0.773951
-2.649475
0.673128
-1.476010
-0.467860
0.520434
-0.034965
1.702670
-0.357782
-0.240662
-0.848571
-0.039404
-0.317339
0.569933
0.645379
0.569615
0.211881
-0.909171
-0.550222
