0.500949
-0.118667
-0.153660
-0.464993
-0.586609
-0.011666
0.374251
-0.204819
0.205856
-0.384417
0.107398
-1.566977
-0.250329
0.335228
0.410857
-0.162044
0.000746
-0.055682
0.564635
0.376436
-0.093411
-0.892591
0.037252
0.139183
0.078502
-0.352104
0.187486
-0.047441
1.032292
-0.862707
0.302399
0.036178
0.811370
-0.359563
-0.514889
0.228775
0.434147
0.623574
1.051233
-0.106723
0.475163
0.314492
0.920726
0.742439
-0.254452
-0.076583
-0.697190
0.233939
-0.757520
0.518381
0.723329
-0.061724
1.352155
0.029243
-0.153934
0.420187
0.065650
0.681532
2.075343
0.324239
0.189034
0.698422
0.020245
0.214268
-0.262449
-0.706190
-0.137693
0.309518
-0.042212
0.946392
0.266767
-0.067389
-0.221082
0.354481
-0.164158
0.617699
0.439168
1.404233
-0.361247
-0.385635
0.198984
-0.500878
0.144183
0.547845
-0.058164
-0.140999
0.527428
0.833921
-0.634239
-0.283110
-0.327395
-0.118877
0.065037
1.493726
1.123794
0.541071
0.093627
0.284947
0.013908
0.165861
-0.085620
-0.064890
0.876469
0.153496
0.245570
-0.085493
-0.120287
-0.132365
-0.229408
0.285912
-0.363205
0.182472
-0.503162
-0.085733
0.318701
0.134537
-0.188507
-1.072818
0.865906
-0.292785
-0.229009
-0.214396
-0.009074
0.078433
0.080894
-0.143681
-0.671333
-1.067071
0.284410
-0.041009
0.135638
-0.000607
-0.076183
0.384869
-1.427065
0.357301
0.587801
0.247447
1.255296
-0.229110
-0.952374
-0.123336
0.001401
-0.653465
-0.159818
-0.016138
-0.534625
0.937467
0.107912
-0.184248
0.211817
-0.416218
-0.280817
-0.361667
-0.322254
0.606908
0.873522
0.443010
-0.291120
0.216467
-0.763668
-0.062041
-0.093195
-0.207962
-0.072586
-0.493526
0.792219
-0.805890
-0.566337
-0.170976
0.053247
-0.019904
0.319850
-0.255152
-0.366770
0.178588
-0.031338
0.349277
0.260498
-0.163740
0.478758
-0.852743
0.525195
-0.228500
0.415577
-0.727948
-0.444602
0.204802
0.545399
0.193464
0.488365
0.928038
0.471233
0.247229
0.199435
-0.244494
-0.366863
0.262113
0.854244
-0.258047
-0.155766
-0.464299
-0.148800
-0.199289
1.656820
0.639118
0.622819
-0.097009
-0.528126
0.618014
0.026118
-0.048165
-0.818505
1.292838
-0.783617
0.216545
0.034734
-0.131244
-0.240457
0.161942
0.765881
-1.302473
0.117231
0.559274
-0.064213
0.579168
-0.013173
1.114106
-0.025570
-0.020905
0.309243
0.448198
-0.254368
0.038825
0.589745
-0.816421
0.874579
0.239990
-0.373815
-0.501715
-0.128335
-0.039691
0.423023
0.621249
-0.678532
0.474676
-0.422286
-0.805817
0.461476
-0.476742
0.289234
0.074477
0.312401
-0.305514
0.905999
0.167662
0.209945
-0.204233
-0.347914
0.587990
0.718873
-0.148979
0.143030
-0.074171
0.626114
0.090707
0.112181
0.216127
0.192330
0.065455
-0.263433
-0.009941
-0.273044
-0.365582
-0.323478
-0.054501
0.382322
0.000437
-0.274058
-1.467263
-0.136900
0.048629
0.277932
-0.031740
1.535893
-0.173218
0.691805
0.138667
1.560794
1.547604
0.469352
0.320785
-0.248153
-0.849173
-0.755904
0.001327
0.459431
-0.118724
-0.393282
0.357263
0.687095
0.036131
0.074680
0.341760
0.116978
-0.579752
0.272786
0.072739
-0.466416
-0.386912
-0.130849
0.366371
0.227994
-0.506511
1.186779
0.444660
0.123560
0.626811
-0.496187
0.091120
-0.291795
-0.105527
0.426524
-0.210592
0.238718
-0.455828
0.155706
-0.798584
0.359240
-0.216177
-0.352614
0.089279
0.529642
-0.322129
0.097746
-0.177214
0.130540
-2.125655
0.715037
-0.196675
-0.231343
-0.144777
-0.007735
-0.427940
-0.328948
0.308415
-0.366324
0.341844
0.448358
0.113490
0.329758
0.096957
0.015606
1.047730
-0.375776
0.400835
0.065134
0.665187
-0.189703
-0.083888
0.345183
-0.310476
-0.485017
0.265451
0.094172
-0.246427
0.412662
0.346336
0.298542
0.613420
-0.691338
0.414933
0.117569
0.540395
-0.335892
0.378358
0.194691
0.256444
0.260303
-0.234284
0.361413
-0.217322
-0.012534
0.088155
-0.019646
-1.561826
0.176615
0.207036
1.762716
0.264177
0.073895
0.012679
-0.831158
0.275370
-1.173830
0.143611
-0.083977
-0.239808
-0.069855
0.232704
-0.493650
0.822208
0.083722
-0.428124
-0.613214
0.304571
1.051673
-0.028512
0.541461
-0.046112
0.288398
-0.022420
0.039967
0.174202
-0.167523
-0.177700
0.116628
-0.097663
-0.507506
-0.099816
-1.478617
0.037692
0.042690
-0.086213
0.150441
1.098328
-0.051842
0.411570
0.744385
0.414486
0.065363
-0.594583
0.054483
-0.031274
-0.189708
-1.002380
0.193203
-0.016732
-0.043990
-0.691072
-0.244384
1.015703
-0.179252
0.659381
0.047718
-0.189512
-0.379422
0.137888
0.679601
-0.284206
-2.091677
-0.503018
-0.697145
0.372706
0.544327
1.274329
-0.059206
0.219722
0.149628
-0.447193
0.145725
0.467283
-0.173409
-1.737084
0.426744
-1.023792
0.141778
0.220940
-0.226914
0.285462
-0.413316
0.030420
0.583420
0.575459
-0.177493
0.250054
-0.134337
-0.275957
-0.012007
0.039278
0.117029
-0.333594
-0.982471
0.494672
-0.123322
0.008240
0.691582
0.273537
-0.538776
0.566904
-0.217491
-0.238302
-0.104568
-0.040634
0.350959
0.707954
0.255366
-0.012890
0.228906
0.053404
