-0.125706
1.351948
-0.686262
0.074971
0.771208
-0.738163
-0.638301
1.672580
-0.960544
-0.203651
0.690373
0.426401
-0.450211
0.581834
0.075897
-0.528422
-0.403055
1.106176
0.534221
-0.205409
-0.275493
-0.560564
0.279116
-0.456346
0.057588
1.268476
-0.760277
0.701052
-0.810446
-0.106213
1.226718
-1.831515
1.472161
-1.410508
-1.391982
1.258300
0.539107
-0.459659
-0.598611
0.731373
-0.326491
0.996852
-1.191447
-0.521769
0.312636
-0.284238
1.008188
-0.161384
-0.614070
-1.176932
0.125750
-0.732402
0.229931
-0.294871
-0.160483
1.193547
1.236752
-1.301021
-1.310386
0.367975
-1.647067
2.616918
1.228910
2.274839
-0.109622
-1.715243
-0.260146
0.962892
-1.023466
-0.560423
0.465550
-0.449355
0.310506
0.327542
0.052689
1.100734
1.140583
-0.924377
-0.122200
-0.292978
0.122298
1.068345
0.250130
0.356641
-0.644645
-1.236205
-0.373088
-0.563720
-0.043842
-0.761159
-0.086511
1.153566
1.018191
-2.104594
-2.112793
0.443485
-0.298552
0.515012
-0.541447
-0.355547
2.194062
-0.321965
0.094561
0.484892
0.315174
-0.806983
-0.170950
-0.701464
-0.950249
-1.965418
-0.323181
0.703316
-1.666317
3.213262
-1.073789
0.350344
1.677806
0.795513
0.074288
0.075165
-0.056601
-1.443042
0.286904
0.477555
1.915346
-0.341149
0.996283
0.018885
-0.763363
0.456949
0.412089
-0.342302
-1.210101
-0.474178
0.754480
-0.631016
-0.408521
0.337626
2.618390
-1.999478
0.057370
-0.225207
-0.336217
2.592341
0.512146
1.941986
-0.351502
1.016543
0.765240
-1.090769
0.675862
0.125927
-0.946792
-0.645017
-1.106381
-0.737129
-0.129127
-2.094901
-0.088572
0.514991
1.106570
0.459122
-0.232085
0.096287
0.019309
1.804921
-0.416134
0.155216
-2.072922
-0.646622
1.107283
1.391167
-0.901708
0.886510
2.041037
-0.617789
-0.205144
2.747348
0.387887
0.026695
0.448834
-0.242574
0.368711
-0.127293
0.138737
-0.905069
0.152117
1.066259
-0.577772
-0.984562
0.349386
0.883930
-0.309904
-0.067950
-0.296003
0.022941
-0.794498
0.357524
-0.351135
-0.468794
0.296471
-0.450096
-1.098972
1.836033
-0.134908
1.774749
1.570330
-1.612891
-0.262891
1.968164
-0.397581
-0.534325
0.595493
-0.378730
-0.679639
-0.076555
-0.199847
-0.302493
0.322548
-0.087640
0.411776
-0.073332
0.046330
1.125496
2.435019
1.382606
-0.032577
0.382067
-0.389795
-0.187655
1.005757
-0.632254
-0.357457
0.010904
0.472808
1.044646
0.272277
-0.142496
-0.127334
0.852903
0.435695
0.745166
0.384937
0.113585
-1.579275
0.937685
-0.628729
0.649176
0.556470
-0.748512
-0.799712
0.965357
-0.899111
-0.411388
0.551554
-0.273369
0.559148
-1.033594
-0.428379
-0.500468
-1.633907
-0.371286
1.889698
0.226324
0.036676
-0.707803
-0.636005
-0.566383
0.993878
0.076516
0.076137
-1.118309
-0.140651
-0.167432
0.479789
-0.285242
-0.182472
0.643095
0.468569
0.916368
-0.132852
0.132704
0.329787
-1.363612
-0.794200
-0.583720
-0.022700
-1.013408
1.769916
-0.206714
0.270722
0.501061
0.072212
-0.213366
0.869687
-0.554399
0.667902
-0.649747
0.817795
-0.407115
0.064421
-0.329656
0.393414
1.056797
-0.460126
0.007975
2.163059
-0.265034
-1.205576
0.738649
-0.086990
-0.135404
1.254400
0.432083
-2.539988
-0.321065
0.464072
2.490195
1.026219
0.609520
-0.011889
-0.297332
0.372798
0.184141
-0.519788
1.232875
-0.621761
0.439859
0.111276
-0.362029
-0.782461
-0.414123
0.046125
-0.018564
0.604118
-0.451715
1.135463
0.683168
-0.792545
-0.785129
0.090462
0.073970
0.071357
-0.419463
-0.669765
0.085774
0.567916
1.190056
-0.668897
1.877090
0.150448
0.703873
0.410965
-0.441627
-0.269245
-0.629378
-1.356465
0.432824
-0.163207
-0.156944
0.320724
0.459906
-0.939951
-0.689526
-1.196980
0.098016
0.455533
0.804142
-0.855443
-0.878818
-0.973818
0.126675
0.045225
0.392422
0.121923
0.817141
-1.128514
-0.312713
0.384852
-0.919778
1.224583
-0.221474
-0.030785
-0.966606
0.012461
0.561483
0.036908
-1.199803
-0.300417
0.198821
0.107123
-0.522177
2.077895
-1.311883
1.615129
2.361952
1.348097
-0.589497
-0.429010
-0.787842
0.178774
1.102189
1.249104
0.625341
0.588369
-0.439516
-1.311311
0.278537
0.537600
0.229796
1.478733
0.871879
-1.369673
0.070388
-0.112103
-0.120707
-1.053266
-1.930833
-0.455560
0.068234
0.352887
-0.996237
-1.522874
-1.383160
-0.164059
-1.524417
0.429532
-0.717052
-1.110330
-0.264742
0.412140
0.649345
3.099340
-0.350951
0.237896
-0.068441
-0.477545
0.156979
0.104262
-2.195070
0.084873
-0.360141
0.694470
-0.184929
-0.902893
0.539791
0.355364
-0.531645
0.534999
-0.995419
-0.128860
-0.028872
-0.678665
-1.015427
-0.236477
0.781166
-0.498154
-0.249352
0.003611
-0.504523
0.069689
-0.230140
0.521726
0.419046
2.971691
0.283222
1.352509
2.342306
-0.817721
0.576846
-0.208312
-0.932809
0.913449
1.196065
-1.061764
0.261130
-0.881830
-0.114676
-0.531847
1.229375
0.499209
-0.871969
-1.036035
0.792245
1.478357
-0.154972
0.080860
1.704150
0.609478
-0.421856
1.336238
0.413428
-0.311040
-0.093972
-0.925908
-0.282133
-1.090474
-1.357035
0.111795
1.154525
