0.710513
0.164843
-0.709202
-0.713379
-0.652971
-0.192467
0.327762
0.096354
-0.176091
-1.437286
1.917761
-0.510923
-0.158540
0.452384
0.891662
-1.202974
0.127858
-0.236769
0.292090
-0.628016
-0.406681
-1.788425
0.503936
0.267234
0.373512
-1.053344
0.293064
0.599424
1.519248
-1.186518
0.718430
0.223492
0.947563
-0.694693
-0.616164
-0.592502
-0.009791
-0.045773
1.291550
-0.191856
0.359272
1.080986
0.393401
-0.093030
0.507867
-0.045000
0.039812
0.032422
-0.372907
-0.161864
1.112752
-1.249704
1.420995
0.333594
-0.187711
1.273428
0.708686
0.116462
1.952943
0.612287
-0.105990
1.511141
0.363234
0.867867
0.069043
-0.892822
-0.091235
0.238798
-0.259340
1.603617
0.169447
-1.256566
-0.071898
0.672216
0.149862
0.952502
-0.063873
1.733494
0.029004
0.376417
-1.759117
-0.924580
0.768413
-0.011768
0.085677
0.186415
0.482025
0.057465
0.717501
-0.292533
-0.173131
0.792538
0.623760
0.525966
1.623001
0.649959
-0.289697
0.347352
-0.216439
0.430679
-0.189839
-0.034814
0.247599
-1.004768
0.032777
-0.084288
0.004723
-0.467662
-0.009760
-0.434248
-0.338459
0.945072
-0.935510
0.278017
0.346565
0.274887
-0.552787
-1.816885
2.459777
-0.607144
0.110181
-0.531951
0.328849
0.584934
0.503307
-0.766613
-1.154406
-1.412691
0.094337
0.279808
-0.877622
0.437889
-0.123852
-0.766950
-1.509495
0.383269
0.415273
-0.361479
2.136731
-0.628286
-1.232693
-0.040134
0.186797
-0.514696
-0.121424
-0.366401
-0.984634
1.080439
0.301341
0.273308
-0.122709
-1.259090
-0.963928
0.474549
-0.629948
1.004413
0.132142
-0.652223
-1.075913
0.342929
-0.117722
-0.318116
0.497528
-0.381492
-1.021703
-0.440119
0.207541
0.199074
0.095421
-0.856138
0.139300
0.239208
0.041601
-0.301391
-0.174100
-0.045815
-0.122302
1.182210
0.202947
0.484901
0.760249
-0.099678
-0.356218
0.025295
0.116249
-0.913747
-0.089662
0.248550
1.063865
1.356494
0.379295
1.952365
0.699525
0.094238
0.287978
-0.264085
-0.416784
0.728966
1.144501
-0.274720
0.235444
-0.271961
-0.037063
-0.105363
1.132245
0.987670
0.902445
0.299313
0.217825
0.068398
-0.160255
-0.078025
-1.132226
-0.899260
-0.614293
-0.148156
0.430170
-0.577749
-0.130131
0.972930
1.312402
-2.127740
-0.629907
0.964965
0.088487
0.446704
0.317691
1.316191
-0.044993
-0.163651
-0.565656
0.259114
-0.144149
0.456459
1.113115
-0.860432
1.692839
-0.306918
0.447180
0.820619
0.094237
-1.259687
-0.040830
0.247792
-0.386589
0.206635
-1.218820
-0.373757
1.128143
-0.413469
-0.556485
-1.305306
0.711176
-0.186392
1.025718
-0.113469
0.132420
0.227260
-0.022006
0.152960
-0.415234
-0.594300
0.651058
-0.824849
0.673333
-0.749865
0.443015
1.262715
-0.314273
0.935730
-0.192235
-0.136573
-0.329040
-0.014817
-0.238320
-0.345893
0.275002
0.382035
0.169937
-2.204848
0.406350
-0.869545
0.532397
0.503397
0.494432
-0.189592
-0.308084
-0.166604
1.665761
-0.468186
0.502698
0.657250
0.091438
-1.038633
-1.141161
-0.448798
1.002334
-0.396704
-0.685642
0.189232
0.729041
-0.014118
-0.238168
0.346634
0.119302
-0.529626
1.241565
0.122078
-0.618481
-1.050284
0.799200
1.064015
0.002553
-0.357530
-0.149045
-1.184019
0.085711
0.401617
-0.667385
-0.562498
0.051077
-0.224857
0.874329
0.751502
0.879394
-1.554171
0.447611
0.052909
-0.088558
0.825735
-0.987440
-0.756800
0.407417
-0.637325
0.265065
0.717844
-0.627963
-2.361694
-0.201562
0.136925
-0.325738
-0.013446
-0.261037
-0.236218
-0.287818
0.761619
-0.212690
-0.094947
-0.095293
0.488158
-0.215564
0.968888
0.523059
1.706825
-0.622389
0.114143
-0.150314
0.824314
-0.420742
-0.785793
0.804431
1.425976
-0.296404
0.356717
-0.040602
-0.707758
-1.354535
0.958737
0.993052
0.479899
-0.961769
0.040996
-0.208852
1.206719
-0.461021
0.463834
0.514688
0.502736
0.856782
-1.481293
0.739856
-0.168892
-0.220877
-0.077236
0.124508
-2.506670
0.992000
0.186972
1.010419
0.506818
-0.228246
-0.285939
-0.915395
0.318008
-1.293768
0.339556
-0.559213
-0.458080
-0.271825
0.331484
-0.263863
-0.060020
-0.378060
-0.069316
-0.507689
-0.092801
0.107299
0.074231
0.851862
-0.307904
1.007959
0.214792
-1.815029
0.157420
0.838884
-0.444922
-0.179267
-0.169489
-0.516727
0.162949
-1.585683
-0.159643
-0.150352
0.270394
0.065102
1.138444
-0.214122
0.974045
-0.367058
-0.221674
1.164229
-0.115348
0.171983
-0.693229
0.458492
-2.403710
0.133422
0.409910
0.144066
-1.386654
-0.316742
0.501784
-0.471837
-0.049238
0.713430
0.249752
-1.680381
-0.089982
0.176525
-0.768219
-2.489699
0.961234
-1.306023
-0.656527
1.314107
2.972170
-0.035105
-0.088035
-0.937614
-0.904327
0.216964
0.068598
-0.602487
-2.293736
0.856237
-0.718198
0.688176
1.048766
-0.445162
0.512156
-0.012225
-0.524866
0.540773
1.158926
-1.552118
0.587322
0.192931
0.728506
-0.744402
-0.434473
0.769754
-0.470118
-2.096597
1.039093
-0.372205
-0.600758
-0.736514
-0.056462
-0.900573
0.520662
0.039456
-0.843334
-0.104087
-0.033260
0.691645
0.618296
2.031782
-0.644716
0.061295
0.027294
