-0.376220
0.699914
-0.369221
0.006120
0.922408
-0.523807
0.063017
0.585674
-0.096019
-0.019534
1.232421
-1.103064
-1.130344
0.091741
0.453626
-0.077733
0.401006
-0.691508
-0.242047
-0.081519
0.119787
-1.023212
0.208607
0.167498
0.069565
-0.377891
-0.189427
0.612690
1.407845
-0.411731
0.442580
-0.412952
0.848787
-0.289306
0.259809
-1.764124
-0.346166
-0.692488
1.123726
0.142300
-0.410121
0.509446
-0.005386
-0.654677
-0.312700
-0.109553
0.067330
0.865247
-0.350236
-0.288947
0.824839
-0.874125
1.053051
0.462179
-0.198086
0.565391
0.369003
-0.627879
-0.767449
0.152084
-0.406941
1.688506
0.541763
0.944444
-0.006014
-0.226845
-1.057451
0.294967
-0.111030
0.171485
0.655288
-0.463585
-0.241325
0.375650
0.544383
0.439142
-0.606870
-1.074161
-0.443010
-0.181444
-0.016041
0.064797
-0.005488
-0.170719
0.189620
0.149012
0.849528
1.385892
-0.282375
-0.814481
-0.198473
-0.231803
0.505080
-0.162631
-1.244774
0.500698
-0.359051
0.140572
-0.270919
-0.219049
0.577569
-0.216141
0.250457
-0.777488
0.495894
-0.100990
0.203646
0.342094
0.144036
-0.211857
0.008229
0.775254
-0.456218
0.569839
-0.186769
0.246507
0.673528
0.163415
-1.674113
0.123152
0.158932
-0.085159
-0.014396
1.265142
1.034516
0.266154
0.075710
-1.083539
-0.259199
0.470060
-0.322139
0.364340
-0.198800
0.912635
-0.246887
0.331655
0.311327
0.741427
1.201220
0.054958
-0.578833
-0.167528
0.142207
0.029170
0.120385
0.172814
-0.371065
1.034190
0.915779
-0.194551
-0.330706
-0.016069
-0.278279
-1.400969
-0.016511
0.545139
-0.088207
-0.385625
-0.768865
1.438885
0.111514
0.103306
0.170383
0.031775
-0.320289
1.317178
-0.314086
-1.386893
-0.273064
0.362683
-0.285312
0.346653
0.284731
0.787577
0.646547
0.056521
-0.108987
0.805249
-0.724165
-1.001904
0.475258
-0.398104
0.064886
-0.227315
-0.511205
0.151059
-0.309285
0.080499
-0.379530
0.189834
0.309128
1.052627
-1.125035
0.000707
-0.096209
0.026642
0.281437
0.260318
-0.182860
-0.241550
-0.283440
0.589744
0.141476
1.150705
0.163980
0.627819
0.096843
0.176920
0.301866
0.305806
-0.102700
-0.072950
-0.189202
1.303096
-0.101028
0.395133
-0.257560
-0.108464
0.005522
0.031037
0.462202
0.229370
-0.577315
0.449987
-0.017458
0.543473
0.825993
1.068814
-0.071438
0.593060
1.111778
0.182074
-0.288416
0.280224
0.457246
-0.128011
-0.507948
-0.129726
-0.454147
-0.097588
0.047550
0.084595
0.282796
0.275124
1.026152
0.550920
-1.429868
-0.191230
0.221933
0.302705
1.048546
-0.569096
-0.000001
-0.204130
0.744324
-0.008501
0.101834
-0.108918
0.179389
-0.134839
-0.563112
-0.737801
-0.030362
0.168947
0.268012
-0.932155
-0.566765
0.509486
0.286511
-0.086075
-0.078418
-0.126330
0.001979
-0.094011
0.064373
-0.050742
0.049161
0.233881
1.155305
-0.791699
-0.075892
-0.461828
0.658330
0.147775
0.272886
-0.105324
0.215433
0.108330
1.122963
0.654287
0.123114
0.103345
0.124362
-0.777109
0.715677
-0.471975
0.561632
-0.021155
0.278035
0.114985
-0.041757
0.076231
1.357928
0.525225
0.152441
0.071927
0.239578
0.320420
0.391064
0.366789
0.191346
0.043142
0.174892
0.220762
-0.253909
-1.042312
-0.018461
0.116465
0.660841
0.334491
-0.181992
-0.353207
0.469741
-0.219937
0.597582
-0.604418
0.900238
-0.082164
-0.619166
0.569198
-0.241817
-0.134284
0.386618
-0.423531
0.368261
1.663806
0.016068
-0.601708
0.301630
0.198393
-0.151029
0.282547
0.168481
-0.038309
-0.389720
-0.089113
-0.019207
-0.065725
-0.347711
0.390752
0.375462
0.548134
0.426386
-0.588004
-0.410660
-0.706296
-0.183502
0.201904
-0.428121
-0.020043
0.316910
0.481833
-0.821254
0.247496
-0.056679
0.050704
-0.703440
0.229859
-0.483213
0.240031
-0.801042
-0.098191
-0.054824
-0.056438
0.082970
-0.360987
0.877013
-0.441709
-0.228002
-0.860402
0.544666
-0.230923
-0.331455
0.469540
-0.615382
-0.356034
0.574142
-0.133052
-0.244303
0.774715
-0.351531
-0.043063
1.167704
-0.193287
-0.044741
0.681981
-0.271091
0.091324
-0.222010
0.203452
-0.364441
0.619831
-0.170040
0.126224
-0.101415
0.152808
-0.123200
-0.322264
-0.421480
0.057335
0.860102
0.023884
-0.235516
0.542003
0.868655
-0.001427
-0.174406
-0.459964
0.157641
-0.008459
-0.067950
-0.009855
-0.082004
0.396454
-0.318996
-0.788875
0.273252
0.527648
-0.203602
0.067552
-1.527104
-0.606398
-0.922492
-1.082682
0.003697
-0.904393
0.248160
0.055729
-0.112942
0.302158
0.033450
0.106410
-1.319975
-0.037678
-0.011159
0.274220
-0.899303
-0.055871
-0.402075
-0.032231
-0.656655
-1.745500
1.349167
-0.174789
0.823887
1.397343
0.212640
0.085514
-0.584851
-0.178169
0.318720
0.320591
-0.034142
-1.027011
0.176869
-0.395527
0.575242
0.930841
0.077635
0.387273
-0.241536
0.256971
-0.036549
0.808285
-0.992947
-0.194276
-0.363846
-1.182129
-1.547972
-0.335023
-0.368880
-0.706265
-1.943426
0.542444
0.297701
-0.052870
0.097876
0.480559
0.224697
-0.015880
0.220249
-1.448310
-0.023614
0.216090
-0.138571
-0.294529
-1.549495
-0.106209
-0.568876
0.735575
