0.595577
-0.096423
-0.243026
-0.393604
-0.850056
0.248470
0.327809
-0.524992
-0.478513
0.055345
0.335529
-0.508576
0.551904
0.360104
0.056276
0.512415
-0.128221
0.307328
0.861062
0.801962
-0.339423
-0.555163
-0.110052
-0.031670
0.165458
-0.249194
0.716190
-0.514588
0.462427
0.855896
0.560909
0.387032
0.146005
0.094437
-0.030431
1.463704
0.477509
0.603946
0.430669
0.354248
0.215859
0.385295
0.466600
0.817018
-0.184831
0.040229
-1.183447
0.272698
-0.123279
-0.544605
0.621092
0.437832
0.927958
-0.719011
0.024253
0.376767
-0.549035
1.040383
2.080179
0.100156
0.989749
-0.058340
0.279844
-0.245567
-0.134853
0.793081
-0.204173
0.177984
0.184647
0.350721
0.092855
-0.073652
-0.323684
0.473300
-0.438836
1.093516
0.813405
0.502884
-0.210365
-0.110759
-0.476321
-0.362536
0.035094
0.746817
0.055307
-0.225769
-0.218856
1.400831
0.161526
0.393627
-0.130422
0.684526
-0.194145
0.379578
0.751169
0.689614
-0.125920
-0.168147
-0.022290
0.053736
0.119590
-0.280015
0.584687
0.566923
-0.201424
0.089368
0.131264
-1.379424
-0.081049
0.409988
-0.257433
0.234949
-0.053344
-0.189952
0.439706
-0.650515
-0.553272
-0.984172
1.984071
-0.042699
-0.309796
-0.257475
-0.307087
-0.883256
-0.320738
-0.219031
-0.790279
-0.427326
0.539020
-0.172277
0.222154
0.171802
0.981179
-0.277925
-1.099614
0.284815
-0.215456
-0.812643
0.832167
-0.140596
-0.283253
-0.090580
0.058171
0.105833
-0.048918
-0.293859
-0.264653
0.595394
0.219553
-0.693176
0.327197
-0.965989
0.635153
-0.181573
0.122987
0.207490
0.152171
0.347188
-0.273034
1.011525
-0.451705
0.441967
0.120755
-0.426758
-0.528555
-0.463315
-0.030851
-0.256640
-0.694095
0.276249
0.317259
-0.112782
-0.364052
-0.063953
-0.622971
-0.200899
0.338868
-0.017083
0.507029
-0.114537
0.479191
0.224002
0.405431
-0.152863
0.476944
-0.777840
-0.089979
-0.126429
1.029892
-0.062352
0.215617
1.107593
0.878510
0.064525
-0.082943
0.523455
-0.407441
-0.013789
0.943013
-0.149387
0.409572
-0.912094
0.108102
-0.920509
1.087143
-0.368956
-0.465374
0.020978
-0.685786
0.831614
-0.020779
-0.045913
-0.072112
-0.084922
-0.559395
-0.643438
-0.102437
-0.173546
-0.449366
0.145254
-0.420039
-1.508964
-0.004283
-0.008108
-0.578267
0.033705
0.379369
0.600945
-0.049695
-0.302722
1.243869
-1.290680
-0.156678
0.044175
0.676531
-0.811453
0.655557
-0.017158
0.286575
-0.291510
0.084457
0.369594
-0.350397
-0.433121
-1.504486
-0.002094
0.148716
0.327158
0.723278
-0.398666
-1.075613
1.294907
0.048013
-0.108842
0.172302
-0.305008
-0.406088
0.445540
-0.518818
-0.077574
0.654380
-0.467613
-0.467829
0.042824
0.647443
-0.421058
0.747979
0.137742
0.050520
0.352006
-0.753665
-0.051787
0.202257
-0.178362
-0.253773
-0.065103
0.084333
-0.513876
-1.335336
0.116584
1.047173
0.012486
0.514175
0.352803
0.932298
0.161630
-0.298553
-0.154197
0.938197
0.445418
1.097739
0.187914
-0.195342
0.508272
-0.633583
-0.079414
0.638922
-0.028000
0.204260
0.093939
0.413945
-0.096032
0.559314
0.121778
0.192573
-0.691993
0.217295
-0.439151
-0.463526
0.622438
-0.105577
0.364425
0.176443
-0.199786
-0.252064
0.107724
0.372317
0.845379
-0.552409
-0.099638
0.264134
-0.184231
-0.194259
0.008933
0.229590
-0.331422
0.401800
-0.642302
0.981975
-0.640803
-0.401438
0.123200
0.296054
-0.527279
0.405846
0.530629
0.425289
-0.810363
-0.068448
-0.117185
-0.309528
-0.207503
-0.110801
-0.480178
-0.048233
0.336035
-0.462801
0.385118
0.429563
0.150120
0.977998
-0.163450
-0.598175
1.049352
-0.255038
0.608570
0.575049
0.154749
-0.183704
-0.436474
-0.061191
-0.089570
-0.259054
-0.245543
0.304863
0.559832
0.596737
0.292064
-0.579193
0.578630
-1.125141
0.568580
-0.131246
0.085713
-0.309302
0.298113
-0.294690
0.187732
-0.376279
-0.945593
0.688102
-0.025674
0.010293
-1.760441
0.000020
-0.859970
0.316841
-0.294768
0.822801
0.121367
0.014593
-0.043023
-0.987269
0.172981
-0.924479
-0.275565
0.072374
-0.456581
-0.118303
0.019315
0.027420
1.113663
0.113017
-0.245005
-0.092444
-0.282820
0.380039
-0.024569
0.286979
-0.175807
0.663041
0.656967
-0.184323
-0.445499
0.244412
0.172733
0.329084
0.720314
-0.516037
0.415711
-0.563341
0.017167
-0.039740
0.088793
-0.213590
0.469099
-0.444437
-0.140837
1.017650
-0.159803
1.421731
-0.524902
-0.443119
-0.935612
-0.176676
-1.421407
0.246775
-0.690510
-0.273867
-0.275165
0.498125
1.159885
1.031703
0.753049
-0.572349
-0.462644
0.159465
-0.163338
1.280891
0.323329
-1.463392
0.899212
-0.359163
0.315865
0.927664
1.509959
-0.195175
-0.062674
1.376136
-0.422629
-1.133878
0.767173
-0.572433
0.256319
-0.265209
-0.272003
0.208244
0.231000
-0.060702
-0.074425
-0.112683
0.325549
0.831404
0.775207
-0.031453
0.614255
-0.089434
-0.222020
-0.336155
-0.721933
-0.144230
0.659477
-0.419609
0.222810
-0.923661
0.071383
-0.666017
0.271529
0.373974
0.195452
-0.149662
-0.343315
0.000475
-0.558948
0.456644
0.436494
-0.283480
0.227828
-0.654715
-0.628047
