0.530151
0.368153
-0.639653
-0.308620
-0.733097
-0.435362
0.538432
-0.138858
0.416429
-0.630796
1.660229
0.377066
-0.514166
0.531165
0.545827
-0.256068
0.641333
0.081645
-0.012323
-0.148829
-0.664505
-0.100856
0.427245
0.320670
0.201182
0.135736
-0.921825
0.195245
-0.420719
-0.290495
0.175001
0.763196
-0.128432
-0.427140
0.084884
-0.126899
-0.104331
-0.169353
1.070988
-0.162747
-1.194716
1.448073
-0.127847
-1.120945
0.752282
-0.094092
-0.274136
0.204573
-0.039144
0.067186
-1.023753
0.719241
0.197601
0.086191
-0.059285
1.136755
-0.180832
-0.788993
-0.682489
0.693761
-1.249903
0.999880
-0.164538
0.534654
0.327892
-0.890826
0.664665
0.107382
-0.058300
-0.505711
-0.430770
-1.013031
0.053774
-0.133695
0.049835
0.279389
-0.394453
-0.504623
-0.559211
0.225226
-0.624011
0.191441
-0.607004
-0.487467
0.067212
-0.216236
0.282940
-0.329436
1.420522
0.075568
-0.079754
0.509298
0.771504
0.032065
0.160164
-0.247030
-0.213214
0.533873
-0.396878
0.260065
0.075672
0.074159
0.022805
-0.097651
-0.586962
-0.129290
0.773891
-0.500260
0.222112
0.879136
0.182558
1.294522
-1.262960
-0.122675
-0.544217
0.082481
-0.919769
-0.011413
2.061259
-0.887379
-0.236684
-0.819538
0.029868
-0.346314
-0.476616
0.056656
-0.216030
-0.328928
0.100057
-0.098855
0.439272
0.674639
-1.144984
-0.125684
0.063350
0.264572
0.522983
-0.969120
1.747729
-0.248602
-0.351026
-0.109634
0.524117
-0.679786
-0.345793
-0.918297
-0.351617
-0.221473
-0.191042
-1.375491
0.368603
-0.202223
0.494722
1.377134
0.313941
-0.262611
0.268954
-0.196723
0.369381
-0.798533
-0.340129
-0.172868
0.801827
-0.006055
-0.818634
-0.372902
-0.348435
1.879000
0.514416
0.513252
-0.208581
-0.383275
-0.810940
-0.332677
-0.999474
0.420602
0.044576
-0.127540
0.376169
0.385677
0.646550
-0.269388
-0.131366
-0.242538
0.450904
-0.415539
0.745320
0.442232
1.076026
0.335965
0.529659
-0.297124
0.282527
0.150870
0.242793
-0.226294
-0.040145
0.230933
1.016119
-0.484251
0.727338
-0.546473
0.517642
-0.588511
0.193677
1.867825
-0.335165
0.638776
1.806864
-0.327260
0.078697
-0.246637
-0.402986
-1.388836
-0.479170
0.041491
0.851114
-0.866378
-1.094088
0.585858
-0.432962
-0.154740
-0.942715
0.575881
-0.530035
-0.235180
0.916527
1.470758
0.448741
-0.120033
1.237300
0.751854
-0.145722
0.585775
-0.175278
-0.437002
0.241648
0.038695
1.143247
1.180770
0.260494
0.804905
0.542931
0.460999
-2.980336
-0.225100
-1.119525
-0.029146
1.211242
-1.518741
-0.199953
-0.187529
1.029348
-0.119879
-0.892807
0.533380
0.123386
-0.280160
-0.182360
-0.569881
1.224658
0.013183
0.213303
0.298493
-0.232858
-0.113048
0.483459
0.886950
-0.319310
1.410183
-0.954169
-0.179989
-0.191978
-0.454783
0.260129
0.563411
0.160873
0.413632
0.144848
-0.386459
-0.328754
-0.736919
1.371706
0.677569
-0.649765
0.074540
-0.178821
-0.156848
0.511242
0.338535
-0.036528
0.656718
0.549995
0.099795
-0.995685
-0.152366
-0.034798
-0.057226
-0.329686
0.067282
0.313916
-0.042469
-0.369209
-0.072511
0.401150
-0.227690
0.194593
0.443497
0.054609
0.031970
2.178457
0.283132
-0.339266
-0.879682
-0.740116
0.620269
0.148627
0.033620
-0.041410
0.292015
0.583873
-0.353528
1.006269
0.789305
0.856311
-1.270260
0.374270
0.642964
-0.095996
0.299035
-1.230685
-0.538613
0.403748
0.028443
0.111784
-0.087445
0.508191
-0.602889
-1.597574
0.222190
-0.183058
-0.104699
-0.195426
-0.283793
-0.130409
-0.260423
-0.276565
-0.419715
1.294469
0.232301
0.253336
-0.323287
0.992141
0.940150
-0.214215
-0.182328
0.584081
1.756335
-0.260255
0.080413
0.175102
-0.405058
-0.683900
1.098895
1.826272
0.305251
1.054951
0.691155
0.399173
-0.163810
-0.912817
-0.233395
-0.370754
2.179994
-0.368045
-0.162176
0.811395
1.184471
0.983784
0.247107
0.526168
-0.475903
0.015537
-0.119221
-0.024051
0.494763
1.327684
0.287116
-0.167864
0.720234
-1.210047
-0.210990
-0.080238
1.292231
-0.967611
-0.063633
-0.553919
-0.410594
-0.330919
0.464342
0.314448
1.684514
-0.232005
-0.186206
-0.353746
0.357747
1.029342
1.086151
0.604205
0.664429
0.527670
-0.019018
1.636438
-0.266054
2.062279
-0.433169
-0.414709
-0.443227
0.342512
0.400663
-0.345803
0.724109
-0.392029
0.479946
0.114681
0.290251
0.375045
0.083936
-0.104528
0.070473
0.230683
1.837233
-0.891808
0.416935
0.145763
-1.020667
-0.454735
-0.244237
0.040725
-0.066609
-0.196345
-0.318324
0.696691
0.059298
0.062874
0.279181
-0.535800
-0.214104
-0.499318
-0.270336
0.103821
0.774376
-0.217616
0.264646
2.079764
-0.226554
-0.830685
0.180872
-0.715125
-0.208259
-0.421439
0.926179
0.029797
-0.199496
0.518938
-0.205374
-0.135783
-0.188242
0.479671
0.837323
0.391210
0.203571
0.370303
1.192728
-1.135724
0.398390
0.199523
2.186313
-0.504780
0.110102
0.348497
-0.256371
-1.244312
0.266163
-0.233425
-0.301358
0.068357
0.022259
0.319756
0.343888
-0.300033
0.028320
-0.139723
0.180566
0.735778
0.823915
1.390381
-0.087628
1.663579
-1.136340
