-0.023826
0.371838
-0.041062
-0.321604
0.039493
-0.400672
-0.073091
-0.529618
-0.151832
-0.306195
1.855488
-1.053244
-1.680397
0.198198
-0.086029
-0.047006
0.292310
-0.058707
-0.093690
-0.159385
-0.200583
-2.073406
0.134007
0.596291
-0.022036
-0.301666
2.117605
0.051994
0.603248
-0.948594
0.590448
0.757044
1.007256
-0.199309
-0.045352
-0.406321
-0.119482
0.672191
0.677119
-0.234161
0.931121
0.492517
0.849691
0.167778
-0.156743
-0.384148
-0.990812
0.466170
-0.451231
-0.197032
0.672013
-0.954885
0.520545
0.730632
-0.205364
0.813279
-0.123425
0.350599
1.543966
0.402604
1.496855
0.946970
0.507169
0.211792
-0.407556
0.512702
-0.497246
0.128406
0.322781
0.811011
0.410195
-1.222853
-0.411565
0.994833
0.328715
0.706317
0.037997
1.060504
-0.339408
0.732320
0.636942
-0.627354
-0.134600
-0.398178
-0.098229
-0.201706
0.751685
0.979739
0.099170
-0.075304
-0.295482
-0.881265
0.173045
0.276820
1.310978
1.101787
-0.242599
0.245399
-0.216730
0.054451
0.097817
-0.548561
0.879926
0.300639
0.181453
-0.140027
0.138231
0.612808
0.052802
0.761904
-0.281127
0.030133
-0.253512
0.179187
-0.147201
0.761102
-0.318925
-1.354664
-0.666453
0.001914
-0.088107
-0.259765
-0.895924
0.546152
0.256601
0.024892
-0.350569
-0.696318
-0.116261
0.063015
-0.719840
-0.638873
1.534383
-0.569177
-1.567747
0.740523
0.681521
0.955222
0.892479
0.015611
-0.727866
-0.079179
-0.663117
0.075680
-0.140339
0.056383
-0.777823
1.356172
-0.189313
-1.412579
-0.021466
-0.378320
0.979693
-0.218419
-0.565227
0.999904
0.164868
-0.126070
-1.241195
0.808093
-0.284819
0.396714
0.061708
-0.485720
-0.999444
-0.017971
0.236613
-1.191870
-1.133050
0.240532
0.007762
0.153258
1.036623
0.072954
0.017531
-0.488679
0.142848
0.004478
-0.271630
0.004187
0.439974
0.026025
-0.131948
-0.153833
0.025765
-0.025295
-0.553056
0.185743
0.121219
0.591755
0.513891
1.636381
-0.873206
0.301897
-0.057768
-0.468888
-0.067820
0.081583
-0.018515
-0.188823
-0.445074
0.585596
0.393918
0.575049
0.598874
0.591047
0.010743
0.170296
-0.587680
0.085851
-0.003015
0.014626
-0.727243
1.734391
-0.325337
-0.476363
0.088055
-0.017077
-0.244052
0.355416
-1.456463
-1.132023
-0.340470
0.430089
-0.651376
0.064564
0.412388
0.996903
0.074817
-0.196254
0.042008
-1.020114
-0.174022
0.089871
1.250587
-0.944308
-0.011416
-0.232320
-0.137456
0.088767
0.959635
1.807030
0.130534
-0.077459
1.195815
0.503070
-2.035105
-0.381575
0.349654
-0.085498
1.778320
-0.466243
0.276377
-0.053365
0.923336
0.040878
-0.176503
1.282348
0.110362
0.065066
0.074975
-0.988867
-0.060217
0.405827
1.148769
-1.068121
-0.276189
0.649588
-0.047769
0.066229
0.151029
0.078843
0.068002
-0.080048
-0.114180
0.150015
0.410350
0.163174
-0.526585
-1.383648
0.524887
-0.648754
-0.009036
0.109498
0.469421
0.605579
0.027947
0.613121
1.114710
1.284582
0.709011
0.241660
0.153206
0.143631
-0.455323
-0.397616
1.016305
0.275371
-0.325933
0.477727
0.042003
0.113396
0.375321
0.323288
0.407782
-0.107413
0.267175
-0.058759
0.032201
-0.151260
0.896202
-0.091765
0.103537
0.005894
0.226188
-1.566835
-0.112156
0.195951
-0.060262
0.125549
0.169626
-0.227384
0.436968
-0.277631
0.381317
-1.046172
-0.173796
-0.349420
-0.125503
-0.061651
-0.151236
-0.088585
0.342101
-0.853789
0.463632
0.677778
-0.024568
-1.322001
1.163283
0.189820
-0.273830
-0.107567
0.121341
-0.337186
-0.099786
-0.398779
-0.261734
-0.156866
-0.359180
-0.509375
0.992460
0.445054
0.199228
0.300645
-0.300589
-0.738593
0.550061
0.588943
-0.113798
0.449002
0.209407
0.505849
-0.045900
0.038532
0.035859
-0.174214
-1.022966
0.056379
0.044290
0.360411
-1.564705
0.506953
0.421869
0.286904
-0.552020
-0.010343
0.668255
-0.039886
-0.127147
-1.527932
0.119894
-0.135097
-0.118986
0.910456
-0.474033
-2.959234
0.597293
0.099770
0.538613
0.236064
0.178268
0.248273
-0.452913
-0.266350
-1.377000
-0.132396
0.084127
-0.149428
-0.097929
0.123615
0.012083
1.525403
-0.161055
0.104853
0.235963
-0.052289
-0.424469
-0.114753
0.159135
1.008880
0.612235
0.525853
0.199535
0.003564
1.063507
0.000043
0.115049
1.422543
0.008023
-0.061263
-1.104987
0.185347
0.096623
0.274034
-0.248394
0.344841
0.328204
0.377635
0.160560
0.465346
-2.024942
-0.635568
-0.081949
-0.864514
-0.120004
-1.642270
0.552586
-0.283068
-0.033313
-0.268851
0.317748
0.627447
-0.080715
0.258551
0.262563
-0.429584
-0.664973
0.611405
0.277295
0.857857
-2.255550
-2.564346
0.149124
0.350466
0.614169
2.816944
0.108419
0.102980
0.402159
-0.378380
0.627659
1.039016
-0.148923
-0.916020
0.129761
-0.906113
-0.156851
0.060752
0.188016
-0.076695
-0.191801
0.521639
0.213015
0.706945
-1.001903
0.160714
-0.475389
-0.678296
-0.556538
-0.880067
-0.313081
-0.029422
-2.526079
0.572274
-1.634521
-0.524405
0.949886
0.107746
-0.219853
-0.117965
-0.399618
-0.220313
-0.161568
0.083575
0.733843
0.518916
0.248375
-0.170221
-0.958387
-0.095663
