0.101535
0.181376
1.121123
0.097660
0.298628
0.036142
-0.252550
0.672200
0.496246
0.108838
-1.020112
0.084275
-0.433339
0.155050
0.020356
-0.182353
-0.045450
0.915265
0.341136
0.012836
0.364096
0.234215
-0.042164
-0.580804
0.021839
1.366376
-1.658385
-0.023621
-1.393712
0.304571
0.064894
-0.691829
-0.001567
-0.740162
-0.637737
1.407808
-0.038388
-0.941639
1.305032
0.201324
-0.986282
-0.067090
0.555138
-0.042323
-0.667471
0.115217
-0.026337
-0.155933
1.011281
0.492009
-1.074405
-0.420900
0.732579
-0.352066
-0.355015
-0.406694
0.050194
-0.875814
-1.018380
0.223795
-1.919289
0.874401
1.546617
0.293825
-0.363972
-1.236959
-0.665612
-0.166759
-0.062713
-0.027756
0.982449
0.379091
0.047080
-0.430279
-0.212290
0.188328
1.506965
-1.274390
-0.482012
-0.792528
0.874349
0.537350
0.218726
-0.221166
-0.059447
-0.428174
-0.081918
0.669002
-2.095644
0.801591
-0.005394
-0.455951
0.223607
-0.777760
-1.294496
-0.880764
-0.061224
0.618869
0.107272
0.104597
-0.002596
0.239217
-0.925575
-0.384605
1.807176
-0.285379
-0.162528
-0.349099
0.199316
-0.720685
0.370783
-0.268798
-0.088485
0.228233
-0.626514
-0.526405
0.435630
2.305996
0.349175
0.359142
-0.623371
0.170743
0.211992
-0.436725
-0.073991
0.072717
0.439146
0.589036
0.194778
0.605180
0.796529
0.950530
-1.196724
0.869045
1.632532
-1.104721
-0.192556
-0.144227
1.783481
0.128449
0.036407
-0.415329
0.496517
0.167957
0.156377
-0.528186
0.777444
0.824016
0.496406
-0.598258
0.488621
0.684777
-0.124035
-1.417857
0.131530
-0.089589
1.709390
1.354436
0.378544
-0.124868
-0.337185
-0.032259
-0.478357
0.522163
0.102181
1.163530
1.166706
0.353857
-0.810937
-0.078240
0.610437
-0.362970
-0.256318
0.552667
1.123467
0.256368
-0.539865
1.151718
0.872453
-0.778068
0.232344
-0.775102
0.795131
-0.055933
0.332408
-0.333903
0.492429
-0.587350
0.359560
-0.140547
0.169425
-0.861503
0.900765
-0.189308
-0.070232
-0.001026
0.379181
-0.185496
0.180398
-0.391257
0.015695
-0.866903
-0.279700
0.100588
1.115970
-0.699762
0.394015
0.221324
1.242751
0.166958
-0.255484
-0.167758
0.759826
1.069481
0.782619
-0.007496
-0.717439
0.314421
-0.057104
-0.346132
-0.689002
2.268794
0.152319
0.719277
-0.707327
0.873704
-0.915147
1.534417
0.176456
-0.219786
1.337554
1.156198
-0.105762
-0.264571
0.132563
-0.320789
1.206466
0.218965
-1.053850
-1.645113
-0.389341
0.748845
0.760735
0.584822
-2.398621
-0.042176
0.894255
0.253188
0.293947
-0.930605
-0.632067
2.531803
0.191047
-0.199309
1.677019
-0.217420
-0.358374
-1.138298
-0.887158
0.409105
1.138264
-0.241463
-0.229631
-0.019196
-0.719009
0.770992
0.066847
-0.624897
0.859785
0.307601
-0.338489
0.030657
-0.122209
-0.402084
0.471706
-0.583518
-0.456060
0.266897
1.651940
0.930875
-0.036366
0.804381
-1.091161
-0.371443
1.349269
-0.105005
-0.596494
-0.450166
2.055232
0.906060
-0.446258
-0.102817
-0.977999
0.243381
0.763715
-0.080884
1.361086
-0.676368
0.162969
0.387650
0.570656
-0.296717
0.591411
0.049083
0.064018
-0.421461
0.468319
-0.043000
-0.391191
0.753382
-0.587536
-0.320258
0.238073
0.359479
0.026372
1.067283
0.199984
0.780435
0.393010
0.687496
-0.218620
-0.323207
0.949345
-0.586824
-0.604033
0.408305
-0.271364
0.056754
-0.153141
-0.534449
0.252442
0.174917
0.871683
0.296457
0.842371
0.062449
0.672422
0.980385
-0.787334
-0.132504
-0.040142
-0.087205
-0.229818
0.198124
-0.358871
0.759908
0.257153
0.316677
0.798280
0.688231
0.502972
0.377957
-1.550917
0.654717
0.197524
-0.443972
0.437171
0.529456
-0.136195
0.127270
-0.598837
-1.089202
-0.185934
-0.208297
0.069429
0.238515
1.321102
-0.047333
-0.854701
0.443506
0.183689
0.305768
-0.354390
-0.488885
0.295686
-0.100461
-1.323061
-0.207463
-0.165910
2.410080
0.248252
-0.312937
0.212546
0.126223
-0.010406
2.680440
-0.552878
-0.538141
0.762367
0.038833
1.066038
-0.320147
1.505503
0.446904
0.312643
0.334944
-0.106116
0.553276
-0.374618
0.300355
0.177661
1.150702
-0.074339
-0.475756
-0.547473
0.980842
0.775163
1.146018
0.566792
-0.595163
0.090269
0.709030
-0.932268
-0.061889
-1.718603
0.384988
0.166969
-1.658210
-0.053145
0.030141
0.208836
-0.555242
0.090801
-0.838801
-0.148152
0.498360
-0.717008
-0.106036
-0.188909
0.719332
1.331002
-0.571505
1.911195
-1.124744
-0.208514
1.456452
-0.150575
0.022634
-0.213205
-0.005648
-0.379041
-0.821829
1.023989
1.958045
-0.430453
0.032214
0.752145
-0.151183
-0.464581
-0.842633
1.163671
-0.467148
1.912392
-0.718174
-0.315390
-1.400449
0.926040
0.149042
0.805688
0.408427
-0.830247
0.472397
0.467948
1.261996
-0.014738
0.143453
0.233685
0.118632
-0.923940
-0.279445
0.759794
-0.828064
0.082234
0.091853
0.564861
0.300758
0.814011
-1.278311
0.130620
0.980722
-0.220112
-0.321019
-0.096916
0.548160
0.710919
0.324921
0.193458
0.461595
0.941066
-0.844701
0.424289
-0.051846
-0.116779
-0.165316
-0.893366
0.133908
-1.135025
1.401586
-0.945162
0.729045
