0.317331
0.498734
-0.014002
-0.476874
0.048397
-0.599423
0.436822
-0.699091
-0.192833
0.506143
2.177033
-1.256735
-1.253379
0.609594
0.475832
0.243631
0.576631
0.104510
-0.049773
-0.151586
-0.244995
-2.435270
0.370358
1.129912
0.289920
-0.902112
1.601443
-0.103127
0.875820
-1.193373
0.969721
1.191126
1.324900
-0.229461
0.007443
-0.299672
0.021866
1.417715
1.617741
-0.532874
0.905060
1.149530
0.924326
-0.338390
0.187366
-0.344094
-0.809734
0.682530
-0.883576
0.445771
0.792910
-1.374927
1.495033
0.199050
-0.474480
0.820706
0.163427
-0.087496
3.039447
0.329215
0.721170
1.533721
0.443151
0.716444
-0.578308
-0.307783
-0.299172
0.002787
0.373620
0.925850
0.199636
-1.992213
-0.243290
0.934275
0.137158
1.106626
-0.060279
2.284749
-0.474861
0.244565
-0.315671
-1.176314
-0.007338
-0.448180
0.248467
-0.410311
0.656311
0.135285
0.690617
-0.798665
-0.445598
0.191960
0.023166
0.150072
2.751523
1.391236
-0.110194
0.364473
-0.239834
0.536096
0.417489
-0.883647
1.303690
0.172352
0.184385
-0.262968
0.003392
0.687528
-0.177240
-0.143683
-0.569616
0.958491
-0.463472
0.803665
-0.487184
1.070913
-0.392543
-2.401289
0.399114
-0.298447
-0.401558
-0.934689
-0.600062
0.392519
0.236328
0.001346
-1.281526
-1.395995
-0.154648
0.064269
0.084965
-0.274318
0.665652
-0.220211
-2.083007
0.458756
0.751873
0.336704
1.948585
-0.031176
-1.285392
-0.061146
-0.933363
0.044893
-0.108857
-0.211515
-1.045377
1.542484
-0.259799
-1.701745
0.600813
-1.021195
0.584793
0.113188
-1.221438
0.953942
-0.672406
-0.069046
-1.379498
1.038034
-0.342190
0.534151
-0.224580
-0.248455
-1.167838
-0.409484
0.726839
-0.507068
-2.768187
-0.489941
0.062060
-0.150400
0.694116
-0.091590
-0.205290
-0.133106
0.062993
0.381078
-0.065201
0.382609
1.014360
-0.564280
-0.176214
-0.243694
-0.046367
-0.330093
-0.491097
0.189252
0.647788
1.156953
0.571923
2.050312
-1.434627
0.336840
0.083714
-0.695114
-0.275951
0.478731
0.226902
-0.328411
0.136366
0.296681
0.464818
0.077946
0.891379
0.793011
0.770460
-0.041436
0.004494
-0.210054
-0.187581
-0.059371
-1.181720
1.730562
-0.745483
0.064770
0.420009
0.090542
0.090421
0.504209
-1.289442
-2.017297
-0.388670
0.698169
-0.571221
0.270744
0.559006
1.466321
0.128565
-0.066752
-0.209151
0.035704
-0.320846
0.204492
1.208015
-1.802841
-0.543893
-0.188782
0.562393
0.644200
0.311367
1.177584
0.361454
0.464069
-0.282648
0.708857
-2.825321
-1.052286
0.897857
-0.833691
0.861718
-0.833168
0.786993
-0.295323
0.980761
0.838335
-0.087370
1.180664
-0.045054
0.338545
-0.448418
-0.914443
0.007392
0.309398
1.508819
-0.890904
-0.033550
1.268865
-0.285389
0.315912
-0.097008
0.024514
-0.207342
-0.219722
-0.037000
0.260855
0.797931
0.268915
-0.157009
-2.412410
0.108253
-0.977809
0.657574
0.201630
0.716710
0.412338
0.423080
0.555109
1.818994
1.562363
1.369428
0.477217
0.298293
-0.543984
-1.093417
-0.408980
0.833381
0.245068
-0.756464
0.473363
0.238145
0.200073
0.095789
0.593107
0.627760
-0.066951
0.677813
0.034174
-0.149569
-0.275033
1.792763
0.115663
-0.003343
-0.473592
0.850319
-1.008746
-0.097940
0.159104
-0.774205
0.237406
0.045682
-0.259294
0.634794
-0.345683
0.750977
-1.099220
-0.190504
-0.000849
0.075194
0.172231
-0.629796
0.128461
0.471873
-1.103626
0.291610
0.355954
0.713760
-2.852338
1.162200
0.161060
-0.646893
-0.192812
0.103664
-0.381730
-0.393519
0.593061
-0.086411
0.117671
-0.560523
-0.504983
0.740774
0.839441
0.290812
0.148106
-0.580602
-0.671921
-0.125291
0.858188
-0.331437
0.889750
0.549190
0.824403
-0.320329
-0.161550
-0.243243
-0.234096
0.766675
0.203695
-0.208571
0.832407
-2.020377
0.901081
0.399947
0.844723
-0.634685
0.197194
-0.264534
0.143839
0.493303
-1.733747
0.523451
-0.220043
-0.292670
0.337275
-0.225930
-3.508174
1.025195
-0.059310
1.067662
-0.110862
-0.097310
-0.007876
-1.305356
-0.644134
-1.849763
0.250425
0.165696
-0.398662
-0.307041
0.070429
-0.190142
2.219881
-0.030821
-0.058194
-0.031788
-0.202422
-0.228156
-0.013155
0.261330
0.848496
1.050025
0.055769
-0.862786
0.186593
1.200429
-0.210260
0.191886
1.578830
-0.307450
0.592549
-2.435140
-0.188699
-0.528571
0.292982
0.022594
1.200443
0.532627
0.327935
0.595923
0.625280
-1.483662
-0.263256
-0.144042
-0.737735
-0.059593
-2.202008
0.508850
-0.298261
0.037679
-0.160567
-0.284628
1.322877
0.158715
0.165447
0.180269
-0.344946
-1.018097
0.185394
0.069131
0.233748
-3.347600
-1.189234
-1.162218
0.644787
1.217702
3.107323
-0.080758
0.084459
-0.258464
-0.803329
0.348118
1.190123
-0.059817
-2.058112
0.192270
-2.166576
0.021987
0.364243
-0.139656
0.166623
-0.236152
-0.080410
0.005323
1.218668
-1.294985
-0.037906
-1.060272
-0.059773
-0.316582
-0.652266
-0.003023
-0.299090
-3.273151
0.900433
-1.190008
-0.657835
1.302162
-0.095613
0.219846
0.522911
-0.316994
-0.416186
-0.133110
-0.125928
0.814822
0.162256
1.515796
-0.558022
-0.077740
-0.211722
