-0.013403
0.962490
-0.742884
0.780079
-0.932612
-0.409297
-0.524982
-0.137890
-0.281031
-2.425935
0.243842
1.661541
-0.257455
0.355260
0.121286
-1.484587
-0.413267
0.097929
0.200220
-0.241687
-0.276279
0.094207
0.523462
-0.415826
-0.092118
0.093006
-0.359794
0.455385
-1.284879
0.905650
-0.099838
0.291776
0.463169
-1.255309
-0.513095
-0.017609
0.173793
-0.966411
-0.964451
0.035020
-0.340172
1.573863
-1.201882
-1.270167
0.375386
-0.034558
0.676305
-0.142522
-0.201819
-1.324019
-1.425981
-0.582035
-1.255649
-0.260748
-0.129568
0.845317
0.365099
-0.227314
-0.419133
0.387343
-1.562659
1.310324
-0.411894
0.101513
0.144213
-1.408329
-0.293550
-0.085780
-0.914532
0.394560
0.114398
0.369379
-0.560355
-0.186204
0.456938
0.275216
0.375174
-2.910030
0.144425
-0.317852
-0.109318
-0.319242
0.256652
-0.263778
-0.301479
0.423766
-0.170470
1.940322
-0.331257
2.192750
-0.089765
-0.200180
0.703298
-1.004714
-0.943349
-0.869609
-0.267225
-0.207454
-0.342484
0.438756
-0.995389
0.487910
-0.597763
-0.172566
0.220295
0.108544
0.272733
-1.095788
0.022007
0.886382
0.359410
0.329473
-1.296355
-1.490774
0.288771
-0.212848
-0.072147
0.482222
2.018033
0.200669
0.247657
-0.251251
0.790868
0.064999
0.581949
-0.669415
0.326215
1.891941
1.095988
0.160984
-0.564353
0.407390
-0.599360
0.848207
-0.208910
-1.094187
0.251303
0.093620
1.516711
-0.561106
0.761468
-0.236955
0.485496
0.058824
0.547423
-0.079080
0.507441
-0.325614
0.279529
0.727198
-0.588428
0.133001
0.416135
0.671322
0.762812
-0.097274
2.012320
-0.804717
0.681491
-0.414026
0.152510
-0.475880
2.283219
0.624067
0.078878
1.052611
-0.829504
2.233204
2.841101
0.752703
0.102277
0.593775
-0.191521
-0.089418
0.347056
0.280485
-0.251089
1.061003
0.305189
-0.507416
0.342646
0.087866
-0.707793
-0.251879
-0.031763
-0.751835
0.495742
0.059914
1.534263
-1.117213
-0.304037
-0.181894
1.345190
0.147858
-0.195470
0.157095
-0.713743
0.497659
1.283714
-0.541974
0.567909
0.185415
0.123918
0.393780
-0.210349
1.353174
0.033631
0.906983
1.754031
0.204999
-0.222354
-0.076451
-0.219367
-0.384254
-0.466317
-0.624394
-0.375053
-0.527509
-0.989999
-0.075045
0.896271
-0.323379
-0.877266
0.148305
0.536977
0.514002
1.104504
0.605864
-0.977606
-0.488163
1.582743
-0.091600
-0.272688
1.182914
0.505545
0.404459
1.733136
-0.352698
0.123770
-1.420061
0.836803
0.174110
0.275628
-0.092613
-0.524435
-0.199678
0.942029
0.936795
0.451745
-0.151871
-0.109472
1.874538
-0.756499
-0.197469
0.198919
-0.808053
-0.535566
-0.294067
-0.074089
0.577143
0.928315
0.246454
0.634231
-0.276032
-1.299642
-0.014631
-0.174483
0.393599
-0.113169
0.918228
0.089862
-0.478896
0.028196
-0.030130
0.339047
0.205331
-0.593095
0.040068
0.017783
1.390859
0.122042
0.044050
0.694766
1.114156
-0.059375
-0.184383
-0.730247
-0.004401
0.362534
0.101210
-1.346108
0.391541
-0.172622
0.562485
1.552993
-0.300095
-0.203392
-0.450222
0.760748
-0.979346
0.509741
-0.213523
-0.144318
-0.409647
0.586013
-0.782601
-0.631494
-0.163262
-0.052079
0.658329
-0.070246
1.762364
0.243286
1.091648
-2.215410
-0.331761
0.341408
0.554033
0.660581
-0.004065
-0.005712
-0.392679
0.527698
0.020091
-0.341614
-1.014770
0.108284
1.049180
-0.536307
0.110891
-0.712888
-1.031055
0.416691
1.103153
0.357474
1.130549
-1.167364
2.507668
-0.889224
-0.146792
0.420498
-0.425761
-0.293655
-0.086845
0.702481
-0.933381
-0.137108
-0.438572
1.278851
1.204742
0.063689
-0.055237
-0.619433
1.181036
0.189500
0.371050
0.421059
0.702151
-0.321728
-0.716402
-0.592888
-0.421534
0.106787
1.544079
1.479791
0.887634
-0.901229
1.069425
0.199177
-1.083350
0.459730
-0.305757
-0.174360
0.358646
0.037266
0.086305
1.499204
-0.053371
-0.141309
-0.314635
1.109171
-0.055080
0.227469
0.227707
0.444784
1.614282
0.992408
0.642221
-0.179161
1.698309
-0.708441
-0.347954
0.880390
0.907735
-0.696377
0.490717
-0.534814
-0.527967
-0.033082
0.965930
0.710215
0.527890
-0.440674
0.114825
0.686245
0.668153
-0.657379
0.425195
0.599230
-0.666060
1.054433
0.498045
-0.182013
-0.623817
0.657329
-0.166690
-0.986893
-2.190618
-0.143721
0.417659
0.554817
0.403736
1.380963
0.329115
-0.622850
-1.077247
-0.767745
-0.161286
-1.864848
-0.460078
2.111801
0.298831
-0.652934
-0.229780
0.338477
-0.601821
-0.479899
0.336914
0.182295
-0.947704
0.356769
-1.717395
1.548904
0.128990
-0.265669
0.411630
0.401112
-0.324719
-0.569784
-0.505260
-0.290255
0.059579
0.881701
-0.775451
2.137855
-0.521424
-0.216650
0.541931
0.172213
0.552114
0.178996
0.413759
-0.569699
2.437418
0.596481
2.047232
0.211960
0.330813
0.324187
0.118676
-0.000302
0.281204
1.281179
1.107018
-0.570148
0.998503
1.219298
-0.396598
-0.797706
0.069964
0.098035
-0.472241
-0.634902
-0.459382
0.728668
-1.165897
-1.096871
0.253895
-0.617699
-1.675207
0.374758
-0.120970
-0.132648
-0.072566
-0.211453
0.954995
-1.971250
-0.593950
-1.362121
0.184678
