0.771046
0.167583
-0.199880
-0.510142
-0.391900
-0.039064
0.018742
0.553296
-0.158309
-0.915145
0.219055
-0.186993
-0.101654
0.738178
0.274114
-0.473293
0.424038
0.057799
0.805125
0.313024
0.079502
-0.499183
0.558875
-0.361903
0.001998
0.446386
-0.246013
0.522392
0.632041
0.054139
0.746493
-0.948336
0.359605
-0.658080
-0.604788
-0.048835
0.388336
-0.438785
1.245066
0.315787
-0.054358
0.858449
0.155589
0.506620
-0.189471
0.074637
-0.408861
0.127010
0.045119
-0.281608
0.445947
-0.042202
1.551005
-0.119592
-0.143255
0.672222
-0.000437
0.193014
1.165337
0.665706
-0.729416
1.965982
0.548048
1.130396
0.025024
-1.140775
-0.524211
0.318578
-0.120122
0.848870
0.699289
0.216425
-0.196285
0.134787
-0.306167
1.061972
0.492530
-0.261551
-0.346458
-0.342224
-0.003929
0.154065
0.604576
0.145802
-0.206605
-0.258068
0.173078
1.293605
-1.240953
0.474471
-0.071872
-0.062366
0.651269
0.202552
-0.279664
-0.026625
-0.333505
0.449414
-0.069880
-0.205820
0.001434
0.038727
-0.295535
-0.154161
0.529216
-0.238135
-0.481143
-0.873873
0.240831
-0.625877
-0.283550
0.540918
-0.740737
0.468322
-0.042143
-0.439827
0.245289
-0.399748
2.102371
-0.130411
-0.334295
-0.480279
0.243562
0.502192
0.942464
-0.108522
-0.172976
-0.497942
0.322587
0.440106
-0.154971
0.571008
-0.350958
-0.286827
-0.313365
0.243494
-0.293576
-0.606162
1.707102
-0.534343
-0.177172
-0.264633
0.320355
0.402489
0.115927
-0.089312
-0.466010
0.871456
0.644336
-0.389496
0.033682
-0.694024
-0.530939
-1.536693
-0.334368
-0.025273
1.022454
-0.089097
-0.481071
0.435710
0.169251
-0.337566
0.167128
-0.229379
-0.317607
1.064157
0.388341
0.095907
-0.082614
-0.348722
0.521700
0.034247
-0.309652
0.540644
1.378589
-0.262946
-0.066125
2.097588
0.810684
-0.294539
0.366569
-0.444000
0.447564
-0.116039
0.337970
-1.095080
0.181809
-0.056039
0.611101
0.774023
0.442387
1.040771
1.264830
-0.128702
0.139686
0.017708
-0.308927
-0.223044
0.810528
-0.231499
-0.078579
-0.843710
-0.621645
-0.237868
1.428264
0.210719
1.109145
-0.324834
-0.411221
1.340690
-0.059739
-0.187058
-0.052055
-0.623184
-0.304197
-0.236673
-0.529692
-0.517392
0.162218
0.044811
0.551466
-0.705017
0.062172
1.389107
0.161917
0.375854
-1.213923
1.780156
0.218347
-0.077278
1.035553
0.388556
-0.072119
-0.193296
0.505473
0.350413
1.983784
-0.015983
-0.795708
-0.038469
-0.153217
-0.459352
0.074785
0.495614
-1.811599
0.060389
0.087928
0.271374
0.709777
-0.789801
-0.806254
0.905265
0.395585
-0.255594
0.943289
-0.338402
-0.139759
-0.307768
-0.554175
0.088496
0.144591
-0.413338
0.271975
0.162904
0.205725
-0.229209
0.789495
0.426471
0.971492
0.207692
-0.895564
-0.219378
-0.026168
-0.306306
-0.091709
-0.396864
-0.030161
0.013507
0.547614
0.134452
0.510833
0.122940
-0.173735
-0.273406
0.811822
-0.195213
-0.282049
-0.365893
1.564455
0.369379
0.253813
0.159202
-0.166570
-0.538281
0.309806
-0.173155
1.226942
-0.530097
0.515890
0.205272
0.720124
-0.138103
0.743992
0.390437
-0.018502
-0.720349
1.126871
-0.554635
-0.934676
0.102760
-0.411796
-0.190162
0.264526
-0.311492
-0.789624
0.035030
0.319201
0.749590
-0.094755
-0.142294
-0.211088
-0.206434
0.895040
0.320102
0.167684
-0.438197
0.779621
-0.345759
0.517814
-0.279596
-0.864449
-0.262962
0.591017
-0.060091
0.521848
0.646219
0.364282
-0.283134
-0.831731
-0.151442
0.000241
-0.094739
-0.392638
-0.408134
-0.178363
0.567609
-0.012458
0.598476
-0.116398
1.194041
0.450232
0.729441
-0.372971
1.915737
-0.312257
0.305877
0.275420
1.131560
-0.331281
-0.989315
0.140656
0.137593
-0.784406
-0.372276
-0.504700
0.233529
0.140750
0.725162
0.127811
0.401067
-0.953140
0.474993
-0.144805
1.140728
-0.021658
0.265531
-0.485875
0.459839
0.516522
0.415347
0.525432
-0.252741
-0.058413
-1.061507
-0.023132
0.255697
-0.118005
-0.537172
1.179475
0.143945
0.115008
-0.418994
0.065513
-0.073346
0.048113
0.497328
-0.720898
-0.352957
-0.232510
0.066398
-0.577611
1.323831
0.028994
0.088572
-0.380044
0.346293
0.248920
-0.027943
0.831070
-0.289351
0.766761
1.093002
-0.718329
0.174104
-0.664169
-0.059456
0.284697
-1.326341
-0.420347
-0.074516
-0.429488
-0.429354
-0.616649
-0.313788
-0.171536
0.480043
-0.122753
0.472223
-0.170068
0.411212
1.604300
-0.093873
1.533651
-0.934485
-0.194382
-1.213990
-0.389734
-0.038677
0.036730
-1.307747
-0.321499
-0.091507
0.336249
0.917522
-0.382568
0.085320
-0.398108
-0.307500
0.670928
-0.436100
-0.583064
0.912173
0.149758
-0.557799
-0.309539
1.053220
0.045166
-0.265320
0.188027
-0.501327
-0.535612
0.776210
-0.430292
-0.338673
0.809741
-0.201243
0.769827
1.169411
-0.800557
0.667732
0.124483
-0.320869
0.287196
0.470631
-0.414892
0.746953
0.098242
0.152415
-0.414766
0.140982
-0.109181
-0.287980
-0.915331
1.606275
0.241671
0.085129
-0.184770
0.315182
-0.126646
-0.459239
1.098963
-0.694028
-0.111692
-0.158241
-0.455505
0.814193
-0.212201
0.095124
-0.296845
0.721214
