-0.384091
0.211714
0.337509
0.389289
0.557981
-0.040388
-0.876326
-0.123418
0.386190
-1.202711
0.054597
1.422411
-0.134261
0.744134
-0.054606
-0.507195
-1.041526
0.844300
-0.255317
-1.548391
-1.158273
0.245951
0.043045
-0.616724
0.108891
-1.291723
-0.829790
0.115514
-2.535642
-0.046584
-0.581424
0.480371
-0.459796
-0.267607
-0.783544
2.456628
-0.100544
-0.768670
-3.401720
-0.160287
-0.200681
1.583269
-1.391956
-2.080209
0.972369
-0.213195
-1.781451
-2.600622
0.042458
-0.543798
-2.185853
-0.303715
-2.726412
-0.285776
0.290807
0.033536
-0.213633
-0.772469
-0.908164
-0.977729
-1.180310
-0.465586
-0.084853
-0.536118
0.328465
-0.319851
-0.586662
-0.073740
-0.675780
-0.068301
-0.237276
0.858190
-0.393503
-0.280069
0.525554
-0.267254
0.314884
-1.489584
-0.041994
0.084447
0.104891
0.027001
-0.247830
-0.965304
-0.544124
0.210679
-0.935864
2.286210
-0.579322
1.069055
0.024310
-0.378977
-0.202679
-0.120387
-1.904903
-0.536397
-0.147956
-0.793177
0.249159
0.583682
-0.013887
0.680107
-0.681512
0.240326
-0.440339
0.384567
0.584808
0.023546
0.239111
1.198645
0.649209
0.688772
-0.243809
-1.262022
-0.590693
-0.241868
-0.099459
-0.003199
0.239496
0.251582
-0.094649
0.925266
0.250806
-2.972330
-1.763632
-0.637731
0.843461
1.587846
0.044530
-0.095727
0.095890
-1.222657
-0.418442
0.219915
0.908817
-1.016279
0.760184
0.201961
0.862183
-0.898512
0.818455
-0.297227
0.722424
-0.105143
0.324149
-1.156003
0.698224
-1.751040
-0.206321
1.074213
-0.061117
0.058446
0.961300
0.222340
0.645802
-0.825334
1.517705
-0.750364
-0.275077
-0.872996
-0.092098
0.113999
2.017016
1.966775
0.467525
-0.356936
-0.664135
2.278412
0.666216
0.398044
-0.060237
-0.580513
-0.257742
0.265136
-0.403925
1.241479
-0.332467
0.053914
0.544942
-1.167527
0.634481
0.443913
-0.423198
-0.111188
0.322109
0.278387
0.481567
0.062882
2.050086
-1.691416
-0.749919
-0.353737
0.041077
0.844532
0.134258
-0.613189
-0.542687
0.794962
0.758945
-0.255846
0.366115
0.404872
-0.821115
-0.797248
-1.458683
0.473024
0.394132
1.073654
4.030853
-0.975009
-0.176109
-0.178852
-0.476355
-1.104257
0.577381
-0.774540
-0.328896
-0.473911
0.290693
-0.601023
-0.619599
-0.504797
0.607605
-0.930972
-1.319529
0.576796
0.595056
-0.363792
-1.534527
-1.237187
0.651645
-1.355269
0.055034
0.766214
0.431866
-0.365741
0.864675
-0.370405
-0.024477
-0.831476
0.190287
0.225143
-0.247991
-0.251343
0.286858
-0.717780
-0.208205
-0.184147
-0.041227
0.669029
0.329081
0.700906
-1.675650
0.027062
-0.656093
0.617221
0.167381
-0.386753
-0.561650
0.184599
0.568297
0.134697
0.839706
-0.729995
-0.435820
0.738018
0.571292
-0.313173
0.210299
0.880263
-0.471289
-0.047703
0.157642
0.590513
-0.074459
0.554020
-0.338200
-0.713592
-2.008512
1.008234
-0.366529
0.070621
1.679371
1.446695
-1.915355
-0.446217
1.306498
0.388298
-1.165536
-1.146939
-0.895822
-0.239828
1.039888
1.351399
1.161787
-0.092037
-0.377290
0.306119
0.555870
-1.576933
0.378225
-0.165417
0.899129
-0.671520
0.615297
0.117077
-1.301989
0.841270
-0.234718
0.084077
-0.489777
0.907120
0.396413
1.012799
-1.007232
0.343836
-0.092642
-0.505274
-0.169031
0.110319
-0.153935
0.034536
-1.279039
0.891803
-0.945044
-0.160575
-0.658773
1.292345
-1.407966
0.083700
0.193424
-0.605199
-0.408900
0.417467
0.607087
0.076970
-0.673608
3.306413
-0.915800
-0.038508
0.715753
-0.207586
0.322588
0.223091
-0.135899
-0.665347
-0.772375
-0.174587
2.091024
-0.014932
-0.372101
0.508597
-0.308406
-0.380978
0.467655
-0.238832
-0.386605
-0.858789
0.282269
0.922884
-0.545408
-0.754942
2.348943
1.785042
2.779068
0.532625
-0.203901
0.819294
0.963092
-1.288583
1.161535
-0.949454
-0.026622
-0.642315
-0.272166
-0.026112
0.326385
-0.135034
-0.325824
-0.230466
-0.014654
0.097227
-0.085427
0.889751
0.404211
0.775956
1.332282
1.025238
-1.876958
1.134952
0.736424
-0.061811
0.213089
2.355747
-0.340767
0.498017
0.246082
-0.392816
-0.021411
1.186972
0.502062
-0.994450
-0.970901
-0.013443
-0.028538
0.333179
-0.261250
0.814087
-0.896564
-0.225946
-0.537038
0.647485
0.463087
-0.875570
0.768269
-0.320496
0.127955
-1.033721
0.008873
0.374077
0.865110
0.879392
1.742080
0.009003
-0.485512
-2.003236
-0.356582
-0.513667
-1.247250
-1.011804
0.045385
0.768310
-0.475134
-0.014951
0.429757
-0.247970
-0.439260
-0.648641
-0.062577
0.317587
-0.179517
-1.741989
2.395817
0.894905
-0.911643
-0.118208
1.577630
0.321740
-1.939391
-0.311983
1.710396
-0.275619
0.734044
0.101953
1.875453
-0.920809
-0.056247
0.131532
-0.861927
0.892270
-0.041808
-1.348250
0.897046
2.576991
0.567557
2.302921
-0.379290
-0.441464
0.653757
-0.596923
0.506679
0.363315
0.531512
0.665290
0.566655
-0.896594
0.452028
-0.126680
-0.589623
-0.351839
-0.304201
-0.262558
-0.145341
-0.726325
0.270262
0.359228
-0.345500
0.041429
-0.204682
-0.230898
-0.532890
1.041367
-0.010075
0.255810
0.843590
0.385245
-1.997008
-0.376355
0.015797
0.575107
