0.235165
-0.212499
0.994482
-0.324435
-0.131435
0.008887
-0.015022
0.053130
0.091566
0.574205
-0.270368
-1.019099
-0.087201
0.376147
0.031051
0.313523
0.314308
0.324770
-0.075736
0.200671
0.377795
-0.410741
0.017630
-0.593077
0.214536
0.269478
-0.136231
-0.030338
-0.036114
0.176915
0.254034
-0.003621
0.092048
0.038290
0.054208
1.166580
-0.062533
-0.237462
0.728130
-0.006207
-0.273523
0.108666
0.528618
-0.022381
-0.828998
0.073428
-1.163587
-0.543483
0.344865
0.398156
0.323082
-0.209405
0.784585
-0.317497
-0.208609
-0.262507
-0.649765
0.037532
0.005977
0.026620
-0.280998
-0.161147
0.059027
-0.099865
-0.089273
-0.136459
-0.332904
-0.238078
0.056407
0.362342
0.444667
-0.011888
0.319939
-0.052437
-0.363263
0.362116
0.631292
0.513831
-0.371237
-0.002972
-0.105230
-0.057647
-0.262856
-0.203782
0.296502
-0.222754
-0.094018
0.506508
-0.123305
0.335521
-0.050068
-0.175457
-0.314575
0.168285
-0.338051
0.149101
-0.016573
0.182482
-0.016721
0.142588
-0.179958
-0.124203
0.626108
-0.019086
0.710150
-0.029106
-0.051382
-0.073368
0.612058
-0.266680
0.165823
-0.134278
0.197861
-0.159600
-0.020270
-0.516725
-0.066739
0.855709
-0.019590
0.272664
-0.330308
0.200521
-0.072025
-0.913397
-0.713414
0.119399
-0.300657
-0.365547
0.330972
0.182660
0.177726
0.514029
-0.045645
0.204369
0.221958
-0.349623
-0.096381
-0.058059
0.763669
0.272740
-0.353622
-0.202504
0.353273
-0.030526
-0.052415
-1.199155
0.172219
0.332044
0.346730
0.121337
0.278634
0.029961
0.083855
-0.317986
0.347993
0.367515
0.129649
1.353802
0.192313
-0.248094
-0.368740
0.102146
-0.119914
0.264314
0.103922
0.451565
0.661582
-0.642230
-0.487337
-0.041994
0.296555
-0.353157
-0.204111
-0.015207
-0.233189
-0.055431
-0.030726
0.150079
0.203582
-0.310310
0.331171
-0.399363
0.083204
-0.026036
0.377056
0.032337
-0.099422
-0.187175
0.803457
0.283873
-0.033968
-0.134015
0.304964
-0.062492
0.041751
-0.055763
0.305027
0.355047
0.138989
-0.197463
-0.049080
-0.640442
0.038778
-0.704449
1.222071
-0.989884
-0.234150
0.085735
0.628149
-0.340761
-0.127201
-0.087449
0.138642
1.525989
0.403083
-0.015043
-0.171846
0.346471
0.017180
0.033952
-0.014126
0.885495
0.620865
0.293215
-1.432366
0.095889
-0.577826
0.980844
-0.028766
-0.169732
0.569998
0.257244
-0.028711
-0.256953
0.115387
-0.542175
0.442527
0.211871
0.089166
-0.487650
-0.397355
0.216141
0.161045
0.248725
-0.548981
-0.116485
0.245080
0.028051
0.395046
-0.333268
-0.039071
1.151327
0.311615
-0.100859
0.889762
-0.062356
-0.128475
-0.097759
-0.419876
0.460024
0.250601
0.096463
-0.683594
-0.155779
-0.013693
0.273892
0.684221
-0.062147
0.048110
0.438836
-0.562451
0.448473
-0.078335
-0.154651
0.033025
-0.128709
-0.117970
0.044354
0.780098
0.181752
-0.042199
0.101761
0.151919
-0.034138
1.355271
0.174214
0.248448
-0.246888
0.908503
0.956851
0.009035
0.065154
-0.057628
0.297347
-0.208287
-0.027191
0.223658
-0.150219
-0.122971
0.246196
0.352737
-0.165168
0.478442
-0.024711
0.057500
-0.149456
0.169390
0.123627
-0.112825
0.051149
-0.420148
-0.376409
-0.063186
-0.121137
0.686686
0.055115
0.368063
-0.187138
-0.132199
0.425567
-0.120082
-0.099132
0.024539
-0.631033
-0.290438
0.075070
-0.223782
-0.319558
0.131347
-0.158531
0.267625
0.298089
0.361664
0.037179
0.325783
-0.363044
0.251237
-0.231106
0.482183
0.139533
-0.151255
-0.054166
-0.073017
0.107754
-0.349617
0.410001
-0.272046
0.172679
0.545711
0.311078
0.281054
-0.070506
-0.914226
0.472334
-0.026994
0.016387
-0.113081
0.271533
-0.044642
0.099229
0.089145
-0.095297
0.635205
0.345866
0.495978
-0.050452
0.524440
0.127607
0.065169
0.574064
0.072943
0.394000
-0.128332
-0.553671
0.057993
-0.039122
-0.821237
-0.116013
-0.154101
0.953743
0.251640
-0.205865
0.096803
-0.096683
-0.041164
0.844858
0.027163
-0.162879
0.778096
-0.046574
0.756256
-0.071340
-0.097155
0.657484
-0.329262
-0.131586
-0.274050
0.549918
-0.104590
0.165331
0.377979
0.142366
-0.468124
-0.162531
-0.632112
0.159175
0.690155
0.210160
0.026955
0.105916
-0.009652
0.041490
0.047885
0.081921
-0.082116
0.314170
0.848348
-0.572030
0.084764
0.070144
0.199160
-0.179077
-0.008839
-0.212414
0.219167
0.616717
-0.034972
0.189167
0.744908
0.060703
0.291438
-1.107323
0.402880
0.204248
-0.341210
0.329507
-0.031991
0.088614
-0.315400
0.216935
-0.135157
0.084588
-0.084045
0.700957
0.124114
-0.283615
0.068786
0.168769
-0.437895
0.063356
-0.838752
-0.509619
0.903535
0.268153
0.212538
-0.000242
0.527433
-0.044953
0.426255
-0.121918
-0.751369
0.196547
0.265374
-0.043865
-0.340661
0.569978
0.401300
-0.234393
-0.316826
-0.482263
0.062525
-0.081172
-0.032128
0.244437
0.128209
0.267980
0.212969
-0.874942
0.151081
-0.213414
-0.147069
0.140038
-0.086346
0.501418
-0.127726
0.485444
-0.125852
-0.172157
0.076742
0.151614
-0.312256
-0.204737
0.002100
-0.055743
0.019475
0.152110
0.169396
0.888847
-0.131458
0.108934
