0.224125
0.225248
0.441260
-0.128195
0.248822
0.295638
-0.137380
0.529188
0.763242
-0.826515
0.559556
-0.053284
0.336498
0.247633
-0.254080
-0.034813
-0.449826
0.993331
0.923481
-0.486220
-1.175059
0.617282
-0.109868
-0.514360
0.165128
-0.533725
-0.614791
0.045890
-1.986605
0.208389
-0.125402
-0.535754
-0.429824
-0.162621
-0.624101
4.223553
0.148246
-0.118978
-1.347207
0.239652
-0.669432
0.083600
0.609861
0.457418
1.081795
-0.073311
-3.558814
-1.684203
0.759539
0.391097
-1.956791
1.149747
-1.599278
0.004625
0.256559
0.029738
-0.833101
-0.097844
0.340032
-0.199157
-0.137490
0.582328
0.226270
-0.608235
-0.100358
0.622477
-0.509903
0.155333
0.156655
-0.768350
0.117520
0.837448
-0.076233
-0.409052
0.226310
0.683367
1.016246
-0.893450
-0.961712
-0.218521
1.476072
1.115302
-0.131330
0.459815
-0.199747
-0.162837
-0.318925
1.031476
-0.169668
0.339433
-0.064832
0.126913
-0.022103
0.743025
-1.378909
-0.254899
0.025373
0.064757
0.156604
0.066492
0.183383
0.369538
-0.265080
1.139965
-0.109836
0.027318
0.289776
-0.893710
1.043074
0.397824
0.568837
0.730939
-0.331744
-0.617265
-0.339784
-1.027431
0.145585
-0.058536
1.804567
-0.370390
-0.315852
-0.440349
-0.376070
-2.584688
-1.815693
-0.661525
0.137861
-0.169479
0.072207
-0.847713
1.162538
-0.661238
0.349342
0.065072
0.821251
0.804558
-0.496971
-1.323866
1.722519
-0.794189
0.029735
-0.145931
1.025720
-1.186306
-0.140522
-2.326080
-0.054415
0.745749
0.056126
-1.094163
0.276354
0.078878
0.717402
0.301357
0.430239
-0.209764
0.676249
0.846811
0.080362
0.337967
-0.533040
0.269089
0.774287
-0.031903
-0.158385
-0.452958
-0.278088
2.066843
-0.265711
0.397429
0.350991
-0.754917
-0.632955
0.326155
0.572439
0.491413
0.124653
0.128696
1.098928
-0.624300
0.470519
0.577195
1.211145
-0.274952
0.850756
-1.046936
0.875648
-0.156389
1.132535
-1.018715
0.039233
-0.313947
1.139569
-0.152425
0.256366
0.037080
0.226616
0.214173
0.986928
-0.255943
0.862960
-0.562807
-1.159720
-0.484647
1.021428
-1.421764
-0.840531
0.131028
2.460086
0.287186
0.137005
-0.246616
-0.344827
-1.327651
0.992953
-1.320886
-0.098395
-0.439055
-0.273437
-0.423691
-1.004975
-0.369574
0.376901
0.156487
-1.926331
1.124018
0.579245
1.293687
-0.907546
-1.364578
0.959014
-1.424979
0.140637
-1.088934
0.188525
-1.185966
1.256974
0.334662
0.473350
-0.736181
-0.900622
0.977643
-1.233187
-0.275296
-3.193062
-0.504218
-0.539083
-0.183989
0.240717
-0.752101
-0.368106
1.557359
-1.152168
-0.254780
0.464442
-0.221507
0.394266
-0.378270
-1.436000
-0.790202
2.242406
-0.657345
-0.050063
0.563221
0.241080
0.593686
1.331388
-0.592623
1.122337
0.991067
-1.344573
-0.217978
-0.132074
-0.466611
-0.396278
-0.053773
-0.406796
-0.726755
-1.421606
0.041961
-0.411727
0.064618
0.111748
0.518243
-0.849024
0.043971
0.009006
-0.353765
1.404333
-0.055750
0.097109
-0.288631
-0.549953
0.795073
0.535552
0.019186
0.076741
-0.311430
-0.093509
-0.630628
0.490097
-0.164927
0.584665
0.045286
0.286256
-0.486462
-0.704825
0.510668
-0.172686
0.661361
-0.597247
0.781645
0.670538
0.373863
-0.324976
1.478589
0.252710
1.001686
0.051948
0.981574
0.036343
-0.076817
0.089877
0.544488
-0.579982
-0.723014
-0.171205
-0.121655
0.020120
-0.573525
-0.162799
-0.435446
0.343894
-0.355046
1.019920
-0.296295
0.334583
1.451518
-1.948699
-0.075357
0.009886
0.076396
-0.000898
0.042607
-0.658677
-0.371573
-0.875280
1.004473
1.765110
0.003152
1.345013
-1.127966
-1.397623
0.643637
0.009600
0.016028
1.459314
0.321959
0.187912
0.485263
-0.493556
-1.056486
1.331084
0.274018
1.369090
0.325536
2.062847
0.464540
0.359956
0.284219
-0.404516
-0.290318
-0.307741
0.195387
-0.564180
0.009448
-1.327917
0.524582
-0.451330
-0.036730
0.012993
0.110383
-0.009977
-1.056361
0.072993
1.693719
-0.415539
-0.435978
-0.032590
0.563211
0.942844
-0.159119
0.824520
2.081053
-0.845983
-0.570569
0.544412
-0.856053
-0.122705
0.224406
-0.231326
2.164117
-0.618114
-0.998508
-0.915962
0.096711
1.304581
0.668667
0.228037
-0.472496
-0.256384
0.716646
1.235382
-1.094235
0.426376
-0.406653
1.309793
-0.294661
0.858558
0.684861
0.421362
0.089069
-0.214598
-0.173914
-0.948788
-0.406837
-0.442763
-0.569557
0.281633
-0.660259
0.682245
0.184183
0.102360
-0.827829
0.884174
-0.675622
-0.114916
-0.671634
-0.454928
-0.796442
-0.227561
-0.706966
2.564021
1.468357
-1.053839
-0.709602
1.031043
0.139365
-0.336228
0.403218
2.641062
0.742441
0.640163
-0.600638
0.417291
-0.832463
-0.106661
-0.230307
-0.187404
0.293479
-2.222073
0.180623
1.179500
1.062657
-0.580569
0.528899
0.490999
0.094903
0.007928
-0.356730
0.647999
-0.303890
0.584596
0.757102
0.194844
-0.224586
0.332699
0.222824
-0.734628
-0.350173
0.498523
0.532234
-0.374203
-0.448160
-1.216598
1.911204
-0.131280
0.443179
1.486075
-0.284249
0.004701
0.932922
-0.149011
-0.312478
0.289730
0.702011
-1.653542
1.077803
-0.345301
-0.404470
