-0.084288
1.063837
0.007417
0.452007
0.010671
-0.344373
0.029007
1.108214
0.509657
-0.351910
1.050341
-0.694328
-0.785277
0.117132
-0.124528
-0.168327
0.582785
-0.200782
0.075194
-0.520186
0.679538
-1.022605
0.485713
0.371406
-0.057527
-0.812918
-1.472139
0.435035
1.416588
-1.361206
0.128450
-0.005414
1.336029
-0.434218
-0.231852
-1.497121
-0.164803
-0.531585
1.908097
-0.352808
-0.052068
0.656211
0.519116
-0.114996
-0.468825
0.353502
0.733454
1.001362
0.518463
0.476769
0.918898
-0.704874
1.314360
0.235852
-0.143076
0.815495
-0.166452
-0.670808
-2.236898
0.326802
-1.234712
1.549834
-0.081263
0.256334
-0.466553
-0.517887
-0.910419
0.064445
0.065542
0.190234
1.006845
0.109805
-0.240156
-0.171702
0.751250
0.425103
-0.310259
0.304812
-0.180241
-0.074428
-0.373247
0.409730
0.021824
0.951939
1.261228
0.484475
1.060320
0.957994
-0.636920
-0.977395
-0.097595
-0.857838
0.284315
0.511718
-0.016301
-0.495871
-0.137893
0.233072
-0.202903
-0.084433
-0.046739
0.104599
0.914601
-0.686683
0.445674
-0.031412
0.166951
0.207775
0.036368
0.444099
0.068435
1.301005
-0.244051
-0.171507
-0.503458
0.004242
0.404063
1.413691
-0.375957
0.103474
0.493734
-0.054948
1.695604
1.273084
0.692028
0.095785
-0.502924
-0.698941
0.074734
-0.141128
-0.432927
1.216352
-1.441365
0.010995
-0.185862
0.520469
1.511967
0.461312
0.521939
-0.039096
-0.969056
-0.114562
0.078269
-0.534395
-0.225427
0.142521
0.282594
1.001902
-0.067862
2.680022
0.267393
1.021100
-1.349466
-0.558260
-0.202619
0.626300
1.460773
-0.686810
0.241363
-1.037164
-0.352188
-0.300989
-0.258598
-0.307288
-0.318384
0.211126
0.593776
-1.295146
0.508180
0.083029
0.098764
0.088683
0.226218
0.254692
0.380722
1.017994
-0.306494
0.280180
-0.242393
-0.485476
0.069078
-0.707395
0.185677
-0.008587
0.071035
0.149715
-0.451233
0.273824
-0.010718
0.265796
0.237871
0.948132
0.140569
-0.288286
-0.225935
0.754930
0.150225
0.385185
0.036960
-0.209658
0.116082
0.247914
0.509336
0.911160
0.569092
0.535545
-0.152834
0.474382
-0.538781
0.113165
0.043496
-0.120152
-0.800394
1.989868
0.112666
0.860271
-0.039837
0.049670
0.116790
-0.203946
2.047824
0.858584
-0.186183
0.475108
-0.524284
0.118615
0.349427
0.727779
0.426681
0.672605
-0.715165
2.022171
-0.194053
0.095141
0.314741
0.047703
-0.011733
-0.319669
-0.373225
-1.407703
-0.714925
-2.901201
0.042389
0.094574
2.567872
0.586457
-0.591384
-0.520720
-0.279206
1.507093
-0.064557
-1.369478
0.415868
-0.198051
1.055068
0.662554
-0.074900
-1.020241
-0.004487
0.657860
0.557618
-0.025168
0.044080
-0.195713
-0.876549
-0.556832
0.057180
0.186338
0.006470
-0.305129
-0.234803
0.037441
-0.100797
-0.105140
-0.130144
0.269662
0.218777
0.508906
1.846646
-1.803607
-0.709332
-0.884650
-0.246800
0.958829
1.028749
-1.009142
0.344520
0.265003
1.416006
-0.219684
-0.509417
-0.069318
0.153889
-1.189575
0.008148
-0.400172
0.245841
-0.139022
-0.643785
0.571543
0.697910
0.102194
0.269829
0.364269
1.244174
0.273424
0.286512
1.224897
-0.020847
-0.369733
-1.013284
0.008068
0.113109
-0.024900
0.709899
-1.182956
0.001742
0.063997
0.741130
0.479005
-0.641866
-0.151404
0.179568
-0.699948
0.336820
-1.169822
-0.123330
-0.558002
-0.085351
-0.015622
0.232175
-0.072413
0.300265
0.626902
0.417687
0.707504
0.086499
-2.137812
0.830523
-0.090807
-0.126001
0.055531
0.084282
0.513305
-0.320511
0.471809
0.074570
0.202318
0.109384
-0.022555
0.228362
-0.078952
0.129109
-0.105101
-0.327157
0.129848
0.318879
-0.314500
-0.346722
-0.605642
0.135405
0.888698
-1.026263
0.746133
-0.019311
-0.082772
-0.422122
0.060584
1.317847
0.700393
0.589323
0.288151
-0.429173
-0.849166
0.611735
-0.099979
-0.132313
-0.570845
-0.855163
0.363531
0.686158
-0.314546
-0.159108
0.070653
-0.445172
-0.646612
-0.226465
0.564667
-0.688255
0.913201
-0.173302
-0.118689
1.070600
0.003553
-0.825219
0.341019
-0.973504
0.581848
-0.133531
0.856541
-0.294769
-0.843222
-0.122398
-0.787468
-0.353266
0.599481
0.539630
0.067484
0.308743
-0.886892
0.987707
0.372934
-0.765609
0.139422
0.720962
-0.204337
0.072175
-1.175010
-0.351016
0.430643
-0.745493
0.028582
0.892297
0.212688
-0.002178
0.048980
0.327911
0.263490
-0.224215
0.226877
0.446242
-1.430768
0.428481
-0.713255
-0.095488
-1.124906
0.085683
0.731308
-0.196269
-0.306226
-0.417112
0.429476
-0.440439
0.401387
-0.021926
0.365126
-0.956558
-0.579713
-0.075265
-0.523209
-1.739814
0.415274
0.791596
-0.005978
1.236355
-0.202441
0.495422
-0.276012
-1.398608
-0.066287
0.724761
0.175378
-0.247808
-1.363587
0.296707
-0.956135
0.506888
0.860873
-0.117767
-0.021884
-0.144186
-0.186955
0.029943
0.706941
-0.679504
-0.620616
0.655526
-1.080716
-0.706780
-0.306571
-0.001470
-0.689385
-1.846253
-0.236724
1.511449
0.029587
-0.394465
0.269631
-1.036909
0.087056
0.074802
-0.017953
0.025278
0.015510
-0.192380
0.047799
-0.057761
-0.119041
-0.258036
0.758803
