-0.268021
1.316974
-1.467377
0.269938
0.636752
0.199667
-1.423871
0.924164
-1.155184
-1.723086
-0.774046
0.484709
-0.181427
-0.648389
-0.130398
-1.362664
-0.171573
1.016040
0.472619
-0.447155
0.567814
0.170621
0.525246
-0.285341
-0.092189
-1.015916
-0.628904
0.196849
-2.052332
0.436052
0.733600
-1.478310
1.514656
-1.085614
-2.205136
1.537764
0.303094
-0.711986
-1.891468
0.581066
0.368410
0.707752
-0.065452
0.713750
0.388604
-0.122980
0.583056
-0.816534
-1.416205
-1.649422
-0.769212
-0.368437
-0.305590
-0.388478
-0.175288
0.564457
0.469190
-0.376431
0.065915
0.161526
-1.005179
3.230901
-0.650328
2.409456
0.072292
-0.846919
0.400049
1.433357
-1.502996
-0.653588
-0.419261
0.458546
-0.084228
-0.044059
0.238642
1.099355
1.320613
-1.438310
0.341623
-0.551104
0.387458
0.143290
0.956251
1.614512
-0.766498
-0.659641
-0.781435
-1.328608
0.505511
0.318232
-0.107316
0.775750
1.618686
-1.447841
-1.465329
-0.140107
-0.205406
-0.289590
-0.603550
-0.037973
0.726728
-0.421605
0.108380
0.411951
-0.006056
0.058674
-0.526271
0.138665
-1.442236
-2.489085
-0.353544
-0.885348
-1.633901
1.262413
1.225056
-0.098908
1.648095
0.628907
-0.004273
0.179945
0.010023
-0.915671
0.111913
0.847101
1.465315
-0.452486
0.672064
0.388218
-0.097965
0.329124
0.361822
-0.913167
-0.379493
-0.306815
0.601305
-0.601235
-0.782774
0.555663
2.050576
-2.142713
0.446615
-0.202442
-0.241166
1.557807
0.606370
2.435205
-0.110923
1.131901
0.413774
-1.231523
-0.023627
0.035481
-0.462347
0.628160
-1.018663
-0.538133
-1.011943
-0.761371
0.334443
-0.085419
0.886977
0.077152
1.125626
0.639163
0.379453
1.992352
-0.773679
0.611386
0.996465
-0.239330
0.952277
0.939187
-0.855562
1.179911
2.993878
-0.358053
-0.372620
3.380123
0.685925
0.599630
-0.120490
0.182291
0.569755
-0.003332
-0.491630
-0.305054
0.158074
1.141779
-0.558804
-0.706648
-0.461676
-0.328539
-0.231212
-0.613956
-0.396638
0.274159
-0.502728
0.151999
-0.095836
-0.268962
0.602585
-0.209475
-1.203446
0.947654
0.088957
1.265638
2.062032
-1.475939
-0.920926
1.481292
-0.468462
-0.238179
0.956013
-0.714983
-0.880379
-1.543592
-0.529301
-0.656374
1.212780
-0.915203
-0.194353
-0.909155
-0.207170
0.667530
2.900963
1.656964
0.775359
0.157763
-0.607244
-0.514033
0.385114
-2.082309
-0.073184
0.349744
0.665053
2.090513
0.197343
0.015363
0.313649
0.077776
-0.543008
1.208084
0.403567
0.001309
-1.177878
0.553624
0.109225
0.086389
0.322989
-0.089123
-0.237299
1.526890
-1.391619
-0.365234
0.972531
-1.222153
0.154601
-0.641226
-0.424303
-0.404766
-0.756103
0.429648
2.218400
0.265082
-0.114333
-0.331442
-0.240938
-0.137222
1.163253
0.583200
0.618223
-0.983003
0.207810
-0.136369
-0.749936
0.221315
-0.816378
-0.362979
-0.689130
1.311193
0.611112
0.800289
0.024636
-1.033463
-0.576174
-0.491980
0.710945
-0.927999
1.594650
0.170800
-0.085692
0.303975
0.621569
0.337293
1.483541
-0.210109
-0.601045
-0.760484
1.115193
-0.428918
-0.222099
-0.154083
-0.830454
1.288217
-0.185737
0.198543
0.359292
-1.103458
-0.426624
1.070401
-0.279600
0.170913
1.144218
0.641807
-2.197065
0.072413
0.422918
2.383246
0.671024
0.060630
-0.197348
-0.152014
0.067946
-0.004213
-1.052576
1.366002
-0.746955
0.070999
0.024972
0.122734
-0.470765
-0.632449
0.361012
0.215085
-0.052392
-0.609916
-0.944130
0.550004
-0.444880
-1.266474
0.404158
-0.141318
0.553251
-0.155871
-0.341566
-2.016183
0.513838
1.863950
-0.745061
1.197424
0.187582
-0.546764
1.709058
-1.230834
0.084208
-0.320314
-1.414293
0.654311
-0.071532
0.349594
-0.331037
0.186519
-0.402263
-0.747740
-1.066885
0.255417
0.912667
0.631473
-0.929597
-0.281327
-0.346548
-0.493340
0.232760
0.588302
0.206741
0.622695
-0.504196
-0.218888
0.248594
-1.398703
1.079341
0.167596
-0.089426
-0.612403
0.246240
1.400166
-0.068958
-0.586269
-0.029053
0.426904
0.620663
-0.411633
1.755595
-2.227944
1.733575
1.720223
1.062234
-0.829069
-0.235003
-0.777904
0.394154
0.883828
1.633173
0.300647
0.424661
-1.480516
-1.008653
0.055248
0.170000
-1.147712
1.558058
0.283990
-1.001129
-0.339335
-0.396784
0.045719
0.165720
-1.350319
-1.454240
0.413945
0.067226
-0.678994
-0.816347
-0.340003
-0.825049
-1.172193
-0.281954
-0.691245
-1.727278
-0.527532
0.028538
0.178647
0.895387
0.203604
-0.012423
-0.761960
-0.120577
0.054575
0.106634
-3.228043
0.530207
0.072032
1.432397
-1.044960
-1.032048
0.453443
1.192775
-0.232690
0.805623
-1.092732
0.322944
0.174524
-0.878689
-0.688831
-0.646385
-0.297047
-0.336240
-0.091985
1.141479
-0.048568
0.768606
0.119951
-0.201739
1.459320
2.356127
0.820498
1.415398
2.486659
-0.608756
0.773744
-0.450039
-0.628071
1.129741
1.411558
-0.102494
0.580870
-1.198672
0.034476
0.267171
1.103692
0.375049
-0.415738
-0.120846
-0.540535
0.805808
0.966419
0.573479
1.169675
0.670597
-0.754322
1.883516
0.284163
-0.125436
-0.109465
-1.187365
0.024059
-1.830409
-0.795575
-0.675042
1.178093
