0.246949
0.326947
0.473059
0.062484
-0.411254
-0.472233
0.103337
-0.170359
0.149569
0.203610
0.191393
-0.899216
-0.693664
0.555648
-0.192972
-0.119702
0.255667
-0.374399
0.416192
0.360883
0.271784
-1.159672
0.166815
0.088605
0.096585
0.731533
1.077919
0.109987
0.267957
-0.000505
0.178763
-0.103718
0.340577
-0.713739
-0.506624
-0.127766
0.043761
0.533560
0.678020
0.036249
0.997846
0.051408
0.879445
0.223452
-0.170793
-0.131332
-0.376964
0.342588
-0.526881
0.323799
0.376336
-0.791956
0.421446
0.016061
-0.179375
0.456063
0.086668
1.245619
2.874164
0.619024
0.549987
1.007854
0.308268
0.294738
-0.536559
-0.738204
-0.192420
0.179834
0.390832
0.879483
0.545661
-0.352540
-0.439472
0.447764
0.106163
0.142274
0.186379
0.353547
-0.256797
-0.238097
0.264891
-0.649836
0.007062
-0.114803
0.235979
-0.544481
0.790095
0.270484
-1.067876
0.728261
-0.289765
-0.700183
0.400774
0.380649
1.196298
0.207034
-0.052097
0.530964
-0.345526
0.062710
-0.034333
-0.342128
0.149408
-0.116544
0.686476
-0.160375
-0.373965
0.154416
0.035685
-0.192142
-0.137933
0.091978
-0.671879
-0.116609
0.020296
0.070780
0.126840
-1.278183
0.052362
0.410460
-0.497739
-0.642494
-0.142889
0.004596
-0.021039
0.212367
-0.705667
-0.216463
0.409628
0.359108
0.091065
-0.132285
0.628086
0.485827
-1.645787
0.400636
-0.052897
0.773982
0.787816
0.107854
-0.496329
-0.165362
-0.623724
0.300795
-0.263198
-0.045626
-0.286295
0.837362
-0.101774
-0.599117
0.575285
-0.536889
0.113602
-0.779111
-0.140828
0.618659
1.165673
-0.013455
-0.568297
-0.138017
0.054772
0.176307
-0.780404
-0.676617
-0.198003
1.278292
1.087663
-0.197266
-1.249340
0.114590
-0.093315
0.045115
0.736433
0.001645
0.474189
-0.536210
-0.031242
0.861996
-0.048056
-0.273239
0.019168
-0.620541
0.176229
-0.222311
-0.342249
-0.392516
-0.262263
0.605128
-0.077110
0.194556
0.851078
0.835020
0.115138
0.067747
0.046135
-0.426657
-0.046596
0.062453
-0.177661
-0.249106
-0.477167
-0.034110
0.139074
0.451117
0.874978
0.440262
0.406127
0.244462
-0.511981
-0.038218
-0.081017
0.001418
-0.818194
1.700192
-0.478402
0.648408
-0.139341
0.164193
0.223480
-0.009645
0.124498
-1.401761
0.472700
0.966732
0.022672
0.806947
0.025215
1.103849
0.332842
-0.130382
-0.081168
0.276740
-0.250956
-0.472791
0.726392
-0.923205
0.565209
-0.135282
-0.431057
-0.664306
0.210579
0.242366
0.787920
0.838316
-0.208936
0.486713
-0.128708
-0.417763
-0.017216
-0.353992
0.413728
0.670096
0.335221
-0.141436
1.183411
0.038616
-0.185168
0.676896
-0.083718
0.804161
-0.380346
-0.133674
-0.047216
0.460480
0.356697
-0.076745
-0.223286
-0.219789
0.029828
-0.431527
0.171403
0.126122
-0.135242
-0.272831
0.073784
-0.043916
0.442718
0.805735
-0.193342
-0.982810
-0.402495
-0.151467
-0.542137
-0.360699
0.930238
0.530666
0.105540
0.295442
1.416008
1.731423
0.172100
0.187581
0.010855
-0.286921
0.065400
-0.295278
0.710735
0.031747
-0.228861
0.312032
0.207176
0.048084
-0.075138
0.161554
0.233689
-0.365535
0.338416
-0.041355
0.038908
-0.021635
-0.034564
-0.050647
0.262639
-0.154007
0.259423
-0.036918
0.019451
-0.021612
-0.470440
0.374015
-0.171541
-0.115923
1.347098
-0.750038
-0.279552
-0.012902
-0.402881
-0.349250
-0.205952
0.086050
-0.173429
0.147947
0.422355
-0.468921
0.407989
0.049227
0.087156
-0.757989
0.988486
-0.023537
-0.243774
-0.005859
-0.030687
-0.339505
-0.032335
0.135166
0.090071
0.081847
-0.186318
-0.121691
0.933908
0.221312
0.411428
0.470148
-0.181906
0.045484
0.740831
0.996470
-0.079553
0.373362
0.151833
-0.407951
0.121189
-0.149088
-0.534989
0.194262
0.537180
-0.013183
0.037292
0.631321
-0.890769
0.740497
0.350650
0.336798
-0.112388
0.188605
-0.305783
0.001960
0.332760
-0.250581
-0.050217
-0.190429
0.084041
-0.267273
0.080680
-1.041834
-0.441541
-0.146874
1.519527
-0.107132
0.381465
0.034491
-0.559657
-0.643737
-0.989651
-0.307632
-0.026149
-0.260091
-0.056580
-0.206291
-0.244380
2.154258
-0.054334
0.083157
0.179135
0.397669
-0.403829
-0.209440
0.943498
0.842177
0.043581
-0.111720
-0.392720
0.268394
-0.023733
-0.014004
0.363306
0.101101
-0.214538
0.316200
-0.934058
0.086282
-0.056875
-0.284996
0.307549
1.056629
0.712914
0.401236
0.569659
0.784898
0.045660
-0.365119
1.484046
-0.387794
-0.081388
-0.315967
0.175889
-0.094205
0.037085
-1.142803
-0.041163
0.311096
-0.136427
0.847407
-0.028823
-0.060032
-0.671131
0.158522
-0.024900
-0.013348
-1.945893
-1.318242
0.532503
0.138765
-0.163141
0.917559
0.081785
0.048169
0.554135
-0.157777
0.149100
0.706049
0.174415
-0.809105
0.292720
-0.626189
-0.024359
-0.100226
-0.334681
0.310644
-0.257732
-0.073252
-0.004133
-0.039669
-0.631904
-0.322226
-0.106268
-0.962714
0.174760
0.161074
-0.426181
-0.069681
-1.090954
0.386340
-0.171939
0.053967
0.860164
0.172884
-0.132127
-0.480580
-0.037077
-0.567030
-0.169942
0.268608
-0.628848
1.256039
-0.375975
0.058763
-0.803041
0.589298
