0.168909
-0.689390
0.641176
-0.756572
-0.294327
0.155606
0.664190
0.135786
0.965384
0.841545
-0.162963
-0.582255
0.111587
-0.422164
0.221349
0.385212
0.023928
0.614410
1.213132
0.175223
-0.426003
0.372369
-0.158420
-0.471145
-0.063514
-0.836243
-2.626275
0.606899
-0.092874
-0.381942
0.277680
-0.213596
0.638208
0.536963
0.027373
2.122220
0.360493
0.244176
1.770930
0.246861
-1.307598
-0.231886
1.063452
1.804921
0.012407
-0.034785
-0.561616
0.162763
0.249642
1.155329
-0.630770
0.815049
1.878218
-0.057772
0.104219
-0.294011
-1.225750
-0.435421
0.580886
0.256309
-1.628962
0.487628
-0.770638
0.581075
0.282436
-1.184233
-0.083150
0.091948
-0.389371
0.013903
-0.635098
0.417436
0.323258
-0.265988
-0.212248
0.739860
1.198131
1.394299
-0.590254
-0.075720
-0.056229
1.296891
-1.134038
1.677961
-0.087569
-0.689730
-0.098025
-0.523033
-0.004625
-0.593225
-0.079061
0.123662
-0.043746
1.047890
-0.167605
-0.212072
0.129524
0.490117
0.107629
0.163054
0.384688
0.328494
-0.530618
0.030911
-0.315180
-0.586987
0.110197
-0.236740
0.002950
-0.447840
0.259169
-0.457473
-0.509999
1.135342
-0.889083
-0.526954
-0.914334
1.151477
1.663329
-0.792623
-0.450330
-0.502952
-0.257410
-0.603914
-0.076582
-0.431036
-0.048400
-0.807505
0.475638
-0.008220
0.224680
0.688540
-1.335118
-0.254327
1.544248
-0.434274
0.079716
-0.703938
2.321843
-0.985940
-0.855978
-0.174922
0.578242
-0.765572
0.200181
-0.416669
0.052623
1.292487
0.052640
0.283021
0.434533
-0.063107
-0.122514
0.408304
0.057017
-0.369789
-0.405481
0.676533
0.110459
0.182067
-0.897844
0.301758
-0.272864
1.079195
0.366408
-1.637111
1.545031
1.199973
-1.954202
-1.100096
0.716480
0.087097
-0.278965
0.125423
-0.715248
0.939201
-0.636658
0.416326
0.397177
0.319008
0.805945
-0.867517
2.218923
-0.274242
1.017517
-0.064095
0.356237
0.038083
0.852245
1.443861
0.054167
-0.255832
0.817399
-0.482267
0.045373
-0.270790
-0.054368
-0.049457
1.663973
-0.316744
0.266977
-0.757751
0.276515
-2.215755
1.743009
-0.929541
-0.183946
-0.339224
0.286984
1.022465
0.087932
-0.331056
0.522010
-0.354055
0.541838
-0.154211
-0.025593
0.115830
0.048313
-0.219372
0.165832
0.919860
0.413699
-0.024131
-0.612733
0.538493
0.460477
1.685219
0.062570
-0.093203
0.951666
1.211485
-0.005398
0.591169
-0.084301
-1.219957
1.515079
0.447882
0.011496
-0.196283
-1.962995
-0.121321
0.017144
-0.096592
-1.803145
0.355161
0.039392
-0.541224
1.155849
-0.789118
-0.320657
1.148643
0.853407
-0.346125
1.045287
0.239415
0.161221
-1.699624
-1.137039
-0.718009
2.095972
0.286983
0.386410
-0.390830
-0.064822
0.267774
0.617920
0.628129
0.852494
1.386802
-1.771670
0.063997
-0.369527
-0.431189
-0.304369
0.124962
-0.430076
-0.603894
1.319112
-0.437236
-0.006769
0.167867
0.732041
-0.112755
0.030900
-0.820596
0.352705
-0.589862
2.672097
0.153897
0.178935
0.118803
-0.361065
0.162199
-1.437678
0.010053
-0.648329
-0.613192
-0.297522
-0.088273
0.157840
-0.368690
-0.071796
0.568871
-0.184947
-0.566145
0.977705
-0.226422
-0.559902
0.142541
1.136987
0.995150
0.274557
-0.573812
0.451460
0.404170
0.213697
1.446812
-0.508520
0.018044
-0.054015
-0.336416
0.531578
0.607180
-0.192815
0.070865
-0.108596
0.279733
0.720405
-0.334573
-0.308119
0.213124
1.149665
0.072635
0.273009
-0.440905
0.020322
-1.252546
-1.300608
-0.628975
-0.340690
-0.094913
-0.120434
0.067159
-0.836662
-0.121906
-0.166568
0.885715
1.027660
-0.511041
-0.987344
-1.028918
-0.590608
1.081078
-0.145839
0.019723
-0.910119
0.062355
-0.405902
-0.112845
0.053571
-0.249883
-0.377780
-0.078242
0.533960
-0.429798
0.006687
-0.089693
-0.067705
0.586189
0.365440
0.648430
-0.584788
0.823161
-0.084905
0.488545
-2.191827
1.093420
0.143898
1.601955
0.396576
-0.234935
0.016706
0.340875
0.117852
1.562528
0.288525
-0.390698
0.966719
0.236988
0.671391
-0.207274
0.387000
1.305850
0.245624
0.433046
-0.145272
0.070225
-0.291850
0.697699
-0.190905
0.137635
1.189055
-1.324567
-1.097432
-0.007443
2.194366
1.164351
0.364691
-1.359929
0.496469
-0.002688
0.612440
0.144951
0.258587
0.356901
0.523715
-0.746447
-0.247535
-0.106550
-0.442297
-0.315330
-0.195796
-0.683123
-0.388329
1.957422
-0.398772
0.274110
0.814844
-0.228757
0.985055
-0.694834
1.038431
0.405930
0.499207
-0.182780
-0.223491
-0.268729
-0.344413
0.629799
-0.923322
0.650786
1.197007
0.519556
-0.260757
-0.669843
-0.177298
-0.026566
1.129940
-0.980505
1.860587
0.753311
-0.190876
-0.054448
0.251165
-0.511534
0.213628
-0.139396
-0.022726
-0.360650
-0.854725
0.203312
0.022117
-0.584022
0.309690
0.068700
0.600583
0.533987
-0.437819
0.225093
0.665713
-0.951629
1.371034
0.998116
0.520076
0.222238
0.154247
0.396290
-0.137238
0.921955
0.289982
-0.544514
0.150723
0.020246
-0.154881
1.349310
0.115717
0.999627
-0.128329
1.318328
0.020632
-0.001567
-0.147751
-0.168363
1.203302
-0.202964
2.020375
0.396105
0.532874
-0.216319
