0.874648
-0.079147
0.683250
-0.193711
-0.388332
0.172788
-0.111326
0.572091
-0.204385
0.326717
0.128422
0.823211
0.427631
1.240492
0.449656
0.310836
0.329957
0.462950
1.443917
0.356452
-0.008994
-0.519448
0.472296
-0.885466
0.179216
1.133939
0.327026
0.752699
-1.212645
0.417765
1.214575
-0.901194
-0.510800
-0.586640
-0.594787
2.630587
0.215338
-0.270371
0.348033
0.428939
-0.251102
1.028586
-0.288415
-0.232173
0.216605
-0.079417
-1.121626
-0.481194
0.254720
-0.591016
-0.484041
-0.902154
0.293034
-0.203870
-0.031218
0.543051
-0.080562
0.304913
1.697035
0.601594
-0.365304
2.342106
1.185615
1.298969
-0.337800
-0.742930
-0.334748
0.168728
-0.100162
0.871526
1.012388
-0.410576
-0.188574
0.497061
-0.797820
1.364906
0.957260
-0.746207
-0.437706
-0.251882
-1.058352
0.151034
0.408015
0.471351
0.472739
-0.495094
-0.250052
0.242492
-0.260867
0.780411
-0.116464
1.273933
0.251477
-0.447964
-0.811235
-0.036109
-0.293529
0.672770
-0.012447
-0.187089
0.238192
0.342210
-0.745829
-1.293357
0.824797
-0.149486
-0.483740
-1.550547
0.585086
-0.831029
0.120501
1.007763
-0.684409
0.298612
0.006595
-0.914337
0.348939
-0.163626
3.302205
-0.008454
-0.595107
-0.913363
0.020163
-1.538367
-0.587652
-0.341789
-0.396916
0.316666
0.454243
0.552173
-0.217958
0.152775
0.275772
-0.444556
-0.591664
-0.485713
-1.443002
-1.489164
2.359583
-0.379312
0.181310
-0.253589
0.282977
1.105312
0.389669
-1.296760
-0.512306
0.665767
0.867270
-1.126655
0.477583
-1.135437
-0.187510
-0.294758
-0.195129
0.576183
0.413312
-0.421887
-1.031331
0.164194
0.166035
0.238026
-0.334974
-0.174861
-0.521194
1.144172
0.002406
1.170989
-1.141609
-0.234774
0.704495
-0.821472
-1.223324
0.554711
1.215287
-0.972873
0.252178
2.449205
0.705873
0.087576
0.376961
-0.021904
0.395772
-0.194292
0.036895
-1.522725
0.451332
-0.247946
1.021501
0.596367
0.668130
1.221696
1.879780
-0.057666
0.405070
-0.000999
-0.176027
-0.273323
1.804267
-0.277337
0.526834
-1.022898
-1.060826
-0.550821
0.371258
-0.582448
1.338493
-0.534520
0.538439
0.914499
-0.327634
-0.117996
-0.152506
-1.522586
-0.072625
-1.060010
-0.023782
0.157568
0.682979
0.383536
-0.208114
-0.672447
0.057148
1.694857
-0.069606
1.203119
-0.577261
1.695291
0.117675
-0.469950
1.457875
-1.365016
0.141406
-0.675588
0.620934
-0.473282
2.667296
0.099823
-0.028808
0.131267
0.052434
0.001600
-0.032938
0.560317
-2.974721
-0.542415
0.348899
0.528863
0.904925
-1.267070
-0.933299
1.950410
-0.069386
-0.050452
1.073501
-0.516512
-0.452411
-0.250050
-1.372748
-0.019246
-0.278923
-0.692541
-0.188983
0.148375
-0.091356
0.000384
1.566045
-0.644884
1.034652
1.123144
-1.331092
0.068760
0.184261
-0.194142
0.189219
-0.968671
-0.009868
0.050380
-0.344265
0.579810
0.902674
0.265128
-0.653285
-0.872581
0.243372
0.176867
-1.180030
-0.792442
1.640667
-0.119009
0.290303
0.186683
-0.545000
0.907837
0.623631
-0.268455
1.558013
-0.474845
0.124200
0.115446
0.699768
-0.329435
0.489090
0.504129
-0.019731
-0.902565
1.049734
-0.553285
-0.703029
1.041271
-0.269189
0.605121
0.276289
-0.060476
-1.430734
-0.152830
0.014288
0.862777
-0.606450
-0.512004
0.405303
-0.390919
1.519399
0.332189
-0.496392
0.453538
0.680706
-0.173772
0.453957
0.273995
-0.744757
-0.002545
0.686056
-0.276882
0.882956
0.607472
1.028173
1.041920
-1.536991
-0.056887
-0.257823
-0.213909
-0.390230
-0.657231
-0.232848
1.213490
0.034525
1.289011
0.170192
1.059802
1.004467
1.038599
-1.416686
2.414093
-0.212238
0.120134
0.580698
1.476079
-0.292012
-0.702224
-0.261813
0.537465
0.308853
-0.727732
-0.167945
0.509175
-0.432269
0.928299
-0.683757
0.533182
-1.417384
0.839500
-0.072594
1.093279
-0.032289
0.289701
-2.447767
0.354446
0.941575
0.006046
0.759326
-0.127271
0.082147
-1.581094
0.101413
1.108714
0.064603
-0.985181
0.751334
-0.073106
1.294625
-0.378698
0.246713
0.256803
-0.665817
0.234441
-0.456214
-0.765240
-0.189022
0.210317
0.521039
2.215956
-0.276053
0.529871
-0.143982
0.871014
-0.304551
0.040709
1.304551
-0.272717
0.440536
0.333416
-1.324418
0.226478
-1.106678
0.319198
1.031919
-1.054350
0.208571
-0.405668
0.309915
-0.628373
-1.302740
-0.698552
-0.234421
-0.249666
-0.760941
0.271612
0.544698
0.244229
2.209482
0.825973
2.346197
-1.144884
0.099483
-0.514803
-0.060224
-0.385846
0.210814
-1.069369
0.082275
-0.298957
1.732474
0.960376
-0.833442
-0.165803
0.152026
-0.218997
0.608514
-0.041960
-0.113303
1.570496
0.258299
-0.333644
-0.565406
0.964025
-0.023796
0.239835
0.836147
-0.421735
-1.971296
0.663768
-0.032734
1.554289
-0.048356
0.513888
1.098912
1.048607
-0.634340
0.290388
0.280594
-0.825368
0.211340
0.658071
-0.312207
0.148721
0.343233
0.508657
-0.041317
-0.100866
0.107516
0.086907
-0.479993
1.888856
0.285266
0.409438
-0.918567
0.141577
0.346782
-0.726340
0.999455
-0.983147
-0.360629
-0.061954
-0.197466
0.832079
-0.357502
0.499788
-0.670187
0.640411
