-0.460735
1.190904
0.666427
0.345635
0.175579
-0.419984
-0.612476
0.498697
0.505801
-1.438236
0.609259
-0.454793
-0.018281
0.031497
0.030533
-0.799164
-0.635742
0.370802
0.182667
-0.036521
-0.988265
-0.100478
-0.464963
-0.535165
-0.161636
-2.861545
-1.727641
-0.540805
-1.307071
1.213899
0.290768
-0.160732
0.304813
-0.769829
-0.972027
1.254146
-0.162739
-1.140947
-0.948225
0.023890
-0.498750
0.775812
-0.082732
-1.261113
0.244611
-0.065140
-1.943629
-1.131592
-0.277111
-0.183532
-1.220172
-1.001543
-0.542981
-0.118616
-0.262462
0.614146
-0.247696
-0.330868
-1.270073
-0.338615
-1.596682
0.798711
-1.319054
-0.669413
0.305064
-0.340785
-1.175482
0.285768
-0.559082
-0.683520
0.179620
-0.010297
-0.539277
-0.377627
0.576977
0.672679
1.002671
-3.238352
-0.681529
-0.258309
-0.992650
0.187945
-0.076771
-1.351805
0.086864
0.163014
-0.213324
1.839177
1.007751
0.750830
-0.052893
0.488739
0.384876
1.016872
-2.183989
-0.375676
-0.240016
-0.428969
-0.227365
0.584581
-0.132287
0.075213
0.091029
-0.633020
0.332419
0.212719
0.745279
-0.534465
-0.383670
0.932310
0.254137
0.477004
-0.862609
-0.826591
0.021542
-1.218767
0.939302
0.481698
0.026335
0.264814
0.205422
0.719537
0.812199
-0.729692
-0.063426
-0.349584
0.148208
-0.598751
0.564234
-0.412838
-0.015239
0.487807
-1.023206
0.559179
-0.200739
0.015449
0.282374
0.351115
2.320471
-1.144758
0.006912
-0.383232
1.103730
-1.130990
0.436831
-0.139721
0.489920
-0.081754
0.738072
1.485269
0.171088
0.135587
0.310618
0.728695
0.893228
-0.056658
0.558822
-0.005346
0.693797
-0.360483
-1.230276
-0.129606
1.792553
0.789094
-0.393834
0.363979
-1.008970
0.560019
2.253325
1.284982
0.362807
0.389584
-0.430656
0.485083
0.213878
0.900096
-0.121875
0.213108
0.144295
-1.269102
0.802117
-0.089762
-0.481967
-0.421706
0.234872
-0.265554
0.115835
0.559341
1.357934
-2.117785
-0.468515
0.101414
0.016614
0.647986
-0.369126
-0.274148
0.072051
0.696237
1.049879
-0.521353
0.953023
0.269657
-0.504301
1.301522
0.499411
-0.538893
-0.871989
0.707715
1.861413
-0.556714
-0.267715
-0.212515
-0.147090
0.644976
0.035960
-0.721377
-0.395371
-0.148154
-0.791315
-0.492194
0.707547
-0.048544
0.274775
-0.830162
-1.945038
1.682314
1.268917
1.159631
-1.446691
-1.074980
1.932730
-0.755945
-0.305603
0.894910
0.648992
-0.792821
0.814411
0.159921
0.591923
-1.589766
0.226070
-0.746882
-1.203605
-0.063415
0.648441
0.079321
-0.721648
-0.092051
0.457420
1.215894
0.327746
1.620024
-1.474510
-0.205097
0.702902
0.033198
-0.574165
-0.991234
-0.506029
-0.052432
1.951158
0.405395
1.242772
-0.111851
-0.668109
-0.429425
-0.384166
-0.166816
0.411420
1.052381
0.342073
-0.098226
0.200072
-0.047186
-0.019411
0.538967
-0.817973
-0.277776
0.282413
0.635493
-0.073368
-0.396167
2.278009
1.448580
0.143712
-1.138474
1.016490
0.112990
1.096120
-0.558656
-0.871419
-0.675103
0.757026
0.592085
1.776049
-0.643582
-1.596920
-0.351759
0.482759
-1.108659
0.297172
-0.060719
0.660900
-0.464174
0.276510
-0.014450
-1.039507
0.083786
0.382754
1.473360
-1.423017
1.178526
0.946304
1.224768
0.004795
-0.731163
0.529277
0.659731
0.854939
0.212360
-0.466709
-0.457420
-0.450155
-0.263165
-0.189849
-1.110927
-0.223374
0.506893
-0.448680
-0.052819
-0.100739
-0.960485
0.633810
0.268087
0.171254
0.991668
-1.380879
1.456678
-0.376489
0.111466
0.346047
-0.354612
0.061043
0.027696
-0.524960
-1.872484
-1.286288
-0.007134
1.496953
1.307877
0.272881
-0.834397
-0.434106
-0.307791
0.045951
0.052316
-0.685110
-0.246904
-0.247963
0.156444
-0.442554
-0.071639
0.793518
1.474735
1.887700
1.078887
0.045577
0.623999
-0.161368
-0.554389
0.443171
-0.689266
-0.611398
-1.070284
0.011225
0.145185
0.695566
-0.353129
-0.890271
-0.285041
1.232580
-0.194194
-0.034735
-0.192403
-0.080699
1.542890
1.346461
0.879902
-0.612567
1.657595
0.580741
-0.373579
1.824548
1.444817
-0.893293
0.288909
0.419367
0.100330
-0.088337
1.321304
0.676181
-0.151419
-0.917812
-0.762992
-0.970739
-0.394721
1.442081
0.722242
-0.201386
-1.316583
0.615506
-0.080515
-0.413696
-1.028765
1.487869
0.018606
-0.028472
-1.942883
-0.114315
0.995711
0.965108
0.672235
1.192057
-0.107329
-0.476157
-1.259881
-0.176842
-0.659666
-0.928873
-1.466505
0.035073
-1.058650
-0.205292
0.210195
0.252825
-0.971891
-0.038311
0.077520
-0.507347
-0.682793
-0.362309
-1.534071
1.599873
-0.258491
-0.505392
-0.715792
0.614692
-0.519370
-0.517488
-0.279933
0.074709
-0.197206
1.611113
0.817885
1.746007
-0.473325
0.143989
-0.010695
-0.190671
0.436731
-0.244565
-0.065407
0.562317
1.818462
1.248621
2.131455
0.612561
0.616626
0.590848
-0.279270
0.121969
0.287582
1.460899
1.522850
-0.722646
0.339319
0.509077
-1.282624
-1.842206
-1.511047
-0.249767
-0.389633
-1.488560
-1.392700
0.136830
-0.521196
-1.539824
0.656445
0.207253
-0.107680
-0.290555
-0.565991
0.034516
-0.060727
0.279018
0.366050
-3.306855
0.268989
-1.028468
0.149882
