0.792850
0.430974
0.607781
-0.580947
-0.048211
0.214548
0.912584
-0.487363
0.126198
0.516688
0.151904
-0.806855
-0.028252
0.135008
0.053090
-0.458892
0.947225
-0.433920
0.546894
0.632530
0.056634
-0.850830
-0.131045
0.067681
0.046635
0.035445
-0.015335
-0.392286
1.291338
-0.216464
0.262062
0.309186
0.515079
-0.701190
-0.385271
-1.313190
-0.034924
1.128827
1.711542
0.094888
0.046078
-0.025144
1.474894
1.708250
-0.160826
0.034602
-0.263418
1.053648
-0.521721
0.430774
1.130592
-1.385918
1.958798
-0.430411
-0.278869
-0.102300
0.852329
1.522335
3.050060
0.657767
0.369847
1.558088
0.247164
0.536904
-0.490615
-0.708137
-0.143857
0.024850
-0.083837
1.327743
0.182652
-0.017146
-0.326942
0.301579
-0.348627
0.431653
0.565688
0.895579
-0.322749
-0.474943
-0.511987
-0.770600
0.335132
0.065800
0.009586
-0.531750
0.530392
-0.191791
-1.307586
0.272701
-0.341762
0.356311
0.480980
1.301765
1.859944
0.013851
0.052019
0.617397
-0.096084
0.338092
-0.307416
-0.134661
0.128441
-0.804302
0.361694
-0.170872
-0.126784
-0.174318
-0.575604
-0.887233
-0.233342
0.255696
-0.183428
0.151971
0.449982
0.120926
0.059859
-1.599667
1.943817
-0.491337
-0.525994
-0.522244
0.147579
1.195502
1.276114
0.478999
-1.248959
-0.938870
0.773395
0.060155
0.258744
0.410496
0.381881
-0.355831
-1.712123
0.240962
-0.127991
-0.362613
1.948280
-0.077588
-1.168161
-0.247168
-0.432462
-0.266548
-0.275197
0.684640
-0.557859
1.288300
0.178172
-0.659012
0.309477
-0.965187
-0.642792
-0.869465
-0.094407
0.962214
0.712115
0.336248
-0.371467
0.464369
-0.842940
0.037476
-0.722382
-0.431343
-0.352122
-0.270451
0.716804
0.357630
-1.372123
-0.704399
0.137214
0.646656
-0.700922
-0.008576
-0.752911
-0.316894
-0.408944
0.669843
-0.142250
0.068398
0.509271
-0.481988
0.763135
-0.415754
-0.167160
-0.552233
-0.203905
-0.178720
-0.053017
1.250110
0.653849
0.633064
1.224390
0.568094
-0.206365
-0.300353
-0.566686
-0.048503
-0.499085
-0.366661
-0.474262
-0.815726
0.336645
0.413363
2.187561
0.723246
0.465644
-0.353326
-1.084853
0.251895
-0.218096
-0.297345
-0.836898
0.703816
-0.675593
0.313762
0.074784
-0.082664
0.006461
0.141748
0.300483
-2.106816
0.091149
0.774711
-0.055780
1.440706
-0.233373
2.058882
0.575957
-0.002441
-0.245900
0.107035
-0.382534
-0.004195
0.717028
-1.663471
0.792367
-0.218058
-0.363372
-0.568259
0.271190
-0.749980
0.107278
0.852721
-1.492077
0.845419
-0.096168
-0.555244
0.604154
-1.021986
-0.693659
0.533653
0.993078
-0.377452
1.759176
-0.495071
-0.550049
-0.291687
-0.191318
0.375626
0.615541
-0.385551
-0.221370
0.949619
0.364636
0.060921
-0.470459
0.535927
-0.002696
-0.011239
0.834313
0.001819
-0.483898
-0.408438
0.192022
-0.059778
0.142188
0.194691
-0.131738
-1.594339
0.207039
0.074744
-0.172073
-0.195942
1.995155
-0.232291
-0.190365
-0.412585
3.174701
0.931746
0.280522
0.121477
-0.564813
-0.984986
-1.007949
-0.232782
0.296973
-0.433121
-0.733370
0.500671
0.316638
-0.235612
0.224429
0.200807
-0.108349
-0.740516
0.553055
-0.421947
-0.299110
-0.202709
0.746461
0.007088
0.584223
-0.507139
0.555764
0.180017
0.274818
0.480096
-0.232648
0.110987
-0.155203
-0.284658
1.341801
0.439054
0.029365
-0.170270
-0.054658
-0.342998
-0.406378
0.214681
-0.728183
0.086304
1.029444
-0.408289
0.134425
-0.077223
0.208057
-2.170277
0.095983
0.021655
-0.510476
-0.174510
-0.294099
-0.377333
-0.120950
0.687473
-0.283024
0.027467
-0.530048
-0.052685
1.068451
0.148478
0.098221
1.412307
-0.547997
0.206640
0.731349
0.930761
-0.258420
-0.068766
0.406709
-0.267760
-0.433179
-0.252195
-0.872229
-0.251662
0.544838
0.008482
-0.555286
0.794651
-0.957357
0.840551
-0.026524
0.943202
-0.154512
0.580878
-0.491371
0.518646
0.462159
0.089494
0.204982
-0.202034
0.265176
-1.306221
0.220538
-0.404115
-0.013248
-0.339863
2.100511
-0.243772
0.383743
-0.205604
-0.401779
-0.872079
-1.400129
-0.304144
-0.044947
-0.670666
-0.181914
0.473550
-0.526736
2.521663
-0.260409
-0.634261
-0.753860
0.283233
1.609153
0.305005
0.698505
-0.676130
0.582939
0.012506
-1.947388
0.474087
-0.798777
0.097906
0.015049
0.095469
-0.878367
0.241710
-1.503739
-0.489370
-0.603371
-0.399499
0.117581
2.099453
-0.152850
1.083551
0.842103
0.430948
1.563427
-0.725011
1.110664
-0.433408
-0.306240
-1.209885
0.016300
0.051912
-0.049176
-0.370132
-0.184505
0.816998
-1.101487
0.722057
0.702339
-0.254609
-1.028195
-0.382326
0.903948
-0.981350
-2.055166
0.588606
-0.572591
0.398430
0.032232
0.635411
0.125595
0.157012
0.548026
-0.605203
-0.396055
1.277136
-0.152770
-1.749712
-0.156614
-1.148175
0.423541
0.358184
-0.769603
0.534783
0.177811
-0.912054
0.138409
0.446009
-0.034370
-0.166751
-0.249891
0.174940
0.067799
0.000682
-0.092601
-0.267503
-0.662695
0.711857
-0.112560
-0.726797
-0.191678
0.505283
0.157588
0.509789
-0.317342
-0.736435
-0.136613
-0.242192
0.279660
0.835439
1.352132
1.191546
-0.355998
-0.078549
