0.027510
0.297326
0.257649
0.107848
0.255540
-0.346431
-0.348799
0.162764
-0.653471
0.232399
0.283077
0.565571
-0.609573
0.134080
0.616096
-0.295471
0.004039
-0.054331
-0.220926
0.233242
0.423306
-0.103775
0.804433
-0.423917
-0.195688
0.991970
-0.317965
0.578036
-0.490424
0.242626
0.198804
-0.183623
0.214933
-0.324093
-0.343615
-0.128148
-0.244432
-0.090516
-0.814701
-0.035261
-0.229501
0.694947
-0.648701
-0.537876
-0.175679
-0.044864
0.857201
-0.747343
-0.278562
-0.851283
-0.528475
-0.439023
-0.613931
-0.374520
-0.346332
-0.036425
0.248876
0.101088
0.251734
-0.056389
-0.655765
1.384412
-0.601691
1.308838
0.428890
-0.677338
0.661356
0.126550
-0.767670
-0.304223
-0.084338
-0.164599
0.228767
-0.049274
-0.046153
-0.280287
-0.163049
-0.849168
-0.027547
-0.071161
-0.797426
-0.242102
0.062772
-0.338334
-0.251586
-0.240546
0.072173
-1.584606
0.507499
1.074071
-0.084334
0.588185
0.526366
-1.420307
-0.842364
0.181419
-0.245070
0.075064
-0.278979
0.112185
-0.182823
-0.262003
0.145152
-0.998568
0.931319
-0.131074
-0.467998
0.342934
0.159927
-1.198532
-0.110478
-0.367823
-0.621660
0.403210
-0.236635
0.047354
0.771839
-0.367145
-0.186285
0.268933
-0.055289
-0.371247
0.136234
0.007891
0.049103
-0.024126
0.238212
0.398700
0.217348
0.900463
-0.193333
-0.190265
0.008744
0.289272
0.495248
-0.846375
0.066459
0.444622
1.154831
-0.277785
0.361141
-0.078362
0.202412
0.991121
0.657394
-0.058968
-0.142557
-0.494760
0.172214
-0.156067
0.084692
-0.295388
-0.217553
0.989679
-0.297278
0.010526
-0.650052
-0.102559
0.146439
-1.089075
0.750650
-0.087537
0.457996
0.661095
0.434897
2.526829
-0.527504
1.587427
0.331082
-0.343107
-0.247762
0.186864
-0.443158
0.646696
1.195754
-0.505561
-0.120193
1.846336
0.258495
0.105407
0.276869
0.222937
-0.320329
-0.038849
-0.492882
-0.063788
0.454674
0.102642
-0.131548
-0.388633
0.020595
-0.810377
0.007461
-0.073389
-0.125534
-0.374876
0.070510
0.338831
-0.222600
-0.349222
0.168008
0.062667
-0.632826
0.507765
-0.249571
0.407982
1.164548
-1.093627
1.594339
-0.484427
-0.314696
-0.347745
0.260074
0.714963
0.087295
-0.264840
-0.304137
0.173053
0.014569
0.011958
1.265025
-0.391860
-0.011048
0.796692
0.240133
0.705485
-0.151775
1.021576
-0.473733
0.030212
1.003496
-0.581785
-0.074320
0.171085
-0.427340
-0.039618
-0.072218
-0.040694
0.644647
1.048096
0.396725
0.562230
0.859877
0.682760
-0.767387
-0.183278
0.524079
0.580350
0.835620
-0.528275
-0.006935
1.465930
-0.609883
-0.137879
0.544867
-1.199692
0.132328
-0.319128
-0.101633
-0.050036
-1.027468
0.762601
-0.079279
0.107165
-0.091329
-0.297222
-0.085482
0.402632
0.464898
1.195260
0.275622
0.131942
-0.093091
-0.026243
0.231997
0.071166
-0.439521
0.386414
0.206442
1.138220
-0.306598
0.201798
0.751733
-0.973755
-0.783864
0.156234
-0.127614
-0.734343
0.485060
0.943990
-0.217892
0.318860
0.463665
0.265516
1.152152
-0.037012
-0.460056
-0.399526
0.445484
-0.548547
-0.224949
-0.152643
-1.125987
0.393108
-0.027585
0.121037
0.002331
-0.242734
0.226098
0.385664
0.698405
-0.377167
-0.305596
0.497481
-1.794216
-0.095097
0.150380
-0.225195
0.093530
0.192909
0.491353
-0.027108
1.158233
-0.364018
-0.350239
0.930379
-0.150680
0.948765
-0.609161
0.515494
-0.158171
-0.148851
0.534763
0.445772
-0.136909
-0.397624
-0.274646
1.718331
-0.163366
-0.096817
0.121647
-0.033810
0.120258
-0.199857
0.080207
-0.129601
0.181249
-0.132211
-0.039269
0.866373
-0.015719
0.067260
-0.055828
-0.148351
0.086690
-0.339578
-1.367916
0.843480
-0.083124
-0.225440
0.215672
0.472181
0.367056
0.212133
0.015706
-0.012577
-0.416514
0.284189
-0.304782
-0.697394
-0.357988
0.011558
-0.083958
0.627260
-0.055832
-0.321479
-0.476073
0.267015
0.903664
-0.488070
0.068902
-0.141637
-0.005604
0.205297
0.436864
1.034348
0.610320
-0.496978
-0.034813
-0.005822
0.365119
-0.105709
0.622432
-0.265051
0.456030
0.921281
-0.171345
-0.261546
-0.075168
-0.100160
0.419554
0.653954
-0.033327
0.441478
0.464729
-0.183764
-0.716010
-0.022886
0.068676
0.353675
0.266043
-0.404389
0.324348
0.178010
0.287870
0.458601
-0.092129
-1.186658
-0.121877
-0.115709
0.736937
-0.626211
-0.398926
-0.239196
-0.255741
-0.721951
-0.035925
-0.336609
-0.182805
-0.208538
-0.390905
1.007445
0.774465
0.746406
-0.202489
0.296279
-0.052447
0.344765
0.166524
-0.371586
0.219989
-1.042816
0.461457
-0.885720
-0.366551
0.627024
-0.038828
0.010197
-1.145938
-0.373568
1.410179
-0.031187
0.062739
-0.634004
0.352137
-0.293586
0.237653
0.094715
0.206150
-0.091332
0.345055
0.191712
0.219082
1.174941
0.084385
1.506136
0.269871
0.008120
-0.439783
0.424656
-0.061739
-0.315244
-0.531833
0.425136
-0.293822
0.174668
-0.467178
0.072307
0.105044
0.953639
-0.094486
-0.429651
0.480711
0.395512
0.709362
-0.417115
-0.245902
-0.106709
-1.182585
-0.514789
0.441224
-0.857457
-0.186975
0.353002
-0.902641
0.367045
-0.671001
0.154349
0.211574
0.846576
