0.774761
-0.399816
-0.009083
-0.360144
-1.239348
0.441413
0.131596
0.308083
0.484560
-0.415319
-0.107931
0.719141
0.165249
0.398689
0.130027
-0.847603
0.055990
0.605999
1.842389
-0.115997
-0.609649
0.035299
0.044272
-0.235356
0.145198
0.267064
-0.337984
-0.589791
-1.109988
0.270842
0.527909
-0.011117
-0.217138
-0.753297
-1.629005
2.140231
0.515482
0.699583
0.443325
0.268635
-0.023580
0.273490
1.035246
1.971630
0.457868
0.015614
-0.694020
-0.067523
0.092727
0.303699
-0.335217
0.196294
0.564029
0.212872
0.373970
0.420885
-0.064659
1.235171
2.543184
0.534053
0.212633
0.390071
0.277250
0.696690
-0.265140
-0.977053
0.413479
0.532439
-0.147951
0.563225
0.006768
0.324633
-0.035097
0.266688
-0.594450
0.806453
1.468876
0.020432
-0.380822
0.319041
-0.052026
0.273915
-0.104508
1.820168
-0.155735
-0.793339
0.010998
0.079893
-0.017599
0.697801
-0.061139
0.114799
0.669585
0.988216
1.114724
-0.313515
-0.165570
0.673723
-0.133184
0.064648
0.196622
0.656719
-1.270415
-0.192439
-0.407054
-0.429584
0.215738
-1.033265
-1.069223
-0.167652
0.199899
-0.178137
-0.669975
0.800253
0.956085
-0.517647
-0.170803
-0.374275
2.877253
-0.601195
-0.725762
-0.898442
-0.183399
-1.015358
-0.656832
-0.378332
-0.864089
0.333735
0.356721
-0.119482
-0.456460
-0.076987
0.140580
-0.581621
-0.284479
0.297852
-0.544639
-1.325708
2.049424
-1.182705
-0.134168
-0.266514
0.350132
-0.058124
-0.161092
0.254647
-0.133079
1.546841
0.432711
-0.775271
0.377211
-0.859984
0.025742
0.472027
-0.044925
-0.260237
0.655683
-0.312179
-0.105968
-0.128653
-0.905150
0.161507
-0.202801
-0.413326
-0.545619
-1.331338
0.902826
2.087884
-0.720452
-0.419993
0.786750
-0.400568
-0.222095
-0.050687
-1.582665
-0.512111
-0.413311
0.198804
0.579677
0.554582
0.493949
-0.300912
1.967903
-0.269167
0.867016
-1.602778
0.299045
0.516306
0.846028
0.510870
0.959481
0.711642
2.291416
0.167145
0.415394
-0.037547
-0.494759
-0.070209
1.629627
-0.291808
0.549940
-0.719310
-0.366270
-1.267144
1.142301
-0.081127
-0.070941
0.197667
-0.246007
1.078533
0.086649
-0.247211
-0.066300
-2.950245
-0.192605
-0.274093
0.360481
-0.313517
-0.015347
-0.187895
-0.583901
-1.188417
0.069088
0.564097
0.533448
1.107279
-0.625402
1.223444
0.707169
-0.087973
1.201038
-0.486549
-0.095456
-0.215843
0.908520
-0.599014
2.899581
0.132391
-0.214149
-0.242236
-0.646770
0.013543
-0.171053
-0.261131
-2.089714
-0.342730
0.467757
-0.142105
0.892532
-0.937314
-0.553935
2.040453
0.438652
-0.167146
1.032598
-0.153480
-0.306851
-0.329293
-1.269215
-0.266151
1.709404
-0.232941
0.916016
0.098644
-0.084671
0.331706
0.785719
0.003009
0.537869
1.282195
-1.306708
-0.424987
-0.228705
-0.323699
-0.636819
-0.404696
-0.070887
0.058694
-1.247371
0.030982
0.728120
0.143841
-0.241271
-0.588758
0.407123
-0.360584
-1.576759
-0.505699
2.183228
-0.973087
-0.102455
0.109108
-0.765461
0.675892
-1.115884
-0.140261
0.129155
-0.288287
-0.422210
0.734403
0.934421
-0.576067
0.073497
0.681947
-0.493144
-0.934377
1.476063
-0.284879
-0.892392
0.381353
0.722937
1.129920
0.145957
-0.588308
-0.292883
0.100084
0.256189
1.452389
-1.175647
-0.847232
0.069964
-0.186948
1.327670
1.099783
-0.233397
0.097005
0.011331
0.127151
0.747091
0.325854
-0.691978
-0.136284
0.933581
-0.076179
0.914683
-0.158112
0.160525
-0.693524
-2.181771
-0.629044
-0.124145
-0.060387
-0.542356
-0.427429
-0.186202
0.005235
-0.258711
0.846328
1.039432
0.202261
0.574739
-0.096741
-0.330760
2.502407
-0.188391
0.430884
0.826077
0.037060
-0.264006
-0.348495
0.086004
-0.189157
-0.523351
-0.004423
0.863726
0.207900
-1.462056
0.499465
0.213279
0.884773
-0.471386
-0.000515
-0.115110
0.728194
-0.194197
0.870858
-1.388968
0.582680
0.184070
0.387327
0.618869
-0.222569
0.337579
-0.830791
0.057642
1.126895
0.377196
-0.589163
0.813448
0.157073
0.738227
-0.450523
-0.498339
0.727985
-0.733824
0.375765
-0.352254
-0.752936
-0.142403
0.863683
0.087364
1.504743
0.737975
-0.617472
-0.365214
0.325810
0.644979
1.236900
1.371000
-0.267297
0.369363
0.324959
-0.371234
0.066348
-0.488760
0.091955
0.543725
-0.068605
-0.252227
-0.224787
-0.686572
-0.166631
-0.673155
-1.295528
0.344698
1.553696
-0.533949
0.258108
0.116254
0.310267
1.542084
-0.046323
2.081043
0.042916
0.518060
-0.708473
-0.255846
-0.332447
-0.167421
-1.473506
-0.187019
0.922810
1.973667
0.582776
-0.799917
-0.588550
-0.050687
-0.052240
1.967328
-1.028081
-0.071160
0.935729
-0.452582
0.354835
0.136969
0.234455
-0.263545
0.060561
1.282226
-0.624222
-0.922559
-0.326917
-0.766615
0.665216
1.170841
-0.790448
0.528333
0.472064
-0.654199
0.509987
0.898928
-0.834929
0.775563
0.881165
-0.237329
0.400397
0.355312
0.963551
0.237612
0.233496
0.593258
-0.256583
0.149663
0.043019
-0.632197
0.213319
0.023795
0.919404
0.281637
0.199079
-0.346393
0.012133
-0.371487
-0.021146
0.754830
0.680054
1.233428
0.260810
-0.050837
-0.261697
