0.070096
0.681305
-0.829880
-0.183307
0.472817
0.029326
-0.218205
0.234657
-0.950801
-0.638060
0.406424
-0.638019
-0.753476
0.046633
0.251406
-0.016708
0.687740
0.016985
0.245733
-0.364030
-0.070057
-1.149537
0.277853
0.143987
0.433699
-0.866474
0.352843
0.354732
0.680994
-0.083934
0.925299
-0.588058
0.759014
-0.732148
-0.372869
0.151118
0.296682
-0.542108
1.353332
0.204128
0.097726
0.672904
0.268059
-0.557772
-0.055047
-0.156581
-0.507816
0.533900
-0.957705
-1.113869
0.773587
-0.531411
1.301969
-0.181979
-0.197841
0.666586
0.200354
-0.457776
0.219924
0.448143
-0.134869
1.980286
1.063009
1.082650
-0.226889
-0.487578
-1.055685
0.603366
-0.109226
0.214576
0.529076
-0.144972
-0.243952
0.250842
0.709560
1.082473
0.334660
-0.688503
-0.430360
-0.296570
1.484065
-0.438324
0.452153
-0.429139
-0.219683
-0.306948
0.403818
1.692264
-0.955865
-0.531278
-0.278732
-0.430426
1.244513
-0.744456
-0.549186
0.826760
-0.450004
-0.011350
-0.424689
-0.161091
0.502665
-0.526030
0.381731
0.619707
0.142318
0.138460
-0.087426
0.180611
-0.108987
-0.832404
-0.249486
0.892952
-0.723393
0.407400
0.174754
0.009203
0.290408
-0.352308
-0.750758
-0.005859
0.006401
-0.503951
-0.145164
0.452971
0.872391
0.341532
-0.361896
-1.213501
-0.182583
0.150064
0.442793
0.053556
-0.083464
0.564412
-0.386839
-0.072110
-0.222508
0.409249
1.558386
0.098924
-0.494376
-0.277326
-0.132765
0.314049
-0.532401
0.386840
-0.551011
1.347289
0.805770
-1.547768
-0.282165
-0.092605
-0.008259
-1.777086
-0.398812
-0.208357
-0.357089
-0.553325
-1.015072
1.568608
0.167730
0.268586
0.596477
0.264599
-0.249925
1.819039
0.151552
-1.315638
-0.673835
0.316538
0.376093
0.020988
0.148339
0.691252
1.840646
-0.262366
-0.087690
1.678837
0.387020
-0.767033
0.527441
-0.279782
-0.008795
-0.137984
-0.180780
0.078549
-0.067342
0.098095
0.102310
0.345879
0.208263
1.410417
-1.357264
-0.042569
-0.230673
-0.397188
0.170070
0.151032
-0.000652
-0.209458
-0.208927
-0.207858
-0.245014
0.819967
0.716116
0.515737
-0.066088
-0.262672
-0.046022
1.117829
-0.269026
-0.111151
-0.289746
0.427615
-0.305570
-0.947696
0.167015
-0.835265
0.155187
-0.557063
0.013071
-0.213516
-1.062734
0.960526
0.086629
0.470204
-0.012421
1.178305
0.413848
0.110751
1.185261
-0.817281
-0.214837
-0.264803
0.943659
0.038496
-0.718290
-0.084930
-0.098250
0.047735
0.150581
0.366268
0.278543
0.106207
-0.766130
0.220881
-1.391324
-0.092154
0.325988
-0.385454
0.386442
0.559721
0.406409
-0.276797
0.481099
-0.352017
0.211627
0.150818
-0.173153
-0.236364
-0.730208
-1.247924
0.203575
0.366504
0.822558
-0.913979
0.261652
0.167272
0.890402
-0.185101
-0.130997
-0.260084
0.112522
-0.231057
-0.181013
-0.250471
-0.039237
-0.373440
0.581860
-0.329804
0.059363
-0.076489
-0.110915
0.297158
0.250963
0.086639
0.738560
-0.017292
1.305429
0.753497
0.500781
0.173492
0.124256
-0.464978
0.538171
-0.280603
1.706168
-0.055311
0.442313
0.142788
0.026434
0.038817
1.311584
0.363731
0.452391
0.245452
0.666199
-0.087348
-0.718008
0.373526
0.518227
-0.543168
0.530914
-0.520768
-0.631186
-0.393715
0.271697
0.555878
0.523463
0.770913
-0.174010
-0.310388
0.084242
0.299042
0.244450
-0.789462
0.442145
-0.150427
0.162858
-0.035276
-0.938355
0.000193
0.312355
-0.791210
0.573447
0.939200
0.355546
-0.543582
0.211242
0.151831
-0.246898
0.245213
0.064896
-0.053923
-0.444398
-0.575016
0.080684
0.414679
-0.363145
0.614774
0.693595
0.463104
1.398498
-0.901856
-0.331590
-0.563479
0.059593
1.032310
-0.266052
0.432958
0.104475
0.113753
-0.804431
-0.402611
-0.435400
0.412048
1.189310
0.551984
-0.081242
0.637397
-1.217295
0.419041
-0.013368
0.652096
-0.227317
-0.241769
0.068719
-0.128809
-0.021604
-0.847624
0.783087
-0.060203
-0.325829
-0.482463
-0.168534
-0.699490
-0.114101
-0.548947
0.225622
0.465286
-0.543208
-0.099739
0.610481
-0.680384
-0.268390
0.189989
-0.273961
-0.367470
-0.361765
-0.258347
-0.371702
1.940978
0.062874
-0.071558
0.035995
-0.263583
-0.293463
-0.289962
-0.099648
-0.436203
0.808384
0.937833
-0.307322
-0.216092
-0.107273
-0.062505
0.152752
-0.053180
-0.403108
0.686048
-0.266386
-0.497619
-0.399351
0.584990
-1.010043
-0.565271
-0.414878
0.033062
-0.265354
-0.116890
-0.863834
-0.248457
-0.839346
-2.061960
-0.280313
-1.220449
-0.059145
-0.220276
-0.235037
-1.694645
0.074326
0.223451
0.025463
0.637336
-0.467630
-0.031662
0.128458
-0.155414
0.414955
0.186261
-0.421062
-1.470277
0.922977
-0.153512
0.205995
1.819419
0.122474
0.495038
0.098901
-0.035014
-0.252757
0.841210
0.223590
-0.649715
0.489548
-0.399518
0.640419
1.148952
-0.224332
0.569756
-0.463623
-0.047868
0.187871
0.973537
-0.517500
0.482981
-0.991676
-0.548809
-1.212342
-0.515910
0.058358
-0.134301
-2.294106
1.157030
-0.512025
0.240094
0.021233
0.515536
0.829852
-0.411964
0.816709
-0.881853
-0.016267
-0.173771
-0.477186
-0.340941
-1.276977
-0.202918
-0.688230
0.008841
