-0.034863
1.061109
-0.071904
0.200399
-0.116079
-0.577627
0.040147
0.943965
0.465481
-0.418012
1.192559
-1.233025
-1.214179
0.441318
-0.181964
-0.304226
0.534662
-0.346551
-0.027912
-0.462273
0.686447
-1.345301
0.549664
0.474008
0.042557
-0.682008
-0.870280
0.529212
1.410008
-1.818645
0.198194
-0.153724
1.467138
-0.672052
-0.283127
-1.350227
-0.270574
-0.385027
2.159180
-0.324849
0.170563
0.783451
0.630149
-0.418412
-0.649532
0.159966
1.017858
0.820733
0.080874
0.744504
0.984960
-1.032070
1.610679
0.570646
-0.174351
0.852619
0.096007
-0.814375
-1.388401
0.414426
-1.221527
1.689854
0.093525
0.421472
-0.424874
-1.149400
-1.181572
0.017146
0.011513
0.242570
1.011271
0.168030
-0.180891
-0.012724
0.797890
0.491963
-0.223494
0.253943
-0.281019
0.276671
-0.210122
0.062274
0.102631
0.516438
0.853517
0.246452
1.170333
1.351904
-1.248641
-0.994157
-0.155083
-1.505837
0.424546
0.747670
0.430685
-0.270058
-0.355813
0.354518
-0.381768
0.035829
0.087704
0.105122
0.959583
-0.394038
0.576672
-0.237769
0.184419
0.383165
-0.028835
0.162033
0.005499
0.963898
-0.655240
0.122045
-0.564479
0.445607
0.364094
0.977543
-0.589740
0.017421
0.207355
-0.154664
1.267136
1.145730
0.669744
0.063391
-0.598255
-0.978977
0.065330
0.056174
-0.743502
1.223857
-1.520124
-0.049660
-0.444015
0.573789
1.984791
0.775905
0.867332
-0.114304
-1.254576
-0.210698
0.006037
-0.380835
-0.196541
0.170147
0.039092
1.356464
0.182565
2.261463
0.377403
0.783851
-1.341565
-1.368423
-0.324650
0.738309
1.533169
-0.270541
0.134017
-1.073095
-0.354332
-0.375085
-0.383226
-0.388661
-0.365120
0.479077
1.132922
-1.696114
-0.042416
0.007869
0.053306
0.202965
0.860845
0.219285
0.022808
0.748525
-0.377619
0.362367
-0.228091
-0.692603
0.414621
-1.068832
0.053427
-0.178894
-0.028241
0.016131
-0.699654
0.247970
0.053614
0.378527
0.291420
1.054150
-0.355010
-0.068231
-0.183355
0.270378
0.282521
0.682890
-0.052406
-0.322064
-0.097886
0.700344
0.467154
0.777361
1.215653
0.979505
-0.155320
0.663392
-0.281358
-0.028870
-0.034472
-0.110150
-1.069014
2.691360
-0.040851
1.014221
-0.271260
0.003824
-0.027050
-0.323490
2.047653
0.774328
-0.200088
0.650435
-0.273483
0.183572
0.182568
1.236153
0.334355
0.671659
-0.406561
2.726803
-0.279032
0.349373
0.569887
-0.345844
0.425989
-0.304523
-0.751947
-1.306127
-0.429338
-2.365704
0.432806
0.042856
2.640571
0.778897
-1.049111
-0.686751
-0.136358
1.199191
0.605572
-0.984116
0.582285
-0.298828
1.450821
0.613861
-0.070562
-0.538736
0.025968
0.884917
0.168226
-0.096341
0.037252
-0.306946
-0.454300
-0.529997
-0.147117
0.460140
-0.011606
-0.043987
-0.238352
-0.054574
-0.353952
-0.213717
-0.132926
0.280249
0.309200
0.640900
2.182101
-1.965728
-0.563912
-0.999397
-0.063597
0.688481
1.428043
-0.685349
0.360281
0.611202
1.823291
0.664750
-0.465577
0.147036
0.142638
-1.138445
-0.145464
-0.429911
0.421841
-0.185625
-0.678223
0.652995
0.706519
0.156523
0.733568
0.442161
0.911675
0.039824
0.449778
1.204542
-0.032829
-0.433903
-0.273114
0.180921
0.048051
-0.098881
1.264756
-1.430621
0.136898
0.004566
0.473684
0.474729
-0.796134
-0.234176
0.763839
-0.970632
0.593308
-1.411563
-0.199303
-0.423094
-0.180908
0.058158
-0.129661
-0.105726
0.403465
0.397760
0.511816
0.892298
-0.024915
-2.568614
1.067990
-0.044768
-0.133928
0.064328
0.050026
0.313744
-0.379535
0.311251
0.007510
-0.025963
0.084483
0.203965
0.084020
0.506558
0.092522
0.123961
-0.426168
-0.291578
0.031693
0.056553
-0.304035
-0.504717
0.273878
0.813656
-1.163854
0.842551
0.085208
0.021664
-1.081900
-0.042074
1.317815
0.702524
0.167044
0.254186
-0.281636
-0.497856
0.354149
-0.073540
0.114728
-0.478225
-0.793540
0.373561
0.688234
-0.430311
-0.161417
0.951256
-0.478969
-0.785589
-0.029761
0.527973
0.197421
0.971619
-0.229871
-0.142602
0.815260
0.018697
-0.861316
0.456143
-0.964673
0.828274
-0.179605
0.882183
-0.371882
-0.237899
-0.230889
-0.453993
-0.425551
0.549673
0.482449
-0.067330
0.370795
0.014655
1.033906
0.674884
-0.785281
0.224803
0.615085
-0.271446
-0.093900
-1.230555
-0.270556
0.251550
-1.043277
0.115322
0.787027
-0.046740
0.229582
0.575214
0.458301
0.491119
-0.342130
0.556231
0.046921
-1.848196
0.404558
-0.771806
-0.020553
-1.221403
0.049147
0.648741
-0.234786
-0.372068
-0.703856
0.383159
-0.998204
0.545916
0.135965
0.393001
-1.039596
-0.259898
-0.123814
-0.719522
-2.438328
-0.647700
0.932453
-0.009261
1.198052
0.574323
0.583144
-0.152082
-1.642581
-0.361036
1.055189
0.517474
-0.237583
-1.664617
0.344439
-1.022421
0.540498
0.706421
-0.302564
0.066339
-0.171598
-0.298613
0.057469
0.692265
-1.067394
-0.514247
0.473581
-1.792607
-0.915817
-0.157409
-0.205998
-1.077476
-2.255862
0.271646
1.002251
-0.120861
0.229016
0.266101
-1.566908
0.153495
-0.135950
0.018574
0.026983
0.143029
-0.300500
0.141745
-0.352973
-0.449695
-0.365848
0.883944
