0.722817
0.866345
-0.275927
-0.333481
-0.104153
0.095669
0.543552
-0.527524
-0.286746
0.153061
0.874143
0.038157
0.334334
0.196301
0.596769
0.155272
0.925871
-0.132836
-0.183025
0.133996
-0.084311
-0.769392
0.373356
0.391476
0.186276
-0.558375
0.161102
-0.412227
0.953590
-0.412525
0.512653
0.522805
0.625134
0.249168
0.029888
-0.218626
-0.066465
0.661515
0.675998
0.027119
-0.026084
0.877778
0.293930
-0.130292
0.251262
-0.058557
0.108489
0.615625
-0.259891
-0.301632
0.812285
0.060548
0.787522
-0.695334
-0.110578
0.814847
0.306620
-0.168154
0.828442
0.108500
0.034155
0.897457
-0.495918
0.581096
0.049157
-0.119763
0.469437
0.177981
-0.187050
0.042971
-0.485576
-0.481524
0.059519
0.182531
-0.302132
0.728819
0.189619
1.412339
0.132865
0.072387
-0.969539
-0.743919
0.244071
0.379093
-0.160499
0.180328
0.045888
-0.744978
1.017742
-0.301196
-0.250279
0.684063
0.237830
-0.058631
1.033980
0.747601
-0.192288
-0.292364
-0.175917
0.347263
0.127198
-0.444861
1.540029
-0.186953
-0.035084
0.230700
0.223991
-0.204722
-0.125899
-0.180633
-0.254445
0.932242
-0.559187
0.433133
0.440678
0.403991
-0.203403
-1.544852
1.546078
-0.361138
-0.212063
-0.491630
0.037425
0.463817
0.674927
0.342562
-0.656019
-0.750213
0.159550
-0.307460
0.319138
0.058649
-0.159672
-0.407835
-0.924155
-0.018014
0.222251
-0.869983
1.106776
0.045447
-0.514743
0.012458
-0.141413
-0.138889
-0.243642
-0.149623
-0.645131
0.403680
0.163945
-0.590934
-0.129037
-1.082878
-0.443920
1.289276
-0.300518
0.669048
-1.217189
-0.119021
0.026249
-0.343241
-0.101715
-0.079932
-0.072164
-0.548653
-0.248285
-0.292707
0.186936
0.535859
-0.389066
-0.069931
-0.012983
0.038967
-0.351137
-0.406989
-0.276981
0.110623
0.156527
0.208110
0.097121
0.730990
0.457744
-0.000334
-0.180146
-0.121686
0.132819
-0.114407
0.008414
0.233952
0.747768
0.585356
-0.055832
0.225106
-0.428377
0.171061
0.037030
-0.117213
-0.420923
0.580871
0.004145
-0.106347
-0.029967
-0.354399
0.481121
0.047154
0.423832
0.475714
0.382788
-0.405038
0.046575
-0.187912
-0.017332
-0.118158
-0.430607
0.209483
-0.502609
0.174603
0.734731
-0.341679
-0.224739
0.214399
0.824129
-1.528078
-0.165801
0.194400
0.304515
0.584929
0.825527
0.371030
0.186578
0.131873
-0.077138
0.073616
-0.215110
0.259933
0.134375
-0.733609
-1.420019
-0.139060
1.115803
1.097552
-0.393339
-0.357171
-0.124132
0.070340
-1.047651
0.198851
-0.641969
-0.213911
0.608897
-0.283799
-1.022808
-0.307665
0.523665
-0.133778
0.021427
-0.089579
0.316474
0.049079
0.065157
-0.051027
-0.102797
0.127202
-0.041512
0.214582
0.704015
-0.469677
0.318142
0.797523
-0.412414
0.673566
0.397494
0.013020
-0.038439
-0.012508
-0.189693
0.210123
0.112234
0.136708
-0.236772
-0.751227
0.081589
-0.554112
0.627820
0.058814
0.010596
-0.117601
-0.107779
-0.320232
0.755235
0.105876
0.642288
0.497717
0.243834
-0.449577
-0.843300
-0.028371
-0.535270
0.016055
-0.447698
0.169010
-0.194470
0.156502
-0.957074
0.309735
0.176927
-0.276156
-0.036964
0.235847
-0.173952
-0.119806
0.779887
0.089546
0.426710
-0.208170
-0.229415
-0.000750
0.290702
0.181360
-0.119991
0.330547
0.153549
-0.091423
-0.338465
-0.043673
0.675715
-0.376181
0.407873
0.033287
-0.191450
0.063280
-0.447188
0.042365
0.100643
-0.451133
-0.570983
-0.098382
-0.016677
-1.306589
0.303966
-0.102500
-0.246899
-0.231355
0.161833
-0.309337
0.052890
-0.059020
-0.162464
0.039032
0.100192
0.313180
0.470007
-0.134483
0.270712
-0.298479
-0.289840
-0.275505
-0.195862
0.159318
-0.098998
0.180990
0.683359
0.609698
-0.220755
0.328953
0.165640
-0.229973
0.947012
0.170387
0.457859
0.349301
-0.882525
0.256487
-0.144572
0.789743
-0.272842
0.207621
0.146178
-0.071517
0.280206
-1.160957
0.688156
-0.100279
-0.327792
-0.942833
0.219619
-1.365629
0.805280
0.241434
-0.014169
0.216037
-0.056249
-0.018476
-0.713504
-0.313395
-0.532908
0.246052
-0.078923
-0.442683
-0.258058
0.108974
0.064817
0.768654
-0.116457
-0.072839
0.045724
-0.887551
0.177713
0.078340
-0.038116
0.025951
1.045657
0.053482
-0.549644
-0.056469
1.075937
-0.068433
0.317770
0.151401
-0.197393
0.602432
-0.956923
-0.055570
-0.475686
0.437551
0.161648
0.292223
0.343269
0.469730
0.254194
-0.453107
1.131311
0.725507
-0.223539
0.084538
-0.406523
-1.051671
0.156558
0.017692
0.156201
-0.445355
-0.159678
0.789353
-0.675932
-1.176783
0.419324
-0.008603
-0.593006
-0.216094
0.111640
-0.050281
-1.139251
0.939185
-1.250758
0.242477
1.548195
0.869840
-0.269376
-0.284834
-0.357124
-0.318700
0.106126
1.047030
0.205283
-1.159567
-0.088362
-0.397992
0.543934
0.605940
0.216565
0.228721
-0.132010
0.002121
0.349624
1.205540
-0.527414
0.302101
-0.443393
0.821717
0.021567
-0.183002
0.330616
-0.105163
-0.739218
-0.070899
-0.449140
-0.224988
-0.417779
-0.214736
-0.369204
0.475525
-0.170313
-0.267188
-0.096968
-0.165498
0.369275
-0.350789
1.558406
-0.433283
0.741873
-0.311715
