0.020607
-0.261833
0.387214
-0.225385
0.243178
1.317330
0.796300
-0.998103
0.055411
2.169381
-1.437659
2.412461
0.404666
-0.936838
0.393412
0.583221
-0.292312
1.004734
1.024176
0.337510
-0.530906
0.909891
0.387838
0.233878
0.109757
1.390875
-2.588902
0.311978
-1.137778
-0.784998
0.049009
1.100130
-0.264011
0.478838
0.914263
1.301693
0.223019
0.509096
1.335140
-0.117220
-1.160990
0.417850
0.180918
0.151254
0.607284
-0.364539
2.147351
0.320530
0.357520
0.174510
-1.199903
-0.871203
0.720168
-0.201378
0.088888
-1.817613
0.223779
-0.429291
0.851724
-0.076418
-1.856709
-0.265009
1.368546
0.968113
-0.393999
-2.255834
0.269667
-0.916878
-0.798529
0.522851
-0.274119
1.287897
0.243520
-0.133990
-0.314333
-0.087963
1.225061
0.052808
0.164635
-0.409729
1.061106
-0.141385
-0.440273
0.326028
-0.211872
0.014833
0.037269
0.057294
-1.711904
0.299944
-0.036521
0.073259
-0.169525
-1.938075
1.098532
-1.051974
0.368507
0.300178
0.436462
0.275292
-0.297817
1.173439
-2.592574
-0.568960
-0.218147
-0.469019
-0.168252
0.054276
-0.529120
-1.622456
0.454178
-0.008466
0.794112
0.558304
-0.529599
0.563271
-1.135571
0.483831
1.222243
-0.824306
-0.249836
-0.198960
0.257092
-0.576054
-0.089978
-0.174574
-0.391566
0.810622
0.284845
0.229477
0.042751
0.273544
-1.165946
0.140308
2.102244
-2.000952
1.016248
-0.875456
2.569879
0.377614
-0.012632
-0.280730
-0.603336
0.201688
0.515169
0.019585
0.585207
0.228744
-0.086832
-0.689703
0.574139
-0.464531
-0.997536
-0.632382
-0.880498
-0.572950
0.003391
-0.528944
-0.333714
-0.191181
0.065821
-0.016214
-0.406917
2.520254
0.708216
-1.372569
1.604886
3.603907
-2.744915
-1.365374
0.227430
-0.600932
-0.836209
-0.098074
-1.297052
0.389651
-1.135218
-0.625697
0.466166
0.784622
0.867576
-0.221962
1.983296
-0.126263
0.351712
0.296053
0.898998
-2.116417
0.709275
1.098631
-0.267668
-0.118358
1.167901
-0.072925
0.218836
-1.080630
-0.320137
-0.008067
0.378149
-0.291764
0.057948
-0.524333
0.187032
-0.829183
-0.488830
0.469866
0.137245
-0.149399
2.134503
0.066294
-0.364617
-0.589059
0.373744
-3.294851
0.935406
-0.754653
-0.316336
0.282812
-0.102625
-0.343837
-0.708354
0.430133
-1.324013
-0.625385
0.899722
1.515243
-0.621539
0.769514
0.333483
0.635705
0.903615
1.052916
-0.130198
0.858376
0.245829
-1.564224
1.599891
-0.365144
-0.862681
-0.897963
-0.622718
-0.253174
1.281938
-0.542653
-2.013050
-0.052351
1.507939
-0.141481
0.457537
-1.844805
-0.994403
2.471917
0.934121
-0.288481
0.930882
0.049597
-0.546518
-2.042902
-0.452620
-0.552070
0.184511
-0.515839
-0.669141
-0.712896
-0.564600
1.119574
0.012459
1.437161
0.824151
1.034766
-0.178938
-0.333521
-0.511205
0.196468
0.125677
-1.069698
-0.248456
-1.335146
-0.059922
0.551728
0.601574
1.439885
-0.264997
-0.152762
-1.378488
-0.587798
-1.257055
-0.919938
2.293848
-1.954147
0.420297
0.481354
-1.395926
0.067223
-0.585762
0.178699
1.346784
-0.280839
-0.885839
-0.344208
-0.070002
-0.543568
0.417959
-0.285446
-0.107931
-0.492038
0.457950
-0.231464
-0.334675
0.458108
2.670605
0.758454
-0.270023
-0.419932
-0.764058
0.792767
-0.381844
0.285513
-0.458431
-0.315298
-0.147935
-0.363993
0.707807
2.003244
0.308629
0.391251
0.367227
1.942022
-0.182509
0.536580
-0.370221
0.575689
1.062793
0.599096
0.930960
-0.232281
1.230853
0.907146
-2.585266
-0.091628
-0.410362
-0.186680
-0.382524
0.207707
0.081582
1.725785
0.541025
-0.378248
0.037889
-0.722996
-1.020140
0.333443
-0.542414
0.845020
0.025195
0.183298
-0.717552
-0.075269
-0.395320
0.012753
-0.222995
-0.467264
-0.142961
-0.397113
0.223190
-0.130798
-1.532375
-0.257334
-0.425618
0.128740
0.680469
0.469904
-0.193377
0.664197
-0.037252
0.523203
-1.247470
0.776342
0.283344
1.729119
-0.040416
-0.195217
0.246629
0.014435
0.603480
2.011321
0.612532
-1.100439
-0.381169
-0.542603
0.678184
-0.217732
0.438931
0.227887
-0.384935
0.838021
-0.074592
-0.759597
-0.263794
0.182465
-0.436502
0.102817
0.540828
-0.342305
-0.199398
1.951275
-0.414968
1.703902
-0.263151
-2.677081
0.114386
0.743478
-1.399547
0.651266
-3.041361
0.503212
-0.426526
-0.724480
-0.269290
-0.376105
-0.639231
-0.947438
-0.061795
-0.582847
-0.794215
1.276409
-3.191098
-0.030709
0.853648
0.733348
1.444974
0.431581
-0.883249
-1.230592
0.775597
0.417994
-0.217011
-0.411030
-0.066498
3.136195
-0.553884
-0.240382
2.338336
1.198028
-0.895611
0.483939
0.402660
-0.142359
0.298271
-2.004977
4.155792
0.964175
0.051177
-0.451219
0.331075
-0.983307
0.587316
1.118563
0.367236
0.352524
-0.553730
-1.519949
0.062998
1.029691
-1.844497
-0.990454
-0.144083
-0.091127
-1.090684
0.487166
1.212611
-1.404618
-0.459002
0.286523
2.268549
-0.047831
0.414984
0.824980
0.701908
2.131058
0.670504
-1.123196
1.854332
0.556531
0.762081
-0.354065
-0.284669
0.401178
0.178426
-0.542095
-0.251630
-0.079753
-0.242446
-0.353314
0.742591
-1.250030
2.461256
1.010691
0.123616
-0.995043
