0.161928
0.072144
0.843759
-0.163597
0.428501
0.143482
0.117150
0.112954
-0.135556
-0.372858
-0.016631
-0.073276
-0.542395
-0.293377
0.380462
-0.328250
0.479127
0.425484
-0.002805
-0.181491
-0.745589
0.185518
-0.248369
-0.495629
-0.027472
0.529597
0.411047
-0.112665
-1.176473
-0.156263
-0.186401
-0.272828
-0.371582
-0.167260
-0.127653
1.292986
-0.163317
-0.602045
0.476087
-0.187895
-1.011110
0.011794
0.037362
-1.216769
0.067779
-0.107681
-2.214212
-0.956601
0.410551
-0.103695
-0.888298
-0.082097
-0.222197
0.125141
-0.204774
-0.176723
-0.527605
-0.645579
-0.509622
0.179181
-0.532975
0.585333
0.493823
-0.029873
-0.024054
0.215949
-0.246455
-0.213379
0.011378
-0.246707
0.182017
0.204716
-0.016527
-0.216434
-0.323787
0.604888
0.526830
-0.404190
-0.679972
-0.167224
1.504562
-0.073341
-0.018518
-1.907336
0.357477
-0.093653
0.090060
0.600626
-0.032292
0.527508
-0.066245
-0.403772
-0.054814
0.203914
-0.640509
0.149763
-0.026778
0.233761
0.092180
0.049395
0.127019
0.194982
0.130046
0.223539
0.612463
-0.078235
0.088950
0.196434
1.175109
0.426427
0.187591
0.009804
0.063819
-0.011178
-0.782309
-0.462588
-0.002909
0.468152
0.177933
-0.204349
-0.331906
-0.254602
-0.347970
-0.509696
-0.752167
-0.253729
0.337120
0.393362
-0.197897
-0.261384
0.578666
-0.080785
0.250171
0.221717
0.324605
-0.505059
-0.155005
-0.448441
1.195951
0.079482
0.412802
-0.232097
1.101474
-0.533167
0.056432
-2.057245
0.005862
0.143119
0.214689
-1.636242
-0.210779
0.369572
0.925221
0.370137
0.133392
0.170330
0.012754
2.050586
0.145333
-0.023494
-0.637405
0.027246
0.331568
0.571811
0.210258
0.033588
-0.245606
0.588684
0.005224
0.284332
0.405720
-0.697700
-0.483833
0.391404
0.349768
-0.173667
0.061181
-0.061837
0.683877
-0.337128
0.340180
-0.188756
-0.351131
-0.155016
0.631950
-0.584527
0.528962
-0.384178
0.649162
0.129466
0.008066
-0.569141
0.558617
-0.146590
0.041584
-0.762908
0.617302
0.093909
0.818643
-0.230404
0.341192
-0.380584
-0.620919
-0.274411
1.133146
-1.316234
-0.147497
-0.315496
2.024977
-0.929651
-0.032366
-0.094547
-0.172482
-0.067963
0.662002
-0.592306
0.014005
-0.082999
-0.046009
-0.449038
-1.337811
1.083327
-0.200548
0.317218
-2.048422
0.878227
-0.399467
1.102531
-0.191641
-1.042464
1.279103
-0.400891
0.263876
-0.582497
-0.003805
-0.802741
0.320806
0.541279
0.108443
-0.331511
0.443449
2.240639
-0.216870
0.565374
-2.067927
-0.351884
-0.429067
0.255278
0.292254
-1.118184
1.086678
1.602004
-0.066186
-0.068138
0.921733
-0.492717
0.115988
-0.285585
-0.325767
-0.242781
1.671938
-0.529267
-0.273123
0.328602
0.129162
0.396431
0.018081
-0.339871
0.712850
1.320594
-0.277671
0.291149
0.016794
-0.447089
0.601458
-0.097401
-0.194520
-0.239382
0.645549
0.584832
-0.089041
0.282991
-0.177400
-0.169872
0.811697
0.457562
0.283841
-0.390225
0.689616
0.859138
-0.201271
0.019054
-0.283649
0.457859
0.404202
0.079136
0.346577
-0.099417
-0.153556
-0.220710
0.552252
-0.099420
0.143831
-0.389982
0.377678
-0.159543
0.105502
-0.058751
-0.076266
0.673329
0.195401
0.200162
0.102362
0.020300
0.089061
0.622179
0.232409
-0.412617
0.485321
0.694381
0.063865
-0.299747
0.384747
0.194796
-0.514437
-0.374428
0.133712
-0.106460
0.109422
-0.116549
-0.392702
-0.191838
0.420688
0.015463
0.322692
-0.201944
0.347794
1.046715
-1.035965
0.652899
-0.155336
-0.112412
-0.174700
-0.111551
-0.238210
0.076195
-0.322736
-0.164955
0.999436
-0.083793
0.544011
-0.534601
-0.998212
0.545695
0.169067
-0.693340
0.332522
0.734624
-0.070274
0.906450
-0.299159
-0.813879
0.715171
0.376834
1.130758
-0.174055
1.043053
0.031293
-0.363218
0.315445
-0.339244
0.070144
-0.137744
0.353431
-0.279720
-0.377648
-0.255461
0.391700
-0.138883
0.592390
-0.008461
-0.094628
0.040033
0.503854
-0.077293
1.855404
0.087368
-0.433962
0.674923
0.407509
0.901748
-0.111853
0.970957
1.786008
-0.519555
-0.386981
0.043273
0.050118
-0.210657
0.395852
0.541723
1.385053
-1.047316
-0.166252
-0.749461
0.571179
1.240877
0.722083
0.185199
0.478444
-0.028536
0.552775
0.948625
-0.273517
-0.102725
0.222960
0.780904
-0.181923
1.222736
-0.111730
0.749629
-0.395935
-0.330512
0.091051
-0.331479
-0.778475
-0.452296
0.144430
-0.016136
0.192452
-0.558798
0.210950
-0.092385
-0.181927
0.009742
0.713212
0.083908
-0.214862
-0.339491
-0.074444
-0.230172
-1.035497
1.013824
0.538400
0.103219
-0.723767
1.001169
0.372353
-1.062782
0.677691
1.538628
-0.981883
0.637702
-0.311832
0.297609
-0.665493
0.502723
0.165185
0.575939
-0.091387
-1.066128
0.420286
1.150095
0.885081
0.186329
0.455559
0.382582
-0.166042
-0.192543
-0.264848
0.119646
0.087988
-0.176543
0.579083
0.490298
0.510033
-0.120989
0.025026
-0.132989
-0.597760
0.157405
0.206102
-0.141789
0.127800
-0.664640
0.248566
0.239163
-0.140114
0.773203
-0.454712
-0.204249
0.352211
-0.131799
-0.011783
0.231926
0.524772
-0.898454
2.037890
-0.194385
-0.258970
