0.490700
0.540450
0.520988
-0.545837
-0.269020
0.277291
0.406032
0.126921
0.336962
0.122078
-0.405490
-1.051067
0.339173
0.398255
0.061508
-0.184775
0.971618
0.294030
0.428442
0.385231
0.390951
-0.061827
0.007073
-0.185828
-0.003050
-0.034787
-0.784203
-0.208278
0.466741
0.118024
0.385738
-0.459599
0.482012
-0.545405
-0.455813
-0.272979
0.119323
0.620379
1.413118
0.299243
-0.226186
0.087815
0.681764
1.243706
-0.787571
0.069069
0.215518
0.636283
-0.090512
0.642964
0.552381
-0.810832
1.506585
-0.441488
-0.312125
0.020367
0.499516
-0.166473
0.964147
0.323785
-0.905720
1.235939
0.265006
0.588808
-0.306726
-1.228090
-0.512038
-0.131653
-0.295545
0.391276
0.199476
0.518989
0.128053
-0.316660
-0.452040
0.621658
1.203675
0.307397
-0.345719
-0.247345
-0.247574
-0.114167
0.489483
0.013318
-0.279798
-0.357060
-0.043021
0.273088
-0.678428
0.353253
-0.137640
0.115840
0.461124
1.082442
1.038054
-0.411547
-0.019231
0.240833
-0.009924
0.052652
-0.472966
-0.210691
-0.052530
-0.568744
0.842696
-0.164991
-0.086101
-0.478427
-0.495370
-0.853260
-0.141960
0.028110
-0.232880
0.365250
0.739001
-0.079872
0.179522
0.203493
1.687904
-0.405358
-0.535098
-0.066040
0.289669
0.788032
1.191247
0.365376
-0.608167
-0.584381
0.671470
0.256386
0.138646
0.785035
-0.913245
-0.039745
-0.149467
-0.144611
-0.630677
-0.261606
1.529435
0.030653
-0.475904
-0.225778
-0.100619
0.098601
-0.174546
0.555201
0.049315
1.014233
0.467439
-0.072687
0.024106
-0.110578
-0.318503
-0.721288
0.265060
0.247611
0.613631
0.878899
0.393552
0.285143
-0.444056
-0.316660
-0.163130
-0.019346
0.036492
0.503323
1.134151
-0.016210
-0.068293
-0.192627
0.575810
0.628806
-0.560296
0.086795
-0.115213
-0.052887
-0.349068
1.152779
0.581195
-0.148587
0.228835
-0.797381
0.527612
-0.203097
0.027851
-0.388538
-0.153465
-0.192068
-0.149153
0.679220
-0.032353
-0.184709
0.959128
0.282841
-0.152255
-0.311424
-0.459969
-0.040969
0.056679
-0.257572
0.024293
-0.629528
0.203236
-0.012334
1.923215
0.013079
0.225282
0.078002
-1.046835
0.592825
-0.234510
-0.189899
0.153563
1.194248
-0.227162
-0.007641
-0.033001
-0.101642
0.218385
-0.177543
-0.145821
0.305900
0.303592
0.765237
0.322712
0.551383
-0.463024
1.620415
0.252600
0.039669
0.246309
1.095266
-0.113037
0.265259
0.265406
-0.465483
0.854248
-0.067249
-0.270535
-0.575404
-0.223019
-0.192095
0.002401
0.506070
-1.414926
0.477025
0.353086
-0.208054
0.267579
-0.668758
-0.862065
1.339872
0.856475
-0.285941
1.253688
-0.281250
-0.521130
-0.297498
-0.274379
0.568906
0.808706
-0.079998
-0.256347
0.581195
-0.133774
0.475834
0.127700
0.173111
0.245211
-0.034605
0.455520
0.168460
-0.490890
-0.355224
0.054347
-0.238857
-0.239153
0.136566
1.177120
-0.102225
0.344632
0.402245
-0.098613
0.020725
1.846159
-0.137872
-0.517861
-0.170562
2.137264
0.792385
-0.343580
0.072115
-0.460210
-0.341366
-0.550703
-0.083331
0.094120
-0.717392
-0.315323
0.362013
0.220222
-0.257149
0.345551
0.281532
-0.096682
-0.771743
0.697642
-0.533667
-0.460074
-0.157925
-0.245349
-0.265704
0.915923
-0.390861
0.851638
0.147260
0.391438
0.630077
0.161825
-0.067480
-0.298001
-0.185632
0.694266
-0.473345
-0.164626
0.171243
0.161469
-0.378505
0.103347
-0.196014
-0.274191
-0.038244
0.753790
-0.068589
0.023195
0.291656
-0.023441
-1.469778
-0.170347
-0.126055
-0.223334
-0.305125
-0.204039
0.031997
-0.283107
0.262215
-0.068361
0.224013
-0.207223
0.794784
0.026677
0.254209
-0.192906
1.044705
-0.232843
0.031846
0.123297
0.722684
-0.266188
-0.629668
-0.144692
-0.302806
-0.496155
0.032720
-0.751254
0.030524
0.330383
0.291874
-0.231385
0.356539
-0.074122
0.621711
-0.172867
0.555864
0.070367
0.417037
-0.375783
0.464074
0.424673
1.695514
0.484508
-0.006106
0.193944
-0.558068
-0.163972
1.347880
-0.263903
0.003628
1.823393
0.116497
0.246521
-0.338067
0.142127
-0.640424
-0.082709
0.001600
-0.183816
0.354380
-0.209260
0.440056
-0.151767
1.268696
-0.382615
-0.551125
-0.920349
0.033887
1.186720
0.561613
0.493087
-0.492921
0.652555
0.524006
-1.768947
0.356398
-1.024541
0.142229
0.076100
-0.946874
-0.697483
0.141008
-0.638172
-0.290901
-0.258392
-0.174111
0.215173
1.922711
-0.435561
0.488362
-0.102903
0.049400
1.801276
-0.787050
1.152270
-0.151407
-0.248824
0.107146
-0.295968
0.252825
-0.036063
-0.672818
-0.520199
0.402774
-0.637999
0.661931
0.492191
-0.098999
0.015434
-0.318190
0.597866
-0.909543
-1.576324
0.537417
0.073459
0.285333
-0.300556
-0.135689
0.324774
-0.202790
0.357682
-0.478092
-0.333940
1.326680
-0.684607
-1.099205
0.038688
-0.352277
0.772576
0.777832
-0.577529
0.247353
0.392373
-0.740025
0.780954
0.373602
0.314184
0.444816
0.188328
-0.424981
-0.077222
0.208530
0.117063
-0.432661
0.078646
0.976118
0.216112
-0.466249
-0.201205
0.499134
0.162314
0.194818
0.266054
-0.072715
-0.036262
-0.246769
-0.218166
0.147002
0.770804
0.492770
-0.438215
0.258632
