0.057219
1.111529
-0.274110
-0.036730
-0.084587
-0.684164
0.163263
0.111736
0.060159
-0.485644
1.999643
-1.207762
-0.967128
0.535013
0.898415
-0.375307
0.516955
-0.584138
-0.591683
-0.074409
0.363518
-1.558978
0.221727
0.434941
0.264039
-0.021128
0.054031
0.116549
1.128531
-0.456461
0.485111
0.162311
0.883668
-0.671646
0.062995
-1.933502
-0.454816
-0.859621
1.998121
-0.238557
-0.685867
0.738060
0.719675
-0.609972
-0.565833
-0.037946
-0.374623
0.787499
-0.169338
-0.218167
0.716585
-1.317520
1.368275
0.321685
-0.573915
0.906488
0.580635
-0.352652
-0.046513
0.588502
-0.340914
1.818500
0.988080
0.794861
-0.034658
-0.344657
-0.567354
0.192280
-0.019586
1.044437
0.489224
-1.421629
-0.275858
0.556351
0.543230
0.343130
-0.296625
-0.858260
-0.622486
-0.055345
-0.936688
-0.409576
0.322787
-0.583507
0.341190
-0.357293
0.734241
0.211755
0.409786
-0.024794
-0.147188
0.691661
0.803182
-0.456353
0.154162
0.264181
-0.378139
0.720557
-0.421131
0.288767
-0.051556
-0.552099
0.406990
-0.959409
1.193464
-0.004956
0.133552
0.413938
0.136900
0.077995
-0.037245
0.879646
-1.046582
0.030928
-0.076584
0.275444
0.117001
0.234766
0.117293
-0.077422
-0.119862
-0.268099
0.053769
1.329897
0.874708
0.490839
-0.436982
-1.134319
0.147737
0.862543
-0.167227
0.851804
-0.036854
0.408199
-0.445051
0.182144
0.384071
0.567715
1.949073
0.127241
-1.093233
-0.168554
0.107183
-0.315657
-0.450422
-0.209561
-0.518773
1.243824
0.599770
-1.052397
0.045582
-0.113682
0.141615
0.075247
0.145960
1.054017
0.392777
0.484635
-0.727128
1.735984
-0.270932
0.205484
0.059504
-0.409126
-0.837707
1.840038
-0.125720
-0.675622
0.262571
0.439116
-0.359746
0.353251
-0.401449
0.305155
0.972298
-0.313201
-0.064260
1.060952
-0.495250
-0.663721
0.635268
-0.566266
-0.610010
-0.105996
-0.623149
-0.201782
-0.171075
-0.012104
0.203508
0.757612
0.544947
0.569580
-0.252561
-0.018107
-0.198251
-0.165686
0.563546
0.256139
0.176432
-0.496425
-0.285280
-0.076927
0.622987
1.018305
1.012957
0.755779
0.276928
0.380676
0.607879
-0.331564
-0.124257
-0.070793
-0.430148
2.263154
-0.318561
0.374362
0.148866
-0.339511
-0.434831
1.198661
-0.120390
-0.012093
-0.748367
1.230930
-0.233391
0.016646
1.111981
1.764937
0.424622
0.098790
0.466688
0.285182
-0.248413
0.271590
0.485345
-0.341470
-0.165450
0.031564
0.441163
0.198826
0.433151
0.809448
0.388311
0.779258
-1.029557
0.580630
-1.652356
-0.329247
0.979045
-0.700799
0.998207
-0.417728
1.023165
-0.253983
1.261937
-0.381362
-0.066446
0.115768
0.118355
0.343641
0.239116
-0.704368
-0.144930
0.112182
0.381745
-0.764664
-0.352128
0.878494
-0.379263
0.896275
0.177373
0.079194
-0.051383
-0.389253
0.329633
0.060234
-0.090931
0.547888
1.288528
-1.290164
-0.026347
-0.625448
0.496959
0.294374
1.507851
0.496920
-0.237919
-0.159662
1.955216
1.866657
0.331244
0.497967
-0.255314
-0.684104
0.066688
-0.521269
1.138047
-0.180635
-0.188346
0.481059
-0.023724
0.047793
0.266529
0.236973
0.422271
-0.246064
0.258669
0.172857
0.490282
-0.141418
0.490769
0.020290
0.085409
-0.442261
-0.351374
-0.647779
0.190086
-0.072911
0.440708
0.449841
0.471129
-0.477578
1.645435
-0.825297
0.507463
-1.050597
0.572841
0.078272
-0.585949
0.486194
-0.600145
-0.318440
0.667556
-0.622068
0.192155
1.036543
0.084397
-1.790736
0.211137
0.195386
-0.306381
-0.024171
0.166019
-0.423160
-0.382540
0.679620
0.022627
-0.248647
0.164026
0.254590
1.040157
0.729270
-0.037488
0.402083
-0.493891
-0.647883
0.571770
1.149077
-0.389092
0.093152
0.358047
0.273025
-0.743496
0.410592
0.047264
-0.063413
0.434119
0.332804
-0.669922
0.403176
-1.372283
0.018561
-0.076241
0.926762
0.031293
-0.476020
0.805415
0.054756
0.586832
-0.536138
0.828930
-0.321847
-0.019506
0.309372
-0.393291
-0.269933
0.744258
-0.175103
1.029813
0.592299
-0.374289
-0.087813
0.489773
-0.083418
-0.735480
0.113463
-0.368922
0.359968
-0.443003
0.183021
0.583663
1.914454
-0.212605
0.242943
-0.317885
0.455579
0.788222
-0.057405
0.410574
0.492069
1.038779
-0.007799
-0.740066
0.292225
1.180205
-0.000578
-0.087150
-0.491764
0.125069
0.355356
-0.697247
0.090834
-0.074299
0.665660
-0.098237
0.131255
-0.053788
0.587667
-0.047768
0.210889
-0.814829
-0.297725
-0.707318
-0.850926
-0.171628
-0.981388
0.115510
0.208621
-0.026369
-0.405002
0.008121
0.231016
-1.767928
0.376163
0.346654
0.143133
-1.747062
-0.062891
-0.551747
-0.218604
-1.872395
-1.390015
1.178432
-0.094307
1.462462
1.617886
0.368795
0.178066
-0.333244
-0.254177
0.133056
1.437538
-0.114485
-1.477343
-0.113548
-0.685384
0.313684
0.634422
0.029898
0.249581
-0.148010
-0.087351
-0.022565
1.058178
-1.352480
0.226208
0.157292
-0.657384
-1.178858
0.011451
-0.053587
-0.297116
-2.806396
1.003133
-0.063389
-0.406982
0.004944
0.028357
0.343757
-0.278055
0.236032
-1.340742
-0.044615
0.102191
-0.438027
0.518766
0.012253
0.496536
-0.431221
0.108761
