0.152292
0.004613
0.731963
-0.116938
-0.117907
-0.268805
-0.326715
0.431498
0.661716
0.345727
0.430641
-1.945948
-0.449030
0.605082
-0.009803
0.168446
0.815460
0.660207
0.194165
0.021386
0.770040
-1.024764
0.056811
-0.239066
0.068508
-0.730876
-1.047229
0.131308
0.593164
0.259365
0.412054
-0.299378
0.775344
-0.152339
-0.131121
0.773852
0.345947
-0.851147
1.997240
0.296881
-0.638533
-0.007323
1.201384
1.108560
-1.401577
0.232229
-0.788228
0.400240
0.674083
0.608651
0.490689
0.018213
1.995748
0.135458
-0.293838
0.110410
-0.794831
-0.848203
-1.825659
0.298124
-0.804360
0.750837
0.031144
0.146275
-0.113565
-0.202690
-1.170566
-0.058866
0.162822
0.120403
0.673548
-0.300117
0.249986
-0.250878
0.099012
0.646967
1.154047
-0.094455
-0.767100
0.005087
-0.056818
0.981262
-0.360876
1.127817
0.286396
-0.206226
0.024311
0.824801
-0.578319
-0.368675
-0.155888
-0.633640
-0.075535
0.154046
-1.118462
0.032678
-0.206040
0.311514
-0.141446
-0.285883
-0.071210
-0.408186
0.543730
-0.129898
1.127123
-0.070235
-0.115797
-0.448903
0.366376
-0.175573
0.254288
0.189092
-0.102761
0.006193
0.054030
-0.630551
0.114550
2.308709
-0.086290
0.402059
-0.344610
0.190090
0.127750
0.078271
-0.018750
0.276608
-0.015825
-1.226073
0.612451
0.088118
-0.014098
1.008010
-0.741131
0.505324
1.127804
0.512766
-0.495433
0.200377
1.503155
0.212875
-0.997662
-0.233717
0.094025
-0.354597
-0.020448
-0.511531
0.365317
1.838448
0.584217
0.417453
-0.051534
0.803590
0.258921
-0.715618
0.504510
0.242189
0.287666
1.626852
0.406501
0.778745
-0.712868
0.089955
0.117466
-0.252371
-0.440359
0.667526
1.180790
-1.888095
-0.253669
0.145060
0.270457
-0.117874
0.400976
0.360939
0.634981
0.301127
-0.077689
0.339049
0.232948
-0.600468
0.383295
-0.955210
0.889429
-0.078765
0.340047
0.090249
-0.574259
-0.141395
0.562968
0.588865
-0.015771
-0.289456
0.094429
-0.300510
-0.041358
0.586355
0.641180
-0.064737
0.389569
-0.248658
-0.153992
-0.287597
-0.000592
-0.366218
1.723141
-0.856503
-0.203218
0.321410
-0.778109
1.306885
-0.076083
-0.057686
0.386580
2.808316
0.568893
0.131553
-0.299193
0.379789
0.023108
-0.161328
-0.018101
2.101760
0.608091
0.389854
-0.872974
0.264819
-0.263685
1.644903
0.342168
0.088061
1.144964
0.444119
-0.138631
-0.265345
0.075856
-0.139019
0.473678
0.341707
-0.029509
-1.010414
-0.853256
0.192841
-0.278935
-0.111514
0.099084
0.377037
-0.803871
-0.368229
0.326118
0.339996
0.211483
1.102463
0.549195
-0.222328
1.709327
0.077408
-0.406221
-0.436494
-0.835263
0.294894
0.858620
-0.065915
-0.592973
0.067874
-0.120558
-0.194714
0.645074
-0.207837
0.575541
0.360392
-1.015665
0.157340
-0.018663
-0.356916
-0.316570
-0.061378
-0.433971
0.118763
1.582680
-0.433487
-0.069285
-0.474608
0.162523
0.186228
1.957191
-0.085020
-0.391372
0.187474
2.218316
1.300703
-0.080498
0.009107
-0.554548
0.271173
-0.027218
-0.230498
0.230471
-0.311977
-0.022163
0.677311
0.234466
-0.080830
0.920657
0.593033
0.437979
-0.285218
0.094244
0.043442
-0.082077
0.362479
-0.845578
-0.530091
0.117298
0.025651
0.923650
-0.405495
0.334175
1.166806
0.537694
0.610795
-0.284403
-0.243076
0.199120
-1.403683
0.023304
-0.761164
0.069396
-0.876739
0.589535
-0.630791
0.703933
0.481337
0.838857
-0.046619
0.363893
0.337198
0.098380
-1.396427
0.516964
-0.351804
-0.248834
-0.063180
-0.173669
0.197639
-0.748876
0.113310
-0.282008
0.932265
0.486468
0.170141
0.800906
0.166341
-1.299619
0.673208
-0.345998
-0.310416
0.784368
-0.056950
-0.226698
-0.113409
-0.194207
0.057276
-0.658655
-0.082736
-0.083877
0.143941
0.558244
0.000603
-0.107461
0.993650
0.107407
0.732918
-0.420285
-0.924306
0.383749
0.192389
-1.191971
-0.569579
-0.777266
1.478235
0.597335
-0.270197
0.076178
0.046255
-0.731520
1.028851
-0.398233
-0.018978
0.495015
0.111579
0.830625
-0.174085
0.974952
-0.119260
-0.091933
-0.042707
-0.521793
1.083145
-0.318259
0.259543
0.215865
0.587183
0.410758
-0.666341
-0.833415
-0.084262
1.319449
0.434057
0.107542
0.102950
0.781859
0.257587
-0.065363
0.054536
0.328035
0.434175
0.727867
-0.761495
0.089095
0.571761
0.111368
-0.065234
0.216348
-0.202641
0.186353
0.551762
0.459452
0.055450
0.312830
-0.178382
0.286463
-2.038023
0.955606
-0.402506
-0.430952
-0.340730
0.020198
-0.030530
-0.594689
0.091393
-0.262084
0.637517
-0.381992
0.744367
-0.240667
-0.301224
-0.282391
-0.109801
0.516031
-0.103853
-0.704977
-1.273818
1.926419
-0.166167
0.303822
0.104826
0.823848
-0.446205
0.093625
-0.074986
-0.656933
0.999364
-0.322159
-0.498905
-0.222420
0.180697
0.790448
0.458633
-0.340535
-0.649361
0.086379
-0.266847
0.498654
0.602947
-0.161642
0.605223
0.546035
-1.965699
-0.479976
-0.197856
0.026591
0.013346
-1.595691
0.434391
-0.075296
1.080291
-0.200579
0.577701
0.618925
0.124981
0.295023
-0.552341
0.009146
-0.014039
-0.086603
-0.223696
-0.134435
0.442101
-1.064315
0.652802
