0.135895
0.248733
0.821747
0.027573
0.043308
0.053600
-0.204577
0.740468
0.527132
0.747326
-0.252632
-1.274922
-0.282462
0.734925
-0.041225
0.439880
0.840408
0.690841
0.895196
0.059665
0.744453
-0.424303
0.292532
-0.594008
0.058219
0.370148
-1.399303
0.210750
-0.245818
-0.245344
0.374397
-0.555623
0.490672
-0.196226
-0.234891
1.596638
0.499567
-0.854618
1.658839
0.267068
-1.247074
0.316319
0.528242
1.163064
-1.348871
0.085878
-0.367264
0.268151
0.754589
0.014508
-0.142218
0.411572
1.790376
-0.202629
-0.192114
-0.142844
-0.582746
-1.006204
-2.765584
0.207769
-1.333190
1.570521
0.147376
0.490101
-0.144293
-0.553716
-1.085655
-0.214437
-0.202698
-0.536190
0.892785
0.372958
0.257479
-0.550634
-0.405551
0.813075
1.251018
-0.715078
-0.826736
-0.295197
0.390832
1.239097
-0.317223
0.961678
0.444829
-0.260536
-0.220565
0.779052
-0.982060
-0.025898
-0.281000
-0.522261
-0.383013
-0.024822
-2.133078
-0.225052
-0.147562
0.298851
-0.062560
-0.416582
0.003551
-0.077897
0.709456
0.242164
1.396250
-0.185624
-0.269414
-0.760621
0.430136
-0.340035
0.131061
0.462808
0.045336
-0.029708
-0.096887
-0.624852
0.595903
2.613399
0.303610
0.369563
-0.292253
0.108443
0.457736
-0.144966
0.269901
0.172286
0.436673
-0.353534
0.594385
-0.002819
0.229553
0.803269
-0.914953
0.076217
1.563435
0.229784
-0.494960
-0.251399
1.682701
0.298642
-0.433004
-0.250773
0.371356
-0.113095
0.297315
-0.361562
0.366400
1.713629
0.735796
0.387542
-0.191518
0.932783
-0.067570
-0.864435
0.259107
0.053452
0.508029
1.730346
0.710731
0.104600
-0.600304
-0.029201
-0.152992
-0.195180
-0.017098
0.875474
0.653229
-1.395697
-0.156905
0.117907
0.452764
-0.041206
-0.608481
0.607982
1.003766
-0.017447
0.007838
0.923354
0.808939
-0.803230
0.291094
-0.761139
0.907073
-0.169060
0.481997
-0.415875
-0.115709
-0.525018
0.614454
0.129436
-0.238161
-0.941457
1.159183
-0.140854
-0.024687
0.610653
0.340318
-0.138123
0.665908
-0.255398
0.087763
-0.702291
-0.508424
-0.063182
1.640238
-0.686831
0.444434
-0.291007
-0.619935
1.544608
-0.114755
-0.146963
0.302178
2.083994
0.381296
-0.119254
-0.202739
0.518347
0.135603
-0.536347
0.193965
2.384142
0.592929
0.542092
-0.124673
0.764347
-0.600919
1.870627
0.046781
0.118823
1.727580
0.021482
-0.000838
-0.498168
-0.372560
0.003154
0.907495
0.551696
-0.297501
-1.054766
-0.588206
0.365554
-0.233623
0.145161
-1.277468
0.264100
-0.103219
0.073574
0.179166
-0.267384
0.071175
1.535551
0.003316
-0.277512
1.519696
-0.283367
-0.211354
-1.186669
-1.168604
-0.063428
0.769495
-0.159141
-0.829014
0.417230
-0.489195
0.250022
0.818175
-0.922238
1.220157
0.629597
-0.958073
0.190568
0.011845
-0.509615
0.059597
-0.273686
-0.491576
-0.115502
1.585373
0.107712
-0.284372
0.042469
-0.223657
-0.217059
1.711017
-0.246844
-0.737691
-0.349019
2.067525
1.337181
-0.287186
0.194530
-0.929615
0.114902
0.786892
0.053382
0.225560
-0.497116
0.009790
0.253747
0.412909
-0.375894
0.795316
0.462036
0.253792
-0.606142
0.159302
-0.131650
-0.551392
0.891470
-0.986062
-0.289429
0.354143
0.548186
0.279217
0.220741
0.315502
1.313847
0.805501
0.579073
-0.172356
-0.255129
0.380473
-1.085954
-0.313195
-0.223832
0.080462
-0.805311
0.904299
-0.930150
0.472608
0.553444
0.661982
0.402253
0.341076
-0.451046
0.469936
-0.099230
-0.443977
-0.294859
-0.255625
-0.015273
-0.241101
-0.022153
-0.656302
0.475151
-0.186300
1.075749
0.555703
0.657814
0.994660
0.233145
-2.046920
1.178406
-0.198727
-0.215178
0.872777
0.355900
-0.252344
-0.327303
-0.630546
-0.396003
-0.840671
-0.214048
-0.112784
0.273354
1.024497
0.297238
-0.153526
0.780701
0.333987
0.880448
-0.343714
-0.651586
0.543643
0.180060
-1.816501
-0.433275
-0.667816
1.860555
0.683711
-0.274341
0.094515
-0.666613
-0.825934
2.176405
-0.593490
-0.466745
0.196716
0.249236
0.866800
-0.281881
1.452392
-0.109269
0.123758
0.352800
-0.401133
0.740236
-0.333097
0.368116
0.337989
0.782041
0.168248
-0.464233
-0.863810
0.267231
1.238909
0.418460
0.163176
-0.053691
0.894141
0.481389
0.262429
0.037316
-0.547016
0.604628
0.551637
-1.681745
0.438513
-0.144479
0.680084
-0.450471
-0.104364
-0.543278
-0.020871
-0.705155
-0.040773
-0.158664
0.294014
-0.149924
1.010709
-1.305213
1.626741
-0.305478
-0.298536
0.120569
-0.245508
0.036925
-0.530860
0.426113
-0.089941
0.334984
0.436998
0.814339
-0.526072
-0.076652
0.396208
-0.245665
0.739975
-0.186492
1.333579
-0.672208
1.984758
-0.411231
0.173866
-1.108435
0.697380
-0.328585
0.118867
0.033409
-1.147278
1.014679
-0.199119
0.483117
-0.698371
0.604088
1.120414
0.719942
-0.523579
-0.368196
-0.054089
-0.526248
0.682866
0.733258
0.285622
0.605099
0.709901
-1.561817
-0.450304
0.478929
0.230369
-0.167602
-0.698804
0.802059
0.761775
0.648837
-0.539387
0.799190
0.589228
-0.237813
0.469317
0.094327
-0.010317
-0.185687
-0.238427
-0.204454
-0.757929
1.125383
-0.602706
1.007217
