0.792110
-0.129607
0.859208
-0.314413
-0.176996
0.557488
0.690548
-0.525845
0.053210
1.628759
-0.601564
0.757816
0.507417
0.302713
0.019049
0.610990
0.042900
-0.036079
1.104803
1.121104
-0.023088
-0.051117
0.209074
-0.413157
0.127369
2.385509
0.015985
-0.067950
-0.570345
0.337144
-0.022107
0.453604
-0.462087
-0.250894
0.459408
0.823949
0.178486
0.963869
0.871493
0.141660
-0.268402
0.396764
1.070642
1.485376
0.036134
-0.012568
0.333701
-0.164938
0.322932
0.408266
-0.184259
-1.176141
0.732806
-0.108025
0.004840
-0.699267
0.550877
1.826151
3.015624
0.111599
0.415602
0.753659
1.273729
0.195120
-0.674987
-0.558700
0.235900
-0.679049
0.043022
0.711647
0.481997
0.080114
-0.051138
0.320625
-0.690099
0.320358
0.719313
-0.453350
-0.064769
-0.288094
-0.562958
-0.602990
0.165193
0.471527
0.119653
-0.418234
0.140072
0.213004
-1.191364
1.035925
-0.162664
0.301811
-0.674030
0.257115
1.423447
-0.415502
0.144869
0.572403
0.272410
0.293606
-0.443935
0.573988
-0.935172
-0.865112
0.445961
-0.448240
-0.169775
-0.563468
-0.348448
-0.636333
-0.088445
0.239725
0.684872
-0.518784
0.085146
-0.263561
-0.130728
-1.010644
2.401135
-0.218741
-0.490626
-0.230656
0.290203
-0.601309
-0.057814
-0.257793
-1.169851
0.816907
0.501772
0.192979
-0.170564
0.170488
0.669175
-0.239679
-1.181327
-0.775111
-0.223186
-0.747808
1.470311
0.566784
-0.113395
-0.286793
-0.196183
0.325749
0.315030
-0.192122
-0.000843
0.910095
0.057896
-0.604828
0.520431
-0.954754
-0.507670
-0.624971
-0.123617
0.580667
1.099972
0.832593
-0.310538
-0.457811
-0.531231
-0.025036
-1.013420
0.328948
-0.180199
-0.632831
0.595749
1.627442
-2.104897
-0.335246
0.024615
-0.191306
-0.849130
0.014132
-0.974049
-1.004428
-0.384616
-0.309295
0.318248
0.380838
0.273761
-0.064264
1.086745
-0.251952
0.041073
-0.960345
0.230472
-1.120095
0.486082
0.326723
0.795403
0.002029
2.228938
0.420752
0.255207
-0.041430
-0.422748
-0.266995
0.302066
-0.394594
0.336059
-0.589040
-0.273579
0.029881
1.503261
0.467038
0.878896
0.058474
-0.078075
0.188144
-0.378597
-0.239239
-0.480802
-0.452973
-0.088301
-0.006471
-0.255752
0.262635
-0.205399
0.032558
-0.285122
-1.577657
-0.053004
0.227835
0.039292
1.321403
-0.831420
1.636059
0.268473
0.241116
0.745394
-0.174316
-0.192817
-0.152599
0.599961
-1.950475
2.205315
-0.233655
-0.590070
-0.679954
0.451037
-0.124630
0.879519
0.526646
-1.804861
0.200223
1.394811
0.349307
0.451927
-1.384793
-1.108334
1.687518
0.448379
-0.198484
1.601539
-0.520765
-0.691293
-0.435342
-0.437961
0.073492
0.398208
-0.329383
-1.582438
0.318807
-0.204175
0.524543
0.453804
0.122421
0.284208
0.585266
-0.254191
0.069312
-0.355562
-0.253694
0.387679
-0.811841
0.137302
-0.065936
-1.256487
0.239296
0.793027
0.769271
-0.920131
-0.588294
1.179456
0.067260
-1.515123
-0.620415
2.222478
0.287814
0.328210
0.041951
-1.427365
0.176667
-0.306532
-0.061421
1.335780
-0.296720
-0.739654
0.355505
0.569216
-0.721413
-0.040800
-0.278067
-0.221042
-0.790453
-0.163636
-0.378499
-0.233535
0.821580
0.900324
0.546671
-0.258107
-0.051820
-0.426157
0.398778
0.049262
0.094707
-0.897741
-0.510099
0.127111
-0.211194
1.552660
0.570734
-0.350342
0.441763
0.052581
-0.024827
0.282528
0.295815
-0.185142
0.378001
0.777167
0.189471
0.536198
0.044878
1.194138
-0.321560
-1.091692
0.196828
-0.307550
-0.239199
-0.539280
-0.406265
0.357255
2.058948
0.135393
-0.095734
0.208981
-0.328144
0.751659
0.997829
-1.503648
2.578841
-0.092719
0.544506
0.656606
0.602247
-0.147501
-0.410146
-0.258673
-0.341782
-0.181212
-0.254791
-0.024756
0.306629
-0.862476
0.084154
-0.499986
0.904258
-0.533117
0.705206
-0.002406
0.328357
0.035814
0.521635
-0.963957
0.353284
0.264453
0.310822
0.129830
-0.348858
0.301919
-0.822796
0.256349
0.938504
0.111627
-0.788922
1.697339
-0.390330
0.855325
-0.255570
-0.703097
-0.036427
-1.467507
-0.047887
-0.357414
-0.479350
-0.056696
0.628998
-0.032898
1.702894
-0.365595
0.064321
-0.257803
1.538859
0.103780
0.646405
0.401342
-0.712626
0.189215
0.168069
-1.784033
0.663248
-2.057592
0.360639
0.189512
-0.002366
-0.419016
-0.317593
-0.778231
-0.529639
-0.618454
-0.966679
0.514804
1.559380
-1.419682
0.185890
1.542952
1.061714
1.941905
-0.143912
1.432263
-0.479200
0.223649
-0.253990
0.021543
-0.567327
-0.090449
1.868295
-0.110158
0.457551
1.247335
0.920821
-0.792930
0.028095
-0.220191
-0.201766
1.073066
-0.979074
-0.083496
1.254218
-0.143741
0.298166
-0.034479
-0.177098
0.230881
0.458890
1.204095
-0.482469
-1.005857
0.372389
-0.728480
0.522280
-2.313208
-0.880601
0.084978
-0.093941
-0.968581
0.186352
0.641098
-0.785666
-0.103834
0.180553
0.645596
-0.494321
0.349398
0.161840
0.990539
0.652145
0.152251
-0.324980
0.793339
0.589811
0.687309
-0.579286
-0.230124
0.142999
-0.013127
-0.867884
-0.361709
-0.555155
-0.164649
-0.285432
0.319599
0.551927
0.620929
1.749685
-0.476451
0.010801
