-0.149317
0.212692
0.170219
-0.112207
0.470945
0.042004
-0.050991
-0.313940
0.481579
-0.679029
-0.100999
-0.493093
0.015292
0.324133
-0.398331
-0.206215
0.046100
0.193223
0.175078
-0.541134
-0.354055
0.088329
-0.197362
-0.364760
0.216351
0.187795
-0.152563
-0.123199
-1.175923
0.438445
-0.190825
0.349703
0.025033
-0.528145
-0.069121
0.508070
-0.123030
-0.190189
-0.177246
0.127199
-0.325707
0.176354
0.290046
0.069896
-0.280435
-0.213154
-0.664722
-0.021353
0.047352
-0.014597
-1.041467
0.276578
-0.338475
-0.092337
0.061311
-0.307698
0.044681
-0.289118
-0.483793
-0.026602
-0.404466
0.143223
0.126717
-0.435204
0.065787
0.019238
-0.769407
0.015649
-0.265136
-0.583786
0.311052
0.216749
-0.070190
-0.207354
-0.038472
0.058054
0.118332
-0.522136
-0.555223
-0.015895
0.458551
0.176930
-0.218926
-0.423105
-0.120612
-0.332130
-0.133314
1.106540
0.068030
0.849850
-0.184633
-0.187003
0.085283
0.088051
-0.780453
-0.044527
-0.112535
-0.102774
-0.135556
0.146781
-0.292279
0.107465
-0.051655
0.297877
0.173448
0.307741
0.416345
-0.210135
0.003977
-0.164886
0.157587
0.041906
-0.318159
-0.290906
0.498151
-0.280087
-0.064936
0.396742
-0.010469
0.240116
-0.168288
0.326718
-0.351676
-0.601268
-0.028407
-0.038242
0.209148
0.180229
0.377059
-0.168161
0.234858
0.022303
-0.122230
-0.221636
0.709512
0.034522
0.047154
-0.087816
0.777474
0.001567
0.194166
-0.218954
0.327137
-0.335702
0.195710
-0.003642
0.360950
0.091144
-0.153851
-0.414815
-0.281599
0.008063
0.508256
-0.574315
0.516041
-0.543314
0.425964
0.876889
0.111809
-0.174707
-0.070170
-0.100084
0.588836
0.225488
0.075732
0.362726
-0.521777
0.162877
0.766828
0.711058
0.031470
0.339990
-0.200724
0.100957
-0.052014
0.423541
0.009062
-0.159529
0.169898
-0.781232
0.398512
-0.011584
0.044956
-0.179097
-0.117899
0.054115
0.283550
0.058835
0.421210
-0.510136
-0.123468
-0.431913
0.515939
0.369237
-0.142650
-0.236985
0.023613
0.143990
0.257519
-0.219489
0.324410
-0.426203
0.210475
0.271558
0.673032
-0.003748
-0.458968
0.652622
0.931556
-0.186290
0.023204
-0.308970
-0.041791
0.007639
0.051545
-0.077418
-0.152330
-0.065970
-0.669036
-0.353071
-0.512707
0.416821
0.399285
-0.316038
-0.437956
0.548481
0.752906
0.637332
-0.767539
-0.688432
0.855691
-0.490491
-0.001604
0.432360
0.207563
-0.015462
0.002342
0.322857
-0.022995
-0.488600
0.348671
0.838558
-0.014057
0.044584
-0.875709
-0.137905
0.345755
0.262230
-0.001654
-0.310612
-0.184910
0.769906
-0.403142
-0.114121
0.027642
0.200062
0.147572
-0.036872
-0.103101
-0.258982
0.376848
-0.252502
0.258746
0.188568
-0.091844
0.470530
-0.156519
-0.108863
0.050559
0.038196
0.299322
-0.122704
0.120491
-0.197975
0.173182
0.049263
-0.060308
-0.036379
0.281596
0.253345
-0.112431
0.044224
0.975531
0.791067
-0.021338
0.113729
-0.001221
-0.148032
0.375802
0.129874
-0.312855
-0.161111
0.274495
0.403439
0.524521
0.006332
0.135949
-0.019964
0.271159
-0.532364
0.130135
-0.085223
0.759486
-0.207273
-0.222937
-0.316602
-0.420067
-0.093297
0.552519
0.336396
-0.083097
0.591066
0.434103
0.347933
-0.187264
0.259892
-0.035692
0.021166
0.374418
0.130743
0.134442
-0.150948
0.004769
-0.265408
-0.122051
-0.285990
-0.573256
0.112759
-0.303307
-0.199437
0.047895
-0.418962
0.215044
0.028192
0.432279
-0.384383
-0.151646
0.628587
-0.530200
0.204582
0.122772
-0.064638
0.067061
0.159285
-0.032365
-0.400717
-0.411066
-0.312046
0.474412
0.096309
0.274944
-0.045922
-0.159945
-0.114367
0.182323
-0.145039
0.554602
0.017703
-0.144448
-0.005975
-0.265136
-0.924123
0.522646
0.418299
0.648690
0.229486
0.227159
0.213417
0.009460
-0.129240
0.259774
-0.335538
0.076405
-0.461932
-0.001640
-0.132931
0.795415
0.012284
-0.658916
0.758909
0.143908
-0.042665
-0.001090
-0.442617
-0.237037
1.240527
0.385002
0.104583
-0.132700
0.574924
-0.083934
-0.094881
0.589133
0.333709
-0.361586
-0.106440
0.387175
0.205168
-0.072923
-0.194612
-0.061644
0.700166
-0.487640
-0.299169
-0.438089
0.171795
0.339710
0.533760
-0.200315
0.398879
0.234093
0.010640
0.396265
-0.542083
0.449709
-0.222084
-0.188012
-0.329553
0.047927
-0.083557
0.327025
0.530069
0.544867
0.446626
-0.042245
-0.149842
-0.267371
-0.141876
-0.450453
-0.354424
0.253544
-0.300730
-0.424311
-0.171971
0.294805
0.221436
-0.207332
-0.488661
-0.219361
0.033335
0.192156
-0.476578
0.591492
0.850374
0.201398
-0.029802
0.420885
0.148970
-0.173741
-0.030173
0.573325
-0.214693
1.119875
-0.122731
0.720237
-0.398156
-0.029386
-0.188157
0.380622
0.341065
-0.463043
-0.017350
0.273340
0.464601
0.073320
0.777059
0.099427
-0.204114
0.224266
-0.235791
0.135216
0.177102
0.620249
0.248584
0.078681
0.128065
0.330474
-0.931612
-0.596005
0.046287
-0.318867
0.094246
-0.358913
0.079409
-0.354944
-0.243452
-0.123846
0.407720
0.378750
-0.227951
-0.128716
0.588495
0.067146
0.002873
-0.068394
0.572857
-1.550160
0.544676
-0.470144
-0.155474
