0.334750
0.158724
-0.053915
-0.021493
0.301827
0.053802
-0.017127
0.459269
0.129802
-0.696225
0.192881
-1.087619
0.639631
0.228485
-0.208688
-0.775828
-0.768033
0.141587
-0.036777
0.338118
-0.077854
0.100903
-0.323801
-0.571428
0.023659
0.369179
-0.386566
0.487779
-0.062892
0.892261
0.007536
-0.671526
0.319270
-0.598747
0.012048
-0.389072
-0.138320
-0.451081
-0.053547
0.648742
-0.203928
0.023839
0.444347
1.140748
-0.100325
0.167354
-0.860050
-0.582970
0.363556
0.579823
0.262185
0.169317
0.196950
0.168735
0.030539
0.170780
0.521674
-0.187270
-0.049575
-0.086462
-0.581500
0.646700
0.451497
-0.204891
-0.231114
-0.106060
-0.772194
-0.000511
0.059837
0.307281
0.457242
-0.068137
-0.240065
-0.134192
0.278545
0.381264
0.261676
-0.649166
-0.252872
-0.335696
-0.175167
0.471821
0.657522
-0.111910
0.092426
0.383882
-0.045619
1.527120
-0.377632
0.057485
-0.060721
0.431880
-0.222904
0.610277
-0.875946
-0.337405
-0.101792
0.186800
0.059416
-0.058999
-0.065680
0.263069
-0.255281
-0.071178
0.203751
-0.052447
-0.419617
-0.758346
0.349669
-0.159823
0.034603
0.360472
0.019706
-0.588512
0.140663
-0.691327
0.486553
0.603891
0.953835
0.131717
0.143637
-0.034925
-0.216816
0.051910
0.376232
-0.424762
0.286437
-0.365227
-0.005072
-0.036012
0.155507
0.338848
-0.381916
0.271384
-0.303740
0.414499
-1.217552
-0.260619
0.703268
-0.206754
-0.152873
-0.040000
0.336946
0.091317
0.163533
-0.484975
0.224714
0.641094
0.367493
0.421067
-0.243868
0.240560
-0.146204
-0.996776
0.034963
0.626761
1.017460
0.774152
0.490989
0.972576
-0.078459
-0.161554
0.634814
-0.035097
-0.304848
-0.147061
-0.011813
-0.683004
0.475031
0.016556
0.161912
0.433988
-0.150608
0.077798
0.234375
0.298846
0.222289
0.178054
-0.157872
-0.419746
-0.077560
-0.295471
0.311540
-0.163231
-0.060878
-0.463431
0.000981
-0.107410
-0.072324
-0.647024
0.233916
0.452944
1.105414
-0.089066
0.076228
0.397293
-0.297570
-0.074685
0.021665
-0.104685
0.016385
-0.813239
-0.511178
0.595710
1.490380
0.116550
0.247972
0.267722
-0.620724
0.504691
0.019375
-0.067975
0.245686
0.268842
-0.124344
0.373022
-0.322849
-0.235568
-0.326198
0.492102
-0.582438
-0.186174
0.211397
0.176007
-0.500713
0.640367
-0.018848
0.801954
-0.443772
-0.596569
-0.011818
-0.220005
-0.003769
-0.227190
0.173901
0.266665
1.359301
0.040778
-0.444958
-1.117470
-0.123751
0.377088
-0.512677
0.070550
-0.338658
0.318179
0.397368
0.075673
0.126002
0.127511
-0.698521
-0.122875
-0.441632
-0.126985
0.695762
-0.065133
-0.394631
-0.189279
-0.217732
0.146825
0.704580
-0.365438
0.010266
-0.105543
-0.325475
0.417422
0.157296
-0.307023
0.170172
-0.587646
-0.027352
-0.031838
-0.100153
-0.407962
0.046979
-0.320741
0.018635
-0.041649
0.074564
0.011975
0.591787
0.583583
0.355000
0.350094
1.262737
-0.059802
-0.284151
-0.236589
1.083164
0.018068
-0.216909
-0.082463
-0.551885
-0.163926
0.406253
-0.346700
0.436337
-0.429592
0.249971
-0.068164
0.769808
-0.316651
0.528093
-0.112277
-0.124316
-0.199098
-0.054877
-0.746220
0.218999
0.154786
-1.225213
0.517049
0.169579
0.243120
0.430131
0.217118
0.148251
0.412676
0.270832
0.203214
-0.403668
-0.127485
0.006668
0.096874
-0.367245
-0.354167
0.845834
-0.861848
-0.204868
0.203723
-0.042119
-0.445673
0.330323
0.093701
0.381047
0.610000
0.217998
-0.627928
-0.415598
0.136957
0.103960
-0.101331
-0.185200
0.015404
-0.030337
1.332666
-0.207012
0.010077
-0.160255
0.490696
0.277558
-0.136669
-0.644966
0.968092
-0.063973
0.432592
0.910532
0.059972
-0.076208
-0.508992
-0.363662
-0.700915
-0.008613
-0.201225
-0.299729
-0.010627
0.364458
0.684890
-0.648513
0.216677
0.136184
-0.111740
-0.161577
-0.293422
-0.077134
0.318229
0.580767
-0.119737
-0.419295
0.353751
0.317882
-0.147018
-0.097995
-0.762671
-0.354053
0.762665
-0.338892
-0.171741
0.833168
0.351690
0.220059
-0.179666
0.619519
0.179003
-0.351485
0.012160
0.257005
0.107474
-0.040634
-0.216679
-0.431818
0.064701
-0.584322
-0.441276
-0.813007
0.707366
0.383825
0.371021
0.085570
-0.358658
0.193918
0.468136
-1.237865
0.254207
-0.292103
-0.316789
-0.048402
-0.696655
0.032937
0.012844
-0.179379
0.092862
0.161827
0.123227
0.470584
-0.030736
-0.226217
0.532588
-0.320384
-0.020396
1.406657
-0.905166
-0.071932
-0.408420
0.051159
-0.360369
0.138174
0.165422
-0.246476
0.076621
-0.017671
-0.371408
-0.700630
0.878426
-0.005590
0.013424
0.031779
-0.294563
-0.143614
-0.378304
-1.647681
0.674484
0.060283
-0.666400
-0.262839
-0.068259
0.087357
-0.263015
0.589218
-0.328122
-0.799478
-0.159852
-0.165198
-0.785665
-0.044941
0.281541
0.658497
0.532137
-0.306763
-0.147877
0.033762
0.123507
0.269737
0.143910
0.043666
0.507387
0.459841
-0.818802
-0.511419
-0.242082
0.016922
-0.030975
-0.710779
-0.112421
0.156754
0.248388
-0.360782
0.155233
1.261615
-0.413142
0.330228
0.291059
0.006251
-0.148249
-0.547670
0.603844
-0.935906
0.576140
-1.227667
0.550651
