0.877177
-0.278370
-0.794149
-0.498099
-1.129651
0.042238
0.040554
0.364692
-0.506249
-0.739412
0.948782
0.103328
0.733570
0.615251
0.939460
-0.931230
-0.074633
0.902369
1.013368
0.156609
-0.144088
-1.056936
0.705130
-0.142634
0.187129
0.097175
0.157853
0.143611
0.364686
0.713899
1.185349
-0.589055
0.442981
-0.761213
-1.173776
2.309766
0.789084
-0.230117
1.340338
0.386480
-0.077961
0.956103
0.414422
0.037160
0.394919
-0.002362
-0.051809
-0.723896
-0.155190
-0.707536
0.530306
-0.437165
1.530968
0.232268
0.029297
1.055763
0.444436
0.260299
2.517929
0.575857
-0.525293
1.003634
0.843829
1.634047
-0.019074
-1.300513
0.523062
0.509271
-0.367257
0.753179
0.021663
-1.201422
0.042311
0.513501
-0.401878
1.400100
1.412631
-0.141462
0.009580
0.836015
-1.589984
-0.440054
1.000721
1.093471
-0.171907
-0.510889
-0.260208
-0.431611
1.290476
0.144485
0.033129
1.336368
0.623171
-0.746591
0.928068
0.437505
-0.430754
0.697297
-0.342896
-0.036353
0.086146
-0.177243
-0.798129
-0.464068
0.271568
-0.093970
-0.109809
-1.396971
-0.387535
-1.347900
-0.421042
0.519334
-0.874067
0.906293
0.601543
-0.619446
-0.440813
-1.221201
3.161611
-0.322297
-0.603612
-0.822073
0.153220
-0.393939
-0.228950
-0.870926
-0.795932
-0.961793
0.093724
0.434834
-0.771161
0.631029
-0.405583
-0.106287
-0.854443
0.007643
-1.049166
-0.717594
2.411875
-1.067097
-0.193936
-0.151634
-0.195821
0.878884
-0.160725
-0.360530
-0.529297
1.069621
1.115834
-0.894471
0.232031
-1.373020
-0.369600
0.805397
-0.330310
-0.324572
-0.304578
-0.501716
-0.224787
0.252548
0.435475
0.087769
0.492420
-0.668729
-0.943890
0.428102
0.411962
0.830649
-0.193878
-0.548309
0.520872
-0.336758
-0.320071
-0.051638
0.622893
-0.765875
0.249812
1.769590
0.845254
0.794750
0.445070
-0.080866
0.144467
0.009682
0.347800
-1.536408
0.102436
0.259495
1.475759
0.619644
0.467202
1.237421
0.780554
-0.564810
0.616473
0.206210
-0.361547
0.354272
1.352269
-0.259156
0.671117
-0.705493
-0.858588
-0.809017
0.864198
0.202288
1.640991
-0.093861
-0.186644
1.155623
-0.116500
-0.057153
0.390074
-2.221029
-0.432902
-0.449814
0.234723
-0.596380
0.592086
0.452279
0.125078
-1.595906
-0.226228
1.078893
0.555411
1.068298
-0.525967
0.526989
0.326534
-0.063060
1.136930
-0.416761
-0.126957
-0.399945
1.140111
-0.027090
2.700612
-0.132924
0.593070
0.498441
-0.436299
0.000716
0.097308
-0.073526
-2.190522
-0.171355
-0.387718
0.111284
1.133813
-0.950839
-1.240172
1.284648
0.556854
-0.105297
1.096793
-0.380401
-0.352518
0.321357
-0.641289
-0.100439
-0.753383
-0.191499
0.657242
-1.050396
0.219812
-0.443701
1.251019
0.699462
0.731333
1.213732
-1.367443
-0.453757
0.112629
-0.142772
-0.353542
-0.709224
-0.037162
0.395944
-0.290963
0.182362
1.600875
-0.327730
-0.115304
-0.653700
0.280579
0.074472
-1.194859
-0.619777
1.770833
-0.626512
0.484107
0.493944
-0.453489
0.423606
-0.528309
-0.166257
1.062538
-0.283123
0.270995
0.303899
0.660888
-0.043702
-0.285377
0.441855
-0.381278
-0.910145
1.654889
-0.688874
-0.895523
0.246915
0.037370
0.668564
-0.273482
-0.755820
-1.542501
-0.772787
0.463956
1.450104
-1.188476
-0.787889
0.228220
-0.312481
1.047532
0.072127
0.327836
0.290395
0.714019
-0.218436
1.288243
0.506136
-0.914527
-0.372723
0.467498
-0.363735
0.465776
0.646316
0.213704
-1.121112
-1.338066
-0.352365
-0.201208
-0.234515
-0.285265
-0.527954
-0.353659
0.999462
0.099585
1.066501
-0.065707
0.737677
-0.062350
1.001297
-0.004969
2.064638
-0.264125
0.164283
-0.267227
0.680425
-0.466443
-0.509335
0.114282
1.125116
-0.637614
-0.532212
-0.066326
0.351294
-0.902742
0.995235
0.186742
0.854893
-1.244971
0.235762
-0.310533
1.009170
-0.081051
0.965158
-0.776618
0.255425
0.736569
-0.759576
1.290428
-0.033918
-0.067480
-0.710406
0.033138
-0.691404
0.853226
-0.800961
0.879656
-0.277144
0.513853
-0.440177
-0.973921
-0.263367
-0.033595
0.972853
-0.284192
-0.513567
-0.354202
-0.560249
0.333816
0.192006
0.795545
0.352461
0.061666
-0.223872
-0.745460
0.212827
1.012229
0.202434
1.087378
0.174122
-1.781060
0.322542
0.155169
0.341736
0.568915
-0.712181
-0.338473
0.170551
-0.658865
-0.448486
-1.267417
-0.523777
0.216034
0.920574
-0.224919
0.064379
0.139710
-0.086988
1.388059
0.233486
1.251743
0.159508
0.253283
-1.120517
-0.115572
-0.179091
0.087726
-1.808609
-0.132435
0.773918
1.613267
-0.128568
-0.763720
0.186743
-0.179170
-0.249797
0.898615
-0.860257
-1.621696
1.223163
-0.949713
-0.513386
0.494278
2.121745
0.057895
-0.297447
1.066180
-0.868523
-0.739584
-0.152451
-0.931166
-0.158180
1.016065
-0.478880
1.199815
1.479449
-0.892118
0.590569
0.043869
-0.406953
0.324753
1.445684
-0.956629
1.629163
-0.130468
0.919278
0.221391
-0.016299
1.468693
-0.105721
-0.289363
0.745096
0.159108
0.438100
-0.802414
0.024288
0.266629
-0.290292
0.764962
-0.880211
-0.261673
-0.022115
-0.418768
0.068377
1.511403
-0.678048
-0.482261
0.220792
