-0.595406
1.776350
0.586843
0.695200
0.608276
0.101806
-0.904945
0.324979
-0.062102
-0.033881
-1.100310
1.641473
-0.150860
0.399998
-0.759146
-0.047189
-0.617346
0.859602
0.655555
-0.921300
-0.273576
1.293150
0.745778
-0.494039
-0.111635
1.610091
-1.189882
0.763945
-3.808334
-0.364597
-0.394139
-0.788422
-0.326594
-1.034828
-1.137650
3.034155
-0.013999
-0.349327
-2.703385
0.186017
-0.510258
1.542023
-1.126539
-1.209718
0.747676
-0.261198
0.080808
-1.609382
-0.085698
-0.691399
-3.161420
-0.271264
-2.571616
-0.536269
0.272102
0.163223
0.509713
-0.911653
-1.148849
-0.334147
-1.791832
2.573649
0.668954
0.975718
-0.479284
-1.296695
-0.474583
0.005632
-0.719083
-1.989721
0.675508
1.249025
-0.415275
-0.561054
0.297612
-0.217421
0.790107
-2.244700
-0.024587
-0.569651
1.393503
0.609498
0.245081
-0.409432
-0.287277
-0.530344
-0.480657
0.641772
-1.301102
1.363405
-0.018299
-0.484811
0.477924
-1.457682
-2.093975
-1.261902
0.017930
-0.015946
-0.382909
0.268451
0.172980
0.679978
-0.739210
0.576903
0.891220
-0.254877
-0.274226
-0.240616
0.242202
-0.899846
0.586491
0.655452
-1.286417
-0.249383
-1.033535
0.063844
1.262040
0.991533
0.156035
0.391389
-0.225742
-0.329351
0.858885
-1.730208
-0.372430
-0.248638
0.957509
2.094382
-0.209786
0.264794
0.452955
-1.308545
-0.718717
-0.148778
1.534782
-1.223201
0.025861
-0.071227
1.505891
-0.593748
1.274693
-0.270697
0.252325
1.647459
0.208295
0.161452
0.386701
-0.786056
-0.263369
-0.312662
0.517700
0.292486
-0.307943
-1.094607
-0.052043
-0.428825
1.702003
-0.377100
0.508941
-1.371306
0.949047
-0.037317
0.006126
0.460995
0.687863
2.650190
-0.739740
2.293494
-0.444194
0.910889
0.461645
0.227670
-1.371845
0.708049
1.753239
-0.448061
-0.277914
2.384941
1.093003
-0.935656
-0.272013
0.416582
0.012603
-0.163454
-0.214458
-0.244853
1.197902
0.191696
0.205189
-1.527205
-0.375113
-1.433486
0.433096
0.460285
-0.204869
-0.629101
-0.163539
0.098832
-0.317760
-0.242608
0.567308
0.303559
-0.760399
1.166744
-0.893104
1.103144
1.788029
-0.252853
2.488199
-0.027545
-0.422466
-0.334181
-0.118461
-0.078108
0.352359
-0.865120
-0.675188
-0.143750
0.952746
-1.149503
-0.872452
-0.001556
0.372292
0.374978
0.958590
1.414552
0.462528
0.422871
-1.057653
-1.171575
0.594006
-1.025957
-0.035597
-0.309572
-0.045275
-0.063519
0.260260
-0.042415
-0.818433
-0.921854
0.229337
0.710486
0.943124
0.774702
-2.111709
-0.037979
0.776447
0.444395
-0.786901
-0.649412
-0.707311
2.136093
-1.509251
-0.238009
0.713946
-0.140659
-0.035208
-1.010311
-0.737670
-0.633676
-0.753987
-0.087078
0.580288
0.355494
-1.034511
0.831913
0.242246
-1.268368
1.150959
0.344970
0.499873
-0.366227
-0.314359
-0.211380
0.321752
-0.157869
-0.426411
0.130011
-1.250982
1.662828
-0.522543
0.769021
-0.827145
-0.500542
-1.855478
-0.218030
-0.227797
-0.555764
0.560180
0.019190
-1.009418
0.073448
-0.089423
1.031093
2.112695
0.043757
0.123283
-0.386095
0.337133
-1.249026
-0.180244
-0.393984
0.311877
-0.231691
0.528781
-0.185822
-0.483727
0.216373
0.426018
1.132183
-0.527317
0.391241
1.279490
1.187669
-2.145048
1.196656
-0.015466
0.309281
0.613181
0.493668
0.002816
-0.201068
0.754682
-0.257389
-1.521533
1.666480
-1.201025
0.954828
-1.176571
-0.265602
-0.240004
-0.394143
-0.053067
0.593698
0.552442
-0.628609
0.667023
3.589833
-1.814811
-0.250743
0.305782
-0.184933
0.418322
0.076332
-0.139289
0.015167
0.298777
0.537942
0.395544
0.647749
0.394071
0.868875
-0.257601
-0.616247
0.513928
-0.371947
-0.203403
0.718865
0.467683
0.474448
-1.053155
-1.469321
1.378025
0.178488
0.309746
1.086820
0.709073
0.669497
0.070570
-1.255170
0.205175
-0.052002
0.161651
0.061281
0.023579
0.130707
-1.074739
-0.071004
0.315691
0.398806
0.009741
0.049522
0.093382
-0.492642
0.001177
2.806281
-0.451040
-0.760122
-0.725096
0.437218
0.863326
-0.252389
1.858718
-0.060151
0.655063
0.985813
1.086119
-0.713000
-0.039039
0.222122
0.206838
1.034477
-0.568633
0.707064
0.269264
0.418969
-1.322566
0.544893
0.285131
-0.100239
0.177445
0.719500
-0.140842
-0.333828
-1.309541
-0.220683
-0.101224
-2.009438
-0.040133
-0.213016
0.976317
-0.137725
0.127894
-0.600505
-0.498314
-1.583984
-0.591841
-0.753448
-0.948865
-0.097132
1.228133
1.650347
2.408457
-0.422328
0.693665
0.877419
-0.615181
-0.315596
0.123448
-1.329793
0.082917
-1.921009
2.734790
1.098522
-0.892580
0.785487
1.757764
-0.118863
-1.055168
-0.756860
3.912485
0.624997
1.539887
-0.668485
-0.035121
-3.024348
0.052649
-0.040087
-0.271956
0.822541
-0.243523
0.062150
0.915802
3.046807
0.321101
1.414937
0.398182
0.558900
0.129737
0.331950
0.378462
-0.983768
0.465688
0.510092
0.183606
-0.809526
0.193385
-0.479265
-0.417579
1.635209
0.186204
-0.490736
0.764162
-0.635089
1.870394
0.184771
0.069790
0.511596
0.396336
-1.586903
0.731305
1.939012
-0.343430
0.258101
-0.749640
0.913305
-2.765586
0.558944
-0.173047
1.601945
