-0.478378
0.596814
0.267333
0.153138
1.607769
0.336857
-0.604048
1.057687
0.222485
0.988057
0.143505
-1.288713
-0.260487
-0.553621
-0.267013
0.339033
-0.517038
0.599036
0.067873
0.108685
0.253705
-0.367704
-0.205357
-0.230691
-0.148992
-1.277848
-1.338587
0.666800
0.137060
-0.327512
0.262845
-1.022676
1.037587
-0.071283
-0.638644
1.193550
0.320212
-0.640217
-0.223922
0.496807
-0.069656
-0.187639
0.084250
0.254040
-0.150991
-0.021057
-0.325857
-0.684087
-0.382158
0.376242
0.036861
0.262595
0.298660
0.595111
-0.008673
-0.161323
-0.017315
-0.969637
-1.257218
-0.692194
-0.330804
1.310993
-0.593687
0.480216
-0.232296
0.024927
-0.609333
0.242756
0.021172
-0.416045
0.184776
-0.009228
0.259072
-0.123466
0.803523
0.171835
1.002519
-0.383935
-0.322942
0.213367
0.162207
1.011695
-0.473631
0.739537
-0.540586
-0.010364
0.171173
0.390963
-0.323544
-1.180914
-0.147840
0.135702
-0.194978
-0.982336
-1.751954
0.112442
0.018824
0.104263
-0.234524
-0.555216
0.695611
-0.340455
0.054595
0.235923
0.425241
-0.053498
-0.087441
0.089957
-0.231219
-0.913432
-0.137477
0.415583
0.061714
0.457486
-0.178759
-0.039700
1.700694
0.935435
-1.938593
0.742760
0.367611
-0.450609
0.208819
-0.215257
0.651540
-0.407361
0.162636
-1.513920
-0.540337
0.041188
-0.031894
-0.394682
-0.674590
-0.310617
0.349178
0.017227
-0.689476
1.374763
1.373235
-0.024568
-0.712729
-0.038664
-0.500273
0.152097
0.237163
1.018846
0.049141
1.129345
0.358712
0.216355
0.260097
0.850141
-0.693828
-0.427464
-0.747816
0.060287
0.031212
-0.144166
0.180702
-0.020313
0.030564
0.203461
-0.114468
0.572807
-0.112882
1.039865
0.369760
-1.503059
-1.315152
0.026351
0.003249
0.900678
-0.013371
0.791987
1.874437
1.341549
0.266856
1.114802
-0.032604
-0.300703
0.261786
-0.106045
0.543125
-0.107443
-0.122669
0.207960
-0.420944
0.267476
-1.276388
-1.292243
-0.254594
0.117434
-1.611484
-0.055494
-0.109921
0.113853
0.298904
0.012083
-1.277342
-0.203981
-0.089632
0.394390
-1.399254
1.824194
0.191880
-0.080979
0.110791
-0.640854
-0.814846
1.898113
-0.171710
-0.103712
0.237590
1.934552
0.284045
0.144508
-0.052152
0.476067
0.601361
-0.568244
0.457543
0.811851
0.544645
0.413425
0.080140
1.269719
-0.151070
0.418194
-0.265536
0.044854
-0.164905
-0.664912
-0.363264
-0.343733
0.219619
-0.091823
0.030762
-0.124868
-0.223675
-0.451420
-0.251081
0.105481
0.269342
0.123309
1.460196
0.864967
-0.786381
-0.490656
-0.118138
0.966971
0.575210
0.037464
-1.242411
-0.353405
1.063079
0.328810
0.425902
-0.732381
-0.621108
-0.332811
-0.073605
0.376811
-0.245362
0.393227
0.373180
-0.390363
0.578365
-1.032641
1.180631
-0.923453
0.154214
-0.224808
0.016260
-0.257283
-0.519168
0.362387
-0.280069
-0.003105
0.120644
-0.533721
-0.073083
-0.040446
0.471443
-0.062101
-0.584984
-0.765623
1.676651
-0.206358
1.634988
0.526999
0.242341
-0.269983
0.534818
0.105632
1.301796
-0.206908
-0.361662
-0.411376
-0.155252
0.084599
-0.141187
0.078591
0.319412
0.875002
-0.021563
0.931359
-0.072026
0.032610
-0.393265
0.352681
-0.937989
-0.707244
0.673533
0.845574
0.570957
-0.483965
0.097369
1.393456
0.835679
0.748258
-0.423348
-0.146204
-0.515777
-0.660416
-0.044404
0.469222
-0.080305
-0.449146
-0.126894
-0.311265
1.016491
0.488813
0.249542
-0.285940
0.202372
-0.284893
0.144348
-0.876704
0.626336
-0.371343
-0.187932
0.343815
0.149922
0.193199
-0.549894
-0.248032
0.107107
1.187502
-0.301443
0.466569
0.306785
-0.892990
0.772224
-1.431461
-0.345215
-0.150791
-0.960120
-0.365711
0.070595
0.183532
-0.230879
0.035302
-0.281716
-0.634366
-1.009385
-0.115156
0.361760
0.551903
-0.148901
0.064389
0.113878
0.056611
-0.205834
-1.265630
-0.070728
0.454335
-0.855812
-0.517554
-0.547187
-0.286704
0.232942
-0.014165
-0.199062
0.645243
-0.200643
-0.483870
-0.485588
-0.658528
-0.403884
0.158225
1.167107
-0.212899
1.616629
-0.665052
0.248423
0.553912
0.885621
0.462680
-0.126522
-0.578108
-0.386038
-0.078849
-0.031258
-0.615083
-0.315083
-0.346415
0.239035
0.609791
-0.465634
-0.782078
0.096412
0.053888
-0.142966
0.262652
0.276568
0.059485
0.146705
-0.405142
-0.647950
0.319980
-0.045535
-0.373235
-0.194388
-0.397114
0.047045
-1.189100
0.854456
-0.840586
0.195289
-0.544364
-1.944619
-0.910777
1.784391
0.389720
0.181421
-0.263554
0.330955
-0.211265
-0.306379
-0.659523
-0.150921
0.042344
-0.159455
0.337847
-1.063004
-0.047351
0.272092
-0.057821
-0.096812
-0.037348
-0.172568
-0.838538
0.078409
-0.673460
-0.611982
-0.152668
0.213069
-0.173164
-0.262066
-0.060597
0.012204
-0.574940
0.056761
-0.870176
-0.543346
0.194016
0.752419
1.210272
-0.196876
-0.295079
-0.056573
-0.207186
0.242969
0.111923
0.036575
-0.323618
-0.706040
-1.461135
-0.107588
-0.103435
0.040849
-0.187363
-0.623968
-0.409274
0.165592
1.160909
0.046852
0.826531
0.208894
-0.100777
0.710001
0.164715
-0.194184
0.671596
-0.925267
-0.894246
-1.014679
-0.678260
0.269772
1.585307
