-0.048377
-0.230179
0.238587
-0.186641
-0.017947
-0.044437
-0.698381
0.125635
0.656731
-0.793076
0.306991
-1.338949
-1.362418
0.316642
-0.206497
-0.490153
-0.224559
1.688955
0.327835
-0.276555
-0.191099
-0.516007
-0.166217
-0.100749
0.143675
-1.018722
-0.802413
-0.737938
-1.711571
0.265683
0.567383
-0.027952
1.092438
-0.488744
-0.868386
2.163990
0.478384
-0.011422
0.989396
0.150417
-0.363909
-0.107610
1.269560
1.644294
-0.430953
-0.227096
-1.271601
-0.272982
0.206367
0.733177
-0.894068
0.510717
1.328812
0.467211
-0.248690
-0.388133
-0.703982
-1.468849
-0.772756
-0.025852
-1.352984
-0.070845
-0.353828
0.124605
-0.197504
-0.955961
-0.716887
0.193904
-0.112268
-0.437764
-0.309338
0.050901
0.141761
-0.437544
0.328839
0.741735
2.119668
-0.732636
-0.835976
0.245498
2.063368
1.001254
-0.579203
0.584640
-0.967864
-0.468796
-0.579839
1.236655
-0.538960
0.236895
-0.172725
-1.463438
0.333434
0.153635
-0.417176
-0.119826
-0.135511
0.441316
0.001162
0.099812
0.061280
-0.286158
-0.353871
1.184694
0.310735
-0.253906
-0.085409
0.261412
-0.859562
-0.021466
0.120768
-1.342096
-0.272636
0.356073
0.674224
-0.263838
0.098819
2.146758
0.006640
-0.010453
-0.601390
-0.000021
-1.477258
-0.513980
0.255889
0.101734
0.490774
-0.413502
0.310289
-0.131591
0.188166
0.190613
-1.293657
0.268069
1.826897
0.430719
-0.070240
0.321925
2.348324
-0.754421
-0.264479
-0.296492
-0.272904
-0.766582
0.185402
0.647073
0.819050
2.033786
0.289849
-1.277277
-0.039070
1.190626
1.416358
-0.372365
0.060314
-1.076558
0.489668
1.378921
1.099549
0.380050
-0.893279
-0.170384
1.424467
0.562401
-0.276382
-0.167527
1.653183
-0.511859
0.055398
0.317028
0.717558
0.056089
1.333119
0.280308
0.117616
0.604998
-0.381151
0.219795
0.859745
-0.404424
0.665321
-1.180746
1.516213
-0.328318
0.893820
-0.238049
-0.386875
-0.043299
0.721590
-0.780023
-0.081090
-0.690141
0.035937
0.193840
-0.085829
-0.243423
-0.013586
-0.006326
0.562844
-0.425830
-0.052478
-0.443055
-0.378891
-0.754381
1.776453
-0.511715
-0.349056
0.171109
0.019026
1.552664
0.078754
-0.168627
1.039157
0.770958
0.248392
-0.615304
-0.270436
-0.103970
-0.661764
-0.323733
-2.278679
2.359456
0.341340
0.117993
-0.296672
0.932371
-0.293232
1.613227
-0.148914
-0.510951
1.822382
0.376617
-0.104660
0.329462
0.543478
0.224187
1.246307
0.407874
-0.544667
-1.593167
-0.677302
2.941158
-0.553908
-0.718169
-1.151042
0.178949
-1.401318
-0.636171
0.605405
-0.418798
1.417014
2.218337
-0.040672
-0.332886
1.272896
0.396353
-0.460389
-0.124601
-1.006273
0.263245
2.333107
-0.051557
0.564609
0.299202
0.068701
0.631206
0.390375
0.324836
1.197345
0.477838
-0.552001
-0.433185
-0.134074
-0.503466
-0.673994
0.173213
-0.631353
-0.699338
1.126832
0.582517
0.476770
0.375986
0.832980
0.194254
1.190200
-0.150411
-0.140627
0.298123
2.301487
1.297843
-0.482489
0.032072
-0.498332
0.972662
-0.252799
-0.273614
-0.477087
-0.403056
0.227999
0.264228
0.341888
-0.239620
0.755787
0.377497
-0.115079
-0.227816
-0.053932
-0.880544
-0.473182
0.728562
0.284562
-0.146618
0.344444
0.030786
0.956781
-0.086367
0.322034
1.750272
0.217002
0.301928
-0.574146
-0.357801
0.154580
-0.370782
-0.288711
-0.922181
-0.158214
-0.027190
0.724456
-0.677112
0.302837
-0.135432
1.082161
0.127607
0.667910
-0.209608
-0.093499
-0.690663
-0.402757
-0.549462
0.092113
-0.312769
-0.052828
0.238895
-0.660237
-0.842449
-0.445282
0.847564
0.943650
0.525197
0.350961
-0.746799
-0.869046
0.317936
0.118018
-0.803398
0.503119
-0.234905
-0.104278
0.656579
-0.684568
-1.336047
-0.435115
-0.158292
0.599805
0.432592
0.728717
0.085537
-0.339027
0.485628
0.276814
-0.024809
-0.050526
-0.035462
-0.209615
0.526099
-0.208509
-0.151816
-0.709689
2.269393
0.540238
-0.118645
0.036504
1.326312
-0.687831
1.577994
0.335433
0.147762
0.464561
0.192189
0.778105
-0.337852
0.941269
0.069713
0.014404
0.387736
0.158821
0.633788
-0.350663
-0.010479
0.198608
1.395543
0.649215
-1.092173
-0.708127
-0.194816
1.116517
1.567518
0.106988
0.085286
0.490976
0.559660
0.587299
-0.354715
0.124279
0.244043
0.049871
-0.649227
0.053288
0.342654
-0.540331
0.150048
0.389272
-0.322730
-0.060443
0.911445
-0.033441
-0.668819
-0.877965
-0.089939
-1.145926
-1.739463
0.571530
0.507741
-0.008853
-0.132643
-0.287155
-0.207214
-0.506862
-0.461089
-0.565304
0.336938
1.339995
0.942680
-0.609938
-1.020685
1.340991
0.421502
0.762769
-0.249345
-0.395934
-2.782994
1.013806
0.313217
0.187749
-0.346955
0.428201
-0.184461
0.989302
-0.017672
-0.281911
0.413150
-0.407362
0.552562
0.612357
-0.077992
0.293974
0.182569
-0.167760
-0.326966
0.714788
0.090511
1.124329
0.852304
0.416146
1.583269
0.176441
-1.344236
-0.343189
0.148560
0.209737
-0.449885
-1.851098
-0.182369
-1.585123
0.306322
1.363518
1.034694
1.380185
-0.064009
0.166674
1.141977
0.000717
-0.154495
-0.064342
-0.368492
-0.489196
-0.156337
-1.397169
-0.019011
