0.375497
0.282389
0.553805
-0.072220
-0.353636
0.574417
0.207637
-0.123414
0.920169
0.386414
-0.580478
1.310045
-0.147842
0.373624
0.192359
-0.327426
0.510347
0.225304
0.744668
-0.053176
0.017461
0.589802
0.349863
-0.188594
0.001366
1.105751
-1.618720
-0.301190
-1.338115
-0.030597
-0.000833
0.166771
-0.342980
-0.410613
-1.030073
0.753442
-0.058420
0.455994
0.533616
-0.033845
-0.480220
0.211039
0.370572
1.228519
0.408631
-0.070205
0.611934
0.221113
0.446183
0.200532
-1.062694
-0.469857
0.275382
-0.064699
0.072783
-0.282238
0.822617
0.658022
1.139333
0.422538
-0.743257
0.748711
0.550665
0.977522
-0.170936
-1.337838
0.564523
-0.044161
-0.254456
-0.202604
0.260389
0.536949
-0.028719
-0.090412
-0.407817
-0.084729
0.967658
-1.093297
-0.262079
-0.162551
0.072282
-0.076786
0.238118
0.669801
-0.481474
-0.385020
0.129478
-0.925402
-0.602124
1.125771
-0.015916
0.176413
0.807927
-0.019369
0.713252
-0.980342
-0.099183
0.659961
-0.094902
0.222323
-0.288424
0.370241
-1.770880
-0.705519
0.547769
-0.382017
0.087707
0.153989
-0.603380
-0.360454
0.140197
-0.194705
-0.465851
0.553054
0.696151
0.164344
0.117880
-0.163560
1.414830
-0.293702
-0.655868
-0.278021
0.099790
0.088348
-0.049623
0.554598
-0.415760
0.650449
0.240444
0.546190
-0.016158
-0.182554
-0.551283
-0.578498
0.832277
-0.545436
-0.012367
-0.782675
1.592665
-0.101653
0.290103
-0.322857
0.143953
0.427213
-0.224134
0.384226
0.051233
0.230952
0.115130
-0.569018
0.263347
-0.542706
-0.420392
-0.016006
-0.127289
-0.631034
1.027387
-0.340415
0.033588
-1.004431
-0.090529
-0.275841
-0.722874
0.090537
0.003791
0.750088
0.614124
2.529497
-0.152970
0.139220
0.358715
-0.156582
-0.620665
0.238342
-0.316189
-0.313643
-0.571416
0.870063
0.480364
0.124209
0.019556
-0.108455
1.297563
-0.240718
0.079243
-0.677975
0.722397
-0.141595
-0.015064
0.461245
0.504665
-0.694397
1.133501
0.427046
0.115788
-0.442842
-0.129236
-0.320549
0.189766
-0.294896
0.146385
-0.176530
-0.019384
0.054175
0.129015
0.462834
0.922828
0.017807
0.557684
-0.067295
-0.122040
-0.192008
0.281664
-1.700329
0.345087
0.057888
0.273151
-0.132631
0.194858
-0.226688
-0.298830
-0.374967
0.210417
0.819740
0.832672
1.014600
-0.605585
1.334793
0.827776
0.432076
0.819561
0.057698
-0.060299
0.016659
0.261663
-0.602895
1.161411
-0.151809
-0.497815
0.166264
-0.436371
-0.383037
0.549514
0.629797
-1.890335
-0.254073
0.713358
0.021748
0.550943
-0.840786
-0.505549
1.740408
0.789268
-0.087311
0.835758
-0.300074
-0.333460
-0.679406
-0.553565
-0.627208
1.047379
0.149122
0.009387
0.600889
-0.504197
0.615318
0.237003
-0.233785
0.671494
1.007196
0.089595
-0.108529
-0.254940
-0.284989
-0.158699
-0.216194
-0.422648
0.167354
-0.248729
0.411852
0.333471
0.378059
-0.635097
-0.549142
-0.909910
-0.464649
-1.170106
-0.485090
1.543588
-0.410949
-0.318721
-0.087346
-0.505043
0.128317
-0.127907
0.095458
0.193796
-0.385335
-0.395213
0.457258
0.234372
-0.456066
-0.414335
0.349382
-0.372422
-0.499812
0.686803
-0.422142
-0.010013
0.526519
0.769885
0.011561
0.133196
-0.327414
-0.666127
0.363747
-0.003775
0.129228
-0.408961
-0.436861
0.244754
-0.252664
1.711254
0.574866
-0.142110
0.815841
-0.422061
1.083012
0.024754
0.511359
-0.234320
0.257107
0.714832
0.134172
0.402690
-0.397749
0.463357
0.534510
-1.949667
-0.328539
-0.241137
-0.094064
-0.145931
-0.289325
0.034239
0.680849
0.198885
0.094817
0.468165
0.269372
0.412428
0.340605
-0.234952
1.277533
0.178228
0.001867
-0.136051
0.408079
-0.034497
-0.094662
-0.178528
-0.597188
-0.461208
0.017630
0.325214
0.380924
-0.623691
0.262633
-0.176660
0.347228
-0.228424
-0.009882
-0.176760
0.919215
0.146584
0.226250
-0.817369
0.675365
0.918387
1.166984
0.030452
-0.197080
0.431461
-0.269122
0.079424
1.657465
0.538682
-0.430896
-0.067853
-0.146201
0.508754
-0.262972
0.109429
0.142225
0.058720
0.370668
-0.360312
-0.486785
-0.141417
0.770277
-0.002559
1.344177
0.228817
-0.155793
-0.136089
0.608764
0.401531
1.266502
0.930592
-0.564960
-0.071885
-0.092259
-0.658264
0.457064
-0.980208
0.326912
0.272705
-0.858669
-0.066693
-0.455993
-0.230695
-0.159994
-0.505021
-0.656164
0.283517
1.038016
-0.527365
-0.033138
0.051744
0.566634
0.736646
1.218991
2.146255
0.187063
0.141096
0.407659
-0.541223
0.086393
0.107163
-0.335152
-0.423234
-0.021980
1.454654
0.604311
-0.439155
0.174981
0.040999
-0.071698
0.678362
-1.336522
2.270335
1.074883
0.869378
0.407587
-0.183204
-1.310837
0.095116
-0.127567
0.842446
-0.026964
-0.038310
0.278637
-0.308123
0.789498
-0.239565
-0.459146
0.067737
0.034558
-0.518201
0.808905
1.059455
-0.873495
0.099411
0.280421
0.204208
-0.036806
0.445184
1.089507
0.317399
1.545022
0.105410
-0.743889
0.890259
0.510417
0.473805
-0.476099
0.267111
0.361746
-0.198712
-0.351648
-0.069827
-0.012857
-0.285482
0.159269
-0.235935
0.517207
0.915906
1.101198
0.564476
0.467652
