0.366908
-0.081121
0.839275
-0.070568
0.341673
0.152544
-0.244911
0.815521
0.663785
-0.770361
0.089870
0.311572
-0.076511
0.307262
0.087489
-0.425705
0.393026
0.232727
0.698051
-0.194288
0.103076
0.391826
0.052316
-0.712056
-0.013218
0.116744
-0.821876
0.207474
-1.191035
0.406383
0.163742
-1.090886
-0.489599
-0.446981
-0.914871
1.774985
-0.040426
-0.946438
0.539627
0.377353
-0.725616
-0.084296
0.356731
0.848232
-0.050840
0.136206
-1.458390
-0.575634
1.091514
0.077655
-0.932214
0.762264
0.069071
0.128056
0.130945
0.157693
-0.481012
-0.320380
-0.749616
0.297330
-0.948685
1.135923
-0.193087
0.471702
0.193680
-0.318957
-0.260231
0.304039
-0.092138
-0.161920
0.438793
0.266110
-0.237755
-0.158503
-0.209093
0.728478
0.858809
-1.302412
-0.600183
-0.266492
-0.157210
1.243816
0.268362
0.838276
-0.048997
-0.197564
-0.238548
-0.162914
-0.255792
0.667289
-0.014835
0.381805
0.704792
0.141498
-1.778345
-0.424759
-0.370308
0.295347
0.065387
-0.284612
0.055735
0.455702
-1.005394
-0.509357
0.714917
0.003678
-0.037767
-0.673032
0.816785
-0.292604
0.363437
-0.263032
-0.312013
0.273972
0.027483
-0.846717
0.352469
1.076971
1.724046
-0.082470
-0.383176
-0.032768
-0.307950
-0.492240
-0.632969
0.052103
0.608557
0.183703
0.283167
0.373047
0.132323
0.341561
-0.245384
-0.494354
1.135299
0.361091
-0.869907
-1.241105
1.389117
-0.252051
0.367313
-0.340187
0.972609
0.054236
0.221119
-1.467725
-0.011573
0.492726
0.694349
-0.392790
-0.150173
0.210502
0.154187
-0.088962
0.040976
-0.168679
0.339616
0.558636
0.089862
-0.151347
0.027546
-0.037849
0.032235
0.096891
-0.259095
0.809679
-0.159408
1.251367
0.549667
0.085482
0.442431
-0.639343
-0.261057
0.578440
1.498104
0.244117
0.015856
1.554804
0.699322
-0.557046
0.154661
0.057200
0.921627
-0.112445
0.362765
-0.939967
0.707066
-0.003107
0.428340
0.512784
0.166925
-0.274898
1.259870
-0.434612
0.251886
0.375619
0.336165
-0.415077
0.884304
-0.205303
0.151457
-0.649668
-0.865743
-0.649326
0.672698
-1.427397
0.338311
0.053866
1.166318
0.534284
-0.007313
-0.023976
0.627559
-1.399266
0.880787
-0.493562
-0.218370
-0.138485
0.261392
-0.264525
-0.164937
0.944441
0.573504
0.866379
-1.189526
0.908525
-0.506554
1.374044
-0.089559
-0.304386
1.375115
-0.555231
0.045734
-0.284001
-0.007806
0.083082
1.753174
0.268296
-0.110404
-0.275335
-0.877540
0.129399
-0.333640
0.260911
-1.910339
-0.691615
0.277109
0.324337
0.724448
-0.409208
-0.573297
1.478037
-0.197672
-0.074724
0.950823
-0.401343
0.029883
-0.546221
-1.086258
-0.413318
1.446861
0.045323
0.175099
-0.032773
-0.283498
0.131742
0.704102
-0.812356
1.198583
0.972764
-1.381909
0.089004
0.216515
-0.316531
-0.195940
-0.254921
-0.415967
0.080418
0.832258
0.563920
0.239154
0.111787
0.135336
-0.038023
-0.075230
-0.229699
-0.589078
-0.520957
1.228174
-0.193375
-0.270957
-0.291263
-0.274514
0.392294
0.918179
-0.068383
-0.059931
-0.447356
0.479594
0.297458
0.716209
-0.155045
0.119030
0.493703
-0.474224
-0.385237
0.644293
-0.442931
-0.363495
0.763006
-0.668021
0.493536
0.114022
0.283096
-0.841962
0.413806
-0.002507
0.803419
0.182502
-0.021302
0.173672
-0.193669
0.781612
0.504858
-0.402061
0.129033
0.081461
-0.214306
0.252076
-0.153304
-0.161973
-0.059143
0.677714
-0.001166
0.602719
0.252808
-0.259177
1.371358
-1.577996
-0.080217
0.077891
0.027676
-0.366396
-0.006305
-0.391187
-0.311757
-0.232444
0.859748
0.690935
0.792496
0.937512
-0.315556
-0.996399
1.409555
0.124601
-0.055292
0.680884
0.508280
-0.082026
-0.213741
-0.260116
-0.505169
-0.051215
-0.229811
0.601216
0.303593
0.367580
0.256733
-0.394528
0.397282
-0.141700
0.069030
-0.305377
0.370587
0.018599
-0.177272
-1.838746
0.293792
0.012284
1.144110
0.224248
-0.172705
0.028253
-0.396266
-0.235356
1.552875
-0.006647
-0.306989
-0.237096
0.204522
1.005357
-0.368914
1.223087
1.077430
0.481253
0.195229
-0.301066
-0.251967
-0.306606
0.302930
-0.031057
0.791323
0.157672
-0.557520
-0.337843
-0.083098
0.732277
0.608989
0.733768
-0.217041
-0.079674
0.130586
0.393284
-0.255494
0.142470
0.218272
0.994204
-1.172308
0.627036
-0.195134
0.723008
-0.311869
-0.373906
-0.596003
-0.448613
-0.585328
0.034241
0.131559
-0.298535
-0.313890
1.051457
0.257960
1.611804
-0.233769
-0.168975
-0.014873
-0.254142
-0.274965
0.029769
-0.850800
-0.107116
-0.866148
1.237054
0.809834
-0.659178
-0.131743
0.189011
-0.015374
0.115572
0.039968
1.792693
1.094550
1.532147
-0.748159
-0.588452
-0.507679
0.305031
-0.555828
0.518885
0.140204
-1.106632
0.566036
0.373623
1.213520
0.438505
0.755939
0.616194
0.286470
-0.347179
0.094135
0.643911
-0.463315
0.369663
0.297910
-0.078404
0.306045
0.634194
0.517151
-0.498166
0.376083
-0.137867
0.096894
-0.074107
0.962874
-0.377974
1.124094
-0.199044
0.355763
0.277002
-0.200121
0.989984
0.008592
-0.114620
0.123159
-0.448334
0.582172
-0.990945
1.091915
-0.405172
0.637374
