-0.075093
0.573588
-0.056161
0.228005
0.200666
-0.124447
0.032271
0.604001
0.142015
0.031930
0.481134
-0.493119
-0.187323
0.082985
0.099592
-0.182558
0.165240
-0.032324
0.032935
-0.192574
0.285978
-0.705853
0.398710
0.118069
-0.023281
-0.258172
-0.938928
0.191815
0.932373
-0.030135
0.207577
0.020385
1.025268
-0.108237
0.030237
-0.673103
-0.057146
0.008385
0.697028
0.047811
0.272788
0.444840
0.267377
0.057300
-0.101155
0.327583
0.463286
0.381267
0.274217
0.448735
0.631692
-0.525667
0.271790
-0.007007
-0.026898
0.587304
0.145690
-0.292570
-0.651218
0.083030
-0.693384
0.691391
0.107380
0.172703
-0.250000
-0.138390
-0.341939
-0.015279
0.087008
0.379964
0.640694
-0.075547
-0.150472
0.012235
0.505159
0.414289
-0.162262
0.608095
0.111359
-0.430186
-0.724218
0.096684
0.205750
0.769196
0.663878
0.691687
0.386061
0.589321
-0.201159
-0.542365
-0.012347
-0.048379
-0.033364
0.349507
0.358472
-0.315158
-0.017305
0.043506
0.042233
0.018103
-0.116540
-0.257863
0.448083
-0.830671
0.190585
0.026443
-0.150276
0.011041
-0.018758
0.061489
-0.029651
0.669454
0.269483
0.048285
-0.084604
-0.171469
0.471027
0.439750
0.119735
0.050530
0.276069
0.231634
0.744181
0.458937
0.118600
0.047501
-0.313217
-0.409605
-0.029449
0.022003
-0.072304
0.643581
-0.968568
0.788821
-0.399939
0.183832
-0.002248
0.162973
0.313080
0.105863
-0.423251
-0.027986
0.070150
-0.052029
0.094507
0.030572
0.241222
0.640307
0.050997
1.721824
0.148613
0.526008
-0.662983
-0.385017
-0.142722
0.534876
0.689641
-0.629685
0.035697
-0.212076
-0.044142
-0.242796
-0.062165
-0.073862
-0.294673
-0.098645
0.645539
-0.603715
0.378960
0.019669
0.012910
-0.011777
0.420122
0.069561
0.061960
0.465442
-0.041719
0.073474
-0.080023
-0.134153
0.032234
-0.194850
0.144196
0.058549
-0.109489
0.135975
-0.358618
0.026741
0.186847
-0.010195
0.063673
1.031131
-0.194463
-0.135359
-0.040688
0.567141
-0.260117
0.294469
-0.030032
-0.133787
0.207082
-0.052217
0.137919
0.528682
0.094624
0.074544
0.237713
0.230224
-0.259819
-0.110343
-0.015842
-0.036155
-0.222093
0.967863
-0.026684
0.437483
0.076960
0.004108
0.206242
0.316278
0.798677
0.030104
-0.099610
0.271664
-0.384044
0.012025
0.223862
0.137944
-0.002180
0.402806
-0.579785
1.040094
-0.112042
-0.047106
0.119890
-0.135021
0.090425
-0.414542
-0.133273
-0.774390
-0.785745
-1.514741
-0.138043
-0.003884
1.384090
0.312574
-0.333447
-0.262473
0.002793
1.108298
-0.679905
-1.004016
0.103477
-0.061810
0.531758
0.390282
-0.337460
-0.369678
0.005391
0.539532
-0.202856
0.065020
-0.087420
-0.121522
-0.526504
-0.106174
0.138656
0.277307
-0.204542
-0.237137
0.165191
0.117418
-0.133839
0.089656
-0.201355
-0.113528
0.134067
0.325690
0.918096
-0.795180
-0.146796
-0.277882
-0.056605
0.273431
0.200842
-0.614759
-0.131144
0.162280
0.735270
-0.527587
-0.182506
-0.038804
-0.169016
-0.571417
0.049135
-0.244861
0.248145
-0.033622
-0.397950
0.307726
0.660068
-0.055619
0.087112
0.253835
0.755647
0.277513
0.167416
0.536170
0.149782
-0.225364
-0.900466
-0.082740
0.076354
0.112079
0.625142
-0.428721
-0.173307
-0.034505
0.155132
-0.041547
-0.440026
-0.061102
-0.441871
-0.435518
0.131723
-0.262554
0.416048
-0.416549
-0.281647
0.153783
0.314894
0.003950
0.159965
0.507381
0.405451
1.187203
0.005379
-1.080215
0.667684
-0.052280
-0.056974
0.001097
0.124959
0.498761
-0.136270
0.638520
0.079918
0.129458
-0.364800
0.130826
0.157909
-0.011481
-0.015328
-0.096093
-0.097066
0.264118
-0.037949
-0.616851
-0.119908
-0.232556
-0.038974
0.639134
-0.361384
0.253532
-0.266523
-0.055845
0.163173
0.224941
0.503169
0.549040
0.240360
0.214914
-0.286243
-0.515220
0.330811
0.088165
0.042657
-0.395980
-0.199383
-0.053389
0.374686
-0.163820
-0.183335
-0.077219
-0.231688
-0.866980
-0.095024
0.453768
-0.426032
0.452490
0.072141
-0.082952
0.284656
-0.209737
-0.473147
0.444540
-0.534853
0.318707
-0.097379
0.440455
-0.559778
-0.541426
-0.133710
-0.446116
-0.203502
0.342331
-0.322577
-0.009775
-0.057147
-0.887236
0.518649
0.274912
-1.075966
0.388336
0.068682
-0.108507
0.197720
-0.538346
-0.369138
0.573549
-0.809236
-0.046139
0.315658
0.289351
0.145492
0.515441
0.237124
0.349773
-0.155527
-0.012209
0.326408
-0.787743
0.093173
-0.413129
-0.051456
-0.468213
0.347424
0.543424
-0.022706
0.239538
-0.340352
0.353258
-0.079512
0.330580
0.137122
0.162849
-0.529160
-0.328231
-0.383948
-0.383372
-1.782232
0.471072
-0.079384
-0.024500
0.533725
0.164326
0.280462
-0.368224
-0.483048
-0.164455
0.454043
0.032603
-0.296997
-0.955203
-0.035351
-0.371172
0.158535
0.580744
-0.193436
0.021556
0.045575
-0.016942
-0.106659
0.427297
-0.215288
-0.055772
0.257332
-0.458435
-0.386656
-0.241336
0.027176
-0.360294
-0.875890
-0.120507
0.842852
-0.051863
-0.411577
-0.080719
-0.088091
0.034021
-0.046764
-0.432497
0.004769
0.093008
-0.121448
-0.274567
0.120575
-0.359664
-0.633982
0.628984
