-0.182253
-0.073366
0.188630
-0.176626
-0.858943
-0.707225
-0.111080
0.236439
0.197488
-0.905023
0.366369
-0.974846
0.190626
0.811908
0.257054
-0.253801
-0.686794
0.147108
0.143710
0.403807
-0.380319
-0.292810
-0.065881
-0.659171
0.371357
-0.836667
-1.103584
0.671007
0.499527
1.440504
0.590935
-0.428205
0.289423
-0.242364
0.032557
0.354530
0.195431
-0.774464
-0.019401
0.348028
-0.524294
0.552478
-0.371441
-0.677054
-0.363605
0.040977
-0.576081
-0.596399
-0.179689
-0.574034
0.311929
-0.237359
0.468409
-0.174558
-0.230516
0.730693
-0.128691
-0.003162
-0.225231
-0.163034
-1.053738
-0.235099
-0.321573
0.013246
0.848886
-0.598364
-0.909413
0.200908
-0.604056
0.329419
0.166019
-0.596094
-0.237783
0.252680
0.178088
0.415438
0.278315
-1.763305
-0.360385
-0.700566
-1.325096
0.489366
-0.201613
0.110847
-0.216973
-0.092264
-0.391216
1.757692
0.206355
0.351508
-0.053319
0.666416
0.100064
0.695167
-2.180763
0.227281
-0.167851
-0.236505
-0.111648
0.037136
-0.009818
-0.071686
-0.001267
-0.846862
-0.077049
0.010927
0.063196
-0.958464
0.115274
0.783529
0.188890
0.186489
-0.760798
0.071472
-0.633316
-0.847364
0.018416
0.069709
0.351502
0.075282
0.187333
0.673932
0.263269
-0.261021
-0.179618
-0.435233
0.513434
-1.108576
0.615398
0.204407
-0.259718
0.644272
-0.571282
1.408995
0.133204
0.001029
-0.503042
0.055559
1.410091
-0.619694
-0.349486
-0.153734
0.542940
0.429011
0.451372
-0.371990
0.127113
-0.171219
0.999408
1.268520
-0.049301
-0.258200
0.416494
-0.684272
0.870545
-0.160000
0.690581
-0.935356
-0.168639
1.477388
0.014222
0.290325
1.384523
0.594360
-0.176702
0.395726
-0.658201
-0.345694
0.930679
0.316327
-0.094063
0.134899
-0.337587
0.007940
-0.251956
0.368451
-0.087655
0.587307
0.046462
-1.379066
0.555009
-0.091966
-0.051379
-0.242010
0.132720
-0.231781
-0.138050
0.360020
1.427975
-0.695176
-0.203838
0.919849
0.420193
0.057015
0.130608
0.243928
-0.377540
0.240132
1.507250
-0.304018
0.284688
-0.067223
-0.291461
-0.039786
-0.159256
0.646956
0.492798
0.743261
1.229957
0.409778
-0.197243
-0.127646
0.349323
-0.042242
-0.031065
-0.250528
-0.764140
-0.273104
-0.491542
0.298363
1.058496
-0.286021
0.478365
-0.677287
-0.313388
0.501405
0.540969
0.828282
-1.191985
-0.300891
2.370630
-0.548334
-0.287319
0.955441
0.124797
-0.090911
1.416873
-0.123280
0.356546
-0.147508
0.158911
-0.114723
-0.160060
-0.108853
0.197834
-0.060290
-0.350602
0.211779
0.867605
0.285660
-0.323960
0.767742
-0.453644
-0.070645
-0.271627
-0.188750
-0.420870
-0.877080
-0.181761
-0.052323
-0.268238
0.177841
0.788693
-0.756865
-0.463214
-0.564798
-0.382177
-0.044444
0.049701
0.578735
-0.889751
-0.037953
0.162684
0.189356
0.179256
-0.087348
-0.342445
-0.067166
0.416999
0.548966
-0.073187
-0.215609
2.104062
0.701261
-0.197805
-0.520235
0.362916
-0.016597
0.209482
-0.200190
-0.096808
0.150605
0.536508
-0.195984
0.700051
-0.323980
-0.014216
-0.048832
1.218821
-0.625878
0.294335
-0.015699
1.538123
0.025221
-0.213611
-0.462897
0.213056
0.089508
-0.313382
0.546828
-0.696868
0.809912
0.003487
0.787256
-1.222994
-0.180276
0.224634
0.691607
0.133416
0.055152
0.036738
-0.198739
-0.293712
0.041967
0.107798
-0.090142
0.436776
0.323585
0.153599
-0.225370
-0.268251
-0.378342
0.503235
0.136146
0.400132
1.056307
-0.610620
1.245281
-0.196464
-0.172472
0.161435
-0.245134
-0.141494
-0.052590
-0.647126
-0.655475
-0.587485
-0.061177
0.693366
1.069310
-0.241969
0.808404
-0.327596
0.808425
-0.316113
0.057689
-0.820751
-0.060327
-0.426570
-0.414453
0.072204
0.186971
-0.077424
1.020536
1.254637
0.649549
0.021771
0.596347
-0.665701
-0.493152
0.293572
-0.038850
-0.283364
-0.105805
0.010213
0.218692
0.120184
0.088117
0.013690
-0.038234
0.817494
-0.385251
0.024487
-0.258295
-0.169209
0.368807
0.999065
0.817095
-0.214410
0.620333
-0.323216
-0.130751
0.345373
1.031315
0.187020
0.832833
-0.064121
-0.116933
-0.098367
0.481874
0.352788
-1.068182
0.523006
0.211999
-0.064251
0.003274
0.370473
-0.115081
-0.082055
-0.429720
0.376179
-0.123894
0.080726
-0.095698
0.904965
0.186823
-0.522986
-1.799798
-0.006643
0.437785
0.972089
0.515341
0.537562
-0.164483
-0.164983
-0.581359
0.246831
-0.092852
-0.142133
-1.050406
0.486563
-0.378646
-0.641609
-0.206574
0.183090
-0.527417
-0.282308
-0.043075
-0.208426
0.546042
0.072678
-0.600643
-0.082925
0.314323
-0.337195
0.276818
-0.543205
-0.502931
-0.196935
-0.340178
-0.270279
-0.179599
1.356542
0.468386
1.300154
1.266937
-0.222088
-0.009848
-0.189535
0.155494
-0.319128
-0.215910
0.068851
0.419359
1.370412
1.861820
0.329743
0.182077
0.346254
-0.060162
-0.130620
0.436947
1.013498
0.895300
-0.613023
0.477125
0.545878
-0.449772
-1.975834
0.092915
-0.085397
-0.355713
-0.524997
0.540673
0.864376
0.131009
-1.299975
0.531200
0.390352
0.624469
0.123942
-1.562657
0.060847
0.033303
0.844674
0.157003
-1.926741
-0.534527
-0.437577
0.020364
