-0.032938
1.344404
-0.230542
0.405077
-0.300985
-0.837015
-0.388871
0.672606
0.294733
-0.464436
1.470674
-0.299993
-1.111925
1.061204
0.077770
-0.451264
0.121432
0.034122
0.003339
0.105129
0.222419
-1.647488
0.397747
-0.012547
-0.097727
0.938481
0.649166
-0.020778
-0.111685
-0.605466
0.491628
0.042885
0.739845
-0.930771
-0.569466
-0.835266
-0.258418
0.086660
0.250321
-0.157613
0.452170
1.147848
-0.068271
-1.305815
-0.390605
-0.225488
-0.041420
0.531265
-0.443843
0.069984
0.185304
-1.860043
0.283727
0.429210
-0.347219
1.380474
0.511667
0.574744
0.802252
0.573580
-0.332564
2.077073
1.578344
0.475868
-0.484727
-0.813933
-0.884293
0.359082
0.142068
0.410665
1.172157
-1.148194
-0.699010
0.598530
0.316071
0.369655
0.266558
-1.850268
-0.498580
0.417469
0.142494
-0.650451
0.525982
-0.145140
0.362944
0.123379
0.845130
1.994106
-0.410304
0.665261
-0.302430
-0.584113
0.450750
-0.039579
0.199468
-0.203304
-0.372927
0.573843
-0.347707
-0.177559
0.197479
-0.375084
0.383003
-0.445881
1.146204
-0.285153
0.338619
0.050152
0.070343
1.264273
-0.176402
1.278242
-1.057053
-0.031794
-0.234790
0.201915
0.662872
-0.481237
-0.696365
0.337470
0.020133
-0.299205
1.130006
0.999102
0.427510
0.284379
-0.359026
-0.102855
-0.231945
0.307846
-0.994320
-0.068233
-0.102294
-0.200724
-1.713831
-0.046403
0.876355
1.073970
1.136004
-0.342712
-0.423572
-0.332741
-0.539467
0.218294
-0.064452
0.260992
-0.442614
0.682421
0.592148
0.309491
0.457718
-0.267759
-0.149973
-0.623061
0.019367
0.867170
1.906236
-0.903420
-0.415577
-0.110307
-0.323134
-0.025454
-0.034463
-0.687577
-0.799682
1.117216
-0.212936
-0.513398
0.341788
0.656541
-0.189929
0.336902
-0.032043
0.332748
0.599642
-0.756775
0.065581
0.602585
-0.313426
-0.732559
0.014200
-0.507948
-0.676727
-0.234378
-0.021857
-0.540732
-0.545487
0.259794
0.082893
-0.816925
0.955094
1.379150
-0.424428
0.298108
-0.167752
-0.290908
-0.111165
0.127448
-0.056260
-0.345653
-0.123807
0.883801
0.045795
1.704052
-0.059258
1.188959
0.163395
0.429785
-0.121521
0.229408
-0.183381
-0.071189
-0.540364
2.517341
-0.496637
0.150955
-0.023878
-0.124506
-0.271654
0.407592
-0.253180
-1.164192
-0.124621
0.897960
-0.197621
0.373046
0.470187
0.993866
0.086802
0.272179
0.594715
-0.115214
-0.304764
-0.418371
1.213049
-0.196986
0.273484
-0.427431
-0.616083
-1.124460
0.955050
0.087062
0.236096
0.323397
1.707114
0.528297
-1.139166
-0.217126
-0.107646
0.463321
1.267499
0.492291
0.018374
-0.143630
1.099304
0.195992
-0.772258
0.204309
-0.060630
0.708188
0.276906
-1.047311
0.169007
0.280055
-0.448997
-0.990393
-0.132821
-0.366264
-0.171862
0.050422
-0.193562
-0.293915
0.095334
-0.150827
0.298238
-0.007927
0.114993
0.833703
0.199962
-0.373017
0.301408
-0.628372
-0.687334
0.188427
0.673346
-0.002378
-0.711604
0.404177
1.084010
0.966826
-0.399043
-0.128413
-0.606116
-0.035725
0.851106
-0.716796
1.470385
0.057950
-0.020265
0.199207
0.308597
0.079913
0.907055
0.307680
0.863388
-0.304517
-0.021353
0.407265
0.070105
0.447390
-0.578051
-0.150138
0.203410
0.139585
-0.534359
-1.801507
0.274304
0.422417
0.174365
0.369336
-0.054433
-0.439125
1.282354
-1.033148
0.007190
-0.925725
-0.060590
0.230821
-0.364594
-0.018243
-0.074555
-0.127277
0.234389
0.125196
0.516736
1.179304
0.651424
-0.390290
0.687701
-0.048218
-0.117106
-0.161425
0.162314
-0.424329
-0.165594
0.987971
-0.334839
0.238019
0.270051
0.733304
0.750968
1.224903
-0.926255
0.535841
-0.316466
-0.512900
0.613877
0.613371
-0.120192
-0.531043
-0.326391
0.379063
-0.514597
1.187071
0.629285
0.669368
-2.000760
0.617421
0.005630
0.055527
-1.192068
-0.099381
0.342218
-0.494210
0.297088
0.080735
0.499519
-0.459432
-0.193511
-0.883740
0.753894
-0.497768
0.234662
0.213463
-0.216566
-0.772092
0.478316
0.289979
0.587915
1.023708
0.051786
-0.053347
0.512185
0.096766
-1.195470
0.667451
-0.388512
0.032513
-0.111042
1.167648
0.766868
1.069080
-0.362581
0.467144
0.226773
1.207356
-0.535054
-0.042027
0.691938
0.843493
0.822636
0.814281
-1.113149
0.104092
0.681338
-0.036486
-0.020186
-0.860716
0.087347
-0.294239
-0.556908
0.147225
0.455821
-0.053382
0.274985
-0.091713
-0.123158
-0.087171
-0.308557
0.562158
-0.708868
-0.689217
0.707368
-1.236059
-0.144943
-0.743462
-0.046556
0.519763
-0.110067
-0.442305
0.146134
-0.060604
0.012213
0.426174
-0.526926
0.316282
-0.203099
0.015857
-0.409299
-0.032762
-2.569134
-1.893913
0.968677
0.704746
1.344442
1.033687
0.261416
0.575633
0.222276
-0.114579
0.524649
0.901880
-0.309704
0.053485
0.524523
-0.156474
0.343437
0.705757
0.183406
0.059058
-0.208732
0.638952
0.131085
1.054527
-1.477934
0.374786
0.271162
-1.316479
-1.019382
-0.288926
-0.283921
-0.698140
-2.233849
0.216040
0.835946
-0.459298
-0.015136
0.194545
-0.579563
-0.801518
-0.148068
-0.549869
-0.125433
0.100159
0.159403
0.855527
-1.512727
-0.236764
-1.042880
0.815895
