0.048052
0.647748
-0.092671
-0.037655
0.032080
-0.243450
0.009117
-0.070625
0.110262
-0.101759
0.945500
-0.841795
-1.177618
0.432417
-0.693791
-0.061190
0.430604
0.090181
-0.057127
-0.127815
0.216878
-1.267437
0.516322
0.491931
0.019780
0.331492
1.141608
0.215164
0.223100
-1.076642
0.302871
0.441826
1.233001
-0.365423
0.174640
-0.522902
-0.088659
1.066171
0.780197
-0.227805
1.035042
0.636750
0.613235
-0.183416
-0.385963
-0.188940
0.326184
0.377393
-0.340298
0.612002
0.528013
-0.732422
0.387534
0.463535
-0.077148
0.550440
-0.197021
-0.176105
1.250084
0.197932
-0.077487
0.938479
0.433595
0.129534
-0.482028
-0.723682
-0.654130
-0.047948
0.178459
0.123980
0.529531
-0.013591
-0.283546
0.421310
0.466687
0.673586
0.059830
0.948995
-0.179846
1.023388
1.063329
-0.555506
-0.082870
0.116769
0.158927
0.084022
0.966595
1.298048
-0.728248
0.029166
-0.297378
-1.908629
-0.043102
0.410854
1.766584
0.228264
-0.281835
0.132261
-0.172543
0.029488
-0.156270
-0.192975
0.920129
0.549089
0.002096
-0.217822
0.012949
0.624002
0.022906
0.251182
-0.213986
0.210687
-0.170873
-0.078534
-0.090684
0.656305
-0.298620
-0.741086
-0.384500
-0.022319
-0.198216
-0.221131
-0.001471
0.465888
0.083611
0.067276
-0.659067
-0.316472
0.024793
-0.221345
-0.711833
-0.011171
-0.289069
-0.612425
-1.155432
0.151600
1.140934
0.969697
0.500529
0.129738
-0.437084
-0.104791
-0.652370
0.279224
-0.068749
0.014356
-0.108250
0.932248
-0.219583
0.607935
0.312860
0.122029
0.021742
-0.870236
-0.414869
0.697195
0.800655
-0.141665
-0.118178
-1.256423
0.076734
-0.261864
0.024022
-0.122992
-0.273753
-0.075337
1.287271
-0.984099
-0.562521
0.069908
0.152262
0.075193
1.392167
-0.224463
-0.471957
0.069197
-0.093123
-0.176430
0.180118
-0.143366
0.265245
-0.616037
-0.067549
-0.188372
-0.025373
0.067826
-0.764835
0.096357
0.170045
0.210551
0.299496
1.182199
-0.801196
0.051627
-0.126932
-0.442592
-0.291657
0.363248
-0.161436
-0.192985
-0.141163
0.747173
0.586817
0.242777
0.856308
0.678874
-0.336452
0.452926
-0.487260
-0.207990
0.016357
-0.011095
-0.608473
2.060485
-0.195465
0.003140
-0.008983
-0.061731
-0.261533
-0.283525
-0.183693
-0.519616
-0.152278
0.364447
-0.289944
0.057580
0.148657
0.659831
-0.091965
0.178448
-0.341953
1.367321
-0.205315
0.120452
0.971826
-0.555604
0.045289
-0.423514
-0.624164
-0.895503
0.175247
0.102329
0.510262
-0.338725
2.138517
0.462640
-0.933048
-0.412009
-0.131467
0.437117
0.873915
-0.308371
0.346687
-0.098832
0.780221
0.366902
-0.386682
0.888882
0.152435
0.883219
-0.138533
-0.641388
-0.191783
0.014104
0.150015
-0.294655
-0.069916
0.477570
-0.255034
-0.379021
0.082024
0.170008
-0.256891
-0.082076
-0.113844
0.135900
0.554119
0.274496
0.955798
-1.023018
0.386172
-0.321957
-0.134390
0.232326
0.608732
0.213307
-0.158084
0.749962
1.038312
0.979203
-0.360553
0.338024
-0.084931
-0.048609
-0.522664
-0.414552
0.705538
0.139057
-0.389227
0.298042
0.529823
0.141017
0.513399
0.190486
0.753112
-0.173004
0.150184
0.296009
0.208203
-0.416498
0.670276
0.137470
0.000920
-0.162572
0.865907
-1.527625
-0.002762
-0.187833
-0.234532
0.391781
-0.477402
-0.152679
0.442303
-0.614825
0.186716
-0.857174
-0.305998
-0.296666
-0.060025
-0.006936
-0.190743
-0.060591
0.334745
0.297833
0.550144
0.678305
0.235118
-1.512118
1.319203
0.004707
-0.073960
-0.117043
0.149938
0.187290
-0.001901
0.178457
-0.082232
-0.332823
-0.440338
-0.148746
0.033257
0.430870
0.063697
0.113401
-0.170710
-0.551802
0.231707
0.273335
-0.155694
-0.064097
0.005249
0.236071
-0.288033
0.413528
-0.042297
0.152254
-1.454032
-0.001897
1.051708
0.376887
-0.445913
0.501945
0.260479
0.014656
-0.199830
-0.038831
0.465969
-0.148129
-0.610542
0.008369
0.278896
-0.220058
-0.171474
1.095053
-0.158484
-1.801298
0.041980
0.278914
0.546601
0.548822
-0.177991
0.013717
-0.511403
-0.401596
-1.133358
0.171601
-0.513126
0.423407
-0.099172
0.385571
-0.516998
0.727606
-0.328361
-0.293054
0.126512
0.527281
-0.773071
0.004813
0.226571
0.773972
0.593476
0.997055
-0.237582
0.040190
0.271243
-0.216713
0.010660
0.293942
-0.046872
-0.036123
-1.403123
0.169212
0.522745
0.274338
-0.016668
1.124135
-0.099403
0.385667
-0.188085
0.662655
-0.567964
-1.379111
-0.381175
-0.707068
-0.051596
-0.710292
0.300375
0.134002
-0.110145
0.194828
-0.309694
0.342985
-0.083232
0.507060
0.317259
-0.028155
-0.077833
0.399862
-0.264406
0.217617
-2.875273
-1.704384
-0.065576
0.246474
0.591856
1.396405
0.308241
0.174355
-0.129914
-0.425544
0.828667
0.688074
-0.268588
-1.153676
-0.127017
-0.510044
-0.030158
-0.074653
-0.044017
-0.076384
-0.069167
0.262899
0.022046
0.509879
-0.492624
-0.008533
0.008914
-1.336440
-0.268595
-0.199763
-0.356460
-0.514990
-1.627246
0.359526
-0.484812
-0.274137
0.927421
0.006386
-1.086613
-0.217188
-0.448456
0.769271
-0.101819
0.092888
0.098448
0.220516
-0.117348
-0.784654
-1.203219
0.204849
