0.034120
0.015591
0.134744
0.149177
-0.058406
0.170981
-0.558071
0.282593
0.332551
-0.774495
-0.389149
-0.584715
-0.437621
-0.123681
0.249471
0.026807
0.324706
0.672951
0.719810
-0.308720
-0.197529
0.054818
0.085235
-0.023926
0.214898
-0.968651
-0.722817
-0.561937
-1.160989
0.134003
0.204645
0.138255
0.231570
-0.060589
-0.449471
1.462220
0.198816
-0.530694
0.628857
0.081285
-0.736721
-0.047874
0.783287
1.362630
-0.366496
0.013566
-1.345324
0.271417
0.593281
0.160300
-0.539183
1.468447
0.469713
-0.095899
-0.049065
-0.020711
-1.387723
-0.823719
-1.537819
0.081446
-0.484634
0.195044
-0.803456
-0.127952
-0.093428
-0.044509
-0.401792
0.213231
-0.011466
-0.133865
0.074423
0.470890
0.210567
-0.497994
-0.007972
0.579270
0.829528
-0.034291
-0.580679
-0.370954
1.320921
1.228103
-0.673283
0.916301
0.309822
-0.488150
-0.367511
1.000010
-0.102360
0.017425
-0.086740
-0.727279
-0.041902
0.269644
-0.794774
-0.210398
-0.022929
0.067638
0.056992
0.241596
0.219093
0.066727
0.254864
1.047997
0.429182
-0.065599
0.233040
-0.188408
-0.260133
0.347596
0.393640
-0.700437
-0.214306
-0.072601
0.224619
-0.545101
-0.152214
2.126885
0.468224
-0.118363
-0.370848
-0.134414
-0.628968
-0.889661
-0.313374
0.147571
0.411944
0.340042
0.101019
-0.281134
0.631667
0.529994
-0.339195
0.601753
1.497480
0.456321
0.218647
-0.606523
1.175404
-0.405157
-0.190590
-0.257455
0.717954
-1.321711
-0.006520
-0.342736
0.400289
1.445001
0.171006
-1.133622
-0.000145
0.831581
1.083491
0.273661
0.246670
-0.042992
0.432610
1.736849
0.431318
0.934734
-1.003304
0.042240
0.565882
-0.078912
-0.102312
-0.384852
0.597119
0.013369
0.516930
0.576205
0.536169
-0.384912
0.079267
0.314408
0.175302
0.066949
-0.202930
-0.151195
0.496564
-0.151030
0.390756
-0.641018
1.302107
-0.045843
0.935935
-0.335274
0.150171
0.140722
0.845940
0.161161
-0.217037
-0.579291
1.053285
-0.032482
-0.033747
0.349320
0.287128
-0.078196
0.987293
-0.250762
0.023152
-1.016594
0.059624
-1.105998
1.152095
-1.077940
-1.051886
0.256224
0.552093
0.889536
0.211079
-0.058152
0.456969
-0.146295
0.338076
-0.645875
-0.076626
0.058128
-0.706198
-0.193337
-1.221441
1.827215
-0.142808
0.162535
-0.403060
-0.074939
0.169171
0.902936
0.006368
-0.449538
1.284407
-0.017949
-0.023370
0.076584
-0.039633
0.192328
0.665604
0.598457
0.140393
-0.800053
-0.952298
1.570608
-0.466437
-0.404493
-2.645462
-0.063964
-0.115245
-0.130807
0.457657
-0.817825
0.505072
1.448834
-0.042326
-0.136041
0.554707
0.163322
0.382052
-0.537314
-0.991945
0.126712
2.093708
-0.092042
0.419535
0.373536
-0.145632
0.491192
0.714203
0.238014
0.795403
1.014864
-0.964131
0.012761
0.040304
-0.455431
-0.656485
0.096534
-0.351159
-0.799175
0.555496
0.536501
-0.505003
0.181914
0.156345
0.244932
1.319590
0.010229
-0.388827
-0.151776
1.144955
0.600921
0.044854
0.124574
-0.447052
0.458826
0.040698
0.187229
-0.438187
-0.240118
0.096443
0.284030
0.357781
-0.330410
0.276664
0.367280
0.219445
-0.156787
-0.114755
-0.013257
-0.178327
0.597086
0.240633
0.187877
0.315780
-0.002604
0.443316
1.035744
0.185337
1.133649
0.354391
0.384273
-0.160889
-0.120346
0.160680
0.042102
-0.180469
-0.771667
-0.053589
-0.370634
0.584573
-0.397800
-0.144558
-0.234437
0.615238
-0.112203
0.442510
-0.542357
-0.285024
-0.148570
-0.881469
-0.257053
0.125777
-0.023675
0.009452
0.078974
-0.381849
-1.234058
-0.363075
0.631536
1.728471
-0.034259
0.868448
-1.235846
-0.452118
0.380957
0.065604
-0.087878
1.463568
0.037410
-0.119033
0.358895
-0.333329
-0.861902
-0.070329
0.311216
0.910417
0.098594
1.746837
0.173373
0.230626
0.610717
0.355528
-0.037531
-0.196878
0.031931
-0.091410
-0.006788
-0.386099
0.014846
-0.513772
1.436253
0.353339
-0.063028
0.053834
-0.347073
-0.481683
2.169978
0.002827
-0.118662
0.125599
0.488035
0.174280
-0.228695
0.918994
0.948985
-0.184780
-0.110420
0.014073
0.103648
-0.168938
0.544117
0.539186
1.345961
0.499568
-0.775578
-0.710786
-0.138520
1.306328
0.646773
0.254744
-0.319076
0.420580
0.279101
1.841197
-0.516786
0.329732
0.064468
0.495364
-0.318621
0.274575
0.219888
-0.016766
0.373852
0.262065
-0.222278
-0.468362
-0.142270
-0.326311
-0.070866
-0.135862
-0.164911
0.398096
-0.779753
-0.232086
-0.127745
-0.035593
-0.222441
0.019669
-0.258125
-0.436888
-0.499481
-0.023974
0.500172
0.802947
0.790557
-0.560897
-0.894991
0.520886
0.272423
0.871118
0.123650
0.901214
-1.250068
1.199168
0.166285
0.733617
-0.740432
0.191905
-0.116450
0.429441
0.169446
-0.788969
0.353392
0.090397
0.757990
0.495432
-0.332630
0.257072
0.073886
0.041627
-0.110231
0.330972
-0.014378
0.908742
0.850252
0.246586
0.448456
0.398921
-0.116061
-0.126313
0.093831
0.205840
0.240156
-0.999290
0.128007
-0.948236
0.758098
0.647358
0.809589
1.261585
-0.260619
0.076316
0.333062
0.001872
-0.423854
0.302992
0.081781
-0.343109
0.743804
-0.215186
-0.526371
