-0.539995
0.366759
0.854547
0.062291
2.198515
-0.137395
0.015990
0.759263
0.928901
0.952666
0.259753
-1.480146
-0.198765
-0.090700
-0.459011
0.039305
-0.589789
0.340930
-0.050325
0.018037
0.125977
-0.658735
-0.177923
-0.224014
-0.386486
-1.053963
-1.593042
0.276891
0.418452
-0.473545
0.132404
-0.809302
1.312984
-0.101233
-0.104706
-0.052297
0.103806
-0.923061
0.817866
0.443597
-0.439613
-0.360959
0.520179
1.476172
-0.205705
-0.092020
-0.068547
0.043932
0.286410
0.629376
0.101563
-0.617194
1.081489
0.934233
-0.214335
-0.913513
0.390047
-1.378960
-2.173559
-0.613392
-0.968272
0.916456
-0.855502
0.418533
0.002673
-0.043044
-0.955721
0.006069
-0.310862
-0.509451
0.162823
0.250866
0.200976
-0.173637
0.277474
-0.039402
0.884317
-0.456437
-0.399487
-0.189976
-0.736668
1.365511
-0.406401
0.860564
-0.710128
-0.045899
-0.125060
-0.207284
-0.530467
-0.828439
-0.264497
0.348898
-0.543797
-0.335276
-2.124565
0.139203
0.047640
0.315759
0.041178
-0.324270
0.549248
-0.304901
-0.003463
-0.531287
0.908042
0.007453
-0.492099
0.156514
-0.520103
-1.063066
-0.092530
-0.317818
0.456736
1.091507
0.009697
0.224268
1.556908
1.587642
-1.748262
0.756568
0.259586
0.683167
-0.265017
0.750150
1.362493
-0.547542
0.854100
-1.177760
0.226919
0.168659
-0.160889
0.202055
-0.922645
-0.288607
1.248532
0.472390
-0.237985
0.998265
1.867210
-0.050802
-0.578338
-0.198435
-0.432020
-0.095694
1.050381
1.276934
0.188141
1.414700
0.352880
0.679645
-0.073585
0.992755
-0.749841
-0.578859
-0.610980
-0.273740
-0.118342
0.638883
0.221064
0.283102
-0.240761
0.017626
0.002826
0.687946
-0.080417
0.645174
0.081157
-1.688354
-0.870259
-0.159483
-0.026416
0.972999
-0.017921
0.791013
1.361020
1.293296
-0.063766
0.468437
-0.444038
-0.365325
0.663242
-0.203602
0.791987
-0.249526
-0.547126
-0.065866
-0.538505
0.025002
-0.872053
-0.873277
-0.593660
-0.581924
-0.704857
0.135631
-0.105552
0.368962
0.116385
0.104744
-0.603819
-0.221432
-0.036504
0.527504
-0.911034
1.713923
0.381058
-0.230220
1.416338
-0.543873
-1.041582
1.454198
-0.147123
-0.383943
0.239434
2.083708
0.402647
0.889225
-0.551612
0.737617
0.329291
-0.474843
0.462672
1.547764
1.383010
-0.343243
0.475333
2.225782
0.077921
0.929290
-0.981887
0.099614
0.241628
0.054279
-0.158230
0.683061
-0.343624
-0.051456
-0.032244
0.143109
-0.421446
-0.873156
-0.199573
-0.044243
-0.430107
0.292676
1.788782
1.148257
-1.085055
-0.444614
-0.165823
1.198453
0.573988
0.008271
-1.098299
-0.403884
1.477743
0.395225
0.290310
-0.920476
-0.446586
-0.228172
0.064184
0.589667
-0.025163
0.168229
0.203974
0.098217
-0.877643
0.166613
1.107237
-0.875608
0.553693
-0.407528
0.063630
-0.079099
-0.040579
0.115569
-0.321934
0.322600
1.526382
-0.708819
-0.102017
-0.212421
1.280635
-0.090986
0.040930
-0.965193
0.886669
0.003363
2.119091
0.395404
0.150163
-0.628043
0.081591
-0.440119
1.348557
-0.221325
-1.232806
-0.530449
0.161521
-0.047562
-0.589747
-0.060396
0.563547
0.893222
-0.531469
0.417906
-0.281285
-0.592488
0.177523
0.557122
-1.475496
0.066999
0.928728
1.763340
0.543430
-0.484648
-0.235470
1.487138
1.225732
0.268312
-0.470546
-0.155228
-0.522917
-0.948862
0.283626
0.421480
0.018517
-0.406817
-0.410480
0.056783
1.362581
0.199098
0.705889
0.272224
0.106731
-0.131119
-0.318597
-0.256389
0.586977
-0.419431
0.013722
-0.049869
0.142329
0.291859
-0.592246
-0.589427
-0.291908
0.789248
-0.976294
0.249570
0.340578
-0.358659
-0.908635
-1.005578
-0.245213
-0.312892
-0.941472
-1.078696
-0.163523
-0.221403
-0.085110
0.022549
-0.480030
-0.705642
-1.122733
-0.317633
-0.171428
-0.225766
-0.706487
-0.040130
0.668595
0.020112
-0.299921
-1.400312
0.092619
0.611096
-0.649775
-0.785104
-0.867469
0.471712
0.210475
-0.116630
-0.174917
0.780103
-0.601895
0.121987
0.064916
-0.174557
-0.762985
-0.222094
1.637473
-0.309836
2.357624
-1.485271
0.705600
0.942173
0.949748
0.745527
-0.296738
-0.784137
-0.682798
-0.601674
0.110397
-0.701266
-0.673885
-0.234896
0.619904
0.709443
-0.607484
-0.465321
0.539042
-0.397007
-1.151929
0.684831
0.019380
0.225497
-0.242196
-1.097574
0.019093
-0.068465
0.218984
-0.118999
0.226061
-0.538324
0.520733
-1.318315
1.305080
-0.466921
-0.093504
-0.524871
-1.503343
-1.505681
2.178277
1.043544
-0.034857
-0.359921
0.255410
-0.379950
-0.238730
0.981352
-0.217383
-0.330137
-0.095276
-0.111079
-0.434911
-0.060765
-0.310192
-0.362375
0.380614
-0.458640
0.937034
-0.688870
0.778117
-0.810991
-0.690916
-0.478885
0.307391
-0.758969
-0.576467
0.145948
0.313990
-0.578477
0.184196
-0.423269
-0.555249
0.579121
0.753241
1.006746
-0.149528
-0.601324
0.196413
-0.293462
0.749662
-0.085710
0.289124
-0.646233
0.115671
-2.195499
-0.102388
0.265721
-0.211958
-0.655091
-0.365009
-0.757164
0.407612
0.622254
0.331807
1.179940
-0.015213
0.206493
0.458096
-0.028498
-0.049601
0.345770
-0.769905
-0.977294
-1.212959
0.001201
-0.638839
1.753541
