-0.479277
0.511639
0.125640
0.682419
0.799050
0.357426
-0.211833
-0.726253
-2.229121
1.946470
-1.357558
4.089972
-0.225698
-1.388365
1.227980
0.927091
-0.022132
0.354803
0.115131
0.365663
-0.277542
0.716945
1.115152
0.028322
0.052879
1.758748
-0.522788
0.362814
-0.754923
-1.094550
0.402336
1.174046
0.382630
0.392198
0.495424
0.796736
0.140510
0.612829
-1.139006
-0.339530
-0.856000
1.573507
-2.355673
-2.317338
0.454793
-0.288670
2.727927
0.055787
-0.201620
-1.758426
-0.341401
-0.806622
-0.981867
-1.300368
0.003469
-0.748952
-0.101228
-0.993982
-0.293627
-0.268648
-1.283363
0.368076
-0.092225
1.774510
-0.490059
-1.361711
1.502694
-0.715862
-1.744848
1.522472
-0.839119
0.766787
0.533243
0.105235
-0.289668
0.421139
0.437300
1.074609
1.454729
-0.315857
0.549919
-0.515008
-0.805449
-0.138827
0.453658
-0.388832
-0.306886
-1.061026
0.044769
0.083368
-0.059611
0.351703
-0.409915
-3.847223
0.454375
-0.164219
-0.004661
-0.293658
0.151983
0.402586
0.238326
0.764997
-0.678991
-0.086180
0.096368
-0.348616
0.293449
-0.238251
-0.404326
-1.922376
0.223117
-0.144766
0.749011
1.196850
-1.215450
1.383368
-0.392858
0.339733
-0.302259
-0.325055
-0.097873
-0.421021
0.645949
-0.457618
0.441101
-0.638519
0.358816
3.477659
-0.102501
0.637618
0.023386
-0.481428
-0.306625
0.436623
0.627667
-3.888939
1.519887
-0.289134
1.645811
0.207073
0.990435
-0.100875
-0.546392
1.538056
1.103211
-0.096096
0.061334
-1.173047
0.105139
-1.263058
0.154343
-0.130786
-0.542244
1.961034
-1.139510
0.498259
-1.305402
-1.464485
-0.250345
-0.827443
0.687705
0.611224
0.118428
2.309627
1.263391
-0.731455
0.073901
3.347320
-2.783587
-1.334702
0.260668
0.001742
-1.511191
-0.183439
-0.774378
-0.293288
-0.652176
0.512819
-0.092620
1.817512
0.627558
0.476678
0.150606
-0.158008
0.692413
0.029584
0.471581
-1.203884
1.154182
0.982321
-0.381944
0.104730
-0.169162
-0.092273
-0.152470
-0.384445
-1.062844
0.482321
-0.747545
-0.386762
-0.109474
-0.293233
-0.018037
-0.875718
-2.369182
0.392053
0.985950
-1.729562
2.946957
-0.257006
-0.352819
-0.615512
-0.038440
-2.197771
0.173350
-0.571051
0.231204
0.869783
0.524758
-0.292663
0.282004
-0.238495
-1.561395
-0.553285
1.034810
0.768835
0.060377
-2.137654
-0.519770
0.745178
0.375615
-0.019781
-0.107335
1.233038
-0.011138
-0.794176
0.001722
-0.742661
0.015157
-0.163454
0.609902
0.360481
1.716321
-0.231870
-1.572967
0.030090
1.791658
1.090648
0.302747
-1.987692
-1.094947
1.717013
-0.300038
-0.267720
0.599789
-0.536106
0.186149
-1.788943
-0.191861
0.547694
-1.079307
0.685676
-0.293668
-0.915315
-0.920181
-0.012206
-0.348835
1.264518
0.350765
1.489044
-0.138560
0.180618
-0.074972
0.677914
0.490793
-0.497439
0.145070
-0.743824
-0.743408
2.022620
-0.129141
0.651212
-0.802800
-0.859999
-0.735021
-0.434535
-0.415899
-1.706277
0.344862
-1.616342
0.184231
0.648177
-0.910517
0.713713
0.392456
0.490930
-0.417920
0.110916
-0.267465
-0.786597
-0.302604
-0.457667
-0.847620
-0.212795
-0.083075
-0.020917
0.906566
0.563085
-0.907239
0.199889
2.705281
0.765002
-0.241338
0.635189
-2.648406
0.317147
-0.122447
0.283354
-0.018302
0.103227
0.097642
-0.384597
-0.733852
1.752615
-0.282188
1.923070
0.121157
1.697480
-0.567010
0.655009
-0.308810
0.360051
-0.051210
0.968642
0.235367
-0.891293
0.830844
2.668403
-0.993115
-0.240881
0.009709
-0.369793
-0.095974
0.010861
0.942195
0.402827
1.054780
-0.513722
0.623840
-0.294631
-1.068693
0.321568
-0.653214
-0.122141
0.398648
-0.383952
-1.667767
-0.499957
-0.144007
0.282411
0.167355
0.668071
0.737387
0.829599
0.959152
-0.427565
-0.814833
0.191999
-0.060653
-1.592892
0.589626
0.731097
0.087145
-0.271259
0.292183
0.235875
-1.114976
-0.663414
-0.060300
-1.178011
0.564174
-0.027643
0.106643
0.225206
1.386692
0.713156
1.662596
-1.385292
-1.172656
-0.057489
0.838494
-0.303891
0.242725
0.298646
0.383680
1.945344
0.472268
-1.021981
-0.180657
0.381799
0.742660
-1.341284
0.711534
0.665591
1.569449
0.603399
-1.547168
0.272360
-0.491540
-1.806669
0.907368
-0.203196
-0.358963
0.916894
-1.259774
1.107939
-1.209306
-0.835741
-0.112655
-0.644634
0.250907
-1.370464
-0.426483
-0.532842
-1.453262
-1.653340
-1.986663
0.357426
0.536123
0.259030
1.230682
1.619933
-0.406623
0.413291
-0.061839
0.932944
-0.040165
-0.084972
0.622404
1.465031
0.253676
-0.779323
2.206059
-1.105683
-0.526661
0.326292
0.917057
0.283357
-0.519071
-0.868490
1.613955
-0.069930
-1.984406
-0.416089
1.693057
-1.091427
0.565588
1.251342
0.299976
0.180656
-0.171672
-1.400721
0.239469
2.798387
-0.524146
0.383086
-0.217858
0.349090
-0.503587
0.051369
-0.198606
-0.615490
-0.014034
1.027558
1.535871
-0.210205
-0.730150
2.257456
1.945842
1.150293
0.410048
-0.693532
2.684151
0.316663
2.016034
-1.177701
-0.642847
0.228900
-0.748302
-1.141419
-0.151048
0.190297
-0.348745
-0.518367
0.881558
-1.691335
3.179746
-0.004925
1.557181
-0.342537
