-0.093642
0.183214
0.220643
-0.171931
0.028749
-0.552321
0.408964
-0.355595
0.097948
0.636013
0.084622
0.096812
-0.288583
0.645603
0.868656
0.113111
-0.025630
0.026292
0.194303
0.467418
0.248837
0.239134
0.555509
-0.415196
0.029374
0.378252
-1.421169
0.475956
-0.298830
0.566520
0.366427
-0.068456
-0.107538
-0.305328
-0.205273
0.236754
-0.164039
-0.733421
0.978913
-0.052590
-0.939283
1.036517
-0.394160
-1.139340
-0.101244
-0.194152
0.388402
-0.133807
-0.312146
-0.675303
-0.872850
-0.500456
0.844276
-0.449871
-0.386240
-0.105670
0.124224
-0.078137
0.247840
0.363038
-1.564053
0.966260
-0.148494
1.477604
0.790002
-1.450820
0.300284
0.091867
-0.479058
-0.300694
0.120510
-0.554551
0.191353
0.179521
-0.220768
-0.066662
0.007557
-1.104289
-0.668611
-0.525149
-1.607316
-0.034153
0.016363
-0.775587
-0.439658
-0.668805
-0.048005
-1.003959
0.471273
1.044687
0.095955
1.528700
0.977560
-1.356241
-1.285986
0.095139
-0.134835
0.490480
-0.494916
0.025505
-0.149691
-0.275379
-0.986956
-1.657266
0.885120
-0.192283
-0.282974
0.049110
-0.062602
-1.087613
0.062623
0.145665
-1.381589
0.842709
-0.386438
-0.015648
-0.016494
0.091502
0.131055
0.110866
-0.329728
-0.148907
-0.173282
-0.279900
-0.047571
0.425530
0.190801
-0.905029
0.502442
1.454893
0.054272
0.554699
-0.784958
0.184431
1.192299
-0.692787
-0.224676
-0.074136
2.112054
0.030641
-0.071669
-0.239590
0.145538
1.163513
0.046451
-0.170234
0.023418
-0.717375
0.584647
-0.492411
0.209110
-0.913930
0.063947
-0.161797
-0.059126
-0.441829
-0.262574
-0.398903
-0.312706
0.301759
0.749932
0.185126
-0.349281
0.612775
0.104585
2.867323
-0.361830
1.753888
-0.212961
-0.080736
-0.054683
-0.185740
-0.996538
0.557572
1.102091
-0.074569
-0.310083
2.227594
0.425444
-0.517901
0.701843
-0.127167
-0.127038
-0.041569
-0.485510
0.031069
0.865797
0.339958
0.386796
0.418650
0.270900
-0.405266
-0.085280
0.065036
-0.062955
-0.735294
0.279127
-0.032194
0.445264
-0.355578
0.240498
-0.505544
0.027321
-0.224654
-0.243131
0.397591
1.462669
-0.328089
2.273952
-0.494756
-0.378548
-0.404841
0.736467
-0.274482
-0.134405
0.394483
-0.385279
-0.082413
0.272507
0.605038
0.356982
0.038283
0.235822
0.906650
0.494024
0.687196
-0.164290
1.591752
-0.010225
-0.039649
2.024242
-0.149500
-0.183303
0.409535
-0.379855
-0.335430
0.146269
0.106624
0.311362
1.297240
0.149771
0.501686
0.971653
1.093053
-1.916654
-0.479583
-0.068321
0.219363
1.360080
-0.866466
-0.533079
1.821092
0.626501
-0.177148
0.389212
-0.492396
-0.230698
-0.697543
-0.223938
-0.792658
-1.477518
0.541368
-0.041725
-0.195344
-0.062343
-0.144064
-0.046146
0.708537
0.513264
0.986468
-0.391434
-0.092441
-0.017655
-0.249748
0.213729
0.005113
-0.483628
0.419033
1.040496
0.731271
0.026193
-0.155686
1.385247
-0.390350
-1.194381
-0.186782
0.244435
-0.564429
0.972806
0.654320
0.211539
0.267822
0.731778
0.006318
0.510592
-0.136304
0.063742
-0.327821
0.770054
-0.553900
-0.253361
0.078090
0.135082
-0.005521
-0.244860
-0.003890
0.616655
-0.603117
0.288455
0.646363
0.853326
-0.293968
-0.082799
-0.327669
-1.901232
0.334979
-0.167833
-0.373431
-0.212030
-0.222657
0.558553
-0.338284
1.501281
0.099774
0.353876
0.920167
0.197010
1.467842
-0.383580
0.390709
-0.669642
-0.111735
0.786788
-0.213013
0.143738
0.293899
0.288961
1.496244
-1.227847
0.052217
-0.171566
-0.122048
0.105812
-0.242480
-0.526477
-0.038601
0.192938
-0.252701
-0.470716
0.665912
-0.492263
0.983317
0.615413
-0.372444
-0.169392
-0.077116
-1.738134
1.124669
-0.278293
0.107569
0.295267
-0.083946
-0.143752
-0.094720
0.274087
0.325351
0.115333
0.038624
-1.082705
-0.281238
-0.711440
0.174225
-0.305675
0.989895
-0.012719
-0.534031
-0.672411
0.961274
1.463527
0.271527
0.359543
-0.386888
0.048754
-0.349086
0.130874
1.397926
1.091257
-0.244396
0.124616
-0.168424
0.019673
-0.218357
0.446239
-0.385850
0.762165
0.898244
-0.348931
-0.111526
-0.560953
-0.357111
0.118767
0.784813
0.373654
0.568876
-0.036194
-0.286735
-0.161138
0.618217
0.406354
0.298699
0.298544
-0.607098
-0.258178
0.460660
0.434583
0.547896
-0.231449
-1.499965
-0.389030
-0.104995
0.486704
-0.183358
-0.514889
-0.081695
0.205578
-0.208581
0.187020
-0.134923
0.464030
-0.179824
-0.446290
1.692107
1.067952
0.756252
-0.026668
0.237243
-0.582656
-0.089010
0.112826
-0.830995
-0.092716
-1.019376
0.818743
0.403694
-0.073852
0.647711
-0.982296
-0.210792
-0.807644
-0.915603
2.779408
0.874315
1.207143
-0.207688
0.533672
-0.409131
-0.057656
-0.237869
0.083812
0.148962
-0.133047
-0.156072
0.250796
0.791652
0.208206
1.109234
0.175370
-0.027852
0.005585
0.932700
0.229907
-0.397490
-0.257297
0.464604
-0.622792
0.471803
-0.225205
0.389043
-0.859385
1.272388
-0.183404
-0.569689
0.364958
1.217928
0.957349
-0.477855
-0.553964
-0.077663
-0.011225
0.140659
0.693796
-1.323898
-0.335568
0.476571
-0.666252
0.627196
-0.096491
0.341909
0.825664
0.694569
