-0.038581
-0.070753
0.374643
-0.210029
0.322562
0.252097
-0.176694
0.534992
0.742904
-0.045641
-0.086132
-1.760523
0.116415
-0.233389
-0.194443
-0.058982
-0.147399
0.884871
0.470260
0.117419
0.397378
-0.745328
-0.119436
-0.420542
0.059955
-1.913719
-2.365996
-0.050318
0.847423
0.110281
0.482806
-0.228092
1.131200
0.006338
0.008477
1.002441
0.486495
-0.583465
1.514079
0.467313
-0.454790
-0.190895
1.179729
2.143054
-1.149458
0.221536
-0.184601
0.173814
0.660779
1.014182
0.784543
0.271587
1.913947
0.194498
-0.031300
-0.131189
-0.818693
-0.824884
-2.274241
-0.248577
-1.311136
-0.183068
-0.746477
-0.268232
-0.077125
-0.455526
-0.980617
0.007703
-0.465702
0.386245
0.500244
0.443306
0.329641
-0.243408
0.387323
1.042335
1.485679
0.251912
-0.447919
-0.085319
-0.483702
1.142941
-0.334679
1.594385
0.492510
0.293375
-0.198242
0.721842
-0.421422
-0.985102
-0.112958
-0.355719
-0.589536
0.899866
-1.049884
-0.107404
-0.197927
0.030412
0.188787
-0.293999
0.365468
-0.138131
0.472301
-0.169590
0.245395
-0.222947
-0.078144
-0.136305
-0.288027
-0.314299
0.082863
-0.478432
0.575807
0.297487
0.502809
-0.506165
0.128180
2.375618
0.161618
-0.034123
0.037242
0.595497
0.415424
0.024792
0.001472
0.034488
-0.152830
-1.255391
0.396467
-0.442565
-0.186794
1.144885
-1.601645
0.249254
1.115373
0.193162
0.063197
0.168225
1.665160
-0.264414
-1.034539
-0.195133
0.585876
-0.907305
0.439942
0.259086
0.467665
1.573162
0.398425
2.076567
0.121462
0.900821
-0.776975
-0.273574
0.100339
0.069678
0.081413
0.966960
0.839501
-0.023062
-1.176078
-0.309509
0.645537
0.688107
0.035386
-1.189272
1.432449
-1.564651
0.532840
0.158193
0.475244
0.069447
0.659761
0.133654
-0.373679
1.065454
-0.412811
-0.872127
0.305210
-0.333073
0.529563
-0.855241
1.492616
-0.213013
0.873701
0.139811
-0.727425
-0.434055
0.517061
-0.116008
-0.336693
0.205000
0.211253
-0.247353
-0.057912
0.592415
-0.075828
0.329026
0.694148
-0.205121
0.107194
-0.389127
-0.309776
-0.247031
2.024006
-0.746373
-0.712065
-0.235689
-1.044085
1.414747
-0.022564
-0.225546
0.413034
1.438573
0.459500
-0.124630
-0.245444
0.475254
-0.578823
-0.026665
1.751946
1.905657
0.444644
-0.553410
-0.872989
0.631826
-0.313726
1.023440
-0.236647
0.419608
1.007951
1.020045
-0.212994
0.422417
0.062857
-0.116971
1.089647
0.184113
-0.053313
-1.363901
-1.304507
-1.561472
-0.798578
-0.893685
1.380565
0.326836
-0.149087
-0.374341
0.685034
1.173383
-0.286542
0.577711
0.051728
-0.237235
1.376768
0.172577
-0.050222
-1.408733
-0.915074
0.293988
1.954118
0.664363
0.032528
-0.545800
-0.590865
0.080957
0.545171
0.048694
0.675836
0.624668
-0.688315
0.143663
-0.115440
-0.205356
-0.704055
-0.286043
-0.413111
-0.807395
1.591498
-0.692211
0.327347
-0.116565
1.124038
0.281279
1.854859
-1.070647
0.291268
-0.077244
2.271262
-0.349325
-0.314116
-0.383768
-0.707135
-0.061970
-0.396134
-0.261574
-0.449821
-0.624497
-0.329646
0.257279
0.827093
-0.357121
0.700871
0.576104
-0.087562
0.100661
-0.019149
0.124131
-0.017865
0.246591
-1.051620
-0.029001
0.164804
0.294307
1.641348
-0.768431
0.357249
1.418550
0.587169
0.305745
-0.623038
-0.207166
-0.715031
-0.310114
0.269661
-1.041873
0.152492
-0.867246
0.981969
-0.578339
0.806261
0.327116
0.905896
0.468641
0.664732
0.360446
-0.432045
-2.016519
0.499987
-0.442000
0.015457
-0.066679
-0.113251
0.449041
-0.652769
0.221576
-0.611511
0.522469
0.592547
0.372811
-0.208599
-0.631764
-1.221930
0.610599
-0.251887
0.313248
-0.622256
-1.275598
-0.317982
-0.639654
0.143518
0.590832
-0.905556
0.284129
0.031125
0.044392
-0.226622
0.024855
0.677193
0.532031
0.976508
0.316669
-0.574107
-1.285256
0.458377
0.379265
-0.840933
-0.519373
-1.388584
1.444869
0.862599
-0.321319
-0.047648
0.260307
-0.372777
0.624070
-0.088117
0.274137
0.066066
0.427687
0.667049
-0.357141
1.222348
0.517732
-0.321830
0.498155
-0.634541
0.956119
-0.278953
0.777827
-0.279084
-1.571657
0.317267
-1.368919
-1.063239
-0.036233
1.857440
0.826150
-0.405285
-1.741562
0.703511
0.172229
-0.613968
-0.164439
-0.082974
0.205390
0.052168
-1.264502
-0.432666
0.424848
-0.164784
-0.015508
0.410346
-0.400902
0.000159
0.538645
-0.187554
0.004245
0.142736
-0.752859
0.392673
-2.758574
-0.197061
0.191577
-0.225514
-0.867325
0.155337
0.246161
-0.620916
0.897622
-0.619265
0.669398
0.196177
0.367153
-0.299043
-0.517818
-0.234841
-0.252684
1.299695
-0.783051
-1.068859
-0.177491
0.669857
-0.058311
0.411436
0.242724
0.696622
-0.600352
-0.202452
-0.374427
0.055914
-0.139386
-0.456818
-0.596643
0.167592
0.596004
0.738913
0.549527
-0.407215
-0.833204
0.170273
-0.322314
0.868924
1.010859
0.460821
0.524103
0.357719
-1.374284
-0.430541
-0.269624
0.035178
-0.516598
-0.986524
0.088577
0.171556
0.622784
-0.630890
0.817478
-0.342035
0.753256
-0.249643
-0.182106
0.090509
-0.264705
0.422140
-0.938683
0.117898
0.144955
-0.913923
0.151312
