0.568055
1.336946
-0.640445
0.052089
0.465181
0.015909
-0.202031
0.589051
-1.139642
0.088263
1.428837
0.714443
0.119709
-0.033849
0.635046
0.192658
1.725076
0.496691
0.449856
0.226679
0.009679
-0.704021
0.845697
0.201458
-0.207268
-0.292536
0.128791
-0.380775
0.213637
0.488100
1.161143
-0.728046
0.609784
-0.343880
-0.710552
0.491434
0.249826
-0.386380
1.046683
0.456460
-0.694569
1.008293
-0.115067
-0.539498
0.715564
0.051900
-0.923116
0.780442
-0.166131
-1.401567
0.321750
0.200902
0.838291
-0.628379
-0.115637
0.754689
-0.239557
-0.711202
-0.496511
0.648958
-0.781194
3.115415
-0.664224
2.038245
-0.231292
0.146200
0.453307
0.775369
-0.173271
-0.491358
-0.446487
-0.470627
0.115034
-0.151502
-0.137928
1.455010
0.582033
-0.412889
-0.244261
0.464217
-0.777393
0.304080
0.447725
0.415362
0.585227
-0.465243
-0.023950
-1.817917
1.899208
-0.229676
-0.303260
1.575686
1.074413
-2.202015
-0.353216
0.409882
-0.481496
0.183556
-0.651589
-0.327556
0.592223
-0.763135
1.378873
-0.162123
0.048943
0.279006
-0.000855
-0.872810
0.189648
-1.911575
-0.229646
1.330961
-1.037350
1.069382
0.407417
-0.635760
0.852403
0.296711
2.111862
-0.136810
-0.337598
-1.733901
0.162189
0.514368
0.996541
0.185818
-0.303316
-0.796388
0.229339
-0.188092
0.502754
0.548781
-0.282353
-0.816411
0.128431
0.104485
-0.813566
-1.303094
2.245961
-0.197365
-0.070026
-0.136476
-0.410481
0.350940
-0.131565
-0.533091
-0.553258
1.186771
0.741282
-2.009830
0.187622
-0.437746
-0.227483
1.917028
-0.621406
0.073340
-2.502157
-0.308388
0.609225
-0.130912
0.452704
0.248883
-0.036313
-0.854583
-0.713888
1.923446
-0.447533
0.993307
-0.259104
-0.162281
0.378749
-0.037573
-1.365705
0.712531
2.097986
0.119858
0.346148
2.297052
0.165995
1.191954
0.411381
0.209924
-0.032128
-0.134287
-0.220222
-1.020857
0.384552
0.451051
0.204649
0.451690
0.120913
-0.054251
-0.343680
-0.626260
-0.013860
0.328447
-0.033789
0.411481
-0.193672
-0.246813
0.702693
-1.066918
-0.302610
0.286790
0.278125
-0.556051
0.762096
-1.669167
0.091291
1.011867
0.022929
-0.407756
0.079366
-0.786759
-0.230107
-0.126335
0.737431
-0.299818
0.776266
-0.298236
-0.104090
-0.225915
-0.535478
1.522474
0.290260
1.115671
0.945842
0.559970
0.317358
0.025011
0.519272
-1.052976
-0.030816
-0.686224
0.021262
0.506722
-1.547750
-0.047340
1.771529
0.877193
-0.473519
0.189109
-0.650117
0.046981
-2.706600
0.150929
-1.048292
0.219791
0.785105
-0.902384
-0.898061
0.735147
-0.143369
-0.410587
0.592429
-0.580141
-0.088248
-0.388565
-0.625431
-0.307735
-0.176218
0.103897
-0.470200
0.968213
0.422647
-0.757566
0.848721
0.568474
0.856496
1.041417
-0.579443
-0.445941
0.533606
-0.422611
-0.231523
0.351199
-0.290465
0.441471
0.490585
0.234408
0.582613
-0.770980
0.334525
-0.437824
0.110137
-0.022301
-0.119071
-1.266646
1.755379
0.178506
0.713485
0.319947
0.258939
0.364723
0.478717
-0.293408
-0.792775
-0.261052
0.464042
-0.010426
-0.374267
0.175269
-0.938038
0.812300
0.549903
-0.094037
0.361527
-0.076072
-0.508560
0.891818
0.261234
-0.378222
0.908547
-0.303048
-1.971477
-0.250305
0.599613
1.024396
0.878267
0.413419
0.232863
-0.306448
0.052691
-0.254894
0.296543
-0.034772
0.652529
0.067451
0.284139
-0.139941
-0.891389
-0.133227
0.309841
-0.254685
-0.432206
-0.345153
0.818052
-0.427783
-0.862626
-0.121817
-0.410644
-0.241058
0.081000
-0.445882
-0.124578
-0.358999
0.132378
1.456119
-0.489873
0.674491
1.657945
-1.117359
0.353309
-0.881720
-0.334896
-0.371077
0.169994
0.929979
-0.347203
0.377826
0.252242
1.117737
-0.660543
-0.715538
-0.743078
0.413308
1.594994
0.408785
-0.412483
0.592996
-1.599404
0.348830
-0.230668
1.286298
-0.005647
0.068855
-1.680486
-0.281000
0.065649
-1.104061
1.294587
0.031518
-0.303142
-2.174921
0.187065
0.850154
0.391206
-1.273770
-0.731518
-0.105170
0.634904
-0.435566
1.066001
-1.316839
0.134158
0.335398
-0.107274
-0.732682
-0.467439
-0.900734
0.568855
2.923924
0.483520
-0.137732
0.318601
-1.217040
-0.207516
0.127179
0.385583
0.171450
1.888896
0.200382
-0.367452
-0.141847
1.609072
0.202825
1.032604
-0.553661
0.231247
1.056286
-0.050539
-1.145712
-1.861721
0.456389
-0.240000
-1.543688
0.789140
-0.234861
0.084601
-0.339743
0.830756
1.009899
1.070292
0.562909
-0.427506
-1.102569
0.174931
-0.048698
0.069327
-2.787619
0.313922
0.373594
0.904000
-1.528987
-0.847226
-0.295067
-0.013930
-0.566940
0.251818
0.336341
-0.451367
1.736002
-1.033272
-0.864781
0.609088
0.000041
-0.171683
-0.363727
0.643014
-0.427677
-1.336655
1.382224
0.297119
0.193517
-0.305421
-0.245871
1.558324
1.971783
-0.405337
0.590232
-0.239507
-0.495180
0.154785
1.608577
-0.695612
0.697896
-1.288205
1.199159
0.394349
-0.520308
0.549591
0.377451
-1.203055
-0.195621
-0.311086
0.497636
-0.760230
0.303435
0.890845
-0.858468
1.340832
-0.257084
-0.246589
0.151562
-1.329089
-0.317073
0.332603
-0.282503
0.116274
0.044676
