-0.181030
0.600330
0.205072
-0.375042
0.595186
0.331523
0.195303
-0.409783
0.259992
-0.693907
-0.240673
-0.289494
-0.121606
0.226250
0.557481
-0.797871
0.263253
0.016977
-0.285290
-0.355906
0.283148
-0.170486
0.427747
-0.268604
0.138425
-0.873644
-1.905990
-0.158725
0.313454
-0.502182
0.240545
0.263551
0.583527
-0.209333
0.013005
-0.791854
-0.403251
-0.907089
0.844119
-0.137288
-0.833935
0.830229
-0.541131
-1.024252
-0.460379
-0.130750
0.795654
0.421589
0.147608
-0.595738
0.257143
-1.095692
1.080937
-0.427684
-0.345024
-0.565432
0.521236
-0.902671
-1.624361
-0.263750
-1.761105
0.280982
-0.149143
0.511446
0.911178
-1.108080
-0.565764
0.007667
-1.219201
0.209794
0.566232
0.343805
0.267140
0.122981
-0.340152
0.162257
0.097306
-0.229448
-0.427031
-0.196152
-0.735651
-0.101504
0.451218
-0.555346
-0.249301
0.226875
0.230817
0.253668
-0.111951
0.578102
-0.072668
0.296299
0.474075
-0.290671
-1.118906
0.176222
-0.244134
-0.128580
0.017334
0.277482
-0.323965
-0.098908
0.309119
-1.161420
0.664252
0.194252
0.037858
0.386001
-0.493298
-0.602277
0.076041
0.061039
-0.217093
0.777270
0.608078
0.451738
0.008615
0.317200
-0.662347
0.217190
-0.132036
1.113938
0.361643
0.598023
0.156237
0.582891
0.294098
-1.037736
0.486651
0.406991
0.011982
0.639609
-1.106590
-0.422028
1.434073
-1.107488
1.297117
0.054580
1.831438
-0.077173
-0.181066
-0.342707
0.851649
0.077509
0.526995
0.379716
0.191976
-0.570262
0.250015
0.828815
-0.247377
-0.465455
-0.775348
-0.567131
-0.268899
-0.204377
-0.658856
0.026234
-0.203463
-0.608594
-0.131927
-0.332169
0.228738
1.593784
0.610746
0.981858
-0.438685
0.097900
1.725263
0.286417
0.007040
0.018333
-0.788689
0.203486
0.191936
0.654792
-0.451332
0.318624
-0.076519
-0.448604
1.049163
-0.042708
-0.337831
-0.065995
-0.396407
0.199447
-0.020246
-0.573824
0.693376
0.281889
-0.932147
-0.325827
-0.235133
0.377649
-0.203808
-0.723070
0.021771
0.638555
0.350619
-0.302007
0.052459
-0.016553
0.534160
0.825762
-0.304346
0.158199
0.596860
-0.635633
2.132346
-0.673950
-0.318093
-0.399346
0.329454
0.255225
0.249410
-0.171911
-0.308133
-0.067180
-0.525410
0.359300
1.971907
0.684591
0.304580
-0.287608
0.025564
0.470068
-0.116742
0.753890
-0.553518
0.185404
0.986422
0.250853
-0.215258
1.218316
-0.364512
0.534727
-0.783278
0.009105
0.255580
0.467839
0.196712
-0.696604
0.062491
0.146535
0.139266
-0.109719
0.001661
0.172587
1.127791
-0.053880
-0.406919
0.445512
0.206903
-0.042889
0.177246
-0.698941
0.261399
-1.490169
-0.114327
0.005581
-0.639987
0.251127
0.818301
-0.299011
-0.011489
0.010052
-0.605836
1.199058
0.043078
0.732516
0.727759
-0.038569
0.051014
0.192375
0.002636
-0.243911
-0.504129
-0.381487
1.747238
0.450229
0.092182
0.159594
2.009880
0.307230
-0.273200
-0.871797
0.564883
-0.382497
0.797083
-0.382496
-0.098472
-0.009124
0.083875
-0.182774
0.441912
0.092313
0.093612
-0.269659
0.638091
-0.415928
0.277894
-0.105677
0.863002
0.388113
-0.236486
-0.048791
0.373131
0.046668
0.663099
0.061339
-0.210821
0.011933
0.244444
0.605861
-0.447576
-0.341329
-0.009615
-0.240157
0.702725
0.099118
0.046755
-0.407369
-0.428876
0.032107
0.773244
-0.039296
0.097372
1.166890
-0.490915
0.195245
0.018560
-0.279856
0.607596
0.574738
0.035300
-0.244882
-0.485262
1.187636
-0.168081
-0.115625
0.102413
-0.226612
0.108732
-0.023960
-0.463589
0.079693
-0.230343
-0.545666
-0.070807
1.088959
-0.559997
0.778403
-0.626081
-0.451044
-0.151853
-0.342549
-2.307012
-0.554795
-0.347730
0.057374
0.821960
0.436457
-0.110324
0.794486
0.535728
-0.234340
-0.638252
0.099713
0.442196
-0.649619
0.434717
-0.468485
-0.315256
-0.678136
0.255709
-0.423678
0.585041
-0.135521
-0.232070
0.381392
0.631485
-0.202962
-0.083166
0.020674
0.356366
0.489810
1.539702
0.363151
-0.887380
0.507076
0.082398
-0.235767
0.815810
-0.245357
0.505945
1.352866
-0.383124
0.443334
-0.486810
0.220045
-0.197460
-1.198284
-0.025942
0.049623
-0.483683
-0.010941
0.923065
0.454193
-0.587643
-1.068799
0.714804
0.131688
-0.986989
0.070993
-0.288552
0.188367
-0.563805
-1.968140
-0.206234
-0.486861
0.712175
-0.221810
0.209507
0.374498
-0.235899
-1.025517
-0.516994
0.035374
-0.602354
-0.885207
-0.417381
-0.159491
-0.999088
0.387850
-0.269532
0.029909
-0.090046
0.447299
-0.170502
0.656534
-0.171210
-0.875247
-0.044359
-0.264270
0.598090
0.305353
-0.666683
-0.138975
-0.823796
-1.049277
1.257313
0.231347
0.966033
-0.376810
1.265009
0.582471
0.266987
-0.149926
-0.411247
0.173792
0.917982
-0.467187
0.669551
0.252193
1.258527
2.101505
0.114689
0.017643
-0.016060
-0.150871
0.153060
-0.215563
-0.131124
0.884705
0.428138
0.591903
0.105635
-0.515666
-1.166554
0.745489
-0.342432
-0.917627
0.663790
1.043699
0.899626
-0.848633
-1.033831
-0.089052
-1.357698
0.711861
0.072902
-0.689281
-0.011057
-0.101311
0.123969
-0.866643
-0.344397
0.232971
0.747979
0.142516
