-0.100271
1.445324
-0.107330
1.258237
0.675014
-0.091035
-0.870833
-0.411316
-0.544259
-0.176818
0.379059
2.125142
-0.056612
0.540554
-0.863227
0.831150
0.664349
0.492165
-0.176760
-0.482388
-0.446754
-0.283833
0.569629
-0.204459
0.069812
0.997798
0.432299
-0.085638
-2.806790
0.256041
0.222607
1.382476
0.264495
-0.306774
0.235875
0.775744
0.006092
-0.159138
-1.892169
0.004847
0.366802
1.857065
-0.939677
-0.900862
0.272883
-0.100592
-0.673582
-0.636805
-0.247551
-0.711626
-1.684869
-0.312652
-2.355456
-0.765029
0.252748
0.136403
-0.908242
-0.893464
-0.467010
-0.560453
-0.663384
1.433310
0.221513
-0.045654
-1.003452
-0.102952
-0.218148
-0.552423
0.074964
-0.117233
0.102850
0.460396
-0.485773
-0.249529
0.521667
0.761259
-0.087493
-1.027007
0.322129
0.429332
0.594318
-0.067225
-0.738464
-0.400716
0.271120
-0.043863
-0.587839
1.999569
0.654477
1.741252
-0.293969
-0.482823
-0.540913
-2.023462
-0.125836
-0.878151
-0.209754
-0.265379
-0.088226
0.555346
-0.865196
-0.006266
0.544281
0.957201
0.006077
0.521881
0.361758
-0.473260
-0.274608
-0.347158
0.216361
1.094545
-0.242654
-2.305606
0.364631
-0.086524
0.192779
0.991094
0.947710
0.474939
-0.146131
-0.317192
0.200531
-1.670320
0.422723
-0.127258
0.029715
3.419799
0.592061
-0.177510
0.284983
-0.361079
-0.242356
-0.228110
-0.417941
-1.206018
0.292883
-0.104594
1.043056
1.046591
1.186045
-0.211005
-0.806706
-0.048784
0.440009
-0.443688
0.910850
-0.012892
-0.791699
-0.848274
0.024816
0.435532
1.112154
1.366301
0.453937
0.098345
0.831303
-0.220397
0.544332
-0.947081
0.181979
-0.466373
1.507460
0.642290
0.051682
0.654519
0.007639
1.772563
0.222370
1.442193
-0.361315
0.221145
-0.524549
0.309858
0.447327
0.243923
0.215135
0.380308
0.060293
0.198140
0.581979
0.019852
-0.517996
-0.318249
-0.288054
0.164513
0.213002
-0.343744
1.704834
-1.261634
-0.221406
-0.421749
0.550413
0.629954
-0.333616
0.261230
-0.906711
0.620524
-0.256251
-0.221252
0.229045
-0.660756
0.393022
-0.184356
-0.511143
0.207974
-0.455290
0.582552
1.332671
0.064361
-0.086215
-0.370983
-0.754817
0.223239
-0.488802
-0.358124
0.057344
0.132195
-0.358766
-0.042188
-1.901627
-0.237927
-0.227612
0.298285
0.106662
0.053290
1.441217
-0.229142
-1.028731
-1.321131
-0.403861
-0.716362
-0.010267
0.317236
0.681521
-0.309198
-0.848184
-0.550505
0.622806
-1.647262
0.450072
1.159740
-0.048110
-0.360661
-1.394210
0.230084
0.555081
0.520974
-0.427445
-0.537382
-0.520332
0.468992
-1.163252
-0.273765
0.337304
0.667849
-0.796589
0.292961
-0.170629
0.994238
0.370331
-0.110647
-1.462564
0.218899
-0.975445
0.752829
0.559866
0.463837
-0.424197
0.183991
0.289414
0.025251
0.115638
0.177399
0.051430
0.342329
0.189782
-0.222459
-1.324015
1.494716
0.303421
-0.121584
0.590740
0.982354
0.324119
0.410685
-0.797435
-0.234962
0.119630
0.045019
-0.934529
0.109808
-0.473578
1.857281
1.056347
-0.367530
-0.160890
-0.031359
-0.265913
-0.895884
-0.128417
-0.279633
0.014175
-0.800763
1.256015
-0.083017
-2.022361
-0.011788
0.336473
0.314701
0.301147
0.543889
0.919009
0.716059
-1.288882
-0.129215
-0.242627
0.158707
0.161402
0.152408
-0.099157
-0.275491
-0.318681
-0.043242
-0.980589
-0.539642
-0.157207
0.378522
-1.049601
0.055400
-0.065281
-0.690233
-0.116478
0.856392
0.179606
0.010662
0.885498
1.624298
-0.221491
0.081532
0.374927
-0.608724
0.226212
0.267127
0.893349
-0.370398
-0.152510
-0.069429
0.836536
-0.193410
1.000288
0.184731
-0.951106
-0.284255
0.508010
-0.033660
1.986699
-0.287407
0.214700
0.549106
-1.252276
-0.802076
1.588240
1.137096
0.695149
1.171242
1.201614
0.797863
0.890335
-0.637275
0.361025
-0.053444
0.302526
-0.326855
0.181979
0.183216
0.520233
-0.866956
-0.489156
-0.364094
0.715067
0.160917
0.046320
-0.974387
0.216720
0.862687
0.795867
-0.351121
-0.734313
1.036077
0.051690
-0.188845
0.146564
-0.278422
-1.391148
-0.297349
0.124457
-0.437232
-0.131925
0.364536
0.674417
2.405619
-1.309649
0.020229
0.558610
0.674437
-1.395432
0.410013
-0.274787
-0.405915
1.223365
0.686335
-0.339912
-0.484677
0.583334
-0.503599
-0.192715
-0.657367
-0.240789
0.854777
-0.453371
0.767981
1.110205
1.042291
-0.406810
-0.784779
-0.705949
-0.021900
-0.755004
-0.105843
1.822915
0.177177
-0.284205
-0.018118
0.040688
-0.242045
-0.537819
-0.865182
0.130146
-0.637897
0.033012
-1.165870
1.383408
0.411761
-0.330216
-0.267333
1.599586
0.047782
-0.456808
0.022060
-2.050909
-0.251983
-0.209841
0.132912
2.475666
-1.376866
0.125454
0.261043
0.308706
0.608534
-1.026294
0.397671
-0.611113
2.579217
-2.904191
0.816617
-0.113176
0.447125
0.949390
-0.479907
0.138458
0.588939
0.997049
1.178851
0.303923
-0.248109
0.214016
0.104396
0.461485
-0.531928
0.039641
0.391060
-1.350186
-0.360749
0.432236
-0.494745
-0.289103
0.270072
1.182831
-2.782900
-0.001363
1.985677
-0.283475
-0.140803
0.005784
0.474829
-0.598991
-0.419782
-1.151632
0.282628
