0.181340
-0.343938
1.431760
-0.019922
0.029932
-1.536103
-0.071636
-0.099464
1.058189
-0.448487
2.160907
-1.334585
-0.813678
0.620286
0.305040
-0.444947
-0.558480
-0.357391
-0.781356
-0.187700
-0.916213
-1.484985
-0.224057
-0.557665
-0.093435
0.032929
-0.046210
-0.054852
0.413907
0.435312
0.040156
0.348056
0.072098
-0.220098
0.270950
-0.144199
-0.114270
-0.593480
0.032346
-0.143682
-0.282272
-0.538701
1.014001
0.494734
0.307678
-0.001076
-2.613892
-0.798433
1.452337
1.483668
-0.170618
-0.033299
-0.229190
0.426559
-0.154392
0.150271
-0.065066
-0.083929
0.020324
0.067234
-0.218209
-1.017608
-1.700009
-0.722215
-0.033398
0.495952
-0.453407
-0.621788
0.691677
1.317521
-0.551711
-2.062185
0.120917
0.048811
0.322174
-0.068327
0.306654
-0.932950
-0.317534
0.552641
-1.356684
0.790535
-0.441608
-1.905330
-0.051603
-0.109176
0.258110
0.029467
1.293456
0.379193
-0.000825
-0.038524
-0.690953
0.698139
-0.823453
0.230931
-0.273556
0.426488
0.170635
0.195807
-0.092052
-0.001053
-0.533509
0.116570
0.623519
-0.246018
0.305423
-0.156247
1.628434
1.145435
0.371886
-0.606862
0.499110
-0.278322
-1.492202
-0.576977
-0.025162
0.225996
0.715604
0.427347
-0.315182
0.310062
-1.085358
-0.476329
-0.583231
-0.837241
0.476232
-0.362974
0.474902
0.141443
-0.242823
0.035084
0.287829
0.247350
0.141486
0.899190
-0.756565
-0.203330
1.633044
-0.185201
-0.664468
-0.093427
0.701733
-0.915337
0.352250
-2.613926
0.437667
0.429310
-0.041431
0.579144
-0.262243
0.043364
0.612631
1.875752
0.503718
0.365541
0.238814
1.357970
0.461356
-0.248957
-0.663926
0.174645
0.230918
-0.785409
-1.003592
-0.974526
0.172377
0.527420
-0.412812
0.019232
-0.260010
-0.198520
1.702057
-0.201474
-0.663173
0.594386
-0.049306
-1.250193
-0.593220
0.032338
0.569725
-0.209315
-0.045022
-0.437258
0.646073
-0.762944
-0.061955
-0.011685
1.129665
-0.803315
0.628343
-0.390867
0.253342
0.249281
0.094385
-0.175138
0.113803
0.341512
0.573656
-0.299668
0.037070
0.112050
-0.336114
0.278508
1.338717
-1.406226
-0.239734
0.791518
1.713643
-0.816298
0.283477
-0.066361
-0.765147
0.579034
1.267721
1.927430
0.249028
0.723256
-0.934706
0.742509
0.251282
-0.011947
1.192074
-0.355534
-2.939837
1.081610
0.461507
0.983192
-0.965126
-0.839614
0.751523
0.263123
-0.145366
0.009701
0.042345
-1.524351
1.440941
-0.033992
0.812472
-1.004306
0.047936
0.440338
-1.400296
0.003477
1.246351
0.401396
-1.127310
-0.215022
0.707720
0.615072
0.517788
0.069036
-0.516045
-0.159804
1.722414
0.114776
-0.036837
0.196265
-0.071509
0.335328
2.413965
1.137369
-0.031413
-0.005719
0.211072
-0.373976
-0.638535
0.332504
0.409145
1.034514
-0.655683
0.227833
-0.067001
-0.106430
0.559130
0.253240
-0.190481
1.120434
0.296430
-1.269392
-0.916236
-1.513909
0.908572
0.548047
0.631429
0.102480
-0.017113
0.291302
1.474809
0.142607
-0.115567
-0.456528
-0.348272
-0.113111
0.693381
-0.375298
-1.662097
-0.203708
-0.058718
-0.066899
-0.190652
-0.200560
-0.208367
-0.722627
-0.933979
-0.279655
-0.472561
0.056734
0.632792
-0.110657
-0.887675
0.799263
-0.227404
1.155281
0.913929
-0.834509
0.127856
-0.220781
0.052403
0.279780
-0.537773
-0.254503
0.148566
-0.438613
-0.208826
-1.665626
-0.538140
0.155608
-0.067873
0.392483
0.867149
-0.447581
0.721335
-0.423884
0.000711
-0.144300
-0.782766
0.064682
0.072657
0.617343
0.125230
-0.163163
-0.463316
0.118872
0.024421
0.687018
-0.914459
-1.022659
1.418017
-0.098546
0.866194
-0.347962
-2.721958
1.500004
-0.067079
-0.300718
1.242888
-1.230033
-0.012546
0.053169
0.343788
0.258162
0.691979
0.785527
1.355772
-0.469534
0.137578
0.184090
0.171036
0.048552
0.305484
-0.012281
-0.479019
-1.099856
-0.310776
0.191753
0.732914
-0.684137
-0.903916
-0.151065
0.013541
-0.337925
-0.192524
0.279796
-0.249827
-0.266545
1.032781
0.278252
0.242047
-0.133156
1.168525
-0.174593
0.325790
2.643467
-1.142906
-0.357818
0.036220
0.317632
-0.187985
0.486667
0.032133
-0.385014
-0.973901
-0.942308
-0.613029
-0.314505
1.221781
0.587543
0.464675
1.385896
-0.496636
-1.591725
0.361746
0.271486
2.729979
0.480305
-0.077306
-0.433941
1.885126
0.842266
-0.114368
0.704745
1.006312
-0.756704
0.963717
-0.068225
1.871708
0.129870
-0.135280
-0.365681
0.561756
-1.454000
1.851189
1.884830
0.318480
-0.562531
0.648423
-0.170805
-0.275827
0.709666
-0.664341
-1.203636
0.612324
-0.494431
-0.080411
-0.757978
-1.112023
0.110216
-1.089199
0.650725
-0.296781
-0.849694
0.885837
-0.708809
0.619795
0.820422
0.897357
-0.957701
-0.422084
-0.382152
-1.128941
-0.113981
0.543550
-0.636286
-0.018466
0.600304
0.171202
-0.653600
-0.212085
-1.020066
0.406140
0.433713
0.519556
0.113712
-1.375303
-0.193428
0.965646
-0.567670
0.009657
-1.387140
0.306036
0.089414
-1.972746
-0.615671
-1.499754
-0.394895
-0.196329
0.203639
0.182810
-0.468614
-0.810422
-0.331701
-0.057002
0.523291
0.485415
0.755966
0.121922
0.465974
-1.616662
0.518335
