0.102305
1.097572
-0.694791
0.707872
0.736909
0.024187
-0.969822
-0.144460
-1.323687
0.907313
-0.035101
2.442343
-0.549751
0.421614
0.346151
0.160108
-0.353922
0.199777
-0.137977
-0.495543
0.181281
-0.168284
1.113922
-0.043048
-0.014768
1.229106
0.383872
0.895869
-1.869069
-1.098961
0.439082
-0.313596
-0.370768
-0.340599
-0.400354
1.492317
0.241564
-0.308792
-2.738080
0.349422
0.184304
1.660348
-1.798232
-1.106338
0.928879
-0.201689
0.791217
-1.147507
-0.456450
-1.170378
-1.350651
-0.308847
-2.225997
-0.600074
0.325278
0.496483
0.432846
-0.812561
-0.297095
0.001622
-0.433941
2.053201
0.122773
1.835640
-0.744087
-0.923115
1.184438
0.057324
-0.748532
0.738088
-0.415870
0.009400
0.071258
0.155184
0.398202
-0.180973
0.244910
-1.287228
0.983615
0.048910
-0.186090
-0.382739
0.260843
-0.513242
-0.522238
-0.407561
-0.318862
-0.968799
0.224615
0.587200
0.027613
0.369522
0.483284
-3.279124
-0.764239
-0.578513
-0.268971
0.182576
-0.328977
-0.305540
0.327457
0.289646
-1.250375
0.316081
0.607103
-0.277420
-0.179392
-0.424453
0.151550
-1.633124
0.241450
0.526140
-0.537970
0.026716
-0.716184
0.774205
0.510305
0.397503
0.313270
0.544914
-0.062679
-1.332644
-0.264071
-1.527570
0.011892
-0.177394
0.477311
2.562302
-0.288589
1.308652
-0.431070
-1.491241
-0.109926
-0.280061
0.380089
-1.572728
-0.523795
0.379735
1.196856
-0.116343
0.763855
0.135688
-1.084611
1.778425
-0.181495
-0.075076
-0.250720
-0.875745
-0.202465
-1.257488
0.091144
-0.333620
-0.726092
1.340091
-0.836703
0.273192
0.300257
-1.160925
-0.267427
-0.821745
1.669907
0.225944
-0.237487
0.381813
0.297895
2.528430
-0.492753
2.057683
-2.190378
0.173815
0.009785
0.126283
-0.630765
0.524088
1.790568
-0.613954
-0.228567
2.436081
0.026997
1.550587
-0.364230
0.819573
-0.266809
0.000206
-0.695703
-0.087123
0.489814
0.115203
-0.661045
-0.567807
0.053407
-0.550180
-0.283364
-0.136213
-0.022541
-0.414171
-0.463476
0.022789
-1.307731
-0.137840
-0.013502
0.187152
-0.796471
0.132112
-1.695708
1.326928
1.694821
-0.728400
1.467900
0.381086
-0.248096
-0.222398
-0.264510
-0.873279
-0.219263
-0.107121
0.401055
0.434774
1.408188
0.365539
-0.351552
-1.056110
-0.989905
1.560131
1.981074
0.916209
0.596689
-0.731490
0.065232
-0.814036
-0.719458
-1.606788
0.172371
-0.485536
-0.011861
0.395299
0.429723
-0.668321
-0.050642
0.441350
0.073897
0.572845
0.721226
0.579182
-0.816052
0.070526
0.736580
0.464969
-0.192252
-0.825394
-0.755892
0.979703
-0.775330
-0.236433
0.776423
-0.687777
0.285058
0.009365
-0.260946
0.246077
-1.721371
0.629034
-0.178185
0.057677
-0.407589
0.032616
0.853240
0.283819
0.595584
0.290006
-0.040507
-0.504280
-0.004639
0.302703
-0.272574
0.081943
-0.183929
0.124248
-2.694344
1.234421
-0.031728
0.051987
-1.730755
-1.077652
-1.809423
0.269149
-0.457517
-0.569317
0.297146
-0.491654
-0.187294
0.696611
-0.273886
1.131582
1.066706
0.033665
-0.033440
-0.333398
0.211599
-0.333469
-0.941319
-0.240912
-0.543555
-0.276929
-0.358167
0.019451
-0.255502
-0.013666
0.530572
0.388054
1.117282
-0.195924
0.470649
0.038567
-2.104312
-0.015207
-0.143885
-0.046449
-0.088322
-0.187293
0.038095
-0.244788
0.620193
0.835561
-1.154498
1.313426
-0.248563
1.076306
-1.422873
1.148594
-0.374069
-0.165822
-0.307057
-0.452173
0.238862
-0.417156
0.558764
2.259712
-0.472253
-0.421507
0.426427
0.015175
0.317301
-0.112292
0.622529
0.281427
1.095587
0.398011
-0.234016
0.049943
0.339070
0.872815
0.979299
-0.389085
0.086702
-0.384869
-0.163440
0.635056
0.563507
0.168756
-0.426158
0.200046
1.363723
-0.318688
-0.586229
0.384551
-0.749063
0.852043
-0.028745
-1.485006
-0.498319
0.220022
0.252340
0.890849
-0.126378
0.272155
-0.558462
-0.423232
1.337164
-1.567059
-0.104600
0.198300
-0.045471
-0.370544
0.494427
0.501816
0.368461
-1.224028
-0.604832
-0.572340
0.889048
-0.410613
0.600325
-0.881877
0.404066
0.455698
0.782092
-0.721113
-0.002681
-0.855398
0.422367
0.055681
-0.271990
1.078378
1.226725
-0.335675
-2.728649
-0.004871
0.278859
0.005028
0.269739
-0.376758
-0.803304
0.809029
0.040994
0.025299
-0.361079
-0.802361
-0.469576
-0.296887
0.004376
-0.158410
-0.526612
-0.586458
0.008938
-1.555651
-0.154906
-0.048304
-0.390462
0.382877
1.102237
1.641755
1.478825
0.813493
-0.095246
-0.368263
0.249979
-0.574558
0.689593
-1.916503
0.328130
-1.175301
1.627369
-0.220924
-0.954093
0.642210
0.573575
0.090816
-0.906430
-0.164183
1.009461
0.593009
-0.707681
-1.405300
-0.297834
-0.520446
0.085365
0.343988
-0.409689
-0.171510
-0.286470
-0.163825
-0.036722
2.212445
-0.498960
0.262699
0.658351
0.996487
-0.425550
0.707822
-0.289538
-0.481524
-0.113611
-0.118799
-0.096807
-1.091748
-0.560842
1.400000
1.769062
0.549877
0.294045
-0.135979
0.907966
0.485942
0.355016
-0.152122
0.038322
0.034124
-0.324940
-2.303334
1.049220
0.868372
-0.338090
0.281820
-1.238018
0.253169
1.193322
-1.067162
0.643258
1.126689
