0.505303
0.358818
0.560548
-0.483977
-0.071016
0.097994
0.550627
0.023187
0.296525
0.498937
-0.111329
-1.061091
-0.117866
0.027140
0.072571
-0.396636
0.979772
0.120674
0.564679
0.368534
0.172943
-0.615524
-0.201973
-0.127940
0.008043
-0.263352
-0.781584
-0.454909
0.844102
-0.291655
0.463057
-0.150393
0.987814
-0.446144
-0.590247
-0.397930
0.274167
0.915257
1.693726
0.180906
0.019693
-0.244865
1.093515
1.305626
-0.639706
-0.058098
0.061286
1.084524
-0.533860
0.792698
1.081997
-1.184864
2.045061
-0.548567
-0.364406
0.009810
0.451677
0.575290
2.097086
0.638328
-0.608440
0.846138
0.262782
0.619360
-0.432709
-1.510451
-0.272660
0.118269
-0.412650
0.975075
0.026406
0.204405
-0.061565
-0.117585
-0.327158
0.648714
1.334580
1.003202
-0.285459
-0.360332
0.098516
-0.345510
0.183255
0.157571
-0.208645
-0.540808
0.396501
-0.331778
-0.848833
-0.030074
-0.330401
0.070396
0.362481
1.475565
1.436395
-0.042609
0.123201
0.472920
-0.013035
0.139257
0.210424
-0.248597
0.286856
-0.270800
0.453647
-0.396458
-0.025106
-0.014349
-0.890260
-0.804496
-0.334849
-0.055111
-0.263261
0.954278
0.457511
0.199936
0.055010
-0.594706
0.970075
-0.443556
-0.581220
-0.366391
0.190903
1.080686
1.372268
0.540504
-0.734323
-0.687856
0.517710
-0.091708
0.293983
0.492833
-0.689006
-0.093407
-0.962153
-0.158836
-0.058008
0.184888
1.880358
-0.569741
-0.915125
-0.204597
-0.411892
-0.163524
-0.166911
1.022982
-0.252371
1.298773
0.309115
-0.120770
0.404221
-0.328277
-0.543142
-0.560854
-0.056176
0.209339
0.410719
0.459524
0.114837
0.234912
-0.817981
-0.088738
-0.484093
0.059216
0.153940
-0.561826
1.432073
-0.217762
-1.178108
-0.664519
0.636309
0.863947
-0.273384
0.025372
-0.644608
-0.161023
-0.479234
0.697924
0.253438
0.148272
0.364017
-1.130652
0.956719
-0.352671
0.264893
-0.092798
-0.544005
-0.020474
-0.099852
0.967394
0.247136
0.379051
0.567957
0.252756
-0.273735
-0.580953
-0.548883
0.041846
-0.175663
-0.292280
-0.332258
-0.635783
0.401100
0.022214
2.036607
0.066958
0.016769
-0.360292
-1.515565
0.639773
-0.137099
-0.282367
-0.240661
1.331635
-0.584661
0.328852
0.099121
-0.023563
0.195663
-0.156815
0.323782
-0.713540
0.460833
0.527565
0.189929
1.139192
-0.445428
1.507687
0.600925
-0.011214
-0.097645
1.066173
-0.175229
0.170891
0.748346
-0.906306
0.602546
0.052924
-0.318998
-0.677767
-0.433835
-0.454007
-0.015084
0.523261
-0.826016
0.953426
-0.022075
-0.608034
0.350160
-0.621866
-0.230010
0.908469
1.017581
-0.400450
1.386632
-0.021864
-0.319362
-0.580052
-0.229753
0.659193
1.008630
-0.231952
0.496835
0.608506
0.016543
0.269676
-0.404733
0.291708
0.106412
0.140747
0.571521
0.004153
-0.481716
-0.238901
0.177123
-0.092954
0.015022
0.067554
1.069274
-0.739675
-0.104195
0.297387
-0.069566
-0.156846
1.924256
-0.319972
0.175321
-0.177027
2.780947
0.842581
-0.110135
-0.026692
-0.648248
-0.772560
-1.142063
-0.163162
-0.079614
-0.494963
-0.563881
0.436005
0.234961
-0.306830
0.238479
0.370908
-0.222787
-0.631970
1.002230
-0.458663
-0.572808
-0.166362
0.287908
-0.041219
0.789433
-0.700190
1.225117
-0.037826
0.505883
1.096058
-0.013064
0.338207
-0.470828
-0.233532
0.540995
-0.086715
-0.279815
0.116373
-0.186907
-0.420731
0.204048
-0.236089
-0.501362
0.120393
0.903769
-0.192332
0.103112
-0.203224
0.061823
-2.075109
0.429152
-0.366789
-0.342675
-0.129369
-0.189390
-0.128273
-0.329713
0.159866
-0.056741
0.334401
-0.146158
0.367141
0.066688
-0.125925
0.133951
0.825975
-0.406972
-0.112059
0.018978
0.393696
-0.318846
0.000169
0.309613
-0.241890
-0.609904
-0.027789
-0.724400
-0.228137
0.363666
0.026315
-0.150069
0.545484
-0.144686
0.794611
0.033394
0.541735
0.038932
0.726356
-0.657839
0.306023
0.165061
1.047078
0.523812
-0.079078
0.134255
-0.467369
0.210996
0.285499
-0.196461
-0.052640
2.083163
0.009107
0.388699
-0.270514
-0.051893
-0.712252
-0.440882
0.267935
0.031265
-0.062557
-0.260902
0.656511
-0.300250
1.427762
0.241047
-0.753402
-0.790008
0.128636
1.601842
0.468536
0.483712
-0.703928
0.683538
0.177859
-1.581371
0.313414
-0.669208
0.136274
0.089889
-0.667049
-0.737516
0.135223
-1.097662
-0.341442
-0.439099
-0.604189
0.042512
2.164836
-0.292782
0.696548
0.145927
0.175323
1.212411
-1.224259
1.200395
-0.182721
-0.369776
-0.123067
-0.226582
0.252722
-0.082772
-0.400275
-0.708180
0.804594
-0.798191
0.321417
0.645130
-0.480397
-0.211055
-0.215593
1.007032
-1.075168
-2.188690
-0.376706
-0.492914
0.620693
-0.151629
0.371471
0.313948
0.100621
0.274530
-0.484289
-0.026386
0.996949
-0.130548
-1.560239
1.000253
-0.790397
0.804807
0.822608
-0.697089
0.286084
-0.078960
-0.820579
0.785585
0.675898
0.192347
0.232862
-0.238454
-0.239410
0.077317
0.343412
0.026774
-0.683810
-0.407218
0.695657
0.057197
-0.375751
0.127311
0.920889
-0.125216
0.657880
-0.126854
-0.383651
-0.057899
-0.327977
0.352813
0.183577
1.381238
0.425296
-0.151868
-0.078085
