-0.307999
1.139622
-1.169975
0.321397
0.876776
-0.469349
-0.032024
0.944850
-0.286750
-0.481134
0.320347
-0.289567
-0.241109
-0.119975
0.121024
-0.438798
0.108296
-0.457075
-0.318558
0.250308
0.803630
-0.390652
0.394103
-0.048728
0.005868
0.014488
-1.009928
0.769992
0.534106
-0.945011
0.069206
-1.067743
1.262199
-0.560212
-0.323527
-1.316556
-0.301088
-1.102035
0.265377
0.127426
-0.379460
0.569770
0.057816
-0.333703
0.043123
0.076861
1.356402
0.439672
-0.493777
-0.766718
0.545067
-0.793515
0.480028
0.060592
-0.236638
0.594490
0.716757
-0.265125
-0.977230
0.142123
-1.270028
2.303871
-0.076769
1.303230
0.189096
-0.692707
-0.047171
0.878059
-0.821802
-0.078497
-0.022972
0.050704
0.075009
0.186980
0.372362
0.229494
-0.216958
-0.858384
0.198693
-0.297200
-0.827186
-0.205471
0.435829
1.732901
-0.004452
-0.127107
0.353949
-0.612324
0.073938
-0.434593
-0.132238
0.768209
1.002691
-0.564503
-1.232683
-0.104176
-0.281541
-0.082080
-0.287330
-0.117498
0.522854
0.112178
0.371955
-0.888524
0.312337
0.116170
-0.114824
0.336706
-0.344536
-1.098667
-0.250764
-0.055845
-1.062086
0.883091
0.218521
0.227952
0.885715
0.583572
-0.654791
0.057389
0.476687
-0.105640
0.630300
1.784515
1.536913
-0.115794
0.328716
-0.645130
-0.085974
0.497768
-0.325900
0.566201
-0.948132
-0.308818
0.024514
-0.124178
1.103694
0.672091
0.927562
-0.667992
-0.333435
-0.123062
-0.025871
0.345714
0.324427
1.094864
-0.251262
0.528677
0.458908
0.987428
-0.101057
-0.104470
-1.516648
0.217856
-0.318690
0.274059
-0.116356
-0.606642
-0.097956
-0.394072
0.778017
-0.199030
-0.240815
-0.105395
0.330236
1.452101
-0.692136
-0.439379
0.666747
-0.256787
0.024502
0.727572
-0.596968
0.424871
1.527856
0.185146
-0.378241
1.586171
-0.461113
-0.166174
-0.001263
-0.095889
-0.253166
-0.080598
-0.667346
0.425191
-0.079937
0.633140
-0.525195
-0.431243
-0.013381
-0.175548
-0.073391
-0.600126
-0.269011
0.673442
-0.002375
0.638306
-0.297486
-0.258709
0.053886
0.257670
0.010436
1.224777
-0.069799
1.569525
1.030220
-0.284985
-0.269692
-0.033593
-0.277107
-0.200389
0.202181
0.970580
-0.495311
-0.151119
-0.281417
-0.254449
-0.014337
0.062401
2.009496
-0.643162
-0.291595
0.383790
1.869766
1.088332
1.409326
0.294634
-0.555067
0.439202
-0.199542
0.318533
-0.084203
0.662422
0.051239
0.832515
-0.584313
-0.147299
-0.076106
0.019644
-0.413976
-1.206346
0.897602
0.417094
0.955479
0.817934
0.164933
0.157859
0.143228
0.539104
-0.258135
-0.467347
-0.531258
-0.318252
0.690620
-0.645302
0.333788
-0.972681
0.417935
0.061439
-1.125046
0.301443
0.614664
-0.478716
-0.287164
-0.513209
-1.130057
0.459783
0.112728
-0.029890
0.457462
-0.533342
0.020212
-0.056656
-0.196839
-0.010597
-0.196895
0.438093
1.146492
-0.458441
0.003329
-0.003851
0.404832
-0.174341
-0.228786
-0.490883
0.580599
-0.563525
1.088175
0.073148
0.025564
0.263004
0.421748
-1.134141
0.800220
-0.300284
-0.094352
-0.477388
0.432446
-0.115015
-0.492044
0.270446
-0.381392
0.831218
-0.005053
0.000784
-0.189806
0.123962
0.167094
0.182745
-0.366763
0.580467
0.497192
0.542055
-1.258496
-0.351528
0.057784
0.873502
0.854907
0.269084
-0.206716
-0.145869
0.487124
-0.385811
0.298830
0.154481
-0.224650
0.137408
-0.594326
0.467507
-0.282961
-0.344659
0.117343
0.352549
-0.375510
0.050905
-0.362279
-0.457539
0.463082
-0.515384
0.195596
-0.024043
0.516752
0.092245
-0.171208
-0.696179
0.249541
0.426262
-0.849287
0.604292
-0.480546
0.166019
0.743571
-0.949893
-0.202770
-0.137828
-0.777643
0.459484
-0.213827
-0.590038
0.317979
0.514146
-1.006977
0.312964
-0.536636
-0.434800
-0.702640
-0.178779
-0.323946
0.041121
0.002742
-0.433436
-0.183846
0.095967
0.537593
0.038115
0.519221
-0.108831
-0.014385
-0.984840
0.629866
-0.227715
0.016018
0.097738
0.188228
0.120777
0.501774
0.189258
-0.240602
0.615595
-0.175386
-0.046891
1.522339
-1.246859
0.798481
1.166045
0.228699
0.051715
-0.272316
-0.236415
-0.272703
-0.700589
0.824780
0.351469
0.039248
-0.110576
-0.419255
-0.338931
-0.125590
-0.412953
1.120432
-0.193791
-0.951188
0.154480
0.471878
-0.027139
-0.252093
-1.756098
-0.421028
-0.293697
-0.367702
-0.128746
0.172114
0.047418
-0.440573
-0.648862
0.028614
0.092415
-0.496418
-0.216752
0.340596
0.006048
-0.403279
-0.128116
-0.102360
-0.277125
0.047945
0.441208
0.328923
-0.552880
0.231638
0.133854
-0.866108
-0.777349
-0.154979
1.040545
-0.629464
-0.198659
-0.352905
-1.031224
-0.049251
0.460302
0.114198
-0.727294
0.714779
0.048762
-0.156138
0.089846
-0.298345
0.002826
1.051700
0.017536
-0.062044
-0.968368
0.410116
0.167552
0.803842
1.498535
-0.209865
0.468865
-0.628210
-0.077621
0.503408
0.722795
-0.675015
-0.481887
0.233448
-0.407849
-0.415295
0.872699
0.027097
-0.713161
-0.193265
-0.153869
1.804309
0.578733
0.110390
0.419997
-1.158516
0.023892
0.807557
-0.337786
-0.086614
0.027456
-0.714695
0.040424
-1.071496
-0.420871
0.123854
1.115831
