0.015443
0.482551
-0.044577
0.046067
0.064392
0.573270
-0.110340
0.159006
0.271886
0.065901
0.364564
-0.898601
-0.248815
0.042181
-0.602812
0.338814
-0.156880
0.734346
0.411192
-0.250415
-0.039137
-0.516311
-0.167716
-0.147902
0.095345
-0.228392
0.028139
-0.068953
-0.238412
-0.558039
0.297393
-0.080968
0.613314
-0.032906
0.150796
1.082399
0.597171
-0.317567
0.810735
0.308283
-0.275833
-0.178013
0.713088
1.306941
-0.692030
-0.134156
-0.859808
0.061100
0.096391
-0.004937
0.050265
0.564235
1.158898
0.364460
0.065149
-0.106191
-0.548453
-0.557012
-1.283559
-0.063870
0.164199
0.174668
0.291033
-0.286206
-0.276688
0.321316
-0.756028
0.022107
-0.027128
-0.440285
0.018680
0.390188
-0.248165
-0.392396
0.226090
0.668868
1.215837
-0.419328
-0.527333
0.482714
1.559178
0.564697
-0.245778
0.461676
-0.194862
-0.292141
-0.159376
1.071268
-0.040830
-0.086645
-0.227068
-1.043625
-0.284437
0.304529
-0.710963
0.169308
0.026327
0.101031
0.056219
-0.417553
0.182401
-0.065667
0.577280
1.744821
0.125926
0.026351
0.316897
-0.251630
-0.180039
0.281147
-0.191805
0.023436
0.141662
-0.359415
0.406880
-0.220048
-0.004617
1.175795
-0.648506
0.134619
0.015894
-0.075396
-0.088787
-0.058982
0.902143
-0.164728
0.092070
-0.060564
0.199892
-0.555812
-0.219926
-0.252602
-0.071352
-0.883414
0.563713
0.143224
0.149539
0.566027
0.915533
0.102521
-0.289369
-0.189255
-0.443771
-0.550214
-0.031328
0.766456
0.215145
1.549331
0.036127
-0.933309
-0.038032
0.764794
0.429286
-0.216335
0.256805
-0.493564
0.514424
1.173446
0.430015
0.371724
-0.557394
-0.049811
0.605844
0.308940
-0.076643
0.068323
0.207631
-1.335201
-0.054049
0.673267
0.346099
0.693185
-0.325920
0.268295
0.613552
0.303971
0.122396
-0.246868
0.111817
-0.358039
0.146709
-0.443117
0.701853
-0.179903
0.397543
0.114244
-0.378599
-0.338860
-0.241077
-0.422270
-0.204888
-0.320567
0.331286
-0.065792
-0.284957
0.141621
0.093067
-0.114310
0.347905
-0.023033
-0.200001
-0.245557
-0.142017
0.634044
1.418332
-0.184801
-0.982921
0.243615
-1.771018
1.828841
0.018494
-0.070295
-0.133779
1.396662
-0.027556
-0.390494
-0.100063
-0.092178
-0.402252
-0.417642
-1.192430
1.276832
0.254669
-0.147176
0.156729
0.666147
0.286682
0.726570
-0.138248
-0.389276
0.516737
-0.494070
-0.105188
-0.150756
0.370725
0.147555
0.511587
0.422645
-0.106161
-1.159678
0.156048
1.352789
-0.510079
-0.673936
0.055620
0.615830
-0.379238
-0.055675
-0.355674
0.023008
0.974736
0.844559
-0.166031
-0.143310
0.555251
0.250405
0.222733
-0.092075
-0.428419
-0.018977
1.217436
-0.584464
-0.391489
0.238070
0.127133
0.132692
0.623740
-0.296332
0.711110
-0.395806
-0.339770
-0.151519
0.121596
-0.360760
-0.213254
-0.025553
-0.172105
-0.553820
0.337695
0.082107
0.104499
0.085453
-0.055847
0.502140
1.233564
0.161100
-0.051037
0.096118
1.313353
0.787961
0.082528
-0.037631
-0.452779
0.480011
0.096082
-0.013142
0.201351
-0.101531
-0.103565
0.106812
-0.159926
-0.135388
0.735492
0.081686
0.085193
-0.251044
-0.340607
-0.290624
-0.240590
0.551178
-0.424695
0.054895
0.602573
0.187043
0.376406
-0.347641
0.372789
1.054260
0.899568
0.592332
-0.143295
-0.132184
-0.246303
-0.468881
-0.337695
-0.616409
-0.262655
-0.812467
0.969915
-0.743207
0.212859
0.181321
0.315882
0.072835
0.361358
-0.749134
0.374150
-0.841771
0.118661
-0.202907
0.005963
-0.097104
-0.026258
-0.028137
-0.317156
-0.176623
-0.194384
0.614900
0.496569
-0.125609
0.464974
-0.782801
-0.534130
0.160762
-0.132740
-0.307995
0.967301
0.112982
-0.117105
-0.233795
-0.515101
-0.807695
-0.343845
-0.281739
-0.148230
0.489083
-0.133283
0.205074
0.296977
0.370116
0.266019
0.443711
0.107592
-0.448232
-0.025919
0.474439
0.044365
-0.186864
-1.141415
0.936705
0.622615
0.072943
0.045747
-0.166065
-0.731366
0.760017
-0.466028
-0.233428
0.243187
0.266052
0.247156
-0.071749
0.932544
-0.487819
-0.321267
-0.261714
0.204823
0.436252
-0.044359
-0.313018
0.340542
0.740520
-0.080186
-0.445111
-0.386767
0.248463
0.692615
0.391822
-0.157421
-0.275857
0.784242
0.587381
0.548609
-0.372771
0.016097
0.007138
-0.020541
-0.080479
-0.064709
-0.107634
0.403856
0.308196
0.310849
0.103289
-0.201399
-0.393764
-0.463156
-0.288745
0.083821
-0.140914
-0.459499
-1.714395
-0.035810
-0.377102
0.086785
-0.416321
-0.204673
-0.539580
-0.491382
0.332913
0.174475
0.673872
0.184977
0.487896
-0.557777
-0.510720
0.680379
-0.041187
1.455627
0.450873
-0.090451
-1.973556
0.805113
0.258328
0.121398
-0.063148
0.146001
0.056941
0.228253
0.026142
-0.495906
0.538105
-0.204474
0.151391
-0.819511
-0.081577
0.675815
0.752854
0.202524
-0.289946
-0.214563
0.235124
1.238306
0.498933
0.651856
0.429501
0.390792
-1.441330
-0.274459
-0.069576
0.372498
0.170800
-0.903712
-0.159769
-0.832530
0.568692
0.097582
1.062065
0.587108
-0.495332
0.209035
1.172519
0.181505
-0.304826
-0.025952
0.041425
-0.385307
0.443719
-0.772600
-0.236041
