0.0 0.0 0.0 0.0 0.0 0.07698792 
0.0 0.0 0.0 0.0 0.0 0.07698792 
0.0 0.0 0.0 0.0 0.0 0.07698792 
0.0 0.0 0.0 0.0 0.0 0.07698792 
0.0 0.0 0.0 0.0 0.0 0.07698792 
0.0 0.0 0.0 0.0 0.0 0.07698792 
0.0 0.0 0.0 0.0 0.0 0.07698792 
0.0 0.0 0.0 0.0 0.0 0.07698792 
0.0 0.0 0.0 0.0 0.0 0.07698792 
0.0 0.0 0.0 0.0 0.0 0.07698792 
0.0 0.0 0.0 0.0 0.0 0.07698792 
0.0 0.0 0.0 0.0 0.0 0.07698792 
0.0 0.0 0.0 0.0 0.0 0.07698792 
0.0 0.0 0.0 0.0 0.0 0.07698792 
0.0 0.0 0.0 0.0 0.0 0.07698792 
0.0 0.0 0.0 0.0 0.0 0.07698792 
0.0 0.0 0.0 0.0 0.0 0.07698792 
0.0 0.0 0.0 0.0 0.0 0.07698792 
0.02133286 0.0 0.058972865 0.0 0.0 0.07698792 
0.25173384 0.23651634 0.20365593 0.0 0.0 0.07698792 
0.03854759 0.35960224 0.18098345 0.0 0.019582022 0.07698792 
0.0 0.22166139 0.04811441 0.0 0.08334684 0.07698792 
0.0 0.0 0.0 0.0 0.0 0.07698792 
0.0 0.0 0.0 0.0 0.0 0.07698792 
0.0 0.0 0.0 0.0 0.0 0.07698792 
0.0 0.0 0.0 0.0 0.0 0.07698792 
0.0 0.0 0.0 0.0 0.0 0.07698792 
0.0 0.0 0.0 0.0 0.0 0.07698792 
0.0 0.0 0.0 0.0 0.0 0.07698792 
0.0 0.0 0.0 0.0 0.0 0.07698792 
0.0 0.0 0.0 0.0 0.0 0.07698792 
0.0 0.0 0.0 0.0 0.0 0.07698792 
0.5516967 0.0 0.097085126 0.0 0.0 0.12672707 
1.2156918 0.37143213 0.42592138 0.0054621818 0.014940251 0.0 
0.3034938 1.4694331 1.3681959 0.018583816 1.1608928 0.0 
0.0 0.92499495 1.0534106 0.0 0.82871693 0.0 
0.0 0.0 0.0 0.0 0.0 0.07698792 
0.0 0.0 0.0 0.0 0.0 0.07698792 
0.0 0.0 0.0 0.0 0.0 0.07698792 
0.0 0.0 0.0 0.0 0.0 0.07698792 
0.0 0.0 0.0 0.0 0.0 0.07698792 
0.0 0.0 0.0 0.0 0.0 0.07698792 
0.0 0.0 0.0 0.0 0.0 0.07698792 
0.0 0.0 0.0 0.0 0.0 0.07698792 
0.0 0.0 0.0 0.0 0.0 0.07698792 
0.0 0.0 0.0 0.0 0.0 0.07698792 
0.697699 0.0 0.0 0.29366085 0.35872912 0.84107643 
1.6011269 0.47371802 0.0 0.7376473 0.9477493 1.3174169 
0.49366695 1.8662472 1.8561265 0.6679717 1.3456124 0.2272468 
0.0 1.2927185 1.9404312 0.059171688 1.223698 0.0 
0.0 0.030119397 0.0 0.0 0.040040005 0.07698792 
0.0 0.0 0.0 0.0 0.0 0.07698792 
0.0 0.0 0.0 0.0 0.0 0.07698792 
0.0 0.0 0.0 0.0 0.0 0.07698792 
0.0 0.0 0.0 0.0 0.0 0.07698792 
0.0 0.0 0.0 0.0 0.0 0.07698792 
0.0 0.0 0.0 0.0 0.0 0.07698792 
0.0 0.0 0.0 0.0 0.0 0.07698792 
0.0 0.0 0.0 0.0 0.0 0.07698792 
0.0 0.0 0.0 0.0 0.0 0.07698792 
0.55229604 0.0 0.0 0.0 0.5228961 0.71463853 
1.9578242 0.0 0.0 0.0 0.8129366 1.3355243 
1.2371535 1.6525162 1.2143615 0.019728597 1.2634946 0.29153195 
0.0 1.7693076 2.14989 0.0 1.5127884 0.0 
0.0 0.2899095 0.32882175 0.0 0.40599546 0.07698792 
0.0 0.0 0.0 0.0 0.0 0.07698792 
0.0 0.0 0.0 0.0 0.0 0.07698792 
0.0 0.0 0.0 0.0 0.0 0.07698792 
0.0 0.0 0.0 0.0 0.0 0.07698792 
0.0 0.0 0.0 0.0 0.0 0.07698792 
0.0 0.0 0.0 0.0 0.0 0.07698792 
0.0 0.0 0.0 0.0 0.0 0.07698792 
0.0 0.0 0.0 0.0 0.0 0.07698792 
0.0 0.0 0.0 0.0 0.0 0.07698792 
0.0 0.0 0.0 0.0 0.029753681 0.11535824 
2.084493 0.0 0.0 0.1456464 0.6603966 1.282248 
1.8305833 1.51836 0.37148368 0.23987235 1.3813809 0.764578 
0.0 1.9062128 2.1415403 0.2055604 1.8433056 0.0 
0.0 0.8051241 1.2401896 0.0 0.81268567 0.0 
0.0 0.0 0.0 0.0 0.0 0.07698792 
0.0 0.0 0.0 0.0 0.0 0.07698792 
0.0 0.0 0.0 0.0 0.0 0.07698792 
0.0 0.0 0.0 0.0 0.0 0.07698792 
0.0 0.0 0.0 0.0 0.0 0.07698792 
0.0 0.0 0.0 0.0 0.0 0.07698792 
0.0 0.0 0.0 0.0 0.0 0.07698792 
0.0 0.0 0.0 0.0 0.0 0.07698792 
0.0 0.0 0.0 0.0 0.0 0.07698792 
0.0 0.0 0.0 0.0 0.0 0.07698792 
1.7989981 0.0 0.0 0.10505964 0.6819751 1.316567 
1.9784272 1.0609385 0.0 0.21758614 1.5045072 1.2057924 
0.0 1.9253068 2.0159671 0.23413156 1.8396652 0.0 
0.0 0.820203 1.5201786 0.016398307 1.0128621 0.0 
0.0 0.0 0.0 0.0 0.0 0.07698792 
0.0 0.0 0.0 0.0 0.0 0.07698792 
0.0 0.0 0.0 0.0 0.0 0.07698792 
0.0 0.0 0.0 0.0 0.0 0.07698792 
0.0 0.0 0.0 0.0 0.0 0.07698792 
0.0 0.0 0.0 0.0 0.0 0.07698792 
0.0 0.0 0.0 0.0 0.0 0.07698792 
0.0 0.0 0.0 0.0 0.0 0.07698792 
0.0 0.0 0.0 0.0 0.0 0.07698792 
0.0 0.0 0.0 0.0 0.0 0.07698792 
1.3458545 0.0 0.0 0.05220496 0.5622822 1.1206188 
1.9539785 0.43617952 0.0 0.10625993 1.3743132 1.3833253 
0.21735683 1.7119681 1.7936035 0.12618089 1.6456047 0.023848757 
0.0 1.1930789 1.837934 0.0 1.1582907 0.0 
0.0 0.027087092 0.0 0.0 0.0 0.07698792 
0.0 0.0 0.0 0.0 0.0 0.07698792 
0.0 0.0 0.0 0.0 0.0 0.07698792 
0.0 0.0 0.0 0.0 0.0 0.07698792 
0.0 0.0 0.0 0.0 0.0 0.07698792 
0.0 0.0 0.0 0.0 0.0 0.07698792 
0.0 0.0 0.0 0.0 0.0 0.07698792 
0.0 0.0 0.0 0.0 0.0 0.07698792 
0.0 0.0 0.0 0.0 0.0 0.07698792 
0.0 0.0 0.0 0.0 0.0 0.07698792 
0.8168928 0.0 0.0 0.0 0.47468808 0.824819 
1.9011228 0.0 0.0 0.045247253 0.94386226 1.2823746 
1.0063801 1.7984611 1.6772429 0.13104993 1.48357 0.27198264 
0.0 1.5829725 2.1674087 0.0 1.4809289 0.0 
0.0 0.12960844 0.15114245 0.0 0.26489925 0.07698792 
0.0 0.0 0.0 0.0 0.0 0.07698792 
0.0 0.0 0.0 0.0 0.0 0.07698792 
0.0 0.0 0.0 0.0 0.0 0.07698792 
0.0 0.0 0.0 0.0 0.0 0.07698792 
0.0 0.0 0.0 0.0 0.0 0.07698792 
0.0 0.0 0.0 0.0 0.0 0.07698792 
0.0 0.0 0.0 0.0 0.0 0.07698792 
0.0 0.0 0.0 0.0 0.0 0.07698792 
0.0 0.0 0.0 0.0 0.0 0.07698792 
0.37318078 0.0 0.0 0.011896762 0.18997182 0.36334985 
2.082952 0.0 0.0 0.071933 0.85060436 1.0927784 
1.4841683 1.7596735 0.6723618 0.06174049 1.6266996 0.46937692 
0.0 1.7618347 2.0112085 0.04587808 1.711754 0.0 
0.0 0.36463705 0.6127885 0.0 0.42559493 0.07698792 
0.0 0.0 0.0 0.0 0.0 0.07698792 
0.0 0.0 0.0 0.0 0.0 0.07698792 
0.0 0.0 0.0 0.0 0.0 0.07698792 
0.0 0.0 0.0 0.0 0.0 0.07698792 
0.0 0.0 0.0 0.0 0.0 0.07698792 
0.0 0.0 0.0 0.0 0.0 0.07698792 
0.0 0.0 0.0 0.0 0.0 0.07698792 
0.0 0.0 0.0 0.0 0.0 0.07698792 
0.0 0.0 0.0 0.0 0.0 0.07698792 
0.17374784 0.0 0.0 0.028270576 0.08141446 0.29397961 
1.9262621 0.0 0.0 0.18172745 0.82887846 1.3806694 
1.7607508 1.5436087 0.13803777 0.2798448 1.5544167 1.0515807 
0.0 1.7703035 2.0228426 0.23924243 1.715984 0.0 
0.0 0.50099885 1.0039274 0.0 0.74658436 0.046158187 
0.0 0.0 0.0 0.0 0.0 0.07698792 
0.0 0.0 0.0 0.0 0.0 0.07698792 
0.0 0.0 0.0 0.0 0.0 0.07698792 
0.0 0.0 0.0 0.0 0.0 0.07698792 
0.0 0.0 0.0 0.0 0.0 0.07698792 
0.0 0.0 0.0 0.0 0.0 0.07698792 
0.0 0.0 0.0 0.0 0.0 0.07698792 
0.0 0.0 0.0 0.0 0.0 0.07698792 
0.0 0.0 0.0 0.0 0.0 0.07698792 
0.036456548 0.0 0.0 0.0 0.058936115 0.17088772 
1.4432383 0.0 0.0 0.0018600686 0.7381563 1.3366785 
1.7045338 0.77383876 0.0 0.36385348 1.5442821 1.5809996 
0.0 1.5816481 1.9542006 0.60748583 1.5728813 0.6694605 
0.0 0.4978545 1.1790633 0.27652854 0.6915064 0.17079985 
0.0 0.0 0.0 0.0 0.0 0.07698792 
0.0 0.0 0.0 0.0 0.0 0.07698792 
0.0 0.0 0.0 0.0 0.0 0.07698792 
0.0 0.0 0.0 0.0 0.0 0.07698792 
0.0 0.0 0.0 0.0 0.0 0.07698792 
0.0 0.0 0.0 0.0 0.0 0.07698792 
0.0 0.0 0.0 0.0 0.0 0.07698792 
0.0 0.0 0.0 0.0 0.0 0.07698792 
0.0 0.0 0.0 0.0 0.0 0.07698792 
0.0 0.0 0.0 0.0 0.0 0.07698792 
0.7560484 0.0 0.0 0.01963355 0.6257939 0.8665679 
0.98910135 0.17860995 0.0 0.053164467 1.1831907 1.2685483 
0.0 0.33369192 0.854777 0.29785848 0.90137786 0.78077245 
0.0 0.121039584 0.7254812 0.18043138 0.20975746 0.21221599 
0.0 0.0 0.0 0.0 0.0 0.07698792 
0.0 0.0 0.0 0.0 0.0 0.07698792 
0.0 0.0 0.0 0.0 0.0 0.07698792 
0.0 0.0 0.0 0.0 0.0 0.07698792 
0.0 0.0 0.0 0.0 0.0 0.07698792 
0.0 0.0 0.0 0.0 0.0 0.07698792 
0.0 0.0 0.0 0.0 0.0 0.07698792 
0.0 0.0 0.0 0.0 0.0 0.07698792 
0.0 0.0 0.0 0.0 0.0 0.07698792 
0.0 0.0 0.0 0.0 0.0 0.07698792 
0.114864245 0.0 0.0 0.0 0.22792299 0.20376763 
0.16243243 0.0 0.0 0.0 0.29465953 0.25460923 
0.0 0.0 0.0 0.0 0.14214669 0.209089 
0.0 0.0 0.0 0.0 0.0021558255 0.09399967 
0.0 0.0 0.0 0.0 0.0 0.07698792 
0.0 0.0 0.0 0.0 0.0 0.07698792 
0.0 0.0 0.0 0.0 0.0 0.07698792 
0.0 0.0 0.0 0.0 0.0 0.07698792 

