0.0 0.0 0.0 0.0 0.0 0.07698792 
0.0 0.0 0.0 0.0 0.0 0.07698792 
0.0 0.0 0.0 0.0 0.0 0.07698792 
0.0 0.0 0.0 0.0 0.0 0.07698792 
0.0 0.0 0.0 0.0 0.0 0.07698792 
0.0 0.0 0.0 0.0 0.0 0.07698792 
0.0 0.0 0.0 0.0 0.0 0.07698792 
0.0 0.0 0.0 0.0 0.0 0.07698792 
0.0 0.0 0.0 0.0 0.0 0.07698792 
0.0 0.0 0.0 0.0 0.0 0.07698792 
0.0 0.0 0.0 0.0 0.0 0.07698792 
0.0 0.0 0.0 0.0 0.0 0.07698792 
0.0 0.0 0.0 0.0 0.0 0.07698792 
0.0 0.0 0.0 0.0 0.0 0.07698792 
0.0 0.0 0.0 0.0 0.0 0.07698792 
0.0 0.0 0.0 0.0 0.0 0.07698792 
0.0 0.0 0.0 0.0 0.0 0.07698792 
0.0 0.0 0.0 0.0 0.0 0.07698792 
0.0 0.0 0.0 0.0 0.0 0.07698792 
0.0 0.0 0.0 0.0 0.0 0.07698792 
0.26611736 0.0 0.14008996 0.0 0.0 0.07698792 
0.67474496 0.387483 0.36509687 0.0 0.0 0.0 
0.20080727 0.90520835 0.60112315 0.0 0.45015392 0.0 
0.0 0.3230384 0.2891039 0.0 0.50906414 0.03425853 
0.0 0.0 0.0 0.0 0.0 0.07698792 
0.0 0.0 0.0 0.0 0.0 0.07698792 
0.0 0.0 0.0 0.0 0.0 0.07698792 
0.0 0.0 0.0 0.0 0.0 0.07698792 
0.0 0.0 0.0 0.0 0.0 0.07698792 
0.0 0.0 0.0 0.0 0.0 0.07698792 
0.0 0.0 0.0 0.0 0.0 0.07698792 
0.0 0.0 0.0 0.0 0.0 0.07698792 
0.0 0.0 0.0 0.0 0.0 0.07698792 
0.15307179 0.0 0.11388413 0.0 0.0 0.07698792 
1.2077701 0.0 0.124287106 0.0 0.0 0.0 
1.2776582 1.3569523 0.39143574 0.43310085 1.3684464 0.0 
0.0 1.4896364 1.293842 0.66640806 1.569632 0.2795294 
0.0 0.5270517 1.0004966 0.48899665 0.6358478 0.20156905 
0.0 0.0 0.0 0.0 0.0 0.07698792 
0.0 0.0 0.0 0.0 0.0 0.07698792 
0.0 0.0 0.0 0.0 0.0 0.07698792 
0.0 0.0 0.0 0.0 0.0 0.07698792 
0.0 0.0 0.0 0.0 0.0 0.07698792 
0.0 0.0 0.0 0.0 0.0 0.07698792 
0.0 0.0 0.0 0.0 0.0 0.07698792 
0.0 0.0 0.0 0.0 0.0 0.07698792 
0.06359096 0.0 0.06885866 0.0 0.0 0.07698792 
1.062407 0.0 0.12408856 0.0 0.0 0.0 
1.401094 0.90320724 0.0 0.19001487 1.6801457 0.2811556 
0.81178486 1.3832024 0.0 0.3681945 2.3658206 0.7330376 
0.0 1.0142587 0.758506 0.35303348 1.4884427 0.61749566 
0.0 0.0817831 0.64372617 0.11464563 0.21600874 0.2609234 
0.0 0.0 0.0 0.0 0.0 0.07698792 
0.0 0.0 0.0 0.0 0.0 0.07698792 
0.0 0.0 0.0 0.0 0.0 0.07698792 
0.0 0.0 0.0 0.0 0.0 0.07698792 
0.0 0.0 0.0 0.0 0.0 0.07698792 
0.0 0.0 0.0 0.0 0.0 0.07698792 
0.0 0.0 0.0 0.0 0.0 0.07698792 
0.0 0.0 0.0 0.0 0.0 0.07698792 
0.82045215 0.0 0.09387713 0.0 0.0 0.03424763 
1.349855 0.57774395 0.0 0.16466686 1.2097205 0.24704653 
0.9908158 1.2623533 0.0 0.23187909 2.2643716 0.6092057 
0.0 0.95974094 0.52992004 0.16510233 1.8440408 0.70246 
0.3641026 0.4003763 0.5573268 0.0 0.23309694 0.16191587 
0.0 0.7596813 0.45783412 0.0 0.40595075 0.0 
0.0 0.1146559 0.04385572 0.0 0.20313822 0.07698792 
0.0 0.0 0.0 0.0 0.0 0.07698792 
0.0 0.0 0.0 0.0 0.0 0.07698792 
0.0 0.0 0.0 0.0 0.0 0.07698792 
0.0 0.0 0.0 0.0 0.0 0.07698792 
0.0 0.0 0.0 0.0 0.0 0.07698792 
0.0 0.0 0.0 0.0 0.0 0.07698792 
0.25281596 0.0 0.06624284 0.0 0.0 0.07698792 
1.4710774 0.0 0.033235423 0.03444722 0.4489139 0.34344134 
1.3924143 1.261286 0.0 0.09951142 1.9374149 0.29577756 
0.0 1.1485417 0.60534286 0.027951866 1.9698864 0.56635875 
1.1091716 0.017759431 0.59225744 0.0 0.36352327 0.34976572 
1.4219658 1.2620279 0.38167813 0.13234687 0.76201844 0.033539593 
0.0 1.5520291 1.5601002 0.23454426 1.2308259 0.0 
0.0 0.3359893 0.59516674 0.050733145 0.41693935 0.076587185 
0.0 0.0 0.0 0.0 0.0 0.07698792 
0.0 0.0 0.0 0.0 0.0 0.07698792 
0.0 0.0 0.0 0.0 0.0 0.07698792 
0.0 0.0 0.0 0.0 0.0 0.07698792 
0.0 0.0 0.0 0.0 0.0 0.07698792 
0.0 0.0 0.0 0.0 0.0 0.07698792 
0.90167224 0.0 0.017351173 0.14074385 0.0 0.47715336 
1.8005188 0.8694383 0.0 0.14260586 1.2231864 0.60519826 
0.10844186 1.6029767 0.99412036 0.0 1.7463683 0.17890733 
0.0091441795 0.47378364 0.9315922 0.0 0.9648244 0.39025262 
1.9090824 0.0 0.1246934 0.0 0.40687153 0.45038486 
1.6638508 1.6909826 0.0 0.097946525 1.9379245 0.2259954 
0.0 1.6037395 1.5857958 0.22110748 1.6554888 0.29713905 
0.0 0.27423048 0.74345624 0.19185463 0.30193776 0.13045074 
0.0 0.0 0.0 0.0 0.0 0.07698792 
0.0 0.0 0.0 0.0 0.0 0.07698792 
0.0 0.0 0.0 0.0 0.0 0.07698792 
0.0 0.0 0.0 0.0 0.0 0.07698792 
0.0 0.0 0.0 0.0 0.0 0.07698792 
0.0 0.0 0.0 0.0 0.0 0.07698792 
0.9809019 0.0 0.0 0.2712779 0.5222457 1.0256231 
1.7305119 0.6088754 0.0 0.4926649 0.9574134 1.3884304 
0.53429705 1.5586665 2.2318304 0.5962663 1.0908965 0.20306216 
0.709253 1.3214946 2.0953147 0.0 0.64535826 0.0 
1.9322343 1.0841694 0.137703 0.0 2.0396233 0.19317773 
0.60075736 1.6137178 0.6237399 0.022922453 2.3939962 0.20690477 
0.0 0.9972668 1.2080923 0.1264264 1.4870112 0.41096622 
0.0 0.0 0.2845793 0.018448852 0.06476575 0.11718956 
0.0 0.0 0.0 0.0 0.0 0.07698792 
0.0 0.0 0.0 0.0 0.0 0.07698792 
0.0 0.0 0.0 0.0 0.0 0.07698792 
0.0 0.0 0.0 0.0 0.0 0.07698792 
0.0 0.0 0.0 0.0 0.0 0.07698792 
0.0 0.0 0.0 0.0 0.0 0.07698792 
0.65573543 0.0 0.0 0.0 0.57817084 0.78245944 
1.0981369 0.0 0.0 0.4068093 1.1164651 1.436198 
0.7496574 0.5296034 0.92028505 1.4016422 1.3727897 1.6325502 
1.2215433 0.79090124 1.7670721 1.4593395 1.4127116 1.4817135 
1.141504 1.899946 0.27243692 1.0272566 2.5349355 0.95520216 
0.0 1.7545768 1.0828856 0.12742636 2.2963302 0.42010823 
0.0 0.25125077 0.9235131 0.11130087 0.76913124 0.35418183 
0.0 0.0 0.0 0.0 0.0 0.07932611 
0.0 0.0 0.0 0.0 0.0 0.07698792 
0.0 0.0 0.0 0.0 0.0 0.07698792 
0.0 0.0 0.0 0.0 0.0 0.07698792 
0.0 0.0 0.0 0.0 0.0 0.07698792 
0.0 0.0 0.0 0.0 0.0 0.07698792 
0.0 0.0 0.0 0.0 0.0 0.07698792 
0.041464932 0.0 0.0 0.0 0.116524294 0.15310968 
0.6208962 0.0 0.0 0.0 0.78919137 0.79396117 
0.7555511 0.0 0.0 0.0 1.1304389 1.4224114 
1.8418078 0.0 0.0 0.0 1.3258214 1.6411045 
0.8659989 1.6547343 0.27810273 0.0 2.1115115 0.7335189 
0.0 1.1878589 1.3243052 0.0 1.6634566 0.31374902 
0.0 0.0 0.45382154 0.04047308 0.12519157 0.15722519 
0.0 0.0 0.0 0.0 0.0 0.07698792 
0.0 0.0 0.0 0.0 0.0 0.07698792 
0.0 0.0 0.0 0.0 0.0 0.07698792 
0.0 0.0 0.0 0.0 0.0 0.07698792 
0.0 0.0 0.0 0.0 0.0 0.07698792 
0.0 0.0 0.0 0.0 0.0 0.07698792 
0.0 0.0 0.0 0.0 0.0 0.07698792 
0.0 0.0 0.0 0.0 0.0 0.07698792 
0.0 0.0 0.0 0.0 0.0 0.08070118 
0.89898694 0.0 0.0 0.14033026 0.0 0.5387652 
1.9051502 0.5190597 0.0 0.22539744 1.4480205 0.83847874 
0.18692702 1.5494447 1.1637588 0.22141606 1.7618111 0.042993158 
0.0 0.80433506 1.4750146 0.10900633 1.2279238 0.26293847 
0.0 0.0 0.0 0.0 0.0 0.079347014 
0.0 0.0 0.0 0.0 0.0 0.07698792 
0.0 0.0 0.0 0.0 0.0 0.07698792 
0.0 0.0 0.0 0.0 0.0 0.07698792 
0.0 0.0 0.0 0.0 0.0 0.07698792 
0.0 0.0 0.0 0.0 0.0 0.07698792 
0.0 0.0 0.0 0.0 0.0 0.07698792 
0.0 0.0 0.0 0.0 0.0 0.07698792 
0.0 0.0 0.0 0.0 0.0 0.07698792 
0.0 0.0 0.0 0.0 0.0 0.07698792 
0.89387155 0.0 0.0 0.24363239 0.58245116 0.912566 
1.568996 0.42349005 0.0 0.6643958 1.5923066 1.42412 
0.0 1.2106831 1.2218411 0.6880592 1.630445 0.8591895 
0.0 0.2984381 1.089689 0.20424455 0.70249015 0.3152816 
0.0 0.0 0.0 0.0 0.0 0.07698792 
0.0 0.0 0.0 0.0 0.0 0.07698792 
0.0 0.0 0.0 0.0 0.0 0.07698792 
0.0 0.0 0.0 0.0 0.0 0.07698792 
0.0 0.0 0.0 0.0 0.0 0.07698792 
0.0 0.0 0.0 0.0 0.0 0.07698792 
0.0 0.0 0.0 0.0 0.0 0.07698792 
0.0 0.0 0.0 0.0 0.0 0.07698792 
0.0 0.0 0.0 0.0 0.0 0.07698792 
0.0 0.0 0.0 0.0 0.0 0.07698792 
0.47216386 0.0 0.0 0.0 0.4811119 0.609302 
0.6776063 0.09978352 0.0 0.0 0.90902734 0.99960035 
0.0 0.041298956 0.32773098 0.0 0.45181486 0.62519526 
0.0 0.0 0.37151772 0.0 0.1250918 0.1776936 
0.0 0.0 0.0 0.0 0.0 0.07698792 
0.0 0.0 0.0 0.0 0.0 0.07698792 
0.0 0.0 0.0 0.0 0.0 0.07698792 
0.0 0.0 0.0 0.0 0.0 0.07698792 
0.0 0.0 0.0 0.0 0.0 0.07698792 
0.0 0.0 0.0 0.0 0.0 0.07698792 
0.0 0.0 0.0 0.0 0.0 0.07698792 
0.0 0.0 0.0 0.0 0.0 0.07698792 
0.0 0.0 0.0 0.0 0.0 0.07698792 
0.0 0.0 0.0 0.0 0.0 0.07698792 
0.0 0.0 0.0 0.0 0.0 0.07698792 
0.0 0.0 0.0 0.0 0.0 0.07698792 
0.0 0.0 0.0 0.0 0.0 0.07698792 
0.0 0.0 0.0 0.0 0.0 0.07698792 
0.0 0.0 0.0 0.0 0.0 0.07698792 
0.0 0.0 0.0 0.0 0.0 0.07698792 
0.0 0.0 0.0 0.0 0.0 0.07698792 
0.0 0.0 0.0 0.0 0.0 0.07698792 
0.0 0.0 0.0 0.0 0.0 0.07698792 

