0.0 0.0 0.0 0.0 0.0 0.07698792 
0.0 0.0 0.0 0.0 0.0 0.07698792 
0.0 0.0 0.0 0.0 0.0 0.07698792 
0.0 0.0 0.0 0.0 0.0 0.07698792 
0.0 0.0 0.0 0.0 0.0 0.07698792 
0.0 0.0 0.0 0.0 0.0 0.07698792 
0.0 0.0 0.0 0.0 0.0 0.07698792 
0.0 0.0 0.0 0.0 0.0 0.07698792 
0.0 0.0 0.0 0.0 0.0 0.07698792 
0.0 0.0 0.0 0.0 0.0 0.07698792 
0.0 0.0 0.0 0.0 0.0 0.07698792 
0.0 0.0 0.0 0.0 0.0 0.07698792 
0.0 0.0 0.0 0.0 0.0 0.07698792 
0.0 0.0 0.0 0.0 0.0 0.07698792 
0.0 0.0 0.0 0.0 0.0 0.07698792 
0.0 0.0 0.0 0.0 0.0 0.07698792 
0.0 0.0 0.0 0.0 0.0 0.07698792 
0.0 0.0 0.0 0.0 0.0 0.07698792 
0.0 0.0 0.0 0.0 0.0 0.07698792 
0.0 0.0 0.0 0.0 0.0 0.07698792 
0.28250533 0.0 0.10070632 0.0 0.0 0.07623371 
0.6215805 0.51097006 0.25259322 0.0 0.0 0.0 
0.0 0.8181072 0.48442578 0.0 0.45459852 0.0 
0.0 0.09281632 0.045269392 0.0 0.2163888 0.07698792 
0.0 0.0 0.0 0.0 0.0 0.07698792 
0.0 0.0 0.0 0.0 0.0 0.07698792 
0.0 0.0 0.0 0.0 0.0 0.07698792 
0.0 0.0 0.0 0.0 0.0 0.07698792 
0.0 0.0 0.0 0.0 0.0 0.07698792 
0.0 0.0 0.0 0.0 0.0 0.07698792 
0.0 0.0 0.0 0.0 0.0 0.07698792 
0.0 0.0 0.0 0.0 0.0 0.07698792 
0.0 0.0 0.0 0.0 0.0 0.07698792 
0.0 0.0 0.0 0.0 0.0 0.07698792 
0.9839645 0.0 0.012804493 0.21740697 0.0 0.506905 
1.5010695 1.1084025 0.46089345 0.3339925 0.6348821 0.35787576 
0.0 1.6378807 1.7455533 0.24858326 1.0697049 0.0 
0.0 0.47432694 0.7151843 0.0 0.58628553 0.050375223 
0.0 0.0 0.0 0.0 0.0 0.07698792 
0.0 0.0 0.0 0.0 0.0 0.07698792 
0.0 0.0 0.0 0.0 0.0 0.07698792 
0.0 0.0 0.0 0.0 0.0 0.07698792 
0.0 0.0 0.0 0.0 0.0 0.07698792 
0.0 0.0 0.0 0.0 0.0 0.07698792 
0.0 0.0 0.0 0.0 0.0 0.07698792 
0.0 0.0 0.0 0.0 0.0 0.07698792 
0.0 0.0 0.0 0.0 0.0 0.07698792 
0.0 0.0 0.0 0.0 0.0 0.07698792 
1.558485 0.0 0.0 0.09353571 0.202671 0.81528145 
1.9351003 1.2230062 0.0 0.20506485 1.3195819 0.7981122 
0.0 1.6884822 1.9166379 0.27175134 1.6197087 0.035252094 
0.0 0.46644422 1.0292119 0.08306411 0.64375836 0.088703215 
0.0 0.0 0.0 0.0 0.0 0.07698792 
0.0 0.0 0.0 0.0 0.0 0.07698792 
0.0 0.0 0.0 0.0 0.0 0.07698792 
0.0 0.0 0.0 0.0 0.0 0.07698792 
0.0 0.0 0.0 0.0 0.0 0.07698792 
0.0 0.0 0.0 0.0 0.0 0.07698792 
0.0 0.0 0.0 0.0 0.0 0.07698792 
0.0 0.0 0.0 0.0 0.0 0.07698792 
0.0 0.0 0.0 0.0 0.0 0.07698792 
0.0038759932 0.0 0.0 0.0 0.0 0.07698792 
1.8632588 0.0 0.0 0.0 0.2509667 0.6894952 
1.9526546 1.5725539 0.0 0.0 1.560855 0.5543256 
0.0 1.6922014 1.6668286 0.0 1.7597823 0.01896672 
0.0 0.23679636 0.8539572 0.0 0.5903304 0.08609063 
0.0 0.0 0.0 0.0 0.0 0.07698792 
0.0 0.0 0.0 0.0 0.0 0.07698792 
0.0 0.0 0.0 0.0 0.0 0.07698792 
0.0 0.0 0.0 0.0 0.0 0.07698792 
0.0 0.0 0.0 0.0 0.0 0.07698792 
0.0 0.0 0.0 0.0 0.0 0.07698792 
0.0 0.0 0.0 0.0 0.0 0.07698792 
0.0 0.0 0.0 0.0 0.0 0.07698792 
0.0 0.0 0.0 0.0 0.0 0.07698792 
0.28454548 0.0 0.024739876 0.0 0.0 0.1832253 
2.1504114 0.0 0.0 0.03797446 0.68975127 0.7238463 
1.7341535 1.7903636 0.068176396 0.038802292 2.049075 0.3116334 
0.0 1.740279 1.732856 0.046888854 1.8741518 0.06526998 
0.0 0.26586726 0.78416765 0.01964457 0.51436824 0.07698792 
0.0 0.0 0.0 0.0 0.0 0.07698792 
0.0 0.0 0.0 0.0 0.0 0.07698792 
0.0 0.0 0.0 0.0 0.0 0.07698792 
0.0 0.0 0.0 0.0 0.0 0.07698792 
0.0 0.0 0.0 0.0 0.0 0.07698792 
0.0 0.0 0.0 0.0 0.0 0.07698792 
0.0 0.0 0.0 0.0 0.0 0.07698792 
0.0 0.0 0.0 0.0 0.0 0.07698792 
0.0 0.0 0.0 0.0 0.0 0.07698792 
0.60992724 0.0 0.0 0.08448534 0.0 0.5041567 
2.1387382 0.0 0.0 0.10731241 1.0100713 0.96500254 
1.3658521 1.9472862 0.43986872 0.13712361 2.1998327 0.4357141 
0.0 1.5756 1.5342976 0.065111734 1.8565552 0.1507928 
0.0 0.19948609 0.7109042 0.104838744 0.31552652 0.08351031 
0.0 0.0 0.0 0.0 0.0 0.07698792 
0.0 0.0 0.0 0.0 0.0 0.07698792 
0.0 0.0 0.0 0.0 0.0 0.07698792 
0.0 0.0 0.0 0.0 0.0 0.07698792 
0.0 0.0 0.0 0.0 0.0 0.07698792 
0.0 0.0 0.0 0.0 0.0 0.07698792 
0.0 0.0 0.0 0.0 0.0 0.07698792 
0.0 0.0 0.0 0.0 0.0 0.07698792 
0.0 0.0 0.0 0.0 0.0 0.07698792 
0.785453 0.0 0.0 0.0032194378 0.04960433 0.5660444 
2.0924463 0.0 0.0 0.023504417 1.0715061 1.0224602 
1.103966 1.8349504 0.8787253 0.0 2.1324623 0.35425854 
0.0 1.3856997 1.7847103 0.0 1.6560713 0.026887171 
0.0 0.04107073 0.3345071 0.0 0.18196256 0.07698792 
0.0 0.0 0.0 0.0 0.0 0.07698792 
0.0 0.0 0.0 0.0 0.0 0.07698792 
0.0 0.0 0.0 0.0 0.0 0.07698792 
0.0 0.0 0.0 0.0 0.0 0.07698792 
0.0 0.0 0.0 0.0 0.0 0.07698792 
0.0 0.0 0.0 0.0 0.0 0.07698792 
0.0 0.0 0.0 0.0 0.0 0.07698792 
0.0 0.0 0.0 0.0 0.0 0.07698792 
0.0 0.0 0.0 0.0 0.0 0.07698792 
1.0042181 0.0 0.0 0.020270716 0.0 0.5844413 
2.0462399 0.18613781 0.0 0.05721971 1.3431818 0.86296207 
0.7011962 1.7907101 1.021473 1.2141652e-05 2.1270325 0.15487805 
0.0 1.2769864 1.7693709 0.08360459 1.5539256 0.0818485 
0.0 0.04574469 0.18089396 0.046561256 0.06136186 0.0933943 
0.0 0.0 0.0 0.0 0.0 0.07698792 
0.0 0.0 0.0 0.0 0.0 0.07698792 
0.0 0.0 0.0 0.0 0.0 0.07698792 
0.0 0.0 0.0 0.0 0.0 0.07698792 
0.0 0.0 0.0 0.0 0.0 0.07698792 
0.0 0.0 0.0 0.0 0.0 0.07698792 
0.0 0.0 0.0 0.0 0.0 0.07698792 
0.0 0.0 0.0 0.0 0.0 0.07698792 
0.0 0.0 0.0 0.0 0.0 0.07698792 
1.0759678 0.0 0.0 0.11541789 0.26338395 0.8972214 
2.0412366 0.30694807 0.0 0.15452328 1.382488 1.204881 
0.35933703 1.7881659 1.4078726 0.07159422 2.01702 0.15918253 
0.0 1.0535789 1.6487786 0.0 1.3479993 0.04451927 
0.0 0.0 0.04009317 0.00091487635 0.0 0.09064157 
0.0 0.0 0.0 0.0 0.0 0.07698792 
0.0 0.0 0.0 0.0 0.0 0.07698792 
0.0 0.0 0.0 0.0 0.0 0.07698792 
0.0 0.0 0.0 0.0 0.0 0.07698792 
0.0 0.0 0.0 0.0 0.0 0.07698792 
0.0 0.0 0.0 0.0 0.0 0.07698792 
0.0 0.0 0.0 0.0 0.0 0.07698792 
0.0 0.0 0.0 0.0 0.0 0.07698792 
0.0 0.0 0.0 0.0 0.0 0.07698792 
0.9826283 0.0 0.0 0.030388657 0.33562738 0.85649955 
1.9107625 0.07640611 0.0 0.19325984 1.2525767 1.3499074 
0.30753797 1.678131 1.4993546 0.35269818 1.7581546 0.5624354 
0.0 1.0512273 1.7577757 0.18206303 1.2510875 0.19133833 
0.0 0.0 0.0 0.0 0.0 0.07698792 
0.0 0.0 0.0 0.0 0.0 0.07698792 
0.0 0.0 0.0 0.0 0.0 0.07698792 
0.0 0.0 0.0 0.0 0.0 0.07698792 
0.0 0.0 0.0 0.0 0.0 0.07698792 
0.0 0.0 0.0 0.0 0.0 0.07698792 
0.0 0.0 0.0 0.0 0.0 0.07698792 
0.0 0.0 0.0 0.0 0.0 0.07698792 
0.0 0.0 0.0 0.0 0.0 0.07698792 
0.0 0.0 0.0 0.0 0.0 0.07698792 
0.5536568 0.0 0.0 0.022068534 0.37479421 0.64075154 
1.2685585 0.0 0.0 0.3758548 1.389815 1.3349969 
0.09254798 0.9045264 0.82069427 0.6635529 1.4988939 0.91115624 
0.0 0.4900469 1.347514 0.39098874 0.90951955 0.4291644 
0.0 0.0 0.0 0.0 0.0 0.07698792 
0.0 0.0 0.0 0.0 0.0 0.07698792 
0.0 0.0 0.0 0.0 0.0 0.07698792 
0.0 0.0 0.0 0.0 0.0 0.07698792 
0.0 0.0 0.0 0.0 0.0 0.07698792 
0.0 0.0 0.0 0.0 0.0 0.07698792 
0.0 0.0 0.0 0.0 0.0 0.07698792 
0.0 0.0 0.0 0.0 0.0 0.07698792 
0.0 0.0 0.0 0.0 0.0 0.07698792 
0.0 0.0 0.0 0.0 0.0 0.07698792 
0.12638788 0.0 0.0 0.0 0.20934008 0.2261259 
0.50369 0.0 0.0 0.0 0.7837421 0.70989823 
0.0 0.0 0.0 0.0 0.5035359 0.5236491 
0.0 0.0 0.28812838 0.0 0.21953495 0.2817978 
0.0 0.0 0.0 0.0 0.0 0.07698792 
0.0 0.0 0.0 0.0 0.0 0.07698792 
0.0 0.0 0.0 0.0 0.0 0.07698792 
0.0 0.0 0.0 0.0 0.0 0.07698792 
0.0 0.0 0.0 0.0 0.0 0.07698792 
0.0 0.0 0.0 0.0 0.0 0.07698792 
0.0 0.0 0.0 0.0 0.0 0.07698792 
0.0 0.0 0.0 0.0 0.0 0.07698792 
0.0 0.0 0.0 0.0 0.0 0.07698792 
0.0 0.0 0.0 0.0 0.0 0.07698792 
0.0 0.0 0.0 0.0 0.0 0.07698792 
0.0 0.0 0.0 0.0 0.0 0.07698792 
0.0 0.0 0.0 0.0 0.0 0.07698792 
0.0 0.0 0.0 0.0 0.0 0.07698792 
0.0 0.0 0.0 0.0 0.0 0.07698792 
0.0 0.0 0.0 0.0 0.0 0.07698792 
0.0 0.0 0.0 0.0 0.0 0.07698792 
0.0 0.0 0.0 0.0 0.0 0.07698792 
0.0 0.0 0.0 0.0 0.0 0.07698792 

