0.0 0.0 0.0 0.0 0.0 0.07698792 
0.0 0.0 0.0 0.0 0.0 0.07698792 
0.0 0.0 0.0 0.0 0.0 0.07698792 
0.0 0.0 0.0 0.0 0.0 0.07698792 
0.20707786 0.0 0.19050199 0.0 0.0 0.07698792 
0.36061883 0.3524647 0.42490366 0.0 0.0 0.07698792 
0.36105 0.6219719 0.5572784 0.0 0.0 0.07698792 
0.2729052 0.6530214 0.47678703 0.0 0.0 0.07698792 
0.0 0.4727271 0.2194458 0.0 0.082298756 0.07698792 
0.0 0.10030183 0.0 0.0 0.02613039 0.07698792 
0.0 0.0 0.0 0.0 0.0 0.07698792 
0.0 0.0 0.0 0.0 0.0 0.07698792 
0.0 0.0 0.0 0.0 0.0 0.07698792 
0.0 0.0 0.0 0.0 0.0 0.07698792 
0.0 0.0 0.0 0.0 0.0 0.07698792 
0.0 0.0 0.0 0.0 0.0 0.07698792 
0.0 0.0 0.0 0.0 0.0 0.07698792 
0.3223713 0.0 0.1318636 0.0 0.0 0.07057712 
1.1372108 0.0 0.25868067 0.0 0.0 0.0 
0.928322 0.752132 0.72015256 0.4046264 0.983098 0.0 
0.60497713 1.0428123 1.1989576 1.1598222 1.3149221 0.03777094 
0.36027282 1.253003 1.6572312 1.0454077 1.0360353 0.0 
0.0 1.5846119 1.7907717 0.0814623 0.9651571 0.0 
0.0 0.9203219 0.8861162 0.0 0.6732767 0.0 
0.0 0.08781756 0.0 0.0 0.0442005 0.07698792 
0.0 0.0 0.0 0.0 0.0 0.07698792 
0.0 0.0 0.0 0.0 0.0 0.07698792 
0.0 0.0 0.0 0.0 0.0 0.07698792 
0.0 0.0 0.0 0.0 0.0 0.07698792 
0.0 0.0 0.0 0.0 0.0 0.07698792 
0.023922272 0.0 0.045273602 0.0048979344 0.0 0.12216176 
0.8758585 0.0 0.07327706 0.43869856 0.02230217 0.5934811 
1.1839333 0.5926608 0.0 0.8680339 1.8413692 1.0189292 
0.45778346 1.1124972 0.12997425 1.2990088 2.179054 1.5753546 
0.40093774 0.91655016 0.33838558 1.8855938 1.7714373 1.8073404 
0.9007152 0.9396294 1.0424311 1.8359995 1.4237099 1.971658 
0.7838204 1.945205 2.1722193 1.07961 1.133306 0.75741476 
0.0 1.7967718 2.1722627 0.31601402 1.3187844 0.0 
0.0 0.38927186 0.48845124 0.0 0.5677327 0.06027594 
0.0 0.0 0.0 0.0 0.0 0.07698792 
0.0 0.0 0.0 0.0 0.0 0.07698792 
0.0 0.0 0.0 0.0 0.0 0.07698792 
0.0 0.0 0.0 0.0 0.0 0.07698792 
0.0 0.0 0.0 0.0 0.0 0.07698792 
0.08663684 0.0 0.0 0.09173212 0.000391718 0.23924145 
0.7053998 0.0 0.0 0.55389094 0.72069436 0.88781255 
0.6628839 0.42988712 0.0 0.61484313 1.58201 1.1625459 
0.0 0.3621893 0.08117641 0.033373915 1.4053525 1.0940604 
0.21203661 0.0 0.0 0.0 1.0853235 0.8359742 
1.257437 0.0 0.0 0.0 1.2108836 1.652103 
1.7508707 0.9242099 0.24256587 0.3661298 1.216621 1.3517125 
0.0 1.8464569 2.147896 0.44883305 1.3945144 0.0 
0.0 0.9587231 1.5257183 0.0 0.8817664 0.0 
0.0 0.00071451813 0.0 0.0 0.0 0.07698792 
0.0 0.0 0.0 0.0 0.0 0.07698792 
0.0 0.0 0.0 0.0 0.0 0.07698792 
0.0 0.0 0.0 0.0 0.0 0.07698792 
0.0 0.0 0.0 0.0 0.0 0.07698792 
0.051622845 0.0 0.0 0.0 0.13217147 0.15991732 
0.2247104 0.0 0.0 0.0 0.4783087 0.31641445 
0.07606301 0.0 0.0 0.0 0.37697712 0.31531408 
0.0 0.0 0.03611944 0.0 0.17351662 0.21642733 
0.0 0.0 0.0 0.0 0.0 0.07972751 
1.0047655 0.0 0.0 0.0 0.49792758 0.9767081 
1.7881331 0.08115589 0.0 0.057081368 0.928954 1.3484793 
0.5373635 1.7486173 1.9102528 0.19894552 1.5210987 0.07008497 
0.0 1.3259835 2.0558383 0.034661137 1.2683784 0.0 
0.0 0.020144261 0.0 0.0 0.0 0.07698792 
0.0 0.0 0.0 0.0 0.0 0.07698792 
0.0 0.0 0.0 0.0 0.0 0.07698792 
0.0 0.0 0.0 0.0 0.0 0.07698792 
0.0 0.0 0.0 0.0 0.0 0.07698792 
0.0 0.0 0.0 0.0 0.0 0.07698792 
0.0 0.0 0.0 0.0 0.0 0.07698792 
0.0 0.0 0.0 0.0 0.0 0.07698792 
0.0 0.0 0.0 0.0 0.0 0.07698792 
0.0 0.0 0.0 0.0 0.0 0.07698792 
0.5179341 0.0 0.0 0.0 0.20192523 0.5092074 
2.044049 0.0 0.0 0.0 0.8378454 1.1134026 
0.88268495 1.6802608 1.1313714 0.08021456 1.6369861 0.22011341 
0.0 1.3711016 2.0418234 0.041123472 1.4634424 0.0 
0.0 0.040010013 0.04950294 0.0 0.011318702 0.07698792 
0.0 0.0 0.0 0.0 0.0 0.07698792 
0.0 0.0 0.0 0.0 0.0 0.07698792 
0.0 0.0 0.0 0.0 0.0 0.07698792 
0.0 0.0 0.0 0.0 0.0 0.07698792 
0.0 0.0 0.0 0.0 0.0 0.07698792 
0.041444786 0.0 0.07490476 0.0 0.0 0.07698792 
0.4563945 0.10735492 0.29373968 0.0 0.0 0.058132634 
0.7439575 0.544182 0.61481833 0.0 0.0 0.0 
0.69492924 0.9576251 0.92261213 0.0 0.0 0.0 
0.545662 1.0267335 1.0222042 0.0 0.30637833 0.0 
1.9769104 0.49736688 0.04207108 0.0 1.5991037 0.6445947 
0.7618006 1.5998027 0.5593384 0.03223839 1.8669398 0.094257176 
0.0 1.1621914 1.7948587 0.19381818 1.4651963 0.31700468 
0.0 0.015237889 0.047579624 0.019986238 0.0 0.08405417 
0.0 0.0 0.0 0.0 0.0 0.07698792 
0.0 0.0 0.0 0.0 0.0 0.07698792 
0.0 0.0 0.0 0.0 0.0 0.07698792 
0.0 0.0 0.0 0.0 0.0 0.07698792 
0.0 0.0 0.0 0.0 0.0 0.07698792 
0.76920015 0.0 0.1209651 0.0 0.0 0.05159203 
1.1860437 0.39806166 0.251476 0.09109495 0.4330171 0.0 
0.87145567 1.0132948 0.62000763 1.0801924 1.8332999 0.5778057 
0.5959763 0.7276541 1.1284219 1.6319172 1.6061171 1.166848 
0.9397395 1.2039173 1.436062 1.5229415 1.1576353 0.78105515 
1.2089133 1.9980569 1.0936706 0.7448761 2.4624958 0.2643942 
0.0 2.013483 1.2402784 0.0 2.2232518 0.0023611784 
0.0 0.58704203 1.2391808 0.10279402 1.1289252 0.2761928 
0.0 0.0 0.0 0.0 0.0 0.08342045 
0.0 0.0 0.0 0.0 0.0 0.07698792 
0.0 0.0 0.0 0.0 0.0 0.07698792 
0.0 0.0 0.0 0.0 0.0 0.07698792 
0.0 0.0 0.0 0.0 0.0 0.07698792 
0.19228783 0.0 0.032107107 0.0 0.0 0.12954015 
1.7695131 0.0 0.06874258 0.15197751 0.19085652 0.36306712 
1.513119 1.5136442 0.0 0.3097683 2.306845 0.22955862 
0.0 1.463595 0.008755766 0.56038326 2.3662078 1.2510877 
1.3803067 0.36291686 0.0 0.48752555 1.6886613 1.7299912 
1.8235605 0.5388605 0.0 0.3973133 1.8503355 1.3738058 
1.2476156 1.9893988 0.84509367 0.37454876 2.469513 0.8487932 
0.0 2.1136067 2.0624344 0.0 2.0697606 0.0 
0.0 0.9419973 1.5744522 0.0 0.9015302 0.008917496 
0.0 0.06692652 0.0 0.0 0.0144740455 0.07698792 
0.0 0.0 0.0 0.0 0.0 0.07698792 
0.0 0.0 0.0 0.0 0.0 0.07698792 
0.0 0.0 0.0 0.0 0.0 0.07698792 
0.0 0.0 0.0 0.0 0.0 0.07698792 
0.45382756 0.0 0.0 0.09113327 0.0 0.4509474 
2.0260665 0.0 0.0 0.22540429 0.92721117 0.9834946 
1.1833494 1.7118993 0.9274648 0.10703467 1.9642378 0.2036791 
0.22323477 1.3855766 2.0179498 0.0 1.517799 0.0 
1.7659004 0.61068106 0.5640746 0.0 1.2895383 0.0 
1.7196412 1.0419531 0.0 0.47573557 2.7315235 1.0661349 
0.7589261 0.978244 0.2180849 0.7583704 2.6822581 1.8135996 
0.38484704 1.7053211 2.084106 0.7289457 1.557384 0.7049799 
0.0 1.4334975 2.101023 0.41204628 1.3545339 0.0 
0.0 0.16981052 0.2579136 0.0 0.2811095 0.07698792 
0.0 0.0 0.0 0.0 0.0 0.07698792 
0.0 0.0 0.0 0.0 0.0 0.07698792 
0.0 0.0 0.0 0.0 0.0 0.07698792 
0.0 0.0 0.0 0.0 0.0 0.07698792 
0.43429136 0.0 0.0 0.061037015 0.2280149 0.52108634 
1.8193452 0.0 0.0 0.34315458 1.0892094 1.5194542 
1.2431953 1.1514633 0.8718374 1.2782091 1.5037745 1.4427736 
0.23506612 1.0756305 1.924371 1.7151909 2.267723 1.2229507 
0.6304644 1.1201812 0.41209355 1.3857188 2.4213912 1.334943 
0.0 1.2735814 0.0 0.76805216 2.5865924 1.3102298 
0.74746513 0.020698663 0.0 0.35207915 1.9473327 1.8950961 
0.5434604 0.871683 0.25392544 0.88572586 1.4588821 1.4368701 
0.0 1.215272 1.627362 0.96501607 1.1889845 0.70201105 
0.0 0.23539478 0.4667297 0.17248449 0.17967948 0.12013982 
0.0 0.0 0.0 0.0 0.0 0.07698792 
0.0 0.0 0.0 0.0 0.0 0.07698792 
0.0 0.0 0.0 0.0 0.0 0.07698792 
0.0 0.0 0.0 0.0 0.0 0.07698792 
0.15674755 0.0 0.0 0.0 0.18345453 0.27697366 
1.0465991 0.0 0.0 0.0 1.1255584 1.4224579 
0.8965773 0.019246385 0.0 0.67473257 1.741072 1.7038159 
0.21561971 0.627454 0.0 0.9961057 2.0757377 1.8100708 
0.013423897 0.6079961 0.0 0.46054175 1.836838 1.5076225 
0.0 0.1253972 0.058024712 0.0 0.8174125 0.75396115 
0.5105525 0.0 0.0 0.0 0.79963475 0.7726343 
0.44117683 0.024416089 0.0 0.0 0.88547707 0.8810023 
0.0 0.0 0.45118362 0.0 0.39355806 0.5305611 
0.0 0.0 0.19167134 0.0027223863 0.027635034 0.111487165 
0.0 0.0 0.0 0.0 0.0 0.07698792 
0.0 0.0 0.0 0.0 0.0 0.07698792 
0.0 0.0 0.0 0.0 0.0 0.07698792 
0.0 0.0 0.0 0.0 0.0 0.07698792 
0.0 0.0 0.0 0.0 0.0 0.0776068 
0.2312738 0.0 0.0 0.0 0.39953345 0.28939843 
0.33108473 0.0 0.0 0.0 0.62977093 0.40876865 
0.053941026 0.0 0.0 0.0 0.6338776 0.43454593 
0.0 0.0 0.0 0.0 0.27696583 0.23079823 
0.0 0.0 0.0 0.0 0.027824406 0.10928194 
0.0 0.0 0.0 0.0 0.0 0.080082305 
0.0 0.0 0.0 0.0 0.0 0.08047969 
0.0 0.0 0.0 0.0 0.0 0.08001972 
0.0 0.0 0.0 0.0 0.0 0.07706402 
0.0 0.0 0.0 0.0 0.0 0.07698792 
0.0 0.0 0.0 0.0 0.0 0.07698792 
0.0 0.0 0.0 0.0 0.0 0.07698792 
0.0 0.0 0.0 0.0 0.0 0.07698792 
0.0 0.0 0.0 0.0 0.0 0.07698792 
0.0 0.0 0.0 0.0 0.0 0.07698792 
0.0 0.0 0.0 0.0 0.0 0.07698792 
0.0 0.0 0.0 0.0 0.0 0.07698792 
0.0 0.0 0.0 0.0 0.0 0.07698792 
0.0 0.0 0.0 0.0 0.0 0.07698792 
0.0 0.0 0.0 0.0 0.0 0.07698792 
0.0 0.0 0.0 0.0 0.0 0.07698792 
0.0 0.0 0.0 0.0 0.0 0.07698792 
0.0 0.0 0.0 0.0 0.0 0.07698792 
0.0 0.0 0.0 0.0 0.0 0.07698792 
0.0 0.0 0.0 0.0 0.0 0.07698792 

