0.0 0.0 0.0 0.0 0.0 0.07698792 
0.0 0.0 0.0 0.0 0.0 0.07698792 
0.0 0.0 0.0 0.0 0.0 0.07698792 
0.0 0.0 0.0 0.0 0.0 0.07698792 
0.0 0.0 0.0 0.0 0.0 0.07698792 
0.0 0.0 0.0 0.0 0.0 0.07698792 
0.0 0.0 0.0 0.0 0.0 0.07698792 
0.0 0.0 0.0 0.0 0.0 0.07698792 
0.0 0.0 0.0 0.0 0.0 0.07698792 
0.0 0.0 0.0 0.0 0.0 0.07698792 
0.0 0.0 0.0 0.0 0.0 0.07698792 
0.0 0.0 0.0 0.0 0.0 0.07698792 
0.0 0.0 0.0 0.0 0.0 0.07698792 
0.0 0.0 0.0 0.0 0.0 0.07698792 
0.0 0.0 0.0 0.0 0.0 0.07698792 
0.0 0.0 0.0 0.0 0.0 0.07698792 
0.0 0.0 0.0 0.0 0.0 0.07698792 
0.0 0.0 0.0 0.0 0.0 0.07698792 
0.0 0.0 0.0011522733 0.0 0.0 0.07698792 
0.33127892 0.08748286 0.22579557 0.0 0.0 0.07698792 
0.65873224 0.3400777 0.45183516 0.0 0.0 0.0 
0.7392759 1.0405093 0.63701093 0.0 0.14512761 0.0 
0.0 1.0369554 0.6371321 0.0 0.5139936 0.0 
0.0 0.12709875 0.08420356 0.0 0.3268241 0.07698792 
0.0 0.0 0.0 0.0 0.0 0.07698792 
0.0 0.0 0.0 0.0 0.0 0.07698792 
0.0 0.0 0.0 0.0 0.0 0.07698792 
0.0 0.0 0.0 0.0 0.0 0.07698792 
0.0 0.0 0.0 0.0 0.0 0.07698792 
0.0 0.0 0.0 0.0 0.0 0.07698792 
0.008976921 0.0 0.03624233 0.0 0.0 0.07698792 
0.45986146 0.09517181 0.27026945 0.0 0.0 0.056217972 
0.8327244 0.390132 0.52420694 0.0 0.0 0.0 
1.0053992 0.5565471 0.4957497 0.0 0.34031156 0.0 
1.026186 0.93914455 0.71964663 0.72519493 1.4467303 0.062867835 
0.63285005 1.6130539 1.1322292 1.1969205 1.7963434 0.48236346 
0.0 1.4429919 1.5250787 1.0704396 1.4180884 0.25838977 
0.0 0.3629648 0.72003067 0.2672737 0.4751052 0.07698792 
0.0 0.0 0.0 0.0 0.0 0.07698792 
0.0 0.0 0.0 0.0 0.0 0.07698792 
0.0 0.0 0.0 0.0 0.0 0.07698792 
0.0 0.0 0.0 0.0 0.0 0.07698792 
0.0 0.0 0.0 0.0 0.0 0.07698792 
0.0 0.0 0.0 0.0 0.0 0.07698792 
0.4756168 0.0 0.067018315 0.0 0.0 0.08874896 
1.414285 0.048371706 0.29413372 0.08746207 0.008309621 0.029304862 
1.1395223 1.2785138 0.63259363 0.7300032 1.9015115 0.1444975 
0.5451141 1.4120134 0.5432531 1.0094498 2.5197875 1.2385046 
0.22101942 1.055913 0.10384432 1.3752573 2.3552737 1.6316803 
0.049554363 1.0973734 0.025562003 1.3471214 2.2647398 1.5355632 
0.0 0.78298306 1.0740012 0.65292627 1.068312 0.68676656 
0.0 0.18656553 0.697827 0.22802699 0.13801841 0.14779863 
0.0 0.0 0.0 0.0 0.0 0.07698792 
0.0 0.0 0.0 0.0 0.0 0.07698792 
0.0 0.0 0.0 0.0 0.0 0.07698792 
0.0 0.0 0.0 0.0 0.0 0.07698792 
0.0 0.0 0.0 0.0 0.0 0.07698792 
0.0 0.0 0.0 0.0 0.0 0.07698792 
0.88839173 0.0 0.0 0.24137554 0.055471886 0.7654847 
1.8232279 0.43049932 0.0 0.40489867 1.3895377 1.1186996 
0.8958446 1.7449712 0.22183985 0.54410213 2.6516147 0.62948054 
0.0 1.3711165 0.36379582 0.38170722 2.579992 1.2822378 
0.0 0.16537769 0.0 0.0 1.4116794 1.1857388 
0.0 0.0 0.0 0.0 0.83523345 0.6570075 
0.0 0.0 0.0 0.0 0.27507338 0.2543711 
0.0 0.0 0.021090172 0.0 0.0038997605 0.08703308 
0.0 0.0 0.0 0.0 0.0 0.07698792 
0.0 0.0 0.0 0.0 0.0 0.07698792 
0.0 0.0 0.0 0.0 0.0 0.07698792 
0.0 0.0 0.0 0.0 0.0 0.07698792 
0.0 0.0 0.0 0.0 0.0 0.07698792 
0.0 0.0 0.0 0.0 0.0 0.07698792 
0.8317148 0.0 0.0 0.1815234 0.5288189 0.9210077 
1.6320901 0.0 0.0 0.29105738 1.2568963 1.4606359 
0.9046899 1.5376135 1.1586434 0.6799416 1.5742136 1.0036535 
0.0 1.3179849 1.986647 0.3659931 1.1535343 0.0 
0.3551197 1.005717 1.2380764 0.0 0.3587325 0.0 
0.42254573 1.05957 1.1112756 0.0 0.28498366 0.0 
0.16636433 1.1545366 1.0799019 0.0 0.31679627 0.0 
0.0061286837 0.9140547 0.8113451 0.0 0.34106913 0.0 
0.0 0.5882226 0.3908812 0.0 0.29872087 0.028005447 
0.0 0.06692652 0.0 0.0 0.0144740455 0.07698792 
0.0 0.0 0.0 0.0 0.0 0.07698792 
0.0 0.0 0.0 0.0 0.0 0.07698792 
0.0 0.0 0.0 0.0 0.0 0.07698792 
0.0 0.0 0.0 0.0 0.0 0.07698792 
0.315064 0.0 0.0 0.0 0.38556919 0.3980522 
1.0099418 0.0 0.0 0.031239543 1.1261739 1.4007401 
0.70312715 0.0 0.0 0.98376083 1.239155 1.6258373 
0.18040168 0.59172636 1.2805125 1.6286005 1.2781249 1.5692599 
0.26852322 0.6536539 1.1649188 1.6042585 1.2426516 1.5703809 
0.4482091 0.814267 1.3148347 1.7699405 1.140525 1.5954359 
0.4229686 1.188693 1.6812992 1.8640877 1.1548963 1.1536124 
0.23718762 1.4891269 1.818467 1.4198003 1.0843151 0.26456982 
0.0 1.7343365 1.8844509 0.20061661 1.0121703 0.0 
0.0 0.70819277 0.68362325 0.0 0.6110944 0.0069765896 
0.0 0.01119813 0.0 0.0 0.0 0.07698792 
0.0 0.0 0.0 0.0 0.0 0.07698792 
0.0 0.0 0.0 0.0 0.0 0.07698792 
0.0 0.0 0.0 0.0 0.0 0.07698792 
0.0 0.0 0.0 0.0 0.0 0.08998432 
0.35700986 0.0 0.0 0.0 0.553103 0.42583477 
0.5549428 0.0 0.0 0.0 1.0758007 1.0184715 
0.3927963 0.0 0.0 0.0 1.33454 1.315856 
0.4178847 0.0 0.0 0.0 1.4400586 1.5658774 
0.56652915 0.0 0.0 0.12449767 1.5834287 1.8059447 
0.6164707 0.06021761 0.0 1.0020155 1.618409 1.8442571 
1.1608956 0.8178105 0.8610691 1.2301515 1.2267896 1.7689121 
0.534501 1.8881044 2.1423752 0.7712763 1.2198281 0.16523474 
0.0 1.7112683 2.1407712 0.008535025 1.3045405 0.0 
0.0 0.12407035 0.14141715 0.0 0.32188696 0.07698792 
0.0 0.0 0.0 0.0 0.0 0.07698792 
0.0 0.0 0.0 0.0 0.0 0.07698792 
0.0 0.0 0.0 0.0 0.0 0.07698792 
0.0 0.0 0.0 0.0 0.0 0.07698792 
0.0 0.0 0.0 0.0 0.0 0.07698792 
0.0 0.0 0.0 0.0 0.0 0.07698792 
0.0 0.0 0.0 0.0 0.0 0.07698792 
0.008576669 0.0 0.0 0.0 0.063678294 0.13299426 
0.22770119 0.0 0.058972865 0.0 0.45567998 0.31923646 
0.68233794 0.0 0.1501489 0.0 0.7218649 0.63147324 
2.0732565 0.001761782 0.0 0.0 0.9727035 1.0860586 
1.0679362 1.6138407 0.9775331 0.17952177 2.0400999 0.3181815 
0.0 1.6415673 2.1139283 0.39851883 1.7648797 0.22007357 
0.0 0.27502984 0.606714 0.23150948 0.3492521 0.09120338 
0.0 0.0 0.0 0.0 0.0 0.07698792 
0.0 0.0 0.0 0.0 0.0 0.07698792 
0.0 0.0 0.0 0.0 0.0 0.07698792 
0.0 0.0 0.0 0.0 0.0 0.07698792 
0.0 0.0 0.0015408657 0.0 0.0 0.07698792 
0.06199354 0.061305627 0.07959754 0.0 0.0 0.07698792 
0.2885998 0.24498037 0.30094033 0.0 0.0 0.07698792 
0.43762523 0.37034604 0.4435863 0.0 0.0 0.06492054 
0.8930528 0.41796196 0.48366874 0.0 0.0 0.0 
1.1105247 0.54191786 0.3390867 0.0 0.79066783 0.0 
1.5582244 0.9664337 0.0 0.80683213 2.5590265 0.97457856 
0.3299698 1.3587148 0.021886818 0.63413644 2.4720006 0.96567565 
0.0 0.8604402 1.1193275 0.35632497 1.4811237 0.60696083 
0.0 0.06445139 0.47763568 0.11596836 0.0965174 0.1329348 
0.0 0.0 0.0 0.0 0.0 0.07698792 
0.0 0.0 0.0 0.0 0.0 0.07698792 
0.0 0.0 0.0 0.0 0.0 0.07698792 
0.0 0.0 0.0 0.0 0.0 0.07698792 
0.5207255 0.0 0.15386778 0.0 0.0 0.081010796 
1.035573 0.3773049 0.49855447 0.0 0.0 0.0 
0.88079137 0.91785914 0.9923972 0.0 0.7064424 0.0 
0.7476291 0.9357122 0.93261564 0.48068395 1.3218123 0.0 
0.65037173 1.0439894 0.7805704 1.2124404 2.0564735 0.70176536 
0.49075657 1.1543189 0.31381488 1.1243618 2.334129 1.2786026 
0.0 1.0083289 0.0 0.9702968 2.3603055 1.3361435 
0.0 0.7364694 0.09316092 0.32951647 1.3744801 1.0597212 
0.0 0.0008770032 0.38840732 0.0 0.35340846 0.4204045 
0.0 0.0 0.0 0.0 0.0 0.082391 
0.0 0.0 0.0 0.0 0.0 0.07698792 
0.0 0.0 0.0 0.0 0.0 0.07698792 
0.0 0.0 0.0 0.0 0.0 0.07698792 
0.0 0.0 0.0 0.0 0.0 0.07698792 
0.6421426 0.0 0.0 0.32504925 0.3488739 0.8612973 
0.9761837 0.066351205 0.0 1.1627909 1.2659551 1.4035561 
0.6766406 1.010657 0.7029056 1.7119645 2.058174 1.7750826 
0.13753939 1.1996784 0.5321993 1.6960953 2.1242974 1.6806345 
0.0 1.0316298 0.22867835 1.441927 2.2294886 1.4739761 
0.0 0.6764468 0.0 0.4473888 1.7976116 1.2586794 
0.0 0.0 0.0449666 0.0 0.7757047 0.6620363 
0.0 0.0 0.010137431 0.0 0.21664388 0.22725943 
0.0 0.0 0.0 0.0 0.0 0.0817061 
0.0 0.0 0.0 0.0 0.0 0.07698792 
0.0 0.0 0.0 0.0 0.0 0.07698792 
0.0 0.0 0.0 0.0 0.0 0.07698792 
0.0 0.0 0.0 0.0 0.0 0.07698792 
0.0 0.0 0.0 0.0 0.0 0.07698792 
0.5290323 0.0 0.0 0.0 0.5525448 0.68051326 
0.73466283 0.0 0.0 0.0 1.2234788 1.364685 
0.5063542 0.015735045 0.0 0.0 1.4699609 1.6287878 
0.0 0.0 0.0 0.0 1.2913171 1.2589252 
0.0 0.0 0.0 0.0 0.8496582 0.67850286 
0.0 0.0 0.0 0.0 0.27507338 0.2543711 
0.0 0.0 0.021090172 0.0 0.0038997605 0.08703308 
0.0 0.0 0.0 0.0 0.0 0.07698792 
0.0 0.0 0.0 0.0 0.0 0.07698792 
0.0 0.0 0.0 0.0 0.0 0.07698792 
0.0 0.0 0.0 0.0 0.0 0.07698792 
0.0 0.0 0.0 0.0 0.0 0.07698792 
0.0 0.0 0.0 0.0 0.0 0.07698792 
0.0 0.0 0.0 0.0 0.0 0.07698792 
0.0 0.0 0.0 0.0 0.0 0.07698792 
0.0 0.0 0.0 0.0 0.0 0.07698792 
0.0 0.0 0.0 0.0 0.0 0.07698792 
0.0 0.0 0.0 0.0 0.0 0.07698792 
0.0 0.0 0.0 0.0 0.0 0.07698792 
0.0 0.0 0.0 0.0 0.0 0.07698792 
0.0 0.0 0.0 0.0 0.0 0.07698792 
0.0 0.0 0.0 0.0 0.0 0.07698792 
0.0 0.0 0.0 0.0 0.0 0.07698792 
0.0 0.0 0.0 0.0 0.0 0.07698792 
0.0 0.0 0.0 0.0 0.0 0.07698792 

