0.0 0.0 0.0 0.0 0.0 0.07698792 
0.0 0.0 0.0 0.0 0.0 0.07698792 
0.0 0.0 0.0 0.0 0.0 0.07698792 
0.0 0.0 0.0 0.0 0.0 0.07698792 
0.0 0.0 0.0 0.0 0.0 0.07698792 
0.0 0.0 0.0 0.0 0.0 0.07698792 
0.0 0.0 0.0 0.0 0.0 0.07698792 
0.0 0.0 0.0 0.0 0.0 0.07698792 
0.0 0.0 0.0 0.0 0.0 0.07698792 
0.0 0.0 0.0 0.0 0.0 0.07698792 
0.0 0.0 0.0 0.0 0.0 0.07698792 
0.0 0.0 0.0 0.0 0.0 0.07698792 
0.0 0.0 0.0 0.0 0.0 0.07698792 
0.0 0.0 0.0 0.0 0.0 0.07698792 
0.0 0.0 0.0 0.0 0.0 0.07698792 
0.0 0.0 0.0 0.0 0.0 0.07698792 
0.0 0.0 0.0 0.0 0.0 0.07698792 
0.0 0.0 0.0 0.0 0.0 0.07698792 
0.0 0.0 0.0 0.0 0.0 0.07698792 
0.0 0.0 0.0 0.0 0.0 0.07698792 
0.0 0.0 0.0 0.0 0.0 0.07698792 
0.0 0.0 0.0 0.0 0.0 0.07698792 
0.0 0.0 0.0 0.0 0.0 0.07698792 
0.0 0.0 0.0 0.0 0.0 0.07698792 
0.0 0.0 0.0 0.0 0.0 0.07698792 
0.0 0.0 0.0 0.0 0.0 0.07698792 
0.0 0.0 0.0 0.0 0.0 0.07698792 
0.0 0.0 0.0 0.0 0.0 0.07698792 
0.0 0.0 0.0 0.0 0.0 0.07698792 
0.0 0.0 0.0 0.0 0.0 0.07698792 
0.0 0.0 0.0 0.0 0.0 0.07698792 
0.0 0.0 0.0 0.0 0.0 0.07698792 
0.0 0.0 0.0 0.0 0.0 0.07698792 
0.08424267 0.022503585 0.08459281 0.0 0.0 0.07698792 
0.14136833 0.20214082 0.19767082 0.0 0.0 0.07698792 
0.0971439 0.29521838 0.18458578 0.0 0.0 0.07698792 
0.0 0.22316197 0.10231092 0.0 0.0 0.07698792 
0.12761977 0.12007438 0.14132103 0.0 0.0 0.07698792 
0.13969466 0.2624525 0.23092824 0.0 0.0 0.07698792 
0.108632505 0.31690988 0.21601337 0.0 0.0 0.07698792 
0.0 0.22907168 0.08071048 0.0 0.012875501 0.07698792 
0.0 0.04167618 0.0 0.0 0.0 0.07698792 
0.0 0.0 0.0 0.0 0.0 0.07698792 
0.0 0.0 0.0 0.0 0.0 0.07698792 
0.0 0.0 0.0 0.0 0.0 0.07698792 
0.010855146 0.0 0.034915358 0.0 0.0 0.07698792 
0.7210484 0.014850906 0.21589965 0.0 0.0 0.006048344 
0.8761372 0.5627101 0.436628 0.0 0.07038225 0.0 
0.6127928 0.7473009 0.69456935 0.26296008 0.8122759 0.0 
0.41076466 0.92061317 1.0120882 0.526316 0.7553121 0.0 
0.33588225 0.8608497 1.1082166 0.16163008 0.49156186 0.0 
0.5997692 0.7876203 0.9953892 0.0 0.36899313 0.0 
0.56199616 1.0594138 1.2669657 0.0 0.62129253 0.0 
0.38114777 1.5253587 1.3583951 0.0 1.026813 0.0 
0.0 1.4151274 1.1616185 0.0 1.0689461 0.0 
0.0 0.16819829 0.2600726 0.0 0.4561449 0.07698792 
0.0 0.0 0.0 0.0 0.0 0.07698792 
0.0 0.0 0.0 0.0 0.0 0.07698792 
0.0 0.0 0.0 0.0 0.0 0.07698792 
0.11492011 0.0 0.0 0.060062002 0.0 0.23165023 
1.3823235 0.0 0.04171194 0.70455223 0.2468151 0.8260532 
1.204968 1.7043078 0.50276744 0.83202785 1.5473944 0.53136533 
0.0 1.7656142 0.6852667 1.188524 1.7886413 0.7788938 
0.30703968 0.6495277 0.5703226 1.5929669 1.186426 1.351371 
0.9517966 0.35842147 0.9566932 1.5819993 0.8733116 1.2870276 
1.3009133 1.1186072 1.045155 1.2759181 1.4079432 0.83499444 
0.8907851 1.552395 1.3233937 0.89857036 2.4989235 0.9087835 
0.20915243 1.9097263 1.5980421 1.0943364 2.6316488 1.0715127 
0.0 1.6423111 1.6369547 0.84348494 1.5249459 0.5053014 
0.0 0.30846483 0.7263515 0.2947657 0.35654083 0.1364449 
0.0 0.0 0.0 0.0 0.0 0.07698792 
0.0 0.0 0.0 0.0 0.0 0.07698792 
0.0 0.0 0.0 0.0 0.0 0.07698792 
0.13441649 0.0 0.0 0.115755856 0.1357825 0.29835188 
1.2756097 0.0 0.0 0.40074432 0.9660755 1.3778739 
1.1558049 0.6529843 0.0 0.3746011 1.3769889 1.2877493 
0.3480442 1.1449437 1.9442457 0.57405233 1.5441092 0.13485165 
0.6637581 1.1056249 1.42795 0.0 1.3393396 0.0 
1.4149091 0.38634586 0.0 0.0 1.7279004 0.5291467 
1.3373103 0.46420968 0.0 0.44047213 2.7124517 1.3597369 
0.27673414 0.814512 0.0 0.8075721 2.9966736 1.6711185 
0.0 0.81293666 0.0 0.6073895 2.6972158 1.5430765 
0.0 0.38448572 0.6432462 0.122303754 0.8731704 0.68999267 
0.0 0.0 0.41468292 0.027720727 0.09691858 0.14034231 
0.0 0.0 0.0 0.0 0.0 0.07698792 
0.0 0.0 0.0 0.0 0.0 0.07698792 
0.0 0.0 0.0 0.0 0.0 0.07698792 
0.0 0.0 0.0 0.0 0.04540084 0.12216587 
0.64639056 0.0 0.0 0.0 0.7008424 0.782367 
1.5132339 0.0 0.0 0.01853789 0.73080844 1.1432648 
1.5117109 0.721368 1.3512688 0.60884064 1.202563 0.6932433 
0.6516964 1.5985782 1.9194462 1.0556875 2.079221 0.62741846 
0.2010628 1.9877659 0.84976786 0.6489833 2.2979517 0.31676435 
0.0 1.1110759 0.1195445 0.443925 2.2818997 1.292656 
0.0 0.27693966 0.0 0.0 1.3028191 1.1888866 
0.0 0.0 0.0 0.0 0.56271344 0.53756064 
0.0 0.0 0.042562656 0.0 0.13873553 0.17996886 
0.0 0.0 0.0 0.0 0.0 0.07774892 
0.0 0.0 0.0 0.0 0.0 0.07698792 
0.0 0.0 0.0 0.0 0.0 0.07698792 
0.0 0.0 0.0 0.0 0.0 0.07698792 
0.08493452 0.0 0.101010434 0.0 0.0 0.07698792 
0.8195082 0.0 0.1595976 0.0 0.0 0.0 
1.6238439 0.49356213 0.0 0.12541354 1.2591586 0.24668153 
1.4654841 0.868837 0.0 0.47626814 2.427142 1.2968535 
0.6087188 0.4345876 0.0 0.7686627 2.5967605 1.9504673 
0.26217312 1.3875799 0.9306265 0.45819977 1.9136466 0.6505659 
0.0 1.1387174 1.7413135 0.2854487 1.1893356 0.0 
0.0 0.042642064 0.041335426 0.0 0.12643205 0.0831151 
0.0 0.0 0.0 0.0 0.0 0.07736842 
0.0 0.0 0.0 0.0 0.0 0.07698792 
0.0 0.0 0.0 0.0 0.0 0.07698792 
0.0 0.0 0.0 0.0 0.0 0.07698792 
0.0 0.0 0.0 0.0 0.0 0.07698792 
0.29956067 0.0 0.17056993 0.0 0.0 0.0751024 
1.0191047 0.0 0.22675103 0.0 0.0 0.0 
1.0937481 0.9469338 0.1180541 0.15146242 1.4215038 0.0 
0.7400695 1.0866761 0.0 0.43073496 2.1531236 0.79375356 
0.0 0.7718673 0.0 0.27456805 2.0326614 1.0395995 
1.2008057 0.0 0.0 0.0 1.2553399 1.4624696 
1.1308174 0.6960637 0.101814784 0.04622933 0.8877854 0.75025696 
0.0 1.1313697 1.604123 0.30292442 0.943984 0.0 
0.0 0.114550956 0.19817105 0.0 0.15284859 0.07698792 
0.0 0.0 0.0 0.0 0.0 0.07698792 
0.0 0.0 0.0 0.0 0.0 0.07698792 
0.0 0.0 0.0 0.0 0.0 0.07698792 
0.0 0.0 0.0 0.0 0.0 0.07698792 
0.028293163 0.0 0.016303353 0.0 0.0 0.07698792 
1.2027307 0.0 0.155482 0.010663264 0.0 0.08621943 
1.2511775 1.07471 0.1308544 0.5698016 1.6715767 0.30351615 
0.49918866 1.3248949 0.062064916 0.42855635 2.3428023 0.64081144 
0.0 0.86228263 0.567325 0.25338325 1.7161921 0.7418641 
0.5784514 0.11586842 0.48788768 0.0 0.30200717 0.34468976 
1.4399323 0.21547502 0.33954436 0.0 0.56756216 0.03787083 
1.2958229 1.2671314 0.0 0.051503476 1.5979491 0.0 
0.0 1.0619653 1.2775689 0.23974258 1.2387382 0.30072367 
0.0 0.08879993 0.24322912 0.076511234 0.111999705 0.094665445 
0.0 0.0 0.0 0.0 0.0 0.07698792 
0.0 0.0 0.0 0.0 0.0 0.07698792 
0.0 0.0 0.0 0.0 0.0 0.07698792 
0.0 0.0 0.0 0.0 0.0 0.07698792 
0.29349202 0.0 0.047781855 0.054309744 0.0 0.2740482 
1.8960338 0.0 0.0 0.2228952 0.7921087 0.7305909 
1.2482617 1.5555154 0.22747433 0.078663506 1.964759 0.14397377 
0.012704864 1.3689233 1.0720121 0.0 1.5563903 0.0 
0.40927857 0.4855533 0.9036781 0.0 0.72483283 0.0 
0.7407785 0.6048576 0.46548438 1.0179431 1.4714671 0.49798542 
0.7178611 0.8038527 0.26795918 1.1934804 2.087087 1.1631947 
0.0 1.1142018 0.2705715 0.7998799 2.0660121 1.0154647 
0.0 0.5934178 0.8430518 0.38913977 0.85923684 0.52939856 
0.0 0.0 0.11735063 0.0140761705 0.0026342906 0.09642165 
0.0 0.0 0.0 0.0 0.0 0.07698792 
0.0 0.0 0.0 0.0 0.0 0.07698792 
0.0 0.0 0.0 0.0 0.0 0.07698792 
0.0 0.0 0.0 0.0 0.0 0.07698792 
0.38628405 0.0 0.0 0.15954356 0.20399486 0.502271 
1.3611228 0.0 0.0 0.5248947 1.1612662 1.3463476 
0.77318156 0.69623685 0.41081178 1.2379528 1.4563636 1.4158318 
0.018708117 0.8031297 1.1964645 1.4580783 1.5404019 1.3622096 
0.14151886 0.89336413 0.60967404 1.4473666 1.5617049 1.4212859 
0.0911165 0.8450366 0.23456028 1.3990608 1.7401528 1.2885759 
0.16381165 0.7282274 0.0 0.6116212 1.5840404 1.3922884 
0.0 0.1891081 0.011422664 0.0 0.7396402 0.77611995 
0.0 0.0 0.16206604 0.0 0.22661348 0.26718017 
0.0 0.0 0.0 0.0 0.0 0.07835772 
0.0 0.0 0.0 0.0 0.0 0.07698792 
0.0 0.0 0.0 0.0 0.0 0.07698792 
0.0 0.0 0.0 0.0 0.0 0.07698792 
0.0 0.0 0.0 0.0 0.0 0.07698792 
0.22150832 0.0 0.0 0.0 0.2976772 0.31453073 
0.6449272 0.0 0.0 0.0 0.9114797 1.0655246 
0.501106 0.0041036075 0.0 0.0 1.2931739 1.41131 
0.13044684 0.03627391 0.0 0.0 1.3130826 1.3675027 
0.027159013 0.0 0.0 0.0 1.1554703 1.0057187 
0.0 0.0 0.0 0.0 0.71488184 0.55933446 
0.0 0.0 0.0 0.0 0.26852474 0.25379655 
0.0 0.0 0.0 0.0 0.0 0.10112676 
0.0 0.0 0.0 0.0 0.0 0.07698792 
0.0 0.0 0.0 0.0 0.0 0.07698792 
0.0 0.0 0.0 0.0 0.0 0.07698792 
0.0 0.0 0.0 0.0 0.0 0.07698792 
0.0 0.0 0.0 0.0 0.0 0.07698792 
0.0 0.0 0.0 0.0 0.0 0.07698792 
0.0 0.0 0.0 0.0 0.0 0.07698792 
0.0 0.0 0.0 0.0 0.0 0.10297942 
0.0 0.0 0.0 0.0 0.0 0.10248848 
0.0 0.0 0.0 0.0 0.0 0.09626275 
0.0 0.0 0.0 0.0 0.0 0.07790112 
0.0 0.0 0.0 0.0 0.0 0.07698792 
0.0 0.0 0.0 0.0 0.0 0.07698792 
0.0 0.0 0.0 0.0 0.0 0.07698792 
0.0 0.0 0.0 0.0 0.0 0.07698792 
0.0 0.0 0.0 0.0 0.0 0.07698792 
0.0 0.0 0.0 0.0 0.0 0.07698792 
0.0 0.0 0.0 0.0 0.0 0.07698792 
0.0 0.0 0.0 0.0 0.0 0.07698792 

