0.0 0.0 0.0 0.0 0.0 0.07698792 
0.0 0.0 0.0 0.0 0.0 0.07698792 
0.0 0.0 0.0 0.0 0.0 0.07698792 
0.0 0.0 0.0 0.0 0.0 0.07698792 
0.0 0.0 0.0 0.0 0.0 0.07698792 
0.0 0.0 0.0 0.0 0.0 0.07698792 
0.0 0.0 0.0 0.0 0.0 0.07698792 
0.0 0.0 0.0 0.0 0.0 0.07698792 
0.0 0.0 0.0 0.0 0.0 0.07698792 
0.0 0.0 0.0 0.0 0.0 0.07698792 
0.0 0.0 0.0 0.0 0.0 0.07698792 
0.0 0.0 0.0 0.0 0.0 0.07698792 
0.0 0.0 0.0 0.0 0.0 0.07698792 
0.0 0.0 0.0 0.0 0.0 0.07698792 
0.0 0.0 0.0 0.0 0.0 0.07698792 
0.0 0.0 0.0 0.0 0.0 0.07698792 
0.0 0.0 0.0 0.0 0.0 0.07698792 
0.0 0.0 0.0 0.0 0.0 0.07698792 
0.0 0.0 0.0 0.0 0.0 0.07698792 
0.19147578 0.021445386 0.18127835 0.0 0.0 0.07698792 
0.35935616 0.3542186 0.42070127 0.0 0.0 0.07698792 
0.30361652 0.5989798 0.44788456 0.0 0.0 0.07698792 
0.092289984 0.48402485 0.36431205 0.0 0.0 0.07698792 
0.0016533285 0.27403963 0.15616396 0.0 0.0 0.07698792 
0.0 0.15657707 0.028055906 0.0 0.014946427 0.07698792 
0.0 0.023720384 0.0 0.0 0.0 0.07698792 
0.0 0.0 0.0 0.0 0.0 0.07698792 
0.0 0.0 0.0 0.0 0.0 0.07698792 
0.0 0.0 0.0 0.0 0.0 0.07698792 
0.0 0.0 0.0 0.0 0.0 0.07698792 
0.0 0.0 0.0 0.0 0.0 0.07698792 
0.018754877 0.0 0.055760615 0.0 0.0 0.07698792 
0.5936527 0.0 0.16790155 0.0 0.0 0.04455683 
0.9339836 0.24307117 0.3368711 0.0 0.044232134 0.0 
0.87452394 0.7605774 0.8933934 0.2358025 0.770226 0.0 
0.58207273 1.4060793 1.7243854 0.32881328 0.91935873 0.0 
0.33752492 1.388795 1.79501 0.0 0.9282162 0.0 
0.34902948 1.2994874 1.4641343 0.0 0.6150597 0.0 
0.0769012 1.4631985 1.4405969 0.0 0.7291662 0.0 
0.0 0.9208764 0.77732056 0.0 0.6483582 0.0 
0.0 0.08609647 0.0 0.0 0.07639295 0.07698792 
0.0 0.0 0.0 0.0 0.0 0.07698792 
0.0 0.0 0.0 0.0 0.0 0.07698792 
0.0 0.0 0.0 0.0 0.0 0.07698792 
0.0013534874 0.0 0.03407789 0.0 0.0 0.07698792 
0.83770424 0.0 0.15100312 0.0 0.0 0.012879953 
1.1251011 0.6879823 0.12027059 0.1890819 0.7546717 0.0 
0.8865614 1.0249461 0.32601824 0.46393088 1.5359291 0.7288695 
1.4108696 1.0390772 0.42129275 0.8802492 1.965679 0.9682028 
0.92911977 1.6978397 1.4560874 0.91102886 2.4855027 1.287895 
0.54339564 1.6579753 1.6568195 1.0172852 2.3744233 1.180865 
0.33893293 1.3457552 1.560025 1.1628522 2.239835 1.2237325 
0.5903926 1.7741452 1.9114232 1.2292367 1.2146953 0.76796085 
0.0 1.9676607 2.2013063 0.42202964 1.1593307 0.0 
0.0 0.53558934 0.6219797 0.0 0.5953423 0.04728578 
0.0 0.0 0.0 0.0 0.0 0.07698792 
0.0 0.0 0.0 0.0 0.0 0.07698792 
0.0 0.0 0.0 0.0 0.0 0.07698792 
0.525033 0.0 0.09688496 0.0 0.0 0.07698792 
1.4580922 0.2588413 0.063211754 0.14343274 0.7212241 0.17944822 
1.0134697 1.2919228 0.015262552 0.22901057 1.7838107 0.35102355 
1.1582303 0.6628209 0.18817917 0.091675445 1.7003492 0.80004025 
1.2361188 1.1710792 0.0 0.14968714 2.6283562 0.8354306 
1.0233891 0.57056063 0.0 0.41202465 2.8080623 1.8349082 
1.1599362 1.1760836 0.0 0.3577826 2.2906253 1.3597293 
0.30095315 1.1582187 0.23392591 0.0 2.5818634 1.5020137 
1.2455559 0.719577 0.21104407 0.3388941 1.4381317 1.5077775 
0.0 1.8516976 2.2432203 0.40256217 1.5149957 0.0 
0.0 1.2512535 1.8592081 0.0 1.0705439 0.0 
0.0 0.0 0.0 0.0 0.0 0.07698792 
0.0 0.0 0.0 0.0 0.0 0.07698792 
0.0013534874 0.0 0.03407789 0.0 0.0 0.07698792 
1.5564644 0.0 0.084942214 0.0 0.0 0.3145733 
1.7511237 1.4399067 0.0 0.08344723 1.8345091 0.36584735 
0.45128453 1.3044038 0.7544799 0.0 1.8671727 0.64673525 
1.359803 1.0543292 0.2903576 0.0058239894 1.8004305 0.71199656 
0.037692644 1.3630143 0.70837915 0.0 2.18727 0.57905066 
1.1911144 0.0 0.4242231 0.0 1.3177906 1.3266759 
1.2714925 0.9076942 0.0 0.060835715 1.3074415 0.85620874 
0.0 1.0649623 0.933687 0.16814902 1.6988044 0.90530765 
1.886626 0.0 0.0 0.13528067 1.1066505 1.4111733 
0.994415 1.8309456 1.7552722 0.24279928 1.4604194 0.36500356 
0.0 1.5499191 2.1598365 0.0 1.4262555 0.0 
0.0 0.07085434 0.042461015 0.0 0.20940389 0.07698792 
0.0 0.0 0.0 0.0 0.0 0.07698792 
0.32454932 0.0 0.028624542 0.0 0.0 0.14309922 
2.0619624 0.0 0.0 0.05893225 0.75459915 0.625864 
1.3732772 1.7170041 0.3265229 0.0 1.8331617 0.06683543 
0.9703745 0.79896784 1.1288623 0.17284831 1.4318857 1.1695962 
1.4503736 1.5501857 0.0 0.17844793 1.5680767 0.538906 
0.0 1.5538796 1.4408666 0.0 1.6187078 0.08760177 
1.1675992 0.0 0.42417157 0.1435687 0.6253325 0.95736176 
0.93477386 0.7060797 0.0 0.15442897 1.0791503 0.7725828 
0.0 0.6826889 0.74152035 0.110336766 0.9578493 0.511823 
2.13165 0.0 0.0 0.0 0.7315849 1.2096553 
1.4096246 1.544934 0.613933 0.059310082 1.4738269 0.4274862 
0.0 1.7172362 2.095247 0.104001366 1.7201194 0.0 
0.0 0.2519585 0.48414004 0.019052539 0.3236691 0.07698792 
0.0 0.0 0.0 0.0 0.0 0.07698792 
0.80535966 0.0 0.0 0.06487071 0.0 0.5801248 
2.0511115 0.17783411 0.0 0.09628559 1.2610847 0.9199924 
0.47974223 1.740542 1.1978827 0.04215059 1.8754402 0.0 
0.88442725 0.61458176 1.2068944 0.2281149 1.7543396 1.3614035 
1.3369081 1.0616599 0.0 0.40072897 1.1344012 1.2742774 
0.0 1.5277925 1.8476826 0.5952317 1.2787291 0.22538498 
0.5382225 0.39621282 0.6745671 0.0 0.709575 0.6430694 
0.17727374 0.1107964 0.0 0.0 0.5842574 0.52721864 
0.0 0.09878994 0.4388668 0.040787008 0.27137336 0.40354043 
2.1428308 0.0 0.0 0.030735675 0.59005886 1.1311221 
1.4765997 1.5854548 0.0 0.11762896 1.6366907 0.5031142 
0.0 1.4792682 1.6569202 0.13118732 1.8164507 0.17333764 
0.0 0.13893618 0.54805183 0.15035146 0.24714191 0.12485777 
0.0 0.0 0.0 0.0 0.0 0.07698792 
1.0188737 0.0 0.0 0.07502004 0.0937769 0.76599 
2.1428308 0.24825746 0.0 0.07716618 1.1856855 1.1311221 
0.4840483 1.9033595 1.7603322 0.0 1.8454176 0.0 
0.23737487 1.1970155 1.8422705 0.0 1.5662752 0.8300705 
0.98664016 0.0 0.0 0.19372413 0.9478528 1.3424416 
0.0 0.7642343 1.4039198 0.6379172 0.9551298 0.6639102 
0.0 0.52641195 1.0307283 0.38026646 0.5627243 0.2361277 
0.0 0.0 0.0 0.0 0.01569109 0.1303244 
0.17635894 0.0 0.12053924 0.0 0.00071705505 0.100532256 
2.0847025 0.0 0.0 0.0 0.81622803 1.04729 
1.1564012 1.5367353 0.080918945 0.0 1.6186304 0.2565474 
0.0 1.2086885 1.5753397 0.107384406 1.5620528 0.31198806 
0.0 0.0 0.19439363 0.0 0.036614012 0.111931965 
0.0 0.0 0.0 0.0 0.0 0.07698792 
0.9640916 0.0 0.0 0.096082896 0.29822794 0.82988155 
2.0540528 0.0 0.0 0.30608556 1.1152087 1.3775029 
1.0497305 1.9997318 1.9110991 0.23334941 1.7929605 0.5013333 
0.0 1.932866 2.3479295 0.0 1.4892924 0.0 
0.3756117 0.43217435 0.4357215 0.0 0.80904835 0.5844989 
0.03620284 0.0 0.0 0.0 0.43194732 0.48758328 
0.0 0.0917106 0.3565659 0.107392415 0.19801478 0.2736851 
0.018754877 0.0 0.055760615 0.0 0.0 0.07698792 
0.945427 0.0 0.13083094 0.0 0.0 0.041276664 
1.7031193 0.8025742 0.0 0.08933276 1.6955531 0.59992224 
0.09659736 1.3560839 0.50510687 0.19723222 1.8033074 0.5200223 
0.0 0.5227334 1.3552564 0.22144297 1.086002 0.44518235 
0.0 0.0 0.0 0.0 0.0 0.07698792 
0.0 0.0 0.0 0.0 0.0 0.07698792 
0.61916953 0.0 0.0 0.065671615 0.41189203 0.7162488 
1.7217016 0.0 0.0 0.30061427 1.1827682 1.5980268 
1.5622633 1.3566504 1.0657667 0.71658105 1.4328161 1.7007632 
0.11247216 1.842685 2.5176353 0.81139725 1.4615294 0.08488687 
0.0 1.6837349 2.3869731 0.0 0.78272104 0.0 
0.082866 1.0295998 1.0356755 0.0 0.3210849 0.0 
0.38836068 0.73000866 0.72649837 0.0 0.0050147064 0.0 
0.83511287 0.5205636 0.5280492 0.0 0.0 0.0 
1.2960954 0.6945465 0.28158176 0.0 1.4918371 0.016982816 
1.0741041 1.1824329 0.0 0.1415729 2.1824067 0.545322 
0.0 0.84219575 0.64851326 0.16172278 1.4950087 0.55114126 
0.0 0.041423567 0.5500796 0.03303556 0.26733592 0.28050956 
0.0 0.0 0.0 0.0 0.0 0.07698792 
0.0 0.0 0.0 0.0 0.0 0.07698792 
0.113289684 0.0 0.0 0.0 0.19272615 0.21583813 
1.0882027 0.0 0.0 0.0 1.057701 1.3960769 
1.2294967 0.0 0.0 0.5769597 1.5011975 1.7842884 
0.7399235 0.8955657 1.3031626 1.2446569 1.4686106 1.8682711 
0.27169678 1.2993673 2.088181 1.7980192 1.4839646 1.4564741 
0.2318244 1.3020762 1.6884915 1.7520801 1.3490478 0.80935603 
0.36129084 1.0887772 1.261881 1.6554248 1.6005051 0.56378627 
0.36407575 0.8917358 0.59493 1.5439457 1.8356143 1.0334101 
0.26450932 0.9924614 0.2975787 1.0739114 2.164975 1.1791003 
0.0 0.8914694 0.33259374 0.5534273 1.6693462 0.67938423 
0.0 0.182554 0.42252582 0.043221053 0.36218867 0.39299646 
0.0 0.0 0.0 0.0 0.0 0.08353249 
0.0 0.0 0.0 0.0 0.0 0.07698792 
0.0 0.0 0.0 0.0 0.0 0.07698792 
0.0 0.0 0.0 0.0 0.0 0.07698792 
0.2401205 0.0 0.0 0.0 0.35182855 0.3175866 
0.6720584 0.0 0.0 0.0 0.9780385 1.0049193 
0.8566548 0.0 0.0 0.0 1.5403179 1.7369559 
0.42921537 0.10270208 0.0 0.7947355 1.723044 1.8743618 
0.38148975 0.62101966 0.0 1.4442695 1.6430761 1.7766087 
0.17253321 0.9092925 0.20923743 1.523953 1.5900329 1.5596983 
0.10882288 0.86151683 0.0 0.99185365 1.5646633 1.4561024 
0.0 0.3698571 0.0 0.0 1.1744715 1.0785003 
0.0 0.0 0.14579654 0.0 0.36013404 0.41108203 
0.0 0.0 0.04370638 0.0 0.02184588 0.089924864 
0.0 0.0 0.0 0.0 0.0 0.07698792 
0.0 0.0 0.0 0.0 0.0 0.07698792 
0.0 0.0 0.0 0.0 0.0 0.07698792 
0.0 0.0 0.0 0.0 0.0 0.07698792 
0.0 0.0 0.0 0.0 0.0 0.07698792 
0.0 0.0 0.0 0.0 0.0 0.09493533 
0.2035855 0.0 0.0 0.0 0.36953256 0.28279847 
0.22914147 0.0 0.0 0.0 0.68654597 0.4514773 
0.21255866 0.0 0.0 0.0 0.83863086 0.51104647 
0.025691047 0.0 0.0 0.0 0.68975866 0.45005086 
0.0 0.0 0.0 0.0 0.33089757 0.2596745 
0.0 0.0 0.0 0.0 0.06313546 0.13813105 
0.0 0.0 0.0 0.0 0.0 0.07698792 
0.0 0.0 0.0 0.0 0.0 0.07698792 
0.0 0.0 0.0 0.0 0.0 0.07698792 
0.0 0.0 0.0 0.0 0.0 0.07698792 

