0.0 0.0 0.0 0.0 0.0 0.07698792 
0.0 0.0 0.0 0.0 0.0 0.07698792 
0.0 0.0 0.0 0.0 0.0 0.07698792 
0.0 0.0 0.0 0.0 0.0 0.07698792 
0.0 0.0 0.0 0.0 0.0 0.07698792 
0.0 0.0 0.0 0.0 0.0 0.07698792 
0.0 0.0 0.0 0.0 0.0 0.07698792 
0.0 0.0 0.0 0.0 0.0 0.07698792 
0.0 0.0 0.0 0.0 0.0 0.07698792 
0.0 0.0 0.0 0.0 0.0 0.07698792 
0.0 0.0 0.0 0.0 0.0 0.07698792 
0.0 0.0 0.0 0.0 0.0 0.07698792 
0.0 0.0 0.0 0.0 0.0 0.07698792 
0.0 0.0 0.0 0.0 0.0 0.07698792 
0.0 0.0 0.0 0.0 0.0 0.07698792 
0.0 0.0 0.0 0.0 0.0 0.07698792 
0.0 0.0 0.0 0.0 0.0 0.07698792 
0.0 0.0 0.0 0.0 0.0 0.07698792 
0.0 0.0 0.0 0.0 0.0 0.07698792 
0.0 0.0 0.0 0.0 0.0 0.07698792 
0.15831059 0.053713895 0.10855714 0.0 0.0 0.07698792 
0.10233736 0.24325949 0.10859112 0.0 0.0 0.07698792 
0.0 0.2243359 0.07440812 0.0 0.017326418 0.07698792 
0.0 0.023720384 0.0 0.0 0.0 0.07698792 
0.0 0.0 0.0 0.0 0.0 0.07698792 
0.0 0.0 0.0 0.0 0.0 0.07698792 
0.0 0.0 0.0 0.0 0.0 0.07698792 
0.0 0.0 0.0 0.0 0.0 0.07698792 
0.0 0.0 0.0 0.0 0.0 0.07698792 
0.0 0.0 0.0 0.0 0.0 0.07698792 
0.0 0.0 0.0 0.0 0.0 0.07698792 
0.0 0.0 0.0 0.0 0.0 0.07698792 
0.0 0.0 0.0 0.0 0.0 0.07698792 
0.3013773 0.0 0.12514862 0.0 0.0 0.07698792 
1.1653557 0.051066294 0.31123877 0.0 0.0 0.0 
0.9543678 1.4680693 1.1222123 0.0 0.76378113 0.0 
0.0 1.4102911 1.2047541 0.0 1.0234227 0.0 
0.0 0.16152842 0.19505966 0.0 0.40585878 0.07698792 
0.0 0.0 0.0 0.0 0.0 0.07698792 
0.0 0.0 0.0 0.0 0.0 0.07698792 
0.0 0.0 0.0 0.0 0.0 0.07698792 
0.0 0.0 0.0 0.0 0.0 0.07698792 
0.0 0.0 0.0 0.0 0.0 0.07698792 
0.0 0.0 0.0 0.0 0.0 0.07698792 
0.0 0.0 0.0 0.0 0.0 0.07698792 
0.0 0.0 0.0 0.0 0.0 0.07698792 
0.0 0.0 0.0 0.0 0.0 0.07698792 
1.0820143 0.0 0.053356342 0.14923905 0.0 0.34427732 
1.8135602 0.59510165 0.09428682 0.36985132 1.0197108 0.39797384 
1.0659583 2.2767563 1.4218228 0.3284613 2.0805492 0.10755365 
0.0 2.0403712 1.9244865 0.24381787 1.7847574 0.0 
0.0 0.43848825 0.86350673 0.0 0.55767953 0.07698792 
0.0 0.0 0.0 0.0 0.0 0.07698792 
0.0 0.0 0.0 0.0 0.0 0.07698792 
0.0 0.0 0.0 0.0 0.0 0.07698792 
0.0 0.0 0.0 0.0 0.0 0.07698792 
0.0 0.0 0.0 0.0 0.0 0.07698792 
0.0 0.0 0.0 0.0 0.0 0.07698792 
0.0 0.0 0.0 0.0 0.0 0.07698792 
0.0 0.0 0.0 0.0 0.0 0.07698792 
0.0 0.0 0.0 0.0 0.0 0.07698792 
1.6550412 0.0 0.0 0.19635163 0.34685925 0.9582169 
2.098244 0.60512453 0.0 0.22784929 1.6352086 0.90607303 
1.1611769 2.141848 0.80586666 0.093320735 2.5153472 0.5778663 
0.0 1.8177989 1.8560613 0.0 1.9985842 0.0 
0.0 0.32253116 0.95813775 0.0 0.6327699 0.07698792 
0.0 0.0 0.0 0.0 0.0 0.07698792 
0.0 0.0 0.0 0.0 0.0 0.07698792 
0.0 0.0 0.0 0.0 0.0 0.07698792 
0.0 0.0 0.0 0.0 0.0 0.07698792 
0.0 0.0 0.0 0.0 0.0 0.07698792 
0.0 0.0 0.0 0.0 0.0 0.07698792 
0.0 0.0 0.0 0.0 0.0 0.07698792 
0.0 0.0 0.0 0.0 0.0 0.07698792 
0.0 0.0 0.0 0.0 0.0 0.07698792 
1.6845622 0.0 0.0 0.020684984 0.389003 0.98093545 
2.0991273 0.49943748 0.0 0.0 1.6593279 0.9133209 
1.038624 2.0551941 0.8100328 0.0 2.5186532 0.5844049 
0.0 1.8177989 1.8560613 0.0 1.9985842 0.0 
0.0 0.32253116 0.95813775 0.0 0.6327699 0.07698792 
0.0 0.0 0.0 0.0 0.0 0.07698792 
0.0 0.0 0.0 0.0 0.0 0.07698792 
0.0 0.0 0.0 0.0 0.0 0.07698792 
0.0 0.0 0.0 0.0 0.0 0.07698792 
0.0 0.0 0.0 0.0 0.0 0.07698792 
0.0 0.0 0.0 0.0 0.0 0.07698792 
0.0 0.0 0.0 0.0 0.0 0.07698792 
0.0 0.0 0.0 0.0 0.0 0.07698792 
0.0 0.0 0.0 0.0 0.0 0.07698792 
1.6845622 0.0 0.0 0.020684984 0.389003 0.98093545 
2.0991273 0.49943748 0.0 0.0 1.6593279 0.9133209 
1.038624 2.0551941 0.8100328 0.0 2.5186532 0.5844049 
0.0 1.8177989 1.8560613 0.0 1.9985842 0.0 
0.0 0.32253116 0.95813775 0.0 0.6327699 0.07698792 
0.0 0.0 0.0 0.0 0.0 0.07698792 
0.0 0.0 0.0 0.0 0.0 0.07698792 
0.0 0.0 0.0 0.0 0.0 0.07698792 
0.0 0.0 0.0 0.0 0.0 0.07698792 
0.0 0.0 0.0 0.0 0.0 0.07698792 
0.0 0.0 0.0 0.0 0.0 0.07698792 
0.0 0.0 0.0 0.0 0.0 0.07698792 
0.0 0.0 0.0 0.0 0.0 0.07698792 
0.0 0.0 0.0 0.0 0.0 0.07698792 
1.6845622 0.0 0.0 0.020684984 0.389003 0.98093545 
2.0991273 0.49943748 0.0 0.0 1.6593279 0.9133209 
0.9297041 1.9595387 0.74436045 0.04447638 2.6509466 0.6481357 
0.0 1.7133924 1.75532 0.14542466 2.013707 0.2796509 
0.0 0.22770211 0.9268775 0.20071474 0.54081184 0.10690108 
0.0 0.0 0.0 0.0 0.0 0.07698792 
0.0 0.0 0.0 0.0 0.0 0.07698792 
0.0 0.0 0.0 0.0 0.0 0.07698792 
0.0 0.0 0.0 0.0 0.0 0.07698792 
0.0 0.0 0.0 0.0 0.0 0.07698792 
0.0 0.0 0.0 0.0 0.0 0.07698792 
0.0 0.0 0.0 0.0 0.0 0.07698792 
0.0 0.0 0.0 0.0 0.0 0.07698792 
0.0 0.0 0.0 0.0 0.0 0.07698792 
1.6845622 0.0 0.0 0.020684984 0.389003 0.98093545 
2.0991273 0.49943748 0.0 0.0 1.6593279 0.9133209 
0.6937119 2.0860798 1.0508225 0.0 2.5445135 0.38303936 
0.0 1.5274876 1.597143 0.0 1.6985537 0.010101423 
0.0 0.12763813 0.5688264 0.0 0.33215 0.07698792 
0.0 0.0 0.0 0.0 0.0 0.07698792 
0.0 0.0 0.0 0.0 0.0 0.07698792 
0.0 0.0 0.0 0.0 0.0 0.07698792 
0.0 0.0 0.0 0.0 0.0 0.07698792 
0.0 0.0 0.0 0.0 0.0 0.07698792 
0.0 0.0 0.0 0.0 0.0 0.07698792 
0.0 0.0 0.0 0.0 0.0 0.07698792 
0.0 0.0 0.0 0.0 0.0 0.07698792 
0.0 0.0 0.0 0.0 0.0 0.07698792 
1.6845622 0.0 0.0 0.11740537 0.46078935 1.1119337 
2.0991273 0.49943748 0.0 0.14611657 1.6593279 1.0859091 
0.6619914 2.0685139 1.3989826 0.13205642 2.1975517 0.3407419 
0.0 1.8226888 1.9929355 0.0 1.6974362 0.0 
0.0 0.27480707 0.5099515 0.0 0.45499596 0.07698792 
0.0 0.0 0.0 0.0 0.0 0.07698792 
0.0 0.0 0.0 0.0 0.0 0.07698792 
0.0 0.0 0.0 0.0 0.0 0.07698792 
0.0 0.0 0.0 0.0 0.0 0.07698792 
0.0 0.0 0.0 0.0 0.0 0.07698792 
0.0 0.0 0.0 0.0 0.0 0.07698792 
0.0 0.0 0.0 0.0 0.0 0.07698792 
0.0 0.0 0.0 0.0 0.0 0.07698792 
0.0 0.0 0.0 0.0 0.0 0.07698792 
1.3579478 0.0 0.0 0.1263614 0.5298471 1.1478503 
2.0215478 0.13787158 0.0 0.188412 1.570848 1.3596191 
1.2167549 1.9892757 1.1369162 0.313191 2.2508008 0.82735324 
0.0 1.907303 1.979019 0.063024014 1.9248681 0.0 
0.0 0.42536104 0.8742197 0.0 0.5792765 0.07698792 
0.0 0.0 0.0 0.0 0.0 0.07698792 
0.0 0.0 0.0 0.0 0.0 0.07698792 
0.0 0.0 0.0 0.0 0.0 0.07698792 
0.0 0.0 0.0 0.0 0.0 0.07698792 
0.0 0.0 0.0 0.0 0.0 0.07698792 
0.0 0.0 0.0 0.0 0.0 0.07698792 
0.0 0.0 0.0 0.0 0.0 0.07698792 
0.0 0.0 0.0 0.0 0.0 0.07698792 
0.0 0.0 0.0 0.0 0.0 0.07698792 
0.8550453 0.0 0.0 0.0133487 0.52740246 0.913629 
1.8756542 0.0 0.0 0.3009006 1.3249788 1.6414936 
1.5249503 1.7619863 0.5207981 0.92765814 2.1715627 1.8099377 
0.0 1.7510258 1.8560613 0.7888564 1.9338325 0.47564453 
0.0 0.32253116 0.95813775 0.13031864 0.6327699 0.07698792 
0.0 0.0 0.0 0.0 0.0 0.07698792 
0.0 0.0 0.0 0.0 0.0 0.07698792 
0.0 0.0 0.0 0.0 0.0 0.07698792 
0.0 0.0 0.0 0.0 0.0 0.07698792 
0.0 0.0 0.0 0.0 0.0 0.07698792 
0.0 0.0 0.0 0.0 0.0 0.07698792 
0.0 0.0 0.0 0.0 0.0 0.07698792 
0.0 0.0 0.0 0.0 0.0 0.07698792 
0.0 0.0 0.0 0.0 0.0 0.07698792 
0.26249877 0.0 0.0 0.0 0.29496565 0.36762178 
1.0702116 0.0 0.0 0.0 1.2412564 1.4813812 
0.9072023 0.32980508 0.0 0.4463754 1.6353217 1.6897986 
0.0 0.56226414 1.2311121 0.6375771 1.149361 0.7249691 
0.0 0.20900358 0.79739904 0.25432077 0.19995059 0.1486991 
0.0 0.0 0.0 0.0 0.0 0.07698792 
0.0 0.0 0.0 0.0 0.0 0.07698792 
0.0 0.0 0.0 0.0 0.0 0.07698792 
0.0 0.0 0.0 0.0 0.0 0.07698792 
0.0 0.0 0.0 0.0 0.0 0.07698792 
0.0 0.0 0.0 0.0 0.0 0.07698792 
0.0 0.0 0.0 0.0 0.0 0.07698792 
0.0 0.0 0.0 0.0 0.0 0.07698792 
0.0 0.0 0.0 0.0 0.0 0.07698792 
0.0 0.0 0.0 0.0 0.0 0.08193893 
0.25866702 0.0 0.0 0.0 0.44283703 0.31255692 
0.2919314 0.0 0.0 0.0 0.5799883 0.37490636 
0.0 0.0 0.0 0.0 0.2806416 0.25792998 
0.0 0.0 0.071083896 0.0 0.043570142 0.09342545 
0.0 0.0 0.0 0.0 0.0 0.07698792 
0.0 0.0 0.0 0.0 0.0 0.07698792 
0.0 0.0 0.0 0.0 0.0 0.07698792 
0.0 0.0 0.0 0.0 0.0 0.07698792 

