0.0 0.0 0.0 0.0 0.0 0.07698792 
0.0 0.0 0.0 0.0 0.0 0.07698792 
0.0 0.0 0.0 0.0 0.0 0.07698792 
0.0 0.0 0.0 0.0 0.0 0.07698792 
0.0 0.0 0.0 0.0 0.0 0.07698792 
0.0 0.0 0.0 0.0 0.0 0.07698792 
0.0 0.0 0.0 0.0 0.0 0.07698792 
0.27989835 0.07906957 0.20228961 0.0 0.0 0.07698792 
0.14930646 0.3135912 0.16334775 0.0 0.0 0.07698792 
0.0 0.29881737 0.110028215 0.0 0.060180996 0.07698792 
0.0 0.0 0.0 0.0 0.0 0.07698792 
0.0 0.0 0.0 0.0 0.0 0.07698792 
0.0 0.0 0.0 0.0 0.0 0.07698792 
0.0 0.0 0.0 0.0 0.0 0.07698792 
0.0 0.0 0.0 0.0 0.0 0.07698792 
0.0 0.0 0.0 0.0 0.0 0.07698792 
0.0 0.0 0.0 0.0 0.0 0.07698792 
0.0 0.0 0.0 0.0 0.0 0.07698792 
0.0 0.0 0.0 0.0 0.0 0.07698792 
0.0 0.0 0.0 0.0 0.0 0.07698792 
0.33163208 0.0 0.09980037 0.0 0.0 0.07698792 
1.3335569 0.030757427 0.32023162 0.0 0.0 0.0 
0.67368144 1.5182159 1.1832327 0.0 1.0905368 0.0 
0.0 1.2785455 1.3399864 0.0 0.9970972 0.0 
0.0 0.05581694 0.0 0.0 0.09334771 0.07698792 
0.0 0.0 0.0 0.0 0.0 0.07698792 
0.0 0.0 0.0 0.0 0.0 0.07698792 
0.0 0.0 0.0 0.0 0.0 0.07698792 
0.0 0.0 0.0 0.0 0.0 0.07698792 
0.0 0.0 0.0 0.0 0.0 0.07698792 
0.0 0.0 0.0 0.0 0.0 0.07698792 
0.0 0.0 0.0 0.0 0.0 0.07698792 
0.0 0.0 0.0 0.0 0.0 0.07698792 
0.26283813 0.0 0.09366489 0.0 0.0 0.069822915 
1.4529917 0.0 0.17229167 0.0 0.0 0.0 
1.8081696 1.0797141 0.07818068 0.05391742 1.9485625 0.21816586 
0.32076657 1.9011662 1.4642897 0.57673174 2.3090365 0.24745148 
0.0 1.4974406 1.8444974 0.55532837 1.3767972 0.37903357 
0.0 0.15309724 0.23768562 0.14407906 0.14693646 0.08643085 
0.0 0.0 0.0 0.0 0.0 0.07698792 
0.0 0.0 0.0 0.0 0.0 0.07698792 
0.0 0.0 0.0 0.0 0.0 0.07698792 
0.0 0.0 0.0 0.0 0.0 0.07698792 
0.0 0.0 0.0 0.0 0.0 0.07698792 
0.0 0.0 0.0 0.0 0.0 0.07698792 
0.0 0.0 0.0 0.0 0.0 0.07698792 
0.0 0.0 0.0 0.0 0.0 0.07698792 
1.1109359 0.0 0.046367325 0.0 0.0 0.1735895 
1.8539472 0.55924183 0.0 0.07552394 1.1647683 0.23090976 
1.5797479 1.7962928 0.0 0.19303086 2.8394144 0.46085745 
0.0 1.7870104 0.72588515 0.19096734 2.559797 0.5950416 
0.0 0.5098949 0.9508606 0.19268318 0.9052109 0.5447372 
0.0 0.036250766 0.18499538 0.05962806 0.0 0.111749694 
0.0 0.0 0.0 0.0 0.0 0.07698792 
0.0 0.0 0.0 0.0 0.0 0.07698792 
0.0 0.0 0.0 0.0 0.0 0.07698792 
0.0 0.0 0.0 0.0 0.0 0.07698792 
0.0 0.0 0.0 0.0 0.0 0.07698792 
0.0 0.0 0.0 0.0 0.0 0.07698792 
0.0 0.0 0.0 0.0 0.0 0.07698792 
0.4978546 0.0 0.10233287 0.0 0.0 0.06642896 
1.984767 0.0 0.030238345 0.0 0.4415752 0.17484927 
2.083036 1.411843 0.0 0.0 2.4664524 0.32089823 
0.2396253 1.990815 0.98120797 0.08229177 2.826493 0.46445274 
0.0 0.8931151 1.1071063 0.04440705 1.7500464 0.48813224 
0.0 0.0 0.36224326 0.0 0.20206086 0.1975383 
0.0 0.0 0.0 0.0 0.0 0.07698792 
0.0 0.0 0.0 0.0 0.0 0.07698792 
0.0 0.0 0.0 0.0 0.0 0.07698792 
0.0 0.0 0.0 0.0 0.0 0.07698792 
0.0 0.0 0.0 0.0 0.0 0.07698792 
0.0 0.0 0.0 0.0 0.0 0.07698792 
0.0 0.0 0.0 0.0 0.0 0.07698792 
0.15014255 0.0 0.026150465 0.0 0.0 0.07698792 
1.580435 0.0 0.11773985 0.0 0.0 0.13900335 
1.9645085 0.9672549 0.0 0.0 1.7604325 0.19612493 
1.5017388 1.6855301 0.38651347 0.0 2.4504285 0.41831586 
0.0 1.9701256 2.1935575 0.0 2.2165995 0.0 
0.0 1.654395 2.192715 0.0 1.1284068 0.0 
0.0 0.6641982 0.5635697 0.0 0.5105495 0.022794541 
0.0 0.079448886 0.0 0.0 0.02330393 0.07698792 
0.0 0.0 0.0 0.0 0.0 0.07698792 
0.0 0.0 0.0 0.0 0.0 0.07698792 
0.0 0.0 0.0 0.0 0.0 0.07698792 
0.0 0.0 0.0 0.0 0.0 0.07698792 
0.0 0.0 0.0 0.0 0.0 0.07698792 
0.0 0.0 0.0 0.0 0.0 0.07698792 
0.4544372 0.0 0.0 0.1113381 0.0 0.42906982 
2.0612595 0.0 0.0 0.2775288 0.85876703 0.8585514 
1.9090374 1.2775784 0.0 0.29239836 2.435884 0.7344628 
0.8401414 1.5377358 0.13022035 0.44061473 3.1221929 1.0227413 
0.0 1.14312 1.6896728 1.0360752 2.6570451 1.4735432 
0.28897566 1.6335549 2.2763631 1.2822448 1.1426343 0.9177124 
0.0 1.6956402 1.9390585 0.55653334 0.91990304 0.0 
0.0 0.53986007 0.5773198 0.0 0.589825 0.03803039 
0.0 0.0 0.0 0.0 0.0 0.07698792 
0.0 0.0 0.0 0.0 0.0 0.07698792 
0.0 0.0 0.0 0.0 0.0 0.07698792 
0.0 0.0 0.0 0.0 0.0 0.07698792 
0.0 0.0 0.0 0.0 0.0 0.07698792 
0.0 0.0 0.0 0.0 0.0 0.07698792 
0.49863374 0.0 0.0 0.11908585 0.27414724 0.5728067 
1.9779024 0.0 0.0 0.29390442 1.0414155 1.411988 
1.9260316 1.2402674 0.0 0.28845564 2.4063206 1.3413606 
0.0032363608 1.7986991 0.76917684 0.0 3.0160291 0.7273591 
0.26581034 0.8681667 0.4237907 0.0 2.4748776 1.7037244 
1.4100287 0.37348178 0.21884504 0.47201842 0.8646593 1.548866 
0.33302155 1.7079163 2.0610132 0.5206519 1.2916827 0.0 
0.0 1.3111732 1.8536295 0.040660497 1.1139332 0.0 
0.0 0.025083985 0.0 0.0 0.043360915 0.07698792 
0.0 0.0 0.0 0.0 0.0 0.07698792 
0.0 0.0 0.0 0.0 0.0 0.07698792 
0.0 0.0 0.0 0.0 0.0 0.07698792 
0.0 0.0 0.0 0.0 0.0 0.07698792 
0.0 0.0 0.0 0.0 0.0 0.07698792 
0.2240085 0.0 0.0 0.0 0.24117671 0.33578047 
1.5984838 0.0 0.0 0.0 0.8411082 1.3669171 
1.9858241 0.57497615 0.0 0.057880014 1.8197038 1.3205006 
0.0 1.8101428 1.873434 0.12970462 2.0336258 0.021154508 
0.62312365 0.972668 1.9653598 0.0 1.2018238 0.080620565 
1.9031432 0.6985345 0.0 0.0 1.3461586 0.52883554 
0.43474525 1.7728058 1.1910055 0.044930723 1.9694694 0.0 
0.0 1.2266098 1.9723061 0.21616463 1.3475071 0.14856926 
0.0 0.057090707 0.08039241 0.052550323 0.0010560192 0.092175044 
0.0 0.0 0.0 0.0 0.0 0.07698792 
0.0 0.0 0.0 0.0 0.0 0.07698792 
0.0 0.0 0.0 0.0 0.0 0.07698792 
0.0 0.0 0.0 0.0 0.0 0.07698792 
0.0 0.0 0.0 0.0 0.0 0.07698792 
0.0 0.0 0.0 0.0 0.0 0.08998432 
1.1451604 0.0 0.0 0.052387033 0.531543 1.0575879 
1.846734 0.17586316 0.0 0.09064231 1.3995314 1.380492 
0.8853028 1.4807153 1.8275677 0.07977982 1.4352711 0.34477854 
1.0262613 1.0716431 1.9570311 0.02995034 1.6419647 0.0 
1.5936708 1.6330254 0.0 0.24683142 2.7603464 0.40886027 
0.0 1.7688417 1.0995232 0.2705026 2.4119084 0.46992093 
0.0 0.6671897 1.3424417 0.22841144 1.2247931 0.4112971 
0.0 0.0 0.00802543 0.0 0.0 0.085904144 
0.0 0.0 0.0 0.0 0.0 0.07698792 
0.0 0.0 0.0 0.0 0.0 0.07698792 
0.0 0.0 0.0 0.0 0.0 0.07698792 
0.0 0.0 0.0 0.0 0.0 0.07698792 
0.0 0.0 0.0 0.0 0.0 0.07698792 
0.0 0.0 0.0 0.0 0.0 0.07698792 
0.5784897 0.0 0.0 0.0 0.4468718 0.6656609 
1.4427617 0.0 0.0 0.19906761 1.0313524 1.4461439 
1.2839165 0.7831879 0.66117036 1.0386009 1.9906689 1.9233181 
0.64221966 1.2356262 1.0148393 1.382782 2.8414047 1.8094501 
0.42115182 1.5268402 0.0 0.8523064 2.8869503 1.5093114 
0.0 1.1478577 0.8362175 0.50528497 1.9676622 0.8173985 
0.0 0.149288 0.7150323 0.1194174 0.35945976 0.3451762 
0.0 0.0 0.0 0.0 0.0 0.07698792 
0.0 0.0 0.0 0.0 0.0 0.07698792 
0.0 0.0 0.0 0.0 0.0 0.07698792 
0.0 0.0 0.0 0.0 0.0 0.07698792 
0.0 0.0 0.0 0.0 0.0 0.07698792 
0.0 0.0 0.0 0.0 0.0 0.07698792 
0.0 0.0 0.0 0.0 0.0 0.07698792 
0.07009718 0.0 0.0 0.0 0.10244359 0.19695544 
0.91716903 0.0 0.0 0.0 1.0003911 1.2560246 
1.0172553 0.0 0.0 0.23893732 1.8288654 1.8365619 
0.2235415 0.48426896 0.0 0.5303292 2.1312025 1.7487588 
0.0 0.4928601 0.0 0.070202105 1.6482023 1.3890595 
0.0 0.0 0.33740008 0.0 0.42410785 0.52013326 
0.0 0.0 0.046027564 0.0 0.027251977 0.09745353 
0.0 0.0 0.0 0.0 0.0 0.07698792 
0.0 0.0 0.0 0.0 0.0 0.07698792 
0.0 0.0 0.0 0.0 0.0 0.07698792 
0.0 0.0 0.0 0.0 0.0 0.07698792 
0.0 0.0 0.0 0.0 0.0 0.07698792 
0.0 0.0 0.0 0.0 0.0 0.07698792 
0.0 0.0 0.0 0.0 0.0 0.07698792 
0.0 0.0 0.0 0.0 0.0 0.07698792 
0.09484251 0.0 0.0 0.0 0.19770603 0.18979926 
0.28486344 0.0 0.0 0.0 0.5560313 0.36014965 
0.013996288 0.0 0.0 0.0 0.39088902 0.3177698 
0.0 0.0 0.02447275 0.0 0.19513552 0.21154255 
0.0 0.0 0.0 0.0 0.0 0.08368701 
0.0 0.0 0.0 0.0 0.0 0.07698792 
0.0 0.0 0.0 0.0 0.0 0.07698792 
0.0 0.0 0.0 0.0 0.0 0.07698792 
0.0 0.0 0.0 0.0 0.0 0.07698792 
0.0 0.0 0.0 0.0 0.0 0.07698792 
0.0 0.0 0.0 0.0 0.0 0.07698792 
0.0 0.0 0.0 0.0 0.0 0.07698792 
0.0 0.0 0.0 0.0 0.0 0.07698792 
0.0 0.0 0.0 0.0 0.0 0.07698792 
0.0 0.0 0.0 0.0 0.0 0.07698792 
0.0 0.0 0.0 0.0 0.0 0.07698792 
0.0 0.0 0.0 0.0 0.0 0.07698792 
0.0 0.0 0.0 0.0 0.0 0.07698792 
0.0 0.0 0.0 0.0 0.0 0.07698792 
0.0 0.0 0.0 0.0 0.0 0.07698792 
0.0 0.0 0.0 0.0 0.0 0.07698792 
0.0 0.0 0.0 0.0 0.0 0.07698792 
0.0 0.0 0.0 0.0 0.0 0.07698792 

