0.0 0.0 0.0 0.0 0.0 0.07698792 
0.0 0.0 0.0 0.0 0.0 0.07698792 
0.0 0.0 0.0 0.0 0.0 0.07698792 
0.0 0.0 0.0 0.0 0.0 0.07698792 
0.0 0.0 0.0 0.0 0.0 0.07698792 
0.0 0.0 0.0 0.0 0.0 0.07698792 
0.0 0.0 0.0 0.0 0.0 0.07698792 
0.0 0.0 0.0 0.0 0.0 0.07698792 
0.0 0.0 0.0 0.0 0.0 0.07698792 
0.0 0.0 0.0 0.0 0.0 0.07698792 
0.0 0.0 0.0 0.0 0.0 0.07698792 
0.0 0.0 0.0 0.0 0.0 0.07698792 
0.0 0.0 0.0 0.0 0.0 0.07698792 
0.0 0.0 0.0 0.0 0.0 0.07698792 
0.0 0.0 0.0 0.0 0.0 0.07698792 
0.0 0.0 0.0 0.0 0.0 0.07698792 
0.0 0.0 0.0 0.0 0.0 0.07698792 
0.0 0.0 0.0 0.0 0.0 0.07698792 
0.0 0.0 0.0 0.0 0.0 0.07698792 
0.0 0.0 0.0 0.0 0.0 0.07698792 
0.2174455 0.09053944 0.18624458 0.0 0.0 0.07698792 
0.35953984 0.39400527 0.43866053 0.0 0.0 0.07698792 
0.29380524 0.601642 0.43887538 0.0 0.0 0.07698792 
0.0 0.483398 0.22772133 0.0 0.08333759 0.07698792 
0.0 0.109101966 0.0 0.0 0.037977453 0.07698792 
0.0 0.0 0.0 0.0 0.0 0.07698792 
0.0 0.0 0.0 0.0 0.0 0.07698792 
0.0 0.0 0.0 0.0 0.0 0.07698792 
0.0 0.0 0.0 0.0 0.0 0.07698792 
0.0 0.0 0.0 0.0 0.0 0.07698792 
0.0 0.0 0.0 0.0 0.0 0.07698792 
0.0 0.0 0.0 0.0 0.0 0.07698792 
0.0703696 0.0 0.08095638 0.0 0.0 0.07698792 
0.7851032 0.012789599 0.26043072 0.0 0.0 0.0 
1.1239603 0.57757044 0.65350413 0.0 0.0 0.0 
0.8739852 0.9304771 1.197263 0.0 0.8369194 0.0 
0.5508115 1.6384472 1.5863851 0.17598021 1.3858154 0.0 
0.0 1.6436566 1.574894 0.1446068 1.3914651 0.0 
0.0 0.35161856 0.5049996 0.0 0.5430791 0.055429704 
0.0 0.0 0.0 0.0 0.0 0.07698792 
0.0 0.0 0.0 0.0 0.0 0.07698792 
0.0 0.0 0.0 0.0 0.0 0.07698792 
0.0 0.0 0.0 0.0 0.0 0.07698792 
0.0 0.0 0.0 0.0 0.0 0.07698792 
0.0 0.0 0.0 0.0 0.0 0.07698792 
0.0 0.0 0.012511149 0.0 0.0 0.07698792 
0.9177073 0.0 0.12533596 0.0 0.0 0.018125437 
1.6322234 0.52855206 0.21232897 0.0 0.5025495 0.0 
1.4007523 1.3167548 0.67159426 0.5853434 2.3241146 0.5882761 
0.8635742 1.679335 0.99085104 0.99706 2.911473 1.5460639 
0.2963454 2.1415682 1.484732 1.0797101 2.892221 1.5259182 
0.0 1.8760034 1.8227892 0.93115306 1.6461029 0.7187897 
0.0 0.43235204 0.8353006 0.3389026 0.3921457 0.2011522 
0.0 0.0 0.0 0.0 0.0 0.07698792 
0.0 0.0 0.0 0.0 0.0 0.07698792 
0.0 0.0 0.0 0.0 0.0 0.07698792 
0.0 0.0 0.0 0.0 0.0 0.07698792 
0.0 0.0 0.0 0.0 0.0 0.07698792 
0.0 0.0 0.0 0.0 0.0 0.07698792 
0.2257627 0.0 0.0 0.0 0.0 0.14194301 
1.8426254 0.0 0.023128472 0.1299086 0.27309522 0.4252235 
1.8731067 1.3734761 0.0 0.23216847 2.4526215 0.49727145 
0.64954346 1.6936862 0.0 0.65031856 3.0502467 1.2419844 
0.03549958 0.7930799 0.0 0.8465924 3.0519764 1.8398867 
0.0 0.6201344 0.0 0.65937066 2.3483663 1.6217308 
0.0 0.3771796 0.5545353 0.15963762 0.86829954 0.727061 
0.0 0.0 0.31090403 0.0 0.12678213 0.16534215 
0.0 0.0 0.0 0.0 0.0 0.07698792 
0.0 0.0 0.0 0.0 0.0 0.07698792 
0.0 0.0 0.0 0.0 0.0 0.07698792 
0.0 0.0 0.0 0.0 0.0 0.07698792 
0.0 0.0 0.0 0.0 0.0 0.07698792 
0.0 0.0 0.0 0.0 0.0 0.07698792 
0.6335417 0.0 0.0 0.039467935 0.0 0.3914006 
2.133406 0.0 0.0 0.12701131 0.98954254 0.76793927 
1.6650689 1.73617 0.0 0.16281001 2.6771457 0.5175378 
0.0 1.6305567 0.94750655 0.0 2.7808435 0.72739327 
0.0 0.02116333 0.44017446 0.0 1.4333228 0.73980147 
0.0 0.0 0.0 0.0 0.5089425 0.38370436 
0.0 0.0 0.017172478 0.0 0.15024596 0.17990743 
0.0 0.0 0.0 0.0 0.0 0.07790112 
0.0 0.0 0.0 0.0 0.0 0.07698792 
0.0 0.0 0.0 0.0 0.0 0.07698792 
0.0 0.0 0.0 0.0 0.0 0.07698792 
0.0 0.0 0.0 0.0 0.0 0.07698792 
0.0 0.0 0.0 0.0 0.0 0.07698792 
0.0 0.0 0.0 0.0 0.0 0.07698792 
1.115355 0.0 0.0 0.0 0.0 0.5400808 
2.136904 0.19055016 0.0 0.0 1.2679219 0.7964348 
1.2445092 2.0127153 1.2059379 0.0 2.2196891 0.2064788 
0.0 1.7357588 2.0943027 0.0 1.6338979 0.0 
0.13428709 0.8939569 1.232084 0.0 0.3059285 0.0 
0.0 0.77602196 0.57592344 0.0 0.1649734 0.018574916 
0.0 0.34371647 0.13721266 0.0 0.08764921 0.07698792 
0.0 0.04055394 0.0 0.0 0.0 0.07698792 
0.0 0.0 0.0 0.0 0.0 0.07698792 
0.0 0.0 0.0 0.0 0.0 0.07698792 
0.0 0.0 0.0 0.0 0.0 0.07698792 
0.0 0.0 0.0 0.0 0.0 0.07698792 
0.0 0.0 0.0 0.0 0.0 0.07698792 
0.0 0.0 0.0 0.0 0.0 0.07698792 
1.2750096 0.0 0.0 0.17285848 0.29015696 0.962743 
2.1246743 0.35785767 0.0 0.34010035 1.546636 1.1984236 
1.1208014 1.621149 1.2948779 0.46898928 2.0511138 0.8587138 
0.23866475 1.4684443 2.276432 0.6094765 1.7864274 0.02284126 
0.35477024 1.5077429 1.8754946 0.57419616 1.3685093 0.0 
0.2060501 1.7263938 2.1000378 0.24420401 1.0791095 0.0 
0.0 1.7407713 1.7135046 0.0 0.95677334 0.0 
0.0 0.7424615 0.6601863 0.0 0.5993239 0.0 
0.0 0.042087857 0.0 0.0 0.020269696 0.07698792 
0.0 0.0 0.0 0.0 0.0 0.07698792 
0.0 0.0 0.0 0.0 0.0 0.07698792 
0.0 0.0 0.0 0.0 0.0 0.07698792 
0.0 0.0 0.0 0.0 0.0 0.07698792 
0.0 0.0 0.0 0.0 0.0 0.07698792 
1.0331883 0.0 0.0 0.19463186 0.66996557 1.089756 
1.4632607 0.0 0.0 0.6985508 1.7629129 1.7081063 
0.9761297 0.60742176 0.0 1.2255896 2.4261308 2.0528638 
0.5039122 0.9407045 0.36045915 1.3515109 2.3849764 2.0384843 
0.63442177 1.1875112 0.96150947 1.4568429 2.3694108 2.0642495 
0.9318002 1.6129171 1.9870468 1.2010487 1.8344637 1.6447523 
0.09936535 2.1194534 2.2931964 0.67144734 1.625561 0.0 
0.0 1.7767568 2.136209 0.037442673 1.3236462 0.0 
0.0 0.23420028 0.24710095 0.0 0.310732 0.07698792 
0.0 0.0 0.0 0.0 0.0 0.07698792 
0.0 0.0 0.0 0.0 0.0 0.07698792 
0.0 0.0 0.0 0.0 0.0 0.07698792 
0.0 0.0 0.0 0.0 0.0 0.07698792 
0.0 0.0 0.0 0.0 0.0 0.07698792 
0.41115803 0.0 0.0 0.0 0.48531124 0.5131561 
0.6190197 0.0 0.0 0.0 1.0984396 1.1281173 
0.51592684 0.0 0.0 0.0 1.4621404 1.5951712 
0.4088152 0.0 0.0 0.0 1.5812913 1.6604574 
0.7470386 0.0 0.0 0.06619635 1.6902338 1.9766152 
1.8163238 0.028535485 0.0 0.40957978 1.570622 1.8598061 
1.3355732 2.031534 1.5739613 0.40677854 1.9170989 0.76865613 
0.0 1.8636938 2.1281018 0.03184207 1.9271481 0.0 
0.0 0.43087184 0.8384915 0.0 0.66454464 0.062931426 
0.0 0.0 0.0 0.0 0.0 0.07698792 
0.0 0.0 0.0 0.0 0.0 0.07698792 
0.0 0.0 0.0 0.0 0.0 0.07698792 
0.0 0.0 0.0 0.0 0.0 0.07698792 
0.0 0.0 0.0 0.0 0.0 0.07698792 
0.0 0.0 0.0 0.0 0.0 0.07698792 
0.0 0.0 0.0 0.0 0.0 0.07698792 
0.047976583 0.0 0.059310153 0.0 0.020730678 0.112528354 
0.10979575 0.15292658 0.07018984 0.0 0.097029775 0.15046346 
0.7673831 0.12851828 0.19704676 0.0 0.35986874 0.5784868 
2.1751368 0.0 0.0 0.0 1.050211 0.97672164 
1.6318393 1.7824566 0.39873692 0.0 2.478151 0.6647192 
0.0 1.8951399 1.9946953 0.18062878 2.0739257 0.20818366 
0.0 0.45503956 1.0583607 0.13190179 0.6543805 0.08188207 
0.0 0.0 0.0 0.0 0.0 0.07698792 
0.0 0.0 0.0 0.0 0.0 0.07698792 
0.0 0.0 0.0 0.0 0.0 0.07698792 
0.0 0.0 0.0 0.0 0.0 0.07698792 
0.0 0.0 0.0 0.0 0.0 0.07698792 
0.0 0.0 0.0 0.0 0.0 0.07698792 
0.0 0.0 0.0 0.0 0.0 0.07698792 
0.36730203 0.0 0.14236122 0.1258597 0.0 0.29865494 
0.62289584 0.49476716 0.5093961 0.49109584 0.12636662 0.23905356 
0.91688657 0.68627596 0.6677533 0.66241926 0.956222 0.5475341 
1.9341567 0.56322604 0.0 0.9119946 2.2655354 1.3345165 
1.0197821 1.8484888 0.20804703 0.87591636 2.7205334 1.3125222 
0.0 1.4729078 1.3856155 0.40672216 1.948172 0.58220047 
0.0 0.14703052 0.822737 0.15542695 0.33381152 0.14203921 
0.0 0.0 0.0 0.0 0.0 0.07698792 
0.0 0.0 0.0 0.0 0.0 0.07698792 
0.0 0.0 0.0 0.0 0.0 0.07698792 
0.0 0.0 0.0 0.0 0.0 0.07698792 
0.0 0.0 0.0 0.0 0.0 0.07698792 
0.0 0.0 0.0 0.0 0.0 0.07698792 
0.0 0.0 0.0 0.0 0.0 0.07698792 
0.42565098 0.0 0.0 0.31352898 0.34204718 0.6158017 
0.503435 0.32922924 0.0 0.98333704 0.73117775 1.0982807 
0.48395193 0.33362916 0.18234372 1.518605 1.5062929 1.5094109 
0.70633876 0.36374468 0.0 1.3641019 2.1021569 1.6996784 
0.010286421 0.7536761 0.10993286 0.8606954 2.030663 1.4643879 
0.0 0.43343964 0.7895421 0.31643996 0.7883255 0.6736638 
0.0 0.0 0.19145113 0.0 0.03549776 0.11152387 
0.0 0.0 0.0 0.0 0.0 0.07698792 
0.0 0.0 0.0 0.0 0.0 0.07698792 
0.0 0.0 0.0 0.0 0.0 0.07698792 
0.0 0.0 0.0 0.0 0.0 0.07698792 
0.0 0.0 0.0 0.0 0.0 0.07698792 
0.0 0.0 0.0 0.0 0.0 0.07698792 
0.0 0.0 0.0 0.0 0.0 0.07698792 
0.22996277 0.0 0.0 0.0 0.39699897 0.28814846 
0.33145416 0.0 0.0 0.0 0.7503523 0.4607435 
0.2315174 0.0 0.0 0.0 0.9699555 0.572098 
0.14347674 0.0 0.0 0.0 0.9700721 0.5725834 
0.0 0.0 0.0 0.0 0.5441692 0.378074 
0.0 0.0 0.054419316 0.0 0.18124443 0.20644648 
0.0 0.0 0.0 0.0 0.0 0.07698792 
0.0 0.0 0.0 0.0 0.0 0.07698792 
0.0 0.0 0.0 0.0 0.0 0.07698792 

