0.0 0.0 0.0 0.0 0.0 0.07698792 
0.0 0.0 0.0 0.0 0.0 0.07698792 
0.0 0.0 0.0 0.0 0.0 0.07698792 
0.0 0.0 0.0 0.0 0.0 0.07698792 
0.0 0.0 0.0 0.0 0.0 0.07698792 
0.0 0.0 0.0 0.0 0.0 0.07698792 
0.0 0.0 0.0 0.0 0.0 0.07698792 
0.0 0.0 0.0 0.0 0.0 0.07698792 
0.0 0.0 0.0 0.0 0.0 0.07698792 
0.0 0.0 0.0 0.0 0.0 0.07698792 
0.0 0.0 0.0 0.0 0.0 0.07698792 
0.0 0.0 0.0 0.0 0.0 0.07698792 
0.0 0.0 0.0 0.0 0.0 0.07698792 
0.0 0.0 0.0 0.0 0.0 0.07698792 
0.0 0.0 0.0 0.0 0.0 0.07698792 
0.0 0.0 0.0 0.0 0.0 0.07698792 
0.0 0.0 0.0 0.0 0.0 0.07698792 
0.0 0.0 0.0 0.0 0.0 0.07698792 
0.0 0.0 0.0 0.0 0.0 0.07698792 
0.0 0.0 0.0 0.0 0.0 0.07698792 
0.0 0.0 0.0 0.0 0.0 0.07698792 
0.0 0.0 0.0 0.0 0.0 0.07698792 
0.0 0.0 0.0 0.0 0.0 0.07698792 
0.0 0.0 0.0 0.0 0.0 0.07698792 
0.0 0.0 0.0 0.0 0.0 0.07698792 
0.0 0.0 0.0 0.0 0.0 0.07698792 
0.0 0.0 0.0 0.0 0.0 0.07698792 
0.0 0.0 0.0 0.0 0.0 0.07698792 
0.0 0.0 0.0 0.0 0.0 0.07698792 
0.0 0.0 0.0 0.0 0.0 0.07698792 
0.0 0.0 0.0 0.0 0.0 0.07698792 
0.0 0.0 0.0 0.0 0.0 0.07698792 
0.0 0.0 0.0 0.0 0.0 0.07698792 
0.0 0.0 0.0 0.0 0.0 0.07698792 
0.0 0.0 0.0 0.0 0.0 0.07698792 
0.0 0.0 0.0 0.0 0.0 0.07698792 
0.0 0.0 0.0 0.0 0.0 0.07698792 
0.0 0.0 0.0 0.0 0.0 0.07698792 
0.0 0.0 0.0 0.0 0.0 0.07698792 
0.0 0.0 0.0 0.0 0.0 0.07698792 
0.0 0.0 0.0 0.0 0.0 0.07698792 
0.0 0.0 0.0 0.0 0.0 0.07698792 
0.0 0.0 0.0 0.0 0.0 0.07698792 
0.0 0.0 0.0 0.0 0.0 0.07698792 
0.0 0.0 0.0 0.0 0.0 0.07698792 
0.0 0.0 0.0 0.0 0.0 0.07698792 
0.0 0.0 0.0 0.0 0.0 0.07698792 
0.0 0.0 0.0 0.0 0.0 0.07698792 
0.0 0.0 0.0 0.0 0.0 0.07698792 
0.0 0.0 0.0 0.0 0.0 0.07698792 
0.0 0.0 0.0 0.0 0.0 0.07698792 
0.0 0.0 0.0 0.0 0.0 0.07698792 
0.0 0.0 0.0 0.0 0.0 0.07698792 
0.0 0.0 0.0 0.0 0.0 0.07698792 
0.0 0.0 0.0 0.0 0.0 0.07698792 
0.0 0.0 0.0 0.0 0.0 0.07698792 
0.0 0.0 0.0 0.0 0.0 0.07698792 
0.0 0.0 0.0 0.0 0.0 0.07698792 
0.0 0.0 0.0 0.0 0.0 0.07698792 
0.17688985 0.06721665 0.14059538 0.0 0.0 0.07698792 
0.3860238 0.29895878 0.37238085 0.0 0.0 0.05394077 
0.48796976 0.54583913 0.5688126 0.0 0.0 0.0 
0.4621166 0.7441296 0.7018786 0.0 0.0 0.0 
0.34069902 0.8348307 0.7252019 0.0 0.04347487 0.0 
0.0 0.8071601 0.5280517 0.0 0.20060076 0.0 
0.0 0.31133857 0.14828625 0.0 0.15941013 0.07698792 
0.0 0.023720384 0.0 0.0 0.0 0.07698792 
0.0 0.0 0.0 0.0 0.0 0.07698792 
0.0 0.0 0.0 0.0 0.0 0.07698792 
0.0 0.0 0.0 0.0 0.0 0.07698792 
0.2680268 0.03016591 0.1711669 0.0 0.0 0.07698792 
0.46671528 0.2518647 0.3645171 0.0 0.0 0.036496785 
0.83067596 0.4694669 0.5329365 0.0 0.0 0.0 
0.921774 0.71089387 0.6949849 0.0 0.28783157 0.0 
0.77578485 0.87782633 0.84770775 0.036921877 0.93316513 0.0 
0.71272665 0.92323965 0.98367584 0.7762306 1.3228818 0.0 
0.54462934 1.0641901 1.1649464 1.2205927 1.5025425 0.24382679 
0.38026512 1.2399918 1.3413838 1.2752476 1.4569262 0.27614808 
0.15325738 1.3917958 1.8846925 0.88609284 0.9753607 0.0 
0.0 1.5093902 1.8226451 0.0 0.69734275 0.0 
0.0 0.89547175 0.7278965 0.0 0.5977834 0.0 
0.0 0.12459317 0.015440419 0.0 0.14659466 0.07698792 
0.0 0.0 0.0 0.0 0.0 0.07698792 
0.0 0.0 0.0 0.0 0.0 0.07698792 
0.7795382 0.0 0.18779936 0.34626034 0.0 0.46370128 
0.94022197 0.49012473 0.59054613 1.161624 0.7290059 0.47304755 
0.75480235 0.88214356 0.77025986 1.4727968 1.793102 0.89373595 
0.5935284 1.1411805 0.6716451 1.5283228 2.25829 1.3458853 
0.25319773 0.9878211 0.46310377 1.5115646 2.2593343 1.7234037 
0.25938332 0.9902483 0.2578063 1.70133 2.0204794 1.8489022 
0.22055566 0.91155154 0.12430043 1.6294382 2.0582895 1.7356093 
0.40917528 0.8014217 0.15891224 1.5952057 1.8227352 1.8350344 
0.9483097 0.83238405 1.3111687 1.5037991 1.1936889 1.771425 
0.8581543 1.7629452 2.1344185 0.94140077 0.9461468 0.6597902 
0.0 2.1210058 2.2634861 0.2522455 1.3053765 0.0 
0.0 0.8935508 0.98363304 0.0 0.7021666 0.0 
0.0 0.0 0.0 0.0 0.0 0.07698792 
0.0 0.0 0.0 0.0 0.0 0.07698792 
0.756675 0.0 0.0 0.5093076 0.7610489 0.9996014 
0.65250593 0.25533 0.0 1.2270496 1.4166448 1.4094248 
0.4145194 0.68561834 0.0 1.4548666 2.0002005 1.6266606 
0.20873716 0.6661996 0.0 0.79381305 1.9625047 1.6578951 
0.07269275 0.26441076 0.0 0.010094584 1.5793958 1.4635985 
0.14194338 0.0 0.0 0.0 1.2534125 1.0994592 
0.06313141 0.0 0.0 0.0 1.1279434 0.9122587 
0.37909326 0.0 0.0 0.0 1.089443 0.97613156 
2.0202074 0.0 0.0 0.0 0.9928438 1.3486872 
1.9965866 1.1198838 0.39522845 0.07655373 1.6589102 0.8961833 
0.0 2.0939574 2.2492168 0.20944566 2.2053795 0.0 
0.0 1.3079587 2.082678 0.1921702 1.2394315 0.0 
0.0 0.0 0.0 0.0 0.0 0.07698792 
0.0 0.0 0.0 0.0 0.0 0.07698792 
0.37057638 0.0 0.0 0.0 0.5320738 0.4232633 
0.32269302 0.0 0.0 0.0 0.7873202 0.54347813 
0.08723651 0.0 0.0 0.0 0.8310458 0.5526773 
0.0 0.0 0.0 0.0 0.42743906 0.31730446 
0.0 0.0 0.0 0.0 0.10638577 0.14896281 
0.0 0.0 0.0 0.0 0.0 0.079194814 
0.0 0.0 0.0 0.0 0.0 0.07698792 
0.46093822 0.0 0.08788317 0.0 0.0 0.12119521 
2.08867 0.0 0.0 0.0 0.67766726 0.7891861 
2.0323489 1.3049122 0.0 0.08780984 2.5666358 0.7538607 
0.0 1.9576465 1.5398374 0.26669613 2.684734 0.40692466 
0.0 1.0516024 1.8539716 0.22853383 1.3157791 0.40617013 
0.0 0.0 0.0 0.0 0.0 0.07698792 
0.0 0.0 0.0 0.0 0.0 0.07698792 
0.0 0.0 0.0 0.0 0.0 0.07698792 
0.0 0.0 0.0 0.0 0.0 0.07698792 
0.0 0.0 0.0 0.0 0.0 0.07698792 
0.0 0.0 0.0 0.0 0.0 0.07698792 
0.0 0.0 0.0 0.0 0.0 0.07698792 
0.0 0.0 0.0 0.0 0.0 0.07698792 
0.0 0.0 0.0 0.0 0.0 0.07698792 
0.8943464 0.0 0.0 0.27561662 0.0 0.54249334 
1.9439816 0.44034007 0.0 0.5229698 1.5999897 0.7834416 
1.076072 1.4683985 0.0 0.39776486 2.9438896 0.8550447 
0.0 1.4485885 0.9816421 0.31449464 2.504781 0.6938515 
0.0 0.30342665 1.0309687 0.18455777 0.73589736 0.43361396 
0.0 0.0 0.0 0.0 0.0 0.07698792 
0.0 0.0 0.0 0.0 0.0 0.07698792 
0.0 0.0 0.0 0.0 0.0 0.07698792 
0.0 0.0 0.0 0.0 0.0 0.07698792 
0.0 0.0 0.0 0.0 0.0 0.07698792 
0.0 0.0 0.0 0.0 0.0 0.07698792 
0.0 0.0 0.0 0.0 0.0 0.07698792 
0.0 0.0 0.0 0.0 0.0 0.07698792 
0.0 0.0 0.0 0.0 0.0 0.07698792 
0.96707875 0.0 0.0 0.28828532 0.6134715 1.0115869 
1.5380478 0.35867426 0.0 0.6256303 1.6693021 1.4345145 
0.16616575 1.203201 0.4817027 0.6421198 2.1479378 1.0410053 
0.0 0.44682714 0.598116 0.068620905 1.1726056 0.5573549 
0.0 0.0 0.29394194 0.0 0.12825662 0.1748726 
0.0 0.0 0.0 0.0 0.0 0.07698792 
0.0 0.0 0.0 0.0 0.0 0.07698792 
0.0 0.0 0.0 0.0 0.0 0.07698792 
0.0 0.0 0.0 0.0 0.0 0.07698792 
0.0 0.0 0.0 0.0 0.0 0.07698792 
0.0 0.0 0.0 0.0 0.0 0.07698792 
0.0 0.0 0.0 0.0 0.0 0.07698792 
0.0 0.0 0.0 0.0 0.0 0.07698792 
0.0 0.0 0.0 0.0 0.0 0.07698792 
0.56477576 0.0 0.0 0.0 0.5052493 0.6646253 
0.7846238 0.051854383 0.0 0.0 1.0106311 1.0080348 
0.0 0.14416741 0.35096556 0.0 0.73508734 0.77785546 
0.0 0.0 0.45309407 0.018080063 0.18043008 0.25862995 
0.0 0.0 0.0 0.0 0.0 0.07698792 
0.0 0.0 0.0 0.0 0.0 0.07698792 
0.0 0.0 0.0 0.0 0.0 0.07698792 
0.0 0.0 0.0 0.0 0.0 0.07698792 
0.0 0.0 0.0 0.0 0.0 0.07698792 
0.0 0.0 0.0 0.0 0.0 0.07698792 
0.0 0.0 0.0 0.0 0.0 0.07698792 
0.0 0.0 0.0 0.0 0.0 0.07698792 
0.0 0.0 0.0 0.0 0.0 0.07698792 
0.0 0.0 0.0 0.0 0.0 0.07698792 
0.03869459 0.0 0.0 0.0 0.1122569 0.15125306 
0.033736125 0.0 0.0 0.0 0.09213181 0.15893367 
0.0 0.0 0.0 0.0 0.02926324 0.1494487 
0.0 0.0 0.0 0.0 0.0 0.07858601 
0.0 0.0 0.0 0.0 0.0 0.07698792 
0.0 0.0 0.0 0.0 0.0 0.07698792 
0.0 0.0 0.0 0.0 0.0 0.07698792 
0.0 0.0 0.0 0.0 0.0 0.07698792 
0.0 0.0 0.0 0.0 0.0 0.07698792 
0.0 0.0 0.0 0.0 0.0 0.07698792 
0.0 0.0 0.0 0.0 0.0 0.07698792 
0.0 0.0 0.0 0.0 0.0 0.07698792 
0.0 0.0 0.0 0.0 0.0 0.07698792 
0.0 0.0 0.0 0.0 0.0 0.07698792 
0.0 0.0 0.0 0.0 0.0 0.07698792 
0.0 0.0 0.0 0.0 0.0 0.07698792 
0.0 0.0 0.0 0.0 0.0 0.07698792 
0.0 0.0 0.0 0.0 0.0 0.07698792 
0.0 0.0 0.0 0.0 0.0 0.07698792 
0.0 0.0 0.0 0.0 0.0 0.07698792 
0.0 0.0 0.0 0.0 0.0 0.07698792 

