0.0 0.0 0.0 0.0 0.0 0.07698792 
0.0 0.0 0.0 0.0 0.0 0.07698792 
0.0 0.0 0.0 0.0 0.0 0.07698792 
0.0 0.0 0.0 0.0 0.0 0.07698792 
0.0 0.0 0.0 0.0 0.0 0.07698792 
0.0 0.0 0.0 0.0 0.0 0.07698792 
0.0 0.0 0.0 0.0 0.0 0.07698792 
0.0 0.0 0.0 0.0 0.0 0.07698792 
0.0 0.0 0.0 0.0 0.0 0.07698792 
0.0 0.0 0.0 0.0 0.0 0.07698792 
0.0 0.0 0.0 0.0 0.0 0.07698792 
0.0 0.0 0.0 0.0 0.0 0.07698792 
0.0 0.0 0.0 0.0 0.0 0.07698792 
0.0 0.0 0.0 0.0 0.0 0.07698792 
0.0 0.0 0.0 0.0 0.0 0.07698792 
0.0 0.0 0.0 0.0 0.0 0.07698792 
0.0 0.0 0.0 0.0 0.0 0.07698792 
0.0 0.0 0.0 0.0 0.0 0.07698792 
0.0 0.0 0.0 0.0 0.0 0.07698792 
0.0 0.0 0.0 0.0 0.0 0.07698792 
0.0 0.0 0.0 0.0 0.0 0.07698792 
0.0 0.0 0.0 0.0 0.0 0.07698792 
0.0 0.0 0.0 0.0 0.0 0.07698792 
0.0 0.0 0.0 0.0 0.0 0.07698792 
0.0 0.0 0.0 0.0 0.0 0.07698792 
0.0 0.0 0.0 0.0 0.0 0.07698792 
0.0 0.0 0.0 0.0 0.0 0.07698792 
0.0 0.0 0.0 0.0 0.0 0.07698792 
0.0 0.0 0.0 0.0 0.0 0.07698792 
0.0 0.0 0.0 0.0 0.0 0.07698792 
0.0 0.0 0.0 0.0 0.0 0.07698792 
0.0 0.0 0.0 0.0 0.0 0.07698792 
0.014887907 0.0 0.050942227 0.0 0.0 0.07698792 
0.5959366 0.0060442155 0.22499657 0.0 0.0 0.027964178 
0.8772241 0.7592168 0.65944767 0.0 0.0 0.0 
0.14280403 1.1648548 0.88860065 0.0 0.61218774 0.0 
0.0 0.58089596 0.57146865 0.0 0.43746725 0.0 
0.0 0.14661697 0.031095125 0.0 0.0 0.07698792 
0.0 0.03269828 0.0 0.0 0.0 0.07698792 
0.0 0.0 0.0 0.0 0.0 0.07698792 
0.0 0.0 0.0 0.0 0.0 0.07698792 
0.0 0.0 0.0 0.0 0.0 0.07698792 
0.0 0.0 0.0 0.0 0.0 0.07698792 
0.0 0.0 0.0 0.0 0.0 0.07698792 
0.0 0.0 0.0 0.0 0.0 0.07698792 
0.0 0.0 0.0 0.0 0.0 0.07698792 
0.50725746 0.0 0.08306288 0.0 0.0 0.07408878 
1.5705574 0.18826519 0.13180193 0.16546543 0.21405815 0.041090295 
1.02103 1.6311903 0.6552739 0.6427939 1.9037124 0.23897503 
0.0 1.2607329 1.5158222 0.78243226 1.3772498 0.43722102 
0.63167137 1.3169322 1.4912081 0.36638 0.32366887 0.0 
0.0 1.446682 1.1229483 0.0 0.78372175 0.0 
0.0 0.527508 0.49711394 0.0 0.5560095 0.022273451 
0.0 0.0 0.0 0.0 0.0 0.07698792 
0.0 0.0 0.0 0.0 0.0 0.07698792 
0.0 0.0 0.0 0.0 0.0 0.07698792 
0.0 0.0 0.0 0.0 0.0 0.07698792 
0.0 0.0 0.0 0.0 0.0 0.07698792 
0.0 0.0 0.0 0.0 0.0 0.07698792 
0.0 0.0 0.0 0.0 0.0 0.07698792 
1.3917332 0.0 0.042884454 0.10074167 0.0 0.5367447 
1.9569256 0.96609724 0.0 0.2208168 1.7428917 0.69055885 
0.47606903 1.583746 0.7358911 0.07413386 2.420966 0.529691 
1.4164534 0.43520012 0.3003349 0.035310235 1.4679329 0.9885726 
1.5936584 1.4511137 1.2565379 0.35785818 1.640516 0.43750435 
0.0 2.0889385 1.9245964 0.5677667 1.9763085 0.0 
0.0 0.8894851 1.4673893 0.34602907 0.91119057 0.07587427 
0.0 0.0 0.0 0.0 0.0 0.07698792 
0.0 0.0 0.0 0.0 0.0 0.07698792 
0.0 0.0 0.0 0.0 0.0 0.07698792 
0.0 0.0 0.0 0.0 0.0 0.07698792 
0.0 0.0 0.0 0.0 0.0 0.07698792 
0.0 0.0 0.0 0.0 0.0 0.07698792 
0.0 0.0 0.0 0.0 0.0 0.07698792 
1.7051122 0.0 0.0 0.14087947 0.38921747 1.0126032 
1.9664638 1.3580267 0.0 0.20855282 1.8607522 0.8026293 
0.0 1.6830684 1.342791 0.0 2.019162 0.28473702 
2.0953228 0.0 0.5403981 0.0 0.87816507 0.7838385 
1.8562672 1.7954992 0.0 0.007356179 2.5266984 0.48879474 
0.0 1.8881726 1.5188602 0.12890093 2.3770254 0.16460013 
0.0 0.473685 1.2464134 0.15894136 0.8204895 0.23592329 
0.0 0.0 0.0 0.0 0.0 0.07698792 
0.0 0.0 0.0 0.0 0.0 0.07698792 
0.0 0.0 0.0 0.0 0.0 0.07698792 
0.0 0.0 0.0 0.0 0.0 0.07698792 
0.0 0.0 0.0 0.0 0.0 0.07698792 
0.0 0.0 0.0 0.0 0.0 0.07698792 
0.0 0.0 0.0 0.0 0.0 0.07698792 
1.7249901 0.0 0.0 0.13478965 0.54069495 1.1851697 
1.798662 1.2050884 0.0 0.23027633 1.27077 0.9611483 
0.0 1.6572207 1.9267166 0.09541662 1.5414519 0.0 
2.1132457 0.24293008 0.3162492 0.0 1.356877 0.60917276 
1.489712 1.9091403 0.50871986 0.0 2.4967206 0.41192064 
0.0 1.6174189 1.4869726 0.10743019 2.0384476 0.2274054 
0.0 0.15245225 0.7492467 0.12862347 0.5505076 0.09064392 
0.0 0.0 0.0 0.0 0.0 0.07698792 
0.0 0.0 0.0 0.0 0.0 0.07698792 
0.0 0.0 0.0 0.0 0.0 0.07698792 
0.0 0.0 0.0 0.0 0.0 0.07698792 
0.0 0.0 0.0 0.0 0.0 0.07698792 
0.0 0.0 0.0 0.0 0.0 0.07698792 
0.0 0.0 0.0 0.0 0.0 0.07698792 
1.164233 0.0 0.0 0.17988433 0.737446 1.214129 
1.5382288 0.3760415 0.0 0.45465466 1.0977288 1.5349782 
0.94955283 1.2672212 1.8309914 0.7936789 1.2741585 0.8036345 
1.5877054 1.1641816 0.76637423 0.41928938 2.2797074 0.55251193 
0.72115296 1.8925915 0.8482374 0.02667616 2.6915224 0.3472525 
0.0 1.2958829 1.4359182 0.08110857 1.70052 0.279065 
0.0 0.08441905 0.50131536 0.12549411 0.11928271 0.12590753 
0.0 0.0 0.0 0.0 0.0 0.07698792 
0.0 0.0 0.0 0.0 0.0 0.07698792 
0.0 0.0 0.0 0.0 0.0 0.07698792 
0.0 0.0 0.0 0.0 0.0 0.07698792 
0.0 0.0 0.0 0.0 0.0 0.07698792 
0.0 0.0 0.0 0.0 0.0 0.07698792 
0.0 0.0 0.0 0.0 0.0 0.07698792 
0.47945166 0.0 0.0 0.0 0.52217394 0.57781786 
0.919538 0.0 0.0 0.0 1.0131472 1.4695792 
1.6828437 0.0 0.0 0.71744376 1.2942097 1.3732388 
1.6807106 1.563942 0.18570265 0.7758747 2.400543 1.0631618 
0.0 1.985443 1.3468589 0.00842419 2.6529305 0.2042774 
0.0 0.6494425 1.2583745 0.08918477 1.2344692 0.3392182 
0.0 0.0 0.01596243 0.0 0.0 0.08672785 
0.0 0.0 0.0 0.0 0.0 0.07698792 
0.0 0.0 0.0 0.0 0.0 0.07698792 
0.0 0.0 0.0 0.0 0.0 0.07698792 
0.0 0.0 0.0 0.0 0.0 0.07698792 
0.0 0.0 0.0 0.0 0.0 0.07698792 
0.0 0.0 0.0 0.0 0.0 0.07698792 
0.0 0.0 0.0 0.0 0.0 0.07698792 
0.0 0.0 0.0 0.0 0.0 0.08627106 
0.58943444 0.0 0.0 0.0 0.3633338 0.46513504 
2.169815 0.0 0.0 0.0 0.9163471 1.0349466 
1.8044131 1.691468 0.0 0.0 2.4138467 0.74085397 
0.0 1.8222109 1.609385 0.0 2.3160064 0.1128732 
0.0 0.30694732 0.99078286 0.0 0.7965867 0.13743314 
0.0 0.0 0.0 0.0 0.0 0.07698792 
0.0 0.0 0.0 0.0 0.0 0.07698792 
0.0 0.0 0.0 0.0 0.0 0.07698792 
0.0 0.0 0.0 0.0 0.0 0.07698792 
0.0 0.0 0.0 0.0 0.0 0.07698792 
0.0 0.0 0.0 0.0 0.0 0.07698792 
0.0 0.0 0.0 0.0 0.0 0.07698792 
0.0 0.0 0.0 0.0 0.0 0.07698792 
0.0 0.0 0.0 0.0 0.0 0.07698792 
0.77763754 0.0 0.0 0.04635932 0.0 0.5078268 
2.1826246 0.0 0.0 0.0747807 1.1043813 0.8630085 
1.528322 1.9842085 0.45916617 0.06067915 2.4300644 0.44941884 
0.0 1.7053752 1.6480975 0.0 1.9370072 0.15880696 
0.0 0.24371141 0.8940399 0.031676013 0.47843716 0.07698792 
0.0 0.0 0.0 0.0 0.0 0.07698792 
0.0 0.0 0.0 0.0 0.0 0.07698792 
0.0 0.0 0.0 0.0 0.0 0.07698792 
0.0 0.0 0.0 0.0 0.0 0.07698792 
0.0 0.0 0.0 0.0 0.0 0.07698792 
0.0 0.0 0.0 0.0 0.0 0.07698792 
0.0 0.0 0.0 0.0 0.0 0.07698792 
0.0 0.0 0.0 0.0 0.0 0.07698792 
0.0 0.0 0.0 0.0 0.0 0.07698792 
1.1262646 0.0 0.0 0.021273505 0.046766315 0.6914565 
2.1354969 0.22355261 0.0 0.034638163 1.4416833 0.986042 
0.9970588 1.9055558 0.8263294 0.059928935 2.439886 0.48475748 
0.0 1.3679769 1.4922805 0.11058904 1.776358 0.23434716 
0.0 0.09740112 0.54772073 0.11386573 0.20091324 0.11927202 
0.0 0.0 0.0 0.0 0.0 0.07698792 
0.0 0.0 0.0 0.0 0.0 0.07698792 
0.0 0.0 0.0 0.0 0.0 0.07698792 
0.0 0.0 0.0 0.0 0.0 0.07698792 
0.0 0.0 0.0 0.0 0.0 0.07698792 
0.0 0.0 0.0 0.0 0.0 0.07698792 
0.0 0.0 0.0 0.0 0.0 0.07698792 
0.0 0.0 0.0 0.0 0.0 0.07698792 
0.0 0.0 0.0 0.0 0.0 0.07698792 
0.95295876 0.0 0.0 0.20745312 0.5803061 0.92801344 
1.6723206 0.025550328 0.0 0.7038591 1.7458481 1.4587674 
0.18887323 1.2413481 0.7551558 0.72678953 2.2077463 1.1777041 
0.0 0.6321919 1.2144562 0.31023774 1.2170867 0.5198757 
0.0 0.0 0.11220341 0.0 0.01282933 0.100339696 
0.0 0.0 0.0 0.0 0.0 0.07698792 
0.0 0.0 0.0 0.0 0.0 0.07698792 
0.0 0.0 0.0 0.0 0.0 0.07698792 
0.0 0.0 0.0 0.0 0.0 0.07698792 
0.0 0.0 0.0 0.0 0.0 0.07698792 
0.0 0.0 0.0 0.0 0.0 0.07698792 
0.0 0.0 0.0 0.0 0.0 0.07698792 
0.0 0.0 0.0 0.0 0.0 0.07698792 
0.0 0.0 0.0 0.0 0.0 0.07698792 
0.49209994 0.0 0.0 0.0 0.5050136 0.63518846 
0.74777895 0.031915393 0.0 0.0 1.0707769 1.1559737 
0.0 0.14911038 0.00927636 0.0 0.76504433 0.95356065 
0.0 0.0 0.46246368 0.017212521 0.2486917 0.37820068 
0.0 0.0 0.0 0.0 0.0 0.07698792 
0.0 0.0 0.0 0.0 0.0 0.07698792 
0.0 0.0 0.0 0.0 0.0 0.07698792 
0.0 0.0 0.0 0.0 0.0 0.07698792 
0.0 0.0 0.0 0.0 0.0 0.07698792 

