0.0 0.0 0.0 0.0 0.0 0.07698792 
0.0 0.0 0.0 0.0 0.0 0.07698792 
0.0 0.0 0.0 0.0 0.0 0.07698792 
0.0 0.0 0.0 0.0 0.0 0.07698792 
0.0 0.0 0.0 0.0 0.0 0.07698792 
0.0 0.0 0.0 0.0 0.0 0.07698792 
0.0 0.0 0.0 0.0 0.0 0.07698792 
0.0 0.0 0.0 0.0 0.0 0.07698792 
0.0 0.0 0.0 0.0 0.0 0.07698792 
0.0 0.0 0.0 0.0 0.0 0.07698792 
0.0 0.0 0.0 0.0 0.0 0.07698792 
0.0 0.0 0.0 0.0 0.0 0.07698792 
0.0 0.0 0.0 0.0 0.0 0.07698792 
0.0 0.0 0.0 0.0 0.0 0.07698792 
0.0 0.0 0.0 0.0 0.0 0.07698792 
0.0 0.0 0.0 0.0 0.0 0.07698792 
0.0 0.0 0.0 0.0 0.0 0.07698792 
0.0 0.0 0.0 0.0 0.0 0.07698792 
0.0 0.0 0.0 0.0 0.0 0.07698792 
0.0069756806 0.0 0.03560639 0.0 0.0 0.07698792 
0.21853533 0.16602685 0.18438554 0.0 0.0 0.07698792 
0.11604062 0.3570414 0.19916597 0.0 0.0 0.07698792 
0.0 0.26071805 0.08755656 0.0 0.047321957 0.07698792 
0.0 0.024281502 0.0 0.0 0.0 0.07698792 
0.0 0.0 0.0 0.0 0.0 0.07698792 
0.0 0.0 0.0 0.0 0.0 0.07698792 
0.0 0.0 0.0 0.0 0.0 0.07698792 
0.0 0.0 0.0 0.0 0.0 0.07698792 
0.0 0.0 0.0 0.0 0.0 0.07698792 
0.0 0.0 0.0 0.0 0.0 0.07698792 
0.0 0.0 0.0 0.0 0.0 0.07698792 
0.0 0.0 0.0 0.0 0.0 0.07698792 
0.0 0.0 0.0 0.0 0.0 0.07698792 
0.74735606 0.0 0.14779899 0.0 0.0 0.03060145 
1.1986737 0.5195103 0.48479712 0.0 0.0 0.0 
0.59852076 1.2732211 1.504996 0.0 0.8780316 0.0 
0.0 1.4374353 1.421853 0.0 0.86431646 0.0 
0.0 0.62323713 0.5902728 0.0 0.49536142 0.0 
0.0 0.047003143 0.0 0.0 0.0071067847 0.07698792 
0.0 0.0 0.0 0.0 0.0 0.07698792 
0.0 0.0 0.0 0.0 0.0 0.07698792 
0.0 0.0 0.0 0.0 0.0 0.07698792 
0.0 0.0 0.0 0.0 0.0 0.07698792 
0.0 0.0 0.0 0.0 0.0 0.07698792 
0.0 0.0 0.0 0.0 0.0 0.07698792 
0.0 0.0 0.0 0.0 0.0 0.07698792 
0.02856554 0.0 0.020315684 0.0 0.0 0.07698792 
1.7026229 0.0 0.0 0.078312084 0.0 0.5137731 
1.7997103 1.4056479 0.121416174 0.5362086 1.9663578 0.4630453 
0.036334306 1.6993235 1.4690224 0.9929283 2.4542177 1.3018558 
0.0 1.2964561 1.7654748 0.99246436 1.1219746 0.99023193 
0.0 1.2380913 1.4277465 0.83667344 0.7325887 0.09576821 
0.0 0.12351248 0.23272654 0.0 0.2676881 0.07267081 
0.0 0.0 0.0 0.0 0.0 0.07698792 
0.0 0.0 0.0 0.0 0.0 0.07698792 
0.0 0.0 0.0 0.0 0.0 0.07698792 
0.0 0.0 0.0 0.0 0.0 0.07698792 
0.0 0.0 0.0 0.0 0.0 0.07698792 
0.0 0.0 0.0 0.0 0.0 0.07698792 
0.0 0.0 0.0 0.0 0.0 0.07698792 
0.48070347 0.0 0.07373447 0.0 0.0 0.1650432 
2.072097 0.0 0.0 0.0014409916 0.9132773 0.61476237 
1.57623 1.5454733 0.0 0.0 2.5148017 0.37861112 
0.0 1.3449061 1.1243374 0.0 2.5908191 1.3691001 
0.34546688 0.3293604 0.0 0.29852697 1.2043505 1.3171628 
0.0 0.53060997 1.1929712 0.5865773 0.7662103 0.49652404 
0.0 0.23794952 0.42695513 0.21744597 0.10612522 0.13650297 
0.0 0.0 0.0 0.0 0.0 0.07698792 
0.0 0.0 0.0 0.0 0.0 0.07698792 
0.0 0.0 0.0 0.0 0.0 0.07698792 
0.0 0.0 0.0 0.0 0.0 0.07698792 
0.0 0.0 0.0 0.0 0.0 0.07698792 
0.0 0.0 0.0 0.0 0.0 0.07698792 
0.0 0.0 0.0 0.0 0.0 0.07698792 
1.070936 0.0 0.0 0.09269492 0.0 0.6166973 
1.983855 0.40121067 0.0 0.13668749 1.2380369 0.85577136 
0.560793 1.7733449 1.233862 0.0 1.9134897 0.0 
0.41469193 0.9004506 1.7045121 0.0 0.9407064 0.0 
0.6279633 1.5533365 1.3182335 0.0 1.0083181 0.0 
0.0 1.1972679 1.0332487 0.0 0.90718585 0.0 
0.0 0.032284822 0.10405218 0.0 0.22850884 0.07790112 
0.0 0.0 0.0 0.0 0.0 0.07698792 
0.0 0.0 0.0 0.0 0.0 0.07698792 
0.0 0.0 0.0 0.0 0.0 0.07698792 
0.0 0.0 0.0 0.0 0.0 0.07698792 
0.0 0.0 0.0 0.0 0.0 0.07698792 
0.0 0.0 0.0 0.0 0.0 0.07698792 
0.0 0.0 0.0 0.0 0.0 0.07698792 
1.4104326 0.0 0.0 0.02780522 0.13758177 0.7438606 
2.12815 0.5564432 0.0 0.042243358 1.3525803 0.8849891 
0.41835058 1.6833459 1.5065569 0.0 1.7991492 0.0 
1.1056006 1.0579038 1.4783814 0.0 1.7361672 0.3025381 
0.61918616 2.1340384 1.897905 0.36174378 2.0933728 0.0 
0.0 1.6458488 2.0044968 0.32705864 1.5086582 0.024500236 
0.0 0.22618845 0.41637757 0.14914078 0.21743117 0.07698792 
0.0 0.0 0.0 0.0 0.0 0.07698792 
0.0 0.0 0.0 0.0 0.0 0.07698792 
0.0 0.0 0.0 0.0 0.0 0.07698792 
0.0 0.0 0.0 0.0 0.0 0.07698792 
0.0 0.0 0.0 0.0 0.0 0.07698792 
0.0 0.0 0.0 0.0 0.0 0.07698792 
0.0 0.0 0.0 0.0 0.0 0.07698792 
1.3253846 0.0 0.0 0.1991633 0.5817276 1.1290576 
2.0660882 0.39515343 0.0 0.65260667 1.608382 1.5576315 
0.92937464 1.2963723 1.2624866 1.0219306 2.1689112 1.3226836 
1.0437403 1.1752231 0.909144 0.62701803 2.4869041 0.8760477 
0.47912377 1.9922776 1.1323531 0.016909063 2.6266553 0.15671882 
0.0 1.3861696 1.6920122 0.0 1.6219622 0.08043458 
0.0 0.03652081 0.3338697 0.025436357 0.11145632 0.091713704 
0.0 0.0 0.0 0.0 0.0 0.07698792 
0.0 0.0 0.0 0.0 0.0 0.07698792 
0.0 0.0 0.0 0.0 0.0 0.07698792 
0.0 0.0 0.0 0.0 0.0 0.07698792 
0.0 0.0 0.0 0.0 0.0 0.07698792 
0.0 0.0 0.0 0.0 0.0 0.07698792 
0.0 0.0 0.0 0.0 0.0 0.07698792 
0.82331115 0.0 0.0 0.043788455 0.69881064 1.0017923 
1.1448269 0.0 0.0 0.42253238 1.552481 1.703321 
1.3128068 0.14118887 0.0 0.9516759 1.9360795 1.9169965 
1.587671 1.1039579 0.0 0.79172474 2.3836796 1.5243423 
0.0 1.936146 1.2514637 0.16185583 2.5878224 0.32625806 
0.0 1.1016903 1.7105287 0.1301233 1.4552052 0.3013536 
0.0 0.0 0.06261747 0.014930884 0.0 0.085652605 
0.0 0.0 0.0 0.0 0.0 0.07698792 
0.0 0.0 0.0 0.0 0.0 0.07698792 
0.0 0.0 0.0 0.0 0.0 0.07698792 
0.0 0.0 0.0 0.0 0.0 0.07698792 
0.0 0.0 0.0 0.0 0.0 0.07698792 
0.0 0.0 0.0 0.0 0.0 0.07698792 
0.0 0.0 0.0 0.0 0.0 0.07698792 
0.1282457 0.0 0.0 0.0 0.23903595 0.21676123 
0.43427896 0.0 0.0 0.0 0.7292083 0.56977546 
1.7842984 0.0 0.0 0.0 0.9792531 1.3584852 
2.0801954 1.0654424 0.0 0.0 2.12202 1.1880939 
0.0 1.7623743 1.4787647 0.0 2.342304 0.15509759 
0.0 0.5653908 1.2586894 0.10646726 1.1439977 0.27309898 
0.0 0.0 0.0 0.0 0.0 0.07947831 
0.0 0.0 0.0 0.0 0.0 0.07698792 
0.0 0.0 0.0 0.0 0.0 0.07698792 
0.0 0.0 0.0 0.0 0.0 0.07698792 
0.0 0.0 0.0 0.0 0.0 0.07698792 
0.0 0.0 0.0 0.0 0.0 0.07698792 
0.0 0.0 0.0 0.0 0.0 0.07698792 
0.0 0.0 0.0 0.0 0.0 0.07698792 
0.0 0.0 0.0 0.0 0.0 0.07698792 
0.0 0.0 0.0 0.0 0.0 0.08404814 
1.8957281 0.0 0.0 0.08809011 0.3729109 0.94483393 
2.0788336 1.5736368 0.0 0.07975362 1.8498839 0.73132163 
0.0 1.809664 1.7380258 0.0 2.0956378 0.07308176 
0.0 0.34179175 1.0375693 0.0 0.78911656 0.090842016 
0.0 0.0 0.0 0.0 0.0 0.07698792 
0.0 0.0 0.0 0.0 0.0 0.07698792 
0.0 0.0 0.0 0.0 0.0 0.07698792 
0.0 0.0 0.0 0.0 0.0 0.07698792 
0.0 0.0 0.0 0.0 0.0 0.07698792 
0.0 0.0 0.0 0.0 0.0 0.07698792 
0.0 0.0 0.0 0.0 0.0 0.07698792 
0.0 0.0 0.0 0.0 0.0 0.07698792 
0.0 0.0 0.0 0.0 0.0 0.07698792 
0.0 0.0 0.0 0.0021547005 0.0 0.094497584 
1.9241414 0.0 0.0 0.30821916 0.8205953 1.4427724 
1.852175 1.4572934 0.0 0.7059772 1.7219125 1.3536534 
0.0 1.6819407 1.6685449 0.6936241 1.8721741 0.48604554 
0.0 0.22390933 0.913709 0.14949317 0.5860252 0.09497501 
0.0 0.0 0.0 0.0 0.0 0.07698792 
0.0 0.0 0.0 0.0 0.0 0.07698792 
0.0 0.0 0.0 0.0 0.0 0.07698792 
0.0 0.0 0.0 0.0 0.0 0.07698792 
0.0 0.0 0.0 0.0 0.0 0.07698792 
0.0 0.0 0.0 0.0 0.0 0.07698792 
0.0 0.0 0.0 0.0 0.0 0.07698792 
0.0 0.0 0.0 0.0 0.0 0.07698792 
0.0 0.0 0.0 0.0 0.0 0.07698792 
0.0 0.0 0.0 0.0 0.0 0.08828032 
1.1438951 0.0 0.0 0.17945671 1.0371956 1.3355007 
0.7912838 0.43279952 0.0 0.42314258 1.417038 1.2966514 
0.0 0.5756306 1.1058239 0.5446212 1.0264279 0.74960697 
0.0 0.1370888 0.6160982 0.18333794 0.13257141 0.14258894 
0.0 0.0 0.0 0.0 0.0 0.07698792 
0.0 0.0 0.0 0.0 0.0 0.07698792 
0.0 0.0 0.0 0.0 0.0 0.07698792 
0.0 0.0 0.0 0.0 0.0 0.07698792 
0.0 0.0 0.0 0.0 0.0 0.07698792 
0.0 0.0 0.0 0.0 0.0 0.07698792 
0.0 0.0 0.0 0.0 0.0 0.07698792 
0.0 0.0 0.0 0.0 0.0 0.07698792 
0.0 0.0 0.0 0.0 0.0 0.07698792 
0.0 0.0 0.0 0.0 0.0 0.07698792 
0.28852805 0.0 0.0 0.0 0.4788877 0.3347336 
0.20172545 0.0 0.0 0.0 0.46349606 0.31669354 
0.0 0.0 0.0 0.0 0.2509111 0.25159898 
0.0 0.0 0.015733704 0.0 0.0 0.08634818 
0.0 0.0 0.0 0.0 0.0 0.07698792 
0.0 0.0 0.0 0.0 0.0 0.07698792 
0.0 0.0 0.0 0.0 0.0 0.07698792 
0.0 0.0 0.0 0.0 0.0 0.07698792 

