0.0 0.0 0.0 0.0 0.0 0.07698792 
0.0 0.0 0.0 0.0 0.0 0.07698792 
0.0 0.0 0.0 0.0 0.0 0.07698792 
0.0 0.0 0.0 0.0 0.0 0.07698792 
0.0 0.0 0.0 0.0 0.0 0.07698792 
0.011731699 0.0 0.04244537 0.0 0.0 0.07698792 
0.17756337 0.18813144 0.14475322 0.0 0.0 0.07698792 
0.008121736 0.27180073 0.12827438 0.0 0.0075608976 0.07698792 
0.0 0.16037738 0.019400395 0.0 0.047111798 0.07698792 
0.0 0.0 0.0 0.0 0.0 0.07698792 
0.0 0.0 0.0 0.0 0.0 0.07698792 
0.0 0.0 0.0 0.0 0.0 0.07698792 
0.0 0.0 0.0 0.0 0.0 0.07698792 
0.0 0.0 0.0 0.0 0.0 0.07698792 
0.0 0.0 0.0 0.0 0.0 0.07698792 
0.0 0.0 0.0 0.0 0.0 0.07698792 
0.0 0.0 0.0 0.0 0.0 0.07698792 
0.0 0.0 0.0 0.0 0.0 0.07698792 
0.051990896 0.0 0.076130815 0.0 0.0 0.07698792 
0.85482746 0.0 0.20096594 0.0 0.0 0.0042864606 
1.2348902 0.8424425 0.6241526 0.0 0.12870492 0.0 
0.27429307 1.3887782 1.2111784 0.0 1.1032807 0.0 
0.0 0.8533606 0.9327533 0.0 0.7926243 0.0 
0.0 0.0 0.0 0.0 0.0 0.07698792 
0.0 0.0 0.0 0.0 0.0 0.07698792 
0.0 0.0 0.0 0.0 0.0 0.07698792 
0.0 0.0 0.0 0.0 0.0 0.07698792 
0.0 0.0 0.0 0.0 0.0 0.07698792 
0.0 0.0 0.0 0.0 0.0 0.07698792 
0.0 0.0 0.0 0.0 0.0 0.07698792 
0.0 0.0 0.0 0.0 0.0 0.07698792 
0.0 0.0 0.0 0.0 0.0 0.07698792 
0.8339221 0.0 0.12945884 0.0 0.0 0.05414922 
1.7364113 0.38212642 0.16745856 0.09533081 0.5159433 0.0 
1.4472063 1.7720186 0.4782912 0.4418277 2.3908563 0.28472447 
0.0 1.9556762 1.6948434 0.63710576 2.1845973 0.36839274 
0.0 0.8856136 1.4006071 0.42969713 0.91645855 0.34061977 
0.0 0.0 0.0 0.0 0.0 0.07698792 
0.0 0.0 0.0 0.0 0.0 0.07698792 
0.0 0.0 0.0 0.0 0.0 0.07698792 
0.0 0.0 0.0 0.0 0.0 0.07698792 
0.0 0.0 0.0 0.0 0.0 0.07698792 
0.0 0.0 0.0 0.0 0.0 0.07698792 
0.0 0.0 0.0 0.0 0.0 0.07698792 
0.0 0.0 0.0 0.0 0.0 0.07698792 
0.12847038 0.0 0.07793457 0.0 0.0 0.07698792 
1.7866664 0.0 0.0 0.052833434 0.10479179 0.4156355 
2.0142164 1.2132735 0.0 0.24484438 2.1717637 0.42922005 
0.72307926 1.7430891 0.377663 0.26723132 2.9036777 0.62895983 
0.0 1.3490239 0.8250946 0.19764249 2.1753926 0.63929516 
0.0 0.13716109 0.7000892 0.06505637 0.42736608 0.35577726 
0.0 0.0 0.0 0.0 0.0 0.07698792 
0.0 0.0 0.0 0.0 0.0 0.07698792 
0.0 0.0 0.0 0.0 0.0 0.07698792 
0.0 0.0 0.0 0.0 0.0 0.07698792 
0.0 0.0 0.0 0.0 0.0 0.07698792 
0.0 0.0 0.0 0.0 0.0 0.07698792 
0.0 0.0 0.0 0.0 0.0 0.07698792 
0.0 0.0 0.0 0.0 0.0 0.07698792 
0.67595774 0.0 0.022766069 0.04846574 0.0 0.3103563 
2.0957785 0.083299905 0.0 0.1388036 1.0028249 0.54873383 
1.7220845 1.7008585 0.0 0.21555437 2.8515499 0.49968493 
0.0 1.673202 1.0313519 0.073774606 2.7954042 0.5615969 
0.0 0.2971944 0.8533898 0.0 0.9730461 0.4399832 
0.07562271 0.28163543 0.20522457 0.0 0.02970222 0.10100451 
0.0 0.20385088 0.066985406 0.0 0.0035943314 0.07698792 
0.0 0.041115057 0.0 0.0 0.0 0.07698792 
0.0 0.0 0.0 0.0 0.0 0.07698792 
0.0 0.0 0.0 0.0 0.0 0.07698792 
0.0 0.0 0.0 0.0 0.0 0.07698792 
0.0 0.0 0.0 0.0 0.0 0.07698792 
0.0 0.0 0.0 0.0 0.0 0.07698792 
0.0 0.0 0.0 0.0 0.0 0.07698792 
1.1562004 0.0 0.0 0.13549145 0.08772877 0.780196 
2.077469 0.36528546 0.0 0.19867638 1.4279444 1.0180967 
0.84456813 1.860632 1.0272039 0.14897877 2.5158963 0.46455753 
0.3093437 1.1102512 1.394306 0.0 1.5084583 0.1596072 
0.9758057 0.93350595 0.9777771 0.0 0.19081333 0.0 
0.47295225 1.327036 1.4512902 0.0 0.6274512 0.0 
0.0 1.5394315 1.3719007 0.0 0.8242843 0.0 
0.0 0.78288 0.7113867 0.0 0.6217573 0.0 
0.0 0.02877045 0.0 0.0 0.0 0.07698792 
0.0 0.0 0.0 0.0 0.0 0.07698792 
0.0 0.0 0.0 0.0 0.0 0.07698792 
0.0 0.0 0.0 0.0 0.0 0.07698792 
0.0 0.0 0.0 0.0 0.0 0.07698792 
0.0 0.0 0.0 0.0 0.0 0.07698792 
1.3543537 0.0 0.0 0.0 0.15271473 0.78526956 
2.1566176 0.49092948 0.0 0.0 1.4202518 0.9582617 
0.5011443 1.6001438 1.7184522 0.0 1.7517179 0.0 
0.9407628 1.051285 1.7328856 0.1397519 1.5930912 0.0 
1.1136236 1.4559108 0.9129511 0.84575135 2.3646934 0.7851673 
0.5175655 1.4881791 1.6513838 1.241132 2.2529511 1.1938856 
0.21284595 1.9931796 2.0959249 0.95000976 1.3963323 0.26706603 
0.0 1.8394282 2.203739 0.06823301 1.2549155 0.0 
0.0 0.27982438 0.28743994 0.0 0.45864764 0.062397398 
0.0 0.0 0.0 0.0 0.0 0.07698792 
0.0 0.0 0.0 0.0 0.0 0.07698792 
0.0 0.0 0.0 0.0 0.0 0.07698792 
0.0 0.0 0.0 0.0 0.0 0.07698792 
0.0 0.0 0.0 0.0 0.0 0.07698792 
1.3266363 0.0 0.0 0.12718067 0.35295764 1.0198828 
2.1159728 0.390773 0.0 0.2430721 1.326109 1.2180977 
1.1652429 1.3964101 1.3570627 0.39944044 2.6093752 0.655763 
0.6073346 1.4756026 1.0474014 0.5631066 3.0030344 0.95706177 
0.33069536 1.3074704 0.0 0.76088756 2.9598782 1.5707457 
1.3878815 0.24751854 0.0 0.631001 2.5273561 1.8788614 
1.5261669 1.5336794 1.1871126 0.490445 1.4791754 0.98341364 
0.0 1.8972095 2.1249063 0.17981505 1.8060237 0.0 
0.0 0.7645543 1.2322206 0.020318046 0.78804094 0.018961534 
0.0 0.0 0.0 0.0 0.0 0.07698792 
0.0 0.0 0.0 0.0 0.0 0.07698792 
0.0 0.0 0.0 0.0 0.0 0.07698792 
0.0 0.0 0.0 0.0 0.0 0.07698792 
0.0 0.0 0.0 0.0 0.0 0.07698792 
1.009507 0.0 0.0 0.10324891 0.5747753 1.0587946 
1.8740556 0.0 0.0 0.33809933 1.3545595 1.5505903 
1.7732513 1.418273 0.33228338 0.40247205 2.6422272 1.5009277 
0.04575695 1.8017678 1.1937654 0.0 2.9273112 0.452825 
0.14665619 1.0056459 1.1729177 0.0 1.9174341 0.4239432 
1.8303194 0.24248305 0.33745927 0.0 0.9818787 0.56686854 
1.8797054 1.6288044 0.0 0.0 2.3249931 0.42995054 
0.0 1.8122611 1.9187338 0.14880686 2.1962116 0.15363072 
0.0 0.6076053 1.361653 0.11182827 0.9004237 0.11746408 
0.0 0.0 0.0 0.0 0.0 0.07698792 
0.0 0.0 0.0 0.0 0.0 0.07698792 
0.0 0.0 0.0 0.0 0.0 0.07698792 
0.0 0.0 0.0 0.0 0.0 0.07698792 
0.0 0.0 0.0 0.0 0.0 0.07698792 
0.39137867 0.0 0.0 0.0 0.42403373 0.4977946 
1.4158628 0.0 0.0 0.0 1.0469567 1.5753987 
1.7643147 0.32738912 0.0 0.37126574 1.6625806 1.6634827 
0.81072104 1.3743246 1.9379177 0.7019872 1.4834179 0.77493674 
0.63969886 1.5281044 2.0733304 0.61161226 1.5929784 0.0 
1.3119547 1.4174931 0.7261093 0.6534019 2.646689 0.7106806 
0.91851795 1.7213603 0.0399113 0.7097037 2.9207647 1.0498176 
0.0 1.5441655 1.3719096 0.46378836 2.1385353 0.68942106 
0.0 0.24405825 0.9771761 0.17521898 0.55322796 0.2124109 
0.0 0.0 0.0 0.0 0.0 0.07698792 
0.0 0.0 0.0 0.0 0.0 0.07698792 
0.0 0.0 0.0 0.0 0.0 0.07698792 
0.0 0.0 0.0 0.0 0.0 0.07698792 
0.0 0.0 0.0 0.0 0.0 0.07698792 
0.0 0.0 0.0 0.0 0.0 0.08627106 
0.7721336 0.0 0.0 0.0 0.7077074 0.9046731 
1.531903 0.0 0.0 0.14058164 1.2221453 1.6147041 
1.4542708 0.900057 0.081921674 0.82846785 2.234465 1.9321151 
0.52162933 1.3328657 0.6767381 1.080316 2.987736 1.8843861 
0.28671992 1.3282219 0.11606824 1.0461943 2.9474046 1.6423168 
0.0 0.9518338 0.0 0.65446913 2.6673648 1.4251044 
0.0 0.371424 0.57762915 0.15127046 0.83809775 0.69370556 
0.0 0.0 0.30840814 0.0 0.10123229 0.14961648 
0.0 0.0 0.0 0.0 0.0 0.07698792 
0.0 0.0 0.0 0.0 0.0 0.07698792 
0.0 0.0 0.0 0.0 0.0 0.07698792 
0.0 0.0 0.0 0.0 0.0 0.07698792 
0.0 0.0 0.0 0.0 0.0 0.07698792 
0.0 0.0 0.0 0.0 0.0 0.07698792 
0.082549766 0.0 0.0 0.0 0.17031135 0.18466958 
0.9908491 0.0 0.0 0.0 0.9998873 1.218924 
1.0160456 0.0 0.0 0.21721566 1.9187815 1.6841142 
0.19401222 0.4708783 0.0 0.44519812 2.115855 1.769978 
0.0 0.29266357 0.0 0.0 1.5905429 1.3316939 
0.0 0.0 0.034112997 0.0 0.5788391 0.560898 
0.0 0.0 0.010265991 0.0 0.14123817 0.17501175 
0.0 0.0 0.0 0.0 0.0 0.07767282 
0.0 0.0 0.0 0.0 0.0 0.07698792 
0.0 0.0 0.0 0.0 0.0 0.07698792 
0.0 0.0 0.0 0.0 0.0 0.07698792 
0.0 0.0 0.0 0.0 0.0 0.07698792 
0.0 0.0 0.0 0.0 0.0 0.07698792 
0.0 0.0 0.0 0.0 0.0 0.07698792 
0.0 0.0 0.0 0.0 0.0 0.07698792 
0.18717837 0.0 0.0 0.0 0.33567294 0.25544053 
0.2740451 0.0 0.0 0.0 0.48658738 0.34066427 
0.0 0.0 0.0 0.0 0.36454502 0.3214783 
0.0 0.0 0.0 0.0 0.12515955 0.17018023 
0.0 0.0 0.0 0.0 0.0 0.08075601 
0.0 0.0 0.0 0.0 0.0 0.07698792 
0.0 0.0 0.0 0.0 0.0 0.07698792 
0.0 0.0 0.0 0.0 0.0 0.07698792 
0.0 0.0 0.0 0.0 0.0 0.07698792 
0.0 0.0 0.0 0.0 0.0 0.07698792 
0.0 0.0 0.0 0.0 0.0 0.07698792 
0.0 0.0 0.0 0.0 0.0 0.07698792 
0.0 0.0 0.0 0.0 0.0 0.07698792 
0.0 0.0 0.0 0.0 0.0 0.07698792 
0.0 0.0 0.0 0.0 0.0 0.07698792 
0.0 0.0 0.0 0.0 0.0 0.07698792 
0.0 0.0 0.0 0.0 0.0 0.07698792 
0.0 0.0 0.0 0.0 0.0 0.07698792 
0.0 0.0 0.0 0.0 0.0 0.07698792 
0.0 0.0 0.0 0.0 0.0 0.07698792 
0.0 0.0 0.0 0.0 0.0 0.07698792 
0.0 0.0 0.0 0.0 0.0 0.07698792 
0.0 0.0 0.0 0.0 0.0 0.07698792 

