0.0 0.0 0.0 0.0 0.0 0.07698792 
0.0 0.0 0.0 0.0 0.0 0.07698792 
0.0 0.0 0.0 0.0 0.0 0.07698792 
0.0 0.0 0.0 0.0 0.0 0.07698792 
0.0 0.0 0.0 0.0 0.0 0.07698792 
0.0 0.0 0.0 0.0 0.0 0.07698792 
0.0 0.0 0.0 0.0 0.0 0.07698792 
0.0 0.0 0.0 0.0 0.0 0.07698792 
0.0 0.0 0.0 0.0 0.0 0.07698792 
0.0 0.0 0.0 0.0 0.0 0.07698792 
0.0 0.0 0.0 0.0 0.0 0.07698792 
0.0 0.0 0.0 0.0 0.0 0.07698792 
0.0 0.0 0.0 0.0 0.0 0.07698792 
0.0 0.0 0.0 0.0 0.0 0.07698792 
0.0 0.0 0.0 0.0 0.0 0.07698792 
0.0 0.0 0.0 0.0 0.0 0.07698792 
0.0 0.0 0.0 0.0 0.0 0.07698792 
0.0 0.0 0.0 0.0 0.0 0.07698792 
0.0 0.0 0.0 0.0 0.0 0.07698792 
0.10360207 0.0 0.11492901 0.0 0.0 0.07698792 
0.13594265 0.16745071 0.06481937 0.0 0.0 0.07698792 
0.0 0.19983624 0.07326432 0.0 0.045502428 0.07698792 
0.0 0.0018367553 0.0 0.0 0.0 0.07698792 
0.0 0.0 0.0 0.0 0.0 0.07698792 
0.0 0.0 0.0 0.0 0.0 0.07698792 
0.0 0.0 0.0 0.0 0.0 0.07698792 
0.0 0.0 0.0 0.0 0.0 0.07698792 
0.0 0.0 0.0 0.0 0.0 0.07698792 
0.0 0.0 0.0 0.0 0.0 0.07698792 
0.0 0.0 0.0 0.0 0.0 0.07698792 
0.0 0.0 0.0 0.0 0.0 0.07698792 
0.0 0.0 0.0 0.0 0.0 0.07698792 
0.14961216 0.0 0.11811436 0.0 0.0 0.07698792 
1.0722406 0.0 0.21830961 0.0 0.0 0.0 
0.94813615 1.3224171 0.8536338 0.0 0.6247479 0.0 
0.0 1.2364436 1.0864996 0.0 0.92272514 0.0 
0.0 0.08466373 0.07793062 0.0 0.23804368 0.07698792 
0.0 0.0 0.0 0.0 0.0 0.07698792 
0.0 0.0 0.0 0.0 0.0 0.07698792 
0.0 0.0 0.0 0.0 0.0 0.07698792 
0.0 0.0 0.0 0.0 0.0 0.07698792 
0.0 0.0 0.0 0.0 0.0 0.07698792 
0.0 0.0 0.0 0.0 0.0 0.07698792 
0.0 0.0 0.0 0.0 0.0 0.07698792 
0.0 0.0 0.0 0.0 0.0 0.07698792 
0.0 0.0 0.00074435025 0.0 0.0 0.07698792 
1.0359621 0.0 0.08631758 0.0 0.0 0.016712539 
1.722301 0.5894943 0.099061854 0.067231975 0.98831254 0.009644814 
0.8836557 1.9440815 1.1176953 0.37569678 1.9952582 0.0 
0.0 1.5852548 1.644503 0.48044544 1.5457909 0.1705658 
0.0 0.22464046 0.46708125 0.18659137 0.26446038 0.08656194 
0.19666183 0.0 0.1547755 0.0 0.0 0.07698792 
0.27303496 0.31599525 0.1558947 0.0 0.0 0.030042287 
0.0 0.37186655 0.18904236 0.0 0.13422646 0.04222548 
0.0 0.034587473 0.0 0.0 0.0 0.07698792 
0.0 0.0 0.0 0.0 0.0 0.07698792 
0.0 0.0 0.0 0.0 0.0 0.07698792 
0.0 0.0 0.0 0.0 0.0 0.07698792 
0.0 0.0 0.0 0.0 0.0 0.07698792 
0.31370232 0.0 0.03655696 0.0 0.0 0.08938155 
1.9419281 0.0 0.0 0.0042180093 0.41366252 0.37889147 
1.9257514 1.3883586 0.0 0.16700558 2.6180637 0.5328344 
0.07609382 1.6987865 0.7066666 0.35407662 2.7125473 0.6070109 
0.0 0.8849779 1.2012112 0.26534516 1.453595 0.475367 
0.5034583 0.23886639 0.4926601 0.075495124 0.03960866 0.10416108 
1.2377455 0.236231 0.40374666 0.0 0.0 0.0 
0.85524344 1.404628 0.9477955 0.0 1.0134941 0.0 
0.0 1.3425006 1.2217051 0.0 1.1271133 0.0 
0.0 0.10856843 0.19038317 0.0 0.26765472 0.07698792 
0.0 0.0 0.0 0.0 0.0 0.07698792 
0.0 0.0 0.0 0.0 0.0 0.07698792 
0.0 0.0 0.0 0.0 0.0 0.07698792 
0.0 0.0 0.0 0.0 0.0 0.07698792 
0.8516487 0.0 0.0 0.087552086 0.0 0.5108782 
2.072426 0.13227367 0.0 0.10369596 1.1591586 0.8083807 
1.4050329 1.8057699 0.6309858 0.041401442 2.5978024 0.2903384 
0.0 1.6186261 1.530942 0.0 2.0480402 0.0 
0.82393235 0.617876 1.1203285 0.0 0.32861242 0.0 
0.9116692 0.9619517 1.0239408 0.0 0.9875588 0.0 
1.1713679 1.3405119 0.8202788 0.31815663 2.1210318 0.12913288 
0.54546607 1.9446503 1.1045488 0.47499695 2.411424 0.22078176 
0.0 1.605083 1.6444788 0.38947174 1.5089535 0.32655823 
0.0 0.2212355 0.410473 0.13274732 0.17023377 0.11128308 
0.0 0.0 0.0 0.0 0.0 0.07698792 
0.0 0.0 0.0 0.0 0.0 0.07698792 
0.0 0.0 0.0 0.0 0.0 0.07698792 
0.0 0.0 0.0 0.0 0.0 0.07698792 
1.0013645 0.0 0.0 0.11890227 0.29175362 0.8918416 
2.0041454 0.10341099 0.0 0.33843556 1.3354459 1.3435619 
1.297756 1.5025542 1.1762416 0.5348947 1.88869 0.94129014 
0.47994024 1.4350775 1.8859123 0.77216995 1.9113318 0.2711598 
1.0150702 1.48216 1.2677832 0.79454327 2.1199307 0.5207614 
1.0031071 1.5790235 0.9937792 0.5206681 2.7698815 0.6508245 
0.8399333 1.5786296 0.46793288 0.59294266 3.114241 1.0783291 
0.0 1.6923041 0.6270023 0.46341595 2.8371544 1.0328479 
0.0 0.5519678 1.0573062 0.25223795 1.2411361 0.54748064 
0.0 0.0 0.21288508 0.004032663 0.049017493 0.10610656 
0.0 0.0 0.0 0.0 0.0 0.07698792 
0.0 0.0 0.0 0.0 0.0 0.07698792 
0.0 0.0 0.0 0.0 0.0 0.07698792 
0.0 0.0 0.0 0.0 0.0 0.07698792 
0.75965637 0.0 0.0 0.09046436 0.46126518 0.85239434 
1.3752022 0.0 0.0 0.49126825 1.4729408 1.6177857 
1.1830862 0.55966055 0.0 1.2512659 2.3399284 1.9170458 
1.0476902 0.77201706 0.11587726 1.2401127 2.5501137 1.6971154 
1.444823 0.8764006 0.0 0.72306746 2.3451016 1.2928748 
0.9059144 1.647624 0.13133821 0.22979781 3.1781783 0.8248282 
0.0 1.509263 0.25760126 0.23341759 3.1470382 1.0989506 
0.0 0.4987094 0.2873415 0.015810408 1.5728527 0.86977595 
0.0 0.0 0.33577305 0.0 0.29036558 0.32266793 
0.0 0.0 0.0 0.0 0.0 0.079270914 
0.0 0.0 0.0 0.0 0.0 0.07698792 
0.0 0.0 0.0 0.0 0.0 0.07698792 
0.0 0.0 0.0 0.0 0.0 0.07698792 
0.0 0.0 0.0 0.0 0.0 0.07698792 
0.21672934 0.0 0.0 0.0 0.28833857 0.3130702 
0.62352335 0.0 0.0 0.0 0.9478294 0.97306824 
1.0912623 0.0 0.0 0.0 1.1643599 1.2928474 
1.608355 0.0 0.0 0.0 1.2313386 1.0813019 
1.5493114 1.1630415 0.0 0.19942565 2.9894483 0.8258805 
0.014860459 1.3757601 0.37971842 0.27459455 3.0801587 0.9609975 
0.0 0.7706742 0.70432514 0.13117802 1.7340515 0.7174179 
0.0 0.0 0.29928124 0.0 0.2512599 0.25268006 
0.0 0.0 0.0 0.0 0.0 0.08026021 
0.0 0.0 0.0 0.0 0.0 0.07698792 
0.0 0.0 0.0 0.0 0.0 0.07698792 
0.0 0.0 0.0 0.0 0.0 0.07698792 
0.0 0.0 0.0 0.0 0.0 0.07698792 
0.0 0.0 0.0 0.0 0.0 0.07698792 
0.0 0.0 0.0 0.0 0.0 0.07698792 
0.35130793 0.0 0.098886274 0.0 0.0 0.07020002 
1.7497795 0.0 0.03782673 0.0 0.2787146 0.18062991 
1.6911991 1.3129628 0.0 0.32072157 2.519873 0.5958485 
0.33771166 1.4158161 0.0 0.49721506 2.7124588 1.088685 
0.0 0.8716341 0.40262946 0.2585383 1.8671294 1.0215721 
0.0 0.033675138 0.46830183 0.0 0.34747985 0.4114645 
0.0 0.0 0.0 0.0 0.0 0.08010801 
0.0 0.0 0.0 0.0 0.0 0.07698792 
0.0 0.0 0.0 0.0 0.0 0.07698792 
0.0 0.0 0.0 0.0 0.0 0.07698792 
0.0 0.0 0.0 0.0 0.0 0.07698792 
0.0 0.0 0.0 0.0 0.0 0.07698792 
0.0 0.0 0.0 0.0 0.0 0.07698792 
0.04160674 0.0 0.06100855 0.0 0.0 0.07698792 
1.3270745 0.0 0.059335753 0.0 0.0 0.111483626 
1.8215005 1.0958973 0.0 0.12717938 1.8400174 0.270496 
0.5985357 1.5295748 0.34613284 0.05991273 2.6150105 0.58783203 
0.0 0.89134836 0.57607144 0.0 1.9387194 0.78235275 
0.0 0.0 0.24240369 0.0 0.34144023 0.36997116 
0.0 0.0 0.0 0.0 0.0 0.083075896 
0.0 0.0 0.0 0.0 0.0 0.07698792 
0.0 0.0 0.0 0.0 0.0 0.07698792 
0.0 0.0 0.0 0.0 0.0 0.07698792 
0.0 0.0 0.0 0.0 0.0 0.07698792 
0.0 0.0 0.0 0.0 0.0 0.07698792 
0.0 0.0 0.0 0.0 0.0 0.07698792 
0.0 0.0 0.0 0.0 0.0 0.07698792 
0.1767013 0.0 0.0 0.08555117 0.0 0.2871347 
1.6454432 0.0 0.0 0.65884995 1.1074177 1.1962278 
1.4459465 1.2215413 0.0 0.8046985 2.3151722 1.2031744 
0.0 1.3232311 0.8095872 0.33056593 2.144278 0.7751999 
0.0 0.18532428 0.75175583 0.08792137 0.52591187 0.36811092 
0.0 0.0 0.0 0.0 0.0 0.08041241 
0.0 0.0 0.0 0.0 0.0 0.07698792 
0.0 0.0 0.0 0.0 0.0 0.07698792 
0.0 0.0 0.0 0.0 0.0 0.07698792 
0.0 0.0 0.0 0.0 0.0 0.07698792 
0.0 0.0 0.0 0.0 0.0 0.07698792 
0.0 0.0 0.0 0.0 0.0 0.07698792 
0.0 0.0 0.0 0.0 0.0 0.07698792 
0.0 0.0 0.0 0.0 0.0 0.07698792 
0.19856322 0.0 0.0 0.14444816 0.19499262 0.3654089 
0.8158311 0.0 0.0 0.29268166 1.1664466 1.2115724 
0.3260762 0.4937959 0.0 0.14172417 1.413014 1.1327944 
0.0 0.20146888 0.408498 0.002597569 0.60688704 0.5943888 
0.0 0.0 0.16248932 0.0 0.071313635 0.121573836 
0.0 0.0 0.0 0.0 0.0 0.07698792 
0.0 0.0 0.0 0.0 0.0 0.07698792 
0.0 0.0 0.0 0.0 0.0 0.07698792 
0.0 0.0 0.0 0.0 0.0 0.07698792 
0.0 0.0 0.0 0.0 0.0 0.07698792 
0.0 0.0 0.0 0.0 0.0 0.07698792 
0.0 0.0 0.0 0.0 0.0 0.07698792 
0.0 0.0 0.0 0.0 0.0 0.07698792 
0.0 0.0 0.0 0.0 0.0 0.07698792 
0.010067724 0.0 0.0 0.0 0.06816034 0.13206789 
0.16653901 0.0 0.0 0.0 0.29992598 0.24509293 
0.0 0.0 0.0 0.0 0.14177524 0.20030832 
0.0 0.0 0.014562257 0.0 0.05796193 0.115121126 
0.0 0.0 0.0 0.0 0.0 0.07721622 
0.0 0.0 0.0 0.0 0.0 0.07698792 
0.0 0.0 0.0 0.0 0.0 0.07698792 
0.0 0.0 0.0 0.0 0.0 0.07698792 
0.0 0.0 0.0 0.0 0.0 0.07698792 
0.0 0.0 0.0 0.0 0.0 0.07698792 
0.0 0.0 0.0 0.0 0.0 0.07698792 

