0.0 0.0 0.0 0.0 0.0 0.07698792 
0.0 0.0 0.0 0.0 0.0 0.07698792 
0.0 0.0 0.0 0.0 0.0 0.07698792 
0.0 0.0 0.0 0.0 0.0 0.07698792 
0.0 0.0 0.0 0.0 0.0 0.07698792 
0.0 0.0 0.0 0.0 0.0 0.07698792 
0.0 0.0 0.0 0.0 0.0 0.07698792 
0.0 0.0 0.0 0.0 0.0 0.07698792 
0.0 0.0 0.0 0.0 0.0 0.07698792 
0.0 0.0 0.0 0.0 0.0 0.07698792 
0.0 0.0 0.0 0.0 0.0 0.07698792 
0.0 0.0 0.0 0.0 0.0 0.07698792 
0.0 0.0 0.0 0.0 0.0 0.07698792 
0.0 0.0 0.0 0.0 0.0 0.07698792 
0.0 0.0 0.0 0.0 0.0 0.07698792 
0.0 0.0 0.0 0.0 0.0 0.07698792 
0.0 0.0 0.0 0.0 0.0 0.07698792 
0.0 0.0 0.0 0.0 0.0 0.07698792 
0.0 0.0 0.0 0.0 0.0 0.07698792 
0.0 0.0 0.0 0.0 0.0 0.07698792 
0.0 0.0 0.0 0.0 0.0 0.07698792 
0.0 0.0 0.0 0.0 0.0 0.07698792 
0.0 0.0 0.0 0.0 0.0 0.07698792 
0.0 0.0 0.0 0.0 0.0 0.07698792 
0.0 0.0 0.0 0.0 0.0 0.07698792 
0.0 0.0 0.0 0.0 0.0 0.07698792 
0.0 0.0 0.0 0.0 0.0 0.07698792 
0.0 0.0 0.0 0.0 0.0 0.07698792 
0.0 0.0 0.0 0.0 0.0 0.07698792 
0.0 0.0 0.0 0.0 0.0 0.07698792 
0.0 0.0 0.0 0.0 0.0 0.07698792 
0.0 0.0 0.0 0.0 0.0 0.07698792 
0.0 0.0 0.0 0.0 0.0 0.07698792 
0.20163 0.05000937 0.16928458 0.0 0.0 0.07698792 
0.30905867 0.38771462 0.3560248 0.0 0.0 0.07698792 
0.13407022 0.50994307 0.31241125 0.0 0.011445258 0.07698792 
0.0 0.32067588 0.11650225 0.0 0.08047454 0.07698792 
0.0 0.023720384 0.0 0.0 0.0 0.07698792 
0.0 0.0 0.0 0.0 0.0 0.07698792 
0.0 0.0 0.0 0.0 0.0 0.07698792 
0.0 0.0 0.0 0.0 0.0 0.07698792 
0.0 0.0 0.0 0.0 0.0 0.07698792 
0.0 0.0 0.0 0.0 0.0 0.07698792 
0.0 0.0 0.0 0.0 0.0 0.07698792 
0.0 0.0 0.0 0.0 0.0 0.07698792 
0.0 0.0 0.011592098 0.0 0.0 0.07698792 
0.6843332 0.0 0.2029911 0.0 0.0 0.033997867 
1.0718124 0.48403037 0.4086644 0.0 0.0 0.0 
0.8395913 0.8740569 0.89299715 0.29239443 1.0343494 0.0 
0.4036063 1.2566602 1.6480237 0.55489105 0.9915243 0.0 
0.0 1.5457519 1.4955153 0.0 0.8539104 0.0 
0.0 0.5519008 0.4983889 0.0 0.5516255 0.032174166 
0.0 0.0 0.0 0.0 0.0 0.07698792 
0.0 0.0 0.0 0.0 0.0 0.07698792 
0.0 0.0 0.0 0.0 0.0 0.07698792 
0.0 0.0 0.0 0.0 0.0 0.07698792 
0.0 0.0 0.0 0.0 0.0 0.07698792 
0.0 0.0 0.0 0.0 0.0 0.07698792 
0.0 0.0 0.0 0.0 0.0 0.07698792 
0.5628349 0.0 0.13141987 0.0 0.0 0.055492893 
1.5500855 0.25851485 0.12745276 0.15258616 0.31563693 0.010689154 
1.2878225 1.5223355 0.30987296 0.6092106 2.4529293 0.6111872 
0.06435901 1.2856778 0.41770697 1.4134326 2.4996192 1.697665 
0.994867 0.85212606 1.2536174 1.5359839 1.272572 1.766509 
0.3231573 1.7727723 1.8299825 0.9943949 1.1024415 0.1059396 
0.0 1.5187312 2.0067165 0.11336174 1.0988547 0.0 
0.0 0.03896251 0.0 0.0 0.03068601 0.07698792 
0.0 0.0 0.0 0.0 0.0 0.07698792 
0.0 0.0 0.0 0.0 0.0 0.07698792 
0.0 0.0 0.0 0.0 0.0 0.07698792 
0.0 0.0 0.0 0.0 0.0 0.07698792 
0.0 0.0 0.0 0.0 0.0 0.07698792 
0.0014637932 0.0 0.0 0.0 0.0 0.07698792 
1.595293 0.0 0.055238836 0.05630562 0.0 0.40920627 
1.8068688 1.352853 0.0 0.25600925 2.0412595 0.44306973 
0.2622833 1.5257931 0.3866958 0.2676048 2.5562804 0.87650746 
0.38755488 0.47819495 0.5841032 0.0 1.8881981 1.0090604 
2.1665297 0.0 0.0 0.0 0.8656776 1.0592492 
0.93010587 1.6403869 1.0167856 0.0 1.8246884 0.0 
0.0 1.4757386 2.1277726 0.032485623 1.5722591 0.0 
0.0 0.14352113 0.19583333 0.0 0.1663612 0.07698792 
0.0 0.0 0.0 0.0 0.0 0.07698792 
0.0 0.0 0.0 0.0 0.0 0.07698792 
0.0 0.0 0.0 0.0 0.0 0.07698792 
0.0 0.0 0.0 0.0 0.0 0.07698792 
0.0 0.0 0.0 0.0 0.0 0.07698792 
0.10511513 0.0 0.0 0.060426127 0.0 0.22244252 
2.0499415 0.0 0.0 0.2755886 0.654083 1.0460732 
1.5926611 1.5995603 0.26119268 0.06273386 2.0393028 0.31703264 
0.038853556 1.5291647 1.7588396 0.0 1.6804577 0.0 
1.0157764 0.5493065 0.86497366 0.0 0.8269411 0.0 
1.8005972 0.77805394 0.05559759 0.57539755 2.071839 0.8164336 
0.5633332 2.0142903 0.95755017 0.46762055 2.1644728 0.3567956 
0.0 1.5439256 1.8517059 0.0 1.6523082 0.0 
0.0 0.16501136 0.3415273 0.0 0.20098452 0.07698792 
0.0 0.0 0.0 0.0 0.0 0.07698792 
0.0 0.0 0.0 0.0 0.0 0.07698792 
0.0 0.0 0.0 0.0 0.0 0.07698792 
0.0 0.0 0.0 0.0 0.0 0.07698792 
0.0 0.0 0.0 0.0 0.0 0.07698792 
0.13391799 0.0 0.0 0.07901103 0.09160802 0.284927 
1.7735128 0.0 0.0 0.35016605 1.0439945 1.5288315 
1.3132505 1.0124975 0.30875498 1.0771273 1.3236325 1.3510363 
0.16077338 1.0280982 1.8062507 1.6837122 2.0518014 1.2843719 
0.3518558 1.141972 0.5547137 1.3098743 2.2383037 1.4069867 
1.6958957 0.49386165 0.0 0.9012568 2.0843682 1.6763971 
0.741936 1.7892923 0.8924077 0.44056794 1.9142226 0.6418835 
0.0 1.4434017 1.7845902 0.005621356 1.6537939 0.06266865 
0.0 0.0924884 0.32013163 0.0573561 0.14341865 0.09225132 
0.0 0.0 0.0 0.0 0.0 0.07698792 
0.0 0.0 0.0 0.0 0.0 0.07698792 
0.0 0.0 0.0 0.0 0.0 0.07698792 
0.0 0.0 0.0 0.0 0.0 0.07698792 
0.0 0.0 0.0 0.0 0.0 0.07698792 
0.007297389 0.0 0.0 0.0 0.06389293 0.13021126 
0.98033017 0.0 0.0 0.0 1.0101806 1.2295129 
0.83572245 0.0 0.0 0.39478528 1.5255281 1.6567385 
0.23325014 0.5704296 0.0 0.78331333 1.924476 1.7445056 
0.09842199 0.5686344 0.0 0.26264808 1.654065 1.318557 
1.9778929 0.0 0.0 0.0 1.1916953 1.2756035 
0.8406183 1.6363634 0.5209911 0.0 1.8178233 0.21954969 
0.0 1.2907437 1.7666272 0.030451696 1.543032 0.13968945 
0.0 0.0002829982 0.14028817 0.027909804 0.007979255 0.09666592 
0.0 0.0 0.0 0.0 0.0 0.07698792 
0.0 0.0 0.0 0.0 0.0 0.07698792 
0.0 0.0 0.0 0.0 0.0 0.07698792 
0.0 0.0 0.0 0.0 0.0 0.07698792 
0.0 0.0 0.0 0.0 0.0 0.07698792 
0.0 0.0 0.0 0.0 0.0 0.07698792 
0.12593678 0.0 0.0 0.0 0.24071254 0.21494779 
0.25165814 0.0 0.0 0.0 0.5360186 0.36260182 
0.05034311 0.0 0.0 0.0 0.4886494 0.35466313 
0.6324221 0.0 0.0 0.036381904 0.20194618 0.45228308 
1.9388537 0.18593648 0.0 0.0944137 1.1855032 0.8645721 
0.4404986 1.5485518 0.94915605 0.06653697 1.7311305 0.15792908 
0.0 0.9144506 1.6293226 0.087244 1.3361468 0.2171599 
0.0 0.0 0.0 0.0 0.0 0.079194814 
0.0 0.0 0.0 0.0 0.0 0.07698792 
0.0 0.0 0.0 0.0 0.0 0.07698792 
0.0 0.0 0.0 0.0 0.0 0.07698792 
0.0 0.0 0.0 0.0 0.0 0.07698792 
0.0 0.0 0.0 0.0 0.0 0.07698792 
0.0 0.0 0.0 0.0 0.0 0.07698792 
0.0 0.0 0.0 0.0 0.0 0.07698792 
0.0 0.0 0.0 0.0 0.0 0.07698792 
0.0 0.0 0.0 0.0 0.0 0.07698792 
0.85707265 0.0 0.0 0.008976211 0.0 0.6147818 
2.018791 0.41787007 0.0 0.0656961 1.1875533 0.95216876 
0.074475765 1.5635136 1.5122862 0.0 1.6592294 0.0 
0.0 0.6748913 1.379918 0.0 1.0866796 0.05369523 
0.0 0.0 0.0 0.0 0.0 0.07698792 
0.0 0.0 0.0 0.0 0.0 0.07698792 
0.0 0.0 0.0 0.0 0.0 0.07698792 
0.0 0.0 0.0 0.0 0.0 0.07698792 
0.0 0.0 0.0 0.0 0.0 0.07698792 
0.0 0.0 0.0 0.0 0.0 0.07698792 
0.0 0.0 0.0 0.0 0.0 0.07698792 
0.0 0.0 0.0 0.0 0.0 0.07698792 
0.0 0.0 0.0 0.0 0.0 0.07698792 
0.0 0.0 0.0 0.0 0.0 0.07698792 
1.0491629 0.0 0.0 0.07502004 0.078242704 0.733041 
2.1417027 0.55515784 0.0 0.07716618 1.1758296 1.0920441 
0.0 1.6108603 1.80098 0.05479813 1.666004 0.0 
0.0 0.69181806 1.4278802 0.0 0.9869806 0.040590223 
0.0 0.0 0.0 0.0 0.0 0.07698792 
0.0 0.0 0.0 0.0 0.0 0.07698792 
0.0 0.0 0.0 0.0 0.0 0.07698792 
0.0 0.0 0.0 0.0 0.0 0.07698792 
0.0 0.0 0.0 0.0 0.0 0.07698792 
0.0 0.0 0.0 0.0 0.0 0.07698792 
0.0 0.0 0.0 0.0 0.0 0.07698792 
0.0 0.0 0.0 0.0 0.0 0.07698792 
0.0 0.0 0.0 0.0 0.0 0.07698792 
0.0 0.0 0.0 0.0 0.0 0.07698792 
1.0946808 0.0 0.0 0.15569681 0.27439824 0.8717163 
2.0409358 0.52762437 0.0 0.5231416 1.5115291 1.4411364 
0.0 1.4473236 1.682218 0.5856142 1.6362454 0.7048524 
0.0 0.48796496 1.3092933 0.28271803 0.8874562 0.25743943 
0.0 0.0 0.0 0.0 0.0 0.07698792 
0.0 0.0 0.0 0.0 0.0 0.07698792 
0.0 0.0 0.0 0.0 0.0 0.07698792 
0.0 0.0 0.0 0.0 0.0 0.07698792 
0.0 0.0 0.0 0.0 0.0 0.07698792 
0.0 0.0 0.0 0.0 0.0 0.07698792 
0.0 0.0 0.0 0.0 0.0 0.07698792 
0.0 0.0 0.0 0.0 0.0 0.07698792 
0.0 0.0 0.0 0.0 0.0 0.07698792 
0.0 0.0 0.0 0.0 0.0 0.07698792 
0.72407997 0.0 0.0 0.15279223 0.5166324 0.83152044 
1.0355663 0.24761137 0.0 0.26522788 1.2689133 1.2614791 
0.0 0.47280222 0.81322646 0.26753753 0.9752055 0.8459608 
0.0 0.10681726 0.68650836 0.13457648 0.2342792 0.25257215 
0.0 0.0 0.0 0.0 0.0 0.07698792 
0.0 0.0 0.0 0.0 0.0 0.07698792 
0.0 0.0 0.0 0.0 0.0 0.07698792 
0.0 0.0 0.0 0.0 0.0 0.07698792 

