0.0 0.0 0.0 0.0 0.0 0.07698792 
0.0 0.0 0.0 0.0 0.0 0.07698792 
0.0 0.0 0.0 0.0 0.0 0.07698792 
0.0 0.0 0.0 0.0 0.0 0.07698792 
0.0 0.0 0.0 0.0 0.0 0.07698792 
0.0 0.0 0.0 0.0 0.0 0.07698792 
0.0 0.0 0.0 0.0 0.0 0.07698792 
0.0 0.0 0.0 0.0 0.0 0.07698792 
0.0 0.0 0.0 0.0 0.0 0.07698792 
0.0 0.0 0.0 0.0 0.0 0.07698792 
0.0 0.0 0.0 0.0 0.0 0.07698792 
0.0 0.0 0.0 0.0 0.0 0.07698792 
0.0 0.0 0.0 0.0 0.0 0.07698792 
0.0 0.0 0.0 0.0 0.0 0.07698792 
0.0 0.0 0.0 0.0 0.0 0.07698792 
0.0 0.0 0.0 0.0 0.0 0.07698792 
0.0 0.0 0.0 0.0 0.0 0.07698792 
0.46526504 0.0049731387 0.17340636 0.0 0.0 0.043048408 
0.7343446 0.54826385 0.61429435 0.0 0.0 0.0 
0.5140934 0.9333429 0.93662 0.0 0.07384628 0.0 
0.3160862 1.0670443 0.9345597 0.0 0.2848368 0.0 
0.0 0.93380934 0.6158565 0.0 0.41615692 0.0 
0.0 0.21225536 0.10382538 0.0 0.23659436 0.0728192 
0.0 0.0 0.0 0.0 0.0 0.07698792 
0.0 0.0 0.0 0.0 0.0 0.07698792 
0.0 0.0 0.0 0.0 0.0 0.07698792 
0.0 0.0 0.0 0.0 0.0 0.07698792 
0.0 0.0 0.0 0.0 0.0 0.07698792 
0.0 0.0 0.0 0.0 0.0 0.07698792 
0.0 0.0 0.0 0.0 0.0 0.07698792 
0.0 0.0 0.0 0.0 0.0 0.08401573 
1.1455002 0.0 0.06460563 0.39840713 0.0 0.6876424 
1.2823219 0.6943293 0.7374464 1.2221067 1.0711961 0.7192574 
0.6150026 1.1693614 1.4906702 1.6042811 1.6107954 0.8122509 
0.5127639 1.5704397 1.6505859 1.4413124 1.3585792 0.5092509 
0.0 1.9977751 1.9704705 0.526401 1.3615392 0.0 
0.0 1.0418634 1.2469324 0.0 0.8372301 0.0 
0.0 0.0 0.0 0.0 0.0 0.07698792 
0.0 0.0 0.0 0.0 0.0 0.07698792 
0.0 0.0 0.0 0.0 0.0 0.07698792 
0.0 0.0 0.0 0.0 0.0 0.07698792 
0.0 0.0 0.0 0.0 0.0 0.07698792 
0.0 0.0 0.0 0.0 0.0 0.07698792 
0.0 0.0 0.0 0.0 0.0 0.07698792 
0.0 0.0 0.0 0.0183108 0.0 0.10946915 
1.0876644 0.0 0.0 0.460397 0.8736164 1.1267939 
1.0652056 0.3417289 0.0 1.0532522 1.8911709 1.6281898 
1.1199443 0.4459819 0.0 1.1659825 2.0687156 1.7653735 
1.682698 1.1183413 0.5114517 0.94105613 1.490896 1.4949903 
0.0 2.076303 2.1145346 0.42982587 1.9246083 0.0 
0.0 1.3019011 2.0007722 0.07671189 1.2763135 0.0 
0.0 0.0153036015 0.0 0.0 0.002866421 0.07698792 
0.0 0.0 0.0 0.0 0.0 0.07698792 
0.0 0.0 0.0 0.0 0.0 0.07698792 
0.0 0.0 0.0 0.0 0.0 0.07698792 
0.0 0.0 0.0 0.0 0.0 0.07698792 
0.0 0.0 0.0 0.0 0.0 0.07698792 
0.0 0.0 0.0 0.0 0.0 0.07698792 
0.0 0.0 0.0 0.0 0.0 0.09431645 
0.46466702 0.0 0.0 0.0 0.66485566 0.58412296 
0.32356986 0.0 0.0 0.0 0.8017152 0.59536254 
1.8022504 0.0 0.0 0.0 0.7186427 0.66412115 
2.0229902 1.1235842 0.0 0.0 2.0559306 0.57728994 
0.0 1.9558827 1.3995655 0.07001437 2.3883116 0.005657956 
0.0 1.1073712 1.8527046 0.1772352 1.390126 0.17537157 
0.0 0.03319446 0.016120069 0.033022087 0.0 0.08773558 
0.0 0.0 0.0 0.0 0.0 0.07698792 
0.0 0.0 0.0 0.0 0.0 0.07698792 
0.0 0.0 0.0 0.0 0.0 0.07698792 
0.0 0.0 0.0 0.0 0.0 0.07698792 
0.0 0.0 0.0 0.0 0.0 0.07698792 
0.0 0.0 0.0 0.0 0.0 0.07698792 
0.0 0.0 0.0 0.0 0.0 0.07698792 
0.0 0.0 0.0 0.0 0.0 0.07698792 
0.87177044 0.0 0.0 0.16375169 0.0 0.45597583 
2.0087137 0.26911536 0.0 0.308471 1.03247 0.60519415 
1.7588234 1.6396205 0.26212308 0.27306214 2.4789479 0.4794237 
0.0 1.9927726 1.9059428 0.0 2.3938358 0.0 
0.0 1.478681 1.8934689 0.0 1.1744567 0.0 
0.0 0.28227943 0.15346599 0.0 0.24417038 0.07177702 
0.0 0.0 0.0 0.0 0.0 0.07698792 
0.0 0.0 0.0 0.0 0.0 0.07698792 
0.0 0.0 0.0 0.0 0.0 0.07698792 
0.0 0.0 0.0 0.0 0.0 0.07698792 
0.0 0.0 0.0 0.0 0.0 0.07698792 
0.0 0.0 0.0 0.0 0.0 0.07698792 
0.0 0.0 0.0 0.0 0.0 0.07698792 
0.0 0.0 0.0 0.0 0.0 0.07698792 
0.9476418 0.0 0.0 0.27329525 0.57471853 0.9776779 
1.8203039 0.0 0.0 0.6010404 1.5787593 1.6772797 
1.5269861 1.1844413 0.23251298 1.0798188 2.335547 1.9831898 
0.5821619 1.7235438 2.1383436 0.92559713 1.8793571 0.99790424 
0.0 1.955774 2.4618552 0.34296486 1.3302447 0.0 
0.0 1.6943014 1.6755985 0.0 0.9565982 0.0 
0.0 0.27484453 0.19512117 0.0 0.36059418 0.07073484 
0.0 0.0 0.0 0.0 0.0 0.07698792 
0.0 0.0 0.0 0.0 0.0 0.07698792 
0.0 0.0 0.0 0.0 0.0 0.07698792 
0.0 0.0 0.0 0.0 0.0 0.07698792 
0.0 0.0 0.0 0.0 0.0 0.07698792 
0.0 0.0 0.0 0.0 0.0 0.07698792 
0.0 0.0 0.0 0.0 0.0 0.07698792 
0.56853503 0.0 0.0 0.0 0.54105735 0.71266747 
0.9573298 0.0 0.0 0.0 1.3933524 1.6161854 
0.9797841 0.0 0.0 0.65051526 1.9548069 2.0455956 
1.1565697 0.6575288 0.09690269 1.0243411 1.8162637 2.014466 
1.0758929 1.7559549 2.327319 0.8518395 1.4872059 1.3391788 
0.0 2.0285685 2.3492773 0.49613044 1.6401693 0.0 
0.0 1.248982 1.5620803 0.0 0.9527368 0.0 
0.0 0.0 0.0 0.0 0.0 0.07698792 
0.0 0.0 0.0 0.0 0.0 0.07698792 
0.0 0.0 0.0 0.0 0.0 0.07698792 
0.0 0.0 0.0 0.0 0.0 0.07698792 
0.0 0.0 0.0 0.0 0.0 0.07698792 
0.0 0.0 0.0 0.0 0.0 0.07698792 
0.0 0.0 0.0 0.0 0.0 0.07698792 
0.0 0.0 0.0 0.0 0.021218862 0.11164498 
0.23569405 0.0 0.0 0.0 0.42034265 0.3139983 
0.5951126 0.0 0.0 0.0 0.9632842 0.9228457 
1.5056493 0.0 0.0 0.0 1.3503095 1.7623558 
1.8642797 0.5111478 0.0 0.45065328 1.525649 1.5756013 
0.024873018 1.9017373 2.0245717 0.45136735 1.9608179 0.06970693 
0.0 1.3018689 2.0056891 0.12338771 1.315235 0.0059058964 
0.0 0.0 0.0 0.0 0.0 0.07698792 
0.0 0.0 0.0 0.0 0.0 0.07698792 
0.0 0.0 0.0 0.0 0.0 0.07698792 
0.0 0.0 0.0 0.0 0.0 0.07698792 
0.0 0.0 0.0 0.0 0.0 0.07698792 
0.0 0.0 0.0 0.0 0.0 0.07698792 
0.21357879 0.0 0.13402918 0.0 0.0 0.07095423 
0.5560958 0.32603395 0.42082453 0.0 0.0 0.0 
0.47004724 0.7669427 0.7198386 0.0 0.0 0.0 
0.67833865 0.6593238 0.68877053 0.0 0.0 0.0 
1.7057018 0.37500912 0.5163633 0.0 0.6278461 0.0 
2.0977654 1.3008915 0.0 0.0 2.517235 0.35654268 
0.0 1.8120589 1.2789372 0.11158387 2.462778 0.17193115 
0.0 0.8920592 1.667872 0.1850708 1.302051 0.3700146 
0.0 0.0 0.0 0.0 0.0 0.07698792 
0.0 0.0 0.0 0.0 0.0 0.07698792 
0.0 0.0 0.0 0.0 0.0 0.07698792 
0.0 0.0 0.0 0.0 0.0 0.07698792 
0.0 0.0 0.0 0.0 0.0 0.07698792 
0.0 0.0 0.0 0.0 0.0 0.07698792 
0.63923097 0.0 0.008598827 0.19254501 0.0 0.49347365 
1.4027264 0.29905286 0.43818974 0.615315 0.2984303 0.47983977 
0.9640636 1.3676867 1.6199478 0.6908693 1.2281934 0.0 
0.7851165 1.4749184 1.5368543 0.5774974 1.6692444 0.0 
1.1646364 1.3882428 0.8090112 0.7615158 2.5955944 0.8185945 
0.9584103 1.7354665 0.041066326 0.82526225 2.9355233 1.1434913 
0.0 1.7507039 1.0740616 0.42027575 2.3152893 0.69564253 
0.0 0.2466385 0.950835 0.10913755 0.6884317 0.36335993 
0.0 0.0 0.0 0.0 0.0 0.07698792 
0.0 0.0 0.0 0.0 0.0 0.07698792 
0.0 0.0 0.0 0.0 0.0 0.07698792 
0.0 0.0 0.0 0.0 0.0 0.07698792 
0.0 0.0 0.0 0.0 0.0 0.07698792 
0.0 0.0 0.0 0.0 0.0 0.07698792 
0.7012763 0.0 0.0 0.2929351 0.5233704 0.81773525 
1.2492738 0.0 0.0 1.0563639 1.5634905 1.6382866 
1.0117736 1.0897684 0.42806986 1.8035896 2.3950505 2.0702252 
0.41443387 1.043513 0.4330007 1.6631811 2.639568 2.0417566 
0.28068823 1.0176616 0.0 1.3450642 2.895728 1.8265796 
0.0 0.8698923 0.0 0.7300855 2.7047327 1.4980466 
0.0 0.4469944 0.6532629 0.19294426 0.96327454 0.71812433 
0.0 0.0 0.34873733 0.0 0.1031273 0.15501246 
0.0 0.0 0.0 0.0 0.0 0.07698792 
0.0 0.0 0.0 0.0 0.0 0.07698792 
0.0 0.0 0.0 0.0 0.0 0.07698792 
0.0 0.0 0.0 0.0 0.0 0.07698792 
0.0 0.0 0.0 0.0 0.0 0.07698792 
0.0 0.0 0.0 0.0 0.0 0.07698792 
0.317433 0.0 0.0 0.0 0.40023914 0.41328812 
0.69128156 0.0 0.0 0.0 1.1212987 1.2015316 
0.57470965 0.0 0.0 0.0 1.4973192 1.6594203 
0.25506943 0.019404802 0.0 0.0 1.5148767 1.6677678 
0.0 0.0 0.0 0.0 1.2979802 1.2403502 
0.0 0.0 0.0 0.0 0.6159995 0.5599357 
0.0 0.0 0.050823487 0.0 0.18037182 0.21107031 
0.0 0.0 0.0 0.0 0.0 0.07721622 
0.0 0.0 0.0 0.0 0.0 0.07698792 
0.0 0.0 0.0 0.0 0.0 0.07698792 
0.0 0.0 0.0 0.0 0.0 0.07698792 
0.0 0.0 0.0 0.0 0.0 0.07698792 
0.0 0.0 0.0 0.0 0.0 0.07698792 
0.0 0.0 0.0 0.0 0.0 0.07698792 
0.0 0.0 0.0 0.0 0.0 0.07698792 
0.0 0.0 0.0 0.0 0.0 0.07698792 
0.0 0.0 0.0 0.0 0.0 0.07698792 
0.0 0.0 0.0 0.0 0.0 0.07698792 
0.0 0.0 0.0 0.0 0.0 0.07698792 
0.0 0.0 0.0 0.0 0.0 0.07698792 
0.0 0.0 0.0 0.0 0.0 0.07698792 
0.0 0.0 0.0 0.0 0.0 0.07698792 
0.0 0.0 0.0 0.0 0.0 0.07698792 
0.0 0.0 0.0 0.0 0.0 0.07698792 
0.0 0.0 0.0 0.0 0.0 0.07698792 

