0.0 0.0 0.0 0.0 0.0 0.07698792 
0.0 0.0 0.0 0.0 0.0 0.07698792 
0.0 0.0 0.0 0.0 0.0 0.07698792 
0.0 0.0 0.0 0.0 0.0 0.07698792 
0.0 0.0 0.0 0.0 0.0 0.07698792 
0.0 0.0 0.0 0.0 0.0 0.07698792 
0.0 0.0 0.0 0.0 0.0 0.07698792 
0.0 0.0 0.0 0.0 0.0 0.07698792 
0.0 0.0 0.0 0.0 0.0 0.07698792 
0.0 0.0 0.0 0.0 0.0 0.07698792 
0.0 0.0 0.0 0.0 0.0 0.07698792 
0.0 0.0 0.0 0.0 0.0 0.07698792 
0.0 0.0 0.0 0.0 0.0 0.07698792 
0.0 0.0 0.0 0.0 0.0 0.07698792 
0.0 0.0 0.0 0.0 0.0 0.07698792 
0.0 0.0 0.0 0.0 0.0 0.07698792 
0.0 0.0 0.0 0.0 0.0 0.07698792 
0.0 0.0 0.0 0.0 0.0 0.07698792 
0.0 0.0 0.0 0.0 0.0 0.07698792 
0.0 0.0 0.0 0.0 0.0 0.07698792 
0.0 0.0 0.0 0.0 0.0 0.07698792 
0.0 0.0 0.0 0.0 0.0 0.07698792 
0.0 0.0 0.0 0.0 0.0 0.07698792 
0.0 0.0 0.0 0.0 0.0 0.07698792 
0.0 0.0 0.0 0.0 0.0 0.07698792 
0.0 0.0 0.0 0.0 0.0 0.07698792 
0.0 0.0 0.0 0.0 0.0 0.07698792 
0.0 0.0 0.0 0.0 0.0 0.07698792 
0.0 0.0 0.0 0.0 0.0 0.07698792 
0.0 0.0 0.0 0.0 0.0 0.07698792 
0.0 0.0 0.0 0.0 0.0 0.07698792 
0.0 0.0 0.0316687 0.0 0.0 0.07698792 
0.6125449 0.0010454422 0.24304721 0.0 0.0 0.036260504 
0.76358455 0.8709968 0.71405554 0.0 0.0 0.0 
0.20167944 0.9750264 0.9150346 0.0 0.20158572 0.0 
0.18647075 0.8103629 0.7009402 0.0 0.0479489 0.0 
0.27207464 0.5688969 0.559798 0.0 0.00032665953 0.07698792 
0.17147753 0.5730301 0.3725853 0.0 0.0 0.07698792 
0.23851877 0.3599261 0.3287342 0.0 0.0 0.07698792 
0.25667045 0.45858052 0.31060982 0.0 0.0 0.07698792 
0.0 0.39120468 0.18169987 0.0 0.070481345 0.07698792 
0.0 0.07983224 0.0 0.0 0.026989039 0.07698792 
0.0 0.0 0.0 0.0 0.0 0.07698792 
0.0 0.0 0.0 0.0 0.0 0.07698792 
0.0 0.0 0.0 0.0 0.0 0.07698792 
0.53469336 0.0 0.11699427 0.0 0.0 0.07593802 
1.6036744 0.1775307 0.22086582 0.16661116 0.13154016 0.0696748 
1.1337357 1.3052202 1.1209885 0.6054897 1.521017 0.0 
0.35226643 1.356001 1.5771704 1.2363737 1.5827619 0.23312627 
0.2754096 1.2429984 1.3608719 1.2405717 1.3202993 0.09108198 
0.30716 1.132725 1.3467027 1.1469861 1.3035537 0.0 
0.27119786 1.0555978 1.1857892 0.9784045 1.1025192 0.0 
0.42018074 0.8224252 1.0493479 0.6959126 0.7972842 0.0 
0.53053576 1.0770749 0.99120736 0.6825712 1.2471651 0.0 
0.0 1.0203774 1.1452972 0.56494635 1.1148676 0.0 
0.0 0.1430506 0.25295672 0.073741324 0.22677307 0.07698792 
0.0 0.0 0.0 0.0 0.0 0.07698792 
0.0 0.0 0.0 0.0 0.0 0.07698792 
0.0 0.0 0.0 0.0 0.0 0.07698792 
1.1830742 0.0 0.0 0.1485736 0.0 0.69063896 
1.9081686 0.6214126 0.0 0.42645532 1.7035253 0.90051126 
0.8096037 1.4343485 0.029427 0.8740167 2.7832067 1.2155578 
0.1874198 1.0026413 0.27399802 1.5476242 2.4814186 1.6944797 
0.26301283 0.84771425 0.4323451 1.8143319 1.6551377 1.7287438 
0.14659896 0.97209424 0.6277371 1.8454525 1.5972404 1.601959 
0.15228525 0.81684005 0.616252 1.6604079 1.2852563 1.5627468 
0.3022261 0.64198077 0.6161112 1.7593315 1.3865844 1.589422 
0.094549894 1.1605992 0.6755201 1.6007979 1.3878185 1.3493214 
0.0 0.9871126 1.1671964 0.9922275 0.7417789 0.60006076 
0.0 0.21085306 0.38349092 0.20391707 0.033393834 0.11529291 
0.0 0.0 0.0 0.0 0.0 0.07698792 
0.0 0.0 0.0 0.0 0.0 0.07698792 
0.0 0.0 0.013593368 0.0 0.0 0.07698792 
1.7305729 0.0 0.0 0.0 0.14936286 0.6981604 
2.0297022 1.0595254 0.0 0.0 1.5796909 0.72310436 
0.12781379 1.5457598 1.6735206 0.0 2.1399639 0.0 
0.27461416 1.0034505 1.4765651 0.0 1.4303476 0.0 
0.3828306 0.92521393 0.7655589 0.0 1.1645155 0.11175446 
0.058587164 0.8865124 0.44312793 0.0 1.0563346 0.433209 
0.18415359 0.17508736 0.0 0.0 1.0594972 0.7210384 
0.24511254 0.0 0.0 0.0 1.0689162 0.7972606 
0.0 0.0 0.0 0.0 0.8473651 0.6460443 
0.0 0.0 0.088512935 0.0 0.2924579 0.30669633 
0.0 0.0 0.0038304403 0.0 0.0 0.08482619 
0.0 0.0 0.0 0.0 0.0 0.07698792 
0.0 0.0 0.0 0.0 0.0 0.07698792 
0.06965856 0.0 0.0 0.048291665 0.0 0.19850427 
1.908869 0.0 0.0 0.5684895 0.8248296 1.3127756 
1.9173763 1.008333 0.0 1.3193902 1.9091215 1.4937253 
0.0038215443 1.306572 1.8989834 1.6216036 2.2202885 1.3838432 
0.39329785 1.0124995 1.8484564 1.8132585 1.6724111 1.2641726 
0.5814115 1.451073 1.719666 1.6803579 1.2758181 0.9158354 
0.0 1.7526767 2.1061506 0.87789285 1.1002673 0.0 
0.0 1.582433 1.6810933 0.0 0.88279957 0.0 
0.0 0.34933418 0.25388727 0.0 0.3355033 0.062397398 
0.0 0.0096924165 0.0 0.0 0.0 0.07698792 
0.0 0.0 0.0 0.0 0.0 0.07698792 
0.0 0.0 0.0 0.0 0.0 0.07698792 
0.0 0.0 0.0 0.0 0.0 0.07698792 
0.0 0.0 0.0 0.0 0.0 0.07698792 
0.07893737 0.0 0.0 0.08197806 0.08977476 0.23943308 
1.1368 0.0 0.0 0.34840775 1.1799443 1.4317884 
0.952059 0.24480814 0.0 0.7573555 2.0974576 1.827604 
0.11299017 0.48175693 0.0 0.8711465 2.1528065 1.8446577 
0.50532126 0.1719558 0.0 0.7854674 1.843672 1.9077063 
0.7389741 0.23355374 0.0 1.3082707 1.7154725 1.9183738 
0.7715986 1.3353021 1.8202384 1.2866694 1.1406722 1.7026508 
0.12464124 1.822821 2.2030818 0.70839614 1.167832 0.0 
0.0 1.4422814 1.6646472 0.0 1.0173767 0.0 
0.0 0.12534676 0.065372355 0.0 0.15677892 0.07698792 
0.0 0.0 0.0 0.0 0.0 0.07698792 
0.0 0.0 0.0 0.0 0.0 0.07698792 
0.0 0.0 0.0 0.0 0.0 0.07698792 
0.14229505 0.0 0.11067859 0.0 0.0 0.07698792 
0.43188065 0.3171276 0.16329005 0.0 0.0 0.0 
0.31971744 0.52440363 0.28711563 0.0 0.60572535 0.21756057 
0.27045697 0.07719817 0.015646346 0.0 0.7074861 0.44604585 
0.0 0.0 0.0 0.0 0.62238526 0.40892327 
0.31157917 0.0 0.0 0.0 0.77775973 0.54607165 
0.7164039 0.0 0.0 0.0 1.2008995 1.2738676 
1.7665493 0.0 0.0 0.088518634 1.0934912 1.6172285 
1.2846711 1.7544892 1.7378911 0.47701776 1.4684992 0.60294825 
0.0 1.7385492 2.1099298 0.2534738 1.6371412 0.0 
0.0 0.24704564 0.5054165 0.0 0.4123485 0.07698792 
0.0 0.0 0.0 0.0 0.0 0.07698792 
0.0 0.0 0.0 0.0 0.0 0.07698792 
0.0 0.0 0.0 0.0 0.0 0.07698792 
0.4537422 0.0 0.0 0.1653768 0.0 0.479833 
1.003792 0.5040998 0.34100777 0.38201326 0.15039876 0.4975353 
0.3000409 1.4957453 1.7843541 0.19108033 0.6278555 0.0 
0.0 1.0594592 1.1920855 0.0 0.4330171 0.0 
0.04698141 0.45291543 0.34978953 0.0 0.047403406 0.07073484 
0.22103235 0.23892954 0.25424328 0.0 0.0 0.07698792 
0.5645548 0.25024277 0.2936688 0.0 0.0 0.095729135 
2.057717 0.11961517 0.0 0.0 0.89029336 0.7061332 
1.4882257 1.6038465 0.0 0.0 2.1858509 0.29716963 
0.0 1.5677366 1.6627983 0.19261019 1.7638608 0.31173438 
0.0 0.30501312 0.69036484 0.17569399 0.2800736 0.11864972 
0.0 0.0 0.0 0.0 0.0 0.07698792 
0.0 0.0 0.0 0.0 0.0 0.07698792 
0.0 0.0 0.0 0.0 0.0 0.07698792 
0.52498466 0.0 0.0 0.23204781 0.38699916 0.6684164 
0.99885327 0.0 0.0 0.678715 0.8087754 1.2493019 
0.64110607 1.2169456 1.927521 1.2226543 0.8994731 1.2451429 
0.30482972 1.3013065 1.8709642 1.4344884 0.8151281 0.3893692 
0.3173507 1.1321884 1.5693773 0.45055217 0.69796795 0.0 
0.5911917 0.99062556 1.3215137 0.0 0.58577013 0.0 
0.98280996 0.9516833 1.0169711 0.13859236 1.2014428 0.0 
1.4048393 1.2575942 0.22246814 0.63372725 2.5802848 0.74015313 
0.22009936 1.5502019 0.6253676 0.5811032 2.4477894 0.7620485 
0.0 0.7669117 1.0577503 0.16728663 1.4428021 0.50833666 
0.0 0.0 0.30941123 0.027528334 0.08040111 0.11358124 
0.0 0.0 0.0 0.0 0.0 0.07698792 
0.0 0.0 0.0 0.0 0.0 0.07698792 
0.0 0.0 0.0 0.0 0.0 0.07698792 
0.17382357 0.0 0.0 0.0 0.27528486 0.2609356 
0.7410572 0.0 0.0 0.0 0.87495834 1.1053936 
0.7092498 0.0 0.0 0.4451779 1.1502379 1.5567868 
0.59520155 0.37068242 0.35531706 1.5759369 1.3898655 1.7459052 
0.39084828 0.75643927 0.9423452 1.830026 1.6193029 1.7791774 
0.37535742 0.89344615 1.0251054 1.807182 1.9597026 1.8399684 
0.3527733 1.0398628 0.7111552 1.7296734 2.2333794 1.7149451 
0.1750496 1.0613936 0.041093245 1.4314709 2.5469902 1.6359026 
0.0 0.878735 0.5515549 0.5460998 1.705267 0.96738064 
0.0 0.13038781 0.6198631 0.06324358 0.42604718 0.38447207 
0.0 0.0 0.0 0.0 0.0 0.080945104 
0.0 0.0 0.0 0.0 0.0 0.07698792 
0.0 0.0 0.0 0.0 0.0 0.07698792 
0.0 0.0 0.0 0.0 0.0 0.07698792 
0.0 0.0 0.0 0.0 0.0 0.07698792 
0.050699398 0.0 0.0 0.0 0.13074899 0.15929845 
0.3857503 0.0 0.0 0.0 0.61857635 0.47233474 
0.51062566 0.0 0.0 0.0 1.1497896 1.0879581 
0.5157942 0.0 0.0 0.0 1.4442245 1.5112846 
0.35386562 0.0 0.0 0.0 1.4960048 1.6396847 
0.14848647 0.0 0.0 0.0 1.4549807 1.4926412 
0.0 0.0 0.0 0.0 1.0692977 0.96109253 
0.0 0.0 0.0069564283 0.0 0.36453807 0.35197544 
0.0 0.0 0.034597844 0.0 0.041244898 0.10271423 
0.0 0.0 0.0 0.0 0.0 0.07698792 
0.0 0.0 0.0 0.0 0.0 0.07698792 
0.0 0.0 0.0 0.0 0.0 0.07698792 
0.0 0.0 0.0 0.0 0.0 0.07698792 
0.0 0.0 0.0 0.0 0.0 0.07698792 
0.0 0.0 0.0 0.0 0.0 0.07698792 
0.0 0.0 0.0 0.0 0.0 0.07698792 
0.0 0.0 0.0 0.0 0.0 0.07698792 
0.0 0.0 0.0 0.0 0.0 0.07698792 
0.0 0.0 0.0 0.0 0.0 0.07698792 
0.0 0.0 0.0 0.0 0.0 0.07698792 
0.0 0.0 0.0 0.0 0.0 0.07698792 
0.0 0.0 0.0 0.0 0.0 0.07698792 
0.0 0.0 0.0 0.0 0.0 0.07698792 
0.0 0.0 0.0 0.0 0.0 0.07698792 
0.0 0.0 0.0 0.0 0.0 0.07698792 
0.0 0.0 0.0 0.0 0.0 0.07698792 

