0.0 0.0 0.0 0.0 0.0 0.07698792 
0.0 0.0 0.0 0.0 0.0 0.07698792 
0.0 0.0 0.0 0.0 0.0 0.07698792 
0.0 0.0 0.0 0.0 0.0 0.07698792 
0.0 0.0 0.0 0.0 0.0 0.07698792 
0.0 0.0 0.0 0.0 0.0 0.07698792 
0.0 0.0 0.0 0.0 0.0 0.07698792 
0.0 0.0 0.0 0.0 0.0 0.07698792 
0.0 0.0 0.0 0.0 0.0 0.07698792 
0.0 0.0 0.0 0.0 0.0 0.07698792 
0.0 0.0 0.0 0.0 0.0 0.07698792 
0.0 0.0 0.0 0.0 0.0 0.07698792 
0.0 0.0 0.0 0.0 0.0 0.07698792 
0.0 0.0 0.0 0.0 0.0 0.07698792 
0.0 0.0 0.0 0.0 0.0 0.07698792 
0.0 0.0 0.0 0.0 0.0 0.07698792 
0.0 0.0 0.0 0.0 0.0 0.07698792 
0.0 0.0 0.0 0.0 0.0 0.07698792 
0.0 0.0 0.0 0.0 0.0 0.07698792 
0.0 0.0 0.0 0.0 0.0 0.07698792 
0.15442583 0.0 0.14904672 0.0 0.0 0.07698792 
0.358866 0.3045024 0.39164495 0.0 0.0 0.07698792 
0.30204183 0.57688344 0.4303287 0.0 0.0 0.07698792 
0.036193162 0.5469177 0.2599949 0.0 0.0741657 0.07698792 
0.0 0.18864696 0.043615192 0.0 0.033936795 0.07698792 
0.0 0.0 0.0 0.0 0.0 0.07698792 
0.0 0.0 0.0 0.0 0.0 0.07698792 
0.0 0.0 0.0 0.0 0.0 0.07698792 
0.0 0.0 0.0 0.0 0.0 0.07698792 
0.0 0.0 0.0 0.0 0.0 0.07698792 
0.0 0.0 0.0 0.0 0.0 0.07698792 
0.0 0.0 0.0 0.0 0.0 0.07698792 
0.027642973 0.0 0.049491808 0.0 0.0 0.07698792 
0.18986768 0.078766 0.20837072 0.0 0.0 0.07698792 
1.0528901 0.0 0.20695236 0.0 0.0 0.0 
1.2081792 0.6419488 0.64478034 0.14411435 0.5961351 0.0 
0.6350105 1.1694608 1.5137959 0.56604975 1.0994381 0.0 
0.14268875 1.520111 1.7342277 0.29045394 0.8575677 0.0 
0.0 1.497531 1.3032113 0.0 0.7773817 0.0 
0.0 0.35079476 0.25541836 0.0 0.38582426 0.06343958 
0.0 0.0 0.0 0.0 0.0 0.07698792 
0.0 0.0 0.0 0.0 0.0 0.07698792 
0.0 0.0 0.0 0.0 0.0 0.07698792 
0.0 0.0 0.0 0.0 0.0 0.07698792 
0.0 0.0 0.0 0.0 0.0 0.07698792 
0.07256076 0.0 0.058015488 0.0 0.0 0.07698792 
0.9120377 0.024186008 0.21604434 0.0 0.0 0.0 
1.0411525 0.66546744 0.7374042 0.0 0.1709373 0.0 
1.1324737 1.0413151 0.6202209 0.18761057 1.9846729 0.04461591 
0.81261736 1.3084852 0.05296547 1.0001904 2.6018984 1.2597246 
0.3667668 1.1014835 0.7650628 1.7604841 2.1710958 1.9034486 
0.6678932 1.3707166 1.8153244 1.6094447 1.1878546 1.6896081 
0.13883103 1.825322 2.092866 0.92486143 1.0832874 0.0 
0.0 1.4210228 1.7389628 0.0 1.0265528 0.0 
0.0 0.0340117 0.0 0.0 0.04530858 0.07698792 
0.0 0.0 0.0 0.0 0.0 0.07698792 
0.0 0.0 0.0 0.0 0.0 0.07698792 
0.0 0.0 0.0 0.0 0.0 0.07698792 
0.0 0.0 0.0 0.0 0.0 0.07698792 
0.75555885 0.0 0.07074685 0.0 0.0 0.14602861 
1.4497759 0.58825916 0.009646885 0.2465617 0.90773916 0.2975535 
1.0065322 0.9632754 0.6374443 0.6617228 1.9994344 0.93742514 
0.7419731 1.7734114 0.51527905 0.74552953 2.3746002 0.81773394 
0.0 1.4683945 0.59193766 0.10179134 2.4808385 1.0327909 
0.39310685 0.0 0.0 0.0 1.4145123 1.3801811 
1.6225479 0.0 0.0 0.010358405 1.1774524 1.7056115 
0.9906809 1.566198 1.4134704 0.4694966 1.3016051 0.67088085 
0.0 1.4660094 2.105277 0.2453446 1.2822793 0.0 
0.0 0.1411445 0.19977519 0.0 0.14814515 0.07698792 
0.0 0.0 0.0 0.0 0.0 0.07698792 
0.0 0.0 0.0 0.0 0.0 0.07698792 
0.0 0.0 0.0 0.0 0.0 0.07698792 
0.0 0.0 0.0 0.0 0.0 0.07698792 
1.448674 0.0 0.0 0.13897339 0.072778895 0.70464826 
1.6633725 0.7609647 0.0 0.2098231 1.4552175 0.6234288 
0.93858033 0.7995613 0.070193596 0.0 2.3415604 1.041573 
0.0 1.3509307 0.48755437 0.0 2.2265494 0.39949596 
0.0 0.60358715 1.0214792 0.077860616 1.3295095 0.39922673 
0.0 0.0 0.14487436 0.0 0.048272107 0.1145964 
1.5977316 0.0 0.0 0.0 0.641745 1.2352805 
1.2916396 0.9698331 0.0 0.001904835 1.1742889 0.65552443 
0.0 1.2785546 1.5341209 0.16687621 1.1809369 0.0 
0.0 0.13744463 0.30927634 0.0 0.19116394 0.07698792 
0.0 0.0 0.0 0.0 0.0 0.07698792 
0.0 0.0 0.0 0.0 0.0 0.07698792 
0.0 0.0 0.0 0.0 0.0 0.07698792 
0.0 0.0 0.0 0.0 0.0 0.07698792 
1.676682 0.0 0.0 0.05703376 0.45565012 0.8491562 
1.2484796 0.6429268 0.0 0.0014893087 1.1094216 0.4279224 
0.8747537 1.1693989 0.2537499 0.035501163 2.0638068 0.79622674 
0.0 1.3540423 1.4169959 0.11175686 1.541669 0.24203669 
0.0 0.3028591 0.9837477 0.117044896 0.782298 0.14791162 
0.0 0.0 0.0 0.0 0.0 0.07698792 
1.786577 0.0 0.0 0.014452596 0.20217533 0.715668 
1.4160552 1.4187628 0.0 0.0 1.2096779 0.27772897 
0.0 1.3370298 1.3924327 0.0 1.4701573 0.0060328394 
0.0 0.1111902 0.30927634 0.0152763305 0.19116394 0.07698792 
0.0 0.0 0.0 0.0 0.0 0.07698792 
0.0 0.0 0.0 0.0 0.0 0.07698792 
0.0 0.0 0.0 0.0 0.0 0.07698792 
0.020743191 0.0 0.0 0.0 0.0 0.07698792 
1.7102482 0.0 0.0 0.018692996 0.5104498 0.7242618 
0.97866803 0.5524991 0.0 0.0 1.4023464 0.4856758 
0.7077171 1.3105271 0.40707165 0.0 2.2773864 0.66990465 
0.0 1.2317762 1.2779824 0.019980635 1.3616732 0.30953035 
0.0 0.095398284 0.7044821 0.119845465 0.2741603 0.1399673 
0.088201016 0.0 0.07419411 0.0 0.0 0.07698792 
1.9211342 0.0 0.0 0.09131359 0.6641533 0.8341122 
1.2266164 1.5227528 0.072612606 0.19043402 1.5398914 0.23248594 
0.0 1.3800663 1.4960388 0.16259599 1.5000765 0.2709739 
0.0 0.0691283 0.2680075 0.07241468 0.07865797 0.10138086 
0.0 0.0 0.0 0.0 0.0 0.07698792 
0.0 0.0 0.0 0.0 0.0 0.07698792 
0.0 0.0 0.0 0.0 0.0 0.07698792 
0.08454265 0.0 0.0 0.08477357 0.0 0.2391006 
1.7016792 0.0 0.0 0.21489674 0.6191779 0.92657965 
1.0865817 0.7122378 0.0 0.22681852 1.6235482 0.8661972 
0.11289272 1.2965168 0.5319039 0.087582774 2.182933 0.3447852 
0.0 1.0374639 1.1002666 0.22667754 1.0290974 0.30673385 
0.0 0.0 0.12919664 0.0 0.01656444 0.10276736 
0.8912369 0.0 0.10871937 0.0 0.0 0.039900515 
1.8416784 0.699397 0.0 0.0 1.4386787 0.5331166 
0.37141708 1.4382173 0.50650656 0.0 1.8168737 0.30874738 
0.0 0.6653952 1.2904093 0.12753919 1.2472814 0.3678574 
0.0 0.0 0.041516684 0.0 0.0 0.090600595 
0.0 0.0 0.0 0.0 0.0 0.07698792 
0.0 0.0 0.0 0.0 0.0 0.07698792 
0.0 0.0 0.0 0.0 0.0 0.07698792 
0.07380511 0.0 0.0 0.006223987 0.064109236 0.21639106 
1.5533652 0.0 0.0 0.025327723 0.52908 1.135874 
1.317708 0.76474386 0.0 0.0 1.6492461 0.6772621 
0.0 1.5779368 0.7875585 0.0 1.8600358 0.21996169 
0.0 0.53394216 0.91556674 0.22236623 0.76788706 0.40833622 
0.5642713 0.0 0.13874948 0.0 0.0 0.06378922 
1.6437395 0.17514825 0.08139 0.0 0.56180835 0.0 
1.6043613 1.4898092 0.0 0.11170616 2.146753 0.21806392 
0.0 1.3530353 0.8619496 0.15391691 1.8337795 0.4645749 
0.0 0.18635869 0.8133158 0.13029444 0.45994303 0.30400088 
0.0 0.0 0.0 0.0 0.0 0.07698792 
0.0 0.0 0.0 0.0 0.0 0.07698792 
0.0 0.0 0.0 0.0 0.0 0.07698792 
0.0 0.0 0.0 0.0 0.0 0.07698792 
0.0 0.0 0.0 0.0 0.0 0.08070118 
1.2942433 0.0 0.0 0.1666832 0.6754621 1.1880503 
1.3733869 0.5235702 0.0 0.29111913 1.1067572 1.3051543 
0.3975098 1.4907068 2.2250555 0.4195078 1.3229772 0.025255859 
0.3347359 1.419415 1.9345642 0.0 0.6306249 0.0 
1.1140954 0.58610183 0.6568659 0.0 0.75719213 0.0 
1.491112 1.3162522 0.0 0.36592653 2.5194466 0.56800276 
0.0 1.403195 0.4801882 0.35840526 2.3755128 0.6956084 
0.0 0.49410084 0.7212538 0.13837413 1.0628035 0.55120033 
0.0 0.0 0.15516135 0.0 0.061131652 0.11864592 
0.0 0.0 0.0 0.0 0.0 0.07698792 
0.0 0.0 0.0 0.0 0.0 0.07698792 
0.0 0.0 0.0 0.0 0.0 0.07698792 
0.0 0.0 0.0 0.0 0.0 0.07698792 
0.0 0.0 0.0 0.0 0.0 0.07698792 
0.6882468 0.0 0.0 0.0 0.60575914 0.81495976 
1.1655354 0.0 0.0 0.3403342 1.0317093 1.451417 
0.7886871 0.7726053 1.4199147 1.1022773 1.2739841 1.5220072 
0.34893656 1.0650167 2.0263615 1.8462483 1.7469021 1.3381002 
0.56471235 1.1814156 0.79514056 1.5925329 2.3510084 1.3269513 
0.027200349 1.2967114 0.017120823 0.75830185 2.525681 1.1510544 
0.0 0.6682076 0.49069 0.2346956 1.2568023 0.7593681 
0.0 0.0 0.37983036 0.0 0.2288012 0.25630224 
0.0 0.0 0.0 0.0 0.0 0.07698792 
0.0 0.0 0.0 0.0 0.0 0.07698792 
0.0 0.0 0.0 0.0 0.0 0.07698792 
0.0 0.0 0.0 0.0 0.0 0.07698792 
0.0 0.0 0.0 0.0 0.0 0.07698792 
0.0 0.0 0.0 0.0 0.0 0.07698792 
0.05392292 0.0 0.0 0.0 0.1262148 0.16548443 
0.79661316 0.0 0.0 0.0 0.91425127 1.05129 
0.8446557 0.0 0.0 0.06617864 1.4934063 1.6996226 
0.4081844 0.28350338 0.0 0.72908574 1.9735068 1.7736905 
0.06880231 0.54122514 0.0 0.5828574 1.9429945 1.6133032 
0.0 0.28204134 0.14437506 0.0 0.9513667 0.8433834 
0.0 0.0 0.16909817 0.0 0.24251522 0.2687634 
0.0 0.0 0.0 0.0 0.0 0.07972751 
0.0 0.0 0.0 0.0 0.0 0.07698792 
0.0 0.0 0.0 0.0 0.0 0.07698792 
0.0 0.0 0.0 0.0 0.0 0.07698792 
0.0 0.0 0.0 0.0 0.0 0.07698792 
0.0 0.0 0.0 0.0 0.0 0.07698792 
0.0 0.0 0.0 0.0 0.0 0.07698792 
0.0 0.0 0.0 0.0 0.0 0.07698792 
0.015608408 0.0 0.0 0.0 0.07669516 0.13578115 
0.23351586 0.0 0.0 0.0 0.4617994 0.31663665 
0.18067437 0.0 0.0 0.0 0.52066797 0.3621673 
0.0 0.0 0.0 0.0 0.34719968 0.28466043 
0.0 0.0 0.0 0.0 0.0808461 0.1459657 
0.0 0.0 0.0 0.0 0.0 0.07767282 
0.0 0.0 0.0 0.0 0.0 0.07698792 
0.0 0.0 0.0 0.0 0.0 0.07698792 
0.0 0.0 0.0 0.0 0.0 0.07698792 
0.0 0.0 0.0 0.0 0.0 0.07698792 

