0.0 0.0 0.0 0.0 0.0 0.07698792 
0.0 0.0 0.0 0.0 0.0 0.07698792 
0.0 0.0 0.0 0.0 0.0 0.07698792 
0.0 0.0 0.0 0.0 0.0 0.07698792 
0.0 0.0 0.0 0.0 0.0 0.07698792 
0.0 0.0 0.0 0.0 0.0 0.07698792 
0.0 0.0 0.0 0.0 0.0 0.07698792 
0.0 0.0 0.0 0.0 0.0 0.07698792 
0.0 0.0 0.0 0.0 0.0 0.07698792 
0.0 0.0 0.0 0.0 0.0 0.07698792 
0.0 0.0 0.0 0.0 0.0 0.07698792 
0.0 0.0 0.0 0.0 0.0 0.07698792 
0.0 0.0 0.0 0.0 0.0 0.07698792 
0.0 0.0 0.0 0.0 0.0 0.07698792 
0.0 0.0 0.0 0.0 0.0 0.07698792 
0.0 0.0 0.0 0.0 0.0 0.07698792 
0.0 0.0 0.0 0.0 0.0 0.07698792 
0.0 0.0 0.0 0.0 0.0 0.07698792 
0.0 0.0 0.0 0.0 0.0 0.07698792 
0.0 0.0 0.0 0.0 0.0 0.07698792 
0.06713089 0.011647887 0.051228203 0.0 0.0 0.07698792 
0.16984533 0.12630348 0.23305318 0.0 0.0 0.07698792 
0.30244413 0.41091806 0.34505063 0.0 0.0 0.07698792 
0.08043721 0.46555197 0.27465245 0.0 0.029539604 0.07698792 
0.0 0.2675587 0.08014523 0.0 0.08084057 0.07698792 
0.0 0.012498009 0.0 0.0 0.0 0.07698792 
0.0 0.0 0.0 0.0 0.0 0.07698792 
0.0 0.0 0.0 0.0 0.0 0.07698792 
0.0 0.0 0.0 0.0 0.0 0.07698792 
0.0 0.0 0.0 0.0 0.0 0.07698792 
0.0 0.0 0.0 0.0 0.0 0.07698792 
0.31628895 0.0 0.14113453 0.0 0.0 0.07397108 
0.8178598 0.31827393 0.4646778 0.0 0.0 0.0 
0.7455902 0.9582434 0.9415149 0.0 0.0109563805 0.0 
0.64202917 0.83028203 0.91269696 0.0 0.13042372 0.0 
0.71938777 0.8200858 0.9838021 0.0 0.43286982 0.0 
0.73411226 1.0929773 1.2683749 0.0 0.80174446 0.0 
0.29664576 1.7301502 1.8177763 0.0 1.0134141 0.0 
0.0 1.5674804 1.4890752 0.0 0.8661607 0.0 
0.0 0.41059446 0.28998 0.0 0.29910976 0.062918484 
0.0 0.006325704 0.0 0.0 0.0 0.07698792 
0.0 0.0 0.0 0.0 0.0 0.07698792 
0.0 0.0 0.0 0.0 0.0 0.07698792 
0.0 0.0 0.0 0.0 0.0 0.07698792 
0.04479195 0.0 0.015607417 0.0 0.0 0.07698792 
1.3830686 0.0 0.13371086 0.011569527 0.0 0.09536926 
1.6254866 1.0316659 0.56642365 0.31534913 0.88500595 0.0 
0.80942875 1.7793384 1.4295945 0.74867266 1.6922102 0.0 
0.66050357 1.6560274 1.4582299 1.1518692 2.2109196 0.68204075 
0.7657189 1.3170537 1.1499932 1.3608663 2.2757828 1.4111733 
0.7758111 1.60394 1.1853871 1.2541019 2.5197716 1.5626278 
0.45753175 1.9579512 2.2036915 0.93031967 2.052552 1.0262414 
0.0 2.0446131 2.336714 0.52526325 1.4227995 0.0 
0.0 1.5330957 1.7308631 0.0 1.0956607 0.0 
0.0 0.1441066 0.08926285 0.0 0.21793516 0.07698792 
0.0 0.0 0.0 0.0 0.0 0.07698792 
0.0 0.0 0.0 0.0 0.0 0.07698792 
0.0 0.0 0.0 0.0 0.0 0.07698792 
0.5747529 0.0 0.08847921 0.0 0.0 0.1290563 
2.1007223 0.0 0.0 0.17139477 0.6939944 0.3986988 
1.8988204 1.2534571 0.0 0.24570364 2.6089678 0.74071383 
0.78430843 1.4629982 0.18938884 0.5285156 3.165659 1.3018064 
0.05516793 1.2274109 0.015675768 0.86095124 3.0523443 1.5927563 
0.37871298 0.45444736 0.0 0.8882597 2.7446167 2.0469398 
0.5322374 0.1996144 0.0 0.9162407 2.4023998 2.0550911 
1.1067469 0.3981149 0.0 1.0321065 2.0164154 2.019392 
1.1162102 1.8806802 2.068843 0.8567532 1.4753302 1.2636056 
0.0 1.8909719 2.2121775 0.16170396 1.412489 0.0 
0.0 0.78302366 0.96919024 0.0 0.68681973 0.01964384 
0.0 0.0 0.0 0.0 0.0 0.07698792 
0.0 0.0 0.0 0.0 0.0 0.07698792 
0.05682613 0.0 0.0122274235 0.0 0.0 0.07698792 
1.5028646 0.0 0.09427378 0.0 0.0 0.17763081 
1.9549549 0.9449958 0.0 0.19893497 1.9674076 0.4302091 
1.1132467 1.4282476 0.0 0.27912268 3.080935 1.0299168 
0.0 1.2904595 0.0 0.3815097 3.0973265 1.3175135 
0.0 0.31279463 0.0 0.0 1.8070362 1.16797 
0.18262559 0.0 0.0 0.0 0.9939442 0.75963324 
0.34656045 0.0 0.0 0.0 0.9917918 0.8773394 
1.3561428 0.0 0.0 0.0 1.2757531 1.6513064 
1.9411612 0.55268365 0.0 0.14227036 1.1253887 1.4091802 
0.03390184 1.8993443 2.217653 0.28982514 1.8572356 0.0 
0.0 1.3225912 2.040546 0.09074417 1.2142237 0.0 
0.0 0.0 0.0 0.0 0.0 0.07698792 
0.0 0.0 0.0 0.0 0.0 0.07698792 
0.4810819 0.0 0.002216734 0.0 0.0 0.15481183 
2.0341294 0.0 0.0 0.093515836 0.9021593 0.55976903 
1.635786 1.5241351 0.0 0.35783836 2.6976998 0.6962821 
0.0 1.552201 0.3817197 0.3144112 2.8614626 0.9607073 
0.0 0.29104608 0.3767352 0.0 1.2289628 0.75599724 
0.0 0.0 0.08023343 0.0 0.21076535 0.22466497 
0.0 0.0 0.0 0.0 0.0 0.081249505 
0.0 0.0 0.0 0.0 0.0 0.07698792 
1.5190284 0.0 0.0 0.0 0.17816201 0.70911515 
2.2060065 0.5477724 0.0 0.0 1.5057491 0.88982326 
0.2788497 1.9903709 1.7485834 0.04761341 2.1884477 0.0 
0.0 1.3334464 2.1030455 0.078311175 1.4198734 0.0 
0.0 0.0 0.0 0.0 0.0 0.07698792 
0.0 0.0 0.0 0.0 0.0 0.07698792 
1.3502057 0.0 0.051659785 0.0 0.0 0.36132225 
2.0780718 0.8794934 0.0 0.0 1.5803065 0.52392006 
0.573023 1.6094804 0.92023957 0.0 2.3702397 0.27293047 
0.0 0.86419505 1.1384552 0.0 1.6011301 0.37049368 
0.0 0.0 0.20768622 0.0 0.17469116 0.21056266 
0.0 0.0 0.0 0.0 0.0 0.07729232 
0.0 0.0 0.0 0.0 0.0 0.07698792 
0.6155274 0.0 0.14397472 0.0 0.0 0.055492893 
2.0335085 0.079896785 0.02525092 0.0 0.5533085 0.2685863 
2.1370287 1.1551498 0.0 0.0 2.705247 0.6146911 
0.0 1.8788944 1.3471386 0.36950198 2.6352549 0.43142343 
0.0 1.072865 1.8294328 0.3621768 1.3959388 0.49103242 
0.0 0.0 0.0 0.0 0.0 0.07698792 
0.0 0.0 0.0 0.0 0.0 0.07698792 
1.7542212 0.0 0.0 0.2539459 0.37967917 1.0610406 
2.158986 1.4209882 0.0 0.33057848 1.8715162 0.89456886 
0.0 1.9188173 1.5975639 0.001843153 2.2471273 0.008625746 
0.0 0.48896572 1.2241892 0.104217425 0.9925423 0.18551774 
0.0 0.0 0.0 0.0 0.0 0.07744452 
0.014131419 0.0 0.03995855 0.0 0.0 0.07698792 
0.6078759 0.0 0.18159366 0.0 0.0 0.055492893 
1.6855602 0.22443777 0.19337958 0.0 0.102544814 0.0 
1.788796 1.2242677 0.0 0.15921758 2.3262484 0.35967797 
0.97637147 1.658286 0.05731187 0.3145018 2.9559386 0.7600094 
0.0 1.6010687 0.8338582 0.18370059 2.4683201 0.74638826 
0.0 0.2975305 0.9521477 0.19612142 0.59299654 0.48757836 
0.0 0.0 0.0 0.0 0.0 0.07698792 
0.0 0.0 0.0 0.0 0.0 0.07698792 
1.5790801 0.0 0.0 0.24686816 0.8548606 1.3753889 
1.8897705 1.0476086 0.0 0.37934792 1.6364275 1.4963992 
0.0 1.8338249 2.250942 0.14308007 1.6752086 0.0 
0.0 1.1456761 1.8260111 0.0 0.8203466 0.0 
0.5172403 0.42416093 0.47057945 0.0 0.0 0.0 
0.86201143 0.48449358 0.5796095 0.0 0.0 0.0 
1.3541651 0.6441375 0.53525424 0.0 0.5474691 0.0 
1.5887501 1.257108 0.19196403 0.21849865 2.4496987 0.39312536 
1.0557055 1.4635955 0.0 0.42085633 2.9619002 1.0737545 
0.0 1.5585153 0.49226552 0.35648042 2.912063 1.009474 
0.0 0.3532055 0.67420864 0.10463513 1.1239816 0.60960203 
0.0 0.0 0.16769966 0.0 0.10047506 0.13952878 
0.0 0.0 0.0 0.0 0.0 0.07698792 
0.0 0.0 0.0 0.0 0.0 0.07698792 
0.8869981 0.0 0.0 0.0 0.75647724 1.0171914 
1.3609848 0.0 0.0 0.15928558 0.99575907 1.5068364 
0.9458794 1.3095161 2.0383587 0.8441143 0.91163707 1.0113785 
0.40534294 1.4441147 2.3061314 0.8380994 0.9349345 0.0 
0.7565081 1.1129875 1.4480114 0.11625984 1.0786984 0.0 
0.90948117 1.4423282 1.1129781 0.48646992 1.7743332 0.0 
1.0505097 1.476212 0.7000039 0.6896647 2.7965014 0.8415959 
0.7543124 1.4983364 0.0 0.7175431 2.9990513 1.2701266 
0.0 1.38454 0.12071293 0.49915776 2.9055533 1.2309391 
0.0 0.36860693 0.3486258 0.024299022 1.2232875 0.781551 
0.0 0.0 0.24384236 0.0 0.21616755 0.2425839 
0.0 0.0 0.0 0.0 0.0 0.07812942 
0.0 0.0 0.0 0.0 0.0 0.07698792 
0.0 0.0 0.0 0.0 0.0 0.07698792 
0.13977905 0.0 0.0 0.0 0.21296985 0.2430175 
1.0459006 0.0 0.0 0.0 0.92334014 1.370714 
1.015116 0.0 0.0 0.85085356 1.4599156 1.6923354 
0.6914638 0.9472322 1.0732812 1.6697977 2.045015 1.981034 
0.6579379 1.2662004 0.9133373 1.545544 2.4470947 1.9492505 
0.7285285 1.2778786 0.36829215 1.141017 2.6729205 1.955239 
0.24356383 1.2624573 0.0 0.9420199 2.962746 1.6438315 
0.0 0.8983738 0.0 0.42021838 2.661429 1.3766041 
0.0 0.24336216 0.18291458 0.0 0.8873713 0.7219781 
0.0 0.0 0.15006164 0.0 0.17580163 0.21924427 
0.0 0.0 0.0 0.0 0.0 0.07805332 
0.0 0.0 0.0 0.0 0.0 0.07698792 
0.0 0.0 0.0 0.0 0.0 0.07698792 
0.0 0.0 0.0 0.0 0.0 0.07698792 
0.0 0.0 0.0 0.0 0.0 0.07698792 
0.31897676 0.0 0.0 0.0 0.4152224 0.3977105 
0.69020957 0.0 0.0 0.0 1.0866307 1.1507244 
0.7179265 0.0 0.0 0.0 1.6267225 1.7117925 
0.42532212 0.028571084 0.0 0.15812026 1.8663265 1.8360584 
0.29898986 0.22236831 0.0 0.20636393 1.8904599 1.8247533 
0.0 0.18153395 0.0 0.0 1.5456775 1.2312953 
0.0 0.0 0.07841555 0.0 0.51751405 0.47659332 
0.0 0.0 0.09121392 0.0 0.08323233 0.13054027 
0.0 0.0 0.0 0.0 0.0 0.07698792 
0.0 0.0 0.0 0.0 0.0 0.07698792 
0.0 0.0 0.0 0.0 0.0 0.07698792 
0.0 0.0 0.0 0.0 0.0 0.07698792 
0.0 0.0 0.0 0.0 0.0 0.07698792 
0.0 0.0 0.0 0.0 0.0 0.07698792 
0.0 0.0 0.0 0.0 0.0 0.07698792 
0.0 0.0 0.0 0.0 0.019796398 0.11102611 
0.083483264 0.0 0.0 0.0 0.21071647 0.2006842 
0.07174565 0.0 0.0 0.0 0.32299176 0.26733884 
0.0039763004 0.0 0.0 0.0 0.33096924 0.26511735 
0.0 0.0 0.0 0.0 0.09866473 0.15162802 
0.0 0.0 0.0 0.0 0.0 0.08383689 
0.0 0.0 0.0 0.0 0.0 0.07698792 
0.0 0.0 0.0 0.0 0.0 0.07698792 
0.0 0.0 0.0 0.0 0.0 0.07698792 
0.0 0.0 0.0 0.0 0.0 0.07698792 
0.0 0.0 0.0 0.0 0.0 0.07698792 

