0.0 0.0 0.0 0.0 0.0 0.07698792 
0.0 0.0 0.0 0.0 0.0 0.07698792 
0.0 0.0 0.0 0.0 0.0 0.07698792 
0.0 0.0 0.0 0.0 0.0 0.07698792 
0.0 0.0 0.0 0.0 0.0 0.07698792 
0.0 0.0 0.0 0.0 0.0 0.07698792 
0.0 0.0 0.0 0.0 0.0 0.07698792 
0.0 0.0 0.0 0.0 0.0 0.07698792 
0.0 0.0 0.0 0.0 0.0 0.07698792 
0.0 0.0 0.0 0.0 0.0 0.07698792 
0.0 0.0 0.0 0.0 0.0 0.07698792 
0.0 0.0 0.0 0.0 0.0 0.07698792 
0.0 0.0 0.0 0.0 0.0 0.07698792 
0.0 0.0 0.0 0.0 0.0 0.07698792 
0.0 0.0 0.0 0.0 0.0 0.07698792 
0.0 0.0 0.0 0.0 0.0 0.07698792 
0.0 0.0 0.0051675886 0.0 0.0 0.07698792 
0.26524216 0.050448745 0.21602997 0.0 0.0 0.07698792 
0.6852104 0.24969569 0.4069667 0.0 0.0 0.0 
0.8718762 0.84690315 0.7944465 0.0 0.0 0.0 
0.4718634 1.2407281 1.0806171 0.0 0.44284132 0.0 
0.0 1.1235565 0.8325328 0.0 0.5222121 0.0 
0.0 0.34887624 0.20090246 0.0 0.24726702 0.0676083 
0.0 0.0035201106 0.0 0.0 0.0 0.07698792 
0.0 0.0 0.0 0.0 0.0 0.07698792 
0.0 0.0 0.0 0.0 0.0 0.07698792 
0.0 0.0 0.0 0.0 0.0 0.07698792 
0.0 0.0 0.0 0.0 0.0 0.07698792 
0.0 0.0 0.0 0.0 0.0 0.07698792 
0.0 0.0 0.0 0.0 0.0 0.07698792 
0.3087882 0.0 0.09433817 0.0 0.0 0.12956439 
1.3600898 0.054604053 0.29443294 0.0 0.0 0.0 
1.2728271 1.0710483 0.6508221 0.29544428 1.2456325 0.0 
0.9358086 1.4653327 1.0963553 1.1521207 1.9137286 0.59783053 
0.35797542 1.5662478 1.8661503 1.3580247 1.7185231 0.75019234 
0.023558214 1.9340342 2.169575 0.9108942 1.1465997 0.0 
0.0 1.6544881 1.6937106 0.0 1.0846695 0.0 
0.0 0.18370691 0.16407713 0.0 0.39342022 0.07125593 
0.0 0.0 0.0 0.0 0.0 0.07698792 
0.0 0.0 0.0 0.0 0.0 0.07698792 
0.0 0.0 0.0 0.0 0.0 0.07698792 
0.0 0.0 0.0 0.0 0.0 0.07698792 
0.0 0.0 0.0 0.0 0.0 0.07698792 
0.0 0.0 0.0 0.0 0.0 0.07698792 
0.6011893 0.0 0.0 0.2238531 0.03339203 0.6849827 
1.6153417 0.0802433 0.0 0.7860315 1.3915285 1.3959961 
1.2043755 1.3960783 0.23141965 1.0551958 2.6928446 1.6225352 
0.32911724 1.3285347 0.0 0.9474091 2.885706 1.5740457 
1.617409 0.44613206 0.037755936 0.8404677 2.062668 1.5971756 
1.0398583 1.9533417 1.9098303 0.6049369 2.125341 0.5234341 
0.0 1.9023384 2.153523 0.46091625 1.8963125 0.1265493 
0.0 0.41570684 0.86663926 0.2621506 0.550591 0.077311814 
0.0 0.0 0.0 0.0 0.0 0.07698792 
0.0 0.0 0.0 0.0 0.0 0.07698792 
0.0 0.0 0.0 0.0 0.0 0.07698792 
0.0 0.0 0.0 0.0 0.0 0.07698792 
0.0 0.0 0.0 0.0 0.0 0.07698792 
0.0 0.0 0.0 0.0 0.0 0.07698792 
0.57710916 0.0 0.0 0.073976815 0.4022385 0.68693984 
1.1556883 0.0 0.0 0.32430154 1.5373075 1.3764415 
0.61554277 0.36752054 0.0 0.3344021 1.8776733 1.5490696 
1.2635002 0.21607196 0.31179017 0.0 1.0415848 0.7450957 
1.6172962 1.0305012 0.19126707 0.0 2.0722733 0.19629604 
0.8062088 2.0962377 0.5186508 0.0 2.5752652 0.3221137 
0.0 1.4329274 1.3779863 0.16808298 1.8923742 0.37578756 
0.0 0.22085635 0.82261336 0.24789116 0.23554783 0.16355827 
0.0 0.0 0.0 0.0 0.0 0.07698792 
0.0 0.0 0.0 0.0 0.0 0.07698792 
0.0 0.0 0.0 0.0 0.0 0.07698792 
0.0 0.0 0.0 0.0 0.0 0.07698792 
0.0 0.0 0.0 0.0 0.0 0.07698792 
0.0 0.0 0.0 0.0 0.0 0.07698792 
0.11692004 0.0 0.0 0.0 0.19451807 0.18554229 
0.9797395 0.0 0.086986996 0.0 0.28958926 0.23323113 
1.4663656 0.5501452 0.3896078 0.18692209 0.44993064 0.0 
1.3125763 1.2749357 0.38099962 0.10804764 2.17519 0.19198747 
1.3005114 1.4437534 0.1116536 0.21664518 2.7357638 0.74510413 
0.40382463 1.8926916 1.394821 0.469833 2.4371357 0.5382052 
0.0 1.6118919 2.1435647 0.41652647 1.319415 0.0 
0.0 1.3242912 1.2310038 0.0 0.7142908 0.0 
0.0 0.3066005 0.2148413 0.0 0.3437146 0.07125593 
0.0 0.0 0.0 0.0 0.0 0.07698792 
0.0 0.0 0.0 0.0 0.0 0.07698792 
0.0 0.0 0.0 0.0 0.0 0.07698792 
0.0 0.0 0.0 0.0 0.0 0.07698792 
0.0 0.0 0.0 0.0 0.0 0.07698792 
0.0 0.0 0.0 0.013846916 0.0 0.10794329 
1.1302717 0.0 0.0 0.49591103 0.5716 1.2747786 
1.6469452 0.67389154 0.0 0.9577114 1.8765317 1.7145591 
1.0736063 1.2711428 0.0 1.1973314 2.959942 1.7557058 
0.43982643 1.1160849 0.0 0.9021326 3.072206 1.7673047 
0.14122292 0.89822483 0.3536274 1.224712 2.602093 1.8315024 
0.23535639 0.85294485 1.7538631 1.3674835 1.3583531 1.6749487 
0.31126484 1.4479591 1.8916559 0.9376736 0.715479 0.30363557 
0.0 1.6241139 1.6759146 0.0 0.66143584 0.0 
0.0 0.2992912 0.23189706 0.0 0.4111662 0.07125593 
0.0 0.0 0.0 0.0 0.0 0.07698792 
0.0 0.0 0.0 0.0 0.0 0.07698792 
0.0 0.0 0.0 0.0 0.0 0.07698792 
0.0 0.0 0.0 0.0 0.0 0.07698792 
0.0 0.0 0.0 0.0 0.0 0.09524337 
0.9888666 0.0 0.0 0.0 0.89574313 1.1920002 
1.1044822 0.0 0.0 0.2503415 1.8247311 1.6909256 
0.24241477 0.522298 0.0 0.48791006 2.1633627 1.7672963 
0.0 0.3683121 0.0 0.054904692 1.8327793 1.5529902 
0.20454556 0.0 0.0 0.0 1.2150735 1.1256626 
1.0237112 0.0 0.0 0.0 1.2387028 1.453346 
1.4902656 0.5518679 0.83223474 0.39808473 0.6344676 1.0774925 
0.15927713 1.8431697 2.1626272 0.39214805 1.3642029 0.0 
0.0 1.3816876 1.711928 0.014726673 1.0181366 0.0 
0.0 0.009683664 0.0 0.0 0.0 0.07698792 
0.0 0.0 0.0 0.0 0.0 0.07698792 
0.0 0.0 0.0 0.0 0.0 0.07698792 
0.0 0.0 0.0 0.0 0.0 0.07698792 
0.0 0.0 0.0 0.0 0.0 0.07698792 
0.16956842 0.0 0.0 0.0 0.2789827 0.25502443 
0.33592376 0.0 0.0 0.0 0.53339165 0.4165133 
0.0 0.0 0.0 0.0 0.43419185 0.3748566 
0.0 0.0 0.0 0.0 0.16628389 0.1835348 
0.011219755 0.0 0.032679223 0.0 0.0 0.081021205 
1.3077579 0.0 0.114474006 0.0 0.08800733 0.49583533 
2.1170492 0.50127536 0.0 0.0 1.2180351 0.7998908 
0.47201806 1.9390934 1.8065896 0.0 2.0041878 0.0 
0.0 1.4632754 2.155589 0.045936618 1.4645113 0.0 
0.0 0.07811783 0.082144745 0.0 0.13060008 0.07698792 
0.0 0.0 0.0 0.0 0.0 0.07698792 
0.0 0.0 0.0 0.0 0.0 0.07698792 
0.0 0.0 0.0 0.0 0.0 0.07698792 
0.0 0.0 0.0 0.0 0.0 0.07698792 
0.25498894 0.1216128 0.15364602 0.0 0.0 0.07698792 
0.16316463 0.3434839 0.29605162 0.0 0.0 0.07698792 
0.2989447 0.3546286 0.3755669 0.0 0.0 0.07698792 
0.4488923 0.41697583 0.47083342 0.0 0.0 0.063412115 
0.919491 0.4139061 0.5120784 0.0 0.0 0.0 
1.6485598 0.5371849 0.42130214 0.0 0.89055985 0.0 
2.0394173 1.2383175 0.0 0.021031491 2.5120335 0.44434127 
0.26634264 1.94659 1.2280316 0.27757257 2.6379135 0.3556525 
0.0 1.3035262 1.894297 0.30066785 1.5907596 0.4005386 
0.0 0.10178335 0.1826286 0.084846824 0.04865438 0.10362801 
0.0 0.0 0.0 0.0 0.0 0.07698792 
0.0 0.0 0.0 0.0 0.0 0.07698792 
0.0 0.0 0.0 0.0 0.0 0.07698792 
0.0 0.0 0.0 0.004760273 0.0 0.095872834 
0.5453001 0.0 0.21007714 0.33692643 0.0 0.3553197 
0.8171677 0.718767 0.7521082 0.633044 0.20345022 0.14223342 
0.7512265 0.75586075 1.1799588 0.46698496 0.640794 0.0 
0.7259885 1.0687109 1.2762463 0.14824367 1.0734644 0.0 
0.93481296 1.3246863 1.1602659 0.48269078 1.751627 0.0 
1.3132768 1.3403196 0.59137064 0.70072645 2.6017573 0.91559124 
1.1034653 1.5865351 0.0 0.7887481 3.0110977 1.2213738 
0.0 1.7831024 0.9112526 0.44235313 2.819348 0.89808553 
0.0 0.4874038 1.1222298 0.16559507 1.1208841 0.48030847 
0.0 0.0 0.05224911 0.0 0.0 0.09040615 
0.0 0.0 0.0 0.0 0.0 0.07698792 
0.0 0.0 0.0 0.0 0.0 0.07698792 
0.0 0.0 0.0 0.0 0.0 0.07698792 
0.0 0.0 0.0 0.010540933 0.0 0.09786871 
0.57450736 0.0 0.0 0.3411296 0.55846465 0.89165276 
0.7545181 0.0 0.0 1.1904718 1.1439954 1.5621231 
0.70512533 0.8200176 0.46155882 1.8901802 1.942604 1.9008105 
0.5171035 1.0782493 0.49493456 1.86537 2.3550487 2.0275686 
0.48207504 1.1007855 0.39356294 1.7084075 2.603855 1.9622991 
0.30652982 0.9176812 0.0 1.2910237 2.8939908 1.8703203 
0.0 0.73359793 0.0 0.8975295 2.7703006 1.7080483 
0.0 0.5936056 0.63283336 0.36094305 1.4140116 0.83923674 
0.0 0.025439039 0.48820925 0.0019341083 0.2873498 0.2678909 
0.0 0.0 0.0 0.0 0.0 0.07736842 
0.0 0.0 0.0 0.0 0.0 0.07698792 
0.0 0.0 0.0 0.0 0.0 0.07698792 
0.0 0.0 0.0 0.0 0.0 0.07698792 
0.0 0.0 0.0 0.0 0.0 0.07698792 
0.24546188 0.0 0.0 0.0 0.3805613 0.31504744 
0.6171965 0.0 0.0 0.0 0.9781546 0.96239156 
0.58797175 0.0 0.0 0.0 1.442657 1.5300353 
0.35724503 0.0005801823 0.0 0.0 1.512225 1.6837204 
0.20031753 0.018871132 0.0 0.0 1.4915514 1.5990567 
0.06152466 0.0 0.0 0.0 1.3131932 1.272449 
0.0 0.0 0.0 0.0 0.86074144 0.7229733 
0.0 0.0 0.018803082 0.0 0.2828592 0.27940482 
0.0 0.0 0.010972396 0.0 0.0 0.08573938 
0.0 0.0 0.0 0.0 0.0 0.07698792 
0.0 0.0 0.0 0.0 0.0 0.07698792 
0.0 0.0 0.0 0.0 0.0 0.07698792 
0.0 0.0 0.0 0.0 0.0 0.07698792 
0.0 0.0 0.0 0.0 0.0 0.07698792 
0.0 0.0 0.0 0.0 0.0 0.07698792 
0.0 0.0 0.0 0.0 0.0 0.07698792 
0.0 0.0 0.0 0.0 0.0 0.07698792 
0.0 0.0 0.0 0.0 0.0 0.07698792 
0.0 0.0 0.0 0.0 0.0 0.07698792 
0.0 0.0 0.0 0.0 0.0 0.07698792 
0.0 0.0 0.0 0.0 0.0 0.07698792 
0.0 0.0 0.0 0.0 0.0 0.07698792 
0.0 0.0 0.0 0.0 0.0 0.07698792 
0.0 0.0 0.0 0.0 0.0 0.07698792 
0.0 0.0 0.0 0.0 0.0 0.07698792 

