0.0 0.0 0.0 0.0 0.0 0.07698792 
0.0 0.0 0.0 0.0 0.0 0.07698792 
0.0 0.0 0.0 0.0 0.0 0.07698792 
0.0 0.0 0.0 0.0 0.0 0.07698792 
0.0 0.0 0.0 0.0 0.0 0.07698792 
0.03154297 0.0 0.03169626 0.0 0.0 0.07698792 
0.69525087 0.04286599 0.23505113 0.0 0.0 0.0 
0.6516121 0.9297499 0.551708 0.0 0.23876946 0.0 
0.0 0.88653076 0.59586763 0.0 0.55269694 0.0 
0.0 0.06075421 0.016673028 0.0 0.13687888 0.07698792 
0.0 0.0 0.0 0.0 0.0 0.07698792 
0.0 0.0 0.0 0.0 0.0 0.07698792 
0.0 0.0 0.0 0.0 0.0 0.07698792 
0.0 0.0 0.0 0.0 0.0 0.07698792 
0.0 0.0 0.0 0.0 0.0 0.07698792 
0.0 0.0 0.0 0.0 0.0 0.07698792 
0.0 0.0 0.0 0.0 0.0 0.07698792 
0.0 0.0 0.0 0.0 0.0 0.07698792 
0.023171924 0.0 0.030719519 0.0 0.0 0.07698792 
0.93283015 0.0 0.17134911 0.0 0.0 0.0 
1.3002772 0.82352877 0.14481497 0.22692853 0.8584442 0.0 
0.5313923 1.4365661 0.8728881 0.6836413 1.6451548 0.27417126 
0.0 0.94961387 1.1827911 0.6816022 1.1147267 0.38929638 
0.0 0.11237412 0.20474786 0.114126615 0.05181892 0.10701052 
0.0 0.0 0.0 0.0 0.0 0.07698792 
0.0 0.0 0.0 0.0 0.0 0.07698792 
0.0 0.0 0.0 0.0 0.0 0.07698792 
0.0 0.0 0.0 0.0 0.0 0.07698792 
0.0 0.0 0.0 0.0 0.0 0.07698792 
0.0 0.0 0.0 0.0 0.0 0.07698792 
0.0 0.0 0.0 0.0 0.0 0.07698792 
0.0 0.0 0.0 0.0 0.0 0.07698792 
0.56072015 0.0 0.09106354 0.0 0.0 0.07566147 
1.6720695 0.30166203 0.033767186 0.12773983 0.6170155 0.2214305 
1.2614179 1.5520257 0.0 0.23032999 2.3540602 0.29486302 
0.0 1.3464686 0.39946827 0.2101958 2.2085865 0.62046856 
0.0 0.2682744 0.54935783 0.096674874 0.5351921 0.50200146 
0.0 0.0 0.06654686 0.0 0.00462931 0.09376918 
0.0 0.0 0.0 0.0 0.0 0.07698792 
0.0 0.0 0.0 0.0 0.0 0.07698792 
0.0 0.0 0.0 0.0 0.0 0.07698792 
0.0 0.0 0.0 0.0 0.0 0.07698792 
0.0 0.0 0.0 0.0 0.0 0.07698792 
0.0 0.0 0.0 0.0 0.0 0.07698792 
0.0 0.0 0.0 0.0 0.0 0.07698792 
0.047701716 0.0 0.045376815 0.0 0.0 0.07698792 
1.5433748 0.0 0.059127845 0.0 0.0 0.28895578 
1.997165 1.2861997 0.0 0.025214087 1.9095156 0.37914914 
0.060554907 1.6844684 1.1662887 0.03609204 2.2564518 0.22942287 
0.0 0.5232786 1.0090724 0.0320538 1.2502941 0.3768778 
0.0 0.0 0.09745469 0.0 0.06665766 0.118715905 
0.0 0.0 0.0 0.0 0.0 0.07698792 
0.0 0.0 0.0 0.0 0.0 0.07698792 
0.0 0.0 0.0 0.0 0.0 0.07698792 
0.0 0.0 0.0 0.0 0.0 0.07698792 
0.0 0.0 0.0 0.0 0.0 0.07698792 
0.0 0.0 0.0 0.0 0.0 0.07698792 
0.0 0.0 0.0 0.0 0.0 0.07698792 
0.0 0.0 0.0 0.0 0.0 0.07698792 
0.20394617 0.0 0.0 0.07265739 0.0 0.27158737 
1.9705737 0.0 0.0 0.28700057 0.6347739 0.8555117 
1.7815433 1.7804694 0.0 0.25307152 2.1216104 0.5640588 
0.0 1.6816648 1.3259193 0.0 2.037596 0.26489276 
0.0 0.23261784 0.88218415 0.027868975 0.5431219 0.18932077 
0.0 0.0 0.0 0.0 0.0 0.07698792 
0.0 0.0 0.0 0.0 0.0 0.07698792 
0.0 0.0 0.0 0.0 0.0 0.07698792 
0.0 0.0 0.0 0.0 0.0 0.07698792 
0.0 0.0 0.0 0.0 0.0 0.07698792 
0.0 0.0 0.0 0.0 0.0 0.07698792 
0.0 0.0 0.0 0.0 0.0 0.07698792 
0.0 0.0 0.0 0.0 0.0 0.07698792 
0.0 0.0 0.0 0.0 0.0 0.07698792 
0.37641573 0.0 0.0 0.049822476 0.0 0.2952175 
2.1334653 0.0 0.0 0.0 0.8516632 0.96319747 
1.4147034 1.7822984 0.26402244 0.0 1.9448413 0.3847843 
0.0 1.4619309 1.6476773 0.042148706 1.7199029 0.11148533 
0.0 0.04927868 0.48477232 0.046400655 0.26950756 0.08153471 
0.0 0.0 0.0 0.0 0.0 0.07698792 
0.0 0.0 0.0 0.0 0.0 0.07698792 
0.0 0.0 0.0 0.0 0.0 0.07698792 
0.0 0.0 0.0 0.0 0.0 0.07698792 
0.0 0.0 0.0 0.0 0.0 0.07698792 
0.0 0.0 0.0 0.0 0.0 0.07698792 
0.0 0.0 0.0 0.0 0.0 0.07698792 
0.0 0.0 0.0 0.0 0.0 0.07698792 
0.0 0.0 0.0 0.0 0.0 0.07698792 
0.47948247 0.0 0.0 0.07761852 0.0 0.42202586 
2.0927563 0.0 0.0 0.07115692 0.9346727 0.92050207 
0.9444558 1.8300207 0.7025557 0.024910867 1.8687658 0.19041067 
0.0 1.2729263 1.8506447 0.0 1.5470439 0.040452834 
0.4658205 0.44153762 0.5136931 0.0 0.0 0.0 
0.32539764 0.6917528 0.61509484 0.0 0.0 0.0 
0.10494408 0.6356913 0.45421195 0.0 0.010020036 0.04054413 
0.0 0.40458786 0.18527308 0.0 0.05487906 0.07698792 
0.0 0.09761831 0.0 0.0 0.00033458322 0.07698792 
0.0 0.0 0.0 0.0 0.0 0.07698792 
0.0 0.0 0.0 0.0 0.0 0.07698792 
0.0 0.0 0.0 0.0 0.0 0.07698792 
0.0 0.0 0.0 0.0 0.0 0.07698792 
0.0 0.0 0.0 0.0 0.0 0.07698792 
0.49704647 0.0 0.0 0.059003484 0.20684086 0.51955456 
2.0221517 0.0 0.0 0.2398665 0.95176333 1.2035496 
1.2251673 1.6858141 1.1623409 0.20298871 1.4451603 0.48879513 
0.3169177 1.4053153 2.24495 0.0 1.1040046 0.0 
0.8377541 0.9059596 0.8232895 0.33932576 1.2039713 0.0 
0.444398 1.1555502 1.2949667 1.045918 1.3764603 0.023711577 
0.24717504 1.1714606 1.5392973 0.96142864 1.0384047 0.0 
0.0 1.4745181 1.6296802 0.078242876 0.8426668 0.0 
0.0 1.0535207 0.9445908 0.0 0.7526867 0.0 
0.0 0.07240181 0.007370062 0.0 0.119889274 0.07698792 
0.0 0.0 0.0 0.0 0.0 0.07698792 
0.0 0.0 0.0 0.0 0.0 0.07698792 
0.0 0.0 0.0 0.0 0.0 0.07698792 
0.0 0.0 0.0 0.0 0.0 0.07698792 
0.26087138 0.0 0.0 0.010915559 0.21171288 0.38791394 
1.6815383 0.0 0.0 0.15573084 0.9278045 1.4769053 
1.5530727 0.7968269 0.35812223 0.6483589 1.2560476 1.4854646 
0.9253837 1.5966215 1.8451799 0.8568029 2.438286 0.91783124 
0.2451337 1.9648349 0.6159303 1.0130185 2.5740404 0.7104042 
0.43141073 1.1486663 0.49928892 1.6880403 2.142708 1.3904366 
1.2657168 0.7038704 1.0391651 1.6190965 1.1369289 1.1973002 
0.8037531 1.9152713 1.9313811 1.0428405 1.4845058 0.22514397 
0.0 1.7726887 2.0349157 0.33194193 1.4672352 0.0 
0.0 0.23543343 0.3984099 0.0 0.30197898 0.07698792 
0.0 0.0 0.0 0.0 0.0 0.07698792 
0.0 0.0 0.0 0.0 0.0 0.07698792 
0.0 0.0 0.0 0.0 0.0 0.07698792 
0.0 0.0 0.0 0.0 0.0 0.07698792 
0.0 0.0 0.0 0.0 0.0036935657 0.10707973 
1.0438147 0.0 0.0 0.0 0.906131 1.2239168 
1.4890523 0.0 0.0 0.38750088 1.506554 1.7638226 
1.4246163 1.1692628 0.20753783 0.60584027 2.0893111 1.866332 
0.42044252 1.4978181 1.7227429 0.6308133 2.2047856 0.4334247 
0.4485935 1.2150004 1.8611823 0.0 1.5936216 0.0 
1.6152713 0.55947584 0.3256086 0.36108336 2.321552 0.74171007 
0.69226825 1.4682331 0.3231096 0.622676 2.5509362 0.90870833 
0.0 1.3924716 1.6116934 0.47120357 1.7299838 0.5700039 
0.0 0.19745979 0.53299874 0.15174669 0.21864857 0.120695174 
0.0 0.0 0.0 0.0 0.0 0.07698792 
0.0 0.0 0.0 0.0 0.0 0.07698792 
0.0 0.0 0.0 0.0 0.0 0.07698792 
0.0 0.0 0.0 0.0 0.0 0.07698792 
0.0 0.0 0.0 0.0 0.0 0.07698792 
0.22999528 0.0 0.0 0.0 0.35947654 0.30462426 
0.97372764 0.0 0.0 0.0 1.0978767 1.3227174 
1.1040299 0.0 0.0 0.5019038 1.4477357 1.7764251 
0.7276215 0.6904352 0.6821593 1.6243944 1.845696 1.8633287 
0.11687575 1.1626781 1.3019059 1.8103678 1.9947587 1.7626319 
0.098739 0.93047506 0.4763605 1.5233501 2.4380114 1.6434157 
0.0 0.8442756 0.0072495416 0.8254491 2.0597117 1.2238467 
0.0 0.39297616 0.67694354 0.22932196 0.685181 0.6282999 
0.0 0.0 0.19853827 0.0058441116 0.028702457 0.11220476 
0.0 0.0 0.0 0.0 0.0 0.07698792 
0.0 0.0 0.0 0.0 0.0 0.07698792 
0.0 0.0 0.0 0.0 0.0 0.07698792 
0.0 0.0 0.0 0.0 0.0 0.07698792 
0.0 0.0 0.0 0.0 0.0 0.07698792 
0.0 0.0 0.0 0.0 0.0 0.07698792 
0.17568333 0.0 0.0 0.0 0.2870065 0.25980914 
0.611278 0.0 0.0 0.0 0.9073573 0.88945323 
0.6264399 0.0 0.0 0.0 1.427523 1.5115674 
0.27584985 0.0 0.0 0.0 1.4615556 1.520494 
0.0 0.0 0.0 0.0 1.1565276 0.9917088 
0.0 0.0 0.0 0.0 0.4938663 0.39449584 
0.0 0.0 0.010721907 0.0 0.12770924 0.15773922 
0.0 0.0 0.0 0.0 0.0 0.07714012 
0.0 0.0 0.0 0.0 0.0 0.07698792 
0.0 0.0 0.0 0.0 0.0 0.07698792 
0.0 0.0 0.0 0.0 0.0 0.07698792 
0.0 0.0 0.0 0.0 0.0 0.07698792 
0.0 0.0 0.0 0.0 0.0 0.07698792 
0.0 0.0 0.0 0.0 0.0 0.07698792 
0.0 0.0 0.0 0.0 0.0 0.07698792 
0.0 0.0 0.0 0.0 0.0 0.07698792 
0.0 0.0 0.0 0.0 0.0 0.07698792 
0.0 0.0 0.0 0.0 0.0 0.07698792 
0.0 0.0 0.0 0.0 0.0 0.07698792 
0.0 0.0 0.0 0.0 0.0 0.07698792 
0.0 0.0 0.0 0.0 0.0 0.07698792 
0.0 0.0 0.0 0.0 0.0 0.07698792 
0.0 0.0 0.0 0.0 0.0 0.07698792 
0.0 0.0 0.0 0.0 0.0 0.07698792 
0.0 0.0 0.0 0.0 0.0 0.07698792 
0.0 0.0 0.0 0.0 0.0 0.07698792 
0.0 0.0 0.0 0.0 0.0 0.07698792 
0.0 0.0 0.0 0.0 0.0 0.07698792 
0.0 0.0 0.0 0.0 0.0 0.07698792 
0.0 0.0 0.0 0.0 0.0 0.07698792 
0.0 0.0 0.0 0.0 0.0 0.07698792 
0.0 0.0 0.0 0.0 0.0 0.07698792 
0.0 0.0 0.0 0.0 0.0 0.07698792 
0.0 0.0 0.0 0.0 0.0 0.07698792 
0.0 0.0 0.0 0.0 0.0 0.07698792 
0.0 0.0 0.0 0.0 0.0 0.07698792 
0.0 0.0 0.0 0.0 0.0 0.07698792 

