0.0 0.0 0.0 0.0 0.0 0.07698792 
0.0 0.0 0.0 0.0 0.0 0.07698792 
0.0 0.0 0.0 0.0 0.0 0.07698792 
0.0 0.0 0.0 0.0 0.0 0.07698792 
0.0 0.0 0.0 0.0 0.0 0.07698792 
0.0 0.0 0.0 0.0 0.0 0.07698792 
0.0 0.0 0.0 0.0 0.0 0.07698792 
0.0 0.0 0.0 0.0 0.0 0.07698792 
0.0 0.0 0.0 0.0 0.0 0.07698792 
0.0 0.0 0.0 0.0 0.0 0.07698792 
0.0 0.0 0.0 0.0 0.0 0.07698792 
0.0 0.0 0.0 0.0 0.0 0.07698792 
0.0 0.0 0.0 0.0 0.0 0.07698792 
0.0 0.0 0.0 0.0 0.0 0.07698792 
0.0 0.0 0.0 0.0 0.0 0.07698792 
0.0 0.0 0.0 0.0 0.0 0.07698792 
0.0 0.0 0.0 0.0 0.0 0.07698792 
0.0 0.0 0.0 0.0 0.0 0.07698792 
0.21180785 0.0 0.095913805 0.0 0.0 0.07698792 
0.62890977 0.5148445 0.30488363 0.0 0.0 0.0 
0.0 0.76033974 0.48865438 0.0 0.41144928 0.0 
0.0 0.13254808 0.02548445 0.0 0.17373222 0.07698792 
0.0 0.0 0.0 0.0 0.0 0.07698792 
0.0 0.0 0.0 0.0 0.0 0.07698792 
0.0 0.0 0.0 0.0 0.0 0.07698792 
0.0 0.0 0.0 0.0 0.0 0.07698792 
0.0 0.0 0.0 0.0 0.0 0.07698792 
0.0 0.0 0.0 0.0 0.0 0.07698792 
0.0 0.0 0.0 0.0 0.0 0.07698792 
0.0 0.0 0.0 0.0 0.0 0.07698792 
0.0 0.0 0.0 0.0 0.0 0.07698792 
0.0 0.0 0.0 0.0 0.0 0.07698792 
0.5987489 0.0 0.0 0.21369496 0.0 0.56576264 
1.2793324 0.5466381 0.32826102 0.36161122 0.26217356 0.64372236 
0.017051682 1.5895433 1.8889363 0.29391137 0.9550944 0.0 
0.0 0.75840575 0.89809966 0.0 0.65668446 0.04363815 
0.0 0.0 0.0 0.0 0.0 0.07698792 
0.0 0.0 0.0 0.0 0.0 0.07698792 
0.0 0.0 0.0 0.0 0.0 0.07698792 
0.0 0.0 0.0 0.0 0.0 0.07698792 
0.0 0.0 0.0 0.0 0.0 0.07698792 
0.0 0.0 0.0 0.0 0.0 0.07698792 
0.0 0.0 0.0 0.0 0.0 0.07698792 
0.0 0.0 0.0 0.0 0.0 0.07698792 
0.0 0.0 0.0 0.0 0.0 0.07698792 
0.0 0.0 0.0 0.0 0.0 0.07698792 
0.6864882 0.0 0.0 0.10358958 0.3484575 0.6993867 
1.6042805 0.23529965 0.0 0.27262664 0.61550033 1.256285 
0.6690294 1.7738624 2.1135588 0.22889636 1.3026966 0.0 
0.0 1.5074624 2.1639364 0.0 1.2928759 0.0 
0.0 0.06355981 0.037781157 0.0 0.1980461 0.07698792 
0.0 0.0 0.0 0.0 0.0 0.07698792 
0.0 0.0 0.0 0.0 0.0 0.07698792 
0.0 0.0 0.0 0.0 0.0 0.07698792 
0.0 0.0 0.0 0.0 0.0 0.07698792 
0.0 0.0 0.0 0.0 0.0 0.07698792 
0.0 0.0 0.0 0.0 0.0 0.07698792 
0.0 0.0 0.0 0.0 0.0 0.07698792 
0.0 0.0 0.0 0.0 0.0 0.07698792 
0.0 0.0 0.0 0.0 0.0 0.07698792 
0.300386 0.0 0.0 0.0 0.27353194 0.41082522 
1.8125539 0.0 0.0 0.22964945 0.7722377 1.3163786 
1.321321 1.5947101 1.0591261 0.46285096 1.39043 0.70539427 
0.0 1.6244432 2.220185 0.29075143 1.4588763 0.0 
0.0 0.2811121 0.46819013 0.0041394504 0.29071602 0.07698792 
0.0 0.0 0.0 0.0 0.0 0.07698792 
0.0 0.0 0.0 0.0 0.0 0.07698792 
0.0 0.0 0.0 0.0 0.0 0.07698792 
0.0 0.0 0.0 0.0 0.0 0.07698792 
0.0 0.0 0.0 0.0 0.0 0.07698792 
0.0 0.0 0.0 0.0 0.0 0.07698792 
0.0 0.0 0.0 0.0 0.0 0.07698792 
0.0 0.0 0.0 0.0 0.0 0.07698792 
0.0 0.0 0.0 0.0 0.0 0.07698792 
0.0 0.0 0.0 0.0 0.03259862 0.116596 
1.6932211 0.0 0.0 0.03379086 0.67294884 1.295816 
1.5928886 1.0673559 0.0 0.0 1.3340572 0.83109957 
0.0 1.381919 1.6434395 0.07465395 1.4141487 0.0 
0.0 0.25902507 0.5678624 0.0 0.42027065 0.07698792 
0.0 0.0 0.0 0.0 0.0 0.07698792 
0.0 0.0 0.0 0.0 0.0 0.07698792 
0.0 0.0 0.0 0.0 0.0 0.07698792 
0.0 0.0 0.0 0.0 0.0 0.07698792 
0.0 0.0 0.0 0.0 0.0 0.07698792 
0.0 0.0 0.0 0.0 0.0 0.07698792 
0.0 0.0 0.0 0.0 0.0 0.07698792 
0.0 0.0 0.0 0.0 0.0 0.07698792 
0.0 0.0 0.0 0.0 0.0 0.07698792 
0.0 0.0 0.0 0.0 0.0 0.07698792 
1.2503536 0.0 0.0 0.02116277 0.39435342 1.0572612 
1.789722 0.7896152 0.0 0.0 0.87564963 1.0344071 
0.0 1.586853 2.1099665 0.021144893 1.3461076 0.0 
0.0 0.76332027 1.139284 0.0 0.77059186 0.01028838 
0.0 0.0 0.0 0.0 0.0 0.07698792 
0.0 0.0 0.0 0.0 0.0 0.07698792 
0.0 0.0 0.0 0.0 0.0 0.07698792 
0.0 0.0 0.0 0.0 0.0 0.07698792 
0.0 0.0 0.0 0.0 0.0 0.07698792 
0.0 0.0 0.0 0.0 0.0 0.07698792 
0.0 0.0 0.0 0.0 0.0 0.07698792 
0.0 0.0 0.0 0.0 0.0 0.07698792 
0.0 0.0 0.0 0.0 0.0 0.07698792 
0.0 0.0 0.0 0.0 0.0 0.07698792 
0.9018197 0.0 0.0 0.07611362 0.3878147 0.8587267 
1.740581 0.2061606 0.0 0.23608568 0.7295972 1.3757014 
0.46960688 1.7219776 2.18192 0.3191672 1.3921566 0.15117833 
0.0 1.2655791 2.032547 0.01958507 1.1797132 0.0 
0.0 0.0 0.0 0.0 0.0 0.07698792 
0.0 0.0 0.0 0.0 0.0 0.07698792 
0.0 0.0 0.0 0.0 0.0 0.07698792 
0.0 0.0 0.0 0.0 0.0 0.07698792 
0.0 0.0 0.0 0.0 0.0 0.07698792 
0.0 0.0 0.0 0.0 0.0 0.07698792 
0.0 0.0 0.0 0.0 0.0 0.07698792 
0.0 0.0 0.0 0.0 0.0 0.07698792 
0.0 0.0 0.0 0.0 0.0 0.07698792 
0.0 0.0 0.0 0.0 0.0 0.07698792 
0.42123255 0.0 0.0 0.0 0.38487288 0.52351606 
1.7452624 0.0 0.0 0.08136969 0.7539457 1.2831213 
1.0833652 1.5401183 1.1229876 0.22470735 1.3121463 0.37488103 
0.0 1.5883155 2.1078584 0.0 1.2641832 0.0 
0.0 0.1869858 0.0994231 0.0 0.2691314 0.07698792 
0.0 0.0 0.0 0.0 0.0 0.07698792 
0.0 0.0 0.0 0.0 0.0 0.07698792 
0.0 0.0 0.0 0.0 0.0 0.07698792 
0.0 0.0 0.0 0.0 0.0 0.07698792 
0.0 0.0 0.0 0.0 0.0 0.07698792 
0.0 0.0 0.0 0.0 0.0 0.07698792 
0.0 0.0 0.0 0.0 0.0 0.07698792 
0.0 0.0 0.0 0.0 0.0 0.07698792 
0.0 0.0 0.0 0.0 0.0 0.07698792 
0.0 0.0 0.0 0.0 0.03259862 0.116596 
1.5851288 0.0 0.0 0.11756839 0.76133287 1.3926659 
1.3470068 0.8785536 0.052872747 0.35212776 0.8204498 1.1707106 
0.0 1.6057078 2.2184508 0.46360916 1.1950727 0.0 
0.0 1.1173935 1.317859 0.0 0.8216689 0.0 
0.0 0.027648214 0.0 0.0 0.0 0.07698792 
0.0 0.0 0.0 0.0 0.0 0.07698792 
0.0 0.0 0.0 0.0 0.0 0.07698792 
0.0 0.0 0.0 0.0 0.0 0.07698792 
0.0 0.0 0.0 0.0 0.0 0.07698792 
0.0 0.0 0.0 0.0 0.0 0.07698792 
0.0 0.0 0.0 0.0 0.0 0.07698792 
0.0 0.0 0.0 0.0 0.0 0.07698792 
0.0 0.0 0.0 0.0 0.0 0.07698792 
0.0 0.0 0.0 0.0 0.0 0.07698792 
0.8109934 0.0 0.0 0.02187762 0.7076407 1.0004852 
1.388643 0.0 0.0 0.24909401 0.8226198 1.4755332 
1.0057893 1.7882379 2.0602882 0.37928548 0.9969509 0.6701161 
0.0 1.7045227 2.3798397 0.015868384 1.0484308 0.0 
0.0 0.60107225 0.5355677 0.0 0.5287583 0.04363815 
0.0 0.06355981 0.0 0.0 0.011209268 0.07698792 
0.0 0.0 0.0 0.0 0.0 0.07698792 
0.0 0.0 0.0 0.0 0.0 0.07698792 
0.0 0.0 0.0 0.0 0.0 0.07698792 
0.0 0.0 0.0 0.0 0.0 0.07698792 
0.0 0.0 0.0 0.0 0.0 0.07698792 
0.0 0.0 0.0 0.0 0.0 0.07698792 
0.0 0.0 0.0 0.0 0.0 0.07698792 
0.0 0.0 0.0 0.0 0.0 0.07698792 
0.10425933 0.0 0.0 0.0 0.2132522 0.19519326 
1.2360175 0.0 0.0 0.04860144 0.9403565 1.4276195 
0.93102986 0.14827634 0.0 0.78166324 1.1982111 1.4376218 
0.0 1.2283688 1.9149299 1.2297217 1.2311298 0.999623 
0.0 0.8989984 1.28372 0.96357864 0.7791598 0.26782528 
0.0 0.11808433 0.14865887 0.107692435 0.12839742 0.07698792 
0.0 0.0 0.0 0.0 0.0 0.07698792 
0.0 0.0 0.0 0.0 0.0 0.07698792 
0.0 0.0 0.0 0.0 0.0 0.07698792 
0.0 0.0 0.0 0.0 0.0 0.07698792 
0.0 0.0 0.0 0.0 0.0 0.07698792 
0.0 0.0 0.0 0.0 0.0 0.07698792 
0.0 0.0 0.0 0.0 0.0 0.07698792 
0.0 0.0 0.0 0.0 0.0 0.07698792 
0.0 0.0 0.0 0.0 0.0 0.07698792 
0.48817796 0.0 0.0 0.0 0.55795664 0.56611407 
0.71329045 0.02113093 0.0 0.0 0.9813263 1.2170243 
0.17576668 0.28278995 0.0 0.0 0.8520355 1.1708741 
0.0 0.22183895 0.5382137 0.21343806 0.2919458 0.49312824 
0.0 0.087488785 0.16680735 0.09270285 0.002010692 0.10974267 
0.0 0.0 0.0 0.0 0.0 0.07698792 
0.0 0.0 0.0 0.0 0.0 0.07698792 
0.0 0.0 0.0 0.0 0.0 0.07698792 
0.0 0.0 0.0 0.0 0.0 0.07698792 
0.0 0.0 0.0 0.0 0.0 0.07698792 
0.0 0.0 0.0 0.0 0.0 0.07698792 
0.0 0.0 0.0 0.0 0.0 0.07698792 
0.0 0.0 0.0 0.0 0.0 0.07698792 
0.0 0.0 0.0 0.0 0.0 0.07698792 
0.0 0.0 0.0 0.0 0.0 0.07698792 
0.0 0.0 0.0 0.0 0.0 0.07698792 
0.0 0.0 0.0 0.0 0.0 0.07698792 
0.0 0.0 0.0 0.0 0.0 0.07698792 
0.0 0.0 0.0 0.0 0.0 0.07698792 
0.0 0.0 0.0 0.0 0.0 0.07698792 
0.0 0.0 0.0 0.0 0.0 0.07698792 

