0.0 0.0 0.0 0.0 0.0 0.07698792 
0.0 0.0 0.0 0.0 0.0 0.07698792 
0.0 0.0 0.0 0.0 0.0 0.07698792 
0.0 0.0 0.0 0.0 0.0 0.07698792 
0.0 0.0 0.0 0.0 0.0 0.07698792 
0.0 0.0 0.0 0.0 0.0 0.07698792 
0.0 0.0 0.0 0.0 0.0 0.07698792 
0.0 0.0 0.0 0.0 0.0 0.07698792 
0.0 0.0 0.0 0.0 0.0 0.07698792 
0.0 0.0 0.0 0.0 0.0 0.07698792 
0.0 0.0 0.0 0.0 0.0 0.07698792 
0.0 0.0 0.0 0.0 0.0 0.07698792 
0.0 0.0 0.0 0.0 0.0 0.07698792 
0.0 0.0 0.0 0.0 0.0 0.07698792 
0.0 0.0 0.0 0.0 0.0 0.07698792 
0.0 0.0 0.0 0.0 0.0 0.07698792 
0.0 0.0 0.0 0.0 0.0 0.07698792 
0.0 0.0 0.0 0.0 0.0 0.07698792 
0.0 0.0 0.0 0.0 0.0 0.07698792 
0.0 0.0 0.0 0.0 0.0 0.07698792 
0.0 0.0 0.0 0.0 0.0 0.07698792 
0.0 0.0 0.0 0.0 0.0 0.07698792 
0.0 0.0 0.0 0.0 0.0 0.07698792 
0.0 0.0 0.0 0.0 0.0 0.07698792 
0.0 0.0 0.0 0.0 0.0 0.07698792 
0.0 0.0 0.0 0.0 0.0 0.07698792 
0.0 0.0 0.0 0.0 0.0 0.07698792 
0.0 0.0 0.0 0.0 0.0 0.07698792 
0.0 0.0 0.0 0.0 0.0 0.07698792 
0.0 0.0 0.0 0.0 0.0 0.07698792 
0.0 0.0 0.0 0.0 0.0 0.07698792 
0.0 0.0 0.0 0.0 0.0 0.07698792 
0.0 0.0 0.0 0.0 0.0 0.07698792 
0.0 0.0 0.0 0.0 0.0 0.07698792 
0.0 0.0 0.0 0.0 0.0 0.07698792 
0.0 0.0 0.0 0.0 0.0 0.07698792 
0.0 0.0 0.0 0.0 0.0 0.07698792 
0.0 0.0 0.0 0.0 0.0 0.07698792 
0.0 0.0 0.0 0.0 0.0 0.07698792 
0.0 0.0 0.0 0.0 0.0 0.07698792 
0.0 0.0 0.0 0.0 0.0 0.07698792 
0.0 0.0 0.0 0.0 0.0 0.07698792 
0.0 0.0 0.0 0.0 0.0 0.07698792 
0.22159946 0.013467177 0.18950486 0.0 0.0 0.07698792 
0.29382125 0.34545505 0.3230766 0.0 0.0 0.07698792 
0.16181391 0.46824124 0.34358433 0.0 0.0 0.07698792 
0.2178002 0.32618907 0.3060558 0.0 0.0 0.07698792 
0.226313 0.4234665 0.3304273 0.0 0.0 0.07698792 
0.10397339 0.4253749 0.29265928 0.0 0.0 0.07698792 
0.0769043 0.31713775 0.20107618 0.0 0.0 0.07698792 
0.11502156 0.26429293 0.19871488 0.0 0.0 0.07698792 
0.0 0.24496931 0.09562998 0.0 0.0027348995 0.07698792 
0.0 0.09912391 0.0 0.0 0.005107958 0.07698792 
0.0 0.0 0.0 0.0 0.0 0.07698792 
0.0 0.0 0.0 0.0 0.0 0.07698792 
0.0 0.0 0.0 0.0 0.0 0.07698792 
0.0 0.0 0.0 0.0 0.0 0.08164137 
0.7547627 0.0 0.17594624 0.2602841 0.0 0.4078417 
1.0221429 0.73723865 0.7105168 0.69954073 0.37942293 0.13770805 
0.3676136 1.0659089 1.4071447 0.5481056 0.8364514 0.0 
0.45231152 0.89686584 1.2848183 0.044897478 0.76343924 0.0 
0.54996854 0.96842414 1.2336895 0.20042014 0.8788234 0.0 
0.2755894 1.0866146 1.3481514 0.18155505 0.8905715 0.0 
0.32930088 0.97084403 1.2636514 0.0055754157 0.7239759 0.0 
0.37710696 0.929103 1.1052276 0.0 0.64039487 0.0 
0.047940396 1.2562966 1.109055 0.0 0.90766513 0.0 
0.0 0.71213275 0.75180525 0.0 0.66668046 0.0 
0.0 0.0 0.0 0.0 0.0 0.07698792 
0.0 0.0 0.0 0.0 0.0 0.07698792 
0.0 0.0 0.0 0.0 0.0 0.07698792 
0.0 0.0 0.0 0.0016211681 0.0 0.086763024 
0.74762017 0.0 0.0 0.5300231 0.7426111 0.99799997 
0.80804855 0.2533396 0.0 1.3788705 1.3036513 1.5828984 
0.43355495 0.8759537 0.92654526 1.8291513 1.6358093 1.7847672 
0.30177426 0.88038915 0.8462499 1.808616 1.786781 1.7743459 
0.26214007 0.9383653 0.62884796 1.7328572 1.789735 1.7925451 
0.18075967 0.8623522 0.9270351 1.730772 1.6403705 1.7269137 
0.16149591 0.8821766 0.93563193 1.6937273 1.5148664 1.6381552 
0.68419 0.85449934 0.93669045 1.5190946 1.229088 1.554194 
0.0 1.4050584 1.4778413 1.0275449 1.2317017 0.56075394 
0.0 0.98938227 1.387717 0.2558448 0.8281061 0.15401945 
0.0 0.0 0.0 0.0 0.0 0.07698792 
0.0 0.0 0.0 0.0 0.0 0.07698792 
0.0 0.0 0.0 0.0 0.0 0.07698792 
0.0 0.0 0.0 0.0 0.0 0.08070118 
0.40204602 0.0 0.0 0.0 0.5414085 0.47517684 
0.50465035 0.0 0.0 0.0 1.0383041 0.97476625 
0.44501966 0.0 0.0 0.0 1.3401638 1.2755978 
0.26625466 0.0 0.0 0.0 1.3542187 1.3507149 
0.25228 0.0 0.0 0.0 1.3208194 1.2827806 
0.2445435 0.0 0.0 0.0 1.3441225 1.3135362 
0.2521826 0.0 0.0 0.0 1.2344444 1.1949627 
1.0296762 0.0 0.0 0.0 1.180251 1.2231951 
0.003342405 0.7670829 0.41587052 0.0 1.2211566 0.33896482 
0.0 0.3686935 0.98077667 0.122529045 0.9291833 0.24188384 
0.0 0.0 0.0 0.0 0.0 0.07698792 
0.0 0.0 0.0 0.0 0.0 0.07698792 
0.0 0.0 0.0 0.0 0.0 0.07698792 
0.0 0.0 0.0 0.0 0.0 0.07698792 
0.0 0.0 0.0 0.0 0.0 0.07698792 
0.0 0.0 0.0 0.0 0.0 0.07698792 
0.0 0.0 0.0 0.0 0.0 0.07698792 
0.0 0.0 0.0 0.0 0.0 0.07698792 
0.0 0.0 0.0 0.0 0.0 0.07698792 
0.0 0.0 0.0 0.0 0.0 0.07698792 
0.38010377 0.0 0.0 0.041280497 0.0 0.2862195 
1.2473345 0.4637837 0.0 0.06476302 0.6972856 0.63970625 
0.0 0.94373053 0.8755382 0.010798645 0.8741552 0.11296977 
0.0 0.3087959 0.8061365 0.0 0.5894003 0.092441194 
0.0 0.0 0.0 0.0 0.0 0.07698792 
0.0 0.0 0.0 0.0 0.0 0.07698792 
0.0 0.0 0.0 0.0 0.0 0.07698792 
0.0 0.0 0.0 0.0 0.0 0.07698792 
0.0 0.0 0.0 0.0 0.0 0.07698792 
0.0 0.0 0.0 0.0 0.0 0.07698792 
0.0 0.0 0.0 0.0 0.0 0.07698792 
0.0 0.0 0.0 0.0 0.0 0.07698792 
0.0 0.0 0.0 0.0 0.0 0.07698792 
0.0 0.0 0.0 0.0 0.0 0.07698792 
0.71575165 0.0 0.0 0.019787837 0.0 0.49900216 
1.3782406 0.65855926 0.0 0.011606173 0.73932475 0.598264 
0.0 1.0983344 1.1006057 0.0 0.9416407 0.070461944 
0.0 0.18347734 0.70658386 0.023819122 0.36417577 0.07698792 
0.0 0.0 0.0 0.0 0.0 0.07698792 
0.0 0.0 0.0 0.0 0.0 0.07698792 
0.0 0.0 0.0 0.0 0.0 0.07698792 
0.0 0.0 0.0 0.0 0.0 0.07698792 
0.0 0.0 0.0 0.0 0.0 0.07698792 
0.0 0.0 0.0 0.0 0.0 0.07698792 
0.0 0.0 0.0 0.0 0.0 0.07698792 
0.0 0.0 0.0 0.0 0.0 0.07698792 
0.0 0.0 0.0 0.0 0.0 0.07698792 
0.0 0.0 0.0 0.0 0.0 0.07698792 
1.0655782 0.0 0.0 0.010200639 0.0 0.63118875 
1.4442747 0.8416943 0.0 0.0 0.79516983 0.5357853 
0.0 1.1996748 1.4021782 0.0 1.0051559 0.0 
0.0 0.14116292 0.4543389 0.0 0.29146641 0.07698792 
0.0 0.0 0.0 0.0 0.0 0.07698792 
0.0 0.0 0.0 0.0 0.0 0.07698792 
0.0 0.0 0.0 0.0 0.0 0.07698792 
0.0 0.0 0.0 0.0 0.0 0.07698792 
0.0 0.0 0.0 0.0 0.0 0.07698792 
0.0 0.0 0.0 0.0 0.0 0.07698792 
0.0 0.0 0.0 0.0 0.0 0.07698792 
0.0 0.0 0.0 0.0 0.0 0.07698792 
0.0 0.0 0.0 0.0 0.0 0.07698792 
0.0 0.0 0.0 0.0 0.0 0.07698792 
1.1957374 0.0 0.0 0.09484194 0.16436261 0.85047996 
1.5031323 0.9139192 0.0 0.13132593 0.9179209 0.6485791 
0.0 1.2760085 1.4897138 0.017124306 1.0379163 0.0 
0.0 0.1646733 0.41504508 0.0 0.27904183 0.07698792 
0.0 0.0 0.0 0.0 0.0 0.07698792 
0.0 0.0 0.0 0.0 0.0 0.07698792 
0.0 0.0 0.0 0.0 0.0 0.07698792 
0.0 0.0 0.0 0.0 0.0 0.07698792 
0.0 0.0 0.0 0.0 0.0 0.07698792 
0.0 0.0 0.0 0.0 0.0 0.07698792 
0.0 0.0 0.0 0.0 0.0 0.07698792 
0.0 0.0 0.0 0.0 0.0 0.07698792 
0.0 0.0 0.0 0.0 0.0 0.07698792 
0.0 0.0 0.0 0.0 0.0 0.07698792 
1.162797 0.0 0.0 0.067708254 0.25103578 0.9228923 
1.4555113 0.76586205 0.0 0.11649236 0.92387164 0.8064151 
0.0 1.2751925 1.5205066 0.14467579 1.0603049 0.0 
0.0 0.16963789 0.46551162 0.01295719 0.31383207 0.07698792 
0.0 0.0 0.0 0.0 0.0 0.07698792 
0.0 0.0 0.0 0.0 0.0 0.07698792 
0.0 0.0 0.0 0.0 0.0 0.07698792 
0.0 0.0 0.0 0.0 0.0 0.07698792 
0.0 0.0 0.0 0.0 0.0 0.07698792 
0.0 0.0 0.0 0.0 0.0 0.07698792 
0.0 0.0 0.0 0.0 0.0 0.07698792 
0.0 0.0 0.0 0.0 0.0 0.07698792 
0.0 0.0 0.0 0.0 0.0 0.07698792 
0.0 0.0 0.0 0.0 0.0 0.07698792 
1.0746179 0.0 0.0 0.0 0.17730963 0.8224522 
1.4824376 0.6829938 0.0 0.0 0.89144725 0.7625751 
0.0 1.1229194 1.4625703 0.013754171 1.0204045 0.0 
0.0 0.17248777 0.4634151 0.00026729424 0.26526576 0.07698792 
0.0 0.0 0.0 0.0 0.0 0.07698792 
0.0 0.0 0.0 0.0 0.0 0.07698792 
0.0 0.0 0.0 0.0 0.0 0.07698792 
0.0 0.0 0.0 0.0 0.0 0.07698792 
0.0 0.0 0.0 0.0 0.0 0.07698792 
0.0 0.0 0.0 0.0 0.0 0.07698792 
0.0 0.0 0.0 0.0 0.0 0.07698792 
0.0 0.0 0.0 0.0 0.0 0.07698792 
0.0 0.0 0.0 0.0 0.0 0.07698792 
0.0 0.0 0.0 0.0 0.0 0.07698792 
0.85089344 0.0 0.0 0.10958669 0.46024677 0.859073 
1.1222954 0.43259254 0.0 0.34111026 0.8551463 1.0109036 
0.0 0.8380514 1.3475511 0.4378119 0.873481 0.5996604 
0.0 0.105903104 0.3546604 0.123218834 0.2010615 0.10337443 
0.0 0.0 0.0 0.0 0.0 0.07698792 
0.0 0.0 0.0 0.0 0.0 0.07698792 
0.0 0.0 0.0 0.0 0.0 0.07698792 

