0.0 0.0 0.0 0.0 0.0 0.07698792 
0.0 0.0 0.0 0.0 0.0 0.07698792 
0.0 0.0 0.0 0.0 0.0 0.07698792 
0.0 0.0 0.0 0.0 0.0 0.07698792 
0.0 0.0 0.0 0.0 0.0 0.07698792 
0.0 0.0 0.0 0.0 0.0 0.07698792 
0.0 0.0 0.0 0.0 0.0 0.07698792 
0.0 0.0 0.0 0.0 0.0 0.07698792 
0.0 0.0 0.0 0.0 0.0 0.07698792 
0.0 0.0 0.0 0.0 0.0 0.07698792 
0.0 0.0 0.0 0.0 0.0 0.07698792 
0.0 0.0 0.0 0.0 0.0 0.07698792 
0.0 0.0 0.0 0.0 0.0 0.07698792 
0.0 0.0 0.0 0.0 0.0 0.07698792 
0.0 0.0 0.0 0.0 0.0 0.07698792 
0.0 0.0 0.0 0.0 0.0 0.07698792 
0.0 0.0 0.0 0.0 0.0 0.07698792 
0.0 0.0 0.0 0.0 0.0 0.07698792 
0.0 0.0 0.0 0.0 0.0 0.07698792 
0.0 0.0 0.0 0.0 0.0 0.07698792 
0.0 0.0 0.0 0.0 0.0 0.07698792 
0.0 0.0 0.0 0.0 0.0 0.07698792 
0.0 0.0 0.0 0.0 0.0 0.07698792 
0.0 0.0 0.0 0.0 0.0 0.07698792 
0.0 0.0 0.0 0.0 0.0 0.07698792 
0.0 0.0 0.0 0.0 0.0 0.07698792 
0.0 0.0 0.0 0.0 0.0 0.07698792 
0.0 0.0 0.0 0.0 0.0 0.07698792 
0.0 0.0 0.0 0.0 0.0 0.07698792 
0.0 0.0 0.0 0.0 0.0 0.07698792 
0.0 0.0 0.0 0.0 0.0 0.07698792 
0.0 0.0 0.0 0.0 0.0 0.07698792 
0.23436144 0.10822871 0.16672009 0.0 0.0 0.07698792 
0.3589788 0.3862039 0.43792012 0.0 0.0 0.07698792 
0.33579338 0.5883657 0.48731732 0.0 0.0 0.07698792 
0.14604133 0.60655653 0.39188743 0.0 0.023673106 0.07698792 
0.0 0.34111962 0.131509 0.0 0.076887935 0.07698792 
0.0 0.042798415 0.0 0.0 0.0 0.07698792 
0.0 0.0 0.0 0.0 0.0 0.07698792 
0.0 0.0 0.0 0.0 0.0 0.07698792 
0.0 0.0 0.0 0.0 0.0 0.07698792 
0.0 0.0 0.0 0.0 0.0 0.07698792 
0.0 0.0 0.0 0.0 0.0 0.07698792 
0.0 0.0 0.0 0.0 0.0 0.07698792 
0.2980579 0.0 0.10330651 0.0 0.0 0.07055617 
0.87702423 0.25809288 0.41557747 0.0 0.0 0.0 
0.86704636 0.64127976 0.6102804 0.0 0.44702497 0.0 
0.76875573 0.86475724 0.7591013 0.5749855 1.2218983 0.0 
0.36076757 0.89683086 0.8973488 1.1186528 1.3272655 0.14813794 
0.16317926 0.96101624 1.1279614 1.1727968 1.0142118 0.14325958 
0.0 1.0259931 1.257028 0.51274586 0.6330723 0.0 
0.0 0.6515345 0.66031325 0.0 0.4878418 0.0 
0.0 0.053558923 0.0 0.0 0.020934667 0.07698792 
0.0 0.0 0.0 0.0 0.0 0.07698792 
0.0 0.0 0.0 0.0 0.0 0.07698792 
0.0 0.0 0.0 0.0 0.0 0.07698792 
0.0 0.0 0.0 0.0 0.0 0.07698792 
0.0 0.0 0.0 0.0 0.0 0.07698792 
0.43551838 0.0 0.0 0.29162198 0.13130584 0.61608666 
0.9274207 0.07687351 0.0 1.0747263 0.9614863 1.1353216 
0.60251355 0.9268716 0.4188567 1.3056552 1.7295839 1.4774151 
0.100926384 0.96078974 0.42120254 1.5393158 1.7688586 1.5095992 
0.1209403 1.1300142 0.44718403 1.6006527 1.4179608 1.3466017 
0.32776383 0.6510274 0.4891202 1.323723 1.0665151 1.310998 
0.5071178 0.9900604 1.2185136 1.1469188 0.60533375 0.85308534 
0.0 1.035419 1.191932 0.29268607 0.5471005 0.0 
0.0 0.24786827 0.2805135 0.0 0.37684909 0.07698792 
0.0 0.0 0.0 0.0 0.0 0.07698792 
0.0 0.0 0.0 0.0 0.0 0.07698792 
0.0 0.0 0.0 0.0 0.0 0.07698792 
0.0 0.0 0.0 0.0 0.0 0.07698792 
0.0 0.0 0.0 0.0 0.0 0.07698792 
0.4070143 0.0 0.0 0.0351096 0.36221194 0.5807201 
0.7228579 0.040033005 0.0 0.0 1.137518 1.255125 
0.31824738 0.06286099 0.0 0.0 1.3030797 1.2779589 
0.0 0.0 0.0 0.0 1.12263 0.9525045 
0.0 0.0 0.0 0.0 0.68887067 0.4985122 
0.683444 0.0 0.0 0.0 0.72588915 0.71838695 
1.5361693 0.5781702 0.0 0.0 0.6173071 0.68533635 
0.0 1.2462809 1.4875373 0.0 1.0873363 0.0 
0.0 0.4052363 0.87360185 0.0 0.6346272 0.07698792 
0.0 0.0 0.0 0.0 0.0 0.07698792 
0.0 0.0 0.0 0.0 0.0 0.07698792 
0.0 0.0 0.0 0.0 0.0 0.07698792 
0.0 0.0 0.0 0.0 0.0 0.07698792 
0.0 0.0 0.0 0.0 0.0 0.07698792 
0.0 0.0 0.0 0.0 0.0 0.08874657 
0.0 0.0 0.0 0.0 0.040329594 0.12256197 
0.0 0.0 0.0 0.0 0.0 0.11126094 
0.0 0.0 0.0 0.0 0.0 0.081249505 
0.0 0.0 0.0 0.0 0.0 0.07698792 
1.0781612 0.0 0.037627883 0.0 0.0 0.44062904 
1.9641106 1.0074179 0.0 0.046198543 1.0367509 0.70226514 
0.0 1.5794446 1.7343336 0.0 1.3297246 0.0 
0.0 0.43159047 1.070915 0.0 0.72573274 0.07698792 
0.0 0.0 0.0 0.0 0.0 0.07698792 
0.0 0.0 0.0 0.0 0.0 0.07698792 
0.0 0.0 0.0 0.0 0.0 0.07698792 
0.0 0.0 0.0 0.0 0.0 0.07698792 
0.0 0.0 0.0 0.0 0.0 0.07698792 
0.0 0.0 0.0 0.0 0.0 0.07698792 
0.0 0.0 0.0 0.0 0.0 0.07698792 
0.0 0.0 0.0 0.0 0.0 0.07698792 
0.0 0.0 0.0 0.0 0.0 0.07698792 
0.10942575 0.0 0.06972235 0.0 0.0 0.07698792 
1.7486486 0.0 0.054171152 0.0 0.094828784 0.38065746 
1.9951084 1.5558654 0.0 0.0 1.8355274 0.56226784 
0.0 1.5637047 1.7586443 0.20839666 1.7607441 0.37854275 
0.0 0.27371266 1.0432637 0.24727014 0.6008915 0.12524366 
0.0 0.0 0.0 0.0 0.0 0.07698792 
0.0 0.0 0.0 0.0 0.0 0.07698792 
0.0 0.0 0.0 0.0 0.0 0.07698792 
0.0 0.0 0.0 0.0 0.0 0.07698792 
0.0 0.0 0.0 0.0 0.0 0.07698792 
0.0 0.0 0.0 0.0 0.0 0.07698792 
0.0 0.0 0.0 0.0 0.0 0.07698792 
0.0 0.0 0.0 0.0 0.0 0.07698792 
0.0 0.0 0.0 0.0 0.0 0.07698792 
0.7200906 0.0 0.023054197 0.0 0.0 0.22047466 
1.8830879 0.29754028 0.0 0.1469637 1.2467976 0.48877725 
1.1435921 1.6749088 0.26712394 0.12614354 2.1355524 0.25984454 
0.0 1.2574798 1.0993141 0.08273276 1.5915715 0.4584956 
0.0 0.04095874 0.5956665 0.11559512 0.13554144 0.15137964 
0.0 0.0 0.0 0.0 0.0 0.07698792 
0.0 0.0 0.0 0.0 0.0 0.07698792 
0.0 0.0 0.0 0.0 0.0 0.07698792 
0.0 0.0 0.0 0.0 0.0 0.07698792 
0.0 0.0 0.0 0.0 0.0 0.07698792 
0.0 0.0 0.0 0.0 0.0 0.07698792 
0.0 0.0 0.0 0.0 0.0 0.07698792 
0.0 0.0 0.0 0.0 0.0 0.07698792 
0.0 0.0 0.016281724 0.0 0.0 0.07698792 
1.5455909 0.0 0.04878418 0.0 0.026798625 0.44264716 
1.8006341 1.2034159 0.0 0.15771692 1.9035072 0.6739694 
0.0 1.4645526 0.85118324 0.16509125 2.0742602 0.4870128 
0.0 0.29438332 0.9647603 0.10369915 0.8315659 0.44047695 
0.0 0.0 0.0 0.0 0.0 0.0818583 
0.0 0.0 0.0 0.0 0.0 0.07698792 
0.0 0.0 0.0 0.0 0.0 0.07698792 
0.0 0.0 0.0 0.0 0.0 0.07698792 
0.0 0.0 0.0 0.0 0.0 0.07698792 
0.0 0.0 0.0 0.0 0.0 0.07698792 
0.0 0.0 0.0 0.0 0.0 0.07698792 
0.0 0.0 0.0 0.0 0.0 0.07698792 
0.0 0.0 0.0 0.0 0.0 0.07698792 
0.3199041 0.0 0.035551533 0.0 0.0 0.14350563 
1.7184246 0.0 0.0 0.097646296 0.93143004 0.6130156 
1.1606266 1.4101226 0.12889022 0.085886255 1.8260881 0.24094562 
0.0 1.0456915 0.94603574 0.027108263 1.4967121 0.3738367 
0.0 0.0 0.38068378 0.0 0.14818531 0.18348265 
0.0 0.0 0.0 0.0 0.0 0.07698792 
0.0 0.0 0.0 0.0 0.0 0.07698792 
0.0 0.0 0.0 0.0 0.0 0.07698792 
0.0 0.0 0.0 0.0 0.0 0.07698792 
0.0 0.0 0.0 0.0 0.0 0.07698792 
0.0 0.0 0.0 0.0 0.0 0.07698792 
0.0 0.0 0.0 0.0 0.0 0.07698792 
0.0 0.0 0.0 0.0 0.0 0.07698792 
0.0 0.0 0.0 0.0 0.0 0.07698792 
0.98767465 0.0 0.014675595 0.018194694 0.0 0.4324724 
1.5651157 0.7524746 0.0 0.054215264 1.431028 0.7145519 
0.0 1.3134884 0.76422834 0.09468509 1.5059799 0.40797183 
0.0 0.39528525 1.0579256 0.1258619 0.79389143 0.35807133 
0.0 0.0 0.0 0.0 0.0 0.07843382 
0.0 0.0 0.0 0.0 0.0 0.07698792 
0.0 0.0 0.0 0.0 0.0 0.07698792 
0.0 0.0 0.0 0.0 0.0 0.07698792 
0.0 0.0 0.0 0.0 0.0 0.07698792 
0.0 0.0 0.0 0.0 0.0 0.07698792 
0.0 0.0 0.0 0.0 0.0 0.07698792 
0.0 0.0 0.0 0.0 0.0 0.07698792 
0.0 0.0 0.0 0.0 0.0 0.07698792 
0.0 0.0 0.0 0.0 0.0 0.07698792 
1.1107025 0.0 0.0 0.26673484 0.45593205 0.9437685 
1.3218489 0.8158563 0.0 0.3343487 1.33357 0.8584166 
0.0 0.8618872 0.84546083 0.24168655 1.2160299 0.527404 
0.0 0.0 0.4597726 0.029066604 0.19651948 0.18177214 
0.0 0.0 0.0 0.0 0.0 0.07698792 
0.0 0.0 0.0 0.0 0.0 0.07698792 
0.0 0.0 0.0 0.0 0.0 0.07698792 
0.0 0.0 0.0 0.0 0.0 0.07698792 
0.0 0.0 0.0 0.0 0.0 0.07698792 
0.0 0.0 0.0 0.0 0.0 0.07698792 
0.0 0.0 0.0 0.0 0.0 0.07698792 
0.0 0.0 0.0 0.0 0.0 0.07698792 
0.0 0.0 0.0 0.0 0.0 0.07698792 
0.0 0.0 0.0 0.0 0.0 0.07698792 
0.71357894 0.0 0.0 0.057771772 0.6798487 0.882623 
0.3317601 0.15667766 0.0 0.038843315 0.8070765 0.6886377 
0.0 0.16266477 0.5529501 0.09069906 0.44836506 0.49370143 
0.0 0.0 0.0008546226 0.0 0.0 0.08444569 
0.0 0.0 0.0 0.0 0.0 0.07698792 
0.0 0.0 0.0 0.0 0.0 0.07698792 
0.0 0.0 0.0 0.0 0.0 0.07698792 
0.0 0.0 0.0 0.0 0.0 0.07698792 
0.0 0.0 0.0 0.0 0.0 0.07698792 

