0.0 0.0 0.0 0.0 0.0 0.07698792 
0.0 0.0 0.0 0.0 0.0 0.07698792 
0.0 0.0 0.0 0.0 0.0 0.07698792 
0.0 0.0 0.0 0.0 0.0 0.07698792 
0.0 0.0 0.0 0.0 0.0 0.07698792 
0.0 0.0 0.0 0.0 0.0 0.07698792 
0.0 0.0 0.0 0.0 0.0 0.07698792 
0.0 0.0 0.0 0.0 0.0 0.07698792 
0.0 0.0 0.0 0.0 0.0 0.07698792 
0.0 0.0 0.0 0.0 0.0 0.07698792 
0.0 0.0 0.0 0.0 0.0 0.07698792 
0.0 0.0 0.0 0.0 0.0 0.07698792 
0.0 0.0 0.0 0.0 0.0 0.07698792 
0.0 0.0 0.0 0.0 0.0 0.07698792 
0.0 0.0 0.0 0.0 0.0 0.07698792 
0.0 0.0 0.0 0.0 0.0 0.07698792 
0.0 0.0 0.0 0.0 0.0 0.07698792 
0.09675667 0.0 0.026047252 0.0 0.0 0.07698792 
0.8747436 0.15741828 0.33282512 0.0 0.0 0.0 
0.8526014 1.1327935 1.0199964 0.0 0.09343308 0.0 
0.0 1.1855009 1.0337077 0.0 0.43659326 0.0 
0.0 0.6328697 0.4354967 0.0 0.32636887 0.030038897 
0.0 0.14589246 0.01527781 0.0 0.05263594 0.07698792 
0.0 0.0 0.0 0.0 0.0 0.07698792 
0.0 0.0 0.0 0.0 0.0 0.07698792 
0.0 0.0 0.0 0.0 0.0 0.07698792 
0.0 0.0 0.0 0.0 0.0 0.07698792 
0.0 0.0 0.0 0.0 0.0 0.07698792 
0.0 0.0 0.0 0.0 0.0 0.07698792 
0.0 0.0 0.0 0.0 0.0 0.07698792 
0.0 0.0 0.0 0.0 0.0 0.07698792 
0.26269615 0.0 0.0 0.1529377 0.0 0.38863492 
1.2319701 0.0 0.03018134 0.92162323 0.5124991 1.1129801 
1.0877433 1.1535094 1.4217521 1.4191346 1.0954944 1.0824676 
0.36619264 1.6295328 2.1748602 1.2193761 1.103147 0.031166784 
0.0 1.7432086 2.2252667 0.08248028 0.97292167 0.0 
0.0 1.4663919 1.2762696 0.0 0.70707107 0.0 
0.0 0.375914 0.2394686 0.0 0.30113664 0.06812939 
0.0 0.0012756363 0.0 0.0 0.0 0.07698792 
0.0 0.0 0.0 0.0 0.0 0.07698792 
0.0 0.0 0.0 0.0 0.0 0.07698792 
0.0 0.0 0.0 0.0 0.0 0.07698792 
0.0 0.0 0.0 0.0 0.0 0.07698792 
0.0 0.0 0.0 0.0 0.0 0.07698792 
0.0 0.0 0.0 0.0 0.0 0.07698792 
0.27889222 0.0 0.0 0.07724728 0.19893776 0.42044434 
1.0728061 0.0 0.0 0.24935663 1.2256483 1.4658668 
1.0570202 0.02807045 0.0 1.0168434 1.6675898 1.8655951 
0.73925686 0.8642036 0.99174213 1.3634306 1.7156101 1.979445 
0.7612106 1.6547638 2.310557 1.2148094 1.4405636 1.4742677 
0.0 1.9076867 2.2263129 0.9505213 1.402788 0.0 
0.0 1.4985368 1.721179 0.041513707 1.0850407 0.0 
0.0 0.0689601 0.055483744 0.0 0.18138522 0.07698792 
0.0 0.0 0.0 0.0 0.0 0.07698792 
0.0 0.0 0.0 0.0 0.0 0.07698792 
0.0 0.0 0.0 0.0 0.0 0.07698792 
0.0 0.0 0.0 0.0 0.0 0.07698792 
0.0 0.0 0.0 0.0 0.0 0.07698792 
0.0 0.0 0.0 0.0 0.0 0.07698792 
0.009144276 0.0 0.0 0.0 0.066737875 0.13144901 
0.3210448 0.0 0.0 0.0 0.5176075 0.40384686 
0.55245084 0.0 0.0 0.0 1.0967147 1.0460241 
0.90984213 0.0 0.0 0.0 1.5414122 1.8998783 
1.400269 0.0 0.0 0.8274578 1.569713 1.8711691 
0.92669517 1.6940848 1.6922687 0.94465977 1.463412 1.0716407 
0.0 1.6018318 2.0907056 0.45170686 1.3165032 0.0 
0.0 0.23932448 0.42492047 0.0 0.26328346 0.07698792 
0.0 0.0 0.0 0.0 0.0 0.07698792 
0.0 0.0 0.0 0.0 0.0 0.07698792 
0.0 0.0 0.0 0.0 0.0 0.07698792 
0.0 0.0 0.0 0.0 0.0 0.07698792 
0.0 0.0 0.0 0.0 0.0 0.07698792 
0.0 0.0 0.0 0.0 0.0 0.07698792 
0.0 0.0 0.0 0.0 0.0 0.07698792 
0.0 0.0 0.0 0.0 0.0 0.07698792 
0.0 0.0 0.0 0.0 0.0 0.07698792 
0.3980859 0.0 0.0 0.0 0.51807374 0.45803943 
1.765465 0.0 0.0 0.0 0.7404537 1.1709743 
1.4394431 1.2313492 0.0 0.0 1.4059471 0.7642952 
0.0 1.3088582 1.5048419 0.07696588 1.5157212 0.11358211 
0.0 0.15382612 0.4786222 0.07127708 0.2959623 0.07698792 
0.0 0.0 0.0 0.0 0.0 0.07698792 
0.0 0.0 0.0 0.0 0.0 0.07698792 
0.0 0.0 0.0 0.0 0.0 0.07698792 
0.0 0.0 0.0 0.0 0.0 0.07698792 
0.0 0.0 0.0 0.0 0.0 0.07698792 
0.0 0.0 0.0 0.0 0.0 0.07698792 
0.0 0.0 0.0 0.0 0.0 0.07698792 
0.0 0.0 0.0 0.0 0.0 0.07698792 
0.0 0.0 0.0 0.0 0.0 0.07698792 
0.46116352 0.0 0.06330534 0.0 0.0 0.0751024 
1.8628895 0.0820552 0.0 0.0 0.81333613 0.5629984 
1.1653025 1.4922312 0.144678 0.0 1.7715131 0.1448936 
0.0 1.1676719 1.2167798 0.15444097 1.501782 0.30805296 
0.0 0.082343064 0.36355925 0.10577007 0.0813791 0.10821906 
0.0 0.0 0.0 0.0 0.0 0.07698792 
0.0 0.0 0.0 0.0 0.0 0.07698792 
0.0 0.0 0.0 0.0 0.0 0.07698792 
0.0 0.0 0.0 0.0 0.0 0.07698792 
0.0 0.0 0.0 0.0 0.0 0.07698792 
0.0 0.0 0.0 0.0 0.0 0.07698792 
0.0 0.0 0.0 0.0 0.0 0.07698792 
0.0 0.0 0.0 0.0 0.0 0.07698792 
0.24781889 0.0 0.16244617 0.0 0.0 0.07698792 
1.507834 0.0 0.11930653 0.0 0.0 0.0 
1.8953717 1.4330928 0.0 0.0 1.820399 0.22285289 
0.0 1.7297162 1.2470565 0.06551212 2.0352144 0.29017234 
0.0 0.80712014 1.2598734 0.07652383 1.0450171 0.39177722 
0.0 0.19777851 0.052289866 0.0 0.06503819 0.08665176 
0.0 0.0 0.0 0.0 0.0 0.07698792 
0.0 0.0 0.0 0.0 0.0 0.07698792 
0.0 0.0 0.0 0.0 0.0 0.07698792 
0.0 0.0 0.0 0.0 0.0 0.07698792 
0.0 0.0 0.0 0.0 0.0 0.07698792 
0.0 0.0 0.0 0.0 0.0 0.07698792 
0.07733905 0.0 0.08916538 0.0 0.0 0.07698792 
0.67577636 0.011330678 0.2813169 0.0 0.0 0.021896496 
1.2750995 0.41630867 0.5004213 0.0 0.0 0.0 
1.8214643 0.8330876 0.31351042 0.0 1.8475858 0.07429207 
1.4691057 1.6460682 0.2338599 0.3370533 2.351804 0.36016953 
0.07749675 1.8369155 1.9141423 0.43824536 1.6485637 0.07263819 
0.0 1.6450022 1.9948703 0.0 1.0557204 0.0 
0.0 1.5379612 1.340229 0.0 0.8599987 0.0 
0.0 0.29587713 0.22184989 0.0 0.36907366 0.07229811 
0.0 0.0 0.0 0.0 0.0 0.07698792 
0.0 0.0 0.0 0.0 0.0 0.07698792 
0.0 0.0 0.0 0.0 0.0 0.07698792 
0.0 0.0 0.0 0.0 0.0 0.07698792 
0.0018690377 0.0 0.026163243 0.0 0.0 0.07698792 
0.9397535 0.0 0.15172145 0.0 0.0 0.013460502 
1.4671211 0.6320752 0.321988 0.06783758 0.49081567 0.0 
1.2907653 1.357116 0.46139765 0.6984606 2.5791802 0.6637456 
0.76280373 1.4281952 0.1446456 0.91650313 2.8638885 1.5117722 
0.28037095 1.0975952 0.0 1.3587126 2.5842216 1.9433904 
0.57247823 0.7197522 0.96104157 1.6378782 1.8875481 1.9947784 
0.6377985 1.6517112 2.0721538 1.4727844 1.4122214 1.6701846 
0.0 1.8736871 2.138684 0.9115862 1.1743332 0.0 
0.0 1.3439924 1.6463816 0.0 0.9541121 0.0 
0.0 0.05484415 0.0 0.0 0.06252207 0.07698792 
0.0 0.0 0.0 0.0 0.0 0.07698792 
0.0 0.0 0.0 0.0 0.0 0.07698792 
0.0 0.0 0.0 0.0 0.0 0.07698792 
0.12613258 0.0 0.0 0.05105005 0.0 0.22288524 
1.726856 0.0 0.0 0.48445055 0.4610068 0.8327891 
1.711941 1.2150515 0.0 0.7092039 2.4302568 0.9560602 
0.43258816 1.5309917 0.0 0.5816061 2.8931005 1.1788027 
0.0 0.96505916 0.0 0.3405411 2.6238244 1.4143817 
0.17135136 0.030674182 0.0 0.0 1.3789506 1.2052534 
0.66465443 0.0 0.0 0.0 1.4972049 1.6811213 
0.97912616 0.0 0.0 0.47587207 1.4171457 1.8972399 
0.31149894 1.3736813 1.5178316 0.8907558 1.3578794 1.214711 
0.0 1.2634554 1.9298698 0.78184474 1.1070029 0.4723372 
0.0 0.1344286 0.20955387 0.11439545 0.14293897 0.07698792 
0.0 0.0 0.0 0.0 0.0 0.07698792 
0.0 0.0 0.0 0.0 0.0 0.07698792 
0.0 0.0 0.0 0.0 0.0 0.07698792 
0.16384117 0.0 0.0 0.12418556 0.1320736 0.32167125 
1.4073749 0.0 0.0 0.5616583 1.1678079 1.4430144 
1.108638 0.96688783 0.0 0.7601622 2.2265186 1.4567568 
0.0 0.75335115 0.36297557 0.27888912 2.1775975 1.1048787 
0.0 0.0 0.24500078 0.0 0.482429 0.42422998 
0.0 0.0 0.07385983 0.0 0.03846102 0.093971536 
0.13654163 0.0 0.0 0.0 0.2351108 0.23106566 
0.8425449 0.0 0.0 0.0 1.0046866 1.1578829 
0.34857842 0.1564389 0.0 0.0 1.0224758 1.0731549 
0.0 0.2513424 0.77754307 0.23305744 0.5412181 0.61712503 
0.0 0.06932129 0.20165381 0.08412914 0.0 0.10840808 
0.0 0.0 0.0 0.0 0.0 0.07698792 
0.0 0.0 0.0 0.0 0.0 0.07698792 
0.0 0.0 0.0 0.0 0.0 0.07698792 
0.03447389 0.0 0.0 0.0 0.09744313 0.15194684 
0.58679676 0.0 0.0 0.0 0.8600789 0.8385018 
0.20233145 0.0 0.0 0.0 0.82643884 0.7275954 
0.0 0.0 0.16199663 0.0 0.35619673 0.4041923 
0.0 0.0 0.034183763 0.0 0.014289621 0.08870727 
0.0 0.0 0.0 0.0 0.0 0.07698792 
0.0 0.0 0.0 0.0 0.0 0.07698792 
0.06897715 0.0 0.0 0.0 0.15359685 0.1762244 
0.022061765 0.0 0.0 0.0 0.11175422 0.16005275 
0.0 0.0 0.0 0.0 0.04887328 0.14922638 
0.0 0.0 0.0 0.0 0.0 0.07858601 
0.0 0.0 0.0 0.0 0.0 0.07698792 
0.0 0.0 0.0 0.0 0.0 0.07698792 
0.0 0.0 0.0 0.0 0.0 0.07698792 
0.0 0.0 0.0 0.0 0.0 0.07698792 
0.0 0.0 0.0 0.0 0.0 0.07698792 
0.0 0.0 0.0 0.0 0.0 0.07698792 
0.0 0.0 0.0 0.0 0.0 0.07698792 
0.0 0.0 0.0 0.0 0.0 0.07698792 
0.0 0.0 0.0 0.0 0.0 0.07698792 
0.0 0.0 0.0 0.0 0.0 0.07698792 
0.0 0.0 0.0 0.0 0.0 0.07698792 
0.0 0.0 0.0 0.0 0.0 0.07698792 
0.0 0.0 0.0 0.0 0.0 0.07698792 
0.0 0.0 0.0 0.0 0.0 0.07698792 
0.0 0.0 0.0 0.0 0.0 0.07698792 

