0.0 0.0 0.0 0.0 0.0 0.07698792 
0.0 0.0 0.0 0.0 0.0 0.07698792 
0.0 0.0 0.0 0.0 0.0 0.07698792 
0.0 0.0 0.0 0.0 0.0 0.07698792 
0.0 0.0 0.0 0.0 0.0 0.07698792 
0.0 0.0 0.0 0.0 0.0 0.07698792 
0.0 0.0 0.0 0.0 0.0 0.07698792 
0.0 0.0 0.0 0.0 0.0 0.07698792 
0.0 0.0 0.0 0.0 0.0 0.07698792 
0.0 0.0 0.0 0.0 0.0 0.07698792 
0.0 0.0 0.0 0.0 0.0 0.07698792 
0.0 0.0 0.0 0.0 0.0 0.07698792 
0.0 0.0 0.0 0.0 0.0 0.07698792 
0.0 0.0 0.0 0.0 0.0 0.07698792 
0.0 0.0 0.0 0.0 0.0 0.07698792 
0.0 0.0 0.0 0.0 0.0 0.07698792 
0.0 0.0 0.0 0.0 0.0 0.07698792 
0.0 0.0 0.0 0.0 0.0 0.07698792 
0.0 0.0 0.0 0.0 0.0 0.07698792 
0.0 0.0 0.0 0.0 0.0 0.07698792 
0.0 0.0 0.0 0.0 0.0 0.07698792 
0.0 0.0 0.0 0.0 0.0 0.07698792 
0.0 0.0 0.0 0.0 0.0 0.07698792 
0.0 0.0 0.0 0.0 0.0 0.07698792 
0.0 0.0 0.0 0.0 0.0 0.07698792 
0.0 0.0 0.0 0.0 0.0 0.07698792 
0.0 0.0 0.0 0.0 0.0 0.07698792 
0.0 0.0 0.0 0.0 0.0 0.07698792 
0.0 0.0 0.0 0.0 0.0 0.07698792 
0.0 0.0 0.0 0.0 0.0 0.07698792 
0.0 0.0 0.0 0.0 0.0 0.07698792 
0.0 0.0 0.0 0.0 0.0 0.07698792 
0.0 0.0 0.0 0.0 0.0 0.07698792 
0.151761 0.0 0.1694597 0.0 0.0 0.07698792 
0.35634387 0.3053533 0.39431688 0.0 0.0 0.07698792 
0.3713749 0.6330569 0.53622407 0.0 0.0 0.07698792 
0.19975805 0.6561385 0.41252595 0.0 0.02191532 0.07698792 
0.0 0.38821438 0.16284165 0.0 0.07961263 0.07698792 
0.0 0.03999282 0.0 0.0 0.0 0.07698792 
0.0 0.0 0.0 0.0 0.0 0.07698792 
0.0 0.0 0.0 0.0 0.0 0.07698792 
0.0 0.0 0.0 0.0 0.0 0.07698792 
0.0 0.0 0.0 0.0 0.0 0.07698792 
0.0 0.0 0.0 0.0 0.0 0.07698792 
0.0 0.0 0.0 0.0 0.0 0.07698792 
0.08578016 0.0 0.112804465 0.0 0.0 0.07698792 
0.49281234 0.13781396 0.2924021 0.0 0.0 0.055492893 
0.8161302 0.23743202 0.25467432 0.0 0.0005221106 0.0 
0.822598 0.5967364 0.5299143 0.6276247 0.978048 0.0 
0.5474841 0.9222098 0.95924664 1.3310871 1.2645595 0.25211602 
0.2236174 1.1221205 1.5035677 1.1307967 0.8906679 0.0 
0.0 1.4011754 1.5917281 0.0 0.6792327 0.0 
0.0 0.6875758 0.58917505 0.0 0.46922788 0.032174166 
0.0 0.087126784 0.0 0.0 0.034062732 0.07698792 
0.0 0.0 0.0 0.0 0.0 0.07698792 
0.0 0.0 0.0 0.0 0.0 0.07698792 
0.0 0.0 0.0 0.0 0.0 0.07698792 
0.0 0.0 0.0 0.0 0.0 0.07698792 
0.055601463 0.0 0.06622207 0.0 0.0 0.07698792 
0.9709856 0.0 0.17368725 0.0 0.0 0.0 
1.1077101 0.7702339 0.2785756 0.34114298 0.927975 0.0 
0.6344004 1.0943652 0.35171533 0.7603287 2.05886 0.86179143 
0.33431053 0.76235694 0.0 1.2781411 1.7520057 1.265682 
0.93921477 0.78329325 0.30950588 1.4276037 1.2921187 1.3849778 
1.3575935 0.94057184 1.0944778 1.1555232 0.79329324 0.94836503 
0.50439346 1.9093759 1.9665691 0.4270196 1.6355256 0.0 
0.0 1.6907256 1.9932238 0.2665441 1.4408289 0.0 
0.0 0.21746993 0.33244425 0.0 0.3456185 0.07698792 
0.0 0.0 0.0 0.0 0.0 0.07698792 
0.0 0.0 0.0 0.0 0.0 0.07698792 
0.0 0.0 0.0 0.0 0.0 0.07698792 
0.0 0.0 0.0 0.0 0.0 0.07698792 
0.44933838 0.0 0.05126913 0.0106642665 0.0 0.26776403 
1.6707523 0.27373117 0.020262755 0.23701802 0.8200508 0.46915781 
0.8607879 1.498069 0.22431248 0.5262136 2.0105536 0.3442139 
0.04159601 1.1071025 0.5068761 0.40733185 2.1270478 0.92852473 
0.6090013 0.17945886 0.46922517 0.0 0.68979305 0.53486276 
1.3071084 0.38284987 0.23128322 0.2125907 0.9164759 0.04948367 
1.6828995 0.528779 0.0 0.6922007 2.0520675 1.0259413 
0.7444765 1.9067541 1.1929148 0.49854895 2.337457 0.7450277 
0.0 1.7859803 2.0124936 0.3865104 1.7704055 0.22837341 
0.0 0.31464657 0.58845645 0.1502035 0.2620548 0.10721049 
0.0 0.0 0.0 0.0 0.0 0.07698792 
0.0 0.0 0.0 0.0 0.0 0.07698792 
0.0 0.0 0.0 0.0 0.0 0.07698792 
0.0 0.0 0.0 0.0 0.0 0.07698792 
0.6382031 0.0 0.0 0.19182436 0.2582524 0.73670405 
1.6789415 0.28935212 0.0 0.41294038 1.0649383 1.4266942 
0.7083389 1.541454 1.3329588 0.87714887 1.2808703 0.6953588 
0.22663063 1.014684 1.548574 0.8570534 1.3739568 0.090435594 
0.43716997 0.9052675 0.65075934 1.1865045 1.834006 0.74224406 
0.28683305 0.86699015 0.14999467 0.896127 1.9189668 1.1983068 
1.6004851 0.3324299 0.0 0.8450483 1.7019285 1.4584031 
0.748956 1.609114 0.46109837 0.28785938 1.9695975 0.71782464 
0.0 1.1629602 1.4490907 0.012647417 1.6055601 0.21058086 
0.0 0.009300868 0.335247 0.05924828 0.072901115 0.11624182 
0.0 0.0 0.0 0.0 0.0 0.07698792 
0.0 0.0 0.0 0.0 0.0 0.07698792 
0.0 0.0 0.0 0.0 0.0 0.07698792 
0.0 0.0 0.0 0.0 0.0 0.07698792 
0.47983027 0.0 0.0 0.004128215 0.40269363 0.58719915 
1.1237824 0.0 0.0 0.35268712 1.0041498 1.3365374 
0.6237355 0.39258346 0.27406457 1.4324045 1.5158252 1.5933592 
0.103939235 1.0060086 0.83142245 1.7914643 1.6401101 1.5536101 
0.0 1.0096984 0.15348575 1.2028949 1.6896807 1.229671 
0.71528345 0.39910182 0.0 0.057128347 1.1222806 0.9697157 
1.668869 0.5673752 0.0 0.0 1.5121399 0.8855611 
0.12387796 1.4652 0.87465185 0.14651313 1.771464 0.29211378 
0.0 0.6674052 1.354192 0.20442596 1.2252184 0.3607154 
0.0 0.0 0.0 0.0 0.0 0.081325606 
0.0 0.0 0.0 0.0 0.0 0.07698792 
0.0 0.0 0.0 0.0 0.0 0.07698792 
0.0 0.0 0.0 0.0 0.0 0.07698792 
0.0 0.0 0.0 0.0 0.0 0.07698792 
0.007297389 0.0 0.0 0.0 0.06389293 0.13021126 
0.4416247 0.0 0.0 0.0 0.6641828 0.5341437 
0.43972415 0.0 0.0 0.0 1.0416027 0.81042606 
0.056512818 0.0 0.0 0.0 0.98612744 0.72076017 
0.30450022 0.0 0.10194791 0.0 0.4633467 0.37685937 
1.6073041 0.0 0.09557975 0.0 0.44319716 0.24997242 
1.6508074 1.3123765 0.0 0.00702287 2.04177 0.39024276 
0.0 1.327984 0.8983444 0.11250247 1.8103834 0.49682564 
0.0 0.18608817 0.8172223 0.13249168 0.4281349 0.32332143 
0.0 0.0 0.0 0.0 0.0 0.07698792 
0.0 0.0 0.0 0.0 0.0 0.07698792 
0.0 0.0 0.0 0.0 0.0 0.07698792 
0.0 0.0 0.0 0.0 0.0 0.07698792 
0.0 0.0 0.0 0.0 0.0 0.07698792 
0.0 0.0 0.0 0.0 0.0 0.07698792 
0.0 0.0 0.0 0.0 0.0 0.07698792 
0.0 0.0 0.0 0.0 0.0 0.07698792 
0.03691107 0.0 0.042933226 0.0 0.0 0.07698792 
1.2682567 0.0 0.09725041 0.0 0.0 0.13467965 
1.5308096 1.149952 0.0 0.103725135 1.8303217 0.25849825 
0.16933256 1.3399937 0.54943126 0.0946573 2.0141535 0.47981507 
0.0 0.51375794 0.6815853 0.06455706 1.0095011 0.48205215 
0.0 0.0 0.16024509 0.0 0.044857536 0.106641755 
0.0 0.0 0.0 0.0 0.0 0.07698792 
0.0 0.0 0.0 0.0 0.0 0.07698792 
0.0 0.0 0.0 0.0 0.0 0.07698792 
0.0 0.0 0.0 0.0 0.0 0.07698792 
0.0 0.0 0.0 0.0 0.0 0.07698792 
0.0 0.0 0.0 0.0 0.0 0.07698792 
0.0 0.0 0.0 0.0 0.0 0.07698792 
0.0 0.0 0.0 0.0 0.0 0.07698792 
0.73964334 0.0 0.110077806 0.0 0.0 0.055492893 
1.5313206 0.43663207 0.0 0.00510059 1.2102114 0.29219276 
1.0529537 1.3299246 0.0 0.13659534 2.0682008 0.50602794 
0.0 0.97551125 0.73063546 0.14957921 1.5999821 0.5665004 
0.0 0.0077089285 0.47549468 0.012909562 0.23900615 0.2489237 
0.0 0.0 0.0 0.0 0.0 0.07698792 
0.0 0.0 0.0 0.0 0.0 0.07698792 
0.0 0.0 0.0 0.0 0.0 0.07698792 
0.0 0.0 0.0 0.0 0.0 0.07698792 
0.0 0.0 0.0 0.0 0.0 0.07698792 
0.0 0.0 0.0 0.0 0.0 0.07698792 
0.0 0.0 0.0 0.0 0.0 0.07698792 
0.0 0.0 0.0 0.0 0.0 0.07698792 
0.18969297 0.0 0.07640471 0.0 0.0 0.07698792 
1.4879103 0.0 0.052968852 0.050517857 0.25060079 0.2927699 
1.5032771 1.3732704 0.0 0.0979961 1.908296 0.31075454 
0.0 1.2033312 0.65641505 0.012459046 1.9722162 0.53875947 
0.0 0.13896014 0.56793195 0.014262428 0.47787735 0.41157895 
0.0 0.0 0.0 0.0 0.0 0.08353249 
0.0 0.0 0.0 0.0 0.0 0.07698792 
0.0 0.0 0.0 0.0 0.0 0.07698792 
0.0 0.0 0.0 0.0 0.0 0.07698792 
0.0 0.0 0.0 0.0 0.0 0.07698792 
0.0 0.0 0.0 0.0 0.0 0.07698792 
0.0 0.0 0.0 0.0 0.0 0.07698792 
0.0 0.0 0.0 0.0 0.0 0.07698792 
0.0 0.0 0.0 0.0 0.0 0.07698792 
0.5539477 0.0 0.0 0.20331037 0.0 0.5089235 
1.3760016 0.34634605 0.0 0.52423877 1.519747 0.9599819 
0.33382308 1.1464628 0.30609003 0.46980578 1.7473656 0.64621645 
0.0 0.49299225 0.76345927 0.13937134 0.9980934 0.4875688 
0.0 0.0 0.11118411 0.0 0.040049303 0.09947665 
0.0 0.0 0.0 0.0 0.0 0.07698792 
0.0 0.0 0.0 0.0 0.0 0.07698792 
0.0 0.0 0.0 0.0 0.0 0.07698792 
0.0 0.0 0.0 0.0 0.0 0.07698792 
0.0 0.0 0.0 0.0 0.0 0.07698792 
0.0 0.0 0.0 0.0 0.0 0.07698792 
0.0 0.0 0.0 0.0 0.0 0.07698792 
0.0 0.0 0.0 0.0 0.0 0.07698792 
0.0 0.0 0.0 0.0 0.0 0.07698792 
0.5598449 0.0 0.0 0.2973116 0.4561703 0.7031621 
0.75944823 0.30131134 0.0 0.3377819 1.1905595 0.98582274 
0.0 0.4535591 0.43471548 0.21119873 0.78517276 0.7241526 
0.0 0.0 0.43276328 0.0 0.21233551 0.25894406 
0.0 0.0 0.0 0.0 0.0 0.07698792 
0.0 0.0 0.0 0.0 0.0 0.07698792 
0.0 0.0 0.0 0.0 0.0 0.07698792 
0.0 0.0 0.0 0.0 0.0 0.07698792 
0.0 0.0 0.0 0.0 0.0 0.07698792 
0.0 0.0 0.0 0.0 0.0 0.07698792 

