0.0 0.0 0.0 0.0 0.0 0.07698792 
0.0 0.0 0.0 0.0 0.0 0.07698792 
0.0 0.0 0.0 0.0 0.0 0.07698792 
0.0 0.0 0.0 0.0 0.0 0.07698792 
0.0 0.0 0.0 0.0 0.0 0.07698792 
0.0 0.0 0.0 0.0 0.0 0.07698792 
0.0 0.0 0.0 0.0 0.0 0.07698792 
0.0 0.0 0.0 0.0 0.0 0.07698792 
0.0 0.0 0.0 0.0 0.0 0.07698792 
0.0 0.0 0.0 0.0 0.0 0.07698792 
0.0 0.0 0.0 0.0 0.0 0.07698792 
0.0 0.0 0.0 0.0 0.0 0.07698792 
0.0 0.0 0.0 0.0 0.0 0.07698792 
0.0 0.0 0.0 0.0 0.0 0.07698792 
0.0 0.0 0.0 0.0 0.0 0.07698792 
0.0 0.0 0.0 0.0 0.0 0.07698792 
0.0 0.0 0.0 0.0 0.0 0.07698792 
0.0 0.0 0.0 0.0 0.0 0.07698792 
0.0 0.0 0.0 0.0 0.0 0.07698792 
0.0 0.0 0.0 0.0 0.0 0.07698792 
0.0 0.0 0.0 0.0 0.0 0.07698792 
0.0 0.0 0.0 0.0 0.0 0.07698792 
0.15035534 0.0 0.14326623 0.0 0.0 0.07698792 
0.6793036 0.10629581 0.31414902 0.0 0.0 0.008692935 
0.6518262 0.99870783 0.54527134 0.0 0.24650551 0.0 
0.0 0.8575639 0.5981645 0.0 0.5276689 0.0 
0.0 0.038870584 0.0 0.0 0.09464355 0.07698792 
0.0 0.0 0.0 0.0 0.0 0.07698792 
0.0 0.0 0.0 0.0 0.0 0.07698792 
0.0 0.0 0.0 0.0 0.0 0.07698792 
0.0 0.0 0.0 0.0 0.0 0.07698792 
0.0 0.0 0.0 0.0 0.0 0.07698792 
0.0 0.0 0.0 0.0 0.0 0.07698792 
0.014039978 0.0029006666 0.010634221 0.0 0.0 0.07698792 
0.30294102 0.10635038 0.2623284 0.0 0.0 0.0754795 
0.6857226 0.24932966 0.40964955 0.0 0.0 0.0 
0.92706287 0.54345447 0.46218097 0.0 0.048413295 0.0 
1.0932593 0.8022111 0.41012466 0.5482471 1.3953283 0.14928982 
0.42059532 1.4120417 0.95703447 0.9633724 1.773601 0.3266604 
0.0 1.0414481 1.3358933 0.75340486 1.0865899 0.32565674 
0.0 0.10985111 0.17989352 0.10827463 0.06969163 0.09567807 
0.0 0.0 0.0 0.0 0.0 0.07698792 
0.0 0.0 0.0 0.0 0.0 0.07698792 
0.0 0.0 0.0 0.0 0.0 0.07698792 
0.0 0.0 0.0 0.0 0.0 0.07698792 
0.11842318 0.0 0.10692469 0.0 0.0 0.07698792 
0.47418642 0.17738494 0.3313687 0.0 0.0 0.063412115 
0.88454515 0.4287752 0.4710831 0.0 0.0 0.0 
0.86545783 0.63341117 0.51769143 0.0 0.577325 0.0 
0.86416614 0.7785569 0.4959545 1.0153154 1.6603581 0.42477512 
0.54132617 0.95317143 0.42079183 1.3060309 2.0739086 1.2168872 
0.22273773 0.9064159 0.18180427 1.1627548 2.322537 1.4146855 
0.0 0.9560101 0.22494397 0.8841002 1.901734 1.0107894 
0.0 0.41864967 0.7380353 0.29901263 0.585508 0.5669456 
0.0 0.0 0.09064428 0.0028312253 0.0 0.0977105 
0.0 0.0 0.0 0.0 0.0 0.07698792 
0.0 0.0 0.0 0.0 0.0 0.07698792 
0.0 0.0 0.0 0.0 0.0 0.07698792 
0.0 0.0 0.0 0.0 0.0 0.07698792 
1.0765505 0.0 0.22411707 0.0 0.0 0.059785105 
1.3096609 0.80536294 0.59862864 0.10528676 0.60165197 0.0 
0.82674944 1.3076578 0.5978337 0.7292443 2.0448484 0.34013635 
0.26436782 1.1606997 0.37986532 1.2475159 2.1631453 1.3356249 
0.0 0.9973298 0.2000002 1.3538439 2.0288823 1.3810527 
0.026602589 0.7810695 0.0 0.73097354 1.8226221 1.4224677 
0.0 0.11403828 0.0 0.0 1.2208883 1.0384989 
0.0 0.0 0.0 0.0 0.50327945 0.43778104 
0.0 0.0 0.011567563 0.0 0.12482037 0.16256599 
0.0 0.0 0.0 0.0 0.0 0.07698792 
0.0 0.0 0.0 0.0 0.0 0.07698792 
0.0 0.0 0.0 0.0 0.0 0.07698792 
0.0 0.0 0.0 0.0 0.0 0.07698792 
0.058747634 0.0 0.0 0.063545845 0.0 0.20508724 
1.3692503 0.0 0.0 0.5736814 0.69492525 1.3022869 
1.5652161 1.3174945 0.387375 0.7961647 1.7405468 1.3802493 
0.43029255 1.8867949 0.8814865 0.3842605 2.1429462 0.6171451 
0.0 1.3152388 1.0564992 0.0 1.8533199 0.15954253 
0.0 0.7360911 0.8775062 0.0 0.99206346 0.12372908 
0.0 0.6553526 0.49710947 0.0 0.37682495 0.09629693 
0.0 0.22268277 0.07188786 0.0 0.11806719 0.08898695 
0.0 0.0 0.0 0.0 0.0 0.07698792 
0.0 0.0 0.0 0.0 0.0 0.07698792 
0.0 0.0 0.0 0.0 0.0 0.07698792 
0.0 0.0 0.0 0.0 0.0 0.07698792 
0.0 0.0 0.0 0.0 0.0 0.07698792 
0.0 0.0 0.0 0.0 0.0 0.07698792 
0.05812256 0.0 0.0 0.01684729 0.039366256 0.20296918 
1.0839033 0.0 0.0 0.12825915 1.0910841 1.3800807 
1.0471973 0.0 0.0 0.6282764 1.5859778 1.6699624 
0.36945483 0.45357302 0.8386227 1.2737586 1.5179999 1.6688545 
0.11737922 0.8487887 1.5618602 1.6290022 1.2091769 1.3291492 
0.3120886 1.1050117 1.4505652 1.6975607 0.89975613 0.8521628 
0.10610205 1.262803 1.713996 1.0930988 0.7379173 0.0 
0.0 1.3261211 1.5396949 0.0 0.56517375 0.0 
0.0 0.7151989 0.57154864 0.0 0.4800416 0.0 
0.0 0.15156713 0.017000094 0.0 0.070741996 0.07698792 
0.0 0.0 0.0 0.0 0.0 0.07698792 
0.0 0.0 0.0 0.0 0.0 0.07698792 
0.0 0.0 0.0 0.0 0.0 0.07698792 
0.0 0.0 0.0 0.0 0.0 0.07698792 
0.0 0.028691582 0.0 0.0 0.0 0.08998432 
0.25150248 0.031000484 0.0 0.0 0.4122428 0.32213682 
0.51747215 0.0 0.0 0.0 0.9531439 0.8593083 
0.50407785 0.0 0.0 0.0 1.2578326 1.3928745 
0.45736104 0.0 0.0 0.14694369 1.2087429 1.6766357 
0.4769268 0.18718737 0.0 1.0564512 1.2650514 1.6298106 
0.34917334 0.4606086 1.1507711 1.4730345 1.1065297 1.5826378 
0.5214306 1.364885 1.725107 1.1503938 0.6274273 1.0170407 
0.0 1.6394017 1.8014588 0.73694074 0.95334333 0.0 
0.0 0.88605803 0.9501436 0.0 0.75007576 0.0 
0.0 0.0 0.0 0.0 0.0 0.07698792 
0.0 0.0 0.0 0.0 0.0 0.07698792 
0.0 0.0 0.0 0.0 0.0 0.07698792 
0.15136033 0.0 0.07172752 0.0 0.0 0.090319365 
0.44746888 0.26516306 0.106783874 0.0 0.014936987 0.0 
0.0 0.599243 0.3607647 0.0 0.40786138 0.0 
0.0 0.061300673 0.074322484 0.0 0.17198935 0.07698792 
0.0 0.0 0.0 0.0 0.0 0.07698792 
0.17581463 0.0 0.0 0.0 0.312341 0.25295985 
0.40378523 0.0 0.0 0.0 0.76251954 0.6004662 
0.8983875 0.0 0.0 0.0 1.0225748 1.3180633 
1.7343142 0.029048584 0.0 0.09647739 0.91432154 1.2947862 
0.18850166 1.7731576 1.9140025 0.47601965 1.6091684 0.0 
0.0 1.2183713 1.7943265 0.20369978 1.1529132 0.006858781 
0.0 0.0 0.0 0.0 0.0 0.07698792 
0.0 0.0 0.0 0.0 0.0 0.07698792 
0.0 0.0 0.0 0.0 0.0 0.07698792 
0.33995104 0.0 0.0 0.17697044 0.0 0.46143118 
0.6666361 0.40418258 0.0 0.2553237 0.28409016 0.5836498 
0.06061788 0.8599904 1.0670007 0.29777327 0.48651615 0.0 
0.0 0.51123935 0.57161456 0.022652347 0.1837116 0.07698792 
0.0 0.1147318 0.018325165 0.0 0.0 0.07698792 
0.04877489 0.040901527 0.086686425 0.0 0.0 0.07698792 
0.5021054 0.058042943 0.25588948 0.0 0.0 0.060772374 
1.3244028 0.1871751 0.3301912 0.0 0.0 0.0 
1.8367727 1.0813457 0.0 0.11828807 2.2001593 0.33795273 
0.0 1.4652504 0.85495013 0.38766843 2.0699625 0.49603814 
0.0 0.65983385 1.4727058 0.2613916 1.0650578 0.41151822 
0.0 0.0 0.0 0.0 0.0 0.07698792 
0.0 0.0 0.0 0.0 0.0 0.07698792 
0.0 0.0 0.0 0.0 0.0 0.07698792 
0.33953786 0.0 0.0 0.0108221825 0.25645941 0.45324367 
0.59964615 0.0 0.0 0.15886559 0.38810155 0.688111 
0.56907684 0.77238744 1.1883917 0.8055815 0.4050596 0.5284519 
0.28259343 0.90280324 1.1851321 0.75978285 0.3585802 0.0 
0.3837862 0.847997 1.0986406 0.0 0.25820747 0.0 
0.42882127 0.8559552 0.929132 0.0 0.4394394 0.0 
0.9434915 0.5703467 0.58484524 0.37314448 1.0530047 0.0069800913 
1.0516791 0.97038245 0.27789894 1.0298022 2.2651248 0.9742727 
0.46689117 1.2347729 0.0 0.7804305 2.3366907 1.1069884 
0.0 0.90636283 0.6969444 0.36797136 1.610226 0.7914409 
0.0 0.11256035 0.66914433 0.11173427 0.28927168 0.3283962 
0.0 0.0 0.0 0.0 0.0 0.07698792 
0.0 0.0 0.0 0.0 0.0 0.07698792 
0.0 0.0 0.0 0.0 0.0 0.07698792 
0.02616287 0.0 0.0 0.0 0.08464092 0.14637697 
0.4960838 0.0 0.0 0.13184938 0.50327075 0.8298651 
0.5464706 0.0 0.0 0.678126 0.7708059 1.1453242 
0.3939212 0.29536366 0.760074 1.5303234 1.0128212 1.4529707 
0.298787 0.669022 0.82170266 1.5500962 1.185981 1.5516739 
0.19019195 0.87807167 0.8944956 1.5431911 1.4220694 1.4944522 
0.15948816 0.84573734 0.5656356 1.4818069 1.904907 1.456291 
0.14669178 0.7927128 0.0 1.0846752 2.047972 1.3257353 
0.0 0.566579 0.064671636 0.20602074 1.2736171 1.0009099 
0.0 0.0 0.20182043 0.0 0.3680801 0.37453455 
0.0 0.0 0.012397267 0.0 0.0 0.08956936 
0.0 0.0 0.0 0.0 0.0 0.07698792 
0.0 0.0 0.0 0.0 0.0 0.07698792 
0.0 0.0 0.0 0.0 0.0 0.07698792 
0.0 0.0 0.0 0.0 0.0 0.07698792 
0.07513544 0.0 0.0 0.0 0.16766164 0.17631689 
0.41086543 0.0 0.0 0.0 0.65527594 0.52492356 
0.5072847 0.0 0.0 0.0 1.1509744 1.0312519 
0.44957817 0.0 0.0 0.0 1.3993214 1.397502 
0.18863627 0.0 0.0 0.0 1.3532814 1.3271737 
0.0 0.0 0.0 0.0 1.1392434 0.9770058 
0.0 0.0 0.0 0.0 0.6174701 0.4967103 
0.0 0.0 0.0 0.0 0.17873222 0.19908346 
0.0 0.0 0.0 0.0 0.0 0.0807168 
0.0 0.0 0.0 0.0 0.0 0.07698792 
0.0 0.0 0.0 0.0 0.0 0.07698792 
0.0 0.0 0.0 0.0 0.0 0.07698792 
0.0 0.0 0.0 0.0 0.0 0.07698792 
0.0 0.0 0.0 0.0 0.0 0.07698792 
0.0 0.0 0.0 0.0 0.0 0.07698792 
0.0 0.0 0.0 0.0 0.0 0.07698792 
0.0 0.0 0.0 0.0 0.0 0.07698792 
0.0 0.0 0.0 0.0 0.0 0.07698792 
0.0 0.0 0.0 0.0 0.0 0.07698792 
0.0 0.0 0.0 0.0 0.0 0.07698792 
0.0 0.0 0.0 0.0 0.0 0.07698792 
0.0 0.0 0.0 0.0 0.0 0.07698792 
0.0 0.0 0.0 0.0 0.0 0.07698792 
0.0 0.0 0.0 0.0 0.0 0.07698792 
0.0 0.0 0.0 0.0 0.0 0.07698792 
0.0 0.0 0.0 0.0 0.0 0.07698792 

