0.0 0.0 0.0 0.0 0.0 0.07698792 
0.0 0.0 0.0 0.0 0.0 0.07698792 
0.0 0.0 0.0 0.0 0.0 0.07698792 
0.0 0.0 0.0 0.0 0.0 0.07698792 
0.0 0.0 0.0 0.0 0.0 0.07698792 
0.0 0.0 0.0 0.0 0.0 0.07698792 
0.0 0.0 0.0 0.0 0.0 0.07698792 
0.0 0.0 0.0 0.0 0.0 0.07698792 
0.0 0.0 0.0 0.0 0.0 0.07698792 
0.0 0.0 0.0 0.0 0.0 0.07698792 
0.0 0.0 0.0 0.0 0.0 0.07698792 
0.0 0.0 0.0 0.0 0.0 0.07698792 
0.0 0.0 0.0 0.0 0.0 0.07698792 
0.0 0.0 0.0 0.0 0.0 0.07698792 
0.0 0.0 0.0 0.0 0.0 0.07698792 
0.0 0.0 0.0 0.0 0.0 0.07698792 
0.0 0.0 0.0 0.0 0.0 0.07698792 
0.15755235 0.0 0.12376959 0.0 0.0 0.07698792 
0.7279792 0.11046923 0.33744192 0.0 0.0 0.0 
0.8489971 0.9933792 0.85732234 0.0 0.0 0.0 
0.2330578 1.1151822 1.0238824 0.0 0.2213976 0.0 
0.23840511 0.89512223 0.82209074 0.0 0.10735498 0.0 
0.0 0.84819764 0.57784986 0.0 0.2173151 0.0 
0.0 0.33653778 0.16437656 0.0 0.14480898 0.07698792 
0.0 0.0537595 0.0 0.0 0.0 0.07698792 
0.0 0.0 0.0 0.0 0.0 0.07698792 
0.0 0.0 0.0 0.0 0.0 0.07698792 
0.0 0.0 0.0 0.0 0.0 0.07698792 
0.0 0.0 0.0 0.0 0.0 0.07698792 
0.0 0.0 0.0 0.0 0.0 0.07698792 
0.09263225 0.0 0.08913741 0.0 0.0 0.07698792 
1.145174 0.0 0.13755468 0.0 0.0 0.0 
1.5630248 0.8507524 0.38005453 0.072569996 0.6733619 0.0 
1.0088372 1.6729981 1.288417 0.4987882 1.5085895 0.0 
0.5086039 1.6903303 1.8861561 0.6227022 1.44865 0.0 
0.45550597 1.6055323 1.7813697 0.4938257 1.3745415 0.0 
0.14549723 1.6891377 2.0848908 0.1753265 1.0961539 0.0 
0.025169209 1.6079527 1.8874778 0.0 0.7496756 0.0 
0.0 1.1747289 0.9149687 0.0 0.63266367 0.0 
0.0 0.26536882 0.14993757 0.0 0.26377395 0.07438247 
0.0 0.0 0.0 0.0 0.0 0.07698792 
0.0 0.0 0.0 0.0 0.0 0.07698792 
0.0 0.0 0.0 0.0 0.0 0.07698792 
0.0 0.0 0.0 0.0 0.0 0.07698792 
0.5695846 0.0 0.0027583987 0.0 0.0 0.22868405 
1.9909761 0.0 0.0038252398 0.13800108 0.68062544 0.39419702 
1.7907748 1.3037479 0.0 0.21154472 2.346228 0.43721277 
1.1143055 1.5931159 0.23693213 0.35408723 3.1805198 0.9343609 
0.32950878 1.4195411 0.66398627 0.90421057 3.2399948 1.7358165 
0.6481169 1.2994834 0.8925103 1.2321528 2.6499672 1.9956048 
0.5935186 1.5201334 1.9315845 1.3214846 2.0236478 1.7987735 
0.50421506 1.8117963 2.2222497 1.1899562 1.6365042 0.835244 
0.0 2.0351605 2.3514957 0.45180744 1.2255081 0.0 
0.0 1.5695108 1.6279421 0.0 0.985522 0.0 
0.0 0.16359754 0.0951725 0.0 0.29464504 0.07490356 
0.0 0.0 0.0 0.0 0.0 0.07698792 
0.0 0.0 0.0 0.0 0.0 0.07698792 
0.0 0.0 0.0 0.0 0.0 0.07698792 
1.3491485 0.0 0.04053007 0.054937657 0.0 0.4264131 
2.092842 0.39270335 0.0 0.011107889 1.354494 0.7267921 
1.6382885 1.3837873 0.13443181 0.013358102 2.8087263 0.6218855 
0.39637095 1.8193902 0.34309486 0.15979525 3.179197 0.83394545 
0.0 1.2151544 0.32923353 0.17462532 2.9277184 1.740025 
0.55418515 0.00455641 0.0 0.21918568 1.8889381 1.9351618 
0.7986597 0.0 0.0 0.7400041 2.0035977 2.048115 
1.3298492 0.7180311 0.11581554 0.9141142 1.7312716 1.9910338 
1.0019109 1.9405992 2.3911023 0.78054637 1.5220182 1.143491 
0.0 2.014068 2.4060576 0.17843169 1.4599718 0.0 
0.0 1.2477187 1.388609 0.0 0.80235296 0.0 
0.0 0.10282346 0.0 0.0 0.09709586 0.07698792 
0.0 0.0 0.0 0.0 0.0 0.07698792 
0.0 0.0 0.0 0.0 0.0 0.07698792 
1.8739231 0.0 0.0 0.11162816 0.2265367 0.7829257 
2.1860862 0.8602845 0.0 0.097079426 1.7695858 0.64154655 
1.2161291 1.454977 0.3403412 0.0 2.7076797 0.5642065 
0.0 1.8885208 1.6042525 0.0 2.7681403 0.011667542 
0.0 1.3482345 1.8539201 0.0 1.4697002 0.051930748 
0.21655494 0.029716026 0.03681633 0.0 0.5103512 0.35372844 
0.6562668 0.0 0.0 0.0 1.0304638 1.0544982 
1.3155696 0.0 0.0 0.0 1.4268785 1.7609379 
1.7458465 0.73611623 0.0 0.54179186 1.5367205 1.6026278 
0.57889754 2.042026 2.3505816 0.41978714 1.8367876 0.3271313 
0.0 1.7848917 2.2519915 0.20460036 1.6261925 0.0 
0.0 0.3224158 0.4754622 0.0 0.4742969 0.07698792 
0.0 0.0 0.0 0.0 0.0 0.07698792 
0.0 0.0 0.0 0.0 0.0 0.07698792 
1.9553151 0.0 0.0 0.15911548 0.66777515 1.2824681 
2.0933867 0.85749024 0.0 0.19380198 1.874986 1.017235 
0.95923024 1.3548297 0.34725505 0.12763113 2.7520688 0.741448 
0.0 1.9732491 1.7672485 0.24004585 2.534487 0.3204207 
0.0 1.5303738 2.114246 0.339857 1.6186843 0.019469932 
0.0 0.18554251 0.36635274 0.07938654 0.23136409 0.07698792 
0.045555256 0.0 0.0 0.0 0.11451277 0.15937337 
0.99697167 0.0 0.0 0.0 0.68879676 1.0644027 
1.951786 0.0 0.0 0.0 1.3543476 1.498631 
1.7093153 1.9245623 1.19572 0.27008203 1.9412762 0.935095 
0.0 2.0168283 2.0227416 0.0 1.9183395 0.0 
0.0 0.60759556 1.1611232 0.0 0.7711627 0.022273451 
0.0 0.0 0.0 0.0 0.0 0.07698792 
0.0 0.0 0.0 0.0 0.0 0.07698792 
1.7538092 0.0 0.0 0.046438005 0.65532213 1.2559781 
2.044855 0.42880318 0.0 0.051621106 1.7532128 1.0583429 
0.935589 1.5271261 0.015736833 0.19911666 3.2012317 0.94481033 
0.0 1.46193 0.74236625 0.547917 2.9056194 0.8663283 
0.0 0.94713634 1.3904697 0.6160735 1.422237 0.655816 
0.0 0.13136645 0.41078284 0.13888091 0.10236831 0.11569943 
0.0 0.0 0.0 0.0 0.0 0.07698792 
0.48820174 0.0 0.0 0.0 0.14458658 0.39786553 
2.195992 0.0 0.0 0.0 0.8486401 0.99455386 
1.8836541 1.5750738 0.11232274 0.0 2.2945967 0.68364185 
0.0 1.9086163 2.0126412 0.24461606 2.2211127 0.0012683868 
0.0 0.6667635 1.3629065 0.18538314 0.89767504 0.08533638 
0.0 0.0 0.0 0.0 0.0 0.07698792 
0.0 0.0 0.0 0.0 0.0 0.07698792 
1.415904 0.0 0.0 0.09076573 0.46026632 1.0830622 
2.054227 0.19483587 0.0 0.14536053 1.5892527 1.2037265 
0.9331452 1.835916 1.1279963 0.0 2.8811438 0.50990915 
0.0 1.5714535 1.418127 0.0 2.3030322 0.36722675 
0.0 0.10572643 0.309251 0.0 0.5442484 0.36892092 
0.0 0.0 0.050743945 0.0 0.0018387325 0.09149371 
0.12876403 0.0 0.11719028 0.0 0.0 0.07698792 
1.2937815 0.0 0.14599654 0.0 0.0 0.0293191 
2.1681738 0.72517586 0.0 0.0 1.4531068 0.31861615 
1.5938089 1.8775511 0.20802361 0.0 2.6867425 0.37866992 
0.0 1.8205099 1.5309585 0.03479446 2.2779472 0.27211663 
0.0 0.34753484 1.0768863 0.062065076 0.74926096 0.1545377 
0.0 0.0 0.0 0.0 0.0 0.07698792 
0.0 0.0 0.0 0.0 0.0 0.07698792 
1.0220349 0.0 0.0 0.0063152174 0.4359439 0.9801545 
2.0375044 0.0 0.0 0.21155182 1.2889802 1.3860855 
1.412667 1.7086076 1.529963 0.42033 1.6312782 1.0667989 
0.0 1.8241079 2.5632172 0.13708642 1.4657073 0.0 
0.0 1.637989 2.0329547 0.0 0.72855604 0.0 
0.47817993 0.771337 0.88233566 0.0 0.052167166 0.0 
0.91563034 0.6959345 0.72586614 0.0 0.004872013 0.0 
1.7461748 0.77772486 0.4379452 0.0 1.3137721 0.0 
1.8530202 1.3770767 0.0 0.412693 2.8688734 0.77756417 
0.45371896 1.7508724 0.4394734 0.50031775 2.9862387 0.957207 
0.0 1.2135894 1.2686993 0.3026526 1.8753306 0.6250668 
0.0 0.1326215 0.70121485 0.14095224 0.2731963 0.14202748 
0.0 0.0 0.0 0.0 0.0 0.07698792 
0.0 0.0 0.0 0.0 0.0 0.07698792 
0.48504668 0.0 0.0 0.03783981 0.3605812 0.59616655 
1.4566238 0.0 0.0 0.2813921 1.185656 1.5542126 
1.6244063 0.6809191 0.0 0.77510566 1.6850377 1.8212566 
0.8983426 1.5582458 2.1742332 0.97375673 1.6831769 1.371469 
0.3600102 1.6367637 2.4236681 0.7149598 1.6070684 0.06256508 
0.6053212 1.5680281 1.7313517 0.5495794 1.4649457 0.0 
0.9263004 1.5455968 1.1303288 0.71575683 2.1898956 0.38188407 
1.1538818 1.4121957 0.4641028 0.86609286 2.9029932 1.1973991 
0.540713 1.5400782 0.0 0.7635389 3.021528 1.3593531 
0.0 1.0683265 0.32282788 0.33548203 2.6116984 1.1109095 
0.0 0.2294952 0.5493843 0.04839528 0.59314686 0.5328302 
0.0 0.0 0.13124862 0.0 0.027941857 0.10277489 
0.0 0.0 0.0 0.0 0.0 0.07698792 
0.0 0.0 0.0 0.0 0.0 0.07698792 
0.051849432 0.0 0.0 0.0 0.12777065 0.16208199 
0.80480856 0.0 0.0 0.0 0.8717841 1.0040541 
1.1265101 0.0 0.0 0.105593346 1.6557331 1.8549843 
0.97853345 0.21553902 0.0 1.1810501 2.0380116 2.010561 
0.5238683 0.8593723 0.31306642 1.5518227 2.3954453 2.067526 
0.3761546 0.969835 0.37898993 1.587043 2.4754174 2.0692503 
0.3973964 1.012726 0.030674197 1.4315722 2.8857284 1.8964713 
0.0 0.8874485 0.0 1.0556113 2.8926132 1.6884897 
0.0 0.5734365 0.11268558 0.26842403 2.159344 1.2823746 
0.0 0.020943288 0.21435437 0.0 0.5610917 0.4931342 
0.0 0.0 0.106072776 0.0 0.07258445 0.10884139 
0.0 0.0 0.0 0.0 0.0 0.07698792 
0.0 0.0 0.0 0.0 0.0 0.07698792 
0.0 0.0 0.0 0.0 0.0 0.07698792 
0.0 0.0 0.0 0.0 0.0 0.07698792 
0.049887702 0.0 0.0 0.0 0.12908243 0.15912125 
0.5105321 0.0 0.0 0.0 0.7576949 0.6737626 
0.59711957 0.0 0.0 0.0 1.3282632 1.3980999 
0.40263668 0.0 0.0 0.0 1.498693 1.6614676 
0.28055188 0.020828214 0.0 0.0 1.5232557 1.6979289 
0.104037315 0.0 0.0 0.0 1.4364301 1.4684992 
0.0 0.0 0.0 0.0 1.0104145 0.9011758 
0.0 0.0 0.0023949035 0.0 0.3402631 0.32975328 
0.0 0.0 0.025310703 0.0 0.029881474 0.099433646 
0.0 0.0 0.0 0.0 0.0 0.07698792 
0.0 0.0 0.0 0.0 0.0 0.07698792 
0.0 0.0 0.0 0.0 0.0 0.07698792 
0.0 0.0 0.0 0.0 0.0 0.07698792 
0.0 0.0 0.0 0.0 0.0 0.07698792 
0.0 0.0 0.0 0.0 0.0 0.07698792 
0.0 0.0 0.0 0.0 0.0 0.07698792 
0.0 0.0 0.0 0.0 0.0 0.07698792 
0.0 0.0 0.0 0.0 0.0 0.07698792 
0.0 0.0 0.0 0.0 0.0 0.07698792 
0.0 0.0 0.0 0.0 0.0 0.07698792 
0.0 0.0 0.0 0.0 0.0 0.07698792 
0.0 0.0 0.0 0.0 0.0 0.07698792 
0.0 0.0 0.0 0.0 0.0 0.07698792 
0.0 0.0 0.0 0.0 0.0 0.07698792 
0.0 0.0 0.0 0.0 0.0 0.07698792 

