0.0 0.0 0.0 0.0 0.0 0.07698792 
0.0 0.0 0.0 0.0 0.0 0.07698792 
0.0 0.0 0.0 0.0 0.0 0.07698792 
0.0 0.0 0.0 0.0 0.0 0.07698792 
0.27032667 0.0 0.11836127 0.0 0.0 0.07698792 
0.78616256 0.3450722 0.39241916 0.0 0.0 0.0 
0.31919318 1.0138707 0.6650444 0.0 0.53004587 0.0 
0.0 0.4866576 0.41685644 0.0 0.5548157 0.003514208 
0.0 0.0 0.0 0.0 0.0 0.07698792 
0.0 0.0 0.0 0.0 0.0 0.07698792 
0.0 0.0 0.0 0.0 0.0 0.07698792 
0.0 0.0 0.0 0.0 0.0 0.07698792 
0.0 0.0 0.0 0.0 0.0 0.07698792 
0.0 0.0 0.0 0.0 0.0 0.07698792 
0.0 0.0 0.0 0.0 0.0 0.07698792 
0.0 0.0 0.0 0.0 0.0 0.07698792 
0.0 0.0 0.0 0.0 0.0 0.07698792 
0.0 0.0 0.0 0.0 0.0 0.07698792 
1.1142328 0.0 0.041009612 0.12498009 0.0 0.33284888 
1.7271864 1.1472942 0.32945925 0.4423232 0.898516 0.31324184 
0.0 2.0044959 1.7940559 0.34493634 1.5401826 0.0 
0.0 0.8829954 1.3901528 0.17771325 0.8497438 0.05075956 
0.0 0.0 0.0 0.0 0.0 0.07698792 
0.0 0.0 0.0 0.0 0.0 0.07698792 
0.0 0.0 0.0 0.0 0.0 0.07698792 
0.0 0.0 0.0 0.0 0.0 0.07698792 
0.0 0.0 0.0 0.0 0.0 0.07698792 
0.0 0.0 0.0 0.0 0.0 0.07698792 
0.0 0.0 0.0 0.0 0.0 0.07698792 
0.0 0.0 0.0 0.0 0.0 0.07698792 
0.0 0.0 0.0 0.0 0.0 0.07698792 
0.0 0.0 0.0 0.0 0.0 0.07698792 
1.8977845 0.0 0.0 0.12791336 0.2793367 0.83588845 
2.104963 1.3593943 0.0 0.14160782 1.8693715 0.7123662 
0.0 1.9380059 1.6197535 0.04298007 2.179492 0.071139395 
0.0 0.55320466 1.2711632 0.032935318 0.9501944 0.12955052 
0.0 0.0 0.0 0.0 0.0 0.07698792 
0.0 0.0 0.0 0.0 0.0 0.07698792 
0.0 0.0 0.0 0.0 0.0 0.07698792 
0.0 0.0 0.0 0.0 0.0 0.07698792 
0.0 0.0 0.0 0.0 0.0 0.07698792 
0.0 0.0 0.0 0.0 0.0 0.07698792 
0.0 0.0 0.0 0.0 0.0 0.07698792 
0.0 0.0 0.0 0.0 0.0 0.07698792 
0.0 0.0 0.0 0.0 0.0 0.07698792 
0.0 0.0 0.0 0.009774499 0.0 0.10741362 
2.0709488 0.0 0.0 0.122597665 0.54054284 1.0709424 
1.9668448 1.6296417 0.0 0.09199175 1.8954414 0.69864595 
0.0 1.8091164 1.6455265 0.0 2.1008189 0.1593125 
0.0 0.33659267 1.0618182 0.04879882 0.60570526 0.101201914 
0.0 0.0 0.0 0.0 0.0 0.07698792 
0.0 0.0 0.0 0.0 0.0 0.07698792 
0.0 0.0 0.0 0.0 0.0 0.07698792 
0.0 0.0 0.0 0.0 0.0 0.07698792 
0.0 0.0 0.0 0.0 0.0 0.07698792 
0.0 0.0 0.0 0.0 0.0 0.07698792 
0.0 0.0 0.0 0.0 0.0 0.07698792 
0.0 0.0 0.0 0.0 0.0 0.07698792 
0.0 0.0 0.0 0.0 0.0 0.07698792 
0.0 0.0 0.0 0.019087784 0.0 0.1106292 
2.1390605 0.0 0.0 0.04057059 0.6052203 1.1508737 
1.6662877 1.6112462 0.0 0.031002644 1.7404397 0.61176693 
0.0 1.5446131 1.5845982 0.0 1.8779444 0.12057675 
0.0 0.16709432 0.7126702 0.041393343 0.34369624 0.07698792 
0.0 0.0 0.0 0.0 0.0 0.07698792 
0.0 0.0 0.0 0.0 0.0 0.07698792 
0.0 0.0 0.0 0.0 0.0 0.07698792 
0.0 0.0 0.0 0.0 0.0 0.07698792 
0.0 0.0 0.0 0.0 0.0 0.07698792 
0.0 0.0 0.0 0.0 0.0 0.07698792 
0.0 0.0 0.0 0.0 0.0 0.07698792 
0.0 0.0 0.0 0.0 0.0 0.07698792 
0.0 0.0 0.0 0.0 0.0 0.07698792 
0.0 0.0 0.0 0.0 0.0 0.07698792 
2.1428308 0.0 0.0 0.030735675 0.59005886 1.1311221 
1.4386032 1.605144 0.0195392 0.0 1.5426164 0.3680197 
0.0 1.4810147 1.9396805 0.0 1.7073247 0.0 
0.9029598 0.28224406 0.6830499 0.0 0.050092805 0.0 
0.8335261 1.1255888 1.033408 0.0 0.14506324 0.0 
0.05581802 1.2346314 1.0810363 0.0 0.51011217 0.0 
0.0 0.6880132 0.5142802 0.0 0.42313954 0.017583638 
0.0 0.12853552 0.0 0.0 0.05019592 0.07698792 
0.0 0.0 0.0 0.0 0.0 0.07698792 
0.0 0.0 0.0 0.0 0.0 0.07698792 
0.0 0.0 0.0 0.0 0.0 0.07698792 
0.0 0.0 0.0 0.0 0.0 0.07698792 
0.0 0.0 0.0 0.0 0.0 0.07698792 
0.0 0.0 0.0 0.0 0.0 0.07698792 
2.0832975 0.0 0.0 0.08279026 0.64409244 1.2207265 
1.5320714 1.5997835 0.13169241 0.0 1.3754061 0.4499243 
0.2997114 1.4123092 2.0108654 0.0 1.3512942 0.0 
1.2780228 1.0788875 0.6376525 0.50644135 1.1152687 0.03798682 
0.7713693 1.5124762 1.5494362 1.0492963 1.6881845 0.3463422 
0.32112014 1.9251916 2.3129032 0.95339584 1.3291935 0.0 
0.0 2.042648 2.2383056 0.066563815 1.2526623 0.0 
0.0 0.81782275 0.8482943 0.0 0.67365205 0.007150613 
0.0 0.03999282 0.0 0.0 0.0 0.07698792 
0.0 0.0 0.0 0.0 0.0 0.07698792 
0.0 0.0 0.0 0.0 0.0 0.07698792 
0.0 0.0 0.0 0.0 0.0 0.07698792 
0.0 0.0 0.0 0.0 0.0 0.07698792 
0.0 0.0 0.0 0.0 0.0 0.07698792 
1.9117706 0.0 0.0 0.016199473 0.6160326 1.1978972 
1.8943493 1.1277201 0.0 0.01468343 1.1173104 0.7664069 
0.9546136 1.2691513 1.7360635 0.20989046 2.235968 0.27642903 
1.0752528 1.7170296 0.3722499 0.13821605 2.7672768 0.50692964 
0.4412014 1.2696699 0.0 0.7362501 2.7644079 1.489811 
1.026474 1.2676883 1.1596948 1.061442 1.8746108 1.6135275 
0.1314821 1.9082872 2.2722402 0.6171517 1.642279 0.12040129 
0.0 1.4870638 2.0953484 0.21578006 1.3880044 0.0 
0.0 0.08984352 0.13447681 0.0 0.13036582 0.07698792 
0.0 0.0 0.0 0.0 0.0 0.07698792 
0.0 0.0 0.0 0.0 0.0 0.07698792 
0.0 0.0 0.0 0.0 0.0 0.07698792 
0.0 0.0 0.0 0.0 0.0 0.07698792 
0.0 0.0 0.0 0.0 0.0 0.07698792 
1.6043499 0.0 0.0 0.20951767 0.7169201 1.256238 
1.9933424 0.5966056 0.0 0.4714209 1.519544 1.4343474 
1.3495052 1.3287427 0.73624766 0.46924993 2.5444558 1.1456869 
0.5195485 1.9116685 1.3222456 0.0 2.5422132 0.2049191 
0.2680217 1.6080501 1.806221 0.0 2.425029 0.4902588 
1.5268564 0.3783826 0.0 0.0 1.962408 0.97628367 
0.4176121 1.8115078 1.2260532 0.27160263 2.3453305 0.34725243 
0.0 1.3698795 1.9664849 0.40115836 1.5027052 0.39589587 
0.0 0.13992965 0.24792615 0.119176306 0.046153393 0.10408692 
0.0 0.0 0.0 0.0 0.0 0.07698792 
0.0 0.0 0.0 0.0 0.0 0.07698792 
0.0 0.0 0.0 0.0 0.0 0.07698792 
0.0 0.0 0.0 0.0 0.0 0.07698792 
0.0 0.0 0.0 0.0 0.0 0.07698792 
0.91842014 0.0 0.0 0.03822691 0.78774965 1.113405 
1.7490728 0.0 0.0 0.26476482 1.3613508 1.7218881 
1.6448641 0.92637724 0.0 0.56902534 2.253378 1.7136765 
1.0369723 1.5980725 1.1331873 0.5838411 2.4098525 1.0958037 
0.4030487 1.5761747 1.9864107 0.53057975 2.12285 0.16201481 
0.9348913 1.6964136 0.91988254 0.6643648 2.7797043 0.5228334 
0.0 1.5259105 0.7192236 0.35785386 2.503463 0.61422366 
0.0 0.41647115 1.057364 0.13502772 1.007855 0.48482856 
0.0 0.0 0.04452581 0.0 0.0 0.09095349 
0.0 0.0 0.0 0.0 0.0 0.07698792 
0.0 0.0 0.0 0.0 0.0 0.07698792 
0.0 0.0 0.0 0.0 0.0 0.07698792 
0.0 0.0 0.0 0.0 0.0 0.07698792 
0.0 0.0 0.0 0.0 0.0 0.07698792 
0.16004139 0.0 0.0 0.0 0.26172435 0.24982943 
1.1444056 0.0 0.0 0.0 1.0809499 1.4287181 
1.2458746 0.0 0.0 0.50661844 1.9073466 2.0040355 
0.9446774 0.580141 0.0 1.2244805 2.4977307 2.0483258 
0.38855347 0.9042602 0.21755645 1.3236995 2.886658 2.0756655 
0.0 1.264332 0.17565662 1.1074818 2.9105647 1.4298966 
0.0 0.7115917 0.6524629 0.23732008 1.4497739 0.7863604 
0.0 0.0 0.45630842 0.005576008 0.1950727 0.2431167 
0.0 0.0 0.0 0.0 0.0 0.07698792 
0.0 0.0 0.0 0.0 0.0 0.07698792 
0.0 0.0 0.0 0.0 0.0 0.07698792 
0.0 0.0 0.0 0.0 0.0 0.07698792 
0.0 0.0 0.0 0.0 0.0 0.07698792 
0.0 0.0 0.0 0.0 0.0 0.07698792 
0.0 0.0 0.0 0.0 0.0 0.07698792 
0.33045042 0.0 0.0 0.0 0.41444167 0.4146008 
0.6311056 0.0 0.0 0.0 1.064523 1.1046112 
0.5940368 0.0 0.0 0.0 1.4706765 1.5669224 
0.32563528 0.00810694 0.0 0.0 1.4883494 1.6416373 
0.0 0.07024263 0.0 0.0 0.85599744 0.88597304 
0.0 0.0 0.30890253 0.0 0.2708073 0.320568 
0.0 0.0 0.0 0.0 0.0 0.079194814 
0.0 0.0 0.0 0.0 0.0 0.07698792 
0.0 0.0 0.0 0.0 0.0 0.07698792 
0.0 0.0 0.0 0.0 0.0 0.07698792 
0.0 0.0 0.0 0.0 0.0 0.07698792 
0.0 0.0 0.0 0.0 0.0 0.07698792 
0.0 0.0 0.0 0.0 0.0 0.07698792 
0.0 0.0 0.0 0.0 0.0 0.07698792 
0.0 0.0 0.0 0.0 0.0 0.07698792 
0.0 0.0 0.0 0.0 0.0 0.07698792 
0.0 0.0 0.0 0.0 0.0 0.07698792 
0.0 0.0 0.0 0.0 0.0 0.07698792 
0.0 0.0 0.0 0.0 0.0 0.07698792 
0.0 0.0 0.0 0.0 0.0 0.07698792 
0.0 0.0 0.0 0.0 0.0 0.07698792 
0.0 0.0 0.0 0.0 0.0 0.07698792 
0.0 0.0 0.0 0.0 0.0 0.07698792 
0.0 0.0 0.0 0.0 0.0 0.07698792 
0.0 0.0 0.0 0.0 0.0 0.07698792 
0.0 0.0 0.0 0.0 0.0 0.07698792 
0.0 0.0 0.0 0.0 0.0 0.07698792 
0.0 0.0 0.0 0.0 0.0 0.07698792 
0.0 0.0 0.0 0.0 0.0 0.07698792 
0.0 0.0 0.0 0.0 0.0 0.07698792 
0.0 0.0 0.0 0.0 0.0 0.07698792 
0.0 0.0 0.0 0.0 0.0 0.07698792 
0.0 0.0 0.0 0.0 0.0 0.07698792 
0.0 0.0 0.0 0.0 0.0 0.07698792 
0.0 0.0 0.0 0.0 0.0 0.07698792 
0.0 0.0 0.0 0.0 0.0 0.07698792 
0.0 0.0 0.0 0.0 0.0 0.07698792 

