0.0 0.0 0.0 0.0 0.0 0.07698792 
0.0 0.0 0.0 0.0 0.0 0.07698792 
0.0 0.0 0.0 0.0 0.0 0.07698792 
0.0 0.0 0.0 0.0 0.0 0.07698792 
0.0 0.0 0.0 0.0 0.0 0.07698792 
0.0 0.0 0.0 0.0 0.0 0.07698792 
0.0 0.0 0.0 0.0 0.0 0.07698792 
0.0 0.0 0.0 0.0 0.0 0.07698792 
0.0 0.0 0.0 0.0 0.0 0.07698792 
0.0 0.0 0.0 0.0 0.0 0.07698792 
0.0 0.0 0.0 0.0 0.0 0.07698792 
0.0 0.0 0.0 0.0 0.0 0.07698792 
0.0 0.0 0.0 0.0 0.0 0.07698792 
0.0 0.0 0.0 0.0 0.0 0.07698792 
0.0 0.0 0.0 0.0 0.0 0.07698792 
0.0 0.0 0.0 0.0 0.0 0.07698792 
0.0 0.0 0.0 0.0 0.0 0.07698792 
0.0 0.0 0.0 0.0 0.0 0.07698792 
0.0 0.0 0.0 0.0 0.0 0.07698792 
0.0 0.0 0.0 0.0 0.0 0.07698792 
0.0 0.0 0.0 0.0 0.0 0.07698792 
0.0 0.0 0.0 0.0 0.0 0.07698792 
0.08832121 0.007331676 0.0787782 0.0 0.0 0.07698792 
0.25123128 0.29175812 0.22878832 0.0 0.0 0.07698792 
0.021977775 0.3713522 0.18184748 0.0 0.01201601 0.07698792 
0.0 0.21507521 0.0450313 0.0 0.079445094 0.07698792 
0.0 0.0 0.0 0.0 0.0 0.07698792 
0.0 0.0 0.0 0.0 0.0 0.07698792 
0.0 0.0 0.0 0.0 0.0 0.07698792 
0.0 0.0 0.0 0.0 0.0 0.07698792 
0.0 0.0 0.0 0.0 0.0 0.07698792 
0.0 0.0 0.0 0.0 0.0 0.07698792 
0.14741717 0.0 0.11595055 0.0 0.0 0.07698792 
0.66200465 0.1882865 0.37725937 0.0 0.0 0.0 
0.7495213 0.7693828 0.8167789 0.0 0.0 0.0 
0.6210564 1.0140243 1.0044334 0.0 0.038220603 0.0 
0.6221807 0.902857 0.998417 0.0 0.26069137 0.0 
0.70139307 1.1021698 0.90473187 0.0 0.95381624 0.0 
0.071320176 1.3422253 1.1867237 0.17222832 1.2845366 0.0 
0.0 0.5264606 0.7664866 0.075695276 0.6865792 0.04264177 
0.0 0.0 0.0 0.0 0.0 0.07698792 
0.0 0.0 0.0 0.0 0.0 0.07698792 
0.0 0.0 0.0 0.0 0.0 0.07698792 
0.0 0.0 0.0 0.0 0.0 0.07698792 
0.0 0.0 0.0 0.0 0.0 0.07698792 
0.0 0.0 0.0 0.0 0.0 0.07698792 
0.8156232 0.0 0.03236649 0.0 0.0 0.20687999 
1.4619031 0.5039219 0.23472986 0.37647328 0.5738956 0.1605312 
0.86433923 1.3754376 0.9330442 1.1885666 2.005201 0.6165214 
0.26637802 1.1910294 1.0649824 1.8377694 1.9874257 1.3656919 
0.34091663 0.9017871 1.0908673 1.8301127 1.8373765 1.5733435 
0.3173275 1.3982514 0.73471206 1.4923694 2.066419 1.608949 
0.0 1.5151783 1.3864403 1.1551951 1.5957931 0.8238965 
0.0 0.54077715 1.0509979 0.46519834 0.44095564 0.27268434 
0.0 0.0 0.0 0.0 0.0 0.07698792 
0.0 0.0 0.0 0.0 0.0 0.07698792 
0.0 0.0 0.0 0.0 0.0 0.07698792 
0.0 0.0 0.0 0.0 0.0 0.07698792 
0.0 0.0 0.0 0.0 0.0 0.07698792 
0.05541703 0.0 0.0109827 0.0 0.0 0.07698792 
1.7779882 0.0 0.049305618 0.0 0.099837184 0.4485355 
2.0180233 1.3449892 0.0 0.19813514 1.9553903 0.4230933 
0.2477445 1.5930306 0.37262094 0.45923212 2.6343384 1.2164402 
0.23619378 0.5809369 0.0 0.30533686 2.3055146 1.7802842 
0.25928742 0.18669732 0.0 0.11090612 1.7431114 1.7561655 
0.08041622 0.17911117 0.0 0.0 1.5935962 1.5137143 
0.0 0.045072 0.20480141 0.0 0.6159901 0.6599814 
0.0 0.0 0.28559247 0.0 0.13529448 0.18144175 
0.0 0.0 0.0 0.0 0.0 0.07698792 
0.0 0.0 0.0 0.0 0.0 0.07698792 
0.0 0.0 0.0 0.0 0.0 0.07698792 
0.0 0.0 0.0 0.0 0.0 0.07698792 
0.0 0.0 0.0 0.0 0.0 0.07698792 
0.31893834 0.0 0.0 0.06655431 0.0 0.29068476 
2.0507853 0.0 0.0 0.19634816 0.76701057 0.8466774 
1.8112645 1.5077032 0.0 0.17177188 1.78362 0.5315106 
0.0 1.6030084 2.0668602 0.2941505 1.6824987 0.0 
0.0 1.5643554 2.072276 0.058445845 1.1102928 0.0 
0.0 1.0487351 1.0083647 0.0 0.7132153 0.0 
0.0 0.10696457 0.0 0.0 0.09630412 0.112752035 
0.0 0.0 0.0 0.0 0.0 0.081097305 
0.0 0.0 0.0 0.0 0.0 0.07698792 
0.0 0.0 0.0 0.0 0.0 0.07698792 
0.0 0.0 0.0 0.0 0.0 0.07698792 
0.0 0.0 0.0 0.0 0.0 0.07698792 
0.0 0.0 0.0 0.0 0.0 0.07698792 
0.0 0.0 0.0 0.0 0.0 0.07698792 
0.37483633 0.0 0.0 0.111601196 0.20900153 0.47008285 
1.649683 0.0 0.0 0.5441263 1.3766533 1.4508162 
1.15394 0.88469166 0.0 1.2402444 2.1481173 1.7730374 
0.6241387 0.75924635 1.1597869 1.3265641 2.0792122 1.944207 
0.8142465 1.8065892 2.0445693 1.0623409 1.0076733 1.0345349 
0.0 1.7766626 2.091587 0.47202852 1.1609962 0.0 
0.0 0.54101866 0.65985596 0.0 0.61232203 0.047410015 
0.0 0.0 0.0 0.0 0.0 0.07698792 
0.0 0.0 0.0 0.0 0.0 0.07698792 
0.0 0.0 0.0 0.0 0.0 0.07698792 
0.0 0.0 0.0 0.0 0.0 0.07698792 
0.0 0.0 0.0 0.0 0.0 0.07698792 
0.0 0.0 0.0 0.0 0.0 0.07698792 
0.0 0.0 0.0 0.0 0.0 0.07698792 
0.19601417 0.0 0.0 0.0 0.21209528 0.31706998 
0.6865149 0.0 0.0 0.0 1.0392865 1.1151114 
0.48845768 0.0 0.0 0.0 1.3014978 1.2718358 
0.8453833 0.0 0.0 0.0 1.3176738 1.7232594 
1.3950002 0.41071016 0.0 0.24245517 1.0298601 1.5056269 
0.16979158 1.6253442 2.1854737 0.45472765 1.2007223 0.08081378 
0.0 1.2012789 1.8163642 0.0 1.0082682 0.0 
0.0 0.031568717 0.0 0.0 0.0040925704 0.07698792 
0.0 0.0 0.0 0.0 0.0 0.07698792 
0.0 0.0 0.0 0.0 0.0 0.07698792 
0.0 0.0 0.0 0.0 0.0 0.07698792 
0.0 0.0 0.0 0.0 0.0 0.07698792 
0.0 0.0 0.0 0.0 0.0 0.07698792 
0.3643377 0.01008148 0.19833529 0.0 0.0 0.056247108 
0.3800227 0.5347874 0.2816252 0.0 0.0 0.0 
0.0 0.48706642 0.30111533 0.0 0.18084271 0.055971723 
0.0 0.0573875 0.0 0.0 0.0052238293 0.09222909 
0.53112006 0.0 0.0 0.0 0.4948248 0.6218662 
1.8081603 0.0 0.0 0.0 0.7200263 1.2662635 
1.02931 1.4757963 1.3830925 0.22954005 1.2567331 0.31898603 
0.0 1.429237 2.037284 0.11824116 1.3709888 0.0 
0.0 0.11261875 0.1400913 0.0 0.12834404 0.07698792 
0.0 0.0 0.0 0.0 0.0 0.07698792 
0.0 0.0 0.0 0.0 0.0 0.07698792 
0.0 0.0 0.0 0.0 0.0 0.07698792 
0.0 0.0 0.0 0.0 0.0 0.07698792 
0.0 0.0 0.0 0.0 0.0 0.07698792 
0.68116415 0.0 0.055117965 0.3332721 0.0 0.6004617 
0.893284 0.89656854 0.7086629 0.5549702 0.26193264 0.28041208 
0.07448882 1.4833783 1.5879683 0.23743276 0.74045163 0.0 
0.0 0.8079213 0.7584891 0.0 0.59145117 0.0 
0.0036036 0.09554356 0.0 0.0 0.05820306 0.12773576 
1.965431 0.0 0.0 0.012716663 0.5644454 1.0898101 
1.1988814 1.3911304 0.08139033 0.025914099 1.3785766 0.3614507 
0.0 1.3981256 1.7774373 0.08908173 1.4862982 0.06646483 
0.0 0.11703023 0.24202433 0.06755087 0.12048678 0.08793127 
0.0 0.0 0.0 0.0 0.0 0.07698792 
0.0 0.0 0.0 0.0 0.0 0.07698792 
0.0 0.0 0.0 0.0 0.0 0.07698792 
0.0 0.0 0.0 0.0 0.0 0.07698792 
0.0 0.0 0.0 0.0 0.0 0.07698792 
0.7351831 0.0 0.0 0.2956075 0.61264706 0.9697995 
0.88550264 0.0 0.0 0.82093936 0.8900604 1.3945835 
0.51548994 1.516075 2.1119366 0.97594965 0.78036076 1.0965741 
0.1332509 1.5059818 2.018059 0.70787203 0.63151234 0.0 
0.109202504 1.2254525 1.3005829 0.0 0.37443277 0.0 
1.9573212 0.2572393 0.18576309 0.0 1.0010494 0.67663723 
1.0799649 1.515489 0.12836781 0.0 1.7370199 0.0 
0.0 1.2022799 1.5498816 0.07088144 1.4227985 0.27081412 
0.0 0.018752735 0.15340737 0.04253709 0.0022865795 0.09958925 
0.0 0.0 0.0 0.0 0.0 0.07698792 
0.0 0.0 0.0 0.0 0.0 0.07698792 
0.0 0.0 0.0 0.0 0.0 0.07698792 
0.0 0.0 0.0 0.0 0.0 0.07698792 
0.0 0.0 0.0 0.0 0.0 0.07698792 
0.24990132 0.0 0.0 0.0 0.3602107 0.32840204 
0.8281028 0.0 0.0 0.0 0.96400255 1.2546296 
0.77436656 0.0 0.0 0.47339365 0.9482594 1.4818003 
0.5691417 0.87178355 1.7563131 1.1462699 1.0206949 1.484415 
0.4469012 1.2794089 1.8646351 1.8868771 1.2803322 0.91444975 
0.95423824 1.2006823 0.64623225 1.6120334 2.4575255 1.0518804 
0.0 1.4121072 0.6207747 0.75449485 2.1656005 0.7544999 
0.0 0.53867894 1.2710292 0.27312538 1.047454 0.44762912 
0.0 0.0 0.0 0.0 0.0 0.07896651 
0.0 0.0 0.0 0.0 0.0 0.07698792 
0.0 0.0 0.0 0.0 0.0 0.07698792 
0.0 0.0 0.0 0.0 0.0 0.07698792 
0.0 0.0 0.0 0.0 0.0 0.07698792 
0.0 0.0 0.0 0.0 0.0 0.07698792 
0.0 0.0 0.0 0.0 0.0 0.07698792 
0.13392489 0.0 0.0 0.0 0.23859663 0.22431785 
0.6944789 0.0 0.0 0.0 0.8536517 0.95425844 
0.8021712 0.0 0.0 0.15222998 1.2831963 1.6351898 
0.58069324 0.32701454 0.0 1.1825016 1.8067595 1.7258196 
0.16645291 0.84257907 0.0 1.2206479 1.9903194 1.6281035 
0.0 0.6957972 0.39309984 0.3533669 1.054791 0.89964026 
0.0 0.0 0.44397157 0.0 0.25898588 0.30489874 
0.0 0.0 0.0 0.0 0.0 0.07698792 
0.0 0.0 0.0 0.0 0.0 0.07698792 
0.0 0.0 0.0 0.0 0.0 0.07698792 
0.0 0.0 0.0 0.0 0.0 0.07698792 
0.0 0.0 0.0 0.0 0.0 0.07698792 
0.0 0.0 0.0 0.0 0.0 0.07698792 
0.0 0.0 0.0 0.0 0.0 0.07698792 
0.0 0.0 0.0 0.0 0.0 0.07698792 
0.0 0.0 0.0 0.0 0.048245776 0.12340363 
0.27445388 0.0 0.0 0.0 0.5120633 0.3388466 
0.3152721 0.0 0.0 0.0 0.71370393 0.45790058 
0.0 0.0 0.0 0.0 0.5562512 0.3917766 
0.0 0.0 0.00038120523 0.0 0.19518639 0.20032433 
0.0 0.0 0.0 0.0 0.0 0.0807168 
0.0 0.0 0.0 0.0 0.0 0.07698792 
0.0 0.0 0.0 0.0 0.0 0.07698792 
0.0 0.0 0.0 0.0 0.0 0.07698792 
0.0 0.0 0.0 0.0 0.0 0.07698792 

