0.0 0.0 0.0 0.0 0.0 0.07698792 
0.0 0.0 0.0 0.0 0.0 0.07698792 
0.0 0.0 0.0 0.0 0.0 0.07698792 
0.0 0.0 0.0 0.0 0.0 0.07698792 
0.0 0.0 0.0 0.0 0.0 0.07698792 
0.0 0.0 0.0 0.0 0.0 0.07698792 
0.0 0.0 0.0 0.0 0.0 0.07698792 
0.0 0.0 0.0 0.0 0.0 0.07698792 
0.0 0.0 0.0 0.0 0.0 0.07698792 
0.0 0.0 0.0 0.0 0.0 0.07698792 
0.0 0.0 0.0 0.0 0.0 0.07698792 
0.0 0.0 0.0 0.0 0.0 0.07698792 
0.0 0.0 0.0 0.0 0.0 0.07698792 
0.0 0.0 0.0 0.0 0.0 0.07698792 
0.0 0.0 0.0 0.0 0.0 0.07698792 
0.0 0.0 0.0 0.0 0.0 0.07698792 
0.0 0.0 0.0 0.0 0.0 0.07698792 
0.0 0.0 0.0 0.0 0.0 0.07698792 
0.0 0.0 0.0 0.0 0.0 0.07698792 
0.0 0.0 0.0 0.0 0.0 0.07698792 
0.0 0.0 0.0 0.0 0.0 0.07698792 
0.30318373 0.0 0.14464194 0.0 0.0 0.06944581 
0.7350696 0.5944819 0.3301319 0.0 0.0 0.0 
0.0 0.96053153 0.597909 0.0 0.52645195 0.0 
0.0 0.16528752 0.09045362 0.0 0.27743813 0.07698792 
0.0 0.0 0.0 0.0 0.0 0.07698792 
0.0 0.0 0.0 0.0 0.0 0.07698792 
0.0 0.0 0.0 0.0 0.0 0.07698792 
0.0 0.0 0.0 0.0 0.0 0.07698792 
0.0 0.0 0.0 0.0 0.0 0.07698792 
0.0 0.0 0.0 0.0 0.0 0.07698792 
0.0 0.0 0.0 0.0 0.0 0.07698792 
0.37036467 0.0 0.15231672 0.0 0.0 0.07698792 
0.8020074 0.400556 0.5013764 0.0 0.0 0.0 
0.54507184 1.1259958 0.78905445 0.0 0.37100798 0.0 
0.54213285 0.727978 0.52380717 0.0 0.49137512 0.17342648 
1.4280806 0.779285 0.41498142 0.3970857 0.5116503 0.5571059 
0.0 1.6466424 1.965974 0.46614665 1.1710781 0.0 
0.0 0.7155813 1.0004332 0.0 0.72070825 0.016704515 
0.0 0.0 0.0 0.0 0.0 0.07698792 
0.0 0.0 0.0 0.0 0.0 0.07698792 
0.0 0.0 0.0 0.0 0.0 0.07698792 
0.0 0.0 0.0 0.0 0.0 0.07698792 
0.0 0.0 0.0 0.0 0.0 0.07698792 
0.0 0.0 0.0 0.0 0.0 0.07698792 
0.0 0.0 0.0 0.0 0.0 0.07698792 
1.2106683 0.0 0.08283339 0.21761672 0.0 0.3553874 
1.5534186 0.8610539 0.5914148 0.73860765 0.89889705 0.22213526 
0.4472505 1.819237 1.6687917 0.9713781 1.7014304 0.029469281 
0.46741813 1.3971134 1.8507793 0.71427876 1.2471083 0.3728072 
1.6993728 0.903421 0.0 0.0 1.2562077 0.7681026 
0.0 1.6120832 2.008491 0.17074376 1.6744243 0.013025224 
0.0 0.69948244 1.3323189 0.0820627 0.86098033 0.087039076 
0.0 0.0 0.0 0.0 0.0 0.07698792 
0.0 0.0 0.0 0.0 0.0 0.07698792 
0.0 0.0 0.0 0.0 0.0 0.07698792 
0.0 0.0 0.0 0.0 0.0 0.07698792 
0.0 0.0 0.0 0.0 0.0 0.07698792 
0.0 0.0 0.0 0.0 0.0 0.07698792 
0.0 0.0 0.0 0.0 0.0 0.07698792 
1.6928155 0.0 0.0 0.21183603 0.511798 1.1599362 
1.9226441 1.0857081 0.0 0.45504493 1.8545729 0.88714534 
0.0 1.5738261 0.91354877 0.58923477 2.4041789 0.70098346 
1.3627253 0.76004887 1.3052756 0.5708444 0.9706442 0.687667 
1.7566938 1.6106787 0.0 0.104022175 2.0489333 0.53624564 
0.0 1.5943679 1.5558373 0.117635876 1.9481353 0.3677582 
0.0 0.31692275 1.0894054 0.13870203 0.7060773 0.16647439 
0.0 0.0 0.0 0.0 0.0 0.07698792 
0.0 0.0 0.0 0.0 0.0 0.07698792 
0.0 0.0 0.0 0.0 0.0 0.07698792 
0.0 0.0 0.0 0.0 0.0 0.07698792 
0.0 0.0 0.0 0.0 0.0 0.07698792 
0.0 0.0 0.0 0.0 0.0 0.07698792 
0.0 0.0 0.0 0.0 0.0 0.07698792 
1.4357338 0.0 0.0 0.16780446 0.70254105 1.246599 
1.745265 0.5492773 0.0 0.28900126 1.4071567 1.3644485 
0.45453495 1.3080742 1.9728092 0.36163208 1.6987479 0.032157004 
1.4687498 1.1515107 1.1742527 0.0 2.326853 0.17785653 
0.7274458 1.6022571 0.22885057 0.15151909 2.6261716 0.4648431 
0.0 1.2076384 1.0966574 0.20708655 1.6735665 0.51159394 
0.0 0.05007547 0.59879637 0.088418655 0.20987733 0.15436366 
0.0 0.0 0.0 0.0 0.0 0.07698792 
0.0 0.0 0.0 0.0 0.0 0.07698792 
0.0 0.0 0.0 0.0 0.0 0.07698792 
0.0 0.0 0.0 0.0 0.0 0.07698792 
0.0 0.0 0.0 0.0 0.0 0.07698792 
0.0 0.0 0.0 0.0 0.0 0.07698792 
0.0 0.0 0.0 0.0 0.0 0.07698792 
0.8209877 0.0 0.0 0.0 0.6466576 0.9115631 
1.8935163 0.0 0.0 0.13951278 0.78576916 1.3552957 
1.7360423 1.1506798 1.3998212 0.72766125 1.9268 0.69206357 
0.7174089 2.102938 1.1880977 0.5087876 2.738085 0.363087 
0.0 1.7171159 1.0255723 0.08587654 2.3874986 0.5380268 
0.0 0.2574237 0.74798435 0.009752938 0.7110468 0.42358828 
0.0 0.0 0.04869195 0.0 0.0 0.091486186 
0.0 0.0 0.0 0.0 0.0 0.07698792 
0.0 0.0 0.0 0.0 0.0 0.07698792 
0.0 0.0 0.0 0.0 0.0 0.07698792 
0.0 0.0 0.0 0.0 0.0 0.07698792 
0.0 0.0 0.0 0.0 0.0 0.07698792 
0.0 0.0 0.0 0.0 0.0 0.07698792 
0.0 0.0 0.0 0.0 0.0 0.07698792 
0.4326362 0.0 0.0 0.0 0.0 0.2428343 
2.0739796 0.0 0.0 0.03471731 1.0456718 0.8179407 
1.7658467 0.7591749 0.0 0.19883615 2.5536118 1.1148317 
0.5196805 1.81666 1.0649773 0.39505455 2.635835 0.97102475 
0.0 1.7165188 2.0562944 0.10419324 1.6371318 0.0 
0.0 0.8262975 1.0539181 0.0 0.7683146 0.0 
0.0 0.0153036015 0.0 0.0 0.0 0.07698792 
0.0 0.0 0.0 0.0 0.0 0.07698792 
0.0 0.0 0.0 0.0 0.0 0.07698792 
0.0 0.0 0.0 0.0 0.0 0.07698792 
0.0 0.0 0.0 0.0 0.0 0.07698792 
0.0 0.0 0.0 0.0 0.0 0.07698792 
0.0 0.0 0.0 0.0 0.0 0.07698792 
0.0 0.0 0.0 0.0 0.0 0.07698792 
0.74508464 0.0 0.0 0.11265905 0.047835607 0.6511152 
1.8180137 0.27938244 0.0 0.19257808 1.250473 1.0948284 
0.86119205 1.193306 0.0 0.19878586 2.541495 1.2592583 
1.2023532 0.55800897 0.0958473 0.48969033 2.0479383 1.3988988 
0.38037843 1.8550694 2.2837412 0.6225179 1.4652086 0.28869614 
0.0 1.4728127 2.1636527 0.04960796 1.3100363 0.0 
0.0 0.08966781 0.05903916 0.0 0.09870723 0.07698792 
0.0 0.0 0.0 0.0 0.0 0.07698792 
0.0 0.0 0.0 0.0 0.0 0.07698792 
0.0 0.0 0.0 0.0 0.0 0.07698792 
0.0 0.0 0.0 0.0 0.0 0.07698792 
0.0 0.0 0.0 0.0 0.0 0.07698792 
0.0 0.0 0.0 0.0 0.0 0.07698792 
0.0 0.0 0.0 0.0 0.0 0.07698792 
0.6974793 0.0 0.0 0.07999468 0.33033565 0.6878113 
1.7258976 0.153267 0.0 0.12619571 0.8932794 1.2822263 
0.6603868 1.2988211 1.408584 0.06977612 1.962094 0.25230145 
1.5115075 0.5911366 0.97821 0.0 1.816262 1.0471239 
1.3081305 1.7344594 1.140327 0.14637974 1.4864181 0.41766256 
0.0 1.7128797 2.1078215 0.0 1.6248833 0.0 
0.0 0.28854552 0.39155966 0.0 0.38519153 0.07698792 
0.0 0.0 0.0 0.0 0.0 0.07698792 
0.0 0.0 0.0 0.0 0.0 0.07698792 
0.0 0.0 0.0 0.0 0.0 0.07698792 
0.0 0.0 0.0 0.0 0.0 0.07698792 
0.0 0.0 0.0 0.0 0.0 0.07698792 
0.0 0.0 0.0 0.0 0.0 0.07698792 
0.0 0.0 0.0 0.0 0.0 0.07698792 
0.32369986 0.0 0.0 0.0 0.2704707 0.44010788 
1.3828969 0.0 0.0 0.2193377 0.8505501 1.420363 
1.0738459 1.0253409 1.1050191 0.59984636 0.9022462 1.1898308 
1.369865 0.9815637 1.5886434 0.7999307 2.000611 0.5593111 
1.0374045 1.664709 0.3493812 0.15279822 2.291507 0.18885694 
0.0 1.7652981 1.9362077 0.48420352 1.9643334 0.18982987 
0.0 0.35508648 0.8564019 0.26699463 0.5528528 0.07611408 
0.0 0.0 0.0 0.0 0.0 0.07698792 
0.0 0.0 0.0 0.0 0.0 0.07698792 
0.0 0.0 0.0 0.0 0.0 0.07698792 
0.0 0.0 0.0 0.0 0.0 0.07698792 
0.0 0.0 0.0 0.0 0.0 0.07698792 
0.0 0.0 0.0 0.0 0.0 0.07698792 
0.0 0.0 0.0 0.0 0.0 0.07698792 
0.0 0.0 0.0 0.0 0.04682331 0.12278475 
0.9554607 0.0 0.0 0.0 0.887504 1.1381147 
0.9910086 0.0 0.0 0.61992294 1.2973696 1.6161163 
0.9437272 0.6513401 0.0011973977 1.5448377 2.264467 1.899498 
0.2237077 1.458944 0.06508221 1.3720242 2.5593488 1.611541 
0.0 1.0170834 1.258459 0.6406697 1.6555701 0.7476874 
0.0 0.24778095 0.7671472 0.27827537 0.17720905 0.19116665 
0.0 0.0 0.0 0.0 0.0 0.07698792 
0.0 0.0 0.0 0.0 0.0 0.07698792 
0.0 0.0 0.0 0.0 0.0 0.07698792 
0.0 0.0 0.0 0.0 0.0 0.07698792 
0.0 0.0 0.0 0.0 0.0 0.07698792 
0.0 0.0 0.0 0.0 0.0 0.07698792 
0.0 0.0 0.0 0.0 0.0 0.07698792 
0.0 0.0 0.0 0.0 0.0 0.07698792 
0.17601241 0.0 0.0 0.0 0.29409942 0.2585716 
0.6793847 0.0 0.0 0.0 0.97281796 1.0040343 
0.62148416 0.0 0.0 0.0 1.4136287 1.4473531 
0.0 0.0 0.0 0.0 1.1709855 1.1720955 
0.0 0.0 0.21466094 0.0 0.38760373 0.45964447 
0.0 0.0 0.04407552 0.0 0.019609783 0.09736322 
0.0 0.0 0.0 0.0 0.0 0.07698792 
0.0 0.0 0.0 0.0 0.0 0.07698792 
0.0 0.0 0.0 0.0 0.0 0.07698792 
0.0 0.0 0.0 0.0 0.0 0.07698792 
0.0 0.0 0.0 0.0 0.0 0.07698792 
0.0 0.0 0.0 0.0 0.0 0.07698792 
0.0 0.0 0.0 0.0 0.0 0.07698792 
0.0 0.0 0.0 0.0 0.0 0.07698792 
0.0 0.0 0.0 0.0 0.0 0.07698792 
0.0 0.0 0.0 0.0 0.0 0.07698792 
0.0 0.0 0.0 0.0 0.0 0.07698792 
0.0 0.0 0.0 0.0 0.0 0.07698792 
0.0 0.0 0.0 0.0 0.0 0.07698792 
0.0 0.0 0.0 0.0 0.0 0.07698792 
0.0 0.0 0.0 0.0 0.0 0.07698792 
0.0 0.0 0.0 0.0 0.0 0.07698792 
0.0 0.0 0.0 0.0 0.0 0.07698792 

