0.0 0.0 0.0 0.0 0.0 0.07698792 
0.0 0.0 0.0 0.0 0.0 0.07698792 
0.0 0.0 0.0 0.0 0.0 0.07698792 
0.0 0.0 0.0 0.0 0.0 0.07698792 
0.0 0.0 0.0 0.0 0.0 0.07698792 
0.0 0.0 0.0 0.0 0.0 0.07698792 
0.0 0.0 0.0 0.0 0.0 0.07698792 
0.0 0.0 0.0 0.0 0.0 0.07698792 
0.0 0.0 0.0 0.0 0.0 0.07698792 
0.0 0.0 0.0 0.0 0.0 0.07698792 
0.0 0.0 0.0 0.0 0.0 0.07698792 
0.0 0.0 0.0 0.0 0.0 0.07698792 
0.0 0.0 0.0 0.0 0.0 0.07698792 
0.0 0.0 0.0 0.0 0.0 0.07698792 
0.0 0.0 0.0 0.0 0.0 0.07698792 
0.0 0.0 0.0 0.0 0.0 0.07698792 
0.0 0.0 0.0 0.0 0.0 0.07698792 
0.0 0.0 0.0 0.0 0.0 0.07698792 
0.0 0.024253186 0.0 0.0 0.0 0.07698792 
0.05976838 0.021611601 0.09654152 0.0 0.0 0.07698792 
0.1743807 0.17689808 0.20409048 0.0 0.0 0.07698792 
0.21437764 0.38468948 0.31441247 0.0 0.0 0.07698792 
0.096686885 0.4171316 0.23603985 0.0 0.0 0.07698792 
0.0 0.25747457 0.08551506 0.0 0.047189955 0.07698792 
0.0 0.016425837 0.0 0.0 0.0 0.07698792 
0.0 0.0 0.0 0.0 0.0 0.07698792 
0.0 0.0 0.0 0.0 0.0 0.07698792 
0.0 0.0 0.0 0.0 0.0 0.07698792 
0.0 0.0 0.0 0.0 0.0 0.07698792 
0.0 0.0 0.0 0.0 0.0 0.07698792 
0.0 0.0 0.0 0.0 0.0 0.07698792 
0.16719651 0.0 0.06526861 0.0 0.0 0.07698792 
0.92575747 0.21020468 0.36486226 0.0 0.0 0.0 
0.84245604 0.8119838 0.9824612 0.0 0.12709215 0.0 
0.6731104 0.8777714 0.83372414 0.0 0.66658264 0.0 
0.5708142 0.8577996 1.1363063 0.27156237 0.89879245 0.0 
0.33971998 1.3754859 1.4341125 0.2664963 0.88175756 0.0 
0.0 1.4404087 1.3251097 0.0 0.94359094 0.0 
0.0 0.295752 0.28555015 0.0 0.464098 0.056144316 
0.0 0.0 0.0 0.0 0.0 0.07698792 
0.0 0.0 0.0 0.0 0.0 0.07698792 
0.0 0.0 0.0 0.0 0.0 0.07698792 
0.0 0.0 0.0 0.0 0.0 0.07698792 
0.0 0.0 0.0 0.0 0.0 0.07698792 
0.0 0.0 0.0 0.0 0.0 0.07698792 
0.9567091 0.0 0.04294049 0.0 0.0 0.24082918 
1.6943641 0.5794517 0.17897788 0.24780038 0.5719091 0.3996127 
1.095516 1.7220508 1.1723256 0.8294125 2.2994947 0.48454756 
0.24808925 1.902856 1.0523111 0.9558846 2.564803 0.9488464 
0.33413044 1.0768301 0.69156957 1.6293006 2.1955874 1.8113708 
0.36519605 1.1711743 1.1751534 1.6569692 1.422985 1.6943884 
0.0 1.3901514 1.5886703 1.2485964 1.2097322 0.6989624 
0.0 0.45758122 0.9026811 0.47902504 0.53180283 0.19478199 
0.0 0.0 0.0 0.0 0.0 0.07698792 
0.0 0.0 0.0 0.0 0.0 0.07698792 
0.0 0.0 0.0 0.0 0.0 0.07698792 
0.0 0.0 0.0 0.0 0.0 0.07698792 
0.0 0.0 0.0 0.0 0.0 0.07698792 
0.26203233 0.0 0.10305979 0.0 0.0 0.07698792 
1.884098 0.0 0.06465662 0.0 0.13648161 0.20885105 
2.0975313 1.130026 0.0 0.0 2.0381932 0.20305128 
1.1137779 1.6632806 0.47881782 0.0 2.7701976 0.47330987 
0.0 1.633855 1.4103853 0.0 2.5702868 0.1644555 
0.37957305 0.99571234 1.3844538 0.0 1.5290265 0.2719128 
0.41484806 0.6697499 0.21788254 0.0 1.4144927 0.76381034 
0.0 0.36148265 0.307648 0.0 0.69892657 0.620178 
0.0 0.10278532 0.52748305 0.07193765 0.2542175 0.23104136 
0.0 0.027767614 0.0 0.0 0.0 0.07698792 
0.0 0.0 0.0 0.0 0.0 0.07698792 
0.0 0.0 0.0 0.0 0.0 0.07698792 
0.0 0.0 0.0 0.0 0.0 0.07698792 
0.0 0.0 0.0 0.0 0.0 0.07698792 
0.9205458 0.0 0.020073928 0.22950834 0.0 0.5312667 
2.0471148 0.33803433 0.0 0.47673714 1.3193102 0.80096895 
1.6273029 1.2429165 0.0 0.7674354 2.759371 1.1950336 
0.6487697 1.1824137 0.4576881 1.2811 2.829242 1.523124 
0.0 0.91052574 1.5569205 1.6505877 2.0696824 1.5088944 
0.24830246 1.0573486 1.7938775 1.7969699 1.4699837 1.3448784 
0.3470122 1.3492076 1.6693093 1.7131003 1.0107685 0.7206679 
0.22538894 1.444567 1.9116687 0.8541264 0.8319968 0.0 
0.0 1.6292495 1.7259651 0.0 0.8070581 0.0 
0.0 0.7824943 0.68015933 0.0 0.5924328 0.0 
0.0 0.085875124 0.0 0.0 0.031695504 0.07698792 
0.0 0.0 0.0 0.0 0.0 0.07698792 
0.0 0.0 0.0 0.0 0.0 0.07698792 
0.0 0.0 0.0 0.0 0.0 0.07698792 
0.9404034 0.0 0.0 0.28652087 0.63522774 0.9866086 
1.5352943 0.049723104 0.0 0.8200762 1.8750484 1.5221326 
0.5757641 0.76734674 0.0 0.9860065 2.8127182 1.7563021 
0.022022873 0.5257331 0.0 0.70331275 2.5250676 1.7886803 
0.31092763 0.33885238 0.0 0.36573246 1.8780129 1.841691 
0.43965548 0.05716402 0.0 0.64027673 1.6016268 1.8255699 
0.6436635 0.2766597 0.0 1.467882 1.5225283 1.8436029 
0.6314468 1.0521262 1.5279007 1.6388549 1.3770084 1.8372195 
0.61453515 1.7852143 2.1021285 1.1289598 1.0290574 0.8025457 
0.0 1.9024872 2.186926 0.3669468 1.1176888 0.0 
0.0 0.6179951 0.6508724 0.0 0.6192667 0.023601193 
0.0 0.0 0.0 0.0 0.0 0.07698792 
0.0 0.0 0.0 0.0 0.0 0.07698792 
0.0 0.0 0.0 0.0 0.0 0.07698792 
0.5003943 0.0 0.0 0.0 0.54042137 0.6255649 
0.6482529 0.0 0.0 0.0 1.0755628 0.98436594 
0.08479622 0.0 0.0 0.0 0.9784027 0.9044653 
0.0 0.0 0.0018155612 0.0 0.64350003 0.49694228 
0.0 0.0 0.0 0.0 0.37058327 0.26852196 
0.25271496 0.0 0.0 0.0 0.629168 0.41584852 
0.56198114 0.0 0.0 0.0 1.1214857 1.05532 
0.9739941 0.0 0.0 0.0 1.3907001 1.8522196 
1.3184407 0.56093115 0.23082992 0.62970704 1.0566615 1.5974166 
0.15375426 1.7349263 2.1659296 0.70544815 1.2801834 0.13584143 
0.0 1.2951463 1.905654 0.0 1.099981 0.0 
0.0 0.012348569 0.0 0.0 0.0 0.07698792 
0.0 0.0 0.0 0.0 0.0 0.07698792 
0.0 0.0 0.0 0.0 0.0 0.07698792 
0.7080087 0.0 0.17733738 0.0 0.0 0.020422064 
0.6940358 0.8393005 0.49872708 0.0 0.23845296 0.0 
0.0 0.92623603 0.64657503 0.0 0.64196604 0.0 
0.0 0.0744551 0.066847466 0.0 0.17503338 0.07698792 
0.0 0.0 0.0 0.0 0.0 0.07698792 
0.0 0.0 0.0 0.0 0.0 0.07698792 
0.0 0.0 0.0 0.0 0.0 0.08317668 
0.66339827 0.0 0.0 0.0 0.5102939 0.6432728 
1.9898977 0.0 0.0 0.0 0.7606506 1.1825194 
0.8055313 1.6344365 1.29458 0.054883778 1.678594 0.103765085 
0.0 1.3490106 2.0393283 0.15829335 1.4515184 0.0 
0.0 0.043979544 0.06038621 0.020784777 0.028749947 0.07698792 
0.0 0.0 0.0 0.0 0.0 0.07698792 
0.13422713 0.0 0.016908847 0.0 0.0 0.08873458 
1.5324016 0.0 0.0 0.21259779 0.16927807 0.37595737 
0.8126985 1.6600617 0.7094809 0.3018245 1.3191203 0.0 
0.0 1.2548308 1.3149005 0.24936625 1.1534404 0.1494004 
0.0 0.15737273 0.2285183 0.1424084 0.033979204 0.11681862 
0.0 0.0 0.0 0.0 0.0 0.07698792 
0.0 0.0 0.0 0.0 0.0 0.07698792 
6.4499676e-05 0.0 0.03247176 0.0 0.0 0.07698792 
1.0700924 0.0 0.09294786 0.0 0.0 0.058924206 
1.9701912 0.7786239 0.0 0.0 1.6071147 0.5067803 
0.41663545 1.6263605 0.66259485 0.08889407 2.1199045 0.19886658 
0.0 0.9994231 1.6858366 0.294454 1.4101876 0.4370456 
0.0 0.04301567 0.08332791 0.048423633 0.0 0.089503594 
0.0 0.0 0.0 0.0 0.0 0.07698792 
0.28646803 0.0 0.0 0.12333143 0.0032777935 0.40577954 
1.8313284 0.0 0.0 0.26401243 0.77675414 1.0520605 
0.8086701 1.6063867 1.1390343 0.12956235 1.4329892 0.058449447 
0.0 1.4019946 1.9819165 0.0 1.2298709 0.0 
0.0 0.31326473 0.15742946 0.0 0.16240562 0.07698792 
0.0 0.055501223 0.0 0.0 0.0 0.07698792 
0.28399384 0.04601147 0.19789383 0.0 0.0 0.07698792 
0.89928645 0.09109841 0.35791764 0.0 0.0 0.0 
1.5747967 0.5245822 0.23344702 0.0 1.0217637 0.0 
1.7086861 1.3982407 0.0 0.1536859 2.5096471 0.43675584 
0.0 1.5631671 0.8967515 0.29466373 2.2215645 0.5523537 
0.0 0.21781288 0.8687798 0.08567957 0.7376401 0.3919608 
0.0 0.0 0.0 0.0 0.0 0.080391504 
0.0 0.0 0.0 0.0 0.0 0.07698792 
0.26685616 0.0 0.0 0.05632049 0.17708957 0.40347865 
1.4076233 0.0 0.0 0.26050422 0.8146948 1.4241767 
1.0617609 1.1005992 1.0520818 0.8925731 1.0244465 1.3345702 
0.0 1.5605562 2.361884 1.3324314 1.099068 0.5337479 
0.0 0.9853844 1.2238015 0.6584236 0.80512446 0.0 
0.29703164 0.53922945 0.5601886 0.109804824 0.44629684 0.00081750005 
0.80127376 0.31844994 0.45848906 0.5313958 0.39424354 0.2649087 
1.1112254 0.5928185 0.49675643 1.2341809 1.7140461 0.84552366 
0.94093937 1.151082 0.15556237 1.2606493 2.4850416 1.2049179 
0.0 1.3615614 0.14577916 0.5797708 2.6323264 1.0723485 
0.0 0.58137864 0.7149748 0.1968583 1.10726 0.6674058 
0.0 0.0 0.3780067 0.016111247 0.099246785 0.15406102 
0.0 0.0 0.0 0.0 0.0 0.07698792 
0.0 0.0 0.0 0.0 0.0 0.07698792 
0.0036036 0.0 0.0 0.0 0.05820306 0.12773576 
0.9470987 0.0 0.0 0.0 0.9068056 1.1539519 
0.92498213 0.010983423 0.0 0.50739896 1.2975311 1.4509449 
0.27642608 0.4561838 0.9142627 1.5182678 1.4052258 1.4322858 
0.0 0.5202617 0.9983721 1.5431837 1.0382925 1.2533207 
0.13833009 0.5292931 0.67919695 1.171 0.7627298 1.0534976 
0.4942392 0.42848703 0.042267226 1.3513442 1.1292998 1.3835075 
0.588675 0.6803162 0.0 1.4377164 1.8987948 1.5289006 
0.11955541 0.7899871 0.0 0.92662686 1.964449 1.4723034 
0.0 0.37084606 0.16570953 0.007726024 0.90261537 0.7914735 
0.0 0.0 0.2662987 0.0 0.22021292 0.25948527 
0.0 0.0 0.0 0.0 0.0 0.07729232 
0.0 0.0 0.0 0.0 0.0 0.07698792 
0.0 0.0 0.0 0.0 0.0 0.07698792 
0.0 0.0 0.0 0.0 0.0 0.07698792 
0.14614971 0.0 0.0 0.0 0.27653107 0.22436774 
0.3244351 0.0 0.0 0.0 0.6846979 0.41004264 
0.2809685 0.0 0.0 0.0 0.92945 0.5582838 
0.09441967 0.0 0.0 0.0 0.89873594 0.53841466 
0.14427808 0.0 0.0 0.0 0.82483405 0.5119947 
0.22060034 0.0 0.0 0.0 0.885257 0.54174197 
0.16562729 0.0 0.0 0.0 0.95154613 0.5670347 
0.0 0.0 0.0 0.0 0.4200457 0.30467355 
0.0 0.0 0.031303868 0.0 0.09720071 0.12449205 
0.0 0.0 0.0 0.0 0.0 0.07790112 
0.0 0.0 0.0 0.0 0.0 0.07698792 
0.0 0.0 0.0 0.0 0.0 0.07698792 

