0.0 0.0 0.0 0.0 0.0 0.07698792 
0.0 0.0 0.0 0.0 0.0 0.07698792 
0.0 0.0 0.0 0.0 0.0 0.07698792 
0.0 0.0 0.0 0.0 0.0 0.07698792 
0.0 0.0 0.0 0.0 0.0 0.07698792 
0.0 0.0 0.0 0.0 0.0 0.07698792 
0.0 0.0 0.0 0.0 0.0 0.07698792 
0.0 0.0 0.0 0.0 0.0 0.07698792 
0.0 0.0 0.0 0.0 0.0 0.07698792 
0.0 0.0 0.0 0.0 0.0 0.07698792 
0.0 0.0 0.0 0.0 0.0 0.07698792 
0.0 0.0 0.0 0.0 0.0 0.07698792 
0.0 0.0 0.0 0.0 0.0 0.07698792 
0.0 0.0 0.0 0.0 0.0 0.07698792 
0.0 0.0 0.0 0.0 0.0 0.07698792 
0.0 0.0 0.0 0.0 0.0 0.07698792 
0.0 0.0 0.0 0.0 0.0 0.07698792 
0.0 0.0 0.0 0.0 0.0 0.07698792 
0.0 0.0 0.0 0.0 0.0 0.07698792 
0.0 0.0 0.0 0.0 0.0 0.07698792 
0.0 0.0 0.0 0.0 0.0 0.07698792 
0.22586715 0.0 0.15618125 0.0 0.0 0.07698792 
0.7678261 0.17308396 0.38841203 0.0 0.0 0.0 
0.9034283 0.9295501 0.87818754 0.0 0.0 0.0 
0.3045957 1.2638577 1.0488579 0.0 0.64545137 0.0 
0.0 0.8729321 0.6836691 0.0 0.6281062 0.0 
0.0 0.07265783 0.0 0.0 0.08577289 0.07698792 
0.0 0.0 0.0 0.0 0.0 0.07698792 
0.0 0.0 0.0 0.0 0.0 0.07698792 
0.0 0.0 0.0 0.0 0.0 0.07698792 
0.0 0.0 0.0 0.0 0.0 0.07698792 
0.0 0.0 0.0 0.0 0.0 0.07698792 
0.0 0.0 0.0 0.0 0.0 0.07698792 
0.15931298 0.021802917 0.14785415 0.0 0.0 0.07698792 
0.47991788 0.21000606 0.36509943 0.0 0.0 0.055870004 
1.1605346 0.19577879 0.34707034 0.0 0.0 0.0 
1.2015953 0.9385073 0.4107945 0.5134884 1.2411743 0.04576142 
0.9055507 1.1093941 1.1731045 1.4059489 1.7506727 0.9312551 
0.47706354 2.0036736 1.9837009 1.2642044 1.3559536 0.47618738 
0.0 2.0473478 2.217545 0.29253408 1.2455283 0.0 
0.0 0.5953174 0.66874814 0.0 0.6054278 0.02592108 
0.0 0.0 0.0 0.0 0.0 0.07698792 
0.0 0.0 0.0 0.0 0.0 0.07698792 
0.0 0.0 0.0 0.0 0.0 0.07698792 
0.0 0.0 0.0 0.0 0.0 0.07698792 
0.0 0.0 0.015607417 0.0 0.0 0.07698792 
0.47638917 0.0 0.1663306 0.0 0.0 0.07020002 
1.2308095 0.20019582 0.3860602 0.0 0.0 0.0 
1.1174488 0.8050586 0.7758759 0.0 0.9056083 0.0 
1.1130002 1.2977042 0.69616413 0.5164804 2.25122 0.32053965 
0.71153146 1.6321722 0.012970485 0.503863 2.637891 0.90442836 
0.8701992 0.8434614 0.0 0.6961444 2.598942 1.7760212 
1.5470307 1.0900795 0.70988196 0.68830913 1.5207204 1.4564631 
0.0 1.9413533 2.2130005 0.2868045 1.6866847 0.0 
0.0 1.2772629 1.8606477 0.0 1.0643249 0.0 
0.0 0.0 0.0 0.0 0.0 0.07698792 
0.0 0.0 0.0 0.0 0.0 0.07698792 
0.0 0.0 0.0 0.0 0.0 0.07698792 
0.0 0.0 0.0 0.0 0.0 0.07698792 
0.597772 0.0 0.15471068 0.0 0.0 0.07020002 
1.5904107 0.1358183 0.18529809 0.0 0.0 0.0 
1.5539782 1.2883359 0.3120527 0.28791928 2.0563283 0.18936166 
0.76799923 1.5643044 0.42307377 0.8189784 2.891572 1.1987214 
0.41513366 1.1785682 0.22076488 1.0705956 2.7340367 1.6872921 
0.0 1.2136666 0.5650009 0.7882263 2.347881 1.0138109 
1.1315663 0.0 0.5139065 0.07498351 1.3960928 1.2312584 
2.0869138 0.26083922 0.0 0.033324506 1.3592123 1.201637 
0.3080279 1.970776 1.8395199 0.02691197 2.033319 0.0 
0.0 1.3231157 2.068745 0.0460194 1.3570095 0.0 
0.0 0.0 0.0 0.0 0.0 0.07698792 
0.0 0.0 0.0 0.0 0.0 0.07698792 
0.0 0.0 0.0 0.0 0.0 0.07698792 
0.3130374 0.0 0.090911604 0.0 0.0 0.07698792 
1.6288416 0.0 0.08802027 0.0 0.0 0.0 
1.8714709 1.0973265 0.0 0.11952945 1.9632131 0.27785617 
1.1851072 1.7333792 0.0026847608 0.2743891 2.9985213 0.66540986 
0.0 1.64187 0.32559898 0.21710591 2.93367 1.1728742 
0.0 0.2816977 0.0 0.0 1.9827551 1.3819582 
0.0 0.0 0.102106504 0.0 0.61502486 0.63148767 
1.3266451 0.0 0.15535298 0.0 0.26808771 0.85931844 
2.1109452 0.21202031 0.0 0.011976567 1.4178946 1.0342948 
0.4035073 1.9022197 1.4547664 0.0 2.0897822 0.054027274 
0.0 1.2898778 1.9745644 0.0 1.4260609 0.0 
0.0 0.0 0.0 0.0 0.0 0.07698792 
0.0 0.0 0.0 0.0 0.0 0.07698792 
0.074519455 0.0 0.09015217 0.0 0.0 0.07698792 
1.277288 0.0 0.08315662 0.0 0.0 0.0 
1.979275 0.7824974 0.0 0.0 1.5903178 0.18690927 
1.4449711 1.4523958 0.0 0.30504403 3.0765672 0.9548674 
0.0 1.629055 0.33396792 0.47789907 3.0153477 1.0194156 
0.0 0.70755255 0.6952797 0.18856564 1.6130513 0.71561366 
0.0 0.0 0.26373366 0.0 0.2302895 0.22514494 
0.06386283 0.0 0.08145378 0.0 0.0 0.079499215 
1.6960273 0.0 0.0 0.0 0.12950072 0.666742 
2.2051053 0.7881045 0.0 0.0 1.7870128 0.79565877 
0.30183238 1.8861572 1.4431492 0.061999585 2.3898165 0.05275841 
0.0 1.2668388 1.9590658 0.108651936 1.4252563 0.14858063 
0.0 0.0 0.0 0.0 0.0 0.07698792 
0.0 0.0 0.0 0.0 0.0 0.07698792 
0.89581513 0.0 0.10181642 0.0 0.0 0.034621038 
1.9822867 0.31119725 0.040534027 0.0 0.8509607 0.06366626 
1.8538499 1.5635535 0.0 0.10085471 2.8528283 0.5214895 
0.06709936 1.7330065 0.5430734 0.13712665 2.9020886 0.8418283 
0.0 0.80855554 0.44053695 0.0 1.9554037 0.9061151 
0.0 0.0 0.30784062 0.0 0.32526258 0.40758568 
0.18091732 0.029632878 0.14576185 0.0 0.0 0.08138749 
0.96053904 0.0 0.2351053 0.0 0.0 0.006821908 
1.9719503 0.4911148 0.04406584 0.0 0.9834928 0.05963712 
1.9379802 1.4888366 0.0 0.06647218 2.822382 0.54150796 
0.0 1.8891569 1.2896162 0.22036847 2.5649445 0.4389956 
0.0 0.8062477 1.6020983 0.23068771 1.2466054 0.43715495 
0.0 0.0 0.0 0.0 0.0 0.07698792 
0.0 0.0 0.0 0.0 0.0 0.07698792 
1.7979398 0.0 0.0 0.19708449 0.111120194 0.7419955 
2.109365 1.090227 0.0 0.26200995 1.886766 0.61357844 
0.78238314 1.8326048 0.41317344 0.12606964 2.923158 0.5311764 
0.0 1.3718795 0.8817651 0.119145796 2.2807748 0.54087293 
0.15311207 0.15518165 0.7073888 0.070967756 0.45669588 0.3384054 
0.52265674 0.2617158 0.40328437 0.0 0.0 0.05083918 
1.1186497 0.3191533 0.498927 0.0 0.0 0.0 
1.4325409 0.8498272 0.46054918 0.0 1.2088209 0.0 
1.5799448 1.3361101 0.0 0.43393204 2.8185546 0.76072484 
0.58559763 1.6022544 0.11915935 0.4996812 2.981068 1.0154731 
0.0 1.2674011 0.82123363 0.33088285 2.202974 0.7955591 
0.0 0.1812262 0.78016406 0.13178214 0.48852977 0.38813627 
0.0 0.0 0.0 0.0 0.0 0.07698792 
0.0 0.0 0.0 0.0 0.0 0.07698792 
1.9995704 0.0 0.0 0.14746316 0.6766053 1.2974892 
2.0855181 1.1423982 0.0 0.15543064 1.9327844 0.9928958 
0.0 1.9404912 1.8067051 0.0 2.6457531 0.0 
0.18356472 1.3389093 2.0488598 0.0 1.0859315 0.0 
0.84567577 0.6751811 0.8859094 0.0 0.32207963 0.0 
0.9260942 0.9772987 0.9450971 0.0 1.0381811 0.0 
1.0898945 1.2328713 0.6926509 0.54045665 2.190038 0.34793204 
1.0342536 1.3463343 0.2727603 0.80467606 2.944769 1.2550833 
0.37341407 1.4657668 0.0 0.69570607 2.9225452 1.3689172 
0.0 0.9656322 0.18570754 0.35518137 2.4519327 1.214073 
0.0 0.1570667 0.36545235 0.0 0.62249726 0.5637368 
0.0 0.0 0.081794895 0.0 0.058922622 0.13124102 
0.0 0.0 0.0 0.0 0.0 0.07698792 
0.0 0.0 0.0 0.0 0.0 0.07698792 
1.5799513 0.0 0.0 0.20283979 0.88168 1.4245455 
1.8505213 0.38308522 0.0 0.5834289 1.5752263 1.6617701 
0.7777454 1.2929131 1.8685225 1.2009248 1.8158542 1.3622398 
0.45271176 1.3336024 2.2279816 1.3077518 1.8638493 0.6971364 
0.803999 1.3688127 1.2598007 1.260977 2.3992126 1.0333123 
0.7922091 1.5434989 0.7774914 1.0872169 2.9383972 1.5024507 
0.5023244 1.4451061 0.32474786 1.0323443 2.8946946 1.6318908 
0.0 1.127486 0.0 0.9051084 2.8329737 1.4690177 
0.0 0.5355983 0.056562133 0.14815222 1.845497 1.2542076 
0.0 0.0 0.1708313 0.0 0.45760706 0.46355507 
0.0 0.0 0.0922023 0.0 0.044506352 0.10459685 
0.0 0.0 0.0 0.0 0.0 0.07698792 
0.0 0.0 0.0 0.0 0.0 0.07698792 
0.0 0.0 0.0 0.0 0.0 0.07698792 
0.79351145 0.0 0.0 0.0 0.75083256 0.9489838 
1.1980422 0.0 0.0 0.19967628 1.5660735 1.7947853 
0.9150258 0.31445763 0.0 1.1037278 2.2812898 1.9567251 
0.38888195 0.48504344 0.0 1.2096511 2.542625 1.9007168 
0.41777664 0.6255828 0.0 1.1807466 2.6916406 1.9109571 
0.0 0.72927785 0.0 0.8999282 2.6494684 1.7590618 
0.0 0.43941805 0.0 0.17199655 2.0208964 1.4596078 
0.0 0.0 0.0 0.0 0.9141609 0.79530686 
0.0 0.0 0.07553557 0.0 0.26366344 0.2885275 
0.0 0.0 0.0 0.0 0.0 0.086319596 
0.0 0.0 0.0 0.0 0.0 0.07698792 
0.0 0.0 0.0 0.0 0.0 0.07698792 
0.0 0.0 0.0 0.0 0.0 0.07698792 
0.0 0.0 0.0 0.0 0.0 0.07698792 
0.05716352 0.0 0.0 0.0 0.14070627 0.16363057 
0.5095327 0.0 0.0 0.0 0.7673244 0.6759001 
0.4526943 0.0 0.0 0.0 1.1438736 1.0322487 
0.22082755 0.0 0.0 0.0 1.2224118 1.0868871 
0.15841453 0.0 0.0 0.0 1.1992415 1.0349932 
0.0 0.0 0.0 0.0 0.75866276 0.6156351 
0.0 0.0 0.0 0.0 0.27968106 0.25842246 
0.0 0.0 0.0 0.0 0.008636545 0.10422425 
0.0 0.0 0.0 0.0 0.0 0.07698792 
0.0 0.0 0.0 0.0 0.0 0.07698792 
0.0 0.0 0.0 0.0 0.0 0.07698792 
0.0 0.0 0.0 0.0 0.0 0.07698792 
0.0 0.0 0.0 0.0 0.0 0.07698792 
0.0 0.0 0.0 0.0 0.0 0.07698792 
0.0 0.0 0.0 0.0 0.0 0.07698792 
0.0 0.0 0.0 0.0 0.0 0.07698792 
0.0 0.0 0.0 0.0 0.0 0.07698792 
0.0 0.0 0.0 0.0 0.0 0.07698792 
0.0 0.0 0.0 0.0 0.0 0.07698792 
0.0 0.0 0.0 0.0 0.0 0.07698792 
0.0 0.0 0.0 0.0 0.0 0.07698792 
0.0 0.0 0.0 0.0 0.0 0.07698792 
0.0 0.0 0.0 0.0 0.0 0.07698792 
0.0 0.0 0.0 0.0 0.0 0.07698792 
0.0 0.0 0.0 0.0 0.0 0.07698792 
0.0 0.0 0.0 0.0 0.0 0.07698792 
0.0 0.0 0.0 0.0 0.0 0.07698792 

