0.0 0.0 0.0 0.0 0.0 0.07698792 
0.0 0.0 0.0 0.0 0.0 0.07698792 
0.0 0.0 0.0 0.0 0.0 0.07698792 
0.0 0.0 0.0 0.0 0.0 0.07698792 
0.0 0.0 0.0 0.0 0.0 0.07698792 
0.0 0.0 0.0 0.0 0.0 0.07698792 
0.0 0.0 0.0 0.0 0.0 0.07698792 
0.0 0.0 0.0 0.0 0.0 0.07698792 
0.0 0.0 0.0 0.0 0.0 0.07698792 
0.0 0.0 0.0 0.0 0.0 0.07698792 
0.0 0.0 0.0 0.0 0.0 0.07698792 
0.0 0.0 0.0 0.0 0.0 0.07698792 
0.0 0.0 0.0 0.0 0.0 0.07698792 
0.0 0.0 0.0 0.0 0.0 0.07698792 
0.0 0.0 0.0 0.0 0.0 0.07698792 
0.0 0.0 0.0 0.0 0.0 0.07698792 
0.0 0.0 0.0 0.0 0.0 0.07698792 
0.0 0.0 0.0 0.0 0.0 0.07698792 
0.0 0.0 0.0 0.0 0.0 0.07698792 
0.0 0.0 0.0 0.0 0.0 0.07698792 
0.0 0.0 0.0 0.0 0.0 0.07698792 
0.0 0.0 0.0 0.0 0.0 0.07698792 
0.0 0.0 0.0 0.0 0.0 0.07698792 
0.0 0.0 0.0 0.0 0.0 0.07698792 
0.0 0.0 0.0 0.0 0.0 0.07698792 
0.0 0.0 0.0 0.0 0.0 0.07698792 
0.0 0.0 0.0 0.0 0.0 0.07698792 
0.0 0.0 0.0 0.0 0.0 0.07698792 
0.0 0.0 0.0 0.0 0.0 0.07698792 
0.0 0.0 0.0 0.0 0.0 0.07698792 
0.0 0.0 0.0 0.0 0.0 0.07698792 
0.0 0.0 0.0 0.0 0.0 0.07698792 
0.0 0.0 0.0 0.0 0.0 0.07698792 
0.0 0.0 0.0 0.0 0.0 0.07698792 
0.0 0.0 0.0 0.0 0.0 0.07698792 
0.0 0.0 0.0 0.0 0.0 0.07698792 
0.0 0.0 0.0 0.0 0.0 0.07698792 
0.0 0.0 0.0 0.0 0.0 0.07698792 
0.0 0.0 0.0 0.0 0.0 0.07698792 
0.0 0.0 0.0 0.0 0.0 0.07698792 
0.0 0.0 0.0 0.0 0.0 0.07698792 
0.0 0.0 0.0 0.0 0.0 0.07698792 
0.0 0.0 0.0 0.0 0.0 0.07698792 
0.0 0.0 0.0 0.0 0.0 0.07698792 
0.0 0.0 0.0 0.0 0.0 0.07698792 
0.0 0.0 0.0 0.0 0.0 0.07698792 
0.0 0.0 0.0 0.0 0.0 0.07698792 
0.0 0.0 0.0 0.0 0.0 0.07698792 
0.011781588 0.047356807 0.005089961 0.0 0.0 0.07698792 
0.0 0.06712226 0.0 0.0 0.0 0.07698792 
0.0 0.041795574 0.0 0.0 0.0 0.07698792 
0.004673168 0.0033629062 0.018832155 0.0 0.0 0.07698792 
0.2697537 0.11555272 0.24694872 0.0 0.0 0.07698792 
0.36507326 0.4957464 0.32189232 0.0 0.0 0.04109489 
0.0 0.51447916 0.24221697 0.0 0.13412064 0.0 
0.0 0.1149831 0.013414279 0.0 0.14026378 0.07698792 
0.0 0.0 0.0 0.0 0.0 0.07698792 
0.0 0.0 0.0 0.0 0.0 0.07698792 
0.0 0.0 0.0 0.0 0.0 0.07698792 
0.0 0.0 0.0 0.0 0.0 0.07698792 
0.17422011 0.0 0.14179972 0.0 0.0 0.07698792 
0.65150493 0.16772988 0.35045207 0.0 0.0 0.0 
0.8568879 0.73241156 0.70821357 0.0 0.0 0.0 
0.48326814 1.1329652 1.1346052 0.0 0.320932 0.0 
0.39651906 0.97043747 1.1084913 0.0 0.22352333 0.0 
0.6318773 0.78688735 0.7720988 0.0 0.09483026 0.0 
0.706212 0.7444586 0.7201283 0.0 0.70668274 0.0 
0.7397647 1.1431856 0.8618607 0.6150447 1.3998942 0.0 
0.0 1.0925593 1.10456 0.67795384 1.2412554 0.08834569 
0.0 0.24820131 0.44651616 0.17659846 0.34693936 0.07698792 
0.0 0.0 0.0 0.0 0.0 0.07698792 
0.0 0.0 0.0 0.0 0.0 0.07698792 
0.0 0.0 0.0 0.0 0.0 0.07698792 
0.0 0.0 0.0 0.0 0.0 0.07698792 
0.9630099 0.0 0.07475727 0.0 0.0 0.06463589 
1.3498058 0.5602079 0.23401433 0.45209846 0.7539003 0.0 
0.82561 1.3771616 0.64389837 1.1854199 2.1321714 0.8208528 
0.08910377 0.86683494 1.2200961 1.5568495 1.7367717 1.2289121 
0.31395 0.8001633 1.2695969 1.8182063 1.3649731 1.1707249 
0.308104 0.94389814 0.77141297 1.7446991 1.7393454 1.3276489 
0.12896185 0.91405165 0.6910958 1.5094699 1.7787623 1.5361605 
0.018015131 1.210792 0.5072341 1.4836321 1.8100563 1.3796184 
0.0 0.9751535 1.0117041 0.8917715 0.8341313 0.5862331 
0.0 0.21170199 0.5145744 0.22222973 0.0628462 0.13342756 
0.0 0.0 0.0 0.0 0.0 0.07698792 
0.0 0.0 0.0 0.0 0.0 0.07698792 
0.0 0.0 0.0 0.0 0.0 0.07698792 
0.0 0.0 0.0 0.017639231 0.0 0.12997305 
1.8120112 0.0 0.0 0.20707828 0.2801439 0.7598664 
1.8618588 1.3794814 0.0 0.21925351 1.7436914 0.49098155 
0.0 1.6162742 0.7877873 0.05691111 2.4373765 0.90236086 
0.4723326 0.6151176 0.25543177 0.0 1.6389303 1.4745898 
0.3363951 0.26697266 0.0 0.28465128 1.5610771 1.5269816 
0.19430521 0.42419752 0.0 0.24691913 1.6108268 1.5746095 
0.07060358 0.07955337 0.0 0.0 1.3833642 1.3407161 
0.0 0.0 0.0 0.0 0.87049264 0.7620846 
0.0 0.0 0.05802366 0.0 0.2860902 0.29585814 
0.0 0.0 0.0 0.0 0.0 0.08406519 
0.0 0.0 0.0 0.0 0.0 0.07698792 
0.14792973 0.0 0.106697686 0.0 0.0 0.07698792 
0.4579051 0.3362402 0.31966206 0.0 0.0 0.0 
0.21592164 0.6063717 0.55511117 0.0 0.070447996 0.07500437 
1.6301296 0.0 0.0 0.38389516 0.8567702 1.3167849 
1.6150818 0.8470188 0.0 0.40162194 1.3039967 0.9275502 
0.49330992 1.2726645 1.8799647 0.52285063 1.3042421 0.09008313 
0.49354428 1.685108 1.7402097 0.5278133 1.4927257 0.0 
0.0 1.7420788 1.6145192 0.3779162 1.5609998 0.0 
0.0 0.5762757 0.85479546 0.10426275 0.74241406 0.049465246 
0.0 0.0 0.0 0.0 0.0 0.106174245 
0.0 0.0 0.0 0.0 0.0 0.07698792 
0.0 0.0 0.0 0.0 0.0 0.07698792 
0.0 0.0 0.0 0.0 0.0 0.07698792 
0.0 0.0 0.0 0.0 0.0 0.07698792 
0.3260047 0.0 0.0 0.18343446 0.005370315 0.4596757 
0.8987238 0.20704666 0.31158113 0.8281652 0.27082673 0.6244897 
0.62336576 0.95203775 1.1536089 1.3458694 0.82531995 0.44674373 
1.4244285 0.7095777 0.8833181 0.8969776 1.6678405 0.46428898 
1.2987626 0.7961188 0.0 0.45428348 2.348817 1.0799649 
0.7823655 1.329421 0.70651037 0.74868387 2.8962252 1.6492126 
0.39035076 2.0167305 1.2297282 1.0578209 3.004968 1.6741076 
0.0 1.9171716 1.64267 1.0170561 1.824726 0.8237078 
0.0 0.52678585 1.0926495 0.4390938 0.4873143 0.27902836 
0.0 0.0 0.0 0.0 0.0 0.07698792 
0.0 0.0 0.0 0.0 0.0 0.07698792 
0.0 0.0 0.0 0.0 0.0 0.07698792 
0.0 0.0 0.0 0.0 0.0 0.07698792 
0.0 0.0 0.0 0.0 0.0 0.07698792 
0.31183684 0.0 0.0 0.14219485 0.3180144 0.4766485 
0.7151986 0.0 0.0 0.59127647 0.9302297 1.1647644 
0.521942 0.4393169 0.13924643 1.6135441 1.3098639 1.6075699 
0.46873224 0.6184855 0.37936053 1.8110007 1.5494874 1.6816332 
0.4542243 0.70787674 0.0 1.6150649 2.1089416 1.621481 
0.33576286 0.50108296 0.0 1.1646556 2.3436773 1.7380581 
0.030054234 0.5839665 0.0 0.6087259 2.1403415 1.6276581 
0.0 0.32401586 0.46993023 0.05724899 0.8270023 0.75165695 
0.0 0.0 0.33421153 0.0 0.13421264 0.18499446 
0.0 0.0 0.0 0.0 0.0 0.07698792 
0.0 0.0 0.0 0.0 0.0 0.07698792 
0.0 0.0 0.0 0.0 0.0 0.07698792 
0.0 0.0 0.0 0.0 0.0 0.07698792 
0.0 0.0 0.0 0.0 0.0 0.07698792 
0.0 0.0 0.0 0.0 0.008416634 0.1060751 
0.328328 0.0 0.0 0.0 0.567416 0.37620014 
0.32437983 0.0 0.0 0.0 0.8854261 0.62642306 
0.27469003 0.0 0.0 0.0 1.0982164 0.8002938 
0.15568185 0.0 0.0 0.0 1.0769744 0.76629525 
0.025065087 0.0 0.0 0.0 0.89964485 0.5974533 
0.0 0.0 0.0 0.0 0.43623844 0.3294766 
0.0 0.0 0.010972396 0.0 0.10340127 0.15863141 
0.0 0.0 0.0 0.0 0.0 0.07698792 
0.0 0.0 0.0 0.0 0.0 0.07698792 
0.0 0.0 0.0 0.0 0.0 0.07698792 
0.0 0.0 0.0 0.0 0.0 0.07698792 
0.0 0.0 0.0 0.0 0.0 0.07698792 
0.0 0.0 0.0 0.0 0.0 0.07698792 
0.0 0.0 0.0 0.0 0.0 0.07698792 
0.0 0.0 0.0 0.0 0.0 0.07698792 
0.0 0.0 0.0 0.0 0.0 0.07698792 
0.0 0.0 0.0 0.0 0.0 0.07698792 
0.0 0.0 0.0 0.0 0.0 0.07698792 
0.0 0.0 0.0 0.0 0.0 0.07698792 
0.0 0.0 0.0 0.0 0.0 0.07698792 
0.0 0.0 0.0 0.0 0.0 0.07698792 
0.0 0.0 0.0 0.0 0.0 0.07698792 
0.0 0.0 0.0 0.0 0.0 0.07698792 
0.0 0.0 0.0 0.0 0.0 0.07698792 
0.0 0.0 0.0 0.0 0.0 0.07698792 
0.0 0.0 0.0 0.0 0.0 0.07698792 
0.0 0.0 0.0 0.0 0.0 0.07698792 
0.0 0.0 0.0 0.0 0.0 0.07698792 
0.0 0.0 0.0 0.0 0.0 0.07698792 
0.0 0.0 0.0 0.0 0.0 0.07698792 
0.0 0.0 0.0 0.0 0.0 0.07698792 
0.0 0.0 0.0 0.0 0.0 0.07698792 
0.0 0.0 0.0 0.0 0.0 0.07698792 
0.0 0.0 0.0 0.0 0.0 0.07698792 
0.0 0.0 0.0 0.0 0.0 0.07698792 
0.0 0.0 0.0 0.0 0.0 0.07698792 
0.0 0.0 0.0 0.0 0.0 0.07698792 
0.0 0.0 0.0 0.0 0.0 0.07698792 
0.0 0.0 0.0 0.0 0.0 0.07698792 
0.0 0.0 0.0 0.0 0.0 0.07698792 
0.0 0.0 0.0 0.0 0.0 0.07698792 
0.0 0.0 0.0 0.0 0.0 0.07698792 
0.0 0.0 0.0 0.0 0.0 0.07698792 
0.0 0.0 0.0 0.0 0.0 0.07698792 
0.0 0.0 0.0 0.0 0.0 0.07698792 
0.0 0.0 0.0 0.0 0.0 0.07698792 
0.0 0.0 0.0 0.0 0.0 0.07698792 
0.0 0.0 0.0 0.0 0.0 0.07698792 
0.0 0.0 0.0 0.0 0.0 0.07698792 
0.0 0.0 0.0 0.0 0.0 0.07698792 
0.0 0.0 0.0 0.0 0.0 0.07698792 
0.0 0.0 0.0 0.0 0.0 0.07698792 
0.0 0.0 0.0 0.0 0.0 0.07698792 
0.0 0.0 0.0 0.0 0.0 0.07698792 

