0.0 0.0 0.0 0.0 0.0 0.07698792 
0.0 0.0 0.0 0.0 0.0 0.07698792 
0.0 0.0 0.0 0.0 0.0 0.07698792 
0.0 0.0 0.0 0.0 0.0 0.07698792 
0.0 0.0 0.0 0.0 0.0 0.07698792 
0.0 0.0 0.0 0.0 0.0 0.07698792 
0.0 0.0 0.0 0.0 0.0 0.07698792 
0.0 0.0 0.0 0.0 0.0 0.07698792 
0.0 0.0 0.0 0.0 0.0 0.07698792 
0.0 0.0 0.0 0.0 0.0 0.07698792 
0.0 0.0 0.0 0.0 0.0 0.07698792 
0.0 0.0 0.0 0.0 0.0 0.07698792 
0.0 0.0 0.0 0.0 0.0 0.07698792 
0.0 0.0 0.0 0.0 0.0 0.07698792 
0.0 0.0 0.0 0.0 0.0 0.07698792 
0.0 0.0 0.0 0.0 0.0 0.07698792 
0.0 0.0 0.0 0.0 0.0 0.07698792 
0.0 0.0 0.0 0.0 0.0 0.07698792 
0.0 0.0 0.0 0.0 0.0 0.07698792 
0.0 0.00633886 0.0 0.0 0.0 0.07698792 
0.0 0.009583092 0.0 0.0 0.0 0.07698792 
0.022162244 0.03856948 0.024756454 0.0 0.0 0.07698792 
0.056352288 0.12956336 0.080824785 0.0 0.0 0.07698792 
0.14126481 0.1618461 0.19760138 0.0 0.0 0.07698792 
0.30198067 0.27027082 0.30092758 0.0 0.0 0.05511579 
0.15429932 0.4734369 0.23643088 0.0 0.07020511 0.0 
0.0 0.2662981 0.13185248 0.0 0.14575352 0.06604503 
0.0 0.0 0.0 0.0 0.0 0.07698792 
0.0 0.0 0.0 0.0 0.0 0.07698792 
0.0 0.0 0.0 0.0 0.0 0.07698792 
0.0 0.0 0.0 0.0 0.0 0.07698792 
0.0 0.0 0.0 0.0 0.0 0.07698792 
0.6341398 0.0 0.17339909 0.0 0.0 0.029849708 
0.86722827 0.6879228 0.70057625 0.0 0.0 0.0 
0.5409562 0.97716725 1.0406387 0.0 0.1726442 0.0 
0.55551565 0.9133149 1.0051831 0.0 0.20103355 0.0 
0.5747596 1.0393203 1.1298959 0.0 0.36361232 0.0 
0.5477446 1.0262061 1.173677 0.0 0.51897234 0.0 
0.65915424 1.0164326 1.028474 0.0 0.92644435 0.0 
0.19321194 1.4704641 1.2236282 0.1266106 1.260712 0.0 
0.0 0.92459184 1.1545411 0.112152636 0.8584998 0.0 
0.0 0.0 0.0 0.0 0.0 0.07698792 
0.0 0.0 0.0 0.0 0.0 0.07698792 
0.0 0.0 0.0 0.0 0.0 0.07698792 
0.0 0.0 0.0 0.0 0.0 0.07698792 
0.10592355 0.0 0.02499944 0.0 0.0 0.07698792 
1.5755882 0.0 0.064210154 0.15082964 0.0 0.37520525 
1.3255243 1.1412203 0.84229094 0.90509707 1.44672 0.4904441 
0.6099343 1.310997 1.5425907 1.7814147 1.9265208 1.1942439 
0.5230703 1.2359757 1.3928963 1.9006677 2.0698144 1.3749554 
0.47436994 1.1856092 1.2598206 1.7545666 2.1196666 1.5077426 
0.27429512 1.1781291 1.2012402 1.6752502 2.261688 1.6190028 
0.23664257 1.1271995 0.83663505 1.491936 2.2537286 1.6300066 
0.0 1.4616286 1.3056337 1.329688 1.7634404 1.1570709 
0.0 0.746186 1.363311 0.64548033 0.7442796 0.47493538 
0.0 0.0 0.0 0.0 0.0 0.07698792 
0.0 0.0 0.0 0.0 0.0 0.07698792 
0.0 0.0 0.0 0.0 0.0 0.07698792 
0.0 0.0 0.0 0.0 0.0 0.07698792 
0.47468477 0.0 0.0 0.054017354 0.0 0.3247086 
1.8994353 0.10106493 0.0 0.14538458 0.9448013 0.70667064 
1.218024 1.6643953 0.0 0.3523869 2.5900736 0.9816618 
0.16028734 1.0957729 0.0 0.88444877 2.8641365 1.8469679 
0.2821018 0.3773524 0.0 1.0195215 2.3382003 1.9377487 
0.2717514 0.34628657 0.0 0.7612239 2.2359598 1.9356349 
0.11462331 0.34406838 0.0 0.39900193 2.0483158 1.7528858 
0.05512552 0.23354423 0.0 0.0 1.6774609 1.5738697 
0.0 0.05077093 0.0 0.0 0.8554936 0.89237076 
0.0 0.0 0.22554201 0.0 0.2573009 0.34351382 
0.0 0.0 0.0 0.0 0.0 0.07698792 
0.0 0.0 0.0 0.0 0.0 0.07698792 
0.0 0.0 0.0 0.0 0.0 0.07698792 
0.0 0.0 0.0 0.0 0.0 0.07698792 
0.64852923 0.0 0.0 0.085933745 0.11273475 0.6477567 
1.879204 0.047318883 0.0 0.3710411 1.0098304 1.1918566 
0.9583722 1.325783 1.4426675 0.5069614 1.8398513 0.44732326 
0.1745567 1.1649379 2.0949025 0.364462 1.6355445 0.0 
0.2808865 1.2428784 1.4585919 0.0 1.035189 0.0 
0.0 1.3575416 1.335696 0.0 0.97528166 0.0 
0.0 0.71524245 0.5927831 0.0 0.5321322 0.1368006 
0.0 0.1043083 0.0 0.0 0.08357379 0.13152082 
0.0 0.0 0.0 0.0 0.0 0.079347014 
0.0 0.0 0.0 0.0 0.0 0.07698792 
0.0 0.0 0.0 0.0 0.0 0.07698792 
0.0 0.0 0.0 0.0 0.0 0.07698792 
0.0 0.0 0.0 0.0 0.0 0.07698792 
0.0 0.0 0.0 0.0 0.0 0.07698792 
0.545012 0.0 0.0 0.13547562 0.35700324 0.66017944 
1.2657726 0.0 0.0 0.59794295 1.281083 1.4604497 
0.8290677 0.73104274 0.31556183 1.4696846 1.7817353 1.7935863 
0.15862483 0.7710326 1.1035788 1.6654875 1.7755159 1.7674885 
0.42020455 0.82144654 1.4370515 1.5942168 1.3774086 1.7176216 
0.4956084 1.5705099 1.8839154 1.4151226 0.86522794 0.9167672 
0.0 1.7506888 2.1432774 0.6040983 0.9480867 0.0 
0.0 0.941796 0.941713 0.0 0.69603115 0.0 
0.0 0.041498538 0.0 0.0 0.0 0.07698792 
0.0 0.0 0.0 0.0 0.0 0.07698792 
0.0 0.0 0.0 0.0 0.0 0.07698792 
0.0 0.0 0.0 0.0 0.0 0.07698792 
0.0 0.0 0.0 0.0 0.0 0.07698792 
0.0 0.0 0.0 0.0 0.0 0.07698792 
0.14201275 0.0 0.0 0.0 0.2155966 0.24414542 
0.5736977 0.0 0.0 0.0 0.8893568 0.8560146 
0.5029489 0.0 0.0 0.0 1.2683406 1.2513709 
0.30395114 0.0 0.0 0.0 1.3475012 1.3744786 
0.63291186 0.0 0.0 0.0 1.4396497 1.8010714 
0.9658918 0.0 0.0 0.8062602 1.2931379 1.7134323 
0.76529425 1.7392659 2.1153104 0.96843016 0.9633066 0.79823184 
0.0 1.7213632 2.143973 0.317761 0.97047216 0.0 
0.0 0.3349217 0.3672064 0.0 0.5107034 0.060834125 
0.0 0.0 0.0 0.0 0.0 0.07698792 
0.0 0.0 0.0 0.0 0.0 0.07698792 
0.0 0.0 0.0 0.0 0.0 0.07698792 
0.3948524 0.08577682 0.25477082 0.0 0.0 0.06680607 
0.37539387 0.55487704 0.4922192 0.0 0.0 0.03265188 
0.16041681 0.60892415 0.48127365 0.0 0.0 0.07334029 
0.03354104 0.46382654 0.23691878 0.0 0.019546095 0.07698792 
0.0 0.1962789 0.04971712 0.0 0.030760419 0.07698792 
0.0 0.009131297 0.0 0.0 0.0 0.089365445 
0.3066587 0.0 0.0 0.0 0.45247605 0.37995008 
1.1769094 0.0 0.0 0.0 0.89857817 1.4561596 
1.5529509 0.46599704 0.0 0.19097671 0.92829573 1.2913804 
0.0 1.5184952 2.0834887 0.46145204 1.1833862 0.0 
0.0 0.900813 1.4123372 0.0 0.8545767 0.0 
0.0 0.0 0.0 0.0 0.0 0.07698792 
0.0 0.0 0.0 0.0 0.0 0.07698792 
0.0 0.0 0.0 0.0 0.0 0.07698792 
0.7648481 0.0 0.18535668 0.40643367 0.0 0.5386362 
0.9949586 0.8871897 0.90886325 1.0226117 0.52320963 0.28500375 
0.46298766 1.1560555 1.6561067 0.9016989 0.8646367 0.0 
0.25477117 1.3826375 1.688415 0.0 0.7526406 0.0 
0.27690405 1.3182466 1.5197109 0.0 0.45379576 0.0 
0.25709122 1.1263883 1.12002 0.0 0.28517023 0.0 
0.24371642 0.96309286 0.97485864 0.0 0.23932089 0.0 
1.015177 0.7298973 0.8118186 0.0 0.25890085 0.025724873 
1.808188 0.8856665 0.0 0.0 1.4448544 0.5600693 
0.06779294 1.4401389 1.5773327 0.03875615 1.7335211 0.0 
0.0 0.80349517 1.5699284 0.12083992 1.0150111 0.1034755 
0.0 0.0 0.0 0.0 0.0 0.07698792 
0.0 0.0 0.0 0.0 0.0 0.07698792 
0.0 0.0 0.0 0.0 0.0 0.07698792 
0.7928502 0.0 0.0 0.45999604 0.7973506 1.1019912 
0.8631093 0.20285922 0.0 1.3365738 1.432416 1.6988738 
0.583073 0.92407084 0.9160595 1.8650153 1.7605808 1.8990128 
0.34310204 1.0509526 1.551199 1.6611847 1.6649905 1.7887928 
0.44582242 1.152194 1.774463 1.8948373 1.503197 1.5781438 
0.39360598 1.3025602 1.702857 1.832256 1.4746429 1.0414615 
0.41604054 1.3603309 1.6591268 1.5123945 1.4997779 0.49691492 
0.75645417 1.1593055 1.348306 1.4414817 1.9610153 0.7445483 
0.99950796 1.4405789 0.27218992 1.3000479 2.47414 1.0966685 
0.0 1.5204538 1.0472233 0.72099936 2.0429275 0.6545538 
0.0 0.3665667 1.180605 0.21823601 0.7673847 0.28672397 
0.0 0.0 0.0 0.0 0.0 0.07698792 
0.0 0.0 0.0 0.0 0.0 0.07698792 
0.0 0.0 0.0 0.0 0.0 0.07698792 
0.3063144 0.0 0.0 0.0 0.4476166 0.36956382 
0.560593 0.0 0.0 0.0 0.99326116 0.9416154 
0.5818001 0.0 0.0 0.0 1.4650661 1.5580618 
0.5565155 0.0 0.0 0.028248515 1.7196575 1.8999257 
0.5520532 0.0 0.0 0.6891339 1.933808 1.9851522 
0.5027522 0.33311263 0.0 1.2625269 2.0380228 1.9436648 
0.34408104 0.6234485 0.0 1.4955442 2.0813096 1.801846 
0.2964136 0.81070936 0.0 1.5071627 2.2977664 1.7698412 
0.0 0.89153636 0.0 0.97182924 2.2669523 1.586133 
0.0 0.49839303 0.5229201 0.18502825 0.9187642 0.77936846 
0.0 0.0 0.44782948 0.016695354 0.16143769 0.2079006 
0.0 0.0 0.0 0.0 0.0 0.07698792 
0.0 0.0 0.0 0.0 0.0 0.07698792 
0.0 0.0 0.0 0.0 0.0 0.07698792 
0.0 0.0 0.0 0.0 0.0 0.07698792 
0.0 0.0 0.0 0.0 0.0 0.07698792 
0.0058474913 0.0 0.0 0.0 0.057601217 0.13281578 
0.1905573 0.0 0.0 0.0 0.40237838 0.30155253 
0.33708 0.0 0.0 0.0 0.7809273 0.5659288 
0.33834296 0.0 0.0 0.0 1.0617763 0.8053774 
0.24273068 0.0 0.0 0.0 1.1270937 0.89217025 
0.1192023 0.0 0.0 0.0 1.0919987 0.8244526 
0.0 0.0 0.0 0.0 0.5356698 0.44246566 
0.0 0.0 0.0 0.0 0.1466196 0.17270187 
0.0 0.0 0.0 0.0 0.0 0.07873821 
0.0 0.0 0.0 0.0 0.0 0.07698792 
0.0 0.0 0.0 0.0 0.0 0.07698792 
0.0 0.0 0.0 0.0 0.0 0.07698792 
0.0 0.0 0.0 0.0 0.0 0.07698792 
0.0 0.0 0.0 0.0 0.0 0.07698792 
0.0 0.0 0.0 0.0 0.0 0.07698792 
0.0 0.0 0.0 0.0 0.0 0.07698792 
0.0 0.0 0.0 0.0 0.0 0.07698792 
0.0 0.0 0.0 0.0 0.0 0.07698792 
0.0 0.0 0.0 0.0 0.0 0.07698792 
0.0 0.0 0.0 0.0 0.0 0.07698792 
0.0 0.0 0.0 0.0 0.0 0.07698792 
0.0 0.0 0.0 0.0 0.0 0.07698792 
0.0 0.0 0.0 0.0 0.0 0.07698792 
0.0 0.0 0.0 0.0 0.0 0.07698792 
0.0 0.0 0.0 0.0 0.0 0.07698792 

