0.0 0.0 0.0 0.0 0.0 0.07698792 
0.0 0.0 0.0 0.0 0.0 0.07698792 
0.0 0.0 0.0 0.0 0.0 0.07698792 
0.0 0.0 0.0 0.0 0.0 0.07698792 
0.0 0.0 0.0 0.0 0.0 0.07698792 
0.0 0.0 0.0 0.0 0.0 0.07698792 
0.0 0.0 0.0 0.0 0.0 0.07698792 
0.0 0.0 0.0 0.0 0.0 0.07698792 
0.0 0.0 0.0 0.0 0.0 0.07698792 
0.0 0.0 0.0 0.0 0.0 0.07698792 
0.0 0.0 0.0 0.0 0.0 0.07698792 
0.0 0.0 0.0 0.0 0.0 0.07698792 
0.0 0.0 0.0 0.0 0.0 0.07698792 
0.0 0.0 0.0 0.0 0.0 0.07698792 
0.0 0.0 0.0 0.0 0.0 0.07698792 
0.0 0.0 0.0 0.0 0.0 0.07698792 
0.0 0.0 0.0 0.0 0.0 0.07698792 
0.0 0.0 0.0 0.0 0.0 0.07698792 
0.0 0.0 0.0 0.0 0.0 0.07698792 
0.09821239 0.0 0.11134065 0.0 0.0 0.07698792 
0.280174 0.29672226 0.2654772 0.0 0.0 0.07698792 
0.12494661 0.41595218 0.32504964 0.0 0.0 0.07698792 
0.07635054 0.3825839 0.20318907 0.0 0.0 0.07698792 
0.0 0.1874493 0.061336555 0.0 0.015694026 0.07698792 
0.0 0.023720384 0.0 0.0 0.0 0.07698792 
0.0 0.0 0.0 0.0 0.0 0.07698792 
0.0 0.0 0.0 0.0 0.0 0.07698792 
0.0 0.0 0.0 0.0 0.0 0.07698792 
0.0 0.0 0.0 0.0 0.0 0.07698792 
0.0 0.0 0.0 0.0 0.0 0.07698792 
0.0 0.0 0.0 0.0 0.0 0.07698792 
0.16445726 0.0 0.1406678 0.0 0.0 0.0754795 
0.7100478 0.12629667 0.34951937 0.0 0.0 0.0 
0.9858435 0.6008814 0.6526134 0.0 0.0 0.0 
0.9131504 0.89674956 0.96293175 0.0 0.67657715 0.0 
0.5101773 1.2075695 1.6102816 0.0 0.8849468 0.0 
0.33592314 1.4782284 1.6130668 0.0 0.85180634 0.0 
0.0 1.411388 1.1467588 0.0 0.91914207 0.0 
0.0 0.28490388 0.3308459 0.0 0.3811951 0.0728192 
0.0 0.073535755 0.0 0.0 0.0 0.07698792 
0.0 0.030159324 0.0 0.0 0.0 0.07698792 
0.0 0.0 0.0 0.0 0.0 0.07698792 
0.0 0.0 0.0 0.0 0.0 0.07698792 
0.0 0.0 0.0 0.0 0.0 0.07698792 
0.0 0.0 0.0 0.0 0.0 0.07698792 
0.9108021 0.0 0.06081923 0.0 0.0 0.22097135 
1.5085688 0.56871015 0.25844988 0.46620032 0.6219869 0.11118757 
0.9644217 1.4858799 0.6674486 0.9603587 2.4397473 0.7151471 
0.45462644 1.124719 0.5323198 1.3070726 2.6377175 1.6793981 
0.2565738 1.0592993 1.1719624 1.7453978 1.9822506 1.8771393 
0.33023566 1.4257998 1.4575053 1.6154764 1.6933781 1.779012 
0.0 1.5561417 1.800655 1.0849679 1.2551942 0.39093804 
0.611027 0.750223 1.4259957 0.0 0.27054778 0.0 
0.0649119 1.1766989 0.82265913 0.0 0.62087303 0.0 
0.0 0.40064028 0.39524615 0.0 0.5327455 0.044085044 
0.0 0.0 0.0 0.0 0.0 0.07698792 
0.0 0.0 0.0 0.0 0.0 0.07698792 
0.0 0.0 0.0 0.0 0.0 0.07698792 
0.0 0.0 0.0 0.0 0.0 0.07698792 
1.420721 0.0 0.0 0.24264383 0.30546233 0.9889272 
2.0572438 0.917994 0.0 0.43379027 1.7616985 1.0136869 
0.33304363 1.5973278 0.49335164 0.35092652 2.729952 0.99258614 
0.04215353 0.73402894 0.0 0.0 2.3543475 1.5753338 
0.38392055 0.033433426 0.0 0.0 1.5111555 1.6690161 
0.80062526 0.0 0.0 0.0 1.4998218 1.7333431 
1.344713 0.23973987 1.0108473 0.0 0.43861768 0.5287851 
1.1797931 1.6436018 1.2225722 0.25938037 1.8986952 0.0 
0.0 1.9909688 1.7582275 0.47195065 1.812861 0.0 
0.0 0.7216653 1.2813796 0.29699445 0.7827212 0.06953166 
0.0 0.0 0.0 0.0 0.0 0.07698792 
0.0 0.0 0.0 0.0 0.0 0.07698792 
0.0 0.0 0.0 0.0 0.0 0.07698792 
0.0 0.0 0.0 0.0 0.0 0.07698792 
1.2713957 0.0 0.0 0.14316797 0.6475056 1.1531727 
1.8362222 0.60458314 0.0 0.2141284 1.4222261 1.4366975 
0.096520215 1.5770438 1.9367218 0.21776715 1.6722882 0.0011355877 
0.0 1.0541505 1.6526359 0.0 0.9996633 0.022309732 
0.51840943 0.07369402 0.19172052 0.0 0.0 0.091004655 
1.7135713 0.03537497 0.15018758 0.0 0.04615191 0.0 
1.7199998 1.1176051 0.0 0.2298499 2.3588548 0.5207304 
0.93169016 1.8744152 0.26795062 0.49639213 2.9314127 0.9477621 
0.0 1.7642471 1.3819704 0.48452944 2.1040747 0.7149174 
0.0 0.3262546 1.1216382 0.26842055 0.5632766 0.25914186 
0.0 0.0 0.0 0.0 0.0 0.07698792 
0.0 0.0 0.0 0.0 0.0 0.07698792 
0.0 0.0 0.0 0.0 0.0 0.07698792 
0.0 0.0 0.0 0.0 0.0 0.07698792 
0.6807309 0.0 0.0 0.0 0.5848076 0.7982511 
1.2242725 0.0 0.0 0.2160576 0.8970375 1.4126294 
1.0047114 1.3964944 1.6965852 0.36637238 0.9304494 0.9110192 
0.0 1.4867015 2.1229477 0.23291801 0.8866931 0.0 
1.3710701 0.500621 0.9906471 0.0 0.34018567 0.0 
1.6311154 1.1250852 0.11234615 0.2926809 2.487703 0.46361366 
0.92129743 1.4731007 0.0 0.47956005 2.8977067 1.2040489 
0.0 1.293589 0.07540163 0.44324657 2.8848906 1.2143958 
0.0 0.40783238 0.5812044 0.14579718 0.9503682 0.7045068 
0.0 0.0 0.32806718 0.0 0.11377989 0.15926331 
0.0 0.0 0.0 0.0 0.0 0.07698792 
0.0 0.0 0.0 0.0 0.0 0.07698792 
0.0 0.0 0.0 0.0 0.0 0.07698792 
0.0 0.0 0.0 0.0 0.0 0.07698792 
0.060846463 0.0 0.0 0.0 0.13981777 0.16916502 
1.037766 0.0 0.0 0.0 0.73932636 1.1800463 
1.5946233 0.12879193 0.0 0.15667155 0.67533153 1.2413659 
1.1234136 1.2279894 2.153523 0.5227199 1.4118522 0.19509834 
0.92944175 1.6613427 1.4234622 0.51981074 2.7723377 0.4858766 
0.60914165 1.593202 0.0 0.6668059 2.8546054 1.1720054 
0.0 1.1625296 0.22242647 0.43051073 2.6174142 1.1532645 
0.0 0.16221997 0.2887428 0.0 0.8799663 0.6556638 
0.0 0.0 0.060034946 0.0 0.1678434 0.20106693 
0.0 0.0 0.0 0.0 0.0 0.07752062 
0.0 0.0 0.0 0.0 0.0 0.07698792 
0.0 0.0 0.0 0.0 0.0 0.07698792 
0.0 0.0 0.0 0.0 0.0 0.07698792 
0.0 0.0 0.0 0.0 0.0 0.07698792 
0.0 0.0 0.0 0.0 0.0 0.07698792 
1.0566099 0.0 0.046224006 0.0 0.0 0.20567158 
1.968735 0.350233 0.0 0.0 1.2616256 0.59363323 
1.557708 1.143781 0.23816615 0.026537102 2.6328824 0.8798178 
0.47487932 1.9262375 0.6233455 0.26331884 2.9497879 0.56069064 
0.0 1.4160761 1.0270969 0.0 2.5837708 0.7424661 
0.0 0.041364178 0.16244584 0.0 0.5803154 0.5244669 
0.0 0.0 0.12026215 0.0 0.091771275 0.13536632 
0.0 0.0 0.0 0.0 0.0 0.07698792 
0.0 0.0 0.0 0.0 0.0 0.07698792 
0.0 0.0 0.0 0.0 0.0 0.07698792 
0.0 0.0 0.0 0.0 0.0 0.07698792 
0.0 0.0 0.0 0.0 0.0 0.07698792 
0.0 0.0 0.0 0.0 0.0 0.07698792 
0.102642596 0.0 0.032465383 0.0 0.0 0.07698792 
1.7946801 0.0 0.0 0.011417446 0.18881576 0.5561382 
1.892412 1.31678 0.0 0.2581593 2.314534 0.6097402 
0.7253132 1.1145201 0.0 0.459706 2.6498034 1.5318217 
0.6415432 1.6772009 0.9946066 0.22583503 2.3423991 0.7028213 
0.0 1.6655842 1.9650255 0.0 1.4163097 0.0 
0.0 0.23343217 0.309421 0.0 0.49054083 0.07698792 
0.0 0.0 0.0 0.0 0.0 0.07698792 
0.0 0.0 0.0 0.0 0.0 0.07698792 
0.0 0.0 0.0 0.0 0.0 0.07698792 
0.0 0.0 0.0 0.0 0.0 0.07698792 
0.0 0.0 0.0 0.0 0.0 0.07698792 
0.0 0.0 0.0 0.0 0.0 0.07698792 
0.0 0.0 0.0 0.0 0.0 0.07698792 
0.3897726 0.0 0.0 0.08513874 0.0 0.35708582 
2.0496016 0.0 0.0 0.18734398 0.87936425 0.8061593 
1.3951058 1.5768158 0.32721597 0.007797447 2.3434691 0.3489111 
1.26173 0.9148125 1.0726174 0.0 2.0917792 0.93170166 
1.2555847 1.5675526 0.2576033 0.0 2.1665561 0.40671667 
0.0 1.6914914 2.0395646 0.30342948 1.9245168 0.22158904 
0.0 0.4182085 0.9365711 0.21525165 0.55447143 0.07698792 
0.0 0.0 0.0 0.0 0.0 0.07698792 
0.0 0.0 0.0 0.0 0.0 0.07698792 
0.0 0.0 0.0 0.0 0.0 0.07698792 
0.0 0.0 0.0 0.0 0.0 0.07698792 
0.0 0.0 0.0 0.0 0.0 0.07698792 
0.0 0.0 0.0 0.0 0.0 0.07698792 
0.0 0.0 0.0 0.0 0.0 0.07698792 
0.4483453 0.0 0.0 0.1289575 0.2489822 0.5221417 
1.9212806 0.0 0.0 0.4083074 1.096371 1.4870389 
1.2567675 1.1703087 0.80422497 1.379428 1.6210282 1.3589694 
0.8405641 0.9960064 1.492795 1.4960526 2.713692 1.4456971 
0.62367785 1.7706201 0.07862108 1.0507429 2.7040226 1.2395473 
0.0 1.311456 1.3506674 0.44810143 1.7973562 0.7035168 
0.0 0.18833646 0.831322 0.23765092 0.22261278 0.14470276 
0.0 0.0 0.0 0.0 0.0 0.07698792 
0.0 0.0 0.0 0.0 0.0 0.07698792 
0.0 0.0 0.0 0.0 0.0 0.07698792 
0.0 0.0 0.0 0.0 0.0 0.07698792 
0.0 0.0 0.0 0.0 0.0 0.07698792 
0.0 0.0 0.0 0.0 0.0 0.07698792 
0.0 0.0 0.0 0.0 0.0 0.07698792 
0.22830617 0.0 0.0 0.0 0.22771625 0.34574136 
1.0858343 0.0 0.0 0.16015527 1.212815 1.4587469 
0.80325043 0.0 0.0 0.88468564 2.0125976 1.8996179 
0.3231624 0.6397684 0.0 1.1988901 2.2911935 1.947195 
0.0 0.73835534 0.07783141 0.5481036 1.9426085 1.3903048 
0.0 0.12830736 0.45485425 0.0 0.5498143 0.5410428 
0.0 0.0 0.07961159 0.0 0.035713214 0.09489812 
0.0 0.0 0.0 0.0 0.0 0.07698792 
0.0 0.0 0.0 0.0 0.0 0.07698792 
0.0 0.0 0.0 0.0 0.0 0.07698792 
0.0 0.0 0.0 0.0 0.0 0.07698792 
0.0 0.0 0.0 0.0 0.0 0.07698792 
0.0 0.0 0.0 0.0 0.0 0.07698792 
0.0 0.0 0.0 0.0 0.0 0.07698792 
0.0 0.0 0.0 0.0 0.0 0.0930787 
0.31520677 0.0 0.0 0.0 0.5343088 0.3614425 
0.31261808 0.0 0.0 0.0 0.8398505 0.5342056 
0.11396229 0.0 0.0 0.0 0.87751263 0.5365333 
0.0 0.0 0.0 0.0 0.3444638 0.27447844 
0.0 0.0 0.04673659 0.0 0.046883073 0.10217323 
0.0 0.0 0.0 0.0 0.0 0.07698792 
0.0 0.0 0.0 0.0 0.0 0.07698792 
0.0 0.0 0.0 0.0 0.0 0.07698792 
0.0 0.0 0.0 0.0 0.0 0.07698792 
0.0 0.0 0.0 0.0 0.0 0.07698792 

