0.0 0.0 0.0 0.0 0.0 0.07698792 
0.0 0.0 0.0 0.0 0.0 0.07698792 
0.0 0.0 0.0 0.0 0.0 0.07698792 
0.0 0.0 0.0 0.0 0.0 0.07698792 
0.0 0.0 0.0 0.0 0.0 0.07698792 
0.0 0.0 0.0 0.0 0.0 0.07698792 
0.0 0.0 0.0 0.0 0.0 0.07698792 
0.0 0.0 0.0 0.0 0.0 0.07698792 
0.0 0.0 0.0 0.0 0.0 0.07698792 
0.0 0.0 0.0 0.0 0.0 0.07698792 
0.0 0.0 0.0 0.0 0.0 0.07698792 
0.0 0.0 0.0 0.0 0.0 0.07698792 
0.0 0.0 0.0 0.0 0.0 0.07698792 
0.0 0.0 0.0 0.0 0.0 0.07698792 
0.0 0.0 0.0 0.0 0.0 0.07698792 
0.0 0.0 0.0 0.0 0.0 0.07698792 
0.0 0.0 0.0 0.0 0.0 0.07698792 
0.0 0.0 0.0 0.0 0.0 0.07698792 
0.0 0.0 0.0 0.0 0.0 0.07698792 
0.0 0.0 0.0 0.0 0.0 0.07698792 
0.0 0.0 0.0 0.0 0.0 0.07698792 
0.0 0.0 0.0 0.0 0.0 0.07698792 
0.0 0.0 0.0 0.0 0.0 0.07698792 
0.0 0.0 0.0 0.0 0.0 0.07698792 
0.0 0.0 0.0 0.0 0.0 0.07698792 
0.0 0.0 0.0 0.0 0.0 0.07698792 
0.0 0.0 0.0 0.0 0.0 0.07698792 
0.0 0.0 0.0 0.0 0.0 0.07698792 
0.0 0.0 0.0 0.0 0.0 0.07698792 
0.0 0.0 0.0 0.0 0.0 0.07698792 
0.0 0.0 0.0 0.0 0.0 0.07698792 
0.012162559 0.0 0.037766874 0.0 0.0 0.07698792 
0.6727292 0.03174577 0.24379277 0.0 0.0 0.008315831 
0.88651943 0.88814133 0.79208696 0.0 0.0 0.0 
0.24421024 1.1359599 1.0689958 0.0 0.307933 0.0 
0.112835824 0.8671957 0.87194824 0.0 0.13677925 0.0 
0.021542959 0.73730636 0.4165196 0.0 0.15457706 0.0 
0.0 0.2834808 0.114226155 0.0 0.13725466 0.07698792 
0.0 0.0 0.0 0.0 0.0 0.07698792 
0.0 0.0 0.0 0.0 0.0 0.07698792 
0.0 0.0 0.0 0.0 0.0 0.07698792 
0.0 0.0 0.0 0.0 0.0 0.07698792 
0.0 0.0 0.0 0.0 0.0 0.07698792 
0.0 0.0 0.0 0.0 0.0 0.07698792 
0.0 0.0 0.0 0.0 0.0 0.07698792 
0.07906228 0.0 0.0 0.059137303 0.0 0.2183271 
0.8592054 0.0 0.0 0.7603571 0.53521097 0.907683 
0.8398684 0.43237427 0.6456249 1.5057184 1.083331 1.2218328 
0.47348619 1.0203907 1.5149397 1.6430463 1.0522085 1.0406103 
0.6854634 1.1437825 1.5459361 1.1931907 0.8454132 0.123589106 
0.0 1.7983558 1.7322215 0.3827064 1.3706521 0.0 
0.0 1.2168217 1.349481 0.0 0.99511534 0.0 
0.0 0.01480621 0.0 0.0 0.018215898 0.07698792 
0.0 0.0 0.0 0.0 0.0 0.07698792 
0.0 0.0 0.0 0.0 0.0 0.07698792 
0.0 0.0 0.0 0.0 0.0 0.07698792 
0.0 0.0 0.0 0.0 0.0 0.07698792 
0.0 0.0 0.0 0.0 0.0 0.07698792 
0.0 0.0 0.0 0.0 0.0 0.07698792 
0.06907165 0.0 0.0 0.09109332 0.12039152 0.23721428 
0.6563337 0.0 0.0 0.07388162 0.86681104 1.0605044 
0.91206366 0.027398419 0.0 0.007870411 1.129688 1.5320144 
1.7235637 0.0993757 0.0 0.25783718 1.0662725 1.3843131 
1.421 1.3747506 0.5631638 0.6961773 2.6220455 0.8756034 
0.0 2.0663052 1.8913947 0.7819631 2.5777895 0.7255632 
0.0 1.2251633 1.7922815 0.5816885 1.1415474 0.4969738 
0.0 0.043169964 0.046997853 0.035501063 0.0 0.08809968 
0.0 0.0 0.0 0.0 0.0 0.07698792 
0.0 0.0 0.0 0.0 0.0 0.07698792 
0.0 0.0 0.0 0.0 0.0 0.07698792 
0.0 0.0 0.0 0.0 0.0 0.07698792 
0.0 0.0 0.0 0.0 0.0 0.07698792 
0.0 0.0 0.0 0.0 0.0 0.07698792 
0.0 0.0 0.0 0.0 0.0 0.08441444 
0.51642126 0.0 0.13895112 0.0 0.0 0.08161106 
1.4684379 0.17657906 0.16256648 0.0 0.0 0.0 
1.5460799 1.322723 0.08812315 0.21676339 2.240147 0.21093369 
0.6292206 1.4889078 0.0 0.28617856 2.8449974 1.0382617 
0.0 0.98141843 0.5106869 0.3430239 2.219613 1.0454125 
0.0 0.21434392 0.72368366 0.1329168 0.4878579 0.49787956 
0.0 0.0 0.0 0.0 0.0 0.08376666 
0.0 0.0 0.0 0.0 0.0 0.07698792 
0.0 0.0 0.0 0.0 0.0 0.07698792 
0.0 0.0 0.0 0.0 0.0 0.07698792 
0.0 0.0 0.0 0.0 0.0 0.07698792 
0.0 0.0 0.0 0.0 0.0 0.07698792 
0.0 0.0 0.0 0.0 0.0 0.07698792 
0.20702136 0.0 0.06935274 0.0 0.0 0.07698792 
1.612175 0.0 0.12835202 0.055470664 0.0 0.09660054 
1.7685707 1.1422952 0.0757604 0.14581147 1.9762317 0.21228999 
0.9691346 1.793083 0.6412471 0.01078165 2.3167841 0.291083 
0.0 1.6516798 1.6171186 0.0 1.9409103 0.0 
0.0 1.2497116 1.4145689 0.0 0.8619472 0.0 
0.0 0.5816451 0.47290665 0.0 0.490824 0.012723573 
0.0 0.011375771 0.0 0.0 0.0 0.07698792 
0.0 0.0 0.0 0.0 0.0 0.07698792 
0.0 0.0 0.0 0.0 0.0 0.07698792 
0.0 0.0 0.0 0.0 0.0 0.07698792 
0.0 0.0 0.0 0.0 0.0 0.07698792 
0.0 0.0 0.0 0.0 0.0 0.07698792 
0.0 0.0 0.0 0.0 0.0 0.07698792 
0.35992527 0.0 0.0 0.2030615 0.104494214 0.5195048 
1.5918138 0.0 0.0 0.7707572 1.4296306 1.4261692 
1.2929945 0.8054897 0.0 1.1063131 2.481953 1.7864702 
0.15504456 0.84179467 0.38172844 1.1584728 2.4113247 1.8244278 
0.65554523 0.7264036 1.5845497 1.2578255 1.4222836 1.6600122 
0.42290932 1.8180957 1.9034142 1.108706 1.0525659 0.3441953 
0.0 1.639241 1.9032627 0.22354688 1.0282867 0.0 
0.0 0.103511125 0.10884314 0.0 0.25690696 0.07698792 
0.0 0.0 0.0 0.0 0.0 0.07698792 
0.0 0.0 0.0 0.0 0.0 0.07698792 
0.0 0.0 0.0 0.0 0.0 0.07698792 
0.0 0.0 0.0 0.0 0.0 0.07698792 
0.0 0.0 0.0 0.0 0.0 0.07698792 
0.0 0.0 0.0 0.0 0.0 0.07698792 
0.29530406 0.0 0.0 0.017507013 0.25816908 0.42890045 
0.74040395 0.0 0.0 0.0 1.1127236 1.2264132 
0.4965436 0.029865574 0.0 0.0 1.3772362 1.4106083 
0.2633226 0.0 0.0 0.0 1.3621466 1.4021885 
1.675936 0.0 0.0 0.0 1.2472106 1.658057 
1.364557 1.2790252 0.790398 0.28356245 1.3461922 0.83067155 
0.0 1.5444026 1.9005228 0.2677113 1.4850124 0.0 
0.0 0.28526124 0.5641767 0.015756417 0.34564158 0.07698792 
0.0 0.0 0.0 0.0 0.0 0.07698792 
0.0 0.0 0.0 0.0 0.0 0.07698792 
0.0 0.0 0.0 0.0 0.0 0.07698792 
0.0 0.0 0.0 0.0 0.0 0.07698792 
0.0 0.0 0.0 0.0 0.0 0.07698792 
0.0 0.0 0.0 0.0 0.0 0.07698792 
0.0 0.0 0.0 0.0 0.0 0.07698792 
0.0 0.0 0.0 0.0 0.005571697 0.10483734 
0.0 0.0 0.0 0.0 0.0 0.10336687 
0.14601469 0.0 0.1034947 0.0 0.0 0.08041241 
1.9241977 0.0 0.0 0.0 0.39922664 0.75950253 
1.5961113 1.5681101 0.0 0.0 1.744702 0.40902412 
0.0 1.3698363 1.5082351 0.10456073 1.6551312 0.2263697 
0.0 0.14856313 0.59775597 0.13592039 0.30956376 0.11068614 
0.0 0.0 0.0 0.0 0.0 0.07698792 
0.0 0.0 0.0 0.0 0.0 0.07698792 
0.0 0.0 0.0 0.0 0.0 0.07698792 
0.0 0.0 0.0 0.0 0.0 0.07698792 
0.0 0.0 0.0 0.0 0.0 0.07698792 
0.0 0.0 0.0 0.0 0.0 0.07698792 
0.0 0.0 0.0 0.0 0.0 0.07698792 
0.0 0.0 0.0 0.0 0.0 0.07698792 
0.0 0.0 0.0 0.0 0.0 0.07698792 
1.0431066 0.0 0.086977296 0.0 0.0 0.023680046 
1.9724035 0.66205007 0.0 0.022749115 1.5003654 0.33574092 
0.74859476 1.5981354 0.4799387 0.12820148 2.2097886 0.22576895 
0.0 1.1187911 1.2568358 0.10856683 1.4485458 0.41960195 
0.0 0.00047210697 0.2840431 0.047272444 0.04574043 0.11814165 
0.0 0.0 0.0 0.0 0.0 0.07698792 
0.0 0.0 0.0 0.0 0.0 0.07698792 
0.0 0.0 0.0 0.0 0.0 0.07698792 
0.0 0.0 0.0 0.0 0.0 0.07698792 
0.0 0.0 0.0 0.0 0.0 0.07698792 
0.0 0.0 0.0 0.0 0.0 0.07698792 
0.0 0.0 0.0 0.0 0.0 0.07698792 
0.025199838 0.0 0.063791245 0.0 0.0 0.07698792 
0.68091464 0.0 0.18672562 0.0 0.0 0.044177264 
1.6904969 0.33068618 0.077879734 0.0 0.79655844 0.011321291 
1.7039311 1.3947849 0.0 0.13826054 2.5086663 0.4905516 
0.0 1.5404636 0.8446863 0.27118114 2.2181199 0.6408411 
0.0 0.31406736 1.0120221 0.20528562 0.7131521 0.43247765 
0.0 0.0 0.0 0.0 0.0 0.07889041 
0.0 0.0 0.0 0.0 0.0 0.07698792 
0.0 0.0 0.0 0.0 0.0 0.07698792 
0.0 0.0 0.0 0.0 0.0 0.07698792 
0.0 0.0 0.0 0.0 0.0 0.07698792 
0.0 0.0 0.0 0.0 0.0 0.07698792 
0.0 0.0 0.0 0.0 0.0 0.07698792 
0.0 0.0 0.0 0.0 0.0 0.07698792 
0.09462874 0.0 0.0 0.06538682 0.0 0.23541138 
0.89955485 0.0 0.0 0.74628127 0.6177395 0.8421665 
1.2640347 0.5140904 0.0 0.94272745 1.9058881 1.3433881 
0.0 1.0572982 0.19577247 0.74072045 2.4270556 1.0909822 
0.0 0.5226982 0.55437374 0.13300039 1.1810893 0.6547667 
0.0 0.0 0.24860653 0.0 0.1363082 0.17625524 
0.0 0.0 0.0 0.0 0.0 0.07698792 
0.0 0.0 0.0 0.0 0.0 0.07698792 
0.0 0.0 0.0 0.0 0.0 0.07698792 
0.0 0.0 0.0 0.0 0.0 0.07698792 
0.0 0.0 0.0 0.0 0.0 0.07698792 
0.0 0.0 0.0 0.0 0.0 0.07698792 
0.0 0.0 0.0 0.0 0.0 0.07698792 
0.0 0.0 0.0 0.0 0.0 0.07698792 
0.07587524 0.0 0.0 0.11388014 0.15635343 0.25215453 
0.58658755 0.06390061 0.0 0.12945625 0.7955642 1.0495667 
0.60806066 0.20253794 0.0 0.0 1.06893 1.2846441 
0.0 0.15870668 0.077131756 0.0 0.6721816 0.81382185 
0.0 0.0 0.292773 0.0 0.2136922 0.27581292 
0.0 0.0 0.0 0.0 0.0 0.07752062 
0.0 0.0 0.0 0.0 0.0 0.07698792 
0.0 0.0 0.0 0.0 0.0 0.07698792 
0.0 0.0 0.0 0.0 0.0 0.07698792 
0.0 0.0 0.0 0.0 0.0 0.07698792 

