0.0 0.0 0.0 0.0 0.0 0.07698792 
0.0 0.0 0.0 0.0 0.0 0.07698792 
0.0 0.0 0.0 0.0 0.0 0.07698792 
0.0 0.0 0.0 0.0 0.0 0.07698792 
0.0 0.0 0.0 0.0 0.0 0.07698792 
0.0 0.0 0.0 0.0 0.0 0.07698792 
0.0 0.0 0.0 0.0 0.0 0.07698792 
0.0 0.0 0.0 0.0 0.0 0.07698792 
0.0 0.0 0.0 0.0 0.0 0.07698792 
0.0 0.0 0.0 0.0 0.0 0.07698792 
0.0 0.0 0.0 0.0 0.0 0.07698792 
0.0 0.0 0.0 0.0 0.0 0.07698792 
0.0 0.0 0.0 0.0 0.0 0.07698792 
0.0 0.0 0.0 0.0 0.0 0.07698792 
0.0 0.0 0.0 0.0 0.0 0.07698792 
0.0 0.0 0.0 0.0 0.0 0.07698792 
0.0 0.0 0.0 0.0 0.0 0.07698792 
0.0 0.0 0.0 0.0 0.0 0.07698792 
0.0 0.0 0.0 0.0 0.0 0.07698792 
0.0 0.0 0.0 0.0 0.0 0.07698792 
0.0 0.0 0.0 0.0 0.0 0.07698792 
0.0 0.0 0.0 0.0 0.0 0.07698792 
0.0 0.0 0.0 0.0 0.0 0.07698792 
0.0 0.0 0.0 0.0 0.0 0.07698792 
0.0 0.0 0.0 0.0 0.0 0.07698792 
0.0 0.0 0.0 0.0 0.0 0.07698792 
0.0 0.0 0.0 0.0 0.0 0.07698792 
0.0 0.0 0.0 0.0 0.0 0.07698792 
0.0 0.0 0.0 0.0 0.0 0.07698792 
0.0 0.0 0.0 0.0 0.0 0.07698792 
0.0 0.0 0.0 0.0 0.0 0.07698792 
0.0 0.0 0.0 0.0 0.0 0.07698792 
0.5472627 0.019885644 0.18285394 0.0 0.0 0.05983536 
0.8372513 0.6859537 0.6733081 0.0 0.0 0.0 
0.33243012 1.0200678 0.99577105 0.0 0.29263356 0.0 
0.0 1.0082283 0.7540833 0.0 0.3246805 0.0 
0.0 0.43342042 0.25030828 0.0 0.21991517 0.06552394 
0.0 0.036626108 0.0 0.0 0.0 0.07698792 
0.0 0.0 0.0 0.0 0.0 0.07698792 
0.0 0.0 0.0 0.0 0.0 0.07698792 
0.0 0.0 0.0 0.0 0.0 0.07698792 
0.0 0.0 0.0 0.0 0.0 0.07698792 
0.0 0.0 0.0 0.0 0.0 0.07698792 
0.0 0.0 0.0 0.0 0.0 0.07698792 
0.0 0.0 0.0 0.0 0.0 0.07698792 
0.0 0.0 0.0 0.0 0.0 0.07698792 
0.92871076 0.0 0.0 0.46660784 0.07593031 0.9207343 
1.2706068 0.5272878 0.71052086 1.1012278 0.6881863 0.9487282 
0.8145953 1.4863412 1.7697113 1.1644348 1.2372516 0.33803797 
0.17442605 1.895413 2.2547836 0.47545907 1.1727989 0.0 
0.0 1.8624998 1.9761652 0.0 1.0437272 0.0 
0.0 0.6343985 0.570388 0.0 0.5258354 0.03425853 
0.0 0.06524316 0.0 0.0 0.012841653 0.07698792 
0.0 0.0 0.0 0.0 0.0 0.07698792 
0.0 0.0 0.0 0.0 0.0 0.07698792 
0.0 0.0 0.0 0.0 0.0 0.07698792 
0.0 0.0 0.0 0.0 0.0 0.07698792 
0.0 0.0 0.0 0.0 0.0 0.07698792 
0.0 0.0 0.0 0.0 0.0 0.07698792 
0.0 0.0 0.0 0.0 0.0 0.07698792 
0.94371194 0.0 0.0 0.15471263 0.7201262 1.0891032 
1.1741033 0.0 0.0 0.7140209 1.4469849 1.7022946 
0.97702366 0.7779323 0.233136 1.4509203 2.0882108 2.0558476 
0.7223721 1.5597204 1.8211294 1.273944 1.86028 1.910795 
0.27387047 1.9240847 2.3591523 0.8797495 1.2824608 0.32830176 
0.0 1.851503 2.1293383 0.025216635 1.2493057 0.0 
0.0 0.39563775 0.4105532 0.0 0.45830318 0.07125593 
0.0 0.0 0.0 0.0 0.0 0.07698792 
0.0 0.0 0.0 0.0 0.0 0.07698792 
0.0 0.0 0.0 0.0 0.0 0.07698792 
0.0 0.0 0.0 0.0 0.0 0.07698792 
0.0 0.0 0.0 0.0 0.0 0.07698792 
0.0 0.0 0.0 0.0 0.0 0.07698792 
0.0 0.0 0.0 0.0 0.0 0.07698792 
0.259281 0.0 0.0 0.0 0.3821632 0.33350736 
0.6503107 0.0 0.0 0.0 1.0100924 1.0325072 
0.6780794 0.0 0.0 0.0 1.547394 1.7190003 
1.7421162 0.0 0.0 0.29276803 1.47895 1.8830426 
1.6829157 1.5967853 1.2595503 0.42365208 1.6347439 0.8710402 
0.0 2.0007274 2.2007015 0.25256148 1.9526461 0.0 
0.0 0.7758534 1.3666718 0.12981321 0.9198657 0.019384332 
0.0 0.0 0.0 0.0 0.0 0.07698792 
0.0 0.0 0.0 0.0 0.0 0.07698792 
0.0 0.0 0.0 0.0 0.0 0.07698792 
0.0 0.0 0.0 0.0 0.0 0.07698792 
0.0 0.0 0.0 0.0 0.0 0.07698792 
0.0 0.0 0.0 0.0 0.0 0.07698792 
0.0 0.0 0.0 0.0 0.0 0.07698792 
0.0 0.0 0.0 0.0 0.0 0.07698792 
0.0 0.0 0.0 0.0 0.0 0.08874657 
0.7064331 0.0 0.03542258 0.0 0.012368549 0.098495565 
2.0891263 0.12834233 0.0 0.0 0.8131189 0.48032543 
1.8450913 1.7775004 0.0 0.0 2.5852215 0.3355495 
0.0 1.8340805 1.8430116 0.30518672 2.2775733 0.1848364 
0.0 0.5753951 1.3778324 0.21460932 0.86173654 0.18641621 
0.0 0.0 0.0 0.0 0.0 0.07698792 
0.0 0.0 0.0 0.0 0.0 0.07698792 
0.0 0.0 0.0 0.0 0.0 0.07698792 
0.0 0.0 0.0 0.0 0.0 0.07698792 
0.0 0.0 0.0 0.0 0.0 0.07698792 
0.0 0.0 0.0 0.0 0.0 0.07698792 
0.0 0.0 0.0 0.0 0.0 0.07698792 
0.0 0.0 0.0 0.0 0.0 0.07698792 
0.15833335 0.0 0.0670035 0.0 0.0 0.07698792 
1.7678797 0.0 0.06333771 0.0 0.010349426 0.28862134 
2.0068743 1.0745269 0.0 0.0 2.0612624 0.333623 
1.0616336 1.899897 0.46465927 0.2082555 2.8614688 0.552097 
0.0 1.6024053 1.3363492 0.1945217 2.0877485 0.40822175 
0.0 0.15333036 0.8291752 0.13268939 0.52936727 0.1718209 
0.0 0.0 0.0 0.0 0.0 0.07698792 
0.0 0.0 0.0 0.0 0.0 0.07698792 
0.0 0.0 0.0 0.0 0.0 0.07698792 
0.0 0.0 0.0 0.0 0.0 0.07698792 
0.0 0.0 0.0 0.0 0.0 0.07698792 
0.0 0.0 0.0 0.0 0.0 0.07698792 
0.0 0.0 0.0 0.0 0.0 0.07698792 
0.0 0.0 0.0 0.0 0.0 0.07698792 
0.74841887 0.0 0.02406761 0.028947454 0.0 0.30923107 
2.0653381 0.10877944 0.0 0.0852402 0.93594384 0.5959318 
1.8427205 1.7239519 0.0 0.14295521 2.8425913 0.5377002 
0.0 1.8120308 0.83525574 0.07298161 2.9265888 0.4966752 
0.0 0.77609515 1.0179992 0.15113151 1.4082264 0.46743292 
0.0 0.0025697378 0.35795587 0.056858044 0.06631002 0.13261777 
0.0 0.0 0.0 0.0 0.0 0.07698792 
0.0 0.0 0.0 0.0 0.0 0.07698792 
0.0 0.0 0.0 0.0 0.0 0.07698792 
0.0 0.0 0.0 0.0 0.0 0.07698792 
0.0 0.0 0.0 0.0 0.0 0.07698792 
0.0 0.0 0.0 0.0 0.0 0.07698792 
0.0 0.0 0.0 0.0 0.0 0.07698792 
0.06749986 0.0 0.06119532 0.0 0.0 0.07698792 
1.6124647 0.0 0.09359405 0.0 0.0 0.2948007 
2.12824 0.88581693 0.0 0.0 1.9112375 0.5302851 
1.1252117 1.6831397 0.26685047 0.18923247 2.9695466 0.66905767 
0.0 1.4483352 1.0241238 0.16935068 2.2908647 0.58149 
0.0 0.17856032 0.7859201 0.09407947 0.51608664 0.30943602 
0.0 0.0 0.0 0.0 0.0 0.07858601 
0.0 0.0 0.0 0.0 0.0 0.07698792 
0.0 0.0 0.0 0.0 0.0 0.07698792 
0.0 0.0 0.0 0.0 0.0 0.07698792 
0.0 0.0 0.0 0.0 0.0 0.07698792 
0.0 0.0 0.0 0.0 0.0 0.07698792 
0.0 0.0 0.0 0.0 0.0 0.07698792 
0.0 0.0 0.0 0.0 0.0 0.07698792 
0.53403556 0.0 0.049485974 0.0015431764 0.0 0.25013494 
2.07309 0.0 0.0 0.14271793 0.8065945 0.50639135 
1.8653693 1.725425 0.0 0.19780798 2.7827544 0.39041924 
0.0 1.7059184 0.8167271 0.053801756 2.8547373 0.508009 
0.0 0.447914 0.7715252 0.069089696 1.1689534 0.53385913 
0.0 0.0 0.19412747 0.0 0.070228666 0.124931246 
0.0 0.0 0.0 0.0 0.0 0.07698792 
0.0 0.0 0.0 0.0 0.0 0.07698792 
0.0 0.0 0.0 0.0 0.0 0.07698792 
0.0 0.0 0.0 0.0 0.0 0.07698792 
0.0 0.0 0.0 0.0 0.0 0.07698792 
0.0 0.0 0.0 0.0 0.0 0.07698792 
0.0 0.0 0.0 0.0 0.0 0.07698792 
0.0 0.0 0.0 0.0 0.0 0.07698792 
0.82518 0.0 0.0 0.19039752 0.16874246 0.8287752 
2.0106428 0.103319034 0.0 0.47801688 1.4498845 1.3458066 
1.0511587 1.7585912 0.60231555 0.4785947 2.7212102 0.9638565 
0.0 1.2701019 1.2277126 0.060605433 1.9865962 0.35522777 
0.0 0.02883298 0.517665 0.060189392 0.3527294 0.22499765 
0.0 0.0 0.0 0.0 0.0 0.07698792 
0.0 0.0 0.0 0.0 0.0 0.07698792 
0.0 0.0 0.0 0.0 0.0 0.07698792 
0.0 0.0 0.0 0.0 0.0 0.07698792 
0.0 0.0 0.0 0.0 0.0 0.07698792 
0.0 0.0 0.0 0.0 0.0 0.07698792 
0.0 0.0 0.0 0.0 0.0 0.07698792 
0.0 0.0 0.0 0.0 0.0 0.07698792 
0.0 0.0 0.0 0.0 0.0 0.07698792 
0.717449 0.0 0.0 0.09378604 0.4732177 0.8197127 
1.33603 0.0 0.0 0.42664337 1.5348015 1.4646335 
0.34893113 1.002216 0.4927684 0.5736734 1.8625928 1.25895 
0.0 0.55080646 1.0640128 0.2280992 1.0380527 0.5069055 
0.0 0.0 0.10817052 0.0 0.014503773 0.09969661 
0.0 0.0 0.0 0.0 0.0 0.07698792 
0.0 0.0 0.0 0.0 0.0 0.07698792 
0.0 0.0 0.0 0.0 0.0 0.07698792 
0.0 0.0 0.0 0.0 0.0 0.07698792 
0.0 0.0 0.0 0.0 0.0 0.07698792 
0.0 0.0 0.0 0.0 0.0 0.07698792 
0.0 0.0 0.0 0.0 0.0 0.07698792 
0.0 0.0 0.0 0.0 0.0 0.07698792 
0.0 0.0 0.0 0.0 0.0 0.07698792 
0.17620713 0.0 0.0 0.0 0.27977046 0.26290202 
0.5076857 0.0 0.0 0.0 0.7754472 0.75864214 
0.0 0.0 0.0 0.0 0.57670826 0.6327801 
0.0 0.0 0.3171106 0.0095110955 0.21172471 0.32052714 
0.0 0.0 0.0 0.0 0.0 0.07698792 
0.0 0.0 0.0 0.0 0.0 0.07698792 
0.0 0.0 0.0 0.0 0.0 0.07698792 
0.0 0.0 0.0 0.0 0.0 0.07698792 
0.0 0.0 0.0 0.0 0.0 0.07698792 
0.0 0.0 0.0 0.0 0.0 0.07698792 

