0.0 0.0 0.0 0.0 0.0 0.07698792 
0.0 0.0 0.0 0.0 0.0 0.07698792 
0.0 0.0 0.0 0.0 0.0 0.07698792 
0.0 0.0 0.0 0.0 0.0 0.07698792 
0.0 0.0 0.0 0.0 0.0 0.07698792 
0.0 0.0 0.0 0.0 0.0 0.07698792 
0.0 0.0 0.0 0.0 0.0 0.07698792 
0.0 0.0 0.0 0.0 0.0 0.07698792 
0.0 0.0 0.0 0.0 0.0 0.07698792 
0.0 0.0 0.0 0.0 0.0 0.07698792 
0.0 0.0 0.0 0.0 0.0 0.07698792 
0.0 0.0 0.0 0.0 0.0 0.07698792 
0.0 0.0 0.0 0.0 0.0 0.07698792 
0.0 0.0 0.0 0.0 0.0 0.07698792 
0.0 0.0 0.0 0.0 0.0 0.07698792 
0.0 0.0 0.0 0.0 0.0 0.07698792 
0.0 0.0 0.0 0.0 0.0 0.07698792 
0.0 0.0 0.0 0.0 0.0 0.07698792 
0.0 0.0 0.0 0.0 0.0 0.07698792 
0.0 0.0 0.0 0.0 0.0 0.07698792 
0.0 0.0 0.0 0.0 0.0 0.07698792 
0.0 0.0 0.0 0.0 0.0 0.07698792 
0.49902076 0.0 0.16502994 0.0 0.0 0.05511579 
0.7715112 0.6904583 0.4492402 0.0 0.0 0.0 
0.0 1.0668006 0.6402524 0.0 0.61154574 0.0 
0.0 0.15283674 0.1547541 0.0 0.3693082 0.06135522 
0.0 0.0 0.0 0.0 0.0 0.07698792 
0.0 0.0 0.0 0.0 0.0 0.07698792 
0.0 0.0 0.0 0.0 0.0 0.07698792 
0.0 0.0 0.0 0.0 0.0 0.07698792 
0.0 0.0 0.0 0.0 0.0 0.07698792 
0.0 0.0 0.0 0.0 0.0 0.07698792 
0.0 0.0 0.0 0.0 0.0 0.07698792 
0.0 0.0 0.0 0.0 0.0 0.07698792 
0.0 0.0 0.0 0.0 0.0 0.07698792 
0.10227911 0.0 0.040781558 0.0 0.0 0.07698792 
1.5258906 0.0 0.07739989 0.14406037 0.0 0.27964914 
1.2114196 1.6433301 0.64651984 0.44544843 1.4544008 0.11107151 
0.0 1.650994 1.4855084 0.5471936 1.4701656 0.17644122 
0.0 0.35699847 0.714798 0.28552327 0.41445613 0.12073497 
0.0 0.0 0.0 0.0 0.0 0.07698792 
0.0 0.0 0.0 0.0 0.0 0.07698792 
0.0 0.0 0.0 0.0 0.0 0.07698792 
0.0 0.0 0.0 0.0 0.0 0.07698792 
0.0 0.0 0.0 0.0 0.0 0.07698792 
0.0 0.0 0.0 0.0 0.0 0.07698792 
0.0 0.0 0.0 0.0 0.0 0.07698792 
0.0 0.0 0.0 0.0 0.0 0.07698792 
0.0 0.0 0.0 0.0 0.0 0.07698792 
0.6500253 0.0 0.02326455 0.0 0.0 0.21134058 
1.6856508 0.3654661 0.0 0.19543877 1.2617344 0.5960153 
0.9610445 1.4723462 0.09810727 0.34335873 2.0121748 0.50811696 
0.0 1.0340885 1.0407968 0.28459263 1.5897878 0.5412261 
0.0 0.066992916 0.53225946 0.10619566 0.16881663 0.1690441 
0.0 0.0 0.0 0.0 0.0 0.07698792 
0.0 0.0 0.0 0.0 0.0 0.07698792 
0.0 0.0 0.0 0.0 0.0 0.07698792 
0.0 0.0 0.0 0.0 0.0 0.07698792 
0.0 0.0 0.0 0.0 0.0 0.07698792 
0.0 0.0 0.0 0.0 0.0 0.07698792 
0.0 0.0 0.0 0.0 0.0 0.07698792 
0.0 0.0 0.0 0.0 0.0 0.07698792 
0.22269028 0.0 0.12922269 0.0 0.0 0.07698792 
1.4122403 0.0 0.12065319 0.0 0.0 0.16851175 
1.7213802 1.21431 0.0 0.0 1.8259119 0.35371304 
0.0 1.2562762 0.8366804 0.027507238 1.8587987 0.39896286 
0.0 0.15149021 0.5937828 0.0 0.6644452 0.36272642 
0.0 0.0 0.02141884 0.0 0.0 0.087329954 
0.0 0.0 0.0 0.0 0.0 0.07698792 
0.0 0.0 0.0 0.0 0.0 0.07698792 
0.0 0.0 0.0 0.0 0.0 0.07698792 
0.0 0.0 0.0 0.0 0.0 0.07698792 
0.0 0.0 0.0 0.0 0.0 0.07698792 
0.0 0.0 0.0 0.0 0.0 0.07698792 
0.0 0.0 0.0 0.0 0.0 0.07698792 
0.030742206 0.0 0.0107978955 0.0 0.0 0.07698792 
1.2170823 0.0 0.107362665 0.0 0.0 0.02532792 
1.5625226 1.0975531 0.038935624 0.105576806 1.616844 0.009901054 
0.53560275 1.5429702 0.38469452 0.13586582 2.1591623 0.3721234 
0.0 0.74139005 0.93874854 0.25100547 1.2616955 0.4564346 
0.0 0.0015245108 0.34827223 0.052850053 0.08905618 0.12454401 
0.0 0.0 0.0 0.0 0.0 0.07698792 
0.0 0.0 0.0 0.0 0.0 0.07698792 
0.0 0.0 0.0 0.0 0.0 0.07698792 
0.0 0.0 0.0 0.0 0.0 0.07698792 
0.0 0.0 0.0 0.0 0.0 0.07698792 
0.0 0.0 0.0 0.0 0.0 0.07698792 
0.0 0.0 0.0 0.0 0.0 0.07698792 
0.0 0.0 0.0 0.0 0.0 0.07698792 
0.6483926 0.0 0.08798773 0.0 0.0 0.08441611 
1.8776255 0.20109996 0.0032177642 0.0 0.80686116 0.316457 
1.475069 1.6666621 0.0 0.048230913 2.2261832 0.15679623 
0.0 1.4801738 0.98371685 0.059423324 1.9981033 0.39836806 
0.0 0.080423325 0.5013269 0.05288187 0.5177678 0.3165894 
0.0 0.0 0.0 0.0 0.0 0.0818583 
0.0 0.0 0.0 0.0 0.0 0.07698792 
0.0 0.0 0.0 0.0 0.0 0.07698792 
0.0 0.0 0.0 0.0 0.0 0.07698792 
0.0 0.0 0.0 0.0 0.0 0.07698792 
0.0 0.0 0.0 0.0 0.0 0.07698792 
0.0 0.0 0.0 0.0 0.0 0.07698792 
0.0 0.0 0.0 0.0 0.0 0.07698792 
0.060795113 0.0 0.09686466 0.0 0.0 0.07698792 
1.5870767 0.0 0.029370062 0.0 0.0 0.30792266 
1.8987904 1.2999125 0.0 0.18757966 2.0333412 0.40225318 
0.14555609 1.578112 0.75353867 0.19707593 2.3614633 0.4511961 
0.0 0.71169585 1.0877018 0.1470056 1.2920116 0.49236402 
0.0 0.0 0.18316743 0.0 0.037588734 0.11902824 
0.0 0.0 0.0 0.0 0.0 0.07698792 
0.0 0.0 0.0 0.0 0.0 0.07698792 
0.0 0.0 0.0 0.0 0.0 0.07698792 
0.0 0.0 0.0 0.0 0.0 0.07698792 
0.0 0.0 0.0 0.0 0.0 0.07698792 
0.0 0.0 0.0 0.0 0.0 0.07698792 
0.0 0.0 0.0 0.0 0.0 0.07698792 
0.0 0.0 0.0 0.0 0.0 0.07698792 
0.80708534 0.0 0.111676686 0.0 0.0 0.051970366 
1.9838963 0.2933866 0.0 0.0 1.1145899 0.31972775 
1.4434259 1.5149206 0.0 0.03627727 2.4664714 0.25033656 
0.0 1.4569647 0.8704981 0.08625666 2.0403547 0.459929 
0.0 0.079805836 0.616963 0.019883849 0.38661945 0.34447965 
0.0 0.0 0.0 0.0 0.0 0.07698792 
0.0 0.0 0.0 0.0 0.0 0.07698792 
0.0 0.0 0.0 0.0 0.0 0.07698792 
0.0 0.0 0.0 0.0 0.0 0.07698792 
0.0 0.0 0.0 0.0 0.0 0.07698792 
0.0 0.0 0.0 0.0 0.0 0.07698792 
0.0 0.0 0.0 0.0 0.0 0.07698792 
0.0 0.0 0.0 0.0 0.0 0.07698792 
0.24751204 0.0 0.09183896 0.0 0.0 0.080997646 
1.8497341 0.0 0.08506689 0.015805718 0.18754289 0.2884975 
1.8938434 1.5433189 0.0 0.065492585 2.415078 0.28286886 
0.0 1.6902584 0.831788 0.216412 2.4073303 0.4050601 
0.0 0.5234387 1.0802959 0.15077984 1.077724 0.49346286 
0.0 0.0 0.0951468 0.0 0.001992561 0.09726334 
0.0 0.0 0.0 0.0 0.0 0.07698792 
0.0 0.0 0.0 0.0 0.0 0.07698792 
0.0 0.0 0.0 0.0 0.0 0.07698792 
0.0 0.0 0.0 0.0 0.0 0.07698792 
0.0 0.0 0.0 0.0 0.0 0.07698792 
0.0 0.0 0.0 0.0 0.0 0.07698792 
0.0 0.0 0.0 0.0 0.0 0.07698792 
0.0 0.0 0.0 0.0 0.0 0.07698792 
0.8441502 0.0 0.0 0.08487743 0.0 0.45189697 
2.0045562 0.27342105 0.0 0.18957175 1.2536851 0.78846425 
1.3158159 1.7699258 0.3864271 0.2817402 2.4315145 0.5360735 
0.0 1.5870842 1.291362 0.26389515 1.9480776 0.38696918 
0.0 0.033046573 0.52902514 0.06445249 0.44960257 0.22189151 
0.0 0.0 0.0 0.0 0.0 0.07721622 
0.0 0.0 0.0 0.0 0.0 0.07698792 
0.0 0.0 0.0 0.0 0.0 0.07698792 
0.0 0.0 0.0 0.0 0.0 0.07698792 
0.0 0.0 0.0 0.0 0.0 0.07698792 
0.0 0.0 0.0 0.0 0.0 0.07698792 
0.0 0.0 0.0 0.0 0.0 0.07698792 
0.0 0.0 0.0 0.0 0.0 0.07698792 
0.0 0.0 0.0 0.0 0.0 0.07698792 
0.87956375 0.0 0.0 0.23324704 0.48182502 0.8456801 
1.5780458 0.1677964 0.0 0.72063583 1.8466103 1.4033041 
0.07738756 1.1388104 0.52503395 0.7649236 2.220771 1.2041333 
0.0 0.5554089 1.0928444 0.3402405 1.1835996 0.63117915 
0.0 0.019252464 0.21607459 0.049088005 0.013581257 0.1185012 
0.0 0.0 0.0 0.0 0.0 0.07698792 
0.0 0.0 0.0 0.0 0.0 0.07698792 
0.0 0.0 0.0 0.0 0.0 0.07698792 
0.0 0.0 0.0 0.0 0.0 0.07698792 
0.0 0.0 0.0 0.0 0.0 0.07698792 
0.0 0.0 0.0 0.0 0.0 0.07698792 
0.0 0.0 0.0 0.0 0.0 0.07698792 
0.0 0.0 0.0 0.0 0.0 0.07698792 
0.0 0.0 0.0 0.0 0.0 0.07698792 
0.48228222 0.0 0.0 0.011258819 0.53224355 0.65252566 
0.68839943 0.0 0.0 0.0 1.0692004 1.0479064 
0.0 0.06437975 0.0 0.0 0.67246896 0.7518602 
0.0 0.0 0.30018097 0.0 0.25517717 0.29568753 
0.0 0.0 0.0 0.0 0.0 0.07744452 
0.0 0.0 0.0 0.0 0.0 0.07698792 
0.0 0.0 0.0 0.0 0.0 0.07698792 
0.0 0.0 0.0 0.0 0.0 0.07698792 
0.0 0.0 0.0 0.0 0.0 0.07698792 
0.0 0.0 0.0 0.0 0.0 0.07698792 
0.0 0.0 0.0 0.0 0.0 0.07698792 
0.0 0.0 0.0 0.0 0.0 0.07698792 
0.0 0.0 0.0 0.0 0.0 0.07698792 
0.0 0.0 0.0 0.0 0.0 0.07698792 
0.0 0.0 0.0 0.0 0.0 0.07698792 
0.0 0.0 0.0 0.0 0.0 0.07698792 
0.0 0.0 0.0 0.0 0.0 0.07698792 
0.0 0.0 0.0 0.0 0.0 0.07698792 
0.0 0.0 0.0 0.0 0.0 0.07698792 
0.0 0.0 0.0 0.0 0.0 0.07698792 
0.0 0.0 0.0 0.0 0.0 0.07698792 
0.0 0.0 0.0 0.0 0.0 0.07698792 
0.0 0.0 0.0 0.0 0.0 0.07698792 
0.0 0.0 0.0 0.0 0.0 0.07698792 
0.0 0.0 0.0 0.0 0.0 0.07698792 

