0.0 0.0 0.0 0.0 0.0 0.07698792 
0.0 0.0 0.0 0.0 0.0 0.07698792 
0.0 0.0 0.0 0.0 0.0 0.07698792 
0.0 0.0 0.0 0.0 0.0 0.07698792 
0.0 0.0 0.0 0.0 0.0 0.07698792 
0.0 0.0 0.0 0.0 0.0 0.07698792 
0.0 0.0 0.0 0.0 0.0 0.07698792 
0.0 0.0 0.0 0.0 0.0 0.07698792 
0.0 0.0 0.0 0.0 0.0 0.07698792 
0.0 0.0 0.0 0.0 0.0 0.07698792 
0.0 0.0 0.0 0.0 0.0 0.07698792 
0.0 0.0 0.0 0.0 0.0 0.07698792 
0.0 0.0 0.0 0.0 0.0 0.07698792 
0.0 0.0 0.0 0.0 0.0 0.07698792 
0.0 0.0 0.0 0.0 0.0 0.07698792 
0.0 0.0 0.0 0.0 0.0 0.07698792 
0.0 0.0 0.0 0.0 0.0 0.07698792 
0.0 0.0 0.0 0.0 0.0 0.07698792 
0.0 0.0 0.0 0.0 0.0 0.07698792 
0.0 0.0 0.0 0.0 0.0 0.07698792 
0.0 0.0 0.0 0.0 0.0 0.07698792 
0.15802768 0.0 0.17179129 0.0 0.0 0.07698792 
0.35482144 0.30984202 0.3955102 0.0 0.0 0.07698792 
0.31359965 0.63942945 0.45406717 0.0 0.0 0.07698792 
0.0 0.4629117 0.2160989 0.0 0.08448695 0.07698792 
0.0 0.087126784 0.0 0.0 0.034062732 0.07698792 
0.0 0.0 0.0 0.0 0.0 0.07698792 
0.0 0.0 0.0 0.0 0.0 0.07698792 
0.0 0.0 0.0 0.0 0.0 0.07698792 
0.0 0.0 0.0 0.0 0.0 0.07698792 
0.0 0.0 0.0 0.0 0.0 0.07698792 
0.0 0.0 0.0 0.0 0.0 0.07698792 
0.0 0.0 0.0 0.0 0.0 0.07698792 
0.0 0.0 0.0 0.0 0.0 0.07698792 
0.0 0.0 0.0 0.0 0.0 0.07698792 
1.1453125 0.0 0.16793337 0.0 0.0 0.04555487 
1.3968515 0.66837376 0.7757806 0.06354159 0.36629632 0.0 
0.62735707 1.8480246 1.7734332 0.12942599 1.3976678 0.0 
0.0 1.7248474 1.5976026 0.0 1.3680162 0.0 
0.0 0.291991 0.40382382 0.0 0.5404008 0.07698792 
0.0 0.0 0.0 0.0 0.0 0.07698792 
0.0 0.0 0.0 0.0 0.0 0.07698792 
0.0 0.0 0.0 0.0 0.0 0.07698792 
0.0 0.0 0.0 0.0 0.0 0.07698792 
0.0 0.0 0.0 0.0 0.0 0.07698792 
0.0 0.0 0.0 0.0 0.0 0.07698792 
0.0 0.0 0.0 0.0 0.0 0.07698792 
0.0 0.0 0.0 0.0 0.0 0.07698792 
0.37647587 0.0 0.03961482 0.0 0.0 0.07661082 
2.073027 0.0 0.0 0.15644747 0.53822637 0.45976886 
1.9200747 1.404669 0.3949083 0.5407385 2.2463353 0.4645185 
0.70697623 2.4343455 1.8303572 0.68093157 2.7104762 0.6233207 
0.0 2.1777353 2.0229738 0.5428056 2.013415 0.21111947 
0.0 0.4529694 0.99648607 0.17463525 0.5691721 0.07698792 
0.0 0.0 0.0 0.0 0.0 0.07698792 
0.0 0.0 0.0 0.0 0.0 0.07698792 
0.0 0.0 0.0 0.0 0.0 0.07698792 
0.0 0.0 0.0 0.0 0.0 0.07698792 
0.0 0.0 0.0 0.0 0.0 0.07698792 
0.0 0.0 0.0 0.0 0.0 0.07698792 
0.0 0.0 0.0 0.0 0.0 0.07698792 
0.0 0.0 0.005970657 0.0 0.0 0.07698792 
1.296212 0.0 0.06772374 0.0 0.0 0.22452497 
2.1517894 0.6529543 0.0 0.0 1.380374 0.36326173 
1.6243467 1.4725102 0.0 0.015152349 2.788554 0.61921877 
0.39139795 1.8792281 0.5773696 0.07322629 3.104981 0.66643244 
0.0 1.4195502 1.3935684 0.15187451 1.8896868 0.38738534 
0.0 0.16009633 0.83927417 0.18875468 0.28712475 0.13604994 
0.0 0.0 0.0 0.0 0.0 0.07698792 
0.0 0.0 0.0 0.0 0.0 0.07698792 
0.0 0.0 0.0 0.0 0.0 0.07698792 
0.0 0.0 0.0 0.0 0.0 0.07698792 
0.0 0.0 0.0 0.0 0.0 0.07698792 
0.0 0.0 0.0 0.0 0.0 0.07698792 
0.0 0.0 0.0 0.0 0.0 0.07698792 
0.45049185 0.0 0.06238552 0.0 0.0 0.07698792 
2.062713 0.0 0.0 0.0 0.51393735 0.3437603 
2.086051 1.0948149 0.0 0.0 2.2399626 0.4103245 
1.1598744 1.6670065 0.24494243 0.023114253 3.038294 0.6298773 
0.0 1.7897516 1.1309472 0.0 2.9214284 0.3512038 
0.0 0.64321595 1.0732423 0.040247675 1.2899015 0.3623108 
0.0 0.0 0.15115106 0.0 0.031548146 0.10563825 
0.0 0.0 0.0 0.0 0.0 0.07698792 
0.0 0.0 0.0 0.0 0.0 0.07698792 
0.0 0.0 0.0 0.0 0.0 0.07698792 
0.0 0.0 0.0 0.0 0.0 0.07698792 
0.0 0.0 0.0 0.0 0.0 0.07698792 
0.0 0.0 0.0 0.0 0.0 0.07698792 
0.0 0.0 0.0 0.0 0.0 0.07698792 
1.3724134 0.0 0.023202352 0.022028934 0.0 0.28443095 
2.0399742 0.6825811 0.0 0.041683134 1.4600556 0.35494396 
1.5329826 1.4305236 0.0 0.0053153792 2.775891 0.60877347 
0.5159885 1.7233353 0.44618863 0.09239891 3.102598 0.73790103 
0.0 1.5146098 1.1718482 0.17618658 2.2541854 0.43467635 
0.0 0.20757005 0.88150674 0.12370749 0.5552847 0.28029257 
0.0 0.0 0.0 0.0 0.0 0.07698792 
0.0 0.0 0.0 0.0 0.0 0.07698792 
0.0 0.0 0.0 0.0 0.0 0.07698792 
0.0 0.0 0.0 0.0 0.0 0.07698792 
0.0 0.0 0.0 0.0 0.0 0.07698792 
0.0 0.0 0.0 0.0 0.0 0.07698792 
0.0 0.0 0.0 0.0 0.0 0.07698792 
0.4957689 0.0 0.10276488 0.0 0.0 0.06114948 
2.0994282 0.0 0.0 0.0 0.5946322 0.3595915 
2.0916452 1.0671822 0.0 0.0 2.3413405 0.43631995 
1.1210103 1.5628728 0.16654548 0.06220677 3.0853589 0.68403155 
0.0 1.7910069 1.0170066 0.14702679 2.980563 0.39194265 
0.0 0.8406773 1.0574654 0.054198295 1.4365155 0.36942157 
0.0 0.0 0.25704074 0.0 0.08375311 0.14134224 
0.0 0.0 0.0 0.0 0.0 0.07698792 
0.0 0.0 0.0 0.0 0.0 0.07698792 
0.0 0.0 0.0 0.0 0.0 0.07698792 
0.0 0.0 0.0 0.0 0.0 0.07698792 
0.0 0.0 0.0 0.0 0.0 0.07698792 
0.0 0.0 0.0 0.0 0.0 0.07698792 
0.0 0.0 0.022420526 0.0 0.0 0.07698792 
1.433564 0.0 0.026889421 0.021052685 0.0 0.32984385 
2.051719 0.81236523 0.0 0.062516525 1.5021064 0.3648286 
1.506551 1.4558696 0.0 0.049329504 2.7528663 0.64162666 
0.5600416 1.7147043 0.30272037 0.11598489 3.114908 0.7018041 
0.0 1.5212312 1.1059073 0.21343158 2.3520188 0.5212083 
0.0 0.3093254 1.0149652 0.27735788 0.5337465 0.36821252 
0.0 0.0 0.0 0.0 0.0 0.07736842 
0.0 0.0 0.0 0.0 0.0 0.07698792 
0.0 0.0 0.0 0.0 0.0 0.07698792 
0.0 0.0 0.0 0.0 0.0 0.07698792 
0.0 0.0 0.0 0.0 0.0 0.07698792 
0.0 0.0 0.0 0.0 0.0 0.07698792 
0.0 0.0 0.0 0.0 0.0 0.07698792 
0.42573845 0.0 0.10195363 0.0 0.0 0.077581264 
2.1491804 0.0 0.0 0.0 0.6541343 0.40670523 
2.0656264 1.0981566 0.0 0.0 2.386678 0.44289547 
1.051167 1.5926217 0.15791327 0.06706331 3.1355646 0.70461696 
0.0 1.6899643 0.9813298 0.11167854 3.075321 0.5069616 
0.0 0.6236598 1.003257 0.12898204 1.429999 0.48318875 
0.0 0.0 0.14707825 0.0 0.110859096 0.14837494 
0.0 0.0 0.0 0.0 0.0 0.07698792 
0.0 0.0 0.0 0.0 0.0 0.07698792 
0.0 0.0 0.0 0.0 0.0 0.07698792 
0.0 0.0 0.0 0.0 0.0 0.07698792 
0.0 0.0 0.0 0.0 0.0 0.07698792 
0.0 0.0 0.0 0.0 0.0 0.07698792 
0.0 0.0 0.0 0.0 0.0 0.07698792 
1.2353206 0.0 0.028899267 0.120451555 0.0 0.5417987 
2.0906303 0.47738242 0.0 0.100602835 1.3312747 0.7434539 
1.608295 1.4305423 0.0 0.10302618 2.8089921 0.70540035 
0.486035 1.767063 0.49667066 0.07203764 3.0823128 0.6073633 
0.0 1.4888837 1.0017364 0.0254917 2.2249546 0.4551409 
0.0 0.1549074 0.7056379 0.0545946 0.42186025 0.33199766 
0.0 0.0 0.0 0.0 0.0 0.07698792 
0.0 0.0 0.0 0.0 0.0 0.07698792 
0.0 0.0 0.0 0.0 0.0 0.07698792 
0.0 0.0 0.0 0.0 0.0 0.07698792 
0.0 0.0 0.0 0.0 0.0 0.07698792 
0.0 0.0 0.0 0.0 0.0 0.07698792 
0.0 0.0 0.0 0.0 0.0 0.07698792 
0.0 0.0 0.0 0.0 0.0 0.07698792 
1.3932037 0.0 0.0 0.2585764 0.52741945 1.1667666 
2.1423762 0.4095292 0.0 0.821863 1.8208113 1.6908655 
1.2646782 1.4223806 0.06838923 1.0918219 3.1264129 1.8263657 
0.0 1.6463323 0.7710458 0.6171616 3.0017765 1.0524383 
0.0 0.53473467 1.0739892 0.15861395 1.264758 0.4949205 
0.0 0.0 0.15064889 0.00042211916 0.045913097 0.09831384 
0.0 0.0 0.0 0.0 0.0 0.07698792 
0.0 0.0 0.0 0.0 0.0 0.07698792 
0.0 0.0 0.0 0.0 0.0 0.07698792 
0.0 0.0 0.0 0.0 0.0 0.07698792 
0.0 0.0 0.0 0.0 0.0 0.07698792 
0.0 0.0 0.0 0.0 0.0 0.07698792 
0.0 0.0 0.0 0.0 0.0 0.07698792 
0.0 0.0 0.0 0.0 0.0 0.07698792 
0.93928665 0.0 0.0 0.10673352 0.7886557 1.1139402 
1.125385 0.0 0.0 0.5025512 1.8629842 1.7376847 
0.41174564 0.5783384 0.0 0.7452734 2.2417572 1.8559225 
0.0 0.58818865 0.5380427 0.39812198 1.402563 0.97648615 
0.0 0.020602502 0.45765406 0.0 0.3224875 0.31577128 
0.0 0.0 0.0 0.0 0.0 0.07889041 
0.0 0.0 0.0 0.0 0.0 0.07698792 
0.0 0.0 0.0 0.0 0.0 0.07698792 
0.0 0.0 0.0 0.0 0.0 0.07698792 
0.0 0.0 0.0 0.0 0.0 0.07698792 
0.0 0.0 0.0 0.0 0.0 0.07698792 
0.0 0.0 0.0 0.0 0.0 0.07698792 
0.0 0.0 0.0 0.0 0.0 0.07698792 
0.0 0.0 0.0 0.0 0.0 0.07698792 
0.20526206 0.0 0.0 0.0 0.36238417 0.26856852 
0.33410063 0.0 0.0 0.0 0.7248797 0.4394858 
0.11463085 0.0 0.0 0.0 0.6708038 0.46646357 
0.0 0.0 0.0 0.0 0.27815476 0.25477415 
0.0 0.0 0.0068062544 0.0 0.0 0.08520669 
0.0 0.0 0.0 0.0 0.0 0.07698792 
0.0 0.0 0.0 0.0 0.0 0.07698792 
0.0 0.0 0.0 0.0 0.0 0.07698792 
0.0 0.0 0.0 0.0 0.0 0.07698792 
0.0 0.0 0.0 0.0 0.0 0.07698792 
0.0 0.0 0.0 0.0 0.0 0.07698792 

