0.0 0.0 0.0 0.0 0.0 0.07698792 
0.0 0.0 0.0 0.0 0.0 0.07698792 
0.0 0.0 0.0 0.0 0.0 0.07698792 
0.0 0.0 0.0 0.0 0.0 0.07698792 
0.0 0.0 0.0 0.0 0.0 0.07698792 
0.0 0.0 0.0 0.0 0.0 0.07698792 
0.0 0.0 0.0 0.0 0.0 0.07698792 
0.0 0.0 0.0 0.0 0.0 0.07698792 
0.0 0.0 0.0 0.0 0.0 0.07698792 
0.0 0.0 0.0 0.0 0.0 0.07698792 
0.0 0.0 0.0 0.0 0.0 0.07698792 
0.0 0.0 0.0 0.0 0.0 0.07698792 
0.0 0.0 0.0 0.0 0.0 0.07698792 
0.0 0.0 0.0 0.0 0.0 0.07698792 
0.0 0.0 0.0 0.0 0.0 0.07698792 
0.0 0.0 0.0 0.0 0.0 0.07698792 
0.0 0.0 0.0 0.0 0.0 0.07698792 
0.0 0.0 0.0 0.0 0.0 0.07698792 
0.0 0.0 0.0 0.0 0.0 0.07698792 
0.0 0.0 0.0 0.0 0.0 0.07698792 
0.0 0.0 0.0 0.0 0.0 0.07698792 
0.0 0.0 0.0 0.0 0.0 0.07698792 
0.0 0.0 0.0 0.0 0.0 0.07698792 
0.0 0.0 0.0 0.0 0.0 0.07698792 
0.0 0.0 0.0 0.0 0.0 0.07698792 
0.0 0.0 0.0 0.0 0.0 0.07698792 
0.0 0.0 0.0 0.0 0.0 0.07698792 
0.0 0.0 0.0 0.0 0.0 0.07698792 
0.0 0.0 0.0 0.0 0.0 0.07698792 
0.0 0.0 0.0 0.0 0.0 0.07698792 
0.0 0.0 0.0 0.0 0.0 0.07698792 
0.0 0.0 0.0 0.0 0.0 0.07698792 
0.0 0.0 0.0 0.0 0.0 0.07698792 
0.0 0.0 0.0 0.0 0.0 0.07698792 
0.0 0.0 0.0 0.0 0.0 0.07698792 
0.0 0.0 0.0 0.0 0.0 0.07698792 
0.0 0.0 0.0 0.0 0.0 0.07698792 
0.0 0.0 0.0 0.0 0.0 0.07698792 
0.0 0.0 0.0 0.0 0.0 0.07698792 
0.0 0.0 0.0 0.0 0.0 0.07698792 
0.0 0.0 0.0 0.0 0.0 0.07698792 
0.0 0.0 0.0 0.0 0.0 0.07698792 
0.0 0.0 0.0 0.0 0.0 0.07698792 
0.0 0.0 0.0 0.0 0.0 0.07698792 
0.0 0.0 0.0 0.0 0.0 0.07698792 
0.0 0.0 0.0 0.0 0.0 0.07698792 
0.40471348 0.0 0.16254959 0.0 0.0 0.07133134 
0.7505545 0.45862946 0.51731014 0.0 0.0 0.0 
0.587413 0.87910897 0.8825437 0.0 0.03367721 0.0 
0.38890365 0.87910897 0.8825437 0.0 0.03367721 0.0 
0.38890365 0.87910897 0.8825437 0.0 0.03367721 0.0 
0.50362974 0.83262855 0.88508606 0.0 0.0 0.0 
0.56938833 0.95285213 0.9827552 0.0 0.010068778 0.0 
0.49627233 1.1628107 1.0145915 0.0 0.31376347 0.0 
0.05489303 1.232321 0.89202297 0.0 0.68626004 0.0 
0.0 0.46463382 0.3997915 0.0 0.5434833 0.004035294 
0.0 0.0 0.0 0.0 0.0 0.07698792 
0.0 0.0 0.0 0.0 0.0 0.07698792 
0.0 0.0 0.0 0.0 0.0 0.07698792 
0.067530096 0.0 0.012953475 0.0 0.0 0.07698792 
1.4576564 0.0 0.1468578 0.071006715 0.0 0.14184798 
1.5762312 1.128108 0.72298455 0.37025616 0.9469481 0.0 
0.6219291 1.5914053 1.4400076 0.8162599 1.6471137 0.0 
0.47881734 1.4841348 1.4400076 1.1572472 1.6675203 0.3114473 
0.47881734 1.3173578 1.4400076 1.262621 1.5801297 0.3793652 
0.5601179 1.3801209 1.3940033 1.3965471 1.8054794 0.61898667 
0.5002378 1.4124931 1.3016458 1.7211503 1.9697009 1.130858 
0.30552843 1.4363786 1.344276 1.856552 1.9797024 1.2730324 
0.0 1.4759824 1.4477489 1.4440111 1.4939982 0.64789045 
0.0 0.5960693 1.094342 0.5915729 0.71876204 0.28212908 
0.0 0.0 0.0 0.0 0.0 0.07698792 
0.0 0.0 0.0 0.0 0.0 0.07698792 
0.0 0.0 0.0 0.0 0.0 0.07698792 
0.2366268 0.0 0.0 0.09433726 0.0 0.3067676 
2.0576234 0.0 0.0 0.30255523 0.7462645 0.99584496 
1.9512928 1.2757316 0.0 0.41140208 2.1806688 0.786548 
0.5206973 1.7214735 0.3853946 0.6647516 3.0077438 0.8993408 
0.12767719 1.1369244 0.17188308 1.2159306 2.7779741 1.6549504 
0.36449528 0.6408953 0.0 1.4400587 2.2580426 1.8674355 
0.3674215 0.7986176 0.0 1.3820527 2.5054352 1.7972784 
0.085605755 0.67919505 0.0 1.1000302 2.5547254 1.8487604 
0.09628303 0.54345137 0.0 0.6640003 2.2135134 1.7900834 
0.0 0.49520347 0.43661585 0.1871495 1.1470822 1.0148504 
0.0 0.06598357 0.58528125 0.07185467 0.24872233 0.3370708 
0.0 0.0 0.0 0.0 0.0 0.07698792 
0.0 0.0 0.0 0.0 0.0 0.07698792 
0.0 0.0 0.0 0.0 0.0 0.07698792 
0.24817362 0.0 0.0 0.04782764 0.14703989 0.360878 
2.0489936 0.0 0.0 0.20828721 0.915695 1.4215977 
1.9720521 1.0551057 0.0 0.3557175 2.0857773 1.3075769 
0.32728705 1.7494695 1.5784464 0.079743445 2.6316798 0.19035056 
0.0 1.6204966 1.8581698 0.0 2.2477825 0.27457893 
0.20654902 0.45862082 0.20399004 0.0 1.5348095 1.0310311 
0.122660995 0.0 0.0 0.0 1.1980934 0.9914543 
0.0 0.0 0.0 0.0 0.8709963 0.65116876 
0.0 0.0 0.0 0.0 0.5199663 0.36926928 
0.0 0.0 0.0 0.0 0.14299351 0.17860056 
0.0 0.0 0.0 0.0 0.0 0.0817061 
0.0 0.0 0.0 0.0 0.0 0.07698792 
0.0 0.0 0.0 0.0 0.0 0.07698792 
0.0 0.0 0.0 0.0 0.0 0.07698792 
0.05747868 0.0 0.0 0.0 0.06670421 0.19426396 
1.3488805 0.0 0.0 0.18857917 1.0175225 1.4999802 
1.5361216 0.022224844 0.0 0.66735494 1.7006621 1.8872745 
1.3281157 1.444639 1.4324777 0.8034359 1.7346076 1.6412227 
0.18824977 1.8867784 2.4985883 0.5183199 1.5194508 0.0 
0.0 1.9641 2.3244522 0.041251674 1.3637708 0.0 
0.0 0.7851638 0.81062114 0.0 0.7073272 0.0 
0.0 0.0 0.0 0.0 0.0 0.07698792 
0.0 0.0 0.0 0.0 0.0 0.07698792 
0.0 0.0 0.0 0.0 0.0 0.07698792 
0.0 0.0 0.0 0.0 0.0 0.07698792 
0.0 0.0 0.0 0.0 0.0 0.07698792 
0.0 0.0 0.0 0.0 0.0 0.07698792 
0.68452245 0.04908184 0.2316798 0.0 0.0 0.022490803 
0.8399454 0.76693505 0.77623415 0.0 0.0 0.0 
0.8540705 0.9211402 0.9266696 0.0 0.50689584 0.0 
1.5125456 0.6508866 0.22333398 0.0 1.1411803 0.7470642 
1.6284823 0.4816912 0.0 0.0 2.0115047 0.917243 
1.0949509 1.7079064 1.4669864 0.28348914 2.4015915 0.54384327 
0.0 2.082642 2.169511 0.37414974 2.3286989 0.0 
0.0 1.1733317 1.7402685 0.30871806 1.1216724 0.067702964 
0.0 0.0010183481 0.0 0.0031070616 0.0 0.07698792 
0.0 0.0 0.0 0.0 0.0 0.07698792 
0.0 0.0 0.0 0.0 0.0 0.07698792 
0.0 0.0 0.0 0.0 0.0 0.07698792 
0.0 0.0 0.0 0.0 0.0 0.07698792 
0.0 0.0 0.0 0.0 0.0 0.07698792 
1.2386806 0.0 0.03094799 0.51728934 0.039357934 0.9009442 
1.5016408 0.89133555 0.94273686 1.0762659 0.8713007 0.6664754 
0.7020225 1.6875247 1.5497369 1.0910093 1.6147909 0.20625803 
1.0559549 1.7144383 1.4128172 0.87308115 1.9719194 0.3330148 
1.3375194 1.410872 0.60550565 0.7863506 2.6534405 0.90266705 
0.95579237 1.3971522 0.0 0.6922393 3.0183418 1.2245665 
0.0 1.757582 1.3498663 0.5262177 2.6017444 0.8828188 
0.0 0.51603836 1.385546 0.34221235 1.0084677 0.41995862 
0.0 0.0 0.0 0.0012276582 0.0 0.078523636 
0.0 0.0 0.0 0.0 0.0 0.07698792 
0.0 0.0 0.0 0.0 0.0 0.07698792 
0.0 0.0 0.0 0.0 0.0 0.07698792 
0.0 0.0 0.0 0.0 0.0 0.07698792 
0.0 0.0 0.0 0.0 0.0 0.07698792 
1.2316849 0.0 0.0 0.2980783 0.9114404 1.3587646 
1.3336976 0.0 0.0 0.9570427 1.8120109 1.866822 
0.768812 0.80225825 0.0 1.338201 2.5945644 2.014161 
0.3546681 0.72331274 0.0 1.2663345 2.7390764 2.0291696 
0.35011795 0.75662047 0.0 1.230269 2.9007306 1.8745196 
0.0 0.8782075 0.0 0.8978455 2.7784448 1.6392219 
0.0 0.59937274 0.5100726 0.23401652 1.3515016 0.902935 
0.0 0.0 0.4314903 0.0 0.25362462 0.29065293 
0.0 0.0 0.0 0.0 0.0 0.07729232 
0.0 0.0 0.0 0.0 0.0 0.07698792 
0.0 0.0 0.0 0.0 0.0 0.07698792 
0.0 0.0 0.0 0.0 0.0 0.07698792 
0.0 0.0 0.0 0.0 0.0 0.07698792 
0.0 0.0 0.0 0.0 0.0 0.07698792 
0.48644418 0.0 0.0 0.0 0.5857658 0.59003353 
0.6687908 0.0 0.0 0.0 1.2351602 1.328363 
0.39468205 0.0 0.0 0.0 1.407241 1.5003414 
0.23630083 0.0 0.0 0.0 1.4333061 1.5158896 
0.13326138 0.0 0.0 0.0 1.316937 1.2599208 
0.0 0.0 0.0 0.0 0.7534758 0.6871914 
0.0 0.0 0.07822121 0.0 0.23801212 0.26748997 
0.0 0.0 0.0 0.0 0.0 0.08003191 
0.0 0.0 0.0 0.0 0.0 0.07698792 
0.0 0.0 0.0 0.0 0.0 0.07698792 
0.0 0.0 0.0 0.0 0.0 0.07698792 
0.0 0.0 0.0 0.0 0.0 0.07698792 
0.0 0.0 0.0 0.0 0.0 0.07698792 
0.0 0.0 0.0 0.0 0.0 0.07698792 
0.0 0.0 0.0 0.0 0.0 0.07698792 
0.0 0.0 0.0 0.0 0.0 0.07698792 
0.0 0.0 0.0 0.0 0.0 0.07698792 
0.0 0.0 0.0 0.0 0.0 0.07698792 
0.0 0.0 0.0 0.0 0.0 0.07698792 
0.0 0.0 0.0 0.0 0.0 0.07698792 
0.0 0.0 0.0 0.0 0.0 0.07698792 
0.0 0.0 0.0 0.0 0.0 0.07698792 
0.0 0.0 0.0 0.0 0.0 0.07698792 
0.0 0.0 0.0 0.0 0.0 0.07698792 
0.0 0.0 0.0 0.0 0.0 0.07698792 
0.0 0.0 0.0 0.0 0.0 0.07698792 
0.0 0.0 0.0 0.0 0.0 0.07698792 
0.0 0.0 0.0 0.0 0.0 0.07698792 
0.0 0.0 0.0 0.0 0.0 0.07698792 
0.0 0.0 0.0 0.0 0.0 0.07698792 
0.0 0.0 0.0 0.0 0.0 0.07698792 
0.0 0.0 0.0 0.0 0.0 0.07698792 
0.0 0.0 0.0 0.0 0.0 0.07698792 
0.0 0.0 0.0 0.0 0.0 0.07698792 
0.0 0.0 0.0 0.0 0.0 0.07698792 
0.0 0.0 0.0 0.0 0.0 0.07698792 
0.0 0.0 0.0 0.0 0.0 0.07698792 
0.0 0.0 0.0 0.0 0.0 0.07698792 
0.0 0.0 0.0 0.0 0.0 0.07698792 
0.0 0.0 0.0 0.0 0.0 0.07698792 

