0.0 0.0 0.0 0.0 0.0 0.07698792 
0.0 0.0 0.0 0.0 0.0 0.07698792 
0.0 0.0 0.0 0.0 0.0 0.07698792 
0.0 0.0 0.0 0.0 0.0 0.07698792 
0.0 0.0 0.0 0.0 0.0 0.07698792 
0.0 0.0 0.0 0.0 0.0 0.07698792 
0.0 0.0 0.0 0.0 0.0 0.07698792 
0.0 0.0 0.0 0.0 0.0 0.07698792 
0.0 0.0 0.0 0.0 0.0 0.07698792 
0.0 0.0 0.0 0.0 0.0 0.07698792 
0.0 0.0 0.0 0.0 0.0 0.07698792 
0.0 0.0 0.0 0.0 0.0 0.07698792 
0.0 0.0 0.0 0.0 0.0 0.07698792 
0.0 0.0 0.0 0.0 0.0 0.07698792 
0.0 0.0 0.0 0.0 0.0 0.07698792 
0.0 0.0 0.0 0.0 0.0 0.07698792 
0.0 0.0 0.0 0.0 0.0 0.07698792 
0.0 0.0 0.0 0.0 0.0 0.07698792 
0.0 0.0 0.0 0.0 0.0 0.07698792 
0.0 0.0 0.0 0.0 0.0 0.07698792 
0.0 0.0 0.0 0.0 0.0 0.07698792 
0.0 0.0 0.0 0.0 0.0 0.07698792 
0.0 0.0 0.0 0.0 0.0 0.07698792 
0.0 0.0 0.0 0.0 0.0 0.07698792 
0.0 0.0 0.0 0.0 0.0 0.07698792 
0.0 0.0 0.0 0.0 0.0 0.07698792 
0.0 0.0 0.0 0.0 0.0 0.07698792 
0.0 0.0 0.0 0.0 0.0 0.07698792 
0.0 0.0 0.0 0.0 0.0 0.07698792 
0.0 0.0 0.0 0.0 0.0 0.07698792 
0.0448557 0.0 0.05467414 0.0 0.0 0.07698792 
0.80246705 0.09492215 0.31082287 0.0 0.0 0.0 
0.90680295 1.058586 0.9125376 0.0 0.0 0.0 
0.12312946 1.1127871 1.1072062 0.0 0.3008934 0.0 
0.13180307 0.8721767 0.85510075 0.0 0.08272979 0.0 
0.15940493 0.6985107 0.5647469 0.0 0.0010095537 0.0 
0.0 0.48953536 0.25101298 0.0 0.07437901 0.07542465 
0.0 0.18335035 0.035910748 0.0 0.04495832 0.07698792 
0.0 0.0 0.0 0.0 0.0 0.07698792 
0.0 0.0 0.0 0.0 0.0 0.07698792 
0.0 0.0 0.0 0.0 0.0 0.07698792 
0.0 0.0 0.0 0.0 0.0 0.07698792 
0.0 0.0 0.0 0.0 0.0 0.07698792 
0.0 0.0 0.0 0.0 0.0 0.07698792 
0.340281 0.0 0.061776273 0.063909 0.0 0.30216718 
1.7525351 0.0 0.14481044 0.59753764 0.30722865 0.61331636 
1.2351718 1.4544762 1.3093176 0.76151335 1.3686831 0.25478268 
0.4340536 1.695468 1.9631847 0.68059057 1.4655614 0.0 
0.4515277 1.5103483 1.9024411 0.45188102 1.2854974 0.0 
0.3437028 1.4825225 1.8834332 0.19645564 1.1367912 0.0 
0.14008078 1.5826054 1.8736985 0.0 0.8803291 0.0 
0.0 1.5530359 1.3972032 0.0 0.7729163 0.0 
0.0 0.5034399 0.3912095 0.0 0.45363137 0.032174166 
0.0 0.016986959 0.0 0.0 0.0 0.07698792 
0.0 0.0 0.0 0.0 0.0 0.07698792 
0.0 0.0 0.0 0.0 0.0 0.07698792 
0.0 0.0 0.0 0.0 0.0 0.07698792 
0.0 0.0 0.0 0.0 0.0 0.07698792 
0.4358794 0.0 0.0 0.21758083 0.2725663 0.56013787 
1.5531642 0.0 0.0 0.76619375 1.3890005 1.5313501 
1.2983396 0.7883872 0.0 1.2263683 2.1470883 2.1105487 
0.8845088 1.1805943 0.8526356 1.1326004 2.313424 2.0796983 
0.8222982 1.6924338 1.3689971 1.1185257 2.5962021 1.9338398 
0.5610081 1.813472 1.7319722 1.0659324 2.5998473 1.6387055 
0.50846916 1.8087474 2.1733587 0.95635605 2.0202672 0.92201185 
0.0 2.1716366 2.3663056 0.45824656 1.4644991 0.0 
0.0 1.8378645 1.9846452 0.0 1.2291254 0.0 
0.0 0.18170379 0.19814304 0.0 0.4403573 0.07490356 
0.0 0.0 0.0 0.0 0.0 0.07698792 
0.0 0.0 0.0 0.0 0.0 0.07698792 
0.0 0.0 0.0 0.0 0.0 0.07698792 
0.0 0.0 0.0 0.0 0.0 0.07698792 
0.24332032 0.0 0.0 0.0 0.3318393 0.32919568 
0.6787311 0.0 0.0 0.0 1.0583804 1.0753758 
0.65371877 0.0 0.0 0.0 1.5898197 1.8000071 
0.6748142 0.0 0.0 0.32041076 1.9489607 2.0137916 
0.5938265 0.07864122 0.0 0.90414697 2.376809 2.050513 
0.8681197 0.13314916 0.0 1.017428 2.4031885 2.082702 
1.5674748 0.79747176 0.0 0.8935474 2.0316572 1.7758522 
1.1078916 2.086402 1.8984079 0.46386585 2.241514 0.76917183 
0.0 2.0265117 2.2202337 0.18489985 1.9645339 0.0 
0.0 0.53280973 0.98722756 0.0 0.66115874 0.0733568 
0.0 0.0 0.0 0.0 0.0 0.07698792 
0.0 0.0 0.0 0.0 0.0 0.07698792 
0.0 0.0 0.0 0.0 0.0 0.07698792 
0.0 0.0 0.0 0.0 0.0 0.07698792 
0.0 0.0 0.0 0.0 0.0 0.07698792 
0.0 0.0 0.0 0.0 0.0 0.094932735 
0.10793187 0.0 0.0 0.0 0.23693548 0.22264513 
0.3239656 0.0 0.0 0.0 0.65993696 0.46103913 
0.30643517 0.0 0.0 0.0 0.94887453 0.643436 
1.2448211 0.0 0.0 0.0 1.0204552 1.2436514 
2.0486553 0.0905427 0.0 0.0 1.4840682 1.3866761 
1.4968197 2.0066135 0.62619394 0.013860174 2.627497 0.8241902 
0.0 1.9261388 1.9932767 0.18357547 2.1234324 0.21262436 
0.0 0.41462675 1.1377469 0.09215533 0.7515262 0.076598644 
0.0 0.0 0.0 0.0 0.0 0.07698792 
0.0 0.0 0.0 0.0 0.0 0.07698792 
0.0 0.0 0.0 0.0 0.0 0.07698792 
0.0 0.0 0.0 0.0 0.0 0.07698792 
0.0 0.0 0.0 0.0 0.0 0.07698792 
0.0 0.0 0.0 0.0 0.0 0.07698792 
0.0 0.0 0.0 0.0 0.0 0.07698792 
0.0 0.0 0.0 0.0 0.0 0.07698792 
0.4731329 0.0 0.11721266 0.0 0.0 0.06416633 
1.8272176 0.0 0.13955688 0.0 0.18330026 0.038820818 
2.1805177 1.0688639 0.0 0.0 2.3597682 0.35271448 
0.9892685 1.8526316 0.32552403 0.19788405 2.9679334 0.68451124 
0.0 1.4871933 1.5320909 0.25514805 2.0238278 0.48072442 
0.0 0.24391037 0.98550963 0.25764486 0.3583604 0.16310847 
0.0 0.0 0.0 0.0 0.0 0.07698792 
0.0 0.0 0.0 0.0 0.0 0.07698792 
0.0 0.0 0.0 0.0 0.0 0.07698792 
0.0 0.0 0.0 0.0 0.0 0.07698792 
0.0 0.0 0.0 0.0 0.0 0.07698792 
0.0 0.0 0.0 0.0 0.0 0.07698792 
0.0 0.0 0.0 0.0 0.0 0.07698792 
0.22414869 0.0 0.09484676 0.0 0.0 0.07698792 
1.5773256 0.0 0.106014885 0.0 0.0 0.0 
1.883152 1.1458045 0.0 0.07892347 2.1087244 0.3118946 
1.1013362 1.446848 0.0 0.48236507 2.9353936 1.0868828 
0.0 1.4845756 0.44216594 0.44008264 2.9338248 1.0228271 
0.0 0.4361461 0.80119324 0.13782609 1.1165341 0.58777046 
0.0 0.0 0.21367788 0.0 0.07441522 0.11747208 
0.0 0.0 0.0 0.0 0.0 0.07698792 
0.0 0.0 0.0 0.0 0.0 0.07698792 
0.0 0.0 0.0 0.0 0.0 0.07698792 
0.0 0.0 0.0 0.0 0.0 0.07698792 
0.0 0.0 0.0 0.0 0.0 0.07698792 
0.0 0.0 0.0 0.0 0.0 0.07698792 
0.03150402 0.0 0.047555387 0.0 0.0 0.07698792 
1.2301462 0.0 0.107955225 0.0 0.0 0.0033802167 
1.9464886 0.79990184 0.0 0.042558443 1.4221163 0.19037303 
1.5020525 1.6734419 0.0 0.18900499 2.8841922 0.6471414 
0.0 1.590634 0.37047288 0.19112243 2.9123993 1.094003 
0.0 0.3772746 0.2469761 0.0 1.2454109 0.7990425 
0.0 0.0 0.26347652 0.0 0.22075655 0.28893724 
0.0 0.0 0.0 0.0 0.0 0.07698792 
0.0 0.0 0.0 0.0 0.0 0.07698792 
0.0 0.0 0.0 0.0 0.0 0.07698792 
0.0 0.0 0.0 0.0 0.0 0.07698792 
0.0 0.0 0.0 0.0 0.0 0.07698792 
0.0 0.0 0.0 0.0 0.0 0.07698792 
0.0 0.0 0.0 0.0 0.0 0.07698792 
0.74593514 0.0 0.1242516 0.0 0.0 0.044802893 
1.9460249 0.25507936 0.027676828 0.0 0.7767837 0.15661009 
1.8776002 1.5339885 0.0 0.17189904 2.8233378 0.6078333 
0.0 1.6791086 0.57559466 0.17944999 2.9075935 0.734497 
0.0 0.6209363 0.6501299 0.03290904 1.4431541 0.655126 
0.0 0.0 0.3198347 0.0 0.14808607 0.19602 
0.0 0.0 0.0 0.0 0.0 0.07698792 
0.0 0.0 0.0 0.0 0.0 0.07698792 
0.0 0.0 0.0 0.0 0.0 0.07698792 
0.0 0.0 0.0 0.0 0.0 0.07698792 
0.0 0.0 0.0 0.0 0.0 0.07698792 
0.0 0.0 0.0 0.0 0.0 0.07698792 
0.0 0.0 0.0 0.0 0.0 0.07698792 
0.07389282 0.0 0.029607467 0.0 0.0 0.10123366 
1.7760849 0.0 0.032872222 0.15383463 0.055186514 0.49040246 
1.9855902 1.3113263 0.0 0.14997232 2.1155865 0.4410631 
0.5470892 1.8156421 0.554434 0.0128800245 2.805946 0.51389384 
0.0 1.082244 0.80701375 0.0 1.9983023 0.5548362 
0.0 0.04542237 0.51934177 0.005569878 0.32091376 0.3169504 
0.0 0.0 0.0 0.0 0.0 0.07729232 
0.0 0.0 0.0 0.0 0.0 0.07698792 
0.0 0.0 0.0 0.0 0.0 0.07698792 
0.0 0.0 0.0 0.0 0.0 0.07698792 
0.0 0.0 0.0 0.0 0.0 0.07698792 
0.0 0.0 0.0 0.0 0.0 0.07698792 
0.0 0.0 0.0 0.0 0.0 0.07698792 
0.0 0.0 0.0 0.0 0.0 0.07698792 
0.14660215 0.0 0.0 0.10645978 0.032107357 0.30682755 
1.5597625 0.0 0.0 0.62890255 1.2411035 1.4467511 
1.5453029 0.94117653 0.0 0.9576891 2.4219437 1.6456709 
0.0 1.3642821 0.94597256 0.72042453 2.5087588 0.96232694 
0.0 0.25384915 0.89103436 0.23505735 0.9607075 0.37909415 
0.0 0.0 0.015105225 0.0 0.0 0.08629968 
0.0 0.0 0.0 0.0 0.0 0.07698792 
0.0 0.0 0.0 0.0 0.0 0.07698792 
0.0 0.0 0.0 0.0 0.0 0.07698792 
0.0 0.0 0.0 0.0 0.0 0.07698792 
0.0 0.0 0.0 0.0 0.0 0.07698792 
0.0 0.0 0.0 0.0 0.0 0.07698792 
0.0 0.0 0.0 0.0 0.0 0.07698792 
0.0 0.0 0.0 0.0 0.0 0.07698792 
0.1112216 0.0 0.0 0.0 0.13610476 0.23709631 
0.7342121 0.0 0.0 0.0 1.0047989 1.1260855 
0.61478215 0.10683969 0.0 0.0 1.2406527 1.377461 
0.0 0.11148124 0.28986797 0.0 0.6612628 0.7802225 
0.0 0.0 0.4447903 0.0031379582 0.16431616 0.2232715 
0.0 0.0 0.0 0.0 0.0 0.07698792 
0.0 0.0 0.0 0.0 0.0 0.07698792 
0.0 0.0 0.0 0.0 0.0 0.07698792 
0.0 0.0 0.0 0.0 0.0 0.07698792 
0.0 0.0 0.0 0.0 0.0 0.07698792 
0.0 0.0 0.0 0.0 0.0 0.07698792 

