0.0 0.0 0.0 0.0 0.0 0.07698792 
0.0 0.0 0.0 0.0 0.0 0.07698792 
0.0 0.0 0.0 0.0 0.0 0.07698792 
0.0 0.0 0.0 0.0 0.0 0.07698792 
0.0 0.0 0.0 0.0 0.0 0.07698792 
0.0 0.0 0.0 0.0 0.0 0.07698792 
0.0 0.0 0.0 0.0 0.0 0.07698792 
0.0 0.0 0.0 0.0 0.0 0.07698792 
0.0 0.0 0.0 0.0 0.0 0.07698792 
0.0 0.0 0.0 0.0 0.0 0.07698792 
0.0 0.0 0.0 0.0 0.0 0.07698792 
0.0 0.0 0.0 0.0 0.0 0.07698792 
0.0 0.0 0.0 0.0 0.0 0.07698792 
0.0 0.0 0.0 0.0 0.0 0.07698792 
0.0 0.0 0.0 0.0 0.0 0.07698792 
0.0 0.0 0.0 0.0 0.0 0.07698792 
0.0 0.0 0.0 0.0 0.0 0.07698792 
0.0 0.0 0.0 0.0 0.0 0.07698792 
0.0 0.0 0.0 0.0 0.0 0.07698792 
0.0 0.0 0.0 0.0 0.0 0.07698792 
0.0 0.0 0.0 0.0 0.0 0.07698792 
0.6725342 0.004583991 0.19704986 0.0 0.0 0.02871839 
0.7096651 0.98979086 0.49883026 0.0 0.042613823 0.0 
0.0 0.90095514 0.66125643 0.0 0.45843914 0.0 
0.0 0.09891027 0.0 0.0 0.04548947 0.07698792 
0.0 0.0 0.0 0.0 0.0 0.07698792 
0.0 0.0 0.0 0.0 0.0 0.07698792 
0.0 0.0 0.0 0.0 0.0 0.07698792 
0.0 0.0 0.0 0.0 0.0 0.07698792 
0.0 0.0 0.0 0.0 0.0 0.07698792 
0.0 0.0 0.0 0.0 0.0 0.07698792 
0.0 0.0 0.0 0.0 0.0 0.07698792 
0.0 0.0 0.0 0.0 0.0 0.07698792 
0.0 0.0 0.0 0.0 0.0 0.07698792 
0.21180785 0.0 0.095913805 0.0 0.0 0.07698792 
1.7613802 0.0 0.115033604 0.05903733 0.0 0.20300466 
1.2982621 1.8057773 1.242234 0.07863731 1.1368345 0.0 
0.0 2.0156784 2.1128228 0.116932854 1.388409 0.0 
0.0 0.64191794 0.69820476 0.0 0.65086675 0.01028838 
0.0 0.0 0.0 0.0 0.0 0.07698792 
0.0 0.0 0.0 0.0 0.0 0.07698792 
0.0 0.0 0.0 0.0 0.0 0.07698792 
0.0 0.0 0.0 0.0 0.0 0.07698792 
0.0 0.0 0.0 0.0 0.0 0.07698792 
0.0 0.0 0.0 0.0 0.0 0.07698792 
0.0 0.0 0.0 0.0 0.0 0.07698792 
0.0 0.0 0.0 0.0 0.0 0.07698792 
0.0 0.0 0.0 0.0 0.0 0.07698792 
1.0744815 0.0 0.045320787 0.046451155 0.0 0.33257714 
2.1763592 0.4291659 0.0 0.031730477 1.1922315 0.57178545 
1.4658601 1.9269004 0.6158657 0.26879737 2.4991481 0.4422069 
0.0 2.0963528 2.2295508 0.41091922 2.2831485 0.093343824 
0.0 0.90935713 1.4504584 0.3084678 0.86944 0.13079885 
0.0 0.0 0.0 0.0 0.0 0.07698792 
0.0 0.0 0.0 0.0 0.0 0.07698792 
0.0 0.0 0.0 0.0 0.0 0.07698792 
0.0 0.0 0.0 0.0 0.0 0.07698792 
0.0 0.0 0.0 0.0 0.0 0.07698792 
0.0 0.0 0.0 0.0 0.0 0.07698792 
0.0 0.0 0.0 0.0 0.0 0.07698792 
0.0 0.0 0.0 0.0 0.0 0.07698792 
0.050445274 0.0 0.01701206 0.0 0.0 0.07698792 
1.863019 0.0 0.0 0.0005460726 0.1838236 0.5671906 
2.1893978 0.92525387 0.0 0.0 1.8812803 0.5191627 
1.1142654 1.8423185 0.34450305 0.13209882 2.9707143 0.599645 
0.0 1.6655397 1.3146331 0.21545777 2.3657153 0.43793297 
0.0 0.3177558 1.0928028 0.26881298 0.61050993 0.31469566 
0.0 0.0 0.0 0.0 0.0 0.07698792 
0.0 0.0 0.0 0.0 0.0 0.07698792 
0.0 0.0 0.0 0.0 0.0 0.07698792 
0.0 0.0 0.0 0.0 0.0 0.07698792 
0.0 0.0 0.0 0.0 0.0 0.07698792 
0.0 0.0 0.0 0.0 0.0 0.07698792 
0.0 0.0 0.0 0.0 0.0 0.07698792 
0.0 0.0 0.0 0.0 0.0 0.07698792 
0.79944783 0.0 0.11900116 0.0 0.0 0.052853156 
2.1771548 0.2122277 0.0 0.0 0.87169504 0.4383126 
1.996465 1.4130083 0.0 0.0 2.7638543 0.59856653 
0.050972402 1.8449137 1.0389396 0.10112256 3.0136335 0.35587132 
0.0 1.0421939 1.3100811 0.07166252 1.6436799 0.37609136 
0.0 0.0 0.26276335 0.0 0.124888316 0.16666481 
0.0 0.0 0.0 0.0 0.0 0.07698792 
0.0 0.0 0.0 0.0 0.0 0.07698792 
0.0 0.0 0.0 0.0 0.0 0.07698792 
0.0 0.0 0.0 0.0 0.0 0.07698792 
0.0 0.0 0.0 0.0 0.0 0.07698792 
0.0 0.0 0.0 0.0 0.0 0.07698792 
0.0 0.0 0.0 0.0 0.0 0.07698792 
0.09104851 0.0 0.067605086 0.0 0.0 0.07698792 
1.7406983 0.0 0.013382994 0.008550678 0.0 0.32752025 
2.0771277 1.0528313 0.0 0.04480082 1.8717846 0.34115756 
1.1854751 1.9269481 0.26812783 0.030752815 3.0309515 0.5422549 
0.0 1.8080602 1.195771 0.07840635 2.6169226 0.34052104 
0.0 0.43408653 1.18007 0.14251895 0.9365065 0.38390648 
0.0 0.0 0.0 0.0 0.0 0.07698792 
0.0 0.0 0.0 0.0 0.0 0.07698792 
0.0 0.0 0.0 0.0 0.0 0.07698792 
0.0 0.0 0.0 0.0 0.0 0.07698792 
0.0 0.0 0.0 0.0 0.0 0.07698792 
0.0 0.0 0.0 0.0 0.0 0.07698792 
0.0 0.0 0.0 0.0 0.0 0.07698792 
0.0 0.0 0.0 0.0 0.0 0.07698792 
0.879335 0.0 0.0665617 0.0 0.0 0.11810521 
2.136307 0.2714253 0.0 0.0 1.0566975 0.3754684 
1.9115055 1.3675581 0.0 0.0 2.7697346 0.6431713 
0.42225832 1.788042 0.7446229 0.18750852 3.0811577 0.5548818 
0.0 1.3691962 1.2872432 0.18335417 1.9735764 0.420025 
0.0 0.033328824 0.5592583 0.06689512 0.34073398 0.1908666 
0.0 0.0 0.0 0.0 0.0 0.07698792 
0.0 0.0 0.0 0.0 0.0 0.07698792 
0.0 0.0 0.0 0.0 0.0 0.07698792 
0.0 0.0 0.0 0.0 0.0 0.07698792 
0.0 0.0 0.0 0.0 0.0 0.07698792 
0.0 0.0 0.0 0.0 0.0 0.07698792 
0.0 0.0 0.0 0.0 0.0 0.07698792 
0.13229626 0.0 0.11900116 0.0 0.0 0.07698792 
1.7989767 0.0 0.0 0.008579467 0.08142094 0.35644853 
2.126172 1.037142 0.0 0.027722899 1.9169253 0.35715258 
1.3288205 1.7157177 0.16796237 0.15078229 3.1489713 0.6947471 
0.0 1.8315798 0.9691467 0.11645019 2.9499094 0.56453544 
0.0 0.5395474 1.0721565 0.17144835 1.2416688 0.46896857 
0.0 0.0 0.13084888 0.0 0.013000932 0.10310605 
0.0 0.0 0.0 0.0 0.0 0.07698792 
0.0 0.0 0.0 0.0 0.0 0.07698792 
0.0 0.0 0.0 0.0 0.0 0.07698792 
0.0 0.0 0.0 0.0 0.0 0.07698792 
0.0 0.0 0.0 0.0 0.0 0.07698792 
0.0 0.0 0.0 0.0 0.0 0.07698792 
0.0 0.0 0.0 0.0 0.0 0.07698792 
0.6630414 0.0 0.0 0.013019946 0.0 0.31389317 
2.1623547 0.0 0.0 0.12366384 0.9789012 0.5663815 
1.8962045 1.5383689 0.0 0.16605118 2.8339915 0.59220487 
0.38636386 1.7424086 0.48329103 0.07915984 3.1221733 0.7035868 
0.0 1.2181052 0.9636284 0.09447487 2.064519 0.5189814 
0.0 0.12627667 0.6821257 0.095853746 0.33337817 0.26404327 
0.0 0.0 0.0 0.0 0.0 0.07698792 
0.0 0.0 0.0 0.0 0.0 0.07698792 
0.0 0.0 0.0 0.0 0.0 0.07698792 
0.0 0.0 0.0 0.0 0.0 0.07698792 
0.0 0.0 0.0 0.0 0.0 0.07698792 
0.0 0.0 0.0 0.0 0.0 0.07698792 
0.0 0.0 0.0 0.0 0.0 0.07698792 
0.0 0.0 0.0 0.0 0.0 0.07698792 
1.1407254 0.0 0.0 0.12813458 0.120425716 0.79560477 
2.1667705 0.2372064 0.0 0.14184144 1.3749951 1.0773563 
1.4663594 1.8036337 0.28976178 0.14007609 3.0870426 0.7357251 
0.0 1.6067843 1.0021313 0.047056872 2.8943415 0.4609154 
0.0 0.27693188 0.81357104 0.111718535 1.0015385 0.4365102 
0.0 0.0 0.056204803 0.0 0.031763475 0.091522954 
0.0 0.0 0.0 0.0 0.0 0.07698792 
0.0 0.0 0.0 0.0 0.0 0.07698792 
0.0 0.0 0.0 0.0 0.0 0.07698792 
0.0 0.0 0.0 0.0 0.0 0.07698792 
0.0 0.0 0.0 0.0 0.0 0.07698792 
0.0 0.0 0.0 0.0 0.0 0.07698792 
0.0 0.0 0.0 0.0 0.0 0.07698792 
0.0 0.0 0.0 0.0 0.0 0.07698792 
0.9464987 0.0 0.0 0.18424065 0.59447944 0.98190886 
1.6608005 0.0 0.0 0.71488 1.7483668 1.6109018 
0.7435778 1.3279403 0.224294 0.90912944 2.6600883 1.5664229 
0.0 0.9691768 0.9046105 0.3797039 1.7170333 0.6996261 
0.0 0.0 0.42040506 0.0 0.21197085 0.2170971 
0.0 0.0 0.0 0.0 0.0 0.07698792 
0.0 0.0 0.0 0.0 0.0 0.07698792 
0.0 0.0 0.0 0.0 0.0 0.07698792 
0.0 0.0 0.0 0.0 0.0 0.07698792 
0.0 0.0 0.0 0.0 0.0 0.07698792 
0.0 0.0 0.0 0.0 0.0 0.07698792 
0.0 0.0 0.0 0.0 0.0 0.07698792 
0.0 0.0 0.0 0.0 0.0 0.07698792 
0.0 0.0 0.0 0.0 0.0 0.07698792 
0.45939755 0.0 0.0 0.0 0.4508417 0.5673855 
0.77708364 0.0 0.0 0.0 1.2001053 1.3043721 
0.15943544 0.12391588 0.0 0.0 1.0458136 1.2139752 
0.0 0.0 0.48528987 0.029381584 0.34951013 0.5243646 
0.0 0.0 0.0 0.0 0.0 0.0818583 
0.0 0.0 0.0 0.0 0.0 0.07698792 
0.0 0.0 0.0 0.0 0.0 0.07698792 
0.0 0.0 0.0 0.0 0.0 0.07698792 
0.0 0.0 0.0 0.0 0.0 0.07698792 
0.0 0.0 0.0 0.0 0.0 0.07698792 
0.0 0.0 0.0 0.0 0.0 0.07698792 
0.0 0.0 0.0 0.0 0.0 0.07698792 
0.0 0.0 0.0 0.0 0.0 0.07698792 
0.0 0.0 0.0 0.0 0.0 0.07698792 
0.0 0.0 0.0 0.0 0.0 0.07698792 
0.0 0.0 0.0 0.0 0.0 0.07698792 
0.0 0.0 0.0 0.0 0.0 0.07698792 
0.0 0.0 0.0 0.0 0.0 0.07698792 
0.0 0.0 0.0 0.0 0.0 0.07698792 
0.0 0.0 0.0 0.0 0.0 0.07698792 
0.0 0.0 0.0 0.0 0.0 0.07698792 
0.0 0.0 0.0 0.0 0.0 0.07698792 
0.0 0.0 0.0 0.0 0.0 0.07698792 
0.0 0.0 0.0 0.0 0.0 0.07698792 
0.0 0.0 0.0 0.0 0.0 0.07698792 

