0.0 0.0 0.0 0.0 0.0 0.07698792 
0.0 0.0 0.0 0.0 0.0 0.07698792 
0.0 0.0 0.0 0.0 0.0 0.07698792 
0.0 0.0 0.0 0.0 0.0 0.07698792 
0.0 0.0 0.0 0.0 0.0 0.07698792 
0.0 0.0 0.0 0.0 0.0 0.07698792 
0.0 0.0 0.0 0.0 0.0 0.07698792 
0.0 0.0 0.0 0.0 0.0 0.07698792 
0.0 0.0 0.0 0.0 0.0 0.07698792 
0.0 0.0 0.0 0.0 0.0 0.07698792 
0.0 0.0 0.0 0.0 0.0 0.07698792 
0.0 0.0 0.0 0.0 0.0 0.07698792 
0.0 0.0 0.0 0.0 0.0 0.07698792 
0.0 0.0 0.0 0.0 0.0 0.07698792 
0.0 0.0 0.0 0.0 0.0 0.07698792 
0.0 0.0 0.0 0.0 0.0 0.07698792 
0.0 0.0 0.0 0.0 0.0 0.07698792 
0.0 0.0 0.0 0.0 0.0 0.07698792 
0.0 0.0 0.0 0.0 0.0 0.07698792 
0.0 0.0 0.0 0.0 0.0 0.07698792 
0.0 0.0 0.0 0.0 0.0 0.07698792 
0.0 0.0 0.0 0.0 0.0 0.07698792 
0.0 0.0 0.0 0.0 0.0 0.07698792 
0.0 0.0 0.0 0.0 0.0 0.07698792 
0.0 0.0 0.0 0.0 0.0 0.07698792 
0.0 0.0 0.0 0.0 0.0 0.07698792 
0.0 0.0 0.0 0.0 0.0 0.07698792 
0.0 0.0 0.0 0.0 0.0 0.07698792 
0.0 0.0 0.0 0.0 0.0 0.07698792 
0.0 0.0 0.0 0.0 0.0 0.07698792 
0.0 0.0 0.0 0.0 0.0 0.07698792 
0.0 0.0 0.0 0.0 0.0 0.07698792 
0.0 0.0 0.0 0.0 0.0 0.07698792 
0.0 0.0 0.0 0.0 0.0 0.07698792 
0.0 0.0 0.0 0.0 0.0 0.07698792 
0.09511772 0.0 0.1098833 0.0 0.0 0.07698792 
0.38168955 0.20429812 0.32057083 0.0 0.0 0.07698792 
0.4745494 0.6132807 0.5608886 0.0 0.0 0.0 
0.38696438 0.7053116 0.6795292 0.0 0.0 0.0 
0.37721846 0.8834198 0.5609557 0.0 0.10579313 0.0 
0.0 0.626411 0.40613693 0.0 0.29582456 0.005429581 
0.0 0.07432032 0.0 0.0 0.041067485 0.07698792 
0.0 0.0 0.0 0.0 0.0 0.07698792 
0.0 0.0 0.0 0.0 0.0 0.07698792 
0.0 0.0 0.0 0.0 0.0 0.07698792 
0.0 0.0 0.0 0.0 0.0 0.07698792 
0.0 0.0 0.0 0.0 0.0 0.07698792 
0.0019522607 0.0 0.020218782 0.0 0.0 0.07698792 
0.4580993 0.0 0.20473212 0.0 0.0 0.06756028 
1.1270943 0.21702537 0.39223233 0.0 0.0 0.0 
1.0164542 0.72119087 0.60634714 0.0035941922 0.86566174 0.0 
0.7690153 1.0014371 0.85967094 1.0019082 1.608528 0.11487368 
0.3034705 0.8249601 0.9240222 1.4443177 1.5010136 0.6562352 
0.29327875 1.1692761 0.99904454 1.3746277 1.0914649 0.5235609 
0.0 1.2184685 1.3254429 0.9079553 0.9554251 0.0 
0.0 0.1657448 0.35008416 0.0 0.41072294 0.07698792 
0.0 0.0 0.0 0.0 0.0 0.07698792 
0.0 0.0 0.0 0.0 0.0 0.07698792 
0.0 0.0 0.0 0.0 0.0 0.07698792 
0.0 0.0 0.0 0.0 0.0 0.07698792 
0.31075305 0.0 0.19408107 0.0 0.0 0.0754795 
0.95355743 0.12901357 0.39237475 0.0 0.0 0.0 
1.1297 0.64786744 0.38715523 0.0 0.5426002 0.0 
1.2260461 1.0729833 0.33883366 0.83643186 2.255012 0.71925783 
0.49647075 1.3209047 0.37240067 1.09376 2.5226085 1.3819354 
0.0 1.2596668 0.32882783 1.4268249 2.1240551 1.4956648 
0.18398476 0.9429526 0.20791 1.2650094 1.4583734 1.590858 
0.30795088 0.70806295 0.025404975 1.0013967 1.1680319 1.4843004 
0.0 0.7117881 1.2483155 0.9110036 0.7822615 0.5678104 
0.0 0.33408844 0.63258564 0.2882231 0.17903502 0.1487968 
0.0 0.0 0.0 0.0 0.0 0.07698792 
0.0 0.0 0.0 0.0 0.0 0.07698792 
0.0 0.0 0.013198227 0.0 0.0 0.07698792 
0.6309477 0.0 0.19783205 0.0 0.0 0.044933937 
1.378238 0.29207423 0.397983 0.0 0.0 0.0 
1.3294382 1.1766638 0.49856716 0.08334425 1.5166677 0.0 
0.7994973 1.8010813 0.5337687 0.5149691 2.2494283 0.21458487 
0.20858687 1.6620989 0.33382845 0.7336805 2.5279417 1.0754485 
0.0 0.8530046 0.1457141 0.25167826 2.0862396 1.2068925 
0.0 0.0 0.077817954 0.0 1.019368 0.8046393 
0.0 0.0 0.0 0.0 0.52388126 0.3750038 
0.21503079 0.0 0.0 0.0 0.6543033 0.4545735 
0.0 0.0 0.0 0.0 0.24099822 0.27297795 
0.0 0.0 0.17304331 0.0 0.06598082 0.10799147 
0.0 0.0 0.0 0.0 0.0 0.07698792 
0.0 0.0 0.0 0.0 0.0 0.07698792 
0.19608808 0.0 0.061807707 0.011356593 0.0 0.19085397 
1.545615 0.0 0.13676542 0.49358773 0.14434786 0.46126163 
1.5422406 0.9111843 0.36253312 0.77975297 2.0978246 0.8390072 
1.2080054 1.5967615 0.32927948 0.81813055 2.7015135 1.2356813 
0.61472434 1.6661972 0.6325097 0.97121835 2.5082066 1.0912726 
0.08514686 1.2413944 1.5381553 1.0697114 1.7838509 0.640217 
0.0 1.4895253 1.7998089 0.5903084 1.0075856 0.0 
0.0 1.1376914 1.1214926 0.0 0.7377127 0.0 
0.0 0.100244574 0.019973777 0.0 0.15585376 0.07698792 
0.0 0.0 0.0 0.0 0.0 0.07698792 
0.0 0.0 0.0 0.0 0.0 0.07698792 
0.0 0.0 0.0 0.0 0.0 0.07698792 
0.0 0.0 0.0 0.0 0.0 0.07698792 
0.0 0.0 0.0 0.0 0.0 0.07698792 
0.30964574 0.0012587616 0.0 0.15656836 0.1355338 0.4043302 
1.3361206 0.0 0.0 0.77756536 1.2836279 1.3084588 
1.1410282 0.62079155 0.0 1.1923031 2.3992631 1.8244753 
0.27795607 0.56134903 0.0 1.1338109 2.6824856 1.9034309 
0.26583573 0.6258599 0.0 1.3031917 2.2546618 1.7526953 
1.2129805 0.45873258 0.5200465 1.3522614 1.5415492 1.5513167 
1.0120399 1.6448532 1.7847625 1.0438927 1.2613498 0.57359993 
0.0 1.7427617 1.83879 0.33572093 1.4418632 0.0 
0.0 0.27173847 0.5310461 0.023638185 0.43762702 0.07698792 
0.0 0.0 0.0 0.0 0.0 0.07698792 
0.0 0.0 0.0 0.0 0.0 0.07698792 
0.0 0.0 0.0 0.0 0.0 0.07698792 
0.0 0.0 0.0 0.0 0.0 0.07698792 
0.25151396 0.0 0.13633338 0.0 0.0 0.08341603 
1.0061402 0.26277143 0.36219198 0.0 0.012859624 0.0 
0.72672045 1.0053978 0.6488817 0.0 1.1001555 0.12495741 
0.31202498 0.6234442 0.16034976 0.0 1.2359668 0.9124885 
0.30525565 0.26263037 0.18305278 0.0 1.1649511 0.93868244 
0.8821004 0.23744145 0.39529645 0.0 0.7969888 0.51355946 
1.810261 0.5533845 0.21700191 0.0 1.2558705 0.3263333 
1.266654 1.554668 0.0 0.18850331 2.2672746 0.3242736 
0.0 1.3263052 1.6347884 0.3557236 1.782997 0.49194515 
0.0 0.3144618 0.74367213 0.27176768 0.23904301 0.14632246 
0.0 0.0 0.0 0.0 0.0 0.07698792 
0.0 0.0 0.0 0.0 0.0 0.07698792 
0.0 0.0 0.0 0.0 0.0 0.07698792 
0.0 0.0 0.0 0.0 0.0 0.07698792 
0.44410384 0.0 0.0 0.27397785 0.10996179 0.61550415 
1.043669 0.0 0.0 0.9325254 0.69134 1.1520302 
0.6616276 1.3570552 1.7866752 1.6281596 0.9092858 1.0700092 
0.2331295 1.3574791 1.7033916 1.4126538 1.0333635 0.2235016 
0.51554406 0.9558746 1.2295098 0.76274794 1.1169746 0.0 
0.8937756 0.88152957 0.8097738 1.095755 1.981253 0.60675734 
0.9202398 1.1269866 0.13455623 1.1109537 2.5189726 1.1706803 
0.0 1.3587666 0.37742782 0.527464 2.568094 1.0191805 
0.0 0.43649504 0.69518846 0.15854436 0.9937301 0.5807055 
0.0 0.0 0.20560098 0.0 0.06454031 0.11176754 
0.0 0.0 0.0 0.0 0.0 0.07698792 
0.0 0.0 0.0 0.0 0.0 0.07698792 
0.0 0.0 0.0 0.0 0.0 0.07698792 
0.0 0.0 0.0 0.0 0.0 0.07698792 
0.3873884 0.0 0.0 0.0 0.3760458 0.49734187 
0.8697689 0.0 0.0 0.0033672797 1.1059822 1.4236088 
0.7126173 0.010857209 0.0 0.9517836 1.3691143 1.6592224 
0.47388917 0.7334255 0.56014854 1.8242161 1.604211 1.7226562 
0.2887915 0.88788015 0.5813508 1.8753808 1.7523443 1.7435842 
0.29667944 1.0297091 0.22870731 1.6608977 2.177146 1.6126812 
0.0 0.90133554 0.0 0.82227093 2.1076097 1.4500358 
0.0 0.31159657 0.2257027 0.0 0.86398584 0.7831798 
0.0 0.0 0.2442477 0.0 0.20152815 0.24199477 
0.0 0.0 0.0 0.0 0.0 0.07729232 
0.0 0.0 0.0 0.0 0.0 0.07698792 
0.0 0.0 0.0 0.0 0.0 0.07698792 
0.0 0.0 0.0 0.0 0.0 0.07698792 
0.0 0.0 0.0 0.0 0.0 0.07698792 
0.0 0.0 0.0 0.0 0.0 0.08441444 
0.20358127 0.0 0.0 0.0 0.3646219 0.27309018 
0.42920107 0.0 0.0 0.0 0.8234475 0.6519292 
0.38004225 0.0 0.0 0.0 1.1422659 0.9427681 
0.23565334 0.0 0.0 0.0 1.1749051 0.9990216 
0.020215563 0.0 0.0 0.0 1.0347 0.8124247 
0.0 0.0 0.0 0.0 0.43245676 0.38818726 
0.0 0.0 0.0 0.0 0.08159542 0.13349082 
0.0 0.0 0.0 0.0 0.0 0.07752062 
0.0 0.0 0.0 0.0 0.0 0.07698792 
0.0 0.0 0.0 0.0 0.0 0.07698792 
0.0 0.0 0.0 0.0 0.0 0.07698792 
0.0 0.0 0.0 0.0 0.0 0.07698792 
0.0 0.0 0.0 0.0 0.0 0.07698792 
0.0 0.0 0.0 0.0 0.0 0.07698792 
0.0 0.0 0.0 0.0 0.0 0.07698792 
0.0 0.0 0.0 0.0 0.0 0.07698792 
0.0 0.0 0.0 0.0 0.0 0.07698792 
0.0 0.0 0.0 0.0 0.0 0.07698792 
0.0 0.0 0.0 0.0 0.0 0.07698792 
0.0 0.0 0.0 0.0 0.0 0.07698792 
0.0 0.0 0.0 0.0 0.0 0.07698792 
0.0 0.0 0.0 0.0 0.0 0.07698792 
0.0 0.0 0.0 0.0 0.0 0.07698792 
0.0 0.0 0.0 0.0 0.0 0.07698792 
0.0 0.0 0.0 0.0 0.0 0.07698792 
0.0 0.0 0.0 0.0 0.0 0.07698792 
0.0 0.0 0.0 0.0 0.0 0.07698792 
0.0 0.0 0.0 0.0 0.0 0.07698792 
0.0 0.0 0.0 0.0 0.0 0.07698792 
0.0 0.0 0.0 0.0 0.0 0.07698792 
0.0 0.0 0.0 0.0 0.0 0.07698792 
0.0 0.0 0.0 0.0 0.0 0.07698792 
0.0 0.0 0.0 0.0 0.0 0.07698792 
0.0 0.0 0.0 0.0 0.0 0.07698792 
0.0 0.0 0.0 0.0 0.0 0.07698792 
0.0 0.0 0.0 0.0 0.0 0.07698792 
0.0 0.0 0.0 0.0 0.0 0.07698792 
0.0 0.0 0.0 0.0 0.0 0.07698792 
0.0 0.0 0.0 0.0 0.0 0.07698792 
0.0 0.0 0.0 0.0 0.0 0.07698792 

