0.0 0.0 0.0 0.0 0.0 0.07698792 
0.0 0.0 0.0 0.0 0.0 0.07698792 
0.0 0.0 0.0 0.0 0.0 0.07698792 
0.0 0.0 0.0 0.0 0.0 0.07698792 
0.0 0.0 0.0 0.0 0.0 0.07698792 
0.0 0.0 0.0 0.0 0.0 0.07698792 
0.0 0.0 0.0 0.0 0.0 0.07698792 
0.0 0.0 0.0 0.0 0.0 0.07698792 
0.0 0.0 0.0 0.0 0.0 0.07698792 
0.0 0.0 0.0 0.0 0.0 0.07698792 
0.0 0.0 0.0 0.0 0.0 0.07698792 
0.0 0.0 0.0 0.0 0.0 0.07698792 
0.0 0.0 0.0 0.0 0.0 0.07698792 
0.0 0.0 0.0 0.0 0.0 0.07698792 
0.0 0.0 0.0 0.0 0.0 0.07698792 
0.0 0.0 0.0 0.0 0.0 0.07698792 
0.0 0.0 0.0 0.0 0.0 0.07698792 
0.0 0.0 0.0 0.0 0.0 0.07698792 
0.0 0.0 0.0 0.0 0.0 0.07698792 
0.0 0.0 0.0 0.0 0.0 0.07698792 
0.0 0.0 0.0 0.0 0.0 0.07698792 
0.0 0.0 0.0 0.0 0.0 0.07698792 
0.0 0.0 0.0 0.0 0.0 0.07698792 
0.0 0.0 0.0 0.0 0.0 0.07698792 
0.0 0.0 0.0 0.0 0.0 0.07698792 
0.0 0.0 0.0 0.0 0.0 0.07698792 
0.0 0.0 0.0 0.0 0.0 0.07698792 
0.0 0.0 0.0 0.0 0.0 0.07698792 
0.0 0.0 0.0 0.0 0.0 0.07698792 
0.0 0.0 0.0 0.0 0.0 0.07698792 
0.0 0.0 0.0 0.0 0.0 0.07698792 
0.0 0.0 0.0 0.0 0.0 0.07698792 
0.0 0.0 0.0 0.0 0.0 0.07698792 
0.0 0.0 0.0 0.0 0.0 0.07698792 
0.0 0.0 0.0 0.0 0.0 0.07698792 
0.0 0.0 0.0 0.0 0.0 0.07698792 
0.0 0.0 0.0 0.0 0.0 0.07698792 
0.0 0.0 0.0 0.0 0.0 0.07698792 
0.0 0.0 0.0 0.0 0.0 0.07698792 
0.0 0.0 0.0 0.0 0.0 0.07698792 
0.0 0.0 0.0 0.0 0.0 0.07698792 
0.0 0.0 0.0 0.0 0.0 0.07698792 
0.0 0.0 0.0 0.0 0.0 0.07698792 
0.0 0.0 0.0 0.0 0.0 0.07698792 
0.0 0.0 0.0 0.0 0.0 0.07698792 
0.0 0.0 0.0 0.0 0.0 0.07698792 
0.0 0.0 0.0 0.0 0.0 0.07698792 
0.0 0.029477835 0.0 0.0 0.0 0.07698792 
0.2990886 0.078932434 0.22171897 0.0 0.0 0.07698792 
0.49943185 0.39458117 0.47031432 0.0 0.0 0.02254387 
0.5016889 0.7081285 0.6602529 0.0 0.0 0.0 
0.45557004 0.726952 0.6948204 0.0 0.0 0.0 
0.57916594 0.80088633 0.7718278 0.0 0.0 0.0 
0.42692512 0.99713284 0.921916 0.0 0.15597484 0.0 
0.13319084 0.9178648 0.8759281 0.0 0.27836373 0.0 
0.0 0.69614714 0.40074813 0.0 0.27478322 0.0 
0.0 0.0 0.0 0.0 0.0 0.07698792 
0.0 0.0 0.0 0.0 0.0 0.07698792 
0.0 0.0 0.0 0.0 0.0 0.07698792 
0.116356224 0.0 0.09582967 0.0 0.0 0.07698792 
0.8235065 0.08446776 0.2862534 0.0 0.0 0.0 
0.6007616 1.0068825 0.6169338 0.0 0.3802043 0.0 
0.68439746 0.30476257 0.4878888 0.06313616 0.43025228 0.12884183 
0.8959474 0.66917735 0.6327011 1.1616136 1.053001 0.35980734 
0.3625078 0.8334702 0.782067 1.4291906 1.5336808 0.5779091 
0.22621423 0.67320913 0.79091346 1.5662493 1.3522005 0.8620354 
0.27341688 0.63142633 0.72464657 1.6688722 1.3186685 1.0859306 
0.089567155 0.79971904 1.0692049 1.6810132 1.3069935 1.0419023 
0.0 0.97295886 1.0491476 1.6321275 1.1974208 0.8033119 
0.0 0.88071257 0.9787606 1.0195792 0.8481425 0.23635526 
0.0 0.0 0.0 0.0 0.0 0.07698792 
0.0 0.0 0.0 0.0 0.0 0.07698792 
0.0 0.0 0.0 0.0 0.0 0.07698792 
1.002722 0.0 0.087789364 0.0 0.0 0.11933176 
1.6146388 0.87243414 0.09388382 0.1984584 0.776919 0.09399312 
0.26830372 1.8264143 1.3828351 0.31285715 1.491391 0.0 
0.37488565 0.9797317 1.0337468 0.82270724 1.34489 0.9030954 
0.48416722 0.66386306 0.0 1.2606332 1.4082133 1.3686519 
0.06210254 0.9285553 0.011380695 1.2560862 1.4563233 1.4252968 
0.20591626 0.7068328 0.0 0.7917902 1.2065741 1.4966755 
0.29028186 0.43261534 0.0 0.43515712 1.2759116 1.5594585 
0.17712665 0.40834552 0.0 0.3689168 1.2023714 1.5444345 
0.101799846 0.57660306 0.0 0.42282996 1.0651923 1.4059591 
0.0 0.48705474 0.6014957 0.31685725 0.35996762 0.571878 
0.0 0.0 0.0 0.0 0.0 0.07698792 
0.0 0.0 0.0 0.0 0.0 0.07698792 
0.0 0.0 0.0 0.0 0.0 0.07698792 
1.1579669 0.0 0.0 0.40918306 0.60937345 1.1757977 
1.8452799 0.938473 0.0 0.7082174 1.470096 1.4155302 
0.45739663 1.7144655 1.4249723 0.8645819 1.5653541 0.67045635 
0.060097188 1.1575196 1.7050036 0.20358771 1.2848349 0.0 
0.021019898 1.1506792 1.2482257 0.0 0.89961565 0.0 
0.0 0.77776456 0.7045117 0.0 0.6767437 0.16513179 
0.0 0.1899416 0.033706106 0.0 0.24175824 0.23213418 
0.0 0.0 0.0 0.0 0.13723183 0.16970716 
0.0 0.0 0.0 0.0 0.13250916 0.16894618 
0.0 0.0 0.0 0.0 0.08272274 0.1472855 
0.0 0.0 0.0 0.0 8.0913305e-05 0.10932562 
0.0 0.0 0.0 0.0 0.0 0.07698792 
0.0 0.0 0.0 0.0 0.0 0.07698792 
0.0 0.0 0.0 0.0 0.0 0.07698792 
0.884803 0.0 0.0 0.02954086 0.86113685 1.1263299 
1.0188246 0.0 0.0 0.5031823 1.260166 1.6649797 
0.5091428 0.55452025 0.51635176 1.4923884 1.472378 1.6108189 
0.2127319 0.6486288 1.2616814 1.6431904 1.3465854 1.6839948 
0.51213974 1.2748972 1.7101792 1.1478214 0.72295445 1.1146166 
0.15764734 1.6606174 1.8238387 0.84652776 0.89516604 0.0 
0.0 1.1366683 1.158743 0.0 0.8061232 0.0 
0.0 0.057124145 0.0 0.0 0.06323893 0.07698792 
0.0 0.0 0.0 0.0 0.0 0.07698792 
0.0 0.0 0.0 0.0 0.0 0.07698792 
0.0 0.0 0.0 0.0 0.0 0.07698792 
0.0 0.0 0.0 0.0 0.0 0.07698792 
0.0 0.0 0.0 0.0 0.0 0.07698792 
0.102649674 0.0 0.12484572 0.0 0.0 0.07698792 
0.28302893 0.23219217 0.13285014 0.0 0.1751543 0.14532612 
0.4922349 0.28849995 0.16681641 0.0 0.7794953 0.6468728 
0.43866205 0.0 0.0 0.0 1.1207541 0.9608159 
0.92934126 0.0 0.0 0.0 1.1834996 1.3511667 
1.6918018 0.11960904 0.0 0.0 0.9638621 1.2480545 
0.52258754 1.7631948 1.8636833 0.4338361 1.7966477 0.1276125 
0.0 1.5997711 1.8530692 0.4913813 1.4331566 0.099199444 
0.0 0.13850243 0.21852747 0.11112658 0.15203428 0.07698792 
0.0 0.0 0.0 0.0 0.0 0.07698792 
0.0 0.0 0.0 0.0 0.0 0.07698792 
0.0 0.0 0.0 0.0 0.0 0.07698792 
0.0 0.0 0.0 0.0 0.0 0.07698792 
0.0 0.0 0.0 0.0 0.0 0.07698792 
0.34986132 0.0 0.0 0.13482454 0.0 0.41577417 
0.8241914 0.419105 0.39390677 0.43716305 0.0 0.34331307 
0.54376435 1.0277804 1.3698351 0.35989773 0.42572704 0.0 
0.49741763 0.8324069 1.037757 0.0 0.52057153 0.0 
1.0279233 0.62218386 0.62737185 0.54413974 1.2060924 0.0 
1.3535907 0.9877494 0.114102446 1.0098516 2.38293 1.0623865 
0.0 1.1580456 0.25883514 0.6997149 2.3157678 0.98545426 
0.0 0.6874445 1.2131524 0.41926014 1.2268481 0.56592166 
0.0 0.07988142 0.22045851 0.092489466 0.0036730468 0.1082854 
0.0 0.0 0.0 0.0 0.0 0.07698792 
0.0 0.0 0.0 0.0 0.0 0.07698792 
0.0 0.0 0.0 0.0 0.0 0.07698792 
0.0 0.0 0.0 0.0 0.0 0.07698792 
0.0 0.0 0.0 0.0 0.0 0.07698792 
0.41368192 0.0 0.0 0.25296354 0.35167432 0.5866584 
0.75846505 0.0 0.0 0.8322928 0.8093579 1.231808 
0.5884337 0.64759946 1.0490258 1.6794258 1.2962711 1.5409174 
0.20608261 0.7151422 0.89937794 1.5707095 1.5018631 1.5538392 
0.15914539 0.91618866 0.4563825 1.5867168 1.974836 1.4831352 
0.04103732 0.8826971 0.0 1.0836024 2.070504 1.3547308 
0.0 0.58484775 0.10807442 0.18104929 1.0625433 0.9379985 
0.0 0.0 0.31429726 0.0 0.30717367 0.3526613 
0.0 0.0 0.0 0.0 0.0 0.07963051 
0.0 0.0 0.0 0.0 0.0 0.07698792 
0.0 0.0 0.0 0.0 0.0 0.07698792 
0.0 0.0 0.0 0.0 0.0 0.07698792 
0.0 0.0 0.0 0.0 0.0 0.07698792 
0.0 0.0 0.0 0.0 0.0 0.07698792 
0.11257036 0.0 0.0 0.0 0.22605444 0.20076315 
0.59261066 0.0 0.0 0.0 0.8714641 0.8235603 
0.49975127 0.0 0.0 0.0 1.2655991 1.2507646 
0.2454387 0.0 0.0 0.0 1.325953 1.3081753 
0.0 0.0 0.0 0.0 1.1214072 0.9568966 
0.0 0.0 0.0 0.0 0.5522649 0.46436337 
0.0 0.0 0.0 0.0 0.14194235 0.17327096 
0.0 0.0 0.0 0.0 0.0 0.079270914 
0.0 0.0 0.0 0.0 0.0 0.07698792 
0.0 0.0 0.0 0.0 0.0 0.07698792 
0.0 0.0 0.0 0.0 0.0 0.07698792 
0.0 0.0 0.0 0.0 0.0 0.07698792 
0.0 0.0 0.0 0.0 0.0 0.07698792 
0.0 0.0 0.0 0.0 0.0 0.07698792 
0.0 0.0 0.0 0.0 0.0 0.07698792 
0.0 0.0 0.0 0.0 0.0 0.07698792 
0.0 0.0 0.0 0.0 0.0 0.07698792 
0.0 0.0 0.0 0.0 0.0 0.07698792 
0.0 0.0 0.0 0.0 0.0 0.07698792 
0.0 0.0 0.0 0.0 0.0 0.07698792 
0.0 0.0 0.0 0.0 0.0 0.07698792 
0.0 0.0 0.0 0.0 0.0 0.07698792 
0.0 0.0 0.0 0.0 0.0 0.07698792 
0.0 0.0 0.0 0.0 0.0 0.07698792 
0.0 0.0 0.0 0.0 0.0 0.07698792 
0.0 0.0 0.0 0.0 0.0 0.07698792 
0.0 0.0 0.0 0.0 0.0 0.07698792 
0.0 0.0 0.0 0.0 0.0 0.07698792 
0.0 0.0 0.0 0.0 0.0 0.07698792 
0.0 0.0 0.0 0.0 0.0 0.07698792 
0.0 0.0 0.0 0.0 0.0 0.07698792 
0.0 0.0 0.0 0.0 0.0 0.07698792 
0.0 0.0 0.0 0.0 0.0 0.07698792 
0.0 0.0 0.0 0.0 0.0 0.07698792 
0.0 0.0 0.0 0.0 0.0 0.07698792 
0.0 0.0 0.0 0.0 0.0 0.07698792 
0.0 0.0 0.0 0.0 0.0 0.07698792 
0.0 0.0 0.0 0.0 0.0 0.07698792 
0.0 0.0 0.0 0.0 0.0 0.07698792 
0.0 0.0 0.0 0.0 0.0 0.07698792 

