0.0 0.0 0.0 0.0 0.0 0.07698792 
0.0 0.0 0.0 0.0 0.0 0.07698792 
0.0 0.0 0.0 0.0 0.0 0.07698792 
0.0 0.0 0.0 0.0 0.0 0.07698792 
0.0 0.0 0.0 0.0 0.0 0.07698792 
0.0 0.0 0.0 0.0 0.0 0.07698792 
0.0 0.0 0.0 0.0 0.0 0.07698792 
0.0 0.0 0.0 0.0 0.0 0.07698792 
0.0 0.0 0.0 0.0 0.0 0.07698792 
0.0 0.0 0.0 0.0 0.0 0.07698792 
0.0 0.0 0.0 0.0 0.0 0.07698792 
0.0 0.0 0.0 0.0 0.0 0.07698792 
0.0 0.0 0.0 0.0 0.0 0.07698792 
0.0 0.0 0.0 0.0 0.0 0.07698792 
0.0 0.0 0.0 0.0 0.0 0.07698792 
0.0 0.0 0.0 0.0 0.0 0.07698792 
0.0 0.0 0.0 0.0 0.0 0.07698792 
0.0 0.0 0.0 0.0 0.0 0.07698792 
0.0 0.0 0.0 0.0 0.0 0.07698792 
0.0 0.0 0.0 0.0 0.0 0.07698792 
0.0 0.0 0.0 0.0 0.0 0.07698792 
0.33500177 0.0 0.13977802 0.0 0.0 0.07623371 
0.77995294 0.4275227 0.46252638 0.0 0.0 0.0 
0.27405766 1.0497001 0.6694176 0.0 0.51419646 0.0 
0.0 0.43543464 0.37092835 0.0 0.52653563 0.02435781 
0.0 0.0 0.0 0.0 0.0 0.07698792 
0.0 0.0 0.0 0.0 0.0 0.07698792 
0.0 0.0 0.0 0.0 0.0 0.07698792 
0.0 0.0 0.0 0.0 0.0 0.07698792 
0.0 0.0 0.0 0.0 0.0 0.07698792 
0.0 0.0 0.0 0.0 0.0 0.07698792 
0.0 0.0 0.0 0.0 0.0 0.07698792 
0.0 0.0 0.0 0.0 0.0 0.07698792 
0.0 0.0 0.0 0.0 0.0 0.07698792 
0.027701497 0.0 0.0 0.0 0.0 0.07698792 
1.3896215 0.0 0.123391904 0.057623174 0.0 0.13376167 
1.6708791 1.330812 0.59544384 0.3928081 1.1255273 0.023508191 
0.0 1.9581891 1.7819308 0.5367445 1.7255524 0.0 
0.0 0.99312145 1.5105634 0.36300898 0.90712315 0.032678712 
0.0 0.0 0.0 0.0 0.0 0.07698792 
0.0 0.0 0.0 0.0 0.0 0.07698792 
0.0 0.0 0.0 0.0 0.0 0.07698792 
0.0 0.0 0.0 0.0 0.0 0.07698792 
0.0 0.0 0.0 0.0 0.0 0.07698792 
0.0 0.0 0.0 0.0 0.0 0.07698792 
0.0 0.0 0.0 0.0 0.0 0.07698792 
0.0 0.0 0.0 0.0 0.0 0.07698792 
0.0 0.0 0.0 0.0 0.0 0.07698792 
0.5899913 0.0 0.054220535 0.0 0.0 0.0622808 
2.1309218 0.04337571 0.0 0.017771628 0.7339387 0.40578255 
1.890794 1.7830579 0.0 0.22517388 2.555825 0.2706841 
0.0 1.9702508 1.4738377 0.2731039 2.2697031 0.21097277 
0.0 0.5320857 1.3574951 0.21987861 0.90370744 0.25042066 
0.0 0.0 0.0 0.0 0.0 0.07698792 
0.0 0.0 0.0 0.0 0.0 0.07698792 
0.0 0.0 0.0 0.0 0.0 0.07698792 
0.0 0.0 0.0 0.0 0.0 0.07698792 
0.0 0.0 0.0 0.0 0.0 0.07698792 
0.0 0.0 0.0 0.0 0.0 0.07698792 
0.0 0.0 0.0 0.0 0.0 0.07698792 
0.0 0.0 0.0 0.0 0.0 0.07698792 
0.0 0.0 0.0 0.0 0.0 0.07698792 
1.3878796 0.0 0.0014969409 0.15662396 0.0 0.51698446 
2.0472739 0.7208952 0.0 0.21277216 1.5276228 0.5921112 
1.1172476 1.9374155 0.5616834 0.14023073 2.702572 0.40406638 
0.0 1.5414495 1.3612887 0.14808369 2.0927823 0.3022857 
0.0 0.108792834 0.6817998 0.13128307 0.5223485 0.16829316 
0.0 0.0 0.0 0.0 0.0 0.07698792 
0.0 0.0 0.0 0.0 0.0 0.07698792 
0.0 0.0 0.0 0.0 0.0 0.07698792 
0.0 0.0 0.0 0.0 0.0 0.07698792 
0.0 0.0 0.0 0.0 0.0 0.07698792 
0.0 0.0 0.0 0.0 0.0 0.07698792 
0.0 0.0 0.0 0.0 0.0 0.07698792 
0.0 0.0 0.0 0.0 0.0 0.07698792 
0.21963969 0.0 0.0732219 0.0 0.0 0.07698792 
2.0557547 0.0 0.0 0.0 0.4377071 0.5858216 
2.120287 1.3051057 0.0 0.0 2.3984768 0.49986795 
0.07924789 1.8187771 0.9729006 0.090271614 2.7836027 0.43094552 
0.0 0.9855486 1.2480367 0.13403264 1.5280429 0.37546843 
0.0 0.016923271 0.35862213 0.06825826 0.06525314 0.12568983 
0.0 0.0 0.0 0.0 0.0 0.07698792 
0.0 0.0 0.0 0.0 0.0 0.07698792 
0.0 0.0 0.0 0.0 0.0 0.07698792 
0.0 0.0 0.0 0.0 0.0 0.07698792 
0.0 0.0 0.0 0.0 0.0 0.07698792 
0.0 0.0 0.0 0.0 0.0 0.07698792 
0.0 0.0 0.0 0.0 0.0 0.07698792 
0.0 0.0 0.0 0.0 0.0 0.07698792 
0.8986839 0.0 0.011866562 0.04285788 0.0 0.31613252 
2.1172245 0.2485582 0.0 0.08521618 1.0883099 0.54206145 
1.6935315 1.8516126 0.058985382 0.14050607 2.763816 0.49084643 
0.0 1.8127807 1.347941 0.13008553 2.520021 0.33030826 
0.0 0.39287123 1.0503681 0.11692857 0.9456293 0.26300415 
0.0 0.0 0.0 0.0 0.0 0.07972751 
0.0 0.0 0.0 0.0 0.0 0.07698792 
0.0 0.0 0.0 0.0 0.0 0.07698792 
0.0 0.0 0.0 0.0 0.0 0.07698792 
0.0 0.0 0.0 0.0 0.0 0.07698792 
0.0 0.0 0.0 0.0 0.0 0.07698792 
0.0 0.0 0.0 0.0 0.0 0.07698792 
0.0 0.0 0.0 0.0 0.0 0.07698792 
0.08246744 0.0 0.043465987 0.0 0.0 0.07698792 
1.759275 0.0 0.036483005 0.0 0.09098038 0.39125118 
2.1533496 0.93578327 0.0 0.0 1.9266291 0.5378653 
0.8855542 1.9120387 0.6466906 0.047370475 2.8036158 0.50843436 
0.0 1.3875848 1.1946523 0.056707915 1.9343814 0.39693743 
0.0 0.12541342 0.7413518 0.14566158 0.27658603 0.19381073 
0.0 0.0 0.0 0.0 0.0 0.07698792 
0.0 0.0 0.0 0.0 0.0 0.07698792 
0.0 0.0 0.0 0.0 0.0 0.07698792 
0.0 0.0 0.0 0.0 0.0 0.07698792 
0.0 0.0 0.0 0.0 0.0 0.07698792 
0.0 0.0 0.0 0.0 0.0 0.07698792 
0.0 0.0 0.0 0.0 0.0 0.07698792 
0.0 0.0 0.0 0.0 0.0 0.07698792 
0.43556952 0.0 0.0 0.04092853 0.0 0.28827623 
2.061871 0.0 0.0 0.12829603 0.7700195 0.6564831 
1.9565933 1.5822116 0.0 0.1657494 2.596382 0.53811115 
0.0 1.8970435 1.2524301 0.047449347 2.7522383 0.24017936 
0.0 0.77993023 1.2640975 0.10663778 1.3431832 0.31486303 
0.0 0.0 0.097162224 0.0 0.0167364 0.09800234 
0.0 0.0 0.0 0.0 0.0 0.07698792 
0.0 0.0 0.0 0.0 0.0 0.07698792 
0.0 0.0 0.0 0.0 0.0 0.07698792 
0.0 0.0 0.0 0.0 0.0 0.07698792 
0.0 0.0 0.0 0.0 0.0 0.07698792 
0.0 0.0 0.0 0.0 0.0 0.07698792 
0.0 0.0 0.0 0.0 0.0 0.07698792 
0.0 0.0 0.0 0.0 0.0 0.07698792 
0.88516736 0.0 0.0 0.016871449 0.0 0.5196215 
2.101682 0.00833506 0.0 0.0 1.145537 0.849958 
1.6989083 1.8573849 0.31036532 0.0 2.6713426 0.52407575 
0.0 1.8747759 1.5184562 0.0 2.3706012 0.06453988 
0.0 0.40094832 1.0596075 0.032623086 0.8173546 0.17250398 
0.0 0.0 0.0 0.0 0.0 0.07698792 
0.0 0.0 0.0 0.0 0.0 0.07698792 
0.0 0.0 0.0 0.0 0.0 0.07698792 
0.0 0.0 0.0 0.0 0.0 0.07698792 
0.0 0.0 0.0 0.0 0.0 0.07698792 
0.0 0.0 0.0 0.0 0.0 0.07698792 
0.0 0.0 0.0 0.0 0.0 0.07698792 
0.0 0.0 0.0 0.0 0.0 0.07698792 
0.0 0.0 0.0 0.0 0.0 0.07698792 
1.1769288 0.0 0.0 0.056703698 0.03676096 0.70029455 
2.0643861 0.21359502 0.0 0.09179425 1.4103153 0.96409315 
1.3600407 1.8527634 0.5572471 0.3466302 2.634691 0.8334979 
0.0 1.6781855 1.6882552 0.43148202 2.0568085 0.38166517 
0.0 0.284567 0.95916283 0.2898698 0.6507245 0.14757973 
0.0 0.0 0.0 0.0 0.0 0.07698792 
0.0 0.0 0.0 0.0 0.0 0.07698792 
0.0 0.0 0.0 0.0 0.0 0.07698792 
0.0 0.0 0.0 0.0 0.0 0.07698792 
0.0 0.0 0.0 0.0 0.0 0.07698792 
0.0 0.0 0.0 0.0 0.0 0.07698792 
0.0 0.0 0.0 0.0 0.0 0.07698792 
0.0 0.0 0.0 0.0 0.0 0.07698792 
0.0 0.0 0.0 0.0 0.0 0.07698792 
1.0486069 0.0 0.0 0.18866058 0.5926824 0.9610396 
1.7210481 0.012284487 0.0 0.65745115 1.8302478 1.4847431 
0.42618656 1.2353054 0.23585081 0.80141646 2.5246835 1.539612 
0.0 0.8172882 0.9938768 0.41207302 1.5088242 0.725602 
0.0 0.08140739 0.5862831 0.1301389 0.14919277 0.1905814 
0.0 0.0 0.0 0.0 0.0 0.07698792 
0.0 0.0 0.0 0.0 0.0 0.07698792 
0.0 0.0 0.0 0.0 0.0 0.07698792 
0.0 0.0 0.0 0.0 0.0 0.07698792 
0.0 0.0 0.0 0.0 0.0 0.07698792 
0.0 0.0 0.0 0.0 0.0 0.07698792 
0.0 0.0 0.0 0.0 0.0 0.07698792 
0.0 0.0 0.0 0.0 0.0 0.07698792 
0.0 0.0 0.0 0.0 0.0 0.07698792 
0.5099954 0.0 0.0 0.0425958 0.52610606 0.7004335 
0.7071002 0.0 0.0 0.0 1.118176 1.1481752 
0.0037257373 0.0961728 0.0 0.0 0.8856575 0.98916155 
0.0 0.0 0.20945993 0.0 0.32007045 0.3945849 
0.0 0.0 0.0 0.0 0.0 0.08305499 
0.0 0.0 0.0 0.0 0.0 0.07698792 
0.0 0.0 0.0 0.0 0.0 0.07698792 
0.0 0.0 0.0 0.0 0.0 0.07698792 
0.0 0.0 0.0 0.0 0.0 0.07698792 
0.0 0.0 0.0 0.0 0.0 0.07698792 
0.0 0.0 0.0 0.0 0.0 0.07698792 
0.0 0.0 0.0 0.0 0.0 0.07698792 
0.0 0.0 0.0 0.0 0.0 0.07698792 
0.0 0.0 0.0 0.0 0.0 0.07698792 
0.0 0.0 0.0 0.0 0.0 0.07698792 
0.0 0.0 0.0 0.0 0.0 0.07698792 
0.0 0.0 0.0 0.0 0.0 0.07698792 
0.0 0.0 0.0 0.0 0.0 0.07698792 
0.0 0.0 0.0 0.0 0.0 0.07698792 
0.0 0.0 0.0 0.0 0.0 0.07698792 
0.0 0.0 0.0 0.0 0.0 0.07698792 
0.0 0.0 0.0 0.0 0.0 0.07698792 
0.0 0.0 0.0 0.0 0.0 0.07698792 
0.0 0.0 0.0 0.0 0.0 0.07698792 

