0.0 0.0 0.0 0.0 0.0 0.07698792 
0.0 0.0 0.0 0.0 0.0 0.07698792 
0.0 0.0 0.0 0.0 0.0 0.07698792 
0.0 0.0 0.0 0.0 0.0 0.07698792 
0.0 0.0 0.0 0.0 0.0 0.07698792 
0.0 0.0 0.0 0.0 0.0 0.07698792 
0.0 0.0 0.0 0.0 0.0 0.07698792 
0.0 0.0 0.0 0.0 0.0 0.07698792 
0.0 0.0 0.0 0.0 0.0 0.07698792 
0.0 0.0 0.0 0.0 0.0 0.07698792 
0.0 0.0 0.0 0.0 0.0 0.07698792 
0.0 0.0 0.0 0.0 0.0 0.07698792 
0.0 0.0 0.0 0.0 0.0 0.07698792 
0.0 0.0 0.0 0.0 0.0 0.07698792 
0.0 0.0 0.0 0.0 0.0 0.07698792 
0.0 0.0 0.0 0.0 0.0 0.07698792 
0.0 0.0 0.0 0.0 0.0 0.07698792 
0.46493906 0.0 0.19649822 0.0 0.0 0.06529765 
0.9275842 0.46523687 0.5697758 0.0 0.0 0.0 
0.79833126 1.0528389 1.0503603 0.0 0.09158081 0.0 
0.35952014 1.118622 1.1237437 0.0 0.28551045 0.0 
0.1476086 1.0988953 1.0977806 0.0 0.4105077 0.0 
0.0 0.9510739 0.6399328 0.0 0.40587473 0.0 
0.0 0.23778316 0.107916854 0.0 0.19448783 0.07698792 
0.0 0.0 0.0 0.0 0.0 0.07698792 
0.0 0.0 0.0 0.0 0.0 0.07698792 
0.0 0.0 0.0 0.0 0.0 0.07698792 
0.0 0.0 0.0 0.0 0.0 0.07698792 
0.0 0.0 0.0 0.0 0.0 0.07698792 
0.0 0.0 0.0 0.0 0.0 0.07698792 
0.32777852 0.0 0.0659472 0.0 0.0 0.0754795 
1.5483115 0.0 0.19237101 0.0053791674 0.0 0.011634536 
1.5423329 1.3918242 0.7369302 0.41303325 1.4192289 0.0 
0.70050627 1.7314711 1.5340569 1.1413227 1.8849069 0.52471757 
0.41721785 1.6389095 1.7422231 1.4091648 1.8513932 0.6860506 
0.4375022 1.6499357 1.8987544 1.2070878 1.4323714 0.26804364 
0.0 1.9799438 2.1947105 0.37911087 1.2640091 0.0 
0.0 1.29911 1.4293128 0.0 0.91763216 0.0 
0.0 0.07603187 0.0 0.0 0.06513895 0.07698792 
0.0 0.0 0.0 0.0 0.0 0.07698792 
0.0 0.0 0.0 0.0 0.0 0.07698792 
0.0 0.0 0.0 0.0 0.0 0.07698792 
0.0 0.0 0.0 0.0 0.0 0.07698792 
0.0 0.0 0.0 0.0 0.0 0.07698792 
0.56571627 0.0 0.0 0.2543624 0.09047888 0.64990133 
1.6544831 0.0 0.0 0.7899927 1.5748442 1.4192889 
1.3087456 1.0378352 0.0 1.0244952 2.6613765 1.7698789 
0.3381018 1.0750813 0.0 0.9672131 2.970053 1.8422372 
0.64183116 0.47641456 0.0 1.0705198 2.7649214 2.0207074 
1.4534924 0.9479992 0.585506 1.0990524 1.8087949 1.9701512 
0.6463553 2.1383426 2.2589498 0.6029532 1.7530776 0.56176144 
0.0 1.8370376 2.220606 0.0 1.6082171 0.0 
0.0 0.33540717 0.44006896 0.0 0.50232303 0.07698792 
0.0 0.0 0.0 0.0 0.0 0.07698792 
0.0 0.0 0.0 0.0 0.0 0.07698792 
0.0 0.0 0.0 0.0 0.0 0.07698792 
0.0 0.0 0.0 0.0 0.0 0.07698792 
0.0 0.0 0.0 0.0 0.0 0.07698792 
0.52070576 0.0 0.0 0.1063346 0.38968548 0.6825013 
0.94355124 0.011413145 0.0 0.14533155 1.3698786 1.3308613 
0.5269124 0.31790376 0.0 0.14251275 1.7426091 1.6446497 
0.0 0.13478148 0.0 0.0 1.5056684 1.3028135 
0.5881905 0.0 0.0 0.0 1.2598716 1.4115129 
1.8786552 0.0 0.0 0.0 1.4132642 1.7109263 
1.8290348 1.824494 1.1100999 0.29575434 1.7107443 1.0733671 
0.0 1.9697596 2.096103 0.02784713 1.962159 0.0 
0.0 0.6881839 1.2647009 0.0 0.8089679 0.0155881345 
0.0 0.0 0.0 0.0 0.0 0.07698792 
0.0 0.0 0.0 0.0 0.0 0.07698792 
0.0 0.0 0.0 0.0 0.0 0.07698792 
0.0 0.0 0.0 0.0 0.0 0.07698792 
0.0 0.0 0.0 0.0 0.0 0.07698792 
0.0446617 0.0 0.0 0.0 0.12072016 0.15589398 
0.14158985 0.0 0.0 0.0 0.2632262 0.23262239 
0.0 0.0 0.0 0.0 0.19636549 0.21248698 
0.0 0.0 0.0 0.0 0.05554459 0.11634388 
0.16683254 0.0 0.0 0.0 0.25620368 0.25977278 
2.0844986 0.0 0.0 0.0 0.7225223 1.1693816 
2.0585322 1.4007752 0.0 0.0 1.8086597 0.9241087 
0.0 1.9585941 1.9960395 0.090110086 2.2249386 0.0 
0.0 0.7010756 1.4329947 0.05025466 0.9349451 0.060489327 
0.0 0.0 0.0 0.0 0.0 0.07698792 
0.0 0.0 0.0 0.0 0.0 0.07698792 
0.0 0.0 0.0 0.0 0.0 0.07698792 
0.0 0.0 0.0 0.0 0.0 0.07698792 
0.0 0.0 0.0 0.0 0.0 0.07698792 
0.0 0.0 0.0 0.0 0.0 0.07698792 
0.0 0.0 0.0 0.0 0.0 0.07698792 
0.0 0.0 0.0 0.0 0.0 0.07698792 
0.0 0.0 0.0 0.0 0.0 0.07698792 
0.32965708 0.0 0.067434736 0.0 0.0 0.07283976 
2.1943128 0.0 0.0 0.0 0.6706558 0.7776716 
2.0244496 1.6862928 0.0 0.0 2.3921854 0.45446342 
0.0 1.8371831 1.7004136 0.071382746 2.2917469 0.24074283 
0.0 0.4677326 1.2409598 0.088760175 0.8753397 0.1490573 
0.0 0.0 0.0 0.0 0.0 0.07698792 
0.0 0.0 0.0 0.0 0.0 0.07698792 
0.0 0.0 0.0 0.0 0.0 0.07698792 
0.0 0.0 0.0 0.0 0.0 0.07698792 
0.0 0.0 0.0 0.0 0.0 0.07698792 
0.0 0.0 0.0 0.0 0.0 0.07698792 
0.0 0.0 0.0 0.0 0.0 0.07698792 
0.1949344 0.059176415 0.14446166 0.0 0.0 0.07698792 
0.33502233 0.27946627 0.3804557 0.0 0.0 0.07397108 
1.3022733 0.21794268 0.33197016 0.0 0.0 0.009335227 
2.1289775 0.8198766 0.0 0.0 1.5703202 0.32043347 
1.2455063 2.0733767 0.54389465 0.0 2.6235926 0.356243 
0.0 1.5140059 1.414064 0.14622873 2.0689023 0.37475893 
0.0 0.33201587 0.8379781 0.12648933 0.41531327 0.16666235 
0.0 0.012498009 0.0 0.0 0.0 0.07698792 
0.0 0.0 0.0 0.0 0.0 0.07698792 
0.0 0.0 0.0 0.0 0.0 0.07698792 
0.0 0.0 0.0 0.0 0.0 0.07698792 
0.0 0.0 0.0 0.0 0.0 0.07698792 
0.0 0.0 0.0 0.0 0.0 0.07698792 
0.57566446 0.0 0.18216833 0.0 0.0 0.053607367 
1.2273979 0.3254759 0.4701991 0.0 0.0 0.0 
0.98749083 0.88256556 1.0782131 0.0 0.74561805 0.0 
1.4465272 1.0190864 1.1168183 0.070077926 1.7761298 0.0 
1.6193151 1.3024988 0.029349439 0.081641205 2.4139593 0.3093973 
0.637261 1.8833286 1.4573168 0.0 2.3236861 0.058824457 
0.0 1.603521 2.2398732 0.0 1.3988119 0.0 
0.0 1.4998775 1.7993828 0.0 0.7569209 0.0 
0.0 0.9936146 0.8076913 0.0 0.4791009 0.0 
0.0 0.28276896 0.106349684 0.0 0.12032248 0.07698792 
0.0 0.0096924165 0.0 0.0 0.0 0.07698792 
0.0 0.0 0.0 0.0 0.0 0.07698792 
0.0 0.0 0.0 0.0 0.0 0.07698792 
0.12460783 0.0 0.0 0.0 0.0 0.09911694 
1.5820372 0.0 0.09941504 0.21692087 0.0 0.25740358 
1.8036194 1.1770098 0.42513728 0.34864557 1.5833889 0.21206713 
1.0492911 1.5664328 1.0151832 0.5469238 2.6549723 0.6301515 
0.7761321 1.6081252 0.8767536 0.6928255 3.1204674 1.3078659 
0.75428146 1.2400093 0.0 0.95283514 3.031339 1.9507079 
0.46298087 1.0466579 0.89489377 1.1759562 2.4638646 1.9957817 
0.65971494 1.3931656 2.0804155 1.369655 1.8951389 1.7634327 
0.44142407 1.7724481 2.2439308 1.1918815 1.4559995 0.5953868 
0.0 1.9456702 2.3337631 0.4443846 1.2293197 0.0 
0.0 1.5383015 1.4560895 0.0 1.0525104 0.0 
0.0 0.1729284 0.18183762 0.0 0.38768175 0.06969266 
0.0 0.0 0.0 0.0 0.0 0.07698792 
0.0 0.0 0.0 0.0 0.0 0.07698792 
0.39334202 0.0 0.0 0.047500476 0.0 0.3594945 
2.13892 0.0 0.0 0.135083 0.91282576 0.9117179 
1.9160476 1.1734148 0.0 0.21789677 2.6264732 0.94907093 
0.7417496 1.4618944 0.003316678 0.44594166 3.2016747 1.1684644 
0.0 1.4176459 0.0 0.37934193 3.1690085 1.5076666 
0.21891844 0.41712344 0.0 0.2542259 2.333519 1.7751977 
0.56594515 0.0 0.0 0.17575516 1.8274928 2.0117517 
0.83923525 0.0 0.0 0.74162936 1.8724573 2.0435774 
1.0273595 0.8526567 0.3473862 1.1490605 1.9406103 2.0371459 
0.25740477 1.7423929 2.017815 1.1796405 2.089245 1.6573062 
0.0 1.6455928 1.9249068 0.95281404 1.4782476 0.54520595 
0.0 0.35317343 0.7009979 0.3536059 0.3924909 0.14508662 
0.0 0.0 0.0 0.0 0.0 0.07698792 
0.0 0.0 0.0 0.0 0.0 0.07698792 
0.41432172 0.0 0.0 0.123069316 0.22799794 0.51346046 
1.6100378 0.0 0.0 0.60751456 1.3936002 1.4820521 
1.2995667 0.8542876 0.0 1.032523 2.7265718 1.7467444 
0.0 0.99539655 0.0 0.7847851 2.9271648 1.5185118 
0.0 0.46327803 0.27377948 0.10238695 1.3954277 0.8978997 
0.0 0.0 0.0823834 0.0 0.42463672 0.36132017 
0.22141653 0.0 0.0 0.0 0.53559625 0.37911582 
0.6962321 0.0 0.0 0.0 1.0321699 1.0641019 
0.8804619 0.0 0.0 0.0 1.7288549 1.6639726 
0.25039357 0.51907295 0.0 0.27605054 1.8452669 1.5921769 
0.0 0.42574883 0.64499944 0.16980027 0.7967238 0.7700254 
0.0 0.0 0.42806554 0.058747318 0.088780686 0.1706638 
0.0 0.0 0.0 0.0 0.0 0.07698792 
0.0 0.0 0.0 0.0 0.0 0.07698792 
0.20330554 0.0 0.0 0.0 0.24470113 0.31289887 
0.68070865 0.0 0.0 0.0 1.0377715 1.1142828 
0.44988126 0.0 0.0 0.0 1.2096652 1.2343028 
0.0 0.0 0.0 0.0 0.73320514 0.74208784 
0.0 0.0 0.07419246 0.0 0.21980576 0.25588948 
0.0 0.0 0.0 0.0 0.0 0.07858601 
0.0 0.0 0.0 0.0 0.0 0.07698792 
0.030383565 0.0 0.0 0.0 0.09945467 0.14568317 
0.18239051 0.0 0.0 0.0 0.37319234 0.27660763 
0.0 0.0 0.0 0.0 0.24109252 0.2352289 
0.0 0.0 0.019304685 0.0 0.11329691 0.1669904 
0.0 0.0 0.0 0.0 0.0 0.07698792 
0.0 0.0 0.0 0.0 0.0 0.07698792 
0.0 0.0 0.0 0.0 0.0 0.07698792 
0.0 0.0 0.0 0.0 0.0 0.07698792 
0.0 0.0 0.0 0.0 0.0 0.07698792 
0.0 0.0 0.0 0.0 0.0 0.07698792 
0.0 0.0 0.0 0.0 0.0 0.07698792 
0.0 0.0 0.0 0.0 0.0 0.07698792 
0.0 0.0 0.0 0.0 0.0 0.07698792 
0.0 0.0 0.0 0.0 0.0 0.07698792 
0.0 0.0 0.0 0.0 0.0 0.07698792 
0.0 0.0 0.0 0.0 0.0 0.07698792 
0.0 0.0 0.0 0.0 0.0 0.07698792 
0.0 0.0 0.0 0.0 0.0 0.07698792 
0.0 0.0 0.0 0.0 0.0 0.07698792 

