0.0 0.0 0.0 0.0 0.0 0.07698792 
0.0 0.0 0.0 0.0 0.0 0.07698792 
0.0 0.0 0.0 0.0 0.0 0.07698792 
0.0 0.0 0.0 0.0 0.0 0.07698792 
0.0 0.0 0.0 0.0 0.0 0.07698792 
0.0 0.0 0.0 0.0 0.0 0.07698792 
0.0 0.0 0.0 0.0 0.0 0.07698792 
0.0 0.0 0.0 0.0 0.0 0.07698792 
0.0 0.0 0.0 0.0 0.0 0.07698792 
0.0 0.0 0.0 0.0 0.0 0.07698792 
0.0 0.0 0.0 0.0 0.0 0.07698792 
0.0 0.0 0.0 0.0 0.0 0.07698792 
0.0 0.0 0.0 0.0 0.0 0.07698792 
0.0 0.0 0.0 0.0 0.0 0.07698792 
0.0 0.0 0.0 0.0 0.0 0.07698792 
0.0 0.0 0.0 0.0 0.0 0.07698792 
0.0 0.0 0.0 0.0 0.0 0.07698792 
0.0 0.0 0.0 0.0 0.0 0.07698792 
0.0 0.0 0.0 0.0 0.0 0.07698792 
0.233087 0.0 0.13475722 0.0 0.0 0.07698792 
0.5575481 0.3454719 0.45026672 0.0 0.0 0.0 
0.42410266 0.8400291 0.65200543 0.0 0.001744736 0.0 
0.0 0.67491645 0.4691466 0.0 0.13086644 0.055623226 
0.0 0.2998968 0.102721564 0.0 0.07936612 0.07698792 
0.0 0.020353671 0.0 0.0 0.0 0.07698792 
0.0 0.0 0.0 0.0 0.0 0.07698792 
0.0 0.0 0.0 0.0 0.0 0.07698792 
0.0 0.0 0.0 0.0 0.0 0.07698792 
0.0 0.0 0.0 0.0 0.0 0.07698792 
0.0 0.0 0.0 0.0 0.0 0.07698792 
0.0 0.0 0.0 0.0 0.0 0.07698792 
0.0 0.0 0.0 0.0 0.0 0.07698792 
0.30602944 0.0 0.1483103 0.0 0.0 0.07698792 
1.2862139 0.0 0.22261354 0.0 0.0 0.0 
1.4088864 0.97189546 0.677781 0.0 0.8480451 0.0 
0.5850533 1.3330638 1.7261649 0.4590293 1.2147497 0.0 
0.1202234 1.7330059 1.9569134 0.3386774 1.0933692 0.0 
0.0 1.6209552 1.4619278 0.0 1.016727 0.0 
0.0 0.2661828 0.26199073 0.0 0.44918945 0.07698792 
0.0 0.0 0.0 0.0 0.0 0.07698792 
0.0 0.0 0.0 0.0 0.0 0.07698792 
0.0 0.0 0.0 0.0 0.0 0.07698792 
0.0 0.0 0.0 0.0 0.0 0.07698792 
0.0 0.0 0.0 0.0 0.0 0.07698792 
0.0 0.0 0.0 0.0 0.0 0.07698792 
0.0 0.0 0.0 0.0 0.0 0.09341013 
1.1302993 0.0 0.1271047 0.26511037 0.0 0.3701148 
1.5471783 0.6517503 0.1289899 0.8380563 1.7077936 0.79133326 
1.0375628 1.3238285 0.077954344 0.9546499 2.8286421 1.4918547 
0.71840173 1.3515759 0.9378303 1.4055779 2.5964289 1.8349142 
1.1132817 1.8365645 1.9396821 1.2521837 1.4547708 1.3375475 
0.0 2.0254254 2.1463346 0.44429132 1.5684353 0.0 
0.0 0.86601925 1.3372386 0.03579064 0.83868855 0.0 
0.0 0.0 0.0 0.0 0.0 0.07698792 
0.0 0.0 0.0 0.0 0.0 0.07698792 
0.0 0.0 0.0 0.0 0.0 0.07698792 
0.0 0.0 0.0 0.0 0.0 0.07698792 
0.0 0.0 0.0 0.0 0.0 0.07698792 
0.0 0.0 0.0 0.0 0.0 0.07698792 
0.011213779 0.0 0.0 0.03681485 0.0 0.1649902 
1.0704012 0.0 0.0 0.61653936 0.9491851 1.1722581 
1.1708038 0.67399037 0.0 1.0592548 2.070005 1.4546497 
0.0 0.8610747 0.0 0.8339311 2.36915 1.5678692 
1.4847307 0.0260267 0.0 0.006936387 1.5391781 1.6574616 
1.9393103 0.9225542 0.0 0.0 1.6930059 1.3382246 
0.0 1.7635038 1.9728919 0.08646029 2.0506032 0.0 
0.0 0.79150593 1.5464087 0.06290361 1.0075904 0.091867894 
0.0 0.0 0.0 0.0 0.0 0.07698792 
0.0 0.0 0.0 0.0 0.0 0.07698792 
0.0 0.0 0.0 0.0 0.0 0.07698792 
0.0 0.0 0.0 0.0 0.0 0.07698792 
0.0 0.0 0.0 0.0 0.0 0.07698792 
0.0 0.0 0.0 0.0 0.0 0.07698792 
0.0 0.0 0.0 0.0 0.020874154 0.13291153 
0.5321838 0.0 0.0 0.0 0.7742005 0.733493 
0.33829242 0.0 0.0 0.0 0.9000329 0.7266939 
0.3261914 0.0 0.12438797 0.0 0.5404009 0.47340256 
2.0447254 0.0 0.0 0.0 0.45468763 0.53819764 
2.0499268 1.6631234 0.0 0.0 2.3770962 0.4662329 
0.0 1.7032058 1.5943404 0.20217897 2.2007341 0.38028443 
0.0 0.40604848 1.2262422 0.15873687 0.8417815 0.23078513 
0.0 0.0 0.0 0.0 0.0 0.07698792 
0.0 0.0 0.0 0.0 0.0 0.07698792 
0.0 0.0 0.0 0.0 0.0 0.07698792 
0.0 0.0 0.0 0.0 0.0 0.07698792 
0.0 0.0 0.0 0.0 0.0 0.07698792 
0.0 0.0 0.0 0.0 0.0 0.07698792 
0.0 0.0414856 0.0 0.0 0.0 0.07698792 
0.0 0.0660459 0.0 0.0 0.0 0.07698792 
0.27692312 0.005267407 0.17032999 0.0 0.0 0.07698792 
1.4365606 0.0 0.15130511 0.0 0.0 0.0 
1.9043603 0.967491 0.0 0.100747615 2.1151633 0.41022027 
0.86657155 1.71489 0.28134775 0.3691486 2.7476442 0.6015957 
0.0 1.3132441 1.0583539 0.20444682 1.85522 0.5736741 
0.0 0.0590092 0.61294013 0.057816446 0.2854857 0.19563061 
0.0 0.0 0.0 0.0 0.0 0.07698792 
0.0 0.0 0.0 0.0 0.0 0.07698792 
0.0 0.0 0.0 0.0 0.0 0.07698792 
0.0 0.0 0.0 0.0 0.0 0.07698792 
0.07895069 0.0 0.10509547 0.0 0.0 0.07698792 
0.76380247 0.04215408 0.30105934 0.0 0.0 0.0 
1.0072169 0.8890424 0.841048 0.0 0.0 0.0 
0.44245994 1.1545482 1.2127575 0.0 0.33388337 0.0 
0.8728606 0.8505751 1.0244045 0.0 0.29325506 0.0 
1.5905261 0.9918069 0.21882969 0.14095983 2.0676794 0.19453189 
1.0976064 1.4246186 0.0 0.39759454 2.703946 0.95578253 
0.0 1.3792965 0.48653924 0.39927754 2.4723313 0.906069 
0.0 0.27879646 0.7331873 0.11674304 0.659594 0.5315947 
0.16250531 0.059214815 0.12973994 0.0 0.0008510649 0.09567085 
0.23556653 0.390119 0.26616746 0.0 0.0 0.07698792 
0.0 0.3444392 0.16166034 0.0 0.031479586 0.07698792 
0.0 0.12247726 0.0 0.0 0.06834294 0.07698792 
0.0 0.0 0.0 0.0 0.0 0.07698792 
0.49399024 0.0 0.035951287 0.02119011 0.0 0.301128 
1.7587247 0.03763829 0.14900789 0.402697 0.31560424 0.39263102 
1.4387987 1.6178772 1.0520823 0.60989183 1.7044715 0.087950595 
0.59477824 1.8242358 1.7552059 0.7332012 1.743264 0.06191373 
0.98544925 1.5976651 1.6257643 0.7690644 2.1626415 0.3980642 
1.0400522 1.8350929 0.52425253 0.25183433 2.440666 0.21603155 
0.0 1.7470058 1.4480033 0.0 2.4048772 0.052438647 
0.13660972 0.85704184 1.2819101 0.0 0.7472796 0.0 
0.64731884 0.69365937 0.79197425 0.0 0.0 0.0 
0.74309057 0.744519 0.68537474 0.0 0.39499384 0.0 
0.62894386 1.0616204 0.8554349 0.2848374 1.1811175 0.0 
0.0 0.92853206 0.928082 0.48340866 1.1475228 0.063093886 
0.0 0.21778531 0.37982008 0.1351364 0.34206048 0.07698792 
0.0 0.0 0.0 0.0 0.0 0.07698792 
0.65064865 0.0 0.0 0.25465858 0.37108934 0.7559522 
1.7937207 0.0 0.0 0.7126053 1.5269914 1.5453787 
1.4493849 1.0351406 0.0 1.0805589 2.6147897 1.9631956 
0.4264456 0.999904 0.0 1.012733 2.8200738 1.9136109 
0.5555321 0.6877376 0.0 1.0946051 2.7535663 2.0517948 
0.49504417 0.9365057 0.6303936 1.3296344 2.4236686 1.9144833 
0.20689398 1.1171322 1.9939402 1.7707629 1.5418257 1.416359 
0.31210306 1.1244785 1.7286838 1.8054023 1.6296222 0.8283561 
0.3578012 1.0161732 0.9858842 1.6864951 1.8504895 1.058193 
0.34232476 1.0844858 0.7125719 1.5728633 1.909654 1.2650585 
0.0 1.1764498 0.70476377 1.312551 1.7411134 1.2545071 
0.0 0.9002359 0.9337696 0.8608155 0.86909187 0.52053994 
0.0 0.27560264 0.5295396 0.2679508 0.07065986 0.13105159 
0.0 0.0 0.0 0.0 0.0 0.07698792 
0.4239839 0.0 0.0 0.0 0.38577613 0.5364887 
0.88515764 0.0 0.0 0.0 1.2685131 1.403017 
0.7093602 0.10405338 0.0 0.09709423 1.8352236 1.733125 
0.107768506 0.23864877 0.0 0.032609627 1.7747954 1.6811721 
0.3877145 0.0 0.0 0.0 1.5421864 1.6888828 
0.525806 0.0 0.0 0.13633594 1.6716977 1.887717 
0.45910555 0.12120369 0.0 0.9656504 1.795389 1.871413 
0.27708054 0.6425532 0.0 1.3213298 1.8824674 1.7286563 
0.13869327 0.7847891 0.0 1.1175768 1.8369918 1.6476202 
0.11899865 0.48824927 0.0 0.26704448 1.6314611 1.5481882 
0.0 0.02267025 0.016564943 0.0 0.94295865 0.84808403 
0.0 0.0 0.03894507 0.0 0.29539427 0.28539407 
0.0 0.0 0.008591741 0.0 0.0 0.08543499 
0.0 0.0 0.0 0.0 0.0 0.07698792 
0.0 0.0 0.0 0.0 0.0 0.0955542 
0.11051971 0.0 0.0 0.0 0.23511864 0.21337146 
0.053328604 0.0 0.0 0.0 0.21120398 0.20996076 
0.0 0.0 0.0 0.0 0.13466705 0.18872844 
0.00018794835 0.0 0.0 0.0 0.10167968 0.14695522 
0.21976721 0.0 0.0 0.0 0.45912054 0.32617497 
0.26458293 0.0 0.0 0.0 0.79634696 0.49374798 
0.12867011 0.0 0.0 0.0 0.7785217 0.48993847 
0.0 0.0 0.0 0.0 0.5146179 0.36792466 
0.0 0.0 0.0 0.0 0.17244837 0.19481641 
0.0 0.0 0.0 0.0 0.0 0.10424085 
0.0 0.0 0.0 0.0 0.0 0.07698792 
0.0 0.0 0.0 0.0 0.0 0.07698792 
0.0 0.0 0.0 0.0 0.0 0.07698792 
0.0 0.0 0.0 0.0 0.0 0.07698792 
0.0 0.0 0.0 0.0 0.0 0.07698792 
0.0 0.0 0.0 0.0 0.0 0.07698792 
0.0 0.0 0.0 0.0 0.0 0.07698792 
0.0 0.0 0.0 0.0 0.0 0.07698792 
0.0 0.0 0.0 0.0 0.0 0.07698792 
0.0 0.0 0.0 0.0 0.0 0.07698792 
0.0 0.0 0.0 0.0 0.0 0.07698792 
0.0 0.0 0.0 0.0 0.0 0.07698792 
0.0 0.0 0.0 0.0 0.0 0.07698792 
0.0 0.0 0.0 0.0 0.0 0.07698792 
0.0 0.0 0.0 0.0 0.0 0.07698792 
0.0 0.0 0.0 0.0 0.0 0.07698792 
0.0 0.0 0.0 0.0 0.0 0.07698792 
0.0 0.0 0.0 0.0 0.0 0.07698792 
0.0 0.0 0.0 0.0 0.0 0.07698792 
0.0 0.0 0.0 0.0 0.0 0.07698792 
0.0 0.0 0.0 0.0 0.0 0.07698792 
0.0 0.0 0.0 0.0 0.0 0.07698792 
0.0 0.0 0.0 0.0 0.0 0.07698792 
0.0 0.0 0.0 0.0 0.0 0.07698792 
0.0 0.0 0.0 0.0 0.0 0.07698792 
0.0 0.0 0.0 0.0 0.0 0.07698792 
0.0 0.0 0.0 0.0 0.0 0.07698792 
0.0 0.0 0.0 0.0 0.0 0.07698792 
0.0 0.0 0.0 0.0 0.0 0.07698792 
0.0 0.0 0.0 0.0 0.0 0.07698792 

