0.0 0.0 0.0 0.0 0.0 0.07698792 
0.0 0.0 0.0 0.0 0.0 0.07698792 
0.0 0.0 0.0 0.0 0.0 0.07698792 
0.0 0.0 0.0 0.0 0.0 0.07698792 
0.0 0.0 0.0 0.0 0.0 0.07698792 
0.0 0.0 0.0 0.0 0.0 0.07698792 
0.0 0.0 0.0 0.0 0.0 0.07698792 
0.0 0.0 0.0 0.0 0.0 0.07698792 
0.0 0.0 0.0 0.0 0.0 0.07698792 
0.0 0.0 0.0 0.0 0.0 0.07698792 
0.0 0.0 0.0 0.0 0.0 0.07698792 
0.0 0.0 0.0 0.0 0.0 0.07698792 
0.0 0.0 0.0 0.0 0.0 0.07698792 
0.0 0.0 0.0 0.0 0.0 0.07698792 
0.0 0.0 0.0 0.0 0.0 0.07698792 
0.0 0.0 0.0 0.0 0.0 0.07698792 
0.0 0.0 0.0 0.0 0.0 0.07698792 
0.33223575 0.0 0.16129926 0.0 0.0 0.072447866 
0.8029042 0.52805483 0.5183665 0.0 0.0 0.0 
0.13705698 1.163965 0.756658 0.0 0.57721204 0.0 
0.0 0.4421916 0.3177048 0.0 0.3843074 0.050933413 
0.0 0.0040812287 0.0 0.0 0.0 0.07698792 
0.0 0.0 0.0 0.0 0.0 0.07698792 
0.0 0.0 0.0 0.0 0.0 0.07698792 
0.0 0.0 0.0 0.0 0.0 0.07698792 
0.0 0.0 0.0 0.0 0.0 0.07698792 
0.0 0.0 0.0 0.0 0.0 0.07698792 
0.0 0.0 0.0 0.0 0.0 0.07698792 
0.0 0.0 0.0 0.0 0.0 0.07698792 
0.0 0.0 0.0 0.0 0.0 0.07698792 
0.0 0.0 0.0 0.0 0.0 0.07698792 
0.77925324 0.0 0.0 0.3138588 0.0 0.71188563 
1.1726687 0.254314 0.3794499 0.8531523 0.6702558 0.93039745 
0.36330348 1.5858879 1.8425859 1.0502708 1.1374357 0.18224736 
0.0 1.5770593 1.7126268 0.3204466 0.75663817 0.0 
0.0 0.19186461 0.17269713 0.0 0.40288448 0.07698792 
0.0 0.0 0.0 0.0 0.0 0.07698792 
0.0 0.0 0.0 0.0 0.0 0.07698792 
0.0 0.0 0.0 0.0 0.0 0.07698792 
0.0 0.0 0.0 0.0 0.0 0.07698792 
0.0 0.0 0.0 0.0 0.0 0.07698792 
0.0 0.0 0.0 0.0 0.0 0.07698792 
0.0 0.0 0.0 0.0 0.0 0.07698792 
0.0 0.0 0.0 0.0 0.0 0.07698792 
0.0 0.0 0.0 0.0 0.0 0.07698792 
0.8260093 0.0 0.0 0.12036041 0.49040136 0.8853165 
1.0484495 0.0 0.0 0.49693987 1.2032435 1.3275223 
1.0186915 0.7908143 1.04976 0.7268606 0.96526974 1.6061013 
0.13845381 1.4490627 1.9014654 0.5336979 0.832835 0.0 
0.0 1.0857981 1.4054203 0.0 0.8174516 0.0 
0.0 0.0 0.0 0.0 0.0 0.07698792 
0.0 0.0 0.0 0.0 0.0 0.07698792 
0.0 0.0 0.0 0.0 0.0 0.07698792 
0.0 0.0 0.0 0.0 0.0 0.07698792 
0.0 0.0 0.0 0.0 0.0 0.07698792 
0.0 0.0 0.0 0.0 0.0 0.07698792 
0.0 0.0 0.0 0.0 0.0 0.07698792 
0.0 0.0 0.0 0.0 0.0 0.07698792 
0.0 0.0 0.0 0.0 0.0 0.07698792 
0.27707916 0.0 0.0 0.0 0.3533417 0.38221192 
0.2698399 0.0 0.0 0.0 0.5961746 0.5571063 
1.5297327 0.0 0.0 0.06303747 0.69992715 1.3372567 
0.87842965 1.3090317 1.2833793 0.1558827 1.0778695 0.10998542 
0.0 1.4766206 2.3366969 0.05073176 1.0715926 0.0 
0.0 0.42053854 0.21266782 0.0 0.06597866 0.07698792 
0.0 0.11385755 0.0 0.0 0.03761902 0.07698792 
0.0 0.0 0.0 0.0 0.0 0.07698792 
0.0 0.0 0.0 0.0 0.0 0.07698792 
0.0 0.0 0.0 0.0 0.0 0.07698792 
0.0 0.0 0.0 0.0 0.0 0.07698792 
0.0 0.0 0.0 0.0 0.0 0.07698792 
0.0 0.0 0.0 0.0 0.0 0.07698792 
0.0 0.0 0.0 0.0 0.0 0.07698792 
0.0 0.0 0.0 0.0 0.0 0.07698792 
0.0 0.0 0.0 0.0 0.0 0.09183816 
1.4863398 0.0 0.0 0.20516953 0.8168454 1.3497086 
1.0298426 0.8000455 0.13470331 0.6188304 0.87016714 1.1188989 
0.13119715 1.2911196 2.1095293 1.1189533 0.97862726 0.7374576 
0.10609889 1.3494737 1.4735768 0.5118298 0.77783954 0.0 
0.0 1.0096871 1.0083644 0.0 0.63245195 0.0 
0.0 0.120911464 0.010564268 0.0 0.104208454 0.07698792 
0.0 0.0 0.0 0.0 0.0 0.07698792 
0.0 0.0 0.0 0.0 0.0 0.07698792 
0.0 0.0 0.0 0.0 0.0 0.07698792 
0.0 0.0 0.0 0.0 0.0 0.07698792 
0.0 0.0 0.0 0.0 0.0 0.07698792 
0.0 0.0 0.0 0.0 0.0 0.07698792 
0.0 0.0 0.0 0.0 0.0 0.07698792 
0.0 0.0 0.0 0.0 0.0 0.07698792 
0.78786266 0.0 0.0 0.0 0.7179917 0.9523899 
0.7429786 0.0 0.0 0.40256903 0.9819334 1.2694776 
0.6052831 0.13985556 0.54454845 1.3042668 1.1593165 1.6273885 
0.836422 1.358997 1.5853 1.2442119 0.71661353 1.16992 
0.0 1.5899363 1.7854661 0.53078175 0.9458017 0.0 
0.0 0.5041625 0.6554402 0.0 0.62772834 0.04289447 
0.0 0.0 0.0 0.0 0.0 0.07698792 
0.0 0.0 0.0 0.0 0.0 0.07698792 
0.0 0.0 0.0 0.0 0.0 0.07698792 
0.0 0.0 0.0 0.0 0.0 0.07698792 
0.0 0.0 0.0 0.0 0.0 0.07698792 
0.0 0.0 0.0 0.0 0.0 0.07698792 
0.0 0.0 0.0 0.0 0.0 0.07698792 
0.0 0.0 0.0 0.0 0.0 0.07698792 
0.07286212 0.0 0.0 0.0 0.16488825 0.17415148 
0.2412948 0.0 0.0 0.0 0.5215266 0.3309346 
0.8591378 0.0 0.0 0.0 0.8484911 1.0600789 
1.6635499 0.32650673 0.0 0.0 0.9209253 1.2316074 
0.0 1.338993 1.9428529 0.27716222 1.188507 0.0 
0.0 0.69268554 1.3104999 0.0 0.84791756 0.043511264 
0.0 0.0 0.0 0.0 0.0 0.07698792 
0.0 0.0 0.0 0.0 0.0 0.07698792 
0.0 0.0 0.0 0.0 0.0 0.07698792 
0.0 0.0 0.0 0.0 0.0 0.07698792 
0.0 0.0 0.0 0.0 0.0 0.07698792 
0.0 0.0 0.0 0.0 0.0 0.07698792 
0.0 0.0 0.0 0.0 0.0 0.07698792 
0.0 0.0 0.0 0.0 0.0 0.07698792 
0.0 0.0 0.0 0.0 0.0 0.07698792 
0.0 0.0 0.0 0.0 0.0 0.07698792 
0.55591744 0.0 0.0 0.0 0.09868996 0.46328253 
1.7032027 0.3816039 0.0 0.0 0.8430074 0.96831083 
0.0 1.2813066 1.3354299 0.0 1.2459784 0.0 
0.0 0.5679024 1.309963 0.0 0.89372337 0.045918852 
0.0 0.0 0.0 0.0 0.0 0.07698792 
0.0 0.0 0.0 0.0 0.0 0.07698792 
0.0 0.0 0.0 0.0 0.0 0.07698792 
0.0 0.0 0.0 0.0 0.0 0.07698792 
0.0 0.0 0.0 0.0 0.0 0.07698792 
0.0 0.0 0.0 0.0 0.0 0.07698792 
0.0 0.0 0.0 0.0 0.0 0.07698792 
0.044841826 0.042810164 0.08134154 0.0 0.0 0.07698792 
0.118478954 0.1576978 0.17303774 0.0 0.0 0.07698792 
0.24465135 0.30721295 0.31473875 0.0 0.0 0.07698792 
1.1007235 0.28473032 0.36155945 0.0 0.0 0.3226838 
1.7830598 0.93015313 0.0 0.0 1.3394811 0.73829746 
0.0 1.392769 1.3350044 0.189744 1.529217 0.26485533 
0.0 0.49341545 1.2729447 0.2033704 0.85481423 0.1524446 
0.0 0.0 0.0 0.0 0.0 0.07698792 
0.0 0.0 0.0 0.0 0.0 0.07698792 
0.0 0.0 0.0 0.0 0.0 0.07698792 
0.0 0.0 0.0 0.0 0.0 0.07698792 
0.0 0.0 0.0 0.0 0.0 0.07698792 
0.22042793 0.0 0.09765998 0.0 0.0 0.07623371 
0.71961915 0.13077253 0.29218894 0.0 0.0 0.0 
0.63436675 0.650335 0.5429208 0.0 0.49368903 0.0 
0.4018627 0.60456735 0.5739704 0.3564378 0.7157415 0.0 
0.5385005 0.58785903 0.68775547 0.7952276 0.68364024 0.2119244 
1.039381 0.6094975 0.6245343 1.1209025 1.7097226 0.73068374 
1.1136439 1.2484697 0.0 0.9463275 2.2636178 0.88472253 
0.0 1.105139 1.1025821 0.29644358 1.6284733 0.6379387 
0.0 0.19468634 0.8697263 0.20962366 0.33163014 0.2134182 
0.0 0.0 0.0 0.0 0.0 0.07698792 
0.0 0.0 0.0 0.0 0.0 0.07698792 
0.0 0.0 0.0 0.0 0.0 0.07698792 
0.0 0.0 0.0 0.0 0.0 0.07698792 
0.0 0.0 0.0 0.0 0.0 0.07698792 
0.35660076 0.0 0.0 0.26062527 0.086314425 0.49859932 
0.7214845 0.23325999 0.0 0.82974994 0.876973 0.93499696 
0.18792212 0.8462784 0.5099205 1.2198439 1.3699344 1.207047 
0.09463185 0.6802091 0.561264 1.3141335 1.2393942 1.1589296 
0.34816408 0.38933584 0.116874464 1.4157932 1.0913472 1.3702474 
0.31828457 0.7302408 0.0 1.4868029 1.6689719 1.3958423 
0.0 0.8662977 0.0 0.850261 1.5795232 1.1880171 
0.0 0.26837444 0.4125948 0.0655875 0.4996254 0.5503813 
0.0 0.0 0.12598887 0.0 0.044506107 0.109617785 
0.0 0.0 0.0 0.0 0.0 0.07698792 
0.0 0.0 0.0 0.0 0.0 0.07698792 
0.0 0.0 0.0 0.0 0.0 0.07698792 
0.0 0.0 0.0 0.0 0.0 0.07698792 
0.0 0.0 0.0 0.0 0.0 0.07698792 
0.3217876 0.0 0.0 0.08189175 0.33341715 0.51581144 
0.5190405 0.0 0.0 0.0 0.8873858 0.8740424 
0.2808818 0.0 0.0 0.0 0.95680004 0.9105338 
0.0 0.0 0.0 0.0 0.7970883 0.5790945 
0.18561894 0.0 0.0 0.0 0.8347575 0.497734 
0.11566819 0.0 0.0 0.0 0.7638154 0.4831708 
0.0 0.0 0.0 0.0 0.3469643 0.28241542 
0.0 0.0 0.0012118444 0.0 0.04936756 0.116585605 
0.0 0.0 0.0 0.0 0.0 0.07698792 
0.0 0.0 0.0 0.0 0.0 0.07698792 
0.0 0.0 0.0 0.0 0.0 0.07698792 
0.0 0.0 0.0 0.0 0.0 0.07698792 
0.0 0.0 0.0 0.0 0.0 0.07698792 
0.0 0.0 0.0 0.0 0.0 0.07698792 
0.0 0.0 0.0 0.0 0.0 0.07698792 
0.0 0.0 0.0 0.0 0.0 0.07698792 
0.0 0.0 0.0 0.0 0.0 0.07698792 
0.0 0.0 0.0 0.0 0.0 0.07698792 
0.0 0.0 0.0 0.0 0.0 0.07698792 
0.0 0.0 0.0 0.0 0.0 0.07698792 
0.0 0.0 0.0 0.0 0.0 0.07698792 
0.0 0.0 0.0 0.0 0.0 0.07698792 
0.0 0.0 0.0 0.0 0.0 0.07698792 
0.0 0.0 0.0 0.0 0.0 0.07698792 
0.0 0.0 0.0 0.0 0.0 0.07698792 
0.0 0.0 0.0 0.0 0.0 0.07698792 

