0.0 0.0 0.0 0.0 0.0 0.07698792 
0.0 0.0 0.0 0.0 0.0 0.07698792 
0.0 0.0 0.0 0.0 0.0 0.07698792 
0.0 0.0 0.0 0.0 0.0 0.07698792 
0.0 0.0 0.0 0.0 0.0 0.07698792 
0.0 0.0 0.0 0.0 0.0 0.07698792 
0.0 0.0 0.0 0.0 0.0 0.07698792 
0.0 0.0 0.0 0.0 0.0 0.07698792 
0.0 0.0 0.0 0.0 0.0 0.07698792 
0.0 0.0 0.0 0.0 0.0 0.07698792 
0.0 0.0 0.0 0.0 0.0 0.07698792 
0.0 0.0 0.0 0.0 0.0 0.07698792 
0.0 0.0 0.0 0.0 0.0 0.07698792 
0.0 0.0 0.0 0.0 0.0 0.07698792 
0.0 0.0 0.0 0.0 0.0 0.07698792 
0.0 0.0 0.0 0.0 0.0 0.07698792 
0.0 0.0 0.0 0.0 0.0 0.07698792 
0.0 0.0 0.0 0.0 0.0 0.07698792 
0.0 0.0 0.0 0.0 0.0 0.07698792 
0.0 0.0 0.0 0.0 0.0 0.07698792 
0.0 0.0 0.0 0.0 0.0 0.07698792 
0.0 0.0 0.0 0.0 0.0 0.07698792 
0.0 0.0 0.0 0.0 0.0 0.07698792 
0.0 0.0 0.0 0.0 0.0 0.07698792 
0.0 0.0 0.0 0.0 0.0 0.07698792 
0.0 0.0 0.0 0.0 0.0 0.07698792 
0.0 0.0 0.0 0.0 0.0 0.07698792 
0.0 0.0 0.0 0.0 0.0 0.07698792 
0.0 0.0 0.0 0.0 0.0 0.07698792 
0.0 0.0 0.0 0.0 0.0 0.07698792 
0.13608968 0.013854797 0.11068124 0.0 0.0 0.07698792 
0.20715529 0.24719766 0.2663215 0.0 0.0 0.07698792 
0.1973747 0.3917469 0.3326717 0.0 0.0 0.07698792 
0.18847376 0.39159095 0.3330636 0.0 0.0 0.07698792 
0.23138082 0.3914786 0.38728005 0.0 0.0 0.07698792 
0.28020102 0.44694677 0.40297538 0.0 0.0 0.07698792 
0.23016828 0.49694553 0.40101445 0.0 0.0 0.07698792 
0.13715795 0.46409088 0.2975993 0.0 0.0 0.07698792 
0.0 0.2772538 0.106260814 0.0 0.031796258 0.07698792 
0.0 0.039431702 0.0 0.0 0.0 0.07698792 
0.0 0.0 0.0 0.0 0.0 0.07698792 
0.0 0.0 0.0 0.0 0.0 0.07698792 
0.0 0.0 0.0 0.0 0.0 0.07698792 
0.0 0.0 0.0 0.0 0.0 0.07698792 
0.96272475 0.0 0.20036888 0.0 0.0 0.1557988 
1.2198248 0.6916564 0.81974703 0.0 0.10888988 0.0 
0.5756692 1.1635898 1.449704 0.0 0.8134733 0.0 
0.4553554 1.1573592 1.4326013 0.0 0.83327585 0.0 
0.5139843 1.1269263 1.410555 0.0 0.8505339 0.0 
0.52658886 1.0692896 1.3737286 0.0030077668 0.93212456 0.0 
0.4291137 1.2241986 1.5933685 0.017668497 0.94333893 0.0 
0.35699347 1.5180795 1.6120026 0.0 0.86063176 0.0 
0.0 1.6008028 1.4371694 0.0 0.99849254 0.0 
0.0 0.6140565 0.58326036 0.0 0.60143095 0.0 
0.0 0.0 0.0 0.0 0.0 0.07698792 
0.0 0.0 0.0 0.0 0.0 0.07698792 
0.0 0.0 0.0 0.0 0.0 0.07698792 
0.0 0.0 0.0 0.0 0.0 0.07698792 
1.527705 0.0 0.0 0.2898343 0.38626936 1.1116135 
1.6885858 0.9815968 0.26837713 0.77756184 1.8402153 1.1418788 
0.43237984 1.461597 1.193675 1.1507818 2.683533 1.466053 
0.18385011 1.3201978 1.0605137 1.5818763 2.5212617 1.7880712 
0.2801477 1.1140903 0.94736385 1.7909724 2.1847894 1.878819 
0.47512072 1.0768837 0.8015867 1.8254294 2.1330068 1.9134741 
1.2238686 1.2506839 1.3273804 1.6671785 1.6676829 1.7604382 
1.190247 1.8257537 1.76005 1.0491335 2.0138626 0.8895906 
0.0 2.0995288 1.9826163 0.53161603 2.1507928 0.0 
0.0 0.9228454 1.4804553 0.35896382 0.9042191 0.12558252 
0.0 0.0 0.0 0.0 0.0 0.07698792 
0.0 0.0 0.0 0.0 0.0 0.07698792 
0.0 0.0 0.0 0.0 0.0 0.07698792 
0.0 0.0 0.0 0.0 0.0 0.07698792 
1.3094552 0.0 0.0 0.22460783 0.868534 1.3358283 
1.3094149 0.40021157 0.0 0.58637905 2.0864913 1.5931642 
0.0 0.7425442 0.0 0.617718 2.4634452 1.7271428 
0.15277053 0.29119632 0.0 0.03633614 1.954899 1.6425047 
0.23615962 0.08691642 0.0 0.0 1.5653709 1.6294978 
0.7428269 0.0 0.0 0.0 1.4729238 1.6456625 
2.0018065 0.0 0.0 0.0 1.3365065 1.6890833 
1.4776366 1.5953063 0.0 0.0 2.731325 0.9026253 
0.0 1.8334811 1.4103587 0.058987852 2.4396908 0.30687335 
0.0 0.4354871 1.1738888 0.124035 0.82347935 0.26022562 
0.0 0.0 0.0 0.0 0.0 0.07698792 
0.0 0.0 0.0 0.0 0.0 0.07698792 
0.0 0.0 0.0 0.0 0.0 0.07698792 
0.0 0.0 0.0 0.0 0.0 0.07698792 
0.49767405 0.0 0.0 0.0 0.61519223 0.63882095 
0.44951636 0.0 0.0 0.0 0.80621165 0.77288926 
0.0 0.0 0.0 0.0 0.5468251 0.55502105 
0.0 0.0 0.0032352768 0.0 0.17939268 0.19122237 
0.0 0.0 0.010789037 0.0 0.002278991 0.10803154 
1.4065022 0.0 0.05489368 0.0 0.0 0.264845 
2.1044126 0.74447227 0.0 0.0 1.6047012 0.52016056 
1.0641382 1.8202382 0.54394084 0.03866997 2.607608 0.3681001 
0.0 1.3606036 1.3038335 0.08506965 1.9534155 0.33480048 
0.0 0.08299277 0.6446718 0.08745905 0.31174383 0.16442707 
0.0 0.0 0.0 0.0 0.0 0.07698792 
0.0 0.0 0.0 0.0 0.0 0.07698792 
0.0 0.0 0.0 0.0 0.0 0.07698792 
0.0 0.0 0.0 0.0 0.0 0.07698792 
0.0 0.0 0.0 0.0 0.0 0.07698792 
0.0 0.0 0.0 0.0 0.0 0.07698792 
0.0 0.0 0.0 0.0 0.0 0.07698792 
0.0 0.0 0.0 0.0 0.0 0.07698792 
0.32086712 0.0 0.052694835 0.0 0.0 0.09003116 
2.0727518 0.0 0.0 0.0 0.54288995 0.4632454 
2.0667133 1.489453 0.0 0.035462443 2.6298034 0.3752132 
0.0 1.8511791 1.1259638 0.061330583 2.7410028 0.2947544 
0.0 0.6843166 1.1483362 0.07381048 1.3288842 0.39680618 
0.0 0.0 0.13128194 0.0 0.02918693 0.10274729 
0.0 0.0 0.0 0.0 0.0 0.07698792 
0.0 0.0 0.0 0.0 0.0 0.07698792 
0.0 0.0 0.0 0.0 0.0 0.07698792 
0.0 0.0 0.0 0.0 0.0 0.07698792 
0.0 0.0 0.0 0.0 0.0 0.07698792 
0.0 0.0 0.0 0.0 0.0 0.07698792 
0.0 0.0 0.0 0.0 0.0 0.07698792 
0.0 0.0 0.0 0.0 0.0 0.07698792 
1.2591872 0.0 0.07630115 0.0 0.0 0.2846455 
2.1400425 0.5847058 0.0 0.0 1.3748378 0.4611681 
1.4306314 1.8361717 0.21008337 0.0 2.7600386 0.40310746 
0.0 1.6752799 1.1726096 0.06427659 2.2739842 0.39324012 
0.0 0.21353675 0.8763229 0.069507316 0.5715404 0.2840178 
0.0 0.0 0.0 0.0 0.0 0.07698792 
0.0 0.0 0.0 0.0 0.0 0.07698792 
0.0 0.0 0.0 0.0 0.0 0.07698792 
0.0 0.0 0.0 0.0 0.0 0.07698792 
0.0 0.0 0.0 0.0 0.0 0.07698792 
0.0 0.0 0.0 0.0 0.0 0.07698792 
0.0 0.0 0.0 0.0 0.0 0.07698792 
0.0 0.0 0.0 0.0 0.0 0.07698792 
0.20987698 0.0 0.04730928 0.0 0.0 0.07698792 
1.9785731 0.0 0.0 0.00325605 0.3474516 0.47161242 
2.126873 1.3500593 0.0 0.0382184 2.4988291 0.46931022 
0.1304062 1.8207339 0.87264806 0.13659336 2.8096063 0.4310532 
0.0 0.8813375 1.136873 0.09876553 1.5223151 0.45556468 
0.0 0.0 0.3379888 0.022337433 0.08510184 0.12842453 
0.0 0.0 0.0 0.0 0.0 0.07698792 
0.0 0.0 0.0 0.0 0.0 0.07698792 
0.0 0.0 0.0 0.0 0.0 0.07698792 
0.0 0.0 0.0 0.0 0.0 0.07698792 
0.0 0.0 0.0 0.0 0.0 0.07698792 
0.0 0.0 0.0 0.0 0.0 0.07698792 
0.0 0.0 0.0 0.0 0.0 0.07698792 
0.0 0.0 0.0 0.0 0.0 0.07698792 
0.99805933 0.0 0.084011324 0.0 0.0 0.23705135 
2.1612117 0.30470315 0.0 0.0 1.121656 0.48192888 
1.5439467 1.8676944 0.11986219 0.022048105 2.7839305 0.354384 
0.0 1.6720853 1.005342 0.0 2.3996813 0.39648214 
0.0 0.22910719 0.8253811 0.018494062 0.6304994 0.35188442 
0.0 0.0 0.0 0.0 0.0 0.079194814 
0.0 0.0 0.0 0.0 0.0 0.07698792 
0.0 0.0 0.0 0.0 0.0 0.07698792 
0.0 0.0 0.0 0.0 0.0 0.07698792 
0.0 0.0 0.0 0.0 0.0 0.07698792 
0.0 0.0 0.0 0.0 0.0 0.07698792 
0.0 0.0 0.0 0.0 0.0 0.07698792 
0.0 0.0 0.0 0.0 0.0 0.07698792 
0.061972514 0.0 0.02648566 0.0 0.0 0.07698792 
1.8194864 0.0 0.02006317 0.0 0.117064446 0.45564368 
2.1658542 1.1240556 0.0 0.07732244 2.2078464 0.46893454 
0.38746625 1.8172376 0.94415617 0.18916479 2.7355554 0.35690522 
0.0 1.0735353 1.2978176 0.17899318 1.6550004 0.46346843 
0.0 0.0 0.34051564 0.022764832 0.107019216 0.12950051 
0.0 0.0 0.0 0.0 0.0 0.07698792 
0.0 0.0 0.0 0.0 0.0 0.07698792 
0.0 0.0 0.0 0.0 0.0 0.07698792 
0.0 0.0 0.0 0.0 0.0 0.07698792 
0.0 0.0 0.0 0.0 0.0 0.07698792 
0.0 0.0 0.0 0.0 0.0 0.07698792 
0.0 0.0 0.0 0.0 0.0 0.07698792 
0.0 0.0 0.0 0.0 0.0 0.07698792 
0.16698845 0.0 0.0 0.11474035 0.0 0.3111267 
2.042223 0.0 0.0 0.60575527 1.0712919 1.4652312 
1.727701 1.3579767 0.0 0.81549615 2.4935145 1.4658835 
0.0 1.8008987 0.94809926 0.49148017 2.5930064 0.7889613 
0.0 0.2926077 0.95850444 0.08565689 0.8250401 0.44149357 
0.0 0.0 0.0 0.0 0.0 0.081477806 
0.0 0.0 0.0 0.0 0.0 0.07698792 
0.0 0.0 0.0 0.0 0.0 0.07698792 
0.0 0.0 0.0 0.0 0.0 0.07698792 
0.0 0.0 0.0 0.0 0.0 0.07698792 
0.0 0.0 0.0 0.0 0.0 0.07698792 
0.0 0.0 0.0 0.0 0.0 0.07698792 
0.0 0.0 0.0 0.0 0.0 0.07698792 
0.0 0.0 0.0 0.0 0.0 0.07698792 
0.15745603 0.0 0.0 0.06302241 0.15160793 0.31002676 
1.1382596 0.0 0.0 0.26604965 1.25076 1.4896777 
0.6420209 0.5204594 0.0 0.40819547 1.6745812 1.3487289 
0.0 0.52528334 0.74157166 0.34183088 1.0268849 0.7962446 
0.0 0.0 0.39465964 0.00045582373 0.14635587 0.17773017 
0.0 0.0 0.0 0.0 0.0 0.07698792 
0.0 0.0 0.0 0.0 0.0 0.07698792 
0.0 0.0 0.0 0.0 0.0 0.07698792 
0.0 0.0 0.0 0.0 0.0 0.07698792 
0.0 0.0 0.0 0.0 0.0 0.07698792 

