0.0 0.0 0.0 0.0 0.0 0.07698792 
0.0 0.0 0.0 0.0 0.0 0.07698792 
0.0 0.0 0.0 0.0 0.0 0.07698792 
0.0 0.0 0.0 0.0 0.0 0.07698792 
0.0 0.0 0.0 0.0 0.0 0.07698792 
0.0 0.0 0.0 0.0 0.0 0.07698792 
0.0 0.0 0.0 0.0 0.0 0.07698792 
0.0 0.0 0.0 0.0 0.0 0.07698792 
0.0 0.0 0.0 0.0 0.0 0.07698792 
0.0 0.0 0.0 0.0 0.0 0.07698792 
0.0 0.0 0.0 0.0 0.0 0.07698792 
0.0 0.0 0.0 0.0 0.0 0.07698792 
0.0 0.0 0.0 0.0 0.0 0.07698792 
0.0 0.0 0.0 0.0 0.0 0.07698792 
0.0 0.0 0.0 0.0 0.0 0.07698792 
0.0 0.0 0.0 0.0 0.0 0.07698792 
0.0 0.0 0.0 0.0 0.0 0.07698792 
0.0 0.0 0.0 0.0 0.0 0.07698792 
0.0 0.0 0.0 0.0 0.0 0.07698792 
0.0 0.0 0.0 0.0 0.0 0.07698792 
0.0 0.0 0.0 0.0 0.0 0.07698792 
0.0 0.0 0.0 0.0 0.0 0.07698792 
0.0 0.0 0.0 0.0 0.0 0.07698792 
0.0 0.0 0.0 0.0 0.0 0.07698792 
0.0 0.0 0.0 0.0 0.0 0.07698792 
0.0 0.0 0.0 0.0 0.0 0.07698792 
0.0 0.0 0.0 0.0 0.0 0.07698792 
0.0 0.0 0.0 0.0 0.0 0.07698792 
0.0 0.0 0.0 0.0 0.0 0.07698792 
0.0 0.0 0.0 0.0 0.0 0.07698792 
0.0 0.0 0.0 0.0 0.0 0.07698792 
0.0 0.0 0.0 0.0 0.0 0.07698792 
0.0 0.0 0.0 0.0 0.0 0.07698792 
0.0 0.0 0.0 0.0 0.0 0.07698792 
0.07901505 0.00885757 0.06660933 0.0 0.0 0.07698792 
0.06094694 0.14399178 0.04611036 0.0 0.0 0.07698792 
0.0 0.14843705 0.034676157 0.0 0.006355997 0.07698792 
0.0 0.0023978734 0.0 0.0 0.0 0.07698792 
0.0 0.0 0.0 0.0 0.0 0.07698792 
0.0 0.0 0.0 0.0 0.0 0.07698792 
0.0 0.0 0.0 0.0 0.0 0.07698792 
0.0 0.0 0.0 0.0 0.0 0.07698792 
0.0 0.0 0.0 0.0 0.0 0.07698792 
0.0 0.0 0.0 0.0 0.0 0.07698792 
0.0 0.0 0.0 0.0 0.0 0.07698792 
0.0 0.0 0.0 0.0 0.0 0.07698792 
0.0 0.0 0.0 0.0 0.0 0.07698792 
0.27026325 0.0 0.15017995 0.0 0.0 0.07661082 
1.0703902 0.05148053 0.33785564 0.0 0.0 0.0 
0.9874522 1.2034333 1.1285653 0.0 0.24052878 0.0 
0.16939819 1.277189 1.4132307 0.0 0.46435735 0.0 
0.16905394 1.0612984 1.0536121 0.0 0.25217846 0.0 
0.3423959 0.821564 0.83191574 0.0 0.053337548 0.0 
0.52052647 0.7688612 0.71586263 0.0 0.0 0.0 
0.18589857 1.0195338 0.6536158 0.0 0.45360884 0.0 
0.0 0.54360926 0.4104729 0.0 0.44360194 0.0024720281 
0.0 0.0 0.0 0.0 0.0 0.07698792 
0.0 0.0 0.0 0.0 0.0 0.07698792 
0.0 0.0 0.0 0.0 0.0 0.07698792 
0.0 0.0 0.0 0.0 0.0 0.07698792 
0.41333213 0.0 0.18870491 0.0 0.0 0.07020002 
1.2909994 0.0577059 0.23545241 0.0 0.0 0.0 
1.248528 1.0085979 0.06777077 0.40650597 1.8511231 0.304834 
0.5816814 1.1249814 0.9219734 1.3691256 2.160908 1.3072221 
0.15771756 0.9627789 1.5821935 1.8073331 1.5262908 1.4300089 
0.24799311 1.0360919 1.4329908 1.7903427 1.21665 1.0361471 
0.34203076 1.005955 1.2738917 1.7005644 1.4368021 0.730195 
0.4088173 0.9373581 0.9421467 1.6495669 1.5998125 0.8403486 
0.0 1.2828864 1.2519749 1.3608338 1.4671398 0.46065465 
0.0 0.7351069 1.1956106 0.6241673 0.781773 0.2638478 
0.0 0.0 0.0 0.0 0.0 0.07698792 
0.0 0.0 0.0 0.0 0.0 0.07698792 
0.0 0.0 0.0 0.0 0.0 0.07698792 
0.18040565 0.0 0.05155658 0.0 0.0 0.102595896 
1.4462421 0.0 0.19266438 0.12674564 0.0 0.14032409 
1.6407254 1.1063429 0.3028473 0.30784896 1.6856657 0.0804714 
0.93018764 1.7558548 0.682796 0.0 2.3554142 0.0071392804 
0.07834226 1.4378794 0.76981467 0.0 2.2689471 1.0026658 
0.31070155 0.33992404 0.0 0.12955122 1.6980917 1.6382711 
0.32879913 0.31173447 0.0 0.94077545 1.502371 1.6925912 
0.27053672 0.6018253 0.0 1.1927804 1.5797068 1.6500051 
0.25012216 0.69009876 0.0 1.0887111 1.6373322 1.6543555 
0.0 0.76422346 0.47525334 0.59757227 1.1587163 1.0365794 
0.0 0.26420692 0.777072 0.2570979 0.3185633 0.41619176 
0.0 0.0 0.0 0.0 0.0 0.07698792 
0.0 0.0 0.0 0.0 0.0 0.07698792 
0.0 0.0 0.0 0.0 0.0 0.07698792 
0.30311847 0.0 0.0 0.15850605 0.10358293 0.45874053 
1.3843453 0.0 0.0 0.8337834 1.3446695 1.3968215 
1.3117776 0.6326063 0.0 1.1896602 2.2868564 1.8930886 
0.31925803 0.80008954 1.0413005 1.2646984 2.1043313 1.8263283 
0.5322056 1.46386 1.8287272 1.2677265 1.3820767 0.8044144 
0.0 1.9275792 2.043547 0.33899346 1.2226684 0.0 
0.13969018 0.63943624 0.67306113 0.0 0.86456674 0.35098574 
0.10018155 0.011936891 0.0 0.0 0.63055426 0.41819915 
0.013035059 0.0 0.0 0.0 0.56410223 0.3787483 
0.0 0.0 0.0 0.0 0.22528155 0.21222325 
0.0 0.0 0.0 0.0 0.031864677 0.11231572 
0.0 0.0 0.0 0.0 0.0 0.07698792 
0.0 0.0 0.0 0.0 0.0 0.07698792 
0.0 0.0 0.0 0.0 0.0 0.07698792 
0.2334277 0.0 0.0 0.0 0.22104089 0.36277515 
0.64127475 0.0 0.0 0.0 1.0240875 1.1113391 
0.5885796 0.0 0.0 0.0 1.4106381 1.5556488 
1.0190287 0.0 0.0 0.0 1.4641057 1.8727915 
1.544339 0.5077666 0.13985217 0.45647517 1.009351 1.4777219 
0.0 1.6805356 2.0861974 0.5619135 1.5402907 0.0 
0.0 1.1096919 1.7728553 0.31816268 1.1456634 0.0 
0.0 0.027271912 0.00050274655 0.02781253 0.0 0.07698792 
0.0 0.0 0.0 0.0 0.0 0.07698792 
0.0 0.0 0.0 0.0 0.0 0.07698792 
0.0 0.0 0.0 0.0 0.0 0.07698792 
0.0 0.0 0.0 0.0 0.0 0.07698792 
0.0 0.0 0.0 0.0 0.0 0.07698792 
0.73490566 0.069164075 0.24049467 0.0 0.0 0.031024568 
0.81685597 1.0212276 0.83629197 0.0 0.0 0.0 
0.0 1.070967 0.92017186 0.0 0.33461708 0.0 
0.17212164 0.54195833 0.41460228 0.0 0.05483835 0.062294837 
1.401083 0.115813866 0.279898 0.0 0.052594963 0.32017386 
1.9427843 1.0315226 0.0 0.0 1.9032221 0.6197416 
0.0 1.5029655 1.2594975 0.1978457 2.222619 0.30061233 
0.0 0.79764706 1.593358 0.3010198 1.0928445 0.36677355 
0.0 0.018666916 0.005607009 0.023596708 0.0 0.08620019 
0.0 0.0 0.0 0.0 0.0 0.07698792 
0.0 0.0 0.0 0.0 0.0 0.07698792 
0.0 0.0 0.0 0.0 0.0 0.07698792 
0.0 0.0 0.0 0.0 0.0 0.07698792 
0.0 0.0 0.0 0.0 0.0 0.07698792 
1.2840519 0.0 0.01785604 0.5524348 0.08653538 0.9912698 
1.4044573 1.1413934 1.1966847 0.9385154 0.7096689 0.6056794 
0.31046152 1.515187 2.150707 0.8053585 1.056769 0.0 
0.392083 1.4682101 1.8636767 0.025194015 0.97991174 0.0 
1.3818891 0.9846021 0.98369133 0.28481513 1.934663 0.2246299 
1.3105109 1.5545466 0.0 0.44678545 2.532567 0.5617912 
0.0 1.5618583 0.9405325 0.34110418 1.9905108 0.5599174 
0.0 0.17589529 0.8052878 0.08673039 0.49484763 0.30239946 
0.0 0.0 0.0 0.0 0.0 0.07698792 
0.0 0.0 0.0 0.0 0.0 0.07698792 
0.0 0.0 0.0 0.0 0.0 0.07698792 
0.0 0.0 0.0 0.0 0.0 0.07698792 
0.0 0.0 0.0 0.0 0.0 0.07698792 
0.0 0.0 0.0 0.0 0.0 0.07698792 
1.2633855 0.0 0.0 0.28207818 0.9222276 1.3918445 
1.2363958 0.14954154 0.0 1.0865595 1.7070729 1.8674655 
0.56104815 1.0930493 1.103877 1.7002898 2.2308466 1.9696994 
0.15307269 1.2361072 1.2411356 1.7127119 2.2188628 1.8300326 
0.3430309 1.0608505 0.68344843 1.5611174 2.589329 1.7806141 
0.0 1.1199906 0.12382551 0.8963927 2.399699 1.2064016 
0.0 0.4451902 0.76281404 0.24758342 0.9469679 0.63708144 
0.0 0.0 0.2180649 0.0 0.05913013 0.12016891 
0.0 0.0 0.0 0.0 0.0 0.07698792 
0.0 0.0 0.0 0.0 0.0 0.07698792 
0.0 0.0 0.0 0.0 0.0 0.07698792 
0.0 0.0 0.0 0.0 0.0 0.07698792 
0.0 0.0 0.0 0.0 0.0 0.07698792 
0.0 0.0 0.0 0.0 0.0 0.07698792 
0.48733366 0.0 0.0 0.0 0.5875998 0.5752984 
0.7082984 0.0 0.0 0.0 1.266755 1.3712938 
0.5424668 0.0 0.0 0.0 1.6167995 1.7201364 
0.22268423 0.07672147 0.0 0.0 1.6328473 1.6652431 
0.045980312 0.0 0.0 0.0 1.4384817 1.3854725 
0.0 0.0 0.0 0.0 0.6702387 0.65544313 
0.0 0.0 0.092816375 0.0 0.19726668 0.23265976 
0.0 0.0 0.0 0.0 0.0 0.07774892 
0.0 0.0 0.0 0.0 0.0 0.07698792 
0.0 0.0 0.0 0.0 0.0 0.07698792 
0.0 0.0 0.0 0.0 0.0 0.07698792 
0.0 0.0 0.0 0.0 0.0 0.07698792 
0.0 0.0 0.0 0.0 0.0 0.07698792 
0.0 0.0 0.0 0.0 0.0 0.07698792 
0.0 0.0 0.0 0.0 0.0 0.07698792 
0.0 0.0 0.0 0.0 0.020932663 0.11535564 
0.0 0.0 0.0 0.0 0.06570257 0.13999486 
0.0 0.0 0.0 0.0 0.03567699 0.12577344 
0.0 0.0 0.0 0.0 0.0 0.10103227 
0.0 0.0 0.0 0.0 0.0 0.07714012 
0.0 0.0 0.0 0.0 0.0 0.07698792 
0.0 0.0 0.0 0.0 0.0 0.07698792 
0.0 0.0 0.0 0.0 0.0 0.07698792 
0.0 0.0 0.0 0.0 0.0 0.07698792 
0.0 0.0 0.0 0.0 0.0 0.07698792 
0.0 0.0 0.0 0.0 0.0 0.07698792 
0.0 0.0 0.0 0.0 0.0 0.07698792 
0.0 0.0 0.0 0.0 0.0 0.07698792 
0.0 0.0 0.0 0.0 0.0 0.07698792 
0.0 0.0 0.0 0.0 0.0 0.07698792 
0.0 0.0 0.0 0.0 0.0 0.07698792 
0.0 0.0 0.0 0.0 0.0 0.07698792 
0.0 0.0 0.0 0.0 0.0 0.07698792 
0.0 0.0 0.0 0.0 0.0 0.07698792 
0.0 0.0 0.0 0.0 0.0 0.07698792 
0.0 0.0 0.0 0.0 0.0 0.07698792 
0.0 0.0 0.0 0.0 0.0 0.07698792 
0.0 0.0 0.0 0.0 0.0 0.07698792 
0.0 0.0 0.0 0.0 0.0 0.07698792 
0.0 0.0 0.0 0.0 0.0 0.07698792 

