0.0 0.0 0.0 0.0 0.0 0.07698792 
0.0 0.0 0.0 0.0 0.0 0.07698792 
0.0 0.0 0.0 0.0 0.0 0.07698792 
0.0 0.0 0.0 0.0 0.0 0.07698792 
0.0 0.0 0.0 0.0 0.0 0.07698792 
0.0 0.0 0.0 0.0 0.0 0.07698792 
0.0 0.0 0.0 0.0 0.0 0.07698792 
0.0 0.0 0.0 0.0 0.0 0.07698792 
0.0 0.0 0.0 0.0 0.0 0.07698792 
0.0 0.0 0.0 0.0 0.0 0.07698792 
0.0 0.0 0.0 0.0 0.0 0.07698792 
0.0 0.0 0.0 0.0 0.0 0.07698792 
0.0 0.0 0.0 0.0 0.0 0.07698792 
0.0 0.0 0.0 0.0 0.0 0.07698792 
0.0 0.0 0.0 0.0 0.0 0.07698792 
0.0 0.0 0.0 0.0 0.0 0.07698792 
0.0 0.0 0.0 0.0 0.0 0.07698792 
0.0 0.0 0.0 0.0 0.0 0.07698792 
0.0 0.0 0.0 0.0 0.0 0.07698792 
0.09884328 0.018276915 0.08192576 0.0 0.0 0.07698792 
0.34119284 0.18448344 0.31696412 0.0 0.0 0.07397108 
0.5812975 0.42753106 0.4942037 0.0 0.0 0.0 
0.5812002 0.9156534 0.7093569 0.0 0.0 0.0 
0.0 0.9519143 0.62650895 0.0 0.32425797 0.0 
0.0 0.35043946 0.17629817 0.0 0.18304186 0.0676083 
0.0 0.0035201106 0.0 0.0 0.0 0.07698792 
0.0 0.0 0.0 0.0 0.0 0.07698792 
0.0 0.0 0.0 0.0 0.0 0.07698792 
0.0 0.0 0.0 0.0 0.0 0.07698792 
0.0 0.0 0.0 0.0 0.0 0.07698792 
0.0 0.0 0.0 0.0 0.0 0.07698792 
0.17887604 0.0 0.14992848 0.0 0.0 0.07698792 
0.63906485 0.13033566 0.3405679 0.0 0.0 0.02412999 
1.0607038 0.5614801 0.6146595 0.0 0.0 0.0 
0.92521185 0.80709803 0.8951954 0.0 0.67023593 0.0 
0.85018045 1.1105782 0.96050966 0.41474378 1.3350749 0.0 
0.5912853 1.3319927 1.450888 0.73293084 1.4552184 0.0 
0.017003357 1.8511257 1.9645289 0.55316395 1.2531472 0.0 
0.0 1.5152438 1.5625893 0.0 1.0822558 0.0 
0.0 0.10108452 0.096333124 0.0 0.27665836 0.07698792 
0.0 0.0 0.0 0.0 0.0 0.07698792 
0.0 0.0 0.0 0.0 0.0 0.07698792 
0.0 0.0 0.0 0.0 0.0 0.07698792 
0.0 0.0 0.0 0.0 0.0 0.07698792 
0.0 0.0 0.0 0.0 0.0 0.08035969 
1.0829892 0.0 0.20418614 0.01512557 0.0 0.14431825 
1.3597059 0.6742139 0.4885761 0.5054502 0.7094205 0.0 
1.1395392 1.2706034 0.71311325 1.0296217 2.2191231 0.7601704 
0.61659706 1.3678545 0.7466183 1.2498926 2.774089 1.5175486 
0.3562574 1.3473254 0.50914323 1.4298368 2.7127392 1.734998 
1.2751365 0.94468635 0.53416765 1.5023507 2.0162342 1.8164306 
1.0248811 1.9720196 1.8951609 0.97677964 1.6134292 0.78039724 
0.0 1.8089428 2.0972779 0.326287 1.6740545 0.0 
0.0 0.34949428 0.6291882 0.0 0.40819916 0.07698792 
0.0 0.0 0.0 0.0 0.0 0.07698792 
0.0 0.0 0.0 0.0 0.0 0.07698792 
0.0 0.0 0.0 0.0 0.0 0.07698792 
0.0 0.0 0.0 0.0 0.0 0.07698792 
0.01062189 0.0 0.0 0.05082009 0.0 0.16795766 
1.0439281 0.0 0.0 0.6871534 0.92255455 1.2529576 
1.2111299 0.59747475 0.0 1.3884239 1.868133 1.6984463 
0.45390356 0.9239515 0.0 1.3836116 2.6922617 1.720144 
0.0 0.7860213 0.0 0.8479993 2.5863845 1.6628511 
0.29108912 0.38236564 0.0 0.12012968 1.7827618 1.5579424 
2.0284958 0.0 0.0 0.0 1.0692438 1.2612648 
1.3477373 1.661691 0.060045905 0.0 2.1725013 0.4948745 
0.0 1.6194028 1.6784732 0.115056336 1.8384447 0.16378012 
0.0 0.23538461 0.7204314 0.08970596 0.4553288 0.07698792 
0.0 0.0 0.0 0.0 0.0 0.07698792 
0.0 0.0 0.0 0.0 0.0 0.07698792 
0.0 0.0 0.0 0.0 0.0 0.07698792 
0.0 0.0 0.0 0.0 0.0 0.07698792 
0.0042096376 0.0 0.0 0.0 0.027075175 0.14172842 
0.67108417 0.0 0.0 0.0 0.86293715 0.9416385 
0.55044013 0.0 0.0 0.0 1.2205776 1.2421126 
0.0 0.0 0.0 0.0 1.2163339 1.0600846 
0.057081282 0.0 0.1418514 0.0 0.6163722 0.508879 
1.4562545 0.0 0.08149963 0.0 0.0 0.06777667 
2.036748 1.0136355 0.0 0.0 1.8768687 0.24858415 
0.81357753 1.8226625 0.54124045 0.1610633 2.6196878 0.32191813 
0.0 1.2901441 1.3757266 0.22858262 1.7205609 0.44481784 
0.0 0.12404984 0.56734776 0.14741147 0.16935839 0.121948056 
0.0 0.0 0.0 0.0 0.0 0.07698792 
0.0 0.0 0.0 0.0 0.0 0.07698792 
0.0 0.0 0.0 0.0 0.0 0.07698792 
0.0 0.0 0.0 0.0 0.0 0.07698792 
0.0 0.0 0.0 0.0 0.0 0.07698792 
0.0 0.0 0.0 0.0 0.0 0.07698792 
0.0 0.0 0.0 0.0 0.0 0.07698792 
0.0 0.0 0.0 0.0 0.0 0.07698792 
0.9496426 0.0 0.08239985 0.0 0.0 0.025694147 
1.8767135 0.47812325 0.034443714 0.0 1.0633655 0.16644622 
1.7214701 1.6474464 0.0 0.18911639 2.7932203 0.5385048 
0.0 1.7131249 0.83547944 0.26055515 2.6422055 0.59724486 
0.0 0.35268444 0.9016282 0.09914387 0.98284656 0.4669961 
0.0 0.0 0.07715986 0.0 0.00939488 0.095221765 
0.0 0.0 0.0 0.0 0.0 0.07698792 
0.0 0.0 0.0 0.0 0.0 0.07698792 
0.0 0.0 0.0 0.0 0.0 0.07698792 
0.0 0.0 0.0 0.0 0.0 0.07698792 
0.0 0.0 0.0 0.0 0.0 0.07698792 
0.07425897 0.025199428 0.08779768 0.0 0.0 0.07698792 
0.32121062 0.19007316 0.31377983 0.0 0.0 0.07397108 
0.7825915 0.25463557 0.4200346 0.0 0.0 0.0 
1.6471655 0.48721993 0.30581817 0.0 0.7451064 0.0 
1.851398 1.3427454 0.0 0.2365214 2.7120063 0.661786 
0.20174998 1.4990661 0.34323424 0.27924585 2.786664 0.9021053 
0.0 0.740535 0.7271124 0.15659994 1.5709766 0.7054818 
0.0 0.0 0.43251705 0.00028135534 0.18672596 0.22437197 
0.0 0.013711802 0.0 0.0 0.0 0.07698792 
0.0 0.0035201106 0.0 0.0 0.0 0.07698792 
0.0 0.0 0.0 0.0 0.0 0.07698792 
0.0 0.0 0.0 0.0 0.0 0.07698792 
0.05517803 0.0 0.078324474 0.0 0.0 0.07698792 
0.62408537 0.0 0.22061893 0.0 0.0 0.053607367 
1.1053889 0.49512717 0.5557327 0.0 0.0 0.0 
0.9550281 0.8124686 0.9923457 0.0 0.635114 0.0 
1.0734322 1.1150384 0.99396205 0.2058504 1.377653 0.0 
1.161994 1.8926831 0.5937815 0.27629992 2.6146317 0.17379619 
0.2968821 1.7331678 0.37745377 0.3585868 2.723528 0.9080536 
0.0 0.82759976 0.6966548 0.17104903 1.847921 0.90053564 
0.65708244 0.31102917 0.6087125 0.0 0.22132511 0.24378395 
0.8238443 0.9258675 0.8609637 0.0 0.0 0.0 
0.097489715 1.2656547 0.8337613 0.0 0.6242083 0.0 
0.0 0.578127 0.4761169 0.0 0.513195 0.01237274 
0.0 0.0 0.0 0.0 0.0 0.07698792 
0.0 0.0 0.0 0.0 0.0 0.07698792 
0.923775 0.0 0.15792859 0.0 0.0 0.05374094 
1.5628266 0.48424828 0.30517697 0.07501707 0.2928678 0.0 
1.3422267 1.3928989 0.6641203 0.4761565 2.0116696 0.22773269 
0.7766673 1.4983382 0.9566654 0.96176374 2.7989442 1.2107642 
1.0676103 1.362275 0.7936463 1.0245312 2.6629229 1.7004712 
0.87999237 1.9164203 0.7724968 0.58575696 2.4313617 1.1890335 
0.008331388 1.8056858 1.9098455 0.0 1.8923243 0.0 
0.6026947 0.8329683 1.4509518 0.0 0.8263633 0.0 
0.88009566 1.0450002 0.7279362 0.82964796 1.6505798 0.12461817 
0.6143027 1.1501849 0.9533204 1.5268881 1.9801682 0.94506603 
0.0 1.3725371 1.3490239 1.4261885 1.598258 0.57155204 
0.0 0.84951115 1.3506683 0.76485467 0.7892282 0.3077308 
0.0 0.0 0.0 0.0 0.0 0.07698792 
0.0 0.0 0.0 0.0 0.0 0.07698792 
1.4395664 0.0 0.0 0.48424846 0.4066101 1.1421359 
1.7217875 0.88639915 0.0 1.0717427 2.1691332 1.520638 
0.8109536 1.3130993 0.0 1.0013145 2.9208786 1.6081014 
0.0 1.2031565 0.0 0.78718495 3.0315769 1.6867297 
0.65958047 0.19986945 0.0 0.6465202 2.4051194 2.0932567 
0.80434465 0.42948774 0.0 1.0893427 1.7344898 1.8329456 
0.3493557 0.92009276 1.5889332 1.5339675 1.9990228 1.789113 
0.30133644 1.1323453 1.1300962 1.5227098 2.2394226 1.6888232 
0.17792502 1.2042651 0.29536802 1.4516754 2.4075253 1.5934794 
0.0 0.88216996 0.0 1.0692643 2.3307679 1.6151168 
0.0 0.7435782 0.3887148 0.44650045 1.2938064 1.1998191 
0.0 0.20661318 0.77336496 0.23998179 0.32260692 0.46607214 
0.0 0.0 0.0 0.0 0.0 0.07698792 
0.0 0.0 0.0 0.0 0.0 0.07698792 
1.2262621 0.0 0.0 0.29924047 1.0146393 1.3583577 
0.97348267 0.3319182 0.0 0.6051028 2.0403488 1.6984031 
0.0 0.6257798 0.0 0.5081399 2.179672 1.5812473 
0.0 0.12708701 0.0 0.0 1.1693357 0.9688993 
0.40730846 0.0 0.0 0.0 0.9919891 0.89047945 
0.70797086 0.0 0.0 0.0 1.439022 1.5771961 
0.52136385 0.045547526 0.0 0.0 1.7586505 1.7325172 
0.1428428 0.19707747 0.0 0.02243641 1.7542982 1.6589761 
0.0 0.011483933 0.0 0.0 1.2670723 1.0940905 
0.0 0.0 0.0 0.0 0.6468779 0.5187583 
0.0 0.0 0.0 0.0 0.24771537 0.23337159 
0.0 0.0 0.0 0.0 0.011593308 0.118712716 
0.0 0.0 0.0 0.0 0.0 0.07698792 
0.0 0.0 0.0 0.0 0.0 0.07698792 
0.38196072 0.0 0.0 0.0 0.5781543 0.46208948 
0.2300429 0.0 0.0 0.0 0.610455 0.44412485 
0.0 0.0 0.0 0.0 0.3786086 0.31945005 
0.0 0.0 0.0 0.0 0.06684849 0.12761638 
0.0 0.0 0.0 0.0 0.0 0.07698792 
0.065974444 0.0 0.0 0.0 0.14553754 0.17723805 
0.055053294 0.0 0.0 0.0 0.18945341 0.2002894 
0.0 0.0 0.0 0.0 0.10701661 0.15717688 
0.0 0.0 0.0 0.0 0.0 0.09979386 
0.0 0.0 0.0 0.0 0.0 0.07698792 
0.0 0.0 0.0 0.0 0.0 0.07698792 
0.0 0.0 0.0 0.0 0.0 0.07698792 
0.0 0.0 0.0 0.0 0.0 0.07698792 
0.0 0.0 0.0 0.0 0.0 0.07698792 
0.0 0.0 0.0 0.0 0.0 0.07698792 
0.0 0.0 0.0 0.0 0.0 0.07698792 
0.0 0.0 0.0 0.0 0.0 0.07698792 
0.0 0.0 0.0 0.0 0.0 0.07698792 
0.0 0.0 0.0 0.0 0.0 0.07698792 
0.0 0.0 0.0 0.0 0.0 0.07698792 
0.0 0.0 0.0 0.0 0.0 0.07698792 
0.0 0.0 0.0 0.0 0.0 0.07698792 
0.0 0.0 0.0 0.0 0.0 0.07698792 
0.0 0.0 0.0 0.0 0.0 0.07698792 
0.0 0.0 0.0 0.0 0.0 0.07698792 
0.0 0.0 0.0 0.0 0.0 0.07698792 
0.0 0.0 0.0 0.0 0.0 0.07698792 

