0.0 0.0 0.0 0.0 0.0 0.07698792 
0.0 0.0 0.0 0.0 0.0 0.07698792 
0.0 0.0 0.0 0.0 0.0 0.07698792 
0.0 0.0 0.0 0.0 0.0 0.07698792 
0.0 0.0 0.0 0.0 0.0 0.07698792 
0.0 0.0 0.0 0.0 0.0 0.07698792 
0.0 0.0 0.0 0.0 0.0 0.07698792 
0.0 0.0 0.0 0.0 0.0 0.07698792 
0.0 0.0 0.0 0.0 0.0 0.07698792 
0.0 0.0 0.0 0.0 0.0 0.07698792 
0.0 0.0 0.0 0.0 0.0 0.07698792 
0.0 0.0 0.0 0.0 0.0 0.07698792 
0.0 0.0 0.0 0.0 0.0 0.07698792 
0.0 0.0 0.0 0.0 0.0 0.07698792 
0.0 0.0 0.0 0.0 0.0 0.07698792 
0.0 0.0 0.0 0.0 0.0 0.07698792 
0.0 0.0 0.0 0.0 0.0 0.07698792 
0.0 0.0 0.0 0.0 0.0 0.07698792 
0.0 0.0 0.0 0.0 0.0 0.07698792 
0.0 0.0 0.0 0.0 0.0 0.07698792 
0.0 0.0 0.0 0.0 0.0 0.07698792 
0.23009464 0.00750444 0.19860423 0.0 0.0 0.07698792 
0.28704247 0.3772176 0.22266522 0.0 0.0 0.07698792 
0.0 0.3856683 0.18686688 0.0 0.0850181 0.07698792 
0.0 0.07702665 0.0 0.0 0.024268392 0.07698792 
0.0 0.0 0.0 0.0 0.0 0.07698792 
0.0 0.0 0.0 0.0 0.0 0.07698792 
0.0 0.0 0.0 0.0 0.0 0.07698792 
0.0 0.0 0.0 0.0 0.0 0.07698792 
0.0 0.0 0.0 0.0 0.0 0.07698792 
0.0 0.0 0.0 0.0 0.0 0.07698792 
0.0 0.0 0.0 0.0 0.0 0.07698792 
0.0 0.0 0.0 0.0 0.0 0.07698792 
0.0 0.0 0.0 0.0 0.0 0.07698792 
0.0 0.0 0.0 0.0 0.0 0.07698792 
0.9665113 0.0 0.17294279 0.13772833 0.0 0.27935532 
1.20381 1.0943296 0.7947156 0.33295432 0.61075664 0.0 
0.0 1.4462515 1.3167624 0.093499705 1.1199632 0.0 
0.0 0.23699103 0.34771976 0.0 0.45550802 0.07698792 
0.0 0.0 0.0 0.0 0.0 0.07698792 
0.0 0.0 0.0 0.0 0.0 0.07698792 
0.0 0.0 0.0 0.0 0.0 0.07698792 
0.0 0.0 0.0 0.0 0.0 0.07698792 
0.0 0.0 0.0 0.0 0.0 0.07698792 
0.0 0.0 0.0 0.0 0.0 0.07698792 
0.0 0.0 0.0 0.0 0.0 0.07698792 
0.0 0.0 0.0 0.0 0.0 0.07698792 
0.0 0.009315788 0.0 0.0 0.0 0.07698792 
0.26460698 0.08050135 0.20581996 0.0 0.0 0.07698792 
1.5703866 0.0 0.0 0.41852045 0.44148204 0.82681996 
1.5388336 1.254295 0.24135667 0.78013366 1.4271866 0.645526 
0.0 1.7490226 1.7386293 0.8098996 1.3354964 0.111925095 
0.0 0.3719274 0.79485756 0.11356492 0.40947893 0.07698792 
0.0 0.0 0.0 0.0 0.0 0.07698792 
0.0 0.0 0.0 0.0 0.0 0.07698792 
0.0 0.0 0.0 0.0 0.0 0.07698792 
0.0 0.0 0.0 0.0 0.0 0.07698792 
0.0 0.0 0.0 0.0 0.0 0.07698792 
0.0 0.0 0.0 0.0 0.0 0.07698792 
0.0 0.0 0.0 0.0 0.0 0.07698792 
0.12087369 0.0 0.03945656 0.0 0.0 0.0758566 
0.74668425 0.14543802 0.30140924 0.0 0.0 0.0 
0.9590815 0.5004386 0.69999045 0.0 0.20094813 0.0 
1.6400971 0.7044558 0.7722654 0.0 1.4129611 0.0 
1.271302 1.6764376 0.2970042 0.0 2.0569088 0.0 
0.0 1.2718475 1.3685635 0.012989693 1.6061945 0.081886396 
0.06552613 0.12885049 0.62904525 0.0 0.3630356 0.07052782 
0.22589019 0.19018394 0.04455944 0.0 0.0 0.0 
0.0 0.34740174 0.19355392 0.0 0.20189823 0.0 
0.0 0.016986959 0.0 0.0 0.027378235 0.07698792 
0.0 0.0 0.0 0.0 0.0 0.07698792 
0.0 0.0 0.0 0.0 0.0 0.07698792 
0.0 0.0 0.0 0.0 0.0 0.07698792 
0.0 0.0 0.0 0.0 0.0 0.07698792 
0.20896733 0.0 0.0 0.1714207 0.043010566 0.3644389 
0.7294294 0.0024161479 0.0 0.6460609 0.5269162 0.9313521 
1.6735449 0.39040396 0.4445691 1.1140993 1.0351076 1.1632578 
1.5423381 1.6965553 0.565575 0.99700457 2.5097477 0.6753297 
0.038455963 1.8277203 0.94785607 0.6947425 2.7838833 0.53178704 
0.0 1.1489465 1.2825313 0.5321813 1.4700621 0.50614274 
0.15260845 0.14649904 0.43731242 0.13848533 0.14370544 0.3179619 
0.2014806 0.17270567 0.0 0.25791025 0.18355252 0.3847228 
0.0 0.31824294 0.39496255 0.27408582 0.2254032 0.24055451 
0.0 0.061921872 0.08096113 0.062482696 0.020419855 0.08664986 
0.0 0.0 0.0 0.0 0.0 0.07698792 
0.0 0.0 0.0 0.0 0.0 0.07698792 
0.0 0.0 0.0 0.0 0.0 0.07698792 
0.0 0.0 0.0 0.0 0.0 0.07698792 
0.18964651 0.0 0.0 0.015095835 0.18058069 0.33445928 
1.2173278 0.0 0.0 0.0 0.5024557 0.66853863 
1.984859 0.28163892 0.0 0.0 1.5015314 0.90961874 
1.2853308 1.5700715 0.0 0.0 2.9177272 0.55165225 
0.0 1.5801089 0.9731977 0.14143167 2.6252418 0.50647724 
0.0 0.15305938 0.53340983 0.0 0.7952786 0.3745624 
0.13376378 0.0 0.102980606 0.0 0.14351694 0.26377732 
0.1638233 0.030925106 0.0 0.0 0.24098112 0.3651916 
0.0 0.0069648577 0.16856739 0.0 0.07613154 0.25572783 
0.0 0.0 0.034141533 0.00517542 0.0 0.08988058 
0.0 0.0 0.0 0.0 0.0 0.07698792 
0.0 0.0 0.0 0.0 0.0 0.07698792 
0.0 0.0 0.0 0.0 0.0 0.07698792 
0.0 0.0 0.0 0.0 0.0 0.07698792 
0.2326918 0.0 0.044283614 0.0 0.0 0.07698792 
1.9361782 0.0 0.0 0.04114833 0.31373218 0.41434368 
2.0199113 1.4612881 0.0 0.18653691 2.4713838 0.41057998 
0.09292129 1.7251841 0.6304052 0.2764938 2.7434924 0.5930823 
0.0 0.7949529 1.0031863 0.24299534 1.4741895 0.5169733 
0.0 0.052342445 0.4705091 0.10605213 0.095413476 0.13639429 
0.0 0.0 0.0 0.0 0.0 0.07698792 
0.0 0.0 0.0 0.0 0.0 0.07698792 
0.0 0.0 0.0 0.0 0.0 0.07698792 
0.0 0.0 0.0 0.0 0.0 0.07698792 
0.0 0.0 0.0 0.0 0.0 0.07698792 
0.0 0.0 0.0 0.0 0.0 0.07698792 
0.0 0.0 0.0 0.0 0.0 0.07698792 
0.0 0.0 0.0 0.0 0.0 0.07698792 
1.1269653 0.0 0.08079321 0.0 0.0 0.18787703 
2.0497692 0.6731441 0.0 0.034804568 1.4929664 0.35556507 
1.2596893 1.6204511 0.04470615 0.072771594 2.7262394 0.46810445 
0.0 1.4178872 0.8796065 0.121705666 2.2624588 0.5317955 
0.0 0.1002863 0.60919696 0.035977464 0.4999548 0.3250704 
0.0 0.0 0.0 0.0 0.0 0.0815539 
0.0 0.0 0.0 0.0 0.0 0.07698792 
0.0 0.0 0.0 0.0 0.0 0.07698792 
0.0 0.0 0.0 0.0 0.0 0.07698792 
0.0 0.0 0.0 0.0 0.0 0.07698792 
0.0 0.0 0.0 0.0 0.0 0.07698792 
0.0 0.0 0.0 0.0 0.0 0.07698792 
0.0 0.0 0.0 0.0 0.0 0.07698792 
0.058677375 0.0 0.0 0.0 0.0 0.09992737 
1.9034038 0.0 0.0 0.110952854 0.30677846 0.7252349 
1.9608626 1.4705348 0.0 0.19585454 2.2376807 0.5988542 
0.0 1.7108642 0.9395486 0.04887135 2.6301024 0.47311246 
0.0 0.41107967 0.82759863 0.05381737 1.1436237 0.47954097 
0.0 0.0 0.1554243 0.0 0.044596415 0.11325722 
0.0 0.0 0.0 0.0 0.0 0.07698792 
0.0 0.0 0.0 0.0 0.0 0.07698792 
0.0 0.0 0.0 0.0 0.0 0.07698792 
0.0 0.0 0.0 0.0 0.0 0.07698792 
0.0 0.0 0.0 0.0 0.0 0.07698792 
0.0 0.0 0.0 0.0 0.0 0.07698792 
0.0 0.0 0.0 0.0 0.0 0.07698792 
0.0 0.0 0.0 0.0 0.0 0.07698792 
0.20761749 0.0 0.0 0.0383722 0.0 0.2567508 
2.067778 0.0 0.0 0.10588657 0.734115 0.9936623 
1.5953512 1.718398 0.0594796 0.06139512 2.0679514 0.5286164 
0.0 1.6072088 1.5446682 0.0 1.8834473 0.053053744 
0.0 0.30728 0.7218761 0.0 0.45830348 0.035710856 
0.0 0.0 0.0 0.0 0.0 0.07698792 
0.0 0.0 0.0 0.0 0.0 0.07698792 
0.0 0.0 0.0 0.0 0.0 0.07698792 
0.0 0.0 0.0 0.0 0.0 0.07698792 
0.0 0.0 0.0 0.0 0.0 0.07698792 
0.0 0.0 0.0 0.0 0.0 0.07698792 
0.0 0.0 0.0 0.0 0.0 0.07698792 
0.0 0.0 0.0 0.0 0.0 0.07698792 
0.0 0.0 0.0 0.0 0.0 0.07698792 
0.20030147 0.0 0.0 0.030226592 0.094974026 0.30949163 
2.0055933 0.0 0.0 0.36839357 1.0352365 1.507282 
1.3043189 1.3198594 0.2073715 0.97433233 1.6660138 1.27847 
0.0 1.5028961 1.6920322 0.911702 1.7498204 0.5826841 
0.0 0.32141334 0.68949723 0.31567702 0.5700453 0.18007731 
0.0 0.0 0.0 0.0 0.0 0.077755615 
0.0 0.0 0.0 0.0 0.0 0.07698792 
0.0 0.0 0.0 0.0 0.0 0.07698792 
0.0 0.0 0.0 0.0 0.0 0.07698792 
0.0 0.0 0.0 0.0 0.0 0.07698792 
0.0 0.0 0.0 0.0 0.0 0.07698792 
0.0 0.0 0.0 0.0 0.0 0.07698792 
0.0 0.0 0.0 0.0 0.0 0.07698792 
0.0 0.0 0.0 0.0 0.0 0.07698792 
0.06666954 0.0 0.0 0.0 0.07222703 0.20522559 
1.1178575 0.0 0.0 0.13740636 1.1348561 1.4120684 
0.6056 0.41835803 0.0 0.37057182 1.4579693 1.2838342 
0.0 0.6397291 0.8276768 0.48430356 1.0320023 0.89525265 
0.0 0.13145038 0.42876616 0.1152068 0.122433975 0.23398525 
0.0 0.0 0.0 0.0 0.0 0.07721622 
0.0 0.0 0.0 0.0 0.0 0.07698792 
0.0 0.0 0.0 0.0 0.0 0.07698792 
0.0 0.0 0.0 0.0 0.0 0.07698792 
0.0 0.0 0.0 0.0 0.0 0.07698792 
0.0 0.0 0.0 0.0 0.0 0.07698792 
0.0 0.0 0.0 0.0 0.0 0.07698792 
0.0 0.0 0.0 0.0 0.0 0.07698792 
0.0 0.0 0.0 0.0 0.0 0.07698792 
0.0 0.0 0.0 0.0 0.0 0.07698792 
0.28230804 0.0 0.0 0.0 0.46753743 0.33212388 
0.11492279 0.0 0.0 0.0 0.34415957 0.2598811 
0.0 0.0 0.040810905 0.0 0.20641892 0.23350744 
0.0 0.0 0.0 0.0 0.0 0.0805646 
0.0 0.0 0.0 0.0 0.0 0.07698792 
0.0 0.0 0.0 0.0 0.0 0.07698792 
0.0 0.0 0.0 0.0 0.0 0.07698792 
0.0 0.0 0.0 0.0 0.0 0.07698792 
0.0 0.0 0.0 0.0 0.0 0.07698792 
0.0 0.0 0.0 0.0 0.0 0.07698792 

