0.0 0.0 0.0 0.0 0.0 0.07698792 
0.0 0.0 0.0 0.0 0.0 0.07698792 
0.0 0.0 0.0 0.0 0.0 0.07698792 
0.0 0.0 0.0 0.0 0.0 0.07698792 
0.0 0.0 0.0 0.0 0.0 0.07698792 
0.0 0.0 0.0 0.0 0.0 0.07698792 
0.0 0.0 0.0 0.0 0.0 0.07698792 
0.0 0.0 0.0 0.0 0.0 0.07698792 
0.0 0.0 0.0 0.0 0.0 0.07698792 
0.0 0.0 0.0 0.0 0.0 0.07698792 
0.0 0.0 0.0 0.0 0.0 0.07698792 
0.0 0.0 0.0 0.0 0.0 0.07698792 
0.0 0.0 0.0 0.0 0.0 0.07698792 
0.0 0.0 0.0 0.0 0.0 0.07698792 
0.0 0.0 0.0 0.0 0.0 0.07698792 
0.0 0.0 0.0 0.0 0.0 0.07698792 
0.0 0.0 0.0 0.0 0.0 0.07698792 
0.0 0.0 0.0 0.0 0.0 0.07698792 
0.0 0.0 0.0 0.0 0.0 0.07698792 
0.0 0.0 0.0 0.0 0.0 0.07698792 
0.0 0.0 0.0 0.0 0.0 0.07698792 
0.15426397 0.0 0.06447049 0.0 0.0 0.07698792 
0.9094076 0.1775086 0.3642522 0.0 0.0 0.0 
0.6401316 1.1974444 0.74842936 0.0 0.5196266 0.0 
0.0 0.83794266 0.66687214 0.0 0.65078884 0.0 
0.0 0.013059127 0.0 0.0 0.017704722 0.07698792 
0.0 0.0 0.0 0.0 0.0 0.07698792 
0.0 0.0 0.0 0.0 0.0 0.07698792 
0.0 0.0 0.0 0.0 0.0 0.07698792 
0.0 0.0 0.0 0.0 0.0 0.07698792 
0.0 0.0 0.0 0.0 0.0 0.07698792 
0.0 0.0 0.0 0.0 0.0 0.07698792 
0.0 0.0 0.0 0.0 0.0 0.07698792 
0.0 0.0 0.0 0.0 0.0 0.07698792 
0.0 0.0 0.0 0.0 0.0 0.07698792 
0.8338945 0.0 0.010261215 0.023962613 0.0 0.29696652 
1.6945338 0.4573247 0.18438733 0.36509582 0.46162012 0.42455626 
0.5871543 2.2416186 1.6868438 0.38388252 1.6585912 0.0 
0.0 1.6699431 2.040147 0.2980001 1.2251834 0.0 
0.0 0.07764496 0.09858438 0.0 0.045216095 0.07698792 
0.0 0.0 0.0 0.0 0.0 0.07698792 
0.0 0.0 0.0 0.0 0.0 0.07698792 
0.0 0.0 0.0 0.0 0.0 0.07698792 
0.0 0.0 0.0 0.0 0.0 0.07698792 
0.0 0.0 0.0 0.0 0.0 0.07698792 
0.0 0.0 0.0 0.0 0.0 0.07698792 
0.0 0.0 0.0 0.0 0.0 0.07698792 
0.0 0.0 0.0 0.0 0.0 0.07698792 
0.00875587 0.0 0.021297686 0.0 0.0 0.07698792 
1.6525877 0.0 0.02120047 0.0 0.024719927 0.46722928 
2.1713724 0.8084701 0.0 0.0 1.7099217 0.594984 
0.5362787 1.9661597 1.2302725 0.071901426 2.409049 0.110634595 
0.0 1.3608485 1.8819324 0.12502262 1.5274812 0.11456482 
0.0 0.046565242 0.120090745 0.023532141 0.05989744 0.07698792 
0.0 0.0 0.0 0.0 0.0 0.07698792 
0.0 0.0 0.0 0.0 0.0 0.07698792 
0.0 0.0 0.0 0.0 0.0 0.07698792 
0.0 0.0 0.0 0.0 0.0 0.07698792 
0.0 0.0 0.0 0.0 0.0 0.07698792 
0.0 0.0 0.0 0.0 0.0 0.07698792 
0.0 0.0 0.0 0.0 0.0 0.07698792 
0.0 0.0 0.0 0.0 0.0 0.07698792 
0.38530254 0.0 0.023961224 0.0 0.0 0.10297646 
2.0913906 0.0 0.0 0.0 0.6350495 0.5093639 
2.0562236 1.4630249 0.0 0.032007996 2.6724427 0.52363235 
0.0 1.9039923 1.1671852 0.19914918 2.6715252 0.35278058 
0.0 0.88117206 1.5323964 0.22668219 1.386003 0.42969665 
0.0 0.024036963 0.08326013 0.036693268 0.0 0.088068396 
0.0 0.0 0.0 0.0 0.0 0.07698792 
0.0 0.0 0.0 0.0 0.0 0.07698792 
0.0 0.0 0.0 0.0 0.0 0.07698792 
0.0 0.0 0.0 0.0 0.0 0.07698792 
0.0 0.0 0.0 0.0 0.0 0.07698792 
0.0 0.0 0.0 0.0 0.0 0.07698792 
0.0 0.0 0.0 0.0 0.0 0.07698792 
0.0 0.0 0.0 0.0 0.0 0.07698792 
1.1470923 0.0 0.06367647 0.0026470022 0.0 0.2805364 
2.1117084 0.36859626 0.0 0.0 1.2737797 0.5876636 
1.4889362 1.8869514 0.22428563 0.007814639 2.8372505 0.4400749 
0.0 1.6856966 1.1468009 0.0 2.4382885 0.36024478 
0.0 0.24709398 0.8415623 0.0 0.6653903 0.31652847 
0.0 0.0 0.0 0.0 0.0 0.079423115 
0.0 0.0 0.0 0.0 0.0 0.07698792 
0.0 0.0 0.0 0.0 0.0 0.07698792 
0.0 0.0 0.0 0.0 0.0 0.07698792 
0.0 0.0 0.0 0.0 0.0 0.07698792 
0.0 0.0 0.0 0.0 0.0 0.07698792 
0.0 0.0 0.0 0.0 0.0 0.07698792 
0.0032869726 0.0 0.03648708 0.0 0.0 0.07698792 
0.43859673 0.017243374 0.13697904 0.0 0.0 0.0686916 
1.9312224 0.0 0.09239831 0.0 0.3791844 0.20183352 
2.147152 1.1319823 0.0 0.0 2.4355478 0.40491253 
0.55138505 1.8559102 0.89031357 0.2304822 2.7867014 0.43961513 
0.0 1.2505051 1.3705819 0.22064966 1.7307538 0.38768828 
0.0 0.021651164 0.46448845 0.057622623 0.21305026 0.106342755 
0.0 0.0 0.0 0.0 0.0 0.07698792 
0.0 0.0 0.0 0.0 0.0 0.07698792 
0.0 0.0 0.0 0.0 0.0 0.07698792 
0.0 0.0 0.0 0.0 0.0 0.07698792 
0.0 0.0 0.0 0.0 0.0 0.07698792 
0.0 0.0 0.0 0.0 0.0 0.07698792 
0.0 0.0 0.0 0.0 0.0 0.07698792 
0.47157234 0.0 0.08270899 0.0 0.0 0.07698792 
1.5961101 0.0 0.21444589 0.0 0.0 0.0 
1.7660513 1.0924776 0.16390306 0.0 1.9991771 0.10657003 
1.4153082 1.8669449 0.080337115 0.08849727 2.9463184 0.4913202 
0.0 1.8488972 0.9011335 0.14128667 2.7149837 0.44371834 
0.0 0.5248579 1.0799823 0.15910777 1.0708154 0.47783455 
0.0 0.0 0.09590081 0.005084687 0.0 0.09847819 
0.0 0.0 0.0 0.0 0.0 0.07698792 
0.0 0.0 0.0 0.0 0.0 0.07698792 
0.0 0.0 0.0 0.0 0.0 0.07698792 
0.0 0.0 0.0 0.0 0.0 0.07698792 
0.0 0.0 0.0 0.0 0.0 0.07698792 
0.0 0.0 0.0 0.0 0.0 0.07698792 
0.18635276 0.0 0.09221206 0.0 0.0 0.07698792 
1.6363652 0.0 0.18148047 0.0 0.0 0.081378035 
1.897023 0.8993892 0.0 0.0 1.7403015 0.10013557 
1.5808346 1.5622154 0.05883681 0.2228354 2.9795375 0.6859167 
0.3446623 1.7018867 0.5807892 0.20510653 3.002616 0.6822241 
0.0 1.1501942 0.9458735 0.19747351 1.9695011 0.552669 
0.0 0.03220058 0.5260211 0.036042213 0.3392099 0.23573998 
0.0 0.0 0.0 0.0 0.0 0.07698792 
0.0 0.0 0.0 0.0 0.0 0.07698792 
0.0 0.0 0.0 0.0 0.0 0.07698792 
0.0 0.0 0.0 0.0 0.0 0.07698792 
0.0 0.0 0.0 0.0 0.0 0.07698792 
0.0 0.0 0.0 0.0 0.0 0.07698792 
0.0 0.0 0.0 0.0 0.0 0.07698792 
0.5445767 0.0 0.0 0.17728469 0.0 0.5109633 
1.9929204 0.0 0.0 0.33795932 0.8424798 0.9127245 
1.8822203 1.3041987 0.0 0.38002715 2.3205454 0.74637586 
0.8638247 1.7869725 0.4109829 0.022042435 3.1416488 0.6394909 
0.0 1.5925019 0.81627184 0.0 2.725859 0.6097264 
0.0 0.24093398 0.68285304 0.013235518 0.775662 0.48612398 
0.0 0.0 0.094648324 0.0 0.009867031 0.09780833 
0.0 0.0 0.0 0.0 0.0 0.07698792 
0.0 0.0 0.0 0.0 0.0 0.07698792 
0.0 0.0 0.0 0.0 0.0 0.07698792 
0.0 0.0 0.0 0.0 0.0 0.07698792 
0.0 0.0 0.0 0.0 0.0 0.07698792 
0.0 0.0 0.0 0.0 0.0 0.07698792 
0.0 0.0 0.0 0.0 0.0 0.07698792 
0.59304166 0.0 0.0 0.07796943 0.31028944 0.6522951 
1.9086306 0.0 0.0 0.30750903 1.1431093 1.4973764 
1.8615968 0.9449263 0.0 0.44676465 2.341536 1.5123794 
0.41617125 1.9983971 1.2406949 0.1369453 2.6972582 0.32151553 
0.0 1.543124 1.8218383 0.0 1.6719941 0.0 
0.0 0.2014297 0.47766984 0.0 0.5228439 0.032360464 
0.0 0.0 0.0 0.0 0.0 0.07698792 
0.0 0.0 0.0 0.0 0.0 0.07698792 
0.0 0.0 0.0 0.0 0.0 0.07698792 
0.0 0.0 0.0 0.0 0.0 0.07698792 
0.0 0.0 0.0 0.0 0.0 0.07698792 
0.0 0.0 0.0 0.0 0.0 0.07698792 
0.0 0.0 0.0 0.0 0.0 0.07698792 
0.0 0.0 0.0 0.0 0.0 0.07698792 
0.23928839 0.0 0.0 0.0 0.2594289 0.35226077 
1.2110555 0.0 0.0 0.0 1.0119431 1.5297966 
1.4669752 0.0 0.0 0.69316936 2.0122468 1.9656096 
0.34107575 1.2108316 0.89660585 1.1444293 2.1623104 1.7361014 
0.0 1.1607535 1.6639471 0.95910877 1.7275833 0.89318454 
0.0 0.37025538 0.6599782 0.28956726 0.3630259 0.22980773 
0.0 0.0 0.0 0.0 0.0 0.07698792 
0.0 0.0 0.0 0.0 0.0 0.07698792 
0.0 0.0 0.0 0.0 0.0 0.07698792 
0.0 0.0 0.0 0.0 0.0 0.07698792 
0.0 0.0 0.0 0.0 0.0 0.07698792 
0.0 0.0 0.0 0.0 0.0 0.07698792 
0.0 0.0 0.0 0.0 0.0 0.07698792 
0.0 0.0 0.0 0.0 0.0 0.07698792 
0.0 0.0 0.0 0.0 0.0 0.081320055 
0.48502272 0.0 0.0 0.0 0.5076115 0.5837836 
0.74863696 0.0 0.0 0.0 1.2276638 1.323838 
0.38217893 0.08194581 0.0 0.0 1.3311462 1.4285846 
0.0 0.0048624864 0.2449933 0.0 0.58944374 0.7037904 
0.0 0.0 0.22813469 0.0 0.121846154 0.19198155 
0.0 0.0 0.0 0.0 0.0 0.07698792 
0.0 0.0 0.0 0.0 0.0 0.07698792 
0.0 0.0 0.0 0.0 0.0 0.07698792 
0.0 0.0 0.0 0.0 0.0 0.07698792 
0.0 0.0 0.0 0.0 0.0 0.07698792 
0.0 0.0 0.0 0.0 0.0 0.07698792 
0.0 0.0 0.0 0.0 0.0 0.07698792 
0.0 0.0 0.0 0.0 0.0 0.07698792 
0.0 0.0 0.0 0.0 0.0 0.07698792 
0.0 0.0 0.0 0.0 0.0 0.07698792 
0.0 0.0 0.0 0.0 0.0 0.07698792 
0.0 0.0 0.0 0.0 0.0 0.07698792 
0.0 0.0 0.0 0.0 0.0 0.07698792 
0.0 0.0 0.0 0.0 0.0 0.07698792 
0.0 0.0 0.0 0.0 0.0 0.07698792 
0.0 0.0 0.0 0.0 0.0 0.07698792 
0.0 0.0 0.0 0.0 0.0 0.07698792 
0.0 0.0 0.0 0.0 0.0 0.07698792 
0.0 0.0 0.0 0.0 0.0 0.07698792 

