0.0 0.0 0.0 0.0 0.0 0.07698792 
0.0 0.0 0.0 0.0 0.0 0.07698792 
0.0 0.0 0.0 0.0 0.0 0.07698792 
0.0 0.0 0.0 0.0 0.0 0.07698792 
0.23926783 0.0 0.081929676 0.0 0.0 0.07698792 
0.69468796 0.40749082 0.35453704 0.0 0.0 0.0 
0.14279515 0.9652527 0.60581875 0.0 0.51334167 0.0 
0.0 0.3258551 0.2673016 0.0 0.45160076 0.04311706 
0.0 0.0 0.0 0.0 0.0 0.07698792 
0.0 0.0 0.0 0.0 0.0 0.07698792 
0.0 0.0 0.0 0.0 0.0 0.07698792 
0.0 0.0 0.0 0.0 0.0 0.07698792 
0.0 0.0 0.0 0.0 0.0 0.07698792 
0.0 0.0 0.0 0.0 0.0 0.07698792 
0.0 0.0 0.0 0.0 0.0 0.07698792 
0.0 0.0 0.0 0.0 0.0 0.07698792 
0.0 0.0 0.0 0.0 0.0 0.07698792 
0.0 0.0 0.0 0.0 0.0 0.07698792 
1.1172552 0.0 0.045767806 0.03584219 0.0 0.26738468 
1.6471426 1.0686249 0.37976813 0.28041822 0.75028855 0.29153204 
0.0 1.8331382 1.8226312 0.41073063 1.3840259 0.0 
0.0 0.8336862 1.2837905 0.21163848 0.7950777 0.033689424 
0.0 0.0 0.0 0.0 0.0 0.07698792 
0.0 0.0 0.0 0.0 0.0 0.07698792 
0.0 0.0 0.0 0.0 0.0 0.07698792 
0.0 0.0 0.0 0.0 0.0 0.07698792 
0.0 0.0 0.0 0.0 0.0 0.07698792 
0.0 0.0 0.0 0.0 0.0 0.07698792 
0.0 0.0 0.0 0.0 0.0 0.07698792 
0.0 0.0 0.0 0.0 0.0 0.07698792 
0.0 0.0 0.0 0.0 0.0 0.07698792 
0.079276726 0.0 0.056913935 0.0 0.0 0.07698792 
1.87498 0.0 0.0 0.0 0.24913867 0.53990185 
2.0187678 1.4887846 0.0 0.15188631 2.0765603 0.541126 
0.0 1.7173891 1.5855951 0.28589824 2.0557501 0.39334226 
0.0 0.5026655 1.2730333 0.23134264 0.77813804 0.2635935 
0.0 0.0 0.0 0.0 0.0 0.07698792 
0.0 0.0 0.0 0.0 0.0 0.07698792 
0.0 0.0 0.0 0.0 0.0 0.07698792 
0.0 0.0 0.0 0.0 0.0 0.07698792 
0.0 0.0 0.0 0.0 0.0 0.07698792 
0.0 0.0 0.0 0.0 0.0 0.07698792 
0.0 0.0 0.0 0.0 0.0 0.07698792 
0.0 0.0 0.0 0.0 0.0 0.07698792 
0.0 0.0 0.0 0.0 0.0 0.07698792 
0.71758926 0.0 0.051361658 0.0 0.0 0.12298993 
2.0092247 0.28667754 0.0 0.0 1.1916888 0.56287193 
1.2284038 1.5718507 0.12261639 0.0 2.2966678 0.2948866 
0.0 1.2972338 1.047268 0.082196936 1.8472198 0.41697222 
0.0 0.050607156 0.5633077 0.06205632 0.25135168 0.22349939 
0.0 0.0 0.0 0.0 0.0 0.07698792 
0.0 0.0 0.0 0.0 0.0 0.07698792 
0.0 0.0 0.0 0.0 0.0 0.07698792 
0.0 0.0 0.0 0.0 0.0 0.07698792 
0.0 0.0 0.0 0.0 0.0 0.07698792 
0.0 0.0 0.0 0.0 0.0 0.07698792 
0.0 0.0 0.0 0.0 0.0 0.07698792 
0.0 0.0 0.0 0.0 0.0 0.07698792 
0.0 0.0 0.0 0.0 0.0 0.07698792 
1.5235944 0.0 0.0002458766 0.13548906 0.0 0.6300441 
1.9487026 1.1811712 0.0 0.1601709 1.8469726 0.69972056 
0.0 1.6053607 1.1000875 0.057330575 2.2300081 0.2999524 
0.0 0.4361902 1.0168326 0.05049689 1.0802387 0.39343983 
0.36216766 0.024405383 0.21013793 0.0 0.0 0.08638119 
0.76351047 0.36481407 0.5129624 0.0 0.0 0.0 
0.75393564 0.98781437 0.9316449 0.0 0.0 0.0 
0.2228305 1.0862817 0.9690454 0.0 0.3388019 0.0 
0.0 0.8292549 0.5788016 0.0 0.4046763 0.0 
0.0 0.2189304 0.07830242 0.0 0.13932516 0.07698792 
0.0 0.0 0.0 0.0 0.0 0.07698792 
0.0 0.0 0.0 0.0 0.0 0.07698792 
0.0 0.0 0.0 0.0 0.0 0.07698792 
0.0 0.0 0.0 0.0 0.0 0.07698792 
2.0057611 0.0 0.0 0.047066 0.4142801 0.89616144 
1.7297513 1.4721744 0.0 0.032592498 1.7688326 0.5767526 
0.0 1.5876527 1.1979082 0.0 1.7962639 0.2999829 
0.5664741 0.08375748 0.7567638 0.005775989 0.39114395 0.1752861 
1.144768 0.23531747 0.27087963 0.0 0.09669225 0.0 
1.067352 0.8899507 0.52962804 0.89073426 1.7100338 0.42923716 
0.44025505 0.8945167 1.0955974 1.634838 1.7716705 1.0908725 
0.29597658 1.2660537 1.5624152 1.669707 1.188733 0.9244972 
0.007779494 1.5521636 1.7751831 0.9953164 0.95046073 0.0 
0.0 1.1166452 1.2569721 0.0 0.7666163 0.0 
0.0 0.0587793 0.0 0.0 0.04243226 0.07698792 
0.0 0.0 0.0 0.0 0.0 0.07698792 
0.0 0.0 0.0 0.0 0.0 0.07698792 
0.16163701 0.0 0.0 0.0 0.0 0.13964811 
2.0806544 0.0 0.0 0.023057427 0.6966124 0.8897802 
1.2047415 1.6276915 0.25301835 0.0 1.6333328 0.1395768 
0.0 1.3342708 1.6501298 0.0 1.5365646 0.07705054 
1.4990053 0.0 0.35735297 0.16416599 0.0 0.28573507 
1.3509846 1.5012097 0.0 0.50220424 2.1033523 0.38831812 
0.047492117 1.2564238 0.0 0.8114677 2.3301091 1.2694123 
0.29006785 0.6404185 0.0 0.7794921 1.8849782 1.7501237 
1.2021539 0.10433323 0.0 0.79189867 1.3092788 1.7173722 
0.8398033 1.4735972 1.5605162 0.80913126 1.0815549 0.70909303 
0.0 1.5303993 1.8394747 0.2689908 1.1721698 0.0 
0.0 0.15649335 0.26267633 0.0 0.2332771 0.07698792 
0.0 0.0 0.0 0.0 0.0 0.07698792 
0.0 0.0 0.0 0.0 0.0 0.07698792 
0.3119606 0.0 0.0 0.10098153 0.0 0.38353583 
2.0896945 0.0 0.0 0.16286969 0.85589886 0.9746452 
0.8712139 1.7341024 0.7899223 0.045520045 1.5793153 0.10592991 
0.0 1.3334155 1.8845123 0.0 1.388332 0.058033444 
1.8985689 0.0 0.0 0.17548029 0.9616962 0.790588 
0.93918484 1.5598063 0.5747874 0.0 2.1236684 0.14196223 
0.0 0.9403771 1.3610512 0.0 1.7505581 0.42709783 
0.15406618 0.0 0.13123208 0.0 0.50069875 0.37188402 
1.644388 0.0 0.0 0.0 0.5463213 0.88984376 
1.2198296 1.3470048 0.0 0.0 1.4543045 0.53904986 
0.0 1.152323 1.4383538 0.20986596 1.4018337 0.2523277 
0.0 0.19104618 0.41005084 0.15737046 0.12866813 0.11660728 
0.0 0.0 0.0 0.0 0.0 0.07698792 
0.0 0.0 0.0 0.0 0.0 0.07698792 
0.3086054 0.0 0.0 0.060613435 0.17537162 0.42770618 
1.8925018 0.0 0.0 0.17956921 0.8314296 1.3982918 
1.2769988 1.6198531 0.8944149 0.21809478 1.3697975 0.6690768 
0.0 1.6455835 2.1396546 0.0 1.4557568 0.14499146 
1.563051 0.0 0.0 0.36600086 1.0876771 1.0901988 
0.99436337 1.5798234 1.2792112 0.28679496 1.0955343 0.24267957 
0.0 1.5635185 2.3247724 0.0 0.9623682 0.0 
0.71060306 0.814761 0.9413702 0.0 0.2485229 0.0 
1.5095608 0.9403917 0.18514481 0.07132904 1.9832486 0.19151944 
0.38925034 1.2257686 0.33156836 0.22219136 2.0233576 0.45438826 
0.0 0.65685683 0.8773558 0.16239372 1.1405685 0.42731473 
0.0 0.0 0.11977396 0.0 0.01274341 0.10146698 
0.0 0.0 0.0 0.0 0.0 0.07698792 
0.0 0.0 0.0 0.0 0.0 0.07698792 
0.06838067 0.0 0.0 0.0 0.116423935 0.18876022 
1.4420774 0.0 0.0 0.06260796 0.8853062 1.4409668 
1.3084908 0.68974036 0.0 0.3352026 0.90891635 1.3829424 
0.3643347 1.5243852 2.088721 0.576207 1.0307281 0.20504951 
1.4984016 0.8884383 1.3754014 0.0 1.4878398 0.06731575 
1.3487437 0.91705954 0.42357153 0.23682372 1.9496399 0.5251502 
0.13355687 1.3340057 2.019404 1.4388947 2.1385195 0.8413685 
0.33451384 1.2767369 1.2473453 1.6225828 2.203564 1.2429862 
0.22254705 1.1529324 0.23702264 0.98124224 2.2327015 1.2588394 
0.0 0.9191131 0.52658325 0.5371139 1.4929752 0.65962535 
0.0 0.12229343 0.6046545 0.08267359 0.30695313 0.32693553 
0.0 0.0 0.0 0.0 0.0 0.07698792 
0.0 0.0 0.0 0.0 0.0 0.07698792 
0.0 0.0 0.0 0.0 0.0 0.07698792 
0.0 0.0 0.0 0.0 0.0 0.07698792 
0.6970958 0.0 0.0 0.0 0.66141784 0.8149155 
1.0430739 0.0 0.0 0.3457865 1.0974342 1.438618 
0.7172046 0.47693077 0.8144649 1.551245 1.5684158 1.6983387 
0.46755385 0.7810532 1.1826223 1.7267107 2.0713725 1.7670171 
0.5882179 0.72561663 0.0 1.2824184 2.5084512 1.7569401 
0.04866855 0.8439936 0.0 1.0872364 2.5400312 1.6660364 
0.0 0.6535577 0.0 0.65890455 2.168346 1.618123 
0.0 0.26778573 0.0 0.0 1.1857773 1.0270104 
0.0 0.0 0.11311505 0.0 0.35701832 0.3792559 
0.0 0.0 0.02872736 0.0 0.006303992 0.088105164 
0.0 0.0 0.0 0.0 0.0 0.07698792 
0.0 0.0 0.0 0.0 0.0 0.07698792 
0.0 0.0 0.0 0.0 0.0 0.07698792 
0.0 0.0 0.0 0.0 0.0 0.07698792 
0.0350008 0.0 0.0 0.0 0.10656701 0.14877754 
0.6067831 0.0 0.0 0.0 0.7987481 0.7944603 
0.64498705 0.0 0.0 0.0 1.344359 1.4040608 
0.25339544 0.0 0.0 0.0 1.396752 1.421267 
0.09940554 0.0 0.0 0.0 1.3221002 1.2659574 
0.0 0.0 0.0 0.0 0.94508094 0.78775233 
0.0 0.0 0.0 0.0 0.40847868 0.35244155 
0.0 0.0 0.0 0.0 0.06523731 0.13005419 
0.0 0.0 0.0 0.0 0.0 0.07828162 
0.0 0.0 0.0 0.0 0.0 0.07698792 
0.0 0.0 0.0 0.0 0.0 0.07698792 
0.0 0.0 0.0 0.0 0.0 0.07698792 
0.0 0.0 0.0 0.0 0.0 0.07698792 
0.0 0.0 0.0 0.0 0.0 0.07698792 
0.0 0.0 0.0 0.0 0.0 0.07698792 
0.0 0.0 0.0 0.0 0.0 0.07698792 
0.0 0.0 0.0 0.0 0.0 0.07698792 
0.0 0.0 0.0 0.0 0.0 0.07698792 
0.0 0.0 0.0 0.0 0.0 0.07698792 
0.0 0.0 0.0 0.0 0.0 0.07698792 
0.0 0.0 0.0 0.0 0.0 0.07698792 
0.0 0.0 0.0 0.0 0.0 0.07698792 
0.0 0.0 0.0 0.0 0.0 0.07698792 
0.0 0.0 0.0 0.0 0.0 0.07698792 
0.0 0.0 0.0 0.0 0.0 0.07698792 
0.0 0.0 0.0 0.0 0.0 0.07698792 
0.0 0.0 0.0 0.0 0.0 0.07698792 
0.0 0.0 0.0 0.0 0.0 0.07698792 
0.0 0.0 0.0 0.0 0.0 0.07698792 
0.0 0.0 0.0 0.0 0.0 0.07698792 
0.0 0.0 0.0 0.0 0.0 0.07698792 
0.0 0.0 0.0 0.0 0.0 0.07698792 
0.0 0.0 0.0 0.0 0.0 0.07698792 
0.0 0.0 0.0 0.0 0.0 0.07698792 
0.0 0.0 0.0 0.0 0.0 0.07698792 
0.0 0.0 0.0 0.0 0.0 0.07698792 
0.0 0.0 0.0 0.0 0.0 0.07698792 
0.0 0.0 0.0 0.0 0.0 0.07698792 
0.0 0.0 0.0 0.0 0.0 0.07698792 

