0.0 0.0 0.0 0.0 0.0 0.07698792 
0.0 0.0 0.0 0.0 0.0 0.07698792 
0.0 0.0 0.0 0.0 0.0 0.07698792 
0.0 0.0 0.0 0.0 0.0 0.07698792 
0.0 0.0 0.0 0.0 0.0 0.07698792 
0.0 0.0 0.0 0.0 0.0 0.07698792 
0.0 0.0 0.0 0.0 0.0 0.07698792 
0.0 0.0 0.0 0.0 0.0 0.07698792 
0.0 0.0 0.0 0.0 0.0 0.07698792 
0.0 0.0 0.0 0.0 0.0 0.07698792 
0.0 0.0 0.0 0.0 0.0 0.07698792 
0.0 0.0 0.0 0.0 0.0 0.07698792 
0.0 0.0 0.0 0.0 0.0 0.07698792 
0.0 0.0 0.0 0.0 0.0 0.07698792 
0.0 0.0 0.0 0.0 0.0 0.07698792 
0.0 0.0 0.0 0.0 0.0 0.07698792 
0.0 0.0 0.0 0.0 0.0 0.07698792 
0.0 0.0 0.0 0.0 0.0 0.07698792 
0.0 0.0 0.0 0.0 0.0 0.07698792 
0.0 0.0 0.0 0.0 0.0 0.07698792 
0.071688086 0.0 0.07151181 0.0 0.0 0.07698792 
0.24655136 0.16160512 0.28774032 0.0 0.0 0.07698792 
0.34298363 0.47472382 0.42721415 0.0 0.0 0.07698792 
0.18465537 0.5691198 0.37049913 0.0 0.018093731 0.07698792 
0.0 0.36241135 0.14552 0.0 0.07874222 0.07698792 
0.0 0.03718723 0.0 0.0 0.0 0.07698792 
0.0 0.0 0.0 0.0 0.0 0.07698792 
0.0 0.0 0.0 0.0 0.0 0.07698792 
0.0 0.0 0.0 0.0 0.0 0.07698792 
0.0 0.0 0.0 0.0 0.0 0.07698792 
0.0 0.0 0.0 0.0 0.0 0.07698792 
0.0 0.0 0.0 0.0 0.0 0.07698792 
0.0 0.0 0.0 0.0 0.0 0.07698792 
0.45903254 0.0 0.14706036 0.0 0.0 0.06756028 
1.1498156 0.2560077 0.4312802 0.0 0.0 0.0 
1.0199656 0.7805092 0.9486575 0.0 0.52622277 0.0 
0.7071003 1.084194 1.3563786 0.0 0.94790965 0.0 
0.39567298 1.680363 1.8730526 0.0 1.051799 0.0 
0.0 1.762015 1.6480656 0.0 1.0796388 0.0 
0.0 0.5916566 0.5595122 0.0 0.58818406 0.01028838 
0.0 0.0 0.0 0.0 0.0 0.07698792 
0.0 0.0 0.0 0.0 0.0 0.07698792 
0.0 0.0 0.0 0.0 0.0 0.07698792 
0.0 0.0 0.0 0.0 0.0 0.07698792 
0.0 0.0 0.0 0.0 0.0 0.07698792 
0.0 0.0 0.0 0.0 0.0 0.07698792 
0.14401516 0.0 0.035125196 0.0 0.0 0.07698792 
1.5315287 0.0 0.11280363 0.04986429 0.0 0.08811214 
1.6693416 1.176349 0.46800303 0.433442 1.610561 0.22457696 
0.8614616 1.4290582 0.9429033 1.0225612 2.724365 1.1963694 
0.6056958 1.5587853 0.96101904 1.1556357 2.8183656 1.7957678 
0.33626702 1.7215563 1.7011517 1.3185256 2.3078501 1.8232093 
0.0 1.8531728 2.05177 1.2313946 1.7578148 0.7794247 
0.0 0.89162755 1.4061878 0.6043523 0.8485232 0.25056463 
0.0 0.0 0.0 0.0 0.0 0.07698792 
0.0 0.0 0.0 0.0 0.0 0.07698792 
0.0 0.0 0.0 0.0 0.0 0.07698792 
0.0 0.0 0.0 0.0 0.0 0.07698792 
0.0 0.0 0.0 0.0 0.0 0.07698792 
0.0 0.0 0.0 0.0 0.0 0.07698792 
0.5631338 0.0 0.0 0.07800113 0.0 0.40777415 
2.002171 0.042667273 0.0 0.18696961 1.1074427 0.76882774 
1.5082326 1.515362 0.0 0.40280208 2.8457625 0.86816674 
0.08983134 1.2709379 0.0 0.64811116 3.0430505 1.6304159 
0.5230492 0.45670334 0.0 0.498741 2.4003112 1.7394748 
0.38898242 0.3523688 0.0 0.30807954 2.011522 1.7916639 
0.0 0.52391696 0.5583877 0.3653047 1.3771957 1.0608445 
0.0 0.2774263 0.9398294 0.29832026 0.38715863 0.41193992 
0.0 0.0 0.0 0.0 0.0 0.07698792 
0.0 0.0 0.0 0.0 0.0 0.07698792 
0.0 0.0 0.0 0.0 0.0 0.07698792 
0.0 0.0 0.0 0.0 0.0 0.07698792 
0.0 0.0 0.0 0.0 0.0 0.07698792 
0.0 0.0 0.0 0.0 0.0 0.07698792 
0.71511406 0.0 0.0 0.12583855 0.23589219 0.73278105 
1.8769712 0.10915507 0.0 0.19074652 1.1750243 1.3271422 
0.93390626 1.5821736 1.2529943 0.0 2.218391 0.39771426 
0.63189095 0.90652585 1.6825625 0.0 1.4651029 0.0 
0.85355204 1.2875651 0.9406175 0.24102738 1.4349163 0.0 
0.0 1.4325504 1.353066 0.5324672 1.4617108 0.0 
0.0 0.37514064 0.64406306 0.23303029 0.7347949 0.16213393 
0.0 0.0 0.009986632 0.0 0.06564976 0.12259149 
0.0 0.0 0.0 0.0 0.0 0.07698792 
0.0 0.0 0.0 0.0 0.0 0.07698792 
0.0 0.0 0.0 0.0 0.0 0.07698792 
0.0 0.0 0.0 0.0 0.0 0.07698792 
0.0 0.0 0.0 0.0 0.0 0.07698792 
0.0 0.0 0.0 0.0 0.0 0.07698792 
0.53919196 0.0 0.0 0.00011422485 0.37237984 0.60743743 
1.9253972 0.0 0.0 0.06034791 0.77350605 1.2503054 
1.578491 1.0774168 1.38157 0.23903053 1.3319386 0.4157096 
0.61688 1.7613481 2.0019786 0.5328525 2.734419 0.38441443 
0.23876277 1.8012913 0.6395614 0.8150336 2.7451198 0.740753 
0.0 1.3932488 1.2594934 0.8418025 1.4932492 0.69363123 
0.0 0.36730963 0.758514 0.37806806 0.15556107 0.20355555 
0.0 0.0 0.0 0.0 0.0 0.07698792 
0.0 0.0 0.0 0.0 0.0 0.07698792 
0.0 0.0 0.0 0.0 0.0 0.07698792 
0.0 0.0 0.0 0.0 0.0 0.07698792 
0.0 0.0 0.0 0.0 0.0 0.07698792 
0.0 0.0 0.0 0.0 0.0 0.07698792 
0.0 0.0 0.0 0.0 0.0 0.07698792 
0.8013131 0.0 0.035706937 0.0 0.0 0.05418828 
2.1461656 0.20380893 0.0 0.0 1.0163162 0.53208387 
1.7746799 0.9549121 0.0 0.10833451 2.6740322 0.9586039 
0.6670456 1.8979232 0.52657795 0.24806497 2.9113102 0.87961614 
0.0 1.6811509 1.2698586 0.0 2.5057683 0.3116493 
0.0 0.16210431 0.57973987 0.0 0.7742782 0.34632844 
0.0 0.0 0.021635644 0.0 0.04494879 0.1124112 
0.0 0.0 0.0 0.0 0.0 0.07698792 
0.0 0.0 0.0 0.0 0.0 0.07698792 
0.0 0.0 0.0 0.0 0.0 0.07698792 
0.0 0.0 0.0 0.0 0.0 0.07698792 
0.0 0.0 0.0 0.0 0.0 0.07698792 
0.0 0.0 0.0 0.0 0.0 0.07698792 
0.0 0.0 0.0 0.0 0.0 0.07698792 
1.7303956 0.0 0.0 0.12121047 0.020860914 0.60757744 
1.8992755 1.1980644 0.0 0.28373677 2.1463146 0.5796508 
0.6235864 1.5795671 0.0 0.49037987 2.868273 1.5705211 
0.7284923 1.0991604 0.51978064 0.4752899 2.324499 1.6637588 
0.0 1.5540546 2.019607 0.23768722 1.331652 0.0 
0.0 0.75131536 1.195455 0.0 0.78083706 0.016072724 
0.0 0.0 0.0 0.0 0.0 0.07698792 
0.0 0.0 0.0 0.0 0.0 0.07698792 
0.0 0.0 0.0 0.0 0.0 0.07698792 
0.0 0.0 0.0 0.0 0.0 0.07698792 
0.0 0.0 0.0 0.0 0.0 0.07698792 
0.0 0.0 0.0 0.0 0.0 0.07698792 
0.0 0.0 0.0 0.0 0.0 0.07698792 
0.05913891 0.0 0.0 0.028203338 0.0 0.1568315 
2.0833766 0.0 0.0 0.10907253 0.60361576 1.0226467 
1.7200487 1.5856593 0.0 0.14712788 2.2673128 0.6066081 
0.010562271 1.4326597 1.2302072 0.0 2.583584 1.1183717 
1.5297287 0.37999138 0.0 0.0 1.1449662 1.3526299 
0.05874473 1.5011473 1.8387563 0.05081923 1.5480813 0.0 
0.0 0.87764865 1.639445 0.0 1.0468987 0.0 
0.0 0.0 0.0 0.0 0.0 0.07698792 
0.0 0.0 0.0 0.0 0.0 0.07698792 
0.0 0.0 0.0 0.0 0.0 0.07698792 
0.0 0.0 0.0 0.0 0.0 0.07698792 
0.0 0.0 0.0 0.0 0.0 0.07698792 
0.0 0.0 0.0 0.0 0.0 0.07698792 
0.0 0.0 0.0 0.0 0.0 0.07698792 
0.07820085 0.0 0.0 0.013659903 0.012847554 0.19376901 
2.0773792 0.0 0.0 0.14499371 0.74683315 1.259594 
1.442236 1.5678331 0.36287624 0.056751918 1.320628 0.47581294 
0.59391385 1.443084 2.102879 0.0 1.1616757 0.0 
1.6870978 1.3579357 0.07988299 0.01278687 2.3160655 0.08952874 
0.0 1.6493363 1.3472323 0.33527362 2.1275885 0.320037 
0.0 0.7215692 1.5314516 0.28340757 1.0407267 0.3104437 
0.0 0.0 0.0 0.0 0.0 0.07698792 
0.0 0.0 0.0 0.0 0.0 0.07698792 
0.0 0.0 0.0 0.0 0.0 0.07698792 
0.0 0.0 0.0 0.0 0.0 0.07698792 
0.0 0.0 0.0 0.0 0.0 0.07698792 
0.0 0.0 0.0 0.0 0.0 0.07698792 
0.0 0.0 0.0 0.0 0.0 0.07698792 
0.017274097 0.0 0.0 0.0005983431 0.0149181 0.16073467 
1.7158322 0.0 0.0 0.123718396 0.8498156 1.3873093 
1.6073306 0.62992084 0.0 0.94060385 1.536226 1.6591928 
0.4994135 1.2042794 1.5187244 1.434249 2.757087 1.7161379 
0.5092586 1.5965157 0.2577725 1.1133525 2.702842 1.3961191 
0.0 1.336126 0.96829844 0.51565814 1.9338979 0.79256773 
0.0 0.19844714 0.84174967 0.17464417 0.39642823 0.3257512 
0.0 0.0 0.0 0.0 0.0 0.07698792 
0.0 0.0 0.0 0.0 0.0 0.07698792 
0.0 0.0 0.0 0.0 0.0 0.07698792 
0.0 0.0 0.0 0.0 0.0 0.07698792 
0.0 0.0 0.0 0.0 0.0 0.07698792 
0.0 0.0 0.0 0.0 0.0 0.07698792 
0.0 0.0 0.0 0.0 0.0 0.07698792 
0.0 0.0 0.0 0.0 0.0 0.08441444 
0.9479006 0.0 0.0 0.038055796 0.85286075 1.116267 
1.0976243 0.0 0.0 0.3696935 1.8622438 1.7641969 
0.39661026 0.50670946 0.0 0.66431814 2.2517018 1.8580718 
0.0 0.54437494 0.0 0.28420284 1.8452492 1.429347 
0.0 0.057002574 0.35183534 0.0 0.50753164 0.54737556 
0.0 0.0 0.11982701 0.0 0.043385226 0.109463885 
0.0 0.0 0.0 0.0 0.0 0.07698792 
0.0 0.0 0.0 0.0 0.0 0.07698792 
0.0 0.0 0.0 0.0 0.0 0.07698792 
0.0 0.0 0.0 0.0 0.0 0.07698792 
0.0 0.0 0.0 0.0 0.0 0.07698792 
0.0 0.0 0.0 0.0 0.0 0.07698792 
0.0 0.0 0.0 0.0 0.0 0.07698792 
0.0 0.0 0.0 0.0 0.0 0.07698792 
0.1705769 0.0 0.0 0.0 0.30916363 0.24513984 
0.30934525 0.0 0.0 0.0 0.6631116 0.41669267 
0.09331025 0.0 0.0 0.0 0.6100778 0.4249773 
0.0 0.0 0.0 0.0 0.27091366 0.24480438 
0.0 0.0 0.0 0.0 0.0 0.09303297 
0.0 0.0 0.0 0.0 0.0 0.07698792 
0.0 0.0 0.0 0.0 0.0 0.07698792 
0.0 0.0 0.0 0.0 0.0 0.07698792 
0.0 0.0 0.0 0.0 0.0 0.07698792 
0.0 0.0 0.0 0.0 0.0 0.07698792 

