0.351875
0.107283
0.892411
0.000000
0.475196
0.000000
0.205996
0.000000
0.000000
1.141334
0.563645
0.000000
0.000000
1.040413
0.550889
0.907613
1.031562
0.473197
0.196372
0.156887
0.000000
0.000000
0.690298
0.000000
0.109473
0.000000
0.286733
0.578417
0.612231
0.000000
1.544096
0.351685
1.053206
0.206465
0.260312
1.112801
0.303479
0.486251
1.240856
0.070229
0.129896
1.639580
0.000000
0.000000
0.000000
0.000000
0.000000
0.210829
0.000000
0.000000
0.837923
0.000000
1.736958
0.000000
0.000000
0.325205
0.000000
0.000000
0.520161
0.082751
0.000000
1.555849
0.633122
1.314214
0.000000
0.000000
0.000000
0.000000
0.000000
0.244444
0.646361
0.000000
0.106147
0.666140
0.000000
1.745328
0.346715
2.014847
0.000000
0.000000
0.000000
0.000000
0.000000
0.000000
0.187707
0.000000
0.000000
0.589756
0.084703
0.000000
0.000000
0.329237
0.000000
0.000000
0.000000
1.534024
0.000000
0.096625
0.000000
0.346521
0.398324
0.000000
1.607302
0.000000
0.517921
0.000000
0.000000
0.000000
0.184959
0.000000
0.000000
0.871671
0.000000
1.213001
0.000000
0.199449
0.000000
0.000000
0.505824
0.000000
0.000000
0.000000
0.000000
0.000000
0.220520
0.397446
0.000000
0.000000
0.529496
0.342255
0.439407
0.101000
0.000000
0.534139
0.000000
0.000000
0.000000
0.000000
2.394782
0.000000
0.000000
0.000000
0.000000
1.620449
0.537694
0.000000
0.000000
0.651195
0.515036
0.000000
0.159460
0.000000
0.141052
0.000000
0.000000
0.571924
0.000000
0.000000
0.000000
0.620371
0.243399
0.374408
0.167954
0.668049
0.000000
0.362086
0.749306
0.000000
0.000000
0.000000
0.540163
0.000000
0.074008
0.431407
0.000000
0.000000
0.005087
1.656806
0.303934
0.000000
1.310198
0.000000
0.000000
0.000000
0.129285
0.043059
0.000000
0.000000
1.565159
1.446558
0.000000
1.505639
0.000000
0.493740
0.046642
0.000000
0.000000
0.456616
0.531076
0.000000
0.012208
0.000000
0.104411
0.000000
0.907837
0.000000
1.531273
0.000000
0.783302
0.056293
0.000000
0.000000
0.000000
1.675100
0.000000
0.000000
0.000000
0.358917
0.383373
0.047693
0.080748
0.000000
0.376516
0.414267
0.000000
0.429974
0.000000
1.703140
0.000000
0.000000
1.381781
0.000000
0.000000
0.318834
0.454936
0.000000
0.000000
0.000000
0.271672
0.924140
0.000000
0.489747
0.314385
0.310669
0.000000
0.285105
0.000000
0.000000
1.262693
0.000000
0.000000
0.576441
0.517374
0.000000
0.785996
0.000000
0.000000
0.000000
0.000000
0.006293
0.000000
0.000000
0.000000
0.000000
0.821432
0.000000
0.507005
0.646315
0.243183
0.931693
0.000000
0.395128
0.000000
0.125204
0.056049
0.000000
0.139194
0.000000
0.901247
0.000000
0.223189
0.000000
1.299101
0.000000
0.486216
0.000000
0.133937
0.000000
1.572859
0.980767
0.920033
0.603551
0.309035
0.058506
0.000000
0.000000
0.789907
0.018059
0.374444
0.000000
0.292414
0.000000
0.831878
0.287203
0.400234
0.000000
0.898593
0.000000
0.000000
0.345340
1.341911
0.000000
0.112497
0.000000
0.000000
0.000000
0.131019
0.089880
0.000000
0.255499
0.046905
0.000000
0.000000
0.034469
0.255171
0.356243
0.333203
0.136771
0.134704
0.000000
0.000000
0.414477
0.644459
0.000000
0.325508
0.587803
1.118045
0.000000
0.965402
0.000000
0.000000
0.000000
0.035648
0.000000
0.000000
0.485656
0.000000
0.282841
0.000000
0.572832
0.313527
1.789122
0.000000
0.559874
0.000000
0.000000
0.000000
0.664854
0.000000
0.465130
0.444345
1.104758
0.084969
0.000000
0.000000
0.241846
1.171994
0.444603
0.000000
0.317949
0.000000
1.286559
0.000000
0.711261
0.000000
0.090230
0.000000
0.000000
0.397603
0.000000
0.824841
0.000000
0.000000
0.000000
0.000000
0.000000
0.923927
0.000000
0.097247
0.000000
0.385332
0.000000
0.000000
0.000000
0.000000
0.930281
0.000000
0.000000
0.000000
0.173300
0.000000
0.760215
0.092803
0.441017
0.000000
0.000000
0.000000
0.000000
0.000000
0.155139
1.257466
0.320056
0.000000
0.197635
0.000000
0.339059
0.429770
0.000000
0.000000
0.515350
0.000000
0.000000
0.000000
0.000000
0.000000
0.239667
0.000000
0.469016
0.638180
0.000000
0.453633
0.000000
0.353450
0.000000
0.000000
0.000000
0.106542
0.000000
0.000000
0.181497
0.000000
0.464622
0.292646
0.000000
0.385791
0.000000
0.043668
0.000000
0.000000
0.000000
0.000000
0.000000
0.000000
0.249027
0.885377
2.401150
0.224115
0.000000
0.000000
0.000000
0.000000
1.275487
0.455348
0.000000
0.143924
0.639732
0.549389
0.374923
0.000000
0.000000
0.000000
0.000000
0.156908
1.497029
0.000000
0.504564
0.000000
0.000000
0.000000
0.000000
0.000000
0.000000
0.000000
1.907222
0.134406
0.000000
0.000000
0.000000
0.259765
0.821807
0.017125
0.000000
0.000000
0.000000
1.121077
0.000000
0.675629
0.000000
0.000000
0.436065
