0.000000
1.673198
0.000000
0.550252
0.033544
0.000000
0.000000
0.477882
0.288780
0.000000
1.250347
0.000000
0.000000
0.000000
0.134251
0.000000
0.238158
0.000000
0.000000
0.000000
0.632714
0.000000
0.478283
0.965442
0.000000
0.000000
0.000000
0.154965
0.112447
0.000000
0.059246
0.460728
1.521659
0.000000
0.000000
0.000000
0.000000
0.000000
1.889316
0.000000
0.000000
1.115671
0.771480
0.000000
0.341136
0.000000
1.132622
0.841380
0.000000
0.050264
0.000000
0.000000
1.488437
1.089302
0.000000
0.932062
0.702427
0.000000
0.000000
0.315935
0.000000
2.317601
0.000000
1.377169
0.000000
0.000000
0.048674
0.657977
0.000000
0.000000
0.000000
0.000000
0.000000
0.000000
0.983492
0.070733
0.101118
0.000000
0.000000
0.501398
0.153960
0.096792
0.202092
1.726256
0.000000
0.000000
0.807420
0.000000
0.441387
0.000000
0.000000
0.000000
1.184834
0.000000
0.617232
0.000000
0.000000
0.598830
0.000000
0.016223
0.222808
0.000000
0.016643
0.000000
0.062478
0.000000
0.841856
1.030094
0.000000
0.349523
0.000000
0.680864
0.000000
0.390231
0.239734
1.035004
0.305955
0.942465
0.000000
0.000000
0.336888
0.000000
0.486190
1.900208
1.389272
0.235374
0.000000
0.000000
0.000000
0.268904
0.000000
0.370484
0.000000
0.000000
0.000000
0.529026
1.802810
1.110940
1.374207
0.000000
0.000000
0.000000
0.000000
0.000000
0.000000
1.796216
0.000000
1.733217
0.111168
0.000000
0.229837
0.583493
0.000000
0.329670
0.000000
0.000000
0.827829
0.000000
0.298261
0.000000
0.131063
0.000000
0.000000
0.000000
0.000000
1.052677
0.149335
0.000000
0.105468
0.585845
0.000000
0.803421
0.011344
0.376859
0.820343
0.811829
0.000000
0.933733
0.000000
0.200077
0.182188
0.000000
0.355933
0.000000
0.000000
0.255812
0.000000
0.727300
0.000000
0.000000
0.457805
0.071892
0.000000
0.000000
0.000000
0.053868
0.396281
0.254307
0.000000
0.000000
0.138917
0.858676
0.645919
1.252674
0.100255
2.295208
0.297006
0.660373
0.000000
0.725372
0.000000
0.000000
0.000000
1.312160
0.000000
0.658196
0.545778
0.000000
0.018415
0.078635
0.000000
0.231056
0.000000
0.943081
1.964853
0.330902
1.474384
0.750356
0.879382
0.709228
0.000000
0.948058
0.000000
0.499896
0.557889
0.486626
0.000000
0.000000
0.000000
0.000000
0.000000
0.094225
1.380439
0.341254
1.261515
0.878700
0.000000
0.000000
0.124987
0.264023
1.746349
0.000000
0.806252
0.000000
0.963741
0.785328
0.000000
0.000000
0.127531
0.000000
0.513496
0.002105
0.402200
0.000000
0.000000
0.000000
0.000000
0.795454
0.117897
0.059461
0.000000
0.000000
0.000000
0.000000
0.000000
0.677012
0.171074
0.560874
0.812621
0.000000
0.000000
0.000000
0.054414
0.664714
0.000000
0.000000
0.823902
0.089847
1.651732
1.014205
0.000000
0.563140
0.400671
0.000000
0.000000
0.000000
0.000000
0.015863
0.000000
0.916451
0.000000
0.310737
0.000000
0.791217
0.632311
0.502531
0.134019
0.317914
0.164494
0.071733
1.114184
0.044371
0.217297
0.000000
0.000000
0.000000
0.056368
0.710907
0.485516
0.133045
0.000000
0.000000
1.191294
0.000000
0.681719
0.000000
0.000000
0.284496
0.000000
0.389417
0.000000
0.000000
0.445402
0.000000
0.000000
0.203685
0.033215
0.000000
0.000000
0.000000
0.000000
0.085281
0.461270
0.036165
0.000000
0.000000
0.597634
0.580660
0.000000
0.000000
0.000000
0.000000
2.076900
0.000000
0.000000
0.000000
0.000000
0.827394
0.000000
0.038704
0.000000
0.000000
0.000000
0.605853
0.261966
0.143361
0.000000
0.197965
0.207829
0.681509
0.000000
0.000000
0.173248
0.877103
0.227923
0.000000
0.768986
0.153220
0.248871
0.000000
0.899199
0.000000
0.000000
1.600501
0.000000
0.000000
0.894284
0.340314
0.000000
0.972270
0.000000
0.000000
0.831342
0.000000
0.000000
0.824210
0.000000
0.329243
0.000000
0.057140
0.182203
0.726496
0.940969
0.000000
0.202895
0.305194
0.000000
0.856353
0.327154
0.000000
1.348580
0.000000
0.022516
0.365442
1.294969
0.000000
0.000000
0.000000
0.000000
0.000000
0.000000
0.492060
0.322775
0.558695
0.374695
0.126591
0.110818
0.000000
0.000000
0.569243
0.000000
0.000000
0.000000
0.291301
0.140094
0.000000
0.000000
0.030481
0.000000
0.000000
0.000000
1.117146
0.000000
0.000000
0.000000
0.637868
0.000000
0.000000
0.400125
0.000000
0.000000
0.000000
0.223200
0.379511
1.423045
0.000000
0.000000
0.322716
0.000000
0.000000
1.539223
0.389247
0.000000
0.000000
0.022944
0.000000
0.307655
1.305979
0.470243
1.037469
0.000000
0.150794
0.571781
1.122202
0.000000
0.000000
0.000000
0.000000
0.000000
0.984706
0.355743
0.000000
0.000000
0.000000
0.827090
0.246845
1.343877
0.464827
0.000000
0.000000
0.449451
0.352126
0.000000
0.399155
0.000000
0.099118
0.480716
0.000000
0.941815
0.501486
