0.440775
0.588565
0.739688
0.000000
0.000000
0.000000
0.351201
0.357580
0.215966
0.000000
1.679107
0.000000
0.000000
0.946304
0.568262
0.000000
0.255958
0.000000
0.150970
0.046577
0.000000
0.000000
0.412313
0.000000
0.000000
0.978099
0.175189
0.746225
0.171341
0.000000
0.095408
0.000000
0.000000
0.000000
0.000000
0.004446
0.000000
0.000000
0.025577
0.000000
0.000000
1.208756
0.000000
0.000000
0.195980
0.000000
0.000000
0.000000
0.000000
0.210163
0.000000
0.000000
0.000000
0.000000
0.000000
1.365675
0.131913
0.429723
0.435656
1.113525
0.000000
2.344686
0.000000
0.333589
0.000000
0.000000
0.000000
0.000000
0.314388
0.219599
0.635546
0.000000
0.000000
0.326085
0.270899
0.078872
0.000000
0.000000
0.000000
0.000000
0.000000
0.000000
0.000000
0.000000
1.131988
0.000000
0.827901
0.375995
0.672731
0.492241
0.000000
0.264954
0.445412
0.603449
0.000000
0.000000
0.000000
0.816080
0.000000
0.148265
0.000000
0.000000
0.391173
0.000000
1.210956
0.000000
0.240303
0.000000
1.582949
1.077003
0.230975
1.411084
0.000000
0.000000
0.000000
0.000000
0.330327
0.000000
1.240646
0.000000
0.000000
0.000000
0.847058
0.000000
0.000000
0.000000
0.000000
0.000000
0.353127
0.542569
0.229553
0.478057
0.000000
0.532243
0.000000
0.172238
0.216571
0.000000
2.032971
0.000000
0.000000
0.000000
1.010570
0.000000
0.000000
0.000000
0.000000
0.000000
0.139735
0.152990
0.525353
0.000000
0.000000
0.658456
0.502400
1.292412
1.144701
0.446836
0.000000
0.000000
0.000000
0.175589
0.000000
0.000000
0.000000
1.136150
0.000000
0.616973
0.000000
0.311840
0.000000
0.000000
0.000000
0.340741
0.000000
0.000000
0.044392
1.141623
0.000000
0.000000
0.471447
0.000000
0.000000
0.000000
0.349601
0.000000
0.521438
0.776091
0.906582
0.000000
1.211871
0.193919
0.874281
0.446364
0.207977
0.000000
0.159825
0.420237
0.743174
0.000000
0.704181
0.000000
0.000000
0.678466
1.333389
1.080712
0.662544
0.161292
2.528179
0.000000
0.000000
0.000000
0.000000
1.924458
0.000000
1.053223
0.098748
0.131429
0.000000
0.250138
1.202400
0.000000
0.000000
1.060945
0.000000
1.061254
0.918605
2.308334
0.000000
0.000000
1.180092
0.274358
0.000000
0.000000
0.030711
0.000000
0.826050
0.031184
0.603807
0.029075
1.242366
0.000000
0.173318
1.703915
0.000000
0.389307
0.000000
0.165808
0.742598
0.000000
0.288443
0.295756
0.000000
0.000000
1.368898
0.000000
0.090207
0.000000
0.000000
0.000000
0.484159
0.133378
0.000000
0.379599
0.000000
0.000000
0.000000
0.000000
0.094959
1.339962
0.000000
0.183947
0.000000
0.000000
1.244204
0.467808
0.182506
1.872372
0.142160
0.000000
0.000000
0.000000
0.111372
0.000000
0.813676
0.122524
0.164890
0.000000
1.588519
1.778259
0.000000
0.000000
0.264860
0.000000
0.490069
0.000000
0.012483
0.000000
0.000000
0.000000
0.457140
0.000000
0.000000
0.000000
0.457513
0.000000
0.042259
0.751517
0.389966
0.415366
0.007129
0.740557
0.162150
0.167816
0.000000
0.000000
0.226423
0.000000
0.077122
0.609461
0.160193
0.000000
2.396130
0.000000
0.000000
0.000000
0.000000
0.119390
0.000000
0.428093
0.000000
0.000000
0.599699
0.000000
0.074599
0.379191
0.241401
0.400312
0.000000
0.743336
0.000000
0.000000
0.000000
0.000000
0.000000
0.379794
0.000000
0.000000
1.348152
0.217391
0.744548
0.435278
0.000000
1.667595
0.000000
0.000000
0.464961
2.004322
0.087878
0.000000
0.185270
0.188754
0.735173
1.429309
1.554439
0.139206
0.505550
0.677808
0.000000
0.000000
0.000000
0.389648
0.000000
0.710655
0.000000
0.000000
0.103138
0.493901
0.926974
0.000000
0.260215
0.000000
0.050997
0.000000
0.026340
0.278242
0.543706
0.096564
1.605914
0.623586
0.250640
0.000000
0.840214
2.580454
0.000000
0.000000
0.000000
0.000000
0.000000
1.187100
0.502455
1.501473
0.000000
0.212648
0.000000
0.527284
0.930394
0.000000
1.344520
1.656549
0.000000
0.000000
0.847745
0.066744
2.072658
0.000000
0.000000
0.000000
0.767909
0.303276
0.167068
0.131269
0.004163
0.000000
0.633141
0.000000
1.333062
0.425646
0.630157
0.271619
0.938754
0.716974
2.164388
0.616075
0.053297
0.000000
0.079670
0.148845
0.000000
0.000000
0.000000
0.000000
0.516364
0.000000
0.408934
0.000000
0.000000
0.000000
0.000000
0.158901
0.000000
0.369198
0.797281
0.000000
1.341886
0.135164
0.042081
0.071252
0.000000
0.000000
0.000000
1.379842
0.808114
0.000000
0.276641
0.743249
0.501755
0.000000
0.098464
0.541530
0.000000
0.000000
0.110262
0.799544
0.000000
0.000000
0.336038
0.100805
0.000000
0.000000
0.000000
0.000000
0.000000
0.066769
0.617886
0.000000
0.000000
0.000000
0.000000
0.000000
0.000000
0.000000
0.000000
0.424221
0.422340
2.061501
0.000000
0.877529
0.115690
0.705331
