0.000000
0.000000
0.915032
0.000000
0.301575
0.137099
0.492593
0.000000
0.210785
0.985068
0.000000
0.000000
0.000000
0.000000
0.508236
0.543455
0.145533
0.441908
0.129003
0.420298
0.000000
0.435402
0.000000
0.000509
0.000000
0.000000
0.000000
0.144358
0.162876
0.000000
0.000000
0.507398
0.226379
0.447383
0.635204
1.318159
0.099424
0.000000
1.981645
0.000000
0.000000
0.262879
0.977041
0.000000
0.000000
0.287665
0.000000
0.000000
0.215265
0.753789
0.000000
0.969656
1.428562
0.249676
0.000000
0.000000
0.000000
0.000000
0.000000
0.000000
0.000000
0.451289
0.000000
0.000000
0.000000
0.232040
0.000000
0.000000
0.092262
0.000000
0.000000
0.405460
0.164238
0.000000
0.303088
1.035786
0.339824
1.120659
0.000000
0.000000
0.381989
0.758618
0.000000
0.000000
0.865375
0.103777
0.000000
0.289214
0.000000
0.000000
0.000000
0.000000
0.000000
0.000000
0.000000
0.162321
0.194704
0.252461
0.056393
0.170332
0.000000
0.294264
0.702748
0.251210
0.132016
0.000000
0.060741
0.362888
1.346063
0.000000
0.402351
0.106316
0.429012
0.000000
0.000000
0.000000
0.000000
1.693069
0.157026
0.000000
0.000000
0.000000
0.000000
0.000000
0.000000
0.000000
0.097481
0.000000
0.299320
0.000000
0.677550
0.669686
0.000000
0.624368
0.985221
0.158789
0.460394
0.000000
1.697214
0.427065
0.000000
0.000000
0.804396
0.000000
0.198128
0.000000
0.055170
0.651991
0.143614
0.000000
0.000000
0.875695
0.408759
0.208384
0.000000
0.761223
0.000000
2.867322
0.702400
0.155831
0.000000
0.378700
0.369397
0.858663
0.196782
0.000000
0.525182
0.000000
0.000000
0.000000
0.599071
0.000000
0.000000
0.205729
0.181259
1.484545
0.000000
0.000000
0.183269
0.000000
0.916944
0.000000
0.539904
0.000000
0.898636
0.000000
0.335036
0.000000
1.055680
0.941625
0.000000
0.000000
0.000000
0.000000
0.321806
0.000000
1.024743
0.093454
0.686392
0.000000
0.055087
0.000000
0.000000
0.000000
1.549275
0.000000
0.000000
0.000000
1.770677
0.000000
0.076611
0.000000
0.000000
0.295783
0.646064
0.165740
0.066072
0.571774
0.281292
0.000000
0.000000
1.811617
0.000000
0.000000
0.000000
0.616372
0.000000
1.278630
0.000000
0.000000
1.091936
0.630364
0.000000
0.154218
0.000000
0.000000
0.486685
0.771580
0.231820
0.000000
0.000000
0.277549
0.000000
0.582863
0.000000
0.000000
0.000000
0.000000
0.722508
0.000000
0.656896
1.172871
0.271256
0.000000
1.386328
0.430694
0.392345
0.000000
0.000000
0.000000
1.880543
0.711437
0.000000
0.000000
0.082021
0.427083
0.651997
0.763432
0.992800
1.431762
0.000000
0.453277
0.000000
0.000000
0.000000
0.542760
0.016374
0.000000
0.783672
0.000000
0.000000
0.000000
1.030257
0.334758
1.734292
0.000000
1.585061
0.000000
1.905387
1.064644
0.429625
0.000000
0.323042
0.018141
0.007549
0.270331
0.000000
0.000000
0.000000
0.000000
0.591103
0.064567
0.215095
0.000000
0.507560
0.272657
0.000000
0.461835
0.194981
0.549704
0.744598
0.468458
0.000000
0.000000
1.849742
1.138153
0.148743
0.000000
0.309437
0.731707
0.000000
0.000000
0.017253
0.355606
0.101967
0.000000
0.326975
0.000000
0.183945
0.000000
0.000000
0.391423
0.770820
0.078194
0.272549
0.000000
0.131838
0.000000
0.000000
0.380333
0.000000
0.000000
0.000000
0.181841
0.000000
0.000000
0.000000
0.388265
0.905750
0.000000
0.354033
0.000000
0.000000
0.255315
0.000000
0.211104
0.000000
0.557274
0.000000
1.109474
0.000000
0.000000
0.394685
0.306344
1.167429
0.000000
2.145504
0.000000
0.000000
0.817025
0.126820
0.898743
0.000000
0.197371
0.000000
0.000000
0.000000
0.256816
0.000000
1.250216
0.107790
0.000000
0.000000
0.877103
0.000000
1.194688
0.434578
0.000000
0.378075
0.058253
1.122505
0.000000
0.795458
1.827721
0.000000
0.000000
0.117193
0.090365
0.000000
0.296253
0.000000
0.524056
0.000000
0.000000
0.000000
0.065646
2.685677
0.703809
0.000000
0.000000
0.207213
0.000000
1.584270
0.124093
0.591149
0.488474
1.201891
0.218468
0.489564
0.273498
0.000000
0.000000
0.000000
0.152409
0.000000
0.000000
0.448848
0.350845
1.327298
0.000000
0.000000
0.000000
0.000000
1.121188
0.000000
0.000000
0.251694
0.000000
0.000000
0.841935
0.000000
0.000000
0.752910
0.662675
0.000000
0.000000
0.028933
0.101680
0.000000
0.423235
1.654051
0.453490
0.410187
0.000000
0.737868
0.000000
0.523623
0.000000
0.000000
0.000000
0.000000
0.108516
1.157748
0.002909
0.000000
0.000000
0.280540
0.000000
0.000000
0.000000
0.002217
0.000000
0.000000
0.837261
0.540463
0.236043
0.000000
0.000000
0.077898
0.000000
0.219474
0.128060
0.000000
0.000000
0.000000
0.883259
0.791623
0.000000
0.381213
0.549551
0.001650
0.352745
0.000000
0.166754
0.149098
0.000000
0.499346
1.801801
0.844702
0.000000
