0.000000
2.331162
0.000000
0.678139
0.286955
0.000000
0.000000
0.233996
0.000000
0.000000
2.085093
0.426933
0.000000
0.772314
0.419344
0.000000
1.451321
0.000000
0.000000
0.000000
0.214419
0.000000
1.479096
0.620526
0.074488
0.466730
1.752054
0.662140
0.000000
0.000000
0.808507
0.187177
1.097468
0.000000
0.000000
0.000000
0.000000
0.000000
0.000000
0.000000
0.134180
2.628510
0.000000
0.000000
0.683803
0.000000
0.074472
0.178713
0.000000
0.000000
0.000000
0.000000
0.000000
0.000000
0.000000
2.195361
0.378112
0.000000
0.000000
0.682789
0.000000
4.367997
0.422208
2.362436
0.000000
0.000000
0.000000
0.798284
0.000000
0.000000
0.000000
0.000000
0.000000
0.563838
0.563572
0.821071
0.000000
0.000000
0.001983
0.000000
0.000000
0.000000
0.441650
0.000000
0.496410
0.000000
0.000000
0.000000
2.374699
0.167405
0.000000
0.585073
1.282062
0.000000
0.000000
0.445354
0.000000
0.180578
0.000000
0.045507
0.280056
0.000000
1.672995
0.000000
0.605607
0.179584
0.000000
0.342658
0.141214
0.000000
0.000000
1.777062
0.000000
0.286678
0.000000
0.650899
0.730046
0.000000
0.321442
0.053329
0.000000
0.000000
0.573450
0.818983
0.669906
0.188574
0.209292
0.167161
0.000000
0.563795
0.247368
0.000000
0.303257
0.335521
0.000000
0.000000
0.049536
0.378372
1.739615
0.000000
0.000000
0.023049
0.000000
1.654032
0.000000
0.342808
0.000000
0.535184
0.212197
0.000000
0.254479
0.000000
0.687842
1.774159
0.000000
0.885572
0.000000
0.000000
0.000000
0.278952
1.074476
0.272901
0.184381
0.000000
0.000000
2.819556
0.000000
0.430093
0.000000
0.857763
0.000000
0.194085
0.000000
0.858982
2.294992
0.000000
0.340691
2.701424
0.000000
0.283826
0.134520
0.116908
0.000000
0.000000
0.000000
0.086479
0.076809
1.058852
0.721150
0.337258
0.414639
0.241346
0.000000
0.000000
0.000000
0.005588
0.000000
0.295189
0.000000
0.000000
0.488032
0.576369
0.273374
0.990677
0.000000
2.421895
2.435923
0.000000
1.261449
0.000000
0.000000
0.000000
0.000000
1.337761
0.000000
0.000000
0.264919
0.000000
0.714188
0.236510
0.000000
0.000000
0.000000
1.639025
1.567258
0.113334
2.458431
0.711042
0.000000
0.000000
0.126883
0.000000
0.000000
0.039221
0.364566
0.634312
0.000000
0.000000
1.587314
1.258120
0.971280
1.881740
1.052966
1.104272
0.000000
0.689375
0.000000
0.000000
0.141058
0.000000
0.658099
0.000000
0.000000
0.000000
0.355470
0.000000
0.000000
0.909550
0.294332
0.005256
0.000000
0.000000
0.476206
0.411917
0.223438
0.000000
0.000000
0.609206
0.000000
1.148668
0.037097
0.000000
0.269180
0.000000
0.318557
0.735504
0.156331
1.263095
0.000000
0.000000
0.000000
0.000000
0.129917
0.000000
0.000000
0.784247
0.091020
0.000000
0.490345
1.647590
0.182139
0.784287
0.635187
0.098921
0.971764
0.000000
0.316220
0.311162
0.702881
0.000000
0.000000
0.308114
0.000000
0.560304
1.079109
0.192899
0.000000
0.340821
0.362231
0.360834
1.609705
0.000000
0.352240
0.208779
0.000000
0.000000
0.000000
0.550418
0.202323
0.620292
0.613981
0.000000
1.277529
0.000000
0.000000
0.148078
0.000000
0.565397
0.000000
0.495396
0.000000
0.000000
0.000000
0.000000
0.000000
0.347792
0.629361
0.099554
0.642772
0.000000
0.000000
0.000000
0.730085
0.000000
0.000000
0.000000
0.341537
0.760441
0.000000
0.457445
1.422867
1.610187
1.250517
0.000000
0.000000
0.000000
0.091317
2.037227
0.027303
1.228909
0.000000
0.991550
0.000000
0.807933
0.341830
0.517352
2.011928
0.737347
0.000000
0.000000
0.000000
0.000000
0.396000
1.862531
0.167233
0.000000
0.220297
0.000000
1.351904
0.000000
1.024285
0.000000
0.000000
0.000000
0.000000
0.000000
1.298503
0.000000
0.000000
0.665148
0.000000
0.000000
0.393129
0.000000
0.000000
0.970420
0.282620
0.000000
0.000000
0.000000
1.041472
3.181641
0.412959
1.528111
1.040018
0.000000
0.000000
0.000000
0.386722
1.928916
1.959454
0.000000
0.197109
0.073468
2.310865
0.000000
0.019943
0.000000
0.126467
0.748868
0.000000
0.089283
0.000000
0.551181
0.000000
0.000000
1.304223
0.000000
0.000000
0.004094
0.000000
1.895460
0.202275
0.000000
0.000000
0.000000
0.033298
0.000000
0.377612
0.000000
0.663435
0.000000
0.000000
0.000000
0.000000
0.941474
0.000000
0.000000
0.000000
0.303138
0.000000
0.000000
0.000000
0.000000
2.210726
1.103104
0.000000
0.027123
0.000000
0.000000
0.679156
2.203648
0.000000
0.305557
0.735691
0.000000
0.478310
1.431949
0.623484
0.754896
0.000000
0.531470
0.070719
2.026586
0.000000
0.000000
0.000000
1.036204
0.000000
0.018960
0.415585
0.000000
0.000000
0.366764
1.107629
0.167184
0.562793
0.000000
1.042273
0.000000
0.887877
0.000000
0.000000
0.243806
0.141504
0.475484
0.000000
0.000000
0.035239
0.998052
