0.253659
0.081638
0.000000
0.000000
0.000000
0.000000
0.000000
0.000000
0.000000
0.000000
0.133233
0.413781
0.000000
0.000000
0.508496
0.000000
0.000000
0.000000
0.000000
0.000000
0.000000
0.000000
0.299178
0.000000
0.086217
0.000000
0.000000
0.527896
0.542021
0.000000
0.286321
0.464870
0.976342
0.000000
0.000000
0.453617
0.184591
0.000000
0.000000
0.000000
0.000000
1.167980
0.000000
0.000000
0.000000
0.000000
0.227160
0.000000
0.000000
0.000000
0.009295
0.000000
0.073392
0.000000
0.000000
0.887428
0.000000
0.000000
0.000000
0.143393
0.000000
0.281360
0.000000
0.189728
0.526044
0.000000
0.000000
0.000000
0.000000
0.980093
0.000000
0.019148
0.008216
0.230716
0.048218
0.459715
0.000000
0.573612
0.130942
0.397351
0.000000
0.000000
0.000000
0.000000
0.000000
0.042605
0.000000
1.035091
0.180349
0.535312
0.000000
0.000000
0.067294
0.141871
0.000000
0.477706
0.000000
0.000000
0.000000
0.532901
0.000000
0.220034
0.953460
0.203114
0.000000
0.000000
0.322513
0.000000
0.514568
0.899831
0.004561
0.000000
0.000000
0.150164
0.000000
0.516012
0.000000
0.000000
1.176486
0.000000
0.242067
0.276401
0.599419
0.000000
0.099371
0.000000
0.698762
0.610114
0.497759
0.000000
0.000000
0.000000
0.000000
0.000000
0.000000
0.000000
1.315336
0.000000
1.482602
0.000000
0.000000
0.000000
1.043231
0.000000
0.475295
0.000000
0.000000
0.000000
0.287740
0.972360
0.000000
0.000000
0.000000
1.091354
0.044712
0.494066
0.408717
0.000000
0.000000
0.000000
0.000000
0.000000
1.250294
1.382876
0.612511
0.000000
0.000000
0.489964
0.752672
0.000000
0.233995
0.561001
0.000000
0.000000
0.000000
0.430036
0.000000
0.446635
0.121783
0.034112
0.750078
0.222140
0.000000
0.000000
1.017821
0.000000
0.000000
0.122789
1.992786
0.069118
0.000000
0.780057
0.125982
0.582399
0.000000
0.000000
0.000000
0.844615
1.237206
0.000000
0.000000
0.071701
0.111131
0.000000
0.162988
0.712129
0.344128
0.000000
1.848871
0.096189
0.000000
0.000000
0.000000
0.000000
0.000000
0.000000
0.083939
0.000000
0.000000
0.000000
2.305265
0.000000
0.000000
0.000000
0.000000
0.057902
0.405748
0.000000
0.000000
0.000000
0.787722
0.000000
0.000000
1.700144
0.505164
0.000000
0.756094
0.000000
0.324867
0.147500
1.125448
0.000000
0.000000
0.043243
0.281663
0.000000
0.121268
0.509793
0.743161
0.000000
0.243586
0.422598
0.000000
0.000000
0.000000
0.000000
0.590176
0.000000
0.000000
0.110700
0.214815
0.533081
0.980258
0.000000
0.000000
0.000000
0.000000
0.455929
0.000000
1.525052
0.000000
0.183176
0.000000
0.162863
0.421476
0.361139
0.000000
0.000000
0.222877
0.200117
0.000000
0.000000
1.400459
0.454362
0.127305
0.000000
1.259226
0.000000
0.300225
0.000000
0.000000
0.234606
0.328362
0.365193
0.000000
0.000000
0.000000
0.000000
0.360568
0.000000
0.724063
0.000000
0.000000
0.000000
0.012290
0.000000
0.820362
0.352644
0.000000
0.000000
0.434066
1.410796
0.214082
0.711633
0.000000
0.000000
0.303528
0.299648
0.365415
0.187811
0.077003
0.000000
0.000000
1.103466
0.000000
0.000000
0.000000
0.529495
0.000000
0.169932
0.000000
0.000000
0.121668
0.571113
0.000000
0.000000
0.000000
1.518706
0.312899
0.249973
0.237576
0.000000
0.000000
0.000000
0.023835
0.000000
0.000000
0.000000
1.697800
0.897640
0.000000
0.090375
0.000000
0.914905
0.048324
0.000000
0.000000
0.023464
0.000000
0.000000
0.611609
0.667002
0.830977
1.726187
1.771760
0.000000
0.000000
0.858737
1.168010
0.000000
0.214436
0.079589
0.000000
0.211794
0.000000
0.271287
0.578099
0.212835
0.132956
0.000000
0.880502
0.000000
0.000000
1.119126
0.540436
0.000000
1.385595
0.730809
0.033948
1.503904
0.000000
0.000000
0.217496
2.291195
0.000000
1.005115
0.000000
0.000000
0.000000
1.310371
0.643867
0.000000
0.000000
0.063103
0.000000
0.000000
0.773912
0.000000
0.133772
0.000000
0.461292
0.233399
0.215947
0.000000
0.940028
0.003678
0.000000
0.000000
0.000000
0.000000
0.475661
0.006650
0.856516
0.000000
0.000000
0.000000
0.030119
0.405173
0.000000
0.000000
0.338992
0.018121
0.001807
0.780959
0.151221
0.000000
0.000000
0.456709
0.034852
0.000000
0.134313
0.000000
0.508544
0.000000
0.608899
0.000000
0.107510
0.276938
0.000000
0.000000
0.000000
0.000000
0.000000
0.000000
1.988901
1.259261
0.020963
0.323629
0.000000
0.000000
0.652439
0.000000
0.354815
0.738232
2.010384
2.526839
0.164976
0.225357
0.473430
0.000000
0.000000
0.218781
1.401385
1.507108
0.000000
0.683273
0.000000
0.702746
0.000000
0.000000
0.000000
0.000000
0.000000
0.330367
0.479702
0.000000
0.000000
0.371455
0.000000
0.632784
0.000000
0.480761
0.000000
0.000000
1.491071
0.028989
0.553714
0.000000
0.810951
0.000000
