0.137293
0.435454
0.025657
0.000000
0.000000
0.000000
0.033997
0.000000
0.000000
0.000000
1.147799
0.000000
0.000000
0.219480
0.000000
0.000000
0.359169
0.000000
0.016683
0.000000
0.000000
0.000000
0.216978
0.477983
0.051292
0.031789
1.967559
0.000000
0.430377
0.000000
0.485197
0.891009
0.775314
0.000000
0.023850
0.000000
0.000000
0.949956
0.685620
0.000000
0.951664
0.682101
0.807675
0.000000
0.000000
0.000000
0.000000
0.470177
0.000000
0.015127
0.596391
0.000000
0.368317
0.428432
0.000000
0.893010
0.000000
0.248626
1.774160
0.539657
0.904002
0.629658
0.603302
0.000000
0.000000
0.018048
0.000000
0.000000
0.363059
0.808325
0.498454
0.000000
0.000000
0.758243
0.343954
0.660981
0.127374
1.056105
0.000000
0.316272
1.237146
0.000000
0.000000
0.000000
0.226086
0.000000
0.805149
1.832398
0.000000
0.131252
0.000000
0.000000
0.184189
0.604621
1.578225
0.726182
0.000000
0.233002
0.000000
0.032414
0.000000
0.000000
0.778917
0.397841
0.054905
0.000000
0.000000
0.346511
0.117972
0.852033
0.000000
0.310757
0.000000
0.000000
0.000000
0.598300
0.000000
0.000000
0.000000
0.000000
0.000000
0.000000
0.000000
0.187467
0.000000
0.056696
0.000000
0.000000
0.000000
0.000000
0.000000
0.000000
0.983470
0.220266
0.000000
0.649583
0.380776
0.666822
0.773876
0.213420
0.000000
0.000000
0.000000
0.000000
0.000000
0.000000
0.000000
1.138817
0.000000
0.000000
0.046660
0.000000
1.063102
0.000000
0.000000
0.857969
0.904522
0.000000
0.000000
0.657620
0.000000
0.127023
0.340953
0.000000
0.000000
0.000000
0.681030
0.000000
0.000000
0.310799
0.053224
0.000000
1.017713
0.000000
0.000000
0.000000
0.154218
0.000000
0.000000
0.000000
0.372635
0.000000
0.000000
0.000000
0.368529
0.000000
0.000000
0.243849
0.360490
0.357794
0.636607
1.727280
0.000000
0.502742
0.050913
0.000000
0.000000
0.109495
0.000000
0.000000
0.000000
0.186589
0.434678
0.450612
0.752401
0.926369
0.000000
0.300693
0.000000
0.023969
0.000000
0.000000
0.000000
1.357076
0.000000
0.000000
0.075722
0.000000
0.000000
0.196524
0.000000
0.000000
0.000000
0.323078
0.000000
0.042176
0.126709
1.011311
0.131546
0.000000
0.239078
0.000000
0.000000
0.000000
1.137422
0.000000
0.047602
0.000000
0.000000
0.000000
1.052463
2.033743
0.189889
0.109396
0.381878
0.382256
0.000000
0.000000
0.170406
0.000000
1.445860
0.000000
0.445268
0.000000
0.632743
0.408261
0.000000
1.148985
0.096891
0.438246
0.341103
0.000000
0.088972
0.471972
0.694355
0.000000
0.000000
0.569118
0.000000
0.000000
0.239211
0.094539
0.000000
0.000000
0.012596
0.072068
0.603152
0.225724
0.000000
0.000000
0.241166
0.000000
0.000000
0.172193
1.026063
0.584550
0.000000
0.712189
0.970135
1.222825
0.226447
0.160301
0.117702
0.190898
0.000000
0.000000
1.098705
0.279683
0.000000
0.365747
0.489990
0.044059
0.717171
0.076939
0.631170
0.000000
0.362908
0.085547
0.019650
0.000000
0.853873
0.000000
0.015509
0.000000
0.494972
0.000000
0.000000
0.000000
0.000000
0.296322
0.000000
0.000000
0.388997
0.000000
0.321384
0.000000
0.016836
0.000000
0.000000
0.000000
0.000000
0.000000
0.324349
0.000000
0.690103
0.907676
0.229982
0.000000
1.027090
0.275255
0.000000
0.000000
0.010430
0.000000
0.000000
0.000000
0.000000
0.000000
0.000000
0.000000
0.986649
0.279357
0.370694
0.496184
0.000000
0.000000
0.894964
0.841867
0.000000
0.634226
0.123512
0.000000
0.000000
0.311829
0.275331
0.032287
0.000000
0.216151
0.403371
0.499978
0.000000
0.466371
0.424435
0.378439
0.000000
0.025997
0.908928
0.065068
0.000000
0.000000
0.000000
0.000000
0.000000
0.476002
0.000000
0.000000
0.269145
0.197491
0.790125
0.448553
0.000000
0.174615
0.000000
0.066228
0.000000
0.000000
0.000000
0.000000
0.000000
0.294155
0.000000
2.013719
0.000000
0.000000
0.051266
0.277377
0.000000
0.080976
0.391589
0.923543
0.380842
0.820491
0.200523
0.000000
0.511706
0.000000
0.000000
1.204534
0.000000
0.284769
0.000000
0.282776
0.206563
0.319917
0.000000
0.778201
0.521776
0.501581
0.000000
0.685437
0.000000
0.000000
0.000000
0.000000
0.000000
0.000000
0.274233
0.000000
0.000000
0.000000
0.171919
0.542207
0.000000
0.808949
0.383481
0.000000
0.000000
0.492380
0.000000
0.659345
0.000000
0.000000
0.038775
0.501302
0.718425
2.084023
0.002341
0.165317
0.359092
0.000000
0.379319
0.873928
0.000000
0.000000
0.583563
0.000000
0.000000
0.000000
0.160522
0.000000
0.073744
0.502821
0.000000
0.618400
0.000000
0.327146
0.000000
0.000000
0.000000
0.000000
0.000000
0.000000
0.000000
0.395671
0.000000
0.000000
0.939382
0.039954
0.555699
0.000000
0.000000
0.000000
0.000000
0.045512
0.736897
0.702185
0.036926
0.000000
0.000000
0.000000
