0.000000
0.904513
0.000000
0.295778
0.000000
0.080703
0.313947
0.361885
0.582821
0.000000
0.000000
0.000000
0.183176
0.000000
0.183599
0.000000
0.332955
0.000000
0.000000
0.000000
0.422306
0.171226
0.000000
0.072695
0.232270
0.000000
0.000000
0.038491
1.008147
0.000000
0.000000
0.114686
0.637019
0.000000
0.049501
0.000000
0.000000
0.000000
1.504175
0.136697
0.000000
0.187113
0.223997
0.289037
0.000000
0.136144
0.669942
0.927015
0.085209
0.205578
0.669728
0.000000
1.101308
0.049757
0.000000
0.176524
0.517077
0.000000
0.000000
0.187977
0.000000
0.438141
0.000000
0.310583
0.123693
0.000000
0.000000
0.154180
0.000000
0.303072
0.290214
0.511236
0.000000
0.000000
0.369220
0.194823
0.018651
0.000000
0.000000
0.000000
0.000000
0.280177
0.000000
0.677564
0.422627
0.048033
0.436974
0.319637
0.000000
0.000000
0.007213
0.281835
0.597868
0.236340
0.000000
0.000000
0.003671
0.159332
0.000000
0.112842
0.165462
0.075539
0.000000
0.000000
0.021865
0.000000
0.521448
0.100099
0.000000
0.255538
0.280035
0.628186
0.000000
0.131749
0.351780
0.102899
0.026352
1.146265
0.000000
0.000000
0.119429
0.105602
0.600842
1.108550
0.928322
0.393719
0.000000
0.000000
0.105619
0.180254
0.139923
0.848903
0.000000
0.423702
0.278077
0.000000
0.692008
0.068071
0.684648
0.000000
0.000000
0.000000
0.326853
0.000000
0.000000
0.460351
0.358865
0.601218
0.276609
0.457783
0.000000
0.396296
0.000000
0.000000
0.241143
0.156365
0.646834
0.000000
0.128604
0.710699
0.000000
0.000000
0.123879
0.354748
0.105962
0.140231
0.404401
0.000000
0.767614
0.437908
0.098596
0.498174
0.000000
0.000000
0.000000
0.659229
0.000000
0.000000
0.000000
0.000000
0.152358
0.000000
0.521573
0.000000
0.000000
0.304214
0.000000
0.248758
0.000000
0.494604
0.000000
0.076883
0.297523
0.000000
0.000000
0.358777
0.168850
0.238708
0.252170
0.000000
0.000000
0.000000
0.871965
0.669099
0.420424
0.820053
0.000000
0.587090
0.000000
0.000000
0.000000
0.000000
0.000000
0.533536
0.000000
0.799246
0.264423
0.000000
0.000000
0.152867
0.731711
0.781028
0.000000
0.020653
0.502332
0.113223
0.826802
0.367012
0.507267
0.518355
0.000000
1.170413
0.000000
0.781953
0.029025
0.409935
0.026675
0.000000
0.051959
0.000000
0.000000
0.000000
0.211052
0.138915
0.137600
0.356382
0.151494
0.000000
0.204271
0.176495
0.000000
0.000000
0.799374
0.000000
0.260124
0.331473
0.054898
0.000000
0.142878
0.161984
0.829452
0.000000
0.372451
0.000000
0.000000
0.094847
0.000000
0.417055
0.000000
0.000000
0.242794
0.000000
0.000000
0.000000
0.000000
0.135550
0.000000
0.000000
1.169972
0.000000
0.000000
0.000000
0.685489
0.903496
0.886965
0.000000
0.279258
0.000000
0.913735
0.000000
0.000000
0.060495
0.000000
0.000000
0.000000
0.000000
0.000000
0.000000
0.000000
0.295463
0.083514
0.000000
0.463719
0.368649
0.079010
0.092151
0.414506
0.309888
0.388245
0.000000
0.000000
0.555240
0.439858
0.000000
0.271715
0.014073
0.132535
0.166948
0.758012
0.298279
0.000000
0.000000
0.177001
0.000000
0.334688
0.000000
0.304328
0.000000
0.000000
0.510805
0.000000
0.000000
0.263318
0.160429
0.206625
0.350133
0.000000
0.000000
0.000000
0.000000
0.000000
0.000000
0.000000
0.229080
0.000000
0.000000
0.181709
0.000000
0.349379
0.161784
0.000000
0.000000
0.722927
0.000000
0.000000
0.196898
0.089774
0.101989
0.000000
0.000000
0.284958
0.000000
0.000000
0.724702
0.300773
0.000000
0.198483
0.118325
0.104733
0.210308
0.578744
0.000000
0.000000
0.000000
0.454944
0.005429
0.721695
0.000000
0.000000
0.488340
0.746690
0.000000
0.069562
0.000000
0.000000
1.175225
0.191823
0.425659
0.000000
0.882450
0.000000
0.000000
0.866130
0.143968
0.130083
0.246755
0.000000
0.300308
0.000000
0.294508
0.076980
0.000000
0.138238
0.000000
0.000000
0.436084
1.147061
0.566420
0.052433
0.000000
0.809340
0.000000
0.000000
0.169502
0.268166
0.000000
0.000000
0.000000
0.000000
0.298993
0.081952
0.453389
0.484407
0.521111
0.139908
0.100960
0.000000
0.537962
0.000000
0.000000
0.455239
0.000000
0.000000
0.000000
0.008312
0.000000
0.000000
0.229259
0.000000
0.182705
0.000000
0.400479
0.000000
0.235383
0.325388
0.256308
0.000000
0.000000
0.313310
0.000000
0.000000
0.133906
0.884036
0.391553
0.985953
0.000000
0.037781
0.000000
0.000000
0.136414
0.480678
0.079819
0.000000
0.000000
0.487358
0.000000
0.376145
0.619644
0.329302
0.148117
0.010488
0.000000
0.702968
0.673755
0.070180
0.000000
0.513460
0.000000
0.000000
0.495283
0.000000
0.000000
0.000000
0.000000
0.963477
0.206828
0.000000
0.531388
0.265193
0.179469
0.000000
0.000000
0.000042
0.000000
0.000000
0.000000
0.374393
0.242791
0.443049
0.000000
