0.000086
0.505166
0.535432
0.000000
1.646135
1.948350
0.483032
0.000000
0.072391
0.549948
0.000000
1.011524
0.934694
0.000000
0.000000
0.099030
0.807656
0.596269
0.467829
0.436419
0.000000
1.205204
0.000000
0.000000
0.000000
0.000000
0.000000
0.000000
0.000000
0.099840
0.042986
0.234766
0.123907
0.511885
0.930482
0.746051
0.145402
0.000000
1.170236
0.067725
0.000000
0.000000
0.737091
1.538690
0.000000
0.027379
0.000000
0.768775
0.915594
0.000000
0.000000
0.080210
0.675172
0.000000
0.131289
0.000000
0.000000
0.000000
0.000000
0.000000
0.000000
0.261459
0.000000
0.000000
0.007455
0.213484
0.000000
0.000000
0.000000
0.000000
0.000000
1.940852
0.000000
0.000000
0.141014
0.719115
1.241318
0.000000
0.000000
0.000000
0.455035
0.280898
0.040094
0.338829
0.000000
0.821743
0.000000
0.472919
0.000000
0.582955
0.002259
0.400958
0.232676
0.000000
0.000000
0.000000
0.090870
0.000000
0.390814
0.298749
0.000000
0.487055
0.000000
0.000000
0.041983
0.652071
0.159299
0.000000
0.000000
0.000000
0.316497
0.000000
1.293296
0.000000
1.972046
0.000000
0.000000
1.279046
1.281981
0.000000
0.000000
1.004503
0.000000
0.029973
1.069571
0.556958
0.000000
0.042845
1.231134
0.000000
0.073726
0.536118
0.000000
0.000000
2.016226
0.000000
0.000000
0.000000
1.831075
1.248003
0.301083
0.000000
0.264845
0.000000
0.468078
0.574595
0.688546
0.501698
0.190575
0.000000
0.000000
0.240341
0.000000
0.000000
0.089084
0.000000
0.000000
1.442620
0.690919
0.004987
0.000000
0.000000
0.776131
1.801985
0.490811
0.000000
0.000000
1.323957
1.356146
0.629464
0.201950
0.158060
0.000000
0.544679
0.679099
0.954797
0.000000
0.000000
0.191928
0.000000
0.750473
0.477732
1.029556
0.000000
0.000000
0.547926
0.644135
0.000000
0.015625
0.519741
0.000000
0.000000
1.063884
0.013441
0.000000
0.073117
0.318504
0.000000
0.000000
0.000000
0.000000
0.000000
0.273295
0.365159
0.860272
0.000000
0.000000
0.000000
0.132499
0.578865
0.000000
0.000000
0.447760
0.000000
0.860789
0.000000
0.000000
0.185060
0.000000
0.000000
0.000000
1.554995
0.000000
0.000000
0.000000
1.841731
0.625089
0.942165
0.000000
0.000000
0.873232
0.000000
0.000000
0.753546
0.092478
0.000000
0.000000
0.384205
0.228945
0.000000
0.000000
0.000000
0.000000
0.000000
0.000000
0.000000
0.961599
0.326972
0.330521
0.000000
0.000000
2.211647
0.146800
0.000000
0.833048
0.000000
0.000000
0.000000
0.000000
0.000000
1.379795
0.000000
0.000000
0.141237
0.000000
0.966221
0.459843
0.837573
1.001545
0.222869
1.066729
0.000000
0.000000
0.000000
0.000000
0.000000
0.000000
0.000000
0.564569
0.768009
1.211627
1.196636
0.919125
0.788078
0.210522
0.000000
0.000000
0.000000
2.257294
0.000000
0.000000
0.000000
0.000000
0.709728
0.309562
0.129159
0.000000
0.000000
0.000000
0.000000
0.000000
0.000000
0.331951
0.000000
0.000000
0.000000
0.000000
0.000000
0.827996
1.027409
0.178487
0.543084
0.882723
0.608230
0.000000
0.359319
0.000000
0.373423
1.399618
0.000000
0.000000
0.000000
0.000000
0.784877
0.270255
0.000000
0.663025
0.326024
0.000000
0.000000
0.099555
0.263910
1.030412
0.512487
0.275548
0.208372
0.000000
0.804678
0.000000
0.220589
0.000000
0.000000
0.000000
0.454919
0.067768
0.000000
0.000000
0.226225
0.000000
0.000000
0.691708
0.000000
0.000000
0.000000
0.208496
0.499216
0.146712
0.047544
0.000000
0.000000
0.000000
0.000000
0.134141
0.000000
0.000000
0.586346
0.000000
0.000000
0.000000
0.341528
0.713029
0.167621
0.000000
0.000000
0.029990
0.000000
0.000000
0.162292
0.000000
1.526433
0.324179
0.236519
0.000000
0.000000
0.194981
2.223597
0.103876
0.000000
0.000000
0.002007
0.871180
0.000000
1.652153
0.000000
0.000000
0.000000
0.084454
0.000000
0.000000
0.000000
0.000000
0.416845
0.000000
0.000000
0.000000
0.404604
1.194423
1.267277
0.000000
0.000000
0.687682
0.411059
0.000000
0.000000
0.000000
0.346702
0.367746
0.000000
0.000000
0.246963
0.462669
0.000000
0.276350
1.044799
0.000000
0.000000
0.000000
0.000000
0.417250
0.000000
0.926588
0.000000
0.000000
0.000000
0.000000
0.000000
0.090263
0.000000
0.000000
1.852724
0.075479
0.000000
0.775047
0.597108
0.220044
0.000000
0.954572
0.000000
0.972829
0.000000
3.266116
1.342868
1.476893
0.000000
0.000000
0.000000
0.378767
0.324063
0.756280
0.754686
0.000000
0.388478
0.000000
1.582190
0.000000
0.750526
0.504426
0.536591
0.011000
0.000000
0.822529
0.000000
0.515383
0.442082
2.581653
0.523846
0.652447
0.000000
0.000000
0.068246
0.052928
0.337262
1.160045
0.170345
0.000000
0.000000
0.000000
0.444196
0.183894
0.000000
0.439127
0.570242
0.131885
0.000000
0.000000
0.000000
0.000000
2.317769
0.000000
0.000000
