0.562648
1.355675
0.000000
0.404671
0.000000
0.000000
0.017199
0.314581
0.000000
0.000000
0.365095
1.602433
0.403176
0.717523
0.112046
0.000000
0.000000
0.260328
0.127993
0.000000
0.000000
0.141763
0.835258
0.116746
0.220465
1.414810
0.629096
0.000000
0.000000
0.000000
0.128982
0.095759
0.000000
0.000000
0.000000
0.000000
0.000000
0.000000
0.000000
0.000000
0.000000
2.516760
0.000000
0.000000
1.895056
0.000000
1.281877
0.000000
0.000000
0.000000
0.000000
0.000000
0.000000
0.437000
0.000000
1.607572
1.306813
0.000000
0.000000
0.797384
0.000000
1.948606
0.986190
1.008118
0.000000
0.000000
0.378174
0.175363
0.000000
0.000000
0.196374
0.000000
0.105741
0.329693
0.191590
0.138934
0.000000
0.000000
0.028509
0.128875
0.000000
0.000000
0.870228
0.000000
0.586616
0.000000
0.000000
1.372516
0.173912
0.543836
0.089809
0.143801
1.107733
0.000000
0.000000
0.000000
0.000000
0.396945
0.000000
0.000000
0.000000
0.704540
0.000000
0.000000
0.000000
0.151708
0.320249
0.000000
0.000000
0.473041
0.041878
1.347046
0.000000
0.000000
0.000000
0.041527
0.048363
0.521183
2.573740
0.000000
0.172693
0.000000
1.365395
0.256971
0.143776
0.000000
0.000000
0.273337
0.000000
0.072050
0.000000
0.488419
0.000000
0.000000
0.000000
0.000000
0.638216
0.000000
1.012432
0.000000
0.254303
0.000000
0.063826
0.936055
0.000000
0.737369
0.000000
0.000000
0.315600
0.000000
0.033055
0.000000
0.000000
0.201839
0.000000
0.000000
1.564916
0.000000
0.121718
0.000000
0.335684
0.000000
0.214942
0.000000
0.000000
0.679460
0.000000
1.606232
1.707298
0.479010
0.000000
0.000000
0.000000
0.000000
0.000000
0.000000
0.114308
0.192000
0.235102
0.311373
0.000000
0.312701
0.000000
0.000000
0.000000
0.000000
0.800760
0.288070
0.459760
0.000000
0.516053
0.132767
0.984058
0.297142
0.115968
0.636290
0.000000
0.413555
0.209455
0.000000
0.412410
0.000000
0.000000
1.772695
0.000000
3.400460
0.762011
0.005873
0.940677
0.000000
0.000000
0.000000
0.000000
0.000000
0.000000
0.000000
0.214027
0.000000
0.000000
0.195101
0.000000
0.000000
0.000000
0.490168
1.352566
0.688971
0.480194
0.000000
0.078992
0.000000
0.380595
0.000000
0.000000
0.201149
0.138410
0.898976
0.867103
0.000000
0.153852
0.000000
2.040320
0.370077
0.844955
0.257033
0.000000
0.003267
0.000000
0.758041
0.000000
0.000000
0.000000
0.412684
0.000000
0.000000
0.000000
0.000000
0.000000
0.000000
0.331114
0.000000
0.000000
0.058300
0.438813
0.000000
0.000000
0.000000
0.000000
0.645278
0.000000
0.382697
0.240902
0.000000
0.040474
0.000000
0.473353
0.000000
0.187022
0.786195
0.000000
0.512707
0.304650
0.000000
0.000000
0.000000
0.000000
0.113969
0.000000
0.000000
0.220163
0.000000
0.000000
0.072477
0.512913
0.165575
0.170262
0.000000
1.351399
0.000000
0.000000
0.000000
0.419311
0.048526
0.026490
0.000000
0.787393
0.117587
0.000000
0.200769
0.350807
0.353080
0.769526
0.235007
0.000000
0.000000
0.000000
0.017959
0.000000
0.000000
0.328687
0.000000
0.213651
0.000000
1.449126
0.747116
0.405768
0.000000
0.118047
0.761049
0.000000
1.089481
0.000000
0.000000
0.000000
0.821154
0.359038
0.569428
0.497992
0.000000
0.000000
0.326382
0.088559
0.000000
0.068935
0.000000
0.162343
0.920225
0.000000
0.000000
0.000000
0.699391
0.275106
0.600548
1.102866
0.418004
0.000000
0.157349
0.473027
1.698961
0.000000
0.000000
0.000000
0.055329
0.000000
0.868978
1.156191
0.572437
0.000000
0.861948
0.189862
0.000000
0.000000
0.000000
0.000000
1.569409
0.155656
0.342409
1.721112
0.374641
0.853193
0.000000
0.659571
0.000000
0.256796
0.000000
0.045496
1.609899
0.715833
0.000000
0.000000
0.793358
0.000000
0.000000
0.832741
0.199996
0.000000
0.448754
0.000000
0.000000
0.000000
0.000000
0.683906
1.336812
0.000000
1.375796
0.040808
1.179888
0.000000
0.193558
1.090101
0.969350
0.629692
0.756259
0.000000
0.302297
0.000000
0.000000
0.000000
0.000000
0.000000
0.053574
0.000604
0.166821
0.000000
0.090426
0.752177
0.000000
0.000000
0.000000
0.000000
0.445923
0.726792
1.949051
0.219118
0.079131
0.498643
0.000000
0.000000
0.400289
0.000000
0.000000
1.009243
0.000000
0.921362
0.508264
0.000000
0.905485
0.000000
0.000000
0.000000
0.000000
0.000000
1.559164
0.000000
0.000000
1.644397
0.000000
0.000000
0.392665
0.000000
0.000000
0.180147
0.000000
0.000000
0.702019
0.797655
0.000000
0.254597
0.824428
0.000000
1.146101
0.114446
0.122544
0.000000
1.034885
0.000000
0.389189
0.232112
1.385527
0.290680
0.000000
0.954337
0.000000
0.012776
0.000000
1.945640
0.000000
0.000000
0.000000
0.592264
0.000000
0.000000
0.360628
0.000000
0.114531
0.000000
1.028131
0.000000
0.000000
0.213860
0.000000
