0.000000
1.608302
0.000000
1.171529
1.790585
0.000000
0.000000
0.326617
0.000000
1.480966
0.000000
4.230423
0.000000
0.013600
0.911577
0.718508
0.225024
0.000000
0.000000
0.102470
0.402836
0.166534
1.839303
0.000000
0.000000
2.248952
0.000000
0.837690
0.000000
0.000000
0.741913
0.083538
0.092274
0.153955
0.000000
0.851252
0.061264
0.000000
0.000000
0.000000
0.000000
2.431261
0.000000
0.000000
0.496771
0.000000
2.385762
0.000000
0.000000
0.000000
0.000000
0.000000
0.000000
0.000000
0.112180
0.155588
0.000000
0.000000
0.000000
0.000000
0.000000
3.096231
0.000000
2.643762
0.000000
0.000000
1.217347
0.000000
0.000000
1.025508
0.000000
0.377412
0.109659
0.073617
0.119872
0.660958
0.171910
0.000000
1.405285
0.000000
0.000000
0.000000
0.000000
0.218674
0.231979
0.005328
0.000000
0.000000
0.385561
1.026345
0.000000
0.233101
0.000000
0.000000
0.000000
0.000000
0.000000
0.000000
0.001243
0.000000
0.204780
0.314602
0.000000
0.000000
0.992138
0.000000
0.000000
0.182969
0.000000
0.000000
0.091702
0.216481
0.255470
0.399477
0.000000
0.903902
1.268788
0.530231
0.000000
0.411570
0.008088
0.000000
0.683512
0.000000
0.410342
0.000000
0.512782
4.254978
0.000000
1.127443
0.000000
0.000000
0.000000
0.593842
0.284926
0.000000
0.506402
0.231407
1.729338
0.085510
1.755933
0.000000
0.000000
2.498984
1.221720
0.000000
0.000000
0.000000
0.441843
0.000000
0.063804
0.000000
0.000000
1.965933
0.000000
0.839961
0.000000
0.000000
0.000000
0.000000
1.454679
0.047695
0.034541
1.862154
0.998974
2.295811
0.000000
3.336498
0.000000
0.000000
0.124747
0.000000
0.000000
0.864995
1.794163
0.000000
0.000000
2.574410
0.011545
1.882831
0.106405
0.521178
0.000000
0.000000
0.000000
0.000000
0.301966
0.000000
0.186988
0.000000
0.000000
0.000000
0.000000
0.000000
0.000000
0.000000
0.000000
0.235355
0.000000
0.000000
0.211939
0.576950
0.000000
0.000000
0.000000
0.459936
2.191586
0.000000
2.573853
0.000000
0.000000
0.000000
0.000000
0.000000
0.034231
0.000000
0.246666
1.014357
1.350741
0.059854
0.516712
0.000000
0.000000
1.147856
2.115450
1.172550
0.599752
0.000000
0.000000
0.363528
0.312365
0.000000
0.000000
0.343430
0.100554
0.163521
0.083478
0.000000
0.000000
0.000000
0.054445
0.000000
1.389030
0.391857
0.000000
0.072847
1.458399
1.190346
0.000000
0.000000
0.000000
1.847478
0.000000
0.000000
1.190326
0.000000
0.000000
0.000000
0.000000
0.971963
0.000000
0.961632
0.000000
0.000000
0.000000
0.000000
0.185486
0.497554
0.656087
1.796019
0.000000
0.000000
0.000000
0.738359
0.038174
0.000000
0.000000
0.000000
0.000000
2.545083
0.000000
0.432834
0.000000
0.000000
0.000000
0.000000
0.000000
0.000000
0.415462
0.000000
0.000000
0.484959
0.000000
1.226379
2.439851
0.000000
0.000000
0.000000
0.474931
0.000000
0.000000
0.000000
0.000000
0.044323
0.008175
0.086982
0.000000
0.381285
0.195190
0.979706
1.630528
0.309705
0.191571
0.905388
0.000000
0.000000
0.000000
0.320810
0.025291
0.000000
0.046650
0.000000
0.342472
0.920237
0.000000
2.274240
0.000000
1.852669
0.000000
1.241191
0.000000
0.000000
0.025702
1.068024
0.019941
0.024384
0.865053
3.724282
0.000000
0.000000
0.555705
0.000000
0.216660
0.000000
1.045257
0.737710
1.309252
0.334133
0.179336
0.960421
0.000000
1.426411
0.000000
0.000000
0.516878
0.000000
0.000000
0.000000
0.210776
0.224057
0.000000
1.520629
1.105081
0.642348
0.000107
0.582887
0.000000
0.729084
0.334678
0.000000
0.000000
0.288231
0.375695
0.164420
0.703767
0.064330
0.000000
0.000000
0.852906
0.000000
0.745313
0.049312
0.000000
0.102060
1.041379
1.292248
1.274773
0.000000
0.000000
0.225005
1.205486
0.000000
0.947781
0.000000
0.690678
1.993112
0.350554
0.000000
0.000000
0.580903
0.807637
0.026093
0.032150
1.470695
1.800563
0.442243
0.000000
0.000000
0.000000
0.000000
1.277073
0.000000
0.000000
1.102433
0.000000
0.715019
0.000000
0.000000
0.000000
0.000000
0.420164
0.000000
0.000000
0.000000
0.000000
0.000000
0.000000
0.000000
0.000000
0.258591
1.140568
1.550248
0.776720
1.002718
0.000000
0.507978
0.194904
0.000000
0.917603
0.375351
0.000000
0.000000
2.330970
0.000000
0.000000
0.860770
1.321067
0.122461
0.000000
0.000000
1.039653
0.401963
0.000000
0.000000
1.050472
0.000000
0.672928
0.790937
0.000000
0.000000
0.069693
0.000000
0.000000
4.011720
0.000000
0.987573
0.583024
1.192599
0.000000
0.353019
0.000000
0.000000
0.000000
0.931291
0.766350
0.000000
0.000000
1.847766
2.271932
1.304749
0.282295
0.000000
1.490769
1.124166
2.486428
0.000000
0.000000
0.250204
0.000000
0.000000
1.114814
0.000000
0.000000
0.000000
0.000000
0.000000
0.804980
0.000000
0.555268
1.468903
