0.070096
0.681305
0.000000
0.000000
0.472817
0.029326
0.000000
0.234657
0.000000
0.000000
0.406424
0.000000
0.000000
0.046633
0.251406
0.000000
0.687740
0.016985
0.245733
0.000000
0.000000
0.000000
0.277853
0.143987
0.433699
0.000000
0.352843
0.354732
0.680994
0.000000
0.925299
0.000000
0.759014
0.000000
0.000000
0.151118
0.296682
0.000000
1.353332
0.204128
0.097726
0.672904
0.268059
0.000000
0.000000
0.000000
0.000000
0.533900
0.000000
0.000000
0.773587
0.000000
1.301969
0.000000
0.000000
0.666586
0.200354
0.000000
0.219924
0.448143
0.000000
1.980286
1.063009
1.082650
0.000000
0.000000
0.000000
0.603366
0.000000
0.214576
0.529076
0.000000
0.000000
0.250842
0.709560
1.082473
0.334660
0.000000
0.000000
0.000000
1.484065
0.000000
0.452153
0.000000
0.000000
0.000000
0.403818
1.692264
0.000000
0.000000
0.000000
0.000000
1.244513
0.000000
0.000000
0.826760
0.000000
0.000000
0.000000
0.000000
0.502665
0.000000
0.381731
0.619707
0.142318
0.138460
0.000000
0.180611
0.000000
0.000000
0.000000
0.892952
0.000000
0.407400
0.174754
0.009203
0.290408
0.000000
0.000000
0.000000
0.006401
0.000000
0.000000
0.452971
0.872391
0.341532
0.000000
0.000000
0.000000
0.150064
0.442793
0.053556
0.000000
0.564412
0.000000
0.000000
0.000000
0.409249
1.558386
0.098924
0.000000
0.000000
0.000000
0.314049
0.000000
0.386840
0.000000
1.347289
0.805770
0.000000
0.000000
0.000000
0.000000
0.000000
0.000000
0.000000
0.000000
0.000000
0.000000
1.568608
0.167730
0.268586
0.596477
0.264599
0.000000
1.819039
0.151552
0.000000
0.000000
0.316538
0.376093
0.020988
0.148339
0.691252
1.840646
0.000000
0.000000
1.678837
0.387020
0.000000
0.527441
0.000000
0.000000
0.000000
0.000000
0.078549
0.000000
0.098095
0.102310
0.345879
0.208263
1.410417
0.000000
0.000000
0.000000
0.000000
0.170070
0.151032
0.000000
0.000000
0.000000
0.000000
0.000000
0.819967
0.716116
0.515737
0.000000
0.000000
0.000000
1.117829
0.000000
0.000000
0.000000
0.427615
0.000000
0.000000
0.167015
0.000000
0.155187
0.000000
0.013071
0.000000
0.000000
0.960526
0.086629
0.470204
0.000000
1.178305
0.413848
0.110751
1.185261
0.000000
0.000000
0.000000
0.943659
0.038496
0.000000
0.000000
0.000000
0.047735
0.150581
0.366268
0.278543
0.106207
0.000000
0.220881
0.000000
0.000000
0.325988
0.000000
0.386442
0.559721
0.406409
0.000000
0.481099
0.000000
0.211627
0.150818
0.000000
0.000000
0.000000
0.000000
0.203575
0.366504
0.822558
0.000000
0.261652
0.167272
0.890402
0.000000
0.000000
0.000000
0.112522
0.000000
0.000000
0.000000
0.000000
0.000000
0.581860
0.000000
0.059363
0.000000
0.000000
0.297158
0.250963
0.086639
0.738560
0.000000
1.305429
0.753497
0.500781
0.173492
0.124256
0.000000
0.538171
0.000000
1.706168
0.000000
0.442313
0.142788
0.026434
0.038817
1.311584
0.363731
0.452391
0.245452
0.666199
0.000000
0.000000
0.373526
0.518227
0.000000
0.530914
0.000000
0.000000
0.000000
0.271697
0.555878
0.523463
0.770913
0.000000
0.000000
0.084242
0.299042
0.244450
0.000000
0.442145
0.000000
0.162858
0.000000
0.000000
0.000193
0.312355
0.000000
0.573447
0.939200
0.355546
0.000000
0.211242
0.151831
0.000000
0.245213
0.064896
0.000000
0.000000
0.000000
0.080684
0.414679
0.000000
0.614774
0.693595
0.463104
1.398498
0.000000
0.000000
0.000000
0.059593
1.032310
0.000000
0.432958
0.104475
0.113753
0.000000
0.000000
0.000000
0.412048
1.189310
0.551984
0.000000
0.637397
0.000000
0.419041
0.000000
0.652096
0.000000
0.000000
0.068719
0.000000
0.000000
0.000000
0.783087
0.000000
0.000000
0.000000
0.000000
0.000000
0.000000
0.000000
0.225622
0.465286
0.000000
0.000000
0.610481
0.000000
0.000000
0.189989
0.000000
0.000000
0.000000
0.000000
0.000000
1.940978
0.062874
0.000000
0.035995
0.000000
0.000000
0.000000
0.000000
0.000000
0.808384
0.937833
0.000000
0.000000
0.000000
0.000000
0.152752
0.000000
0.000000
0.686048
0.000000
0.000000
0.000000
0.584990
0.000000
0.000000
0.000000
0.033062
0.000000
0.000000
0.000000
0.000000
0.000000
0.000000
0.000000
0.000000
0.000000
0.000000
0.000000
0.000000
0.074326
0.223451
0.025463
0.637336
0.000000
0.000000
0.128458
0.000000
0.414955
0.186261
0.000000
0.000000
0.922977
0.000000
0.205995
1.819419
0.122474
0.495038
0.098901
0.000000
0.000000
0.841210
0.223590
0.000000
0.489548
0.000000
0.640419
1.148952
0.000000
0.569756
0.000000
0.000000
0.187871
0.973537
0.000000
0.482981
0.000000
0.000000
0.000000
0.000000
0.058358
0.000000
0.000000
1.157030
0.000000
0.240094
0.021233
0.515536
0.829852
0.000000
0.816709
0.000000
0.000000
0.000000
0.000000
0.000000
0.000000
0.000000
0.000000
0.008841
