0.048798
0.000000
0.876958
0.000000
0.629798
0.000000
0.179038
0.000000
1.291964
0.737146
1.113676
0.000000
0.000000
0.720709
0.000000
0.367226
0.000000
0.690762
0.000000
0.000000
0.000000
0.000000
0.000000
0.084660
0.250155
1.265858
0.000000
0.239781
0.000000
0.070361
0.240086
0.160313
0.411841
0.219321
1.117951
0.579849
0.000000
0.088326
1.054741
0.041576
0.000000
0.000000
1.187692
0.860320
0.000000
0.000000
0.000000
0.000000
1.494336
1.744337
0.000000
0.000000
0.636605
0.349361
0.000000
0.000000
0.000000
0.000000
0.000000
0.000000
0.000000
0.126716
1.801103
0.000000
0.000000
0.000000
0.000000
0.000000
0.282221
0.237709
0.492491
0.000000
0.087212
0.000000
0.508248
0.277740
0.523737
0.165058
0.000000
0.000000
0.490240
0.577332
0.000000
0.631155
0.191543
0.364292
0.470228
0.820935
0.000000
0.000000
0.000000
0.000000
0.000000
0.135023
0.105999
0.000000
0.000000
0.506193
0.653908
0.214319
0.002263
0.000000
0.000000
0.100019
0.545240
0.000000
0.000000
0.000000
0.837127
0.000000
0.212180
0.793318
0.851125
0.000000
0.000000
0.000000
0.000000
1.148159
0.000000
0.000000
0.000000
0.451852
0.000000
0.000000
0.000000
0.005064
0.000000
0.000000
0.133061
0.000000
0.858409
0.361215
0.000000
0.833532
0.986955
0.596319
0.000000
0.073254
1.474337
0.357638
0.000000
0.000000
0.000000
0.000000
0.448461
0.000000
0.468951
1.215946
0.000000
0.000000
0.721477
0.656184
0.309503
0.000000
0.227866
0.023092
0.412097
1.116166
0.000000
0.090311
0.000000
0.143701
0.000000
0.904582
0.000000
0.000000
1.155225
0.000000
0.000000
0.092914
0.000000
0.000000
0.862914
0.017798
0.000000
0.578732
0.000000
0.000000
0.000000
0.000000
0.477796
0.000000
1.170357
0.000000
0.127658
0.330111
0.000000
0.000000
0.469384
0.223187
0.340769
0.000000
0.028473
0.000000
0.130166
0.185109
0.203463
0.054315
0.281092
0.000000
0.044225
0.000000
0.156311
0.000000
1.288755
0.000000
0.000000
0.584163
0.597253
0.000000
0.000000
0.000000
0.000000
1.998667
1.006062
0.396190
0.000000
0.261473
0.000000
0.627089
0.000000
1.473008
0.220812
0.000000
0.000000
0.370782
0.515499
1.336041
0.000000
0.000000
0.408095
1.268103
0.000000
0.000000
0.221361
0.000000
0.367075
0.054649
0.000000
0.000000
0.000000
0.475374
0.000000
0.000000
0.000000
0.467286
0.000000
0.000000
0.297455
0.000000
0.075901
0.254615
0.410395
0.000000
1.232035
0.637573
0.000000
0.000000
0.000000
0.516679
1.548101
0.000000
0.000000
0.065597
0.063152
0.685284
0.000000
0.454888
0.204545
0.000000
0.000000
0.100438
0.000000
0.000000
0.172984
0.000000
0.000000
0.000000
0.869290
0.000000
0.000000
0.116485
0.083027
0.109588
1.100030
0.199710
0.000000
0.332707
1.938638
0.563623
0.359930
0.000000
0.000000
0.000000
0.000000
0.000000
1.187348
0.000000
0.000000
0.280230
0.280027
0.000000
0.757156
0.000000
0.100760
0.000000
0.000000
0.302844
0.488366
0.034139
0.000000
0.186376
0.000000
0.000000
1.431324
0.265734
0.000000
0.265397
0.139411
0.927148
0.000000
0.000000
0.330104
0.000000
0.000000
0.000000
0.000000
0.000000
0.037671
0.000000
0.864266
0.179149
0.830421
0.220172
0.649102
0.344960
1.400027
0.000000
0.252053
0.000000
0.000000
0.000000
0.009639
0.397444
0.000000
2.288555
0.000000
0.306980
0.445581
0.000000
0.767219
0.232393
0.000000
1.088123
0.000000
0.000000
1.356340
0.000000
0.000000
0.166471
0.000000
0.000000
0.098435
0.000000
0.172825
0.000000
1.150188
0.000000
0.000000
0.667226
0.000000
0.216246
0.000000
0.000000
0.178525
0.099718
0.000000
0.000000
0.000000
1.609352
0.167033
0.000000
0.011435
0.214070
0.000000
0.253772
0.000000
0.000000
0.235987
0.000000
0.531200
0.000000
0.330460
0.566338
0.000000
0.000000
0.018860
0.572498
0.000000
0.050719
0.000000
1.191963
0.043490
0.000000
0.000000
1.840892
0.403894
0.586302
0.000000
0.000000
0.019875
0.129061
0.000000
0.160601
0.000000
0.000000
0.326875
0.000000
1.233725
0.725899
0.000000
0.000000
0.026993
0.105062
0.000000
1.317555
0.000000
0.000000
0.465526
0.747528
0.108770
0.000000
0.000000
0.000000
0.020913
0.000000
0.370413
0.000000
0.000000
2.952958
0.000000
0.364716
0.250402
1.241656
0.000000
0.000000
0.199598
0.024799
0.000000
0.000000
0.000000
0.000000
1.141200
0.000000
0.060583
0.652597
0.822077
0.000000
0.000000
0.000000
0.000000
0.720175
0.230103
0.000000
0.000000
0.000000
0.000000
0.000000
0.000000
0.000000
0.834071
0.000000
0.000000
0.124727
0.837219
0.000000
0.865395
0.000000
0.000000
0.413059
0.000000
0.000000
0.000000
0.522504
0.000000
0.969450
1.164361
0.359331
1.253023
0.000000
0.000000
0.110455
0.309560
0.000000
0.142894
0.000000
0.000000
0.767195
0.000000
0.000000
