0.576316
0.489880
0.000000
0.000000
0.013085
0.000000
0.471361
0.000000
0.000000
0.000000
0.813180
0.000000
0.000000
0.824670
0.603702
0.131899
0.931354
0.000000
0.000000
0.000000
0.000000
0.000000
0.480496
0.523223
0.204796
0.000000
0.328988
0.022711
1.529695
0.000000
0.937859
0.010531
1.062498
0.000000
0.000000
0.000000
0.000000
0.656579
1.340059
0.000000
0.590759
0.985892
0.333968
0.000000
0.000000
0.000000
0.128354
0.778601
0.000000
0.000000
1.087833
0.000000
1.457988
0.000000
0.000000
0.788923
0.355165
0.000000
1.832158
0.578011
0.000000
1.502012
0.822516
1.222283
0.000000
0.000000
0.000000
0.336402
0.000000
1.013326
0.512081
0.000000
0.000000
0.756151
0.000000
0.779911
0.000000
1.754107
0.000000
0.000000
0.000000
0.000000
0.292711
0.000000
0.000000
0.000000
0.495811
0.752480
0.000000
0.000000
0.000000
0.439659
0.656196
0.000000
1.086852
0.859687
0.000000
0.362112
0.000000
0.395900
0.080390
0.000000
0.886946
0.000000
0.424605
0.000000
0.000000
0.031301
0.096586
0.000000
0.000000
0.979374
0.000000
0.893937
0.000000
0.482756
0.000000
0.000000
0.845113
0.000000
0.000000
0.000000
0.000000
0.654026
0.950441
0.484555
0.000000
0.000000
0.120955
0.510473
0.663164
0.307569
0.000000
0.454121
0.000000
0.000000
0.169142
0.000000
1.749379
0.000000
0.000000
0.006708
0.000000
0.446238
0.000000
0.000000
0.000000
0.768544
0.113848
0.000000
0.223624
0.000000
0.000000
0.000000
0.000000
0.531503
0.000000
0.000000
0.000000
0.879966
0.074768
0.132042
0.000000
0.000000
0.000000
0.690079
0.935290
0.000000
0.000000
0.000000
0.000000
0.000000
0.234029
0.061663
0.445588
0.000000
0.000000
1.568686
0.172811
0.000000
0.741861
0.000000
0.000000
0.000000
0.000000
0.000000
0.000000
0.248242
0.955112
1.178270
0.341302
1.578514
0.000000
0.369618
0.000000
0.000000
0.000000
0.360710
0.000000
0.000000
0.000000
0.000000
0.350506
0.021502
0.580635
0.680702
1.280682
0.000000
0.173376
0.033308
0.000000
0.000000
0.000000
0.879947
0.000000
0.334163
0.004040
0.000000
0.203956
0.497094
0.709644
0.000000
0.000000
0.890944
0.059093
0.206875
0.000000
1.123071
0.275527
0.185872
0.000000
0.539644
0.000000
0.004489
0.532580
0.000000
0.000000
0.000000
0.000000
0.457507
0.000000
0.000000
0.272059
0.331230
0.000000
0.479750
0.000000
0.000000
0.683046
0.000000
0.000000
0.000000
0.871096
0.000000
0.773270
0.000000
0.000000
0.257617
0.000000
0.158224
0.000000
0.000000
0.028908
0.199911
1.011472
0.000000
0.000000
0.917832
0.000000
0.000000
0.324311
0.019358
0.000000
0.000000
0.000000
0.000000
0.294624
0.337827
0.472168
0.000000
0.069342
0.000000
0.158570
0.000000
0.163233
0.000000
0.000000
0.056766
1.523914
0.849292
0.933703
0.499928
0.062360
0.000000
0.000000
0.000000
1.181021
0.000000
0.039966
0.340299
0.134885
0.002740
0.586527
0.275294
0.262585
0.000000
1.056162
0.000000
0.000000
0.000000
0.793704
0.000000
0.379928
0.000000
0.000000
0.000000
0.000000
0.149269
0.000000
0.322320
0.000000
0.000000
0.408843
0.000000
0.595037
0.000000
0.453743
0.131938
0.000000
0.000000
0.000000
0.000000
0.365290
0.000000
0.136443
0.728705
0.703000
0.000000
0.793283
0.000000
0.000000
0.000000
0.178471
0.000000
0.000000
0.519243
0.036008
0.162832
0.000000
0.617525
0.686649
1.379631
0.227380
0.100740
0.000000
0.000000
0.000000
0.720972
0.000000
0.213150
0.602919
0.646839
0.000000
0.000000
0.000000
0.000000
1.646968
0.184925
0.000000
0.434283
0.000000
0.648378
0.000000
0.891609
0.000000
0.153982
0.163965
0.000000
0.921576
0.000000
0.447746
0.000000
0.000000
0.000000
0.048660
0.000000
0.288421
0.000000
0.776765
0.000000
0.000000
0.000000
0.000000
0.000000
0.000000
0.588909
0.000000
0.000000
0.000000
0.000000
0.000000
1.567205
0.021565
0.229586
0.000000
0.000000
0.000000
0.000000
0.412483
0.108903
0.813908
0.712260
0.000000
0.361742
0.004414
0.000000
0.127579
0.000000
0.000000
0.823753
0.000000
0.000000
0.000000
0.138374
0.000000
1.405112
0.575002
0.642547
0.224188
0.256705
0.822519
0.111884
0.693831
0.000000
0.000000
0.000000
0.107318
0.297811
0.089814
0.000000
0.000000
0.785414
0.000000
0.559880
0.683653
0.092625
0.000000
0.000000
0.000000
0.000000
0.000000
0.000000
0.000000
0.069344
0.738214
2.285729
0.112268
0.000000
0.000000
0.000000
0.104529
1.064078
0.096901
0.000000
0.397583
0.000000
0.124363
0.517825
0.000000
0.372777
0.094595
0.000000
0.000000
0.814824
0.000000
0.450822
0.000000
0.232614
0.000000
0.000000
0.000000
0.000000
0.000000
1.265806
0.000000
0.000000
0.086052
0.000000
0.192984
0.404234
0.038384
0.000000
0.000000
0.000000
0.321576
0.000000
0.920067
0.000000
0.000000
0.459780
