0.189936
0.000000
2.102486
0.000000
0.462446
0.000000
0.296478
0.284394
0.000000
0.651299
0.079467
0.404133
0.000000
0.000000
0.216630
0.021858
0.000000
0.021537
0.183035
0.000000
0.000000
0.000000
0.000000
0.000000
0.000000
1.060990
0.000000
0.765875
0.000000
0.011911
0.130272
0.000000
0.000000
0.176915
0.244974
1.719937
0.000000
0.000000
0.000000
0.133411
0.000000
0.000000
0.000000
0.000000
0.000000
0.000000
0.000000
0.000000
1.131655
0.000000
0.000000
0.000000
0.000000
0.000000
0.000000
0.000000
0.000000
0.000000
0.000000
0.000000
0.000000
0.476121
0.277040
0.031164
0.066760
0.000000
0.000000
0.000000
0.000000
0.399023
0.410052
0.000000
0.000000
0.155031
0.000000
0.672741
0.825462
0.000000
0.000000
0.000000
0.229219
0.236558
0.000000
0.000000
0.465354
0.000000
0.000000
0.000000
0.000000
0.254576
0.000000
0.144263
0.000000
0.131319
0.000000
0.000000
0.000000
0.000000
0.341458
0.175558
0.488038
0.612840
0.000000
0.000000
0.738244
0.000000
0.000000
0.000000
1.610741
0.000000
0.336270
0.000000
0.783445
0.584017
0.000000
0.000000
0.062634
0.139178
0.846199
0.000000
0.000000
0.121111
0.000000
0.000000
0.000000
0.000000
0.568981
0.686004
0.026492
0.071354
0.084324
0.000000
0.381192
0.011474
0.245478
0.000000
0.000000
0.000000
1.385484
0.000000
0.342042
0.000000
1.214013
0.396317
0.572240
0.000000
0.000000
0.000000
0.466005
0.160081
0.073897
0.000000
0.113950
0.347615
0.106979
0.711809
0.000000
0.523455
0.000000
0.000000
0.000000
0.360479
0.159326
0.923108
0.190667
0.000000
0.000000
0.986759
0.000000
0.000000
0.701031
0.000000
0.000000
0.115972
0.109612
0.000000
0.000000
0.538720
0.390261
0.000000
0.373899
0.466110
0.072447
0.000000
0.809229
0.000000
0.538157
0.000000
1.057591
0.494955
0.000000
0.000000
1.522596
0.020891
0.092147
0.000000
0.000000
0.170051
0.664569
0.000000
0.188713
0.000000
0.000000
0.000000
0.878498
0.000000
0.329871
0.000000
1.807175
0.000000
0.000000
0.000000
0.000000
0.000000
1.115489
0.000000
0.000000
0.298988
0.224382
0.000000
0.089470
0.058388
0.441195
0.000000
0.000000
1.352852
0.000000
1.261943
0.000000
0.000000
1.038857
0.000000
0.117997
0.000000
0.145733
0.000000
1.499305
0.018025
0.154686
0.000000
0.143292
0.373317
0.000000
0.372308
0.000000
0.000000
0.768695
0.813496
0.655020
0.000000
0.000000
1.271547
0.000000
0.000000
1.079761
0.000000
0.176937
0.000000
0.000000
0.000000
0.887324
0.000000
0.276927
0.000000
0.000000
0.000000
0.068438
0.000000
0.865925
1.128497
0.000000
0.642685
0.000000
0.066726
1.031534
0.000000
0.000000
0.000000
0.522703
0.654919
0.000000
0.317097
0.000000
0.000000
0.359393
0.000000
0.000000
0.000000
1.073609
0.000000
0.000000
0.000000
0.000000
0.132839
0.673445
0.000000
0.254135
0.000000
0.041231
0.000000
0.520037
0.000000
0.000000
0.000000
0.000000
0.000000
0.902852
0.000000
0.000000
0.440062
0.000000
0.852896
0.080556
1.059627
0.000000
0.000000
0.343789
0.088738
0.277504
0.471097
0.149399
0.000000
0.000000
0.797771
0.000000
0.384448
0.000000
0.000000
0.085648
0.000000
0.000000
0.013967
0.482033
0.070632
0.375366
0.000000
0.109997
2.181261
0.000000
0.605000
0.043062
0.000000
0.000000
0.000000
0.000000
0.387091
0.000000
0.000000
0.729070
0.216100
0.173155
0.000000
0.000000
1.586478
0.246746
0.000000
0.086812
0.201171
0.000000
0.000000
0.195447
0.000000
1.118451
0.123256
0.604416
0.000000
0.000000
0.263383
0.000000
0.000000
0.064869
0.878036
0.000000
0.000000
0.000000
0.000000
0.000000
0.345307
0.000000
0.364363
0.032473
0.000000
0.000000
0.000000
0.127872
0.993423
0.145672
0.000000
0.044315
0.033164
1.202699
0.000000
0.862430
1.855479
0.000000
0.053888
0.208970
0.000000
0.000000
0.765044
0.191826
0.000000
0.000000
0.000000
0.000000
0.370650
0.570139
0.333559
0.189996
0.000000
0.044097
0.000000
0.000000
0.000000
0.000000
0.565546
0.493635
0.000000
1.173582
0.000000
1.024327
0.000000
0.000000
0.000000
0.000000
0.000000
0.000000
0.647579
0.446161
0.000000
1.790326
0.000000
1.028417
0.000000
0.136972
0.434481
0.000000
0.025462
0.032575
1.015558
0.000000
0.000000
0.980918
0.037376
0.253860
0.000000
0.533612
0.000000
0.000000
0.279542
1.711747
0.266259
0.685342
0.000000
0.000000
0.106746
0.718909
0.090080
0.479181
0.000000
0.000000
0.147573
1.319970
1.172901
0.710496
1.450513
0.720932
0.000000
0.000000
0.000000
0.215958
0.000000
0.261390
0.517865
0.119493
0.000000
0.587356
0.358541
0.000000
0.000000
0.033615
0.015201
0.409757
0.882306
0.000000
0.000000
0.000000
0.221640
0.036168
0.000000
0.000000
0.000000
0.000000
0.000000
0.853515
0.205959
0.000000
1.989757
0.000000
0.139825
