0.079599
0.731491
0.232502
0.403507
0.293805
0.000000
0.005648
0.121395
0.335031
0.000000
0.045433
0.000000
0.000000
1.436568
0.000000
0.000000
0.000000
0.142448
0.097674
0.000000
0.000000
0.000000
0.266627
0.000000
0.234258
1.518304
0.639556
0.002063
0.000000
0.097220
0.000813
0.147535
0.499682
0.000000
0.279761
0.053017
0.000000
0.000000
0.000000
0.000000
0.376138
0.917606
0.000000
0.000000
0.000000
0.000000
0.000000
0.000000
0.227510
0.234668
0.000000
0.000000
0.000000
0.135854
0.000000
0.407748
0.247202
0.000000
0.503608
0.000000
0.000000
0.515068
1.373002
0.000000
0.000000
0.000000
0.000000
0.000000
0.011581
0.513756
0.968987
0.000000
0.000000
0.293149
0.000000
0.220763
0.011049
0.000000
0.000000
0.000000
0.024951
0.058467
0.202285
0.000000
0.116285
0.029674
0.189750
2.625698
0.000000
0.873152
0.000000
0.000000
0.000000
0.000000
0.000000
0.026662
0.000000
0.119045
0.242135
0.161513
0.000000
0.000000
0.355141
0.281427
0.631041
0.000000
0.000000
0.000000
0.000000
0.941111
0.007427
0.921948
0.057043
0.000000
0.000000
0.118577
0.220719
0.000000
0.148819
0.695896
0.000000
0.789577
0.377559
0.000000
0.000000
0.000000
0.246480
0.764504
0.301542
0.000000
0.000000
0.000000
0.052122
0.337100
0.000000
0.000000
0.546152
0.648585
0.464884
0.029582
0.162102
0.000000
0.000000
0.732610
0.420052
0.000000
0.168007
0.309222
0.111288
0.472190
0.223039
0.000000
0.118917
0.000000
0.210969
0.392277
1.831429
0.258712
0.000000
0.087049
0.000000
0.000000
0.000000
0.067178
0.000000
0.106617
0.009815
0.000000
0.000000
0.626468
0.000000
0.099118
0.084142
0.078985
0.148741
0.000000
0.188265
0.000000
0.062779
0.000000
0.310701
0.000000
0.000000
0.000000
0.000000
0.000000
0.000000
0.000000
0.754669
0.000000
0.039794
0.809066
0.342048
0.281380
0.000000
0.077441
0.000000
0.168799
0.413677
0.000000
0.000000
0.314135
0.179908
0.534743
0.330620
0.610442
0.913461
0.692308
0.582693
0.010693
0.000000
0.000000
0.000000
1.977005
0.000000
0.719710
0.000000
0.068186
0.000000
0.084035
0.000000
0.000000
0.884102
0.007591
0.000000
0.207045
0.093629
0.502394
0.000000
0.000000
0.329101
0.437487
0.000000
0.000000
0.571233
0.000000
0.762940
0.000000
0.000000
0.000000
0.587778
0.095117
0.021371
0.122629
0.661241
0.485379
0.000000
0.087665
0.000000
0.039735
0.236918
0.162686
0.000000
0.000000
0.647691
0.614276
0.000000
0.398289
0.000000
0.914397
0.000000
0.000000
0.000000
0.000000
0.000000
0.336865
0.000000
0.065531
0.000000
0.000000
0.000000
0.000000
0.000000
0.081720
0.447814
0.000000
0.398883
0.447625
0.000000
0.000000
0.000000
0.000000
0.000000
0.017177
0.719691
0.158608
0.000000
0.474872
0.374730
0.556901
0.000000
0.000000
0.000000
0.125166
0.792591
0.000000
1.124599
0.174594
0.325481
0.000000
0.440599
0.000000
1.205496
0.000000
0.463811
0.000000
0.000000
0.247117
0.036169
0.004996
0.000000
0.554627
0.359148
0.755687
0.000000
0.000000
0.000000
0.256610
0.007825
0.004573
0.000000
0.000000
0.000000
0.000000
0.000000
0.115295
0.000000
0.000000
0.000000
0.000000
0.332176
0.000000
0.000000
0.480441
0.558357
0.620047
0.919572
0.659389
0.616571
0.078124
0.081816
0.000000
0.014432
0.000000
0.175759
1.370726
0.000000
0.000000
0.350233
0.365997
0.587560
1.573319
0.000000
0.860479
0.045955
0.094554
0.727284
0.000000
0.000000
0.000000
0.000000
0.000000
0.387068
0.815276
0.436885
0.603507
0.000000
0.492743
0.522336
0.000000
0.000000
0.000000
0.375745
0.000000
0.187868
0.263577
0.538726
0.000000
0.000000
0.000000
0.410049
0.000000
0.068582
0.045453
0.000000
0.000000
0.270360
0.370301
0.399167
0.647412
0.252042
0.000000
0.000000
0.074157
0.000000
0.579059
0.053969
0.165860
0.030108
0.348463
0.039821
0.751754
0.000000
0.533348
0.098054
1.256890
0.000000
0.000000
0.050416
0.717706
0.422304
0.828432
0.000000
0.233982
0.000000
0.000000
0.000000
0.000000
0.258517
0.000000
0.000000
0.285642
0.728177
0.000000
0.394556
0.000000
0.036974
0.030590
0.000000
0.604882
0.289985
0.000000
0.746503
0.000000
0.142450
0.000000
0.021029
0.000000
0.000000
1.371411
0.174543
0.000000
0.240000
1.274291
0.000000
0.279964
0.000000
0.097643
0.000000
0.000000
0.000000
0.000000
0.840226
0.000000
0.841342
0.787639
0.267844
0.000000
0.000000
0.155581
0.059026
0.000000
0.000000
0.405098
0.000000
0.459509
0.000000
0.110231
0.179170
0.000000
0.015447
0.457144
0.395648
0.225650
0.068435
0.000000
0.859956
0.000000
0.000000
0.190970
0.000000
0.000000
0.000000
0.465827
1.158292
0.000000
0.394834
0.101615
0.000000
0.000000
0.000000
0.275848
0.017036
0.000000
0.139499
0.717309
0.000000
0.106234
0.000000
0.874027
