0.003265
0.095192
1.701672
0.000000
0.395245
0.000000
0.000000
0.723703
0.539750
0.000000
0.698595
0.000000
0.000000
0.000000
0.120236
0.000000
0.000000
0.251845
0.024489
0.000000
0.000000
0.000000
0.000000
0.000000
0.000000
0.150417
0.000000
0.565078
0.000000
0.000000
0.046576
0.000000
0.000000
0.000000
0.000000
2.082963
0.000000
0.000000
0.000000
0.054070
0.000000
0.000000
0.215890
0.000000
0.000000
0.041068
0.000000
0.000000
1.326483
0.442961
0.000000
0.000000
0.000000
0.138079
0.004889
0.075395
0.000000
0.000000
0.000000
0.000000
0.000000
0.269689
0.000000
0.000000
0.064922
0.077160
0.000000
0.000000
0.000000
0.272639
0.622069
0.000000
0.035896
0.000000
0.000000
0.626509
0.867123
0.000000
0.000000
0.482118
0.107803
0.596947
0.000000
0.000000
0.596073
0.022293
0.166723
0.108655
0.000000
0.265169
0.000000
0.000000
0.000000
0.682335
0.000000
0.063364
0.000000
0.000000
0.232239
0.000000
0.434943
0.501217
0.000000
0.000000
0.741992
0.000000
0.262513
0.000000
1.796368
0.116295
0.373359
0.000000
0.438134
0.188950
0.000000
0.000000
0.402568
0.326505
0.092885
0.271374
0.000000
0.000000
0.201700
0.000000
0.000000
0.000000
0.294959
0.000000
0.000000
0.000000
0.000000
0.000000
0.153320
0.000000
0.390188
0.000000
0.000000
0.000000
1.379576
0.000000
0.000000
0.000000
1.360925
0.000000
0.471216
0.000000
0.076776
0.041404
0.478929
1.012604
0.122238
0.000000
0.000000
0.453516
0.216485
0.517903
0.125653
0.975778
0.198063
0.000000
0.000000
0.107045
0.209755
0.484882
0.052076
0.000000
0.000000
0.767939
0.000000
0.000000
0.475324
0.000000
0.156754
0.092466
0.301462
0.219635
0.000000
0.032640
0.261921
0.000000
0.297470
0.177796
0.317660
0.000000
0.784666
0.000000
0.268893
0.000000
0.716404
0.000000
0.017166
0.000000
0.736646
0.000000
0.112125
0.000000
0.416390
0.339834
0.693976
0.000000
0.304633
0.195302
0.000000
0.481408
1.231058
0.000000
0.000000
0.000000
2.134075
0.000000
0.000000
0.000000
0.000000
0.366356
1.569304
0.000000
0.000000
0.381164
0.000000
0.000000
1.018028
0.267027
0.760413
0.000000
0.000000
1.372972
0.000000
1.236908
0.000000
0.000000
1.197703
0.000000
0.053707
0.000000
0.219472
0.000000
1.631846
0.164373
0.271179
0.000000
0.000000
0.000000
0.000000
0.000000
1.063045
0.000000
0.205950
0.423544
0.530029
0.514268
0.148339
1.293346
0.000000
0.006591
1.607937
0.000000
0.147711
0.000000
0.000000
0.000000
1.681201
0.000000
0.155752
0.000000
0.000000
0.000000
0.294692
0.000000
0.906302
1.249238
0.000000
0.546143
0.070996
0.000000
0.388378
0.000000
0.000000
0.000000
0.755664
0.049638
0.000000
0.000000
0.223044
0.074504
0.540410
0.000000
0.000000
0.000000
1.156515
0.000000
0.000000
0.000000
0.000000
0.302212
1.145578
0.000000
0.000000
0.000000
0.143298
0.000000
0.595695
0.000000
0.295579
0.000000
0.000000
0.000000
0.257614
0.548355
0.000000
0.510307
0.000000
0.729624
0.000000
1.185986
0.000000
0.000000
0.490374
0.125200
0.468863
0.772387
0.000000
0.000000
0.021662
0.061881
0.000000
0.000000
0.000000
0.039267
0.422873
0.000000
0.362956
0.000000
0.476377
0.061636
0.574900
0.000000
0.000000
1.658957
0.000000
0.454568
0.063593
0.000000
0.000000
0.109926
0.000000
0.636395
0.000000
0.000000
1.060822
0.605597
0.202585
0.000000
0.000000
1.195033
0.046295
0.000000
0.000000
0.000000
0.000000
0.000000
0.288196
0.252501
0.975760
0.662986
0.960358
0.000000
0.000000
0.150602
0.572111
0.036279
0.393182
0.187026
0.000000
0.000000
0.000000
0.000000
0.000000
0.000000
0.000000
0.111044
0.241671
0.000000
0.000000
0.141608
0.012614
1.233417
0.195003
0.000000
0.008738
0.539591
1.462498
0.000000
1.236704
2.308812
0.000000
0.044388
0.000000
0.193370
0.000000
1.093315
0.276988
0.000000
0.000000
0.000000
0.000000
0.299947
1.185395
0.605231
0.239413
0.000000
0.000000
0.015804
0.000000
0.000000
0.542935
0.431631
0.894367
0.000000
1.258182
0.000000
1.301891
0.000000
0.000000
0.000000
0.000000
0.000000
0.000000
0.174792
0.076343
0.000000
0.653110
0.000000
1.100390
0.000000
0.381093
0.327179
0.189133
0.238535
0.000000
0.341014
0.000000
0.000000
1.125122
0.000000
0.000000
0.000000
0.240464
0.000000
0.000000
0.301085
1.250974
0.000000
1.114271
0.000000
0.132411
0.361323
1.008093
0.000000
0.046454
0.000000
0.000000
0.000000
1.391164
0.771014
0.485751
1.797833
0.771945
0.000000
0.000000
0.000000
0.174099
0.000000
0.000000
0.567286
0.000000
0.000000
0.530725
0.000000
0.000000
0.000000
0.007616
0.000000
0.000000
0.381028
0.000000
0.799383
0.000000
0.112738
0.000000
0.000000
0.000000
0.000000
0.007087
0.004053
0.442917
0.340762
0.000000
1.512768
0.000000
0.537835
