0.000000
1.299718
0.000000
0.287933
0.913101
0.151219
0.000000
1.907910
0.000000
0.196915
0.000000
1.419082
0.093795
0.000000
0.473642
0.000000
0.098394
1.260723
0.907622
0.000000
0.250561
0.128863
0.372494
0.000000
0.000000
1.346491
0.000000
0.179270
0.000000
0.000000
0.812227
0.000000
1.226704
0.000000
0.000000
2.477211
0.448195
0.000000
0.000000
0.654418
0.000000
0.733254
0.000000
0.000000
0.216057
0.000000
1.115791
0.000000
0.000000
0.000000
0.000000
0.063637
0.070607
0.000000
0.202974
0.725433
0.571617
0.000000
0.000000
0.098307
0.000000
2.608129
1.033935
2.288886
0.000000
0.000000
0.420675
0.874477
0.000000
0.000000
0.240091
0.510384
0.352814
0.099184
0.000000
1.350793
1.597306
0.000000
0.113256
0.024460
0.707482
0.780526
0.199589
1.940296
0.000000
0.000000
0.000000
0.000000
0.000000
0.000000
0.000000
1.148063
0.621218
0.000000
0.000000
0.115663
0.000000
0.270660
0.000000
0.000000
2.042996
0.000000
0.000000
0.577654
0.508009
0.000000
0.188606
0.000000
0.000000
0.000000
0.000000
0.298223
0.000000
3.313515
0.000000
0.505801
1.382133
1.128108
0.026503
0.000000
0.000000
0.000000
0.599593
0.270189
1.197296
0.000000
0.600171
0.849562
0.000000
0.193286
0.387407
0.000000
0.000000
0.000000
0.979086
0.000000
0.161733
0.000000
1.771800
0.000000
0.445002
0.000000
0.000000
2.313856
0.320371
1.562180
0.000000
1.198445
1.032724
0.000000
0.473652
0.005546
0.000000
0.239530
0.000000
0.000000
0.000000
0.000000
0.000000
0.041939
1.004718
0.660527
0.000000
0.024147
0.208564
1.022428
0.057683
0.998875
0.000000
0.000000
1.387951
0.779956
0.000000
0.762980
2.222680
0.000000
0.000000
2.703207
1.002372
0.730245
0.000000
0.000000
1.015089
0.067710
0.482749
0.000000
0.378202
0.821737
0.000000
0.000000
0.038705
0.684240
0.000000
0.000000
0.000000
0.313502
0.000000
0.531435
0.000000
0.000000
0.233088
0.000000
0.000000
0.747904
0.000000
0.457214
1.328293
0.000000
0.126694
1.836802
0.000000
0.000000
1.092169
0.000000
0.000000
0.000000
0.102505
0.000000
1.185747
0.000000
0.039041
0.328916
0.000000
1.243642
2.478790
1.122762
0.000000
0.000000
0.161297
0.494265
0.429030
0.000000
0.000000
0.000000
0.685013
1.396314
0.213344
0.000000
0.000000
0.404451
0.000000
0.324016
0.819064
0.000000
0.000000
0.460386
0.449287
0.273487
0.132647
0.000000
0.000000
1.286538
0.000000
0.000000
0.774045
0.000000
0.387934
0.000000
0.000000
0.000000
0.000000
0.000000
1.716149
0.267705
0.000000
0.000000
0.281484
0.000000
1.215174
0.658834
0.000000
0.000000
0.179834
0.000000
0.000000
0.000000
0.000000
0.121212
0.274299
1.006785
0.039234
0.400742
0.000000
0.000000
0.000000
0.000000
0.000000
0.000000
1.453506
0.000000
0.313606
0.190931
0.000000
0.144480
0.851269
0.000000
0.550551
0.000000
0.558195
0.133221
0.105117
0.000000
0.000000
1.396726
0.000000
0.020874
2.274074
0.124900
0.000000
0.531494
0.024887
0.000000
1.051001
0.007233
0.000000
0.000000
0.535595
2.830545
0.355039
0.453529
0.077988
0.000000
0.000000
0.000000
0.000000
2.177306
0.000000
0.242856
0.383386
0.000000
0.000000
0.127675
0.000000
0.180844
0.484657
0.000000
0.950180
0.485406
0.000000
0.000000
0.068835
0.146029
0.109278
0.000000
0.000000
0.000000
0.842867
2.025755
0.000000
1.171529
0.295728
0.000000
0.000000
0.000000
0.000000
0.000000
0.000000
0.000000
0.000000
0.185031
0.114352
0.530962
0.000000
0.000000
0.000000
0.000000
0.111519
0.649859
0.000000
0.000000
0.000000
0.000000
0.008803
0.000000
0.383148
0.620827
0.000000
0.000000
0.005254
0.000000
1.337385
0.051126
0.014443
0.000000
0.382673
0.942124
0.000000
0.000000
0.000000
0.365751
0.935054
0.000000
1.756813
0.000000
2.144199
2.414489
0.874148
0.000000
0.000000
0.000000
0.536411
1.100046
1.754978
0.393441
0.714906
0.000000
0.000000
0.296624
0.459478
0.000000
1.469231
0.760861
0.000000
0.111332
0.000000
0.167780
0.386949
0.000000
0.000000
0.000000
0.056932
0.000000
0.000000
0.000000
0.000000
0.000000
0.000000
0.000000
0.000000
0.141164
0.375366
0.794163
2.930283
0.000000
0.131348
0.487879
0.000000
0.158066
0.073724
0.000000
0.051169
0.221670
1.533155
0.000000
0.000000
0.501905
0.762017
0.000000
0.683111
0.000000
0.597919
0.177365
0.000000
0.000000
0.018854
0.000000
0.000000
0.000000
0.671324
0.000000
0.000000
0.000000
0.454297
0.688462
2.437880
0.000000
1.503036
2.474341
0.000000
0.378298
0.000000
0.000000
0.671084
1.386376
0.000000
0.356916
0.000000
0.270266
1.007089
1.494185
0.568248
0.000000
0.559956
0.317056
2.150120
1.001581
0.376984
1.563996
0.596798
0.000000
1.457735
0.270683
0.000000
0.000000
0.000000
0.000000
0.099782
0.000000
0.652522
1.271588
