0.855807
0.558116
0.695348
0.000000
0.000000
0.000000
0.395127
0.179002
0.227087
0.000000
1.384473
0.168277
0.000000
1.130445
0.895040
0.000000
0.151897
0.139749
0.000000
0.000000
0.000000
0.000000
0.259933
0.000000
0.092460
1.998291
0.458742
0.000000
0.000000
0.000000
0.041214
0.097969
0.000000
0.000000
0.000000
0.000000
0.000000
0.000000
0.791181
0.000000
0.000000
0.782705
0.048368
0.000000
0.379840
0.000000
0.000000
0.000000
0.561871
0.000000
0.000000
0.000000
0.427213
0.000000
0.000000
1.070866
1.939206
0.175307
0.966369
0.899097
0.000000
0.874756
1.464805
0.557521
0.000000
0.000000
0.409935
0.000000
0.127568
0.776151
0.370984
0.000000
0.052180
0.293847
0.000000
0.000000
0.070749
0.000000
0.000000
0.000000
0.000000
0.000000
1.126345
0.000000
0.000000
0.000000
0.465106
0.000000
0.183550
0.610095
0.000000
0.531332
0.556117
0.000000
0.667864
0.003170
0.000000
0.947203
0.000000
0.321305
0.144852
0.000000
0.000000
0.000000
1.610161
0.000000
0.530718
0.000000
0.309371
0.398760
0.099385
1.079699
0.000000
0.731530
0.000000
0.251023
0.142232
0.000000
1.619344
0.045418
0.000000
0.000000
0.032163
0.149676
0.000000
0.000000
0.025594
0.000000
0.000000
0.620968
0.659045
0.088492
0.379881
0.198619
0.000000
0.000000
0.000000
0.000000
1.890568
0.000000
0.000000
0.000000
0.391918
0.111739
0.000000
0.000000
0.000000
0.000000
0.258737
0.000000
0.400147
0.000000
0.221189
0.680812
0.000000
0.472410
1.341551
0.450438
0.000000
0.085926
0.000000
0.079182
0.000000
0.000000
0.000000
0.083744
0.000000
1.357018
0.000000
0.000000
0.117378
0.000000
0.000000
0.000000
0.000000
0.000000
0.029437
0.501133
0.111015
0.238421
0.508050
0.000000
0.000000
0.000000
0.295207
0.000000
0.720676
0.281174
0.458748
0.000000
1.189928
0.133788
0.940600
0.493218
0.131567
0.000000
0.000000
0.069279
0.000000
0.000000
0.030046
0.000000
0.000000
1.269820
0.665364
1.177180
1.433921
0.055785
2.011488
0.000000
0.000000
0.000000
0.000000
0.000000
0.000000
1.182702
0.478316
0.000000
0.000000
0.619330
0.000000
0.000000
0.071566
0.756250
0.000000
0.940921
0.000000
1.200488
0.108552
0.000000
0.423466
0.190386
0.000000
0.000000
0.493889
0.000000
1.072214
0.000000
0.225356
0.406673
1.848451
1.610506
0.382293
1.482211
0.000000
0.184434
0.000000
0.194924
0.945166
0.000000
0.000000
0.479735
0.373049
0.000000
1.013016
0.000000
0.123780
0.000000
0.000000
0.181483
0.411250
0.000000
0.563540
0.495495
0.373176
0.000000
0.000000
0.202134
0.000000
0.709454
0.057321
0.000000
0.000000
0.000000
1.160519
0.000000
0.205336
1.722827
0.102877
0.000000
0.000000
0.000000
0.000000
0.000000
0.988440
0.190578
0.000000
0.000000
1.253997
0.867610
0.147006
0.000000
0.000000
0.000000
0.000000
0.000000
1.121274
0.000000
0.000000
0.311614
0.554310
0.000000
0.000000
0.000000
0.000000
0.000000
1.338444
0.322142
0.000000
0.000000
0.140131
0.146056
0.000000
0.155811
0.000000
0.537542
0.260482
0.000000
0.000000
0.368354
0.368738
0.000000
1.473697
0.000000
0.207571
0.000000
0.000000
0.405960
0.000000
0.441936
0.000000
0.000000
0.408072
0.000000
0.163724
0.000000
0.658488
0.000000
0.000000
0.496333
0.000000
0.000000
0.000000
0.000000
0.000000
1.691092
0.000000
0.000000
0.676755
0.510359
1.153632
1.010167
0.000000
1.800828
0.000000
0.000000
0.869462
1.135394
0.000000
0.281639
0.401758
0.000000
0.044726
0.750181
1.212587
0.000000
1.662437
0.612385
0.000000
0.000000
0.000000
0.000000
0.000000
0.115478
0.000000
0.096516
0.633300
0.210009
0.765038
0.000000
0.221900
0.000000
0.109291
0.000000
0.158907
0.062253
1.015360
0.000000
0.687836
0.104699
0.664727
0.000000
0.000000
1.350207
0.000000
0.259584
0.208611
0.000000
0.000000
0.257434
0.664318
1.599091
0.000000
0.349111
0.000000
0.604732
0.439568
0.763541
1.602941
1.628861
0.000000
0.000000
0.000000
0.387404
0.614038
0.048917
0.000000
0.000000
0.481378
0.143256
0.000000
0.000000
0.000000
0.000000
1.234464
0.059379
0.956180
0.066901
0.000000
1.002100
0.630565
1.609542
2.684339
0.295495
0.000000
0.000000
0.074189
0.452271
0.134927
0.000000
0.117816
0.000000
0.253831
0.552510
0.526514
0.190421
0.000000
0.000000
0.000000
0.000000
0.000000
0.281126
0.000000
0.000000
0.840149
0.576145
0.192052
0.000000
0.000000
0.000000
0.000000
0.784402
0.819932
0.000000
1.366462
0.000000
0.000000
0.000000
0.000000
0.192087
0.422918
0.000000
0.000000
0.310664
0.000000
0.336778
0.293177
0.728534
0.537374
0.000000
0.192695
0.000000
0.000000
0.415320
0.299632
0.000000
0.255612
0.000000
1.141395
0.000000
0.000000
0.000000
0.000000
0.000000
0.000000
1.169028
0.594218
1.214940
0.699551
0.411158
