0.125353
0.000000
0.238035
0.000000
0.738008
0.271191
0.529914
0.000000
0.253842
0.553341
1.287586
0.000000
0.000000
0.000000
0.672396
0.358588
0.481468
0.201842
0.167301
0.028266
0.522463
0.000000
0.178559
0.185401
0.125343
0.000000
0.000000
0.309532
1.402207
0.000000
0.501869
0.195738
1.189645
0.411945
0.286364
0.129846
0.273359
0.000000
2.353060
0.000000
0.000000
0.156467
0.953116
1.012594
0.000000
0.000000
0.115546
0.630241
0.000000
0.000000
0.291768
0.000000
2.607504
0.334559
0.000000
0.000000
0.000000
0.000000
0.104393
0.148652
0.000000
1.427264
0.164615
0.901069
0.290689
0.000000
0.000000
0.000000
0.000000
0.523292
0.056385
0.000000
0.199736
0.514581
0.000000
0.772085
0.551590
1.121163
0.000000
0.348481
0.000000
0.000000
0.000000
0.420026
0.000000
0.000000
0.346223
0.000000
0.736780
0.000000
0.000000
0.913523
0.077173
0.000000
0.081494
0.921224
0.000000
0.376908
0.000000
0.117732
0.000000
0.000000
0.477236
0.000000
0.877334
0.000000
0.000000
0.439425
0.000000
0.000000
0.000000
0.050624
0.000000
0.397089
0.230553
0.425660
0.000000
0.060040
0.246154
0.000000
0.000000
0.187636
0.000000
0.614808
1.104519
0.001964
0.000000
0.000000
0.570534
0.472448
0.000000
0.524883
0.000000
0.000000
0.460164
0.000000
0.882976
0.409448
2.605297
0.181922
0.000000
0.000000
0.000000
0.000000
0.233544
0.355385
0.000000
1.312895
0.213616
0.000000
0.000000
0.000000
0.000000
0.449102
0.000000
0.494054
0.000000
1.298230
0.000000
0.890252
0.000000
0.162241
0.000000
0.640719
0.000000
0.362630
0.218896
0.000000
0.000000
0.000000
0.000000
0.449554
0.000000
0.472672
1.083819
0.406490
0.000000
1.233022
0.345436
0.121841
1.086074
0.000000
0.540773
0.004308
0.000000
0.283634
0.000000
0.000000
0.355169
1.557787
0.000000
0.096446
0.000000
0.000000
0.000000
0.000000
0.488228
0.155089
0.458850
0.000000
0.000000
0.000000
0.337762
0.000000
1.724157
0.000000
0.838584
0.000000
0.000000
0.829623
0.000000
0.000000
0.000000
2.048163
0.021705
0.000000
0.000000
0.313532
0.000000
0.401461
0.525953
0.162656
0.000000
0.569815
0.000000
0.754011
0.482550
1.897277
0.000000
0.036450
0.670795
0.000000
0.000000
0.671834
0.348922
0.000000
0.000000
0.419550
0.555328
0.783639
0.000000
0.365334
0.303250
0.256173
0.000000
0.687964
0.000000
0.000000
1.186233
0.000000
0.473747
0.240107
0.845922
0.000000
1.607743
0.000000
0.301309
0.000000
0.000000
0.000000
0.216581
0.000000
0.000000
0.000000
1.139704
0.000000
0.342973
1.221979
0.673476
1.016240
0.000000
0.017111
0.000000
0.000000
0.000000
0.114204
0.000000
0.000000
1.090508
0.000000
0.405196
0.000000
0.812616
0.139794
0.890338
0.000000
0.208996
0.000000
2.750775
1.424156
1.231160
0.389389
0.000000
0.000000
0.000000
0.015936
0.629102
0.000000
0.000000
0.131749
0.000000
0.000000
0.000000
0.675109
0.000000
0.000000
0.127953
0.000000
0.009269
0.000000
0.850913
0.000000
0.258462
0.000000
0.083470
0.000000
0.045926
0.914152
0.264542
0.053024
0.503601
0.000000
0.786523
0.000000
0.882012
0.000000
0.000000
0.000000
0.394293
0.000000
0.076002
0.202182
0.959543
0.000000
0.000000
0.000000
0.084731
0.000000
0.236608
0.000000
0.000000
0.000000
0.098409
0.000000
0.000000
0.158903
0.018338
0.483977
0.000000
0.000000
0.086276
0.350371
0.000000
0.416320
0.000000
0.000000
0.000000
0.793692
0.000000
0.000000
0.344866
0.818652
0.000000
0.000000
0.000000
0.000000
0.000000
0.007147
0.000000
0.417451
0.000000
0.550287
0.000000
0.446573
0.000000
0.050473
0.000000
0.515890
0.347088
0.000000
0.642614
0.000000
0.000000
0.307934
0.000000
0.000000
0.741090
0.000000
0.831109
0.000000
0.489247
0.000000
0.432240
0.000000
0.000000
0.408329
0.000000
0.351344
0.000000
0.000000
0.122978
0.376742
0.370883
0.000000
0.000000
0.000000
1.461776
0.203174
0.000000
0.000000
1.158089
0.000000
0.000000
0.121241
0.556240
0.419785
0.007515
0.000000
0.000000
0.000000
0.000000
0.000000
0.000000
0.382659
0.000000
0.511588
0.000000
0.044256
0.919564
0.000000
0.000000
0.000000
0.000000
0.000000
0.000000
0.000000
0.382739
0.000000
0.000000
0.689616
0.000000
0.796457
0.000000
0.000000
0.259808
0.000000
0.000000
0.000000
0.727241
0.000000
0.852205
0.000000
0.324161
0.000000
0.845760
1.885792
0.427901
0.006560
0.000000
0.000000
0.004440
1.073551
0.000000
0.000000
0.000000
0.000000
0.792223
0.762083
0.000000
0.091859
0.000000
0.000000
0.713342
1.087782
0.079553
0.549914
0.000000
0.000000
0.000000
0.404684
0.199957
0.000000
0.000000
1.380968
0.000000
0.169602
0.000000
0.447857
0.000000
0.579767
0.585573
0.000000
0.000000
0.000000
0.523041
0.000000
1.657707
0.946269
0.307675
0.166960
