0.036546
0.692611
0.033822
0.035971
0.000000
0.000000
0.000000
0.230635
0.305581
0.000000
1.323851
0.000000
0.000000
0.296016
0.000000
0.000000
0.605437
0.157311
0.000000
0.000000
0.320551
0.000000
0.330511
0.553752
0.000000
0.000000
0.441373
0.191969
0.618105
0.000000
0.256191
0.227238
1.387151
0.000000
0.000000
0.000000
0.000000
0.938136
0.824158
0.000000
1.038738
0.402335
0.703980
0.046882
0.000000
0.041457
0.311172
0.580099
0.039056
0.478503
0.621450
0.000000
0.508641
0.335965
0.000000
0.683499
0.000000
0.000000
0.295406
0.250495
0.000000
0.899619
0.000000
0.000000
0.000000
0.000000
0.000000
0.047474
0.290310
0.000000
0.521682
0.008871
0.000000
0.158156
0.512046
0.669681
0.052296
0.969038
0.000000
0.825596
0.442133
0.000000
0.000000
0.604180
0.387462
0.308261
0.864801
0.817844
0.000000
0.000000
0.000000
0.000000
0.131877
0.740838
1.580322
0.060280
0.000000
0.013895
0.000000
0.069335
0.000000
0.000000
1.088554
0.279207
0.000000
0.000000
0.183073
0.307061
0.000000
0.330478
0.000000
0.500919
0.000000
0.000000
0.000000
0.443175
0.000000
0.000000
0.000000
0.000000
0.059414
0.000000
0.581018
0.675886
0.229501
0.094444
0.000000
0.000000
0.063087
0.000000
0.000000
0.343982
0.000000
0.000000
0.000000
0.574863
1.122858
0.786897
0.319846
0.000000
0.000000
0.000000
0.000000
0.057767
0.000000
0.186889
0.000000
0.942693
0.000000
1.728273
0.284934
0.246787
0.000000
0.000000
0.000000
0.579519
0.687598
0.000000
0.092386
0.000000
0.000000
0.000000
0.056664
0.000000
0.000000
0.000000
0.970090
0.000000
0.000000
0.041703
0.239971
0.165110
1.187305
0.000000
0.000000
0.346395
0.000000
0.000000
0.196602
0.000000
0.117039
0.000000
0.050725
0.000000
0.162932
0.121404
0.000000
0.290736
0.061367
0.096209
0.228642
1.033068
0.000000
0.074745
0.000000
0.025625
0.000000
0.422961
0.000000
0.000000
0.161778
0.765002
0.489728
0.365908
0.691090
0.309184
0.000000
0.464601
0.000000
0.013197
0.016329
0.030499
0.000000
2.026045
0.000000
0.000000
0.000000
0.000000
0.000000
0.000000
0.757718
0.000000
0.000000
0.315642
0.000000
0.067707
0.186628
0.453133
0.142215
0.232624
0.000000
1.263084
0.000000
0.000000
0.795933
0.000000
0.000000
0.000000
0.000000
0.000000
0.000000
0.000000
0.000000
0.000000
2.589809
0.361728
0.000000
0.000000
0.000000
1.192058
0.303828
0.000000
0.185728
0.000000
0.766898
0.338519
0.000000
0.533730
0.023324
0.605393
0.206944
0.000000
0.013808
0.018958
0.000000
0.000000
0.101709
0.268369
0.000000
0.000000
0.206481
0.106314
0.000000
0.041533
0.000000
0.358514
0.311060
0.203241
0.949726
0.000000
0.280535
0.000000
0.000000
0.644246
0.392888
0.000000
0.000000
0.807248
1.045045
0.289817
0.000000
0.087569
0.000000
0.000000
0.000000
0.000000
0.061661
0.001678
0.000000
0.436830
0.504029
0.112256
0.040669
0.296909
0.884650
0.000000
0.124256
0.596598
0.000000
0.000000
0.000000
0.000000
0.151922
0.018924
1.017723
0.000000
0.000000
0.130211
0.053939
0.383102
0.000000
0.000000
0.168901
0.000000
0.236712
0.000000
0.000000
0.000000
0.005757
0.000000
0.076504
0.000000
0.262554
0.211526
0.367148
0.665225
0.000000
0.000000
1.223473
0.000000
0.000000
0.000000
0.094359
0.304612
0.000000
0.000000
0.000000
0.000000
0.000000
0.000000
0.215455
0.214716
0.000000
0.000000
0.000000
0.000000
0.406498
0.000000
0.000000
0.000000
0.066055
0.662607
0.000000
0.488091
0.000000
0.010009
0.000000
0.000000
1.188576
0.496945
0.000000
0.508508
0.000000
0.000000
0.003395
0.000000
0.127623
0.000000
0.000000
0.000000
0.432423
0.000000
0.000000
0.690822
0.000000
0.000000
0.000406
0.604325
0.000000
0.633330
0.000000
0.000000
0.000000
0.000000
0.000000
0.032974
0.000000
0.409971
0.000000
0.635877
0.000000
0.000000
0.000000
0.000000
0.000000
0.000000
0.000000
0.000000
0.262127
0.109733
0.723454
0.855107
0.000000
0.000000
0.811430
0.000000
0.177829
0.057433
0.000000
0.320058
0.000000
0.068686
0.648143
0.206094
0.000000
0.993042
0.252762
0.287603
0.000000
0.204900
0.000000
0.000000
0.040112
0.000000
0.000000
0.000000
0.335926
0.414815
0.000000
0.000000
0.000000
0.594685
0.000000
0.097163
0.294712
0.026048
0.000000
0.032093
0.143370
0.093253
0.000000
0.000000
0.000000
0.255426
0.696586
1.001433
0.422287
0.000000
0.000000
0.000000
0.760850
0.703576
0.000000
0.000000
0.057336
0.000000
0.151280
0.296100
0.000000
0.000000
0.000000
0.127075
0.145173
0.562023
0.000000
0.000000
0.250428
0.000000
0.000000
0.000000
0.000000
0.000000
0.000000
0.011085
0.000000
0.000000
0.261903
0.111170
0.000000
0.022382
0.000000
0.677101
0.000000
0.000000
0.041800
0.010443
0.019277
0.000000
0.000000
0.426990
