0.000000
0.337344
0.707834
0.114790
0.577927
0.000000
0.000000
1.356175
0.429046
0.288080
0.000000
0.000000
0.000000
0.318813
0.176278
0.000000
0.265735
0.585653
0.301124
0.000000
0.582800
0.000000
0.085240
0.000000
0.000000
0.725031
0.000000
0.474024
0.016973
0.117290
0.439295
0.000000
0.886497
0.000000
0.000000
0.365868
0.211164
0.000000
1.006716
0.397911
0.000000
0.000000
0.000000
0.000000
0.000000
0.000000
0.647057
0.393323
0.301353
0.000000
0.126920
0.000000
1.074745
0.000000
0.000000
0.289520
0.116059
0.000000
0.000000
0.322986
0.000000
1.212669
0.439547
1.323390
0.266369
0.000000
0.000000
0.425226
0.000000
0.000000
0.214936
0.000000
0.202221
0.000000
0.000000
0.360448
1.143352
0.000000
0.000000
0.000000
0.000000
0.972291
0.000000
0.871563
0.000000
0.000000
0.000000
0.000000
0.000000
0.119843
0.000000
0.642980
0.694379
0.000000
0.000000
0.000000
0.000000
0.327444
0.000000
0.000000
0.890566
0.000000
0.000000
0.000000
1.004434
0.000000
0.000000
0.000000
0.000000
0.000000
0.050809
0.000000
0.000000
2.221859
0.000000
0.118723
0.741942
1.269784
0.000000
0.309245
0.000000
0.000000
0.000000
0.957863
1.621964
0.098630
0.959554
0.000000
0.000000
0.724980
0.000000
0.461851
0.000000
0.000000
1.361932
0.000000
0.000000
0.232948
1.431167
0.000000
0.143517
0.000000
0.000000
1.199968
0.448418
0.849750
0.075892
0.720260
0.905875
0.000000
0.039209
0.165438
0.000000
0.000000
0.000000
0.000000
0.381910
0.000000
0.000000
0.500150
0.704894
0.015148
0.000000
0.086228
0.197061
1.637345
0.340019
0.000000
0.000000
0.000000
0.499252
0.767064
0.000000
0.774322
1.752526
0.000000
0.000000
2.399140
0.437706
0.000000
0.000000
0.000000
0.470870
0.026313
0.032099
0.000000
0.000000
0.526807
0.000000
0.203198
0.000000
0.000000
0.024482
0.000000
0.000000
0.000000
0.000000
0.000000
0.116286
0.000000
0.000000
0.107090
0.000000
0.291565
0.000000
0.000000
1.368962
0.000000
0.000000
1.242860
0.000000
0.000000
1.163684
0.424091
0.307712
0.417087
0.000000
0.193843
0.812271
0.000000
0.122956
1.128596
1.010486
0.810959
1.284040
0.972977
0.000000
0.392071
0.000000
0.117898
0.809833
0.644363
0.020054
0.083278
0.052730
1.018247
0.667279
0.000000
0.000000
0.000000
0.000000
0.000000
0.286883
0.207186
0.000000
0.320052
0.029311
0.167332
0.000000
0.172414
0.000000
1.248276
0.119233
0.000000
0.729091
0.000000
0.000000
0.000000
0.000000
0.000000
0.000000
0.000000
0.848764
0.007613
0.000000
0.000000
0.000000
0.000000
0.898973
0.000000
0.000000
0.000000
0.165299
0.013119
0.289551
0.000000
0.000000
0.534529
2.083626
0.916400
0.000000
0.170535
0.000000
0.000000
0.000000
0.000000
0.000000
0.000000
1.171407
0.055369
0.000000
0.000000
0.000000
0.000000
0.664971
0.000000
0.000000
0.000000
0.902101
0.101448
0.000000
0.000000
0.233206
0.907698
0.000000
0.000000
1.622663
0.000000
0.000000
0.398490
0.000000
0.000000
0.722904
0.453536
0.000000
0.000000
0.169544
1.618831
0.467296
0.080044
0.000000
0.000000
0.361722
0.000000
0.000000
1.129117
0.000000
0.342561
0.173145
0.000000
0.354257
0.052253
0.533961
0.088146
0.082456
0.045699
0.291069
0.903174
0.000000
0.000000
0.000000
0.000000
0.000000
0.012057
0.000000
0.000000
0.498642
1.051090
0.000000
1.194959
0.000000
0.562816
0.000000
0.000000
0.000000
0.000000
0.000000
0.000000
0.000000
0.000000
0.000000
0.000000
0.000000
0.000000
0.000000
0.092786
0.000000
0.000000
0.000000
0.000000
0.190147
0.305482
0.000000
0.000000
0.332726
0.366232
0.000000
0.000000
0.137437
0.702176
0.639872
0.000000
0.220811
0.142319
0.000000
1.160949
0.000000
0.000000
0.000000
0.091122
0.870516
0.000000
1.576695
0.000000
2.229967
1.628495
0.303011
0.412077
0.000000
0.000000
0.126153
0.000000
1.119363
0.231752
0.230610
0.000000
0.000000
0.361166
0.541216
0.248510
0.751175
0.284575
0.000000
0.573935
0.024232
0.396194
0.008226
0.000000
0.284121
0.000000
0.479792
0.000000
0.000000
0.000000
0.127633
0.000000
0.492497
0.000000
0.000000
0.000000
0.448406
0.042999
2.956850
0.000000
0.091949
0.960665
0.000000
0.224575
0.000000
0.000000
0.000000
0.000000
0.012374
0.331763
0.000000
0.317884
0.000000
0.000000
0.122839
0.000000
0.910168
0.000000
0.877583
0.000000
0.000000
0.000000
0.341884
0.000000
0.221000
0.119530
0.089546
0.000000
0.000000
0.200820
1.589619
0.367953
1.070298
1.411250
0.000000
0.166851
0.154643
0.000000
0.874941
0.301426
0.000000
0.739933
0.367218
0.000000
0.000000
1.318907
0.000000
0.000000
0.199586
0.617919
1.265426
0.639031
0.141126
1.113326
0.044370
0.000000
1.282031
0.000000
0.000000
0.000000
0.000000
0.000000
0.000000
0.000000
0.026328
1.520567
