0.000000
0.998751
0.043158
0.000000
0.878417
0.000000
0.401559
0.000000
0.000000
0.000000
0.000000
0.000000
0.000000
0.000000
0.510833
0.000000
0.000000
0.000000
0.000000
0.000000
0.055211
0.000000
0.507721
0.000000
0.000000
0.000000
0.000000
0.071002
0.531526
0.000000
0.269361
0.261627
0.969509
0.000000
0.000000
0.000000
0.000000
0.000000
1.172850
0.000000
0.000000
1.070462
0.000000
0.000000
0.000000
0.000000
1.801909
0.803710
0.000000
0.000000
0.030682
0.000000
0.907887
0.000000
0.000000
0.000000
1.564925
0.000000
0.000000
0.158853
0.000000
0.944735
0.000000
0.913629
0.641689
0.000000
0.000000
0.000000
0.000000
0.181489
0.485079
0.000000
0.197486
0.288786
0.113727
0.000000
0.000000
0.000000
0.000000
0.000000
0.000000
0.000000
0.983100
0.000000
0.000000
0.056851
0.149158
0.000000
0.000000
0.717419
0.000000
0.452180
0.900242
0.000000
0.000000
0.228624
0.000000
0.176375
0.000000
0.300092
0.000000
0.000000
0.132124
0.000000
1.179094
0.021365
0.000000
0.634437
0.000000
0.000000
0.000000
0.000000
0.000000
1.059341
0.206097
1.028695
0.337276
0.248615
0.000000
0.223864
0.182697
0.625380
0.281329
1.410421
1.094811
0.061351
0.448949
0.000000
0.484413
0.657532
0.000000
0.709949
0.000000
0.058308
0.595191
0.000000
0.690391
0.497167
2.191032
0.061005
0.000000
0.000000
0.344398
0.913056
0.739952
1.305386
0.039146
0.000000
0.086614
0.048253
0.000000
0.000000
0.000000
0.000000
0.000000
0.039628
0.000000
0.105328
0.069700
0.000000
0.111847
0.000000
0.361128
1.539771
0.505844
1.716145
0.000000
0.342439
1.248329
0.156395
0.000000
0.731483
0.000000
0.313005
0.524175
0.000000
0.000000
0.951226
0.000000
0.000000
0.999168
0.000000
0.000000
0.000000
0.000000
0.018359
0.078772
0.000000
0.000000
0.220612
0.000000
0.000000
0.000000
0.666513
0.000000
0.000000
0.000000
0.481711
0.000000
0.000000
0.000000
0.146503
0.408886
2.041670
0.280022
1.105580
1.492278
0.000000
1.550103
0.000000
0.000000
0.000000
0.000000
0.821026
0.000000
0.198237
0.000000
0.000000
0.000000
0.443266
1.267023
0.405460
0.000000
0.000000
0.572181
1.162876
0.029828
0.957188
0.000000
0.000000
0.909389
0.410759
0.000000
1.529330
0.000000
0.340207
0.000000
0.024562
0.039907
0.480332
1.601710
0.088727
0.437817
0.704601
0.242745
0.378491
0.000000
0.529254
0.979208
0.000000
0.000000
0.630710
0.227759
0.000000
0.662233
0.000000
0.257818
0.000000
0.549704
0.132820
0.000000
0.599310
0.960737
0.000000
0.000000
0.000000
0.000000
1.448860
0.142832
0.593917
1.999959
0.000000
0.000000
0.049886
0.732595
0.000000
0.000000
0.210429
1.901079
0.117085
0.201004
0.092716
1.787503
0.000000
0.321357
0.000000
0.489788
0.000000
1.399849
0.104385
0.000000
0.022191
0.000858
0.000000
0.731951
0.000000
0.150936
0.000000
0.647474
0.000000
0.089492
0.000000
0.034543
0.046266
0.000000
0.232290
0.781374
0.000000
0.990247
0.130700
0.150063
0.381760
0.262776
0.898755
0.000000
0.000000
0.000000
0.000000
1.114179
0.000000
0.000000
0.000000
0.410265
0.125602
0.653437
0.176466
0.100289
1.044471
0.000000
0.433867
0.000000
0.000000
0.892792
0.552420
0.000000
0.266751
0.000000
0.996597
0.045500
0.311422
0.077446
0.000000
0.000000
0.000000
0.015679
0.661261
0.000000
0.000000
0.000000
1.173881
0.000000
1.071011
0.000000
0.000000
0.000000
0.000000
0.000000
0.000000
0.000000
0.143423
0.757978
0.429946
0.000000
0.244159
0.000000
0.000000
0.000000
0.118548
0.000000
0.000000
0.000000
0.000000
0.000000
0.000000
0.031150
0.000000
1.351581
0.000000
0.222797
0.000000
0.455968
0.000000
0.000000
0.408126
0.120572
0.283469
1.300108
0.000000
0.000000
0.185495
0.000000
0.000000
1.407176
0.000000
0.297946
1.499611
0.156125
0.249703
0.000000
0.000000
0.000000
0.000000
0.000000
0.411855
0.000000
0.134527
0.129573
0.329808
0.139745
0.000000
0.996345
0.000000
0.000000
0.434368
0.000000
0.007309
0.000000
0.000000
0.000000
0.000000
0.272922
0.000000
0.000000
0.211565
0.012580
0.000000
0.000000
0.228577
0.000000
0.000000
0.000000
0.000000
0.000000
0.803855
0.000000
0.000000
0.021042
0.727713
0.048189
0.000000
0.000000
0.000000
0.000000
0.000000
1.272732
0.599433
0.000000
0.000000
0.000000
0.000000
0.538541
0.068511
0.215736
0.000000
0.826532
0.656595
0.303943
0.000000
0.000000
0.000000
1.523118
0.000000
0.588263
0.184443
1.616971
1.560432
0.025673
0.124818
0.000000
0.241060
0.000000
0.000000
0.000000
0.732672
0.163008
0.751532
0.000000
0.000000
0.000000
0.549898
0.000000
0.000000
0.069543
0.820413
1.092760
0.000000
0.000000
0.000000
0.000000
0.102005
0.215994
0.000000
0.000000
0.074469
0.000000
0.000000
0.000000
0.448257
0.016311
0.443263
