0.000000
0.040816
0.558563
0.000000
0.000000
0.000000
0.861417
0.000000
0.754541
0.802582
0.000000
0.000000
0.000000
0.749152
1.091480
0.000000
0.000000
0.000000
0.041324
0.043655
0.000000
0.003770
0.372393
0.000000
0.193413
0.000000
0.000000
0.230617
0.805063
0.000000
0.069841
0.413394
0.193781
0.000000
0.025687
0.000000
0.000000
0.000000
1.779722
0.000000
0.000000
1.231482
0.000000
0.000000
0.000000
0.000000
1.035091
0.010338
0.000000
0.000000
0.000000
0.000000
1.764201
0.000000
0.000000
0.000000
0.526118
0.000000
0.000000
0.045347
0.000000
0.000000
0.000000
0.694681
0.951234
0.000000
0.000000
0.000000
0.000000
0.000000
0.214402
0.102834
0.402242
0.000000
0.000000
0.000000
0.000000
0.068341
0.000000
0.000000
0.000000
0.000000
0.000000
0.000000
0.000000
0.000000
0.245502
0.311307
0.000000
0.000000
0.064338
0.675623
0.311391
0.085436
0.000000
0.000000
0.000000
0.309626
0.000000
0.446943
0.000000
0.153419
0.000000
0.000000
0.708597
0.000000
0.108615
0.294442
0.000000
0.000000
0.058049
0.886074
0.000000
0.838745
0.000000
0.620598
0.000000
0.000000
0.000000
0.000000
0.000000
0.804371
0.590833
0.000000
0.000000
0.545656
0.000000
0.000000
0.427844
0.817264
0.005416
0.970879
0.000000
0.181157
1.387811
0.000000
1.539152
0.000000
2.244978
0.085963
0.000000
0.000000
0.677230
0.000000
0.060531
0.000000
0.000000
0.000000
0.373581
1.274139
0.220753
0.000000
0.000000
0.000000
0.000000
0.000000
0.344088
0.000000
0.000000
0.000000
0.000000
0.000000
0.000000
0.901080
0.256161
1.037924
0.000000
0.848978
0.000000
0.000000
0.000000
0.000000
0.000000
0.171112
0.000000
1.026503
0.000000
0.486866
0.240712
0.000000
1.194411
0.000000
0.000000
0.000000
0.273169
0.000000
0.482794
0.000000
0.895328
0.404443
0.000000
0.000000
0.000000
0.781901
0.159381
0.000000
0.137143
0.678591
0.501080
0.000000
0.163074
0.081898
0.000000
0.070826
0.000000
1.054633
0.889428
0.000000
2.752963
0.000000
0.000000
0.000000
0.000000
0.074873
0.045849
0.666682
0.000000
0.142779
0.000000
0.074107
2.289951
0.546252
0.000000
0.006781
0.000000
0.895831
0.000000
1.702552
0.000000
0.567484
1.741501
1.308264
0.000000
1.069713
0.000000
0.000000
0.174566
0.034842
0.000000
0.815763
0.308748
0.000000
0.781448
0.864510
0.000000
0.000000
0.000000
0.000000
1.305856
0.000000
0.000000
0.594655
0.919650
0.000000
0.165862
0.136004
0.283516
0.000000
0.000000
0.000000
0.000000
0.604071
0.092913
0.000000
0.000000
0.022137
0.000000
0.816738
0.415989
1.014306
0.000000
0.007584
0.000000
0.000000
0.223754
0.190396
0.000000
0.000000
1.577245
0.000000
0.000000
0.000000
2.062353
0.373177
0.000000
0.000000
0.883094
0.000000
1.029697
0.269282
0.106012
0.105433
0.919621
0.000000
0.000000
0.121096
0.000000
0.000000
0.000000
0.000000
0.271420
0.035685
0.908170
0.087613
0.000000
0.000000
0.656265
0.471963
0.000000
0.000000
0.814617
0.000000
0.000000
0.000000
0.000000
0.290730
0.000000
0.000000
0.000000
0.000000
0.000000
0.000000
0.957315
0.239319
1.124065
0.000000
0.219229
1.667372
0.000000
0.333380
0.000000
0.136383
0.642529
0.054233
0.186362
0.000000
0.167072
0.068369
0.000000
0.178045
0.000000
0.000000
0.000000
0.000000
0.000000
0.286027
0.000000
0.000000
0.295119
0.672689
0.000000
1.119288
0.258626
0.000000
0.000000
0.065114
0.000000
0.427822
0.000000
0.000000
0.748477
0.000000
0.000000
0.907504
1.253976
0.000000
0.000000
0.134890
0.195573
0.000000
0.250746
0.000000
0.000000
0.342527
0.000000
0.000000
0.000000
0.770502
0.804840
0.999020
0.342303
0.000000
0.059563
0.449864
0.077156
0.514832
1.594309
0.582719
0.000000
0.209813
0.000000
0.000000
0.237636
0.769536
0.000000
1.025433
0.000000
0.297748
0.000000
0.572254
0.000000
0.000000
0.000000
0.000000
0.000000
0.164368
1.415987
1.066815
0.000000
0.000000
0.000000
0.000000
0.000000
0.530507
0.150941
0.455708
0.000000
0.000000
0.000000
0.000000
0.015028
0.000000
0.260485
0.000000
0.291994
0.000000
0.000000
0.000000
0.636720
0.000000
0.000000
0.957807
0.139662
0.660418
0.022823
0.000000
0.000000
0.338694
0.000000
0.715490
0.000000
0.000000
0.138845
0.565848
0.264897
0.592625
0.000000
0.000000
0.000000
0.000000
2.765505
0.813619
1.287861
0.455292
1.478335
0.000000
0.058980
0.083050
0.000000
0.161515
0.525296
0.000000
0.597441
0.000000
0.335157
0.612184
0.055821
0.000000
0.000000
0.617384
0.517379
0.000000
0.000000
0.512570
0.000000
0.114362
0.312385
0.000000
0.000000
0.894957
0.000000
0.000000
0.298220
0.841975
1.292263
0.000000
0.000000
0.008606
0.000000
1.501864
0.000000
0.000000
0.000000
0.394712
0.310233
0.000000
0.549226
0.504016
2.080858
0.414853
