0.000000
0.495002
0.045332
0.000000
0.011265
0.000000
0.000000
0.575893
0.292624
0.000000
1.094798
0.000000
0.000000
0.407627
0.000000
0.000000
0.468257
0.190500
0.000000
0.000000
0.537893
0.000000
0.529400
0.407578
0.000000
0.000000
0.000000
0.480347
0.701129
0.000000
0.313296
0.037006
1.524118
0.000000
0.000000
0.000000
0.000000
0.486025
1.077629
0.000000
0.805545
0.546112
0.410534
0.000000
0.000000
0.077509
0.904638
0.460266
0.211090
0.701744
0.561854
0.000000
0.684028
0.491360
0.000000
0.562109
0.000000
0.000000
0.000000
0.274400
0.000000
1.225963
0.241964
0.375856
0.000000
0.000000
0.000000
0.070406
0.183600
0.109220
0.848082
0.027902
0.063463
0.141160
0.489671
0.548185
0.000000
1.352282
0.000000
0.838975
0.264036
0.000000
0.000000
0.679419
0.620461
0.373994
0.925568
0.601089
0.000000
0.000000
0.000000
0.000000
0.264904
0.253504
1.274215
0.000000
0.000000
0.242982
0.000000
0.098502
0.000000
0.000000
0.843789
0.022058
0.283878
0.000000
0.000000
0.449018
0.119381
0.000000
0.000000
0.520029
0.000000
0.149312
0.000000
0.463188
0.128347
0.658613
0.000000
0.045763
0.100638
0.000000
0.662038
0.595985
0.207372
0.080467
0.000000
0.000000
0.000000
0.000000
0.000000
0.636596
0.000000
0.000000
0.000000
0.360353
1.477745
0.756394
0.498393
0.000000
0.000000
0.000000
0.000000
0.241967
0.000000
0.000000
0.024279
0.838534
0.000000
1.857524
0.520773
0.656534
0.000000
0.000000
0.000000
0.590286
0.848325
0.000000
0.002357
0.000000
0.034435
0.000000
0.000000
0.000000
0.000000
0.192899
1.213690
0.000000
0.000000
0.000000
0.259975
0.000000
1.187270
0.051489
0.179767
0.501782
0.000000
0.368626
0.138520
0.000000
0.185367
0.000000
0.009785
0.019197
0.072879
0.068804
0.000000
0.141222
0.003303
0.416404
0.249966
1.034891
0.000000
0.000000
0.000000
0.118087
0.000000
0.453571
0.000000
0.000000
0.136494
0.615939
0.333812
0.025499
0.570648
0.365025
0.150304
0.261410
0.000000
0.000000
0.010456
0.000000
0.000000
2.132727
0.088016
0.083249
0.000000
0.071728
0.187509
0.000000
1.095145
0.387458
0.000000
0.738598
0.000000
0.000000
0.000000
0.569180
0.151379
0.467307
0.000000
1.867526
0.000000
0.000000
0.651028
0.000000
0.108503
0.000000
0.000000
0.000000
0.000000
0.000000
0.299158
0.000000
2.588550
0.383487
0.000000
0.000000
0.000000
1.031726
0.072007
0.000000
0.351667
0.000000
0.980458
0.594798
0.000000
0.043005
0.000998
0.842511
0.000000
0.000000
0.000000
0.000000
0.000000
0.000000
0.201012
0.324204
0.000000
0.000000
0.000000
0.146993
0.000000
0.036617
0.000000
0.129880
0.362357
0.386210
1.565013
0.000000
0.136406
0.000000
0.000000
0.378532
0.555449
0.000000
0.000000
0.573041
1.231973
0.372269
0.000000
0.196627
0.000000
0.000000
0.000000
0.000000
0.514619
0.000000
0.000000
0.471787
0.680509
0.087871
0.065407
0.400295
0.771766
0.000000
0.473671
0.700178
0.000000
0.000000
0.000000
0.000000
0.042150
0.000000
1.200651
0.000000
0.000000
0.000000
0.181157
0.239838
0.000000
0.000000
0.367954
0.000000
0.256337
0.000000
0.000000
0.000000
0.000000
0.000000
0.134888
0.000000
0.269942
0.497054
0.496736
0.430643
0.112734
0.000000
1.230231
0.000000
0.000000
0.077800
0.100781
0.438702
0.000000
0.544072
0.102391
0.104716
0.000000
0.027590
0.000000
0.384045
0.000000
0.028010
0.000000
0.000000
0.000897
0.037880
0.000000
0.000000
0.000000
0.827501
0.000000
0.394809
0.000000
0.000000
0.000000
0.083643
1.420732
0.435074
0.000000
0.444305
0.000000
0.000000
0.168348
0.000000
0.000000
0.000000
0.000000
0.237494
0.386955
0.000000
0.000000
1.046309
0.000000
0.000000
0.000000
0.413306
0.000000
0.478530
0.028155
0.000000
0.122454
0.000000
0.000000
0.410704
0.000000
0.607365
0.000000
0.453294
0.000000
0.000000
0.000000
0.000000
0.000000
0.495596
0.000000
0.144429
0.282943
0.000000
0.713253
0.809661
0.000000
0.136700
0.280918
0.000000
0.219997
0.000000
0.000000
0.000000
0.000000
0.000000
0.540347
0.145796
0.000000
0.966200
0.113852
0.339436
0.000000
0.530190
0.000000
0.000000
0.265343
0.000000
0.000000
0.000000
0.319952
0.571379
0.022762
0.000000
0.000000
0.319796
0.047370
0.352528
0.312857
0.243128
0.000000
0.066834
0.000000
0.000000
0.000000
0.000000
0.045120
0.000000
0.395737
0.772605
0.520760
0.000000
0.000000
0.000000
0.903324
0.482512
0.000000
0.000000
0.264917
0.000000
0.107809
0.386465
0.000000
0.000000
0.011101
0.000000
0.000000
0.373138
0.000000
0.000000
0.281199
0.000000
0.000000
0.000000
0.000000
0.000000
0.000000
0.492722
0.423899
0.000000
0.538990
0.000000
0.000000
0.034013
0.017706
0.873988
0.000000
0.036467
0.000000
0.000000
0.317145
0.000000
0.000000
0.825715
