0.000000
0.046286
0.177862
0.000000
0.000000
0.000000
0.637595
0.000000
0.000000
0.851166
0.004740
0.075664
0.000000
0.000000
0.303396
0.122649
0.000000
0.000000
0.334275
0.054312
0.000000
0.000000
0.000000
0.160063
0.000000
0.224194
0.000000
0.067923
1.000665
0.000000
0.121968
0.441566
0.500916
0.000000
0.188199
0.000000
0.188311
0.529473
1.085849
0.000000
0.000000
0.233545
0.000000
0.000000
0.193134
0.000000
0.856213
0.717977
0.000000
0.030699
0.585266
0.000000
1.077691
0.000000
0.000000
0.284723
0.285682
0.000000
0.000000
0.419191
0.000000
0.000000
0.385657
0.039422
0.000000
0.000000
0.126334
0.000000
0.000000
0.261493
0.000000
0.000000
0.049006
0.000000
0.092030
0.047303
0.136045
0.870368
0.094465
0.106198
0.000000
0.148310
0.000000
0.000000
0.365780
0.000000
0.127785
0.131499
0.000000
0.000000
0.027341
0.250014
0.000000
0.000000
0.496297
0.251477
0.047027
0.175728
0.000000
0.015808
0.415500
0.206759
0.000000
0.310085
0.000000
0.000000
0.580787
0.000000
0.000000
0.458890
0.000000
0.521461
0.110488
1.071685
0.000000
0.562739
0.000000
0.241790
0.055618
0.000000
0.180960
0.000000
0.526041
0.307760
0.781700
0.000000
0.000000
0.000000
0.000000
0.038362
0.030403
0.319164
0.000000
0.000000
0.000000
0.000000
0.728781
0.383931
0.637914
0.000000
0.000000
0.000000
0.000000
0.205208
0.000000
0.799387
0.000000
0.000000
0.190096
0.000000
0.241065
0.308150
0.000000
0.000000
0.000000
0.008886
0.301990
0.000000
0.000000
0.504916
0.000000
0.546411
0.000000
0.459020
0.070935
0.000000
0.052102
0.042895
0.000000
0.000000
0.265740
0.655420
0.000000
0.000000
0.000000
0.249067
0.000000
0.000000
0.000000
0.182058
0.222284
0.000000
0.000000
0.000000
0.584967
0.086377
0.167825
0.087980
0.101479
0.526191
0.175617
0.803318
0.000000
0.393135
0.000000
0.000000
0.000000
0.000000
0.000000
0.000000
0.000000
0.000000
0.206513
0.095993
0.167743
0.576998
0.000000
0.000000
0.000000
0.339695
0.000000
0.000000
0.000000
0.068451
0.000000
0.852663
0.257673
0.000000
0.000000
0.000000
0.000000
0.212257
0.000000
0.000000
0.000000
0.165120
0.000000
0.000000
0.208171
0.280609
0.152337
0.661987
0.000000
0.651121
0.153681
0.000000
0.177896
0.000000
0.000000
0.000000
0.757871
0.000000
0.434777
0.328119
0.071279
0.578772
0.000000
0.000000
0.000000
0.000000
0.030911
0.000000
0.799072
0.000000
0.049570
0.366183
0.132281
0.000000
0.093405
0.000000
0.412200
0.000000
0.314043
0.000000
0.000000
0.000000
0.000000
0.184720
0.000000
0.054774
0.004701
0.011670
0.000000
0.000000
0.768186
0.197676
0.293376
0.435282
0.414690
0.000000
0.000000
0.000000
0.182142
0.373615
0.373484
0.000000
0.500273
0.000000
0.591429
0.000000
0.159332
0.000000
0.294514
0.000000
0.000000
0.014035
0.116946
0.176199
0.000000
0.000000
0.103494
0.000000
0.068015
0.000000
0.024188
0.180491
1.130309
0.195202
0.000000
0.000000
0.979414
0.308695
0.181571
0.000000
0.161574
0.000000
0.066904
0.281072
0.258129
0.228609
0.000000
0.000000
0.019168
0.515423
0.121109
0.294416
0.011791
0.190868
0.006822
0.000000
0.000000
0.112383
0.000000
0.000000
0.120923
0.000000
0.251301
0.000000
0.000000
0.216575
0.000000
0.021085
0.000000
0.000000
0.000000
0.278204
0.000000
0.000000
0.244523
0.000000
0.000000
0.000000
0.728089
0.011979
0.000000
0.000000
0.000000
0.074812
0.000000
0.000000
0.053396
0.000486
0.000000
0.405301
0.574977
0.000000
0.000000
0.018395
0.000000
0.000000
0.057156
0.552897
0.000000
0.233665
0.000000
0.365089
0.251422
0.117157
0.049583
0.079455
0.399427
0.000000
0.132337
0.197816
0.012549
0.000000
0.384983
0.096139
0.227963
0.235452
0.000000
0.000000
0.236672
0.551612
0.000000
0.409865
0.335742
0.000000
0.000000
0.448646
0.149724
0.000000
0.106513
0.000000
0.000000
0.467698
0.642759
0.332598
0.237332
0.000000
0.199102
0.088548
0.215269
0.568599
0.259935
0.327228
0.000000
0.266052
0.000000
0.000000
0.000000
0.000000
0.289390
0.000000
0.096004
0.090217
0.000000
0.267191
0.503598
0.153024
0.000000
0.025342
0.582276
0.074204
0.037841
0.000000
0.000000
0.000000
0.000000
0.761751
0.049292
0.140171
0.119088
0.329898
0.209982
0.000000
0.000000
0.000000
0.375494
0.077870
0.000000
0.052730
0.000000
0.568123
0.582294
0.000000
0.030415
0.360183
0.000000
0.000000
0.131861
0.000000
0.219916
0.000000
0.914016
0.000000
0.004782
0.167638
0.000000
0.218025
0.000000
0.000000
0.608179
0.410295
0.000000
0.000000
0.000000
0.336738
0.264530
0.000000
0.130239
0.000000
0.000000
0.000000
0.384675
0.000000
0.000000
0.639296
0.000000
0.640376
0.000000
0.223036
0.079344
0.000000
0.592922
0.000000
1.428734
0.370657
0.643244
0.000000
