0.002190
0.038270
0.677464
0.000000
0.597672
0.000000
0.677233
0.000000
0.000000
0.649414
0.000000
0.340989
0.000000
0.000000
0.668434
0.000000
0.260618
0.065219
0.000000
0.000000
0.120441
0.229783
0.399910
0.000000
0.000000
0.575204
0.000000
0.282231
0.152450
0.000000
0.000000
0.280494
0.315653
0.058850
0.105812
0.159967
0.000000
0.000000
1.157860
0.000000
0.000000
0.612747
0.000000
0.000000
0.000000
0.000000
0.531707
0.008710
0.003432
0.000000
0.000000
0.000000
0.746109
0.000000
0.000000
0.000000
0.029820
0.000000
0.000000
0.101016
0.000000
0.484576
0.000000
0.911881
0.703132
0.000000
0.722795
0.000000
0.000000
0.000000
0.000000
0.266615
0.353245
0.000000
0.000000
0.000000
0.108857
1.156120
0.000000
0.000000
0.000000
0.051564
0.000000
0.000000
0.000000
0.000000
0.000000
0.000000
0.175244
0.363682
0.000000
0.630937
0.169084
0.000000
0.000000
0.313056
0.094196
0.055237
0.000000
0.091238
0.083938
0.000000
0.186723
0.000000
0.476106
0.000000
0.000000
0.518662
0.143508
0.000000
0.053225
0.000000
0.000000
1.104316
0.000000
0.587089
0.000000
0.272400
0.000000
0.000000
0.000000
0.121754
0.000000
0.009194
0.086695
0.129640
0.409843
0.000000
0.230536
0.572725
0.342993
0.139557
0.000000
0.000000
1.010848
0.000000
0.690820
0.000000
1.529467
0.176490
0.000000
0.000000
0.438449
0.504633
0.328364
0.000000
0.000000
0.000000
0.149307
0.000000
0.000000
0.000000
0.000000
0.762494
0.000000
0.002459
0.000000
0.345145
0.250186
0.000000
0.266336
0.012375
0.000000
1.279750
0.747380
0.615891
0.000000
1.466843
0.000000
0.000000
0.000000
0.069331
0.000000
0.022058
0.069997
0.222107
0.000000
0.796619
0.465460
0.340180
0.690807
0.000000
0.086980
0.000000
0.131084
0.278992
0.584589
0.000000
0.662590
0.904163
0.000000
0.000000
0.109430
0.000000
0.000000
0.000000
0.022702
0.346251
0.142104
0.000000
0.000000
0.000000
0.214172
0.000000
0.376828
0.235513
1.067027
0.000000
1.951542
0.000000
0.000000
0.000000
0.381105
0.336115
0.109789
0.117465
0.054165
0.041679
0.000000
0.069736
0.634519
0.629821
0.113728
0.122540
0.057478
0.711901
0.000000
0.730088
0.000000
0.107921
0.761616
0.394645
0.000000
0.650478
0.000000
0.000000
0.000000
0.152571
0.365047
0.926511
0.170053
0.925214
0.893934
0.706335
0.000000
0.000000
0.331244
0.142582
1.014047
0.000000
0.000000
0.908837
0.601330
0.000000
0.320931
0.000000
0.518975
0.000000
0.000000
0.000000
0.000000
0.600813
0.088695
0.000000
0.000000
0.179446
0.000000
0.946847
0.214357
1.194296
0.060954
0.145058
0.000000
0.000000
0.388564
0.000000
0.000000
0.010719
1.157190
0.197101
0.000000
0.233809
1.215366
0.000000
0.000000
0.000000
0.320663
0.000000
0.869362
0.618364
0.063978
0.507348
0.124321
0.000000
0.000000
0.150304
0.000000
0.000000
0.037807
0.000000
0.000000
0.000000
0.000000
0.148170
0.000000
0.000000
0.650463
0.000000
0.000000
0.000000
1.251243
0.093364
0.000000
0.000000
0.000000
0.745590
0.000000
0.072460
0.125312
0.136977
0.430255
0.000000
0.165679
0.471636
0.160058
0.877104
0.000000
0.874732
0.000000
0.000000
0.000000
0.070296
0.517327
0.393112
0.000000
0.000000
0.006742
0.671078
0.000000
0.000000
0.000000
0.000000
0.012946
0.000000
0.000000
0.034077
0.054223
0.000000
0.130424
0.143569
0.000000
0.000000
0.000000
0.000000
0.000000
0.000000
0.000000
0.409099
0.000000
0.412634
0.595333
0.000000
0.039841
0.334153
0.530054
0.000000
0.279260
0.000000
0.000000
0.000000
0.054091
0.275684
0.000000
0.568076
0.000000
0.000000
0.000000
0.681529
0.626922
0.371860
0.148343
0.000000
0.045178
0.305261
0.348239
0.613046
0.786087
0.000000
0.017935
0.175202
0.381178
0.000000
0.479976
0.098396
0.747725
1.051463
0.000000
0.100102
0.000000
0.000000
0.017347
0.000000
0.237393
0.000000
0.000000
0.000000
0.530759
0.575372
0.000000
0.037644
0.343057
0.000000
0.492458
0.381158
0.131519
0.334218
0.000000
0.000000
0.192673
0.000000
0.325667
0.000000
0.000000
0.000000
0.000000
0.000000
0.000000
0.243823
0.329644
0.000000
0.000000
1.204844
0.423523
1.431180
0.000000
0.406036
0.000000
0.122027
0.031794
0.765526
0.000000
0.000000
0.199889
0.000000
0.691927
0.435765
0.000000
0.150103
0.000000
0.000000
2.141476
0.043381
0.000000
0.000000
1.054911
0.000000
0.162113
0.000000
0.000000
0.101749
0.314893
0.000000
0.742951
0.000000
0.355868
1.197444
0.151528
0.000000
0.000000
0.188811
0.097080
0.000000
0.000000
0.642476
0.662052
0.557297
0.000000
0.801064
0.212627
1.181499
0.123875
0.000000
1.091189
0.394878
0.763296
0.000000
0.000000
0.031427
0.000000
0.592243
0.072987
0.000000
0.000000
0.028452
0.323060
0.000000
1.589722
0.717229
1.214721
0.002164
