0.000000
0.711535
0.013457
0.367824
0.042286
0.000000
0.080398
0.766859
0.051443
0.000000
0.524910
0.000000
0.000000
0.000000
0.168349
0.000000
0.224811
0.000000
0.035529
0.000000
0.424132
0.000000
0.441604
0.121053
0.000000
0.000000
0.000000
0.522485
1.053564
0.000000
0.227700
0.014430
0.983893
0.000000
0.007996
0.000000
0.000000
0.000000
0.840932
0.000000
0.000000
0.773953
0.141747
0.000000
0.000000
0.426387
0.582571
0.317056
0.324069
0.017572
0.790396
0.000000
0.508365
0.000000
0.000000
0.684537
0.000000
0.000000
0.000000
0.021438
0.000000
0.979468
0.116212
0.241315
0.000000
0.000000
0.000000
0.000000
0.000000
0.350778
0.736413
0.075105
0.000000
0.000000
0.547644
0.506219
0.000000
0.304335
0.076068
0.000000
0.000000
0.200266
0.159452
1.015565
0.999073
0.816387
0.466014
0.801124
0.000000
0.000000
0.000064
0.000000
0.000000
0.260112
0.000000
0.000000
0.000000
0.000639
0.034525
0.027369
0.000000
0.000000
0.789034
0.000000
0.144019
0.032863
0.000000
0.000000
0.144490
0.336847
0.011220
1.028472
0.095869
0.000000
0.000000
0.000000
0.426536
0.752708
0.000000
0.000000
0.569242
0.164435
1.321896
0.647418
0.294889
0.000000
0.000000
0.000000
0.000000
0.000000
0.000000
0.736618
0.000000
0.829700
0.000000
0.198948
0.528957
0.089521
0.236934
0.038255
0.000000
0.000000
0.240008
0.000000
0.065377
0.000000
0.168162
0.469052
0.090736
2.023739
0.184030
0.663909
0.000000
0.000000
0.000000
0.665709
0.918966
0.000000
0.120387
0.000000
0.003569
0.000000
0.096454
0.000000
0.000000
0.000000
0.185903
0.000000
0.870034
0.000000
0.000000
0.000000
0.000000
0.082055
0.068786
0.521191
0.000000
0.133632
0.000000
0.000000
0.000000
0.000000
0.000000
0.000000
0.008854
0.193551
0.000000
0.000000
0.370623
0.083196
0.043092
0.958270
0.323296
0.000000
0.016966
0.811720
0.000000
0.364989
0.117369
0.000000
0.111832
0.000000
0.026100
0.576348
0.000000
0.354347
0.439626
0.107128
0.000000
0.000000
0.024874
0.000000
0.000000
0.895375
0.000000
0.393598
0.000000
0.000000
0.142254
0.271537
1.129585
0.140526
0.000000
0.094660
0.000000
0.057419
0.281058
0.247169
0.004682
0.495423
0.000000
1.033909
0.000000
0.000000
0.118183
0.158146
0.006045
0.000000
0.000000
0.000000
0.000000
0.000000
0.000000
0.125037
1.471381
0.363357
0.000000
0.000000
0.000000
1.099438
0.000000
0.000000
0.032999
0.000000
0.557882
0.321631
0.000000
0.000000
0.113672
0.489449
0.000000
0.019539
0.000000
0.000000
0.000000
0.000000
0.207839
0.074155
0.000000
0.000000
0.000000
0.138004
0.000000
0.018445
0.000000
0.000000
0.177003
0.206548
0.883989
0.000000
0.000000
0.000000
0.003095
0.423112
0.427698
0.000000
0.138287
0.000000
0.642994
0.000000
0.000000
0.000000
0.047590
0.000000
0.189939
0.000000
0.281626
0.000000
0.000000
0.259345
0.677679
0.000000
0.199432
0.213958
1.109782
0.318131
0.000000
0.889031
0.114509
0.000000
0.000000
0.000000
0.000000
0.169852
0.262785
0.000000
0.000000
0.000000
0.249303
0.171934
0.000000
0.000000
0.000000
0.000000
0.126381
0.000000
0.530401
0.000000
0.000000
0.195969
0.115621
0.000000
0.117388
0.690835
0.313544
1.084603
0.199105
0.000000
0.636753
0.000000
0.000000
0.000000
0.137533
0.347907
0.000000
0.655973
0.050968
0.181410
0.000000
0.193658
0.091639
0.000000
0.000000
0.151522
0.000000
0.385799
0.043746
0.000000
0.000000
0.000000
0.000000
0.728813
0.000000
0.504902
0.000000
0.000000
0.549316
0.322300
0.692863
0.471685
0.510945
0.136927
0.000000
0.000000
0.481643
0.022032
0.000000
0.000000
0.000000
0.017523
0.469280
0.000000
0.000000
0.000000
0.000000
0.000000
0.000000
0.416946
0.000000
0.574749
0.019774
0.000000
0.575177
0.049426
0.000000
0.400978
0.000000
0.163495
0.000000
0.672469
0.000000
0.000000
0.000000
0.000000
0.000000
0.609441
0.131334
0.000000
0.000000
0.000000
0.689208
0.334803
0.000000
0.187885
0.062063
0.000000
0.164377
0.000000
0.000000
0.518042
0.000000
0.000000
0.423780
0.292844
0.000000
0.000000
0.013965
0.311214
0.000000
0.041684
0.590533
0.000000
0.000000
0.000000
0.000000
0.000000
0.076384
0.678553
0.000000
0.270426
0.000000
0.313781
0.000000
0.304675
0.056502
0.405753
0.000000
0.000000
0.000000
0.000000
0.000000
0.588687
0.137581
0.067110
0.964943
0.000000
0.247721
0.000000
0.000000
0.000000
0.548201
0.000000
0.000000
0.000000
0.052805
0.000000
0.372437
0.820075
0.000000
0.012777
0.000000
0.000000
0.000000
0.652076
0.000000
0.000000
0.430574
0.000000
0.000000
0.000000
0.001945
0.000000
0.000000
0.000000
1.523208
0.029033
0.000000
0.000000
0.000000
0.120384
0.000000
0.000000
0.039586
0.023754
0.088388
0.000000
0.000000
0.000000
0.000000
0.517624
