0.251014
0.289259
0.000000
0.021361
0.000000
0.000000
0.187435
0.000000
0.000000
0.000000
0.772631
0.121797
0.000000
0.308567
0.371659
0.000000
0.571544
0.029002
0.124447
0.179974
0.000000
0.435421
0.422290
0.000000
0.000000
0.000000
0.231145
0.589076
0.000000
0.180571
0.000000
0.055154
0.000000
0.000000
0.000000
0.339199
0.000000
0.000000
0.000000
0.000000
0.000000
1.432556
0.000000
0.000000
1.053468
0.000000
0.000000
0.000000
0.000000
0.000000
0.000000
0.476818
0.000000
0.000000
0.000000
0.898433
0.000000
0.000000
0.000000
0.804365
0.000000
1.428650
0.000000
0.264150
0.000000
0.000000
0.109878
0.000000
0.000000
0.000000
0.000000
0.000000
0.000000
0.000000
0.170447
0.361875
0.000000
0.000000
0.000000
0.000000
0.064414
0.100211
0.000000
0.000000
0.491282
0.000000
0.000000
1.088751
0.511172
0.274346
0.000000
0.264840
0.413429
0.467349
0.000000
0.000000
0.002390
0.461771
0.000000
0.105553
0.000000
0.420393
0.226790
0.000000
0.000000
0.000000
0.223776
0.000000
0.862349
1.111331
0.263137
1.090044
0.000000
0.000000
0.000000
0.000000
0.000000
0.059876
1.361345
0.000000
0.000000
0.000000
0.149015
0.000000
0.000000
0.000000
0.201132
0.000000
0.112178
0.000000
0.588189
0.355070
0.000000
0.443151
0.000000
0.094285
0.087540
0.000000
1.057469
0.000000
0.056518
0.000000
0.854531
0.000000
0.000000
0.000000
0.000000
0.000000
0.000000
0.000000
0.000000
0.041863
0.748322
0.335553
0.284307
0.303157
0.975674
0.361997
0.622537
0.000000
0.000000
0.000000
0.787121
0.000000
0.000000
0.000000
0.000000
0.824941
0.544137
0.623708
0.000000
0.000000
0.000000
0.000000
0.000000
0.000000
0.353050
0.226609
0.342184
0.000000
0.102918
0.000000
0.000000
0.000000
0.450832
0.000000
0.756167
0.599549
1.244411
0.000000
0.448045
0.000000
0.401957
0.164293
0.282742
0.000000
0.052354
0.000000
0.529983
0.000000
0.671819
0.000000
0.000000
0.000000
0.361503
0.944724
0.363953
0.160177
1.820265
0.000000
0.057378
0.000000
0.000000
0.000000
0.000000
0.175294
0.088905
0.000000
0.000000
0.000000
0.000000
0.000000
0.000000
0.316399
0.000000
0.240186
0.419234
0.807045
0.000000
0.000000
0.976280
0.000000
0.000000
0.152171
0.000000
0.000000
0.322044
0.223613
0.364019
0.000000
0.840052
0.901680
0.170025
0.807349
0.000000
0.000000
0.000000
0.101546
0.159408
0.000000
0.189943
0.387896
0.146095
0.000000
0.000000
0.180801
0.000000
0.000000
0.000000
0.000000
0.954077
0.203132
0.046617
0.373147
0.000000
0.000000
0.239715
0.368460
0.231612
0.817308
0.000000
0.003613
0.000000
0.000000
0.619420
0.575965
0.099371
0.715672
0.000000
0.243420
0.000000
0.000000
0.658964
0.292584
0.000000
0.077926
0.587880
0.000000
0.292364
0.669001
0.000000
0.110233
0.501257
0.366593
0.000000
0.000000
0.000000
0.033187
0.015530
0.000000
0.571591
0.123671
0.059722
0.000000
0.813583
0.000000
0.000000
0.007696
0.119512
0.486357
0.984485
0.296996
0.000000
0.000000
0.000000
0.830246
0.038878
0.000000
0.217483
0.476494
0.000000
0.000000
0.651196
0.542759
0.035781
0.000000
0.538668
0.000000
0.000000
0.330406
0.000000
0.000000
0.175789
0.109089
0.000000
0.422510
0.288151
0.529862
0.000000
0.575563
0.000000
0.000000
0.064095
0.000000
0.000000
0.000000
0.000000
0.000000
0.961012
0.313156
0.197388
0.000000
0.665263
0.596098
0.000000
0.208899
0.357421
1.724434
0.000000
0.268980
0.000000
0.000000
0.368149
1.003663
1.838179
0.519113
1.393489
0.677491
0.000000
0.000000
0.000000
0.081984
0.000000
1.290283
0.000000
0.000000
0.723866
0.573372
0.543888
0.000000
0.294699
0.000000
0.011826
0.000000
0.000000
1.022731
0.756345
0.316247
0.394315
0.705352
0.000000
0.000000
0.601711
1.604274
0.000000
0.000000
0.000000
0.000000
0.000000
0.820711
0.216324
1.393643
0.000000
0.000000
0.000000
0.553303
0.573470
0.166893
0.633380
1.003805
0.000000
0.032538
1.622910
0.000000
1.561722
0.000000
0.000000
0.000000
0.747674
0.175131
0.308516
0.453651
0.000000
0.060449
0.351453
0.000000
0.713235
0.182140
0.000000
0.098525
0.410228
1.575172
0.257223
0.618385
0.000000
0.000000
0.000000
0.000000
0.008297
0.000000
0.102413
0.000000
1.055238
0.454251
0.457649
0.000000
0.387017
0.000000
0.000000
0.546653
0.216421
0.693736
0.000000
0.254888
1.327578
0.000000
0.000000
0.239914
0.000000
0.000000
0.000000
0.585073
0.577228
0.728910
0.445348
0.496382
0.261788
0.000000
0.453542
0.619888
0.000000
0.482270
0.163175
0.830174
0.000000
0.601863
0.037991
1.252156
0.000000
0.000000
0.158381
0.000000
0.000000
0.000000
0.068651
0.000000
0.000000
0.000000
0.667017
0.000000
0.000000
0.199904
0.000000
0.069261
0.577541
1.255867
0.000000
0.374410
0.683841
0.000000
