0.444808
0.000000
0.212937
0.000000
0.000000
0.229517
0.718676
0.000000
0.653719
0.670724
0.508118
0.000000
0.497789
0.000000
0.338613
0.488798
0.075514
0.121750
0.589179
0.885225
0.000000
0.359002
0.000000
0.404691
0.000000
0.000000
0.000000
0.000000
0.781634
0.000000
0.253227
0.554289
0.277255
0.299447
0.051607
0.921858
0.338312
0.463161
1.328264
0.009104
0.000000
0.187513
0.856875
0.275278
0.275149
0.173075
0.000000
0.034227
0.000000
1.114007
0.273950
0.817740
1.381151
0.000000
0.157894
0.000000
0.000000
0.338952
1.415699
0.000000
0.000000
0.000000
0.000000
0.000000
0.000000
0.000000
0.145167
0.022636
0.148722
0.020919
0.000000
0.364114
0.014683
0.000000
0.000000
0.916550
0.639502
1.263125
0.000000
0.221083
0.000000
0.193065
0.000000
0.500664
0.345508
0.000647
0.224724
0.000000
0.635052
0.000000
0.000000
0.711361
0.000000
1.014862
1.504102
0.163398
0.167811
0.000000
0.000000
0.441587
0.308038
0.359819
0.687064
0.161555
0.000000
0.000000
0.742243
0.000000
0.287853
0.000000
0.000000
0.662305
0.000000
0.252200
0.000000
0.000000
0.000000
0.000000
1.946108
0.000000
0.000000
0.000000
0.239854
0.000000
0.000000
0.000000
0.000000
0.000000
0.262427
0.000000
0.279024
0.617811
0.000000
0.000000
0.000000
0.678828
0.983029
0.000000
1.286453
0.000000
0.000000
0.000000
0.259330
0.000000
0.000000
0.000000
0.000000
0.439529
0.009774
0.641286
0.415322
0.000000
0.000000
0.750648
0.000000
0.387261
0.000000
1.203099
0.659832
0.000000
0.000000
0.185420
0.000000
0.000000
0.000000
0.000000
0.811678
0.918831
0.000000
0.000000
0.475312
0.000000
0.014467
0.000000
0.000000
1.602672
0.000000
0.000000
0.134511
0.476816
0.773526
0.000000
1.056157
0.000000
0.768399
0.000000
0.118822
0.064168
0.834526
0.022376
0.156973
0.250755
0.234811
0.014581
0.231419
0.000000
0.000000
0.633274
0.678983
0.000000
0.604480
0.000000
0.025778
0.000000
1.602392
0.000000
0.000000
0.000000
0.496533
0.037266
0.154509
0.000000
0.000000
0.000000
0.025917
1.024146
0.555955
0.211417
0.000000
0.008470
1.005409
0.000000
0.000000
0.000000
0.000000
0.679435
0.307130
0.577358
0.000000
0.029249
0.414130
0.960437
0.000000
0.124898
0.109436
0.000000
0.649956
0.438977
0.442575
0.000000
0.000000
0.000000
0.000000
0.183999
0.000000
0.234063
0.000000
0.000000
0.740021
0.000000
0.000000
0.705376
0.180762
0.000000
0.745603
0.875977
0.000000
0.000000
0.000000
0.000000
1.761153
0.840331
0.000000
0.000000
0.365834
0.101812
0.431582
0.530958
0.110451
0.735286
0.000000
0.146978
0.000000
0.000000
0.000000
0.556864
0.400625
0.000000
0.000000
0.000000
0.123856
0.000000
1.528236
0.721599
1.002807
0.000000
1.077145
0.000000
1.583447
0.023057
0.518294
0.040914
0.247099
0.000000
0.000000
0.051431
0.000000
0.000000
0.000000
0.000000
0.402007
0.229349
0.000000
0.159530
0.000000
0.000000
0.000000
0.666216
0.027567
0.243276
0.033627
0.973469
0.226108
0.000000
1.830022
0.456599
0.293567
0.358780
0.000000
0.043867
0.000000
0.000000
0.000000
0.000000
0.686516
0.000000
0.188610
0.000000
0.524664
0.000000
0.000000
0.216683
0.466218
0.000000
0.000000
0.000000
0.096009
0.000000
0.000000
0.049851
0.000000
0.000000
0.000000
0.000000
0.000000
0.451626
0.000000
0.256006
0.724388
0.000000
0.017357
0.000000
0.001281
0.346502
0.000000
0.820963
0.000000
0.000000
0.000000
0.175970
0.481587
0.064125
0.000000
0.346873
0.919158
0.000000
0.190810
0.149843
0.266684
0.736901
0.000000
0.473357
0.000000
0.000000
0.000000
0.420210
0.000000
0.269789
0.000000
0.089355
0.520272
0.000000
0.000000
0.000000
0.261457
0.018506
0.745426
0.024007
0.715577
0.183253
0.559658
0.000000
0.000000
1.137997
0.000000
0.000000
0.172394
0.000000
0.000000
0.418763
0.000000
0.118327
0.051118
0.000000
0.000000
0.000000
2.030748
0.950499
0.000000
0.000000
0.497082
0.000000
0.179330
0.030155
1.147709
0.124445
0.726446
0.174436
0.000000
0.201855
0.000000
0.041966
0.000000
0.000000
0.510280
0.513374
0.193373
0.223892
1.397522
0.000000
0.780467
0.000000
0.000000
1.018918
0.053692
0.000000
0.294474
0.000000
0.000000
0.162588
0.000000
0.849206
0.885140
0.129183
0.000000
0.000000
0.000000
0.000000
0.473712
0.000000
0.000000
2.516780
0.000000
0.344856
1.175616
0.000000
0.017472
0.000000
0.000000
0.000000
0.000000
0.000000
0.403417
0.000000
0.000000
0.000000
0.512635
0.323725
0.000000
0.011781
0.000000
0.000000
0.541271
0.861508
0.040205
0.000000
0.000000
0.233806
0.258160
0.000000
0.191672
0.000000
0.136027
0.000000
0.000000
0.416083
0.063821
0.249681
0.000000
0.931995
0.000000
0.463410
0.000000
0.135459
0.190490
0.000000
1.093355
0.212281
1.365578
0.000000
