0.472078
0.134136
0.045591
0.000000
0.000000
0.000000
0.808496
0.000000
0.504687
0.000000
0.414869
0.000000
0.310152
0.000000
0.400061
0.000000
0.000000
0.000000
0.122124
0.246299
0.000000
0.000000
0.000000
0.000000
0.000000
0.000000
0.000000
0.000000
1.325987
0.000000
0.117421
0.561141
0.508296
0.000000
0.098454
0.043011
0.000000
0.000000
1.332060
0.000000
0.000000
0.673920
0.188392
0.000000
0.063056
0.000000
0.000000
0.000000
0.000000
0.087035
0.195632
0.000000
1.337816
0.039382
0.000000
0.368678
0.115434
0.000000
0.000000
0.281216
0.000000
0.000000
0.000000
0.000000
0.717584
0.000000
0.000000
0.000000
0.000000
0.308725
0.000000
0.510005
0.022354
0.000000
0.314779
0.147944
0.046950
0.388470
0.000000
0.344800
0.000000
0.000000
0.000000
0.000000
0.059551
0.313858
0.430116
0.911679
0.002553
0.000000
0.013667
0.261912
0.060381
1.324884
0.000000
0.000000
0.000000
0.049970
0.000000
0.489455
0.000000
0.076173
0.431682
0.000000
0.000000
0.000000
0.491723
0.000000
0.000000
0.800251
0.000000
0.515547
0.000000
0.000000
0.000000
0.000000
0.000000
0.000000
1.333469
0.000000
0.298047
0.662422
0.657554
0.000000
0.000000
0.000000
0.000000
0.000000
0.848043
0.000000
0.000000
1.088083
0.000000
0.000000
0.000000
0.000000
1.417992
0.061572
2.021644
0.000000
0.000000
0.000000
1.126233
0.000000
0.208419
0.000000
0.000000
0.000000
0.143231
1.718172
0.099301
0.000000
0.000000
0.771595
0.301689
0.074350
0.921698
0.000000
0.734800
0.000000
0.000000
0.000000
0.809941
0.825446
0.210269
0.000000
0.000000
0.253532
1.452514
0.141483
0.019868
0.388423
0.000000
0.000000
0.000000
1.322886
0.000000
0.000000
0.085272
0.000000
1.140881
0.000000
0.000000
0.000000
0.796980
0.000000
0.026892
0.034596
1.373806
0.000000
0.000000
0.489975
0.623713
0.637691
0.000000
0.000000
0.000000
0.991354
1.223557
0.000000
0.146823
0.000000
0.146856
0.000000
1.307309
0.914060
0.000000
0.000000
1.109410
0.000000
0.000000
0.000000
0.000000
0.179715
0.000000
0.652272
0.382873
0.000000
0.000000
0.093346
3.127488
0.000000
0.000000
0.000000
0.000000
0.874241
0.591715
1.220324
0.000000
0.000000
0.898069
1.275656
0.000000
1.504654
0.098355
0.000000
1.324777
0.080249
0.409400
0.000000
0.487868
0.000000
0.000000
0.191478
0.084145
0.271362
0.317431
0.000000
1.194815
0.333332
0.000000
0.000000
0.455818
0.000000
0.000000
0.000000
0.550384
0.000000
0.000000
0.000000
1.522225
1.046637
0.402665
0.000000
0.000000
0.000000
0.000000
0.939390
0.000000
0.970738
0.000000
0.000000
0.000000
0.000000
0.129247
0.380318
0.000000
0.000000
1.000208
0.000000
0.000000
0.000000
2.286195
0.891134
0.486807
0.000000
1.168269
0.000000
1.159388
0.041374
0.000000
0.000000
0.460293
0.000000
0.000000
0.000000
0.000000
0.000000
0.000000
0.000000
0.928154
0.000000
0.000000
0.000000
0.000000
0.000000
0.257379
0.387812
0.000000
0.000000
0.134596
1.160115
0.159413
0.032720
0.593472
0.000000
0.375843
0.000000
0.144382
0.047528
0.000000
0.000000
0.000000
0.641716
1.065345
0.000000
0.179757
0.220550
0.000000
0.213055
0.000000
0.000000
0.656367
0.666714
0.065336
0.149402
0.000000
0.000000
0.000000
0.285169
0.012035
0.000000
0.000000
0.000000
0.000000
0.000000
0.000000
0.000000
1.285424
0.542759
0.000000
0.000000
0.000000
1.066566
0.000000
0.772081
0.000000
0.080431
0.000000
0.000000
0.995904
0.000000
0.000000
1.489329
1.578435
0.007916
0.000000
0.494246
1.260119
0.000000
0.439267
0.000000
0.000000
0.249899
0.000000
0.194544
1.158912
0.697274
0.000000
0.149847
0.718625
0.000000
0.000000
0.209873
0.421292
0.000000
1.209501
0.866691
0.307499
1.142454
0.000000
0.000000
0.066400
1.738706
0.000000
0.027104
0.000000
0.300046
0.000000
0.889573
0.000000
0.000000
0.000000
0.000000
0.000000
0.298189
2.291058
0.781415
0.452636
0.000000
0.000000
0.000000
0.000000
0.000000
1.047763
0.000000
0.000000
0.000000
0.000000
0.177141
0.000000
0.426159
0.899199
0.000000
0.260194
0.251134
0.000000
0.252240
0.262903
0.000000
0.591985
0.000000
0.000000
1.265684
0.219235
0.000000
0.000000
0.568876
0.000000
0.262342
0.000000
0.000000
0.091979
0.307465
0.501410
0.000000
0.000000
0.000000
0.000000
0.000000
0.000000
1.083765
0.000000
0.000082
1.945414
0.476557
0.000000
0.009449
0.000000
0.000000
0.391933
0.000000
0.355174
0.000000
0.707980
1.606230
0.171778
0.000000
0.056380
0.000000
0.000000
0.005656
1.060307
0.942635
0.000000
0.492115
0.590469
0.109033
0.000000
0.000000
0.047356
0.000000
0.000000
0.000000
0.103362
0.000000
0.000000
0.138101
0.000000
1.246062
0.000000
0.000000
0.000000
0.056834
0.582854
0.423133
0.646150
0.133110
0.798121
0.000000
