0.000000
0.415349
0.038272
0.000000
0.000000
0.000000
0.203834
0.000000
0.282018
0.000000
0.927895
0.000000
0.000000
0.369843
0.325847
0.000000
0.244054
0.680900
0.000000
0.000000
0.000000
0.000000
0.208280
0.688106
0.278000
0.000000
0.000000
0.000000
0.518210
0.000000
0.763664
1.274904
1.252808
0.000000
0.016412
0.000000
0.000000
0.386735
1.617527
0.000000
0.138235
1.096047
0.294749
0.000000
0.000000
0.000000
0.000000
0.527655
0.000000
0.513903
0.508244
0.000000
1.512728
0.496095
0.000000
0.484276
0.000000
0.000000
0.000000
0.016279
0.000000
0.000000
0.000000
0.243793
0.076879
0.000000
0.000000
0.000000
0.000000
0.000712
0.198793
0.000000
0.358021
0.233364
0.073983
1.077414
0.000000
2.128489
0.000000
0.417893
0.000000
0.000000
0.000000
0.000000
0.549392
0.000000
0.151275
0.197969
1.308685
0.000000
0.000000
0.000000
0.000000
0.517165
1.336860
0.944507
0.046740
0.118851
0.000000
0.456024
0.506809
0.000000
1.294821
0.000000
0.000000
0.000000
0.680259
0.586555
0.000000
0.246326
0.000000
0.526933
0.000000
0.866773
0.000000
1.141762
0.000000
0.329683
0.000000
0.000000
0.000000
0.011695
0.000000
0.000000
0.000000
0.255409
0.000000
0.000000
0.000000
0.000000
0.000000
0.404195
0.000000
0.000000
0.000000
0.027942
1.247026
0.121467
1.663071
0.000000
0.000000
0.000000
0.000000
0.000000
0.000000
0.000000
0.000000
0.741902
0.000000
0.000000
0.291803
0.200431
0.258474
0.226876
0.000000
0.298127
0.000000
0.575620
0.000000
0.307752
0.000000
0.219421
0.428316
0.466223
0.000000
0.000000
0.289985
0.000000
0.000000
0.152025
0.643203
0.000000
0.045530
0.000000
0.000000
0.751659
0.000000
0.000000
0.000000
0.000000
1.276607
0.000000
0.000000
0.000000
0.531058
0.000000
0.000000
0.327056
0.600889
0.606170
0.000000
1.045070
0.000000
0.530050
0.052173
0.000000
0.000000
0.752533
0.853002
0.000000
0.316619
0.097388
0.519234
0.000000
0.683168
0.504931
0.000000
0.174518
0.799149
0.000000
0.000000
0.000000
0.000000
1.155008
0.000000
0.132516
0.462384
0.391207
0.000000
0.166869
0.000000
0.909644
0.000000
0.000000
0.000000
0.000000
0.394736
0.933043
0.000000
0.045578
0.651912
0.812563
0.000000
1.016053
0.416802
0.000000
0.000000
0.161003
0.491360
0.583158
0.211729
0.740702
0.063463
0.000000
0.714781
0.289974
0.000000
0.000000
1.065862
0.000000
1.161603
0.000000
0.704862
0.000000
0.140626
1.302212
0.436371
0.000000
0.000000
0.485643
0.210565
0.087476
0.884733
0.000000
0.550995
0.000000
0.023494
1.145353
0.000000
0.653702
0.000000
0.026687
0.000000
0.000000
0.000000
0.384916
0.481347
0.000000
1.021047
0.000000
0.000000
0.000000
1.917959
0.714200
1.190512
0.000000
1.017507
0.405075
1.010899
0.679759
0.295825
0.138257
0.703076
0.000000
0.000000
0.000000
0.000000
0.261650
0.000000
0.135547
0.627119
0.120814
0.921071
0.476758
0.237552
0.315847
0.858697
0.469546
0.403041
0.000000
1.054324
0.454264
0.005199
0.000000
1.519943
0.000000
0.033012
0.000000
0.055008
0.000000
0.000000
0.000000
0.000000
0.000000
0.779689
0.000000
0.000000
0.179425
0.056337
0.067762
0.000000
0.000000
0.400825
0.000000
0.512733
0.000000
0.038958
0.000000
0.659945
0.002451
0.000000
0.000000
0.148579
0.071842
0.000000
0.000000
0.000000
0.000000
0.195412
0.000000
0.000000
0.339982
0.443592
0.000000
0.000000
0.000000
0.000000
0.000000
0.000000
0.581958
0.574049
0.675193
0.000000
0.868158
1.005587
0.000000
0.000000
0.355416
0.803937
0.163144
0.000000
0.195435
0.185961
0.000000
0.000000
0.000000
0.272150
0.008168
0.000000
0.177117
0.800327
0.000000
0.000000
1.095559
0.000000
0.000000
1.612252
0.590575
0.000000
0.392448
0.000000
0.000000
0.000000
0.446170
0.000000
0.600124
0.066408
0.428208
0.000000
0.385057
0.361138
0.000000
0.000000
0.000000
0.000000
0.000000
0.930844
0.669178
0.000000
0.535898
0.862555
0.000000
0.000000
0.000000
1.143480
0.000000
0.000000
0.662893
0.000000
0.000000
0.000000
0.186152
0.000000
0.343549
0.230126
0.124589
0.183667
0.030637
0.000000
0.000000
0.000000
0.000000
0.000000
0.842632
0.000000
0.000000
0.096741
0.211270
0.000000
0.000000
0.000000
0.542823
0.000000
0.000000
0.594649
0.000000
0.000000
0.225219
0.000000
0.000000
0.000000
0.000000
0.000000
0.768900
1.653573
1.547325
0.000000
0.000000
0.000000
0.000000
0.748314
0.000000
0.288273
0.000000
1.709915
0.000000
0.008165
0.000000
0.319640
0.000000
0.000000
0.000000
0.310417
1.396209
0.000000
0.361152
0.000000
0.000000
0.000000
0.000000
0.115098
0.000000
0.000000
0.741578
0.000000
0.000000
0.829270
0.024128
0.000000
1.193162
0.000000
0.635308
0.025031
0.170062
1.081115
0.000000
1.294329
0.000000
1.164095
0.000000
