0.000000
1.536530
0.000000
0.863506
0.674451
0.000000
0.000000
0.000000
0.000000
0.003021
0.000000
4.506711
0.000000
0.447360
0.359288
0.143970
0.064800
0.699638
0.000000
0.000000
0.000000
0.725970
1.421984
0.000000
0.000000
2.278352
0.352654
0.761944
0.000000
0.000000
0.455357
0.418324
0.000000
0.000000
0.000000
0.769902
0.000000
0.000000
0.000000
0.000000
0.000000
2.860559
0.000000
0.000000
1.251349
0.000000
1.641237
0.000000
0.000000
0.000000
0.000000
0.000000
0.000000
0.000000
0.085255
0.424828
0.239778
0.000000
0.000000
0.000000
0.000000
2.677625
0.916340
1.975535
0.000000
0.000000
0.711050
0.000000
0.000000
0.000000
0.000000
0.420353
0.000000
0.000000
0.175920
0.207017
0.000000
0.000000
0.791540
0.030739
0.890514
0.000000
0.000000
0.000000
0.000000
0.000000
0.000000
0.730377
0.209618
1.882743
0.006487
0.104414
0.405618
0.000000
0.000000
0.000000
0.000000
0.000000
0.000000
0.590838
0.020324
0.687167
0.000000
0.233462
0.503849
0.000000
0.053217
0.000000
0.000000
0.000000
0.373811
0.872092
0.000000
0.000000
0.000000
0.790339
0.668466
0.434355
0.737839
0.146695
0.000000
0.000000
0.445413
0.000000
0.572284
0.000000
1.057352
3.683583
0.024060
0.829609
0.001559
0.000000
0.000000
0.000000
0.738593
0.000000
1.010387
0.000000
1.739079
0.044260
2.041862
0.000000
0.000000
1.709201
0.802632
0.098099
0.199442
0.000000
0.000000
0.000000
0.084645
0.000000
0.110492
0.748219
0.000000
0.000000
0.565326
0.000000
0.118253
0.000000
1.483295
0.000000
1.098672
1.485970
0.578163
2.451028
0.000000
3.997389
0.000000
0.516652
0.198851
0.078232
0.000000
0.754359
1.033357
0.000000
0.000000
2.566002
0.346126
0.491188
0.306754
0.623082
0.000000
0.000000
0.000000
0.000000
1.088808
0.000000
1.088856
0.000000
0.000000
0.000000
0.101709
0.612107
0.000000
0.000000
0.000000
0.425402
0.000000
0.000000
0.530766
0.111156
0.000000
0.143932
0.000000
1.917369
1.378446
0.000000
4.006445
0.000000
0.000000
0.000000
0.124888
0.000000
0.000000
0.000000
0.000000
0.025746
0.170984
0.000000
0.000000
0.000000
0.000000
1.018476
1.701744
0.638792
0.468111
0.000000
0.000000
0.000000
0.989790
0.000000
0.000000
0.745300
0.325920
0.141068
0.000000
0.000000
0.000000
0.009779
1.634468
1.365488
1.501832
0.517392
0.000000
0.000000
0.756225
1.273470
0.047209
0.000000
0.000000
2.203655
0.000000
0.000000
0.000000
0.000000
0.000000
0.000000
0.000000
0.286458
0.000000
0.000000
0.000000
0.157061
0.000000
0.254571
0.147018
0.492617
0.324907
1.347982
0.476152
0.000000
0.017722
0.399473
0.594221
0.050751
0.000000
0.000000
0.000000
3.206054
0.176343
0.565717
0.000000
0.000000
0.000000
0.058345
0.000000
0.000000
0.000000
0.000000
0.000000
0.773497
0.119572
1.669713
1.986404
0.000000
0.400511
0.000000
0.630984
0.000000
0.000000
0.000000
0.000000
0.000000
0.700270
0.000000
0.000000
0.000000
0.000000
1.042739
2.296160
0.480211
0.316536
0.927472
0.000000
0.096482
0.000000
0.000000
0.431328
0.031165
0.354830
0.000000
0.876103
1.433769
0.000000
1.054241
0.000000
2.413378
0.000000
0.639015
0.000000
0.000000
0.000000
0.825470
0.124122
0.000000
1.130418
4.891502
0.000000
0.167135
0.375770
0.000000
0.102270
0.000000
0.922335
0.000000
0.759012
0.000000
0.502947
1.037247
0.174342
1.289787
0.267949
0.000000
0.603106
0.000000
0.000000
1.106341
0.123939
0.322015
0.000000
0.000000
1.458274
0.979455
1.110629
1.214239
0.000000
1.017485
0.020298
0.000000
0.000000
0.000000
0.211367
1.485900
0.000000
0.000000
0.456139
0.000000
1.296629
0.000000
0.652753
0.122167
0.113461
0.378328
0.856575
1.829888
1.604234
0.000000
0.000000
0.842351
0.000000
0.000000
0.940271
0.065885
0.000000
1.363878
0.415281
0.000000
0.000000
0.358642
1.267082
1.447412
0.000000
1.598431
1.590839
0.941525
0.000000
0.148690
0.000000
0.000000
0.932684
0.540389
0.028609
0.068127
0.000000
0.000000
0.000000
0.000000
0.000000
0.000000
0.594942
0.000000
0.000000
0.000000
0.000000
0.000000
0.000000
0.000000
0.000000
0.241432
0.946396
2.877439
0.089368
0.049377
0.159148
0.428264
0.000000
0.000000
0.807381
0.000000
0.301968
0.000000
2.423398
0.000000
0.000000
0.837501
2.144722
0.260512
0.000000
0.000000
1.648106
0.090106
0.000000
0.000000
1.783818
0.000000
0.000000
1.321531
0.175775
0.554668
0.000000
0.000000
0.194232
4.416670
0.000000
1.484399
0.124426
0.520987
0.103331
0.779966
0.201850
0.000000
0.000000
1.091956
0.024386
0.157376
0.000000
1.577261
0.738997
0.832370
0.149898
0.000000
0.373491
0.697793
1.601903
0.000000
0.000000
0.175159
0.000000
0.000000
0.705433
1.224006
0.000000
0.048153
0.000000
0.000000
0.000000
0.000000
0.395862
0.688692
