0.000000
0.576732
0.000000
0.150567
0.759659
0.000000
0.000000
0.000000
0.000000
0.000000
1.357144
1.581420
0.000000
0.000000
0.000000
0.045265
0.604714
0.005580
0.000000
0.000000
0.000000
0.138650
0.663753
0.072469
0.000000
0.000000
0.000000
0.768401
0.000000
0.262895
0.000000
0.075006
0.462484
0.000000
0.374800
0.000000
0.007685
0.000000
0.000000
0.229374
0.000000
1.046771
0.000000
0.000000
0.847266
0.000000
0.000000
0.205138
0.000000
0.000000
0.000000
0.887030
0.000000
0.000000
0.039485
0.178127
0.000000
0.000000
0.000000
0.298614
0.000000
1.606336
0.000000
1.408274
0.193232
0.000000
0.738058
0.352622
0.000000
0.000000
0.000000
0.215787
0.000000
0.000000
0.498543
0.164245
0.000000
0.000000
0.315078
0.087457
0.000000
0.496937
0.000000
0.607393
0.000000
0.000000
0.000000
0.000000
1.355538
0.521670
0.000000
0.402002
0.935096
0.000000
0.000000
0.000000
0.000000
0.000000
0.000000
0.112067
0.167902
0.101811
0.000000
0.202487
0.000000
0.027989
0.250657
0.000000
0.000000
0.000000
0.166991
0.000000
0.000000
0.179605
0.000000
0.081743
0.000000
0.000000
0.922099
0.000000
0.310960
0.000000
0.000000
0.362477
1.501441
0.000000
0.753777
0.323387
0.439655
0.498971
0.060667
0.099462
0.000000
0.000000
0.676638
0.049381
0.955185
0.080445
1.602482
0.000000
0.233489
0.000000
0.000000
0.000000
0.539814
0.660070
0.000146
0.114536
0.000000
0.000000
0.000000
0.000000
0.441992
1.763219
0.000000
0.000000
0.000000
0.000000
0.786486
0.000000
0.973007
0.000000
1.208094
0.436767
0.000000
0.403276
0.000000
2.330021
0.030923
0.000000
0.000000
0.894360
0.000000
0.587131
0.487171
1.235012
0.000000
1.553548
0.000000
0.718096
0.450413
0.155012
0.048381
0.000000
0.000000
0.092492
0.659019
0.884625
0.455520
0.000000
0.000000
0.000000
0.613202
0.000000
0.000000
0.052031
0.000000
0.511449
0.000000
0.000000
0.188162
0.000000
0.211104
0.000000
0.000000
1.941597
0.474841
0.000000
1.285271
0.474908
0.000000
0.000000
0.000000
0.000000
0.000000
0.300955
0.000000
0.000000
0.000000
0.000000
0.000000
0.000000
0.000000
0.000000
1.196002
0.827591
1.180629
0.546423
0.000000
0.000000
0.705063
0.000000
0.000000
1.422316
0.000000
0.000000
0.000000
0.000000
0.971691
0.290632
0.130211
1.024276
0.570703
0.126476
0.000000
0.488251
0.000000
0.338404
0.731818
0.000000
0.543056
0.539632
0.000000
0.000000
0.000000
0.000000
0.395131
0.000000
0.287626
0.000000
0.463554
0.671676
0.000000
0.284517
0.000000
0.000000
0.000000
1.516395
0.191258
1.083130
0.000000
0.000000
0.173541
0.105832
0.000000
0.783686
0.000000
0.598360
0.000000
0.495207
0.000000
0.000000
1.712129
0.508279
0.000000
0.000000
0.350532
0.000000
0.421815
0.000000
0.000000
0.704182
1.426951
0.098181
0.000000
0.000000
0.000000
0.000000
0.788917
0.000000
0.000000
0.000000
0.000000
0.108860
0.181316
0.000000
0.000000
0.000000
0.000000
0.490396
2.200114
0.881888
0.505501
0.513512
0.000000
0.334435
0.000000
0.719073
0.706126
0.143161
0.157903
0.000000
0.243099
1.587121
0.183296
0.000000
0.000000
0.897924
0.000000
0.229428
0.000000
0.000000
0.474657
0.250279
0.000000
0.000000
0.000000
1.202414
0.000000
0.000000
0.217195
0.000000
0.309684
0.061756
0.265037
0.000000
0.000000
0.000000
0.414743
0.002052
0.105410
0.000000
2.108108
0.000000
0.000000
0.124166
0.005169
1.000045
0.000000
0.000000
0.000000
0.000000
0.000000
0.734004
0.932969
0.032138
0.702834
0.022836
0.056828
0.000000
0.349600
0.000000
0.000000
1.925436
0.000000
0.066740
1.062001
0.766505
0.525950
0.000000
0.470500
0.000000
0.000000
0.000000
0.522222
1.014807
1.124338
0.359470
0.000000
0.803054
0.000000
0.000000
0.957950
0.316093
0.000000
0.446926
0.311517
0.000000
0.000000
0.000000
0.247896
0.797338
0.472209
0.000000
0.757319
0.000000
0.000000
0.558888
0.000000
0.007916
0.929698
0.000000
2.182709
0.000000
2.601503
0.000000
0.000000
0.000000
0.189930
0.892943
0.000000
0.504410
0.657617
0.379290
0.000000
0.000000
1.247934
0.179069
0.000000
0.000000
0.680566
1.730272
0.000000
1.521691
0.014710
0.000000
0.000000
0.000000
0.360509
0.000000
0.118939
0.000000
0.886823
0.000000
0.000000
0.376759
0.000000
0.000000
0.000000
0.000000
0.922391
0.490373
0.000000
0.000000
1.673265
0.000000
0.000000
0.127373
0.000000
0.440376
0.124692
0.339596
0.000000
0.687693
0.000000
0.915302
0.501778
0.706818
0.547463
1.138530
0.100192
0.834107
1.202353
0.909805
0.000000
0.000000
0.045429
1.793869
0.000000
0.499064
0.078808
0.000000
0.000000
0.000000
0.000000
0.000000
0.449395
0.845575
0.246884
0.000000
0.435980
0.529479
0.000000
0.275774
0.000000
0.345328
0.000000
0.000000
0.372439
0.000000
