0.166431
0.155682
0.557587
0.158710
0.249367
0.000000
0.000000
0.560166
0.579322
0.000000
1.110754
0.000000
0.000000
0.770963
0.000000
0.000000
0.000000
0.000000
0.050788
0.000000
0.000000
0.000000
0.126744
0.014045
0.000000
0.000000
0.000000
0.085520
0.136127
0.133840
0.240659
0.000000
0.596311
0.181565
0.000000
0.119323
0.000000
0.245570
0.191750
0.000000
0.501473
0.158016
0.315870
0.570636
0.160491
0.147579
0.000000
0.000000
0.506248
0.761562
0.188417
0.000000
0.000000
0.243449
0.000000
0.465221
0.000000
0.000000
0.658207
0.000000
0.000000
0.166666
0.000000
0.054465
0.000000
0.000000
0.000000
0.000000
0.275115
0.322205
0.185583
0.000000
0.000000
0.000000
0.426734
0.354991
0.055593
0.161391
0.000000
0.088905
0.000000
0.411316
0.000000
0.657426
0.000000
0.409783
0.290639
0.938453
0.032414
0.000000
0.000000
0.000000
0.000000
0.554031
0.475456
0.097266
0.000000
0.101986
0.089181
0.068179
0.071797
0.000000
0.106618
0.000000
0.171655
0.000000
0.037434
0.000000
0.000000
0.464572
0.000000
0.226250
0.342117
0.322076
0.000000
0.000000
0.340859
0.000000
0.302631
0.241663
0.021703
0.202332
0.000000
0.000000
0.000000
0.000000
0.000000
0.000000
0.000000
0.152647
0.000000
0.000873
0.000000
0.246661
0.000000
0.626458
0.000000
0.176879
0.424476
0.000000
0.000000
0.000000
0.143964
0.153283
0.180671
0.000000
0.162017
0.626505
0.029018
1.241970
0.000000
0.000000
0.051581
0.042848
0.000000
0.234140
0.490315
0.000000
0.132057
0.000000
0.122549
0.000000
0.025931
0.000000
0.000000
0.000000
0.655324
0.060358
0.000000
0.106775
0.006689
0.000000
1.188402
0.107179
0.000000
0.516676
0.006538
0.000000
0.064212
0.000000
0.331134
0.000000
0.697127
0.000000
0.000000
0.000000
0.000000
0.219037
0.331212
0.000000
0.185528
0.846362
0.000000
0.049846
0.037371
0.233828
0.000000
0.263088
0.228506
0.000000
0.148691
0.331095
0.096341
0.109669
0.277826
0.000000
0.154590
0.461855
0.112808
0.000000
0.108077
0.000000
0.000000
0.765327
0.317973
0.738874
0.090958
0.033139
0.058217
0.415851
0.324693
0.000000
0.733166
0.204194
0.000000
0.160372
0.000000
0.380923
0.000000
0.000000
0.000000
0.504264
0.000000
0.006764
0.330395
0.000000
0.696013
0.000000
0.034151
0.000000
0.000000
0.000000
0.000000
0.000000
1.329613
0.175228
0.000000
0.000000
0.137989
1.065016
0.000000
0.000000
0.000000
0.000000
0.718466
0.377884
0.000000
0.187273
0.000000
0.343012
0.715264
0.227000
0.134973
0.047256
0.000000
0.000000
0.029522
0.268171
0.056954
0.000000
0.000000
0.093420
0.000000
0.109063
0.000000
0.177172
0.000000
0.302823
0.471235
0.000000
0.034382
0.000000
0.323508
0.462253
0.000000
0.000000
0.000000
0.498289
0.608858
0.000000
0.000000
0.000000
0.000000
0.000000
0.136819
0.000000
0.000000
0.000000
0.000000
0.387452
0.468579
0.000000
0.000000
0.254019
0.215317
0.078715
0.198084
0.000000
0.013726
0.000000
0.000000
0.258291
0.106136
0.262726
0.377680
0.000000
0.000000
0.268481
0.000000
0.000000
0.000000
0.000000
0.000000
0.000000
0.000000
0.000000
0.173097
0.000000
0.000000
0.243245
0.512522
0.000000
0.213468
0.125989
0.201629
0.940724
0.000000
0.000000
0.123883
0.000000
0.019502
0.000000
0.000000
0.244829
0.025596
0.541934
0.000000
0.243595
0.186718
0.321957
0.241251
0.197756
0.000000
0.578212
0.000000
0.000000
0.205699
0.000000
0.000000
0.000000
0.004358
0.303481
0.000000
0.369365
0.323989
0.018941
0.000000
0.382979
0.188060
0.380738
0.074199
0.105728
0.000000
0.000000
0.000000
0.187828
0.000000
0.000000
0.000000
0.000000
0.351661
0.000000
0.000000
0.211142
0.000000
0.000000
0.516000
0.415984
0.000000
0.457932
0.483911
0.000000
0.000000
0.351333
0.062580
0.611866
0.000000
0.282111
0.000000
0.538047
0.000000
0.000000
0.000000
0.000000
0.000000
0.000000
0.000000
0.166910
0.127646
0.054017
0.151879
0.158967
0.000000
0.415328
1.248010
0.000000
0.429474
0.000000
0.384982
0.522019
0.000000
0.178812
0.502565
0.000000
0.547283
0.437713
0.821723
0.037796
0.000000
0.000000
0.167537
0.000000
1.178906
0.254991
0.000000
0.000000
0.290123
0.000000
0.000000
0.444206
0.000000
0.000000
0.185862
0.092553
0.000000
0.000000
0.000000
0.000000
0.000000
0.050357
0.000000
0.361505
0.042972
0.031899
0.581316
0.767611
0.390149
0.000000
0.000000
0.000000
0.076037
0.135107
0.000000
0.000000
0.000000
0.000000
0.121383
0.242618
0.000000
0.000000
0.187237
0.283201
0.301801
0.218998
0.000000
0.042139
0.399968
0.000000
0.000000
0.000000
0.018639
0.000000
0.000000
0.000000
0.000000
0.337692
0.125299
0.239286
0.000000
0.000000
0.036447
0.000000
0.073371
0.111879
0.142596
0.000000
0.000000
0.000000
0.000000
0.926314
