0.000000
0.167487
0.431762
0.496450
0.000000
0.000000
0.000000
0.738544
0.154628
0.000000
0.000000
1.000751
0.000000
0.551802
0.494898
0.000000
0.000000
0.620214
0.000000
0.000000
0.000000
0.581298
0.000000
0.000000
0.125454
0.000000
0.000000
0.000000
0.000000
1.569077
0.000000
0.000000
0.000000
0.000000
0.000000
1.222650
0.000000
0.000000
0.000000
0.000000
0.000000
1.023471
0.000000
0.000000
0.488927
0.000000
0.000000
0.000000
0.000000
0.000000
0.000000
0.000000
0.000000
0.000000
0.000000
0.267540
0.000000
0.000000
0.000000
0.000000
0.000000
0.000000
0.000000
0.000000
0.577604
0.000000
0.000000
0.004434
0.000000
0.028915
0.014034
0.043420
0.000000
0.000000
0.484038
0.086274
0.529690
0.000000
0.000000
0.000000
0.000000
0.084264
0.000000
0.000000
0.000000
0.248757
0.000000
2.046822
0.007002
1.408839
0.104582
0.196814
0.111697
0.192715
0.000000
0.000000
0.000000
0.000000
0.000000
0.343359
0.000000
0.444273
0.000000
0.000000
0.038106
0.000000
0.514488
0.000000
0.199824
1.064334
0.353628
0.185220
0.000000
0.000000
0.000000
0.000000
0.437668
1.128275
0.404956
0.079749
0.176712
0.586647
0.900047
0.000000
0.000000
0.000000
0.595672
0.680967
0.274035
0.141008
0.101164
0.369640
0.000000
1.424694
0.447185
0.000000
0.063146
0.000000
1.718386
0.000000
0.606623
0.000000
1.314742
0.144298
0.418499
0.000000
0.962133
0.000000
0.746705
1.883240
0.297386
0.373933
0.307278
0.260850
1.153877
0.000000
1.650476
0.000000
0.885348
0.000000
0.000000
0.000000
1.733208
1.693421
0.547766
0.318215
0.000000
2.075629
2.181417
0.710248
0.109222
0.000000
0.000000
0.367031
0.000000
0.546147
0.000000
0.048319
0.429781
0.000000
0.413756
0.000000
0.000000
0.000000
0.573417
0.000000
0.428278
0.154675
1.824340
0.000000
0.000000
0.000000
0.362030
0.527214
0.000000
0.000000
0.000000
0.469049
1.013875
0.000000
0.540612
0.000000
0.000000
0.132235
0.000000
0.327231
0.000000
0.631495
3.555121
0.000000
0.000000
0.000000
0.400650
0.000000
0.202198
0.105555
0.000000
0.000000
0.000000
0.009506
0.993484
0.501655
0.253478
0.000000
0.000000
1.092241
0.000000
0.576314
0.000000
0.000000
2.450818
0.000000
0.000000
0.530421
0.114587
0.000000
1.713230
0.000000
0.000000
0.000000
0.495666
0.000000
0.000000
0.065233
0.000000
0.000000
0.409374
0.317993
0.547364
0.434612
0.188185
2.180638
0.000000
0.000000
0.000000
0.036981
0.000000
0.000000
0.000000
0.278365
1.211655
0.862302
0.820376
0.000000
0.000000
0.229579
0.000000
0.000000
0.094388
1.518991
0.000000
0.000000
0.083416
0.158332
0.384035
0.311650
0.000000
0.000000
0.000000
1.874691
0.000000
0.120634
1.804900
0.746446
0.000000
0.000000
1.282663
0.000000
0.000000
0.000000
0.000000
0.000000
0.599269
0.755021
1.521093
0.000000
0.000000
0.000000
0.693726
0.000000
0.913927
0.000000
0.992311
0.000000
0.158504
0.463268
0.000000
0.456340
0.000000
1.101396
0.000000
0.575476
0.000000
0.565031
0.000000
0.234017
0.434462
0.000000
0.146257
0.214441
0.000000
0.000000
0.000000
0.844076
0.000000
0.000000
0.000000
1.421580
0.000000
0.304976
0.000000
0.000000
0.283006
0.995930
0.701509
0.885160
0.000000
2.766079
0.000000
0.153829
0.478626
0.000000
0.000000
0.117119
0.000000
0.000000
0.000000
0.000000
2.137763
1.411137
0.000000
0.000000
0.000000
0.289477
0.286145
0.153750
0.000000
0.000000
0.000000
0.361820
0.000000
0.000000
0.902105
2.030453
2.945842
1.101178
0.083677
0.825566
0.000000
0.000000
1.075442
0.000000
0.000000
0.000000
0.246626
0.007684
0.369060
0.142950
0.000000
0.660203
0.775323
0.000000
0.238083
0.429111
0.417107
2.987346
1.296498
0.867833
0.000000
1.307943
0.284478
0.000000
1.260631
2.823635
0.000000
0.705277
0.000000
0.000000
0.000000
1.684117
1.084629
0.000000
0.000000
0.070694
0.000000
0.618180
0.797692
0.939714
0.000000
0.000000
0.000000
0.000000
0.274873
0.000000
0.696148
0.152252
0.000000
0.000000
0.298318
0.615564
1.739772
0.484063
1.039092
0.000000
0.006307
0.000000
0.000000
0.000000
0.000000
0.000000
0.157796
0.354645
0.000000
0.654408
0.235548
0.533228
0.000000
0.268514
0.000000
0.405638
0.000000
0.000000
1.746164
0.613371
0.000000
0.000000
0.984959
0.000000
0.000000
0.000000
0.815982
0.000000
1.221440
0.702108
1.746169
0.000000
0.071060
0.286061
0.000000
0.329050
0.000000
0.000000
0.562688
2.720330
1.391506
2.765338
0.203676
0.000000
0.249649
0.000000
0.341438
0.356142
0.283722
0.945466
0.000000
0.484667
0.494098
0.155160
0.000000
0.000000
0.000000
0.000000
0.085212
0.000000
1.400744
0.000000
0.000000
0.186917
0.255841
0.000000
0.000000
0.000000
0.004340
0.178309
0.582362
0.544914
0.000000
0.397033
0.000000
0.143382
