0.255801
1.064209
0.000000
0.145562
0.558342
0.000000
0.018730
0.507102
0.000000
0.000000
0.760238
0.106511
0.000000
0.538586
0.583869
0.329178
1.280969
0.033216
0.150324
0.054655
0.000000
0.000000
0.289313
0.028669
0.161422
0.000000
0.000000
0.000000
0.367144
0.312293
0.756633
0.000000
0.581971
0.000000
0.000000
0.000000
0.140811
0.000000
0.981433
0.226615
0.000000
0.651703
0.000000
0.000000
0.202993
0.000000
0.000000
1.000483
0.000000
0.000000
0.454228
0.101459
0.887987
0.000000
0.000000
0.701617
0.009297
0.000000
0.000000
0.458606
0.000000
1.667217
0.000000
1.041850
0.364291
0.000000
0.040168
0.653132
0.000000
0.000000
0.000000
0.000000
0.180586
0.000000
0.000000
1.029820
0.440346
0.000000
0.000000
0.000000
0.000000
0.346356
0.000000
0.104610
0.000000
0.000000
0.000000
0.000000
1.333957
0.382744
0.000000
1.139632
1.071300
0.000000
0.000000
0.695514
0.000000
0.000000
0.000000
0.000000
0.740837
0.000000
0.850639
0.000000
0.378163
0.000000
0.435100
0.000000
0.000000
0.000000
0.000000
0.537556
0.000000
1.407569
0.242446
0.016496
0.495740
0.116426
0.620763
0.058644
0.000000
0.000000
0.000000
0.537637
1.197341
0.716703
0.145444
0.000000
0.167500
0.221191
0.874500
0.568417
0.000000
0.000000
0.308467
0.000000
0.146846
0.000000
1.883917
0.000000
0.000000
0.000000
0.000000
0.197307
0.000000
0.468867
0.000000
0.938535
0.504807
0.000000
0.000000
0.000000
0.013955
1.002245
0.000000
0.000000
0.000000
0.000000
0.000000
0.550667
0.061672
0.097952
0.000000
0.000000
0.000000
1.758919
0.000000
0.967576
0.106777
0.382449
0.252753
0.324901
0.000000
0.643794
1.625917
0.063101
0.118816
1.380064
0.327790
0.089084
0.674863
0.000000
0.018495
0.004015
0.000000
0.000000
0.278443
0.810936
0.408039
0.000000
0.000000
0.000000
0.000000
0.043982
0.000000
0.000000
0.000000
0.362251
0.373182
0.000000
0.253856
0.000000
0.233456
0.469489
0.090368
0.000000
0.000000
0.000000
0.551288
0.690708
0.000000
0.000000
0.320289
0.000000
0.000000
0.258857
0.494621
0.000000
0.000000
0.094087
0.341940
0.000000
0.063815
0.970623
0.638627
0.530522
0.660993
0.775309
0.050394
0.000000
1.414733
0.000000
0.000000
0.129109
0.000000
0.269710
0.000000
0.000000
1.442624
1.096860
0.000000
0.196773
0.000000
0.167017
0.000000
0.072435
0.000000
0.266158
1.031620
0.000000
0.000000
0.918135
0.212363
0.000000
0.000000
0.000000
0.321993
0.000000
0.000000
0.000000
0.000000
0.082420
0.261363
0.734447
0.460789
0.000000
0.000000
0.485512
0.152158
1.007728
0.000000
0.000000
0.293953
0.000000
0.000000
0.449063
0.000000
0.238716
1.037753
0.491559
0.000000
0.000000
1.259499
0.072866
0.029611
0.000000
0.022322
0.000000
0.965283
0.631282
0.398468
0.125602
0.359853
0.000000
0.406452
0.000000
0.000000
0.000000
0.582075
0.000000
0.000000
0.000000
0.000000
0.619956
0.000000
0.016058
0.621865
0.000000
0.000000
0.814721
0.502147
0.000000
0.898451
0.000000
0.000000
0.000000
0.344233
1.107550
0.718202
0.633044
0.270704
0.000000
0.333481
0.000000
0.448065
0.000000
0.000000
0.522050
0.222300
0.000000
0.000000
0.000000
0.435060
0.000000
0.000000
0.000000
0.000000
0.277292
0.000000
0.000000
0.000000
0.032381
0.022496
0.000000
0.000000
0.000000
0.000000
0.492010
0.241077
0.991151
1.091623
0.000000
0.633085
0.000000
0.000000
0.000000
0.000000
0.349075
0.000000
0.381769
0.466646
0.395797
0.000000
0.226661
0.145754
0.107954
1.638338
0.000000
0.000000
0.201701
0.000000
0.148512
0.000000
0.729450
0.000000
0.000000
0.000000
0.000674
0.280328
0.000000
1.253451
0.000000
0.000000
0.000000
0.146883
0.516633
0.680580
0.000000
0.000000
0.539678
0.000000
0.000000
0.761726
0.000000
0.548207
0.708428
0.131587
0.000000
0.000000
0.000000
0.395675
2.075376
0.429225
0.000000
0.065238
0.000000
0.063912
0.253726
0.300956
0.284482
1.293560
0.042452
0.114567
0.000000
1.909387
0.128650
0.016822
0.000000
0.000000
0.641678
0.113850
0.000000
0.000000
0.008999
0.000000
0.000000
0.878744
0.000000
0.000000
0.000000
0.000000
0.889998
0.792441
0.282259
0.000000
0.000000
0.000000
0.000000
0.000000
0.000000
0.000000
0.000000
0.290370
0.000000
0.000000
0.000000
0.000000
0.000000
0.249459
0.000000
0.110959
0.362619
0.152237
0.000000
1.418432
0.556454
0.000000
0.000000
0.000000
0.000000
0.000000
0.957628
0.102499
0.011804
0.685003
0.210126
0.778391
1.025484
0.189347
0.442272
0.000000
0.216706
0.839404
1.366900
0.000000
0.590662
0.000000
0.650601
0.000000
0.102201
0.110373
0.000820
0.000000
0.528241
0.000000
0.000000
0.000000
0.984700
0.321419
0.000000
0.822467
0.000000
0.000000
0.000000
0.000000
0.000000
0.000000
0.000000
0.728717
0.055922
