0.043137
1.456887
0.000000
0.403694
0.218598
0.000000
0.000000
0.255027
0.499583
0.000000
1.146832
0.081146
0.000000
0.599077
0.351201
0.000000
1.476384
0.000000
0.000000
0.000000
0.596942
0.000000
1.073187
0.790627
0.000000
0.646612
0.000000
0.000000
0.051119
0.000000
0.000000
0.000000
1.100976
0.000000
0.000000
0.000000
0.000000
0.000000
1.041228
0.000000
0.000000
0.730332
0.661202
0.572346
0.491330
0.000000
0.492662
1.215221
0.239764
0.000000
0.000000
0.000000
0.799288
0.037253
0.000000
0.573599
1.214347
0.000000
0.000000
0.933143
0.000000
2.934893
0.000000
1.904573
0.000000
0.000000
0.130198
0.676818
0.008551
0.055935
0.000000
0.000000
0.000000
0.075072
0.000000
0.000000
0.048507
0.000000
0.000000
0.000000
0.000000
0.432885
0.720158
1.243600
0.000000
0.000000
0.608516
0.000000
0.021024
0.594661
0.000000
0.000000
1.734675
0.000000
0.000000
0.000000
0.000000
0.561405
0.000000
0.000000
0.000000
0.000000
0.000000
0.000000
0.603696
0.000000
0.000000
0.092943
0.000000
0.000000
0.039235
0.377732
0.000000
0.988067
0.319137
0.558996
0.545861
0.000000
0.262841
0.247403
0.000000
0.000000
0.009979
2.449318
1.727425
0.473855
0.314690
0.000000
0.465999
0.725275
0.267163
0.185013
0.000000
0.000000
0.791726
1.020998
0.398840
0.000000
1.723945
0.000000
0.000000
0.000000
0.000000
0.169807
0.000000
1.308919
0.000000
1.534029
0.000000
0.000000
0.000000
0.000000
0.170133
0.644277
0.000000
0.000000
0.000000
0.000000
0.000000
0.382748
0.507690
0.000000
0.000000
0.000000
0.000000
1.803256
0.000000
0.980009
0.595591
0.000000
0.000000
0.627391
0.000000
0.637243
1.719884
0.000000
0.000000
1.835118
0.000000
0.047396
0.079347
0.092279
0.234162
0.000000
0.000000
0.000000
0.272383
0.883135
0.000000
0.893854
0.413132
0.000000
0.016762
0.000000
0.000000
0.369246
0.000000
0.000000
0.000000
0.000000
0.000000
0.215370
0.589195
1.533042
0.000000
1.483613
2.054442
0.011313
0.000000
0.507138
0.000000
0.000000
0.028706
0.156935
0.000000
0.486121
0.102663
0.000000
0.307800
0.000000
0.000000
0.000000
0.334618
0.940185
2.319262
0.886968
0.806369
0.853990
0.274275
0.432139
0.000000
0.000000
0.000000
0.130894
0.000000
0.539416
0.000000
0.000000
0.443452
0.000000
0.193984
0.688041
0.534584
0.659198
0.000000
0.846059
0.000000
0.000000
0.194707
0.000000
0.211720
0.000000
0.396870
0.000000
1.076243
0.000000
0.000000
0.000000
0.000000
0.000000
0.000000
0.000000
0.791839
1.220171
0.301499
0.000000
0.000000
0.959573
0.411212
0.358457
0.695631
0.000000
0.173262
0.000000
0.000000
0.161818
0.000000
1.202275
0.803273
0.000000
0.000000
0.000000
0.000000
0.000000
0.000000
0.000000
0.000000
0.000000
1.807752
0.859159
0.054039
0.395535
0.000000
0.000000
0.390880
0.000000
0.000000
0.000000
0.399225
0.631216
0.000000
0.000000
0.000000
1.055777
0.123735
0.000000
0.266274
0.000000
0.033223
0.000000
0.557728
0.000000
0.690493
0.500131
0.000000
0.001348
0.000000
1.180184
0.494581
0.314239
0.152462
0.000000
1.375205
0.000000
0.170570
0.000000
0.000000
0.808444
0.000000
0.043339
0.000000
0.000000
0.700825
0.000000
0.000000
0.000000
0.000000
0.000000
0.000000
0.000000
0.011895
0.000000
0.289303
0.000000
0.000000
0.000000
0.371352
0.892738
0.000000
0.029356
1.584811
0.525797
0.014879
0.073854
0.000000
0.000000
1.363320
0.828245
0.000000
0.525809
0.087828
0.000000
0.000000
0.034068
0.000000
0.000000
1.624617
0.000000
0.000000
0.515209
0.000000
0.000000
0.000000
0.976391
0.437135
0.000000
0.277929
0.000000
0.415519
0.000000
0.430095
0.000000
0.000000
0.000000
0.000000
0.351161
0.415006
0.000000
0.000000
0.131368
0.000000
0.000000
0.807697
0.000000
0.818905
1.039833
0.000000
0.000000
0.000000
0.000000
0.000000
2.693822
1.366044
0.242102
0.522466
0.000000
0.000000
0.289294
1.044807
0.925922
1.530458
0.000000
0.000000
0.524102
1.009004
0.202453
0.000000
0.000000
0.312452
0.651356
0.000000
0.000000
0.000000
0.043868
0.192421
0.122372
1.501987
0.076836
0.000000
0.347615
0.005084
1.106251
1.944011
0.273428
0.006123
0.000000
0.000000
0.113757
0.095777
0.000000
0.453406
0.635209
0.000000
0.000000
0.000000
0.826158
0.000000
0.000000
0.142561
0.000000
1.250684
0.000000
0.871390
0.000000
0.604733
0.000000
0.000000
0.000000
0.000000
0.284441
0.608134
1.441198
0.000000
0.000000
0.684065
0.000000
0.319425
1.023006
0.000000
0.887236
0.341024
0.000000
0.356522
0.797267
0.000000
0.000000
0.358350
0.606603
0.000000
1.537673
0.313101
0.000000
0.000000
0.000000
0.549250
0.216341
1.106996
0.715591
0.729986
0.000000
0.820493
0.000000
0.000000
0.000150
0.000000
0.452445
0.169214
0.000000
0.000000
0.989305
