0.000000
0.000000
0.533371
0.284873
0.262942
0.000000
0.000000
0.207279
0.346361
0.000000
0.000000
0.180724
0.000000
0.287657
0.005038
0.000000
0.000000
0.861015
0.020767
0.407014
0.000000
0.545919
0.000000
0.000000
0.016119
0.000000
0.000000
0.000000
0.000000
1.384546
0.021960
0.000000
0.000000
0.000000
0.000000
1.763797
0.000000
0.000000
0.000000
0.062062
0.000000
0.614978
0.000000
0.000000
0.236107
0.000000
0.000000
0.000000
0.000000
0.000000
0.000000
0.000000
0.000000
0.000000
0.000000
0.100383
0.000000
0.000000
0.000000
0.000000
0.000000
0.000000
0.000000
0.000000
0.403591
0.000000
0.000000
0.069092
0.000000
0.000000
0.000000
0.000000
0.000000
0.000000
0.023888
0.058578
0.715664
0.000000
0.000000
0.000000
0.000000
0.315381
0.000000
0.000000
0.000000
0.000000
0.000000
1.199965
0.663923
1.007033
0.089048
0.449840
0.101608
0.020595
0.000000
0.000000
0.000000
0.000000
0.000000
0.311174
0.192972
0.468278
0.000000
0.000000
0.028584
0.000000
0.448961
0.000000
0.000000
1.020678
0.302875
0.000000
0.000000
0.005778
0.000000
0.000000
0.172007
0.722073
0.000000
0.222985
0.025677
0.724397
0.000000
0.000000
0.000000
0.000000
0.595409
0.000000
0.036710
0.205293
0.094624
0.224928
0.000000
0.620147
0.810651
0.000000
0.358069
0.000000
1.261075
0.000000
0.541149
0.000000
0.672301
0.329339
0.592844
0.000000
0.813538
0.000000
0.687821
0.854876
0.293198
0.041368
0.808430
0.000000
0.731011
0.000000
0.662637
0.062424
0.523425
0.017597
0.000000
0.006844
0.703255
0.921833
0.164155
0.166341
0.000000
0.840336
0.685201
0.779380
0.408692
0.000000
0.000000
0.320967
0.000000
0.595730
0.000000
0.269491
0.318276
0.000000
0.394019
0.000000
0.000000
0.000000
0.262026
0.180439
0.347222
0.438103
1.203978
0.000000
0.000000
0.000000
0.183738
0.312800
0.000000
0.000000
0.063061
0.136221
1.004835
0.000000
0.676344
0.000000
0.000000
0.000000
0.000000
0.060847
0.266026
0.945900
2.373921
0.000000
0.000000
0.000000
0.858748
0.000000
0.148188
0.000000
0.000000
0.000000
0.000000
0.000000
0.000000
0.548183
0.415134
0.000000
0.000000
0.972635
0.415423
0.299174
0.000000
0.000000
2.235505
0.000000
0.000000
0.662822
0.025556
0.000000
0.805136
0.243096
0.000000
0.000000
0.096173
0.752100
0.171784
0.117384
0.000000
0.000000
0.111391
0.317397
0.251063
0.158821
0.007203
1.934713
0.000000
0.057799
0.000000
0.373736
0.000000
0.000000
0.000000
0.000000
0.241462
0.431254
0.612520
0.000000
0.000000
0.123541
0.000000
0.000000
0.232461
0.828833
0.000000
0.000000
0.085025
0.137911
0.267542
0.209675
0.000000
0.000000
0.246365
1.636098
0.227356
0.204842
1.690906
0.644956
0.000000
0.000000
0.619805
0.000000
0.000000
0.000000
0.000000
0.000000
1.125263
0.771788
0.855036
0.000000
0.000000
0.154704
0.895942
0.000000
0.102042
0.000000
0.714020
0.000000
0.000000
0.121227
0.000000
0.000000
0.276278
1.626377
0.000000
0.706231
0.000000
0.643631
0.000000
0.110877
0.153343
0.000000
0.060043
0.007273
0.000000
0.000000
0.000000
0.313656
0.000000
0.415396
0.000000
0.991297
0.000000
0.017981
0.000000
0.000000
0.237037
0.221078
0.384620
0.453658
0.000000
2.215264
0.000000
0.150734
0.116092
0.000000
0.073041
0.070651
0.000000
0.000000
0.000000
0.000000
1.126363
0.658763
0.000000
0.046501
0.000000
0.000000
0.292233
0.000000
0.000000
0.000000
0.000000
0.306092
0.000000
0.000000
0.654572
0.997530
2.094006
0.875122
0.000000
0.289246
0.000000
0.000000
0.907119
0.000000
0.000000
0.000000
0.116519
0.089755
0.203271
0.132243
0.000000
0.781681
0.447257
0.000000
0.077205
0.369010
0.000000
1.870236
1.447106
0.855653
0.000000
0.713555
0.484427
0.000000
0.951392
1.608757
0.197365
0.778489
0.537679
0.138365
0.000000
0.825662
0.621104
0.000000
0.110302
0.071127
0.000000
0.159862
0.309411
0.825773
0.000000
0.086358
0.000000
0.000000
0.637450
0.000000
0.769631
0.395558
0.000000
0.000000
0.252276
0.162740
1.207039
0.636551
0.952039
0.000000
0.156576
0.000000
0.059695
0.000000
0.000000
0.000000
0.000000
0.360402
0.180434
0.396516
0.261364
0.825305
0.000000
0.000000
0.000000
0.664605
0.000000
0.000000
2.033926
0.562269
0.000000
0.000000
1.005906
0.000000
0.000000
0.000000
1.522879
0.123845
1.540190
0.737317
1.139995
0.000000
0.000000
0.000000
0.618109
0.386400
0.000000
0.000000
0.384362
2.028167
0.736733
1.596401
0.050683
0.000000
0.537769
0.000000
0.164250
0.404536
0.811527
0.706510
0.000000
0.606699
0.540232
0.000000
0.000000
0.000000
0.000000
0.000000
0.177876
0.000000
0.687900
0.000000
0.000000
0.122539
0.647915
0.253707
0.000000
0.000000
0.000000
0.171574
0.426939
0.448433
0.000000
0.167462
0.000000
0.272594
