0.094055
0.642911
0.206961
0.135876
0.000000
0.000000
0.000000
0.720665
0.000000
0.000000
0.438929
0.767443
0.000000
0.074037
0.501207
0.000000
0.012487
0.013116
0.000000
0.000000
0.000000
0.000000
0.284780
0.000000
0.259644
0.049984
0.000000
0.366059
0.000000
0.216801
0.467088
0.000000
0.260052
0.000000
0.000000
0.524718
0.000000
0.000000
0.000000
0.231327
0.000000
0.735023
0.000000
0.000000
0.000000
0.000000
0.130351
0.000000
0.200991
0.000000
0.000000
0.046056
0.000000
0.000000
0.000000
1.093584
0.004270
0.000000
0.000000
0.000000
0.000000
0.592107
0.000000
0.553672
0.584773
0.000000
0.000000
0.243411
0.000000
0.408361
0.000000
0.114331
0.098732
0.093057
0.022636
0.395505
0.421681
0.000000
0.007920
0.193342
0.000000
0.683871
0.000000
0.000000
0.000000
0.000000
0.065741
0.278451
0.180738
0.839575
0.000000
0.110261
0.463160
0.000000
0.000000
0.000000
0.000000
0.000000
0.000000
0.198738
0.628191
0.298169
0.358835
0.000000
0.129050
0.000000
0.526599
0.000000
0.148369
0.353180
0.300857
0.000000
0.000000
0.953411
0.000000
0.000000
0.092272
0.528228
0.742702
0.000000
0.000000
0.000000
0.305827
0.000000
0.000000
0.000000
0.620471
0.640540
0.000000
0.034981
0.000000
0.337297
0.000000
0.000000
0.486579
0.000000
1.192626
0.000000
1.609193
0.000000
0.294125
0.000000
1.138592
0.288598
0.656234
0.000000
0.052720
0.000000
0.623058
0.181026
0.156350
0.000000
0.000000
0.810974
0.230662
0.000000
0.405155
0.000000
0.233903
0.000000
0.000000
0.000000
0.567194
0.973839
0.458421
0.313327
0.000000
1.319610
1.489843
0.550149
0.019520
0.261199
0.000000
0.000000
0.000000
0.139768
0.000000
0.694126
0.320057
0.000000
0.501149
0.000000
0.042867
0.000000
0.612142
0.000000
0.230066
0.272585
1.181265
0.000000
0.000000
0.169022
0.241234
0.000000
0.000000
0.000000
0.000000
0.645326
0.958023
0.000000
0.049869
0.000000
0.000000
0.053071
0.000000
0.438300
0.000000
0.000000
2.369354
0.000000
0.000000
0.000000
0.208064
0.000000
0.188303
0.000000
0.000000
0.000000
0.000000
0.250012
2.108753
0.030143
0.059786
0.000000
0.000000
0.122682
0.376176
0.382717
0.000000
0.000000
1.469702
0.451161
0.000000
0.953179
0.115582
0.268644
0.814111
0.000000
0.506615
0.469923
0.042389
0.000000
0.175343
0.000000
0.000000
0.000000
0.418250
0.911899
1.190330
0.000000
0.000000
1.014095
0.000000
0.000000
0.000000
0.000000
0.608000
0.000000
0.000000
0.207967
0.687297
0.597033
0.967253
0.000000
0.000000
0.000000
0.000000
0.000000
0.000000
1.616858
0.000000
0.011787
0.028712
0.091494
0.201442
0.000000
0.000000
0.111751
1.188103
1.092502
0.000000
0.000000
1.494455
0.003534
0.000000
0.000000
0.172247
0.000000
0.224881
0.000000
0.000000
0.277950
0.015591
0.273825
0.376821
0.000000
0.000000
0.000000
0.669212
0.000000
0.583951
0.000000
0.000000
0.245376
0.000000
0.000000
0.628227
0.536978
0.000000
0.178184
0.268039
0.744835
0.216886
0.642388
0.000000
0.000000
0.494546
0.797981
0.449335
0.438975
0.171181
0.000000
0.000000
0.790565
0.000000
0.000000
0.000000
0.732258
0.000000
0.000000
0.000000
0.000000
0.424253
0.577723
0.318933
0.274096
0.000000
1.907791
0.000000
0.000000
0.299197
0.007296
0.000000
0.000000
0.000000
0.000000
0.000000
0.000000
1.606044
1.666537
0.000000
0.000000
0.000000
0.723454
0.157986
0.000000
0.000000
0.000000
0.000000
0.000000
0.791894
0.253222
0.000000
1.673382
1.534238
0.103502
0.000000
0.528241
0.880190
0.000000
0.235194
0.000000
0.000000
0.202028
0.052240
0.000000
0.028139
0.101341
0.012532
0.000000
0.927794
0.000000
0.000000
0.400906
0.501759
0.836250
0.993938
0.428087
0.000000
1.462433
0.000000
0.000000
0.888233
1.921455
0.392699
1.335897
0.000000
0.000000
0.000000
1.135923
0.666006
0.000000
0.186147
0.199391
0.474104
0.000000
0.414603
0.520631
0.304712
0.000000
0.594864
0.466730
0.543862
0.000000
1.146722
0.000000
0.000000
0.000000
0.279280
0.000000
1.062178
0.160299
0.195580
0.000000
0.000000
0.000000
0.084092
0.047672
0.000000
0.000000
0.461242
0.565475
0.402056
0.362873
0.231470
0.348576
0.000000
0.370285
0.000000
0.000000
0.000000
0.000000
0.273569
0.000000
0.000000
0.051072
0.000000
0.000000
0.000000
0.000000
0.000000
0.000000
0.091048
0.000000
1.858971
0.502095
0.000000
0.000000
0.000000
0.000000
0.378506
0.038788
0.453235
0.939376
1.924521
2.084750
0.243119
0.359598
0.351605
0.000000
0.037922
0.033232
0.951644
1.377623
0.000000
0.478086
0.006654
0.912165
0.000000
0.496189
0.000000
0.000000
0.000000
0.440102
0.816903
0.000000
0.000000
0.709808
0.000000
0.000000
0.010983
0.000000
0.000000
0.000000
0.577705
0.000000
0.000000
0.000000
0.600055
0.000000
