0.472127
0.642083
0.000000
0.000000
0.716907
0.439511
0.000000
1.459277
0.000000
0.905109
0.764340
1.290793
0.352124
0.036643
0.773328
0.771325
0.050491
0.737786
1.157391
0.561235
0.000000
0.000000
0.399971
0.000000
0.235426
0.941189
0.000000
0.665606
0.000000
0.000000
1.225430
0.000000
0.505948
0.000000
0.000000
2.646042
0.353996
0.000000
0.313835
0.482433
0.000000
0.743862
0.000000
0.000000
0.678862
0.000000
0.000000
0.000000
0.000000
0.000000
0.000000
0.000000
0.792277
0.047717
0.000000
0.267943
0.037294
0.000000
0.526092
0.131323
0.000000
3.105987
1.702698
2.036129
0.000000
0.000000
0.129548
0.354507
0.000000
0.365965
0.155636
0.000000
0.274242
0.420300
0.000000
1.395806
1.382235
0.000000
0.000000
0.331787
0.000000
0.580315
0.165410
0.839658
0.004543
0.000000
0.000000
0.000000
0.372677
0.000000
0.000000
1.880925
0.516560
0.000000
0.000000
0.126219
0.000000
0.409492
0.000000
0.000000
1.057089
0.058766
0.000000
0.000000
0.489238
0.000000
0.063934
0.000000
0.000000
0.000000
0.000000
1.305634
0.000000
1.418851
0.000000
0.000000
1.038087
0.190853
1.851932
0.000000
0.000000
0.000000
0.498946
0.000000
0.974447
0.000000
0.000000
0.000000
0.000000
0.402091
0.000000
0.000000
0.000000
0.000000
0.355513
0.000000
0.000000
0.000000
3.378076
0.000000
0.000000
0.000000
0.000000
0.543180
0.427028
0.037512
0.000000
1.522305
1.380102
0.000000
0.599371
0.000000
0.000000
0.662071
0.000000
0.312463
0.000000
0.000000
0.000000
0.560483
0.491831
0.402169
0.000000
0.414798
0.000000
0.949289
0.000000
1.714208
0.000000
0.000000
0.475652
0.195409
0.000000
1.007821
2.538333
0.000000
0.000000
2.734080
0.761196
0.546101
0.658982
0.468366
0.866961
0.119664
0.276816
0.000000
0.475686
0.000000
0.356827
0.000000
0.339120
0.975914
0.894919
0.000000
0.183648
0.000000
0.000000
0.220221
0.717802
0.000000
0.605453
0.000000
0.000000
0.589709
0.000000
0.000000
1.088524
0.000000
0.727809
1.995937
0.000000
0.000000
0.238986
0.000000
0.218470
0.000000
0.016977
0.000000
0.576601
0.000000
0.295933
0.000000
0.000000
1.469547
0.890413
2.060032
0.144150
1.270838
0.000000
0.000000
1.129115
0.000000
0.000000
0.000000
0.950863
0.000000
1.554249
0.000000
0.605956
0.766272
0.029416
0.035994
0.039761
0.000000
0.000000
0.326884
0.000000
0.379703
1.011801
0.000000
0.000000
1.471523
0.000000
0.000000
1.424173
0.000000
0.222112
0.000000
0.000000
0.000000
0.000000
0.000000
0.000000
0.035027
0.389908
0.000000
1.113975
0.000000
1.680419
1.401041
0.000000
0.000000
0.000000
0.000000
0.247143
0.000000
0.000000
0.000000
0.000000
0.259777
1.035852
0.393670
0.000000
0.000000
0.000000
0.000000
0.000000
0.000000
2.723007
0.000000
0.942495
0.367947
0.000000
0.127670
0.801870
0.000000
1.596234
0.000000
0.000000
0.000000
0.068074
0.000000
0.050025
0.903591
0.000000
0.000000
0.995728
0.000000
0.000000
1.031485
0.350177
0.434310
0.845794
0.180773
0.000000
0.000000
0.257102
2.563143
0.187388
0.054891
0.420005
0.000000
0.995897
0.879222
0.000000
0.572736
0.597799
0.538466
0.188911
0.134341
0.000000
0.055682
0.534839
0.000000
0.409625
0.000000
1.431117
0.453075
0.000000
0.000000
0.000000
0.077825
0.000000
0.000000
0.000000
0.704838
0.221042
1.591399
0.146271
0.946282
0.733174
0.715737
0.000000
0.889130
0.000000
0.000000
0.000000
0.889491
0.000000
0.000000
0.077700
1.194497
0.000000
0.000000
0.000000
0.007789
0.000000
0.777699
0.000000
0.010660
0.000000
0.270685
0.000000
0.936679
0.011209
0.610387
0.000000
0.210924
0.793746
0.000000
1.186227
0.000000
0.000000
0.000000
0.475315
0.633962
0.207418
0.000000
0.000000
0.000000
1.112277
0.000000
1.423850
0.000000
0.321641
1.234228
0.423806
0.000000
0.000000
0.000000
0.680774
1.421735
0.590743
0.266548
0.000000
0.273106
0.000000
0.250027
0.346078
0.000000
1.353153
0.628949
0.000000
0.091794
0.000000
0.548109
0.339950
0.000000
0.000000
0.000000
0.048870
0.000000
0.000000
0.000000
0.000000
0.000000
0.000000
0.000000
0.722761
0.000000
0.970047
0.787397
1.612485
0.000000
0.506516
0.000000
0.000000
0.000000
0.074978
0.000000
0.000000
0.000000
1.310561
0.000000
0.000000
0.301059
0.281106
0.000000
0.731873
0.000000
1.666356
1.255304
0.000000
0.000000
0.224751
1.210259
0.052127
0.683487
0.275391
0.000000
0.000000
0.000000
0.000000
0.676068
0.000000
0.000000
1.725942
2.399894
0.000000
0.503511
0.249522
0.000000
0.629352
1.459815
0.000000
0.072316
0.000000
0.894121
0.011339
0.649299
0.914220
0.000000
0.000000
1.142782
0.944394
0.953537
0.000000
1.178771
0.573987
0.000000
1.539979
0.000000
0.000000
0.000000
0.000000
0.000000
0.338211
0.378114
0.479140
0.550880
