0.194550
0.146851
0.061313
0.000000
0.264608
0.000000
0.000000
0.846325
0.000000
0.000000
0.744406
0.000000
0.000000
1.075741
0.034550
0.062182
0.069963
0.257236
0.896044
0.474276
0.000000
0.000000
0.000000
0.000000
0.039867
0.137829
0.000000
0.848766
0.013360
0.602217
1.001549
0.000000
0.636727
0.000000
0.000000
1.475596
0.510040
0.000000
0.000000
0.592898
0.000000
0.430310
0.000000
0.511138
0.000000
0.000000
0.000000
0.000000
0.000000
0.000000
0.136872
0.000000
0.791559
0.000000
0.000000
0.854461
0.060433
0.000000
0.376697
0.410334
0.000000
2.425327
0.302833
1.179475
0.161296
0.000000
0.000000
0.675734
0.000000
0.000000
0.688872
0.000000
0.037818
0.280684
0.000000
1.148896
1.029720
0.000000
0.000000
0.000000
0.000000
0.581939
0.051829
0.413822
0.000000
0.000000
0.000000
0.497214
0.070313
0.205661
0.000000
0.918110
0.842442
0.000000
0.000000
0.545388
0.000000
0.342801
0.000000
0.000000
0.652724
0.000000
0.000000
0.000000
0.954780
0.000000
0.000000
0.000000
0.184904
0.000000
0.000000
0.401827
0.000000
1.080111
0.000000
0.000000
1.248674
0.000000
1.250907
0.387489
0.000000
0.000000
0.000000
0.000000
1.078359
0.000000
0.364161
0.000000
0.528731
0.721484
0.142673
0.114969
0.000000
0.015853
0.145279
0.430559
0.000000
0.000000
2.559399
0.000000
0.000000
0.000000
0.216744
0.949281
0.352020
0.196400
0.000000
1.322752
0.984437
0.000000
0.127281
0.000000
0.000000
0.000000
0.001856
0.000000
0.000000
0.000000
0.000000
0.709452
0.471635
0.261618
0.000000
0.000000
0.000000
2.066423
0.000000
0.000000
0.000000
0.000000
0.649746
0.519075
0.000000
1.088985
2.264596
0.000000
0.038872
3.003372
0.608071
0.000000
0.626960
0.122964
0.211802
0.000000
0.000000
0.000000
0.133226
0.565987
0.000000
0.000000
0.363035
0.710175
0.525142
0.016760
0.002386
0.164544
0.000000
0.000000
0.836647
0.000000
0.456201
0.000000
0.000000
0.291639
1.013023
0.025676
1.044885
0.000000
0.000000
1.587041
0.000000
0.000000
0.246182
0.837215
0.000000
0.000000
0.000000
0.131558
0.173319
0.000000
0.826393
0.000000
0.533326
1.334942
0.469661
1.312401
0.224002
2.168793
0.000000
0.000000
2.010254
0.000000
0.000000
0.000000
0.480593
0.000000
1.126688
0.141714
0.021456
0.532420
0.000000
0.106002
0.000000
0.594468
0.000000
0.479026
0.000000
0.549583
0.839077
0.000000
0.000000
1.440098
0.000000
0.000000
1.253889
0.000000
0.000000
0.000000
0.000000
0.000000
0.000000
0.000000
0.537291
0.374083
0.707210
0.000000
0.218791
0.000000
1.305728
0.284880
0.000000
0.000000
0.000000
0.000000
0.035317
0.000000
0.000000
0.418807
0.231859
0.117634
0.259462
0.000000
0.294687
0.000000
0.000000
0.000000
0.000000
0.000000
2.100434
0.905921
0.588704
0.183986
0.163033
0.000000
1.280492
0.000000
0.629197
0.000000
0.969610
0.000000
0.000000
0.000000
0.946447
0.836662
0.000000
0.000000
0.858525
0.000000
0.000000
1.062535
0.000000
0.278410
0.927273
0.720420
0.000000
0.000000
0.244649
1.855346
0.381967
0.000000
0.025787
0.000000
1.069026
0.000000
0.000000
0.111134
0.000000
0.000000
0.448539
0.000000
0.000000
0.000000
0.774993
0.000000
0.378225
0.393716
0.105268
0.846671
0.000000
0.000000
0.000000
0.026556
0.000000
0.000000
0.000000
0.000000
0.000000
0.990129
0.000000
1.542802
1.016366
1.128055
0.000000
0.990448
0.000000
0.000000
0.082298
1.100804
0.000000
0.000000
0.000000
0.536309
0.000000
0.000000
0.000000
0.240640
0.442880
0.726134
0.000000
0.028118
0.000000
0.511195
0.000000
0.521599
0.000000
0.488867
0.000000
0.120068
0.596675
0.000000
0.757930
0.000000
0.000000
0.000000
0.000000
0.135686
0.103196
0.000000
0.674344
0.000000
0.526016
0.000000
1.024938
0.000000
0.611086
0.519430
0.475937
0.000000
0.000000
0.000000
0.000000
1.573223
0.380322
0.208153
0.000000
0.000000
0.038948
0.000000
0.758029
0.135119
0.904682
0.088729
0.000000
0.000000
0.296546
0.343311
0.222571
0.000000
0.000000
0.194836
0.200159
0.000000
0.000000
0.000000
0.000000
0.000000
0.473796
0.000000
0.000000
0.000000
1.155839
0.000000
2.540234
0.000000
0.002199
0.000000
0.162768
0.000000
0.081426
0.000000
0.023475
0.000000
0.661740
0.229052
0.000000
0.175720
0.020321
0.000000
0.397825
0.000000
0.884671
0.471084
1.293442
0.000000
0.000000
1.707461
0.000000
0.000000
0.301426
0.000000
0.000000
1.229425
0.000000
0.219995
0.825696
0.847475
1.179844
1.545867
0.000000
0.522561
0.000000
0.000000
1.069126
0.642646
0.000000
0.265941
0.116714
0.000000
0.000000
0.162536
0.000000
0.000000
0.000000
1.418510
0.003233
0.394199
0.000000
1.052749
0.256346
0.000000
1.326932
0.000000
0.000000
0.179937
0.000000
0.616449
0.000000
0.000000
0.000000
1.573482
