0.593850
0.141928
0.795934
0.000000
0.860039
0.629928
0.825186
0.000000
1.105224
1.454805
0.000000
0.000000
0.352961
0.760246
0.000000
0.068192
0.000000
0.818395
0.643901
0.479256
0.006914
0.000000
0.183773
0.076315
0.236099
2.134111
0.000000
0.259985
0.000000
0.000000
0.332858
0.358519
0.546731
0.000000
1.504693
0.437845
0.171410
0.408660
1.521916
0.004921
0.000000
0.297767
0.997677
1.444414
0.000000
0.000000
0.759115
0.291876
1.217080
1.869603
0.000000
0.000000
1.100533
0.170914
0.000000
0.000000
0.752916
0.000000
1.319807
0.000000
0.000000
0.858585
2.372921
0.143940
0.000000
0.000000
0.000000
0.000000
0.000000
0.144492
0.960497
0.630126
0.163232
0.010816
0.129617
0.282046
0.907291
0.022945
0.000000
0.000000
0.590035
0.012339
0.247114
0.084954
0.000000
0.314305
0.369682
1.145450
0.000000
0.128322
0.000000
0.000000
0.000000
0.000000
1.045350
0.000000
0.238012
0.774229
0.843118
0.255243
0.000000
0.267476
0.000000
0.070700
1.024556
0.000000
0.000000
0.021482
0.096068
0.000000
0.184838
0.887814
1.001397
0.000000
0.000000
0.000000
0.000000
0.605176
1.864267
0.000000
0.000000
0.384742
0.000000
0.000000
0.210099
0.000000
0.000000
0.238161
0.725709
0.000000
0.461091
0.373390
0.000000
0.236310
1.068233
0.000000
0.072659
0.000000
2.208673
0.406382
0.000000
0.000000
0.000000
0.290893
0.642219
0.000000
0.290304
1.068953
0.000000
0.000000
0.630933
0.000000
0.000000
0.000000
0.000000
0.000000
0.825673
1.100172
0.000000
0.205655
0.000000
0.000000
0.000000
1.630424
0.113547
0.000000
1.300674
1.513046
0.000000
0.000000
0.000000
0.145136
0.000000
0.221939
0.000000
0.000000
0.000000
0.000000
0.460694
0.174334
0.838612
0.000000
1.478318
0.000000
0.000000
0.152653
0.313691
0.000000
0.225557
0.658997
0.179118
0.000000
1.327046
0.000000
0.000000
0.000000
0.000000
0.000000
0.475955
0.000000
0.344717
0.000000
0.370375
0.240434
1.965114
0.072555
0.630829
0.002420
0.031170
0.228201
0.000000
0.000000
0.000000
0.987240
0.701639
0.019131
0.000000
0.330897
0.000000
0.306299
0.000000
0.737067
0.000000
0.020336
0.000000
1.286980
0.000000
2.141418
0.013677
0.000000
0.281244
1.761524
0.000000
0.108782
0.191892
0.000000
1.871388
0.130524
0.000000
0.000000
0.000000
0.000000
0.157822
0.000000
0.000000
0.814921
0.326356
0.000000
0.275738
0.000000
0.000000
1.854444
0.986674
0.000000
1.621253
0.381715
0.000000
0.000000
0.000000
0.213919
0.534114
0.000000
0.000000
0.112741
0.000000
1.380797
0.000000
1.282866
0.553342
0.000000
0.000000
0.000000
0.000000
0.000000
0.536748
0.000000
0.000000
0.000000
0.725403
0.000000
0.279801
1.184323
0.000000
0.000000
0.690522
0.100449
0.000000
0.000000
3.211810
0.099973
0.216679
0.000000
0.000000
0.000000
0.000000
0.000000
2.227112
0.000000
0.000000
0.013688
0.288282
0.000000
0.674931
0.000000
0.003088
0.000000
0.000000
0.000000
0.666821
0.416202
0.114167
0.610110
0.134377
0.000000
0.820444
0.695463
0.000000
0.195926
0.000000
0.207599
0.000000
0.000000
1.272340
0.000000
0.000000
0.000000
0.135668
0.292171
0.000000
0.343084
0.297362
0.264030
1.326161
0.716378
0.814453
0.304761
1.929760
0.000000
0.000000
0.000000
0.000000
0.000000
0.000000
0.131924
0.000000
3.961394
0.208668
0.064334
0.000000
0.000000
0.099633
0.850218
0.000000
1.804002
0.000000
0.098007
0.847678
0.282253
0.000000
0.000000
0.000000
0.000000
0.000000
0.000000
0.000000
0.219294
0.000000
0.200511
0.000000
0.521170
0.000000
0.652067
0.000000
0.093583
0.070282
0.560814
0.000000
0.522500
0.000000
2.118998
0.132047
0.000000
0.051887
0.000000
0.000000
1.524903
0.000000
0.000000
1.268173
0.000000
0.471033
0.000000
0.375651
0.000000
0.000000
0.155323
0.000000
0.169355
0.000000
0.000000
0.000000
1.637743
0.000000
0.000000
0.000000
3.181544
0.000000
0.919278
0.000000
0.000000
0.366784
0.777327
0.000000
0.459688
0.000000
0.000000
0.000000
0.000000
0.430583
0.172108
0.000000
0.000000
0.000000
0.000000
0.064002
2.210452
0.000000
0.102816
0.483352
1.373430
1.570943
0.000000
0.000000
0.000000
0.393369
0.000000
0.172156
0.000000
0.000000
4.361585
0.000000
0.000000
1.208662
2.039840
0.000000
0.294949
0.326247
0.000000
0.195948
0.000000
0.658521
0.495663
0.651814
0.000000
0.000000
0.049857
0.760005
0.116901
0.079237
0.000000
0.000000
0.416687
0.000000
0.000000
0.000000
0.000000
0.011753
0.153300
0.000000
0.000000
1.059380
0.000000
0.000000
0.000000
2.184470
0.000000
1.011539
0.000000
0.389557
1.345570
0.190064
0.000000
0.000000
1.322038
0.332051
0.000000
0.709944
0.380306
0.635176
0.000000
0.135786
0.281160
0.123574
0.000000
0.110342
0.000000
0.860581
1.459455
0.000000
0.000000
