0.077649
0.000000
0.582831
0.028817
0.247687
0.120382
0.067161
0.077399
0.415955
0.946438
0.000000
0.000000
0.315132
0.688869
0.000000
0.440593
0.069359
0.798844
0.220562
0.390116
0.213026
0.038946
0.205574
0.000000
0.127507
1.486333
0.000000
0.000000
0.000000
0.277900
0.040797
0.057555
0.285735
0.000000
0.281276
1.010926
0.104572
0.000000
1.014965
0.077444
0.000000
0.183701
0.507544
0.732091
0.000000
0.002574
0.091709
0.000000
0.509115
0.914112
0.000000
0.000000
0.738135
0.000000
0.000000
0.000000
0.019270
0.000000
0.000000
0.000000
0.000000
0.339261
0.752959
0.063484
0.000000
0.000000
0.000000
0.000000
0.032271
0.000000
0.557134
0.254359
0.400746
0.000000
0.000000
0.217000
0.812638
0.000000
0.000000
0.000000
0.000000
0.230218
0.082561
0.128695
0.037292
0.000000
0.000000
0.630206
0.000000
0.437906
0.014135
0.106189
0.000000
0.000000
0.158923
0.000000
0.140050
0.494824
0.151069
0.195351
0.000000
0.000000
0.010879
0.003963
1.202043
0.000000
0.000000
0.000000
0.000000
0.000000
0.027917
0.000000
0.309726
0.000000
0.000000
0.000000
0.282830
1.595730
0.652342
0.339387
0.000000
0.324744
0.054821
0.000000
0.000000
0.074994
0.000000
0.597141
0.247549
0.199860
0.334762
0.682044
0.000000
0.528975
0.940453
0.000000
0.000000
0.000000
0.894769
0.395680
0.185286
0.000000
0.033708
0.287155
0.375112
0.000000
0.653990
0.852165
0.102554
0.000000
0.413420
0.585161
0.066881
0.000000
0.113028
0.000000
0.708580
2.061133
0.589532
0.000000
0.000000
0.000000
0.000000
0.283229
0.000000
0.320698
0.876834
0.000000
0.000000
0.203703
0.181779
0.000000
0.000000
0.183795
0.118942
0.000000
0.000000
0.000000
0.542028
0.000000
0.173404
0.000000
0.588155
0.000000
0.078109
0.000000
0.009756
0.000000
0.327700
0.000000
0.008449
0.000000
0.520178
0.021187
0.000000
0.172018
0.187928
0.000000
0.324408
0.000000
0.508608
0.000000
0.000000
0.000000
1.302448
0.000000
0.732088
0.053546
0.073500
0.208689
0.000000
0.000000
0.287553
1.656879
0.233738
0.496778
0.000000
0.498112
0.000000
0.000000
0.000000
1.644843
0.459610
0.364240
0.000000
0.151773
0.000000
0.986140
0.000000
0.000000
0.645513
1.103158
0.000000
0.000000
0.000000
0.000000
0.611839
0.352956
0.000000
0.000000
0.000000
0.629053
0.371013
0.420100
0.000000
0.161709
0.481496
0.175726
0.000000
0.000000
0.000000
1.376367
0.254454
0.000000
1.117374
0.382611
0.000000
0.000000
0.000000
0.412589
0.393826
0.086560
0.000000
0.113547
0.000000
1.023244
0.330456
0.055646
0.220731
0.086226
0.000000
0.085774
0.000000
0.000000
0.286400
0.000000
0.000000
0.210584
0.997737
0.707853
0.194020
0.447138
0.000000
0.000000
1.338938
0.174933
0.000000
0.000000
1.298398
1.112107
0.000000
0.083412
0.000000
0.242800
0.186928
0.078353
0.461910
0.000000
0.000000
0.314867
0.268438
0.000000
0.317183
0.000000
0.017294
0.000000
0.000000
0.000000
0.206915
0.573241
0.000000
0.000000
0.031577
0.081550
0.857538
0.685568
0.068536
0.328704
0.000000
0.054557
0.000000
0.000000
0.456406
0.000000
0.000000
0.422469
0.000000
0.000000
0.198856
0.000000
0.486080
0.332286
0.457103
0.481563
0.436635
0.000000
0.928925
0.000000
0.000000
0.024937
0.000000
0.000000
0.000000
0.084641
0.000000
1.296083
0.035606
0.229521
0.170849
0.123310
0.220029
0.559449
0.000000
0.678134
0.232454
0.133080
0.121844
0.050047
0.000000
0.000000
0.000000
0.000000
0.000000
0.000000
0.000000
0.214626
0.652506
0.160915
0.000000
0.582050
0.275594
0.310729
0.000000
0.000000
0.307526
0.241774
0.000000
0.000000
0.000000
1.744925
0.354076
0.000000
0.178200
0.224400
0.000000
1.768429
0.000000
0.000000
0.966493
0.000000
0.615301
0.000000
0.378275
0.000000
0.000000
0.286695
0.000000
0.684519
0.000000
0.003352
0.073628
0.813564
0.000000
0.001083
0.000000
0.582380
0.076026
0.647162
0.000000
0.222336
0.285605
0.331158
0.000000
0.547805
0.000000
0.104831
0.273424
0.000000
0.000000
0.000000
0.000000
0.000000
0.000000
0.000000
0.816153
0.976476
0.000000
0.000000
0.255576
0.673830
0.545583
0.000000
1.141033
0.173792
0.000000
0.906900
0.005085
0.000000
0.000000
1.442594
0.000000
0.078514
0.711027
1.036063
0.000000
0.098581
0.413442
0.000000
0.040301
0.000000
0.000000
0.041189
1.011602
0.000000
0.000000
0.000000
0.611127
0.000000
0.675505
0.000000
0.000000
0.290072
0.000000
0.523992
0.000000
0.000000
0.046712
0.073547
0.000000
0.000000
0.303720
0.000000
0.141849
0.023054
0.495958
0.363186
0.386557
0.000000
0.663215
0.816099
0.124440
0.000000
0.148196
0.301519
0.588835
0.000000
0.472876
0.147804
0.422118
0.000000
0.000000
0.304770
0.011067
0.000000
0.000000
0.065049
0.000000
0.933947
0.000000
0.600310
