0.028304
0.366945
0.000000
0.000000
0.169370
0.000000
0.554242
0.000000
0.000000
0.113954
0.189877
0.632564
0.000000
0.458370
1.367203
0.000000
0.210982
0.000000
0.000000
0.430275
0.000000
0.000000
0.802225
0.000000
0.062173
0.000000
0.000000
0.440086
0.369160
0.543657
0.596901
0.000000
0.015123
0.000000
0.158606
0.000000
0.000000
0.000000
0.898602
0.061094
0.000000
1.478089
0.000000
0.000000
0.511293
0.000000
0.484421
0.000000
0.000000
0.000000
0.000000
0.000000
0.943208
0.000000
0.000000
0.000000
0.212735
0.000000
0.000000
0.143648
0.000000
1.085050
0.000000
1.595849
1.141817
0.000000
0.301717
0.092113
0.000000
0.000000
0.000000
0.000000
0.251297
0.171277
0.000000
0.198172
0.000000
0.000000
0.000000
0.000000
0.000000
0.000000
0.005568
0.000000
0.000000
0.000000
0.000000
0.000000
0.679734
0.673416
0.000112
1.751010
0.812267
0.000000
0.000000
0.293567
0.000000
0.113234
0.000000
0.267671
0.000000
0.000000
0.000000
0.000000
0.337579
0.000000
0.000000
0.000000
0.000000
0.000000
0.000000
0.507446
0.000000
0.890191
0.000000
0.047751
0.065927
0.000000
0.883979
0.000000
0.000000
0.154572
0.009738
0.132042
0.197207
0.417779
0.279862
0.000000
0.584752
0.942031
0.297123
0.783211
0.000000
0.600936
1.169915
0.000000
0.177310
0.000000
2.692327
0.000000
0.000000
0.000000
0.588245
0.631348
0.303292
0.000000
0.000000
0.000000
0.953897
0.000000
0.000000
0.000000
0.000000
0.184013
0.000000
0.000000
0.000000
0.000000
0.000000
0.196203
0.588742
0.000000
0.183256
1.117903
0.320798
1.966524
0.000000
2.146423
0.762035
0.000000
0.000000
0.000000
0.000000
0.546701
0.647723
0.364579
0.000000
1.825680
0.231847
0.000000
1.050498
0.245146
0.000000
0.000000
0.000000
0.000000
0.810930
0.000000
1.034081
0.187512
0.000000
0.000000
0.000000
0.401675
0.182136
0.000000
0.000000
0.324546
0.615067
0.000000
0.242794
0.000000
0.000000
0.094276
0.000000
0.956475
1.384925
0.000000
3.118518
0.000000
0.000000
0.000000
0.585206
0.000000
0.000000
0.000000
0.000000
0.000000
0.000000
0.467862
1.676841
0.000000
0.000000
0.505713
0.363297
1.044298
0.035626
1.723539
0.000000
0.335832
2.494094
0.000000
0.000000
1.024185
0.000000
0.000000
0.000000
0.000000
0.647447
1.631622
0.243685
0.000000
0.731957
0.951873
0.000000
0.000000
0.000000
0.374778
1.807212
0.000000
0.000000
1.410318
0.380589
0.000000
0.000000
0.000000
0.299963
0.000000
0.000000
0.000000
0.000000
0.644149
0.009001
0.000000
0.032160
0.000000
0.000000
1.088058
0.487332
1.543488
0.000000
0.000000
0.032358
0.034850
0.052446
0.000000
0.000000
0.000000
0.832783
0.678000
0.000000
0.000000
2.275367
0.000000
0.000000
0.000000
0.632067
0.000000
0.869999
0.000000
0.229194
0.489783
0.957827
0.000000
0.518475
0.000000
0.000000
0.000000
0.864895
0.000000
0.000000
0.000000
0.329596
0.291868
0.000000
0.000000
0.463073
0.000000
0.000000
0.545320
1.455502
0.000000
0.000000
0.267923
0.000000
0.375487
0.000000
0.000000
0.089403
0.000000
0.564276
0.000000
0.878207
1.236024
0.815952
0.565531
0.848710
1.853387
0.000000
0.347523
0.000000
0.000000
0.852595
0.000000
0.000000
0.366286
0.059071
1.885839
0.000000
0.000000
0.000000
0.000000
0.108496
0.000000
0.000000
0.000000
0.000000
0.000000
0.000000
1.489776
0.000000
0.766256
0.660722
0.000000
0.000000
0.000000
0.000000
0.909065
0.000000
0.000000
0.672221
0.346461
0.000000
0.459524
0.826240
0.380596
0.566754
0.268525
0.000000
0.000000
0.000000
0.000000
0.000000
1.733648
0.000000
0.000000
0.000000
1.014225
1.553175
0.001519
0.566739
0.000000
0.000000
0.000000
0.384619
0.883838
1.870043
0.000000
0.000000
0.178321
0.000000
0.000000
0.444623
0.282381
0.689225
1.368815
0.000000
0.000000
0.000000
0.039968
0.000000
0.336771
0.208472
0.517633
0.000000
0.000000
0.239452
0.254009
0.000000
0.000000
0.461086
0.000000
0.204277
0.373701
0.466819
0.404255
0.000000
0.000000
0.000000
0.000000
0.585443
0.000000
0.000000
0.000000
0.000000
0.000000
0.146482
0.000000
0.308918
0.000000
0.000000
2.045054
0.000000
0.804771
0.000000
0.000000
0.000000
0.179791
0.088303
0.000000
0.000000
0.000000
0.495198
0.000000
0.000000
0.678646
0.000000
0.000000
0.000000
0.000000
2.798296
1.199822
0.799601
0.000000
1.413097
0.510528
0.000000
0.009300
0.000000
0.092432
0.113703
0.000000
0.291764
0.539395
0.146244
1.533798
0.307641
0.195113
0.000000
0.976669
0.344810
0.000000
0.000000
1.050232
0.000000
0.720205
0.000000
1.656420
0.000000
1.001118
0.000000
0.000000
0.260543
1.269030
0.863349
0.000000
0.000000
0.000000
0.000000
0.649644
0.371116
0.000000
0.000000
0.349262
0.036081
0.000000
0.000000
0.155406
1.527349
0.069261
