0.488745
0.689212
0.000000
0.000000
0.000000
0.000000
0.191508
0.000000
0.386658
0.000000
2.042611
0.090871
0.000000
0.700419
0.266567
0.000000
1.215408
0.000000
0.000000
0.000000
0.000000
0.000000
0.806903
0.242462
0.000000
0.331307
0.204479
0.292956
0.000000
0.000000
0.160019
0.326758
0.267025
0.000000
0.000000
0.000000
0.000000
0.000000
1.537688
0.000000
0.000000
1.027591
0.890901
0.000000
1.295890
0.000000
0.000000
0.394534
0.271665
0.000000
0.000000
0.000000
0.646445
0.653569
0.000000
0.850124
0.022275
0.000000
0.358639
1.264595
0.000000
2.238258
0.000000
1.190502
0.000000
0.000000
0.000000
0.306961
0.465894
0.497913
0.000000
0.000000
0.074695
0.282838
0.421464
0.126646
0.000000
0.000000
0.000000
0.927574
0.139177
0.131213
0.000000
0.000000
0.156485
0.000000
1.015599
0.000000
0.535517
0.516035
0.000000
0.000000
1.448902
0.000000
0.400657
0.000000
0.000000
0.805917
0.000000
0.136702
0.000000
0.008359
0.000000
0.019572
0.000000
0.000000
0.525259
0.051914
1.156914
0.561442
0.289310
0.928657
0.000000
0.000000
0.000000
0.000000
0.000000
0.000000
1.367388
0.000000
0.000000
0.000000
0.000000
0.468695
0.000000
0.085081
0.000000
0.000000
0.482791
0.302718
0.000000
0.346689
0.000000
0.000000
0.171331
0.697826
0.818959
0.000000
2.119167
0.000000
0.000000
0.000000
0.000000
0.000000
0.000000
0.000000
0.000000
0.745582
0.089388
0.000000
0.135288
0.000000
0.098743
0.887414
0.109137
0.000000
0.413578
0.000000
0.000000
0.000000
0.155191
0.000000
0.000000
0.000000
0.000000
0.984053
0.000000
1.554265
0.000000
0.185070
0.000000
0.000000
0.093483
0.215871
0.416817
0.342338
0.000000
0.916519
0.000000
0.149974
0.438033
0.000000
0.000000
0.000000
0.098921
0.000000
0.512331
0.677601
0.900987
1.046968
0.874941
0.000000
0.000000
0.000000
0.231093
0.000000
0.352568
0.298726
0.523443
0.000000
0.027958
0.286006
0.338360
0.014724
0.162490
0.909188
0.168629
0.621021
2.070105
0.000000
0.120446
0.046925
0.000000
0.000000
0.328709
0.489853
0.814004
0.000000
0.000000
0.000000
0.000000
0.000000
0.000000
1.202955
0.000000
0.876416
1.197442
1.705239
0.306447
0.000000
0.460422
0.406938
0.000000
0.000000
0.311084
0.000000
0.323540
0.000000
0.502202
0.000000
0.329816
0.576968
0.331258
0.738662
0.000000
0.246328
0.000000
0.000000
0.658143
0.000000
1.360026
0.136859
0.823611
0.000000
1.030343
0.000000
0.000000
0.259228
0.000000
0.000000
0.638060
0.000000
0.000000
0.228926
0.236307
0.000000
0.000000
0.647733
0.407723
1.278858
0.000000
0.000000
0.008741
0.000000
0.108294
0.433529
0.063541
1.392973
0.533713
0.000000
0.000000
0.000000
0.019204
0.364821
0.000000
0.281549
0.578874
0.000000
1.799921
0.901874
0.000000
0.453875
0.552448
0.001365
0.000000
0.000000
0.111933
0.053152
0.000000
0.324594
0.000000
0.269455
0.000000
0.035302
0.461120
0.000000
0.311280
0.579989
0.114111
0.000000
1.390985
0.669168
0.008180
0.000000
0.000000
0.000000
0.272210
0.000000
0.082249
0.601488
0.000000
0.000000
2.093337
0.413653
0.343871
0.000000
0.000000
0.912526
0.000000
0.514442
0.000000
0.000000
0.861118
0.000000
0.031533
0.000000
0.214795
0.000000
0.000000
0.209711
0.000000
0.000000
0.000000
0.000000
0.000000
0.134207
0.000000
0.000000
0.703703
0.000000
1.179374
0.000000
0.369326
0.724416
0.000000
0.000000
0.926194
1.551074
0.000000
0.578895
0.196515
0.000000
0.000000
0.957309
1.378373
0.000000
0.021447
0.233892
0.886246
0.789178
0.000000
0.018233
0.000000
1.927177
0.000000
0.000000
0.098585
0.634858
0.447625
0.000000
0.263538
0.000000
0.000000
0.405862
0.000000
0.385249
1.075917
0.000000
0.000000
0.355792
0.144530
0.000000
0.115123
1.139454
0.000000
0.000000
0.000000
0.000000
0.000000
0.259654
0.373293
2.517542
0.000000
0.029156
0.000000
0.259887
0.218797
0.506432
1.363176
1.493859
0.679362
0.000000
1.346097
0.042461
2.270026
0.200858
0.538999
0.000000
1.327937
0.485648
0.000000
0.175267
0.010992
0.302959
0.000000
0.406798
1.317578
0.562466
0.046486
0.355224
0.000000
0.801451
0.884304
0.474671
0.281873
0.000000
0.000000
0.000000
0.000000
0.000000
0.000000
0.000000
0.855365
0.000000
0.000000
0.054751
0.000000
0.402936
0.000000
0.087157
0.575954
0.000000
1.219629
0.000000
1.276528
0.000000
0.000000
0.144948
0.000000
0.000000
0.000000
1.176513
0.487666
0.000000
0.000000
0.000000
0.476806
0.196315
0.000000
0.716912
0.515321
0.057849
0.072097
0.988533
0.000000
0.000000
0.307864
0.935100
0.000000
0.000000
0.411102
0.000000
0.000000
0.000000
0.000000
0.262601
0.823115
0.000000
0.000000
0.000000
0.000000
0.000000
0.000000
0.749132
0.000000
1.027963
0.372858
0.037224
0.000000
0.000000
