0.000000
0.739488
0.000000
0.000000
0.815440
0.000000
0.201747
0.513130
0.000000
0.000000
1.028492
0.000000
0.000000
0.291977
0.738225
0.062393
0.712397
0.000000
0.000000
0.198006
0.000000
0.000000
0.000000
0.000000
0.189249
0.000000
0.000000
0.451715
1.741226
0.007059
0.682729
0.000000
0.861752
0.000000
0.000000
0.000000
0.000000
0.000000
0.495788
0.136033
0.000000
0.268523
0.000000
0.000000
0.000000
0.021430
0.000000
0.800192
0.000000
0.000000
1.366133
0.000000
0.844482
0.000000
0.000000
0.622874
0.468334
0.010441
0.046063
0.303184
0.000000
1.873656
0.490282
0.907158
0.213545
0.000000
0.000000
0.648887
0.000000
0.936211
0.388366
0.000000
0.000000
0.521327
0.318332
0.550370
0.000000
0.000000
0.000000
0.000000
0.000000
0.000000
0.055607
0.074921
0.000000
0.000000
0.454320
0.428796
0.041058
0.000000
0.000000
1.230472
0.968602
0.000000
0.000000
0.717193
0.000000
0.120797
0.000000
0.000000
0.572889
0.000000
0.459722
0.000000
0.529561
0.000000
0.000000
0.000308
0.188873
0.000000
0.000000
0.623263
0.000000
0.854497
0.071095
0.132793
0.715162
0.000000
0.000000
0.000000
0.000000
0.094411
0.000000
1.219126
1.479538
0.504102
0.095177
0.000000
0.078224
0.517496
0.576202
0.448910
0.000000
0.884043
0.000000
0.118719
0.101226
0.298530
1.650534
0.000000
0.000000
0.000000
0.347141
0.000000
0.257874
0.335325
0.000000
0.670672
0.756334
0.000000
0.000000
0.000000
0.000000
0.000000
0.129115
0.336083
0.000000
0.000000
0.000000
1.402802
0.090178
0.086924
0.010238
0.000000
0.000000
1.523988
0.000000
0.000000
0.321027
0.132149
0.000000
0.584590
0.000000
0.574701
1.243485
0.000000
0.000000
1.462522
0.000000
0.000000
0.573048
0.070666
0.000000
0.000000
0.000000
0.000000
0.020980
0.280628
0.096313
0.260149
0.135188
0.938289
0.000000
0.101686
0.000000
0.116413
0.000000
0.410043
0.000000
0.000000
0.000000
0.000000
0.000000
1.067949
0.203321
0.636516
0.233167
0.000000
0.354968
0.279924
0.000000
0.000000
0.000000
0.998402
0.000000
0.000000
0.000000
0.000000
0.000000
0.582709
1.912852
0.000000
0.000000
0.657922
0.325668
0.574699
0.981789
1.102369
0.000000
0.369985
0.735145
0.000000
0.000000
0.478964
0.281289
0.000000
0.000000
0.000000
0.324634
0.665120
0.136990
0.000000
0.004766
0.558912
0.000000
0.525491
0.000000
0.302875
0.678923
0.000000
0.000000
0.000000
0.000000
0.000000
0.490098
0.000000
0.512832
0.000000
0.169935
0.000000
0.000000
0.000000
0.151352
0.302787
0.680289
0.000000
0.000000
0.444866
0.039919
0.250414
0.476443
0.000000
0.007114
0.000000
0.126239
0.000000
0.000000
0.224474
0.785130
0.000000
0.000000
0.000000
1.086352
0.000000
0.146224
0.000000
0.416106
0.000000
1.264533
0.712232
0.702060
0.173017
0.078139
0.000000
0.577787
0.000000
0.541198
0.000000
0.472824
0.000000
0.000000
0.000000
0.795797
0.670537
0.000000
0.000000
0.211187
0.160520
0.000000
0.000000
0.004267
0.000000
0.718795
0.428009
0.000000
0.005599
0.059259
0.668302
0.673896
0.612370
0.156730
0.000000
0.516825
0.000000
0.581768
0.000000
0.591275
0.133689
0.000000
0.000000
0.000000
0.000000
0.390486
0.000000
0.080098
0.845956
0.000000
0.000000
0.514606
0.000000
0.000000
0.111092
0.295284
0.000000
0.000000
0.000000
0.000000
0.122086
0.000000
1.119587
0.905273
0.611391
0.314526
0.000000
0.000000
0.000000
0.000000
0.669987
0.000000
0.000000
0.838368
0.625801
0.000000
0.267565
0.000000
0.000000
1.320092
0.159237
0.000000
0.000000
0.000000
0.000000
0.000000
0.653460
0.000000
0.000000
0.865192
0.000000
0.477177
0.000000
0.524411
0.000000
0.000000
0.000000
0.110058
0.000000
0.495126
0.000000
0.330409
0.332539
0.000000
0.000000
0.792528
0.000000
0.369968
0.515736
0.000000
0.000000
0.000000
0.079121
0.000000
1.281125
0.030820
0.304176
0.000000
0.000000
0.519898
0.000000
0.000000
0.000000
0.814301
0.027554
0.000000
0.009106
0.836565
0.000000
0.000000
0.000000
0.000000
0.394049
0.066321
0.000000
0.000000
0.133699
0.000000
0.000000
0.280748
0.485695
0.042766
0.000000
0.007915
0.146402
0.000000
0.000000
0.000000
0.000000
0.163150
0.299601
0.125654
0.000000
0.091583
0.077065
0.000000
0.000000
0.261982
0.262747
0.000000
0.000000
0.000000
0.000000
0.000000
0.000000
0.617948
0.000000
0.713486
1.774504
0.000000
0.000000
0.000000
0.000000
0.175471
0.915272
0.277891
0.000000
0.232847
0.402682
0.494643
1.103379
0.000000
0.355621
0.000000
0.082693
0.348928
0.796692
0.000000
0.000000
0.000000
0.048752
0.000000
0.136681
0.000000
0.000000
0.000000
1.147395
0.212216
0.082462
0.000000
0.566902
0.054798
0.216678
0.397191
0.000000
0.015717
0.000000
0.000000
0.000000
0.000000
0.127748
0.109929
0.512040
