0.040992
0.458213
0.667120
0.000000
0.263250
0.160443
0.956443
0.000000
0.000000
0.342363
0.000000
2.431538
0.000000
0.000000
0.693142
0.000000
0.000000
0.239817
0.000000
0.000000
0.000000
0.600026
0.747604
0.000000
0.000000
0.522635
0.000000
0.261158
0.000000
0.000000
0.000000
1.241534
0.360139
0.000000
0.589264
0.000000
0.000000
0.528827
0.632194
0.000000
0.000000
1.532601
0.000000
0.000000
1.100314
0.000000
1.677459
0.396587
0.000000
0.000000
0.000000
0.000000
0.310502
0.000000
0.000000
0.000000
0.636900
0.000000
0.000000
0.140817
0.000000
0.185922
0.000000
0.885548
0.490344
0.000000
0.775072
0.000000
0.000000
0.000000
0.000000
0.691953
0.441364
0.005992
0.000000
0.000000
0.000000
1.208602
0.120181
0.000000
0.209505
0.000000
0.000000
0.000000
0.000000
0.000000
0.000000
0.000000
0.000000
0.342639
0.000000
0.000000
0.120675
0.000000
0.410755
0.000000
0.074658
0.017087
0.000000
0.709283
0.083955
0.566211
0.000000
0.000000
0.000000
0.000000
0.202993
0.398655
0.007689
0.000000
0.239530
0.134388
0.000000
1.431859
0.000000
1.194994
0.000000
0.000000
0.776137
0.000000
0.000000
0.000000
0.619540
0.054329
0.197825
0.000000
0.284949
0.250864
0.105206
0.186088
0.387784
0.150809
0.000000
0.000000
0.883044
0.000000
2.112535
0.000000
2.098906
0.059258
0.031704
0.000000
0.491409
0.279772
0.710661
0.000000
0.000000
0.000000
0.000000
0.000000
0.012811
0.000000
0.000000
0.396049
0.000000
0.000000
0.027451
0.000000
0.208849
0.000000
0.000000
0.000000
0.011546
2.333190
1.057235
0.000000
0.000000
3.118720
0.000000
0.000000
0.361681
0.052705
0.000000
0.000000
0.000000
1.104846
0.000000
0.084290
0.000000
0.746277
1.123922
0.192893
0.000000
0.000000
0.906983
0.000000
1.035761
0.000000
1.349545
0.894919
0.000000
0.000000
0.179096
0.882731
0.000000
0.000000
0.000000
0.615891
0.051047
0.000000
0.000000
0.000000
0.303433
0.012424
0.000000
1.442690
0.815266
0.000000
3.697677
0.000000
0.000000
0.000000
0.000000
0.000000
0.085227
0.000000
0.230398
0.000000
0.000000
0.000000
0.653263
0.224325
0.000000
0.000000
0.000000
0.835330
0.000000
0.245404
0.000000
0.309297
0.807238
0.890995
0.000000
1.804403
0.000000
0.000000
0.000000
0.000000
0.010748
0.538058
1.497662
0.231024
1.231604
0.581265
0.000000
0.000000
0.456944
0.396849
1.148940
0.000000
0.000000
1.142862
0.502965
0.000000
0.000000
0.000000
0.498420
0.000000
0.073278
0.000000
0.000000
0.519266
0.286452
0.000000
0.000000
0.000000
0.000000
1.311025
0.125645
1.543418
0.515887
0.000000
0.000000
0.232761
0.894239
0.148504
0.115710
0.000000
0.915984
0.504663
0.000000
0.173274
1.352657
0.000000
0.000000
0.000000
1.080224
0.000000
0.670922
0.000000
0.000000
0.177508
0.793099
0.000000
0.000000
0.126723
0.000000
0.000000
0.000000
0.000000
0.487680
0.000000
0.000000
0.000000
0.271268
0.039834
1.369868
0.400398
0.000000
0.000000
2.629590
0.713544
0.000000
0.469132
0.000000
0.236358
0.000000
0.000000
0.266706
0.346586
0.101082
0.000000
0.000000
2.502242
0.571238
0.811098
0.000000
2.142294
0.000000
0.219665
0.000000
0.000000
0.502377
0.937403
0.042447
0.000000
0.473210
1.822129
0.000000
0.426933
0.000000
0.000000
0.000000
0.000000
0.127050
0.452042
0.000000
0.000000
0.722841
0.248300
0.000000
0.000000
0.186355
0.068097
0.139348
0.000000
0.000000
0.288166
0.000000
0.618588
0.655228
0.000000
0.313944
1.239585
1.614046
0.000000
0.079545
0.153204
0.348483
0.000000
0.326620
0.158309
0.000000
0.846728
0.000000
0.000000
0.000000
1.027367
0.602427
0.306369
0.276565
0.000000
0.000000
0.529041
1.081228
0.476788
1.770433
0.000000
0.000000
0.703765
0.000000
0.000000
0.442606
1.472520
0.000000
1.390196
0.088176
0.000000
0.000000
0.834863
0.289646
0.000000
0.000000
0.000000
0.213401
0.852635
0.457182
1.045317
0.122646
0.000000
0.359369
0.179254
0.293999
0.270353
0.000000
0.387464
0.000000
0.000000
0.000000
0.000000
0.180252
0.000000
0.000000
0.000000
0.000000
0.000000
0.000000
0.145844
0.161211
0.000000
0.014661
2.096341
0.298933
0.923832
0.182219
0.097480
0.000000
0.612897
0.008886
1.206020
0.000000
0.000000
1.557165
0.030233
0.808169
0.068181
0.000000
0.041413
0.000000
0.000000
2.414724
1.187592
0.000000
0.000000
1.999064
0.000000
0.000000
0.728431
0.000000
0.262528
0.467161
0.000000
1.143430
0.754519
0.713982
1.294738
0.000000
0.000000
0.000000
0.512830
0.717872
0.000000
0.000000
1.149653
0.931585
0.319492
0.000000
2.142520
0.402041
0.529276
0.000000
0.000000
1.451576
0.111408
1.208415
0.000000
0.000000
0.000000
0.000000
0.927860
0.000000
0.287421
0.000000
0.000000
1.126682
0.000000
1.941668
0.481572
2.146613
0.000000
