0.258042
0.255764
0.224433
0.000000
0.198910
0.000000
0.101341
0.000000
0.000000
0.000000
2.606150
0.000000
0.000000
0.342020
0.365978
0.000000
0.492920
0.000000
0.000000
0.000000
0.000000
0.000000
0.223734
0.674273
0.122259
0.000000
2.466673
0.000000
0.652405
0.000000
0.701652
0.907258
0.931949
0.000000
0.000000
0.000000
0.000000
0.967520
0.957227
0.000000
0.685374
0.717155
1.202292
0.071451
0.000000
0.000000
0.000000
0.222099
0.000000
0.028845
0.593347
0.000000
0.741468
0.691753
0.000000
0.823763
0.000000
0.078530
1.464461
0.313363
1.560212
1.125871
0.000000
0.062261
0.000000
0.868479
0.000000
0.053474
0.545494
0.890311
0.155840
0.000000
0.000000
0.872590
0.341530
0.888600
0.000000
1.504426
0.000000
0.835298
0.000000
0.000000
0.000000
0.000000
0.258042
0.000000
0.672755
0.030204
1.335304
0.000000
0.000000
0.000000
0.000000
0.550700
1.460865
1.369691
0.000000
0.303582
0.000000
0.216775
0.079356
0.000000
1.364967
0.276235
0.275963
0.000000
0.295847
0.541447
0.095090
0.699428
0.000000
0.393036
0.000000
0.048665
0.000000
0.601198
0.000000
0.000000
0.000000
0.000000
0.000000
0.000000
0.000000
0.078332
0.000000
0.000000
0.000000
0.000000
0.000000
0.000000
0.000000
0.000000
1.524567
0.000000
0.000000
0.943396
0.388052
0.607063
1.432987
0.000000
0.000000
0.000000
0.000000
0.000000
0.000000
0.000000
0.000000
1.568869
0.000000
0.000000
0.106801
0.000000
1.060032
0.937234
0.000000
1.173100
0.000000
0.308076
0.000000
0.627262
0.000000
0.501042
0.021758
0.000000
0.000000
0.000000
0.000000
0.000000
0.000000
0.075259
0.000000
0.000000
0.647960
0.070558
0.000000
0.000000
0.406768
0.000000
0.000000
0.300828
0.782363
0.078378
0.000000
0.000000
0.288778
0.000000
0.000000
0.196812
0.422343
0.691818
0.595747
1.447712
0.000000
0.347724
0.105909
0.000000
0.047182
0.171695
0.114727
0.000000
0.085264
0.402281
0.164134
0.231447
1.003154
0.004748
0.000000
0.070947
0.060556
0.000000
0.000000
0.000731
0.000000
1.994383
0.000000
0.000000
0.434521
0.150546
0.000000
0.442003
0.000000
0.000000
0.000000
0.596853
0.000000
0.356553
0.696017
1.513941
0.000000
0.000000
0.097453
0.000000
0.000000
0.000000
1.027833
0.000000
0.000000
0.000000
0.787524
0.601654
0.856899
1.810384
0.000000
0.240225
0.450695
0.459143
0.000000
0.000000
0.852658
0.000000
1.663387
0.000000
0.387983
0.000000
1.020444
0.132698
0.165448
1.450078
0.000000
0.142329
0.241369
0.000000
0.000000
0.535331
1.408108
0.000000
0.128757
0.811767
0.000000
0.523429
0.000000
0.176658
0.100078
0.000000
0.000000
0.377717
0.542632
0.314010
0.000000
0.000000
0.000000
0.000000
0.272262
0.260081
0.965994
0.560865
0.194569
0.430905
1.476631
1.746636
0.887893
0.158975
0.178197
0.038689
0.000000
0.000000
0.297904
0.282451
0.000000
0.589300
0.140161
0.081747
0.000000
0.333144
0.339382
0.000000
0.237480
0.040498
0.015873
0.000000
1.252633
0.006181
0.000000
0.000000
0.579456
0.000000
0.000000
0.142423
0.000000
0.215441
0.320655
0.000000
0.638492
0.000000
0.384852
0.000000
0.000000
0.000000
0.099142
0.081043
0.000000
0.000000
0.508210
0.000000
0.275901
0.157284
0.000000
0.000000
1.318605
0.316971
0.000000
0.000000
0.021714
0.000000
0.000000
0.000000
0.000000
0.000371
0.000000
0.000000
1.325243
0.260248
0.000000
0.454484
0.000000
0.000000
0.558932
0.757621
0.000000
0.617622
0.410744
0.748987
0.141359
0.232092
0.405047
0.000000
0.114056
0.083889
0.161379
0.620105
0.000000
0.485812
0.293374
0.589711
0.000000
0.000000
0.044824
0.092330
0.134830
0.000000
0.306971
0.000000
0.000000
0.724970
0.000000
0.000000
0.911358
0.076608
0.619429
0.097445
0.363122
0.131756
0.000000
0.022041
0.000000
0.000000
0.158481
0.000000
0.000000
0.194364
0.309789
1.782134
0.000000
0.000000
0.000000
0.000000
0.119690
0.000000
0.335162
1.275722
0.621970
0.000000
0.530767
0.000000
1.994159
0.038005
0.244930
1.712216
0.209869
0.258081
0.000000
0.058708
0.000000
0.240988
0.000000
0.349255
0.706145
0.283266
0.351255
0.216860
0.000000
0.000000
0.000000
0.000000
0.000000
0.000000
0.730833
0.000000
0.000000
0.000000
0.219047
0.790872
0.174899
0.000000
0.325262
0.000000
0.000000
0.427561
0.000000
1.088590
0.000000
0.000000
0.000000
0.476367
1.000209
3.047292
0.075773
0.008990
0.000000
0.000000
0.021496
1.448128
0.000000
0.000000
0.038350
0.000000
0.000000
0.000000
0.280900
0.000000
0.000000
0.507974
0.015398
1.017311
0.000000
0.094941
0.000000
0.088971
0.000000
0.000000
0.031877
0.260570
0.000000
0.535653
0.000000
0.000000
0.908653
0.000000
0.013765
0.295447
0.000000
0.000000
0.000000
0.049872
1.079213
0.386143
0.899917
0.143886
0.000000
0.000000
