1.127521
0.627108
0.092351
0.000000
0.000000
0.000000
0.070570
0.811293
0.000000
0.000000
1.616927
0.547594
0.000000
0.808840
0.534249
0.000000
0.293215
0.000000
0.000000
0.000000
0.000000
0.000000
0.414135
0.000000
0.089168
1.381567
0.271646
0.000000
0.182689
0.000000
0.105659
0.000000
0.000000
0.000000
0.000000
0.000000
0.000000
0.081776
0.000000
0.000000
0.000000
0.927915
0.000000
0.000000
0.636535
0.091142
0.000000
0.000000
0.446387
0.000000
0.076860
0.000000
0.000000
0.000000
0.000000
1.563194
1.201028
0.491121
0.939769
0.721847
0.000000
1.795218
0.908401
0.627186
0.077472
0.000000
0.335847
0.312829
0.000000
0.791277
0.381678
0.000000
0.096750
0.402502
0.000000
0.065543
0.000000
0.000000
0.098042
0.292211
0.000000
0.082218
0.907539
0.000000
0.271924
0.000000
0.412643
0.000000
0.459050
0.371766
0.000000
0.209057
0.598301
0.433442
0.129657
0.000000
0.000000
0.471041
0.000000
0.038516
0.254625
0.172730
0.202629
0.000000
0.703883
0.000000
0.550142
0.000000
0.513121
0.322274
0.023614
0.804652
0.000000
0.349838
0.000000
0.000000
0.303672
0.000000
2.819008
0.000000
0.000000
0.000000
0.558837
0.393847
0.000000
0.000000
0.000000
0.000000
0.000000
0.143086
0.200993
0.219442
0.193597
0.000000
0.000000
0.000000
0.159767
0.000000
1.457906
0.000000
0.000000
0.044842
0.890572
0.086418
0.076761
0.000000
0.000000
0.000000
0.171379
0.000000
0.531229
0.000000
0.000000
0.864438
0.000000
0.938734
1.179591
0.000000
0.000000
0.000000
0.000000
0.000000
0.000000
0.000000
0.000000
0.000000
0.000000
1.455190
0.269375
0.000000
0.000000
0.000000
0.000000
0.000000
0.000000
0.000000
0.000000
0.775245
0.172292
0.362159
0.319620
0.303918
0.000000
0.000000
0.470267
0.000000
0.455439
0.425675
0.491705
0.000000
1.030400
0.744149
1.468798
0.318720
0.129482
0.310721
0.000000
0.017187
0.000000
0.000000
0.176179
0.000000
0.000000
1.029201
0.640941
1.428961
0.612811
0.000000
1.269107
0.000000
0.000000
0.000000
0.000000
0.000000
0.000000
0.139466
0.260255
0.000000
0.000000
0.422047
0.649132
0.000000
0.007344
0.741494
0.000000
0.565234
0.000000
1.031840
0.000000
0.000000
0.000000
0.006782
0.000000
0.000000
0.473785
0.000000
1.354187
0.000000
0.504835
0.508262
1.312855
0.000000
0.127083
0.641988
0.000000
0.226292
0.000000
0.598601
0.879095
0.000000
0.000000
0.000000
0.000000
0.000000
0.728659
0.000000
0.087434
0.000000
0.000000
0.231415
0.384390
0.000000
0.617240
0.286696
0.090302
0.000000
0.000000
0.000000
0.000000
0.880068
0.000000
0.000000
0.000000
0.000000
0.633558
0.127527
0.289275
1.310661
0.000000
0.000000
0.000000
0.000000
0.000000
0.000000
0.478562
0.000000
0.000000
0.000000
1.133214
0.000000
0.000000
0.000000
0.000000
0.000000
0.000000
0.000000
1.012930
0.000000
0.000000
0.213081
0.880856
0.000000
0.000000
0.259837
0.000000
0.000000
1.095297
0.497299
0.000000
0.000000
0.184821
0.186966
0.000000
0.254589
0.000000
0.058876
0.245644
0.569921
0.000000
0.386184
0.263569
0.000000
1.200866
0.833779
0.276862
0.000000
0.000000
0.063676
0.000000
0.242749
0.000000
0.000000
0.349561
0.000000
0.000000
0.000000
0.164679
0.000000
0.000000
0.190510
0.006612
0.000000
0.000000
0.000000
0.000000
1.186962
0.000000
0.000000
0.757414
1.050605
0.889375
0.661398
0.000000
2.120731
0.000000
0.000000
0.817023
0.917358
0.000000
0.000000
0.536431
0.531307
0.000000
1.037448
0.993773
0.000000
0.870542
0.637191
0.322585
0.000000
0.000000
0.000000
0.000000
0.602733
0.000000
0.290590
0.340705
0.450209
0.707114
0.000000
0.182396
0.000000
0.103739
0.000000
0.322233
0.000000
0.566071
0.000000
0.583839
0.500553
0.152269
0.000000
0.000000
1.700581
0.000000
0.433473
0.000000
0.000000
0.000000
0.879343
0.295777
1.144196
0.000000
0.156481
0.000000
0.314979
0.510072
0.171281
1.469739
0.729019
0.115723
0.157247
0.000000
0.000000
0.884093
0.000000
0.000000
0.000000
0.098581
0.164648
0.000000
0.000000
0.000000
0.000000
0.505977
0.347881
0.655546
0.287833
0.000000
0.299329
1.879721
1.066821
2.146152
0.000000
0.000000
0.000000
0.151219
0.392834
0.000000
0.000000
0.297342
0.000000
0.000000
0.000000
0.287167
0.300180
0.000000
0.000000
0.000000
0.000000
0.000000
1.412395
0.000000
0.000000
1.027264
1.255377
0.000000
0.000000
0.000000
0.000000
0.000000
0.911172
0.120288
0.000000
1.444735
0.073054
0.118618
0.172531
0.000000
0.340306
0.436088
0.000000
0.000000
0.701465
0.000000
0.000000
0.220677
1.691378
0.158407
0.000000
0.196942
0.000000
0.000000
0.745463
0.554546
0.000000
0.000000
0.148076
0.000000
0.118186
0.000000
0.000000
0.000000
0.000000
0.492589
1.211785
0.362122
0.245973
0.524506
0.385097
