0.000000
0.743656
0.167865
0.373195
0.455741
0.143356
0.000000
0.716518
0.228865
0.371494
0.409604
0.000000
0.000000
0.210542
0.000000
0.039268
0.049126
0.297770
0.379127
0.229689
0.354129
0.000000
0.318441
0.000000
0.000000
0.000000
0.000000
0.000000
0.438352
0.000000
0.511363
0.000000
0.883066
0.004768
0.000000
0.000000
0.302250
0.000000
0.912626
0.049269
0.000000
0.117221
0.395251
1.266072
0.000000
0.130083
0.000000
0.710186
0.367793
0.148035
0.601577
0.000000
1.246960
0.153210
0.000000
0.180969
0.000000
0.000000
0.000000
0.000000
0.000000
0.674536
0.000000
0.183694
0.000000
0.000000
0.000000
0.013426
0.000000
0.000000
0.653262
0.000000
0.000000
0.000000
0.253335
0.687544
0.925899
0.000000
0.000000
0.191451
0.000000
0.560739
0.196902
0.890041
0.714690
0.271035
0.086605
0.000000
0.279369
0.000000
0.000000
0.000000
0.000000
0.424402
0.000000
0.001940
0.000000
0.183800
0.062787
0.000000
0.383067
0.000000
0.652255
0.000000
0.566149
0.000000
0.068160
0.000000
0.000000
0.000000
0.000000
0.330204
0.349431
0.150952
0.693202
0.000000
0.852125
1.303508
0.000000
0.432051
0.315290
0.019777
0.626547
0.726108
0.714322
0.273262
0.000000
0.000000
0.193972
0.000000
0.000000
0.355771
0.000000
0.000000
0.202132
0.038101
0.000000
0.402301
1.008100
0.000000
0.000000
0.000000
0.000000
0.198929
0.105163
0.613695
0.334724
1.148124
0.207913
1.394608
0.124081
0.717513
0.000000
0.018198
0.000000
0.214232
0.154583
0.504557
0.660113
0.000000
0.000000
0.000000
0.000000
0.123451
0.000000
0.411977
0.256585
0.000000
0.461035
0.773785
0.575751
0.311490
0.000000
0.529824
0.504709
0.299789
0.000000
0.013728
0.000000
0.000000
0.000000
0.000000
0.518553
0.000000
0.093021
0.044682
0.000000
0.000000
0.000000
0.000000
0.000000
0.043746
0.000000
0.045937
0.000000
0.378359
0.000000
0.000000
0.175441
0.000000
0.243776
0.096253
0.000000
1.281937
0.771213
0.000000
0.000000
0.000000
0.000000
0.866194
0.000000
0.000000
0.071042
1.506642
0.083176
0.217533
0.047164
0.557917
0.121157
0.091869
0.539624
1.045252
0.601601
0.152129
0.168163
0.653931
0.233807
0.566115
0.103937
0.362573
0.320723
0.008951
0.000000
0.000000
0.146170
0.292820
0.141095
0.148555
0.000000
0.000000
0.000000
0.000000
0.000000
0.000000
1.835878
0.606030
0.000000
0.000000
0.000000
1.178858
0.105296
0.222296
0.000000
0.000000
0.993372
0.221602
0.000000
0.000000
0.000000
0.225427
0.804488
0.126103
0.000000
0.209849
0.000000
0.000000
0.121773
0.000000
0.584211
0.000000
0.146327
0.009250
0.079947
0.000000
0.000000
0.000000
0.000000
0.000000
1.069719
0.000000
0.123099
0.000000
0.000000
0.103954
1.370270
0.000000
0.000000
0.045524
1.375388
0.000000
0.000000
0.000000
0.000000
0.000000
0.746399
0.000000
0.000000
0.000000
0.000000
0.357386
0.069759
0.000000
0.250940
0.400604
0.058917
0.140791
0.000000
0.000000
0.483313
0.693661
0.000000
0.000000
0.452793
0.396265
0.706770
0.000000
0.269272
0.611306
0.953547
0.077181
0.000000
0.000000
0.000000
0.000000
0.000000
0.000000
0.000000
0.000000
0.757258
0.000000
0.523309
0.101005
0.439974
0.305131
0.268704
0.000000
0.153559
0.000000
0.364931
0.000000
0.000000
0.000000
0.000000
0.100619
0.000000
0.811784
0.032907
0.393093
0.000000
0.329000
0.407550
0.000000
0.000000
0.012736
0.000000
0.000000
0.000000
0.000000
0.000000
0.000000
0.000000
0.781006
0.000000
0.000000
0.000000
0.306244
0.000000
0.271902
0.231059
0.349883
0.388388
0.416871
0.000000
0.000000
0.478931
0.260263
0.000000
0.000000
0.000000
0.500776
0.796267
0.002549
0.000000
0.000000
0.000000
0.479169
0.000000
0.000000
0.000000
0.165541
0.585483
0.000000
1.284002
0.000000
0.002482
0.476873
0.000000
0.536694
0.000000
0.378070
0.092451
0.000000
0.000000
0.000000
0.000000
0.000000
0.751047
0.227997
0.092756
0.000000
0.826869
0.000000
0.000000
0.102340
0.101520
0.383239
0.000000
0.000000
0.000000
0.000000
0.237471
0.059211
0.036344
0.000000
0.294570
0.000000
0.085442
0.000000
0.000000
0.000000
0.000000
0.000000
1.044742
0.218760
0.000000
0.000000
0.255678
0.203829
0.000000
0.323665
0.000000
0.453390
0.357197
0.000000
0.000000
0.000000
0.091116
0.000000
1.092561
0.000000
0.000000
0.000000
0.816316
0.106606
0.000000
0.000000
0.435373
0.000000
0.000000
0.000000
0.124477
0.133910
0.000000
0.036198
0.000000
0.000000
0.808060
1.057598
0.000000
0.000000
0.000000
0.000000
0.661623
0.614608
0.109059
0.000000
0.316468
0.000000
0.000000
0.000000
0.153055
0.000000
0.000000
0.000000
0.545480
0.000000
0.000000
0.597225
0.000000
0.000000
0.233255
0.019946
0.064036
0.000000
0.000000
0.000000
0.000000
0.400944
0.000000
0.720289
