0.131839
0.464598
0.638998
0.000000
0.213637
0.130456
0.046604
0.506759
0.612681
0.570635
0.000000
0.000000
0.000000
0.433285
0.000000
0.000000
0.780373
0.586471
0.151956
0.266204
0.652860
0.000000
0.000000
0.000000
0.033470
0.000000
0.000000
0.000000
0.525154
0.046934
0.435478
0.000000
1.151334
0.000000
0.000000
0.024699
0.327801
0.000000
2.282619
0.217398
0.000000
0.000000
1.025172
1.160926
0.000000
0.063703
0.280383
0.577306
0.193753
0.825356
0.450484
0.000000
2.183098
0.009623
0.000000
0.000000
0.113581
0.000000
0.000000
0.229554
0.000000
0.883624
0.000000
0.282245
0.000000
0.000000
0.000000
0.000000
0.000000
0.199035
0.471027
0.288852
0.298899
0.000000
0.054202
0.513188
1.437206
0.157040
0.000000
0.000000
0.000000
0.312134
0.000000
0.309819
0.000000
0.000000
0.044879
0.740521
0.000000
0.000000
0.000000
0.000000
0.000000
0.279369
0.139368
0.000000
0.000000
0.378206
0.000000
0.000000
0.000000
0.000000
0.146445
0.000000
1.269082
0.000000
0.000000
0.001660
0.000000
0.000000
0.000000
0.000000
0.117719
0.479653
0.461590
0.000000
0.656472
1.595664
0.000000
0.272168
0.000000
0.368523
0.150901
0.958554
1.355746
0.396421
0.000000
0.000000
0.503063
0.183734
0.062632
1.119845
0.000000
0.210370
0.674442
0.055772
0.000000
0.634220
1.785992
0.124231
0.000000
0.000000
0.000000
0.000000
0.031627
1.030160
0.331122
1.838053
0.605292
0.515312
0.000000
0.570592
0.000000
0.000000
0.153649
0.000000
0.535688
1.477730
0.586004
0.544298
0.000000
0.000000
0.000000
0.122605
0.000000
0.812050
1.487493
0.000000
0.000000
0.000000
0.504093
0.794144
0.154810
0.376091
0.566078
0.249820
0.000000
0.530979
0.580437
0.000000
0.511190
0.000000
0.643731
0.000000
0.095060
0.125486
0.000000
0.000000
0.031017
0.125455
0.000000
0.000000
0.034938
0.070506
0.000000
0.082754
0.178623
0.091397
0.000000
0.000000
0.000000
0.000000
0.041983
0.533035
1.987263
0.000000
0.067943
0.000000
0.000000
1.130722
0.000000
0.000000
0.287874
2.784671
0.059600
0.361104
0.000000
0.323150
0.083771
0.000000
0.168139
1.652400
0.335273
0.516178
0.022260
0.808814
0.000000
1.559525
0.399939
0.138289
0.543665
1.406474
0.000000
0.128429
0.219752
0.000000
0.571335
0.206771
0.000000
0.000000
0.000000
0.000000
0.000000
0.080205
0.036048
0.845157
0.000000
0.000000
0.238613
0.225180
0.000000
1.262796
0.789153
0.000000
1.784835
0.036061
0.000000
0.000000
0.000000
0.507656
0.730405
0.151423
0.000000
0.433869
0.000000
0.306193
0.043490
0.291337
0.451987
0.000000
0.331090
0.037030
0.000000
0.000000
0.000000
0.000000
0.000000
0.005672
2.099033
0.000000
0.203661
0.119832
0.053008
0.055262
2.068717
0.000000
0.000000
0.148753
2.577434
1.301179
0.000000
0.000000
0.000000
0.000000
0.000442
0.000000
0.000000
0.000000
0.000000
0.555563
0.180911
0.000000
0.586855
0.416030
0.001387
0.000000
0.434160
0.000000
0.000000
0.121324
0.000000
0.000000
0.700880
0.028232
1.404667
0.000000
0.328967
1.154838
0.535571
0.263011
0.000000
0.000000
0.351139
0.000000
0.012127
0.000000
0.081479
0.000000
0.252065
0.000000
0.491316
0.340494
0.861897
0.147139
0.147282
0.262595
0.000000
0.000000
0.431007
0.000000
0.000000
0.000000
0.000000
0.295484
0.000000
0.202782
0.000000
0.556177
0.000000
0.636424
0.215767
0.114703
0.000000
0.227614
0.000000
0.000000
0.101660
0.036731
0.000000
0.000000
0.000000
0.000000
0.000000
0.000000
0.000000
0.082208
0.217180
0.071570
0.000000
0.784079
0.358603
0.649188
0.000000
0.000000
0.347932
0.481644
0.000000
0.000000
0.000000
1.677914
0.722994
0.000000
0.116428
0.241688
0.000000
1.187751
0.000000
0.000000
1.283503
0.135029
0.635618
0.000000
0.903992
0.000000
0.220679
0.373875
0.000000
1.178795
0.000000
0.100118
0.000000
0.637752
0.000000
0.000000
0.000000
0.000000
1.189862
0.785986
0.072377
0.000000
0.803544
0.509439
0.000000
0.455337
0.000000
0.277878
0.206653
0.000000
0.000000
0.476848
0.000000
0.000000
0.075002
0.000000
0.480405
1.321302
0.000000
0.023137
0.000000
0.000000
0.442388
0.000000
1.341745
0.051945
0.000000
0.000000
0.000000
0.242065
0.000000
0.095213
0.000000
0.369315
0.000000
0.778134
0.145071
0.000000
0.000000
0.000000
0.797855
0.000000
0.000000
0.000000
0.901870
0.109812
0.000000
0.000000
0.790228
0.000000
0.229145
0.000000
0.000000
0.783329
0.000000
0.000000
0.000000
0.000000
0.908251
0.921390
0.000000
0.000000
0.215376
0.000000
0.607006
0.395426
0.465720
0.741733
0.361779
0.000000
0.000000
0.046496
0.181019
0.000000
0.000000
0.361776
0.115321
0.000000
0.052604
0.821706
0.168220
0.000000
0.286137
0.000000
0.073893
0.000000
0.000000
0.000000
0.304961
0.389252
0.000000
0.774341
