0.817381
0.589138
0.000000
0.000000
0.000000
0.000000
0.488896
0.000000
0.000000
0.000000
1.660370
0.000000
0.232545
0.403810
0.000000
0.178349
0.500092
0.000000
0.168383
0.280327
0.000000
0.000000
0.029785
0.506391
0.387738
0.665372
2.050792
0.000000
0.839046
0.752721
0.399602
0.786717
0.036533
0.000000
0.339701
0.000000
0.000000
0.820874
0.777890
0.000000
0.038524
0.637006
0.768447
0.239943
0.189252
0.000000
0.000000
0.460885
0.165335
0.000000
0.607967
0.000000
0.461580
0.000000
0.000000
0.839806
0.077359
0.888176
2.179965
0.609321
1.480889
0.832687
0.906138
0.000000
0.000000
1.520334
0.000000
0.000000
0.710336
0.544621
0.188773
0.000000
0.000000
0.687337
0.000000
0.659774
0.000000
0.712669
0.000000
0.000000
0.000000
0.000000
0.094986
0.000000
0.598168
0.000000
0.075164
0.685498
0.630190
0.085687
0.000000
0.453159
0.101082
0.000000
1.423041
0.801883
0.000000
0.206399
0.000000
0.230106
0.000000
0.000000
0.952865
0.597411
0.067172
0.263593
0.082834
0.000000
0.245416
0.210105
0.000000
0.953095
0.028751
0.000000
0.000000
0.000000
0.000000
0.000000
2.112915
0.000000
0.000000
0.000000
0.000000
0.000000
0.067733
0.000000
0.000000
0.000000
0.449669
0.040750
0.664813
0.344607
1.688902
0.000000
0.000000
0.504096
0.000000
0.000000
0.810953
0.274127
0.000000
0.136392
0.000000
0.000000
0.000000
0.000000
0.000000
0.791960
0.000000
0.000000
0.292100
0.000000
1.035180
0.411661
0.246170
0.889615
0.000000
0.228379
0.000000
1.735894
0.000000
0.727133
0.000000
0.000000
0.000000
0.000000
0.000000
0.000000
0.000000
0.000000
0.000000
0.000000
0.000000
0.000000
0.000000
0.000000
0.595762
0.063012
0.066082
0.073471
0.426934
0.737272
0.000000
0.000000
0.000000
0.000000
0.166413
0.000000
0.871774
0.515106
0.763230
1.294655
0.757219
0.279656
0.000000
0.792569
0.000000
0.097195
0.000000
0.000000
0.082965
0.000000
0.421187
0.060312
1.019612
0.611931
0.000000
0.148183
0.000000
0.000000
0.000000
0.000000
0.000000
0.327220
0.000000
0.000000
0.082035
0.000000
0.000000
0.311607
0.000000
0.000000
0.000000
0.279881
0.000000
0.089966
0.858428
0.804198
0.002332
0.000000
0.000000
0.000000
0.000000
0.000000
0.826305
0.000000
0.000000
0.000000
0.964983
0.000000
1.199939
0.959539
0.000000
0.101760
0.000000
0.433757
0.000000
0.682955
0.487410
0.000000
0.000000
0.000000
0.299873
0.000000
0.337402
0.000000
0.000000
1.176403
0.000000
0.000000
0.000000
0.000000
0.000000
0.557784
1.049297
0.000000
0.000000
0.643742
0.000000
0.055319
0.000000
0.000000
0.316334
0.000000
0.446433
0.149086
0.415570
0.493279
0.000000
0.000000
0.437794
0.000000
0.000000
0.425366
1.173062
0.766091
0.000000
0.000000
1.158583
0.989023
1.211701
0.161882
0.085818
0.000000
0.000000
0.000000
1.365147
0.162438
0.000000
0.183659
0.043436
0.062110
0.000000
0.000000
0.637193
0.000000
0.152629
0.000000
0.000000
0.000000
0.933707
0.135067
0.176870
0.000000
0.000000
0.000000
0.096632
0.053070
0.000000
0.467126
0.624523
0.000000
0.727760
0.071239
0.274204
0.000000
0.000000
0.000000
0.000000
0.000000
0.000000
0.000000
0.235861
0.000000
0.138673
0.591627
0.541359
0.000000
0.335087
0.524866
0.000000
0.000000
0.000000
0.000000
0.123845
0.465780
0.000000
0.000000
0.000000
0.000000
2.012202
0.083756
0.000000
0.948371
0.000000
0.058231
2.071445
1.084602
0.000000
0.222142
0.000000
0.145317
0.043955
0.000000
0.000000
0.196675
2.523084
0.154682
0.000000
0.732952
0.000000
0.494957
0.000000
0.718017
0.000000
0.147653
0.410396
0.083799
0.073119
0.000000
0.355718
0.000000
0.000000
0.000000
0.000000
0.000000
0.159353
0.000000
0.726816
0.000000
0.000000
0.034108
0.000000
0.000000
0.000000
0.000000
0.338557
0.000000
0.000000
0.000000
0.319633
2.820781
0.000000
0.042070
0.031798
0.000000
0.000000
0.000000
0.677864
0.766613
0.598133
0.381225
0.000000
0.000000
0.923455
0.000000
0.000000
1.682566
0.000000
1.112319
0.000000
0.000000
0.000000
0.414549
0.000000
0.602858
0.436306
0.235422
0.931655
0.386891
1.361284
0.142625
0.157011
0.000000
0.000000
0.000000
0.485806
0.000000
0.000000
0.000000
0.949495
0.826198
0.000000
0.496182
0.222169
0.000000
0.000000
0.000000
0.282035
0.860600
0.000000
0.229942
0.000000
0.023755
1.072878
2.055612
0.000000
0.006819
0.941625
0.000000
0.000000
1.794096
0.000000
0.000000
0.000000
0.000000
0.000000
0.000000
0.000000
0.076939
0.000000
0.262969
0.197896
0.743514
0.000000
0.022350
0.000000
0.315776
0.000000
0.000000
0.006293
1.237082
0.000000
0.432541
0.000000
0.000000
0.000000
0.000000
1.594889
0.000000
0.000000
0.000000
0.000000
0.000000
0.360577
0.796852
0.291428
0.642217
0.000000
0.000000
