0.000000
1.409466
0.000000
0.000000
0.412949
0.000000
0.818886
0.000000
0.000000
0.000000
0.641475
0.000000
0.000000
0.000000
0.601227
0.000000
0.395246
0.000000
0.000000
0.000000
0.000000
0.000000
0.407421
1.071038
0.000000
0.000000
0.000000
0.000000
0.445957
0.000000
0.000000
1.580758
1.026034
0.000000
0.583128
0.000000
0.000000
0.000000
1.607667
0.000000
0.000000
1.399422
0.000000
0.000000
0.683270
0.000000
1.874658
1.322277
0.000000
0.000000
0.000000
0.000000
1.101097
0.232955
0.000000
0.000000
1.425321
0.000000
0.000000
0.765150
0.000000
1.156466
0.000000
0.406219
0.000000
0.000000
0.254976
0.000000
0.000000
0.021341
0.000000
0.007094
0.123497
0.000000
0.704136
0.000000
0.000000
0.000000
0.000000
0.000000
0.097302
0.000000
0.135846
0.000000
0.132113
0.000000
0.845429
0.152996
0.000000
0.000000
0.000000
0.000000
1.147611
0.000000
1.446831
0.000000
0.000000
0.552177
0.000000
0.476495
0.000000
0.000000
0.070063
0.000000
0.022128
0.000000
0.590205
1.109475
0.000000
0.167105
0.000000
0.653632
0.000000
0.000000
0.000000
1.844225
0.000000
0.168539
0.000000
0.000000
0.025140
0.088483
0.351973
1.862689
1.149822
0.357796
0.000000
0.000000
0.355185
0.212323
0.454725
0.657007
0.000000
0.154897
0.000000
0.000000
2.322403
0.467007
1.793505
0.398848
0.000000
0.000000
0.086073
0.000000
0.000000
1.359140
0.000000
0.000000
0.000000
0.000000
0.000000
0.350259
0.000000
0.218469
0.000000
0.159050
0.398543
0.552550
0.245898
0.000000
0.000000
0.000000
0.504796
0.736336
0.000000
0.029989
0.000000
0.135486
0.533768
0.497113
0.000000
0.803626
0.000000
0.000000
0.000000
0.071008
0.000000
0.000000
0.000000
0.495818
0.675122
0.000000
0.000000
0.000000
0.000000
0.009684
0.312193
0.000000
0.000000
0.512032
0.000000
0.000000
0.000000
0.813289
0.000000
0.000000
0.006606
0.556815
0.000000
0.000000
0.000000
0.278721
0.937122
1.942166
0.363288
2.932678
0.047385
0.000000
1.040487
0.000000
0.000000
0.000000
0.000000
0.246387
0.000000
0.504104
0.738035
0.000000
0.000000
0.249993
0.158967
0.292851
0.000000
0.000000
0.070497
0.763371
0.930378
0.731259
0.231538
0.459129
0.200609
1.302180
0.000000
1.902201
0.000000
0.000000
0.000000
0.000000
0.143736
0.000000
2.292582
0.771251
1.093762
0.924407
0.000000
0.769837
0.000000
0.000000
0.457773
0.000000
0.969868
0.000000
1.218327
0.000000
0.066634
0.000000
0.440456
0.000000
0.819860
0.000000
0.625108
0.263731
0.014989
0.514356
0.000000
0.000000
0.000000
2.106784
0.000000
0.714107
1.969140
0.000000
0.000000
0.000000
0.707706
0.451748
0.155676
0.226879
0.873250
0.000000
0.000000
0.000000
0.892544
0.652114
0.602673
0.021781
1.146475
0.054784
1.509500
1.007806
0.000000
0.003057
0.100143
0.000000
0.000000
0.166893
0.000000
0.000000
0.000000
0.000000
0.000000
0.121178
0.000000
0.000000
0.144819
0.265941
0.000000
0.277993
0.969395
0.000000
2.489865
0.151789
0.130968
0.000000
0.236054
0.336013
0.000000
0.000000
1.187749
0.678990
0.000000
0.000000
1.057810
0.555673
1.313273
0.000000
0.000000
0.715291
0.000000
1.030225
0.000000
0.000000
0.532903
0.276015
0.000000
0.000000
0.000000
0.000000
0.000000
0.609994
0.000000
0.000000
0.112962
0.000000
0.316618
0.000000
0.000000
0.000000
0.116461
0.000000
0.318058
0.000000
1.586145
0.000000
0.000000
0.000000
0.000000
1.704460
0.000000
0.532970
0.478778
0.000000
0.000000
0.987811
0.890038
0.000000
0.979748
0.000000
0.169813
0.000000
0.000000
0.000000
0.000000
1.433379
0.000000
0.000000
3.071389
0.554053
0.221678
0.000000
0.266573
0.000000
0.006299
1.042290
0.066950
0.003759
1.402035
0.412496
0.279188
0.618185
0.000000
0.000000
0.972492
0.000000
0.000000
0.000000
0.035759
0.000000
0.000000
0.122543
0.000000
1.424541
0.000000
0.000000
0.000000
0.889398
1.141946
0.895444
0.178089
0.000000
0.629203
0.000000
0.098978
0.427594
0.378404
0.000000
0.000000
0.032764
0.000000
0.238785
0.000000
0.239253
0.080091
0.710602
0.000000
0.000000
0.000000
0.192502
0.000000
0.619841
0.000000
0.740327
0.000000
0.558994
0.000000
0.000000
0.000000
0.223528
0.000000
0.777429
0.399983
0.000000
0.000000
0.165774
1.114723
0.301287
0.000000
0.028797
0.000000
0.000000
0.000000
0.000000
0.000000
0.000000
1.782243
0.000000
0.000000
0.813080
0.000000
0.000000
1.527777
0.782510
0.414583
0.000000
0.027232
0.000000
0.000000
0.000000
0.000000
0.786594
0.000000
0.000000
0.000000
0.856794
0.000000
0.000000
0.000000
0.567229
0.280538
0.000000
0.000000
0.000000
0.000000
0.000000
0.000000
0.000000
0.539989
0.044677
0.000000
0.254502
0.000000
0.044411
0.000000
0.000000
0.000000
0.121009
1.094726
0.902929
1.082807
0.000000
