0.035297
0.503245
0.554960
0.000000
0.206191
0.183819
0.000000
0.000000
0.268157
0.509166
0.000000
0.000000
0.000000
0.350122
0.000000
0.179262
1.008504
0.580937
0.237497
0.262518
0.636175
0.000000
0.130754
0.088146
0.060832
0.000000
0.000000
0.000000
0.000000
0.354443
0.254659
0.000000
0.677449
0.000000
0.000000
0.361428
0.371205
0.000000
1.569610
0.177661
0.000000
0.058435
0.812027
1.086048
0.000000
0.004039
0.000000
0.588816
0.188821
0.437308
0.098414
0.000000
1.526414
0.000000
0.000000
0.000000
0.000000
0.000000
0.000000
0.396173
0.000000
0.687379
0.000000
0.168369
0.000000
0.000000
0.000000
0.000000
0.000000
0.000000
0.496929
0.426222
0.367713
0.000000
0.000000
0.453102
1.326603
0.000000
0.000000
0.000000
0.000000
0.201584
0.000000
0.092534
0.104064
0.000000
0.000000
0.158365
0.000000
0.171518
0.000000
0.000000
0.336969
0.000000
0.183233
0.000000
0.000000
0.236503
0.000000
0.090272
0.000000
0.000000
0.295749
0.083506
1.227168
0.029081
0.000000
0.000000
0.000000
0.000000
0.000000
0.000000
0.095044
0.000000
0.852184
0.000000
0.633549
1.705620
0.095945
0.375357
0.000000
0.179381
0.102833
0.420643
0.878085
0.795664
0.000000
0.000000
0.663776
0.202759
0.401125
0.999012
0.000000
0.404286
0.767230
0.049297
0.000000
0.192538
1.441242
0.427927
0.000000
0.000000
0.000000
0.000000
0.000000
0.771656
0.456920
1.398702
0.340633
0.000000
0.127803
0.630597
0.063423
0.000000
0.383220
0.000000
0.172956
1.880084
0.701315
0.311123
0.000000
0.000000
0.000000
0.000000
0.000000
1.409237
1.053454
0.000000
0.000000
0.569442
0.458260
0.421099
0.000000
0.367476
0.480697
0.000000
0.000000
0.524658
0.596879
0.000000
0.245871
0.000000
0.532286
0.000000
0.063771
0.067970
0.000000
0.000000
0.000000
0.164540
0.000000
0.000000
0.000000
0.314049
0.000000
0.084657
0.274608
0.000000
0.000000
0.000000
0.130936
0.000000
0.178625
0.224162
1.690724
0.000000
0.000000
0.113196
0.000000
0.878937
0.000000
0.000000
0.288702
2.188090
0.015877
0.139637
0.000000
0.385191
0.000000
0.000000
0.000000
1.750235
0.156708
0.560906
0.000000
0.482542
0.000000
1.375919
0.504687
0.106453
0.879665
0.600673
0.000000
0.000000
0.044477
0.000000
0.225502
0.254611
0.000000
0.000000
0.000000
0.119104
0.000000
0.187953
0.000000
0.413609
0.000000
0.000000
0.076482
0.000000
0.000000
1.667445
0.578716
0.000000
1.375510
0.000000
0.000000
0.000000
0.000000
0.459166
0.605656
0.290832
0.000000
0.757847
0.000000
0.482045
0.266128
0.157486
0.406367
0.106946
0.640918
0.214309
0.000000
0.000000
0.000000
0.000000
0.000000
0.000000
1.252736
0.096335
0.087691
0.000000
0.000000
0.120612
2.087449
0.040325
0.000000
0.071340
2.057448
1.437740
0.000000
0.000000
0.000000
0.030239
0.179333
0.000000
0.000000
0.000000
0.000000
0.398836
0.000000
0.000000
0.550335
0.159982
0.000000
0.000000
0.043004
0.000000
0.111018
0.605885
0.000000
0.000000
0.648507
0.000000
1.154228
0.088501
0.349180
0.823498
0.760190
0.342906
0.000000
0.000000
0.437971
0.000000
0.000652
0.000000
0.000000
0.000000
0.362824
0.000000
0.242591
0.304373
0.736984
0.000000
0.226654
0.000000
0.000000
0.000000
0.242570
0.000000
0.000000
0.000000
0.000000
0.245256
0.000000
0.000000
0.000000
0.347761
0.000000
0.434434
0.961589
0.000000
0.000000
0.000000
0.000000
0.000000
0.560115
0.354783
0.000000
0.000000
0.000000
0.000000
0.000000
0.000000
0.000000
0.378925
1.044951
0.000000
0.000000
0.669322
0.010467
0.671396
0.000000
0.000000
0.326396
0.181456
0.000000
0.000000
0.000000
1.667438
0.644763
0.000000
0.198360
0.000000
0.000000
1.789476
0.000000
0.000000
0.922950
0.000000
0.535535
0.000000
0.871262
0.000000
0.000000
0.000000
0.000000
0.829682
0.000000
0.000000
0.205718
1.460212
0.000000
0.000000
0.000000
0.000000
0.819830
0.728352
0.125028
0.000000
0.724400
0.154283
0.000000
0.241513
0.000000
0.378439
0.219669
0.000000
0.000000
0.604810
0.000000
0.000000
0.000000
0.000000
0.316871
0.848767
0.111442
0.000000
0.103840
0.000000
0.315288
0.000000
1.027271
0.144418
0.000000
0.038994
0.000000
0.000000
0.000000
0.000000
0.000000
0.467137
0.000000
0.666585
0.138731
0.000000
0.000000
0.000000
0.785466
0.000000
0.000000
0.000000
1.521730
0.379641
0.000000
0.000000
0.658019
0.000000
0.485890
0.019846
0.000000
1.076651
0.000000
0.000000
0.000000
0.000000
0.568062
0.474152
0.000000
0.000000
0.181156
0.000000
0.416504
0.400792
0.305432
0.471667
0.044862
0.000000
0.010682
0.018294
0.000277
0.000000
0.000000
0.417715
0.000000
0.000000
0.095596
0.704538
0.488167
0.000000
0.043581
0.000000
0.038768
0.000000
0.000000
0.000000
0.000000
0.716229
0.000000
0.326639
