0.500933
0.319498
1.135423
0.000000
0.539328
0.000000
0.464534
0.145567
0.796241
1.353316
0.124585
0.000000
0.000000
1.249466
0.000000
0.333885
0.224973
0.518448
0.027404
0.232600
0.201790
0.000000
0.448121
0.000000
0.038073
2.745580
0.000000
0.368282
0.000000
0.237461
0.206418
0.042345
0.764606
0.000000
0.752705
0.000000
0.000000
0.434560
1.703047
0.134742
0.000000
0.289066
0.947385
1.096361
0.000000
0.000000
0.160627
0.392591
1.030126
1.753561
0.000000
0.000000
0.980960
0.159070
0.000000
0.000000
0.189378
0.000000
0.409044
0.218374
0.000000
1.419346
1.678072
0.368804
0.000000
0.000000
0.000000
0.000000
0.428117
0.154444
0.818039
0.000000
0.143853
0.000000
0.000000
0.289496
0.321353
0.452642
0.000000
0.000000
0.222108
0.500244
0.043886
0.052950
0.362331
0.000000
0.209000
0.902917
0.000000
0.179545
0.000000
0.000000
0.000000
0.000000
0.687926
0.000000
0.024315
1.084571
0.364720
0.059115
0.000000
0.000000
0.052210
0.102764
1.246956
0.000000
0.000000
0.000000
0.412246
0.000000
0.000000
0.721927
0.378648
0.132588
0.000000
0.000000
0.150454
1.190409
1.184326
0.104046
0.000000
0.086158
0.000000
0.125847
0.422140
0.000000
0.076356
0.652683
0.448427
0.178068
0.687102
0.774005
0.000000
0.902302
0.430180
0.000000
0.000000
0.000000
1.385915
0.213898
0.000000
0.000000
0.000000
0.682671
0.601298
0.000000
0.431413
1.334110
0.000000
0.000000
0.704358
0.486150
0.000000
0.000000
0.000000
0.547457
1.325910
1.424169
0.293799
0.000000
0.000000
0.000000
0.000000
0.071428
0.000000
0.000000
1.444867
0.000000
0.000000
0.000000
0.019404
0.025053
0.218509
0.200534
0.225569
0.000000
0.000000
0.221680
0.048877
0.000000
0.375535
0.000000
0.683896
0.000000
0.000000
0.000000
0.000000
0.000000
0.227895
0.579107
0.405149
0.000000
0.854274
0.000000
0.000000
0.203160
0.000000
0.000000
0.000000
0.000000
0.122573
0.000000
0.295531
0.000000
1.566564
0.000000
1.388680
0.112578
0.000000
0.162676
0.000000
0.000000
0.000000
2.370908
0.210088
1.425562
0.000000
0.550290
0.000000
0.395540
0.000000
1.347878
0.741054
0.713797
0.000000
0.550743
0.000000
1.607374
0.000000
0.000000
0.000000
2.336877
0.000000
0.000000
0.000000
0.000000
0.693088
0.000000
0.000000
0.000000
0.000000
0.696051
0.118087
0.501682
0.000000
0.993796
0.000000
0.000000
0.000000
0.000000
0.000000
0.562566
0.660536
0.000000
1.620816
0.745614
0.000000
0.179671
0.000000
0.958069
0.102097
0.000000
0.000000
0.387588
0.000000
1.055165
0.000000
0.692657
0.098449
0.000000
0.000000
0.018129
0.000000
0.000000
0.598119
0.000000
0.297391
0.865919
1.748194
0.000000
0.000000
0.231610
0.000000
0.000000
1.732169
0.279928
0.000000
0.137878
2.382099
1.325947
0.000000
0.090164
0.000000
0.000000
0.000000
0.000000
1.287067
0.000000
0.000000
0.378355
0.356610
0.000000
0.427915
0.000000
0.410575
0.000000
0.107411
0.000000
0.298199
0.210170
0.000000
0.000000
0.070538
0.088934
0.950791
0.466694
0.000000
0.205550
0.000000
0.431705
0.000000
0.000000
1.302206
0.000000
0.000000
0.324654
0.082937
0.000000
0.000000
0.015540
0.289154
0.150201
0.787847
0.736118
0.553475
0.381173
1.775453
0.000000
0.102990
0.061702
0.000000
0.000000
0.000000
0.090288
0.000000
2.760990
0.192713
0.254272
0.000000
0.000000
0.587917
1.061504
0.000000
1.425807
0.056051
0.000000
1.415278
0.331461
0.000000
0.000000
0.000000
0.000000
0.000000
0.000000
0.000000
0.097712
1.105561
0.037872
0.000000
0.684785
0.000000
0.695704
0.000000
0.000000
0.316422
0.405378
0.000000
0.000000
0.000000
2.116411
0.179948
0.000000
0.193918
0.000000
0.000000
1.074416
0.000000
0.000000
1.253953
0.000000
0.683169
0.000000
0.442039
0.000000
0.000000
0.396629
0.118421
0.600708
0.000000
0.000000
0.000000
2.107714
0.000000
0.000000
0.000000
2.016533
0.000000
0.326737
0.297765
0.617566
0.665712
0.622339
0.000000
1.008256
0.000000
0.000000
0.125337
0.000000
0.469335
0.240531
0.000000
0.000000
0.000000
0.000000
0.866872
1.829955
0.000000
0.281572
0.242689
1.458547
1.356212
0.000000
1.651296
0.000000
0.000000
0.451878
0.138098
0.000000
0.000000
2.432873
0.000000
0.000000
0.043590
1.375351
0.000000
0.080747
0.064346
0.000000
0.000000
0.000000
0.000000
0.000000
0.545170
0.000000
0.000000
0.000000
0.762323
0.000000
0.178937
0.000000
0.000000
0.984356
0.000000
0.000000
0.000000
0.000000
0.074034
0.118474
0.000000
0.000000
0.689985
0.000000
0.000000
0.000000
0.562255
0.000000
0.777111
0.000000
0.655572
0.964937
0.000000
0.000000
0.000000
0.809470
0.854267
0.083035
1.339757
0.293440
1.222513
0.000000
0.253976
0.393754
0.005153
0.000000
0.000000
0.054910
0.261289
0.721792
0.000000
0.845295
