0.000000
0.398051
0.365042
0.456072
0.156043
0.000000
0.000000
0.533835
0.000000
0.000000
0.000000
0.738761
0.000000
0.076935
0.117798
0.000000
0.000000
0.263491
0.029421
0.300803
0.000000
0.479017
0.161781
0.000000
0.075934
0.357256
0.000000
0.066069
0.000000
1.352160
0.112270
0.000000
0.000000
0.000000
0.000000
0.181484
0.000000
0.000000
0.000000
0.105968
0.000000
0.595822
0.000000
0.000000
0.000000
0.000000
0.014987
0.000000
0.000000
0.000000
0.000000
0.000000
0.000000
0.000000
0.000000
0.461366
0.000000
0.000000
0.000000
0.000000
0.000000
0.101695
0.000000
0.000000
0.140411
0.000000
0.000000
0.012329
0.000000
0.000000
0.190134
0.000000
0.000000
0.000000
0.139883
0.218801
0.176591
0.000000
0.000822
0.000000
0.000000
0.298737
0.000000
0.000000
0.351942
0.000000
0.000000
0.616884
0.509191
0.999712
0.000000
0.220828
0.000000
0.000000
0.000000
0.000000
0.000000
0.000000
0.000000
0.310801
0.215506
0.137247
0.000000
0.000000
0.106464
0.000000
0.277406
0.000000
0.000000
0.282129
0.228878
0.000000
0.000000
0.038040
0.000000
0.000000
0.548243
0.497567
0.056737
0.060604
0.072025
0.019252
0.421755
0.000000
0.000000
0.000000
0.376043
1.034623
0.042659
0.131863
0.000000
0.150607
0.000000
0.890063
0.050815
0.000000
0.028876
0.127838
0.717182
0.000000
0.668111
0.000000
0.656136
0.836297
0.651855
0.000000
0.547331
0.000000
0.371752
0.814981
0.274062
0.385806
0.349041
0.211116
0.706011
0.000000
0.500204
0.000000
0.475247
0.000000
0.000000
0.000000
0.731126
0.985846
0.448156
0.470838
0.000000
1.319904
1.132712
0.578639
0.049327
0.076813
0.000000
0.208422
0.000000
0.000000
0.000000
0.003805
0.150799
0.000000
0.220795
0.000000
0.000000
0.000000
0.044896
0.000000
0.266424
0.365924
0.626146
0.000000
0.000000
0.029141
0.159842
0.314927
0.000000
0.000000
0.000000
0.149455
0.482134
0.000000
0.459176
0.000000
0.000000
0.225940
0.000000
0.264924
0.000000
0.019326
1.785796
0.000000
0.000000
0.000000
0.309232
0.000000
0.000000
0.000000
0.000000
0.000000
0.000000
0.000000
0.340080
0.143836
0.133220
0.000000
0.000000
0.340389
0.187502
0.113053
0.000000
0.000000
1.607440
0.000000
0.000000
0.388331
0.011085
0.000000
0.763781
0.000000
0.203446
0.000000
0.499667
0.567203
0.222484
0.000000
0.000000
0.000000
0.727691
0.763461
0.441775
0.000000
0.000000
1.401278
0.000000
0.000000
0.000000
0.025782
0.000000
0.000000
0.000000
0.222178
0.078849
0.693031
0.377955
0.000000
0.000000
0.027597
0.000000
0.000000
0.042146
0.927495
0.000000
0.098638
0.000000
0.038838
0.396525
0.019814
0.000000
0.010972
0.214713
1.543582
0.000000
0.154043
1.116024
0.000000
0.114300
0.000000
0.116587
0.000000
0.000000
0.000000
0.000000
0.000000
0.503893
0.495781
0.878974
0.000000
0.000000
0.000000
0.423478
0.000000
0.386042
0.000000
0.202372
0.000000
0.102120
0.449813
0.000000
0.121508
0.200185
0.965423
0.000000
0.368228
0.006250
0.525751
0.000000
0.031107
0.281593
0.025869
0.188965
0.000000
0.000000
0.000000
0.013254
0.197001
0.000000
0.547050
0.000000
0.599916
0.000000
0.000000
0.000000
0.000000
0.216177
0.693273
0.369288
0.581157
0.000000
1.579787
0.000000
0.131557
0.339760
0.000000
0.000000
0.094838
0.000000
0.000000
0.000000
0.000000
0.968360
0.831634
0.000000
0.000000
0.000000
0.055760
0.342477
0.000000
0.000000
0.000000
0.000000
0.000000
0.000000
0.000000
0.192800
1.152194
1.302896
0.687763
0.037548
0.381463
0.000000
0.000000
0.565578
0.000000
0.035553
0.000000
0.191365
0.043026
0.205233
0.000000
0.000000
0.060706
0.448565
0.000000
0.118127
0.220854
0.265123
1.961777
0.709586
0.210578
0.000000
0.720186
0.000000
0.000000
0.903391
1.243124
0.000000
0.738973
0.143785
0.000000
0.000000
0.919186
0.844242
0.000000
0.000000
0.426809
0.229611
0.230352
0.000000
0.331492
0.000000
0.061661
0.169880
0.000000
0.404798
0.000000
0.299997
0.089114
0.000000
0.000000
0.078114
0.469564
1.007494
0.279756
0.306918
0.000000
0.013265
0.000000
0.000000
0.000000
0.000000
0.000000
0.243830
0.215675
0.174425
0.352826
0.168668
0.756044
0.000000
0.117405
0.000000
0.261024
0.000000
0.000000
0.899976
0.081525
0.000000
0.027330
0.531456
0.000000
0.000000
0.000000
0.000000
0.000000
0.407083
0.458300
0.986786
0.000000
0.000000
0.000000
0.423940
0.039251
0.000000
0.000000
0.088836
1.879433
0.913376
1.312495
0.000000
0.000000
0.338879
0.000000
0.000000
0.129261
0.425839
0.683948
0.000000
0.000000
0.000000
0.000000
0.000000
0.059762
0.000000
0.000000
0.216042
0.055766
1.074146
0.000000
0.000000
0.335556
0.190387
0.000000
0.000000
0.000000
0.066604
0.029850
0.204848
0.522106
0.000000
0.204525
0.000000
0.040927
