0.000000
0.182716
0.154819
0.000000
0.000000
0.000000
0.000000
0.278084
0.576321
0.000000
0.966736
0.000000
0.000000
0.450268
0.562787
0.140127
0.100522
0.000000
0.000000
0.000000
0.272336
0.000000
0.052567
0.257690
0.261490
0.000000
0.000000
0.140637
0.924195
0.000000
0.182084
0.000000
0.572416
0.000000
0.127091
0.010250
0.034059
0.000000
1.578883
0.000000
0.000000
0.278654
1.108193
0.000000
0.000000
0.221835
0.000000
0.000000
0.431737
0.825514
0.358523
0.000000
1.271605
0.199224
0.000000
0.391944
0.000000
0.000000
0.000000
0.096437
0.000000
0.350212
0.000000
0.000000
0.000000
0.170276
0.000000
0.000000
0.439365
0.591287
0.598222
0.000000
0.106008
0.000000
0.452714
0.451660
0.196072
0.000000
0.000000
0.000000
0.000000
0.026982
0.000000
0.142378
0.792416
0.121917
0.254183
0.891579
0.429948
0.000000
0.000000
0.214685
0.000000
0.588448
0.000000
0.181736
0.000000
0.300936
0.000000
0.311196
0.000000
0.000000
0.386673
0.000000
0.913706
0.196955
0.092108
0.000000
0.588860
0.213188
0.054997
1.031762
0.000000
0.000000
0.000000
0.000000
0.477168
0.963009
0.000000
0.308842
0.000000
0.267798
0.332811
0.000000
0.000000
0.176903
0.000000
0.000000
0.182435
0.028109
0.190731
1.139828
0.000000
1.028174
0.000000
0.816019
0.164651
0.127853
1.276291
0.170865
0.000000
0.000000
0.443872
0.000000
0.000000
0.000000
0.023343
1.241852
0.215859
0.669925
0.268926
0.260712
0.000000
0.000000
0.117526
0.586460
0.180621
1.684060
0.000000
0.617354
0.000000
0.045381
0.000000
0.000000
0.000000
0.406674
0.392935
0.000000
0.000000
0.462766
0.000000
0.000000
0.376256
0.224194
0.491066
0.621540
0.000000
0.000000
0.000000
0.000000
0.497800
0.000000
0.000000
0.000000
0.062309
0.137514
0.000000
0.000000
0.711597
0.001525
0.133824
0.257031
0.000000
0.000000
0.128503
0.380870
0.707873
0.496402
0.467786
0.000000
0.326945
0.000000
0.000000
0.001135
1.413677
0.000000
0.061228
0.994304
0.494259
0.000000
0.000000
0.099051
0.000000
2.058731
0.256507
0.703062
0.000000
0.249834
0.000000
0.518061
0.710260
0.878818
0.000000
0.344975
0.000000
0.225099
0.479420
1.464998
0.119455
0.000000
0.423409
0.707648
0.000000
0.000000
0.043229
0.000000
0.007877
0.362698
0.249852
0.000000
0.000000
0.000000
0.000000
0.388967
0.156690
0.370711
0.000000
0.000000
0.316960
0.501536
0.068185
0.000000
0.319272
0.000000
1.503710
0.763475
0.070977
0.000000
0.000000
0.419659
0.550481
0.077765
0.000000
0.000000
0.357611
0.000000
0.498463
0.355374
0.105600
0.291520
0.000000
0.193578
0.000000
0.000000
0.000000
0.000000
0.000000
0.434145
0.831389
0.000000
0.000000
0.000000
0.328937
0.626998
1.566215
0.000000
0.350266
0.282706
1.505093
0.688751
0.452154
0.011368
0.089263
0.000000
0.362025
0.000000
0.241347
0.027584
0.000000
0.419315
0.162687
0.116900
0.881895
0.122411
0.398635
0.018346
0.000000
0.670730
0.452556
0.181956
0.000000
0.040054
0.000000
0.012843
1.702163
0.038717
0.014421
0.000000
0.154986
0.241065
0.000000
0.000000
0.162106
0.000000
0.391547
0.000000
0.368083
0.000000
0.112034
0.123274
0.436423
0.020930
0.463063
0.000000
0.214098
0.475243
0.030787
0.000000
0.563925
0.178143
0.000000
0.000000
0.113796
0.313041
0.000000
0.387484
0.000000
0.316754
0.431558
0.000000
0.652121
0.321751
0.000000
0.015551
0.000000
0.021720
0.535662
0.031076
0.000000
0.045857
0.023208
0.379717
0.000000
0.373089
0.307627
0.000000
1.181611
0.235967
0.064635
1.089317
0.000000
0.076255
0.000000
0.000000
0.310357
0.000000
0.137204
0.000000
0.000000
0.275379
0.451669
0.000000
0.000000
0.050718
0.000000
0.000000
0.331991
0.452712
0.499459
0.050823
0.469111
0.000000
0.393353
0.599065
0.000000
0.000000
0.000000
0.800275
0.000000
0.203360
0.069345
0.065100
0.000000
0.000000
0.000000
0.068105
1.036844
0.272068
0.000000
0.000000
0.423994
0.000000
0.000000
0.124770
0.722159
0.073809
0.848913
0.000000
0.000000
0.582055
0.000000
0.349715
0.494173
0.262696
0.331857
0.384836
0.576892
0.079539
0.560935
0.009103
0.000000
0.000000
0.000000
0.000000
0.000000
0.000000
0.499217
0.000000
0.000000
0.000000
0.000000
0.671336
0.000000
0.487248
0.000000
0.000000
0.000000
0.000000
0.000000
0.000000
0.000000
0.000000
1.433652
0.086307
0.938383
0.642346
0.593142
0.000000
0.000000
0.000000
0.000000
0.460134
0.005805
0.000000
0.000000
0.000000
0.400540
0.434520
0.000000
0.000000
0.000000
0.000000
0.000000
0.621065
0.000000
0.000000
0.437016
0.000000
0.000000
0.000000
0.196820
0.000000
0.000000
0.124759
0.029848
0.621185
0.000000
0.000000
0.305961
0.217847
0.000000
0.000000
0.117887
0.217688
0.000000
0.000000
0.000000
0.514052
0.000000
0.555392
