0.000000
0.230931
0.103761
0.206345
0.633202
0.152659
0.000000
0.000000
0.000000
0.076636
0.000000
0.186405
0.102693
0.000000
0.338192
0.000000
0.000000
0.210835
0.000000
0.604828
0.000000
0.000000
0.306854
0.000000
0.000000
0.415267
0.000000
0.274109
0.000000
0.666670
0.044636
0.402617
0.149913
0.036688
0.269380
0.136133
0.000000
0.009663
0.000000
0.030410
0.000000
0.414577
0.000000
0.021263
0.000000
0.000000
0.470173
0.000000
0.000000
0.000000
0.000000
0.000000
0.000000
0.000000
0.000000
0.000000
0.187928
0.591189
0.198964
0.000000
0.000000
0.504035
0.000000
0.329110
0.204850
0.000000
0.277548
0.000000
0.000000
0.000000
0.106961
0.000000
0.186427
0.008938
0.065423
0.000000
0.109404
0.000000
0.003438
0.000000
0.000000
0.000000
0.246091
0.000000
0.090386
0.311709
0.049243
0.000000
0.739335
1.064566
0.000000
0.860322
0.000000
0.000000
0.000000
0.183151
0.000000
0.027972
0.113272
0.148244
0.000000
0.000000
0.234213
0.000000
0.623723
0.012067
0.000000
0.134508
0.000000
0.000000
0.000000
0.000000
0.027623
0.000000
0.196872
0.000000
0.416597
0.000000
0.000000
0.535347
0.325614
0.000000
0.628390
0.000000
0.000000
0.000000
0.000000
0.099473
0.344292
0.348296
0.000000
0.000000
0.133126
0.254406
0.000000
0.000000
0.000000
0.822746
1.063241
0.000000
0.227915
0.000000
0.051389
0.654374
0.817137
0.107068
0.139622
0.000000
0.012478
0.879068
0.057663
0.000000
0.000000
1.260672
0.000000
0.188185
0.000000
0.488943
0.373499
0.000000
0.000000
0.000000
0.393594
1.194651
0.466733
1.077857
0.000000
0.969679
0.890124
0.154985
0.000000
0.324561
0.000000
0.252015
0.322550
0.000000
0.000000
0.243364
0.000000
0.245892
0.346800
0.339581
0.000000
0.000000
0.000000
0.061236
0.045460
0.000000
0.000000
0.000000
0.000000
0.000000
0.000000
0.130790
0.000000
0.000000
0.000000
0.262129
0.000000
0.000000
0.577664
0.210381
0.000000
1.067849
0.072232
0.161981
0.718227
0.000000
1.076086
0.000000
0.000000
0.000000
0.108863
1.116079
0.048326
0.000000
0.000000
0.523629
0.000000
0.278243
1.418052
0.000000
0.322953
0.000000
0.000000
1.135601
0.441088
0.728476
0.000000
0.000000
0.945911
0.000000
0.000000
0.220545
0.000000
0.000000
0.000000
0.121311
0.575044
0.097004
0.400489
0.000000
0.250095
0.439313
1.089723
0.140010
0.858421
0.645958
0.493782
0.376062
0.024496
1.381964
0.000000
0.000000
0.798553
0.000000
0.000000
0.000000
0.000000
0.024879
0.000000
0.952725
0.000000
0.000000
0.000000
0.000000
0.000000
0.337676
0.212537
0.910216
0.580841
0.030965
0.110504
0.120529
0.177247
0.000000
0.000000
0.000000
0.000000
0.907006
0.003226
0.218932
0.753395
0.000000
0.000000
0.000000
0.212252
0.000000
0.657302
0.209647
0.000000
0.000000
0.000000
0.457414
1.146174
0.018296
0.000000
0.000000
0.466515
0.000000
0.000000
0.000000
0.000000
0.000000
0.000000
0.232684
0.000000
0.000000
0.965447
0.858599
0.000000
0.109590
0.000000
0.814984
0.000000
0.000000
0.257540
0.000000
0.297124
0.152441
0.195575
0.000000
0.400345
0.000000
0.000000
0.832078
0.000000
0.750067
0.000000
0.403657
0.003421
0.000000
0.582439
0.672052
0.000000
0.000000
0.000000
1.508305
0.384338
0.000000
0.072716
0.000000
0.190697
0.000000
0.138871
0.580090
0.000000
0.000000
0.000000
0.446719
0.000000
0.094482
0.000000
0.000000
0.003470
0.017681
0.000000
0.000000
0.000000
0.000000
0.000000
0.660891
0.463025
0.308895
0.000000
0.124568
0.000000
0.135420
0.000000
0.000000
0.145069
0.000000
0.000000
0.000000
0.111846
0.000000
0.107964
0.000000
0.098237
0.000000
0.131370
0.000000
0.000000
0.129697
0.479678
0.750362
0.761970
0.000000
0.152200
0.055981
0.612809
0.000000
0.747459
0.000000
0.000000
0.684322
0.167939
0.000000
0.029872
0.305250
0.397921
0.000000
0.000000
0.188259
0.112693
0.327443
0.018599
0.000000
0.000000
0.000000
0.114581
0.000000
0.000000
0.250418
0.000000
0.387310
0.000000
0.000000
0.000000
0.000000
0.773315
0.000000
0.000000
0.000000
0.067196
0.000000
0.000000
0.000000
0.194039
0.000000
0.000000
0.000000
0.218136
1.035938
0.010232
0.295255
0.377609
0.245497
0.000000
1.072277
0.275461
0.000000
1.141674
0.000000
0.000000
0.312236
0.073747
0.000000
0.000000
0.000000
0.881490
0.487634
0.000000
0.000000
0.370195
0.016541
0.424871
0.130830
0.374893
0.000000
0.421429
0.000000
0.007432
1.428875
0.000000
1.802585
0.000000
0.000000
0.000000
0.000000
0.000000
0.000000
0.000000
0.440189
0.330483
0.046491
0.000000
0.000000
0.230483
0.658943
0.000000
0.000000
0.897811
0.000000
0.922839
0.000000
0.000000
0.000000
0.000000
0.000000
0.000000
0.000000
0.000000
0.094922
0.000000
0.292644
0.000000
0.564549
0.000000
0.569845
