0.000000
0.766526
0.000000
0.171027
0.000000
0.000000
0.052082
0.000000
0.000000
0.000000
0.243640
0.000000
0.000000
1.210619
0.095764
0.000000
0.480509
0.156909
0.000000
0.000000
0.078134
0.000000
0.298875
0.000650
0.260810
0.906433
0.109294
0.839435
0.000000
0.000000
0.000000
0.610996
0.000000
0.000000
0.000000
0.000000
0.000000
0.000000
0.154031
0.000000
0.000000
2.009923
0.000000
0.000000
0.000000
0.000000
0.594533
0.000000
0.000000
0.000000
0.000000
0.000000
0.000000
0.000000
0.000000
0.722153
0.422704
0.000000
0.000000
0.673548
0.000000
1.772994
0.964135
0.363074
0.000000
0.000000
0.000000
0.000000
0.000000
0.000000
1.108775
0.000000
0.000000
0.000000
0.282754
0.000000
0.000000
0.000000
0.000000
0.000000
0.035631
0.000000
0.000000
0.000000
0.226615
0.000000
0.444076
2.340488
0.000000
0.820709
0.000000
0.000000
0.851522
0.000000
0.000000
0.000000
0.000000
0.455076
0.000000
0.487476
0.000000
0.338055
0.000000
0.000000
0.832720
0.000000
0.412116
0.000000
0.300921
1.003689
0.123339
1.795014
0.000000
0.000000
0.000000
0.517993
0.071260
0.094845
0.000000
0.240218
0.130843
0.000000
1.062720
0.000000
0.113641
0.225182
0.000000
0.000000
0.065467
0.858081
0.000000
0.375125
0.000000
0.150661
0.000000
0.000000
1.676501
0.976590
1.070555
0.337782
0.000000
0.000000
0.262838
0.055763
0.000000
0.207707
0.000000
0.000000
0.000000
0.000000
0.194096
0.000000
0.160605
0.000000
0.314007
0.000000
2.119556
0.720966
0.000000
0.000000
0.000000
0.000000
0.478261
0.000000
0.000000
2.079648
0.000000
0.000000
0.000000
0.628396
0.000000
0.283102
0.000000
0.263956
0.000000
0.000000
0.010461
1.028059
0.499207
0.000000
0.410078
0.000000
0.000000
0.000000
0.000000
0.091187
0.423607
0.665672
0.660733
0.000000
0.519098
0.000000
0.513476
0.782528
0.000000
0.000000
0.459844
0.557765
0.028845
0.000000
0.365341
0.042519
0.333107
0.855228
0.457318
2.716562
0.719474
1.012803
1.609444
0.000000
0.000000
0.000000
0.000000
1.672923
0.000000
0.456719
0.000000
0.000000
0.000000
0.000000
0.000000
0.000000
0.000000
0.639043
0.000000
0.147308
0.176477
1.297930
0.026353
0.000000
0.989403
0.000000
0.000000
0.594363
0.141036
0.000000
0.292623
0.345253
0.000000
0.000000
1.891245
0.848818
1.780744
1.251765
0.000000
0.326495
0.088579
0.194490
0.000000
0.000000
0.759821
0.690956
0.333162
0.000000
0.465497
0.255418
0.000000
0.000000
0.567087
0.000000
0.000000
0.000000
0.000000
0.035295
0.000000
0.000000
0.000000
0.127461
0.000000
0.370568
0.478519
0.000000
0.000000
0.000000
1.145178
0.431801
0.262601
1.055205
0.000000
0.000000
0.000000
0.000000
0.206847
0.834256
0.306447
0.531187
0.531383
0.251867
0.200445
1.733452
0.000000
0.223383
1.243873
0.000000
0.309780
0.000000
1.268184
0.309966
0.000000
0.000000
0.145975
0.165520
1.032734
0.000000
1.215404
0.000000
0.000000
0.305593
0.326046
0.377826
0.595904
0.037367
0.001799
0.000000
0.000000
0.490558
0.000000
0.000000
0.230067
0.530044
0.090120
0.000000
1.900356
0.000000
0.141026
0.000000
0.000000
0.501654
0.000000
0.325348
0.000000
0.000000
0.051331
0.114810
0.233269
0.000000
0.790051
0.074339
0.000000
0.599902
0.000000
0.026918
0.169321
0.000000
0.000000
0.000000
0.000000
0.000000
0.703653
0.014038
0.000000
1.566782
1.313892
0.192519
0.000000
0.000000
0.291246
2.351616
0.000000
0.000000
0.000000
0.000000
0.239235
1.322731
1.394034
0.495788
0.038053
0.695044
0.000000
0.000000
0.000000
0.063946
0.000000
0.293622
0.011382
0.000000
1.570019
0.553083
0.699086
0.000000
0.265114
0.000000
0.265992
0.278739
0.000000
1.141051
0.589956
0.607022
1.245331
1.019623
0.000000
0.018533
0.552853
0.703490
0.000000
0.000000
0.000000
0.434429
0.000000
0.572987
0.578425
1.075395
0.000000
0.729353
0.000000
1.437948
0.000000
0.326278
0.658865
1.794953
0.039835
0.438570
0.835325
0.000000
0.377726
0.000000
0.000000
0.000000
0.000000
0.000000
0.000000
0.677101
1.042332
0.549723
0.725396
0.000000
0.000000
0.000000
0.000000
0.544599
0.409813
0.729670
0.386271
0.000000
0.091466
0.000000
0.000000
0.000000
0.000000
0.000000
0.313041
0.000000
0.091474
1.493386
0.645452
0.791823
0.000000
0.000000
0.000000
0.000000
0.000000
0.000000
1.319413
0.770050
1.866244
0.000000
0.000000
0.626275
0.000000
0.099569
0.205300
0.666713
0.207788
0.450365
0.000000
0.169724
0.089978
0.000000
0.507596
0.964285
0.000000
0.088743
0.000000
0.558276
0.000000
0.000000
0.281601
0.000000
0.000000
0.000000
0.000000
0.000000
0.000000
0.434189
1.318726
0.000000
0.000000
0.000000
0.000000
0.000000
0.000000
0.393427
0.000000
0.326127
0.000000
1.692372
0.000000
0.472755
0.596972
0.668714
