0.412441
0.069612
1.083065
0.000000
0.000000
0.142604
0.418251
0.000000
0.082772
0.317413
0.000000
0.000000
0.683970
0.034858
0.520492
0.138006
0.000000
0.470731
0.106696
0.578054
0.000000
0.442333
0.000000
0.000000
0.173937
0.369609
0.000000
0.000000
0.000000
1.616060
0.254793
0.000000
0.000000
0.000000
0.146100
1.366790
0.000000
0.000000
0.856565
0.278861
0.000000
0.000000
0.561958
0.000000
0.000000
0.201965
0.000000
0.000000
0.507260
0.734622
0.000000
0.000000
0.580006
0.000000
0.000000
0.000000
0.020018
0.163717
1.617463
0.000000
0.000000
0.000000
0.835106
0.000000
0.000000
0.000000
0.000000
0.000000
0.124489
0.404457
0.148466
0.202324
0.000000
0.000000
0.000000
0.520493
1.127953
0.000000
0.000000
0.000000
0.000000
0.000000
0.304059
0.000000
0.048068
0.000000
0.000000
0.636096
0.000000
0.836876
0.041315
0.527884
0.000000
0.368447
0.141505
0.000000
0.000000
0.276452
0.121270
0.495129
0.000000
0.000000
0.000000
0.000000
0.667520
0.000000
0.060872
0.000000
0.670090
0.000000
0.170557
0.262876
0.041671
0.000000
0.000000
0.000000
0.000000
0.000000
1.689806
0.000000
0.000000
0.000000
0.000000
0.000000
0.000000
0.000000
0.000000
0.000000
0.230256
0.083683
1.216174
0.841704
0.000000
1.582059
0.081940
0.000000
0.000000
0.000000
1.598137
0.182624
0.000000
0.000000
0.998749
0.000000
0.000000
0.000000
0.533798
0.000000
0.512024
0.000000
0.604105
0.000000
0.331702
0.000000
0.828986
0.039117
0.344287
1.548609
0.294682
0.448797
0.000000
0.159309
0.000000
0.808659
0.163979
0.000000
1.115929
0.985075
0.000000
0.167002
0.453148
0.000000
0.000000
0.000000
0.000000
0.229951
0.000000
0.076949
0.617245
0.000000
0.557921
0.000000
0.524605
0.000000
0.402022
0.000000
0.509845
0.000000
1.082630
0.000000
0.046039
0.000000
0.582180
0.147966
0.000000
0.000000
0.111636
0.086430
0.552509
0.000000
0.387864
0.000000
0.000000
0.000000
1.519742
0.000000
0.000000
0.126020
1.957221
0.000000
0.000000
0.000000
0.291928
0.000000
0.550741
0.382614
0.000000
0.057633
0.000000
0.242458
0.000000
0.238693
0.382707
0.000000
0.000000
0.624140
0.000000
1.246111
0.000000
0.000000
1.304715
0.900974
0.000000
0.000000
0.225482
0.000000
0.736532
0.122476
0.055271
0.000000
0.000000
0.174414
0.000000
0.665569
0.000000
0.000000
0.805758
0.340204
0.843546
0.000000
0.000000
2.244181
0.235476
0.000000
1.015478
0.000000
0.000000
0.000000
0.000000
0.326906
1.580220
0.078315
0.000000
0.000000
0.000000
0.583626
0.393549
0.000000
0.021294
0.862448
0.000000
0.359681
0.000000
0.000000
0.417991
0.000000
0.000000
0.000000
0.511997
0.775050
0.018248
0.381793
0.211658
0.065808
1.491710
0.000000
0.162645
0.000000
1.362450
0.342306
0.000000
0.000000
0.000000
0.272015
0.000000
0.000000
0.645171
0.000000
0.000561
0.000000
0.547673
0.000000
0.629331
0.000000
0.000000
0.000000
0.076772
0.144816
0.000000
0.620928
0.000000
0.130527
0.170273
0.000000
0.491008
1.125524
0.578574
0.000000
0.000000
0.677261
0.000000
0.000000
0.159433
0.000000
0.000000
0.221817
0.431203
0.140604
0.037995
0.000000
0.000000
0.000000
0.590909
0.000000
0.631152
0.796686
0.494285
0.453215
0.000000
0.436476
0.000000
0.000000
0.000000
0.000000
0.000000
0.937357
0.000000
0.000000
1.113288
0.310491
0.186100
0.000000
0.000000
0.863270
0.036863
0.012244
0.000000
0.072047
0.000000
0.435589
0.010946
0.000000
0.785644
0.205367
0.521621
0.412081
2.310177
0.000000
0.000000
0.511758
0.000000
0.265142
0.000000
0.045501
0.000000
0.000000
0.000000
0.257467
0.001325
1.400967
0.342999
0.000000
0.000000
0.000000
0.432193
2.410593
0.000000
0.000000
1.438196
0.119497
0.776814
0.000000
0.000000
1.645572
0.000000
0.000000
0.000000
0.123384
0.000000
0.566132
0.059416
1.216876
0.000000
0.000000
0.000000
0.216355
1.600923
0.927465
0.284254
0.000000
0.000000
0.239919
0.000000
0.000000
0.000000
0.298753
0.551386
0.000000
0.000000
1.056610
0.377149
0.000000
0.000000
0.000000
0.141051
1.182805
0.000000
0.238598
0.893952
0.055460
1.864566
0.000000
0.311914
0.000000
0.170396
0.983168
0.000000
0.000000
0.000000
0.160279
0.000000
0.000000
0.733902
1.234107
0.000000
0.000000
0.474754
0.000000
0.000000
0.000000
0.000000
0.937381
0.397961
0.052437
0.382075
0.000000
0.734098
0.000000
0.826807
0.000000
0.000000
0.564400
0.712779
0.568849
0.000000
0.643386
0.213153
0.000000
0.000000
0.000000
0.555244
0.000000
0.176405
0.393205
0.460271
0.145295
0.000000
0.000000
0.000000
0.000000
0.000000
0.129547
0.130499
0.127994
0.000000
0.060864
0.000000
0.000000
1.161222
0.000000
0.000000
0.000000
0.016232
0.000000
0.000000
0.354970
0.000000
1.537851
0.000000
0.000000
