0.272918
0.000000
0.000000
0.000000
0.000000
1.208513
0.145667
0.000000
0.004633
0.193788
0.000000
0.000000
1.036388
0.000000
0.129461
0.743222
0.232478
1.233418
1.780373
0.511815
0.000000
0.740224
0.000000
0.000000
0.132984
0.000000
0.000000
0.000000
0.000000
0.830284
0.582927
0.526363
0.000000
0.553000
0.014023
3.314848
0.788167
0.288275
0.929653
0.695660
0.000000
0.074879
1.202460
1.648625
0.000000
0.074753
0.000000
0.000000
0.000000
0.000000
0.000000
1.789911
0.977130
0.000000
0.426486
0.000000
0.000000
0.000000
0.800916
0.000000
0.000000
0.000000
0.000000
0.000000
0.003934
0.000000
0.000000
0.000000
0.000000
0.069586
0.000000
1.394070
0.163196
0.000000
0.005739
1.534083
2.204971
0.229112
0.000000
0.658764
0.491216
0.580077
0.000000
1.268057
0.010457
0.000000
0.000000
1.528469
0.539082
0.125814
0.000000
0.194475
0.016019
0.590867
0.792621
0.000000
0.077737
0.000000
0.000000
0.228482
0.000000
0.490888
0.000000
0.714102
0.000000
0.075249
0.742293
0.000000
0.000000
0.000000
0.344077
0.000000
0.000000
0.000000
0.638388
0.000000
0.000000
0.926343
3.079724
0.000000
0.000000
0.000000
0.000000
0.000000
0.000000
0.000000
0.000000
0.000000
0.769840
0.000000
0.000000
0.790243
0.000000
0.000000
1.123816
0.000000
0.000000
0.000000
2.263610
0.000000
0.000000
0.000000
0.436253
0.000000
0.000000
0.000000
0.432424
1.442258
0.399736
0.185282
0.078168
0.000000
0.619735
0.887094
0.664297
0.000000
0.000000
1.198689
0.679694
0.467874
0.000000
0.007394
1.190929
0.306628
0.000000
0.000000
1.732193
1.580404
0.000000
0.000000
1.105942
0.000000
0.000000
0.000000
0.000000
1.145617
0.000000
0.000000
0.970563
0.267139
0.867636
0.000000
2.016344
0.000000
1.492776
0.000000
0.318515
0.000000
1.749043
0.193595
0.000000
0.000000
1.141986
0.000000
0.212140
0.000000
0.000000
0.532627
1.817195
0.000000
0.905331
0.000000
0.301644
0.000000
1.663451
0.000000
0.000000
0.578143
0.416557
1.362039
0.062036
0.000000
0.629216
0.000000
0.371451
0.000000
0.164399
0.000000
0.000000
0.000000
0.000000
0.274534
0.000000
0.000000
0.000000
0.647931
0.871482
0.773710
0.075464
0.000000
1.773023
0.146061
0.000000
0.608017
0.634202
0.000000
1.660039
0.332015
0.532019
0.000000
0.000000
0.000000
0.000000
0.000000
0.000000
0.000000
0.925722
0.000000
0.896027
0.000000
0.000000
2.658317
0.243383
0.000000
0.682725
0.002643
0.000000
0.000000
0.000000
0.000000
2.694673
0.364232
0.000000
0.000000
0.000000
0.478388
1.772694
0.841316
0.802092
1.466136
0.000000
0.013290
0.000000
0.000000
0.000000
0.098943
0.000000
0.000000
0.000000
0.526970
1.375509
0.207828
1.353915
1.175026
0.505046
0.000000
0.000000
0.000000
1.993766
0.000000
0.202503
0.224982
0.000000
1.278864
0.000000
0.049362
0.000000
0.000000
0.000000
0.000000
0.155328
0.000000
0.834862
0.000000
0.072620
0.000000
0.000000
0.000000
0.000000
0.776771
0.877412
1.226402
0.767010
0.000000
0.657603
0.178672
0.690405
1.424425
0.000000
0.000000
0.000000
0.000000
0.000000
0.365947
0.372151
0.000000
0.508839
0.028828
1.093658
0.000000
0.000000
0.000000
0.828889
0.000000
0.700190
0.459377
0.000000
0.000000
0.000000
0.000000
0.000000
0.000000
0.000000
0.163152
0.000000
0.000000
0.000000
0.630055
1.552575
0.000000
0.000000
0.000000
0.328151
0.460910
0.000000
0.724922
0.575528
0.000000
0.000000
0.000000
0.000000
0.000000
0.128013
0.284078
1.049580
0.428696
0.000000
0.161074
0.538252
0.740626
0.514697
0.590253
0.000000
0.474722
0.000000
0.696856
0.000000
0.739118
0.000000
1.401767
0.965316
0.125572
0.010149
0.000000
0.157042
2.085133
0.510731
0.000000
0.488633
0.645341
0.237248
0.000000
0.000000
1.486969
0.000000
0.000000
0.000000
0.000000
0.000000
0.459088
0.000000
0.322498
0.455092
0.000000
0.000000
0.000000
1.778906
1.570465
0.000000
0.000000
0.865329
0.979876
0.780200
0.000000
0.607242
0.258353
0.912867
0.000000
0.000000
0.612330
0.000000
0.152815
0.373709
0.035596
0.000000
1.493926
0.000000
0.030905
0.749277
0.000000
2.577979
0.000000
0.000000
0.000000
0.611101
0.000000
0.000000
0.000000
0.000000
0.000000
0.000000
0.970856
2.146863
0.572283
0.000000
0.000000
0.865916
0.000000
1.788055
0.000000
1.185813
1.529768
0.000000
0.292899
1.242034
0.000000
0.000000
0.028440
0.801752
0.000000
0.000000
0.020777
0.000000
0.597979
0.000000
0.000000
0.898731
0.692495
0.000000
0.081193
0.494078
0.000000
1.872026
1.422841
0.527913
0.934793
0.042783
0.151089
0.000000
0.000000
0.850371
0.106123
0.398948
0.000000
0.000000
0.876020
0.000000
1.000872
0.397173
0.107246
0.000000
0.708092
0.000000
0.000000
0.704692
0.000000
1.119730
0.048119
0.000000
0.000000
