0.000000
1.824813
0.000000
0.541777
1.210795
0.246948
0.000000
0.000000
0.000000
0.000000
0.246893
1.015643
0.000000
0.000000
0.720982
0.000000
0.349560
0.000000
0.000000
0.000000
0.884876
0.000000
1.301243
0.212898
0.000000
0.537987
0.000000
0.684479
0.000000
0.304012
0.107572
0.122887
1.342475
0.000000
0.000000
0.000000
0.000000
0.000000
0.000000
0.000000
0.000000
1.744905
0.000000
0.000000
0.566874
0.000000
2.813668
0.530664
0.000000
0.000000
0.000000
0.000000
0.000000
0.000000
0.000000
0.000000
1.994537
0.000000
0.000000
0.014073
0.000000
2.886682
0.062303
2.136151
0.310266
0.000000
0.191618
0.422818
0.000000
0.099437
0.000000
0.000000
0.000000
0.000000
0.507670
0.000000
0.000000
0.000000
0.226909
0.000000
0.000000
0.000000
1.818192
0.450559
0.000000
0.847490
0.000000
0.000000
0.563950
0.481264
0.000000
0.868774
1.408315
0.000000
0.000000
0.000000
0.000000
0.000000
0.000000
0.034489
0.000000
0.000000
0.000000
0.000000
0.374768
0.390860
0.000000
0.627776
0.000000
0.000000
0.000000
0.323600
0.000000
0.000000
1.472789
0.730104
0.911155
0.000000
0.000000
0.047093
0.454561
0.037269
0.834889
2.941002
1.663715
0.116305
0.504125
0.000000
0.000000
0.696761
0.130385
0.000000
0.000000
0.950943
0.601512
0.000000
0.364011
0.330191
1.405141
0.000000
0.165319
0.000000
0.000000
1.319170
0.826714
1.919338
0.000000
0.000000
0.486540
0.000000
0.000000
0.110973
0.000000
0.492140
0.000000
0.000000
0.000000
0.000000
0.334655
0.442413
1.119218
0.000000
1.305268
1.408420
0.441759
2.335542
0.000000
1.121627
3.149663
0.000000
0.000000
0.838593
0.000000
0.561702
1.940106
0.000000
0.000000
1.681269
0.000000
0.323179
0.162238
0.304453
0.000000
0.000000
0.000000
0.291241
0.287345
0.000000
0.000000
0.000000
0.000000
0.000000
0.000000
0.000000
0.000000
0.315030
0.000000
0.204697
0.000000
0.000000
0.000000
0.068371
0.000000
2.971900
0.000000
2.774079
2.223699
0.000000
1.112498
0.000000
0.000000
0.000000
0.758698
0.000000
0.000000
0.000000
0.000000
0.000000
0.000000
0.445320
0.623458
0.000000
0.000000
0.002539
2.288812
1.097869
1.068840
0.000000
0.000000
0.881572
0.137175
0.000000
0.000000
1.250561
0.000000
2.038949
0.000000
0.000000
0.479449
0.000000
1.010696
0.640918
1.376394
0.377823
0.000000
0.557490
0.000000
0.453523
0.329927
0.000000
0.000000
0.177054
0.000000
0.000000
0.370136
0.000000
0.000000
0.000000
0.767881
0.070734
0.000000
0.440748
0.503864
0.000000
0.000000
0.000000
0.000000
1.466920
0.000000
0.195315
1.659852
0.000000
0.210899
0.080210
0.070087
0.000000
0.000000
0.068262
0.477120
1.023569
0.000000
0.624293
0.630265
0.000000
0.000000
0.000000
0.575309
0.000000
0.731201
0.000000
0.000000
0.312621
0.000000
0.000000
1.574610
0.053479
0.108675
0.000000
1.073660
0.000000
0.000000
0.111426
0.000000
0.765534
0.213602
0.414965
0.000000
0.000000
1.048025
0.110826
0.762923
0.000000
0.000000
0.864744
0.000000
0.000000
0.000000
0.167527
1.493237
0.577898
0.009105
0.000000
0.228987
0.300890
0.423023
0.631180
0.443402
1.073421
0.000000
0.937427
0.000000
0.000000
0.313960
1.123329
0.000000
0.195518
0.000000
0.852706
0.000000
0.000000
0.250565
0.000000
0.514351
0.000000
0.289338
0.862333
0.432209
0.007407
0.000000
1.441932
0.022409
0.304560
0.645164
0.000000
0.000000
0.000000
0.000000
0.902597
0.000000
0.084794
0.036554
0.412445
0.000000
0.350888
0.000000
0.000000
0.735544
0.861499
0.000000
0.000000
0.000000
0.000000
0.026860
0.626229
0.483023
0.000000
1.806824
0.000000
0.102971
0.000000
0.573323
0.000000
0.000000
0.000000
0.463323
1.112455
1.300131
0.000000
0.000000
0.378467
0.000000
0.000000
1.478718
0.000000
0.672356
1.936986
0.000000
0.000000
0.000000
0.000000
0.000000
0.263906
0.363137
0.761116
0.630408
0.773596
0.000000
0.000000
0.000000
0.000000
1.264833
0.000000
0.000000
0.500490
0.000000
0.000000
0.000000
0.000000
0.000000
0.199004
0.147136
0.000000
0.000000
1.230135
0.000000
0.000000
0.000000
0.000000
0.000000
0.000000
0.000000
1.159029
0.000000
0.312111
0.000000
0.000000
0.000000
0.997753
0.295793
0.347888
0.998163
0.000000
0.000000
0.000000
0.100904
1.691046
0.000000
0.000000
0.000000
0.000000
0.168133
0.193569
0.000000
0.000000
1.262466
0.000000
0.000000
0.597893
0.030028
0.164537
1.734942
0.225115
0.000000
0.147532
0.179346
0.992721
0.390692
1.212373
0.000000
0.727350
0.000000
0.000000
0.000000
1.099191
0.476972
1.093784
0.000000
0.691528
0.000000
1.293111
0.430755
0.000000
0.509551
0.000000
2.287672
0.000000
0.000000
0.000000
0.228098
0.000000
1.127908
0.000000
0.000000
0.000000
0.000000
0.000000
0.000000
0.000000
0.000000
0.329366
