0.035326
1.053508
0.088748
0.152630
0.364618
0.000000
0.063926
1.172764
0.368234
0.000000
0.960316
0.000000
0.000000
0.509469
0.054626
0.000000
0.409989
0.000000
0.000000
0.000000
0.627731
0.000000
0.271565
0.289022
0.036181
0.000000
0.000000
0.667134
1.871422
0.000000
0.249824
0.000000
1.489754
0.000000
0.000000
0.000000
0.000000
0.000000
1.982448
0.000000
0.000000
0.726436
0.355625
0.000000
0.000000
0.209450
0.441954
0.620480
0.293240
0.396946
1.357657
0.000000
1.804253
0.508069
0.000000
0.763432
0.088075
0.000000
0.000000
0.155005
0.000000
1.951808
0.399161
0.391905
0.000000
0.000000
0.000000
0.127327
0.000000
0.040207
1.144278
0.215115
0.000000
0.000000
0.585872
0.656161
0.000000
0.000000
0.000000
0.000000
0.000000
0.429601
0.176089
0.547419
1.039008
0.383718
0.802822
1.932600
0.000000
0.000000
0.000000
0.000000
0.058824
0.640566
0.000000
0.000000
0.000000
0.153981
0.000000
0.000000
0.378099
0.073204
1.148957
0.000000
0.738443
0.000000
0.000000
0.000000
0.318222
0.211023
0.021213
1.381154
0.000000
0.207892
0.000000
0.049024
0.716958
1.493605
0.000000
0.170767
0.373552
0.087802
1.445256
1.367795
0.904510
0.003684
0.000000
0.000000
0.000000
0.000000
0.000000
1.254736
0.000000
0.409612
0.031664
0.726745
1.223760
0.541829
1.206954
0.000000
0.000000
0.000000
0.363984
0.000000
0.025355
0.000000
0.016688
1.417613
0.719402
2.510931
0.000000
0.872527
0.000000
0.000000
0.000000
0.877877
1.205824
0.119871
0.331545
0.000000
0.000000
0.000000
0.218457
0.000000
0.000000
0.364705
0.517236
0.000000
0.251527
0.000000
0.089309
0.204214
0.360797
0.354247
0.212243
0.832947
0.000000
0.389084
0.000000
0.000000
0.513475
0.000000
0.014354
0.000000
0.006764
0.000000
0.000000
0.000000
0.206367
0.129953
0.000000
0.900715
0.000000
0.000000
0.000000
0.495851
0.281763
0.661517
0.049944
0.000000
0.000000
0.667749
0.000000
1.011076
1.351785
0.459763
0.110428
0.404561
0.000000
0.368073
0.000000
0.000000
0.000000
2.845359
0.238000
0.634441
0.000000
0.024414
0.025433
0.000000
2.200445
1.212762
0.000000
0.268734
0.000000
0.868189
0.293575
1.366008
0.000000
0.707884
0.262694
1.710339
0.000000
0.054403
0.301942
0.000000
0.380066
0.000000
0.000000
0.000000
0.000000
0.000000
0.000000
0.000000
2.402998
0.845162
0.000000
0.000000
0.000000
1.406546
0.655967
0.000000
0.000000
0.000000
1.618515
0.173386
0.038777
0.000000
0.000000
0.705581
0.218007
0.000000
0.000000
0.000000
0.000000
0.000000
0.000000
0.000000
0.399053
0.062548
0.000000
0.000000
0.000000
0.000000
0.000000
0.036607
0.000000
0.198884
2.227589
0.000000
0.000000
0.000000
0.203520
0.629785
1.609362
0.000000
0.389929
0.350533
1.940755
0.443157
0.000000
0.000000
0.000000
0.000000
0.455500
0.000000
0.567962
0.000000
0.000000
0.313223
0.757285
0.046485
1.288559
0.521888
1.042054
0.000000
0.351051
1.087294
0.000000
0.000000
0.000000
0.266138
0.201701
0.451456
1.131514
0.000000
0.352036
0.441167
1.009489
0.798300
0.000000
0.000000
0.219053
0.000000
0.524736
0.000000
0.338574
0.000000
0.000000
0.000000
0.105879
0.000000
0.397461
0.361053
0.317608
0.855736
0.207777
0.000000
0.755013
0.000000
0.000000
0.050198
0.037262
0.273851
0.000000
0.650300
0.000000
0.394425
0.159471
0.586674
0.398608
0.667888
0.000000
0.296216
0.000000
0.000000
0.140456
0.000000
0.000000
0.000000
0.182071
0.758601
0.000000
0.782509
0.000000
0.000000
0.000000
0.154076
0.875933
0.612382
0.340595
0.258053
0.000000
0.000000
0.526254
0.000000
0.000000
0.000000
0.000000
0.203474
0.940861
0.000000
0.000000
0.414458
0.000000
0.054563
0.000000
0.380975
0.035109
1.106135
0.137098
0.000000
1.510723
0.148582
0.000000
0.577488
0.000000
0.877041
0.000000
1.006015
0.000000
0.000000
0.000000
0.000000
0.000000
0.757802
1.088692
0.000000
0.057692
0.000000
1.177091
0.810941
0.000000
0.240955
0.406252
0.000000
0.017531
0.000000
0.273649
0.275811
0.000000
0.000000
0.664430
0.000000
0.000000
0.000000
0.253071
0.515220
0.000000
0.008668
0.437843
0.000000
0.186053
0.000000
0.093899
0.000000
0.123306
0.961964
0.000000
0.000000
0.000000
0.326681
0.000000
0.471934
0.044290
0.360454
0.000000
0.000000
0.000000
0.000000
0.000000
0.000000
1.060594
0.000000
1.284657
0.448406
0.742491
0.000000
0.000000
0.000000
0.435257
0.423690
0.175021
0.000000
0.341116
0.000000
1.129262
1.060669
0.000000
0.000000
0.000000
0.000000
0.111305
1.059987
0.000000
0.000000
0.585312
0.000000
0.000000
0.000000
0.019118
0.000000
0.000000
0.239941
1.424095
0.280628
0.000000
0.291150
0.000000
0.354536
0.000000
0.000000
0.084442
0.016964
0.000000
0.000000
0.000000
0.081508
0.000000
1.245276
