0.629406
1.000341
0.000000
0.000000
0.000000
0.000000
0.240709
0.442912
0.603357
0.000000
1.080824
0.000000
0.000000
0.552922
0.385850
0.000000
2.208101
0.000000
0.690830
0.000000
0.632290
0.000000
0.689695
0.840102
0.054288
0.000000
0.000000
0.000000
0.911678
0.000000
0.199664
0.000000
0.972210
0.000000
0.000000
0.000000
0.066605
0.000000
2.410053
0.000000
0.000000
0.626800
1.209291
0.851008
0.382192
0.014346
0.000000
1.578884
0.000000
0.000000
0.425107
0.346470
2.326856
0.000000
0.000000
0.766719
0.190249
0.000000
0.129796
1.214738
0.000000
2.899949
0.000000
1.936537
0.017645
0.000000
0.136718
0.837694
0.010589
0.161815
0.000000
0.000000
0.230170
0.000000
0.000000
0.511773
0.392871
0.589326
0.000000
0.003551
0.000000
0.776836
0.266189
2.284914
0.000000
0.000000
0.546313
0.000000
0.417736
0.000000
0.000000
0.462682
1.752281
0.000000
0.785841
0.000000
0.000000
0.467474
0.000000
0.000000
0.086703
0.000000
0.423509
0.000000
0.112517
0.145800
0.554129
0.000000
0.000000
0.000000
0.043346
0.836467
0.000000
1.085218
0.481142
0.215607
0.000000
0.244079
2.111875
0.000000
0.000000
0.000000
0.107134
1.258034
1.200818
0.596933
0.000000
0.000000
0.535582
0.365889
0.519694
0.837056
0.000000
0.000000
0.555225
1.181790
0.656056
0.000000
2.024604
0.000000
0.000000
0.000000
0.000000
0.000000
0.000000
0.788727
0.000000
2.167900
0.163084
0.000000
0.206540
0.000000
0.000000
0.693390
0.000000
0.000000
0.000000
0.000000
0.000000
0.482429
0.057012
0.200277
0.000000
0.000000
0.000000
0.740520
0.303622
0.713846
0.000000
0.000000
0.231596
0.235110
0.000000
0.499646
1.285724
0.520136
0.000000
2.272280
0.240472
0.488027
0.504140
0.000000
0.993846
0.000000
0.000000
0.000000
0.268480
1.301788
0.167905
1.869639
0.407966
0.000000
0.436298
0.000000
0.000000
0.722897
0.003811
0.061397
0.000000
0.000000
0.000000
0.000000
0.771274
0.000000
0.732789
0.790326
0.829132
0.000000
0.000000
1.077779
0.000000
0.000000
0.000000
0.000000
0.000000
0.640995
0.565862
0.000000
0.780659
0.000000
0.028188
0.000000
0.212575
1.497589
1.747519
0.441068
0.777413
1.134375
1.146407
0.355433
0.000000
0.346801
0.000000
0.000873
0.180236
0.194315
0.000000
0.000000
0.900665
0.500824
0.000000
0.000000
0.332150
0.432498
0.000000
0.746012
0.000000
0.000000
0.598083
0.000000
0.000000
0.000000
1.100470
0.000000
1.229924
0.000000
0.033762
0.000000
0.000000
0.000000
0.282855
0.024959
0.419453
1.041736
0.652980
0.000000
0.273790
0.744404
0.288936
0.650642
0.000000
0.000000
0.040107
0.000000
0.000000
0.860121
0.000000
0.928078
0.798228
0.000000
0.000000
0.000000
0.000000
0.162026
0.132003
0.000000
0.000000
0.000000
2.555240
0.933518
0.660262
0.598532
0.364252
0.000000
0.000000
0.058989
0.000000
0.000000
0.000000
1.134318
0.000000
0.178948
0.000000
1.450472
0.328081
0.000000
1.122091
0.263802
0.000000
0.000000
0.915140
0.069494
0.993136
0.000000
0.000000
0.308184
0.274688
1.839768
0.068430
0.203098
0.105776
0.000000
1.043308
0.000000
0.574660
0.000000
0.000000
0.108433
0.174405
0.000000
0.000000
0.062620
0.584690
0.000000
0.000000
0.000000
0.000000
0.000000
0.000000
0.000000
0.000000
0.000000
0.158202
0.000000
0.000000
0.000000
0.217193
1.751389
0.000000
0.000000
1.377288
0.000000
1.141342
0.034365
0.000000
0.000000
1.133752
0.990657
0.000000
0.601415
0.288025
0.243126
0.000000
0.000000
0.000000
0.000000
2.109056
0.008046
0.106526
1.369163
0.000000
0.117659
0.000000
1.307433
0.161943
0.291611
0.000000
0.233624
0.518552
0.000000
0.867868
0.000000
0.000000
0.000000
0.000000
0.475966
0.287097
0.000000
0.000000
0.128017
0.150821
0.000000
0.082638
0.000000
0.474356
0.403895
0.000000
0.000000
0.000000
0.000000
0.156449
2.939216
1.619218
0.000000
0.000000
0.000000
1.066742
0.315633
1.346969
0.253956
1.714043
0.000000
0.000000
0.064244
1.708454
0.023640
0.951495
0.000000
0.000000
0.760589
0.000000
0.000000
0.000000
0.060851
0.253626
1.045041
1.481954
0.237555
0.085279
0.169174
1.292489
0.740010
2.313041
0.115864
0.000000
0.000000
0.000000
0.000000
0.000000
0.000000
0.000000
1.802657
0.000000
0.000000
0.000000
0.172635
0.000000
0.000000
0.993360
0.000000
0.079931
1.029139
0.018969
0.000000
0.942361
0.000000
0.000000
0.000000
0.000000
0.000000
0.000000
1.790463
0.000000
0.000000
0.386029
0.000000
0.925814
1.499326
0.000000
0.897892
0.184305
0.000000
0.993044
1.152105
0.000000
0.000000
0.000000
0.995881
0.097511
0.775017
0.488563
0.000000
0.000000
0.229528
0.211458
1.269007
0.663195
0.783103
0.651384
0.639710
1.043099
0.000000
0.000000
0.068798
0.000000
0.276307
1.757291
0.000000
1.228083
0.497517
