0.195440
0.145931
0.172929
0.000000
0.000000
0.396457
0.000000
0.000000
0.955017
0.000000
0.177308
0.000000
0.000000
0.275130
0.027767
0.000000
0.665703
0.460346
1.071525
0.024442
0.189021
0.000000
0.298514
0.000000
0.045872
0.000000
0.000000
0.000000
0.000000
0.000000
0.364871
0.392361
0.739167
0.000000
0.000000
1.050499
0.193443
0.871867
0.918347
0.091112
0.071946
0.147596
0.979449
1.821066
0.000000
0.000000
0.000000
0.469744
0.000000
0.850958
0.000000
0.000000
1.053723
0.445286
0.000000
0.000000
0.000000
0.008765
1.065567
0.196468
0.000000
0.738126
0.000000
0.089712
0.000000
0.000000
0.000000
0.000000
0.000000
0.000000
0.188584
0.646424
0.177806
0.000000
0.000000
0.784077
1.533975
0.382720
0.000000
0.641375
0.000000
0.160856
0.000000
0.809020
0.000000
0.000000
0.215028
0.526412
0.038378
0.635914
0.000000
0.000000
0.191162
1.352621
1.019058
0.000000
0.000000
0.215808
0.000000
0.000000
0.000000
0.000000
0.000000
0.000000
0.539674
0.000000
0.187150
0.000000
0.000000
0.000000
0.000000
0.000000
0.000000
0.065394
1.542192
0.000000
0.037057
0.000000
1.009836
0.000000
0.000000
0.000000
0.000000
0.100170
0.347145
0.169712
0.000000
0.000000
0.718036
0.000000
0.000000
0.185367
0.000000
0.000000
0.062235
0.456152
0.000000
0.000000
1.658390
0.000000
0.000000
0.000000
0.000000
0.000000
0.013194
0.733634
0.107873
1.752943
0.271017
0.326952
0.000000
0.000000
0.388562
0.146400
0.195626
0.053031
0.215931
1.374388
0.290229
0.000000
0.000000
0.000000
0.361456
0.000000
0.000000
0.000000
1.225594
0.206961
0.510576
0.206931
0.602243
0.457975
0.456547
0.028543
0.000000
0.000000
0.000000
0.111548
0.684479
0.067800
0.361367
0.000000
1.139549
0.000000
0.473352
0.000000
0.000000
0.107270
0.079878
0.519004
0.000000
0.000000
0.722641
0.301046
0.000000
0.000000
0.000000
0.034588
0.690836
0.000000
0.320069
0.159761
0.181989
0.000000
1.788224
0.000000
0.000000
0.479964
0.000000
0.952466
0.000000
0.000000
0.000000
0.674795
0.000000
0.000000
0.129827
0.333384
0.000000
0.000000
0.000000
0.218602
0.220833
0.269262
0.374962
0.837146
0.000000
1.794530
0.335124
0.000000
0.841906
0.332932
0.011931
0.290176
0.520650
0.000000
1.647635
0.278506
0.000000
0.000000
0.000000
0.300874
0.000000
0.000000
0.153973
0.115866
0.000000
0.000000
0.453125
0.116662
0.462040
1.665362
0.407218
0.000000
1.404985
0.005434
0.000000
0.340728
0.000000
0.000000
1.695008
0.066118
0.135562
0.574767
0.045216
0.224172
0.605683
0.440497
0.632390
0.834319
0.014519
0.068967
0.000000
0.000000
0.000000
0.000000
0.000000
0.000000
0.734967
0.000000
0.377225
0.000000
0.184442
0.339111
0.869905
0.000000
0.000000
0.391154
2.167230
0.352868
0.000000
0.000000
0.000000
0.496397
0.000000
0.000000
0.000000
0.000000
0.000000
0.237676
0.197890
0.000000
0.216399
0.632146
0.000000
0.000000
0.200435
0.000000
0.252935
0.374974
0.291048
0.413144
0.526213
0.000000
1.156168
0.000000
0.254751
0.975115
0.000000
0.000000
0.000000
0.000000
0.911150
0.000000
0.232672
0.000000
0.000000
0.000000
0.560818
0.184672
0.115541
0.000000
0.920419
0.000000
0.427130
0.124866
0.000000
0.000000
0.000000
0.000000
0.000000
0.000000
0.000000
0.000000
0.000000
0.000000
0.000000
0.476212
0.463813
0.288050
0.000000
0.000000
0.000000
1.004783
0.000000
0.000000
0.496256
0.152406
0.000000
0.000000
0.000000
0.100514
0.000000
0.100255
0.073709
0.023090
0.000000
0.191809
0.774766
0.629224
0.180142
0.348688
0.000000
0.000000
0.000000
0.483096
0.000000
0.402625
0.000000
1.105312
0.589336
0.099765
0.065974
0.275192
0.000000
1.192050
0.131191
0.219982
1.121640
0.572213
0.476109
0.000000
0.152042
0.000000
0.000000
0.000000
0.000000
0.316490
0.000000
0.869639
0.000000
0.950231
0.000000
0.000000
0.000000
0.000000
1.002012
1.211578
0.358818
0.000000
0.758321
0.232451
0.000000
0.000000
0.000000
0.322650
0.376911
0.000000
0.000000
0.000000
0.000000
0.260650
0.211997
0.000000
0.340521
1.454124
0.000000
0.246260
0.000000
0.000000
0.407921
0.000000
0.900877
0.258502
0.327157
0.000000
0.000000
0.000000
0.000000
0.000000
0.000000
0.697947
0.789718
0.174103
0.063203
0.000000
0.000000
0.175916
1.388299
0.000000
0.000000
0.000000
0.687243
0.567943
0.062162
0.000000
0.271702
0.000000
0.301186
0.000000
0.000000
0.586507
0.000000
0.000000
0.199805
0.000000
0.864737
0.509105
0.000000
0.089707
0.504749
0.000000
1.041435
0.775041
0.000000
0.444980
0.338015
0.000000
0.000000
0.000000
0.164791
0.000000
0.000000
0.126885
0.000000
0.000000
0.000000
0.704466
0.000000
0.118298
0.000000
0.143595
0.000000
0.000000
0.424626
0.251900
0.551037
0.053975
0.000000
0.107928
