0.296103
0.172938
0.406209
0.000000
0.000000
0.000000
0.347021
0.000000
0.450353
0.000000
0.014968
0.000000
0.349718
0.582373
0.127435
0.000000
0.000000
0.000000
0.246033
0.000000
0.000000
0.000000
0.000000
0.000000
0.022873
0.000000
0.000000
0.053349
0.717440
0.830454
0.041485
0.000000
0.264057
0.000000
0.000000
0.346949
0.000000
0.000000
0.718685
0.329920
0.000000
0.555202
0.340470
0.000000
0.000000
0.000000
0.000000
0.000000
0.025445
0.000000
0.338566
0.000000
1.044401
0.000000
0.000000
0.418988
0.000000
0.256680
0.000000
0.475029
0.000000
0.000000
0.000000
0.000000
0.718632
0.000000
0.000000
0.000000
0.000000
0.356449
0.299911
0.335958
0.000000
0.002326
0.000000
0.167649
0.231120
0.000000
0.000000
0.000000
0.000000
0.200613
0.000000
0.000000
0.274727
0.091471
0.201022
1.563876
0.000000
0.684260
0.000624
0.000000
0.212745
1.394751
0.000000
0.000000
0.000000
0.000000
0.000000
0.158507
0.000000
0.000000
0.325257
0.000000
0.000000
0.048372
0.071231
0.000000
0.339920
0.862375
0.133056
0.388940
0.000000
0.000000
0.023965
0.000000
0.000000
0.491719
1.378636
0.000000
0.041401
0.921242
0.626738
0.000000
0.000000
0.000000
0.140502
0.000000
0.980402
0.000000
0.000000
1.048148
0.000000
0.488107
0.249512
0.101125
0.161189
0.000000
1.336113
0.000000
0.000000
0.000000
0.875176
0.000000
0.108674
0.000000
0.257779
0.000000
0.700573
1.580135
0.026289
0.000000
0.000000
0.000000
1.120782
0.107639
1.188589
0.000000
0.270266
0.000000
0.000000
0.000000
0.592456
0.456446
0.000000
0.000000
0.000000
0.000000
1.985874
0.183097
0.000000
0.040260
0.000000
0.000000
0.000000
0.371704
0.000000
0.000000
0.141634
0.000000
0.468653
0.000000
0.000000
0.000000
0.353636
0.000000
0.000000
0.082826
1.435277
0.157420
0.000000
0.494270
1.074096
0.259683
0.050387
0.000000
0.000000
0.406756
1.131450
0.000000
0.132534
0.000000
0.223855
0.000000
0.611194
0.402372
0.000000
0.705739
0.890608
0.000000
0.023943
0.000000
0.000000
0.070483
0.000000
0.121403
0.000000
0.000000
0.000000
0.071637
1.642526
0.000000
0.555319
0.000000
0.000000
0.629758
0.554259
1.046489
0.000000
0.000000
1.287939
0.635679
0.000000
0.739312
0.057825
0.000000
1.212157
0.000000
0.051949
0.000000
0.246388
0.000000
0.000000
0.258438
0.000000
0.000000
0.207355
0.154731
0.648286
0.225168
0.000000
0.386664
0.239653
0.000000
0.000000
0.000000
0.000000
0.000000
0.000000
0.123773
0.483127
0.225536
0.552526
0.000000
0.000000
0.000000
0.000000
0.031840
0.000000
0.563110
0.000000
0.066426
0.059117
0.000000
0.146341
0.000000
0.000000
0.040572
1.114040
0.000000
0.000000
0.000000
1.411253
0.784163
0.461376
0.000000
0.699109
0.000000
0.823221
0.084147
0.000000
0.123872
0.341976
0.000000
0.000000
0.000000
0.000000
0.000000
0.493995
0.000000
0.880231
0.000000
0.966580
0.000000
0.106775
0.000000
0.260711
0.186947
0.000000
0.000000
0.000000
0.862976
0.224123
0.320551
0.000000
0.000000
0.372043
0.030543
0.113013
0.260369
0.000000
0.000000
0.000000
0.250234
0.228248
0.000000
0.243007
0.030880
0.000000
0.000000
0.000000
0.000000
0.529008
0.449283
0.388412
0.697537
0.000000
0.516034
0.000000
0.014167
0.196350
0.000000
0.000000
0.000000
0.000000
0.000000
0.000000
0.000000
0.795587
0.779546
0.000000
0.166822
0.000000
1.179104
0.000000
0.297450
0.000000
0.413459
0.000000
0.000000
0.353710
0.000000
0.023189
1.093504
1.123097
0.380933
0.012775
0.248366
0.542927
0.000000
0.374162
0.039858
0.000000
0.290604
0.008173
0.043491
0.504634
0.366990
0.000000
0.977139
0.609429
0.000000
0.000000
0.000000
0.000000
0.563233
0.422988
0.921252
0.210749
0.841792
0.000000
0.000000
0.272465
1.156444
0.000000
0.014294
0.000000
0.186743
0.000000
0.729667
0.000000
0.000000
0.000000
0.000000
0.000000
0.180607
1.171579
0.221822
0.341672
0.000000
0.302221
0.271236
0.007565
0.000000
0.392544
0.072236
0.000000
0.000000
0.000198
0.303613
0.677432
0.526431
0.872709
0.000000
0.000000
0.279775
0.049721
0.350190
0.000000
0.000000
1.292762
0.000000
0.000000
0.000000
0.157513
0.000000
0.000000
0.359879
0.000000
0.153041
0.059502
0.000000
0.060657
0.584822
0.319241
0.126696
0.000000
0.000000
0.000000
0.000000
0.000000
0.097364
1.139832
0.118344
1.170096
0.337649
0.000000
0.000000
0.000000
0.056898
0.000000
0.160311
0.356833
0.000000
1.113110
2.143793
0.378759
0.000000
0.000000
0.000000
0.076635
0.097734
0.940784
0.674383
0.000000
0.430886
0.887549
0.000000
0.000000
0.000000
0.000000
0.000000
0.000000
0.000000
0.566922
0.000000
0.000000
0.061370
0.000000
0.841540
0.000000
0.000000
0.000000
0.000000
0.590082
0.652140
0.000000
0.342518
0.000000
0.000000
