0.634970
0.644432
0.000000
0.000000
0.000000
0.237465
0.000000
0.569984
0.000000
0.000000
0.088679
0.529557
0.000000
0.637032
0.167782
0.241355
0.809239
0.223724
0.780029
0.376067
0.341030
0.000000
0.601000
0.000000
0.049202
0.617504
0.000000
0.000000
0.147376
0.085979
0.606518
0.000000
0.302645
0.000000
0.000000
0.075478
0.350552
0.000000
1.478591
0.137692
0.000000
0.859632
0.178209
0.164662
0.006315
0.153084
0.000000
0.593459
0.000000
0.000000
0.123180
0.000000
1.447974
0.000000
0.000000
0.385967
0.000000
0.024541
0.537364
0.598460
0.000000
2.036127
0.692731
1.128996
0.000000
0.000000
0.000000
0.384492
0.060993
0.397836
0.481172
0.437474
0.000000
0.000000
0.000000
0.921534
0.595916
0.000000
0.000000
0.000000
0.197971
0.189955
0.481705
0.314032
0.000000
0.000000
0.198801
1.085241
0.000000
0.648402
0.000000
0.393999
0.975054
0.000000
0.000000
0.000000
0.000000
0.384374
0.000000
0.000000
0.000000
0.018468
0.000000
0.000000
0.502456
0.013094
0.000000
0.000000
0.000000
0.000000
0.000000
0.594661
0.000000
0.323781
0.294907
0.000000
0.328403
0.365156
1.999222
0.000000
0.000000
0.000000
0.202552
0.416224
1.214586
0.319341
0.000000
0.000000
0.268197
0.415144
0.076577
0.760459
0.000000
0.000000
0.068339
0.000000
0.170029
0.000000
1.529019
0.000000
0.000000
0.000000
0.000000
0.193962
0.000000
0.422568
0.000000
1.016522
0.519702
0.000000
0.124376
0.000000
0.000000
0.000000
0.000000
0.000000
0.952008
0.000000
0.000000
0.415523
0.228837
0.000000
0.000000
0.000000
0.000000
1.758708
0.303477
0.534821
0.048140
0.164010
0.366003
0.038580
0.000000
0.731033
1.894590
0.000000
0.004722
2.246653
0.970091
0.000000
0.348082
0.000000
0.398686
0.046983
0.000000
0.000000
0.331997
0.000000
0.359979
0.161425
0.393144
0.553145
1.193154
0.000000
0.000000
0.076600
0.000000
0.000000
0.565863
0.000000
0.006960
0.000000
0.000000
0.114918
0.804555
0.004453
0.425168
0.000000
0.000000
1.472992
0.000000
0.000000
0.125026
0.000000
0.000000
0.000000
0.000000
0.000000
0.077244
0.000000
0.219062
0.000000
0.000000
1.614289
0.630369
0.114008
0.000000
1.219102
0.497511
0.031431
0.796959
0.223077
0.000000
0.000000
0.376877
0.640867
1.344781
0.000000
0.000000
0.000000
0.033089
0.000000
0.239667
0.217968
0.000000
0.000000
0.232066
0.279662
0.534675
0.000000
0.000000
1.185072
0.492440
0.000000
0.669544
0.000000
0.000000
0.000000
0.000000
0.125877
0.128602
0.000000
0.000000
0.581979
0.102800
0.000000
0.851687
0.361980
0.800821
0.141451
0.000000
0.000000
0.129465
0.000000
0.000000
0.000000
0.000000
0.000000
0.445783
0.514110
0.573099
0.187483
0.000000
0.100112
0.565785
0.000000
0.000000
0.000000
1.381591
0.532579
0.417093
0.124908
0.000000
0.000000
0.472145
0.000000
1.232440
0.000000
0.342672
0.469189
0.497879
0.000000
0.502726
0.388117
0.297616
0.000000
0.693560
0.000000
0.000000
0.516493
0.000000
0.000000
0.596051
0.000000
0.000000
0.275182
0.260104
0.831224
0.100103
0.000000
0.000000
0.000000
0.791399
0.052261
0.201098
0.000000
0.665904
0.000000
0.421851
0.000000
0.000000
0.000000
0.455153
0.000000
0.478706
0.392121
0.747736
0.000000
0.000000
0.000000
0.000000
0.000000
0.000000
0.000000
0.000000
0.322411
0.306200
0.819183
0.000000
1.043180
0.987314
0.302220
0.048464
1.016645
0.000000
0.355012
0.629322
1.058750
0.000000
0.000000
0.000000
0.000000
0.000000
0.000000
0.000000
0.546978
0.468501
0.409404
0.000000
0.580091
0.000000
0.389431
0.000000
1.007062
0.084527
0.092007
0.000000
0.234595
0.399142
0.410542
0.868388
0.000000
0.078231
0.000000
0.000000
1.104546
0.000000
0.000000
0.644071
0.242603
0.000000
0.000000
0.317131
0.000000
0.096122
0.366850
0.000000
0.000000
0.000000
0.000000
0.000000
2.074365
0.057002
0.238772
0.000000
0.243878
0.000000
0.166243
0.779730
0.000000
0.938334
1.116725
0.000000
0.043841
0.000000
0.000000
0.270015
0.000000
0.000000
0.147410
0.000000
0.000000
0.000000
0.086174
0.000000
0.199695
0.000000
0.000000
0.025932
0.406783
1.346351
0.341361
1.396647
0.000000
0.000000
0.000000
0.000000
0.000000
0.038982
0.000000
0.000000
0.037817
0.640069
1.170672
0.000000
0.085816
0.000000
0.000000
0.830778
0.000000
0.000000
1.193953
0.355928
0.000000
0.141224
0.206711
0.000000
0.000000
0.519727
0.000000
0.000000
0.769764
0.000000
0.095013
0.000000
0.000000
0.681843
1.219343
0.000000
0.679420
0.110852
0.000000
0.359148
0.556507
0.000000
0.683701
0.137951
0.155279
0.000000
0.255341
0.000000
0.000000
0.000000
1.269782
0.278375
0.012519
0.000000
0.448647
0.048372
0.000000
1.408551
0.000000
0.000000
0.000000
0.000000
0.548554
0.000000
0.093474
0.000000
0.404451
