0.267407
0.081895
0.000000
0.000000
0.000000
0.000000
0.273390
0.000000
0.195938
0.000000
0.040209
0.212882
0.228798
0.643638
0.441126
0.000000
0.000000
0.000000
0.080085
0.000000
0.000000
0.000000
0.236740
0.000000
0.067035
0.101688
0.000000
0.223468
0.456914
0.279061
0.078448
0.747515
0.000000
0.000000
0.035273
0.000000
0.000000
0.018045
0.327356
0.035268
0.000000
0.906904
0.000000
0.000000
0.210683
0.000000
0.511699
0.039713
0.000000
0.000000
0.000000
0.000000
0.156676
0.000000
0.000000
0.369629
0.401608
0.280895
0.074268
0.408379
0.000000
0.000000
0.000000
0.000000
0.292314
0.000000
0.000000
0.000000
0.000000
0.334793
0.327113
0.000000
0.000000
0.117316
0.069191
0.000000
0.000000
0.000000
0.000000
0.000000
0.000000
0.000000
0.036053
0.000000
0.083728
0.166932
0.182608
0.902564
0.000000
0.745888
0.036032
0.386425
0.129131
0.251199
0.184476
0.000000
0.000000
0.041185
0.000000
0.263953
0.000000
0.016817
0.000000
0.000000
0.014599
0.028478
0.121077
0.000000
0.000000
0.490176
0.017042
0.668694
0.000000
0.000000
0.240723
0.000000
0.000000
0.000000
0.860210
0.000000
0.109322
0.319815
0.394865
0.000000
0.000000
0.000000
0.000000
0.000000
0.476425
0.160311
0.000000
0.362472
0.000000
0.013446
0.000000
0.000000
0.162617
0.000000
0.686409
0.057482
0.000000
0.000000
0.283711
0.170321
0.000000
0.000000
0.000000
0.000000
0.000000
0.499713
0.000000
0.000000
0.000000
0.000000
0.436220
0.001289
0.892269
0.000000
0.000000
0.000000
0.000000
0.000000
0.416019
0.036245
0.000000
0.124600
0.000000
0.643288
1.192665
0.252019
0.000000
0.097090
0.000000
0.000000
0.000000
0.000000
0.045884
0.000000
0.000000
0.000000
0.335876
0.185968
0.000000
0.000000
0.000805
0.000000
0.263386
0.054279
0.602854
0.136388
0.000000
0.428240
0.296635
0.590323
0.093050
0.000000
0.000000
0.222918
0.435880
0.000000
0.103128
0.000000
0.164438
0.047198
0.000000
1.214404
0.025353
0.481141
0.748424
0.000000
0.000000
0.000000
0.000000
0.000000
0.000000
0.418286
0.099149
0.000000
0.000000
0.359245
0.867344
0.000000
0.000000
0.000000
0.000000
0.022586
0.072267
0.761611
0.000000
0.161178
0.752777
0.100343
0.000000
0.545870
0.081261
0.000000
0.706599
0.000000
0.030770
0.300868
0.736546
0.000000
0.170468
0.281411
0.000000
0.000000
0.307202
0.346525
0.580235
0.000000
0.000000
0.172367
0.491050
0.096857
0.000000
0.000000
0.000000
0.000000
0.148530
0.000000
0.000000
0.187625
0.199650
0.000000
0.000000
0.000000
0.102298
0.414442
0.000000
0.196363
0.107443
0.008495
0.000000
0.000000
0.118020
0.000000
0.000322
0.249436
0.000000
0.000000
0.000000
0.000000
0.725787
0.400760
0.000000
0.000000
0.000000
0.170121
0.000000
0.000000
0.000000
0.137746
0.512451
0.000000
0.000000
0.015866
0.217922
0.000000
0.000000
0.000000
0.348426
0.000000
0.406366
0.000000
0.019741
0.000000
0.210681
0.000000
0.307242
0.000000
0.400269
0.297369
0.000000
0.058601
0.000000
0.000000
0.033824
0.000000
0.000000
0.000000
0.290561
0.000000
0.526552
0.142202
0.443275
0.000000
0.220320
0.542163
0.000000
0.459058
0.000000
0.000000
0.171144
0.211158
0.299622
0.528943
0.000000
0.415859
0.000000
0.186881
0.028373
0.000000
0.000000
0.000000
0.272854
0.161539
0.000000
0.000000
0.230124
0.281892
0.000000
0.544834
0.446348
0.746156
0.000000
0.510257
0.000000
0.566103
0.000000
0.000000
0.265804
0.006739
0.112743
0.711354
0.660305
0.223225
0.000000
0.591552
0.587301
0.000000
0.000000
0.000000
0.000000
0.466055
0.000000
0.003876
1.205298
0.395198
0.637778
0.000000
0.231782
0.000000
0.099841
0.000000
0.023203
0.000000
0.709334
0.383275
0.000000
0.477983
0.000000
0.000000
0.000000
0.504492
0.000000
0.000000
0.000000
0.000000
0.016543
0.434004
0.000000
0.111649
0.000000
0.172361
0.000000
0.251927
0.023589
0.398208
0.429099
0.039799
0.000000
0.003644
0.000000
0.249616
0.145157
0.000000
0.000000
0.000000
0.000000
0.013991
0.181372
0.353627
0.339072
0.166140
0.362059
0.104199
0.000000
0.157069
0.000000
0.037622
0.523673
0.588983
0.017003
0.143581
0.216000
0.000000
0.000000
0.310177
0.000000
0.000000
0.307227
0.000000
0.214423
0.398209
0.254483
0.386264
0.000000
0.000000
0.000000
0.000000
0.059758
0.492599
0.451317
0.133783
0.956143
0.276279
0.000000
0.000000
0.000000
0.000000
0.168936
0.000000
0.000000
0.155303
0.329388
0.762564
0.000000
0.000000
0.066454
0.380253
0.125728
0.026600
0.069210
0.238570
0.000000
0.312570
0.405673
0.086014
0.000000
0.000000
0.000000
0.000000
0.000000
0.214691
0.407368
0.000000
0.000000
0.000000
0.000000
0.002501
0.000000
0.000000
0.000000
0.111774
0.250980
0.698525
0.388966
0.166448
0.289295
0.000000
