0.456398
0.357759
0.908565
0.000000
0.183835
0.000000
0.500760
0.293096
1.246282
0.618932
0.135998
0.000000
0.000000
1.468010
0.000000
0.000000
0.239795
0.470140
0.358048
0.000000
0.219614
0.000000
0.321927
0.000000
0.101288
2.439281
0.000000
0.022696
0.000000
0.000000
0.080127
0.000000
0.418057
0.000000
0.000000
0.000000
0.000000
0.174875
1.418183
0.000000
0.000000
0.227909
0.836720
1.052199
0.000000
0.000000
0.197510
0.266483
0.655978
1.698517
0.000000
0.000000
0.922544
0.194495
0.000000
0.000000
0.929857
0.000000
1.309485
0.566054
0.000000
1.349196
1.474241
0.811046
0.000000
0.000000
0.000000
0.000000
0.089070
0.191224
0.859239
0.000000
0.060778
0.000000
0.000000
0.000000
0.622189
0.000000
0.000000
0.000000
0.171710
0.420336
0.345679
0.000000
0.000000
0.000000
0.354775
0.201258
0.000000
0.831593
0.000000
0.000000
0.000000
0.188992
0.795019
0.000000
0.183723
1.380136
0.063743
0.108749
0.000000
0.000000
0.000000
0.000000
1.588493
0.000000
0.000000
0.070374
0.000000
0.000000
0.070933
0.242753
0.000000
0.682151
0.000000
0.244421
0.249283
0.617925
1.113265
0.230039
0.000000
0.000000
0.000000
0.249608
0.353699
0.004911
0.080633
0.452913
0.361690
0.677601
0.463876
0.354156
0.000000
0.439201
0.667084
0.088376
0.000000
0.047548
1.753026
0.000000
0.000000
0.000000
0.000000
0.554090
0.141226
0.000000
0.237893
1.107647
0.000000
0.000000
0.678922
0.000000
0.000000
0.000000
0.000000
0.000000
1.928535
1.360030
0.096917
0.000000
0.000000
0.000000
0.000000
0.000000
0.000000
0.975473
1.412416
0.400705
0.000000
0.000000
0.010870
0.247147
0.154003
0.173340
0.298780
0.000000
0.000000
0.862107
0.416733
0.000000
0.279262
0.000000
0.794348
0.000000
0.000000
0.000000
0.158317
0.000000
0.000000
0.304967
0.684976
0.000000
0.931833
0.068906
0.000000
0.000000
0.031671
0.000000
0.132599
0.000000
0.000000
0.000000
0.260370
0.401495
1.577817
0.573344
1.601747
0.307080
0.000000
0.000000
0.000000
0.000000
0.000000
1.546899
0.000000
1.594949
0.000000
0.235429
0.067307
0.262330
0.000000
0.828376
1.102007
1.155097
0.626861
0.820313
0.000000
1.887808
0.270320
0.000000
0.102131
2.227371
0.000000
0.000000
0.060801
0.000000
1.244688
0.271675
0.000000
0.000000
0.000000
0.907159
0.524422
1.066833
0.000000
0.758539
0.000000
0.000000
0.000000
0.000000
0.000000
1.187105
0.846663
0.000000
1.716504
0.758557
0.000000
0.058198
0.000000
0.607179
0.222663
0.000000
0.027834
0.588353
0.000000
1.240641
0.000000
0.551566
0.310857
0.000000
0.000000
0.000000
0.000000
0.000000
0.629438
0.000000
0.109864
1.184046
1.547469
0.000000
0.000000
0.125882
0.000000
0.000000
0.995293
0.299828
0.000000
0.249723
2.400999
1.585561
0.000000
0.045008
0.000000
0.000000
0.000000
0.000000
0.954770
0.000000
0.000000
0.415093
0.203163
0.000000
0.428313
0.031972
0.000000
0.000000
0.682238
0.000000
0.208879
0.000000
0.000000
0.000000
0.349732
0.000000
0.649466
0.875949
0.000000
0.404432
0.000000
0.150592
0.000000
0.000000
1.979549
0.000000
0.000000
0.414947
0.000000
0.086864
0.000000
0.217424
0.012975
0.000000
0.819646
0.227774
0.552578
0.000000
1.155697
0.000000
0.000000
0.000000
0.000000
0.000000
0.000000
0.000000
0.000000
2.094804
0.241102
0.135665
0.000000
0.176431
0.334930
1.246473
0.000000
1.364056
0.000000
0.000000
0.882721
0.675467
0.000000
0.016069
0.000000
0.000000
0.000000
0.000000
0.000000
0.005259
0.689926
0.133016
0.000000
0.432052
0.000000
0.337048
0.107563
0.404885
0.096125
0.480691
0.000000
0.126576
0.578677
2.142963
0.000000
0.000000
0.269734
0.083913
0.000000
1.645234
0.000000
0.000000
1.801435
0.000000
0.671353
0.000000
0.353693
0.000000
0.115515
0.460370
0.078322
0.404647
0.000000
0.000000
0.000000
2.544866
0.000000
0.082210
0.000000
1.381899
0.087885
0.787654
1.028787
1.343449
0.251654
0.325692
0.000000
0.917615
0.000000
0.000000
0.000000
0.000000
0.372686
0.000000
0.000000
0.055101
0.000000
0.000000
1.246760
1.971206
0.495865
0.167350
0.000000
1.434135
0.746580
0.000000
2.997149
0.039522
0.168333
0.686776
0.000000
0.000000
0.000000
0.529855
0.000000
0.000000
0.257767
1.769584
0.173988
0.236198
0.000000
0.000000
0.000000
0.000000
0.000000
0.000000
0.796407
0.000000
0.000000
0.000000
0.509444
0.000000
0.000000
0.000000
0.000000
0.600095
0.050937
0.000000
0.051882
0.000000
0.070664
0.191406
0.000000
0.115048
0.667800
0.000000
0.000000
0.000000
0.000000
0.000000
0.731514
0.000000
0.491619
1.452159
0.074430
0.000000
0.000000
0.713660
0.778763
0.000000
1.472134
0.550841
0.694904
0.000000
0.253421
0.211367
0.000000
0.000000
0.000000
0.915325
0.250555
0.620853
0.000000
1.100617
