0.051752
0.810959
0.000000
0.000612
0.000000
0.000000
0.064868
0.000000
0.000000
0.000000
1.395302
0.000000
0.000000
0.573795
0.021486
0.000000
0.212023
0.344846
0.000000
0.000000
0.000000
0.000000
0.201079
0.000000
0.035640
0.923148
0.872037
0.822921
0.000000
0.000000
0.000000
0.130633
0.000000
0.000000
0.000000
0.490605
0.000000
0.000000
0.000000
0.000000
0.000000
1.712109
0.000000
0.000000
0.019918
0.000000
0.000000
0.000000
0.000000
0.000000
0.000000
0.000000
0.000000
0.056982
0.000000
1.120880
0.290087
0.000000
0.000000
0.753281
0.000000
1.487425
0.876850
0.276095
0.000000
0.000000
0.000000
0.000000
0.012202
0.000000
0.288130
0.000000
0.000000
0.000000
0.431863
0.000000
0.000000
0.000000
0.000000
0.466463
0.524633
0.000000
0.215877
0.000000
0.502794
0.000000
0.104599
1.249196
0.689552
0.398894
0.000000
0.000000
0.469994
0.000000
0.000000
0.000000
0.000000
0.550006
0.000000
0.213793
0.000000
0.388369
0.389763
0.504044
0.631435
0.000000
0.422911
0.000000
0.848914
1.094324
0.284009
1.379761
0.000000
0.000000
0.000000
0.175941
0.000000
0.409759
0.000000
0.000000
0.066803
0.000000
0.468264
0.000000
0.000000
0.000000
0.069650
0.063160
0.000000
0.401958
0.149389
0.000000
0.000000
0.000000
0.000000
0.000000
0.906674
0.422241
1.321106
0.000000
0.000000
0.000000
0.418798
0.000000
0.000000
0.000000
0.000000
0.000000
0.000000
0.000000
0.384228
0.200070
0.660618
0.320084
0.352947
0.351534
1.334852
1.267398
0.482101
0.000000
0.000000
0.000000
0.849411
0.000000
0.000000
1.142229
0.000000
0.000000
0.000000
0.943245
0.000000
0.238119
0.000000
0.275936
0.000000
0.000000
0.279570
0.696708
0.000000
0.000000
0.268776
0.000000
0.000000
0.000000
0.029479
0.000000
0.399045
0.521123
0.688862
0.000000
0.677377
0.000000
0.337861
0.375494
0.048587
0.000000
0.490438
0.582336
0.000000
0.000000
0.522844
0.000000
0.000000
0.590961
1.023510
1.818123
0.843464
0.724818
2.249846
0.000000
0.000000
0.000000
0.000000
1.677832
0.000000
0.528009
0.000000
0.000000
0.000000
0.000000
0.000000
0.368969
0.000000
0.384524
0.000000
0.457347
0.655254
1.349675
0.000000
0.000000
0.532002
0.000000
0.011010
0.009963
0.098050
0.000000
0.021409
0.447032
0.338321
0.000000
1.790589
2.248808
0.819409
1.107794
0.000000
0.344693
0.000000
0.007110
0.000000
0.000000
1.356818
0.366807
0.000000
0.000000
0.607081
0.487543
0.173454
0.345926
0.186929
0.000000
0.000000
0.000000
0.000000
0.000000
0.000000
0.021427
0.000000
0.145679
0.045112
0.784537
0.000000
0.000000
0.000000
0.000000
1.189501
0.518511
0.395149
1.536370
0.000000
0.000000
0.000000
0.000000
0.318141
0.597729
0.511662
0.714564
1.072844
0.134150
0.398348
1.849312
0.000000
0.183978
1.087662
0.647503
0.060017
0.000000
0.385402
0.354794
0.000000
0.000000
0.079189
0.258598
0.375494
0.000000
0.956510
0.000000
0.000000
0.400152
0.488081
0.502977
0.601228
0.193953
0.076493
0.000000
0.000000
0.411499
0.156383
0.000000
0.393933
1.038563
0.085637
0.000000
1.420389
0.000000
0.000000
0.000000
0.000000
0.000000
0.000000
0.444249
0.000000
0.000000
0.001609
0.000000
0.035546
0.000000
0.897037
0.194058
0.000000
0.747645
0.000000
0.000000
0.215066
0.000000
0.000000
0.115512
0.000000
0.000000
1.029393
0.000000
0.028761
0.413578
0.764519
0.448808
0.007286
0.000000
0.338554
2.222986
0.296373
0.337256
0.000000
0.000000
0.910653
1.338910
1.821916
0.501940
0.771372
0.786704
0.029613
0.000000
0.000000
0.000000
0.000000
0.710905
0.000000
0.000000
1.181554
0.286824
0.580812
0.000000
0.243691
0.000000
0.179976
0.580164
0.000000
1.084193
0.660136
0.448403
1.010306
0.634016
0.000000
0.000000
0.934546
1.519474
0.000000
0.000000
0.443299
0.334039
0.000000
0.295859
0.950095
1.189450
0.000000
0.699838
0.000000
1.050844
0.181540
0.295538
0.546410
2.370772
0.000000
0.000000
1.651166
0.000000
1.583662
0.000000
0.000000
0.000000
0.765448
0.212226
0.295621
0.722318
0.480722
0.210207
0.673615
0.000000
0.404860
0.012177
0.000000
0.504928
0.000000
0.705368
0.542617
0.423080
0.000000
0.000000
0.000000
0.000000
0.000000
0.000000
0.115557
0.000000
0.516671
0.609468
0.539914
0.182582
0.443014
0.123455
0.000000
0.329213
0.000000
0.000000
0.780237
0.389608
1.411389
0.000000
0.000000
0.421554
0.000000
0.000000
0.000000
0.908470
1.000801
0.546690
0.000000
0.494725
0.445011
0.000000
0.639906
0.547406
0.000000
0.472704
0.018011
0.850611
0.000000
0.013251
0.095560
0.000000
0.000000
0.000000
0.291045
0.000000
0.000000
0.000000
0.433333
0.000000
0.000000
0.000000
0.283565
0.000000
0.000000
1.241353
0.000000
0.369931
0.000000
1.604852
0.000000
0.438086
0.217423
0.151639
