0.015590
0.000000
0.404405
0.000000
0.003997
0.142372
0.546056
0.025382
0.748708
0.994746
0.236719
0.000000
0.000000
0.000000
0.000000
0.406285
0.000000
0.308693
0.355748
0.288959
0.000000
0.000000
0.000000
0.000000
0.176885
0.000000
0.000000
0.601892
0.081916
0.000000
0.204809
0.118986
0.455558
0.471453
0.308702
1.524917
0.099368
0.000000
1.241768
0.000000
0.000000
0.000000
0.954690
0.832372
0.325427
0.000000
0.000000
0.000000
0.421384
0.887405
0.000000
0.196226
0.962424
0.736403
0.071156
0.000000
0.000000
0.000000
0.122435
0.000000
0.000000
0.000000
0.000000
0.137880
0.028102
0.000000
0.000000
0.000000
0.013244
0.000000
0.000000
0.103319
0.218353
0.000000
0.481736
0.472221
0.379634
0.578433
0.000000
0.074138
0.000000
0.844052
0.000000
0.866545
0.191795
0.000000
0.000000
0.000000
0.567586
0.000000
0.000000
0.359665
0.000000
0.265414
0.079534
0.000000
0.146047
0.493108
0.176924
0.000000
0.178716
0.128115
0.000000
0.175344
0.000000
0.000000
0.040107
0.384096
0.264538
0.000000
0.200653
0.000000
0.168246
0.309966
0.000000
0.000000
0.000000
0.914488
0.268604
0.000000
0.000000
0.001708
0.000000
0.000000
0.000000
0.000000
0.000000
0.000000
0.315225
0.170188
0.053119
0.220700
0.000000
0.000000
0.959286
0.424581
0.000000
0.000000
1.389127
0.000000
0.000000
0.000000
0.180069
0.000000
0.064235
0.000000
0.000000
1.011402
0.043804
0.000000
0.431578
0.324614
0.046540
0.294994
0.000000
0.078961
0.093208
0.654884
0.000000
0.301279
0.000000
0.492066
0.229857
0.982448
0.038757
0.000000
0.690255
0.691160
0.000000
0.000000
0.253280
0.000000
0.000000
0.097352
0.000000
1.101703
0.000000
0.000000
0.000000
0.120811
0.744721
0.000000
0.967824
0.000000
0.343209
0.000000
0.239124
0.000000
0.273946
0.619120
0.000000
0.029923
0.099493
0.000000
0.189185
0.000000
0.475896
0.040731
1.060646
0.000000
0.253229
0.000000
0.000000
0.000000
0.934517
0.000000
0.000000
0.050622
0.585087
0.280359
0.000000
0.000000
0.024630
0.000000
0.688345
0.064782
0.104350
0.128748
0.123302
0.094306
0.000000
0.931136
0.200422
0.000000
0.000000
0.545174
0.128427
1.277869
0.000000
0.000000
0.392406
0.497988
0.024841
0.287951
0.000000
0.000000
1.314395
0.100364
0.273335
0.000000
0.000000
0.000000
0.000000
0.042572
0.000000
0.269638
0.000000
0.000000
0.630489
0.000000
0.453195
0.441246
0.412560
0.000000
0.661976
0.537561
0.222875
0.000000
0.000000
0.000000
0.966814
0.311541
0.000000
0.000000
0.305413
0.297649
0.486380
0.806529
0.668412
0.764378
0.000000
0.100760
0.000000
0.000000
0.000000
0.162238
0.000000
0.000000
0.484560
0.000000
0.000000
0.000000
0.796454
0.304151
0.000000
0.000000
0.525876
0.000000
1.638090
0.177884
0.487817
0.000000
0.162016
0.076929
0.000000
0.052676
0.000000
0.000000
0.000000
0.061144
0.166790
0.000000
0.056569
0.121213
0.000000
0.163602
0.466943
0.000000
0.000000
0.233057
0.839275
0.704474
0.000000
0.000000
0.912527
0.210824
0.000000
0.304617
0.000000
0.070950
0.000000
0.000000
0.663882
0.558139
0.000000
0.008206
0.000000
0.115057
0.360288
0.337323
0.000000
0.153485
0.697378
0.053279
0.398741
0.000000
0.126409
0.000000
0.000000
0.000000
0.000000
0.014980
0.000000
0.163438
0.000000
0.439012
0.000000
0.383841
0.472242
0.000000
0.000000
0.000000
0.000000
0.545236
0.000000
0.240510
0.000000
0.095343
0.000000
0.249557
0.000000
0.093294
0.159653
0.000000
0.524976
0.000000
0.317263
0.000000
0.000000
0.535977
0.177900
0.450933
0.000000
0.532235
0.000000
0.109453
0.000000
0.915767
0.307737
1.013121
0.128093
0.000000
0.047789
0.856344
0.000000
0.222751
0.402034
0.000000
0.094123
0.000000
0.557335
0.000000
0.255034
0.838672
0.000000
0.000000
0.331250
0.153471
0.000000
0.000000
0.000000
0.157454
0.510579
0.000000
0.000000
0.526151
1.074293
0.665938
0.000000
0.000000
0.000000
0.000000
0.115771
0.345889
0.396078
0.178140
0.544727
0.183048
0.040437
0.203350
0.000000
0.000000
0.000000
0.000000
0.000000
0.792608
0.011256
0.000000
0.863405
0.000000
0.000000
0.000000
0.076634
0.851874
0.525129
0.000000
0.000000
0.000000
0.000000
1.369282
0.000000
0.200519
0.801335
0.736999
0.000000
0.000000
0.000000
0.000000
0.240357
0.000000
1.247620
0.543651
0.179790
0.000000
0.000000
0.023037
0.231066
0.000000
0.000000
0.000000
0.000000
0.000000
0.143937
0.000000
0.000000
0.000000
0.000000
0.164525
0.000000
0.081750
0.450934
0.000000
0.335763
0.308435
0.533947
0.000000
0.147884
0.246502
0.000000
0.243895
0.410390
0.000000
0.000000
0.066129
0.000000
1.193979
0.690680
0.298848
0.319463
0.553152
0.062113
0.214147
0.000000
0.099003
0.264049
0.000000
1.033287
0.307594
0.577593
0.000000
