0.000000
1.376469
0.000000
0.501551
0.000000
0.000000
0.000000
0.000000
0.000000
0.000000
0.481852
0.000000
0.000000
1.165587
0.000000
0.000000
0.000000
0.315619
0.000000
0.002041
0.513302
0.000000
0.513207
0.074119
0.178148
1.253850
1.313852
0.901109
0.000000
0.000000
0.309342
0.172602
0.570488
0.000000
0.000000
0.000000
0.000000
0.000000
0.000000
0.000000
0.674598
1.902202
0.232934
0.000000
0.000000
0.000000
0.000000
0.000000
0.000000
0.000000
0.000000
0.000000
0.000000
0.092966
0.000000
1.458051
0.366596
0.157297
0.831958
0.561630
0.000000
2.463640
1.122986
0.566078
0.000000
0.000000
0.000000
0.211603
0.072422
0.000000
1.102282
0.000000
0.000000
0.565832
0.593553
0.391289
0.000000
0.000000
0.000000
0.142577
0.600765
0.000000
0.428237
0.000000
0.556287
0.000000
0.328808
2.541164
0.000000
1.072691
0.000000
0.000000
0.476485
0.000000
0.000000
0.000000
0.000000
0.436046
0.000000
0.138415
0.000000
0.000000
0.608067
0.160619
0.725907
0.022320
0.000000
0.000000
0.126376
0.459727
0.000000
0.917339
0.000000
0.000000
0.000000
0.035239
0.466675
0.222951
0.000000
0.544656
0.070269
0.000000
0.556726
0.142251
0.084922
0.000000
0.000000
0.025545
0.102872
0.499812
0.000000
0.000000
0.078348
0.207543
0.000000
0.141113
0.638668
1.081198
0.931830
0.048545
0.000000
0.000000
0.000000
1.363823
0.000000
0.000000
0.066737
0.701142
0.029344
0.000000
0.405316
0.000000
0.182321
0.000000
0.147395
0.674479
2.288387
0.117515
0.030764
0.159222
0.575547
0.000000
0.335293
0.000000
0.000000
2.346389
0.000000
0.000000
0.150123
1.004748
0.028846
0.202429
0.374315
0.185719
0.513578
0.000000
0.099889
1.481900
0.003855
0.000000
0.000000
0.000000
0.000000
0.000000
0.000000
0.000000
0.000000
0.832347
0.438747
0.000000
0.783794
0.654532
0.129453
0.235921
0.000000
0.079838
0.089342
0.522811
0.096620
0.000000
0.126367
0.206708
0.098199
1.098673
0.897992
2.504053
1.330396
0.985029
0.123032
0.000000
0.000000
0.069578
0.000000
2.568437
0.000000
0.379712
0.000000
0.000000
0.000000
0.063962
0.000000
0.000000
0.000000
0.891673
0.746636
0.390521
0.937688
1.218601
0.000000
0.000000
0.540571
0.000000
0.000000
0.000000
0.896286
0.233422
0.362372
0.000000
0.000000
0.000000
1.073321
1.453178
1.390131
0.820495
0.551307
0.615662
0.000000
0.000000
0.000000
0.000000
1.117843
0.635575
0.000000
0.000000
1.270309
0.255840
0.000000
0.829185
0.266600
0.748576
0.000000
0.000000
0.000000
0.000000
0.000000
0.000000
0.000000
0.000000
0.000000
0.000000
0.116450
0.000000
0.000000
0.000000
0.229590
0.000000
0.493392
1.160665
0.000000
0.000000
0.263419
0.000000
0.000000
0.201342
1.201134
0.723191
0.184792
0.450708
0.852591
2.124166
0.000000
0.447402
0.790589
0.352794
0.675156
0.000000
1.330149
0.235948
0.425323
0.000000
0.216941
0.228014
0.960809
0.000000
1.182809
0.000000
0.000000
0.000000
0.581098
0.558700
0.000000
0.096776
0.110668
0.047481
0.000000
0.000000
0.163747
0.000000
0.000000
0.519550
0.000000
0.000000
1.683074
0.000000
0.000000
0.000000
0.000000
0.000000
0.000000
0.000000
0.000000
0.000000
0.055109
0.114018
0.606701
0.475376
0.710347
0.000000
0.735523
0.000000
0.000000
0.000000
0.388163
0.000000
0.000000
0.411616
0.000000
0.000000
0.000000
0.216165
0.459136
1.548739
0.448948
0.259261
0.000000
0.000000
0.546651
1.649276
0.020526
0.000000
0.000000
0.000000
0.000000
0.633732
0.183935
1.095548
0.000000
0.737181
0.000000
0.243536
0.000000
0.231149
0.568553
0.000000
0.235755
0.122898
1.102443
0.000000
0.117779
0.000000
0.610324
0.000000
0.254675
0.000000
0.000000
0.000000
0.175971
0.162862
1.386468
0.948059
0.000000
0.001470
0.206385
0.000000
0.000000
0.128533
0.137948
0.161001
0.000000
0.000000
0.432120
1.788485
0.000000
1.065218
0.230288
0.931231
0.000000
0.000000
0.819532
2.059269
0.712830
0.611215
0.000000
0.000000
0.186206
0.000000
0.000000
0.000000
0.000000
0.119574
0.000000
0.713739
0.918789
0.310320
0.705401
0.000000
0.290810
0.000000
0.000000
0.769875
0.258618
0.000000
0.620665
0.000000
0.085672
0.000000
0.000000
0.031711
0.000000
0.000000
0.434447
0.000000
0.132504
1.223071
0.000000
0.881926
0.000000
0.000000
0.000000
0.000000
0.000000
0.000000
1.235820
0.438745
1.321183
0.123594
0.000000
0.057953
0.521475
0.000000
0.409618
0.784588
0.000000
0.159683
0.192385
0.000000
0.394007
0.457456
0.401813
0.440643
0.000000
0.408007
0.066691
0.826197
0.000000
0.166303
0.084931
0.000000
0.000000
0.051643
0.000000
0.000000
0.000000
0.000000
1.462219
0.000000
0.542074
0.000000
0.304621
0.000000
0.003627
0.607098
0.000000
0.346453
0.000000
1.908138
0.000000
0.000000
0.000000
1.206028
