0.000000
1.095610
0.000000
0.485951
1.299121
0.000000
0.000000
0.182700
0.000000
0.000000
0.568265
0.000000
0.000000
0.000000
0.352303
0.000000
0.998289
0.000000
0.000000
0.033248
0.523645
0.000000
0.803419
0.551951
0.000000
0.000000
0.000000
0.000000
0.366594
0.000000
0.000000
0.000000
0.911982
0.000000
0.000000
0.000000
0.000000
0.000000
0.740858
0.000000
0.000000
0.149578
0.409358
0.126487
0.534973
0.005024
0.483074
0.722880
0.000000
0.000000
0.087523
0.000000
0.516230
0.099320
0.000000
0.000000
1.093300
0.000000
0.000000
0.421674
0.000000
2.714750
0.000000
1.487923
0.000000
0.000000
0.257858
0.505715
0.000000
0.219455
0.000000
0.000000
0.118126
0.000000
0.307264
0.000000
0.000000
0.000000
0.000000
0.000000
0.000000
0.000000
0.775863
0.102578
0.000000
0.000000
0.321578
0.000000
0.000000
0.253825
0.000000
0.401328
1.327811
0.000000
0.000000
0.000000
0.000000
0.248071
0.000000
0.000000
0.000000
0.000000
0.060836
0.000000
0.669585
0.332513
0.000000
0.809915
0.000000
0.000000
0.000000
0.000000
0.000000
0.749830
0.325297
0.462830
1.108223
0.000000
0.000000
0.156642
0.000000
0.000000
0.000000
2.093097
1.478402
0.160067
0.283612
0.000000
0.354107
0.601064
0.484342
0.319590
0.000000
0.217816
0.516999
0.490907
0.247417
0.560060
1.232861
0.000000
0.000000
0.000000
0.000000
0.000000
0.359305
1.069309
0.000000
0.825388
0.263912
0.000000
0.014218
0.179543
0.000000
0.478315
0.000000
0.043739
0.000000
0.081638
0.071081
0.000000
0.485476
0.000000
0.000000
0.000000
0.000000
2.184360
0.000000
0.458958
0.706269
0.000000
0.000000
0.489762
0.000000
0.834108
2.370579
0.033228
0.000000
1.842784
0.000000
0.227324
0.058569
0.297403
0.000000
0.000000
0.000000
0.000000
0.196412
0.438694
0.000000
0.280045
0.000000
0.000000
0.000000
0.000000
0.000000
0.000000
0.146534
0.032865
0.000000
0.000000
0.000000
0.206071
0.000000
1.789146
0.000000
0.776772
1.876144
0.000000
0.268591
0.000000
0.000000
0.000000
0.000000
0.389063
0.000000
0.000000
0.000000
0.000000
0.541861
0.000000
0.095049
0.000000
0.000000
0.776029
1.315479
1.406883
0.309594
0.723029
0.000000
0.273382
0.000000
0.000000
0.000000
0.257344
0.000000
0.457712
0.000000
0.000000
0.385998
0.000000
0.568713
0.256320
0.436631
0.933677
0.000000
0.682318
0.000000
0.000000
0.023596
0.000000
0.501528
0.000000
0.000000
0.000000
1.087200
0.000000
0.196001
0.000000
0.216489
0.112902
0.000000
0.477241
0.233341
0.898422
0.393574
0.000000
0.000000
0.985108
0.784939
0.132118
1.377974
0.000000
0.195873
0.000000
0.116407
0.342106
0.000000
0.661608
0.959011
0.000000
0.000000
0.000000
0.000000
0.000000
0.000000
0.000000
0.405490
0.000000
1.608841
0.997145
0.267522
0.000000
0.341160
0.000000
1.264345
0.000000
0.000000
0.000000
0.422612
0.078777
0.000000
0.233407
0.000000
0.726552
0.000000
0.208723
0.000000
0.000000
0.174628
0.294248
0.184717
0.000000
0.649285
0.758721
0.000000
0.328427
0.000000
0.589508
1.011916
0.419319
0.000000
0.000000
0.926209
0.000000
0.247832
0.141736
0.000000
0.325348
0.000000
0.398175
0.000000
0.000000
0.491321
0.000000
0.000000
0.000000
0.000000
0.000000
0.195791
0.000000
0.106499
0.000000
0.398751
0.032746
0.000000
0.000000
0.142452
0.422197
0.000000
0.030882
1.230517
0.000000
0.931257
0.000000
0.000000
0.000000
0.054513
0.722070
0.000000
0.813405
0.155579
0.302898
0.000000
0.000000
0.000000
0.000000
1.715003
0.000000
0.000000
0.139862
0.000000
0.000000
0.000000
0.771903
0.174489
0.000000
0.306446
0.000000
0.461911
0.000000
0.155001
0.007858
0.061974
0.000000
0.000000
0.462697
0.264435
0.000000
0.000000
0.000000
0.360435
0.000000
1.437061
0.000000
0.458835
0.613101
0.346911
0.000000
0.000000
0.000000
0.000000
2.272907
0.557923
0.099446
0.222562
0.000000
0.000000
0.000000
0.314476
0.107131
0.959278
0.000000
0.000000
0.432468
0.612217
0.229140
0.000000
0.000000
0.075483
0.575476
0.000000
0.000000
0.000000
0.090542
0.000000
0.000000
1.102214
0.000000
0.000000
0.106573
0.000000
0.758753
0.885827
0.619946
0.000000
0.000000
0.402693
0.029029
0.194196
0.000000
0.443086
0.000000
0.000000
0.000000
0.000000
0.535293
0.000000
0.000000
0.000000
0.000000
0.780206
0.000000
0.146284
0.000000
0.000000
0.000000
0.135618
0.000000
0.112320
0.179867
0.732365
0.730044
0.253775
0.000000
0.000000
0.000000
0.423286
1.017439
0.000000
0.691990
0.000000
0.000000
0.000000
0.270919
0.000000
0.000000
0.000000
0.436107
0.326486
0.625876
0.083090
0.000000
0.000000
0.000000
0.152253
0.000000
0.969512
0.337115
0.252405
0.000000
1.047511
0.000000
0.000000
0.092153
0.000000
0.000000
0.000000
0.348503
0.000000
0.758964
