0.249742
0.368745
0.000000
0.264063
0.000000
0.000000
0.000000
0.000000
0.283306
0.000000
0.577619
0.383440
0.000000
0.488178
0.374698
0.000000
0.000000
0.076440
0.328233
0.000000
0.000000
0.144697
0.316875
0.088854
0.000000
0.000000
0.000000
0.000000
0.000000
0.116364
0.000796
0.199625
0.000000
0.000000
0.000000
0.000000
0.000000
0.289623
0.000000
0.000000
0.000000
0.529315
0.000000
0.342150
1.299795
0.000000
0.000000
0.024714
0.000000
0.019850
0.000000
0.704364
0.000000
0.085278
0.000000
0.956454
0.370257
0.073700
0.247401
0.492775
0.000000
0.340628
0.000000
0.325673
0.000000
0.000000
0.566737
0.302309
0.000000
0.117603
0.000000
0.000000
0.000000
0.000000
0.513257
0.000000
0.310448
0.000000
0.000000
0.088738
0.000000
0.636519
0.000000
0.000000
0.000000
0.000000
0.000000
0.029935
0.225090
0.516403
0.083076
0.000000
0.977517
0.186226
0.010778
0.000000
0.000000
0.481572
0.000000
0.004010
0.049272
0.294125
0.000000
0.044686
0.000000
0.000000
0.630024
0.000000
0.000000
0.815199
0.093776
0.000000
0.000000
0.191622
0.000000
0.048498
0.244713
0.016827
1.379402
0.000000
0.000000
0.000000
0.000000
0.000000
0.143643
0.000000
0.104424
0.044892
0.140385
0.450116
0.000000
0.000000
0.000000
0.000000
0.042671
0.132715
0.477040
0.000000
1.401371
0.000000
0.000000
0.000000
0.075197
0.000000
0.000000
0.554237
0.029346
0.000000
0.000000
0.000000
0.034917
0.000000
0.156823
0.520790
0.381113
0.000000
1.407691
0.000000
0.367451
0.000000
0.000000
0.000000
0.000000
0.000000
0.000000
0.361637
0.000000
1.070223
0.615731
0.407557
0.079965
0.474698
0.000000
0.000000
0.000000
0.473455
0.000000
0.237012
0.246690
0.219939
0.037697
0.000000
0.326587
0.000000
0.645442
0.000000
0.337600
1.052776
0.007819
0.000000
0.701675
0.000000
0.117583
0.811517
0.000000
0.102390
0.000000
0.000000
0.000000
0.000000
0.000000
0.000000
0.000000
0.253484
0.000000
1.285825
0.000000
0.142952
0.409677
0.539948
0.114973
0.000000
0.000000
0.000000
0.000000
0.862516
0.474714
0.000000
0.000000
0.502478
0.000000
0.000000
0.000000
0.366775
0.000000
0.799731
0.360558
0.280520
0.000000
0.000000
0.765246
0.000000
0.000000
0.666407
0.000000
0.000000
1.642600
0.000000
0.000000
0.000000
0.815275
0.160337
0.000000
0.399091
0.000000
0.000000
0.000000
0.039199
0.417605
0.000000
0.008973
0.903565
0.000000
0.000000
0.179459
0.084759
0.185712
0.000000
0.000000
0.000000
1.722174
1.113213
0.722508
0.438445
0.000000
0.000000
0.000000
0.379523
0.367370
0.473115
0.000000
0.000000
0.000000
0.000000
0.000000
0.812362
0.000000
0.674506
0.000000
0.058816
0.000000
0.000000
0.265138
0.072193
0.000000
0.000000
0.363790
0.000000
0.707553
0.000000
0.000000
0.000000
0.553403
0.000000
0.041020
0.000000
0.000000
0.000000
0.000000
0.000000
0.063195
0.000000
0.054160
0.000000
0.000000
0.071136
0.060557
0.000000
0.249201
0.193317
0.617869
0.058169
0.250838
0.000000
0.000000
0.195697
0.045739
0.474929
0.006582
0.000000
0.000000
0.000000
1.110406
0.551021
0.320339
0.000000
0.000000
0.561233
0.000000
0.575353
0.000000
0.000000
0.343304
0.000000
0.315510
0.000000
0.000000
0.000000
0.000000
0.000000
0.196319
0.118934
0.000000
0.000000
0.174654
0.000000
0.000000
0.000000
1.111118
0.482595
0.248097
0.000000
1.131670
0.280465
0.000000
0.000000
0.567323
0.484683
0.000000
0.000000
0.000000
0.000000
0.000000
0.635327
1.293634
0.142679
0.083467
0.410318
0.000000
0.000000
0.000000
0.000000
0.000000
0.991099
0.000000
0.338910
1.508083
0.504120
0.407856
0.000000
0.037819
0.000000
0.024004
0.000000
0.008587
0.894918
0.955831
0.356439
0.132749
0.489087
0.000000
0.000000
0.275611
1.302035
0.000000
0.000000
0.119746
0.000000
0.000000
0.501204
0.000000
0.785335
0.000000
0.000000
0.000000
0.000000
0.994996
1.066415
1.112766
0.360789
0.000000
0.000000
1.006596
0.454826
1.651008
0.201757
0.000000
0.000000
0.000000
0.096564
0.000000
0.618048
0.151544
0.000000
0.887685
0.196026
1.590861
0.000000
0.000000
0.002678
0.449323
0.754710
2.100315
1.335472
0.437479
0.000000
0.000000
0.153086
0.062835
0.000000
0.167951
0.000000
1.070539
0.505431
0.000000
0.000000
0.000000
0.000000
0.268582
0.000000
0.017102
0.508341
0.000000
0.132859
0.756629
0.000000
0.000000
0.000000
0.000000
0.000000
0.089377
0.000000
0.000000
0.183204
1.166972
0.000000
0.000000
0.040203
0.150154
0.951200
0.459992
0.137784
0.848439
0.148052
0.000000
0.231566
0.153889
0.991803
0.322953
0.000000
0.099082
0.000000
0.000000
0.000000
0.000000
0.000000
0.035649
0.724928
0.000000
0.000000
0.000000
0.203894
0.000000
0.467436
0.000000
1.185331
0.000000
0.000000
0.619601
0.132659
