0.000000
1.971800
0.128720
0.719048
0.763601
0.000000
0.000000
1.715640
0.108616
0.000000
0.275655
0.000000
0.000000
0.848781
0.000000
0.407351
0.148469
0.989424
0.806676
0.000000
0.252217
0.000000
1.077785
0.245295
0.000000
0.000000
0.000000
0.181620
0.000000
0.000000
0.615033
0.000000
1.139785
0.000000
0.000000
3.067143
0.158408
0.000000
0.000000
0.000000
0.378033
1.736608
0.000000
0.000000
0.402628
0.000000
0.000000
0.000000
0.000000
0.000000
0.000000
0.000000
0.000000
0.475440
0.067894
1.112763
0.000000
0.000000
0.000000
0.000000
0.000000
3.189017
0.926617
1.035430
0.000000
0.000000
0.000000
0.382509
0.000000
0.000000
1.305800
0.536880
0.000000
0.000000
0.704478
1.082072
1.019677
0.000000
0.000000
0.313881
1.415123
0.463605
0.000000
1.029327
0.753886
0.000000
0.337049
1.697541
0.000000
0.000000
0.000000
0.000000
0.183967
0.000000
0.000000
0.000000
0.000000
0.236458
0.000000
0.000000
0.905146
0.000000
1.222363
0.476675
0.975630
0.000000
0.044205
0.275254
0.000000
0.000000
0.229045
1.551419
0.000000
0.300299
0.000000
0.268379
1.711357
1.089301
0.000000
0.364375
0.000000
0.000000
1.378498
0.000000
0.000000
0.135936
0.000000
0.078349
0.000000
0.000000
0.096509
0.000000
0.000000
0.000000
0.169734
0.175073
1.187291
0.937541
1.693871
0.000000
0.000000
0.000000
0.000000
0.569072
0.000000
0.105338
0.000000
1.487554
0.513210
0.382171
0.841454
0.878896
0.000000
0.000000
0.000000
0.581010
1.162309
0.000000
0.253481
0.000000
0.000000
0.042370
0.000000
0.000000
0.000000
1.920463
0.639416
0.000000
0.000000
1.066140
0.645873
0.000000
0.000000
1.055139
1.953999
0.000000
0.144019
1.833988
0.779004
0.000000
0.061656
0.000000
0.410069
0.000000
0.508555
0.000000
0.000000
0.333311
0.438230
0.000000
0.006426
0.540884
0.000000
0.138238
0.000000
0.000000
0.153582
0.468163
0.060261
0.000000
0.634970
0.954797
0.000000
1.250397
0.000000
0.615217
0.809481
0.000000
1.550160
0.889197
0.000000
0.000000
0.000000
2.629466
0.157660
0.000000
0.000000
0.228479
0.952175
0.000000
0.000000
0.544774
0.000000
1.062292
0.257698
0.955820
0.413111
1.125907
0.000000
0.000000
0.543745
0.172069
0.000000
0.000000
0.822476
0.305147
0.000000
0.000000
0.000000
0.000000
0.000000
0.000000
0.001293
0.086938
0.535960
0.253017
0.000000
0.000000
0.000000
0.591401
1.184459
0.728155
0.000000
0.000000
1.332150
0.573048
0.112363
0.000000
0.000000
0.556232
0.000000
0.000000
0.579068
0.750918
0.000000
0.000000
1.042617
0.000000
1.329583
0.599642
0.000000
0.000000
0.000000
0.000000
0.000000
0.306536
0.036726
0.000000
0.000000
0.000000
0.000000
0.000000
0.000000
0.000000
0.000000
0.000000
0.000000
0.283881
1.396684
0.881911
0.000000
0.000000
0.000000
0.532715
1.706137
0.000000
0.417174
0.018235
0.000000
0.000000
0.502153
0.000000
1.011152
0.819103
1.367844
0.000000
0.000000
1.503888
0.000000
0.838213
0.000000
0.000000
0.991520
0.524203
0.000000
0.000000
0.171788
1.188462
0.306441
0.757314
0.000000
0.000000
0.569105
0.000000
0.000000
0.071819
0.000000
0.108301
0.000000
0.000000
0.312297
0.000000
0.000000
0.204705
0.872022
0.263614
1.199207
0.293086
0.224027
0.000000
0.000000
0.065948
0.577907
0.000000
0.000000
0.000000
0.000000
1.601819
1.130912
0.768144
1.454802
0.846049
0.000000
0.000000
0.000000
0.000000
0.114865
0.000000
0.232815
0.582821
0.000000
0.431311
0.163303
0.835268
0.710751
1.064161
0.000000
0.650611
1.310168
0.000000
0.000000
0.000000
0.082757
0.000000
0.160095
0.011139
0.000000
0.000000
0.000000
0.000000
1.017912
0.000000
0.000000
0.567805
0.000000
0.316010
0.000000
0.000000
0.000000
1.178925
0.893655
0.000000
1.609592
0.000000
0.000000
1.243952
0.162838
0.000000
0.000000
0.862733
0.427729
1.710277
0.000000
0.011668
0.043640
0.163081
0.000000
0.000000
0.099266
0.235647
0.960371
1.313788
0.000000
0.000000
0.000000
0.000000
0.853847
0.000000
0.000000
0.000000
0.000000
0.000000
0.000000
0.000000
0.000000
0.000000
0.000000
0.000000
0.000000
0.270651
0.000000
0.000000
1.749618
0.000000
0.360405
0.000000
0.137054
0.086229
0.000000
0.000000
0.000000
0.000000
1.976470
0.772286
0.000000
0.245405
1.180074
0.087621
0.000000
0.000000
0.000000
0.000000
1.522032
0.148379
0.792426
0.000000
0.523147
0.058808
0.000000
0.329469
0.194469
0.419966
0.275135
1.261792
0.705505
0.000000
0.903845
1.446925
0.127180
0.000000
0.017571
0.000000
0.424981
1.527015
0.000000
0.000000
0.000000
0.000000
0.000000
0.134842
0.050919
0.000000
0.000000
0.000000
1.274124
1.009431
0.830275
0.722041
0.000000
0.000000
0.525048
1.136804
0.000000
0.104295
0.000000
0.074375
0.000000
0.000000
0.000000
1.724243
