4.563365
0.0
0.0
0.0
2.009024
2.2312267
0.0
0.0
0.0
0.0
0.0
0.5363202
2.3822954
0.0
0.0
0.0
0.0
1.4588499
0.0
0.804213
0.0
0.0
0.0
0.041008398
3.4460428
0.0
0.0
0.0
0.7410718
0.9553386
2.7387648
1.0976281
3.8527308
0.0
0.47765905
0.0
0.0
2.4003491
0.0
0.0
2.1544309
0.13765828
0.0
0.0
4.4339075
3.6824846
2.8218417
0.0
4.1704564
2.5126724
5.494643
0.0
0.22444838
4.78699
0.0
0.0
1.4982777
0.0
0.0
2.5707095
0.0
5.240599
0.68696696
3.8931923
3.420814
2.7669597
3.9832828
0.0
0.0
0.0
0.86490923
3.9448562
3.888905
3.771572
0.0
0.0
0.0
0.0
0.45728567
4.96382
0.0
3.9903133
0.0
4.705383
