3.9444935
0.0
0.0
0.0
4.151026
1.7160257
0.0
0.0
0.0
0.0
0.0
0.0
2.6523511
0.0
0.0
0.0
0.0
2.2161932
0.0
0.0
0.0
0.0
0.0
0.0
4.376274
0.0
0.0
0.0
1.2026598
1.4728224
3.4554696
0.015137449
4.468339
0.0
0.0
0.0
0.0
3.4119506
0.0
0.0
3.3445787
0.0
0.0
0.0
3.3143275
3.78697
3.3503382
0.0
3.5508485
3.438987
4.7164407
0.0
0.37621832
3.770051
0.0
0.0
2.5512903
0.0
0.0
3.4687202
0.0
4.9545035
1.2174221
3.68501
2.763754
2.9272366
4.2162147
0.0
0.0
0.0
0.85730857
2.7721398
3.3761592
4.02779
0.0
0.0
0.0
0.0
0.0
3.7619057
0.0
2.6708813
0.0
4.0789137
