0.0
0.0
0.0
3.5816698
0.0
0.0
0.0
0.0
0.0
0.0
3.232151
2.880923
0.0
4.2892275
0.0
3.4942377
0.2347151
0.0
2.3235376
0.0
5.3305545
0.0
4.7976475
0.0
0.0
0.0
0.0
0.0
1.326608
4.093927
5.377557
4.459986
2.3832674
0.0
2.9772604
0.0
0.039769087
3.6523917
0.0
3.4336092
2.5917222
0.0
0.0
2.1466372
0.6905085
0.0
0.0
0.0
0.0
0.0
2.3671765
2.613385
3.340436
0.0
0.0
3.5722497
0.0
0.0
3.8102407
0.0
2.5712798
1.8114164
3.2455251
0.0
0.0
0.0
3.6102762
0.0
3.9866083
1.7093941
0.0
0.0
2.767666
3.2644699
0.0
3.0228188
1.1207584
0.1864378
0.0
0.02898541
0.0
4.3375735
0.0
0.0
