1.633222
2.1784096
0.0
3.609089
1.6824732
0.0
0.0
0.0
2.0296106
0.0
2.2762504
2.1523259
0.0
3.2762997
2.293017
0.21247488
1.7105665
0.49283326
2.0729723
0.0
2.6599884
1.7608563
1.192143
0.0
0.0
0.0
0.0
0.0
2.3466363
2.7456405
0.14328244
2.8827803
0.0
0.0
2.042297
0.0
0.0
0.0
0.0
3.1127257
0.0
0.0
0.0
0.0
2.4195766
1.0135379
1.3847908
1.6856852
0.0
0.0
1.8250158
0.0
0.0
0.0
2.8932893
0.0
0.0
0.0
0.8988618
0.0
0.0
0.0
0.0
0.0
0.0
0.0
0.0
1.2386853
2.5880668
3.1578124
2.111057
0.0
3.7384639
2.6847432
0.0
2.5657535
0.0
2.2576556
0.0
1.5382724
1.2389797
2.0348525
0.0
0.0
