3.9130473
0.0
0.0
0.0
2.9879932
2.2061024
0.22630042
0.0
0.98310286
0.0
0.0
0.5870164
1.4014959
0.0
0.0
0.0
0.0
0.18073392
0.0
0.67851126
0.0
0.5279436
0.0
0.0
0.46762544
0.0
0.0
0.0
0.8029801
0.25354
1.8746877
0.2505362
2.5860338
0.0
0.9257065
0.55747783
0.0
1.9869274
0.0
0.0
1.7422668
0.9126601
0.0
0.0
4.307383
1.4651284
2.0716279
0.0
0.81437546
1.7151705
4.019465
0.0
0.28032616
3.2416396
0.0
0.0
1.6243689
0.0
0.0
1.5277964
0.0
2.4787736
0.9924335
2.514316
2.2308962
2.1372328
1.1485503
0.0
0.0
0.0
0.023875222
2.688426
2.2036743
4.4396243
0.0
0.0
0.0
0.0
0.0
3.189112
0.0
3.112866
0.0
4.0453706
