0.0
0.0
3.0997097
1.8701954
2.983382
0.5306735
0.0
0.0
0.0
0.13181208
2.4517946
0.0
2.2811952
0.0
0.0
3.6960628
1.3344622
2.8112564
0.057897225
0.0
1.3480135
0.0
2.236394
0.0
0.0
0.0
1.8562504
3.2546988
2.749287
0.0
1.9326591
0.0
0.0
0.0
0.0
2.5193708
2.108755
3.2027898
0.0
0.0
0.0
0.0
0.0
3.6326346
2.421477
0.0
0.0
3.1362638
0.0
0.0
0.0
0.0
2.5118809
0.0
0.0
2.9451811
2.9097261
0.33803988
3.638875
2.54001
2.5774393
0.4607419
1.5750862
0.0
2.8001523
0.0
0.0
1.4339525
0.0
2.3001273
0.17503563
1.2118427
0.0
0.8717199
0.0
1.6876026
0.0
2.5482178
0.0
0.0
0.0
0.6421682
0.0
0.0
