1.5226663
3.1799927
0.0
3.9584956
0.17439687
0.76214373
0.0
0.816205
1.5323607
0.0
1.8682852
2.0710835
0.0
3.8534443
3.072028
0.0
2.942642
1.1293502
0.8005165
0.0
3.1390812
1.2537817
1.0524163
0.0
0.33465093
0.019800544
0.9198861
0.0
0.43646026
3.1463497
0.0
1.7387781
0.5758373
0.0
0.93813145
0.0
0.0
0.0
1.3352566
2.6833677
0.0
0.0
0.0
0.0
0.6587671
2.7464116
1.894472
1.3866796
0.0
0.0
0.8847723
0.89750093
0.0
0.3376312
2.5608194
0.0
0.0
0.0
0.0
0.0
0.0
0.0
0.0
0.0
0.0
0.0
0.0
0.66387147
1.4737214
2.4139333
0.82362294
0.0
3.9837868
0.8912632
0.0
2.711714
0.008157775
0.7969492
0.0
0.16719283
1.4256653
0.79947084
0.0
0.90733707
