0.0
0.0
2.979733
0.0
0.0
0.24410775
1.1219875
2.1291902
0.0
1.2090057
0.0
0.66795594
2.9073417
0.0
2.1482482
1.61837
0.0
1.393443
2.138001
0.0
0.0
0.0
0.0
2.2715266
0.0
0.0
0.16268079
3.4260666
0.0
0.0
0.0
0.0
0.0
2.8478096
0.0
1.6053795
0.0
0.0
0.0
2.6379073
0.0
1.247296
0.0
1.9177392
2.5760536
0.0
1.8562858
2.3362787
0.0
0.0
0.0
0.0
2.507902
1.7574415
0.0
0.0
2.5356374
2.4756908
1.8594656
2.4052925
1.9781182
0.0
0.46266037
0.0
0.16788286
0.0
0.0
2.9329689
0.0
2.0640485
2.4631488
0.0
0.0
0.0
1.9253038
0.0
2.3266275
2.5461116
1.368783
2.158478
0.45561785
0.0
2.3229363
0.0
