4.1958365
4.486984
0.0
5.7737546
3.2177548
0.57391226
0.0
0.0
3.3489802
0.0
2.7378488
4.151901
0.0
4.4732337
3.7846017
0.0
3.6766527
2.7475972
3.5477223
0.0
4.0507975
4.2571936
0.0
0.0
0.0
0.0
0.0
0.0
3.5467408
2.7183385
0.0
5.61899
0.0
0.0
3.7491105
0.0
0.0
0.0
0.0
3.6655633
0.0
0.0
0.0
0.0
3.490123
3.7790697
1.0123546
3.3626359
0.0
0.0
3.8593683
0.0
0.0
0.0
4.366313
0.0
0.0
0.0
0.0
0.0
0.0
0.0
0.0
0.0
0.0
0.0
0.0
3.0643651
2.77952
4.098792
3.2751014
0.0
5.8220167
4.323303
0.0
3.3584046
0.0
3.4013615
0.0
3.3189158
3.3778868
2.6502845
0.0
0.3640836
