0.0
2.6103163
0.26082024
3.5800848
0.0
2.1447868
0.0
2.1722343
0.0
0.0
2.5241778
0.0
0.0
2.7793586
3.487781
0.0
3.0278516
3.2183414
0.0
0.0
3.6327431
0.0
3.0521412
0.0
1.9018315
0.0
3.1834333
0.0
0.0
2.7684104
2.1628826
0.0
3.0706236
0.0
0.0
0.0
0.0
0.0
2.7292666
4.0261827
0.0
0.0
0.0
0.650419
0.0
1.9526771
2.132751
4.373573
0.0
0.0
0.0
2.5741765
2.370038
0.0
2.203702
0.0
0.0
0.0
1.5023465
1.9484947
2.8687406
0.0
2.7266011
0.0
0.0
0.0
0.0
0.0
0.0
4.854401
0.17845212
0.0
3.145624
0.0
0.0
4.4308705
1.2510895
1.9897132
0.0
0.0
0.0
0.0
2.9757533
1.0442517
