0.19378872
1.1048338
1.2158269
0.0
0.8773366
3.4794781
0.0
0.0
0.0
0.54163074
0.0
0.0
1.1782497
0.0
0.0
0.062380522
0.0
2.9768546
0.0
1.1502228
0.42882085
0.0
0.12197815
1.1242176
1.1854501
1.2654018
2.8209126
1.6542373
0.0
0.0
1.5366602
0.0
0.15070587
1.5695186
0.0
1.6488271
0.0
0.0
2.0252228
0.0
1.2984228
0.0
0.6018462
0.42546207
0.0
1.625046
1.7651129
1.3601947
1.9487259
2.445268
0.0
1.4722117
1.7221639
2.2703156
0.0
0.0
0.6565409
0.0
0.0
2.793292
1.724351
0.55626893
0.0
1.2768887
1.3743709
1.7146094
0.6241965
0.0
0.0
0.0
0.0
1.6231437
0.0
0.0
0.0
0.0
0.0
0.0
0.9670714
0.9275446
0.5649007
0.0
2.130078
2.7755613
