0.0
0.4348
0.0
1.0067148
0.0
0.0
0.023591936
0.6511487
0.0
0.68751776
1.3908393
1.6867352
0.0
2.9472926
1.0249104
1.3749745
0.27690005
0.0
1.9401207
0.0
1.999608
0.0
1.5693364
0.0
0.0
0.0
0.0
0.0
0.0
2.752318
1.8461518
1.8611171
1.5306063
0.0
1.656399
0.0
0.0
0.78060365
0.04266879
2.776004
1.8991668
0.0
0.0
1.2828538
0.0
0.0
0.63337535
0.0
0.0
0.0
1.3309162
2.1404371
1.7165226
0.0
0.17975627
1.4063598
0.0
0.67076683
1.7551595
0.0
1.7088532
1.2695388
1.4408756
0.0
0.0
0.0
1.5974014
0.0
2.4048285
1.5106773
0.26469243
0.0
1.9932973
0.7708053
0.0
1.0644739
1.8577207
0.0
0.0
0.0
0.0
0.8883636
0.31352976
0.0
