0.0
0.0
0.0
0.10996148
0.0
0.0
1.3126551
0.0
0.0
2.8465178
3.0016425
1.6381595
0.0
2.2169566
0.0
4.120592
0.4137488
0.0
4.285185
0.0
0.27514118
0.6021409
1.2198429
0.0
0.0
0.25195584
0.0
0.0
0.0
1.409433
1.1218171
2.684459
0.68344295
0.054498866
3.3234
0.0
2.6231582
4.4708996
0.0
1.4582517
3.4827225
0.0
0.0
2.5602179
0.0
0.0
0.0
0.0
0.0
0.0
4.503556
3.1047776
0.9532933
0.51506406
0.0
3.8660572
0.0
2.380329
2.6343136
0.0
2.4086232
3.3615742
0.4747112
0.066008106
0.0
0.0
2.0120165
0.0
3.4168215
0.46759367
0.41050553
0.013650127
0.25143564
2.921678
0.0
0.4926888
3.6492834
0.0
0.103044584
0.0
0.0
1.2935785
0.0
0.0
