0.0
2.0404544
0.0
2.7899404
0.0
4.314029
2.4576263
3.6460865
1.0960146
5.048658
0.0
0.0
0.0
2.8471236
1.849394
1.2633414
0.0
0.0
1.0059146
0.0
3.2042346
2.8357346
3.1791797
0.0
0.30598974
3.9429197
0.0
3.480626
0.0
0.0
2.967184
3.1706471
0.0
0.0
2.7495515
0.0
0.0
2.374952
4.4135795
0.0
1.3962406
3.5368655
4.244582
0.0
0.0
0.37327096
0.0
5.3618064
0.0
0.0
0.0
0.0
2.1301236
4.7962313
2.5703225
0.0
3.7628143
0.0
1.1668438
0.0
3.8091717
0.0
0.0
2.6707826
0.0
3.1783035
2.3416846
0.0
0.0
3.7715788
0.0
0.0
2.1305819
0.63535446
1.742503
0.0
0.0
3.869991
0.0
3.6766515
4.6217775
0.0
6.2364645
4.073183
