0.0
0.0
0.18549386
0.0
0.0
0.0
1.5534043
1.571714
0.0
0.49610925
0.0
0.8423789
1.3736117
0.0
1.7274516
1.284367
0.0
0.016429007
1.9422259
0.0
0.0
0.0
0.0
1.7116393
0.0
0.0
0.0
1.4382284
0.0
0.0
0.0
0.35638338
0.0
1.8238984
0.93699
0.464232
0.26222706
0.0
0.0
1.877018
0.0
1.7342001
0.0
1.2758973
1.1180098
0.0
1.3966355
1.0428882
0.0
0.0
0.10752384
0.0
0.91773903
1.2713401
0.43704188
0.0
1.2649987
2.1590257
1.1438488
1.2846895
0.6783016
0.12034527
0.0
0.08982405
0.0
0.0
0.0
1.908918
0.0
1.6656158
1.5670844
0.0
0.59646356
0.0
1.7669381
0.0
2.2527096
1.1998733
1.532084
1.4729468
0.55895346
0.0
0.7789733
0.0
