3.0690207
0.0
0.0
0.0
2.2651105
2.6044538
0.0
0.0
0.0
0.0
0.0
0.0
1.822727
0.0
0.0
0.0
0.0
1.7226712
0.0
0.21667275
0.0
0.0
0.0
0.0
2.3690252
0.0
0.10593681
0.0
0.5617397
0.0
2.426951
0.10190421
3.0465136
0.65648437
0.0
0.0
0.0
1.9641715
0.0
0.0
2.3009992
0.0
0.0
0.0
2.4756598
2.4750333
2.4726672
0.0
2.8169034
2.290648
4.24297
0.0
0.7860509
3.2638736
0.0
0.0
1.4675932
0.0
0.0
2.484647
0.0
3.4496322
0.6794218
2.75518
1.3151551
2.2193098
3.3503923
0.013328984
0.0
0.0
0.357782
2.8513763
1.6769863
2.904963
0.0
0.0
0.0
0.0
0.3619963
2.6009161
0.0
2.4850643
0.0
2.9430094
