0.0
2.562151
2.8775065
0.0
0.0
5.2506742
0.0
0.0
0.0
0.1584471
0.0
0.0
0.0
0.0
0.0
0.0
0.0
5.1271167
0.0
1.3493792
1.2981639
0.6124958
1.3413544
2.957931
0.0
1.8962823
4.788437
3.6085825
0.0
0.0
1.2358513
0.0
0.0
4.6470823
0.0
4.051941
0.0
0.0
5.4643345
0.4073375
0.21557805
0.0
1.6976234
0.5295266
0.0
2.2559454
2.1691184
5.348796
1.5538415
3.3294826
0.0
4.4773526
4.8487253
3.382996
0.0
0.0
0.0
0.0
0.0
5.0037975
4.813796
0.0
0.0
1.4478863
2.0799892
0.7966096
0.0
0.0
0.0
0.0
0.0
2.0328622
0.0
0.0
0.58372927
0.0
0.0
0.05884278
1.606852
0.7349798
2.9890118
0.0
6.2836237
3.080719
