0.0
0.0
0.0
0.0
0.0
0.0
4.364834
0.0
0.0
5.1315503
3.3290424
1.2777938
0.0
0.0
0.0
6.1539783
2.536412
0.0
5.324501
0.0
0.0
4.1771593
0.0
3.372797
0.0
3.074171
0.0
0.0
0.0
0.0
0.0
1.8992931
0.0
3.456215
4.9600205
4.3323803
5.6424003
5.218249
0.0
0.0
3.4561584
0.0
0.0
4.9648376
0.0
0.0
0.0
0.0
0.0
2.0992222
5.2633867
3.7302086
0.0
3.9006133
0.0
5.6249065
0.0
5.816614
1.6426834
0.0
4.330021
6.2826085
0.0
4.6845083
0.0
0.0
0.0
3.2914996
3.9587114
0.0
0.0
4.9331264
0.0
3.937802
0.0
0.0
5.5798974
0.0
5.3605156
0.0
0.0
0.0
0.0
0.0
