0.0
0.0
0.0
0.0
0.0
0.0
5.510173
0.0
0.0
7.1641164
5.0924053
1.2949803
0.0
0.0
0.0
6.6785755
4.5328484
0.0
9.052444
0.0
0.0
5.578766
0.0
4.0828385
0.0
4.546986
0.0
0.0
0.0
0.0
0.0
1.9199053
0.0
4.3060946
4.506951
4.9630895
6.576662
6.8136177
0.0
0.0
5.4721813
0.0
0.0
5.695648
0.0
0.0
0.0
0.0
0.0
4.473969
8.524325
5.0239778
0.0
4.54325
0.0
8.286809
0.0
6.064741
2.3366191
0.0
4.4794793
8.854214
0.0
5.519344
0.0
0.0
0.0
3.500928
6.092863
0.0
0.0
5.5631843
0.0
5.8335414
0.0
0.0
6.52799
0.0
5.917657
0.0
0.0
0.0
0.0
0.0
