0.0
0.0
0.0
1.3054229
0.0
0.0
0.043815285
0.0
0.0
1.0255716
2.664867
2.3866358
0.0
3.1731884
0.0
4.4686904
0.0
0.0
3.5378454
0.0
3.2495334
0.0
3.25036
0.0
0.0
0.0
0.0
0.0
0.83623374
2.7015612
3.4857333
3.6508775
1.4585993
0.0
3.0217311
0.0
1.1267327
4.150044
0.0
1.6226234
3.3434062
0.0
0.0
2.610111
0.48317653
0.0
0.0
0.0
0.0
0.0
2.8334267
2.159194
2.351105
0.0
0.0
4.582316
0.0
0.20642072
2.6361396
0.0
2.3438365
3.1774535
1.6824201
0.0
0.0
0.0
3.1252086
0.0
4.0686426
0.22864725
0.0
0.0
1.3928328
3.8398943
0.0
1.334246
1.82596
0.0
0.0
0.0
0.0
2.944932
0.0
0.0
