3.0019643
0.0
0.4593005
0.0
4.3826165
2.5666554
0.0
0.0
0.0
0.0
0.0
0.0
2.8021188
0.0
0.0
0.0
0.0
3.2251165
0.0
0.09875655
0.0
0.0
0.0
0.10009877
1.861273
0.0
0.5550946
0.0
2.3416138
0.0
2.932875
0.0
2.5992684
0.40459377
0.0
0.6073943
0.0
2.0647385
0.0
0.0
1.3044033
0.0
0.0
0.0
4.212414
2.6710424
3.3248725
0.0
4.761007
2.662483
3.2296915
0.0
0.7798556
3.0756154
0.0
0.0
2.6234412
0.0
0.0
3.6473534
0.0
4.2265515
0.52228653
3.258401
4.1945853
2.7365005
2.3450627
0.0
0.0
0.0
0.85730296
3.5243583
0.19102602
2.969839
0.0
0.0
0.0
0.0
0.69891745
3.3029578
0.0
3.6536112
0.0
3.1450796
