0.0
0.0
0.0
0.0
0.0
0.0
5.070718
0.2288517
1.0888534
5.402947
2.5485024
1.4690418
0.0
0.0
0.0
4.4495277
2.700239
0.0
6.69615
0.0
0.0
4.4895887
0.0
3.288889
0.0
4.834101
0.0
0.0
0.0
0.0
0.0
1.8836542
0.0
3.401012
4.3854804
2.6330984
4.976886
4.068414
0.0
0.0
3.2330148
0.0
0.7942362
3.2104275
0.0
0.0
0.0
0.0
0.0
1.9595351
4.067015
2.037441
0.0
4.459332
0.0
4.387372
0.0
5.068486
0.8299089
0.0
3.160766
4.060179
0.0
4.0691843
0.0
0.0
0.0
4.204186
4.277462
0.0
0.40944707
3.2983823
0.0
3.3009923
0.30437553
0.0
3.9131575
0.0
4.3627424
0.0
0.0
0.0
0.0
0.0
