0.0
0.0
5.9495935
4.923166
4.5321035
0.0
0.0
0.0
0.0
0.0
7.131443
0.0
4.6660047
0.0
0.0
6.618317
3.1484482
3.4845874
0.0
0.0
2.4391172
0.0
6.568899
0.0
0.0
0.0
3.2790682
5.237176
3.4932036
0.0
3.3842342
0.0
0.0
0.0
0.0
6.3581705
7.29112
5.1071773
0.0
0.0
0.0
0.0
0.0
6.879456
4.164163
0.0
0.0
1.994495
0.0
0.0
0.0
0.6111998
6.393627
0.0
0.0
7.94146
3.7153132
0.061487876
6.996378
3.4592402
4.5416718
1.6118642
5.3446617
0.0
5.496283
0.0
0.0
1.8103641
0.0
3.1952643
0.0
2.968141
0.0
3.4983482
0.0
5.7732778
0.0
4.271863
0.0
0.0
0.0
2.5635314
0.0
0.0
