0.5199923
0.0
0.0
0.0
0.0
0.0
2.1604738
0.0
0.69617015
1.0833622
1.4242259
1.1090251
0.0
0.0
0.0
1.2184033
1.986985
0.0
2.149839
0.081983685
0.0
1.896719
0.0
1.6848
0.0
0.7261304
0.0
0.0
0.0
0.0
0.0
0.7728925
0.0
1.441819
1.8392059
1.9990593
1.9851393
0.92416596
0.0
0.0
0.5971584
0.0
0.10420194
1.2304811
0.0
0.17099085
0.0
0.0
0.0
1.3693656
2.1725047
0.05929281
0.0
2.1445131
0.0
2.186965
0.0
1.5247209
0.74499226
0.0
0.96756434
1.9232553
0.0
2.004115
0.0
0.0
0.0
1.79318
1.2462527
0.0
0.46909124
2.2032154
0.0
1.7835246
0.026058264
0.0
1.6470951
0.0
2.1311898
0.0
0.47336623
0.27759087
0.0
0.0
