0.0
0.0
0.0
0.801733
0.0
0.0
0.0
0.0
0.0
1.0680614
3.2432976
1.9481548
0.0
3.5835073
0.0
4.1721797
0.0
0.0
3.221262
0.0
2.6650505
0.0
2.3421366
0.0
0.0
0.0
0.0
0.0
0.0
3.4021187
2.999836
3.1234038
2.3382633
0.0
2.9703166
0.0
1.3913902
4.350897
0.0
2.6696286
4.112157
0.0
0.0
3.2808576
0.0
0.0
0.0
0.0
0.0
0.0
3.8445623
4.4384522
2.4829073
0.0
0.0
4.2510796
0.0
1.7723482
3.2836154
0.0
2.8789885
3.6841793
1.8244888
0.0
0.0
0.0
2.6653292
0.0
3.98303
0.85798776
0.0
0.0
1.1998795
2.5392795
0.0
1.0747937
3.8245168
0.0
0.0
0.0
0.0
2.1162953
0.0
0.0
