0.0
0.59781146
0.0
1.2445617
0.0
3.506317
1.1187952
2.1291134
0.6582999
2.3081572
0.0
0.0
0.0
1.6434482
0.9739113
2.3437643
0.0
0.0
0.21166524
0.117641285
1.6322125
1.5032024
2.6737142
0.0
0.0
2.2528539
0.21056107
2.4039035
0.0
0.0
2.6107042
3.0144894
0.0
0.0
2.1148028
0.0
0.0
1.9028037
3.075111
0.0
2.4851112
1.8005419
2.50516
0.005307883
0.0
0.13264564
0.0
3.3085482
0.1884704
0.0
0.0
0.0
1.7700623
2.953887
1.3367215
0.0
2.050254
0.0
0.26826072
0.0
3.1661134
0.0
0.0
1.5126008
0.0
2.6230228
2.9053013
0.0
0.0
0.9255023
0.0
0.0
0.121882424
0.20816077
1.4577482
0.0
0.0
1.9343332
0.0
1.7431337
2.6425705
0.0
3.8628635
2.9229016
