0.0
5.575414
1.5792639
3.9685264
0.5445075
6.8166676
0.0
2.0501328
0.0
0.0
2.2786655
0.0
0.0
2.381501
3.3644948
0.0
2.9108713
7.2148237
0.0
0.0
5.7815466
0.0
3.0112796
1.7523423
4.1888905
1.2123787
6.909639
0.4893607
0.0
2.141702
2.886141
0.0
2.923288
0.13308378
0.0
0.656305
0.0
0.0
7.9114127
4.017963
0.0
0.0
0.0
0.511408
0.0
5.736088
4.142142
9.025455
0.0
0.3311726
0.0
6.074127
5.2183037
1.6888852
2.5863917
0.0
0.0
0.0
0.0
5.1100597
5.963614
0.0
2.8789876
0.0
0.9339505
0.0
0.0
0.0
0.0
4.417205
0.0
0.6795846
1.8527592
0.0
0.0
3.3741238
0.33602744
2.6545024
0.0
0.0
0.0
0.0
7.1372943
5.000044
