0.83043885
0.18395731
0.0
1.6930388
0.0
1.7192583
3.4931026
2.1666236
0.9914927
3.4792788
0.0
0.90960115
0.0
3.3380637
2.0943966
2.1977608
0.0
0.0
1.4553287
0.0
2.0918372
1.7039632
2.8062603
0.0
0.0
2.35322
0.0
2.0151935
0.0
0.19172391
2.3914733
3.7273192
0.24899921
0.0
3.831635
0.0
0.3186339
2.7375875
1.9777274
0.0
3.116534
2.561183
2.1117249
0.0
0.0
0.0
0.0
1.4968016
0.0
0.0
0.0
0.0
1.1943473
2.706222
2.4919736
0.0
1.9069135
0.0
2.5343397
0.0
1.5387383
0.0
0.0
0.5981475
0.0
1.4223819
3.345991
0.0
1.0510972
3.3080542
0.0
0.0
3.2794368
1.508488
1.8791558
0.0
0.0
1.7133734
0.0
2.7271335
2.4014444
0.0
2.2086658
2.5810633
