0.0
0.0
0.0
1.8889023
0.0
0.0
0.019162834
0.16898875
0.0
0.6197045
1.9533441
1.2991407
0.0
2.417509
0.0
3.6970239
0.0
0.0
1.2913951
0.0
2.9042056
0.0
3.6955705
0.0
0.0
0.0
0.0
0.73533344
0.13661046
1.9205772
4.030591
2.9728038
1.9115744
0.0
1.9976935
0.0
1.0554742
3.8528466
0.0
1.3537096
2.1971369
0.0
0.0
2.0356727
0.25422725
0.0
0.0
0.0
0.0
0.0
0.95826674
1.7069665
3.310926
0.0
0.0
2.822812
0.4497528
0.0
3.4837234
0.0
2.3442154
1.9196997
2.8795602
0.0
0.0
0.0
3.040348
0.0
1.7075479
1.295866
0.0
0.0
1.4259677
1.8158329
0.0
1.3643861
1.1922601
0.11405161
0.0
0.0
0.0
2.1561582
0.0
0.0
