0.0
0.0
3.2401195
0.0
0.0
0.0
2.16497
1.99489
0.0
1.099751
0.21365693
0.9591305
3.3018618
0.0
2.6781967
2.990406
0.0
1.6364319
3.296976
0.0
0.0
0.0
0.0
2.1684036
0.0
0.0
0.0
3.421504
0.0
0.0
0.0
0.0
0.0
3.3935258
0.0
2.1542857
0.7126237
0.5795133
0.0
3.797969
0.0
1.546378
0.0
3.3307428
2.280557
0.0
1.2583144
3.043803
0.0
0.0
0.0
0.0
2.607298
1.2157178
0.47509646
0.016942367
3.3121023
4.063948
3.4101677
2.6784816
2.1348333
0.0
0.6262397
0.0
0.0
0.0
0.0
3.6504023
0.0
3.5738158
3.6228554
0.0
0.0
0.0
2.3394992
0.0
3.9653509
3.3121388
2.060639
1.8513516
0.0
0.0
1.8280373
0.0
