0.0
0.0
0.0
0.0
0.0
0.0
5.8328047
0.0
1.5297847
4.593729
5.0027184
3.098454
0.0
0.0
0.0
4.021858
6.598642
0.0
7.765005
0.7346866
0.0
6.7879343
0.0
4.8173795
0.0
2.6308017
0.0
0.0
0.0
0.0
0.0
2.3195825
0.0
4.2126837
4.7944155
5.5647383
6.0329037
3.0148702
0.0
0.0
1.9689883
0.0
0.0
4.1553626
0.0
0.0
0.0
0.0
0.0
4.1708875
6.430618
1.4500622
0.0
5.425808
0.0
7.3979545
0.0
5.3826766
0.89582723
0.0
1.6789222
6.710953
0.0
5.5042458
0.0
0.0
0.0
5.451966
5.4693556
0.0
0.0
6.301443
0.0
6.362678
0.0
0.0
3.9522774
0.0
5.610073
0.0
0.0
0.0
0.0
0.0
