0.0
0.0
0.0
0.0
0.0
0.0
2.5869298
0.0
0.0
4.109309
2.0493815
1.5190632
0.0
0.0
0.0
4.339426
0.22257003
0.0
4.4658566
0.0
0.0
2.1939402
0.0
2.0416982
0.0
2.9451666
0.0
0.0
0.0
0.0
0.0
1.9926586
0.0
1.8153327
3.9930484
1.4267836
3.340565
3.8277476
0.0
0.56910205
4.1128993
0.0
0.67361635
3.0807257
0.0
0.0
0.0
0.0
0.0
1.2437057
3.7919223
3.8627343
0.0
1.5444803
0.0
4.081565
0.0
4.1105785
0.77386844
0.0
3.9946501
4.6173115
0.0
2.504755
0.0
0.0
0.37191415
1.7531765
4.11461
0.0
0.0
2.0865364
0.0
2.1169062
0.0
0.0
4.1511655
0.0
3.1583247
0.0
0.0
0.0
0.0
0.0
