1.7738767
3.4442978
0.0
5.1047034
1.7869124
1.522193
0.0
0.37832862
1.55368
0.0
1.9756175
1.6633832
0.0
4.7425714
3.2468119
0.0
2.0974658
2.751465
1.9982224
0.0
4.2337165
1.9642872
1.7653811
0.0
0.24164526
0.0
0.0
0.0
2.1007426
3.4623203
0.43804628
2.9152262
0.050929993
0.0
1.601121
0.0
0.0
0.23703444
0.0
3.2016306
0.0
0.0
0.0
0.0
1.5555732
2.6842933
1.6844103
3.598245
0.0
0.0
2.1457448
0.0
0.13389829
0.0
3.7628949
0.0
0.0
0.0
0.20035031
0.0
0.22365612
0.0
0.0
0.0
0.0
0.0
0.0
1.6578162
2.1009626
4.2511206
2.340134
0.0
3.1770473
2.147387
0.0
2.9443502
0.0
3.2774527
0.0
1.4121573
1.694507
0.6525644
0.5220449
0.07501583
