5.021593
0.0
0.0
2.4330916
0.0
4.1575437
5.7749176
0.0
6.457861
0.0
0.0
4.0528083
0.0
0.0
0.0
0.0
3.595801
0.0
0.65609026
5.710012
0.0
7.1409626
0.0
3.8472672
0.0
0.0
0.0
0.1934119
0.0
0.0
0.0
5.950447
0.0
0.0
6.4625
3.9545217
4.1175017
0.0
0.0
0.0
0.54560184
4.001776
2.0212023
0.0
3.577167
1.4543779
0.0
0.0
0.0
1.7291102
5.9783363
0.0
0.0
7.6286063
0.0
0.0
0.0
2.7499347
0.0
0.0
0.0
3.6562753
0.0
6.5169845
0.867064
3.1120753
0.0
1.7018179
0.0
0.0
0.0
5.3285227
4.177464
7.830624
4.4386415
0.0
0.0
0.0
4.4728503
4.072691
5.024878
2.6327894
0.0
4.966044
