3.8944776
0.0
0.0
1.0739068
0.0
2.242589
2.7604775
0.0
2.7901027
0.0
0.0
3.2608967
0.0
0.0
0.0
0.0
1.5030845
0.0
0.0
3.7846584
0.0
3.1665657
0.0
3.6104226
0.23585555
0.0
0.0
0.0
0.0
0.0
0.0
3.1831243
0.0
0.8473415
1.9809067
2.4782486
1.7293215
0.0
0.0
0.0
0.0
1.9209265
1.5123209
0.0
3.0009942
3.3080797
0.0
0.0
1.3258965
2.0492811
4.2871537
0.0
0.0
4.9131556
0.0
0.0
0.0
2.763901
0.0
0.0
0.0
4.401751
0.0
4.1824546
1.1779847
1.7466679
0.0
1.514117
0.0
0.0
0.0
4.4751315
2.9813764
3.2134585
2.6592348
0.0
0.0
0.0
5.2105813
3.3657198
3.9443016
2.5706577
0.0
2.870112
