0.0
0.0
0.0
0.0
0.1195198
0.0
4.7468553
0.0
0.0
6.7797837
7.5121317
1.5932586
0.0
0.0
0.0
8.901152
5.5613675
0.0
9.428417
0.0
0.0
5.801116
0.0
4.488519
0.0
4.9242063
0.0
0.0
0.0
0.0
0.0
1.7127812
0.0
4.752332
4.9025855
6.975869
8.913895
7.518156
0.0
0.0
4.4681463
0.0
0.0
8.735552
0.0
0.0
0.0
0.0
0.0
3.6685812
6.99859
3.5467026
0.0
4.353293
0.0
11.278833
0.0
6.140547
2.3604572
0.0
6.852273
8.732539
0.0
5.2795677
0.0
0.0
0.0
6.0022945
6.9402504
0.0
0.0
7.150216
0.0
6.4850535
0.0
0.0
5.989339
0.0
5.7134767
0.0
0.0
0.0
0.0
0.0
