0.0
0.2273544
0.0
1.8821847
0.0
0.0
0.002540201
0.0
0.0
1.8428558
4.8525486
2.4183676
0.0
3.8084095
0.0
4.486779
2.375494
0.0
4.2664833
0.0
3.0904434
0.0
2.4750555
0.0
0.0
1.4458781
0.0
0.0
0.0
3.3993607
1.2496319
2.4446023
2.6827362
0.0
2.773961
0.0
2.5771077
4.1197557
0.0
3.6848125
3.7453926
0.0
0.0
3.5322442
0.0
0.0
0.0
0.0
0.0
0.0
3.7983015
4.6021857
1.5239487
0.0
0.0
5.349354
0.0
1.7968554
3.4086409
0.0
3.5559504
4.132619
1.8060577
0.0
0.0
0.0
1.2574857
0.0
4.7441707
1.2864221
0.0
0.0
1.9525231
2.2216241
0.0
2.629831
5.1421337
0.0
0.0
0.0
0.0
1.376037
0.0
0.0
