3.880585
0.0
0.3362915
0.0
4.247955
1.9437087
0.0
0.0
0.0
0.0
0.0
0.0
1.0197111
0.0
0.0
0.0
0.0
2.917498
0.0
0.78374016
0.0
0.0
0.0
0.0
0.42899156
0.0
0.0
0.0
2.7447784
0.22356355
2.5699522
0.9909742
1.3797469
0.0
0.3437412
0.04660576
0.0
1.9913998
0.0
0.0
1.4384984
0.0
0.0
0.0
4.1779895
3.2677994
2.6218646
0.0
4.65003
3.0228972
4.3007035
0.0
0.0
2.2713213
0.0
0.0
1.292356
0.0
0.0
1.6501117
0.0
3.9328938
0.0
2.3964906
3.714001
2.2800195
1.8032937
0.16932118
0.0
0.0
0.7789854
2.7872643
1.6907034
4.679254
0.0
0.0
0.0
0.0
1.1713378
3.2844884
0.0
4.0195117
0.0
3.1502666
