0.0
0.0
1.388793
3.4773417
2.4725356
0.0
0.0
0.0
0.0
0.0
5.30545
0.0
1.5953195
0.0
0.0
3.8853452
3.3626597
2.490722
0.0
0.0
2.8858469
0.0
4.016581
0.0
0.0
0.0
1.7701367
1.8682867
3.1688962
0.0
3.4370215
0.0
0.0
0.0
0.0
1.9236846
4.0752554
4.2775784
0.0
0.5365685
0.0
0.0
0.0
3.8095822
2.0765116
0.0
0.0
2.72322
0.0
0.0
0.0
0.705643
2.7325013
0.0
0.0
4.868124
2.209571
0.0
4.6456633
1.015724
2.6221175
0.8462965
2.7417743
0.0
2.319
0.0
0.0
0.8494471
0.0
2.905582
0.0
0.53414166
0.0
1.9453583
0.0
3.8645585
0.0
2.429928
0.0
0.0
0.0
1.5081604
0.0
0.0
