0.6200853
0.0
0.0
1.7445878
0.0
2.5449278
2.329132
1.9620261
1.628115
3.6225078
0.0
0.0
0.0
1.3096485
0.6493741
1.8553367
0.0
0.0
0.93939644
0.0
1.7757785
2.3033283
3.0401626
0.0
0.0
2.5277138
0.0
2.0275226
0.0
0.0
3.3877518
3.6976213
0.0
0.0
2.6814158
0.0
0.0
2.7186532
2.1360064
0.0
3.505165
2.675274
2.3882768
0.0
0.0
0.0
0.0
2.4909098
0.0
0.0
0.0
0.0
1.6538248
3.0405984
1.2718587
0.0
2.928422
0.0
1.090398
0.0
2.5617762
0.0
0.0
2.437409
0.0
2.6470478
3.2256413
0.0
0.05805257
1.9007636
0.0
0.0
2.5316112
1.6334662
1.2500851
0.0
0.0
1.7340088
0.0
2.8725488
2.8987484
0.0
3.0955453
3.2938375
