0.0
2.805893
0.0
3.1545997
0.9742584
2.4537303
0.0
0.29144284
0.0
0.0
2.0781536
0.0
0.0
2.3920257
2.3672419
0.0
2.7102296
3.41003
0.0
0.0
3.3012865
0.0
1.1914647
0.0
1.6843866
0.52970946
2.731886
0.0
0.0
2.6842008
1.2887158
0.0
2.2211637
0.0
0.0
0.0
0.0
0.0
2.0926907
2.5947611
0.0
0.0
0.0
0.0
0.0
2.9637232
2.5202904
3.2420962
0.0
0.0
0.0
1.5746634
1.634219
0.0
1.5079753
0.0
0.0
0.0
0.2175098
1.7414169
1.4642735
0.0
2.037257
0.0
0.024128042
0.0
0.0
0.0
0.0
2.7578492
0.13344383
0.10361913
2.1996725
0.0
0.0
2.9674196
0.026101172
1.0777305
0.0
0.0
0.0
0.0
2.0062127
1.3764673
