3.8831012
0.0
0.14688933
0.0
2.9633756
3.036085
0.0
0.0
0.0
0.0
0.0
0.0
3.8717973
0.0
0.0
0.0
0.0
2.2779753
0.0
0.0
0.0
0.0
0.040375203
0.0
1.5747896
0.0
0.0
0.104942426
1.9376745
0.0
3.1378772
0.9357028
1.9995371
0.0
0.0
0.0
0.0
1.9983346
0.0
0.0
1.2005718
0.5071447
0.0
0.0
3.1813793
2.128192
1.7550606
0.0
2.5956876
1.1985642
3.017247
0.0
0.35653013
2.9489002
0.0
0.0
2.0465336
0.0
0.0
2.5815625
0.0
2.484467
1.3207408
2.677733
2.4920745
2.58974
2.4474704
0.0
0.0
0.0
0.48609662
1.383807
2.6663435
2.951565
0.0
0.0
0.0
0.0
0.0
2.5408516
0.0
2.8400624
0.0
2.7424164
