7.804693
0.0
0.0
2.8642497
0.0
4.715138
6.236456
0.0
6.901992
0.0
0.0
6.451798
0.0
0.0
0.0
0.0
4.439411
0.0
0.632203
7.829656
0.0
6.6941147
0.0
5.001962
0.0
0.0
0.0
0.0
0.0
0.0
0.0
6.386496
0.0
0.0
5.329508
5.112033
4.6296825
0.0
0.0
0.0
0.0
3.8783333
1.0206318
0.0
6.9905186
3.5046072
0.0
0.0
0.0
3.5666242
7.4879704
0.0
0.0
7.398311
0.0
0.0
0.0
3.9172482
0.0
0.0
0.0
6.0288215
0.0
7.8734465
2.5765147
3.2552183
0.0
1.5065048
0.0
0.0
0.0
6.5661545
5.9614196
8.067721
5.029292
0.0
0.0
0.0
6.9188066
4.2691445
6.6169167
5.135652
0.0
4.1404433
