6.2323422
0.0
0.0
0.0
5.557074
4.379549
0.0
0.0
0.0
0.0
0.0
0.0
3.901413
0.0
0.0
0.0
0.0
2.2157345
0.0
0.71145856
0.0
0.0
0.0
0.0
4.045324
0.0
0.0
0.0
1.186639
0.0
4.183995
0.16272053
5.411017
0.0
0.0
0.17042795
0.0
2.6140206
0.0
0.0
2.3349593
0.82696426
0.0
0.0
6.2937737
4.8450084
3.5427506
0.0
4.7101665
4.643556
5.679226
0.0
0.50506663
5.347636
0.0
0.0
3.0486057
0.0
0.0
4.269059
0.0
6.098453
2.1400807
5.6949406
5.106785
4.6075644
3.4273179
0.0
0.0
0.0
0.38694263
5.119882
3.2090547
5.0928793
0.0
0.0
0.0
0.0
0.4664133
4.7321286
0.0
4.8698335
0.0
6.4050713
