0.0
0.0
0.0
0.0
0.0
0.0
4.5452585
0.0
1.2247853
2.1655502
4.1641345
1.8233196
0.0
0.0
0.0
5.2421002
4.684952
0.0
4.321851
0.0
0.0
4.1616154
0.0
3.6802225
0.0
2.9349842
0.0
0.0
0.0
0.0
0.0
2.0003579
0.0
2.6832843
3.7331965
5.0684657
6.928467
4.0784435
0.0
0.0
1.8157808
0.0
0.0
4.149115
0.0
0.0
0.0
0.0
0.0
2.7516763
5.3635497
2.7463217
0.0
4.115757
0.0
6.7136235
0.0
5.490057
1.607914
0.0
2.7510798
6.285749
0.0
4.6912575
0.5328358
0.0
0.0
4.0322356
2.644093
0.0
0.0
4.7031784
0.0
4.783765
0.24204516
0.0
4.302163
0.0
4.815306
0.0
0.0
0.0
0.0
0.0
