6.2927647
6.7257113
0.0
9.387868
2.4745438
0.0
0.0
0.0
4.2531943
0.0
5.143941
7.1286664
0.0
8.850387
6.313272
0.0
6.992189
3.8529108
6.7384453
0.0
4.772214
3.6560652
0.21270438
0.0
0.0
0.0
0.0
0.0
4.262464
8.846202
0.0
7.4140124
0.26028904
0.0
4.6827717
0.0
0.0
0.0
0.0
7.925303
0.0
0.0
0.0
0.0
4.1685224
6.581135
4.0880265
2.919653
0.0
0.0
7.2662187
0.0
0.0
0.0
6.875787
0.0
0.0
0.0
0.0
0.0
0.0
0.0
0.0
0.0
0.0
0.0
0.0
4.428539
5.677983
6.6930103
5.6115746
0.0
9.7772455
5.8386765
0.0
7.046831
0.0
3.2030163
0.0
3.0460694
2.2761946
5.026054
0.0
0.0
