0.0
6.874619
0.0
8.0157385
0.0
4.854677
0.0
3.0172837
0.0
0.0
5.4017115
0.0
0.0
6.668892
5.541912
0.0
5.6263022
5.472007
0.0
0.0
9.274011
0.0
5.321833
0.0
2.6007137
0.29307908
5.640197
0.0
0.0
5.25722
4.277942
0.0
3.322733
0.0
0.0
0.0
0.0
0.0
4.727586
4.2694693
0.0
0.0
0.0
0.0
0.0
5.090448
2.134286
7.329464
0.0
0.0
0.0
3.5855517
3.1492233
0.0
4.623563
0.050718814
0.0
0.0
3.6310794
2.4404542
3.6966228
0.0
5.1944485
0.0
0.0
0.0
0.0
0.0
0.0
8.2094555
0.0
0.0
4.651553
0.0
0.0
5.9414477
0.73431206
4.1037636
0.0
0.0
0.0
0.0
5.563944
1.8304627
