0.0
3.8402915
0.0
4.0954976
0.1023851
3.9209735
0.0
2.2231474
0.0
0.0
4.9139028
0.0
0.0
1.5894144
4.3637924
0.0
5.1608415
4.97613
0.0
0.0
4.929651
0.0
4.2687325
0.0
3.925644
0.0
5.9015665
0.0
0.0
2.457397
2.3114195
0.0
4.2588253
0.0
0.0
0.0
0.0
0.0
3.1089602
3.9694378
0.0
0.0
0.0
0.0
0.0
3.3142688
2.8947563
6.024413
0.0
0.0
0.0
2.3250768
2.5038567
0.0
2.5391455
0.0
0.0
0.0
2.0685835
4.4671474
3.490207
0.0
4.7465243
0.0
0.0
0.0
0.0
0.0
0.0
6.145374
0.0
0.15222497
2.5721302
0.0
0.0
4.891501
1.2638154
3.079187
0.0
0.0
0.0
0.0
4.4708548
1.9715832
