2.9593728
0.0
0.0
1.1418263
0.0
3.1880987
3.6959267
0.0
4.182634
0.0
0.0
3.855197
0.0
0.0
0.0
0.0
2.5923123
0.0
0.0
5.6640086
0.0
5.8812304
0.0
5.48995
0.0
1.398783
0.0
1.7034489
0.0
0.0
0.0
3.460734
0.0
2.5053413
3.0800698
5.170777
2.5286376
0.0
0.44653866
0.0
0.0
1.7709962
2.943689
0.0
2.9502525
1.1742105
0.0
0.0
1.0589103
2.3463364
2.807511
0.0
0.0
6.369114
0.0
0.0
0.0
1.964333
0.0
0.0
0.0
4.303245
0.0
5.383095
2.4244664
2.1961122
0.0
0.93056506
0.0
0.0
0.0
5.551507
2.2062497
3.6706002
3.6978028
0.0
0.0
0.0
5.8599834
2.6169684
4.9332256
1.4446357
0.0
3.5479102
