3.60677
3.9419785
0.0
5.953086
1.7255569
1.3697752
0.0
0.0
2.9804173
0.0
2.2078793
3.3762486
0.0
3.2563453
4.0165377
0.0
4.2347155
2.286686
2.209499
0.0
2.172592
2.3595052
0.0
0.0
0.0
0.0
0.0
0.0
2.111496
3.6623373
0.0
3.2327576
0.0
0.0
2.506955
0.0
0.0
0.0
0.0
3.7968755
0.0
0.0
0.0
0.0
2.5828776
3.806991
2.5875328
1.6396866
0.0
0.0
2.9918752
0.0
0.0
0.0
4.3947005
0.0
0.0
0.099634245
0.0
0.0
0.0
0.0
0.0
0.0
0.0
0.0
0.0
2.4729776
1.9672574
3.3786812
2.5529313
0.0
5.659312
2.688729
0.0
3.9033504
0.0
2.7174532
0.0
1.846583
2.4756246
2.0496
0.0
0.27256367
