0.0
2.383628
0.54612654
1.7670072
1.6198261
3.2723167
0.0
0.0
0.0
0.0
1.8778442
0.0
0.0
1.0321862
0.9438946
0.0
1.8517516
4.9249845
0.0
0.0
3.6431754
0.0
1.834188
0.0
2.0896714
1.9607034
4.8596554
0.0
0.0
2.0629716
2.0038252
0.0
1.8715189
0.0
0.0
0.46158752
0.0
0.104074314
2.674887
1.9423711
0.21892214
0.0
0.0
0.8658168
0.0
2.6202397
2.8626802
4.2542386
0.13876277
0.97808504
0.0
3.5645325
2.7876675
0.0
0.2636583
0.0
0.0
0.0
0.28681016
2.9779036
3.0415897
0.692328
1.9650931
0.0
0.5119751
0.0
0.0
0.0
0.0
2.0035102
0.0
1.721095
0.16280937
0.0
0.0
2.0363653
0.0
0.8487223
0.0
0.0
0.0
0.0
2.827308
2.8417902
