0.0
0.0
0.98252326
2.976705
3.919261
0.0
0.0
0.0
0.0
0.0
4.8630857
0.0
1.9074922
0.0
0.0
3.2891731
2.440201
2.666965
0.30187044
0.0
1.4340298
0.4386407
2.897071
0.0
0.0
0.0
1.9489256
2.6906374
3.0656018
0.0
0.0
0.0
0.0
0.0
0.0
4.2946267
3.954879
1.9404889
0.0
0.0
0.0
0.0
0.0
4.0613647
1.797394
0.0
0.0
1.0571023
0.0
0.10104756
0.309147
0.529785
2.124614
0.0
0.0
4.6303444
1.8877921
0.10449026
2.253613
1.2556138
2.1548257
1.2216746
1.2679348
0.0
2.7398612
0.0
0.0
2.2479258
0.024858266
1.3872404
0.0
2.463904
0.0
2.7395568
0.0
2.761847
0.0
1.5541707
0.0
0.0
0.0
0.8310832
0.0
0.0
