0.0
0.0
0.0
0.0
0.0
0.0
4.5046334
0.0
0.0
3.946789
3.462719
1.1353164
0.0
0.0
0.0
4.4328704
3.3261852
0.0
5.98324
0.0
0.0
4.0541453
0.0
3.2367933
0.0
3.4766765
0.0
0.0
0.0
0.0
0.0
1.8887118
0.0
3.369199
4.4206276
3.2901375
5.100516
3.8849742
0.0
0.2722342
2.7017748
0.0
0.0
3.6216822
0.0
0.0
0.0
0.0
0.0
2.424628
5.0255556
2.6773825
0.0
3.5603127
0.0
4.7087135
0.0
5.2582746
0.23522204
0.0
3.5405483
5.165668
0.0
3.8627658
0.0
0.0
0.0
3.8970504
4.345537
0.0
0.0
4.0454893
0.0
3.7377932
0.0
0.0
5.5365057
0.0
4.3609138
0.0
0.0
0.0
0.0
0.0
