0.0
0.0
0.0
0.0
1.2271851
0.0
3.608892
0.0
0.0
4.93233
3.7124808
0.7397746
0.0
0.0
0.0
4.1830463
4.393767
0.0
5.3776064
0.0
0.0
4.6043086
0.0
2.5251687
0.0
2.0708938
0.0
0.0
0.0
0.0
0.0
0.15277101
0.0
3.3093193
2.7656443
4.2353163
4.3449354
2.9799123
0.0
0.0
2.0836132
0.0
0.0
4.3321934
0.0
0.0
0.0
0.0
0.0
2.922564
4.2738733
1.9188694
0.0
3.3173752
0.0
5.9244995
0.0
3.8011916
0.81520814
0.24640876
2.3704693
4.395935
0.0
3.1405172
0.0
0.0
0.0
2.89526
3.9859478
0.0
0.17912763
4.68794
0.0
3.57812
0.0
0.0
2.9934194
0.0
3.450429
0.0
0.0
0.0
0.0
0.0
