0.0
4.4312396
0.0
4.6896114
0.0
2.7434244
0.0
5.4588833
0.0
0.0
3.5258446
0.0
0.0
3.3952181
6.23631
0.0
3.2341511
3.1782012
0.0
0.0
3.3024719
0.0
3.1578984
0.0
4.3042336
0.91961896
3.868778
0.0
0.0
3.435539
2.415161
0.0
4.4188066
0.0
0.0
0.0
0.0
0.0
4.7632146
5.3213315
0.0
0.0
0.0
0.0329587
0.0
3.2879207
2.0334923
6.1135316
0.0
0.0
0.0
1.9352564
2.1202734
0.0
5.253966
0.0
0.19159311
0.0
1.6403673
2.3956819
3.3933716
0.0
3.160649
0.0
0.0
0.0
0.0
0.0
0.0
7.004397
0.0
0.0
4.190567
0.0
0.63314694
4.2702727
1.8357505
4.1644945
0.0
0.0
0.0
0.0
4.0488124
2.7192106
