0.0
2.7972813
0.0
3.8008194
0.0
1.0980042
0.0
2.2381792
0.0
0.0
2.9100618
0.0
0.0
3.975088
3.445372
0.0
2.9605331
1.9026363
0.0
0.0
3.6847973
0.0
2.058593
0.0
2.343932
0.28866988
2.6110961
0.0
0.0
4.4290614
2.9788258
0.0
3.2617342
0.0
0.0
0.0
0.0
0.0
2.5980418
4.664841
0.0
0.0
0.0
0.85905343
0.0
2.9120421
2.2043784
2.949534
0.0
0.0
0.0
3.130516
1.7990763
0.0
2.4077854
0.0
0.0
0.0
1.8749685
0.6407803
1.7485516
0.0
2.7384112
0.0
0.0
0.0
0.0
0.0
0.034021616
4.437527
0.22931498
0.0
3.8356004
0.0
0.0
4.071053
1.0423853
1.8114752
0.0
0.0
0.0
0.0
1.1349654
1.7307239
