0.6383979
0.0
0.0
1.1183285
1.8205862
0.0
0.0
0.0
0.0
0.0
2.7049534
0.0
1.5309068
1.2549043
0.0
2.301817
0.0
0.7109923
0.7622666
0.0
2.602402
0.0
2.5646906
0.0
0.0
0.0
0.0
0.0
2.1507258
2.9088562
3.1539783
1.2060232
1.457737
0.0
1.0019468
0.0
0.3913455
3.7405581
0.0
0.9578239
0.66074383
0.0
0.0
1.0693827
2.1417654
0.0
0.48192525
0.0
0.7164913
0.0
2.3366678
0.7253852
1.404653
0.0
0.0
3.1502862
0.49304804
0.0
1.951155
0.14254104
0.38689017
2.4293466
1.7160801
0.0
1.5824416
0.0
2.0775816
0.0
1.8112705
1.0892054
1.0392352
0.0
1.4841607
3.0904284
0.0
2.2428222
1.4920541
0.0
0.0
0.11947547
0.0
3.9782853
0.0
0.0
