4.6236153
0.0
0.0
0.48894805
0.33440536
2.1208844
3.695406
0.0
4.3371387
0.0
0.0
4.2967577
0.0
0.0
0.0
0.0
3.090898
0.0
0.0
5.7382894
0.0
6.015357
0.0
5.259381
0.0
0.0
0.0
0.0
0.0
0.0
0.0
3.6710658
0.0
1.9468527
2.7563467
5.724618
3.30574
0.0
0.0
0.0
0.0
2.1238787
0.27377564
0.0
5.565091
3.1192698
0.0
0.0
1.3604369
3.1917782
5.7021027
0.0
0.0
6.5517826
0.0
0.0
0.0
4.4077587
0.0
0.0
0.0
6.019448
0.0
5.464458
2.9069974
1.286272
0.0
3.317048
0.0
0.0
0.2668134
6.8859563
2.3791351
6.152407
3.5510275
0.0
0.0
0.0
7.6603823
3.9710224
4.532705
3.523965
0.0
1.8298914
