0.0
0.0
5.5607553
0.0
1.7419342
3.2336063
0.0
0.0
0.0
1.8762723
0.0
0.0
0.082961366
0.0
0.0
1.0682209
0.0
4.872143
0.0
3.3521705
1.4054729
3.2809029
0.03915961
4.2452106
0.0
2.940198
5.410241
5.311226
0.0
0.0
0.0
0.0
0.0
4.4736137
0.0
5.346011
0.0
0.0
3.8451562
0.0
1.8437777
0.0
2.5513773
2.4496067
0.5532593
0.20986667
2.7647386
5.6215
2.3332548
4.1458535
0.0
5.270731
4.0436587
4.1074266
0.0
0.2620108
0.0
0.0
0.0
5.474262
4.618137
1.5907227
0.0
1.644716
3.7540007
1.6275005
0.0
0.0
0.0
0.0
0.0
3.3560045
0.0
0.0
0.0
0.0
0.0
0.0
2.727441
2.2568944
4.8329415
0.0
4.9157696
3.0364046
