0.0
0.42216837
4.049966
0.0
3.0696838
4.0704107
0.0
0.0
0.0
2.009037
0.0
0.0
2.1149645
0.0
0.0
1.1413088
0.0
6.8268905
0.0
2.5907638
0.0
1.0311755
0.0
3.1552496
0.7393157
3.5435166
5.795494
4.6022735
0.0
0.0
0.98292726
0.0
0.0
5.7079983
0.0
4.1422896
0.0
0.0
3.452185
0.0
3.126914
0.0
2.3674796
2.6847982
0.6552067
0.7904624
4.792232
5.4137025
5.6755548
5.2945423
0.0
5.115358
3.9519913
4.913836
0.0
0.0
0.33832282
0.0
0.0
7.092243
4.637937
1.8166591
0.0
2.836907
4.10464
2.5020936
0.0
0.0
0.0
0.0
0.0
4.4762063
0.0
0.0
0.0
0.0
0.0
0.0
3.2400193
2.1502962
2.304256
0.0
4.8207674
3.61972
