0.0
0.0
2.0400593
0.9091533
1.4545871
0.0
0.0
0.0
0.0
1.3632966
1.9293393
0.0
1.4650172
0.0
0.0
4.6294174
0.28847632
1.6416892
0.7253683
0.0
1.0164564
0.17856294
2.0090697
0.0
0.0
0.0
1.7217141
2.705978
0.6025058
0.0
0.9713227
0.0
0.0
0.0
0.0
2.5031059
2.3607128
2.584502
0.0
0.0
0.33811623
0.0
0.0
3.9541001
0.7054388
0.0
0.0
3.1805058
0.0
0.0
0.0
1.2007688
2.9233391
0.9105652
0.0
3.6735718
2.12339
0.35172915
2.568311
1.6081101
3.8405905
0.5460113
1.1803869
0.0
2.0924304
0.0
0.0
0.8979598
0.0
1.3704294
0.0
0.4982919
0.0
1.0467378
0.0
0.49640784
0.52472186
1.8477217
0.0
0.0
0.0
0.0
1.2152195
0.0
