0.0
0.0
0.0
0.0
0.0
0.0
6.164214
0.0
0.0
9.039931
5.2286143
0.0
0.0
0.0
0.0
8.073285
2.7432392
0.0
8.785151
0.0
0.0
3.290393
0.0
4.1647367
0.0
4.56699
0.0
0.0
0.0
0.0
0.0
0.8163426
0.0
6.8358316
4.8148727
3.7571115
6.9069805
8.41426
0.0
0.9287859
5.8910036
0.0
0.0
7.5465083
0.0
0.0
0.0
0.0
0.0
2.7444644
6.594918
4.862672
0.0
4.8085694
0.0
6.7494187
0.0
7.590266
2.4997373
0.0
7.339088
8.604582
0.0
5.652877
0.0
0.0
0.0
4.739687
6.252865
0.0
1.0579351
4.593794
0.0
3.645315
0.0
0.0
8.406655
0.0
6.6351967
0.0
0.0
0.0
0.0
0.0
