0.0
0.0
2.7011914
0.0
0.0
0.0
1.3825911
1.4485558
0.0
0.5336164
0.0
2.7654808
3.4932277
0.0
2.1049752
1.8296487
0.0
0.8930907
2.7209003
0.0
0.0
0.0
0.0
1.7131277
0.0
0.0
0.0
2.338966
0.0
0.0
0.0
0.0
0.17039537
3.0479984
0.13118123
0.41163814
0.0
0.0
0.0
3.3887188
0.0
1.7915065
0.0
1.8609765
3.1798284
0.0
2.7826993
1.2994195
0.0
0.0
0.0
0.33524305
2.1718373
0.6291534
0.0
0.0
2.1202867
2.9891875
2.593887
1.7641151
1.4430754
0.16452745
0.8599044
0.0
0.0
0.0
0.36641848
2.3258927
0.0
2.0532112
2.9511187
0.0
0.42103547
0.0
2.306392
0.0
3.8690407
1.4908636
1.6428657
2.4287713
0.7951645
0.0
2.020096
0.0
