0.0
0.0
3.9464111
4.986779
4.265142
0.36920983
0.0
0.0
0.0
0.0
3.62598
0.0
2.7269502
0.0
0.0
3.525647
2.0578213
1.944078
0.0
0.0
2.2626696
0.0
5.213368
0.0
0.0
0.0
2.2605412
4.1128526
4.2730927
0.0
2.1419117
0.0
0.0
0.0
0.0
4.2163773
3.9784596
2.9123201
0.0
0.0
0.0
0.0
0.0
4.0332904
4.4549646
0.0
0.0
0.82795787
0.0
0.0
0.3324744
0.0
3.5753658
0.0
0.0
4.9445715
2.7392933
0.0
5.078185
2.5367177
2.2590992
1.220384
3.063914
0.0
4.140092
0.0
0.0
1.9376364
0.0
1.9055879
0.0
1.9969476
0.0
3.5224533
0.0
3.8657918
0.0
2.9553695
0.0
0.0
0.0
3.6587043
0.0
0.0
