5.6205783
0.0
0.0
3.2591672
1.8005922
2.0308218
2.7460852
0.0
6.6710606
0.0
0.0
5.032506
0.0
0.0
0.0
0.0
4.1104884
0.0
0.23077136
6.545679
0.0
7.4606447
0.0
4.5239697
0.0
0.0
0.0
0.0
0.8202869
0.0
0.0
4.746942
0.0
0.20985009
4.18273
6.9670568
3.435235
0.0
0.0
0.0
0.0
0.649789
1.0720798
0.0
5.809408
4.144818
0.0
0.0
0.48602515
3.1017334
5.9274397
0.0
0.0
5.266584
0.0
0.0
0.0
2.9644914
0.0
0.0
0.0
4.651545
0.0
4.395732
3.5367913
0.81708854
0.0
4.1649933
0.0
0.0
0.0
6.324073
3.926752
6.9538445
2.9669774
0.0
0.0
0.0
6.6208363
3.556229
7.3074226
4.5193105
0.0
2.7563405
