0.0
0.0
2.3182058
1.59468
1.6767044
0.0
0.0
0.0
0.0
0.0
1.9401037
0.55300057
1.998788
0.0
0.0
3.7567995
0.0
1.7198447
1.1450942
0.0
1.455496
0.0
1.9479868
0.0
0.0
0.0
0.29444048
1.5557802
1.106354
0.0
1.9838014
0.0
0.0
0.0
0.0
1.8435701
1.5938202
2.3265064
0.0
1.6960486
0.0
0.0
0.0
3.0740776
2.6603012
0.0
0.0
1.6497415
0.0
0.0
0.0
0.94733244
3.2289155
0.0
0.0
2.6941977
1.3285136
1.1522803
3.6522403
1.357953
1.6511451
1.3774261
2.7448776
0.0
2.013916
0.0
0.0
0.5426952
0.0
2.2535179
1.4467858
0.0
0.0
1.4272628
0.0
1.9322923
1.511532
1.7481906
0.0
0.0
0.0
2.0397859
0.093389675
0.0
