0.08873848
3.822424
0.0
5.3968425
0.36861986
1.6182866
0.0
3.607733
0.0
0.0
3.0656512
0.0
0.0
5.126343
4.799647
0.046917632
3.001062
3.2641108
0.0
0.0
5.0300245
0.0
3.6760006
0.0
1.9810936
0.36239958
2.7446914
0.0
0.0
3.1811714
2.04646
0.33944532
2.3610456
0.0
0.0
0.0
0.0
0.0
2.9062624
3.695763
0.0
0.0
0.0
0.0
0.0
2.0128446
1.5263132
5.094573
0.0
0.0
0.0
1.4411225
1.1382296
0.0
4.445219
0.0
0.0
0.0
2.0241997
0.7955526
2.0368018
0.0
2.2779768
0.0
0.0
0.0
0.0
0.0
0.0
6.719125
1.3695801
0.0
3.8120334
0.0
0.0
4.465917
1.0056494
3.5721297
0.0
0.0
0.041114867
0.0
2.555437
1.1180708
