0.0 0.0 0.0 0.0 0.0 0.07698792 
0.0 0.0 0.0 0.0 0.0 0.07698792 
0.0 0.0 0.0 0.0 0.0 0.07698792 
0.0 0.0 0.0 0.0 0.0 0.07698792 
0.0 0.0 0.0 0.0 0.0 0.07698792 
0.0 0.0 0.0 0.0 0.0 0.07698792 
0.0 0.0 0.0 0.0 0.0 0.07698792 
0.0 0.0 0.0 0.0 0.0 0.07698792 
0.0 0.0 0.0 0.0 0.0 0.07698792 
0.0 0.0 0.0 0.0 0.0 0.07698792 
0.0 0.0 0.0 0.0 0.0 0.07698792 
0.0 0.0 0.0 0.0 0.0 0.07698792 
0.0 0.0 0.0 0.0 0.0 0.07698792 
0.0 0.0 0.0 0.0 0.0 0.07698792 
0.0 0.0 0.0 0.0 0.0 0.07698792 
0.0 0.0 0.0 0.0 0.0 0.07698792 
0.0 0.0 0.0 0.0 0.0 0.07698792 
0.0 0.0 0.0 0.0 0.0 0.07698792 
0.0 0.0 0.0 0.0 0.0 0.07698792 
0.0 0.0 0.0 0.0 0.0 0.07698792 
0.0 0.0 0.0 0.0 0.0 0.07698792 
0.0 0.0 0.0 0.0 0.0 0.07698792 
0.0 0.0 0.0 0.0 0.0 0.07698792 
0.0 0.0 0.0 0.0 0.0 0.07698792 
0.0 0.0 0.0 0.0 0.0 0.07698792 
0.0 0.0 0.0 0.0 0.0 0.07698792 
0.0 0.0 0.0 0.0 0.0 0.07698792 
0.0 0.0 0.0 0.0 0.0 0.07698792 
0.0 0.0 0.0 0.0 0.0 0.07698792 
0.0 0.0 0.0 0.0 0.0 0.07698792 
0.0 0.0 0.0 0.0 0.0 0.07698792 
0.0 0.0 0.0 0.0 0.0 0.07698792 
0.0 0.0 0.0 0.0 0.0 0.07698792 
0.0 0.0 0.0 0.0 0.0 0.07698792 
0.0 0.0 0.0 0.0 0.0 0.07698792 
0.0 0.0 0.0 0.0 0.0 0.07698792 
0.0 0.0 0.0 0.0 0.0 0.07698792 
0.0 0.0 0.0 0.0 0.0 0.07698792 
0.0 0.0 0.0 0.0 0.0 0.07698792 
0.0 0.0 0.0 0.0 0.0 0.07698792 
0.0 0.0 0.0 0.0 0.0 0.07698792 
0.0 0.0 0.0 0.0 0.0 0.07698792 
0.0 0.0 0.0 0.0 0.0 0.07698792 
0.0 0.0 0.0 0.0 0.0 0.07698792 
0.0 0.0 0.0 0.0 0.0 0.07698792 
0.0 0.0 0.0 0.0 0.0 0.07698792 
0.0 0.0 0.0 0.0 0.0 0.07698792 
0.0 0.0 0.0 0.0 0.0 0.07698792 
0.0 0.0 0.0 0.0 0.0 0.07698792 
0.0 0.0 0.0 0.0 0.0 0.07698792 
0.0 0.0 0.0 0.0 0.0 0.07698792 
0.0 0.0 0.0 0.0 0.0 0.07698792 
0.0 0.0 0.0 0.0 0.0 0.07698792 
0.0 0.0 0.0 0.0 0.0 0.07698792 
0.0 0.0 0.0 0.0 0.0 0.07698792 
0.0 0.0 0.0 0.0 0.0 0.07698792 
0.0 0.0 0.0 0.0 0.0 0.07698792 
0.0 0.0 0.0 0.0 0.0 0.07698792 
0.0 0.0 0.0 0.0 0.0 0.07698792 
0.0 0.0 0.0 0.0 0.0 0.07698792 
0.0 0.0 0.0 0.0 0.0 0.07698792 
0.0 0.0 0.0 0.0 0.0 0.07698792 
0.0 0.0 0.0 0.0 0.0 0.07698792 
0.0 0.0 0.0 0.0 0.0 0.07698792 
0.0 0.0 0.0 0.0 0.0 0.07698792 
0.0 0.0 0.0 0.0 0.0 0.07698792 
0.0 0.0 0.0 0.0 0.0 0.07698792 
0.0 0.0 0.0 0.0 0.0 0.07698792 
0.0 0.0 0.0 0.0 0.0 0.07698792 
0.0 0.0 0.0 0.0 0.0 0.07698792 
0.0 0.0 0.0 0.0 0.0 0.07698792 
0.0 0.0 0.0 0.0 0.0 0.07698792 
0.0 0.0 0.0 0.0 0.0 0.07698792 
0.0 0.0 0.0 0.0 0.0 0.07698792 
0.0 0.0 0.0 0.0 0.0 0.07698792 
0.0 0.0 0.0 0.0 0.0 0.07698792 
0.0 0.0 0.0 0.0 0.0 0.07698792 
0.0 0.0 0.0 0.0 0.0 0.07698792 
0.0 0.0 0.0 0.0 0.0 0.07698792 
0.0 0.0 0.0 0.0 0.0 0.07698792 
0.0 0.0 0.0 0.0 0.0 0.07698792 
0.0 0.0 0.0 0.0 0.0 0.07698792 
0.0 0.0 0.0 0.0 0.0 0.07698792 
0.0 0.0 0.0 0.0 0.0 0.07698792 
0.0 0.0 0.0 0.0 0.0 0.07698792 
0.0 0.0 0.0 0.0 0.0 0.07698792 
0.0 0.0 0.0 0.0 0.0 0.07698792 
0.0 0.0 0.0 0.0 0.0 0.07698792 
0.0 0.0 0.0 0.0 0.0 0.07698792 
0.0 0.0 0.0 0.0 0.0 0.07698792 
0.0 0.0 0.0 0.0 0.0 0.07698792 
0.0 0.0 0.0 0.0 0.0 0.07698792 
0.0 0.0 0.0 0.0 0.0 0.07698792 
0.0 0.0 0.0 0.0 0.0 0.07698792 
0.0 0.0 0.0 0.0 0.0 0.07698792 
0.0 0.0 0.0 0.0 0.0 0.07698792 
0.0 0.0 0.0 0.0 0.0 0.07698792 
0.0 0.0 0.0 0.0 0.0 0.07698792 
0.0 0.0 0.0 0.0 0.0 0.07698792 
0.0 0.0 0.0 0.0 0.0 0.07698792 
0.0 0.0 0.0 0.0 0.0 0.07698792 
0.0 0.0 0.0 0.0 0.0 0.07698792 
0.0 0.0 0.0 0.0 0.0 0.07698792 
0.0 0.0 0.0 0.0 0.0 0.07698792 
0.0 0.0 0.0 0.0 0.0 0.07698792 
0.0 0.0 0.0 0.0 0.0 0.07698792 
0.0 0.0 0.0 0.0 0.0 0.07698792 
0.0 0.0 0.0 0.0 0.0 0.07698792 
0.0 0.0 0.0 0.0 0.0 0.07698792 
0.0 0.0 0.0 0.0 0.0 0.07698792 
0.0 0.0 0.0 0.0 0.0 0.07698792 
0.0 0.0 0.0 0.0 0.0 0.07698792 
0.0 0.0 0.0 0.0 0.0 0.07698792 
0.0 0.0 0.0 0.0 0.0 0.07698792 
0.0 0.0 0.0 0.0 0.0 0.07698792 
0.0 0.0 0.0 0.0 0.0 0.07698792 
0.0 0.0 0.0 0.0 0.0 0.07698792 
0.0 0.0 0.0 0.0 0.0 0.07661082 
0.0 0.0 0.0 0.0 0.0 0.06868674 
0.031471044 0.0 0.054757 0.0 0.0 0.0050293803 
0.13587376 0.06355535 0.092877574 0.0 0.0 0.0 
0.10043082 0.14381589 0.12750924 0.0 0.0 0.0 
0.113461405 0.21128963 0.2130096 0.0 0.0 0.0 
0.19427204 0.24548402 0.30008918 0.0 0.0 0.0 
0.30795458 0.29392383 0.36364967 0.0 0.0 0.0 
0.35013098 0.39732507 0.4370179 0.0 0.0 0.0 
0.35324964 0.520818 0.5132934 0.0 0.0 0.0 
0.21096182 0.66657335 0.38599136 0.0 0.0 0.0 
0.0 0.5520287 0.27345353 0.0 0.038654167 0.0 
0.0 0.38960636 0.16281539 0.0 0.08324605 0.0 
0.0 0.17768052 0.018720418 0.0 0.08128621 0.0 
0.0 0.019231435 0.0 0.0 0.0 0.0514545 
0.0 0.0 0.0 0.0 0.0 0.07698792 
0.0 0.0 0.0 0.0 0.0 0.07698792 
0.0 0.0 0.0 0.0 0.0 0.07698792 
0.0 0.0 0.0 0.0 0.0 0.07698792 
0.0 0.0 0.0 0.0 0.0 0.07698792 
0.0 0.0 0.0 0.0 0.0 0.07698792 
0.0 0.0 0.0 0.0 0.0 0.07698792 
0.0 0.0 0.0 0.0 0.0 0.07698792 
0.0 0.0 0.0 0.0 0.0 0.07698792 
0.0 0.0 0.0 0.0 0.0 0.07698792 
0.0 0.0 0.0 0.0 0.0 0.07698792 
0.0 0.0 0.0 0.0 0.0 0.07698792 
0.0 0.0 0.0 0.0 0.0 0.07698792 
0.0 0.0 0.0063313916 0.0 0.0 0.04707046 
0.18759543 0.0 0.16884148 0.0 0.0 0.0 
0.45710915 0.047753535 0.23102844 0.0 0.0 0.0 
0.59608483 0.23015115 0.41780365 0.0 0.0 0.0 
0.634402 0.5936857 0.57962173 0.0 0.0 0.0 
0.46889222 0.8347115 0.7482258 0.0 0.0 0.0 
0.41970986 0.702856 0.76217365 0.0 0.0 0.0 
0.62341166 0.6575336 0.74898154 0.0 0.0 0.0 
0.72852856 0.80929106 0.8216754 0.0 0.0 0.0 
0.6209434 0.99258 0.9758507 0.0 0.0 0.0 
0.20922914 1.2613561 1.0022435 0.0 0.44515052 0.0 
0.0 1.2135994 0.8317129 0.0 0.7069044 0.0 
0.0 0.85431993 0.6718363 0.0 0.6546918 0.0 
0.0 0.25009307 0.23025244 0.0 0.48552677 0.0 
0.0 0.017490566 0.0 0.0 0.039746452 0.03382629 
0.0 0.0 0.0 0.0 0.0 0.07698792 
0.0 0.0 0.0 0.0 0.0 0.07698792 
0.0 0.0 0.0 0.0 0.0 0.07698792 
0.0 0.0 0.0 0.0 0.0 0.07698792 
0.0 0.0 0.0 0.0 0.0 0.07698792 
0.0 0.0 0.0 0.0 0.0 0.07698792 
0.0 0.0 0.0 0.0 0.0 0.07698792 
0.0 0.0 0.0 0.0 0.0 0.07698792 
0.0 0.0 0.0 0.0 0.0 0.07698792 
0.0 0.0 0.0 0.0 0.0 0.07698792 
0.0 0.0 0.0 0.0 0.0 0.07698792 
0.0 0.0 0.0 0.0 0.0 0.07698792 
0.0 0.0 0.0 0.0 0.0 0.07698792 
0.0 0.0 0.0 0.0 0.0 0.09472257 
0.33175266 0.0 0.0034883916 0.0 0.0 0.091310516 
0.956366 0.0 0.130205 0.0 0.0 0.0 
1.1296451 0.18701378 0.3625452 0.0 0.0 0.0 
0.7912517 0.77287996 0.8378809 0.0 0.097019255 0.0 
0.47233278 0.9730134 1.175809 0.0 0.56580204 0.0 
0.5460892 0.96668315 1.2354732 0.0 0.6800534 0.0 
0.6219177 0.84668875 1.1042624 0.0 0.77325594 0.0 
0.6297154 0.84387314 1.1490341 0.0 0.9031638 0.0 
0.5871042 0.9874863 1.3563769 0.20927075 1.0427344 0.0 
0.044308655 1.6175116 1.642515 0.2872531 1.3453819 0.0 
0.0 1.7494 1.6307281 0.15671676 1.4456309 0.0 
0.0 1.3547503 1.4741476 0.0 1.1374503 0.0 
0.0 0.54605865 0.71408343 0.0 0.679099 0.0 
0.0 0.06585805 0.057901725 0.0 0.06680724 0.031371776 
0.0 0.0 0.0 0.0 0.0 0.07698792 
0.0 0.0 0.0 0.0 0.0 0.07698792 
0.0 0.0 0.0 0.0 0.0 0.07698792 
0.0 0.0 0.0 0.0 0.0 0.07698792 
0.0 0.0 0.0 0.0 0.0 0.07698792 
0.0 0.0 0.0 0.0 0.0 0.07698792 
0.0 0.0 0.0 0.0 0.0 0.07698792 
0.0 0.0 0.0 0.0 0.0 0.07698792 
0.0 0.0 0.0 0.0 0.0 0.07698792 
0.0 0.0 0.0 0.0 0.0 0.07698792 
0.0 0.0 0.0 0.0 0.0 0.07698792 
0.0 0.0 0.0 0.0 0.0 0.07698792 
0.0 0.0 0.0 0.0 0.0 0.07698792 
0.02283892 0.0 0.0 0.034022816 0.0 0.16433984 
0.4079121 0.0 0.0 0.21592414 0.0 0.44026542 
0.91880774 0.0 0.0 0.63497066 0.048125226 0.63341445 
1.1445522 0.0 0.0 1.0139176 0.5039714 0.614408 
0.75751686 0.6416022 0.26184523 1.3477162 0.9802459 0.55231583 
0.3103334 0.95816386 0.8639894 1.4641919 1.4303496 0.51777625 
0.22712645 1.0473982 0.981292 1.594385 1.663547 0.7076232 
0.31986097 1.0149691 0.7034153 1.6604416 1.7554729 0.9871256 
0.55929875 1.0027794 0.6807063 1.6597393 1.5645448 1.0620978 
0.7909615 1.2266282 0.862853 1.5067612 1.4691631 0.8848116 
0.11128169 2.018683 1.3665993 1.1173272 1.6262499 0.14892972 
0.0 2.2654676 1.8837914 0.70881855 1.5511578 0.0 
0.0 1.7031243 2.0373266 0.30603215 1.2481046 0.0 
0.0 0.7559108 1.1891773 0.061822746 0.73124075 0.0 
0.0 0.10251318 0.14375842 0.0 0.07522164 0.043910705 
0.0 0.0 0.0 0.0 0.0 0.07698792 
0.0 0.0 0.0 0.0 0.0 0.07698792 
0.0 0.0 0.0 0.0 0.0 0.07698792 
0.0 0.0 0.0 0.0 0.0 0.07698792 
0.0 0.0 0.0 0.0 0.0 0.07698792 
0.0 0.0 0.0 0.0 0.0 0.07698792 
0.0 0.0 0.0 0.0 0.0 0.07698792 
0.0 0.0 0.0 0.0 0.0 0.07698792 
0.0 0.0 0.0 0.0 0.0 0.07698792 
0.0 0.0 0.0 0.0 0.0 0.07698792 
0.0 0.0 0.0 0.0 0.0 0.07698792 
0.0 0.0 0.0 0.0 0.0 0.07698792 
0.0 0.0 0.0 0.0 0.0 0.07698792 
0.017150573 0.0 0.0 0.06200399 0.0 0.17985275 
0.46158236 0.0 0.0 0.280581 0.19540136 0.70033336 
0.8983557 0.0 0.0 0.45266584 0.6625937 1.2369094 
0.9610788 0.0 0.0 0.8490783 1.0830863 1.4527888 
0.71906126 0.33059725 0.0 1.2391059 1.5305154 1.6116827 
0.3110428 0.7849278 0.0 1.503121 1.8998908 1.7014058 
0.13491932 0.6883112 0.0 1.3798778 2.1755097 1.7598135 
0.3599067 0.40871838 0.0 1.1621778 2.155886 1.8143499 
0.9623231 0.110397644 0.0 0.92972904 1.7738895 1.8595166 
1.4266522 0.19236255 0.0 0.6395834 1.7706203 1.6146765 
0.5763682 1.2375712 0.0 0.35801554 1.8835694 0.6196613 
0.0 1.7857579 1.0843606 0.14720766 1.792285 0.0 
0.0 1.3957549 1.8655692 0.0 1.5559778 0.0 
0.0 0.5444762 1.2906252 0.0 0.87727064 0.0 
0.0 0.063411266 0.17181161 0.0 0.095097914 0.050766133 
0.0 0.0 0.0 0.0 0.0 0.07698792 
0.0 0.0 0.0 0.0 0.0 0.07698792 
0.0 0.0 0.0 0.0 0.0 0.07698792 
0.0 0.0 0.0 0.0 0.0 0.07698792 
0.0 0.0 0.0 0.0 0.0 0.07698792 
0.0 0.0 0.0 0.0 0.0 0.07698792 
0.0 0.0 0.0 0.0 0.0 0.07698792 
0.0 0.0 0.0 0.0 0.0 0.07698792 
0.0 0.0 0.0 0.0 0.0 0.07698792 
0.0 0.0 0.0 0.0 0.0 0.07698792 
0.0 0.0 0.0 0.0 0.0 0.07698792 
0.0 0.0 0.0 0.0 0.0 0.07698792 
0.0 0.0 0.0 0.0 0.0 0.07698792 
0.0105775595 0.0 0.0 0.0 0.058258537 0.13693841 
0.40516117 0.0 0.0 0.0 0.45042357 0.5055946 
0.77756226 0.0 0.0 0.0 0.89424306 1.0268207 
0.79525125 0.0 0.0 0.0 1.2269726 1.3675594 
0.58521456 0.0 0.0 0.0 1.5051491 1.5391328 
0.22659925 0.043925114 0.0 0.0 1.666411 1.6199653 
0.14656872 0.13127786 0.0 0.0 1.6142347 1.641608 
0.40745813 0.0 0.0 0.0 1.3388665 1.5537097 
1.2096803 0.0 0.0 0.0 1.0785946 1.6257012 
1.6317396 0.0 0.0 0.0 1.3199588 1.399569 
0.6616425 0.91681546 0.0 0.0 1.68674 0.42775363 
0.0 1.591928 0.7525377 0.0 1.8094455 0.0 
0.0 1.2914295 1.7942849 0.09143153 1.5474073 0.04762289 
0.0 0.460909 1.238809 0.046856757 0.82279515 0.04445073 
0.0 0.039496332 0.1605027 0.03034417 0.06294234 0.07533157 
0.0 0.0 0.0 0.0 0.0 0.07698792 
0.0 0.0 0.0 0.0 0.0 0.07698792 
0.0 0.0 0.0 0.0 0.0 0.07698792 
0.0 0.0 0.0 0.0 0.0 0.07698792 
0.0 0.0 0.0 0.0 0.0 0.07698792 
0.0 0.0 0.0 0.0 0.0 0.07698792 
0.0 0.0 0.0 0.0 0.0 0.07698792 
0.0 0.0 0.0 0.0 0.0 0.07698792 
0.0 0.0 0.0 0.0 0.0 0.07698792 
0.0 0.0 0.0 0.0 0.0 0.07698792 
0.0 0.0 0.0 0.0 0.0 0.07698792 
0.0 0.0 0.0 0.0 0.0 0.07698792 
0.0 0.0 0.0 0.0 0.0 0.07698792 
0.0 0.0 0.0 0.0 0.0 0.082557805 
0.10335645 0.0 0.0 0.0 0.21092491 0.19541344 
0.3494407 0.0 0.0 0.0 0.50120723 0.4106893 
0.44836652 0.0 0.0 0.0 0.7453436 0.6012984 
0.3069522 0.0 0.0 0.0 0.90226555 0.68143916 
0.11644149 0.0 0.0 0.0 0.9389618 0.65489095 
0.04635232 0.0 0.0 0.0 0.89973223 0.61928326 
0.38611484 0.0 0.0 0.0 0.624598 0.65845233 
1.4959376 0.0 0.0 0.0 0.6527314 0.98986524 
1.9168742 0.0 0.0 0.0 1.2426223 0.9609859 
0.62786645 1.0011365 0.0 0.0 1.7047724 0.16582614 
0.0 1.4723669 0.5311731 0.0 1.8874915 0.0 
0.0 1.1282754 1.6816862 0.039494183 1.4629437 0.08966026 
0.0 0.3768415 1.1175913 0.052972835 0.6863784 0.08174601 
0.0 0.03510148 0.1267952 0.04982022 0.0 0.09110177 
0.0 0.0 0.0 0.0 0.0 0.07698792 
0.0 0.0 0.0 0.0 0.0 0.07698792 
0.0 0.0 0.0 0.0 0.0 0.07698792 
0.0 0.0 0.0 0.0 0.0 0.07698792 
0.0 0.0 0.0 0.0 0.0 0.07698792 
0.0 0.0 0.0 0.0 0.0 0.07698792 
0.0 0.0 0.0 0.0 0.0 0.07698792 
0.0 0.0 0.0 0.0 0.0 0.07698792 
0.0 0.0 0.0 0.0 0.0 0.07698792 
0.0 0.0 0.0 0.0 0.0 0.07698792 
0.0 0.0 0.0 0.0 0.0 0.07698792 
0.0 0.0 0.0 0.0 0.0 0.07698792 
0.0 0.0 0.0 0.0 0.0 0.07698792 
0.0 0.0 0.0 0.0 0.0 0.07698792 
0.0 0.0 0.0 0.0 0.0 0.07698792 
0.0 0.0 0.0 0.0 0.034021083 0.11721487 
0.057825178 0.0 0.0 0.0 0.13496162 0.17003433 
0.0 0.0 0.0 0.0 0.066067636 0.13525233 
0.0 0.0 0.0 0.0 0.030171972 0.12416339 
0.0 0.0 0.0 0.0 0.029800672 0.13469228 
0.45455277 0.0 0.0 0.0 0.0 0.38499665 
1.6617329 0.0 0.0 0.076567605 0.21641786 0.790923 
1.9610748 0.0 0.0 0.057401847 1.0429245 0.6966904 
0.5819711 1.3676589 0.0 0.0 1.5780362 0.046185657 
0.0 1.6662494 0.66978705 0.0 1.7668796 0.0 
0.0 1.0431576 1.577068 0.0 1.3326384 0.061534777 
0.0 0.26372412 0.9271467 0.0 0.5997719 0.055634767 
0.0 0.0 0.047035255 0.0079781255 0.0 0.09172036 
0.0 0.0 0.0 0.0 0.0 0.07698792 
0.0 0.0 0.0 0.0 0.0 0.07698792 
0.0 0.0 0.0 0.0 0.0 0.07698792 
0.0 0.0 0.0 0.0 0.0 0.07698792 
0.0 0.0 0.0 0.0 0.0 0.07698792 
0.0 0.0 0.0 0.0 0.0 0.07698792 
0.0 0.0 0.0 0.0 0.0 0.07698792 
0.0 0.0 0.0 0.0 0.0 0.07698792 
0.0 0.0 0.0 0.0 0.0 0.07698792 
0.0 0.0 0.0 0.0 0.0 0.07698792 
0.0 0.0 0.0 0.0 0.0 0.07698792 
0.0 0.0 0.0 0.0 0.0 0.07698792 
0.0 0.0 0.0 0.0 0.0 0.07698792 
0.0 0.0 0.0 0.0 0.0 0.07698792 
0.0 0.0 0.0 0.0 0.0 0.07698792 
0.0 0.0 0.0 0.0 0.0 0.07698792 
0.0 0.0 0.0 0.0 0.0 0.07698792 
0.0 0.0 0.0 0.0 0.0 0.07698792 
0.0 0.0 0.0 0.0 0.0 0.07698792 
0.0 0.0 0.0 0.0 0.0 0.07698792 
0.6239317 0.0 0.0 0.09117069 0.0 0.5127156 
1.7523282 0.0 0.0 0.082947746 0.34594753 0.96486324 
1.8503838 0.039170504 0.0 0.02839132 1.0554894 0.6847534 
0.53423244 1.371661 0.0 0.0 1.4663254 0.0 
0.0 1.668722 1.1303513 0.0 1.6187437 0.0 
0.0 1.0593348 1.7610241 0.0 1.165697 0.0 
0.0 0.35570592 1.0571141 0.0 0.40567133 0.0 
0.20676994 0.22818136 0.30560932 0.0 0.0 0.0 
0.13354293 0.38359955 0.2148692 0.0 0.0 0.0 
0.0 0.35897866 0.16799411 0.0 0.0 0.0 
0.0 0.27695075 0.100994565 0.0 0.04149552 0.0 
0.0 0.12818268 0.0 0.0 0.040742014 0.0 
0.0 0.014181363 0.0 0.0 0.0 0.056144316 
0.0 0.0 0.0 0.0 0.0 0.07698792 
0.0 0.0 0.0 0.0 0.0 0.07698792 
0.0 0.0 0.0 0.0 0.0 0.07698792 
0.0 0.0 0.0 0.0 0.0 0.07698792 
0.0 0.0 0.0 0.0 0.0 0.07698792 
0.0 0.0 0.0 0.0 0.0 0.07698792 
0.0 0.0 0.0 0.0 0.0 0.07698792 
0.0 0.0 0.0 0.0 0.0 0.07698792 
0.0 0.0 0.0 0.0 0.0 0.07698792 
0.0 0.0 0.0 0.0 0.0 0.07698792 
0.0 0.0 0.0 0.0 0.0 0.07698792 
0.0 0.0 0.0 0.0 0.0 0.07698792 
0.0 0.0 0.0 0.0 0.0 0.07698792 
0.0 0.0 0.0 0.0 0.0 0.07698792 
0.0 0.0 0.0 0.0 0.0 0.060018167 
0.78162056 0.0 0.0 0.0 0.018644195 0.52201563 
1.8461492 0.0 0.0 0.0 0.4414439 0.9469647 
1.8287129 0.04607918 0.0 0.0 0.9719308 0.547325 
0.67254156 1.3637943 0.0 0.0 1.2378467 0.0 
0.0 1.7109501 1.6132702 0.0 1.3159113 0.0 
0.0 1.3222505 2.2089503 0.0 0.84715104 0.0 
0.03840415 0.8262722 1.4399397 0.0 0.19650467 0.0 
0.5916674 0.729574 0.7450015 0.0 0.0 0.0 
0.38064376 0.97082525 0.75562936 0.0 0.12174754 0.0 
0.0 1.0670639 0.66204005 0.0 0.38996243 0.0 
0.0 0.7628279 0.5521663 0.0 0.48507956 0.0 
0.0 0.29348674 0.213628 0.0 0.37321106 0.0 
0.0 0.053160794 0.0 0.0 0.060889687 0.0042354465 
0.0 0.0 0.0 0.0 0.0 0.07698792 
0.0 0.0 0.0 0.0 0.0 0.07698792 
0.0 0.0 0.0 0.0 0.0 0.07698792 
0.0 0.0 0.0 0.0 0.0 0.07698792 
0.0 0.0 0.0 0.0 0.0 0.07698792 
0.0 0.0 0.0 0.0 0.0 0.07698792 
0.0 0.0 0.0 0.0 0.0 0.07698792 
0.0 0.0 0.0 0.0 0.0 0.07698792 
0.0 0.0 0.0 0.0 0.0 0.07698792 
0.0 0.0 0.0 0.0 0.0 0.06152659 
0.015173569 0.0 0.013872348 0.0 0.0 0.0043845326 
0.042822763 0.04563243 0.04307238 0.0 0.0 0.0 
0.099092975 0.0736568 0.14507157 0.0 0.0 0.0 
0.20757228 0.16733658 0.23455107 0.0 0.0 0.0 
0.30023557 0.21716338 0.30767345 0.0 0.0 0.0 
1.0783298 0.0 0.0 0.0 0.0 0.0 
1.9443669 0.0 0.0 0.0 0.5054296 0.24923852 
1.846698 0.38229853 0.0 0.0 1.0722303 0.10052764 
0.8376521 1.3039947 0.0 0.0 1.2671965 0.0 
0.0 1.4950196 1.5755763 0.0 1.3155218 0.0 
0.0 1.3546389 2.1978025 0.0 1.0618027 0.0 
0.20616388 1.0355405 1.6818247 0.0 0.7991026 0.0 
0.46716583 0.90500975 1.0172619 0.0 0.75574946 0.0 
0.02696985 1.2294687 1.1254702 0.0 1.0589727 0.0 
0.0 1.3362473 1.2120094 0.11165053 1.2088531 0.0 
0.0 1.1030954 1.1449842 0.087365136 0.9979127 0.0 
0.0 0.46381253 0.62224185 0.0 0.60527 0.0 
0.0 0.030046739 0.07049834 0.0 0.12985392 0.032085735 
0.0 0.0 0.0 0.0 0.0 0.07698792 
0.0 0.0 0.0 0.0 0.0 0.07698792 
0.0 0.0 0.0 0.0 0.0 0.07698792 
0.0 0.0 0.0 0.0 0.0 0.07698792 
0.0 0.0 0.0 0.0 0.0 0.07698792 
0.0 0.0 0.0 0.0 0.0 0.07698792 
0.0 0.0 0.0 0.0 0.0 0.07698792 
0.0 0.0 0.0 0.0 0.0 0.0754795 
0.024866164 0.0 0.059724182 0.0 0.0 0.018140003 
0.2526736 0.0 0.16764581 0.0 0.0 0.0 
0.41973668 0.11254143 0.29030484 0.0 0.0 0.0 
0.5204132 0.34358832 0.44012827 0.0 0.0 0.0 
0.5432898 0.5512609 0.5539382 0.0 0.0 0.0 
0.57544106 0.6141781 0.6641197 0.0 0.0 0.0 
0.72154415 0.60341066 0.66195637 0.0 0.0 0.0 
1.3056855 0.37939256 0.39198172 0.0 0.2407176 0.0 
1.7596974 0.41974804 0.0 0.0 1.0690409 0.0 
1.454108 0.78119797 0.0 0.0 1.6715765 0.0 
0.65302396 1.1903512 0.0 0.0 1.8919779 0.052053813 
0.0 1.2341475 1.0457865 0.40974224 1.9383738 0.12549123 
0.0 1.1896005 1.5735433 0.9288799 1.947285 0.30580592 
0.0 1.0956159 1.2447559 1.3087107 1.836897 0.48164582 
0.11537683 1.0566394 0.7591175 1.5090908 1.7710559 0.754017 
0.0 1.2921487 0.90606034 1.4446657 1.7812997 0.5945181 
0.0 1.3666575 1.2302697 1.2785008 1.401345 0.2899498 
0.0 0.9887223 1.4396508 0.90733844 0.9498399 0.2503842 
0.0 0.50010365 0.94489956 0.4489754 0.44236997 0.15085928 
0.0 0.13203578 0.19577563 0.12097601 0.017581042 0.07981467 
0.0 0.0 0.0 0.0 0.0 0.07698792 
0.0 0.0 0.0 0.0 0.0 0.07698792 
0.0 0.0 0.0 0.0 0.0 0.07698792 
0.0 0.0 0.0 0.0 0.0 0.07698792 
0.0 0.0 0.0 0.0 0.0 0.07698792 
0.0 0.0 0.0 0.0 0.0 0.07698792 
0.0 0.0 0.0 0.0 0.0 0.07698792 
0.0 0.0 0.0 0.0 0.0 0.07308952 
0.19949377 0.0 0.08887846 0.0 0.0 0.003442049 
0.7211546 0.0 0.18414739 0.0 0.0 0.0 
0.98545605 0.077033065 0.3135021 0.0 0.0 0.0 
0.9252707 0.63923097 0.6169501 0.0 0.0 0.0 
0.60048217 0.82065576 0.8248602 0.0 0.34290478 0.0 
0.45953363 0.8051278 0.85211253 0.0 0.6598456 0.0 
0.49769944 0.6176986 0.8528618 0.023277823 0.8275538 0.0 
1.0133319 0.5074916 0.66268235 0.30783242 1.2318588 0.0 
1.3093886 0.7379188 0.092487864 0.3704585 1.8473256 0.31255427 
1.0076602 1.1193148 0.0 0.36720586 2.2975512 0.46766886 
0.372784 1.415598 0.0 0.49330977 2.5840456 0.7436703 
0.0 1.2945015 0.27646038 0.8278195 2.7154078 1.1378996 
0.0 1.0641956 0.4379155 1.1964376 2.612183 1.4675767 
0.0 0.776963 0.119281866 1.3317052 2.3235438 1.5874326 
0.08445811 0.80506724 0.0 1.2361553 2.049014 1.6802051 
0.0 0.8872581 0.0 0.93001217 1.6531093 1.3039238 
0.0 0.76501894 0.26492605 0.62208515 1.062411 0.8789804 
0.0 0.5030788 0.83024365 0.421958 0.5593774 0.6038596 
0.0 0.22092439 0.75229365 0.24707127 0.19537343 0.26561803 
0.0 0.051283643 0.17063099 0.06798352 0.0 0.10844186 
0.0 0.0 0.0 0.0 0.0 0.07698792 
0.0 0.0 0.0 0.0 0.0 0.07698792 
0.0 0.0 0.0 0.0 0.0 0.07698792 
0.0 0.0 0.0 0.0 0.0 0.07698792 
0.0 0.0 0.0 0.0 0.0 0.07698792 
0.0 0.0 0.0 0.0 0.0 0.07698792 
0.0 0.0 0.0 0.0 0.0 0.07698792 
0.0 0.0 0.0 0.0 0.0 0.08331616 
0.33972383 0.0 0.0 0.027830489 0.0 0.2484985 
0.9737877 0.0 0.0 0.23634684 0.0 0.3350898 
1.1629615 0.0 0.0 0.5236114 0.20302482 0.20505668 
0.70333743 0.5826766 0.305037 0.927287 0.8372408 0.14267394 
0.1572487 0.8553072 0.69201523 1.1499275 1.5438093 0.31218946 
0.055988967 0.9400734 0.745111 1.4505966 1.7470969 0.6835738 
0.1850304 0.76805794 0.44088903 1.5546156 1.6942028 1.0130975 
0.826228 0.49964437 0.2771427 1.4360794 1.6553527 1.2987599 
1.2961831 0.7456097 0.0 1.1736101 1.9096936 1.2411089 
0.88047737 1.3628864 0.0 0.8570897 2.3741796 1.0081412 
0.0 1.5896236 0.0 0.43819234 2.8318026 0.9034496 
0.0 1.1578586 0.0 0.15875708 2.8787653 1.2366505 
0.0 0.57098895 0.0 0.026322525 2.3889458 1.540057 
0.005936846 0.2687042 0.0 0.0 1.7226058 1.5355968 
0.063321665 0.048388936 0.0 0.0 1.499842 1.4334981 
0.0 0.029303517 0.0 0.0 1.1120563 1.0443742 
0.0 0.0 0.0 0.0 0.6039799 0.63216436 
0.0 0.0 0.07020604 0.0 0.33997238 0.41443875 
0.0 0.0 0.23170567 0.0 0.15641804 0.19998425 
0.0 0.0 0.0179478 0.0 0.0 0.08679057 
0.0 0.0 0.0 0.0 0.0 0.07698792 
0.0 0.0 0.0 0.0 0.0 0.07698792 
0.0 0.0 0.0 0.0 0.0 0.07698792 
0.0 0.0 0.0 0.0 0.0 0.07698792 
0.0 0.0 0.0 0.0 0.0 0.07698792 
0.0 0.0 0.0 0.0 0.0 0.07698792 
0.0 0.0 0.0 0.0 0.0 0.07698792 
0.0 0.0 0.0 0.005663546 0.0 0.096020184 
0.4347962 0.0 0.0 0.24131207 0.0 0.5487501 
0.94537944 0.0 0.0 0.59431463 0.36635438 0.9760366 
0.9390672 0.0075595165 0.0 1.0293581 1.0278844 1.1096537 
0.47979248 0.6844414 0.0 1.3821295 1.5268863 1.3314223 
0.04047662 0.9418815 0.0 1.4228938 1.9311961 1.4636939 
0.02279824 0.8718895 0.0 1.1822081 1.9084529 1.5749447 
0.36427885 0.41880396 0.0 0.87267363 1.7633308 1.7382069 
1.0485737 0.0 0.0 0.5798374 1.4524556 1.8869209 
1.40219 0.11015642 0.0 0.41325733 1.6101016 1.5189168 
0.71113205 1.0022829 0.0 0.18739118 2.1642728 0.9401019 
0.0 1.4636278 0.08070413 0.0 2.408228 0.5928515 
0.0 0.8970967 0.24734506 0.0 2.2631676 0.67381895 
0.0 0.04283915 0.0 0.0 1.5546132 0.7390554 
0.0 0.0 0.0 0.0 0.90134704 0.6597057 
0.0 0.0 0.0 0.0 0.727307 0.52307934 
0.0 0.0 0.0 0.0 0.43425357 0.32927394 
0.0 0.0 0.0 0.0 0.22787128 0.2186014 
0.0 0.0 0.0 0.0 0.116579324 0.16953482 
0.0 0.0 0.017325133 0.0 0.0075688474 0.09004017 
0.0 0.0 0.0 0.0 0.0 0.07736842 
0.0 0.0 0.0 0.0 0.0 0.07698792 
0.0 0.0 0.0 0.0 0.0 0.07698792 
0.0 0.0 0.0 0.0 0.0 0.07698792 
0.0 0.0 0.0 0.0 0.0 0.07698792 
0.0 0.0 0.0 0.0 0.0 0.07698792 
0.0 0.0 0.0 0.0 0.0 0.07698792 
0.0 0.0 0.0 0.0 0.0 0.07698792 
0.0 0.0 0.0 0.004772881 0.0 0.097691484 
0.44818705 0.0 0.0 0.13026264 0.28102422 0.60137194 
0.8552529 0.0 0.0 0.12438008 0.8680313 1.1286356 
0.68826014 0.037348725 0.0 0.117768876 1.2802732 1.2644103 
0.4479174 0.19580401 0.0 0.005152573 1.5105368 1.4736047 
0.062344417 0.25898013 0.0 0.0 1.547119 1.4526789 
0.009123474 0.010894838 0.0 0.0 1.4014312 1.2800021 
0.2815603 0.0 0.0 0.0 1.176692 1.2399657 
1.1870298 0.0 0.0 0.0 1.0187483 1.512661 
1.5278213 0.0 0.0 0.0 1.2707378 1.2280607 
0.64334494 0.66878456 0.0 0.0 1.7621225 0.36922944 
0.0 1.2903168 0.42582187 0.0 1.7851564 0.008769214 
0.0 0.85498863 1.1254506 0.0 1.5550581 0.088395596 
0.0 0.11171939 0.4510216 0.0 0.8026307 0.14242981 
0.0 0.0 0.0 0.0 0.12285231 0.15109289 
0.0 0.0 0.0 0.0 0.018217128 0.116047174 
0.0 0.0 0.0 0.0 0.0 0.085862994 
0.0 0.0 0.0 0.0 0.0 0.07759672 
0.0 0.0 0.0 0.0 0.0 0.07698792 
0.0 0.0 0.0 0.0 0.0 0.07698792 
0.0 0.0 0.0 0.0 0.0 0.07698792 
0.0 0.0 0.0 0.0 0.0 0.07698792 
0.0 0.0 0.0 0.0 0.0 0.07698792 
0.0 0.0 0.0 0.0 0.0 0.07698792 
0.0 0.0 0.0 0.0 0.0 0.07698792 
0.0 0.0 0.0 0.0 0.0 0.07698792 
0.0 0.0 0.0 0.0 0.0 0.07698792 
0.0 0.0 0.0 0.0 0.0 0.07698792 
0.0 0.0 0.0 0.0 0.0 0.08851344 
0.28384686 0.0 0.0 0.0 0.35411635 0.37671033 
0.51641893 0.0 0.0 0.0 0.714076 0.66430503 
0.35782185 0.0 0.0 0.0 0.84462976 0.67323595 
0.18227857 0.0 0.0 0.0 0.8340697 0.7124515 
0.0 0.0 0.0 0.0 0.7912525 0.5923474 
0.0 0.0 0.0 0.0 0.58523357 0.44283465 
0.25204414 0.0 0.0 0.0 0.43500206 0.46297354 
1.4213369 0.0 0.0 0.0 0.47855905 0.89183587 
1.7563541 0.0 0.0 0.0 0.9115946 0.7471439 
0.5395086 1.0156388 0.0 0.0 1.3014535 0.0 
0.0 1.3955594 0.7524418 0.0 1.5011222 0.0 
0.0 1.0341258 1.7163713 0.0 1.2587303 0.0 
0.0 0.26218992 0.8105237 0.0 0.54674095 0.0 
0.0 0.0 0.0 0.0 0.0 0.07782502 
0.0 0.0 0.0 0.0 0.0 0.07698792 
0.0 0.0 0.0 0.0 0.0 0.07698792 
0.0 0.0 0.0 0.0 0.0 0.07698792 
0.0 0.0 0.0 0.0 0.0 0.07698792 
0.0 0.0 0.0 0.0 0.0 0.07698792 
0.0 0.0 0.0 0.0 0.0 0.07698792 
0.0 0.0 0.0 0.0 0.0 0.07698792 
0.0 0.0 0.0 0.0 0.0 0.07698792 
0.0 0.0 0.0 0.0 0.0 0.07698792 
0.0 0.0 0.0 0.0 0.0 0.07698792 
0.0 0.0 0.0 0.0 0.0 0.07698792 
0.0 0.0 0.0 0.0 0.0 0.07698792 
0.0 0.0 0.0 0.0 0.0 0.07698792 
0.0 0.0 0.0 0.0 0.0 0.07884455 
0.03439203 0.0 0.0 0.0 0.1053171 0.14864466 
0.09571406 0.0 0.0 0.0 0.19049968 0.200392 
0.015681371 0.0 0.0 0.0 0.15115765 0.16766523 
0.0 0.0 0.0 0.0 0.10259093 0.17476642 
0.0 0.0 0.0 0.0 0.07489361 0.14452049 
0.0 0.0 0.0 0.0 0.010249469 0.10641684 
0.35815787 0.0 0.0 0.0 0.0 0.26696095 
1.570375 0.0 0.0 0.0 0.14436406 0.7317316 
1.890696 0.0 0.0 0.0 0.8039108 0.6184678 
0.47739655 1.2927967 0.0 0.0 1.2594253 0.0 
0.0 1.5494815 0.839387 0.0 1.5565134 0.0 
0.0 1.0451093 1.7481333 0.0 1.2446676 0.0 
0.0 0.27505603 0.812379 0.0 0.5335685 0.0 
0.0 0.0 0.0 0.0 0.0 0.07698792 
0.0 0.0 0.0 0.0 0.0 0.07698792 
0.0 0.0 0.0 0.0 0.0 0.07698792 
0.0 0.0 0.0 0.0 0.0 0.07698792 
0.0 0.0 0.0 0.0 0.0 0.07698792 
0.0 0.0 0.0 0.0 0.0 0.07698792 
0.0 0.0 0.0 0.0 0.0 0.07698792 
0.0 0.0 0.0 0.0 0.0 0.07698792 
0.0 0.0 0.0 0.0 0.0 0.07698792 
0.0 0.0 0.0 0.0 0.0 0.07698792 
0.0 0.0 0.0 0.0 0.0 0.07698792 
0.0 0.0 0.0 0.0 0.0 0.07698792 
0.0 0.0 0.0 0.0 0.0 0.07698792 
0.0 0.0 0.0 0.0 0.0 0.07698792 
0.0 0.0 0.0 0.0 0.0 0.07698792 
0.0 0.0 0.0 0.0 0.0 0.07698792 
0.0 0.0 0.0 0.0 0.0 0.07698792 
0.0 0.0 0.0 0.0 0.0 0.07698792 
0.0 0.0 0.0 0.0 0.0 0.07698792 
0.0 0.0 0.0 0.0 0.0 0.07698792 
0.0 0.0 0.0 0.0 0.0 0.07698792 
0.509979 0.0 0.0 0.045678336 0.0 0.39959848 
1.6589458 0.0 0.0 0.08098361 0.2387032 0.8322721 
1.8418441 0.0 0.0 0.08126898 0.91861796 0.6225118 
0.4296866 1.382825 0.0 0.047575902 1.3523145 0.0 
0.0 1.6601685 1.0460232 0.0 1.6063474 0.0 
0.0 1.0451093 1.7481333 0.0 1.2446676 0.0 
0.0 0.27505603 0.812379 0.0 0.5335685 0.0 
0.0 0.0 0.0 0.0 0.0 0.07698792 
0.0 0.0 0.0 0.0 0.0 0.07698792 
0.0 0.0 0.0 0.0 0.0 0.07698792 
0.0 0.0 0.0 0.0 0.0 0.07698792 
0.0 0.0 0.0 0.0 0.0 0.07698792 
0.0 0.0 0.0 0.0 0.0 0.07698792 
0.0 0.0 0.0 0.0 0.0 0.07698792 
0.0 0.0 0.0 0.0 0.0 0.07698792 
0.0 0.0 0.0 0.0 0.0 0.07698792 
0.0 0.0 0.0 0.0 0.0 0.07698792 
0.0 0.0 0.0 0.0 0.0 0.07698792 
0.0 0.0 0.0 0.0 0.0 0.07698792 
0.0 0.0 0.0 0.0 0.0 0.07698792 
0.0 0.0 0.0 0.0 0.0 0.07698792 
0.0 0.0 0.0 0.0 0.0 0.07698792 
0.0 0.0 0.0 0.0 0.0 0.07698792 
0.0 0.0 0.0 0.0 0.0 0.07698792 
0.0 0.0 0.0 0.0 0.0 0.07698792 
0.0 0.0 0.0 0.0 0.0 0.07698792 
0.0 0.0 0.0 0.0 0.0 0.07698792 
0.0 0.0 0.0 0.0 0.0 0.07698792 
0.550751 0.0 0.0 0.11352264 0.012359533 0.5625564 
1.6232812 0.0 0.0 0.16217399 0.43227783 1.11271 
1.7688487 0.0 0.0 0.23742399 1.0229408 0.86420816 
0.34872794 1.2486022 0.0 0.22655816 1.4259307 0.19727495 
0.0 1.5755754 1.157409 0.16372319 1.5818969 0.0 
0.0 0.9919422 1.7123672 0.014414963 1.2428107 0.021179125 
0.0 0.24138892 0.8012807 0.0 0.5009207 0.0 
0.0 0.0 0.0 0.0 0.0 0.07698792 
0.0 0.0 0.0 0.0 0.0 0.07698792 
0.0 0.0 0.0 0.0 0.0 0.07698792 
0.0 0.0 0.0 0.0 0.0 0.07698792 
0.0 0.0 0.0 0.0 0.0 0.07698792 
0.0 0.0 0.0 0.0 0.0 0.07698792 
0.0 0.0 0.0 0.0 0.0 0.07698792 
0.0 0.0 0.0 0.0 0.0 0.07698792 
0.0 0.0 0.0 0.0 0.0 0.07698792 
0.0 0.0 0.0 0.0 0.0 0.07698792 
0.0 0.0 0.0 0.0 0.0 0.07698792 
0.0 0.0 0.0 0.0 0.0 0.07698792 
0.0 0.0 0.0 0.0 0.0 0.07698792 
0.0 0.0 0.0 0.0 0.0 0.07698792 
0.0 0.0 0.0 0.0 0.0 0.07698792 
0.0 0.0 0.0 0.0 0.0 0.07698792 
0.0 0.0 0.0 0.0 0.0 0.07698792 
0.0 0.0 0.0 0.0 0.0 0.07698792 
0.0 0.0 0.0 0.0 0.0 0.07698792 
0.0 0.0 0.0 0.0 0.0 0.07698792 
0.0 0.0 0.0 0.0 0.0 0.07698792 
0.5062291 0.0 0.0 0.07365062 0.25802034 0.60085124 
1.306757 0.0 0.0 0.23678887 0.7038094 1.3034489 
1.2893746 0.0 0.0 0.46859103 1.2658861 1.3251352 
0.24555746 0.7382207 0.0 0.60717136 1.4865702 0.8517073 
0.0 1.12927 0.90878004 0.70120686 1.3815035 0.5093429 
0.0 0.6388091 1.5057305 0.3854457 1.0596073 0.36313125 
0.0 0.17338076 0.7446079 0.14556614 0.34532472 0.08417025 
0.0 0.0 0.0 0.0 0.0 0.07698792 
0.0 0.0 0.0 0.0 0.0 0.07698792 
0.0 0.0 0.0 0.0 0.0 0.07698792 
0.0 0.0 0.0 0.0 0.0 0.07698792 
0.0 0.0 0.0 0.0 0.0 0.07698792 
0.0 0.0 0.0 0.0 0.0 0.07698792 
0.0 0.0 0.0 0.0 0.0 0.07698792 
0.0 0.0 0.0 0.0 0.0 0.07698792 
0.0 0.0 0.0 0.0 0.0 0.07698792 
0.0 0.0 0.0 0.0 0.0 0.07698792 
0.0 0.0 0.0 0.0 0.0 0.07698792 
0.0 0.0 0.0 0.0 0.0 0.07698792 
0.0 0.0 0.0 0.0 0.0 0.07698792 
0.0 0.0 0.0 0.0 0.0 0.07698792 
0.0 0.0 0.0 0.0 0.0 0.07698792 
0.0 0.0 0.0 0.0 0.0 0.07698792 
0.0 0.0 0.0 0.0 0.0 0.07698792 
0.0 0.0 0.0 0.0 0.0 0.07698792 
0.0 0.0 0.0 0.0 0.0 0.07698792 
0.0 0.0 0.0 0.0 0.0 0.07698792 
0.0 0.0 0.0 0.0 0.0 0.07698792 
0.33567154 0.0 0.0 0.0170286 0.27315605 0.45909408 
0.9927344 0.0 0.0 0.08927322 0.8633583 1.191539 
0.840502 0.0 0.0 0.16457671 1.2140152 1.273684 
0.0 0.31052923 0.0 0.27740848 1.1667087 0.8898527 
0.0 0.43984053 0.29871175 0.42633203 0.9149825 0.71364236 
0.0 0.38326192 1.094227 0.40354303 0.5364503 0.47130805 
0.0 0.11859627 0.5780858 0.16523105 0.12973118 0.1321457 
0.0 0.0 0.0 0.0 0.0 0.07698792 
0.0 0.0 0.0 0.0 0.0 0.07698792 
0.0 0.0 0.0 0.0 0.0 0.07698792 
0.0 0.0 0.0 0.0 0.0 0.07698792 
0.0 0.0 0.0 0.0 0.0 0.07698792 
0.0 0.0 0.0 0.0 0.0 0.07698792 
0.0 0.0 0.0 0.0 0.0 0.07698792 
0.0 0.0 0.0 0.0 0.0 0.07698792 
0.0 0.0 0.0 0.0 0.0 0.07698792 
0.0 0.0 0.0 0.0 0.0 0.07698792 
0.0 0.0 0.0 0.0 0.0 0.07698792 
0.0 0.0 0.0 0.0 0.0 0.07698792 
0.0 0.0 0.0 0.0 0.0 0.07698792 
0.0 0.0 0.0 0.0 0.0 0.07698792 
0.0 0.0 0.0 0.0 0.0 0.07698792 
0.0 0.0 0.0 0.0 0.0 0.07698792 
0.0 0.0 0.0 0.0 0.0 0.07698792 
0.0 0.0 0.0 0.0 0.0 0.07698792 
0.0 0.0 0.0 0.0 0.0 0.07698792 
0.0 0.0 0.0 0.0 0.0 0.07698792 
0.0 0.0 0.0 0.0 0.0 0.07698792 
0.15192698 0.0 0.0 0.0 0.21661888 0.25682822 
0.5827588 0.0 0.0 0.0 0.62654763 0.72079325 
0.5413346 0.0 0.0 0.0 0.8877492 0.9274642 
0.0 0.10411389 0.0 0.0 0.6302001 0.72580856 
0.0 0.0 0.0 0.0 0.39729026 0.5630407 
0.0 0.0 0.45582086 0.0 0.24592645 0.3707951 
0.0 0.0 0.27165604 0.011629348 0.050395194 0.123053424 
0.0 0.0 0.0 0.0 0.0 0.07698792 
0.0 0.0 0.0 0.0 0.0 0.07698792 
0.0 0.0 0.0 0.0 0.0 0.07698792 
0.0 0.0 0.0 0.0 0.0 0.07698792 
0.0 0.0 0.0 0.0 0.0 0.07698792 
0.0 0.0 0.0 0.0 0.0 0.07698792 
0.0 0.0 0.0 0.0 0.0 0.07698792 
0.0 0.0 0.0 0.0 0.0 0.07698792 
0.0 0.0 0.0 0.0 0.0 0.07698792 
0.0 0.0 0.0 0.0 0.0 0.07698792 
0.0 0.0 0.0 0.0 0.0 0.07698792 
0.0 0.0 0.0 0.0 0.0 0.07698792 
0.0 0.0 0.0 0.0 0.0 0.07698792 
0.0 0.0 0.0 0.0 0.0 0.07698792 
0.0 0.0 0.0 0.0 0.0 0.07698792 
0.0 0.0 0.0 0.0 0.0 0.07698792 
0.0 0.0 0.0 0.0 0.0 0.07698792 
0.0 0.0 0.0 0.0 0.0 0.07698792 
0.0 0.0 0.0 0.0 0.0 0.07698792 
0.0 0.0 0.0 0.0 0.0 0.07698792 
0.0 0.0 0.0 0.0 0.0 0.07698792 
0.0 0.0 0.0 0.0 0.025486272 0.11350161 
0.20402393 0.0 0.0 0.0 0.36078915 0.26746368 
0.21793342 0.0 0.0 0.0 0.40468946 0.3056632 
0.0 0.0 0.0 0.0 0.237282 0.20889984 
0.0 0.0 0.0 0.0 0.19653441 0.24238685 
0.0 0.0 0.0 0.0 0.14096451 0.16951597 
0.0 0.0 0.016924031 0.0 0.00059389323 0.08650038 
0.0 0.0 0.0 0.0 0.0 0.07698792 
0.0 0.0 0.0 0.0 0.0 0.07698792 
0.0 0.0 0.0 0.0 0.0 0.07698792 
0.0 0.0 0.0 0.0 0.0 0.07698792 
0.0 0.0 0.0 0.0 0.0 0.07698792 
0.0 0.0 0.0 0.0 0.0 0.07698792 
0.0 0.0 0.0 0.0 0.0 0.07698792 
0.0 0.0 0.0 0.0 0.0 0.07698792 
0.0 0.0 0.0 0.0 0.0 0.07698792 
0.0 0.0 0.0 0.0 0.0 0.07698792 

