0.0 0.0 0.0 0.0 0.0 0.07698792 
0.0 0.0 0.0 0.0 0.0 0.07698792 
0.0 0.0 0.0 0.0 0.0 0.07698792 
0.0 0.0 0.0 0.0 0.0 0.07698792 
0.0 0.0 0.0 0.0 0.0 0.07698792 
0.0 0.0 0.0 0.0 0.0 0.07698792 
0.0 0.0 0.0 0.0 0.0 0.07698792 
0.0 0.0 0.0 0.0 0.0 0.07698792 
0.0 0.0 0.0 0.0 0.0 0.07698792 
0.0 0.0 0.0 0.0 0.0 0.07698792 
0.0 0.0 0.0 0.0 0.0 0.07698792 
0.0 0.0 0.0 0.0 0.0 0.07698792 
0.0 0.0 0.0 0.0 0.0 0.07698792 
0.0 0.0 0.0 0.0 0.0 0.07698792 
0.0 0.0 0.0 0.0 0.0 0.07698792 
0.0 0.0 0.0 0.0 0.0 0.07698792 
0.0 0.0 0.0 0.0 0.0 0.07698792 
0.0 0.0 0.0 0.0 0.0 0.07698792 
0.0 0.0 0.0 0.0 0.0 0.07698792 
0.0 0.0 0.0 0.0 0.0 0.07698792 
0.0 0.0 0.0 0.0 0.0 0.07698792 
0.0 0.0 0.0 0.0 0.0 0.07698792 
0.0 0.0 0.0 0.0 0.0 0.07698792 
0.0 0.0 0.0 0.0 0.0 0.07698792 
0.0 0.0 0.0 0.0 0.0 0.07698792 
0.0 0.0 0.0 0.0 0.0 0.07698792 
0.0 0.0 0.0 0.0 0.0 0.07698792 
0.0 0.0 0.0 0.0 0.0 0.07698792 
0.0 0.0 0.0 0.0 0.0 0.07698792 
0.0 0.0 0.0 0.0 0.0 0.07698792 
0.0 0.0 0.0 0.0 0.0 0.07698792 
0.0 0.0 0.0 0.0 0.0 0.07698792 
0.0 0.0 0.0 0.0 0.0 0.07698792 
0.0 0.0 0.0 0.0 0.0 0.07698792 
0.0 0.0 0.0 0.0 0.0 0.07698792 
0.0 0.0 0.0 0.0 0.0 0.07698792 
0.0 0.0 0.0 0.0 0.0 0.07698792 
0.0 0.0 0.0 0.0 0.0 0.07698792 
0.0 0.0 0.0 0.0 0.0 0.07698792 
0.0 0.0 0.0 0.0 0.0 0.07698792 
0.0 0.0 0.0 0.0 0.0 0.07698792 
0.0 0.0 0.0 0.0 0.0 0.07698792 
0.0 0.0 0.0 0.0 0.0 0.07698792 
0.0 0.0 0.0 0.0 0.0 0.07698792 
0.0 0.0 0.0 0.0 0.0 0.07698792 
0.0 0.0 0.0 0.0 0.0 0.07698792 
0.0 0.0 0.0 0.0 0.0 0.07698792 
0.0 0.0 0.0 0.0 0.0 0.07698792 
0.0 0.0 0.0 0.0 0.0 0.07698792 
0.0 0.0 0.0 0.0 0.0 0.07698792 
0.0 0.0 0.0 0.0 0.0 0.07698792 
0.0 0.0 0.0 0.0 0.0 0.07698792 
0.0 0.0 0.0 0.0 0.0 0.07698792 
0.0 0.0 0.0 0.0 0.0 0.07698792 
0.0 0.0 0.0 0.0 0.0 0.07698792 
0.0 0.0 0.0 0.0 0.0 0.07698792 
0.0 0.0 0.0 0.0 0.0 0.07698792 
0.0 0.0 0.0 0.0 0.0 0.07698792 
0.0 0.0 0.0 0.0 0.0 0.07698792 
0.0 0.0 0.0 0.0 0.0 0.07698792 
0.0 0.0 0.0 0.0 0.0 0.07698792 
0.0 0.0 0.0 0.0 0.0 0.07698792 
0.0 0.0 0.0 0.0 0.0 0.07698792 
0.0 0.0 0.0 0.0 0.0 0.07698792 
0.0 0.0 0.0 0.0 0.0 0.07698792 
0.0 0.0 0.0 0.0 0.0 0.07698792 
0.0 0.0 0.0 0.0 0.0 0.07698792 
0.0 0.0 0.0 0.0 0.0 0.07698792 
0.0 0.0 0.0 0.0 0.0 0.07698792 
0.0 0.0 0.0 0.0 0.0 0.07698792 
0.0 0.0 0.0 0.0 0.0 0.07698792 
0.0 0.0 0.0 0.0 0.0 0.07698792 
0.0 0.0 0.0 0.0 0.0 0.07698792 
0.0 0.0 0.0 0.0 0.0 0.07698792 
0.0 0.0 0.0 0.0 0.0 0.07698792 
0.0 0.0 0.0 0.0 0.0 0.07698792 
0.0 0.0 0.0 0.0 0.0 0.07698792 
0.0 0.0 0.0 0.0 0.0 0.07698792 
0.0 0.0 0.0 0.0 0.0 0.07698792 
0.0 0.0 0.0 0.0 0.0 0.07698792 
0.0 0.0 0.0 0.0 0.0 0.07698792 
0.0 0.0 0.0 0.0 0.0 0.07698792 
0.0 0.0 0.0 0.0 0.0 0.07698792 
0.0 0.0 0.0 0.0 0.0 0.07698792 
0.0 0.0 0.0 0.0 0.0 0.07698792 
0.0 0.0 0.0 0.0 0.0 0.07698792 
0.0 0.0 0.0 0.0 0.0 0.07698792 
0.0 0.0 0.0 0.0 0.0 0.07698792 
0.0 0.0 0.0 0.0 0.0 0.07698792 
0.0 0.0 0.0 0.0 0.0 0.07698792 
0.0 0.0 0.0 0.0 0.0 0.07698792 
0.0 0.0 0.0 0.0 0.0 0.07698792 
0.0 0.0 0.0 0.0 0.0 0.07698792 
0.0 0.0 0.0 0.0 0.0 0.07698792 
0.0 0.0 0.0 0.0 0.0 0.07698792 
0.0 0.0 0.0 0.0 0.0 0.07698792 
0.0 0.0 0.0 0.0 0.0 0.07698792 
0.0 0.0 0.0 0.0 0.0 0.07698792 
0.0 0.0 0.0 0.0 0.0 0.07698792 
0.0 0.0 0.0 0.0 0.0 0.07698792 
0.0 0.0 0.0 0.0 0.0 0.07698792 
0.0 0.0 0.0 0.0 0.0 0.07698792 
0.0 0.0 0.0 0.0 0.0 0.07698792 
0.0 0.0 0.0 0.0 0.0 0.07698792 
0.0 0.0 0.0 0.0 0.0 0.07698792 
0.0 0.0 0.0 0.0 0.0 0.07698792 
0.0 0.0 0.0 0.0 0.0 0.07698792 
0.0 0.0 0.0 0.0 0.0 0.07698792 
0.0 0.0 0.0 0.0 0.0 0.07698792 
0.0 0.0 0.0 0.0 0.0 0.07698792 
0.0 0.0 0.0 0.0 0.0 0.07698792 
0.0 0.0 0.0 0.0 0.0 0.07698792 
0.0 0.0 0.0 0.0 0.0 0.07698792 
0.0 0.0 0.0 0.0 0.0 0.07698792 
0.0 0.0 0.0 0.0 0.0 0.07698792 
0.0 0.0 0.0 0.0 0.0 0.07133134 
0.10080469 0.0 0.14430508 0.0 0.0 0.0 
0.29944104 0.12161955 0.19020528 0.0 0.0 0.0 
0.20316982 0.24313024 0.24685824 0.0 0.0 0.0 
0.25152743 0.35933903 0.41755307 0.0 0.0 0.0 
0.16009454 0.5470817 0.2626416 0.0 0.0 0.0 
0.0 0.37675098 0.17253226 0.0 0.01696692 0.0 
0.0 0.28969276 0.11565333 0.0 0.026056085 0.0 
0.0 0.13568015 0.0 0.0 0.07037768 0.0 
0.0 0.0 0.0 0.0 0.0 0.064557165 
0.0 0.0026882999 0.0 0.0 0.0 0.059945323 
0.0 0.0010034675 0.0 0.0 0.0 0.056775235 
0.0 0.0050283847 0.0 0.0 0.0 0.054546397 
0.0 0.00015339907 0.0 0.0 0.0 0.06917157 
0.0 0.0 0.0 0.0 0.0 0.07698792 
0.0 0.0 0.0 0.0 0.0 0.07698792 
0.0 0.0 0.0 0.0 0.0 0.07698792 
0.0 0.0 0.0 0.0 0.0 0.07698792 
0.0 0.0 0.0 0.0 0.0 0.07698792 
0.0 0.0 0.0 0.0 0.0 0.07698792 
0.0 0.0 0.0 0.0 0.0 0.07698792 
0.0 0.0 0.0 0.0 0.0 0.07698792 
0.0 0.0 0.0 0.0 0.0 0.07698792 
0.0 0.0 0.0 0.0 0.0 0.07698792 
0.0 0.0 0.0 0.0 0.0 0.07698792 
0.0 0.0 0.0 0.0 0.0 0.07698792 
0.0 0.0 0.0 0.0 0.0 0.07698792 
0.0 0.0 0.0 0.0 0.0 0.07698792 
0.053281352 0.0 0.08044524 0.0 0.0 0.012873791 
0.4478529 0.0 0.112130456 0.0 0.0 0.0 
0.76428413 0.027537145 0.35565674 0.0 0.0 0.0 
0.84536934 0.5350103 0.53599447 0.0 0.0 0.0 
0.57031345 0.9618415 0.88015246 0.0 0.0 0.0 
0.18291831 1.0219482 0.99384224 0.0 0.3449693 0.0 
0.004298426 1.0463135 0.80075294 0.0 0.36081168 0.0 
0.0 0.9318905 0.8395387 0.0 0.25634298 0.0 
0.0 0.46938795 0.5247792 0.0 0.22394328 0.0 
0.230308 0.39880696 0.3947982 0.0 0.0 0.0 
0.2373778 0.46538785 0.35553998 0.0 0.0 0.0 
0.10632753 0.4697928 0.28270048 0.0 0.0 0.0 
0.06646176 0.38994667 0.31905466 0.0 0.0 0.0 
0.12128839 0.3261471 0.26381603 0.0 0.0 0.0 
0.05712907 0.31046692 0.12762028 0.0 0.0 0.0 
0.0 0.24213758 0.10177199 0.0 0.0 0.0 
0.0 0.19572307 0.053182714 0.0 0.020928796 0.0 
0.0 0.07448769 0.0 0.0 0.016836267 0.0 
0.0 0.0 0.0 0.0 0.0 0.07386138 
0.0 0.0 0.0 0.0 0.0 0.07698792 
0.0 0.0 0.0 0.0 0.0 0.07698792 
0.0 0.0 0.0 0.0 0.0 0.07698792 
0.0 0.0 0.0 0.0 0.0 0.07698792 
0.0 0.0 0.0 0.0 0.0 0.07698792 
0.0 0.0 0.0 0.0 0.0 0.07698792 
0.0 0.0 0.0 0.0 0.0 0.07698792 
0.0 0.0 0.0 0.0 0.0 0.07698792 
0.0 0.0 0.0 0.0 0.0 0.07698792 
0.08034076 0.0 0.0 0.0 0.0 0.12432828 
0.71496785 0.0 0.0 0.09208151 0.0 0.32575858 
1.1539171 0.0 0.0 0.22393839 0.0 0.07459116 
0.9509043 0.34077898 0.485097 0.35673535 0.14934108 0.0 
0.67674387 0.73117965 1.1167536 0.25423774 0.63432914 0.0 
0.27861416 1.387125 1.6773278 0.01538637 0.87196386 0.0 
0.024239466 1.4724528 1.6021295 0.0 0.7980679 0.0 
0.0 1.3864847 1.675257 0.0 0.5872724 0.0 
0.20322907 1.1264634 1.3470578 0.0 0.3149676 0.0 
0.4199286 0.9036202 0.87278116 0.0 0.06028005 0.0 
0.28014177 0.9394991 0.8393782 0.0 0.21830253 0.0 
0.16220084 0.9235191 0.89415824 0.0 0.28416744 0.0 
0.16421168 0.87019724 0.8737694 0.0 0.15207145 0.0 
0.22395176 0.63983864 0.81119967 0.0 0.049517903 0.0 
0.32716987 0.7895804 0.7017688 0.0 0.055454303 0.0 
0.0 0.99800557 0.57012755 0.0 0.24431615 0.0 
0.0 0.6863957 0.48462343 0.0 0.37487438 0.0 
0.0 0.27707168 0.16801912 0.0 0.2896541 0.0 
0.0 0.079057954 0.0 0.0 0.035202887 0.0 
0.0 0.0 0.0 0.0 0.0 0.07698792 
0.0 0.0 0.0 0.0 0.0 0.07698792 
0.0 0.0 0.0 0.0 0.0 0.07698792 
0.0 0.0 0.0 0.0 0.0 0.07698792 
0.0 0.0 0.0 0.0 0.0 0.07698792 
0.0 0.0 0.0 0.0 0.0 0.07698792 
0.0 0.0 0.0 0.0 0.0 0.07698792 
0.0 0.0 0.0 0.0 0.0 0.07698792 
0.0 0.0 0.0 0.0 0.0 0.07698792 
0.1638933 0.0 0.0 0.09115517 0.0 0.29227346 
0.71655744 0.0 0.0 0.5007782 0.07776928 0.7483709 
0.9857238 0.0 0.0 0.88224363 0.5480308 0.9968436 
0.8018879 0.20848264 0.0 1.327158 0.8690031 1.0446656 
0.7374508 0.67717785 0.29191566 1.7726771 1.1858978 1.1958854 
0.18014044 1.151026 1.0094188 1.7038156 1.4467974 0.8516869 
0.0 1.1908969 1.3516531 1.5142636 1.2412292 0.4083053 
0.044720083 0.9497452 1.6546681 1.1845945 1.0973468 0.21940702 
0.008641519 0.94082093 1.4991866 0.9828702 1.0176629 0.0 
0.14121188 0.6729116 1.0121131 0.7191689 1.0498018 0.0 
0.044264197 0.8761501 1.098911 0.68990225 1.1210898 0.0 
0.0 0.81215584 1.1930565 0.5299687 0.8697425 0.0 
0.3354272 0.6366311 1.2806734 0.3015422 0.5541439 0.0 
0.657689 0.7390967 1.1917901 0.0 0.38914678 0.0 
0.4688049 1.2638258 1.272367 0.0 0.45343187 0.0 
0.0 1.5136739 1.3010191 0.0 0.95476156 0.0 
0.0 1.3473868 1.2004453 0.0 0.90915966 0.0 
0.0 0.7221785 0.7164332 0.0 0.64169085 0.0 
0.0 0.1371574 0.10061259 0.0 0.27678394 0.0 
0.0 0.016425837 0.0 0.0 0.0 0.054059952 
0.0 0.0 0.0 0.0 0.0 0.07698792 
0.0 0.0 0.0 0.0 0.0 0.07698792 
0.0 0.0 0.0 0.0 0.0 0.07698792 
0.0 0.0 0.0 0.0 0.0 0.07698792 
0.0 0.0 0.0 0.0 0.0 0.07698792 
0.0 0.0 0.0 0.0 0.0 0.07698792 
0.0 0.0 0.0 0.0 0.0 0.07698792 
0.0 0.0 0.0 0.0 0.0 0.07698792 
0.15790412 0.0 0.0 0.14063305 0.031609964 0.3328488 
0.73169 0.0 0.0 0.11341359 0.6396973 0.9707406 
0.9100377 0.0 0.0 0.27971533 1.0580823 1.3511131 
0.82329357 0.0 0.0 0.4781864 1.3502506 1.5892894 
0.68187267 0.055511035 0.0 0.78095627 1.8321909 1.9308212 
0.20225772 0.3128602 0.0 1.1423752 1.8146607 1.7110474 
0.0 0.38968587 0.0 1.3761363 1.5428915 1.4829669 
0.12175894 0.49427125 0.43311116 1.6152732 1.4476956 1.4703369 
0.09140296 0.6279184 0.73176855 1.7585694 1.4570347 1.2346683 
0.14211471 0.9132379 0.46945935 1.7691426 1.4080745 1.1432345 
0.0 0.9634773 0.7042348 1.5965121 1.2945142 1.0071151 
0.30237237 0.52721983 0.76323074 1.2516798 0.86295164 0.83597094 
0.99231404 0.5915503 0.9785756 1.1081984 0.49046698 0.55382025 
1.083013 0.8814946 0.99906397 0.8439347 0.7353337 0.015284285 
0.5037605 1.5985394 1.2546602 0.5691728 1.1327835 0.0 
0.0 1.991225 1.7498308 0.36557898 1.542807 0.0 
0.0 1.7276831 1.8737113 0.28445956 1.379814 0.0 
0.0 1.0811563 1.3628393 0.09492554 0.9443112 0.0 
0.0 0.27772793 0.39249906 0.0 0.39394385 0.0 
0.0 0.0 0.0 0.0 0.0057857446 0.061158508 
0.0 0.0 0.0 0.0 0.0 0.07698792 
0.0 0.0 0.0 0.0 0.0 0.07698792 
0.0 0.0 0.0 0.0 0.0 0.07698792 
0.0 0.0 0.0 0.0 0.0 0.07698792 
0.0 0.0 0.0 0.0 0.0 0.07698792 
0.0 0.0 0.0 0.0 0.0 0.07698792 
0.0 0.0 0.0 0.0 0.0 0.07698792 
0.0 0.0 0.0 0.0 0.0 0.07698792 
0.12938482 0.0 0.0 0.0 0.20920669 0.2301472 
0.46106684 0.0 0.0 0.0 0.5643924 0.5630847 
0.5874695 0.0 0.0 0.0 0.8780958 0.85411006 
0.61820173 0.0 0.0 0.0 1.1458732 1.2132106 
0.5361112 0.0 0.0 0.0 1.4061435 1.5074086 
0.30521575 0.0 0.0 0.0 1.3826646 1.5786207 
0.2902657 0.0 0.0 0.0 1.3680434 1.6613145 
0.32796186 0.010074078 0.0 0.09271569 1.4181516 1.7394419 
0.22093976 0.2044416 0.0 0.24105445 1.4392287 1.5818903 
0.18166643 0.2641979 0.0 0.24709216 1.4919765 1.5458844 
0.2850523 0.14394777 0.0 0.12897202 1.119277 1.4085915 
0.9294576 0.0 0.0 0.17066932 0.66143 1.2229981 
1.4905443 0.0 0.0 0.12818778 0.88614774 1.0437903 
1.4666893 0.7065211 0.0 0.28530195 1.346378 0.5549829 
0.6274103 1.6962323 0.38217252 0.3991178 1.8828036 0.20331687 
0.0 2.128992 1.3681781 0.42300162 2.1323483 0.0 
0.0 1.753249 1.8893237 0.47730485 1.6829861 0.0 
0.0 0.91740185 1.6207225 0.35655257 1.0710776 0.052587956 
0.0 0.33972242 0.6559269 0.2527559 0.29434478 0.080293834 
0.0 0.03516864 0.013385884 0.034758605 0.0 0.07478387 
0.0 0.0 0.0 0.0 0.0 0.07698792 
0.0 0.0 0.0 0.0 0.0 0.07698792 
0.0 0.0 0.0 0.0 0.0 0.07698792 
0.0 0.0 0.0 0.0 0.0 0.07698792 
0.0 0.0 0.0 0.0 0.0 0.07698792 
0.0 0.0 0.0 0.0 0.0 0.07698792 
0.0 0.0 0.0 0.0 0.0 0.07698792 
0.0 0.0 0.0 0.0 0.0 0.07698792 
0.0 0.0 0.0 0.0 0.0 0.09926746 
0.09141339 0.0 0.0 0.0 0.1897183 0.18988526 
0.19510195 0.0 0.0 0.0 0.360149 0.27801248 
0.27631143 0.0 0.0 0.0 0.5847823 0.38643068 
0.30076376 0.0 0.0 0.0 0.7748231 0.5156073 
0.24205074 0.0 0.0 0.0 0.8956867 0.5777119 
0.27394754 0.0 0.0 0.0 0.99469835 0.7123551 
0.29550874 0.0 0.0 0.0 1.1026107 0.85520846 
0.20596486 0.0 0.0 0.0 1.1421565 0.8472041 
0.14396924 0.0 0.0 0.0 0.93159217 0.74849254 
0.57261753 0.0 0.0 0.0 0.53292876 0.7698781 
1.4562187 0.0 0.0 0.0 0.65588987 0.9162615 
1.9878769 0.0 0.0 0.0 1.1772041 0.79969734 
1.6184137 0.5622697 0.0 0.0 1.8128245 0.5190482 
0.5235172 1.5704635 0.0 0.0 2.6521301 0.40137503 
0.0 1.9341404 0.7774052 0.03139255 2.5172565 0.098241836 
0.0 1.4426725 1.4396787 0.07816142 1.7804943 0.14878899 
0.0 0.5783251 1.2749522 0.06594215 1.0161041 0.2554515 
0.0 0.15005347 0.58321625 0.16043748 0.15358223 0.15384787 
0.0 0.024651427 0.019624427 0.029605936 0.0 0.088247366 
0.0 0.0 0.0 0.0 0.0 0.07698792 
0.0 0.0 0.0 0.0 0.0 0.07698792 
0.0 0.0 0.0 0.0 0.0 0.07698792 
0.0 0.0 0.0 0.0 0.0 0.07698792 
0.0 0.0 0.0 0.0 0.0 0.07698792 
0.0 0.0 0.0 0.0 0.0 0.07698792 
0.0 0.0 0.0 0.0 0.0 0.07698792 
0.0 0.0 0.0 0.0 0.0 0.07698792 
0.0 0.0 0.0 0.0 0.0 0.07698792 
0.0 0.0 0.0 0.0 0.0 0.07698792 
0.0 0.0 0.0 0.0 0.0 0.07884455 
0.0 0.0 0.0 0.0 0.0 0.08490042 
0.0 0.0 0.0 0.0 0.0 0.08922488 
0.0 0.0 0.0 0.0 0.0014391206 0.10406664 
0.012858234 0.0 0.0 0.0 0.08861421 0.14650157 
0.08170216 0.0 0.0 0.0 0.21390535 0.20346329 
0.016596943 0.0 0.0 0.0 0.1322992 0.1733687 
0.13889834 0.0 0.0 0.0 0.0 0.14035603 
0.92032707 0.0 0.0 0.0 0.0 0.3573771 
1.8314245 0.0 0.0 0.0 0.38584486 0.5222229 
2.0996003 0.13794684 0.0 0.0 1.1688066 0.43566972 
1.4153757 0.96605104 0.0 0.0 2.128697 0.4908812 
0.054357752 1.6911529 0.0 0.0 2.8692114 0.37929666 
0.0 1.7108562 0.7779291 0.03954113 2.4615848 0.17585358 
0.0 1.0409807 1.261153 0.019246835 1.610969 0.35227776 
0.0 0.26828554 0.9419194 0.01023838 0.7709027 0.25546777 
0.0 0.0 0.24745959 0.0 0.105703026 0.13974094 
0.0 0.0 0.0 0.0 0.0 0.08033631 
0.0 0.0 0.0 0.0 0.0 0.07698792 
0.0 0.0 0.0 0.0 0.0 0.07698792 
0.0 0.0 0.0 0.0 0.0 0.07698792 
0.0 0.0 0.0 0.0 0.0 0.07698792 
0.0 0.0 0.0 0.0 0.0 0.07698792 
0.0 0.0 0.0 0.0 0.0 0.07698792 
0.0 0.0 0.0 0.0 0.0 0.07698792 
0.0 0.0 0.0 0.0 0.0 0.07698792 
0.0 0.0 0.0 0.0 0.0 0.07698792 
0.0 0.0 0.0 0.0 0.0 0.07698792 
0.0 0.0 0.0 0.0 0.0 0.07698792 
0.0 0.0 0.0 0.0 0.0 0.07698792 
0.0 0.0 0.0 0.0 0.0 0.07698792 
0.0 0.0 0.0 0.0 0.0 0.07698792 
0.0 0.0 0.0 0.0 0.0 0.07698792 
0.0 0.0 0.0 0.0 0.0 0.07698792 
0.0 0.0 0.0105786845 0.0 0.0 0.045681983 
0.37645406 0.0 0.0062376633 0.0 0.0 0.041778512 
1.2987511 0.0 0.0 0.0 0.0 0.32850736 
2.0515337 0.0 0.0 0.0 0.5545776 0.4579065 
1.8536301 0.59989107 0.0 0.0 1.4737818 0.3917883 
0.98245174 1.303708 0.0 0.04622412 2.5490587 0.5765898 
0.0 1.8680311 0.19323319 0.07662891 2.8040855 0.37069482 
0.0 1.4454157 1.0125566 0.14934064 2.087794 0.2399317 
0.0 0.6121934 1.2430733 0.097312115 1.2600375 0.4110961 
0.0 0.1919927 0.8384374 0.15212177 0.39157388 0.21041045 
0.0 0.0 0.06306849 0.0 0.0024181306 0.0902854 
0.0 0.0 0.0 0.0 0.0 0.07698792 
0.0 0.0 0.0 0.0 0.0 0.07698792 
0.0 0.0 0.0 0.0 0.0 0.07698792 
0.0 0.0 0.0 0.0 0.0 0.07698792 
0.0 0.0 0.0 0.0 0.0 0.07698792 
0.0 0.0 0.0 0.0 0.0 0.07698792 
0.0 0.0 0.0 0.0 0.0 0.07698792 
0.0 0.0 0.0 0.0 0.0 0.07698792 
0.0 0.0 0.0 0.0 0.0 0.07698792 
0.0 0.0 0.0 0.0 0.0 0.07698792 
0.0 0.0 0.0 0.0 0.0 0.07698792 
0.0 0.0 0.0 0.0 0.0 0.07698792 
0.0 0.0 0.0 0.0 0.0 0.07698792 
0.0 0.0 0.0 0.0 0.0 0.07698792 
0.0 0.0 0.0 0.0 0.0 0.07698792 
0.0 0.0 0.0 0.0 0.0 0.07698792 
0.0 0.0 0.0 0.0 0.0 0.07698792 
0.12641355 0.0 0.0447985 0.0 0.0 0.043663397 
0.8109119 0.0 0.0 0.0 0.0 0.09845309 
1.7081311 0.0 0.0 0.0 0.09535614 0.33883685 
2.066354 0.16886061 0.0 0.0 0.9451738 0.3356121 
1.5688806 0.9176579 0.0 0.0 1.935921 0.3267751 
0.5048799 1.7193389 0.0 0.0 2.7559493 0.3785818 
0.0 1.8486122 0.52513534 0.0 2.5620756 0.19567141 
0.0 1.1866237 1.1116314 0.0 1.6949916 0.21765155 
0.0 0.43315497 1.0386322 0.0 0.8788008 0.33420414 
0.0 0.013025784 0.53837425 0.07052616 0.16333207 0.16298065 
0.0 0.0 0.0 0.0 0.0 0.08147698 
0.0 0.0 0.0 0.0 0.0 0.07698792 
0.0 0.0 0.0 0.0 0.0 0.07698792 
0.0 0.0 0.0 0.0 0.0 0.07698792 
0.0 0.0 0.0 0.0 0.0 0.07698792 
0.0 0.0 0.0 0.0 0.0 0.07698792 
0.0 0.0 0.0 0.0 0.0 0.07698792 
0.0 0.0 0.0 0.0 0.0 0.07698792 
0.0 0.0 0.0 0.0 0.0 0.07698792 
0.0 0.0 0.0 0.0 0.0 0.07698792 
0.0 0.0 0.0 0.0 0.0 0.07698792 
0.0 0.0 0.0 0.0 0.0 0.07698792 
0.0 0.0 0.0 0.0 0.0 0.07698792 
0.0 0.0 0.0 0.0 0.0 0.07698792 
0.0 0.0 0.0 0.0 0.0 0.07698792 
0.0 0.0 0.0 0.0 0.0 0.07698792 
0.0 0.0 0.0 0.0 0.0 0.07698792 
0.0 0.0 0.0 0.0 0.0 0.07133134 
0.31456524 0.0 0.0 0.0 0.0 0.14504781 
1.2192254 0.0 0.0 0.024173226 0.0 0.30972373 
1.9879293 0.0 0.0 0.0 0.47678098 0.44625747 
1.9457483 0.5588401 0.0 0.0 1.302662 0.37433898 
1.1511092 1.2636131 0.0 0.0 2.3021355 0.34782553 
0.0 1.7931833 0.059186146 0.0 2.8195221 0.2740726 
0.0 1.6835583 0.8526819 0.0 2.2567625 0.08972576 
0.0 0.88975483 1.2034621 0.0 1.4428554 0.2317419 
0.0 0.16045886 0.782462 0.0 0.68926466 0.21510556 
0.0 0.0 0.1744551 0.0 0.06305687 0.11248566 
0.0 0.0 0.0 0.0 0.0 0.07782502 
0.0 0.0 0.0 0.0 0.0 0.07698792 
0.0 0.0 0.0 0.0 0.0 0.07698792 
0.0 0.0 0.0 0.0 0.0 0.07698792 
0.0 0.0 0.0 0.0 0.0 0.07698792 
0.0 0.0 0.0 0.0 0.0 0.07698792 
0.0 0.0 0.0 0.0 0.0 0.07698792 
0.0 0.0 0.0 0.0 0.0 0.07698792 
0.0 0.0 0.0 0.0 0.0 0.07698792 
0.0 0.0 0.0 0.0 0.0 0.07698792 
0.0 0.0 0.0 0.0 0.0 0.07698792 
0.0 0.0 0.0 0.0 0.0 0.07698792 
0.0 0.0 0.0 0.0 0.0 0.07698792 
0.0 0.0 0.0 0.0 0.0 0.07698792 
0.0 0.0 0.0 0.0 0.0 0.07698792 
0.0 0.0 0.0 0.0 0.0 0.07698792 
0.0 0.0 0.0 0.0 0.0 0.07698792 
0.0 0.0 0.0 0.0 0.0 0.056995157 
0.6220898 0.0 0.0 0.0 0.0 0.28202027 
1.6120694 0.0 0.0 0.0150779905 0.0024513938 0.50447774 
2.048007 0.0 0.0 0.026096132 0.818097 0.4443334 
1.7954543 0.77541596 0.0 0.043126274 1.6315662 0.4090104 
0.8273004 1.51248 0.0 0.0 2.647589 0.36029643 
0.0 1.913486 0.49457097 0.0 2.6181753 0.01833336 
0.0 1.4797949 1.2830393 0.0 1.9807278 0.0 
0.0 0.7142232 1.3523293 0.0 1.2501874 0.20512924 
0.0 0.14643162 0.71492654 0.04124835 0.38244262 0.111874714 
0.0 0.0 0.0 0.0 0.0 0.08475596 
0.0 0.0 0.0 0.0 0.0 0.07698792 
0.0 0.0 0.0 0.0 0.0 0.07698792 
0.0 0.0 0.0 0.0 0.0 0.07698792 
0.0 0.0 0.0 0.0 0.0 0.07698792 
0.0 0.0 0.0 0.0 0.0 0.07698792 
0.0 0.0 0.0 0.0 0.0 0.07698792 
0.0 0.0 0.0 0.0 0.0 0.07698792 
0.0 0.0 0.0 0.0 0.0 0.07698792 
0.0 0.0 0.0 0.0 0.0 0.07698792 
0.0 0.0 0.0 0.0 0.0 0.07698792 
0.0 0.0 0.0 0.0 0.0 0.07698792 
0.0 0.0 0.0 0.0 0.0 0.07698792 
0.0 0.0 0.0 0.0 0.0 0.07698792 
0.0 0.0 0.0 0.0 0.0 0.07698792 
0.0 0.0 0.0 0.0 0.0 0.07698792 
0.0 0.0 0.0 0.0 0.0 0.07698792 
0.0 0.0 0.0 0.0 0.0 0.07698792 
0.08314043 0.0 0.027551778 0.0 0.0 0.050463628 
1.0005281 0.0 0.0 0.0 0.0 0.38025564 
1.9225819 0.0 0.0 0.0 0.2944055 0.6474485 
2.0503244 0.23958105 0.0 0.0 1.0942671 0.44974965 
1.5825789 1.0047189 0.0 0.0 1.9582299 0.5182404 
0.3455179 1.7829612 0.10032899 0.035567008 2.7323408 0.37416542 
0.0 1.9474562 0.75872767 0.0012469972 2.4886303 0.083761275 
0.0 1.4287317 1.4463831 0.02660634 1.7323937 0.10937315 
0.0 0.55653334 1.2900792 0.017307363 0.9865474 0.21151742 
0.0 0.09816122 0.53630257 0.08092869 0.20314957 0.11436403 
0.0 0.0 0.0 0.0 0.0 0.07805332 
0.0 0.0 0.0 0.0 0.0 0.07698792 
0.0 0.0 0.0 0.0 0.0 0.07698792 
0.0 0.0 0.0 0.0 0.0 0.07698792 
0.0 0.0 0.0 0.0 0.0 0.07698792 
0.0 0.0 0.0 0.0 0.0 0.07698792 
0.0 0.0 0.0 0.0 0.0 0.07698792 
0.0 0.0 0.0 0.0 0.0 0.07698792 
0.0 0.0 0.0 0.0 0.0 0.07698792 
0.0 0.0 0.0 0.0 0.0 0.07698792 
0.0 0.0 0.0 0.0 0.0 0.07698792 
0.0 0.0 0.0 0.0 0.0 0.07698792 
0.0 0.0 0.0 0.0 0.0 0.07698792 
0.0 0.0 0.0 0.0 0.0 0.07698792 
0.0 0.0 0.0 0.0 0.0 0.07698792 
0.0 0.0 0.0 0.0 0.0 0.07698792 
0.0 0.0 0.0 0.0 0.0 0.07698792 
0.0 0.0 0.0 0.0 0.0 0.07698792 
0.2510019 0.0 0.0 0.0 0.0 0.11579833 
1.3828437 0.0 0.0 0.0 0.0 0.4825427 
2.127306 0.0 0.0 0.0 0.6182368 0.63650566 
1.94983 0.4627196 0.0 0.0 1.3864857 0.38498437 
1.2810569 1.1544845 0.0 0.0 2.3898253 0.5600256 
0.0 1.7428324 0.23865896 0.0 2.9360535 0.34386894 
0.0 1.7443049 0.865607 0.010931564 2.376178 0.040979505 
0.0 1.0572916 1.3725839 0.0 1.5942796 0.19273216 
0.0 0.35476232 1.0553535 0.03172156 0.8059216 0.22132818 
0.0 0.0 0.3035208 0.0152561115 0.104427114 0.10325758 
0.0 0.0 0.0 0.0 0.0 0.07698792 
0.0 0.0 0.0 0.0 0.0 0.07698792 
0.0 0.0 0.0 0.0 0.0 0.07698792 
0.0 0.0 0.0 0.0 0.0 0.07698792 
0.0 0.0 0.0 0.0 0.0 0.07698792 
0.0 0.0 0.0 0.0 0.0 0.07698792 
0.0 0.0 0.0 0.0 0.0 0.07698792 
0.0 0.0 0.0 0.0 0.0 0.07698792 
0.0 0.0 0.0 0.0 0.0 0.07698792 
0.0 0.0 0.0 0.0 0.0 0.07698792 
0.0 0.0 0.0 0.0 0.0 0.07698792 
0.0 0.0 0.0 0.0 0.0 0.07698792 
0.0 0.0 0.0 0.0 0.0 0.07698792 
0.0 0.0 0.0 0.0 0.0 0.07698792 
0.0 0.0 0.0 0.0 0.0 0.07698792 
0.0 0.0 0.0 0.0 0.0 0.07698792 
0.0 0.0 0.0 0.0 0.0 0.07698792 
0.0 0.0 0.0 0.0 0.0 0.07698792 
0.45433563 0.0 0.0 0.01879489 0.0 0.29305384 
1.6333511 0.0 0.0 0.08814669 0.04391772 0.6676164 
2.1661825 0.0 0.0 0.05059318 0.8601841 0.6850617 
1.8090382 0.7135777 0.0 0.057979908 1.582853 0.48590693 
0.94825023 1.4318833 0.0 0.0 2.6541617 0.5345676 
0.0 1.9147016 0.44145304 0.0 2.784845 0.25682363 
0.0 1.6297776 1.0916348 0.014013072 2.1137016 0.077100575 
0.0 0.8505362 1.3717917 0.022490446 1.3437788 0.29637647 
0.0 0.22095749 0.90557575 0.1088697 0.4892288 0.18389781 
0.0 0.0 0.12114709 0.023344424 0.0 0.0979618 
0.0 0.0 0.0 0.0 0.0 0.07698792 
0.0 0.0 0.0 0.0 0.0 0.07698792 
0.0 0.0 0.0 0.0 0.0 0.07698792 
0.0 0.0 0.0 0.0 0.0 0.07698792 
0.0 0.0 0.0 0.0 0.0 0.07698792 
0.0 0.0 0.0 0.0 0.0 0.07698792 
0.0 0.0 0.0 0.0 0.0 0.07698792 
0.0 0.0 0.0 0.0 0.0 0.07698792 
0.0 0.0 0.0 0.0 0.0 0.07698792 
0.0 0.0 0.0 0.0 0.0 0.07698792 
0.0 0.0 0.0 0.0 0.0 0.07698792 
0.0 0.0 0.0 0.0 0.0 0.07698792 
0.0 0.0 0.0 0.0 0.0 0.07698792 
0.0 0.0 0.0 0.0 0.0 0.07698792 
0.0 0.0 0.0 0.0 0.0 0.07698792 
0.0 0.0 0.0 0.0 0.0 0.07698792 
0.0 0.0 0.0 0.0 0.0 0.07698792 
0.0 0.0 0.0 0.0 0.0 0.07698792 
0.66183716 0.0 0.0 0.08103422 0.0 0.49861774 
1.8253512 0.0 0.0 0.104658276 0.29337367 0.886392 
2.1286743 0.0 0.0 0.11062525 1.0544751 0.7520649 
1.7548497 0.7705236 0.0 0.10245964 1.727415 0.6259715 
0.6099097 1.6819035 0.0 0.0 2.7969568 0.44016418 
0.0 1.8842244 0.5985713 0.0 2.692608 0.10325059 
0.0 1.4310986 1.225323 0.0 1.8919588 0.06437963 
0.0 0.5635265 1.1735758 0.0 1.1530757 0.27023533 
0.0 0.06508648 0.60392994 0.059514325 0.27721688 0.16426867 
0.0 0.0 0.005711399 0.0 0.0 0.08554455 
0.0 0.0 0.0 0.0 0.0 0.07698792 
0.0 0.0 0.0 0.0 0.0 0.07698792 
0.0 0.0 0.0 0.0 0.0 0.07698792 
0.0 0.0 0.0 0.0 0.0 0.07698792 
0.0 0.0 0.0 0.0 0.0 0.07698792 
0.0 0.0 0.0 0.0 0.0 0.07698792 
0.0 0.0 0.0 0.0 0.0 0.07698792 
0.0 0.0 0.0 0.0 0.0 0.07698792 
0.0 0.0 0.0 0.0 0.0 0.07698792 
0.0 0.0 0.0 0.0 0.0 0.07698792 
0.0 0.0 0.0 0.0 0.0 0.07698792 
0.0 0.0 0.0 0.0 0.0 0.07698792 
0.0 0.0 0.0 0.0 0.0 0.07698792 
0.0 0.0 0.0 0.0 0.0 0.07698792 
0.0 0.0 0.0 0.0 0.0 0.07698792 
0.0 0.0 0.0 0.0 0.0 0.07698792 
0.0 0.0 0.0 0.0 0.0 0.07698792 
0.0 0.0 0.0 0.0 0.0 0.07698792 
0.8115371 0.0 0.0 0.059140358 0.0 0.6326585 
1.9404166 0.0 0.0 0.06399146 0.45590052 1.0412393 
2.0876634 0.0 0.0 0.03679065 1.1316631 0.80687106 
1.6882856 0.7997664 0.0 0.09594174 1.8506808 0.767964 
0.18207279 1.775762 0.19505545 0.0 2.8155549 0.36983156 
0.0 1.854491 0.82754815 0.0 2.468478 0.021001488 
0.0 1.2419233 1.4368225 0.0 1.6574453 0.15503308 
0.0 0.3740989 1.0891889 0.0 0.9157632 0.20442106 
0.0 0.0 0.3398238 0.030150145 0.10433391 0.12470622 
0.0 0.0 0.0 0.0 0.0 0.07812942 
0.0 0.0 0.0 0.0 0.0 0.07698792 
0.0 0.0 0.0 0.0 0.0 0.07698792 
0.0 0.0 0.0 0.0 0.0 0.07698792 
0.0 0.0 0.0 0.0 0.0 0.07698792 
0.0 0.0 0.0 0.0 0.0 0.07698792 
0.0 0.0 0.0 0.0 0.0 0.07698792 
0.0 0.0 0.0 0.0 0.0 0.07698792 
0.0 0.0 0.0 0.0 0.0 0.07698792 
0.0 0.0 0.0 0.0 0.0 0.07698792 
0.0 0.0 0.0 0.0 0.0 0.07698792 
0.0 0.0 0.0 0.0 0.0 0.07698792 
0.0 0.0 0.0 0.0 0.0 0.07698792 
0.0 0.0 0.0 0.0 0.0 0.07698792 
0.0 0.0 0.0 0.0 0.0 0.07698792 
0.0 0.0 0.0 0.0 0.0 0.07698792 
0.0 0.0 0.0 0.0 0.0 0.07698792 
0.0 0.0 0.0 0.0 0.0 0.07698792 
0.0 0.0 0.0 0.0 0.0 0.07698792 
0.87340814 0.0 0.0 0.0046922015 0.07348141 0.67412317 
1.9893365 0.0 0.0 0.026985098 0.5227122 1.0793588 
2.079997 0.0 0.0 0.0 1.1661556 0.8124889 
1.618788 0.84838265 0.0 0.043218117 1.9768947 0.78606826 
0.0 1.8629179 0.32784307 0.0 2.7390902 0.20175204 
0.0 1.7512522 1.0838003 0.0 2.2353432 0.0 
0.0 1.0298487 1.5197484 0.0 1.4576285 0.15796892 
0.0 0.32136938 1.0058433 0.0 0.6627823 0.12522343 
0.0 0.0 0.1170632 0.0 0.014101502 0.09787423 
0.0 0.0 0.0 0.0 0.0 0.07698792 
0.0 0.0 0.0 0.0 0.0 0.07698792 
0.0 0.0 0.0 0.0 0.0 0.07698792 
0.0 0.0 0.0 0.0 0.0 0.07698792 
0.0 0.0 0.0 0.0 0.0 0.07698792 
0.0 0.0 0.0 0.0 0.0 0.07698792 
0.0 0.0 0.0 0.0 0.0 0.07698792 
0.0 0.0 0.0 0.0 0.0 0.07698792 
0.0 0.0 0.0 0.0 0.0 0.07698792 
0.0 0.0 0.0 0.0 0.0 0.07698792 
0.0 0.0 0.0 0.0 0.0 0.07698792 
0.0 0.0 0.0 0.0 0.0 0.07698792 
0.0 0.0 0.0 0.0 0.0 0.07698792 
0.0 0.0 0.0 0.0 0.0 0.07698792 
0.0 0.0 0.0 0.0 0.0 0.07698792 
0.0 0.0 0.0 0.0 0.0 0.07698792 
0.0 0.0 0.0 0.0 0.0 0.07698792 
0.0 0.0 0.0 0.0 0.0 0.07698792 
0.0 0.0 0.0 0.0 0.0 0.07698792 
0.82055944 0.0 0.0 0.038163524 0.12094472 0.7050458 
1.9036732 0.0 0.0 0.093719915 0.56634897 1.1731532 
2.083349 0.0 0.0 0.07321592 1.1738799 0.9242434 
1.5037577 0.90836054 0.0 0.096524015 1.9548267 0.81216544 
0.0 1.9082525 0.42727482 0.0 2.5280674 0.11413939 
0.0 1.7052119 1.2809356 0.0 2.0006115 0.0 
0.0 0.9324388 1.5352008 0.0 1.2838272 0.08421898 
0.0 0.22742994 0.87715733 0.0 0.5368389 0.054566424 
0.0 0.0 0.0 0.0 0.0 0.08322568 
0.0 0.0 0.0 0.0 0.0 0.07698792 
0.0 0.0 0.0 0.0 0.0 0.07698792 
0.0 0.0 0.0 0.0 0.0 0.07698792 
0.0 0.0 0.0 0.0 0.0 0.07698792 
0.0 0.0 0.0 0.0 0.0 0.07698792 
0.0 0.0 0.0 0.0 0.0 0.07698792 
0.0 0.0 0.0 0.0 0.0 0.07698792 
0.0 0.0 0.0 0.0 0.0 0.07698792 
0.0 0.0 0.0 0.0 0.0 0.07698792 
0.0 0.0 0.0 0.0 0.0 0.07698792 
0.0 0.0 0.0 0.0 0.0 0.07698792 
0.0 0.0 0.0 0.0 0.0 0.07698792 
0.0 0.0 0.0 0.0 0.0 0.07698792 
0.0 0.0 0.0 0.0 0.0 0.07698792 
0.0 0.0 0.0 0.0 0.0 0.07698792 
0.0 0.0 0.0 0.0 0.0 0.07698792 
0.0 0.0 0.0 0.0 0.0 0.07698792 
0.0 0.0 0.0 0.0 0.0 0.07698792 
0.0 0.0 0.0 0.0 0.0 0.07698792 
0.68930376 0.0 0.0 0.086741835 0.26375708 0.73122543 
1.6448405 0.0 0.0 0.19001956 0.67394954 1.3229105 
1.9767807 0.0 0.0 0.2610094 1.1697929 1.18291 
1.4314651 0.65452296 0.0 0.2186431 1.8951473 0.9981394 
0.0 1.7470853 0.49714136 0.19899702 2.2059255 0.15785721 
0.0 1.5527627 1.422003 0.0 1.8784063 0.0 
0.0 0.85864234 1.515688 0.0 1.2309371 0.068437696 
0.0 0.13177957 0.72260576 0.0 0.46295604 0.02601659 
0.0 0.0 0.0 0.0 0.0 0.078004815 
0.0 0.0 0.0 0.0 0.0 0.07698792 
0.0 0.0 0.0 0.0 0.0 0.07698792 
0.0 0.0 0.0 0.0 0.0 0.07698792 
0.0 0.0 0.0 0.0 0.0 0.07698792 
0.0 0.0 0.0 0.0 0.0 0.07698792 
0.0 0.0 0.0 0.0 0.0 0.07698792 
0.0 0.0 0.0 0.0 0.0 0.07698792 
0.0 0.0 0.0 0.0 0.0 0.07698792 
0.0 0.0 0.0 0.0 0.0 0.07698792 
0.0 0.0 0.0 0.0 0.0 0.07698792 
0.0 0.0 0.0 0.0 0.0 0.07698792 
0.0 0.0 0.0 0.0 0.0 0.07698792 
0.0 0.0 0.0 0.0 0.0 0.07698792 
0.0 0.0 0.0 0.0 0.0 0.07698792 
0.0 0.0 0.0 0.0 0.0 0.07698792 
0.0 0.0 0.0 0.0 0.0 0.07698792 
0.0 0.0 0.0 0.0 0.0 0.07698792 
0.0 0.0 0.0 0.0 0.0 0.07698792 
0.0 0.0 0.0 0.0 0.0 0.07698792 
0.5114511 0.0 0.0 0.052405726 0.3554822 0.6197277 
1.2594721 0.0 0.0 0.16507752 0.8149512 1.3626204 
1.4795301 0.0 0.0 0.3860578 1.2709204 1.6156492 
1.1093898 0.14288472 0.0 0.6527513 1.8166469 1.5759885 
0.0 1.1986996 0.12526336 0.88857543 1.904284 0.92558855 
0.0 1.1503469 1.3479238 0.6674375 1.6119461 0.47537178 
0.0 0.5716774 1.4292158 0.33989468 0.9918445 0.31592336 
0.0 0.13673186 0.6151829 0.11528875 0.28492486 0.08346164 
0.0 0.0 0.0 0.0 0.0 0.07706402 
0.0 0.0 0.0 0.0 0.0 0.07698792 
0.0 0.0 0.0 0.0 0.0 0.07698792 
0.0 0.0 0.0 0.0 0.0 0.07698792 
0.0 0.0 0.0 0.0 0.0 0.07698792 
0.0 0.0 0.0 0.0 0.0 0.07698792 
0.0 0.0 0.0 0.0 0.0 0.07698792 
0.0 0.0 0.0 0.0 0.0 0.07698792 
0.0 0.0 0.0 0.0 0.0 0.07698792 
0.0 0.0 0.0 0.0 0.0 0.07698792 
0.0 0.0 0.0 0.0 0.0 0.07698792 
0.0 0.0 0.0 0.0 0.0 0.07698792 
0.0 0.0 0.0 0.0 0.0 0.07698792 
0.0 0.0 0.0 0.0 0.0 0.07698792 
0.0 0.0 0.0 0.0 0.0 0.07698792 
0.0 0.0 0.0 0.0 0.0 0.07698792 
0.0 0.0 0.0 0.0 0.0 0.07698792 
0.0 0.0 0.0 0.0 0.0 0.07698792 
0.0 0.0 0.0 0.0 0.0 0.07698792 
0.0 0.0 0.0 0.0 0.0 0.07698792 
0.28476024 0.0 0.0 0.0 0.30518162 0.39074308 
0.91218704 0.0 0.0 0.0 0.8254599 1.0904434 
1.1093185 0.0 0.0 0.045047212 1.295931 1.5090373 
0.6348239 0.0 0.0 0.23789772 1.592384 1.4490912 
0.0 0.40409875 0.0 0.47006664 1.4543902 1.0496166 
0.0 0.5656057 0.7925676 0.5702118 0.9908113 0.71411407 
0.0 0.3620936 1.0720186 0.3886424 0.4896553 0.4181886 
0.0 0.099259526 0.47472072 0.13865602 0.09927456 0.122805566 
0.0 0.0 0.0 0.0 0.0 0.07698792 
0.0 0.0 0.0 0.0 0.0 0.07698792 
0.0 0.0 0.0 0.0 0.0 0.07698792 
0.0 0.0 0.0 0.0 0.0 0.07698792 
0.0 0.0 0.0 0.0 0.0 0.07698792 
0.0 0.0 0.0 0.0 0.0 0.07698792 
0.0 0.0 0.0 0.0 0.0 0.07698792 
0.0 0.0 0.0 0.0 0.0 0.07698792 
0.0 0.0 0.0 0.0 0.0 0.07698792 
0.0 0.0 0.0 0.0 0.0 0.07698792 
0.0 0.0 0.0 0.0 0.0 0.07698792 
0.0 0.0 0.0 0.0 0.0 0.07698792 
0.0 0.0 0.0 0.0 0.0 0.07698792 
0.0 0.0 0.0 0.0 0.0 0.07698792 
0.0 0.0 0.0 0.0 0.0 0.07698792 
0.0 0.0 0.0 0.0 0.0 0.07698792 
0.0 0.0 0.0 0.0 0.0 0.07698792 
0.0 0.0 0.0 0.0 0.0 0.07698792 
0.0 0.0 0.0 0.0 0.0 0.07698792 
0.0 0.0 0.0 0.0 0.0 0.07698792 
0.07094151 0.0 0.0 0.0 0.14411783 0.18041235 
0.47557026 0.0 0.0 0.0 0.5249599 0.5759791 
0.7200725 0.0 0.0 0.0 0.9360475 1.0125616 
0.4056946 0.0 0.0 0.0 1.0328381 1.0874631 
0.0 0.04921072 0.0 0.0 0.72164935 0.85591304 
0.0 0.005661427 0.01891148 0.0 0.43287656 0.59022313 
0.0 0.0 0.47058123 0.0018794285 0.22258674 0.33721542 
0.0 0.0 0.21991459 0.010565114 0.03249221 0.1158323 
0.0 0.0 0.0 0.0 0.0 0.07698792 
0.0 0.0 0.0 0.0 0.0 0.07698792 
0.0 0.0 0.0 0.0 0.0 0.07698792 
0.0 0.0 0.0 0.0 0.0 0.07698792 
0.0 0.0 0.0 0.0 0.0 0.07698792 
0.0 0.0 0.0 0.0 0.0 0.07698792 
0.0 0.0 0.0 0.0 0.0 0.07698792 
0.0 0.0 0.0 0.0 0.0 0.07698792 
0.0 0.0 0.0 0.0 0.0 0.07698792 
0.0 0.0 0.0 0.0 0.0 0.07698792 
0.0 0.0 0.0 0.0 0.0 0.07698792 
0.0 0.0 0.0 0.0 0.0 0.07698792 
0.0 0.0 0.0 0.0 0.0 0.07698792 
0.0 0.0 0.0 0.0 0.0 0.07698792 
0.0 0.0 0.0 0.0 0.0 0.07698792 
0.0 0.0 0.0 0.0 0.0 0.07698792 
0.0 0.0 0.0 0.0 0.0 0.07698792 
0.0 0.0 0.0 0.0 0.0 0.07698792 
0.0 0.0 0.0 0.0 0.0 0.07698792 
0.0 0.0 0.0 0.0 0.0 0.07698792 
0.0 0.0 0.0 0.0 0.0 0.08627106 
0.12891889 0.0 0.0 0.0 0.24967669 0.21309507 
0.30799064 0.0 0.0 0.0 0.516488 0.3534387 
0.17963493 0.0 0.0 0.0 0.46410576 0.31751606 
0.0 0.0 0.0 0.0 0.3192418 0.28529558 
0.0 0.0 0.0 0.0 0.25602427 0.25165817 
0.0 0.0 0.00066859275 0.0 0.12881659 0.1583782 
0.0 0.0 0.0056159273 0.0 0.0 0.08505449 
0.0 0.0 0.0 0.0 0.0 0.07698792 
0.0 0.0 0.0 0.0 0.0 0.07698792 
0.0 0.0 0.0 0.0 0.0 0.07698792 
0.0 0.0 0.0 0.0 0.0 0.07698792 
0.0 0.0 0.0 0.0 0.0 0.07698792 
0.0 0.0 0.0 0.0 0.0 0.07698792 
0.0 0.0 0.0 0.0 0.0 0.07698792 
0.0 0.0 0.0 0.0 0.0 0.07698792 
0.0 0.0 0.0 0.0 0.0 0.07698792 
0.0 0.0 0.0 0.0 0.0 0.07698792 

