0.0 0.0 0.0 0.0 0.0 0.07698792 
0.0 0.0 0.0 0.0 0.0 0.07698792 
0.0 0.0 0.0 0.0 0.0 0.07698792 
0.0 0.0 0.0 0.0 0.0 0.07698792 
0.0 0.0 0.0 0.0 0.0 0.07698792 
0.0 0.0 0.0 0.0 0.0 0.07698792 
0.0 0.0 0.0 0.0 0.0 0.07698792 
0.0 0.0 0.0 0.0 0.0 0.07698792 
0.0 0.0 0.0 0.0 0.0 0.07698792 
0.0 0.0 0.0 0.0 0.0 0.07698792 
0.0 0.0 0.0 0.0 0.0 0.07698792 
0.0 0.0 0.0 0.0 0.0 0.07698792 
0.0 0.0 0.0 0.0 0.0 0.07698792 
0.0 0.0 0.0 0.0 0.0 0.07698792 
0.0 0.0 0.0 0.0 0.0 0.07698792 
0.0 0.0 0.0 0.0 0.0 0.07698792 
0.0 0.0 0.0 0.0 0.0 0.07698792 
0.0 0.0 0.0 0.0 0.0 0.07698792 
0.0 0.0 0.0 0.0 0.0 0.07698792 
0.0 0.0 0.0 0.0 0.0 0.07698792 
0.0 0.0 0.0 0.0 0.0 0.07698792 
0.0 0.0 0.0 0.0 0.0 0.07698792 
0.0 0.0 0.0 0.0 0.0 0.07698792 
0.0 0.0 0.0 0.0 0.0 0.07698792 
0.0 0.0 0.0 0.0 0.0 0.07698792 
0.0 0.0 0.0 0.0 0.0 0.07698792 
0.0 0.0 0.0 0.0 0.0 0.07698792 
0.0 0.0 0.0 0.0 0.0 0.07698792 
0.0 0.0 0.0 0.0 0.0 0.07698792 
0.0 0.0 0.0 0.0 0.0 0.07698792 
0.0 0.0 0.0 0.0 0.0 0.07698792 
0.0 0.0 0.0 0.0 0.0 0.07698792 
0.0 0.0 0.0 0.0 0.0 0.07698792 
0.0 0.0 0.0 0.0 0.0 0.07698792 
0.0 0.0 0.0 0.0 0.0 0.07698792 
0.0 0.0 0.0 0.0 0.0 0.07698792 
0.0 0.0 0.0 0.0 0.0 0.07698792 
0.0 0.0 0.0 0.0 0.0 0.07698792 
0.0 0.0 0.0 0.0 0.0 0.07698792 
0.0 0.0 0.0 0.0 0.0 0.07698792 
0.0 0.0 0.0 0.0 0.0 0.07698792 
0.0 0.0 0.0 0.0 0.0 0.07698792 
0.0 0.0 0.0 0.0 0.0 0.07698792 
0.0 0.0 0.0 0.0 0.0 0.07698792 
0.0 0.0 0.0 0.0 0.0 0.07698792 
0.0 0.0 0.0 0.0 0.0 0.07698792 
0.0 0.0 0.0 0.0 0.0 0.07698792 
0.0 0.0 0.0 0.0 0.0 0.07698792 
0.0 0.0 0.0 0.0 0.0 0.07698792 
0.0 0.0 0.0 0.0 0.0 0.07698792 
0.0 0.0 0.0 0.0 0.0 0.07698792 
0.0 0.0 0.0 0.0 0.0 0.07698792 
0.0 0.0 0.0 0.0 0.0 0.07698792 
0.0 0.0 0.0 0.0 0.0 0.07698792 
0.0 0.0 0.0 0.0 0.0 0.07698792 
0.0 0.0 0.0 0.0 0.0 0.07698792 
0.0 0.0 0.0 0.0 0.0 0.07698792 
0.0 0.0 0.0 0.0 0.0 0.07698792 
0.0 0.0 0.0 0.0 0.0 0.07698792 
0.0 0.0 0.0 0.0 0.0 0.07698792 
0.0 0.0 0.0 0.0 0.0 0.07698792 
0.0 0.0 0.0 0.0 0.0 0.07698792 
0.0 0.0 0.0 0.0 0.0 0.05398447 
0.043151997 0.010984992 0.030477926 0.0 0.0 0.0 
0.07673533 0.05463966 0.08519352 0.0 0.0 0.0 
0.16391537 0.11213076 0.20721745 0.0 0.0 0.0 
0.28561786 0.2191064 0.32664108 0.0 0.0 0.0 
0.3506722 0.35231844 0.4074347 0.0 0.0 0.0 
0.3264615 0.49410078 0.4575041 0.0 0.0 0.0 
0.22304618 0.5949888 0.42815942 0.0 0.0 0.0 
0.05770178 0.5773672 0.3032386 0.0 0.0 0.0 
0.0 0.41725728 0.18162653 0.0 0.06309229 0.0 
0.0 0.23770821 0.067873634 0.0 0.058909055 0.0 
0.0 0.08305439 0.0 0.0 0.011890154 0.0 
0.0 0.0040812287 0.0 0.0 0.0 0.06552394 
0.0 0.0 0.0 0.0 0.0 0.07698792 
0.0 0.0 0.0 0.0 0.0 0.07698792 
0.0 0.0 0.0 0.0 0.0 0.07698792 
0.0 0.0 0.0 0.0 0.0 0.07698792 
0.0 0.0 0.0 0.0 0.0 0.07698792 
0.0 0.0 0.0 0.0 0.0 0.07698792 
0.0 0.0 0.0 0.0 0.0 0.07698792 
0.0 0.0 0.0 0.0 0.0 0.07698792 
0.0 0.0 0.0 0.0 0.0 0.07698792 
0.0 0.0 0.0 0.0 0.0 0.07698792 
0.0 0.0 0.0 0.0 0.0 0.07698792 
0.0 0.0 0.0 0.0 0.0 0.07698792 
0.0 0.0 0.0 0.0 0.0 0.07698792 
0.0 0.0 0.0 0.0 0.0 0.07698792 
0.0 0.0 0.0 0.0 0.0 0.07698792 
0.09561527 0.0 0.07696269 0.0 0.0 0.016500242 
0.4251478 0.0 0.21694687 0.0 0.0 0.0 
0.5564354 0.18718578 0.33308667 0.0 0.0 0.0 
0.6232683 0.45228913 0.540079 0.0 0.0 0.0 
0.6583957 0.59826976 0.6823026 0.0 0.0 0.0 
0.7431919 0.73930866 0.77995145 0.0 0.0 0.0 
0.6572531 0.9772705 0.94033885 0.0 0.0 0.0 
0.38118178 1.1552358 1.099106 0.0 0.22117211 0.0 
0.065577134 1.2198627 1.1031572 0.0 0.4247525 0.0 
0.0 1.1184275 0.8656665 0.0 0.48928067 0.0 
0.0 0.77216244 0.5670865 0.0 0.43915382 0.0 
0.0 0.398598 0.25076896 0.0 0.2818834 0.0 
0.0 0.17403764 0.037375264 0.0 0.09074396 0.0 
0.0 0.03269828 0.0 0.0 0.0 0.03894834 
0.0 0.0 0.0 0.0 0.0 0.07698792 
0.0 0.0 0.0 0.0 0.0 0.07698792 
0.0 0.0 0.0 0.0 0.0 0.07698792 
0.0 0.0 0.0 0.0 0.0 0.07698792 
0.0 0.0 0.0 0.0 0.0 0.07698792 
0.0 0.0 0.0 0.0 0.0 0.07698792 
0.0 0.0 0.0 0.0 0.0 0.07698792 
0.0 0.0 0.0 0.0 0.0 0.07698792 
0.0 0.0 0.0 0.0 0.0 0.07698792 
0.0 0.0 0.0 0.0 0.0 0.07698792 
0.0 0.0 0.0 0.0 0.0 0.07698792 
0.0 0.0 0.0 0.0 0.0 0.07698792 
0.0 0.0 0.0 0.0 0.0 0.07698792 
0.0 0.0 0.0 0.0 0.0 0.07698792 
0.2280702 0.0 0.0 0.0 0.0 0.12883684 
0.79725856 0.0 0.11510251 0.0 0.0 0.0 
1.0921128 0.029405832 0.22954926 0.0 0.0 0.0 
0.9548853 0.5613003 0.6178239 0.0 0.014006365 0.0 
0.60857433 0.7309223 0.87832624 0.0 0.6504561 0.0 
0.4768895 0.7415462 0.91830266 0.11580311 0.97790927 0.0 
0.3378893 0.82249326 1.0609816 0.49499175 1.1365515 0.0 
0.18319708 1.0027232 1.3841907 0.6606066 1.1329874 0.0 
0.086649135 1.2442905 1.6849699 0.46727613 0.9796528 0.0 
0.0 1.4548849 1.6902725 0.034321386 0.88626766 0.0 
0.0 1.4428585 1.353396 0.0 0.8254168 0.0 
0.0 0.98672795 0.89524543 0.0 0.67822987 0.0 
0.0 0.42393863 0.34986812 0.0 0.45596084 0.0 
0.0 0.0862166 0.015349485 0.0 0.1422505 0.0 
0.0 0.0 0.0 0.0 0.0 0.07698792 
0.0 0.0 0.0 0.0 0.0 0.07698792 
0.0 0.0 0.0 0.0 0.0 0.07698792 
0.0 0.0 0.0 0.0 0.0 0.07698792 
0.0 0.0 0.0 0.0 0.0 0.07698792 
0.0 0.0 0.0 0.0 0.0 0.07698792 
0.0 0.0 0.0 0.0 0.0 0.07698792 
0.0 0.0 0.0 0.0 0.0 0.07698792 
0.0 0.0 0.0 0.0 0.0 0.07698792 
0.0 0.0 0.0 0.0 0.0 0.07698792 
0.0 0.0 0.0 0.0 0.0 0.07698792 
0.0 0.0 0.0 0.0 0.0 0.07698792 
0.0 0.0 0.0 0.0 0.0 0.07698792 
0.0 0.0 0.0 0.0 0.0 0.07698792 
0.3161356 0.0 0.0 0.13806559 0.0 0.39878857 
0.90385336 0.0 0.0 0.39703104 0.0 0.6376178 
1.1513863 0.0 0.0 0.8007458 0.33056432 0.50761104 
0.8310704 0.51971495 0.06335016 1.255974 0.9711301 0.6089883 
0.3183483 1.0674621 0.59792006 1.5346593 1.6344277 0.7637818 
0.08788435 1.1203532 0.49312603 1.5850222 1.9085659 1.052537 
0.09112193 1.0185667 0.40178025 1.7276961 1.7904865 1.2712874 
0.15308928 0.9317934 0.68482786 1.7745688 1.4827304 1.2173066 
0.2767362 0.9060164 1.206489 1.5865974 1.0723335 0.76903707 
0.25206417 1.214996 1.7124275 1.1834778 0.856183 0.0 
0.0 1.696297 1.8733101 0.63908315 0.98577017 0.0 
0.0 1.5955858 1.6796082 0.04652037 0.99525374 0.0 
0.0 0.9143384 1.007951 0.0 0.77913606 0.0 
0.0 0.19202195 0.20294702 0.0 0.359733 0.0 
0.0 0.0 0.0 0.0 0.0 0.07386138 
0.0 0.0 0.0 0.0 0.0 0.07698792 
0.0 0.0 0.0 0.0 0.0 0.07698792 
0.0 0.0 0.0 0.0 0.0 0.07698792 
0.0 0.0 0.0 0.0 0.0 0.07698792 
0.0 0.0 0.0 0.0 0.0 0.07698792 
0.0 0.0 0.0 0.0 0.0 0.07698792 
0.0 0.0 0.0 0.0 0.0 0.07698792 
0.0 0.0 0.0 0.0 0.0 0.07698792 
0.0 0.0 0.0 0.0 0.0 0.07698792 
0.0 0.0 0.0 0.0 0.0 0.07698792 
0.0 0.0 0.0 0.0 0.0 0.07698792 
0.0 0.0 0.0 0.0 0.0 0.07698792 
0.0 0.0 0.0 0.0 0.0 0.07698792 
0.3670267 0.0 0.0 0.17892584 0.13899928 0.5230731 
0.910737 0.0 0.0 0.41236487 0.48853686 1.1139758 
0.93945414 0.0 0.0 0.75588185 1.008836 1.2882771 
0.73254615 0.35208088 0.0 1.0062932 1.6168594 1.4899824 
0.2674276 0.7900535 0.0 1.1473912 2.0410001 1.6675904 
0.12546746 0.6238469 0.0 0.83049214 2.1700532 1.7450697 
0.2660286 0.38928926 0.0 0.55300826 1.9342973 1.7842212 
0.48278594 0.08873906 0.0 0.41183364 1.5256729 1.7496276 
0.83615464 0.017100245 0.0 0.43506816 1.0529963 1.4866912 
0.7894964 0.49148285 0.20508248 0.4351836 0.8885832 0.7212325 
0.029061332 1.5556624 1.2622231 0.47630125 1.1182866 0.0 
0.0 1.8357383 1.939403 0.3148017 1.2742049 0.0 
0.0 1.2793936 1.6856179 0.088794865 1.013003 0.0 
0.0 0.3344244 0.5251492 0.0 0.49898997 0.0 
0.0 0.0 0.0 0.0 0.0 0.0732661 
0.0 0.0 0.0 0.0 0.0 0.07698792 
0.0 0.0 0.0 0.0 0.0 0.07698792 
0.0 0.0 0.0 0.0 0.0 0.07698792 
0.0 0.0 0.0 0.0 0.0 0.07698792 
0.0 0.0 0.0 0.0 0.0 0.07698792 
0.0 0.0 0.0 0.0 0.0 0.07698792 
0.0 0.0 0.0 0.0 0.0 0.07698792 
0.0 0.0 0.0 0.0 0.0 0.07698792 
0.0 0.0 0.0 0.0 0.0 0.07698792 
0.0 0.0 0.0 0.0 0.0 0.07698792 
0.0 0.0 0.0 0.0 0.0 0.07698792 
0.0 0.0 0.0 0.0 0.0 0.07698792 
0.0 0.0 0.0 0.0 0.0 0.07698792 
0.28060666 0.0 0.0 0.0 0.28216282 0.39814597 
0.7986899 0.0 0.0 0.0 0.79657704 1.0110022 
0.7681169 0.0 0.0 0.0 1.153953 1.235008 
0.4795776 0.006235118 0.0 0.0 1.4026523 1.3141894 
0.092290685 0.009296115 0.0 0.0 1.4869992 1.3678186 
0.049660034 0.0 0.0 0.0 1.3578385 1.2265353 
0.30729523 0.0 0.0 0.0 1.1084898 1.0092412 
0.8842605 0.0 0.0 0.0 0.8432148 0.93476766 
1.547914 0.0 0.0 0.0 0.8690457 0.9573393 
1.4773567 0.14067541 0.0 0.0 1.145682 0.5106522 
0.11160429 1.416102 0.06772167 0.0 1.5969969 0.0 
0.0 1.6330835 1.4540145 0.0 1.725334 0.0 
0.0 1.16752 1.9011441 0.14181653 1.2236303 0.0 
0.0 0.39374965 0.8168276 0.02146956 0.5274469 0.0 
0.0 0.0 0.0 4.2483676e-05 0.0 0.07560809 
0.0 0.0 0.0 0.0 0.0 0.07698792 
0.0 0.0 0.0 0.0 0.0 0.07698792 
0.0 0.0 0.0 0.0 0.0 0.07698792 
0.0 0.0 0.0 0.0 0.0 0.07698792 
0.0 0.0 0.0 0.0 0.0 0.07698792 
0.0 0.0 0.0 0.0 0.0 0.07698792 
0.0 0.0 0.0 0.0 0.0 0.07698792 
0.0 0.0 0.0 0.0 0.0 0.07698792 
0.0 0.0 0.0 0.0 0.0 0.07698792 
0.0 0.0 0.0 0.0 0.0 0.07698792 
0.0 0.0 0.0 0.0 0.0 0.07698792 
0.0 0.0 0.0 0.0 0.0 0.07698792 
0.0 0.0 0.0 0.0 0.0 0.07698792 
0.08509353 0.0 0.0 0.0 0.17897955 0.18436153 
0.38888845 0.0 0.0 0.0 0.5082343 0.45865005 
0.40922162 0.0 0.0 0.0 0.7240742 0.5883635 
0.15612936 0.0 0.0 0.0 0.70333207 0.5561024 
0.008082636 0.0 0.0 0.0 0.6207438 0.5135702 
0.07013363 0.0 0.0 0.0 0.39654145 0.31795013 
0.52368855 0.0 0.0 0.0 0.0510695 0.025429145 
1.2776599 0.0 0.0 0.0 0.094244 0.017841488 
1.92466 0.0 0.0 0.0 0.70943314 0.1463303 
1.4374323 0.65772223 0.0 0.0 1.6571877 0.15529308 
0.0 1.5225616 0.0 0.0 2.149091 0.0 
0.0 1.5634425 1.0987376 0.08585222 1.8732666 0.0 
0.0 0.9080457 1.6903968 0.20995742 1.2395211 0.23080051 
0.0 0.25045863 0.88072693 0.15255168 0.44106144 0.0701266 
0.0 0.0 0.0 0.0036668787 0.0 0.07837302 
0.0 0.0 0.0 0.0 0.0 0.07698792 
0.0 0.0 0.0 0.0 0.0 0.07698792 
0.0 0.0 0.0 0.0 0.0 0.07698792 
0.0 0.0 0.0 0.0 0.0 0.07698792 
0.0 0.0 0.0 0.0 0.0 0.07698792 
0.0 0.0 0.0 0.0 0.0 0.07698792 
0.0 0.0 0.0 0.0 0.0 0.07698792 
0.0 0.0 0.0 0.0 0.0 0.07698792 
0.0 0.0 0.0 0.0 0.0 0.07698792 
0.0 0.0 0.0 0.0 0.0 0.07698792 
0.0 0.0 0.0 0.0 0.0 0.07698792 
0.0 0.0 0.0 0.0 0.0 0.07698792 
0.0 0.0 0.0 0.0 0.0 0.07698792 
0.0 0.0 0.0 0.0 0.0 0.07946343 
0.028648429 0.0 0.0 0.0 0.096365646 0.1448871 
0.04159768 0.0 0.0 0.0 0.10859083 0.16367033 
0.0 0.0 0.0 0.0 0.028619412 0.105656646 
0.096682966 0.0 0.0 0.0 0.0 0.053437356 
0.49211282 0.0 0.15910494 0.0 0.0 0.0 
1.0540197 0.0 0.18718246 0.0 0.0 0.0 
1.6376393 0.06542946 0.06255283 0.0 0.053083245 0.0 
1.5972471 0.6490404 0.0 0.0 1.3286327 0.0042921007 
0.7050092 1.2249038 0.0 0.12067873 2.4331121 0.33353877 
0.0 1.714739 0.0 0.28290963 2.3558 0.25581938 
0.0 1.2426825 1.0183737 0.36008218 1.7470858 0.36850172 
0.0 0.47117403 1.2918727 0.2882792 0.9807047 0.43232894 
0.0 0.14063594 0.7171743 0.17818701 0.22238524 0.13364685 
0.0 0.0 0.0 0.0 0.0 0.07821221 
0.0 0.0 0.0 0.0 0.0 0.07698792 
0.0 0.0 0.0 0.0 0.0 0.07698792 
0.0 0.0 0.0 0.0 0.0 0.07698792 
0.0 0.0 0.0 0.0 0.0 0.07698792 
0.0 0.0 0.0 0.0 0.0 0.07698792 
0.0 0.0 0.0 0.0 0.0 0.07698792 
0.0 0.0 0.0 0.0 0.0 0.07698792 
0.0 0.0 0.0 0.0 0.0 0.07698792 
0.0 0.0 0.0 0.0 0.0 0.07698792 
0.0 0.0 0.0 0.0 0.0 0.07698792 
0.0 0.0 0.0 0.0 0.0 0.07698792 
0.0 0.0 0.0 0.0 0.0 0.07698792 
0.0 0.0 0.0 0.0 0.0 0.07698792 
0.0 0.0 0.0 0.0 0.0 0.07698792 
0.0 0.0 0.0 0.0 0.0 0.07698792 
0.0 0.0 0.0 0.0 0.0 0.07698792 
0.040925413 0.0 0.0577147 0.0 0.0 0.023807392 
0.46485543 0.0 0.08789476 0.0 0.0 0.0 
1.0825732 0.0 0.09381258 0.0 0.0 0.0 
1.5276072 0.075662754 0.0 0.0 0.0 0.0 
1.3962102 0.6424535 0.0 0.15835251 1.1858045 0.12000635 
0.78459066 1.1246679 0.0 0.46034914 2.4342804 0.62893635 
0.0 1.5012592 0.0 0.6133491 2.718946 0.8533525 
0.0 1.346974 0.22813666 0.57409525 2.1052396 0.81261826 
0.0 0.6254827 0.8378141 0.29469857 1.2361087 0.64682174 
0.0 0.24707592 0.88078594 0.20189905 0.4597971 0.41009527 
0.0 0.0 0.4008911 0.059710193 0.08250812 0.13619247 
0.0 0.0 0.0 0.0 0.0 0.07721622 
0.0 0.0 0.0 0.0 0.0 0.07698792 
0.0 0.0 0.0 0.0 0.0 0.07698792 
0.0 0.0 0.0 0.0 0.0 0.07698792 
0.0 0.0 0.0 0.0 0.0 0.07698792 
0.0 0.0 0.0 0.0 0.0 0.07698792 
0.0 0.0 0.0 0.0 0.0 0.07698792 
0.0 0.0 0.0 0.0 0.0 0.07698792 
0.0 0.0 0.0 0.0 0.0 0.07698792 
0.0 0.0 0.0 0.0 0.0 0.07698792 
0.0 0.0 0.0 0.0 0.0 0.07698792 
0.0 0.0 0.0 0.0 0.0 0.07698792 
0.0 0.0 0.0 0.0 0.0 0.07698792 
0.0 0.0 0.0 0.0 0.0 0.07698792 
0.0 0.0 0.0 0.0 0.0 0.07698792 
0.0 0.0 0.0 0.0 0.0 0.07698792 
0.0 0.0 0.0 0.0 0.0 0.07698792 
0.15187661 0.0 0.0 0.0 0.0 0.07721021 
0.9001034 0.0 0.0 0.0 0.0 0.16541187 
1.6142418 0.0 0.0 0.07913895 0.0 0.18236999 
1.6263034 0.49992743 0.0 0.20802358 1.0146039 0.1594896 
0.85832876 1.1856655 0.0 0.22782412 2.2351599 0.3846602 
0.02922184 1.5400003 0.0 0.22835995 2.7158427 0.61745244 
0.0 1.2164714 0.0 0.049992796 2.4161048 0.7909289 
0.0 0.7300203 0.30525258 0.012154375 1.3568944 0.6697873 
0.0 0.24177012 0.5503943 0.0 0.6178027 0.4414263 
0.0 0.0 0.40058 0.0 0.24440326 0.2579049 
0.0 0.0 0.09101517 0.0 0.026482392 0.09683407 
0.0 0.0 0.0 0.0 0.0 0.07698792 
0.0 0.0 0.0 0.0 0.0 0.07698792 
0.0 0.0 0.0 0.0 0.0 0.07698792 
0.0 0.0 0.0 0.0 0.0 0.07698792 
0.0 0.0 0.0 0.0 0.0 0.07698792 
0.0 0.0 0.0 0.0 0.0 0.07698792 
0.0 0.0 0.0 0.0 0.0 0.07698792 
0.0 0.0 0.0 0.0 0.0 0.07698792 
0.0 0.0 0.0 0.0 0.0 0.07698792 
0.0 0.0 0.0 0.0 0.0 0.07698792 
0.0 0.0 0.0 0.0 0.0 0.07698792 
0.0 0.0 0.0 0.0 0.0 0.07698792 
0.0 0.0 0.0 0.0 0.0 0.07698792 
0.0 0.0 0.0 0.0 0.0 0.07698792 
0.0 0.0 0.0 0.0 0.0 0.07698792 
0.0 0.0 0.0 0.0 0.0 0.07698792 
0.0 0.0 0.0 0.0 0.0 0.07698792 
0.23847198 0.0 0.0 0.07609686 0.0 0.29381984 
1.0808728 0.0 0.0 0.35343572 0.0 0.68590826 
1.8540211 0.0 0.0 0.4731063 0.60399675 0.82388896 
1.5537355 0.7643852 0.0 0.4469171 1.4715568 0.5922152 
0.688647 1.5561821 0.0 0.0 2.0918646 0.26214296 
0.0 1.6859574 0.46652257 0.0 2.1399498 0.0 
0.0 1.3085523 0.61298543 0.0 1.4593569 0.0 
0.0 0.7459164 0.67869383 0.0 0.8053687 0.0 
0.0 0.3698351 0.5838236 0.0 0.5276664 0.0 
0.0 0.0650338 0.22069147 0.0 0.24046247 0.0 
0.0 0.035749357 0.0 0.0 0.0053182356 0.011131905 
0.0 0.0 0.0 0.0 0.0 0.07021375 
0.0 0.0 0.0 0.0 0.0 0.07698792 
0.0 0.0 0.0 0.0 0.0 0.07698792 
0.0 0.0 0.0 0.0 0.0 0.07698792 
0.0 0.0 0.0 0.0 0.0 0.07698792 
0.0 0.0 0.0 0.0 0.0 0.07698792 
0.0 0.0 0.0 0.0 0.0 0.07698792 
0.0 0.0 0.0 0.0 0.0 0.07698792 
0.0 0.0 0.0 0.0 0.0 0.07698792 
0.0 0.0 0.0 0.0 0.0 0.07698792 
0.0 0.0 0.0 0.0 0.0 0.07698792 
0.0 0.0 0.0 0.0 0.0 0.07698792 
0.0 0.0 0.0 0.0 0.0 0.07698792 
0.0 0.0 0.0 0.0 0.0 0.07698792 
0.0 0.0 0.0 0.0 0.0 0.07698792 
0.0 0.0 0.0 0.0 0.0 0.07698792 
0.0 0.0 0.0 0.0 0.0 0.07698792 
0.2945088 0.0 0.0 0.17400779 0.044997726 0.445734 
1.0382049 0.0 0.0 0.32688478 0.51340896 1.1199682 
1.4793584 0.0 0.0 0.5835251 1.084559 1.4463742 
1.3236206 0.10539472 0.0 0.5717042 1.4765457 1.227994 
0.75058407 0.8237491 0.0 0.38352814 1.6091801 0.75320697 
0.08822726 1.0984291 1.0649662 0.0 1.3403227 0.0 
0.0 1.1662048 1.55161 0.0 1.0675591 0.0 
0.0 1.2102708 1.4198254 0.0 0.90283203 0.0 
0.0 1.0521032 1.1061704 0.0 0.7398363 0.0 
0.0 0.63518745 0.54743284 0.0 0.51616186 0.0 
0.0 0.30547285 0.16283044 0.0 0.22966017 0.0 
0.0 0.08899827 0.0 0.0 0.053644378 0.0 
0.0 0.0 0.0 0.0 0.0 0.07594574 
0.0 0.0 0.0 0.0 0.0 0.07698792 
0.0 0.0 0.0 0.0 0.0 0.07698792 
0.0 0.0 0.0 0.0 0.0 0.07698792 
0.0 0.0 0.0 0.0 0.0 0.07698792 
0.0 0.0 0.0 0.0 0.0 0.07698792 
0.0 0.0 0.0 0.0 0.0 0.07698792 
0.0 0.0 0.0 0.0 0.0 0.07698792 
0.0 0.0 0.0 0.0 0.0 0.07698792 
0.0 0.0 0.0 0.0 0.0 0.07698792 
0.0 0.0 0.0 0.0 0.0 0.07698792 
0.0 0.0 0.0 0.0 0.0 0.07698792 
0.0 0.0 0.0 0.0 0.0 0.07698792 
0.0 0.0 0.0 0.0 0.0 0.07698792 
0.0 0.0 0.0 0.0 0.0 0.07698792 
0.0 0.0 0.0 0.0 0.0 0.07698792 
0.2597306 0.0 0.0 0.008451353 0.22225387 0.3890573 
0.85922384 0.0 0.0 0.034835827 0.78028923 1.0616772 
1.0927927 0.0 0.0 0.10789348 1.1910743 1.485637 
0.8814735 0.0 0.0 0.353497 1.2898895 1.5188706 
0.46231258 0.0 0.0 0.8927581 1.2720422 1.3643079 
0.31230837 0.24735966 0.6838489 1.2785546 1.2345084 1.0150104 
0.108142436 0.8126942 1.5428196 1.27061 1.0781573 0.28489667 
0.0 1.1615769 1.8150558 0.79441607 0.94255334 0.0 
0.0 1.544348 1.8261939 0.19058591 0.899118 0.0 
0.0 1.3975497 1.3366944 0.0 0.8059904 0.0 
0.0 0.779968 0.7377545 0.0 0.59794015 0.0 
0.0 0.25069866 0.1804443 0.0 0.34165433 0.0 
0.0 0.0589998 0.0 0.0 0.009775545 0.013737582 
0.0 0.0 0.0 0.0 0.0 0.07698792 
0.0 0.0 0.0 0.0 0.0 0.07698792 
0.0 0.0 0.0 0.0 0.0 0.07698792 
0.0 0.0 0.0 0.0 0.0 0.07698792 
0.0 0.0 0.0 0.0 0.0 0.07698792 
0.0 0.0 0.0 0.0 0.0 0.07698792 
0.0 0.0 0.0 0.0 0.0 0.07698792 
0.0 0.0 0.0 0.0 0.0 0.07698792 
0.0 0.0 0.0 0.0 0.0 0.07698792 
0.0 0.0 0.0 0.0 0.0 0.07698792 
0.0 0.0 0.0 0.0 0.0 0.07698792 
0.0 0.0 0.0 0.0 0.0 0.07698792 
0.014243409 0.0 0.050139166 0.0 0.0 0.026455756 
0.0968394 0.07534687 0.030738026 0.0 0.0 0.0 
0.0 0.1073755 0.019888528 0.0 0.0 0.0 
0.11909741 0.002772796 0.0 0.0 0.17972203 0.0 
0.4582891 0.0 0.0 0.0 0.62646854 0.44004786 
0.7358929 0.0 0.0 0.0 0.938253 1.0126712 
0.74139124 0.0 0.0 0.0 1.0666682 1.4302714 
0.6019199 0.0 0.0 0.18801127 1.2589692 1.6561413 
0.41207498 0.0 0.0 0.8364484 1.3392373 1.7224605 
0.30412635 0.17620647 0.0 1.270321 1.1832824 1.4563856 
0.428554 0.5803275 0.86040914 1.3830583 0.8285617 0.8192458 
0.23682207 1.254133 1.7511404 1.1083413 0.7378528 0.0 
0.0 1.6865263 1.9089684 0.5141092 0.92372626 0.0 
0.0 1.4269269 1.5299519 0.0 0.8562323 0.0 
0.0 0.68363374 0.72264916 0.0 0.63895756 0.0 
0.0 0.10167118 0.04984639 0.0 0.2266507 0.0 
0.0 0.0 0.0 0.0 0.0 0.07698792 
0.0 0.0 0.0 0.0 0.0 0.07698792 
0.0 0.0 0.0 0.0 0.0 0.07698792 
0.0 0.0 0.0 0.0 0.0 0.07698792 
0.0 0.0 0.0 0.0 0.0 0.07698792 
0.0 0.0 0.0 0.0 0.0 0.07698792 
0.0 0.0 0.0 0.0 0.0 0.07698792 
0.0 0.0 0.0 0.0 0.0 0.07698792 
0.0 0.0 0.0 0.0 0.0 0.07698792 
0.0 0.0 0.0 0.0 0.0 0.07698792 
0.0 0.0 0.0 0.0 0.0 0.07698792 
0.0 0.0 0.0 0.0 0.0 0.06378922 
0.21074378 0.0 0.09923009 0.0 0.0 0.0 
0.42263183 0.109918915 0.15088356 0.0 0.0 0.0 
0.14598674 0.3531832 0.1403965 0.0 0.0 0.0 
0.0 0.5226405 0.30324966 0.0 0.118135154 0.0 
0.0 0.10576843 0.0 0.0 0.5903874 0.0 
0.27740714 0.0 0.0 0.0 0.61559325 0.3639997 
0.55096734 0.0 0.0 0.0 0.79771495 0.7340937 
0.62616074 0.0 0.0 0.0 1.1244706 1.1275091 
0.6491523 0.0 0.0 0.0 1.3569736 1.4958925 
0.78999037 0.0 0.0 0.0 1.1111599 1.6240423 
0.9668687 0.0 0.0 0.070304364 0.78511506 1.317774 
0.67021424 0.4674851 0.21559289 0.24199948 0.7621511 0.4772145 
0.0 1.5151793 1.4902056 0.40399775 1.0057023 0.0 
0.0 1.7457392 1.9772438 0.20480329 1.1542823 0.0 
0.0 1.1178702 1.437409 0.0 0.90586233 0.0 
0.0 0.21680185 0.2881122 0.0 0.408934 0.0 
0.0 0.0 0.0 0.0 0.0 0.07698792 
0.0 0.0 0.0 0.0 0.0 0.07698792 
0.0 0.0 0.0 0.0 0.0 0.07698792 
0.0 0.0 0.0 0.0 0.0 0.07698792 
0.0 0.0 0.0 0.0 0.0 0.07698792 
0.0 0.0 0.0 0.0 0.0 0.07698792 
0.0 0.0 0.0 0.0 0.0 0.07698792 
0.0 0.0 0.0 0.0 0.0 0.07698792 
0.0 0.0 0.0 0.0 0.0 0.07698792 
0.0 0.0 0.0 0.0 0.0 0.07698792 
0.0 0.0 0.0 0.0 0.0 0.07698792 
0.0 0.0 0.0 0.0 0.0 0.07483661 
0.46208167 0.0 0.0 0.0 0.0 0.16089721 
0.74990016 0.0 0.13759625 0.0 0.0 0.0 
0.23116481 0.56816995 0.21520618 0.0 0.20862223 0.0 
0.0 0.9038348 0.7278195 0.0 0.42280936 0.0 
0.0 0.4806884 0.55974495 0.0 0.61455864 0.0 
0.0 0.025296517 0.01455868 0.0 0.20631038 0.04728084 
0.15068749 0.0 0.0 0.0 0.27779776 0.23245221 
0.29779673 0.0 0.0 0.0 0.488641 0.33387494 
0.59268147 0.0 0.0 0.0 0.55833995 0.4497335 
1.1952834 0.0 0.0 0.0 0.580199 0.69574875 
1.6753118 0.0 0.0 0.0 0.7393226 0.83130085 
1.4077349 0.21143736 0.0 0.0 0.951973 0.30079246 
0.0 1.4847748 0.40558177 0.0 1.4547789 0.0 
0.0 1.642608 1.7072552 0.01964527 1.6269597 0.0 
0.0 1.171255 1.8630476 0.12811846 1.106682 0.0 
0.0 0.37192088 0.62137645 0.0 0.46398416 0.0 
0.0 0.0 0.0 0.0 0.0 0.07698792 
0.0 0.0 0.0 0.0 0.0 0.07698792 
0.0 0.0 0.0 0.0 0.0 0.07698792 
0.0 0.0 0.0 0.0 0.0 0.07698792 
0.0 0.0 0.0 0.0 0.0 0.07698792 
0.0 0.0 0.0 0.0 0.0 0.07698792 
0.0 0.0 0.0 0.0 0.0 0.07698792 
0.0 0.0 0.0 0.0 0.0 0.07698792 
0.0 0.0 0.0 0.0 0.0 0.07698792 
0.0 0.0 0.0 0.0 0.0 0.07698792 
0.0 0.0 0.0 0.0 0.0 0.07698792 
0.0 0.0 0.0 0.013229883 0.0 0.120987386 
0.6779524 0.0 0.0 0.1838511 0.0 0.4972265 
1.0378714 0.0 0.0 0.21174209 0.0 0.19712177 
0.35798174 0.82744235 0.13985017 0.16526923 0.39956456 0.0 
0.0 1.2334142 1.0535487 0.06290197 0.5874241 0.0 
0.0 0.90511173 1.1696364 0.0 0.7129508 0.0 
0.0 0.2552663 0.25206614 0.0 0.23741783 0.0 
0.0 0.0 0.01987549 0.0 0.0 0.015234068 
0.17430997 0.0 0.13256589 0.0 0.0 0.0 
0.61085385 0.0 0.07640662 0.0 0.0 0.0 
1.4159837 0.0 0.0 0.0 0.0 0.0 
2.0389113 0.0 0.0 0.0 0.6275181 0.0658841 
1.4154866 0.79713124 0.0 0.0 1.5284122 0.09082933 
0.0 1.5306032 0.0 0.0 2.1070359 0.0 
0.0 1.5640078 1.2635069 0.16179329 1.8456442 0.0 
0.0 0.9091218 1.7309529 0.25515738 1.1913961 0.18206088 
0.0 0.25772807 0.79192984 0.1427224 0.41974327 0.05017924 
0.0 0.0 0.0 0.0 0.0 0.07698792 
0.0 0.0 0.0 0.0 0.0 0.07698792 
0.0 0.0 0.0 0.0 0.0 0.07698792 
0.0 0.0 0.0 0.0 0.0 0.07698792 
0.0 0.0 0.0 0.0 0.0 0.07698792 
0.0 0.0 0.0 0.0 0.0 0.07698792 
0.0 0.0 0.0 0.0 0.0 0.07698792 
0.0 0.0 0.0 0.0 0.0 0.07698792 
0.0 0.0 0.0 0.0 0.0 0.07698792 
0.0 0.0 0.0 0.0 0.0 0.07698792 
0.0 0.0 0.0 0.0 0.0 0.07698792 
0.0 0.0 0.0 0.036969025 0.0 0.14801516 
0.794509 0.0 0.0 0.19728039 0.113759294 0.7868593 
1.2022243 0.0 0.0 0.20715095 0.21339978 0.7187138 
0.6999331 0.60220855 0.0 0.14038035 0.3868741 0.0 
0.012879185 1.3352863 1.0170977 0.0 0.57380027 0.0 
0.0 1.3003197 1.8658049 0.0 0.6919758 0.0 
0.0 0.5903267 0.86805 0.0 0.3270373 0.0 
0.2943277 0.31597713 0.39131564 0.0 0.0 0.0 
0.6177079 0.20823686 0.36744946 0.0 0.0 0.0 
1.1061182 0.077399865 0.3370219 0.0 0.0 0.0 
1.6170266 0.26922628 0.15081769 0.0 0.188921 0.0 
1.5465457 0.6983203 0.0 0.0 1.4356523 0.0 
0.64334476 1.2463136 0.0 0.14858623 2.4242423 0.35009378 
0.0 1.7272577 0.0666401 0.3377322 2.3257587 0.2642445 
0.0 1.2405456 1.0979005 0.42534176 1.725629 0.374071 
0.0 0.48124564 1.3323194 0.3456844 0.9397709 0.4273856 
0.0 0.17333783 0.71633923 0.20552616 0.20388986 0.12604603 
0.0 0.0 0.0 0.0 0.0 0.07698792 
0.0 0.0 0.0 0.0 0.0 0.07698792 
0.0 0.0 0.0 0.0 0.0 0.07698792 
0.0 0.0 0.0 0.0 0.0 0.07698792 
0.0 0.0 0.0 0.0 0.0 0.07698792 
0.0 0.0 0.0 0.0 0.0 0.07698792 
0.0 0.0 0.0 0.0 0.0 0.07698792 
0.0 0.0 0.0 0.0 0.0 0.07698792 
0.0 0.0 0.0 0.0 0.0 0.07698792 
0.0 0.0 0.0 0.0 0.0 0.07698792 
0.0 0.0 0.0 0.0 0.0 0.07698792 
0.0 0.0 0.0 0.0 0.00069279224 0.13228986 
0.72533923 0.0 0.0 0.05595108 0.42400035 0.8088838 
1.2157052 0.0 0.0 0.13861203 0.44106683 1.0683513 
0.9108848 0.030847669 0.0 0.17346518 0.32683715 0.24896495 
0.50206834 0.819823 0.6709955 0.1280568 0.53860766 0.0 
0.0 1.3922596 2.1719377 0.0 0.5721439 0.0 
0.0 1.1542443 1.6133403 0.0 0.35240862 0.0 
0.5324827 0.6359294 0.8550893 0.0 0.053788964 0.0 
0.9964481 0.5111322 0.6474732 0.0 0.032188732 0.0 
1.2115133 0.6543544 0.46949387 0.0 0.4957585 0.0 
1.1756468 0.81223255 0.020443492 0.0 1.5837504 0.0 
0.72190815 1.2532412 0.0 0.33156332 2.526173 0.46743232 
0.0 1.5740651 0.0 0.4544035 2.7287414 0.7219791 
0.0 1.409341 0.25339952 0.44142923 2.137697 0.76641744 
0.0 0.61766785 0.81928426 0.23030992 1.2368776 0.6322776 
0.0 0.23469353 0.8590615 0.19437684 0.4375627 0.41902187 
0.0 0.0039813267 0.41574445 0.06727311 0.079797655 0.137373 
0.0 0.0 0.0 0.0 0.0 0.07698792 
0.0 0.0 0.0 0.0 0.0 0.07698792 
0.0 0.0 0.0 0.0 0.0 0.07698792 
0.0 0.0 0.0 0.0 0.0 0.07698792 
0.0 0.0 0.0 0.0 0.0 0.07698792 
0.0 0.0 0.0 0.0 0.0 0.07698792 
0.0 0.0 0.0 0.0 0.0 0.07698792 
0.0 0.0 0.0 0.0 0.0 0.07698792 
0.0 0.0 0.0 0.0 0.0 0.07698792 
0.0 0.0 0.0 0.0 0.0 0.07698792 
0.0 0.0 0.0 0.0 0.0 0.07698792 
0.0 0.0 0.0 0.0 0.0 0.09493533 
0.4701833 0.0 0.0 0.0 0.40071055 0.5704197 
1.0312338 0.0 0.0 0.18626937 0.5664251 1.1995363 
0.93978614 0.0 0.0 0.31888127 0.5356514 1.0393212 
0.79722255 0.14088455 0.0 0.6073098 0.5730547 0.5592717 
0.4323644 0.75755787 1.5581572 0.80919605 0.6595871 0.05060506 
0.3427649 1.0653707 1.9678606 0.48840538 0.7387042 0.0 
0.66187656 0.98185873 1.298183 0.0952494 0.8221247 0.0 
0.759435 0.9985488 0.7683293 0.21037035 1.2399956 0.0 
0.76410306 1.0608184 0.3249926 0.48877484 2.0548365 0.2108523 
0.5533076 1.2602406 0.0 0.77953124 2.669357 0.8373789 
0.0 1.3901109 0.0 0.7666248 2.7837892 1.0791211 
0.0 1.1125177 0.0 0.45552754 2.4042594 1.0949094 
0.0 0.6128125 0.31675917 0.17749225 1.4199007 0.82919294 
0.0 0.1481049 0.50082415 0.0 0.61749023 0.49537736 
0.0 0.0 0.3453424 0.0 0.2288544 0.2724272 
0.0 0.0 0.09055326 0.0 0.030990433 0.09664758 
0.0 0.0 0.0 0.0 0.0 0.07698792 
0.0 0.0 0.0 0.0 0.0 0.07698792 
0.0 0.0 0.0 0.0 0.0 0.07698792 
0.0 0.0 0.0 0.0 0.0 0.07698792 
0.0 0.0 0.0 0.0 0.0 0.07698792 
0.0 0.0 0.0 0.0 0.0 0.07698792 
0.0 0.0 0.0 0.0 0.0 0.07698792 
0.0 0.0 0.0 0.0 0.0 0.07698792 
0.0 0.0 0.0 0.0 0.0 0.07698792 
0.0 0.0 0.0 0.0 0.0 0.07698792 
0.0 0.0 0.0 0.0 0.0 0.07698792 
0.0 0.0 0.0 0.0 0.0 0.07698792 
0.20636788 0.0 0.0 0.0 0.25762054 0.30976087 
0.82581925 0.0 0.0 0.0 0.7144398 0.9748425 
0.9590537 0.0 0.0 0.1830201 0.8226977 1.3199155 
0.72599787 0.0 0.0 0.53439337 0.89575195 1.3075488 
0.5854028 0.0 0.0 1.1875001 1.0949861 1.3475819 
0.5165148 0.5656384 0.81889796 1.8117725 1.2981739 1.2329319 
0.52925444 0.9874725 0.7237324 1.8792386 1.7170955 1.2139058 
0.44693905 1.0864916 0.266188 1.6224983 2.325479 1.3394513 
0.17302755 1.1669981 0.0 1.38459 2.6520722 1.4582989 
0.0 1.0874996 0.0 0.9992526 2.6329324 1.4614794 
0.0 0.80528355 0.0 0.44840965 2.2015836 1.2807457 
0.0 0.495782 0.044397257 0.16649237 1.2643185 0.8897279 
0.0 0.110674046 0.35849276 0.0 0.5919073 0.5485268 
0.0 0.0 0.335904 0.0 0.26969668 0.2900224 
0.0 0.0 0.08302807 0.0 0.056858484 0.11170065 
0.0 0.0 0.0 0.0 0.0 0.07873821 
0.0 0.0 0.0 0.0 0.0 0.07698792 
0.0 0.0 0.0 0.0 0.0 0.07698792 
0.0 0.0 0.0 0.0 0.0 0.07698792 
0.0 0.0 0.0 0.0 0.0 0.07698792 
0.0 0.0 0.0 0.0 0.0 0.07698792 
0.0 0.0 0.0 0.0 0.0 0.07698792 
0.0 0.0 0.0 0.0 0.0 0.07698792 
0.0 0.0 0.0 0.0 0.0 0.07698792 
0.0 0.0 0.0 0.0 0.0 0.07698792 
0.0 0.0 0.0 0.0 0.0 0.07698792 
0.0 0.0 0.0 0.0 0.0 0.07698792 
0.0 0.0 0.0 0.0 0.0 0.07698792 
0.015024841 0.0 0.0 0.0 0.06867148 0.13840929 
0.4237264 0.0 0.0 0.0 0.46115068 0.52212584 
0.8114135 0.0 0.0 0.0 0.8792856 1.0758913 
0.82196295 0.0 0.0 0.0 1.086995 1.4408512 
0.75466317 0.0 0.0 0.26637247 1.4082884 1.72386 
0.53152573 0.0 0.0 0.78290415 1.8621751 1.8809447 
0.39326423 0.27407202 0.0 1.0953269 2.1403048 1.8689716 
0.21131268 0.60280746 0.0 1.032459 2.2067673 1.7600265 
0.0 0.6502727 0.0 0.627713 2.0976264 1.6367712 
0.0 0.4624896 0.0 0.12927055 1.7213153 1.3593001 
0.0 0.2465119 0.0 0.0 0.9892188 0.88357675 
0.0 0.0 0.038287774 0.0 0.48866007 0.5103712 
0.0 0.0 0.19627056 0.0 0.24960484 0.3051358 
0.0 0.0 0.1278378 0.0 0.06549248 0.117401466 
0.0 0.0 0.0 0.0 0.0 0.07866211 
0.0 0.0 0.0 0.0 0.0 0.07698792 
0.0 0.0 0.0 0.0 0.0 0.07698792 
0.0 0.0 0.0 0.0 0.0 0.07698792 
0.0 0.0 0.0 0.0 0.0 0.07698792 
0.0 0.0 0.0 0.0 0.0 0.07698792 
0.0 0.0 0.0 0.0 0.0 0.07698792 
0.0 0.0 0.0 0.0 0.0 0.07698792 
0.0 0.0 0.0 0.0 0.0 0.07698792 
0.0 0.0 0.0 0.0 0.0 0.07698792 
0.0 0.0 0.0 0.0 0.0 0.07698792 
0.0 0.0 0.0 0.0 0.0 0.07698792 
0.0 0.0 0.0 0.0 0.0 0.07698792 
0.0 0.0 0.0 0.0 0.0 0.07698792 
0.0 0.0 0.0 0.0 0.0 0.08070118 
0.1142931 0.0 0.0 0.0 0.22452141 0.2039775 
0.40754429 0.0 0.0 0.0 0.5384747 0.47381234 
0.6131746 0.0 0.0 0.0 0.84847933 0.8238719 
0.65403026 0.0 0.0 0.0 1.1814559 1.2274854 
0.51877713 0.0 0.0 0.0 1.413994 1.4900968 
0.321527 0.0 0.0 0.0 1.4720567 1.5509088 
0.058489665 0.0 0.0 0.0 1.3735855 1.3555431 
0.0 0.0 0.0 0.0 1.0917037 1.0125325 
0.0 0.0 0.0 0.0 0.6949976 0.6513533 
0.0 0.0 0.0 0.0 0.3970628 0.3819021 
0.0 0.0 0.0 0.0 0.20340301 0.21857125 
0.0 0.0 0.008589275 0.0 0.051227603 0.11543581 
0.0 0.0 0.0 0.0 0.0 0.08026021 
0.0 0.0 0.0 0.0 0.0 0.07698792 
0.0 0.0 0.0 0.0 0.0 0.07698792 
0.0 0.0 0.0 0.0 0.0 0.07698792 
0.0 0.0 0.0 0.0 0.0 0.07698792 
0.0 0.0 0.0 0.0 0.0 0.07698792 
0.0 0.0 0.0 0.0 0.0 0.07698792 
0.0 0.0 0.0 0.0 0.0 0.07698792 
0.0 0.0 0.0 0.0 0.0 0.07698792 
0.0 0.0 0.0 0.0 0.0 0.07698792 
0.0 0.0 0.0 0.0 0.0 0.07698792 
0.0 0.0 0.0 0.0 0.0 0.07698792 
0.0 0.0 0.0 0.0 0.0 0.07698792 
0.0 0.0 0.0 0.0 0.0 0.07698792 
0.0 0.0 0.0 0.0 0.0 0.07698792 
0.0 0.0 0.0 0.0 0.0 0.07698792 
0.0 0.0 0.0 0.0 0.0 0.07884455 
0.027927905 0.0 0.0 0.0 0.09535982 0.14431253 
0.20794818 0.0 0.0 0.0 0.36411253 0.27496722 
0.30756247 0.0 0.0 0.0 0.5824915 0.37360823 
0.30346406 0.0 0.0 0.0 0.74307805 0.46476877 
0.16140491 0.0 0.0 0.0 0.7772383 0.49754965 
0.0 0.0 0.0 0.0 0.61321026 0.41133726 
0.0 0.0 0.0 0.0 0.38239318 0.30012977 
0.0 0.0 0.0 0.0 0.2100615 0.2082846 
0.0 0.0 0.0 0.0 0.06748785 0.12820259 
0.0 0.0 0.0 0.0 0.0 0.0818583 
0.0 0.0 0.0 0.0 0.0 0.07698792 
0.0 0.0 0.0 0.0 0.0 0.07698792 
0.0 0.0 0.0 0.0 0.0 0.07698792 
0.0 0.0 0.0 0.0 0.0 0.07698792 
0.0 0.0 0.0 0.0 0.0 0.07698792 
0.0 0.0 0.0 0.0 0.0 0.07698792 
0.0 0.0 0.0 0.0 0.0 0.07698792 
0.0 0.0 0.0 0.0 0.0 0.07698792 
0.0 0.0 0.0 0.0 0.0 0.07698792 
0.0 0.0 0.0 0.0 0.0 0.07698792 
0.0 0.0 0.0 0.0 0.0 0.07698792 
0.0 0.0 0.0 0.0 0.0 0.07698792 
0.0 0.0 0.0 0.0 0.0 0.07698792 
0.0 0.0 0.0 0.0 0.0 0.07698792 
0.0 0.0 0.0 0.0 0.0 0.07698792 
0.0 0.0 0.0 0.0 0.0 0.07698792 
0.0 0.0 0.0 0.0 0.0 0.07698792 
0.0 0.0 0.0 0.0 0.0 0.07698792 
0.0 0.0 0.0 0.0 0.0 0.07698792 
0.0 0.0 0.0 0.0 0.0 0.07698792 
0.0 0.0 0.0 0.0 0.0 0.07698792 
0.0 0.0 0.0 0.0 0.0 0.07698792 
0.0 0.0 0.0 0.0 0.0 0.07698792 
0.0 0.0 0.0 0.0 0.0 0.07698792 
0.0 0.0 0.0 0.0 0.0 0.07698792 
0.0 0.0 0.0 0.0 0.0 0.07698792 
0.0 0.0 0.0 0.0 0.0 0.07698792 
0.0 0.0 0.0 0.0 0.0 0.07698792 
0.0 0.0 0.0 0.0 0.0 0.07698792 
0.0 0.0 0.0 0.0 0.0 0.07698792 
0.0 0.0 0.0 0.0 0.0 0.07698792 
0.0 0.0 0.0 0.0 0.0 0.07698792 
0.0 0.0 0.0 0.0 0.0 0.07698792 
0.0 0.0 0.0 0.0 0.0 0.07698792 
0.0 0.0 0.0 0.0 0.0 0.07698792 
0.0 0.0 0.0 0.0 0.0 0.07698792 
0.0 0.0 0.0 0.0 0.0 0.07698792 
0.0 0.0 0.0 0.0 0.0 0.07698792 
0.0 0.0 0.0 0.0 0.0 0.07698792 
0.0 0.0 0.0 0.0 0.0 0.07698792 
0.0 0.0 0.0 0.0 0.0 0.07698792 
0.0 0.0 0.0 0.0 0.0 0.07698792 
0.0 0.0 0.0 0.0 0.0 0.07698792 
0.0 0.0 0.0 0.0 0.0 0.07698792 
0.0 0.0 0.0 0.0 0.0 0.07698792 
0.0 0.0 0.0 0.0 0.0 0.07698792 
0.0 0.0 0.0 0.0 0.0 0.07698792 
0.0 0.0 0.0 0.0 0.0 0.07698792 
0.0 0.0 0.0 0.0 0.0 0.07698792 
0.0 0.0 0.0 0.0 0.0 0.07698792 
0.0 0.0 0.0 0.0 0.0 0.07698792 
0.0 0.0 0.0 0.0 0.0 0.07698792 
0.0 0.0 0.0 0.0 0.0 0.07698792 
0.0 0.0 0.0 0.0 0.0 0.07698792 
0.0 0.0 0.0 0.0 0.0 0.07698792 
0.0 0.0 0.0 0.0 0.0 0.07698792 
0.0 0.0 0.0 0.0 0.0 0.07698792 
0.0 0.0 0.0 0.0 0.0 0.07698792 
0.0 0.0 0.0 0.0 0.0 0.07698792 
0.0 0.0 0.0 0.0 0.0 0.07698792 
0.0 0.0 0.0 0.0 0.0 0.07698792 
0.0 0.0 0.0 0.0 0.0 0.07698792 
0.0 0.0 0.0 0.0 0.0 0.07698792 
0.0 0.0 0.0 0.0 0.0 0.07698792 
0.0 0.0 0.0 0.0 0.0 0.07698792 
0.0 0.0 0.0 0.0 0.0 0.07698792 

