0.0 0.0 0.0 0.0 0.0 0.07698792 
0.0 0.0 0.0 0.0 0.0 0.07698792 
0.0 0.0 0.0 0.0 0.0 0.07698792 
0.0 0.0 0.0 0.0 0.0 0.07698792 
0.0 0.0 0.0 0.0 0.0 0.07698792 
0.0 0.0 0.0 0.0 0.0 0.07698792 
0.0 0.0 0.0 0.0 0.0 0.07698792 
0.0 0.0 0.0 0.0 0.0 0.07698792 
0.0 0.0 0.0 0.0 0.0 0.07698792 
0.0 0.0 0.0 0.0 0.0 0.07698792 
0.0 0.0 0.0 0.0 0.0 0.07698792 
0.0 0.0 0.0 0.0 0.0 0.07698792 
0.0 0.0 0.0 0.0 0.0 0.07698792 
0.0 0.0 0.0 0.0 0.0 0.07698792 
0.0 0.0 0.0 0.0 0.0 0.07698792 
0.0 0.0 0.0 0.0 0.0 0.07698792 
0.0 0.0 0.0 0.0 0.0 0.07698792 
0.0 0.0 0.0 0.0 0.0 0.07698792 
0.0 0.0 0.0 0.0 0.0 0.07698792 
0.0 0.0 0.0 0.0 0.0 0.07698792 
0.0 0.0 0.0 0.0 0.0 0.07698792 
0.0 0.0 0.0 0.0 0.0 0.07698792 
0.0 0.0 0.0 0.0 0.0 0.07698792 
0.0 0.0 0.0 0.0 0.0 0.07698792 
0.0 0.0 0.0 0.0 0.0 0.07698792 
0.0 0.0 0.0 0.0 0.0 0.07698792 
0.0 0.0 0.0 0.0 0.0 0.07698792 
0.0 0.0 0.0 0.0 0.0 0.07698792 
0.0 0.0 0.0 0.0 0.0 0.07698792 
0.0 0.0 0.0 0.0 0.0 0.07698792 
0.0 0.0 0.0 0.0 0.0 0.07698792 
0.0 0.0 0.0 0.0 0.0 0.07698792 
0.0 0.0 0.0 0.0 0.0 0.07698792 
0.0 0.0 0.0 0.0 0.0 0.07698792 
0.0 0.0 0.0 0.0 0.0 0.07698792 
0.0 0.0 0.0 0.0 0.0 0.07698792 
0.0 0.0 0.0 0.0 0.0 0.07698792 
0.0 0.0 0.0 0.0 0.0 0.07698792 
0.0 0.0 0.0 0.0 0.0 0.07698792 
0.0 0.0 0.0 0.0 0.0 0.07698792 
0.0 0.0 0.0 0.0 0.0 0.07698792 
0.0 0.0 0.0 0.0 0.0 0.07698792 
0.0 0.0 0.0 0.0 0.0 0.07698792 
0.0 0.0 0.0 0.0 0.0 0.07698792 
0.0 0.0 0.0 0.0 0.0 0.07698792 
0.0 0.0 0.0 0.0 0.0 0.07698792 
0.0 0.0 0.0 0.0 0.0 0.07698792 
0.0 0.0 0.0 0.0 0.0 0.07698792 
0.0 0.0 0.0 0.0 0.0 0.07698792 
0.0 0.0 0.0 0.0 0.0 0.07698792 
0.0 0.0 0.0 0.0 0.0 0.07698792 
0.0 0.0 0.0 0.0 0.0 0.07698792 
0.0 0.0 0.0 0.0 0.0 0.07698792 
0.0 0.0 0.0 0.0 0.0 0.07698792 
0.0 0.0 0.0 0.0 0.0 0.07698792 
0.0 0.0 0.0 0.0 0.0 0.07698792 
0.0 0.0 0.0 0.0 0.0 0.07698792 
0.0 0.0 0.0 0.0 0.0 0.07698792 
0.0 0.0 0.0 0.0 0.0 0.07698792 
0.0 0.0 0.0 0.0 0.0 0.07698792 
0.0 0.0 0.0 0.0 0.0 0.07698792 
0.0 0.0 0.0 0.0 0.0 0.07698792 
0.0 0.0 0.0 0.0 0.0 0.07698792 
0.0 0.0 0.0 0.0 0.0 0.07698792 
0.0 0.0 0.0 0.0 0.0 0.07698792 
0.0 0.0 0.0 0.0 0.0 0.07698792 
0.0 0.0 0.0 0.0 0.0 0.07434818 
0.011242613 0.0 0.040010303 0.0 0.0 0.024536233 
0.20746607 0.0054006567 0.18665487 0.0 0.0 0.0 
0.34231716 0.16764891 0.298635 0.0 0.0 0.0 
0.3479752 0.36319128 0.40814173 0.0 0.0 0.0 
0.2024487 0.5850245 0.35184678 0.0 0.0 0.0 
0.0 0.53242105 0.2617964 0.0 0.035204012 0.0 
0.0 0.37005505 0.14943928 0.0 0.083198756 0.0 
0.0 0.1644498 0.014054939 0.0 0.06928438 0.0 
0.0 0.018670313 0.0 0.0 0.0 0.051975593 
0.0 0.0 0.0 0.0 0.0 0.07698792 
0.0 0.0 0.0 0.0 0.0 0.07698792 
0.0 0.0 0.0 0.0 0.0 0.07698792 
0.0 0.0 0.0 0.0 0.0 0.07698792 
0.0 0.0 0.0 0.0 0.0 0.07698792 
0.0 0.0 0.0 0.0 0.0 0.07698792 
0.0 0.0 0.0 0.0 0.0 0.07698792 
0.0 0.0 0.0 0.0 0.0 0.07698792 
0.0 0.0 0.0 0.0 0.0 0.07698792 
0.0 0.0 0.0 0.0 0.0 0.07698792 
0.0 0.0 0.0 0.0 0.0 0.07698792 
0.0 0.0 0.0 0.0 0.0 0.07698792 
0.0 0.0 0.0 0.0 0.0 0.07698792 
0.0 0.0 0.0 0.0 0.0 0.07698792 
0.0 0.0 0.0 0.0 0.0 0.07698792 
0.0 0.0 0.0 0.0 0.0 0.07698792 
0.0 0.0 0.0 0.0 0.0 0.07698792 
0.0 0.0 0.0 0.0 0.0 0.07698792 
0.0 0.0 0.012511149 0.0 0.0 0.044428255 
0.26765525 0.0 0.13124934 0.0 0.0 0.0 
0.64954334 0.0 0.23055768 0.0 0.0 0.0 
0.88971925 0.21844915 0.43383723 0.0 0.0 0.0 
0.8818168 0.7403174 0.7403409 0.0 0.0 0.0 
0.44386363 1.1953532 1.0624772 0.0 0.19167091 0.0 
0.0 1.3063803 0.9322779 0.0 0.55578464 0.0 
0.0 0.9620319 0.73934215 0.0 0.5976227 0.0 
0.0 0.43725854 0.34479025 0.0 0.45321032 0.0 
0.0 0.1617111 0.041163355 0.0 0.13668944 0.0 
0.0 0.019792553 0.0 0.0 0.0 0.050933413 
0.0 0.0 0.0 0.0 0.0 0.07698792 
0.0 0.0 0.0 0.0 0.0 0.07698792 
0.0 0.0 0.0 0.0 0.0 0.07698792 
0.0 0.0 0.0 0.0 0.0 0.07698792 
0.0 0.0 0.0 0.0 0.0 0.07698792 
0.0 0.0 0.0 0.0 0.0 0.07698792 
0.0 0.0 0.0 0.0 0.0 0.07698792 
0.0 0.0 0.0 0.0 0.0 0.07698792 
0.0 0.0 0.0 0.0 0.0 0.07698792 
0.0 0.0 0.0 0.0 0.0 0.07698792 
0.0 0.0 0.0 0.0 0.0 0.07698792 
0.0 0.0 0.0 0.0 0.0 0.07698792 
0.0 0.0 0.0 0.0 0.0 0.07698792 
0.0 0.0 0.0 0.0 0.0 0.07698792 
0.0 0.0 0.0 0.0 0.0 0.07698792 
0.0 0.0 0.0 0.0 0.0 0.07698792 
0.0 0.0 0.0 0.0 0.0 0.06416633 
0.17890716 0.0 0.09837454 0.0 0.0 0.0 
0.7360514 0.0 0.09409238 0.0 0.0 0.0 
1.225852 0.0 0.17521706 0.0 0.0 0.0 
1.3411691 0.29282153 0.43713707 0.0 0.0 0.0 
0.9086012 0.8712998 0.97215486 0.0 0.6028255 0.0 
0.31723058 1.3836036 1.5872445 0.0 1.0185462 0.0 
0.0 1.7729417 1.8862551 0.0 1.1647476 0.0 
0.0 1.7443613 1.6392206 0.0 1.0904452 0.0 
0.0 1.1506507 1.128694 0.0 0.80478525 0.0 
0.0 0.39790407 0.35985774 0.0 0.4762102 0.0 
0.0 0.0797392 8.350611e-05 0.0 0.101604566 0.0 
0.0 0.0 0.0 0.0 0.0 0.07698792 
0.0 0.0 0.0 0.0 0.0 0.07698792 
0.0 0.0 0.0 0.0 0.0 0.07698792 
0.0 0.0 0.0 0.0 0.0 0.07698792 
0.0 0.0 0.0 0.0 0.0 0.07698792 
0.0 0.0 0.0 0.0 0.0 0.07698792 
0.0 0.0 0.0 0.0 0.0 0.07698792 
0.0 0.0 0.0 0.0 0.0 0.07698792 
0.0 0.0 0.0 0.0 0.0 0.07698792 
0.0 0.0 0.0 0.0 0.0 0.07698792 
0.0 0.0 0.0 0.0 0.0 0.07698792 
0.0 0.0 0.0 0.0 0.0 0.07698792 
0.0 0.0 0.0 0.0 0.0 0.07698792 
0.0 0.0 0.0 0.0 0.0 0.07698792 
0.0 0.0 0.0 0.0 0.0 0.07698792 
0.0 0.0 0.0 0.0 0.0 0.07698792 
0.0 0.0 0.0 0.0 0.0 0.06779771 
0.43422788 0.0 0.0049009398 0.0 0.0 0.095041215 
1.2304149 0.0 0.0 0.04070301 0.0 0.18053609 
1.5258858 0.053804487 0.0 0.2812915 0.18691723 0.184187 
1.1797256 0.8612023 0.0 0.6725149 0.9721642 0.22341552 
0.71303993 1.2314125 0.51118994 0.8765666 1.6201441 0.46772805 
0.5077466 1.563752 1.2250007 1.0453103 1.5533009 0.30175954 
0.0 1.9184453 1.9478277 0.8747511 1.3675638 0.0 
0.0 2.04756 2.2428236 0.49864957 1.3640082 0.0 
0.0 1.7012303 1.9286935 0.028790336 1.199808 0.0 
0.0 0.83982044 0.97952163 0.0 0.7520689 0.0 
0.0 0.1251857 0.14211392 0.0 0.28978053 0.0 
0.0 0.0 0.0 0.0 0.0 0.07698792 
0.0 0.0 0.0 0.0 0.0 0.07698792 
0.0 0.0 0.0 0.0 0.0 0.07698792 
0.0 0.0 0.0 0.0 0.0 0.07698792 
0.0 0.0 0.0 0.0 0.0 0.07698792 
0.0 0.0 0.0 0.0 0.0 0.07698792 
0.0 0.0 0.0 0.0 0.0 0.07698792 
0.0 0.0 0.0 0.0 0.0 0.07698792 
0.0 0.0 0.0 0.0 0.0 0.07698792 
0.0 0.0 0.0 0.0 0.0 0.07698792 
0.0 0.0 0.0 0.0 0.0 0.07698792 
0.0 0.0 0.0 0.0 0.0 0.07698792 
0.0 0.0 0.0 0.0 0.0 0.07698792 
0.0 0.0 0.0 0.0 0.0 0.07698792 
0.0 0.0 0.0 0.0 0.0 0.07698792 
0.0 0.0 0.0 0.0 0.0 0.07698792 
0.078636855 0.0 0.0016978979 0.0 0.0 0.07543236 
0.6906969 0.0 0.0 0.09592683 0.0 0.34489447 
1.2880645 0.0 0.0 0.38356626 0.33445552 0.7322719 
1.4199746 0.09011106 0.0 0.6659904 1.381538 0.95773935 
0.8631076 0.69142485 0.0 0.92190295 2.2210028 1.3604507 
0.63635254 0.4690938 0.0 0.90569264 2.3859892 1.6183693 
0.81437916 0.58879405 0.0 0.9332312 1.9098433 1.4202805 
0.4234764 1.0725656 0.54296803 0.6209495 1.6767927 0.58759767 
0.0 1.9597555 1.7346919 0.53195137 1.5898224 0.0 
0.0 1.722909 2.1808195 0.20501898 1.563165 0.0 
0.0 1.0861408 1.5634402 0.088765174 0.9514695 0.0 
0.0 0.27116895 0.40686598 0.0 0.3591154 0.0 
0.0 0.0 0.0 0.0 0.0 0.07698792 
0.0 0.0 0.0 0.0 0.0 0.07698792 
0.0 0.0 0.0 0.0 0.0 0.07698792 
0.0 0.0 0.0 0.0 0.0 0.07698792 
0.0 0.0 0.0 0.0 0.0 0.07698792 
0.0 0.0 0.0 0.0 0.0 0.07698792 
0.0 0.0 0.0 0.0 0.0 0.07698792 
0.0 0.0 0.0 0.0 0.0 0.07698792 
0.0 0.0 0.0 0.0 0.0 0.07698792 
0.0 0.0 0.0 0.0 0.0 0.07698792 
0.0 0.0 0.0 0.0 0.0 0.07698792 
0.0 0.0 0.0 0.0 0.0 0.07698792 
0.0 0.0 0.0 0.0 0.0 0.07698792 
0.0 0.0 0.0 0.0 0.0 0.07698792 
0.0 0.0 0.0 0.0 0.0 0.07698792 
0.0 0.0 0.0 0.0 0.0 0.07698792 
0.094495624 0.0 0.0 0.047626305 0.0 0.19836912 
0.76801795 0.0 0.0 0.31139952 0.21778049 0.766642 
1.1482117 0.0 0.0 0.43093517 1.0433577 1.1602144 
0.71297693 0.3065232 0.0 0.62617314 1.6729413 1.2770679 
0.31214553 0.3786937 0.0 0.49536172 2.0549076 1.5979295 
0.7425689 0.0 0.0 0.4201309 1.7198249 1.9189038 
1.4395325 0.0 0.0 0.23028973 1.4743291 1.712256 
1.0852532 0.61321414 0.0 0.20662805 1.5263902 0.85073274 
0.0 1.7385132 0.76326334 0.1802834 1.7088848 0.0 
0.0 1.7515836 1.8650904 0.047539692 1.7669308 0.0 
0.0 1.0071223 1.7420112 0.035242062 1.0932175 0.0 
0.0 0.3175526 0.62954867 0.0 0.4021623 0.0 
0.0 0.0 0.0 0.0 0.0 0.07698792 
0.0 0.0 0.0 0.0 0.0 0.07698792 
0.0 0.0 0.0 0.0 0.0 0.07698792 
0.0 0.0 0.0 0.0 0.0 0.07698792 
0.0 0.0 0.0 0.0 0.0 0.07698792 
0.0 0.0 0.0 0.0 0.0 0.07698792 
0.0 0.0 0.0 0.0 0.0 0.07698792 
0.0 0.0 0.0 0.0 0.0 0.07698792 
0.0 0.0 0.0 0.0 0.0 0.07698792 
0.0 0.0 0.0 0.0 0.0 0.07698792 
0.0 0.0 0.0 0.0 0.0 0.07698792 
0.0 0.0 0.0 0.0 0.0 0.07698792 
0.0 0.0 0.0 0.0 0.0 0.07698792 
0.0 0.0 0.0 0.0 0.0 0.07698792 
0.0 0.0 0.0 0.0 0.0 0.07698792 
0.0 0.0 0.0 0.0 0.0 0.07698792 
0.1489003 0.0 0.0 0.06470217 0.043724556 0.2889428 
0.60057974 0.0 0.0 0.14777344 0.5292094 0.70652986 
0.6574072 0.0 0.0 0.07537165 1.0907025 0.964496 
0.33327568 0.09804763 0.0 0.0 1.2534884 1.0730598 
0.3169045 0.0 0.0 0.0 1.1875579 1.1349194 
0.9302828 0.0 0.0 0.0 0.9337844 1.3749576 
1.7596169 0.0 0.0 0.0 1.1082559 1.3373139 
1.3937535 0.24659416 0.0 0.0 1.5459489 0.6216843 
0.0 1.5602882 0.11839428 0.0 1.819038 0.0 
0.0 1.6746597 1.6399218 0.0 1.8425997 0.0 
0.0 0.9552273 1.662166 0.0 1.1769332 0.0 
0.0 0.23673406 0.6953908 0.0 0.45502713 0.0 
0.0 0.0 0.0 0.0 0.0 0.07698792 
0.0 0.0 0.0 0.0 0.0 0.07698792 
0.0 0.0 0.0 0.0 0.0 0.07698792 
0.0 0.0 0.0 0.0 0.0 0.07698792 
0.0 0.0 0.0 0.0 0.0 0.07698792 
0.0 0.0 0.0 0.0 0.0 0.07698792 
0.0 0.0 0.0 0.0 0.0 0.07698792 
0.0 0.0 0.0 0.0 0.0 0.07698792 
0.0 0.0 0.0 0.0 0.0 0.07698792 
0.0 0.0 0.0 0.0 0.0 0.07698792 
0.0 0.0 0.0 0.0 0.0 0.07698792 
0.0 0.0 0.0 0.0 0.0 0.07698792 
0.0 0.0 0.0 0.0 0.0 0.07698792 
0.0 0.0 0.0 0.0 0.0 0.07698792 
0.0 0.0 0.0 0.0 0.0 0.07698792 
0.0 0.0 0.0 0.0 0.0 0.07698792 
0.09869525 0.0 0.0 0.059368443 0.050311532 0.25688082 
0.34341976 0.0 0.0 0.0 0.5024538 0.5215905 
0.25306615 0.0 0.0 0.0 0.5859231 0.511284 
0.09991644 0.0 0.0 0.0 0.4861966 0.4462285 
0.14116392 0.0 0.0 0.0 0.2544143 0.42174047 
1.2226849 0.0 0.0 0.0 0.3612977 0.7511181 
2.041999 0.0 0.0 0.0 0.839871 0.868646 
1.474647 0.5691516 0.0 0.0 1.436822 0.25688797 
0.0 1.6723241 0.0 0.0 1.9441141 0.0 
0.0 1.6229789 1.6039643 0.027053427 1.8502759 0.0 
0.0 0.88195133 1.6138564 0.037560377 1.17388 0.055849433 
0.0 0.19118387 0.6810894 0.02057952 0.40895692 0.024357036 
0.0 0.0 0.0 0.0 0.0 0.07698792 
0.0 0.0 0.0 0.0 0.0 0.07698792 
0.0 0.0 0.0 0.0 0.0 0.07698792 
0.0 0.0 0.0 0.0 0.0 0.07698792 
0.0 0.0 0.0 0.0 0.0 0.07698792 
0.0 0.0 0.0 0.0 0.0 0.07698792 
0.0 0.0 0.0 0.0 0.0 0.07698792 
0.0 0.0 0.0 0.0 0.0 0.07698792 
0.0 0.0 0.0 0.0 0.0 0.07698792 
0.0 0.0 0.0 0.0 0.0 0.07698792 
0.0 0.0 0.0 0.0 0.0 0.07698792 
0.0 0.0 0.0 0.0 0.0 0.07698792 
0.0 0.0 0.0 0.0 0.0 0.07698792 
0.0 0.0 0.0 0.0 0.0 0.07698792 
0.0 0.0 0.0 0.0 0.0 0.07698792 
0.0 0.0 0.0 0.0 0.0 0.07698792 
0.047929056 0.0 0.0 0.0 0.12648158 0.15744182 
0.07141511 0.0 0.0 0.0 0.14913157 0.18510236 
0.0 0.0 0.0 0.0 0.06953022 0.12359543 
0.0 0.0 0.0 0.0 0.0019448884 0.12511055 
0.40376765 0.0 0.0018293336 0.0 0.0 0.11577787 
1.6077344 0.0 0.0 0.0 0.047660235 0.46073127 
2.1699011 0.0 0.0 0.0 0.8794545 0.55714685 
1.1708689 1.0302099 0.0 0.0 1.7446605 0.23797116 
0.0 1.6981809 0.02293384 0.0 2.2208197 0.049214125 
0.0 1.4083043 1.5017467 0.21247983 1.8090682 0.099862784 
0.0 0.6265139 1.4362247 0.18259214 1.0589505 0.2417329 
0.0 0.15573756 0.6222405 0.13516465 0.25042352 0.089957185 
0.0 0.0 0.0 0.0 0.0 0.07698792 
0.0 0.0 0.0 0.0 0.0 0.07698792 
0.0 0.0 0.0 0.0 0.0 0.07698792 
0.0 0.0 0.0 0.0 0.0 0.07698792 
0.0 0.0 0.0 0.0 0.0 0.07698792 
0.0 0.0 0.0 0.0 0.0 0.07698792 
0.0 0.0 0.0 0.0 0.0 0.07698792 
0.0 0.0 0.0 0.0 0.0 0.07698792 
0.0 0.0 0.0 0.0 0.0 0.07698792 
0.0 0.0 0.0 0.0 0.0 0.07698792 
0.0 0.0 0.0 0.0 0.0 0.07698792 
0.0 0.0 0.0 0.0 0.0 0.07698792 
0.0 0.0 0.0 0.0 0.0 0.07698792 
0.0 0.0 0.0 0.0 0.0 0.07698792 
0.0 0.0 0.0 0.0 0.0 0.07698792 
0.0 0.0 0.0 0.0 0.0 0.07698792 
0.0 0.0 0.0 0.0 0.0 0.07698792 
0.0 0.0 0.0 0.0 0.0 0.07698792 
0.0 0.0 0.0 0.0 0.0 0.07698792 
0.12914725 0.0 0.07718191 0.0 0.0 0.017868996 
0.9560353 0.0 0.0 0.0 0.0 0.16703156 
1.8820322 0.0 0.0 0.0 0.20114549 0.40073055 
1.9341214 0.40577886 0.0 0.0 1.2859232 0.32549772 
0.5671503 1.4228741 0.0 0.0 2.2264147 0.23094992 
0.0 1.7432908 0.3050899 0.07664416 2.2734225 0.18001774 
0.0 1.0603591 1.2862155 0.14008306 1.601873 0.33779085 
0.0 0.38234088 1.1329501 0.19096944 0.7292345 0.3175166 
0.0 0.069697484 0.44773126 0.10983428 0.10073215 0.12308848 
0.0 0.0 0.0 0.0 0.0 0.07698792 
0.0 0.0 0.0 0.0 0.0 0.07698792 
0.0 0.0 0.0 0.0 0.0 0.07698792 
0.0 0.0 0.0 0.0 0.0 0.07698792 
0.0 0.0 0.0 0.0 0.0 0.07698792 
0.0 0.0 0.0 0.0 0.0 0.07698792 
0.0 0.0 0.0 0.0 0.0 0.07698792 
0.0 0.0 0.0 0.0 0.0 0.07698792 
0.0 0.0 0.0 0.0 0.0 0.07698792 
0.0 0.0 0.0 0.0 0.0 0.07698792 
0.0 0.0 0.0 0.0 0.0 0.07698792 
0.0 0.0 0.0 0.0 0.0 0.07698792 
0.0 0.0 0.0 0.0 0.0 0.07698792 
0.0 0.0 0.0 0.0 0.0 0.07698792 
0.0 0.0 0.0 0.0 0.0 0.07698792 
0.0 0.0 0.0 0.0 0.0 0.07698792 
0.0 0.0 0.0 0.0 0.0 0.07698792 
0.0 0.0 0.0 0.0 0.0 0.07698792 
0.02777782 0.0 0.0670035 0.0 0.0 0.018536538 
0.4954722 0.0 0.040336862 0.0 0.0 0.0 
1.4269593 0.0 0.0 0.0 0.0 0.19025457 
2.1038446 0.0 0.0 0.0 0.62488264 0.28486043 
1.4432902 1.1043429 0.0 0.0 1.7764894 0.20038429 
0.0 1.6819043 0.0 0.0 2.521107 0.19389266 
0.0 1.6098578 0.7129388 0.0010944353 2.0571456 0.23955849 
0.0 0.65687984 1.0531265 0.0 1.2860061 0.36544004 
0.0 0.1547939 0.7490024 0.059130993 0.43308946 0.2723677 
0.0 0.0 0.18716598 0.0 0.035316203 0.10841707 
0.0 0.0 0.0 0.0 0.0 0.07698792 
0.0 0.0 0.0 0.0 0.0 0.07698792 
0.0 0.0 0.0 0.0 0.0 0.07698792 
0.0 0.0 0.0 0.0 0.0 0.07698792 
0.0 0.0 0.0 0.0 0.0 0.07698792 
0.0 0.0 0.0 0.0 0.0 0.07698792 
0.0 0.0 0.0 0.0 0.0 0.07698792 
0.0 0.0 0.0 0.0 0.0 0.07698792 
0.0 0.0 0.0 0.0 0.0 0.07698792 
0.0 0.0 0.0 0.0 0.0 0.07698792 
0.0 0.0 0.0 0.0 0.0 0.07698792 
0.0 0.0 0.0 0.0 0.0 0.07698792 
0.0 0.0 0.0 0.0 0.0 0.07698792 
0.0 0.0 0.0 0.0 0.0 0.07698792 
0.0 0.0 0.0 0.0 0.0 0.07698792 
0.0 0.0 0.0 0.0 0.0 0.07698792 
0.0 0.0 0.0 0.0 0.0 0.07698792 
0.0 0.0 0.0 0.0 0.0 0.072085544 
0.17706715 0.0 0.051678866 0.0 0.0 0.02004385 
0.99567014 0.0 0.0 0.0 0.0 0.14363748 
1.8740604 0.0 0.0 0.0 0.1670354 0.33336017 
1.8695223 0.48233032 0.0 0.034266684 1.2587534 0.32991633 
0.6186362 1.312654 0.0 0.0 2.394921 0.30393153 
0.0 1.714192 0.080399506 0.07799093 2.46753 0.29872674 
0.0 1.099419 1.0153668 0.08216961 1.7618638 0.42480284 
0.0 0.32141334 0.9477335 0.03377806 0.91220456 0.3613885 
0.0 0.0 0.42827043 0.0 0.22255863 0.17278415 
0.0 0.0 0.004125789 0.0 0.0 0.08515067 
0.0 0.0 0.0 0.0 0.0 0.07698792 
0.0 0.0 0.0 0.0 0.0 0.07698792 
0.0 0.0 0.0 0.0 0.0 0.07698792 
0.0 0.0 0.0 0.0 0.0 0.07698792 
0.0 0.0 0.0 0.0 0.0 0.07698792 
0.0 0.0 0.0 0.0 0.0 0.07698792 
0.0 0.0 0.0 0.0 0.0 0.07698792 
0.0 0.0 0.0 0.0 0.0 0.07698792 
0.0 0.0 0.0 0.0 0.0 0.07698792 
0.0 0.0 0.0 0.0 0.0 0.07698792 
0.0 0.0 0.0 0.0 0.0 0.07698792 
0.0 0.0 0.0 0.0 0.0 0.07698792 
0.0 0.0 0.0 0.0 0.0 0.07698792 
0.0 0.0 0.0 0.0 0.0 0.07698792 
0.0 0.0 0.0 0.0 0.0 0.07698792 
0.0 0.0 0.0 0.0 0.0 0.07698792 
0.0 0.0 0.0 0.0 0.0 0.07698792 
0.0011140257 0.0 0.017887853 0.0 0.0 0.04216315 
0.51722795 0.0 0.0 0.0 0.0 0.085377075 
1.4671495 0.0 0.0 0.0 0.0 0.27545676 
2.0376189 0.0 0.0 0.0 0.72675395 0.34867746 
1.3964314 1.0511389 0.0 0.13358817 1.9123755 0.35552168 
0.0 1.6609262 0.0 0.0 2.597329 0.29093745 
0.0 1.5237548 0.6815785 0.18146342 2.1228576 0.30819404 
0.0 0.6230826 1.0836153 0.09406975 1.3360305 0.46551538 
0.0 0.21653886 0.8472216 0.19240439 0.42347685 0.3009281 
0.0 0.0 0.19817305 0.0039411457 0.049092833 0.10996087 
0.0 0.0 0.0 0.0 0.0 0.07767282 
0.0 0.0 0.0 0.0 0.0 0.07698792 
0.0 0.0 0.0 0.0 0.0 0.07698792 
0.0 0.0 0.0 0.0 0.0 0.07698792 
0.0 0.0 0.0 0.0 0.0 0.07698792 
0.0 0.0 0.0 0.0 0.0 0.07698792 
0.0 0.0 0.0 0.0 0.0 0.07698792 
0.0 0.0 0.0 0.0 0.0 0.07698792 
0.0 0.0 0.0 0.0 0.0 0.07698792 
0.0 0.0 0.0 0.0 0.0 0.07698792 
0.0 0.0 0.0 0.0 0.0 0.07698792 
0.0 0.0 0.0 0.0 0.0 0.07698792 
0.0 0.0 0.0 0.0 0.0 0.07698792 
0.0 0.0 0.0 0.0 0.0 0.07698792 
0.0 0.0 0.0 0.0 0.0 0.07698792 
0.0 0.0 0.0 0.0 0.0 0.07698792 
0.0 0.0 0.0 0.0 0.0 0.07698792 
0.0 0.0 0.0 0.0 0.0 0.06265791 
0.19983846 0.0 0.096011154 0.0 0.0 0.0 
1.0174394 0.0 0.0 0.0 0.0 0.14347363 
1.8475645 0.0 0.0 0.0 0.23144229 0.37935078 
1.8159256 0.5164676 0.0 0.015290123 1.3052975 0.37156942 
0.6506466 1.4154842 0.0 0.053797428 2.3845608 0.4384066 
0.0 1.7528791 0.02454336 0.1304493 2.494711 0.49453366 
0.0 1.0691023 0.8670129 0.06958443 1.6974608 0.5657972 
0.0 0.27453086 0.8556926 0.028817263 0.8273187 0.43727762 
0.0 0.0 0.5563871 0.0060632722 0.11707573 0.1846407 
0.0 0.027413193 0.072695024 0.0 0.0 0.0 
0.0 0.044248756 0.0 0.0 0.0 0.0 
0.0 0.06705662 0.0 0.0 0.0 0.0 
0.0 0.039431702 0.0 0.0 0.0 0.032695256 
0.0 0.0 0.0 0.0 0.0 0.07698792 
0.0 0.0 0.0 0.0 0.0 0.07698792 
0.0 0.0 0.0 0.0 0.0 0.07698792 
0.0 0.0 0.0 0.0 0.0 0.07698792 
0.0 0.0 0.0 0.0 0.0 0.07698792 
0.0 0.0 0.0 0.0 0.0 0.07698792 
0.0 0.0 0.0 0.0 0.0 0.07698792 
0.0 0.0 0.0 0.0 0.0 0.07698792 
0.0 0.0 0.0 0.0 0.0 0.07698792 
0.0 0.0 0.0 0.0 0.0 0.07698792 
0.0 0.0 0.0 0.0 0.0 0.07698792 
0.0 0.0 0.0 0.0 0.0 0.07698792 
0.0 0.0 0.0 0.0 0.0 0.07698792 
0.0 0.0 0.0 0.0 0.0 0.052853156 
0.14290427 0.0 0.10558162 0.0 0.0 0.0 
0.6097296 0.0 0.078095354 0.0 0.0 0.0 
1.5415797 0.0 0.0 0.0 0.0 0.07936541 
2.0936859 0.09495121 0.0 0.0 0.7867293 0.18548375 
1.4329698 1.073327 0.0 0.0 1.872389 0.12018204 
0.11010985 1.639245 0.0 0.0 2.472064 0.0 
0.0 1.5483614 0.94148934 0.0 1.8860445 0.0 
0.0 0.8658515 1.3324565 0.0 1.0186725 0.0 
0.0 0.6059222 1.1376556 0.0 0.22615768 0.0 
0.22242972 0.32639083 0.6303695 0.0 0.0 0.0 
0.31131864 0.57876754 0.44760698 0.0 0.0 0.0 
0.0600985 0.62796503 0.27833715 0.0 0.049504433 0.0 
0.0 0.53734475 0.293105 0.0 0.12599432 0.0 
0.0 0.2039914 0.08656015 0.0 0.20480837 0.0 
0.0 0.038870584 0.0 0.0 0.0 0.033216346 
0.0 0.0 0.0 0.0 0.0 0.07698792 
0.0 0.0 0.0 0.0 0.0 0.07698792 
0.0 0.0 0.0 0.0 0.0 0.07698792 
0.0 0.0 0.0 0.0 0.0 0.07698792 
0.0 0.0 0.0 0.0 0.0 0.07698792 
0.0 0.0 0.0 0.0 0.0 0.07698792 
0.0 0.0 0.0 0.0 0.0 0.07698792 
0.0 0.0 0.0 0.0 0.0 0.07698792 
0.0 0.0 0.0 0.0 0.0 0.07698792 
0.0 0.0 0.0 0.0 0.0 0.07698792 
0.0 0.0 0.0 0.0 0.0 0.07698792 
0.0 0.0 0.0 0.0 0.0 0.0686916 
0.12111586 0.0 0.08498784 0.0 0.0 0.0 
0.54101825 0.0 0.15042788 0.0 0.0 0.0 
1.1905267 0.0 0.06917564 0.0 0.0 0.0 
1.8773572 0.004840768 0.0 0.0 0.306608 0.0 
1.8005626 0.7064933 0.0 0.0 1.3823713 0.0100455955 
0.98937994 1.4564096 0.0 0.0 2.0865054 0.0 
0.052442625 1.8924512 0.5238541 0.0 1.8937603 0.0 
0.0 1.5387049 1.6078104 0.0 1.1745851 0.0 
0.0 1.083458 1.779014 0.0 0.6234205 0.0 
0.23299116 0.92617303 1.447275 0.0 0.22291203 0.0 
0.5508562 0.8538487 0.96140444 0.0 0.1302425 0.0 
0.25902233 1.1512725 0.92008096 0.0 0.46050248 0.0 
0.0 1.1800343 0.8001153 0.0 0.7586525 0.0 
0.0 0.95031494 0.7798558 0.0 0.73061025 0.0 
0.0 0.3802971 0.40902442 0.0 0.54619527 0.0 
0.0 0.012319253 0.0 0.0 0.08702573 0.024882346 
0.0 0.0 0.0 0.0 0.0 0.07698792 
0.0 0.0 0.0 0.0 0.0 0.07698792 
0.0 0.0 0.0 0.0 0.0 0.07698792 
0.0 0.0 0.0 0.0 0.0 0.07698792 
0.0 0.0 0.0 0.0 0.0 0.07698792 
0.0 0.0 0.0 0.0 0.0 0.07698792 
0.0 0.0 0.0 0.0 0.0 0.07698792 
0.0 0.0 0.0 0.0 0.0 0.07698792 
0.0 0.0 0.0 0.0 0.0 0.07698792 
0.0 0.0 0.0 0.0 0.0 0.07698792 
0.0 0.0 0.0 0.0 0.0 0.07057712 
0.110222295 0.0 0.12732053 0.0 0.0 0.0 
0.55834407 0.0 0.11887366 0.0 0.0 0.0 
1.0608711 0.0 0.15770799 0.0 0.0 0.0 
1.7103312 0.0480043 0.023511618 0.0 0.040188733 0.0 
1.8366253 0.63952726 0.0 0.0 1.157971 0.0 
1.3761594 1.0872191 0.0 0.0 2.0163484 0.13009825 
0.80304635 1.384959 0.0614859 0.0 2.209413 0.0 
0.16122754 1.4877735 1.0703621 0.0 1.8146294 0.0 
0.089131996 1.1363442 1.7854269 0.0 1.4694095 0.0 
0.2276702 1.0685179 1.8869637 0.0 1.2414997 0.0 
0.41324735 0.9815518 1.5822526 0.0 1.1005569 0.0 
0.5568041 1.1486299 1.4114085 0.19409683 1.136226 0.0 
0.04580971 1.6263541 1.4204057 0.2512942 1.4924046 0.0 
0.0 1.7081583 1.413331 0.26293042 1.5110723 0.0 
0.0 1.250786 1.40783 0.21610075 1.1592227 0.0 
0.0 0.54775923 0.85467106 0.08549984 0.6733484 0.0 
0.0 0.07316013 0.10128752 0.045377474 0.04925635 0.05767029 
0.0 0.0 0.0 0.0 0.0 0.07698792 
0.0 0.0 0.0 0.0 0.0 0.07698792 
0.0 0.0 0.0 0.0 0.0 0.07698792 
0.0 0.0 0.0 0.0 0.0 0.07698792 
0.0 0.0 0.0 0.0 0.0 0.07698792 
0.0 0.0 0.0 0.0 0.0 0.07698792 
0.0 0.0 0.0 0.0 0.0 0.07698792 
0.0 0.0 0.0 0.0 0.0 0.07698792 
0.0 0.0 0.0 0.0 0.0 0.07698792 
0.0 0.0 0.0 0.0 0.0 0.07698792 
0.05195552 0.0 0.07634834 0.0 0.0 0.014884196 
0.46540904 0.0 0.10170028 0.0 0.0 0.0 
1.1015601 0.0 0.123631604 0.0 0.0 0.0 
1.6721075 0.0615118 0.017356418 0.0 0.0 0.0 
1.7465734 0.6482881 0.0 0.0 0.98857707 0.0 
1.3794513 1.0606939 0.0 0.0 2.0405564 0.18197107 
1.0365028 1.3035136 0.0 0.10361929 2.4019554 0.43620566 
0.5072791 1.5267043 0.14708874 0.33303314 2.346276 0.5314315 
0.042379603 1.3124802 0.8587226 0.6239814 2.203109 0.57680994 
0.14707556 1.2600871 1.2232258 1.0891453 2.043718 0.7424198 
0.20583174 1.2630225 1.1869031 1.3935874 1.9192499 0.81949896 
0.3381174 1.3644676 0.9026117 1.5804772 1.8001872 0.883917 
0.31410855 1.3797323 0.84218955 1.596879 2.0022552 1.0237749 
0.0 1.8308022 1.0744883 1.4719154 2.057937 0.69748616 
0.0 1.7246166 1.3198248 1.1214323 1.6768433 0.31272453 
0.0 1.1487242 1.5471091 0.75304073 1.0691687 0.36748216 
0.0 0.4241687 1.0466017 0.3439843 0.49536416 0.1577293 
0.0 0.09603182 0.157348 0.096118994 0.0 0.09637936 
0.0 0.0 0.0 0.0 0.0 0.07698792 
0.0 0.0 0.0 0.0 0.0 0.07698792 
0.0 0.0 0.0 0.0 0.0 0.07698792 
0.0 0.0 0.0 0.0 0.0 0.07698792 
0.0 0.0 0.0 0.0 0.0 0.07698792 
0.0 0.0 0.0 0.0 0.0 0.07698792 
0.0 0.0 0.0 0.0 0.0 0.07698792 
0.0 0.0 0.0 0.0 0.0 0.07698792 
0.0 0.0 0.0 0.0 0.0 0.07698792 
0.0 0.0 0.0 0.0 0.0 0.07698792 
0.19025385 0.0 0.018693939 0.0 0.0 0.060937554 
0.96829695 0.0 0.005722247 0.0 0.0 0.108354144 
1.6485808 0.0 0.0 0.01828627 0.0 0.07768466 
1.8257594 0.42010823 0.0 0.11882956 0.81946766 0.006606072 
1.3121085 1.0730464 0.0 0.10239499 2.0045445 0.25594258 
0.83850414 1.2987269 0.0 0.29294094 2.682367 0.68890876 
0.4755751 1.219015 0.0 0.5484451 2.936847 1.1651206 
0.135497 1.0361408 0.0 0.8310666 2.9957078 1.5179446 
0.0 0.7654792 0.0 1.0289732 2.859584 1.7015278 
0.06447078 0.597219 0.0 1.158003 2.7067244 1.8484313 
0.22277859 0.40949556 0.0 1.1513313 2.604684 1.884037 
0.36685234 0.4881496 0.0 1.1781616 2.4590828 1.9041207 
0.23747516 0.5378308 0.0 1.0577563 2.532811 1.8640642 
0.0 0.8706475 0.0 0.8287519 2.1426437 1.333226 
0.0 0.74226236 0.44542098 0.59596014 1.4116958 0.7959444 
0.0 0.4305527 0.9492847 0.35748675 0.753084 0.61185735 
0.0 0.16729301 0.7725735 0.18616694 0.26696783 0.23189804 
0.0 0.0 0.06611379 0.0 0.0 0.094127946 
0.0 0.0 0.0 0.0 0.0 0.07698792 
0.0 0.0 0.0 0.0 0.0 0.07698792 
0.0 0.0 0.0 0.0 0.0 0.07698792 
0.0 0.0 0.0 0.0 0.0 0.07698792 
0.0 0.0 0.0 0.0 0.0 0.07698792 
0.0 0.0 0.0 0.0 0.0 0.07698792 
0.0 0.0 0.0 0.0 0.0 0.07698792 
0.0 0.0 0.0 0.0 0.0 0.07698792 
0.0 0.0 0.0 0.0 0.0 0.07698792 
0.0 0.0 0.0 0.0 0.0 0.07698792 
0.30780953 0.0 0.0 0.07023399 0.0 0.31031328 
1.2182968 0.0 0.0 0.37668687 0.0 0.6403805 
1.9164686 0.0 0.0 0.46969983 0.6331287 0.73664856 
1.5399694 0.68653107 0.0 0.64317364 1.6030453 0.8158519 
0.8042805 1.1561025 0.0 0.6151262 2.6107824 0.9353223 
0.14344236 1.3804336 0.0 0.6632741 3.0885937 1.2475164 
0.0 0.91599774 0.0 0.7118068 3.0625017 1.6284752 
0.0 0.57811946 0.0 0.655228 2.7197561 1.7412438 
0.0 0.41513458 0.0 0.5234143 2.2843878 1.7744286 
0.16236271 0.29524267 0.0 0.3137115 1.9909714 1.8418014 
0.2549045 0.17854935 0.0 0.15060039 1.8437885 1.7878888 
0.2445342 0.10933559 0.0 0.02176816 1.7642007 1.7340901 
0.115402 0.16301808 0.0 0.0 1.6822281 1.5951333 
0.0 0.27742225 0.0 0.0 1.2106104 1.1667414 
0.0 0.15678614 0.0 0.0 0.64017594 0.68857515 
0.0 0.0 0.38985714 0.0 0.3326537 0.4520473 
0.0 0.0 0.3793418 0.0018059136 0.11498618 0.16813293 
0.0 0.0 0.0 0.0 0.0 0.08018411 
0.0 0.0 0.0 0.0 0.0 0.07698792 
0.0 0.0 0.0 0.0 0.0 0.07698792 
0.0 0.0 0.0 0.0 0.0 0.07698792 
0.0 0.0 0.0 0.0 0.0 0.07698792 
0.0 0.0 0.0 0.0 0.0 0.07698792 
0.0 0.0 0.0 0.0 0.0 0.07698792 
0.0 0.0 0.0 0.0 0.0 0.07698792 
0.0 0.0 0.0 0.0 0.0 0.07698792 
0.0 0.0 0.0 0.0 0.0 0.07698792 
0.0 0.0 0.0 0.0 0.0 0.07698792 
0.38285485 0.0 0.0 0.21536343 0.031164143 0.5241636 
1.1811047 0.0 0.0 0.36746934 0.5324753 1.1963775 
1.5144641 0.0 0.0 0.71876377 1.2855313 1.4865036 
1.20243 0.26824516 0.0 0.9440567 2.0606363 1.6412132 
0.23304445 1.101382 0.0 1.034419 2.591746 1.6293173 
0.0 0.88150865 0.0 0.60210335 2.73596 1.5197904 
0.0 0.50190645 0.0 0.20853047 2.2111492 1.5315404 
0.0 0.22005148 0.0 0.0 1.6123527 1.3504658 
0.0 0.0 0.0 0.0 1.2745866 1.1043246 
0.08014931 0.0 0.0 0.0 1.1640959 1.0006495 
0.08983436 0.0 0.0 0.0 1.1360646 0.90606976 
0.12799403 0.0 0.0 0.0 1.0761367 0.8262697 
0.013802551 0.0 0.0 0.0 0.9475431 0.69561 
0.0 0.0 0.0 0.0 0.572539 0.47400475 
0.0 0.0 0.0 0.0 0.32525527 0.29818952 
0.0 0.0 0.0 0.0 0.17720829 0.21424046 
0.0 0.0 0.054419316 0.0 0.03034668 0.09129466 
0.0 0.0 0.0 0.0 0.0 0.07698792 
0.0 0.0 0.0 0.0 0.0 0.07698792 
0.0 0.0 0.0 0.0 0.0 0.07698792 
0.0 0.0 0.0 0.0 0.0 0.07698792 
0.0 0.0 0.0 0.0 0.0 0.07698792 
0.0 0.0 0.0 0.0 0.0 0.07698792 
0.0 0.0 0.0 0.0 0.0 0.07698792 
0.0 0.0 0.0 0.0 0.0 0.07698792 
0.0 0.0 0.0 0.0 0.0 0.07698792 
0.0 0.0 0.0 0.0 0.0 0.07698792 
0.0 0.0 0.0 0.0 0.0 0.07698792 
0.36064893 0.0 0.0 0.042169563 0.27676213 0.4900381 
0.9971449 0.0 0.0 0.0921722 0.8840613 1.2179322 
1.0095658 0.0 0.0 0.19289714 1.3530476 1.4637082 
0.62142926 0.10478144 0.0 0.29229456 1.7678807 1.5232942 
0.0 0.3710703 0.0 0.23974364 1.935503 1.5006611 
0.0 0.35569486 0.0 0.00664417 1.5205549 1.1671278 
0.0 0.0 0.0 0.0 1.0604268 0.81646854 
0.0 0.0 0.0 0.0 0.6743923 0.5391994 
0.0 0.0 0.0 0.0 0.46336386 0.33827198 
0.0 0.0 0.0 0.0 0.35582796 0.29070872 
0.0 0.0 0.0 0.0 0.27572772 0.22066583 
0.0 0.0 0.0 0.0 0.17637034 0.19218643 
0.0 0.0 0.0 0.0 0.09155248 0.15090151 
0.0 0.0 0.0 0.0 0.037606988 0.12641633 
0.0 0.0 0.0 0.0 0.0 0.10392815 
0.0 0.0 0.0 0.0 0.0 0.07980361 
0.0 0.0 0.0 0.0 0.0 0.07698792 
0.0 0.0 0.0 0.0 0.0 0.07698792 
0.0 0.0 0.0 0.0 0.0 0.07698792 
0.0 0.0 0.0 0.0 0.0 0.07698792 
0.0 0.0 0.0 0.0 0.0 0.07698792 
0.0 0.0 0.0 0.0 0.0 0.07698792 
0.0 0.0 0.0 0.0 0.0 0.07698792 
0.0 0.0 0.0 0.0 0.0 0.07698792 
0.0 0.0 0.0 0.0 0.0 0.07698792 
0.0 0.0 0.0 0.0 0.0 0.07698792 
0.0 0.0 0.0 0.0 0.0 0.07698792 
0.0 0.0 0.0 0.0 0.0 0.07698792 
0.17882025 0.0 0.0 0.0 0.25567013 0.27585796 
0.591986 0.0 0.0 0.0 0.6508569 0.72598904 
0.6448058 0.0 0.0 0.0 1.0045396 1.0200212 
0.31885827 0.0 0.0 0.0 1.109207 1.0252445 
0.0 0.0 0.0 0.0 0.83254105 0.81064826 
0.0 0.0 0.0 0.0 0.51829636 0.53812784 
0.0 0.0 0.05445356 0.0 0.2948475 0.30758908 
0.0 0.0 0.03007228 0.0 0.1095705 0.14552203 
0.0 0.0 0.0 0.0 0.0 0.08812338 
0.0 0.0 0.0 0.0 0.0 0.07767282 
0.0 0.0 0.0 0.0 0.0 0.07698792 
0.0 0.0 0.0 0.0 0.0 0.07698792 
0.0 0.0 0.0 0.0 0.0 0.07698792 
0.0 0.0 0.0 0.0 0.0 0.07698792 
0.0 0.0 0.0 0.0 0.0 0.07698792 
0.0 0.0 0.0 0.0 0.0 0.07698792 
0.0 0.0 0.0 0.0 0.0 0.07698792 
0.0 0.0 0.0 0.0 0.0 0.07698792 
0.0 0.0 0.0 0.0 0.0 0.07698792 
0.0 0.0 0.0 0.0 0.0 0.07698792 
0.0 0.0 0.0 0.0 0.0 0.07698792 
0.0 0.0 0.0 0.0 0.0 0.07698792 
0.0 0.0 0.0 0.0 0.0 0.07698792 
0.0 0.0 0.0 0.0 0.0 0.07698792 
0.0 0.0 0.0 0.0 0.0 0.07698792 
0.0 0.0 0.0 0.0 0.0 0.07698792 
0.0 0.0 0.0 0.0 0.0 0.07698792 
0.0 0.0 0.0 0.0 0.0 0.07698792 
0.0 0.0 0.0 0.0 0.028331209 0.114739366 
0.19530705 0.0 0.0 0.0 0.34715366 0.2618052 
0.2605372 0.0 0.0 0.0 0.47290674 0.33358264 
0.036060452 0.0 0.0 0.0 0.31373486 0.25170493 
0.0 0.0 0.0 0.0 0.2373053 0.25197762 
0.0 0.0 0.0 0.0 0.18034515 0.20273432 
0.0 0.0 0.033961274 0.0 0.038077105 0.10123744 
0.0 0.0 0.0 0.0 0.0 0.07835772 
0.0 0.0 0.0 0.0 0.0 0.07698792 
0.0 0.0 0.0 0.0 0.0 0.07698792 
0.0 0.0 0.0 0.0 0.0 0.07698792 
0.0 0.0 0.0 0.0 0.0 0.07698792 
0.0 0.0 0.0 0.0 0.0 0.07698792 
0.0 0.0 0.0 0.0 0.0 0.07698792 
0.0 0.0 0.0 0.0 0.0 0.07698792 
0.0 0.0 0.0 0.0 0.0 0.07698792 
0.0 0.0 0.0 0.0 0.0 0.07698792 
0.0 0.0 0.0 0.0 0.0 0.07698792 
0.0 0.0 0.0 0.0 0.0 0.07698792 
0.0 0.0 0.0 0.0 0.0 0.07698792 
0.0 0.0 0.0 0.0 0.0 0.07698792 
0.0 0.0 0.0 0.0 0.0 0.07698792 
0.0 0.0 0.0 0.0 0.0 0.07698792 
0.0 0.0 0.0 0.0 0.0 0.07698792 
0.0 0.0 0.0 0.0 0.0 0.07698792 
0.0 0.0 0.0 0.0 0.0 0.07698792 
0.0 0.0 0.0 0.0 0.0 0.07698792 
0.0 0.0 0.0 0.0 0.0 0.07698792 
0.0 0.0 0.0 0.0 0.0 0.07698792 
0.0 0.0 0.0 0.0 0.0 0.07698792 
0.0 0.0 0.0 0.0 0.0 0.07698792 
0.0 0.0 0.0 0.0 0.0 0.07698792 
0.0 0.0 0.0 0.0 0.0 0.07698792 
0.0 0.0 0.0 0.0 0.0 0.07698792 
0.0 0.0 0.0 0.0 0.0 0.07698792 
0.0 0.0 0.0 0.0 0.0 0.07698792 
0.0 0.0 0.0 0.0 0.0 0.07698792 
0.0 0.0 0.0 0.0 0.0 0.07698792 
0.0 0.0 0.0 0.0 0.0 0.07698792 
0.0 0.0 0.0 0.0 0.0 0.07698792 
0.0 0.0 0.0 0.0 0.0 0.07698792 
0.0 0.0 0.0 0.0 0.0 0.07698792 
0.0 0.0 0.0 0.0 0.0 0.07698792 
0.0 0.0 0.0 0.0 0.0 0.07698792 
0.0 0.0 0.0 0.0 0.0 0.07698792 
0.0 0.0 0.0 0.0 0.0 0.07698792 
0.0 0.0 0.0 0.0 0.0 0.07698792 
0.0 0.0 0.0 0.0 0.0 0.07698792 
0.0 0.0 0.0 0.0 0.0 0.07698792 
0.0 0.0 0.0 0.0 0.0 0.07698792 
0.0 0.0 0.0 0.0 0.0 0.07698792 
0.0 0.0 0.0 0.0 0.0 0.07698792 
0.0 0.0 0.0 0.0 0.0 0.07698792 
0.0 0.0 0.0 0.0 0.0 0.07698792 
0.0 0.0 0.0 0.0 0.0 0.07698792 
0.0 0.0 0.0 0.0 0.0 0.07698792 
0.0 0.0 0.0 0.0 0.0 0.07698792 
0.0 0.0 0.0 0.0 0.0 0.07698792 
0.0 0.0 0.0 0.0 0.0 0.07698792 
0.0 0.0 0.0 0.0 0.0 0.07698792 
0.0 0.0 0.0 0.0 0.0 0.07698792 
0.0 0.0 0.0 0.0 0.0 0.07698792 
0.0 0.0 0.0 0.0 0.0 0.07698792 
0.0 0.0 0.0 0.0 0.0 0.07698792 
0.0 0.0 0.0 0.0 0.0 0.07698792 
0.0 0.0 0.0 0.0 0.0 0.07698792 
0.0 0.0 0.0 0.0 0.0 0.07698792 
0.0 0.0 0.0 0.0 0.0 0.07698792 
0.0 0.0 0.0 0.0 0.0 0.07698792 
0.0 0.0 0.0 0.0 0.0 0.07698792 
0.0 0.0 0.0 0.0 0.0 0.07698792 
0.0 0.0 0.0 0.0 0.0 0.07698792 
0.0 0.0 0.0 0.0 0.0 0.07698792 
0.0 0.0 0.0 0.0 0.0 0.07698792 
0.0 0.0 0.0 0.0 0.0 0.07698792 
0.0 0.0 0.0 0.0 0.0 0.07698792 
0.0 0.0 0.0 0.0 0.0 0.07698792 
0.0 0.0 0.0 0.0 0.0 0.07698792 

