0.0 0.0 0.0 0.0 0.0 0.07698792 
0.0 0.0 0.0 0.0 0.0 0.07698792 
0.0 0.0 0.0 0.0 0.0 0.07698792 
0.0 0.0 0.0 0.0 0.0 0.07698792 
0.0 0.0 0.0 0.0 0.0 0.07698792 
0.0 0.0 0.0 0.0 0.0 0.07698792 
0.0 0.0 0.0 0.0 0.0 0.07698792 
0.0 0.0 0.0 0.0 0.0 0.07698792 
0.0 0.0 0.0 0.0 0.0 0.07698792 
0.0 0.0 0.0 0.0 0.0 0.07698792 
0.0 0.0 0.0 0.0 0.0 0.07698792 
0.0 0.0 0.0 0.0 0.0 0.07698792 
0.0 0.0 0.0 0.0 0.0 0.07698792 
0.0 0.0 0.0 0.0 0.0 0.07698792 
0.0 0.0 0.0 0.0 0.0 0.07698792 
0.0 0.0 0.0 0.0 0.0 0.07698792 
0.0 0.0 0.0 0.0 0.0 0.07698792 
0.0 0.0 0.0 0.0 0.0 0.07698792 
0.0 0.0 0.0 0.0 0.0 0.07698792 
0.0 0.0 0.0 0.0 0.0 0.07698792 
0.0 0.0 0.0 0.0 0.0 0.07698792 
0.0 0.0 0.0 0.0 0.0 0.07698792 
0.0 0.0 0.0 0.0 0.0 0.07698792 
0.0 0.0 0.0 0.0 0.0 0.07698792 
0.0 0.0 0.0 0.0 0.0 0.07698792 
0.0 0.0 0.0 0.0 0.0 0.07698792 
0.0 0.0 0.0 0.0 0.0 0.07698792 
0.0 0.0 0.0 0.0 0.0 0.07698792 
0.0 0.0 0.0 0.0 0.0 0.07698792 
0.0 0.0 0.0 0.0 0.0 0.07698792 
0.0 0.0 0.0 0.0 0.0 0.07698792 
0.0 0.0 0.0 0.0 0.0 0.07698792 
0.0 0.0 0.0 0.0 0.0 0.07698792 
0.0 0.0 0.0 0.0 0.0 0.07698792 
0.0 0.0 0.0 0.0 0.0 0.07698792 
0.0 0.0 0.0 0.0 0.0 0.07698792 
0.0 0.0 0.0 0.0 0.0 0.07698792 
0.0 0.0 0.0 0.0 0.0 0.07698792 
0.0 0.0 0.0 0.0 0.0 0.07698792 
0.0 0.0 0.0 0.0 0.0 0.07698792 
0.0 0.0 0.0 0.0 0.0 0.07698792 
0.0 0.0 0.0 0.0 0.0 0.07698792 
0.0 0.0 0.0 0.0 0.0 0.07698792 
0.0 0.0 0.0 0.0 0.0 0.07698792 
0.0 0.0 0.0 0.0 0.0 0.07698792 
0.0 0.0 0.0 0.0 0.0 0.07698792 
0.0 0.0 0.0 0.0 0.0 0.07698792 
0.0 0.0 0.0 0.0 0.0 0.07698792 
0.0 0.0 0.0 0.0 0.0 0.07698792 
0.0 0.0 0.0 0.0 0.0 0.07698792 
0.0 0.0 0.0 0.0 0.0 0.07698792 
0.0 0.0 0.0 0.0 0.0 0.07698792 
0.0 0.0 0.0 0.0 0.0 0.07698792 
0.0 0.0 0.0 0.0 0.0 0.07698792 
0.0 0.0 0.0 0.0 0.0 0.07698792 
0.0 0.0 0.0 0.0 0.0 0.07698792 
0.0 0.0 0.0 0.0 0.0 0.07698792 
0.0 0.0 0.0 0.0 0.0 0.07698792 
0.0 0.0 0.0 0.0 0.0 0.07698792 
0.0 0.0 0.0 0.0 0.0 0.07698792 
0.0 0.0 0.0 0.0 0.0 0.07698792 
0.0 0.0 0.0 0.0 0.0 0.07698792 
0.0 0.0 0.0 0.0 0.0 0.07698792 
0.0 0.0 0.0 0.0 0.0 0.07698792 
0.0 0.0 0.0 0.0 0.0 0.07698792 
0.0 0.0 0.0 0.0 0.0 0.07698792 
0.0 0.0 0.0 0.0 0.0 0.07698792 
0.0 0.0 0.0 0.0 0.0 0.07698792 
0.0 0.0 0.0 0.0 0.0 0.07698792 
0.0 0.0 0.0 0.0 0.0 0.07698792 
0.0 0.0 0.0 0.0 0.0 0.07698792 
0.0 0.0 0.0 0.0 0.0 0.07698792 
0.0 0.0 0.0 0.0 0.0 0.07698792 
0.0 0.0 0.0 0.0 0.0 0.07698792 
0.0 0.0 0.0 0.0 0.0 0.07698792 
0.0 0.0 0.0 0.0 0.0 0.07698792 
0.0 0.0 0.0 0.0 0.0 0.07698792 
0.0 0.0 0.0 0.0 0.0 0.07698792 
0.0 0.0 0.0 0.0 0.0 0.07698792 
0.0 0.0 0.0 0.0 0.0 0.07698792 
0.0 0.0 0.0 0.0 0.0 0.07698792 
0.0 0.0 0.0 0.0 0.0 0.07698792 
0.0 0.0 0.0 0.0 0.0 0.07698792 
0.0 0.0 0.0 0.0 0.0 0.07698792 
0.0 0.0 0.0 0.0 0.0 0.07698792 
0.0 0.0 0.0 0.0 0.0 0.07698792 
0.0 0.0 0.0 0.0 0.0 0.07698792 
0.0 0.0 0.0 0.0 0.0 0.07698792 
0.0 0.0 0.0 0.0 0.0 0.07698792 
0.0 0.0 0.0 0.0 0.0 0.07698792 
0.0 0.0 0.0 0.0 0.0 0.07698792 
0.0 0.0 0.0 0.0 0.0 0.07698792 
0.0 0.0 0.0 0.0 0.0 0.07698792 
0.0 0.0 0.0 0.0 0.0 0.07698792 
0.0 0.0 0.0 0.0 0.0 0.07698792 
0.0 0.0 0.0 0.0 0.0 0.07698792 
0.0 0.0 0.0 0.0 0.0 0.07698792 
0.0 0.0 0.0 0.0 0.0 0.07698792 
0.0 0.0 0.0 0.0 0.0 0.07698792 
0.0 0.0 0.0 0.0 0.0 0.07698792 
0.0 0.0 0.0 0.0 0.0 0.07698792 
0.0 0.0 0.0 0.0 0.0 0.07698792 
0.0 0.0 0.0 0.0 0.0 0.07698792 
0.0 0.0 0.0 0.0 0.0 0.07698792 
0.0 0.0 0.0 0.0 0.0 0.07698792 
0.0 0.0 0.0 0.0 0.0 0.07698792 
0.0 0.0 0.0 0.0 0.0 0.07698792 
0.0 0.0 0.0 0.0 0.0 0.07698792 
0.0 0.0 0.0 0.0 0.0 0.07698792 
0.0 0.0 0.0 0.0 0.0 0.07698792 
0.0 0.0 0.0 0.0 0.0 0.07698792 
0.0 0.0 0.0 0.0 0.0 0.07698792 
0.0 0.0 0.0 0.0 0.0 0.07698792 
0.0 0.0 0.0 0.0 0.0 0.07698792 
0.0 0.0 0.0 0.0 0.0 0.07698792 
0.0 0.0 0.0 0.0 0.0 0.07698792 
0.0 0.0 0.0 0.0 0.0 0.07698792 
0.0 0.0 0.0 0.0 0.0 0.07698792 
0.0 0.0 0.0 0.0 0.0 0.07698792 
0.0 0.0 0.0 0.0 0.0 0.07698792 
0.0 0.0 0.0 0.0 0.0 0.07698792 
0.0 0.0 0.0 0.0 0.0 0.07698792 
0.0 0.0 0.0 0.0 0.0 0.07698792 
0.0 0.0 0.0 0.0 0.0 0.07698792 
0.0 0.0 0.0 0.0 0.0 0.07698792 
0.0 0.0 0.0 0.0 0.0 0.07698792 
0.0 0.0 0.0 0.0 0.0 0.07698792 
0.0 0.0 0.0 0.0 0.0 0.07698792 
0.0 0.0 0.0 0.0 0.0 0.07698792 
0.0 0.0 0.0 0.0 0.0 0.07698792 
0.0 0.0 0.0 0.0 0.0 0.07698792 
0.0 0.0 0.0 0.0 0.0 0.07698792 
0.0 0.0 0.0 0.0 0.0 0.07698792 
0.0 0.0 0.0 0.0 0.0 0.07698792 
0.0 0.0 0.0 0.0 0.0 0.07698792 
0.0 0.0 0.0 0.0 0.0 0.07698792 
0.0 0.0 0.0 0.0 0.0 0.07698792 
0.0 0.0 0.0 0.0 0.0 0.07698792 
0.0 0.0 0.0 0.0 0.0 0.07698792 
0.0 0.0 0.0 0.0 0.0 0.07698792 
0.040023245 0.0 0.08226172 0.0 0.0 0.011371531 
0.17535362 0.08653332 0.0920564 0.0 0.0 0.0 
0.093382746 0.14146069 0.14182347 0.0 0.0 0.0 
0.06843783 0.2755044 0.15153876 0.0 0.0 0.0 
0.0 0.2610226 0.090806104 0.0 0.016877059 0.0 
0.0 0.15479946 0.03336855 0.0 0.0 0.0 
0.0 0.07112366 0.0 0.0 0.0 0.0 
0.0 0.005764586 0.0 0.0 0.0 0.063960664 
0.0 0.0 0.0 0.0 0.0 0.07698792 
0.0 0.0 0.0 0.0 0.0 0.07698792 
0.0 0.0 0.0 0.0 0.0 0.07698792 
0.0 0.0 0.0 0.0 0.0 0.07698792 
0.0 0.0 0.0 0.0 0.0 0.07698792 
0.0 0.0 0.0 0.0 0.0 0.07698792 
0.0 0.0 0.0 0.0 0.0 0.06756028 
0.017152771 0.0 0.030943714 0.0 0.0 0.011627227 
0.029264137 0.07873235 0.0 0.0 0.0 0.0 
0.0 0.07443297 0.0012190454 0.0 0.0 0.0 
0.0 0.09260412 0.005570963 0.0 0.0 0.0 
0.0 0.04672625 0.0 0.0 0.0 0.02592108 
0.0 0.0 0.0 0.0 0.0 0.07698792 
0.0 0.0 0.0 0.0 0.0 0.07698792 
0.0 0.0 0.0 0.0 0.0 0.07698792 
0.0 0.0 0.0 0.0 0.0 0.07698792 
0.0 0.0 0.0 0.0 0.0 0.07698792 
0.0 0.0 0.0 0.0 0.0 0.07698792 
0.0 0.0 0.0 0.0 0.0 0.07698792 
0.0 0.0 0.0 0.0 0.0 0.07698792 
0.08773328 0.0 0.0 0.0 0.0 0.09086935 
0.44773716 0.0 0.21115494 0.0 0.0 0.0 
0.6695482 0.2241012 0.3050133 0.0 0.0 0.0 
0.39362502 0.6882912 0.67005 0.0 0.0 0.0 
0.07018754 0.77305603 0.73477674 0.0 0.110974506 0.0 
0.04156822 0.7678155 0.68269026 0.0 0.075765625 0.0 
0.012794182 0.6062445 0.4498924 0.0 0.074846074 0.0 
0.0 0.46484014 0.2790904 0.0 0.0077933185 0.0 
0.0 0.35851994 0.19608 0.0 0.0 0.0 
0.0 0.23244148 0.1099542 0.0 0.0 0.0 
0.0 0.13181812 0.0640161 0.0 0.0 0.0 
0.031363055 0.09465858 0.090779044 0.0 0.0 0.0 
0.14845791 0.09064956 0.19743171 0.0 0.0 0.0 
0.263763 0.19898708 0.26016724 0.0 0.0 0.0 
0.28884232 0.2840168 0.33522466 0.0 0.0 0.0 
0.40980113 0.34559008 0.4245805 0.0 0.0 0.0 
0.44296223 0.5387977 0.50477934 0.0 0.0 0.0 
0.19699737 0.7301078 0.37716576 0.0 0.0 0.0 
0.0 0.65074974 0.3907032 0.0 0.13357125 0.0 
0.0 0.3314541 0.18062502 0.0 0.22530283 0.0 
0.0 0.13698283 0.0013525598 0.0 0.052589085 0.0 
0.0 0.011936891 0.0 0.0 0.0 0.058228675 
0.0 0.0 0.0 0.0 0.0 0.07698792 
0.0 0.0 0.0 0.0 0.0 0.07698792 
0.0 0.0 0.0 0.0 0.0 0.07698792 
0.0 0.0 0.0 0.0 0.0 0.07698792 
0.0 0.0 0.0 0.0 0.0 0.07698792 
0.0 0.0 0.0 0.0 0.0 0.07698792 
0.18237731 0.0 0.0 0.06966971 0.0 0.2718284 
0.56092125 0.0 0.0 0.15620068 0.0 0.2215249 
0.93516177 0.0 0.15784127 0.22906171 0.0 0.0 
0.8587 0.5500752 0.74022496 0.08151671 0.0 0.0 
0.4523216 1.2139717 1.3637438 0.0 0.21702887 0.0 
0.18983525 1.2277635 1.4034266 0.0 0.40003857 0.0 
0.19461232 1.1856894 1.2856025 0.0 0.38073573 0.0 
0.1454061 1.1267678 1.0509554 0.0 0.29679468 0.0 
0.037775785 0.9974199 0.96978617 0.0 0.21439697 0.0 
0.10518733 0.7653499 0.80347097 0.0 0.11460656 0.0 
0.2959125 0.6990809 0.6805543 0.0 0.0 0.0 
0.3801113 0.669344 0.6380484 0.0 0.0 0.0 
0.5020747 0.57723135 0.6080475 0.0 0.0 0.0 
0.6689654 0.5931709 0.66469216 0.0 0.0 0.0 
0.75019723 0.73555 0.7171023 0.0 0.0 0.0 
0.7314337 0.7849129 0.829921 0.0 0.0 0.0 
0.53579336 0.9541335 0.9861256 0.0 0.19976653 0.0 
0.19888952 1.2508149 1.037709 0.0 0.5114568 0.0 
0.0 1.3433132 1.0212275 0.0 0.702576 0.0 
0.0 0.9053483 0.7926146 0.0 0.6575226 0.0 
0.0 0.30695322 0.23413712 0.0 0.40380165 0.0 
0.0 0.06620863 0.0 0.0 0.06756604 0.0 
0.0 0.0 0.0 0.0 0.0 0.07698792 
0.0 0.0 0.0 0.0 0.0 0.07698792 
0.0 0.0 0.0 0.0 0.0 0.07698792 
0.0 0.0 0.0 0.0 0.0 0.07698792 
0.0 0.0 0.0 0.0 0.0 0.07698792 
0.0 0.0 0.0 0.0 0.0 0.07698792 
0.19817781 0.0 0.0 0.16825886 0.0037981868 0.3667392 
0.63894844 0.0 0.0 0.3049986 0.107379705 0.8041742 
0.9070513 0.0 0.0 0.6848685 0.19888182 0.84159636 
1.0178185 0.033765223 0.0 0.99882084 0.4712595 0.5872248 
0.57728666 0.81376475 1.0641592 1.2332969 0.73405707 0.18836376 
0.29704183 1.0374173 1.5908064 0.9504579 0.990876 0.0 
0.17309278 1.1898447 1.7396759 0.55128586 0.95916575 0.0 
0.20311004 1.2448448 1.6325892 0.13600092 0.83130175 0.0 
0.26326793 1.2425178 1.610783 0.0 0.63695616 0.0 
0.36038372 1.1993909 1.4847257 0.0 0.45843765 0.0 
0.4267845 1.1094081 1.265646 0.0 0.38687167 0.0 
0.4875843 1.0222394 1.1717247 0.0 0.39006528 0.0 
0.6013321 0.8789097 1.0291685 0.0 0.48357227 0.0 
0.60674435 0.825676 0.9868729 0.0 0.62652797 0.0 
0.62347966 0.8415369 1.0542868 0.0 0.79563683 0.0 
0.7171989 0.9376488 1.1626246 0.10857785 0.98343617 0.0 
0.5929312 1.1890602 1.3168322 0.1661313 1.0867279 0.0 
0.14312564 1.6409607 1.6244838 0.08785569 1.1456755 0.0 
0.0 1.8743228 1.7820443 0.0 1.3085625 0.0 
0.0 1.5589508 1.6447846 0.0 1.1123445 0.0 
0.0 0.7609795 0.82340854 0.0 0.7022578 0.0 
0.0 0.13469937 0.11298757 0.0 0.26732254 0.0 
0.0 0.0 0.0 0.0 0.0 0.07698792 
0.0 0.0 0.0 0.0 0.0 0.07698792 
0.0 0.0 0.0 0.0 0.0 0.07698792 
0.0 0.0 0.0 0.0 0.0 0.07698792 
0.0 0.0 0.0 0.0 0.0 0.07698792 
0.0 0.0 0.0 0.0 0.0 0.07698792 
0.188074 0.0 0.0 0.0 0.2204761 0.2972991 
0.68324435 0.0 0.0 0.13474485 0.492169 0.86492264 
0.927245 0.0 0.0 0.27833697 0.81901973 1.2941139 
0.8365632 0.0 0.0 0.7233285 1.0420415 1.4721105 
0.5859694 0.13303313 0.0 1.278002 1.2638324 1.5173345 
0.391226 0.74741644 0.4147697 1.7909678 1.4250876 1.4441907 
0.17563377 0.91160434 0.867822 1.8060741 1.4178859 1.162894 
0.14987718 0.86416787 1.0796063 1.6974899 1.29959 0.82324713 
0.37762234 0.7871975 1.3694721 1.5446372 1.1278393 0.51755357 
0.5130293 0.98198724 1.5332172 1.3200184 1.0645856 0.10553901 
0.48957276 1.0557787 1.4679717 0.92927355 1.158885 0.0 
0.45681483 1.2106217 1.362137 0.7778312 1.2931374 0.0 
0.35710323 1.2935368 1.1779476 0.84897 1.6132001 0.0 
0.30045423 1.2874668 0.8529347 1.0706059 1.796589 0.2999969 
0.40968502 1.0871407 0.78303635 1.2563815 1.6993876 0.68427074 
0.8744363 1.0160179 0.75460017 1.3083675 1.6387419 0.8475791 
0.86125976 1.3761725 0.88426423 1.1914173 1.5132792 0.5833026 
0.24900523 1.8933941 1.2726716 0.78482515 1.5511147 0.0 
0.0 2.1931489 1.9305472 0.49079686 1.7526935 0.0 
0.0 1.8052588 2.121145 0.35350782 1.4635139 0.0 
0.0 1.0751588 1.4592738 0.15034442 0.92448574 0.0 
0.0 0.19139153 0.35020044 0.0 0.3593932 0.0 
0.0 0.0 0.0 0.0 0.0 0.07698792 
0.0 0.0 0.0 0.0 0.0 0.07698792 
0.0 0.0 0.0 0.0 0.0 0.07698792 
0.0 0.0 0.0 0.0 0.0 0.07698792 
0.0 0.0 0.0 0.0 0.0 0.07698792 
0.0 0.0 0.0 0.0 0.0 0.07698792 
0.020435154 0.0 0.0 0.0 0.06038102 0.14908001 
0.4267286 0.0 0.0 0.0 0.46658614 0.53711426 
0.79072416 0.0 0.0 0.0 0.91509026 1.0587751 
0.84144163 0.0 0.0 0.0 1.2133528 1.4468744 
0.7444482 0.0 0.0 0.0 1.5017139 1.7235103 
0.4348747 0.0 0.0 0.33744153 1.7820033 1.813034 
0.3026261 0.106019795 0.0 0.7389365 1.7228303 1.8640172 
0.30497292 0.22401603 0.0 1.0400729 1.6017514 1.8170578 
0.4294458 0.2720204 0.0 1.3359777 1.4915628 1.7796807 
0.54486686 0.45105538 0.023960799 1.6627009 1.5105743 1.7307785 
0.61327344 0.8025146 0.21442196 1.8452517 1.642103 1.6231074 
0.44564003 1.170616 0.467084 1.8890203 1.9443096 1.5445483 
0.10497406 1.2487322 0.39943328 1.6286657 2.4155262 1.4858427 
0.0 1.0608016 0.06675292 1.4154998 2.4719503 1.5972862 
0.39160496 0.36842218 0.0 1.0511667 2.0978067 1.7707067 
1.2222071 0.19732662 0.0 0.8184829 1.802397 1.6900933 
1.4226031 0.48218372 0.0 0.5835786 1.8454599 1.2781582 
0.63408804 1.4992852 0.22237933 0.5129399 2.0296443 0.55739725 
0.0 1.9997997 1.2244054 0.20251448 2.2463777 0.0 
0.0 1.61569 1.8932755 0.27731004 1.7628323 0.0 
0.0 0.8291435 1.6146777 0.20748901 1.0604049 0.053945117 
0.0 0.28675175 0.57749844 0.16326642 0.23837893 0.05042494 
0.0 0.0 0.0 0.0 0.0 0.07698792 
0.0 0.0 0.0 0.0 0.0 0.07698792 
0.0 0.0 0.0 0.0 0.0 0.07698792 
0.0 0.0 0.0 0.0 0.0 0.07698792 
0.0 0.0 0.0 0.0 0.0 0.07698792 
0.0 0.0 0.0 0.0 0.0 0.07698792 
0.0 0.0 0.0 0.0 0.0 0.089365445 
0.123513624 0.0 0.0 0.0 0.23608033 0.21194388 
0.36385784 0.0 0.0 0.0 0.5313067 0.42688337 
0.5216334 0.0 0.0 0.0 0.79298526 0.6986638 
0.52936834 0.0 0.0 0.0 1.0748612 0.99985415 
0.3840943 0.0 0.0 0.0 1.2504042 1.1650321 
0.4221356 0.0 0.0 0.0 1.3432502 1.389859 
0.46993345 0.0 0.0 0.0 1.4702274 1.57988 
0.6091582 0.0 0.0 0.0 1.633576 1.8002443 
0.6788685 0.0 0.0 0.07130661 1.8112651 1.9520795 
0.55523545 0.0 0.0 0.4292103 2.053157 1.9453866 
0.28008473 0.1960253 0.0 0.61738837 2.2004888 1.8745635 
0.0 0.45160508 0.0 0.54384226 2.1789987 1.6942637 
0.040462434 0.3468943 0.0 0.24021882 1.8596895 1.6125989 
0.80375475 0.0 0.0 0.0 1.369151 1.684725 
1.5243387 0.0 0.0 0.0 1.2535486 1.5145133 
1.7335927 0.014379098 0.0 0.0 1.599409 1.0303675 
0.803988 1.387902 0.0 0.0 2.1682875 0.5037286 
0.0 1.9763097 0.8238991 0.0 2.3908699 0.0 
0.0 1.5270373 1.5918477 0.0 1.7131044 0.0 
0.0 0.618521 1.3687441 0.0 1.003856 0.12249229 
0.0 0.14900103 0.5412051 0.08956674 0.1776732 0.09376396 
0.0 0.0 0.0 0.0 0.0 0.07698792 
0.0 0.0 0.0 0.0 0.0 0.07698792 
0.0 0.0 0.0 0.0 0.0 0.07698792 
0.0 0.0 0.0 0.0 0.0 0.07698792 
0.0 0.0 0.0 0.0 0.0 0.07698792 
0.0 0.0 0.0 0.0 0.0 0.07698792 
0.0 0.0 0.0 0.0 0.0 0.07698792 
0.0 0.0 0.0 0.0 0.0 0.07946343 
0.0 0.0 0.0 0.0 0.036621932 0.11889431 
0.12214935 0.0 0.0 0.0 0.23704235 0.21380319 
0.18380168 0.0 0.0 0.0 0.36853364 0.27793038 
0.16241847 0.0 0.0 0.0 0.45949695 0.3231849 
0.22558731 0.0 0.0 0.0 0.66108114 0.47889775 
0.29305464 0.0 0.0 0.0 0.8636897 0.62826735 
0.43264234 0.0 0.0 0.0 1.0066696 0.8681938 
0.5342433 0.0 0.0 0.0 1.2325462 1.1900415 
0.40812445 0.0 0.0 0.0 1.3684896 1.3518255 
0.24570769 0.0 0.0 0.0 1.3711988 1.3227715 
0.0 0.0 0.0 0.0 1.145626 1.0536795 
0.04357577 0.0 0.0 0.0 0.8183621 0.83846027 
1.0001783 0.0 0.0 0.0 0.6738157 1.0527391 
1.9016612 0.0 0.0 0.0 0.9620865 1.0717332 
1.8238063 0.04599988 0.0 0.0 1.5507292 0.7402607 
0.6042881 1.2502756 0.0 0.0 2.3785725 0.33729228 
0.0 1.800067 0.80126476 0.0 2.3784883 0.0 
0.0 1.2576845 1.5079789 0.0 1.6499788 0.07175827 
0.0 0.4410697 1.1453048 0.0 0.93838686 0.13715354 
0.0 0.0 0.3091974 0.0 0.14988904 0.08781993 
0.0 0.0 0.0 0.0 0.0 0.07698792 
0.0 0.0 0.0 0.0 0.0 0.07698792 
0.0 0.0 0.0 0.0 0.0 0.07698792 
0.0 0.0 0.0 0.0 0.0 0.07698792 
0.0 0.0 0.0 0.0 0.0 0.07698792 
0.0 0.0 0.0 0.0 0.0 0.07698792 
0.0 0.0 0.0 0.0 0.0 0.07698792 
0.0 0.0 0.0 0.0 0.0 0.07698792 
0.0 0.0 0.0 0.0 0.0 0.07698792 
0.0 0.0 0.0 0.0 0.0 0.07698792 
0.0 0.0 0.0 0.0 0.0 0.07698792 
0.0 0.0 0.0 0.0 0.0 0.07698792 
0.0 0.0 0.0 0.0 0.005571697 0.10483734 
0.016634762 0.0 0.0 0.0 0.07359347 0.14059538 
0.15251856 0.0 0.0 0.0 0.31378126 0.24158643 
0.26003736 0.0 0.0 0.0 0.5126539 0.35925803 
0.22520387 0.0 0.0 0.0 0.63193315 0.39431944 
0.07261452 0.0 0.0 0.0 0.5420808 0.3948163 
0.0 0.0 0.0 0.0 0.3958974 0.2985223 
0.08625466 0.0 0.0 0.0 0.14684244 0.35852993 
1.1807446 0.0 0.0 0.0 0.21462245 0.7009556 
2.0778632 0.0 0.0 0.00015540887 0.7697849 0.8201597 
1.839961 0.38311777 0.0 0.019933704 1.5546576 0.59648603 
0.42231557 1.6660578 0.0 0.0 2.222737 0.13315572 
0.0 1.8041012 1.1076788 0.0 2.1856363 0.0 
0.0 1.1577834 1.6619813 0.0 1.5012418 0.024262995 
0.0 0.4338291 1.14388 0.0 0.7335277 0.04916554 
0.0 0.024027701 0.15831417 0.0045567425 0.046096686 0.07558816 
0.0 0.0 0.0 0.0 0.0 0.07698792 
0.0 0.0 0.0 0.0 0.0 0.07698792 
0.0 0.0 0.0 0.0 0.0 0.07698792 
0.0 0.0 0.0 0.0 0.0 0.07698792 
0.0 0.0 0.0 0.0 0.0 0.07698792 
0.0 0.0 0.0 0.0 0.0 0.07698792 
0.0 0.0 0.0 0.0 0.0 0.07698792 
0.0 0.0 0.0 0.0 0.0 0.07698792 
0.0 0.0 0.0 0.0 0.0 0.07698792 
0.0 0.0 0.0 0.0 0.0 0.07698792 
0.0 0.0 0.0 0.0 0.0 0.07698792 
0.0 0.0 0.0 0.0 0.0 0.07698792 
0.0 0.0 0.0 0.0 0.0 0.07698792 
0.0 0.0 0.0 0.0 0.0 0.07698792 
0.0 0.0 0.0 0.0 0.0 0.07698792 
0.0 0.0 0.0 0.0 0.0 0.07698792 
0.0 0.0 0.0 0.0 0.0 0.07698792 
0.0 0.0 0.0 0.0 0.0 0.07698792 
0.0 0.0 0.0 0.0 0.0 0.07698792 
0.31453025 0.0 0.0 0.09128222 0.0 0.31374955 
1.4054317 0.0 0.0 0.108897194 0.14357013 0.8291907 
2.0975044 0.0 0.0 0.13833648 0.7904324 0.9225698 
1.7807732 0.5859621 0.0 0.08688032 1.5103301 0.61179554 
0.28846246 1.8825693 0.0 0.0 2.0999622 0.08120891 
0.0 1.8678181 1.2628188 0.0 2.0413468 0.0 
0.0 1.1745534 1.6612055 0.0 1.3777941 0.0 
0.0 0.37198773 1.0372028 0.0 0.6870015 0.0 
0.0 0.022535548 0.09078101 0.0 0.030807551 0.06629944 
0.0 0.0 0.0 0.0 0.0 0.07698792 
0.0 0.0 0.0 0.0 0.0 0.07698792 
0.0 0.0 0.0 0.0 0.0 0.07698792 
0.0 0.0 0.0 0.0 0.0 0.07698792 
0.0 0.0 0.0 0.0 0.0 0.07698792 
0.0 0.0 0.0 0.0 0.0 0.07698792 
0.0 0.0 0.0 0.0 0.0 0.07698792 
0.0 0.0 0.0 0.0 0.0 0.07698792 
0.0 0.0 0.0 0.0 0.0 0.07698792 
0.0 0.0 0.0 0.0 0.0 0.07698792 
0.0 0.0 0.0 0.0 0.0 0.07698792 
0.0 0.0 0.0 0.0 0.0 0.07698792 
0.0 0.0 0.0 0.0 0.0 0.07698792 
0.0 0.0 0.0 0.0 0.0 0.07698792 
0.0 0.0 0.0 0.0 0.0 0.07698792 
0.0 0.0 0.0 0.0 0.0 0.07698792 
0.0 0.0 0.0 0.0 0.0 0.07698792 
0.0 0.0 0.0 0.0 0.0 0.07698792 
0.0 0.0 0.0 0.0 0.0 0.07698792 
0.4229135 0.0 0.0 0.005738971 0.0028662048 0.38940507 
1.5241234 0.0 0.0 0.02218495 0.31200597 0.9261341 
2.1076338 0.0 0.0 0.004175839 0.88960284 0.9618158 
1.6788304 0.5044076 0.0 0.0 1.6118281 0.65657336 
0.086868405 1.6745671 0.056419663 0.0 2.1500208 0.07652153 
0.0 1.6952153 1.3686256 0.0 2.0607777 0.0 
0.0 1.0892522 1.6516987 0.0 1.4092852 0.006101355 
0.0 0.2779347 0.92691404 0.0 0.68601567 0.012969673 
0.0 0.0 0.0492279 0.0 0.025480714 0.07110065 
0.0 0.0 0.0 0.0 0.0 0.07698792 
0.0 0.0 0.0 0.0 0.0 0.07698792 
0.0 0.0 0.0 0.0 0.0 0.07698792 
0.0 0.0 0.0 0.0 0.0 0.07698792 
0.0 0.0 0.0 0.0 0.0 0.07698792 
0.0 0.0 0.0 0.0 0.0 0.07698792 
0.0 0.0 0.0 0.0 0.0 0.07698792 
0.0 0.0 0.0 0.0 0.0 0.07698792 
0.0 0.0 0.0 0.0 0.0 0.07698792 
0.0 0.0 0.0 0.0 0.0 0.07698792 
0.0 0.0 0.0 0.0 0.0 0.07698792 
0.0 0.0 0.0 0.0 0.0 0.07698792 
0.0 0.0 0.0 0.0 0.0 0.07698792 
0.0 0.0 0.0 0.0 0.0 0.07698792 
0.0 0.0 0.0 0.0 0.0 0.07698792 
0.0 0.0 0.0 0.0 0.0 0.07698792 
0.0 0.0 0.0 0.0 0.0 0.07698792 
0.0 0.0 0.0 0.0 0.0 0.07698792 
0.0 0.0 0.0 0.0 0.0 0.07698792 
0.42845416 0.0 0.0 0.00086301286 0.011401024 0.39311832 
1.5302935 0.0 0.0 0.017282207 0.32088587 0.93081933 
2.1081705 0.0 0.0 0.0 0.8947764 0.9636806 
1.6054904 0.5977991 0.0 0.0330547 1.5841539 0.6450221 
0.0 1.7576793 0.15794703 0.042844225 2.1111221 0.0651577 
0.0 1.7217026 1.514552 0.0535797 2.004698 0.0 
0.0 1.0195488 1.7088822 0.086544126 1.3138379 0.036086664 
0.0 0.34582952 0.91854066 0.08201085 0.52201605 0.045924712 
0.0 0.031796314 0.043850563 0.036828473 0.0 0.08251579 
0.0 0.0 0.0 0.0 0.0 0.07698792 
0.0 0.0 0.0 0.0 0.0 0.07698792 
0.0 0.0 0.0 0.0 0.0 0.07698792 
0.0 0.0 0.0 0.0 0.0 0.07698792 
0.0 0.0 0.0 0.0 0.0 0.07698792 
0.0 0.0 0.0 0.0 0.0 0.07698792 
0.0 0.0 0.0 0.0 0.0 0.07698792 
0.0 0.0 0.0 0.0 0.0 0.07698792 
0.0 0.0 0.0 0.0 0.0 0.07698792 
0.0 0.0 0.0 0.0 0.0 0.07698792 
0.0 0.0 0.0 0.0 0.0 0.07698792 
0.0 0.0 0.0 0.0 0.0 0.07698792 
0.0 0.0 0.0 0.0 0.0 0.07698792 
0.0 0.0 0.0 0.0 0.0 0.07698792 
0.0 0.0 0.0 0.0 0.0 0.07698792 
0.0 0.0 0.0 0.0 0.0 0.07698792 
0.0 0.0 0.0 0.0 0.0 0.07698792 
0.0 0.0 0.0 0.0 0.0 0.07698792 
0.0 0.0 0.0 0.0 0.0 0.07698792 
0.42845416 0.0 0.0 0.00086301286 0.011401024 0.39311832 
1.5302935 0.0 0.0 0.017282207 0.32088587 0.93081933 
2.108114 0.0 0.0 0.0 0.89587647 0.9631395 
1.5662053 0.67892236 0.0 0.0 1.6063297 0.60412925 
0.0 1.8094276 0.10340264 0.0 2.124788 0.066156685 
0.0 1.7058449 1.4138087 0.0 1.9360591 0.0 
0.0 0.9390958 1.5506643 0.0 1.2206933 0.047494635 
0.0 0.23681155 0.7934887 0.0 0.4693652 0.05301401 
0.0 0.0 0.012882218 0.010366792 0.0 0.087003 
0.0 0.0 0.0 0.0 0.0 0.07698792 
0.0 0.0 0.0 0.0 0.0 0.07698792 
0.0 0.0 0.0 0.0 0.0 0.07698792 
0.0 0.0 0.0 0.0 0.0 0.07698792 
0.0 0.0 0.0 0.0 0.0 0.07698792 
0.0 0.0 0.0 0.0 0.0 0.07698792 
0.0 0.0 0.0 0.0 0.0 0.07698792 
0.0 0.0 0.0 0.0 0.0 0.07698792 
0.0 0.0 0.0 0.0 0.0 0.07698792 
0.0 0.0 0.0 0.0 0.0 0.07698792 
0.0 0.0 0.0 0.0 0.0 0.07698792 
0.0 0.0 0.0 0.0 0.0 0.07698792 
0.0 0.0 0.0 0.0 0.0 0.07698792 
0.0 0.0 0.0 0.0 0.0 0.07698792 
0.0 0.0 0.0 0.0 0.0 0.07698792 
0.0 0.0 0.0 0.0 0.0 0.07698792 
0.0 0.0 0.0 0.0 0.0 0.07698792 
0.0 0.0 0.0 0.0 0.0 0.07698792 
0.0 0.0 0.0 0.0 0.0 0.07283976 
0.49923676 0.0 0.0 0.0 0.0 0.3459267 
1.6259549 0.0 0.0 0.0 0.2706206 0.8114687 
2.1017714 0.0 0.0 0.0 0.88945603 0.8239779 
1.4515529 0.7755226 0.0 0.0 1.6758374 0.42719677 
0.0 1.7335846 0.18012244 0.0 2.167436 0.0 
0.0 1.5298884 1.433893 0.0 1.894868 0.0 
0.0 0.77410495 1.4394008 0.0 1.2027929 0.12447602 
0.0 0.09635572 0.62779486 0.0 0.41186586 0.064553455 
0.0 0.0 0.0 0.0 0.0 0.079423115 
0.0 0.0 0.0 0.0 0.0 0.07698792 
0.0 0.0 0.0 0.0 0.0 0.07698792 
0.0 0.0 0.0 0.0 0.0 0.07698792 
0.0 0.0 0.0 0.0 0.0 0.07698792 
0.0 0.0 0.0 0.0 0.0 0.07698792 
0.0 0.0 0.0 0.0 0.0 0.07698792 
0.0 0.0 0.0 0.0 0.0 0.07698792 
0.0 0.0 0.0 0.0 0.0 0.07698792 
0.0 0.0 0.0 0.0 0.0 0.07698792 
0.0 0.0 0.0 0.0 0.0 0.07698792 
0.0 0.0 0.0 0.0 0.0 0.07698792 
0.0 0.0 0.0 0.0 0.0 0.07698792 
0.0 0.0 0.0 0.0 0.0 0.07698792 
0.0 0.0 0.0 0.0 0.0 0.07698792 
0.0 0.0 0.0 0.0 0.0 0.07698792 
0.0 0.0 0.0 0.0 0.0 0.07698792 
0.0 0.0 0.0 0.0 0.0 0.07698792 
0.0 0.0 0.0 0.0 0.0 0.07698792 
0.0 0.0 0.0 0.0 0.0 0.07371515 
0.6043224 0.0 0.0 0.0 0.0 0.34771258 
1.7918298 0.0 0.0 0.0 0.2379271 0.7599143 
2.1090403 0.0 0.0 0.0 0.98649293 0.7365865 
1.1173325 1.0691676 0.0 0.0 1.8054605 0.34792924 
0.0 1.7362609 0.31720623 0.0 2.249966 0.023982048 
0.0 1.3814472 1.5508182 0.18020408 1.7729028 0.08671731 
0.0 0.5709739 1.3807718 0.14906304 1.0222081 0.22778352 
0.0 0.13685212 0.547758 0.14265552 0.18773657 0.100517705 
0.0 0.0 0.0 0.0 0.0 0.07698792 
0.0 0.0 0.0 0.0 0.0 0.07698792 
0.0 0.0 0.0 0.0 0.0 0.07698792 
0.0 0.0 0.0 0.0 0.0 0.07698792 
0.0 0.0 0.0 0.0 0.0 0.07698792 
0.0 0.0 0.0 0.0 0.0 0.07698792 
0.0 0.0 0.0 0.0 0.0 0.07698792 
0.0 0.0 0.0 0.0 0.0 0.07698792 
0.0 0.0 0.0 0.0 0.0 0.07698792 
0.0 0.0 0.0 0.0 0.0 0.07698792 
0.0 0.0 0.0 0.0 0.0 0.07698792 
0.0 0.0 0.0 0.0 0.0 0.07698792 
0.0 0.0 0.0 0.0 0.0 0.07698792 
0.0 0.0 0.0 0.0 0.0 0.07698792 
0.0 0.0 0.0 0.0 0.0 0.07698792 
0.0 0.0 0.0 0.0 0.0 0.07698792 
0.0 0.0 0.0 0.0 0.0 0.07698792 
0.0 0.0 0.0 0.0 0.0 0.07698792 
0.0 0.0 0.0 0.0 0.0 0.07698792 
0.04543075 0.0 0.046397887 0.0 0.0 0.036732942 
0.88566715 0.0 0.0 0.0 0.0 0.3099116 
1.9048591 0.0 0.0 0.0 0.28761795 0.6123196 
2.008292 0.1603241 0.0 0.0 1.2536955 0.49477944 
0.66772646 1.4422578 0.0 0.0 2.0913866 0.27770478 
0.0 1.7259631 0.44814157 0.0 2.28318 0.11209485 
0.0 1.0964538 1.3734621 0.08324117 1.568808 0.297853 
0.0 0.35000518 1.0975153 0.11746398 0.7247564 0.26685998 
0.0 0.042845126 0.36414963 0.08656442 0.06264377 0.123004854 
0.0 0.0 0.0 0.0 0.0 0.07698792 
0.0 0.0 0.0 0.0 0.0 0.07698792 
0.0 0.0 0.0 0.0 0.0 0.07698792 
0.0 0.0 0.0 0.0 0.0 0.07698792 
0.0 0.0 0.0 0.0 0.0 0.07698792 
0.0 0.0 0.0 0.0 0.0 0.07698792 
0.0 0.0 0.0 0.0 0.0 0.07698792 
0.0 0.0 0.0 0.0 0.0 0.07698792 
0.0 0.0 0.0 0.0 0.0 0.07698792 
0.0 0.0 0.0 0.0 0.0 0.07698792 
0.0 0.0 0.0 0.0 0.0 0.07698792 
0.0 0.0 0.0 0.0 0.0 0.07698792 
0.0 0.0 0.0 0.0 0.0 0.07698792 
0.0 0.0 0.0 0.0 0.0 0.07698792 
0.0 0.0 0.0 0.0 0.0 0.07698792 
0.0 0.0 0.0 0.0 0.0 0.07698792 
0.0 0.0 0.0 0.0 0.0 0.07698792 
0.0 0.0 0.0 0.0 0.0 0.07698792 
0.0 0.0 0.0 0.0 0.0 0.0758566 
0.16362098 0.0 0.0 0.0 0.0 0.07503415 
1.2222872 0.0 0.0 0.0 0.0 0.46608317 
2.0948248 0.0 0.0 0.0 0.48645774 0.6765576 
1.6982257 0.69041264 0.0 0.0 1.5013467 0.35807717 
0.1410828 1.6412373 0.0 0.0 2.2897615 0.11087838 
0.0 1.6758583 0.8368637 0.0 2.057929 0.031078398 
0.0 0.7658884 1.2185746 0.0 1.3243017 0.24155368 
0.0 0.1907457 0.7862172 0.0 0.4882457 0.19550133 
0.0 0.0 0.115279175 0.0 0.018925894 0.100637406 
0.0 0.0 0.0 0.0 0.0 0.07698792 
0.0 0.0 0.0 0.0 0.0 0.07698792 
0.0 0.0 0.0 0.0 0.0 0.07698792 
0.0 0.0 0.0 0.0 0.0 0.07698792 
0.0 0.0 0.0 0.0 0.0 0.07698792 
0.0 0.0 0.0 0.0 0.0 0.07698792 
0.0 0.0 0.0 0.0 0.0 0.07698792 
0.0 0.0 0.0 0.0 0.0 0.07698792 
0.0 0.0 0.0 0.0 0.0 0.07698792 
0.0 0.0 0.0 0.0 0.0 0.07698792 
0.0 0.0 0.0 0.0 0.0 0.07698792 
0.0 0.0 0.0 0.0 0.0 0.07698792 
0.0 0.0 0.0 0.0 0.0 0.07698792 
0.0 0.0 0.0 0.0 0.0 0.07698792 
0.0 0.0 0.0 0.0 0.0 0.07698792 
0.0 0.0 0.0 0.0 0.0 0.07698792 
0.0 0.0 0.0 0.0 0.0 0.07698792 
0.0 0.0 0.0 0.0 0.0 0.07698792 
0.0 0.0 0.0 0.0 0.0 0.0513435 
0.46589673 0.0 0.0 0.0 0.0 0.12610388 
1.5694983 0.0 0.0 0.0 0.0 0.45353132 
2.1635087 0.0 0.0 0.0 0.80800205 0.5294293 
1.3834243 1.0704359 0.0 0.0 1.7298948 0.13393739 
0.0 1.8571955 0.0 0.0 2.2327764 0.0 
0.0 1.5304949 1.3052007 0.0 1.8205223 0.0 
0.0 0.6681718 1.2695198 0.0 1.1413434 0.09290906 
0.0 0.06588931 0.5729964 0.0 0.3558639 0.084051624 
0.0 0.0 0.0 0.0 0.0 0.0807168 
0.0 0.0 0.0 0.0 0.0 0.07698792 
0.0 0.0 0.0 0.0 0.0 0.07698792 
0.0 0.0 0.0 0.0 0.0 0.07698792 
0.0 0.0 0.0 0.0 0.0 0.07698792 
0.0 0.0 0.0 0.0 0.0 0.07698792 
0.0 0.0 0.0 0.0 0.0 0.07698792 
0.0 0.0 0.0 0.0 0.0 0.07698792 
0.0 0.0 0.0 0.0 0.0 0.07698792 
0.0 0.0 0.0 0.0 0.0 0.07698792 
0.0 0.0 0.0 0.0 0.0 0.07698792 
0.0 0.0 0.0 0.0 0.0 0.07698792 
0.0 0.0 0.0 0.0 0.0 0.07698792 
0.0 0.0 0.0 0.0 0.0 0.07698792 
0.0 0.0 0.0 0.0 0.0 0.07698792 
0.0 0.0 0.0 0.0 0.0 0.07698792 
0.0 0.0 0.0 0.0 0.0 0.07698792 
0.0 0.0 0.0 0.0 0.0 0.07698792 
0.0 0.0 0.0 0.0 0.0 0.07698792 
0.020133823 0.0 0.0 0.0 0.0 0.07130752 
0.76107925 0.0 0.0 0.046986636 0.0 0.33809793 
1.8758273 0.0 0.0 0.0 0.22297455 0.67347133 
2.119869 0.14820442 0.0 0.0 1.0437468 0.580197 
1.0258417 1.3114846 0.0 0.0 1.8517653 0.08522226 
0.0 1.9470065 0.5467951 0.0 2.1978195 0.0 
0.0 1.4410996 1.6213635 0.0 1.7184955 0.0 
0.0 0.66190135 1.3561754 0.0 1.0458308 0.012259632 
0.0 0.060709007 0.4215821 0.0 0.26529643 0.03817802 
0.0 0.0 0.0 0.0 0.0 0.07698792 
0.0 0.0 0.0 0.0 0.0 0.07698792 
0.0 0.0 0.0 0.0 0.0 0.07698792 
0.0 0.0 0.0 0.0 0.0 0.07698792 
0.0 0.0 0.0 0.0 0.0 0.07698792 
0.0 0.0 0.0 0.0 0.0 0.07698792 
0.0 0.0 0.0 0.0 0.0 0.07698792 
0.0 0.0 0.0 0.0 0.0 0.07698792 
0.0 0.0 0.0 0.0 0.0 0.07698792 
0.0 0.0 0.0 0.0 0.0 0.07698792 
0.0 0.0 0.0 0.0 0.0 0.07698792 
0.0 0.0 0.0 0.0 0.0 0.07698792 
0.0 0.0 0.0 0.0 0.0 0.07698792 
0.0 0.0 0.0 0.0 0.0 0.07698792 
0.0 0.0 0.0 0.0 0.0 0.07698792 
0.0 0.0 0.0 0.0 0.0 0.07698792 
0.0 0.0 0.0 0.0 0.0 0.07698792 
0.0 0.0 0.0 0.0 0.0 0.07698792 
0.0 0.0 0.0 0.0 0.0 0.07698792 
0.069992706 0.0 0.0 0.021104395 0.0 0.16091993 
0.9691891 0.0 0.0 0.11989143 0.0 0.6281266 
1.9690945 0.0 0.0 0.20432743 0.5429939 0.90516627 
1.9156897 0.16893636 0.0 0.26139665 1.3964914 0.79696274 
0.6277833 1.3633153 0.0 0.26922444 2.0620704 0.45059794 
0.0 1.7886043 0.85391164 0.19985668 2.2451127 0.02225995 
0.0 1.2819741 1.6386361 0.22382043 1.6585608 0.17409067 
0.0 0.5114933 1.3251712 0.18394956 0.87988317 0.15874326 
0.0 0.08168271 0.34746087 0.06443609 0.15817097 0.07666066 
0.0 0.0 0.0 0.0 0.0 0.07698792 
0.0 0.0 0.0 0.0 0.0 0.07698792 
0.0 0.0 0.0 0.0 0.0 0.07698792 
0.0 0.0 0.0 0.0 0.0 0.07698792 
0.0 0.0 0.0 0.0 0.0 0.07698792 
0.0 0.0 0.0 0.0 0.0 0.07698792 
0.0 0.0 0.0 0.0 0.0 0.07698792 
0.0 0.0 0.0 0.0 0.0 0.07698792 
0.0 0.0 0.0 0.0 0.0 0.07698792 
0.0 0.0 0.0 0.0 0.0 0.07698792 
0.0 0.0 0.0 0.0 0.0 0.07698792 
0.0 0.0 0.0 0.0 0.0 0.07698792 
0.0 0.0 0.0 0.0 0.0 0.07698792 
0.0 0.0 0.0 0.0 0.0 0.07698792 
0.0 0.0 0.0 0.0 0.0 0.07698792 
0.0 0.0 0.0 0.0 0.0 0.07698792 
0.0 0.0 0.0 0.0 0.0 0.07698792 
0.0 0.0 0.0 0.0 0.0 0.07698792 
0.0 0.0 0.0 0.0 0.0 0.07698792 
0.094088316 0.0 0.0 0.08111048 0.0 0.24051675 
0.8806779 0.0 0.0 0.26186275 0.28176802 0.9322751 
1.5501196 0.0 0.0 0.5039697 0.9294253 1.4668665 
1.4499154 0.0 0.0 0.7985681 1.7351295 1.5425222 
0.31428143 1.0479302 0.0 0.94460064 2.1351287 1.2957008 
0.0 1.3047423 0.7021593 0.81337297 1.9989511 0.73609626 
0.0 0.719437 1.2986864 0.4762155 1.343778 0.5417886 
0.0 0.3090621 1.0731138 0.2994381 0.5387164 0.28020757 
0.0 0.065521516 0.2760426 0.08984729 0.041122634 0.10387485 
0.0 0.0 0.0 0.0 0.0 0.07698792 
0.0 0.0 0.0 0.0 0.0 0.07698792 
0.0 0.0 0.0 0.0 0.0 0.07698792 
0.0 0.0 0.0 0.0 0.0 0.07698792 
0.0 0.0 0.0 0.0 0.0 0.07698792 
0.0 0.0 0.0 0.0 0.0 0.07698792 
0.0 0.0 0.0 0.0 0.0 0.07698792 
0.0 0.0 0.0 0.0 0.0 0.07698792 
0.0 0.0 0.0 0.0 0.0 0.07698792 
0.0 0.0 0.0 0.0 0.0 0.07698792 
0.0 0.0 0.0 0.0 0.0 0.07698792 
0.0 0.0 0.0 0.0 0.0 0.07698792 
0.0 0.0 0.0 0.0 0.0 0.07698792 
0.0 0.0 0.0 0.0 0.0 0.07698792 
0.0 0.0 0.0 0.0 0.0 0.07698792 
0.0 0.0 0.0 0.0 0.0 0.07698792 
0.0 0.0 0.0 0.0 0.0 0.07698792 
0.0 0.0 0.0 0.0 0.0 0.07698792 
0.0 0.0 0.0 0.0 0.0 0.07698792 
0.09204897 0.0 0.0 0.0068215868 0.072017565 0.23088886 
0.75725406 0.0 0.0 0.07992672 0.60550165 0.89871925 
1.1555288 0.0 0.0 0.20058164 1.2022563 1.4440181 
0.81357855 0.0 0.0 0.3264404 1.6644439 1.4696093 
0.018352307 0.4287515 0.0 0.42375624 1.7205034 1.3472123 
0.0 0.61463827 0.22941893 0.44090453 1.2424401 0.95368785 
0.0 0.3824232 0.79969025 0.26423645 0.64287823 0.6024542 
0.0 0.08623561 0.6407193 0.11247558 0.22936659 0.26620692 
0.0 0.0 0.12519258 0.012192403 0.0 0.10266954 
0.0 0.0 0.0 0.0 0.0 0.07698792 
0.0 0.0 0.0 0.0 0.0 0.07698792 
0.0 0.0 0.0 0.0 0.0 0.07698792 
0.0 0.0 0.0 0.0 0.0 0.07698792 
0.0 0.0 0.0 0.0 0.0 0.07698792 
0.0 0.0 0.0 0.0 0.0 0.07698792 
0.0 0.0 0.0 0.0 0.0 0.07698792 
0.0 0.0 0.0 0.0 0.0 0.07698792 
0.0 0.0 0.0 0.0 0.0 0.07698792 
0.0 0.0 0.0 0.0 0.0 0.07698792 
0.0 0.0 0.0 0.0 0.0 0.07698792 
0.0 0.0 0.0 0.0 0.0 0.07698792 
0.0 0.0 0.0 0.0 0.0 0.07698792 
0.0 0.0 0.0 0.0 0.0 0.07698792 
0.0 0.0 0.0 0.0 0.0 0.07698792 
0.0 0.0 0.0 0.0 0.0 0.07698792 
0.0 0.0 0.0 0.0 0.0 0.07698792 
0.0 0.0 0.0 0.0 0.0 0.07698792 
0.0 0.0 0.0 0.0 0.0 0.07698792 
0.019964881 0.0 0.0 0.0 0.050156947 0.15279049 
0.43251795 0.0 0.0 0.0 0.46836647 0.552753 
0.72404903 0.0 0.0 0.0 0.9046076 1.0128067 
0.48964286 0.0 0.0 0.0 1.1141059 1.1037121 
0.01506833 0.025387257 0.0 0.0 0.8750165 0.93593925 
0.0 0.0 0.0 0.0 0.54874516 0.6369291 
0.0 0.0 0.25809467 0.0 0.31571025 0.38967407 
0.0 0.0 0.19401738 0.0 0.118879184 0.1631983 
0.0 0.0 0.0 0.0 0.0 0.082543194 
0.0 0.0 0.0 0.0 0.0 0.07698792 
0.0 0.0 0.0 0.0 0.0 0.07698792 
0.0 0.0 0.0 0.0 0.0 0.07698792 
0.0 0.0 0.0 0.0 0.0 0.07698792 
0.0 0.0 0.0 0.0 0.0 0.07698792 
0.0 0.0 0.0 0.0 0.0 0.07698792 
0.0 0.0 0.0 0.0 0.0 0.07698792 
0.0 0.0 0.0 0.0 0.0 0.07698792 

