0.0 0.0 0.0 0.0 0.0 0.07698792 
0.0 0.0 0.0 0.0 0.0 0.07698792 
0.0 0.0 0.0 0.0 0.0 0.07698792 
0.0 0.0 0.0 0.0 0.0 0.07698792 
0.0 0.0 0.0 0.0 0.0 0.07698792 
0.0 0.0 0.0 0.0 0.0 0.07698792 
0.0 0.0 0.0 0.0 0.0 0.07698792 
0.0 0.0 0.0 0.0 0.0 0.07698792 
0.0 0.0 0.0 0.0 0.0 0.07698792 
0.0 0.0 0.0 0.0 0.0 0.07698792 
0.0 0.0 0.0 0.0 0.0 0.07698792 
0.0 0.0 0.0 0.0 0.0 0.07698792 
0.0 0.0 0.0 0.0 0.0 0.07698792 
0.0 0.0 0.0 0.0 0.0 0.07698792 
0.0 0.0 0.0 0.0 0.0 0.07698792 
0.0 0.0 0.0 0.0 0.0 0.07698792 
0.0 0.0 0.0 0.0 0.0 0.07698792 
0.0 0.0 0.0 0.0 0.0 0.07698792 
0.0 0.0 0.0 0.0 0.0 0.07698792 
0.0 0.0 0.0 0.0 0.0 0.07698792 
0.0 0.0 0.0 0.0 0.0 0.07698792 
0.0 0.0 0.0 0.0 0.0 0.07698792 
0.0 0.0 0.0 0.0 0.0 0.07698792 
0.0 0.0 0.0 0.0 0.0 0.07698792 
0.0 0.0 0.0 0.0 0.0 0.07698792 
0.0 0.0 0.0 0.0 0.0 0.07698792 
0.0 0.0 0.0 0.0 0.0 0.07698792 
0.0 0.0 0.0 0.0 0.0 0.07698792 
0.0 0.0 0.0 0.0 0.0 0.07698792 
0.0 0.0 0.0 0.0 0.0 0.07698792 
0.0 0.0 0.0 0.0 0.0 0.07698792 
0.0 0.0 0.0 0.0 0.0 0.07698792 
0.0 0.0 0.0 0.0 0.0 0.07698792 
0.0 0.0 0.0 0.0 0.0 0.07698792 
0.0 0.0 0.0 0.0 0.0 0.07698792 
0.0 0.0 0.0 0.0 0.0 0.07698792 
0.0 0.0 0.0 0.0 0.0 0.07698792 
0.0 0.0 0.0 0.0 0.0 0.07698792 
0.0 0.0 0.0 0.0 0.0 0.07698792 
0.0 0.0 0.0 0.0 0.0 0.07698792 
0.0 0.0 0.0 0.0 0.0 0.07698792 
0.0 0.0 0.0 0.0 0.0 0.07698792 
0.0 0.0 0.0 0.0 0.0 0.07698792 
0.0 0.0 0.0 0.0 0.0 0.07698792 
0.0 0.0 0.0 0.0 0.0 0.07698792 
0.0 0.0 0.0 0.0 0.0 0.07698792 
0.0 0.0 0.0 0.0 0.0 0.07698792 
0.0 0.0 0.0 0.0 0.0 0.07698792 
0.0 0.0 0.0 0.0 0.0 0.07698792 
0.0 0.0 0.0 0.0 0.0 0.07698792 
0.0 0.0 0.0 0.0 0.0 0.07698792 
0.0 0.0 0.0 0.0 0.0 0.07698792 
0.0 0.0 0.0 0.0 0.0 0.07698792 
0.0 0.0 0.0 0.0 0.0 0.07698792 
0.0 0.0 0.0 0.0 0.0 0.07698792 
0.0 0.0 0.0 0.0 0.0 0.07698792 
0.0 0.0 0.0 0.0 0.0 0.07698792 
0.0 0.0 0.0 0.0 0.0 0.07698792 
0.0 0.0 0.0 0.0 0.0 0.07698792 
0.0 0.0 0.0 0.0 0.0 0.07698792 
0.0 0.0 0.0 0.0 0.0 0.07698792 
0.0 0.0 0.0 0.0 0.0 0.07698792 
0.0 0.0 0.0 0.0 0.0 0.07698792 
0.0 0.0 0.0 0.0 0.0 0.07698792 
0.0 0.0 0.0 0.0 0.0 0.07698792 
0.0 0.0 0.0 0.0 0.0 0.07698792 
0.0 0.0 0.0 0.0 0.0 0.057378426 
0.066621244 0.0 0.067936845 0.0 0.0 0.0 
0.22573784 0.03953161 0.2198439 0.0 0.0 0.0 
0.35791433 0.22285658 0.33515415 0.0 0.0 0.0 
0.34121078 0.40645516 0.42787984 0.0 0.0 0.0 
0.26562798 0.5685234 0.4409333 0.0 0.0 0.0 
0.077415496 0.6051498 0.31770548 0.0 0.0 0.0 
0.0 0.44543785 0.20135474 0.0 0.06395224 0.0 
0.0 0.26512456 0.08256582 0.0 0.0701659 0.0 
0.0 0.09217953 0.0 0.0 0.023224037 0.0 
0.0 0.0023978734 0.0 0.0 0.0 0.06708721 
0.0 0.0 0.0 0.0 0.0 0.07698792 
0.0 0.0 0.0 0.0 0.0 0.07698792 
0.0 0.0 0.0 0.0 0.0 0.07698792 
0.0 0.0 0.0 0.0 0.0 0.07698792 
0.0 0.0 0.0 0.0 0.0 0.07698792 
0.0 0.0 0.0 0.0 0.0 0.07698792 
0.0 0.0 0.0 0.0 0.0 0.07698792 
0.0 0.0 0.0 0.0 0.0 0.07698792 
0.0 0.0 0.0 0.0 0.0 0.07698792 
0.0 0.0 0.0 0.0 0.0 0.07698792 
0.0 0.0 0.0 0.0 0.0 0.07698792 
0.0 0.0 0.0 0.0 0.0 0.07698792 
0.0 0.0 0.0 0.0 0.0 0.07698792 
0.0 0.0 0.0 0.0 0.0 0.07698792 
0.0 0.0 0.0 0.0 0.0 0.07698792 
0.0 0.0 0.0 0.0 0.0 0.072085544 
0.033621706 0.0 0.062418453 0.0 0.0 0.00829155 
0.2710557 0.0 0.18247426 0.0 0.0 0.0 
0.49451965 0.08640133 0.28137225 0.0 0.0 0.0 
0.7171785 0.22293034 0.39877856 0.0 0.0 0.0 
0.8698503 0.5285338 0.6272243 0.0 0.0 0.0 
0.7912088 0.86296797 0.8186122 0.0 0.0 0.0 
0.4980877 1.1337738 1.0614614 0.0 0.115240484 0.0 
0.09427591 1.2405299 1.1036562 0.0 0.44027838 0.0 
0.0 1.1779963 0.84325904 0.0 0.55503356 0.0 
0.0 0.75252056 0.57811445 0.0 0.51125795 0.0 
0.0 0.34438252 0.22409749 0.0 0.3144556 0.0 
0.0 0.11610485 0.0 0.0 0.07646985 0.0 
0.0 0.0012756363 0.0 0.0 0.0 0.06812939 
0.0 0.0 0.0 0.0 0.0 0.07698792 
0.0 0.0 0.0 0.0 0.0 0.07698792 
0.0 0.0 0.0 0.0 0.0 0.07698792 
0.0 0.0 0.0 0.0 0.0 0.07698792 
0.0 0.0 0.0 0.0 0.0 0.07698792 
0.0 0.0 0.0 0.0 0.0 0.07698792 
0.0 0.0 0.0 0.0 0.0 0.07698792 
0.0 0.0 0.0 0.0 0.0 0.07698792 
0.0 0.0 0.0 0.0 0.0 0.07698792 
0.0 0.0 0.0 0.0 0.0 0.07698792 
0.0 0.0 0.0 0.0 0.0 0.07698792 
0.0 0.0 0.0 0.0 0.0 0.07698792 
0.0 0.0 0.0 0.0 0.0 0.07698792 
0.0 0.0 0.0 0.0 0.0 0.07698792 
0.0 0.0 0.0 0.0 0.0 0.068560556 
0.2285186 0.0 0.100405104 0.0 0.0 0.0 
0.7505852 0.0 0.17618597 0.0 0.0 0.0 
1.0709944 0.017699875 0.28659737 0.0 0.0 0.0 
1.127058 0.40854314 0.4381561 0.0 0.0 0.0 
0.7417219 0.6761977 0.7079286 0.0 0.6167794 0.0 
0.4980796 0.7694662 1.006349 0.18700397 1.0023272 0.0 
0.3748021 1.0144867 1.392808 0.4211257 1.0669748 0.0 
0.16091771 1.3919861 1.7654288 0.30908152 0.9831067 0.0 
0.0 1.6626577 1.8207308 0.0 0.9925268 0.0 
0.0 1.5802214 1.4602553 0.0 0.9020864 0.0 
0.0 0.9716089 0.9106608 0.0 0.68012244 0.0 
0.0 0.32745594 0.25756657 0.0 0.3908706 0.0 
0.0 0.097747855 0.0 0.0 0.05402373 0.0 
0.0 0.0023978734 0.0 0.0 0.0 0.06708721 
0.0 0.0 0.0 0.0 0.0 0.07698792 
0.0 0.0 0.0 0.0 0.0 0.07698792 
0.0 0.0 0.0 0.0 0.0 0.07698792 
0.0 0.0 0.0 0.0 0.0 0.07698792 
0.0 0.0 0.0 0.0 0.0 0.07698792 
0.0 0.0 0.0 0.0 0.0 0.07698792 
0.0 0.0 0.0 0.0 0.0 0.07698792 
0.0 0.0 0.0 0.0 0.0 0.07698792 
0.0 0.0 0.0 0.0 0.0 0.07698792 
0.0 0.0 0.0 0.0 0.0 0.07698792 
0.0 0.0 0.0 0.0 0.0 0.07698792 
0.0 0.0 0.0 0.0 0.0 0.07698792 
0.0 0.0 0.0 0.0 0.0 0.07698792 
0.0 0.0 0.0 0.0 0.0 0.08784885 
0.47005647 0.0 0.0 0.0 0.0 0.17905742 
1.1345513 0.0 0.0 0.14409147 0.0 0.19025639 
1.195689 0.0 0.0 0.4394975 0.28383392 0.11342334 
0.8412644 0.78702456 0.1735391 0.96884435 1.0886372 0.26883963 
0.26083973 1.1127497 0.30598652 1.2077752 1.9090533 0.7450363 
0.13420585 1.0644473 0.40370837 1.6094106 1.8122727 1.1400919 
0.3832397 0.85202914 0.718157 1.6379673 1.4758368 1.1512544 
0.51872313 1.1570705 1.2985044 1.4801054 1.0915699 0.5762776 
0.13614294 1.6543937 1.9956943 0.98985815 0.9490852 0.0 
0.0 1.9559772 2.2232394 0.33921093 1.0774547 0.0 
0.0 1.6835864 1.7926743 0.0 1.042848 0.0 
0.0 0.90605724 0.92042357 0.0 0.70102364 0.0 
0.0 0.2427246 0.17748985 0.0 0.33818987 0.0 
0.0 0.03258437 0.0 0.0 0.009559821 0.03159182 
0.0 0.0 0.0 0.0 0.0 0.07698792 
0.0 0.0 0.0 0.0 0.0 0.07698792 
0.0 0.0 0.0 0.0 0.0 0.07698792 
0.0 0.0 0.0 0.0 0.0 0.07698792 
0.0 0.0 0.0 0.0 0.0 0.07698792 
0.0 0.0 0.0 0.0 0.0 0.07698792 
0.0 0.0 0.0 0.0 0.0 0.07698792 
0.0 0.0 0.0 0.0 0.0 0.07698792 
0.0 0.0 0.0 0.0 0.0 0.07698792 
0.0 0.0 0.0 0.0 0.0 0.07698792 
0.0 0.0 0.0 0.0 0.0 0.07698792 
0.0 0.0 0.0 0.0 0.0 0.07698792 
0.0 0.0 0.0 0.0 0.0 0.07698792 
0.031055048 0.0 0.0 0.0 0.0 0.10899398 
0.66544163 0.0 0.0 0.1938069 0.0 0.50648046 
1.1911757 0.0 0.0 0.53689694 0.37395045 0.84554774 
1.0445426 0.277306 0.0 0.8658437 1.254975 0.9359698 
0.44734347 0.90665525 0.0 1.0655884 2.0096638 1.2602782 
0.034676634 0.81621116 0.0 0.9521209 2.4594526 1.5640666 
0.28423947 0.43302953 0.0 0.81267446 2.120624 1.8795397 
0.60841066 0.01792144 0.0 0.7257371 1.721774 1.9851165 
0.84339184 0.0 0.0 0.83760554 1.3350779 1.6844585 
0.72016114 0.62561595 0.40221116 0.84384084 1.1193664 0.8082548 
0.0 1.601787 1.8376247 0.745225 1.1338105 0.0 
0.0 1.8868197 2.272635 0.25530952 1.2862282 0.0 
0.0 1.5014205 1.7508208 0.0 1.04014 0.0 
0.0 0.58805394 0.6550822 0.0 0.6190311 0.0 
0.0 0.10632469 0.048787937 0.0 0.15057991 0.0 
0.0 0.0 0.0 0.0 0.0 0.07386138 
0.0 0.0 0.0 0.0 0.0 0.07698792 
0.0 0.0 0.0 0.0 0.0 0.07698792 
0.0 0.0 0.0 0.0 0.0 0.07698792 
0.0 0.0 0.0 0.0 0.0 0.07698792 
0.0 0.0 0.0 0.0 0.0 0.07698792 
0.0 0.0 0.0 0.0 0.0 0.07698792 
0.0 0.0 0.0 0.0 0.0 0.07698792 
0.0 0.0 0.0 0.0 0.0 0.07698792 
0.0 0.0 0.0 0.0 0.0 0.07698792 
0.0 0.0 0.0 0.0 0.0 0.07698792 
0.0 0.0 0.0 0.0 0.0 0.06831449 
0.054378122 0.0 0.07915341 0.0 0.0 0.0 
0.3540933 0.0 0.123353474 0.0 0.0 0.0 
0.99646443 0.0 0.0 0.0 0.12907861 0.265198 
1.1021264 0.14683062 0.0 0.0 1.0012628 0.5508617 
0.60583264 0.61553156 0.0 0.0 1.6399367 0.69079083 
0.10215479 0.5927485 0.0 0.0 1.8911275 1.2434332 
0.0 0.33584124 0.0 0.0 1.6586491 1.3162048 
0.17964098 0.0 0.0 0.0 1.3979689 1.3876736 
0.6048563 0.0 0.0 0.0 1.4451576 1.6891582 
1.0648515 0.0 0.0 0.0 1.3174311 1.8442562 
1.1703627 0.0 0.0 0.38085738 1.1554594 1.4488578 
0.6055877 0.7440788 0.30851442 0.54693335 1.1486379 0.53445387 
0.0 1.8159792 1.9226627 0.5315759 1.2903911 0.0 
0.0 1.7197542 2.2226279 0.021095175 1.2871821 0.0 
0.0 1.1115803 1.3765279 0.0 0.832325 0.0 
0.0 0.28801486 0.2854681 0.0 0.372024 0.0 
0.0 0.031362873 0.0 0.0 0.0 0.037831962 
0.0 0.0 0.0 0.0 0.0 0.07698792 
0.0 0.0 0.0 0.0 0.0 0.07698792 
0.0 0.0 0.0 0.0 0.0 0.07698792 
0.0 0.0 0.0 0.0 0.0 0.07698792 
0.0 0.0 0.0 0.0 0.0 0.07698792 
0.0 0.0 0.0 0.0 0.0 0.07698792 
0.0 0.0 0.0 0.0 0.0 0.07698792 
0.0 0.0 0.0 0.0 0.0 0.07698792 
0.0 0.0 0.0 0.0 0.0 0.07698792 
0.0 0.0 0.0 0.0 0.0 0.0686916 
0.096735746 0.0 0.10472924 0.0 0.0 0.0 
0.43042594 0.0 0.17492858 0.0 0.0 0.0 
0.7863503 0.0 0.18273896 0.0 0.0 0.0 
1.1634686 0.29196355 0.0 0.0 0.41554916 0.0 
0.6474556 0.83045626 0.0 0.0 1.3307978 0.0 
0.0 0.6973403 0.0 0.0 1.5880798 0.16915125 
0.0 0.081097245 0.0 0.0 1.3523377 0.5877891 
0.0 0.0 0.0 0.0 0.8147923 0.54897726 
0.0 0.0 0.0 0.0 0.7248261 0.5211434 
0.43311656 0.0 0.0 0.0 0.8883099 0.82468516 
1.0406032 0.0 0.0 0.0 1.1227387 1.4543037 
1.3928733 0.0 0.0 0.0 1.0978734 1.641259 
1.2179654 0.0 0.0 0.21869957 1.0679348 1.0460289 
0.13045126 1.2109325 0.8058349 0.42691943 1.2172035 0.12268926 
0.0 1.7851176 2.0731442 0.26939207 1.3401028 0.0 
0.0 1.4121288 1.9375856 0.0 1.1256398 0.0 
0.0 0.5607514 0.7208238 0.0 0.62160426 0.0 
0.0 0.06247092 0.014089972 0.0 0.113805845 0.0 
0.0 0.0 0.0 0.0 0.0 0.07698792 
0.0 0.0 0.0 0.0 0.0 0.07698792 
0.0 0.0 0.0 0.0 0.0 0.07698792 
0.0 0.0 0.0 0.0 0.0 0.07698792 
0.0 0.0 0.0 0.0 0.0 0.07698792 
0.0 0.0 0.0 0.0 0.0 0.07698792 
0.0 0.0 0.0 0.0 0.0 0.07698792 
0.0 0.0 0.0 0.0 0.0 0.07698792 
0.0 0.0 0.0 0.0 0.0 0.07698792 
0.0 0.0 0.0 0.0 0.0 0.051964205 
0.35518116 0.0 0.08040986 0.0 0.0 0.0 
0.9643237 0.0 0.143094 0.0 0.0 0.0 
1.2374301 0.062137716 0.07284447 0.0 0.0 0.0 
0.6947338 0.83828783 0.24274823 0.0 1.0188526 0.0 
0.0 1.2209476 0.22071904 0.0 1.6207002 0.0 
0.0 0.795229 0.39600712 0.0 1.2748191 0.0 
0.0 0.21148181 0.2555838 0.0 0.6783126 0.21133989 
0.0 0.0 0.146712 0.0 0.1497289 0.16256721 
0.0 0.0 0.0 0.0 0.04128826 0.1161568 
0.19668993 0.0 0.0 0.0 0.32277876 0.29415387 
0.7577606 0.0 0.0 0.0 0.6994017 0.8715995 
1.4099114 0.0 0.0 0.0 0.88282406 1.4199045 
1.6052632 0.0 0.0 0.0 0.9060689 1.256665 
0.7929536 0.5205647 0.0 0.047361556 1.0926334 0.36465734 
0.0 1.7236868 1.5565277 0.2742184 1.3018228 0.0 
0.0 1.5911635 2.1811898 0.0 1.3769492 0.0 
0.0 0.91438013 1.2923046 0.0 0.82128316 0.0 
0.0 0.19467741 0.18154815 0.0 0.27646598 0.0 
0.0 0.0 0.0 0.0 0.0 0.07125593 
0.0 0.0 0.0 0.0 0.0 0.07698792 
0.0 0.0 0.0 0.0 0.0 0.07698792 
0.0 0.0 0.0 0.0 0.0 0.07698792 
0.0 0.0 0.0 0.0 0.0 0.07698792 
0.0 0.0 0.0 0.0 0.0 0.07698792 
0.0 0.0 0.0 0.0 0.0 0.07698792 
0.0 0.0 0.0 0.0 0.0 0.07698792 
0.0 0.0 0.0 0.0 0.0 0.07698792 
0.1092293 0.0 0.023391925 0.0 0.0 0.05817747 
0.7831513 0.0 0.0 0.0 0.0 0.115340605 
1.4231012 0.0 0.0 0.074883096 0.0 0.0961553 
1.3008018 0.57191455 0.0 0.31979087 0.71894187 0.0 
0.014742807 1.6044896 0.3084075 0.316567 1.583801 0.0 
0.0 1.5996655 0.9880086 0.36148748 1.5727912 0.0 
0.0 0.83376205 1.1379037 0.266738 0.9789105 0.23066342 
0.0 0.305235 0.6958932 0.22667237 0.26978883 0.17416221 
0.0 0.0 0.04842546 0.0 0.0 0.09170697 
0.0 0.0 0.0 0.0 0.0 0.07698792 
0.0 0.0 0.0 0.0 0.009061169 0.10839519 
0.343413 0.0 0.0 0.0 0.3977133 0.43193907 
1.212064 0.0 0.0 0.0 0.57636017 1.110877 
1.8286018 0.0 0.0 0.0 0.7345725 1.2688859 
1.3550258 0.26863864 0.0 0.0 0.9372975 0.5809943 
0.0071757436 1.4963236 0.8064846 0.07492472 1.2761512 0.0 
0.0 1.7991928 2.1024005 0.0 1.5180374 0.0 
0.0 1.224661 1.7988545 0.0 1.0208937 0.0 
0.0 0.3696732 0.48758626 0.0 0.49038425 0.0 
0.0 0.027818523 0.0 0.0 0.0 0.039159708 
0.0 0.0 0.0 0.0 0.0 0.07698792 
0.0 0.0 0.0 0.0 0.0 0.07698792 
0.0 0.0 0.0 0.0 0.0 0.07698792 
0.0 0.0 0.0 0.0 0.0 0.07698792 
0.0 0.0 0.0 0.0 0.0 0.07698792 
0.0 0.0 0.0 0.0 0.0 0.07698792 
0.0 0.0 0.0 0.0 0.0 0.07698792 
0.0 0.0 0.0 0.0 0.0 0.07698792 
0.24789032 0.0 0.0 0.0 0.0 0.16705951 
1.1935611 0.0 0.0 0.1563536 0.0 0.45675072 
1.8304868 0.0 0.0 0.20323458 0.43990895 0.55984485 
1.1275542 1.0614539 0.0 0.25204512 1.5326505 0.24010253 
0.0 1.7197948 0.05061657 0.09954196 1.958423 0.00032526255 
0.0 1.3654126 1.0443383 0.06737211 1.5401336 0.12673163 
0.0 0.46697035 0.99589336 0.005035487 0.8675528 0.30558962 
0.0 0.020453334 0.49632215 0.067520164 0.1547464 0.1594139 
0.0 0.0 0.0 0.0 0.0 0.07980361 
0.0 0.0 0.0 0.0 0.0 0.07698792 
0.0 0.0 0.0 0.0 0.0 0.07822567 
0.06620166 0.0 0.0 0.0 0.1306712 0.17993522 
0.94258815 0.0 0.0 0.0 0.35957903 0.8425826 
1.8534548 0.0 0.0 0.0 0.7022791 1.2455704 
1.693419 0.0 0.0 0.0 0.9556133 0.7528274 
0.42662975 1.2345023 0.0 0.06559107 1.3176726 0.0 
0.0 1.7812293 1.8158007 0.082012944 1.672287 0.0 
0.0 1.3703992 2.0354366 0.0 1.2886945 0.0 
0.0 0.55503076 0.8842419 0.0 0.6850224 0.0 
0.0 0.036196902 0.008428387 0.0 0.077337876 0.019702777 
0.0 0.0 0.0 0.0 0.0 0.07698792 
0.0 0.0 0.0 0.0 0.0 0.07698792 
0.0 0.0 0.0 0.0 0.0 0.07698792 
0.0 0.0 0.0 0.0 0.0 0.07698792 
0.0 0.0 0.0 0.0 0.0 0.07698792 
0.0 0.0 0.0 0.0 0.0 0.07698792 
0.0 0.0 0.0 0.0 0.0 0.07698792 
0.0 0.0 0.0 0.0 0.0 0.07698792 
0.41816604 0.0 0.0 0.05395704 0.0 0.336996 
1.526097 0.0 0.0 0.12948155 0.112143755 0.7578381 
1.9490745 0.0 0.0 0.13698009 0.94824654 0.7429251 
0.80132836 1.2120894 0.0 0.0 1.7191409 0.19409396 
0.0 1.6809694 0.31639206 0.0 1.8595568 0.0 
0.0 1.0371565 1.2954984 0.0 1.42264 0.10528706 
0.0 0.25990677 0.8726121 0.0 0.71037346 0.16480261 
0.0 0.0 0.18617225 0.0 0.04645363 0.10880317 
0.0 0.0 0.0 0.0 0.0 0.07698792 
0.0 0.0 0.0 0.0 0.0 0.07698792 
0.0 0.0 0.0 0.0 0.0 0.07698792 
0.0 0.0 0.0 0.0 0.0 0.089365445 
0.7178669 0.0 0.0 0.025183 0.26086646 0.68845594 
1.7134149 0.0 0.0 0.047198143 0.6157092 1.2216847 
1.8530917 0.0 0.0 0.13466778 0.9141315 0.9504462 
0.74689484 1.0923574 0.0 0.16026789 1.3798125 0.29354024 
0.0 1.7899871 1.4633965 0.26116538 1.6993159 0.0 
0.0 1.4297938 2.0853138 0.13602474 1.4506869 0.0 
0.0 0.6492712 1.2136834 0.022923194 0.7972147 0.0 
0.0 0.08317499 0.10929511 0.0 0.093441874 0.03372077 
0.0 0.0 0.0 0.0 0.0 0.07698792 
0.0 0.0 0.0 0.0 0.0 0.07698792 
0.0 0.0 0.0 0.0 0.0 0.07698792 
0.0 0.0 0.0 0.0 0.0 0.07698792 
0.0 0.0 0.0 0.0 0.0 0.07698792 
0.0 0.0 0.0 0.0 0.0 0.07698792 
0.0 0.0 0.0 0.0 0.0 0.07698792 
0.0 0.0 0.0 0.0 0.0 0.07698792 
0.55451757 0.0 0.0 0.070413 0.0 0.4695271 
1.6767802 0.0 0.0 0.06684801 0.32854417 0.94890374 
1.8657966 0.0 0.0 0.019033205 1.040411 0.7483286 
0.5569475 1.279466 0.0 0.0 1.5312803 0.051806197 
0.0 1.6084917 0.8434252 0.0 1.6928833 0.0 
0.0 0.96839553 1.5396216 0.0 1.316723 0.0005260706 
0.0 0.20441967 0.79934704 0.0 0.59490675 0.026002482 
0.0 0.0 0.0 0.0 0.0 0.08377418 
0.0 0.0 0.0 0.0 0.0 0.07698792 
0.0 0.0 0.0 0.0 0.0 0.07698792 
0.0 0.0 0.0 0.0 0.0 0.07698792 
0.0 0.0 0.0 0.0 0.0 0.07698792 
0.60730267 0.0 0.0 0.0 0.1991751 0.5311314 
1.6568329 0.0 0.0 0.0 0.49620244 1.0613766 
1.9259081 0.0 0.0 0.0 0.99250406 0.9998104 
0.8538589 0.9920892 0.0 0.049942683 1.5254581 0.42738557 
0.0 1.6579155 0.8957883 0.18065512 1.7901423 0.0 
0.0 1.3157784 1.8626424 0.2127119 1.526065 0.068801016 
0.0 0.49868098 1.2743143 0.14392379 0.77960676 0.05622124 
0.0 0.094162375 0.18728125 0.07444701 0.04872937 0.07758154 
0.0 0.0 0.0 0.0 0.0 0.07698792 
0.0 0.0 0.0 0.0 0.0 0.07698792 
0.0 0.0 0.0 0.0 0.0 0.07698792 
0.0 0.0 0.0 0.0 0.0 0.07698792 
0.0 0.0 0.0 0.0 0.0 0.07698792 
0.0 0.0 0.0 0.0 0.0 0.07698792 
0.0 0.0 0.0 0.0 0.0 0.07698792 
0.0 0.0 0.0 0.0 0.0 0.07698792 
0.6310886 0.0 0.0 0.0018056827 0.040012736 0.5209807 
1.7366514 0.0 0.0 0.020773258 0.41317335 0.9969829 
1.7859552 0.0 0.0 0.0 0.99793285 0.7011593 
0.42938954 1.3072461 0.0 0.0 1.4181879 0.0 
0.0 1.5723476 1.1468276 0.0 1.6269344 0.0 
0.0 1.0097994 1.6991407 0.0 1.2425722 0.0 
0.0 0.24936205 0.78494644 0.0 0.52350515 0.0 
0.0 0.0 0.0 0.0 0.0 0.07744452 
0.0 0.0 0.0 0.0 0.0 0.07698792 
0.0 0.0 0.0 0.0 0.0 0.07698792 
0.0 0.0 0.0 0.0 0.0 0.07698792 
0.0 0.0 0.0 0.0 0.0 0.07698792 
0.5566972 0.0 0.0 0.0 0.015288208 0.38140938 
1.7116296 0.0 0.0 0.0 0.3202261 0.8526449 
1.9517493 0.0 0.0 0.0 1.0621623 0.83940643 
0.70521396 1.116442 0.0 0.0 1.6538845 0.24393676 
0.0 1.5056005 0.53966975 0.0 1.8775762 0.0 
0.0 1.0318105 1.5590305 0.07852498 1.4489869 0.20836361 
0.0 0.3331088 1.0750498 0.112950675 0.62274116 0.14343557 
0.0 0.029718347 0.1545485 0.049929354 0.0042340644 0.09640828 
0.0 0.0 0.0 0.0 0.0 0.07698792 
0.0 0.0 0.0 0.0 0.0 0.07698792 
0.0 0.0 0.0 0.0 0.0 0.07698792 
0.0 0.0 0.0 0.0 0.0 0.07698792 
0.0 0.0 0.0 0.0 0.0 0.07698792 
0.0 0.0 0.0 0.0 0.0 0.07698792 
0.0 0.0 0.0 0.0 0.0 0.07698792 
0.0 0.0 0.0 0.0 0.0 0.07698792 
0.63064337 0.0 0.0 0.0030493485 0.039753933 0.52116 
1.7349784 0.0 0.0 0.02329522 0.41262338 0.9968057 
1.7671278 0.0 0.0 0.0 0.97224766 0.6896202 
0.41022706 1.3155115 0.0 0.0 1.3915422 0.0 
0.0 1.5863057 1.1935364 0.0 1.6098928 0.0 
0.0 1.0208997 1.7264347 0.0 1.2265471 0.0 
0.0 0.26433584 0.7794658 0.0 0.5111682 0.0 
0.0 0.0 0.0 0.0 0.0 0.07698792 
0.0 0.0 0.0 0.0 0.0 0.07698792 
0.0 0.0 0.0 0.0 0.0 0.07698792 
0.0 0.0 0.0 0.0 0.0 0.07698792 
0.0 0.0 0.0027583987 0.0 0.0 0.048704993 
0.6684161 0.0 0.0 0.0 0.0 0.28925267 
1.7770026 0.0 0.0 0.0 0.23590817 0.6725345 
1.8000171 0.14461163 0.0 0.0 1.2057464 0.55706596 
0.30133587 1.3456037 0.0 0.0 1.7494973 0.12685192 
0.0 1.4121552 0.5758117 0.0 1.8261743 0.08640754 
0.0 0.7373192 1.3192489 0.010717903 1.2500614 0.32764897 
0.0 0.13953418 0.798764 0.08960454 0.41068825 0.1696861 
0.0 0.0 0.047201812 0.0 0.0 0.091582365 
0.0 0.0 0.0 0.0 0.0 0.07698792 
0.0 0.0 0.0 0.0 0.0 0.07698792 
0.0 0.0 0.0 0.0 0.0 0.07698792 
0.0 0.0 0.0 0.0 0.0 0.07698792 
0.0 0.0 0.0 0.0 0.0 0.07698792 
0.0 0.0 0.0 0.0 0.0 0.07698792 
0.0 0.0 0.0 0.0 0.0 0.07698792 
0.0 0.0 0.0 0.0 0.0 0.07698792 
0.63116366 0.0 0.0 0.0029623033 0.039200027 0.5208938 
1.7365837 0.0 0.0 0.021510001 0.41202787 0.9965937 
1.8112862 0.0 0.0 0.0 0.93253696 0.6641329 
0.4950887 1.3592014 0.0 0.0 1.3411293 0.0 
0.0 1.6444707 1.2320532 0.0 1.5913751 0.0 
0.0 1.094183 1.7765303 0.0 1.2268157 0.0 
0.0 0.32142535 0.8049731 0.0 0.5483058 0.0 
0.0 0.0040812287 0.0 0.0 0.0 0.06552394 
0.0 0.0 0.0 0.0 0.0 0.07698792 
0.0 0.0 0.0 0.0 0.0 0.07698792 
0.0 0.0 0.0 0.0 0.0 0.06793738 
0.1571604 0.0 0.11462814 0.0 0.0 0.0 
1.0596831 0.0 0.0 0.0 0.0 0.2041527 
1.8182425 0.0 0.0 0.0 0.42905435 0.5195276 
1.3172116 0.61555415 0.0 0.0 1.5060248 0.25351548 
0.0 1.4678599 0.0 0.0 1.8851317 0.06883323 
0.0 1.1745836 0.8633769 0.086870745 1.6594704 0.26981038 
0.0 0.37959313 1.1046232 0.08814592 0.96306974 0.34793657 
0.0 0.034470562 0.51638824 0.073121235 0.18890984 0.14662401 
0.0 0.0 0.0 0.0 0.0 0.07987971 
0.0 0.0 0.0 0.0 0.0 0.07698792 
0.0 0.0 0.0 0.0 0.0 0.07698792 
0.0 0.0 0.0 0.0 0.0 0.07698792 
0.0 0.0 0.0 0.0 0.0 0.07698792 
0.0 0.0 0.0 0.0 0.0 0.07698792 
0.0 0.0 0.0 0.0 0.0 0.07698792 
0.0 0.0 0.0 0.0 0.0 0.07698792 
0.0 0.0 0.0 0.0 0.0 0.07698792 
0.61110926 0.0 0.0 0.014459477 0.05795617 0.532671 
1.7042737 0.0 0.0 0.04583856 0.42977884 1.0322042 
1.8608236 0.0 0.0 0.0 0.8736472 0.720326 
0.6617182 1.2703778 0.0 0.0 1.2478507 0.0 
0.0 1.7697016 1.2881793 0.0 1.5505968 0.0 
0.0 1.298695 1.9256554 0.0 1.2765783 0.0 
0.0 0.4533916 0.9377956 0.0 0.66898495 0.0 
0.0 0.06221707 0.0 0.0 0.04277772 0.0028947592 
0.0 0.0 0.0 0.0 0.0 0.07698792 
0.0 0.0 0.0 0.0 0.0 0.069822915 
0.09036149 0.0 0.09830276 0.0 0.0 0.0 
0.5615198 0.0 0.08020217 0.0 0.0 0.0 
1.4818702 0.0 0.0 0.0 0.0 0.124514975 
1.8423023 0.22455962 0.0 0.0 0.9762899 0.27822787 
0.49995404 1.3169646 0.0 0.0 1.8361689 0.04866524 
0.0 1.3972907 0.0 0.0 1.9235523 0.15195015 
0.0 0.8145004 1.0227817 0.095327124 1.3462269 0.45469683 
0.0 0.23506847 0.91171 0.1782813 0.4838781 0.31211036 
0.0 0.0 0.2576678 0.027877871 0.04254217 0.11733039 
0.0 0.0 0.0 0.0 0.0 0.07698792 
0.0 0.0 0.0 0.0 0.0 0.07698792 
0.0 0.0 0.0 0.0 0.0 0.07698792 
0.0 0.0 0.0 0.0 0.0 0.07698792 
0.0 0.0 0.0 0.0 0.0 0.07698792 
0.0 0.0 0.0 0.0 0.0 0.07698792 
0.0 0.0 0.0 0.0 0.0 0.07698792 
0.0 0.0 0.0 0.0 0.0 0.07698792 
0.0 0.0 0.0 0.0 0.0 0.07698792 
0.54227394 0.0 0.0 0.04595531 0.12854378 0.55372953 
1.5832694 0.0 0.0 0.102376 0.47687855 1.1160939 
1.9140708 0.0 0.0 0.12144025 0.87919146 0.91272694 
0.89838517 0.99328166 0.0 0.04116798 1.1112335 0.06949896 
0.0 1.7774457 1.4306115 0.0 1.4271146 0.0 
0.0 1.6219574 2.1742985 0.0 1.3491384 0.0 
0.0 0.89256096 1.3875488 0.0 0.771047 0.0 
0.0 0.2695448 0.21133146 0.0 0.23015259 0.0 
0.025542334 0.09049313 0.10465401 0.0 0.0 0.0 
0.18843114 0.07105328 0.18439633 0.0 0.0 0.0 
0.47009355 0.0 0.2079728 0.0 0.0 0.0 
1.1223309 0.0 0.15003029 0.0 0.0 0.0 
1.7749348 0.016011395 0.0 0.0 0.38759235 0.0 
1.2323363 1.0198042 0.0 0.0 1.6807027 0.02263841 
0.0 1.5290033 0.0 0.0 2.204394 0.037149847 
0.0 1.2677191 0.48467636 0.0 1.6847091 0.29817492 
0.0 0.35241136 0.88384664 0.0 0.9845117 0.39738327 
0.0 0.028876595 0.53470945 0.04743207 0.21982132 0.22957553 
0.0 0.0 0.03490772 0.0 0.0 0.08924583 
0.0 0.0 0.0 0.0 0.0 0.07698792 
0.0 0.0 0.0 0.0 0.0 0.07698792 
0.0 0.0 0.0 0.0 0.0 0.07698792 
0.0 0.0 0.0 0.0 0.0 0.07698792 
0.0 0.0 0.0 0.0 0.0 0.07698792 
0.0 0.0 0.0 0.0 0.0 0.07698792 
0.0 0.0 0.0 0.0 0.0 0.07698792 
0.0 0.0 0.0 0.0 0.0 0.07698792 
0.0 0.0 0.0 0.0 0.0 0.07698792 
0.42359877 0.0 0.0 0.053524278 0.21818475 0.523736 
1.3408442 0.0 0.0 0.13625519 0.5653973 1.2005246 
1.8330069 0.0 0.0 0.2710655 0.8863717 1.2420869 
1.2524683 0.52432096 0.0 0.24914324 1.0361407 0.57526314 
0.030914187 1.547914 1.2698103 0.21207185 1.1829243 0.0 
0.0 1.7752867 2.4869804 0.0 1.250809 0.0 
0.0 1.5106183 2.2042496 0.0 0.74713844 0.0 
0.0 0.9261883 1.0825312 0.0 0.25777844 0.0 
0.3066731 0.61785406 0.6313925 0.0 0.0 0.0 
0.57149893 0.51048017 0.5798036 0.0 0.0 0.0 
0.99909765 0.28514174 0.45134187 0.0 0.0 0.0 
1.415571 0.40800717 0.13101292 0.0 0.2915852 0.0 
1.2533755 0.692703 0.0 0.0 1.5713836 0.099044524 
0.20700848 1.4140452 0.0 0.11671693 2.3491402 0.23248631 
0.0 1.4283133 0.1393083 0.26027328 2.026271 0.32667536 
0.0 0.78145516 0.91699827 0.19348711 1.2679919 0.5065849 
0.0 0.17598863 0.78484976 0.047662143 0.5691573 0.30644003 
0.0 0.0 0.2062248 0.0 0.0731713 0.12298955 
0.0 0.0 0.0 0.0 0.0 0.07805332 
0.0 0.0 0.0 0.0 0.0 0.07698792 
0.0 0.0 0.0 0.0 0.0 0.07698792 
0.0 0.0 0.0 0.0 0.0 0.07698792 
0.0 0.0 0.0 0.0 0.0 0.07698792 
0.0 0.0 0.0 0.0 0.0 0.07698792 
0.0 0.0 0.0 0.0 0.0 0.07698792 
0.0 0.0 0.0 0.0 0.0 0.07698792 
0.0 0.0 0.0 0.0 0.0 0.07698792 
0.0 0.0 0.0 0.0 0.0 0.07698792 
0.27354681 0.0 0.0 0.0 0.23607774 0.39319056 
1.0666087 0.0 0.0 0.06881544 0.6418537 1.1235006 
1.6373415 0.0 0.0 0.14836821 0.9471968 1.4418883 
1.5246818 0.0 0.0 0.33707395 1.0529097 1.0843403 
0.63339335 0.89800304 0.3127926 0.40328732 1.1118051 0.30169636 
0.0 1.5384125 2.1143749 0.2933899 1.1498401 0.0 
0.0 1.5222793 2.4869504 0.0 0.925957 0.0 
0.19551906 1.4154965 1.842681 0.0 0.5506318 0.0 
0.49579114 1.0268385 1.2231963 0.0 0.39398542 0.0 
0.64921826 0.8487064 0.9626583 0.0 0.47224393 0.0 
0.79660696 0.7760567 0.61438227 0.0 0.8611615 0.0 
0.86009544 0.8316004 0.1170621 0.12267673 1.8910939 0.0879489 
0.37814668 1.261328 0.0 0.46869215 2.5647457 0.5987813 
0.0 1.3557523 0.0 0.4615653 2.2943237 0.64667094 
0.0 0.90080863 0.49313462 0.3846637 1.5141865 0.61699003 
0.0 0.32038426 0.93341416 0.22750473 0.72876257 0.5207183 
0.0 0.07239444 0.6141566 0.102391504 0.21548103 0.19478208 
0.0 0.0 0.0 0.0 0.0 0.082999796 
0.0 0.0 0.0 0.0 0.0 0.07698792 
0.0 0.0 0.0 0.0 0.0 0.07698792 
0.0 0.0 0.0 0.0 0.0 0.07698792 
0.0 0.0 0.0 0.0 0.0 0.07698792 
0.0 0.0 0.0 0.0 0.0 0.07698792 
0.0 0.0 0.0 0.0 0.0 0.07698792 
0.0 0.0 0.0 0.0 0.0 0.07698792 
0.0 0.0 0.0 0.0 0.0 0.07698792 
0.0 0.0 0.0 0.0 0.0 0.07698792 
0.0 0.0 0.0 0.0 0.0 0.07698792 
0.10656479 0.0 0.0 0.0 0.14911829 0.22542095 
0.7361742 0.0 0.0 0.0 0.5739299 0.85126656 
1.3089144 0.0 0.0 0.039687883 0.9713972 1.471087 
1.4116066 0.0 0.0 0.32799527 1.1674757 1.5871124 
1.0532045 0.08787766 0.0 0.6834947 1.3045472 1.3250501 
0.42258632 0.7750923 0.8757141 1.0057865 1.3549658 0.7238079 
0.20816559 1.1142896 1.832969 1.0062076 1.391935 0.084180474 
0.13552308 1.1921483 1.8819673 0.8583052 1.3818883 0.0 
0.32217276 1.2168103 1.4164952 0.86019474 1.4052042 0.0 
0.3529313 1.1671886 1.0092845 0.99376696 1.7092613 0.11750914 
0.4053122 1.1107854 0.5281744 1.1404396 2.2314231 0.6805407 
0.14609678 1.2952609 0.004762452 1.0890323 2.5820625 1.0355203 
0.0 1.1536901 0.0 0.75112987 2.4381154 1.1026897 
0.0 0.90476114 0.0 0.40231448 1.5855592 0.94984174 
0.0 0.36181805 0.4732983 0.09356299 0.77721804 0.6131124 
0.0 0.049142014 0.5275092 0.012024646 0.3149431 0.38482565 
0.0 0.0 0.286735 0.0 0.06967232 0.12479033 
0.0 0.0 0.0 0.0 0.0 0.07698792 
0.0 0.0 0.0 0.0 0.0 0.07698792 
0.0 0.0 0.0 0.0 0.0 0.07698792 
0.0 0.0 0.0 0.0 0.0 0.07698792 
0.0 0.0 0.0 0.0 0.0 0.07698792 
0.0 0.0 0.0 0.0 0.0 0.07698792 
0.0 0.0 0.0 0.0 0.0 0.07698792 
0.0 0.0 0.0 0.0 0.0 0.07698792 
0.0 0.0 0.0 0.0 0.0 0.07698792 
0.0 0.0 0.0 0.0 0.0 0.07698792 
0.0 0.0 0.0 0.0 0.0 0.07698792 
0.0 0.0 0.0 0.0 0.022641335 0.11226386 
0.3984259 0.0 0.0 0.0 0.41527796 0.4866018 
0.9477493 0.0 0.0 0.0 0.8909628 1.1217179 
1.1458924 0.0 0.0 0.035063334 1.2722468 1.5501559 
1.0213192 0.0 0.0 0.45678222 1.5090393 1.7751489 
0.6690233 0.015950352 0.0 1.0426458 1.6508945 1.8197012 
0.43315214 0.6302296 0.09250233 1.5763446 1.8364185 1.7402506 
0.22769722 0.9770698 0.5280033 1.7689753 1.9741572 1.5487554 
0.117224604 1.1445103 0.5976423 1.7937311 2.1372993 1.5122209 
0.03465514 1.1016533 0.29300728 1.574999 2.3973758 1.5235596 
0.0 1.0701438 0.0 1.2787164 2.3619244 1.5232553 
0.0 0.8763531 0.0 0.6845808 2.152698 1.3790088 
0.0 0.58132195 0.0 0.22562227 1.4610869 1.0444996 
0.0 0.20958312 0.085039295 0.0 0.7452179 0.67859244 
0.0 0.0 0.24923587 0.0 0.3724859 0.37647593 
0.0 0.0 0.12414981 0.0 0.14661573 0.1857856 
0.0 0.0 0.01335305 0.0 0.0 0.08604378 
0.0 0.0 0.0 0.0 0.0 0.07698792 
0.0 0.0 0.0 0.0 0.0 0.07698792 
0.0 0.0 0.0 0.0 0.0 0.07698792 
0.0 0.0 0.0 0.0 0.0 0.07698792 
0.0 0.0 0.0 0.0 0.0 0.07698792 
0.0 0.0 0.0 0.0 0.0 0.07698792 
0.0 0.0 0.0 0.0 0.0 0.07698792 
0.0 0.0 0.0 0.0 0.0 0.07698792 
0.0 0.0 0.0 0.0 0.0 0.07698792 
0.0 0.0 0.0 0.0 0.0 0.07698792 
0.0 0.0 0.0 0.0 0.0 0.07698792 
0.0 0.0 0.0 0.0 0.0 0.07698792 
0.11274569 0.0 0.0 0.0 0.16457659 0.22704723 
0.51019526 0.0 0.0 0.0 0.5701253 0.63545054 
0.82130414 0.0 0.0 0.0 0.9805313 1.1332235 
0.8879402 0.0 0.0 0.0 1.3531917 1.5362253 
0.80849123 0.0 0.0 0.009396364 1.7325542 1.8518932 
0.5264848 0.0 0.0 0.3502883 2.0087821 1.9176974 
0.30421314 0.13732569 0.0 0.57622635 2.1687398 1.8762164 
0.15689826 0.34408796 0.0 0.545777 2.1491637 1.8519444 
0.0019745529 0.4276548 0.0 0.31454694 1.9974617 1.6520665 
0.0 0.27426228 0.0 0.0 1.6829432 1.4110603 
0.0 0.16235277 0.0 0.0 1.0921351 0.97693914 
0.0 0.0 0.0 0.0 0.5688357 0.57179904 
0.0 0.0 0.09437797 0.0 0.30552688 0.34899893 
0.0 0.0 0.13250521 0.0 0.12082203 0.15913391 
0.0 0.0 0.0 0.0 0.0 0.083075896 
0.0 0.0 0.0 0.0 0.0 0.07698792 
0.0 0.0 0.0 0.0 0.0 0.07698792 
0.0 0.0 0.0 0.0 0.0 0.07698792 
0.0 0.0 0.0 0.0 0.0 0.07698792 
0.0 0.0 0.0 0.0 0.0 0.07698792 
0.0 0.0 0.0 0.0 0.0 0.07698792 
0.0 0.0 0.0 0.0 0.0 0.07698792 
0.0 0.0 0.0 0.0 0.0 0.07698792 
0.0 0.0 0.0 0.0 0.0 0.07698792 
0.0 0.0 0.0 0.0 0.0 0.07698792 
0.0 0.0 0.0 0.0 0.0 0.07698792 
0.0 0.0 0.0 0.0 0.0 0.07698792 
0.0 0.0 0.0 0.0 0.0 0.07698792 
0.0 0.0 0.0 0.0 0.015528988 0.10916948 
0.15740806 0.0 0.0 0.0 0.27071157 0.243632 
0.40900612 0.0 0.0 0.0 0.5732818 0.4966255 
0.5362242 0.0 0.0 0.0 0.8601531 0.78050584 
0.5575652 0.0 0.0 0.0 1.124524 1.110157 
0.4246155 0.0 0.0 0.0 1.3288938 1.29604 
0.209337 0.0 0.0 0.0 1.3278883 1.2728138 
0.11496024 0.0 0.0 0.0 1.2680169 1.1714311 
0.0 0.0 0.0 0.0 1.0579063 0.88651174 
0.0 0.0 0.0 0.0 0.70782113 0.60053414 
0.0 0.0 0.0 0.0 0.41719612 0.37731668 
0.0 0.0 0.0 0.0 0.22188736 0.224702 
0.0 0.0 0.0 0.0 0.06984918 0.12858307 
0.0 0.0 0.0 0.0 0.0 0.0818583 
0.0 0.0 0.0 0.0 0.0 0.07698792 
0.0 0.0 0.0 0.0 0.0 0.07698792 
0.0 0.0 0.0 0.0 0.0 0.07698792 
0.0 0.0 0.0 0.0 0.0 0.07698792 
0.0 0.0 0.0 0.0 0.0 0.07698792 
0.0 0.0 0.0 0.0 0.0 0.07698792 
0.0 0.0 0.0 0.0 0.0 0.07698792 
0.0 0.0 0.0 0.0 0.0 0.07698792 
0.0 0.0 0.0 0.0 0.0 0.07698792 
0.0 0.0 0.0 0.0 0.0 0.07698792 
0.0 0.0 0.0 0.0 0.0 0.07698792 
0.0 0.0 0.0 0.0 0.0 0.07698792 
0.0 0.0 0.0 0.0 0.0 0.07698792 
0.0 0.0 0.0 0.0 0.0 0.07698792 
0.0 0.0 0.0 0.0 0.0 0.07698792 
0.0 0.0 0.0 0.0 0.0 0.08688994 
0.03729471 0.0 0.0 0.0 0.108435586 0.15178204 
0.1434636 0.0 0.0 0.0 0.2741811 0.23419413 
0.23682886 0.0 0.0 0.0 0.49111262 0.32854223 
0.19600976 0.0 0.0 0.0 0.5478689 0.38375604 
0.056453034 0.0 0.0 0.0 0.5552376 0.36896974 
0.0 0.0 0.0 0.0 0.45231125 0.34984648 
0.0 0.0 0.0 0.0 0.27231428 0.22829211 
0.0 0.0 0.0 0.0 0.12720096 0.17252451 
0.0 0.0 0.0 0.0 0.03873058 0.11825381 
0.0 0.0 0.0 0.0 0.0 0.081021205 
0.0 0.0 0.0 0.0 0.0 0.07698792 
0.0 0.0 0.0 0.0 0.0 0.07698792 
0.0 0.0 0.0 0.0 0.0 0.07698792 
0.0 0.0 0.0 0.0 0.0 0.07698792 
0.0 0.0 0.0 0.0 0.0 0.07698792 
0.0 0.0 0.0 0.0 0.0 0.07698792 
0.0 0.0 0.0 0.0 0.0 0.07698792 
0.0 0.0 0.0 0.0 0.0 0.07698792 
0.0 0.0 0.0 0.0 0.0 0.07698792 
0.0 0.0 0.0 0.0 0.0 0.07698792 
0.0 0.0 0.0 0.0 0.0 0.07698792 
0.0 0.0 0.0 0.0 0.0 0.07698792 
0.0 0.0 0.0 0.0 0.0 0.07698792 
0.0 0.0 0.0 0.0 0.0 0.07698792 
0.0 0.0 0.0 0.0 0.0 0.07698792 
0.0 0.0 0.0 0.0 0.0 0.07698792 
0.0 0.0 0.0 0.0 0.0 0.07698792 
0.0 0.0 0.0 0.0 0.0 0.07698792 
0.0 0.0 0.0 0.0 0.0 0.07698792 
0.0 0.0 0.0 0.0 0.0 0.07698792 
0.0 0.0 0.0 0.0 0.0 0.07698792 
0.0 0.0 0.0 0.0 0.0 0.07698792 
0.0 0.0 0.0 0.0 0.0 0.07698792 
0.0 0.0 0.0 0.0 0.0 0.07698792 
0.0 0.0 0.0 0.0 0.0 0.07698792 
0.0 0.0 0.0 0.0 0.0 0.07698792 
0.0 0.0 0.0 0.0 0.0 0.07698792 
0.0 0.0 0.0 0.0 0.0 0.07698792 
0.0 0.0 0.0 0.0 0.0 0.07698792 
0.0 0.0 0.0 0.0 0.0 0.07698792 
0.0 0.0 0.0 0.0 0.0 0.07698792 
0.0 0.0 0.0 0.0 0.0 0.07698792 
0.0 0.0 0.0 0.0 0.0 0.07698792 
0.0 0.0 0.0 0.0 0.0 0.07698792 
0.0 0.0 0.0 0.0 0.0 0.07698792 
0.0 0.0 0.0 0.0 0.0 0.07698792 
0.0 0.0 0.0 0.0 0.0 0.07698792 
0.0 0.0 0.0 0.0 0.0 0.07698792 
0.0 0.0 0.0 0.0 0.0 0.07698792 
0.0 0.0 0.0 0.0 0.0 0.07698792 
0.0 0.0 0.0 0.0 0.0 0.07698792 
0.0 0.0 0.0 0.0 0.0 0.07698792 
0.0 0.0 0.0 0.0 0.0 0.07698792 
0.0 0.0 0.0 0.0 0.0 0.07698792 
0.0 0.0 0.0 0.0 0.0 0.07698792 
0.0 0.0 0.0 0.0 0.0 0.07698792 
0.0 0.0 0.0 0.0 0.0 0.07698792 
0.0 0.0 0.0 0.0 0.0 0.07698792 
0.0 0.0 0.0 0.0 0.0 0.07698792 
0.0 0.0 0.0 0.0 0.0 0.07698792 
0.0 0.0 0.0 0.0 0.0 0.07698792 
0.0 0.0 0.0 0.0 0.0 0.07698792 
0.0 0.0 0.0 0.0 0.0 0.07698792 
0.0 0.0 0.0 0.0 0.0 0.07698792 
0.0 0.0 0.0 0.0 0.0 0.07698792 
0.0 0.0 0.0 0.0 0.0 0.07698792 
0.0 0.0 0.0 0.0 0.0 0.07698792 
0.0 0.0 0.0 0.0 0.0 0.07698792 
0.0 0.0 0.0 0.0 0.0 0.07698792 
0.0 0.0 0.0 0.0 0.0 0.07698792 
0.0 0.0 0.0 0.0 0.0 0.07698792 
0.0 0.0 0.0 0.0 0.0 0.07698792 
0.0 0.0 0.0 0.0 0.0 0.07698792 
0.0 0.0 0.0 0.0 0.0 0.07698792 
0.0 0.0 0.0 0.0 0.0 0.07698792 
0.0 0.0 0.0 0.0 0.0 0.07698792 

