0.0 0.0 0.0 0.0 0.0 0.07698792 
0.0 0.0 0.0 0.0 0.0 0.07698792 
0.0 0.0 0.0 0.0 0.0 0.07698792 
0.0 0.0 0.0 0.0 0.0 0.07698792 
0.0 0.0 0.0 0.0 0.0 0.07698792 
0.0 0.0 0.0 0.0 0.0 0.07698792 
0.0 0.0 0.0 0.0 0.0 0.07698792 
0.0 0.0 0.0 0.0 0.0 0.07698792 
0.0 0.0 0.0 0.0 0.0 0.052853156 
0.15198268 0.0 0.16334617 0.0 0.0 0.0 
0.25370866 0.17338644 0.15749088 0.0 0.0 0.0 
0.045501433 0.28242165 0.1340017 0.0 0.0 0.0 
0.0 0.31428897 0.15075275 0.0 0.0 0.0 
0.0 0.22966698 0.05561737 0.0 0.0778566 0.0 
0.0 0.055704147 0.0 0.0 0.0035914406 0.017583638 
0.0 0.0 0.0 0.0 0.0 0.07698792 
0.0 0.0 0.0 0.0 0.0 0.07698792 
0.0 0.0 0.0 0.0 0.0 0.07698792 
0.0 0.0 0.0 0.0 0.0 0.07698792 
0.0 0.0 0.0 0.0 0.0 0.07698792 
0.0 0.0 0.0 0.0 0.0 0.07698792 
0.0 0.0 0.0 0.0 0.0 0.07698792 
0.0 0.0 0.0 0.0 0.0 0.07698792 
0.0 0.0 0.0 0.0 0.0 0.07698792 
0.0 0.0 0.0 0.0 0.0 0.07698792 
0.0 0.0 0.0 0.0 0.0 0.07698792 
0.0 0.0 0.0 0.0 0.0 0.07698792 
0.0 0.0 0.0 0.0 0.0 0.07698792 
0.0 0.0 0.0 0.0 0.0 0.07698792 
0.0 0.0 0.0 0.0 0.0 0.07698792 
0.0 0.0 0.0 0.0 0.0 0.07698792 
0.0 0.0 0.0 0.0 0.0 0.07698792 
0.0 0.0 0.0 0.0 0.0 0.07698792 
0.0 0.0 0.0 0.0 0.0 0.07698792 
0.0 0.0 0.0 0.0 0.0 0.07698792 
0.0 0.0 0.0 0.0 0.0 0.07698792 
0.042711325 0.0 0.0073752925 0.0 0.0 0.049307205 
0.4420185 0.0 0.11193546 0.0 0.0 0.0 
0.73334646 0.10456668 0.32711434 0.0 0.0 0.0 
0.41019452 0.7294249 0.3802235 0.0 0.0 0.0 
0.0 0.9309618 0.6048722 0.0 0.31479916 0.0 
0.0 0.49834135 0.41068536 0.0 0.5209315 0.0 
0.0 0.10327687 0.044380292 0.0 0.220053 0.0 
0.0 0.0 0.0 0.0 0.0 0.07698792 
0.0 0.0 0.0 0.0 0.0 0.07698792 
0.0 0.0 0.0 0.0 0.0 0.07698792 
0.0 0.0 0.0 0.0 0.0 0.07698792 
0.0 0.0 0.0 0.0 0.0 0.07698792 
0.0 0.0 0.0 0.0 0.0 0.07698792 
0.0 0.0 0.0 0.0 0.0 0.07698792 
0.0 0.0 0.0 0.0 0.0 0.07698792 
0.0 0.0 0.0 0.0 0.0 0.07698792 
0.0 0.0 0.0 0.0 0.0 0.07698792 
0.0 0.0 0.0 0.0 0.0 0.07698792 
0.0 0.0 0.0 0.0 0.0 0.07698792 
0.0 0.0 0.0 0.0 0.0 0.07698792 
0.0 0.0 0.0 0.0 0.0 0.07698792 
0.0 0.0 0.0 0.0 0.0 0.07698792 
0.0 0.0 0.0 0.0 0.0 0.07698792 
0.0 0.0 0.0 0.0 0.0 0.07698792 
0.0 0.0 0.0 0.0 0.0 0.07698792 
0.0 0.0 0.0 0.0 0.0 0.07698792 
0.0 0.0 0.0 0.0 0.0 0.07698792 
0.0 0.0 0.0 0.0 0.0 0.07698792 
0.199435 0.0 0.0050244406 0.0 0.0 0.09820543 
0.9111731 0.0 0.0 0.0 0.0 0.11095195 
1.1098855 0.0 0.18913233 0.0 0.0 0.0 
0.44099182 1.0004172 0.6357855 0.003968087 0.4316647 0.0 
0.0 1.4127239 1.1635303 0.0 0.9382505 0.0 
0.0 0.99800676 1.1147922 0.0 0.86010903 0.0 
0.0 0.21253672 0.27941045 0.0 0.41729975 0.0 
0.0 0.0 0.0 0.0 0.0 0.07698792 
0.0 0.0 0.0 0.0 0.0 0.07698792 
0.0 0.0 0.0 0.0 0.0 0.07698792 
0.0 0.0 0.0 0.0 0.0 0.07698792 
0.0 0.0 0.0 0.0 0.0 0.07698792 
0.0 0.0 0.0 0.0 0.0 0.07698792 
0.0 0.0 0.0 0.0 0.0 0.07698792 
0.0 0.0 0.0 0.0 0.0 0.07698792 
0.0 0.0 0.0 0.0 0.0 0.07698792 
0.0 0.0 0.0 0.0 0.0 0.07698792 
0.0 0.0 0.0 0.0 0.0 0.07698792 
0.0 0.0 0.0 0.0 0.0 0.07698792 
0.0 0.0 0.0 0.0 0.0 0.07698792 
0.0 0.0 0.0 0.0 0.0 0.07698792 
0.0 0.0 0.0 0.0 0.0 0.07698792 
0.0 0.0 0.0 0.0 0.0 0.07698792 
0.0 0.0 0.0 0.0 0.0 0.07698792 
0.0 0.0 0.0 0.0 0.0 0.07698792 
0.0 0.0 0.0 0.0 0.0 0.07698792 
0.0 0.0 0.0 0.0 0.0 0.07698792 
0.0 0.0 0.0 0.0 0.0 0.07698792 
0.39152777 0.0 0.0 0.010219735 0.0 0.23614681 
1.3762934 0.0 0.0 0.20420736 0.0 0.49404487 
1.5230951 0.16523717 0.0 0.19804268 0.22283043 0.20144626 
0.3792502 1.5545552 0.473085 0.30274317 0.8520718 0.0 
0.0 1.7919887 1.4921939 0.1832374 1.3357602 0.0 
0.0 1.3227642 1.7719285 0.1751847 1.0309068 0.0 
0.0 0.3886284 0.6273148 0.0 0.4876841 0.0 
0.0 0.0 0.0 0.0 0.0 0.07698792 
0.0 0.0 0.0 0.0 0.0 0.07698792 
0.0 0.0 0.0 0.0 0.0 0.07698792 
0.0 0.0 0.0 0.0 0.0 0.07698792 
0.0 0.0 0.0 0.0 0.0 0.07698792 
0.0 0.0 0.0 0.0 0.0 0.07698792 
0.0 0.0 0.0 0.0 0.0 0.07698792 
0.0 0.0 0.0 0.0 0.0 0.07698792 
0.0 0.0 0.0 0.0 0.0 0.07698792 
0.0 0.0 0.0 0.0 0.0 0.07698792 
0.0 0.0 0.0 0.0 0.0 0.07698792 
0.0 0.0 0.0 0.0 0.0 0.07698792 
0.0 0.0 0.0 0.0 0.0 0.07698792 
0.0 0.0 0.0 0.0 0.0 0.07698792 
0.0 0.0 0.0 0.0 0.0 0.07698792 
0.0 0.0 0.0 0.0 0.0 0.07698792 
0.0 0.0 0.0 0.0 0.0 0.07698792 
0.0 0.0 0.0 0.0 0.0 0.07698792 
0.0 0.0 0.0 0.0 0.0 0.07698792 
0.0 0.0 0.0 0.0 0.0 0.07698792 
0.0 0.0 0.0 0.0 0.0 0.07698792 
0.6126577 0.0 0.0 0.03721751 0.0 0.4309384 
1.7902975 0.0 0.0 0.07907626 0.22210796 0.80391115 
1.8625469 0.10218437 0.0 0.12982117 0.8447482 0.52818644 
0.4068156 1.5691512 0.0 0.094572395 1.3606007 0.0 
0.0 1.8195937 1.2733984 0.0 1.7239361 0.0 
0.0 1.155577 1.8929319 0.026604261 1.2376143 0.0 
0.0 0.37431124 0.8563638 0.0 0.55732095 0.0 
0.0 0.0 0.0 0.0 0.0 0.07698792 
0.0 0.0 0.0 0.0 0.0 0.07698792 
0.0 0.0 0.0 0.0 0.0 0.07698792 
0.0 0.0 0.0 0.0 0.0 0.07698792 
0.0 0.0 0.0 0.0 0.0 0.07698792 
0.0 0.0 0.0 0.0 0.0 0.07698792 
0.0 0.0 0.0 0.0 0.0 0.07698792 
0.0 0.0 0.0 0.0 0.0 0.07698792 
0.0 0.0 0.0 0.0 0.0 0.07698792 
0.0 0.0 0.0 0.0 0.0 0.07698792 
0.0 0.0 0.0 0.0 0.0 0.07698792 
0.0 0.0 0.0 0.0 0.0 0.07698792 
0.0 0.0 0.0 0.0 0.0 0.07698792 
0.0 0.0 0.0 0.0 0.0 0.07698792 
0.0 0.0 0.0 0.0 0.0 0.07698792 
0.0 0.0 0.0 0.0 0.0 0.07698792 
0.0 0.0 0.0 0.0 0.0 0.07698792 
0.0 0.0 0.0 0.0 0.0 0.07698792 
0.0 0.0 0.0 0.0 0.0 0.07698792 
0.0 0.0 0.0 0.0 0.0 0.07698792 
0.0 0.0 0.0 0.0 0.0 0.05775553 
0.8379032 0.0 0.0 0.027037222 0.0 0.5290804 
1.9319232 0.0 0.0 0.008304094 0.3800114 0.892718 
1.8342323 0.17949022 0.0 0.041437324 1.1523281 0.5868426 
0.32257777 1.5507075 0.0 0.0957388 1.6301457 0.012559801 
0.0 1.7518289 1.2736801 0.06874556 1.8510566 0.0 
0.0 1.0208044 1.7504749 0.07881669 1.2982463 0.10160284 
0.0 0.24324909 0.89003205 0.033406798 0.5387386 0.013009429 
0.0 0.0 0.0 0.0 0.0 0.07698792 
0.0 0.0 0.0 0.0 0.0 0.07698792 
0.0 0.0 0.0 0.0 0.0 0.07698792 
0.0 0.0 0.0 0.0 0.0 0.07698792 
0.0 0.0 0.0 0.0 0.0 0.07698792 
0.0 0.0 0.0 0.0 0.0 0.07698792 
0.0 0.0 0.0 0.0 0.0 0.07698792 
0.0 0.0 0.0 0.0 0.0 0.07698792 
0.0 0.0 0.0 0.0 0.0 0.07698792 
0.0 0.0 0.0 0.0 0.0 0.07698792 
0.0 0.0 0.0 0.0 0.0 0.07698792 
0.0 0.0 0.0 0.0 0.0 0.07698792 
0.0 0.0 0.0 0.0 0.0 0.07698792 
0.0 0.0 0.0 0.0 0.0 0.07698792 
0.0 0.0 0.0 0.0 0.0 0.07698792 
0.0 0.0 0.0 0.0 0.0 0.07698792 
0.0 0.0 0.0 0.0 0.0 0.07698792 
0.0 0.0 0.0 0.0 0.0 0.07698792 
0.0 0.0 0.0 0.0 0.0 0.07698792 
0.0 0.0 0.0 0.0 0.0 0.07698792 
0.033283345 0.0 0.011519372 0.0 0.0 0.04679851 
1.0861602 0.0 0.0 0.0 0.0 0.55093503 
2.065976 0.0 0.0 0.0 0.51735425 0.87796736 
1.658977 0.40917954 0.0 0.0 1.3937665 0.49652505 
0.02741298 1.5792534 0.0 0.0 1.8580405 0.0904617 
0.0 1.5551538 1.3380269 0.117110826 1.8677766 0.0 
0.0 0.7687041 1.5513439 0.12084369 1.2114608 0.24138758 
0.0 0.21419327 0.81537116 0.15703094 0.34023336 0.08476633 
0.0 0.0 0.0 0.0 0.0 0.07698792 
0.0 0.0 0.0 0.0 0.0 0.07698792 
0.0 0.0 0.0 0.0 0.0 0.07698792 
0.0 0.0 0.0 0.0 0.0 0.07698792 
0.0 0.0 0.0 0.0 0.0 0.07698792 
0.0 0.0 0.0 0.0 0.0 0.07698792 
0.0 0.0 0.0 0.0 0.0 0.07698792 
0.0 0.0 0.0 0.0 0.0 0.07698792 
0.0 0.0 0.0 0.0 0.0 0.07698792 
0.0 0.0 0.0 0.0 0.0 0.07698792 
0.0 0.0 0.0 0.0 0.0 0.07698792 
0.0 0.0 0.0 0.0 0.0 0.07698792 
0.0 0.0 0.0 0.0 0.0 0.07698792 
0.0 0.0 0.0 0.0 0.0 0.07698792 
0.0 0.0 0.0 0.0 0.0 0.07698792 
0.0 0.0 0.0 0.0 0.0 0.07698792 
0.0 0.0 0.0 0.0 0.0 0.07698792 
0.0 0.0 0.0 0.0 0.0 0.07698792 
0.0 0.0 0.0 0.0 0.0 0.07698792 
0.0 0.0 0.0 0.0 0.0 0.069822915 
0.217206 0.0 0.03950134 0.0 0.0 0.054557838 
1.356318 0.0 0.0 0.0 0.0 0.4650478 
2.100884 0.0 0.0 0.0 0.67849845 0.6949771 
1.334908 0.84641004 0.0 0.0 1.6062967 0.24631009 
0.0 1.6740795 0.0 0.0 2.036387 0.08319551 
0.0 1.3643816 1.3054419 0.0073830904 1.7241963 0.12483668 
0.0 0.5156483 1.2593383 0.029711213 0.9980536 0.2811249 
0.0 0.08524407 0.5926902 0.1244608 0.17319919 0.1288986 
0.0 0.0 0.0 0.0 0.0 0.07698792 
0.0 0.0 0.0 0.0 0.0 0.07698792 
0.0 0.0 0.0 0.0 0.0 0.07698792 
0.0 0.0 0.0 0.0 0.0 0.07698792 
0.0 0.0 0.0 0.0 0.0 0.07698792 
0.0 0.0 0.0 0.0 0.0 0.07698792 
0.0 0.0 0.0 0.0 0.0 0.07698792 
0.0 0.0 0.0 0.0 0.0 0.07698792 
0.0 0.0 0.0 0.0 0.0 0.07698792 
0.0 0.0 0.0 0.0 0.0 0.07698792 
0.0 0.0 0.0 0.0 0.0 0.07698792 
0.0 0.0 0.0 0.0 0.0 0.07698792 
0.0 0.0 0.0 0.0 0.0 0.07698792 
0.0 0.0 0.0 0.0 0.0 0.07698792 
0.0 0.0 0.0 0.0 0.0 0.07698792 
0.0 0.0 0.0 0.0 0.0 0.07698792 
0.0 0.0 0.0 0.0 0.0 0.07698792 
0.0 0.0 0.0 0.0 0.0 0.07698792 
0.0 0.0 0.0 0.0 0.0 0.07698792 
0.0 0.0 0.0 0.0 0.0 0.05535939 
0.49992323 0.0 0.0 0.0 0.0 0.13873371 
1.6339805 0.0 0.0 0.0 0.011880789 0.48843727 
2.0443416 0.009435221 0.0 0.0 0.9423476 0.56049836 
0.8213538 1.2327352 0.0 0.0 1.8509536 0.08801967 
0.0 1.6603957 0.0834161 0.0 2.0834572 0.0 
0.0 1.052697 1.3025786 0.0 1.5432106 0.22089963 
0.0 0.29807708 0.98806167 0.0 0.7760438 0.22988217 
0.0 0.0 0.27947557 0.006546705 0.07287057 0.1145539 
0.0 0.0 0.0 0.0 0.0 0.07698792 
0.0 0.0 0.0 0.0 0.0 0.07698792 
0.0 0.0 0.0 0.0 0.0 0.07698792 
0.0 0.0 0.0 0.0 0.0 0.07698792 
0.0 0.0 0.026047252 0.0 0.0 0.037768926 
0.16991429 0.002234376 0.14917657 0.0 0.0 0.0 
0.27344573 0.14168608 0.23567045 0.0 0.0 0.0 
0.23353368 0.32149872 0.28265423 0.0 0.0 0.0 
0.06565595 0.4570465 0.22855535 0.0 0.0 0.0 
0.0 0.372245 0.16274375 0.0 0.048879538 0.0 
0.0 0.22396958 0.058907174 0.0 0.058249924 0.0 
0.0 0.06524316 0.0 0.0 0.012841653 0.008725107 
0.0 0.0 0.0 0.0 0.0 0.07698792 
0.0 0.0 0.0 0.0 0.0 0.07698792 
0.0 0.0 0.0 0.0 0.0 0.07698792 
0.0 0.0 0.0 0.0 0.0 0.07698792 
0.0 0.0 0.0 0.0 0.0 0.07698792 
0.0 0.0 0.0 0.0 0.0 0.07698792 
0.0 0.0 0.0 0.0 0.0 0.07698792 
0.07131626 0.0 0.0 0.0 0.0 0.068484604 
0.87492096 0.0 0.0 0.0 0.0 0.31624606 
1.8794858 0.0 0.0 0.0 0.25130233 0.5722631 
1.8165908 0.3956622 0.0 0.026479103 1.3138558 0.42621142 
0.2354295 1.5626968 0.0 0.0 1.9721335 0.011938408 
0.0 1.6191163 0.7075136 0.0 1.9447149 0.0 
0.0 0.81771797 1.3629395 0.0 1.3186079 0.2642219 
0.0 0.19793075 0.85114133 0.053085424 0.4814655 0.15371425 
0.0 0.0 0.0551055 0.0 0.0 0.092433676 
0.0 0.0 0.0 0.0 0.0 0.07698792 
0.0 0.0 0.0 0.0 0.0 0.07698792 
0.0 0.0 0.0 0.0 0.0 0.060772374 
0.08106756 0.0 0.09415286 0.0 0.0 0.0 
0.3298445 0.0 0.18419883 0.0 0.0 0.0 
0.6083946 0.06230016 0.29960918 0.0 0.0 0.0 
0.8139563 0.3295824 0.48038042 0.0 0.0 0.0 
0.71004707 0.82484776 0.70886254 0.0 0.0 0.0 
0.11540289 1.1783732 0.77921605 0.0 0.33096802 0.0 
0.0 0.9623446 0.66153955 0.0 0.57489735 0.0 
0.0 0.53079414 0.4165167 0.0 0.47707817 0.0 
0.0 0.11017572 0.059703745 0.0 0.24303116 0.0 
0.0 0.0 0.0 0.0 0.0 0.07125593 
0.0 0.0 0.0 0.0 0.0 0.07698792 
0.0 0.0 0.0 0.0 0.0 0.07698792 
0.0 0.0 0.0 0.0 0.0 0.07698792 
0.0 0.0 0.0 0.0 0.0 0.07698792 
0.0 0.0 0.0 0.0 0.0 0.07698792 
0.0 0.0 0.0 0.0 0.0 0.0751024 
0.22850525 0.0 0.0 0.0 0.0 0.12538317 
1.257185 0.0 0.0 0.041705903 0.0 0.4790683 
2.038576 0.0 0.0 0.0 0.5546047 0.6586319 
1.4577615 0.86428785 0.0 0.028541412 1.5706618 0.2892403 
0.0 1.7198875 0.0 0.0 2.0598972 0.0021522641 
0.0 1.5126778 1.1598927 0.0 1.771774 0.03336191 
0.0 0.5751619 1.252562 0.0 1.1233803 0.27117118 
0.0 0.06840941 0.6267131 0.082939275 0.2657251 0.13696818 
0.0 0.0 0.0 0.0 0.0 0.079499215 
0.0 0.0 0.0 0.0 0.0 0.07698792 
0.0 0.0 0.0 0.0 0.0 0.07434818 
0.09874649 0.0 0.09647838 0.0 0.0 0.0 
0.4691128 0.0 0.17644227 0.0 0.0 0.0 
0.84128636 0.0 0.22067434 0.0 0.0 0.0 
1.1666336 0.13645619 0.34470367 0.0 0.0 0.0 
1.0699811 0.5513694 0.6197571 0.0 0.14846009 0.0 
0.58795846 1.0135306 0.9843788 0.0 0.7047733 0.0 
0.0 1.530172 1.3704902 0.0 1.2168409 0.0 
0.0 1.4867288 1.3982607 0.0 1.1973202 0.0 
0.0 0.9418904 1.0497488 0.0 0.8586244 0.0 
0.0 0.22261673 0.31186974 0.0 0.40400314 0.0 
0.0 0.0 0.0 0.0 0.0 0.07303057 
0.0 0.0 0.0 0.0 0.0 0.07698792 
0.0 0.0 0.0 0.0 0.0 0.07698792 
0.0 0.0 0.0 0.0 0.0 0.07698792 
0.0 0.0 0.0 0.0 0.0 0.07698792 
0.0 0.0 0.0 0.0 0.0 0.07698792 
0.0 0.0 0.0 0.0 0.0 0.0525997 
0.50780064 0.0 0.0 0.0 0.0 0.17420807 
1.6222475 0.0 0.0 0.0 0.040859316 0.5411 
2.073355 0.0 0.0 0.0 0.8966354 0.6144488 
0.98874253 1.1757225 0.0 0.0 1.8252069 0.1763769 
0.0 1.7481366 0.1285573 0.0 2.123834 0.0 
0.0 1.2104172 1.4018624 0.029594045 1.6302012 0.18132219 
0.0 0.35965082 1.0993736 0.0022478225 0.8913828 0.23246105 
0.0 0.0 0.36567345 0.05360457 0.090253875 0.11865995 
0.0 0.0 0.0 0.0 0.0 0.07698792 
0.0 0.0 0.0 0.0 0.0 0.07698792 
0.0 0.0 0.012511149 0.0 0.0 0.044428255 
0.37399083 0.0 0.058761753 0.0 0.0 0.0 
0.9846819 0.0 0.13582829 0.0 0.0 0.0 
1.3058352 0.032861114 0.0 0.0 0.0 0.0 
1.1411011 0.5771138 0.2583108 0.2376383 0.57557714 0.0 
0.8656152 0.98340636 0.44681847 0.4946128 1.2758598 0.0 
0.46217948 1.388757 0.7262698 0.7698379 1.6084627 0.15027401 
0.0 1.9123162 1.3993162 0.82672024 1.628836 0.0 
0.0 1.8660926 1.8400718 0.62515473 1.4018965 0.0 
0.0 1.1063159 1.5692598 0.30708283 0.9940705 0.0 
0.0 0.33788276 0.61892074 0.11530986 0.3658975 0.0069830865 
0.0 0.0025946246 0.0 0.006106034 0.0 0.07643691 
0.0 0.0 0.0 0.0 0.0 0.07698792 
0.0 0.0 0.0 0.0 0.0 0.07698792 
0.0 0.0 0.0 0.0 0.0 0.07698792 
0.0 0.0 0.0 0.0 0.0 0.07698792 
0.0 0.0 0.0 0.0 0.0 0.07698792 
0.07973939 0.0 0.03814978 0.0 0.0 0.03858723 
0.89682907 0.0 0.0 0.0 0.0 0.2575378 
1.8903875 0.0 0.0 0.0 0.25371465 0.54599214 
1.9101965 0.32775936 0.0 0.0 1.285158 0.45367435 
0.35888004 1.5054923 0.0 0.0 2.0510097 0.091810465 
0.0 1.6398867 0.5817445 0.0 2.0720756 0.021441251 
0.0 0.90313596 1.4023148 0.033853713 1.4131833 0.32458562 
0.0 0.2528468 0.9515188 0.09270279 0.5532381 0.19013989 
0.0 0.0 0.12195475 0.0 0.007162016 0.101936966 
0.0 0.0 0.0 0.0 0.0 0.07698792 
0.0 0.0 0.0 0.0 0.0 0.07698792 
0.11117113 0.0 0.045009166 0.0 0.0 0.037784964 
0.8310992 0.0 0.0 0.0 0.0 0.121966876 
1.4966266 0.0 0.0 0.024563309 0.0 0.09648832 
1.5321198 0.54110616 0.0 0.20219317 0.7325836 0.0 
1.0147808 1.1516986 0.0 0.18620904 1.6580389 0.13861415 
0.8127447 1.196297 0.032958753 0.2704794 2.1154957 0.53246474 
0.54465115 1.2552395 0.0 0.29032597 2.2945468 0.6929055 
0.0 1.7661322 0.48928732 0.43680093 1.9116176 0.27858582 
0.0 1.4523745 1.3716158 0.3249422 1.6340104 0.15887639 
0.0 0.693264 1.4434031 0.26636666 1.0156175 0.2803128 
0.0 0.20809993 0.6849894 0.19143313 0.2443804 0.111082405 
0.0 0.0 0.0 0.0048178667 0.0 0.07980278 
0.0 0.0 0.0 0.0 0.0 0.07698792 
0.0 0.0 0.0 0.0 0.0 0.07698792 
0.0 0.0 0.0 0.0 0.0 0.07698792 
0.0 0.0 0.0 0.0 0.0 0.07698792 
0.0 0.0 0.0 0.0 0.0 0.07698792 
0.21243516 0.0 0.0 0.0 0.0 0.133827 
1.2396474 0.0 0.0 0.051344376 0.0 0.47423556 
2.0649154 0.0 0.0 0.01886737 0.5412207 0.6393793 
1.5303185 0.8235608 0.0 0.07262614 1.6109418 0.35359812 
0.0 1.6918452 0.0 0.0 2.2001493 0.045936465 
0.0 1.5372474 1.008516 0.0 1.8464288 0.029116303 
0.0 0.60043013 1.2499664 0.0 1.1784934 0.2944551 
0.0 0.11600398 0.7182397 0.08868568 0.30903268 0.1575248 
0.0 0.0 0.0 0.0 0.0 0.0817822 
0.0 0.0 0.0 0.0 0.0 0.07698792 
0.0 0.0 0.0 0.0 0.0 0.06265791 
0.34479803 0.0 0.0 0.0 0.0 0.093084715 
1.3135779 0.0 0.0 0.048858624 0.0 0.3224464 
1.9553754 0.0 0.0 0.02708995 0.39972267 0.3928828 
1.5296926 1.056324 0.0 0.0 1.3236192 0.0035150275 
0.9078391 1.3635144 0.0 0.0 2.0690966 0.19474375 
0.6145333 1.2758466 0.014744706 0.0 2.4124627 0.7073336 
0.16496173 1.1871483 0.0 0.0 2.613406 0.60891217 
0.0 1.2929002 0.014721446 0.0 2.0940833 0.4361958 
0.0 0.8074752 0.91290796 0.118443444 1.522458 0.46354514 
0.0 0.3082304 1.0380491 0.19438852 0.71705085 0.37865007 
0.0 0.03945326 0.46248078 0.09141403 0.11526735 0.1360503 
0.0 0.0 0.0 0.0 0.0 0.07782502 
0.0 0.0 0.0 0.0 0.0 0.07698792 
0.0 0.0 0.0 0.0 0.0 0.07698792 
0.0 0.0 0.0 0.0 0.0 0.07698792 
0.0 0.0 0.0 0.0 0.0 0.07698792 
0.0 0.0 0.0 0.0 0.0 0.0686916 
0.4579684 0.0 0.0 0.005330314 0.0 0.2512806 
1.56407 0.0 0.0 0.047844823 0.01666892 0.59472495 
2.0969748 0.0 0.0 0.015953507 0.8154562 0.6341467 
1.2180681 1.1840625 0.0 0.0 1.7633374 0.14388683 
0.0 1.8938384 0.13660797 0.0 2.11219 0.0 
0.0 1.3757188 1.3763958 0.0 1.6558088 0.0 
0.0 0.46652287 1.1320287 0.0 1.0054914 0.1661643 
0.0 0.0 0.4305344 0.0084945215 0.15375286 0.1084543 
0.0 0.0 0.0 0.0 0.0 0.07698792 
0.0 0.0 0.0 0.0 0.0 0.07698792 
0.0 0.0 0.0 0.0 0.0 0.068801686 
0.63429797 0.0 0.0 0.021658104 0.0 0.2963842 
1.7487383 0.0 0.0 0.046742763 0.08690831 0.6017282 
2.1216204 0.012992068 0.0 0.03390142 0.94286126 0.5547967 
1.356487 1.0062245 0.0 0.0 1.5802808 0.058392517 
0.61654204 1.3099952 0.07628415 0.0 2.2921534 0.1302598 
0.18498755 1.2567552 0.48718584 0.0 2.7746348 0.527115 
0.0 1.3685739 0.106889494 0.0 2.6690829 0.36468434 
0.0 0.87236804 0.06195301 0.0 1.8795913 0.47169775 
0.0 0.41488802 0.7036203 0.08565035 0.98851055 0.52334243 
0.0 0.119386256 0.674697 0.09918512 0.32219556 0.30385643 
0.0 0.0 0.17677194 0.0 0.031161565 0.109455794 
0.0 0.0 0.0 0.0 0.0 0.07698792 
0.0 0.0 0.0 0.0 0.0 0.07698792 
0.0 0.0 0.0 0.0 0.0 0.07698792 
0.0 0.0 0.0 0.0 0.0 0.07698792 
0.0 0.0 0.0 0.0 0.0 0.07698792 
0.0 0.0 0.0 0.0 0.0 0.07345923 
0.69367236 0.0 0.0 0.02959859 0.0 0.41601026 
1.8608339 0.0 0.0 0.0 0.25855848 0.7980083 
2.1352108 0.0 0.0 0.0 1.0049682 0.675895 
0.89086777 1.4456923 0.0 0.0 1.7546035 0.00910756 
0.0 1.883582 0.68609035 0.0 2.1091797 0.0 
0.0 1.3012105 1.6810737 0.0 1.55266 0.0 
0.0 0.4365124 1.1218294 0.0 0.886687 0.018107422 
0.0 0.0 0.17066872 0.0 0.072311416 0.080230184 
0.0 0.0 0.0 0.0 0.0 0.07698792 
0.0 0.0 0.0 0.0 0.0 0.0758566 
0.07845339 0.0 0.0 0.0 0.0 0.08074575 
0.9844386 0.0 0.0 0.031307217 0.0 0.4469684 
1.9605095 0.0 0.0 0.0053656073 0.40106228 0.7170641 
2.0573082 0.20223251 0.0 0.018649805 1.199388 0.53095794 
1.1656597 1.2053701 0.0 0.15002017 1.738878 0.35806486 
0.11073393 1.5304223 0.49757564 0.3161641 2.6015162 0.4497924 
0.0 1.6127306 0.7500531 0.39298365 2.8677604 0.6563029 
0.0 1.3386593 0.6314818 0.32294554 2.2155168 0.5495876 
0.0 0.6241862 0.37577483 0.10320325 1.1854643 0.5336727 
0.0 0.17061666 0.5565094 0.039175596 0.4741173 0.40622777 
0.0 0.0 0.3019905 0.0 0.13852379 0.1795507 
0.0 0.0 0.0 0.0 0.0 0.082999796 
0.0 0.0 0.0 0.0 0.0 0.07698792 
0.0 0.0 0.0 0.0 0.0 0.07698792 
0.0 0.0 0.0 0.0 0.0 0.07698792 
0.0 0.0 0.0 0.0 0.0 0.07698792 
0.0 0.0 0.0 0.0 0.0 0.07698792 
0.0 0.0 0.0 0.0035061007 0.0 0.10269936 
0.84092516 0.0 0.0 0.051416483 0.0 0.6099313 
1.9290051 0.0 0.0 0.13354185 0.4586672 0.9591753 
2.0837166 0.0 0.0 0.114578694 1.1920203 0.7631896 
0.6944996 1.5380077 0.0 0.06553629 1.7904669 0.111568704 
0.0 1.8632178 1.0847087 0.0 2.064226 0.0 
0.0 1.3203422 1.8640282 0.0 1.4972997 0.0 
0.0 0.44864306 1.174739 0.0 0.82927126 0.0 
0.0 0.0 0.09609113 0.0 0.006538529 0.051556535 
0.031375095 0.0 0.036798492 0.0 0.0 0.0 
0.14124529 0.03157698 0.13317221 0.0 0.0 0.0 
0.4354154 0.0 0.16719061 0.0 0.0 0.0 
1.4003062 0.0 0.0 0.0 0.0 0.10607492 
2.0691035 0.0 0.0 0.0 0.70809966 0.3917651 
1.744492 0.5866299 0.0 0.0 1.6055465 0.43303782 
0.82020426 1.2418271 0.0 0.24089892 2.4816663 0.8299338 
0.0 1.5337406 0.18487608 0.41219744 3.0261319 0.8991749 
0.0 1.2888019 0.45951796 0.39967927 2.57238 0.8712703 
0.0 0.6601609 0.64497584 0.24939996 1.5038348 0.65530896 
0.0 0.27805477 0.5654201 0.09558629 0.5952856 0.45808095 
0.0 0.0 0.351123 0.0 0.21667306 0.23673263 
0.0 0.0 0.055176586 0.0 0.015105214 0.09180562 
0.0 0.0 0.0 0.0 0.0 0.07698792 
0.0 0.0 0.0 0.0 0.0 0.07698792 
0.0 0.0 0.0 0.0 0.0 0.07698792 
0.0 0.0 0.0 0.0 0.0 0.07698792 
0.0 0.0 0.0 0.0 0.0 0.07698792 
0.0 0.0 0.0 0.0 0.0 0.07698792 
0.0 0.0 0.0 0.024812568 0.0 0.1299477 
0.84354573 0.0 0.0 0.15298283 0.11724542 0.76810956 
1.8369858 0.0 0.0 0.209514 0.60188925 1.1897914 
2.014361 0.0 0.0 0.24982563 1.213241 0.9694115 
0.81583774 1.4119138 0.0 0.16138002 1.610853 0.23701899 
0.0 1.9887681 1.4261701 0.0 1.7704592 0.0 
0.0 1.5050774 2.120517 0.0 1.347226 0.0 
0.0 0.6918957 1.5420403 0.0 0.64727175 0.0 
0.21043372 0.3167725 0.4400649 0.0 0.0 0.0 
0.43290865 0.2692138 0.37085122 0.0 0.0 0.0 
0.61030185 0.34457585 0.45009732 0.0 0.0 0.0 
0.9612978 0.31244263 0.4175709 0.0 0.0 0.0 
1.6240032 0.18099324 0.0 0.0 0.43482015 0.0 
1.666851 0.52213144 0.0 0.0 1.4898912 0.19762279 
0.93393344 0.9125814 0.0 0.0 2.4199443 0.5918232 
0.08732852 1.2656829 0.0 0.24369128 2.9562683 1.053905 
0.0 1.1440256 0.0063884035 0.3216365 2.6968668 1.0897532 
0.0 0.70093197 0.3386408 0.20490874 1.6132046 0.8675787 
0.0 0.25042525 0.58247674 0.06372009 0.7021247 0.5620768 
0.0 0.0013912981 0.46240163 0.0 0.25807127 0.29845193 
0.0 0.0 0.12116905 0.0 0.03968827 0.110492475 
0.0 0.0 0.0 0.0 0.0 0.07797722 
0.0 0.0 0.0 0.0 0.0 0.07698792 
0.0 0.0 0.0 0.0 0.0 0.07698792 
0.0 0.0 0.0 0.0 0.0 0.07698792 
0.0 0.0 0.0 0.0 0.0 0.07698792 
0.0 0.0 0.0 0.0 0.0 0.07698792 
0.0 0.0 0.0 0.0 0.0 0.07698792 
0.0 0.0 0.0 0.001426904 0.0 0.12788671 
0.7418291 0.0 0.0 0.083249785 0.36354437 0.8064492 
1.5903566 0.0 0.0 0.17558917 0.78147554 1.4101186 
1.890707 0.0 0.0 0.2565575 1.2096046 1.3207552 
1.0409038 0.8923436 0.0 0.22170414 1.3671714 0.6264653 
0.0 1.5985862 1.4266163 0.02945901 1.3741006 0.0 
0.0 1.607387 2.3462949 0.0 1.1114818 0.0 
0.0 1.1730217 1.9688348 0.0 0.51675576 0.0 
0.4100868 0.6592178 0.8851464 0.0 0.0 0.0 
0.8061879 0.56603485 0.6908366 0.0 0.0 0.0 
0.87683666 0.7088053 0.6775674 0.0 0.11603375 0.0 
0.81906563 0.66442835 0.5806258 0.0 0.6788359 0.0 
0.9735721 0.65027624 0.13830489 0.03876846 1.6604096 0.016490739 
0.70785993 0.9514687 0.0 0.42045918 2.4728954 0.6449925 
0.08047554 1.1623172 0.0 0.53233826 2.7211897 1.0192499 
0.0 0.9887861 0.0 0.27360877 2.5537517 1.208359 
0.0 0.58386236 0.062352695 0.10527822 1.6255064 0.9389799 
0.0 0.15016185 0.2891331 0.0 0.7375944 0.5953208 
0.0 0.0 0.32829434 0.0 0.32123667 0.34630883 
0.0 0.0 0.13641667 0.0 0.09739083 0.13835259 
0.0 0.0 0.0 0.0 0.0 0.080792904 
0.0 0.0 0.0 0.0 0.0 0.07698792 
0.0 0.0 0.0 0.0 0.0 0.07698792 
0.0 0.0 0.0 0.0 0.0 0.07698792 
0.0 0.0 0.0 0.0 0.0 0.07698792 
0.0 0.0 0.0 0.0 0.0 0.07698792 
0.0 0.0 0.0 0.0 0.0 0.07698792 
0.0 0.0 0.0 0.0 0.0 0.07698792 
0.0 0.0 0.0 0.0 0.0 0.10228135 
0.52368104 0.0 0.0 0.0 0.4282013 0.6237796 
1.2072086 0.0 0.0 0.102961406 0.86830497 1.3221986 
1.4634657 0.0 0.0 0.26061806 1.2385917 1.5813258 
1.0869012 0.0011305949 0.0 0.49660262 1.3266655 1.2944415 
0.27049315 0.6765262 0.6313989 0.7197743 1.1681858 0.53089285 
0.05316265 1.1125578 2.009444 0.55614763 1.0714308 0.0 
0.069407254 1.0473603 2.0986018 0.14306524 0.9027597 0.0 
0.47803116 0.9909804 1.1941476 0.0 0.8312201 0.0 
0.44498825 0.84509426 0.78668845 0.1569455 1.1284953 0.0 
0.39852476 0.9098159 0.6133572 0.7261459 1.515678 0.026769012 
0.33869094 0.95706 0.41583538 1.1689632 2.0160053 0.70073414 
0.24923924 1.0219804 0.08753014 1.2998152 2.4154372 1.1674149 
0.0 1.0522708 0.0 1.0069156 2.4862282 1.2589352 
0.0 0.8365112 0.0 0.5020761 2.1178577 1.2092359 
0.0 0.54234207 0.0 0.14781167 1.3591158 0.9306564 
0.0 0.096169904 0.18790588 0.0 0.6663076 0.56406873 
0.0 0.0 0.22410983 0.0 0.31082198 0.33176026 
0.0 0.0 0.128544 0.0 0.09879376 0.1393435 
0.0 0.0 0.0 0.0 0.0 0.081021205 
0.0 0.0 0.0 0.0 0.0 0.07698792 
0.0 0.0 0.0 0.0 0.0 0.07698792 
0.0 0.0 0.0 0.0 0.0 0.07698792 
0.0 0.0 0.0 0.0 0.0 0.07698792 
0.0 0.0 0.0 0.0 0.0 0.07698792 
0.0 0.0 0.0 0.0 0.0 0.07698792 
0.0 0.0 0.0 0.0 0.0 0.07698792 
0.0 0.0 0.0 0.0 0.0 0.07698792 
0.0 0.0 0.0 0.0 0.0 0.082557805 
0.2498852 0.0 0.0 0.0 0.27082074 0.3613092 
0.82221437 0.0 0.0 0.0 0.76258045 1.0015105 
1.124577 0.0 0.0 0.005196223 1.181763 1.4989808 
0.89856035 0.0 0.0 0.388562 1.2436324 1.5914052 
0.45782584 0.0 0.0 0.8945021 1.2750462 1.5001504 
0.29725313 0.36842343 0.5359026 1.4884012 1.3329321 1.3176761 
0.30184406 0.6970218 1.104952 1.8075505 1.4046702 1.0294008 
0.3011982 1.1129653 0.9170581 1.8483896 1.759287 1.0201684 
0.05342172 1.159691 0.45081323 1.6470691 2.1578424 1.1429381 
0.0 1.0579312 0.13362509 1.4618343 2.27085 1.3393662 
0.0 0.8359012 0.0 1.1768188 2.2977655 1.5149016 
0.01886946 0.80521685 0.0 0.81526417 1.9967834 1.5506697 
0.0 0.5797928 0.0 0.27495804 1.6190876 1.259351 
0.0 0.29506648 0.0 0.0 0.99411255 0.8888849 
0.0 0.003308 0.08872751 0.0 0.52967 0.52673554 
0.0 0.0 0.1785894 0.0 0.25463197 0.29287353 
0.0 0.0 0.09088891 0.0 0.07223201 0.13224454 
0.0 0.0 0.0 0.0 0.0 0.080792904 
0.0 0.0 0.0 0.0 0.0 0.07698792 
0.0 0.0 0.0 0.0 0.0 0.07698792 
0.0 0.0 0.0 0.0 0.0 0.07698792 
0.0 0.0 0.0 0.0 0.0 0.07698792 
0.0 0.0 0.0 0.0 0.0 0.07698792 
0.0 0.0 0.0 0.0 0.0 0.07698792 
0.0 0.0 0.0 0.0 0.0 0.07698792 
0.0 0.0 0.0 0.0 0.0 0.07698792 
0.0 0.0 0.0 0.0 0.0 0.07698792 
0.0 0.0 0.0 0.0 0.0 0.07698792 
0.055826455 0.0 0.0 0.0 0.12795953 0.16726333 
0.4188507 0.0 0.0 0.0 0.4910222 0.50683296 
0.75889176 0.0 0.0 0.0 0.89259493 0.9955182 
0.7984995 0.0 0.0 0.0 1.1836795 1.3937848 
0.71546316 0.0 0.0 0.02664939 1.3926091 1.7135565 
0.47942746 0.0 0.0 0.56908774 1.5724802 1.8151903 
0.33099896 0.14162955 0.0 1.0214348 1.860752 1.7915266 
0.17211486 0.59108233 0.0 1.1473032 2.0425427 1.6918945 
0.06758867 0.73184586 0.0 0.92102236 2.0300167 1.6396244 
0.036049187 0.62708116 0.0 0.3692828 1.8131845 1.6224682 
0.0 0.2828102 0.0 0.0 1.523959 1.3487792 
0.0 0.0 0.0 0.0 1.1494061 1.0544338 
0.0 0.0 0.0 0.0 0.7251319 0.66788214 
0.0 0.0 0.0 0.0 0.404806 0.40698546 
0.0 0.0 0.023397528 0.0 0.20961507 0.23305927 
0.0 0.0 0.028114885 0.0 0.05221029 0.11904426 
0.0 0.0 0.0 0.0 0.0 0.08033631 
0.0 0.0 0.0 0.0 0.0 0.07698792 
0.0 0.0 0.0 0.0 0.0 0.07698792 
0.0 0.0 0.0 0.0 0.0 0.07698792 
0.0 0.0 0.0 0.0 0.0 0.07698792 
0.0 0.0 0.0 0.0 0.0 0.07698792 
0.0 0.0 0.0 0.0 0.0 0.07698792 
0.0 0.0 0.0 0.0 0.0 0.07698792 
0.0 0.0 0.0 0.0 0.0 0.07698792 
0.0 0.0 0.0 0.0 0.0 0.07698792 
0.0 0.0 0.0 0.0 0.0 0.07698792 
0.0 0.0 0.0 0.0 0.0 0.07698792 
0.0 0.0 0.0 0.0 0.0 0.082557805 
0.08343716 0.0 0.0 0.0 0.17192917 0.18558635 
0.33925766 0.0 0.0 0.0 0.48799065 0.4084551 
0.5003994 0.0 0.0 0.0 0.7558801 0.661731 
0.6095868 0.0 0.0 0.0 1.0461054 1.0478716 
0.5682675 0.0 0.0 0.0 1.3431903 1.3905799 
0.38841292 0.0 0.0 0.0 1.4525055 1.5123065 
0.13860652 0.0 0.0 0.0 1.3958184 1.3706613 
0.0 0.0 0.0 0.0 1.2062991 1.081075 
0.0 0.0 0.0 0.0 0.96245354 0.8203863 
0.0 0.0 0.0 0.0 0.69477147 0.52204627 
0.0 0.0 0.0 0.0 0.42332193 0.34699443 
0.0 0.0 0.0 0.0 0.22584729 0.2124124 
0.0 0.0 0.0 0.0 0.08001666 0.14154974 
0.0 0.0 0.0 0.0 0.0 0.09122918 
0.0 0.0 0.0 0.0 0.0 0.07797722 
0.0 0.0 0.0 0.0 0.0 0.07698792 
0.0 0.0 0.0 0.0 0.0 0.07698792 
0.0 0.0 0.0 0.0 0.0 0.07698792 
0.0 0.0 0.0 0.0 0.0 0.07698792 
0.0 0.0 0.0 0.0 0.0 0.07698792 
0.0 0.0 0.0 0.0 0.0 0.07698792 
0.0 0.0 0.0 0.0 0.0 0.07698792 
0.0 0.0 0.0 0.0 0.0 0.07698792 
0.0 0.0 0.0 0.0 0.0 0.07698792 
0.0 0.0 0.0 0.0 0.0 0.07698792 
0.0 0.0 0.0 0.0 0.0 0.07698792 
0.0 0.0 0.0 0.0 0.0 0.07698792 
0.0 0.0 0.0 0.0 0.0 0.07698792 
0.0 0.0 0.0 0.0 0.0 0.081320055 
0.0 0.0 0.0 0.0 0.041061882 0.12123691 
0.100317106 0.0 0.0 0.0 0.20547734 0.19982716 
0.25100803 0.0 0.0 0.0 0.4777018 0.32293653 
0.31409535 0.0 0.0 0.0 0.67098653 0.43075895 
0.22977549 0.0 0.0 0.0 0.7599556 0.46931285 
0.0 0.0 0.0 0.0 0.583222 0.4147184 
0.0 0.0 0.0 0.0 0.41224927 0.3045635 
0.0 0.0 0.0 0.0 0.24648012 0.24269032 
0.0 0.0 0.0 0.0 0.084925905 0.12123023 
0.0 0.0 0.0 0.0 0.0 0.093156576 
0.0 0.0 0.0 0.0 0.0 0.07866211 
0.0 0.0 0.0 0.0 0.0 0.07698792 
0.0 0.0 0.0 0.0 0.0 0.07698792 
0.0 0.0 0.0 0.0 0.0 0.07698792 
0.0 0.0 0.0 0.0 0.0 0.07698792 
0.0 0.0 0.0 0.0 0.0 0.07698792 
0.0 0.0 0.0 0.0 0.0 0.07698792 
0.0 0.0 0.0 0.0 0.0 0.07698792 
0.0 0.0 0.0 0.0 0.0 0.07698792 
0.0 0.0 0.0 0.0 0.0 0.07698792 
0.0 0.0 0.0 0.0 0.0 0.07698792 
0.0 0.0 0.0 0.0 0.0 0.07698792 
0.0 0.0 0.0 0.0 0.0 0.07698792 
0.0 0.0 0.0 0.0 0.0 0.07698792 
0.0 0.0 0.0 0.0 0.0 0.07698792 
0.0 0.0 0.0 0.0 0.0 0.07698792 
0.0 0.0 0.0 0.0 0.0 0.07698792 
0.0 0.0 0.0 0.0 0.0 0.07698792 
0.0 0.0 0.0 0.0 0.0 0.07698792 
0.0 0.0 0.0 0.0 0.0 0.07698792 
0.0 0.0 0.0 0.0 0.0 0.07698792 
0.0 0.0 0.0 0.0 0.0 0.07698792 
0.0 0.0 0.0 0.0 0.0 0.07698792 
0.0 0.0 0.0 0.0 0.0 0.07698792 
0.0 0.0 0.0 0.0 0.0 0.07698792 
0.0 0.0 0.0 0.0 0.0 0.07698792 
0.0 0.0 0.0 0.0 0.0 0.07698792 
0.0 0.0 0.0 0.0 0.0 0.07698792 
0.0 0.0 0.0 0.0 0.0 0.07698792 
0.0 0.0 0.0 0.0 0.0 0.07698792 
0.0 0.0 0.0 0.0 0.0 0.07698792 
0.0 0.0 0.0 0.0 0.0 0.07698792 
0.0 0.0 0.0 0.0 0.0 0.07698792 
0.0 0.0 0.0 0.0 0.0 0.07698792 
0.0 0.0 0.0 0.0 0.0 0.07698792 
0.0 0.0 0.0 0.0 0.0 0.07698792 
0.0 0.0 0.0 0.0 0.0 0.07698792 
0.0 0.0 0.0 0.0 0.0 0.07698792 
0.0 0.0 0.0 0.0 0.0 0.07698792 
0.0 0.0 0.0 0.0 0.0 0.07698792 
0.0 0.0 0.0 0.0 0.0 0.07698792 
0.0 0.0 0.0 0.0 0.0 0.07698792 
0.0 0.0 0.0 0.0 0.0 0.07698792 
0.0 0.0 0.0 0.0 0.0 0.07698792 
0.0 0.0 0.0 0.0 0.0 0.07698792 
0.0 0.0 0.0 0.0 0.0 0.07698792 
0.0 0.0 0.0 0.0 0.0 0.07698792 
0.0 0.0 0.0 0.0 0.0 0.07698792 
0.0 0.0 0.0 0.0 0.0 0.07698792 
0.0 0.0 0.0 0.0 0.0 0.07698792 
0.0 0.0 0.0 0.0 0.0 0.07698792 
0.0 0.0 0.0 0.0 0.0 0.07698792 
0.0 0.0 0.0 0.0 0.0 0.07698792 
0.0 0.0 0.0 0.0 0.0 0.07698792 
0.0 0.0 0.0 0.0 0.0 0.07698792 
0.0 0.0 0.0 0.0 0.0 0.07698792 
0.0 0.0 0.0 0.0 0.0 0.07698792 
0.0 0.0 0.0 0.0 0.0 0.07698792 
0.0 0.0 0.0 0.0 0.0 0.07698792 
0.0 0.0 0.0 0.0 0.0 0.07698792 
0.0 0.0 0.0 0.0 0.0 0.07698792 
0.0 0.0 0.0 0.0 0.0 0.07698792 
0.0 0.0 0.0 0.0 0.0 0.07698792 
0.0 0.0 0.0 0.0 0.0 0.07698792 
0.0 0.0 0.0 0.0 0.0 0.07698792 
0.0 0.0 0.0 0.0 0.0 0.07698792 
0.0 0.0 0.0 0.0 0.0 0.07698792 
0.0 0.0 0.0 0.0 0.0 0.07698792 
0.0 0.0 0.0 0.0 0.0 0.07698792 
0.0 0.0 0.0 0.0 0.0 0.07698792 
0.0 0.0 0.0 0.0 0.0 0.07698792 
0.0 0.0 0.0 0.0 0.0 0.07698792 
0.0 0.0 0.0 0.0 0.0 0.07698792 
0.0 0.0 0.0 0.0 0.0 0.07698792 
0.0 0.0 0.0 0.0 0.0 0.07698792 
0.0 0.0 0.0 0.0 0.0 0.07698792 
0.0 0.0 0.0 0.0 0.0 0.07698792 
0.0 0.0 0.0 0.0 0.0 0.07698792 
0.0 0.0 0.0 0.0 0.0 0.07698792 
0.0 0.0 0.0 0.0 0.0 0.07698792 
0.0 0.0 0.0 0.0 0.0 0.07698792 
0.0 0.0 0.0 0.0 0.0 0.07698792 
0.0 0.0 0.0 0.0 0.0 0.07698792 
0.0 0.0 0.0 0.0 0.0 0.07698792 
0.0 0.0 0.0 0.0 0.0 0.07698792 
0.0 0.0 0.0 0.0 0.0 0.07698792 
0.0 0.0 0.0 0.0 0.0 0.07698792 
0.0 0.0 0.0 0.0 0.0 0.07698792 
0.0 0.0 0.0 0.0 0.0 0.07698792 
0.0 0.0 0.0 0.0 0.0 0.07698792 
0.0 0.0 0.0 0.0 0.0 0.07698792 
0.0 0.0 0.0 0.0 0.0 0.07698792 
0.0 0.0 0.0 0.0 0.0 0.07698792 
0.0 0.0 0.0 0.0 0.0 0.07698792 
0.0 0.0 0.0 0.0 0.0 0.07698792 
0.0 0.0 0.0 0.0 0.0 0.07698792 
0.0 0.0 0.0 0.0 0.0 0.07698792 
0.0 0.0 0.0 0.0 0.0 0.07698792 
0.0 0.0 0.0 0.0 0.0 0.07698792 
0.0 0.0 0.0 0.0 0.0 0.07698792 
0.0 0.0 0.0 0.0 0.0 0.07698792 
0.0 0.0 0.0 0.0 0.0 0.07698792 
0.0 0.0 0.0 0.0 0.0 0.07698792 
0.0 0.0 0.0 0.0 0.0 0.07698792 
0.0 0.0 0.0 0.0 0.0 0.07698792 
0.0 0.0 0.0 0.0 0.0 0.07698792 
0.0 0.0 0.0 0.0 0.0 0.07698792 
0.0 0.0 0.0 0.0 0.0 0.07698792 
0.0 0.0 0.0 0.0 0.0 0.07698792 
0.0 0.0 0.0 0.0 0.0 0.07698792 
0.0 0.0 0.0 0.0 0.0 0.07698792 
0.0 0.0 0.0 0.0 0.0 0.07698792 
0.0 0.0 0.0 0.0 0.0 0.07698792 
0.0 0.0 0.0 0.0 0.0 0.07698792 
0.0 0.0 0.0 0.0 0.0 0.07698792 
0.0 0.0 0.0 0.0 0.0 0.07698792 
0.0 0.0 0.0 0.0 0.0 0.07698792 
0.0 0.0 0.0 0.0 0.0 0.07698792 
0.0 0.0 0.0 0.0 0.0 0.07698792 
0.0 0.0 0.0 0.0 0.0 0.07698792 
0.0 0.0 0.0 0.0 0.0 0.07698792 
0.0 0.0 0.0 0.0 0.0 0.07698792 
0.0 0.0 0.0 0.0 0.0 0.07698792 

