0.0 0.0 0.0 0.0 0.0 0.07698792 
0.0 0.0 0.0 0.0 0.0 0.07698792 
0.0 0.0 0.0 0.0 0.0 0.07698792 
0.0 0.0 0.0 0.0 0.0 0.07698792 
0.0 0.0 0.0 0.0 0.0 0.07698792 
0.0 0.0 0.0 0.0 0.0 0.07698792 
0.0 0.0 0.0 0.0 0.0 0.07698792 
0.0 0.0 0.0 0.0 0.0 0.07698792 
0.0 0.0 0.0 0.0 0.0 0.07698792 
0.0 0.0 0.0 0.0 0.0 0.07698792 
0.0 0.0 0.0 0.0 0.0 0.07698792 
0.0 0.0 0.0 0.0 0.0 0.07698792 
0.0 0.0 0.0 0.0 0.0 0.07698792 
0.0 0.0 0.0 0.0 0.0 0.07698792 
0.0 0.0 0.0 0.0 0.0 0.07698792 
0.0 0.0 0.0 0.0 0.0 0.07698792 
0.0 0.0 0.0 0.0 0.0 0.07698792 
0.0 0.0 0.0 0.0 0.0 0.07698792 
0.0 0.0 0.0 0.0 0.0 0.07698792 
0.0 0.0 0.0 0.0 0.0 0.07698792 
0.0 0.0 0.0 0.0 0.0 0.07698792 
0.0 0.0 0.0 0.0 0.0 0.07698792 
0.0 0.0 0.0 0.0 0.0 0.07698792 
0.0 0.0 0.0 0.0 0.0 0.07698792 
0.0 0.0 0.0 0.0 0.0 0.07698792 
0.0 0.0 0.0 0.0 0.0 0.07698792 
0.0 0.0 0.0 0.0 0.0 0.07698792 
0.0 0.0 0.0 0.0 0.0 0.07698792 
0.0 0.0 0.0 0.0 0.0 0.07698792 
0.0 0.0 0.0 0.0 0.0 0.07698792 
0.0 0.0 0.0 0.0 0.0 0.07698792 
0.0 0.0 0.0 0.0 0.0 0.07698792 
0.0 0.0 0.0 0.0 0.0 0.07698792 
0.0 0.0 0.0 0.0 0.0 0.07698792 
0.0 0.0 0.0 0.0 0.0 0.07698792 
0.0 0.0 0.0 0.0 0.0 0.07698792 
0.0 0.0 0.0 0.0 0.0 0.07698792 
0.0 0.0 0.0 0.0 0.0 0.07698792 
0.0 0.0 0.0 0.0 0.0 0.07698792 
0.0 0.0 0.0 0.0 0.0 0.07698792 
0.0 0.0 0.0 0.0 0.0 0.07698792 
0.0 0.0 0.0 0.0 0.0 0.07698792 
0.0 0.0 0.0 0.0 0.0 0.07698792 
0.0 0.0 0.0 0.0 0.0 0.07698792 
0.0 0.0 0.0 0.0 0.0 0.07698792 
0.0 0.0 0.0 0.0 0.0 0.07698792 
0.0 0.0 0.0 0.0 0.0 0.07698792 
0.0 0.0 0.0 0.0 0.0 0.07698792 
0.0 0.0 0.0 0.0 0.0 0.07698792 
0.0 0.0 0.0 0.0 0.0 0.07698792 
0.0 0.0 0.0 0.0 0.0 0.07698792 
0.0 0.0 0.0 0.0 0.0 0.07698792 
0.0 0.0 0.0 0.0 0.0 0.07698792 
0.0 0.0 0.0 0.0 0.0 0.07698792 
0.0 0.0 0.0 0.0 0.0 0.07698792 
0.0 0.0 0.0 0.0 0.0 0.07698792 
0.0 0.0 0.0 0.0 0.0 0.07698792 
0.0 0.0 0.0 0.0 0.0 0.07698792 
0.0 0.0 0.0 0.0 0.0 0.07698792 
0.0 0.0 0.0 0.0 0.0 0.07698792 
0.0 0.0 0.0 0.0 0.0 0.07698792 
0.0 0.0 0.0 0.0 0.0 0.07698792 
0.0 0.0 0.0 0.0 0.0 0.07698792 
0.0 0.0 0.0 0.0 0.0 0.07698792 
0.0 0.0 0.0 0.0 0.0 0.07698792 
0.0 0.0 0.0 0.0 0.0 0.07698792 
0.0 0.0 0.0 0.0 0.0 0.07698792 
0.0 0.0 0.0 0.0 0.0 0.07698792 
0.0 0.0 0.0 0.0 0.0 0.07698792 
0.0 0.0 0.0 0.0 0.0 0.07698792 
0.0 0.0 0.0 0.0 0.0 0.07698792 
0.0 0.0 0.0 0.0 0.0 0.07698792 
0.0 0.0 0.0 0.0 0.0 0.07698792 
0.0 0.0 0.0 0.0 0.0 0.07698792 
0.0 0.0 0.0 0.0 0.0 0.07698792 
0.0 0.0 0.0 0.0 0.0 0.07698792 
0.0 0.0 0.0 0.0 0.0 0.07698792 
0.0 0.0 0.0 0.0 0.0 0.07698792 
0.0 0.0 0.0 0.0 0.0 0.07698792 
0.0 0.0 0.0 0.0 0.0 0.07698792 
0.0 0.0 0.0 0.0 0.0 0.07698792 
0.0 0.0 0.0 0.0 0.0 0.07698792 
0.0 0.0 0.0 0.0 0.0 0.07698792 
0.0 0.0 0.0 0.0 0.0 0.07698792 
0.0 0.0 0.0 0.0 0.0 0.07698792 
0.0 0.0 0.0 0.0 0.0 0.07698792 
0.0 0.0 0.0 0.0 0.0 0.07698792 
0.0 0.0 0.0 0.0 0.0 0.07698792 
0.0 0.0 0.0 0.0 0.0 0.07698792 
0.0 0.0 0.0 0.0 0.0 0.07698792 
0.0 0.0 0.0 0.0 0.0 0.07698792 
0.0 0.0 0.0 0.0 0.0 0.07698792 
0.0 0.0 0.0 0.0 0.0 0.052853156 
0.11782439 0.0 0.1207838 0.0 0.0 0.0 
0.2073758 0.13026501 0.14813831 0.0 0.0 0.0 
0.22653246 0.17929336 0.32054207 0.0 0.0 0.0 
0.3671232 0.38154536 0.4292873 0.0 0.0 0.0 
0.33347255 0.47544134 0.47196972 0.0 0.0 0.0 
0.23665512 0.61300397 0.38263637 0.0 0.0 0.0 
0.0 0.5650454 0.28051028 0.0 0.031104822 0.0 
0.0 0.4003204 0.17029867 0.0 0.08247885 0.0 
0.0 0.19153339 0.027846925 0.0 0.08229455 0.0 
0.0 0.027648214 0.0 0.0 0.0 0.04363815 
0.0 0.0 0.0 0.0 0.0 0.07698792 
0.0 0.0 0.0 0.0 0.0 0.07698792 
0.0 0.0 0.0 0.0 0.0 0.07698792 
0.0 0.0 0.0 0.0 0.0 0.07698792 
0.0 0.0 0.0 0.0 0.0 0.07698792 
0.0 0.0 0.0 0.0 0.0 0.07698792 
0.0 0.0 0.0 0.0 0.0 0.07698792 
0.0 0.0 0.0 0.0 0.0 0.07698792 
0.0 0.0 0.0 0.0 0.0 0.07698792 
0.0 0.0 0.0 0.0 0.0 0.07698792 
0.0 0.0 0.0 0.0 0.0 0.07698792 
0.0 0.0 0.0 0.0 0.0 0.07698792 
0.0 0.0 0.0 0.0 0.0 0.07698792 
0.0 0.0 0.0 0.0 0.0 0.07698792 
0.0 0.0 0.0 0.0 0.0 0.07698792 
0.0 0.0 0.0 0.0 0.0 0.07698792 
0.050979674 0.0 0.095913805 0.0 0.0 0.0049607307 
0.33178598 0.0041005975 0.19322252 0.0 0.0 0.0 
0.54787177 0.060558558 0.27634087 0.0 0.0 0.0 
0.7304899 0.34876823 0.51292855 0.0 0.0 0.0 
0.7491191 0.6732424 0.60960746 0.0 0.0 0.0 
0.6470701 0.8231309 0.88712347 0.0 0.0 0.0 
0.6228973 0.8431358 0.88553476 0.0 0.019331668 0.0 
0.47849756 1.1966139 1.1153966 0.0 0.18104191 0.0 
0.0 1.3468052 0.9745461 0.0 0.56090873 0.0 
0.0 1.0481917 0.7942998 0.0 0.61289126 0.0 
0.0 0.4983599 0.4039064 0.0 0.49914065 0.0 
0.0 0.1892596 0.063635014 0.0 0.17571297 0.0 
0.0 0.027648214 0.0 0.0 0.0 0.04363815 
0.0 0.0 0.0 0.0 0.0 0.07698792 
0.0 0.0 0.0 0.0 0.0 0.07698792 
0.0 0.0 0.0 0.0 0.0 0.07698792 
0.0 0.0 0.0 0.0 0.0 0.07698792 
0.0 0.0 0.0 0.0 0.0 0.07698792 
0.0 0.0 0.0 0.0 0.0 0.07698792 
0.0 0.0 0.0 0.0 0.0 0.07698792 
0.0 0.0 0.0 0.0 0.0 0.07698792 
0.0 0.0 0.0 0.0 0.0 0.07698792 
0.0 0.0 0.0 0.0 0.0 0.07698792 
0.0 0.0 0.0 0.0 0.0 0.07698792 
0.0 0.0 0.0 0.0 0.0 0.07698792 
0.0 0.0 0.0 0.0 0.0 0.07698792 
0.0 0.0 0.0 0.0 0.0 0.07698792 
0.010376431 0.0 0.045320787 0.0 0.0 0.02871839 
0.3454973 0.0 0.112566 0.0 0.0 0.0 
0.81418407 0.0 0.2315878 0.0 0.0 0.0 
1.2289424 0.038357735 0.3097278 0.0 0.0 0.0 
1.1004732 0.69590396 0.70445824 0.0 0.0 0.0 
0.7710866 0.804887 0.9629377 0.0 0.5642316 0.0 
0.685757 0.9394575 1.2548879 0.0 0.82858014 0.0 
0.6278639 1.0507511 1.3746096 0.0 0.9858797 0.0 
0.35973966 1.3710898 1.6057447 0.033125106 1.0362195 0.0 
0.0 1.7967813 1.8932154 0.0 1.2182852 0.0 
0.0 1.7834936 1.6826663 0.0 1.1711749 0.0 
0.0 1.2337619 1.2217513 0.0 0.870885 0.0 
0.0 0.40945825 0.40267035 0.0 0.5362818 0.0 
0.0 0.061286017 0.0019930638 0.0 0.104627684 0.0 
0.0 0.0 0.0 0.0 0.0 0.07698792 
0.0 0.0 0.0 0.0 0.0 0.07698792 
0.0 0.0 0.0 0.0 0.0 0.07698792 
0.0 0.0 0.0 0.0 0.0 0.07698792 
0.0 0.0 0.0 0.0 0.0 0.07698792 
0.0 0.0 0.0 0.0 0.0 0.07698792 
0.0 0.0 0.0 0.0 0.0 0.07698792 
0.0 0.0 0.0 0.0 0.0 0.07698792 
0.0 0.0 0.0 0.0 0.0 0.07698792 
0.0 0.0 0.0 0.0 0.0 0.07698792 
0.0 0.0 0.0 0.0 0.0 0.07698792 
0.0 0.0 0.0 0.0 0.0 0.07698792 
0.0 0.0 0.0 0.0 0.0 0.07698792 
0.0 0.0 0.0 0.0 0.0 0.07698792 
0.09051412 0.0 0.0 0.0 0.0 0.06084549 
0.75080866 0.0 0.005126871 0.0 0.0 0.11544133 
1.3931956 0.0 0.042183727 0.0 0.0 0.0 
1.5332139 0.30483562 0.18493333 0.20955381 0.1842268 0.0 
1.0165131 1.0743091 0.5187853 0.3169905 1.0417594 0.0 
0.59330523 1.4266444 0.91393447 0.63589925 1.5834285 0.0 
0.646685 1.5181196 1.0066462 0.95357525 1.7713836 0.30527332 
0.55578995 1.5691966 1.1038449 1.1591351 1.760213 0.51529455 
0.5752734 1.5918641 1.2322484 1.0381483 1.5742322 0.30247644 
0.0 2.032771 2.0024583 0.82788134 1.4519349 0.0 
0.0 2.124552 2.3710783 0.4219139 1.377162 0.0 
0.0 1.8075476 2.1989396 0.0 1.1035595 0.0 
0.0 1.0201423 1.2077088 0.0 0.6536083 0.0 
0.0 0.3967639 0.3108629 0.0 0.22589605 0.0 
0.0 0.21652141 0.07110227 0.0 0.009443741 0.0 
0.0 0.12027134 0.0043555386 0.0 0.013190027 0.0 
0.0 0.027648214 0.0 0.0 0.0 0.04363815 
0.0 0.0 0.0 0.0 0.0 0.07698792 
0.0 0.0 0.0 0.0 0.0 0.07698792 
0.0 0.0 0.0 0.0 0.0 0.07698792 
0.0 0.0 0.0 0.0 0.0 0.07698792 
0.0 0.0 0.0 0.0 0.0 0.07698792 
0.0 0.0 0.0 0.0 0.0 0.07698792 
0.0 0.0 0.0 0.0 0.0 0.07698792 
0.0 0.0 0.0 0.0 0.0 0.07698792 
0.0 0.0 0.0 0.0 0.0 0.07698792 
0.0 0.0 0.0 0.0 0.0 0.07698792 
0.0 0.0 0.0 0.0 0.0 0.07698792 
0.23186323 0.0 0.0 0.0058341036 0.0 0.19513822 
1.0980613 0.0 0.0 0.22853568 0.0 0.4477331 
1.7783365 0.0 0.0 0.37144622 0.20636679 0.48841816 
1.727658 0.6047963 0.0 0.4639904 1.0872153 0.40344495 
1.034512 1.482874 0.0 0.59227055 2.0385554 0.4627162 
0.3383826 1.5028831 0.16578647 0.6215225 2.7594128 0.8256995 
0.24398705 1.1744505 0.0 0.84165674 2.9272974 1.3981676 
0.3822207 0.49045226 0.0 0.9156008 2.7373874 1.7594533 
0.774242 0.5109244 0.0 1.166981 2.0640557 1.7269063 
0.43100125 1.0376266 0.5237629 0.8447239 1.7534178 0.8560661 
0.0 1.7100382 1.7846961 0.51978654 1.3935016 0.0 
0.0 1.6979636 2.523042 0.0 1.0587667 0.0 
0.0 1.5279691 2.154423 0.0 0.64620703 0.0 
0.0 1.1808355 1.0594339 0.0 0.39652476 0.0 
0.0 0.8401789 0.54267585 0.0 0.33931306 0.0 
0.0 0.50287193 0.33288944 0.0 0.31376353 0.0 
0.0 0.1892596 0.063635014 0.0 0.17571297 0.0 
0.0 0.027648214 0.0 0.0 0.0 0.04363815 
0.0 0.0 0.0 0.0 0.0 0.07698792 
0.0 0.0 0.0 0.0 0.0 0.07698792 
0.0 0.0 0.0 0.0 0.0 0.07698792 
0.0 0.0 0.0 0.0 0.0 0.07698792 
0.0 0.0 0.0 0.0 0.0 0.07698792 
0.0 0.0 0.0 0.0 0.0 0.07698792 
0.0 0.0 0.0 0.0 0.0 0.07698792 
0.0 0.0 0.0 0.0 0.0 0.07698792 
0.0 0.0 0.0 0.0 0.0 0.07698792 
0.0 0.0 0.0 0.0 0.0 0.07698792 
0.3160676 0.0 0.0 0.13141234 0.0 0.36775863 
1.3648839 0.0 0.0 0.19206524 0.15738936 0.90883297 
2.086361 0.0 0.0 0.2476289 0.8002893 0.9877562 
1.8687024 0.48268127 0.0 0.22456488 1.5386387 0.77499133 
0.9566676 1.5410916 0.0 0.078058146 2.4424055 0.50936884 
0.0 1.7227876 0.07576553 0.0 3.023806 0.54922736 
0.0 1.1505401 0.0 0.0 2.863137 1.0174208 
0.17666712 0.3183882 0.0 0.0 2.4925742 1.5508609 
0.92600816 0.0 0.0 0.28641918 1.8521174 1.9478822 
1.0831888 0.12523991 0.0 0.56161505 1.4414963 1.3699632 
0.54539824 0.81811625 0.47859526 0.4049463 1.1880637 0.4013723 
0.18995878 1.4013768 1.9506916 0.26697382 1.0211319 0.0 
0.0 1.4544978 2.361415 0.0 1.0342928 0.0 
0.0 1.6214525 1.8451427 0.0 0.93565804 0.0 
0.0 1.540959 1.2828505 0.0 0.95911497 0.0 
0.0 1.1084013 1.0172315 0.0 0.8007478 0.0 
0.0 0.40945825 0.40267035 0.0 0.5362818 0.0 
0.0 0.061286017 0.0019930638 0.0 0.104627684 0.0 
0.0 0.0 0.0 0.0 0.0 0.07698792 
0.0 0.0 0.0 0.0 0.0 0.07698792 
0.0 0.0 0.0 0.0 0.0 0.07698792 
0.0 0.0 0.0 0.0 0.0 0.07698792 
0.0 0.0 0.0 0.0 0.0 0.07698792 
0.0 0.0 0.0 0.0 0.0 0.07698792 
0.0 0.0 0.0 0.0 0.0 0.07698792 
0.0 0.0 0.0 0.0 0.0 0.07698792 
0.0 0.0 0.0 0.0 0.0 0.07698792 
0.0 0.0 0.0 0.0 0.0 0.07698792 
0.3529522 0.0 0.0 0.051926192 0.147501 0.45504597 
1.2491064 0.0 0.0 0.18112722 0.53155696 1.1589031 
1.8714166 0.0 0.0 0.30413198 1.0071446 1.3694203 
1.8709607 0.16328692 0.0 0.32927057 1.550126 1.1831627 
0.8802309 1.235156 0.0 0.065850504 2.0823798 0.62698036 
0.0 1.6744784 0.7643844 0.0 2.443895 0.008928359 
0.0 1.4965868 0.57183564 0.0 2.2870116 0.0 
0.0 0.64311516 0.0 0.0 1.933535 0.29968184 
1.0005057 0.0 0.0 0.0 1.4911364 0.95236504 
1.4994125 0.0 0.0 0.0 1.1321775 1.0054226 
1.295687 0.357782 0.0 0.0 1.1247483 0.41894907 
0.71484506 1.2495048 1.0552571 0.307996 1.3533396 0.060350396 
0.18889806 1.5290349 1.8212544 0.45395875 1.7309268 0.0 
0.0 1.8534683 1.8918427 0.54060113 1.6733578 0.0 
0.0 1.8693702 1.8562492 0.5218392 1.5886981 0.0 
0.0 1.4290159 1.6628338 0.36227885 1.2375656 0.0 
0.0 0.6273311 0.9120335 0.1271824 0.69565576 0.0 
0.0 0.050362896 0.117169924 0.0 0.16374213 0.027732823 
0.0 0.0 0.0 0.0 0.0 0.07698792 
0.0 0.0 0.0 0.0 0.0 0.07698792 
0.0 0.0 0.0 0.0 0.0 0.07698792 
0.0 0.0 0.0 0.0 0.0 0.07698792 
0.0 0.0 0.0 0.0 0.0 0.07698792 
0.0 0.0 0.0 0.0 0.0 0.07698792 
0.0 0.0 0.0 0.0 0.0 0.07698792 
0.0 0.0 0.0 0.0 0.0 0.07698792 
0.0 0.0 0.0 0.0 0.0 0.07698792 
0.0 0.0 0.0 0.0 0.0 0.07698792 
0.24220884 0.0 0.0 0.02116277 0.18391638 0.37183604 
0.9664268 0.0 0.0 0.11821371 0.7074205 1.1054835 
1.5091054 0.0 0.0 0.21502924 0.9950829 1.4966795 
1.7708361 0.0 0.0 0.30042565 1.3756517 1.4123912 
1.1606853 0.5030436 0.0 0.2862163 1.5725337 0.8219393 
0.17916644 1.3919483 1.2558821 0.08959336 1.5900925 0.0 
0.0 1.5172378 1.8729191 0.0 1.7442752 0.0 
0.0 1.1063004 1.375102 0.0 1.4207658 0.0 
1.0795691 0.16316006 0.0 0.0 1.2288519 0.0 
1.7436821 0.0 0.0 0.0 1.346902 0.2084609 
1.5606008 0.6145169 0.0 0.0 1.6220561 0.25746214 
0.9715447 1.0625283 0.0 0.0 2.1834095 0.48118496 
0.31550097 1.674609 0.7498534 0.4826786 2.5404193 0.52365375 
0.0 1.9244787 1.0626885 0.637705 2.4530604 0.30625254 
0.0 1.8406104 1.5487784 0.7672228 1.9623326 0.108587205 
0.0 1.0898529 1.6934309 0.6964888 1.3118745 0.26813376 
0.0 0.52828354 1.1478245 0.5130097 0.49813363 0.20626792 
0.0 0.1659604 0.26079825 0.15576628 0.023240242 0.086953506 
0.0 0.0 0.0 0.0 0.0 0.07698792 
0.0 0.0 0.0 0.0 0.0 0.07698792 
0.0 0.0 0.0 0.0 0.0 0.07698792 
0.0 0.0 0.0 0.0 0.0 0.07698792 
0.0 0.0 0.0 0.0 0.0 0.07698792 
0.0 0.0 0.0 0.0 0.0 0.07698792 
0.0 0.0 0.0 0.0 0.0 0.07698792 
0.0 0.0 0.0 0.0 0.0 0.07698792 
0.0 0.0 0.0 0.0 0.0 0.07698792 
0.0 0.0 0.0 0.0 0.0 0.07698792 
0.10880822 0.0 0.0 0.0 0.14426182 0.23044688 
0.623467 0.0 0.0 0.0 0.6020617 0.7692732 
1.1867545 0.0 0.0 0.0 0.95491916 1.4612298 
1.5192463 0.0 0.0 0.1386581 1.1013225 1.6988344 
1.452492 0.0 0.0 0.51049876 1.1891576 1.3643303 
0.5866886 0.91894764 0.6085546 0.68315476 1.2704996 0.58301514 
0.0 1.568089 2.1373177 0.5420323 1.2539972 0.0 
0.10754116 1.3729208 2.3879552 0.10509438 1.1822804 0.0 
0.9671853 1.0381536 1.4034286 0.0 1.3605441 0.0 
1.5425291 0.81334156 0.0 0.0 1.8400217 0.0 
1.304235 0.9787917 0.0 0.0 2.2817345 0.2254028 
0.931145 1.2262803 0.0 0.0 2.823252 0.7043794 
0.06532903 1.4931115 0.0701837 0.23158926 3.2378802 0.8952026 
0.0 1.6582165 0.21999145 0.35568607 2.826502 0.8106494 
0.0 1.1454997 0.7210264 0.29149833 1.9554662 0.75400656 
0.0 0.48545033 0.9671036 0.24995244 0.96874565 0.59613585 
0.0 0.15759097 0.77410054 0.19312501 0.24109651 0.29655004 
0.0 0.040814243 0.20489779 0.06543538 0.0 0.114613056 
0.0 0.0 0.0 0.0 0.0 0.07698792 
0.0 0.0 0.0 0.0 0.0 0.07698792 
0.0 0.0 0.0 0.0 0.0 0.07698792 
0.0 0.0 0.0 0.0 0.0 0.07698792 
0.0 0.0 0.0 0.0 0.0 0.07698792 
0.0 0.0 0.0 0.0 0.0 0.07698792 
0.0 0.0 0.0 0.0 0.0 0.07698792 
0.0 0.0 0.0 0.0 0.0 0.07698792 
0.0 0.0 0.0 0.0 0.0 0.07698792 
0.0 0.0 0.0 0.0 0.0 0.07698792 
0.0 0.0 0.0 0.0 0.03259862 0.116596 
0.27219948 0.0 0.0 0.0 0.3892884 0.34581712 
0.8468974 0.0 0.0 0.0 0.80102295 0.98193973 
1.2519228 0.0 0.0 0.0 1.13406 1.5547855 
1.3415892 0.0 0.0 0.26282346 1.443822 1.7763803 
1.1664317 0.0 0.0 0.7356378 1.4590875 1.5838523 
0.67239463 0.87883097 0.6664641 1.038391 1.3916558 0.88917667 
0.42055953 1.2212973 1.6729763 0.99653554 1.4724234 0.29204684 
0.8484331 1.2249869 1.5810384 0.6458482 1.9041785 0.121147834 
1.1445992 1.4894948 0.59213716 0.35102972 2.263824 0.21870369 
1.0238204 1.4617716 0.0 0.1353362 2.593142 0.41445094 
0.39017087 1.6299458 0.0 0.1854426 3.0851846 0.76656115 
0.0 1.5819908 0.11537675 0.1083466 3.1300771 0.7683115 
0.0 1.1126555 0.29725167 0.04575034 2.4446225 0.7892302 
0.0 0.43215284 0.46854192 0.0018471526 1.302575 0.6881096 
0.0 0.079744026 0.47131705 0.0 0.46492693 0.41826135 
0.0 0.0 0.20695275 0.0 0.1658076 0.20418152 
0.0 0.0 0.018709518 0.0 0.002010692 0.08672868 
0.0 0.0 0.0 0.0 0.0 0.07698792 
0.0 0.0 0.0 0.0 0.0 0.07698792 
0.0 0.0 0.0 0.0 0.0 0.07698792 
0.0 0.0 0.0 0.0 0.0 0.07698792 
0.0 0.0 0.0 0.0 0.0 0.07698792 
0.0 0.0 0.0 0.0 0.0 0.07698792 
0.0 0.0 0.0 0.0 0.0 0.07698792 
0.0 0.0 0.0 0.0 0.0 0.07698792 
0.0 0.0 0.0 0.0 0.0 0.07698792 
0.0 0.0 0.0 0.0 0.0 0.07698792 
0.0 0.0 0.0 0.0 0.0 0.07698792 
0.0 0.0 0.0 0.0 0.03259862 0.116596 
0.3966715 0.0 0.0 0.0 0.4302165 0.4931427 
0.9407216 0.0 0.0 0.0 0.93559855 1.1763458 
1.1583486 0.0 0.0 0.0 1.2631698 1.5852728 
1.3822827 0.0 0.0 0.148159 1.3414534 1.7190952 
1.2916183 0.0 0.0 0.5691127 1.4200767 1.4839792 
1.2407172 0.7082383 0.0965429 0.6380872 1.7537795 1.059469 
1.1480348 1.3141534 0.62229764 0.5062656 2.1673894 0.7028472 
0.8532664 1.4467834 0.3729713 0.21703312 2.6429694 0.5527551 
0.4957561 1.635058 0.046141885 0.22488533 2.9862072 0.70146674 
0.0 1.7195203 0.10034946 0.1304408 3.1373575 0.72937125 
0.0 1.3777297 0.33437356 0.014502657 2.5902846 0.7365355 
0.0 0.64012504 0.55216056 0.0 1.50311 0.64999986 
0.0 0.10425299 0.5477994 0.0 0.57001513 0.4463249 
0.0 0.0 0.31733993 0.0 0.17662613 0.220303 
0.0 0.0 0.018709518 0.0 0.002010692 0.08672868 
0.0 0.0 0.0 0.0 0.0 0.07698792 
0.0 0.0 0.0 0.0 0.0 0.07698792 
0.0 0.0 0.0 0.0 0.0 0.07698792 
0.0 0.0 0.0 0.0 0.0 0.07698792 
0.0 0.0 0.0 0.0 0.0 0.07698792 
0.0 0.0 0.0 0.0 0.0 0.07698792 
0.0 0.0 0.0 0.0 0.0 0.07698792 
0.0 0.0 0.0 0.0 0.0 0.07698792 
0.0 0.0 0.0 0.0 0.0 0.07698792 
0.0 0.0 0.0 0.0 0.0 0.07698792 
0.0 0.0 0.0 0.0 0.0 0.07698792 
0.0 0.0 0.0 0.0 0.0 0.07698792 
0.0 0.0 0.0 0.0 0.0 0.07698792 
0.10425933 0.0 0.0 0.0 0.2132522 0.19519326 
0.48817796 0.0 0.0 0.0 0.55795664 0.56611407 
0.90652937 0.0 0.0 0.0 0.8347 1.0236986 
1.5093031 0.0 0.0 0.0 0.91841006 1.4547918 
1.8900745 0.0 0.0 0.0 1.2251242 1.4231596 
1.6917937 0.21856263 0.0 0.0 1.7424561 1.0141096 
1.2310007 1.0075452 0.0 0.0 2.3018806 0.7726087 
0.7910636 1.3527905 0.28382713 0.0 2.8652854 0.5962725 
0.11981657 1.8216285 0.2591086 0.0 3.0653021 0.37014458 
0.0 1.6712316 0.4698208 0.0 2.809086 0.20992705 
0.0 1.1128553 0.798842 0.0 1.8388447 0.22188234 
0.0 0.32729545 0.7152548 0.0 0.9419885 0.32660702 
0.0 0.0 0.36546648 0.0 0.2522508 0.2540276 
0.0 0.0 0.056204803 0.0 0.031763475 0.091522954 
0.0 0.0 0.0 0.0 0.0 0.07698792 
0.0 0.0 0.0 0.0 0.0 0.07698792 
0.0 0.0 0.0 0.0 0.0 0.07698792 
0.0 0.0 0.0 0.0 0.0 0.07698792 
0.0 0.0 0.0 0.0 0.0 0.07698792 
0.0 0.0 0.0 0.0 0.0 0.07698792 
0.0 0.0 0.0 0.0 0.0 0.07698792 
0.0 0.0 0.0 0.0 0.0 0.07698792 
0.0 0.0 0.0 0.0 0.0 0.07698792 
0.0 0.0 0.0 0.0 0.0 0.07698792 
0.0 0.0 0.0 0.0 0.0 0.07698792 
0.0 0.0 0.0 0.0 0.0 0.07698792 
0.0 0.0 0.0 0.0 0.0 0.07698792 
0.0 0.0 0.0 0.0 0.0 0.07698792 
0.0 0.0 0.0 0.0 0.0 0.07698792 
0.10425933 0.0 0.0 0.0 0.2132522 0.19519326 
0.6788646 0.0 0.0 0.0 0.27756917 0.4219 
1.6904035 0.0 0.0 0.0 0.39844552 0.7774465 
2.122343 0.0 0.0 0.0 0.99531585 0.8862619 
1.8311818 0.2607945 0.0 0.0 1.6924306 0.59082776 
1.2726467 0.9336532 0.0 0.0 2.4316044 0.6345294 
0.7303304 1.4369936 0.31894174 0.0 2.717501 0.49490505 
0.0 1.9305776 0.58886147 0.0 2.7864933 0.06422332 
0.0 1.9174057 1.0003561 0.0 2.1748474 0.0 
0.0 1.1695637 1.4133718 0.0 1.4182892 0.0 
0.0 0.28203493 0.8499226 0.0 0.82338864 0.0 
0.0 0.0 0.18018237 0.0 0.07757805 0.07455056 
0.0 0.0 0.0 0.0 0.0 0.07698792 
0.0 0.0 0.0 0.0 0.0 0.07698792 
0.0 0.0 0.0 0.0 0.0 0.07698792 
0.0 0.0 0.0 0.0 0.0 0.07698792 
0.0 0.0 0.0 0.0 0.0 0.07698792 
0.0 0.0 0.0 0.0 0.0 0.07698792 
0.0 0.0 0.0 0.0 0.0 0.07698792 
0.0 0.0 0.0 0.0 0.0 0.07698792 
0.0 0.0 0.0 0.0 0.0 0.07698792 
0.0 0.0 0.0 0.0 0.0 0.07698792 
0.0 0.0 0.0 0.0 0.0 0.07698792 
0.0 0.0 0.0 0.0 0.0 0.07698792 
0.0 0.0 0.0 0.0 0.0 0.07698792 
0.0 0.0 0.0 0.0 0.0 0.07698792 
0.0 0.0 0.0 0.0 0.0 0.07698792 
0.0 0.0 0.0 0.0 0.0 0.07698792 
0.010376431 0.0 0.045320787 0.0 0.0 0.02871839 
0.6487419 0.0 0.0 0.0 0.0 0.14754263 
1.770443 0.0 0.0 0.0 0.11227341 0.5132852 
2.2547817 0.0 0.0 0.0 0.9211495 0.4814883 
1.7838306 0.8022669 0.0 0.0 1.709479 0.38176653 
1.1783504 1.1316093 0.0 0.0 2.5621235 0.571099 
0.7461032 1.2567942 0.31468764 0.0 2.7143342 0.4808231 
0.0 1.855822 0.9749994 0.0 2.3935091 0.0 
0.0 1.8921577 1.5546328 0.0 2.0031478 0.0 
0.0 1.3890039 1.883656 0.0 1.4631151 0.0 
0.0 0.54390484 1.0680445 0.0 0.8270412 0.0 
0.0 0.04996194 0.05173672 0.0 0.16913293 0.0 
0.0 0.0 0.0 0.0 0.0 0.07698792 
0.0 0.0 0.0 0.0 0.0 0.07698792 
0.0 0.0 0.0 0.0 0.0 0.07698792 
0.0 0.0 0.0 0.0 0.0 0.07698792 
0.0 0.0 0.0 0.0 0.0 0.07698792 
0.0 0.0 0.0 0.0 0.0 0.07698792 
0.0 0.0 0.0 0.0 0.0 0.07698792 
0.0 0.0 0.0 0.0 0.0 0.07698792 
0.0 0.0 0.0 0.0 0.0 0.07698792 
0.0 0.0 0.0 0.0 0.0 0.07698792 
0.0 0.0 0.0 0.0 0.0 0.07698792 
0.0 0.0 0.0 0.0 0.0 0.07698792 
0.0 0.0 0.0 0.0 0.0 0.07698792 
0.0 0.0 0.0 0.0 0.0 0.07698792 
0.0 0.0 0.0 0.0 0.0 0.07698792 
0.0 0.0 0.0 0.0 0.0 0.07698792 
0.09051412 0.0 0.0 0.0 0.0 0.06084549 
1.0060358 0.0 0.0 0.0 0.0 0.37068138 
2.001239 0.0 0.0 0.0 0.31686756 0.59701407 
2.0687146 0.26547927 0.0 0.014299219 1.1958967 0.42612612 
1.5279038 0.9421013 0.0 0.0 2.0500937 0.45317978 
1.0755484 1.304846 0.0 0.0 2.6432507 0.5811147 
0.75329745 1.3680983 0.3296515 0.02378625 2.5746088 0.5495514 
0.042677507 1.8066546 1.0234581 0.0 2.181268 0.0 
0.0 2.1253622 1.8701794 0.0 1.9114786 0.0 
0.0 1.7143896 2.24695 0.0 1.510101 0.0 
0.0 1.07951 1.5879704 0.0 0.9096548 0.0 
0.0 0.19120988 0.19956657 0.0 0.3944541 0.0 
0.0 0.0 0.0 0.0 0.0 0.07698792 
0.0 0.0 0.0 0.0 0.0 0.07698792 
0.0 0.0 0.0 0.0 0.0 0.07698792 
0.0 0.0 0.0 0.0 0.0 0.07698792 
0.0 0.0 0.0 0.0 0.0 0.07698792 
0.0 0.0 0.0 0.0 0.0 0.07698792 
0.0 0.0 0.0 0.0 0.0 0.07698792 
0.0 0.0 0.0 0.0 0.0 0.07698792 
0.0 0.0 0.0 0.0 0.0 0.07698792 
0.0 0.0 0.0 0.0 0.0 0.07698792 
0.0 0.0 0.0 0.0 0.0 0.07698792 
0.0 0.0 0.0 0.0 0.0 0.07698792 
0.0 0.0 0.0 0.0 0.0 0.07698792 
0.0 0.0 0.0 0.0 0.0 0.07698792 
0.0 0.0 0.0 0.0 0.0 0.07698792 
0.0 0.0 0.0 0.0 0.0 0.07698792 
0.23186323 0.0 0.0 0.0058341036 0.0 0.19513822 
1.2789886 0.0 0.0 0.1742424 0.0 0.60119206 
2.0942233 0.0 0.0 0.15494579 0.674622 0.77813786 
1.9211116 0.4784878 0.0 0.16741276 1.4285277 0.58515537 
1.471719 1.1027431 0.0 0.024914924 2.1852272 0.587272 
0.94067496 1.3531755 0.15206614 0.0 2.6952846 0.61848396 
0.8705752 1.2605559 0.22765198 0.0 2.7552624 0.6281486 
0.3359759 1.5799749 0.5579586 0.0 2.3489945 0.20575526 
0.0 1.9966862 1.5001632 0.010882285 2.1422536 0.0 
0.0 1.8136097 2.07235 0.075618446 1.8153546 0.0 
0.0 1.1816597 1.9530562 0.06626463 1.1658775 0.0 
0.0 0.3262612 0.54017574 0.0 0.5341756 0.0 
0.0 0.0 0.0 0.0 0.0 0.07698792 
0.0 0.0 0.0 0.0 0.0 0.07698792 
0.0 0.0 0.0 0.0 0.0 0.07698792 
0.0 0.0 0.0 0.0 0.0 0.07698792 
0.0 0.0 0.0 0.0 0.0 0.07698792 
0.0 0.0 0.0 0.0 0.0 0.07698792 
0.0 0.0 0.0 0.0 0.0 0.07698792 
0.0 0.0 0.0 0.0 0.0 0.07698792 
0.0 0.0 0.0 0.0 0.0 0.07698792 
0.0 0.0 0.0 0.0 0.0 0.07698792 
0.0 0.0 0.0 0.0 0.0 0.07698792 
0.0 0.0 0.0 0.0 0.0 0.07698792 
0.0 0.0 0.0 0.0 0.0 0.07698792 
0.0 0.0 0.0 0.0 0.0 0.07698792 
0.0 0.0 0.0 0.0 0.0 0.07698792 
0.0 0.0 0.0 0.0 0.0 0.07698792 
0.3160676 0.0 0.0 0.13141234 0.0 0.36775863 
1.4239845 0.0 0.0 0.14005506 0.2484274 0.9484411 
2.1324744 0.0 0.0 0.21266946 0.8646623 1.0245292 
1.9004502 0.39557487 0.0 0.1582467 1.5166539 0.79750645 
1.3679693 1.1234984 0.0 0.08480627 2.2535827 0.7278237 
0.8705752 1.2605559 0.22765198 0.0 2.7552624 0.6281486 
0.8705752 1.2605559 0.22765198 0.0 2.7552624 0.6281486 
0.59140193 1.4668779 0.45322204 0.024479453 2.5183904 0.41963702 
0.0 2.10762 1.1485927 0.0 2.3526616 0.0 
0.0 1.9047801 1.8687168 0.056513097 1.9461457 0.0 
0.0 1.2246146 2.024833 0.06198853 1.2593747 0.0 
0.0 0.47594997 0.8799079 0.0 0.56295997 0.0 
0.0 0.0 0.0 0.0 0.0 0.07698792 
0.0 0.0 0.0 0.0 0.0 0.07698792 
0.0 0.0 0.0 0.0 0.0 0.07698792 
0.0 0.0 0.0 0.0 0.0 0.07698792 
0.0 0.0 0.0 0.0 0.0 0.07698792 
0.0 0.0 0.0 0.0 0.0 0.07698792 
0.0 0.0 0.0 0.0 0.0 0.07698792 
0.0 0.0 0.0 0.0 0.0 0.07698792 
0.0 0.0 0.0 0.0 0.0 0.07698792 
0.0 0.0 0.0 0.0 0.0 0.07698792 
0.0 0.0 0.0 0.0 0.0 0.07698792 
0.0 0.0 0.0 0.0 0.0 0.07698792 
0.0 0.0 0.0 0.0 0.0 0.07698792 
0.0 0.0 0.0 0.0 0.0 0.07698792 
0.0 0.0 0.0 0.0 0.0 0.07698792 
0.0 0.0 0.0 0.0 0.0 0.07698792 
0.3529522 0.0 0.0 0.051926192 0.147501 0.45504597 
1.3309574 0.0 0.0 0.12928748 0.45804676 1.1110108 
2.0040617 0.0 0.0 0.2014451 0.9391153 1.2251263 
1.9366937 0.15283269 0.0 0.1923779 1.5577906 1.079175 
1.3870254 0.93979996 0.0 0.20310411 2.183809 0.8896894 
0.8810505 1.2246443 0.21581379 0.0 2.7204382 0.6614984 
0.8705752 1.2605559 0.22765198 0.0 2.7552624 0.6281486 
0.7408001 1.403664 0.32505766 0.0 2.645195 0.5213942 
0.0 2.1129572 0.8430752 0.0 2.502478 0.0 
0.0 1.9357455 1.5794722 0.0 1.9939016 0.0 
0.0 1.260788 1.9480215 0.0 1.3253566 0.0 
0.0 0.36575863 1.000356 0.0 0.69200176 0.0 
0.0 0.0 0.0 0.0 0.0 0.07698792 
0.0 0.0 0.0 0.0 0.0 0.07698792 
0.0 0.0 0.0 0.0 0.0 0.07698792 
0.0 0.0 0.0 0.0 0.0 0.07698792 
0.0 0.0 0.0 0.0 0.0 0.07698792 
0.0 0.0 0.0 0.0 0.0 0.07698792 
0.0 0.0 0.0 0.0 0.0 0.07698792 
0.0 0.0 0.0 0.0 0.0 0.07698792 
0.0 0.0 0.0 0.0 0.0 0.07698792 
0.0 0.0 0.0 0.0 0.0 0.07698792 
0.0 0.0 0.0 0.0 0.0 0.07698792 
0.0 0.0 0.0 0.0 0.0 0.07698792 
0.0 0.0 0.0 0.0 0.0 0.07698792 
0.0 0.0 0.0 0.0 0.0 0.07698792 
0.0 0.0 0.0 0.0 0.0 0.07698792 
0.0 0.0 0.0 0.0 0.0 0.07698792 
0.24220884 0.0 0.0 0.02116277 0.18391638 0.37183604 
1.0871861 0.0 0.0 0.09524441 0.5603529 1.113225 
1.7703154 0.0 0.0 0.17430583 0.9048122 1.4153597 
1.9920087 0.0 0.0 0.23623505 1.4207116 1.2706511 
1.5406649 0.6592639 0.0 0.3067114 2.0066679 1.1305685 
0.9891177 1.155656 0.15653428 0.14566058 2.5579152 0.7507015 
0.82932746 1.2807866 0.17625591 0.0 2.792307 0.6522834 
0.61790574 1.2723092 0.093257375 0.00056273583 2.8794744 0.69864815 
0.0 1.8736639 0.69790345 0.14067486 2.643267 0.14442804 
0.0 1.6743104 1.3991243 0.18742938 2.0935886 0.0 
0.0 1.0677718 1.8235937 0.21585605 1.3852054 0.19967577 
0.0 0.22720821 0.99404263 0.04328757 0.6426524 0.0074076727 
0.0 0.0 0.0 0.0 0.0 0.07698792 
0.0 0.0 0.0 0.0 0.0 0.07698792 
0.0 0.0 0.0 0.0 0.0 0.07698792 
0.0 0.0 0.0 0.0 0.0 0.07698792 
0.0 0.0 0.0 0.0 0.0 0.07698792 
0.0 0.0 0.0 0.0 0.0 0.07698792 
0.0 0.0 0.0 0.0 0.0 0.07698792 
0.0 0.0 0.0 0.0 0.0 0.07698792 
0.0 0.0 0.0 0.0 0.0 0.07698792 
0.0 0.0 0.0 0.0 0.0 0.07698792 
0.0 0.0 0.0 0.0 0.0 0.07698792 
0.0 0.0 0.0 0.0 0.0 0.07698792 
0.0 0.0 0.0 0.0 0.0 0.07698792 
0.0 0.0 0.0 0.0 0.0 0.07698792 
0.0 0.0 0.0 0.0 0.0 0.07698792 
0.0 0.0 0.0 0.0 0.0 0.07698792 
0.10880822 0.0 0.0 0.0 0.14426182 0.23044688 
0.80378073 0.0 0.0 0.014831043 0.58437836 0.9185803 
1.4751618 0.0 0.0 0.053205106 0.8876639 1.4800866 
1.8312755 0.0 0.0 0.18555066 1.2672457 1.4983015 
1.7669716 0.14146996 0.0 0.30871138 1.8099953 1.4001443 
1.1420975 0.9687762 0.0 0.39705843 2.3354828 1.0470862 
0.6613499 1.2494231 0.054214194 0.17393179 2.8864398 0.82300586 
0.2533868 1.3711151 0.026856594 0.29133314 3.0948765 0.93218654 
0.0 1.7235241 0.5068947 0.40835556 2.686392 0.55060476 
0.0 1.2927275 1.2293671 0.51391226 1.9140197 0.34069258 
0.0 0.6693525 1.5516931 0.4603675 1.0589885 0.4725581 
0.0 0.29263306 0.9494482 0.29138786 0.3097977 0.120978475 
0.0 0.0 0.0 0.0 0.0 0.07698792 
0.0 0.0 0.0 0.0 0.0 0.07698792 
0.0 0.0 0.0 0.0 0.0 0.07698792 
0.0 0.0 0.0 0.0 0.0 0.07698792 
0.0 0.0 0.0 0.0 0.0 0.07698792 
0.0 0.0 0.0 0.0 0.0 0.07698792 
0.0 0.0 0.0 0.0 0.0 0.07698792 
0.0 0.0 0.0 0.0 0.0 0.07698792 
0.0 0.0 0.0 0.0 0.0 0.07698792 
0.0 0.0 0.0 0.0 0.0 0.07698792 
0.0 0.0 0.0 0.0 0.0 0.07698792 
0.0 0.0 0.0 0.0 0.0 0.07698792 
0.0 0.0 0.0 0.0 0.0 0.07698792 
0.0 0.0 0.0 0.0 0.0 0.07698792 
0.0 0.0 0.0 0.0 0.0 0.07698792 
0.0 0.0 0.0 0.0 0.0 0.07698792 
0.0 0.0 0.0 0.0 0.03259862 0.116596 
0.46734607 0.0 0.0 0.0 0.44924584 0.560289 
1.1362238 0.0 0.0 0.0 0.87993366 1.2974076 
1.4122176 0.0 0.0 0.14824998 1.2312516 1.6697605 
1.4698412 0.0 0.0 0.51877743 1.8017576 1.9014728 
1.0072403 0.23500738 0.0 0.9929879 2.3941865 1.9898021 
0.36526918 0.87657565 0.0 1.1267987 2.886237 1.7948115 
0.0 1.0722225 0.0 0.88084465 3.03957 1.5912344 
0.0 1.1479509 0.10224686 0.5677565 2.3250592 1.1260991 
0.0 0.68717265 0.69550675 0.30059814 1.3189864 0.68474 
0.0 0.2717611 0.92523485 0.20281546 0.58647084 0.5183606 
0.0 0.059697874 0.64416564 0.13502416 0.14112246 0.15844105 
0.0 0.0 0.0 0.0 0.0 0.07698792 
0.0 0.0 0.0 0.0 0.0 0.07698792 
0.0 0.0 0.0 0.0 0.0 0.07698792 
0.0 0.0 0.0 0.0 0.0 0.07698792 
0.0 0.0 0.0 0.0 0.0 0.07698792 
0.0 0.0 0.0 0.0 0.0 0.07698792 
0.0 0.0 0.0 0.0 0.0 0.07698792 
0.0 0.0 0.0 0.0 0.0 0.07698792 
0.0 0.0 0.0 0.0 0.0 0.07698792 
0.0 0.0 0.0 0.0 0.0 0.07698792 
0.0 0.0 0.0 0.0 0.0 0.07698792 
0.0 0.0 0.0 0.0 0.0 0.07698792 
0.0 0.0 0.0 0.0 0.0 0.07698792 
0.0 0.0 0.0 0.0 0.0 0.07698792 
0.0 0.0 0.0 0.0 0.0 0.07698792 
0.0 0.0 0.0 0.0 0.0 0.07698792 
0.0 0.0 0.0 0.0 0.0 0.07698792 
0.1669854 0.0 0.0 0.0 0.23387738 0.26943606 
0.73953456 0.0 0.0 0.0 0.6844582 0.87261796 
1.103673 0.0 0.0 0.0 1.1895193 1.4414294 
1.034951 0.0 0.0 0.15337992 1.6720009 1.735013 
0.6769419 0.0 0.0 0.49623793 2.131069 1.9075975 
0.10787547 0.34791 0.0 0.72694767 2.3121235 1.7912211 
0.0 0.521519 0.0 0.47034612 2.1032574 1.45421 
0.0 0.5029258 0.0 0.23549788 1.2917603 0.9789941 
0.0 0.15326051 0.3187111 0.0 0.6427999 0.55878127 
0.0 0.0 0.35099608 0.0 0.30502507 0.34344342 
0.0 0.0 0.20643461 0.0 0.072978765 0.112770714 
0.0 0.0 0.0 0.0 0.0 0.07698792 
0.0 0.0 0.0 0.0 0.0 0.07698792 
0.0 0.0 0.0 0.0 0.0 0.07698792 
0.0 0.0 0.0 0.0 0.0 0.07698792 
0.0 0.0 0.0 0.0 0.0 0.07698792 
0.0 0.0 0.0 0.0 0.0 0.07698792 
0.0 0.0 0.0 0.0 0.0 0.07698792 
0.0 0.0 0.0 0.0 0.0 0.07698792 
0.0 0.0 0.0 0.0 0.0 0.07698792 
0.0 0.0 0.0 0.0 0.0 0.07698792 
0.0 0.0 0.0 0.0 0.0 0.07698792 
0.0 0.0 0.0 0.0 0.0 0.07698792 
0.0 0.0 0.0 0.0 0.0 0.07698792 
0.0 0.0 0.0 0.0 0.0 0.07698792 
0.0 0.0 0.0 0.0 0.0 0.07698792 
0.0 0.0 0.0 0.0 0.0 0.07698792 
0.0 0.0 0.0 0.0 0.0 0.07698792 
0.0 0.0 0.0 0.0 0.03259862 0.116596 
0.33492553 0.0 0.0 0.0 0.4099136 0.42005995 
0.6832595 0.0 0.0 0.0 0.8120498 0.87951815 
0.68950367 0.0 0.0 0.0 1.1439742 1.217874 
0.5191442 0.0 0.0 0.0 1.3555336 1.4507618 
0.08640081 0.0 0.0 0.0 1.291458 1.3161368 
0.0 0.011643554 0.0 0.0 0.88475287 0.921027 
0.0 0.0 0.0 0.0 0.49671128 0.5656305 
0.0 0.0 0.18490234 0.0 0.2622208 0.31558418 
0.0 0.0 0.11253355 0.0 0.083673015 0.14541705 
0.0 0.0 0.0 0.0 0.0 0.0818583 
0.0 0.0 0.0 0.0 0.0 0.07698792 
0.0 0.0 0.0 0.0 0.0 0.07698792 
0.0 0.0 0.0 0.0 0.0 0.07698792 
0.0 0.0 0.0 0.0 0.0 0.07698792 
0.0 0.0 0.0 0.0 0.0 0.07698792 
0.0 0.0 0.0 0.0 0.0 0.07698792 
0.0 0.0 0.0 0.0 0.0 0.07698792 
0.0 0.0 0.0 0.0 0.0 0.07698792 
0.0 0.0 0.0 0.0 0.0 0.07698792 
0.0 0.0 0.0 0.0 0.0 0.07698792 
0.0 0.0 0.0 0.0 0.0 0.07698792 
0.0 0.0 0.0 0.0 0.0 0.07698792 
0.0 0.0 0.0 0.0 0.0 0.07698792 
0.0 0.0 0.0 0.0 0.0 0.07698792 
0.0 0.0 0.0 0.0 0.0 0.07698792 
0.0 0.0 0.0 0.0 0.0 0.07698792 
0.0 0.0 0.0 0.0 0.0 0.07698792 
0.0 0.0 0.0 0.0 0.0 0.07698792 
0.04608216 0.0 0.0 0.0 0.12363665 0.15620407 
0.25558692 0.0 0.0 0.0 0.43303624 0.30834728 
0.3304516 0.0 0.0 0.0 0.62769574 0.39422187 
0.24083602 0.0 0.0 0.0 0.68489295 0.44244963 
0.0 0.0 0.0 0.0 0.5815157 0.41126734 
0.0 0.0 0.0 0.0 0.3892557 0.30190095 
0.0 0.0 0.0 0.0 0.21756677 0.21480887 
0.0 0.0 0.00039418042 0.0 0.07268277 0.12903967 
0.0 0.0 0.0 0.0 0.0 0.0818583 
0.0 0.0 0.0 0.0 0.0 0.07698792 
0.0 0.0 0.0 0.0 0.0 0.07698792 
0.0 0.0 0.0 0.0 0.0 0.07698792 
0.0 0.0 0.0 0.0 0.0 0.07698792 
0.0 0.0 0.0 0.0 0.0 0.07698792 
0.0 0.0 0.0 0.0 0.0 0.07698792 
0.0 0.0 0.0 0.0 0.0 0.07698792 
0.0 0.0 0.0 0.0 0.0 0.07698792 
0.0 0.0 0.0 0.0 0.0 0.07698792 
0.0 0.0 0.0 0.0 0.0 0.07698792 
0.0 0.0 0.0 0.0 0.0 0.07698792 
0.0 0.0 0.0 0.0 0.0 0.07698792 
0.0 0.0 0.0 0.0 0.0 0.07698792 
0.0 0.0 0.0 0.0 0.0 0.07698792 
0.0 0.0 0.0 0.0 0.0 0.07698792 
0.0 0.0 0.0 0.0 0.0 0.07698792 
0.0 0.0 0.0 0.0 0.0 0.07698792 
0.0 0.0 0.0 0.0 0.0 0.07698792 
0.0 0.0 0.0 0.0 0.0 0.07698792 
0.0 0.0 0.0 0.0 0.0 0.07698792 
0.0 0.0 0.0 0.0 0.0 0.07698792 
0.0 0.0 0.0 0.0 0.0 0.07698792 
0.0 0.0 0.0 0.0 0.0 0.07698792 
0.0 0.0 0.0 0.0 0.0 0.07698792 
0.0 0.0 0.0 0.0 0.0 0.07698792 
0.0 0.0 0.0 0.0 0.0 0.07698792 
0.0 0.0 0.0 0.0 0.0 0.07698792 
0.0 0.0 0.0 0.0 0.0 0.07698792 
0.0 0.0 0.0 0.0 0.0 0.07698792 
0.0 0.0 0.0 0.0 0.0 0.07698792 
0.0 0.0 0.0 0.0 0.0 0.07698792 
0.0 0.0 0.0 0.0 0.0 0.07698792 
0.0 0.0 0.0 0.0 0.0 0.07698792 
0.0 0.0 0.0 0.0 0.0 0.07698792 
0.0 0.0 0.0 0.0 0.0 0.07698792 
0.0 0.0 0.0 0.0 0.0 0.07698792 

