0.0 0.0 0.0 0.0 0.0 0.07698792 
0.0 0.0 0.0 0.0 0.0 0.07698792 
0.0 0.0 0.0 0.0 0.0 0.07698792 
0.0 0.0 0.0 0.0 0.0 0.07698792 
0.0 0.0 0.0 0.0 0.0 0.07698792 
0.0 0.0 0.0 0.0 0.0 0.07698792 
0.0 0.0 0.0 0.0 0.0 0.06492054 
0.07602358 0.0 0.09790895 0.0 0.0 0.0 
0.18859819 0.104165345 0.120757885 0.0 0.0 0.0 
0.048223533 0.21621218 0.08699099 0.0 0.0 0.0 
0.0 0.24032056 0.10727813 0.0 0.0 0.0 
0.0 0.19617762 0.04579366 0.0 0.0420678 0.0 
0.0 0.05794862 0.0 0.0 0.00576796 0.015499279 
0.0 0.0 0.0 0.0 0.0 0.07698792 
0.0 0.0 0.0 0.0 0.0 0.07698792 
0.0 0.0 0.0 0.0 0.0 0.07698792 
0.0 0.0 0.0 0.0 0.0 0.07698792 
0.0 0.0 0.0 0.0 0.0 0.07698792 
0.0 0.0 0.0 0.0 0.0 0.07698792 
0.0 0.0 0.0 0.0 0.0 0.07698792 
0.0 0.0 0.0 0.0 0.0 0.07698792 
0.0 0.0 0.0 0.0 0.0 0.07698792 
0.0 0.0 0.0 0.0 0.0 0.07698792 
0.0 0.0 0.0 0.0 0.0 0.07698792 
0.0 0.0 0.0 0.0 0.0 0.07698792 
0.0 0.0 0.0 0.0 0.0 0.07698792 
0.0 0.0 0.0 0.0 0.0 0.07698792 
0.0 0.0 0.0 0.0 0.0 0.07698792 
0.0 0.0 0.0 0.0 0.0 0.07698792 
0.0 0.0 0.0 0.0 0.0 0.07698792 
0.0 0.0 0.0 0.0 0.0 0.07698792 
0.0 0.0 0.0 0.0 0.0 0.07698792 
0.0 0.0 0.0 0.0 0.0 0.07698792 
0.0 0.0 0.0 0.0 0.0 0.06680607 
0.1346615 0.0 0.13641998 0.0 0.0 0.0 
0.49684447 0.0 0.18916908 0.0 0.0 0.0 
0.6289728 0.19063985 0.36284578 0.0 0.0 0.0 
0.40926006 0.7323382 0.41705853 0.0 0.0 0.0 
0.0 0.90413845 0.5202462 0.0 0.28993165 0.0 
0.0 0.5108994 0.38214713 0.0 0.42638403 0.0 
0.0 0.11031258 0.052023157 0.0 0.22456874 0.0 
0.0 0.0 0.0 0.0 0.0 0.07177702 
0.0 0.0 0.0 0.0 0.0 0.07698792 
0.0 0.0 0.0 0.0 0.0 0.07698792 
0.0 0.0 0.0 0.0 0.0 0.07698792 
0.0 0.0 0.0 0.0 0.0 0.07698792 
0.0 0.0 0.0 0.0 0.0 0.07698792 
0.0 0.0 0.0 0.0 0.0 0.07698792 
0.0 0.0 0.0 0.0 0.0 0.07698792 
0.0 0.0 0.0 0.0 0.0 0.07698792 
0.0 0.0 0.0 0.0 0.0 0.07698792 
0.0 0.0 0.0 0.0 0.0 0.07698792 
0.0 0.0 0.0 0.0 0.0 0.07698792 
0.0 0.0 0.0 0.0 0.0 0.07698792 
0.0 0.0 0.0 0.0 0.0 0.07698792 
0.0 0.0 0.0 0.0 0.0 0.07698792 
0.0 0.0 0.0 0.0 0.0 0.07698792 
0.0 0.0 0.0 0.0 0.0 0.07698792 
0.0 0.0 0.0 0.0 0.0 0.07698792 
0.0 0.0 0.0 0.0 0.0 0.07698792 
0.0 0.0 0.0 0.0 0.0 0.06680607 
0.10704027 0.0 0.108115174 0.0 0.0 0.0 
0.5290376 0.0 0.1190503 0.0 0.0 0.0 
1.044385 0.0 0.21946469 0.0 0.0 0.0 
1.1440587 0.38296083 0.37932658 0.0 0.0 0.0 
0.27138236 1.2920177 0.8280747 0.0 0.5745749 0.0 
0.0 1.3164088 1.0793924 0.0 1.0715798 0.0 
0.0 0.9054298 0.9872885 0.0 0.8298518 0.0 
0.0 0.21032006 0.29081163 0.0 0.39976543 0.0 
0.0 0.0 0.0 0.0 0.0 0.07339033 
0.0 0.0 0.0 0.0 0.0 0.07698792 
0.0 0.0 0.0 0.0 0.0 0.07698792 
0.0 0.0 0.0 0.0 0.0 0.07698792 
0.0 0.0 0.0 0.0 0.0 0.07698792 
0.0 0.0 0.0 0.0 0.0 0.07698792 
0.0 0.0 0.0 0.0 0.0 0.07698792 
0.0 0.0 0.0 0.0 0.0 0.07698792 
0.0 0.0 0.0 0.0 0.0 0.07698792 
0.0 0.0 0.0 0.0 0.0 0.07698792 
0.0 0.0 0.0 0.0 0.0 0.07698792 
0.0 0.0 0.0 0.0 0.0 0.07698792 
0.0 0.0 0.0 0.0 0.0 0.07698792 
0.0 0.0 0.0 0.0 0.0 0.07698792 
0.0 0.0 0.0 0.0 0.0 0.07698792 
0.0 0.0 0.0 0.0 0.0 0.07698792 
0.0 0.0 0.0 0.0 0.0 0.07698792 
0.0 0.0 0.0 0.0 0.0 0.07698792 
0.0 0.0 0.0 0.0 0.0 0.07698792 
0.0 0.0 0.0 0.0 0.0 0.06943472 
0.3116187 0.0 0.046872653 0.0 0.0 0.029029094 
1.0859532 0.0 0.033764943 0.0 0.0 0.04459379 
1.5654712 0.0 0.0 0.027201612 0.0 0.0 
1.0989947 0.8779533 0.15515435 0.24597049 0.7201138 0.0 
0.0 1.7058018 0.8914179 0.2823599 1.5548223 0.0 
0.0 1.7050645 1.5297006 0.45312673 1.4788293 0.0 
0.0 1.0358403 1.4872183 0.35256195 0.9796979 0.0 
0.0 0.3011466 0.5895732 0.15005827 0.34282026 0.026663389 
0.0 0.0016075335 0.0 0.005237774 0.0 0.076487005 
0.0 0.0 0.0 0.0 0.0 0.07698792 
0.0 0.0 0.0 0.0 0.0 0.07698792 
0.0 0.0 0.0 0.0 0.0 0.07698792 
0.0 0.0 0.0 0.0 0.0 0.07698792 
0.0 0.0 0.0 0.0 0.0 0.07698792 
0.0 0.0 0.0 0.0 0.0 0.07698792 
0.0 0.0 0.0 0.0 0.0 0.07698792 
0.0 0.0 0.0 0.0 0.0 0.07698792 
0.0 0.0 0.0 0.0 0.0 0.07698792 
0.0 0.0 0.0 0.0 0.0 0.07698792 
0.0 0.0 0.0 0.0 0.0 0.07698792 
0.0 0.0 0.0 0.0 0.0 0.07698792 
0.0 0.0 0.0 0.0 0.0 0.07698792 
0.0 0.0 0.0 0.0 0.0 0.07698792 
0.0 0.0 0.0 0.0 0.0 0.07698792 
0.0 0.0 0.0 0.0 0.0 0.07698792 
0.0 0.0 0.0 0.0 0.0 0.07698792 
0.0 0.0 0.0 0.0 0.0 0.07397108 
0.08974011 0.0 0.033895873 0.0 0.0 0.04731226 
0.7204677 0.0 0.0 0.0 0.0 0.11706231 
1.5253611 0.0 0.0 0.09789169 0.0 0.22066736 
1.8353252 0.23396887 0.0 0.1724984 0.7795294 0.23320377 
0.9073066 1.4245061 0.0 0.39476448 1.794628 0.20810898 
0.0 1.9340491 0.49564946 0.35615113 2.1209176 0.0010808706 
0.0 1.5442122 1.3866947 0.4525094 1.630915 0.15921977 
0.0 0.6284269 1.36507 0.3123219 0.92770135 0.31020233 
0.0 0.22355734 0.65795904 0.22834109 0.17037266 0.12660617 
0.0 0.0 0.0 0.004066713 0.0 0.07954688 
0.0 0.0 0.0 0.0 0.0 0.07698792 
0.0 0.0 0.0 0.0 0.0 0.07698792 
0.0 0.0 0.0 0.0 0.0 0.07698792 
0.0 0.0 0.0 0.0 0.0 0.07698792 
0.0 0.0 0.0 0.0 0.0 0.07698792 
0.0 0.0 0.0 0.0 0.0 0.07698792 
0.0 0.0 0.0 0.0 0.0 0.07698792 
0.0 0.0 0.0 0.0 0.0 0.07698792 
0.0 0.0 0.0 0.0 0.0 0.07698792 
0.0 0.0 0.0 0.0 0.0 0.07698792 
0.0 0.0 0.0 0.0 0.0 0.07698792 
0.0 0.0 0.0 0.0 0.0 0.07698792 
0.0 0.0 0.0 0.0 0.0 0.07698792 
0.0 0.0 0.0 0.0 0.0 0.07698792 
0.0 0.0 0.0 0.0 0.0 0.07698792 
0.0 0.0 0.0 0.0 0.0 0.07698792 
0.0 0.0 0.0 0.0 0.0 0.07698792 
0.0 0.0 0.0 0.0 0.0 0.06617427 
0.3015622 0.0 0.04817228 0.0 0.0 0.054021813 
1.2398434 0.0 0.0 0.0 0.0 0.2859952 
1.950845 0.0 0.0 0.0 0.4439477 0.47383428 
1.6529577 0.7575873 0.0 0.07231881 1.5412406 0.3890822 
0.3241886 1.5387532 0.0 0.033138644 2.4695413 0.3956828 
0.0 1.7221538 0.37985593 0.17750211 2.2904713 0.39946756 
0.0 0.87287563 1.057514 0.085481025 1.4920083 0.47273684 
0.0 0.2537038 0.92976403 0.12369685 0.6226775 0.3643443 
0.0 0.0 0.3936578 0.053098515 0.08927862 0.13896821 
0.0 0.0 0.0 0.0 0.0 0.07774892 
0.0 0.0 0.0 0.0 0.0 0.07698792 
0.0 0.0 0.0 0.0 0.0 0.07698792 
0.0 0.0 0.0 0.0 0.0 0.07698792 
0.0 0.0 0.0 0.0 0.0 0.07698792 
0.0 0.0 0.0 0.0 0.0 0.07698792 
0.0 0.0 0.0 0.0 0.0 0.07698792 
0.0 0.0 0.0 0.0 0.0 0.07698792 
0.0 0.0 0.0 0.0 0.0 0.07698792 
0.0 0.0 0.0 0.0 0.0 0.07698792 
0.0 0.0 0.0 0.0 0.0 0.07698792 
0.0 0.0 0.0 0.0 0.0 0.07698792 
0.0 0.0 0.0 0.0 0.0 0.07698792 
0.0 0.0 0.0 0.0 0.0 0.07698792 
0.0 0.0 0.0 0.0 0.0 0.07698792 
0.0 0.0 0.0 0.0 0.0 0.07698792 
0.0 0.0 0.0 0.0 0.0 0.07698792 
0.0 0.0 0.0 0.0 0.0 0.07698792 
0.0 0.0 0.0 0.0 0.0 0.07920785 
0.569989 0.0 0.0 0.0 0.0 0.2310633 
1.6968939 0.0 0.0 0.01437777 0.028282885 0.51084495 
2.030295 0.012654028 0.0 0.022753477 1.008271 0.5513208 
1.0489187 1.1319587 0.0 0.064190485 2.054647 0.38110405 
0.0 1.5874302 0.0 0.0 2.6482575 0.34424692 
0.0 1.2241352 0.73188204 0.020288419 1.9547905 0.4071429 
0.0 0.40087345 0.88776267 0.0 1.0548223 0.4398179 
0.0 0.060889848 0.57526416 0.039158717 0.30806568 0.26227632 
0.0 0.0 0.09504806 0.0 0.024807949 0.09747716 
0.0 0.0 0.0 0.0 0.0 0.07698792 
0.0 0.0 0.0 0.0 0.0 0.07698792 
0.0 0.0 0.0 0.0 0.0 0.07698792 
0.0 0.0 0.0 0.0 0.0 0.07698792 
0.0 0.0 0.0 0.0 0.0 0.07698792 
0.0 0.0 0.0 0.0 0.0 0.07698792 
0.0 0.0 0.0 0.0 0.0 0.07698792 
0.0 0.0 0.0 0.0 0.0 0.07698792 
0.0 0.0 0.0 0.0 0.0 0.07698792 
0.0 0.0 0.0 0.0 0.0 0.07698792 
0.0 0.0 0.0 0.0 0.0 0.07698792 
0.0 0.0 0.0 0.0 0.0 0.07698792 
0.0 0.0 0.0 0.0 0.0 0.07698792 
0.0 0.0 0.0 0.0 0.0 0.07698792 
0.0 0.0 0.0 0.0 0.0 0.07698792 
0.0 0.0 0.0 0.0 0.0 0.07698792 
0.0 0.0 0.0 0.0 0.0 0.07698792 
0.0 0.0 0.0 0.0 0.0 0.07698792 
0.090491936 0.0 0.010996826 0.0 0.0 0.07742528 
0.94279927 0.0 0.0 0.035337802 0.0 0.3788248 
1.8888597 0.0 0.0 0.023602393 0.29189208 0.61876506 
1.8141401 0.45222703 0.0 0.11334831 1.3587801 0.445192 
0.48099154 1.5249624 0.0 0.012287159 2.22247 0.29133946 
0.0 1.7102319 0.38528818 0.0 2.2549198 0.22252911 
0.0 0.84666055 0.9860395 0.0 1.484699 0.37065512 
0.0 0.19942448 0.78900963 0.0 0.62328416 0.32586357 
0.0 0.0 0.30018377 0.0 0.09929857 0.14349762 
0.0 0.0 0.0 0.0 0.0 0.079347014 
0.0 0.0 0.0 0.0 0.0 0.07698792 
0.0 0.0 0.0 0.0 0.0 0.07698792 
0.0 0.0 0.0 0.0 0.0 0.07698792 
0.0 0.0 0.0 0.0 0.0 0.07698792 
0.0 0.0 0.0 0.0 0.0 0.07698792 
0.0 0.0 0.0 0.0 0.0 0.07698792 
0.0 0.0 0.0 0.0 0.0 0.07698792 
0.0 0.0 0.0 0.0 0.0 0.07698792 
0.0 0.0 0.0 0.0 0.0 0.07698792 
0.0 0.0 0.0 0.0 0.0 0.07698792 
0.0 0.0 0.0 0.0 0.0 0.07698792 
0.0 0.0 0.0 0.0 0.0 0.07698792 
0.0 0.0 0.0 0.0 0.0 0.07698792 
0.0 0.0 0.0 0.0 0.0 0.07698792 
0.0 0.0 0.0 0.0 0.0 0.07698792 
0.0 0.0 0.0 0.0 0.0 0.07698792 
0.0 0.0 0.0 0.0 0.0 0.07698792 
0.0 0.0 0.0 0.0 0.0 0.07698792 
0.24747002 0.0 0.002566494 0.0 0.0 0.113214836 
1.3875935 0.0 0.0 0.0 0.0 0.5306897 
2.1032522 0.0 0.0 0.0 0.6242088 0.7173728 
1.442229 0.88599133 0.0 0.0 1.6330196 0.28961235 
0.0 1.63132 0.0 0.0 2.289725 0.13704479 
0.0 1.4710687 0.9993644 0.0 1.9219542 0.15118966 
0.0 0.51674885 1.0496595 0.0 1.1803066 0.30598974 
0.0 0.045342106 0.5670281 0.013122753 0.328407 0.20678554 
0.0 0.0 0.050810568 0.0 0.004328888 0.09143852 
0.0 0.0 0.0 0.0 0.0 0.07698792 
0.0 0.0 0.0 0.0 0.0 0.07698792 
0.0 0.0 0.0 0.0 0.0 0.07698792 
0.0 0.0 0.0 0.0 0.0 0.07698792 
0.0 0.0 0.0 0.0 0.0 0.07698792 
0.0 0.0 0.0 0.0 0.0 0.07698792 
0.0 0.0 0.0 0.0 0.0 0.07698792 
0.0 0.0 0.0 0.0 0.0 0.07698792 
0.0 0.0 0.0 0.0 0.0 0.07698792 
0.0 0.0 0.0 0.0 0.0 0.07698792 
0.0 0.0 0.0 0.0 0.0 0.07698792 
0.0 0.0 0.0 0.0 0.0 0.07698792 
0.0 0.0 0.0 0.0 0.0 0.07698792 
0.0 0.0 0.0 0.0 0.0 0.07698792 
0.0 0.0 0.0 0.0 0.0 0.07698792 
0.0 0.0 0.0 0.0 0.0 0.07698792 
0.0 0.0 0.0 0.0 0.0 0.07698792 
0.0 0.0 0.0 0.0 0.0 0.07698792 
0.0 0.0 0.0 0.0 0.0 0.07698792 
0.46171468 0.0 0.0 0.0 0.0 0.25529033 
1.7019463 0.0 0.0 0.00083209295 0.07977772 0.6278937 
2.1261995 0.0 0.0 0.0 0.9738856 0.68258655 
0.94757336 1.20855 0.0 0.0 1.8390899 0.17198357 
0.0 1.7054371 0.10127518 0.0 2.2270687 0.0 
0.0 1.178055 1.3699827 0.0 1.6482936 0.18219613 
0.0 0.36499682 1.0611002 0.0 0.8770208 0.2285355 
0.0 0.0 0.34609604 0.03151383 0.10756315 0.12885752 
0.0 0.0 0.0 0.0 0.0 0.07843382 
0.0 0.0 0.0 0.0 0.0 0.07698792 
0.0 0.0 0.0 0.0 0.0 0.07698792 
0.0 0.0 0.0 0.0 0.0 0.07698792 
0.0 0.0 0.0 0.0 0.0 0.07698792 
0.0 0.0 0.0 0.0 0.0 0.07698792 
0.0 0.0 0.0 0.0 0.0 0.07698792 
0.0 0.0 0.013198227 0.0 0.0 0.04380262 
0.09133148 0.02089873 0.065864936 0.0 0.0 0.0 
0.099684194 0.09806283 0.098864086 0.0 0.0 0.0 
0.030716643 0.20545995 0.08033272 0.0 0.0 0.0 
0.0 0.19631079 0.06608047 0.0 0.0 0.0 
0.0 0.13554361 0.017901897 0.0 0.004806388 0.0 
0.0 0.043359533 0.0 0.0 0.0 0.029047627 
0.0 0.0 0.0 0.0 0.0 0.07698792 
0.0 0.0 0.0 0.0 0.0 0.07698792 
0.0 0.0 0.0 0.0 0.0 0.07698792 
0.0 0.0 0.0 0.0 0.0 0.07698792 
0.0 0.0 0.0 0.0 0.0 0.07698792 
0.0 0.0 0.0 0.0 0.0 0.07698792 
0.6689454 0.0 0.0 0.08770334 0.0 0.47815076 
1.8612041 0.0 0.0 0.11457804 0.2446536 0.83722955 
1.9248133 0.13659525 0.0 0.18824224 1.2540047 0.71903497 
0.4591819 1.4380966 0.0 0.15859693 1.8869643 0.2402169 
0.0 1.7082062 0.65535927 0.04112024 2.0641809 0.03191474 
0.0 0.89514273 1.3920666 0.023415975 1.4136676 0.3146397 
0.0 0.22800212 0.92990553 0.07788485 0.57156205 0.18981513 
0.0 0.0 0.12043371 0.0 0.011843678 0.09966375 
0.0 0.0 0.0 0.0 0.0 0.07698792 
0.0 0.0 0.0 0.0 0.0 0.07698792 
0.0 0.0 0.0 0.0 0.0 0.07698792 
0.0 0.0 0.0 0.0 0.0 0.07698792 
0.0 0.0 0.0 0.0 0.0 0.07170844 
0.03853312 0.0 0.06762544 0.0 0.0 0.004892744 
0.246661 0.028881498 0.21066266 0.0 0.0 0.0 
0.40793023 0.13743994 0.28120595 0.0 0.0 0.0 
0.5390256 0.29104093 0.44099906 0.0 0.0 0.0 
0.6111645 0.5579104 0.5591868 0.0 0.0 0.0 
0.4009335 0.885118 0.673039 0.0 0.0 0.0 
0.0 0.9125816 0.5558761 0.0 0.21399353 0.0 
0.0 0.6294779 0.4180603 0.0 0.2879781 0.0 
0.0 0.29514244 0.1519759 0.0 0.21768172 0.0 
0.0 0.10508525 0.0 0.0 0.03573903 0.0 
0.0 0.0023978734 0.0 0.0 0.0 0.06708721 
0.0 0.0 0.0 0.0 0.0 0.07698792 
0.0 0.0 0.0 0.0 0.0 0.07698792 
0.0 0.0 0.0 0.0 0.0 0.07698792 
0.0 0.0 0.0 0.0 0.0 0.07698792 
0.8065401 0.0 0.0 0.11812174 0.0026173405 0.7009492 
1.8999865 0.0 0.0 0.17203662 0.5066031 1.1418619 
1.7346418 0.24348167 0.0 0.18531615 1.4028927 0.7484839 
0.19353199 1.5027382 0.0 0.10217593 1.7809592 0.26006353 
0.0 1.5346555 1.1308434 0.0 1.7894942 0.0 
0.0 0.6922275 1.3212175 0.0 1.1934211 0.14598131 
0.0 0.17874569 0.73625827 0.006034714 0.35027355 0.10404174 
0.0 0.0 0.0 0.0 0.0 0.08288858 
0.0 0.0 0.0 0.0 0.0 0.07698792 
0.0 0.0 0.0 0.0 0.0 0.07698792 
0.0 0.0 0.0 0.0 0.0 0.07698792 
0.0 0.0 0.0 0.0 0.0 0.059263952 
0.106900334 0.0 0.10557596 0.0 0.0 0.0 
0.3956303 0.0 0.18021506 0.0 0.0 0.0 
0.702816 0.046801813 0.31326443 0.0 0.0 0.0 
0.9883928 0.26770726 0.41571492 0.0 0.0 0.0 
0.9064096 0.67226577 0.58197874 0.0 0.0 0.0 
0.5771373 0.82608455 0.85884464 0.0 0.327333 0.0 
0.3076011 1.0749383 1.1587923 0.0 0.5817597 0.0 
0.0 1.3729986 1.2400805 0.0 0.7841018 0.0 
0.0 1.2544738 1.0962182 0.0 0.7635686 0.0 
0.0 0.77121973 0.70055157 0.0 0.6185615 0.0 
0.0 0.21432318 0.14948523 0.0 0.34540185 0.0 
0.0 0.025850944 0.0 0.0 0.0030302592 0.037844904 
0.0 0.0 0.0 0.0 0.0 0.07698792 
0.0 0.0 0.0 0.0 0.0 0.07698792 
0.0 0.0 0.0 0.0 0.0 0.07698792 
0.0 0.0 0.0 0.0 0.0 0.07698792 
0.7759711 0.0 0.0 0.10204895 0.26112416 0.7805095 
1.7591629 0.0 0.0 0.16334045 0.6757769 1.319741 
1.553246 0.14532207 0.0 0.06632587 1.1707577 0.7092443 
0.28505176 1.3208742 0.0 0.0 1.4416872 0.17552656 
0.0 1.5038503 1.4114357 0.0 1.4217836 0.0 
0.0 0.83034134 1.4101673 0.0 1.0661907 0.0 
0.0 0.12168473 0.52651846 0.0 0.4074088 0.0 
0.0 0.0 0.0 0.0 0.0 0.07283081 
0.0 0.0 0.0 0.0 0.0 0.07698792 
0.0 0.0 0.0 0.0 0.0 0.07698792 
0.0 0.0 0.0 0.0 0.0 0.07170844 
0.10533945 0.0 0.09341391 0.0 0.0 0.0 
0.4964224 0.0 0.16053471 0.0 0.0 0.0 
0.9379297 0.0 0.20714098 0.0 0.0 0.0 
1.2219334 0.1278882 0.25167105 0.0 0.0 0.0 
0.9280128 0.60794055 0.3731966 0.0 0.52893144 0.0 
0.39682725 0.859282 0.530196 0.46795848 1.3364421 0.0 
0.10741481 0.88240874 0.6931677 0.96475303 1.5564152 0.22798945 
0.17769438 0.76650286 1.0785978 1.1208104 1.2539536 0.26147848 
0.06883234 1.2537447 1.5194516 0.98651916 1.0549669 0.0 
0.0 1.5927702 1.677207 0.52243716 1.0075768 0.0 
0.0 1.3037193 1.5011976 0.0 0.88324636 0.0 
0.0 0.5424878 0.61041933 0.0 0.61222625 0.0 
0.0 0.08852859 0.03424672 0.0 0.120363265 0.0 
0.0 0.0 0.0 0.0 0.0 0.07698792 
0.0 0.0 0.0 0.0 0.0 0.07698792 
0.0 0.0 0.0 0.0 0.0 0.07698792 
0.0 0.0 0.0 0.0 0.0 0.07698792 
0.61081845 0.0 0.0 0.031697024 0.35949197 0.6664447 
1.5653172 0.0 0.0 0.040848333 0.6641625 1.2991476 
1.5145159 0.0 0.0 0.0 0.79863334 0.7525912 
0.5699399 0.9297941 0.0 0.0 1.0356987 0.0 
0.0 1.5223407 1.5040585 0.0 1.2347264 0.0 
0.0 1.160131 1.7528578 0.0 1.1557373 0.0 
0.0 0.2840939 0.5674464 0.0 0.5806859 0.0 
0.0 0.057067752 0.0 0.0 0.018360797 0.012782536 
0.0 0.0 0.0 0.0 0.0 0.07698792 
0.0 0.0 0.0 0.0 0.0 0.07698792 
0.095192015 0.0 0.1338898 0.0 0.0 0.0 
0.54625124 0.0 0.122313984 0.0 0.0 0.0 
1.0129418 0.0 0.17340487 0.0 0.0 0.0 
1.4283483 0.1475982 0.088507645 0.0 0.0 0.0 
1.1031947 0.8600439 0.09525279 0.19085278 0.89400816 0.0 
0.36961153 1.276446 0.15006426 0.6322496 1.9482089 0.3035611 
0.0 1.4271275 0.1838986 1.0204858 2.2766764 0.8708055 
0.0 0.9114797 0.07305881 1.2094747 2.0170157 1.4295256 
0.43657959 0.45182088 0.04889015 1.1879325 1.2115952 1.4796505 
0.5069461 0.82475454 0.6134725 0.942138 0.83266914 0.6211259 
0.0 1.4716626 1.3439715 0.6924522 0.94216365 0.0 
0.0 1.6290694 1.9626201 0.352395 0.91046846 0.0 
0.0 0.98580176 1.2703966 0.0 0.796117 0.0 
0.0 0.17485386 0.19280764 0.0 0.29716548 0.0 
0.0 0.0 0.0 0.0 0.0 0.07698792 
0.0 0.0 0.0 0.0 0.0 0.07698792 
0.0 0.0 0.0 0.0 0.0 0.07698792 
0.0 0.0 0.0 0.0 0.0 0.07698792 
0.36950102 0.0 0.0 0.0 0.319685 0.4565698 
1.2974479 0.0 0.0 0.0 0.57742995 1.1781461 
1.5828333 0.0 0.0 0.049957987 0.5666769 1.023731 
0.8510943 0.6041502 0.0 0.035850767 0.79261905 0.13083732 
0.0 1.4922724 1.3399599 0.150475 1.1679136 0.0 
0.0 1.485528 2.1369045 0.0 1.2283913 0.0 
0.0 0.80799294 1.0562451 0.0 0.71606386 0.0 
0.0 0.12528752 0.07099367 0.0 0.22566827 0.0 
0.0 0.0029589916 0.0 0.0 0.0 0.06656612 
0.0 0.0 0.0011522733 0.0 0.0 0.049459204 
0.33730236 0.0 0.055999056 0.0 0.0 0.0 
1.0928032 0.0 0.091902964 0.0 0.0 0.0 
1.5659394 0.00616414 0.0 0.0 0.0 0.0 
1.2892556 0.77052075 0.0 0.227041 1.0764035 0.004942775 
0.45083147 1.2637032 0.0 0.32857734 2.407787 0.4275409 
0.0 1.422523 0.0 0.48640642 2.6491787 0.8776093 
0.0 0.91897064 0.0 0.26968196 2.3283389 1.254616 
0.030843109 0.19768567 0.0 0.031268902 1.7364916 1.5190132 
0.9195882 0.0 0.0 0.0 1.1190568 1.6958325 
1.0600946 0.0 0.0 0.0 0.8011615 0.98755485 
0.20127708 0.9078054 0.093497895 0.0 1.0155636 0.0 
0.0 1.4651666 1.606943 0.09422168 1.1433917 0.0 
0.0 1.1512598 1.7639358 0.0 1.0437773 0.0 
0.0 0.30023605 0.45195264 0.0 0.471211 0.0 
0.0 0.0 0.0 0.0 0.0 0.07698792 
0.0 0.0 0.0 0.0 0.0 0.07698792 
0.0 0.0 0.0 0.0 0.0 0.07698792 
0.0 0.0 0.0 0.0 0.0 0.07698792 
0.14703532 0.0 0.0 0.0 0.17269373 0.26011243 
0.9709411 0.0 0.0 0.046217408 0.51693773 0.98243004 
1.5810151 0.0 0.0 0.17798913 0.6610568 1.2887788 
1.1882136 0.16795951 0.0 0.18996775 0.7716811 0.5585438 
0.17984897 1.2227323 0.7584138 0.23010394 0.99762565 0.0 
0.0 1.730048 2.2080417 0.06350465 1.1841177 0.0 
0.0 1.2758138 1.7358471 0.0 0.93811756 0.0 
0.0 0.4660007 0.45680684 0.0 0.45259276 0.0 
0.0 0.11671931 0.00092282146 0.0 0.076903164 0.0 
0.09808481 0.0 0.07276007 0.0 0.0 0.010742754 
0.83079606 0.0 0.0 0.0 0.0 0.103254184 
1.5750275 0.0 0.0 0.013855142 0.0 0.12780136 
1.7050672 0.39296257 0.0 0.16897544 0.9369646 0.06582397 
0.7296404 1.3739692 0.0 0.2568956 2.1792777 0.30627847 
0.0 1.5854505 0.0 0.16619436 2.6796224 0.5386192 
0.0 1.0181715 0.0 0.0 2.2413304 0.85058427 
0.0 0.26315147 0.0 0.0 1.3553432 0.81034666 
0.0 0.0 0.0 0.0 0.87131155 0.75463384 
1.1148987 0.0 0.0 0.0 0.707619 1.1070528 
1.5815234 0.0 0.0 0.0 0.68787503 0.8511467 
0.53249055 0.7796445 0.0 0.0 1.0868858 0.0 
0.0 1.4486461 1.0549984 0.0 1.3254937 0.0 
0.0 1.2202468 1.9674553 0.036791306 1.2242805 0.0 
0.0 0.36355114 0.7349227 0.0 0.59268457 0.0 
0.0 0.0 0.0 0.0 0.0 0.07698792 
0.0 0.0 0.0 0.0 0.0 0.07698792 
0.0 0.0 0.0 0.0 0.0 0.07698792 
0.0 0.0 0.0 0.0 0.0 0.07698792 
0.007206574 0.0 0.0 0.0 0.02694178 0.14574972 
0.6611898 0.0 0.0 0.028936788 0.47457746 0.76956594 
1.425041 0.0 0.0 0.07917026 0.7768624 1.3914008 
1.3992634 0.0 0.0 0.21954606 0.712524 1.0306301 
0.7539713 0.6641171 0.0 0.19880944 0.80299866 0.25884563 
0.0 1.5999007 1.9491848 0.21295378 1.0267304 0.0 
0.0 1.7036961 2.2182689 0.0 1.0784758 0.0 
0.0 1.1211087 1.2197391 0.0 0.72218204 0.0 
0.0 0.3704195 0.28639126 0.0 0.3882113 0.0 
0.15134543 0.0 0.0 0.0 0.0 0.011362113 
1.1931682 0.0 0.0 0.20723738 0.0 0.5043229 
2.0231366 0.0 0.0 0.1892606 0.45499066 0.669301 
1.5759599 0.9387439 0.0 0.21047047 1.4501718 0.31220537 
0.44684952 1.6979268 0.0 0.0 2.2022316 0.0 
0.0 1.8213594 0.7851829 0.0 1.9969114 0.0 
0.0 1.0538435 0.8365863 0.0 1.2912954 0.0 
0.0 0.44206354 0.775508 0.0 0.49650624 0.0 
0.2103439 0.052416362 0.44826847 0.0 0.10901368 0.0 
1.3705165 0.0 0.0 0.0 0.25087044 0.24679849 
1.8619711 0.0 0.0 0.0 0.6977955 0.43220004 
0.5462452 1.1495769 0.0 0.0 1.2806983 0.0 
0.0 1.5554084 0.71863985 0.041641098 1.5137111 0.0 
0.0 1.0935975 1.8856952 0.19879624 1.314663 0.08545016 
0.0 0.33040532 0.9241271 0.094106026 0.54613215 0.0023856908 
0.0 0.0 0.0 0.0 0.0 0.07698792 
0.0 0.0 0.0 0.0 0.0 0.07698792 
0.0 0.0 0.0 0.0 0.0 0.07698792 
0.0 0.0 0.0 0.0 0.0 0.07698792 
0.0 0.0 0.0 0.0 0.0 0.09617308 
0.3768518 0.0 0.0 0.0 0.38648096 0.47131208 
1.085783 0.0 0.0 0.0 0.77285445 1.209388 
1.3371084 0.0 0.0 0.1509288 0.8740166 1.4277439 
1.1092699 0.0 0.0 0.34900483 0.89049286 0.9692539 
0.3409282 0.8598251 0.89318985 0.56576246 0.9215598 0.16969651 
0.0 1.5512484 2.3563342 0.3129314 1.0667732 0.0 
0.0 1.6592354 2.1404295 0.0 0.84266937 0.0 
0.0 1.1642569 1.2546926 0.0 0.511675 0.0 
0.24287808 0.23610976 0.33926857 0.0 0.19557218 0.0 
1.4456162 0.0 0.0 0.0 0.3341178 0.13626343 
2.0817165 0.0 0.0 0.0 1.0183583 0.49562672 
1.4628897 0.89853925 0.0 0.0 1.5527757 0.19539538 
0.4315861 1.6534444 0.32208997 0.0 1.7122334 0.0 
0.0 1.573174 1.6147379 0.0 1.4093186 0.0 
0.0 1.336455 1.8481976 0.0 0.9835265 0.0 
0.0 0.9742786 1.3073703 0.0 0.48032585 0.0 
0.32976484 0.4986528 0.859412 0.0 0.19850726 0.0 
1.4067843 0.054142743 0.0 0.0 0.6477382 0.0 
1.561804 0.6338777 0.0 0.0 1.4086006 0.21639445 
0.0 1.4266926 0.0 0.0 1.8766474 0.0 
0.0 1.3218675 0.5779868 0.108799174 1.7075788 0.11712146 
0.0 0.7152451 1.5634867 0.28929436 1.1617018 0.37046888 
0.0 0.2507312 0.9044235 0.22314945 0.33711144 0.10710345 
0.0 0.0 0.0 0.0 0.0 0.07698792 
0.0 0.0 0.0 0.0 0.0 0.07698792 
0.0 0.0 0.0 0.0 0.0 0.07698792 
0.0 0.0 0.0 0.0 0.0 0.07698792 
0.0 0.0 0.0 0.0 0.0 0.07698792 
0.11229251 0.0 0.0 0.0 0.17337818 0.2227179 
0.70647794 0.0 0.0 0.0 0.62415355 0.8254394 
1.1273222 0.0 0.0 0.05126302 0.9758238 1.3879852 
1.0360057 0.0 0.0 0.3871052 0.98656136 1.4660146 
0.76160127 0.0 0.0 0.6774051 1.002198 1.1292422 
0.27348417 0.9324233 1.3480139 0.95291835 0.86443424 0.28000668 
0.0 1.4096752 2.2887692 0.5647604 0.7656102 0.0 
0.0 1.5611477 2.1130846 0.0 0.60480803 0.0 
0.48220694 1.064997 1.1815909 0.0 0.5852034 0.0 
1.3163176 0.4098697 0.0 0.0 1.0045364 0.0 
1.6877675 0.48426053 0.0 0.0 1.4499948 0.17102182 
1.2953792 0.86709386 0.0 0.0 1.6954 0.06577376 
0.42720407 1.3668483 0.7304971 0.0 1.6265635 0.0 
0.020718083 1.3150126 1.9746505 0.019316223 1.5992134 0.0 
0.0 1.493362 2.295121 0.009050933 1.2693127 0.0 
0.15679497 1.2276843 1.8264502 0.0 0.97672766 0.0 
0.58655524 1.0396055 1.2761453 0.0 0.9360036 0.0 
0.91528225 0.812542 0.39288858 0.007590425 1.6386052 0.0 
0.5228018 1.0600958 0.0 0.17868672 2.407651 0.3790266 
0.0 1.3942983 0.0 0.3189005 2.1662529 0.39284858 
0.0 0.90053827 0.53334713 0.2655487 1.4507426 0.51576746 
0.0 0.36000293 1.0905483 0.24507579 0.7422369 0.46637365 
0.0 0.056436412 0.62202793 0.12094178 0.16664346 0.14207372 
0.0 0.0 0.0 0.0 0.0 0.07698792 
0.0 0.0 0.0 0.0 0.0 0.07698792 
0.0 0.0 0.0 0.0 0.0 0.07698792 
0.0 0.0 0.0 0.0 0.0 0.07698792 
0.0 0.0 0.0 0.0 0.0 0.07698792 
0.0 0.0 0.0 0.0 0.004149232 0.10421847 
0.32931888 0.0 0.0 0.0 0.3736718 0.42704856 
0.80484456 0.0 0.0 0.0 0.83859175 1.0120529 
1.0003164 0.0 0.0 0.0 1.1105703 1.4737446 
0.90164834 0.0 0.0 0.28824285 1.0921365 1.6367226 
0.5196686 0.0 0.0 0.75936854 1.1022185 1.3409202 
0.34334913 0.45597857 0.9135923 1.2457545 1.0003191 0.7696412 
0.24315977 0.8970566 1.861694 1.2229047 0.9208678 0.095270246 
0.5497296 0.96787685 1.6488738 0.69299644 1.1782242 0.0 
1.2338965 0.77222276 0.5616478 0.13479589 1.5866566 0.02371277 
1.4287074 0.8389315 0.0 0.0 1.950749 0.18050504 
1.1022167 1.1809185 0.0 0.0 2.0319397 0.21453813 
0.606428 1.3565112 0.45610344 0.05863509 2.040981 0.25683436 
0.2904372 1.6963128 1.3407692 0.46891597 2.020561 0.21137929 
0.0 1.6557636 1.6198115 0.640259 1.8624895 0.02014605 
0.05071111 1.5690777 1.58073 1.0293875 1.6710324 0.116365984 
0.22562528 1.3244026 1.2063756 1.2562764 1.9983262 0.57484525 
0.07897575 1.3204772 0.48977733 1.2286785 2.4547257 0.92809397 
0.0 1.2372131 0.0 0.84235543 2.391864 0.9721449 
0.0 0.995668 0.117091306 0.5373059 1.5982515 0.77089655 
0.0 0.46496725 0.5358013 0.2088728 0.8221802 0.59593475 
0.0 0.10692144 0.63317287 0.07678737 0.34384114 0.3602982 
0.0 0.0 0.24911982 0.0 0.0657323 0.11572884 
0.0 0.0 0.0 0.0 0.0 0.07698792 
0.0 0.0 0.0 0.0 0.0 0.07698792 
0.0 0.0 0.0 0.0 0.0 0.07698792 
0.0 0.0 0.0 0.0 0.0 0.07698792 
0.0 0.0 0.0 0.0 0.0 0.07698792 
0.0 0.0 0.0 0.0 0.0 0.07698792 
0.069168344 0.0 0.0 0.0 0.15919837 0.17167597 
0.3749463 0.0 0.0 0.0 0.4836742 0.44598442 
0.70992994 0.0 0.0 0.0 0.8443604 0.90729886 
0.89908653 0.0 0.0 0.0 1.1759318 1.4314547 
0.74453527 0.0 0.0 0.1357935 1.2069719 1.6493573 
0.48330975 0.0 0.0 0.7355039 1.2728105 1.6322334 
0.3413231 0.25816715 0.0024114177 1.402208 1.2899911 1.515671 
0.47192448 0.51154435 0.64854455 1.7154232 1.4300262 1.3575354 
0.82067114 0.6620044 0.3780572 1.7167358 1.862964 1.4445343 
0.90295273 0.7355298 0.0 1.4826118 2.2935598 1.5698473 
0.7056465 0.7533699 0.0 1.2301575 2.5883472 1.6540201 
0.5601389 0.6815441 0.0 1.1050844 2.7704208 1.7898688 
0.27357924 0.75848836 0.0 1.1362073 2.8716176 1.733057 
0.0 0.97076684 0.03796774 1.2924981 2.6534913 1.5663531 
0.0 0.89664364 0.25191998 1.247097 2.6458247 1.5607972 
0.0 0.875964 0.13346738 1.1548746 2.6256719 1.5793805 
0.0 0.7949478 0.0 0.80419487 2.2537043 1.371872 
0.0 0.77373445 0.0 0.43257585 1.5099062 1.085015 
0.0 0.35718292 0.15797096 0.06686704 0.81237584 0.7154195 
0.0 0.027115963 0.36078042 0.0 0.39189878 0.42370698 
0.0 0.0 0.2472972 0.0 0.14297529 0.19229577 
0.0 0.0 0.01887162 0.0 0.0 0.087163545 
0.0 0.0 0.0 0.0 0.0 0.07698792 
0.0 0.0 0.0 0.0 0.0 0.07698792 
0.0 0.0 0.0 0.0 0.0 0.07698792 
0.0 0.0 0.0 0.0 0.0 0.07698792 
0.0 0.0 0.0 0.0 0.0 0.07698792 
0.0 0.0 0.0 0.0 0.0 0.07698792 
0.0 0.0 0.0 0.0 0.0 0.07698792 
0.029460117 0.0 0.0 0.0 0.09803221 0.1450643 
0.29356533 0.0 0.0 0.0 0.4126636 0.36636698 
0.5811433 0.0 0.0 0.0 0.739386 0.73357207 
0.7724964 0.0 0.0 0.0 1.109733 1.2122674 
0.7308505 0.0 0.0 0.0 1.3649472 1.563981 
0.60460645 0.0 0.0 0.04888657 1.5412042 1.7681463 
0.4862029 0.0 0.0 0.54824364 1.7258836 1.8891017 
0.47435325 0.018830776 0.0 0.8936777 2.0412428 1.930176 
0.49349695 0.19898316 0.0 1.1032559 2.245207 1.9877439 
0.4454354 0.27141753 0.0 1.1253028 2.3541634 2.0025496 
0.40600115 0.28876126 0.0 1.0757898 2.4180818 2.046209 
0.20285892 0.38233343 0.0 1.0048056 2.3832994 1.9218085 
0.055566594 0.4986045 0.0 0.8418592 2.305506 1.8046043 
0.0 0.5352132 0.0 0.5507307 2.1129081 1.7382221 
0.0 0.40689924 0.0 0.11518588 1.7702028 1.4791629 
0.0 0.21674049 0.0 0.0 1.2207941 1.0701613 
0.0 0.0 0.0 0.0 0.6753463 0.6635579 
0.0 0.0 0.084397115 0.0 0.36295626 0.39471126 
0.0 0.0 0.12489175 0.0 0.16320205 0.1971302 
0.0 0.0 0.007372983 0.0 0.0103224255 0.094349265 
0.0 0.0 0.0 0.0 0.0 0.07797722 
0.0 0.0 0.0 0.0 0.0 0.07698792 
0.0 0.0 0.0 0.0 0.0 0.07698792 
0.0 0.0 0.0 0.0 0.0 0.07698792 
0.0 0.0 0.0 0.0 0.0 0.07698792 
0.0 0.0 0.0 0.0 0.0 0.07698792 
0.0 0.0 0.0 0.0 0.0 0.07698792 
0.0 0.0 0.0 0.0 0.0 0.07698792 
0.0 0.0 0.0 0.0 0.0 0.07698792 
0.0 0.0 0.0 0.0 0.038288493 0.1190715 
0.17609742 0.0 0.0 0.0 0.30258536 0.2556116 
0.39209175 0.0 0.0 0.0 0.58161026 0.47519052 
0.50843525 0.0 0.0 0.0 0.84804463 0.74496126 
0.540247 0.0 0.0 0.0 1.1143686 1.0768213 
0.5163069 0.0 0.0 0.0 1.3469683 1.3763089 
0.41931736 0.0 0.0 0.0 1.4615046 1.5457623 
0.36449713 0.0 0.0 0.0 1.499178 1.646241 
0.29905024 0.0004491713 0.0 0.0 1.5173453 1.6886067 
0.2687685 0.020813257 0.0 0.0 1.519113 1.6859467 
0.1618731 0.012611686 0.0 0.0 1.4768463 1.5539403 
0.007244244 0.0 0.0 0.0 1.3371624 1.2919486 
0.0 0.0 0.0 0.0 1.1334661 1.0145445 
0.0 0.0 0.0 0.0 0.82288796 0.69737655 
0.0 0.0 0.0 0.0 0.4767439 0.41621554 
0.0 0.0 0.0 0.0 0.2631473 0.26085496 
0.0 0.0 0.0154109 0.0 0.10914709 0.15522316 
0.0 0.0 0.0008546226 0.0 0.0 0.08444569 
0.0 0.0 0.0 0.0 0.0 0.07698792 
0.0 0.0 0.0 0.0 0.0 0.07698792 
0.0 0.0 0.0 0.0 0.0 0.07698792 
0.0 0.0 0.0 0.0 0.0 0.07698792 
0.0 0.0 0.0 0.0 0.0 0.07698792 
0.0 0.0 0.0 0.0 0.0 0.07698792 
0.0 0.0 0.0 0.0 0.0 0.07698792 
0.0 0.0 0.0 0.0 0.0 0.07698792 
0.0 0.0 0.0 0.0 0.0 0.07698792 
0.0 0.0 0.0 0.0 0.0 0.07698792 
0.0 0.0 0.0 0.0 0.0 0.07698792 
0.0 0.0 0.0 0.0 0.0 0.08441444 
0.015943669 0.0 0.0 0.0 0.07596287 0.13710621 
0.12033871 0.0 0.0 0.0 0.23774858 0.21611057 
0.22619739 0.0 0.0 0.0 0.45808348 0.31410342 
0.28900683 0.0 0.0 0.0 0.66317064 0.42858517 
0.25236243 0.0 0.0 0.0 0.80701804 0.49260303 
0.2080862 0.0 0.0 0.0 0.900587 0.5477873 
0.1589112 0.0 0.0 0.0 0.9567321 0.56996727 
0.13516572 0.0 0.0 0.0 0.95726985 0.5670135 
0.034970284 0.0 0.0 0.0 0.80438095 0.49882576 
0.0 0.0 0.0 0.0 0.57386 0.3859678 
0.0 0.0 0.0 0.0 0.37231874 0.29638615 
0.0 0.0 0.0 0.0 0.19459899 0.19479562 
0.0 0.0 0.0 0.0 0.053786818 0.122411005 
0.0 0.0 0.0 0.0 0.0 0.09121488 
0.0 0.0 0.0 0.0 0.0 0.07828162 
0.0 0.0 0.0 0.0 0.0 0.07698792 
0.0 0.0 0.0 0.0 0.0 0.07698792 
0.0 0.0 0.0 0.0 0.0 0.07698792 
0.0 0.0 0.0 0.0 0.0 0.07698792 
0.0 0.0 0.0 0.0 0.0 0.07698792 
0.0 0.0 0.0 0.0 0.0 0.07698792 
0.0 0.0 0.0 0.0 0.0 0.07698792 
0.0 0.0 0.0 0.0 0.0 0.07698792 
0.0 0.0 0.0 0.0 0.0 0.07698792 
0.0 0.0 0.0 0.0 0.0 0.07698792 
0.0 0.0 0.0 0.0 0.0 0.07698792 
0.0 0.0 0.0 0.0 0.0 0.07698792 
0.0 0.0 0.0 0.0 0.0 0.07698792 
0.0 0.0 0.0 0.0 0.0 0.07698792 
0.0 0.0 0.0 0.0 0.0 0.07698792 
0.0 0.0 0.0 0.0 0.0 0.07698792 
0.0 0.0 0.0 0.0 0.0 0.07698792 
0.0 0.0 0.0 0.0 0.0 0.07698792 
0.0 0.0 0.0 0.0 0.0 0.07698792 
0.0 0.0 0.0 0.0 0.0 0.07698792 
0.0 0.0 0.0 0.0 0.0 0.07698792 
0.0 0.0 0.0 0.0 0.0 0.07698792 
0.0 0.0 0.0 0.0 0.0 0.07698792 
0.0 0.0 0.0 0.0 0.0 0.07698792 
0.0 0.0 0.0 0.0 0.0 0.07698792 
0.0 0.0 0.0 0.0 0.0 0.07698792 
0.0 0.0 0.0 0.0 0.0 0.07698792 
0.0 0.0 0.0 0.0 0.0 0.07698792 
0.0 0.0 0.0 0.0 0.0 0.07698792 
0.0 0.0 0.0 0.0 0.0 0.07698792 
0.0 0.0 0.0 0.0 0.0 0.07698792 
0.0 0.0 0.0 0.0 0.0 0.07698792 
0.0 0.0 0.0 0.0 0.0 0.07698792 
0.0 0.0 0.0 0.0 0.0 0.07698792 
0.0 0.0 0.0 0.0 0.0 0.07698792 
0.0 0.0 0.0 0.0 0.0 0.07698792 
0.0 0.0 0.0 0.0 0.0 0.07698792 
0.0 0.0 0.0 0.0 0.0 0.07698792 
0.0 0.0 0.0 0.0 0.0 0.07698792 
0.0 0.0 0.0 0.0 0.0 0.07698792 
0.0 0.0 0.0 0.0 0.0 0.07698792 
0.0 0.0 0.0 0.0 0.0 0.07698792 
0.0 0.0 0.0 0.0 0.0 0.07698792 
0.0 0.0 0.0 0.0 0.0 0.07698792 
0.0 0.0 0.0 0.0 0.0 0.07698792 
0.0 0.0 0.0 0.0 0.0 0.07698792 
0.0 0.0 0.0 0.0 0.0 0.07698792 
0.0 0.0 0.0 0.0 0.0 0.07698792 
0.0 0.0 0.0 0.0 0.0 0.07698792 
0.0 0.0 0.0 0.0 0.0 0.07698792 
0.0 0.0 0.0 0.0 0.0 0.07698792 
0.0 0.0 0.0 0.0 0.0 0.07698792 
0.0 0.0 0.0 0.0 0.0 0.07698792 
0.0 0.0 0.0 0.0 0.0 0.07698792 
0.0 0.0 0.0 0.0 0.0 0.07698792 
0.0 0.0 0.0 0.0 0.0 0.07698792 
0.0 0.0 0.0 0.0 0.0 0.07698792 
0.0 0.0 0.0 0.0 0.0 0.07698792 
0.0 0.0 0.0 0.0 0.0 0.07698792 
0.0 0.0 0.0 0.0 0.0 0.07698792 
0.0 0.0 0.0 0.0 0.0 0.07698792 
0.0 0.0 0.0 0.0 0.0 0.07698792 
0.0 0.0 0.0 0.0 0.0 0.07698792 
0.0 0.0 0.0 0.0 0.0 0.07698792 
0.0 0.0 0.0 0.0 0.0 0.07698792 
0.0 0.0 0.0 0.0 0.0 0.07698792 
0.0 0.0 0.0 0.0 0.0 0.07698792 
0.0 0.0 0.0 0.0 0.0 0.07698792 
0.0 0.0 0.0 0.0 0.0 0.07698792 
0.0 0.0 0.0 0.0 0.0 0.07698792 
0.0 0.0 0.0 0.0 0.0 0.07698792 
0.0 0.0 0.0 0.0 0.0 0.07698792 
0.0 0.0 0.0 0.0 0.0 0.07698792 
0.0 0.0 0.0 0.0 0.0 0.07698792 
0.0 0.0 0.0 0.0 0.0 0.07698792 
0.0 0.0 0.0 0.0 0.0 0.07698792 
0.0 0.0 0.0 0.0 0.0 0.07698792 
0.0 0.0 0.0 0.0 0.0 0.07698792 
0.0 0.0 0.0 0.0 0.0 0.07698792 
0.0 0.0 0.0 0.0 0.0 0.07698792 
0.0 0.0 0.0 0.0 0.0 0.07698792 
0.0 0.0 0.0 0.0 0.0 0.07698792 
0.0 0.0 0.0 0.0 0.0 0.07698792 
0.0 0.0 0.0 0.0 0.0 0.07698792 
0.0 0.0 0.0 0.0 0.0 0.07698792 
0.0 0.0 0.0 0.0 0.0 0.07698792 
0.0 0.0 0.0 0.0 0.0 0.07698792 
0.0 0.0 0.0 0.0 0.0 0.07698792 
0.0 0.0 0.0 0.0 0.0 0.07698792 
0.0 0.0 0.0 0.0 0.0 0.07698792 
0.0 0.0 0.0 0.0 0.0 0.07698792 
0.0 0.0 0.0 0.0 0.0 0.07698792 
0.0 0.0 0.0 0.0 0.0 0.07698792 
0.0 0.0 0.0 0.0 0.0 0.07698792 
0.0 0.0 0.0 0.0 0.0 0.07698792 
0.0 0.0 0.0 0.0 0.0 0.07698792 
0.0 0.0 0.0 0.0 0.0 0.07698792 
0.0 0.0 0.0 0.0 0.0 0.07698792 
0.0 0.0 0.0 0.0 0.0 0.07698792 
0.0 0.0 0.0 0.0 0.0 0.07698792 
0.0 0.0 0.0 0.0 0.0 0.07698792 
0.0 0.0 0.0 0.0 0.0 0.07698792 
0.0 0.0 0.0 0.0 0.0 0.07698792 
0.0 0.0 0.0 0.0 0.0 0.07698792 
0.0 0.0 0.0 0.0 0.0 0.07698792 
0.0 0.0 0.0 0.0 0.0 0.07698792 
0.0 0.0 0.0 0.0 0.0 0.07698792 
0.0 0.0 0.0 0.0 0.0 0.07698792 
0.0 0.0 0.0 0.0 0.0 0.07698792 
0.0 0.0 0.0 0.0 0.0 0.07698792 
0.0 0.0 0.0 0.0 0.0 0.07698792 
0.0 0.0 0.0 0.0 0.0 0.07698792 
0.0 0.0 0.0 0.0 0.0 0.07698792 
0.0 0.0 0.0 0.0 0.0 0.07698792 
0.0 0.0 0.0 0.0 0.0 0.07698792 
0.0 0.0 0.0 0.0 0.0 0.07698792 

