0.0 0.0 0.0 0.0 0.0 0.07698792 
0.0 0.0 0.0 0.0 0.0 0.07698792 
0.0 0.0 0.0 0.0 0.0 0.07698792 
0.0 0.0 0.0 0.0 0.0 0.07698792 
0.0 0.0 0.0 0.0 0.0 0.07698792 
0.0 0.0 0.0 0.0 0.0 0.07698792 
0.0 0.0 0.0 0.0 0.0 0.07698792 
0.0 0.0 0.0 0.0 0.0 0.07698792 
0.0 0.0 0.0 0.0 0.0 0.07698792 
0.0 0.0 0.0 0.0 0.0 0.07698792 
0.0 0.0 0.0 0.0 0.0 0.07698792 
0.0 0.0 0.0 0.0 0.0 0.07698792 
0.0 0.0 0.0 0.0 0.0 0.07698792 
0.0 0.0 0.0 0.0 0.0 0.07698792 
0.0 0.0 0.0 0.0 0.0 0.07698792 
0.0 0.0 0.0 0.0 0.0 0.07698792 
0.0 0.0 0.0 0.0 0.0 0.07698792 
0.0 0.0 0.0 0.0 0.0 0.07698792 
0.0 0.0 0.0 0.0 0.0 0.07698792 
0.0 0.0 0.0 0.0 0.0 0.07698792 
0.0 0.0 0.0 0.0 0.0 0.07698792 
0.0 0.0 0.0 0.0 0.0 0.07698792 
0.0 0.0 0.0 0.0 0.0 0.07698792 
0.0 0.0 0.0 0.0 0.0 0.07698792 
0.0 0.0 0.0 0.0 0.0 0.07698792 
0.0 0.0 0.0 0.0 0.0 0.07698792 
0.0 0.0 0.0 0.0 0.0 0.07698792 
0.0 0.0 0.0 0.0 0.0 0.07698792 
0.0 0.0 0.0 0.0 0.0 0.07698792 
0.0 0.0 0.0 0.0 0.0 0.07698792 
0.0 0.0 0.0 0.0 0.0 0.07698792 
0.0 0.0 0.0 0.0 0.0 0.07698792 
0.0 0.0 0.0 0.0 0.0 0.07698792 
0.0 0.0 0.0 0.0 0.0 0.07698792 
0.0 0.0 0.0 0.0 0.0 0.07698792 
0.0 0.0 0.0 0.0 0.0 0.07698792 
0.0 0.0 0.0 0.0 0.0 0.07698792 
0.0 0.0 0.0 0.0 0.0 0.07698792 
0.0 0.0 0.0 0.0 0.0 0.07698792 
0.0 0.0 0.0 0.0 0.0 0.07698792 
0.0 0.0 0.0 0.0 0.0 0.07698792 
0.0 0.0 0.0 0.0 0.0 0.07698792 
0.0 0.0 0.0 0.0 0.0 0.07698792 
0.0 0.0 0.0 0.0 0.0 0.07698792 
0.0 0.0 0.0 0.0 0.0 0.07698792 
0.0 0.0 0.0 0.0 0.0 0.07698792 
0.0 0.0 0.0 0.0 0.0 0.07698792 
0.0 0.0 0.0 0.0 0.0 0.07698792 
0.0 0.0 0.0 0.0 0.0 0.07698792 
0.0 0.0 0.0 0.0 0.0 0.07698792 
0.0 0.0 0.0 0.0 0.0 0.07698792 
0.0 0.0 0.0 0.0 0.0 0.07698792 
0.0 0.0 0.0 0.0 0.0 0.07698792 
0.0 0.0 0.0 0.0 0.0 0.07698792 
0.0 0.0 0.0 0.0 0.0 0.07698792 
0.0 0.0 0.0 0.0 0.0 0.07698792 
0.0 0.0 0.0 0.0 0.0 0.07698792 
0.0 0.0 0.0 0.0 0.0 0.07698792 
0.0 0.0 0.0 0.0 0.0 0.07698792 
0.0 0.0 0.0 0.0 0.0 0.07698792 
0.0 0.0 0.0 0.0 0.0 0.07698792 
0.0 0.0 0.0 0.0 0.0 0.07698792 
0.0 0.0 0.0 0.0 0.0 0.07698792 
0.0 0.0 0.0 0.0 0.0 0.07698792 
0.0 0.0 0.0 0.0 0.0 0.07698792 
0.0 0.0 0.0 0.0 0.0 0.07698792 
0.0 0.0 0.0 0.0 0.0 0.07698792 
0.0 0.0 0.0 0.0 0.0 0.07698792 
0.0 0.0 0.0 0.0 0.0 0.07698792 
0.0 0.0 0.0 0.0 0.0 0.07698792 
0.0 0.0 0.0 0.0 0.0 0.07698792 
0.0 0.0 0.0 0.0 0.0 0.07698792 
0.0 0.0 0.0 0.0 0.0 0.07698792 
0.0 0.0 0.0 0.0 0.0 0.07698792 
0.0 0.0 0.0 0.0 0.0 0.07698792 
0.0 0.0 0.0 0.0 0.0 0.07698792 
0.0 0.0 0.0 0.0 0.0 0.07698792 
0.0 0.0 0.0 0.0 0.0 0.07698792 
0.0 0.0 0.0 0.0 0.0 0.07698792 
0.0 0.0 0.0 0.0 0.0 0.07698792 
0.0 0.0 0.0 0.0 0.0 0.07698792 
0.0 0.0 0.0 0.0 0.0 0.07698792 
0.0 0.0 0.0 0.0 0.0 0.07698792 
0.0 0.0 0.0 0.0 0.0 0.07698792 
0.0 0.0 0.0 0.0 0.0 0.07698792 
0.0 0.0 0.0 0.0 0.0 0.07698792 
0.0 0.0 0.0 0.0 0.0 0.07698792 
0.0 0.0 0.0 0.0 0.0 0.07698792 
0.0 0.0 0.0 0.0 0.0 0.07698792 
0.0 0.0 0.0 0.0 0.0 0.07661082 
0.0 0.0 0.0095715 0.0 0.0 0.044551976 
0.14923094 0.0 0.14306903 0.0 0.0 0.0 
0.30676883 0.11620185 0.2654046 0.0 0.0 0.0 
0.35965812 0.29980507 0.38905847 0.0 0.0 0.0 
0.3040138 0.51413167 0.42835763 0.0 0.0 0.0 
0.17285234 0.5717255 0.41544038 0.0 0.0 0.0 
0.071537465 0.5459925 0.29591936 0.0 0.0 0.0 
0.0 0.38703147 0.16673476 0.0 0.049947094 0.0 
0.0 0.2274144 0.07158566 0.0 0.027691405 0.0 
0.0 0.10325314 0.0 0.0 0.011744928 0.0 
0.0 0.019936413 0.0 0.0 0.0 0.04453985 
0.0 0.0 0.0 0.0 0.0 0.070348084 
0.0 0.0 0.0 0.0 0.0 0.07594574 
0.0 0.0 0.0 0.0 0.0 0.07698792 
0.0 0.0 0.0 0.0 0.0 0.07698792 
0.0 0.0 0.0 0.0 0.0 0.07698792 
0.0 0.0 0.0 0.0 0.0 0.07698792 
0.0 0.0 0.0 0.0 0.0 0.07698792 
0.0 0.0 0.0 0.0 0.0 0.07698792 
0.0 0.0 0.0 0.0 0.0 0.07698792 
0.0 0.0 0.0 0.0 0.0 0.07698792 
0.0 0.0 0.0 0.0 0.0 0.07698792 
0.0 0.0 0.0 0.0 0.0 0.07698792 
0.0 0.0 0.0 0.0 0.0 0.07698792 
0.0 0.0 0.0 0.0 0.0 0.07661082 
0.0 0.0 0.00716231 0.0 0.0 0.04568329 
0.09904939 0.007772985 0.08327959 0.0 0.0 0.0 
0.16295028 0.09383124 0.15012977 0.0 0.0 0.0 
0.30329078 0.11475856 0.27559716 0.0 0.0 0.0 
0.5850919 0.18175799 0.35141784 0.0 0.0 0.0 
0.8133149 0.31000987 0.46558523 0.0 0.0 0.0 
0.8999231 0.66389114 0.6844261 0.0 0.0 0.0 
0.63987005 1.0411757 0.9747267 0.0 0.0 0.0 
0.29969966 1.1614667 1.0847946 0.0 0.25593606 0.0 
0.06989209 1.1470394 1.1242536 0.0 0.36309174 0.0 
0.0 1.00632 0.9644407 0.0 0.3243355 0.0 
0.0 0.90853685 0.72959787 0.0 0.21033715 0.0 
0.0 0.6628404 0.42541882 0.0 0.22098543 0.0 
0.0 0.44199678 0.22288314 0.0 0.13655932 0.0 
0.0 0.23958743 0.06523285 0.0 0.09442231 0.0 
0.0 0.056755327 0.0 0.0 0.0075990222 0.015821941 
0.0 0.0 0.0 0.0 0.0 0.07698792 
0.0 0.0 0.0 0.0 0.0 0.07698792 
0.0 0.0 0.0 0.0 0.0 0.07698792 
0.0 0.0 0.0 0.0 0.0 0.07698792 
0.0 0.0 0.0 0.0 0.0 0.07698792 
0.0 0.0 0.0 0.0 0.0 0.07698792 
0.0 0.0 0.0 0.0 0.0 0.07698792 
0.0 0.0 0.0 0.0 0.0 0.07698792 
0.0 0.0 0.0 0.0 0.0 0.07698792 
0.0 0.0 0.0 0.0 0.0 0.07698792 
0.0 0.0 0.0 0.0 0.0 0.07698792 
0.0 0.0 0.0 0.0 0.0 0.07459918 
0.14954127 0.0 0.11349241 0.0 0.0 0.0 
0.53725076 0.0 0.22347566 0.0 0.0 0.0 
0.66235006 0.1995666 0.36897343 0.0 0.0 0.0 
0.8348362 0.41758773 0.53708565 0.0 0.0 0.0 
0.9682347 0.444456 0.6402606 0.0 0.0 0.0 
1.0395551 0.52590746 0.61246103 0.0 0.27725425 0.0 
0.7583854 0.8157483 0.7970643 0.0 0.72152525 0.0 
0.27914894 1.0485773 1.191752 0.21117043 1.1487895 0.0 
0.11399032 1.172708 1.470701 0.4435377 1.1983632 0.0 
0.08480357 1.2029959 1.6326679 0.356455 0.9715881 0.0 
0.17161843 1.1968404 1.5731357 0.05358052 0.6579642 0.0 
0.10577209 1.263432 1.4380038 0.0 0.5893622 0.0 
0.0 1.3498279 1.1300313 0.0 0.69785875 0.0 
0.0 1.0074334 0.7848927 0.0 0.696989 0.0 
0.0 0.4592618 0.4021603 0.0 0.53034025 0.0 
0.0 0.07936854 0.04021076 0.0 0.19904684 0.0 
0.0 0.0 0.0 0.0 0.0 0.07698792 
0.0 0.0 0.0 0.0 0.0 0.07698792 
0.0 0.0 0.0 0.0 0.0 0.07698792 
0.0 0.0 0.0 0.0 0.0 0.07698792 
0.0 0.0 0.0 0.0 0.0 0.07698792 
0.0 0.0 0.0 0.0 0.0 0.07698792 
0.0 0.0 0.0 0.0 0.0 0.07698792 
0.0 0.0 0.0 0.0 0.0 0.07698792 
0.0 0.0 0.0 0.0 0.0 0.07698792 
0.0 0.0 0.0 0.0 0.0 0.07698792 
0.0 0.0 0.0 0.0 0.0 0.07698792 
0.0 0.0 0.0 0.0 0.0 0.0775314 
0.3369709 0.0 0.0 0.0 0.0 0.13282138 
0.941904 0.0 0.044214368 0.0 0.0 0.011099234 
1.0362713 0.038700312 0.1159006 0.0 0.0 0.0 
1.0205688 0.48554674 0.65559125 0.18811873 0.22982843 0.0 
0.9383128 0.7934078 0.76473856 0.24714419 0.9712611 0.0 
0.7676682 1.1355935 0.43223143 0.6121331 1.4572104 0.005045831 
0.36250162 1.4375004 0.48451793 0.9474065 1.8957036 0.3680045 
0.0 1.5937331 0.7505287 1.2547119 2.0684745 0.6973142 
0.0 1.2547407 0.94861794 1.5823284 1.8591026 0.9998521 
0.0 0.80432063 0.9928602 1.7194738 1.4298135 0.9813346 
0.089805126 0.6858763 1.1273235 1.726714 1.1416887 0.74245685 
0.01715085 0.87873614 1.2675704 1.5677015 1.1380056 0.35910437 
0.0 1.253087 1.4895602 1.2865428 1.2422951 0.0 
0.0 1.09654 1.3046559 0.7554436 1.1038798 0.0 
0.0 0.6139813 0.90084136 0.3046396 0.6666256 0.0 
0.0 0.102050886 0.22230873 0.0069221975 0.23951234 0.01412753 
0.0 0.0 0.0 0.0 0.0 0.07698792 
0.0 0.0 0.0 0.0 0.0 0.07698792 
0.0 0.0 0.0 0.0 0.0 0.07698792 
0.0 0.0 0.0 0.0 0.0 0.07698792 
0.0 0.0 0.0 0.0 0.0 0.07698792 
0.0 0.0 0.0 0.0 0.0 0.07698792 
0.0 0.0 0.0 0.0 0.0 0.07698792 
0.0 0.0 0.0 0.0 0.0 0.07698792 
0.0 0.0 0.0 0.0 0.0 0.07698792 
0.0 0.0 0.0 0.0 0.0 0.07698792 
0.0 0.0 0.0 0.0 0.0 0.07698792 
0.0 0.0 0.0 0.00067207264 0.0 0.08699806 
0.44127983 0.0 0.0 0.18876673 0.0 0.49710336 
0.9515764 0.0 0.0 0.5705029 0.12975377 0.7715723 
0.94166285 0.0 0.0 1.0182015 0.6899578 0.7054754 
0.8907924 0.3952587 0.06265977 1.3818784 1.0518042 0.9910209 
1.056365 0.6816159 0.36699146 1.228838 1.7504647 1.0365273 
0.9306212 1.2253411 0.0 0.92256004 2.2754526 0.89590365 
0.23973095 1.5948476 0.0 0.5903977 2.5978608 0.83551604 
0.0 1.3035177 0.0 0.35741892 2.7281058 1.1462884 
0.0 0.5674238 0.0 0.36390692 2.2945635 1.596695 
0.15446866 0.28965214 0.0 0.7760379 1.5814756 1.7751684 
0.1723308 0.2710556 0.0 1.0242168 1.398073 1.6785536 
0.0 0.5768524 0.0 1.2577643 1.3308132 1.3620858 
0.0 0.9236482 0.73639274 1.2803906 1.0798603 0.80704135 
0.0 0.8862352 1.2151815 1.0879582 0.6970367 0.47999752 
0.0 0.6041778 1.0876651 0.65620434 0.3196599 0.30832982 
0.0 0.23498806 0.40463436 0.22175846 0.050786693 0.09880938 
0.0 0.0 0.0 0.0 0.0 0.07698792 
0.0 0.0 0.0 0.0 0.0 0.07698792 
0.0 0.0 0.0 0.0 0.0 0.07698792 
0.0 0.0 0.0 0.0 0.0 0.07698792 
0.0 0.0 0.0 0.0 0.0 0.07698792 
0.0 0.0 0.0 0.0 0.0 0.07698792 
0.0 0.0 0.0 0.0 0.0 0.07698792 
0.0 0.0 0.0 0.0 0.0 0.07698792 
0.0 0.0 0.0 0.0 0.0 0.07698792 
0.0 0.0 0.0 0.0 0.0 0.07698792 
0.0 0.0 0.0 0.0 0.0 0.07698792 
0.0 0.0 0.0 0.0039164554 0.0 0.092022076 
0.5115804 0.0 0.0 0.23859707 0.21650083 0.6725306 
0.8742915 0.0 0.0 0.3893899 0.75209314 1.1338048 
0.6459785 0.08677769 0.0 0.6183781 1.1896409 1.2132871 
0.9985363 0.0 0.0 0.68567955 1.377982 1.8059614 
1.3408439 0.15381166 0.0 0.77861685 1.5220996 1.7398527 
0.97321457 0.92725056 0.0 0.3825257 1.9371011 0.9880569 
0.0 1.4776077 0.0 0.0 2.2456317 0.6306799 
0.0 1.0784016 0.27427837 0.0 2.283328 0.6309588 
0.0 0.20888644 0.0 0.0 1.8539506 0.8629717 
0.23707855 0.0 0.0 0.0 1.3636255 1.2317922 
0.40248686 0.0 0.0 0.0 1.3961248 1.4187853 
0.16244283 0.0 0.0 0.0 1.2241791 1.335346 
0.0 0.09216903 0.0 0.0 0.8129013 0.9683292 
0.0 0.10218425 0.08090148 0.0 0.4380501 0.61591953 
0.0 0.015341087 0.5070604 0.040283266 0.20520256 0.35412356 
0.0 0.026829228 0.29191598 0.06731747 0.023819093 0.12675893 
0.0 0.0 0.0 0.0 0.0 0.07698792 
0.0 0.0 0.0 0.0 0.0 0.07698792 
0.0 0.0 0.0 0.0 0.0 0.07698792 
0.0 0.0 0.0 0.0 0.0 0.07698792 
0.0 0.0 0.0 0.0 0.0 0.07698792 
0.0 0.0 0.0 0.0 0.0 0.07698792 
0.0 0.0 0.0 0.0 0.0 0.07698792 
0.0 0.0 0.0 0.0 0.0 0.07698792 
0.0 0.0 0.0 0.0 0.0 0.07698792 
0.0 0.0 0.0 0.0 0.0 0.07698792 
0.0 0.0 0.0 0.0 0.0 0.07698792 
0.0 0.0 0.0 0.0 0.0 0.08828032 
0.39445093 0.0 0.0 0.0 0.38832122 0.51126015 
0.66357744 0.0 0.0 0.0 0.8547501 0.91602314 
0.46966362 0.0 0.0 0.0 1.0071863 0.9728388 
0.97564644 0.0 0.0 0.0 1.08203 1.5958321 
1.3040674 0.0 0.0 0.0 1.2266688 1.6850905 
0.9413852 0.16016342 0.0 0.0 1.4794551 0.7230879 
0.0 1.0205616 0.021621145 0.0 1.5638376 0.079270974 
0.0 1.080205 1.1798508 0.0 1.5582474 0.0 
0.0 0.34280512 0.5385821 0.0 1.3034841 0.0 
0.0 0.0 0.0 0.0 0.8389159 0.24778204 
0.29635587 0.0 0.0 0.0 0.65929574 0.3637715 
0.20267022 0.0 0.0 0.0 0.6264264 0.288772 
0.0 0.0 0.0 0.0 0.4295331 0.17616038 
0.0 0.0 0.0 0.0 0.30906203 0.11957521 
0.0 0.0 0.0 0.0 0.17971165 0.12085211 
0.0 0.0 0.043303892 0.0 0.033447128 0.073531166 
0.0 0.0 0.0 0.0 0.0 0.07698792 
0.0 0.0 0.0 0.0 0.0 0.07698792 
0.0 0.0 0.0 0.0 0.0 0.07698792 
0.0 0.0 0.0 0.0 0.0 0.07698792 
0.0 0.0 0.0 0.0 0.0 0.07698792 
0.0 0.0 0.0 0.0 0.0 0.07698792 
0.0 0.0 0.0 0.0 0.0 0.07698792 
0.0 0.0 0.0 0.0 0.0 0.07698792 
0.0 0.0 0.0 0.0 0.0 0.07698792 
0.0 0.0 0.0 0.0 0.0 0.07698792 
0.0 0.0 0.0 0.0 0.0 0.07698792 
0.0 0.0 0.0 0.0 0.0 0.08070118 
0.14275001 0.0 0.0 0.0 0.27191857 0.22153915 
0.23728481 0.0 0.0 0.0 0.39877638 0.30637893 
0.14379983 0.0 0.0 0.0 0.40130407 0.29405832 
0.68524146 0.0 0.0 0.0 0.7218442 0.9375633 
1.3487685 0.0 0.0 0.0 0.8942957 1.3920991 
1.0796714 0.0 0.0 0.0 0.7563092 0.6177508 
0.118665636 0.9244881 0.038735867 0.018466998 0.98259217 0.0 
0.0 1.3513048 1.8839011 0.0592353 1.047179 0.0 
0.0 0.9613192 1.7623552 0.0 0.74366754 0.0 
0.021466032 0.31706354 0.5644155 0.0 0.048811737 0.0 
0.45213574 0.3118863 0.4163679 0.0 0.0 0.0 
0.42574677 0.53975576 0.50581175 0.0 0.0 0.0 
0.2839388 0.70272833 0.55865955 0.0 0.0 0.0 
0.04722759 0.7127401 0.4409721 0.0 0.054512937 0.0 
0.0 0.5283749 0.28968066 0.0 0.12898855 0.0 
0.0 0.30367976 0.12754038 0.0 0.1103231 0.0 
0.0 0.13367714 0.004518792 0.0 0.037786726 0.0 
0.0 0.019792553 0.0 0.0 0.0 0.050933413 
0.0 0.0 0.0 0.0 0.0 0.07698792 
0.0 0.0 0.0 0.0 0.0 0.07698792 
0.0 0.0 0.0 0.0 0.0 0.07698792 
0.0 0.0 0.0 0.0 0.0 0.07698792 
0.0 0.0 0.0 0.0 0.0 0.07698792 
0.0 0.0 0.0 0.0 0.0 0.07698792 
0.0 0.0 0.0 0.0 0.0 0.07698792 
0.0 0.0 0.0 0.0 0.0 0.07698792 
0.0 0.0 0.0 0.0 0.0 0.07698792 
0.0 0.0 0.0 0.0 0.0 0.07698792 
0.0 0.0 0.0 0.0 0.0 0.07698792 
0.0 0.0 0.0 0.0 0.0 0.07698792 
0.0 0.0 0.0 0.0 0.0 0.090603195 
0.4155672 0.0 0.0 0.0 0.35680014 0.5024974 
1.2773132 0.0 0.0 0.018041175 0.57218325 1.1771662 
1.3448949 0.0 0.0 0.057841543 0.5514188 0.8787448 
0.5367159 0.70392185 0.0 0.049952324 0.83108824 0.0634655 
0.0 1.2366778 1.533919 0.049272757 0.787078 0.0 
0.0 1.1100273 2.150546 0.0 0.555301 0.0 
0.33075768 0.62814206 0.8841754 0.0 0.121704474 0.0 
0.6522333 0.6084431 0.54558676 0.0 0.0 0.0 
0.48529178 0.7471677 0.7808442 0.0 0.22325589 0.0 
0.34385842 0.91701895 0.99399245 0.0 0.33177307 0.0 
0.11249921 1.0558739 1.1332941 0.0 0.41809574 0.0 
0.0 1.1396786 1.0089387 0.0 0.46699932 0.0 
0.0 0.92034423 0.7067773 0.0 0.4828175 0.0 
0.0 0.47940844 0.34159923 0.0 0.36508295 0.0 
0.0 0.21424598 0.077862926 0.0 0.14092161 0.0 
0.0 0.05345967 0.0 0.0 0.0014149211 0.019668002 
0.0 0.0 0.0 0.0 0.0 0.07698792 
0.0 0.0 0.0 0.0 0.0 0.07698792 
0.0 0.0 0.0 0.0 0.0 0.07698792 
0.0 0.0 0.0 0.0 0.0 0.07698792 
0.0 0.0 0.0 0.0 0.0 0.07698792 
0.0 0.0 0.0 0.0 0.0 0.07698792 
0.0 0.0 0.0 0.0 0.0 0.07698792 
0.0 0.0 0.0 0.0 0.0 0.07698792 
0.0 0.0 0.0 0.0 0.0 0.07698792 
0.0 0.0 0.0 0.0 0.0 0.07698792 
0.0 0.0 0.0 0.0 0.0 0.07698792 
0.0 0.0 0.0 0.0 0.0 0.07698792 
0.17114949 0.0 0.0 0.0 0.19332452 0.28498602 
1.0573545 0.0 0.0 0.0 0.46864066 0.96415025 
1.5380354 0.0 0.0 0.008523074 0.53427947 1.0106494 
0.9126549 0.4191973 0.0 0.0 0.6225952 0.12883097 
0.3762383 0.896967 0.8147389 0.0 0.6437068 0.0 
0.07658544 1.0704633 1.9346244 0.0 0.85624623 0.0 
0.21343306 0.8514165 1.1221013 0.034993194 1.0486027 0.0 
0.21264729 0.75812286 0.49831957 0.43326887 1.1773175 0.0 
0.0 0.5839627 0.666312 0.9105514 1.3262733 0.17937122 
0.1028336 0.36413798 0.8266668 1.1438818 1.0661323 0.2945125 
0.3432721 0.7281324 1.2613361 1.0650349 0.69076806 0.0 
0.20190144 1.2214199 1.5938574 0.56729877 0.63133776 0.0 
0.0 1.4204729 1.5693055 0.0 0.7112977 0.0 
0.0 1.2058045 1.1005177 0.0 0.6480179 0.0 
0.0 0.64163446 0.5481208 0.0 0.5005761 0.0 
0.0 0.23703119 0.12813976 0.0 0.22934087 0.0 
0.0 0.0713571 0.0 0.0 0.014628794 0.0 
0.0 0.0 0.0 0.0 0.0 0.07438247 
0.0 0.0 0.0 0.0 0.0 0.07698792 
0.0 0.0 0.0 0.0 0.0 0.07698792 
0.0 0.0 0.0 0.0 0.0 0.07698792 
0.0 0.0 0.0 0.0 0.0 0.07698792 
0.0 0.0 0.0 0.0 0.0 0.07698792 
0.0 0.0 0.0 0.0 0.0 0.07698792 
0.0 0.0 0.0 0.0 0.0 0.07698792 
0.0 0.0 0.0 0.0 0.0 0.07698792 
0.0 0.0 0.0 0.0 0.0 0.07698792 
0.0 0.0 0.0 0.0 0.0 0.07698792 
0.020718388 0.0 0.0 0.0 0.054880027 0.15178585 
0.8459761 0.0 0.0 0.0 0.2933034 0.73557246 
1.6622183 0.0 0.0 0.0 0.4817327 1.0435867 
1.3400753 0.080112405 0.0 0.0 0.5224654 0.3523411 
0.90441495 0.7141125 0.07284368 0.1420458 0.8417366 0.07901575 
0.20244473 1.2773753 1.3814392 0.47891918 1.6969788 0.10450112 
0.0 1.5659258 1.0265715 0.72990507 2.0353696 0.10113043 
0.0 1.2930481 0.27198216 0.8739765 1.9572676 0.75412136 
0.0 0.84177375 0.12660483 1.0940161 1.6168526 1.3366239 
0.2654158 0.48838466 0.0 1.2358783 1.075489 1.452254 
0.35047042 0.29013744 0.08018192 1.3078368 0.80781144 1.1942723 
0.35087794 0.55387414 0.9249141 1.3563745 0.668137 0.6359368 
0.23414263 1.148418 1.7026893 1.0537283 0.61894107 0.0 
0.0 1.576299 1.8015629 0.41056973 0.74931085 0.0 
0.0 1.2586033 1.3027928 0.0 0.76391923 0.0 
0.0 0.68784183 0.6478791 0.0 0.5397126 0.0 
0.0 0.18249802 0.10176947 0.0 0.27987128 0.0 
0.0 0.02017603 0.0 0.0 0.0 0.048613526 
0.0 0.0 0.0 0.0 0.0 0.07698792 
0.0 0.0 0.0 0.0 0.0 0.07698792 
0.0 0.0 0.0 0.0 0.0 0.07698792 
0.0 0.0 0.0 0.0 0.0 0.07698792 
0.0 0.0 0.0 0.0 0.0 0.07698792 
0.0 0.0 0.0 0.0 0.0 0.07698792 
0.0 0.0 0.0 0.0 0.0 0.07698792 
0.0 0.0 0.0 0.0 0.0 0.07698792 
0.0 0.0 0.0 0.0 0.0 0.07698792 
0.0 0.0 0.0 0.0 0.0 0.07698792 
0.0 0.0 0.0 0.0 0.0 0.09245983 
0.64118046 0.0 0.0 0.0 0.22364102 0.6083684 
1.5967226 0.0 0.0 0.040723126 0.47272363 1.0791788 
1.7031994 0.0 0.0 0.15089628 0.61408216 0.7071877 
1.2075276 0.70993596 0.0 0.33163247 1.4054642 0.5600924 
0.12678221 1.5821579 0.5838872 0.42785332 2.4126284 0.46344706 
0.0 1.6141222 0.57477325 0.15091887 2.5902221 0.42947873 
0.0 0.93122303 0.0 0.0 2.09637 0.8783502 
0.0 0.16116223 0.0 0.0 1.5335995 1.2234061 
0.37537488 0.0 0.0 0.0 1.2953442 1.467793 
0.51043123 0.0 0.0 0.0 1.1784648 1.6082971 
0.4608742 0.0 0.0 0.41899163 0.9404249 1.4432533 
0.40209186 0.09043524 0.27734965 0.8301951 0.6907883 0.85236025 
0.23565584 0.97577107 1.5331988 0.8754192 0.6661271 0.0 
0.0 1.6201292 1.8079224 0.43751606 0.7691208 0.0 
0.0 1.2978886 1.449729 0.0 0.7518362 0.0 
0.0 0.5514922 0.5660439 0.0 0.5660032 0.0 
0.0 0.13133138 0.02682262 0.0 0.14364909 0.0 
0.0 0.0 0.0 0.0 0.0 0.07229811 
0.0 0.0 0.0 0.0 0.0 0.07698792 
0.0 0.0 0.0 0.0 0.0 0.07698792 
0.0 0.0 0.0 0.0 0.0 0.07698792 
0.0 0.0 0.0 0.0 0.0 0.07698792 
0.0 0.0 0.0 0.0 0.0 0.07698792 
0.0 0.0 0.0 0.0 0.0 0.07698792 
0.0 0.0 0.0 0.0 0.0 0.07698792 
0.0 0.0 0.0 0.0 0.0 0.07698792 
0.0 0.0 0.0 0.0 0.0 0.07698792 
0.0 0.0 0.0 0.0 0.0 0.07698792 
0.45799273 0.0 0.0 0.06255103 0.20939247 0.54560673 
1.2950699 0.0 0.0 0.21948056 0.5597581 1.2011843 
1.6493948 0.0 0.0 0.4560507 0.95752054 1.3131423 
1.2542541 0.49862626 0.0 0.54058284 1.7983513 1.1853588 
0.0 1.3663303 0.0 0.45462877 2.3794503 0.8377854 
0.0 1.2277973 0.6762739 0.103436075 2.0791054 0.48213243 
0.0 0.42482457 0.46099007 0.0 1.4259543 0.48245052 
0.0 0.0 0.0 0.0 0.9118896 0.5251546 
0.24236202 0.0 0.0 0.0 0.8225647 0.62174726 
0.59083503 0.0 0.0 0.0 0.9700399 0.978315 
0.7296785 0.0 0.0 0.0 1.0584747 1.40697 
0.7698537 0.0 0.0 0.035870347 0.76808566 1.4021435 
0.65546703 0.07909582 0.0 0.37462652 0.58568525 0.66571337 
0.07480967 1.1043986 1.3351748 0.5403936 0.7740752 0.0 
0.0 1.63683 1.8931679 0.22832781 0.82690865 0.0 
0.0 1.1745664 1.3668329 0.0 0.7860885 0.0 
0.0 0.29395172 0.28783402 0.0 0.4522291 0.0 
0.0 0.05426216 0.0 0.0 0.015640143 0.015387982 
0.0 0.0 0.0 0.0 0.0 0.07698792 
0.0 0.0 0.0 0.0 0.0 0.07698792 
0.0 0.0 0.0 0.0 0.0 0.07698792 
0.0 0.0 0.0 0.0 0.0 0.07698792 
0.0 0.0 0.0 0.0 0.0 0.07698792 
0.0 0.0 0.0 0.0 0.0 0.07698792 
0.0 0.0 0.0 0.0 0.0 0.07698792 
0.0 0.0 0.0 0.0 0.0 0.07698792 
0.0 0.0 0.0 0.0 0.0 0.07698792 
0.0 0.0 0.0 0.0 0.0 0.07698792 
0.31113863 0.0 0.0 0.020640142 0.23485945 0.4335975 
1.0226679 0.0 0.0 0.10731417 0.76567155 1.172128 
1.3028178 0.0 0.0 0.26912165 1.2252313 1.5538557 
0.7946426 0.07457057 0.0 0.39656094 1.7336768 1.3699791 
0.0 0.7437971 0.0 0.5587619 1.7014624 0.9534576 
0.0 0.76156086 0.949208 0.46876633 1.2480446 0.6360538 
0.0 0.2809327 0.9493263 0.14439493 0.73482734 0.3412429 
0.0 0.0 0.31634328 0.0 0.18620436 0.1541425 
0.017161325 0.0 0.0 0.0 0.14424603 0.16158609 
0.28154433 0.0 0.0 0.0 0.4278662 0.35489732 
0.607241 0.0 0.0 0.0 0.72221714 0.76580405 
1.0382054 0.0 0.0 0.0 0.7698311 1.3022277 
1.1246922 0.0 0.0 0.0 0.6360593 1.1220946 
0.54257005 0.4367434 0.0 0.21705832 0.74370134 0.18909627 
0.0 1.3636384 1.511022 0.41180435 0.99556345 0.0 
0.0 1.4589324 1.9550837 0.12146221 1.0271679 0.0 
0.0 0.7006128 0.8455072 0.0 0.6781265 0.0 
0.0 0.07239233 0.044622466 0.0 0.18347077 0.0 
0.0 0.0 0.0 0.0 0.0 0.07698792 
0.0 0.0 0.0 0.0 0.0 0.07698792 
0.0 0.0 0.0 0.0 0.0 0.07698792 
0.0 0.0 0.0 0.0 0.0 0.07698792 
0.0 0.0 0.0 0.0 0.0 0.07698792 
0.0 0.0 0.0 0.0 0.0 0.07698792 
0.0 0.0 0.0 0.0 0.0 0.07698792 
0.0 0.0 0.0 0.0 0.0 0.07698792 
0.0 0.0 0.0 0.0 0.0 0.07698792 
0.0 0.0 0.0 0.0 0.0 0.07698792 
0.14909638 0.0 0.0 0.0 0.19390424 0.26042312 
0.65638804 0.0 0.0 0.0 0.63913256 0.7952258 
0.9388184 0.0 0.0 0.0 1.1119653 1.2961833 
0.39592013 0.07107228 0.0 0.0 1.1789285 1.1476302 
0.0 0.20414384 0.0 0.0048344852 0.9392375 0.8131631 
0.0 0.24998692 0.5632028 0.18961516 0.62285024 0.64237136 
0.0 0.15586771 0.75491774 0.17720425 0.2831882 0.28228602 
0.0 0.0 0.15824264 0.020854797 0.01166768 0.10308725 
0.0 0.0 0.0 0.0 0.0 0.07698792 
0.0 0.0 0.0 0.0 0.01695146 0.10978836 
0.21757448 0.0 0.0 0.0 0.297977 0.31172228 
0.96361953 0.0 0.0 0.0 0.5590766 0.91515565 
1.5201406 0.0 0.0 0.0 0.4916766 1.1350355 
0.9690606 0.20828706 0.0 0.0 0.75363195 0.45911342 
0.0 1.1472495 0.5816502 0.212768 1.0967703 0.0 
0.0 1.4645963 1.98149 0.3184128 1.1897804 0.0 
0.0 0.9213815 1.3935084 0.07579368 0.87502223 0.0 
0.0 0.15472785 0.23080012 0.0 0.25098553 0.0 
0.0 0.0 0.0 0.0 0.0 0.07698792 
0.0 0.0 0.0 0.0 0.0 0.07698792 
0.0 0.0 0.0 0.0 0.0 0.07698792 
0.0 0.0 0.0 0.0 0.0 0.07698792 
0.0 0.0 0.0 0.0 0.0 0.07698792 
0.0 0.0 0.0 0.0 0.0 0.07698792 
0.0 0.0 0.0 0.0 0.0 0.07698792 
0.0 0.0 0.0 0.0 0.0 0.07698792 
0.0 0.0 0.0 0.0 0.0 0.07698792 
0.0 0.0 0.0 0.0 0.0 0.07698792 
0.0 0.0 0.0 0.0 0.03659923 0.12649521 
0.28286386 0.0 0.0 0.0 0.3978601 0.36436024 
0.52863854 0.0 0.0 0.0 0.7153094 0.66977227 
0.23230141 0.0 0.0 0.0 0.6692094 0.62987584 
0.0 0.0 0.0 0.0 0.4363663 0.48083943 
0.0 0.0 0.0 0.0 0.30755588 0.40015477 
0.0 0.0 0.2975853 0.0 0.13655038 0.18965638 
0.0 0.0 0.012853362 0.0 0.0 0.086457744 
0.0 0.0 0.0 0.0 0.0 0.07698792 
0.0 0.0 0.0 0.0 0.0 0.07698792 
0.050161324 0.0 0.0 0.0 0.0 0.08774282 
0.85705173 0.0 0.0 0.0 0.13299179 0.44528627 
1.8102977 0.0 0.0 0.0 0.43996498 0.8370079 
1.3088009 0.35441408 0.0 0.0 0.86039877 0.33869636 
0.0 1.2189718 0.0 0.0 1.2819188 0.0 
0.0 1.3722281 1.5023326 0.10931957 1.4311839 0.0 
0.0 0.72733855 1.5250612 0.15845358 0.9800766 0.03681223 
0.0 0.2057494 0.41407862 0.1305645 0.17749836 0.060939368 
0.0 0.0 0.0 0.0 0.0 0.07698792 
0.0 0.0 0.0 0.0 0.0 0.07698792 
0.0 0.0 0.0 0.0 0.0 0.07698792 
0.0 0.0 0.0 0.0 0.0 0.07698792 
0.0 0.0 0.0 0.0 0.0 0.07698792 
0.0 0.0 0.0 0.0 0.0 0.07698792 
0.0 0.0 0.0 0.0 0.0 0.07698792 
0.0 0.0 0.0 0.0 0.0 0.07698792 
0.0 0.0 0.0 0.0 0.0 0.07698792 
0.0 0.0 0.0 0.0 0.0 0.07698792 
0.0 0.0 0.0 0.0 0.0 0.08193893 
0.0 0.0 0.0 0.0 0.049180057 0.12490587 
0.11394763 0.0 0.0 0.0 0.22667648 0.20960848 
0.038393945 0.0 0.0 0.0 0.15347166 0.1830546 
0.0 0.0 0.0 0.0 0.0825572 0.14216861 
0.0 0.0 0.0 0.0 0.07708724 0.17058441 
0.0 0.0 0.08418647 0.0 0.0 0.06574388 
0.07460725 0.0078893555 0.0688341 0.0 0.0 0.0 
0.046963796 0.114715144 0.03526032 0.0 0.0 0.0 
0.011642404 0.11514651 0.11944101 0.0 0.0 0.0 
0.22143096 0.07508004 0.20543462 0.0 0.0 0.0 
1.0149765 0.0 0.0 0.0 0.0 0.0 
1.931956 0.0 0.0 0.0 0.37244412 0.357007 
1.3277881 0.7554893 0.0 0.0 1.2290332 0.0 
0.0 1.5072803 0.0 0.0 1.6521107 0.0 
0.0 1.2053251 1.1735613 0.0 1.5442764 0.019422472 
0.0 0.4856269 1.2727691 0.038305238 0.9318827 0.15592253 
0.0 0.10338451 0.39867127 0.11459468 0.08866532 0.107584074 
0.0 0.0 0.0 0.0 0.0 0.07698792 
0.0 0.0 0.0 0.0 0.0 0.07698792 
0.0 0.0 0.0 0.0 0.0 0.07698792 
0.0 0.0 0.0 0.0 0.0 0.07698792 
0.0 0.0 0.0 0.0 0.0 0.07698792 
0.0 0.0 0.0 0.0 0.0 0.07698792 
0.0 0.0 0.0 0.0 0.0 0.07698792 
0.0 0.0 0.0 0.0 0.0 0.07698792 
0.0 0.0 0.0 0.0 0.0 0.07698792 
0.0 0.0 0.0 0.0 0.0 0.07698792 
0.0 0.0 0.0 0.0 0.0 0.07698792 
0.0 0.0 0.0 0.0 0.0 0.07698792 
0.0 0.0 0.0 0.0 0.0 0.0686916 
0.023042373 0.0 0.041020818 0.0 0.0 0.0097562745 
0.17483583 0.02293107 0.15890297 0.0 0.0 0.0 
0.29041344 0.15403545 0.2740937 0.0 0.0 0.0 
0.38939822 0.2620545 0.35902303 0.0 0.0 0.0 
0.51545054 0.38431 0.48046672 0.0 0.0 0.0 
0.5334829 0.62306285 0.573568 0.0 0.0 0.0 
0.4069484 0.7730106 0.64223874 0.0 0.0 0.0 
0.48970532 0.49169537 0.62547874 0.0 0.0 0.0 
1.2530913 0.03729204 0.23894787 0.0 0.06655282 0.0 
1.8186889 0.3227327 0.0 0.0 0.8907631 0.0 
0.6646265 1.3325791 0.0 0.0 1.8174815 0.0 
0.0 1.6049187 0.14593226 0.0 1.9055773 0.0 
0.0 1.115427 1.2119505 0.025396753 1.429178 0.22960174 
0.0 0.30718285 1.0444969 0.044346865 0.71495813 0.18412405 
0.0 0.0 0.20381069 0.013042211 0.037616353 0.10717264 
0.0 0.0 0.0 0.0 0.0 0.07698792 
0.0 0.0 0.0 0.0 0.0 0.07698792 
0.0 0.0 0.0 0.0 0.0 0.07698792 
0.0 0.0 0.0 0.0 0.0 0.07698792 
0.0 0.0 0.0 0.0 0.0 0.07698792 
0.0 0.0 0.0 0.0 0.0 0.07698792 
0.0 0.0 0.0 0.0 0.0 0.07698792 
0.0 0.0 0.0 0.0 0.0 0.07698792 
0.0 0.0 0.0 0.0 0.0 0.07698792 
0.0 0.0 0.0 0.0 0.0 0.07698792 
0.0 0.0 0.0 0.0 0.0 0.07698792 
0.0 0.0 0.0 0.0 0.0 0.07698792 
0.0 0.0 0.0 0.0 0.0 0.06365448 
0.23980564 0.0 0.12559006 0.0 0.0 0.0 
0.6316639 0.0 0.23040277 0.0 0.0 0.0 
0.80792356 0.2262477 0.42098945 0.0 0.0 0.0 
0.92379117 0.5441026 0.65329313 0.0 0.0 0.0 
0.8144638 0.7885956 0.8389374 0.0 0.028807808 0.0 
0.5557142 1.0101823 1.0110962 0.0 0.29250202 0.0 
0.44924963 1.0277895 1.1393385 0.0 0.4366465 0.0 
0.7002659 0.89324826 1.13893 0.0 0.5193249 0.0 
1.1260331 0.76218927 0.47396213 0.0 1.0617064 0.0 
1.0031443 0.9741797 0.0 0.0 2.042681 0.115183026 
0.0 1.6327182 0.0 0.14117678 2.3293164 0.09588617 
0.0 1.4705722 0.62324905 0.293641 1.8437328 0.1966601 
0.0 0.6879384 1.2454195 0.24340686 1.1779524 0.43910396 
0.0 0.18214624 0.85862345 0.1518508 0.41393074 0.18489642 
0.0 0.0 0.028392196 0.0 0.0 0.08655701 
0.0 0.0 0.0 0.0 0.0 0.07698792 
0.0 0.0 0.0 0.0 0.0 0.07698792 
0.0 0.0 0.0 0.0 0.0 0.07698792 
0.0 0.0 0.0 0.0 0.0 0.07698792 
0.0 0.0 0.0 0.0 0.0 0.07698792 
0.0 0.0 0.0 0.0 0.0 0.07698792 
0.0 0.0 0.0 0.0 0.0 0.07698792 
0.0 0.0 0.0 0.0 0.0 0.07698792 
0.0 0.0 0.0 0.0 0.0 0.07698792 
0.0 0.0 0.0 0.0 0.0 0.07698792 
0.0 0.0 0.0 0.0 0.0 0.07698792 
0.0 0.0 0.0 0.0 0.0 0.07698792 
0.00023600459 0.0 0.0 0.0 0.0 0.102814384 
0.39589888 0.0 0.0 0.017380867 0.0 0.19341215 
0.99817115 0.0 0.0149353 0.09896468 0.0 0.12691714 
1.2730863 0.0 0.22930416 0.17932698 0.0 0.0 
1.0847235 0.6064094 0.7724915 0.32388452 0.4016234 0.0 
0.78943187 0.98230976 1.1071752 0.25942346 1.0500867 0.0 
0.5694134 1.3184761 1.2684923 0.25505176 1.2589924 0.0 
0.44614512 1.3759345 1.3853267 0.42081705 1.3360912 0.0 
0.53910923 1.2802483 1.2268047 0.6782838 1.6735395 0.0 
0.60371286 1.207378 0.5465433 0.79685116 2.37757 0.49477112 
0.24624068 1.3974987 0.0 0.7663906 2.722811 0.8193217 
0.0 1.4514962 0.0 0.6575675 2.2388337 0.72805864 
0.0 0.8640479 0.73313206 0.40683696 1.4486197 0.6207666 
0.0 0.3375276 1.0152526 0.24229705 0.68939453 0.4800582 
0.0 0.047199726 0.5905262 0.11270482 0.15506595 0.15720479 
0.0 0.0 0.0 0.0 0.0 0.07969239 
0.0 0.0 0.0 0.0 0.0 0.07698792 
0.0 0.0 0.0 0.0 0.0 0.07698792 
0.0 0.0 0.0 0.0 0.0 0.07698792 
0.0 0.0 0.0 0.0 0.0 0.07698792 
0.0 0.0 0.0 0.0 0.0 0.07698792 
0.0 0.0 0.0 0.0 0.0 0.07698792 
0.0 0.0 0.0 0.0 0.0 0.07698792 
0.0 0.0 0.0 0.0 0.0 0.07698792 
0.0 0.0 0.0 0.0 0.0 0.07698792 
0.0 0.0 0.0 0.0 0.0 0.07698792 
0.0 0.0 0.0 0.0 0.0 0.07698792 
0.0 0.0 0.0 0.0 0.0 0.07698792 
0.020935498 0.0 0.0 0.03708665 0.0 0.16149281 
0.48031467 0.0 0.0 0.26391175 0.0 0.5586072 
0.95023924 0.0 0.0 0.67733526 0.21908869 0.89024156 
1.088033 0.0 0.0 1.1963369 0.7058962 1.0565367 
0.97570723 0.5124444 0.0 1.5996269 1.3289925 1.330543 
0.7086297 1.0075479 0.23228955 1.8112084 1.849553 1.4392252 
0.36722457 1.2050172 0.39246505 1.8163391 2.010248 1.3991432 
0.18638587 1.2167833 0.50492 1.7213954 2.2150147 1.4213426 
0.1335463 1.1376199 0.46916634 1.5894772 2.5810192 1.5557234 
0.0 1.1673311 0.124309026 1.3434808 2.6692874 1.4776461 
0.0 1.0652591 0.0 0.8370349 2.3677056 1.2709303 
0.0 0.808306 0.066687256 0.43973938 1.5157382 0.9654478 
0.0 0.3460453 0.553992 0.14541072 0.7301448 0.62479025 
0.0 0.05998359 0.5541764 0.028476622 0.3116552 0.34897977 
0.0 0.0 0.213673 0.0 0.05928741 0.11905685 
0.0 0.0 0.0 0.0 0.0 0.07752062 
0.0 0.0 0.0 0.0 0.0 0.07698792 
0.0 0.0 0.0 0.0 0.0 0.07698792 
0.0 0.0 0.0 0.0 0.0 0.07698792 
0.0 0.0 0.0 0.0 0.0 0.07698792 
0.0 0.0 0.0 0.0 0.0 0.07698792 
0.0 0.0 0.0 0.0 0.0 0.07698792 
0.0 0.0 0.0 0.0 0.0 0.07698792 
0.0 0.0 0.0 0.0 0.0 0.07698792 
0.0 0.0 0.0 0.0 0.0 0.07698792 
0.0 0.0 0.0 0.0 0.0 0.07698792 
0.0 0.0 0.0 0.0 0.0 0.07698792 
0.0 0.0 0.0 0.0 0.0 0.07698792 
0.025913052 0.0 0.0 0.029377814 0.0 0.1758836 
0.49266982 0.0 0.0 0.18228683 0.3105822 0.67316514 
0.9297616 0.0 0.0 0.26792386 0.89682764 1.2485826 
0.96995395 0.0 0.0 0.4738687 1.4135226 1.5608144 
0.85022116 0.0 0.0 0.73206127 1.8879298 1.8563583 
0.52574635 0.17425898 0.0 0.9972759 2.2590115 2.010684 
0.35442588 0.27914697 0.0 1.0338286 2.3886373 2.0003111 
0.20170599 0.39488629 0.0 0.9514904 2.387703 1.9082456 
0.044186078 0.53975946 0.0 0.749998 2.2731028 1.7924502 
0.0 0.5062239 0.0 0.3154672 2.0074432 1.5569613 
0.0 0.4092195 0.0 0.009315409 1.3145958 1.1043742 
0.0 0.09739355 0.0 0.0 0.6698261 0.6595009 
0.0 0.0 0.24846902 0.0 0.3419352 0.39529455 
0.0 0.0 0.18595058 0.0 0.13371979 0.17231143 
0.0 0.0 0.0 0.0 0.0 0.08386449 
0.0 0.0 0.0 0.0 0.0 0.07698792 
0.0 0.0 0.0 0.0 0.0 0.07698792 
0.0 0.0 0.0 0.0 0.0 0.07698792 
0.0 0.0 0.0 0.0 0.0 0.07698792 
0.0 0.0 0.0 0.0 0.0 0.07698792 
0.0 0.0 0.0 0.0 0.0 0.07698792 
0.0 0.0 0.0 0.0 0.0 0.07698792 
0.0 0.0 0.0 0.0 0.0 0.07698792 
0.0 0.0 0.0 0.0 0.0 0.07698792 
0.0 0.0 0.0 0.0 0.0 0.07698792 
0.0 0.0 0.0 0.0 0.0 0.07698792 
0.0 0.0 0.0 0.0 0.0 0.07698792 
0.0 0.0 0.0 0.0 0.0 0.07698792 
0.0 0.0 0.0 0.0 0.021063033 0.13809288 
0.34317952 0.0 0.0 0.0 0.42086026 0.45173776 
0.63690394 0.0 0.0 0.0 0.8011456 0.85435754 
0.6605465 0.0 0.0 0.0 1.0966467 1.1729474 
0.57824457 0.0 0.0 0.0 1.3487833 1.4984229 
0.37385932 0.0 0.0 0.0 1.4937824 1.6364982 
0.262371 0.0 0.0 0.0 1.5019866 1.6378236 
0.12510808 0.0 0.0 0.0 1.436722 1.4868529 
0.0 0.0 0.0 0.0 1.2961403 1.2062805 
0.0 0.0 0.0 0.0 0.90574324 0.82969683 
0.0 0.0 0.0 0.0 0.52207756 0.4990129 
0.0 0.0 0.0 0.0 0.2997746 0.30461076 
0.0 0.0 0.044093683 0.0 0.12592608 0.15795967 
0.0 0.0 0.0 0.0 0.0 0.08505949 
0.0 0.0 0.0 0.0 0.0 0.07706402 
0.0 0.0 0.0 0.0 0.0 0.07698792 
0.0 0.0 0.0 0.0 0.0 0.07698792 
0.0 0.0 0.0 0.0 0.0 0.07698792 
0.0 0.0 0.0 0.0 0.0 0.07698792 
0.0 0.0 0.0 0.0 0.0 0.07698792 
0.0 0.0 0.0 0.0 0.0 0.07698792 
0.0 0.0 0.0 0.0 0.0 0.07698792 
0.0 0.0 0.0 0.0 0.0 0.07698792 
0.0 0.0 0.0 0.0 0.0 0.07698792 
0.0 0.0 0.0 0.0 0.0 0.07698792 
0.0 0.0 0.0 0.0 0.0 0.07698792 
0.0 0.0 0.0 0.0 0.0 0.07698792 
0.0 0.0 0.0 0.0 0.0 0.07698792 
0.0 0.0 0.0 0.0 0.0 0.0930787 
0.065739214 0.0 0.0 0.0 0.15121065 0.17176196 
0.22060645 0.0 0.0 0.0 0.39784867 0.28988218 
0.300412 0.0 0.0 0.0 0.60679317 0.38821584 
0.2867387 0.0 0.0 0.0 0.76569444 0.47870734 
0.21564025 0.0 0.0 0.0 0.8897727 0.5432163 
0.12301627 0.0 0.0 0.0 0.8941043 0.54349315 
0.0 0.0 0.0 0.0 0.75080174 0.47112432 
0.0 0.0 0.0 0.0 0.49131683 0.35231757 
0.0 0.0 0.0 0.0 0.2849311 0.2450435 
0.0 0.0 0.0 0.0 0.13514876 0.17125529 
0.0 0.0 7.0035458e-06 0.0 0.015793052 0.098629564 
0.0 0.0 0.0 0.0 0.0 0.079096116 
0.0 0.0 0.0 0.0 0.0 0.07706402 
0.0 0.0 0.0 0.0 0.0 0.07698792 
0.0 0.0 0.0 0.0 0.0 0.07698792 
0.0 0.0 0.0 0.0 0.0 0.07698792 
0.0 0.0 0.0 0.0 0.0 0.07698792 
0.0 0.0 0.0 0.0 0.0 0.07698792 
0.0 0.0 0.0 0.0 0.0 0.07698792 
0.0 0.0 0.0 0.0 0.0 0.07698792 
0.0 0.0 0.0 0.0 0.0 0.07698792 
0.0 0.0 0.0 0.0 0.0 0.07698792 
0.0 0.0 0.0 0.0 0.0 0.07698792 
0.0 0.0 0.0 0.0 0.0 0.07698792 
0.0 0.0 0.0 0.0 0.0 0.07698792 
0.0 0.0 0.0 0.0 0.0 0.07698792 
0.0 0.0 0.0 0.0 0.0 0.07698792 
0.0 0.0 0.0 0.0 0.0 0.07698792 
0.0 0.0 0.0 0.0 0.0 0.07698792 
0.0 0.0 0.0 0.0 0.0 0.07698792 
0.0 0.0 0.0 0.0 0.0 0.07698792 
0.0 0.0 0.0 0.0 0.0 0.07698792 
0.0 0.0 0.0 0.0 0.0 0.07698792 
0.0 0.0 0.0 0.0 0.0 0.07698792 
0.0 0.0 0.0 0.0 0.0 0.07698792 
0.0 0.0 0.0 0.0 0.0 0.07698792 
0.0 0.0 0.0 0.0 0.0 0.07698792 
0.0 0.0 0.0 0.0 0.0 0.07698792 
0.0 0.0 0.0 0.0 0.0 0.07698792 
0.0 0.0 0.0 0.0 0.0 0.07698792 
0.0 0.0 0.0 0.0 0.0 0.07698792 
0.0 0.0 0.0 0.0 0.0 0.07698792 
0.0 0.0 0.0 0.0 0.0 0.07698792 
0.0 0.0 0.0 0.0 0.0 0.07698792 
0.0 0.0 0.0 0.0 0.0 0.07698792 
0.0 0.0 0.0 0.0 0.0 0.07698792 

