0.0 0.0 0.0 0.0 0.0 0.07698792 
0.0 0.0 0.0 0.0 0.0 0.07698792 
0.0 0.0 0.0 0.0 0.0 0.07698792 
0.0 0.0 0.0 0.0 0.0 0.07698792 
0.0 0.0 0.0 0.0 0.0 0.07698792 
0.0 0.0 0.0 0.0 0.0 0.07698792 
0.0 0.0 0.0 0.0 0.0 0.07698792 
0.0 0.0 0.0 0.0 0.0 0.07698792 
0.0 0.0 0.0 0.0 0.0 0.07698792 
0.0 0.0 0.0 0.0 0.0 0.07698792 
0.0 0.0 0.0 0.0 0.0 0.07698792 
0.0 0.0 0.0 0.0 0.0 0.07698792 
0.0 0.0 0.0 0.0 0.0 0.07698792 
0.0 0.0 0.0 0.0 0.0 0.07698792 
0.0 0.0 0.0 0.0 0.0 0.07698792 
0.0 0.0 0.0 0.0 0.0 0.07698792 
0.0 0.0 0.0 0.0 0.0 0.07698792 
0.0 0.0 0.0 0.0 0.0 0.07698792 
0.0 0.0 0.0 0.0 0.0 0.07698792 
0.0 0.0 0.0 0.0 0.0 0.07698792 
0.0 0.0 0.0 0.0 0.0 0.07698792 
0.0 0.0 0.0 0.0 0.0 0.07698792 
0.0 0.0 0.0 0.0 0.0 0.07698792 
0.0 0.0 0.0 0.0 0.0 0.07698792 
0.0 0.0 0.0 0.0 0.0 0.07698792 
0.0 0.0 0.0 0.0 0.0 0.07698792 
0.0 0.0 0.0 0.0 0.0 0.07698792 
0.0 0.0 0.0 0.0 0.0 0.07698792 
0.0 0.0 0.0 0.0 0.0 0.07698792 
0.0 0.0 0.0 0.0 0.0 0.07698792 
0.0 0.0 0.0 0.0 0.0 0.07698792 
0.0 0.0 0.0 0.0 0.0 0.07698792 
0.0 0.0 0.0 0.0 0.0 0.07698792 
0.0 0.0 0.0 0.0 0.0 0.07698792 
0.0 0.0 0.0 0.0 0.0 0.07698792 
0.0 0.0 0.0 0.0 0.0 0.07698792 
0.0 0.0 0.0 0.0 0.0 0.07698792 
0.0 0.0 0.0 0.0 0.0 0.07698792 
0.0 0.0 0.0 0.0 0.0 0.07698792 
0.0 0.0 0.0 0.0 0.0 0.07698792 
0.0 0.0 0.0 0.0 0.0 0.07698792 
0.0 0.0 0.0 0.0 0.0 0.07698792 
0.0 0.0 0.0 0.0 0.0 0.07698792 
0.0 0.0 0.0 0.0 0.0 0.07698792 
0.0 0.0 0.0 0.0 0.0 0.07698792 
0.0 0.0 0.0 0.0 0.0 0.07698792 
0.0 0.0 0.0 0.0 0.0 0.07698792 
0.0 0.0 0.0 0.0 0.0 0.07698792 
0.0 0.0 0.0 0.0 0.0 0.07698792 
0.0 0.0 0.0 0.0 0.0 0.07698792 
0.0 0.0 0.0 0.0 0.0 0.07698792 
0.0 0.0 0.0 0.0 0.0 0.07698792 
0.0 0.0 0.0 0.0 0.0 0.07698792 
0.0 0.0 0.0 0.0 0.0 0.07698792 
0.0 0.0 0.0 0.0 0.0 0.07698792 
0.0 0.0 0.0 0.0 0.0 0.07698792 
0.0 0.0 0.0 0.0 0.0 0.07698792 
0.0 0.0 0.0 0.0 0.0 0.07698792 
0.0 0.0 0.0 0.0 0.0 0.07698792 
0.0 0.0 0.0 0.0 0.0 0.07698792 
0.0 0.0 0.0 0.0 0.0 0.07698792 
0.0 0.0 0.0 0.0 0.0 0.07698792 
0.0 0.0 0.0 0.0 0.0 0.07698792 
0.0 0.0 0.0 0.0 0.0 0.07698792 
0.0 0.0 0.0 0.0 0.0 0.07698792 
0.0 0.0 0.0 0.0 0.0 0.07698792 
0.0 0.0 0.0 0.0 0.0 0.07698792 
0.0 0.0 0.0 0.0 0.0 0.07698792 
0.0 0.0 0.0 0.0 0.0 0.07698792 
0.0 0.0 0.0 0.0 0.0 0.07698792 
0.0 0.0 0.0 0.0 0.0 0.07698792 
0.0 0.0 0.0 0.0 0.0 0.07698792 
0.0 0.0 0.0 0.0 0.0 0.07698792 
0.0 0.0 0.0 0.0 0.0 0.07698792 
0.0 0.0 0.0 0.0 0.0 0.07698792 
0.0 0.0 0.0 0.0 0.0 0.07698792 
0.0 0.0 0.0 0.0 0.0 0.07698792 
0.0 0.0 0.0 0.0 0.0 0.07698792 
0.0 0.0 0.0 0.0 0.0 0.07698792 
0.0 0.0 0.0 0.0 0.0 0.07698792 
0.0 0.0 0.0 0.0 0.0 0.07698792 
0.0 0.0 0.0 0.0 0.0 0.07698792 
0.0 0.0 0.0 0.0 0.0 0.07698792 
0.0 0.0 0.0 0.0 0.0 0.07698792 
0.0 0.0 0.0 0.0 0.0 0.07698792 
0.0 0.0 0.0 0.0 0.0 0.07698792 
0.0 0.0 0.0 0.0 0.0 0.07698792 
0.0 0.0 0.0 0.0 0.0 0.07434818 
0.0 0.0 0.0 0.0 0.0 0.044145733 
0.08548263 0.0006259447 0.0821263 0.0 0.0 0.0 
0.15991189 0.09553033 0.1414429 0.0 0.0 0.0 
0.16378346 0.19726618 0.20966396 0.0 0.0 0.0 
0.18272066 0.28394496 0.28925294 0.0 0.0 0.0 
0.23094732 0.33501706 0.34808078 0.0 0.0 0.0 
0.22518691 0.40747163 0.3192764 0.0 0.0 0.0 
0.15217881 0.4069814 0.32892188 0.0 0.0 0.0 
0.10828897 0.4402913 0.26762554 0.0 0.0 0.0 
0.0 0.36037317 0.16483772 0.0 0.0035466664 0.0 
0.0 0.24490958 0.086562015 0.0 0.0060297437 0.0 
0.0 0.13783218 0.0145821795 0.0 0.017685164 0.0 
0.0 0.043273333 0.0 0.0 0.0 0.017683335 
0.0 0.0012756363 0.0 0.0 0.0 0.06812939 
0.0 0.0 0.0 0.0 0.0 0.07698792 
0.0 0.0 0.0 0.0 0.0 0.07698792 
0.0 0.0 0.0 0.0 0.0 0.07698792 
0.0 0.0 0.0 0.0 0.0 0.07698792 
0.0 0.0 0.0 0.0 0.0 0.07698792 
0.0 0.0 0.0 0.0 0.0 0.07698792 
0.0 0.0 0.0 0.0 0.0 0.07698792 
0.0 0.0 0.0 0.0 0.0 0.07698792 
0.0 0.0 0.0 0.0 0.0 0.07698792 
0.0 0.0 0.0 0.0 0.0 0.07698792 
0.0 0.0 0.0 0.0 0.0 0.07698792 
0.0 0.0 0.0 0.0 0.0 0.07698792 
0.0 0.0 0.0 0.0 0.0 0.07698792 
0.023781903 0.0 0.053467408 0.0 0.0 0.02519586 
0.2883662 0.0 0.17406845 0.0 0.0 0.0 
0.5191271 0.074197635 0.27616024 0.0 0.0 0.0 
0.6583885 0.32098532 0.46088046 0.0 0.0 0.0 
0.6423109 0.67181057 0.6506486 0.0 0.0 0.0 
0.49955213 0.82984513 0.7919622 0.0 0.0 0.0 
0.46416378 0.79041296 0.8300671 0.0 0.0 0.0 
0.4908188 0.8638664 0.8839933 0.0 0.01759613 0.0 
0.4080786 0.9760849 0.90142965 0.0 0.06806484 0.0 
0.22988099 1.0234059 1.0006378 0.0 0.17020768 0.0 
0.10189375 0.96200055 0.8874721 0.0 0.24740137 0.0 
0.0 0.93076247 0.72839034 0.0 0.20132352 0.0 
0.0 0.69786227 0.4809199 0.0 0.24404468 0.0 
0.0 0.45354378 0.248701 0.0 0.16772601 0.0 
0.0 0.24090324 0.07717287 0.0 0.091279745 0.0 
0.0 0.08210991 0.0 0.0 0.0076609068 0.0 
0.0 0.006325704 0.0 0.0 0.0 0.06343958 
0.0 0.0 0.0 0.0 0.0 0.07698792 
0.0 0.0 0.0 0.0 0.0 0.07698792 
0.0 0.0 0.0 0.0 0.0 0.07698792 
0.0 0.0 0.0 0.0 0.0 0.07698792 
0.0 0.0 0.0 0.0 0.0 0.07698792 
0.0 0.0 0.0 0.0 0.0 0.07698792 
0.0 0.0 0.0 0.0 0.0 0.07698792 
0.0 0.0 0.0 0.0 0.0 0.07698792 
0.0 0.0 0.0 0.0 0.0 0.07698792 
0.0 0.0 0.0 0.0 0.0 0.07698792 
0.0 0.0 0.0 0.0 0.0 0.06416633 
0.21083704 0.0 0.07581603 0.0 0.0 0.0 
0.7401164 0.0 0.15464547 0.0 0.0 0.0 
1.0707724 0.0 0.22174591 0.0 0.0 0.0 
1.0040877 0.51499414 0.5381421 0.0 0.0 0.0 
0.6211687 0.86385256 0.911427 0.0 0.47034678 0.0 
0.4712277 0.8841917 1.1689029 0.0 0.72424966 0.0 
0.5748106 0.9025921 1.261477 0.0 0.7288589 0.0 
0.5109867 1.0489016 1.3357658 0.0 0.762882 0.0 
0.43321013 1.1580653 1.4427596 0.0 0.8133273 0.0 
0.33062273 1.3377357 1.6141444 0.0 0.79604286 0.0 
0.23927444 1.4098177 1.6344044 0.0 0.70498663 0.0 
0.14514896 1.4297011 1.5746545 0.0 0.6385116 0.0 
0.0 1.4259176 1.4261954 0.0 0.59113306 0.0 
0.0 1.240505 0.9602512 0.0 0.58294326 0.0 
0.0 0.72910064 0.56654793 0.0 0.50396925 0.0 
0.0 0.3682162 0.22495747 0.0 0.2787377 0.0 
0.0 0.11482011 0.0 0.0 0.099764615 0.0 
0.0 0.0 0.0 0.0 0.0 0.07698792 
0.0 0.0 0.0 0.0 0.0 0.07698792 
0.0 0.0 0.0 0.0 0.0 0.07698792 
0.0 0.0 0.0 0.0 0.0 0.07698792 
0.0 0.0 0.0 0.0 0.0 0.07698792 
0.0 0.0 0.0 0.0 0.0 0.07698792 
0.0 0.0 0.0 0.0 0.0 0.07698792 
0.0 0.0 0.0 0.0 0.0 0.07698792 
0.0 0.0 0.0 0.0 0.0 0.07698792 
0.0 0.0 0.0 0.0 0.0 0.07698792 
0.0 0.0 0.0 0.0 0.0 0.082127735 
0.41476583 0.0 0.0 0.0 0.0 0.21284096 
1.1580517 0.0 0.0 0.14752135 0.0 0.2524077 
1.256782 0.049214654 0.0 0.4300337 0.2798622 0.11855822 
0.70716065 0.7292543 0.15108937 0.81329423 0.9976234 0.1402677 
0.18200675 1.0061023 0.60885245 1.0858871 1.6202015 0.40548536 
0.21209684 0.8656192 0.73993367 1.4517154 1.6029617 0.79389113 
0.4512443 0.8627102 0.7583774 1.7279903 1.450569 0.9785305 
0.43370837 1.0238997 0.7586345 1.6506369 1.5083863 0.88942313 
0.3459133 1.1459837 1.0157284 1.6041317 1.4794842 0.7252417 
0.3106649 1.1529576 1.3299366 1.4165845 1.4661945 0.49454492 
0.2618874 1.2122128 1.6380937 1.190178 1.2746067 0.058247022 
0.24546063 1.3589089 1.8482106 0.79404557 1.0830396 0.0 
0.056918398 1.5708449 2.0657332 0.31322864 0.9680682 0.0 
0.0 1.8068951 1.887722 0.0 1.0717396 0.0 
0.0 1.5389106 1.3798623 0.0 0.9905284 0.0 
0.0 0.886318 0.8470016 0.0 0.699278 0.0 
0.0 0.18905427 0.18022484 0.0 0.41695654 0.0 
0.0 0.015864719 0.0 0.0 0.0 0.054581046 
0.0 0.0 0.0 0.0 0.0 0.07698792 
0.0 0.0 0.0 0.0 0.0 0.07698792 
0.0 0.0 0.0 0.0 0.0 0.07698792 
0.0 0.0 0.0 0.0 0.0 0.07698792 
0.0 0.0 0.0 0.0 0.0 0.07698792 
0.0 0.0 0.0 0.0 0.0 0.07698792 
0.0 0.0 0.0 0.0 0.0 0.07698792 
0.0 0.0 0.0 0.0 0.0 0.07698792 
0.0 0.0 0.0 0.0 0.0 0.07698792 
0.0 0.0 0.0 0.01227725 0.0 0.114918366 
0.52016145 0.0 0.0 0.23060858 0.0 0.53531945 
1.2008243 0.0 0.0 0.57207483 0.30050352 0.9586776 
1.1365607 0.18995142 0.0 0.8739631 1.1988829 1.0125492 
0.5068766 0.9017182 0.0 1.1281425 1.79416 1.2208035 
0.0 0.93543166 0.0 1.1232469 2.1644928 1.4848728 
0.15681985 0.44564605 0.0 1.0630076 2.067107 1.7540624 
0.5364289 0.2593667 0.0 1.1403182 1.9239694 1.900882 
0.49107856 0.37001395 0.0 1.2556046 1.9767231 1.8477769 
0.388687 0.42375037 0.0 1.324325 1.9984916 1.8584924 
0.35842013 0.48534948 0.0 1.4619116 1.9105257 1.8392944 
0.52007 0.47243676 0.1647524 1.5142883 1.5806271 1.6198721 
0.7144159 0.85553426 0.7405437 1.450966 1.3066218 1.1216695 
0.48803627 1.2169791 1.4611893 1.1604033 1.1821564 0.33015373 
0.0 1.9677734 2.1243887 0.7961442 1.3084576 0.0 
0.0 1.9772416 2.0945258 0.2769077 1.4364529 0.0 
0.0 1.4055762 1.6452659 0.0 1.0570717 0.0 
0.0 0.48956496 0.63021535 0.0 0.6048441 0.0 
0.0 0.025559392 0.0 0.0 0.038606297 0.028689586 
0.0 0.0 0.0 0.0 0.0 0.07698792 
0.0 0.0 0.0 0.0 0.0 0.07698792 
0.0 0.0 0.0 0.0 0.0 0.07698792 
0.0 0.0 0.0 0.0 0.0 0.07698792 
0.0 0.0 0.0 0.0 0.0 0.07698792 
0.0 0.0 0.0 0.0 0.0 0.07698792 
0.0 0.0 0.0 0.0 0.0 0.07698792 
0.0 0.0 0.0 0.0 0.0 0.07698792 
0.0 0.0 0.0 0.0 0.0 0.07698792 
0.0 0.0 0.0 0.027075265 0.0 0.12587187 
0.5662479 0.0 0.0 0.16731834 0.27677402 0.70911175 
1.075654 0.0 0.0 0.2631596 0.92391104 1.2507343 
0.72150654 0.13083081 0.0 0.29771322 1.4384829 1.158838 
0.27547678 0.39534017 0.0 0.23329733 1.6933014 1.3589225 
0.0 0.38148707 0.0 0.058985863 1.7498962 1.522404 
0.19515806 0.0011766702 0.0 0.0 1.5856293 1.5365047 
0.4240325 0.0 0.0 0.0 1.5196241 1.6385882 
0.38603377 0.0 0.0 0.0 1.5980846 1.6754391 
0.42604947 0.0 0.0 0.0 1.6742842 1.8097737 
0.5199041 0.0 0.0 0.03373078 1.7302676 1.8977664 
0.8812993 0.0 0.0 0.1537846 1.5475324 1.8863165 
1.2195613 0.0 0.0 0.36948475 1.3731529 1.6003914 
1.1663592 0.45944557 0.0 0.51892287 1.3715488 1.0282149 
0.15551634 1.7683866 0.9908838 0.5034484 1.6255769 0.06318149 
0.0 2.027663 1.9729375 0.35612175 1.7612725 0.0 
0.0 1.518212 2.0783262 0.2578915 1.2935079 0.0 
0.0 0.664953 1.0944827 0.05795854 0.7282658 0.0 
0.0 0.031943288 0.047004394 0.0 0.057266567 0.05216912 
0.0 0.0 0.0 0.0 0.0 0.07698792 
0.0 0.0 0.0 0.0 0.0 0.07698792 
0.0 0.0 0.0 0.0 0.0 0.07698792 
0.0 0.0 0.0 0.0 0.0 0.07698792 
0.0 0.0 0.0 0.0 0.0 0.07698792 
0.0 0.0 0.0 0.0 0.0 0.07698792 
0.0 0.0 0.0 0.0 0.0 0.07698792 
0.0 0.0 0.0 0.0 0.0 0.07698792 
0.0 0.0 0.0 0.0 0.0 0.07698792 
0.0 0.0 0.0 0.0 0.0 0.108470105 
0.4202188 0.0 0.0 0.0 0.39559007 0.53284574 
0.7103157 0.0 0.0 0.0 0.85910374 0.934211 
0.30553165 0.0 0.0 0.0 0.96338004 0.79025805 
0.037735038 0.0 0.0 0.0 0.9077539 0.7629487 
0.0 0.0 0.0 0.0 0.91242605 0.7102989 
0.01653073 0.0 0.0 0.0 0.9075449 0.60658604 
0.26252148 0.0 0.0 0.0 0.92971426 0.6479791 
0.24441871 0.0 0.0 0.0 0.98119396 0.691072 
0.36728874 0.0 0.0 0.0 0.98202735 0.7874248 
0.66692644 0.0 0.0 0.0 0.92785496 0.8092594 
1.2687716 0.0 0.0 0.0 0.8692995 0.97622806 
1.7632816 0.0 0.0 0.0 1.0818629 0.96811235 
1.6897123 0.2197629 0.0 0.0 1.6065918 0.7032814 
0.28371692 1.5158412 0.0 0.0 2.0828316 0.19374022 
0.0 1.8119024 1.2622141 0.07907021 2.077952 0.0 
0.0 1.2794906 1.9073555 0.20730087 1.4967543 0.06203279 
0.0 0.42333576 1.2165974 0.11568983 0.7614662 0.040231623 
0.0 0.08609012 0.11932699 0.083555155 0.0 0.08483567 
0.0 0.0 0.0 0.0 0.0 0.07698792 
0.0 0.0 0.0 0.0 0.0 0.07698792 
0.0 0.0 0.0 0.0 0.0 0.07698792 
0.0 0.0 0.0 0.0 0.0 0.07698792 
0.0 0.0 0.0 0.0 0.0 0.07698792 
0.0 0.0 0.0 0.0 0.0 0.07698792 
0.0 0.0 0.0 0.0 0.0 0.07698792 
0.0 0.0 0.0 0.0 0.0 0.07698792 
0.0 0.0 0.0 0.0 0.0 0.07698792 
0.0 0.0 0.0 0.0 0.0 0.082557805 
0.16240582 0.0 0.0 0.0 0.2448859 0.25914097 
0.30022445 0.0 0.0 0.0 0.4559054 0.41351247 
0.036871947 0.0 0.0 0.0 0.29080352 0.29189157 
0.0 0.0 0.0 0.0 0.19152431 0.27537033 
0.0 0.0 0.0 0.0 0.17627223 0.24171288 
0.0 0.0 0.051211618 0.0 0.1063108 0.13470326 
0.015238509 0.0 0.0 0.0 0.04237896 0.12210026 
0.10080856 0.0 0.0 0.0 0.0 0.06495801 
0.41187721 0.0 0.0 0.0 0.0 0.0 
0.9161628 0.0 0.0 0.0 0.0 0.0 
1.6854494 0.0 0.0 0.0 0.26518115 0.0 
1.9927447 0.09112853 0.0 0.0 1.0637256 0.18424952 
1.2765894 0.64437306 0.0 0.0 2.1677213 0.40762857 
0.0 1.4245492 0.0 0.0 2.5726492 0.31738785 
0.0 1.5100577 0.92637074 0.22151613 2.1371865 0.20909876 
0.0 0.8940853 1.5347604 0.28456932 1.3447287 0.43808883 
0.0 0.2575398 1.0335869 0.19435103 0.5151621 0.1646636 
0.0 0.007505185 0.07850783 0.025557525 0.0 0.09638169 
0.0 0.0 0.0 0.0 0.0 0.07698792 
0.0 0.0 0.0 0.0 0.0 0.07698792 
0.0 0.0 0.0 0.0 0.0 0.07698792 
0.0 0.0 0.0 0.0 0.0 0.07698792 
0.0 0.0 0.0 0.0 0.0 0.07698792 
0.0 0.0 0.0 0.0 0.0 0.07698792 
0.0 0.0 0.0 0.0 0.0 0.07698792 
0.0 0.0 0.0 0.0 0.0 0.07698792 
0.0 0.0 0.0 0.0 0.0 0.07698792 
0.0 0.0 0.0 0.0 0.0 0.07698792 
0.0 0.0 0.0 0.0 0.009839114 0.106693976 
0.0 0.0 0.0 0.0 0.03962676 0.12622833 
0.0 0.0 0.0 0.0 0.0018593557 0.10193685 
0.0 0.0 0.0 0.0 0.0 0.10865368 
0.0 0.0 0.0 0.0 0.0 0.094746865 
0.0 0.0 0.044650353 0.0 0.0 0.025265634 
0.17146385 0.0 0.13778523 0.0 0.0 0.0 
0.4085641 0.03769265 0.23332372 0.0 0.0 0.0 
0.8131482 0.0 0.25304535 0.0 0.0 0.0 
1.2971718 0.035077855 0.29638648 0.0 0.0 0.0 
1.5915368 0.37456873 0.016448237 0.0 0.5985867 0.0 
1.2650902 0.81736594 0.0 0.044423763 1.8675392 0.168773 
0.5027094 1.2517457 0.0 0.307016 2.7370102 0.6090309 
0.0 1.5528378 0.0 0.35503176 2.550247 0.67123234 
0.0 1.0000285 0.76665145 0.38829178 1.7322717 0.5727706 
0.0 0.39048052 1.105498 0.26165718 0.8919487 0.5265275 
0.0 0.1325872 0.7370589 0.16281214 0.23976044 0.18781435 
0.0 0.0 0.0 0.0 0.0 0.0817822 
0.0 0.0 0.0 0.0 0.0 0.07698792 
0.0 0.0 0.0 0.0 0.0 0.07698792 
0.0 0.0 0.0 0.0 0.0 0.07698792 
0.0 0.0 0.0 0.0 0.0 0.07698792 
0.0 0.0 0.0 0.0 0.0 0.07698792 
0.0 0.0 0.0 0.0 0.0 0.07698792 
0.0 0.0 0.0 0.0 0.0 0.07698792 
0.0 0.0 0.0 0.0 0.0 0.07698792 
0.0 0.0 0.0 0.0 0.0 0.07698792 
0.0 0.0 0.0 0.0 0.0 0.07698792 
0.0 0.0 0.0 0.0 0.0 0.07698792 
0.0 0.0 0.0 0.0 0.0 0.07698792 
0.0 0.0 0.0 0.0 0.0 0.07698792 
0.0 0.0 0.001955334 0.0 0.0 0.0490821 
0.1666255 0.0 0.15168196 0.0 0.0 0.0 
0.4105366 0.05684012 0.23548466 0.0 0.0 0.0 
0.6342202 0.11674717 0.32754493 0.0 0.0 0.0 
0.9704774 0.21643353 0.43088478 0.0 0.0 0.0 
1.3195271 0.35958627 0.42379797 0.0 0.0 0.0 
1.4518588 0.6738822 0.32566172 0.0 0.60280627 0.0 
1.2711439 1.0693991 0.16511959 0.0 1.7119166 0.0 
0.7423342 1.6495386 0.010186128 0.06759687 2.4488242 0.13001278 
0.0 1.8198429 0.12371952 0.0 2.6301968 0.24292237 
0.0 1.5146779 0.30416796 0.0 2.014333 0.25042444 
0.0 0.7490039 0.71467024 0.0 1.0980004 0.25783426 
0.0 0.2724374 0.738615 0.0 0.47490433 0.26394424 
0.0 0.0 0.3895124 0.0 0.1255982 0.10328765 
0.0 0.0 0.0 0.0 0.0 0.07698792 
0.0 0.0 0.0 0.0 0.0 0.07698792 
0.0 0.0 0.0 0.0 0.0 0.07698792 
0.0 0.0 0.0 0.0 0.0 0.07698792 
0.0 0.0 0.0 0.0 0.0 0.07698792 
0.0 0.0 0.0 0.0 0.0 0.07698792 
0.0 0.0 0.0 0.0 0.0 0.07698792 
0.0 0.0 0.0 0.0 0.0 0.07698792 
0.0 0.0 0.0 0.0 0.0 0.07698792 
0.0 0.0 0.0 0.0 0.0 0.07698792 
0.0 0.0 0.0 0.0 0.0 0.07698792 
0.0 0.0 0.0 0.0 0.0 0.07698792 
0.0 0.0 0.0 0.0 0.0 0.07698792 
0.0 0.0 0.0 0.0 0.0 0.07698792 
0.056706026 0.0 0.012588821 0.0 0.0 0.047291867 
0.47912055 0.0 0.11334596 0.0 0.0 0.0 
0.9594913 0.0 0.23427641 0.0 0.0 0.0 
1.2337852 0.1952684 0.3762764 0.0 0.0 0.0 
1.2026491 0.6237659 0.60941434 0.0 0.25327256 0.0 
1.1960666 0.819657 0.5276513 0.0 1.1429383 0.0 
1.3127549 1.0639833 0.21687147 0.040739473 1.8898059 0.008545406 
1.0634127 1.5412706 0.10045416 0.03789377 2.246927 0.11549873 
0.5521516 1.8300537 0.30065316 0.0 2.4107723 0.031221353 
0.0 1.8549206 0.81858426 0.0 2.1155715 0.0 
0.0 1.5208536 1.1530608 0.0 1.4425777 0.0 
0.0 0.89374757 0.99285746 0.0 0.963162 0.0 
0.0 0.4379542 0.66543615 0.0 0.5633351 0.0 
0.0 0.14043446 0.20883149 0.0 0.24951662 0.0 
0.0 0.071534865 0.0 0.0 0.0114878155 0.0 
0.0 0.0 0.0 0.0 0.0 0.07229811 
0.0 0.0 0.0 0.0 0.0 0.07698792 
0.0 0.0 0.0 0.0 0.0 0.07698792 
0.0 0.0 0.0 0.0 0.0 0.07698792 
0.0 0.0 0.0 0.0 0.0 0.07698792 
0.0 0.0 0.0 0.0 0.0 0.07698792 
0.0 0.0 0.0 0.0 0.0 0.07698792 
0.0 0.0 0.0 0.0 0.0 0.07698792 
0.0 0.0 0.0 0.0 0.0 0.07698792 
0.0 0.0 0.0 0.0 0.0 0.07698792 
0.0 0.0 0.0 0.0 0.0 0.07698792 
0.0 0.0 0.0 0.0 0.0 0.07698792 
0.0 0.0 0.0 0.0 0.0 0.07698792 
0.09553656 0.0 0.0 0.02979305 0.0 0.18335906 
0.6360332 0.0 0.0 0.19114363 0.0 0.40163988 
1.1594148 0.0 0.0 0.5199248 0.0 0.41162363 
1.1908839 0.15247445 0.0 0.9363217 0.6233307 0.4475999 
0.9555575 0.6795839 0.1307596 1.1255339 1.4692618 0.6946983 
0.91091067 0.92867434 0.061432622 1.0607848 2.192974 0.97981644 
0.9272867 0.98585355 0.0 0.9854388 2.4385083 1.2175937 
0.7300644 0.9955067 0.0 0.6872632 2.4612803 1.0615511 
0.3058623 1.1541681 0.5176666 0.34282935 2.1924596 0.47492734 
0.0 1.1998695 1.348654 0.047776993 1.6477947 0.0 
0.0 1.393305 1.9866301 0.0 1.2690519 0.0 
0.0 1.4679716 1.8470572 0.0 1.0478281 0.0 
0.0 1.2582386 1.2669464 0.0 0.79050153 0.0 
0.0 0.74592453 0.6520395 0.0 0.5644503 0.0 
0.0 0.3055425 0.18263587 0.0 0.27650383 0.0 
0.0 0.10000992 0.0 0.0 0.04923443 0.0 
0.0 0.0 0.0 0.0 0.0 0.07021375 
0.0 0.0 0.0 0.0 0.0 0.07698792 
0.0 0.0 0.0 0.0 0.0 0.07698792 
0.0 0.0 0.0 0.0 0.0 0.07698792 
0.0 0.0 0.0 0.0 0.0 0.07698792 
0.0 0.0 0.0 0.0 0.0 0.07698792 
0.0 0.0 0.0 0.0 0.0 0.07698792 
0.0 0.0 0.0 0.0 0.0 0.07698792 
0.0 0.0 0.0 0.0 0.0 0.07698792 
0.0 0.0 0.0 0.0 0.0 0.07698792 
0.0 0.0 0.0 0.0 0.0 0.07698792 
0.0 0.0 0.0 0.0 0.0 0.07698792 
0.14739175 0.0 0.0 0.11262309 0.0 0.29938287 
0.66480607 0.0 0.0 0.42593092 0.18613921 0.8054419 
0.99792284 0.0 0.0 0.7699548 0.74108315 1.1770554 
0.9844039 0.09684709 0.0 1.0934995 1.4662868 1.4424782 
0.7962182 0.4701242 0.0 1.3189578 1.9958867 1.7499912 
0.543943 0.54003876 0.0 1.2978604 2.3483067 1.8896852 
0.55200136 0.38842002 0.0 1.1364138 2.459277 1.9619164 
0.4284317 0.4199415 0.0 1.2147408 2.2126703 1.9147246 
0.2505852 0.42932472 0.0 1.2463398 1.8765631 1.5940652 
0.3362063 0.625591 0.8292716 1.295803 1.4826732 1.0697708 
0.22138357 1.0714879 1.741955 1.1484703 1.1653348 0.2316413 
0.0 1.5485117 2.2081745 0.69024223 1.012646 0.0 
0.0 1.7963991 2.11224 0.0036193067 1.0044092 0.0 
0.0 1.6094811 1.5500356 0.0 0.8965445 0.0 
0.0 0.87937164 0.8166676 0.0 0.65020925 0.0 
0.0 0.2923204 0.20946959 0.0 0.3499062 0.0 
0.0 0.07656479 0.0 0.0 0.043244008 0.0 
0.0 0.0 0.0 0.0 0.0 0.07698792 
0.0 0.0 0.0 0.0 0.0 0.07698792 
0.0 0.0 0.0 0.0 0.0 0.07698792 
0.0 0.0 0.0 0.0 0.0 0.07698792 
0.0 0.0 0.0 0.0 0.0 0.07698792 
0.0 0.0 0.0 0.0 0.0 0.07698792 
0.0 0.0 0.0 0.0 0.0 0.07698792 
0.0 0.0 0.0 0.0 0.0 0.07698792 
0.0 0.0 0.0 0.0 0.0 0.07698792 
0.0 0.0 0.0 0.0 0.0 0.07698792 
0.0 0.0 0.0 0.0 0.0 0.07698792 
0.13160674 0.0 0.0 0.039975226 0.09074968 0.28071284 
0.6476924 0.0 0.0 0.030979622 0.5984636 0.8533384 
0.86123395 0.0 0.0 0.009850633 1.0708245 1.2671316 
0.7241456 0.0 0.0 0.0 1.3764913 1.4296174 
0.6017527 0.044622958 0.0 0.0 1.5950037 1.6725526 
0.57286626 0.0980528 0.0 0.0 1.6280557 1.6090515 
0.714369 0.19056809 0.0 0.0 1.5863494 1.3330922 
0.71077055 0.2553722 0.0 0.0 1.7232488 1.2522032 
0.5539014 0.30072883 0.0 0.0 1.7412356 1.261101 
0.57024187 0.22374602 0.0 0.34256366 1.6393493 1.373066 
0.69071615 0.34642312 0.0 0.83544105 1.3972324 1.2930079 
0.55744916 0.93174464 1.075069 1.0704786 1.0708065 0.5619155 
0.027232066 1.6156272 2.038622 0.81518483 1.0256475 0.0 
0.0 1.9295492 2.2367733 0.2835664 1.2085882 0.0 
0.0 1.5517303 1.6462777 0.0 1.0649133 0.0 
0.0 0.73019886 0.7696618 0.0 0.6693579 0.0 
0.0 0.10185327 0.08231024 0.0 0.27018458 0.0 
0.0 0.0 0.0 0.0 0.0 0.07698792 
0.0 0.0 0.0 0.0 0.0 0.07698792 
0.0 0.0 0.0 0.0 0.0 0.07698792 
0.0 0.0 0.0 0.0 0.0 0.07698792 
0.0 0.0 0.0 0.0 0.0 0.07698792 
0.0 0.0 0.0 0.0 0.0 0.07698792 
0.0 0.0 0.0 0.0 0.0 0.07698792 
0.0 0.0 0.0 0.0 0.0 0.07698792 
0.0 0.0 0.0 0.0 0.0 0.07698792 
0.0 0.0 0.0 0.0 0.0 0.07698792 
0.0 0.0 0.0 0.0 0.0 0.07698792 
0.054903015 0.0 0.0 0.0 0.12653707 0.16664445 
0.3647366 0.0 0.0 0.0 0.45664278 0.41931403 
0.57911927 0.0 0.0 0.0 0.67502576 0.57677823 
0.64693964 0.0 0.0 0.0 0.691991 0.50695384 
0.77573675 0.0 0.0 0.0 0.68424505 0.37512678 
0.90363747 0.0 0.0 0.0 0.6927231 0.14357233 
0.96163756 0.053474404 0.0 0.0 0.87455404 0.0 
0.781663 0.40794536 0.0 0.0 1.3970746 0.07811384 
0.42920905 0.49348018 0.0 0.0 1.8877002 0.5915382 
0.3162646 0.054976195 0.0 0.0 2.104824 1.2818761 
0.72807676 0.0 0.0 0.0 1.6534718 1.647115 
1.0989404 0.0 0.0 0.45002255 1.1929241 1.3321092 
0.5787293 0.9034214 0.564797 0.6026011 1.2033199 0.47239456 
0.0 1.9035909 1.9663757 0.5979478 1.3995937 0.0 
0.0 1.785541 2.1670647 0.20644931 1.4651734 0.0 
0.0 1.1099464 1.4558278 0.020308968 0.9246697 0.0 
0.0 0.24768242 0.34626794 0.0 0.3944308 0.0 
0.0 0.0 0.0 0.0 0.0 0.07698792 
0.0 0.0 0.0 0.0 0.0 0.07698792 
0.0 0.0 0.0 0.0 0.0 0.07698792 
0.0 0.0 0.0 0.0 0.0 0.07698792 
0.0 0.0 0.0 0.0 0.0 0.07698792 
0.0 0.0 0.0 0.0 0.0 0.07698792 
0.0 0.0 0.0 0.0 0.0 0.07698792 
0.0 0.0 0.0 0.0 0.0 0.07698792 
0.0 0.0 0.0 0.0 0.0 0.07698792 
0.0 0.0 0.0 0.0 0.0 0.07698792 
0.0 0.0 0.0 0.0 0.0 0.07698792 
0.0 0.0 0.0 0.0 0.0 0.082557805 
0.06338775 0.0 0.0 0.0 0.035216507 0.1268936 
0.38925177 0.0 0.0 0.0 0.0 0.0706905 
0.7830549 0.0 0.0 0.0 0.0 0.0 
1.0184386 0.0 0.0 0.0 0.0 0.0 
1.0271454 0.18051192 0.0 0.0 0.303499 0.0 
0.5907322 0.47191718 0.13392293 0.0 1.0620018 0.0 
0.0 0.72151583 0.19807422 0.0 1.7259437 0.0 
0.0 0.5915235 0.08903352 0.0 1.9562742 0.15663439 
0.023757927 0.060632057 0.0 0.0 1.7696344 0.7990059 
1.089957 0.0 0.0 0.0 1.2534415 1.2968922 
1.7247927 0.0 0.0 0.0 1.0890718 1.2595909 
1.2533724 0.43670192 0.0 0.0 1.2971317 0.5938548 
0.0 1.8277819 0.9192214 0.1584185 1.6544459 0.0 
0.0 1.8309653 2.0082996 0.1348366 1.7514178 0.0 
0.0 1.1345799 1.8187575 0.0977041 1.0849645 0.0 
0.0 0.37334347 0.6476649 0.0 0.4421039 0.0 
0.0 0.0 0.0 0.0 0.0 0.07698792 
0.0 0.0 0.0 0.0 0.0 0.07698792 
0.0 0.0 0.0 0.0 0.0 0.07698792 
0.0 0.0 0.0 0.0 0.0 0.07698792 
0.0 0.0 0.0 0.0 0.0 0.07698792 
0.0 0.0 0.0 0.0 0.0 0.07698792 
0.0 0.0 0.0 0.0 0.0 0.07698792 
0.0 0.0 0.0 0.0 0.0 0.07698792 
0.0 0.0 0.0 0.0 0.0 0.07698792 
0.0 0.0 0.0 0.0 0.0 0.07698792 
0.0 0.0 0.0 0.0 0.0 0.07698792 
0.0 0.0 0.0 0.0 0.0 0.07698792 
0.011892185 0.0 0.0 0.0 0.0 0.09414218 
0.49790555 0.0 0.0 0.0 0.0 0.12699834 
1.196903 0.0 0.062188715 0.0 0.0 0.0046904758 
1.3357174 0.1612435 0.10623462 0.119181216 0.09758206 0.0 
0.78704494 1.0106859 0.4173624 0.4603821 0.9850581 0.0 
0.0 1.4736543 0.61069393 0.60781145 1.8347929 0.0 
0.0 1.5168672 0.8099577 0.756827 1.7152159 0.21779245 
0.0 0.9532331 1.03495 0.57135445 1.1089542 0.36440924 
0.2710214 0.41623014 0.80711097 0.1559783 0.46503976 0.33350363 
1.4169991 0.0 0.0 0.0 0.39048383 0.54345787 
2.100319 0.0 0.0 0.0 0.87708575 0.58623165 
1.4943297 0.6575086 0.0 0.0 1.6055552 0.25782168 
0.0 1.6281009 0.12800133 0.0 2.0815756 0.0 
0.0 1.7064027 1.6228735 0.035298865 1.8979231 0.0 
0.0 0.9828706 1.7222708 0.053180065 1.2162071 0.022246033 
0.0 0.25360388 0.7715815 0.014047642 0.47426638 0.0027016327 
0.0 0.0 0.0 0.0 0.0 0.07698792 
0.0 0.0 0.0 0.0 0.0 0.07698792 
0.0 0.0 0.0 0.0 0.0 0.07698792 
0.0 0.0 0.0 0.0 0.0 0.07698792 
0.0 0.0 0.0 0.0 0.0 0.07698792 
0.0 0.0 0.0 0.0 0.0 0.07698792 
0.0 0.0 0.0 0.0 0.0 0.07698792 
0.0 0.0 0.0 0.0 0.0 0.07698792 
0.0 0.0 0.0 0.0 0.0 0.07698792 
0.0 0.0 0.0 0.0 0.0 0.07698792 
0.0 0.0 0.0 0.0 0.0 0.07698792 
0.0 0.0 0.0 0.0 0.0 0.07698792 
0.06106153 0.0 0.0 0.017055985 0.0 0.1458922 
0.79596823 0.0 0.0 0.13227855 0.0 0.44723538 
1.6080666 0.0 0.0 0.32945344 0.0 0.50494397 
1.596343 0.47985247 0.0 0.44269595 0.7618357 0.24216315 
0.8434622 1.637167 0.26604497 0.3358194 1.6979135 0.055713788 
0.0 1.9655294 0.6514772 0.0 2.202525 0.0 
0.0 1.4637727 0.72928727 0.0 1.4758441 0.0 
0.0 0.71416444 0.7311259 0.0 0.47867247 0.0 
0.5897346 0.11293283 0.73018664 0.0 0.022705916 0.0 
1.5919406 0.0 0.14084208 0.0 0.43354717 0.0 
1.9000044 0.4096227 0.0 0.0 1.3171589 0.11918214 
0.90249014 1.0602471 0.0 0.0 2.2123146 0.2312348 
0.0 1.6479034 0.0 0.0 2.359596 0.14889055 
0.0 1.427237 1.4313098 0.28219923 1.8769125 0.14569595 
0.0 0.6911264 1.5120796 0.24966434 1.1047618 0.2798786 
0.0 0.18355028 0.7334295 0.13392347 0.33192798 0.07905202 
0.0 0.0 0.0 0.0 0.0 0.07698792 
0.0 0.0 0.0 0.0 0.0 0.07698792 
0.0 0.0 0.0 0.0 0.0 0.07698792 
0.0 0.0 0.0 0.0 0.0 0.07698792 
0.0 0.0 0.0 0.0 0.0 0.07698792 
0.0 0.0 0.0 0.0 0.0 0.07698792 
0.0 0.0 0.0 0.0 0.0 0.07698792 
0.0 0.0 0.0 0.0 0.0 0.07698792 
0.0 0.0 0.0 0.0 0.0 0.07698792 
0.0 0.0 0.0 0.0 0.0 0.07698792 
0.0 0.0 0.0 0.0 0.0 0.07698792 
0.0 0.0 0.0 0.0 0.0 0.07698792 
0.081388876 0.0 0.0 0.034113247 0.0 0.20283858 
0.96772784 0.0 0.0 0.20608519 0.042258073 0.8079424 
1.8806484 0.0 0.0 0.27482417 0.56478 1.116189 
1.7771921 0.31061476 0.0 0.22012593 1.2293952 0.70885867 
0.8715868 1.2990029 0.0 0.0 1.7060236 0.1714567 
0.0 1.6192951 1.0660113 0.0 1.7551692 0.0 
0.0 1.1859797 1.3475922 0.0 1.0897946 0.0 
0.29181886 0.5842722 1.1148138 0.0 0.60787886 0.0 
0.8863577 0.37518364 0.74661285 0.0 0.5123951 0.0 
1.267173 0.5689399 0.14755628 0.0 1.324409 0.0 
0.9937386 0.98396415 0.0 0.141567 2.3233802 0.3649939 
0.21871057 1.4182588 0.0 0.3980014 2.6962574 0.6193757 
0.0 1.5369114 0.14166874 0.49040857 2.3226824 0.67926127 
0.0 0.8468949 1.0933437 0.45617366 1.5170475 0.5709182 
0.0 0.39724204 1.1585839 0.3268989 0.6909577 0.41466537 
0.0 0.103825375 0.56161195 0.14140052 0.1480646 0.12565356 
0.0 0.0 0.0 0.0 0.0 0.07698792 
0.0 0.0 0.0 0.0 0.0 0.07698792 
0.0 0.0 0.0 0.0 0.0 0.07698792 
0.0 0.0 0.0 0.0 0.0 0.07698792 
0.0 0.0 0.0 0.0 0.0 0.07698792 
0.0 0.0 0.0 0.0 0.0 0.07698792 
0.0 0.0 0.0 0.0 0.0 0.07698792 
0.0 0.0 0.0 0.0 0.0 0.07698792 
0.0 0.0 0.0 0.0 0.0 0.07698792 
0.0 0.0 0.0 0.0 0.0 0.07698792 
0.0 0.0 0.0 0.0 0.0 0.07698792 
0.0 0.0 0.0 0.0 0.0 0.07698792 
0.074883714 0.0 0.0 0.016526543 0.02974103 0.21216671 
0.9199415 0.0 0.0 0.12139506 0.4244919 0.9306585 
1.6654818 0.0 0.0 0.2615066 0.88889515 1.4087663 
1.5542107 0.0 0.0 0.35584638 1.3057008 1.1537211 
0.8453327 0.6192141 0.0 0.4589003 1.4261762 0.73831034 
0.1038433 1.0326899 1.441181 0.47285256 1.4110037 0.039194666 
0.114227206 1.002041 1.844175 0.30678454 1.3230366 0.0 
0.41585225 0.9350067 1.4492215 0.38240084 1.2623864 0.0 
0.828726 0.9633756 0.6439554 0.46679872 1.6497189 0.0 
0.7570772 1.2075301 0.06324842 0.6370723 2.4425066 0.5692138 
0.22998595 1.4452266 0.0 0.7382043 2.7777467 0.91586953 
0.0 1.359921 0.0 0.56986207 2.6044576 1.0453537 
0.0 0.86987126 0.1797005 0.30731872 1.8061367 0.9043198 
0.0 0.37529168 0.63422793 0.19868362 0.80289906 0.62913847 
0.0 0.1119845 0.65161234 0.10122329 0.3243181 0.36208773 
0.0 0.0 0.27537566 0.017285042 0.057840046 0.11818713 
0.0 0.0 0.0 0.0 0.0 0.07698792 
0.0 0.0 0.0 0.0 0.0 0.07698792 
0.0 0.0 0.0 0.0 0.0 0.07698792 
0.0 0.0 0.0 0.0 0.0 0.07698792 
0.0 0.0 0.0 0.0 0.0 0.07698792 
0.0 0.0 0.0 0.0 0.0 0.07698792 
0.0 0.0 0.0 0.0 0.0 0.07698792 
0.0 0.0 0.0 0.0 0.0 0.07698792 
0.0 0.0 0.0 0.0 0.0 0.07698792 
0.0 0.0 0.0 0.0 0.0 0.07698792 
0.0 0.0 0.0 0.0 0.0 0.07698792 
0.0 0.0 0.0 0.0 0.0 0.07698792 
0.027286008 0.0 0.0 0.0 0.026239257 0.17003962 
0.6762965 0.0 0.0 0.048598893 0.49627104 0.79839915 
1.2628384 0.0 0.0 0.1512611 0.9959145 1.4448996 
1.1634662 0.0 0.0 0.4306526 1.3087713 1.54007 
0.76352537 0.10165919 0.0 0.90682834 1.4631554 1.5961142 
0.23800403 0.49888644 0.22864488 1.4497005 1.6054355 1.5079377 
0.2424151 0.7492143 0.81720924 1.7236488 1.7989911 1.3697283 
0.41388702 0.9425457 0.59463584 1.7353169 2.0463707 1.3817675 
0.4140258 1.0052376 0.080949076 1.5656699 2.4213402 1.5327146 
0.072122544 1.1201493 0.0 1.1912838 2.6303594 1.4388938 
0.0 1.0548965 0.0 0.6919973 2.4496589 1.331733 
0.0 0.7376496 0.0 0.22202171 1.7807662 1.1228459 
0.0 0.2538867 0.17948127 0.0 0.93267363 0.68034756 
0.0 0.0 0.22397953 0.0 0.37405643 0.41829664 
0.0 0.0 0.20159766 0.0 0.15331072 0.20420305 
0.0 0.0 0.04128795 0.0 0.0 0.09022092 
0.0 0.0 0.0 0.0 0.0 0.07698792 
0.0 0.0 0.0 0.0 0.0 0.07698792 
0.0 0.0 0.0 0.0 0.0 0.07698792 
0.0 0.0 0.0 0.0 0.0 0.07698792 
0.0 0.0 0.0 0.0 0.0 0.07698792 
0.0 0.0 0.0 0.0 0.0 0.07698792 
0.0 0.0 0.0 0.0 0.0 0.07698792 
0.0 0.0 0.0 0.0 0.0 0.07698792 
0.0 0.0 0.0 0.0 0.0 0.07698792 
0.0 0.0 0.0 0.0 0.0 0.07698792 
0.0 0.0 0.0 0.0 0.0 0.07698792 
0.0 0.0 0.0 0.0 0.0 0.07698792 
0.0 0.0 0.0 0.0 0.011317048 0.116515495 
0.39400074 0.0 0.0 0.0 0.41776165 0.49224156 
0.87070847 0.0 0.0 0.0 0.8886648 1.0733457 
0.87500197 0.0 0.0 0.0 1.2545286 1.377291 
0.7361432 0.0 0.0 0.12645683 1.5817665 1.6967897 
0.50955707 0.0 0.0 0.5004864 1.8515098 1.9294083 
0.36343408 0.15809818 0.0 0.7968528 2.037141 1.8614511 
0.28414518 0.30047068 0.0 0.86609733 2.1526706 1.8298609 
0.20154032 0.4505609 0.0 0.75908357 2.134389 1.8322241 
0.0 0.5107803 0.0 0.32834718 1.9414876 1.4756343 
0.0 0.35022497 0.0 0.06147186 1.347021 1.0117525 
0.0 0.089219935 0.10073481 0.0 0.76765674 0.67821103 
0.0 0.0 0.24092439 0.0 0.3931104 0.35724863 
0.0 0.0 0.031920522 0.0 0.14568615 0.17292938 
0.0 0.0 0.0 0.0 0.005657818 0.09649666 
0.0 0.0 0.0 0.0 0.0 0.07843382 
0.0 0.0 0.0 0.0 0.0 0.07698792 
0.0 0.0 0.0 0.0 0.0 0.07698792 
0.0 0.0 0.0 0.0 0.0 0.07698792 
0.0 0.0 0.0 0.0 0.0 0.07698792 
0.0 0.0 0.0 0.0 0.0 0.07698792 
0.0 0.0 0.0 0.0 0.0 0.07698792 
0.0 0.0 0.0 0.0 0.0 0.07698792 
0.0 0.0 0.0 0.0 0.0 0.07698792 
0.0 0.0 0.0 0.0 0.0 0.07698792 
0.0 0.0 0.0 0.0 0.0 0.07698792 
0.0 0.0 0.0 0.0 0.0 0.07698792 
0.0 0.0 0.0 0.0 0.0 0.07698792 
0.0 0.0 0.0 0.0 0.0 0.082557805 
0.113820106 0.0 0.0 0.0 0.1819195 0.22154771 
0.43272644 0.0 0.0 0.0 0.5440431 0.5394317 
0.54009 0.0 0.0 0.0 0.8458763 0.7930592 
0.5282089 0.0 0.0 0.0 1.066912 1.0617263 
0.50774497 0.0 0.0 0.0 1.3067486 1.3773 
0.3026782 0.0 0.0 0.0 1.4248065 1.4338322 
0.18999684 0.0 0.0 0.0 1.3603178 1.3564072 
0.103658006 0.0 0.0 0.0 1.2938548 1.2486446 
0.0 0.0 0.0 0.0 0.8916661 0.8642209 
0.0 0.0 0.0 0.0 0.48747846 0.505402 
0.0 0.0 0.089720495 0.0 0.28292033 0.35210726 
0.0 0.0 0.20481914 0.0 0.10202144 0.14253658 
0.0 0.0 0.0 0.0 0.0 0.08018411 
0.0 0.0 0.0 0.0 0.0 0.07698792 
0.0 0.0 0.0 0.0 0.0 0.07698792 
0.0 0.0 0.0 0.0 0.0 0.07698792 
0.0 0.0 0.0 0.0 0.0 0.07698792 
0.0 0.0 0.0 0.0 0.0 0.07698792 
0.0 0.0 0.0 0.0 0.0 0.07698792 
0.0 0.0 0.0 0.0 0.0 0.07698792 
0.0 0.0 0.0 0.0 0.0 0.07698792 
0.0 0.0 0.0 0.0 0.0 0.07698792 
0.0 0.0 0.0 0.0 0.0 0.07698792 
0.0 0.0 0.0 0.0 0.0 0.07698792 
0.0 0.0 0.0 0.0 0.0 0.07698792 
0.0 0.0 0.0 0.0 0.0 0.07698792 
0.0 0.0 0.0 0.0 0.0 0.07698792 
0.0 0.0 0.0 0.0 0.0 0.07698792 
0.0 0.0 0.0 0.0 0.0 0.10050522 
0.08177307 0.0 0.0 0.0 0.17466033 0.1836079 
0.14816436 0.0 0.0 0.0 0.294104 0.24432176 
0.19023639 0.0 0.0 0.0 0.46119592 0.3161852 
0.25164035 0.0 0.0 0.0 0.67935795 0.4454463 
0.1478519 0.0 0.0 0.0 0.6913819 0.43674964 
0.045068756 0.0 0.0 0.0 0.63037825 0.4119578 
0.0 0.0 0.0 0.0 0.544146 0.3882631 
0.0 0.0 0.0 0.0 0.32510498 0.25729597 
0.0 0.0 0.0 0.0 0.1529329 0.17865041 
0.0 0.0 0.0 0.0 0.060607035 0.13724047 
0.0 0.0 0.0 0.0 0.0 0.0834564 
0.0 0.0 0.0 0.0 0.0 0.07698792 
0.0 0.0 0.0 0.0 0.0 0.07698792 
0.0 0.0 0.0 0.0 0.0 0.07698792 
0.0 0.0 0.0 0.0 0.0 0.07698792 
0.0 0.0 0.0 0.0 0.0 0.07698792 
0.0 0.0 0.0 0.0 0.0 0.07698792 
0.0 0.0 0.0 0.0 0.0 0.07698792 
0.0 0.0 0.0 0.0 0.0 0.07698792 
0.0 0.0 0.0 0.0 0.0 0.07698792 
0.0 0.0 0.0 0.0 0.0 0.07698792 
0.0 0.0 0.0 0.0 0.0 0.07698792 
0.0 0.0 0.0 0.0 0.0 0.07698792 
0.0 0.0 0.0 0.0 0.0 0.07698792 
0.0 0.0 0.0 0.0 0.0 0.07698792 
0.0 0.0 0.0 0.0 0.0 0.07698792 
0.0 0.0 0.0 0.0 0.0 0.07698792 
0.0 0.0 0.0 0.0 0.0 0.07698792 
0.0 0.0 0.0 0.0 0.0 0.07698792 
0.0 0.0 0.0 0.0 0.0 0.07698792 
0.0 0.0 0.0 0.0 0.0 0.07698792 
0.0 0.0 0.0 0.0 0.0 0.07698792 
0.0 0.0 0.0 0.0 0.0 0.07698792 
0.0 0.0 0.0 0.0 0.0 0.07698792 
0.0 0.0 0.0 0.0 0.0 0.07698792 
0.0 0.0 0.0 0.0 0.0 0.07698792 
0.0 0.0 0.0 0.0 0.0 0.07698792 
0.0 0.0 0.0 0.0 0.0 0.07698792 
0.0 0.0 0.0 0.0 0.0 0.07698792 
0.0 0.0 0.0 0.0 0.0 0.07698792 
0.0 0.0 0.0 0.0 0.0 0.07698792 
0.0 0.0 0.0 0.0 0.0 0.07698792 
0.0 0.0 0.0 0.0 0.0 0.07698792 
0.0 0.0 0.0 0.0 0.0 0.07698792 
0.0 0.0 0.0 0.0 0.0 0.07698792 
0.0 0.0 0.0 0.0 0.0 0.07698792 
0.0 0.0 0.0 0.0 0.0 0.07698792 

