0.0 0.0 0.0 0.0 0.0 0.07698792 
0.0 0.0 0.0 0.0 0.0 0.07698792 
0.0 0.0 0.0 0.0 0.0 0.07698792 
0.0 0.0 0.0 0.0 0.0 0.07698792 
0.0 0.0 0.0 0.0 0.0 0.07698792 
0.0 0.0 0.0 0.0 0.0 0.07698792 
0.0 0.0 0.0 0.0 0.0 0.07698792 
0.0 0.0 0.0 0.0 0.0 0.07698792 
0.0 0.0 0.0 0.0 0.0 0.07698792 
0.0 0.0 0.0 0.0 0.0 0.07698792 
0.0 0.0 0.0 0.0 0.0 0.07698792 
0.0 0.0 0.0 0.0 0.0 0.07698792 
0.0 0.0 0.0 0.0 0.0 0.07698792 
0.0 0.0 0.0 0.0 0.0 0.07698792 
0.0 0.0 0.0 0.0 0.0 0.07698792 
0.0 0.0 0.0 0.0 0.0 0.07698792 
0.0 0.0 0.0 0.0 0.0 0.07698792 
0.0 0.0 0.0 0.0 0.0 0.07698792 
0.0 0.0 0.0 0.0 0.0 0.07698792 
0.0 0.0 0.0 0.0 0.0 0.07698792 
0.0 0.0 0.0 0.0 0.0 0.07698792 
0.0 0.0 0.0 0.0 0.0 0.07698792 
0.0 0.0 0.0 0.0 0.0 0.07698792 
0.0 0.0 0.0 0.0 0.0 0.07698792 
0.0 0.0 0.0 0.0 0.0 0.07698792 
0.0 0.0 0.0 0.0 0.0 0.07698792 
0.0 0.0 0.0 0.0 0.0 0.07698792 
0.0 0.0 0.0 0.0 0.0 0.07698792 
0.0 0.0 0.0 0.0 0.0 0.07698792 
0.0 0.0 0.0 0.0 0.0 0.07698792 
0.0 0.0 0.0 0.0 0.0 0.07698792 
0.0 0.0 0.0 0.0 0.0 0.07698792 
0.0 0.0 0.0 0.0 0.0 0.07698792 
0.0 0.0 0.0 0.0 0.0 0.07698792 
0.0 0.0 0.0 0.0 0.0 0.07698792 
0.0 0.0 0.0 0.0 0.0 0.07698792 
0.0 0.0 0.0 0.0 0.0 0.07698792 
0.0 0.0 0.0 0.0 0.0 0.07698792 
0.0 0.0 0.0 0.0 0.0 0.07698792 
0.0 0.0 0.0 0.0 0.0 0.07698792 
0.0 0.0 0.0 0.0 0.0 0.07698792 
0.0 0.0 0.0 0.0 0.0 0.07698792 
0.0 0.0 0.0 0.0 0.0 0.07698792 
0.0 0.0 0.0 0.0 0.0 0.07698792 
0.0 0.0 0.0 0.0 0.0 0.07698792 
0.0 0.0 0.0 0.0 0.0 0.07698792 
0.0 0.0 0.0 0.0 0.0 0.07698792 
0.0 0.0 0.0 0.0 0.0 0.07698792 
0.0 0.0 0.0 0.0 0.0 0.07698792 
0.0 0.0 0.0 0.0 0.0 0.07698792 
0.0 0.0 0.0 0.0 0.0 0.07698792 
0.0 0.0 0.0 0.0 0.0 0.07698792 
0.0 0.0 0.0 0.0 0.0 0.07698792 
0.0 0.0 0.0 0.0 0.0 0.07698792 
0.0 0.0 0.0 0.0 0.0 0.07698792 
0.0 0.0 0.0 0.0 0.0 0.07698792 
0.0 0.0 0.0 0.0 0.0 0.07698792 
0.0 0.0 0.0 0.0 0.0 0.07698792 
0.0 0.0 0.0 0.0 0.0 0.07698792 
0.0 0.0 0.0 0.0 0.0 0.07698792 
0.0 0.0 0.0 0.0 0.0 0.07698792 
0.0 0.0 0.0 0.0 0.0 0.07698792 
0.0 0.0 0.0 0.0 0.0 0.07698792 
0.0 0.0 0.0 0.0 0.0 0.07698792 
0.0 0.0 0.0 0.0 0.0 0.07698792 
0.0 0.0 0.023638062 0.0 0.0 0.03890024 
0.19384977 0.0 0.18173945 0.0 0.0 0.0 
0.33869767 0.1600659 0.27715203 0.0 0.0 0.0 
0.20025036 0.40112397 0.2305432 0.0 0.0 0.0 
0.0 0.4384957 0.2281451 0.0 0.0 0.0 
0.0 0.3620393 0.1446088 0.0 0.081881806 0.0 
0.0 0.1521025 0.0042087585 0.0 0.07304938 0.0 
0.0 0.00800906 0.0 0.0 0.0 0.061876304 
0.0 0.0 0.0 0.0 0.0 0.07698792 
0.0 0.0 0.0 0.0 0.0 0.07698792 
0.0 0.0 0.0 0.0 0.0 0.07698792 
0.0 0.0 0.0 0.0 0.0 0.07698792 
0.0 0.0 0.0 0.0 0.0 0.07698792 
0.0 0.0 0.0 0.0 0.0 0.07698792 
0.0 0.0 0.0 0.0 0.0 0.07698792 
0.0 0.0 0.0 0.0 0.0 0.07698792 
0.0 0.0 0.0 0.0 0.0 0.07698792 
0.0 0.0 0.0 0.0 0.0 0.07698792 
0.0 0.0 0.0 0.0 0.0 0.07698792 
0.0 0.0 0.0 0.0 0.0 0.07698792 
0.0 0.0 0.0 0.0 0.0 0.07698792 
0.0 0.0 0.0 0.0 0.0 0.07698792 
0.0 0.0 0.0 0.0 0.0 0.07698792 
0.0 0.0 0.0 0.0 0.0 0.07698792 
0.0 0.0 0.0 0.0 0.0 0.07698792 
0.0 0.0 0.0 0.0 0.0 0.07698792 
0.0 0.0 0.0 0.0 0.0 0.0758566 
0.030266672 0.0 0.06736622 0.0 0.0 0.01550512 
0.31554493 0.0 0.16301596 0.0 0.0 0.0 
0.5780061 0.013525392 0.18812153 0.0 0.0 0.0 
0.7970447 0.2066316 0.42639926 0.0 0.0 0.0 
0.60657835 0.9123357 0.6008264 0.0 0.0012461431 0.0 
0.0 1.1186448 0.672236 0.0 0.47831234 0.0 
0.0 0.74868596 0.61966026 0.0 0.58500093 0.0 
0.0 0.20315237 0.18785673 0.0 0.44179657 0.0 
0.0 0.015395527 0.0 0.0 0.007832538 0.04362693 
0.0 0.0 0.0 0.0 0.0 0.07698792 
0.0 0.0 0.0 0.0 0.0 0.07698792 
0.0 0.0 0.0 0.0 0.0 0.07698792 
0.0 0.0 0.0 0.0 0.0 0.07698792 
0.0 0.0 0.0 0.0 0.0 0.07698792 
0.0 0.0 0.0 0.0 0.0 0.07698792 
0.0 0.0 0.0 0.0 0.0 0.07698792 
0.0 0.0 0.0 0.0 0.0 0.07698792 
0.0 0.0 0.0 0.0 0.0 0.07698792 
0.0 0.0 0.0 0.0 0.0 0.07698792 
0.0 0.0 0.0 0.0 0.0 0.07698792 
0.0 0.0 0.0 0.0 0.0 0.07698792 
0.0 0.0 0.0 0.0 0.0 0.07698792 
0.0 0.0 0.0 0.0 0.0 0.07698792 
0.0 0.0 0.0 0.0 0.0 0.07698792 
0.0 0.0 0.0 0.0 0.0 0.07698792 
0.0 0.0 0.0 0.0 0.0 0.07698792 
0.0 0.0 0.0 0.0 0.0 0.07698792 
0.0 0.0 0.0022344925 0.0 0.0 0.049080867 
0.27099362 0.0 0.10928527 0.0 0.0 0.0 
0.76531667 0.0 0.10597252 0.0 0.0 0.0 
0.994528 0.0 0.033180222 0.0 0.0 0.0 
0.8873579 0.27563137 0.34768 0.0 0.20226194 0.0 
0.18175066 1.0444888 0.8426182 0.25000218 0.9493024 0.0 
0.0 1.1599495 1.0800418 0.34039038 1.2654561 0.0 
0.0 1.0959265 1.283738 0.32042545 0.8336451 0.0 
0.0 0.4500259 0.6168905 0.0 0.59045 0.0 
0.0 0.030021414 0.017533742 0.0 0.032683928 0.049284033 
0.0 0.0 0.0 0.0 0.0 0.07020002 
0.0 0.0048786355 0.0 0.0 0.0 0.056536805 
0.0 0.0028568367 0.0 0.0 0.0 0.0527327 
0.0 0.007686737 0.0 0.0 0.0 0.050058093 
0.0 0.0018367553 0.0 0.0 0.0 0.0676083 
0.0 0.0 0.0 0.0 0.0 0.07698792 
0.0 0.0 0.0 0.0 0.0 0.07698792 
0.0 0.0 0.0 0.0 0.0 0.07698792 
0.0 0.0 0.0 0.0 0.0 0.07698792 
0.0 0.0 0.0 0.0 0.0 0.07698792 
0.0 0.0 0.0 0.0 0.0 0.07698792 
0.0 0.0 0.0 0.0 0.0 0.07698792 
0.0 0.0 0.0 0.0 0.0 0.07698792 
0.0 0.0 0.0 0.0 0.0 0.07698792 
0.0 0.0 0.0 0.0 0.0 0.07698792 
0.0 0.0 0.0 0.0 0.0 0.07698792 
0.0 0.0 0.0 0.0 0.0 0.07698792 
0.0 0.0 0.0 0.0 0.0 0.069822915 
0.15587711 0.0 0.110086404 0.0 0.0 0.0 
0.76076335 0.0 0.050807692 0.0 0.0 0.0 
1.137886 0.0 0.0 0.0 0.0 0.0 
0.92617714 0.54146206 0.0 0.29520234 0.66076213 0.0 
0.46266258 0.919391 0.0 0.68927354 1.2961831 0.41983533 
0.0 1.2041117 0.49605232 0.8861348 1.6197187 0.57541937 
0.0 1.1771752 0.8883177 0.9947478 1.1599106 0.27487272 
0.0 1.1227713 1.4841515 0.8406242 0.6178678 0.2723121 
0.0 0.48759928 1.0577993 0.24842587 0.4485577 0.024915934 
0.09649968 0.059846044 0.28338414 0.0 0.0 0.0 
0.26717252 0.13958761 0.19776288 0.0 0.0 0.0 
0.13184203 0.3286765 0.16929296 0.0 0.0 0.0 
0.0 0.35752004 0.16547257 0.0 0.0 0.0 
0.0 0.2923415 0.10927398 0.0 0.07470949 0.0 
0.0 0.0870484 0.0 0.0 0.06088079 0.0 
0.0 0.0 0.0 0.0 0.0 0.07698792 
0.0 0.0 0.0 0.0 0.0 0.07698792 
0.0 0.0 0.0 0.0 0.0 0.07698792 
0.0 0.0 0.0 0.0 0.0 0.07698792 
0.0 0.0 0.0 0.0 0.0 0.07698792 
0.0 0.0 0.0 0.0 0.0 0.07698792 
0.0 0.0 0.0 0.0 0.0 0.07698792 
0.0 0.0 0.0 0.0 0.0 0.07698792 
0.0 0.0 0.0 0.0 0.0 0.07698792 
0.0 0.0 0.0 0.0 0.0 0.07698792 
0.0 0.0 0.0 0.0 0.0 0.07698792 
0.0 0.0 0.0 0.0 0.0 0.07698792 
0.025494352 0.0 0.040931948 0.0 0.0 0.031601727 
0.4910972 0.0 0.039801158 0.0 0.0 0.0 
1.1725855 0.0 0.0 0.0 0.0 0.14610067 
1.2642009 0.2735777 0.0 0.18268797 0.6681762 0.22237113 
0.46772647 1.1824661 0.0 0.2709733 1.6901202 0.25814682 
0.0 0.7675058 0.0 0.3448458 2.215912 1.0928671 
0.0 0.6521638 0.0 0.3587376 1.6869138 1.14572 
0.0 0.53673583 0.0 0.34447303 0.9322996 0.6014097 
0.0 0.2570841 0.7526655 0.19982286 0.54170805 0.5290549 
0.0 0.15582989 1.0970603 0.030849975 0.046086196 0.0 
0.4783538 0.06016268 0.29715413 0.0 0.0 0.0 
0.5621106 0.2603279 0.23025101 0.0 0.0 0.0 
0.24965855 0.7295495 0.43264928 0.0 0.14954941 0.0 
0.0 0.8181114 0.47178674 0.0 0.4788526 0.0 
0.0 0.39464656 0.374728 0.0 0.47442195 0.0 
0.0 0.016895834 0.071576305 0.0 0.21416275 0.0020612478 
0.0 0.0 0.0 0.0 0.0 0.07698792 
0.0 0.0 0.0 0.0 0.0 0.07698792 
0.0 0.0 0.0 0.0 0.0 0.07698792 
0.0 0.0 0.0 0.0 0.0 0.07698792 
0.0 0.0 0.0 0.0 0.0 0.07698792 
0.0 0.0 0.0 0.0 0.0 0.07698792 
0.0 0.0 0.0 0.0 0.0 0.07698792 
0.0 0.0 0.0 0.0 0.0 0.07698792 
0.0 0.0 0.0 0.0 0.0 0.07698792 
0.0 0.0 0.0 0.0 0.0 0.07698792 
0.0 0.0 0.0 0.0 0.0 0.07698792 
0.0 0.0 0.0 0.0 0.0 0.07698792 
0.15974072 0.0 0.029048659 0.0 0.0 0.055637125 
0.9706959 0.0 0.0 0.0 0.0 0.1910046 
1.5003808 0.0 0.0 0.105957225 0.38292643 0.35414138 
0.8419994 0.8224213 0.0 0.11984405 1.4751099 0.18726943 
0.0 1.2383887 0.0 0.0 1.9507991 0.2527334 
0.0 0.53487784 0.0 0.0 1.8714243 0.9579705 
0.0 0.22502705 0.0 0.0 1.1320837 0.94814587 
0.0 0.0 0.0 0.0 0.5045056 0.4075562 
0.088986725 0.0 0.16260833 0.0 0.011124257 0.27228057 
0.3900904 0.0 0.6430954 0.0 0.0 0.0 
0.8470078 0.0 0.12148816 0.0 0.0 0.0 
0.5405296 0.5355156 0.26483008 0.0015754635 0.45227417 0.0 
0.0 0.9916873 0.6372869 0.25915098 1.0000439 0.0 
0.0 0.7246213 0.81875443 0.40252408 1.0270051 0.0 
0.0 0.4027962 0.67931676 0.34278506 0.4961554 0.1030356 
0.0 0.17314173 0.26286545 0.14477035 0.07412015 0.06439409 
0.0 0.0 0.0 0.0 0.0 0.07698792 
0.0 0.0 0.0 0.0 0.0 0.07698792 
0.0 0.0 0.0 0.0 0.0 0.07698792 
0.0 0.0 0.0 0.0 0.0 0.07698792 
0.0 0.0 0.0 0.0 0.0 0.07698792 
0.0 0.0 0.0 0.0 0.0 0.07698792 
0.0 0.0 0.0 0.0 0.0 0.07698792 
0.0 0.0 0.0 0.0 0.0 0.07698792 
0.0 0.0 0.0 0.0 0.0 0.07698792 
0.0 0.0 0.0 0.0 0.0 0.07698792 
0.0 0.0 0.0 0.0 0.0 0.07698792 
0.0 0.0 0.0 0.0 0.0 0.07698792 
0.2502056 0.0 0.0 0.056045208 0.0 0.26903152 
1.230993 0.0 0.0 0.29673627 0.0 0.6770034 
1.660888 0.1341446 0.0 0.22260329 0.85503644 0.55480826 
0.45045727 1.2633551 0.0 0.0 1.4740664 0.04699347 
0.0 1.3360331 0.34436262 0.0 1.3708037 0.0 
0.0 0.50777936 0.6191924 0.0 1.3461728 0.16343951 
0.0 0.088504754 0.05331225 0.0 0.62786114 0.30620703 
0.0703945 0.0 0.0 0.0 0.0 0.010401055 
0.67174286 0.0 0.0 0.0 0.0 0.016903758 
0.8609955 0.0 0.13680115 0.0 0.0053436793 0.0 
0.81025875 0.5523334 0.0 0.252377 0.66028464 0.0 
0.0 1.2121712 0.11805112 0.5483875 1.3664255 0.14931726 
0.0 1.1025357 0.5023438 0.600614 1.3756622 0.4090355 
0.0 0.7253213 0.8051049 0.57784045 0.6557005 0.39150605 
0.0 0.3915312 0.69533366 0.37735066 0.13739668 0.2840539 
0.0 0.13021852 0.29151332 0.13817172 0.0 0.1209138 
0.0 0.0 0.0 0.0 0.0 0.07698792 
0.0 0.0 0.0 0.0 0.0 0.07698792 
0.0 0.0 0.0 0.0 0.0 0.07698792 
0.0 0.0 0.0 0.0 0.0 0.07698792 
0.0 0.0 0.0 0.0 0.0 0.07698792 
0.0 0.0 0.0 0.0 0.0 0.07698792 
0.0 0.0 0.0 0.0 0.0 0.07698792 
0.0 0.0 0.0 0.0 0.0 0.07698792 
0.0 0.0 0.0 0.0 0.0 0.07698792 
0.0 0.0 0.0 0.0 0.0 0.07698792 
0.0 0.0 0.0 0.0 0.0 0.07698792 
0.0 0.0 0.0 0.0 0.0 0.07698792 
0.32700282 0.0 0.0 0.17556855 0.025559966 0.46319002 
1.190316 0.0 0.0 0.30607325 0.44367787 1.100121 
1.2972825 0.0 0.0 0.28102073 0.92738664 0.8222563 
0.5774856 0.79580003 0.0 0.15155537 0.90448135 0.10567526 
0.0 1.3974497 1.1047535 0.0 0.83432305 0.0 
0.0 0.9790571 1.4784192 0.0 0.9376992 0.0 
0.0 0.24734339 0.66226405 0.0 0.34674236 0.0 
0.51655847 0.038028907 0.06712204 0.0 0.0 0.0 
0.9727256 0.0 0.0 0.0 0.0 0.0 
0.9786008 0.3607223 0.0 0.19045778 0.7901219 0.15610191 
0.23225215 1.0611255 0.0 0.33696643 1.6923528 0.37927175 
0.0 0.87546283 0.0 0.25212714 1.8498793 0.68266845 
0.0 0.5608235 0.0725724 0.20597717 0.9983545 0.6415734 
0.0 0.18676448 0.27828014 0.011054055 0.38465214 0.42571574 
0.0 0.0 0.20975333 0.0 0.18356 0.25208098 
0.0 0.0 0.0863538 0.0 0.026439492 0.096142486 
0.0 0.0 0.0 0.0 0.0 0.07698792 
0.0 0.0 0.0 0.0 0.0 0.07698792 
0.0 0.0 0.0 0.0 0.0 0.07698792 
0.0 0.0 0.0 0.0 0.0 0.07698792 
0.0 0.0 0.0 0.0 0.0 0.07698792 
0.0 0.0 0.0 0.0 0.0 0.07698792 
0.0 0.0 0.0 0.0 0.0 0.07698792 
0.0 0.0 0.0 0.0 0.0 0.07698792 
0.0 0.0 0.0 0.0 0.0 0.07698792 
0.0 0.0 0.0 0.0 0.0 0.07698792 
0.0 0.0 0.0 0.0 0.0 0.07698792 
0.0 0.0 0.0 0.0 0.0 0.07698792 
0.301703 0.0 0.0 0.06558747 0.20885585 0.44274542 
1.0065134 0.0 0.0 0.10795184 0.761573 1.1997509 
0.8519249 0.0 0.0 0.2248064 0.77680546 1.1237783 
0.4287328 0.0 0.0 0.4669735 0.5764141 0.5785509 
0.21222958 0.56619996 1.1072522 0.59331703 0.63551044 0.24995673 
0.0 1.1421263 1.9626375 0.21163107 0.5760941 0.0 
0.075351104 0.8609411 1.2063558 0.0 0.206513 0.0 
0.5204338 0.3928982 0.51376903 0.0 0.3461476 0.0 
0.8031984 0.49316755 0.0 0.0 1.0083901 0.0 
0.37543744 1.0066078 0.0 0.08585471 1.7015896 0.2369428 
0.0 0.88903975 0.0 0.06999826 1.8532709 0.5878626 
0.0 0.49103954 0.0 0.0796697 1.0347967 0.6177959 
0.0 0.13782348 0.25916427 0.0 0.4289701 0.45056215 
0.0 0.0 0.19187081 0.0 0.20004185 0.23161969 
0.0 0.0 0.01851131 0.0 0.030149523 0.10354373 
0.0 0.0 0.0 0.0 0.0 0.07881431 
0.0 0.0 0.0 0.0 0.0 0.07698792 
0.0 0.0 0.0 0.0 0.0 0.07698792 
0.0 0.0 0.0 0.0 0.0 0.07698792 
0.0 0.0 0.0 0.0 0.0 0.07698792 
0.0 0.0 0.0 0.0 0.0 0.07698792 
0.0 0.0 0.0 0.0 0.0 0.07698792 
0.0 0.0 0.0 0.0 0.0 0.07698792 
0.0 0.0 0.0 0.0 0.0 0.07698792 
0.0 0.0 0.0 0.0 0.0 0.07698792 
0.0 0.0 0.0 0.0 0.0 0.07698792 
0.0 0.0 0.0 0.0 0.0 0.07698792 
0.0 0.0 0.0 0.0 0.0 0.07698792 
0.16181259 0.0 0.0 0.0 0.23994254 0.25973678 
0.6667498 0.0 0.0 0.0 0.6491086 0.793696 
0.72726387 0.0 0.0 0.028512709 0.75236505 1.1391909 
0.43107635 0.0 0.0 0.18796962 0.7154642 1.1181653 
0.36082077 0.0 0.0 0.6459454 0.5463546 0.8380614 
0.40850484 0.35261905 1.3326191 0.9254856 0.3967552 0.15313303 
0.7372805 0.7994566 1.4566523 0.7002919 0.3618081 0.0 
0.85067993 1.1984718 1.1247967 0.2408787 0.95470697 0.0 
0.27665472 1.4516743 0.18054566 0.0 1.9043571 0.0 
0.0 1.319378 0.0 0.0 1.8916805 0.0 
0.0 0.7657425 0.11997899 0.0 1.2214445 0.1812627 
0.0 0.25243428 0.32451195 0.0 0.5085891 0.33059254 
0.0 0.0 0.23207816 0.0 0.19822295 0.22226022 
0.0 0.0 0.033353135 0.0 0.017624509 0.09069417 
0.0 0.0 0.0 0.0 0.0 0.07721622 
0.0 0.0 0.0 0.0 0.0 0.07698792 
0.0 0.0 0.0 0.0 0.0 0.07698792 
0.0 0.0 0.0 0.0 0.0 0.07698792 
0.0 0.0 0.0 0.0 0.0 0.07698792 
0.0 0.0 0.0 0.0 0.0 0.07698792 
0.0 0.0 0.0 0.0 0.0 0.07698792 
0.0 0.0 0.0 0.0 0.0 0.07698792 
0.0 0.0 0.0 0.0 0.0 0.07698792 
0.0 0.0 0.0 0.0 0.0 0.07698792 
0.0 0.0 0.0 0.0 0.0 0.07698792 
0.0 0.0 0.0 0.0 0.0 0.07698792 
0.0 0.0 0.0 0.0 0.0 0.07698792 
0.0 0.0 0.0 0.0 0.0 0.07698792 
0.0 0.0 0.0 0.0 0.014428783 0.10971065 
0.27244896 0.0 0.0 0.0 0.37907258 0.35085994 
0.5526916 0.0 0.0 0.0 0.6555477 0.7122281 
0.5851166 0.0 0.0 0.0 0.7253567 1.063276 
0.77008367 0.0 0.0 0.0 0.51896805 1.2826369 
0.87565947 0.0 0.0 0.38107452 0.48420498 0.9190593 
0.9564062 0.23196396 0.43383893 0.9210296 0.7833538 0.63894343 
0.8974665 1.2742568 1.0181936 0.8343994 1.4561849 0.27476364 
0.034715235 1.8304012 0.8280529 0.108508445 1.9263979 0.0 
0.0 1.5624535 0.771519 0.0 1.3728515 0.0 
0.0 0.924587 0.9832144 0.0 0.9722695 0.0 
0.0 0.22740202 0.53232837 0.0 0.5674374 0.0 
0.0 0.0 0.086917825 0.0 0.13796297 0.0 
0.0 0.0 0.0 0.0 0.0 0.07125593 
0.0 0.0 0.0 0.0 0.0 0.07698792 
0.0 0.0 0.0 0.0 0.0 0.07698792 
0.0 0.0 0.0 0.0 0.0 0.07698792 
0.0 0.0 0.0 0.0 0.0 0.07698792 
0.0 0.0 0.0 0.0 0.0 0.07698792 
0.0 0.0 0.0 0.0 0.0 0.07698792 
0.0 0.0 0.0 0.0 0.0 0.07698792 
0.0 0.0 0.0 0.0 0.0 0.07698792 
0.0 0.0 0.0 0.0 0.0 0.07698792 
0.0 0.0 0.0 0.0 0.0 0.07698792 
0.0 0.0 0.0 0.0 0.0 0.07698792 
0.0 0.0 0.0 0.0 0.0 0.07698792 
0.0 0.0 0.0 0.0 0.0 0.07698792 
0.0 0.0 0.0 0.0 0.0 0.07698792 
0.0 0.0 0.0 0.0 0.0 0.0776068 
0.0 0.0 0.0 0.0 0.04782914 0.12335933 
0.17810377 0.0 0.0 0.0 0.31289944 0.2546751 
0.5528519 0.0 0.0 0.0 0.4844034 0.4546754 
1.2348282 0.0 0.0 0.0 0.4385632 0.88094 
1.3138509 0.0 0.0 0.0 0.82170504 1.0584285 
1.0856099 0.038099013 0.0 0.050604176 1.5773764 1.0478942 
0.4096716 0.70088965 0.0 0.5334941 1.8218751 0.9864836 
0.0 0.94389945 0.9280239 0.6539892 1.5019181 0.34222174 
0.0 1.257307 1.4905844 0.3984377 0.99092966 0.0 
0.0 1.3282442 1.7063504 0.0 0.85693806 0.0 
0.0 0.7653584 0.987983 0.0 0.6669012 0.0 
0.0 0.30025983 0.22853255 0.0 0.37123415 0.0 
0.0 0.087741494 0.0 0.0 0.04281069 0.0 
0.0 0.0 0.0 0.0 0.0 0.07177702 
0.0 0.0 0.0 0.0 0.0 0.07698792 
0.0 0.0 0.0 0.0 0.0 0.07698792 
0.0 0.0 0.0 0.0 0.0 0.07698792 
0.0 0.0 0.0 0.0 0.0 0.07698792 
0.0 0.0 0.0 0.0 0.0 0.07698792 
0.0 0.0 0.0 0.0 0.0 0.07698792 
0.0 0.0 0.0 0.0 0.0 0.07698792 
0.0 0.0 0.0 0.0 0.0 0.07698792 
0.0 0.0 0.0 0.0 0.0 0.07698792 
0.0 0.0 0.0 0.0 0.0 0.07698792 
0.0 0.0 0.0 0.0 0.0 0.07698792 
0.0 0.0 0.0 0.0 0.0 0.07698792 
0.0 0.0 0.0 0.0 0.0 0.07698792 
0.0 0.0 0.0 0.0 0.0 0.07698792 
0.0 0.0 0.0 0.0 0.0 0.07698792 
0.0 0.0 0.0 0.0 0.0 0.068633795 
0.3700937 0.0 0.0 0.0 0.0 0.083871305 
1.3582866 0.0 0.0 0.0 0.21980743 0.5089245 
1.4127934 0.0 0.0 0.0 1.0940531 0.65737563 
0.7406746 0.5645931 0.0 0.0 1.8179587 0.73157746 
0.035654895 0.40590596 0.0 0.025257941 1.9936122 1.3486934 
0.0 0.05201942 0.0 0.50799674 1.296656 1.1412923 
0.2396734 0.41837212 0.9464133 0.7473167 0.68043554 0.4145102 
0.0 1.1535124 1.7034988 0.58176565 0.70483816 0.0 
0.0 1.4424943 1.6020293 0.06154568 0.69863534 0.0 
0.0 0.8288113 0.8707175 0.0 0.61840916 0.0 
0.0 0.24315017 0.16709825 0.0 0.32353 0.0 
0.0 0.04637097 0.0 0.0 0.009481985 0.022323485 
0.0 0.0 0.0 0.0 0.0 0.07698792 
0.0 0.0 0.0 0.0 0.0 0.07698792 
0.0 0.0 0.0 0.0 0.0 0.07698792 
0.0 0.0 0.0 0.0 0.0 0.07698792 
0.0 0.0 0.0 0.0 0.0 0.07698792 
0.0 0.0 0.0 0.0 0.0 0.07698792 
0.0 0.0 0.0 0.0 0.0 0.07698792 
0.0 0.0 0.0 0.0 0.0 0.07698792 
0.0 0.0 0.0 0.0 0.0 0.07698792 
0.0 0.0 0.0 0.0 0.0 0.07698792 
0.0 0.0 0.0 0.0 0.0 0.07698792 
0.0 0.0 0.0 0.0 0.0 0.07698792 
0.0 0.0 0.0 0.0 0.0 0.07698792 
0.0 0.0 0.0 0.0 0.0 0.07698792 
0.0 0.0 0.0 0.0 0.0 0.07698792 
0.0033420175 0.0 0.0 0.0 0.0 0.052588604 
0.5842461 0.0 0.0 0.0 0.0 0.14889589 
1.3212149 0.0 0.0 0.033981405 0.23391624 0.36076835 
0.9133867 0.44506016 0.0 0.0 1.2325542 0.23158838 
0.046768285 0.9216028 0.0 0.0 1.6475885 0.31168664 
0.0 0.3292529 0.0 0.0 1.8691144 1.1340582 
0.27360567 0.0 0.0 0.13526922 1.1723158 1.4870682 
0.48457092 0.0 0.0 0.26430088 0.6498963 1.0712893 
0.33889276 0.43497992 0.5966377 0.62312204 0.6164649 0.2925401 
0.0 1.2821435 1.5962498 0.6328111 0.76326346 0.0 
0.0 1.3153336 1.57641 0.17323354 0.74361134 0.0 
0.0 0.56837124 0.640014 0.0 0.5921892 0.0 
0.0 0.08622141 0.042473592 0.0 0.17555861 0.0 
0.0 0.0 0.0 0.0 0.0 0.07698792 
0.0 0.0 0.0 0.0 0.0 0.07698792 
0.0 0.0 0.0 0.0 0.0 0.07698792 
0.0 0.0 0.0 0.0 0.0 0.07698792 
0.0 0.0 0.0 0.0 0.0 0.07698792 
0.0 0.0 0.0 0.0 0.0 0.07698792 
0.0 0.0 0.0 0.0 0.0 0.07698792 
0.0 0.0 0.0 0.0 0.0 0.07698792 
0.0 0.0 0.0 0.0 0.0 0.07698792 
0.0 0.0 0.0 0.0 0.0 0.07698792 
0.0 0.0 0.0 0.0 0.0 0.07698792 
0.0 0.0 0.0 0.0 0.0 0.07698792 
0.0 0.0 0.0 0.0 0.0 0.07698792 
0.0 0.0 0.0 0.0 0.0 0.07698792 
0.0 0.0 0.0 0.0 0.0 0.07698792 
0.10729016 0.0 0.0 0.0 0.0 0.0793517 
0.9565311 0.0 0.0 0.10852696 0.0 0.40150094 
1.3013937 0.007632247 0.0 0.029270351 0.60210323 0.42105216 
0.33802205 0.9024627 0.0 0.016617417 1.1518853 0.0 
0.0 0.9685027 0.15320042 0.0 1.2582394 0.082820505 
0.0 0.29155603 0.16340351 0.0 1.4572698 0.5924986 
0.4291851 0.0 0.0 0.0 1.0557526 1.0933955 
0.8159721 0.0 0.0 0.0 0.71482015 1.2833574 
0.6525628 0.0 0.0 0.13589622 0.57345134 0.7789343 
0.14307077 0.70275617 0.6497618 0.42106128 0.75922525 0.07428281 
0.0 1.308915 1.7110524 0.40631968 0.76024526 0.0 
0.0 1.0195011 1.3227649 0.0 0.6698512 0.0 
0.0 0.30000728 0.29817426 0.0 0.36607042 0.0 
0.0 0.034942754 0.0 0.0 0.0 0.03686398 
0.0 0.0 0.0 0.0 0.0 0.07698792 
0.0 0.0 0.0 0.0 0.0 0.07698792 
0.0 0.0 0.0 0.0 0.0 0.07698792 
0.0 0.0 0.0 0.0 0.0 0.07698792 
0.0 0.0 0.0 0.0 0.0 0.07698792 
0.0 0.0 0.0 0.0 0.0 0.07698792 
0.0 0.0 0.0 0.0 0.0 0.07698792 
0.0 0.0 0.0 0.0 0.0 0.07698792 
0.0 0.0 0.0 0.0 0.0 0.07698792 
0.0 0.0 0.0 0.0 0.0 0.07698792 
0.0 0.0 0.0 0.0 0.0 0.07698792 
0.0 0.0 0.0 0.0 0.0 0.07698792 
0.0 0.0 0.0 0.0 0.0 0.07698792 
0.0 0.0 0.0 0.0 0.0 0.07698792 
0.2546503 0.0 0.0 0.0 0.0 0.17348276 
1.3053327 0.0 0.0 0.08507562 0.032987196 0.62683517 
1.170836 0.27872276 0.0 0.0 0.8455348 0.37161884 
0.0 1.0418124 0.0 0.0 1.0260193 0.0 
0.0 0.9761624 0.6594311 0.0 1.045636 0.08654946 
0.0 0.29589942 0.877067 0.0 0.9395433 0.21389827 
0.22400603 0.0 0.0 0.0 0.58559465 0.5088085 
0.9163358 0.0 0.0 0.0 0.6615801 1.0515938 
1.0414743 0.0 0.0 0.0 0.42665818 0.98959535 
0.57230175 0.32705262 0.0 0.0 0.5602075 0.24642329 
0.0 1.0084101 0.9927944 0.10812297 0.7921209 0.0 
0.0 1.2849628 1.7279683 0.07939042 0.7468355 0.0 
0.0 0.5749583 0.73737407 0.0 0.6133478 0.0 
0.0 0.05184626 0.006302975 0.0 0.11489721 0.0 
0.0 0.0 0.0 0.0 0.0 0.07698792 
0.0 0.0 0.0 0.0 0.0 0.07698792 
0.0 0.0 0.0 0.0 0.0 0.07698792 
0.0 0.0 0.0 0.0 0.0 0.07698792 
0.0 0.0 0.0 0.0 0.0 0.07698792 
0.0 0.0 0.0 0.0 0.0 0.07698792 
0.0 0.0 0.0 0.0 0.0 0.07698792 
0.0 0.0 0.0 0.0 0.0 0.07698792 
0.0 0.0 0.0 0.0 0.0 0.07698792 
0.0 0.0 0.0 0.0 0.0 0.07698792 
0.0 0.0 0.0 0.0 0.0 0.07698792 
0.0 0.0 0.0 0.0 0.0 0.07698792 
0.0 0.0 0.0 0.0 0.0 0.07698792 
0.0 0.0 0.0 0.0 0.0 0.07698792 
0.36066538 0.0 0.0 0.07083942 0.0 0.3553082 
1.3973808 0.0 0.0 0.10982058 0.27540824 0.8243567 
1.0559707 0.4561438 0.0 0.048534192 0.8390387 0.3095364 
0.0 1.042628 0.0 0.0 0.9235739 0.0 
0.0 0.9429627 0.978475 0.0 0.98192495 0.010529578 
0.0 0.34029266 0.9900118 0.0 0.6789841 0.0 
0.007123746 0.0 0.0 0.0 0.20421956 0.17359106 
0.67067486 0.0 0.0 0.0 0.41790166 0.6248027 
1.3401575 0.0 0.0 0.0 0.36604896 0.9468393 
0.97250074 0.097375736 0.0 0.0 0.49619547 0.3236602 
0.0052531064 0.83027124 0.16264719 0.0 0.87863994 0.0 
0.0 1.21214 1.6231599 0.11690603 1.01431 0.0 
0.0 0.76579034 1.2076277 0.0 0.8318045 0.0 
0.0 0.118753165 0.14728522 0.0 0.20089169 0.0 
0.0 0.0 0.0 0.0 0.0 0.07698792 
0.0 0.0 0.0 0.0 0.0 0.07698792 
0.0 0.0 0.0 0.0 0.0 0.07698792 
0.0 0.0 0.0 0.0 0.0 0.07698792 
0.0 0.0 0.0 0.0 0.0 0.07698792 
0.0 0.0 0.0 0.0 0.0 0.07698792 
0.0 0.0 0.0 0.0 0.0 0.07698792 
0.0 0.0 0.0 0.0 0.0 0.07698792 
0.0 0.0 0.0 0.0 0.0 0.07698792 
0.0 0.0 0.0 0.0 0.0 0.07698792 
0.0 0.0 0.0 0.0 0.0 0.07698792 
0.0 0.0 0.0 0.0 0.0 0.07698792 
0.0 0.0 0.0 0.0 0.0 0.07698792 
0.0 0.0 0.0 0.0 0.0 0.07698792 
0.39097783 0.0 0.0 0.117327765 0.0874064 0.49755514 
1.2420757 0.0 0.0 0.13722745 0.4189538 0.9893011 
0.9575774 0.2798784 0.0 0.155187 0.6706131 0.37053207 
0.0 0.92881376 0.0 0.0 0.7557268 0.0 
0.0 1.1014321 1.2755833 0.0 0.7967713 0.0 
0.0 0.42982814 1.0482851 0.0 0.6887542 0.0 
0.0 0.092002526 0.038667664 0.0 0.049719047 0.0 
0.4963194 0.0 0.0 0.0 0.078406855 0.28618878 
1.4932086 0.0 0.0 0.0 0.18391787 0.7320828 
1.1779265 0.1617524 0.0 0.0 0.5974323 0.3437202 
0.01618588 1.0576898 0.0 0.0 1.0042523 0.0 
0.0 1.2431434 1.3004096 0.16732468 1.1854624 0.0 
0.0 0.7391763 1.4388313 0.19090405 0.8963203 0.0019677132 
0.0 0.16314344 0.31483042 0.083545946 0.16621299 0.049572133 
0.0 0.0 0.0 0.0 0.0 0.07698792 
0.0 0.0 0.0 0.0 0.0 0.07698792 
0.0 0.0 0.0 0.0 0.0 0.07698792 
0.0 0.0 0.0 0.0 0.0 0.07698792 
0.0 0.0 0.0 0.0 0.0 0.07698792 
0.0 0.0 0.0 0.0 0.0 0.07698792 
0.0 0.0 0.0 0.0 0.0 0.07698792 
0.0 0.0 0.0 0.0 0.0 0.07698792 
0.0 0.0 0.0 0.0 0.0 0.07698792 
0.0 0.0 0.0 0.0 0.0 0.07698792 
0.0 0.0 0.0 0.0 0.0 0.07698792 
0.0 0.0 0.0 0.0 0.0 0.07698792 
0.0 0.0 0.0 0.0 0.0 0.07698792 
0.0 0.0 0.0 0.0 0.0 0.07698792 
0.32254472 0.0 0.0 0.057501838 0.22237663 0.455817 
0.99693745 0.0 0.0 0.11116037 0.5624467 1.0959072 
0.76738816 0.0 0.0 0.16907918 0.46559313 0.650101 
0.40029076 0.4639261 0.0 0.10917043 0.4696631 0.0027016997 
0.0 1.1072813 1.3768593 0.0 0.5458389 0.0 
0.0 0.88408697 1.5508417 0.0 0.47680047 0.0 
0.014637381 0.48426542 0.58687294 0.0 0.060896967 0.0 
0.6773173 0.07425282 0.16795018 0.0 0.0 0.0 
1.570545 0.0 0.0 0.0 0.3589733 0.13017929 
1.1416404 0.6016041 0.0 0.0 1.1078452 0.08750346 
0.0 1.2740474 0.0 0.0 1.3449845 0.0 
0.0 1.0119803 0.8997449 0.12154563 1.3478304 0.24776354 
0.0 0.41202182 1.2540641 0.2443765 0.77911794 0.22128125 
0.0 0.115673095 0.3491288 0.12607868 0.06879556 0.10228187 
0.0 0.0 0.0 0.0 0.0 0.07698792 
0.0 0.0 0.0 0.0 0.0 0.07698792 
0.0 0.0 0.0 0.0 0.0 0.07698792 
0.0 0.0 0.0 0.0 0.0 0.07698792 
0.0 0.0 0.0 0.0 0.0 0.07698792 
0.0 0.0 0.0 0.0 0.0 0.07698792 
0.0 0.0 0.0 0.0 0.0 0.07698792 
0.0 0.0 0.0 0.0 0.0 0.07698792 
0.0 0.0 0.0 0.0 0.0 0.07698792 
0.0 0.0 0.0 0.0 0.0 0.07698792 
0.0 0.0 0.0 0.0 0.0 0.07698792 
0.0 0.0 0.0 0.0 0.0 0.07698792 
0.0 0.0 0.0 0.0 0.0 0.07698792 
0.0 0.0 0.0 0.0 0.0 0.07698792 
0.17279221 0.0 0.0 0.0 0.21788551 0.28389496 
0.7570296 0.0 0.0 0.04491603 0.5904691 0.9183086 
0.65299606 0.0 0.0 0.070954196 0.5045161 0.9330285 
0.36086643 0.0 0.0 0.2818855 0.32151204 0.48802382 
0.38179308 0.33943808 0.8511769 0.40446642 0.40184918 0.18969801 
0.08053711 1.0062754 1.718336 0.20338386 0.2300392 0.0 
0.21438092 0.8652199 1.1434186 0.0 0.0969805 0.0 
0.6708882 0.3737164 0.4115646 0.0 0.40439102 0.0 
1.1260302 0.4102264 0.0 0.0 1.2096741 0.053452365 
0.31470355 1.0340928 0.0 0.0 1.8254806 0.18206625 
0.0 1.0301116 0.0 0.14406805 1.6422712 0.30045107 
0.0 0.58488303 0.7043224 0.208006 1.0921761 0.5122939 
0.0 0.22382358 0.904481 0.19900009 0.41763255 0.27994186 
0.0 0.0 0.20022503 0.03286928 0.017910372 0.10998784 
0.0 0.0 0.0 0.0 0.0 0.07698792 
0.0 0.0 0.0 0.0 0.0 0.07698792 
0.0 0.0 0.0 0.0 0.0 0.07698792 
0.0 0.0 0.0 0.0 0.0 0.07698792 
0.0 0.0 0.0 0.0 0.0 0.07698792 
0.0 0.0 0.0 0.0 0.0 0.07698792 
0.0 0.0 0.0 0.0 0.0 0.07698792 
0.0 0.0 0.0 0.0 0.0 0.07698792 
0.0 0.0 0.0 0.0 0.0 0.07698792 
0.0 0.0 0.0 0.0 0.0 0.07698792 
0.0 0.0 0.0 0.0 0.0 0.07698792 
0.0 0.0 0.0 0.0 0.0 0.07698792 
0.0 0.0 0.0 0.0 0.0 0.07698792 
0.0 0.0 0.0 0.0 0.0 0.07698792 
0.006373942 0.0 0.0 0.0 0.06247047 0.12959239 
0.43034267 0.0 0.0 0.0 0.4439442 0.52772653 
0.6382328 0.0 0.0 0.018110033 0.5840393 0.9361276 
0.44787192 0.0 0.0 0.12156597 0.48403797 0.92517775 
0.35518777 0.0 0.0 0.5775989 0.49504897 0.7648423 
0.22799301 0.0 0.71028364 1.0765718 0.6101838 0.5605712 
0.39265046 0.50013286 0.98498607 1.287404 0.7044945 0.46153948 
0.43144387 0.5718382 0.6197211 1.2073923 1.3186892 0.51131696 
0.19868982 0.7395586 0.0 0.92300946 2.0275931 0.7461989 
0.0 0.9441245 0.0 0.6436694 1.9290497 0.6592002 
0.0 0.6375068 0.06438104 0.3182928 1.1579921 0.5676136 
0.0 0.3393187 0.5931446 0.18573499 0.5230858 0.4895869 
0.0 0.0019942774 0.4913969 0.030746456 0.19785781 0.21522804 
0.0 0.0 0.021880753 0.0 0.0 0.08751645 
0.0 0.0 0.0 0.0 0.0 0.07698792 
0.0 0.0 0.0 0.0 0.0 0.07698792 
0.0 0.0 0.0 0.0 0.0 0.07698792 
0.0 0.0 0.0 0.0 0.0 0.07698792 
0.0 0.0 0.0 0.0 0.0 0.07698792 
0.0 0.0 0.0 0.0 0.0 0.07698792 
0.0 0.0 0.0 0.0 0.0 0.07698792 
0.0 0.0 0.0 0.0 0.0 0.07698792 
0.0 0.0 0.0 0.0 0.0 0.07698792 
0.0 0.0 0.0 0.0 0.0 0.07698792 
0.0 0.0 0.0 0.0 0.0 0.07698792 
0.0 0.0 0.0 0.0 0.0 0.07698792 
0.0 0.0 0.0 0.0 0.0 0.07698792 
0.0 0.0 0.0 0.0 0.0 0.07698792 
0.0 0.0 0.0 0.0 0.0 0.07698792 
0.13021207 0.0 0.0 0.0 0.23185529 0.22164394 
0.42334336 0.0 0.0 0.0 0.4486145 0.5451493 
0.5804781 0.0 0.0 0.0 0.58878785 0.95445836 
0.48470837 0.0 0.0 0.11229476 0.72296333 1.1863885 
0.3343014 0.0 0.0 0.6680164 0.8725999 1.1906359 
0.22127989 0.24245274 0.0 1.304083 1.116661 1.2532697 
0.121213615 0.72857374 0.10892532 1.3736587 1.5235711 1.2506919 
0.005888492 0.84215647 0.0 0.88898635 1.5686661 1.1647015 
0.0 0.7584533 0.0 0.4709266 0.9265637 0.81381977 
0.0 0.32933494 0.2128847 0.08776733 0.45477435 0.534685 
0.0 0.00014801975 0.36761028 0.0 0.250725 0.33126852 
0.0 0.0 0.16806409 0.0 0.06094477 0.11617322 
0.0 0.0 0.0 0.0 0.0 0.07790112 
0.0 0.0 0.0 0.0 0.0 0.07698792 
0.0 0.0 0.0 0.0 0.0 0.07698792 
0.0 0.0 0.0 0.0 0.0 0.07698792 
0.0 0.0 0.0 0.0 0.0 0.07698792 
0.0 0.0 0.0 0.0 0.0 0.07698792 
0.0 0.0 0.0 0.0 0.0 0.07698792 
0.0 0.0 0.0 0.0 0.0 0.07698792 
0.0 0.0 0.0 0.0 0.0 0.07698792 
0.0 0.0 0.0 0.0 0.0 0.07698792 
0.0 0.0 0.0 0.0 0.0 0.07698792 
0.0 0.0 0.0 0.0 0.0 0.07698792 
0.0 0.0 0.0 0.0 0.0 0.07698792 
0.0 0.0 0.0 0.0 0.0 0.07698792 
0.0 0.0 0.0 0.0 0.0 0.07698792 
0.0 0.0 0.0 0.0 0.0 0.07698792 
0.0 0.0 0.0 0.0 0.0 0.088127695 
0.12276943 0.0 0.0 0.0 0.23989193 0.20924892 
0.43307173 0.0 0.0 0.0 0.54008573 0.50996864 
0.52592057 0.0 0.0 0.0 0.699418 0.8193025 
0.47284687 0.0 0.0 0.0 0.96641546 1.1534748 
0.39295685 0.0 0.0 0.0 1.2249539 1.3801312 
0.10189013 0.0033994429 0.0 0.0 1.1978886 1.1916761 
0.0 0.10116244 0.0 0.0 0.7641168 0.8241609 
0.0 0.0 0.0 0.0 0.4544318 0.5240618 
0.0 0.0 0.10036469 0.0 0.27946076 0.31327385 
0.0 0.0 0.078081526 0.0 0.10119951 0.13837408 
0.0 0.0 0.0 0.0 0.0 0.0817061 
0.0 0.0 0.0 0.0 0.0 0.07698792 
0.0 0.0 0.0 0.0 0.0 0.07698792 
0.0 0.0 0.0 0.0 0.0 0.07698792 
0.0 0.0 0.0 0.0 0.0 0.07698792 
0.0 0.0 0.0 0.0 0.0 0.07698792 
0.0 0.0 0.0 0.0 0.0 0.07698792 
0.0 0.0 0.0 0.0 0.0 0.07698792 
0.0 0.0 0.0 0.0 0.0 0.07698792 
0.0 0.0 0.0 0.0 0.0 0.07698792 
0.0 0.0 0.0 0.0 0.0 0.07698792 
0.0 0.0 0.0 0.0 0.0 0.07698792 
0.0 0.0 0.0 0.0 0.0 0.07698792 
0.0 0.0 0.0 0.0 0.0 0.07698792 
0.0 0.0 0.0 0.0 0.0 0.07698792 
0.0 0.0 0.0 0.0 0.0 0.07698792 
0.0 0.0 0.0 0.0 0.0 0.07698792 
0.0 0.0 0.0 0.0 0.0 0.07698792 
0.0 0.0 0.0 0.0 0.0 0.07698792 
0.061780766 0.0 0.0 0.0 0.14781862 0.16672495 
0.25306067 0.0 0.0 0.0 0.42737582 0.3082131 
0.31671304 0.0 0.0 0.0 0.62049025 0.38674232 
0.23828611 0.0 0.0 0.0 0.68312985 0.44894546 
0.0 0.0 0.0 0.0 0.5208207 0.37732196 
0.0 0.0 0.0 0.0 0.34090373 0.2779724 
0.0 0.0 0.0 0.0 0.19525917 0.20911884 
0.0 0.0 0.03261829 0.0 0.046330784 0.105949625 
0.0 0.0 0.0 0.0 0.0 0.07889041 
0.0 0.0 0.0 0.0 0.0 0.07698792 
0.0 0.0 0.0 0.0 0.0 0.07698792 
0.0 0.0 0.0 0.0 0.0 0.07698792 
0.0 0.0 0.0 0.0 0.0 0.07698792 
0.0 0.0 0.0 0.0 0.0 0.07698792 
0.0 0.0 0.0 0.0 0.0 0.07698792 
0.0 0.0 0.0 0.0 0.0 0.07698792 
0.0 0.0 0.0 0.0 0.0 0.07698792 
0.0 0.0 0.0 0.0 0.0 0.07698792 
0.0 0.0 0.0 0.0 0.0 0.07698792 
0.0 0.0 0.0 0.0 0.0 0.07698792 
0.0 0.0 0.0 0.0 0.0 0.07698792 
0.0 0.0 0.0 0.0 0.0 0.07698792 
0.0 0.0 0.0 0.0 0.0 0.07698792 
0.0 0.0 0.0 0.0 0.0 0.07698792 
0.0 0.0 0.0 0.0 0.0 0.07698792 
0.0 0.0 0.0 0.0 0.0 0.07698792 
0.0 0.0 0.0 0.0 0.0 0.07698792 
0.0 0.0 0.0 0.0 0.0 0.07698792 
0.0 0.0 0.0 0.0 0.0 0.07698792 
0.0 0.0 0.0 0.0 0.0 0.07698792 
0.0 0.0 0.0 0.0 0.0 0.07698792 
0.0 0.0 0.0 0.0 0.0 0.07698792 
0.0 0.0 0.0 0.0 0.0 0.07698792 
0.0 0.0 0.0 0.0 0.0 0.07698792 
0.0 0.0 0.0 0.0 0.0 0.07698792 
0.0 0.0 0.0 0.0 0.0 0.07698792 
0.0 0.0 0.0 0.0 0.0 0.07698792 
0.0 0.0 0.0 0.0 0.0 0.07698792 
0.0 0.0 0.0 0.0 0.0 0.07698792 
0.0 0.0 0.0 0.0 0.0 0.07698792 
0.0 0.0 0.0 0.0 0.0 0.07698792 
0.0 0.0 0.0 0.0 0.0 0.07698792 
0.0 0.0 0.0 0.0 0.0 0.07698792 
0.0 0.0 0.0 0.0 0.0 0.07698792 
0.0 0.0 0.0 0.0 0.0 0.07698792 
0.0 0.0 0.0 0.0 0.0 0.07698792 
0.0 0.0 0.0 0.0 0.0 0.07698792 
0.0 0.0 0.0 0.0 0.0 0.07698792 
0.0 0.0 0.0 0.0 0.0 0.07698792 
0.0 0.0 0.0 0.0 0.0 0.07698792 
0.0 0.0 0.0 0.0 0.0 0.07698792 
0.0 0.0 0.0 0.0 0.0 0.07698792 
0.0 0.0 0.0 0.0 0.0 0.07698792 
0.0 0.0 0.0 0.0 0.0 0.07698792 
0.0 0.0 0.0 0.0 0.0 0.07698792 
0.0 0.0 0.0 0.0 0.0 0.07698792 
0.0 0.0 0.0 0.0 0.0 0.07698792 
0.0 0.0 0.0 0.0 0.0 0.07698792 
0.0 0.0 0.0 0.0 0.0 0.07698792 
0.0 0.0 0.0 0.0 0.0 0.07698792 
0.0 0.0 0.0 0.0 0.0 0.07698792 
0.0 0.0 0.0 0.0 0.0 0.07698792 
0.0 0.0 0.0 0.0 0.0 0.07698792 
0.0 0.0 0.0 0.0 0.0 0.07698792 
0.0 0.0 0.0 0.0 0.0 0.07698792 
0.0 0.0 0.0 0.0 0.0 0.07698792 
0.0 0.0 0.0 0.0 0.0 0.07698792 
0.0 0.0 0.0 0.0 0.0 0.07698792 
0.0 0.0 0.0 0.0 0.0 0.07698792 
0.0 0.0 0.0 0.0 0.0 0.07698792 
0.0 0.0 0.0 0.0 0.0 0.07698792 
0.0 0.0 0.0 0.0 0.0 0.07698792 
0.0 0.0 0.0 0.0 0.0 0.07698792 

