0.0 0.0 0.0 0.0 0.0 0.07698792 
0.0 0.0 0.0 0.0 0.0 0.07698792 
0.0 0.0 0.0 0.0 0.0 0.07698792 
0.0 0.0 0.0 0.0 0.0 0.07698792 
0.0 0.0 0.0 0.0 0.0 0.07698792 
0.0 0.0 0.0 0.0 0.0 0.07698792 
0.0 0.0 0.0 0.0 0.0 0.07698792 
0.0 0.0 0.0 0.0 0.0 0.07698792 
0.0 0.0 0.0 0.0 0.0 0.07698792 
0.0 0.0 0.0 0.0 0.0 0.07698792 
0.0 0.0 0.0 0.0 0.0 0.07698792 
0.0 0.0 0.0 0.0 0.0 0.07698792 
0.0 0.0 0.0 0.0 0.0 0.07698792 
0.0 0.0 0.0 0.0 0.0 0.07698792 
0.0 0.0 0.0 0.0 0.0 0.07698792 
0.0 0.0 0.0 0.0 0.0 0.07698792 
0.0 0.0 0.0 0.0 0.0 0.07698792 
0.0 0.0 0.0 0.0 0.0 0.07698792 
0.0 0.0 0.0 0.0 0.0 0.07698792 
0.0 0.0 0.0 0.0 0.0 0.07698792 
0.0 0.0 0.0 0.0 0.0 0.07698792 
0.0 0.0 0.0 0.0 0.0 0.07698792 
0.0 0.0 0.0 0.0 0.0 0.07698792 
0.0 0.0 0.0 0.0 0.0 0.07698792 
0.0 0.0 0.0 0.0 0.0 0.07698792 
0.0 0.0 0.0 0.0 0.0 0.07698792 
0.0 0.0 0.0 0.0 0.0 0.07698792 
0.0 0.0 0.0 0.0 0.0 0.07698792 
0.0 0.0 0.0 0.0 0.0 0.07698792 
0.0 0.0 0.0 0.0 0.0 0.07698792 
0.0 0.0 0.0 0.0 0.0 0.07698792 
0.0 0.0 0.0 0.0 0.0 0.07698792 
0.0 0.0 0.0 0.0 0.0 0.07698792 
0.0 0.0 0.0 0.0 0.0 0.07698792 
0.0 0.0 0.0 0.0 0.0 0.07698792 
0.0 0.0 0.0 0.0 0.0 0.07698792 
0.0 0.0 0.0 0.0 0.0 0.07698792 
0.0 0.0 0.0 0.0 0.0 0.07698792 
0.0 0.0 0.0 0.0 0.0 0.07698792 
0.0 0.0 0.0 0.0 0.0 0.07698792 
0.0 0.0 0.0 0.0 0.0 0.07698792 
0.0 0.0 0.0 0.0 0.0 0.07698792 
0.0 0.0 0.0 0.0 0.0 0.07698792 
0.0 0.0 0.0 0.0 0.0 0.07698792 
0.0 0.0 0.0 0.0 0.0 0.07698792 
0.0 0.0 0.0 0.0 0.0 0.07698792 
0.0 0.0 0.0 0.0 0.0 0.07698792 
0.0 0.0 0.0 0.0 0.0 0.07698792 
0.0 0.0 0.0 0.0 0.0 0.07698792 
0.0 0.0 0.0 0.0 0.0 0.07698792 
0.0 0.0 0.0 0.0 0.0 0.07698792 
0.0 0.0 0.0 0.0 0.0 0.07698792 
0.0 0.0 0.0 0.0 0.0 0.07698792 
0.0 0.0 0.0 0.0 0.0 0.07698792 
0.0 0.0 0.0 0.0 0.0 0.07698792 
0.0 0.0 0.0 0.0 0.0 0.07698792 
0.0 0.0 0.0 0.0 0.0 0.07698792 
0.0 0.0 0.0 0.0 0.0 0.07698792 
0.0 0.0 0.0 0.0 0.0 0.07698792 
0.0 0.0 0.0 0.0 0.0 0.07698792 
0.0 0.0 0.0 0.0 0.0 0.07698792 
0.0 0.0 0.0 0.0 0.0 0.07698792 
0.0 0.0 0.0 0.0 0.0 0.07698792 
0.0 0.0 0.0 0.0 0.0 0.07698792 
0.0 0.0 0.0 0.0 0.0 0.07698792 
0.0 0.0 0.0 0.0 0.0 0.07698792 
0.0 0.0 0.0 0.0 0.0 0.07698792 
0.0 0.0 0.0 0.0 0.0 0.07698792 
0.0 0.0 0.0 0.0 0.0 0.07698792 
0.0 0.0 0.0 0.0 0.0 0.07698792 
0.0 0.0 0.0 0.0 0.0 0.07698792 
0.0 0.0 0.0 0.0 0.0 0.07698792 
0.0 0.0 0.0 0.0 0.0 0.07698792 
0.0 0.0 0.0 0.0 0.0 0.07698792 
0.0 0.0 0.0 0.0 0.0 0.07698792 
0.0 0.0 0.0 0.0 0.0 0.07698792 
0.0 0.0 0.0 0.0 0.0 0.07698792 
0.0 0.0 0.0 0.0 0.0 0.07698792 
0.0 0.0 0.0 0.0 0.0 0.07698792 
0.0 0.0 0.0 0.0 0.0 0.07698792 
0.0 0.0 0.0 0.0 0.0 0.07698792 
0.0 0.0 0.0 0.0 0.0 0.07698792 
0.0 0.0 0.0 0.0 0.0 0.07698792 
0.0 0.0 0.0 0.0 0.0 0.07698792 
0.0 0.0 0.0 0.0 0.0 0.07698792 
0.0 0.0 0.0 0.0 0.0 0.07698792 
0.0 0.0 0.0 0.0 0.0 0.07698792 
0.0 0.0 0.0 0.0 0.0 0.07698792 
0.0 0.0 0.0 0.0 0.0 0.07698792 
0.0 0.0 0.0 0.0 0.0 0.07698792 
0.0 0.0 0.0 0.0 0.0 0.07698792 
0.0 0.0 0.0 0.0 0.0 0.07698792 
0.0 0.0 0.0 0.0 0.0 0.07397108 
0.022598997 0.0 0.053247914 0.0 0.0 0.017366372 
0.23187226 0.013906985 0.20295593 0.0 0.0 0.0 
0.3060165 0.21088892 0.25081348 0.0 0.0 0.0 
0.1479241 0.39096153 0.24069637 0.0 0.0 0.0 
0.0 0.43402323 0.21568 0.0 0.0 0.0 
0.0 0.3196524 0.11531424 0.0 0.082215786 0.0 
0.0 0.12906879 0.0002636984 0.0 0.040772963 0.0 
0.0 0.014742483 0.0 0.0 0.0 0.055623226 
0.0 0.0 0.0 0.0 0.0 0.07698792 
0.0 0.0 0.0 0.0 0.0 0.07698792 
0.0 0.0 0.0 0.0 0.0 0.07698792 
0.0 0.0 0.0 0.0 0.0 0.07698792 
0.0 0.0 0.0 0.0 0.0 0.07698792 
0.0 0.0 0.0 0.0 0.0 0.07698792 
0.0 0.0 0.0 0.0 0.0 0.07698792 
0.0 0.0 0.0 0.0 0.0 0.07698792 
0.0 0.0 0.0 0.0 0.0 0.07698792 
0.0 0.0 0.0 0.0 0.0 0.07698792 
0.0 0.0 0.0 0.0 0.0 0.07698792 
0.0 0.0 0.0 0.0 0.0 0.07698792 
0.0 0.0 0.0 0.0 0.0 0.07698792 
0.0 0.0 0.0 0.0 0.0 0.07698792 
0.0 0.0 0.0 0.0 0.0 0.07698792 
0.0 0.0 0.0 0.0 0.0 0.07698792 
0.0 0.0 0.0 0.0 0.0 0.07698792 
0.0 0.0 0.0 0.0 0.0 0.07698792 
0.0 0.0 0.0 0.0 0.0 0.07698792 
0.0018506274 0.0 0.024917848 0.0 0.0 0.03864555 
0.29623377 0.0 0.13164711 0.0 0.0 0.0 
0.6781539 0.0 0.24099469 0.0 0.0 0.0 
0.8712311 0.30348226 0.4863996 0.0 0.0 0.0 
0.59518445 0.98051065 0.73534316 0.0 0.0 0.0 
0.0 1.2173767 0.79058146 0.0 0.4435877 0.0 
0.0 0.782809 0.6098777 0.0 0.5919297 0.0 
0.0 0.3261743 0.2359137 0.0 0.3749888 0.0 
0.0 0.07276441 0.0 0.0 0.08139391 0.0 
0.0 0.0 0.0 0.0 0.0 0.07698792 
0.0 0.0 0.0 0.0 0.0 0.07698792 
0.0 0.0 0.0 0.0 0.0 0.07698792 
0.0 0.0 0.0 0.0 0.0 0.07698792 
0.0 0.0 0.0 0.0 0.0 0.07698792 
0.0 0.0 0.0 0.0 0.0 0.07698792 
0.0 0.0 0.0 0.0 0.0 0.07698792 
0.0 0.0 0.0 0.0 0.0 0.07698792 
0.0 0.0 0.0 0.0 0.0 0.07698792 
0.0 0.0 0.0 0.0 0.0 0.07698792 
0.0 0.0 0.0 0.0 0.0 0.07698792 
0.0 0.0 0.0 0.0 0.0 0.07698792 
0.0 0.0 0.0 0.0 0.0 0.07698792 
0.0 0.0 0.0 0.0 0.0 0.07698792 
0.0 0.0 0.0 0.0 0.0 0.07698792 
0.0 0.0 0.0 0.0 0.0 0.07698792 
0.0 0.0 0.0 0.0 0.0 0.07698792 
0.0 0.0 0.0 0.0 0.0 0.07698792 
0.0 0.0 0.0 0.0 0.0 0.07698792 
0.08813433 0.0 0.0 0.0 0.0 0.06283662 
0.668724 0.0 0.034720562 0.0 0.0 0.05263841 
1.2650163 0.0 0.09917938 0.0 0.0 0.0 
1.2418158 0.31999218 0.44717664 0.0 0.0 0.0 
0.52187365 1.2097754 1.1505469 0.0 0.629927 0.0 
0.0 1.7152525 1.5438312 0.0 1.2174281 0.0 
0.0 1.4745376 1.4390985 0.0 1.0821353 0.0 
0.0 0.7581154 0.80841315 0.0 0.70184004 0.0 
0.0 0.13584179 0.12663996 0.0 0.28433502 0.0 
0.0 0.0 0.0 0.0 0.0 0.07698792 
0.0 0.0 0.0 0.0 0.0 0.07698792 
0.0 0.0 0.0 0.0 0.0 0.07698792 
0.0 0.0 0.0 0.0 0.0 0.07698792 
0.0 0.0 0.0 0.0 0.0 0.07698792 
0.0 0.0 0.0 0.0 0.0 0.07698792 
0.0 0.0 0.0 0.0 0.0 0.07698792 
0.0 0.0 0.0 0.0 0.0 0.07698792 
0.0 0.0 0.0 0.0 0.0 0.07698792 
0.0 0.0 0.0 0.0 0.0 0.07698792 
0.0 0.0 0.0 0.0 0.0 0.07698792 
0.0 0.0 0.0 0.0 0.0 0.07698792 
0.0 0.0 0.0 0.0 0.0 0.07698792 
0.0 0.0 0.0 0.0 0.0 0.07698792 
0.0 0.0 0.0 0.0 0.0 0.07698792 
0.0 0.0 0.0 0.0 0.0 0.07698792 
0.0 0.0 0.0 0.0 0.0 0.07698792 
0.0 0.0 0.0 0.0 0.0 0.07698792 
0.0 0.0 0.0 0.0 0.0 0.06756028 
0.31217545 0.0 0.0 0.0 0.0 0.115138724 
1.1410038 0.0 0.0 0.046954658 0.0 0.23224208 
1.6719792 0.0 0.0 0.21911773 0.027844671 0.1944803 
1.5069301 0.7926807 0.015962966 0.3791736 0.66091096 0.0 
0.6114553 1.7176762 0.9695996 0.36962417 1.2805703 0.0 
0.0 2.250388 1.9073026 0.40415958 1.617666 0.0 
0.0 1.9272774 2.1134536 0.25112656 1.3975933 0.0 
0.0 1.1392205 1.6077611 0.0 0.8455197 0.0 
0.0 0.3343303 0.5633229 0.0 0.27211928 0.0 
0.18821692 0.13035877 0.21787903 0.0 0.0 0.0 
0.1737775 0.31667742 0.20775917 0.0 0.0 0.0 
0.0 0.34500477 0.15543804 0.0 0.0 0.0 
0.0 0.27517688 0.109467976 0.0 0.014417458 0.0 
0.0 0.1562718 0.01683101 0.0 0.04644387 0.0 
0.0 0.02877045 0.0 0.0 0.0 0.04259597 
0.0 0.0 0.0 0.0 0.0 0.07698792 
0.0 0.0 0.0 0.0 0.0 0.07698792 
0.0 0.0 0.0 0.0 0.0 0.07698792 
0.0 0.0 0.0 0.0 0.0 0.07698792 
0.0 0.0 0.0 0.0 0.0 0.07698792 
0.0 0.0 0.0 0.0 0.0 0.07698792 
0.0 0.0 0.0 0.0 0.0 0.07698792 
0.0 0.0 0.0 0.0 0.0 0.07698792 
0.0 0.0 0.0 0.0 0.0 0.07698792 
0.0 0.0 0.0 0.0 0.0 0.07698792 
0.0 0.0 0.0 0.0 0.0 0.07698792 
0.0 0.0 0.0 0.0 0.0 0.07698792 
0.062764585 0.0 0.08003732 0.0 0.0 0.0134981945 
0.71709806 0.0 0.0 0.0 0.0 0.09944255 
1.6331997 0.0 0.0 0.0 0.0 0.3804506 
2.1101153 0.117712796 0.0 0.0 0.80080616 0.34622148 
1.6883731 0.9747405 0.0 0.0 1.5708861 0.30192372 
0.6171804 1.5990887 0.020082034 0.09947598 2.1580753 0.22329086 
0.0 2.0625305 1.2787585 0.21627884 2.2214966 0.0 
0.0 1.6747127 2.0670474 0.1779912 1.6414568 0.0 
0.0 1.0319084 2.014965 0.0 0.74550164 0.0 
0.10963856 0.4523078 1.0694423 0.0 0.0 0.0 
0.71487236 0.4522576 0.5173116 0.0 0.0 0.0 
0.4606194 0.89308786 0.67952543 0.0 0.0 0.0 
0.0 0.97511697 0.6025521 0.0 0.3773988 0.0 
0.0 0.79129845 0.53199655 0.0 0.43952647 0.0 
0.0 0.31540915 0.2413289 0.0 0.40366217 0.0 
0.0 0.038770214 0.0 0.0 0.0857818 0.007387869 
0.0 0.0 0.0 0.0 0.0 0.07698792 
0.0 0.0 0.0 0.0 0.0 0.07698792 
0.0 0.0 0.0 0.0 0.0 0.07698792 
0.0 0.0 0.0 0.0 0.0 0.07698792 
0.0 0.0 0.0 0.0 0.0 0.07698792 
0.0 0.0 0.0 0.0 0.0 0.07698792 
0.0 0.0 0.0 0.0 0.0 0.07698792 
0.0 0.0 0.0 0.0 0.0 0.07698792 
0.0 0.0 0.0 0.0 0.0 0.07698792 
0.0 0.0 0.0 0.0 0.0 0.07698792 
0.0 0.0 0.0 0.0 0.0 0.07698792 
0.0013534874 0.0 0.03407789 0.0 0.0 0.033997867 
0.35021436 0.0 0.08618777 0.0 0.0 0.0 
1.228926 0.0 0.0 0.0 0.0 0.10346804 
2.0487442 0.0 0.0 0.0 0.40376142 0.24781898 
1.9749959 0.527536 0.0 0.0 1.3255434 0.19222498 
1.2761271 1.056369 0.0 0.0 2.3286428 0.46109065 
0.37426418 1.473713 0.0 0.1234584 2.8204255 0.63824934 
0.0 1.7388138 0.936641 0.16635226 2.3639662 0.16359982 
0.0 1.2793342 1.6476802 0.067860395 1.3938802 0.0 
0.0 0.5230041 1.8122814 0.0 0.54136467 0.0 
0.73314947 0.5474193 1.178428 0.0 0.03177623 0.0 
0.80412984 0.7726966 0.57253563 0.0 0.30475986 0.0 
0.056709006 1.1064001 0.9761261 0.0 0.98551124 0.0 
0.0 1.2814918 1.1012236 0.15052372 1.2275428 0.0 
0.0 0.96587825 1.0257283 0.2007729 1.0033323 0.0 
0.0 0.4025968 0.62633014 0.097956195 0.56619275 0.0 
0.0 0.059369378 0.099872865 0.0 0.11190145 0.036812115 
0.0 0.0 0.0 0.0 0.0 0.07698792 
0.0 0.0 0.0 0.0 0.0 0.07698792 
0.0 0.0 0.0 0.0 0.0 0.07698792 
0.0 0.0 0.0 0.0 0.0 0.07698792 
0.0 0.0 0.0 0.0 0.0 0.07698792 
0.0 0.0 0.0 0.0 0.0 0.07698792 
0.0 0.0 0.0 0.0 0.0 0.07698792 
0.0 0.0 0.0 0.0 0.0 0.07698792 
0.0 0.0 0.0 0.0 0.0 0.07698792 
0.0 0.0 0.0 0.0 0.0 0.07698792 
0.0 0.0 0.0 0.0 0.0 0.06680607 
0.1698873 0.0 0.08007283 0.0 0.0 0.0 
0.84221786 0.0 0.03563848 0.0 0.0 0.0 
1.6682086 0.0 0.0 0.0 0.0 0.11662381 
2.0399601 0.25723913 0.0 0.0 0.88728637 0.1270687 
1.4625812 1.0144788 0.0 0.0 1.9749855 0.29981288 
0.7241577 1.3213218 0.0 0.136084 2.8540404 0.71743596 
0.0 1.5468252 0.05159708 0.3133722 2.931926 0.83875674 
0.0 1.2095057 0.62525237 0.20747921 2.015301 0.59244424 
0.0 0.44661507 1.1574984 0.09219751 0.99690896 0.38229236 
0.9116111 0.40892252 1.2528483 0.10681039 0.46902564 0.008365877 
0.8214006 0.94261974 0.8235332 0.21552534 0.87026554 0.0 
0.2664474 1.261181 0.5525561 0.4767405 1.6900932 0.0 
0.0 1.6354636 0.9737456 0.8411981 1.8884265 0.041345794 
0.0 1.3981509 1.3830755 0.86179477 1.4765171 0.08407986 
0.0 0.8793281 1.435088 0.55381054 0.6692281 0.013297774 
0.0 0.77106 1.0677885 0.08915557 0.14142944 0.0 
0.0 0.41855708 0.40062526 0.0 0.008217324 0.0 
0.0 0.26998043 0.10039999 0.0 0.0306932 0.0 
0.0 0.121268824 0.0 0.0 0.05308931 0.0 
0.0 0.0012756363 0.0 0.0 0.0 0.06812939 
0.0 0.0 0.0 0.0 0.0 0.07698792 
0.0 0.0 0.0 0.0 0.0 0.07698792 
0.0 0.0 0.0 0.0 0.0 0.07698792 
0.0 0.0 0.0 0.0 0.0 0.07698792 
0.0 0.0 0.0 0.0 0.0 0.07698792 
0.0 0.0 0.0 0.0 0.0 0.07698792 
0.0 0.0 0.0 0.0 0.0 0.0754795 
0.031458274 0.0 0.03493242 0.0 0.0 0.030950509 
0.52127653 0.0 0.02980116 0.0 0.0 0.009135559 
1.3534276 0.0 0.0 0.0 0.0 0.123147555 
1.9929538 0.0 0.0 0.0 0.5081396 0.18496045 
1.7650397 0.8254376 0.0 0.017544944 1.5215294 0.23775049 
0.94715613 1.3318634 0.0 0.06151953 2.6262205 0.4958244 
0.07749739 1.6628578 0.0 0.18232867 3.0046992 0.7321997 
0.0 1.2320184 0.299564 0.0 2.5408483 0.73575586 
0.0 0.43660685 0.4425788 0.0 1.3974856 0.649642 
0.93628854 0.13454181 0.627701 0.0 0.6546701 0.3475335 
1.3142498 0.59836763 0.3726291 0.11189778 1.1445411 0.15016767 
0.68279755 1.4074538 0.23336112 0.3408654 2.1051602 0.18545175 
0.0 1.8460798 0.17112347 0.46576828 2.576778 0.441309 
0.0 1.5794072 0.57367295 0.40525293 2.1244218 0.69987285 
0.0 0.79611874 0.76413184 0.021882202 1.015226 0.45533988 
0.23491567 0.4605991 0.99155676 0.0 0.0 0.0 
0.24836501 0.72425896 1.0477325 0.0 0.04079746 0.0 
0.0 0.9858706 0.7322835 0.0 0.30252406 0.0 
0.0 0.7327755 0.53483593 0.0 0.4604753 0.0 
0.0 0.18591425 0.1484403 0.0 0.38988647 0.0 
0.0 0.010771795 0.0 0.0 0.0 0.052633855 
0.0 0.0 0.0 0.0 0.0 0.07698792 
0.0 0.0 0.0 0.0 0.0 0.07698792 
0.0 0.0 0.0 0.0 0.0 0.07698792 
0.0 0.0 0.0 0.0 0.0 0.07698792 
0.0 0.0 0.0 0.0 0.0 0.07698792 
0.0 0.0 0.0 0.0 0.0 0.07698792 
0.0019243062 0.0 0.029899403 0.0 0.0 0.03613316 
0.32164836 0.0 0.11462974 0.0 0.0 0.0 
1.0411811 0.0 0.0 0.0 0.0 0.0 
1.8359911 0.0 0.0 0.0 0.14879313 0.12937036 
1.9553401 0.51125634 0.0 0.0 1.1735094 0.16494739 
1.2349992 1.1485282 0.0 0.033630952 2.2529972 0.4543578 
0.230533 1.6452353 0.0 0.21166094 2.9834335 0.7086255 
0.0 1.3932812 0.1789231 0.05029281 2.7533536 0.77903163 
0.0 0.6004843 0.4577874 0.0 1.6366783 0.8109322 
0.8047776 0.0 0.33101767 0.0 0.81287146 0.69547045 
1.5509598 0.22164002 0.0 0.0 1.0284039 0.46841764 
1.2449305 0.94886166 0.0 0.0 2.0231586 0.32739976 
0.24374884 1.6766132 0.0 0.0 2.7409265 0.30673474 
0.0 1.6420535 0.34157306 0.0 2.6252007 0.36989534 
0.0 0.80651337 0.59949493 0.0 1.5780563 0.40555134 
0.26401272 0.0 0.5089482 0.0 0.45957205 0.08544039 
0.93808657 0.0 0.4371454 0.0 0.047920052 0.0 
0.4821915 0.93761 0.86387956 0.0 0.5750419 0.0 
0.0 1.3878665 1.1399089 0.0 1.0926288 0.0 
0.0 1.176822 1.2266585 0.0 0.9813487 0.0 
0.0 0.43134636 0.5561005 0.0 0.60556966 0.0 
0.0 0.026912846 0.0 0.0 0.02108178 0.04530662 
0.0 0.0 0.0 0.0 0.0 0.07698792 
0.0 0.0 0.0 0.0 0.0 0.07698792 
0.0 0.0 0.0 0.0 0.0 0.07698792 
0.0 0.0 0.0 0.0 0.0 0.07698792 
0.0 0.0 0.0 0.0 0.0 0.07698792 
0.0 0.0 0.0 0.0 0.0 0.07698792 
0.10104488 0.0 0.014227234 0.0 0.0 0.050970513 
0.7146126 0.0 0.03242544 0.0 0.0 0.05065999 
1.6039748 0.0 0.0 0.0 0.0 0.20691091 
2.0358903 0.16880092 0.0 0.0 0.76694715 0.23364168 
1.5828316 0.9298962 0.0 0.0 1.8130244 0.21544078 
0.76081103 1.5239213 0.0 0.0 2.7344782 0.39106888 
0.0 1.7743851 0.19650832 0.0 2.8889713 0.33757323 
0.0 1.0036905 0.6401243 0.0 1.9587654 0.313582 
0.32811758 0.0047469875 0.6396586 0.0 0.99726397 0.5244719 
1.4872265 0.0 0.08861712 0.0 0.9132583 0.50774825 
1.7522085 0.39774543 0.0 0.0 1.5128266 0.34104446 
1.087786 1.372603 0.0 0.0 2.3762047 0.23292355 
0.0 1.8882229 0.28140995 0.0 2.5806792 0.0 
0.0 1.5272684 1.1796734 0.0 1.684841 0.0 
0.0 0.484861 1.2860022 0.0 0.84778845 0.0 
0.97703 0.22473225 0.82313347 0.0 0.33700278 0.0 
1.3686054 0.5439773 0.27254996 0.0 0.5990442 0.0 
0.32153058 1.6924207 0.70691025 0.03585024 1.3878013 0.0 
0.0 1.9797971 1.4376158 0.21334821 1.5785693 0.0 
0.0 1.5240498 1.8351513 0.2263961 1.1846062 0.0 
0.0 0.6384031 1.0228314 0.030575462 0.68033975 0.0 
0.0 0.05290863 0.053245224 0.0 0.029588718 0.052923925 
0.0 0.0 0.0 0.0 0.0 0.07698792 
0.0 0.0 0.0 0.0 0.0 0.07698792 
0.0 0.0 0.0 0.0 0.0 0.07698792 
0.0 0.0 0.0 0.0 0.0 0.07698792 
0.0 0.0 0.0 0.0 0.0 0.07698792 
0.0 0.0 0.0 0.0 0.0 0.07698792 
0.25004554 0.0 0.0 0.0 0.0 0.17866372 
1.1060855 0.0 0.0 0.1272034 0.0 0.36348823 
1.9063678 0.0 0.0 0.16302454 0.38352665 0.4645006 
1.9403276 0.46732494 0.0 0.20532134 1.2796081 0.4117542 
1.3391302 1.2096937 0.0 0.0011603506 2.1175756 0.31977382 
0.5272525 1.8337486 0.22578529 0.0 2.6092353 0.122590624 
0.0 1.898876 0.9088886 0.0 2.1441908 0.0 
0.0 1.1124494 1.2568109 0.0 1.2091154 0.0 
0.8431773 0.28922668 0.77348423 0.0 0.96178204 0.019948281 
1.6403575 0.33731627 0.0 0.0 1.2687277 0.15385121 
1.6458797 0.92547315 0.0 0.0 1.8134643 0.3075669 
0.84621537 1.5836843 0.016261019 0.0 2.3777223 0.16094175 
0.0 1.8725116 0.89809847 0.0 1.9924527 0.0 
0.0 1.2716078 1.6647007 0.0 1.3172331 0.0 
0.52907103 0.79711074 1.5739622 0.0 1.0046649 0.0 
1.127393 0.66064674 0.6003503 0.0 1.2839452 0.0 
1.1225393 1.0516784 0.0 0.10324854 1.9609395 0.18189627 
0.013620332 1.8117946 0.19207698 0.34489492 2.261925 0.07671815 
0.0 1.8456545 1.1221552 0.4654436 1.95792 0.0 
0.0 1.1739635 1.7338773 0.41589883 1.3633482 0.26796216 
0.0 0.38320893 1.1529229 0.20476112 0.6596135 0.08557318 
0.0 0.039109875 0.085434444 0.030491456 0.014339436 0.075771265 
0.0 0.0 0.0 0.0 0.0 0.07698792 
0.0 0.0 0.0 0.0 0.0 0.07698792 
0.0 0.0 0.0 0.0 0.0 0.07698792 
0.0 0.0 0.0 0.0 0.0 0.07698792 
0.0 0.0 0.0 0.0 0.0 0.07698792 
0.0 0.0 0.0 0.0 0.0 0.07698792 
0.33391038 0.0 0.0 0.13643068 0.0 0.3926137 
1.2975094 0.0 0.0 0.30136275 0.09540939 0.8902931 
2.0111687 0.0 0.0 0.368833 0.79191434 0.9751522 
1.8575094 0.49624392 0.0 0.39064053 1.4894937 0.844759 
1.2314041 1.16773 0.0 0.16490337 2.1652675 0.57937723 
0.3369488 1.6164262 0.63402826 0.0 2.3145342 0.0 
0.0 1.5351372 1.403321 0.0 1.7146868 0.0 
0.3189965 1.011311 1.6413608 0.0 1.429704 0.0 
1.0716193 0.72388977 0.7930513 0.0 1.6656208 0.0 
1.3909554 0.72412485 0.0 0.0 1.9842764 0.04887218 
1.3078623 1.0451509 0.0 0.0 2.329168 0.3746642 
0.66524696 1.4436051 0.1986891 0.0 2.39398 0.23299721 
0.100897565 1.4385056 1.1478221 0.0 1.9407047 0.0 
0.29773846 1.2380503 1.7170084 0.078083545 1.6099015 0.0 
0.6921278 1.1467474 1.3808115 0.19425634 1.8698598 0.0 
0.8588568 1.2372793 0.24308595 0.2676601 2.3778749 0.25877747 
0.5609131 1.3765126 0.0 0.44166985 2.8128946 0.7260888 
0.0 1.7123004 0.0385653 0.54879487 2.6004837 0.68847567 
0.0 1.1825451 0.8502449 0.5267291 1.918126 0.5362679 
0.0 0.5840491 1.3059669 0.45314306 1.0596695 0.5576558 
0.0 0.25506353 0.96921146 0.2835517 0.35113892 0.19770896 
0.0 0.019045182 0.068166144 0.03137667 0.0 0.0872553 
0.0 0.0 0.0 0.0 0.0 0.07698792 
0.0 0.0 0.0 0.0 0.0 0.07698792 
0.0 0.0 0.0 0.0 0.0 0.07698792 
0.0 0.0 0.0 0.0 0.0 0.07698792 
0.0 0.0 0.0 0.0 0.0 0.07698792 
0.0 0.0 0.0 0.0 0.0 0.07698792 
0.37767398 0.0 0.0 0.097248375 0.15848781 0.49644256 
1.2068231 0.0 0.0 0.22187865 0.5969459 1.1900818 
1.7087877 0.0 0.0 0.40899152 1.088364 1.4275951 
1.8234918 0.0 0.0 0.49906978 1.5965902 1.411664 
1.2987721 0.81560296 0.0 0.55872196 2.0230384 1.159678 
0.44249642 1.2617034 0.6332952 0.3283728 2.0554612 0.40660465 
0.16877787 1.366363 1.4823496 0.23612192 1.7717451 0.0 
0.5537146 1.2411699 1.7735534 0.32835248 1.8825144 0.0 
0.9712241 1.2416563 1.0821661 0.29698494 2.1661088 0.0663627 
1.1944044 1.3212041 0.048018195 0.09837726 2.3268478 0.2324267 
1.1548095 1.315685 0.0 0.0 2.5178099 0.48077708 
0.6970743 1.452942 0.3176769 0.037307825 2.3976493 0.4144294 
0.3958456 1.4579437 0.8629763 0.1920518 2.173164 0.25041667 
0.4742872 1.4043946 1.0341331 0.40100566 2.358124 0.4549946 
0.47056264 1.3696711 0.70099825 0.63049734 2.701233 0.71885186 
0.28786555 1.4939424 0.035679728 0.7316417 2.9271073 0.9647179 
0.0 1.4321282 0.0 0.6546447 2.9288185 1.2330649 
0.0 1.1157441 0.022519022 0.4328396 2.2638414 1.1178594 
0.0 0.5597674 0.47394574 0.19406429 1.2479626 0.74908274 
0.0 0.22602345 0.71551484 0.14276713 0.4942691 0.5289322 
0.0 0.022463717 0.55444914 0.08297622 0.15069658 0.19652912 
0.0 0.0 0.010668121 0.0019244263 0.0 0.086560614 
0.0 0.0 0.0 0.0 0.0 0.07698792 
0.0 0.0 0.0 0.0 0.0 0.07698792 
0.0 0.0 0.0 0.0 0.0 0.07698792 
0.0 0.0 0.0 0.0 0.0 0.07698792 
0.0 0.0 0.0 0.0 0.0 0.07698792 
0.0 0.0 0.0 0.0 0.0 0.07698792 
0.26740655 0.0 0.0 0.010206834 0.22273819 0.3950064 
0.9354622 0.0 0.0 0.06989251 0.7556023 1.1098287 
1.2696888 0.0 0.0 0.19734775 1.1512926 1.5524788 
1.3715947 0.0 0.0 0.4857961 1.590542 1.8206935 
1.1433809 0.0 0.0 0.91538584 2.0695953 1.9991279 
0.7534083 0.5824812 0.0 1.2482516 2.1020124 1.7481382 
0.6196724 0.9005855 0.42408484 1.1642345 2.0662189 1.3457627 
0.74630296 1.037823 0.75866026 0.8880568 2.2552905 1.0601513 
0.93656355 1.2509661 0.6753271 0.6158208 2.3374252 0.71220404 
0.9376741 1.4532678 0.23078918 0.28421047 2.532654 0.57471627 
0.7146682 1.3913293 0.0 0.19495438 2.8154557 0.79353654 
0.4197961 1.1788728 0.0 0.40632865 2.8969831 1.0674496 
0.31917438 1.0059966 0.0 0.70353985 2.9563541 1.3809619 
0.23529816 0.9331302 0.0 0.982584 3.06641 1.651439 
0.0 0.968512 0.0 1.0506314 3.0266292 1.6440363 
0.0 1.0000323 0.0 0.7561705 2.8155935 1.4528596 
0.0 0.6720535 0.0 0.30329868 2.2961547 1.2545824 
0.0 0.4166138 0.03627728 0.06354364 1.2894701 0.906988 
0.0 0.055871747 0.19600737 0.0 0.582776 0.5059124 
0.0 0.0 0.17668802 0.0 0.2674852 0.31070393 
0.0 0.0 0.12833881 0.0 0.076202676 0.12085847 
0.0 0.0 0.0 0.0 0.0 0.07904261 
0.0 0.0 0.0 0.0 0.0 0.07698792 
0.0 0.0 0.0 0.0 0.0 0.07698792 
0.0 0.0 0.0 0.0 0.0 0.07698792 
0.0 0.0 0.0 0.0 0.0 0.07698792 
0.0 0.0 0.0 0.0 0.0 0.07698792 
0.0 0.0 0.0 0.0 0.0 0.07698792 
0.111255765 0.0 0.0 0.0 0.17415611 0.22101668 
0.56733906 0.0 0.0 0.0 0.5849047 0.68804574 
0.9380216 0.0 0.0 0.0 1.0454277 1.2528274 
1.0230889 0.0 0.0 0.0 1.4613563 1.6708848 
0.87348956 0.0 0.0 0.2633868 1.906104 1.9155779 
0.73709446 0.0 0.0 0.66869265 2.0362463 2.022826 
1.0717063 0.0 0.0 0.81769997 1.9803067 1.9130557 
1.3796065 0.32653323 0.0 0.6701165 2.0288935 1.5232534 
1.2841027 0.8874287 0.0 0.43700817 2.1843138 1.0663619 
0.7814963 1.3123556 0.0421333 0.17337406 2.7666345 0.7747204 
0.22652602 1.3708655 0.0 0.1611804 3.201235 0.88733107 
0.0 1.150643 0.0 0.40973637 3.2311919 1.242662 
0.0 0.73014206 0.0 0.6169763 3.0784445 1.6393783 
0.0 0.5268948 0.0 0.7604794 2.6595995 1.7626569 
0.0 0.55648017 0.0 0.5666228 2.2416239 1.6602263 
0.0 0.497045 0.0 0.17034331 1.6930484 1.293221 
0.0 0.24642485 0.0 0.0 0.9601211 0.8173352 
0.0 0.0 0.15367413 0.0 0.47910216 0.49485135 
0.0 0.0 0.18995205 0.0 0.22439213 0.25074542 
0.0 0.0 0.028065383 0.0 0.048064318 0.116215274 
0.0 0.0 0.0 0.0 0.0 0.08003191 
0.0 0.0 0.0 0.0 0.0 0.07698792 
0.0 0.0 0.0 0.0 0.0 0.07698792 
0.0 0.0 0.0 0.0 0.0 0.07698792 
0.0 0.0 0.0 0.0 0.0 0.07698792 
0.0 0.0 0.0 0.0 0.0 0.07698792 
0.0 0.0 0.0 0.0 0.0 0.07698792 
0.0 0.0 0.0 0.0 0.0 0.07698792 
0.0 0.0 0.0 0.0 0.0013042912 0.10298072 
0.20425549 0.0 0.0 0.0 0.31422904 0.28669137 
0.5178037 0.0 0.0 0.0 0.6471734 0.6303152 
0.6743124 0.0 0.0 0.0 0.9838919 1.0166643 
0.6328261 0.0 0.0 0.0 1.2906396 1.3756874 
0.8180818 0.0 0.0 0.0 1.3403492 1.748735 
1.3444054 0.0 0.0 0.0 1.2471054 1.8435445 
1.6400805 0.0 0.0 0.0 1.4870104 1.464731 
1.4591787 0.49996004 0.0 0.12246317 1.9509219 1.0795829 
0.63730776 1.441356 0.0 0.14419648 2.7487266 0.7297052 
0.0 1.6594912 0.18776867 0.0 3.085327 0.6675743 
0.0 1.3420404 0.14766714 0.0 2.7164586 0.944885 
0.0 0.7377389 0.0 0.0 2.1611607 1.0919368 
0.1775145 0.41429698 0.0 0.0 1.4168507 0.7810728 
0.0 0.3534231 0.0 0.0 1.0862054 0.36021584 
0.0 0.21583831 0.0 0.0 0.7505064 0.12844735 
0.0 0.030138813 0.03874866 0.0 0.47008726 0.077133484 
0.0 0.0 0.08177783 0.0 0.26865917 0.14535116 
0.0 0.0 0.04666414 0.0 0.03041977 0.09893032 
0.0 0.0 0.0 0.0 0.0 0.07790112 
0.0 0.0 0.0 0.0 0.0 0.07698792 
0.0 0.0 0.0 0.0 0.0 0.07698792 
0.0 0.0 0.0 0.0 0.0 0.07698792 
0.0 0.0 0.0 0.0 0.0 0.07698792 
0.0 0.0 0.0 0.0 0.0 0.07698792 
0.0 0.0 0.0 0.0 0.0 0.07698792 
0.0 0.0 0.0 0.0 0.0 0.07698792 
0.0 0.0 0.0 0.0 0.0 0.07698792 
0.0 0.0 0.0 0.0 0.0 0.07698792 
0.0 0.0 0.0 0.0 0.0 0.10236184 
0.11821547 0.0 0.0 0.0 0.22810878 0.2093124 
0.28649053 0.0 0.0 0.0 0.4996135 0.34538576 
0.32468098 0.0 0.0 0.0 0.6798503 0.43512076 
0.69084996 0.0 0.0 0.0 0.7903575 0.8800032 
1.4466879 0.0 0.0 0.0 0.9498103 1.3929555 
1.887449 0.0 0.0 0.0 1.2957333 1.287648 
1.6775973 0.17485335 0.0 0.0 1.8317171 1.0222981 
0.61242807 1.437936 0.04059609 0.0 2.4991486 0.39411616 
0.0 1.6679193 0.7086463 0.0 2.5484197 0.0 
0.0 1.0608454 0.9056116 0.0 1.8459262 0.0 
0.23586613 0.43421528 0.45270413 0.0 1.1911906 0.0 
0.49600512 0.42126393 0.025687031 0.0 0.5724286 0.0 
0.0 0.67264277 0.16029528 0.0 0.73022467 0.0 
0.0 0.6115519 0.41654235 0.0 0.79272354 0.0 
0.0 0.37593842 0.44849813 0.0 0.5717231 0.0 
0.0 0.039874516 0.09574514 0.0 0.2988066 0.0 
0.0 0.0 0.0 0.0 0.0 0.07759672 
0.0 0.0 0.0 0.0 0.0 0.07698792 
0.0 0.0 0.0 0.0 0.0 0.07698792 
0.0 0.0 0.0 0.0 0.0 0.07698792 
0.0 0.0 0.0 0.0 0.0 0.07698792 
0.0 0.0 0.0 0.0 0.0 0.07698792 
0.0 0.0 0.0 0.0 0.0 0.07698792 
0.0 0.0 0.0 0.0 0.0 0.07698792 
0.0 0.0 0.0 0.0 0.0 0.07698792 
0.0 0.0 0.0 0.0 0.0 0.07698792 
0.0 0.0 0.0 0.0 0.0 0.07698792 
0.0 0.0 0.0 0.0 0.0 0.07698792 
0.0 0.0 0.0 0.0 0.0 0.07822567 
0.0 0.0 0.0 0.0 0.0 0.08123146 
0.0 0.0 0.0 0.0 0.0 0.0831568 
0.38751405 0.0 0.0 0.0 0.24956264 0.4778495 
1.3720701 0.0 0.0 0.047880854 0.476518 1.1005988 
2.0268586 0.0 0.0 0.06829113 0.9152658 1.1551692 
1.8731875 0.19833201 0.0 0.016318705 1.5410048 0.9577016 
0.7589456 1.407645 0.028161235 0.0 1.8934652 0.20821366 
0.0 1.6152947 1.2726811 0.0 1.7804652 0.0 
0.0 1.1708612 1.8120317 0.0 1.1575233 0.0 
0.28883278 0.8835189 1.6247791 0.0 0.82337534 0.0 
0.37542352 0.9583279 1.0846099 0.0 0.81781274 0.0 
0.0 1.438393 1.2667043 0.0 1.1918136 0.0 
0.0 1.3737774 1.2338494 0.0 1.1860242 0.0 
0.0 0.8056111 0.94107056 0.0 0.83885735 0.0 
0.0 0.16939563 0.29888734 0.0 0.34308302 0.0 
0.0 0.0 0.0 0.0 0.0 0.07698792 
0.0 0.0 0.0 0.0 0.0 0.07698792 
0.0 0.0 0.0 0.0 0.0 0.07698792 
0.0 0.0 0.0 0.0 0.0 0.07698792 
0.0 0.0 0.0 0.0 0.0 0.07698792 
0.0 0.0 0.0 0.0 0.0 0.07698792 
0.0 0.0 0.0 0.0 0.0 0.07698792 
0.0 0.0 0.0 0.0 0.0 0.07698792 
0.0 0.0 0.0 0.0 0.0 0.07698792 
0.0 0.0 0.0 0.0 0.0 0.07698792 
0.0 0.0 0.0 0.0 0.0 0.07698792 
0.0 0.0 0.0 0.0 0.0 0.07698792 
0.0 0.0 0.0 0.0 0.0 0.07698792 
0.0 0.0 0.0 0.0 0.0 0.07698792 
0.0 0.0 0.0 0.0 0.0 0.07698792 
0.21329194 0.0 0.0 0.009614668 0.16547206 0.34139907 
1.1367218 0.0 0.0 0.053325415 0.45358625 1.0901766 
1.8965569 0.0 0.0 0.11584844 0.832976 1.3626349 
1.9786301 0.0 0.0 0.11903474 1.3868301 1.0895107 
0.96016425 0.990732 0.0 0.19401953 1.5926621 0.48539403 
0.13648786 1.2614201 1.3788354 0.14421263 1.7246101 0.0 
0.38083345 1.2526345 1.8135085 0.19579342 1.6141495 0.0 
0.39371994 1.3737531 1.4628761 0.3947491 1.6292821 0.0 
0.18712133 1.6190985 1.0065533 0.5792487 1.8216738 0.0 
0.0 1.9878719 1.3748337 0.7074901 1.8521861 0.0 
0.0 1.5981497 1.6353911 0.7112775 1.4465467 0.0 
0.0 0.76960903 1.2907468 0.45977464 0.81657463 0.15905811 
0.0 0.28890455 0.5494139 0.23246375 0.17831418 0.07877836 
0.0 0.0 0.0 0.0 0.0 0.07698792 
0.0 0.0 0.0 0.0 0.0 0.07698792 
0.0 0.0 0.0 0.0 0.0 0.07698792 
0.0 0.0 0.0 0.0 0.0 0.07698792 
0.0 0.0 0.0 0.0 0.0 0.07698792 
0.0 0.0 0.0 0.0 0.0 0.07698792 
0.0 0.0 0.0 0.0 0.0 0.07698792 
0.0 0.0 0.0 0.0 0.0 0.07698792 
0.0 0.0 0.0 0.0 0.0 0.07698792 
0.0 0.0 0.0 0.0 0.0 0.07698792 
0.0 0.0 0.0 0.0 0.0 0.07698792 
0.0 0.0 0.0 0.0 0.0 0.07698792 
0.0 0.0 0.0 0.0 0.0 0.07698792 
0.0 0.0 0.0 0.0 0.0 0.07698792 
0.0 0.0 0.0 0.0 0.0 0.07698792 
0.08878733 0.0 0.0 0.0 0.13285539 0.20613511 
0.8839186 0.0 0.0 0.048220593 0.5311841 0.9532853 
1.601332 0.0 0.0 0.1175546 0.881502 1.4598455 
1.8192465 0.0 0.0 0.29663295 1.2719675 1.345953 
1.3736753 0.50636536 0.0 0.5258867 1.4855657 1.1016347 
0.6492325 1.260076 0.7636528 0.6936356 1.87571 0.6299206 
0.4797274 1.4130576 0.94754446 0.6158574 2.383654 0.60996956 
0.29996288 1.4994202 0.67574286 0.8099707 2.6545095 0.74598294 
0.0 1.7407364 0.29627162 0.8652557 2.6811154 0.84830993 
0.0 1.5903875 0.66923904 0.78136426 2.175092 0.70761985 
0.0 0.8973842 1.1403159 0.5376885 1.3344909 0.5478022 
0.0 0.40652293 1.0458715 0.3428796 0.5467659 0.3871736 
0.0 0.10070723 0.483541 0.14183864 0.08341673 0.13387987 
0.0 0.0 0.0 0.0 0.0 0.07698792 
0.0 0.0 0.0 0.0 0.0 0.07698792 
0.0 0.0 0.0 0.0 0.0 0.07698792 
0.0 0.0 0.0 0.0 0.0 0.07698792 
0.0 0.0 0.0 0.0 0.0 0.07698792 
0.0 0.0 0.0 0.0 0.0 0.07698792 
0.0 0.0 0.0 0.0 0.0 0.07698792 
0.0 0.0 0.0 0.0 0.0 0.07698792 
0.0 0.0 0.0 0.0 0.0 0.07698792 
0.0 0.0 0.0 0.0 0.0 0.07698792 
0.0 0.0 0.0 0.0 0.0 0.07698792 
0.0 0.0 0.0 0.0 0.0 0.07698792 
0.0 0.0 0.0 0.0 0.0 0.07698792 
0.0 0.0 0.0 0.0 0.0 0.07698792 
0.0 0.0 0.0 0.0 0.0 0.07698792 
0.0 0.0 0.0 0.0 0.0 0.10913351 
0.56653666 0.0 0.0 0.01870862 0.4604014 0.6759471 
1.2338629 0.0 0.0 0.079454586 0.92372084 1.4124677 
1.4062107 0.0 0.0 0.27778268 1.2898979 1.6768324 
1.4142108 0.0 0.0 0.6738221 1.7863941 1.9110956 
0.8212853 0.43879336 0.0 1.1241655 2.4028895 1.9261854 
0.3128349 0.8512284 0.0 1.1765275 2.9357069 1.8089111 
0.0 1.0072632 0.0 0.9868559 3.0048034 1.6063757 
0.0 0.9390986 0.0 0.605011 2.6199782 1.3191013 
0.0 0.69872344 0.22092241 0.34846213 1.6032346 0.9447557 
0.0 0.31502444 0.6228824 0.13606302 0.73031145 0.6045843 
0.0 0.05646974 0.55792665 0.034561533 0.293357 0.32646385 
0.0 0.0 0.18355194 0.0 0.045072038 0.1100997 
0.0 0.0 0.0 0.0 0.0 0.07698792 
0.0 0.0 0.0 0.0 0.0 0.07698792 
0.0 0.0 0.0 0.0 0.0 0.07698792 
0.0 0.0 0.0 0.0 0.0 0.07698792 
0.0 0.0 0.0 0.0 0.0 0.07698792 
0.0 0.0 0.0 0.0 0.0 0.07698792 
0.0 0.0 0.0 0.0 0.0 0.07698792 
0.0 0.0 0.0 0.0 0.0 0.07698792 
0.0 0.0 0.0 0.0 0.0 0.07698792 
0.0 0.0 0.0 0.0 0.0 0.07698792 
0.0 0.0 0.0 0.0 0.0 0.07698792 
0.0 0.0 0.0 0.0 0.0 0.07698792 
0.0 0.0 0.0 0.0 0.0 0.07698792 
0.0 0.0 0.0 0.0 0.0 0.07698792 
0.0 0.0 0.0 0.0 0.0 0.07698792 
0.0 0.0 0.0 0.0 0.0 0.08186122 
0.27757406 0.0 0.0 0.0 0.3449064 0.36940497 
0.85726625 0.0 0.0 0.0 0.8091423 1.0184644 
1.0913839 0.0 0.0 0.0 1.2624849 1.4863067 
1.0010529 0.0 0.0 0.18407038 1.7614576 1.7842441 
0.53316325 0.0 0.0 0.54072493 2.1861775 1.8930161 
0.088541776 0.4408657 0.0 0.7518663 2.3049018 1.800153 
0.0 0.55003357 0.0 0.40984008 2.093582 1.5752037 
0.0 0.47804457 0.0 0.09886977 1.3557421 1.0984826 
0.0 0.13088766 0.08467569 0.0 0.67439485 0.65061593 
0.0 0.0 0.29227477 0.0 0.33514127 0.38873398 
0.0 0.0 0.19250023 0.0 0.1217116 0.16189133 
0.0 0.0 0.0 0.0 0.0 0.082467094 
0.0 0.0 0.0 0.0 0.0 0.07698792 
0.0 0.0 0.0 0.0 0.0 0.07698792 
0.0 0.0 0.0 0.0 0.0 0.07698792 
0.0 0.0 0.0 0.0 0.0 0.07698792 
0.0 0.0 0.0 0.0 0.0 0.07698792 
0.0 0.0 0.0 0.0 0.0 0.07698792 
0.0 0.0 0.0 0.0 0.0 0.07698792 
0.0 0.0 0.0 0.0 0.0 0.07698792 
0.0 0.0 0.0 0.0 0.0 0.07698792 
0.0 0.0 0.0 0.0 0.0 0.07698792 
0.0 0.0 0.0 0.0 0.0 0.07698792 
0.0 0.0 0.0 0.0 0.0 0.07698792 
0.0 0.0 0.0 0.0 0.0 0.07698792 
0.0 0.0 0.0 0.0 0.0 0.07698792 
0.0 0.0 0.0 0.0 0.0 0.07698792 
0.0 0.0 0.0 0.0 0.0 0.0776068 
0.033064276 0.0 0.0 0.0 0.101105034 0.14857784 
0.40553436 0.0 0.0 0.0 0.46923092 0.49307132 
0.69899374 0.0 0.0 0.0 0.87291074 0.9396662 
0.6608557 0.0 0.0 0.0 1.1829962 1.2650347 
0.45311224 0.0 0.0 0.0 1.3630044 1.4345591 
0.05220247 0.0 0.0 0.0 1.328833 1.2601724 
0.0 0.0 0.0 0.0 0.93020475 0.89179105 
0.0 0.0 0.0 0.0 0.53402245 0.5337143 
0.0 0.0 0.0 0.0 0.30349806 0.31671935 
0.0 0.0 0.06171204 0.0 0.12549832 0.15873364 
0.0 0.0 0.0 0.0 0.0 0.08432109 
0.0 0.0 0.0 0.0 0.0 0.07698792 
0.0 0.0 0.0 0.0 0.0 0.07698792 
0.0 0.0 0.0 0.0 0.0 0.07698792 
0.0 0.0 0.0 0.0 0.0 0.07698792 
0.0 0.0 0.0 0.0 0.0 0.07698792 
0.0 0.0 0.0 0.0 0.0 0.07698792 
0.0 0.0 0.0 0.0 0.0 0.07698792 
0.0 0.0 0.0 0.0 0.0 0.07698792 
0.0 0.0 0.0 0.0 0.0 0.07698792 
0.0 0.0 0.0 0.0 0.0 0.07698792 
0.0 0.0 0.0 0.0 0.0 0.07698792 
0.0 0.0 0.0 0.0 0.0 0.07698792 
0.0 0.0 0.0 0.0 0.0 0.07698792 
0.0 0.0 0.0 0.0 0.0 0.07698792 
0.0 0.0 0.0 0.0 0.0 0.07698792 
0.0 0.0 0.0 0.0 0.0 0.07698792 
0.0 0.0 0.0 0.0 0.0 0.07698792 
0.0 0.0 0.0 0.0 0.0 0.07822567 
0.0826142 0.0 0.0 0.0 0.17970213 0.1808705 
0.2808599 0.0 0.0 0.0 0.46945837 0.3291451 
0.32200438 0.0 0.0 0.0 0.6439846 0.396838 
0.20022637 0.0 0.0 0.0 0.65444475 0.44062817 
0.0 0.0 0.0 0.0 0.508713 0.3692462 
0.0 0.0 0.0 0.0 0.33290124 0.2767806 
0.0 0.0 0.0 0.0 0.17515053 0.18991289 
0.0 0.0 0.007909752 0.0 0.032714624 0.105221644 
0.0 0.0 0.0 0.0 0.0 0.07970491 
0.0 0.0 0.0 0.0 0.0 0.07706402 
0.0 0.0 0.0 0.0 0.0 0.07698792 
0.0 0.0 0.0 0.0 0.0 0.07698792 
0.0 0.0 0.0 0.0 0.0 0.07698792 
0.0 0.0 0.0 0.0 0.0 0.07698792 
0.0 0.0 0.0 0.0 0.0 0.07698792 
0.0 0.0 0.0 0.0 0.0 0.07698792 
0.0 0.0 0.0 0.0 0.0 0.07698792 
0.0 0.0 0.0 0.0 0.0 0.07698792 
0.0 0.0 0.0 0.0 0.0 0.07698792 
0.0 0.0 0.0 0.0 0.0 0.07698792 
0.0 0.0 0.0 0.0 0.0 0.07698792 
0.0 0.0 0.0 0.0 0.0 0.07698792 
0.0 0.0 0.0 0.0 0.0 0.07698792 
0.0 0.0 0.0 0.0 0.0 0.07698792 
0.0 0.0 0.0 0.0 0.0 0.07698792 
0.0 0.0 0.0 0.0 0.0 0.07698792 
0.0 0.0 0.0 0.0 0.0 0.07698792 
0.0 0.0 0.0 0.0 0.0 0.07698792 
0.0 0.0 0.0 0.0 0.0 0.07698792 
0.0 0.0 0.0 0.0 0.0 0.07698792 
0.0 0.0 0.0 0.0 0.0 0.07698792 
0.0 0.0 0.0 0.0 0.0 0.07698792 
0.0 0.0 0.0 0.0 0.0 0.07698792 
0.0 0.0 0.0 0.0 0.0 0.07698792 
0.0 0.0 0.0 0.0 0.0 0.07698792 
0.0 0.0 0.0 0.0 0.0 0.07698792 
0.0 0.0 0.0 0.0 0.0 0.07698792 
0.0 0.0 0.0 0.0 0.0 0.07698792 
0.0 0.0 0.0 0.0 0.0 0.07698792 
0.0 0.0 0.0 0.0 0.0 0.07698792 
0.0 0.0 0.0 0.0 0.0 0.07698792 
0.0 0.0 0.0 0.0 0.0 0.07698792 
0.0 0.0 0.0 0.0 0.0 0.07698792 
0.0 0.0 0.0 0.0 0.0 0.07698792 
0.0 0.0 0.0 0.0 0.0 0.07698792 

