0.0 0.0 0.0 0.0 0.0 0.07698792 
0.0 0.0 0.0 0.0 0.0 0.07698792 
0.0 0.0 0.0 0.0 0.0 0.07698792 
0.0 0.0 0.0 0.0 0.0 0.07698792 
0.0 0.0 0.0 0.0 0.0 0.07698792 
0.0 0.0 0.0 0.0 0.0 0.07698792 
0.0 0.0 0.0 0.0 0.0 0.07698792 
0.0 0.0 0.0 0.0 0.0 0.07698792 
0.0 0.0 0.0 0.0 0.0 0.07698792 
0.0 0.0 0.0 0.0 0.0 0.07698792 
0.0 0.0 0.0 0.0 0.0 0.07698792 
0.0 0.0 0.0 0.0 0.0 0.07698792 
0.0 0.0 0.0 0.0 0.0 0.07698792 
0.0 0.0 0.0 0.0 0.0 0.07698792 
0.0 0.0 0.0 0.0 0.0 0.07698792 
0.0 0.0 0.0 0.0 0.0 0.07698792 
0.0 0.0 0.0 0.0 0.0 0.07698792 
0.0 0.0 0.0 0.0 0.0 0.07698792 
0.0 0.0 0.0 0.0 0.0 0.07698792 
0.0 0.0 0.0 0.0 0.0 0.07698792 
0.0 0.0 0.0 0.0 0.0 0.07698792 
0.0 0.0 0.0 0.0 0.0 0.07698792 
0.0 0.0 0.0 0.0 0.0 0.07698792 
0.0 0.0 0.0 0.0 0.0 0.07698792 
0.0 0.0 0.0 0.0 0.0 0.07698792 
0.0 0.0 0.0 0.0 0.0 0.07698792 
0.0 0.0 0.0 0.0 0.0 0.07698792 
0.0 0.0 0.0 0.0 0.0 0.07698792 
0.0 0.0 0.0 0.0 0.0 0.07698792 
0.0 0.0 0.0 0.0 0.0 0.07698792 
0.0 0.0 0.0 0.0 0.0 0.07698792 
0.0 0.0 0.0 0.0 0.0 0.07698792 
0.0 0.0 0.0 0.0 0.0 0.07698792 
0.0 0.0 0.0 0.0 0.0 0.07698792 
0.0 0.0 0.0 0.0 0.0 0.07698792 
0.0 0.0 0.0 0.0 0.0 0.07698792 
0.0 0.0 0.0 0.0 0.0 0.07698792 
0.0 0.0 0.0 0.0 0.0 0.07698792 
0.0 0.0 0.0 0.0 0.0 0.07698792 
0.0 0.0 0.0 0.0 0.0 0.07698792 
0.0 0.0 0.0 0.0 0.0 0.07698792 
0.0 0.0 0.0 0.0 0.0 0.07698792 
0.0 0.0 0.0 0.0 0.0 0.07698792 
0.0 0.0 0.0 0.0 0.0 0.07698792 
0.0 0.0 0.0 0.0 0.0 0.07698792 
0.0 0.0 0.0 0.0 0.0 0.07698792 
0.0 0.0 0.0 0.0 0.0 0.07698792 
0.0 0.0 0.0 0.0 0.0 0.07698792 
0.0 0.0 0.0 0.0 0.0 0.07698792 
0.0 0.0 0.0 0.0 0.0 0.07698792 
0.0 0.0 0.0 0.0 0.0 0.07698792 
0.0 0.0 0.0 0.0 0.0 0.07698792 
0.0 0.0 0.0 0.0 0.0 0.07698792 
0.0 0.0 0.0 0.0 0.0 0.07698792 
0.0 0.0 0.0 0.0 0.0 0.07698792 
0.0 0.0 0.0 0.0 0.0 0.07698792 
0.0 0.0 0.0 0.0 0.0 0.07698792 
0.0 0.0 0.0 0.0 0.0 0.07698792 
0.0 0.0 0.0 0.0 0.0 0.07698792 
0.0 0.0 0.0 0.0 0.0 0.07698792 
0.0 0.0 0.0 0.0 0.0 0.07698792 
0.0 0.0 0.0 0.0 0.0 0.07698792 
0.0 0.0 0.0 0.0 0.0 0.07698792 
0.0 0.0 0.0 0.0 0.0 0.07698792 
0.0 0.0 0.0 0.0 0.0 0.07698792 
0.0 0.0 0.0 0.0 0.0 0.07698792 
0.0 0.0 0.0 0.0 0.0 0.07698792 
0.0 0.0 0.0 0.0 0.0 0.07698792 
0.0 0.0 0.0 0.0 0.0 0.07698792 
0.0 0.0 0.0 0.0 0.0 0.07698792 
0.0 0.0 0.0 0.0 0.0 0.07698792 
0.0 0.0 0.0 0.0 0.0 0.07698792 
0.0 0.0 0.0 0.0 0.0 0.07698792 
0.0 0.0 0.0 0.0 0.0 0.07698792 
0.0 0.0 0.0 0.0 0.0 0.07698792 
0.0 0.0 0.0 0.0 0.0 0.07698792 
0.0 0.0 0.0 0.0 0.0 0.07698792 
0.0 0.0 0.0 0.0 0.0 0.07698792 
0.0 0.0 0.0 0.0 0.0 0.07698792 
0.0 0.0 0.0 0.0 0.0 0.07698792 
0.0 0.0 0.0 0.0 0.0 0.07698792 
0.0 0.0 0.0 0.0 0.0 0.07698792 
0.0 0.0 0.0 0.0 0.0 0.07698792 
0.0 0.0 0.0 0.0 0.0 0.07698792 
0.0 0.0 0.0 0.0 0.0 0.07698792 
0.0 0.0 0.0 0.0 0.0 0.07698792 
0.0 0.0 0.0 0.0 0.0 0.07698792 
0.0 0.0 0.0 0.0 0.0 0.07698792 
0.0 0.0 0.0 0.0 0.0 0.07698792 
0.0 0.0 0.0 0.0 0.0 0.07698792 
0.0 0.0 0.0 0.0 0.0 0.07698792 
0.0 0.0 0.0 0.0 0.0 0.07698792 
0.0 0.0 0.0 0.0 0.0 0.07698792 
0.0 0.0 0.0 0.0 0.0 0.07698792 
0.0 0.0 0.0 0.0 0.0 0.07698792 
0.0 0.0 0.0 0.0 0.0 0.07698792 
0.0 0.0 0.0 0.0 0.0 0.07698792 
0.0 0.0 0.0 0.0 0.0 0.07698792 
0.0 0.0 0.0 0.0 0.0 0.07698792 
0.0 0.0 0.0 0.0 0.0 0.07698792 
0.0 0.0 0.0 0.0 0.0 0.07698792 
0.0 0.0 0.0 0.0 0.0 0.07698792 
0.0 0.0 0.0 0.0 0.0 0.07698792 
0.0 0.0 0.0 0.0 0.0 0.07698792 
0.0 0.0 0.0 0.0 0.0 0.07698792 
0.0 0.0 0.0 0.0 0.0 0.07698792 
0.0 0.0 0.0 0.0 0.0 0.07698792 
0.0 0.0 0.0 0.0 0.0 0.07698792 
0.0 0.0 0.0 0.0 0.0 0.07698792 
0.0 0.0 0.0 0.0 0.0 0.07698792 
0.0 0.0 0.0 0.0 0.0 0.07698792 
0.0 0.0 0.0 0.0 0.0 0.07698792 
0.0 0.0 0.0 0.0 0.0 0.07698792 
0.0 0.0 0.0 0.0 0.0 0.07698792 
0.0 0.0 0.0 0.0 0.0 0.07698792 
0.0 0.0 0.0 0.0 0.0 0.07698792 
0.0 0.0 0.0 0.0 0.0 0.07698792 
0.0 0.0 0.0 0.0 0.0 0.07698792 
0.0 0.0 0.0 0.0 0.0 0.07698792 
0.0 0.0 0.0 0.0 0.0 0.07698792 
0.0 0.0 0.0 0.0 0.0 0.07698792 
0.0 0.0 0.0 0.0 0.0 0.07698792 
0.0 0.0 0.0 0.0 0.0 0.07698792 
0.0 0.0 0.0 0.0 0.0 0.07698792 
0.0 0.0 0.0 0.0 0.0 0.07698792 
0.0 0.0 0.0 0.0 0.0 0.07698792 
0.0 0.0 0.0 0.0 0.0 0.07698792 
0.0 0.0 0.0 0.0 0.0 0.07698792 
0.0 0.0 0.0 0.0 0.0 0.07698792 
0.0 0.0 0.0 0.0 0.0 0.07698792 
0.0 0.0 0.0 0.0 0.0 0.07698792 
0.0 0.0 0.0 0.0 0.0 0.07698792 
0.0 0.0 0.0 0.0 0.0 0.07698792 
0.0 0.0 0.0 0.0 0.0 0.07698792 
0.0 0.0 0.0 0.0 0.0 0.07698792 
0.0 0.0 0.0 0.0 0.0 0.07698792 
0.0 0.0 0.0 0.0 0.0 0.07698792 
0.0 0.0 0.0 0.0 0.0 0.07698792 
0.0 0.0 0.0 0.0 0.0 0.07698792 
0.0 0.0 0.0 0.0 0.0 0.07698792 
0.0 0.0 0.0 0.0 0.0 0.07698792 
0.0 0.0 0.0 0.0 0.0 0.07698792 
0.0 0.0 0.0 0.0 0.0 0.07698792 
0.0 0.0 0.0 0.0 0.0 0.07698792 
0.0 0.0 0.0 0.0 0.0 0.07698792 
0.0 0.0 0.0 0.0 0.0 0.07698792 
0.0 0.0 0.019622743 0.0 0.0 0.04078577 
0.12353343 0.015043723 0.098687045 0.0 0.0 0.0 
0.24178135 0.07912626 0.24610984 0.0 0.0 0.0 
0.36149663 0.2729804 0.3673724 0.0 0.0 0.0 
0.34823674 0.43779382 0.46304256 0.0 0.0 0.0 
0.35292876 0.5600143 0.53525186 0.0 0.0 0.0 
0.33703166 0.61829966 0.55628 0.0 0.0 0.0 
0.3017398 0.63809395 0.5104795 0.0 0.0 0.0 
0.12249671 0.6551465 0.34107098 0.0 0.0 0.0 
0.0 0.4908557 0.2344068 0.0 0.06252548 0.0 
0.0 0.31741834 0.11293716 0.0 0.08524752 0.0 
0.0 0.113796525 0.0 0.0 0.049156595 0.0 
0.0 0.0 0.0 0.0 0.0 0.07021375 
0.0 0.0 0.0 0.0 0.0 0.07698792 
0.0 0.0 0.0 0.0 0.0 0.07698792 
0.0 0.0 0.0 0.0 0.0 0.07698792 
0.0 0.0 0.0 0.0 0.0 0.07698792 
0.0 0.0 0.0 0.0 0.0 0.07698792 
0.0 0.0 0.0 0.0 0.0 0.07698792 
0.0 0.0 0.0 0.0 0.0 0.07698792 
0.0 0.0 0.0 0.0 0.0 0.07698792 
0.0 0.0 0.0 0.0 0.0 0.07698792 
0.0 0.0 0.0 0.0 0.0 0.07698792 
0.0 0.0 0.0 0.0 0.0 0.07698792 
0.0 0.0 0.0 0.0 0.0 0.07698792 
0.0 0.0 0.0 0.0 0.0 0.07698792 
0.0 0.0 0.0 0.0 0.0 0.061903693 
0.06568879 0.0 0.07772886 0.0 0.0 0.0 
0.3025301 0.0 0.17580146 0.0 0.0 0.0 
0.55799526 0.08983657 0.3102389 0.0 0.0 0.0 
0.7162602 0.30517027 0.3590588 0.0 0.0 0.0 
0.69373304 0.60075074 0.5761038 0.0 0.0 0.0 
0.54768693 0.780751 0.692177 0.0 0.021695565 0.0 
0.41344294 0.85231847 0.8580487 0.0 0.13982262 0.0 
0.37186652 0.8018659 0.9456258 0.0 0.19001496 0.0 
0.39377123 0.8977367 1.0105689 0.0 0.1901665 0.0 
0.17559619 1.148196 1.0740616 0.0 0.39170173 0.0 
0.0 1.2358034 0.86793387 0.0 0.56848454 0.0 
0.0 0.8219348 0.656425 0.0 0.576364 0.0 
0.0 0.32853103 0.23983657 0.0 0.37968448 0.0 
0.0 0.11407354 0.0 0.0 0.06553537 0.0 
0.0 0.0012756363 0.0 0.0 0.0 0.06812939 
0.0 0.0 0.0 0.0 0.0 0.07698792 
0.0 0.0 0.0 0.0 0.0 0.07698792 
0.0 0.0 0.0 0.0 0.0 0.07698792 
0.0 0.0 0.0 0.0 0.0 0.07698792 
0.0 0.0 0.0 0.0 0.0 0.07698792 
0.0 0.0 0.0 0.0 0.0 0.07698792 
0.0 0.0 0.0 0.0 0.0 0.07698792 
0.0 0.0 0.0 0.0 0.0 0.07698792 
0.0 0.0 0.0 0.0 0.0 0.07698792 
0.0 0.0 0.0 0.0 0.0 0.07698792 
0.0 0.0 0.0 0.0 0.0 0.07698792 
0.0 0.0 0.0 0.0 0.0 0.07698792 
0.013506591 0.0 0.00032365322 0.0 0.0 0.051579706 
0.32998335 0.0 0.1336984 0.0 0.0 0.0 
0.8210191 0.0 0.17873809 0.0 0.0 0.0 
1.0563104 0.11804265 0.27749795 0.0 0.0 0.0 
0.86317086 0.500252 0.37741885 0.0 0.26528946 0.0 
0.33124536 0.7220556 0.6068687 0.09265632 0.9437488 0.0 
0.0 0.65236145 0.75994843 0.64338046 1.3148855 0.0 
0.0 0.40773466 0.77447987 1.0705926 1.2825701 0.19944428 
0.19275784 0.3221049 0.840469 1.3484205 1.0633981 0.32299924 
0.35337135 0.43236074 0.98091066 1.3082193 0.95369714 0.19055884 
0.24360758 0.9387763 1.3992754 1.0325099 0.85895044 0.0 
0.0 1.434388 1.5451458 0.5418446 1.0130206 0.0 
0.0 1.34147 1.3958913 0.0 0.93234545 0.0 
0.0 0.8216505 0.94242465 0.0 0.6048641 0.0 
0.0 0.19478442 0.34063292 0.0 0.23455136 0.0 
0.17388646 0.14960632 0.16841999 0.0 0.0 0.0 
0.06735174 0.26443076 0.118210904 0.0 0.0 0.0 
0.0 0.27649495 0.124735184 0.0 0.0 0.0 
0.0 0.21251109 0.0554339 0.0 0.046309996 0.0 
0.0 0.06580428 0.0 0.0 0.013385784 0.008204021 
0.0 0.0 0.0 0.0 0.0 0.07698792 
0.0 0.0 0.0 0.0 0.0 0.07698792 
0.0 0.0 0.0 0.0 0.0 0.07698792 
0.0 0.0 0.0 0.0 0.0 0.07698792 
0.0 0.0 0.0 0.0 0.0 0.07698792 
0.0 0.0 0.0 0.0 0.0 0.07698792 
0.0 0.0 0.0 0.0 0.0 0.07698792 
0.0 0.0 0.0 0.0 0.0 0.07698792 
0.11791062 0.0 0.0 0.0 0.0 0.09163847 
0.69486713 0.0 0.010101877 0.0 0.0 0.07326182 
1.2289882 0.0 0.0 0.08170888 0.0 0.03700493 
1.1210408 0.31929898 0.0 0.38157952 0.489247 0.0 
0.45755 1.149007 0.29402605 0.80117667 1.3934525 0.11762753 
0.0 1.3641902 0.41425547 1.0501161 1.9498619 0.6454923 
0.0 1.1748003 0.45074725 1.322239 1.7363378 1.1109059 
0.0 0.79304826 0.16704407 1.3661802 1.3595353 1.396271 
0.28452113 0.66099894 0.03282786 1.5143821 1.1107298 1.5511048 
0.421244 0.5483718 0.054157764 1.5512111 1.0237328 1.4643643 
0.3945246 0.65402055 0.47473216 1.4741999 0.8306675 1.0130317 
0.0 1.2064346 1.2906246 1.335267 0.89999974 0.28436154 
0.0 1.4499202 1.6949245 0.937709 0.91720885 0.0 
0.0 1.1124257 1.6743854 0.32482144 0.5949669 0.0 
0.006745219 0.27441323 0.76726407 0.0 0.1052427 0.0 
0.62714005 0.20015198 0.4120841 0.0 0.0 0.0 
0.410678 0.78082496 0.4542951 0.0 0.0 0.0 
0.0 0.9123474 0.5514566 0.0 0.3395003 0.0 
0.0 0.54683423 0.41443205 0.0 0.4473562 0.0 
0.0 0.113298625 0.057960145 0.0 0.2566654 0.0 
0.0 0.0 0.0 0.0 0.0 0.07698792 
0.0 0.0 0.0 0.0 0.0 0.07698792 
0.0 0.0 0.0 0.0 0.0 0.07698792 
0.0 0.0 0.0 0.0 0.0 0.07698792 
0.0 0.0 0.0 0.0 0.0 0.07698792 
0.0 0.0 0.0 0.0 0.0 0.07698792 
0.0 0.0 0.0 0.0 0.0 0.07698792 
0.0 0.0 0.0 0.0 0.0 0.07698792 
0.27850693 0.0 0.0 0.0 0.0 0.18386775 
1.129822 0.0 0.0 0.11735533 0.0 0.3751743 
1.5187328 0.0 0.0 0.2895075 0.44425288 0.42135057 
0.9384218 0.9075921 0.0 0.49837014 1.427668 0.39071923 
0.0 1.4314315 0.0 0.42738405 2.224589 0.57934105 
0.0 1.0569555 0.0 0.2529058 2.2992985 1.0242946 
0.0 0.45858476 0.0 0.060178068 1.6754628 1.2800059 
0.1827716 0.026348826 0.0 0.0 1.3931321 1.3350298 
0.3795439 0.0 0.0 0.0 1.4094398 1.4694736 
0.5595496 0.0 0.0 0.0 1.3444666 1.6599276 
0.62104183 0.0 0.0 0.07654023 1.1232563 1.6934998 
0.05295475 0.30538833 0.0 0.38120654 1.0959764 1.0301371 
0.0 0.74278396 0.88879716 0.6419047 0.874191 0.3845291 
0.0 0.55354506 1.5927944 0.41079488 0.37958595 0.11996872 
0.5480625 0.1875301 1.0660807 0.0 0.0 0.0 
1.0419164 0.35263526 0.36975682 0.0 0.0 0.0 
0.24588338 1.1917403 0.80237263 0.0 0.6301655 0.0 
0.0 1.3361386 1.089683 0.0 1.0780505 0.0 
0.0 0.8839999 1.0061287 0.0 0.84944254 0.0 
0.0 0.16790628 0.2986752 0.0 0.3951197 0.0 
0.0 0.0 0.0 0.0 0.0 0.07698792 
0.0 0.0 0.0 0.0 0.0 0.07698792 
0.0 0.0 0.0 0.0 0.0 0.07698792 
0.0 0.0 0.0 0.0 0.0 0.07698792 
0.0 0.0 0.0 0.0 0.0 0.07698792 
0.0 0.0 0.0 0.0 0.0 0.07698792 
0.0 0.0 0.0 0.0 0.0 0.07698792 
0.0 0.0 0.0 0.0 0.0 0.07698792 
0.38618994 0.0 0.0 0.06499861 0.0 0.3649157 
1.4319143 0.0 0.0 0.19855393 0.082818955 0.82353026 
1.6695793 0.17043363 0.0 0.18151233 1.0060426 0.6924626 
0.6298937 1.12793 0.0 0.022414334 1.787106 0.46404165 
0.0 1.2974254 0.0 0.0 2.02154 0.42763847 
0.0 0.595059 0.19572377 0.0 1.6436894 0.46022394 
0.0 0.0 0.0 0.0 0.9283916 0.5414747 
0.0 0.0 0.0 0.0 0.7295012 0.47774184 
0.20364824 0.0 0.0 0.0 0.7817888 0.51642865 
0.48596233 0.0 0.0 0.0 0.9062356 0.8036024 
0.7277045 0.0 0.0 0.0 1.1131564 1.1808381 
0.23751098 0.0 0.0 0.0 1.0251907 0.88919586 
0.0 0.0 0.0 0.0 0.4605547 0.45848146 
0.6173629 0.0 0.74330187 0.0 0.10405213 0.37929326 
1.142065 0.21711051 0.7234295 0.14121532 0.15230112 0.0 
0.9791445 0.9281906 0.124092974 0.21371257 0.8460706 0.0 
0.0 1.6514297 0.7320835 0.346679 1.5436554 0.0 
0.0 1.5542878 1.4522762 0.5803171 1.4414965 0.0 
0.0 0.8883767 1.4059379 0.45193166 0.89770824 0.124213174 
0.0 0.30916592 0.58983654 0.23595384 0.22861435 0.06495863 
0.0 0.0 0.0 0.0 0.0 0.07698792 
0.0 0.0 0.0 0.0 0.0 0.07698792 
0.0 0.0 0.0 0.0 0.0 0.07698792 
0.0 0.0 0.0 0.0 0.0 0.07698792 
0.0 0.0 0.0 0.0 0.0 0.07698792 
0.0 0.0 0.0 0.0 0.0 0.07698792 
0.0 0.0 0.0 0.0 0.0 0.07698792 
0.0 0.0 0.0 0.0 0.0 0.07698792 
0.4361031 0.0 0.0 0.10221293 0.07677062 0.5044383 
1.367754 0.0 0.0 0.22470067 0.48276243 1.1100049 
1.4195518 0.0 0.0 0.13475132 1.0698694 0.76929986 
0.5323293 0.8832533 0.0 0.0 1.3656937 0.18308206 
0.0 1.2322751 0.68343437 0.0 1.3099436 0.0 
0.0 0.6744431 1.0724678 0.0 1.0404948 0.0 
0.0 0.14289445 0.4126426 0.0 0.4444286 0.0 
0.0 0.0 0.14302674 0.0 0.060486544 0.0 
0.01225172 0.062015943 0.0 0.0 0.0 0.0 
0.23188648 0.0 0.0 0.0 0.17535858 0.14095888 
0.61633706 0.0 0.0 0.0 0.5225622 0.4260176 
0.57864374 0.004133112 0.0 0.0 0.26318035 0.21801785 
0.76955074 0.0 0.0 0.0 0.0 0.04197445 
1.2881136 0.0 0.0 0.0 0.25943246 0.14416742 
1.2451203 0.38187915 0.0 0.0038119676 1.2626655 0.22455381 
0.51539385 1.3074858 0.0 0.40308735 2.0642765 0.38960797 
0.0 1.6126986 0.16990146 0.4748473 2.105765 0.40993464 
0.0 1.1379718 1.0845112 0.53510755 1.3977008 0.48160207 
0.0 0.42088714 1.1535242 0.34306228 0.6824166 0.39279592 
0.0 0.15854552 0.5699278 0.19267854 0.09555438 0.13980095 
0.0 0.0 0.0 0.0 0.0 0.07698792 
0.0 0.0 0.0 0.0 0.0 0.07698792 
0.0 0.0 0.0 0.0 0.0 0.07698792 
0.0 0.0 0.0 0.0 0.0 0.07698792 
0.0 0.0 0.0 0.0 0.0 0.07698792 
0.0 0.0 0.0 0.0 0.0 0.07698792 
0.0 0.0 0.0 0.0 0.0 0.07698792 
0.0 0.0 0.0 0.0 0.0 0.07698792 
0.3623299 0.0 0.0 0.07884466 0.19710685 0.4882556 
1.1024199 0.0 0.0 0.16258396 0.737338 1.2258985 
0.96220106 0.0 0.0 0.23926365 0.76214224 1.0343664 
0.43081808 0.3684721 0.0 0.32857162 0.76823175 0.4490129 
0.0 0.93364215 1.1550195 0.25331783 0.78383976 0.091157585 
0.0 1.050784 1.8671699 0.0 0.51261085 0.0 
0.0 0.6278798 1.0182713 0.0 0.21702416 0.0 
0.29919434 0.57993585 0.6379753 0.0 0.0 0.0 
0.32633632 0.700123 0.59757453 0.0 0.0 0.0 
0.39384317 0.56579894 0.50957245 0.0 0.039031718 0.0 
0.62877303 0.4292906 0.20615184 0.0 0.05996785 0.0 
0.8499233 0.21117103 0.0 0.0 0.0 0.0 
1.3549576 0.12621006 0.0 0.0 0.07514544 0.0 
1.3735082 0.5319567 0.0 0.0 1.203049 0.0 
0.657924 1.0324545 0.0 0.018669572 2.2639866 0.34558076 
0.0 1.3594217 0.0 0.18226153 2.532528 0.60359675 
0.0 1.0956507 0.12520918 0.26183537 1.894589 0.6944534 
0.0 0.41541165 0.6512988 0.14910667 0.93883723 0.6112277 
0.0 0.12464951 0.6495212 0.07863038 0.35582387 0.35921407 
0.0 0.0 0.24464941 0.0 0.0643059 0.11867642 
0.0 0.0 0.0 0.0 0.0 0.07698792 
0.0 0.0 0.0 0.0 0.0 0.07698792 
0.0 0.0 0.0 0.0 0.0 0.07698792 
0.0 0.0 0.0 0.0 0.0 0.07698792 
0.0 0.0 0.0 0.0 0.0 0.07698792 
0.0 0.0 0.0 0.0 0.0 0.07698792 
0.0 0.0 0.0 0.0 0.0 0.07698792 
0.0 0.0 0.0 0.0 0.0 0.07698792 
0.22951692 0.0 0.0 0.0 0.25246546 0.33571222 
0.77030987 0.0 0.0 0.0 0.72619605 0.9171223 
0.783779 0.0 0.0 0.038794644 0.7938072 1.1469693 
0.32596424 0.0 0.0 0.24705333 0.6797303 0.83650076 
0.096895486 0.092019014 0.2653306 0.5446838 0.6086485 0.53443015 
0.12572902 0.4689708 1.4939737 0.61322415 0.32535258 0.13686839 
0.48580348 0.70814586 1.2870098 0.11067472 0.1253928 0.0 
0.5933815 0.8135807 1.0216111 0.0 0.067516804 0.0 
0.4382437 1.0256997 1.1400869 0.0 0.2743201 0.0 
0.38468802 1.0426283 1.1327293 0.0 0.37267622 0.0 
0.5608831 0.82510036 1.0298055 0.0 0.36186644 0.0 
0.89194804 0.6536121 0.7172191 0.0 0.5301799 0.0 
1.1151383 0.7415144 0.17402783 0.0 1.3033589 0.0 
0.6174117 1.1645116 0.0 0.074111804 2.31565 0.1921056 
0.0 1.4554603 0.0 0.1889998 2.6027553 0.53982246 
0.0 1.1521019 0.0 0.08261989 2.1062698 0.8225847 
0.0 0.4691464 0.3670142 0.0006659245 1.147937 0.6442512 
0.0 0.029879127 0.42157888 0.0 0.43184343 0.43016738 
0.0 0.0 0.2948607 0.0 0.14543341 0.19433774 
0.0 0.0 0.0 0.0 0.0 0.08429349 
0.0 0.0 0.0 0.0 0.0 0.07698792 
0.0 0.0 0.0 0.0 0.0 0.07698792 
0.0 0.0 0.0 0.0 0.0 0.07698792 
0.0 0.0 0.0 0.0 0.0 0.07698792 
0.0 0.0 0.0 0.0 0.0 0.07698792 
0.0 0.0 0.0 0.0 0.0 0.07698792 
0.0 0.0 0.0 0.0 0.0 0.07698792 
0.0 0.0 0.0 0.0 0.0 0.07698792 
0.044087797 0.0 0.0 0.0 0.08494073 0.1699636 
0.37005353 0.0 0.0 0.0 0.46567693 0.47440305 
0.62153465 0.0 0.0 0.0 0.6328874 0.8946448 
0.4257389 0.0 0.0 0.0 0.67859066 0.99340475 
0.22378618 0.0 0.0 0.26657003 0.61545485 0.9619653 
0.34128675 0.0 0.098075874 0.81980264 0.5604436 0.9384063 
0.49348032 0.04705856 0.57089937 1.3263888 0.66812086 0.7056807 
0.5816744 0.37089282 0.60620886 1.4380653 0.8587258 0.518566 
0.41657096 0.6919745 1.067926 1.3590118 1.0222358 0.25822616 
0.45622277 0.7704951 1.334931 1.1171912 1.065423 0.0 
0.7189061 0.93332666 1.3437037 0.89729816 1.0511738 0.0 
0.89836043 1.1510643 0.99689543 0.64119655 1.4946543 0.0 
0.68275225 1.5209448 0.3993234 0.4255915 2.3495855 0.13634191 
0.0 1.7582904 0.09323088 0.24181308 2.663387 0.28998566 
0.0 1.3549161 0.2021851 0.080749825 2.260807 0.46189913 
0.0 0.6126226 0.38523227 0.0 1.3787125 0.59938896 
0.0 0.07604731 0.4467972 0.0 0.53187037 0.40104645 
0.0 0.0 0.16821674 0.0 0.19395088 0.21965773 
0.0 0.0 0.041920885 0.0 0.020429086 0.089696564 
0.0 0.0 0.0 0.0 0.0 0.07698792 
0.0 0.0 0.0 0.0 0.0 0.07698792 
0.0 0.0 0.0 0.0 0.0 0.07698792 
0.0 0.0 0.0 0.0 0.0 0.07698792 
0.0 0.0 0.0 0.0 0.0 0.07698792 
0.0 0.0 0.0 0.0 0.0 0.07698792 
0.0 0.0 0.0 0.0 0.0 0.07698792 
0.0 0.0 0.0 0.0 0.0 0.07698792 
0.0 0.0 0.0 0.0 0.0 0.07698792 
0.0 0.0 0.0 0.0 0.0 0.0955542 
0.062157184 0.0 0.0 0.0 0.14527667 0.16972815 
0.34403577 0.0 0.0 0.0 0.46216562 0.42756116 
0.4090031 0.0 0.0 0.0 0.5614814 0.6554608 
0.3863562 0.0 0.0 0.0 0.6088535 0.93253934 
0.5772802 0.0 0.0 0.20589402 0.85829955 1.3815932 
0.47515988 0.0 0.0 0.7682638 1.1011248 1.466249 
0.4593318 0.26928502 0.0 1.2805679 1.2550467 1.5443823 
0.5197432 0.43611178 0.0 1.5483615 1.1778146 1.5508108 
0.9244663 0.61403245 0.4530642 1.5774103 1.0488838 1.309716 
1.2905178 0.8662749 0.563158 1.2608654 1.3195404 1.0373602 
1.0740724 1.4892834 0.4473757 0.92819536 1.9473771 0.6885755 
0.1746901 1.9245442 0.33988246 0.4067469 2.6489222 0.4498049 
0.0 1.8210677 0.39796528 0.09359764 2.4711807 0.3935004 
0.0 1.0375077 0.72179914 0.0 1.634231 0.4932286 
0.0 0.20604475 0.6789744 0.0 0.77257144 0.41171044 
0.0 0.0 0.3909352 0.0 0.17970431 0.22773445 
0.0 0.0 0.048858516 0.0 0.0 0.0913482 
0.0 0.0 0.0 0.0 0.0 0.07698792 
0.0 0.0 0.0 0.0 0.0 0.07698792 
0.0 0.0 0.0 0.0 0.0 0.07698792 
0.0 0.0 0.0 0.0 0.0 0.07698792 
0.0 0.0 0.0 0.0 0.0 0.07698792 
0.0 0.0 0.0 0.0 0.0 0.07698792 
0.0 0.0 0.0 0.0 0.0 0.07698792 
0.0 0.0 0.0 0.0 0.0 0.07698792 
0.0 0.0 0.0 0.0 0.0 0.07698792 
0.0 0.0 0.0 0.0 0.0 0.07698792 
0.0 0.0 0.0 0.0 0.0 0.07698792 
0.0 0.0 0.0 0.0 0.0 0.07698792 
0.02853667 0.0 0.0 0.0 0.09660973 0.14444542 
0.15916619 0.0 0.0 0.0 0.25917622 0.25355944 
0.36269572 0.0 0.0 0.0 0.52287906 0.4895336 
0.6080796 0.0 0.0 0.0 0.8891701 0.9253463 
0.6007694 0.0 0.0 0.0 1.2033969 1.2452309 
0.60951596 0.0 0.0 0.0 1.3469008 1.5052681 
0.92340124 0.0 0.0 0.0 1.1544608 1.6892698 
1.4416754 0.0 0.0 0.0 1.1824309 1.5787694 
1.6048734 0.04910856 0.0 0.0 1.583938 1.2204461 
0.9118578 1.0643483 0.0 0.09629297 2.3222988 0.786856 
0.0 1.6759638 0.20787674 0.0 2.776696 0.3888821 
0.0 1.319569 0.85170776 0.01545634 2.1285403 0.3047076 
0.0 0.45781645 0.9166474 0.0 1.2552649 0.40524822 
0.0 0.064930186 0.55047005 0.0 0.3900774 0.2595036 
0.0 0.0 0.07620438 0.0 0.052775178 0.11152585 
0.0 0.0 0.0 0.0 0.0 0.07881431 
0.0 0.0 0.0 0.0 0.0 0.07698792 
0.0 0.0 0.0 0.0 0.0 0.07698792 
0.0 0.0 0.0 0.0 0.0 0.07698792 
0.0 0.0 0.0 0.0 0.0 0.07698792 
0.0 0.0 0.0 0.0 0.0 0.07698792 
0.0 0.0 0.0 0.0 0.0 0.07698792 
0.0 0.0 0.0 0.0 0.0 0.07698792 
0.0 0.0 0.0 0.0 0.0 0.07698792 
0.0 0.0 0.0 0.0 0.0 0.07698792 
0.0 0.0 0.0 0.0 0.0 0.07698792 
0.0 0.0 0.0 0.0 0.0 0.07698792 
0.0 0.0 0.0 0.0 0.0 0.07698792 
0.0 0.0 0.0 0.0 0.0 0.07698792 
0.0 0.0 0.0 0.0 0.0 0.09122207 
0.061730742 0.0 0.0 0.0 0.14534824 0.16880047 
0.2361775 0.0 0.0 0.0 0.41987303 0.29957035 
0.30790204 0.0 0.0 0.0 0.60427564 0.39605412 
0.4502592 0.0 0.0 0.0 0.6460491 0.50595534 
1.1607885 0.0 0.0 0.0 0.6157226 0.86738425 
1.8459008 0.0 0.0 0.0 0.9078395 1.0124719 
1.7276068 0.0 0.0 0.0 1.6556545 0.7898377 
0.4430927 1.1672261 0.0 0.0 2.4448864 0.5413998 
0.0 1.5844654 0.40715277 0.0 2.4521286 0.3002013 
0.0 1.0135034 1.1458263 0.065907836 1.6081856 0.42187977 
0.0 0.29768947 0.99414885 0.1079896 0.7221173 0.35024512 
0.0 0.0025540171 0.41065046 0.053913537 0.106434986 0.14682582 
0.0 0.0 0.0 0.0 0.0 0.07866211 
0.0 0.0 0.0 0.0 0.0 0.07698792 
0.0 0.0 0.0 0.0 0.0 0.07698792 
0.0 0.0 0.0 0.0 0.0 0.07698792 
0.0 0.0 0.0 0.0 0.0 0.07698792 
0.0 0.0 0.0 0.0 0.0 0.07698792 
0.0 0.0 0.0 0.0 0.0 0.07698792 
0.0 0.0 0.0 0.0 0.0 0.07698792 
0.0 0.0 0.0 0.0 0.0 0.07698792 
0.0 0.0 0.0 0.0 0.0 0.07698792 
0.0 0.0 0.0 0.0 0.0 0.07698792 
0.0 0.0 0.0 0.0 0.0 0.07698792 
0.0 0.0 0.0 0.0 0.0 0.07698792 
0.0 0.0 0.0 0.0 0.0 0.07698792 
0.0 0.0 0.0 0.0 0.0 0.07698792 
0.0 0.0 0.0 0.0 0.0 0.07698792 
0.0 0.0 0.0 0.0 0.0 0.07698792 
0.0 0.0 0.0 0.0 0.0 0.07698792 
0.0 0.0 0.0 0.0 0.0 0.07679479 
0.29419565 0.0 0.0 0.0 0.0 0.10697451 
1.3615758 0.0 0.0 0.0 0.0 0.42373827 
2.082734 0.0 0.0 0.0 0.5925657 0.5699359 
1.586174 0.743111 0.0 0.0 1.6782653 0.3053371 
0.0 1.574098 0.0 0.0 2.451669 0.1827977 
0.0 1.495443 0.7504622 0.0 2.0573914 0.15203431 
0.0 0.5802374 1.0411912 0.0 1.2758117 0.35254645 
0.0 0.13680583 0.70319855 0.056965686 0.3845401 0.25864756 
0.0 0.0 0.11645242 0.0 0.03059211 0.09995684 
0.0 0.0 0.0 0.0 0.0 0.07698792 
0.0 0.0 0.0 0.0 0.0 0.07698792 
0.0 0.0 0.0 0.0 0.0 0.07698792 
0.0 0.0 0.0 0.0 0.0 0.07698792 
0.0 0.0 0.0 0.0 0.0 0.07698792 
0.0 0.0 0.0 0.0 0.0 0.07698792 
0.0 0.0 0.0 0.0 0.0 0.07698792 
0.0 0.0 0.0 0.0 0.0 0.07698792 
0.0 0.0 0.0 0.0 0.0 0.07698792 
0.0 0.0 0.0 0.0 0.0 0.07698792 
0.0 0.0 0.0 0.0 0.0 0.07698792 
0.0 0.0 0.0 0.0 0.0 0.07698792 
0.0 0.0 0.0 0.0 0.0 0.07698792 
0.0 0.0 0.0 0.0 0.0 0.07698792 
0.0 0.0 0.0 0.0 0.0 0.07698792 
0.0 0.0 0.0 0.0 0.0 0.07698792 
0.0 0.0 0.0 0.0 0.0 0.07698792 
0.0 0.0 0.0 0.0 0.0 0.07698792 
0.0 0.0 0.0 0.0 0.0 0.07472036 
0.46862167 0.0 0.0 0.0 0.0 0.23191166 
1.6352496 0.0 0.0 0.054320168 0.0 0.5684613 
2.1355884 0.0 0.0 0.0047880905 0.82776135 0.6082832 
1.1492369 1.277665 0.0 0.0 1.8207759 0.12970269 
0.0 1.8314034 0.020343252 0.0 2.2896998 0.0 
0.0 1.3698951 1.2359737 0.0 1.6961182 0.08025956 
0.0 0.4263611 1.0415927 0.0 1.0086615 0.20819876 
0.0 0.0 0.42685083 0.0 0.18416832 0.14122783 
0.0 0.0 0.0 0.0 0.0 0.080467604 
0.0 0.0 0.0 0.0 0.0 0.07698792 
0.0 0.0 0.0 0.0 0.0 0.07698792 
0.0 0.0 0.0 0.0 0.0 0.07698792 
0.0 0.0 0.0 0.0 0.0 0.07698792 
0.0 0.0 0.0 0.0 0.0 0.07698792 
0.0 0.0 0.0 0.0 0.0 0.07698792 
0.0 0.0 0.0 0.0 0.0 0.07698792 
0.0 0.0 0.0 0.0 0.0 0.07698792 
0.0 0.0 0.0 0.0 0.0 0.07698792 
0.0 0.0 0.0 0.0 0.0 0.07698792 
0.0 0.0 0.0 0.0 0.0 0.07698792 
0.0 0.0 0.0 0.0 0.0 0.07698792 
0.0 0.0 0.0 0.0 0.0 0.07698792 
0.0 0.0 0.0 0.0 0.0 0.07698792 
0.0 0.0 0.0 0.0 0.0 0.07698792 
0.0 0.0 0.0 0.0 0.0 0.07698792 
0.0 0.0 0.0 0.0 0.0 0.07698792 
0.0 0.0 0.0 0.0 0.0 0.07698792 
0.0 0.0 0.0 0.0 0.0 0.08781229 
0.72933865 0.0 0.0 0.06870575 0.0 0.4701641 
1.8854918 0.0 0.0 0.105251595 0.27135095 0.7912476 
2.0420961 0.044892963 0.0 0.14341424 1.178356 0.68542796 
0.69407374 1.4349414 0.0 0.060037147 1.9329875 0.15357494 
0.0 1.8169787 0.66265506 0.0 2.1768494 0.0 
0.0 1.1108129 1.53197 0.0 1.547001 0.12987939 
0.0 0.33954778 1.0382938 0.0 0.80361557 0.12536785 
0.0 0.0 0.15862587 0.0 0.0686083 0.092406705 
0.0 0.0 0.0 0.0 0.0 0.07714012 
0.0 0.0 0.0 0.0 0.0 0.07698792 
0.0 0.0 0.0 0.0 0.0 0.07698792 
0.0 0.0 0.0 0.0 0.0 0.07698792 
0.0 0.0 0.0 0.0 0.0 0.07698792 
0.0 0.0 0.0 0.0 0.0 0.07698792 
0.0 0.0 0.0 0.0 0.0 0.07698792 
0.0 0.0 0.0 0.0 0.0 0.07698792 
0.0 0.0 0.0 0.0 0.0 0.07698792 
0.0 0.0 0.0 0.0 0.0 0.07698792 
0.0 0.0 0.0 0.0 0.0 0.07698792 
0.0 0.0 0.0 0.0 0.0 0.07698792 
0.0 0.0 0.0 0.0 0.0 0.07698792 
0.0 0.0 0.0 0.0 0.0 0.07698792 
0.0 0.0 0.0 0.0 0.0 0.07698792 
0.0 0.0 0.0 0.0 0.0 0.07698792 
0.0 0.0 0.0 0.0 0.0 0.07698792 
0.0 0.0 0.0 0.0 0.0 0.07698792 
0.0 0.0 0.0 0.0 0.0 0.07698792 
0.0 0.0 0.0 0.0 0.0 0.09591192 
0.9505827 0.0 0.0 0.08031313 0.0 0.6484383 
2.02066 0.0 0.0 0.07555179 0.47090438 0.974743 
1.84429 0.2612789 0.0 0.1314092 1.4029559 0.7192971 
0.30663747 1.5800946 0.0 0.16593984 1.9134917 0.26161397 
0.0 1.7336513 1.1204058 0.12368733 2.0308754 0.0 
0.0 0.9155199 1.5646659 0.10792204 1.3671179 0.27075517 
0.0 0.25930566 0.9978596 0.14306654 0.51957023 0.122880794 
0.0 0.0014987206 0.041894056 0.015965994 0.0 0.085657366 
0.0 0.0 0.0 0.0 0.0 0.07698792 
0.0 0.0 0.0 0.0 0.0 0.07698792 
0.0 0.0 0.0 0.0 0.0 0.07698792 
0.0 0.0 0.0 0.0 0.0 0.07698792 
0.0 0.0 0.0 0.0 0.0 0.07698792 
0.0 0.0 0.0 0.0 0.0 0.07698792 
0.0 0.0 0.0 0.0 0.0 0.07698792 
0.0 0.0 0.0 0.0 0.0 0.07698792 
0.0 0.0 0.0 0.0 0.0 0.07698792 
0.0 0.0 0.0 0.0 0.0 0.07698792 
0.0 0.0 0.0 0.0 0.0 0.07698792 
0.0 0.0 0.0 0.0 0.0 0.07698792 
0.0 0.0 0.0 0.0 0.0 0.07698792 
0.0 0.0 0.0 0.0 0.0 0.07698792 
0.0 0.0 0.0 0.0 0.0 0.07698792 
0.0 0.0 0.0 0.0 0.0 0.07698792 
0.0 0.0 0.0 0.0 0.0 0.07698792 
0.0 0.0 0.0 0.0 0.0 0.07698792 
0.0 0.0 0.0 0.0 0.0 0.07698792 
0.08415276 0.0 0.01499892 0.0 0.0 0.06907064 
1.2128689 0.0 0.0 0.0 0.01777703 0.61823475 
2.115539 0.0 0.0 0.0 0.5994476 0.9038973 
1.619636 0.5350073 0.0 0.0 1.5598319 0.45349675 
0.0 1.6385682 0.0 0.0 2.0132537 0.20104474 
0.0 1.4996444 1.2407564 0.0 1.8975309 0.056353897 
0.0 0.6363064 1.2996902 0.0 1.1757174 0.30499846 
0.0 0.12410183 0.74070513 0.12699227 0.28515387 0.15067002 
0.0 0.0 0.0 0.0 0.0 0.083828546 
0.0 0.0 0.0 0.0 0.0 0.07698792 
0.0 0.0 0.0 0.0 0.0 0.07698792 
0.0 0.0 0.0 0.0 0.0 0.07698792 
0.0 0.0 0.0 0.0 0.0 0.07698792 
0.0 0.0 0.0 0.0 0.0 0.07698792 
0.0 0.0 0.0 0.0 0.0 0.07698792 
0.0 0.0 0.0 0.0 0.0 0.07698792 
0.0 0.0 0.0 0.0 0.0 0.07698792 
0.0 0.0 0.0 0.0 0.0 0.07698792 
0.0 0.0 0.0 0.0 0.0 0.07698792 
0.0 0.0 0.0 0.0 0.0 0.07698792 
0.0 0.0 0.0 0.0 0.0 0.07698792 
0.0 0.0 0.0 0.0 0.0 0.07698792 
0.0 0.0 0.0 0.0 0.0 0.07698792 
0.0 0.0 0.0 0.0 0.0 0.07698792 
0.0 0.0 0.0 0.0 0.0 0.07698792 
0.0 0.0 0.0 0.0 0.0 0.07698792 
0.0 0.0 0.0 0.0 0.0 0.07698792 
0.0 0.0 0.0 0.0 0.0 0.07698792 
0.17868415 0.0 0.0 0.0 0.0 0.12020101 
1.3794231 0.0 0.0 0.0 0.040712554 0.6512466 
2.2027829 0.0 0.0 0.0 0.70097744 0.8563867 
1.2770722 0.9056619 0.0 0.0 1.6142514 0.20984676 
0.0 1.640342 0.0 0.0 2.0260212 0.0 
0.0 1.3370965 1.4024731 0.0 1.6955969 0.021985233 
0.0 0.4429353 1.1044275 0.0 1.0009574 0.17968462 
0.0 0.0 0.40997744 0.021774542 0.14026736 0.128121 
0.0 0.0 0.0 0.0 0.0 0.07843382 
0.0 0.0 0.0 0.0 0.0 0.07698792 
0.0 0.0 0.0 0.0 0.0 0.07698792 
0.0 0.0 0.0 0.0 0.0 0.07698792 
0.0 0.0 0.0 0.0 0.0 0.07698792 
0.0 0.0 0.0 0.0 0.0 0.07698792 
0.0 0.0 0.0 0.0 0.0 0.07698792 
0.0 0.0 0.0 0.0 0.0 0.07698792 
0.0 0.0 0.0 0.0 0.0 0.07698792 
0.0 0.0 0.0 0.0 0.0 0.07698792 
0.0 0.0 0.0 0.0 0.0 0.07698792 
0.0 0.0 0.0 0.0 0.0 0.07698792 
0.0 0.0 0.0 0.0 0.0 0.07698792 
0.0 0.0 0.0 0.0 0.0 0.07698792 
0.0 0.0 0.0 0.0 0.0 0.07698792 
0.0 0.0 0.0 0.0 0.0 0.07698792 
0.0 0.0 0.0 0.0 0.0 0.07698792 
0.0 0.0 0.0 0.0 0.0 0.07698792 
0.0 0.0 0.0 0.0 0.0 0.07698792 
0.0 0.0 0.0 0.0 0.0 0.07698792 
0.2773721 0.0 0.0 0.05112114 0.0 0.28703922 
1.4003794 0.0 0.0 0.13294378 0.16270202 0.7995779 
2.115001 0.0 0.0 0.20587516 0.8906135 0.9440182 
0.9184873 1.0332364 0.0 0.09572628 1.623955 0.2641584 
0.0 1.6703678 0.26650038 0.0 1.8366677 0.0 
0.0 1.219626 1.6215575 0.0 1.5427734 0.06084591 
0.0 0.3612417 1.0709443 0.0 0.84334344 0.07980089 
0.0 0.0 0.15275928 0.0 0.04873203 0.09338617 
0.0 0.0 0.0 0.0 0.0 0.07698792 
0.0 0.0 0.0 0.0 0.0 0.07698792 
0.0 0.0 0.0 0.0 0.0 0.07698792 
0.0 0.0 0.0 0.0 0.0 0.07698792 
0.0 0.0 0.0 0.0 0.0 0.07698792 
0.0 0.0 0.0 0.0 0.0 0.07698792 
0.0 0.0 0.0 0.0 0.0 0.07698792 
0.0 0.0 0.0 0.0 0.0 0.07698792 
0.0 0.0 0.0 0.0 0.0 0.07698792 
0.0 0.0 0.0 0.0 0.0 0.07698792 
0.0 0.0 0.0 0.0 0.0 0.07698792 
0.0 0.0 0.0 0.0 0.0 0.07698792 
0.0 0.0 0.0 0.0 0.0 0.07698792 
0.0 0.0 0.0 0.0 0.0 0.07698792 
0.0 0.0 0.0 0.0 0.0 0.07698792 
0.0 0.0 0.0 0.0 0.0 0.07698792 
0.0 0.0 0.0 0.0 0.0 0.07698792 
0.0 0.0 0.0 0.0 0.0 0.07698792 
0.0 0.0 0.0 0.0 0.0 0.07698792 
0.0 0.0 0.0 0.0 0.0 0.07698792 
0.3127296 0.0 0.0 0.15001726 0.015101995 0.4405191 
1.171489 0.0 0.0 0.28139043 0.49884674 1.1556363 
1.5907063 0.0 0.0 0.58997965 1.2220706 1.4986308 
0.57298887 0.69446653 0.0 0.6976691 1.608242 0.9526183 
0.0 1.2848284 0.41668 0.75200474 1.5695484 0.5367836 
0.0 0.80757576 1.573258 0.4453406 1.2873073 0.47480908 
0.0 0.2504127 1.0399116 0.17266434 0.5771759 0.12655295 
0.0 0.0 0.021735981 0.0 0.0 0.081614204 
0.0 0.0 0.0 0.0 0.0 0.07698792 
0.0 0.0 0.0 0.0 0.0 0.07698792 
0.0 0.0 0.0 0.0 0.0 0.07698792 
0.0 0.0 0.0 0.0 0.0 0.07698792 
0.0 0.0 0.0 0.0 0.0 0.07698792 
0.0 0.0 0.0 0.0 0.0 0.07698792 
0.0 0.0 0.0 0.0 0.0 0.07698792 
0.0 0.0 0.0 0.0 0.0 0.07698792 
0.0 0.0 0.0 0.0 0.0 0.07698792 
0.0 0.0 0.0 0.0 0.0 0.07698792 
0.0 0.0 0.0 0.0 0.0 0.07698792 
0.0 0.0 0.0 0.0 0.0 0.07698792 
0.0 0.0 0.0 0.0 0.0 0.07698792 
0.0 0.0 0.0 0.0 0.0 0.07698792 
0.0 0.0 0.0 0.0 0.0 0.07698792 
0.0 0.0 0.0 0.0 0.0 0.07698792 
0.0 0.0 0.0 0.0 0.0 0.07698792 
0.0 0.0 0.0 0.0 0.0 0.07698792 
0.0 0.0 0.0 0.0 0.0 0.07698792 
0.0 0.0 0.0 0.0 0.0 0.07698792 
0.29082835 0.0 0.0 0.026446566 0.219187 0.41749573 
0.95267946 0.0 0.0 0.121279545 0.8012698 1.1232576 
1.0521894 0.0 0.0 0.24391153 1.3388823 1.4267769 
0.16413534 0.31708744 0.0 0.35511658 1.3582609 1.0459647 
0.0 0.5115965 0.018978499 0.4834272 1.077579 0.75670165 
0.0 0.45791116 1.1399268 0.46747363 0.6839507 0.60740477 
0.0 0.19109537 0.84866774 0.24728769 0.2268442 0.17272553 
0.0 0.0 0.0 0.0059910277 0.0 0.08100332 
0.0 0.0 0.0 0.0 0.0 0.07698792 
0.0 0.0 0.0 0.0 0.0 0.07698792 
0.0 0.0 0.0 0.0 0.0 0.07698792 
0.0 0.0 0.0 0.0 0.0 0.07698792 
0.0 0.0 0.0 0.0 0.0 0.07698792 
0.0 0.0 0.0 0.0 0.0 0.07698792 
0.0 0.0 0.0 0.0 0.0 0.07698792 
0.0 0.0 0.0 0.0 0.0 0.07698792 
0.0 0.0 0.0 0.0 0.0 0.07698792 
0.0 0.0 0.0 0.0 0.0 0.07698792 
0.0 0.0 0.0 0.0 0.0 0.07698792 
0.0 0.0 0.0 0.0 0.0 0.07698792 
0.0 0.0 0.0 0.0 0.0 0.07698792 
0.0 0.0 0.0 0.0 0.0 0.07698792 
0.0 0.0 0.0 0.0 0.0 0.07698792 
0.0 0.0 0.0 0.0 0.0 0.07698792 
0.0 0.0 0.0 0.0 0.0 0.07698792 
0.0 0.0 0.0 0.0 0.0 0.07698792 
0.0 0.0 0.0 0.0 0.0 0.07698792 
0.0 0.0 0.0 0.0 0.0 0.07698792 
0.1381715 0.0 0.0 0.0 0.17405576 0.2566672 
0.56965536 0.0 0.0 0.0 0.60967845 0.7270323 
0.6629571 0.0 0.0 0.0 0.99353915 1.0516775 
0.11228517 0.13402212 0.0 0.0 0.7685304 0.87326866 
0.0 0.015368641 0.0 0.0 0.4672127 0.63144183 
0.0 0.0 0.40678144 0.0 0.31024787 0.46843162 
0.0 0.0 0.41855776 0.023777284 0.103094414 0.15734759 
0.0 0.0 0.0 0.0 0.0 0.079512596 
0.0 0.0 0.0 0.0 0.0 0.07698792 
0.0 0.0 0.0 0.0 0.0 0.07698792 
0.0 0.0 0.0 0.0 0.0 0.07698792 
0.0 0.0 0.0 0.0 0.0 0.07698792 
0.0 0.0 0.0 0.0 0.0 0.07698792 
0.0 0.0 0.0 0.0 0.0 0.07698792 
0.0 0.0 0.0 0.0 0.0 0.07698792 
0.0 0.0 0.0 0.0 0.0 0.07698792 
0.0 0.0 0.0 0.0 0.0 0.07698792 
0.0 0.0 0.0 0.0 0.0 0.07698792 

