0.0 0.0 0.0 0.0 0.0 0.07698792 
0.0 0.0 0.0 0.0 0.0 0.07698792 
0.0 0.0 0.0 0.0 0.0 0.07698792 
0.0 0.0 0.0 0.0 0.0 0.07698792 
0.0 0.0 0.0 0.0 0.0 0.07698792 
0.0 0.0 0.0 0.0 0.0 0.07698792 
0.0 0.0 0.0 0.0 0.0 0.07698792 
0.0 0.0 0.0 0.0 0.0 0.07698792 
0.0 0.0 0.0 0.0 0.0 0.07698792 
0.0 0.0 0.0 0.0 0.0 0.07698792 
0.0 0.0 0.0 0.0 0.0 0.07698792 
0.0 0.0 0.0 0.0 0.0 0.07698792 
0.0 0.0 0.0 0.0 0.0 0.07698792 
0.0 0.0 0.0 0.0 0.0 0.07698792 
0.0 0.0 0.0 0.0 0.0 0.07698792 
0.0 0.0 0.0 0.0 0.0 0.07698792 
0.0 0.0 0.0 0.0 0.0 0.07698792 
0.0 0.0 0.0 0.0 0.0 0.07698792 
0.0 0.0 0.0 0.0 0.0 0.07698792 
0.0 0.0 0.0 0.0 0.0 0.07698792 
0.0 0.0 0.0 0.0 0.0 0.07698792 
0.0 0.0 0.0 0.0 0.0 0.07698792 
0.0 0.0 0.0 0.0 0.0 0.07698792 
0.0 0.0 0.0 0.0 0.0 0.07698792 
0.0 0.0 0.0 0.0 0.0 0.07698792 
0.0 0.0 0.0 0.0 0.0 0.07698792 
0.0 0.0 0.0 0.0 0.0 0.07698792 
0.0 0.0 0.0 0.0 0.0 0.07698792 
0.0 0.0 0.0 0.0 0.0 0.07698792 
0.0 0.0 0.0 0.0 0.0 0.07698792 
0.0 0.0 0.0 0.0 0.0 0.07698792 
0.0 0.0 0.0 0.0 0.0 0.07698792 
0.0 0.0 0.0 0.0 0.0 0.07698792 
0.0 0.0 0.0 0.0 0.0 0.07698792 
0.0 0.0 0.0 0.0 0.0 0.07698792 
0.0 0.0 0.0 0.0 0.0 0.07698792 
0.0 0.0 0.0 0.0 0.0 0.07698792 
0.0 0.0 0.0 0.0 0.0 0.07698792 
0.0 0.0 0.0 0.0 0.0 0.07698792 
0.0 0.0 0.0 0.0 0.0 0.07698792 
0.0 0.0 0.0 0.0 0.0 0.07698792 
0.0 0.0 0.0 0.0 0.0 0.07698792 
0.0 0.0 0.0 0.0 0.0 0.07698792 
0.0 0.0 0.0 0.0 0.0 0.07698792 
0.0 0.0 0.0 0.0 0.0 0.07698792 
0.0 0.0 0.0 0.0 0.0 0.07698792 
0.0 0.0 0.0 0.0 0.0 0.07698792 
0.0 0.0 0.0 0.0 0.0 0.07698792 
0.0 0.0 0.0 0.0 0.0 0.07698792 
0.0 0.0 0.0 0.0 0.0 0.07698792 
0.0 0.0 0.0 0.0 0.0 0.07698792 
0.0 0.0 0.0 0.0 0.0 0.07698792 
0.0 0.0 0.0 0.0 0.0 0.07698792 
0.0 0.0 0.0 0.0 0.0 0.07698792 
0.0 0.0 0.0 0.0 0.0 0.07698792 
0.0 0.0 0.0 0.0 0.0 0.07698792 
0.0 0.0 0.0 0.0 0.0 0.07698792 
0.0 0.0 0.0 0.0 0.0 0.07698792 
0.0 0.0 0.0 0.0 0.0 0.07698792 
0.0 0.0 0.0 0.0 0.0 0.07698792 
0.0 0.0 0.0 0.0 0.0 0.07698792 
0.0 0.0 0.0 0.0 0.0 0.07698792 
0.0 0.0 0.0 0.0 0.0 0.07698792 
0.0 0.0 0.0 0.0 0.0 0.07698792 
0.0 0.0 0.0 0.0 0.0 0.07698792 
0.0 0.0 0.0 0.0 0.0 0.07698792 
0.0 0.0 0.0 0.0 0.0 0.07698792 
0.0 0.0 0.0 0.0 0.0 0.07698792 
0.0 0.0 0.0 0.0 0.0 0.07698792 
0.0 0.0 0.0 0.0 0.0 0.07698792 
0.0 0.0 0.0 0.0 0.0 0.07698792 
0.0 0.0 0.0 0.0 0.0 0.07698792 
0.0 0.0 0.0 0.0 0.0 0.07698792 
0.0 0.0 0.0 0.0 0.0 0.07698792 
0.0 0.0 0.0 0.0 0.0 0.07698792 
0.0 0.0 0.0 0.0 0.0 0.07698792 
0.0 0.0 0.0 0.0 0.0 0.07698792 
0.0 0.0 0.0 0.0 0.0 0.07698792 
0.0 0.0 0.0 0.0 0.0 0.07698792 
0.0 0.0 0.0 0.0 0.0 0.07698792 
0.0 0.0 0.0 0.0 0.0 0.07698792 
0.0 0.0 0.0 0.0 0.0 0.07698792 
0.0 0.0 0.0 0.0 0.0 0.07698792 
0.0 0.0 0.0 0.0 0.0 0.07698792 
0.0 0.0 0.0 0.0 0.0 0.07698792 
0.0 0.0 0.0 0.0 0.0 0.073593974 
0.0 0.0 0.0 0.0 0.0 0.049038395 
0.0069111437 0.016755018 0.0025578402 0.0 0.0 0.0 
0.056190416 0.023865946 0.08673764 0.0 0.0 0.0 
0.15667509 0.11058836 0.16185567 0.0 0.0 0.0 
0.17461486 0.1984636 0.21339273 0.0 0.0 0.0 
0.24257919 0.25367543 0.3447917 0.0 0.0 0.0 
0.33706868 0.3832977 0.41992056 0.0 0.0 0.0 
0.3424111 0.46316868 0.471303 0.0 0.0 0.0 
0.35391268 0.55315113 0.53109175 0.0 0.0 0.0 
0.33928 0.6152952 0.5553206 0.0 0.0 0.0 
0.33748055 0.622297 0.55768955 0.0 0.0 0.0 
0.2630741 0.65832406 0.46492606 0.0 0.0 0.0 
0.0554747 0.6167905 0.31083614 0.0 0.0 0.0 
0.0 0.44739777 0.20419449 0.0 0.073585406 0.0 
0.0 0.2592845 0.07371009 0.0 0.08380319 0.0 
0.0 0.07239046 0.0 0.0 0.017287549 6.8083405e-05 
0.0 0.0 0.0 0.0 0.0 0.07542465 
0.0 0.0 0.0 0.0 0.0 0.07698792 
0.0 0.0 0.0 0.0 0.0 0.07698792 
0.0 0.0 0.0 0.0 0.0 0.07698792 
0.0 0.0 0.0 0.0 0.0 0.07698792 
0.0 0.0 0.0 0.0 0.0 0.07698792 
0.0 0.0 0.0 0.0 0.0 0.07698792 
0.0 0.0 0.0 0.0 0.0 0.07698792 
0.0 0.0 0.0 0.0 0.0 0.07698792 
0.0 0.0 0.0 0.0 0.0 0.07698792 
0.0 0.0 0.0 0.0 0.0 0.07698792 
0.06757079 0.0 0.10558497 0.0 0.0 0.00080886483 
0.3484602 0.027236529 0.20983163 0.0 0.0 0.0 
0.43984944 0.18828112 0.338727 0.0 0.0 0.0 
0.53276736 0.3984136 0.4666456 0.0 0.0 0.0 
0.5680868 0.5801001 0.6145056 0.0 0.0 0.0 
0.5972935 0.6762714 0.66619205 0.0 0.0 0.0 
0.60701644 0.7649117 0.7384777 0.0 0.0 0.0 
0.59777 0.77392346 0.85500723 0.0 0.0 0.0 
0.64492285 0.8637151 0.886059 0.0 0.0 0.0 
0.513837 1.0587755 0.9451237 0.0 0.09464078 0.0 
0.32973063 0.9853656 1.0373461 0.0 0.24387921 0.0 
0.40514153 0.9769352 1.0472412 0.0 0.21919043 0.0 
0.33712786 1.0361382 1.0827249 0.0 0.2998381 0.0 
0.0372985 1.2393377 0.99971735 0.0 0.4748777 0.0 
0.0 1.1316735 0.8103631 0.0 0.62044054 0.0 
0.0 0.64384645 0.5231421 0.0 0.5472769 0.0 
0.0 0.21884882 0.12854585 0.0 0.28717333 0.0 
0.0 0.045497425 0.0 0.0 0.0 0.025883984 
0.0 0.0 0.0 0.0 0.0 0.07698792 
0.0 0.0 0.0 0.0 0.0 0.07698792 
0.0 0.0 0.0 0.0 0.0 0.07698792 
0.0 0.0 0.0 0.0 0.0 0.07698792 
0.0 0.0 0.0 0.0 0.0 0.07698792 
0.0 0.0 0.0 0.0 0.0 0.07698792 
0.0 0.0 0.0 0.0 0.0 0.07698792 
0.0 0.0 0.0 0.0 0.0 0.07698792 
0.0 0.0 0.0 0.0 0.0 0.07698792 
0.0 0.0 0.0 0.0 0.0 0.07698792 
0.2130549 0.0 0.02474527 0.0 0.0 0.053788133 
0.78491944 0.0 0.16895536 0.0 0.0 0.0 
0.9712176 0.15121844 0.24856117 0.0 0.0 0.0 
0.80248815 0.6235746 0.58569443 0.0 0.0 0.0 
0.4546212 0.7428339 0.79516923 0.0 0.5114515 0.0 
0.35652333 0.70986605 0.81582355 0.0 0.71804005 0.0 
0.346372 0.60587114 0.75488424 0.23815511 0.8714841 0.0 
0.27843747 0.584885 0.83030117 0.56454736 1.0304029 0.0 
0.23381782 0.5741594 0.83145523 0.8739782 1.1815143 0.0 
0.092304066 0.64571416 0.9465103 1.1433566 1.3833464 0.10015321 
0.0 0.64358354 1.0167545 1.3244678 1.3467754 0.18326999 
0.18396583 0.44508666 1.2398721 1.2612264 1.1297041 0.15871772 
0.46878487 0.69400054 1.3039037 0.99909 0.93252945 0.0 
0.12490605 1.3584156 1.5644478 0.63367337 0.93810606 0.0 
0.0 1.6426729 1.6323869 0.09671404 1.0982958 0.0 
0.0 1.3217794 1.3297528 0.0 0.9672757 0.0 
0.0 0.5307813 0.56671715 0.0 0.5989917 0.0 
0.0 0.058060326 0.02305355 0.0 0.1480965 0.0 
0.0 0.0 0.0 0.0 0.0 0.07698792 
0.0 0.0 0.0 0.0 0.0 0.07698792 
0.0 0.0 0.0 0.0 0.0 0.07698792 
0.0 0.0 0.0 0.0 0.0 0.07698792 
0.0 0.0 0.0 0.0 0.0 0.07698792 
0.0 0.0 0.0 0.0 0.0 0.07698792 
0.0 0.0 0.0 0.0 0.0 0.07698792 
0.0 0.0 0.0 0.0 0.0 0.07698792 
0.0 0.0 0.0 0.0 0.0 0.07698792 
0.0 0.0 0.0 0.0 0.0 0.07698792 
0.31563962 0.0 0.0 0.09864503 0.0 0.3572251 
0.86804277 0.0 0.0 0.40643853 0.0 0.538304 
0.984505 0.0 0.0 0.80337024 0.40328902 0.3816672 
0.53538895 0.49869618 0.23805553 1.2766143 0.97052795 0.46835914 
0.065259695 0.7657354 0.6586952 1.4311336 1.5505441 0.6127514 
0.009010047 0.73213154 0.5560727 1.5032507 1.6013038 0.80716425 
0.18934044 0.76560014 0.44350427 1.6860704 1.563526 1.0398214 
0.15244104 0.9202211 0.37841883 1.7749587 1.6413541 1.2372866 
0.018106163 0.9549645 0.30673838 1.8085324 1.6543275 1.3649232 
0.0 0.97643423 0.293174 1.7723411 1.5881702 1.3895125 
0.12272483 0.9077392 0.44520843 1.786751 1.3640279 1.4674699 
0.5955304 0.6919392 0.46974105 1.6027851 0.9245716 1.4438148 
0.9823865 0.7256527 0.60818475 1.3313265 0.75768715 0.96042454 
0.6026725 1.442702 1.0856272 0.98005456 0.89670706 0.0508671 
0.0 2.1491096 1.9656287 0.7290496 1.1529527 0.0 
0.0 1.7358959 2.0459073 0.24040851 1.2876569 0.0 
0.0 0.8728593 1.1715127 0.0 0.8062757 0.0 
0.0 0.15128689 0.19093794 0.0 0.23354419 0.0 
0.0 0.0 0.0 0.0 0.0 0.07698792 
0.0 0.0 0.0 0.0 0.0 0.07698792 
0.0 0.0 0.0 0.0 0.0 0.07698792 
0.0 0.0 0.0 0.0 0.0 0.07698792 
0.0 0.0 0.0 0.0 0.0 0.07698792 
0.0 0.0 0.0 0.0 0.0 0.07698792 
0.0 0.0 0.0 0.0 0.0 0.07698792 
0.0 0.0 0.0 0.0 0.0 0.07698792 
0.0 0.0 0.0 0.0 0.0 0.07698792 
0.0 0.0 0.0 0.0 0.0 0.07698792 
0.39665592 0.0 0.0 0.25374106 0.07703255 0.56317127 
0.84413403 0.0 0.0 0.5228905 0.47882834 1.0639162 
0.67037284 0.12859322 0.0 0.9100372 0.9642944 1.1163828 
0.42197505 0.5252906 0.0 1.1307006 1.3993872 1.3842301 
0.15012352 0.8652973 0.0 1.247638 1.6194881 1.5731502 
0.16260774 0.6685082 0.0 0.96699655 1.5874323 1.5910532 
0.25589988 0.55826986 0.0 0.6542575 1.5959824 1.5955212 
0.22908086 0.45313197 0.0 0.4023003 1.6781257 1.635253 
0.23737091 0.34226096 0.0 0.12863016 1.630166 1.6843741 
0.2609327 0.19417001 0.0 0.0 1.47868 1.5349264 
0.53362507 0.0 0.0 0.0 1.1556538 1.3453641 
1.2823095 0.0 0.0 0.0 1.0365498 1.4201782 
1.5614197 0.0 0.0 0.0 1.0984932 1.064965 
0.785106 0.9249986 0.0 0.0 1.4722457 0.2771421 
0.0 1.6966907 0.9928143 0.090383194 1.8246413 0.0 
0.0 1.544172 1.9791611 0.32628807 1.5988348 0.0 
0.0 0.79390824 1.4750568 0.23347779 0.90268546 0.017241262 
0.0 0.18357682 0.37366292 0.086617455 0.20758776 0.04467252 
0.0 0.0 0.0 0.0 0.0 0.07698792 
0.0 0.0 0.0 0.0 0.0 0.07698792 
0.0 0.0 0.0 0.0 0.0 0.07698792 
0.0 0.0 0.0 0.0 0.0 0.07698792 
0.0 0.0 0.0 0.0 0.0 0.07698792 
0.0 0.0 0.0 0.0 0.0 0.07698792 
0.0 0.0 0.0 0.0 0.0 0.07698792 
0.0 0.0 0.0 0.0 0.0 0.07698792 
0.0 0.0 0.0 0.0 0.0 0.07698792 
0.0 0.0 0.0 0.0 0.0 0.07698792 
0.35483503 0.0 0.0 0.008269972 0.31380993 0.48036313 
0.7693906 0.0 0.0 0.0 0.8465609 1.0254462 
0.5771699 0.0 0.0 0.0 1.110113 1.114528 
0.3953795 0.0 0.0 0.0 1.2420298 1.2378149 
0.092476845 0.0 0.0 0.0 1.3143198 1.2573626 
0.08878757 0.0 0.0 0.0 1.2717699 1.1445904 
0.07856116 0.0 0.0 0.0 1.1961288 0.982801 
0.034105673 0.0 0.0 0.0 1.0870463 0.81653565 
0.13461584 0.0 0.0 0.0 0.9688671 0.6944113 
0.31851405 0.0 0.0 0.0 0.5733345 0.39311716 
0.8806616 0.0 0.0 0.0 0.37096158 0.19781375 
1.7106824 0.0 0.0 0.0 0.63031065 0.32253 
1.9010231 0.0 0.0 0.0 1.3952199 0.29563195 
0.69229645 1.1546844 0.0 0.0 2.1146786 0.0025135875 
0.0 1.5516605 0.42467445 0.0 2.1312087 0.0 
0.0 1.3640816 1.653094 0.0 1.5918752 0.0 
0.0 0.6271952 1.3717815 0.0 0.8570147 0.0 
0.0 0.2415971 0.47045988 0.0 0.14093652 0.0 
0.0 0.03978722 0.0 0.0 0.0 0.026979525 
0.0 0.0 0.0 0.0 0.0 0.0728192 
0.0 0.0 0.0 0.0 0.0 0.07698792 
0.0 0.0 0.0 0.0 0.0 0.07698792 
0.0 0.0 0.0 0.0 0.0 0.07698792 
0.0 0.0 0.0 0.0 0.0 0.07698792 
0.0 0.0 0.0 0.0 0.0 0.07698792 
0.0 0.0 0.0 0.0 0.0 0.07698792 
0.0 0.0 0.0 0.0 0.0 0.07698792 
0.0 0.0 0.0 0.0 0.0 0.07698792 
0.14839777 0.0 0.0 0.0 0.26580566 0.23131563 
0.36337408 0.0 0.0 0.0 0.53689754 0.42457995 
0.24448708 0.0 0.0 0.0 0.5780744 0.41064593 
0.0735676 0.0 0.0 0.0 0.55439264 0.43481463 
0.0 0.0 0.0 0.0 0.57141775 0.42507634 
0.0 0.0 0.0 0.0 0.5003735 0.34700662 
0.0 0.0 0.0 0.0 0.29046676 0.24350663 
0.0 0.0 0.0 0.0 0.0962839 0.1322403 
0.20984253 0.0 0.04013925 0.0 0.0 0.0 
0.70129204 0.0 0.16311637 0.0 0.0 0.0 
1.3529685 0.0 0.13437212 0.0 0.0 0.0 
1.8827233 0.21941537 0.0 0.0 0.5761174 0.0 
1.6056333 0.9524928 0.0 0.0 1.6871749 0.0 
0.5507862 1.7074167 0.0 0.0 2.1253479 0.0 
0.0 1.9630505 0.91385305 0.0 1.7431678 0.0 
0.0 1.5291742 1.9050851 0.0 1.193722 0.0 
0.0 1.0834426 1.5216612 0.0 0.6817814 0.0 
0.0 0.673689 0.71354425 0.0 0.29457042 0.0 
0.0 0.37074694 0.19498092 0.0 0.19200264 0.0 
0.0 0.15993552 0.018471494 0.0 0.07313731 0.0 
0.0 0.022450905 0.0 0.0 0.0 0.046445105 
0.0 0.0 0.0 0.0 0.0 0.07542465 
0.0 0.0 0.0 0.0 0.0 0.07698792 
0.0 0.0 0.0 0.0 0.0 0.07698792 
0.0 0.0 0.0 0.0 0.0 0.07698792 
0.0 0.0 0.0 0.0 0.0 0.07698792 
0.0 0.0 0.0 0.0 0.0 0.07698792 
0.0 0.0 0.0 0.0 0.0 0.07698792 
0.0 0.0 0.0 0.0 0.0 0.08503331 
0.0 0.0 0.0 0.0 0.015802521 0.111069106 
0.0 0.0 0.0 0.0 0.0 0.10300525 
0.0 0.0 0.0 0.0 0.0 0.08894317 
0.0 0.0 0.0 0.0 0.0 0.10318376 
0.0 0.0 0.0034554452 0.0 0.0 0.06366756 
0.10452202 0.0 0.11268558 0.0 0.0 0.0 
0.3714074 0.0 0.19611895 0.0 0.0 0.0 
0.76781386 0.0 0.2199736 0.0 0.0 0.0 
1.3610923 0.0 0.2177662 0.0 0.0 0.0 
1.6972554 0.41677096 0.021037973 0.0 0.4420559 0.0 
1.5144408 0.85353315 0.0 0.0 1.5645965 0.04543324 
1.0371532 1.2571503 0.0 0.110517085 2.3014004 0.3316767 
0.30538177 1.5370193 0.28865558 0.09227593 2.2030437 0.17582792 
0.0 1.4397674 1.2262139 0.024795156 1.6176287 0.0 
0.0 1.24361 1.9296173 0.0 1.1356652 0.0 
0.0 1.2743121 1.935188 0.0 0.8266674 0.0 
0.0 1.3224297 1.2686901 0.0 0.6957032 0.0 
0.0 1.0348495 0.86314917 0.0 0.6173647 0.0 
0.0 0.4824649 0.37368882 0.0 0.4404689 0.0 
0.0 0.19099669 0.05791443 0.0 0.1561801 0.0 
0.0 0.025858272 0.0 0.0 0.0 0.04412214 
0.0 0.0 0.0 0.0 0.0 0.07698792 
0.0 0.0 0.0 0.0 0.0 0.07698792 
0.0 0.0 0.0 0.0 0.0 0.07698792 
0.0 0.0 0.0 0.0 0.0 0.07698792 
0.0 0.0 0.0 0.0 0.0 0.07698792 
0.0 0.0 0.0 0.0 0.0 0.07698792 
0.0 0.0 0.0 0.0 0.0 0.07698792 
0.0 0.0 0.0 0.0 0.0 0.07698792 
0.0 0.0 0.0 0.0 0.0 0.07698792 
0.0 0.0 0.0 0.0 0.0 0.07698792 
0.0 0.0 0.0 0.0 0.0 0.05172184 
0.18072987 0.0 0.14264053 0.0 0.0 0.0 
0.5240112 0.0 0.19728148 0.0 0.0 0.0 
0.90674263 0.0 0.29207152 0.0 0.0 0.0 
1.3855622 0.17125621 0.31602082 0.0 0.0 0.0 
1.5349126 0.59827423 0.14874193 0.0 0.61965847 0.0 
1.2057924 0.9234374 0.0 0.025708098 1.8658739 0.12979104 
0.78887546 1.105779 0.0 0.40762952 2.566623 0.7434693 
0.39796725 1.142635 0.0 0.73569745 2.8004446 1.2109363 
0.0 0.9399397 0.0 0.99991304 2.4154434 1.2895172 
0.0 0.53806204 0.705759 1.2522883 1.8216287 1.120374 
0.02555275 0.45139396 1.310138 1.2934003 1.4070579 0.7377252 
0.16388838 0.94363314 1.7342134 1.1460166 0.9156848 0.0 
0.022964492 1.4188262 1.8739382 0.56740516 0.8909316 0.0 
0.0 1.6790763 1.6947719 0.0 0.91880375 0.0 
0.0 1.2071346 1.1816338 0.0 0.78653425 0.0 
0.0 0.48129666 0.43889132 0.0 0.5286966 0.0 
0.0 0.12167686 0.024651065 0.0 0.15583627 0.0 
0.0 0.0 0.0 0.0 0.0 0.07594574 
0.0 0.0 0.0 0.0 0.0 0.07698792 
0.0 0.0 0.0 0.0 0.0 0.07698792 
0.0 0.0 0.0 0.0 0.0 0.07698792 
0.0 0.0 0.0 0.0 0.0 0.07698792 
0.0 0.0 0.0 0.0 0.0 0.07698792 
0.0 0.0 0.0 0.0 0.0 0.07698792 
0.0 0.0 0.0 0.0 0.0 0.07698792 
0.0 0.0 0.0 0.0 0.0 0.07698792 
0.0 0.0 0.0 0.0 0.0 0.07698792 
0.01300925 0.0 0.0 0.0 0.0 0.06853837 
0.441168 0.0 0.06395658 0.0 0.0 0.020302054 
1.0760739 0.0 0.08618573 0.0 0.0 0.0 
1.3106651 0.07514824 0.07426251 0.0 0.0 0.0 
1.1777613 0.5794359 0.052458428 0.31410274 0.9128058 0.0 
0.8596218 0.82807463 0.0 0.52186036 2.1913884 0.5854807 
0.5165375 1.1474599 0.0 0.8764354 2.7564838 1.103317 
0.08857989 1.0445309 0.0 0.92899054 2.8734968 1.5241761 
0.0 0.81038284 0.0 0.8493816 2.6664517 1.7127528 
0.0 0.4173317 0.0 0.7743704 2.183091 1.7423882 
0.13861823 0.28095105 0.0 0.9043613 1.688052 1.8368406 
0.30299425 0.20966798 0.0 1.1656792 1.3468316 1.7139485 
0.49380046 0.17670211 0.25020838 1.2727852 0.9818848 1.2972329 
0.5180273 0.9406261 1.199354 1.2509457 0.7172552 0.39401394 
0.0 1.6376879 2.013723 0.8484577 0.89527005 0.0 
0.0 1.7853687 1.9580644 0.15617836 0.9864672 0.0 
0.0 1.1369556 1.2434568 0.0 0.8131402 0.0 
0.0 0.29245582 0.2905527 0.0 0.44968936 0.0 
0.0 0.05563309 0.0 0.0 0.006510768 0.016864121 
0.0 0.0 0.0 0.0 0.0 0.07698792 
0.0 0.0 0.0 0.0 0.0 0.07698792 
0.0 0.0 0.0 0.0 0.0 0.07698792 
0.0 0.0 0.0 0.0 0.0 0.07698792 
0.0 0.0 0.0 0.0 0.0 0.07698792 
0.0 0.0 0.0 0.0 0.0 0.07698792 
0.0 0.0 0.0 0.0 0.0 0.07698792 
0.0 0.0 0.0 0.0 0.0 0.07698792 
0.0 0.0 0.0 0.0 0.0 0.07698792 
0.047682427 0.0 0.0 0.02631151 0.0 0.16183567 
0.56223553 0.0 0.0 0.20945959 0.0 0.4493326 
1.1244242 0.0 0.0 0.6532981 0.14121233 0.6811751 
1.1854222 0.09528351 0.0 1.03608 1.0460413 0.8904701 
0.7383903 0.7792905 0.0 1.2456108 2.0578673 1.2221379 
0.16439645 0.9679254 0.0 1.1337267 2.6343715 1.4327712 
0.0 0.90994763 0.0 0.8697855 2.493905 1.4849718 
0.0 0.62548095 0.0 0.46338528 2.163386 1.5499876 
0.0 0.33053586 0.0 0.013084744 1.7171065 1.4722054 
0.059642136 0.021636426 0.0 0.0 1.4145203 1.3163197 
0.33766052 0.0 0.0 0.0 1.3757685 1.4440334 
0.5437276 0.0 0.0 0.0 1.4442972 1.681222 
0.8045576 0.0 0.0 0.061746087 1.1113411 1.7917321 
0.82186955 0.0 0.0 0.43209082 0.9012362 1.3215537 
0.39019606 0.8392998 0.78941727 0.6658669 0.88604116 0.29362231 
0.0 1.6884818 1.9840008 0.5796036 1.0167062 0.0 
0.0 1.5835693 1.9887573 0.02098355 1.0242275 0.0 
0.0 0.7900204 0.9088131 0.0 0.67235017 0.0 
0.0 0.12849571 0.060735554 0.0 0.2287883 0.0 
0.0 0.0018367553 0.0 0.0 0.0 0.0676083 
0.0 0.0 0.0 0.0 0.0 0.07698792 
0.0 0.0 0.0 0.0 0.0 0.07698792 
0.0 0.0 0.0 0.0 0.0 0.07698792 
0.0 0.0 0.0 0.0 0.0 0.07698792 
0.0 0.0 0.0 0.0 0.0 0.07698792 
0.0 0.0 0.0 0.0 0.0 0.07698792 
0.0 0.0 0.0 0.0 0.0 0.07698792 
0.0 0.0 0.0 0.0 0.0 0.07698792 
0.07129116 0.0 0.0 0.07930351 0.0 0.22651067 
0.61954725 0.0 0.0 0.3440885 0.22085239 0.7881319 
0.98858124 0.0 0.0 0.5409748 0.90714836 1.2144432 
0.7982165 0.16843851 0.0 0.74249494 1.5569214 1.3456447 
0.34681317 0.6069173 0.0 0.73734015 1.88865 1.5411396 
0.0 0.66538876 0.0 0.39791086 1.9365374 1.5599227 
0.0 0.3472062 0.0 0.0 1.4957123 1.2790658 
0.0 0.0 0.0 0.0 1.0634942 0.89035136 
0.0 0.0 0.0 0.0 0.7590663 0.6465638 
0.0 0.0 0.0 0.0 0.69780385 0.4635085 
0.15327133 0.0 0.0 0.0 0.75209326 0.50532335 
0.4129499 0.0 0.0 0.0 0.89477736 0.7481152 
0.93341845 0.0 0.0 0.0 1.1446613 1.3944354 
1.1825526 0.0 0.0 0.0 0.9524104 1.5686557 
0.9268799 0.0 0.0 0.13091719 0.8447958 0.8052843 
0.07793242 1.0993826 0.9986545 0.38932094 0.9897532 0.0 
0.0 1.682584 2.1581583 0.23873925 1.061483 0.0 
0.0 1.2872387 1.6733782 0.0 0.92111176 0.0 
0.0 0.40121064 0.41269895 0.0 0.47927436 0.0 
0.0 0.07414267 0.0 0.0 0.048365798 0.0 
0.0 0.0 0.0 0.0 0.0 0.07698792 
0.0 0.0 0.0 0.0 0.0 0.07698792 
0.0 0.0 0.0 0.0 0.0 0.07698792 
0.0 0.0 0.0 0.0 0.0 0.07698792 
0.0 0.0 0.0 0.0 0.0 0.07698792 
0.0 0.0 0.0 0.0 0.0 0.07698792 
0.0 0.0 0.0 0.0 0.0 0.07698792 
0.0 0.0 0.0 0.0 0.0 0.07698792 
0.06204398 0.0 0.0 0.0 0.060242016 0.20247054 
0.556677 0.0 0.0 0.0 0.522854 0.7162355 
0.72917944 0.0 0.0 0.0 0.9819823 1.0753546 
0.43979335 0.0 0.0 0.0 1.1773573 1.1000681 
0.1495808 0.0 0.0 0.0 1.2016541 1.102788 
0.0 0.0 0.0 0.0 0.9967713 0.821804 
0.0 0.0 0.0 0.0 0.58853227 0.51026654 
0.0 0.0 0.0 0.0 0.33229366 0.29129353 
0.0 0.0 0.0 0.0 0.16760427 0.19231828 
0.0 0.0 0.03169187 0.0 0.024294298 0.094667956 
0.0 0.0 0.0 0.0 0.0 0.096239105 
0.1379194 0.0 0.0 0.0 0.24179326 0.22905695 
0.6360055 0.0 0.0 0.0 0.6233353 0.7382899 
1.329535 0.0 0.0 0.0 0.78489685 1.3357763 
1.4199479 0.0 0.0 0.0 0.6553886 1.0675895 
0.6689907 0.5183499 0.0 0.006474008 0.8391337 0.17887306 
0.0 1.5832471 1.633188 0.28196198 1.1245517 0.0 
0.0 1.5269182 2.0985 0.0 1.2049849 0.0 
0.0 0.8210103 1.011386 0.0 0.7174983 0.0 
0.0 0.087852806 0.081836395 0.0 0.24860679 0.0 
0.0 0.0 0.0 0.0 0.0 0.07698792 
0.0 0.0 0.0 0.0 0.0 0.07698792 
0.0 0.0 0.0 0.0 0.0 0.07698792 
0.0 0.0 0.0 0.0 0.0 0.07698792 
0.0 0.0 0.0 0.0 0.0 0.07698792 
0.0 0.0 0.0 0.0 0.0 0.07698792 
0.0 0.0 0.0 0.0 0.0 0.07698792 
0.0 0.0 0.0 0.0 0.0 0.07698792 
0.0 0.0 0.0 0.0 0.03879964 0.12541288 
0.26420557 0.0 0.0 0.0 0.39162937 0.34040707 
0.33546442 0.0 0.0 0.0 0.5858868 0.44811174 
0.122248605 0.0 0.0 0.0 0.5134221 0.37967205 
0.0 0.0 0.0 0.0 0.36791787 0.3622262 
0.0 0.0 0.0 0.0 0.2615951 0.24798633 
0.0 0.0 0.0 0.0 0.11132412 0.15908977 
0.0 0.0 0.0079965815 0.0 0.0 0.08535889 
0.0 0.0 0.0 0.0 0.0 0.07698792 
0.0 0.0 0.0 0.0 0.0 0.07698792 
0.0 0.0 0.0 0.0 0.0 0.07698792 
0.0 0.0 0.0 0.0 0.0 0.08750881 
0.24842378 0.0 0.0 0.0 0.32506147 0.3387716 
1.1640024 0.0 0.0 0.0 0.4757628 1.0041354 
1.7891145 0.0 0.0 0.0 0.55762446 1.1149912 
1.1838474 0.30816013 0.0 0.0 0.8777807 0.39866874 
0.0 1.397924 0.7849527 0.14120764 1.2581395 0.0 
0.0 1.5813022 2.07788 0.14975746 1.4958309 0.0 
0.0 0.9807053 1.5297345 0.03280547 0.9565039 0.0 
0.0 0.2296043 0.32328585 0.0 0.32495138 0.0 
0.0 0.0 0.0 0.0 0.0 0.07698792 
0.0 0.0 0.0 0.0 0.0 0.07698792 
0.0 0.0 0.0 0.0 0.0 0.07698792 
0.0 0.0 0.0 0.0 0.0 0.07698792 
0.0 0.0 0.0 0.0 0.0 0.07698792 
0.0 0.0 0.0 0.0 0.0 0.07698792 
0.0 0.0 0.0 0.0 0.0 0.07698792 
0.0 0.0 0.0 0.0 0.0 0.07698792 
0.0 0.0 0.0 0.0 0.0 0.08070118 
0.0 0.0 0.0 0.0 0.020141486 0.111998074 
0.0 0.0 0.0 0.0 0.005951952 0.11122836 
0.0 0.0 0.0 0.0 0.0 0.089668274 
0.0 0.0 0.0 0.0 0.0 0.10804629 
0.0 0.0 0.0 0.0 0.0 0.0849724 
0.0 0.0 0.0 0.0 0.0 0.07752062 
0.0 0.0 0.0 0.0 0.0 0.07698792 
0.0 0.0 0.0 0.0 0.0 0.07698792 
0.0 0.0 0.0 0.0 0.0 0.07698792 
0.0 0.0 0.0 0.0 0.0 0.07698792 
0.0 0.0 0.0 0.0 0.0 0.07698792 
0.025562331 0.0 0.0 0.0 0.056649644 0.12646876 
0.98850065 0.0 0.0 0.0 0.19582136 0.71502906 
1.96398 0.0 0.0 0.0 0.54439765 1.0428758 
1.4514041 0.3109719 0.0 0.0 0.9675538 0.45708942 
0.023814462 1.4619507 0.04803451 0.022480648 1.4195038 0.0 
0.0 1.6517017 1.78841 0.11141506 1.639739 0.0 
0.0 0.95274335 1.7031348 0.08969505 1.0476776 0.0 
0.0 0.2973178 0.5576581 0.027532 0.33946034 0.0 
0.0 0.0 0.0 0.0 0.0 0.07698792 
0.0 0.0 0.0 0.0 0.0 0.07698792 
0.0 0.0 0.0 0.0 0.0 0.07698792 
0.0 0.0 0.0 0.0 0.0 0.07698792 
0.0 0.0 0.0 0.0 0.0 0.07698792 
0.0 0.0 0.0 0.0 0.0 0.07698792 
0.0 0.0 0.0 0.0 0.0 0.07698792 
0.0 0.0 0.0 0.0 0.0 0.07698792 
0.0 0.0 0.0 0.0 0.0 0.07698792 
0.0 0.0 0.0 0.0 0.0 0.07698792 
0.0 0.0 0.0 0.0 0.0 0.07698792 
0.0 0.0 0.0 0.0 0.0 0.07698792 
0.0 0.0 0.0 0.0 0.0 0.07698792 
0.0 0.0 0.0 0.0 0.0 0.07698792 
0.0 0.0 0.0 0.0 0.0 0.07698792 
0.0 0.0 0.0 0.0 0.0 0.07698792 
0.0 0.0 0.0 0.0 0.0 0.07698792 
0.0 0.0 0.0 0.0 0.0 0.07698792 
0.0 0.0 0.0 0.0 0.0 0.07698792 
0.0 0.0 0.0 0.0 0.0 0.07623371 
0.02617082 0.0 0.033596754 0.0 0.0 0.03370886 
1.049223 0.0 0.0 0.0 0.0 0.51406264 
2.029798 0.0 0.0 0.0 0.50027615 0.8543935 
1.5411007 0.4391178 0.0 0.0 1.2075495 0.3230574 
0.0 1.5348095 0.0 0.0 1.6470679 0.0 
0.0 1.5153105 1.465056 0.028348245 1.7336282 0.0 
0.0 0.76778466 1.5211182 0.052533023 1.1210102 0.10227538 
0.0 0.16227569 0.60557383 0.064648524 0.31496742 0.054057043 
0.0 0.0 0.0 0.0 0.0 0.07698792 
0.0 0.0 0.0 0.0 0.0 0.07698792 
0.0 0.0 0.0 0.0 0.0 0.07698792 
0.0 0.0 0.0 0.0 0.0 0.07698792 
0.0 0.0 0.0 0.0 0.0 0.07698792 
0.0 0.0 0.0 0.0 0.0 0.07698792 
0.0 0.0 0.0 0.0 0.0 0.07698792 
0.0 0.0 0.0 0.0 0.0 0.06831449 
0.029887281 0.0 0.048636988 0.0 0.0 0.00522615 
0.16357309 0.040235255 0.1371491 0.0 0.0 0.0 
0.15364724 0.187695 0.13778594 0.0 0.0 0.0 
0.012055814 0.27299318 0.12484986 0.0 0.0 0.0 
0.0 0.2581101 0.100801654 0.0 0.005891826 0.0 
0.0 0.15503284 0.019462548 0.0 0.03695901 0.0 
0.0 0.034381635 0.0 0.0 0.0 0.03738507 
0.0 0.0 0.0 0.0 0.0 0.07698792 
0.0 0.0 0.0 0.0 0.0 0.07698792 
0.0 0.0 0.0 0.0 0.0 0.07698792 
0.0 0.0 0.0 0.0 0.0 0.07698792 
0.0 0.0 0.0034798793 0.0 0.0 0.04845277 
0.2758479 0.0 0.1057063 0.0 0.0 0.0 
1.346497 0.0 0.0 0.0 0.0 0.30359295 
2.0576558 0.0 0.0 0.0 0.64662755 0.5658276 
1.2106085 0.8405856 0.0 0.0 1.5236391 0.15091948 
0.0 1.5881578 0.0 0.0 1.934993 0.020694137 
0.0 1.2965531 1.3831325 0.1561653 1.6955612 0.1642837 
0.0 0.5069511 1.315482 0.15404727 0.96136624 0.24508183 
0.0 0.10948305 0.50635386 0.122764036 0.16544725 0.10507483 
0.0 0.0 0.0 0.0 0.0 0.07698792 
0.0 0.0 0.0 0.0 0.0 0.07698792 
0.0 0.0 0.0 0.0 0.0 0.07698792 
0.0 0.0 0.0 0.0 0.0 0.07698792 
0.0 0.0 0.0 0.0 0.0 0.07698792 
0.0 0.0 0.0 0.0 0.0 0.07698792 
0.0 0.0 0.0 0.0 0.0 0.07698792 
0.0 0.0 0.0 0.0 0.0 0.052592304 
0.27797943 0.0 0.13372135 0.0 0.0 0.0 
0.62205386 0.014935023 0.26218498 0.0 0.0 0.0 
0.67744994 0.38856274 0.4961232 0.0 0.0 0.0 
0.42086226 0.88905233 0.7361317 0.0 0.0 0.0 
0.0 0.9770481 0.79694104 0.0 0.18162782 0.0 
0.0 0.7084937 0.58276963 0.0 0.22279151 0.0 
0.0 0.49508193 0.2840657 0.0 0.12361844 0.0 
0.0 0.29774234 0.22299951 0.0 0.0 0.0 
0.103096634 0.22505137 0.17174071 0.0 0.0 0.0 
0.10371019 0.17165005 0.15400374 0.0 0.0 0.0 
0.17773625 0.19330494 0.2597739 0.0 0.0 0.0 
0.32831258 0.22835676 0.32207948 0.0 0.0 0.0 
0.7526855 0.0 0.23467198 0.0 0.0 0.0 
1.6703978 0.0 0.0 0.0 0.050444875 0.0 
1.9097247 0.4246182 0.0 0.0 1.1938262 0.13050535 
0.51772785 1.3775932 0.0 0.0 2.0351903 0.016273215 
0.0 1.5510828 0.09819057 0.0 2.0814989 0.09639022 
0.0 0.9428852 1.2278886 0.10121581 1.4835087 0.35881042 
0.0 0.3103589 1.0302548 0.16350189 0.62030613 0.28147614 
0.0 0.013788915 0.3072118 0.0590444 0.05593877 0.11636861 
0.0 0.0 0.0 0.0 0.0 0.07698792 
0.0 0.0 0.0 0.0 0.0 0.07698792 
0.0 0.0 0.0 0.0 0.0 0.07698792 
0.0 0.0 0.0 0.0 0.0 0.07698792 
0.0 0.0 0.0 0.0 0.0 0.07698792 
0.0 0.0 0.0 0.0 0.0 0.07698792 
0.0 0.0 0.0 0.0 0.0 0.07698792 
0.0033656657 0.0 0.0 0.009026649 0.0 0.12119809 
0.39492574 0.0 0.0 0.06536766 0.0 0.24847148 
0.9430993 0.0 0.0 0.16991654 0.0 0.16298933 
0.99626154 0.19980472 0.33616447 0.20268562 0.0 0.0 
0.5266977 0.92052144 1.0514613 0.044299867 0.2587485 0.0 
0.15654232 1.256879 1.5008574 0.0 0.54067206 0.0 
0.08562516 1.321763 1.4831088 0.0 0.47686908 0.0 
0.025161073 1.1784779 1.1828773 0.0 0.39011064 0.0 
0.041251734 0.9120442 0.8901895 0.0 0.16896969 0.0 
0.23423862 0.6695153 0.78704286 0.0 0.0 0.0 
0.49232674 0.6372902 0.63938415 0.0 0.0 0.0 
0.56439227 0.7592315 0.70556146 0.0 0.0 0.0 
0.63536686 0.5904649 0.7121553 0.0 0.0 0.0 
1.0970299 0.4007215 0.42945737 0.0 0.1123267 0.0 
1.4059057 0.47566485 0.0 0.0 1.0242248 0.0 
0.90344846 0.99235314 0.0 0.064930014 2.149212 0.3097868 
0.0 1.4756285 0.0 0.20066595 2.4155414 0.42036903 
0.0 1.291086 0.48771363 0.30164003 1.8066539 0.5338959 
0.0 0.46398956 1.0175327 0.14626902 1.0561913 0.49070218 
0.0 0.09900775 0.6873103 0.08214 0.33179292 0.23929107 
0.0 0.0 0.08810153 0.0 0.004672099 0.09697123 
0.0 0.0 0.0 0.0 0.0 0.07698792 
0.0 0.0 0.0 0.0 0.0 0.07698792 
0.0 0.0 0.0 0.0 0.0 0.07698792 
0.0 0.0 0.0 0.0 0.0 0.07698792 
0.0 0.0 0.0 0.0 0.0 0.07698792 
0.0 0.0 0.0 0.0 0.0 0.07698792 
0.0 0.0 0.0 0.0 0.0 0.07698792 
0.038766325 0.0 0.0 0.05089296 0.0 0.18760188 
0.45944142 0.0 0.0 0.2933767 0.04136313 0.56958055 
0.8412153 0.0 0.0 0.686662 0.2683468 0.8575843 
0.8472215 0.0 0.0 1.0806966 0.6400586 0.847895 
0.5765506 0.457119 0.32392487 1.3973708 0.8325259 0.66889584 
0.3090538 0.83984756 1.3903306 1.4159329 0.91846985 0.2739688 
0.19818527 1.0636042 1.7430718 1.0137044 0.8820051 0.0 
0.09175785 1.2499257 1.6703417 0.43416542 0.76511043 0.0 
0.18491757 1.0855569 1.4310279 0.0 0.6769415 0.0 
0.34972668 0.94974357 1.240538 0.0 0.5752654 0.0 
0.4100708 0.8359239 0.9458618 0.0 0.5803945 0.0 
0.4163527 0.6984248 0.8980804 0.0 0.6681642 0.0 
0.515256 0.73718685 0.8733058 0.16401888 0.8671615 0.0 
0.67611563 0.68631905 0.4533701 0.4935356 1.4871132 0.08432863 
0.6535393 0.8479877 0.0 0.7484885 2.328189 0.72293437 
0.0 1.1990374 0.0 0.7149395 2.6092741 0.89788204 
0.0 1.0811218 0.0 0.58527297 2.0364 0.7916467 
0.0 0.5921559 0.63925123 0.33564955 1.2081449 0.6669326 
0.0 0.23004399 0.79364663 0.16237766 0.51820785 0.42389795 
0.0 0.0 0.3578831 0.0 0.13662165 0.15108743 
0.0 0.0 0.0 0.0 0.0 0.08026021 
0.0 0.0 0.0 0.0 0.0 0.07698792 
0.0 0.0 0.0 0.0 0.0 0.07698792 
0.0 0.0 0.0 0.0 0.0 0.07698792 
0.0 0.0 0.0 0.0 0.0 0.07698792 
0.0 0.0 0.0 0.0 0.0 0.07698792 
0.0 0.0 0.0 0.0 0.0 0.07698792 
0.0 0.0 0.0 0.0 0.0 0.07698792 
0.027527794 0.0 0.0 0.04002294 5.8852136e-05 0.18402559 
0.47037202 0.0 0.0 0.1372492 0.33196077 0.68280745 
0.8541899 0.0 0.0 0.21366766 0.8166521 1.2285764 
0.78950083 0.0 0.0 0.49782142 1.0536894 1.4318764 
0.5395528 0.11029743 0.0 0.91619384 1.1915337 1.5811818 
0.2919704 0.32061574 0.0 1.3837138 1.2374408 1.5771549 
0.294223 0.47336766 0.5149675 1.6601952 1.1991067 1.3192546 
0.21825677 0.74113184 0.9398519 1.7500755 1.179129 0.9171981 
0.123074144 0.9004688 1.1788466 1.810218 1.247392 0.7182876 
0.057187587 0.76354504 1.0198594 1.6572151 1.4308807 0.7209119 
0.091855824 0.7054231 0.7218901 1.5794761 1.4701124 0.7188197 
0.28864366 0.71217656 0.52218765 1.6292725 1.450369 0.86648923 
0.28908074 0.871946 0.56938004 1.7171254 1.7352264 1.1079183 
0.25898424 0.9246877 0.11754992 1.45905 2.2284756 1.2985537 
0.038306504 1.0821493 0.0 1.1556201 2.2849824 1.3619714 
0.0 0.9227492 0.0 0.60433555 1.9075893 1.2021368 
0.0 0.6543176 0.047922865 0.2477186 1.0683508 0.8904039 
0.0 0.17229022 0.48097885 0.025975231 0.50695 0.5497464 
0.0 0.0 0.4567564 0.001922519 0.200083 0.27280942 
0.0 0.0 0.10747542 0.0 0.010296274 0.099703304 
0.0 0.0 0.0 0.0 0.0 0.07698792 
0.0 0.0 0.0 0.0 0.0 0.07698792 
0.0 0.0 0.0 0.0 0.0 0.07698792 
0.0 0.0 0.0 0.0 0.0 0.07698792 
0.0 0.0 0.0 0.0 0.0 0.07698792 
0.0 0.0 0.0 0.0 0.0 0.07698792 
0.0 0.0 0.0 0.0 0.0 0.07698792 
0.0 0.0 0.0 0.0 0.0 0.07698792 
0.0017567053 0.0 0.0 0.0 0.055358123 0.12649801 
0.31422406 0.0 0.0 0.0 0.4131716 0.39205408 
0.59716386 0.0 0.0 0.0 0.7636952 0.7628482 
0.64572316 0.0 0.0 0.0 1.065465 1.0979588 
0.63048947 0.0 0.0 0.0 1.292214 1.466054 
0.56667244 0.0 0.0 0.0 1.4456377 1.7359409 
0.45017272 0.0 0.0 0.2827661 1.4654588 1.7790465 
0.18816102 0.18113765 0.0 0.7789211 1.4485534 1.6293111 
0.072077066 0.42604885 0.0 1.0865062 1.5868601 1.6301308 
0.17677185 0.5801305 0.0 1.2623225 1.6144434 1.6914845 
0.2273876 0.6243128 0.0 1.2016093 1.5284294 1.6027362 
0.31591594 0.5499473 0.0 1.0516845 1.6425701 1.6620688 
0.25538108 0.5454842 0.0 0.8439828 1.8064951 1.6859798 
0.093860775 0.5701733 0.0 0.520414 1.7870511 1.51777 
0.0 0.3974959 0.0 0.03196582 1.5404037 1.2761056 
0.0 0.20202282 0.0 0.0 0.9559863 0.85376734 
0.0 0.0 0.0 0.0 0.5070513 0.5039706 
0.0 0.0 0.09187814 0.0 0.27241203 0.29560256 
0.0 0.0 0.063672036 0.0 0.08974449 0.12847462 
0.0 0.0 0.0 0.0 0.0 0.080869004 
0.0 0.0 0.0 0.0 0.0 0.07698792 
0.0 0.0 0.0 0.0 0.0 0.07698792 
0.0 0.0 0.0 0.0 0.0 0.07698792 
0.0 0.0 0.0 0.0 0.0 0.07698792 
0.0 0.0 0.0 0.0 0.0 0.07698792 
0.0 0.0 0.0 0.0 0.0 0.07698792 
0.0 0.0 0.0 0.0 0.0 0.07698792 
0.0 0.0 0.0 0.0 0.0 0.07698792 
0.0 0.0 0.0 0.0 0.0 0.07698792 
0.01745531 0.0 0.0 0.0 0.0795401 0.1370189 
0.17876732 0.0 0.0 0.0 0.3179299 0.2540217 
0.28398296 0.0 0.0 0.0 0.5137158 0.36291373 
0.3729151 0.0 0.0 0.0 0.73674923 0.5555135 
0.4716177 0.0 0.0 0.0 0.991525 0.8716149 
0.4982478 0.0 0.0 0.0 1.2313263 1.1579466 
0.3854494 0.0 0.0 0.0 1.3377304 1.2877576 
0.27185798 0.0 0.0 0.0 1.3396616 1.3242657 
0.2237938 0.0 0.0 0.0 1.336758 1.3604519 
0.20479262 0.0 0.0 0.0 1.354825 1.3325937 
0.1873638 0.0 0.0 0.0 1.3169911 1.2680252 
0.12607816 0.0 0.0 0.0 1.2657174 1.1543946 
0.0 0.0 0.0 0.0 1.0270864 0.86966616 
0.0 0.0 0.0 0.0 0.6170649 0.56927836 
0.0 0.0 0.0 0.0 0.35655728 0.34771708 
0.0 0.0 0.012947597 0.0 0.1824659 0.20929112 
0.0 0.0 0.031179518 0.0 0.029213082 0.097393245 
0.0 0.0 0.0 0.0 0.0 0.07797722 
0.0 0.0 0.0 0.0 0.0 0.07698792 
0.0 0.0 0.0 0.0 0.0 0.07698792 
0.0 0.0 0.0 0.0 0.0 0.07698792 
0.0 0.0 0.0 0.0 0.0 0.07698792 
0.0 0.0 0.0 0.0 0.0 0.07698792 
0.0 0.0 0.0 0.0 0.0 0.07698792 
0.0 0.0 0.0 0.0 0.0 0.07698792 
0.0 0.0 0.0 0.0 0.0 0.07698792 
0.0 0.0 0.0 0.0 0.0 0.07698792 
0.0 0.0 0.0 0.0 0.0 0.07698792 
0.0 0.0 0.0 0.0 0.0 0.07698792 
0.0 0.0 0.0 0.0 0.0 0.07698792 
0.0 0.0 0.0 0.0 0.0 0.090603195 
0.010220639 0.0 0.0 0.0 0.06610659 0.13418771 
0.15420017 0.0 0.0 0.0 0.2985961 0.2393995 
0.25114787 0.0 0.0 0.0 0.48937377 0.33928192 
0.19335568 0.0 0.0 0.0 0.55442494 0.36781722 
0.09952414 0.0 0.0 0.0 0.5926184 0.40637976 
0.061158568 0.0 0.0 0.0 0.68028015 0.43803275 
0.048276067 0.0 0.0 0.0 0.6338106 0.41040254 
0.037734933 0.0 0.0 0.0 0.57930654 0.37444788 
0.0 0.0 0.0 0.0 0.43784386 0.33430958 
0.0 0.0 0.0 0.0 0.2587083 0.22441542 
0.0 0.0 0.0 0.0 0.13490234 0.1810131 
0.0 0.0 0.0 0.0 0.045814577 0.1193953 
0.0 0.0 0.0 0.0 0.0 0.081021205 
0.0 0.0 0.0 0.0 0.0 0.07698792 
0.0 0.0 0.0 0.0 0.0 0.07698792 
0.0 0.0 0.0 0.0 0.0 0.07698792 
0.0 0.0 0.0 0.0 0.0 0.07698792 
0.0 0.0 0.0 0.0 0.0 0.07698792 
0.0 0.0 0.0 0.0 0.0 0.07698792 
0.0 0.0 0.0 0.0 0.0 0.07698792 
0.0 0.0 0.0 0.0 0.0 0.07698792 
0.0 0.0 0.0 0.0 0.0 0.07698792 
0.0 0.0 0.0 0.0 0.0 0.07698792 
0.0 0.0 0.0 0.0 0.0 0.07698792 
0.0 0.0 0.0 0.0 0.0 0.07698792 
0.0 0.0 0.0 0.0 0.0 0.07698792 
0.0 0.0 0.0 0.0 0.0 0.07698792 
0.0 0.0 0.0 0.0 0.0 0.07698792 
0.0 0.0 0.0 0.0 0.0 0.07698792 
0.0 0.0 0.0 0.0 0.0 0.07698792 
0.0 0.0 0.0 0.0 0.0 0.07698792 
0.0 0.0 0.0 0.0 0.0 0.07698792 
0.0 0.0 0.0 0.0 0.0 0.07698792 
0.0 0.0 0.0 0.0 0.0 0.07698792 
0.0 0.0 0.0 0.0 0.0 0.07698792 
0.0 0.0 0.0 0.0 0.0 0.07698792 
0.0 0.0 0.0 0.0 0.0 0.07698792 
0.0 0.0 0.0 0.0 0.0 0.07698792 
0.0 0.0 0.0 0.0 0.0 0.07698792 
0.0 0.0 0.0 0.0 0.0 0.07698792 
0.0 0.0 0.0 0.0 0.0 0.07698792 
0.0 0.0 0.0 0.0 0.0 0.07698792 
0.0 0.0 0.0 0.0 0.0 0.07698792 
0.0 0.0 0.0 0.0 0.0 0.07698792 
0.0 0.0 0.0 0.0 0.0 0.07698792 
0.0 0.0 0.0 0.0 0.0 0.07698792 
0.0 0.0 0.0 0.0 0.0 0.07698792 
0.0 0.0 0.0 0.0 0.0 0.07698792 

