0.0 0.0 0.0 0.0 0.0 0.07698792 
0.0 0.0 0.0 0.0 0.0 0.07698792 
0.0 0.0 0.0 0.0 0.0 0.07698792 
0.0 0.0 0.0 0.0 0.0 0.07698792 
0.0 0.0 0.0 0.0 0.0 0.07698792 
0.0 0.0 0.0 0.0 0.0 0.07698792 
0.0 0.0 0.0 0.0 0.0 0.07698792 
0.0 0.0 0.0 0.0 0.0 0.07698792 
0.0 0.0 0.0 0.0 0.0 0.07698792 
0.0 0.0 0.0 0.0 0.0 0.07698792 
0.0 0.0 0.0 0.0 0.0 0.07698792 
0.0 0.0 0.0 0.0 0.0 0.07698792 
0.0 0.0 0.0 0.0 0.0 0.07698792 
0.0 0.0 0.0 0.0 0.0 0.07698792 
0.0 0.0 0.0 0.0 0.0 0.07698792 
0.0 0.0 0.0 0.0 0.0 0.07698792 
0.0 0.0 0.0 0.0 0.0 0.07698792 
0.0 0.0 0.0 0.0 0.0 0.07698792 
0.0 0.0 0.0 0.0 0.0 0.07698792 
0.0 0.0 0.0 0.0 0.0 0.07698792 
0.0 0.0 0.0 0.0 0.0 0.07698792 
0.0 0.0 0.0 0.0 0.0 0.07698792 
0.0 0.0 0.0 0.0 0.0 0.07698792 
0.0 0.0 0.0 0.0 0.0 0.07698792 
0.0 0.0 0.0 0.0 0.0 0.07698792 
0.0 0.0 0.0 0.0 0.0 0.07698792 
0.0 0.0 0.0 0.0 0.0 0.07698792 
0.0 0.0 0.0 0.0 0.0 0.07698792 
0.0 0.0 0.0 0.0 0.0 0.07698792 
0.0 0.0 0.0 0.0 0.0 0.07698792 
0.0 0.0 0.0 0.0 0.0 0.07698792 
0.0 0.0 0.0 0.0 0.0 0.07698792 
0.0 0.0 0.0 0.0 0.0 0.07698792 
0.0 0.0 0.0 0.0 0.0 0.07698792 
0.0 0.0 0.0 0.0 0.0 0.07698792 
0.0 0.0 0.0 0.0 0.0 0.07698792 
0.0 0.0 0.0 0.0 0.0 0.07698792 
0.0 0.0 0.0 0.0 0.0 0.07698792 
0.0 0.0 0.0 0.0 0.0 0.07698792 
0.0 0.0 0.0 0.0 0.0 0.07698792 
0.0 0.0 0.0 0.0 0.0 0.07698792 
0.0 0.0 0.0 0.0 0.0 0.07698792 
0.0 0.0 0.0 0.0 0.0 0.07698792 
0.0 0.0 0.0 0.0 0.0 0.07698792 
0.0 0.0 0.0 0.0 0.0 0.07698792 
0.0 0.0 0.0 0.0 0.0 0.07698792 
0.0 0.0 0.0 0.0 0.0 0.07698792 
0.0 0.0 0.0 0.0 0.0 0.07698792 
0.0 0.0 0.0 0.0 0.0 0.07698792 
0.0 0.0 0.0 0.0 0.0 0.07698792 
0.0 0.0 0.0 0.0 0.0 0.07698792 
0.0 0.0 0.0 0.0 0.0 0.07698792 
0.0 0.0 0.0 0.0 0.0 0.07698792 
0.0 0.0 0.0 0.0 0.0 0.07698792 
0.0 0.0 0.0 0.0 0.0 0.07698792 
0.0 0.0 0.0 0.0 0.0 0.07698792 
0.0 0.0 0.0 0.0 0.0 0.07698792 
0.0 0.0 0.0 0.0 0.0 0.07698792 
0.0 0.0 0.0 0.0 0.0 0.07698792 
0.0 0.0 0.0 0.0 0.0 0.07698792 
0.0 0.0 0.0 0.0 0.0 0.07698792 
0.0 0.0 0.0 0.0 0.0 0.07698792 
0.0 0.0 0.0 0.0 0.0 0.07698792 
0.0 0.0 0.0 0.0 0.0 0.07698792 
0.0 0.0 0.0 0.0 0.0 0.07698792 
0.0 0.0 0.0 0.0 0.0 0.07698792 
0.0 0.0 0.0 0.0 0.0 0.07698792 
0.0 0.0 0.0 0.0 0.0 0.07698792 
0.0 0.0 0.0 0.0 0.0 0.07698792 
0.0 0.0 0.0 0.0 0.0 0.07698792 
0.0 0.0 0.0 0.0 0.0 0.07698792 
0.0 0.0 0.0 0.0 0.0 0.07698792 
0.0 0.0 0.0 0.0 0.0 0.07698792 
0.0 0.0 0.0 0.0 0.0 0.07698792 
0.0 0.0 0.0 0.0 0.0 0.07698792 
0.0 0.0 0.0 0.0 0.0 0.07698792 
0.0 0.0 0.0 0.0 0.0 0.07698792 
0.0 0.0 0.0 0.0 0.0 0.07698792 
0.0 0.0 0.0 0.0 0.0 0.07698792 
0.0 0.0 0.0 0.0 0.0 0.07698792 
0.0 0.0 0.0 0.0 0.0 0.07698792 
0.0 0.0 0.0 0.0 0.0 0.07698792 
0.0 0.0 0.0 0.0 0.0 0.07698792 
0.0 0.0 0.0 0.0 0.0 0.07698792 
0.0 0.0 0.0 0.0 0.0 0.07698792 
0.0 0.0 0.0 0.0 0.0 0.07698792 
0.0 0.0 0.0 0.0 0.0 0.07698792 
0.0 0.0 0.0 0.0 0.0 0.07698792 
0.0 0.0 0.0 0.0 0.0 0.07698792 
0.0 0.0 0.0 0.0 0.0 0.07698792 
0.0 0.0 0.0 0.0 0.0 0.07698792 
0.0 0.0 0.0 0.0 0.0 0.07698792 
0.0 0.0 0.0 0.0 0.0 0.07698792 
0.0 0.0 0.0 0.0 0.0 0.07698792 
0.0 0.0 0.0 0.0 0.0 0.07698792 
0.0 0.0 0.0 0.0 0.0 0.07698792 
0.0 0.0 0.0 0.0 0.0 0.07698792 
0.0 0.0 0.0 0.0 0.0 0.07698792 
0.0 0.0 0.0 0.0 0.0 0.07698792 
0.0 0.0 0.0 0.0 0.0 0.07698792 
0.0 0.0 0.0 0.0 0.0 0.07698792 
0.0 0.0 0.0 0.0 0.0 0.07698792 
0.0 0.0 0.0 0.0 0.0 0.07698792 
0.0 0.0 0.0 0.0 0.0 0.07698792 
0.0 0.0 0.0 0.0 0.0 0.07698792 
0.0 0.0 0.0 0.0 0.0 0.07698792 
0.0 0.0 0.0 0.0 0.0 0.07698792 
0.0 0.0 0.0 0.0 0.0 0.07698792 
0.0 0.0 0.0 0.0 0.0 0.07698792 
0.0 0.0 0.0 0.0 0.0 0.07698792 
0.0 0.0 0.0 0.0 0.0 0.07698792 
0.0 0.0 0.0 0.0 0.0 0.07698792 
0.0 0.0 0.0 0.0 0.0 0.07698792 
0.0 0.0 0.0 0.0 0.0 0.07698792 
0.0 0.0 0.0 0.0 0.0 0.07698792 
0.0 0.0 0.0 0.0 0.0 0.07698792 
0.0 0.0 0.0 0.0 0.0 0.07698792 
0.0 0.0 0.0 0.0 0.0 0.07698792 
0.0 0.0 0.0 0.0 0.0 0.07698792 
0.0 0.0 0.0 0.0 0.0 0.07698792 
0.0 0.0 0.02925951 0.0 0.0 0.036260504 
0.18247053 0.0010454422 0.16117078 0.0 0.0 0.0 
0.21597335 0.1884203 0.15417242 0.0 0.0 0.0 
0.07481572 0.2742573 0.19349357 0.0 0.0 0.0 
0.069499224 0.31906655 0.24820149 0.0 0.0 0.0 
0.014418371 0.318909 0.11116176 0.0 0.00078226253 0.0 
0.0 0.16871184 0.04628133 0.0 0.0 0.0 
0.0 0.1227878 0.018560909 0.0 0.0 0.0 
0.0 0.052337434 0.0 0.0 0.00032665953 0.020710181 
0.0 0.0 0.0 0.0 0.0 0.07698792 
0.0 0.0 0.0 0.0 0.0 0.07698792 
0.0 0.0 0.0 0.0 0.0 0.07698792 
0.0 0.0 0.0 0.0 0.0 0.07698792 
0.0 0.0 0.0 0.0 0.0 0.07698792 
0.0 0.0 0.0 0.0 0.0 0.07698792 
0.0 0.0 0.0 0.0 0.0 0.07698792 
0.0 0.0 0.0 0.0 0.0 0.07698792 
0.0 0.0 0.0 0.0 0.0 0.07698792 
0.0 0.0 0.0 0.0 0.0 0.07698792 
0.0 0.0 0.0 0.0 0.0 0.07698792 
0.0 0.0 0.0 0.0 0.0 0.07698792 
0.0 0.0 0.0 0.0 0.0 0.07698792 
0.0 0.0 0.0 0.0 0.0 0.07698792 
0.0 0.0 0.0 0.0 0.0 0.07698792 
0.0 0.0 0.0 0.0 0.0 0.07698792 
0.0 0.0 0.0 0.0 0.0 0.07698792 
0.0 0.0 0.0 0.0 0.0 0.07698792 
0.0 0.0 0.0316687 0.0 0.0 0.035129186 
0.27062145 0.0 0.13624829 0.0 0.0 0.0 
0.6125449 0.0 0.24304721 0.0 0.0 0.0 
0.76358455 0.33332554 0.48964828 0.0 0.0 0.0 
0.5732233 0.8709968 0.71405554 0.0 0.0 0.0 
0.20167944 0.9750264 0.9150346 0.0 0.042041514 0.0 
0.11260824 0.8089752 0.8471647 0.0 0.20158572 0.0 
0.18647075 0.8103629 0.67643815 0.0 0.0479489 0.0 
0.11616817 0.7660739 0.7009402 0.0 0.0 0.0 
0.14418878 0.56803304 0.559798 0.0 0.0 0.0 
0.27207464 0.5688969 0.46545994 0.0 0.0 0.0 
0.17147753 0.5730301 0.3725853 0.0 0.0 0.0 
0.07052235 0.47923878 0.3184178 0.0 0.0 0.0 
0.12459099 0.3599261 0.32143065 0.0 0.0 0.0 
0.23851877 0.2994566 0.3287342 0.0 0.0 0.0 
0.25667045 0.35519812 0.31060982 0.0 0.0 0.0 
0.09011038 0.45858052 0.2295013 0.0 0.0 0.0 
0.0 0.39120468 0.18169987 0.0 0.03196721 0.0 
0.0 0.25879213 0.07829023 0.0 0.070481345 0.0 
0.0 0.07983224 0.0 0.0 0.026989039 0.0 
0.0 0.0 0.0 0.0 0.0 0.07698792 
0.0 0.0 0.0 0.0 0.0 0.07698792 
0.0 0.0 0.0 0.0 0.0 0.07698792 
0.0 0.0 0.0 0.0 0.0 0.07698792 
0.0 0.0 0.0 0.0 0.0 0.07698792 
0.0 0.0 0.0 0.0 0.0 0.07698792 
0.0 0.0 0.0 0.0 0.0 0.07698792 
0.0 0.0 0.0 0.0 0.0 0.050967626 
0.22734383 0.0 0.11699427 0.0 0.0 0.0 
0.7518746 0.0 0.135292 0.0 0.0 0.0 
1.2111156 0.0 0.22086582 0.0 0.0 0.0 
1.1337357 0.56733507 0.58897287 0.0 0.0 0.0 
0.5964249 1.1162236 1.1209885 0.0 0.46032986 0.0 
0.35226643 1.2274146 1.5099461 0.0 0.68385875 0.0 
0.29855704 1.356001 1.5771704 0.0 0.5806013 0.0 
0.2699738 1.2429984 1.3394176 0.0 0.46956506 0.0 
0.2754096 1.2077626 1.3511534 0.0 0.35146245 0.0 
0.28913325 1.132725 1.1749706 0.0 0.2939851 0.0 
0.30716 0.98503345 1.0170529 0.0 0.23664172 0.0 
0.27119786 1.0555978 1.0459703 0.0 0.29387698 0.0 
0.1325096 1.0268643 0.9855405 0.0 0.27489904 0.0 
0.16155544 0.8224252 0.9092078 0.0 0.08970773 0.0 
0.42018074 0.64744943 0.7826053 0.0 0.0 0.0 
0.53053576 0.8293988 0.6770025 0.0 0.0 0.0 
0.09011255 1.0770749 0.7003797 0.0 0.36340037 0.0 
0.0 0.95379394 0.62911147 0.0 0.5770071 0.0 
0.0 0.4773524 0.40075025 0.0 0.52207595 0.0 
0.0 0.04395395 0.04937335 0.0 0.22677307 0.0 
0.0 0.0 0.0 0.0 0.0 0.07698792 
0.0 0.0 0.0 0.0 0.0 0.07698792 
0.0 0.0 0.0 0.0 0.0 0.07698792 
0.0 0.0 0.0 0.0 0.0 0.07698792 
0.0 0.0 0.0 0.0 0.0 0.07698792 
0.0 0.0 0.0 0.0 0.0 0.07698792 
0.0 0.0 0.0 0.0 0.0 0.07698792 
0.023284338 0.0 0.0 0.0 0.0 0.06376088 
0.53469336 0.0 0.020375632 0.0 0.0 0.07593802 
1.3130534 0.0 0.0056527033 0.0 0.0 0.0696748 
1.6036744 0.1775307 0.0 0.16661116 0.13154016 0.0 
1.0080414 0.9967397 0.19034773 0.35070354 0.94286877 0.0 
0.2785527 1.3052202 0.83706486 0.6054897 1.521017 0.0 
0.20306218 1.2673796 1.3569605 1.0855731 1.5827619 0.16977742 
0.03219071 1.1606178 1.4318899 1.2363737 1.5247445 0.23312627 
0.03512399 0.9656394 1.2953411 1.2405717 1.3202993 0.09108198 
0.113920525 0.8394456 1.3608719 1.1665007 1.2532521 0.05986869 
0.014367402 0.87950754 1.3467027 1.1469861 1.3035537 0.0 
0.0 0.7591213 1.0977978 1.0298067 1.2302595 0.0 
0.0 0.79966676 1.1857892 0.9784045 1.1025192 0.0 
0.0 0.72871536 1.1206169 0.8094294 0.968998 0.0 
0.21943846 0.6605674 1.0493479 0.6959126 0.7535267 0.0 
0.31879207 0.5090961 0.8450714 0.569622 0.7972842 0.0 
0.12883201 0.6583898 0.7648295 0.63353956 1.0421889 0.0 
0.0 1.0529577 0.99120736 0.6825712 1.2471651 0.0 
0.0 1.0203774 1.1452972 0.56494635 1.1148676 0.0 
0.0 0.5532184 0.8460901 0.2565706 0.70511967 0.0 
0.0 0.1430506 0.25295672 0.073741324 0.17861085 0.03206824 
0.0 0.0 0.0 0.0 0.0 0.07698792 
0.0 0.0 0.0 0.0 0.0 0.07698792 
0.0 0.0 0.0 0.0 0.0 0.07698792 
0.0 0.0 0.0 0.0 0.0 0.07698792 
0.0 0.0 0.0 0.0 0.0 0.07698792 
0.0 0.0 0.0 0.0 0.0 0.07698792 
0.0 0.0 0.0 0.0 0.0 0.07698792 
0.10699326 0.0 0.0 0.0 0.0 0.13916495 
0.8591165 0.0 0.0 0.12638971 0.0 0.3722567 
1.698663 0.0 0.0 0.2867121 0.10992463 0.5032793 
1.686506 0.37661013 0.0 0.42645532 1.1942185 0.5345653 
0.8096037 1.2562321 0.0 0.68886334 2.0500243 0.6497841 
0.0 1.4179597 0.029427 0.8740167 2.5105202 0.9616279 
0.0 1.0026413 0.27399802 1.2107826 2.4814186 1.4910665 
0.0 0.71497256 0.24806687 1.5476242 2.0354002 1.5735619 
0.05823794 0.79518336 0.2752554 1.72968 1.6422871 1.5071735 
0.10137747 0.84771425 0.4323451 1.8143319 1.5882101 1.5083427 
0.0 0.97209424 0.6277371 1.8454525 1.5551885 1.3496499 
0.0 0.95788157 0.49292243 1.7865163 1.4426886 1.3264592 
0.0 0.81684005 0.58565944 1.6604079 1.2852563 1.2450972 
0.025026172 0.63271314 0.616252 1.6317098 1.1476195 1.0240412 
0.17749967 0.56978434 0.6161112 1.726708 1.1297122 1.0488822 
0.22061488 0.64198077 0.4670583 1.7593315 1.3150542 1.1317539 
0.006452799 0.94109416 0.35027725 1.6007979 1.3878185 0.9849976 
0.0 1.1605992 0.6755201 1.3028424 1.1871663 0.63551706 
0.0 0.9871126 1.1671964 0.9922275 0.7417789 0.45188776 
0.0 0.56807977 1.0307746 0.56303066 0.33539405 0.2853598 
0.0 0.21085306 0.38349092 0.20391707 0.025403906 0.11200419 
0.0 0.0 0.0 0.0 0.0 0.07698792 
0.0 0.0 0.0 0.0 0.0 0.07698792 
0.0 0.0 0.0 0.0 0.0 0.07698792 
0.0 0.0 0.0 0.0 0.0 0.07698792 
0.0 0.0 0.0 0.0 0.0 0.07698792 
0.0 0.0 0.0 0.0 0.0 0.07698792 
0.0 0.0 0.0 0.0 0.0 0.07698792 
0.20140567 0.0 0.0 0.047467135 0.0 0.22387871 
1.1830742 0.0 0.0 0.1485736 0.0 0.69063896 
1.9081686 0.0 0.0 0.18882881 0.68989456 0.90051126 
1.4461942 0.6214126 0.0 0.29561615 1.7035253 0.738944 
0.36825994 1.4343485 0.0 0.2969624 2.4644854 0.8084666 
0.0 1.2416795 0.0 0.17380731 2.7832067 1.2155578 
0.0 0.5371872 0.0 0.03401416 2.3540945 1.5922151 
0.1874198 0.24936363 0.0 0.045725938 1.800324 1.6944797 
0.26301283 0.10959642 0.0 0.0 1.6547637 1.7052977 
0.26108333 0.12083331 0.0 0.013067543 1.6551377 1.7287438 
0.14659896 0.16695932 0.0 0.0 1.5972404 1.601959 
0.13234276 0.14015135 0.0 0.018885516 1.463674 1.5525856 
0.15228525 0.15172067 0.0 0.084147885 1.2849661 1.5627468 
0.09789842 0.19920135 0.0 0.16952224 1.1929082 1.4757001 
0.23353979 0.17965645 0.0 0.23322318 1.2708179 1.5479255 
0.3022261 0.26972544 0.0 0.3240916 1.3865844 1.589422 
0.094549894 0.4235794 0.0 0.18831147 1.2740005 1.3493214 
0.0 0.43097696 0.0 0.07916942 0.8375525 0.9045808 
0.0 0.19485193 0.2351323 0.018154599 0.47418997 0.60006076 
0.0 0.056550696 0.52465916 0.049358968 0.23906861 0.33111054 
0.0 0.0 0.21644354 0.0070334943 0.033393834 0.11529291 
0.0 0.0 0.0 0.0 0.0 0.07698792 
0.0 0.0 0.0 0.0 0.0 0.07698792 
0.0 0.0 0.0 0.0 0.0 0.07698792 
0.0 0.0 0.0 0.0 0.0 0.07698792 
0.0 0.0 0.0 0.0 0.0 0.07698792 
0.0 0.0 0.0 0.0 0.0 0.07698792 
0.0 0.0 0.0 0.0 0.0 0.07321686 
0.37523827 0.0 0.0 0.0 0.0 0.23066655 
1.5193241 0.0 0.0 0.0 0.14936286 0.6981604 
1.997283 0.0 0.0 0.0 0.87045455 0.72310436 
1.3104048 0.93494415 0.0 0.0 1.5796909 0.14547324 
0.12781379 1.5457598 0.0 0.0 2.1399639 0.0 
0.0 1.0927505 0.621991 0.0 1.9942564 0.0 
0.032295696 0.49041814 0.078150816 0.0 1.4303476 0.0 
0.27461416 0.06664516 0.0 0.0 1.1179315 0.0 
0.3828306 0.0 0.0 0.0 1.0339822 0.0 
0.23275068 0.0 0.0 0.0 1.1645155 0.11175446 
0.058587164 0.0 0.0 0.0 1.0563346 0.24504416 
0.05079925 0.0 0.0 0.0 1.0347512 0.433209 
0.16321433 0.0 0.0 0.0 1.0594972 0.6851917 
0.18415359 0.0 0.0 0.0 1.0217966 0.7210384 
0.24511254 0.0 0.0 0.0 1.0330807 0.7725151 
0.1824941 0.0 0.0 0.0 1.0689162 0.7972606 
0.0 0.0 0.0 0.0 0.8473651 0.6460443 
0.0 0.0 0.0 0.0 0.49760017 0.41942745 
0.0 0.0 0.0 0.0 0.2924579 0.30669633 
0.0 0.0 0.088512935 0.0 0.13359556 0.16911003 
0.0 0.0 0.0038304403 0.0 0.0 0.08482619 
0.0 0.0 0.0 0.0 0.0 0.07698792 
0.0 0.0 0.0 0.0 0.0 0.07698792 
0.0 0.0 0.0 0.0 0.0 0.07698792 
0.0 0.0 0.0 0.0 0.0 0.07698792 
0.0 0.0 0.0 0.0 0.0 0.07698792 
0.0 0.0 0.0 0.0 0.0 0.07698792 
0.0 0.0 0.013593368 0.0 0.0 0.044049915 
0.60448205 0.0 0.0 0.0 0.0 0.18182626 
1.7305729 0.0 0.0 0.0 0.14619559 0.5738933 
2.0297022 0.049887173 0.0 0.0 0.84012234 0.39490184 
1.1555367 1.0595254 0.0 0.0 1.3242642 0.0 
0.102910474 1.5197842 0.6977266 0.0 1.5299526 0.0 
0.0 1.3074511 1.6735206 0.0 1.183191 0.0 
0.0 1.0034505 1.4765651 0.0 0.78930867 0.0 
0.25507903 0.7528045 0.86009955 0.0 0.51196873 0.0 
0.34400094 0.88951 0.7655589 0.0 0.36939386 0.0 
0.13152984 0.92521393 0.6683116 0.0 0.546604 0.0 
0.0 0.8865124 0.44312793 0.0 0.5188886 0.0 
0.0 0.51990414 0.2950286 0.0 0.5260126 0.0 
0.0 0.17508736 0.0 0.0 0.41866282 0.0 
0.0 0.0 0.0 0.0 0.2140661 0.035962053 
0.0 0.0 0.0 0.0 0.14158785 0.15890388 
0.0 0.0 0.0 0.0 0.14742325 0.17799181 
0.0 0.0 0.0 0.0 0.07847723 0.14616136 
0.0 0.0 0.0 0.0 0.026617412 0.11713005 
0.0 0.0 0.0 0.0 0.0 0.11033114 
0.0 0.0 0.0 0.0 0.0 0.080792904 
0.0 0.0 0.0 0.0 0.0 0.07698792 
0.0 0.0 0.0 0.0 0.0 0.07698792 
0.0 0.0 0.0 0.0 0.0 0.07698792 
0.0 0.0 0.0 0.0 0.0 0.07698792 
0.0 0.0 0.0 0.0 0.0 0.07698792 
0.0 0.0 0.0 0.0 0.0 0.07698792 
0.0 0.0 0.0 0.0 0.0 0.07698792 
0.026777267 0.0 0.0 0.0 0.0 0.09410313 
0.8192638 0.0 0.0 0.02188835 0.0 0.41356564 
1.908869 0.0 0.0 0.057105448 0.2989606 0.69693315 
1.9173763 0.1216864 0.0 0.008102004 1.0501744 0.44054607 
0.91247386 1.008333 0.0 0.06564814 1.4369072 0.0 
0.0038215443 1.306572 1.0575663 0.12080203 1.7317005 0.0 
0.0 1.1483887 1.8989834 0.43432054 1.5829365 0.0 
0.076831356 0.9706723 1.8484564 0.44538748 1.1981874 0.0 
0.39329785 1.0124995 1.4750749 0.35538033 0.8685619 0.0 
0.39464992 1.1038238 1.4843236 0.0664704 0.77164936 0.0 
0.1905039 1.451073 1.719666 0.0 0.7727684 0.0 
0.0 1.6137639 1.5882972 0.0 0.872327 0.0 
0.0 1.4439653 1.2893554 0.0 0.8005122 0.0 
0.0 0.8575923 0.7618848 0.0 0.6104915 0.0 
0.0 0.32152423 0.2183362 0.0 0.32968122 0.0 
0.0 0.1010208 0.00019650906 0.0 0.05870722 0.0 
0.0 0.007447942 0.0 0.0 0.0 0.062397398 
0.0 0.0 0.0 0.0 0.0 0.07698792 
0.0 0.0 0.0 0.0 0.0 0.07698792 
0.0 0.0 0.0 0.0 0.0 0.07698792 
0.0 0.0 0.0 0.0 0.0 0.07698792 
0.0 0.0 0.0 0.0 0.0 0.07698792 
0.0 0.0 0.0 0.0 0.0 0.07698792 
0.0 0.0 0.0 0.0 0.0 0.07698792 
0.0 0.0 0.0 0.0 0.0 0.07698792 
0.0 0.0 0.0 0.0 0.0 0.07698792 
0.0 0.0 0.0 0.0 0.0 0.07698792 
0.0 0.0 0.0 0.0 0.0 0.07698792 
0.06965856 0.0 0.0 0.048291665 0.0 0.19850427 
0.7882746 0.0 0.0 0.31498393 0.08732487 0.76973444 
1.53389 0.0 0.0 0.5684895 0.8248296 1.3127756 
1.4445224 0.014299839 0.0 0.9839428 1.4461366 1.4214029 
0.7503487 0.7869609 0.0 1.3193902 1.9091215 1.4937253 
0.0 1.1305909 0.3833475 1.4752038 2.2202885 1.3838432 
0.0 0.9176621 0.9330938 1.6216036 2.0446627 1.3012376 
0.0 0.7395342 0.7866224 1.71433 1.6724111 1.2641726 
0.33450785 0.75312614 0.7666811 1.8132585 1.3381773 1.145272 
0.5814115 0.8613214 0.85524046 1.6803579 1.2758181 0.9158354 
0.30481294 1.2339275 1.4950275 1.4308629 1.1443415 0.3148607 
0.0 1.5443951 1.9729434 0.87789285 1.1002673 0.0 
0.0 1.7526767 2.1061506 0.2375927 1.045525 0.0 
0.0 1.582433 1.6810933 0.0 0.88279957 0.0 
0.0 0.9208433 0.873712 0.0 0.65325755 0.0 
0.0 0.34933418 0.25388727 0.0 0.3355033 0.0 
0.0 0.10214316 0.004636973 0.0 0.0639528 0.0 
0.0 0.0096924165 0.0 0.0 0.0 0.06031304 
0.0 0.0 0.0 0.0 0.0 0.07698792 
0.0 0.0 0.0 0.0 0.0 0.07698792 
0.0 0.0 0.0 0.0 0.0 0.07698792 
0.0 0.0 0.0 0.0 0.0 0.07698792 
0.0 0.0 0.0 0.0 0.0 0.07698792 
0.0 0.0 0.0 0.0 0.0 0.07698792 
0.0 0.0 0.0 0.0 0.0 0.07698792 
0.0 0.0 0.0 0.0 0.0 0.07698792 
0.0 0.0 0.0 0.0 0.0 0.07698792 
0.0 0.0 0.0 0.0 0.0 0.07698792 
0.07893737 0.0 0.0 0.08197806 0.0 0.23943308 
0.7425285 0.0 0.0 0.17551145 0.5375868 0.9148056 
1.1368 0.0 0.0 0.34840775 1.1799443 1.4317884 
0.952059 0.0 0.0 0.5581298 1.7044916 1.5903928 
0.5517203 0.24480814 0.0 0.7573555 2.0974576 1.827604 
0.07245104 0.48175693 0.0 0.8711465 2.1528065 1.8244755 
0.10117714 0.3877133 0.0 0.6915267 2.0053122 1.8446577 
0.32740235 0.1719558 0.0 0.6923399 1.843672 1.9077063 
0.47351652 0.01494298 0.0 0.7854674 1.7308205 1.9019039 
0.5348426 0.11959955 0.0 1.1049463 1.7154725 1.8645694 
0.5073435 0.23355374 0.0 1.3082707 1.4494725 1.6396282 
0.46456277 0.7767189 0.8322762 1.2866694 1.0995945 0.8914573 
0.15164953 1.3353021 1.8202384 0.9288778 0.9480749 0.0 
0.0 1.7977921 2.2030818 0.38798833 0.9544931 0.0 
0.0 1.6017002 1.7318572 0.0 0.9615417 0.0 
0.0 0.8631225 0.8545525 0.0 0.69011086 0.0 
0.0 0.2681134 0.20202741 0.0 0.33498552 0.0 
0.0 0.027633555 0.0 0.0 0.024182398 0.03108367 
0.0 0.0 0.0 0.0 0.0 0.07698792 
0.0 0.0 0.0 0.0 0.0 0.07698792 
0.0 0.0 0.0 0.0 0.0 0.07698792 
0.0 0.0 0.0 0.0 0.0 0.07698792 
0.0 0.0 0.0 0.0 0.0 0.07698792 
0.0 0.0 0.0 0.0 0.0 0.07698792 
0.0 0.0 0.0 0.0 0.0 0.07698792 
0.0 0.0 0.0 0.0 0.0 0.07698792 
0.0 0.0 0.0 0.0 0.0 0.07698792 
0.0 0.0 0.0 0.0 0.0 0.07698792 
0.058789223 0.0 0.0 0.0 0.08977476 0.18736425 
0.49084908 0.0 0.0 0.0 0.518766 0.62674814 
0.73208404 0.0 0.0 0.0 0.9533852 1.0692137 
0.6079549 0.0 0.0 0.0 1.2002088 1.3030143 
0.37682223 0.0 0.0 0.0 1.3341434 1.4162982 
0.076930076 0.0 0.0 0.0 1.3215836 1.3129253 
0.11299017 0.0 0.0 0.0 1.2756798 1.2319436 
0.26040334 0.0 0.0 0.0 1.2994454 1.2965124 
0.50532126 0.0 0.0 0.0 1.4387983 1.5362113 
0.5722058 0.0 0.0 0.0 1.5531136 1.7232611 
0.7389741 0.0 0.0 0.018974341 1.4385939 1.9183738 
0.7715986 0.0 0.0 0.47092524 1.1406722 1.7026508 
0.7122632 0.31344116 0.13152939 0.69835013 0.9401351 0.8555715 
0.12464124 1.2960861 1.6026124 0.70839614 1.0038767 0.0 
0.0 1.822821 2.1551661 0.31397417 1.167832 0.0 
0.0 1.4422814 1.6646472 0.0 1.0173767 0.0 
0.0 0.5965343 0.67214257 0.0 0.62241656 0.0 
0.0 0.12534676 0.065372355 0.0 0.15677892 0.0 
0.0 0.0 0.0 0.0 0.0 0.07698792 
0.0 0.0 0.0 0.0 0.0 0.07698792 
0.0 0.0 0.0 0.0 0.0 0.07698792 
0.0 0.0 0.0 0.0 0.0 0.07698792 
0.0 0.0 0.0 0.0 0.0 0.07698792 
0.0 0.0 0.0 0.0 0.0 0.07698792 
0.0 0.0 0.0 0.0 0.0 0.07698792 
0.0 0.0 0.0 0.0 0.0 0.07698792 
0.0 0.0 0.0075767785 0.0 0.0 0.04644236 
0.060818493 0.02716776 0.03423448 0.0 0.0 0.0 
0.04461789 0.058430374 0.0 0.0 0.0 0.0 
0.18273464 0.0 0.0 0.0 0.3140537 0.024794407 
0.31971744 0.0 0.0 0.0 0.60572535 0.21756057 
0.27045697 0.0 0.0 0.0 0.7074861 0.37238827 
0.117590114 0.0 0.0 0.0 0.64106244 0.44604585 
0.0 0.0 0.0 0.0 0.62238526 0.40892327 
0.0 0.0 0.0 0.0 0.5689908 0.3877792 
0.10009733 0.0 0.0 0.0 0.6749061 0.40609798 
0.31157917 0.0 0.0 0.0 0.77775973 0.54607165 
0.4101168 0.0 0.0 0.0 0.9380689 0.74200374 
0.7164039 0.0 0.0 0.0 1.2008995 1.2738676 
1.1067805 0.0 0.0 0.0 1.0934912 1.6172285 
1.2522397 0.0 0.0 0.088518634 0.9306458 1.2569768 
0.6963905 0.59243554 0.043248974 0.32214656 0.9941979 0.41290116 
0.0 1.7544892 1.7378911 0.47701776 1.2331946 0.0 
0.0 1.7385492 2.1099298 0.082286835 1.3155206 0.0 
0.0 1.0268303 1.3195153 0.0 0.8418986 0.0 
0.0 0.18587711 0.24570268 0.0 0.36328414 0.0 
0.0 0.0 0.0 0.0 0.0 0.07698792 
0.0 0.0 0.0 0.0 0.0 0.07698792 
0.0 0.0 0.0 0.0 0.0 0.07698792 
0.0 0.0 0.0 0.0 0.0 0.07698792 
0.0 0.0 0.0 0.0 0.0 0.07698792 
0.0 0.0 0.0 0.0 0.0 0.07698792 
0.0 0.0 0.0 0.0 0.0 0.07698792 
0.0 0.0 0.0 0.0 0.0 0.07698792 
0.14229505 0.0 0.11067859 0.0 0.0 0.0015334934 
0.43188065 0.05627331 0.16211113 0.0 0.0 0.0 
0.22543353 0.3171276 0.16329005 0.0 0.0 0.0 
0.0 0.52440363 0.28711563 0.0 0.026919078 0.0 
0.0 0.39058745 0.23162204 0.0 0.25398186 0.0 
0.0 0.07719817 0.015646346 0.0 0.13069496 0.0 
0.0 0.0 0.0 0.0 0.0 0.07334029 
0.0 0.0 0.0 0.0 0.0 0.07698792 
0.0 0.0 0.0 0.0 0.0 0.07698792 
0.0 0.0 0.0 0.0 0.0 0.07698792 
0.0 0.0 0.0 0.0 0.03259862 0.116596 
0.09773633 0.0 0.0 0.0 0.19654445 0.1966903 
0.4575377 0.0 0.0 0.0 0.47681203 0.49605665 
1.2770951 0.0 0.0 0.0 0.64215887 1.1111844 
1.7665493 0.0 0.0 0.0 0.76258636 1.2117484 
1.2846711 0.2318234 0.0 0.0 1.0899078 0.60294825 
0.0 1.4723053 0.70972955 0.19839461 1.4684992 0.0 
0.0 1.6489229 1.9526216 0.2534738 1.6371412 0.0 
0.0 1.061896 1.7093984 0.17159043 1.0832382 0.0 
0.0 0.24704564 0.5054165 0.0 0.4123485 0.0 
0.0 0.0 0.0 0.0 0.0 0.07698792 
0.0 0.0 0.0 0.0 0.0 0.07698792 
0.0 0.0 0.0 0.0 0.0 0.07698792 
0.0 0.0 0.0 0.0 0.0 0.07698792 
0.0 0.0 0.0 0.0 0.0 0.07698792 
0.0 0.0 0.0 0.0 0.0 0.07698792 
0.0 0.0 0.0 0.0 0.0 0.07698792 
0.0 0.0 0.0 0.0 0.0 0.07698792 
0.32200772 0.0 0.0 0.0 0.0 0.14049636 
0.8640085 0.0 0.20736176 0.0 0.0 0.0 
0.6673895 0.5040998 0.34100777 0.0 0.0 0.0 
0.0 1.1097972 0.805231 0.0 0.2505352 0.0 
0.0 0.85894114 0.8264796 0.0 0.6278555 0.0 
0.0 0.38398132 0.3163321 0.0 0.33181396 0.0 
0.0 0.12755284 0.010630161 0.0 0.03073043 0.0 
0.0 0.03267044 0.0 0.0 0.0 0.03089583 
0.0 0.0 0.0 0.0 0.0 0.07073484 
0.0 0.0 0.0 0.0 0.0 0.07698792 
0.0 0.0 0.0 0.0 0.0 0.07698792 
0.0 0.0 0.0 0.0 0.0 0.06831449 
0.30797184 0.0 0.0 0.0 0.0 0.095729135 
1.3620198 0.0 0.0 0.0 0.14059138 0.4973381 
2.04202 0.0 0.0 0.0 0.6427437 0.7061332 
1.4882257 0.54618317 0.0 0.0 1.3018427 0.29716963 
0.0 1.4924221 0.0 0.0 1.8443575 0.0 
0.0 1.5677366 1.5961679 0.1861398 1.7638608 0.0 
0.0 0.8170836 1.6627983 0.19261019 1.1094804 0.11101101 
0.0 0.30501312 0.69036484 0.17569399 0.2800736 0.05872485 
0.0 0.0 0.0 0.0 0.0 0.07698792 
0.0 0.0 0.0 0.0 0.0 0.07698792 
0.0 0.0 0.0 0.0 0.0 0.07698792 
0.0 0.0 0.0 0.0 0.0 0.07698792 
0.0 0.0 0.0 0.0 0.0 0.07698792 
0.0 0.0 0.0 0.0 0.0 0.07698792 
0.0 0.0 0.0 0.0 0.0 0.07698792 
0.0 0.0 0.0 0.0 0.0 0.07698792 
0.4537422 0.0 0.0 0.1653768 0.0 0.479833 
1.003792 0.0 0.0 0.34972444 0.0 0.4975353 
0.9023434 0.3334598 0.10840548 0.38201326 0.15039876 0.0 
0.3000409 1.2151614 1.1436926 0.19108033 0.37856242 0.0 
0.0 1.4957453 1.7843541 0.0 0.60099155 0.0 
0.0 1.0594592 1.1920855 0.0 0.4330171 0.0 
0.0 0.67826223 0.5287595 0.0 0.18427904 0.0 
0.0 0.45291543 0.34978953 0.0 0.047403406 0.0 
0.04698141 0.36998332 0.20726049 0.0 0.0 0.0 
0.0677558 0.21215446 0.23261905 0.0 0.0 0.0 
0.22103235 0.23892954 0.25424328 0.0 0.0 0.0 
0.23940328 0.25024277 0.2936688 0.0 0.0 0.0 
0.5645548 0.08393324 0.27244622 0.0 0.0 0.0 
1.506326 0.0 0.0 0.0 0.0 0.0 
2.057717 0.11961517 0.0 0.0 0.89029336 0.21144941 
1.0600941 1.0961097 0.0 0.0 1.8161482 0.15288754 
0.0 1.6038465 0.0 0.0 2.1858509 0.113986254 
0.0 1.2752795 1.2229344 0.12430437 1.7009636 0.2583146 
0.0 0.49213746 1.2798952 0.15272565 0.941706 0.31173438 
0.0 0.09589258 0.58236706 0.11855273 0.19138993 0.11864972 
0.0 0.0 0.0 0.0 0.0 0.07698792 
0.0 0.0 0.0 0.0 0.0 0.07698792 
0.0 0.0 0.0 0.0 0.0 0.07698792 
0.0 0.0 0.0 0.0 0.0 0.07698792 
0.0 0.0 0.0 0.0 0.0 0.07698792 
0.0 0.0 0.0 0.0 0.0 0.07698792 
0.0 0.0 0.0 0.0 0.0 0.07698792 
0.0 0.0 0.0 0.0 0.0 0.07698792 
0.52498466 0.0 0.0 0.23204781 0.17291392 0.6684164 
0.99885327 0.0 0.0 0.4022133 0.463963 1.1271038 
0.7476048 0.0 0.0 0.678715 0.49057195 0.70227855 
0.64110607 0.43862215 0.36588073 0.81884426 0.4885474 0.32160378 
0.1826177 1.2169456 1.927521 0.7045194 0.56855595 0.0 
0.017556801 1.3013065 1.8709642 0.0 0.50675994 0.0 
0.0895281 1.2310106 1.4092876 0.0 0.41044572 0.0 
0.09768613 1.0485861 1.0752362 0.0 0.2909715 0.0 
0.14733574 0.93440264 0.9675287 0.0 0.16836384 0.0 
0.2758664 0.7278461 0.7298347 0.0 0.0 0.0 
0.4810922 0.6812032 0.7700479 0.0 0.0 0.0 
0.63813686 0.6486415 0.6810411 0.0 0.0 0.0 
0.98280996 0.53044087 0.6115383 0.0 0.0 0.0 
1.4048393 0.36342865 0.20390028 0.0 0.7285395 0.0 
1.36185 0.77323425 0.0 0.0 1.8147782 0.036697436 
0.22009936 1.3974593 0.0 0.0 2.4477894 0.1823078 
0.0 1.5502019 0.2242603 0.15425026 2.1410658 0.23977757 
0.0 0.7669117 1.0577503 0.118296094 1.4428021 0.42537677 
0.0 0.266943 0.945258 0.16728663 0.58878636 0.32413715 
0.0 0.0 0.30941123 0.027528334 0.08040111 0.11358124 
0.0 0.0 0.0 0.0 0.0 0.07698792 
0.0 0.0 0.0 0.0 0.0 0.07698792 
0.0 0.0 0.0 0.0 0.0 0.07698792 
0.0 0.0 0.0 0.0 0.0 0.07698792 
0.0 0.0 0.0 0.0 0.0 0.07698792 
0.0 0.0 0.0 0.0 0.0 0.07698792 
0.0 0.0 0.0 0.0 0.0 0.07698792 
0.0 0.0 0.0 0.0 0.0 0.07698792 
0.4259009 0.0 0.0 0.0 0.38699916 0.53622055 
0.9157664 0.0 0.0 0.0995286 0.8087754 1.182842 
0.7249763 0.0 0.0 0.25270167 0.7685766 1.2493019 
0.5964014 0.0 0.0 0.6712375 0.8107087 1.2451429 
0.31495374 0.09872035 0.56612283 1.2226543 0.8994731 0.9314294 
0.30482972 0.6733768 1.4151831 1.4344884 0.8151281 0.3893692 
0.24190417 0.9848481 1.6370375 1.0172554 0.76566863 0.0 
0.3114688 1.0290704 1.5693773 0.45055217 0.69796795 0.0 
0.3173507 1.1321884 1.5027627 0.0 0.59419817 0.0 
0.47538942 0.99062556 1.3215137 0.0 0.55609816 0.0 
0.5911917 0.9401972 1.1963607 0.0 0.58577013 0.0 
0.5532244 0.9516833 1.0169711 0.0 0.7790702 0.0 
0.6784421 0.83488923 0.75348127 0.13859236 1.2014428 0.0 
0.86773133 0.9126027 0.22246814 0.458472 1.9995254 0.32842445 
0.43471104 1.2575942 0.0 0.63372725 2.5802848 0.74015313 
0.0 1.4355277 0.0 0.5811032 2.3719895 0.7620485 
0.0 1.1381509 0.6253676 0.42421794 1.6580588 0.6788263 
0.0 0.40079 0.91838413 0.16201563 0.8977759 0.50833666 
0.0 0.07225384 0.62766355 0.08711735 0.25347617 0.24271715 
0.0 0.0 0.089587204 0.0 0.0 0.09744791 
0.0 0.0 0.0 0.0 0.0 0.07698792 
0.0 0.0 0.0 0.0 0.0 0.07698792 
0.0 0.0 0.0 0.0 0.0 0.07698792 
0.0 0.0 0.0 0.0 0.0 0.07698792 
0.0 0.0 0.0 0.0 0.0 0.07698792 
0.0 0.0 0.0 0.0 0.0 0.07698792 
0.0 0.0 0.0 0.0 0.0 0.07698792 
0.0 0.0 0.0 0.0 0.0 0.07698792 
0.17382357 0.0 0.0 0.0 0.27528486 0.2609356 
0.5553043 0.0 0.0 0.0 0.63573873 0.661716 
0.7410572 0.0 0.0 0.0 0.87495834 1.1053936 
0.7092498 0.0 0.0 0.0 1.0263108 1.4799707 
0.48403305 0.0 0.0 0.4451779 1.1338896 1.5567868 
0.28893155 0.058704235 0.0 1.1532727 1.1600477 1.4870667 
0.31708843 0.37068242 0.35531706 1.5759369 1.1023213 1.2847893 
0.3712053 0.64482576 0.826063 1.830026 1.0717872 1.0484638 
0.3504169 0.75643927 0.9423452 1.7390932 1.2300092 0.8217416 
0.26907 0.89344615 1.0251054 1.807182 1.338245 0.75219375 
0.32149774 0.8337184 0.79578674 1.686904 1.5879943 0.8670844 
0.2155397 1.0398628 0.7111552 1.7296734 1.7921742 0.9278874 
0.3527733 0.9650647 0.35311854 1.5486721 2.2333794 1.2202911 
0.1750496 1.0613936 0.041093245 1.4314709 2.5469902 1.452071 
0.0 0.97759604 0.0 0.8731802 2.4507477 1.2358181 
0.0 0.878735 0.0 0.5460998 1.705267 0.96738064 
0.0 0.39402503 0.5515549 0.20323735 0.98534054 0.6824989 
0.0 0.13038781 0.6198631 0.06324358 0.42604718 0.38447207 
0.0 0.0 0.23809123 0.0 0.11503805 0.1489664 
0.0 0.0 0.0 0.0 0.0 0.080945104 
0.0 0.0 0.0 0.0 0.0 0.07698792 
0.0 0.0 0.0 0.0 0.0 0.07698792 
0.0 0.0 0.0 0.0 0.0 0.07698792 
0.0 0.0 0.0 0.0 0.0 0.07698792 
0.0 0.0 0.0 0.0 0.0 0.07698792 
0.0 0.0 0.0 0.0 0.0 0.07698792 
0.0 0.0 0.0 0.0 0.0 0.07698792 
0.0 0.0 0.0 0.0 0.0 0.07698792 
0.0 0.0 0.0 0.0 0.0 0.10050522 
0.14641437 0.0 0.0 0.0 0.27423322 0.22692923 
0.43237966 0.0 0.0 0.0 0.56669027 0.5081421 
0.6296115 0.0 0.0 0.0 0.8981798 0.8855363 
0.6556018 0.0 0.0 0.0 1.1502379 1.3026834 
0.59520155 0.0 0.0 0.0 1.3261737 1.5854847 
0.49699497 0.0 0.0 0.21588571 1.3898655 1.7459052 
0.39084828 0.0 0.0 0.69072455 1.5308151 1.7791774 
0.27764848 0.31418744 0.0 1.1893746 1.6193029 1.722156 
0.26913902 0.39171013 0.0 1.3628503 1.8299587 1.7652702 
0.37535742 0.5665473 0.0 1.4712459 1.9597026 1.8399684 
0.23910761 0.63654435 0.0 1.2901123 2.0088592 1.7045281 
0.17336068 0.68510526 0.0 1.0049648 2.0680516 1.7149451 
0.008594714 0.6119455 0.0 0.56756395 1.9574457 1.6359026 
0.0 0.53592116 0.0 0.1658006 1.4204078 1.2021582 
0.0 0.25659773 0.0 0.0 0.75715566 0.7677972 
0.0 0.016541217 0.33113778 0.0 0.39412266 0.47578427 
0.0 0.0 0.3455805 0.0 0.15708522 0.21523343 
0.0 0.0 0.034112684 0.0 0.0 0.08933532 
0.0 0.0 0.0 0.0 0.0 0.07698792 
0.0 0.0 0.0 0.0 0.0 0.07698792 
0.0 0.0 0.0 0.0 0.0 0.07698792 
0.0 0.0 0.0 0.0 0.0 0.07698792 
0.0 0.0 0.0 0.0 0.0 0.07698792 
0.0 0.0 0.0 0.0 0.0 0.07698792 
0.0 0.0 0.0 0.0 0.0 0.07698792 
0.0 0.0 0.0 0.0 0.0 0.07698792 
0.0 0.0 0.0 0.0 0.0 0.07698792 
0.0 0.0 0.0 0.0 0.0 0.07698792 
0.0 0.0 0.0 0.0 0.0 0.07698792 
0.050699398 0.0 0.0 0.0 0.13074899 0.15929845 
0.23240957 0.0 0.0 0.0 0.39681378 0.2932728 
0.3857503 0.0 0.0 0.0 0.61857635 0.47233474 
0.49039787 0.0 0.0 0.0 0.88733494 0.76236564 
0.51062566 0.0 0.0 0.0 1.1497896 1.0879581 
0.5157942 0.0 0.0 0.0 1.3601152 1.3729978 
0.3918054 0.0 0.0 0.0 1.4442245 1.5112846 
0.35386562 0.0 0.0 0.0 1.474635 1.6101618 
0.27360567 0.0 0.0 0.0 1.4960048 1.6396847 
0.14848647 0.0 0.0 0.0 1.4549807 1.4926412 
0.0 0.0 0.0 0.0 1.2897724 1.2368872 
0.0 0.0 0.0 0.0 1.0692977 0.96109253 
0.0 0.0 0.0 0.0 0.65624076 0.5862356 
0.0 0.0 0.0 0.0 0.36453807 0.35197544 
0.0 0.0 0.0069564283 0.0 0.19592588 0.2225019 
0.0 0.0 0.034597844 0.0 0.041244898 0.10271423 
0.0 0.0 0.0 0.0 0.0 0.07850991 
0.0 0.0 0.0 0.0 0.0 0.07698792 
0.0 0.0 0.0 0.0 0.0 0.07698792 
0.0 0.0 0.0 0.0 0.0 0.07698792 
0.0 0.0 0.0 0.0 0.0 0.07698792 
0.0 0.0 0.0 0.0 0.0 0.07698792 
0.0 0.0 0.0 0.0 0.0 0.07698792 
0.0 0.0 0.0 0.0 0.0 0.07698792 
0.0 0.0 0.0 0.0 0.0 0.07698792 
0.0 0.0 0.0 0.0 0.0 0.07698792 
0.0 0.0 0.0 0.0 0.0 0.07698792 
0.0 0.0 0.0 0.0 0.0 0.07698792 
0.0 0.0 0.0 0.0 0.0 0.07698792 
0.0 0.0 0.0 0.0 0.0 0.07698792 
0.006373942 0.0 0.0 0.0 0.06247047 0.12959239 
0.112867326 0.0 0.0 0.0 0.21766685 0.20875645 
0.2350072 0.0 0.0 0.0 0.46217284 0.31108016 
0.29571298 0.0 0.0 0.0 0.6487542 0.4267518 
0.22965375 0.0 0.0 0.0 0.7756433 0.4726295 
0.19101095 0.0 0.0 0.0 0.86655694 0.5384954 
0.1334259 0.0 0.0 0.0 0.9180397 0.5471809 
0.015945219 0.0 0.0 0.0 0.7369694 0.4685393 
0.0 0.0 0.0 0.0 0.54331267 0.36662582 
0.0 0.0 0.0 0.0 0.33545908 0.28641355 
0.0 0.0 0.0 0.0 0.16265307 0.16832241 
0.0 0.0 0.0 0.0 0.03776409 0.12486249 
0.0 0.0 0.0 0.0 0.0 0.0820866 
0.0 0.0 0.0 0.0 0.0 0.07698792 
0.0 0.0 0.0 0.0 0.0 0.07698792 
0.0 0.0 0.0 0.0 0.0 0.07698792 
0.0 0.0 0.0 0.0 0.0 0.07698792 
0.0 0.0 0.0 0.0 0.0 0.07698792 
0.0 0.0 0.0 0.0 0.0 0.07698792 
0.0 0.0 0.0 0.0 0.0 0.07698792 
0.0 0.0 0.0 0.0 0.0 0.07698792 
0.0 0.0 0.0 0.0 0.0 0.07698792 
0.0 0.0 0.0 0.0 0.0 0.07698792 
0.0 0.0 0.0 0.0 0.0 0.07698792 
0.0 0.0 0.0 0.0 0.0 0.07698792 
0.0 0.0 0.0 0.0 0.0 0.07698792 
0.0 0.0 0.0 0.0 0.0 0.07698792 
0.0 0.0 0.0 0.0 0.0 0.07698792 
0.0 0.0 0.0 0.0 0.0 0.07698792 
0.0 0.0 0.0 0.0 0.0 0.07698792 
0.0 0.0 0.0 0.0 0.0 0.07698792 
0.0 0.0 0.0 0.0 0.0 0.07698792 
0.0 0.0 0.0 0.0 0.0 0.07698792 
0.0 0.0 0.0 0.0 0.0 0.07698792 
0.0 0.0 0.0 0.0 0.0 0.07698792 
0.0 0.0 0.0 0.0 0.0 0.07698792 
0.0 0.0 0.0 0.0 0.0 0.07698792 
0.0 0.0 0.0 0.0 0.0 0.07698792 
0.0 0.0 0.0 0.0 0.0 0.07698792 
0.0 0.0 0.0 0.0 0.0 0.07698792 
0.0 0.0 0.0 0.0 0.0 0.07698792 
0.0 0.0 0.0 0.0 0.0 0.07698792 
0.0 0.0 0.0 0.0 0.0 0.07698792 
0.0 0.0 0.0 0.0 0.0 0.07698792 
0.0 0.0 0.0 0.0 0.0 0.07698792 
0.0 0.0 0.0 0.0 0.0 0.07698792 
0.0 0.0 0.0 0.0 0.0 0.07698792 
0.0 0.0 0.0 0.0 0.0 0.07698792 
0.0 0.0 0.0 0.0 0.0 0.07698792 
0.0 0.0 0.0 0.0 0.0 0.07698792 
0.0 0.0 0.0 0.0 0.0 0.07698792 
0.0 0.0 0.0 0.0 0.0 0.07698792 
0.0 0.0 0.0 0.0 0.0 0.07698792 
0.0 0.0 0.0 0.0 0.0 0.07698792 
0.0 0.0 0.0 0.0 0.0 0.07698792 
0.0 0.0 0.0 0.0 0.0 0.07698792 
0.0 0.0 0.0 0.0 0.0 0.07698792 
0.0 0.0 0.0 0.0 0.0 0.07698792 
0.0 0.0 0.0 0.0 0.0 0.07698792 
0.0 0.0 0.0 0.0 0.0 0.07698792 
0.0 0.0 0.0 0.0 0.0 0.07698792 
0.0 0.0 0.0 0.0 0.0 0.07698792 
0.0 0.0 0.0 0.0 0.0 0.07698792 
0.0 0.0 0.0 0.0 0.0 0.07698792 
0.0 0.0 0.0 0.0 0.0 0.07698792 
0.0 0.0 0.0 0.0 0.0 0.07698792 
0.0 0.0 0.0 0.0 0.0 0.07698792 
0.0 0.0 0.0 0.0 0.0 0.07698792 
0.0 0.0 0.0 0.0 0.0 0.07698792 
0.0 0.0 0.0 0.0 0.0 0.07698792 
0.0 0.0 0.0 0.0 0.0 0.07698792 
0.0 0.0 0.0 0.0 0.0 0.07698792 
0.0 0.0 0.0 0.0 0.0 0.07698792 
0.0 0.0 0.0 0.0 0.0 0.07698792 
0.0 0.0 0.0 0.0 0.0 0.07698792 
0.0 0.0 0.0 0.0 0.0 0.07698792 
0.0 0.0 0.0 0.0 0.0 0.07698792 

