0.0 0.0 0.0 0.0 0.0 0.07698792 
0.0 0.0 0.0 0.0 0.0 0.07698792 
0.0 0.0 0.0 0.0 0.0 0.07698792 
0.0 0.0 0.0 0.0 0.0 0.07698792 
0.0 0.0 0.0 0.0 0.0 0.07698792 
0.0 0.0 0.0 0.0 0.0 0.07698792 
0.0 0.0 0.0 0.0 0.0 0.07698792 
0.0 0.0 0.0 0.0 0.0 0.07698792 
0.0 0.0 0.0 0.0 0.0 0.07698792 
0.0 0.0 0.0 0.0 0.0 0.07698792 
0.0 0.0 0.0 0.0 0.0 0.07698792 
0.0 0.0 0.0 0.0 0.0 0.07698792 
0.0 0.0 0.0 0.0 0.0 0.07698792 
0.0 0.0 0.0 0.0 0.0 0.07698792 
0.0 0.0 0.0 0.0 0.0 0.07698792 
0.0 0.0 0.0 0.0 0.0 0.07698792 
0.0 0.0 0.0 0.0 0.0 0.07698792 
0.0 0.0 0.0 0.0 0.0 0.07698792 
0.0 0.0 0.0 0.0 0.0 0.07698792 
0.0 0.0 0.0 0.0 0.0 0.07698792 
0.0 0.0 0.0 0.0 0.0 0.07698792 
0.0 0.0 0.0 0.0 0.0 0.07698792 
0.0 0.0 0.0 0.0 0.0 0.07698792 
0.0 0.0 0.0 0.0 0.0 0.07698792 
0.0 0.0 0.0 0.0 0.0 0.07698792 
0.0 0.0 0.0 0.0 0.0 0.07698792 
0.0 0.0 0.0 0.0 0.0 0.07698792 
0.0 0.0 0.0 0.0 0.0 0.07698792 
0.0 0.0 0.0 0.0 0.0 0.07698792 
0.0 0.0 0.0 0.0 0.0 0.07698792 
0.0 0.0 0.0 0.0 0.0 0.07698792 
0.0 0.0 0.0 0.0 0.0 0.07698792 
0.0 0.0 0.0 0.0 0.0 0.07698792 
0.0 0.0 0.0 0.0 0.0 0.07698792 
0.0 0.0 0.0 0.0 0.0 0.07698792 
0.0 0.0 0.0 0.0 0.0 0.07698792 
0.0 0.0 0.0 0.0 0.0 0.07698792 
0.0 0.0 0.0 0.0 0.0 0.07698792 
0.0 0.0 0.0 0.0 0.0 0.07698792 
0.0 0.0 0.0 0.0 0.0 0.07698792 
0.0 0.0 0.0 0.0 0.0 0.07698792 
0.0 0.0 0.0 0.0 0.0 0.07698792 
0.0 0.0 0.0 0.0 0.0 0.07698792 
0.0 0.0 0.0 0.0 0.0 0.07698792 
0.0 0.0 0.0 0.0 0.0 0.07698792 
0.0 0.0 0.0 0.0 0.0 0.07698792 
0.0 0.0 0.0 0.0 0.0 0.07698792 
0.0 0.0 0.0 0.0 0.0 0.07698792 
0.0 0.0 0.0 0.0 0.0 0.07698792 
0.0 0.0 0.0 0.0 0.0 0.07698792 
0.0 0.0 0.0 0.0 0.0 0.07698792 
0.0 0.0 0.0 0.0 0.0 0.07698792 
0.0 0.0 0.0 0.0 0.0 0.07698792 
0.0 0.0 0.0 0.0 0.0 0.07698792 
0.0 0.0 0.0 0.0 0.0 0.07698792 
0.0 0.0 0.0 0.0 0.0 0.07698792 
0.0 0.0 0.0 0.0 0.0 0.07698792 
0.0 0.0 0.0 0.0 0.0 0.07698792 
0.0 0.0 0.0 0.0 0.0 0.07698792 
0.0 0.0 0.0 0.0 0.0 0.07698792 
0.0 0.0 0.0 0.0 0.0 0.07698792 
0.0 0.0 0.0 0.0 0.0 0.07698792 
0.0 0.0 0.0 0.0 0.0 0.07698792 
0.0 0.0 0.0 0.0 0.0 0.07698792 
0.0 0.0 0.0 0.0 0.0 0.07698792 
0.0 0.0 0.0 0.0 0.0 0.07698792 
0.0 0.0 0.0 0.0 0.0 0.07698792 
0.0 0.0 0.0 0.0 0.0 0.07698792 
0.0 0.0 0.0 0.0 0.0 0.07698792 
0.0 0.0 0.0 0.0 0.0 0.07698792 
0.0 0.0 0.0 0.0 0.0 0.07698792 
0.0 0.0 0.0 0.0 0.0 0.07698792 
0.0 0.0 0.0 0.0 0.0 0.07698792 
0.0 0.0 0.0 0.0 0.0 0.07698792 
0.0 0.0 0.0 0.0 0.0 0.07698792 
0.0 0.0 0.0 0.0 0.0 0.07698792 
0.0 0.0 0.0 0.0 0.0 0.07698792 
0.0 0.0 0.0 0.0 0.0 0.07698792 
0.0 0.0 0.0 0.0 0.0 0.07698792 
0.0 0.0 0.0 0.0 0.0 0.07698792 
0.0 0.0 0.0 0.0 0.0 0.07698792 
0.0 0.0 0.0 0.0 0.0 0.07698792 
0.0 0.0 0.0 0.0 0.0 0.07698792 
0.0 0.0 0.0 0.0 0.0 0.07698792 
0.0 0.0 0.0 0.0 0.0 0.07698792 
0.0 0.0 0.0 0.0 0.0 0.07698792 
0.0 0.0 0.0 0.0 0.0 0.07698792 
0.0 0.0 0.0 0.0 0.0 0.07698792 
0.0 0.0 0.0 0.0 0.0 0.07698792 
0.0 0.0 0.0 0.0 0.0 0.07698792 
0.0 0.0 0.0 0.0 0.0 0.07698792 
0.0 0.0 0.0 0.0 0.0 0.07698792 
0.0 0.0 0.0 0.0 0.0 0.07698792 
0.0 0.0 0.0 0.0 0.0 0.07698792 
0.0 0.0 0.0 0.0 0.0 0.07698792 
0.0 0.0 0.0 0.0 0.0 0.07698792 
0.0 0.0 0.0 0.0 0.0 0.07698792 
0.0 0.0 0.0 0.0 0.0 0.07698792 
0.0 0.0 0.0 0.0 0.0 0.07698792 
0.0 0.0 0.0 0.0 0.0 0.07698792 
0.0 0.0 0.0 0.0 0.0 0.07698792 
0.0 0.0 0.0 0.0 0.0 0.07698792 
0.0 0.0 0.0 0.0 0.0 0.07698792 
0.0 0.0 0.0 0.0 0.0 0.07698792 
0.0 0.0 0.0 0.0 0.0 0.07698792 
0.0 0.0 0.0 0.0 0.0 0.07698792 
0.0 0.0 0.0 0.0 0.0 0.07698792 
0.0 0.0 0.0 0.0 0.0 0.07698792 
0.0 0.0 0.0 0.0 0.0 0.07698792 
0.0 0.0 0.0 0.0 0.0 0.07698792 
0.0 0.0 0.0 0.0 0.0 0.07698792 
0.0 0.0 0.0 0.0 0.0 0.07698792 
0.0 0.0 0.0 0.0 0.0 0.07698792 
0.0 0.0 0.0 0.0 0.0 0.07698792 
0.0 0.0 0.0 0.0 0.0 0.07698792 
0.0 0.0 0.0 0.0 0.0 0.07698792 
0.0 0.0 0.0 0.0 0.0 0.07698792 
0.0 0.0 0.0 0.0 0.0 0.07698792 
0.0 0.0 0.0 0.0 0.0 0.07698792 
0.0 0.0 0.0 0.0 0.0 0.07698792 
0.0 0.0 0.0 0.0 0.0 0.07698792 
0.0 0.0 0.0 0.0 0.0 0.07698792 
0.0 0.0 0.0 0.0 0.0 0.07698792 
0.0 0.0 0.0 0.0 0.0 0.07698792 
0.0 0.0 0.0 0.0 0.0 0.050213415 
0.0020368025 0.04357457 0.0 0.0 0.0 0.0 
0.0 0.0355997 0.0 0.0 0.0 0.0 
0.0 0.05465097 0.0 0.0 0.0 0.0 
0.0 0.03157604 0.0 0.0 0.0 0.03999052 
0.0 0.0 0.0 0.0 0.0 0.07698792 
0.0 0.0 0.0 0.0 0.0 0.07698792 
0.0 0.0 0.0 0.0 0.0 0.07698792 
0.0 0.0 0.0 0.0 0.0 0.07698792 
0.0 0.0 0.0 0.0 0.0 0.07698792 
0.0 0.0 0.0 0.0 0.0 0.07698792 
0.0 0.0 0.0 0.0 0.0 0.07698792 
0.0 0.0 0.0 0.0 0.0 0.07698792 
0.0 0.0 0.0 0.0 0.0 0.07698792 
0.0 0.0 0.0 0.0 0.0 0.07698792 
0.0 0.0 0.0 0.0 0.0 0.07698792 
0.0 0.0 0.0 0.0 0.0 0.07698792 
0.0 0.0 0.0 0.0 0.0 0.07698792 
0.0 0.0 0.0 0.0 0.0 0.07698792 
0.0 0.0 0.0 0.0 0.0 0.07698792 
0.0 0.0 0.0 0.0 0.0 0.07698792 
0.0 0.0 0.0 0.0 0.0 0.07698792 
0.0 0.0 0.0 0.0 0.0 0.07698792 
0.0 0.0 0.0 0.0 0.0 0.07698792 
0.0 0.0 0.0 0.0 0.0 0.07698792 
0.0 0.0 0.0 0.0 0.0 0.07698792 
0.0 0.0 0.0 0.0 0.0 0.072085544 
0.02911023 0.0 0.056797013 0.0 0.0 0.010931291 
0.274351 0.0 0.16974384 0.0 0.0 0.0 
0.31951874 0.22694735 0.20190316 0.0 0.0 0.0 
0.0777916 0.3965466 0.1911335 0.0 0.0 0.0 
0.0 0.46126264 0.27615044 0.0 0.043311644 0.0 
0.0 0.20632839 0.1365552 0.0 0.13668011 0.0 
0.058069766 0.0659552 0.101470135 0.0 0.0 0.0 
0.1399792 0.10912415 0.13578129 0.0 0.0 0.0 
0.11264396 0.19953671 0.15332702 0.0 0.0 0.0 
0.030447416 0.2683616 0.13544318 0.0 0.0 0.0 
0.0 0.24097802 0.092178114 0.0 0.0 0.0 
0.0 0.15451851 0.027658008 0.0 0.008051287 0.0 
0.0 0.061510794 0.0 0.0 0.0 0.0 
0.0 0.009397934 0.0 0.0 0.0 0.05654733 
0.0 0.0 0.0 0.0 0.0 0.07386138 
0.0 0.0 0.0 0.0 0.0 0.07698792 
0.0 0.0 0.0 0.0 0.0 0.07698792 
0.0 0.0 0.0 0.0 0.0 0.07698792 
0.0 0.0 0.0 0.0 0.0 0.07698792 
0.0 0.0 0.0 0.0 0.0 0.07698792 
0.0 0.0 0.0 0.0 0.0 0.07698792 
0.0 0.0 0.0 0.0 0.0 0.07698792 
0.0 0.0 0.0 0.0 0.0 0.07698792 
0.0 0.0 0.0 0.0 0.0 0.07698792 
0.0 0.0 0.0 0.0 0.0 0.07698792 
0.0 0.0 0.0 0.0 0.0 0.07698792 
0.0 0.0 0.0 0.0 0.0 0.07698792 
0.04816223 0.0 0.07651151 0.0 0.0 0.014634438 
0.37284774 0.0 0.1582672 0.0 0.0 0.0 
0.7546217 0.0 0.22293514 0.0 0.0 0.0 
0.8168945 0.4541409 0.50969815 0.0 0.0 0.0 
0.40625733 1.0100713 0.77338666 0.0 0.07894683 0.0 
0.0 1.1077037 1.0710657 0.0 0.26259157 0.0 
0.0 0.721129 0.8637224 0.0 0.19458975 0.0 
0.3854522 0.5175106 0.57591724 0.0 0.0 0.0 
0.5675134 0.58049184 0.6009556 0.0 0.0 0.0 
0.5534378 0.74946624 0.6837844 0.0 0.0 0.0 
0.35424012 0.91980916 0.8105093 0.0 0.0 0.0 
0.102413595 0.92016464 0.7721184 0.0 0.12622656 0.0 
0.0 0.77103317 0.6097083 0.0 0.15164067 0.0 
0.0 0.59513646 0.34603876 0.0 0.14961597 0.0 
0.0 0.37900946 0.17242104 0.0 0.11142169 0.0 
0.0 0.19593394 0.047010757 0.0 0.05659457 0.0 
0.0 0.05402079 0.0 0.0 0.001959052 0.019146912 
0.0 0.0 0.0 0.0 0.0 0.07698792 
0.0 0.0 0.0 0.0 0.0 0.07698792 
0.0 0.0 0.0 0.0 0.0 0.07698792 
0.0 0.0 0.0 0.0 0.0 0.07698792 
0.0 0.0 0.0 0.0 0.0 0.07698792 
0.0 0.0 0.0 0.0 0.0 0.07698792 
0.0 0.0 0.0 0.0 0.0 0.07698792 
0.0 0.0 0.0 0.0 0.0 0.07698792 
0.0 0.0 0.0 0.0 0.0 0.07698792 
0.0 0.0 0.0 0.0 0.0 0.07698792 
0.04195673 0.0 0.08467091 0.0 0.0 0.010240212 
0.3990988 0.0 0.12817585 0.0 0.0 0.0 
0.8744673 0.0 0.18843648 0.0 0.0 0.0 
1.3911679 0.0 0.22251934 0.0 0.0 0.0 
1.060991 0.86887723 0.6411571 0.0 0.20583977 0.0 
0.30636466 1.3300326 1.182019 0.0 0.65257174 0.0 
0.15420498 1.3730571 1.7094104 0.0 0.64874727 0.0 
0.30026084 1.2386739 1.577917 0.0 0.45946017 0.0 
0.53146887 0.9445017 0.98737895 0.0 0.347004 0.0 
0.4461646 0.83857906 0.88302004 0.0 0.51463234 0.0 
0.3838077 0.85565937 1.0060945 0.0 0.6042167 0.0 
0.32788593 1.0226781 1.225757 0.0 0.5771111 0.0 
0.2420758 1.1839116 1.4245169 0.0 0.52219266 0.0 
0.1576517 1.2962371 1.423182 0.0 0.46752098 0.0 
0.0 1.3110925 1.2392248 0.0 0.5150068 0.0 
0.0 1.088324 0.8069002 0.0 0.5309612 0.0 
0.0 0.6661727 0.50042886 0.0 0.41647014 0.0 
0.0 0.30256355 0.16897815 0.0 0.24318649 0.0 
0.0 0.11149368 0.0 0.0 0.042781774 0.0 
0.0 0.0 0.0 0.0 0.0 0.07698792 
0.0 0.0 0.0 0.0 0.0 0.07698792 
0.0 0.0 0.0 0.0 0.0 0.07698792 
0.0 0.0 0.0 0.0 0.0 0.07698792 
0.0 0.0 0.0 0.0 0.0 0.07698792 
0.0 0.0 0.0 0.0 0.0 0.07698792 
0.0 0.0 0.0 0.0 0.0 0.07698792 
0.0 0.0 0.0 0.0 0.0 0.0754795 
0.021643683 0.0 0.055708863 0.0 0.0 0.020025533 
0.34677655 0.0 0.12321421 0.0 0.0 0.0 
0.92825216 0.0 0.14465392 0.0 0.0 0.0 
1.5008676 0.0 0.12390015 0.0 0.0 0.0 
1.6419363 0.57174104 0.12803742 0.0 0.48180434 0.0 
0.9296697 1.2731767 0.39440405 0.03709468 1.2449586 0.0 
0.34149772 1.4978404 1.09496 0.261615 1.406617 0.0 
0.22616297 1.438909 1.6927242 0.51188505 1.3904756 0.0 
0.030657254 1.2566402 1.6907804 0.7662619 1.4794196 0.0 
0.10920066 1.0571531 1.0910999 0.98608774 1.5993588 0.008064568 
0.054318413 0.9804269 0.8090334 1.2424487 1.6922411 0.39943856 
0.008326724 0.76615477 0.6622715 1.4157182 1.5422882 0.6650812 
0.13431536 0.5920055 0.77443683 1.5271574 1.3164164 0.69534695 
0.17282394 0.72839975 1.0997705 1.5616449 1.1405529 0.47859186 
0.071195096 0.9243673 1.4345516 1.3886062 1.0363942 0.15236162 
0.0 1.1140387 1.6645806 0.8978675 0.9439377 0.0 
0.0 1.2856411 1.591778 0.28133103 0.8436997 0.0 
0.0 1.2520901 1.1904243 0.0 0.7177771 0.0 
0.0 0.77512807 0.7476842 0.0 0.5580946 0.0 
0.0 0.28166327 0.21015453 0.0 0.34407917 0.0 
0.0 0.0 0.0 0.0 0.0 0.07698792 
0.0 0.0 0.0 0.0 0.0 0.07698792 
0.0 0.0 0.0 0.0 0.0 0.07698792 
0.0 0.0 0.0 0.0 0.0 0.07698792 
0.0 0.0 0.0 0.0 0.0 0.07698792 
0.0 0.0 0.0 0.0 0.0 0.07698792 
0.0 0.0 0.0 0.0 0.0 0.07698792 
0.0180367 0.0 0.049976 0.0 0.0 0.026705518 
0.3241861 0.0 0.13808402 0.0 0.0 0.0 
0.87260836 0.0 0.12815166 0.0 0.0 0.0 
1.4395919 0.0 0.012600355 0.0 0.0 0.0 
1.5435493 0.43115342 0.0 0.028136648 0.77155304 0.0 
1.1852291 0.85371494 0.0 0.34640026 1.9121988 0.48837766 
0.64390606 1.189026 0.0 0.78552383 2.324832 0.874438 
0.13599986 1.2199458 0.18717745 1.1960926 2.264622 1.1249266 
0.0 1.1725594 0.65983766 1.4607491 2.3012402 1.3379767 
0.0 1.1497313 0.7862263 1.5831157 2.3110363 1.3238344 
0.0 1.1565702 0.43630046 1.5602443 2.147148 1.3677874 
0.0 0.9792718 0.15045413 1.4007571 1.9733905 1.5076573 
0.13355306 0.64352345 0.0 1.2381694 1.6978606 1.674473 
0.28384933 0.51939577 0.0 1.2630084 1.4553729 1.7025704 
0.16095307 0.45453942 0.0 1.3725659 1.4109632 1.5690067 
0.05698295 0.50293475 0.23535755 1.5770711 1.2792042 1.3955209 
0.008526355 0.58958423 0.7754934 1.6449432 1.0285617 1.01511 
0.0 0.87776077 1.2603701 1.5436419 0.8307468 0.4799186 
0.0 1.0807462 1.4379289 1.1589855 0.8691159 0.13396892 
0.0 1.0173646 1.2109138 0.6176166 0.7263463 0.0 
0.0 0.46292123 0.623611 0.11950086 0.4878138 0.0 
0.0 0.0 0.0 0.0 0.0 0.07698792 
0.0 0.0 0.0 0.0 0.0 0.07698792 
0.0 0.0 0.0 0.0 0.0 0.07698792 
0.0 0.0 0.0 0.0 0.0 0.07698792 
0.0 0.0 0.0 0.0 0.0 0.07698792 
0.0 0.0 0.0 0.0 0.0 0.0754795 
0.01971019 0.0 0.053299673 0.0 0.0 0.021156851 
0.32110226 0.0 0.13570231 0.0 0.0 0.0 
0.82569045 0.0 0.15486628 0.0 0.0 0.0 
1.4426277 0.0 0.08027736 0.0 0.0 0.0 
1.5688562 0.522896 0.0 0.0 0.84614515 0.0 
0.9289358 1.0117623 0.0 0.21581018 2.121252 0.40493554 
0.43620008 1.0342607 0.0 0.5540987 2.7186038 1.033911 
0.09407732 0.8887894 0.0 0.8458725 2.7980545 1.5575786 
0.025619715 0.5941047 0.0 0.92588156 2.6031735 1.7706447 
0.0063679516 0.5635945 0.0 0.8352868 2.4155004 1.8065996 
0.0 0.5289353 0.0 0.54827005 2.1802628 1.655451 
0.0 0.43636358 0.0 0.19212331 1.8237947 1.5429533 
0.0 0.17730623 0.0 0.0 1.5407448 1.4202111 
0.18849334 0.0 0.0 0.0 1.3951076 1.4041219 
0.33559573 0.0 0.0 0.0 1.4268082 1.4987333 
0.34583145 0.0 0.0 0.0 1.3931049 1.5658863 
0.33109778 0.0 0.0 0.0 1.2843812 1.6546915 
0.19563973 0.0 0.0 0.24377877 1.1272985 1.6064498 
0.0 0.1514686 0.0 0.56263405 0.9938219 1.1816356 
0.0 0.508139 0.5775676 0.8787715 0.7966479 0.608306 
0.0 0.56103706 1.0742112 0.8732514 0.58546 0.3492947 
0.0 0.5001362 0.8749076 0.55828995 0.2798134 0.21456921 
0.0 0.0 0.0 0.0 0.0 0.07698792 
0.0 0.0 0.0 0.0 0.0 0.07698792 
0.0 0.0 0.0 0.0 0.0 0.07698792 
0.0 0.0 0.0 0.0 0.0 0.07698792 
0.0 0.0 0.0 0.0 0.0 0.07698792 
0.0 0.0 0.0 0.0 0.0 0.0519716 
0.25232977 0.0 0.113375224 0.0 0.0 0.0 
0.8289909 0.0 0.124466754 0.0 0.0 0.0 
1.4224627 0.0 0.1014624 0.0 0.0 0.0 
1.7767756 0.37879193 0.0 0.0 0.56192493 0.0 
1.2754092 1.2389193 0.0 0.0 1.825924 0.0 
0.52285373 1.6864295 0.0 0.0 2.397882 0.014231309 
0.12987427 1.5751003 0.0 0.0 2.4094465 0.39901543 
0.070620865 1.0973172 0.0 0.0 2.139535 0.5352386 
0.25295988 0.74832886 0.0 0.0 1.6593846 0.56550646 
0.21470952 0.5117959 0.0 0.0 1.4301709 0.5263195 
0.0 0.32466212 0.0 0.0 1.2193562 0.32874936 
0.0 0.048513155 0.0 0.0 0.96669704 0.22912133 
0.0 0.0 0.0 0.0 0.83180314 0.2839933 
0.0 0.0 0.0 0.0 0.8338645 0.4102019 
0.17324658 0.0 0.0 0.0 0.81984204 0.47775525 
0.25039127 0.0 0.0 0.0 0.8523686 0.5411218 
0.33895624 0.0 0.0 0.0 0.9763766 0.73884124 
0.3640554 0.0 0.0 0.0 1.0654277 0.97147006 
0.14877906 0.0 0.0 0.0 0.8989265 1.0107358 
0.0 0.006071574 0.0 0.0 0.63230056 0.77293414 
0.0 0.09573741 0.08791473 0.0 0.31949058 0.52047247 
0.0 0.08011543 0.5145186 0.13077989 0.10760605 0.29103628 
0.0 0.0 0.0 0.0 0.0 0.07698792 
0.0 0.0 0.0 0.0 0.0 0.07698792 
0.0 0.0 0.0 0.0 0.0 0.07698792 
0.0 0.0 0.0 0.0 0.0 0.07698792 
0.0 0.0 0.0 0.0 0.0 0.07698792 
0.059281796 0.0 0.013531297 0.0 0.0 0.049479343 
0.6032528 0.0 0.0 0.0 0.0 0.059795164 
1.3416588 0.0 0.0 0.0 0.0 0.08140574 
1.8289173 0.10221781 0.0 0.08264205 0.3815548 0.038509347 
1.6151986 0.8910995 0.0 0.074649066 1.4436929 0.09268581 
0.9084611 1.5184973 0.034261897 0.0 2.118907 0.0 
0.4140604 1.6838533 0.5142019 0.0 2.1182423 0.0 
0.21600604 1.4336092 0.8588637 0.0 1.8959981 0.0 
0.1350463 1.0202109 0.65030366 0.0 1.5551819 0.0 
0.18791449 0.6153961 0.2516738 0.0 1.178746 0.0 
0.23722649 0.5343623 0.28601742 0.0 0.90209055 0.0 
0.008314446 0.72257966 0.48678398 0.0 0.690059 0.0 
0.0 0.7682474 0.50328517 0.0 0.62892705 0.0 
0.0 0.52239394 0.49999315 0.0 0.5313204 0.0 
0.0 0.26207307 0.2408976 0.0 0.2964237 0.0 
0.0 0.10351129 0.0 0.0 0.06640197 0.0 
0.0 0.0 0.0 0.0 0.0 0.094577655 
0.060016185 0.0 0.0 0.0 0.14135435 0.16884348 
0.20090795 0.0 0.0 0.0 0.37619293 0.27727628 
0.21523702 0.0 0.0 0.0 0.47448274 0.33427203 
0.0 0.0 0.0 0.0 0.31037483 0.26436496 
0.0 0.0 0.0 0.0 0.21808599 0.22626194 
0.0 0.0 0.0 0.0 0.14798261 0.19094013 
0.0 0.0 0.0 0.0 0.0 0.07698792 
0.0 0.0 0.0 0.0 0.0 0.07698792 
0.0 0.0 0.0 0.0 0.0 0.07698792 
0.0 0.0 0.0 0.0 0.0 0.07698792 
0.0 0.0 0.0 0.0 0.0 0.07698792 
0.08938718 0.0 0.0 0.03434516 0.0 0.18664935 
0.68881893 0.0 0.0 0.33197162 0.0 0.60137784 
1.3537042 0.0 0.0 0.6763164 0.4787812 1.0189438 
1.4641137 0.008154451 0.0 1.0224301 1.4011148 1.3132925 
1.0480459 0.498866 0.0 1.1546488 2.1639676 1.52614 
0.38143772 0.8135831 0.0 1.1304209 2.3541975 1.3509395 
0.0 0.75531083 0.49472415 1.1106043 2.1044958 0.9783575 
0.0 0.6090784 1.1316502 1.0819898 1.8760371 0.6748855 
0.0 0.6147549 1.288116 1.0861396 1.5476342 0.37139618 
0.0 0.5335442 1.0483266 0.96506107 1.2491122 0.20876922 
0.058191836 0.5552763 1.1522092 0.8416256 0.96630365 0.026693933 
0.1521128 0.830484 1.3396106 0.54946035 0.75289726 0.0 
0.0 1.2125714 1.4295629 0.07270966 0.74210876 0.0 
0.0 1.3317331 1.2146462 0.0 0.6957632 0.0 
0.0 0.8741965 0.82036984 0.0 0.6186992 0.0 
0.0 0.32453582 0.24396804 0.0 0.37162796 0.0 
0.0 0.09690717 0.0 0.0 0.056994047 0.0 
0.0 0.0 0.0 0.0 0.0 0.07698792 
0.0 0.0 0.0 0.0 0.0 0.07698792 
0.0 0.0 0.0 0.0 0.0 0.07698792 
0.0 0.0 0.0 0.0 0.0 0.07698792 
0.0 0.0 0.0 0.0 0.0 0.07698792 
0.0 0.0 0.0 0.0 0.0 0.07698792 
0.0 0.0 0.0 0.0 0.0 0.07698792 
0.0 0.0 0.0 0.0 0.0 0.07698792 
0.0 0.0 0.0 0.0 0.0 0.07698792 
0.0 0.0 0.0 0.0 0.0 0.07698792 
0.0 0.0 0.0 0.0 0.0 0.07698792 
0.14275897 0.0 0.0 0.10617564 0.008140389 0.2958975 
0.69465715 0.0 0.0 0.32517424 0.4340863 0.8427751 
1.0486472 0.0 0.0 0.5173343 1.180254 1.3264403 
0.9348901 0.0 0.0 0.75869846 1.7416619 1.6278019 
0.6884709 0.16961661 0.0 0.98101425 2.0835655 1.8893573 
0.20862073 0.45130655 0.0 1.2606186 2.0366151 1.8891265 
0.0 0.47212484 0.0 1.3638798 1.8694272 1.7389913 
0.0 0.5906024 0.30948383 1.5683638 1.6653959 1.5748761 
0.0 0.6307485 0.598113 1.7297467 1.4457245 1.3638597 
0.023841664 0.71046114 0.556205 1.8020297 1.3110465 1.2707965 
0.22317177 0.48522037 0.54670054 1.6710142 1.0058686 1.139622 
0.5452974 0.49922654 0.8740451 1.4292043 0.6579219 0.68360436 
0.51420015 1.0401902 1.392153 1.0120473 0.52494395 0.0 
0.0 1.7169603 1.7893996 0.5251764 0.7482647 0.0 
0.0 1.5624751 1.6118295 0.0 0.94246536 0.0 
0.0 0.8473184 0.877079 0.0 0.7012164 0.0 
0.0 0.123559594 0.10487809 0.0 0.34664163 0.0 
0.0 0.0 0.0 0.0 0.0 0.07698792 
0.0 0.0 0.0 0.0 0.0 0.07698792 
0.0 0.0 0.0 0.0 0.0 0.07698792 
0.0 0.0 0.0 0.0 0.0 0.07698792 
0.0 0.0 0.0 0.0 0.0 0.07698792 
0.0 0.0 0.0 0.0 0.0 0.07698792 
0.0 0.0 0.0 0.0 0.0 0.07698792 
0.0 0.0 0.0 0.0 0.0 0.07698792 
0.0 0.0 0.0 0.0 0.0 0.07698792 
0.0 0.0 0.0 0.0 0.0 0.07698792 
0.0 0.0 0.0 0.0 0.0 0.07698792 
0.11901109 0.0 0.0 0.041489948 0.08160587 0.27049607 
0.5278476 0.0 0.0 0.0 0.5800122 0.7337587 
0.6905202 0.0 0.0 0.0 0.96771497 1.1115172 
0.64053696 0.0 0.0 0.0 1.2015663 1.3810165 
0.47213215 0.05199 0.0 0.0 1.4027541 1.6223652 
0.29856908 0.0005801823 0.0 0.0 1.512225 1.6837204 
0.24542439 0.05084881 0.0 0.0 1.4672241 1.6690395 
0.17939645 0.09361684 0.0 0.0 1.3711756 1.621613 
0.14863084 0.12916115 0.0 0.0 1.3019577 1.5908546 
0.15234043 0.16771793 0.0 0.0 1.2514066 1.5615911 
0.53027177 0.0 0.0 0.043846633 0.9580905 1.6782045 
1.0294507 0.0 0.0 0.2285101 0.59693485 1.4626808 
0.8972845 0.32570314 0.0 0.35374856 0.63332963 0.61539334 
0.0 1.4232057 1.2341667 0.5551268 1.0051565 0.0 
0.0 1.7424523 1.9933897 0.40111348 1.2935265 0.0 
0.0 1.2149862 1.597074 0.109122455 1.0031519 0.0 
0.0 0.27066445 0.42148486 0.0 0.47607133 0.0 
0.0 0.0 0.0 0.0 0.0 0.07698792 
0.0 0.0 0.0 0.0 0.0 0.07698792 
0.0 0.0 0.0 0.0 0.0 0.07698792 
0.0 0.0 0.0 0.0 0.0 0.07698792 
0.0 0.0 0.0 0.0 0.0 0.07698792 
0.0 0.0 0.0 0.0 0.0 0.07698792 
0.0 0.0 0.0 0.0 0.0 0.07698792 
0.0 0.0 0.0 0.0 0.0 0.07698792 
0.0 0.0 0.0 0.0 0.0 0.07698792 
0.0 0.0 0.0 0.0 0.0 0.07698792 
0.0 0.0 0.0 0.0 0.0 0.07698792 
0.065330446 0.0 0.0 0.0 0.11085342 0.14725997 
0.25844812 0.0 0.0 0.0 0.37933344 0.26087236 
0.3054755 0.0 0.0 0.0 0.5928889 0.3395213 
0.30195147 0.0 0.0 0.0 0.7555991 0.4363316 
0.20849863 0.0 0.0 0.0 0.90582156 0.5314459 
0.15800813 0.0 0.0 0.0 0.9545136 0.56868094 
0.14345409 0.0 0.0 0.0 0.9663759 0.57061523 
0.14260355 0.0 0.0 0.0 0.96589285 0.57014143 
0.15293609 0.0 0.0 0.0 0.9567483 0.5645932 
0.25685614 0.0 0.0 0.0 0.8692909 0.49461794 
0.91510916 0.0 0.0 0.0 0.7085551 0.6993126 
1.6097543 0.0 0.0 0.0 0.79324913 0.91247505 
1.3179703 0.0042818924 0.0 0.0 1.1155834 0.5469535 
0.018854827 1.1940439 0.0 0.0 1.5563947 0.0017683059 
0.0 1.6011888 1.559276 0.38054228 1.6295692 0.0 
0.0 1.0020287 1.8046777 0.38594854 1.1221334 0.12019952 
0.0 0.35680082 0.7467577 0.22170818 0.3610562 0.0450733 
0.0 0.0 0.0 0.0 0.0 0.07698792 
0.0 0.0 0.0 0.0 0.0 0.07698792 
0.0 0.0 0.0 0.0 0.0 0.07698792 
0.0 0.0 0.0 0.0 0.0 0.07698792 
0.0 0.0 0.0 0.0 0.0 0.07698792 
0.0 0.0 0.0 0.0 0.0 0.07698792 
0.0 0.0 0.0 0.0 0.0 0.07698792 
0.0 0.0 0.0 0.0 0.0 0.07698792 
0.0 0.0 0.0 0.0 0.0 0.07698792 
0.0 0.0 0.0 0.0 0.0 0.07698792 
0.0 0.0 0.0 0.0 0.0 0.07698792 
0.09237458 0.0 0.11448749 0.0 0.0 0.0 
0.2898417 0.10791378 0.15621439 0.0 0.0 0.0 
0.08519687 0.26305175 0.10286368 0.0 0.0 0.0 
0.0 0.32633057 0.17998698 0.0 0.0 0.0 
0.0 0.24333 0.083439566 0.0 0.109910235 0.0 
0.0 0.070293225 0.0 0.0 0.01773883 0.004035294 
0.0 0.0 0.0 0.0 0.0 0.07698792 
0.0 0.0 0.0 0.0 0.0 0.053607367 
0.14508758 0.0 0.13702133 0.0 0.0 0.0 
0.43315852 0.0 0.19851965 0.0 0.0 0.0 
1.1914384 0.0 0.0 0.0 0.0 0.0 
1.8815539 0.0 0.0 0.0 0.6074999 0.20432219 
1.2765162 0.7184463 0.0 0.0 1.6445514 0.2976063 
0.0 1.4332256 0.0 0.0 2.0044534 0.19739404 
0.0 1.1374917 0.91080695 0.20451355 1.7123108 0.3237636 
0.0 0.48962307 1.3475379 0.29938853 0.9730124 0.41547394 
0.0 0.1936829 0.74027574 0.22752404 0.18670131 0.13618504 
0.0 0.0 0.0 0.0 0.0 0.07698792 
0.0 0.0 0.0 0.0 0.0 0.07698792 
0.0 0.0 0.0 0.0 0.0 0.07698792 
0.0 0.0 0.0 0.0 0.0 0.07698792 
0.0 0.0 0.0 0.0 0.0 0.07698792 
0.0 0.0 0.0 0.0 0.0 0.07698792 
0.0 0.0 0.0 0.0 0.0 0.07698792 
0.0 0.0 0.0 0.0 0.0 0.07698792 
0.0 0.0 0.0 0.0 0.0 0.07698792 
0.0 0.0 0.0 0.0 0.0 0.07698792 
0.0 0.0 0.0 0.0 0.0 0.07698792 
0.19645351 0.0 0.0 0.0 0.0 0.10698104 
0.60555744 0.0 0.20954415 0.0 0.0 0.0 
0.540232 0.42058948 0.26727927 0.0 0.0 0.0 
0.0 0.8654272 0.5859008 0.0 0.110573635 0.0 
0.0 0.59786075 0.56461954 0.0 0.41872892 0.0 
0.0 0.23283118 0.20327416 0.0 0.20531552 0.0 
0.097555965 0.09696151 0.17579621 0.0 0.0 0.0 
0.31688458 0.10026076 0.2502342 0.0 0.0 0.0 
0.5794772 0.089454405 0.28901953 0.0 0.0 0.0 
0.9849879 0.07139321 0.33275366 0.0 0.0 0.0 
1.4070613 0.22264849 0.03949131 0.0 0.2385049 0.0 
1.2516761 0.6084955 0.0 0.0 1.5053878 0.09303816 
0.2702989 1.1523566 0.0 0.05804414 2.369108 0.34733504 
0.0 1.234679 0.0 0.2023204 2.0611024 0.530118 
0.0 0.6394457 0.6517013 0.1742064 1.2656914 0.5898126 
0.0 0.2380831 0.8685821 0.15901262 0.5071177 0.41037053 
0.0 0.0 0.40189564 0.038973775 0.08851142 0.13701198 
0.0 0.0 0.0 0.0 0.0 0.07698792 
0.0 0.0 0.0 0.0 0.0 0.07698792 
0.0 0.0 0.0 0.0 0.0 0.07698792 
0.0 0.0 0.0 0.0 0.0 0.07698792 
0.0 0.0 0.0 0.0 0.0 0.07698792 
0.0 0.0 0.0 0.0 0.0 0.07698792 
0.0 0.0 0.0 0.0 0.0 0.07698792 
0.0 0.0 0.0 0.0 0.0 0.07698792 
0.0 0.0 0.0 0.0 0.0 0.07698792 
0.0 0.0 0.0 0.0 0.0 0.07698792 
0.0 0.0 0.0 0.0 0.0 0.07698792 
0.37271318 0.0 0.0 0.07947205 0.0 0.34310123 
0.8576912 0.0 0.0 0.15311907 0.0 0.19255939 
0.78368133 0.27737015 0.32799911 0.14475037 0.0 0.0 
0.33226436 1.0386497 1.0699213 0.0 0.23809566 0.0 
0.0 1.329639 1.564057 0.0 0.3674794 0.0 
0.017638639 0.89615583 1.0352464 0.0 0.20725651 0.0 
0.38673604 0.5815398 0.62000024 0.0 0.0 0.0 
0.7261365 0.4364054 0.5671155 0.0 0.0 0.0 
1.0456076 0.37086177 0.41181755 0.0 0.0 0.0 
1.0198388 0.59638786 0.2914044 0.0 0.4438974 0.0 
0.74391097 0.7756674 0.09708492 0.26053822 1.5951995 0.050309148 
0.20923847 1.1987529 0.0 0.5771785 2.3985972 0.6095034 
0.0 1.1905441 0.0 0.51427 2.257234 0.7739516 
0.0 0.78514344 0.16928214 0.32469344 1.360392 0.70343167 
0.0 0.27885056 0.5686047 0.09815962 0.61437863 0.5164467 
0.0 0.0 0.44718415 0.0 0.241078 0.2646145 
0.0 0.0 0.07114605 0.0 0.024121176 0.09394311 
0.0 0.0 0.0 0.0 0.0 0.07698792 
0.0 0.0 0.0 0.0 0.0 0.07698792 
0.0 0.0 0.0 0.0 0.0 0.07698792 
0.0 0.0 0.0 0.0 0.0 0.07698792 
0.0 0.0 0.0 0.0 0.0 0.07698792 
0.0 0.0 0.0 0.0 0.0 0.07698792 
0.0 0.0 0.0 0.0 0.0 0.07698792 
0.0 0.0 0.0 0.0 0.0 0.07698792 
0.0 0.0 0.0 0.0 0.0 0.07698792 
0.0 0.0 0.0 0.0 0.0 0.07698792 
0.0 0.0 0.0 0.0 0.0 0.07698792 
0.41401514 0.0 0.0 0.22118157 0.0 0.54147744 
0.98300236 0.0 0.0 0.35346952 0.089563206 0.9061684 
0.96834034 0.07617662 0.0 0.45305786 0.13459319 0.3637311 
0.7591767 0.7444617 0.6877474 0.47211406 0.23387356 0.0 
0.2720612 1.3212295 1.9200884 0.24394275 0.4275482 0.0 
0.22432214 1.2829232 1.7241919 0.0 0.5009838 0.0 
0.52794033 0.9072986 1.1007684 0.0 0.4753895 0.0 
0.6390646 0.7580335 0.77078867 0.0 0.6861022 0.0 
0.60052395 0.80712885 0.48637938 0.1979123 1.2301707 0.0 
0.41979697 0.9981682 0.16773447 0.65277696 2.0405786 0.3712225 
0.0 1.2671691 0.0 0.8523686 2.4660685 0.8699462 
0.0 1.018074 0.0 0.59206825 2.2634304 1.0437472 
0.0 0.74691796 0.0 0.3362186 1.3324536 0.8670536 
0.0 0.25591093 0.32509935 0.030124582 0.6095591 0.57033896 
0.0 0.0 0.38281602 0.0 0.29248294 0.33519322 
0.0 0.0 0.16067627 0.0 0.07015698 0.11776453 
0.0 0.0 0.0 0.0 0.0 0.07820552 
0.0 0.0 0.0 0.0 0.0 0.07698792 
0.0 0.0 0.0 0.0 0.0 0.07698792 
0.0 0.0 0.0 0.0 0.0 0.07698792 
0.0 0.0 0.0 0.0 0.0 0.07698792 
0.0 0.0 0.0 0.0 0.0 0.07698792 
0.0 0.0 0.0 0.0 0.0 0.07698792 
0.0 0.0 0.0 0.0 0.0 0.07698792 
0.0 0.0 0.0 0.0 0.0 0.07698792 
0.0 0.0 0.0 0.0 0.0 0.07698792 
0.0 0.0 0.0 0.0 0.0 0.07698792 
0.0 0.0 0.0 0.0 0.0 0.07698792 
0.4116934 0.0 0.0 0.0 0.3451352 0.50995636 
0.9916921 0.0 0.0 0.1822197 0.61940867 1.1118827 
0.91857696 0.0 0.0 0.42448458 0.66308385 1.1029289 
0.7916025 0.0 0.0 0.83364093 0.8227337 0.99059206 
0.4554475 0.44319716 0.79833394 1.3594618 1.103908 0.7698959 
0.088874 0.82378536 1.3772724 1.537411 1.3342036 0.45325756 
0.20030013 0.8836542 1.0386145 1.5353035 1.4951838 0.48381874 
0.28599146 0.93173105 0.63365084 1.5106444 1.9008445 0.82976633 
0.17084514 1.0987356 0.19069839 1.4005692 2.2829883 1.1056683 
0.0 1.1588575 0.0 1.0665052 2.368873 1.2325604 
0.0 0.8561184 0.0 0.47997594 2.05174 1.2008994 
0.0 0.55292386 0.0 0.11571602 1.2040373 0.92325926 
0.0 0.07148393 0.09830765 0.0 0.57862586 0.5671332 
0.0 0.0 0.21519387 0.0 0.29153922 0.33167744 
0.0 0.0 0.11474494 0.0 0.09526864 0.13811752 
0.0 0.0 0.0 0.0 0.0 0.081097305 
0.0 0.0 0.0 0.0 0.0 0.07698792 
0.0 0.0 0.0 0.0 0.0 0.07698792 
0.0 0.0 0.0 0.0 0.0 0.07698792 
0.0 0.0 0.0 0.0 0.0 0.07698792 
0.0 0.0 0.0 0.0 0.0 0.07698792 
0.0 0.0 0.0 0.0 0.0 0.07698792 
0.0 0.0 0.0 0.0 0.0 0.07698792 
0.0 0.0 0.0 0.0 0.0 0.07698792 
0.0 0.0 0.0 0.0 0.0 0.07698792 
0.0 0.0 0.0 0.0 0.0 0.07698792 
0.0 0.0 0.0 0.0 0.0 0.07698792 
0.0 0.0 0.0 0.0 0.0 0.07698792 
0.17971894 0.0 0.0 0.0 0.18969171 0.3038632 
0.71816725 0.0 0.0 0.015237414 0.64387584 0.90524554 
0.8927883 0.0 0.0 0.16151854 0.9174773 1.3222294 
0.76893693 0.0 0.0 0.49855706 1.0932842 1.5237665 
0.49806505 0.13763738 0.0 1.0539503 1.4645834 1.6813872 
0.2053589 0.59813005 0.0 1.5220134 1.7031587 1.636045 
0.1697649 0.81635785 0.12578988 1.5781938 1.8761632 1.6522171 
0.12915139 0.805968 0.0 1.2766017 2.0671732 1.6090803 
0.01891534 0.76920384 0.0 0.81324416 1.9108413 1.4671206 
0.0 0.567245 0.0 0.23457009 1.572064 1.2206564 
0.0 0.24656424 0.0 0.0 0.95663124 0.82121927 
0.0 0.0 0.005573824 0.0 0.49485216 0.4733013 
0.0 0.0 0.07360356 0.0 0.2502022 0.2735703 
0.0 0.0 0.05230634 0.0 0.075175 0.12277145 
0.0 0.0 0.0 0.0 0.0 0.08041241 
0.0 0.0 0.0 0.0 0.0 0.07698792 
0.0 0.0 0.0 0.0 0.0 0.07698792 
0.0 0.0 0.0 0.0 0.0 0.07698792 
0.0 0.0 0.0 0.0 0.0 0.07698792 
0.0 0.0 0.0 0.0 0.0 0.07698792 
0.0 0.0 0.0 0.0 0.0 0.07698792 
0.0 0.0 0.0 0.0 0.0 0.07698792 
0.0 0.0 0.0 0.0 0.0 0.07698792 
0.0 0.0 0.0 0.0 0.0 0.07698792 
0.0 0.0 0.0 0.0 0.0 0.07698792 
0.0 0.0 0.0 0.0 0.0 0.07698792 
0.0 0.0 0.0 0.0 0.0 0.07698792 
0.0 0.0 0.0 0.0 0.0 0.07698792 
0.036150835 0.0 0.0 0.0 0.103588685 0.15156111 
0.3772766 0.0 0.0 0.0 0.46142623 0.46060094 
0.6615543 0.0 0.0 0.0 0.8345595 0.8761402 
0.7551295 0.0 0.0 0.0 1.1749402 1.3040824 
0.60699904 0.0 0.0 0.0 1.431518 1.5275636 
0.31054923 0.0 0.0 0.0 1.5882536 1.5701737 
0.16649897 0.0645369 0.0 0.0 1.58104 1.6146905 
0.01609683 0.056264184 0.0 0.0 1.4382082 1.3654456 
0.0 0.0 0.0 0.0 1.0550576 0.98918563 
0.0 0.0 0.0 0.0 0.6156885 0.62383103 
0.0 0.0 0.0 0.0 0.34899047 0.36885995 
0.0 0.0 0.071117155 0.0 0.16553111 0.19781977 
0.0 0.0 0.01685419 0.0 0.015183162 0.09416616 
0.0 0.0 0.0 0.0 0.0 0.07782502 
0.0 0.0 0.0 0.0 0.0 0.07698792 
0.0 0.0 0.0 0.0 0.0 0.07698792 
0.0 0.0 0.0 0.0 0.0 0.07698792 
0.0 0.0 0.0 0.0 0.0 0.07698792 
0.0 0.0 0.0 0.0 0.0 0.07698792 
0.0 0.0 0.0 0.0 0.0 0.07698792 
0.0 0.0 0.0 0.0 0.0 0.07698792 
0.0 0.0 0.0 0.0 0.0 0.07698792 
0.0 0.0 0.0 0.0 0.0 0.07698792 
0.0 0.0 0.0 0.0 0.0 0.07698792 
0.0 0.0 0.0 0.0 0.0 0.07698792 
0.0 0.0 0.0 0.0 0.0 0.07698792 
0.0 0.0 0.0 0.0 0.0 0.07698792 
0.0 0.0 0.0 0.0 0.0 0.07698792 
0.0 0.0 0.0 0.0 0.0 0.07946343 
0.055428386 0.0 0.0 0.0 0.13761725 0.16283451 
0.24665534 0.0 0.0 0.0 0.41312984 0.30727762 
0.39798146 0.0 0.0 0.0 0.6420054 0.49093395 
0.3519224 0.0 0.0 0.0 0.8359433 0.6197382 
0.15264729 0.0 0.0 0.0 0.9056763 0.6121723 
0.08028172 0.0 0.0 0.0 0.87068385 0.6001765 
0.0 0.0 0.0 0.0 0.64869183 0.44733334 
0.0 0.0 0.0 0.0 0.3781698 0.2955796 
0.0 0.0 0.0 0.0 0.21408392 0.21679604 
0.0 0.0 0.0 0.0 0.08015902 0.13410977 
0.0 0.0 0.0 0.0 0.0 0.082467094 
0.0 0.0 0.0 0.0 0.0 0.07698792 
0.0 0.0 0.0 0.0 0.0 0.07698792 
0.0 0.0 0.0 0.0 0.0 0.07698792 
0.0 0.0 0.0 0.0 0.0 0.07698792 
0.0 0.0 0.0 0.0 0.0 0.07698792 
0.0 0.0 0.0 0.0 0.0 0.07698792 
0.0 0.0 0.0 0.0 0.0 0.07698792 
0.0 0.0 0.0 0.0 0.0 0.07698792 
0.0 0.0 0.0 0.0 0.0 0.07698792 
0.0 0.0 0.0 0.0 0.0 0.07698792 
0.0 0.0 0.0 0.0 0.0 0.07698792 
0.0 0.0 0.0 0.0 0.0 0.07698792 
0.0 0.0 0.0 0.0 0.0 0.07698792 
0.0 0.0 0.0 0.0 0.0 0.07698792 
0.0 0.0 0.0 0.0 0.0 0.07698792 
0.0 0.0 0.0 0.0 0.0 0.07698792 
0.0 0.0 0.0 0.0 0.0 0.07698792 
0.0 0.0 0.0 0.0 0.0 0.07698792 
0.0 0.0 0.0 0.0 0.0 0.081320055 
0.010494158 0.0 0.0 0.0 0.068088785 0.13299556 
0.00042305887 0.0 0.0 0.0 0.049624365 0.13462237 
0.0 0.0 0.0 0.0 0.004033599 0.09760312 
0.0 0.0 0.0 0.0 0.00589234 0.12817259 
0.0 0.0 0.0 0.0 0.0 0.091587074 
0.0 0.0 0.0 0.0 0.0 0.07805332 
0.0 0.0 0.0 0.0 0.0 0.07698792 
0.0 0.0 0.0 0.0 0.0 0.07698792 
0.0 0.0 0.0 0.0 0.0 0.07698792 
0.0 0.0 0.0 0.0 0.0 0.07698792 
0.0 0.0 0.0 0.0 0.0 0.07698792 
0.0 0.0 0.0 0.0 0.0 0.07698792 
0.0 0.0 0.0 0.0 0.0 0.07698792 
0.0 0.0 0.0 0.0 0.0 0.07698792 
0.0 0.0 0.0 0.0 0.0 0.07698792 
0.0 0.0 0.0 0.0 0.0 0.07698792 
0.0 0.0 0.0 0.0 0.0 0.07698792 
0.0 0.0 0.0 0.0 0.0 0.07698792 
0.0 0.0 0.0 0.0 0.0 0.07698792 
0.0 0.0 0.0 0.0 0.0 0.07698792 
0.0 0.0 0.0 0.0 0.0 0.07698792 
0.0 0.0 0.0 0.0 0.0 0.07698792 
0.0 0.0 0.0 0.0 0.0 0.07698792 
0.0 0.0 0.0 0.0 0.0 0.07698792 
0.0 0.0 0.0 0.0 0.0 0.07698792 
0.0 0.0 0.0 0.0 0.0 0.07698792 
0.0 0.0 0.0 0.0 0.0 0.07698792 
0.0 0.0 0.0 0.0 0.0 0.07698792 
0.0 0.0 0.0 0.0 0.0 0.07698792 
0.0 0.0 0.0 0.0 0.0 0.07698792 
0.0 0.0 0.0 0.0 0.0 0.07698792 
0.0 0.0 0.0 0.0 0.0 0.07698792 
0.0 0.0 0.0 0.0 0.0 0.07698792 
0.0 0.0 0.0 0.0 0.0 0.07698792 
0.0 0.0 0.0 0.0 0.0 0.07698792 
0.0 0.0 0.0 0.0 0.0 0.07698792 
0.0 0.0 0.0 0.0 0.0 0.07698792 
0.0 0.0 0.0 0.0 0.0 0.07698792 
0.0 0.0 0.0 0.0 0.0 0.07698792 
0.0 0.0 0.0 0.0 0.0 0.07698792 
0.0 0.0 0.0 0.0 0.0 0.07698792 
0.0 0.0 0.0 0.0 0.0 0.07698792 
0.0 0.0 0.0 0.0 0.0 0.07698792 
0.0 0.0 0.0 0.0 0.0 0.07698792 
0.0 0.0 0.0 0.0 0.0 0.07698792 
0.0 0.0 0.0 0.0 0.0 0.07698792 
0.0 0.0 0.0 0.0 0.0 0.07698792 
0.0 0.0 0.0 0.0 0.0 0.07698792 
0.0 0.0 0.0 0.0 0.0 0.07698792 
0.0 0.0 0.0 0.0 0.0 0.07698792 
0.0 0.0 0.0 0.0 0.0 0.07698792 
0.0 0.0 0.0 0.0 0.0 0.07698792 
0.0 0.0 0.0 0.0 0.0 0.07698792 
0.0 0.0 0.0 0.0 0.0 0.07698792 
0.0 0.0 0.0 0.0 0.0 0.07698792 
0.0 0.0 0.0 0.0 0.0 0.07698792 
0.0 0.0 0.0 0.0 0.0 0.07698792 
0.0 0.0 0.0 0.0 0.0 0.07698792 
0.0 0.0 0.0 0.0 0.0 0.07698792 
0.0 0.0 0.0 0.0 0.0 0.07698792 
0.0 0.0 0.0 0.0 0.0 0.07698792 
0.0 0.0 0.0 0.0 0.0 0.07698792 
0.0 0.0 0.0 0.0 0.0 0.07698792 
0.0 0.0 0.0 0.0 0.0 0.07698792 
0.0 0.0 0.0 0.0 0.0 0.07698792 
0.0 0.0 0.0 0.0 0.0 0.07698792 
0.0 0.0 0.0 0.0 0.0 0.07698792 
0.0 0.0 0.0 0.0 0.0 0.07698792 
0.0 0.0 0.0 0.0 0.0 0.07698792 
0.0 0.0 0.0 0.0 0.0 0.07698792 
0.0 0.0 0.0 0.0 0.0 0.07698792 
0.0 0.0 0.0 0.0 0.0 0.07698792 
0.0 0.0 0.0 0.0 0.0 0.07698792 
0.0 0.0 0.0 0.0 0.0 0.07698792 
0.0 0.0 0.0 0.0 0.0 0.07698792 
0.0 0.0 0.0 0.0 0.0 0.07698792 

