0.0 0.0 0.0 0.0 0.0 0.07698792 
0.0 0.0 0.0 0.0 0.0 0.07698792 
0.0 0.0 0.0 0.0 0.0 0.07698792 
0.0 0.0 0.0 0.0 0.0 0.07698792 
0.0 0.0 0.0 0.0 0.0 0.07698792 
0.0 0.0 0.0 0.0 0.0 0.07698792 
0.0 0.0 0.0 0.0 0.0 0.07698792 
0.0 0.0 0.0 0.0 0.0 0.07698792 
0.0 0.0 0.0 0.0 0.0 0.07698792 
0.0 0.0 0.0 0.0 0.0 0.07698792 
0.0 0.0 0.0 0.0 0.0 0.07698792 
0.0 0.0 0.0 0.0 0.0 0.07698792 
0.0 0.0 0.0 0.0 0.0 0.07698792 
0.0 0.0 0.0 0.0 0.0 0.07698792 
0.0 0.0 0.0 0.0 0.0 0.07698792 
0.0 0.0 0.0 0.0 0.0 0.07698792 
0.0 0.0 0.0 0.0 0.0 0.07698792 
0.0 0.0 0.0 0.0 0.0 0.07698792 
0.0 0.0 0.0 0.0 0.0 0.07698792 
0.0 0.0 0.0 0.0 0.0 0.07698792 
0.0 0.0 0.0 0.0 0.0 0.07698792 
0.0 0.0 0.0 0.0 0.0 0.07698792 
0.0 0.0 0.0 0.0 0.0 0.07698792 
0.0 0.0 0.0 0.0 0.0 0.07698792 
0.0 0.0 0.0 0.0 0.0 0.07698792 
0.0 0.0 0.0 0.0 0.0 0.07698792 
0.0 0.0 0.0 0.0 0.0 0.07698792 
0.0 0.0 0.0 0.0 0.0 0.07698792 
0.0 0.0 0.0 0.0 0.0 0.07698792 
0.0 0.0 0.0 0.0 0.0 0.07698792 
0.0 0.0 0.0 0.0 0.0 0.07698792 
0.0 0.0 0.0 0.0 0.0 0.07698792 
0.0 0.0 0.0 0.0 0.0 0.07698792 
0.0 0.0 0.0 0.0 0.0 0.07698792 
0.0 0.0 0.0 0.0 0.0 0.07698792 
0.0 0.0 0.0 0.0 0.0 0.07698792 
0.0 0.0 0.0 0.0 0.0 0.07698792 
0.0 0.0 0.0 0.0 0.0 0.07698792 
0.0 0.0 0.0 0.0 0.0 0.07698792 
0.0 0.0 0.0 0.0 0.0 0.07698792 
0.0 0.0 0.0 0.0 0.0 0.07698792 
0.0 0.0 0.0 0.0 0.0 0.07698792 
0.0 0.0 0.0 0.0 0.0 0.07698792 
0.0 0.0 0.0 0.0 0.0 0.07698792 
0.0 0.0 0.0 0.0 0.0 0.07698792 
0.0 0.0 0.0 0.0 0.0 0.07698792 
0.0 0.0 0.0 0.0 0.0 0.07698792 
0.0 0.0 0.0 0.0 0.0 0.07698792 
0.0 0.0 0.0 0.0 0.0 0.07698792 
0.0 0.0 0.0 0.0 0.0 0.07698792 
0.0 0.0 0.0 0.0 0.0 0.07698792 
0.0 0.0 0.0 0.0 0.0 0.07698792 
0.0 0.0 0.0 0.0 0.0 0.07698792 
0.0 0.0 0.0 0.0 0.0 0.07698792 
0.0 0.0 0.0 0.0 0.0 0.07698792 
0.0 0.0 0.0 0.0 0.0 0.07698792 
0.0 0.0 0.0 0.0 0.0 0.07698792 
0.0 0.0 0.0 0.0 0.0 0.07698792 
0.0 0.0 0.0 0.0 0.0 0.07698792 
0.0 0.0 0.0 0.0 0.0 0.07698792 
0.0 0.0 0.0 0.0 0.0 0.07698792 
0.0 0.0 0.0 0.0 0.0 0.07698792 
0.0 0.0 0.0 0.0 0.0 0.07698792 
0.0 0.0 0.0 0.0 0.0 0.07698792 
0.0 0.0 0.0 0.0 0.0 0.07698792 
0.0 0.0 0.0 0.0 0.0 0.07698792 
0.0 0.0 0.0 0.0 0.0 0.07698792 
0.0 0.0 0.0 0.0 0.0 0.07698792 
0.0 0.0 0.0 0.0 0.0 0.07698792 
0.0 0.0 0.0 0.0 0.0 0.07698792 
0.0 0.0 0.0 0.0 0.0 0.07698792 
0.0 0.0 0.0 0.0 0.0 0.07698792 
0.0 0.0 0.0 0.0 0.0 0.07698792 
0.0 0.0 0.0 0.0 0.0 0.07698792 
0.0 0.0 0.0 0.0 0.0 0.07698792 
0.0 0.0 0.015607417 0.0 0.0 0.042671304 
0.09188685 0.02435349 0.06381846 0.0 0.0 0.0 
0.03609603 0.12607749 0.024768285 0.0 0.0 0.0 
0.0 0.13847685 0.04458315 0.0 0.0 0.0 
0.0 0.137613 0.023144007 0.0 0.0 0.0 
0.0 0.051776316 0.0 0.0 0.0 0.021231271 
0.0 0.0 0.0 0.0 0.0 0.07698792 
0.0 0.0 0.0 0.0 0.0 0.07698792 
0.0 0.0 0.0 0.0 0.0 0.07698792 
0.0 0.0 0.0 0.0 0.0 0.07698792 
0.0 0.0 0.0 0.0 0.0 0.07698792 
0.0 0.0 0.0 0.0 0.0 0.07698792 
0.0 0.0 0.0 0.0 0.0 0.07698792 
0.0 0.0 0.0 0.0 0.0 0.07698792 
0.0 0.0 0.0 0.0 0.0 0.07698792 
0.0 0.0 0.0 0.0 0.0 0.07698792 
0.0 0.0 0.0 0.0 0.0 0.07698792 
0.0 0.0 0.0 0.0 0.0 0.07698792 
0.0 0.0 0.0 0.0 0.0 0.07698792 
0.0 0.0 0.0 0.0 0.0 0.07698792 
0.0 0.0 0.0 0.0 0.0 0.07698792 
0.0 0.0 0.0 0.0 0.0 0.07698792 
0.0 0.0 0.0 0.0 0.0 0.07698792 
0.0 0.0 0.0 0.0 0.0 0.07698792 
0.0 0.0 0.0 0.0 0.0 0.07698792 
0.0 0.0 0.0 0.0 0.0 0.07698792 
0.0 0.0 0.0 0.0 0.0 0.06831449 
0.03439875 0.0 0.054258436 0.0 0.0 0.0025864094 
0.27683884 0.0 0.16065064 0.0 0.0 0.0 
0.42879206 0.13751926 0.18856075 0.0 0.0 0.0 
0.23773691 0.41435555 0.2354311 0.0 0.0 0.0 
0.0 0.60967726 0.3045277 0.0 0.12686302 0.0 
0.0 0.40008464 0.2544546 0.0 0.28638187 0.0 
0.0 0.047413707 0.02196882 0.0 0.15542232 0.0 
0.0 0.0 0.0 0.0 0.0 0.07698792 
0.0 0.0 0.0 0.0 0.0 0.07698792 
0.0 0.0 0.0 0.0 0.0 0.07698792 
0.0 0.0 0.0 0.0 0.0 0.07698792 
0.0 0.0 0.0 0.0 0.0 0.07698792 
0.0 0.0 0.0 0.0 0.0 0.07698792 
0.0 0.0 0.0 0.0 0.0 0.07698792 
0.0 0.0 0.0 0.0 0.0 0.07698792 
0.0 0.0 0.0 0.0 0.0 0.07698792 
0.0 0.0 0.0 0.0 0.0 0.07698792 
0.0 0.0 0.0 0.0 0.0 0.07698792 
0.0 0.0 0.0 0.0 0.0 0.07698792 
0.0 0.0 0.0 0.0 0.0 0.07698792 
0.0 0.0 0.0 0.0 0.0 0.07698792 
0.0 0.0 0.0 0.0 0.0 0.07698792 
0.0 0.0 0.0 0.0 0.0 0.07698792 
0.0 0.0 0.0 0.0 0.0 0.07698792 
0.0 0.0 0.0 0.0 0.0 0.07698792 
0.0 0.0 0.0 0.0 0.0 0.07698792 
0.0 0.0 0.0 0.0 0.0 0.07698792 
0.008663774 0.0 0.015070744 0.0 0.0 0.04391887 
0.30573976 0.0 0.13875967 0.0 0.0 0.0 
0.7759816 0.0 0.1754219 0.0 0.0 0.0 
0.8831851 0.25560305 0.31189868 0.0 0.0 0.0 
0.25277376 0.9587895 0.51983315 0.0 0.33148253 0.0 
0.0 1.0602496 0.7738499 0.0 0.72360533 0.0 
0.0 0.5842212 0.65227723 0.0 0.68594396 0.0 
0.0 0.15306802 0.19372165 0.0 0.21305458 0.0 
0.0 0.0 0.0 0.0 0.0 0.07698792 
0.0 0.0 0.0 0.0 0.0 0.07698792 
0.0 0.0 0.0 0.0 0.0 0.07698792 
0.0 0.0 0.0 0.0 0.0 0.07698792 
0.0 0.0 0.0 0.0 0.0 0.07698792 
0.0 0.0 0.0 0.0 0.0 0.07698792 
0.0 0.0 0.0 0.0 0.0 0.07698792 
0.0 0.0 0.0 0.0 0.0 0.07698792 
0.0 0.0 0.0 0.0 0.0 0.07698792 
0.0 0.0 0.0 0.0 0.0 0.07698792 
0.0 0.0 0.0 0.0 0.0 0.07698792 
0.0 0.0 0.0 0.0 0.0 0.07698792 
0.0 0.0 0.0 0.0 0.0 0.07698792 
0.0 0.0 0.0 0.0 0.0 0.07698792 
0.0 0.0 0.0 0.0 0.0 0.07698792 
0.0 0.0 0.0 0.0 0.0 0.07698792 
0.0 0.0 0.0 0.0 0.0 0.07698792 
0.0 0.0 0.0 0.0 0.0 0.07698792 
0.0 0.0 0.0 0.0 0.0 0.07698792 
0.0 0.0 0.0 0.0 0.0 0.055492893 
0.23326704 0.0 0.09692774 0.0 0.0 0.0 
0.7801952 0.0 0.10118116 0.0 0.0 0.0 
1.3320429 0.0 0.12753874 0.0 0.0 0.0 
1.137361 0.7655282 0.3230702 0.0 0.3177884 0.0 
0.0 1.5995405 0.76594335 0.0 1.1148684 0.0 
0.0 1.4870218 1.2615563 0.0 1.216003 0.0 
0.0 0.8506692 1.1333206 0.0 0.81372434 0.0 
0.0 0.23212376 0.37959424 0.0035870569 0.23087664 0.005689025 
0.0 0.0 0.0 0.0 0.0 0.07698792 
0.0 0.0 0.0 0.0 0.0 0.07698792 
0.0 0.0 0.0 0.0 0.0 0.07698792 
0.0 0.0 0.0 0.0 0.0 0.07698792 
0.0 0.0 0.0 0.0 0.0 0.07698792 
0.0 0.0 0.0 0.0 0.0 0.07698792 
0.0 0.0 0.0 0.0 0.0 0.07698792 
0.0 0.0 0.0 0.0 0.0 0.07698792 
0.0 0.0 0.0 0.0 0.0 0.07698792 
0.0 0.0 0.0 0.0 0.0 0.07698792 
0.0 0.0 0.0 0.0 0.0 0.07698792 
0.0 0.0 0.0 0.0 0.0 0.07698792 
0.0 0.0 0.0 0.0 0.0 0.07698792 
0.0 0.0 0.0 0.0 0.0 0.07698792 
0.0 0.0 0.0 0.0 0.0 0.07698792 
0.0 0.0 0.0 0.0 0.0 0.07698792 
0.0 0.0 0.0 0.0 0.0 0.07698792 
0.0 0.0 0.0 0.0 0.0 0.07698792 
0.0 0.0 0.022031933 0.0 0.0 0.039654452 
0.20488983 0.0 0.12764257 0.0 0.0 0.0 
0.66647017 0.0 0.10135252 0.0 0.0 0.0 
1.3420331 0.0 0.06862769 0.0 0.0 0.0 
1.7591765 0.27059707 0.0 0.0 0.31737223 0.0 
0.9670399 1.346059 0.034496218 0.02025282 1.3587544 0.0 
0.0 1.878983 0.7316696 0.11989282 1.8097798 0.0 
0.0 1.6086082 1.466762 0.20140675 1.4614953 0.0 
0.0 0.7863647 1.3209606 0.10887706 0.94045085 0.053137753 
0.0 0.10620772 0.42598695 0.0400786 0.23553048 0.057347372 
0.0 0.0 0.0 0.0 0.0 0.07698792 
0.0 0.0 0.0 0.0 0.0 0.07698792 
0.0 0.0 0.0 0.0 0.0 0.07698792 
0.0 0.0 0.0 0.0 0.0 0.07698792 
0.0 0.0 0.0 0.0 0.0 0.07698792 
0.0 0.0 0.0 0.0 0.0 0.07698792 
0.0 0.0 0.0 0.0 0.0 0.07698792 
0.0 0.0 0.0 0.0 0.0 0.07698792 
0.0 0.0 0.0 0.0 0.0 0.07698792 
0.0 0.0 0.0 0.0 0.0 0.07698792 
0.0 0.0 0.0 0.0 0.0 0.07698792 
0.0 0.0 0.0 0.0 0.0 0.07698792 
0.0 0.0 0.0 0.0 0.0 0.07698792 
0.0 0.0 0.0 0.0 0.0 0.07698792 
0.0 0.0 0.0 0.0 0.0 0.07698792 
0.0 0.0 0.0 0.0 0.0 0.07698792 
0.0 0.0 0.0 0.0 0.0 0.07698792 
0.0 0.0 0.021228872 0.0 0.0 0.04003156 
0.24818647 0.0 0.13116217 0.0 0.0 0.0 
0.65552133 0.0 0.19208431 0.0 0.0 0.0 
1.2747581 0.0 0.12912783 0.0 0.0 0.0 
1.7703078 0.24381891 0.0 0.0 0.30370322 0.0 
1.5808117 0.78548473 0.0 0.0 1.5163774 0.03702787 
0.44742143 1.5908071 0.0 0.088250086 2.2697184 0.08340868 
0.0 1.8782717 0.6815296 0.23342271 2.1376965 0.0 
0.0 1.314047 1.5033462 0.27740267 1.579439 0.1815673 
0.0 0.44830984 1.2563738 0.17599437 0.85774404 0.20261088 
0.0 0.09757675 0.37435055 0.11042141 0.10047567 0.09895505 
0.0 0.0 0.0 0.0 0.0 0.07698792 
0.0 0.0 0.0 0.0 0.0 0.07698792 
0.0 0.0 0.0 0.0 0.0 0.07698792 
0.0 0.0 0.0 0.0 0.0 0.07698792 
0.0 0.0 0.0 0.0 0.0 0.07698792 
0.0 0.0 0.0 0.0 0.0 0.07698792 
0.0 0.0 0.0 0.0 0.0 0.07698792 
0.0 0.0 0.0 0.0 0.0 0.07698792 
0.0 0.0 0.0 0.0 0.0 0.07698792 
0.0 0.0 0.0 0.0 0.0 0.07698792 
0.0 0.0 0.0 0.0 0.0 0.07698792 
0.0 0.0 0.0 0.0 0.0 0.07698792 
0.0 0.0 0.0 0.0 0.0 0.07698792 
0.0 0.0 0.0 0.0 0.0 0.07698792 
0.0 0.0 0.0 0.0 0.0 0.07698792 
0.0 0.0 0.0 0.0 0.0 0.07698792 
0.0 0.0 0.0 0.0 0.0 0.07698792 
0.13489245 0.0 0.080673315 0.0 0.0 0.01635934 
0.70532805 0.0 0.09904914 0.0 0.0 0.0 
1.228159 0.0 0.13430056 0.0 0.0 0.0 
1.6875517 0.22040644 0.085366614 0.0 0.18900725 0.0 
1.552851 0.80441004 0.0 0.0 1.4664726 0.01036109 
0.9067849 1.2387067 0.0 0.14662771 2.4824114 0.41345382 
0.0 1.738667 0.0 0.29596034 2.645248 0.46289426 
0.0 1.5726806 0.72368956 0.3647661 2.1484106 0.43272898 
0.0 0.7740871 1.2602587 0.27455652 1.3269893 0.5083473 
0.0 0.25338736 0.97631574 0.2082621 0.5010542 0.26967806 
0.0 0.015442687 0.22677538 0.05011743 0.02197316 0.11107749 
0.0 0.0 0.0 0.0 0.0 0.07698792 
0.0 0.0 0.0 0.0 0.0 0.07698792 
0.0 0.0 0.0 0.0 0.0 0.07698792 
0.0 0.0 0.0 0.0 0.0 0.07698792 
0.0 0.0 0.0 0.0 0.0 0.07698792 
0.0 0.0 0.0 0.0 0.0 0.07698792 
0.0 0.0 0.0 0.0 0.0 0.07698792 
0.0 0.0 0.0 0.0 0.0 0.07698792 
0.0 0.0 0.0 0.0 0.0 0.07698792 
0.0 0.0 0.0 0.0 0.0 0.07698792 
0.0 0.0 0.0 0.0 0.0 0.07698792 
0.0 0.0 0.0 0.0 0.0 0.07698792 
0.0 0.0 0.0 0.0 0.0 0.07698792 
0.0 0.0 0.0 0.0 0.0 0.07698792 
0.0 0.0 0.0 0.0 0.0 0.07698792 
0.0 0.0 0.0 0.0 0.0 0.07698792 
0.0 0.0 0.0 0.0 0.0 0.051344734 
0.4052295 0.0 0.0 0.0 0.0 0.06763375 
1.204396 0.0 0.0 0.0 0.0 0.10722805 
1.7239444 0.0 0.0 0.06541873 0.09222829 0.0052089617 
1.6362972 0.7415021 0.0 0.2010853 1.1870126 0.086962655 
0.9375462 1.262847 0.0 0.267638 2.4495835 0.45290515 
0.19930041 1.5666457 0.0 0.41460505 2.9084814 0.7482428 
0.0 1.5311099 0.04500217 0.34416512 2.617277 0.8060995 
0.0 0.8538995 0.6563373 0.2627719 1.7038815 0.6745859 
0.0 0.30897862 0.8652712 0.17037271 0.7854291 0.52609396 
0.0 0.06409459 0.5929596 0.0825848 0.23173158 0.22984456 
0.0 0.0 0.04416383 0.0 0.0 0.09068421 
0.0 0.0 0.0 0.0 0.0 0.07698792 
0.0 0.0 0.0 0.0 0.0 0.07698792 
0.0 0.0 0.0 0.0 0.0 0.07698792 
0.0 0.0 0.0 0.0 0.0 0.07698792 
0.0 0.0 0.0 0.0 0.0 0.07698792 
0.0 0.0 0.0 0.0 0.0 0.07698792 
0.0 0.0 0.0 0.0 0.0 0.07698792 
0.0 0.0 0.0 0.0 0.0 0.07698792 
0.0 0.0 0.0 0.0 0.0 0.07698792 
0.0 0.0 0.0 0.0 0.0 0.07698792 
0.0 0.0 0.0 0.0 0.0 0.07698792 
0.0 0.0 0.0 0.0 0.0 0.07698792 
0.0 0.0 0.0 0.0 0.0 0.07698792 
0.0 0.0 0.0 0.0 0.0 0.07698792 
0.0 0.0 0.0 0.0 0.0 0.07698792 
0.022621855 0.0 0.060578994 0.0 0.0 0.021553382 
0.24708676 0.0 0.12295904 0.0 0.0 0.0 
0.8638031 0.0 0.0 0.0 0.0 0.0 
1.7027681 0.0 0.0 0.0 0.0 0.114113964 
1.8972902 0.38168943 0.0 0.0 0.97037023 0.15927446 
1.2578814 1.1761599 0.0 0.21378487 2.0799737 0.45464355 
0.23028696 1.6190252 0.0 0.32363248 2.9025724 0.7047537 
0.0 1.5028592 0.010849871 0.25004068 2.849622 0.8863947 
0.0 0.9310674 0.24156028 0.13404381 1.985123 0.8605148 
0.0 0.32202956 0.5223862 0.059820082 0.9131412 0.61964 
0.0 0.05719702 0.51968044 0.0057994025 0.3411447 0.37814727 
0.0 0.0 0.25006163 0.0 0.083266184 0.13510014 
0.0 0.0 0.0 0.0 0.0 0.07866211 
0.0 0.0 0.0 0.0 0.0 0.07698792 
0.0 0.0 0.0 0.0 0.0 0.07698792 
0.0 0.0 0.0 0.0 0.0 0.07698792 
0.0 0.0 0.0 0.0 0.0 0.07698792 
0.0 0.0 0.0 0.0 0.0 0.07698792 
0.0 0.0 0.0 0.0 0.0 0.07698792 
0.0 0.0 0.0 0.0 0.0 0.07698792 
0.0 0.0 0.0 0.0 0.0 0.07698792 
0.0 0.0 0.0 0.0 0.0 0.07698792 
0.0 0.0 0.0 0.0 0.0 0.07698792 
0.0 0.0 0.0 0.0 0.0 0.07698792 
0.0 0.0 0.0 0.0 0.0 0.07698792 
0.0 0.0 0.0 0.0 0.0 0.07698792 
0.0 0.0 0.0 0.0 0.0 0.07397108 
0.0219545 0.0 0.052444845 0.0 0.0 0.017743476 
0.32157195 0.0 0.13593963 0.0 0.0 0.0 
0.72227293 0.0 0.24084401 0.0 0.0 0.0 
1.4838498 0.0 0.00396993 0.0 0.0 0.0 
1.9320009 0.3024249 0.0 0.0 0.7465816 0.04104615 
1.4195435 0.8677768 0.0 0.0 1.9154255 0.23738486 
0.5612721 1.3857203 0.0 0.057632063 2.7016382 0.6268336 
0.0 1.590901 0.0 0.14837536 2.9179893 0.7915384 
0.0 0.99366087 0.2926451 0.009844917 2.2114577 0.84076756 
0.0 0.31039697 0.37736437 0.0 1.1228002 0.63195276 
0.0 0.0 0.34952575 0.0 0.3937786 0.393851 
0.0 0.0 0.18220806 0.0 0.14391868 0.18642643 
0.0 0.0 0.0068062544 0.0 0.0 0.08520669 
0.0 0.0 0.0 0.0 0.0 0.07698792 
0.0 0.0 0.0 0.0 0.0 0.07698792 
0.0 0.0 0.0 0.0 0.0 0.07698792 
0.0 0.0 0.0 0.0 0.0 0.07698792 
0.0 0.0 0.0 0.0 0.0 0.07698792 
0.0 0.0 0.0 0.0 0.0 0.07698792 
0.0 0.0 0.0 0.0 0.0 0.07698792 
0.0 0.0 0.0 0.0 0.0 0.07698792 
0.0 0.0 0.0 0.0 0.0 0.07698792 
0.0 0.0 0.0 0.0 0.0 0.07698792 
0.0 0.0 0.0 0.0 0.0 0.07698792 
0.0 0.0 0.0 0.0 0.0 0.07698792 
0.0 0.0 0.0 0.0 0.0 0.07698792 
0.0 0.0 0.0 0.0 0.0 0.07698792 
0.0 0.0 0.0 0.0 0.0 0.07371639 
0.19847399 0.0 0.09595022 0.0 0.0 3.4093857e-05 
0.8429344 0.0 0.09581112 0.0 0.0 0.0 
1.2837639 0.0 0.17304558 0.0 0.0 0.0 
1.7517724 0.24384436 0.06361414 0.0 0.46592155 0.0 
1.5434148 0.89490426 0.0 0.0 1.7175789 0.06644885 
0.7138762 1.3445697 0.0 0.0 2.6247175 0.3096959 
0.0 1.6030972 0.0 0.0 2.860654 0.5619806 
0.0 1.2089386 0.38926566 0.0047370316 2.3586972 0.6415895 
0.0 0.47117028 0.56618243 0.0 1.3141247 0.6042896 
0.0 0.06861713 0.47973734 0.0 0.46927187 0.38186234 
0.0 0.0 0.18220806 0.0 0.14391868 0.18642643 
0.0 0.0 0.0068062544 0.0 0.0 0.08520669 
0.0 0.0 0.0 0.0 0.0 0.07698792 
0.0 0.0 0.0 0.0 0.0 0.07698792 
0.0 0.0 0.0 0.0 0.0 0.07698792 
0.0 0.0 0.0 0.0 0.0 0.07698792 
0.0 0.0 0.0 0.0 0.0 0.07698792 
0.0 0.0 0.0 0.0 0.0 0.07698792 
0.0 0.0 0.0 0.0 0.0 0.07698792 
0.0 0.0 0.0 0.0 0.0 0.07698792 
0.0 0.0 0.0 0.0 0.0 0.07698792 
0.0 0.0 0.0 0.0 0.0 0.07698792 
0.0 0.0 0.0 0.0 0.0 0.07698792 
0.0 0.0 0.0 0.0 0.0 0.07698792 
0.0 0.0 0.0 0.0 0.0 0.07698792 
0.0 0.0 0.0 0.0 0.0 0.07698792 
0.0 0.0 0.0 0.0 0.0 0.072462656 
0.07724546 0.0 0.08381546 0.0 0.0 0.005496487 
0.6107831 0.0 0.018722586 0.0 0.0 0.0 
1.3368969 0.0 0.017728917 0.0 0.0 0.0 
1.766609 0.14967448 0.0 0.0 0.23677875 0.0 
1.5326016 0.94049424 0.0 0.15054062 1.3460982 0.007248789 
0.86228424 1.3534777 0.0 0.26704797 2.519035 0.4212725 
0.0 1.7439796 0.0 0.32455817 2.8647778 0.5657738 
0.0 1.4999298 0.15936536 0.15595412 2.4756093 0.66728574 
0.0 0.7321873 0.69666725 0.0641058 1.5305014 0.61339766 
0.0 0.15476464 0.6717417 0.0 0.6549363 0.42132223 
0.0 0.0 0.34631062 0.0 0.17069031 0.20323907 
0.0 0.0 0.0068062544 0.0 0.0 0.08520669 
0.0 0.0 0.0 0.0 0.0 0.07698792 
0.0 0.0 0.0 0.0 0.0 0.07698792 
0.0 0.0 0.0 0.0 0.0 0.07698792 
0.0 0.0 0.0 0.0 0.0 0.07698792 
0.0 0.0 0.0 0.0 0.0 0.07698792 
0.0 0.0 0.0 0.0 0.0 0.07698792 
0.0 0.0 0.0 0.0 0.0 0.07698792 
0.0 0.0 0.0 0.0 0.0 0.07698792 
0.0 0.0 0.0 0.0 0.0 0.07698792 
0.0 0.0 0.0 0.0 0.0 0.07698792 
0.0 0.0 0.0 0.0 0.0 0.07698792 
0.0 0.0 0.0 0.0 0.0 0.07698792 
0.0 0.0 0.0 0.0 0.0 0.07698792 
0.0 0.0 0.0 0.0 0.0 0.07698792 
0.0 0.0 0.0 0.0 0.0 0.07698792 
0.029490262 0.0 0.05446805 0.0 0.0 0.024942402 
0.39637607 0.0 0.10971231 0.0 0.0 0.0 
1.1629448 0.0 0.0 0.0 0.0 0.016125374 
1.8831201 0.0 0.0 0.0 0.15892059 0.085585214 
1.699753 0.7567971 0.0 0.032051 1.2452251 0.1282867 
0.8979897 1.1505417 0.0 0.24901378 2.4240732 0.58761835 
0.16410214 1.5972693 0.0 0.53214604 2.970924 0.893024 
0.0 1.4009101 0.16800481 0.4097227 2.7390463 0.89941144 
0.0 0.8284209 0.5080214 0.31743175 1.7347966 0.7347713 
0.0 0.27390534 0.7367657 0.095730595 0.8296414 0.51611286 
0.0 0.028657101 0.49790168 0.011547559 0.27856743 0.26803422 
0.0 0.0 0.092272125 0.0 0.02991708 0.09693107 
0.0 0.0 0.0 0.0 0.0 0.07698792 
0.0 0.0 0.0 0.0 0.0 0.07698792 
0.0 0.0 0.0 0.0 0.0 0.07698792 
0.0 0.0 0.0 0.0 0.0 0.07698792 
0.0 0.0 0.0 0.0 0.0 0.07698792 
0.0 0.0 0.0 0.0 0.0 0.07698792 
0.0 0.0 0.0 0.0 0.0 0.07698792 
0.0 0.0 0.0 0.0 0.0 0.07698792 
0.0 0.0 0.0 0.0 0.0 0.07698792 
0.0 0.0 0.0 0.0 0.0 0.07698792 
0.0 0.0 0.0 0.0 0.0 0.07698792 
0.0 0.0 0.0 0.0 0.0 0.07698792 
0.0 0.0 0.0 0.0 0.0 0.07698792 
0.0 0.0 0.0 0.0 0.0 0.07698792 
0.0 0.0 0.0 0.0 0.0 0.07698792 
0.0 0.0 0.0043645278 0.0 0.0 0.047950782 
0.26635206 0.0 0.09037442 0.0 0.0 0.0 
0.9034544 0.0 0.074246176 0.0 0.0 0.0 
1.7136307 0.0 0.0 0.0 0.0 0.012748517 
1.9563158 0.39363313 0.0 0.0 1.0333647 0.13441059 
1.125464 1.1511484 0.0 0.012697644 2.3182447 0.37537363 
0.22736788 1.4918594 0.0 0.1865038 2.9516232 0.75485283 
0.0 1.4197382 0.007027693 0.2708561 2.8538263 0.9874069 
0.0 0.7982437 0.2146444 0.14261541 1.952681 0.90400904 
0.0 0.35983694 0.54186124 0.13645872 0.81343484 0.6504697 
0.0 0.07114582 0.5552511 0.028352633 0.33679658 0.36973745 
0.0 0.0 0.24107707 0.0 0.07624237 0.13559616 
0.0 0.0 0.0 0.0 0.0 0.07889041 
0.0 0.0 0.0 0.0 0.0 0.07698792 
0.0 0.0 0.0 0.0 0.0 0.07698792 
0.0 0.0 0.0 0.0 0.0 0.07698792 
0.0 0.0 0.0 0.0 0.0 0.07698792 
0.0 0.0 0.0 0.0 0.0 0.07698792 
0.0 0.0 0.0 0.0 0.0 0.07698792 
0.0 0.0 0.0 0.0 0.0 0.07698792 
0.0 0.0 0.0 0.0 0.0 0.07698792 
0.0 0.0 0.0 0.0 0.0 0.07698792 
0.0 0.0 0.0 0.0 0.0 0.07698792 
0.0 0.0 0.0 0.0 0.0 0.07698792 
0.0 0.0 0.0 0.0 0.0 0.07698792 
0.0 0.0 0.0 0.0 0.0 0.07698792 
0.0 0.0 0.0 0.0 0.0 0.07698792 
0.0 0.0 0.0051675886 0.0 0.0 0.04757368 
0.20965683 0.0 0.12830305 0.0 0.0 0.0 
0.7485773 0.0 0.08800522 0.0 0.0 0.0 
1.439225 0.0 0.021796495 0.0 0.0 0.0 
1.9542258 0.19671065 0.0 0.0 0.6613513 0.0 
1.5476892 1.0408746 0.0 0.0 1.8507142 0.19760744 
0.44019026 1.6623186 0.0 0.013700296 2.7205083 0.33008236 
0.0 1.6889648 0.0 0.0 2.8611102 0.6251828 
0.0 1.0186734 0.2850177 0.0 2.1662452 0.7674741 
0.0 0.29504833 0.26642868 0.0 1.0666536 0.5770144 
0.0 0.0 0.24245754 0.0 0.3709956 0.40723076 
0.0 0.0 0.19078651 0.0 0.15177561 0.1895755 
0.0 0.0 0.01150094 0.0 0.0 0.085870676 
0.0 0.0 0.0 0.0 0.0 0.07698792 
0.0 0.0 0.0 0.0 0.0 0.07698792 
0.0 0.0 0.0 0.0 0.0 0.07698792 
0.0 0.0 0.0 0.0 0.0 0.07698792 
0.0 0.0 0.0 0.0 0.0 0.07698792 
0.0 0.0 0.0 0.0 0.0 0.07698792 
0.0 0.0 0.0 0.0 0.0 0.07698792 
0.0 0.0 0.0 0.0 0.0 0.07698792 
0.0 0.0 0.0 0.0 0.0 0.07698792 
0.0 0.0 0.0 0.0 0.0 0.07698792 
0.0 0.0 0.0 0.0 0.0 0.07698792 
0.0 0.0 0.0 0.0 0.0 0.07698792 
0.0 0.0 0.0 0.0 0.0 0.07698792 
0.0 0.0 0.0 0.0 0.0 0.07698792 
0.0 0.0 0.0051675886 0.0 0.0 0.04757368 
0.20963842 0.0 0.12705764 0.0 0.0 0.0 
0.65952915 0.0 0.1467779 0.0 0.0 0.0 
1.325016 0.0 0.09780548 0.0 0.0 0.0 
1.8794599 0.19693351 0.0 0.0 0.4221066 0.0 
1.6597004 0.85029846 0.0 0.0 1.5432199 0.09374705 
0.86014867 1.3851317 0.0 0.025662292 2.5192742 0.3768201 
0.0 1.762548 0.0 0.0 2.8722126 0.4265121 
0.0 1.3877581 0.55951035 0.0 2.3141332 0.44331303 
0.0 0.51520807 0.707257 0.0 1.4044536 0.4880769 
0.0 0.01691223 0.4369043 0.0 0.56187433 0.31054026 
0.0 0.0 0.06547684 0.0 0.13804325 0.17089066 
0.0 0.0 0.009723544 0.0 0.0 0.08707067 
0.0 0.0 0.0 0.0 0.0 0.07714012 
0.0 0.0 0.0 0.0 0.0 0.07698792 
0.0 0.0 0.0 0.0 0.0 0.07698792 
0.0 0.0 0.0 0.0 0.0 0.07698792 
0.0 0.0 0.0 0.0 0.0 0.07698792 
0.0 0.0 0.0 0.0 0.0 0.07698792 
0.0 0.0 0.0 0.0 0.0 0.07698792 
0.0 0.0 0.0 0.0 0.0 0.07698792 
0.0 0.0 0.0 0.0 0.0 0.07698792 
0.0 0.0 0.0 0.0 0.0 0.07698792 
0.0 0.0 0.0 0.0 0.0 0.07698792 
0.0 0.0 0.0 0.0 0.0 0.07698792 
0.0 0.0 0.0 0.0 0.0 0.07698792 
0.0 0.0 0.0 0.0 0.0 0.07698792 
0.0 0.0 0.0043645278 0.0 0.0 0.047950782 
0.20923847 0.0 0.12747213 0.0 0.0 0.0 
0.66109073 0.0 0.14644319 0.0 0.0 0.0 
1.2434275 0.0 0.15527919 0.0 0.0 0.0 
1.7421076 0.20543551 0.0 0.0 0.29917443 0.0 
1.564183 0.77757967 0.0 0.0 1.5151323 0.07621831 
0.9649851 1.0990146 0.0 0.18603173 2.4718287 0.5410298 
0.22517756 1.5070055 0.0 0.3241509 2.925095 0.76372856 
0.0 1.5382972 0.3420316 0.3772147 2.4943686 0.6162085 
0.0 0.85832524 0.9953053 0.25712538 1.6161182 0.49841624 
0.0 0.31680876 0.9852401 0.13350073 0.8106285 0.401865 
0.0 0.0054648733 0.4805684 0.05683517 0.1672433 0.153536 
0.0 0.0 0.0 0.0 0.0 0.082074 
0.0 0.0 0.0 0.0 0.0 0.07721622 
0.0 0.0 0.0 0.0 0.0 0.07698792 
0.0 0.0 0.0 0.0 0.0 0.07698792 
0.0 0.0 0.0 0.0 0.0 0.07698792 
0.0 0.0 0.0 0.0 0.0 0.07698792 
0.0 0.0 0.0 0.0 0.0 0.07698792 
0.0 0.0 0.0 0.0 0.0 0.07698792 
0.0 0.0 0.0 0.0 0.0 0.07698792 
0.0 0.0 0.0 0.0 0.0 0.07698792 
0.0 0.0 0.0 0.0 0.0 0.07698792 
0.0 0.0 0.0 0.0 0.0 0.07698792 
0.0 0.0 0.0 0.0 0.0 0.07698792 
0.0 0.0 0.0 0.0 0.0 0.07698792 
0.0 0.0 0.0 0.0 0.0 0.07698792 
0.0 0.0 0.0 0.0 0.0 0.054361578 
0.17732233 0.0 0.10444402 0.0 0.0 0.0 
0.6353723 0.0 0.124971755 0.0 0.0 0.0 
1.2361808 0.0 0.13378495 0.0 0.0 0.0 
1.6874814 0.22761331 0.026382923 0.0 0.18321973 0.0 
1.4637439 0.8411895 0.0 0.0062051313 1.4637208 0.03683663 
0.7984533 1.1912035 0.0 0.2906285 2.5329738 0.55085707 
0.26057383 1.3717296 0.0 0.54208034 2.9027271 0.9950711 
0.0 1.3384651 0.0 0.5400745 2.7210948 1.1222434 
0.0 0.8859385 0.37317818 0.42585048 1.8204888 0.8644117 
0.0 0.48613247 0.84559685 0.2565946 0.88820785 0.6198335 
0.0 0.14048879 0.73025393 0.109931074 0.35973674 0.30831504 
0.0 0.0 0.20411977 0.005020392 0.031152073 0.11498512 
0.0 0.0 0.0 0.0 0.0 0.07714012 
0.0 0.0 0.0 0.0 0.0 0.07698792 
0.0 0.0 0.0 0.0 0.0 0.07698792 
0.0 0.0 0.0 0.0 0.0 0.07698792 
0.0 0.0 0.0 0.0 0.0 0.07698792 
0.0 0.0 0.0 0.0 0.0 0.07698792 
0.0 0.0 0.0 0.0 0.0 0.07698792 
0.0 0.0 0.0 0.0 0.0 0.07698792 
0.0 0.0 0.0 0.0 0.0 0.07698792 
0.0 0.0 0.0 0.0 0.0 0.07698792 
0.0 0.0 0.0 0.0 0.0 0.07698792 
0.0 0.0 0.0 0.0 0.0 0.07698792 
0.0 0.0 0.0 0.0 0.0 0.07698792 
0.0 0.0 0.0 0.0 0.0 0.07698792 
0.0 0.0 0.0 0.0 0.0 0.072085544 
0.040250435 0.0 0.0 0.0 0.0 0.041452207 
0.42362618 0.0 0.0 0.0 0.0 0.03215161 
1.092808 0.0 0.0 0.0 0.0 0.08298785 
1.6681991 0.0 0.0 0.117317766 0.13868818 0.08181146 
1.6039364 0.6226641 0.0 0.19303247 1.2725904 0.20816407 
0.88567144 1.2835281 0.0 0.28477877 2.4224658 0.44410953 
0.09389803 1.6036302 0.0 0.33080703 2.8761923 0.73186296 
0.0 1.2844986 0.0 0.23318492 2.8090527 1.1309154 
0.0 0.6854704 0.0 0.04250462 2.0234518 1.0655384 
0.0 0.30331054 0.16565597 0.049217146 0.9127278 0.7022904 
0.0 0.03415339 0.4149597 0.0 0.43115816 0.4580842 
0.0 0.0 0.3354558 0.0 0.17112823 0.19144738 
0.0 0.0 0.0014497861 0.0 0.0 0.084521785 
0.0 0.0 0.0 0.0 0.0 0.07698792 
0.0 0.0 0.0 0.0 0.0 0.07698792 
0.0 0.0 0.0 0.0 0.0 0.07698792 
0.0 0.0 0.0 0.0 0.0 0.07698792 
0.0 0.0 0.0 0.0 0.0 0.07698792 
0.0 0.0 0.0 0.0 0.0 0.07698792 
0.0 0.0 0.0 0.0 0.0 0.07698792 
0.0 0.0 0.0 0.0 0.0 0.07698792 
0.0 0.0 0.0 0.0 0.0 0.07698792 
0.0 0.0 0.0 0.0 0.0 0.07698792 
0.0 0.0 0.0 0.0 0.0 0.07698792 
0.0 0.0 0.0 0.0 0.0 0.07698792 
0.0 0.0 0.0 0.0 0.0 0.07698792 
0.0 0.0 0.0 0.0 0.0 0.07698792 
0.09069897 0.0 0.12951371 0.0 0.0 0.0 
0.44176638 0.0 0.108327575 0.0 0.0 0.0 
0.859361 0.0 0.073968194 0.0 0.0 0.0 
1.5133224 0.0 0.0 0.0 0.04293013 0.0 
1.63602 0.41181636 0.0 0.0 1.1283498 0.21508765 
1.1926787 0.9820943 0.0 0.30374297 2.0919907 0.5999278 
0.28729397 1.5639896 0.0 0.40150616 2.7141497 0.76608855 
0.0 1.4076807 0.0 0.23466752 2.7337065 0.9496351 
0.0 0.7002955 0.13954744 0.0 2.0349247 0.987851 
0.0 0.17361268 0.04060638 0.0 1.0176197 0.6650398 
0.0 0.0 0.032711796 0.0 0.38829184 0.40180162 
0.0 0.0 0.12205527 0.0 0.17899942 0.23688434 
0.0 0.0 0.10017135 0.0 0.020342808 0.09835523 
0.0 0.0 0.0 0.0 0.0 0.07698792 
0.0 0.0 0.0 0.0 0.0 0.07698792 
0.0 0.0 0.0 0.0 0.0 0.07698792 
0.0 0.0 0.0 0.0 0.0 0.07698792 
0.0 0.0 0.0 0.0 0.0 0.07698792 
0.0 0.0 0.0 0.0 0.0 0.07698792 
0.0 0.0 0.0 0.0 0.0 0.07698792 
0.0 0.0 0.0 0.0 0.0 0.07698792 
0.0 0.0 0.0 0.0 0.0 0.07698792 
0.0 0.0 0.0 0.0 0.0 0.07698792 
0.0 0.0 0.0 0.0 0.0 0.07698792 
0.0 0.0 0.0 0.0 0.0 0.07698792 
0.0 0.0 0.0 0.0 0.0 0.07698792 
0.0 0.0 0.0 0.0 0.0 0.07698792 
0.0 0.0 0.0 0.0 0.0 0.07698792 
0.092494875 0.0 0.0 0.00844263 0.0 0.15086535 
0.50835603 0.0 0.0 0.17469466 0.0 0.32747263 
1.0590508 0.0 0.0 0.4033363 0.17755759 0.64276254 
1.2699778 0.04153563 0.0 0.6370423 1.0182992 1.0969942 
0.980689 0.29835698 0.0 0.6924378 2.041013 1.3423417 
0.4464873 0.8164837 0.0 0.7976313 2.4712536 1.4114699 
0.0 1.023498 0.0 0.53848976 2.5556314 1.1751506 
0.0 0.6751093 0.27627498 0.278873 1.8449262 0.8639726 
0.0 0.23080926 0.5039658 0.029712789 0.98620194 0.6259003 
0.0 0.0 0.3132541 0.0 0.3925414 0.32912883 
0.0 0.0 0.0 0.0 0.117896095 0.15196186 
0.0 0.0 0.0 0.0 0.0031654686 0.10527535 
0.0 0.0 0.0 0.0 0.0 0.07987971 
0.0 0.0 0.0 0.0 0.0 0.07698792 
0.0 0.0 0.0 0.0 0.0 0.07698792 
0.0 0.0 0.0 0.0 0.0 0.07698792 
0.0 0.0 0.0 0.0 0.0 0.07698792 
0.0 0.0 0.0 0.0 0.0 0.07698792 
0.0 0.0 0.0 0.0 0.0 0.07698792 
0.0 0.0 0.0 0.0 0.0 0.07698792 
0.0 0.0 0.0 0.0 0.0 0.07698792 
0.0 0.0 0.0 0.0 0.0 0.07698792 
0.0 0.0 0.0 0.0 0.0 0.07698792 
0.0 0.0 0.0 0.0 0.0 0.07698792 
0.0 0.0 0.0 0.0 0.0 0.07698792 
0.0 0.0 0.0 0.0 0.0 0.07698792 
0.0 0.0 0.0 0.0 0.0 0.07698792 
0.0 0.0 0.0 0.0 0.0 0.07698792 
0.20565179 0.0 0.0 0.11605729 0.017110202 0.34386736 
0.46229917 0.0 0.0 0.35541463 0.26322803 0.524223 
0.7161493 0.0 0.0 0.61743635 0.9462616 0.82276356 
0.7958456 0.0 0.0 0.8406546 1.5400776 1.3138328 
0.5784283 0.26645097 0.0 0.8420148 1.921132 1.4229429 
0.11361298 0.49232617 0.0 0.52210546 1.9732021 1.4299188 
0.0 0.56526023 0.0 0.2807104 1.4245026 1.0733094 
0.0 0.3019612 0.32673895 0.07449119 0.7391731 0.672723 
0.0 0.051140226 0.5039366 0.0 0.3415954 0.39650294 
0.0 0.0 0.2751692 0.0 0.09235512 0.14738375 
0.0 0.0 0.0 0.0 0.0 0.07957531 
0.0 0.0 0.0 0.0 0.0 0.07698792 
0.0 0.0 0.0 0.0 0.0 0.07698792 
0.0 0.0 0.0 0.0 0.0 0.07698792 
0.0 0.0 0.0 0.0 0.0 0.07698792 
0.0 0.0 0.0 0.0 0.0 0.07698792 
0.0 0.0 0.0 0.0 0.0 0.07698792 
0.0 0.0 0.0 0.0 0.0 0.07698792 
0.0 0.0 0.0 0.0 0.0 0.07698792 
0.0 0.0 0.0 0.0 0.0 0.07698792 
0.0 0.0 0.0 0.0 0.0 0.07698792 
0.0 0.0 0.0 0.0 0.0 0.07698792 
0.0 0.0 0.0 0.0 0.0 0.07698792 
0.0 0.0 0.0 0.0 0.0 0.07698792 
0.0 0.0 0.0 0.0 0.0 0.07698792 
0.0 0.0 0.0 0.0 0.0 0.07698792 
0.0 0.0 0.0 0.0 0.0 0.07698792 
0.0 0.0 0.0 0.0 0.0 0.07698792 
0.17510848 0.0 0.0 0.17246738 0.03739712 0.36344382 
0.38751855 0.05054645 0.0 0.09148802 0.40499583 0.72988033 
0.42725095 0.19703272 0.0 0.10110222 0.66333336 0.97886497 
0.5677938 0.15272848 0.0 0.0 0.95561117 1.2910099 
0.2451064 0.2466681 0.0 0.0 1.1270311 1.2638824 
0.0 0.09894076 0.0 0.0 0.92091113 0.97088104 
0.0 0.0 0.0 0.0 0.5515464 0.6284922 
0.0 0.0 0.061826766 0.0 0.33202443 0.38531545 
0.0 0.0 0.14206365 0.0 0.15841417 0.19619684 
0.0 0.0 0.019899845 0.0 0.002955228 0.08688088 
0.0 0.0 0.0 0.0 0.0 0.07698792 
0.0 0.0 0.0 0.0 0.0 0.07698792 
0.0 0.0 0.0 0.0 0.0 0.07698792 
0.0 0.0 0.0 0.0 0.0 0.07698792 
0.0 0.0 0.0 0.0 0.0 0.07698792 
0.0 0.0 0.0 0.0 0.0 0.07698792 
0.0 0.0 0.0 0.0 0.0 0.07698792 
0.0 0.0 0.0 0.0 0.0 0.07698792 
0.0 0.0 0.0 0.0 0.0 0.07698792 
0.0 0.0 0.0 0.0 0.0 0.07698792 
0.0 0.0 0.0 0.0 0.0 0.07698792 
0.0 0.0 0.0 0.0 0.0 0.07698792 
0.0 0.0 0.0 0.0 0.0 0.07698792 
0.0 0.0 0.0 0.0 0.0 0.07698792 
0.0 0.0 0.0 0.0 0.0 0.07698792 
0.0 0.0 0.0 0.0 0.0 0.07698792 
0.0 0.0 0.0 0.0 0.0 0.07698792 
0.0 0.0 0.0 0.0 0.0 0.07698792 
0.14950824 0.0 0.0 0.0 0.28295323 0.2255182 
0.27533802 0.0 0.0 0.0 0.45180604 0.3318542 
0.26556522 0.0 0.0 0.0 0.61559826 0.36573339 
0.25901216 0.0 0.0 0.0 0.7559632 0.51581776 
0.0 0.0 0.0 0.0 0.6594687 0.4143043 
0.0 0.0 0.0 0.0 0.39993587 0.3149781 
0.0 0.0 0.0 0.0 0.24845766 0.23284595 
0.0 0.0 0.0 0.0 0.10414262 0.14860421 
0.0 0.0 0.0 0.0 0.0 0.08414129 
0.0 0.0 0.0 0.0 0.0 0.07698792 
0.0 0.0 0.0 0.0 0.0 0.07698792 
0.0 0.0 0.0 0.0 0.0 0.07698792 
0.0 0.0 0.0 0.0 0.0 0.07698792 
0.0 0.0 0.0 0.0 0.0 0.07698792 
0.0 0.0 0.0 0.0 0.0 0.07698792 
0.0 0.0 0.0 0.0 0.0 0.07698792 
0.0 0.0 0.0 0.0 0.0 0.07698792 
0.0 0.0 0.0 0.0 0.0 0.07698792 
0.0 0.0 0.0 0.0 0.0 0.07698792 
0.0 0.0 0.0 0.0 0.0 0.07698792 
0.0 0.0 0.0 0.0 0.0 0.07698792 
0.0 0.0 0.0 0.0 0.0 0.07698792 
0.0 0.0 0.0 0.0 0.0 0.07698792 
0.0 0.0 0.0 0.0 0.0 0.07698792 
0.0 0.0 0.0 0.0 0.0 0.07698792 
0.0 0.0 0.0 0.0 0.0 0.07698792 
0.0 0.0 0.0 0.0 0.0 0.07698792 
0.0 0.0 0.0 0.0 0.0 0.07698792 
0.0 0.0 0.0 0.0 0.0 0.07698792 
0.0 0.0 0.0 0.0 0.0 0.07698792 
0.0 0.0 0.0 0.0 0.0 0.07698792 
0.0 0.0 0.0 0.0 0.0 0.07698792 
0.0 0.0 0.0 0.0 0.0 0.07698792 
0.0 0.0 0.0 0.0 0.0 0.07698792 
0.0 0.0 0.0 0.0 0.0 0.07698792 
0.0 0.0 0.0 0.0 0.0 0.07698792 
0.0 0.0 0.0 0.0 0.0 0.07698792 
0.0 0.0 0.0 0.0 0.0 0.07698792 
0.0 0.0 0.0 0.0 0.0 0.07698792 
0.0 0.0 0.0 0.0 0.0 0.07698792 
0.0 0.0 0.0 0.0 0.0 0.07698792 
0.0 0.0 0.0 0.0 0.0 0.07698792 
0.0 0.0 0.0 0.0 0.0 0.07698792 
0.0 0.0 0.0 0.0 0.0 0.07698792 
0.0 0.0 0.0 0.0 0.0 0.07698792 
0.0 0.0 0.0 0.0 0.0 0.07698792 
0.0 0.0 0.0 0.0 0.0 0.07698792 
0.0 0.0 0.0 0.0 0.0 0.07698792 
0.0 0.0 0.0 0.0 0.0 0.07698792 
0.0 0.0 0.0 0.0 0.0 0.07698792 
0.0 0.0 0.0 0.0 0.0 0.07698792 
0.0 0.0 0.0 0.0 0.0 0.07698792 
0.0 0.0 0.0 0.0 0.0 0.07698792 
0.0 0.0 0.0 0.0 0.0 0.07698792 
0.0 0.0 0.0 0.0 0.0 0.07698792 
0.0 0.0 0.0 0.0 0.0 0.07698792 
0.0 0.0 0.0 0.0 0.0 0.07698792 
0.0 0.0 0.0 0.0 0.0 0.07698792 
0.0 0.0 0.0 0.0 0.0 0.07698792 
0.0 0.0 0.0 0.0 0.0 0.07698792 
0.0 0.0 0.0 0.0 0.0 0.07698792 
0.0 0.0 0.0 0.0 0.0 0.07698792 
0.0 0.0 0.0 0.0 0.0 0.07698792 
0.0 0.0 0.0 0.0 0.0 0.07698792 
0.0 0.0 0.0 0.0 0.0 0.07698792 
0.0 0.0 0.0 0.0 0.0 0.07698792 
0.0 0.0 0.0 0.0 0.0 0.07698792 
0.0 0.0 0.0 0.0 0.0 0.07698792 
0.0 0.0 0.0 0.0 0.0 0.07698792 
0.0 0.0 0.0 0.0 0.0 0.07698792 
0.0 0.0 0.0 0.0 0.0 0.07698792 
0.0 0.0 0.0 0.0 0.0 0.07698792 
0.0 0.0 0.0 0.0 0.0 0.07698792 
0.0 0.0 0.0 0.0 0.0 0.07698792 
0.0 0.0 0.0 0.0 0.0 0.07698792 
0.0 0.0 0.0 0.0 0.0 0.07698792 
0.0 0.0 0.0 0.0 0.0 0.07698792 
0.0 0.0 0.0 0.0 0.0 0.07698792 
0.0 0.0 0.0 0.0 0.0 0.07698792 
0.0 0.0 0.0 0.0 0.0 0.07698792 
0.0 0.0 0.0 0.0 0.0 0.07698792 

