0.0 0.0 0.0 0.0 0.0 0.07698792 
0.0 0.0 0.0 0.0 0.0 0.07698792 
0.0 0.0 0.0 0.0 0.0 0.07698792 
0.0 0.0 0.0 0.0 0.0 0.07698792 
0.0 0.0 0.0 0.0 0.0 0.07698792 
0.0 0.0 0.0 0.0 0.0 0.07698792 
0.0 0.0 0.0 0.0 0.0 0.07698792 
0.0 0.0 0.0 0.0 0.0 0.07698792 
0.0 0.0 0.0 0.0 0.0 0.07698792 
0.0 0.0 0.0 0.0 0.0 0.06567475 
0.111959964 0.0 0.14451253 0.0 0.0 0.0 
0.23483056 0.15359291 0.12351773 0.0 0.0 0.0 
0.020609498 0.23336688 0.10283462 0.0 0.0 0.0 
0.0 0.2766523 0.13135469 0.0 0.0 0.0 
0.0 0.20801678 0.042400517 0.0 0.073428705 0.0 
0.0 0.04448177 0.0 0.0 0.0 0.028005447 
0.0 0.0 0.0 0.0 0.0 0.07698792 
0.0 0.0 0.0 0.0 0.0 0.07698792 
0.0 0.0 0.0 0.0 0.0 0.07698792 
0.0 0.0 0.0 0.0 0.0 0.07698792 
0.0 0.0 0.0 0.0 0.0 0.07698792 
0.0 0.0 0.0 0.0 0.0 0.07698792 
0.0 0.0 0.0 0.0 0.0 0.07698792 
0.0 0.0 0.0 0.0 0.0 0.07698792 
0.0 0.0 0.0 0.0 0.0 0.07698792 
0.0 0.0 0.0 0.0 0.0 0.07698792 
0.0 0.0 0.0 0.0 0.0 0.07698792 
0.0 0.0 0.0 0.0 0.0 0.07698792 
0.0 0.0 0.0 0.0 0.0 0.07698792 
0.0 0.0 0.0 0.0 0.0 0.07698792 
0.0 0.0 0.0 0.0 0.0 0.07698792 
0.0 0.0 0.0 0.0 0.0 0.07698792 
0.0 0.0 0.0 0.0 0.0 0.07698792 
0.0 0.0 0.0 0.0 0.0 0.07698792 
0.0 0.0 0.0 0.0 0.0 0.07698792 
0.0 0.0 0.0 0.0 0.0 0.07698792 
0.0 0.0 0.0 0.0 0.0 0.07698792 
0.0 0.0 0.0 0.0 0.0 0.06679374 
0.32457694 0.0 0.07276902 0.0 0.0 0.0 
0.66023356 0.05797097 0.26046118 0.0 0.0 0.0 
0.35382003 0.5756491 0.26284125 0.0 0.0 0.0 
0.0 0.8328568 0.5399135 0.0 0.21673174 0.0 
0.0 0.42436016 0.35090828 0.0 0.49540028 0.0 
0.0 0.07817597 0.02468782 0.0 0.16582973 0.0 
0.0 0.0 0.0 0.0 0.0 0.07698792 
0.0 0.0 0.0 0.0 0.0 0.07698792 
0.0 0.0 0.0 0.0 0.0 0.07698792 
0.0 0.0 0.0 0.0 0.0 0.07698792 
0.0 0.0 0.0 0.0 0.0 0.07698792 
0.0 0.0 0.0 0.0 0.0 0.07698792 
0.0 0.0 0.0 0.0 0.0 0.07698792 
0.0 0.0 0.0 0.0 0.0 0.07698792 
0.0 0.0 0.0 0.0 0.0 0.07698792 
0.0 0.0 0.0 0.0 0.0 0.07698792 
0.0 0.0 0.0 0.0 0.0 0.07698792 
0.0 0.0 0.0 0.0 0.0 0.07698792 
0.0 0.0 0.0 0.0 0.0 0.07698792 
0.0 0.0 0.0 0.0 0.0 0.07698792 
0.0 0.0 0.0 0.0 0.0 0.07698792 
0.0 0.0 0.0 0.0 0.0 0.07698792 
0.0 0.0 0.0 0.0 0.0 0.07698792 
0.0 0.0 0.0 0.0 0.0 0.07698792 
0.0 0.0 0.0 0.0 0.0 0.07698792 
0.0 0.0 0.0 0.0 0.0 0.07698792 
0.0 0.0 0.0 0.0 0.0 0.07698792 
0.00977008 0.0 0.0 0.0 0.0 0.10894628 
0.6090433 0.0 0.0 0.03476953 0.0 0.28201914 
0.974637 0.0 0.094329186 0.119809374 0.0 0.0 
0.38796836 0.6722439 0.34329724 0.13979 0.3535464 0.0 
0.0 1.1828401 0.98942614 0.08006652 0.6744111 0.0 
0.0 0.84536654 0.9767822 0.0 0.79127246 0.0 
0.0 0.16861771 0.21297118 0.0 0.31408 0.0 
0.0 0.0 0.0 0.0 0.0 0.07698792 
0.0 0.0 0.0 0.0 0.0 0.07698792 
0.0 0.0 0.0 0.0 0.0 0.07698792 
0.0 0.0 0.0 0.0 0.0 0.07698792 
0.0 0.0 0.0 0.0 0.0 0.07698792 
0.0 0.0 0.0 0.0 0.0 0.07698792 
0.0 0.0 0.0 0.0 0.0 0.07698792 
0.0 0.0 0.0 0.0 0.0 0.07698792 
0.0 0.0 0.0 0.0 0.0 0.07698792 
0.0 0.0 0.0 0.0 0.0 0.07698792 
0.0 0.0 0.0 0.0 0.0 0.07698792 
0.0 0.0 0.0 0.0 0.0 0.07698792 
0.0 0.0 0.0 0.0 0.0 0.07698792 
0.0 0.0 0.0 0.0 0.0 0.07698792 
0.0 0.0 0.0 0.0 0.0 0.07698792 
0.0 0.0 0.0 0.0 0.0 0.07698792 
0.0 0.0 0.0 0.0 0.0 0.07698792 
0.0 0.0 0.0 0.0 0.0 0.07698792 
0.0 0.0 0.0 0.0 0.0 0.07698792 
0.0 0.0 0.0 0.0 0.0 0.07698792 
0.0 0.0 0.0 0.0 0.0 0.07698792 
0.07952738 0.0 0.0 0.009379433 0.0 0.13846117 
0.92506784 0.0 0.0 0.19491279 0.0 0.55588114 
1.2893283 0.0 0.0 0.22113349 0.09133555 0.40483007 
0.3920285 1.010269 0.025380172 0.27342606 0.6192272 0.0 
0.0 1.4760706 1.1569424 0.30740568 0.8652739 0.0 
0.0 1.1494493 1.5736637 0.14387819 0.91641 0.0 
0.0 0.30408373 0.48396176 0.0 0.36667117 0.0 
0.0 0.0 0.0 0.0 0.0 0.07698792 
0.0 0.0 0.0 0.0 0.0 0.07698792 
0.0 0.0 0.0 0.0 0.0 0.07698792 
0.0 0.0 0.0 0.0 0.0 0.07698792 
0.0 0.0 0.0 0.0 0.0 0.07698792 
0.0 0.0 0.0 0.0 0.0 0.07698792 
0.0 0.0 0.0 0.0 0.0 0.07698792 
0.0 0.0 0.0 0.0 0.0 0.07698792 
0.0 0.0 0.0 0.0 0.0 0.07698792 
0.0 0.0 0.0 0.0 0.0 0.07698792 
0.0 0.0 0.0 0.0 0.0 0.07698792 
0.0 0.0 0.0 0.0 0.0 0.07698792 
0.0 0.0 0.0 0.0 0.0 0.07698792 
0.0 0.0 0.0 0.0 0.0 0.07698792 
0.0 0.0 0.0 0.0 0.0 0.07698792 
0.0 0.0 0.0 0.0 0.0 0.07698792 
0.0 0.0 0.0 0.0 0.0 0.07698792 
0.0 0.0 0.0 0.0 0.0 0.07698792 
0.0 0.0 0.0 0.0 0.0 0.07698792 
0.0 0.0 0.0 0.0 0.0 0.07698792 
0.0 0.0 0.0 0.0 0.0 0.07698792 
0.17444849 0.0 0.0 0.0 0.0 0.14921287 
1.2963302 0.0 0.0 0.0 0.07474485 0.68372214 
1.6041038 0.0 0.0 0.0 0.5638385 0.6490019 
0.36669293 0.9591606 0.0 0.0 0.9907631 0.0 
0.0 1.3835198 0.745524 0.049704645 1.21185 0.0 
0.0 0.8902454 1.6314818 0.08676705 1.116564 0.027176887 
0.0 0.23384094 0.6387184 0.05571947 0.37288204 0.023553267 
0.0 0.0 0.0 0.0 0.0 0.07698792 
0.0 0.0 0.0 0.0 0.0 0.07698792 
0.0 0.0 0.0 0.0 0.0 0.07698792 
0.0 0.0 0.0 0.0 0.0 0.07698792 
0.0 0.0 0.0 0.0 0.0 0.07698792 
0.0 0.0 0.0 0.0 0.0 0.07698792 
0.0 0.0 0.0 0.0 0.0 0.07698792 
0.0 0.0 0.0 0.0 0.0 0.07698792 
0.0 0.0 0.0 0.0 0.0 0.07698792 
0.0 0.0 0.0 0.0 0.0 0.07698792 
0.0 0.0 0.0 0.0 0.0 0.07698792 
0.0 0.0 0.0 0.0 0.0 0.07698792 
0.0 0.0 0.0 0.0 0.0 0.07698792 
0.0 0.0 0.0 0.0 0.0 0.07698792 
0.0 0.0 0.0 0.0 0.0 0.07698792 
0.0 0.0 0.0 0.0 0.0 0.07698792 
0.0 0.0 0.0 0.0 0.0 0.07698792 
0.0 0.0 0.0 0.0 0.0 0.07698792 
0.0 0.0 0.0 0.0 0.0 0.07698792 
0.0 0.0 0.0 0.0 0.0 0.07698792 
0.0 0.0 0.0 0.0 0.0 0.07698792 
0.31913164 0.0 0.0 0.0 0.0 0.17597991 
1.5056245 0.0 0.0 0.0 0.07089493 0.606047 
1.646414 0.036515437 0.0 0.0 0.830556 0.48946983 
0.22821444 1.152459 0.0 0.0 1.2004007 0.0 
0.0 1.3215528 0.7220289 0.0 1.390926 0.0 
0.0 0.70944995 1.4520022 0.0 1.1105038 0.097083576 
0.0 0.18894084 0.62711304 0.07984152 0.27122232 0.06131395 
0.0 0.0 0.0 0.0 0.0 0.07698792 
0.0 0.0 0.0 0.0 0.0 0.07698792 
0.0 0.0 0.0 0.0 0.0 0.07698792 
0.0 0.0 0.0 0.0 0.0 0.07698792 
0.0 0.0 0.0 0.0 0.0 0.07698792 
0.0 0.0 0.0 0.0 0.0 0.07698792 
0.0 0.0 0.0 0.0 0.0 0.07698792 
0.0 0.0 0.0 0.0 0.0 0.07698792 
0.0 0.0 0.0 0.0 0.0 0.07698792 
0.0 0.0 0.0 0.0 0.0 0.07698792 
0.0 0.0 0.0 0.0 0.0 0.07698792 
0.0 0.0 0.0 0.0 0.0 0.07698792 
0.0 0.0 0.0 0.0 0.0 0.07698792 
0.0 0.0 0.0 0.0 0.0 0.07698792 
0.0 0.0 0.0 0.0 0.0 0.07698792 
0.0 0.0 0.0 0.0 0.0 0.07698792 
0.0 0.0 0.0 0.0 0.0 0.07698792 
0.0 0.0 0.0 0.0 0.0 0.07698792 
0.0 0.0 0.0 0.0 0.0 0.07698792 
0.0 0.0 0.0 0.0 0.0 0.07698792 
0.0 0.0 0.0 0.0 0.0 0.07698792 
0.47471112 0.0 0.0 0.009327357 0.0 0.30317733 
1.6813786 0.0 0.0 0.035933223 0.10594025 0.70396143 
1.5657003 0.35062602 0.0 0.0 0.9329401 0.3716879 
0.051681846 1.4231347 0.0 0.0 1.2705108 0.0 
0.0 1.411271 0.9596908 0.0 1.4293739 0.0 
0.0 0.6516283 1.3327862 0.0 1.0027945 0.05347131 
0.0 0.09911555 0.48056734 0.0008298801 0.22096653 0.065872334 
0.0 0.0 0.0 0.0 0.0 0.07698792 
0.0 0.0 0.0 0.0 0.0 0.07698792 
0.0 0.0 0.0 0.0 0.0 0.07698792 
0.0 0.0 0.0 0.0 0.0 0.07698792 
0.0 0.0 0.0 0.0 0.0 0.07698792 
0.0 0.0 0.0 0.0 0.0 0.07698792 
0.0 0.0 0.0 0.0 0.0 0.07698792 
0.0 0.0 0.0 0.0 0.0 0.07698792 
0.0 0.0 0.0 0.0 0.0 0.07698792 
0.0 0.0 0.0 0.0 0.0 0.07698792 
0.0 0.0 0.0 0.0 0.0 0.07698792 
0.0 0.0 0.0 0.0 0.0 0.07698792 
0.0 0.0 0.0 0.0 0.0 0.07698792 
0.0 0.0 0.0 0.0 0.0 0.07698792 
0.0 0.0 0.0 0.0 0.0 0.07698792 
0.0 0.0 0.0 0.0 0.0 0.07698792 
0.0 0.0 0.0 0.0 0.0 0.07698792 
0.0 0.0 0.0 0.0 0.0 0.07698792 
0.0 0.0 0.0 0.0 0.0 0.07698792 
0.0 0.0 0.0 0.0 0.0 0.07698792 
0.0 0.0 0.0 0.0 0.0 0.07698792 
0.6753737 0.0 0.0 0.052569937 0.0 0.49165216 
1.8441694 0.0 0.0 0.09046832 0.28870538 0.86287194 
1.432086 0.41341066 0.0 0.0 1.080459 0.28625658 
0.0 1.4610406 0.0 0.000990157 1.3233773 0.0 
0.0 1.3977396 1.2947234 0.0 1.4903508 0.0 
0.0 0.60030514 1.2842653 0.0 0.9935861 0.0 
0.0 0.031041745 0.32111913 0.0 0.2053398 0.042585753 
0.0 0.0 0.0 0.0 0.0 0.07698792 
0.0 0.0 0.0 0.0 0.0 0.07698792 
0.0 0.0 0.0 0.0 0.0 0.07698792 
0.0 0.0 0.0 0.0 0.0 0.07698792 
0.0 0.0 0.0 0.0 0.0 0.07698792 
0.0 0.0 0.0 0.0 0.0 0.07698792 
0.0 0.0 0.0 0.0 0.0 0.07698792 
0.0 0.0 0.0 0.0 0.0 0.07698792 
0.0 0.0 0.0 0.0 0.0 0.07698792 
0.0 0.0 0.0 0.0 0.0 0.07698792 
0.0 0.0 0.0 0.0 0.0 0.07698792 
0.0 0.0 0.0 0.0 0.0 0.07698792 
0.0 0.0 0.0 0.0 0.0 0.07698792 
0.0 0.0 0.0 0.0 0.0 0.07698792 
0.0 0.0 0.0 0.0 0.0 0.07698792 
0.0 0.0 0.0 0.0 0.0 0.07698792 
0.0 0.0 0.0 0.0 0.0 0.07698792 
0.0 0.0 0.0 0.0 0.0 0.07698792 
0.0 0.0 0.0 0.0 0.0 0.07698792 
0.0 0.0 0.0 0.0 0.0 0.07698792 
0.0 0.0 0.0 0.0 0.0 0.07698792 
0.8206838 0.0 0.0 0.07235147 0.0 0.63246566 
1.9507055 0.0 0.0 0.07768781 0.4445621 1.0271337 
1.2827299 0.5458432 0.0 0.060782608 1.0425378 0.30096656 
0.0 1.4857041 0.043597706 0.070437685 1.3047101 0.0 
0.0 1.4652362 1.6437273 0.012383957 1.4918228 0.0 
0.0 0.6066308 1.3500282 0.0 0.9318517 0.0 
0.0 0.08674586 0.26344487 0.0 0.15202509 0.045561396 
0.0 0.0 0.0 0.0 0.0 0.07698792 
0.0 0.0 0.0 0.0 0.0 0.07698792 
0.0 0.0 0.0 0.0 0.0 0.07698792 
0.0 0.0 0.0 0.0 0.0 0.07698792 
0.0 0.0 0.0 0.0 0.0 0.07698792 
0.0 0.0 0.0 0.0 0.0 0.07698792 
0.0 0.0 0.0 0.0 0.0 0.07698792 
0.0 0.0 0.0 0.0 0.0 0.07698792 
0.0 0.0 0.0 0.0 0.0 0.07698792 
0.0 0.0 0.0 0.0 0.0 0.07698792 
0.0 0.0 0.0 0.0 0.0 0.07698792 
0.0 0.0 0.0 0.0 0.0 0.07698792 
0.0 0.0 0.0 0.0 0.0 0.07698792 
0.0 0.0 0.0 0.0 0.0 0.07698792 
0.0 0.0 0.0 0.0 0.0 0.07698792 
0.0 0.0 0.0 0.0 0.0 0.07698792 
0.0 0.0 0.0 0.0 0.0 0.07698792 
0.0 0.0 0.0 0.0 0.0 0.07698792 
0.0 0.0 0.0 0.0 0.0 0.07698792 
0.0 0.0 0.0 0.0 0.0 0.07698792 
0.0 0.0 0.0 0.0 0.0 0.06265791 
0.9532197 0.0 0.0 0.0 0.038727824 0.64566386 
1.9801741 0.0 0.0 0.0027502896 0.5696808 1.0458708 
1.1504097 0.5254668 0.0 0.0 1.1717918 0.33134907 
0.0 1.4179305 0.0 0.08181289 1.4131368 0.0 
0.0 1.2970691 1.6368444 0.109012336 1.5283061 0.057174265 
0.0 0.49331626 1.2766746 0.067959934 0.8708777 0.0789434 
0.0 0.053991154 0.25722376 0.043253586 0.08724503 0.072040536 
0.035221517 0.0 0.06076058 0.0 0.0 0.005255282 
0.16133827 0.060102016 0.11496178 0.0 0.0 0.0 
0.12868199 0.16403104 0.14308047 0.0 0.0 0.0 
0.034340993 0.2776014 0.12633106 0.0 0.0 0.0 
0.0 0.2494708 0.09205561 0.0 0.013143595 0.0 
0.0 0.15157992 0.023492225 0.0 0.019528855 0.0 
0.0 0.04392065 0.0 0.0 0.0 0.028526537 
0.0 0.0 0.0 0.0 0.0 0.07698792 
0.0 0.0 0.0 0.0 0.0 0.07698792 
0.0 0.0 0.0 0.0 0.0 0.07698792 
0.0 0.0 0.0 0.0 0.0 0.07698792 
0.0 0.0 0.0 0.0 0.0 0.07698792 
0.0 0.0 0.0 0.0 0.0 0.07698792 
0.0 0.0 0.0 0.0 0.0 0.07698792 
0.0 0.0 0.0 0.0 0.0 0.07698792 
0.0 0.0 0.0 0.0 0.0 0.07698792 
0.0 0.0 0.0 0.0 0.0 0.07698792 
0.0 0.0 0.0 0.0 0.0 0.07698792 
0.0 0.0 0.0 0.0 0.0 0.07698792 
0.0 0.0 0.0 0.0 0.0 0.07698792 
0.0019425005 0.0 0.0 0.0 0.0 0.05711141 
1.063262 0.0 0.0 0.0 0.0071261264 0.61010486 
1.9618781 0.0 0.0 0.0 0.66828597 0.9624257 
0.9470747 0.6883278 0.0 0.0 1.2769526 0.24330215 
0.0 1.3845878 0.0 0.00838719 1.4637667 0.0 
0.0 1.0815307 1.5163305 0.06520839 1.4485246 0.16212392 
0.0 0.3241211 1.2360711 0.03769906 0.60520416 0.076184906 
0.11707051 0.065267295 0.41440737 0.0 0.0 0.0 
0.4236908 0.06353422 0.24015361 0.0 0.0 0.0 
0.62240255 0.24121484 0.4295374 0.0 0.0 0.0 
0.6529583 0.5978884 0.5671113 0.0 0.0 0.0 
0.2537856 1.0063772 0.6302067 0.0 0.07905136 0.0 
0.0 0.84553045 0.54392546 0.0 0.39103654 0.0 
0.0 0.5157404 0.35574275 0.0 0.34872332 0.0 
0.0 0.15145676 0.058001637 0.0 0.20889087 0.0 
0.0 0.0096924165 0.0 0.0 0.0 0.06031304 
0.0 0.0 0.0 0.0 0.0 0.07698792 
0.0 0.0 0.0 0.0 0.0 0.07698792 
0.0 0.0 0.0 0.0 0.0 0.07698792 
0.0 0.0 0.0 0.0 0.0 0.07698792 
0.0 0.0 0.0 0.0 0.0 0.07698792 
0.0 0.0 0.0 0.0 0.0 0.07698792 
0.0 0.0 0.0 0.0 0.0 0.07698792 
0.0 0.0 0.0 0.0 0.0 0.07698792 
0.0 0.0 0.0 0.0 0.0 0.07698792 
0.0 0.0 0.0 0.0 0.0 0.07698792 
0.0 0.0 0.0 0.0 0.0 0.07698792 
0.0 0.0 0.0 0.0 0.0 0.07698792 
0.12244171 0.0 0.010005571 0.0 0.0 0.075719506 
1.2452042 0.0 0.0 0.0 0.0 0.54989064 
1.8882515 0.0 0.0 0.0 0.7488895 0.73575485 
0.72388715 0.96693987 0.0 0.0 1.3106304 0.0028691143 
0.0 1.4202448 0.105082 0.0 1.4521016 0.0 
0.0 0.8720536 1.4984887 0.0 1.2066942 0.08870138 
0.0 0.16441116 1.088432 0.0 0.18213019 0.0 
0.5829884 0.0 0.36451 0.0 0.0 0.0 
0.9095707 0.13276652 0.20949942 0.0 0.0 0.0 
0.8542525 0.45479295 0.47920793 0.0 0.0 0.0 
0.6292355 0.71524984 0.79542476 0.0 0.38323918 0.0 
0.117472455 1.1977944 1.1197028 0.0 0.8044773 0.0 
0.0 1.3604006 1.1949118 0.0 0.9127277 0.0 
0.0 1.0184879 1.0207022 0.0 0.7582993 0.0 
0.0 0.3617921 0.3802041 0.0 0.50631654 0.0 
0.0 0.048394945 0.0 0.0 0.044315223 0.011803329 
0.0 0.0 0.0 0.0 0.0 0.07698792 
0.0 0.0 0.0 0.0 0.0 0.07698792 
0.0 0.0 0.0 0.0 0.0 0.07698792 
0.0 0.0 0.0 0.0 0.0 0.07698792 
0.0 0.0 0.0 0.0 0.0 0.07698792 
0.0 0.0 0.0 0.0 0.0 0.07698792 
0.0 0.0 0.0 0.0 0.0 0.07698792 
0.0 0.0 0.0 0.0 0.0 0.07698792 
0.0 0.0 0.0 0.0 0.0 0.07698792 
0.0 0.0 0.0 0.0 0.0 0.07698792 
0.0 0.0 0.0 0.0 0.0 0.07698792 
0.0 0.0 0.0 0.0 0.0 0.07698792 
0.25646567 0.0 0.0 0.0 0.0 0.18222296 
1.4266944 0.0 0.0 0.016722437 0.031074319 0.6553445 
1.8181736 0.0 0.0 0.0 0.83266455 0.6015505 
0.4681018 1.161139 0.0 0.0 1.292667 0.0 
0.0 1.3450695 0.61272365 0.0 1.3704399 0.0 
0.0 0.75231546 1.5916444 0.0 0.8545039 0.0 
0.233623 0.0 0.8259816 0.0 0.03581867 0.0 
0.9993357 0.0 0.08265982 0.0 0.0 0.0 
0.8537186 0.49162856 0.16374576 0.1738139 0.573902 0.0 
0.4423669 0.66902083 0.30601615 0.60027003 1.2013786 0.14598382 
0.37308863 0.63294995 0.62683034 0.9310719 1.2144523 0.35229254 
0.26129574 1.1101878 1.0939286 0.84772474 1.0918149 0.0 
0.0 1.7073146 1.6097811 0.6223792 1.0090193 0.0 
0.0 1.5403037 1.734492 0.11530678 0.9639912 0.0 
0.0 0.77629584 0.97209036 0.0 0.7098533 0.0 
0.0 0.11000427 0.08143806 0.0 0.19718318 0.0 
0.0 0.0 0.0 0.0 0.0 0.07698792 
0.0 0.0 0.0 0.0 0.0 0.07698792 
0.0 0.0 0.0 0.0 0.0 0.07698792 
0.0 0.0 0.0 0.0 0.0 0.07698792 
0.0 0.0 0.0 0.0 0.0 0.07698792 
0.0 0.0 0.0 0.0 0.0 0.07698792 
0.0 0.0 0.0 0.0 0.0 0.07698792 
0.0 0.0 0.0 0.0 0.0 0.07698792 
0.0 0.0 0.0 0.0 0.0 0.07698792 
0.0 0.0 0.0 0.0 0.0 0.07698792 
0.0 0.0 0.0 0.0 0.0 0.07698792 
0.0 0.0 0.0 0.0 0.0 0.07698792 
0.4223981 0.0 0.0 0.03797506 0.0 0.33985054 
1.5626075 0.0 0.0 0.08595455 0.17901385 0.78757924 
1.6783643 0.06267301 0.0 0.053121638 0.8862852 0.5343491 
0.36490643 1.2362832 0.0 0.0 1.1678782 0.0 
0.0 1.3977956 1.1526643 0.0 1.0931255 0.0 
0.0 0.65626657 1.6609346 0.0 0.7218197 0.0 
0.65007067 0.14954776 0.5959705 0.0 0.42163953 0.0 
0.8941384 0.6094845 0.0 0.31741273 0.8362894 0.05503981 
0.16397311 1.0598897 0.0 0.64293 1.7733172 0.48360375 
0.13954471 0.69672763 0.0 0.83661026 1.8237797 1.1415503 
0.869741 0.38432175 0.0 0.83165365 1.2277908 1.3779981 
0.75083566 0.9096218 0.0 0.5682897 0.98734313 0.6519255 
0.0 1.4903194 1.0075017 0.43665686 1.1170076 0.0 
0.0 1.5791225 1.8524358 0.27842054 1.2332045 0.0 
0.0 0.9324081 1.4685805 0.08644929 0.9100635 0.0 
0.0 0.15483122 0.26874095 0.0 0.28084233 0.0 
0.0 0.0 0.0 0.0 0.0 0.07698792 
0.0 0.0 0.0 0.0 0.0 0.07698792 
0.0 0.0 0.0 0.0 0.0 0.07698792 
0.0 0.0 0.0 0.0 0.0 0.07698792 
0.0 0.0 0.0 0.0 0.0 0.07698792 
0.0 0.0 0.0 0.0 0.0 0.07698792 
0.0 0.0 0.0 0.0 0.0 0.07698792 
0.0 0.0 0.0 0.0 0.0 0.07698792 
0.0 0.0 0.0 0.0 0.0 0.07698792 
0.0 0.0 0.0 0.0 0.0 0.07698792 
0.0 0.0 0.0 0.0 0.0 0.07698792 
0.0 0.0 0.0 0.0 0.0 0.07698792 
0.5411621 0.0 0.0 0.0703896 0.0 0.46168745 
1.661952 0.0 0.0 0.06834158 0.3233011 0.9448201 
1.6042998 0.15812925 0.0 0.07005693 0.8968077 0.5757388 
0.44621575 1.147001 0.0 0.0 1.028653 0.0 
0.0 1.200907 1.2715145 0.0 1.0710615 0.0 
0.08417979 0.71336186 1.4770498 0.03373256 1.1357201 0.0 
0.5092905 0.6724173 0.36029604 0.30536106 1.3840784 0.13853252 
0.22244263 1.0442818 0.0 0.41714326 1.9279428 0.53511405 
0.0 0.84900445 0.0 0.2295239 2.0812142 0.91603214 
0.39190316 0.080082916 0.0 0.051305052 1.3202116 1.2300522 
1.4224529 0.0 0.0 0.0 1.0019666 1.3353913 
1.0321548 0.28833005 0.0 0.0 1.265761 0.6373736 
0.0 1.1875747 0.027077638 0.0 1.462424 0.0 
0.0 1.3318794 1.47916 0.11894706 1.5432371 0.0 
0.0 0.7018577 1.5259242 0.18213445 1.0085812 0.07061632 
0.0 0.20893052 0.44678348 0.14305663 0.18274228 0.06323998 
0.0 0.0 0.0 0.0 0.0 0.07698792 
0.0 0.0 0.0 0.0 0.0 0.07698792 
0.0 0.0 0.0 0.0 0.0 0.07698792 
0.0 0.0 0.0 0.0 0.0 0.07698792 
0.0 0.0 0.0 0.0 0.0 0.07698792 
0.0 0.0 0.0 0.0 0.0 0.07698792 
0.0 0.0 0.0 0.0 0.0 0.07698792 
0.0 0.0 0.0 0.0 0.0 0.07698792 
0.0 0.0 0.0 0.0 0.0 0.07698792 
0.0 0.0 0.0 0.0 0.0 0.07698792 
0.0 0.0 0.0 0.0 0.0 0.07698792 
0.0 0.0 0.0 0.0 0.0 0.07698792 
0.617684 0.0 0.0 0.0032600285 0.037988055 0.513165 
1.7216716 0.0 0.0 0.022435065 0.40730384 0.9938113 
1.5991566 0.10547513 0.0 0.0 0.93471175 0.5830851 
0.642585 0.8986109 0.0 0.0 1.0577184 0.023451008 
0.11225128 1.0845253 1.1114362 0.16205932 1.3421024 0.055843133 
0.10395177 1.0049112 1.1378404 0.2788506 1.9128199 0.26438597 
0.006845504 1.1839064 0.08916486 0.30120817 2.0232918 0.34292883 
0.0 0.97612816 0.0 0.030820597 1.9227618 0.61874074 
0.0 0.39049757 0.0 0.0 1.1290174 0.65198684 
0.64631253 0.0 0.0 0.0 0.40747264 0.7509689 
1.5960112 0.0 0.0 0.0 0.7580926 0.86622953 
1.117476 0.5027646 0.0 0.0 1.3877455 0.25689662 
0.0 1.4398284 0.0 0.0 1.6573433 0.0 
0.0 1.2416513 1.2125244 0.026639026 1.5341064 0.13058859 
0.0 0.4590991 1.2574743 0.102323875 0.8648471 0.20564757 
0.0 0.11260223 0.41720068 0.13300022 0.07935108 0.11749156 
0.0 0.0 0.0 0.0 0.0 0.07698792 
0.0 0.0 0.0 0.0 0.0 0.07698792 
0.0 0.0 0.0 0.0 0.0 0.07698792 
0.0 0.0 0.0 0.0 0.0 0.07698792 
0.0 0.0 0.0 0.0 0.0 0.07698792 
0.0 0.0 0.0 0.0 0.0 0.07698792 
0.0 0.0 0.0 0.0 0.0 0.07698792 
0.0 0.0 0.0 0.0 0.0 0.07698792 
0.0 0.0 0.0 0.0 0.0 0.07698792 
0.0 0.0 0.0 0.0 0.0 0.07698792 
0.0 0.0 0.0 0.0 0.0 0.07698792 
0.0 0.0 0.0 0.0 0.0 0.07698792 
0.5467328 0.0 0.0 0.046570938 0.10275854 0.5541054 
1.6034849 0.0 0.0 0.111146644 0.47016713 1.1191785 
1.6640182 0.0 0.0 0.08299009 0.8867333 0.7021028 
0.92381066 0.7844237 0.0 0.13979115 1.0543679 0.31166437 
0.37585044 1.1485487 0.80125165 0.16075182 1.7571467 0.3505116 
0.0 1.418231 0.713945 0.0 2.352649 0.19413084 
0.0 1.2657077 0.11947613 0.0 1.8946195 0.18532127 
0.0 0.7346241 0.26613832 0.0 1.204517 0.31526026 
0.0 0.0 0.4682951 0.0 0.30058655 0.23260802 
1.0579021 0.0 0.016810074 0.0 0.043325458 0.37391004 
1.7494485 0.0 0.0 0.0 0.8580361 0.46380338 
0.715395 1.0637382 0.0 0.0 1.6534158 0.053058743 
0.0 1.4491241 0.0 0.0 1.8112117 0.03640312 
0.0 0.9101636 1.1176218 0.07287747 1.3864801 0.3663501 
0.0 0.2256997 0.9368958 0.095539026 0.6116349 0.24572824 
0.0 0.0 0.19420269 0.0 0.037997518 0.1082928 
0.0 0.0 0.0 0.0 0.0 0.07698792 
0.0 0.0 0.0 0.0 0.0 0.07698792 
0.0 0.0 0.0 0.0 0.0 0.07698792 
0.0 0.0 0.0 0.0 0.0 0.07698792 
0.0 0.0 0.0 0.0 0.0 0.07698792 
0.0 0.0 0.0 0.0 0.0 0.07698792 
0.0 0.0 0.0 0.0 0.0 0.07698792 
0.0 0.0 0.0 0.0 0.0 0.07698792 
0.0 0.0 0.0 0.0 0.0 0.07698792 
0.0 0.0 0.0 0.0 0.0 0.07698792 
0.0 0.0 0.0 0.0 0.0 0.07698792 
0.0 0.0 0.0 0.0 0.0 0.07698792 
0.4440717 0.0 0.0 0.065468766 0.22615157 0.54510975 
1.4012215 0.0 0.0 0.12878945 0.52621603 1.1680114 
1.6340611 0.0 0.0 0.14806727 0.758078 0.8670244 
1.2745371 0.41999307 0.0 0.18467447 1.2393451 0.64766854 
0.5124497 1.216729 0.30590716 0.20066677 1.99696 0.5569592 
0.0 1.4645408 0.67557585 0.0 2.312036 0.08150603 
0.0 1.0131567 0.6218496 0.0 1.4667718 0.03226482 
0.0 0.4418172 0.96635675 0.0 0.5808599 0.0 
0.42666245 0.0 0.6349367 0.0 0.0 0.0 
1.5495696 0.0 0.0 0.0 0.23392634 0.020343184 
1.4483619 0.64295286 0.0 0.0 1.4457121 0.19244722 
0.0 1.4617393 0.0 0.0 1.9486462 0.05817762 
0.0 1.2291113 0.43857643 0.09845468 1.6935302 0.24823919 
0.0 0.50370485 1.0923463 0.14565939 1.0397135 0.44044486 
0.0 0.12340732 0.71475434 0.14052966 0.2671467 0.1975694 
0.0 0.0 0.011134498 0.0 0.0 0.08617425 
0.0 0.0 0.0 0.0 0.0 0.07698792 
0.0 0.0 0.0 0.0 0.0 0.07698792 
0.0 0.0 0.0 0.0 0.0 0.07698792 
0.0 0.0 0.0 0.0 0.0 0.07698792 
0.0 0.0 0.0 0.0 0.0 0.07698792 
0.0 0.0 0.0 0.0 0.0 0.07698792 
0.0 0.0 0.0 0.0 0.0 0.07698792 
0.0 0.0 0.0 0.0 0.0 0.07698792 
0.0 0.0 0.0 0.0 0.0 0.07698792 
0.0 0.0 0.0 0.0 0.0 0.07698792 
0.0 0.0 0.0 0.0 0.0 0.07698792 
0.0 0.0 0.0 0.0 0.0 0.07698792 
0.29066995 0.0 0.0 0.014059684 0.23762737 0.4169013 
1.1681473 0.0 0.0 0.0478329 0.5557572 1.160192 
1.6027989 0.0 0.0 0.10504818 0.6817117 1.1782935 
1.5578144 0.12610826 0.0 0.16832304 1.1935902 0.7916583 
0.6324411 1.207795 0.19197962 0.12598722 1.799805 0.38151607 
0.0 1.6502863 1.2962759 0.0 1.6829941 0.0 
0.0 1.088835 1.3463228 0.0 0.91552436 0.0 
0.2640329 0.53969556 1.306113 0.0 0.2175395 0.0 
1.104774 0.2656578 0.5307512 0.0 0.18067358 0.0 
1.3451488 0.52542204 0.0 0.0 1.2301468 0.051223755 
0.43934542 1.2041718 0.0 0.06351174 2.1826098 0.26927745 
0.0 1.2994063 0.0 0.1793916 2.0302038 0.42377278 
0.0 0.7939615 0.6678982 0.19939345 1.2820643 0.5526761 
0.0 0.22117537 0.85437804 0.109780416 0.58060604 0.3913892 
0.0 0.0 0.38168973 0.023134522 0.09759015 0.1430195 
0.0 0.0 0.0 0.0 0.0 0.07797722 
0.0 0.0 0.0 0.0 0.0 0.07698792 
0.0 0.0 0.0 0.0 0.0 0.07698792 
0.0 0.0 0.0 0.0 0.0 0.07698792 
0.0 0.0 0.0 0.0 0.0 0.07698792 
0.0 0.0 0.0 0.0 0.0 0.07698792 
0.0 0.0 0.0 0.0 0.0 0.07698792 
0.0 0.0 0.0 0.0 0.0 0.07698792 
0.0 0.0 0.0 0.0 0.0 0.07698792 
0.0 0.0 0.0 0.0 0.0 0.07698792 
0.0 0.0 0.0 0.0 0.0 0.07698792 
0.0 0.0 0.0 0.0 0.0 0.07698792 
0.0 0.0 0.0 0.0 0.0 0.07698792 
0.12654074 0.0 0.0 0.0 0.18701382 0.23578921 
0.88048714 0.0 0.0 0.010132731 0.5713058 0.96049553 
1.4346311 0.0 0.0 0.13632771 0.7419431 1.3852286 
1.4824908 0.0 0.0 0.18006775 1.0889308 1.0970335 
0.90762526 0.7714304 0.0 0.19670333 1.3040664 0.62116826 
0.0 1.4332405 1.2692671 0.0 1.1420965 0.0 
0.0 1.154543 1.5408128 0.0 0.9430236 0.0 
0.34989202 0.63982975 1.077892 0.0 0.91241515 0.0 
0.67798495 0.6072285 0.33128688 0.2502804 1.532135 0.13695452 
0.39537847 0.98315763 0.0 0.55018246 2.2960083 0.6183709 
0.0 1.1815323 0.0 0.48611435 2.2613177 0.6820447 
0.0 0.8163283 0.15653023 0.32227644 1.4897971 0.6425585 
0.0 0.3208038 0.681339 0.15624757 0.70597285 0.52952373 
0.0 0.032846242 0.51956314 0.025821507 0.26256645 0.25720245 
0.0 0.0 0.06873209 0.0 0.02098703 0.09366631 
0.0 0.0 0.0 0.0 0.0 0.07698792 
0.0 0.0 0.0 0.0 0.0 0.07698792 
0.0 0.0 0.0 0.0 0.0 0.07698792 
0.0 0.0 0.0 0.0 0.0 0.07698792 
0.0 0.0 0.0 0.0 0.0 0.07698792 
0.0 0.0 0.0 0.0 0.0 0.07698792 
0.0 0.0 0.0 0.0 0.0 0.07698792 
0.0 0.0 0.0 0.0 0.0 0.07698792 
0.0 0.0 0.0 0.0 0.0 0.07698792 
0.0 0.0 0.0 0.0 0.0 0.07698792 
0.0 0.0 0.0 0.0 0.0 0.07698792 
0.0 0.0 0.0 0.0 0.0 0.07698792 
0.0 0.0 0.0 0.0 0.0 0.07698792 
0.0 0.0 0.0 0.0 0.014106516 0.10855061 
0.53943187 0.0 0.0 0.0 0.45216134 0.64094144 
1.1752968 0.0 0.0 0.06746788 0.8966442 1.3492696 
1.1617365 0.0 0.0 0.19451165 1.1200572 1.4345794 
0.85607326 0.0 0.0 0.5510607 1.284152 1.2379084 
0.23389274 0.34934703 0.4024972 1.1370488 1.4437395 0.96753377 
0.0 0.6741026 1.1152011 1.3826426 1.6720294 0.80680436 
0.028967068 0.64084315 0.6511835 1.3501116 2.0113075 0.9258139 
0.08146192 0.80633265 0.0 1.137237 2.2912986 1.0878539 
0.0 0.98517287 0.0 0.82896566 2.12478 1.1013999 
0.0 0.8470689 0.0 0.44055444 1.3839103 0.89867496 
0.0 0.3934313 0.3630264 0.10919152 0.6949406 0.60291326 
0.0 0.015819732 0.46344846 0.0 0.31137437 0.3704446 
0.0 0.0 0.23974264 0.0 0.075733155 0.13010107 
0.0 0.0 0.0 0.0 0.0 0.07828162 
0.0 0.0 0.0 0.0 0.0 0.07698792 
0.0 0.0 0.0 0.0 0.0 0.07698792 
0.0 0.0 0.0 0.0 0.0 0.07698792 
0.0 0.0 0.0 0.0 0.0 0.07698792 
0.0 0.0 0.0 0.0 0.0 0.07698792 
0.0 0.0 0.0 0.0 0.0 0.07698792 
0.0 0.0 0.0 0.0 0.0 0.07698792 
0.0 0.0 0.0 0.0 0.0 0.07698792 
0.0 0.0 0.0 0.0 0.0 0.07698792 
0.0 0.0 0.0 0.0 0.0 0.07698792 
0.0 0.0 0.0 0.0 0.0 0.07698792 
0.0 0.0 0.0 0.0 0.0 0.07698792 
0.0 0.0 0.0 0.0 0.0 0.07698792 
0.0 0.0 0.0 0.0 0.0 0.07698792 
0.24710408 0.0 0.0 0.0 0.30385578 0.34577423 
0.80455697 0.0 0.0 0.0 0.7673143 0.9670647 
0.93738323 0.0 0.0 0.055986512 1.0115937 1.3713627 
0.6454968 0.0 0.0 0.40492627 1.1959206 1.4874403 
0.19391242 0.16500999 0.0 0.9702642 1.4770311 1.5294397 
0.046364352 0.5518195 0.11773435 1.328837 1.7438301 1.5774989 
0.14078945 0.79231465 0.0 1.1645323 1.7973713 1.559313 
0.05334328 0.722448 0.0 0.5638578 1.6317266 1.3352695 
0.0 0.49635985 0.0 0.12841554 1.1365837 0.97811097 
0.0 0.1415918 0.0 0.0 0.64345175 0.6458238 
0.0 0.0 0.23520964 0.0 0.34706768 0.36236382 
0.0 0.0 0.11441069 0.0 0.13209735 0.17226528 
0.0 0.0 0.0032352768 0.0 0.0 0.084750086 
0.0 0.0 0.0 0.0 0.0 0.07698792 
0.0 0.0 0.0 0.0 0.0 0.07698792 
0.0 0.0 0.0 0.0 0.0 0.07698792 
0.0 0.0 0.0 0.0 0.0 0.07698792 
0.0 0.0 0.0 0.0 0.0 0.07698792 
0.0 0.0 0.0 0.0 0.0 0.07698792 
0.0 0.0 0.0 0.0 0.0 0.07698792 
0.0 0.0 0.0 0.0 0.0 0.07698792 
0.0 0.0 0.0 0.0 0.0 0.07698792 
0.0 0.0 0.0 0.0 0.0 0.07698792 
0.0 0.0 0.0 0.0 0.0 0.07698792 
0.0 0.0 0.0 0.0 0.0 0.07698792 
0.0 0.0 0.0 0.0 0.0 0.07698792 
0.0 0.0 0.0 0.0 0.0 0.07698792 
0.0 0.0 0.0 0.0 0.0 0.07698792 
0.02853667 0.0 0.0 0.0 0.09660973 0.14444542 
0.37356955 0.0 0.0 0.0 0.45050833 0.4561232 
0.678144 0.0 0.0 0.0 0.8387676 0.8954182 
0.6328339 0.0 0.0 0.0 1.1036031 1.2173634 
0.4337724 0.0 0.0 0.0 1.3089622 1.3999062 
0.17685458 0.0 0.0 0.0 1.339533 1.3740556 
0.008014113 0.0 0.0 0.0 1.2307938 1.1579859 
0.0 0.0 0.0 0.0 0.8459484 0.7955813 
0.0 0.0 0.0 0.0 0.486209 0.47679675 
0.0 0.0 0.0 0.0 0.2806623 0.31215993 
0.0 0.0 0.106417544 0.0 0.10718678 0.146091 
0.0 0.0 0.0 0.0 0.0 0.0820866 
0.0 0.0 0.0 0.0 0.0 0.07698792 
0.0 0.0 0.0 0.0 0.0 0.07698792 
0.0 0.0 0.0 0.0 0.0 0.07698792 
0.0 0.0 0.0 0.0 0.0 0.07698792 
0.0 0.0 0.0 0.0 0.0 0.07698792 
0.0 0.0 0.0 0.0 0.0 0.07698792 
0.0 0.0 0.0 0.0 0.0 0.07698792 
0.0 0.0 0.0 0.0 0.0 0.07698792 
0.0 0.0 0.0 0.0 0.0 0.07698792 
0.0 0.0 0.0 0.0 0.0 0.07698792 
0.0 0.0 0.0 0.0 0.0 0.07698792 
0.0 0.0 0.0 0.0 0.0 0.07698792 
0.0 0.0 0.0 0.0 0.0 0.07698792 
0.0 0.0 0.0 0.0 0.0 0.07698792 
0.0 0.0 0.0 0.0 0.0 0.07698792 
0.0 0.0 0.0 0.0 0.0 0.07698792 
0.0 0.0 0.0 0.0 0.0 0.07698792 
0.05716352 0.0 0.0 0.0 0.14070627 0.16363057 
0.26238632 0.0 0.0 0.0 0.44226125 0.31400448 
0.32652697 0.0 0.0 0.0 0.6305354 0.39366353 
0.21782345 0.0 0.0 0.0 0.65779716 0.43447366 
0.020841978 0.0 0.0 0.0 0.6404832 0.43173024 
0.0 0.0 0.0 0.0 0.49355647 0.35767633 
0.0 0.0 0.0 0.0 0.2754 0.23207599 
0.0 0.0 0.0 0.0 0.11998922 0.16396579 
0.0 0.0 0.0 0.0 0.025892314 0.11183652 
0.0 0.0 0.0 0.0 0.0 0.08033631 
0.0 0.0 0.0 0.0 0.0 0.07698792 
0.0 0.0 0.0 0.0 0.0 0.07698792 
0.0 0.0 0.0 0.0 0.0 0.07698792 
0.0 0.0 0.0 0.0 0.0 0.07698792 
0.0 0.0 0.0 0.0 0.0 0.07698792 
0.0 0.0 0.0 0.0 0.0 0.07698792 
0.0 0.0 0.0 0.0 0.0 0.07698792 
0.0 0.0 0.0 0.0 0.0 0.07698792 
0.0 0.0 0.0 0.0 0.0 0.07698792 
0.0 0.0 0.0 0.0 0.0 0.07698792 
0.0 0.0 0.0 0.0 0.0 0.07698792 
0.0 0.0 0.0 0.0 0.0 0.07698792 
0.0 0.0 0.0 0.0 0.0 0.07698792 
0.0 0.0 0.0 0.0 0.0 0.07698792 
0.0 0.0 0.0 0.0 0.0 0.07698792 
0.0 0.0 0.0 0.0 0.0 0.07698792 
0.0 0.0 0.0 0.0 0.0 0.07698792 
0.0 0.0 0.0 0.0 0.0 0.07698792 
0.0 0.0 0.0 0.0 0.0 0.07698792 
0.0 0.0 0.0 0.0 0.0 0.07698792 
0.0 0.0 0.0 0.0 0.0 0.07698792 
0.0 0.0 0.0 0.0 0.0 0.07698792 
0.0 0.0 0.0 0.0 0.0 0.07698792 
0.0 0.0 0.0 0.0 0.0 0.07698792 
0.0 0.0 0.0 0.0 0.0 0.07698792 
0.0 0.0 0.0 0.0 0.0 0.07698792 
0.0 0.0 0.0 0.0 0.0 0.07698792 
0.0 0.0 0.0 0.0 0.0 0.07698792 
0.0 0.0 0.0 0.0 0.0 0.07698792 
0.0 0.0 0.0 0.0 0.0 0.07698792 
0.0 0.0 0.0 0.0 0.0 0.07698792 
0.0 0.0 0.0 0.0 0.0 0.07698792 
0.0 0.0 0.0 0.0 0.0 0.07698792 
0.0 0.0 0.0 0.0 0.0 0.07698792 
0.0 0.0 0.0 0.0 0.0 0.07698792 
0.0 0.0 0.0 0.0 0.0 0.07698792 
0.0 0.0 0.0 0.0 0.0 0.07698792 
0.0 0.0 0.0 0.0 0.0 0.07698792 
0.0 0.0 0.0 0.0 0.0 0.07698792 
0.0 0.0 0.0 0.0 0.0 0.07698792 
0.0 0.0 0.0 0.0 0.0 0.07698792 
0.0 0.0 0.0 0.0 0.0 0.07698792 
0.0 0.0 0.0 0.0 0.0 0.07698792 
0.0 0.0 0.0 0.0 0.0 0.07698792 
0.0 0.0 0.0 0.0 0.0 0.07698792 
0.0 0.0 0.0 0.0 0.0 0.07698792 
0.0 0.0 0.0 0.0 0.0 0.07698792 
0.0 0.0 0.0 0.0 0.0 0.07698792 
0.0 0.0 0.0 0.0 0.0 0.07698792 
0.0 0.0 0.0 0.0 0.0 0.07698792 
0.0 0.0 0.0 0.0 0.0 0.07698792 
0.0 0.0 0.0 0.0 0.0 0.07698792 
0.0 0.0 0.0 0.0 0.0 0.07698792 
0.0 0.0 0.0 0.0 0.0 0.07698792 
0.0 0.0 0.0 0.0 0.0 0.07698792 
0.0 0.0 0.0 0.0 0.0 0.07698792 
0.0 0.0 0.0 0.0 0.0 0.07698792 
0.0 0.0 0.0 0.0 0.0 0.07698792 
0.0 0.0 0.0 0.0 0.0 0.07698792 
0.0 0.0 0.0 0.0 0.0 0.07698792 
0.0 0.0 0.0 0.0 0.0 0.07698792 
0.0 0.0 0.0 0.0 0.0 0.07698792 
0.0 0.0 0.0 0.0 0.0 0.07698792 
0.0 0.0 0.0 0.0 0.0 0.07698792 
0.0 0.0 0.0 0.0 0.0 0.07698792 
0.0 0.0 0.0 0.0 0.0 0.07698792 
0.0 0.0 0.0 0.0 0.0 0.07698792 
0.0 0.0 0.0 0.0 0.0 0.07698792 
0.0 0.0 0.0 0.0 0.0 0.07698792 
0.0 0.0 0.0 0.0 0.0 0.07698792 
0.0 0.0 0.0 0.0 0.0 0.07698792 
0.0 0.0 0.0 0.0 0.0 0.07698792 
0.0 0.0 0.0 0.0 0.0 0.07698792 
0.0 0.0 0.0 0.0 0.0 0.07698792 
0.0 0.0 0.0 0.0 0.0 0.07698792 
0.0 0.0 0.0 0.0 0.0 0.07698792 
0.0 0.0 0.0 0.0 0.0 0.07698792 
0.0 0.0 0.0 0.0 0.0 0.07698792 
0.0 0.0 0.0 0.0 0.0 0.07698792 
0.0 0.0 0.0 0.0 0.0 0.07698792 
0.0 0.0 0.0 0.0 0.0 0.07698792 
0.0 0.0 0.0 0.0 0.0 0.07698792 
0.0 0.0 0.0 0.0 0.0 0.07698792 
0.0 0.0 0.0 0.0 0.0 0.07698792 
0.0 0.0 0.0 0.0 0.0 0.07698792 
0.0 0.0 0.0 0.0 0.0 0.07698792 
0.0 0.0 0.0 0.0 0.0 0.07698792 
0.0 0.0 0.0 0.0 0.0 0.07698792 
0.0 0.0 0.0 0.0 0.0 0.07698792 
0.0 0.0 0.0 0.0 0.0 0.07698792 
0.0 0.0 0.0 0.0 0.0 0.07698792 
0.0 0.0 0.0 0.0 0.0 0.07698792 
0.0 0.0 0.0 0.0 0.0 0.07698792 
0.0 0.0 0.0 0.0 0.0 0.07698792 
0.0 0.0 0.0 0.0 0.0 0.07698792 
0.0 0.0 0.0 0.0 0.0 0.07698792 
0.0 0.0 0.0 0.0 0.0 0.07698792 
0.0 0.0 0.0 0.0 0.0 0.07698792 
0.0 0.0 0.0 0.0 0.0 0.07698792 
0.0 0.0 0.0 0.0 0.0 0.07698792 
0.0 0.0 0.0 0.0 0.0 0.07698792 
0.0 0.0 0.0 0.0 0.0 0.07698792 
0.0 0.0 0.0 0.0 0.0 0.07698792 
0.0 0.0 0.0 0.0 0.0 0.07698792 
0.0 0.0 0.0 0.0 0.0 0.07698792 
0.0 0.0 0.0 0.0 0.0 0.07698792 
0.0 0.0 0.0 0.0 0.0 0.07698792 
0.0 0.0 0.0 0.0 0.0 0.07698792 
0.0 0.0 0.0 0.0 0.0 0.07698792 
0.0 0.0 0.0 0.0 0.0 0.07698792 
0.0 0.0 0.0 0.0 0.0 0.07698792 
0.0 0.0 0.0 0.0 0.0 0.07698792 
0.0 0.0 0.0 0.0 0.0 0.07698792 
0.0 0.0 0.0 0.0 0.0 0.07698792 
0.0 0.0 0.0 0.0 0.0 0.07698792 
0.0 0.0 0.0 0.0 0.0 0.07698792 
0.0 0.0 0.0 0.0 0.0 0.07698792 
0.0 0.0 0.0 0.0 0.0 0.07698792 
0.0 0.0 0.0 0.0 0.0 0.07698792 
0.0 0.0 0.0 0.0 0.0 0.07698792 

