0.0 0.0 0.0 0.0 0.0 0.07698792 
0.0 0.0 0.0 0.0 0.0 0.07698792 
0.0 0.0 0.0 0.0 0.0 0.07698792 
0.0 0.0 0.0 0.0 0.0 0.07698792 
0.0 0.0 0.0 0.0 0.0 0.07698792 
0.0 0.0 0.0 0.0 0.0 0.07698792 
0.0 0.0 0.0 0.0 0.0 0.07698792 
0.0 0.0 0.0 0.0 0.0 0.07698792 
0.0 0.0 0.0 0.0 0.0 0.07698792 
0.0 0.0 0.0 0.0 0.0 0.07698792 
0.0 0.0 0.0 0.0 0.0 0.07698792 
0.0 0.0 0.0 0.0 0.0 0.07698792 
0.0 0.0 0.0 0.0 0.0 0.07698792 
0.0 0.0 0.0 0.0 0.0 0.07698792 
0.0 0.0 0.0 0.0 0.0 0.07698792 
0.0 0.0 0.0 0.0 0.0 0.07698792 
0.0 0.0 0.0 0.0 0.0 0.07698792 
0.0 0.0 0.0 0.0 0.0 0.07698792 
0.0 0.0 0.0 0.0 0.0 0.07698792 
0.0 0.0 0.0 0.0 0.0 0.07698792 
0.0 0.0 0.0 0.0 0.0 0.07698792 
0.0 0.0 0.0 0.0 0.0 0.07698792 
0.0 0.0 0.0 0.0 0.0 0.07698792 
0.0 0.0 0.0 0.0 0.0 0.07698792 
0.0 0.0 0.0 0.0 0.0 0.07698792 
0.0 0.0 0.0 0.0 0.0 0.07698792 
0.0 0.0 0.0 0.0 0.0 0.07698792 
0.0 0.0 0.0 0.0 0.0 0.07698792 
0.0 0.0 0.0 0.0 0.0 0.07698792 
0.0 0.0 0.0 0.0 0.0 0.07698792 
0.0 0.0 0.0 0.0 0.0 0.07698792 
0.0 0.0 0.0 0.0 0.0 0.07698792 
0.0 0.0 0.0 0.0 0.0 0.07698792 
0.0 0.0 0.0 0.0 0.0 0.07698792 
0.0 0.0 0.0 0.0 0.0 0.07698792 
0.0 0.0 0.0 0.0 0.0 0.07698792 
0.0 0.0 0.0 0.0 0.0 0.07698792 
0.0 0.0 0.0 0.0 0.0 0.07698792 
0.0 0.0 0.0 0.0 0.0 0.07698792 
0.0 0.0 0.0 0.0 0.0 0.07698792 
0.0 0.0 0.0 0.0 0.0 0.07698792 
0.0 0.0 0.0 0.0 0.0 0.07698792 
0.0 0.0 0.0 0.0 0.0 0.07698792 
0.0 0.0 0.0 0.0 0.0 0.07698792 
0.0 0.0 0.0 0.0 0.0 0.07698792 
0.0 0.0 0.0 0.0 0.0 0.07698792 
0.0 0.0 0.0 0.0 0.0 0.07698792 
0.0 0.0 0.0 0.0 0.0 0.07698792 
0.0 0.0 0.0 0.0 0.0 0.07698792 
0.0 0.0 0.0 0.0 0.0 0.07698792 
0.0 0.0 0.0 0.0 0.0 0.07698792 
0.0 0.0 0.0 0.0 0.0 0.07698792 
0.0 0.0 0.0 0.0 0.0 0.07698792 
0.0 0.0 0.0 0.0 0.0 0.07698792 
0.0 0.0 0.0 0.0 0.0 0.07698792 
0.0 0.0 0.0 0.0 0.0 0.07698792 
0.0 0.0 0.0 0.0 0.0 0.07698792 
0.0 0.0 0.0 0.0 0.0 0.07698792 
0.0 0.0 0.0 0.0 0.0 0.07698792 
0.0 0.0 0.0 0.0 0.0 0.07698792 
0.0 0.0 0.0 0.0 0.0 0.07698792 
0.0 0.0 0.0 0.0 0.0 0.07698792 
0.0 0.0 0.0 0.0 0.0 0.07698792 
0.0 0.0 0.0 0.0 0.0 0.07698792 
0.0 0.0 0.0 0.0 0.0 0.07698792 
0.0 0.0 0.0 0.0 0.0 0.07698792 
0.0 0.0 0.0 0.0 0.0 0.07698792 
0.0 0.0 0.0 0.0 0.0 0.07698792 
0.0 0.0 0.0 0.0 0.0 0.07698792 
0.0 0.0 0.0 0.0 0.0 0.07698792 
0.0 0.0 0.0 0.0 0.0 0.07698792 
0.0 0.0 0.0 0.0 0.0 0.07698792 
0.0 0.0 0.0 0.0 0.0 0.07698792 
0.0 0.0 0.0 0.0 0.0 0.07698792 
0.0 0.0 0.0 0.0 0.0 0.07698792 
0.0 0.0 0.0 0.0 0.0 0.07698792 
0.0 0.0 0.0 0.0 0.0 0.07698792 
0.0 0.0 0.0 0.0 0.0 0.07698792 
0.0 0.0 0.0 0.0 0.0 0.07698792 
0.0 0.0 0.0 0.0 0.0 0.07698792 
0.0 0.0 0.0 0.0 0.0 0.07698792 
0.0 0.0 0.0 0.0 0.0 0.07698792 
0.0 0.0 0.0 0.0 0.0 0.07698792 
0.0 0.0 0.0 0.0 0.0 0.07698792 
0.0 0.0 0.0 0.0 0.0 0.07698792 
0.0 0.0 0.0 0.0 0.0 0.07698792 
0.0 0.0 0.0 0.0 0.0 0.07698792 
0.0 0.0 0.0 0.0 0.0 0.07698792 
0.0 0.0 0.0 0.0 0.0 0.07698792 
0.0 0.0 0.0 0.0 0.0 0.07698792 
0.0 0.0 0.0 0.0 0.0 0.07698792 
0.0 0.0 0.0 0.0 0.0 0.07698792 
0.0 0.0 0.0 0.0 0.0 0.07698792 
0.0 0.0 0.0 0.0 0.0 0.07698792 
0.0 0.0 0.0 0.0 0.0 0.0758566 
0.0 0.0 0.014364004 0.0 0.0 0.040394098 
0.1492194 0.0 0.13948113 0.0 0.0 0.0 
0.29847017 0.115222126 0.26572216 0.0 0.0 0.0 
0.3596263 0.3007317 0.38803136 0.0 0.0 0.0 
0.2689202 0.5249235 0.3839719 0.0 0.0 0.0 
0.038193762 0.5712069 0.2896858 0.0 0.0 0.0 
0.0 0.43099827 0.19275197 0.0 0.077250555 0.0 
0.0 0.23705041 0.058659293 0.0 0.08335981 0.0 
0.0 0.056826383 0.0 0.0 0.0046796985 0.016541459 
0.0 0.0 0.0 0.0 0.0 0.07698792 
0.0 0.0 0.0 0.0 0.0 0.07698792 
0.0 0.0 0.0 0.0 0.0 0.07698792 
0.0 0.0 0.0 0.0 0.0 0.07698792 
0.0 0.0 0.0 0.0 0.0 0.07698792 
0.0 0.0 0.0 0.0 0.0 0.07698792 
0.0 0.0 0.0 0.0 0.0 0.07698792 
0.0 0.0 0.0 0.0 0.0 0.07698792 
0.0 0.0 0.0 0.0 0.0 0.07698792 
0.0 0.0 0.0 0.0 0.0 0.07698792 
0.0 0.0 0.0 0.0 0.0 0.07698792 
0.0 0.0 0.0 0.0 0.0 0.07698792 
0.0 0.0 0.0 0.0 0.0 0.07698792 
0.0 0.0 0.0 0.0 0.0 0.07698792 
0.0 0.0 0.0 0.0 0.0 0.07698792 
0.0 0.0 0.0 0.0 0.0 0.07698792 
0.0 0.0 0.0 0.0 0.0 0.07698792 
0.0 0.0 0.0 0.0 0.0 0.06529765 
0.0884583 0.0 0.110648565 0.0 0.0 0.0 
0.35315573 0.009353182 0.19815809 0.0 0.0 0.0 
0.5804605 0.08261279 0.29513004 0.0 0.0 0.0 
0.7644253 0.32575315 0.40167862 0.0 0.0 0.0 
0.7878704 0.62319976 0.66352373 0.0 0.0 0.0 
0.5886284 1.0137689 0.9176648 0.0 0.067641884 0.0 
0.0 1.2419665 0.84562975 0.0 0.5209044 0.0 
0.0 0.979697 0.74111056 0.0 0.6260486 0.0 
0.0 0.5137385 0.4274669 0.0 0.5373504 0.0 
0.0 0.111061476 0.048088275 0.0 0.23059012 0.0 
0.0 0.0 0.0 0.0 0.0 0.07698792 
0.0 0.0 0.0 0.0 0.0 0.07698792 
0.0 0.0 0.0 0.0 0.0 0.07698792 
0.0 0.0 0.0 0.0 0.0 0.07698792 
0.0 0.0 0.0 0.0 0.0 0.07698792 
0.0 0.0 0.0 0.0 0.0 0.07698792 
0.0 0.0 0.0 0.0 0.0 0.07698792 
0.0 0.0 0.0 0.0 0.0 0.07698792 
0.0 0.0 0.0 0.0 0.0 0.07698792 
0.0 0.0 0.0 0.0 0.0 0.07698792 
0.0 0.0 0.0 0.0 0.0 0.07698792 
0.0 0.0 0.0 0.0 0.0 0.07698792 
0.0 0.0 0.0 0.0 0.0 0.07698792 
0.0 0.0 0.0 0.0 0.0 0.07698792 
0.0 0.0 0.0 0.0 0.0 0.07698792 
0.0 0.0 0.0 0.0 0.0 0.07698792 
0.0 0.0 0.0 0.0 0.0 0.06756028 
0.11390063 0.0 0.11359934 0.0 0.0 0.0 
0.4810543 0.0 0.16682214 0.0 0.0 0.0 
0.8667891 0.0 0.27351654 0.0 0.0 0.0 
1.1818118 0.20032884 0.34223032 0.0 0.0 0.0 
0.9333951 0.64358443 0.54427415 0.0 0.3170741 0.0 
0.56331974 0.6679465 0.83618337 0.0 0.7777383 0.0 
0.35712445 0.98245066 1.2631074 0.22346367 0.9788895 0.0 
0.0 1.4736917 1.4476533 0.26188216 1.2517568 0.0 
0.0 1.574823 1.5005684 0.11119595 1.0863268 0.0 
0.0 1.0384675 1.1574577 0.0 0.8777754 0.0 
0.0 0.21738023 0.29156968 0.0 0.4421043 0.0 
0.0 0.0 0.0 0.0 0.0 0.07698792 
0.0 0.0 0.0 0.0 0.0 0.07698792 
0.0 0.0 0.0 0.0 0.0 0.07698792 
0.0 0.0 0.0 0.0 0.0 0.07698792 
0.0 0.0 0.0 0.0 0.0 0.07698792 
0.0 0.0 0.0 0.0 0.0 0.07698792 
0.0 0.0 0.0 0.0 0.0 0.07698792 
0.0 0.0 0.0 0.0 0.0 0.07698792 
0.0 0.0 0.0 0.0 0.0 0.07698792 
0.0 0.0 0.0 0.0 0.0 0.07698792 
0.0 0.0 0.0 0.0 0.0 0.07698792 
0.0 0.0 0.0 0.0 0.0 0.07698792 
0.0 0.0 0.0 0.0 0.0 0.07698792 
0.0 0.0 0.0 0.0 0.0 0.07698792 
0.0 0.0 0.0 0.0 0.0 0.07698792 
0.0 0.0 0.0 0.0 0.0 0.07698792 
0.0047599524 0.0 0.0077615753 0.0 0.0 0.047437705 
0.39101982 0.0 0.0752703 0.0 0.0 0.0 
1.0322661 0.0 0.12517941 0.0 0.0 0.0 
1.4299207 0.0 0.15185764 0.0 0.0 0.0 
1.173943 0.77479064 0.25745347 0.17211056 0.6222296 0.0 
0.5240585 1.2295535 0.6038581 0.39928964 1.4918586 0.0 
0.58746564 1.3617224 0.6925345 0.7142094 1.533198 0.26947427 
0.45073622 1.3763427 0.86609787 0.753871 1.4717853 0.40448284 
0.0 1.8654552 1.3455657 0.74859476 1.3978173 0.0 
0.0 1.9438033 1.815855 0.57901114 1.2979772 0.0 
0.0 1.2618963 1.7588089 0.32367742 1.0495877 0.0 
0.0 0.34537432 0.6374827 0.052420463 0.44792762 0.0 
0.0 0.0 0.0 0.0 0.0 0.07698792 
0.0 0.0 0.0 0.0 0.0 0.07698792 
0.0 0.0 0.0 0.0 0.0 0.07698792 
0.0 0.0 0.0 0.0 0.0 0.07698792 
0.0 0.0 0.0 0.0 0.0 0.07698792 
0.0 0.0 0.0 0.0 0.0 0.07698792 
0.0 0.0 0.0 0.0 0.0 0.07698792 
0.0 0.0 0.0 0.0 0.0 0.07698792 
0.0 0.0 0.0 0.0 0.0 0.07698792 
0.0 0.0 0.0 0.0 0.0 0.07698792 
0.0 0.0 0.0 0.0 0.0 0.07698792 
0.0 0.0 0.0 0.0 0.0 0.07698792 
0.0 0.0 0.0 0.0 0.0 0.07698792 
0.0 0.0 0.0 0.0 0.0 0.07698792 
0.0 0.0 0.0 0.0 0.0 0.07698792 
0.0 0.0 0.0 0.0 0.0 0.07698792 
0.14708707 0.0 0.047165506 0.0 0.0 0.04975463 
0.86655945 0.0 0.0 0.0 0.0 0.09697273 
1.4980266 0.0 0.0 0.06362123 0.0 0.08980268 
1.5609021 0.45518178 0.0 0.30848175 0.70551807 0.054252103 
0.82294565 1.2832687 0.0 0.46610662 1.966678 0.32216164 
0.37841892 1.3254864 0.11730834 0.41508096 2.2853112 0.5830998 
0.753318 0.79194516 0.0615933 0.394134 2.0732253 1.0693969 
0.8700615 0.8181212 0.0 0.23390839 2.0421748 0.9727317 
0.0 1.5935897 0.2250404 0.15826604 1.8419927 0.12728177 
0.0 1.408351 1.1970489 0.086731315 1.7793058 0.0 
0.0 0.80110466 1.647571 0.24058029 1.1637686 0.2360659 
0.0 0.2835249 0.7975219 0.22705439 0.30607286 0.089065745 
0.0 0.0 0.0 0.0 0.0 0.07698792 
0.0 0.0 0.0 0.0 0.0 0.07698792 
0.0 0.0 0.0 0.0 0.0 0.07698792 
0.0 0.0 0.0 0.0 0.0 0.07698792 
0.0 0.0 0.0 0.0 0.0 0.07698792 
0.0 0.0 0.0 0.0 0.0 0.07698792 
0.0 0.0 0.0 0.0 0.0 0.07698792 
0.0 0.0 0.0 0.0 0.0 0.07698792 
0.0 0.0 0.0 0.0 0.0 0.07698792 
0.0 0.0 0.0 0.0 0.0 0.07698792 
0.0 0.0 0.0 0.0 0.0 0.07698792 
0.0 0.0 0.0 0.0 0.0 0.07698792 
0.0 0.0 0.0 0.0 0.0 0.07698792 
0.0 0.0 0.0 0.0 0.0 0.07698792 
0.0 0.0 0.0 0.0 0.0 0.07698792 
0.0 0.0 0.0 0.0 0.0 0.07698792 
0.32806998 0.0 0.0 0.0 0.0 0.1737726 
1.3337958 0.0 0.0 0.14106657 0.0 0.4271793 
1.9388142 0.0 0.0 0.11018834 0.50869644 0.5010109 
1.4394906 0.9752576 0.0 0.2710409 1.6656057 0.38509825 
0.24110162 1.509596 0.0 0.03206849 2.4960942 0.40017644 
0.07788302 0.9775346 0.10109358 0.042707067 2.1334984 0.76135725 
0.85323566 0.20037098 0.0 0.0 1.837358 1.1301875 
0.9441431 0.725903 0.0 0.08825818 2.0106657 0.7112735 
0.0 1.5028595 0.0 0.0 1.9829885 0.1372138 
0.0 1.25454 0.98079264 0.0 1.6754544 0.14404151 
0.0 0.46826804 1.2231567 0.057733472 0.97837 0.32520133 
0.0 0.090174936 0.6153374 0.1443154 0.15425129 0.13891315 
0.0 0.0 0.0 0.0 0.0 0.07698792 
0.0 0.0 0.0 0.0 0.0 0.07698792 
0.0 0.0 0.0 0.0 0.0 0.07698792 
0.0 0.0 0.0 0.0 0.0 0.07698792 
0.0 0.0 0.0 0.0 0.0 0.07698792 
0.0 0.0 0.0 0.0 0.0 0.07698792 
0.0 0.0 0.0 0.0 0.0 0.07698792 
0.0 0.0 0.0 0.0 0.0 0.07698792 
0.0 0.0 0.0 0.0 0.0 0.07698792 
0.0 0.0 0.0 0.0 0.0 0.07698792 
0.0 0.0 0.0 0.0 0.0 0.07698792 
0.0 0.0 0.0 0.0 0.0 0.07698792 
0.0 0.0 0.0 0.0 0.0 0.07698792 
0.0 0.0 0.0 0.0 0.0 0.07698792 
0.0 0.0 0.0 0.0 0.0 0.07698792 
0.0 0.0 0.0 0.0 0.0 0.07698792 
0.46811193 0.0 0.0 0.11143574 0.0 0.43851793 
1.5680115 0.0 0.0 0.23622006 0.2057739 0.89326257 
2.072013 0.0 0.0 0.28112075 0.9867719 0.8266055 
1.2187903 1.1588587 0.0 0.120490186 1.8077841 0.41867805 
0.05622302 1.5820599 0.09727559 0.0 2.1338308 0.03843478 
0.17730121 0.84270173 0.6738716 0.0 1.6288202 0.3009741 
1.0281601 0.3059785 0.0 0.0 1.821248 0.60846674 
0.47489452 1.0719862 0.0 0.0 2.0366511 0.27514863 
0.0 1.39413 0.029539317 0.0 1.9063531 0.11535603 
0.0 1.0024838 1.0945582 0.044915438 1.4321347 0.364894 
0.0 0.22553933 0.9101672 0.04527661 0.6643648 0.2851867 
0.0 0.0 0.2651397 0.0 0.065271646 0.11867149 
0.0 0.0 0.0 0.0 0.0 0.07698792 
0.0 0.0 0.0 0.0 0.0 0.07698792 
0.0 0.0 0.0 0.0 0.0 0.07698792 
0.0 0.0 0.0 0.0 0.0 0.07698792 
0.0 0.0 0.0 0.0 0.0 0.07698792 
0.0 0.0 0.0 0.0 0.0 0.07698792 
0.0 0.0 0.0 0.0 0.0 0.07698792 
0.0 0.0 0.0 0.0 0.0 0.07698792 
0.0 0.0 0.0 0.0 0.0 0.07698792 
0.0 0.0 0.0 0.0 0.0 0.07698792 
0.0 0.0 0.0 0.0 0.0 0.07698792 
0.0 0.0 0.0 0.0 0.0 0.07698792 
0.0 0.0 0.0 0.0 0.0 0.07698792 
0.0 0.0 0.0 0.0 0.0 0.07698792 
0.0 0.0 0.0 0.0 0.0 0.07698792 
0.0 0.0 0.0 0.0 0.0 0.07698792 
0.5181749 0.0 0.0 0.18166043 0.12876917 0.6285463 
1.4046917 0.0 0.0 0.28993806 0.5999675 1.264868 
1.7715359 0.0 0.0 0.434219 1.111491 1.2268655 
1.202656 0.6590857 0.0 0.20606369 1.4758357 0.66302645 
0.29987317 1.2694203 0.6660582 0.072300926 1.376018 0.06552468 
0.62575257 0.7270233 1.148447 0.0 1.6252327 0.16111778 
0.8616933 0.9863836 0.14329726 0.0 2.2191484 0.1239472 
0.0 1.3652319 0.0 0.0 2.1939623 0.0 
0.0 1.3587142 0.42553395 0.0 1.7576911 0.0 
0.0 0.6002663 1.1764325 0.0 1.2024306 0.29900295 
0.0 0.14511691 0.7178307 0.07746416 0.32883582 0.18338323 
0.0 0.0 0.022509232 0.0 0.0 0.08756495 
0.0 0.0 0.0 0.0 0.0 0.07698792 
0.0 0.0 0.0 0.0 0.0 0.07698792 
0.0 0.0 0.0 0.0 0.0 0.07698792 
0.0 0.0 0.0 0.0 0.0 0.07698792 
0.0 0.0 0.0 0.0 0.0 0.07698792 
0.0 0.0 0.0 0.0 0.0 0.07698792 
0.0 0.0 0.0 0.0 0.0 0.07698792 
0.0 0.0 0.0 0.0 0.0 0.07698792 
0.0 0.0 0.0 0.0 0.0 0.07698792 
0.0 0.0 0.0 0.0 0.0 0.07698792 
0.0 0.0 0.0 0.0 0.0 0.07698792 
0.0 0.0 0.0 0.0 0.0 0.07698792 
0.0 0.0 0.0 0.0 0.0 0.07698792 
0.0 0.0 0.0 0.0 0.0 0.07698792 
0.0 0.0 0.0 0.0 0.0 0.07698792 
0.0 0.0 0.0 0.0 0.0 0.07698792 
0.4353832 0.0 0.0 0.043611255 0.33174285 0.5567502 
1.1313314 0.0 0.0 0.11515676 0.8466026 1.3032212 
1.2968199 0.0 0.0 0.29080826 1.1557343 1.5482843 
1.053679 0.0 0.0 0.4763702 1.1276264 1.2338586 
0.76418597 0.41247275 0.42159572 0.84295386 1.1304245 0.78595865 
0.9454861 0.7067763 1.0878065 0.69621104 1.7473145 0.6755247 
0.39732486 1.5258301 0.5983206 0.3081902 2.3587048 0.07018609 
0.0 1.7911576 0.11979327 0.0 2.1780405 0.0 
0.0 1.345741 0.9691069 0.0 1.55567 0.09964037 
0.0 0.4244728 1.0939261 0.0 0.94989306 0.23784214 
0.0 0.0 0.44127712 0.018310476 0.16569816 0.12805708 
0.0 0.0 0.0 0.0 0.0 0.07782502 
0.0 0.0 0.0 0.0 0.0 0.07698792 
0.0 0.0 0.0 0.0 0.0 0.07698792 
0.0 0.0 0.0 0.0 0.0 0.07698792 
0.0 0.0 0.0 0.0 0.0 0.07698792 
0.0 0.0 0.0 0.0 0.0 0.07698792 
0.0 0.0 0.0 0.0 0.0 0.07698792 
0.0 0.0 0.0 0.0 0.0 0.07698792 
0.0 0.0 0.0 0.0 0.0 0.07698792 
0.0 0.0 0.0 0.0 0.0 0.07698792 
0.0 0.0 0.0 0.0 0.0 0.07698792 
0.0 0.0 0.0 0.0 0.0 0.07698792 
0.0 0.0 0.0 0.0 0.0 0.07698792 
0.0 0.0 0.0 0.0 0.0 0.07698792 
0.0 0.0 0.0 0.0 0.0 0.07698792 
0.0 0.0 0.0 0.0 0.0 0.07698792 
0.0 0.0 0.0 0.0 0.0 0.07698792 
0.22213146 0.0 0.0 0.0 0.285575 0.32048357 
0.7611054 0.0 0.0 0.0 0.73590684 0.9117068 
1.0435739 0.0 0.0 0.0 1.1022615 1.3769686 
1.0767522 0.0 0.0 0.1426069 0.86177474 1.4265933 
1.2643058 0.0 0.0 0.44389465 1.0676917 1.2937341 
1.3912625 0.55699486 0.10445016 0.6558445 1.712475 1.0586638 
0.3216975 1.8518853 0.6399898 0.45824644 2.1293428 0.13716634 
0.0 1.9426471 0.8859218 0.03717872 2.0581458 0.0 
0.0 1.1494721 1.4123644 0.0 1.4677042 0.024778277 
0.0 0.34285524 0.9966037 0.0 0.7852132 0.11666897 
0.0 0.0 0.16390818 0.0 0.050192524 0.09549789 
0.0 0.0 0.0 0.0 0.0 0.07698792 
0.0 0.0 0.0 0.0 0.0 0.07698792 
0.0 0.0 0.0 0.0 0.0 0.07698792 
0.0 0.0 0.0 0.0 0.0 0.07698792 
0.0 0.0 0.0 0.0 0.0 0.07698792 
0.0 0.0 0.0 0.0 0.0 0.07698792 
0.0 0.0 0.0 0.0 0.0 0.07698792 
0.0 0.0 0.0 0.0 0.0 0.07698792 
0.0 0.0 0.0 0.0 0.0 0.07698792 
0.0 0.0 0.0 0.0 0.0 0.07698792 
0.0 0.0 0.0 0.0 0.0 0.07698792 
0.0 0.0 0.0 0.0 0.0 0.07698792 
0.0 0.0 0.0 0.0 0.0 0.07698792 
0.0 0.0 0.0 0.0 0.0 0.07698792 
0.0 0.0 0.0 0.0 0.0 0.07698792 
0.0 0.0 0.0 0.0 0.0 0.07698792 
0.0 0.0 0.0 0.0 0.0 0.07698792 
0.012838066 0.0 0.0 0.0 0.07242775 0.13392451 
0.33791167 0.0 0.0 0.0 0.42347437 0.41959667 
0.83264244 0.0 0.0 0.0 0.6201296 0.76266575 
1.5183899 0.0 0.0 0.0 0.61721 1.1086602 
1.8872063 0.0 0.0 0.0 0.978695 1.1632609 
1.6887887 0.3485851 0.0 0.0 1.5949521 0.67637897 
0.28606284 1.7639701 0.33074063 0.0 1.9782733 0.0 
0.0 2.04201 1.3832262 0.0 1.903426 0.0 
0.0 1.3145511 1.8083179 0.0 1.3278219 0.0 
0.0 0.5049132 1.1047444 0.0 0.6769611 0.0 
0.0 0.11462258 0.07133923 0.0 0.07285525 0.0 
0.0 0.0 0.0 0.0 0.0 0.07698792 
0.0 0.0 0.0 0.0 0.0 0.07698792 
0.0 0.0 0.0 0.0 0.0 0.07698792 
0.0 0.0 0.0 0.0 0.0 0.07698792 
0.0 0.0 0.0 0.0 0.0 0.07698792 
0.0 0.0 0.0 0.0 0.0 0.07698792 
0.0 0.0 0.0 0.0 0.0 0.07698792 
0.0 0.0 0.0 0.0 0.0 0.07698792 
0.0 0.0 0.0 0.0 0.0 0.07698792 
0.0 0.0 0.0 0.0 0.0 0.07698792 
0.0 0.0 0.0 0.0 0.0 0.07698792 
0.0 0.0 0.0 0.0 0.0 0.07698792 
0.0 0.0 0.0 0.0 0.0 0.07698792 
0.0 0.0 0.0 0.0 0.0 0.07698792 
0.0 0.0 0.0 0.0 0.0 0.07698792 
0.0 0.0 0.0 0.0 0.0 0.07698792 
0.0 0.0 0.0 0.0 0.0 0.07698792 
0.0 0.0 0.0 0.0 0.0 0.07698792 
0.053604588 0.0 0.0 0.0 0.09436262 0.14021055 
0.6190297 0.0 0.0 0.0 0.04130021 0.28641123 
1.7303462 0.0 0.0 0.0 0.24933846 0.6420954 
2.134546 0.0 0.0 0.0 1.0195518 0.7769864 
1.5003433 0.4227315 0.0 0.0 1.7230408 0.5112542 
0.3389873 1.3200737 0.04239083 0.0 2.0402324 0.0 
0.0 1.7816179 1.5874002 0.0 1.8342855 0.0 
0.0 1.530791 1.9358834 0.0 1.345014 0.0 
0.0 0.8802741 1.3713642 0.0 0.8812158 0.0 
0.0 0.16108216 0.17248064 0.0 0.39251778 0.0 
0.0 0.03550387 0.0 0.0 0.0 0.03634289 
0.0 0.0 0.0 0.0 0.0 0.07698792 
0.0 0.0 0.0 0.0 0.0 0.07698792 
0.0 0.0 0.0 0.0 0.0 0.07698792 
0.0 0.0 0.0 0.0 0.0 0.07698792 
0.0 0.0 0.0 0.0 0.0 0.07698792 
0.0 0.0 0.0 0.0 0.0 0.07698792 
0.0 0.0 0.0 0.0 0.0 0.07698792 
0.0 0.0 0.0 0.0 0.0 0.07698792 
0.0 0.0 0.0 0.0 0.0 0.07698792 
0.0 0.0 0.0 0.0 0.0 0.07698792 
0.0 0.0 0.0 0.0 0.0 0.07698792 
0.0 0.0 0.0 0.0 0.0 0.07698792 
0.0 0.0 0.0 0.0 0.0 0.07698792 
0.0 0.0 0.0 0.0 0.0 0.07698792 
0.0 0.0 0.0 0.0 0.0 0.07698792 
0.0 0.0 0.0 0.0 0.0 0.07698792 
0.0 0.0 0.0 0.0 0.0 0.07698792 
0.026009902 0.0 0.0330173 0.0 0.0 0.03562131 
0.7261668 0.0 0.0 0.0 0.0 0.21302828 
1.7824137 0.0 0.0 0.0 0.10753831 0.4735256 
1.9251213 0.20965467 0.0 0.08650164 1.2929319 0.4656611 
1.118696 0.8117264 0.0 0.15506944 1.8762493 0.5697624 
0.42181385 1.2073048 0.17263517 0.21308222 1.9590598 0.37424454 
0.0 1.3804511 1.5375587 0.20707205 1.676015 0.0 
0.0 1.7520412 2.1505737 0.2354267 1.2506038 0.0 
0.0 1.4159292 1.9292716 0.0 1.1197914 0.0 
0.0 0.6498251 0.69425285 0.0 0.61083895 0.0 
0.0 0.11241154 0.026839092 0.0 0.17512295 0.0 
0.0 0.0 0.0 0.0 0.0 0.07698792 
0.0 0.0 0.0 0.0 0.0 0.07698792 
0.0 0.0 0.0 0.0 0.0 0.07698792 
0.0 0.0 0.0 0.0 0.0 0.07698792 
0.0 0.0 0.0 0.0 0.0 0.07698792 
0.0 0.0 0.0 0.0 0.0 0.07698792 
0.0 0.0 0.0 0.0 0.0 0.07698792 
0.0 0.0 0.0 0.0 0.0 0.07698792 
0.0 0.0 0.0 0.0 0.0 0.07698792 
0.0 0.0 0.0 0.0 0.0 0.07698792 
0.0 0.0 0.0 0.0 0.0 0.07698792 
0.0 0.0 0.0 0.0 0.0 0.07698792 
0.0 0.0 0.0 0.0 0.0 0.07698792 
0.0 0.0 0.0 0.0 0.0 0.07698792 
0.0 0.0 0.0 0.0 0.0 0.07698792 
0.0 0.0 0.0 0.0 0.0 0.07698792 
0.0 0.0 0.0 0.0 0.0 0.07698792 
0.13793445 0.0 0.0 0.0 0.0 0.07655954 
1.1315618 0.0 0.0 0.09228732 0.0 0.4506906 
2.0124574 0.0 0.0 0.00414141 0.45726183 0.7118551 
1.4782631 0.8773229 0.0 0.11591059 1.5821389 0.39209446 
0.7011987 1.0075915 0.0 0.07329601 2.2008443 0.7863066 
0.36451918 1.0286987 0.14188287 0.38004878 1.9960972 1.0738463 
0.19702989 0.88045806 0.58040667 0.24382731 1.5836053 0.38146028 
0.0 1.6625782 1.6282787 0.53898823 1.185385 0.0 
0.0 1.6860268 2.2191074 0.17239738 1.295422 0.0 
0.0 1.1537088 1.4448483 0.0 0.86582774 0.0 
0.0 0.1843597 0.23185453 0.0 0.42547145 0.0 
0.0 0.0 0.0 0.0 0.0 0.07698792 
0.0 0.0 0.0 0.0 0.0 0.07698792 
0.0 0.0 0.0 0.0 0.0 0.07698792 
0.0 0.0 0.0 0.0 0.0 0.07698792 
0.0 0.0 0.0 0.0 0.0 0.07698792 
0.0 0.0 0.0 0.0 0.0 0.07698792 
0.0 0.0 0.0 0.0 0.0 0.07698792 
0.0 0.0 0.0 0.0 0.0 0.07698792 
0.0 0.0 0.0 0.0 0.0 0.07698792 
0.0 0.0 0.0 0.0 0.0 0.07698792 
0.0 0.0 0.0 0.0 0.0 0.07698792 
0.0 0.0 0.0 0.0 0.0 0.07698792 
0.0 0.0 0.0 0.0 0.0 0.07698792 
0.0 0.0 0.0 0.0 0.0 0.07698792 
0.0 0.0 0.0 0.0 0.0 0.07698792 
0.0 0.0 0.0 0.0 0.0 0.07698792 
0.0 0.0 0.0 0.0 0.0 0.07698792 
0.34011778 0.0 0.0 0.0 0.0 0.19369233 
1.5242257 0.0 0.0 0.0049758824 0.02116466 0.5818761 
2.082412 0.0 0.0 0.004154091 0.86896753 0.7096998 
1.0149052 1.0982678 0.0 0.0 1.7977923 0.13373022 
0.2761363 1.0687622 0.0 0.0 2.4094715 0.6500333 
0.47857875 0.4295176 0.0 0.0 2.230896 1.3179061 
0.6643323 0.3157323 0.0 0.038940806 1.6181241 0.76055974 
0.10434219 1.1572819 0.3759852 0.21367785 1.3149974 0.004455596 
0.0 1.7102647 1.9411845 0.32183927 1.4925692 0.0 
0.0 1.2103899 1.9221855 0.08422488 1.1457808 0.0 
0.0 0.38287568 0.59720016 0.0 0.51728684 0.0 
0.0 0.0 0.0 0.0 0.0 0.07698792 
0.0 0.0 0.0 0.0 0.0 0.07698792 
0.0 0.0 0.0 0.0 0.0 0.07698792 
0.0 0.0 0.0 0.0 0.0 0.07698792 
0.0 0.0 0.0 0.0 0.0 0.07698792 
0.0 0.0 0.0 0.0 0.0 0.07698792 
0.0 0.0 0.0 0.0 0.0 0.07698792 
0.0 0.0 0.0 0.0 0.0 0.07698792 
0.0 0.0 0.0 0.0 0.0 0.07698792 
0.0 0.0 0.0 0.0 0.0 0.07698792 
0.0 0.0 0.0 0.0 0.0 0.07698792 
0.0 0.0 0.0 0.0 0.0 0.07698792 
0.0 0.0 0.0 0.0 0.0 0.07698792 
0.0 0.0 0.0 0.0 0.0 0.07698792 
0.0 0.0 0.0 0.0 0.0 0.07698792 
0.0 0.0 0.0 0.0 0.0 0.07698792 
0.0 0.0 0.0 0.0 0.0 0.07698792 
0.5418014 0.0 0.0 0.05833934 0.0 0.37729204 
1.7392414 0.0 0.0 0.06063902 0.17161745 0.7853523 
1.973485 0.050158016 0.0 0.080616795 1.083235 0.7301976 
0.533949 1.386379 0.0 0.0051234337 1.6993328 0.07081701 
0.0 1.1886286 0.23434433 0.0 2.2149625 0.39482668 
0.5170911 0.2169728 0.23921815 0.0 2.0051808 1.2877412 
1.0561111 0.087557375 0.0 0.015105446 1.4297315 0.9190566 
0.50390583 1.0898762 0.0 0.0 1.3433266 0.16590948 
0.0 1.6762668 1.4044135 0.15199131 1.5354806 0.0 
0.0 1.2198999 1.9843422 0.06806892 1.2439363 0.0 
0.0 0.43221617 0.8924322 0.0 0.5785082 0.0 
0.0 0.0 0.0 0.0 0.0 0.07698792 
0.0 0.0 0.0 0.0 0.0 0.07698792 
0.0 0.0 0.0 0.0 0.0 0.07698792 
0.0 0.0 0.0 0.0 0.0 0.07698792 
0.0 0.0 0.0 0.0 0.0 0.07698792 
0.0 0.0 0.0 0.0 0.0 0.07698792 
0.0 0.0 0.0 0.0 0.0 0.07698792 
0.0 0.0 0.0 0.0 0.0 0.07698792 
0.0 0.0 0.0 0.0 0.0 0.07698792 
0.0 0.0 0.0 0.0 0.0 0.07698792 
0.0 0.0 0.0 0.0 0.0 0.07698792 
0.0 0.0 0.0 0.0 0.0 0.07698792 
0.0 0.0 0.0 0.0 0.0 0.07698792 
0.0 0.0 0.0 0.0 0.0 0.07698792 
0.0 0.0 0.0 0.0 0.0 0.07698792 
0.0 0.0 0.0 0.0 0.0 0.07698792 
0.0 0.0 0.0 0.0 0.0 0.07698792 
0.74385697 0.0 0.0 0.032711934 0.0 0.5502504 
1.8937287 0.0 0.0 0.07426998 0.3604341 0.9211984 
1.7911053 0.15663828 0.0 0.04408511 1.2890166 0.6371745 
0.22347754 1.5072106 0.0 0.044653576 1.6613907 0.059013486 
0.0 1.1383564 0.7846317 0.0 2.01789 0.22763924 
0.5069194 0.029721804 0.46789134 0.0 1.7074541 1.0869763 
1.3730569 0.0 0.0 0.0 1.376825 0.9210918 
0.62997997 1.0418453 0.0 0.0 1.4059762 0.1777559 
0.0 1.4824667 0.8831122 0.0 1.57561 0.0 
0.0 1.1312178 1.837854 0.005300951 1.3366392 0.0 
0.0 0.30340666 0.9686216 0.0 0.6210842 0.0 
0.0 0.0 0.0 0.0 0.0 0.07698792 
0.0 0.0 0.0 0.0 0.0 0.07698792 
0.0 0.0 0.0 0.0 0.0 0.07698792 
0.0 0.0 0.0 0.0 0.0 0.07698792 
0.0 0.0 0.0 0.0 0.0 0.07698792 
0.0 0.0 0.0 0.0 0.0 0.07698792 
0.0 0.0 0.0 0.0 0.0 0.07698792 
0.0 0.0 0.0 0.0 0.0 0.07698792 
0.0 0.0 0.0 0.0 0.0 0.07698792 
0.0 0.0 0.0 0.0 0.0 0.07698792 
0.0 0.0 0.0 0.0 0.0 0.07698792 
0.0 0.0 0.0 0.0 0.0 0.07698792 
0.0 0.0 0.0 0.0 0.0 0.07698792 
0.0 0.0 0.0 0.0 0.0 0.07698792 
0.0 0.0 0.0 0.0 0.0 0.07698792 
0.0 0.0 0.0 0.0 0.0 0.07698792 
0.0 0.0 0.0 0.0 0.0 0.07698792 
0.84207064 0.0 0.0 0.06268555 0.0 0.65179867 
1.9685178 0.0 0.0 0.06691739 0.46684995 1.047694 
1.6384764 0.32514846 0.0 0.0 1.2211542 0.51330715 
0.22682002 1.5485375 0.0 0.0 1.474419 0.0 
0.0 1.2715322 1.2942737 0.0 1.6302221 0.0 
0.60324925 0.15547815 0.7213476 0.0 1.3946103 0.5487634 
1.4409847 0.047486946 0.0 0.0 1.3190088 0.5578516 
0.54981685 1.2105087 0.0 0.0 1.4149617 0.0 
0.0 1.5417659 0.78798646 0.0 1.5665265 0.0 
0.0 1.0231273 1.7518036 0.031750765 1.3042417 0.072548345 
0.0 0.28424403 0.93661416 0.022550847 0.5352665 0.004138477 
0.0 0.0 0.0 0.0 0.0 0.07698792 
0.0 0.0 0.0 0.0 0.0 0.07698792 
0.0 0.0 0.0 0.0 0.0 0.07698792 
0.0 0.0 0.0 0.0 0.0 0.07698792 
0.0 0.0 0.0 0.0 0.0 0.07698792 
0.0 0.0 0.0 0.0 0.0 0.07698792 
0.0 0.0 0.0 0.0 0.0 0.07698792 
0.0 0.0 0.0 0.0 0.0 0.07698792 
0.0 0.0 0.0 0.0 0.0 0.07698792 
0.0 0.0 0.0 0.0 0.0 0.07698792 
0.0 0.0 0.0 0.0 0.0 0.07698792 
0.0 0.0 0.0 0.0 0.0 0.07698792 
0.0 0.0 0.0 0.0 0.0 0.07698792 
0.0 0.0 0.0 0.0 0.0 0.07698792 
0.0 0.0 0.0 0.0 0.0 0.07698792 
0.0 0.0 0.0 0.0 0.0 0.07698792 
0.0 0.0 0.0 0.0 0.0 0.07698792 
0.8425413 0.0 0.0 0.046213616 0.13671772 0.7338266 
1.9141853 0.0 0.0 0.109798625 0.5923656 1.2032425 
1.6144185 0.19241884 0.0 0.0 1.0636228 0.5174341 
0.45777345 1.3430282 0.0 0.0 1.1566529 0.0 
0.0 1.254103 1.6097205 0.0 1.3176568 0.0 
0.7883884 0.5289246 1.0247133 0.0 1.3757789 0.0016289279 
1.2801275 0.63447744 0.0 0.0 1.6377572 0.08654391 
0.10845718 1.4563106 0.0 0.0 1.7512456 0.0 
0.0 1.4367596 0.7814009 0.0 1.682887 0.0 
0.0 0.81291646 1.5610447 0.097615674 1.2166604 0.23744805 
0.0 0.17885527 0.8229247 0.114174835 0.39600882 0.077544734 
0.0 0.0 0.0 0.0 0.0 0.07698792 
0.0 0.0 0.0 0.0 0.0 0.07698792 
0.0 0.0 0.0 0.0 0.0 0.07698792 
0.0 0.0 0.0 0.0 0.0 0.07698792 
0.0 0.0 0.0 0.0 0.0 0.07698792 
0.0 0.0 0.0 0.0 0.0 0.07698792 
0.0 0.0 0.0 0.0 0.0 0.07698792 
0.0 0.0 0.0 0.0 0.0 0.07698792 
0.0 0.0 0.0 0.0 0.0 0.07698792 
0.0 0.0 0.0 0.0 0.0 0.07698792 
0.0 0.0 0.0 0.0 0.0 0.07698792 
0.0 0.0 0.0 0.0 0.0 0.07698792 
0.0 0.0 0.0 0.0 0.0 0.07698792 
0.0 0.0 0.0 0.0 0.0 0.07698792 
0.0 0.0 0.0 0.0 0.0 0.07698792 
0.0 0.0 0.0 0.0 0.0 0.07698792 
0.0 0.0 0.0 0.0 0.0 0.07698792 
0.6981011 0.0 0.0 0.095136344 0.2971479 0.75599164 
1.5680068 0.0 0.0 0.24091277 0.7582748 1.3883529 
1.4511914 0.0 0.0 0.31257197 0.9395196 0.9353364 
0.8384051 0.69579065 0.0 0.32319242 0.9314549 0.3676712 
0.3318712 0.9982676 1.4477975 0.31581804 1.2908248 0.07032563 
0.61850494 0.844107 1.0749031 0.14346252 1.8626099 0.18746053 
0.52828634 1.0674013 0.0 0.07327695 2.380606 0.28418028 
0.0 1.4387047 0.0 0.18115737 2.1619723 0.22861928 
0.0 1.0622311 0.8172841 0.3177635 1.6003951 0.3954839 
0.0 0.42088792 1.2500157 0.25603357 0.94146335 0.39076 
0.0 0.09746341 0.61742795 0.13859472 0.19113357 0.12188552 
0.0 0.0 0.0 0.0 0.0 0.07698792 
0.0 0.0 0.0 0.0 0.0 0.07698792 
0.0 0.0 0.0 0.0 0.0 0.07698792 
0.0 0.0 0.0 0.0 0.0 0.07698792 
0.0 0.0 0.0 0.0 0.0 0.07698792 
0.0 0.0 0.0 0.0 0.0 0.07698792 
0.0 0.0 0.0 0.0 0.0 0.07698792 
0.0 0.0 0.0 0.0 0.0 0.07698792 
0.0 0.0 0.0 0.0 0.0 0.07698792 
0.0 0.0 0.0 0.0 0.0 0.07698792 
0.0 0.0 0.0 0.0 0.0 0.07698792 
0.0 0.0 0.0 0.0 0.0 0.07698792 
0.0 0.0 0.0 0.0 0.0 0.07698792 
0.0 0.0 0.0 0.0 0.0 0.07698792 
0.0 0.0 0.0 0.0 0.0 0.07698792 
0.0 0.0 0.0 0.0 0.0 0.07698792 
0.0 0.0 0.0 0.0 0.0 0.07698792 
0.5063933 0.0 0.0 0.046783198 0.37743163 0.61915535 
1.1830747 0.0 0.0 0.14310764 0.9088622 1.345794 
1.1040559 0.0 0.0 0.39030114 1.0092939 1.4043715 
0.8593525 0.0 0.0 0.82265556 1.1405474 1.3621416 
0.5127012 0.4444019 0.34852526 1.4254178 1.6634548 1.3658214 
0.31602588 0.8626792 0.64699763 1.5152601 2.3875794 1.367032 
0.0 1.2395816 0.07692451 1.1390954 2.477821 1.0417242 
0.0 1.0604438 0.04992692 0.6959565 1.8238808 0.7322616 
0.0 0.63189495 0.73636025 0.40138742 1.0259851 0.65337425 
0.0 0.26088586 0.9016459 0.23876429 0.41376922 0.37497354 
0.0 0.0 0.3319633 0.0490979 0.062815964 0.124266595 
0.0 0.0 0.0 0.0 0.0 0.07698792 
0.0 0.0 0.0 0.0 0.0 0.07698792 
0.0 0.0 0.0 0.0 0.0 0.07698792 
0.0 0.0 0.0 0.0 0.0 0.07698792 
0.0 0.0 0.0 0.0 0.0 0.07698792 
0.0 0.0 0.0 0.0 0.0 0.07698792 
0.0 0.0 0.0 0.0 0.0 0.07698792 
0.0 0.0 0.0 0.0 0.0 0.07698792 
0.0 0.0 0.0 0.0 0.0 0.07698792 
0.0 0.0 0.0 0.0 0.0 0.07698792 
0.0 0.0 0.0 0.0 0.0 0.07698792 
0.0 0.0 0.0 0.0 0.0 0.07698792 
0.0 0.0 0.0 0.0 0.0 0.07698792 
0.0 0.0 0.0 0.0 0.0 0.07698792 
0.0 0.0 0.0 0.0 0.0 0.07698792 
0.0 0.0 0.0 0.0 0.0 0.07698792 
0.0 0.0 0.0 0.0 0.0 0.07698792 
0.26701105 0.0 0.0 0.0 0.30915108 0.3692945 
0.79080385 0.0 0.0 0.0 0.7824896 0.96960926 
0.9568841 0.0 0.0 0.0 1.0851668 1.4097917 
0.811523 0.0 0.0 0.29942825 1.3532654 1.651212 
0.41225332 0.030538127 0.0 0.68673307 1.841683 1.7232764 
0.06613037 0.5516249 0.0 0.9164252 2.0640771 1.6632307 
0.0 0.76923233 0.0 0.5928772 1.692078 1.302856 
0.0 0.60827625 0.037873708 0.23835517 0.91629434 0.8425029 
0.0 0.12746008 0.3936261 0.0 0.45829502 0.52860117 
0.0 0.0 0.4184947 0.0 0.19901337 0.2595842 
0.0 0.0 0.07196995 0.0 0.011369873 0.094398886 
0.0 0.0 0.0 0.0 0.0 0.07698792 
0.0 0.0 0.0 0.0 0.0 0.07698792 
0.0 0.0 0.0 0.0 0.0 0.07698792 
0.0 0.0 0.0 0.0 0.0 0.07698792 
0.0 0.0 0.0 0.0 0.0 0.07698792 
0.0 0.0 0.0 0.0 0.0 0.07698792 
0.0 0.0 0.0 0.0 0.0 0.07698792 
0.0 0.0 0.0 0.0 0.0 0.07698792 
0.0 0.0 0.0 0.0 0.0 0.07698792 
0.0 0.0 0.0 0.0 0.0 0.07698792 
0.0 0.0 0.0 0.0 0.0 0.07698792 
0.0 0.0 0.0 0.0 0.0 0.07698792 
0.0 0.0 0.0 0.0 0.0 0.07698792 
0.0 0.0 0.0 0.0 0.0 0.07698792 
0.0 0.0 0.0 0.0 0.0 0.07698792 
0.0 0.0 0.0 0.0 0.0 0.07698792 
0.0 0.0 0.0 0.0 0.0 0.07698792 
0.04804235 0.0 0.0 0.0 0.12428118 0.15852416 
0.36204788 0.0 0.0 0.0 0.46743783 0.43661585 
0.65184253 0.0 0.0 0.0 0.8197922 0.8500605 
0.681119 0.0 0.0 0.0 1.1657994 1.2298083 
0.42294055 0.0 0.0 0.0 1.3515898 1.3618991 
0.0483218 0.0 0.0 0.0 1.2688303 1.1776328 
0.0 0.0 0.0 0.0 0.7895736 0.7935956 
0.0 0.0 0.0 0.0 0.4458787 0.4617923 
0.0 0.0 0.07473727 0.0 0.25163594 0.2784448 
0.0 0.0 0.07289762 0.0 0.07242489 0.112718284 
0.0 0.0 0.0 0.0 0.0 0.07904261 
0.0 0.0 0.0 0.0 0.0 0.07698792 
0.0 0.0 0.0 0.0 0.0 0.07698792 
0.0 0.0 0.0 0.0 0.0 0.07698792 
0.0 0.0 0.0 0.0 0.0 0.07698792 
0.0 0.0 0.0 0.0 0.0 0.07698792 
0.0 0.0 0.0 0.0 0.0 0.07698792 
0.0 0.0 0.0 0.0 0.0 0.07698792 
0.0 0.0 0.0 0.0 0.0 0.07698792 
0.0 0.0 0.0 0.0 0.0 0.07698792 
0.0 0.0 0.0 0.0 0.0 0.07698792 
0.0 0.0 0.0 0.0 0.0 0.07698792 
0.0 0.0 0.0 0.0 0.0 0.07698792 
0.0 0.0 0.0 0.0 0.0 0.07698792 
0.0 0.0 0.0 0.0 0.0 0.07698792 
0.0 0.0 0.0 0.0 0.0 0.07698792 
0.0 0.0 0.0 0.0 0.0 0.07698792 
0.0 0.0 0.0 0.0 0.0 0.07698792 
0.0 0.0 0.0 0.0 0.0 0.07822567 
0.029977717 0.0 0.0 0.0 0.09862138 0.14559457 
0.23701972 0.0 0.0 0.0 0.4078588 0.29453754 
0.32540667 0.0 0.0 0.0 0.6083222 0.38813055 
0.18694222 0.0 0.0 0.0 0.58597153 0.39338577 
0.0 0.0 0.0 0.0 0.42884168 0.3384604 
0.0 0.0 0.0 0.0 0.29720464 0.26067877 
0.0 0.0 0.0 0.0 0.14943391 0.17534521 
0.0 0.0 0.016176216 0.0 0.009319838 0.09128867 
0.0 0.0 0.0 0.0 0.0 0.07752062 
0.0 0.0 0.0 0.0 0.0 0.07698792 
0.0 0.0 0.0 0.0 0.0 0.07698792 
0.0 0.0 0.0 0.0 0.0 0.07698792 
0.0 0.0 0.0 0.0 0.0 0.07698792 
0.0 0.0 0.0 0.0 0.0 0.07698792 
0.0 0.0 0.0 0.0 0.0 0.07698792 
0.0 0.0 0.0 0.0 0.0 0.07698792 
0.0 0.0 0.0 0.0 0.0 0.07698792 
0.0 0.0 0.0 0.0 0.0 0.07698792 
0.0 0.0 0.0 0.0 0.0 0.07698792 
0.0 0.0 0.0 0.0 0.0 0.07698792 
0.0 0.0 0.0 0.0 0.0 0.07698792 
0.0 0.0 0.0 0.0 0.0 0.07698792 
0.0 0.0 0.0 0.0 0.0 0.07698792 
0.0 0.0 0.0 0.0 0.0 0.07698792 
0.0 0.0 0.0 0.0 0.0 0.07698792 
0.0 0.0 0.0 0.0 0.0 0.07698792 
0.0 0.0 0.0 0.0 0.0 0.07698792 
0.0 0.0 0.0 0.0 0.0 0.07698792 
0.0 0.0 0.0 0.0 0.0 0.07698792 
0.0 0.0 0.0 0.0 0.0 0.07698792 
0.0 0.0 0.0 0.0 0.0 0.07698792 
0.0 0.0 0.0 0.0 0.0 0.07698792 
0.0 0.0 0.0 0.0 0.0 0.07698792 
0.0 0.0 0.0 0.0 0.0 0.07698792 
0.0 0.0 0.0 0.0 0.0 0.07698792 
0.0 0.0 0.0 0.0 0.0 0.07698792 
0.0 0.0 0.0 0.0 0.0 0.07698792 
0.0 0.0 0.0 0.0 0.0 0.07698792 
0.0 0.0 0.0 0.0 0.0 0.07698792 
0.0 0.0 0.0 0.0 0.0 0.07698792 
0.0 0.0 0.0 0.0 0.0 0.07698792 
0.0 0.0 0.0 0.0 0.0 0.07698792 
0.0 0.0 0.0 0.0 0.0 0.07698792 
0.0 0.0 0.0 0.0 0.0 0.07698792 
0.0 0.0 0.0 0.0 0.0 0.07698792 
0.0 0.0 0.0 0.0 0.0 0.07698792 

