0.0 0.0 0.0 0.0 0.0 0.07698792 
0.0 0.0 0.0 0.0 0.0 0.07698792 
0.0 0.0 0.0 0.0 0.0 0.07698792 
0.0 0.0 0.0 0.0 0.0 0.07698792 
0.0 0.0 0.0 0.0 0.0 0.07698792 
0.0 0.0 0.0 0.0 0.0 0.07698792 
0.0 0.0 0.0 0.0 0.0 0.07698792 
0.0 0.0 0.0 0.0 0.0 0.07698792 
0.0 0.0 0.0 0.0 0.0 0.07698792 
0.0 0.0 0.0 0.0 0.0 0.07698792 
0.0 0.0 0.0 0.0 0.0 0.07698792 
0.0 0.0 0.0 0.0 0.0 0.07698792 
0.0 0.0 0.0 0.0 0.0 0.07133134 
0.07695836 0.0 0.114591725 0.0 0.0 0.0 
0.23308313 0.10819797 0.14129558 0.0 0.0 0.0 
0.06689085 0.23439644 0.09797535 0.0 0.0 0.0 
0.0 0.26945257 0.1308037 0.0 0.0 0.0 
0.0 0.23105854 0.06367599 0.0 0.058497522 0.0 
0.0 0.06973211 0.0 0.0 0.0171947 0.0045563877 
0.0 0.0 0.0 0.0 0.0 0.07698792 
0.0 0.0 0.0 0.0 0.0 0.07698792 
0.0 0.0 0.0 0.0 0.0 0.07698792 
0.0 0.0 0.0 0.0 0.0 0.07698792 
0.0 0.0 0.0 0.0 0.0 0.07698792 
0.0 0.0 0.0 0.0 0.0 0.07698792 
0.0 0.0 0.0 0.0 0.0 0.07698792 
0.0 0.0 0.0 0.0 0.0 0.07698792 
0.0 0.0 0.0 0.0 0.0 0.07698792 
0.0 0.0 0.0 0.0 0.0 0.07698792 
0.0 0.0 0.0 0.0 0.0 0.07698792 
0.0 0.0 0.0 0.0 0.0 0.07698792 
0.0 0.0 0.0 0.0 0.0 0.07698792 
0.0 0.0 0.0 0.0 0.0 0.07698792 
0.0 0.0 0.0 0.0 0.0 0.07698792 
0.0 0.0 0.0 0.0 0.0 0.07698792 
0.0 0.0 0.0 0.0 0.0 0.07698792 
0.0 0.0 0.0 0.0 0.0 0.07698792 
0.0 0.0 0.0 0.0 0.0 0.07698792 
0.0 0.0 0.0 0.0 0.0 0.07698792 
0.0 0.0 0.0 0.0 0.0 0.07698792 
0.058437318 0.0 0.08686974 0.0 0.0 0.009856947 
0.43562168 0.0 0.13481742 0.0 0.0 0.0 
0.6540836 0.09676069 0.3099904 0.0 0.0 0.0 
0.44481814 0.6538533 0.3529346 0.0 0.0 0.0 
0.0 0.9259138 0.53362256 0.0 0.2711737 0.0 
0.0 0.52521634 0.4144069 0.0 0.48424253 0.0 
0.0 0.09172741 0.054845557 0.0 0.24620606 0.0 
0.0 0.0 0.0 0.0 0.0 0.07698792 
0.0 0.0 0.0 0.0 0.0 0.07698792 
0.0 0.0 0.0 0.0 0.0 0.07698792 
0.0 0.0 0.0 0.0 0.0 0.07698792 
0.0 0.0 0.0 0.0 0.0 0.07698792 
0.0 0.0 0.0 0.0 0.0 0.07698792 
0.0 0.0 0.0 0.0 0.0 0.07698792 
0.0 0.0 0.0 0.0 0.0 0.07698792 
0.0 0.0 0.0 0.0 0.0 0.07698792 
0.0 0.0 0.0 0.0 0.0 0.07698792 
0.0 0.0 0.0 0.0 0.0 0.07698792 
0.0 0.0 0.0 0.0 0.0 0.07698792 
0.0 0.0 0.0 0.0 0.0 0.07698792 
0.0 0.0 0.0 0.0 0.0 0.07698792 
0.0 0.0 0.0 0.0 0.0 0.07698792 
0.0 0.0 0.0 0.0 0.0 0.07698792 
0.0 0.0 0.0 0.0 0.0 0.07698792 
0.0 0.0 0.0 0.0 0.0 0.07698792 
0.0 0.0 0.0 0.0 0.0 0.07698792 
0.0 0.0 0.0 0.0 0.0 0.07698792 
0.0 0.0 0.0 0.0 0.0 0.06529765 
0.24533749 0.0 0.04855281 0.0 0.0 0.016447924 
0.9511468 0.0 0.06085533 0.0 0.0 0.0 
1.0720577 0.0885907 0.11256353 0.0 0.0 0.0 
0.27279222 1.0031599 0.6105125 0.0 0.49250415 0.0 
0.0 1.2410824 1.0060111 0.0 1.0282091 0.0 
0.0 0.8219296 0.98151696 0.0 0.84501475 0.0 
0.0 0.15933242 0.28314963 0.0 0.32719442 0.0 
0.0 0.0 0.0 0.0 0.0 0.07698792 
0.0 0.0 0.0 0.0 0.0 0.07698792 
0.0 0.0 0.0 0.0 0.0 0.07698792 
0.0 0.0 0.0 0.0 0.0 0.07698792 
0.0 0.0 0.0 0.0 0.0 0.07698792 
0.0 0.0 0.0 0.0 0.0 0.07698792 
0.0 0.0 0.0 0.0 0.0 0.07698792 
0.0 0.0 0.0 0.0 0.0 0.07698792 
0.0 0.0 0.0 0.0 0.0 0.07698792 
0.0 0.0 0.0 0.0 0.0 0.07698792 
0.0 0.0 0.0 0.0 0.0 0.07698792 
0.0 0.0 0.0 0.0 0.0 0.07698792 
0.0 0.0 0.0 0.0 0.0 0.07698792 
0.0 0.0 0.0 0.0 0.0 0.07698792 
0.0 0.0 0.0 0.0 0.0 0.07698792 
0.0 0.0 0.0 0.0 0.0 0.07698792 
0.0 0.0 0.0 0.0 0.0 0.07698792 
0.0 0.0 0.0 0.0 0.0 0.07698792 
0.0 0.0 0.0 0.0 0.0 0.07698792 
0.0 0.0 0.0 0.0 0.0 0.06793738 
0.11285618 0.0 0.113210745 0.0 0.0 0.0 
0.7238792 0.0 0.006305985 0.0 0.0 0.0 
1.3431246 0.0 0.0 0.0 0.0 0.084893 
1.1384246 0.52218467 0.0 0.20332453 0.6270034 0.0 
0.0 1.5663761 0.4647143 0.41160426 1.2503775 0.0 
0.0 1.431361 1.2906072 0.52874774 1.3472716 0.0 
0.0 0.7959045 1.3416965 0.46003562 0.81283665 0.15392917 
0.0 0.27795872 0.5241312 0.22544056 0.16504057 0.0794462 
0.0 0.0 0.0 0.0 0.0 0.07698792 
0.0 0.0 0.0 0.0 0.0 0.07698792 
0.0 0.0 0.0 0.0 0.0 0.07698792 
0.0 0.0 0.0 0.0 0.0 0.07698792 
0.0 0.0 0.0 0.0 0.0 0.07698792 
0.0 0.0 0.0 0.0 0.0 0.07698792 
0.0 0.0 0.0 0.0 0.0 0.07698792 
0.0 0.0 0.0 0.0 0.0 0.07698792 
0.0 0.0 0.0 0.0 0.0 0.07698792 
0.0 0.0 0.0 0.0 0.0 0.07698792 
0.0 0.0 0.0 0.0 0.0 0.07698792 
0.0 0.0 0.0 0.0 0.0 0.07698792 
0.0 0.0 0.0 0.0 0.0 0.07698792 
0.0 0.0 0.0 0.0 0.0 0.07698792 
0.0 0.0 0.0 0.0 0.0 0.07698792 
0.0 0.0 0.0 0.0 0.0 0.07698792 
0.0 0.0 0.0 0.0 0.0 0.07698792 
0.0 0.0 0.0 0.0 0.0 0.07698792 
0.0 0.0 0.0 0.0 0.0 0.07698792 
0.0 0.0 0.0 0.0 0.0 0.056991458 
0.3626585 0.0 0.06471247 0.0 0.0 0.0 
1.2542012 0.0 0.0 0.0 0.0 0.17301211 
1.7172217 0.051642604 0.0 0.0 0.59793854 0.3504171 
0.7843122 1.17637 0.0 0.13638644 1.5502232 0.1336772 
0.0 1.5067403 0.0 0.09669786 1.853406 0.09075749 
0.0 1.1014588 0.9687543 0.2564158 1.371747 0.3684515 
0.0 0.38404652 1.0720346 0.263211 0.60383976 0.350808 
0.0 0.09540132 0.45919943 0.13510452 0.075766966 0.13211234 
0.0 0.0 0.0 0.0 0.0 0.07698792 
0.0 0.0 0.0 0.0 0.0 0.07698792 
0.0 0.0 0.0 0.0 0.0 0.07698792 
0.0 0.0 0.0 0.0 0.0 0.07698792 
0.0 0.0 0.0 0.0 0.0 0.07698792 
0.0 0.0 0.0 0.0 0.0 0.07698792 
0.0 0.0 0.0 0.0 0.0 0.07698792 
0.0 0.0 0.0 0.0 0.0 0.07698792 
0.0 0.0 0.0 0.0 0.0 0.07698792 
0.0 0.0 0.0 0.0 0.0 0.07698792 
0.0 0.0 0.0 0.0 0.0 0.07698792 
0.0 0.0 0.0 0.0 0.0 0.07698792 
0.0 0.0 0.0 0.0 0.0 0.07698792 
0.0 0.0 0.0 0.0 0.0 0.07698792 
0.0 0.0 0.0 0.0 0.0 0.07698792 
0.0 0.0 0.0 0.0 0.0 0.07698792 
0.0 0.0 0.0 0.0 0.0 0.07698792 
0.0 0.0 0.0 0.0 0.0 0.07698792 
0.0 0.0 0.0 0.0 0.0 0.05888685 
0.19723976 0.0 0.099719964 0.0 0.0 0.0 
0.8608467 0.0 0.0 0.0 0.0 0.0 
1.6049876 0.0 0.0 0.0 0.1288491 0.18845856 
1.4514494 0.5590549 0.0 0.011108835 1.3689213 0.20135039 
0.12787192 1.421529 0.0 0.0 2.0949862 0.17829613 
0.0 1.2898688 0.16036984 0.0 1.8438436 0.3717962 
0.0 0.47849855 0.7824747 0.0 1.0923395 0.45439854 
0.0 0.07040479 0.6041492 0.028509606 0.3556771 0.30128706 
0.0 0.0 0.16946787 0.0 0.041208092 0.10810773 
0.0 0.0 0.0 0.0 0.0 0.07698792 
0.0 0.0 0.0 0.0 0.0 0.07698792 
0.0 0.0 0.0 0.0 0.0 0.07698792 
0.0 0.0 0.0 0.0 0.0 0.07698792 
0.0 0.0 0.0 0.0 0.0 0.07698792 
0.0 0.0 0.0 0.0 0.0 0.07698792 
0.0 0.0 0.0 0.0 0.0 0.07698792 
0.0 0.0 0.0 0.0 0.0 0.07698792 
0.0 0.0 0.0 0.0 0.0 0.07698792 
0.0 0.0 0.0 0.0 0.0 0.07698792 
0.0 0.0 0.0 0.0 0.0 0.07698792 
0.0 0.0 0.0 0.0 0.0 0.07698792 
0.0 0.0 0.0 0.0 0.0 0.07698792 
0.0 0.0 0.0 0.0 0.0 0.07698792 
0.0 0.0 0.0 0.0 0.0 0.07698792 
0.0 0.0 0.0 0.0 0.0 0.07698792 
0.0 0.0 0.0 0.0 0.0 0.07698792 
0.0 0.0 0.0 0.0 0.0 0.0754795 
0.106477484 0.0 0.10273773 0.0 0.0 1.9215047e-05 
0.6275784 0.0 0.087682165 0.0 0.0 0.0 
1.3843794 0.0 0.0 0.0 0.0 0.06831335 
1.7241287 0.2942865 0.0 0.0 0.808809 0.18724474 
0.6370827 1.2833039 0.0 0.0 1.9195086 0.09607898 
0.0 1.4159287 0.0 0.013252749 2.0367105 0.17581886 
0.0 0.90264285 0.72741807 0.07381284 1.438054 0.43954554 
0.0 0.21142714 0.7579241 0.051993873 0.6381612 0.3635605 
0.0 0.0 0.2944662 0.0 0.13903283 0.16174746 
0.0 0.0 0.0 0.0 0.0 0.0820105 
0.0 0.0 0.0 0.0 0.0 0.07698792 
0.0 0.0 0.0 0.0 0.0 0.07698792 
0.0 0.0 0.0 0.0 0.0 0.07698792 
0.0 0.0 0.0 0.0 0.0 0.07698792 
0.0 0.0 0.0 0.0 0.0 0.07698792 
0.0 0.0 0.0 0.0 0.0 0.07698792 
0.0 0.0 0.0 0.0 0.0 0.07698792 
0.0 0.0 0.0 0.0 0.0 0.07698792 
0.0 0.0 0.0 0.0 0.0 0.07698792 
0.0 0.0 0.0 0.0 0.0 0.07698792 
0.0 0.0 0.0 0.0 0.0 0.07698792 
0.0 0.0 0.0 0.0 0.0 0.07698792 
0.0 0.0 0.0 0.0 0.0 0.07698792 
0.0 0.0 0.0 0.0 0.0 0.07698792 
0.0 0.0 0.0 0.0 0.0 0.07698792 
0.0 0.0 0.0 0.0 0.0 0.07698792 
0.0 0.0 0.0 0.0 0.0 0.07698792 
0.030926622 0.0 0.06603727 0.0 0.0 0.019163404 
0.4519419 0.0 0.074558206 0.0 0.0 0.0 
1.1555305 0.0 0.051500715 0.0 0.0 0.0 
1.8018014 0.0 0.0 0.0 0.38170394 0.04271836 
1.2295928 0.9800706 0.0 0.0 1.6824771 0.11826278 
0.0 1.5106837 0.0 0.0 2.275481 0.103566974 
0.0 1.2422113 0.41752693 0.019222926 1.7484199 0.35854596 
0.0 0.4318634 0.925394 0.030982655 1.0074993 0.43679684 
0.0 0.06245342 0.59698606 0.067454934 0.26456055 0.24309091 
0.0 0.0 0.07990249 0.0 0.003040675 0.09579545 
0.0 0.0 0.0 0.0 0.0 0.07698792 
0.0 0.0 0.0 0.0 0.0 0.07698792 
0.0 0.0 0.0 0.0 0.0 0.07698792 
0.0 0.0 0.0 0.0 0.0 0.07698792 
0.0 0.0 0.0 0.0 0.0 0.07698792 
0.0 0.0 0.0 0.0 0.0 0.07698792 
0.0 0.0 0.0 0.0 0.0 0.07698792 
0.0 0.0 0.0 0.0 0.0 0.07698792 
0.0 0.0 0.0 0.0 0.0 0.07698792 
0.0 0.0 0.0 0.0 0.0 0.07698792 
0.0 0.0 0.0 0.0 0.0 0.07698792 
0.0 0.0 0.0 0.0 0.0 0.07698792 
0.0 0.0 0.0 0.0 0.0 0.07698792 
0.0 0.0 0.0 0.0 0.0 0.07698792 
0.0 0.0 0.0 0.0 0.0 0.07698792 
0.0 0.0 0.0 0.0 0.0 0.07698792 
0.0 0.0 0.0 0.0 0.0 0.07698792 
0.0 0.0 0.0 0.0 0.0 0.07057712 
0.18693265 0.0 0.050718717 0.0 0.0 0.019569695 
0.959555 0.0 0.0011640862 0.0 0.0 0.08789282 
1.6341615 0.0 0.0 0.0070352377 0.0 0.155122 
1.546762 0.564238 0.0 0.14801203 1.2238069 0.19098563 
0.28781658 1.4536908 0.0 0.092435315 2.2881753 0.20602617 
0.0 1.520924 0.19564548 0.15912195 2.095043 0.24942249 
0.0 0.8117752 0.7895018 0.085870415 1.3525225 0.48684657 
0.0 0.17130607 0.7609019 0.056324657 0.5720762 0.3470007 
0.0 0.0 0.25616676 0.0 0.1020641 0.14329407 
0.0 0.0 0.0 0.0 0.0 0.07995581 
0.0 0.0 0.0 0.0 0.0 0.07698792 
0.0 0.0 0.0 0.0 0.0 0.07698792 
0.0 0.0 0.0 0.0 0.0 0.07698792 
0.0 0.0 0.0 0.0 0.0 0.07698792 
0.0 0.0 0.0 0.0 0.0 0.07698792 
0.0 0.0 0.0 0.0 0.0 0.07698792 
0.0 0.0 0.0 0.0 0.0 0.07698792 
0.0 0.0 0.0 0.0 0.0 0.07698792 
0.0 0.0 0.0 0.0 0.0 0.07698792 
0.0 0.0 0.0 0.0 0.0 0.07698792 
0.0 0.0 0.0 0.0 0.0 0.07698792 
0.0 0.0 0.0 0.0 0.0 0.07698792 
0.0 0.0 0.0 0.0 0.0 0.07698792 
0.0 0.0 0.0 0.0 0.0 0.07698792 
0.0 0.0 0.0 0.0 0.0 0.07698792 
0.0 0.0 0.0 0.0 0.0 0.07698792 
0.0 0.0 0.0 0.0 0.0 0.07321686 
0.07142295 0.0 0.09147716 0.0 0.0 0.0 
0.6209126 0.0 0.021310814 0.0 0.0 0.0 
1.4297993 0.0 0.0 0.0 0.0 0.12304147 
1.8149431 0.15700352 0.0 0.0 0.83281267 0.22927879 
0.90016985 1.2111161 0.0 0.15724829 2.0133414 0.3309489 
0.0 1.5976311 0.0 0.13493755 2.3390968 0.3360611 
0.0 1.1616188 0.6701537 0.19231765 1.7094706 0.50909555 
0.0 0.31157568 0.8801065 0.10948284 0.8666366 0.47355315 
0.0 0.040455572 0.5488105 0.06093632 0.22253986 0.2219423 
0.0 0.0 0.03480778 0.0 0.0 0.08932863 
0.0 0.0 0.0 0.0 0.0 0.07698792 
0.0 0.0 0.0 0.0 0.0 0.07698792 
0.0 0.0 0.0 0.0 0.0 0.07698792 
0.0 0.0 0.0 0.0 0.0 0.07698792 
0.0 0.0 0.0 0.0 0.0 0.07698792 
0.0 0.0 0.0 0.0 0.0 0.07698792 
0.0 0.0 0.0 0.0 0.0 0.07698792 
0.0 0.0 0.0 0.0 0.0 0.07698792 
0.0 0.0 0.0 0.0 0.0 0.07698792 
0.0 0.0 0.0 0.0 0.0 0.07698792 
0.0 0.0 0.0 0.0 0.0 0.07698792 
0.0 0.0 0.0 0.0 0.0 0.07698792 
0.0 0.0 0.0 0.0 0.0 0.07698792 
0.0 0.0 0.0 0.0 0.0 0.07698792 
0.0 0.0 0.0 0.0 0.0 0.07698792 
0.0 0.0 0.0 0.0 0.0 0.07698792 
0.0 0.0 0.0 0.0 0.0 0.07698792 
0.0 0.0 0.0 0.0 0.0 0.07082442 
0.26538903 0.0 0.063727096 0.0 0.0 0.02181834 
1.1578434 0.0 0.0 0.0 0.0 0.15971614 
1.8580177 0.0 0.0 0.0 0.34928837 0.37049896 
1.4286063 0.8482988 0.0 0.067641065 1.5814735 0.29411638 
0.064042985 1.4647346 0.0 0.0 2.4026875 0.26037008 
0.0 1.410111 0.40780777 0.0 1.9459254 0.3566507 
0.0 0.57863975 1.024137 0.0 1.050882 0.22393048 
0.0 0.35215363 0.9384091 0.0 0.18582626 0.0 
0.0041334406 0.22039747 0.6145008 0.0 0.0 0.0 
0.2726075 0.3763623 0.43531665 0.0 0.0 0.0 
0.3206463 0.45590428 0.43102872 0.0 0.0 0.0 
0.22648215 0.5295788 0.368628 0.0 0.0 0.0 
0.042575546 0.5355333 0.28694186 0.0 0.0 0.0 
0.0 0.41669554 0.18097207 0.0 0.06776069 0.0 
0.0 0.2258426 0.056301624 0.0 0.068380445 0.0 
0.0 0.067165315 0.0 0.0 0.0 0.0 
0.0 0.0018367553 0.0 0.0 0.0 0.0676083 
0.0 0.0 0.0 0.0 0.0 0.07698792 
0.0 0.0 0.0 0.0 0.0 0.07698792 
0.0 0.0 0.0 0.0 0.0 0.07698792 
0.0 0.0 0.0 0.0 0.0 0.07698792 
0.0 0.0 0.0 0.0 0.0 0.07698792 
0.0 0.0 0.0 0.0 0.0 0.07698792 
0.0 0.0 0.0 0.0 0.0 0.07698792 
0.0 0.0 0.0 0.0 0.0 0.07698792 
0.0 0.0 0.0 0.0 0.0 0.07698792 
0.0 0.0 0.0 0.0 0.0 0.07698792 
0.017773181 0.0 0.005473383 0.0 0.0 0.055541806 
0.615596 0.0 0.0 0.0 0.0 0.15699357 
1.6102991 0.0 0.0 0.011470762 0.0 0.3432109 
1.9033341 0.13816887 0.0 0.076007776 1.0445397 0.37445801 
0.70261014 1.3605466 0.0 0.063260436 2.0535378 0.19884636 
0.0 1.521219 0.0 0.0 2.2689087 0.19470441 
0.0 0.8229281 0.9370568 0.0 1.2761077 0.30739772 
0.009622067 0.23439951 1.0730925 0.0 0.26193812 0.0 
0.4277755 0.3410586 0.86278266 0.0 0.0 0.0 
0.50187284 0.68473834 0.792848 0.0 0.0 0.0 
0.45267242 0.8172455 0.87731475 0.0 0.0 0.0 
0.5302374 0.7667168 0.8739254 0.0 0.022027243 0.0 
0.5143039 1.0164726 0.9776645 0.0 0.09989411 0.0 
0.14216338 1.2407767 1.0540551 0.0 0.33659837 0.0 
0.0 1.1465918 0.8258754 0.0 0.53405434 0.0 
0.0 0.67463404 0.5152886 0.0 0.48682633 0.0 
0.0 0.3452539 0.19878373 0.0 0.25291917 0.0 
0.0 0.10837091 0.0 0.0 0.08155775 0.0 
0.0 0.0 0.0 0.0 0.0 0.07698792 
0.0 0.0 0.0 0.0 0.0 0.07698792 
0.0 0.0 0.0 0.0 0.0 0.07698792 
0.0 0.0 0.0 0.0 0.0 0.07698792 
0.0 0.0 0.0 0.0 0.0 0.07698792 
0.0 0.0 0.0 0.0 0.0 0.07698792 
0.0 0.0 0.0 0.0 0.0 0.07698792 
0.0 0.0 0.0 0.0 0.0 0.07698792 
0.0 0.0 0.0 0.0 0.0 0.07698792 
0.0 0.0 0.0 0.0 0.0 0.07698792 
0.17069973 0.0 0.055599593 0.0 0.0 0.052969594 
1.1107559 0.0 0.0 0.021403234 0.0 0.32222506 
1.8536427 0.0 0.0 0.0 0.36035725 0.5631522 
1.4761977 0.7398669 0.0 0.15172037 1.5054787 0.3638019 
0.03608577 1.5718131 0.0 0.0 2.2243674 0.23167768 
0.0 1.376946 0.6064595 0.12745214 1.8371106 0.34528714 
0.0 0.072843924 0.8222906 0.066571556 0.9650952 0.6041468 
0.34064138 0.0 0.5167247 0.34725592 0.29875755 0.4514545 
0.6428308 0.0 0.2187936 0.51809615 0.33750948 0.0812054 
0.35266492 0.47738028 0.5865516 0.77675426 0.6584507 0.0034381598 
0.26827347 0.41215408 0.9517225 0.77683383 0.9106823 0.049856257 
0.49358016 0.46781296 0.9576603 0.7719204 0.8735515 0.0 
0.429846 0.7970155 1.2029841 0.65796906 0.80368066 0.0 
0.19221395 1.274427 1.6307846 0.32322478 0.85080355 0.0 
0.0 1.6809267 1.6792448 0.0 1.0569811 0.0 
0.0 1.4229298 1.2981685 0.0 0.94182163 0.0 
0.0 0.8101361 0.77065885 0.0 0.6798146 0.0 
0.0 0.13786963 0.1331493 0.0 0.38825038 0.0 
0.0 0.0 0.0 0.0 0.0 0.07698792 
0.0 0.0 0.0 0.0 0.0 0.07698792 
0.0 0.0 0.0 0.0 0.0 0.07698792 
0.0 0.0 0.0 0.0 0.0 0.07698792 
0.0 0.0 0.0 0.0 0.0 0.07698792 
0.0 0.0 0.0 0.0 0.0 0.07698792 
0.0 0.0 0.0 0.0 0.0 0.07698792 
0.0 0.0 0.0 0.0 0.0 0.07698792 
0.0 0.0 0.0 0.0 0.0 0.07698792 
0.0 0.0 0.019622743 0.0 0.0 0.04078577 
0.4742782 0.0 0.0 0.0 0.0 0.06676694 
1.5789261 0.0 0.0 0.0 0.0 0.40845567 
2.00185 0.025593258 0.0 0.0 0.97291845 0.5266365 
0.8172217 1.1723018 0.0 0.0 1.9309925 0.21392895 
0.0 1.5400463 0.0 0.0 2.163151 0.17176974 
0.0 0.85506696 0.97370446 0.11085465 1.6040951 0.5073719 
0.0 0.0 0.58267885 0.4127192 0.89754057 0.88989526 
0.45551616 0.0 0.0 0.72521824 0.63646424 0.93998253 
0.4872589 0.14506336 0.0 1.0812368 0.8902107 0.90375346 
0.23746547 0.49546263 0.0 1.4792933 1.1441202 1.0948386 
0.29490462 0.58123535 0.32741728 1.7225553 1.2056046 1.3373966 
0.55596024 0.5372634 0.27472967 1.7262257 1.169847 1.3589778 
0.81400216 0.6924363 0.4234808 1.5600051 0.97627693 1.0548756 
0.65616125 1.1390244 1.2391957 1.3491019 0.88763446 0.40600926 
0.0 1.8579773 1.9268256 0.93498 1.2308136 0.0 
0.0 1.886156 1.9846915 0.42949557 1.2925509 0.0 
0.0 1.273631 1.5453864 0.00778341 1.018895 0.0 
0.0 0.3386968 0.4907267 0.0 0.5449921 0.0 
0.0 0.0 0.0 0.0 0.0 0.07698792 
0.0 0.0 0.0 0.0 0.0 0.07698792 
0.0 0.0 0.0 0.0 0.0 0.07698792 
0.0 0.0 0.0 0.0 0.0 0.07698792 
0.0 0.0 0.0 0.0 0.0 0.07698792 
0.0 0.0 0.0 0.0 0.0 0.07698792 
0.0 0.0 0.0 0.0 0.0 0.07698792 
0.0 0.0 0.0 0.0 0.0 0.07698792 
0.0 0.0 0.0 0.0 0.0 0.07698792 
0.052433804 0.0 0.0 0.0 0.0 0.06337267 
0.8372368 0.0 0.0 0.008364339 0.0 0.30950335 
1.8953114 0.0 0.0 0.0 0.21685787 0.56972396 
1.7237182 0.54260594 0.0 0.045262683 1.3496325 0.36760426 
0.155175 1.5261409 0.0 0.0 2.0380516 0.04304701 
0.0 1.5650703 0.5264124 0.0 1.9059862 0.086260766 
0.0 0.5951528 1.002344 0.0 1.3443793 0.42855763 
0.0 0.0025253901 0.18548563 0.13544169 0.824617 0.8086373 
0.5624435 0.0 0.0 0.046870805 0.89821404 1.0983508 
0.47985148 0.17998846 0.0 0.038933102 1.0059875 1.2020917 
0.36341244 0.1833781 0.0 0.0669901 1.1665946 1.4258096 
0.4864503 0.009221799 0.0 0.12690252 1.4105273 1.7247849 
0.8258761 0.0 0.0 0.09301073 1.3159152 1.68716 
1.2361276 0.0 0.0 0.17438254 1.0873121 1.4839718 
1.1376274 0.33802003 0.0 0.3410602 1.1567622 1.0812776 
0.08411685 1.5942566 0.8020998 0.4035634 1.5201691 0.064717054 
0.0 1.9112134 1.7955683 0.3775935 1.5685315 0.0 
0.0 1.3485968 1.9815484 0.26543975 1.1757362 0.0 
0.0 0.4606233 0.87593055 0.049434762 0.56533915 0.0 
0.0 0.0 0.0 0.0 0.0 0.07698792 
0.0 0.0 0.0 0.0 0.0 0.07698792 
0.0 0.0 0.0 0.0 0.0 0.07698792 
0.0 0.0 0.0 0.0 0.0 0.07698792 
0.0 0.0 0.0 0.0 0.0 0.07698792 
0.0 0.0 0.0 0.0 0.0 0.07698792 
0.0 0.0 0.0 0.0 0.0 0.07698792 
0.0 0.0 0.0 0.0 0.0 0.07698792 
0.0 0.0 0.0 0.0 0.0 0.07698792 
0.16094998 0.0 0.0 0.0019809837 0.0 0.1650962 
1.1336317 0.0 0.0 0.15520543 0.0 0.56471074 
2.001802 0.0 0.0 0.16439168 0.58719933 0.7911025 
1.3041432 0.8244254 0.0 0.11052921 1.5736378 0.34074244 
0.0 1.6355218 0.0 0.0 1.9289917 0.0 
0.0 1.4007826 1.1232624 0.0 1.6946756 0.07260883 
0.0 0.39215818 0.98346066 0.0 1.1607431 0.2684991 
0.0 0.0 0.0 0.0 0.70484376 0.411598 
0.37062725 0.0 0.0 0.0 0.691775 0.520553 
0.28811178 0.0 0.0 0.0 0.74680954 0.5471802 
0.23613551 0.0 0.0 0.0 0.86157316 0.6447669 
0.47961068 0.0 0.0 0.0 0.8614062 0.73198307 
1.0884812 0.0 0.0 0.0 0.74095064 0.80662876 
1.6908486 0.0 0.0 0.0 0.9067275 0.9111586 
1.6468081 0.06655593 0.0 0.0 1.5329574 0.7557264 
0.007917047 1.3734452 0.0 0.0 1.973471 0.12548624 
0.0 1.4748882 1.0420932 0.05335476 1.890484 0.0 
0.0 0.9417897 1.7369827 0.22283877 1.3024335 0.26298717 
0.0 0.27450544 0.9827508 0.1643427 0.48428795 0.061736897 
0.0 0.0 0.0 0.0 0.0 0.07698792 
0.0 0.0 0.0 0.0 0.0 0.07698792 
0.0 0.0 0.0 0.0 0.0 0.07698792 
0.0 0.0 0.0 0.0 0.0 0.07698792 
0.0 0.0 0.0 0.0 0.0 0.07698792 
0.0 0.0 0.0 0.0 0.0 0.07698792 
0.0 0.0 0.0 0.0 0.0 0.07698792 
0.0 0.0 0.0 0.0 0.0 0.07698792 
0.0 0.0 0.0 0.0 0.0 0.07698792 
0.25945622 0.0 0.0 0.07839504 0.0 0.28065705 
1.3502207 0.0 0.0 0.092431396 0.14255291 0.8228658 
2.0520227 0.0 0.0 0.13152236 0.81856 0.9531569 
1.0351353 0.9643489 0.0 0.03265597 1.5080328 0.24720514 
0.0 1.6926259 0.3158239 0.0021317238 1.7306616 0.0 
0.0 1.2331203 1.5904965 0.0 1.5534514 0.0 
0.0 0.4268948 1.1188782 0.0 0.8629498 0.07228431 
0.0 0.0 0.16169062 0.0 0.15125488 0.114118546 
0.05496925 0.0 0.0 0.0 0.008845869 0.09157092 
0.14052346 0.0 0.0 0.0 0.0 0.0 
0.28623766 0.0 0.050452583 0.0 0.0 0.0 
0.7020611 0.0 0.013716958 0.0 0.0 0.0 
1.4094095 0.0 0.0 0.0 0.039226744 0.0 
1.8403671 0.0 0.0 0.0 0.8705294 0.09172781 
1.1663089 0.73050225 0.0 0.0 2.021432 0.4011237 
0.0 1.3734721 0.0 0.0 2.3189747 0.27491406 
0.0 1.1558913 0.8188339 0.22724704 1.7674099 0.3490285 
0.0 0.5084954 1.3357472 0.2933098 1.0048531 0.45987484 
0.0 0.16273545 0.80560106 0.20101821 0.24675746 0.13514449 
0.0 0.0 0.0 0.0 0.0 0.07698792 
0.0 0.0 0.0 0.0 0.0 0.07698792 
0.0 0.0 0.0 0.0 0.0 0.07698792 
0.0 0.0 0.0 0.0 0.0 0.07698792 
0.0 0.0 0.0 0.0 0.0 0.07698792 
0.0 0.0 0.0 0.0 0.0 0.07698792 
0.0 0.0 0.0 0.0 0.0 0.07698792 
0.0 0.0 0.0 0.0 0.0 0.07698792 
0.0 0.0 0.0 0.0 0.0 0.07698792 
0.34107107 0.0 0.0 0.010426906 0.0054033585 0.35112014 
1.4298024 0.0 0.0 0.031931233 0.2928652 0.92116886 
2.0375435 0.0 0.0 0.00810234 0.85875046 0.9537826 
1.0194564 0.9973994 0.0 0.0 1.3155555 0.14404324 
0.0 1.7075527 0.72675985 0.0 1.4538153 0.0 
0.0 1.4312629 1.9863733 0.0 1.251176 0.0 
0.0 0.716339 1.4504952 0.0 0.58290017 0.0 
0.1207428 0.36524087 0.54960954 0.0 0.0 0.0 
0.39104104 0.35019135 0.4026535 0.0 0.0 0.0 
0.5343858 0.35292825 0.44217092 0.0 0.0 0.0 
0.7686305 0.38653722 0.49139595 0.0 0.0 0.0 
1.064228 0.3664971 0.40638798 0.0 0.0 0.0 
1.2540069 0.4428179 0.09802667 0.0 0.58998287 0.0 
1.0402639 0.7479471 0.0 0.06702218 1.8392423 0.23005903 
0.15728794 1.2352048 0.0 0.30932397 2.5215447 0.59443027 
0.0 1.2796018 0.0 0.41656095 2.0599868 0.6516322 
0.0 0.6760039 0.68315756 0.26156896 1.2484058 0.61071634 
0.0 0.2471241 0.8723732 0.18309861 0.51124 0.43552604 
0.0 0.0 0.44562322 0.05414004 0.10602781 0.13700294 
0.0 0.0 0.0 0.0 0.0 0.07698792 
0.0 0.0 0.0 0.0 0.0 0.07698792 
0.0 0.0 0.0 0.0 0.0 0.07698792 
0.0 0.0 0.0 0.0 0.0 0.07698792 
0.0 0.0 0.0 0.0 0.0 0.07698792 
0.0 0.0 0.0 0.0 0.0 0.07698792 
0.0 0.0 0.0 0.0 0.0 0.07698792 
0.0 0.0 0.0 0.0 0.0 0.07698792 
0.0 0.0 0.0 0.0 0.0 0.07698792 
0.2806284 0.0 0.0 0.0406335 0.07386285 0.38062853 
1.2449555 0.0 0.0 0.14247435 0.41652438 1.0622008 
1.888891 0.0 0.0 0.18360084 0.8925593 1.1873095 
1.1572859 0.6278854 0.0 0.084641755 1.090019 0.36157554 
0.024680778 1.383443 0.84382707 0.0 1.1034504 0.0 
0.0 1.452644 2.2099578 0.0 1.01219 0.0 
0.0 1.1194233 1.8512233 0.0 0.542594 0.0 
0.3732574 0.7984188 0.94813395 0.0 0.039667074 0.0 
0.64470786 0.679613 0.82326555 0.0 0.0 0.0 
0.8372067 0.6597242 0.75332934 0.0 0.092182696 0.0 
0.80917865 0.7453563 0.66124105 0.0 0.42897668 0.0 
0.6566764 0.79870194 0.514006 0.012383982 1.158569 0.0 
0.5756602 0.9249869 0.08588802 0.4464488 2.1089265 0.3209268 
0.07140379 1.2490424 0.0 0.6805058 2.5408273 0.81857675 
0.0 1.0359167 0.0 0.4909757 2.2384021 0.9491538 
0.0 0.75485075 0.15388164 0.3053421 1.3135837 0.8224488 
0.0 0.22047241 0.52798253 0.042873885 0.6150307 0.5259569 
0.0 0.0 0.41958204 0.0 0.2358831 0.2816155 
0.0 0.0 0.110289134 0.0 0.028371338 0.09964893 
0.0 0.0 0.0 0.0 0.0 0.07698792 
0.0 0.0 0.0 0.0 0.0 0.07698792 
0.0 0.0 0.0 0.0 0.0 0.07698792 
0.0 0.0 0.0 0.0 0.0 0.07698792 
0.0 0.0 0.0 0.0 0.0 0.07698792 
0.0 0.0 0.0 0.0 0.0 0.07698792 
0.0 0.0 0.0 0.0 0.0 0.07698792 
0.0 0.0 0.0 0.0 0.0 0.07698792 
0.0 0.0 0.0 0.0 0.0 0.07698792 
0.2098912 0.0 0.0 0.030822534 0.14071307 0.34196037 
0.9737162 0.0 0.0 0.14826597 0.59876996 1.0612296 
1.463407 0.0 0.0 0.32645503 0.9518979 1.4337223 
1.1721597 0.0 0.0 0.47253314 0.9627355 0.9603239 
0.58706164 0.69647145 0.37209845 0.61297154 0.96065384 0.38277942 
0.12929626 1.0932707 2.0105162 0.53258187 1.0456969 0.0 
0.06289855 1.1799597 1.9979976 0.19941027 1.0087575 0.0 
0.35856202 0.95335686 1.287098 0.025161073 0.94476837 0.0 
0.48266995 0.8841735 0.9869566 0.29360706 1.0654527 0.0 
0.4280216 0.8374097 0.73885757 0.68054295 1.3724021 0.0 
0.39081302 1.0075332 0.5788481 1.1388762 1.7855464 0.4241955 
0.1896556 1.2011949 0.32039732 1.20194 2.3590925 0.8924921 
0.0 1.2426753 0.0 1.0720319 2.4593804 1.1515248 
0.0 0.893251 0.0 0.4914705 2.1264498 1.1326547 
0.0 0.610936 0.0 0.1914555 1.2171994 0.88404685 
0.0 0.109977536 0.22280523 0.0 0.59227043 0.56645274 
0.0 0.0 0.29884395 0.0 0.28734 0.31607878 
0.0 0.0 0.108100064 0.0 0.07722503 0.12588167 
0.0 0.0 0.0 0.0 0.0 0.07987971 
0.0 0.0 0.0 0.0 0.0 0.07698792 
0.0 0.0 0.0 0.0 0.0 0.07698792 
0.0 0.0 0.0 0.0 0.0 0.07698792 
0.0 0.0 0.0 0.0 0.0 0.07698792 
0.0 0.0 0.0 0.0 0.0 0.07698792 
0.0 0.0 0.0 0.0 0.0 0.07698792 
0.0 0.0 0.0 0.0 0.0 0.07698792 
0.0 0.0 0.0 0.0 0.0 0.07698792 
0.0 0.0 0.0 0.0 0.0 0.07698792 
0.1015735 0.0 0.0 0.0 0.1105558 0.23515919 
0.6850947 0.0 0.0 0.0017510089 0.60665053 0.8454509 
1.1410549 0.0 0.0 0.07809112 1.009826 1.4431918 
1.0051932 0.0 0.0 0.40748775 1.0177702 1.5082276 
0.7096707 0.0 0.0 0.93846554 1.2232378 1.4682167 
0.37269574 0.53993016 0.4809519 1.5519004 1.4474702 1.3532975 
0.07890645 0.94621325 1.1436267 1.805072 1.6367182 1.0567317 
0.10748918 1.0326643 0.83075213 1.800569 1.7441589 1.0355625 
0.15696147 1.0636321 0.6220469 1.7672992 1.9590272 1.2341216 
0.122655034 0.9891365 0.17367294 1.5994898 2.1875997 1.3844008 
0.084286705 1.023369 0.0 1.3908284 2.2312853 1.484586 
0.0 0.9300223 0.0 0.92058074 2.1987438 1.4220173 
0.0 0.68794024 0.0 0.37144968 1.7183064 1.2500341 
0.0 0.3579979 0.0 0.0 1.0340165 0.85642076 
0.0 0.0 0.03117568 0.0 0.50897133 0.49779117 
0.0 0.0 0.12447334 0.0 0.25726306 0.29759207 
0.0 0.0 0.10284353 0.0 0.07670987 0.12511398 
0.0 0.0 0.0 0.0 0.0 0.07987971 
0.0 0.0 0.0 0.0 0.0 0.07698792 
0.0 0.0 0.0 0.0 0.0 0.07698792 
0.0 0.0 0.0 0.0 0.0 0.07698792 
0.0 0.0 0.0 0.0 0.0 0.07698792 
0.0 0.0 0.0 0.0 0.0 0.07698792 
0.0 0.0 0.0 0.0 0.0 0.07698792 
0.0 0.0 0.0 0.0 0.0 0.07698792 
0.0 0.0 0.0 0.0 0.0 0.07698792 
0.0 0.0 0.0 0.0 0.0 0.07698792 
0.0 0.0 0.0 0.0 0.0 0.07698792 
0.0045270473 0.0 0.0 0.0 0.059625532 0.12835464 
0.34915802 0.0 0.0 0.0 0.42564896 0.43226779 
0.792866 0.0 0.0 0.0 0.8483929 0.9873352 
0.93618983 0.0 0.0 0.0 1.1688948 1.4491684 
0.76663804 0.0 0.0 0.14036536 1.4814662 1.6643357 
0.47215778 0.0 0.0 0.63611364 1.8108845 1.8176143 
0.18943194 0.35824552 0.0 1.0235187 1.9269572 1.7860203 
0.20405906 0.4739323 0.0 1.0288384 2.0251076 1.7595849 
0.19476935 0.5832212 0.0 0.80611604 1.9949216 1.7536266 
0.13291521 0.50333554 0.0 0.4745225 1.894848 1.6509495 
0.004520662 0.3600363 0.0 0.004485403 1.6866791 1.5178041 
0.0 0.16996539 0.0 0.0 1.2529376 1.0738604 
0.0 0.0 0.0 0.0 0.732265 0.70694107 
0.0 0.0 0.018494964 0.0 0.4083332 0.40947637 
0.0 0.0 0.04556538 0.0 0.19231708 0.21364172 
0.0 0.0 0.008323699 0.0 0.03671026 0.109915815 
0.0 0.0 0.0 0.0 0.0 0.07965141 
0.0 0.0 0.0 0.0 0.0 0.07698792 
0.0 0.0 0.0 0.0 0.0 0.07698792 
0.0 0.0 0.0 0.0 0.0 0.07698792 
0.0 0.0 0.0 0.0 0.0 0.07698792 
0.0 0.0 0.0 0.0 0.0 0.07698792 
0.0 0.0 0.0 0.0 0.0 0.07698792 
0.0 0.0 0.0 0.0 0.0 0.07698792 
0.0 0.0 0.0 0.0 0.0 0.07698792 
0.0 0.0 0.0 0.0 0.0 0.07698792 
0.0 0.0 0.0 0.0 0.0 0.07698792 
0.0 0.0 0.0 0.0 0.0 0.07698792 
0.0 0.0 0.0 0.0 0.0 0.07698792 
0.049022444 0.0 0.0 0.0 0.12460345 0.1596842 
0.35886627 0.0 0.0 0.0 0.46720842 0.4335064 
0.6288501 0.0 0.0 0.0 0.80955017 0.8214176 
0.62210834 0.0 0.0 0.0 1.1267768 1.1432989 
0.49405056 0.0 0.0 0.0 1.3246583 1.3903046 
0.29203355 0.0 0.0 0.0 1.4147156 1.4490848 
0.11343412 0.0 0.0 0.0 1.3479391 1.3412514 
0.066658035 0.0 0.0 0.0 1.2747709 1.1694059 
0.0 0.0 0.0 0.0 1.1145664 0.91178757 
0.0 0.0 0.0 0.0 0.80192584 0.6684045 
0.0 0.0 0.0 0.0 0.4762961 0.39901894 
0.0 0.0 0.0 0.0 0.26805672 0.27110052 
0.0 0.0 0.04355987 0.0 0.11163437 0.15098996 
0.0 0.0 0.0 0.0 0.0 0.08521499 
0.0 0.0 0.0 0.0 0.0 0.07721622 
0.0 0.0 0.0 0.0 0.0 0.07698792 
0.0 0.0 0.0 0.0 0.0 0.07698792 
0.0 0.0 0.0 0.0 0.0 0.07698792 
0.0 0.0 0.0 0.0 0.0 0.07698792 
0.0 0.0 0.0 0.0 0.0 0.07698792 
0.0 0.0 0.0 0.0 0.0 0.07698792 
0.0 0.0 0.0 0.0 0.0 0.07698792 
0.0 0.0 0.0 0.0 0.0 0.07698792 
0.0 0.0 0.0 0.0 0.0 0.07698792 
0.0 0.0 0.0 0.0 0.0 0.07698792 
0.0 0.0 0.0 0.0 0.0 0.07698792 
0.0 0.0 0.0 0.0 0.0 0.07698792 
0.0 0.0 0.0 0.0 0.0 0.07698792 
0.0 0.0 0.0 0.0 0.0 0.07884455 
0.027004458 0.0 0.0 0.0 0.09393734 0.14369366 
0.21553868 0.0 0.0 0.0 0.37590888 0.27996254 
0.2689283 0.0 0.0 0.0 0.52132016 0.34835368 
0.24862877 0.0 0.0 0.0 0.669409 0.42455798 
0.11876495 0.0 0.0 0.0 0.6841548 0.46341988 
0.0 0.0 0.0 0.0 0.6508351 0.40891415 
0.0 0.0 0.0 0.0 0.4535229 0.3467617 
0.0 0.0 0.0 0.0 0.28559315 0.22685103 
0.0 0.0 0.0 0.0 0.14191629 0.18881306 
0.0 0.0 0.0 0.0 0.0427411 0.10963408 
0.0 0.0 0.0 0.0 0.0 0.09356798 
0.0 0.0 0.0 0.0 0.0 0.07881431 
0.0 0.0 0.0 0.0 0.0 0.07698792 
0.0 0.0 0.0 0.0 0.0 0.07698792 
0.0 0.0 0.0 0.0 0.0 0.07698792 
0.0 0.0 0.0 0.0 0.0 0.07698792 
0.0 0.0 0.0 0.0 0.0 0.07698792 
0.0 0.0 0.0 0.0 0.0 0.07698792 
0.0 0.0 0.0 0.0 0.0 0.07698792 
0.0 0.0 0.0 0.0 0.0 0.07698792 
0.0 0.0 0.0 0.0 0.0 0.07698792 
0.0 0.0 0.0 0.0 0.0 0.07698792 
0.0 0.0 0.0 0.0 0.0 0.07698792 
0.0 0.0 0.0 0.0 0.0 0.07698792 
0.0 0.0 0.0 0.0 0.0 0.07698792 
0.0 0.0 0.0 0.0 0.0 0.07698792 
0.0 0.0 0.0 0.0 0.0 0.07698792 
0.0 0.0 0.0 0.0 0.0 0.07698792 
0.0 0.0 0.0 0.0 0.0 0.07698792 
0.0 0.0 0.0 0.0 0.0 0.07698792 
0.0 0.0 0.0 0.0 0.0 0.07698792 
0.0 0.0 0.0 0.0 0.0 0.07698792 
0.0 0.0 0.0 0.0 0.0 0.07698792 
0.0 0.0 0.0 0.0 0.0 0.07698792 
0.0 0.0 0.0 0.0 0.0 0.07698792 
0.0 0.0 0.0 0.0 0.0 0.07698792 
0.0 0.0 0.0 0.0 0.0 0.07698792 
0.0 0.0 0.0 0.0 0.0 0.07698792 
0.0 0.0 0.0 0.0 0.0 0.07698792 
0.0 0.0 0.0 0.0 0.0 0.07698792 
0.0 0.0 0.0 0.0 0.0 0.07698792 
0.0 0.0 0.0 0.0 0.0 0.07698792 
0.0 0.0 0.0 0.0 0.0 0.07698792 
0.0 0.0 0.0 0.0 0.0 0.07698792 
0.0 0.0 0.0 0.0 0.0 0.07698792 
0.0 0.0 0.0 0.0 0.0 0.07698792 
0.0 0.0 0.0 0.0 0.0 0.07698792 
0.0 0.0 0.0 0.0 0.0 0.07698792 
0.0 0.0 0.0 0.0 0.0 0.07698792 
0.0 0.0 0.0 0.0 0.0 0.07698792 
0.0 0.0 0.0 0.0 0.0 0.07698792 
0.0 0.0 0.0 0.0 0.0 0.07698792 
0.0 0.0 0.0 0.0 0.0 0.07698792 
0.0 0.0 0.0 0.0 0.0 0.07698792 
0.0 0.0 0.0 0.0 0.0 0.07698792 
0.0 0.0 0.0 0.0 0.0 0.07698792 
0.0 0.0 0.0 0.0 0.0 0.07698792 
0.0 0.0 0.0 0.0 0.0 0.07698792 
0.0 0.0 0.0 0.0 0.0 0.07698792 
0.0 0.0 0.0 0.0 0.0 0.07698792 
0.0 0.0 0.0 0.0 0.0 0.07698792 
0.0 0.0 0.0 0.0 0.0 0.07698792 
0.0 0.0 0.0 0.0 0.0 0.07698792 
0.0 0.0 0.0 0.0 0.0 0.07698792 
0.0 0.0 0.0 0.0 0.0 0.07698792 
0.0 0.0 0.0 0.0 0.0 0.07698792 
0.0 0.0 0.0 0.0 0.0 0.07698792 
0.0 0.0 0.0 0.0 0.0 0.07698792 
0.0 0.0 0.0 0.0 0.0 0.07698792 
0.0 0.0 0.0 0.0 0.0 0.07698792 
0.0 0.0 0.0 0.0 0.0 0.07698792 
0.0 0.0 0.0 0.0 0.0 0.07698792 
0.0 0.0 0.0 0.0 0.0 0.07698792 
0.0 0.0 0.0 0.0 0.0 0.07698792 
0.0 0.0 0.0 0.0 0.0 0.07698792 
0.0 0.0 0.0 0.0 0.0 0.07698792 
0.0 0.0 0.0 0.0 0.0 0.07698792 
0.0 0.0 0.0 0.0 0.0 0.07698792 
0.0 0.0 0.0 0.0 0.0 0.07698792 
0.0 0.0 0.0 0.0 0.0 0.07698792 
0.0 0.0 0.0 0.0 0.0 0.07698792 
0.0 0.0 0.0 0.0 0.0 0.07698792 
0.0 0.0 0.0 0.0 0.0 0.07698792 
0.0 0.0 0.0 0.0 0.0 0.07698792 
0.0 0.0 0.0 0.0 0.0 0.07698792 
0.0 0.0 0.0 0.0 0.0 0.07698792 
0.0 0.0 0.0 0.0 0.0 0.07698792 
0.0 0.0 0.0 0.0 0.0 0.07698792 
0.0 0.0 0.0 0.0 0.0 0.07698792 
0.0 0.0 0.0 0.0 0.0 0.07698792 
0.0 0.0 0.0 0.0 0.0 0.07698792 
0.0 0.0 0.0 0.0 0.0 0.07698792 
0.0 0.0 0.0 0.0 0.0 0.07698792 
0.0 0.0 0.0 0.0 0.0 0.07698792 
0.0 0.0 0.0 0.0 0.0 0.07698792 
0.0 0.0 0.0 0.0 0.0 0.07698792 
0.0 0.0 0.0 0.0 0.0 0.07698792 
0.0 0.0 0.0 0.0 0.0 0.07698792 
0.0 0.0 0.0 0.0 0.0 0.07698792 
0.0 0.0 0.0 0.0 0.0 0.07698792 
0.0 0.0 0.0 0.0 0.0 0.07698792 
0.0 0.0 0.0 0.0 0.0 0.07698792 
0.0 0.0 0.0 0.0 0.0 0.07698792 
0.0 0.0 0.0 0.0 0.0 0.07698792 
0.0 0.0 0.0 0.0 0.0 0.07698792 
0.0 0.0 0.0 0.0 0.0 0.07698792 
0.0 0.0 0.0 0.0 0.0 0.07698792 
0.0 0.0 0.0 0.0 0.0 0.07698792 
0.0 0.0 0.0 0.0 0.0 0.07698792 
0.0 0.0 0.0 0.0 0.0 0.07698792 
0.0 0.0 0.0 0.0 0.0 0.07698792 
0.0 0.0 0.0 0.0 0.0 0.07698792 
0.0 0.0 0.0 0.0 0.0 0.07698792 
0.0 0.0 0.0 0.0 0.0 0.07698792 
0.0 0.0 0.0 0.0 0.0 0.07698792 
0.0 0.0 0.0 0.0 0.0 0.07698792 
0.0 0.0 0.0 0.0 0.0 0.07698792 
0.0 0.0 0.0 0.0 0.0 0.07698792 
0.0 0.0 0.0 0.0 0.0 0.07698792 
0.0 0.0 0.0 0.0 0.0 0.07698792 
0.0 0.0 0.0 0.0 0.0 0.07698792 
0.0 0.0 0.0 0.0 0.0 0.07698792 
0.0 0.0 0.0 0.0 0.0 0.07698792 
0.0 0.0 0.0 0.0 0.0 0.07698792 
0.0 0.0 0.0 0.0 0.0 0.07698792 
0.0 0.0 0.0 0.0 0.0 0.07698792 
0.0 0.0 0.0 0.0 0.0 0.07698792 
0.0 0.0 0.0 0.0 0.0 0.07698792 
0.0 0.0 0.0 0.0 0.0 0.07698792 
0.0 0.0 0.0 0.0 0.0 0.07698792 
0.0 0.0 0.0 0.0 0.0 0.07698792 
0.0 0.0 0.0 0.0 0.0 0.07698792 
0.0 0.0 0.0 0.0 0.0 0.07698792 

