0.0 0.0 0.0 0.0 0.0 0.07698792 
0.0 0.0 0.0 0.0 0.0 0.07698792 
0.0 0.0 0.0 0.0 0.0 0.07698792 
0.0 0.0 0.0 0.0 0.0 0.07698792 
0.0 0.0 0.0 0.0 0.0 0.07698792 
0.0 0.0 0.0 0.0 0.0 0.07698792 
0.0 0.0 0.0 0.0 0.0 0.07698792 
0.0 0.0 0.0 0.0 0.0 0.07698792 
0.0 0.0 0.0 0.0 0.0 0.07698792 
0.0 0.0 0.0 0.0 0.0 0.07698792 
0.0 0.0 0.0 0.0 0.0 0.07698792 
0.0 0.0 0.0 0.0 0.0 0.07698792 
0.0 0.0 0.0 0.0 0.0 0.07698792 
0.0 0.0 0.0 0.0 0.0 0.07698792 
0.0 0.0 0.0 0.0 0.0 0.07698792 
0.0 0.0 0.0 0.0 0.0 0.07698792 
0.0 0.0 0.0 0.0 0.0 0.07698792 
0.0 0.0 0.0 0.0 0.0 0.07698792 
0.0 0.0 0.0 0.0 0.0 0.07698792 
0.0 0.0 0.0 0.0 0.0 0.07698792 
0.0 0.0 0.0 0.0 0.0 0.07698792 
0.0 0.0 0.0 0.0 0.0 0.07698792 
0.0 0.0 0.0 0.0 0.0 0.07698792 
0.0 0.0 0.0 0.0 0.0 0.07698792 
0.0 0.0 0.0 0.0 0.0 0.07698792 
0.0 0.0 0.0 0.0 0.0 0.07698792 
0.0 0.0 0.0 0.0 0.0 0.07698792 
0.0 0.0 0.0 0.0 0.0 0.07698792 
0.0 0.0 0.0 0.0 0.0 0.07698792 
0.0 0.0 0.0 0.0 0.0 0.07698792 
0.0 0.0 0.0 0.0 0.0 0.07698792 
0.0 0.0 0.0 0.0 0.0 0.07698792 
0.0 0.0 0.0 0.0 0.0 0.07698792 
0.0 0.0 0.0 0.0 0.0 0.07698792 
0.0 0.0 0.0 0.0 0.0 0.07698792 
0.0 0.0 0.0 0.0 0.0 0.07698792 
0.0 0.0 0.0 0.0 0.0 0.07698792 
0.0 0.0 0.0 0.0 0.0 0.07698792 
0.0 0.0 0.0 0.0 0.0 0.07698792 
0.0 0.0 0.0 0.0 0.0 0.07698792 
0.0 0.0 0.0 0.0 0.0 0.07698792 
0.0 0.0 0.0 0.0 0.0 0.07698792 
0.0 0.0 0.0 0.0 0.0 0.07698792 
0.0 0.0 0.0 0.0 0.0 0.07698792 
0.0 0.0 0.0 0.0 0.0 0.07698792 
0.0 0.0 0.0 0.0 0.0 0.07698792 
0.0 0.0 0.0 0.0 0.0 0.07698792 
0.0 0.0 0.0 0.0 0.0 0.07698792 
0.0 0.0 0.0 0.0 0.0 0.07698792 
0.0 0.0 0.0 0.0 0.0 0.07698792 
0.0 0.0 0.0 0.0 0.0 0.07698792 
0.0 0.0 0.0 0.0 0.0 0.07698792 
0.0 0.0 0.0 0.0 0.0 0.07698792 
0.0 0.0 0.0 0.0 0.0 0.07698792 
0.0 0.0 0.0 0.0 0.0 0.07698792 
0.0 0.0 0.0 0.0 0.0 0.07698792 
0.0 0.0 0.0 0.0 0.0 0.07698792 
0.0 0.0 0.0 0.0 0.0 0.07698792 
0.0 0.0 0.0 0.0 0.0 0.07698792 
0.0 0.0 0.0 0.0 0.0 0.07698792 
0.0 0.0 0.0 0.0 0.0 0.07698792 
0.0 0.0 0.0 0.0 0.0 0.07698792 
0.0 0.0 0.0 0.0 0.0 0.07698792 
0.0 0.0 0.0 0.0 0.0 0.07698792 
0.0 0.0 0.0 0.0 0.0 0.07698792 
0.0 0.0 0.0 0.0 0.0 0.07698792 
0.0 0.0 0.0 0.0 0.0 0.07698792 
0.0 0.0 0.0 0.0 0.0 0.07698792 
0.0 0.0 0.0 0.0 0.0 0.07698792 
0.0 0.0 0.0 0.0 0.0 0.07698792 
0.0 0.0 0.0 0.0 0.0 0.07698792 
0.0 0.0 0.0 0.0 0.0 0.07698792 
0.0 0.0 0.0 0.0 0.0 0.07698792 
0.0 0.0 0.0 0.0 0.0 0.07698792 
0.0 0.0 0.0 0.0 0.0 0.07698792 
0.0 0.0 0.0 0.0 0.0 0.07698792 
0.0 0.0 0.0 0.0 0.0 0.07698792 
0.0 0.0 0.0 0.0 0.0 0.07698792 
0.0 0.0 0.0 0.0 0.0 0.07698792 
0.0 0.0 0.0 0.0 0.0 0.07698792 
0.0 0.0 0.0 0.0 0.0 0.07698792 
0.0 0.0 0.0 0.0 0.0 0.07698792 
0.0 0.0 0.0 0.0 0.0 0.07698792 
0.0 0.0 0.0 0.0 0.0 0.07698792 
0.0 0.0 0.0 0.0 0.0 0.07698792 
0.0 0.0 0.0 0.0 0.0 0.07698792 
0.0 0.0 0.0 0.0 0.0 0.07698792 
0.0 0.0 0.0 0.0 0.0 0.07698792 
0.0 0.0 0.0 0.0 0.0 0.07698792 
0.0 0.0 0.0 0.0 0.0 0.07698792 
0.0 0.0 0.0 0.0 0.0 0.07698792 
0.0 0.0 0.0 0.0 0.0 0.07698792 
0.0 0.0 0.0 0.0 0.0 0.07698792 
0.0 0.0 0.0 0.0 0.0 0.07698792 
0.0 0.0 0.0 0.0 0.0 0.07698792 
0.0 0.0 0.0 0.0 0.0 0.07698792 
0.0 0.0 0.0 0.0 0.0 0.07698792 
0.0 0.0 0.0 0.0 0.0 0.07698792 
0.0 0.0 0.0 0.0 0.0 0.07698792 
0.0 0.0 0.0 0.0 0.0 0.07698792 
0.0 0.0 0.0 0.0 0.0 0.07698792 
0.0 0.0 0.0 0.0 0.0 0.07698792 
0.0 0.0 0.0 0.0 0.0 0.07698792 
0.0 0.0 0.0 0.0 0.0 0.07698792 
0.0 0.0 0.0 0.0 0.0 0.07698792 
0.0 0.0 0.0 0.0 0.0 0.07698792 
0.0 0.0 0.0 0.0 0.0 0.07698792 
0.0 0.0 0.0 0.0 0.0 0.07698792 
0.0 0.0 0.0 0.0 0.0 0.07698792 
0.0 0.0 0.0 0.0 0.0 0.07698792 
0.0 0.0 0.0 0.0 0.0 0.07698792 
0.0 0.0 0.0 0.0 0.0 0.07698792 
0.0 0.0 0.0 0.0 0.0 0.07698792 
0.0 0.0 0.0 0.0 0.0 0.07698792 
0.0 0.0 0.0 0.0 0.0 0.07698792 
0.0 0.0 0.0 0.0 0.0 0.07698792 
0.0 0.0 0.0 0.0 0.0 0.07698792 
0.0 0.0 0.0 0.0 0.0 0.07698792 
0.0 0.0 0.0 0.0 0.0 0.07698792 
0.0 0.0 0.0 0.0 0.0 0.07698792 
0.0 0.0 0.0 0.0 0.0 0.07698792 
0.0 0.0 0.0 0.0 0.0 0.059263952 
0.07364443 0.0 0.081252076 0.0 0.0 0.0 
0.2322425 0.056952998 0.20812875 0.0 0.0 0.0 
0.20055771 0.28058165 0.16546538 0.0 0.0 0.0 
0.0 0.32866937 0.16256264 0.0 0.0 0.0 
0.0 0.31051984 0.12957045 0.0 0.026154574 0.0 
0.0 0.16356367 0.013458833 0.0 0.06925343 0.0 
0.0 0.018109195 0.0 0.0 0.0 0.052496687 
0.0 0.0 0.0 0.0 0.0 0.07698792 
0.0 0.0 0.0 0.0 0.0 0.07698792 
0.0 0.0 0.0 0.0 0.0 0.07698792 
0.0 0.0 0.0 0.0 0.0 0.07698792 
0.0 0.0 0.0 0.0 0.0 0.07698792 
0.0 0.0 0.0 0.0 0.0 0.07698792 
0.0 0.0 0.0 0.0 0.0 0.07698792 
0.0 0.0 0.0 0.0 0.0 0.07698792 
0.0 0.0 0.0 0.0 0.0 0.07698792 
0.0 0.0 0.0 0.0 0.0 0.07698792 
0.0 0.0 0.0 0.0 0.0 0.07698792 
0.0 0.0 0.0 0.0 0.0 0.07698792 
0.0 0.0 0.0 0.0 0.0 0.07698792 
0.0 0.0 0.0 0.0 0.0 0.07698792 
0.0 0.0 0.0 0.0 0.0 0.07698792 
0.0 0.0 0.0 0.0 0.0 0.07698792 
0.0 0.0 0.0 0.0 0.0 0.07698792 
0.0 0.0 0.0 0.0 0.0 0.07698792 
0.0 0.0 0.0 0.0 0.0 0.07698792 
0.0 0.0 0.0 0.0 0.0 0.06114948 
0.15134092 0.0 0.1251742 0.0 0.0 0.0 
0.48259312 0.0 0.20921764 0.0 0.0 0.0 
0.7106284 0.11924949 0.34379834 0.0 0.0 0.0 
0.73251116 0.6279784 0.6575575 0.0 0.0 0.0 
0.28814337 1.0964808 0.7558589 0.0 0.12251504 0.0 
0.0 1.0414978 0.73176414 0.0 0.38029072 0.0 
0.0 0.5128025 0.39759696 0.0 0.4378285 0.0 
0.0 0.2646586 0.109184034 0.0 0.1403362 0.0 
0.0 0.0881323 0.0 0.0 0.026754398 0.0 
0.0 0.0 0.0 0.0 0.0 0.07177702 
0.0 0.0 0.0 0.0 0.0 0.07698792 
0.0 0.0 0.0 0.0 0.0 0.07698792 
0.0 0.0 0.0 0.0 0.0 0.07698792 
0.0 0.0 0.0 0.0 0.0 0.07698792 
0.0 0.0 0.0 0.0 0.0 0.07698792 
0.0 0.0 0.0 0.0 0.0 0.07698792 
0.0 0.0 0.0 0.0 0.0 0.07698792 
0.0 0.0 0.0 0.0 0.0 0.07698792 
0.0 0.0 0.0 0.0 0.0 0.07698792 
0.0 0.0 0.0 0.0 0.0 0.07698792 
0.0 0.0 0.0 0.0 0.0 0.07698792 
0.0 0.0 0.0 0.0 0.0 0.07698792 
0.0 0.0 0.0 0.0 0.0 0.07698792 
0.0 0.0 0.0 0.0 0.0 0.07698792 
0.0 0.0 0.0 0.0 0.0 0.07698792 
0.0 0.0 0.0 0.0 0.0 0.07698792 
0.011665426 0.0 0.04692691 0.0 0.0 0.027964178 
0.23238808 0.0 0.1519453 0.0 0.0 0.0 
0.5651177 0.0 0.17190796 0.0 0.0 0.0 
1.030554 0.0 0.29826075 0.0 0.0 0.0 
1.2914579 0.25210756 0.40053457 0.0 0.0 0.0 
0.84271353 1.0051391 0.93416744 0.0 0.26246986 0.0 
0.19104266 1.3738091 1.4270511 0.0 0.7642796 0.0 
0.0 1.6613421 1.5948132 0.0 0.9250453 0.0 
0.0 1.3623867 1.2163037 0.0 0.82111746 0.0 
0.0 0.70135903 0.5935828 0.0 0.55951434 0.0 
0.0 0.1945141 0.12416267 0.0 0.3156111 0.0 
0.0 0.022803985 0.0 0.0 0.0 0.044209275 
0.0 0.0 0.0 0.0 0.0 0.07698792 
0.0 0.0 0.0 0.0 0.0 0.07698792 
0.0 0.0 0.0 0.0 0.0 0.07698792 
0.0 0.0 0.0 0.0 0.0 0.07698792 
0.0 0.0 0.0 0.0 0.0 0.07698792 
0.0 0.0 0.0 0.0 0.0 0.07698792 
0.0 0.0 0.0 0.0 0.0 0.07698792 
0.0 0.0 0.0 0.0 0.0 0.07698792 
0.0 0.0 0.0 0.0 0.0 0.07698792 
0.0 0.0 0.0 0.0 0.0 0.07698792 
0.0 0.0 0.0 0.0 0.0 0.07698792 
0.0 0.0 0.0 0.0 0.0 0.07698792 
0.0 0.0 0.0 0.0 0.0 0.07698792 
0.0 0.0 0.0 0.0 0.0 0.07698792 
0.0 0.0 0.0 0.0 0.0 0.07698792 
0.0 0.0 0.0 0.0 0.0 0.06114948 
0.19557124 0.0 0.07882456 0.0 0.0 0.0 
0.6609602 0.0 0.1806747 0.0 0.0 0.0 
1.2046735 0.0 0.16164684 0.0 0.0 0.0 
1.4861434 0.32504267 0.29182756 0.0 0.0 0.0 
1.2771719 0.84635514 0.36502135 0.0 0.78978616 0.0 
0.7835893 1.3363657 0.7809398 0.16485919 1.2970859 0.0 
0.3001312 1.7072437 1.5993968 0.3269887 1.2871848 0.0 
0.0 1.9890475 2.2525837 0.23607744 1.2985891 0.0 
0.0 2.0094416 2.0927696 0.0 1.2764305 0.0 
0.0 1.3519253 1.4253273 0.0 0.96484977 0.0 
0.0 0.54086816 0.58418703 0.0 0.59019023 0.0 
0.0 0.100944325 0.023653127 0.0 0.12625457 0.0 
0.0 0.0 0.0 0.0 0.0 0.07646683 
0.0 0.0 0.0 0.0 0.0 0.07698792 
0.0 0.0 0.0 0.0 0.0 0.07698792 
0.0 0.0 0.0 0.0 0.0 0.07698792 
0.0 0.0 0.0 0.0 0.0 0.07698792 
0.0 0.0 0.0 0.0 0.0 0.07698792 
0.0 0.0 0.0 0.0 0.0 0.07698792 
0.0 0.0 0.0 0.0 0.0 0.07698792 
0.0 0.0 0.0 0.0 0.0 0.07698792 
0.0 0.0 0.0 0.0 0.0 0.07698792 
0.0 0.0 0.0 0.0 0.0 0.07698792 
0.0 0.0 0.0 0.0 0.0 0.07698792 
0.0 0.0 0.0 0.0 0.0 0.07698792 
0.0 0.0 0.0 0.0 0.0 0.07698792 
0.0 0.0 0.0 0.0 0.0 0.059263952 
0.15278828 0.0 0.12852573 0.0 0.0 0.0 
0.66333497 0.0 0.08393986 0.0 0.0 0.0 
1.1817029 0.0 0.14437595 0.0 0.0 0.0 
1.6439593 0.17981678 0.098110385 0.0 0.102828115 0.0 
1.5997784 0.83714694 0.09689563 0.014587414 1.103067 0.0 
1.2737589 1.2308196 0.07069553 0.102650166 1.9676296 0.11446764 
0.9864233 1.5420359 0.23371136 0.2675723 2.0457263 0.24151453 
0.51244247 1.6650643 0.9017844 0.3344288 1.9310321 0.12366109 
0.0 1.9636494 1.7717745 0.24212138 1.7583853 0.0 
0.0 2.1354527 2.3590896 0.16201861 1.6031704 0.0 
0.0 1.8800328 2.131958 0.0 1.2468816 0.0 
0.0 1.1147923 1.3407761 0.0 0.80573165 0.0 
0.0 0.25412452 0.2406854 0.0 0.37549683 0.0 
0.0 0.031540513 0.0 0.0 0.0 0.03963076 
0.0 0.0 0.0 0.0 0.0 0.07698792 
0.0 0.0 0.0 0.0 0.0 0.07698792 
0.0 0.0 0.0 0.0 0.0 0.07698792 
0.0 0.0 0.0 0.0 0.0 0.07698792 
0.0 0.0 0.0 0.0 0.0 0.07698792 
0.0 0.0 0.0 0.0 0.0 0.07698792 
0.0 0.0 0.0 0.0 0.0 0.07698792 
0.0 0.0 0.0 0.0 0.0 0.07698792 
0.0 0.0 0.0 0.0 0.0 0.07698792 
0.0 0.0 0.0 0.0 0.0 0.07698792 
0.0 0.0 0.0 0.0 0.0 0.07698792 
0.0 0.0 0.0 0.0 0.0 0.07698792 
0.0 0.0 0.0 0.0 0.0 0.07698792 
0.027556561 0.0 0.00927335 0.0 0.0 0.047680065 
0.45243412 0.0 0.07580493 0.0 0.0 0.0 
1.2223451 0.0 0.031847686 0.0 0.0 0.016247742 
1.7185147 0.08983423 0.0 0.0 0.05673996 0.0 
1.6675117 0.7300921 0.0 0.0 1.1091877 0.0 
1.2795603 1.1497798 0.0 0.06755337 2.1372755 0.31892627 
0.87374026 1.3403229 0.0 0.30406165 2.606681 0.6742872 
0.6958889 1.1753459 0.0 0.41762447 2.7584026 1.0552974 
0.669589 1.0243398 0.12583852 0.53893214 2.607254 1.1355066 
0.29540724 1.2655959 0.6390224 0.4883512 2.1265526 0.62099767 
0.0 1.7661675 1.725432 0.30407405 1.7234349 0.0 
0.0 1.9340532 2.228952 0.0041102143 1.5436959 0.0 
0.0 1.4742817 1.9823972 0.0 1.1247927 0.0 
0.0 0.6280021 0.741138 0.0 0.6161722 0.0 
0.0 0.099619366 0.019910872 0.0 0.15185432 0.0 
0.0 0.0 0.0 0.0 0.0 0.07698792 
0.0 0.0 0.0 0.0 0.0 0.07698792 
0.0 0.0 0.0 0.0 0.0 0.07698792 
0.0 0.0 0.0 0.0 0.0 0.07698792 
0.0 0.0 0.0 0.0 0.0 0.07698792 
0.0 0.0 0.0 0.0 0.0 0.07698792 
0.0 0.0 0.0 0.0 0.0 0.07698792 
0.0 0.0 0.0 0.0 0.0 0.07698792 
0.0 0.0 0.0 0.0 0.0 0.07698792 
0.0 0.0 0.0 0.0 0.0 0.07698792 
0.0 0.0 0.0 0.0 0.0 0.07698792 
0.0 0.0 0.0 0.0 0.0 0.07698792 
0.0 0.0 0.0 0.0 0.0 0.07698792 
0.11827488 0.0 0.0 0.0 0.0 0.11255224 
0.82350427 0.0 0.0 0.030244958 0.0 0.24282202 
1.6823237 0.0 0.0 0.14378305 0.015459511 0.31999215 
1.8716466 0.27026856 0.0 0.23048532 0.98628813 0.32557094 
1.2804289 0.9942371 0.0 0.27347347 2.0349572 0.48769647 
0.7037794 1.2484773 0.0 0.36780298 2.8301513 0.8950395 
0.22757256 1.1503526 0.0 0.6325678 3.1278915 1.3529971 
0.16519648 0.6734754 0.0 0.76062995 2.9006462 1.6705692 
0.62928253 0.27871767 0.0 0.7483472 2.4625406 1.7146528 
0.9008865 0.52444834 0.0 0.67498475 1.9222225 1.2373075 
0.33066994 1.3720287 0.86105865 0.42302775 1.5061162 0.16528854 
0.0 1.9840716 1.9581567 0.18709803 1.6516691 0.0 
0.0 1.6736062 2.2230287 0.0 1.4527959 0.0 
0.0 1.0487605 1.3981441 0.0 0.8644804 0.0 
0.0 0.17628074 0.20742938 0.0 0.3825651 0.0 
0.0 0.0 0.0 0.0 0.0 0.07698792 
0.0 0.0 0.0 0.0 0.0 0.07698792 
0.0 0.0 0.0 0.0 0.0 0.07698792 
0.0 0.0 0.0 0.0 0.0 0.07698792 
0.0 0.0 0.0 0.0 0.0 0.07698792 
0.0 0.0 0.0 0.0 0.0 0.07698792 
0.0 0.0 0.0 0.0 0.0 0.07698792 
0.0 0.0 0.0 0.0 0.0 0.07698792 
0.0 0.0 0.0 0.0 0.0 0.07698792 
0.0 0.0 0.0 0.0 0.0 0.07698792 
0.0 0.0 0.0 0.0 0.0 0.07698792 
0.0 0.0 0.0 0.0 0.0 0.07698792 
0.0 0.0 0.0 0.0 0.0 0.07698792 
0.23280531 0.0 0.0 0.04097513 0.0 0.23212236 
1.1486084 0.0 0.0 0.22272335 0.0 0.6032595 
1.9245882 0.0 0.0 0.23874666 0.51963365 0.74974084 
1.7011721 0.59575045 0.0 0.37251422 1.5238888 0.6766574 
0.7978857 1.271984 0.0 0.4102849 2.4974725 0.802715 
0.0 1.4364749 0.0 0.4513971 3.04658 1.10268 
0.0 0.9810492 0.0 0.41089532 2.9044745 1.4461253 
0.11337352 0.23461294 0.0 0.37073198 2.2027414 1.8055801 
1.0614398 0.0 0.0 0.2134467 1.5983323 1.8640525 
1.5173411 0.008438184 0.0 0.14982639 1.4665213 1.398025 
0.90396696 0.8789861 0.0 0.17342824 1.4654377 0.54587114 
0.0 1.9060404 1.3678343 0.15100431 1.8173099 0.0 
0.0 1.8043382 2.1143992 0.102202386 1.7404128 0.0 
0.0 1.190992 1.8627266 0.064760074 1.1011709 0.0 
0.0 0.3496047 0.54154944 0.0 0.49273166 0.0 
0.0 0.0 0.0 0.0 0.0 0.07698792 
0.0 0.0 0.0 0.0 0.0 0.07698792 
0.0 0.0 0.0 0.0 0.0 0.07698792 
0.0 0.0 0.0 0.0 0.0 0.07698792 
0.0 0.0 0.0 0.0 0.0 0.07698792 
0.0 0.0 0.0 0.0 0.0 0.07698792 
0.0 0.0 0.0 0.0 0.0 0.07698792 
0.0 0.0 0.0 0.0 0.0 0.07698792 
0.0 0.0 0.0 0.0 0.0 0.07698792 
0.0 0.0 0.0 0.0 0.0 0.07698792 
0.0 0.0 0.0 0.0 0.0 0.07698792 
0.0 0.0 0.0 0.0 0.0 0.07698792 
0.0 0.0 0.0 0.0 0.0 0.07698792 
0.26672316 0.0 0.0 0.09544569 0.0 0.37423676 
1.227638 0.0 0.0 0.20652348 0.34520903 1.0376942 
1.8077719 0.0 0.0 0.40587398 1.0339569 1.3132284 
1.2459605 0.42665753 0.0 0.5561537 1.9017445 1.2352195 
0.19327295 1.1918828 0.0 0.5538874 2.5675614 1.2333734 
0.0 1.0715634 0.0 0.22260375 2.6864555 1.2562923 
0.0 0.40831852 0.0 0.0 2.058342 1.1675935 
0.17165169 0.0 0.0 0.0 1.312489 1.3315771 
1.1827836 0.0 0.0 0.0 1.0874859 1.597528 
1.8019998 0.0 0.0 0.0 1.3467864 1.3608217 
1.3405795 0.4041963 0.0 0.08963565 1.5874326 0.86988276 
0.0 1.7511215 0.6790898 0.12644272 1.9648827 0.0 
0.0 1.8799556 1.8162245 0.03846961 1.9042417 0.0 
0.0 1.1897122 1.9573597 0.05439007 1.2263271 0.0 
0.0 0.4121784 0.8330588 0.0 0.55921733 0.0 
0.0 0.0 0.0 0.0 0.0 0.07698792 
0.0 0.0 0.0 0.0 0.0 0.07698792 
0.0 0.0 0.0 0.0 0.0 0.07698792 
0.0 0.0 0.0 0.0 0.0 0.07698792 
0.0 0.0 0.0 0.0 0.0 0.07698792 
0.0 0.0 0.0 0.0 0.0 0.07698792 
0.0 0.0 0.0 0.0 0.0 0.07698792 
0.0 0.0 0.0 0.0 0.0 0.07698792 
0.0 0.0 0.0 0.0 0.0 0.07698792 
0.0 0.0 0.0 0.0 0.0 0.07698792 
0.0 0.0 0.0 0.0 0.0 0.07698792 
0.0 0.0 0.0 0.0 0.0 0.07698792 
0.0 0.0 0.0 0.0 0.0 0.07698792 
0.25573462 0.0 0.0 0.04235329 0.16414638 0.38524887 
0.99928993 0.0 0.0 0.1723889 0.6346543 1.0876286 
1.2811232 0.0 0.0 0.3770609 1.299168 1.452146 
0.7124636 0.19858615 0.0 0.41783786 1.8373162 1.3180125 
0.0 0.6417709 0.0 0.39490777 1.9640125 1.202003 
0.0 0.4272066 0.15907526 0.09440213 1.637161 0.9425358 
0.0 0.09590056 0.12707227 0.0 0.85397893 0.57707155 
0.084929705 0.0 0.0 0.0 0.68367094 0.74566585 
1.1587465 0.0 0.0 0.0 0.70322037 1.2337086 
1.9080088 0.0 0.0 0.050578456 0.9961892 1.2094593 
1.7659495 0.20866443 0.0 0.08722062 1.4941635 0.933286 
0.20088929 1.7971739 0.27091244 0.15754327 1.8329716 0.043836053 
0.0 1.8524214 1.5864158 0.0 1.9640082 0.0 
0.0 1.1899291 1.8845801 0.0 1.309122 0.0 
0.0 0.3691564 0.9631649 0.0 0.62998873 0.0 
0.0 0.009131297 0.0 0.0 0.0 0.060834125 
0.0 0.0 0.0 0.0 0.0 0.07698792 
0.0 0.0 0.0 0.0 0.0 0.07698792 
0.0 0.0 0.0 0.0 0.0 0.07698792 
0.0 0.0 0.0 0.0 0.0 0.07698792 
0.0 0.0 0.0 0.0 0.0 0.07698792 
0.0 0.0 0.0 0.0 0.0 0.07698792 
0.0 0.0 0.0 0.0 0.0 0.07698792 
0.0 0.0 0.0 0.0 0.0 0.07698792 
0.0 0.0 0.0 0.0 0.0 0.07698792 
0.0 0.0 0.0 0.0 0.0 0.07698792 
0.0 0.0 0.0 0.0 0.0 0.07698792 
0.0 0.0 0.0 0.0 0.0 0.07698792 
0.13536699 0.0 0.0 0.0 0.131737 0.2708902 
0.704673 0.0 0.0 0.0 0.64353836 0.88590235 
0.82565266 0.0 0.0 0.0 1.0830137 1.2022567 
0.29352248 0.10574675 0.0 0.0 1.1764368 1.0347415 
0.0 0.20071469 0.0 0.0 0.89988154 0.8773083 
0.0 0.12511781 0.33195654 0.0 0.56155044 0.5804079 
0.0 0.0 0.38780874 0.0 0.2474641 0.28141627 
0.07975787 0.0 0.0 0.0 0.29681143 0.38022053 
1.1330059 0.0 0.0 0.0 0.47016695 1.1081917 
1.9336228 0.0 0.0 0.013068323 0.78044206 1.352637 
1.9257705 0.0059551736 0.0 0.027460452 1.324809 0.9948954 
0.3779456 1.5370946 0.0 0.10305345 1.6792753 0.16983916 
0.0 1.8570818 1.5892788 0.0 1.8753345 0.0 
0.0 1.30403 1.9381148 0.0 1.3391321 0.0 
0.0 0.49092132 1.0781159 0.0 0.69173545 0.0 
0.0 0.051236067 0.0 0.0 0.045576204 0.009557642 
0.0 0.0 0.0 0.0 0.0 0.07698792 
0.0 0.0 0.0 0.0 0.0 0.07698792 
0.0 0.0 0.0 0.0 0.0 0.07698792 
0.0 0.0 0.0 0.0 0.0 0.07698792 
0.0 0.0 0.0 0.0 0.0 0.07698792 
0.0 0.0 0.0 0.0 0.0 0.07698792 
0.0 0.0 0.0 0.0 0.0 0.07698792 
0.0 0.0 0.0 0.0 0.0 0.07698792 
0.0 0.0 0.0 0.0 0.0 0.07698792 
0.0 0.0 0.0 0.0 0.0 0.07698792 
0.0 0.0 0.0 0.0 0.0 0.07698792 
0.0 0.0 0.0 0.0 0.0 0.07698792 
0.02853667 0.0 0.0 0.0 0.09660973 0.14444542 
0.3616385 0.0 0.0 0.0 0.44994166 0.44057918 
0.44112808 0.0 0.0 0.0 0.726275 0.6146361 
0.067962795 0.0 0.0 0.0 0.53947157 0.4753794 
0.0 0.0 0.0 0.0 0.36246952 0.41201162 
0.0 0.0 0.05115839 0.0 0.26137394 0.30144894 
0.0 0.0 0.11173675 0.0 0.0871055 0.13202384 
0.035466842 0.0 0.0 0.0 0.1681204 0.16960667 
0.95811325 0.0 0.0 0.0 0.41151473 0.8738453 
1.829128 0.0 0.0 0.0 0.75474995 1.2897813 
1.87397 0.0 0.0 0.0059204074 1.2286342 1.0003452 
0.69932383 1.1137173 0.0 0.034070842 1.5242598 0.2956972 
0.0 1.8446423 1.5518543 0.0536264 1.7313607 0.0 
0.0 1.4459924 2.0036108 0.0 1.4447697 0.0 
0.0 0.6578327 1.2678252 0.0 0.82311934 0.0 
0.0 0.07910025 0.07282012 0.0 0.17509033 0.0 
0.0 0.0 0.0 0.0 0.0 0.07698792 
0.0 0.0 0.0 0.0 0.0 0.07698792 
0.0 0.0 0.0 0.0 0.0 0.07698792 
0.0 0.0 0.0 0.0 0.0 0.07698792 
0.0 0.0 0.0 0.0 0.0 0.07698792 
0.0 0.0 0.0 0.0 0.0 0.07698792 
0.0 0.0 0.0 0.0 0.0 0.07698792 
0.0 0.0 0.0 0.0 0.0 0.07698792 
0.0 0.0 0.0 0.0 0.0 0.07698792 
0.0 0.0 0.0 0.0 0.0 0.07698792 
0.0 0.0 0.0 0.0 0.0 0.07698792 
0.0 0.0 0.0 0.0 0.0 0.07698792 
0.0 0.0 0.0 0.0 0.0 0.07698792 
0.043311827 0.0 0.0 0.0 0.11936924 0.15434743 
0.05580768 0.0 0.0 0.0 0.12561034 0.17418408 
0.0 0.0 0.0 0.0 0.048150543 0.11314639 
0.0 0.0 0.0 0.0 0.04291622 0.15439582 
0.0 0.0 0.0 0.0 0.026807819 0.11053453 
0.0 0.0 0.0 0.0 0.0 0.08010801 
0.0 0.0 0.0 0.0 0.0 0.07698792 
0.71499985 0.0 0.0 0.011631665 0.27202728 0.67049414 
1.7285986 0.0 0.0 0.0 0.62649286 1.2310009 
1.9398601 0.0 0.0 0.0 0.9996185 1.0085425 
1.0247271 0.94912666 0.0 0.01574672 1.371786 0.3819665 
0.0 1.7636199 1.278846 0.10404594 1.7307574 0.0 
0.0 1.532958 2.0275364 0.032586496 1.5868791 0.0 
0.0 0.77355355 1.4652723 0.0 0.9323022 0.0 
0.0 0.17829628 0.25113785 0.0 0.22293784 0.0 
0.0 0.0 0.0 0.0 0.0 0.07698792 
0.0 0.0 0.0 0.0 0.0 0.07698792 
0.0 0.0 0.0 0.0 0.0 0.07698792 
0.0 0.0 0.0 0.0 0.0 0.07698792 
0.0 0.0 0.0 0.0 0.0 0.07698792 
0.0 0.0 0.0 0.0 0.0 0.07698792 
0.0 0.0 0.0 0.0 0.0 0.07698792 
0.0 0.0 0.0 0.0 0.0 0.07698792 
0.0 0.0 0.0 0.0 0.0 0.07698792 
0.0 0.0 0.0 0.0 0.0 0.07698792 
0.0 0.0 0.0 0.0 0.0 0.07698792 
0.0 0.0 0.0 0.0 0.0 0.07698792 
0.0 0.0 0.0 0.0 0.0 0.07698792 
0.0 0.0 0.0 0.0 0.0 0.07698792 
0.0 0.0 0.0 0.0 0.0 0.07698792 
0.0 0.0 0.0 0.0 0.0 0.07698792 
0.0 0.0 0.0 0.0 0.0 0.07698792 
0.0 0.0 0.0 0.0 0.0 0.07698792 
0.0 0.0 0.0 0.0 0.0 0.07698792 
0.0 0.0 0.0 0.0 0.0 0.07698792 
0.56703323 0.0 0.0 0.0 0.2234856 0.50727344 
1.6216133 0.0 0.0 0.0 0.49033216 1.0583029 
2.034082 0.0 0.0 0.0 0.9238518 0.99109155 
1.17788 0.8584332 0.0 0.0 1.4131817 0.43245474 
0.0 1.7081476 0.8092127 0.0 1.8203702 0.0 
0.0 1.6046596 1.9122754 0.03177939 1.6487955 0.0 
0.0 0.8090369 1.5392638 0.0 0.9760162 0.0 
0.0 0.2132892 0.40450558 0.0 0.25080076 0.0064421296 
0.0 0.0 0.0 0.0 0.0 0.07698792 
0.0 0.0 0.0 0.0 0.0 0.07698792 
0.0 0.0 0.0 0.0 0.0 0.07698792 
0.0 0.0 0.0 0.0 0.0 0.07698792 
0.0 0.0 0.0 0.0 0.0 0.07698792 
0.0 0.0 0.0 0.0 0.0 0.07698792 
0.0 0.0 0.0 0.0 0.0 0.07698792 
0.0 0.0 0.0 0.0 0.0 0.07698792 
0.0 0.0 0.0 0.0 0.0 0.07698792 
0.0 0.0 0.0 0.0 0.0 0.07698792 
0.0 0.0 0.0 0.0 0.0 0.07698792 
0.0 0.0 0.0 0.0 0.0 0.07698792 
0.0 0.0 0.0 0.0 0.0 0.07698792 
0.0 0.0 0.0 0.0 0.0 0.07698792 
0.0 0.0 0.0 0.0 0.0 0.07698792 
0.0 0.0 0.0 0.0 0.0 0.07698792 
0.0 0.0 0.0 0.0 0.0 0.07698792 
0.0 0.0 0.0 0.0 0.0 0.07698792 
0.0 0.0 0.0 0.0 0.0 0.07698792 
0.0 0.0 0.0 0.0 0.0 0.07698792 
0.44515902 0.0 0.0 0.0 0.0522453 0.38976467 
1.537988 0.0 0.0 0.0 0.3345051 0.9156095 
2.0871186 0.0 0.0 0.0 0.8896069 0.943579 
1.2789943 0.8193076 0.0 0.0 1.47745 0.37290102 
0.0 1.7326891 0.48181224 0.0 1.8665589 0.0 
0.0 1.5480517 1.7477909 0.0 1.7051908 0.0 
0.0 0.7674007 1.4886421 0.0 1.0366188 0.0 
0.0 0.15713389 0.45033318 0.0 0.28716525 0.01230181 
0.0 0.0 0.0 0.0 0.0 0.07698792 
0.0 0.0 0.0 0.0 0.0 0.07698792 
0.0 0.0 0.0 0.0 0.0 0.07698792 
0.0 0.0 0.0 0.0 0.0 0.07698792 
0.0 0.0 0.0 0.0 0.0 0.07698792 
0.0 0.0 0.0 0.0 0.0 0.07698792 
0.0 0.0 0.0 0.0 0.0 0.07698792 
0.0 0.0 0.0 0.0 0.0 0.07698792 
0.0 0.0 0.0 0.0 0.0 0.07698792 
0.0 0.0 0.0 0.0 0.0 0.07698792 
0.0 0.0 0.0 0.0 0.0 0.07698792 
0.0 0.0 0.0 0.0 0.0 0.07698792 
0.0 0.0 0.0 0.0 0.0 0.07698792 
0.0 0.0 0.0 0.0 0.0 0.07698792 
0.0 0.0 0.0 0.0 0.0 0.07698792 
0.0 0.0 0.0 0.0 0.0 0.07698792 
0.0 0.0 0.0 0.0 0.0 0.07698792 
0.0 0.0 0.0 0.0 0.0 0.07698792 
0.0 0.0 0.0 0.0 0.0 0.07698792 
0.0 0.0 0.0 0.0 0.0 0.07698792 
0.50053596 0.0 0.0 0.0 0.0 0.32337925 
1.6627078 0.0 0.0 0.0 0.22538562 0.75548774 
2.1021593 0.0 0.0 0.0 0.8674672 0.765848 
1.2821822 0.9759262 0.0 0.0 1.4683661 0.15879244 
0.0 1.8307126 0.49040735 0.0 1.9422222 0.0 
0.0 1.5473151 1.7470409 0.0 1.703878 0.0 
0.0 0.76716155 1.488784 0.0 1.0362383 0.0 
0.0 0.15713389 0.45033318 0.0 0.28716525 0.01230181 
0.0 0.0 0.0 0.0 0.0 0.07698792 
0.0 0.0 0.0 0.0 0.0 0.07698792 
0.0 0.0 0.0 0.0 0.0 0.07698792 
0.0 0.0 0.0 0.0 0.0 0.07698792 
0.0 0.0 0.0 0.0 0.0 0.07698792 
0.0 0.0 0.0 0.0 0.0 0.07698792 
0.0 0.0 0.0 0.0 0.0 0.07698792 
0.0 0.0 0.0 0.0 0.0 0.07698792 
0.0 0.0 0.0 0.0 0.0 0.07698792 
0.0 0.0 0.0 0.0 0.0 0.07698792 
0.0 0.0 0.0 0.0 0.0 0.07698792 
0.0 0.0 0.0 0.0 0.0 0.07698792 
0.0 0.0 0.0 0.0 0.0 0.07698792 
0.0 0.0 0.0 0.0 0.0 0.07698792 
0.0 0.0 0.0 0.0 0.0 0.07698792 
0.0 0.0 0.0 0.0 0.0 0.07698792 
0.0 0.0 0.0 0.0 0.0 0.07698792 
0.0 0.0 0.0 0.0 0.0 0.07698792 
0.0 0.0 0.0 0.0 0.0 0.07698792 
0.02133286 0.0 0.058972865 0.0 0.0 0.022307593 
0.7529325 0.0 0.0 0.0 0.0 0.20944515 
1.8231902 0.0 0.0 0.0 0.20462127 0.57792383 
2.196455 0.0 0.0 0.0 0.968785 0.48515996 
1.0922551 1.286018 0.0 0.0 1.690847 0.07410044 
0.0 1.8012931 0.56468475 0.0 2.162203 0.0 
0.0 1.503956 1.7150557 0.005020042 1.7088288 0.0 
0.0 0.716506 1.4574316 0.0 1.0269533 0.006245181 
0.0 0.13132244 0.44182447 0.0023001144 0.26213527 0.03627196 
0.0 0.0 0.0 0.0 0.0 0.07698792 
0.0 0.0 0.0 0.0 0.0 0.07698792 
0.0 0.0 0.0 0.0 0.0 0.07698792 
0.0 0.0 0.0 0.0 0.0 0.07698792 
0.0 0.0 0.0 0.0 0.0 0.07698792 
0.0 0.0 0.0 0.0 0.0 0.07698792 
0.0 0.0 0.0 0.0 0.0 0.07698792 
0.0 0.0 0.0 0.0 0.0 0.07698792 
0.0 0.0 0.0 0.0 0.0 0.07698792 
0.0 0.0 0.0 0.0 0.0 0.07698792 
0.0 0.0 0.0 0.0 0.0 0.07698792 
0.0 0.0 0.0 0.0 0.0 0.07698792 
0.0 0.0 0.0 0.0 0.0 0.07698792 
0.0 0.0 0.0 0.0 0.0 0.07698792 
0.0 0.0 0.0 0.0 0.0 0.07698792 
0.0 0.0 0.0 0.0 0.0 0.07698792 
0.0 0.0 0.0 0.0 0.0 0.07698792 
0.0 0.0 0.0 0.0 0.0 0.07698792 
0.0 0.0 0.0 0.0 0.0 0.07698792 
0.085689485 0.0 0.0 0.0 0.0 0.07416291 
1.0405028 0.0 0.0 0.0 0.0 0.4276937 
2.0322359 0.0 0.0 0.0 0.37124667 0.64284414 
1.9943988 0.26982203 0.0 0.009819214 1.2488921 0.45794165 
0.7404341 1.4228292 0.0 0.0 2.0881436 0.13620031 
0.0 1.9066663 0.7632548 0.0 2.251818 0.0 
0.0 1.4033302 1.6678143 0.046678968 1.677307 0.0 
0.0 0.60714877 1.3625181 0.03474315 0.96569425 0.08138937 
0.0 0.115562044 0.41036767 0.05927637 0.17812273 0.06897469 
0.0 0.0 0.0 0.0 0.0 0.07698792 
0.0 0.0 0.0 0.0 0.0 0.07698792 
0.0 0.0 0.0 0.0 0.0 0.07698792 
0.0 0.0 0.0 0.0 0.0 0.07698792 
0.0 0.0 0.0 0.0 0.0 0.07698792 
0.0 0.0 0.0 0.0 0.0 0.07698792 
0.0 0.0 0.0 0.0 0.0 0.07698792 
0.0 0.0 0.0 0.0 0.0 0.07698792 
0.0 0.0 0.0 0.0 0.0 0.07698792 
0.0 0.0 0.0 0.0 0.0 0.07698792 
0.0 0.0 0.0 0.0 0.0 0.07698792 
0.0 0.0 0.0 0.0 0.0 0.07698792 
0.0 0.0 0.0 0.0 0.0 0.07698792 
0.0 0.0 0.0 0.0 0.0 0.07698792 
0.0 0.0 0.0 0.0 0.0 0.07698792 
0.0 0.0 0.0 0.0 0.0 0.07698792 
0.0 0.0 0.0 0.0 0.0 0.07698792 
0.0 0.0 0.0 0.0 0.0 0.07698792 
0.0 0.0 0.0 0.0 0.0 0.07698792 
0.15311486 0.0 0.0 0.06523512 0.0 0.2552197 
1.1111221 0.0 0.0 0.29510745 0.0 0.7559452 
2.0362654 0.0 0.0 0.36242703 0.7050007 0.9710919 
1.8567421 0.36884052 0.0 0.34975174 1.4385788 0.7909792 
0.7343854 1.6212072 0.0 0.15448368 2.0363114 0.22236595 
0.0 2.0457804 1.0284301 0.0 2.1805825 0.0 
0.0 1.3950382 1.6715373 0.0 1.5731107 0.0 
0.0 0.5812363 1.2680979 0.0 0.88495 0.0 
0.0 0.11446333 0.33319753 0.0 0.1493672 0.04230752 
0.0 0.0 0.0 0.0 0.0 0.07698792 
0.0 0.0 0.0 0.0 0.0 0.07698792 
0.0 0.0 0.0 0.0 0.0 0.07698792 
0.0 0.0 0.0 0.0 0.0 0.07698792 
0.0 0.0 0.0 0.0 0.0 0.07698792 
0.0 0.0 0.0 0.0 0.0 0.07698792 
0.0 0.0 0.0 0.0 0.0 0.07698792 
0.0 0.0 0.0 0.0 0.0 0.07698792 
0.0 0.0 0.0 0.0 0.0 0.07698792 
0.0 0.0 0.0 0.0 0.0 0.07698792 
0.0 0.0 0.0 0.0 0.0 0.07698792 
0.0 0.0 0.0 0.0 0.0 0.07698792 
0.0 0.0 0.0 0.0 0.0 0.07698792 
0.0 0.0 0.0 0.0 0.0 0.07698792 
0.0 0.0 0.0 0.0 0.0 0.07698792 
0.0 0.0 0.0 0.0 0.0 0.07698792 
0.0 0.0 0.0 0.0 0.0 0.07698792 
0.0 0.0 0.0 0.0 0.0 0.07698792 
0.0 0.0 0.0 0.0 0.0 0.07698792 
0.18484086 0.0 0.0 0.15662545 0.019212227 0.35430712 
1.0461068 0.0 0.0 0.21711145 0.4431241 1.092685 
1.7148366 0.0 0.0 0.4464507 0.9536099 1.4531643 
1.7679372 0.0 0.0 0.52991205 1.5022932 1.3369625 
0.5992781 1.3074329 0.0 0.5826613 1.9272311 0.8497523 
0.0 1.6162863 1.0559182 0.2887288 2.0605867 0.11969994 
0.0 1.251904 1.62064 0.054391176 1.5017364 0.049138263 
0.0 0.52563435 1.2145624 0.0 0.8660551 0.0 
0.0 0.011927557 0.23426452 0.0 0.20300584 0.036695257 
0.0 0.0 0.0 0.0 0.0 0.07698792 
0.0 0.0 0.0 0.0 0.0 0.07698792 
0.0 0.0 0.0 0.0 0.0 0.07698792 
0.0 0.0 0.0 0.0 0.0 0.07698792 
0.0 0.0 0.0 0.0 0.0 0.07698792 
0.0 0.0 0.0 0.0 0.0 0.07698792 
0.0 0.0 0.0 0.0 0.0 0.07698792 
0.0 0.0 0.0 0.0 0.0 0.07698792 
0.0 0.0 0.0 0.0 0.0 0.07698792 
0.0 0.0 0.0 0.0 0.0 0.07698792 
0.0 0.0 0.0 0.0 0.0 0.07698792 
0.0 0.0 0.0 0.0 0.0 0.07698792 
0.0 0.0 0.0 0.0 0.0 0.07698792 
0.0 0.0 0.0 0.0 0.0 0.07698792 
0.0 0.0 0.0 0.0 0.0 0.07698792 
0.0 0.0 0.0 0.0 0.0 0.07698792 
0.0 0.0 0.0 0.0 0.0 0.07698792 
0.0 0.0 0.0 0.0 0.0 0.07698792 
0.0 0.0 0.0 0.0 0.0 0.07698792 
0.16371062 0.0 0.0 0.0 0.18133454 0.28736952 
0.878253 0.0 0.0 0.027655795 0.67013705 1.026007 
1.3046017 0.0 0.0 0.13301437 1.0999168 1.5314097 
1.2557299 0.0 0.0 0.41133028 1.6089731 1.6779022 
0.35535187 0.39774477 0.0 0.7198113 1.8498498 1.3882895 
0.0 1.0364395 0.70218444 0.8996039 1.6559675 0.6966558 
0.0 0.8207966 1.4347551 0.6431774 1.2407562 0.45463672 
0.0 0.40216562 1.1656061 0.32964906 0.6455169 0.18651342 
0.0 0.074682236 0.23339134 0.060789775 0.10295318 0.067680016 
0.0 0.0 0.0 0.0 0.0 0.07698792 
0.0 0.0 0.0 0.0 0.0 0.07698792 
0.0 0.0 0.0 0.0 0.0 0.07698792 
0.0 0.0 0.0 0.0 0.0 0.07698792 
0.0 0.0 0.0 0.0 0.0 0.07698792 
0.0 0.0 0.0 0.0 0.0 0.07698792 
0.0 0.0 0.0 0.0 0.0 0.07698792 
0.0 0.0 0.0 0.0 0.0 0.07698792 
0.0 0.0 0.0 0.0 0.0 0.07698792 
0.0 0.0 0.0 0.0 0.0 0.07698792 
0.0 0.0 0.0 0.0 0.0 0.07698792 
0.0 0.0 0.0 0.0 0.0 0.07698792 
0.0 0.0 0.0 0.0 0.0 0.07698792 
0.0 0.0 0.0 0.0 0.0 0.07698792 
0.0 0.0 0.0 0.0 0.0 0.07698792 
0.0 0.0 0.0 0.0 0.0 0.07698792 
0.0 0.0 0.0 0.0 0.0 0.07698792 
0.0 0.0 0.0 0.0 0.0 0.07698792 
0.0 0.0 0.0 0.0 0.0 0.07698792 
0.02391944 0.0 0.0 0.0 0.08949739 0.14135104 
0.51573104 0.0 0.0 0.0 0.49479237 0.6117605 
0.94399387 0.0 0.0 0.0 1.0065063 1.20754 
0.85553604 0.0 0.0 0.0 1.3520724 1.4714923 
0.25985643 0.1252088 0.0 0.10680128 1.345307 1.3434916 
0.0 0.41729853 0.0 0.33828768 1.0848194 0.91706795 
0.0 0.42822474 0.8181706 0.41528115 0.6631575 0.6251693 
0.0 0.24033254 0.8703878 0.30214325 0.26453224 0.28075796 
0.0 0.09532574 0.22429192 0.10441205 0.00015088543 0.1046796 
0.0 0.0 0.0 0.0 0.0 0.07698792 
0.0 0.0 0.0 0.0 0.0 0.07698792 
0.0 0.0 0.0 0.0 0.0 0.07698792 
0.0 0.0 0.0 0.0 0.0 0.07698792 
0.0 0.0 0.0 0.0 0.0 0.07698792 
0.0 0.0 0.0 0.0 0.0 0.07698792 
0.0 0.0 0.0 0.0 0.0 0.07698792 
0.0 0.0 0.0 0.0 0.0 0.07698792 
0.0 0.0 0.0 0.0 0.0 0.07698792 
0.0 0.0 0.0 0.0 0.0 0.07698792 
0.0 0.0 0.0 0.0 0.0 0.07698792 
0.0 0.0 0.0 0.0 0.0 0.07698792 
0.0 0.0 0.0 0.0 0.0 0.07698792 
0.0 0.0 0.0 0.0 0.0 0.07698792 
0.0 0.0 0.0 0.0 0.0 0.07698792 
0.0 0.0 0.0 0.0 0.0 0.07698792 
0.0 0.0 0.0 0.0 0.0 0.07698792 
0.0 0.0 0.0 0.0 0.0 0.07698792 
0.0 0.0 0.0 0.0 0.0 0.07698792 
0.0 0.0 0.0 0.0 0.0 0.07698792 
0.1881851 0.0 0.0 0.0 0.28672007 0.27508923 
0.50752735 0.0 0.0 0.0 0.6308742 0.6098788 
0.54592156 0.0 0.0 0.0 0.9000799 0.8313748 
0.24243885 0.0 0.0 0.0 0.87450725 0.8688496 
0.0 0.0 0.0 0.0 0.6022654 0.6330821 
0.0 0.0 0.0 0.0 0.35131535 0.4439935 
0.0 0.0 0.2873649 0.0 0.16355878 0.23464966 
0.0 0.0 0.08740642 0.0 0.00046459958 0.09697793 
0.0 0.0 0.0 0.0 0.0 0.07698792 
0.0 0.0 0.0 0.0 0.0 0.07698792 
0.0 0.0 0.0 0.0 0.0 0.07698792 
0.0 0.0 0.0 0.0 0.0 0.07698792 
0.0 0.0 0.0 0.0 0.0 0.07698792 
0.0 0.0 0.0 0.0 0.0 0.07698792 
0.0 0.0 0.0 0.0 0.0 0.07698792 
0.0 0.0 0.0 0.0 0.0 0.07698792 
0.0 0.0 0.0 0.0 0.0 0.07698792 
0.0 0.0 0.0 0.0 0.0 0.07698792 
0.0 0.0 0.0 0.0 0.0 0.07698792 
0.0 0.0 0.0 0.0 0.0 0.07698792 
0.0 0.0 0.0 0.0 0.0 0.07698792 
0.0 0.0 0.0 0.0 0.0 0.07698792 
0.0 0.0 0.0 0.0 0.0 0.07698792 
0.0 0.0 0.0 0.0 0.0 0.07698792 
0.0 0.0 0.0 0.0 0.0 0.07698792 
0.0 0.0 0.0 0.0 0.0 0.07698792 
0.0 0.0 0.0 0.0 0.0 0.07698792 
0.0 0.0 0.0 0.0 0.0 0.07698792 
0.0 0.0 0.0 0.0 0.008416634 0.1060751 
0.0984157 0.0 0.0 0.0 0.19935997 0.19558674 
0.1650779 0.0 0.0 0.0 0.32552058 0.258357 
0.052613117 0.0 0.0 0.0 0.26328245 0.2329644 
0.0 0.0 0.0 0.0 0.18202667 0.2086719 
0.0 0.0 0.0 0.0 0.13013105 0.17964517 
0.0 0.0 0.0 0.0 0.040866766 0.11521581 
0.0 0.0 0.0 0.0 0.0 0.0804885 
0.0 0.0 0.0 0.0 0.0 0.07698792 
0.0 0.0 0.0 0.0 0.0 0.07698792 
0.0 0.0 0.0 0.0 0.0 0.07698792 
0.0 0.0 0.0 0.0 0.0 0.07698792 
0.0 0.0 0.0 0.0 0.0 0.07698792 
0.0 0.0 0.0 0.0 0.0 0.07698792 
0.0 0.0 0.0 0.0 0.0 0.07698792 

