0.0 0.0 0.0 0.0 0.0 0.07698792 
0.0 0.0 0.0 0.0 0.0 0.07698792 
0.0 0.0 0.0 0.0 0.0 0.07698792 
0.0 0.0 0.0 0.0 0.0 0.07698792 
0.0 0.0 0.0 0.0 0.0 0.07698792 
0.0 0.0 0.0 0.0 0.0 0.07698792 
0.0 0.0 0.0 0.0 0.0 0.07698792 
0.0 0.0 0.0 0.0 0.0 0.07698792 
0.0 0.0 0.0 0.0 0.0 0.07698792 
0.0 0.0 0.0 0.0 0.0 0.07698792 
0.0 0.0 0.0 0.0 0.0 0.07698792 
0.0 0.0 0.0 0.0 0.0 0.07698792 
0.0 0.0 0.0 0.0 0.0 0.07698792 
0.0 0.0 0.0 0.0 0.0 0.07698792 
0.0 0.0 0.0 0.0 0.0 0.07698792 
0.0 0.0 0.0 0.0 0.0 0.07698792 
0.0 0.0 0.0 0.0 0.0 0.07698792 
0.0 0.0 0.0 0.0 0.0 0.07698792 
0.0 0.0 0.0 0.0 0.0 0.07698792 
0.0 0.0 0.0 0.0 0.0 0.07698792 
0.0 0.0 0.0 0.0 0.0 0.07698792 
0.0 0.0 0.0 0.0 0.0 0.07698792 
0.0 0.0 0.0 0.0 0.0 0.07698792 
0.0 0.0 0.0 0.0 0.0 0.07698792 
0.0 0.0 0.0 0.0 0.0 0.07698792 
0.0 0.0 0.0 0.0 0.0 0.07698792 
0.0 0.0 0.0 0.0 0.0 0.07698792 
0.0 0.0 0.0 0.0 0.0 0.07698792 
0.0 0.0 0.0 0.0 0.0 0.07698792 
0.0 0.0 0.0 0.0 0.0 0.07698792 
0.0 0.0 0.0 0.0 0.0 0.07698792 
0.0 0.0 0.0 0.0 0.0 0.07698792 
0.0 0.0 0.0 0.0 0.0 0.07698792 
0.0 0.0 0.0 0.0 0.0 0.07698792 
0.0 0.0 0.0 0.0 0.0 0.07698792 
0.0 0.0 0.0 0.0 0.0 0.07698792 
0.0 0.0 0.0 0.0 0.0 0.07698792 
0.0 0.0 0.0 0.0 0.0 0.07698792 
0.0 0.0 0.0 0.0 0.0 0.07698792 
0.0 0.0 0.0 0.0 0.0 0.07698792 
0.0 0.0 0.0 0.0 0.0 0.07698792 
0.0 0.0 0.0 0.0 0.0 0.07698792 
0.0 0.0 0.0 0.0 0.0 0.07698792 
0.0 0.0 0.0 0.0 0.0 0.07698792 
0.0 0.0 0.0 0.0 0.0 0.07698792 
0.0 0.0 0.0 0.0 0.0 0.07698792 
0.0 0.0 0.0 0.0 0.0 0.07698792 
0.0 0.0 0.0 0.0 0.0 0.07698792 
0.0 0.0 0.0 0.0 0.0 0.07698792 
0.0 0.0 0.0 0.0 0.0 0.07698792 
0.0 0.0 0.0 0.0 0.0 0.07698792 
0.0 0.0 0.0 0.0 0.0 0.07698792 
0.0 0.0 0.0 0.0 0.0 0.07698792 
0.0 0.0 0.0 0.0 0.0 0.07698792 
0.0 0.0 0.0 0.0 0.0 0.07698792 
0.0 0.0 0.0 0.0 0.0 0.07698792 
0.0 0.0 0.0 0.0 0.0 0.07698792 
0.0 0.0 0.0 0.0 0.0 0.07698792 
0.0 0.0 0.0 0.0 0.0 0.07698792 
0.0 0.0 0.0 0.0 0.0 0.07698792 
0.0 0.0 0.0 0.0 0.0 0.07698792 
0.0 0.0 0.0 0.0 0.0 0.07698792 
0.0 0.0 0.0 0.0 0.0 0.07698792 
0.0 0.0 0.0 0.0 0.0 0.07698792 
0.0 0.0 0.0 0.0 0.0 0.07698792 
0.0 0.0 0.0 0.0 0.0 0.07698792 
0.0 0.0 0.0 0.0 0.0 0.07698792 
0.0 0.0 0.0 0.0 0.0 0.07698792 
0.0 0.0 0.0 0.0 0.0 0.07698792 
0.0 0.0 0.0 0.0 0.0 0.07698792 
0.0 0.0 0.0 0.0 0.0 0.07698792 
0.0 0.0 0.0 0.0 0.0 0.07698792 
0.0 0.0 0.0 0.0 0.0 0.07698792 
0.0 0.0 0.0 0.0 0.0 0.07698792 
0.0 0.0 0.0 0.0 0.0 0.07698792 
0.0 0.0 0.0 0.0 0.0 0.07698792 
0.0 0.0 0.0 0.0 0.0 0.07698792 
0.0 0.0 0.0 0.0 0.0 0.07698792 
0.0 0.0 0.0 0.0 0.0 0.07698792 
0.0 0.0 0.0 0.0 0.0 0.07698792 
0.0 0.0 0.0 0.0 0.0 0.07698792 
0.0 0.0 0.0 0.0 0.0 0.07698792 
0.0 0.0 0.0 0.0 0.0 0.07698792 
0.0 0.0 0.0 0.0 0.0 0.07698792 
0.0 0.0 0.0 0.0 0.0 0.07698792 
0.0 0.0 0.0 0.0 0.0 0.07698792 
0.0 0.0 0.0 0.0 0.0 0.07698792 
0.0 0.0 0.0 0.0 0.0 0.07698792 
0.0 0.0 0.0 0.0 0.0 0.07698792 
0.0 0.0 0.0 0.0 0.0 0.07698792 
0.0 0.0 0.0 0.0 0.0 0.07698792 
0.0 0.0 0.0 0.0 0.0 0.07698792 
0.0 0.0 0.0 0.0 0.0 0.07698792 
0.0 0.0 0.0 0.0 0.0 0.07698792 
0.0 0.0 0.0 0.0 0.0 0.07698792 
0.0 0.0 0.0 0.0 0.0 0.07698792 
0.0 0.0 0.0 0.0 0.0 0.07698792 
0.0 0.0 0.0 0.0 0.0 0.07698792 
0.0 0.0 0.0 0.0 0.0 0.07698792 
0.0 0.0 0.0 0.0 0.0 0.07698792 
0.0 0.0 0.0 0.0 0.0 0.07698792 
0.0 0.0 0.0 0.0 0.0 0.07698792 
0.0 0.0 0.0 0.0 0.0 0.07698792 
0.0 0.0 0.0 0.0 0.0 0.07698792 
0.0 0.0 0.0 0.0 0.0 0.07698792 
0.0 0.0 0.0 0.0 0.0 0.07698792 
0.0 0.0 0.0 0.0 0.0 0.07698792 
0.0 0.0 0.0 0.0 0.0 0.07698792 
0.0 0.0 0.0 0.0 0.0 0.07698792 
0.0 0.0 0.0 0.0 0.0 0.07698792 
0.0 0.0 0.0 0.0 0.0 0.07698792 
0.0 0.0 0.0 0.0 0.0 0.07698792 
0.0 0.0 0.0 0.0 0.0 0.07698792 
0.0 0.0 0.0 0.0 0.0 0.07698792 
0.0 0.0 0.0 0.0 0.0 0.07698792 
0.0 0.0 0.0 0.0 0.0 0.07698792 
0.0 0.0 0.0 0.0 0.0 0.07698792 
0.0 0.0 0.0 0.0 0.0 0.07698792 
0.0 0.0 0.0 0.0 0.0 0.07698792 
0.0 0.0 0.0 0.0 0.0 0.07698792 
0.0 0.0 0.0 0.0 0.0 0.07698792 
0.0 0.0 0.0 0.0 0.0 0.07698792 
0.0 0.0 0.0 0.0 0.0 0.07698792 
0.0 0.0 0.0 0.0 0.0 0.07698792 
0.0 0.0 0.0 0.0 0.0 0.07698792 
0.0 0.0 0.0 0.0 0.0 0.07698792 
0.0 0.0 0.0 0.0 0.0 0.07698792 
0.0 0.0 0.0 0.0 0.0 0.07698792 
0.0 0.0 0.0 0.0 0.0 0.07698792 
0.0 0.0 0.0 0.0 0.0 0.07698792 
0.0 0.0 0.0 0.0 0.0 0.07698792 
0.0 0.0 0.0 0.0 0.0 0.07698792 
0.0 0.0 0.0 0.0 0.0 0.07698792 
0.0 0.0 0.0 0.0 0.0 0.07698792 
0.0 0.0 0.0 0.0 0.0 0.07698792 
0.0 0.0 0.0 0.0 0.0 0.07698792 
0.0 0.0 0.0 0.0 0.0 0.07698792 
0.0 0.0 0.0 0.0 0.0 0.07698792 
0.0 0.0 0.0 0.0 0.0 0.07698792 
0.0 0.0 0.0 0.0 0.0 0.07698792 
0.0 0.0 0.0 0.0 0.0 0.07698792 
0.0 0.0 0.0 0.0 0.0 0.07698792 
0.0 0.0 0.0 0.0 0.0 0.07698792 
0.0 0.0 0.0 0.0 0.0 0.07698792 
0.0 0.0 0.0 0.0 0.0 0.07698792 
0.0 0.0 0.0 0.0 0.0 0.07698792 
0.0 0.0 0.0 0.0 0.0 0.07698792 
0.0 0.0 0.0 0.0 0.0 0.07698792 
0.0 0.0 0.0 0.0 0.0 0.06831449 
0.008618906 0.0 0.022135876 0.0 0.0 0.017670639 
0.15166366 0.0050778454 0.15243274 0.0 0.0 0.0 
0.3062073 0.13659504 0.27958718 0.0 0.0 0.0 
0.29622006 0.34444082 0.3192799 0.0 0.0 0.0 
0.1408349 0.47694287 0.31146306 0.0 0.0 0.0 
0.0 0.48078263 0.23001581 0.0 0.0112161 0.0 
0.0 0.31831762 0.11542051 0.0 0.07875703 0.0 
0.0 0.1414466 0.012247913 0.0 0.03123917 0.0 
0.0 0.029331569 0.0 0.0 0.0 0.04207488 
0.0 0.0 0.0 0.0 0.0 0.07698792 
0.0 0.0 0.0 0.0 0.0 0.07698792 
0.0 0.0 0.0 0.0 0.0 0.07698792 
0.0 0.0 0.0 0.0 0.0 0.07698792 
0.0 0.0 0.0 0.0 0.0 0.07698792 
0.0 0.0 0.0 0.0 0.0 0.07698792 
0.0 0.0 0.0 0.0 0.0 0.07698792 
0.0 0.0 0.0 0.0 0.0 0.07698792 
0.0 0.0 0.0 0.0 0.0 0.07698792 
0.0 0.0 0.0 0.0 0.0 0.07698792 
0.0 0.0 0.0 0.0 0.0 0.07698792 
0.0 0.0 0.0 0.0 0.0 0.07698792 
0.0 0.0 0.0 0.0 0.0 0.07698792 
0.0 0.0 0.0 0.0 0.0 0.07698792 
0.0 0.0 0.0 0.0 0.0 0.07698792 
0.0 0.0 0.0 0.0 0.0 0.07698792 
0.0 0.0 0.0 0.0 0.0 0.07698792 
0.0 0.0 0.0 0.0 0.0 0.06265791 
0.11602491 0.0 0.114158995 0.0 0.0 0.0 
0.39017424 0.017112806 0.21584004 0.0 0.0 0.0 
0.5934213 0.11695236 0.29748595 0.0 0.0 0.0 
0.7751194 0.35004172 0.4775548 0.0 0.0 0.0 
0.7394466 0.74162894 0.712607 0.0 0.0 0.0 
0.4285891 1.0747292 0.93355113 0.0 0.12087393 0.0 
0.0 1.1442491 0.9878421 0.0 0.36538425 0.0 
0.0 0.92959046 0.6795252 0.0 0.4623458 0.0 
0.0 0.55864763 0.39983916 0.0 0.33740166 0.0 
0.0 0.29123428 0.13513896 0.0 0.18051016 0.0 
0.0 0.09442133 0.0 0.0 0.041136425 0.0 
0.0 0.0 0.0 0.0 0.0 0.07698792 
0.0 0.0 0.0 0.0 0.0 0.07698792 
0.0 0.0 0.0 0.0 0.0 0.07698792 
0.0 0.0 0.0 0.0 0.0 0.07698792 
0.0 0.0 0.0 0.0 0.0 0.07698792 
0.0 0.0 0.0 0.0 0.0 0.07698792 
0.0 0.0 0.0 0.0 0.0 0.07698792 
0.0 0.0 0.0 0.0 0.0 0.07698792 
0.0 0.0 0.0 0.0 0.0 0.07698792 
0.0 0.0 0.0 0.0 0.0 0.07698792 
0.0 0.0 0.0 0.0 0.0 0.07698792 
0.0 0.0 0.0 0.0 0.0 0.07698792 
0.0 0.0 0.0 0.0 0.0 0.07698792 
0.0 0.0 0.0 0.0 0.0 0.07698792 
0.0 0.0 0.0 0.0 0.0 0.07698792 
0.0 0.0 0.0 0.0 0.0 0.06831449 
0.12135023 0.0 0.11615039 0.0 0.0 0.0 
0.5030351 0.0 0.12201742 0.0 0.0 0.0 
0.7583081 0.0 0.13369021 0.0 0.0 0.0 
0.91586554 0.146092 0.1597409 0.0 0.0 0.0 
0.69508207 0.44293666 0.3304587 0.04693589 0.48078153 0.0 
0.19626373 0.55709857 0.57429415 0.5100375 0.9795719 0.0 
0.0 0.6551832 0.96647346 0.8107712 1.0145853 0.0 
0.017878473 0.898413 1.4203348 0.65845954 0.79491985 0.0 
0.0 1.2507911 1.3540558 0.20530479 0.75097245 0.0 
0.0 1.104961 1.0102688 0.0 0.6703806 0.0 
0.0 0.6663903 0.6371017 0.0 0.5392258 0.0 
0.0 0.15806489 0.11338503 0.0 0.34479925 0.0 
0.0 0.013059127 0.0 0.0 0.0 0.057186496 
0.0 0.0 0.0 0.0 0.0 0.07698792 
0.0 0.0 0.0 0.0 0.0 0.07698792 
0.0 0.0 0.0 0.0 0.0 0.07698792 
0.0 0.0 0.0 0.0 0.0 0.07698792 
0.0 0.0 0.0 0.0 0.0 0.07698792 
0.0 0.0 0.0 0.0 0.0 0.07698792 
0.0 0.0 0.0 0.0 0.0 0.07698792 
0.0 0.0 0.0 0.0 0.0 0.07698792 
0.0 0.0 0.0 0.0 0.0 0.07698792 
0.0 0.0 0.0 0.0 0.0 0.07698792 
0.0 0.0 0.0 0.0 0.0 0.07698792 
0.0 0.0 0.0 0.0 0.0 0.07698792 
0.0 0.0 0.0 0.0 0.0 0.07698792 
0.0 0.0 0.0 0.0 0.0 0.07698792 
0.07375787 0.0 0.09618018 0.0 0.0 0.0058311895 
0.4894122 0.0 0.07602536 0.0 0.0 0.0 
0.86141557 0.0 0.0 0.0 0.0 0.0 
0.9518395 0.11046642 0.0 0.03665236 0.22560574 0.0 
0.57519305 0.6812125 0.04640071 0.576095 1.0012504 0.10590626 
0.02584695 0.77968544 0.07263196 1.0516623 1.6897916 0.727182 
0.0 0.7680924 0.12346109 1.3955218 1.6479588 1.0737457 
0.0 0.617108 0.31001943 1.4962016 1.2147726 1.1083543 
0.21493816 0.4306304 0.8690467 1.4564447 0.7141902 0.81022745 
0.24596992 0.93069494 1.4961222 1.1923105 0.5963663 0.051237687 
0.0 1.3938904 1.4542456 0.60984457 0.6912227 0.0 
0.0 1.2309246 1.3895932 0.0040714946 0.64865535 0.0 
0.0 0.54359597 0.60704 0.0 0.5392322 0.0 
0.0 0.13040227 0.01388561 0.0 0.12203595 0.0 
0.0 0.0 0.0 0.0 0.0 0.07021375 
0.0 0.0 0.0 0.0 0.0 0.07698792 
0.0 0.0 0.0 0.0 0.0 0.07698792 
0.0 0.0 0.0 0.0 0.0 0.07698792 
0.0 0.0 0.0 0.0 0.0 0.07698792 
0.0 0.0 0.0 0.0 0.0 0.07698792 
0.0 0.0 0.0 0.0 0.0 0.07698792 
0.0 0.0 0.0 0.0 0.0 0.07698792 
0.0 0.0 0.0 0.0 0.0 0.07698792 
0.0 0.0 0.0 0.0 0.0 0.07698792 
0.0 0.0 0.0 0.0 0.0 0.07698792 
0.0 0.0 0.0 0.0 0.0 0.07698792 
0.0 0.0 0.0 0.0 0.0 0.07698792 
0.0 0.0 0.013198227 0.0 0.0 0.04380262 
0.3353235 0.0 0.072330065 0.0 0.0 0.0 
0.90399647 0.0 0.0 0.0 0.0 0.019534625 
1.0480611 0.080335006 0.0 0.13496102 0.30372247 0.09346786 
0.5930149 0.86959946 0.0 0.47126964 1.1615393 0.21347538 
0.0 0.9867462 0.0 0.4929229 1.9699134 0.8078889 
0.0 0.71263635 0.0 0.4722619 1.9019327 1.2955012 
0.15494815 0.5600385 0.0 0.33009157 1.3899451 1.4419014 
0.22086832 0.20897968 0.0 0.16336022 1.1247252 1.54708 
0.38229206 0.0 0.0 0.31003803 0.8615099 1.6176481 
0.2995573 0.050682556 0.0 0.51421916 0.5657206 0.96129364 
0.16013041 0.76385117 0.96797526 0.6797912 0.5492042 0.13347174 
0.0 1.3055031 1.7654773 0.34309635 0.46345624 0.0 
0.0 1.1803277 1.5989678 0.0 0.35298046 0.0 
0.0 0.59400225 0.47560173 0.0 0.28269613 0.0 
0.0 0.41737393 0.2068764 0.0 0.046469864 0.0 
0.0 0.29791743 0.10669143 0.0 0.06604724 0.0 
0.0 0.110635415 0.0 0.0 0.05271792 0.0 
0.0 0.0 0.0 0.0 0.0 0.07438247 
0.0 0.0 0.0 0.0 0.0 0.07698792 
0.0 0.0 0.0 0.0 0.0 0.07698792 
0.0 0.0 0.0 0.0 0.0 0.07698792 
0.0 0.0 0.0 0.0 0.0 0.07698792 
0.0 0.0 0.0 0.0 0.0 0.07698792 
0.0 0.0 0.0 0.0 0.0 0.07698792 
0.0 0.0 0.0 0.0 0.0 0.07698792 
0.0 0.0 0.0 0.0 0.0 0.07698792 
0.0 0.0 0.0 0.0 0.0 0.07698792 
0.09189542 0.0 0.0393219 0.0 0.0 0.035344437 
0.75013345 0.0 0.0 0.0 0.0 0.12125797 
1.1978014 0.0 0.0 0.14758095 0.10092324 0.22796088 
0.8129419 0.6435089 0.0 0.17833637 1.1384625 0.17363235 
0.0 1.1013492 0.0 0.098271735 1.8285319 0.43491584 
0.0 0.60520464 0.0 0.0 1.8139588 0.78177637 
0.0 0.121702895 0.0 0.0 1.1476496 0.81519157 
0.0 0.0 0.0 0.0 0.9495776 0.6965198 
0.19789708 0.0 0.0 0.0 0.98647374 0.7643396 
0.62031835 0.0 0.0 0.0 1.0930349 1.1955755 
0.5755039 0.0 0.0 0.0 0.8471987 1.2148583 
0.28765106 0.0 0.0 0.16223302 0.52754056 0.5635561 
0.36528394 0.36850092 0.9325547 0.36893383 0.3782765 0.065139465 
0.12033674 1.0581887 1.8350352 0.16801384 0.22554268 0.0 
0.0 1.2371194 1.215523 0.0 0.46821615 0.0 
0.0 1.0408635 0.68159735 0.0 0.5930312 0.0 
0.0 0.6310883 0.50859606 0.0 0.5474898 0.0 
0.0 0.093946256 0.09764586 0.0 0.33917725 0.0 
0.0 0.0 0.0 0.0 0.0 0.07414694 
0.0 0.0 0.0 0.0 0.0 0.07698792 
0.0 0.0 0.0 0.0 0.0 0.07698792 
0.0 0.0 0.0 0.0 0.0 0.07698792 
0.0 0.0 0.0 0.0 0.0 0.07698792 
0.0 0.0 0.0 0.0 0.0 0.07698792 
0.0 0.0 0.0 0.0 0.0 0.07698792 
0.0 0.0 0.0 0.0 0.0 0.07698792 
0.0 0.0 0.0 0.0 0.0 0.07698792 
0.0 0.0 0.0 0.0 0.0 0.0754795 
0.26265323 0.0 0.0 0.0 0.0 0.13252035 
1.1022413 0.0 0.0 0.18455319 0.0 0.42212638 
1.2072754 0.15442926 0.0 0.1484325 0.80725044 0.44704607 
0.3035682 0.98889554 0.0 0.08226077 1.4713887 0.19318594 
0.0 0.9462793 0.0 0.0 1.4857113 0.33152184 
0.0 0.36377457 0.26163077 0.0 1.0004025 0.42436612 
0.0 0.0 0.13751373 0.0 0.34768364 0.31524405 
0.0 0.0 0.0 0.0 0.14398964 0.16705596 
0.01648809 0.0 0.0 0.0 0.18836622 0.19482192 
0.50306886 0.0 0.0 0.0 0.45672998 0.50490826 
0.93286556 0.0 0.0 0.0 0.47658 0.83889836 
0.87924844 0.0 0.0 0.0 0.22832914 0.55234224 
0.89152986 0.0 0.0 0.0 0.23395093 0.0961209 
0.63295907 0.5969979 1.0863577 0.27709243 0.6446181 0.0 
0.0 1.6291333 1.6776178 0.5188493 1.0819328 0.0 
0.0 1.3925756 1.3162322 0.25795326 1.3038967 0.0 
0.0 0.8228603 1.0535605 0.16254579 0.90522665 0.0 
0.0 0.20711944 0.38462758 0.05802456 0.33152956 0.0 
0.0 0.0 0.0 0.0 0.0 0.076017946 
0.0 0.0 0.0 0.0 0.0 0.07698792 
0.0 0.0 0.0 0.0 0.0 0.07698792 
0.0 0.0 0.0 0.0 0.0 0.07698792 
0.0 0.0 0.0 0.0 0.0 0.07698792 
0.0 0.0 0.0 0.0 0.0 0.07698792 
0.0 0.0 0.0 0.0 0.0 0.07698792 
0.0 0.0 0.0 0.0 0.0 0.07698792 
0.0 0.0 0.0 0.0 0.0 0.07698792 
0.0 0.0 0.0 0.0 0.0 0.074220836 
0.50368637 0.0 0.0 0.036289986 0.0 0.29941928 
1.3810048 0.0 0.0 0.13181445 0.27638716 0.638537 
0.8802709 0.39721417 0.0 0.0 1.143667 0.36464262 
0.0 1.0647199 0.0 0.072620526 1.1440079 0.0 
0.0 0.74271065 0.52736056 0.0 1.1376802 0.2793387 
0.0 0.20631526 0.7275029 0.013371692 0.5535165 0.25852495 
0.0 0.0 0.1893881 0.0 0.047319803 0.104748264 
0.049867004 0.0 0.08734921 0.0 0.0 0.0 
0.25216484 0.02303572 0.19789594 0.0 0.0 0.0 
0.6135879 0.0 0.11308802 0.0 0.0 0.0 
1.1614559 0.0 0.0 0.0 0.0835692 0.0 
1.5561163 0.035579503 0.0 0.0 0.22678114 0.0 
1.3580673 0.5352617 0.0 0.0 0.7053887 0.027709663 
0.53703374 1.0889883 0.0 0.015735969 1.5596311 0.16341002 
0.0 1.7100685 1.1037451 0.55277586 1.847927 0.0110708475 
0.0 1.5155053 1.5396669 0.7530716 1.419082 0.11011049 
0.0 0.7190423 1.2907279 0.55399716 0.7071023 0.2697618 
0.0 0.3222461 0.60361975 0.2956781 0.10961594 0.117496915 
0.0 0.0 0.0 0.0020474643 0.0 0.07816722 
0.0 0.0 0.0 0.0 0.0 0.07698792 
0.0 0.0 0.0 0.0 0.0 0.07698792 
0.0 0.0 0.0 0.0 0.0 0.07698792 
0.0 0.0 0.0 0.0 0.0 0.07698792 
0.0 0.0 0.0 0.0 0.0 0.07698792 
0.0 0.0 0.0 0.0 0.0 0.07698792 
0.0 0.0 0.0 0.0 0.0 0.07698792 
0.0 0.0 0.0 0.0 0.0 0.07698792 
0.0 0.0 0.0 0.0 0.0 0.08030055 
0.73395956 0.0 0.0 0.05306599 0.0 0.499328 
1.5479121 0.0 0.0 0.0 0.45917043 0.6348247 
0.766263 0.7341639 0.0 0.0 0.84996027 0.0 
0.0 1.192358 0.29036945 0.0 0.7482708 0.0 
0.0 0.8404018 1.2141534 0.0 0.8392182 0.0 
0.0 0.42806756 1.0340596 0.0 0.14585057 0.0 
0.290804 0.29786894 0.42669952 0.0 0.0 0.0 
0.4758432 0.33943874 0.4186905 0.0 0.0 0.0 
0.6356165 0.3823658 0.37471133 0.0 0.0 0.0 
0.79489905 0.37405467 0.41344604 0.0 0.0 0.0 
1.1770387 0.24736306 0.36331716 0.0 0.28429583 0.0 
1.4540541 0.36913744 0.0 0.0 0.9518427 0.0 
1.0583303 0.70457673 0.0 0.0 1.9970239 0.20678085 
0.077610135 1.3802134 0.0 0.0 2.5599668 0.33915836 
0.0 1.3661355 0.1554336 0.028421618 2.2049937 0.42956185 
0.0 0.7637942 0.88098955 0.11696914 1.34637 0.5111438 
0.0 0.26293576 0.8423886 0.17942005 0.47164664 0.40281206 
0.0 0.0 0.40643767 0.058605965 0.08401485 0.14125675 
0.0 0.0 0.0 0.0 0.0 0.07788021 
0.0 0.0 0.0 0.0 0.0 0.07698792 
0.0 0.0 0.0 0.0 0.0 0.07698792 
0.0 0.0 0.0 0.0 0.0 0.07698792 
0.0 0.0 0.0 0.0 0.0 0.07698792 
0.0 0.0 0.0 0.0 0.0 0.07698792 
0.0 0.0 0.0 0.0 0.0 0.07698792 
0.0 0.0 0.0 0.0 0.0 0.07698792 
0.0 0.0 0.0 0.0 0.0 0.07698792 
0.0 0.0 0.0 0.0044450676 0.0 0.09437865 
0.77844685 0.0 0.0 0.118931666 0.076783314 0.7224726 
1.3880353 0.0 0.0 0.06578908 0.4246311 0.7722033 
0.9197814 0.46769515 0.0 0.0 0.516211 0.0 
0.24396682 1.1021436 0.67639697 0.0 0.46126792 0.0 
0.0 1.1235387 1.7526319 0.0 0.53867626 0.0 
0.12780236 0.7263924 1.1985418 0.0 0.19889899 0.0 
0.51996285 0.71431965 0.66825587 0.0 0.009700384 0.0 
0.5446648 0.6354106 0.56073093 0.0 0.20283492 0.0 
0.4607466 0.52326417 0.45718628 0.0 0.63454384 0.0 
0.37955844 0.43238485 0.40686607 0.30929327 0.938144 0.0 
0.61014646 0.34397277 0.4469961 0.7999974 1.0647593 0.27803206 
1.0085807 0.5192339 0.108488984 0.89246327 1.7322618 0.67810357 
0.6246781 1.312583 0.0 0.7736434 2.254562 0.63074654 
0.0 1.638692 0.019018233 0.33449742 2.282262 0.39164436 
0.0 1.1604842 0.48004693 0.028292261 1.7320496 0.524123 
0.0 0.25483674 0.6898782 0.0 0.87353855 0.4401498 
0.0 0.0 0.40048492 0.0 0.25352517 0.26657575 
0.0 0.0 0.08467635 0.0 0.030208368 0.097259685 
0.0 0.0 0.0 0.0 0.0 0.07714012 
0.0 0.0 0.0 0.0 0.0 0.07698792 
0.0 0.0 0.0 0.0 0.0 0.07698792 
0.0 0.0 0.0 0.0 0.0 0.07698792 
0.0 0.0 0.0 0.0 0.0 0.07698792 
0.0 0.0 0.0 0.0 0.0 0.07698792 
0.0 0.0 0.0 0.0 0.0 0.07698792 
0.0 0.0 0.0 0.0 0.0 0.07698792 
0.0 0.0 0.0 0.0 0.0 0.07698792 
0.0 0.0 0.0 0.005176953 0.0 0.10050632 
0.6907461 0.0 0.0 0.15440199 0.3349496 0.7889134 
1.0457604 0.0 0.0 0.25269824 0.5793388 1.082514 
0.6052822 0.0 0.0 0.5795343 0.57156426 0.58424497 
0.43501472 0.2593635 0.13163152 0.8601067 0.76481885 0.6111064 
0.0 0.6570438 1.4354614 1.1115807 0.9565963 0.39720577 
0.04713367 0.43952838 0.9821986 0.88193005 1.0240359 0.17203379 
0.14338839 0.44670883 0.65640664 0.97019875 1.1136407 0.19804218 
0.0612524 0.5584593 0.58876073 1.1847786 1.3716779 0.39446127 
0.0 0.78363955 0.4686587 1.3192321 1.5903239 0.62458193 
0.19373035 0.6478073 0.23800862 1.1590544 1.4930491 0.92696875 
1.0219107 0.41387632 0.0 0.8754619 1.2672465 1.2251704 
1.2464993 0.81103945 0.0 0.59493256 1.643552 1.0548971 
0.2642448 1.4457376 0.0 0.20058589 1.9846293 0.4726625 
0.0 1.5089836 0.4938686 0.029346503 1.8027033 0.25982246 
0.0 0.61162096 0.9041515 0.0 1.31916 0.38246357 
0.0 0.1208981 0.6568126 0.024991963 0.43323073 0.29642227 
0.0 0.0 0.14661449 0.0 0.066782236 0.11823331 
0.0 0.0 0.0 0.0 0.0 0.07866211 
0.0 0.0 0.0 0.0 0.0 0.07698792 
0.0 0.0 0.0 0.0 0.0 0.07698792 
0.0 0.0 0.0 0.0 0.0 0.07698792 
0.0 0.0 0.0 0.0 0.0 0.07698792 
0.0 0.0 0.0 0.0 0.0 0.07698792 
0.0 0.0 0.0 0.0 0.0 0.07698792 
0.0 0.0 0.0 0.0 0.0 0.07698792 
0.0 0.0 0.0 0.0 0.0 0.07698792 
0.0 0.0 0.0 0.0 0.0 0.07698792 
0.0 0.0 0.0 0.0 0.0 0.09361708 
0.49494267 0.0 0.0 0.008296945 0.42250445 0.6122954 
0.85939914 0.0 0.0 0.2016466 0.70941657 1.1632493 
0.5246964 0.0 0.0 0.38841078 0.80551356 1.1008642 
0.3271582 0.048341423 0.0 0.9031334 1.0489849 1.2020876 
0.0 0.2644972 0.46172875 1.5027994 1.2628875 1.2143939 
0.07486059 0.6463039 0.47450012 1.7451789 1.2753652 1.1671238 
0.11505979 0.7841368 0.20840392 1.6254555 1.3279335 1.1923096 
0.11910768 0.87658745 0.07504203 1.3723844 1.4409796 1.3036354 
0.11869502 0.8058566 0.0 0.8633428 1.4542927 1.2980993 
0.60116464 0.20249392 0.0 0.3090028 1.0121996 1.2885456 
1.488718 0.0 0.0 0.0 0.9602962 1.365624 
1.1198802 0.43397376 0.0 0.0 1.65011 0.8360306 
0.0 1.1897657 0.0 0.0 1.8146731 0.16452983 
0.0 1.0416399 0.77103716 0.0 1.6263777 0.19421849 
0.0 0.37693682 1.0040408 0.0 0.993815 0.2744129 
0.0 0.0 0.42922688 0.0027432553 0.17619957 0.16426268 
0.0 0.0 0.0 0.0 0.0 0.08258418 
0.0 0.0 0.0 0.0 0.0 0.07698792 
0.0 0.0 0.0 0.0 0.0 0.07698792 
0.0 0.0 0.0 0.0 0.0 0.07698792 
0.0 0.0 0.0 0.0 0.0 0.07698792 
0.0 0.0 0.0 0.0 0.0 0.07698792 
0.0 0.0 0.0 0.0 0.0 0.07698792 
0.0 0.0 0.0 0.0 0.0 0.07698792 
0.0 0.0 0.0 0.0 0.0 0.07698792 
0.0 0.0 0.0 0.0 0.0 0.07698792 
0.0 0.0 0.0 0.0 0.0 0.07698792 
0.0 0.0 0.0 0.0 0.0 0.082557805 
0.23025358 0.0 0.0 0.0 0.32089886 0.31668806 
0.59633464 0.0 0.0 0.0 0.65341395 0.74789584 
0.56373346 0.0 0.0 0.0 0.84150904 1.0283026 
0.40168813 0.09036972 0.0 0.0 0.9864128 1.2992516 
0.2837439 0.075465605 0.0 0.0 1.1568652 1.4900031 
0.20341599 0.21321712 0.0 0.0 1.2116686 1.4867 
0.17926139 0.19123821 0.0 0.0 1.2003185 1.3594544 
0.07462658 0.04302804 0.0 0.0 1.1545234 1.166451 
0.0 0.0 0.0 0.0 0.85816526 0.8698796 
0.633686 0.0 0.0 0.0 0.4608687 0.87718636 
1.5073819 0.0 0.0 0.0 0.8996514 0.98935145 
0.7866338 0.37356707 0.0 0.0 1.587309 0.3326359 
0.0 1.2250432 0.0 0.0 1.5539061 0.0 
0.0 0.897199 1.042113 0.0 1.4197383 0.22027272 
0.0 0.26957655 0.9592923 0.026968967 0.68220407 0.18759993 
0.0 0.0 0.14347124 0.0 0.04617325 0.10320833 
0.0 0.0 0.0 0.0 0.0 0.07752062 
0.0 0.0 0.0 0.0 0.0 0.07698792 
0.0 0.0 0.0 0.0 0.0 0.07698792 
0.0 0.0 0.0 0.0 0.0 0.07698792 
0.0 0.0 0.0 0.0 0.0 0.07698792 
0.0 0.0 0.0 0.0 0.0 0.07698792 
0.0 0.0 0.0 0.0 0.0 0.07698792 
0.0 0.0 0.0 0.0 0.0 0.07698792 
0.0 0.0 0.0 0.0 0.0 0.07698792 
0.0 0.0 0.0 0.0 0.0 0.07698792 
0.0 0.0 0.0 0.0 0.0 0.07698792 
0.0 0.0 0.0 0.0 0.0 0.07698792 
0.0 0.0 0.0 0.0 0.043978367 0.121547 
0.20785004 0.0 0.0 0.0 0.36533013 0.2712199 
0.33104476 0.0 0.0 0.0 0.5889495 0.38336122 
0.3054592 0.0 0.0 0.0 0.7335159 0.44723067 
0.24566245 0.0 0.0 0.0 0.8830675 0.55600023 
0.105823934 0.0 0.0 0.0 0.90475607 0.54495275 
0.0 0.0 0.0 0.0 0.7437289 0.4676882 
0.0 0.0 0.0 0.0 0.5280883 0.36832654 
0.04520753 0.0 0.0 0.0 0.12805429 0.26156437 
1.0913134 0.0 0.0 0.0 0.0 0.5475017 
1.5888047 0.0 0.0 0.0 0.8619536 0.6870195 
0.4536057 1.0210799 0.0 0.0 1.3313462 0.03297174 
0.0 1.3666521 0.30654725 0.03791934 1.347426 0.003497064 
0.0 0.787309 1.2360901 0.0997778 1.1644685 0.3428603 
0.0 0.1600962 0.8388857 0.1589161 0.3516025 0.16520518 
0.0 0.0 0.004632797 0.0 0.0 0.085022055 
0.0 0.0 0.0 0.0 0.0 0.07698792 
0.0 0.0 0.0 0.0 0.0 0.07698792 
0.0 0.0 0.0 0.0 0.0 0.07698792 
0.0 0.0 0.0 0.0 0.0 0.07698792 
0.0 0.0 0.0 0.0 0.0 0.07698792 
0.0 0.0 0.0 0.0 0.0 0.07698792 
0.0 0.0 0.0 0.0 0.0 0.07698792 
0.0 0.0 0.0 0.0 0.0 0.07698792 
0.0 0.0 0.0 0.0 0.0 0.07698792 
0.0 0.0 0.0 0.0 0.0 0.07698792 
0.0 0.0 0.0 0.0 0.0 0.07698792 
0.0 0.0 0.0 0.0 0.0 0.07698792 
0.0 0.0 0.0 0.0 0.0 0.07698792 
0.0 0.0 0.0 0.0 0.0 0.07698792 
0.0 0.0 0.0 0.0 0.0 0.07698792 
0.0 0.0 0.0 0.0 0.0 0.07698792 
0.0 0.0 0.0 0.0 0.0 0.07698792 
0.0 0.0 0.0 0.0 0.0 0.07698792 
0.0 0.0 0.0 0.0 0.0 0.07698792 
0.0 0.0 0.005970657 0.0 0.0 0.04719657 
0.45753652 0.0 0.0 0.0 0.0 0.09443139 
1.5121632 0.0 0.0 0.0 0.103341 0.549703 
1.4645567 0.23582736 0.0 0.0 1.1670308 0.4983276 
0.02416592 1.2480437 0.0 0.0 1.4359822 0.0 
0.0 1.019766 0.42116445 0.0 1.4490899 0.23978035 
0.0 0.3646588 1.0652437 0.039640058 0.93831027 0.34382266 
0.0 0.01012124 0.51023954 0.07382114 0.14830406 0.1490336 
0.0 0.0 0.0 0.0 0.0 0.07894561 
0.0 0.0 0.0 0.0 0.0 0.07698792 
0.0 0.0 0.0 0.0 0.0 0.07698792 
0.0 0.0 0.0 0.0 0.0 0.07698792 
0.0 0.0 0.0 0.0 0.0 0.07698792 
0.0 0.0 0.0 0.0 0.0 0.07698792 
0.0 0.0 0.0 0.0 0.0 0.07698792 
0.0 0.0 0.0 0.0 0.0 0.07698792 
0.0 0.0 0.0 0.0 0.0 0.07698792 
0.0 0.0 0.0 0.0 0.0 0.07698792 
0.0 0.0 0.0 0.0 0.0 0.07698792 
0.0 0.0 0.0 0.0 0.0 0.07698792 
0.0 0.0 0.0 0.0 0.0 0.07698792 
0.0 0.0 0.0 0.0 0.0 0.07698792 
0.0 0.0 0.0 0.0 0.0 0.07698792 
0.0 0.0 0.0 0.0 0.0 0.07698792 
0.0 0.0 0.0 0.0 0.0 0.07698792 
0.0 0.0 0.0 0.0 0.0 0.07698792 
0.0 0.0 0.0 0.0 0.0 0.07698792 
0.0 0.0 0.0 0.0 0.0 0.07397108 
0.11588471 0.0 0.07291267 0.0 0.0 0.011551619 
0.88946235 0.0 0.0 0.0 0.0 0.17983115 
1.5556524 0.0 0.0 0.0 0.49633554 0.49340397 
0.8253713 0.71472794 0.0 0.0 1.3659532 0.13724811 
0.0 1.233345 0.0 0.038574573 1.49201 0.013979793 
0.0 0.74811333 0.70296896 0.004269642 1.248156 0.40581664 
0.0 0.21349888 0.88111705 0.13286482 0.50294226 0.28173175 
0.0 0.0 0.18507901 0.0 0.03797866 0.11197708 
0.0 0.0 0.0 0.0 0.0 0.07714012 
0.0 0.0 0.0 0.0 0.0 0.07698792 
0.0 0.0 0.0 0.0 0.0 0.07698792 
0.0 0.0 0.0 0.0 0.0 0.07698792 
0.0 0.0 0.0 0.0 0.0 0.07698792 
0.0 0.0 0.0 0.0 0.0 0.07698792 
0.0 0.0 0.0 0.0 0.0 0.07698792 
0.0 0.0 0.0 0.0 0.0 0.07698792 
0.0 0.0 0.0 0.0 0.0 0.07698792 
0.0 0.0 0.0 0.0 0.0 0.07698792 
0.0 0.0 0.0 0.0 0.0 0.07698792 
0.0 0.0 0.0 0.0 0.0 0.07698792 
0.0 0.0 0.0 0.0 0.0 0.07698792 
0.0 0.0 0.0 0.0 0.0 0.07698792 
0.0 0.0 0.0 0.0 0.0 0.07698792 
0.0 0.0 0.0 0.0 0.0 0.07698792 
0.0 0.0 0.0 0.0 0.0 0.07698792 
0.0 0.0 0.0 0.0 0.0 0.07698792 
0.0 0.0 0.0 0.0 0.0 0.07698792 
0.0 0.0 0.015281081 0.0 0.0 0.04317082 
0.41480142 0.0 0.04172551 0.0 0.0 0.0074521676 
1.2923417 0.0 0.0 0.0 0.0 0.27400494 
1.4319129 0.2682896 0.0 0.0 0.94069463 0.3372617 
0.16405395 1.2724932 0.0 0.0 1.4647528 0.0 
0.0 1.1125212 0.2450321 0.0 1.3784252 0.11950499 
0.0 0.48140314 0.8601526 0.021096509 0.9041667 0.3761515 
0.0 0.057612084 0.60137784 0.09028655 0.20664532 0.20145333 
0.0 0.0 0.0 0.0 0.0 0.083151996 
0.0 0.0 0.0 0.0 0.0 0.07698792 
0.0 0.0 0.0 0.0 0.0 0.07698792 
0.0 0.0 0.0 0.0 0.0 0.07698792 
0.0 0.0 0.0 0.0 0.0 0.07698792 
0.0 0.0 0.0 0.0 0.0 0.07698792 
0.0 0.0 0.0 0.0 0.0 0.07698792 
0.0 0.0 0.0 0.0 0.0 0.07698792 
0.0 0.0 0.0 0.0 0.0 0.07698792 
0.0 0.0 0.0 0.0 0.0 0.07698792 
0.0 0.0 0.0 0.0 0.0 0.07698792 
0.0 0.0 0.0 0.0 0.0 0.07698792 
0.0 0.0 0.0 0.0 0.0 0.07698792 
0.0 0.0 0.0 0.0 0.0 0.07698792 
0.0 0.0 0.0 0.0 0.0 0.07698792 
0.0 0.0 0.0 0.0 0.0 0.07698792 
0.0 0.0 0.0 0.0 0.0 0.07698792 
0.0 0.0 0.0 0.0 0.0 0.07698792 
0.0 0.0 0.0 0.0 0.0 0.07698792 
0.0 0.0 0.0 0.0 0.0 0.07698792 
0.09286684 0.0 0.01521688 0.0 0.0 0.05265969 
0.80338126 0.0 0.0 0.0 0.0 0.2074022 
1.5112078 0.0 0.0 0.05015547 0.3579124 0.48811674 
0.9381406 0.6651855 0.0 0.012293824 1.3730142 0.23036997 
0.0 1.2759336 0.0 0.025090877 1.5041045 0.0148893 
0.0 0.8037617 0.56760675 0.0 1.2601999 0.334782 
0.0 0.19139624 0.788198 0.019239794 0.6087218 0.30389994 
0.0 0.0 0.25245315 0.0 0.07293551 0.11961051 
0.0 0.0 0.0 0.0 0.0 0.07698792 
0.0 0.0 0.0 0.0 0.0 0.07698792 
0.0 0.0 0.0 0.0 0.0 0.07698792 
0.0 0.0 0.0 0.0 0.0 0.07698792 
0.0 0.0 0.0 0.0 0.0 0.07698792 
0.0 0.0 0.0 0.0 0.0 0.07698792 
0.0 0.0 0.0 0.0 0.0 0.07698792 
0.0 0.0 0.0 0.0 0.0 0.07698792 
0.0 0.0 0.0 0.0 0.0 0.07698792 
0.0 0.0 0.0 0.0 0.0 0.07698792 
0.0 0.0 0.0 0.0 0.0 0.07698792 
0.0 0.0 0.0 0.0 0.0 0.07698792 
0.0 0.0 0.0 0.0 0.0 0.07698792 
0.0 0.0 0.0 0.0 0.0 0.07698792 
0.0 0.0 0.0 0.0 0.0 0.07698792 
0.0 0.0 0.0 0.0 0.0 0.07698792 
0.0 0.0 0.0 0.0 0.0 0.07698792 
0.0 0.0 0.0 0.0 0.0 0.07698792 
0.0 0.0 0.0 0.0 0.0 0.07698792 
0.0 0.0 0.0 0.0 0.0 0.050590523 
0.36490905 0.0 0.025558956 0.0 0.0 0.05204168 
1.2349489 0.0 0.0 0.0 0.0 0.30596188 
1.4412057 0.11177063 0.0 0.0 0.8791373 0.3721658 
0.2598504 1.137118 0.0 0.0009366544 1.4301969 0.0 
0.0 1.1603034 0.29120606 0.004201484 1.3854066 0.046651423 
0.0 0.54851025 0.90907335 0.046824362 0.9877909 0.35121387 
0.0 0.09225687 0.6331785 0.10163443 0.25864002 0.19314855 
0.0 0.0 0.0 0.0 0.0 0.08414129 
0.0 0.0 0.0 0.0 0.0 0.07698792 
0.0 0.0 0.0 0.0 0.0 0.07698792 
0.0 0.0 0.0 0.0 0.0 0.07698792 
0.0 0.0 0.0 0.0 0.0 0.07698792 
0.0 0.0 0.0 0.0 0.0 0.07698792 
0.0 0.0 0.0 0.0 0.0 0.07698792 
0.0 0.0 0.0 0.0 0.0 0.07698792 
0.0 0.0 0.0 0.0 0.0 0.07698792 
0.0 0.0 0.0 0.0 0.0 0.07698792 
0.0 0.0 0.0 0.0 0.0 0.07698792 
0.0 0.0 0.0 0.0 0.0 0.07698792 
0.0 0.0 0.0 0.0 0.0 0.07698792 
0.0 0.0 0.0 0.0 0.0 0.07698792 
0.0 0.0 0.0 0.0 0.0 0.07698792 
0.0 0.0 0.0 0.0 0.0 0.07698792 
0.0 0.0 0.0 0.0 0.0 0.07698792 
0.0 0.0 0.0 0.0 0.0 0.07698792 
0.0 0.0 0.0 0.0 0.0 0.07698792 
0.0 0.0 0.0 0.0 0.0 0.07698792 
0.05097924 0.0 0.010342799 0.0 0.0 0.048173428 
0.7233481 0.0 0.0 0.0 0.0 0.18378542 
1.5391088 0.0 0.0 0.0 0.23167534 0.49059075 
1.079165 0.63967276 0.0 0.0 1.2233598 0.27649337 
0.0 1.3437093 0.0 0.0 1.4319607 0.0 
0.0 0.96163654 0.6170253 0.0 1.2783762 0.26952904 
0.0 0.28545123 0.89737594 0.04045169 0.67441666 0.30673146 
0.0 0.0 0.3563142 0.029473249 0.07744071 0.13080265 
0.0 0.0 0.0 0.0 0.0 0.07698792 
0.0 0.0 0.0 0.0 0.0 0.07698792 
0.0 0.0 0.0 0.0 0.0 0.07698792 
0.0 0.0 0.0 0.0 0.0 0.07698792 
0.0 0.0 0.0 0.0 0.0 0.07698792 
0.0 0.0 0.0 0.0 0.0 0.07698792 
0.0 0.0 0.0 0.0 0.0 0.07698792 
0.0 0.0 0.0 0.0 0.0 0.07698792 
0.0 0.0 0.0 0.0 0.0 0.07698792 
0.0 0.0 0.0 0.0 0.0 0.07698792 
0.0 0.0 0.0 0.0 0.0 0.07698792 
0.0 0.0 0.0 0.0 0.0 0.07698792 
0.0 0.0 0.0 0.0 0.0 0.07698792 
0.0 0.0 0.0 0.0 0.0 0.07698792 
0.0 0.0 0.0 0.0 0.0 0.07698792 
0.0 0.0 0.0 0.0 0.0 0.07698792 
0.0 0.0 0.0 0.0 0.0 0.07698792 
0.0 0.0 0.0 0.0 0.0 0.07698792 
0.0 0.0 0.0 0.0 0.0 0.07698792 
0.0 0.0 0.0 0.0 0.0 0.07698792 
0.08218855 0.0 0.0 0.031519175 0.0 0.18130139 
0.78826725 0.0 0.0 0.26113284 0.0 0.6684076 
1.3295405 0.0 0.0 0.46215117 0.8783934 1.0017436 
0.48720926 0.60549456 0.0 0.49247235 1.4455953 0.62121016 
0.0 0.9100391 0.0 0.41412023 1.3427446 0.41888037 
0.0 0.46547273 0.78264725 0.13908306 1.0456669 0.43685445 
0.0 0.100692965 0.6709697 0.05910101 0.38283485 0.22041658 
0.0 0.0 0.05749061 0.0 0.0145041235 0.09216522 
0.0 0.0 0.0 0.0 0.0 0.07698792 
0.0 0.0 0.0 0.0 0.0 0.07698792 
0.0 0.0 0.0 0.0 0.0 0.07698792 
0.0 0.0 0.0 0.0 0.0 0.07698792 
0.0 0.0 0.0 0.0 0.0 0.07698792 
0.0 0.0 0.0 0.0 0.0 0.07698792 
0.0 0.0 0.0 0.0 0.0 0.07698792 
0.0 0.0 0.0 0.0 0.0 0.07698792 
0.0 0.0 0.0 0.0 0.0 0.07698792 
0.0 0.0 0.0 0.0 0.0 0.07698792 
0.0 0.0 0.0 0.0 0.0 0.07698792 
0.0 0.0 0.0 0.0 0.0 0.07698792 
0.0 0.0 0.0 0.0 0.0 0.07698792 
0.0 0.0 0.0 0.0 0.0 0.07698792 
0.0 0.0 0.0 0.0 0.0 0.07698792 
0.0 0.0 0.0 0.0 0.0 0.07698792 
0.0 0.0 0.0 0.0 0.0 0.07698792 
0.0 0.0 0.0 0.0 0.0 0.07698792 
0.0 0.0 0.0 0.0 0.0 0.07698792 
0.0 0.0 0.0 0.0 0.0 0.07698792 
0.13231525 0.0 0.0 0.10701239 0.00069143996 0.2872379 
0.72363347 0.0 0.0 0.31549248 0.45282558 0.8683849 
0.75723356 0.0 0.0 0.4151503 1.0592151 1.0252242 
0.0 0.42262152 0.0 0.4736934 1.0535146 0.70494753 
0.0 0.52867377 0.10207341 0.41001403 0.7270599 0.6337233 
0.0 0.37093198 0.8602756 0.3089036 0.43990245 0.44098216 
0.0 0.022703797 0.46591926 0.07901837 0.116390616 0.14468639 
0.0 0.0 0.0 0.0 0.0 0.07812942 
0.0 0.0 0.0 0.0 0.0 0.07698792 
0.0 0.0 0.0 0.0 0.0 0.07698792 
0.0 0.0 0.0 0.0 0.0 0.07698792 
0.0 0.0 0.0 0.0 0.0 0.07698792 
0.0 0.0 0.0 0.0 0.0 0.07698792 
0.0 0.0 0.0 0.0 0.0 0.07698792 
0.0 0.0 0.0 0.0 0.0 0.07698792 
0.0 0.0 0.0 0.0 0.0 0.07698792 
0.0 0.0 0.0 0.0 0.0 0.07698792 
0.0 0.0 0.0 0.0 0.0 0.07698792 
0.0 0.0 0.0 0.0 0.0 0.07698792 
0.0 0.0 0.0 0.0 0.0 0.07698792 
0.0 0.0 0.0 0.0 0.0 0.07698792 
0.0 0.0 0.0 0.0 0.0 0.07698792 
0.0 0.0 0.0 0.0 0.0 0.07698792 
0.0 0.0 0.0 0.0 0.0 0.07698792 
0.0 0.0 0.0 0.0 0.0 0.07698792 
0.0 0.0 0.0 0.0 0.0 0.07698792 
0.0 0.0 0.0 0.0 0.0 0.07698792 
0.0 0.0 0.0 0.0 0.0 0.07698792 
0.113073885 0.0 0.0 0.03523839 0.080772445 0.26299465 
0.5434517 0.0 0.0 0.0 0.5712443 0.7511482 
0.45184702 0.024139982 0.0 0.0 0.81962925 0.8765896 
0.0 0.13646585 0.0 0.0 0.49154374 0.60947853 
0.0 0.016629197 0.0 0.0 0.318374 0.52160585 
0.0 0.0 0.41633475 0.0 0.22533198 0.31355274 
0.0 0.0 0.15359834 0.0 0.035927366 0.10588746 
0.0 0.0 0.0 0.0 0.0 0.07698792 
0.0 0.0 0.0 0.0 0.0 0.07698792 
0.0 0.0 0.0 0.0 0.0 0.07698792 
0.0 0.0 0.0 0.0 0.0 0.07698792 
0.0 0.0 0.0 0.0 0.0 0.07698792 
0.0 0.0 0.0 0.0 0.0 0.07698792 
0.0 0.0 0.0 0.0 0.0 0.07698792 
0.0 0.0 0.0 0.0 0.0 0.07698792 
0.0 0.0 0.0 0.0 0.0 0.07698792 
0.0 0.0 0.0 0.0 0.0 0.07698792 
0.0 0.0 0.0 0.0 0.0 0.07698792 

