0.0 0.0 0.0 0.0 0.0 0.07698792 
0.0 0.0 0.0 0.0 0.0 0.07698792 
0.0 0.0 0.0 0.0 0.0 0.07698792 
0.0 0.0 0.0 0.0 0.0 0.07698792 
0.0 0.0 0.0 0.0 0.0 0.07698792 
0.0 0.0 0.0 0.0 0.0 0.07698792 
0.0 0.0 0.0 0.0 0.0 0.07698792 
0.0 0.0 0.0 0.0 0.0 0.07698792 
0.0 0.0 0.0 0.0 0.0 0.07698792 
0.0 0.0 0.0 0.0 0.0 0.07698792 
0.0 0.0 0.0 0.0 0.0 0.07698792 
0.0 0.0 0.0 0.0 0.0 0.07698792 
0.0 0.0 0.0 0.0 0.0 0.07698792 
0.0 0.0 0.0 0.0 0.0 0.07698792 
0.0 0.0 0.0 0.0 0.0 0.07698792 
0.0 0.0 0.0 0.0 0.0 0.07698792 
0.0 0.0 0.0 0.0 0.0 0.07698792 
0.0 0.0 0.0 0.0 0.0 0.07698792 
0.0 0.0 0.0 0.0 0.0 0.07698792 
0.0 0.0 0.0 0.0 0.0 0.07698792 
0.0 0.0 0.0 0.0 0.0 0.07698792 
0.0 0.0 0.0 0.0 0.0 0.07698792 
0.0 0.0 0.0 0.0 0.0 0.07698792 
0.0 0.0 0.0 0.0 0.0 0.07698792 
0.0 0.0 0.0 0.0 0.0 0.07698792 
0.0 0.0 0.0 0.0 0.0 0.07698792 
0.0 0.0 0.0 0.0 0.0 0.07698792 
0.0 0.0 0.0 0.0 0.0 0.07698792 
0.0 0.0 0.0 0.0 0.0 0.07698792 
0.0 0.0 0.0 0.0 0.0 0.07698792 
0.0 0.0 0.0 0.0 0.0 0.07698792 
0.0 0.0 0.0 0.0 0.0 0.07698792 
0.0 0.0 0.0 0.0 0.0 0.07698792 
0.0 0.0 0.0 0.0 0.0 0.07698792 
0.0 0.0 0.0 0.0 0.0 0.07698792 
0.0 0.0 0.0 0.0 0.0 0.07698792 
0.0 0.0 0.0 0.0 0.0 0.07698792 
0.0 0.0 0.0 0.0 0.0 0.07698792 
0.0 0.0 0.0 0.0 0.0 0.07698792 
0.0 0.0 0.0 0.0 0.0 0.07698792 
0.0 0.0 0.0 0.0 0.0 0.07698792 
0.0 0.0 0.0 0.0 0.0 0.07698792 
0.0 0.0 0.0 0.0 0.0 0.07698792 
0.0 0.0 0.0 0.0 0.0 0.07698792 
0.0 0.0 0.0 0.0 0.0 0.07698792 
0.0 0.0 0.0 0.0 0.0 0.07698792 
0.0 0.0 0.0 0.0 0.0 0.07698792 
0.0 0.0 0.0 0.0 0.0 0.07698792 
0.0 0.0 0.0 0.0 0.0 0.07698792 
0.0 0.0 0.0 0.0 0.0 0.07698792 
0.0 0.0 0.0 0.0 0.0 0.07698792 
0.0 0.0 0.0 0.0 0.0 0.07698792 
0.0 0.0 0.0 0.0 0.0 0.07698792 
0.0 0.0 0.0 0.0 0.0 0.07698792 
0.0 0.0 0.0 0.0 0.0 0.07698792 
0.0 0.0 0.0 0.0 0.0 0.07698792 
0.0 0.0 0.0 0.0 0.0 0.07698792 
0.0 0.0 0.0 0.0 0.0 0.07698792 
0.0 0.0 0.0 0.0 0.0 0.07698792 
0.0 0.0 0.0 0.0 0.0 0.07698792 
0.0 0.0 0.0 0.0 0.0 0.07698792 
0.0 0.0 0.0 0.0 0.0 0.07698792 
0.0 0.0 0.0 0.0 0.0 0.07698792 
0.0 0.0 0.0 0.0 0.0 0.07698792 
0.0 0.0 0.0 0.0 0.0 0.07698792 
0.0 0.0 0.0 0.0 0.0 0.07698792 
0.0 0.0 0.0 0.0 0.0 0.07698792 
0.0 0.0 0.0 0.0 0.0 0.07698792 
0.0 0.0 0.0 0.0 0.0 0.07698792 
0.0 0.0 0.0 0.0 0.0 0.07698792 
0.0 0.0 0.0 0.0 0.0 0.07698792 
0.0 0.0 0.0 0.0 0.0 0.07698792 
0.0 0.0 0.0 0.0 0.0 0.07698792 
0.0 0.0 0.0 0.0 0.0 0.07698792 
0.0 0.0 0.0 0.0 0.0 0.07698792 
0.0 0.0 0.0 0.0 0.0 0.07698792 
0.0 0.0 0.0 0.0 0.0 0.07698792 
0.0 0.0 0.0 0.0 0.0 0.07698792 
0.0 0.0 0.0 0.0 0.0 0.07698792 
0.0 0.0 0.0 0.0 0.0 0.07698792 
0.0 0.0 0.0 0.0 0.0 0.07698792 
0.0 0.0 0.0 0.0 0.0 0.07698792 
0.0 0.0 0.0 0.0 0.0 0.07698792 
0.0 0.0 0.0 0.0 0.0 0.07698792 
0.0 0.0 0.0 0.0 0.0 0.07698792 
0.0 0.0 0.0 0.0 0.0 0.07698792 
0.0 0.0 0.0 0.0 0.0 0.07698792 
0.0 0.0 0.0 0.0 0.0 0.07698792 
0.0 0.0 0.0 0.0 0.0 0.07698792 
0.0 0.0 0.0 0.0 0.0 0.07698792 
0.0 0.0 0.0 0.0 0.0 0.07698792 
0.0 0.0 0.0 0.0 0.0 0.07698792 
0.0 0.0 0.0 0.0 0.0 0.07698792 
0.0 0.0 0.0 0.0 0.0 0.07698792 
0.0 0.0 0.0 0.0 0.0 0.07698792 
0.0 0.0 0.0 0.0 0.0 0.07698792 
0.0 0.0 0.0 0.0 0.0 0.07698792 
0.0 0.0 0.0 0.0 0.0 0.07698792 
0.0 0.0 0.0 0.0 0.0 0.07698792 
0.0 0.0 0.0 0.0 0.0 0.07698792 
0.0 0.0 0.0 0.0 0.0 0.07698792 
0.0 0.0 0.0 0.0 0.0 0.07698792 
0.0 0.0 0.0 0.0 0.0 0.07698792 
0.0 0.0 0.0 0.0 0.0 0.07698792 
0.0 0.0 0.0 0.0 0.0 0.07698792 
0.0 0.0 0.0 0.0 0.0 0.07698792 
0.0 0.0 0.0 0.0 0.0 0.07698792 
0.0 0.0 0.0 0.0 0.0 0.07698792 
0.0 0.0 0.0 0.0 0.0 0.07698792 
0.0 0.0 0.0 0.0 0.0 0.07698792 
0.0 0.0 0.0 0.0 0.0 0.07698792 
0.0 0.0 0.0 0.0 0.0 0.07698792 
0.0 0.0 0.0 0.0 0.0 0.07698792 
0.0 0.0 0.0 0.0 0.0 0.07698792 
0.0 0.0 0.0 0.0 0.0 0.07698792 
0.0 0.0 0.0 0.0 0.0 0.07698792 
0.0 0.0 0.0 0.0 0.0 0.07698792 
0.0 0.0 0.0 0.0 0.0 0.07698792 
0.0 0.0 0.0 0.0 0.0 0.07698792 
0.0 0.0 0.0 0.0 0.0 0.07698792 
0.0 0.0 0.0 0.0 0.0 0.07698792 
0.0 0.0 0.0 0.0 0.0 0.07698792 
0.0 0.0 0.0 0.0 0.0 0.07698792 
0.0 0.0 0.0 0.0 0.0 0.07698792 
0.0 0.0 0.0 0.0 0.0 0.07698792 
0.0 0.0 0.0 0.0 0.0 0.066051856 
0.0 0.0037428 0.0 0.0 0.0 0.033102833 
0.0 0.012807745 0.012530096 0.0 0.0 0.0 
0.008623093 0.067799255 0.018211909 0.0 0.0 0.0 
0.0 0.08092667 0.025206283 0.0 0.0 0.0 
0.014889032 0.07042182 0.07516097 0.0 0.0 0.0 
0.029582523 0.12095627 0.040024504 0.0 0.0 0.0 
0.0 0.098842576 0.038163915 0.0 0.0 0.0 
0.0 0.10528631 0.0691591 0.0 0.0 0.0 
0.0 0.12522252 0.010830604 0.0 0.0 0.0 
0.0 0.06892049 0.0 0.0 0.0 0.0 
0.0 0.05851777 0.0 0.0 0.0 0.0 
0.0 0.023720384 0.0 0.0 0.0 0.04728578 
0.0 0.0 0.0 0.0 0.0 0.07698792 
0.0 0.0 0.0 0.0 0.0 0.07698792 
0.0 0.0 0.0 0.0 0.0 0.07698792 
0.0 0.0 0.0 0.0 0.0 0.07698792 
0.0 0.0 0.0 0.0 0.0 0.07698792 
0.0 0.0 0.0 0.0 0.0 0.07698792 
0.0 0.0 0.0 0.0 0.0 0.07698792 
0.0 0.0 0.0 0.0 0.0 0.07698792 
0.0 0.0 0.0 0.0 0.0 0.07698792 
0.0 0.0 0.0 0.0 0.0 0.07698792 
0.0 0.0 0.0 0.0 0.0 0.07698792 
0.0 0.0 0.0 0.0 0.0 0.055492893 
0.09697884 0.0 0.10119929 0.0 0.0 0.0 
0.24887538 0.079629764 0.2155504 0.0 0.0 0.0 
0.32882538 0.23166794 0.3450684 0.0 0.0 0.0 
0.37997115 0.39849102 0.44643486 0.0 0.0 0.0 
0.4023528 0.5221712 0.5268537 0.0 0.0 0.0 
0.4358492 0.588628 0.54599285 0.0 0.0 0.0 
0.42204458 0.6667507 0.6177064 0.0 0.0 0.0 
0.36948222 0.7013833 0.6249447 0.0 0.0 0.0 
0.36000973 0.67819375 0.63580596 0.0 0.0 0.0 
0.37927455 0.65746087 0.6627579 0.0 0.0 0.0 
0.3909678 0.7310552 0.6288235 0.0 0.0 0.0 
0.31656745 0.74778455 0.6898743 0.0 0.0 0.0 
0.28660572 0.6847567 0.67862403 0.0 0.0 0.0 
0.27962595 0.7477275 0.5788197 0.0 0.0 0.0 
0.025837809 0.7572352 0.42985815 0.0 0.041242618 0.0 
0.0 0.48107913 0.26204565 0.0 0.15368862 0.0 
0.0 0.31027314 0.107724674 0.0 0.08644177 0.0 
0.0 0.102838114 0.0 0.0 0.049298387 0.0 
0.0 0.0 0.0 0.0 0.0 0.07698792 
0.0 0.0 0.0 0.0 0.0 0.07698792 
0.0 0.0 0.0 0.0 0.0 0.07698792 
0.0 0.0 0.0 0.0 0.0 0.07698792 
0.0 0.0 0.0 0.0 0.0 0.07698792 
0.0 0.0 0.0 0.0 0.0 0.07698792 
0.0 0.0 0.0 0.0 0.0 0.066051856 
0.031642504 0.0 0.045347102 0.0 0.0 0.001048848 
0.19147578 0.021445386 0.18127835 0.0 0.0 0.0 
0.36316985 0.13086379 0.27814347 0.0 0.0 0.0 
0.5345111 0.21647602 0.37140727 0.0 0.0 0.0 
0.72839206 0.3798422 0.4777636 0.0 0.0 0.0 
0.76701796 0.64082706 0.56831986 0.0 0.0 0.0 
0.5829882 0.8216658 0.6639013 0.0 0.0 0.0 
0.33259037 0.81446856 0.7273883 0.0 0.27681944 0.0 
0.25218987 0.71437985 0.7062972 0.0 0.41300955 0.0 
0.1621609 0.6775433 0.69553334 0.0 0.4789721 0.0 
0.10377848 0.65234816 0.7260738 0.0 0.48371837 0.0 
0.1230174 0.5893815 0.6667629 0.0 0.5328055 0.0 
0.043458678 0.5933454 0.65408224 0.075737536 0.5619023 0.0 
0.001317136 0.54371077 0.59983075 0.18545195 0.57424164 0.0 
0.008585073 0.4871179 0.6279564 0.25316313 0.5737823 0.0 
0.0 0.53322434 0.654543 0.28232166 0.50943553 0.0 
0.0 0.5377864 0.60687655 0.21687919 0.52983946 0.0 
0.0 0.70192343 0.70619094 0.14491856 0.67044586 0.0 
0.0 0.6682518 0.56603354 0.022412475 0.6228221 0.0 
0.0 0.31401488 0.3666981 0.0 0.45128497 0.0 
0.0 0.0 0.053248033 0.0 0.23057382 0.0057555586 
0.0 0.0 0.0 0.0 0.0 0.07698792 
0.0 0.0 0.0 0.0 0.0 0.07698792 
0.0 0.0 0.0 0.0 0.0 0.07698792 
0.0 0.0 0.0 0.0 0.0 0.07698792 
0.0 0.0 0.0 0.0 0.0 0.07698792 
0.0 0.0 0.0 0.0 0.0 0.055492893 
0.1699172 0.0 0.15663233 0.0 0.0 0.0 
0.46268034 0.042464226 0.23462248 0.0 0.0 0.0 
0.6562297 0.14233339 0.3500326 0.0 0.0 0.0 
0.8521474 0.39299634 0.43675834 0.0 0.0 0.0 
0.7786643 0.547273 0.38362795 0.0 0.049875665 0.0 
0.5454239 0.53174967 0.4343655 0.0 0.5285754 0.0 
0.28080863 0.4780664 0.48046243 0.3506756 1.018314 0.0 
0.030971937 0.5093527 0.64211607 0.93041307 1.3136393 0.13899706 
0.0 0.53519034 0.75367224 1.2505579 1.3925849 0.29481217 
0.0 0.47037503 0.7368431 1.3539132 1.3539134 0.42892593 
0.0 0.40888584 0.63880926 1.3750751 1.2809919 0.50658274 
5.19827e-05 0.45480865 0.6497313 1.4423163 1.1503912 0.51688653 
0.01179263 0.45024273 0.67454225 1.4822872 1.1962365 0.58535975 
0.0 0.4557193 0.58641595 1.4283968 1.2262509 0.5951461 
0.0 0.40594217 0.55475473 1.4259946 1.1149813 0.57557774 
0.0 0.27478647 0.5411065 1.4319043 1.0697842 0.6374081 
0.0 0.30943337 0.5666389 1.4435068 0.997114 0.6030165 
0.0 0.3434918 0.5743052 1.3765124 0.92235315 0.46044552 
0.0 0.5793556 0.8007493 1.2200326 0.81123847 0.21718992 
0.0 0.59004503 0.864017 0.92547685 0.6227911 0.13301437 
0.0 0.4261257 0.65765584 0.49322984 0.3036526 0.16643135 
0.0 0.18718073 0.26138636 0.16847062 0.050908286 0.06706969 
0.0 0.0 0.0 0.0 0.0 0.07698792 
0.0 0.0 0.0 0.0 0.0 0.07698792 
0.0 0.0 0.0 0.0 0.0 0.07698792 
0.0 0.0 0.0 0.0 0.0 0.07698792 
0.0 0.0 0.0 0.0 0.0 0.07698792 
0.10922335 0.0 0.098808594 0.0 0.0 0.0060686246 
0.5886686 0.0 0.12739477 0.0 0.0 0.0 
0.9504451 0.0 0.19961262 0.0 0.0 0.0 
1.1042099 0.23034094 0.2523633 0.0 0.0 0.0 
0.72515595 0.70685345 0.49648613 0.0 0.6364994 0.0 
0.19166812 0.83372813 0.5128494 0.52106196 1.4945775 0.0 
0.0 0.94140476 0.3934189 1.0923771 1.7790464 0.50288206 
0.0 0.8805732 0.24794647 1.3836666 1.7703542 0.96581256 
0.0 0.8875807 0.14241937 1.4572623 1.5100743 1.2153263 
0.015152752 0.994101 0.18920633 1.4259866 1.2266346 1.3551254 
0.07379715 0.8967683 0.088916905 1.1918168 1.1138015 1.4186156 
0.08850312 0.8350505 0.0 1.0197479 0.9922376 1.3708107 
0.063245475 0.7238624 0.0 0.8903307 0.92961776 1.3540869 
0.06415248 0.75387985 0.0 0.78039724 0.9610346 1.3544922 
0.01941678 0.7616847 0.0 0.70684314 0.86796343 1.303308 
0.019319497 0.70914143 0.0 0.574952 0.74047405 1.297915 
0.083744645 0.65148157 0.0 0.4888371 0.72324926 1.3134849 
0.04968071 0.6137496 0.0 0.49068508 0.6293282 1.2680767 
0.0 0.64747596 0.0 0.47210792 0.54134613 1.1676881 
0.0 0.6368037 0.0 0.3491461 0.4052391 0.861414 
0.0 0.4606407 0.41504627 0.33576444 0.14701529 0.48821992 
0.0 0.26666728 0.5172301 0.26947454 0.022026274 0.30280432 
0.0 0.13985325 0.2894598 0.14528361 0.0 0.12765543 
0.0 0.0 0.0 0.0 0.0 0.07698792 
0.0 0.0 0.0 0.0 0.0 0.07698792 
0.0 0.0 0.0 0.0 0.0 0.07698792 
0.0 0.0 0.0 0.0 0.0 0.07698792 
0.0 0.0 0.0 0.0 0.0 0.07698792 
0.29666504 0.0 0.0063721016 0.0 0.0 0.09735262 
1.1405067 0.0 0.016881205 0.0 0.0 0.10332424 
1.3375075 0.021235406 0.0 0.13332546 0.06973867 0.0 
0.82250774 0.7550031 0.09684271 0.60350627 0.9196786 0.0 
0.08736588 1.2941501 0.3643976 0.829655 1.946072 0.3593017 
0.0 1.3578025 0.26846802 1.0011607 2.2136595 0.8933531 
0.0 1.0083153 0.0 0.8638581 1.8896102 1.3283651 
0.035531133 0.666028 0.0 0.33258474 1.5738689 1.4257379 
0.12855168 0.26511022 0.0 0.0 1.2911774 1.2869864 
0.07617006 0.0 0.0 0.0 1.1985074 1.1481581 
0.09969635 0.0 0.0 0.0 1.1910167 1.0593753 
0.09660342 0.0 0.0 0.0 1.1701905 0.94549316 
0.14102148 0.0 0.0 0.0 1.1250359 0.8796058 
0.09778598 0.0 0.0 0.0 1.0938493 0.79373187 
0.05479276 0.0 0.0 0.0 1.0280775 0.682962 
0.10234837 0.0 0.0 0.0 0.9979047 0.63671905 
0.10061249 0.0 0.0 0.0 0.98734635 0.5904964 
0.14529131 0.0 0.0 0.0 0.9775582 0.57591033 
0.092654854 0.0 0.0 0.0 0.8964774 0.5406344 
0.0 0.0 0.0 0.0 0.55749637 0.385346 
0.0 0.0 0.0 0.0 0.32854235 0.26583362 
0.0 0.0 0.0 0.0 0.18858261 0.21246068 
0.0 0.0 0.06037096 0.0 0.03506935 0.092055656 
0.0 0.0 0.0 0.0 0.0 0.07698792 
0.0 0.0 0.0 0.0 0.0 0.07698792 
0.0 0.0 0.0 0.0 0.0 0.07698792 
0.0 0.0 0.0 0.0 0.0 0.07698792 
0.0 0.0 0.0 0.0 0.0 0.07698792 
0.55731165 0.0 0.0 0.046109457 0.0 0.34806228 
1.5838714 0.0 0.0 0.29725686 0.0 0.53177613 
1.5032022 0.44200674 0.0 0.41092435 0.91757333 0.34931052 
0.5045387 1.4271203 0.0 0.4975426 1.8507231 0.41857424 
0.0 1.5100169 0.044906422 0.20604318 2.4604082 0.7209134 
0.0 0.74793285 0.0 0.0 2.0671198 0.95142823 
0.0 0.13061415 0.0 0.0 1.194508 0.934187 
0.0 0.0 0.0 0.0 0.9311853 0.679722 
0.0 0.0 0.0 0.0 0.66071695 0.45563918 
0.0 0.0 0.0 0.0 0.5041957 0.3486483 
0.0 0.0 0.0 0.0 0.41077974 0.3051466 
0.0 0.0 0.0 0.0 0.28937465 0.23369692 
0.0 0.0 0.0 0.0 0.22053526 0.21064179 
0.0 0.0 0.0 0.0 0.12429306 0.17244247 
0.0 0.0 0.0 0.0 0.048419308 0.122691765 
0.0 0.0 0.0 0.0 0.004923526 0.11473893 
0.0 0.0 0.0 0.0 0.0 0.081325606 
0.0 0.0 0.0 0.0 0.0 0.07698792 
0.0 0.0 0.0 0.0 0.0 0.07698792 
0.0 0.0 0.0 0.0 0.0 0.07698792 
0.0 0.0 0.0 0.0 0.0 0.07698792 
0.0 0.0 0.0 0.0 0.0 0.07698792 
0.0 0.0 0.0 0.0 0.0 0.07698792 
0.0 0.0 0.0 0.0 0.0 0.07698792 
0.0 0.0 0.0 0.0 0.0 0.07698792 
0.0 0.0 0.0 0.0 0.0 0.07698792 
0.0 0.0 0.0 0.0 0.0 0.07698792 
0.0 0.0 0.0 0.0 0.0 0.07698792 
0.73413604 0.0 0.0 0.19085123 0.0 0.65280133 
1.8596756 0.0 0.0 0.22715372 0.42124054 1.1024873 
1.5288687 0.54944056 0.0 0.16313033 1.3365802 0.49941894 
0.329666 1.3813384 0.0 0.0 1.8570237 0.22940853 
0.0 1.3786165 0.59055865 0.0 1.9254498 0.1561583 
0.0 0.4820474 0.44951165 0.0 1.1498628 0.0 
0.0 0.039465386 0.26012063 0.0 0.25608858 0.0 
0.0 0.09197877 0.44271576 0.0 0.016700435 0.0 
0.13081805 0.21358572 0.38885015 0.0 0.0 0.0 
0.15696648 0.40830237 0.27603573 0.0 0.0 0.0 
0.004640229 0.40558067 0.1846888 0.0 0.0 0.0 
0.0 0.29089668 0.11373731 0.0 0.03162841 0.0 
0.0 0.16333291 0.025238596 0.0 0.036724377 0.0 
0.0 0.03999282 0.0 0.0 0.0 0.032174166 
0.0 0.0 0.0 0.0 0.0 0.07698792 
0.0 0.0 0.0 0.0 0.0 0.07698792 
0.0 0.0 0.0 0.0 0.0 0.07698792 
0.0 0.0 0.0 0.0 0.0 0.07698792 
0.0 0.0 0.0 0.0 0.0 0.07698792 
0.0 0.0 0.0 0.0 0.0 0.07698792 
0.0 0.0 0.0 0.0 0.0 0.07698792 
0.0 0.0 0.0 0.0 0.0 0.07698792 
0.0 0.0 0.0 0.0 0.0 0.07698792 
0.0 0.0 0.0 0.0 0.0 0.07698792 
0.0 0.0 0.0 0.0 0.0 0.07698792 
0.0 0.0 0.0 0.0 0.0 0.07698792 
0.0 0.0 0.0 0.0 0.0 0.07698792 
0.0 0.0 0.0 0.0 0.0 0.07698792 
0.7563747 0.0 0.0 0.13076706 0.29888555 0.8155914 
1.681421 0.0 0.0 0.2426799 0.74748117 1.4117382 
1.272399 0.15624994 0.0 0.09874936 1.0592221 0.58474547 
0.42058837 0.9840966 0.0 0.0 1.1038417 0.015799746 
0.0 1.3296754 1.7807891 0.0 0.96976453 0.0 
0.0 0.9520406 1.5935208 0.0 0.6110642 0.0 
0.2760415 0.5483195 0.77495146 0.0 0.061363477 0.0 
0.4950825 0.65262145 0.79838955 0.0 0.0 0.0 
0.5596268 0.8194937 0.79451466 0.0 0.0 0.0 
0.42002308 0.97321624 0.9269649 0.0 0.05206226 0.0 
0.16984555 1.0638945 0.9348605 0.0 0.23762275 0.0 
0.0 1.0405914 0.71507365 0.0 0.33738825 0.0 
0.0 0.65945023 0.47131485 0.0 0.36031747 0.0 
0.0 0.34994495 0.18546343 0.0 0.21024428 0.0 
0.0 0.14424685 0.0016191602 0.0 0.065431565 0.0 
0.0 0.00800906 0.0 0.0 0.0 0.061876304 
0.0 0.0 0.0 0.0 0.0 0.07698792 
0.0 0.0 0.0 0.0 0.0 0.07698792 
0.0 0.0 0.0 0.0 0.0 0.07698792 
0.0 0.0 0.0 0.0 0.0 0.07698792 
0.0 0.0 0.0 0.0 0.0 0.07698792 
0.0 0.0 0.0 0.0 0.0 0.07698792 
0.0 0.0 0.0 0.0 0.0 0.07698792 
0.0 0.0 0.0 0.0 0.0 0.07698792 
0.0 0.0 0.0 0.0 0.0 0.07698792 
0.0 0.0 0.0 0.0 0.0 0.07698792 
0.0 0.0 0.0 0.0 0.0 0.07698792 
0.0 0.0 0.0 0.0 0.0 0.07698792 
0.568989 0.0 0.0 0.05173194 0.42839274 0.67854434 
1.2894192 0.0 0.0 0.14819941 0.89719635 1.4327083 
0.8548949 0.0 0.0 0.3064259 0.80811906 1.0701168 
0.4704268 0.15448286 0.0 0.552844 0.7533154 0.6848364 
0.016757913 0.73955834 1.3948572 0.8958272 0.8873196 0.47451234 
0.0 0.745471 1.6365494 0.7258379 0.9231614 0.0 
0.14079243 0.50646454 0.75436926 0.50784284 0.7754503 0.0 
0.1722767 0.40812045 0.61177474 0.6031934 0.8398393 0.054670095 
0.18417826 0.38710725 0.69002616 0.791386 0.860819 0.070544586 
0.19348294 0.58015764 1.0169944 0.7516184 0.8017399 0.0 
0.180278 0.9104338 1.3318042 0.46244732 0.6710911 0.0 
0.0 1.2523916 1.4731596 0.0 0.70104265 0.0 
0.0 1.3696139 1.2057488 0.0 0.71447736 0.0 
0.0 0.91751826 0.8134786 0.0 0.63335836 0.0 
0.0 0.32596183 0.2586515 0.0 0.43559942 0.0 
0.0 0.08609647 0.0 0.0 0.07639295 0.0 
0.0 0.0 0.0 0.0 0.0 0.07698792 
0.0 0.0 0.0 0.0 0.0 0.07698792 
0.0 0.0 0.0 0.0 0.0 0.07698792 
0.0 0.0 0.0 0.0 0.0 0.07698792 
0.0 0.0 0.0 0.0 0.0 0.07698792 
0.0 0.0 0.0 0.0 0.0 0.07698792 
0.0 0.0 0.0 0.0 0.0 0.07698792 
0.0 0.0 0.0 0.0 0.0 0.07698792 
0.0 0.0 0.0 0.0 0.0 0.07698792 
0.0 0.0 0.0 0.0 0.0 0.07698792 
0.0 0.0 0.0 0.0 0.0 0.07698792 
0.0 0.0 0.0 0.0 0.0 0.07698792 
0.30155325 0.0 0.0 0.0 0.34973007 0.39836752 
0.91983384 0.0 0.0 0.0 0.8512377 1.1007006 
0.7816437 0.0 0.0 0.09830097 0.8720081 1.2413764 
0.42435458 0.0 0.0 0.45505843 0.9407212 1.1578443 
0.10428539 0.024584725 0.079978175 1.107682 1.2371974 1.1705248 
0.0 0.45843765 0.87360233 1.5948844 1.2922715 0.9250224 
0.011966787 0.61593306 0.5810359 1.6807953 1.2595526 0.94304776 
0.081507295 0.49053738 0.2803596 1.5937245 1.3452977 1.046375 
0.21094021 0.52386427 0.17623463 1.6750108 1.2003235 1.1524677 
0.26536888 0.44944793 0.28256854 1.6739668 1.0577804 1.149961 
0.43667364 0.3915362 0.8225866 1.5847223 0.769746 0.82624626 
0.49693245 0.97461945 1.4576844 1.2889374 0.6049386 0.05349485 
0.0 1.5801743 1.7601262 0.7352169 0.8604115 0.0 
0.0 1.498953 1.610179 0.03192435 0.9067057 0.0 
0.0 0.8876866 0.94219047 0.0 0.7173281 0.0 
0.0 0.18310517 0.14874685 0.0 0.34536955 0.0 
0.0 0.00800906 0.0 0.0 0.0 0.061876304 
0.0 0.0 0.0 0.0 0.0 0.07698792 
0.0 0.0 0.0 0.0 0.0 0.07698792 
0.0 0.0 0.0 0.0 0.0 0.07698792 
0.0 0.0 0.0 0.0 0.0 0.07698792 
0.0 0.0 0.0 0.0 0.0 0.07698792 
0.0 0.0 0.0 0.0 0.0 0.07698792 
0.0 0.0 0.0 0.0 0.0 0.07698792 
0.0 0.0 0.0 0.0 0.0 0.07698792 
0.0 0.0 0.0 0.0 0.0 0.07698792 
0.0 0.0 0.0 0.0 0.0 0.07698792 
0.0 0.0 0.0 0.0 0.0 0.07698792 
0.058086976 0.0 0.0 0.0 0.14212875 0.16424945 
0.45901245 0.0 0.0 0.0 0.50992113 0.5455055 
0.651714 0.0 0.0 0.0 0.7729427 0.954307 
0.52761084 0.0 0.0 0.0 0.91105354 1.2406964 
0.3279055 0.13466774 0.0 0.0044343146 1.0401243 1.392381 
0.057010025 0.33135423 0.0 0.29431707 1.1311977 1.4063065 
0.13529393 0.4723123 0.0 0.3376272 1.1328195 1.492326 
0.23515537 0.46015227 0.0 0.23069072 1.1131835 1.4758868 
0.3233994 0.2519088 0.0 0.10067638 1.1298164 1.5620558 
0.41975534 0.079781085 0.0 0.23586947 1.1335174 1.7123654 
0.6300786 0.0 0.0 0.48978752 0.80080974 1.64907 
0.7555235 0.12514986 0.0 0.6721687 0.62388283 1.0112395 
0.2342659 1.1241599 1.0984999 0.7455693 0.8111604 0.01623017 
0.0 1.7641069 1.9223967 0.54891235 0.90513843 0.0 
0.0 1.42024 1.749271 0.0018766122 0.94617385 0.0 
0.0 0.43999702 0.5493752 0.0 0.57419413 0.0 
0.0 0.03896251 0.0 0.0 0.03068601 0.021741144 
0.0 0.0 0.0 0.0 0.0 0.07698792 
0.0 0.0 0.0 0.0 0.0 0.07698792 
0.0 0.0 0.0 0.0 0.0 0.07698792 
0.0 0.0 0.0 0.0 0.0 0.07698792 
0.0 0.0 0.0 0.0 0.0 0.07698792 
0.0 0.0 0.0 0.0 0.0 0.07698792 
0.0 0.0 0.0 0.0 0.0 0.07698792 
0.0 0.0 0.0 0.0 0.0 0.07698792 
0.0 0.0 0.0 0.0 0.0 0.07698792 
0.0 0.0 0.0 0.0 0.0 0.07698792 
0.0 0.0 0.0 0.0 0.0 0.07698792 
0.0 0.0 0.0 0.0 0.0 0.07698792 
0.110723466 0.0 0.0 0.0 0.22320952 0.19952539 
0.33444628 0.0 0.0 0.0 0.51278996 0.38220903 
0.42706317 0.0 0.0 0.0 0.72273725 0.545434 
0.34318316 0.0 0.0 0.0 0.9246338 0.6744881 
0.14018239 0.0 0.0 0.0 0.99402076 0.65366286 
0.12517904 0.0 0.0 0.0 0.99846834 0.6530707 
0.07788116 0.0 0.0 0.0 0.9923263 0.5979174 
0.2011567 0.0 0.0 0.0 0.9959275 0.6420328 
0.45493263 0.0 0.0 0.0 1.0357819 0.84986204 
1.1468344 0.0 0.0 0.0 0.94048905 1.2568071 
1.4502227 0.0 0.0 0.0 0.7087707 1.0811996 
0.6325396 0.58905655 0.0 0.0 0.97693616 0.08319844 
0.0 1.4659592 1.2118552 0.13587728 1.2645279 0.0 
0.0 1.4261596 2.051231 0.18303335 1.2442616 0.0 
0.0 0.65416265 1.0249655 0.0058650346 0.72837716 0.0 
0.0 0.017306868 0.03732025 0.0 0.08310716 0.044595946 
0.0 0.0 0.0 0.0 0.0 0.07698792 
0.0 0.0 0.0 0.0 0.0 0.07698792 
0.0 0.0 0.0 0.0 0.0 0.07698792 
0.0 0.0 0.0 0.0 0.0 0.07698792 
0.0 0.0 0.0 0.0 0.0 0.07698792 
0.0 0.0 0.0 0.0 0.0 0.07698792 
0.0 0.0 0.0 0.0 0.0 0.07698792 
0.0 0.0 0.0 0.0 0.0 0.07698792 
0.0 0.0 0.0 0.0 0.0 0.07698792 
0.0 0.0 0.0 0.0 0.0 0.07698792 
0.0 0.0 0.0 0.0 0.0 0.07698792 
0.0 0.0 0.0 0.0 0.0 0.07698792 
0.0 0.0 0.0 0.0 0.0 0.07698792 
0.0 0.0 0.0 0.0 0.0 0.09493533 
0.028192565 0.0 0.0 0.0 0.09306194 0.14687403 
0.0 0.0 0.0 0.0 0.04322323 0.129325 
0.0 0.0 0.0 0.0 0.0050636344 0.10265702 
0.0 0.0 0.0 0.0 0.0102416165 0.1296079 
0.0 0.0 0.039487295 0.0 0.0 0.062037468 
0.16766122 0.0 0.07790575 0.0 0.0 0.0 
0.5920953 0.0 0.0 0.0 0.0 0.0 
1.4660008 0.0 0.0 0.0 0.12688471 0.16419 
1.9523194 0.0 0.0 0.0 0.71613544 0.41108862 
0.75939846 0.9305203 0.0 0.0 1.4115391 0.0 
0.0 1.4078795 0.40160534 0.0 1.670399 0.0 
0.0 1.1593717 1.8042576 0.29375538 1.4612759 0.117038876 
0.0 0.44109324 1.2106422 0.23736191 0.72694784 0.073766604 
0.0 0.098320335 0.13183552 0.09300897 0.0 0.080101 
0.0 0.0 0.0 0.0 0.0 0.07698792 
0.0 0.0 0.0 0.0 0.0 0.07698792 
0.0 0.0 0.0 0.0 0.0 0.07698792 
0.0 0.0 0.0 0.0 0.0 0.07698792 
0.0 0.0 0.0 0.0 0.0 0.07698792 
0.0 0.0 0.0 0.0 0.0 0.07698792 
0.0 0.0 0.0 0.0 0.0 0.07698792 
0.0 0.0 0.0 0.0 0.0 0.07698792 
0.0 0.0 0.0 0.0 0.0 0.07698792 
0.0 0.0 0.0 0.0 0.0 0.07698792 
0.0 0.0 0.0 0.0 0.0 0.07698792 
0.0 0.0 0.0 0.0 0.0 0.07698792 
0.0 0.0 0.0 0.0 0.0 0.07698792 
0.0 0.0 0.0 0.0 0.0 0.07698792 
0.0 0.0 0.0 0.0 0.0 0.07698792 
0.0 0.0 0.0 0.0 0.0 0.07698792 
0.0 0.0 0.0 0.0 0.0 0.055492893 
0.078288466 0.0 0.077910446 0.0 0.0 0.0 
0.27296305 0.007892816 0.20235756 0.0 0.0 0.0 
0.5529278 0.07684752 0.28170088 0.0 0.0 0.0 
0.8867909 0.09493646 0.31201643 0.0 0.0 0.0 
1.498522 0.07058566 0.0 0.0 0.27099162 0.0 
1.4822247 0.48842815 0.0 0.0 1.5210296 0.2688897 
0.08637571 1.2934058 0.0 0.0736427 2.0533302 0.15581954 
0.0 1.263093 0.16987482 0.26290452 1.8557962 0.32693607 
0.0 0.7321523 1.3155695 0.35608608 1.2344838 0.52693045 
0.0 0.27281252 1.0301025 0.26414558 0.40660706 0.20467329 
0.0 0.034920704 0.11047562 0.04879882 0.0 0.101201914 
0.0 0.0 0.0 0.0 0.0 0.07698792 
0.0 0.0 0.0 0.0 0.0 0.07698792 
0.0 0.0 0.0 0.0 0.0 0.07698792 
0.0 0.0 0.0 0.0 0.0 0.07698792 
0.0 0.0 0.0 0.0 0.0 0.07698792 
0.0 0.0 0.0 0.0 0.0 0.07698792 
0.0 0.0 0.0 0.0 0.0 0.07698792 
0.0 0.0 0.0 0.0 0.0 0.07698792 
0.0 0.0 0.0 0.0 0.0 0.07698792 
0.0 0.0 0.0 0.0 0.0 0.07698792 
0.0 0.0 0.011592098 0.0 0.0 0.04455683 
0.07313019 0.027341157 0.04501114 0.0 0.0 0.0 
0.06978381 0.08047108 0.08343723 0.0 0.0 0.0 
0.08059791 0.1566772 0.13470206 0.0 0.0 0.0 
0.08456758 0.19608244 0.1730954 0.0 0.0 0.0 
0.1859957 0.18112172 0.27391917 0.0 0.0 0.0 
0.35626113 0.22962868 0.32802886 0.0 0.0 0.0 
0.5070253 0.26952124 0.394778 0.0 0.0 0.0 
0.7745289 0.2868568 0.4107859 0.0 0.0 0.0 
1.002856 0.33680007 0.37407124 0.0 0.0 0.0 
0.95880884 0.50592875 0.26932234 0.0 0.40312448 0.0 
0.82544094 0.62532 0.050368227 0.2686642 1.5245107 0.12667567 
0.34331957 1.007755 0.0 0.6172713 2.4129024 0.72886056 
0.0 1.1557658 0.0 0.57917494 2.1879249 0.7514576 
0.0 0.8223942 0.27113068 0.41792294 1.3285741 0.6698673 
0.0 0.34245986 0.86460197 0.22602178 0.65422523 0.5333621 
0.0 0.054946676 0.60459876 0.08683901 0.20825751 0.20775211 
0.0 0.0 0.0 0.0 0.0 0.08353249 
0.0 0.0 0.0 0.0 0.0 0.07698792 
0.0 0.0 0.0 0.0 0.0 0.07698792 
0.0 0.0 0.0 0.0 0.0 0.07698792 
0.0 0.0 0.0 0.0 0.0 0.07698792 
0.0 0.0 0.0 0.0 0.0 0.07698792 
0.0 0.0 0.0 0.0 0.0 0.07698792 
0.0 0.0 0.0 0.0 0.0 0.07698792 
0.0 0.0 0.0 0.0 0.0 0.07698792 
0.0 0.0 0.0 0.0 0.0 0.07698792 
0.0 0.0 0.0 0.0 0.0 0.07698792 
0.072597384 0.0 0.017720766 0.0 0.0 0.04540141 
0.39702302 0.0 0.20314044 0.0 0.0 0.0 
0.5743195 0.18840748 0.32194385 0.0 0.0 0.0 
0.5126273 0.5276925 0.579232 0.0 0.0 0.0 
0.4041313 0.684437 0.7089739 0.0 0.0 0.0 
0.43456864 0.68691856 0.62498325 0.0 0.0 0.0 
0.5826687 0.5252009 0.59279114 0.0 0.0 0.0 
0.7579292 0.5270129 0.47870088 0.0 0.06674722 0.0 
0.6910693 0.5034777 0.37843207 0.0 0.4878737 0.0 
0.52701795 0.5731027 0.30748126 0.43339276 1.1184098 0.026008591 
0.3093501 0.8242555 0.09806908 0.8933665 1.8715593 0.5553068 
0.0068234727 1.0244966 0.0 1.022628 2.3113568 1.0448406 
0.0 0.9264843 0.0 0.6956227 2.1902063 1.1673865 
0.0 0.770426 0.0 0.3696384 1.288532 0.9049533 
0.0 0.3072285 0.25742757 0.05457138 0.5938322 0.61096984 
0.0 0.010870497 0.46607333 0.0 0.31622466 0.37801173 
0.0 0.0 0.24498254 0.0 0.076756656 0.11840044 
0.0 0.0 0.0 0.0 0.0 0.07698792 
0.0 0.0 0.0 0.0 0.0 0.07698792 
0.0 0.0 0.0 0.0 0.0 0.07698792 
0.0 0.0 0.0 0.0 0.0 0.07698792 
0.0 0.0 0.0 0.0 0.0 0.07698792 
0.0 0.0 0.0 0.0 0.0 0.07698792 
0.0 0.0 0.0 0.0 0.0 0.07698792 
0.0 0.0 0.0 0.0 0.0 0.07698792 
0.0 0.0 0.0 0.0 0.0 0.07698792 
0.0 0.0 0.0 0.0 0.0 0.07698792 
0.0 0.0 0.0 0.0 0.0 0.07698792 
0.11112656 0.0 0.0 0.03925971 0.0 0.20260586 
0.41254798 0.0 0.0 0.17144807 0.0 0.27773947 
0.62290937 0.0 0.0 0.36341053 0.0 0.19473557 
0.52800864 0.21456729 0.23432511 0.55161476 0.18694195 0.13364978 
0.23159581 0.4463183 0.5936573 0.5979857 0.52774686 0.0640955 
0.16614404 0.34362847 0.6065123 0.6101707 0.8169227 0.12878716 
0.21949011 0.31694368 0.47871268 0.8014323 0.95467407 0.24212149 
0.18915999 0.38558602 0.40135348 1.1020023 1.2584301 0.4244321 
0.18201476 0.5718172 0.21344379 1.3307099 1.6864346 0.774882 
0.1432876 0.85589516 0.0 1.3184917 2.0035102 1.1125982 
0.0 0.9085025 0.0 0.9754537 2.094398 1.251976 
0.0 0.6774802 0.0 0.42837155 1.7734176 1.2488265 
0.0 0.47366735 0.0 0.06350352 1.0983503 0.96451795 
0.0 0.03775058 0.0 0.0 0.5865405 0.57558346 
0.0 0.0 0.09598442 0.0 0.31454727 0.35143346 
0.0 0.0 0.11917386 0.0 0.12676202 0.16139252 
0.0 0.0 0.0 0.0 0.0 0.08353249 
0.0 0.0 0.0 0.0 0.0 0.07698792 
0.0 0.0 0.0 0.0 0.0 0.07698792 
0.0 0.0 0.0 0.0 0.0 0.07698792 
0.0 0.0 0.0 0.0 0.0 0.07698792 
0.0 0.0 0.0 0.0 0.0 0.07698792 
0.0 0.0 0.0 0.0 0.0 0.07698792 
0.0 0.0 0.0 0.0 0.0 0.07698792 
0.0 0.0 0.0 0.0 0.0 0.07698792 
0.0 0.0 0.0 0.0 0.0 0.07698792 
0.0 0.0 0.0 0.0 0.0 0.07698792 
0.0 0.0 0.0 0.0 0.0 0.07698792 
0.16787398 0.0 0.0 0.12764928 0.011199746 0.32468352 
0.45575517 0.0 0.0 0.33568472 0.21596842 0.6239358 
0.44618297 0.0 0.0 0.7025426 0.49338576 0.66618115 
0.31448403 0.0 0.0 1.1125046 0.8083201 0.764131 
0.14129047 0.3018159 0.24565476 1.479772 1.0373759 0.8704085 
0.13063371 0.5516524 0.3688705 1.6308082 1.1408246 0.9483053 
0.22288716 0.6122251 0.12414434 1.5445398 1.3142354 1.1787996 
0.25344577 0.76458997 0.0 1.3270931 1.4460399 1.352026 
0.25438052 0.768773 0.0 0.9390132 1.5834523 1.3979807 
0.107251406 0.6526105 0.0 0.45461735 1.5364614 1.3910522 
0.0 0.37751332 0.0 0.0 1.2317818 1.0950925 
0.0 0.05331952 0.0 0.0 0.7682708 0.7338049 
0.0 0.0 0.0 0.0 0.44580057 0.4488624 
0.0 0.0 0.015538193 0.0 0.23795904 0.24737883 
0.0 0.0 0.0106646195 0.0 0.0715131 0.12546898 
0.0 0.0 0.0 0.0 0.0 0.081325606 
0.0 0.0 0.0 0.0 0.0 0.07698792 
0.0 0.0 0.0 0.0 0.0 0.07698792 
0.0 0.0 0.0 0.0 0.0 0.07698792 
0.0 0.0 0.0 0.0 0.0 0.07698792 
0.0 0.0 0.0 0.0 0.0 0.07698792 
0.0 0.0 0.0 0.0 0.0 0.07698792 
0.0 0.0 0.0 0.0 0.0 0.07698792 
0.0 0.0 0.0 0.0 0.0 0.07698792 
0.0 0.0 0.0 0.0 0.0 0.07698792 
0.0 0.0 0.0 0.0 0.0 0.07698792 
0.0 0.0 0.0 0.0 0.0 0.07698792 
0.0 0.0 0.0 0.0 0.0 0.07698792 
0.14549074 0.0 0.0 0.036221597 0.109332785 0.29377747 
0.42335346 0.0 0.0 0.09684817 0.38198334 0.6912727 
0.43498498 0.14964908 0.0 0.0687983 0.61006373 0.97048146 
0.38022202 0.30478808 0.0 0.09812187 0.74155253 1.2128787 
0.25155988 0.37230003 0.0 0.19149175 0.8673261 1.3652785 
0.20249492 0.35451344 0.0 0.10476687 1.0469894 1.3812492 
0.24353743 0.241077 0.0 0.0 1.1254622 1.3362577 
0.20149857 0.06225068 0.0 0.0 1.1664492 1.2252882 
0.0 0.0 0.0 0.0 1.0927207 0.9807735 
0.0 0.0 0.0 0.0 0.83281803 0.709712 
0.0 0.0 0.0 0.0 0.5029684 0.44739985 
0.0 0.0 0.0 0.0 0.28085306 0.26237324 
0.0 0.0 0.0 0.0 0.12118031 0.1610131 
0.0 0.0 0.010377236 0.0 0.0 0.08566328 
0.0 0.0 0.0 0.0 0.0 0.07698792 
0.0 0.0 0.0 0.0 0.0 0.07698792 
0.0 0.0 0.0 0.0 0.0 0.07698792 
0.0 0.0 0.0 0.0 0.0 0.07698792 
0.0 0.0 0.0 0.0 0.0 0.07698792 
0.0 0.0 0.0 0.0 0.0 0.07698792 
0.0 0.0 0.0 0.0 0.0 0.07698792 
0.0 0.0 0.0 0.0 0.0 0.07698792 
0.0 0.0 0.0 0.0 0.0 0.07698792 
0.0 0.0 0.0 0.0 0.0 0.07698792 
0.0 0.0 0.0 0.0 0.0 0.07698792 
0.0 0.0 0.0 0.0 0.0 0.07698792 
0.0 0.0 0.0 0.0 0.0 0.07698792 
0.0 0.0 0.0 0.0 0.0 0.07698792 
0.058086976 0.0 0.0 0.0 0.14212875 0.16424945 
0.2649537 0.0 0.0 0.0 0.446112 0.31581682 
0.32876143 0.0 0.0 0.0 0.6344923 0.39553234 
0.29851443 0.0 0.0 0.0 0.7842427 0.48967826 
0.2082155 0.0 0.0 0.0 0.9237198 0.56723493 
0.06679833 0.0 0.0 0.0 0.85664827 0.52330583 
0.0055538565 0.0 0.0 0.0 0.7711529 0.47446674 
0.0 0.0 0.0 0.0 0.60722685 0.41391262 
0.0 0.0 0.0 0.0 0.346059 0.26259786 
0.0 0.0 0.0 0.0 0.17549925 0.19824797 
0.0 0.0 0.0 0.0 0.07683118 0.14033794 
0.0 0.0 0.0 0.0 0.0 0.08353249 
0.0 0.0 0.0 0.0 0.0 0.07698792 
0.0 0.0 0.0 0.0 0.0 0.07698792 
0.0 0.0 0.0 0.0 0.0 0.07698792 
0.0 0.0 0.0 0.0 0.0 0.07698792 
0.0 0.0 0.0 0.0 0.0 0.07698792 
0.0 0.0 0.0 0.0 0.0 0.07698792 
0.0 0.0 0.0 0.0 0.0 0.07698792 
0.0 0.0 0.0 0.0 0.0 0.07698792 
0.0 0.0 0.0 0.0 0.0 0.07698792 
0.0 0.0 0.0 0.0 0.0 0.07698792 
0.0 0.0 0.0 0.0 0.0 0.07698792 
0.0 0.0 0.0 0.0 0.0 0.07698792 
0.0 0.0 0.0 0.0 0.0 0.07698792 
0.0 0.0 0.0 0.0 0.0 0.07698792 
0.0 0.0 0.0 0.0 0.0 0.07698792 
0.0 0.0 0.0 0.0 0.0 0.07698792 
0.0 0.0 0.0 0.0 0.0 0.07698792 
0.0 0.0 0.0 0.0 0.0 0.07698792 
0.0 0.0 0.0 0.0 0.0 0.07698792 
0.0 0.0 0.0 0.0 0.0 0.07698792 
0.0 0.0 0.0 0.0 0.0 0.07698792 
0.0 0.0 0.0 0.0 0.0 0.07698792 
0.0 0.0 0.0 0.0 0.0 0.07698792 
0.0 0.0 0.0 0.0 0.0 0.07698792 
0.0 0.0 0.0 0.0 0.0 0.07698792 
0.0 0.0 0.0 0.0 0.0 0.07698792 
0.0 0.0 0.0 0.0 0.0 0.07698792 
0.0 0.0 0.0 0.0 0.0 0.07698792 
0.0 0.0 0.0 0.0 0.0 0.07698792 
0.0 0.0 0.0 0.0 0.0 0.07698792 
0.0 0.0 0.0 0.0 0.0 0.07698792 
0.0 0.0 0.0 0.0 0.0 0.07698792 
0.0 0.0 0.0 0.0 0.0 0.07698792 
0.0 0.0 0.0 0.0 0.0 0.07698792 
0.0 0.0 0.0 0.0 0.0 0.07698792 
0.0 0.0 0.0 0.0 0.0 0.07698792 
0.0 0.0 0.0 0.0 0.0 0.07698792 
0.0 0.0 0.0 0.0 0.0 0.07698792 
0.0 0.0 0.0 0.0 0.0 0.07698792 
0.0 0.0 0.0 0.0 0.0 0.07698792 
0.0 0.0 0.0 0.0 0.0 0.07698792 
0.0 0.0 0.0 0.0 0.0 0.07698792 
0.0 0.0 0.0 0.0 0.0 0.07698792 
0.0 0.0 0.0 0.0 0.0 0.07698792 
0.0 0.0 0.0 0.0 0.0 0.07698792 
0.0 0.0 0.0 0.0 0.0 0.07698792 
0.0 0.0 0.0 0.0 0.0 0.07698792 
0.0 0.0 0.0 0.0 0.0 0.07698792 
0.0 0.0 0.0 0.0 0.0 0.07698792 
0.0 0.0 0.0 0.0 0.0 0.07698792 
0.0 0.0 0.0 0.0 0.0 0.07698792 
0.0 0.0 0.0 0.0 0.0 0.07698792 
0.0 0.0 0.0 0.0 0.0 0.07698792 
0.0 0.0 0.0 0.0 0.0 0.07698792 
0.0 0.0 0.0 0.0 0.0 0.07698792 
0.0 0.0 0.0 0.0 0.0 0.07698792 
0.0 0.0 0.0 0.0 0.0 0.07698792 
0.0 0.0 0.0 0.0 0.0 0.07698792 
0.0 0.0 0.0 0.0 0.0 0.07698792 
0.0 0.0 0.0 0.0 0.0 0.07698792 
0.0 0.0 0.0 0.0 0.0 0.07698792 
0.0 0.0 0.0 0.0 0.0 0.07698792 
0.0 0.0 0.0 0.0 0.0 0.07698792 
0.0 0.0 0.0 0.0 0.0 0.07698792 
0.0 0.0 0.0 0.0 0.0 0.07698792 
0.0 0.0 0.0 0.0 0.0 0.07698792 
0.0 0.0 0.0 0.0 0.0 0.07698792 
0.0 0.0 0.0 0.0 0.0 0.07698792 
0.0 0.0 0.0 0.0 0.0 0.07698792 
0.0 0.0 0.0 0.0 0.0 0.07698792 
0.0 0.0 0.0 0.0 0.0 0.07698792 
0.0 0.0 0.0 0.0 0.0 0.07698792 
0.0 0.0 0.0 0.0 0.0 0.07698792 
0.0 0.0 0.0 0.0 0.0 0.07698792 
0.0 0.0 0.0 0.0 0.0 0.07698792 
0.0 0.0 0.0 0.0 0.0 0.07698792 
0.0 0.0 0.0 0.0 0.0 0.07698792 
0.0 0.0 0.0 0.0 0.0 0.07698792 
0.0 0.0 0.0 0.0 0.0 0.07698792 
0.0 0.0 0.0 0.0 0.0 0.07698792 
0.0 0.0 0.0 0.0 0.0 0.07698792 
0.0 0.0 0.0 0.0 0.0 0.07698792 
0.0 0.0 0.0 0.0 0.0 0.07698792 
0.0 0.0 0.0 0.0 0.0 0.07698792 
0.0 0.0 0.0 0.0 0.0 0.07698792 
0.0 0.0 0.0 0.0 0.0 0.07698792 
0.0 0.0 0.0 0.0 0.0 0.07698792 
0.0 0.0 0.0 0.0 0.0 0.07698792 
0.0 0.0 0.0 0.0 0.0 0.07698792 
0.0 0.0 0.0 0.0 0.0 0.07698792 
0.0 0.0 0.0 0.0 0.0 0.07698792 
0.0 0.0 0.0 0.0 0.0 0.07698792 
0.0 0.0 0.0 0.0 0.0 0.07698792 
0.0 0.0 0.0 0.0 0.0 0.07698792 
0.0 0.0 0.0 0.0 0.0 0.07698792 
0.0 0.0 0.0 0.0 0.0 0.07698792 

