0.0 0.0 0.0 0.0 0.0 0.07698792 
0.0 0.0 0.0 0.0 0.0 0.07698792 
0.0 0.0 0.0 0.0 0.0 0.07698792 
0.0 0.0 0.0 0.0 0.0 0.07698792 
0.0 0.0 0.0 0.0 0.0 0.07698792 
0.0 0.0 0.0 0.0 0.0 0.07698792 
0.0 0.0 0.0 0.0 0.0 0.07698792 
0.0 0.0 0.0 0.0 0.0 0.07698792 
0.0 0.0 0.0 0.0 0.0 0.07698792 
0.0 0.0 0.0 0.0 0.0 0.07698792 
0.0 0.0 0.0 0.0 0.0 0.07698792 
0.0 0.0 0.0 0.0 0.0 0.07698792 
0.0 0.0 0.0 0.0 0.0 0.07698792 
0.0 0.0 0.0 0.0 0.0 0.07698792 
0.0 0.0 0.0 0.0 0.0 0.07698792 
0.0 0.0 0.0 0.0 0.0 0.07698792 
0.0 0.0 0.0 0.0 0.0 0.07698792 
0.0 0.0 0.0 0.0 0.0 0.07698792 
0.0 0.0 0.0 0.0 0.0 0.07698792 
0.0 0.0 0.0 0.0 0.0 0.07698792 
0.0 0.0 0.0 0.0 0.0 0.07698792 
0.0 0.0 0.0 0.0 0.0 0.07698792 
0.0 0.0 0.0 0.0 0.0 0.07698792 
0.0 0.0 0.0 0.0 0.0 0.07698792 
0.0 0.0 0.0 0.0 0.0 0.07698792 
0.0 0.0 0.0 0.0 0.0 0.07698792 
0.0 0.0 0.0 0.0 0.0 0.07698792 
0.0 0.0 0.0 0.0 0.0 0.07698792 
0.0 0.0 0.0 0.0 0.0 0.07698792 
0.0 0.0 0.0 0.0 0.0 0.07698792 
0.0 0.0 0.0 0.0 0.0 0.07698792 
0.0 0.0 0.0 0.0 0.0 0.07698792 
0.0 0.0 0.0 0.0 0.0 0.07698792 
0.0 0.0 0.0 0.0 0.0 0.07698792 
0.0 0.0 0.0 0.0 0.0 0.07698792 
0.0 0.0 0.0 0.0 0.0 0.07698792 
0.0 0.0 0.0 0.0 0.0 0.07698792 
0.0 0.0 0.0 0.0 0.0 0.07698792 
0.0 0.0 0.0 0.0 0.0 0.07698792 
0.0 0.0 0.0 0.0 0.0 0.07698792 
0.0 0.0 0.0 0.0 0.0 0.07698792 
0.0 0.0 0.0 0.0 0.0 0.07698792 
0.0 0.0 0.0 0.0 0.0 0.07698792 
0.0 0.0 0.0 0.0 0.0 0.07698792 
0.0 0.0 0.0 0.0 0.0 0.07698792 
0.0 0.0 0.0 0.0 0.0 0.07698792 
0.0 0.0 0.0 0.0 0.0 0.07698792 
0.0 0.0 0.0 0.0 0.0 0.07698792 
0.0 0.0 0.0 0.0 0.0 0.07698792 
0.0 0.0 0.0 0.0 0.0 0.07698792 
0.0 0.0 0.0 0.0 0.0 0.07698792 
0.0 0.0 0.0 0.0 0.0 0.07698792 
0.0 0.0 0.0 0.0 0.0 0.07698792 
0.0 0.0 0.0 0.0 0.0 0.07698792 
0.0 0.0 0.0 0.0 0.0 0.07698792 
0.0 0.0 0.0 0.0 0.0 0.07698792 
0.0 0.0 0.0 0.0 0.0 0.07698792 
0.0 0.0 0.0 0.0 0.0 0.07698792 
0.0 0.0 0.0 0.0 0.0 0.07698792 
0.0 0.0 0.0 0.0 0.0 0.07698792 
0.0 0.0 0.0 0.0 0.0 0.07698792 
0.0 0.0 0.0 0.0 0.0 0.07698792 
0.0 0.0 0.0 0.0 0.0 0.07698792 
0.0 0.0 0.0 0.0 0.0 0.07698792 
0.0 0.0 0.0 0.0 0.0 0.07698792 
0.0 0.0 0.0 0.0 0.0 0.07623371 
0.0 0.0 0.0 0.0 0.0 0.06189398 
0.0 0.0070484104 0.0 0.0 0.0 0.022841416 
0.0 0.028589923 0.0 0.0 0.0 0.0 
0.0 0.058067925 0.018874109 0.0 0.0 0.0 
0.0 0.07602372 0.024793193 0.0 0.0 0.0 
0.013628207 0.060850643 0.063340254 0.0 0.0 0.0 
0.1378788 0.059543855 0.1743451 0.0 0.0 0.0 
0.24645522 0.17790224 0.2284345 0.0 0.0 0.0 
0.18336773 0.30455408 0.2415694 0.0 0.0 0.0 
0.05446188 0.39645326 0.21209487 0.0 0.0 0.0 
0.0 0.34217814 0.14181575 0.0 0.035259698 0.0 
0.0 0.1989089 0.04742299 0.0 0.042262193 0.0 
0.0 0.067165315 0.0 0.0 0.0 0.0 
0.0 0.0018367553 0.0 0.0 0.0 0.0676083 
0.0 0.0 0.0 0.0 0.0 0.07698792 
0.0 0.0 0.0 0.0 0.0 0.07698792 
0.0 0.0 0.0 0.0 0.0 0.07698792 
0.0 0.0 0.0 0.0 0.0 0.07698792 
0.0 0.0 0.0 0.0 0.0 0.07698792 
0.0 0.0 0.0 0.0 0.0 0.07698792 
0.0 0.0 0.0 0.0 0.0 0.07698792 
0.0 0.0 0.0 0.0 0.0 0.07698792 
0.0 0.0 0.0 0.0 0.0 0.07698792 
0.0 0.0 0.0 0.0 0.0 0.07698792 
0.0 0.0 0.0 0.0 0.0 0.07698792 
0.0 0.0 0.0 0.0 0.0 0.07698792 
0.0 0.0 0.0 0.0 0.0 0.07698792 
0.0 0.0 0.013116643 0.0 0.0 0.043927502 
0.20759225 0.0 0.16615838 0.0 0.0 0.0 
0.40259135 0.12662199 0.26840144 0.0 0.0 0.0 
0.41621053 0.32449672 0.40372142 0.0 0.0 0.0 
0.4113927 0.5664826 0.5683278 0.0 0.0 0.0 
0.34708327 0.6549936 0.61227673 0.0 0.0 0.0 
0.3794394 0.6242619 0.59818995 0.0 0.0 0.0 
0.50868046 0.54307705 0.57642114 0.0 0.0 0.0 
0.67161304 0.57811373 0.64239013 0.0 0.0 0.0 
0.63479894 0.841204 0.7339929 0.0 0.0 0.0 
0.20213342 1.1244775 0.8118172 0.0 0.20194538 0.0 
0.0 0.9730409 0.6723301 0.0 0.4790344 0.0 
0.0 0.587384 0.4251407 0.0 0.4259835 0.0 
0.0 0.23398909 0.128362 0.0 0.23696877 0.0 
0.0 0.046086747 0.0 0.0 0.021159288 0.019445412 
0.0 0.0 0.0 0.0 0.0 0.07698792 
0.0 0.0 0.0 0.0 0.0 0.07698792 
0.0 0.0 0.0 0.0 0.0 0.07698792 
0.0 0.0 0.0 0.0 0.0 0.07698792 
0.0 0.0 0.0 0.0 0.0 0.07698792 
0.0 0.0 0.0 0.0 0.0 0.07698792 
0.0 0.0 0.0 0.0 0.0 0.07698792 
0.0 0.0 0.0 0.0 0.0 0.07698792 
0.0 0.0 0.0 0.0 0.0 0.07698792 
0.0 0.0 0.0 0.0 0.0 0.07698792 
0.0 0.0 0.0 0.0 0.0 0.07698792 
0.0 0.0 0.0 0.0 0.0 0.05964106 
0.086134404 0.0 0.09772783 0.0 0.0 0.0 
0.24640554 0.03649494 0.09312544 0.0 0.0 0.0 
0.47892988 0.0 0.13932595 0.0 0.0 0.0 
0.7148619 0.17202601 0.19304273 0.0 0.0 0.0 
0.58960557 0.43699834 0.34095454 0.0 0.0 0.0 
0.41961414 0.6605479 0.6936555 0.0 0.16425286 0.0 
0.18624094 0.6660029 0.7073168 0.0 0.45491853 0.0 
0.18901065 0.5634379 0.6726158 0.0 0.42485145 0.0 
0.35512534 0.41365707 0.63453597 0.0 0.5225561 0.0 
0.3878135 0.42273435 0.55252993 0.21377426 0.68383366 0.0 
0.16211113 0.5773155 0.67823476 0.48806158 0.84393865 0.0 
0.0 0.973528 1.0418556 0.57012326 1.0595897 0.0 
0.0 1.1215124 1.1773657 0.43721595 1.0913533 0.0 
0.0 0.8019867 0.9074272 0.20551151 0.78645617 0.0 
0.0 0.28507218 0.41425365 0.0 0.43977827 0.0 
0.0 0.006022526 0.026316196 0.0 0.09454824 0.04082984 
0.0 0.0 0.0 0.0 0.0 0.07698792 
0.0 0.0 0.0 0.0 0.0 0.07698792 
0.0 0.0 0.0 0.0 0.0 0.07698792 
0.0 0.0 0.0 0.0 0.0 0.07698792 
0.0 0.0 0.0 0.0 0.0 0.07698792 
0.0 0.0 0.0 0.0 0.0 0.07698792 
0.0 0.0 0.0 0.0 0.0 0.07698792 
0.0 0.0 0.0 0.0 0.0 0.07698792 
0.0 0.0 0.0 0.0 0.0 0.07698792 
0.0 0.0 0.0 0.0 0.0 0.07698792 
0.0 0.0 0.0 0.0 0.0 0.07698792 
0.06044428 0.0 0.051474996 0.0 0.0 0.027819578 
0.4216135 0.0 0.15353253 0.0 0.0 0.0 
0.75855225 0.0 0.26170516 0.0 0.0 0.0 
0.9409341 0.17590874 0.117331035 0.0 0.0 0.0 
0.54468125 0.52332544 0.2866444 0.0 0.56074065 0.0 
0.11328207 0.53486466 0.2414473 0.3204752 1.1102911 0.0 
0.0 0.4364531 0.5338761 0.9515839 1.1657032 0.33191872 
0.045905367 0.33706927 0.6565601 1.3045789 1.2239857 0.48239028 
0.1643436 0.48429152 0.56643695 1.483165 1.1003543 0.5591535 
0.13805988 0.48895398 0.518101 1.571505 1.2318515 0.78597826 
0.22382644 0.47338042 0.25200427 1.5463849 1.4184939 0.9874938 
0.16428581 0.71116716 0.20948336 1.5806484 1.3342661 0.9729368 
0.0 0.97752064 0.73193556 1.5000662 1.2323722 0.6974764 
0.0 0.9861068 1.192268 1.2573286 1.0178167 0.3730319 
0.0 0.73506045 1.1504563 0.8607731 0.60310334 0.26252237 
0.0 0.3951021 0.67719394 0.4028705 0.24196286 0.14734757 
0.0 0.101936735 0.1318863 0.0951654 0.0 0.076685034 
0.0 0.0 0.0 0.0 0.0 0.07698792 
0.0 0.0 0.0 0.0 0.0 0.07698792 
0.0 0.0 0.0 0.0 0.0 0.07698792 
0.0 0.0 0.0 0.0 0.0 0.07698792 
0.0 0.0 0.0 0.0 0.0 0.07698792 
0.0 0.0 0.0 0.0 0.0 0.07698792 
0.0 0.0 0.0 0.0 0.0 0.07698792 
0.0 0.0 0.0 0.0 0.0 0.07698792 
0.0 0.0 0.0 0.0 0.0 0.07698792 
0.0 0.0 0.0 0.0 0.0 0.07698792 
0.0 0.0 0.013198227 0.0 0.0 0.04380262 
0.31511056 0.0 0.051528364 0.0 0.0 0.0 
0.88164216 0.0 0.08164091 0.0 0.0 0.0 
1.147676 0.08400859 0.10164931 0.0 0.0 0.0 
0.93511266 0.7628468 0.16386893 0.15797463 0.69900924 0.0 
0.1148753 1.4180747 0.21046638 0.29305243 1.5342453 0.10141334 
0.0 1.2579896 0.085971944 0.5237859 1.6812869 0.62049645 
0.0 0.7100646 0.0 0.7023268 1.3967065 1.2892563 
0.05360353 0.74416584 0.0 0.93918246 1.0253142 1.2981308 
0.1078738 0.65111685 0.0 0.8594188 1.0216992 1.3357222 
0.27066654 0.55923206 0.0 0.7459807 1.2219139 1.5567474 
0.34705913 0.54689986 0.0 0.59096503 1.2775527 1.5330837 
0.19699067 0.4752764 0.0 0.41779703 1.2123431 1.4439273 
0.0 0.55791706 0.0 0.2935951 1.0091469 1.2350368 
0.0 0.46050465 0.13664383 0.21964869 0.6562521 0.8030309 
0.0 0.2767725 0.5467181 0.21330363 0.29076678 0.4855575 
0.0 0.15123467 0.5029236 0.17553161 0.07679413 0.23248006 
0.0 0.05191966 0.12495496 0.06249926 0.0 0.103435576 
0.0 0.0 0.0 0.0 0.0 0.07698792 
0.0 0.0 0.0 0.0 0.0 0.07698792 
0.0 0.0 0.0 0.0 0.0 0.07698792 
0.0 0.0 0.0 0.0 0.0 0.07698792 
0.0 0.0 0.0 0.0 0.0 0.07698792 
0.0 0.0 0.0 0.0 0.0 0.07698792 
0.0 0.0 0.0 0.0 0.0 0.07698792 
0.0 0.0 0.0 0.0 0.0 0.07698792 
0.0 0.0 0.0 0.0 0.0 0.07698792 
0.0 0.0 0.0 0.0 0.0 0.07698792 
0.124764726 0.0 0.080278166 0.0 0.0 0.016112044 
0.78930426 0.0 0.025289357 0.0 0.0 0.020631623 
1.3638554 0.0 0.0 0.0 0.0 0.06637991 
1.2456605 0.4670663 0.0 0.10650177 0.6690513 0.0 
0.40872356 1.2044816 0.0 0.22891125 1.8080146 0.02593255 
0.0 1.2751412 0.14455566 0.21101312 2.2364433 0.36660576 
0.0 0.6770278 0.0 0.00238688 1.8674902 0.7350876 
0.054499626 0.0 0.0 0.0 1.4152578 1.0195208 
0.10277833 0.0 0.0 0.0 1.2168642 0.95227265 
0.1482494 0.0 0.0 0.0 1.1000382 0.8582178 
0.18736479 0.0 0.0 0.0 1.1035265 0.9123982 
0.12601341 0.0 0.0 0.0 1.1336836 0.86549485 
0.110059425 0.0 0.0 0.0 1.0490544 0.7683577 
0.0 0.0 0.0 0.0 0.8005902 0.6230803 
0.0 0.0 0.0 0.0 0.47838625 0.40301806 
0.0 0.0 0.0 0.0 0.27226052 0.2757221 
0.0 0.0 0.044769317 0.0 0.1178195 0.15935932 
0.0 0.0 0.0008546226 0.0 0.0 0.08444569 
0.0 0.0 0.0 0.0 0.0 0.07698792 
0.0 0.0 0.0 0.0 0.0 0.07698792 
0.0 0.0 0.0 0.0 0.0 0.07698792 
0.0 0.0 0.0 0.0 0.0 0.07698792 
0.0 0.0 0.0 0.0 0.0 0.07698792 
0.0 0.0 0.0 0.0 0.0 0.07698792 
0.0 0.0 0.0 0.0 0.0 0.07698792 
0.0 0.0 0.0 0.0 0.0 0.07698792 
0.0 0.0 0.0 0.0 0.0 0.0758566 
0.0 0.0 0.02721303 0.0 0.0 0.03436041 
0.43113607 0.0 0.022875465 0.0 0.0 0.008805856 
1.2779114 0.0 0.0 0.0 0.0 0.12474113 
1.8395994 0.012141175 0.0 0.0 0.44635567 0.15291059 
1.1127648 1.2620621 0.0 0.03243348 1.4199281 0.0 
0.0 1.6171832 0.061359636 0.0 2.0857716 0.0 
0.0 1.3979412 0.8970736 0.0 1.540152 0.0 
0.0 0.64416534 1.0192189 0.0 0.8361561 0.0 
0.13195781 0.31455997 0.56703216 0.0 0.31766316 0.0 
0.26497906 0.24884954 0.06605305 0.0 0.14001949 0.0 
0.11666134 0.32796904 0.0 0.0 0.18716396 0.0 
0.0014305338 0.19464841 0.0 0.0 0.34437755 0.0 
0.0 0.07950479 0.0 0.0 0.34229758 0.0 
0.0 0.0 0.0 0.0 0.20925789 0.031632505 
0.0 0.0 0.0 0.0 0.089689225 0.13823602 
0.0 0.0 0.0 0.0 0.028846677 0.11218412 
0.0 0.0 0.0 0.0 0.0 0.09733607 
0.0 0.0 0.0 0.0 0.0 0.079194814 
0.0 0.0 0.0 0.0 0.0 0.07698792 
0.0 0.0 0.0 0.0 0.0 0.07698792 
0.0 0.0 0.0 0.0 0.0 0.07698792 
0.0 0.0 0.0 0.0 0.0 0.07698792 
0.0 0.0 0.0 0.0 0.0 0.07698792 
0.0 0.0 0.0 0.0 0.0 0.07698792 
0.0 0.0 0.0 0.0 0.0 0.07698792 
0.0 0.0 0.0 0.0 0.0 0.07698792 
0.0 0.0 0.0 0.0 0.0 0.07698792 
0.0 0.0 0.0 0.0 0.0 0.05247482 
0.22964531 0.0 0.12710106 0.0 0.0 0.0 
0.96464604 0.0 0.0 0.0 0.0 0.0103612915 
1.7508538 0.0 0.0 0.0 0.031493608 0.13231352 
1.8733513 0.5129345 0.0 0.0 1.0041484 0.0 
0.89304155 1.5074918 0.0 0.0 1.8642571 0.0 
0.0 1.8399945 0.57678056 0.0 1.7749653 0.0 
0.0 1.2321658 1.3656273 0.0 1.0576584 0.0 
0.0 0.7374244 1.2495935 0.0 0.55637234 0.0 
0.25797498 0.5247632 0.90758604 0.0 0.096362084 0.0 
0.4562745 0.75292695 0.89220226 0.0 0.030340735 0.0 
0.26973557 0.9288942 0.90911824 0.0 0.25486758 0.0 
0.0 1.0745677 0.89771026 0.0 0.2592109 0.0 
0.0 0.86798614 0.72193456 0.0 0.37968132 0.0 
0.0 0.55513316 0.3690224 0.0 0.28131434 0.0 
0.0 0.32029858 0.134922 0.0 0.122098476 0.0 
0.0 0.14560553 0.016013764 0.0 0.031796265 0.0 
0.0 0.03269828 0.0 0.0 0.0 0.03894834 
0.0 0.0 0.0 0.0 0.0 0.07698792 
0.0 0.0 0.0 0.0 0.0 0.07698792 
0.0 0.0 0.0 0.0 0.0 0.07698792 
0.0 0.0 0.0 0.0 0.0 0.07698792 
0.0 0.0 0.0 0.0 0.0 0.07698792 
0.0 0.0 0.0 0.0 0.0 0.07698792 
0.0 0.0 0.0 0.0 0.0 0.07698792 
0.0 0.0 0.0 0.0 0.0 0.07698792 
0.0 0.0 0.0 0.0 0.0 0.07698792 
0.0 0.0 0.0 0.0 0.0 0.07698792 
0.016322121 0.0 0.0 0.0 0.0 0.07168586 
0.51703316 0.0 0.014664389 0.0 0.0 0.087285034 
1.5079112 0.0 0.0 0.016475286 0.0 0.27229515 
2.0384843 0.0067682033 0.0 0.0 0.62526894 0.33758107 
1.5506287 0.89398146 0.0 0.0 1.4937006 0.07948613 
0.47604305 1.5054228 0.061195746 0.0 1.9660839 0.0 
0.0 1.583324 1.1915405 0.0 1.7994994 0.0 
0.0 0.99645215 1.5522395 0.06382352 1.4858747 0.0 
0.0 0.6413861 1.2415324 0.3458653 1.2706949 0.0 
0.016012937 0.22331871 0.54155684 0.6226377 1.0287327 0.06734643 
0.23731846 0.32657212 0.87908185 0.90620065 0.7369835 0.103198126 
0.3655188 0.6236852 1.1201254 0.6823599 0.65204084 0.0 
0.3301214 1.115006 1.4501239 0.28649047 0.4882088 0.0 
0.042681426 1.4168928 1.6183416 0.0 0.55016947 0.0 
0.0 1.3736143 1.1913848 0.0 0.6435549 0.0 
0.0 0.8654366 0.6700143 0.0 0.59315795 0.0 
0.0 0.45221543 0.31941926 0.0 0.36769536 0.0 
0.0 0.12484759 0.03325203 0.0 0.16563012 0.0 
0.0 0.0012756363 0.0 0.0 0.0 0.06812939 
0.0 0.0 0.0 0.0 0.0 0.07698792 
0.0 0.0 0.0 0.0 0.0 0.07698792 
0.0 0.0 0.0 0.0 0.0 0.07698792 
0.0 0.0 0.0 0.0 0.0 0.07698792 
0.0 0.0 0.0 0.0 0.0 0.07698792 
0.0 0.0 0.0 0.0 0.0 0.07698792 
0.0 0.0 0.0 0.0 0.0 0.07698792 
0.0 0.0 0.0 0.0 0.0 0.07698792 
0.0 0.0 0.0 0.0 0.0 0.07698792 
0.052556194 0.0 0.0 0.027417913 0.0 0.16418448 
0.687335 0.0 0.0 0.2293222 0.0 0.50480306 
1.6165364 0.0 0.0 0.4254519 0.37393597 0.843722 
1.8091292 0.0392607 0.0 0.6296402 1.3100389 0.9774609 
1.1044023 0.81616616 0.0 0.7638562 1.9760209 0.9875085 
0.10363111 1.2722526 0.0 0.8157797 2.341818 0.8506339 
0.0 1.2524686 1.0461057 1.0617133 2.2291873 0.72713506 
0.0 0.95471275 1.2470948 1.3396145 1.9772097 0.91094995 
0.0 0.8556169 0.86733323 1.3392379 1.6200329 0.90564334 
0.019148007 0.60327595 0.10433387 1.3401852 1.2436389 1.0857081 
0.38241336 0.4031671 0.0015884079 1.3723506 0.9154865 1.3659682 
0.47111875 0.33895528 0.3022663 1.4356112 0.7671836 1.0543141 
0.64594644 0.5236049 0.8810695 1.362859 0.600991 0.52876186 
0.4257244 1.1936295 1.7713863 1.1401538 0.6413286 0.0 
0.0 1.6076521 2.0251465 0.4002565 0.91861117 0.0 
0.0 1.6208906 1.5493728 0.0 0.9258285 0.0 
0.0 1.0729454 1.0472964 0.0 0.75940675 0.0 
0.0 0.40022114 0.36841798 0.0 0.45012918 0.0 
0.0 0.10604524 0.0 0.0 0.06952496 0.0 
0.0 0.0 0.0 0.0 0.0 0.07177702 
0.0 0.0 0.0 0.0 0.0 0.07698792 
0.0 0.0 0.0 0.0 0.0 0.07698792 
0.0 0.0 0.0 0.0 0.0 0.07698792 
0.0 0.0 0.0 0.0 0.0 0.07698792 
0.0 0.0 0.0 0.0 0.0 0.07698792 
0.0 0.0 0.0 0.0 0.0 0.07698792 
0.0 0.0 0.0 0.0 0.0 0.07698792 
0.0 0.0 0.0 0.0 0.0 0.07698792 
0.07593973 0.0 0.0 0.076940045 0.0 0.22912028 
0.7388233 0.0 0.0 0.30572975 0.2485298 0.85984904 
1.3155105 0.0 0.0 0.5096102 0.94321746 1.3894391 
1.2739944 0.0 0.0 0.818802 1.6749498 1.5586553 
0.7590396 0.5044911 0.0 1.0677441 2.1954987 1.7619841 
0.0 0.9584879 0.0 1.1733322 2.3595984 1.6300931 
0.0 0.85847014 0.072263636 0.88964707 2.135712 1.4025147 
0.0 0.6749617 0.15484685 0.70084757 1.7724074 1.4298856 
0.0 0.4978809 0.0 0.33103713 1.3626628 1.2817771 
0.16959925 0.21044993 0.0 0.045622062 1.1468763 1.228188 
0.5737726 0.0 0.0 0.0 1.200152 1.606776 
0.535602 0.0 0.0 0.30447 1.1357101 1.6513443 
0.6498412 0.0 0.0 0.67511594 0.9773938 1.5212715 
0.66498727 0.19226307 0.30761206 1.122091 0.89353025 1.0945411 
0.40412587 1.1815914 1.5417564 1.0992299 0.8070536 0.113830805 
0.0 1.8546878 2.2001739 0.59410584 0.86809784 0.0 
0.0 1.777273 1.903982 0.0 0.95345265 0.0 
0.0 1.0837789 1.1433895 0.0 0.713041 0.0 
0.0 0.3427711 0.2594405 0.0 0.37688214 0.0 
0.0 0.112880126 0.0 0.0 0.0632091 0.0 
0.0 0.0 0.0 0.0 0.0 0.07021375 
0.0 0.0 0.0 0.0 0.0 0.07698792 
0.0 0.0 0.0 0.0 0.0 0.07698792 
0.0 0.0 0.0 0.0 0.0 0.07698792 
0.0 0.0 0.0 0.0 0.0 0.07698792 
0.0 0.0 0.0 0.0 0.0 0.07698792 
0.0 0.0 0.0 0.0 0.0 0.07698792 
0.0 0.0 0.0 0.0 0.0 0.07698792 
0.06535685 0.0 0.0 0.0 0.061134014 0.20561802 
0.6515706 0.0 0.0 0.026173983 0.56362295 0.80232126 
0.98268586 0.0 0.0 0.04245827 1.0945646 1.3011572 
0.7568128 0.0 0.0 0.06315483 1.4720098 1.4300687 
0.43424416 0.14921567 0.0 0.09559426 1.7611777 1.6562808 
0.0 0.28317314 0.0 0.027857538 1.7703035 1.5437667 
0.0 0.18871883 0.0 0.0 1.3633646 1.1663854 
0.0 0.0 0.0 0.0 1.0635779 0.88367265 
0.0 0.0 0.0 0.0 0.7987207 0.6481274 
0.0 0.0 0.0 0.0 0.7522312 0.50447136 
0.3902357 0.0 0.0 0.0 0.90212375 0.80258346 
0.6404676 0.0 0.0 0.0 1.1792688 1.1842213 
0.8830242 0.0 0.0 0.0 1.2163033 1.6286256 
0.97469324 0.0 0.0 0.1834789 1.1319057 1.7447329 
0.7470076 0.0 0.0 0.6323642 1.0120697 1.1492281 
0.27583027 0.9924671 1.2478589 0.79989904 0.8551463 0.16310471 
0.0 1.6876106 2.2181985 0.47136974 1.029715 0.0 
0.0 1.6505499 1.9207038 0.0 0.98864776 0.0 
0.0 0.9598204 0.95640874 0.0 0.71014076 0.0 
0.0 0.24608722 0.19253287 0.0 0.38293454 0.0 
0.0 0.046825502 0.0 0.0 0.014405105 0.02072312 
0.0 0.0 0.0 0.0 0.0 0.07698792 
0.0 0.0 0.0 0.0 0.0 0.07698792 
0.0 0.0 0.0 0.0 0.0 0.07698792 
0.0 0.0 0.0 0.0 0.0 0.07698792 
0.0 0.0 0.0 0.0 0.0 0.07698792 
0.0 0.0 0.0 0.0 0.0 0.07698792 
0.0 0.0 0.0 0.0 0.0 0.07698792 
0.0 0.0 0.0 0.0 0.039766442 0.12889302 
0.3389489 0.0 0.0 0.0 0.4186562 0.43084258 
0.563675 0.0 0.0 0.0 0.77346647 0.7490463 
0.42464828 0.0 0.0 0.0 0.96235305 0.83740646 
0.22882754 0.0 0.0 0.0 1.01309 0.8752416 
0.0 0.0 0.0 0.0 0.8560963 0.7032441 
0.0 0.0 0.0 0.0 0.526722 0.4527536 
0.0 0.0 0.0 0.0 0.3211342 0.29353347 
0.0 0.0 0.0 0.0 0.1526348 0.18146782 
0.0 0.0 0.0 0.0 0.0494042 0.1097971 
0.12650657 0.0 0.0 0.0 0.26394126 0.23339647 
0.37136805 0.0 0.0 0.0 0.5531928 0.45183402 
0.7411698 0.0 0.0 0.0 0.8732791 0.9468287 
1.0524318 0.0 0.0 0.0 1.206961 1.5446959 
1.0061526 0.0 0.0 0.10620093 1.0231686 1.5278709 
0.8692959 0.0 0.0 0.43566775 0.89044416 0.9373386 
0.17602524 1.1575246 1.3565902 0.70759636 0.9878277 0.009194344 
0.0 1.7541556 2.191619 0.4637917 1.1378169 0.0 
0.0 1.5053487 1.7691895 0.0 1.0628713 0.0 
0.0 0.62915343 0.70938563 0.0 0.64615816 0.0 
0.0 0.080730386 0.045089386 0.0 0.1705131 0.0 
0.0 0.0 0.0 0.0 0.0 0.07698792 
0.0 0.0 0.0 0.0 0.0 0.07698792 
0.0 0.0 0.0 0.0 0.0 0.07698792 
0.0 0.0 0.0 0.0 0.0 0.07698792 
0.0 0.0 0.0 0.0 0.0 0.07698792 
0.0 0.0 0.0 0.0 0.0 0.07698792 
0.0 0.0 0.0 0.0 0.0 0.07698792 
0.0 0.0 0.0 0.0 0.0 0.082557805 
0.049796537 0.0 0.0 0.0 0.1284217 0.15951863 
0.14882916 0.0 0.0 0.0 0.27540746 0.2382167 
0.0792442 0.0 0.0 0.0 0.2574946 0.22096932 
0.0 0.0 0.0 0.0 0.20177867 0.21915436 
0.0 0.0 0.0 0.0 0.1502647 0.18955016 
0.0 0.0 0.0 0.0 0.065468505 0.1316072 
0.0 0.0 0.0 0.0 0.0 0.09470117 
0.0 0.0 0.0 0.0 0.0 0.07858601 
0.0 0.0 0.0 0.0 0.0 0.07698792 
0.0 0.0 0.0 0.0 0.0 0.082557805 
0.004547626 0.0 0.0 0.0 0.058720704 0.12919371 
0.32608 0.0 0.0 0.0 0.41460907 0.4113884 
0.76242214 0.0 0.0 0.0 0.81457984 0.9445594 
1.237072 0.0 0.0 0.0 0.8620804 1.422529 
1.4646056 0.0 0.0 0.01463778 0.7620735 1.3128738 
0.7363753 0.5035892 0.0 0.19900244 1.015608 0.46371278 
0.0 1.6623328 1.5298568 0.47316235 1.2498127 0.0 
0.0 1.6487528 2.1636121 0.21649988 1.3248521 0.0 
0.0 0.9820697 1.3401947 0.0 0.84295523 0.0 
0.0 0.17886746 0.23207134 0.0 0.28790262 0.0 
0.0 0.0 0.0 0.0 0.0 0.07698792 
0.0 0.0 0.0 0.0 0.0 0.07698792 
0.0 0.0 0.0 0.0 0.0 0.07698792 
0.0 0.0 0.0 0.0 0.0 0.07698792 
0.0 0.0 0.0 0.0 0.0 0.07698792 
0.0 0.0 0.0 0.0 0.0 0.07698792 
0.0 0.0 0.0 0.0 0.0 0.07698792 
0.0 0.0 0.0 0.0 0.0 0.07698792 
0.0 0.0 0.0 0.0 0.0 0.07698792 
0.0 0.0 0.0 0.0 0.0 0.07698792 
0.0 0.0 0.0 0.0 0.0 0.07698792 
0.0 0.0 0.0 0.0 0.0 0.07698792 
0.0 0.0 0.0 0.0 0.0 0.07698792 
0.0 0.0 0.0 0.0 0.0 0.07698792 
0.0 0.0 0.0 0.0 0.0 0.07698792 
0.0 0.0 0.0 0.0 0.0 0.07698792 
0.0 0.0 0.0 0.0 0.0 0.07698792 
0.0 0.0 0.0 0.0 0.0 0.07698792 
0.0 0.0 0.0 0.0 0.0 0.07698792 
0.03592425 0.0 0.0 0.0 0.10798949 0.14939642 
0.38954118 0.0 0.0 0.0 0.3859205 0.3794225 
1.253063 0.0 0.0 0.0 0.4850258 0.9024702 
1.8968129 0.0 0.0 0.0 0.735726 1.1065824 
1.2586122 0.33954406 0.0 0.0 1.1088976 0.47007075 
0.0 1.4348898 0.44839567 0.0 1.4758233 0.0 
0.0 1.6263379 1.8923345 0.13311715 1.5882052 0.0 
0.0 0.930277 1.642909 0.095902786 1.0175207 0.0 
0.0 0.24666718 0.4551568 0.004365255 0.31739965 0.0 
0.0 0.0 0.0 0.0 0.0 0.07698792 
0.0 0.0 0.0 0.0 0.0 0.07698792 
0.0 0.0 0.0 0.0 0.0 0.07698792 
0.0 0.0 0.0 0.0 0.0 0.07698792 
0.0 0.0 0.0 0.0 0.0 0.07698792 
0.0 0.0 0.0 0.0 0.0 0.07698792 
0.0 0.0 0.0 0.0 0.0 0.07698792 
0.0 0.0 0.0 0.0 0.0 0.05700132 
0.11149144 0.0 0.12293378 0.0 0.0 0.0 
0.1388199 0.16724293 0.049964443 0.0 0.0 0.0 
0.0 0.16748193 0.06614698 0.0 0.0 0.0 
0.0 0.20275564 0.074531056 0.0 0.0 0.0 
0.0 0.11048818 0.0 0.0 0.050090116 0.0 
0.0 0.0 0.0 0.0 0.0 0.0728192 
0.0 0.0 0.0 0.0 0.0 0.07698792 
0.0 0.0 0.0 0.0 0.0 0.07698792 
0.0 0.0 0.0 0.0 0.0 0.07698792 
0.0 0.0 0.0 0.0 0.0 0.07698792 
0.0 0.0 0.0 0.0 0.0 0.07698792 
0.0 0.0 0.0 0.0 0.0 0.07020002 
0.24573281 0.0 0.020930082 0.0 0.0 0.059922628 
1.3283052 0.0 0.0 0.0 0.027030114 0.44364926 
2.0623364 0.0 0.0 0.0 0.61405677 0.68932205 
1.3908598 0.64049745 0.0 0.0 1.3121202 0.19758965 
0.0 1.5239074 0.0 0.0 1.8213317 0.0 
0.0 1.4221729 1.518378 0.106444396 1.7399453 0.0 
0.0 0.7072026 1.5149103 0.15047608 1.0533767 0.13004884 
0.0 0.18364014 0.5528574 0.11361884 0.25256845 0.06621502 
0.0 0.0 0.0 0.0 0.0 0.07698792 
0.0 0.0 0.0 0.0 0.0 0.07698792 
0.0 0.0 0.0 0.0 0.0 0.07698792 
0.0 0.0 0.0 0.0 0.0 0.07698792 
0.0 0.0 0.0 0.0 0.0 0.07698792 
0.0 0.0 0.0 0.0 0.0 0.07698792 
0.0 0.0 0.0 0.0 0.0 0.07698792 
0.0 0.0 0.0 0.0 0.0 0.08802792 
0.2605583 0.0 0.0527768 0.0 0.0 0.04589893 
0.51140964 0.112953916 0.21710679 0.0 0.0 0.0 
0.15699935 0.5044473 0.19641355 0.0 0.0 0.0 
0.0 0.59986585 0.4391884 0.0 0.15837313 0.0 
0.0 0.22516638 0.17689532 0.0 0.35732743 0.0 
0.0 0.061208867 0.0 0.0 0.017569061 0.006636791 
0.0 0.0 0.0 0.0 0.0 0.07490356 
0.0 0.0 0.0 0.0 0.0 0.07698792 
0.0 0.0 0.0 0.0 0.0 0.07698792 
0.0 0.0 0.0 0.0 0.0 0.07397108 
0.0 0.0 0.0 0.0 0.0 0.047157723 
0.112937465 0.0 0.10486851 0.0 0.0 0.0 
0.55015707 0.0 0.08065254 0.0 0.0 0.0 
1.5166802 0.0 0.0 0.0 0.0 0.13710213 
1.9582996 0.039477967 0.0 0.0 0.9392961 0.37138382 
0.8363126 1.0859708 0.0 0.0 1.8415271 0.22073723 
0.0 1.5181725 0.0 0.07937846 2.1237707 0.1982049 
0.0 1.103305 1.264904 0.29770997 1.605966 0.37588978 
0.0 0.39933297 1.2201445 0.25579435 0.8010009 0.31158307 
0.0 0.098075554 0.46335167 0.12280755 0.12133895 0.11356062 
0.0 0.0 0.0 0.0 0.0 0.07698792 
0.0 0.0 0.0 0.0 0.0 0.07698792 
0.0 0.0 0.0 0.0 0.0 0.07698792 
0.0 0.0 0.0 0.0 0.0 0.07698792 
0.0 0.0 0.0 0.0 0.0 0.07698792 
0.0 0.0 0.0 0.0 0.0 0.07698792 
0.0 0.0 0.0 0.0 0.0 0.07698792 
0.0 0.0 0.0 0.020863667 0.0 0.13409947 
0.4070642 0.0 0.0 0.09720866 0.0 0.31074566 
0.68657637 0.0 0.18227276 0.14892443 0.0 0.0 
0.48842782 0.51451534 0.41641515 0.027293611 0.10212992 0.0 
0.0 1.0816404 0.9479029 0.0 0.28671786 0.0 
0.0 0.8040707 0.86418176 0.0 0.46819165 0.0 
0.0 0.3361768 0.24578547 0.0 0.20904578 0.0 
0.0 0.1704852 0.07584155 0.0 0.0 0.0 
0.00042551756 0.10329307 0.0514082 0.0 0.0 0.0 
0.010092959 0.09855148 0.06345416 0.0 0.0 0.0 
0.13646565 0.051851764 0.19744694 0.0 0.0 0.0 
0.36493272 0.13555178 0.27401334 0.0 0.0 0.0 
0.55014825 0.1521789 0.31884807 0.0 0.0 0.0 
1.0822213 0.0134081645 0.20209071 0.0 0.0 0.0 
1.5658691 0.18200521 0.0 0.0 0.554573 0.0 
1.2359524 0.72490805 0.0 0.019487318 1.8127486 0.35342208 
0.004430622 1.3288451 0.0 0.24419019 2.337896 0.5041431 
0.0 1.241196 0.18974608 0.37102076 1.9407223 0.59539735 
0.0 0.55931455 0.95861757 0.28698415 1.13714 0.5847849 
0.0 0.21499482 0.8459904 0.19874087 0.38837573 0.32326385 
0.0 0.0 0.2412925 0.025686916 0.04202309 0.1127107 
0.0 0.0 0.0 0.0 0.0 0.07698792 
0.0 0.0 0.0 0.0 0.0 0.07698792 
0.0 0.0 0.0 0.0 0.0 0.07698792 
0.0 0.0 0.0 0.0 0.0 0.07698792 
0.0 0.0 0.0 0.0 0.0 0.07698792 
0.0 0.0 0.0 0.0 0.0 0.07698792 
0.0 0.0 0.0 0.0 0.0 0.07698792 
0.0 0.0 0.0 0.040470496 0.0 0.14476523 
0.48146808 0.0 0.0 0.26515415 0.019719418 0.64715517 
0.7248597 0.0 0.0 0.32377073 0.03484572 0.6543247 
0.6262721 0.24784222 0.070950486 0.46188608 0.07513809 0.02410151 
0.40492773 0.9233294 1.1191907 0.30366772 0.25509855 0.0 
0.0 1.359795 1.7493253 0.0 0.33065513 0.0 
0.0 0.91722697 1.1070788 0.0 0.24039717 0.0 
0.1898517 0.6798213 0.7191295 0.0 0.019747797 0.0 
0.3509041 0.69472533 0.6503945 0.0 0.0 0.0 
0.36093974 0.6835154 0.6445627 0.0 0.0 0.0 
0.4909352 0.5505837 0.57267267 0.0 0.0 0.0 
0.7743357 0.4370148 0.6003669 0.0 0.0 0.0 
1.0446737 0.47379646 0.47046745 0.0 0.0 0.0 
1.1039088 0.66191345 0.26444975 0.0 0.6149857 0.0 
0.81126803 0.7892194 0.0 0.0075372877 1.9289815 0.21236609 
0.13276991 1.2076972 0.0 0.3101792 2.484924 0.6284462 
0.0 1.0667862 0.0 0.30497834 2.1474946 0.8565129 
0.0 0.6677695 0.3254267 0.23577683 1.2558253 0.7634858 
0.0 0.18876924 0.6221358 0.06336252 0.53523463 0.49391264 
0.0 0.0 0.4157504 0.0 0.17538851 0.22377786 
0.0 0.0 0.03999769 0.0 0.0 0.09015151 
0.0 0.0 0.0 0.0 0.0 0.07698792 
0.0 0.0 0.0 0.0 0.0 0.07698792 
0.0 0.0 0.0 0.0 0.0 0.07698792 
0.0 0.0 0.0 0.0 0.0 0.07698792 
0.0 0.0 0.0 0.0 0.0 0.07698792 
0.0 0.0 0.0 0.0 0.0 0.07698792 
0.0 0.0 0.0 0.0 0.0 0.07698792 
0.0 0.0 0.0 0.0 0.018885072 0.11674862 
0.5031481 0.0 0.0 0.030405693 0.3907283 0.62022525 
0.7849171 0.0 0.0 0.19468562 0.48961607 1.0078312 
0.5141893 0.0 0.0 0.39648786 0.43001965 0.7417075 
0.4410485 0.08478914 0.075666554 0.72873783 0.4823356 0.49661067 
0.19964415 0.64495474 1.4426332 0.87624323 0.4867352 0.09628332 
0.28562903 0.9305689 1.5296909 0.3977089 0.3550518 0.0 
0.39236853 0.9117509 1.1441017 0.0 0.32486144 0.0 
0.28932095 0.8827661 0.9856187 0.0 0.40066066 0.0 
0.32094756 0.8836884 1.034406 0.0 0.41620067 0.0 
0.51397204 0.6747868 0.84556437 0.0 0.53650224 0.0 
0.604689 0.5713952 0.6320008 0.0 0.7098158 0.0 
0.5504008 0.6778901 0.4494275 0.4540085 1.2116152 0.0 
0.43366486 0.91591346 0.2283737 0.75025225 2.1405108 0.4713676 
0.0 1.278379 0.0 0.83309275 2.5079892 0.857629 
0.0 0.95228195 0.0 0.410952 2.1751983 0.9246088 
0.0 0.5802201 0.0 0.13197954 1.2734345 0.81222385 
0.0 0.1093985 0.32561055 0.0 0.561768 0.52477163 
0.0 0.0 0.28255552 0.0 0.2556693 0.28785783 
0.0 0.0 0.082743086 0.0 0.05651966 0.11093465 
0.0 0.0 0.0 0.0 0.0 0.07866211 
0.0 0.0 0.0 0.0 0.0 0.07698792 
0.0 0.0 0.0 0.0 0.0 0.07698792 
0.0 0.0 0.0 0.0 0.0 0.07698792 
0.0 0.0 0.0 0.0 0.0 0.07698792 
0.0 0.0 0.0 0.0 0.0 0.07698792 
0.0 0.0 0.0 0.0 0.0 0.07698792 
0.0 0.0 0.0 0.0 0.0 0.07698792 
0.0 0.0 0.0 0.0 0.0 0.08070118 
0.25331366 0.0 0.0 0.0 0.2926098 0.35904044 
0.6639479 0.0 0.0 0.045359217 0.57850105 0.88573474 
0.63006836 0.0 0.0 0.13002078 0.674418 1.1202035 
0.44395053 0.0 0.0 0.44053012 0.7174811 1.1238823 
0.25714344 0.0 0.042436033 1.0448817 0.8246646 0.99986714 
0.2970866 0.19908445 0.73163235 1.5254029 0.8435186 0.82121795 
0.34501088 0.519817 0.88771987 1.6458143 1.0066508 0.6333429 
0.23545349 0.6496644 0.7994473 1.5264188 1.2505887 0.4907231 
0.058180183 0.71267074 0.90892476 1.5392473 1.2888647 0.5043384 
0.17157422 0.5741683 0.74944365 1.5815957 1.4879677 0.7214958 
0.4192194 0.727823 0.3402914 1.6183108 1.7251742 1.0387967 
0.23437878 1.0218289 0.04805868 1.5009726 2.0591896 1.2053738 
0.0 1.0901285 0.0 1.1126997 2.2402513 1.2416089 
0.0 0.89941114 0.0 0.61472994 1.8921249 1.1242354 
0.0 0.582643 0.022302032 0.20909059 1.046602 0.82328653 
0.0 0.096794516 0.2076096 0.0 0.4974812 0.4919967 
0.0 0.0 0.21283394 0.0 0.23957579 0.28429615 
0.0 0.0 0.085367315 0.0 0.056052018 0.110604346 
0.0 0.0 0.0 0.0 0.0 0.07858601 
0.0 0.0 0.0 0.0 0.0 0.07698792 
0.0 0.0 0.0 0.0 0.0 0.07698792 
0.0 0.0 0.0 0.0 0.0 0.07698792 
0.0 0.0 0.0 0.0 0.0 0.07698792 
0.0 0.0 0.0 0.0 0.0 0.07698792 
0.0 0.0 0.0 0.0 0.0 0.07698792 
0.0 0.0 0.0 0.0 0.0 0.07698792 
0.0 0.0 0.0 0.0 0.0 0.07698792 
0.0 0.0 0.0 0.0 0.0 0.07698792 
0.044235274 0.0 0.0 0.0 0.1207917 0.15496631 
0.369967 0.0 0.0 0.0 0.46575168 0.44570684 
0.58160716 0.0 0.0 0.0 0.70352453 0.8082307 
0.55261976 0.0 0.0 0.0 0.8075168 1.1556804 
0.46104175 0.0 0.0 0.091333725 0.96895915 1.4246149 
0.39920068 0.0 0.0 0.636414 1.154966 1.599174 
0.27820757 0.38300765 0.0 1.1265473 1.2509038 1.5594063 
0.13867152 0.70126843 0.0 1.3891113 1.3598013 1.4672122 
0.13741165 0.7212973 0.0 1.413694 1.4118259 1.6049683 
0.29966184 0.65888864 0.0 1.2336209 1.606244 1.6440337 
0.34115708 0.6368794 0.0 0.97971237 1.7491239 1.6152096 
0.12725177 0.60702664 0.0 0.56172115 1.7522651 1.5134885 
0.0 0.5101296 0.0 0.09197484 1.4665065 1.2330441 
0.0 0.19607669 0.0 0.0 0.8590991 0.7872784 
0.0 0.0 0.12356154 0.0 0.44432434 0.46943066 
0.0 0.0 0.17796662 0.0 0.21850659 0.24828827 
0.0 0.0 0.033448927 0.0 0.04299589 0.103962734 
0.0 0.0 0.0 0.0 0.0 0.07866211 
0.0 0.0 0.0 0.0 0.0 0.07698792 
0.0 0.0 0.0 0.0 0.0 0.07698792 
0.0 0.0 0.0 0.0 0.0 0.07698792 
0.0 0.0 0.0 0.0 0.0 0.07698792 
0.0 0.0 0.0 0.0 0.0 0.07698792 
0.0 0.0 0.0 0.0 0.0 0.07698792 
0.0 0.0 0.0 0.0 0.0 0.07698792 
0.0 0.0 0.0 0.0 0.0 0.07698792 
0.0 0.0 0.0 0.0 0.0 0.07698792 
0.0 0.0 0.0 0.0 0.0 0.07698792 
0.0 0.0 0.0 0.0 0.0 0.07698792 
0.039618038 0.0 0.0 0.0 0.113679364 0.15187193 
0.24624881 0.0 0.0 0.0 0.39325625 0.3125177 
0.44320452 0.0 0.0 0.0 0.65501255 0.54907215 
0.52420026 0.0 0.0 0.0 0.93621534 0.8419459 
0.5242621 0.0 0.0 0.0 1.1848851 1.164794 
0.43483245 0.0 0.0 0.0 1.3713301 1.3587277 
0.21030092 0.0 0.0 0.0 1.3563738 1.321871 
0.25634 0.0 0.0 0.0 1.3319465 1.3734889 
0.17092252 0.0 0.0 0.0 1.3582996 1.3331683 
0.08676542 0.0 0.0 0.0 1.2789563 1.1418076 
0.0 0.0 0.0 0.0 1.0211204 0.8884899 
0.0 0.0 0.0 0.0 0.60405713 0.56735784 
0.0 0.0 0.0 0.0 0.34309328 0.34110418 
0.0 0.0 0.043367386 0.0 0.17456038 0.20671998 
0.0 0.0 0.043044597 0.0 0.018883463 0.08990396 
0.0 0.0 0.0 0.0 0.0 0.07698792 
0.0 0.0 0.0 0.0 0.0 0.07698792 
0.0 0.0 0.0 0.0 0.0 0.07698792 
0.0 0.0 0.0 0.0 0.0 0.07698792 
0.0 0.0 0.0 0.0 0.0 0.07698792 
0.0 0.0 0.0 0.0 0.0 0.07698792 
0.0 0.0 0.0 0.0 0.0 0.07698792 
0.0 0.0 0.0 0.0 0.0 0.07698792 
0.0 0.0 0.0 0.0 0.0 0.07698792 
0.0 0.0 0.0 0.0 0.0 0.07698792 
0.0 0.0 0.0 0.0 0.0 0.07698792 
0.0 0.0 0.0 0.0 0.0 0.07698792 
0.0 0.0 0.0 0.0 0.0 0.07698792 
0.0 0.0 0.0 0.0 0.0 0.07698792 
0.0 0.0 0.0 0.0 0.0 0.090603195 
0.054546103 0.0 0.0 0.0 0.13438512 0.16389377 
0.14723015 0.0 0.0 0.0 0.28286472 0.23912978 
0.24942154 0.0 0.0 0.0 0.526105 0.34301963 
0.22369945 0.0 0.0 0.0 0.60324365 0.41502047 
0.06793204 0.0 0.0 0.0 0.5998992 0.38454717 
0.0771679 0.0 0.0 0.0 0.67909056 0.45470953 
0.021327391 0.0 0.0 0.0 0.64166886 0.40971464 
0.0 0.0 0.0 0.0 0.4319282 0.30752835 
0.0 0.0 0.0 0.0 0.26176217 0.24595141 
0.0 0.0 0.0 0.0 0.15286249 0.18181655 
0.0 0.0 0.0 0.0 0.043387238 0.118554115 
0.0 0.0 0.0 0.0 0.0 0.082117505 
0.0 0.0 0.0 0.0 0.0 0.07714012 
0.0 0.0 0.0 0.0 0.0 0.07698792 
0.0 0.0 0.0 0.0 0.0 0.07698792 
0.0 0.0 0.0 0.0 0.0 0.07698792 
0.0 0.0 0.0 0.0 0.0 0.07698792 
0.0 0.0 0.0 0.0 0.0 0.07698792 
0.0 0.0 0.0 0.0 0.0 0.07698792 
0.0 0.0 0.0 0.0 0.0 0.07698792 
0.0 0.0 0.0 0.0 0.0 0.07698792 
0.0 0.0 0.0 0.0 0.0 0.07698792 
0.0 0.0 0.0 0.0 0.0 0.07698792 
0.0 0.0 0.0 0.0 0.0 0.07698792 
0.0 0.0 0.0 0.0 0.0 0.07698792 
0.0 0.0 0.0 0.0 0.0 0.07698792 
0.0 0.0 0.0 0.0 0.0 0.07698792 
0.0 0.0 0.0 0.0 0.0 0.07698792 
0.0 0.0 0.0 0.0 0.0 0.07698792 
0.0 0.0 0.0 0.0 0.0 0.07698792 
0.0 0.0 0.0 0.0 0.0 0.07698792 
0.0 0.0 0.0 0.0 0.0 0.07698792 
0.0 0.0 0.0 0.0 0.0 0.07698792 
0.0 0.0 0.0 0.0 0.0 0.07698792 
0.0 0.0 0.0 0.0 0.0 0.07698792 
0.0 0.0 0.0 0.0 0.0 0.07698792 
0.0 0.0 0.0 0.0 0.0 0.07698792 
0.0 0.0 0.0 0.0 0.0 0.07698792 
0.0 0.0 0.0 0.0 0.0 0.07698792 
0.0 0.0 0.0 0.0 0.0 0.07698792 
0.0 0.0 0.0 0.0 0.0 0.07698792 
0.0 0.0 0.0 0.0 0.0 0.07698792 
0.0 0.0 0.0 0.0 0.0 0.07698792 
0.0 0.0 0.0 0.0 0.0 0.07698792 
0.0 0.0 0.0 0.0 0.0 0.07698792 
0.0 0.0 0.0 0.0 0.0 0.07698792 
0.0 0.0 0.0 0.0 0.0 0.07698792 
0.0 0.0 0.0 0.0 0.0 0.07698792 
0.0 0.0 0.0 0.0 0.0 0.07698792 
0.0 0.0 0.0 0.0 0.0 0.07698792 
0.0 0.0 0.0 0.0 0.0 0.07698792 
0.0 0.0 0.0 0.0 0.0 0.07698792 
0.0 0.0 0.0 0.0 0.0 0.07698792 
0.0 0.0 0.0 0.0 0.0 0.07698792 
0.0 0.0 0.0 0.0 0.0 0.07698792 
0.0 0.0 0.0 0.0 0.0 0.07698792 
0.0 0.0 0.0 0.0 0.0 0.07698792 
0.0 0.0 0.0 0.0 0.0 0.07698792 
0.0 0.0 0.0 0.0 0.0 0.07698792 
0.0 0.0 0.0 0.0 0.0 0.07698792 
0.0 0.0 0.0 0.0 0.0 0.07698792 
0.0 0.0 0.0 0.0 0.0 0.07698792 
0.0 0.0 0.0 0.0 0.0 0.07698792 
0.0 0.0 0.0 0.0 0.0 0.07698792 
0.0 0.0 0.0 0.0 0.0 0.07698792 
0.0 0.0 0.0 0.0 0.0 0.07698792 
0.0 0.0 0.0 0.0 0.0 0.07698792 
0.0 0.0 0.0 0.0 0.0 0.07698792 
0.0 0.0 0.0 0.0 0.0 0.07698792 
0.0 0.0 0.0 0.0 0.0 0.07698792 
0.0 0.0 0.0 0.0 0.0 0.07698792 
0.0 0.0 0.0 0.0 0.0 0.07698792 
0.0 0.0 0.0 0.0 0.0 0.07698792 
0.0 0.0 0.0 0.0 0.0 0.07698792 
0.0 0.0 0.0 0.0 0.0 0.07698792 
0.0 0.0 0.0 0.0 0.0 0.07698792 

