0.0 0.0 0.0 0.0 0.0 0.07698792 
0.0 0.0 0.0 0.0 0.0 0.07698792 
0.0 0.0 0.0 0.0 0.0 0.07698792 
0.0 0.0 0.0 0.0 0.0 0.07698792 
0.0 0.0 0.0 0.0 0.0 0.07698792 
0.0 0.0 0.0 0.0 0.0 0.07698792 
0.0 0.0 0.0 0.0 0.0 0.07698792 
0.0 0.0 0.0 0.0 0.0 0.07698792 
0.0 0.0 0.0 0.0 0.0 0.07698792 
0.0 0.0 0.0 0.0 0.0 0.07698792 
0.0 0.0 0.0 0.0 0.0 0.07698792 
0.0 0.0 0.0 0.0 0.0 0.07698792 
0.0 0.0 0.0 0.0 0.0 0.07698792 
0.0 0.0 0.0 0.0 0.0 0.07698792 
0.0 0.0 0.0 0.0 0.0 0.07698792 
0.0 0.0 0.0 0.0 0.0 0.07698792 
0.0 0.0 0.0 0.0 0.0 0.07698792 
0.0 0.0 0.0 0.0 0.0 0.07698792 
0.0 0.0 0.0 0.0 0.0 0.07698792 
0.0 0.0 0.0 0.0 0.0 0.07698792 
0.0 0.0 0.0 0.0 0.0 0.07698792 
0.0 0.0 0.0 0.0 0.0 0.07698792 
0.0 0.0 0.0 0.0 0.0 0.07698792 
0.0 0.0 0.0 0.0 0.0 0.07698792 
0.0 0.0 0.0 0.0 0.0 0.07698792 
0.0 0.0 0.0 0.0 0.0 0.07698792 
0.0 0.0 0.0 0.0 0.0 0.07698792 
0.0 0.0 0.0 0.0 0.0 0.07698792 
0.0 0.0 0.0 0.0 0.0 0.07698792 
0.0 0.0 0.0 0.0 0.0 0.07698792 
0.0 0.0 0.0 0.0 0.0 0.07698792 
0.0 0.0 0.0 0.0 0.0 0.07698792 
0.0 0.0 0.0 0.0 0.0 0.07698792 
0.0 0.0 0.0 0.0 0.0 0.07698792 
0.0 0.0 0.0 0.0 0.0 0.07698792 
0.0 0.0 0.0 0.0 0.0 0.07698792 
0.0 0.0 0.0 0.0 0.0 0.07698792 
0.0 0.0 0.0 0.0 0.0 0.07698792 
0.0 0.0 0.0 0.0 0.0 0.07698792 
0.0 0.0 0.0 0.0 0.0 0.07698792 
0.0 0.0 0.0 0.0 0.0 0.07698792 
0.0 0.0 0.0 0.0 0.0 0.07698792 
0.0 0.0 0.0 0.0 0.0 0.07698792 
0.0 0.0 0.0 0.0 0.0 0.07698792 
0.0 0.0 0.0 0.0 0.0 0.07698792 
0.0 0.0 0.0 0.0 0.0 0.07698792 
0.0 0.0 0.0 0.0 0.0 0.07698792 
0.0 0.0 0.0 0.0 0.0 0.07698792 
0.0 0.0 0.0 0.0 0.0 0.07698792 
0.0 0.0 0.0 0.0 0.0 0.07698792 
0.0 0.0 0.0 0.0 0.0 0.07698792 
0.0 0.0 0.0 0.0 0.0 0.07698792 
0.0 0.0 0.0 0.0 0.0 0.07698792 
0.0 0.0 0.0 0.0 0.0 0.07698792 
0.0 0.0 0.0 0.0 0.0 0.07698792 
0.0 0.0 0.0 0.0 0.0 0.07698792 
0.0 0.0 0.0 0.0 0.0 0.07698792 
0.0 0.0 0.0 0.0 0.0 0.07698792 
0.0 0.0 0.0 0.0 0.0 0.07698792 
0.0 0.0 0.0 0.0 0.0 0.07698792 
0.0 0.0 0.0 0.0 0.0 0.07698792 
0.0 0.0 0.0 0.0 0.0 0.07698792 
0.0 0.0 0.0 0.0 0.0 0.07698792 
0.0 0.0 0.0 0.0 0.0 0.07698792 
0.0 0.0 0.0 0.0 0.0 0.07698792 
0.0 0.0 0.0 0.0 0.0 0.07698792 
0.0 0.0 0.0 0.0 0.0 0.07698792 
0.0 0.0 0.0 0.0 0.0 0.07698792 
0.0 0.0 0.0 0.0 0.0 0.07698792 
0.0 0.0 0.0 0.0 0.0 0.07698792 
0.0 0.0 0.0 0.0 0.0 0.07698792 
0.0 0.0 0.0 0.0 0.0 0.07698792 
0.0 0.0 0.0 0.0 0.0 0.07698792 
0.0 0.0 0.0 0.0 0.0 0.07698792 
0.0 0.0 0.0 0.0 0.0 0.07698792 
0.0 0.0 0.0 0.0 0.0 0.07698792 
0.0 0.0 0.0 0.0 0.0 0.07698792 
0.0 0.0 0.0 0.0 0.0 0.07698792 
0.0 0.0 0.0 0.0 0.0 0.07698792 
0.0 0.0 0.0 0.0 0.0 0.07698792 
0.0 0.0 0.0 0.0 0.0 0.07698792 
0.0 0.0 0.0 0.0 0.0 0.07698792 
0.0 0.0 0.0 0.0 0.0 0.07698792 
0.0 0.0 0.0 0.0 0.0 0.07698792 
0.0 0.0 0.0 0.0 0.0 0.07698792 
0.0 0.0 0.0 0.0 0.0 0.07698792 
0.0 0.0 0.0 0.0 0.0 0.07698792 
0.0 0.0 0.0 0.0 0.0 0.07698792 
0.0 0.0 0.0 0.0 0.0 0.07698792 
0.0 0.0 0.0 0.0 0.0 0.06039527 
0.004127994 0.009004573 0.0 0.0 0.0 0.009272337 
0.0 0.044383675 0.0029381514 0.0 0.0 0.0 
0.035591006 0.043536782 0.09379346 0.0 0.0 0.0 
0.14526361 0.1117003 0.15914062 0.0 0.0 0.0 
0.2426979 0.14600039 0.28317672 0.0 0.0 0.0 
0.36156744 0.30960092 0.38870245 0.0 0.0 0.0 
0.3102611 0.47385892 0.4243688 0.0 0.0 0.0 
0.20263982 0.5662177 0.4043052 0.0 0.0 0.0 
0.057964772 0.55137616 0.3070634 0.0 0.0 0.0 
0.0 0.40932536 0.17364103 0.0 0.053560328 0.0 
0.0 0.22900546 0.06591609 0.0 0.047466803 0.0 
0.0 0.093482204 0.0 0.0 0.0054354407 0.0 
0.0 0.0153036015 0.0 0.0 0.0 0.055102132 
0.0 0.0 0.0 0.0 0.0 0.07698792 
0.0 0.0 0.0 0.0 0.0 0.07698792 
0.0 0.0 0.0 0.0 0.0 0.07698792 
0.0 0.0 0.0 0.0 0.0 0.07698792 
0.0 0.0 0.0 0.0 0.0 0.07698792 
0.0 0.0 0.0 0.0 0.0 0.07698792 
0.0 0.0 0.0 0.0 0.0 0.07698792 
0.0 0.0 0.0 0.0 0.0 0.07698792 
0.0 0.0 0.0 0.0 0.0 0.07698792 
0.0 0.0 0.0 0.0 0.0 0.07698792 
0.0 0.0 0.0 0.0 0.0 0.07698792 
0.0 0.0 0.0 0.0 0.0 0.07698792 
0.0 0.0 0.0 0.0 0.0 0.05172184 
0.075843036 0.0024053259 0.06573511 0.0 0.0 0.0 
0.23452306 0.013335294 0.19356117 0.0 0.0 0.0 
0.42884135 0.17668492 0.33256286 0.0 0.0 0.0 
0.41495734 0.42364004 0.39887977 0.0 0.0 0.0 
0.3907892 0.517233 0.5281185 0.0 0.0 0.0 
0.49563968 0.5376023 0.6036348 0.0 0.0 0.0 
0.6684886 0.50241107 0.5547169 0.0 0.0 0.0 
0.78629136 0.6833021 0.7463622 0.0 0.0 0.0 
0.66185075 0.9252301 0.90071476 0.0 0.0 0.0 
0.4016425 1.1670855 1.0732925 0.0 0.18286401 0.0 
0.06417784 1.1828437 1.1038467 0.0 0.38671085 0.0 
0.0 1.0888888 0.8506844 0.0 0.4611787 0.0 
0.0 0.77839637 0.54815495 0.0 0.41711184 0.0 
0.0 0.44740558 0.28189242 0.0 0.27768126 0.0 
0.0 0.17914386 0.048044562 0.0 0.1322046 0.0 
0.0 0.028209332 0.0 0.0 0.0 0.04311706 
0.0 0.0 0.0 0.0 0.0 0.07698792 
0.0 0.0 0.0 0.0 0.0 0.07698792 
0.0 0.0 0.0 0.0 0.0 0.07698792 
0.0 0.0 0.0 0.0 0.0 0.07698792 
0.0 0.0 0.0 0.0 0.0 0.07698792 
0.0 0.0 0.0 0.0 0.0 0.07698792 
0.0 0.0 0.0 0.0 0.0 0.07698792 
0.0 0.0 0.0 0.0 0.0 0.07698792 
0.0 0.0 0.0 0.0 0.0 0.07698792 
0.0 0.0 0.0 0.0 0.0 0.07698792 
0.0 0.0 0.015607417 0.0 0.0 0.042671304 
0.22535235 0.0 0.14821783 0.0 0.0 0.0 
0.50399894 0.04511758 0.26004758 0.0 0.0 0.0 
0.7519335 0.1330316 0.33523655 0.0 0.0 0.0 
0.9245671 0.443498 0.58506423 0.0 0.0 0.0 
0.78840506 0.8318139 0.79817545 0.0 0.0 0.0 
0.6294824 0.93945277 0.9467648 0.0 0.17004126 0.0 
0.5682296 0.8388976 1.0730546 0.0 0.37825385 0.0 
0.77516365 0.6634215 0.8928431 0.0 0.52443653 0.0 
0.7753864 0.8424932 0.97768486 0.0 0.69941884 0.0 
0.488177 1.0236636 1.2704679 0.034154568 0.9984694 0.0 
0.3326977 1.2561718 1.5708559 0.14403927 1.0464289 0.0 
0.1859065 1.4559929 1.8055809 0.021171387 0.9568767 0.0 
0.031710073 1.5935303 1.8364714 0.0 0.8621712 0.0 
0.0 1.6164566 1.4145244 0.0 0.8508159 0.0 
0.0 1.1222361 0.98781157 0.0 0.7296552 0.0 
0.0 0.5003722 0.4321014 0.0 0.49464163 0.0 
0.0 0.14214312 0.03560225 0.0 0.16713573 0.0 
0.0 0.0035201106 0.0 0.0 0.0 0.06604503 
0.0 0.0 0.0 0.0 0.0 0.07698792 
0.0 0.0 0.0 0.0 0.0 0.07698792 
0.0 0.0 0.0 0.0 0.0 0.07698792 
0.0 0.0 0.0 0.0 0.0 0.07698792 
0.0 0.0 0.0 0.0 0.0 0.07698792 
0.0 0.0 0.0 0.0 0.0 0.07698792 
0.0 0.0 0.0 0.0 0.0 0.07698792 
0.0 0.0 0.0 0.0 0.0 0.07698792 
0.0 0.0 0.0 0.0 0.0 0.07698792 
0.04543645 0.0 0.0 0.0 0.0 0.06438035 
0.52871096 0.0 0.0652829 0.0 0.0 0.018698882 
1.0579543 0.0 0.19335094 0.0 0.0 0.0 
1.2948923 0.1651122 0.34735662 0.0 0.0 0.0 
1.1093259 0.69251305 0.72864944 0.0 0.37144485 0.0 
0.6291576 1.0909797 1.0314173 0.0 0.967603 0.0 
0.46363735 1.2161021 1.1339004 0.27730593 1.2744309 0.0 
0.38557598 1.2318518 1.1709787 0.6116667 1.497206 0.0 
0.512271 1.1687886 0.8197765 0.9766342 1.6048231 0.23598692 
0.52476656 1.203876 0.5183053 1.2675261 1.8144978 0.740881 
0.25320023 1.3338892 0.68912196 1.5305071 1.8045677 0.8888299 
0.27871835 1.2170459 1.1304531 1.4704236 1.5652963 0.7696695 
0.39179748 1.2642317 1.5427277 1.296801 1.3162185 0.3608737 
0.13284658 1.5865244 1.8909123 0.96815425 1.0857054 0.0 
0.0 1.9008673 2.080658 0.48917183 1.2603934 0.0 
0.0 1.7077957 1.7590898 0.0 1.240632 0.0 
0.0 1.0140817 1.1220759 0.0 0.83832484 0.0 
0.0 0.17918007 0.24530488 0.0 0.42715254 0.0 
0.0 0.0 0.0 0.0 0.0 0.06474316 
0.0 0.0 0.0 0.0 0.0 0.07698792 
0.0 0.0 0.0 0.0 0.0 0.07698792 
0.0 0.0 0.0 0.0 0.0 0.07698792 
0.0 0.0 0.0 0.0 0.0 0.07698792 
0.0 0.0 0.0 0.0 0.0 0.07698792 
0.0 0.0 0.0 0.0 0.0 0.07698792 
0.0 0.0 0.0 0.0 0.0 0.07698792 
0.0 0.0 0.0 0.0 0.0 0.07698792 
0.0 0.0 0.0 0.0 0.0 0.07698792 
0.09237841 0.0 0.0 0.037105937 0.0 0.19303815 
0.75393206 0.0 0.0 0.1928637 0.0 0.42987603 
1.4375741 0.0 0.0 0.4196671 0.0 0.33288354 
1.4414763 0.34435046 0.0 0.70470774 0.6066886 0.24085617 
1.0038741 1.071221 0.29523492 0.9005738 1.3924047 0.36347288 
0.4542492 1.522704 0.59472275 0.978465 1.9856459 0.45474365 
0.21167088 1.4778278 0.6654247 1.2111382 2.3121326 0.87240535 
0.057222754 1.3121457 0.5473275 1.4138212 2.447671 1.2371707 
0.073863894 0.88421303 0.023605816 1.2846516 2.5377445 1.5426364 
0.34872478 0.60627866 0.0 1.1481525 2.529199 1.7565978 
0.40498126 0.5376263 0.0 1.0865209 2.270723 1.805085 
0.5949312 0.34533817 0.0 0.9130809 1.8109425 1.7481186 
0.8875005 0.3634531 0.0 0.7932034 1.5205338 1.3281271 
0.7872411 0.9686753 0.650098 0.6662255 1.362717 0.531533 
0.0 2.0885313 1.7548014 0.5834505 1.4758613 0.0 
0.0 1.9300429 2.1721206 0.2739345 1.602389 0.0 
0.0 1.2875309 1.7726264 0.106862396 1.0733284 0.0 
0.0 0.4692142 0.6364482 0.0 0.4834964 0.0 
0.0 0.026173756 0.0 0.0 0.0 0.0596709 
0.0 0.0 0.0 0.0 0.0 0.07698792 
0.0 0.0 0.0 0.0 0.0 0.07698792 
0.0 0.0 0.0 0.0 0.0 0.07698792 
0.0 0.0 0.0 0.0 0.0 0.07698792 
0.0 0.0 0.0 0.0 0.0 0.07698792 
0.0 0.0 0.0 0.0 0.0 0.07698792 
0.0 0.0 0.0 0.0 0.0 0.07698792 
0.0 0.0 0.0 0.0 0.0 0.07698792 
0.0 0.0 0.0 0.0 0.0 0.07698792 
0.12588143 0.0 0.0 0.110308506 0.0 0.28318107 
0.79342955 0.0 0.0 0.36729828 0.15014173 0.90023893 
1.3642957 0.0 0.0 0.6930451 0.62587816 1.3056188 
1.4276099 0.113462746 0.0 0.9834544 1.5310581 1.4093754 
0.8715432 0.8177905 0.0 1.2307918 2.2288208 1.631459 
0.0602414 0.9983472 0.0 1.1847296 2.6919975 1.5975094 
0.0 0.85202235 0.0 0.8341087 2.744111 1.5769258 
0.0 0.7105914 0.0 0.71864045 2.3961022 1.7069335 
0.025474533 0.3785104 0.0 0.3717045 2.1083333 1.7811635 
0.23197359 0.2615102 0.0 0.058105007 1.7479951 1.5944641 
0.45872927 0.0 0.0 0.0 1.4273338 1.4357259 
1.1653483 0.0 0.0 0.0 1.2262768 1.5256126 
1.6198676 0.0 0.0 0.0 1.3210613 1.2100432 
1.3463669 0.6806721 0.0 0.0 1.4594792 0.54023635 
0.0 1.8507901 0.652865 0.0 1.9178134 0.0 
0.0 2.0018904 1.8085902 0.0 1.865517 0.0 
0.0 1.3345492 1.9690989 0.0 1.2190279 0.0 
0.0 0.49327472 0.92055905 0.0 0.6396001 0.0 
0.0 0.02946955 0.012421884 0.0 0.00023193285 0.05988968 
0.0 0.0 0.0 0.0 0.0 0.07698792 
0.0 0.0 0.0 0.0 0.0 0.07698792 
0.0 0.0 0.0 0.0 0.0 0.07698792 
0.0 0.0 0.0 0.0 0.0 0.07698792 
0.0 0.0 0.0 0.0 0.0 0.07698792 
0.0 0.0 0.0 0.0 0.0 0.07698792 
0.0 0.0 0.0 0.0 0.0 0.07698792 
0.0 0.0 0.0 0.0 0.0 0.07698792 
0.0 0.0 0.0 0.0 0.0 0.07698792 
0.11287783 0.0 0.0 0.0 0.1036772 0.2507431 
0.78932554 0.0 0.0 0.06223839 0.6383647 0.954296 
1.1821606 0.0 0.0 0.17292534 1.149051 1.4758205 
0.8774799 0.0 0.0 0.33509085 1.6551012 1.4823368 
0.46263134 0.23176874 0.0 0.4783684 2.0730247 1.7564993 
0.0 0.5494155 0.0 0.44387487 2.1048782 1.7584505 
0.0 0.35109913 0.0 0.0 1.8397104 1.3649147 
0.0 0.028378598 0.0 0.0 1.3891586 1.1510415 
0.17092428 0.0 0.0 0.0 1.0732176 0.9436186 
0.44477755 0.0 0.0 0.0 0.7199833 0.48058394 
0.8197197 0.0 0.0 0.0 0.488943 0.17656249 
1.6131768 0.0 0.0 0.0 0.6991362 0.29013267 
1.8753991 0.0 0.0 0.0 1.3910222 0.34199116 
1.4194753 0.62427455 0.0 0.0 1.9811181 0.2825201 
0.02438534 1.6209929 0.1537233 0.0 2.3164897 0.0 
0.0 1.7803264 1.4959922 0.0 2.0782197 0.0 
0.0 1.250767 1.8623296 0.0 1.4549204 0.0 
0.0 0.36663663 1.0184679 0.0 0.7634991 0.0 
0.0 0.01479886 0.027625784 0.0 0.010939602 0.06334753 
0.0 0.0 0.0 0.0 0.0 0.07698792 
0.0 0.0 0.0 0.0 0.0 0.07698792 
0.0 0.0 0.0 0.0 0.0 0.07698792 
0.0 0.0 0.0 0.0 0.0 0.07698792 
0.0 0.0 0.0 0.0 0.0 0.07698792 
0.0 0.0 0.0 0.0 0.0 0.07698792 
0.0 0.0 0.0 0.0 0.0 0.07698792 
0.0 0.0 0.0 0.0 0.0 0.07698792 
0.0 0.0 0.0 0.0 0.0 0.07698792 
0.02252572 0.0 0.0 0.0 0.07785083 0.14444262 
0.45077324 0.0 0.0 0.0 0.47536942 0.55502963 
0.795658 0.0 0.0 0.0 0.9382711 1.0769556 
0.51335126 0.0 0.0 0.0 1.1688652 1.1136258 
0.25847635 0.0 0.0 0.0 1.2355503 1.120204 
0.0 0.0 0.0 0.0 1.2018551 1.0520321 
0.0 0.0 0.0 0.0 0.79791087 0.6488102 
0.0 0.0 0.0 0.0 0.43818566 0.40412146 
0.2671104 0.0 0.0 0.0 0.033047993 0.2120088 
0.830283 0.0 0.0337063 0.0 0.0 0.0 
1.3747046 0.0 0.0 0.0 0.0 0.0 
1.7275662 0.3335875 0.0 0.0 0.74450535 0.0 
1.5038216 0.70287 0.0 0.0 1.8520429 0.032339312 
0.9880652 1.1874778 0.0 0.0 2.3503876 0.3419629 
0.0 1.8484144 0.24131915 0.1600588 2.5024967 0.21917357 
0.0 1.7335868 1.4334867 0.374093 2.084846 0.03083527 
0.0 1.042882 1.7991668 0.37952298 1.3603977 0.29291096 
0.0 0.3625363 1.0691413 0.26357594 0.5480827 0.10003395 
0.0 0.028054506 0.039777994 0.025168851 0.0 0.0777813 
0.0 0.0 0.0 0.0 0.0 0.07698792 
0.0 0.0 0.0 0.0 0.0 0.07698792 
0.0 0.0 0.0 0.0 0.0 0.07698792 
0.0 0.0 0.0 0.0 0.0 0.07698792 
0.0 0.0 0.0 0.0 0.0 0.07698792 
0.0 0.0 0.0 0.0 0.0 0.07698792 
0.0 0.0 0.0 0.0 0.0 0.07698792 
0.0 0.0 0.0 0.0 0.0 0.07698792 
0.0 0.0 0.0 0.0 0.0 0.07698792 
0.0 0.0 0.0 0.0 0.0 0.08193893 
0.13680348 0.0 0.0 0.0 0.26255047 0.21773729 
0.36931276 0.0 0.0 0.0 0.5367444 0.42318642 
0.19916183 0.0 0.0 0.0 0.48768654 0.39011788 
0.0 0.0 0.0 0.0 0.46044472 0.38356236 
0.0 0.0 0.0 0.0 0.38519862 0.36466527 
0.0 0.0 0.0 0.0 0.19265367 0.18530853 
0.017214142 0.0 0.0 0.0 0.0 0.13919078 
0.71826226 0.0 0.0 0.0 0.0 0.21551713 
1.4010172 0.0 0.00454434 0.059938874 0.0 0.039440908 
1.6287255 0.2245628 0.04461456 0.25057545 0.39262977 0.0 
1.5283618 0.86775464 0.15850657 0.2077991 1.5106354 0.03328792 
1.233141 1.3242192 0.05702319 0.110256776 2.296307 0.20456827 
0.80603415 1.6372716 0.0 0.03332385 2.7777214 0.38588673 
0.0 2.0100338 0.4113821 0.0 2.564023 0.088535815 
0.0 1.5257051 1.335979 0.0 1.8312097 0.0 
0.0 0.82686704 1.5035932 0.0 1.0818948 0.0 
0.0 0.48007342 1.0403903 0.0 0.26818192 0.0 
0.0 0.20290643 0.13693151 0.0 0.023192141 0.0 
0.0 0.10751285 0.0 0.0 0.0033028312 0.0 
0.0 0.025964856 0.0 0.0 0.0 0.04520142 
0.0 0.0 0.0 0.0 0.0 0.07698792 
0.0 0.0 0.0 0.0 0.0 0.07698792 
0.0 0.0 0.0 0.0 0.0 0.07698792 
0.0 0.0 0.0 0.0 0.0 0.07698792 
0.0 0.0 0.0 0.0 0.0 0.07698792 
0.0 0.0 0.0 0.0 0.0 0.07698792 
0.0 0.0 0.0 0.0 0.0 0.07698792 
0.0 0.0 0.0 0.0 0.0 0.07698792 
0.0 0.0 0.0 0.0 0.0 0.07698792 
0.0 0.0 0.0 0.0 0.022641335 0.11226386 
0.0 0.0 0.0 0.0 0.0074276067 0.11345212 
0.0 0.0 0.0 0.0 0.0 0.08618134 
0.0 0.0 0.0 0.0 0.0 0.11100608 
0.0 0.0 0.0 0.0 0.0 0.08484279 
0.15469274 0.0 0.0 0.037051924 0.0 0.2162523 
1.0186834 0.0 0.0 0.29877725 0.0 0.60960555 
1.7837391 0.0 0.0 0.45553535 0.26794913 0.7151367 
1.7861726 0.4611716 0.0 0.49732515 1.0887852 0.58538324 
1.5025434 1.167809 0.0 0.41894323 1.885733 0.5429051 
1.0024045 1.5186474 0.28329617 0.18614617 2.467722 0.4661122 
0.51472384 1.8616993 0.43917155 0.0 2.6533763 0.2183862 
0.0 1.955304 0.87075144 0.0 2.1533923 0.0 
0.0 1.5674365 1.6265779 0.0 1.2839727 0.0 
0.0 1.0608598 1.6322799 0.0 0.7318542 0.0 
0.0 0.90814775 1.0839403 0.0 0.393813 0.0 
0.0 0.71812123 0.49635446 0.0 0.3510121 0.0 
0.0 0.4117523 0.25859427 0.0 0.2884355 0.0 
0.0 0.1034765 0.014188364 0.0 0.14105846 0.0 
0.0 0.0 0.0 0.0 0.0 0.07698792 
0.0 0.0 0.0 0.0 0.0 0.07698792 
0.0 0.0 0.0 0.0 0.0 0.07698792 
0.0 0.0 0.0 0.0 0.0 0.07698792 
0.0 0.0 0.0 0.0 0.0 0.07698792 
0.0 0.0 0.0 0.0 0.0 0.07698792 
0.0 0.0 0.0 0.0 0.0 0.07698792 
0.0 0.0 0.0 0.0 0.0 0.07698792 
0.0 0.0 0.0 0.0 0.0 0.07698792 
0.0 0.0 0.0 0.0 0.0 0.07698792 
0.0 0.0 0.0 0.0 0.0 0.07698792 
0.0 0.0 0.0 0.0 0.0 0.07698792 
0.0 0.0 0.0 0.0 0.0 0.07698792 
0.0 0.0 0.0 0.0 0.0 0.07698792 
0.19549459 0.0 0.0 0.1243445 0.0 0.33810288 
1.0534551 0.0 0.0 0.24978751 0.38681358 1.041709 
1.6666944 0.0 0.0 0.504456 1.0127958 1.4466944 
1.6897049 0.0 0.0 0.6701572 1.5841852 1.4678652 
1.4055858 0.6363548 0.0 0.7574453 2.1010985 1.4745524 
0.8809166 0.92079526 0.026766099 0.4754421 2.5607793 1.117933 
0.3949327 1.2953067 0.5141504 0.0 2.389223 0.31878087 
0.0 1.4553236 1.2477053 0.0 1.7994455 0.0 
0.0 1.2736409 1.8878064 0.0 1.3179928 0.0 
0.0 1.2609682 1.9304711 0.0 1.0017326 0.0 
0.0 1.3665932 1.4671321 0.0 0.9833613 0.0 
0.0 1.4108235 1.1702862 0.0 0.9383984 0.0 
0.0 0.8980264 0.87356764 0.0 0.7194763 0.0 
0.0 0.2520366 0.24541345 0.0 0.410458 0.0 
0.0 0.033820517 0.0 0.0 0.0 0.03790616 
0.0 0.0 0.0 0.0 0.0 0.07698792 
0.0 0.0 0.0 0.0 0.0 0.07698792 
0.0 0.0 0.0 0.0 0.0 0.07698792 
0.0 0.0 0.0 0.0 0.0 0.07698792 
0.0 0.0 0.0 0.0 0.0 0.07698792 
0.0 0.0 0.0 0.0 0.0 0.07698792 
0.0 0.0 0.0 0.0 0.0 0.07698792 
0.0 0.0 0.0 0.0 0.0 0.07698792 
0.0 0.0 0.0 0.0 0.0 0.07698792 
0.0 0.0 0.0 0.0 0.0 0.07698792 
0.0 0.0 0.0 0.0 0.0 0.07698792 
0.0 0.0 0.0 0.0 0.0 0.07698792 
0.0 0.0 0.0 0.0 0.0 0.07698792 
0.18696359 0.0 0.0 0.013143941 0.14686176 0.3198814 
0.8787562 0.0 0.0 0.09539822 0.6771881 1.026448 
1.2125595 0.0 0.0 0.23923628 1.2255449 1.4895904 
1.1596234 0.0 0.0 0.4862207 1.6596583 1.7288005 
1.0367291 0.0 0.0 0.84921354 2.046812 2.0641024 
0.95173675 0.16828334 0.0 1.074301 2.236409 1.9627454 
0.7113609 0.7452203 0.018309653 1.0516492 1.8678858 1.3220911 
0.3149265 1.0124078 1.0483841 0.8779604 1.6361033 0.5850943 
0.33448017 1.2014693 1.7761033 0.74071866 1.5623243 0.070796035 
0.25042707 1.4752102 1.9876999 0.54410285 1.4380909 0.0 
0.0 2.0269325 1.8503481 0.29682583 1.4414822 0.0 
0.0 1.9822391 1.884554 0.0982242 1.4163127 0.0 
0.0 1.448368 1.6418854 0.0 1.0571685 0.0 
0.0 0.5787093 0.7255707 0.0 0.6231505 0.0 
0.0 0.041256055 0.001670137 0.0 0.101639405 0.0015445799 
0.0 0.0 0.0 0.0 0.0 0.07698792 
0.0 0.0 0.0 0.0 0.0 0.07698792 
0.0 0.0 0.0 0.0 0.0 0.07698792 
0.0 0.0 0.0 0.0 0.0 0.07698792 
0.0 0.0 0.0 0.0 0.0 0.07698792 
0.0 0.0 0.0 0.0 0.0 0.07698792 
0.0 0.0 0.0 0.0 0.0 0.07698792 
0.0 0.0 0.0 0.0 0.0 0.07698792 
0.0 0.0 0.0 0.0 0.0 0.07698792 
0.0 0.0 0.0 0.0 0.0 0.07698792 
0.0 0.0 0.0 0.0 0.0 0.07698792 
0.0 0.0 0.0 0.0 0.0 0.07698792 
0.0 0.0 0.0 0.0 0.0 0.07698792 
0.07356438 0.0 0.0 0.0 0.112534285 0.19726627 
0.5377147 0.0 0.0 0.0 0.54437387 0.6695146 
0.80866766 0.0 0.0 0.0 0.99501175 1.1352282 
0.8447722 0.0 0.0 0.0 1.3373897 1.5272832 
0.881059 0.0 0.0 0.0 1.6795887 1.9355893 
0.7411281 0.0 0.0 0.4216638 1.8770388 2.0365539 
0.79446054 0.0 0.0 0.865132 1.7331834 1.957788 
1.0300841 0.21654388 0.0 1.0543818 1.674935 1.6581061 
1.0767219 0.90173787 0.39129746 1.0789131 1.7316492 1.2295966 
0.73763657 1.3280883 0.9120604 0.82221574 1.8337146 0.5976577 
0.0 2.0674746 1.4017199 0.45528603 1.9048895 0.0 
0.0 2.1501596 1.9513727 0.27255586 1.7845873 0.0 
0.0 1.6087824 2.0826426 0.16098157 1.3561918 0.0 
0.0 0.78707594 1.2300322 0.0 0.80208486 0.0 
0.0 0.1146484 0.13251498 0.0 0.16933292 0.0 
0.0 0.0 0.0 0.0 0.0 0.07698792 
0.0 0.0 0.0 0.0 0.0 0.07698792 
0.0 0.0 0.0 0.0 0.0 0.07698792 
0.0 0.0 0.0 0.0 0.0 0.07698792 
0.0 0.0 0.0 0.0 0.0 0.07698792 
0.0 0.0 0.0 0.0 0.0 0.07698792 
0.0 0.0 0.0 0.0 0.0 0.07698792 
0.0 0.0 0.0 0.0 0.0 0.07698792 
0.0 0.0 0.0 0.0 0.0 0.07698792 
0.0 0.0 0.0 0.0 0.0 0.07698792 
0.0 0.0 0.0 0.0 0.0 0.07698792 
0.0 0.0 0.0 0.0 0.0 0.07698792 
0.0 0.0 0.0 0.0 0.0 0.07698792 
0.0 0.0 0.0 0.0 0.005571697 0.10483734 
0.20683068 0.0 0.0 0.0 0.3285708 0.28416348 
0.39716995 0.0 0.0 0.0 0.6096741 0.48012292 
0.49907053 0.0 0.0 0.0 0.8294516 0.7257585 
0.6183829 0.0 0.0 0.0 1.1495496 1.1629045 
0.6714435 0.0 0.0 0.0 1.4476837 1.5804181 
0.9944115 0.0 0.0 0.0 1.4307811 1.8556213 
1.374057 0.0 0.0 0.061832573 1.4537865 1.7740033 
1.5283346 0.0 0.0 0.2632914 1.7364807 1.4764733 
1.3224347 0.77912223 0.0 0.339586 2.01933 1.0182381 
0.16444357 1.7943106 0.56253505 0.19790523 2.255579 0.2164914 
0.0 1.9562755 1.454392 0.06020641 2.1589973 0.0 
0.0 1.5231082 1.9815875 0.14969529 1.5849499 0.0 
0.0 0.7163697 1.4454575 0.08378123 0.90119064 0.0 
0.0 0.16102602 0.28385177 0.03686265 0.16549042 0.035136007 
0.0 0.0 0.0 0.0 0.0 0.07698792 
0.0 0.0 0.0 0.0 0.0 0.07698792 
0.0 0.0 0.0 0.0 0.0 0.07698792 
0.0 0.0 0.0 0.0 0.0 0.07698792 
0.0 0.0 0.0 0.0 0.0 0.07698792 
0.0 0.0 0.0 0.0 0.0 0.07698792 
0.0 0.0 0.0 0.0 0.0 0.07698792 
0.0 0.0 0.0 0.0 0.0 0.07698792 
0.0 0.0 0.0 0.0 0.0 0.07698792 
0.0 0.0 0.0 0.0 0.0 0.07698792 
0.0 0.0 0.0 0.0 0.0 0.07698792 
0.0 0.0 0.0 0.0 0.0 0.07698792 
0.0 0.0 0.0 0.0 0.0 0.07698792 
0.0 0.0 0.0 0.0 0.0 0.07698792 
0.0 0.0 0.0 0.0 0.0 0.09679196 
0.0 0.0 0.0 0.0 0.04629301 0.12693709 
0.11750983 0.0 0.0 0.0 0.25030726 0.2152673 
0.27878922 0.0 0.0 0.0 0.5212241 0.36189768 
0.5465242 0.0 0.0 0.0 0.66556704 0.56810164 
1.1724212 0.0 0.0 0.0 0.75976694 0.9650662 
1.6859064 0.0 0.0 0.0 0.9586069 1.1658745 
1.8832643 0.0 0.0 0.0 1.3673162 0.9410971 
1.433573 0.6614411 0.0 0.0 2.069624 0.7997588 
0.05096457 1.6012697 0.14344704 0.06752637 2.591628 0.45406383 
0.0 1.7795842 1.0690237 0.21190225 2.3164437 0.061668187 
0.0 1.2227081 1.6328871 0.27628234 1.6244867 0.23540488 
0.0 0.45169267 1.2863312 0.22454986 0.8213212 0.18019222 
0.0 0.096846096 0.32448918 0.089946866 0.1085362 0.08600579 
0.0 0.0 0.0 0.0 0.0 0.07698792 
0.0 0.0 0.0 0.0 0.0 0.07698792 
0.0 0.0 0.0 0.0 0.0 0.07698792 
0.0 0.0 0.0 0.0 0.0 0.07698792 
0.0 0.0 0.0 0.0 0.0 0.07698792 
0.0 0.0 0.0 0.0 0.0 0.07698792 
0.0 0.0 0.0 0.0 0.0 0.07698792 
0.0 0.0 0.0 0.0 0.0 0.07698792 
0.0 0.0 0.0 0.0 0.0 0.07698792 
0.0 0.0 0.0 0.0 0.0 0.07698792 
0.0 0.0 0.0 0.0 0.0 0.07698792 
0.0 0.0 0.0 0.0 0.0 0.07698792 
0.0 0.0 0.0 0.0 0.0 0.07698792 
0.0 0.0 0.0 0.0 0.0 0.073593974 
0.0 0.0 0.0 0.0 0.0 0.058843143 
0.0 0.005990858 0.0 0.0 0.0 0.033081457 
0.0032565594 0.0015662583 0.029682137 0.0 0.0 0.0 
0.14900215 0.018900536 0.15460336 0.0 0.0 0.0 
0.537012 0.0 0.075087406 0.0 0.0 0.0 
1.314858 0.0 0.0 0.0 0.012753729 0.0 
2.0409787 0.0 0.0 0.0 0.5817636 0.17654312 
1.9919462 0.32998076 0.0 0.0 1.4020038 0.3008897 
1.1191528 0.9589098 0.0 0.0 2.5027618 0.51344717 
0.0 1.6127264 0.0 0.0 2.8214529 0.4094318 
0.0 1.5555587 0.958639 0.17896165 2.2090337 0.2462287 
0.0 0.78739417 1.2836152 0.17303842 1.3944656 0.42099148 
0.0 0.28775442 1.0011592 0.2544103 0.46480134 0.26909453 
0.0 0.03691463 0.23168856 0.06499286 0.025751043 0.105659515 
0.0 0.0 0.0 0.0 0.0 0.07698792 
0.0 0.0 0.0 0.0 0.0 0.07698792 
0.0 0.0 0.0 0.0 0.0 0.07698792 
0.0 0.0 0.0 0.0 0.0 0.07698792 
0.0 0.0 0.0 0.0 0.0 0.07698792 
0.0 0.0 0.0 0.0 0.0 0.07698792 
0.0 0.0 0.0 0.0 0.0 0.07698792 
0.0 0.0 0.0 0.0 0.0 0.07698792 
0.0 0.0 0.0 0.0 0.0 0.07698792 
0.0 0.0 0.0 0.0 0.0 0.06378922 
0.054666087 0.0 0.06855833 0.0 0.0 0.0 
0.1829507 0.06152086 0.14989415 0.0 0.0 0.0 
0.18857515 0.19331282 0.19599101 0.0 0.0 0.0 
0.206882 0.26328856 0.32124418 0.0 0.0 0.0 
0.3247059 0.3551667 0.40641212 0.0 0.0 0.0 
0.3804959 0.42331967 0.44649345 0.0 0.0 0.0 
0.4339962 0.48105165 0.4936387 0.0 0.0 0.0 
0.55299693 0.48170778 0.5308858 0.0 0.0 0.0 
0.90653074 0.31212255 0.4866742 0.0 0.0 0.0 
1.5005152 0.22867832 0.27099085 0.0 0.11796248 0.0 
1.7935457 0.47263905 0.0 0.0 1.040729 0.0 
1.4499156 0.87550807 0.0 0.0 1.9969214 0.10530049 
0.5822775 1.5750277 0.0 0.0 2.757231 0.31725344 
0.0 1.8032157 0.16629738 0.0 2.6937065 0.3232699 
0.0 1.2876716 0.9507626 0.0 1.8662815 0.36128706 
0.0 0.42711833 0.94168806 0.0 1.0098063 0.39167333 
0.0 0.036626685 0.56692916 0.05670763 0.23118086 0.23684224 
0.0 0.0 0.07497462 0.0 0.0 0.095324636 
0.0 0.0 0.0 0.0 0.0 0.07698792 
0.0 0.0 0.0 0.0 0.0 0.07698792 
0.0 0.0 0.0 0.0 0.0 0.07698792 
0.0 0.0 0.0 0.0 0.0 0.07698792 
0.0 0.0 0.0 0.0 0.0 0.07698792 
0.0 0.0 0.0 0.0 0.0 0.07698792 
0.0 0.0 0.0 0.0 0.0 0.07698792 
0.0 0.0 0.0 0.0 0.0 0.07698792 
0.0 0.0 0.0 0.0 0.0 0.06265791 
0.1087144 0.0 0.09038063 0.0 0.0 0.0 
0.41253114 0.0 0.18855134 0.0 0.0 0.0 
0.6545445 0.12099382 0.34199113 0.0 0.0 0.0 
0.7225181 0.50332505 0.5635124 0.0 0.0 0.0 
0.5988264 0.79361945 0.7442214 0.0 0.0 0.0 
0.52873164 0.7657954 0.8578868 0.0 0.0 0.0 
0.64140314 0.763771 0.8442638 0.0 0.0 0.0 
0.72070163 0.8719662 0.9097069 0.0 0.0580439 0.0 
0.7373043 0.7873574 0.94447684 0.0 0.2941691 0.0 
0.92301184 0.7273615 0.8285678 0.0 0.57623744 0.0 
1.221384 0.7762446 0.48814255 0.0 1.2184794 0.0 
1.2827101 1.0642736 0.050558336 0.032407757 1.963138 0.045316868 
0.9675924 1.4165368 0.0 0.18626612 2.530162 0.39663917 
0.0 1.8078032 0.037271917 0.07775785 2.8485463 0.37983423 
0.0 1.6312855 0.63766766 0.07739185 2.3402555 0.26882342 
0.0 0.80027306 1.0757852 0.0 1.5017847 0.38082978 
0.0 0.17783147 0.7705871 0.0 0.68705326 0.27334517 
0.0 0.0 0.1869008 0.0 0.10177788 0.13639571 
0.0 0.0 0.0 0.0 0.0 0.08033631 
0.0 0.0 0.0 0.0 0.0 0.07698792 
0.0 0.0 0.0 0.0 0.0 0.07698792 
0.0 0.0 0.0 0.0 0.0 0.07698792 
0.0 0.0 0.0 0.0 0.0 0.07698792 
0.0 0.0 0.0 0.0 0.0 0.07698792 
0.0 0.0 0.0 0.0 0.0 0.07698792 
0.0 0.0 0.0 0.0 0.0 0.07698792 
0.0 0.0 0.0 0.0 0.0 0.07698792 
0.0 0.0 0.0 0.0 0.0 0.062013783 
0.35653841 0.0 0.078028925 0.0 0.0 0.0 
0.9371131 0.0 0.13813344 0.0 0.0 0.0 
1.1947787 0.06437529 0.31636137 0.0 0.0 0.0 
0.99129325 0.70236737 0.7644105 0.0 0.083314806 0.0 
0.67213917 0.9592851 1.1494462 0.0 0.6234006 0.0 
0.6168379 1.022026 1.2777191 0.0 0.8695 0.0 
0.61119384 0.9934694 1.2450709 0.0 0.9826271 0.0 
0.6077929 1.0842651 1.1775576 0.25857845 1.1612512 0.0 
0.55621314 1.1908823 1.1175135 0.60836625 1.4451002 0.0 
0.7325337 1.1582224 0.79735583 0.77938694 1.8338959 0.19047372 
0.86061674 1.1861356 0.13449937 0.84935987 2.3395517 0.75492793 
0.7040656 1.0853251 0.0 0.9653685 2.6387303 1.2092633 
0.3048682 1.2443165 0.0 0.94564867 2.8797586 1.3428357 
0.0 1.4316914 0.13308099 0.7021317 2.6057198 0.99239534 
0.0 0.9950461 0.88684124 0.5123078 1.7569307 0.628841 
0.0 0.45576596 1.1446466 0.25360644 0.97742814 0.48861346 
0.0 0.11377447 0.71369296 0.12133586 0.2981176 0.18077442 
0.0 0.0 0.012753427 0.0 0.0 0.086540535 
0.0 0.0 0.0 0.0 0.0 0.07698792 
0.0 0.0 0.0 0.0 0.0 0.07698792 
0.0 0.0 0.0 0.0 0.0 0.07698792 
0.0 0.0 0.0 0.0 0.0 0.07698792 
0.0 0.0 0.0 0.0 0.0 0.07698792 
0.0 0.0 0.0 0.0 0.0 0.07698792 
0.0 0.0 0.0 0.0 0.0 0.07698792 
0.0 0.0 0.0 0.0 0.0 0.07698792 
0.0 0.0 0.0 0.0 0.0 0.07698792 
0.0105388835 0.0 0.0 0.015491632 0.0 0.13317062 
0.45498598 0.0 0.0 0.15465961 0.0 0.37885156 
1.0946119 0.0 0.0 0.49349484 0.0 0.5888759 
1.2906613 0.0 0.0 0.8556254 0.45885304 0.57505584 
0.86275285 0.71274346 0.2135446 1.1294496 1.0118533 0.487008 
0.6101736 1.0350978 0.91501015 1.2111145 1.41939 0.43289697 
0.5701847 1.4265969 0.9880408 1.3003806 1.7321715 0.5187732 
0.29000038 1.4231496 0.7911515 1.2971511 1.8931316 0.68910766 
0.3558081 1.4184442 0.65849173 1.3800782 2.0910285 0.917498 
0.28881714 1.2604307 0.40795133 1.3958333 2.4897363 1.3366508 
0.32432452 1.0410068 0.04307261 1.5017073 2.491751 1.6139836 
0.24904355 0.793315 0.0 1.2348382 2.7281377 1.7406034 
0.20160472 0.6828383 0.0 1.0619284 2.6791747 1.8120258 
0.0 0.74588984 0.0 0.82223266 2.4709768 1.6193819 
0.0 0.6934518 0.0 0.52536774 1.8196899 1.1021953 
0.0 0.4844473 0.58812785 0.34513143 0.921899 0.7235448 
0.0 0.21648562 0.79312444 0.18316996 0.44126675 0.4340167 
0.0 0.0 0.40868992 0.04736217 0.109503925 0.14240885 
0.0 0.0 0.0 0.0 0.0 0.07835772 
0.0 0.0 0.0 0.0 0.0 0.07698792 
0.0 0.0 0.0 0.0 0.0 0.07698792 
0.0 0.0 0.0 0.0 0.0 0.07698792 
0.0 0.0 0.0 0.0 0.0 0.07698792 
0.0 0.0 0.0 0.0 0.0 0.07698792 
0.0 0.0 0.0 0.0 0.0 0.07698792 
0.0 0.0 0.0 0.0 0.0 0.07698792 
0.0 0.0 0.0 0.0 0.0 0.07698792 
0.0 0.0 0.0 0.0 0.0 0.07698792 
0.036903396 0.0 0.0 0.055710178 0.0 0.18926512 
0.51687026 0.0 0.0 0.2981516 0.1647784 0.66558844 
0.98744684 0.0 0.0 0.58515704 0.68344903 1.13869 
1.0582814 0.0 0.0 0.94372725 1.3084649 1.4075463 
0.83227205 0.32410935 0.0 1.2775731 1.7085122 1.6626637 
0.64506215 0.5029577 0.0 1.4097089 2.0091112 1.8355379 
0.51627505 0.6805732 0.0 1.3416958 2.4575183 1.8210952 
0.35462803 0.7369539 0.0 1.1706548 2.5963786 1.7807875 
0.04377559 0.7949881 0.0 1.0031494 2.592755 1.8199089 
0.0 0.45159435 0.0 0.64713985 2.6268733 1.7246354 
0.13793004 0.37235796 0.0 0.5912701 2.197653 1.8835611 
0.06732538 0.40776762 0.0 0.34016016 2.050023 1.7403812 
0.045577936 0.2837397 0.0 0.077911995 1.8201889 1.5955935 
0.0 0.24197313 0.0 0.0 1.4300629 1.3514276 
0.0 0.17687108 0.0 0.0 0.801603 0.8175995 
0.0 0.0 0.08871909 0.0 0.40303135 0.5096869 
0.0 0.0 0.32145387 0.0 0.203555 0.27529514 
0.0 0.0 0.11716459 0.0 0.024077918 0.10078291 
0.0 0.0 0.0 0.0 0.0 0.07698792 
0.0 0.0 0.0 0.0 0.0 0.07698792 
0.0 0.0 0.0 0.0 0.0 0.07698792 
0.0 0.0 0.0 0.0 0.0 0.07698792 
0.0 0.0 0.0 0.0 0.0 0.07698792 
0.0 0.0 0.0 0.0 0.0 0.07698792 
0.0 0.0 0.0 0.0 0.0 0.07698792 
0.0 0.0 0.0 0.0 0.0 0.07698792 
0.0 0.0 0.0 0.0 0.0 0.07698792 
0.0 0.0 0.0 0.0 0.0 0.07698792 
0.026678085 0.0 0.0 0.016178258 0.01656187 0.17590807 
0.4656468 0.0 0.0 0.04729804 0.40484634 0.646778 
0.8217872 0.0 0.0 0.0 0.932287 1.1706257 
0.79528695 0.0 0.0 0.0 1.2805828 1.4360843 
0.67576385 0.0 0.0 0.036822505 1.5874614 1.7204614 
0.5379104 0.0 0.0 0.2405977 1.8591949 1.974447 
0.24423882 0.19212894 0.0 0.2609243 1.922274 1.7086713 
0.070743635 0.20969614 0.0 0.28547627 1.9287935 1.5933852 
0.027286537 0.2634857 0.0 0.04563108 1.7923774 1.6516795 
0.0 0.16728099 0.0 0.0 1.5172001 1.2681408 
0.082695305 0.0 0.0 0.0 1.2836097 1.2093415 
0.0 0.0 0.0 0.0 1.2083765 0.9911369 
0.0 0.0 0.0 0.0 0.9656859 0.7167874 
0.0 0.0 0.0 0.0 0.6431529 0.52552503 
0.0 0.0 0.0 0.0 0.38301945 0.31484836 
0.0 0.0 0.0 0.0 0.20312841 0.21266738 
0.0 0.0 0.016686097 0.0 0.061646495 0.118564196 
0.0 0.0 0.0 0.0 0.0 0.0804885 
0.0 0.0 0.0 0.0 0.0 0.07698792 
0.0 0.0 0.0 0.0 0.0 0.07698792 
0.0 0.0 0.0 0.0 0.0 0.07698792 
0.0 0.0 0.0 0.0 0.0 0.07698792 
0.0 0.0 0.0 0.0 0.0 0.07698792 
0.0 0.0 0.0 0.0 0.0 0.07698792 
0.0 0.0 0.0 0.0 0.0 0.07698792 
0.0 0.0 0.0 0.0 0.0 0.07698792 
0.0 0.0 0.0 0.0 0.0 0.07698792 
0.0 0.0 0.0 0.0 0.0 0.07698792 
0.0 0.0 0.0 0.0 0.034021083 0.11721487 
0.24679732 0.0 0.0 0.0 0.3749918 0.31831753 
0.4514681 0.0 0.0 0.0 0.6601259 0.5522523 
0.44445372 0.0 0.0 0.0 0.8715871 0.7178636 
0.3863759 0.0 0.0 0.0 1.0608622 0.92153865 
0.37967157 0.0 0.0 0.0 1.2211875 1.1534047 
0.14772041 0.0 0.0 0.0 1.2137992 1.064652 
0.0 0.0 0.0 0.0 1.0467123 0.8451616 
0.0024847314 0.0 0.0 0.0 0.88815457 0.771645 
0.0 0.0 0.0 0.0 0.6468889 0.4632624 
0.0 0.0 0.0 0.0 0.53243405 0.4030329 
0.0 0.0 0.0 0.0 0.32550517 0.27300182 
0.0 0.0 0.0 0.0 0.13166079 0.1513722 
0.0 0.0 0.0 0.0 0.05825982 0.15329014 
0.0 0.0 0.01335305 0.0 0.0 0.08604378 
0.0 0.0 0.0 0.0 0.0 0.07698792 
0.0 0.0 0.0 0.0 0.0 0.07698792 
0.0 0.0 0.0 0.0 0.0 0.07698792 
0.0 0.0 0.0 0.0 0.0 0.07698792 
0.0 0.0 0.0 0.0 0.0 0.07698792 
0.0 0.0 0.0 0.0 0.0 0.07698792 
0.0 0.0 0.0 0.0 0.0 0.07698792 
0.0 0.0 0.0 0.0 0.0 0.07698792 
0.0 0.0 0.0 0.0 0.0 0.07698792 
0.0 0.0 0.0 0.0 0.0 0.07698792 
0.0 0.0 0.0 0.0 0.0 0.07698792 
0.0 0.0 0.0 0.0 0.0 0.07698792 
0.0 0.0 0.0 0.0 0.0 0.07698792 
0.0 0.0 0.0 0.0 0.0 0.07698792 
0.0 0.0 0.0 0.0 0.0027267598 0.10359959 
0.041050225 0.0 0.0 0.0 0.111410946 0.15677474 
0.07414439 0.0 0.0 0.0 0.1886946 0.19125324 
0.07978751 0.0 0.0 0.0 0.2647635 0.23258974 
0.17411469 0.0 0.0 0.0 0.5070805 0.34764212 
0.02148281 0.0 0.0 0.0 0.3341473 0.2836388 
0.0 0.0 0.0 0.0 0.22940002 0.1938123 
0.0 0.0 0.0 0.0 0.17953593 0.24308304 
0.0 0.0 0.009929016 0.0 0.07147613 0.09894745 
0.0 0.0 0.0 0.0 0.0 0.098778084 
0.0 0.0 0.0 0.0 0.0 0.080389805 
0.0 0.0 0.0 0.0 0.0 0.07706402 
0.0 0.0 0.0 0.0 0.0 0.07698792 
0.0 0.0 0.0 0.0 0.0 0.07698792 
0.0 0.0 0.0 0.0 0.0 0.07698792 
0.0 0.0 0.0 0.0 0.0 0.07698792 
0.0 0.0 0.0 0.0 0.0 0.07698792 
0.0 0.0 0.0 0.0 0.0 0.07698792 
0.0 0.0 0.0 0.0 0.0 0.07698792 
0.0 0.0 0.0 0.0 0.0 0.07698792 
0.0 0.0 0.0 0.0 0.0 0.07698792 
0.0 0.0 0.0 0.0 0.0 0.07698792 
0.0 0.0 0.0 0.0 0.0 0.07698792 
0.0 0.0 0.0 0.0 0.0 0.07698792 
0.0 0.0 0.0 0.0 0.0 0.07698792 
0.0 0.0 0.0 0.0 0.0 0.07698792 
0.0 0.0 0.0 0.0 0.0 0.07698792 
0.0 0.0 0.0 0.0 0.0 0.07698792 
0.0 0.0 0.0 0.0 0.0 0.07698792 
0.0 0.0 0.0 0.0 0.0 0.07698792 
0.0 0.0 0.0 0.0 0.0 0.07698792 
0.0 0.0 0.0 0.0 0.0 0.07698792 
0.0 0.0 0.0 0.0 0.0 0.07698792 
0.0 0.0 0.0 0.0 0.0 0.07698792 
0.0 0.0 0.0 0.0 0.0 0.07698792 
0.0 0.0 0.0 0.0 0.0 0.07698792 
0.0 0.0 0.0 0.0 0.0 0.07698792 
0.0 0.0 0.0 0.0 0.0 0.07698792 
0.0 0.0 0.0 0.0 0.0 0.07698792 
0.0 0.0 0.0 0.0 0.0 0.07698792 
0.0 0.0 0.0 0.0 0.0 0.07698792 
0.0 0.0 0.0 0.0 0.0 0.07698792 
0.0 0.0 0.0 0.0 0.0 0.07698792 
0.0 0.0 0.0 0.0 0.0 0.07698792 
0.0 0.0 0.0 0.0 0.0 0.07698792 
0.0 0.0 0.0 0.0 0.0 0.07698792 
0.0 0.0 0.0 0.0 0.0 0.07698792 
0.0 0.0 0.0 0.0 0.0 0.07698792 
0.0 0.0 0.0 0.0 0.0 0.07698792 
0.0 0.0 0.0 0.0 0.0 0.07698792 
0.0 0.0 0.0 0.0 0.0 0.07698792 

