0.0 0.0 0.0 0.0 0.0 0.07698792 
0.0 0.0 0.0 0.0 0.0 0.07698792 
0.0 0.0 0.0 0.0 0.0 0.07698792 
0.0 0.0 0.0 0.0 0.0 0.07698792 
0.0 0.0 0.0 0.0 0.0 0.07698792 
0.0 0.0 0.0 0.0 0.0 0.07698792 
0.0 0.0 0.0 0.0 0.0 0.07698792 
0.0 0.0 0.0 0.0 0.0 0.07698792 
0.0 0.0 0.0 0.0 0.0 0.07698792 
0.0 0.0 0.0 0.0 0.0 0.07698792 
0.0 0.0 0.0 0.0 0.0 0.07698792 
0.0 0.0 0.0 0.0 0.0 0.07698792 
0.0 0.0 0.0 0.0 0.0 0.07698792 
0.0 0.0 0.0 0.0 0.0 0.07698792 
0.0 0.0 0.0 0.0 0.0 0.07698792 
0.0 0.0 0.0 0.0 0.0 0.07698792 
0.0 0.0 0.0 0.0 0.0 0.07698792 
0.0 0.0 0.0 0.0 0.0 0.07698792 
0.0 0.0 0.0 0.0 0.0 0.07698792 
0.0 0.0 0.0 0.0 0.0 0.07698792 
0.0 0.0 0.0 0.0 0.0 0.07698792 
0.0 0.0 0.0 0.0 0.0 0.07698792 
0.0 0.0 0.0 0.0 0.0 0.07698792 
0.0 0.0 0.0 0.0 0.0 0.07698792 
0.0 0.0 0.0 0.0 0.0 0.07698792 
0.0 0.0 0.0 0.0 0.0 0.07698792 
0.0 0.0 0.0 0.0 0.0 0.07698792 
0.0 0.0 0.0 0.0 0.0 0.07698792 
0.0 0.0 0.0 0.0 0.0 0.07698792 
0.0 0.0 0.0 0.0 0.0 0.07698792 
0.0 0.0 0.0 0.0 0.0 0.07698792 
0.0 0.0 0.0 0.0 0.0 0.07698792 
0.0 0.0 0.0 0.0 0.0 0.07698792 
0.0 0.0 0.0 0.0 0.0 0.07698792 
0.0 0.0 0.0 0.0 0.0 0.07698792 
0.0 0.0 0.0 0.0 0.0 0.07698792 
0.0 0.0 0.0 0.0 0.0 0.07698792 
0.0 0.0 0.0 0.0 0.0 0.07698792 
0.0 0.0 0.0 0.0 0.0 0.07698792 
0.0 0.0 0.0 0.0 0.0 0.07698792 
0.0 0.0 0.0 0.0 0.0 0.07698792 
0.0 0.0 0.0 0.0 0.0 0.07698792 
0.0 0.0 0.0 0.0 0.0 0.07698792 
0.0 0.0 0.0 0.0 0.0 0.07698792 
0.0 0.0 0.0 0.0 0.0 0.07698792 
0.0 0.0 0.0 0.0 0.0 0.07698792 
0.0 0.0 0.0 0.0 0.0 0.07698792 
0.0 0.0 0.0 0.0 0.0 0.07698792 
0.0 0.0 0.0 0.0 0.0 0.07698792 
0.0 0.0 0.0 0.0 0.0 0.07698792 
0.0 0.0 0.0 0.0 0.0 0.07698792 
0.0 0.0 0.0 0.0 0.0 0.07698792 
0.0 0.0 0.0 0.0 0.0 0.07698792 
0.0 0.0 0.0 0.0 0.0 0.07698792 
0.0 0.0 0.0 0.0 0.0 0.07698792 
0.0 0.0 0.0 0.0 0.0 0.07698792 
0.0 0.0 0.0 0.0 0.0 0.07698792 
0.0 0.0 0.0 0.0 0.0 0.07698792 
0.0 0.0 0.0 0.0 0.0 0.07698792 
0.0 0.0 0.0 0.0 0.0 0.07698792 
0.0 0.0 0.0 0.0 0.0 0.07698792 
0.0 0.0 0.0 0.0 0.0 0.07698792 
0.0 0.0 0.0 0.0 0.0 0.07698792 
0.0 0.0 0.0 0.0 0.0 0.07698792 
0.0 0.0 0.0 0.0 0.0 0.07698792 
0.0 0.0 0.0 0.0 0.0 0.07698792 
0.0 0.0 0.0 0.0 0.0 0.07698792 
0.0 0.0 0.0 0.0 0.0 0.07698792 
0.0 0.0 0.0 0.0 0.0 0.07698792 
0.0 0.0 0.0 0.0 0.0 0.07698792 
0.0 0.0 0.0 0.0 0.0 0.07698792 
0.0 0.0 0.0 0.0 0.0 0.07698792 
0.0 0.0 0.0 0.0 0.0 0.07698792 
0.0 0.0 0.0 0.0 0.0 0.07698792 
0.0 0.0 0.0 0.0 0.0 0.07698792 
0.0 0.0 0.0 0.0 0.0 0.07698792 
0.0 0.0 0.0 0.0 0.0 0.07698792 
0.0 0.0 0.0 0.0 0.0 0.07698792 
0.0 0.0 0.0 0.0 0.0 0.07698792 
0.0 0.0 0.0 0.0 0.0 0.07698792 
0.0 0.0 0.0 0.0 0.0 0.07698792 
0.0 0.0 0.0 0.0 0.0 0.07698792 
0.0 0.0 0.0 0.0 0.0 0.07698792 
0.0 0.0 0.0 0.0 0.0 0.07698792 
0.0 0.0 0.0 0.0 0.0 0.07698792 
0.0 0.0 0.0 0.0 0.0 0.07698792 
0.0 0.0 0.0 0.0 0.0 0.07698792 
0.0 0.0 0.0 0.0 0.0 0.07698792 
0.0 0.0 0.0 0.0 0.0 0.07698792 
0.0 0.0 0.0 0.0 0.0 0.07698792 
0.0 0.0 0.0 0.0 0.0 0.07698792 
0.0 0.0 0.0 0.0 0.0 0.07698792 
0.0 0.0 0.0 0.0 0.0 0.07698792 
0.0 0.0 0.0 0.0 0.0 0.07698792 
0.0 0.0 0.0 0.0 0.0 0.07698792 
0.0 0.0 0.0 0.0 0.0 0.07698792 
0.0 0.0 0.0 0.0 0.0 0.07698792 
0.0 0.0 0.0 0.0 0.0 0.07698792 
0.0 0.0 0.0 0.0 0.0 0.07698792 
0.0 0.0 0.0 0.0 0.0 0.07698792 
0.0 0.0 0.0 0.0 0.0 0.07698792 
0.0 0.0 0.0 0.0 0.0 0.07698792 
0.0 0.0 0.0 0.0 0.0 0.07698792 
0.0 0.0 0.0 0.0 0.0 0.07698792 
0.0 0.0 0.0 0.0 0.0 0.07698792 
0.0 0.0 0.0 0.0 0.0 0.07698792 
0.0 0.0 0.0 0.0 0.0 0.07698792 
0.0 0.0 0.0 0.0 0.0 0.07698792 
0.0 0.0 0.0 0.0 0.0 0.07698792 
0.0 0.0 0.0 0.0 0.0 0.07698792 
0.0 0.0 0.0 0.0 0.0 0.07698792 
0.0 0.0 0.0 0.0 0.0 0.07698792 
0.0 0.0 0.0 0.0 0.0 0.07698792 
0.0 0.0 0.0 0.0 0.0 0.07698792 
0.0 0.0 0.0 0.0 0.0 0.07698792 
0.0 0.0 0.0 0.0 0.0 0.07698792 
0.0 0.0 0.0 0.0 0.0 0.07698792 
0.0 0.0 0.0 0.0 0.0 0.07698792 
0.0 0.0 0.0 0.0 0.0 0.07698792 
0.0 0.0 0.0 0.0 0.0 0.07698792 
0.0 0.0 0.0 0.0 0.0 0.07698792 
0.0 0.0 0.0 0.0 0.0 0.07698792 
0.0 0.0 0.0 0.0 0.0 0.07698792 
0.0 0.0 0.0 0.0 0.0 0.07698792 
0.0 0.0 0.0 0.0 0.0 0.07698792 
0.0 0.0 0.0 0.0 0.0 0.07698792 
0.0 0.0 0.0 0.0 0.0 0.07698792 
0.0 0.0 0.0 0.0 0.0 0.07698792 
0.0 0.0 0.0 0.0 0.0 0.07698792 
0.0 0.0 0.0 0.0 0.0 0.07698792 
0.0 0.0 0.0 0.0 0.0 0.07698792 
0.0 0.0 0.0 0.0 0.0 0.07698792 
0.0 0.0 0.0 0.0 0.0 0.07698792 
0.0 0.0 0.0 0.0 0.0 0.07698792 
0.0 0.0 0.0 0.0 0.0 0.07698792 
0.0 0.0 0.0 0.0 0.0 0.07698792 
0.0 0.0 0.0 0.0 0.0 0.07698792 
0.0 0.0 0.0 0.0 0.0 0.07698792 
0.0 0.0 0.0 0.0 0.0 0.07698792 
0.0 0.0 0.0 0.0 0.0 0.07698792 
0.0 0.0 0.0 0.0 0.0 0.07698792 
0.0 0.0 0.0 0.0 0.0 0.07698792 
0.0 0.0 0.0 0.0 0.0 0.07698792 
0.0 0.0 0.0 0.0 0.0 0.07698792 
0.0 0.0 0.0 0.0 0.0 0.07698792 
0.0 0.0 0.0 0.0 0.0 0.07698792 
0.0 0.0 0.0 0.0 0.0 0.07698792 
0.0 0.0 0.0 0.0 0.0 0.07698792 
0.0 0.0 0.0 0.0 0.0 0.07698792 
0.0 0.0 0.0 0.0 0.0 0.07698792 
0.0 0.0 0.0 0.0 0.0 0.07698792 
0.0 0.0 0.0 0.0 0.0 0.07698792 
0.0 0.0 0.0 0.0 0.0 0.07698792 
0.0 0.0 0.0 0.0 0.0 0.07698792 
0.0 0.0 0.0 0.0 0.0 0.07698792 
0.0 0.0 0.0 0.0 0.0 0.07698792 
0.0 0.0 0.0 0.0 0.0 0.07698792 
0.0 0.0 0.0 0.0 0.0 0.07698792 
0.0 0.0 0.0 0.0 0.0 0.07698792 
0.0 0.0 0.0 0.0 0.0 0.07698792 
0.0 0.0 0.0 0.0 0.0 0.07698792 
0.0 0.0 0.0 0.0 0.0 0.07698792 
0.0 0.0 0.0 0.0 0.0 0.07698792 
0.0 0.0 0.0 0.0 0.0 0.07698792 
0.0 0.0 0.0 0.0 0.0 0.07698792 
0.0 0.0 0.0 0.0 0.0 0.07698792 
0.0 0.0 0.0 0.0 0.0 0.07698792 
0.0 0.0 0.0 0.0 0.0 0.07698792 
0.0 0.0 0.0 0.0 0.0 0.07698792 
0.0 0.0 0.0 0.0 0.0 0.07698792 
0.0 0.0 0.0 0.0 0.0 0.07698792 
0.0 0.0 0.0 0.0 0.0 0.07698792 
0.0 0.0 0.0 0.0 0.0 0.07698792 
0.0 0.0 0.0 0.0 0.0 0.07698792 
0.0 0.0 0.0 0.0 0.0 0.07698792 
0.0 0.0 0.0 0.0 0.0 0.07698792 
0.0 0.0 0.0 0.0 0.0 0.07698792 
0.0 0.0 0.0 0.0 0.0 0.07698792 
0.0 0.0 0.0 0.0 0.0 0.07698792 
0.0 0.0 0.001955334 0.0 0.0 0.0490821 
0.15662672 0.0 0.16000453 0.0 0.0 0.0 
0.33414894 0.12873852 0.27089062 0.0 0.0 0.0 
0.29902926 0.33609706 0.32204694 0.0 0.0 0.0 
0.14281687 0.50045204 0.31849253 0.0 0.0 0.0 
0.015356079 0.4703303 0.28464502 0.0 0.0 0.0 
0.071891755 0.3129573 0.26122427 0.0 0.0 0.0 
0.16629241 0.23697987 0.21960697 0.0 0.0 0.0 
0.122099936 0.26978144 0.16966209 0.0 0.0 0.0 
0.0 0.3049657 0.13931209 0.0 0.0 0.0 
0.0 0.2531823 0.090665855 0.0 0.024695214 0.0 
0.0 0.13276318 0.00756146 0.0 0.027788687 0.0 
0.0 0.025964856 0.0 0.0 0.0 0.04520142 
0.0 0.0 0.0 0.0 0.0 0.07698792 
0.0 0.0 0.0 0.0 0.0 0.07698792 
0.0 0.0 0.0 0.0 0.0 0.07698792 
0.0 0.0 0.0 0.0 0.0 0.07698792 
0.0 0.0 0.0 0.0 0.0 0.07698792 
0.0 0.0 0.0 0.0 0.0 0.07698792 
0.0 0.0 0.0 0.0 0.0 0.07698792 
0.0 0.0 0.0 0.0 0.0 0.07698792 
0.0 0.0 0.0 0.0 0.0 0.07698792 
0.0 0.0 0.0 0.0 0.0 0.07698792 
0.0 0.0 0.0 0.0 0.0 0.07698792 
0.0 0.0 0.0 0.0 0.0 0.07623371 
0.0 0.0 0.0 0.0 0.0 0.070567414 
0.017276078 0.0 0.0448675 0.0 0.0 0.0161652 
0.1887824 0.022581987 0.16349596 0.0 0.0 0.0 
0.3519054 0.09623436 0.25517952 0.0 0.0 0.0 
0.5968121 0.14978296 0.34124517 0.0 0.0 0.0 
0.84899133 0.33825114 0.5083615 0.0 0.0 0.0 
0.8614398 0.77578586 0.7260803 0.0 0.0 0.0 
0.45089114 1.1876888 1.0139735 0.0 0.10958499 0.0 
0.023505583 1.1421971 1.0659285 0.0 0.32042983 0.0 
0.06262477 0.81352013 0.89884126 0.0 0.15241048 0.0 
0.39412814 0.62217504 0.7361306 0.0 0.0 0.0 
0.53219146 0.8048942 0.7304281 0.0 0.0 0.0 
0.12763393 1.0841343 0.6558959 0.0 0.20368178 0.0 
0.0 0.8270849 0.56429106 0.0 0.4248616 0.0 
0.0 0.44610995 0.30819592 0.0 0.3544877 0.0 
0.0 0.13020459 0.025431186 0.0 0.16035062 0.0 
0.0 0.0 0.0 0.0 0.0 0.0728192 
0.0 0.0 0.0 0.0 0.0 0.07698792 
0.0 0.0 0.0 0.0 0.0 0.07698792 
0.0 0.0 0.0 0.0 0.0 0.07698792 
0.0 0.0 0.0 0.0 0.0 0.07698792 
0.0 0.0 0.0 0.0 0.0 0.07698792 
0.0 0.0 0.0 0.0 0.0 0.07698792 
0.0 0.0 0.0 0.0 0.0 0.07698792 
0.0 0.0 0.0 0.0 0.0 0.07698792 
0.0 0.0 0.0 0.0 0.0 0.07698792 
0.0 0.0 0.0 0.0 0.0 0.060018167 
0.057984278 0.0 0.06111978 0.0 0.0 0.0 
0.23113054 0.02379679 0.21120507 0.0 0.0 0.0 
0.4463998 0.12622848 0.27933282 0.0 0.0 0.0 
0.6370828 0.22307101 0.40794355 0.0 0.0 0.0 
0.92578924 0.3514657 0.49418318 0.0 0.0 0.0 
1.1446891 0.4486533 0.5738915 0.0 0.0 0.0 
1.0568049 0.6088585 0.713915 0.0 0.27592024 0.0 
0.7047061 0.9252872 1.0140826 0.0 0.701357 0.0 
0.31933194 1.3172863 1.5105332 0.0 0.9269284 0.0 
0.20767781 1.468421 1.8147829 0.0 0.8670111 0.0 
0.40302896 1.2414922 1.6301677 0.0 0.67448914 0.0 
0.5711314 1.0395725 1.2939186 0.0 0.5658928 0.0 
0.46484536 1.1134611 1.2162209 0.0 0.6123368 0.0 
0.0 1.5535011 1.3372871 0.0 0.9894306 0.0 
0.0 1.492839 1.2855735 0.0 1.0581155 0.0 
0.0 0.97019863 0.9685813 0.0 0.77866286 0.0 
0.0 0.20681901 0.23738909 0.0 0.46614775 0.0 
0.0 0.0 0.0 0.0 0.0 0.06942003 
0.0 0.0 0.0 0.0 0.0 0.07698792 
0.0 0.0 0.0 0.0 0.0 0.07698792 
0.0 0.0 0.0 0.0 0.0 0.07698792 
0.0 0.0 0.0 0.0 0.0 0.07698792 
0.0 0.0 0.0 0.0 0.0 0.07698792 
0.0 0.0 0.0 0.0 0.0 0.07698792 
0.0 0.0 0.0 0.0 0.0 0.07698792 
0.0 0.0 0.0 0.0 0.0 0.07698792 
0.0 0.0 0.0011522733 0.0 0.0 0.049459204 
0.18891162 0.0 0.14613587 0.0 0.0 0.0 
0.47787338 0.02799175 0.23558491 0.0 0.0 0.0 
0.713306 0.12615207 0.33945256 0.0 0.0 0.0 
1.022795 0.29791123 0.5095329 0.0 0.0 0.0 
1.126086 0.5306652 0.614884 0.0 0.0 0.0 
0.9621882 0.7560176 0.6671056 0.0 0.46409175 0.0 
0.74992126 0.871191 0.57763004 0.1352797 1.15036 0.0 
0.643542 1.1211717 0.46007532 0.71119136 1.6384171 0.1618142 
0.40399313 1.2918804 0.49325854 1.1226667 1.8265338 0.5821176 
0.16086477 1.2746218 0.91992426 1.4273875 1.707109 0.6887082 
0.02211649 1.1793171 1.442077 1.6159774 1.5354371 0.59659255 
0.27563334 0.9887038 1.57969 1.564516 1.3926865 0.50257266 
0.6106445 1.0629755 1.3000028 1.2974905 1.3415046 0.3062883 
0.5245036 1.2667763 1.148162 0.93165153 1.3437892 0.0 
0.0 1.9375651 1.6416767 0.6690235 1.5293605 0.0 
0.0 1.9342465 1.8875079 0.39555103 1.5308983 0.0 
0.0 1.3290272 1.6829574 0.19214748 1.0881364 0.0 
0.0 0.3862787 0.6330079 0.0 0.56378776 0.0 
0.0 0.00043583754 0.0 0.0 0.0 0.07230717 
0.0 0.0 0.0 0.0 0.0 0.07698792 
0.0 0.0 0.0 0.0 0.0 0.07698792 
0.0 0.0 0.0 0.0 0.0 0.07698792 
0.0 0.0 0.0 0.0 0.0 0.07698792 
0.0 0.0 0.0 0.0 0.0 0.07698792 
0.0 0.0 0.0 0.0 0.0 0.07698792 
0.0 0.0 0.0 0.0 0.0 0.07698792 
0.0 0.0 0.0 0.0 0.0 0.06944581 
0.14270753 0.0 0.10271553 0.0 0.0 0.0 
0.6202253 0.0 0.13735658 0.0 0.0 0.0 
1.0278313 0.0 0.26149422 0.0 0.0 0.0 
1.3146152 0.23541814 0.41271836 0.0 0.0 0.0 
1.1776431 0.72822356 0.68992937 0.0 0.40078172 0.0 
0.87723726 1.0270535 0.65558296 0.13198972 1.1768136 0.0 
0.59050417 1.344572 0.5822754 0.5661176 1.8769492 0.013479732 
0.4350205 1.4095869 0.32222754 0.8322631 2.512554 0.6526286 
0.24543032 1.2005178 0.0 1.0429593 2.7633312 1.2842047 
0.108816415 0.78883344 0.0 1.1554434 2.611233 1.6626978 
0.081365764 0.60698026 0.0 1.2855346 2.2294507 1.7950046 
0.102193564 0.4980776 0.0 1.368754 1.999499 1.773056 
0.54201263 0.34756553 0.18850142 1.3616251 1.7016264 1.6873164 
1.1156876 0.546214 0.20613003 1.2488976 1.5268236 1.395014 
1.093225 1.1046759 0.16724241 1.0257659 1.6051822 0.9213675 
0.0 2.100388 0.96433353 0.66441983 1.8190697 0.058105186 
0.0 1.9633602 1.758227 0.37519774 1.8165709 0.0 
0.0 1.1934302 1.888239 0.27267078 1.2142595 0.009788483 
0.0 0.45901176 0.94833624 0.15233682 0.49370334 0.0070798323 
0.0 0.0065338966 0.0 0.009230576 0.0 0.077864744 
0.0 0.0 0.0 0.0 0.0 0.07698792 
0.0 0.0 0.0 0.0 0.0 0.07698792 
0.0 0.0 0.0 0.0 0.0 0.07698792 
0.0 0.0 0.0 0.0 0.0 0.07698792 
0.0 0.0 0.0 0.0 0.0 0.07698792 
0.0 0.0 0.0 0.0 0.0 0.07698792 
0.0 0.0 0.0 0.0 0.0 0.07698792 
0.040299334 0.0 0.058157027 0.0 0.0 0.023556396 
0.50155157 0.0 0.060815692 0.0 0.0 0.0 
1.1630881 0.0 0.082230814 0.0 0.0 0.0 
1.5630736 0.07184922 0.107025005 0.0 0.0 0.0 
1.3999305 0.8484194 0.33028898 0.2018923 0.66943413 0.0 
0.95394105 1.2708774 0.3974209 0.3682854 1.7485353 0.019733533 
0.6254873 1.5396838 0.34328276 0.67703646 2.4488204 0.501886 
0.2105406 1.62081 0.11376821 0.7825369 2.8215468 0.89100707 
0.0 1.4160868 0.0 0.74797565 2.833886 1.2779942 
0.0 0.8057794 0.0 0.46630827 2.5233033 1.6173885 
0.008499593 0.39256027 0.0 0.19272831 2.0396278 1.7373066 
0.23781225 0.1602372 0.0 0.0 1.7265605 1.7455511 
0.4787277 0.0 0.0 0.0 1.4865606 1.6782644 
1.1229722 0.0 0.0 0.0 1.2219085 1.663172 
1.5744729 0.0 0.0 0.0 1.3168749 1.4216685 
1.3207164 0.6064874 0.0 0.0 1.9007425 0.86910295 
0.0 1.6940608 0.087522335 0.0 2.222522 0.26681185 
0.0 1.5871129 1.2746038 0.045860026 1.9490904 0.0042505264 
0.0 0.8251509 1.5442094 0.091921344 1.2428815 0.27648234 
0.0 0.19755825 0.8936706 0.12974826 0.41662776 0.099162996 
0.0 0.0 0.0 0.0016436451 0.0 0.07979961 
0.0 0.0 0.0 0.0 0.0 0.07698792 
0.0 0.0 0.0 0.0 0.0 0.07698792 
0.0 0.0 0.0 0.0 0.0 0.07698792 
0.0 0.0 0.0 0.0 0.0 0.07698792 
0.0 0.0 0.0 0.0 0.0 0.07698792 
0.0 0.0 0.0 0.0 0.0 0.07698792 
0.0 0.0 0.0 0.0 0.0 0.0754795 
0.18008548 0.0 0.021759227 0.0 0.0 0.05690923 
0.98444456 0.0 0.0 0.0 0.0 0.16421014 
1.6924698 0.0 0.0 0.073584735 0.0 0.20088536 
1.7830637 0.5168603 0.0 0.19634491 0.75344396 0.068413995 
1.2651987 1.1972817 0.0 0.20335655 1.9552177 0.27612388 
0.6615943 1.5224755 0.0 0.40495515 2.7777507 0.66544634 
0.0 1.6062621 0.0 0.5062529 3.024791 0.94242316 
0.0 1.2680206 0.0 0.32346997 2.8883379 1.1701279 
0.0 0.60096085 0.0 0.067642435 2.263728 1.2166486 
0.0 0.10780757 0.0 0.0 1.5354794 1.0736368 
0.0 0.0 0.0 0.0 1.1654419 0.8696207 
0.2032477 0.0 0.0 0.0 0.95676655 0.6968921 
0.7061715 0.0 0.0 0.0 0.63917977 0.55964124 
1.5230346 0.0 0.0 0.0 0.67990947 0.7113138 
1.9699855 0.0 0.0 0.0 1.2065262 0.6279746 
1.0881677 0.82173276 0.0 0.0 2.1578562 0.3001197 
0.0 1.5128596 0.0 0.0 2.4088058 0.05166334 
0.0 1.3149091 1.2519298 0.0 1.8120944 0.07274017 
0.0 0.53147024 1.2440481 0.011779201 1.0794033 0.30022 
0.0 0.06809933 0.6286183 0.11272295 0.21810408 0.12995191 
0.0 0.0 0.0 0.0 0.0 0.07818461 
0.0 0.0 0.0 0.0 0.0 0.07698792 
0.0 0.0 0.0 0.0 0.0 0.07698792 
0.0 0.0 0.0 0.0 0.0 0.07698792 
0.0 0.0 0.0 0.0 0.0 0.07698792 
0.0 0.0 0.0 0.0 0.0 0.07698792 
0.0 0.0 0.0 0.0 0.0 0.07698792 
0.0 0.0 0.0 0.0 0.0 0.077991895 
0.2712429 0.0 0.0 0.074601345 0.0 0.30029792 
1.1910543 0.0 0.0 0.3482993 0.0 0.70877284 
1.9661617 0.0 0.0 0.43211922 0.71914613 0.8678341 
1.6787312 0.5518011 0.0 0.5561004 1.5747073 0.8613581 
0.8652028 1.1917433 0.0 0.46090594 2.5677798 0.8571574 
0.0 1.5946273 0.0 0.38293 3.0598676 0.9569032 
0.0 1.2526867 0.022515424 0.1601776 2.8716986 1.0682886 
0.0 0.65982425 0.0225747 0.0 2.0308654 0.9903793 
0.0 0.16427264 0.08041198 0.0 1.0013343 0.7121702 
0.0 0.0 0.08221675 0.0 0.4954525 0.4543543 
0.0 0.0 0.046175845 0.0 0.20834737 0.20997702 
0.29878688 0.0 0.0 0.0 0.0 0.0 
1.0485523 0.0 0.0 0.0 0.0 0.0 
1.865025 0.0 0.0 0.0 0.25126007 0.113854006 
1.8290961 0.50776887 0.0 0.0 1.3635066 0.18999872 
0.43965244 1.4494784 0.0 0.0 2.3564694 0.113951206 
0.0 1.7446378 0.28308493 0.0 2.238057 0.10572708 
0.0 1.1068944 1.3226802 0.068888545 1.5503658 0.31885427 
0.0 0.2896163 1.0299215 0.05180559 0.7641141 0.2644529 
0.0 0.0 0.33185762 0.048443727 0.066641375 0.12424105 
0.0 0.0 0.0 0.0 0.0 0.07714012 
0.0 0.0 0.0 0.0 0.0 0.07698792 
0.0 0.0 0.0 0.0 0.0 0.07698792 
0.0 0.0 0.0 0.0 0.0 0.07698792 
0.0 0.0 0.0 0.0 0.0 0.07698792 
0.0 0.0 0.0 0.0 0.0 0.07698792 
0.0 0.0 0.0 0.0 0.0 0.07698792 
0.0 0.0 0.0 0.0 0.0 0.08118457 
0.34382832 0.0 0.0 0.19687033 0.051369216 0.48915118 
1.1021452 0.0 0.0 0.3579263 0.54943764 1.1480205 
1.4724786 0.0 0.0 0.69052726 1.2356883 1.4917002 
1.303791 0.086341634 0.0 0.9323071 1.9327725 1.688185 
0.42150217 1.0215895 0.0 1.0219253 2.5139234 1.5990417 
0.0 1.0338197 0.0 0.56298697 2.6503122 1.2484217 
0.0 0.6667476 0.22396821 0.17024931 1.8884481 0.9516603 
0.0 0.20626016 0.3061697 0.0 0.94474083 0.5958076 
0.0 0.0 0.21662542 0.0 0.3607855 0.35318577 
0.0 0.0 0.10866792 0.0 0.13408287 0.17287329 
0.04426703 0.0 0.07118354 0.0 0.0 0.06258272 
0.7403492 0.0 0.01395943 0.0 0.0 0.07682715 
1.5618286 0.0 0.0 0.013284725 0.0 0.15564702 
1.905647 0.2150794 0.0 0.035456907 0.83475 0.2139428 
1.1592166 1.1177189 0.0 0.14592192 2.107539 0.34585848 
0.0 1.7006555 0.0 0.08262472 2.572667 0.22661415 
0.0 1.5112054 0.74700934 0.24340504 2.024862 0.2856054 
0.0 0.5987802 1.1893173 0.12024173 1.2498131 0.45247114 
0.0 0.1689393 0.7989667 0.12516199 0.41136315 0.22610891 
0.0 0.0 0.07835018 0.0 0.010339413 0.095373966 
0.0 0.0 0.0 0.0 0.0 0.07698792 
0.0 0.0 0.0 0.0 0.0 0.07698792 
0.0 0.0 0.0 0.0 0.0 0.07698792 
0.0 0.0 0.0 0.0 0.0 0.07698792 
0.0 0.0 0.0 0.0 0.0 0.07698792 
0.0 0.0 0.0 0.0 0.0 0.07698792 
0.0 0.0 0.0 0.0 0.0 0.07698792 
0.0 0.0 0.0 0.0 0.0 0.0816281 
0.3086394 0.0 0.0 0.042484466 0.24114229 0.44776618 
0.9124685 0.0 0.0 0.05823542 0.83184165 1.1467378 
1.033577 0.0 0.0 0.14531714 1.2955827 1.4926639 
0.7856781 0.0 0.0 0.2873385 1.7236642 1.6277719 
0.0037372708 0.35243404 0.0 0.34038892 1.9056596 1.480053 
0.0 0.500349 0.0 0.28253743 1.4212592 1.0371721 
0.0 0.26588577 0.40008402 0.08481364 0.7606984 0.661955 
0.0 0.022520296 0.43814534 0.0 0.34600043 0.34267712 
0.0 0.0 0.13961935 0.0 0.09564203 0.15059431 
0.0 0.0 0.0 0.0 0.0 0.07748523 
0.3060084 0.0 0.0 0.0 0.0 0.14015538 
1.1995511 0.0 0.0 0.10245174 0.0 0.3101169 
1.8908017 0.0 0.0 0.09511867 0.42317632 0.42650416 
1.638241 0.7363667 0.0 0.27960557 1.5587372 0.43352062 
0.4412359 1.5148262 0.0 0.21470909 2.5627682 0.49841994 
0.0 1.7497817 0.18220335 0.23951682 2.4372442 0.4904521 
0.0 0.96096843 0.9262982 0.15886174 1.6196603 0.53233945 
0.0 0.29221514 0.97955406 0.17214803 0.72006065 0.4518798 
0.0 0.038989022 0.54495287 0.092894316 0.14791211 0.16613507 
0.0 0.0 0.0 0.0 0.0 0.079423115 
0.0 0.0 0.0 0.0 0.0 0.07698792 
0.0 0.0 0.0 0.0 0.0 0.07698792 
0.0 0.0 0.0 0.0 0.0 0.07698792 
0.0 0.0 0.0 0.0 0.0 0.07698792 
0.0 0.0 0.0 0.0 0.0 0.07698792 
0.0 0.0 0.0 0.0 0.0 0.07698792 
0.0 0.0 0.0 0.0 0.0 0.07698792 
0.0 0.0 0.0 0.0 0.0 0.07946343 
0.14975576 0.0 0.0 0.0 0.24135716 0.243663 
0.52697366 0.0 0.0 0.0 0.6062436 0.63446766 
0.65863687 0.0 0.0 0.0 0.9590815 0.9785164 
0.45672178 0.0 0.0 0.0 1.1597613 1.1340468 
0.0 0.0 0.0 0.0 0.9334822 0.9360351 
0.0 0.0 0.0 0.0 0.5466936 0.6103896 
0.0 0.0 0.18805847 0.0 0.31204996 0.38985458 
0.0 0.0 0.21536183 0.0 0.122523755 0.16700746 
0.0 0.0 0.0 0.0 0.0 0.08224219 
0.0034658834 0.0 0.021127962 0.0 0.0 0.03964467 
0.634182 0.0 0.0 0.0 0.0 0.21004918 
1.6442213 0.0 0.0 0.0 0.027462158 0.53602624 
1.9233947 0.098002486 0.0 0.046441246 1.0223721 0.59317946 
1.0477703 1.1042291 0.0 0.20962095 2.0860584 0.5813642 
0.0 1.578408 0.0 0.09775734 2.7100139 0.6159102 
0.0 1.2100326 0.5258991 0.17344576 2.0343018 0.6458772 
0.0 0.3470823 0.75287366 0.025157448 1.073321 0.5345783 
0.0 0.08307505 0.58868456 0.043698348 0.33224806 0.33250332 
0.0 0.0 0.18967012 0.0 0.056020092 0.11072272 
0.0 0.0 0.0 0.0 0.0 0.07698792 
0.0 0.0 0.0 0.0 0.0 0.07698792 
0.0 0.0 0.0 0.0 0.0 0.07698792 
0.0 0.0 0.0 0.0 0.0 0.07698792 
0.0 0.0 0.0 0.0 0.0 0.07698792 
0.0 0.0 0.0 0.0 0.0 0.07698792 
0.0 0.0 0.0 0.0 0.0 0.07698792 
0.0 0.0 0.0 0.0 0.0 0.07698792 
0.0 0.0 0.0 0.0 0.0 0.07698792 
0.0 0.0 0.0 0.0 0.0 0.098648585 
0.13778868 0.0 0.0 0.0 0.26125845 0.22087337 
0.26412937 0.0 0.0 0.0 0.46401045 0.32725233 
0.15309983 0.0 0.0 0.0 0.43921298 0.30812758 
0.0 0.0 0.0 0.0 0.3079619 0.28156644 
0.0 0.0 0.0 0.0 0.22970732 0.22815686 
0.0 0.0 0.0 0.0 0.1124834 0.157679 
0.0 0.0 0.0079965815 0.0 0.0 0.08535889 
0.0 0.0 0.0 0.0 0.0 0.06630285 
0.20079646 0.0 0.102799885 0.0 0.0 0.0 
1.140733 0.0 0.0 0.0 0.0 0.21335393 
1.873759 0.0 0.0 0.0 0.47646198 0.4927687 
1.5310209 0.54314256 0.0 0.0 1.6076766 0.43666273 
0.24284783 1.357717 0.0 0.0 2.4542444 0.5173142 
0.0 1.2975472 0.11819752 0.07070806 2.3038723 0.62564135 
0.0 0.559523 0.7076512 0.03561523 1.3521777 0.6167805 
0.0 0.14518411 0.6517719 0.038805407 0.4906334 0.39680445 
0.0 0.0 0.26905316 0.0 0.122672975 0.169305 
0.0 0.0 0.0 0.0 0.0 0.0820866 
0.0 0.0 0.0 0.0 0.0 0.07698792 
0.0 0.0 0.0 0.0 0.0 0.07698792 
0.0 0.0 0.0 0.0 0.0 0.07698792 
0.0 0.0 0.0 0.0 0.0 0.07698792 
0.0 0.0 0.0 0.0 0.0 0.07698792 
0.0 0.0 0.0 0.0 0.0 0.07698792 
0.0 0.0 0.0 0.0 0.0 0.07698792 
0.0 0.0 0.0 0.0 0.0 0.07698792 
0.0 0.0 0.0 0.0 0.0 0.07698792 
0.0 0.0 0.0 0.0 0.0 0.07698792 
0.0 0.0 0.0 0.0 0.0 0.07698792 
0.0 0.0 0.0 0.0 0.0 0.07698792 
0.0 0.0 0.0 0.0 0.0 0.07698792 
0.0 0.0 0.0 0.0 0.0 0.07698792 
0.0 0.0 0.0 0.0 0.0 0.07698792 
0.0 0.0 0.0 0.0 0.0 0.07698792 
0.0 0.0 0.0 0.0 0.0 0.0758566 
0.074018 0.0 0.08433645 0.0 0.0 0.009503059 
0.6120224 0.0 0.039658025 0.0 0.0 0.0 
1.4819021 0.0 0.0 0.0 0.0 0.22159931 
1.7599177 0.18105069 0.0 0.0 1.0450652 0.37794343 
0.6995989 1.1913971 0.0 0.029302012 2.07025 0.37002468 
0.0 1.3042127 0.0 0.0 2.374227 0.56302845 
0.0 0.82689244 0.50816905 0.06859583 1.5775198 0.6306679 
0.0 0.17557998 0.6719018 0.010585182 0.6920801 0.4655671 
0.0 0.0 0.40218404 0.0 0.20516391 0.22929107 
0.0 0.0 0.026975185 0.0 0.0061322637 0.08784927 
0.0 0.0 0.0 0.0 0.0 0.07698792 
0.0 0.0 0.0 0.0 0.0 0.07698792 
0.0 0.0 0.0 0.0 0.0 0.07698792 
0.0 0.0 0.0 0.0 0.0 0.07698792 
0.0 0.0 0.0 0.0 0.0 0.07698792 
0.0 0.0 0.0 0.0 0.0 0.07698792 
0.0 0.0 0.0 0.0 0.0 0.07698792 
0.0 0.0 0.0 0.0 0.0 0.07698792 
0.0 0.0 0.0 0.0 0.0 0.07698792 
0.0 0.0 0.0 0.0 0.0 0.07698792 
0.0 0.0 0.0 0.0 0.0 0.07698792 
0.0 0.0 0.0 0.0 0.0 0.07698792 
0.0 0.0 0.0 0.0 0.0 0.07698792 
0.0 0.0 0.0 0.0 0.0 0.07698792 
0.0 0.0 0.0 0.0 0.0 0.07698792 
0.0 0.0 0.0 0.0 0.0 0.07698792 
0.0 0.0 0.0 0.0 0.0 0.07698792 
0.0 0.0 0.0038406178 0.0 0.0 0.048326656 
0.3292334 0.0 0.07092007 0.0 0.0 0.0 
1.1318591 0.0 0.0 0.0 0.0 0.09465208 
1.6761248 0.0 0.0 0.0 0.50670564 0.28791857 
1.0761664 0.8686197 0.0 0.13805288 1.7040541 0.29895765 
0.0 1.3005395 0.0 0.0 2.3394232 0.39050868 
0.0 1.0417552 0.16293105 0.1056077 1.7719038 0.5945763 
0.0 0.28621247 0.6629346 0.037316296 0.8960723 0.5169233 
0.0 0.026362576 0.4895345 0.0 0.2975386 0.30142975 
0.0 0.0 0.13000423 0.0 0.047896747 0.10353332 
0.0 0.0 0.0 0.0 0.0 0.07714012 
0.0 0.0 0.0 0.0 0.0 0.07698792 
0.0 0.0 0.0 0.0 0.0 0.07698792 
0.0 0.0 0.0 0.0 0.0 0.07698792 
0.0 0.0 0.0 0.0 0.0 0.07698792 
0.0 0.0 0.0 0.0 0.0 0.07698792 
0.0 0.0 0.0 0.0 0.0 0.07698792 
0.0 0.0 0.0 0.0 0.0 0.07698792 
0.0 0.0 0.0 0.0 0.0 0.07698792 
0.0 0.0 0.0 0.0 0.0 0.07698792 
0.0 0.0 0.0 0.0 0.0 0.07698792 
0.0 0.0 0.0 0.0 0.0 0.07698792 
0.0 0.0 0.0 0.0 0.0 0.07698792 
0.0 0.0 0.0 0.0 0.0 0.07698792 
0.0 0.0 0.0 0.0 0.0 0.07698792 
0.0 0.0 0.0 0.0 0.0 0.07698792 
0.0 0.0 0.0 0.0 0.0 0.07698792 
0.0 0.0 0.0 0.0 0.0 0.059263952 
0.18379584 0.0 0.11687011 0.0 0.0 0.0 
0.8356799 0.0 0.02395644 0.0 0.0 0.0 
1.5258884 0.0 0.0 0.0 0.0 0.14106315 
1.4216502 0.5510993 0.0 0.006437634 1.294622 0.20932359 
0.1982834 1.407371 0.0 0.024219643 2.1253335 0.26611692 
0.0 1.2381518 0.00495515 0.039328914 1.9270304 0.46198907 
0.0 0.54695696 0.59924036 0.034771834 1.1199486 0.54564583 
0.0 0.09050004 0.57772964 0.024211261 0.38677964 0.36646345 
0.0 0.0 0.222897 0.0 0.0889927 0.14190114 
0.0 0.0 0.0 0.0 0.0 0.07980361 
0.0 0.0 0.0 0.0 0.0 0.07698792 
0.0 0.0 0.0 0.0 0.0 0.07698792 
0.0 0.0 0.0 0.0 0.0 0.07698792 
0.0 0.0 0.0 0.0 0.0 0.07698792 
0.0 0.0 0.0 0.0 0.0 0.07698792 
0.0 0.0 0.0 0.0 0.0 0.07698792 
0.0 0.0 0.0 0.0 0.0 0.07698792 
0.0 0.0 0.0 0.0 0.0 0.07698792 
0.0 0.0 0.0 0.0 0.0 0.07698792 
0.0 0.0 0.0 0.0 0.0 0.07698792 
0.0 0.0 0.0 0.0 0.0 0.07698792 
0.0 0.0 0.0 0.0 0.0 0.07698792 
0.0 0.0 0.0 0.0 0.0 0.07698792 
0.0 0.0 0.0 0.0 0.0 0.07698792 
0.0 0.0 0.0 0.0 0.0 0.07698792 
0.0 0.0 0.0 0.0 0.0 0.07698792 
0.0 0.0 0.0 0.0 0.0 0.072085544 
0.08947159 0.0 0.07455485 0.0 0.0 0.0046268925 
0.57860976 0.0 0.0800891 0.0 0.0 0.0 
1.3142982 0.0 0.0 0.0 0.0 0.07609293 
1.6204205 0.20297073 0.0 0.0 0.8646916 0.2593277 
0.63186044 1.2218286 0.0 0.036212515 1.9374797 0.21745424 
0.0 1.2903407 0.0 0.0 2.108501 0.35184234 
0.0 0.8083926 0.486858 0.044544455 1.4055423 0.5541626 
0.0 0.13651603 0.6418407 0.0 0.6188184 0.3989764 
0.0 0.0 0.28262866 0.0 0.15743665 0.1930266 
0.0 0.0 0.0032352768 0.0 0.0 0.084750086 
0.0 0.0 0.0 0.0 0.0 0.07698792 
0.0 0.0 0.0 0.0 0.0 0.07698792 
0.0 0.0 0.0 0.0 0.0 0.07698792 
0.0 0.0 0.0 0.0 0.0 0.07698792 
0.0 0.0 0.0 0.0 0.0 0.07698792 
0.0 0.0 0.0 0.0 0.0 0.07698792 
0.0 0.0 0.0 0.0 0.0 0.07698792 
0.0 0.0 0.0 0.0 0.0 0.07698792 
0.0 0.0 0.0 0.0 0.0 0.07698792 
0.0 0.0 0.0 0.0 0.0 0.07698792 
0.0 0.0 0.0 0.0 0.0 0.07698792 
0.0 0.0 0.0 0.0 0.0 0.07698792 
0.0 0.0 0.0 0.0 0.0 0.07698792 
0.0 0.0 0.0 0.0 0.0 0.07698792 
0.0 0.0 0.0 0.0 0.0 0.07698792 
0.0 0.0 0.0 0.0 0.0 0.07698792 
0.0 0.0 0.0 0.0 0.0 0.07698792 
0.0 0.0 0.0122663975 0.0 0.0 0.044802893 
0.3718896 0.0 0.07296681 0.0 0.0 0.0 
1.1017041 0.0 0.0 0.0 0.0 0.017570943 
1.6179771 0.0 0.0 0.0 0.43468407 0.1710076 
1.042994 0.8821384 0.0 0.099596374 1.669262 0.21919894 
0.0 1.3791674 0.0 0.02811798 2.1889293 0.23577458 
0.0 1.0273634 0.2978884 0.100164175 1.6455799 0.47112304 
0.0 0.32053587 0.77337873 0.08978506 0.83376235 0.47404194 
0.0 0.0222902 0.50186205 0.02252724 0.24822415 0.24318756 
0.0 0.0 0.0533911 0.0 0.013688419 0.09157733 
0.0 0.0 0.0 0.0 0.0 0.07698792 
0.0 0.0 0.0 0.0 0.0 0.07698792 
0.0 0.0 0.0 0.0 0.0 0.07698792 
0.0 0.0 0.0 0.0 0.0 0.07698792 
0.0 0.0 0.0 0.0 0.0 0.07698792 
0.0 0.0 0.0 0.0 0.0 0.07698792 
0.0 0.0 0.0 0.0 0.0 0.07698792 
0.0 0.0 0.0 0.0 0.0 0.07698792 
0.0 0.0 0.0 0.0 0.0 0.07698792 
0.0 0.0 0.0 0.0 0.0 0.07698792 
0.0 0.0 0.0 0.0 0.0 0.07698792 
0.0 0.0 0.0 0.0 0.0 0.07698792 
0.0 0.0 0.0 0.0 0.0 0.07698792 
0.0 0.0 0.0 0.0 0.0 0.07698792 
0.0 0.0 0.0 0.0 0.0 0.07698792 
0.0 0.0 0.0 0.0 0.0 0.07698792 
0.0 0.0 0.0 0.0 0.0 0.07698792 
0.0 0.0 0.0 0.0 0.0 0.052853156 
0.21294415 0.0 0.09716491 0.0 0.0 0.0 
0.8535088 0.0 0.024360932 0.0 0.0 0.0 
1.5138674 0.0 0.0 0.0 0.0 0.12247637 
1.3840961 0.58824116 0.0 0.04154868 1.2745028 0.21136859 
0.19710532 1.43349 0.0 0.07218752 2.1097128 0.2557452 
0.0 1.3003632 0.10488289 0.094610706 1.8682412 0.4091675 
0.0 0.5773507 0.65536 0.05710313 1.0968825 0.5160119 
0.0 0.107217 0.63715684 0.05178684 0.37964097 0.3502254 
0.0 0.0 0.2279231 0.0 0.06712216 0.1256397 
0.0 0.0 0.0 0.0 0.0 0.07797722 
0.0 0.0 0.0 0.0 0.0 0.07698792 
0.0 0.0 0.0 0.0 0.0 0.07698792 
0.0 0.0 0.0 0.0 0.0 0.07698792 
0.0 0.0 0.0 0.0 0.0 0.07698792 
0.0 0.0 0.0 0.0 0.0 0.07698792 
0.0 0.0 0.0 0.0 0.0 0.07698792 
0.0 0.0 0.0 0.0 0.0 0.07698792 
0.0 0.0 0.0 0.0 0.0 0.07698792 
0.0 0.0 0.0 0.0 0.0 0.07698792 
0.0 0.0 0.0 0.0 0.0 0.07698792 
0.0 0.0 0.0 0.0 0.0 0.07698792 
0.0 0.0 0.0 0.0 0.0 0.07698792 
0.0 0.0 0.0 0.0 0.0 0.07698792 
0.0 0.0 0.0 0.0 0.0 0.07698792 
0.0 0.0 0.0 0.0 0.0 0.07698792 
0.0 0.0 0.0 0.0 0.0 0.07698792 
0.0 0.0 0.0 0.0 0.0 0.074725285 
0.0986042 0.0 0.07154278 0.0 0.0 0.013453029 
0.6223452 0.0 0.07084278 0.0 0.0 0.0 
1.3437209 0.0 0.0 0.0 0.0 0.086109854 
1.6228461 0.23516212 0.0 0.0 0.87360114 0.2345141 
0.6201158 1.1954477 0.0 0.011681408 1.9807414 0.20662999 
0.0 1.3354892 0.0 0.026600175 2.112464 0.3201446 
0.0 0.81742805 0.5249642 0.047054574 1.4396462 0.53038466 
0.0 0.17167154 0.6760954 0.016610973 0.62722844 0.4021181 
0.0 0.0 0.3013739 0.0 0.1608358 0.18931118 
0.0 0.0 0.00025945902 0.0 0.0 0.08436959 
0.0 0.0 0.0 0.0 0.0 0.07698792 
0.0 0.0 0.0 0.0 0.0 0.07698792 
0.0 0.0 0.0 0.0 0.0 0.07698792 
0.0 0.0 0.0 0.0 0.0 0.07698792 
0.0 0.0 0.0 0.0 0.0 0.07698792 
0.0 0.0 0.0 0.0 0.0 0.07698792 
0.0 0.0 0.0 0.0 0.0 0.07698792 
0.0 0.0 0.0 0.0 0.0 0.07698792 
0.0 0.0 0.0 0.0 0.0 0.07698792 
0.0 0.0 0.0 0.0 0.0 0.07698792 
0.0 0.0 0.0 0.0 0.0 0.07698792 
0.0 0.0 0.0 0.0 0.0 0.07698792 
0.0 0.0 0.0 0.0 0.0 0.07698792 
0.0 0.0 0.0 0.0 0.0 0.07698792 
0.0 0.0 0.0 0.0 0.0 0.07698792 
0.0 0.0 0.0 0.0 0.0 0.07698792 
0.0 0.0 0.0 0.0 0.0 0.07698792 
0.0 0.0 0.0 0.0 0.0 0.06718071 
0.32101297 0.0 0.02871517 0.0 0.0 0.063816704 
1.0664053 0.0 0.0 0.0 0.0 0.15579191 
1.5139282 0.0 0.0 0.13211678 0.5026296 0.39756462 
1.0516586 0.80045164 0.0 0.3237767 1.6502701 0.443451 
0.0 1.3186761 0.0 0.16966805 2.2201202 0.43309203 
0.0 1.0118097 0.29133904 0.2336983 1.6080897 0.57125133 
0.0 0.33104882 0.7805969 0.1093174 0.85796475 0.49206755 
0.0 0.03459749 0.5308832 0.03496509 0.2524644 0.2531377 
0.0 0.0 0.06972254 0.0 0.014461111 0.0939841 
0.0 0.0 0.0 0.0 0.0 0.07698792 
0.0 0.0 0.0 0.0 0.0 0.07698792 
0.0 0.0 0.0 0.0 0.0 0.07698792 
0.0 0.0 0.0 0.0 0.0 0.07698792 
0.0 0.0 0.0 0.0 0.0 0.07698792 
0.0 0.0 0.0 0.0 0.0 0.07698792 
0.0 0.0 0.0 0.0 0.0 0.07698792 
0.0 0.0 0.0 0.0 0.0 0.07698792 
0.0 0.0 0.0 0.0 0.0 0.07698792 
0.0 0.0 0.0 0.0 0.0 0.07698792 
0.0 0.0 0.0 0.0 0.0 0.07698792 
0.0 0.0 0.0 0.0 0.0 0.07698792 
0.0 0.0 0.0 0.0 0.0 0.07698792 
0.0 0.0 0.0 0.0 0.0 0.07698792 
0.0 0.0 0.0 0.0 0.0 0.07698792 
0.0 0.0 0.0 0.0 0.0 0.07698792 
0.0 0.0 0.0 0.0 0.0 0.07698792 
0.0 0.0 0.0 0.0 0.0 0.07698792 
0.0 0.0 0.0 3.5402598e-05 0.0 0.09081268 
0.4024913 0.0 0.0 0.15546624 0.0 0.42293143 
1.0984864 0.0 0.0 0.5053422 0.26587114 0.8669451 
1.2254825 0.030160584 0.0 0.7217875 1.3094376 1.0512061 
0.23135427 0.899926 0.0 0.713115 1.8872658 0.96840346 
0.0 0.8967652 0.0 0.43240297 1.7168959 0.72543615 
0.0 0.46921876 0.5213086 0.1869562 0.9430569 0.6219163 
0.0 0.122624874 0.63491577 0.0666805 0.37573373 0.36506212 
0.0 0.0 0.22549924 0.0 0.08071688 0.1316992 
0.0 0.0 0.0 0.0 0.0 0.07873821 
0.0 0.0 0.0 0.0 0.0 0.07698792 
0.0 0.0 0.0 0.0 0.0 0.07698792 
0.0 0.0 0.0 0.0 0.0 0.07698792 
0.0 0.0 0.0 0.0 0.0 0.07698792 
0.0 0.0 0.0 0.0 0.0 0.07698792 
0.0 0.0 0.0 0.0 0.0 0.07698792 
0.0 0.0 0.0 0.0 0.0 0.07698792 
0.0 0.0 0.0 0.0 0.0 0.07698792 
0.0 0.0 0.0 0.0 0.0 0.07698792 
0.0 0.0 0.0 0.0 0.0 0.07698792 
0.0 0.0 0.0 0.0 0.0 0.07698792 
0.0 0.0 0.0 0.0 0.0 0.07698792 
0.0 0.0 0.0 0.0 0.0 0.07698792 
0.0 0.0 0.0 0.0 0.0 0.07698792 
0.0 0.0 0.0 0.0 0.0 0.07698792 
0.0 0.0 0.0 0.0 0.0 0.07698792 
0.0 0.0 0.0 0.0 0.0 0.07698792 
0.0 0.0 0.0 0.0 0.0 0.07698792 
0.0 0.0 0.0 0.014892257 0.0 0.115423046 
0.4809063 0.0 0.0 0.24137744 0.19334634 0.6253204 
0.877583 0.0 0.0 0.36571813 0.83287615 1.0539391 
0.5625536 0.13675097 0.0 0.4104949 1.3871752 1.0430543 
0.0 0.45416927 0.0 0.27430788 1.2824365 1.0067141 
0.0 0.50293344 0.088666566 0.18514107 0.7894532 0.7186899 
0.0 0.08222583 0.43841672 0.0 0.40808168 0.44811252 
0.0 0.0 0.3120473 0.0 0.15087923 0.19672397 
0.0 0.0 0.0019783191 0.0 0.0 0.08465308 
0.0 0.0 0.0 0.0 0.0 0.07698792 
0.0 0.0 0.0 0.0 0.0 0.07698792 
0.0 0.0 0.0 0.0 0.0 0.07698792 
0.0 0.0 0.0 0.0 0.0 0.07698792 
0.0 0.0 0.0 0.0 0.0 0.07698792 
0.0 0.0 0.0 0.0 0.0 0.07698792 
0.0 0.0 0.0 0.0 0.0 0.07698792 
0.0 0.0 0.0 0.0 0.0 0.07698792 
0.0 0.0 0.0 0.0 0.0 0.07698792 
0.0 0.0 0.0 0.0 0.0 0.07698792 
0.0 0.0 0.0 0.0 0.0 0.07698792 
0.0 0.0 0.0 0.0 0.0 0.07698792 

