0.0 0.0 0.0 0.0 0.0 0.07698792 
0.0 0.0 0.0 0.0 0.0 0.07698792 
0.0 0.0 0.0 0.0 0.0 0.07698792 
0.0 0.0 0.0 0.0 0.0 0.07698792 
0.0 0.0 0.0 0.0 0.0 0.07698792 
0.0 0.0 0.0 0.0 0.0 0.07698792 
0.0 0.0 0.0 0.0 0.0 0.07698792 
0.0 0.0 0.0 0.0 0.0 0.07698792 
0.0 0.0 0.0 0.0 0.0 0.07698792 
0.0 0.0 0.0 0.0 0.0 0.07698792 
0.0 0.0 0.0 0.0 0.0 0.07698792 
0.0 0.0 0.0 0.0 0.0 0.07698792 
0.0 0.0 0.0 0.0 0.0 0.07698792 
0.0 0.0 0.0 0.0 0.0 0.07698792 
0.0 0.0 0.0 0.0 0.0 0.07698792 
0.0 0.0 0.0 0.0 0.0 0.07698792 
0.0 0.0 0.0 0.0 0.0 0.07698792 
0.0 0.0 0.0 0.0 0.0 0.07698792 
0.0 0.0 0.0 0.0 0.0 0.07698792 
0.0 0.0 0.0 0.0 0.0 0.07698792 
0.0 0.0 0.0 0.0 0.0 0.07698792 
0.0 0.0 0.0 0.0 0.0 0.07698792 
0.0 0.0 0.0 0.0 0.0 0.07698792 
0.0 0.0 0.0 0.0 0.0 0.07698792 
0.0 0.0 0.0 0.0 0.0 0.07698792 
0.0 0.0 0.0 0.0 0.0 0.07698792 
0.0 0.0 0.0 0.0 0.0 0.07698792 
0.0 0.0 0.0 0.0 0.0 0.07698792 
0.0 0.0 0.0 0.0 0.0 0.07698792 
0.0 0.0 0.0 0.0 0.0 0.07698792 
0.0 0.0 0.0 0.0 0.0 0.07698792 
0.0 0.0 0.0 0.0 0.0 0.07698792 
0.0 0.0 0.0 0.0 0.0 0.07698792 
0.0 0.0 0.0 0.0 0.0 0.07698792 
0.0 0.0 0.0 0.0 0.0 0.07698792 
0.0 0.0 0.0 0.0 0.0 0.07698792 
0.0 0.0 0.0 0.0 0.0 0.07698792 
0.0 0.0 0.0 0.0 0.0 0.07698792 
0.0 0.0 0.0 0.0 0.0 0.07698792 
0.0 0.0 0.0 0.0 0.0 0.07698792 
0.0 0.0 0.0 0.0 0.0 0.07698792 
0.0 0.0 0.0 0.0 0.0 0.07698792 
0.0 0.0 0.0 0.0 0.0 0.07698792 
0.0 0.0 0.0 0.0 0.0 0.07698792 
0.0 0.0 0.0 0.0 0.0 0.07698792 
0.0 0.0 0.0 0.0 0.0 0.07698792 
0.0 0.0 0.0 0.0 0.0 0.07698792 
0.0 0.0 0.0 0.0 0.0 0.07698792 
0.0 0.0 0.0 0.0 0.0 0.07698792 
0.0 0.0 0.0 0.0 0.0 0.07698792 
0.0 0.0 0.0 0.0 0.0 0.07698792 
0.0 0.0 0.0 0.0 0.0 0.07698792 
0.0 0.0 0.0 0.0 0.0 0.07698792 
0.0 0.0 0.0 0.0 0.0 0.07698792 
0.0 0.0 0.0 0.0 0.0 0.07698792 
0.0 0.0 0.0 0.0 0.0 0.07698792 
0.0 0.0 0.0 0.0 0.0 0.07698792 
0.0 0.0 0.0 0.0 0.0 0.07698792 
0.0 0.0 0.0 0.0 0.0 0.07698792 
0.0 0.0 0.0 0.0 0.0 0.07698792 
0.0 0.0 0.0 0.0 0.0 0.07698792 
0.0 0.0 0.0 0.0 0.0 0.07698792 
0.0 0.0 0.0 0.0 0.0 0.07698792 
0.0 0.0 0.0 0.0 0.0 0.07698792 
0.0 0.0 0.0 0.0 0.0 0.07698792 
0.0 0.0 0.0 0.0 0.0 0.07698792 
0.0 0.0 0.0 0.0 0.0 0.07698792 
0.0 0.0 0.0 0.0 0.0 0.07698792 
0.0 0.0 0.0 0.0 0.0 0.07698792 
0.0 0.0 0.0 0.0 0.0 0.07698792 
0.0 0.0 0.0 0.0 0.0 0.07698792 
0.0 0.0 0.0 0.0 0.0 0.07698792 
0.0 0.0 0.0 0.0 0.0 0.07698792 
0.0 0.0 0.0 0.0 0.0 0.07698792 
0.0 0.0 0.0 0.0 0.0 0.07698792 
0.03808976 0.0 0.07985253 0.0 0.0 0.012502842 
0.26953918 0.036611006 0.21215326 0.0 0.0 0.0 
0.3485301 0.20212224 0.3204233 0.0 0.0 0.0 
0.2733899 0.45014247 0.3425514 0.0 0.0 0.0 
0.034661643 0.5470286 0.27998498 0.0 0.0 0.0 
0.0 0.42460874 0.1883964 0.0 0.077391356 0.0 
0.0 0.22940035 0.053705506 0.0 0.08256808 0.0 
0.0 0.052337434 0.0 0.0 0.00032665953 0.020710181 
0.0 0.0 0.0 0.0 0.0 0.07698792 
0.0 0.0 0.0 0.0 0.0 0.07698792 
0.0 0.0 0.0 0.0 0.0 0.07698792 
0.0 0.0 0.0 0.0 0.0 0.07698792 
0.0 0.0 0.0 0.0 0.0 0.07698792 
0.0 0.0 0.0 0.0 0.0 0.07698792 
0.0 0.0 0.0 0.0 0.0 0.07698792 
0.0 0.0 0.0 0.0 0.0 0.07698792 
0.0 0.0 0.0 0.0 0.0 0.07698792 
0.0 0.0 0.0 0.0 0.0 0.07698792 
0.0 0.0 0.0 0.0 0.0 0.07698792 
0.0 0.0 0.0 0.0 0.0 0.07698792 
0.0 0.0 0.0 0.0 0.0 0.07698792 
0.0 0.0 0.0 0.0 0.0 0.07698792 
0.0 0.0 0.0 0.0 0.0 0.07698792 
0.0 0.0 0.0 0.0 0.0 0.07698792 
0.0 0.0 0.0 0.0 0.0 0.07698792 
0.0 0.0 0.0 0.0 0.0 0.07698792 
0.0 0.0 0.0 0.0 0.0 0.07698792 
0.0 0.0 0.0 0.0 0.0 0.06114948 
0.2418642 0.0 0.086387314 0.0 0.0 0.0 
0.71746844 0.0 0.22777623 0.0 0.0 0.0 
0.93904895 0.21742472 0.4068349 0.0 0.0 0.0 
0.68680876 0.9482265 0.7425777 0.0 0.0 0.0 
0.0 1.2406446 0.83243835 0.0 0.5442043 0.0 
0.0 0.9480514 0.70332754 0.0 0.67662156 0.0 
0.0 0.4005804 0.34858242 0.0 0.5263243 0.0 
0.0 0.048500415 0.022897951 0.0 0.15797023 0.0 
0.0 0.0 0.0 0.0 0.0 0.07698792 
0.0 0.0 0.0 0.0 0.0 0.07698792 
0.0 0.0 0.0 0.0 0.0 0.07698792 
0.0 0.0 0.0 0.0 0.0 0.07698792 
0.0 0.0 0.0 0.0 0.0 0.07698792 
0.0 0.0 0.0 0.0 0.0 0.07698792 
0.0 0.0 0.0 0.0 0.0 0.07698792 
0.0 0.0 0.0 0.0 0.0 0.07698792 
0.0 0.0 0.0 0.0 0.0 0.07698792 
0.0 0.0 0.0 0.0 0.0 0.07698792 
0.0 0.0 0.0 0.0 0.0 0.07698792 
0.0 0.0 0.0 0.0 0.0 0.07698792 
0.0 0.0 0.0 0.0 0.0 0.07698792 
0.0 0.0 0.0 0.0 0.0 0.07698792 
0.0 0.0 0.0 0.0 0.0 0.07698792 
0.0 0.0 0.0 0.0 0.0 0.07698792 
0.0 0.0 0.0 0.0 0.0 0.07095423 
0.0 0.0 0.0 0.0 0.0 0.04485624 
0.056132406 0.0 0.07648455 0.0 0.0 0.0 
0.24340478 0.030626245 0.18190101 0.0 0.0 0.0 
0.7162158 0.0 0.10341165 0.0 0.0 0.0 
1.2431078 0.0 0.201931 0.0 0.0 0.0 
1.3060405 0.28445518 0.3223464 0.0 0.092085674 0.0 
0.5089974 1.2119244 0.9635614 0.1306859 0.83959377 0.0 
0.0 1.605434 1.4724969 0.21661681 1.4608347 0.0 
0.0 1.3627895 1.4376858 0.1983914 1.2300508 0.0 
0.0 0.6497793 0.8650876 0.03184991 0.75187844 0.0 
0.0 0.11190016 0.18257755 0.0 0.1757164 0.016570166 
0.0 0.0 0.0 0.0 0.0 0.07698792 
0.0 0.0 0.0 0.0 0.0 0.07698792 
0.0 0.0 0.0 0.0 0.0 0.07698792 
0.0 0.0 0.0 0.0 0.0 0.07698792 
0.0 0.0 0.0 0.0 0.0 0.07698792 
0.0 0.0 0.0 0.0 0.0 0.07698792 
0.0 0.0 0.0 0.0 0.0 0.07698792 
0.0 0.0 0.0 0.0 0.0 0.07698792 
0.0 0.0 0.0 0.0 0.0 0.07698792 
0.0 0.0 0.0 0.0 0.0 0.07698792 
0.0 0.0 0.0 0.0 0.0 0.07698792 
0.0 0.0 0.0 0.0 0.0 0.07698792 
0.0 0.0 0.0 0.0 0.0 0.07698792 
0.0 0.0 0.0 0.0 0.0 0.07698792 
0.0 0.0 0.0 0.0 0.0 0.0690687 
0.04262179 0.0 0.06633027 0.0 0.0 0.0 
0.21058035 0.03785002 0.15417722 0.0 0.0 0.0 
0.32927626 0.12821993 0.28688604 0.0 0.0 0.0 
0.50484675 0.25887448 0.37491876 0.0 0.0 0.0 
0.71113276 0.31250757 0.45929033 0.0 0.0 0.0 
1.2955563 0.19381467 0.29955554 0.0 0.0 0.0 
1.4962308 0.6128191 0.0 0.0 0.4219747 0.0 
0.9205448 1.072433 0.0 0.28310138 1.2966928 0.017035253 
0.03293792 1.6669016 0.5164564 0.7575363 1.8820683 0.23554453 
0.0 1.9237847 1.4292661 1.0258905 1.8107741 0.17464277 
0.0 1.3264326 1.6927006 0.9050084 1.1900938 0.26943326 
0.0 0.6202493 1.1806154 0.49883035 0.5710354 0.19035096 
0.0 0.17803203 0.32302102 0.15365523 0.065000355 0.08806226 
0.0 0.0 0.0 0.0 0.0 0.07698792 
0.0 0.0 0.0 0.0 0.0 0.07698792 
0.0 0.0 0.0 0.0 0.0 0.07698792 
0.0 0.0 0.0 0.0 0.0 0.07698792 
0.0 0.0 0.0 0.0 0.0 0.07698792 
0.0 0.0 0.0 0.0 0.0 0.07698792 
0.0 0.0 0.0 0.0 0.0 0.07698792 
0.0 0.0 0.0 0.0 0.0 0.07698792 
0.0 0.0 0.0 0.0 0.0 0.07698792 
0.0 0.0 0.0 0.0 0.0 0.07698792 
0.0 0.0 0.0 0.0 0.0 0.07698792 
0.0 0.0 0.0 0.0 0.0 0.053230263 
0.06457578 0.0029620407 0.055347033 0.0 0.0 0.0 
0.110568956 0.07651417 0.10095721 0.0 0.0 0.0 
0.19450381 0.11315142 0.23174709 0.0 0.0 0.0 
0.42542517 0.15645248 0.29866913 0.0 0.0 0.0 
0.6680522 0.20888373 0.39548743 0.0 0.0 0.0 
0.88188285 0.3980964 0.49504435 0.0 0.0 0.0 
0.964276 0.58831793 0.68057346 0.0 0.0 0.0 
0.93793267 0.6614044 0.69172174 0.0 0.25659633 0.0 
1.1163135 0.64621204 0.3670455 0.0 1.0334767 0.0 
1.0137205 0.88186693 0.0 0.09627583 2.1396194 0.2601321 
0.45391893 1.1811724 0.0 0.40732276 2.7379186 0.7600401 
0.0 1.3418659 0.0 0.5216095 2.5800078 0.9834276 
0.0 0.9675808 0.4367817 0.49077058 1.8912492 0.8063373 
0.0 0.49682102 0.92709816 0.37893283 0.9480091 0.639409 
0.0 0.22949822 0.8719321 0.25034913 0.33570823 0.3178519 
0.0 0.024364054 0.2459636 0.058581963 0.02823149 0.111290656 
0.0 0.0 0.0 0.0 0.0 0.07698792 
0.0 0.0 0.0 0.0 0.0 0.07698792 
0.0 0.0 0.0 0.0 0.0 0.07698792 
0.0 0.0 0.0 0.0 0.0 0.07698792 
0.06838107 0.0 0.11759653 0.0 0.0 0.0 
0.29542643 0.08230608 0.20150685 0.0 0.0 0.0 
0.28589928 0.21625414 0.2985239 0.0 0.0 0.0 
0.31335068 0.40881 0.42802748 0.0 0.0 0.0 
0.27754337 0.53024775 0.4677552 0.0 0.0 0.0 
0.27770704 0.5296866 0.4675702 0.0 0.0 0.0 
0.27770704 0.5296866 0.4675702 0.0 0.0 0.0 
0.33003974 0.47761032 0.45576507 0.0 0.0 0.0 
0.4666221 0.4372389 0.4842242 0.0 0.0 0.0 
0.58462554 0.5150047 0.5288007 0.0 0.0 0.0 
0.65120715 0.5923937 0.5826955 0.0 0.0 0.0 
0.8214832 0.46277714 0.63123226 0.0 0.0 0.0 
1.0075753 0.49187252 0.5883769 0.0 0.0569924 0.0 
0.93933743 0.6881095 0.6067572 0.0 0.45655045 0.0 
0.65652627 0.8792386 0.6849654 0.1443147 1.046244 0.0 
0.52000433 1.0173131 0.6399732 0.6789888 1.637562 0.03704524 
0.5461519 1.0354313 0.25269186 0.96238357 2.3343558 0.7485298 
0.2190581 1.2678343 0.0 1.0622228 2.6587358 1.122844 
0.0 1.1424559 0.0 0.7674005 2.5578806 1.22051 
0.0 0.8786246 0.0 0.31825942 1.9538759 1.1981292 
0.0 0.40140256 0.17444235 0.03149417 1.0389346 0.77940315 
0.0 0.053858593 0.34958118 0.0 0.42293128 0.49083003 
0.0 0.0 0.36002815 0.0 0.1688512 0.23451294 
0.0 0.0 0.061123766 0.0 0.0 0.09313948 
0.0 0.0 0.0 0.0 0.0 0.07698792 
0.0 0.0 0.0 0.0 0.0 0.07698792 
0.0 0.0 0.0 0.0 0.0 0.07698792 
0.0 0.0 0.0 0.0 0.0 0.07698792 
0.22742292 0.0 0.049277164 0.0 0.0 0.036296647 
0.75322956 0.0 0.24629065 0.0 0.0 0.0 
0.90264696 0.26346025 0.38765013 0.0 0.0 0.0 
0.74367684 0.8508133 0.8479019 0.0 0.0 0.0 
0.40571493 0.9824719 1.0145848 0.0 0.14228961 0.0 
0.4072423 0.9819462 1.0138406 0.0 0.14028582 0.0 
0.4072423 0.9819462 1.0138406 0.0 0.14028582 0.0 
0.48933417 0.8798967 0.9597086 0.0 0.14169136 0.0 
0.62000227 0.78691584 0.91077757 0.0 0.1738725 0.0 
0.64186525 0.8304928 0.88836545 0.0 0.3055121 0.0 
0.6712976 0.7922043 0.9160249 0.0 0.5133959 0.0 
0.76801413 0.8667576 0.8643376 0.0 0.824741 0.0 
0.6948838 0.97529095 0.5697083 0.2695119 1.3228904 0.0 
0.48457474 1.1723596 0.3786289 0.78032583 1.7987189 0.26451167 
0.2974978 1.2651803 0.32660973 1.1242862 2.3006995 0.86110014 
0.0645891 1.214644 0.13091245 1.2903736 2.5262249 1.2920971 
0.0 0.9903318 0.0 1.1359978 2.4908288 1.5037177 
0.0 0.83856344 0.0 0.67637235 2.1976187 1.4209039 
0.0 0.5432903 0.0 0.19392496 1.6204525 1.1256092 
0.0 0.19591399 0.0 0.0 0.9259555 0.76133597 
0.0 0.0 0.0992936 0.0 0.45551023 0.41422787 
0.0 0.0 0.028313458 0.0 0.21291693 0.23758365 
0.0 0.0 0.031552196 0.0 0.053472836 0.109999515 
0.0 0.0 0.0 0.0 0.0 0.079347014 
0.0 0.0 0.0 0.0 0.0 0.07698792 
0.0 0.0 0.0 0.0 0.0 0.07698792 
0.0 0.0 0.0 0.0 0.0 0.07698792 
0.0 0.0 0.0 0.0 0.0 0.07698792 
0.43657762 0.0 0.0 0.032820713 0.0 0.30509847 
1.1225069 0.0 0.0 0.15877478 0.0 0.1848813 
1.3071084 0.0 0.15855834 0.2532464 0.0 0.0 
0.9613065 0.775413 0.99133 0.34201172 0.39118728 0.0 
0.5099392 1.1470662 1.5612361 0.12316683 0.97410303 0.0 
0.4982959 1.1921265 1.5742342 0.042014208 1.0167097 0.0 
0.4982959 1.1921265 1.5742342 0.042014208 1.0167097 0.0 
0.52799 1.1927598 1.4492254 0.1343688 1.0915803 0.0 
0.52645403 1.1612058 1.2179409 0.29960838 1.2684118 0.0 
0.39669928 1.2181178 0.9661287 0.5695954 1.5012287 0.0 
0.319879 1.1421657 0.7754486 0.97128224 1.70802 0.22467104 
0.40904137 1.0538065 0.5753358 1.2860394 2.0975635 0.8466488 
0.3145839 1.1002241 0.11036103 1.3783228 2.4276855 1.2325594 
0.124810904 1.0571623 0.0 1.2249795 2.5388145 1.4350374 
0.0 0.97299063 0.0 0.91147804 2.509278 1.5595186 
0.0 0.6555039 0.0 0.46041098 2.2086933 1.5847414 
0.0 0.3790346 0.0 0.0077055646 1.7550797 1.4291337 
0.0 0.15492816 0.0 0.0 1.1412657 1.0045962 
0.0 0.0 0.0 0.0 0.6025864 0.6053963 
0.0 0.0 0.10069821 0.0 0.32915717 0.36917117 
0.0 0.0 0.15394771 0.0 0.13731529 0.17434183 
0.0 0.0 0.00025945902 0.0 0.0 0.08436959 
0.0 0.0 0.0 0.0 0.0 0.07698792 
0.0 0.0 0.0 0.0 0.0 0.07698792 
0.0 0.0 0.0 0.0 0.0 0.07698792 
0.0 0.0 0.0 0.0 0.0 0.07698792 
0.0 0.0 0.0 0.0 0.0 0.07698792 
0.0 0.0 0.0 0.0 0.0 0.07698792 
0.56796306 0.0 0.0 0.25977242 0.0 0.61422664 
1.2985234 0.0 0.0 0.50187254 0.081218526 0.9590327 
1.4993484 0.064022265 0.0 0.8186062 0.4531298 0.69807535 
1.3372853 0.93894666 0.2548173 1.0495334 0.8848225 0.5688876 
0.75974095 1.6646435 1.3671298 1.0705781 1.3966558 0.21229199 
0.6402985 1.7916324 1.4764224 0.8226499 1.579494 0.008502886 
0.6276954 1.8348385 1.4906653 0.7467219 1.621392 0.0 
0.652884 1.8430887 1.4635158 0.7089774 1.7902242 0.009485625 
0.63569015 1.8648769 1.2477865 0.62507844 2.0104456 0.09891044 
0.35426697 1.9304613 0.92137754 0.543648 2.2247913 0.18697882 
0.11073989 1.6044043 0.42339647 0.4136662 2.486616 0.52223945 
0.047643438 1.2889243 0.023571506 0.45202935 2.5175304 0.96380514 
0.0 0.93821824 0.0 0.4044084 2.374107 1.2498994 
0.0 0.6702247 0.0 0.25869232 1.9948944 1.4199219 
0.0 0.31255326 0.0 0.0 1.6260952 1.2640948 
0.0 0.0 0.0 0.0 1.1824207 0.95566964 
0.0 0.0 0.0 0.0 0.77976924 0.6427903 
0.0 0.0 0.0 0.0 0.4407965 0.38454178 
0.0 0.0 0.0 0.0 0.23359339 0.23644373 
0.0 0.0 0.008917756 0.0 0.08646199 0.14386371 
0.0 0.0 0.0 0.0 0.0 0.0833042 
0.0 0.0 0.0 0.0 0.0 0.07698792 
0.0 0.0 0.0 0.0 0.0 0.07698792 
0.0 0.0 0.0 0.0 0.0 0.07698792 
0.0 0.0 0.0 0.0 0.0 0.07698792 
0.0 0.0 0.0 0.0 0.0 0.07698792 
0.0 0.0 0.0 0.0 0.0 0.07698792 
0.0 0.0 0.0 0.0 0.0 0.07698792 
0.60432845 0.0 0.0 0.09503057 0.32916114 0.6995641 
1.3088155 0.0 0.0 0.23883514 0.8222234 1.3865266 
1.4877892 0.0 0.0 0.42937976 1.1721996 1.4853735 
1.6119533 0.025945704 0.0 0.658721 1.6456076 1.6332915 
1.1278901 0.6600042 0.0 0.7925443 2.1108508 1.3847361 
0.9631054 1.0634278 0.20989704 0.55702066 2.3405414 0.97509366 
0.8394608 1.2139449 0.33368868 0.24438836 2.5173204 0.720984 
0.767638 1.4014007 0.4291057 0.06616965 2.5453622 0.5146518 
0.66283894 1.5206726 0.4565962 0.0 2.5606246 0.4077435 
0.4487561 1.7082213 0.5423378 0.0 2.5201428 0.26404276 
0.18010244 1.7247635 0.42027205 0.0 2.3976932 0.122312516 
0.0 1.4032109 0.22019988 0.0 2.1306634 0.08064625 
0.0 0.9169387 0.0 0.0 1.7753829 0.0 
0.0 0.39742947 0.0 0.0 1.2124457 0.0 
0.0 0.2027365 0.0 0.0 0.72353005 0.0 
0.0 0.0 0.0 0.0 0.46401533 0.0 
0.0 0.0 0.0 0.0 0.21516393 0.021863345 
0.0 0.0 0.0 0.0 0.07732467 0.040061004 
0.0 0.0 0.0 0.0 0.0 0.0775015 
0.0 0.0 0.0 0.0 0.0 0.07812942 
0.0 0.0 0.0 0.0 0.0 0.07698792 
0.0 0.0 0.0 0.0 0.0 0.07698792 
0.0 0.0 0.0 0.0 0.0 0.07698792 
0.0 0.0 0.0 0.0 0.0 0.07698792 
0.0 0.0 0.0 0.0 0.0 0.07698792 
0.0 0.0 0.0 0.0 0.0 0.07698792 
0.0 0.0 0.0 0.0 0.0 0.07698792 
0.0 0.0 0.0 0.0 0.0 0.07698792 
0.3976994 0.0 0.0 0.0 0.374963 0.49686822 
0.9600648 0.0 0.0 0.01733099 0.8951468 1.139483 
1.1460133 0.0 0.0 0.073823646 1.241022 1.5336883 
1.2469625 0.0 0.0 0.3578618 1.6740195 1.9112263 
1.075589 0.0 0.0 0.75428516 2.0553334 1.9994359 
0.98073393 0.3187516 0.0 1.0309008 2.293218 1.9111855 
0.8035319 0.5710049 0.0 0.9497408 2.5697074 1.7089715 
0.7114838 0.72826093 0.0 0.7384781 2.573448 1.3931763 
0.612307 0.8132548 0.20132789 0.44198516 2.541973 0.9664183 
0.36467147 0.977663 0.6427304 0.10519228 2.3006558 0.34619015 
0.11017175 1.1538475 1.077581 0.0 2.0356345 0.0 
0.017007992 1.1742122 1.2083256 0.0 1.6681904 0.0 
0.0 1.1470706 1.215543 0.0 1.2344779 0.0 
0.0 0.98342544 0.9428654 0.0 0.8008122 0.0 
0.0 0.8365655 0.9675653 0.0 0.5270099 0.0 
0.0 0.70378023 0.6966322 0.0 0.38947734 0.0 
0.0 0.6572418 0.4561454 0.0 0.19166087 0.0 
0.0 0.41967228 0.23159134 0.0 0.18602361 0.0 
0.0 0.2035885 0.05925203 0.0 0.08273755 0.0 
0.0 0.06533472 0.0 0.0 0.0 0.0 
0.0 0.0035201106 0.0 0.0 0.0 0.06604503 
0.0 0.0 0.0 0.0 0.0 0.07698792 
0.0 0.0 0.0 0.0 0.0 0.07698792 
0.0 0.0 0.0 0.0 0.0 0.07698792 
0.0 0.0 0.0 0.0 0.0 0.07698792 
0.0 0.0 0.0 0.0 0.0 0.07698792 
0.0 0.0 0.0 0.0 0.0 0.07698792 
0.0 0.0 0.0 0.0 0.0 0.07698792 
0.14661291 0.0 0.0 0.0 0.20368327 0.25527963 
0.51316077 0.0 0.0 0.0 0.59746414 0.6417199 
0.8299846 0.0 0.0 0.0 0.98493344 1.1488769 
0.94193023 0.0 0.0 0.0 1.3758235 1.585649 
0.86041 0.0 0.0 0.08372444 1.7284008 1.8701999 
0.7618746 0.0 0.0 0.5116176 2.031576 2.0503063 
0.65893024 0.009142748 0.0 0.8646869 2.2698965 2.0296712 
0.55640453 0.2106099 0.0 1.1031502 2.1950138 2.019444 
0.4829257 0.33600247 0.0 1.2625868 2.1591856 1.9146895 
0.39528382 0.58820444 0.053812027 1.3537841 1.8809704 1.5786052 
0.1246734 0.90532726 0.96648383 1.4023744 1.5590919 0.9658561 
0.02709005 0.94608355 1.6663574 1.2516316 1.3631631 0.38771784 
0.042455226 1.2336655 2.0879507 0.9550634 1.0351392 0.0 
0.12939116 1.3040291 1.8988636 0.3800473 0.8643567 0.0 
0.19022685 1.375014 1.7724434 0.0 0.67350906 0.0 
0.12059055 1.4365826 1.5864521 0.0 0.60977393 0.0 
0.0 1.356504 1.3100864 0.0 0.5711099 0.0 
0.0 1.1707822 0.9477172 0.0 0.5592795 0.0 
0.0 0.6979947 0.528012 0.0 0.44095057 0.0 
0.0 0.36058083 0.20613563 0.0 0.24092962 0.0 
0.0 0.124864444 0.004482746 0.0 0.08546747 0.0 
0.0 0.0029589916 0.0 0.0 0.0 0.06656612 
0.0 0.0 0.0 0.0 0.0 0.07698792 
0.0 0.0 0.0 0.0 0.0 0.07698792 
0.0 0.0 0.0 0.0 0.0 0.07698792 
0.0 0.0 0.0 0.0 0.0 0.07698792 
0.0 0.0 0.0 0.0 0.0 0.07698792 
0.0 0.0 0.0 0.0 0.0 0.07698792 
0.0 0.0 0.0 0.0 0.031176146 0.115977116 
0.14560151 0.0 0.0 0.0 0.25850502 0.23370896 
0.4227751 0.0 0.0 0.0 0.5664775 0.51643366 
0.58816755 0.0 0.0 0.0 0.89684886 0.86035633 
0.6554143 0.0 0.0 0.0 1.1858816 1.2556674 
0.66526526 0.0 0.0 0.0 1.4502109 1.5788713 
0.48874497 0.0 0.0 0.0 1.6426233 1.6956275 
0.56298584 0.0 0.0 0.034928065 1.7904122 1.9376001 
0.5599743 0.0 0.0 0.30952498 1.9409848 1.990933 
0.47775066 0.0 0.0 0.65091974 1.8686333 1.9320948 
0.32859072 0.10117643 0.0 1.0307366 1.7384025 1.8617041 
0.29708278 0.3767211 0.0 1.4149113 1.5857784 1.690913 
0.24939305 0.5607021 0.6076571 1.5985521 1.365619 1.3631089 
0.3508119 0.73538345 1.1800414 1.6482558 1.1681186 0.86326605 
0.4980409 1.0122786 1.5724424 1.4086266 1.0044373 0.30261692 
0.22641039 1.3717407 1.8841833 0.9253611 0.95347506 0.0 
0.09738453 1.5146887 1.9594885 0.24555701 0.89850414 0.0 
0.0 1.7326202 1.9605094 0.0 0.9179304 0.0 
0.0 1.5781975 1.3732686 0.0 0.8629016 0.0 
0.0 0.9448811 0.84983665 0.0 0.670344 0.0 
0.0 0.34116614 0.27500722 0.0 0.41352233 0.0 
0.0 0.09202741 0.0 0.0 0.06869729 0.0 
0.0 0.0 0.0 0.0 0.0 0.07698792 
0.0 0.0 0.0 0.0 0.0 0.07698792 
0.0 0.0 0.0 0.0 0.0 0.07698792 
0.0 0.0 0.0 0.0 0.0 0.07698792 
0.0 0.0 0.0 0.0 0.0 0.07698792 
0.0 0.0 0.0 0.0 0.0 0.07698792 
0.0 0.0 0.0 0.0 0.0 0.07698792 
0.0 0.0 0.0 0.0 0.0 0.08317668 
0.06252186 0.0 0.0 0.0 0.14791963 0.1681386 
0.19229016 0.0 0.0 0.0 0.34053722 0.2692266 
0.34085286 0.0 0.0 0.0 0.5825479 0.43946126 
0.41987622 0.0 0.0 0.0 0.8385872 0.66916686 
0.32537454 0.0 0.0 0.0 1.0013076 0.7831486 
0.43217152 0.0 0.0 0.0 1.1423739 1.060913 
0.4216161 0.0 0.0 0.0 1.3305554 1.2899058 
0.50206393 0.0 0.0 0.0 1.4278313 1.5260994 
0.5731096 0.0 0.0 0.0 1.5095178 1.7157552 
0.50707126 0.0 0.0 0.03072131 1.6585609 1.8116407 
0.46760494 0.0 0.0 0.46348363 1.5719289 1.8951228 
0.46240264 0.0 0.0 0.907995 1.5043304 1.8324592 
0.64025193 0.16858256 0.0 1.2913667 1.3607916 1.6769447 
0.7243509 0.6314966 0.67471856 1.4203402 1.1634178 1.1044519 
0.5680785 1.2165099 1.4364145 1.2300631 1.0507805 0.32310116 
0.005006604 1.730957 2.1374707 0.7645974 1.1073657 0.0 
0.0 1.964613 2.1370482 0.2291813 1.3202392 0.0 
0.0 1.5987233 1.6594384 0.0 1.1242484 0.0 
0.0 0.82296115 0.8955027 0.0 0.72226316 0.0 
0.0 0.10552365 0.10850037 0.0 0.31274444 0.0 
0.0 0.0 0.0 0.0 0.0 0.07698792 
0.0 0.0 0.0 0.0 0.0 0.07698792 
0.0 0.0 0.0 0.0 0.0 0.07698792 
0.0 0.0 0.0 0.0 0.0 0.07698792 
0.0 0.0 0.0 0.0 0.0 0.07698792 
0.0 0.0 0.0 0.0 0.0 0.07698792 
0.0 0.0 0.0 0.0 0.0 0.07698792 
0.0 0.0 0.0 0.0 0.0 0.07283976 
0.0 0.0 0.0 0.0 0.0 0.050537106 
0.0 0.013003747 0.0 0.0 0.0 0.0067928433 
0.032754287 0.0 0.0 0.0 0.020771723 0.013149232 
0.045885228 0.0 0.0 0.0 0.118312106 0.050878253 
0.053251386 0.0 0.0 0.0 0.20287822 0.10782689 
0.1691038 0.0 0.0 0.0 0.44304696 0.2924806 
0.22426316 0.0 0.0 0.0 0.59351355 0.39111564 
0.32626733 0.0 0.0 0.0 0.74590224 0.5434245 
0.4106 0.0 0.0 0.0 0.97617596 0.79741925 
0.39313805 0.0 0.0 0.0 1.1396816 0.9952751 
0.5772206 0.0 0.0 0.0 1.3136262 1.3644702 
0.6723593 0.0 0.0 0.0 1.5125662 1.6992421 
0.91435325 0.0 0.0 0.0 1.4484673 1.8572335 
1.1494646 0.0 0.0 0.36971268 1.2855157 1.6876698 
1.121784 0.30667683 0.0 0.6714758 1.2870299 1.1957593 
0.5348706 1.2850573 0.95334697 0.6832125 1.375908 0.31275293 
0.0 2.0897982 2.014311 0.5298976 1.6130162 0.0 
0.0 1.832855 2.1590705 0.27879643 1.503039 0.0 
0.0 1.1486874 1.5676253 0.08674595 0.96952087 0.0 
0.0 0.27845508 0.40064755 0.0 0.403081 0.0 
0.0 0.0 0.0 0.0 0.0 0.07698792 
0.0 0.0 0.0 0.0 0.0 0.07698792 
0.0 0.0 0.0 0.0 0.0 0.07698792 
0.0 0.0 0.0 0.0 0.0 0.07698792 
0.0 0.0 0.0 0.0 0.0 0.07698792 
0.0 0.0 0.0 0.0 0.0 0.07698792 
0.0 0.0 0.0 0.0 0.0 0.053230263 
0.11335485 0.0 0.1026806 0.0 0.0 0.0 
0.30704796 0.04914123 0.22968638 0.0 0.0 0.0 
0.43053102 0.23511943 0.36049163 0.0 0.0 0.0 
0.2554005 0.56882507 0.3064277 0.0 0.0 0.0 
0.0 0.5683002 0.3014316 0.0 0.08256012 0.0 
0.0 0.4170423 0.21266708 0.0 0.16618456 0.0 
0.0 0.13182397 0.009831436 0.0 0.13268895 0.0 
0.0 0.0 0.0 0.0 0.0 0.07698792 
0.013761513 0.0 0.0 0.0 0.073850214 0.1345434 
0.0946219 0.0 0.0 0.0 0.18872927 0.19726229 
0.16906112 0.0 0.0 0.0 0.36908033 0.26600376 
0.33594275 0.0 0.0 0.0 0.62877965 0.48121968 
0.51218235 0.0 0.0 0.0 0.86894304 0.7631113 
1.0248933 0.0 0.0 0.0 0.93237853 1.1924603 
1.6338086 0.0 0.0 0.0 1.040215 1.4064946 
1.7662733 0.0 0.0 0.0 1.335487 1.1437366 
1.0200388 0.9415251 0.0 0.046001386 1.6359758 0.5667519 
0.0 1.9081326 1.0396591 0.11417658 2.057301 0.0 
0.0 1.788678 1.9029871 0.2231843 1.7882351 0.0 
0.0 1.0352526 1.794701 0.18404697 1.1032702 0.0 
0.0 0.33656067 0.6761212 0.08024975 0.39483097 0.00066211075 
0.0 0.0 0.0 0.0 0.0 0.07698792 
0.0 0.0 0.0 0.0 0.0 0.07698792 
0.0 0.0 0.0 0.0 0.0 0.07698792 
0.0 0.0 0.0 0.0 0.0 0.07698792 
0.0 0.0 0.0 0.0 0.0 0.07698792 
0.0 0.0 0.0 0.0 0.0 0.07698792 
0.038218275 0.0 0.0029992387 0.0 0.0 0.05131885 
0.40349412 0.0 0.13176283 0.0 0.0 0.0 
0.8148788 0.0 0.23991692 0.0 0.0 0.0 
0.95814854 0.33469597 0.5025788 0.0 0.0 0.0 
0.4931183 1.101068 0.8170371 0.0 0.19809864 0.0 
0.0 1.2906106 0.84534234 0.0 0.68285984 0.0 
0.0 0.8795998 0.78361017 0.0 0.68613714 0.0 
0.0 0.21620828 0.22678491 0.0 0.46941313 0.0 
0.0 0.026525974 0.0 0.0 0.0 0.04468033 
0.0 0.0 0.0 0.0 0.0 0.07698792 
0.0 0.0 0.0 0.0 0.0 0.07095423 
0.014842182 0.0 0.036280066 0.0 0.0 0.017704628 
0.20948926 0.0 0.07876005 0.0 0.0 0.0 
0.51132554 0.0 0.0 0.0 0.0 0.0 
1.2088933 0.0 0.0 0.0 0.12874013 0.0 
1.9192338 0.0 0.0 0.0 0.61587065 0.30788323 
2.0138905 0.07647596 0.0 0.0 1.3478891 0.4034317 
1.0726426 0.99440175 0.0 0.0 2.1838713 0.4065033 
0.0 1.706688 0.40497792 0.0 2.4126616 0.05592355 
0.0 1.4981622 1.4904436 0.15064345 1.866494 0.0018084645 
0.0 0.718382 1.508756 0.13999131 1.1438909 0.22486232 
0.0 0.17883343 0.70949876 0.13433272 0.30863154 0.08220638 
0.0 0.0 0.0 0.0 0.0 0.07698792 
0.0 0.0 0.0 0.0 0.0 0.07698792 
0.0 0.0 0.0 0.0 0.0 0.07698792 
0.0 0.0 0.0 0.0 0.0 0.07698792 
0.0 0.0 0.0 0.0 0.0 0.07698792 
0.0 0.0 0.0 0.0 0.0 0.07698792 
0.11659023 0.0 0.0 0.0 0.0 0.14128011 
0.6772893 0.0 0.0 0.0431771 0.0 0.20770967 
1.2628326 0.0 0.0072780773 0.15201272 0.0 0.05375252 
1.3180091 0.24419266 0.3385057 0.27337912 0.15404472 0.0 
0.4612481 1.380699 1.2581071 0.17835866 0.8117968 0.0 
0.0 1.8012177 1.7761446 0.0 1.1632158 0.0 
0.0 1.5951777 1.8954691 0.0 0.833881 0.0 
0.0 0.964474 1.1196067 0.0 0.43067452 0.0 
0.10383612 0.47779086 0.47448915 0.0 0.0 0.0 
0.2819811 0.47914022 0.43087316 0.0 0.0 0.0 
0.28047097 0.44355604 0.41547865 0.0 0.0 0.0 
0.40673018 0.39341664 0.44192106 0.0 0.0 0.0 
0.58743525 0.41238633 0.48853302 0.0 0.0 0.0 
0.8241144 0.41586334 0.49319196 0.0 0.0 0.0 
1.3676465 0.27165997 0.3308546 0.0 0.05216262 0.0 
1.7666807 0.38830647 0.0 0.0 0.95189124 0.0 
1.424104 0.7791487 0.0 0.0 1.9231219 0.17635775 
0.3949691 1.3234843 0.0 0.0 2.6406646 0.44245434 
0.0 1.6758864 0.34840733 0.1965695 2.4193838 0.35217214 
0.0 1.1144968 1.2829572 0.27881083 1.6661938 0.41469336 
0.0 0.3940251 1.200979 0.2347107 0.82859516 0.35551745 
0.0 0.0901345 0.53009456 0.12748751 0.13959719 0.12436111 
0.0 0.0 0.0 0.0 0.0 0.07698792 
0.0 0.0 0.0 0.0 0.0 0.07698792 
0.0 0.0 0.0 0.0 0.0 0.07698792 
0.0 0.0 0.0 0.0 0.0 0.07698792 
0.0 0.0 0.0 0.0 0.0 0.07698792 
0.0 0.0 0.0 0.0 0.0 0.07698792 
0.15993273 0.0 0.0 0.09758509 0.0 0.28505597 
0.7450847 0.0 0.0 0.37933165 0.02074397 0.7379454 
1.2724228 0.0 0.0 0.77157265 0.38146782 1.0120122 
1.4128158 0.20586026 0.0 1.12501 0.85369074 1.0403566 
0.6522963 1.3053265 0.5598066 1.0333675 1.1269442 0.3864806 
0.0 1.7867819 1.862851 0.66977686 1.0461777 0.0 
0.0 1.6861379 2.4212892 0.021170612 0.76995844 0.0 
0.0 1.5035464 2.0455456 0.0 0.52614117 0.0 
0.2589097 1.0504016 1.0836295 0.0 0.20322795 0.0 
0.34799933 0.8975027 1.0035819 0.0 0.09748393 0.0 
0.50111383 0.8188333 0.8826739 0.0 0.0834862 0.0 
0.6791686 0.8066248 0.8733242 0.0 0.03025027 0.0 
0.7338774 0.7017637 0.86356664 0.0 0.24017937 0.0 
0.86402535 0.6757185 0.77677864 0.0 0.48239693 0.0 
1.0290945 0.7574152 0.5719263 0.0 1.1286845 0.0 
1.0360122 0.91622925 0.030289479 0.19600338 2.0575106 0.14513683 
0.64267844 1.2316396 0.0 0.45379475 2.7194903 0.6661251 
0.0 1.4985515 0.0 0.44302225 2.7575428 0.80928147 
0.0 1.2177 0.44918478 0.44612223 2.0578978 0.7035841 
0.0 0.5080382 0.9405525 0.2235207 1.1831869 0.5857131 
0.0 0.20569178 0.81986755 0.1755417 0.40331733 0.33728266 
0.0 0.0 0.2512319 0.01051857 0.05379859 0.11442988 
0.0 0.0 0.0 0.0 0.0 0.07698792 
0.0 0.0 0.0 0.0 0.0 0.07698792 
0.0 0.0 0.0 0.0 0.0 0.07698792 
0.0 0.0 0.0 0.0 0.0 0.07698792 
0.0 0.0 0.0 0.0 0.0 0.07698792 
0.0 0.0 0.0 0.0 0.0 0.07698792 
0.18000314 0.0 0.0 0.06638159 0.0898177 0.32541656 
0.75257766 0.0 0.0 0.20295393 0.53734225 0.9250219 
1.1377001 0.0 0.0 0.34775767 1.1091992 1.4231734 
1.2313528 0.0 0.0 0.611495 1.5305041 1.74262 
0.74743384 0.15550129 0.0 0.96163267 1.5281502 1.571784 
0.1858435 0.53658503 0.42560068 1.1544482 1.3513578 0.9882894 
0.14483365 0.70630825 1.6469164 1.1753495 1.2022011 0.49120018 
0.09051345 0.9164941 2.054704 0.8881356 1.0304422 0.0 
0.4315068 1.0027508 1.5845611 0.45300835 0.8473257 0.0 
0.55010456 1.0465094 1.5158206 0.101244405 0.833991 0.0 
0.5809952 1.0880578 1.4251324 0.0 0.9099491 0.0 
0.63794833 1.1030717 1.2498361 0.11276404 1.0866519 0.0 
0.61995333 1.206904 1.0872599 0.3811479 1.3611282 0.0 
0.593354 1.2871737 0.7155766 0.7082076 1.7195101 0.023384832 
0.5682721 1.237479 0.3543452 0.91212094 2.3478675 0.7063133 
0.34250093 1.3051416 0.0 1.1206043 2.7006428 1.1746409 
0.0 1.2742183 0.0 0.92516315 2.7126973 1.2854624 
0.0 1.0554023 0.0 0.56673187 2.1713138 1.122503 
0.0 0.60012954 0.42357382 0.23969008 1.2239918 0.80069035 
0.0 0.19218984 0.63822955 0.06297043 0.54743177 0.48994017 
0.0 0.0 0.41809657 0.0 0.1735305 0.2215455 
0.0 0.0 0.03530301 0.0 0.0 0.08948752 
0.0 0.0 0.0 0.0 0.0 0.07698792 
0.0 0.0 0.0 0.0 0.0 0.07698792 
0.0 0.0 0.0 0.0 0.0 0.07698792 
0.0 0.0 0.0 0.0 0.0 0.07698792 
0.0 0.0 0.0 0.0 0.0 0.07698792 
0.0 0.0 0.0 0.0 0.0 0.07698792 
0.1059075 0.0 0.0 0.0 0.12316914 0.23554772 
0.5176039 0.0 0.0 0.0 0.56543684 0.67020726 
0.8065309 0.0 0.0 0.0 0.9802759 1.1452999 
0.94126624 0.0 0.0 0.0 1.3516191 1.5951471 
0.6869168 0.0 0.0 0.2391805 1.4226058 1.759582 
0.31720144 0.0 0.0 0.7792817 1.4170547 1.6856139 
0.31988758 0.21231282 0.0 1.3546783 1.3698536 1.6762526 
0.36063504 0.50921637 0.543941 1.712329 1.3015286 1.4072533 
0.4947824 0.8317947 0.72243965 1.9441645 1.2933773 1.2364137 
0.49075347 1.0557163 0.8107524 1.9649986 1.5066271 1.2155647 
0.29283386 1.1628516 0.78505874 1.9057537 1.7318411 1.1654954 
0.38098565 1.1178956 0.6227593 1.7916386 2.0287364 1.2860341 
0.32027552 1.1826813 0.44015044 1.7156324 2.332404 1.4258022 
0.18769518 1.1119304 0.06355742 1.4663614 2.6206448 1.5286973 
0.0 1.0208089 0.0 1.1438893 2.6969006 1.5817685 
0.0 0.8340042 0.0 0.7679266 2.4804685 1.577461 
0.0 0.5936025 0.0 0.24901205 2.0072916 1.3463225 
0.0 0.37126514 0.0 0.045949284 1.10371 0.8737053 
0.0 0.031540617 0.23454311 0.0 0.5391724 0.5358035 
0.0 0.0 0.30538145 0.0 0.26137438 0.28859046 
0.0 0.0 0.08392533 0.0 0.056013744 0.109658554 
0.0 0.0 0.0 0.0 0.0 0.07850991 
0.0 0.0 0.0 0.0 0.0 0.07698792 
0.0 0.0 0.0 0.0 0.0 0.07698792 
0.0 0.0 0.0 0.0 0.0 0.07698792 
0.0 0.0 0.0 0.0 0.0 0.07698792 
0.0 0.0 0.0 0.0 0.0 0.07698792 
0.0 0.0 0.0 0.0 0.0 0.07698792 
0.0 0.0 0.0 0.0 0.052513186 0.12526026 
0.18935317 0.0 0.0 0.0 0.31127667 0.26994115 
0.40023616 0.0 0.0 0.0 0.5938688 0.49459308 
0.5771672 0.0 0.0 0.0 0.8839806 0.84816486 
0.6283248 0.0 0.0 0.0 1.1894071 1.2431166 
0.590736 0.0 0.0 0.0 1.3762952 1.537463 
0.6453091 0.0 0.0 0.0 1.5606303 1.799823 
0.53182286 0.0 0.0 0.38337302 1.6545317 1.8748908 
0.4815883 0.0 0.0 0.7333493 1.9230218 1.8924701 
0.43801856 0.16466597 0.0 1.0609578 2.1575203 1.9693472 
0.36824846 0.27337316 0.0 1.1804281 2.2572334 1.9461057 
0.32673162 0.4393678 0.0 1.1212223 2.316209 1.9212222 
0.17785925 0.466371 0.0 0.9508916 2.3238485 1.8538802 
0.029572144 0.555305 0.0 0.65325314 2.1657403 1.7376084 
0.0 0.45949644 0.0 0.22620787 1.8921013 1.5126824 
0.0 0.20699932 0.0 0.0 1.4543904 1.2130022 
0.0 0.05033236 0.0 0.0 0.8365393 0.77161914 
0.0 0.0 0.0 0.0 0.43210816 0.4440309 
0.0 0.0 0.08851195 0.0 0.23026954 0.27508193 
0.0 0.0 0.1043896 0.0 0.058847222 0.112625614 
0.0 0.0 0.0 0.0 0.0 0.07850991 
0.0 0.0 0.0 0.0 0.0 0.07698792 
0.0 0.0 0.0 0.0 0.0 0.07698792 
0.0 0.0 0.0 0.0 0.0 0.07698792 
0.0 0.0 0.0 0.0 0.0 0.07698792 
0.0 0.0 0.0 0.0 0.0 0.07698792 
0.0 0.0 0.0 0.0 0.0 0.07698792 
0.0 0.0 0.0 0.0 0.0 0.07698792 
0.0 0.0 0.0 0.0 0.0 0.07698792 
0.0 0.0 0.0 0.0 0.0 0.08998432 
0.027969055 0.0 0.0 0.0 0.09355013 0.14599065 
0.18997991 0.0 0.0 0.0 0.35090664 0.26502436 
0.3279155 0.0 0.0 0.0 0.5630756 0.41958895 
0.41799396 0.0 0.0 0.0 0.79812044 0.6401042 
0.5039447 0.0 0.0 0.0 1.0583858 0.9761604 
0.52271456 0.0 0.0 0.0 1.2957071 1.2819061 
0.46393824 0.0 0.0 0.0 1.4267743 1.4916193 
0.3893692 0.0 0.0 0.0 1.4846879 1.6206033 
0.3078576 0.0 0.0 0.0 1.5088693 1.678885 
0.19387883 0.018476393 0.0 0.0 1.4886991 1.5925484 
0.07268281 0.0 0.0 0.0 1.3815943 1.3939159 
0.0 0.0 0.0 0.0 1.2043386 1.1167948 
0.0 0.0 0.0 0.0 0.8725824 0.7623521 
0.0 0.0 0.0 0.0 0.5495823 0.49097517 
0.0 0.0 0.0 0.0 0.3127638 0.29410774 
0.0 0.0 0.0 0.0 0.13585088 0.16634753 
0.0 0.0 0.0 0.0 0.01427472 0.10368325 
0.0 0.0 0.0 0.0 0.0 0.079347014 
0.0 0.0 0.0 0.0 0.0 0.07698792 
0.0 0.0 0.0 0.0 0.0 0.07698792 
0.0 0.0 0.0 0.0 0.0 0.07698792 
0.0 0.0 0.0 0.0 0.0 0.07698792 
0.0 0.0 0.0 0.0 0.0 0.07698792 
0.0 0.0 0.0 0.0 0.0 0.07698792 
0.0 0.0 0.0 0.0 0.0 0.07698792 
0.0 0.0 0.0 0.0 0.0 0.07698792 
0.0 0.0 0.0 0.0 0.0 0.07698792 
0.0 0.0 0.0 0.0 0.0 0.07698792 
0.0 0.0 0.0 0.0 0.0 0.07698792 
0.0 0.0 0.0 0.0 0.0 0.07698792 
0.0 0.0 0.0 0.0 0.008416634 0.1060751 
0.06147781 0.0 0.0 0.0 0.14246118 0.17083171 
0.19443414 0.0 0.0 0.0 0.374903 0.2743631 
0.29343674 0.0 0.0 0.0 0.5987659 0.39261904 
0.27789438 0.0 0.0 0.0 0.7564743 0.46651345 
0.22742271 0.0 0.0 0.0 0.8721555 0.5356227 
0.16523418 0.0 0.0 0.0 0.9465299 0.56702137 
0.065054595 0.0 0.0 0.0 0.846522 0.5186413 
0.0 0.0 0.0 0.0 0.6765171 0.43273407 
0.0 0.0 0.0 0.0 0.43948972 0.33216012 
0.0 0.0 0.0 0.0 0.23953559 0.21415216 
0.0 0.0 0.0 0.0 0.097794786 0.15459421 
0.0 0.0 0.0 0.0 0.0021558255 0.09399967 
0.0 0.0 0.0 0.0 0.0 0.07812942 
0.0 0.0 0.0 0.0 0.0 0.07698792 
0.0 0.0 0.0 0.0 0.0 0.07698792 
0.0 0.0 0.0 0.0 0.0 0.07698792 
0.0 0.0 0.0 0.0 0.0 0.07698792 
0.0 0.0 0.0 0.0 0.0 0.07698792 
0.0 0.0 0.0 0.0 0.0 0.07698792 
0.0 0.0 0.0 0.0 0.0 0.07698792 
0.0 0.0 0.0 0.0 0.0 0.07698792 
0.0 0.0 0.0 0.0 0.0 0.07698792 
0.0 0.0 0.0 0.0 0.0 0.07698792 
0.0 0.0 0.0 0.0 0.0 0.07698792 
0.0 0.0 0.0 0.0 0.0 0.07698792 
0.0 0.0 0.0 0.0 0.0 0.07698792 
0.0 0.0 0.0 0.0 0.0 0.07698792 
0.0 0.0 0.0 0.0 0.0 0.07698792 
0.0 0.0 0.0 0.0 0.0 0.07698792 
0.0 0.0 0.0 0.0 0.0 0.07698792 
0.0 0.0 0.0 0.0 0.0 0.07698792 
0.0 0.0 0.0 0.0 0.0 0.07698792 
0.0 0.0 0.0 0.0 0.0 0.07698792 
0.0 0.0 0.0 0.0 0.0 0.07698792 
0.0 0.0 0.0 0.0 0.0 0.07698792 
0.0 0.0 0.0 0.0 0.0 0.07698792 
0.0 0.0 0.0 0.0 0.0 0.07698792 
0.0 0.0 0.0 0.0 0.0 0.07698792 
0.0 0.0 0.0 0.0 0.0 0.07698792 
0.0 0.0 0.0 0.0 0.0 0.07698792 
0.0 0.0 0.0 0.0 0.0 0.07698792 
0.0 0.0 0.0 0.0 0.0 0.07698792 
0.0 0.0 0.0 0.0 0.0 0.07698792 
0.0 0.0 0.0 0.0 0.0 0.07698792 
0.0 0.0 0.0 0.0 0.0 0.07698792 
0.0 0.0 0.0 0.0 0.0 0.07698792 
0.0 0.0 0.0 0.0 0.0 0.07698792 
0.0 0.0 0.0 0.0 0.0 0.07698792 
0.0 0.0 0.0 0.0 0.0 0.07698792 
0.0 0.0 0.0 0.0 0.0 0.07698792 
0.0 0.0 0.0 0.0 0.0 0.07698792 
0.0 0.0 0.0 0.0 0.0 0.07698792 
0.0 0.0 0.0 0.0 0.0 0.07698792 
0.0 0.0 0.0 0.0 0.0 0.07698792 
0.0 0.0 0.0 0.0 0.0 0.07698792 
0.0 0.0 0.0 0.0 0.0 0.07698792 
0.0 0.0 0.0 0.0 0.0 0.07698792 
0.0 0.0 0.0 0.0 0.0 0.07698792 
0.0 0.0 0.0 0.0 0.0 0.07698792 
0.0 0.0 0.0 0.0 0.0 0.07698792 
0.0 0.0 0.0 0.0 0.0 0.07698792 
0.0 0.0 0.0 0.0 0.0 0.07698792 
0.0 0.0 0.0 0.0 0.0 0.07698792 
0.0 0.0 0.0 0.0 0.0 0.07698792 
0.0 0.0 0.0 0.0 0.0 0.07698792 
0.0 0.0 0.0 0.0 0.0 0.07698792 
0.0 0.0 0.0 0.0 0.0 0.07698792 
0.0 0.0 0.0 0.0 0.0 0.07698792 
0.0 0.0 0.0 0.0 0.0 0.07698792 
0.0 0.0 0.0 0.0 0.0 0.07698792 
0.0 0.0 0.0 0.0 0.0 0.07698792 
0.0 0.0 0.0 0.0 0.0 0.07698792 
0.0 0.0 0.0 0.0 0.0 0.07698792 
0.0 0.0 0.0 0.0 0.0 0.07698792 
0.0 0.0 0.0 0.0 0.0 0.07698792 
0.0 0.0 0.0 0.0 0.0 0.07698792 

