0.0 0.0 0.0 0.0 0.0 0.07698792 
0.0 0.0 0.0 0.0 0.0 0.07698792 
0.0 0.0 0.0 0.0 0.0 0.07698792 
0.0 0.0 0.0 0.0 0.0 0.07698792 
0.0 0.0 0.0 0.0 0.0 0.07698792 
0.0 0.0 0.0 0.0 0.0 0.07698792 
0.0 0.0 0.0 0.0 0.0 0.07698792 
0.0 0.0 0.0 0.0 0.0 0.07698792 
0.0 0.0 0.0 0.0 0.0 0.07698792 
0.0 0.0 0.0 0.0 0.0 0.07698792 
0.0 0.0 0.0 0.0 0.0 0.07698792 
0.0 0.0 0.0 0.0 0.0 0.07698792 
0.0 0.0 0.0 0.0 0.0 0.07698792 
0.0 0.0 0.0 0.0 0.0 0.07698792 
0.0 0.0 0.0 0.0 0.0 0.07698792 
0.0 0.0 0.0 0.0 0.0 0.07698792 
0.0 0.0 0.0 0.0 0.0 0.07698792 
0.0 0.0 0.0 0.0 0.0 0.07698792 
0.0 0.0 0.0 0.0 0.0 0.07698792 
0.0 0.0 0.0 0.0 0.0 0.07698792 
0.0 0.0 0.0 0.0 0.0 0.07698792 
0.0 0.0 0.0 0.0 0.0 0.07698792 
0.0 0.0 0.0 0.0 0.0 0.07698792 
0.0 0.0 0.0 0.0 0.0 0.07698792 
0.0 0.0 0.0 0.0 0.0 0.07698792 
0.0 0.0 0.0 0.0 0.0 0.07698792 
0.0 0.0 0.0 0.0 0.0 0.07698792 
0.0 0.0 0.0 0.0 0.0 0.07698792 
0.0 0.0 0.0 0.0 0.0 0.07698792 
0.0 0.0 0.0 0.0 0.0 0.07698792 
0.0 0.0 0.0 0.0 0.0 0.07698792 
0.0 0.0 0.0 0.0 0.0 0.07698792 
0.0 0.0 0.0 0.0 0.0 0.07698792 
0.0 0.0 0.0 0.0 0.0 0.07698792 
0.0 0.0 0.0 0.0 0.0 0.07698792 
0.0 0.0 0.0 0.0 0.0 0.07698792 
0.0 0.0 0.0 0.0 0.0 0.07698792 
0.0 0.0 0.0 0.0 0.0 0.07698792 
0.0 0.0 0.0 0.0 0.0 0.07698792 
0.0 0.0 0.0 0.0 0.0 0.07698792 
0.0 0.0 0.0 0.0 0.0 0.07698792 
0.0 0.0 0.0 0.0 0.0 0.07698792 
0.0 0.0 0.0 0.0 0.0 0.07698792 
0.0 0.0 0.0 0.0 0.0 0.07698792 
0.0 0.0 0.0 0.0 0.0 0.07698792 
0.0 0.0 0.0 0.0 0.0 0.07698792 
0.0 0.0 0.0 0.0 0.0 0.07698792 
0.0 0.0 0.0 0.0 0.0 0.07698792 
0.0 0.0 0.0 0.0 0.0 0.07698792 
0.0 0.0 0.0 0.0 0.0 0.07698792 
0.0 0.0 0.0 0.0 0.0 0.07698792 
0.0 0.0 0.0 0.0 0.0 0.07698792 
0.0 0.0 0.0 0.0 0.0 0.07698792 
0.0 0.0 0.0 0.0 0.0 0.07698792 
0.0 0.0 0.0 0.0 0.0 0.07698792 
0.0 0.0 0.0 0.0 0.0 0.07698792 
0.0 0.0 0.0 0.0 0.0 0.07698792 
0.0 0.0 0.0 0.0 0.0 0.07698792 
0.0 0.0 0.0 0.0 0.0 0.07698792 
0.0 0.0 0.0 0.0 0.0 0.07698792 
0.0 0.0 0.0 0.0 0.0 0.07698792 
0.0 0.0 0.0 0.0 0.0 0.07698792 
0.0 0.0 0.0 0.0 0.0 0.07698792 
0.0 0.0 0.0 0.0 0.0 0.07698792 
0.0 0.0 0.0 0.0 0.0 0.07698792 
0.0 0.0 0.0 0.0 0.0 0.07698792 
0.0 0.0 0.0 0.0 0.0 0.07698792 
0.0 0.0 0.0 0.0 0.0 0.07698792 
0.0 0.0 0.0 0.0 0.0 0.07698792 
0.0 0.0 0.0 0.0 0.0 0.07698792 
0.0 0.0 0.0 0.0 0.0 0.07698792 
0.0 0.0 0.0 0.0 0.0 0.07698792 
0.0 0.0 0.0 0.0 0.0 0.07698792 
0.0 0.0 0.0 0.0 0.0 0.07698792 
0.0 0.0 0.0 0.0 0.0 0.07698792 
0.0 0.0 0.0 0.0 0.0 0.07698792 
0.0 0.0 0.0 0.0 0.0 0.07698792 
0.0 0.0 0.0 0.0 0.0 0.07698792 
0.0 0.0 0.0 0.0 0.0 0.07698792 
0.0 0.0 0.0 0.0 0.0 0.07698792 
0.0 0.0 0.0 0.0 0.0 0.07698792 
0.0 0.0 0.0 0.0 0.0 0.07698792 
0.0 0.0 0.0 0.0 0.0 0.07698792 
0.0 0.0 0.0 0.0 0.0 0.07698792 
0.0 0.0 0.0 0.0 0.0 0.07698792 
0.0 0.0 0.0 0.0 0.0 0.07698792 
0.0 0.0 0.0 0.0 0.0 0.07698792 
0.0 0.0 0.0 0.0 0.0 0.07698792 
0.0 0.0 0.0 0.0 0.0 0.07698792 
0.0 0.0 0.0 0.0 0.0 0.07698792 
0.0 0.0 0.0 0.0 0.0 0.07698792 
0.0 0.0 0.0 0.0 0.0 0.07698792 
0.0 0.0 0.0 0.0 0.0 0.07698792 
0.0 0.0 0.0 0.0 0.0 0.07698792 
0.0 0.0 0.0 0.0 0.0 0.07698792 
0.0 0.0 0.0 0.0 0.0 0.07698792 
0.0 0.0 0.0 0.0 0.0 0.07698792 
0.0 0.0 0.0 0.0 0.0 0.07698792 
0.0 0.0 0.0 0.0 0.0 0.07698792 
0.0 0.0 0.0 0.0 0.0 0.07698792 
0.0 0.0 0.0 0.0 0.0 0.07698792 
0.0 0.0 0.0 0.0 0.0 0.07698792 
0.0 0.0 0.0 0.0 0.0 0.07698792 
0.0 0.0 0.0 0.0 0.0 0.07698792 
0.0 0.0 0.0 0.0 0.0 0.07698792 
0.0 0.0 0.0 0.0 0.0 0.07698792 
0.0 0.0 0.0 0.0 0.0 0.07698792 
0.0 0.0 0.0 0.0 0.0 0.07698792 
0.0 0.0 0.0 0.0 0.0 0.07698792 
0.0 0.0 0.0 0.0 0.0 0.07698792 
0.0 0.0 0.0 0.0 0.0 0.07698792 
0.0 0.0 0.0 0.0 0.0 0.07698792 
0.0 0.0 0.0 0.0 0.0 0.07698792 
0.0 0.0 0.0 0.0 0.0 0.07698792 
0.0 0.0 0.0 0.0 0.0 0.07698792 
0.0 0.0 0.0 0.0 0.0 0.07698792 
0.0 0.0 0.0 0.0 0.0 0.07698792 
0.0 0.0 0.0 0.0 0.0 0.07698792 
0.0 0.0 0.0 0.0 0.0 0.07698792 
0.0 0.0 0.0 0.0 0.0 0.07698792 
0.0 0.0 0.0 0.0 0.0 0.07698792 
0.0 0.0 0.0 0.0 0.0 0.07698792 
0.0 0.0 0.0 0.0 0.0 0.07698792 
0.0 0.0 0.0 0.0 0.0 0.07698792 
0.0 0.0 0.0 0.0 0.0 0.07698792 
0.0 0.0 0.0 0.0 0.0 0.07698792 
0.0 0.0 0.0 0.0 0.0 0.07698792 
0.0 0.0 0.0 0.0 0.0 0.07698792 
0.0 0.0 0.0 0.0 0.0 0.07698792 
0.0 0.0 0.0 0.0 0.0 0.07698792 
0.0 0.0 0.0 0.0 0.0 0.07698792 
0.0 0.0 0.0 0.0 0.0 0.07698792 
0.0 0.0 0.0 0.0 0.0 0.07698792 
0.0 0.0 0.0 0.0 0.0 0.07698792 
0.0 0.0 0.0 0.0 0.0 0.07698792 
0.0 0.0 0.0 0.0 0.0 0.07698792 
0.0 0.0 0.0 0.0 0.0 0.07698792 
0.0 0.0 0.0 0.0 0.0 0.07698792 
0.0 0.0 0.0 0.0 0.0 0.07698792 
0.0 0.0 0.0 0.0 0.0 0.07698792 
0.0 0.0 0.0 0.0 0.0 0.07698792 
0.0 0.0 0.0 0.0 0.0 0.07698792 
0.0 0.0 0.0 0.0 0.0 0.07698792 
0.0 0.0 0.0 0.0 0.0 0.07698792 
0.0 0.0 0.0 0.0 0.0 0.07698792 
0.0 0.0 0.0 0.0 0.0 0.07698792 
0.0 0.0 0.0 0.0 0.0 0.07698792 
0.0 0.0 0.0 0.0 0.0 0.07698792 
0.0 0.0 0.0 0.0 0.0 0.07698792 
0.0 0.0 0.0 0.0 0.0 0.067183174 
0.0 0.006610158 0.0 0.0 0.0 0.042545043 
0.0 0.011284604 0.0 0.0 0.0 0.020017345 
0.0 0.02751201 0.0 0.0 0.0 0.0 
0.0057249144 0.025784135 0.038287945 0.0 0.0 0.0 
0.100399256 0.04689124 0.11314771 0.0 0.0 0.0 
0.1634849 0.13527556 0.16665211 0.0 0.0 0.0 
0.22243854 0.19567826 0.2966791 0.0 0.0 0.0 
0.2972055 0.35114214 0.35620266 0.0 0.0 0.0 
0.13402344 0.48137417 0.24430504 0.0 0.0 0.0 
0.0 0.40867808 0.20087224 0.0 0.00024128705 0.0 
0.0 0.30814594 0.111704536 0.0 0.07128583 0.0 
0.0 0.11716324 0.0 0.0 0.05242138 0.0 
0.0 0.0 0.0 0.0 0.0 0.07021375 
0.0 0.0 0.0 0.0 0.0 0.07698792 
0.0 0.0 0.0 0.0 0.0 0.07698792 
0.0 0.0 0.0 0.0 0.0 0.07698792 
0.0 0.0 0.0 0.0 0.0 0.07698792 
0.0 0.0 0.0 0.0 0.0 0.07698792 
0.0 0.0 0.0 0.0 0.0 0.07698792 
0.0 0.0 0.0 0.0 0.0 0.07698792 
0.0 0.0 0.0 0.0 0.0 0.07698792 
0.0 0.0 0.0 0.0 0.0 0.07698792 
0.0 0.0 0.0 0.0 0.0 0.069822915 
0.016686544 0.0 0.03583972 0.0 0.0 0.015050318 
0.11623716 0.043663926 0.088965274 0.0 0.0 0.0 
0.16036025 0.10886794 0.18401277 0.0 0.0 0.0 
0.21898812 0.2413143 0.26483393 0.0 0.0 0.0 
0.26828325 0.29020944 0.358681 0.0 0.0 0.0 
0.34961224 0.40926003 0.407705 0.0 0.0 0.0 
0.32005936 0.47599882 0.4452151 0.0 0.0 0.0 
0.34815967 0.5453804 0.5354578 0.0 0.0 0.0 
0.3827036 0.53047913 0.5255027 0.0 0.0 0.0 
0.5094585 0.50577396 0.5403374 0.0 0.0 0.0 
0.6051998 0.5929937 0.61178404 0.0 0.0 0.0 
0.6434923 0.6908733 0.66290176 0.0 0.0 0.0 
0.61122864 0.78995556 0.83066887 0.0 0.0 0.0 
0.4039021 1.040303 0.9023471 0.0 0.19559298 0.0 
0.0 1.2304105 0.78016835 0.0 0.41493663 0.0 
0.0 0.83503383 0.6519045 0.0 0.54078525 0.0 
0.0 0.33132568 0.24527752 0.0 0.38832542 0.0 
0.0 0.11696802 0.0 0.0 0.06668553 0.0 
0.0 0.0023978734 0.0 0.0 0.0 0.06708721 
0.0 0.0 0.0 0.0 0.0 0.07698792 
0.0 0.0 0.0 0.0 0.0 0.07698792 
0.0 0.0 0.0 0.0 0.0 0.07698792 
0.0 0.0 0.0 0.0 0.0 0.07698792 
0.0 0.0 0.0 0.0 0.0 0.07698792 
0.0 0.0 0.0 0.0 0.0 0.07698792 
0.0 0.0 0.0 0.0 0.0 0.07698792 
0.0 0.0 0.0 0.0 0.0 0.07698792 
0.019049391 0.0 0.032901317 0.0 0.0 0.035372786 
0.30865857 0.0 0.15400273 0.0 0.0 0.0 
0.5675638 0.0772234 0.29667124 0.0 0.0 0.0 
0.6733927 0.34994778 0.4502402 0.0 0.0 0.0 
0.6344651 0.68077475 0.7097213 0.0 0.0 0.0 
0.5935144 0.7323267 0.7565606 0.0 0.0 0.0 
0.6038949 0.83445793 0.88538694 0.0 0.0 0.0 
0.5483365 0.90776247 0.8996316 0.0 0.089363724 0.0 
0.4976086 0.9750944 1.0261934 0.0 0.11615232 0.0 
0.5318824 0.86872715 1.0148618 0.0 0.23218979 0.0 
0.6874312 0.82790095 0.9543114 0.0 0.26355627 0.0 
0.65639 0.8953313 1.0151916 0.0 0.42038408 0.0 
0.65550894 0.85078865 1.0656612 0.0 0.62538236 0.0 
0.6254012 0.97938603 1.2365611 0.0 0.76462585 0.0 
0.3030047 1.3792813 1.5139478 0.0 0.88779354 0.0 
0.0 1.6971507 1.6252869 0.0 1.0980959 0.0 
0.0 1.5984031 1.5010953 0.0 1.0267512 0.0 
0.0 0.9567257 0.94373333 0.0 0.7178401 0.0 
0.0 0.24586836 0.19583672 0.0 0.38537475 0.0 
0.0 0.038195554 0.0 0.0 0.015001122 0.026380919 
0.0 0.0 0.0 0.0 0.0 0.07698792 
0.0 0.0 0.0 0.0 0.0 0.07698792 
0.0 0.0 0.0 0.0 0.0 0.07698792 
0.0 0.0 0.0 0.0 0.0 0.07698792 
0.0 0.0 0.0 0.0 0.0 0.07698792 
0.0 0.0 0.0 0.0 0.0 0.07698792 
0.0 0.0 0.0 0.0 0.0 0.07698792 
0.0 0.0 0.0 0.0 0.0 0.07698792 
0.15283549 0.0 0.032668836 0.0 0.0 0.053504307 
0.73354274 0.0 0.08354958 0.0 0.0 0.0 
1.1000845 0.0 0.23575029 0.0 0.0 0.0 
1.1304643 0.44372767 0.56907266 0.0 0.0 0.0 
0.7872087 0.9117715 1.0434548 0.0 0.40486744 0.0 
0.64505905 0.95278937 1.2225568 0.0 0.7776996 0.0 
0.6264003 1.059536 1.2901002 0.0 0.8939781 0.0 
0.5611461 1.1362436 1.3670512 0.0 0.99624676 0.0 
0.5873294 1.153495 1.4643329 0.08402181 1.0622395 0.0 
0.5589886 1.2552993 1.4241699 0.25208178 1.1906656 0.0 
0.5442887 1.2050564 1.1959568 0.4250252 1.3618375 0.0 
0.4845503 1.2994975 1.0317147 0.6861035 1.549954 0.0 
0.45864576 1.2623875 0.9468672 1.0021179 1.648976 0.22890215 
0.612755 1.2444733 1.0302209 1.1754974 1.598795 0.46827817 
0.40389097 1.5018978 1.3031281 0.99871784 1.4495425 0.11979724 
0.0 1.915602 1.8503859 0.7508941 1.3525592 0.0 
0.0 1.9578266 2.1561735 0.3721882 1.351358 0.0 
0.0 1.5013022 1.7594723 0.0 1.0819678 0.0 
0.0 0.55846304 0.6647424 0.0 0.6400613 0.0 
0.0 0.05464097 0.03563556 0.0 0.12037216 0.0020448118 
0.0 0.0 0.0 0.0 0.0 0.07698792 
0.0 0.0 0.0 0.0 0.0 0.07698792 
0.0 0.0 0.0 0.0 0.0 0.07698792 
0.0 0.0 0.0 0.0 0.0 0.07698792 
0.0 0.0 0.0 0.0 0.0 0.07698792 
0.0 0.0 0.0 0.0 0.0 0.07698792 
0.0 0.0 0.0 0.0 0.0 0.07698792 
0.0 0.0 0.0 0.0 0.0 0.07698792 
0.23015815 0.0 0.0 0.05676841 0.0 0.26319128 
0.98320824 0.0 0.0 0.26936477 0.0 0.50030273 
1.4935849 0.0 0.0 0.4809964 0.07419096 0.3280017 
1.1885252 0.62174505 0.12284083 0.7788961 0.65282184 0.13603303 
0.66335624 1.1456038 0.78080493 0.87638336 1.3493279 0.094985045 
0.48278475 1.4285264 1.0179149 1.060022 1.7341561 0.300343 
0.4288615 1.3803433 0.8469352 1.2268523 1.8507149 0.63449115 
0.31709084 1.3776659 0.7983925 1.4685571 1.8529798 0.8145135 
0.32656965 1.2851231 0.75705343 1.6065804 1.9368142 1.0800617 
0.26276913 1.3009539 0.76861715 1.7309216 2.1322536 1.2433989 
0.24700338 1.2274445 0.43772823 1.6729329 2.3000548 1.4069185 
0.14642553 1.124418 0.27456054 1.6251223 2.388432 1.5295925 
0.3005702 0.7786402 0.0242986 1.3416132 2.4011128 1.6065118 
0.75369304 0.59817487 0.0 1.1325786 2.05097 1.5846803 
0.8358828 0.7100059 0.033357434 0.892195 1.6810466 1.1168754 
0.22589648 1.5337813 0.7942373 0.6109172 1.6079788 0.21753442 
0.0 1.9640392 1.8644944 0.4519971 1.6553972 0.0 
0.0 1.5198573 2.1233292 0.26385185 1.3872923 0.0 
0.0 0.76205146 1.166854 0.0861375 0.77698153 0.0 
0.0 0.10720368 0.16509375 0.0 0.13450187 0.027621005 
0.0 0.0 0.0 0.0 0.0 0.07698792 
0.0 0.0 0.0 0.0 0.0 0.07698792 
0.0 0.0 0.0 0.0 0.0 0.07698792 
0.0 0.0 0.0 0.0 0.0 0.07698792 
0.0 0.0 0.0 0.0 0.0 0.07698792 
0.0 0.0 0.0 0.0 0.0 0.07698792 
0.0 0.0 0.0 0.0 0.0 0.07698792 
0.0 0.0 0.0 0.0 0.0 0.07698792 
0.3073141 0.0 0.0 0.16742814 0.033880975 0.4476546 
0.973244 0.0 0.0 0.4447389 0.32057065 1.0243037 
1.295912 0.0 0.0 0.8489228 0.8970166 1.3145516 
1.1690047 0.24459359 0.0 1.1887574 1.6096791 1.5213723 
0.64461184 0.89630854 0.0 1.4749519 2.138908 1.6630411 
0.18718594 0.81351584 0.0 1.3412387 2.620007 1.728847 
0.21514228 0.655572 0.0 1.2364147 2.629908 1.8092921 
0.2240063 0.5574562 0.0 1.185098 2.554588 1.8549111 
0.22947228 0.4488449 0.0 1.099927 2.606442 1.9385366 
0.13918836 0.45879102 0.0 1.0324389 2.5173337 1.880974 
0.13307041 0.40951666 0.0 0.8853778 2.413796 1.8701947 
0.17815176 0.43726817 0.0 0.6570894 2.1718276 1.8431869 
0.5067927 0.15209788 0.0 0.3081217 1.7540488 1.709868 
1.2207894 0.0 0.0 0.009284672 1.4448854 1.6497738 
1.4591644 0.18455708 0.0 0.0 1.524516 1.2430332 
0.4626701 1.261692 0.0 0.042075273 1.8166951 0.3899704 
0.0 1.7346599 1.0367522 0.10769029 1.980502 0.0 
0.0 1.3373783 1.844994 0.2663928 1.5442456 0.06796068 
0.0 0.5358792 1.2910146 0.18822654 0.7947958 0.08766155 
0.0 0.1222831 0.25754178 0.102675684 0.06681545 0.08205053 
0.0 0.0 0.0 0.0 0.0 0.07698792 
0.0 0.0 0.0 0.0 0.0 0.07698792 
0.0 0.0 0.0 0.0 0.0 0.07698792 
0.0 0.0 0.0 0.0 0.0 0.07698792 
0.0 0.0 0.0 0.0 0.0 0.07698792 
0.0 0.0 0.0 0.0 0.0 0.07698792 
0.0 0.0 0.0 0.0 0.0 0.07698792 
0.0 0.0 0.0 0.0 0.0 0.07698792 
0.2765066 0.0 0.0 0.066986345 0.19130987 0.4215065 
0.9034845 0.0 0.0 0.082989104 0.7985255 1.1339161 
1.0465446 0.0 0.0 0.19549611 1.2860919 1.4863477 
0.7979603 0.0 0.0 0.343594 1.7234141 1.6145499 
0.3597417 0.20623513 0.0 0.5349013 2.067566 1.8468821 
0.15456173 0.36107388 0.0 0.49392107 2.0953817 1.8501775 
0.17288734 0.29315343 0.0 0.2983369 1.9527849 1.7690878 
0.16928232 0.2501723 0.0 0.09606916 1.8126992 1.7361019 
0.16884848 0.20863926 0.0 0.0 1.7119921 1.696296 
0.117648795 0.12721378 0.0 0.0 1.5750057 1.5960002 
0.07679424 0.006519678 0.0 0.0 1.3962698 1.3986886 
0.21968704 0.0 0.0 0.0 1.1401533 1.1774335 
0.7807836 0.0 0.0 0.0 0.78512573 1.0016596 
1.6316538 0.0 0.0 0.0 0.8850507 0.97258687 
1.6283674 0.052674375 0.0 0.0 1.6491475 0.7244416 
0.20203567 1.232189 0.0 0.0 2.2296593 0.2776329 
0.0 1.462823 0.60164535 0.0 2.1510823 0.0945656 
0.0 0.9515275 1.4418317 0.16614638 1.4573659 0.35851583 
0.0 0.2860187 1.0492349 0.19718497 0.58076423 0.2189954 
0.0 0.030823126 0.20090017 0.056857392 0.016641576 0.102972105 
0.0 0.0 0.0 0.0 0.0 0.07698792 
0.0 0.0 0.0 0.0 0.0 0.07698792 
0.0 0.0 0.0 0.0 0.0 0.07698792 
0.0 0.0 0.0 0.0 0.0 0.07698792 
0.0 0.0 0.0 0.0 0.0 0.07698792 
0.0 0.0 0.0 0.0 0.0 0.07698792 
0.0 0.0 0.0 0.0 0.0 0.07698792 
0.0 0.0 0.0 0.0 0.0 0.07698792 
0.14704362 0.0 0.0 0.0 0.23403321 0.24298818 
0.53936625 0.0 0.0 0.0 0.6070809 0.6513946 
0.66802156 0.0 0.0 0.0 0.9693733 0.9983977 
0.46580762 0.0 0.0 0.0 1.1765614 1.1537507 
0.25069466 0.0 0.0 0.0 1.2366387 1.1982198 
0.07819788 0.0 0.0 0.0 1.2322134 1.1216915 
0.026119277 0.0 0.0 0.0 1.1580821 0.9496946 
0.06856166 0.0 0.0 0.0 1.0885988 0.8121429 
0.033737168 0.0 0.0 0.0 1.0195081 0.6848814 
0.001527302 0.0 0.0 0.0 0.8426055 0.56559896 
0.0 0.0 0.0 0.0 0.65930486 0.42853957 
0.33695287 0.0 0.0 0.0 0.21443631 0.30730453 
1.1652939 0.0 0.0 0.0 0.0795989 0.365035 
1.8935394 0.0 0.0 0.0 0.70071477 0.44684914 
1.3738782 0.7802325 0.0 0.0 1.8170873 0.25348198 
0.0 1.6148323 0.0 0.0 2.3385074 0.10420792 
0.0 1.4527639 0.7896099 0.020029914 1.8930802 0.19820207 
0.0 0.54156053 1.1307155 0.0 1.1726656 0.39664257 
0.0 0.12349208 0.71870834 0.13407147 0.28216192 0.22094837 
0.0 0.0 0.059105076 0.0 0.0 0.09310436 
0.0 0.0 0.0 0.0 0.0 0.07698792 
0.0 0.0 0.0 0.0 0.0 0.07698792 
0.0 0.0 0.0 0.0 0.0 0.07698792 
0.0 0.0 0.0 0.0 0.0 0.07698792 
0.0 0.0 0.0 0.0 0.0 0.07698792 
0.0 0.0 0.0 0.0 0.0 0.07698792 
0.0 0.0 0.0 0.0 0.0 0.07698792 
0.0 0.0 0.0 0.0 0.0 0.07698792 
0.0 0.0 0.0 0.0 0.0 0.10050522 
0.15195505 0.0 0.0 0.0 0.28276804 0.2306425 
0.27402955 0.0 0.0 0.0 0.48007712 0.33564314 
0.15457232 0.0 0.0 0.0 0.4532008 0.31362787 
0.041549675 0.0 0.0 0.0 0.4819698 0.36117285 
0.0 0.0 0.0 0.0 0.44132867 0.3339513 
0.0 0.0 0.0 0.0 0.30986416 0.2386659 
0.0 0.0 0.0 0.0 0.15140897 0.1874819 
0.0 0.0 0.0 0.0 0.06186985 0.12765881 
0.0 0.0 0.0 0.0 0.003920939 0.11167833 
0.09171072 0.0 0.094575204 0.0 0.0 0.034259498 
0.81627357 0.0 0.0 0.0 0.0 0.07702647 
1.698436 0.0 0.0 0.0 0.0 0.27577627 
1.9429219 0.3062645 0.0 0.0 1.0486114 0.30268866 
0.7022392 1.4349475 0.0 0.0 2.1611164 0.14100854 
0.0 1.7208579 0.08355468 0.0 2.2840912 0.11191562 
0.0 1.1279135 1.0852793 0.0 1.5954705 0.34466523 
0.0 0.2702344 0.92421323 0.0 0.80917937 0.3132642 
0.0 0.0 0.35472155 0.0 0.118293 0.15458347 
0.0 0.0 0.0 0.0 0.0 0.07987971 
0.0 0.0 0.0 0.0 0.0 0.07698792 
0.0 0.0 0.0 0.0 0.0 0.07698792 
0.0 0.0 0.0 0.0 0.0 0.07698792 
0.0 0.0 0.0 0.0 0.0 0.07698792 
0.0 0.0 0.0 0.0 0.0 0.07698792 
0.0 0.0 0.0 0.0 0.0 0.07698792 
0.0 0.0 0.0 0.0 0.0 0.07698792 
0.0 0.0 0.0 0.0 0.0 0.07698792 
0.0 0.0 0.0 0.0 0.0 0.07698792 
0.0 0.0 0.0 0.0 0.0 0.07698792 
0.0 0.0 0.0 0.0 0.0 0.07698792 
0.0 0.0 0.0 0.0 0.0 0.07698792 
0.0 0.0 0.0 0.0 0.0 0.07698792 
0.0 0.0 0.0 0.0 0.0 0.07698792 
0.0 0.0 0.0 0.0 0.0 0.07698792 
0.0 0.0 0.0 0.0 0.0 0.07698792 
0.0 0.0 0.0 0.0 0.0 0.07698792 
0.0 0.0 0.0 0.0 0.0 0.067183174 
0.34285343 0.0 0.0019333586 0.0 0.0 0.09772647 
1.3199234 0.0 0.0 0.005566907 0.0 0.28931245 
1.9941397 0.0 0.0 0.0 0.5170337 0.4102043 
1.5397654 0.8808492 0.0 0.12512346 1.6668943 0.3274215 
0.0 1.6410967 0.0 0.0 2.462094 0.1401442 
0.0 1.5671724 0.6885935 0.10569421 2.0246656 0.17724288 
0.0 0.6321184 1.1871829 0.012343188 1.2964141 0.39988005 
0.0 0.16260341 0.78998166 0.09312935 0.43468887 0.2259842 
0.0 0.0 0.075607546 0.0 0.016693618 0.094800286 
0.0 0.0 0.0 0.0 0.0 0.07698792 
0.0 0.0 0.0 0.0 0.0 0.07698792 
0.0 0.0 0.0 0.0 0.0 0.07698792 
0.0 0.0 0.0 0.0 0.0 0.07698792 
0.0 0.0 0.0 0.0 0.0 0.07698792 
0.0 0.0 0.0 0.0 0.0 0.07698792 
0.0 0.0 0.0 0.0 0.0 0.07698792 
0.0 0.0 0.0 0.0 0.0 0.07698792 
0.0 0.0 0.0 0.0 0.0 0.07698792 
0.0 0.0 0.0 0.0 0.0 0.07698792 
0.0 0.0 0.0 0.0 0.0 0.07698792 
0.0 0.0 0.0 0.0 0.0 0.07698792 
0.0 0.0 0.0 0.0 0.0 0.07698792 
0.0 0.0 0.0 0.0 0.0 0.07698792 
0.0 0.0 0.0 0.0 0.0 0.07698792 
0.0 0.0 0.0 0.0 0.0 0.07698792 
0.0 0.0 0.0 0.0 0.0 0.07698792 
0.0 0.0 0.0 0.0 0.0 0.07698792 
0.07305811 0.0 0.09164097 0.0 0.0 0.00809259 
0.8015094 0.0 0.0 0.0 0.0 0.1328874 
1.7220404 0.0 0.0 0.0 0.00966436 0.36785847 
2.0412753 0.20929727 0.0 0.0 1.0231901 0.3030461 
0.96900207 1.430256 0.0 0.0 2.1247005 0.22417462 
0.0 1.8382223 0.09331406 0.0 2.38895 0.107468784 
0.0 1.2636412 1.1072917 0.0 1.6901021 0.21858755 
0.0 0.41298258 1.0792127 0.0 0.92609864 0.3407721 
0.0 0.028043944 0.55529195 0.08391992 0.16745709 0.1553661 
0.0 0.0 0.0 0.0 0.0 0.07889041 
0.0 0.0 0.0 0.0 0.0 0.07698792 
0.0 0.0 0.0 0.0 0.0 0.07698792 
0.0 0.0 0.0 0.0 0.0 0.07698792 
0.0 0.0 0.0 0.0 0.0 0.07698792 
0.0 0.0 0.0 0.0 0.0 0.07698792 
0.0 0.0 0.0 0.0 0.0 0.07698792 
0.0 0.0 0.0 0.0 0.0 0.07698792 
0.0 0.0 0.0 0.0 0.0 0.07698792 
0.0 0.0 0.0 0.0 0.0 0.07698792 
0.0 0.0 0.0 0.0 0.0 0.07698792 
0.0 0.0 0.0 0.0 0.0 0.07698792 
0.0 0.0 0.0 0.0 0.0 0.07698792 
0.0 0.0 0.0 0.0 0.0 0.07698792 
0.0 0.0 0.0 0.0 0.0 0.07698792 
0.0 0.0 0.0 0.0 0.0 0.07698792 
0.0 0.0 0.0 0.0 0.0 0.07698792 
0.0 0.0 0.0 0.0 0.0 0.07698792 
0.0 0.0 0.0035614632 0.0 0.0 0.048327886 
0.32166523 0.0 0.0648706 0.0 0.0 0.0 
1.3180082 0.0 0.0 0.0 0.0 0.24404988 
2.082984 0.0 0.0 0.0 0.48604622 0.40654844 
1.656354 0.8223736 0.0 0.0 1.5424076 0.26651525 
0.21461645 1.5559373 0.0 0.0 2.501148 0.21595694 
0.0 1.7328787 0.61321396 0.03464792 2.1912763 0.17222273 
0.0 0.8525988 1.1917967 0.0 1.4308082 0.3343526 
0.0 0.18814124 0.8414161 0.0 0.63453895 0.25455272 
0.0 0.0 0.21391499 0.0 0.05532312 0.11186916 
0.0 0.0 0.0 0.0 0.0 0.07698792 
0.0 0.0 0.0 0.0 0.0 0.07698792 
0.0 0.0 0.0 0.0 0.0 0.07698792 
0.0 0.0 0.0 0.0 0.0 0.07698792 
0.0 0.0 0.0 0.0 0.0 0.07698792 
0.0 0.0 0.0 0.0 0.0 0.07698792 
0.0 0.0 0.0 0.0 0.0 0.07698792 
0.0 0.0 0.0 0.0 0.0 0.07698792 
0.0 0.0 0.0 0.0 0.0 0.07698792 
0.0 0.0 0.0 0.0 0.0 0.07698792 
0.0 0.0 0.0 0.0 0.0 0.07698792 
0.0 0.0 0.0 0.0 0.0 0.07698792 
0.0 0.0 0.0 0.0 0.0 0.07698792 
0.0 0.0 0.0 0.0 0.0 0.07698792 
0.0 0.0 0.0 0.0 0.0 0.07698792 
0.0 0.0 0.0 0.0 0.0 0.07698792 
0.0 0.0 0.0 0.0 0.0 0.07698792 
0.0 0.0 0.0 0.0 0.0 0.06492054 
0.12360534 0.0 0.06429235 0.0 0.0 0.0 
0.76946783 0.0 0.0 0.0 0.0 0.04800538 
1.7405005 0.0 0.0 0.0 0.015663568 0.2600423 
2.0280316 0.22041956 0.0 0.0 1.071792 0.31102893 
1.0143926 1.1775105 0.0 0.0 2.195666 0.32258767 
0.0 1.7255144 0.0 0.0 2.526014 0.22940856 
0.0 1.3062785 1.0420269 0.14654034 1.9156522 0.26368698 
0.0 0.49907306 1.1633071 0.09477764 1.1032733 0.392716 
0.0 0.09797148 0.6689171 0.099842876 0.3017845 0.17553353 
0.0 0.0 0.0047209486 0.0 0.0 0.08522677 
0.0 0.0 0.0 0.0 0.0 0.07698792 
0.0 0.0 0.0 0.0 0.0 0.07698792 
0.0 0.0 0.0 0.0 0.0 0.07698792 
0.0 0.0 0.0 0.0 0.0 0.07698792 
0.0 0.0 0.0 0.0 0.0 0.07698792 
0.0 0.0 0.0 0.0 0.0 0.07698792 
0.0 0.0 0.0 0.0 0.0 0.07698792 
0.0 0.0 0.0 0.0 0.0 0.07698792 
0.0 0.0 0.0 0.0 0.0 0.07698792 
0.0 0.0 0.0 0.0 0.0 0.07698792 
0.0 0.0 0.0 0.0 0.0 0.07698792 
0.0 0.0 0.0 0.0 0.0 0.07698792 
0.0 0.0 0.0 0.0 0.0 0.07698792 
0.0 0.0 0.0 0.0 0.0 0.07698792 
0.0 0.0 0.0 0.0 0.0 0.07698792 
0.0 0.0 0.0 0.0 0.0 0.07698792 
0.0 0.0 0.0 0.0 0.0 0.07698792 
0.0007640347 0.0 0.0 0.0 0.0 0.05409703 
0.40988702 0.0 0.05794254 0.0 0.0 0.01711724 
1.2950814 0.0 0.0 0.0 0.0 0.19125918 
1.9600992 0.0 0.0 0.0 0.51799756 0.3463309 
1.5592604 0.84583455 0.0 0.08601619 1.6859407 0.34477258 
0.27576017 1.5338355 0.0 0.07208753 2.5393236 0.41044682 
0.0 1.7170931 0.38124242 0.22289605 2.3044446 0.42568263 
0.0 0.8656779 1.066701 0.13433787 1.506821 0.49745876 
0.0 0.26115662 0.9565263 0.16973986 0.62085956 0.37854603 
0.0 0.0141456565 0.41494498 0.06953587 0.09247568 0.1380159 
0.0 0.0 0.0 0.0 0.0 0.07767282 
0.0 0.0 0.0 0.0 0.0 0.07698792 
0.0 0.0 0.0 0.0 0.0 0.07698792 
0.0 0.0 0.0 0.0 0.0 0.07698792 
0.0 0.0 0.0 0.0 0.0 0.07698792 
0.0 0.0 0.0 0.0 0.0 0.07698792 
0.0 0.0 0.0 0.0 0.0 0.07698792 
0.0 0.0 0.0 0.0 0.0 0.07698792 
0.0 0.0 0.0 0.0 0.0 0.07698792 
0.0 0.0 0.0 0.0 0.0 0.07698792 
0.0 0.0 0.0 0.0 0.0 0.07698792 
0.0 0.0 0.0 0.0 0.0 0.07698792 
0.0 0.0 0.0 0.0 0.0 0.07698792 
0.0 0.0 0.0 0.0 0.0 0.07698792 
0.0 0.0 0.0 0.0 0.0 0.07698792 
0.0 0.0 0.0 0.0 0.0 0.07698792 
0.0 0.0 0.0 0.0 0.0 0.07698792 
0.0 0.0 0.0 0.0 0.0 0.07321686 
0.15196663 0.0 0.045345433 0.0 0.0 0.045490973 
0.84569144 0.0 0.0 0.0 0.0 0.10374199 
1.7462549 0.0 0.0 0.0 0.08996564 0.31495312 
1.9655924 0.3370021 0.0 0.0 1.1184653 0.33911404 
0.914542 1.3139763 0.0 0.0 2.258692 0.3253876 
0.0 1.6656656 0.0 0.0 2.661816 0.38753563 
0.0 1.226256 0.7188461 0.040438365 1.9566683 0.45173657 
0.0 0.37407157 0.84294087 0.0 1.0462192 0.46012944 
0.0 0.06772947 0.57282573 0.054462187 0.28396362 0.2813431 
0.0 0.0 0.1178597 0.0 0.028285418 0.10077622 
0.0 0.0 0.0 0.0 0.0 0.07698792 
0.0 0.0 0.0 0.0 0.0 0.07698792 
0.0 0.0 0.0 0.0 0.0 0.07698792 
0.0 0.0 0.0 0.0 0.0 0.07698792 
0.0 0.0 0.0 0.0 0.0 0.07698792 
0.0 0.0 0.0 0.0 0.0 0.07698792 
0.0 0.0 0.0 0.0 0.0 0.07698792 
0.0 0.0 0.0 0.0 0.0 0.07698792 
0.0 0.0 0.0 0.0 0.0 0.07698792 
0.0 0.0 0.0 0.0 0.0 0.07698792 
0.0 0.0 0.0 0.0 0.0 0.07698792 
0.0 0.0 0.0 0.0 0.0 0.07698792 
0.0 0.0 0.0 0.0 0.0 0.07698792 
0.0 0.0 0.0 0.0 0.0 0.07698792 
0.0 0.0 0.0 0.0 0.0 0.07698792 
0.0 0.0 0.0 0.0 0.0 0.07698792 
0.0 0.0 0.0 0.0 0.0 0.07698792 
0.016637191 0.0 0.04089755 0.0 0.0 0.031228319 
0.4812916 0.0 0.031173661 0.0 0.0 0.01034826 
1.355027 0.0 0.0 0.0 0.0 0.2008219 
1.9679155 0.0 0.0 0.0 0.5857044 0.30805418 
1.4808853 0.8743616 0.0 0.04701337 1.7417704 0.35615355 
0.1378139 1.5608613 0.0 0.0 2.6049335 0.3882733 
0.0 1.5582122 0.3439768 0.089059815 2.2889712 0.45037133 
0.0 0.7184551 0.910652 0.0 1.4195783 0.50357544 
0.0 0.15167223 0.72351724 0.0014060503 0.5773849 0.3417929 
0.0 0.0 0.25915512 0.0 0.09772304 0.15145615 
0.0 0.0 0.0 0.0 0.0 0.08026021 
0.0 0.0 0.0 0.0 0.0 0.07698792 
0.0 0.0 0.0 0.0 0.0 0.07698792 
0.0 0.0 0.0 0.0 0.0 0.07698792 
0.0 0.0 0.0 0.0 0.0 0.07698792 
0.0 0.0 0.0 0.0 0.0 0.07698792 
0.0 0.0 0.0 0.0 0.0 0.07698792 
0.0 0.0 0.0 0.0 0.0 0.07698792 
0.0 0.0 0.0 0.0 0.0 0.07698792 
0.0 0.0 0.0 0.0 0.0 0.07698792 
0.0 0.0 0.0 0.0 0.0 0.07698792 
0.0 0.0 0.0 0.0 0.0 0.07698792 
0.0 0.0 0.0 0.0 0.0 0.07698792 
0.0 0.0 0.0 0.0 0.0 0.07698792 
0.0 0.0 0.0 0.0 0.0 0.07698792 
0.0 0.0 0.0 0.0 0.0 0.07698792 
0.0 0.0 0.0 0.0 0.0 0.07698792 
0.0 0.0 0.0 0.0 0.0 0.07698792 
0.18340799 0.0 0.08350425 0.0 0.0 0.02344469 
1.003813 0.0 0.0 0.0 0.0 0.09577566 
1.808857 0.0 0.0 0.0 0.0980638 0.26104808 
1.8364391 0.50089055 0.0 0.0 1.2366201 0.237135 
0.657265 1.3084811 0.0 0.0 2.4039671 0.35864836 
0.0 1.5895709 0.0 0.044357374 2.544574 0.3921321 
0.0 1.0525998 0.76968855 0.12397091 1.8014934 0.4859367 
0.0 0.30927357 0.90054196 0.09738515 0.87731713 0.45444107 
0.0 0.030907359 0.5225888 0.032695908 0.25574562 0.21020581 
0.0 0.0 0.016924031 0.0 0.00059389323 0.08650038 
0.0 0.0 0.0 0.0 0.0 0.07698792 
0.0 0.0 0.0 0.0 0.0 0.07698792 
0.0 0.0 0.0 0.0 0.0 0.07698792 
0.0 0.0 0.0 0.0 0.0 0.07698792 
0.0 0.0 0.0 0.0 0.0 0.07698792 
0.0 0.0 0.0 0.0 0.0 0.07698792 
0.0 0.0 0.0 0.0 0.0 0.07698792 
0.0 0.0 0.0 0.0 0.0 0.07698792 
0.0 0.0 0.0 0.0 0.0 0.07698792 
0.0 0.0 0.0 0.0 0.0 0.07698792 
0.0 0.0 0.0 0.0 0.0 0.07698792 
0.0 0.0 0.0 0.0 0.0 0.07698792 
0.0 0.0 0.0 0.0 0.0 0.07698792 
0.0 0.0 0.0 0.0 0.0 0.07698792 
0.0 0.0 0.0 0.0 0.0 0.07698792 
0.0 0.0 0.0 0.0 0.0 0.07698792 
0.0 0.0 0.0 0.0 0.0 0.07698792 
0.0 0.0 0.0 0.0 0.0 0.067183174 
0.42889345 0.0 0.0 0.0 0.0 0.16193604 
1.4632156 0.0 0.0 0.069796994 0.0 0.3567038 
2.0504324 0.0 0.0 0.025594074 0.65534264 0.42077523 
1.3613906 1.1293797 0.0 0.16854979 1.8093429 0.28656995 
0.0 1.6540114 0.0 0.0 2.666176 0.27745986 
0.0 1.5363617 0.4928273 0.023336027 2.1030123 0.39579946 
0.0 0.56807995 0.8691889 0.0 1.2858597 0.45269674 
0.0 0.14805527 0.71312386 0.09267193 0.3963368 0.35390925 
0.0 0.0 0.28049248 0.0075120693 0.062597916 0.12047297 
0.0 0.0 0.0 0.0 0.0 0.07698792 
0.0 0.0 0.0 0.0 0.0 0.07698792 
0.0 0.0 0.0 0.0 0.0 0.07698792 
0.0 0.0 0.0 0.0 0.0 0.07698792 
0.0 0.0 0.0 0.0 0.0 0.07698792 
0.0 0.0 0.0 0.0 0.0 0.07698792 
0.0 0.0 0.0 0.0 0.0 0.07698792 
0.0 0.0 0.0 0.0 0.0 0.07698792 
0.0 0.0 0.0 0.0 0.0 0.07698792 
0.0 0.0 0.0 0.0 0.0 0.07698792 
0.0 0.0 0.0 0.0 0.0 0.07698792 
0.0 0.0 0.0 0.0 0.0 0.07698792 
0.0 0.0 0.0 0.0 0.0 0.07698792 
0.0 0.0 0.0 0.0 0.0 0.07698792 
0.0 0.0 0.0 0.0 0.0 0.07698792 
0.0 0.0 0.0 0.0 0.0 0.07698792 
0.0 0.0 0.0 0.0 0.0 0.07698792 
0.0 0.0 0.0 0.0 0.0 0.07698792 
0.016986959 0.0 0.021774411 0.0 0.0 0.040900793 
0.81498575 0.0 0.0 0.023372974 0.0 0.3420839 
1.820324 0.0 0.0 0.050146025 0.13377726 0.59293365 
1.9838095 0.20910801 0.0 0.13482298 1.1525697 0.47533083 
0.80313796 1.4736631 0.0 0.08877063 2.1455534 0.26964766 
0.0 1.799474 0.23863003 0.0 2.4919612 0.15776429 
0.0 1.1294074 0.9448699 0.0 1.7184466 0.33262193 
0.0 0.28186053 0.7875949 0.0 0.8918524 0.31112915 
0.0 0.0 0.31706887 0.0 0.18975829 0.20694745 
0.0 0.0 0.03256038 0.0 0.0 0.08891384 
0.0 0.0 0.0 0.0 0.0 0.07698792 
0.0 0.0 0.0 0.0 0.0 0.07698792 
0.0 0.0 0.0 0.0 0.0 0.07698792 
0.0 0.0 0.0 0.0 0.0 0.07698792 
0.0 0.0 0.0 0.0 0.0 0.07698792 
0.0 0.0 0.0 0.0 0.0 0.07698792 
0.0 0.0 0.0 0.0 0.0 0.07698792 
0.0 0.0 0.0 0.0 0.0 0.07698792 
0.0 0.0 0.0 0.0 0.0 0.07698792 
0.0 0.0 0.0 0.0 0.0 0.07698792 
0.0 0.0 0.0 0.0 0.0 0.07698792 
0.0 0.0 0.0 0.0 0.0 0.07698792 
0.0 0.0 0.0 0.0 0.0 0.07698792 
0.0 0.0 0.0 0.0 0.0 0.07698792 
0.0 0.0 0.0 0.0 0.0 0.07698792 
0.0 0.0 0.0 0.0 0.0 0.07698792 
0.0 0.0 0.0 0.0 0.0 0.07698792 
0.0 0.0 0.0 0.0 0.0 0.07698792 
0.06794228 0.0 0.0 0.0 0.0 0.10887068 
1.1170402 0.0 0.0 0.11775969 0.0 0.6366375 
2.0891912 0.0 0.0 0.08745979 0.5595192 0.91617805 
1.6611564 0.5240382 0.0 0.17600189 1.5229006 0.65255564 
0.20545074 1.5037246 0.0 0.020999849 2.2371616 0.333682 
0.0 1.6599911 0.8913494 0.07187982 2.119179 0.124439776 
0.0 0.75473785 1.2433156 0.0 1.3683597 0.3352121 
0.0 0.16894524 0.80598515 0.0362938 0.53746945 0.20534484 
0.0 0.0 0.08461625 0.0 0.030963134 0.102813825 
0.0 0.0 0.0 0.0 0.0 0.07797722 
0.0 0.0 0.0 0.0 0.0 0.07698792 
0.0 0.0 0.0 0.0 0.0 0.07698792 
0.0 0.0 0.0 0.0 0.0 0.07698792 
0.0 0.0 0.0 0.0 0.0 0.07698792 
0.0 0.0 0.0 0.0 0.0 0.07698792 
0.0 0.0 0.0 0.0 0.0 0.07698792 
0.0 0.0 0.0 0.0 0.0 0.07698792 
0.0 0.0 0.0 0.0 0.0 0.07698792 
0.0 0.0 0.0 0.0 0.0 0.07698792 
0.0 0.0 0.0 0.0 0.0 0.07698792 
0.0 0.0 0.0 0.0 0.0 0.07698792 
0.0 0.0 0.0 0.0 0.0 0.07698792 
0.0 0.0 0.0 0.0 0.0 0.07698792 
0.0 0.0 0.0 0.0 0.0 0.07698792 
0.0 0.0 0.0 0.0 0.0 0.07698792 
0.0 0.0 0.0 0.0 0.0 0.07698792 
0.0 0.0 0.0 0.0 0.0 0.07698792 
0.0 0.0 0.0 0.0 0.0 0.07698792 
0.11759095 0.0 0.0 0.069831505 0.0 0.24151692 
1.0231762 0.0 0.0 0.2452295 0.3239305 0.94320554 
1.6751359 0.0 0.0 0.53185034 1.0745088 1.443358 
1.157717 0.24742258 0.0 0.66793776 1.8688264 1.2904131 
0.0 1.2407705 0.0 0.6877483 2.014006 0.96102613 
0.0 1.0022103 1.0448986 0.4806093 1.6957663 0.57689404 
0.0 0.4055312 1.1575284 0.2140629 0.95831746 0.43781528 
0.0 0.07627625 0.64461404 0.112858266 0.2313144 0.15244421 
0.0 0.0 0.0 0.0 0.0 0.08142178 
0.0 0.0 0.0 0.0 0.0 0.07698792 
0.0 0.0 0.0 0.0 0.0 0.07698792 
0.0 0.0 0.0 0.0 0.0 0.07698792 
0.0 0.0 0.0 0.0 0.0 0.07698792 
0.0 0.0 0.0 0.0 0.0 0.07698792 
0.0 0.0 0.0 0.0 0.0 0.07698792 
0.0 0.0 0.0 0.0 0.0 0.07698792 
0.0 0.0 0.0 0.0 0.0 0.07698792 
0.0 0.0 0.0 0.0 0.0 0.07698792 
0.0 0.0 0.0 0.0 0.0 0.07698792 
0.0 0.0 0.0 0.0 0.0 0.07698792 
0.0 0.0 0.0 0.0 0.0 0.07698792 
0.0 0.0 0.0 0.0 0.0 0.07698792 
0.0 0.0 0.0 0.0 0.0 0.07698792 
0.0 0.0 0.0 0.0 0.0 0.07698792 
0.0 0.0 0.0 0.0 0.0 0.07698792 
0.0 0.0 0.0 0.0 0.0 0.07698792 
0.0 0.0 0.0 0.0 0.0 0.07698792 
0.0 0.0 0.0 0.0 0.0 0.07698792 
0.13221154 0.0 0.0 0.09194336 0.03369316 0.29026085 
0.83506906 0.0 0.0 0.16845152 0.6397264 1.0018551 
1.128411 0.0 0.0 0.35563013 1.2560786 1.437165 
0.5201567 0.13495159 0.0 0.4087313 1.5862954 1.2277236 
0.0 0.5913136 0.0 0.49144158 1.3893774 1.024816 
0.0 0.508476 0.7436339 0.4002308 0.91312426 0.7189203 
0.0 0.23837139 0.8436288 0.20919997 0.41795278 0.3865059 
0.0 0.0 0.32903752 0.030572921 0.07932311 0.12889294 
0.0 0.0 0.0 0.0 0.0 0.07767282 
0.0 0.0 0.0 0.0 0.0 0.07698792 
0.0 0.0 0.0 0.0 0.0 0.07698792 
0.0 0.0 0.0 0.0 0.0 0.07698792 
0.0 0.0 0.0 0.0 0.0 0.07698792 
0.0 0.0 0.0 0.0 0.0 0.07698792 
0.0 0.0 0.0 0.0 0.0 0.07698792 
0.0 0.0 0.0 0.0 0.0 0.07698792 
0.0 0.0 0.0 0.0 0.0 0.07698792 
0.0 0.0 0.0 0.0 0.0 0.07698792 
0.0 0.0 0.0 0.0 0.0 0.07698792 
0.0 0.0 0.0 0.0 0.0 0.07698792 
0.0 0.0 0.0 0.0 0.0 0.07698792 
0.0 0.0 0.0 0.0 0.0 0.07698792 
0.0 0.0 0.0 0.0 0.0 0.07698792 
0.0 0.0 0.0 0.0 0.0 0.07698792 
0.0 0.0 0.0 0.0 0.0 0.07698792 
0.0 0.0 0.0 0.0 0.0 0.07698792 
0.0 0.0 0.0 0.0 0.0 0.07698792 
0.0 0.0 0.0 0.0 0.0 0.07698792 
0.09397642 0.0 0.0 0.0 0.12260252 0.2200037 
0.5374388 0.0 0.0 0.0 0.5633958 0.6884196 
0.7101441 0.0 0.0 0.0 0.98266584 1.0832238 
0.27406323 0.061542526 0.0 0.0 0.9584897 1.0008261 
0.0 0.059551023 0.0 0.0 0.6100519 0.757339 
0.0 0.0 0.19481346 0.0 0.38932416 0.52700305 
0.0 0.0 0.3969129 0.0 0.18841234 0.25559798 
0.0 0.0 0.07421736 0.0 0.008278627 0.094813675 
0.0 0.0 0.0 0.0 0.0 0.07698792 
0.0 0.0 0.0 0.0 0.0 0.07698792 
0.0 0.0 0.0 0.0 0.0 0.07698792 
0.0 0.0 0.0 0.0 0.0 0.07698792 
0.0 0.0 0.0 0.0 0.0 0.07698792 
0.0 0.0 0.0 0.0 0.0 0.07698792 
0.0 0.0 0.0 0.0 0.0 0.07698792 
0.0 0.0 0.0 0.0 0.0 0.07698792 
0.0 0.0 0.0 0.0 0.0 0.07698792 
0.0 0.0 0.0 0.0 0.0 0.07698792 
0.0 0.0 0.0 0.0 0.0 0.07698792 

