0.0 0.0 0.0 0.0 0.0 0.07698792 
0.0 0.0 0.0 0.0 0.0 0.07698792 
0.0 0.0 0.0 0.0 0.0 0.07698792 
0.0 0.0 0.0 0.0 0.0 0.07698792 
0.0 0.0 0.0 0.0 0.0 0.07698792 
0.0 0.0 0.0 0.0 0.0 0.07698792 
0.0 0.0 0.0 0.0 0.0 0.07698792 
0.0 0.0 0.0 0.0 0.0 0.07698792 
0.0 0.0 0.0 0.0 0.0 0.07698792 
0.0 0.0 0.0 0.0 0.0 0.07698792 
0.0 0.0 0.0 0.0 0.0 0.07698792 
0.0 0.0 0.0 0.0 0.0 0.07698792 
0.0 0.0 0.0 0.0 0.0 0.07698792 
0.0 0.0 0.0 0.0 0.0 0.07698792 
0.0 0.0 0.0 0.0 0.0 0.07698792 
0.0 0.0 0.0 0.0 0.0 0.07698792 
0.0 0.0 0.0 0.0 0.0 0.07698792 
0.0 0.0 0.0 0.0 0.0 0.07698792 
0.0 0.0 0.0 0.0 0.0 0.07698792 
0.0 0.0 0.0 0.0 0.0 0.07698792 
0.0 0.0 0.0 0.0 0.0 0.07698792 
0.0 0.0 0.0 0.0 0.0 0.07698792 
0.0 0.0 0.0 0.0 0.0 0.07698792 
0.0 0.0 0.0 0.0 0.0 0.07698792 
0.0 0.0 0.0 0.0 0.0 0.07698792 
0.0 0.0 0.0 0.0 0.0 0.07698792 
0.0 0.0 0.0 0.0 0.0 0.07698792 
0.0 0.0 0.0 0.0 0.0 0.07698792 
0.0 0.0 0.0 0.0 0.0 0.07698792 
0.0 0.0 0.0 0.0 0.0 0.07698792 
0.0 0.0 0.0 0.0 0.0 0.07698792 
0.0 0.0 0.0 0.0 0.0 0.07698792 
0.0 0.0 0.0 0.0 0.0 0.07698792 
0.0 0.0 0.0 0.0 0.0 0.07698792 
0.0 0.0 0.0 0.0 0.0 0.07698792 
0.0 0.0 0.0 0.0 0.0 0.07698792 
0.0 0.0 0.0 0.0 0.0 0.07698792 
0.0 0.0 0.0 0.0 0.0 0.07698792 
0.0 0.0 0.0 0.0 0.0 0.07698792 
0.0 0.0 0.0 0.0 0.0 0.07698792 
0.0 0.0 0.0 0.0 0.0 0.07698792 
0.0 0.0 0.0 0.0 0.0 0.07698792 
0.0 0.0 0.0 0.0 0.0 0.07698792 
0.0 0.0 0.0 0.0 0.0 0.07698792 
0.0 0.0 0.0 0.0 0.0 0.07698792 
0.0 0.0 0.0 0.0 0.0 0.07698792 
0.0 0.0 0.0 0.0 0.0 0.07698792 
0.0 0.0 0.0 0.0 0.0 0.07698792 
0.0 0.0 0.0 0.0 0.0 0.07698792 
0.0 0.0 0.0 0.0 0.0 0.07698792 
0.0 0.0 0.0 0.0 0.0 0.07698792 
0.0 0.0 0.0 0.0 0.0 0.07698792 
0.0 0.0 0.0 0.0 0.0 0.07698792 
0.0 0.0 0.0 0.0 0.0 0.07698792 
0.0 0.0 0.0 0.0 0.0 0.07698792 
0.0 0.0 0.0 0.0 0.0 0.07698792 
0.0 0.0 0.0 0.0 0.0 0.07698792 
0.0 0.0 0.0 0.0 0.0 0.07698792 
0.0 0.0 0.0 0.0 0.0 0.07698792 
0.0 0.0 0.0 0.0 0.0 0.07698792 
0.0 0.0 0.0 0.0 0.0 0.07698792 
0.0 0.0 0.0 0.0 0.0 0.07698792 
0.0 0.0 0.0 0.0 0.0 0.07698792 
0.0 0.0 0.0 0.0 0.0 0.07698792 
0.0 0.0 0.0 0.0 0.0 0.07698792 
0.0 0.0 0.0 0.0 0.0 0.07698792 
0.0 0.0 0.0 0.0 0.0 0.07698792 
0.0 0.0 0.0 0.0 0.0 0.07698792 
0.0 0.0 0.0 0.0 0.0 0.07698792 
0.0 0.0 0.0 0.0 0.0 0.07698792 
0.0 0.0 0.0 0.0 0.0 0.07698792 
0.0 0.0 0.0 0.0 0.0 0.07698792 
0.0 0.0 0.0 0.0 0.0 0.07698792 
0.0 0.0 0.0 0.0 0.0 0.07698792 
0.0 0.0 0.0 0.0 0.0 0.07698792 
0.0 0.0 0.0 0.0 0.0 0.07698792 
0.0 0.0 0.0 0.0 0.0 0.07698792 
0.0 0.0 0.0 0.0 0.0 0.07698792 
0.0 0.0 0.0 0.0 0.0 0.07698792 
0.0 0.0 0.0 0.0 0.0 0.07698792 
0.0 0.0 0.0 0.0 0.0 0.07698792 
0.0 0.0 0.0 0.0 0.0 0.07698792 
0.0 0.0 0.0 0.0 0.0 0.07698792 
0.0 0.0 0.0 0.0 0.0 0.07698792 
0.0 0.0 0.0 0.0 0.0 0.07698792 
0.0 0.0 0.0 0.0 0.0 0.07698792 
0.0 0.0 0.0 0.0 0.0 0.07698792 
0.0 0.0 0.0 0.0 0.0 0.07698792 
0.0 0.0 0.0 0.0 0.0 0.07698792 
0.0 0.0 0.0 0.0 0.0 0.07698792 
0.0 0.0 0.0 0.0 0.0 0.07698792 
0.0 0.0 0.0 0.0 0.0 0.07698792 
0.0 0.0 0.0 0.0 0.0 0.07698792 
0.0 0.0 0.0 0.0 0.0 0.07698792 
0.0 0.0 0.0 0.0 0.0 0.07698792 
0.0 0.0 0.0 0.0 0.0 0.07698792 
0.0 0.0 0.0 0.0 0.0 0.07698792 
0.0 0.0 0.0 0.0 0.0 0.07698792 
0.0 0.0 0.0 0.0 0.0 0.07698792 
0.0 0.0 0.0 0.0 0.0 0.07698792 
0.0 0.0 0.0 0.0 0.0 0.07698792 
0.0 0.0 0.0 0.0 0.0 0.07698792 
0.0 0.0 0.0 0.0 0.0 0.07698792 
0.0 0.0 0.0 0.0 0.0 0.07698792 
0.0 0.0 0.0 0.0 0.0 0.07698792 
0.0 0.0 0.0 0.0 0.0 0.07698792 
0.0 0.0 0.0 0.0 0.0 0.07698792 
0.0 0.0 0.0 0.0 0.0 0.07698792 
0.0 0.0 0.0 0.0 0.0 0.07698792 
0.0 0.0 0.0 0.0 0.0 0.07698792 
0.0 0.0 0.0 0.0 0.0 0.07698792 
0.0 0.0 0.0 0.0 0.0 0.07698792 
0.0 0.0 0.0 0.0 0.0 0.07698792 
0.0 0.0 0.0 0.0 0.0 0.07698792 
0.0 0.0 0.0 0.0 0.0 0.07698792 
0.0 0.0 0.0 0.0 0.0 0.07698792 
0.0 0.0 0.0 0.0 0.0 0.07698792 
0.0 0.0 0.0 0.0 0.0 0.07698792 
0.0 0.0 0.0 0.0 0.0 0.07698792 
0.0 0.0 0.0 0.0 0.0 0.07698792 
0.0 0.0 0.0 0.0 0.0 0.07698792 
0.0 0.0 0.0 0.0 0.0 0.07698792 
0.0 0.0 0.0 0.0 0.0 0.07698792 
0.0 0.0 0.0 0.0 0.0 0.07698792 
0.0 0.0 0.0 0.0 0.0 0.07698792 
0.0 0.0 0.0 0.0 0.0 0.07698792 
0.0 0.0 0.0 0.0 0.0 0.07698792 
0.0 0.0 0.0 0.0 0.0 0.07698792 
0.0 0.0 0.0 0.0 0.0 0.07698792 
0.0 0.0 0.0 0.0 0.0 0.07698792 
0.0 0.0 0.0 0.0 0.0 0.07698792 
0.0 0.0 0.0 0.0 0.0 0.07698792 
0.0 0.0 0.0 0.0 0.0 0.07698792 
0.0 0.0 0.0 0.0 0.0 0.07698792 
0.0 0.0 0.0 0.0 0.0 0.07698792 
0.0 0.0 0.0 0.0 0.0 0.07698792 
0.0 0.0 0.0 0.0 0.0 0.07698792 
0.0 0.0 0.0 0.0 0.0 0.07698792 
0.0 0.0 0.0 0.0 0.0 0.07698792 
0.0 0.0 0.0 0.0 0.0 0.07698792 
0.0 0.0 0.0 0.0 0.0 0.07698792 
0.0 0.0 0.0 0.0 0.0 0.07698792 
0.0 0.0 0.0 0.0 0.0 0.07698792 
0.0 0.0 0.0 0.0 0.0 0.07698792 
0.0 0.0 0.0 0.0 0.0 0.07698792 
0.0 0.0 0.0 0.0 0.0 0.07698792 
0.005864963 0.0 0.03969934 0.0 0.0 0.03135813 
0.19733736 0.009904689 0.16782862 0.0 0.0 0.0 
0.25687066 0.17862934 0.20974508 0.0 0.0 0.0 
0.20131105 0.3015192 0.30213183 0.0 0.0 0.0 
0.19669676 0.4193739 0.35612357 0.0 0.0 0.0 
0.1721177 0.41933534 0.33665514 0.0 0.0 0.0 
0.18259302 0.38342375 0.32481694 0.0 0.0 0.0 
0.18259302 0.38342375 0.32481694 0.0 0.0 0.0 
0.21675134 0.36667013 0.36737934 0.0 0.0 0.0 
0.30046493 0.39145744 0.4233096 0.0 0.0 0.0 
0.32631248 0.46517614 0.44160312 0.0 0.0 0.0 
0.18085507 0.5783078 0.3309998 0.0 0.0 0.0 
0.0 0.5048053 0.2501459 0.0 0.023060221 0.0 
0.0 0.36006436 0.14243743 0.0 0.083849385 0.0 
0.0 0.15366915 0.0077651516 0.0 0.06628519 0.0 
0.0 0.013620245 0.0 0.0 0.0 0.056665406 
0.0 0.0 0.0 0.0 0.0 0.07698792 
0.0 0.0 0.0 0.0 0.0 0.07698792 
0.0 0.0 0.0 0.0 0.0 0.07698792 
0.0 0.0 0.0 0.0 0.0 0.07698792 
0.0 0.0 0.0 0.0 0.0 0.07698792 
0.0 0.0 0.0 0.0 0.0 0.07698792 
0.0 0.0 0.0 0.0 0.0 0.07698792 
0.0 0.0 0.0 0.0 0.0 0.07698792 
0.0 0.0 0.0 0.0 0.0 0.07698792 
0.0 0.0 0.0 0.0 0.0 0.07698792 
0.0 0.0 0.0 0.0 0.0 0.07698792 
0.0 0.0 0.0 0.0 0.0 0.07698792 
0.08162013 0.0 0.0 0.0 0.0 0.061728284 
0.50283366 0.0 0.15031362 0.0 0.0 0.0 
0.80838543 0.12508918 0.3464489 0.0 0.0 0.0 
0.71058875 0.63633233 0.6345054 0.0 0.0 0.0 
0.40701228 0.9213152 0.9389026 0.0 0.0 0.0 
0.3033081 0.8852566 0.92896736 0.0 0.13532615 0.0 
0.39058825 0.8875304 0.8931793 0.0 0.04190773 0.0 
0.39058825 0.8875304 0.8931793 0.0 0.04190773 0.0 
0.42377028 0.8490388 0.8697361 0.0 0.0 0.0 
0.515217 0.8038067 0.8743572 0.0 0.0 0.0 
0.5900021 0.86734754 0.91382504 0.0 0.0 0.0 
0.3385656 1.1869671 0.9579046 0.0 0.29829946 0.0 
0.0 1.2455832 0.8297525 0.0 0.5950779 0.0 
0.0 0.8441805 0.6651661 0.0 0.6265474 0.0 
0.0 0.29779354 0.24344158 0.0 0.4419125 0.0 
0.0 0.057685263 0.0 0.0 0.063783064 0.00042648613 
0.0 0.0 0.0 0.0 0.0 0.07698792 
0.0 0.0 0.0 0.0 0.0 0.07698792 
0.0 0.0 0.0 0.0 0.0 0.07698792 
0.0 0.0 0.0 0.0 0.0 0.07698792 
0.0 0.0 0.0 0.0 0.0 0.07698792 
0.0 0.0 0.0 0.0 0.0 0.07698792 
0.0 0.0 0.0 0.0 0.0 0.07698792 
0.0 0.0 0.0 0.0 0.0 0.07698792 
0.0 0.0 0.0 0.0 0.0 0.07698792 
0.0 0.0 0.0 0.0 0.0 0.07698792 
0.0 0.0 0.0 0.0 0.0 0.07698792 
0.0 0.0 0.0 0.0 0.0 0.07698792 
0.15787907 0.0 0.0 0.04165529 0.0 0.22223929 
0.68286157 0.0 0.0 0.18244815 0.0 0.3423776 
1.0468631 0.0 0.03664852 0.34753096 0.0 0.033537623 
0.9878847 0.33739558 0.56752443 0.42109063 0.16971797 0.0 
0.658223 0.93309414 1.2866858 0.2577156 0.5319901 0.0 
0.45721656 1.1277535 1.4951509 0.0 0.7759542 0.0 
0.45710683 1.1302446 1.4235287 0.0 0.7949232 0.0 
0.46358842 1.1358032 1.4365557 0.0 0.80683535 0.0 
0.5375691 1.0592512 1.3947814 0.0 0.8128411 0.0 
0.62557715 0.9903774 1.3529062 0.0 0.8446135 0.0 
0.6079138 1.0557889 1.3758496 0.0 0.927998 0.0 
0.15680656 1.5351248 1.559462 0.013675035 1.1729807 0.0 
0.0 1.7653663 1.6351908 0.0 1.3639463 0.0 
0.0 1.4469506 1.47727 0.0 1.127827 0.0 
0.0 0.6924339 0.79926187 0.0 0.7065234 0.0 
0.0 0.09330407 0.0946332 0.0 0.20355393 0.0 
0.0 0.0 0.0 0.0 0.0 0.07698792 
0.0 0.0 0.0 0.0 0.0 0.07698792 
0.0 0.0 0.0 0.0 0.0 0.07698792 
0.0 0.0 0.0 0.0 0.0 0.07698792 
0.0 0.0 0.0 0.0 0.0 0.07698792 
0.0 0.0 0.0 0.0 0.0 0.07698792 
0.0 0.0 0.0 0.0 0.0 0.07698792 
0.0 0.0 0.0 0.0 0.0 0.07698792 
0.0 0.0 0.0 0.0 0.0 0.07698792 
0.0 0.0 0.0 0.0 0.0 0.07698792 
0.0 0.0 0.0 0.0 0.0 0.07698792 
0.0 0.0 0.0 0.0 0.0 0.07698792 
0.20012593 0.0 0.0 0.1465219 0.0 0.3523336 
0.72293615 0.0 0.0 0.43784413 0.16354938 0.8652174 
0.9311505 0.0 0.0 0.8049458 0.45773295 1.0433793 
0.8890353 0.13212502 0.0 1.3073183 0.7844965 1.0798628 
0.66104263 0.68659025 0.4019242 1.745746 1.1640207 1.1236627 
0.33093208 1.0533371 0.9398025 1.8812575 1.4844396 0.9952849 
0.2160595 1.0725257 0.9195268 1.7906386 1.6215549 0.9301253 
0.16258632 1.0407228 0.93148834 1.7655023 1.6535558 0.92840505 
0.35393792 0.9586747 1.0051142 1.7406253 1.5640742 0.9384884 
0.69720405 1.097108 1.0188212 1.6298227 1.4796195 0.8541494 
0.74090016 1.3762866 1.0389473 1.3628027 1.5007781 0.6069778 
0.14539854 1.9490974 1.3568858 0.9628033 1.6514952 0.0 
0.0 2.2248151 1.9069695 0.65223867 1.6772949 0.0 
0.0 1.7732533 2.0455267 0.42569405 1.3662171 0.0 
0.0 0.9139582 1.348942 0.16906741 0.8469263 0.0 
0.0 0.16652137 0.28157172 0.0059309388 0.2201599 0.008604653 
0.0 0.0 0.0 0.0 0.0 0.07698792 
0.0 0.0 0.0 0.0 0.0 0.07698792 
0.0 0.0 0.0 0.0 0.0 0.07698792 
0.0 0.0 0.0 0.0 0.0 0.07698792 
0.0 0.0 0.0 0.0 0.0 0.07698792 
0.0 0.0 0.0 0.0 0.0 0.07698792 
0.0 0.0 0.0 0.0 0.0 0.07698792 
0.0 0.0 0.0 0.0 0.0 0.07698792 
0.0 0.0 0.0 0.0 0.0 0.07698792 
0.0 0.0 0.0 0.0 0.0 0.07698792 
0.0 0.0 0.0 0.0 0.0 0.07698792 
0.0 0.0 0.0 0.0 0.0 0.07698792 
0.19354677 0.0 0.0 0.00682564 0.16218854 0.32581043 
0.7298292 0.0 0.0 0.05805684 0.64736557 0.9163061 
0.92483974 0.0 0.0 0.17815058 1.035027 1.3412173 
0.8421102 0.0 0.0 0.4131686 1.4013606 1.6185653 
0.6012162 0.02429657 0.0 0.83366066 1.791169 1.8509512 
0.31669948 0.29046404 0.0 1.1951919 2.0125725 1.856462 
0.27709702 0.45539874 0.0 1.3262589 2.0647366 1.8606081 
0.29121384 0.46031117 0.0 1.3359882 2.0658398 1.8805435 
0.61896026 0.21425086 0.0 1.1908835 1.85739 1.8539093 
1.1968429 0.21608524 0.0 0.9847783 1.7497808 1.6712711 
1.3349032 0.5643642 0.0 0.73075396 1.9222525 1.3333924 
0.45414346 1.5536449 0.12433425 0.58147573 2.0777054 0.6056505 
0.0 1.8870835 1.098027 0.28765807 2.150241 0.032616287 
0.0 1.3718174 1.7539037 0.30748928 1.6504031 0.113960594 
0.0 0.57824886 1.3970801 0.24623287 0.87275416 0.15096444 
0.0 0.16952339 0.400563 0.14211999 0.12859811 0.08450581 
0.0 0.0 0.0 0.0 0.0 0.07698792 
0.0 0.0 0.0 0.0 0.0 0.07698792 
0.0 0.0 0.0 0.0 0.0 0.07698792 
0.0 0.0 0.0 0.0 0.0 0.07698792 
0.0 0.0 0.0 0.0 0.0 0.07698792 
0.0 0.0 0.0 0.0 0.0 0.07698792 
0.0 0.0 0.0 0.0 0.0 0.07698792 
0.0 0.0 0.0 0.0 0.0 0.07698792 
0.0 0.0 0.0 0.0 0.0 0.07698792 
0.0 0.0 0.0 0.0 0.0 0.07698792 
0.0 0.0 0.0 0.0 0.0 0.07698792 
0.0 0.0 0.0 0.0 0.0 0.07698792 
0.07098107 0.0 0.0 0.0 0.12399195 0.18899333 
0.4055733 0.0 0.0 0.0 0.501988 0.50929654 
0.630529 0.0 0.0 0.0 0.8493059 0.8744865 
0.65639967 0.0 0.0 0.0 1.1477255 1.2250688 
0.54550993 0.0 0.0 0.0 1.3948339 1.516459 
0.3573036 0.0 0.0 0.0 1.5059243 1.6247807 
0.28075266 0.0 0.0 0.0 1.5108955 1.650296 
0.37489697 0.0 0.0 0.0 1.4251175 1.6159122 
0.93716615 0.0 0.0 0.0 1.1472147 1.6466832 
1.5552027 0.0 0.0 0.0 1.1530595 1.5133054 
1.5565686 0.23802789 0.0 0.0 1.7136023 1.0442584 
0.27212083 1.4036752 0.0 0.0 2.2471988 0.49943966 
0.0 1.6242766 0.7678067 0.0 2.2367964 0.14438188 
0.0 1.0043133 1.3662003 0.08914264 1.5110327 0.29297042 
0.0 0.33962142 1.0713562 0.15531328 0.64286095 0.25226653 
0.0 0.049266633 0.3143915 0.08418966 0.04976588 0.11402231 
0.0 0.0 0.0 0.0 0.0 0.07698792 
0.0 0.0 0.0 0.0 0.0 0.07698792 
0.0 0.0 0.0 0.0 0.0 0.07698792 
0.0 0.0 0.0 0.0 0.0 0.07698792 
0.0 0.0 0.0 0.0 0.0 0.07698792 
0.0 0.0 0.0 0.0 0.0 0.07698792 
0.0 0.0 0.0 0.0 0.0 0.07698792 
0.0 0.0 0.0 0.0 0.0 0.07698792 
0.0 0.0 0.0 0.0 0.0 0.07698792 
0.0 0.0 0.0 0.0 0.0 0.07698792 
0.0 0.0 0.0 0.0 0.0 0.07698792 
0.0 0.0 0.0 0.0 0.0 0.07698792 
0.0 0.0 0.0 0.0 0.0 0.09679196 
0.07560304 0.0 0.0 0.0 0.16578043 0.17892268 
0.223396 0.0 0.0 0.0 0.4022974 0.2949391 
0.30315354 0.0 0.0 0.0 0.6156334 0.39989093 
0.29050338 0.0 0.0 0.0 0.7795549 0.49627784 
0.2028827 0.0 0.0 0.0 0.8752468 0.5474029 
0.15833953 0.0 0.0 0.0 0.90502834 0.55676156 
0.40896946 0.0 0.0 0.0 0.68872994 0.5092523 
1.3012764 0.0 0.0 0.0 0.5787704 0.71205026 
1.944638 0.0 0.0 0.0 0.9607174 0.7726649 
1.4304409 0.40126264 0.0 0.0 1.8463165 0.41552326 
0.0 1.358686 0.0 0.0 2.449979 0.19724591 
0.0 1.4435718 0.81591165 0.0 2.0328393 0.15088338 
0.0 0.6736044 1.1447543 0.0 1.2468321 0.31295976 
0.0 0.122053385 0.7142566 0.02870072 0.40953854 0.21620919 
0.0 0.0 0.112070166 0.0 0.007849019 0.10045008 
0.0 0.0 0.0 0.0 0.0 0.07698792 
0.0 0.0 0.0 0.0 0.0 0.07698792 
0.0 0.0 0.0 0.0 0.0 0.07698792 
0.0 0.0 0.0 0.0 0.0 0.07698792 
0.0 0.0 0.0 0.0 0.0 0.07698792 
0.0 0.0 0.0 0.0 0.0 0.07698792 
0.0 0.0 0.0 0.0 0.0 0.07698792 
0.0 0.0 0.0 0.0 0.0 0.07698792 
0.0 0.0 0.0 0.0 0.0 0.07698792 
0.0 0.0 0.0 0.0 0.0 0.07698792 
0.0 0.0 0.0 0.0 0.0 0.07698792 
0.0 0.0 0.0 0.0 0.0 0.07698792 
0.0 0.0 0.0 0.0 0.0 0.07698792 
0.0 0.0 0.0 0.0 0.0 0.07698792 
0.0 0.0 0.0 0.0 0.0 0.07884455 
0.0 0.0 0.0 0.0 0.0 0.08118716 
0.0 0.0 0.0 0.0 0.0 0.08206416 
0.0 0.0 0.0 0.0 0.0 0.083923556 
0.07245369 0.0 0.06204632 0.0 0.0 0.020366766 
0.63520616 0.0 0.006134309 0.0 0.0 0.0 
1.5661013 0.0 0.0 0.0 0.0 0.2238168 
2.057778 0.052766968 0.0 0.0 0.8726199 0.3000688 
0.9986766 1.23089 0.0 0.0 1.9628817 0.10327977 
0.0 1.684253 0.0 0.0 2.2697866 0.022510022 
0.0 1.2540846 1.1373397 0.013175023 1.7297541 0.20122755 
0.0 0.4066025 1.0618174 0.0 0.98149496 0.27900866 
0.0 0.0 0.43166876 0.007925847 0.2126887 0.14539334 
0.0 0.0 0.0 0.0 0.0 0.081249505 
0.0 0.0 0.0 0.0 0.0 0.07698792 
0.0 0.0 0.0 0.0 0.0 0.07698792 
0.0 0.0 0.0 0.0 0.0 0.07698792 
0.0 0.0 0.0 0.0 0.0 0.07698792 
0.0 0.0 0.0 0.0 0.0 0.07698792 
0.0 0.0 0.0 0.0 0.0 0.07698792 
0.0 0.0 0.0 0.0 0.0 0.07698792 
0.0 0.0 0.0 0.0 0.0 0.07698792 
0.0 0.0 0.0 0.0 0.0 0.07698792 
0.0 0.0 0.0 0.0 0.0 0.07698792 
0.0 0.0 0.0 0.0 0.0 0.07698792 
0.0 0.0 0.0 0.0 0.0 0.07698792 
0.0 0.0 0.0 0.0 0.0 0.07698792 
0.0 0.0 0.0 0.0 0.0 0.07698792 
0.0 0.0 0.0 0.0 0.0 0.07698792 
0.0 0.0 0.0 0.0 0.0 0.07698792 
0.0 0.0 0.0 0.0 0.0 0.07698792 
0.0 0.0 0.0 0.0 0.0 0.05247605 
0.30078343 0.0 0.054832235 0.0 0.0 0.0 
1.140449 0.0 0.0 0.0 0.0 0.1240616 
1.9267132 0.0 0.0 0.0 0.33113274 0.30564633 
1.6713622 0.72671574 0.0 0.03921143 1.4873623 0.3297842 
0.19845158 1.5152774 0.0 0.0 2.346236 0.19928479 
0.0 1.6674062 0.5081466 0.19036248 2.1114597 0.21823421 
0.0 0.8649031 1.2928177 0.16639464 1.4283464 0.40880203 
0.0 0.25348622 0.97948146 0.15993118 0.5872219 0.2592375 
0.0 0.0 0.23213223 0.034468368 0.04043835 0.10754126 
0.0 0.0 0.0 0.0 0.0 0.07698792 
0.0 0.0 0.0 0.0 0.0 0.07698792 
0.0 0.0 0.0 0.0 0.0 0.07698792 
0.0 0.0 0.0 0.0 0.0 0.07698792 
0.0 0.0 0.0 0.0 0.0 0.07698792 
0.0 0.0 0.0 0.0 0.0 0.07698792 
0.0 0.0 0.0 0.0 0.0 0.07698792 
0.0 0.0 0.0 0.0 0.0 0.07698792 
0.0 0.0 0.0 0.0 0.0 0.07698792 
0.0 0.0 0.0 0.0 0.0 0.07698792 
0.0 0.0 0.0 0.0 0.0 0.07698792 
0.0 0.0 0.0 0.0 0.0 0.07698792 
0.0 0.0 0.0 0.0 0.0 0.07698792 
0.0 0.0 0.0 0.0 0.0 0.07698792 
0.0 0.0 0.0 0.0 0.0 0.07698792 
0.0 0.0 0.0 0.0 0.0 0.07698792 
0.0 0.0 0.0 0.0 0.0 0.07698792 
0.0 0.0 0.0 0.0 0.0 0.07698792 
0.12003243 0.0 0.10249757 0.0 0.0 0.004682623 
0.8032655 0.0 0.005197592 0.0 0.0 0.015120205 
1.6280911 0.0 0.0 0.0 0.0 0.16087008 
1.9018948 0.27331296 0.0 0.0 1.0292068 0.2033123 
0.8981011 1.1851355 0.0 0.05353385 2.240043 0.37963983 
0.0 1.6553974 0.0 0.13807768 2.5040169 0.39412904 
0.0 1.190727 0.75094163 0.21017584 1.8649334 0.50757545 
0.0 0.41240153 1.0322816 0.18194166 0.9717893 0.5000986 
0.0 0.103517175 0.67585695 0.1194801 0.2629939 0.22149892 
0.0 0.0 0.05679106 0.0 0.0 0.09274477 
0.0 0.0 0.0 0.0 0.0 0.07698792 
0.0 0.0 0.0 0.0 0.0 0.07698792 
0.0 0.0 0.0 0.0 0.0 0.07698792 
0.0 0.0 0.0 0.0 0.0 0.07698792 
0.0 0.0 0.0 0.0 0.0 0.07698792 
0.0 0.0 0.0 0.0 0.0 0.07698792 
0.0 0.0 0.0 0.0 0.0 0.07698792 
0.0 0.0 0.0 0.0 0.0 0.07698792 
0.0 0.0 0.0 0.0 0.0 0.07698792 
0.0 0.0 0.0 0.0 0.0 0.07698792 
0.0 0.0 0.0 0.0 0.0 0.07698792 
0.0 0.0 0.0 0.0 0.0 0.07698792 
0.0 0.0 0.0 0.0 0.0 0.07698792 
0.0 0.0 0.0 0.0 0.0 0.07698792 
0.0 0.0 0.0 0.0 0.0 0.07698792 
0.0 0.0 0.0 0.0 0.0 0.07698792 
0.0 0.0 0.0 0.0 0.0 0.07698792 
0.0 0.0 0.0011522733 0.0 0.0 0.049459204 
0.38480085 0.0 0.021795735 0.0 0.0 0.026572626 
1.3155615 0.0 0.0 0.0 0.0 0.20137867 
1.9416769 0.0 0.0 0.0 0.49784246 0.3483812 
1.3649716 0.97441536 0.0 0.16460463 1.7395217 0.35120422 
0.05032985 1.5256195 0.0 0.030172065 2.625017 0.4233672 
0.0 1.4852394 0.28075683 0.1812778 2.2133143 0.5716952 
0.0 0.5799611 0.74966604 0.044289343 1.3395299 0.56726855 
0.0 0.16867699 0.7114725 0.09130931 0.4567853 0.4000502 
0.0 0.0 0.31790352 0.0 0.105131775 0.15046585 
0.0 0.0 0.0 0.0 0.0 0.07972751 
0.0 0.0 0.0 0.0 0.0 0.07698792 
0.0 0.0 0.0 0.0 0.0 0.07698792 
0.0 0.0 0.0 0.0 0.0 0.07698792 
0.0 0.0 0.0 0.0 0.0 0.07698792 
0.0 0.0 0.0 0.0 0.0 0.07698792 
0.0 0.0 0.0 0.0 0.0 0.07698792 
0.0 0.0 0.0 0.0 0.0 0.07698792 
0.0 0.0 0.0 0.0 0.0 0.07698792 
0.0 0.0 0.0 0.0 0.0 0.07698792 
0.0 0.0 0.0 0.0 0.0 0.07698792 
0.0 0.0 0.0 0.0 0.0 0.07698792 
0.0 0.0 0.0 0.0 0.0 0.07698792 
0.0 0.0 0.0 0.0 0.0 0.07698792 
0.0 0.0 0.0 0.0 0.0 0.07698792 
0.0 0.0 0.0 0.0 0.0 0.07698792 
0.0 0.0 0.0 0.0 0.0 0.07698792 
0.0 0.0 0.0 0.0 0.0 0.074725285 
0.10939486 0.0 0.07398636 0.0 0.0 0.012695119 
0.86965543 0.0 0.0 0.0 0.0 0.1386291 
1.7646129 0.0 0.0 0.0 0.04772741 0.3171683 
1.8786926 0.37136278 0.0 0.035490084 1.2312124 0.27727968 
0.60839355 1.4446236 0.0 0.0 2.288769 0.25276572 
0.0 1.6119962 0.0 0.0 2.5094297 0.3506086 
0.0 0.95378023 0.66098666 0.0 1.6996149 0.5260835 
0.0 0.23569182 0.692707 0.0 0.7491917 0.41868827 
0.0 0.0 0.35925373 0.0 0.20605461 0.23785071 
0.0 0.0 0.053886324 0.0 0.010425452 0.09173622 
0.0 0.0 0.0 0.0 0.0 0.07698792 
0.0 0.0 0.0 0.0 0.0 0.07698792 
0.0 0.0 0.0 0.0 0.0 0.07698792 
0.0 0.0 0.0 0.0 0.0 0.07698792 
0.0 0.0 0.0 0.0 0.0 0.07698792 
0.0 0.0 0.0 0.0 0.0 0.07698792 
0.0 0.0 0.0 0.0 0.0 0.07698792 
0.0 0.0 0.0 0.0 0.0 0.07698792 
0.0 0.0 0.0 0.0 0.0 0.07698792 
0.0 0.0 0.0 0.0 0.0 0.07698792 
0.0 0.0 0.0 0.0 0.0 0.07698792 
0.0 0.0 0.0 0.0 0.0 0.07698792 
0.0 0.0 0.0 0.0 0.0 0.07698792 
0.0 0.0 0.0 0.0 0.0 0.07698792 
0.0 0.0 0.0 0.0 0.0 0.07698792 
0.0 0.0 0.0 0.0 0.0 0.07698792 
0.0 0.0 0.0 0.0 0.0 0.07698792 
0.0 0.0 0.011347346 0.0 0.0 0.04493147 
0.39822713 0.0 0.042437315 0.0 0.0 0.007855773 
1.3777115 0.0 0.0 0.0 0.0 0.2593531 
1.9825265 0.0 0.0 0.0 0.62563026 0.4400437 
1.2731028 1.0391377 0.0 0.10377942 1.7741324 0.33728278 
0.0 1.5750856 0.0 0.0 2.495322 0.33404812 
0.0 1.4413115 0.63861734 0.10568069 1.9776069 0.4276037 
0.0 0.4356239 0.88495314 0.0 1.1624596 0.44138947 
0.0 0.050668906 0.57711333 0.0 0.39077854 0.27083844 
0.0 0.0 0.091341145 0.0 0.048795965 0.106919385 
0.0 0.0 0.0 0.0 0.0 0.07820552 
0.0 0.0 0.0 0.0 0.0 0.07698792 
0.0 0.0 0.0 0.0 0.0 0.07698792 
0.0 0.0 0.0 0.0 0.0 0.07698792 
0.0 0.0 0.0 0.0 0.0 0.07698792 
0.0 0.0 0.0 0.0 0.0 0.07698792 
0.0 0.0 0.0 0.0 0.0 0.07698792 
0.0 0.0 0.0 0.0 0.0 0.07698792 
0.0 0.0 0.0 0.0 0.0 0.07698792 
0.0 0.0 0.0 0.0 0.0 0.07698792 
0.0 0.0 0.0 0.0 0.0 0.07698792 
0.0 0.0 0.0 0.0 0.0 0.07698792 
0.0 0.0 0.0 0.0 0.0 0.07698792 
0.0 0.0 0.0 0.0 0.0 0.07698792 
0.0 0.0 0.0 0.0 0.0 0.07698792 
0.0 0.0 0.0 0.0 0.0 0.07698792 
0.0 0.0 0.0 0.0 0.0 0.07698792 
0.0 0.0 0.0 0.0 0.0 0.060772374 
0.19304025 0.0 0.11230906 0.0 0.0 0.0 
0.90982467 0.0 0.0 0.0 0.0 0.017140567 
1.8059964 0.0 0.0 0.0 0.12643862 0.24183245 
1.8624678 0.47620398 0.0 0.0 1.328242 0.27083406 
0.49100828 1.3642312 0.0 0.0 2.3379729 0.21721777 
0.0 1.5747709 0.0668651 0.030415818 2.2823584 0.26520154 
0.0 0.80542403 0.9792261 0.029661309 1.5719234 0.43756312 
0.0 0.26601306 0.890808 0.1143022 0.6622723 0.37409362 
0.0 0.0 0.36514336 0.0055747936 0.12848546 0.13969076 
0.0 0.0 0.0 0.0 0.0 0.0798379 
0.0 0.0 0.0 0.0 0.0 0.07698792 
0.0 0.0 0.0 0.0 0.0 0.07698792 
0.0 0.0 0.0 0.0 0.0 0.07698792 
0.0 0.0 0.0 0.0 0.0 0.07698792 
0.0 0.0 0.0 0.0 0.0 0.07698792 
0.0 0.0 0.0 0.0 0.0 0.07698792 
0.0 0.0 0.0 0.0 0.0 0.07698792 
0.0 0.0 0.0 0.0 0.0 0.07698792 
0.0 0.0 0.0 0.0 0.0 0.07698792 
0.0 0.0 0.0 0.0 0.0 0.07698792 
0.0 0.0 0.0 0.0 0.0 0.07698792 
0.0 0.0 0.0 0.0 0.0 0.07698792 
0.0 0.0 0.0 0.0 0.0 0.07698792 
0.0 0.0 0.0 0.0 0.0 0.07698792 
0.0 0.0 0.0 0.0 0.0 0.07698792 
0.0 0.0 0.0 0.0 0.0 0.07698792 
0.0 0.0 0.0 0.0 0.0 0.07698792 
0.0 0.0 0.0 0.0 0.0 0.06779402 
0.4563325 0.0 0.010185637 0.0 0.0 0.08807307 
1.4525559 0.0 0.0 0.008087096 0.0 0.27991855 
1.9646161 0.0 0.0 0.0 0.6898483 0.4083005 
1.1600149 1.1239696 0.0 0.106397554 1.8753802 0.27219716 
0.0 1.6465832 0.0 0.0 2.455831 0.2519929 
0.0 1.4030776 0.6786063 0.06811705 1.8749305 0.41894066 
0.0 0.45891005 0.959929 0.0006761821 1.0724441 0.44775018 
0.0 0.07542134 0.63431865 0.0751599 0.28416508 0.2579195 
0.0 0.0 0.10616804 0.0 0.0072723366 0.10251808 
0.0 0.0 0.0 0.0 0.0 0.07729232 
0.0 0.0 0.0 0.0 0.0 0.07698792 
0.0 0.0 0.0 0.0 0.0 0.07698792 
0.0 0.0 0.0 0.0 0.0 0.07698792 
0.0 0.0 0.0 0.0 0.0 0.07698792 
0.0 0.0 0.0 0.0 0.0 0.07698792 
0.0 0.0 0.0 0.0 0.0 0.07698792 
0.0 0.0 0.0 0.0 0.0 0.07698792 
0.0 0.0 0.0 0.0 0.0 0.07698792 
0.0 0.0 0.0 0.0 0.0 0.07698792 
0.0 0.0 0.0 0.0 0.0 0.07698792 
0.0 0.0 0.0 0.0 0.0 0.07698792 
0.0 0.0 0.0 0.0 0.0 0.07698792 
0.0 0.0 0.0 0.0 0.0 0.07698792 
0.0 0.0 0.0 0.0 0.0 0.07698792 
0.0 0.0 0.0 0.0 0.0 0.07698792 
0.0 0.0 0.0 0.0 0.0 0.07698792 
0.0 0.0 0.0 0.0 0.0 0.07698792 
0.07557501 0.0 0.0 0.0 0.0 0.09618552 
0.8164745 0.0 0.0 0.050610762 0.0 0.31191534 
1.7893987 0.0 0.0 0.123312265 0.1612083 0.52020085 
1.8037403 0.35897374 0.0 0.234081 1.336096 0.5009315 
0.4628843 1.4290581 0.0 0.11604838 2.2443578 0.29272175 
0.0 1.6159636 0.21761325 0.03659844 2.289839 0.2383408 
0.0 0.8045676 0.9166464 0.0 1.5378963 0.45416468 
0.0 0.18382668 0.7638813 0.027486399 0.6466461 0.34765288 
0.0 0.0 0.25782236 0.0 0.1278908 0.15302534 
0.0 0.0 0.0 0.0 0.0 0.081325606 
0.0 0.0 0.0 0.0 0.0 0.07698792 
0.0 0.0 0.0 0.0 0.0 0.07698792 
0.0 0.0 0.0 0.0 0.0 0.07698792 
0.0 0.0 0.0 0.0 0.0 0.07698792 
0.0 0.0 0.0 0.0 0.0 0.07698792 
0.0 0.0 0.0 0.0 0.0 0.07698792 
0.0 0.0 0.0 0.0 0.0 0.07698792 
0.0 0.0 0.0 0.0 0.0 0.07698792 
0.0 0.0 0.0 0.0 0.0 0.07698792 
0.0 0.0 0.0 0.0 0.0 0.07698792 
0.0 0.0 0.0 0.0 0.0 0.07698792 
0.0 0.0 0.0 0.0 0.0 0.07698792 
0.0 0.0 0.0 0.0 0.0 0.07698792 
0.0 0.0 0.0 0.0 0.0 0.07698792 
0.0 0.0 0.0 0.0 0.0 0.07698792 
0.0 0.0 0.0 0.0 0.0 0.07698792 
0.0 0.0 0.0 0.0 0.0 0.07698792 
0.0 0.0 0.0 0.0 0.0 0.06378922 
0.27652055 0.0 0.024857119 0.0 0.0 0.083209604 
1.2832975 0.0 0.0 0.0 0.0 0.44224256 
1.9807847 0.0 0.0 0.0 0.59020424 0.6504327 
1.4069767 0.89990467 0.0 0.04454669 1.6846185 0.37020624 
0.0 1.6864922 0.0 0.0 2.2052495 0.2321313 
0.0 1.44795 0.8993478 0.05810931 1.8536124 0.2819633 
0.0 0.44879496 1.0304896 0.0 1.0957044 0.3948409 
0.0 0.07562824 0.6264893 0.091148965 0.25039783 0.22601673 
0.0 0.0 0.049915597 0.0 0.0 0.09161079 
0.0 0.0 0.0 0.0 0.0 0.07698792 
0.0 0.0 0.0 0.0 0.0 0.07698792 
0.0 0.0 0.0 0.0 0.0 0.07698792 
0.0 0.0 0.0 0.0 0.0 0.07698792 
0.0 0.0 0.0 0.0 0.0 0.07698792 
0.0 0.0 0.0 0.0 0.0 0.07698792 
0.0 0.0 0.0 0.0 0.0 0.07698792 
0.0 0.0 0.0 0.0 0.0 0.07698792 
0.0 0.0 0.0 0.0 0.0 0.07698792 
0.0 0.0 0.0 0.0 0.0 0.07698792 
0.0 0.0 0.0 0.0 0.0 0.07698792 
0.0 0.0 0.0 0.0 0.0 0.07698792 
0.0 0.0 0.0 0.0 0.0 0.07698792 
0.0 0.0 0.0 0.0 0.0 0.07698792 
0.0 0.0 0.0 0.0 0.0 0.07698792 
0.0 0.0 0.0 0.0 0.0 0.07698792 
0.0 0.0 0.0 0.0 0.0 0.07698792 
0.0 0.0 0.0 0.0 0.0 0.07698792 
0.0058647394 0.0 0.0 0.0 0.0 0.05296448 
0.5732663 0.0 0.0 0.0 0.0 0.14081821 
1.7021825 0.0 0.0 0.0 0.086188436 0.51008475 
1.9733765 0.07058188 0.0 0.0 1.0795399 0.59901685 
0.6860395 1.1806395 0.0 0.0 2.0144703 0.22904986 
0.0 1.5194227 0.0 0.0 2.2000062 0.21856314 
0.0 0.9147361 1.1134633 0.0 1.5564375 0.41608688 
0.0 0.21454507 0.8646579 0.015112787 0.6999294 0.31235114 
0.0 0.0 0.27760968 0.0 0.09587607 0.1399597 
0.0 0.0 0.0 0.0 0.0 0.079118714 
0.0 0.0 0.0 0.0 0.0 0.07698792 
0.0 0.0 0.0 0.0 0.0 0.07698792 
0.0 0.0 0.0 0.0 0.0 0.07698792 
0.0 0.0 0.0 0.0 0.0 0.07698792 
0.0 0.0 0.0 0.0 0.0 0.07698792 
0.0 0.0 0.0 0.0 0.0 0.07698792 
0.0 0.0 0.0 0.0 0.0 0.07698792 
0.0 0.0 0.0 0.0 0.0 0.07698792 
0.0 0.0 0.0 0.0 0.0 0.07698792 
0.0 0.0 0.0 0.0 0.0 0.07698792 
0.0 0.0 0.0 0.0 0.0 0.07698792 
0.0 0.0 0.0 0.0 0.0 0.07698792 
0.0 0.0 0.0 0.0 0.0 0.07698792 
0.0 0.0 0.0 0.0 0.0 0.07698792 
0.0 0.0 0.0 0.0 0.0 0.07698792 
0.0 0.0 0.0 0.0 0.0 0.07698792 
0.0 0.0 0.0 0.0 0.0 0.07698792 
0.0 0.0 0.0 0.0 0.0 0.07698792 
0.07707082 0.0 0.0 0.0 0.0 0.102736786 
0.872351 0.0 0.0 0.031359594 0.0 0.36026734 
1.8868542 0.0 0.0 0.05614118 0.3137506 0.6069856 
1.6418538 0.51481336 0.0 0.11808322 1.4775045 0.4694637 
0.0035177171 1.5006609 0.0 0.0 2.058119 0.090362385 
0.0 1.4302241 0.617919 0.0 1.8795038 0.11077607 
0.0 0.5377601 1.137233 0.0 1.2064013 0.38102746 
0.0 0.12330045 0.71286553 0.11585047 0.31340602 0.2165433 
0.0 0.0 0.03199853 0.0 0.0 0.088810146 
0.0 0.0 0.0 0.0 0.0 0.07698792 
0.0 0.0 0.0 0.0 0.0 0.07698792 
0.0 0.0 0.0 0.0 0.0 0.07698792 
0.0 0.0 0.0 0.0 0.0 0.07698792 
0.0 0.0 0.0 0.0 0.0 0.07698792 
0.0 0.0 0.0 0.0 0.0 0.07698792 
0.0 0.0 0.0 0.0 0.0 0.07698792 
0.0 0.0 0.0 0.0 0.0 0.07698792 
0.0 0.0 0.0 0.0 0.0 0.07698792 
0.0 0.0 0.0 0.0 0.0 0.07698792 
0.0 0.0 0.0 0.0 0.0 0.07698792 
0.0 0.0 0.0 0.0 0.0 0.07698792 
0.0 0.0 0.0 0.0 0.0 0.07698792 
0.0 0.0 0.0 0.0 0.0 0.07698792 
0.0 0.0 0.0 0.0 0.0 0.07698792 
0.0 0.0 0.0 0.0 0.0 0.07698792 
0.0 0.0 0.0 0.0 0.0 0.07698792 
0.0 0.0 0.0 0.0 0.0 0.07698792 
0.0 0.0 0.0 0.0 0.0 0.07698792 
0.16879721 0.0 0.0 0.03005647 0.0 0.19789474 
1.1319818 0.0 0.0 0.15579174 0.0 0.63412243 
1.9570653 0.0 0.0 0.17447227 0.61367506 0.835447 
1.2276549 0.89013433 0.0 0.13837315 1.6102606 0.3922504 
0.0 1.6861736 0.0 0.012060878 1.8471273 0.05144459 
0.0 1.3248334 1.1472023 0.0 1.5742431 0.13550842 
0.0 0.35349974 1.0147555 0.0 0.91066796 0.25667858 
0.0 0.0 0.41845968 0.03649464 0.10770531 0.14446215 
0.0 0.0 0.0 0.0 0.0 0.07790112 
0.0 0.0 0.0 0.0 0.0 0.07698792 
0.0 0.0 0.0 0.0 0.0 0.07698792 
0.0 0.0 0.0 0.0 0.0 0.07698792 
0.0 0.0 0.0 0.0 0.0 0.07698792 
0.0 0.0 0.0 0.0 0.0 0.07698792 
0.0 0.0 0.0 0.0 0.0 0.07698792 
0.0 0.0 0.0 0.0 0.0 0.07698792 
0.0 0.0 0.0 0.0 0.0 0.07698792 
0.0 0.0 0.0 0.0 0.0 0.07698792 
0.0 0.0 0.0 0.0 0.0 0.07698792 
0.0 0.0 0.0 0.0 0.0 0.07698792 
0.0 0.0 0.0 0.0 0.0 0.07698792 
0.0 0.0 0.0 0.0 0.0 0.07698792 
0.0 0.0 0.0 0.0 0.0 0.07698792 
0.0 0.0 0.0 0.0 0.0 0.07698792 
0.0 0.0 0.0 0.0 0.0 0.07698792 
0.0 0.0 0.0 0.0 0.0 0.07698792 
0.0 0.0 0.0 0.0 0.0 0.07698792 
0.0 0.0 0.0 0.0 0.0 0.07698792 
0.19601163 0.0 0.0 0.07752896 0.0 0.31268588 
1.081094 0.0 0.0 0.23873587 0.3654131 1.0359068 
1.6059146 0.0 0.0 0.47719675 1.0906504 1.4354234 
0.69624805 0.57127744 0.0 0.51759094 1.6771598 0.918387 
0.0 1.1725802 0.008870468 0.56462574 1.6312598 0.5884912 
0.0 0.7513803 1.3092227 0.289374 1.3107098 0.48025236 
0.0 0.17030984 0.87336564 0.037368324 0.63502216 0.19739398 
0.0 0.0 0.09276735 0.0 0.026654113 0.09708997 
0.0 0.0 0.0 0.0 0.0 0.07698792 
0.0 0.0 0.0 0.0 0.0 0.07698792 
0.0 0.0 0.0 0.0 0.0 0.07698792 
0.0 0.0 0.0 0.0 0.0 0.07698792 
0.0 0.0 0.0 0.0 0.0 0.07698792 
0.0 0.0 0.0 0.0 0.0 0.07698792 
0.0 0.0 0.0 0.0 0.0 0.07698792 
0.0 0.0 0.0 0.0 0.0 0.07698792 
0.0 0.0 0.0 0.0 0.0 0.07698792 
0.0 0.0 0.0 0.0 0.0 0.07698792 
0.0 0.0 0.0 0.0 0.0 0.07698792 
0.0 0.0 0.0 0.0 0.0 0.07698792 
0.0 0.0 0.0 0.0 0.0 0.07698792 
0.0 0.0 0.0 0.0 0.0 0.07698792 
0.0 0.0 0.0 0.0 0.0 0.07698792 
0.0 0.0 0.0 0.0 0.0 0.07698792 
0.0 0.0 0.0 0.0 0.0 0.07698792 
0.0 0.0 0.0 0.0 0.0 0.07698792 
0.0 0.0 0.0 0.0 0.0 0.07698792 
0.0 0.0 0.0 0.0 0.0 0.07698792 
0.18956229 0.0 0.0 0.033109628 0.11922079 0.32303104 
0.8795794 0.0 0.0 0.15663221 0.68914634 1.0081036 
1.0653334 0.0 0.0 0.3020337 1.2788148 1.3605523 
0.1377562 0.30648813 0.0 0.37978402 1.3128802 0.92413056 
0.0 0.503137 0.0 0.4776933 1.0421634 0.709837 
0.0 0.43744248 1.1412661 0.45283812 0.6787438 0.58466095 
0.0 0.17785162 0.79041314 0.21965416 0.22280975 0.16170305 
0.0 0.0 0.0 0.0 0.0 0.079118714 
0.0 0.0 0.0 0.0 0.0 0.07698792 
0.0 0.0 0.0 0.0 0.0 0.07698792 
0.0 0.0 0.0 0.0 0.0 0.07698792 
0.0 0.0 0.0 0.0 0.0 0.07698792 
0.0 0.0 0.0 0.0 0.0 0.07698792 
0.0 0.0 0.0 0.0 0.0 0.07698792 
0.0 0.0 0.0 0.0 0.0 0.07698792 
0.0 0.0 0.0 0.0 0.0 0.07698792 
0.0 0.0 0.0 0.0 0.0 0.07698792 
0.0 0.0 0.0 0.0 0.0 0.07698792 
0.0 0.0 0.0 0.0 0.0 0.07698792 
0.0 0.0 0.0 0.0 0.0 0.07698792 
0.0 0.0 0.0 0.0 0.0 0.07698792 
0.0 0.0 0.0 0.0 0.0 0.07698792 
0.0 0.0 0.0 0.0 0.0 0.07698792 
0.0 0.0 0.0 0.0 0.0 0.07698792 
0.0 0.0 0.0 0.0 0.0 0.07698792 
0.0 0.0 0.0 0.0 0.0 0.07698792 
0.0 0.0 0.0 0.0 0.0 0.07698792 
0.0 0.0 0.0 0.0 0.0 0.07698792 
0.093489066 0.0 0.0 0.0 0.09335275 0.23175396 
0.53833926 0.0 0.0 0.0 0.56442064 0.7119976 
0.6594866 0.0 0.0 0.0 0.9467954 1.0542731 
0.09224814 0.17654309 0.0 0.0 0.70353067 0.83467937 
0.0 0.08595301 0.0 0.0 0.41688424 0.6191845 
0.0 0.008664227 0.4625919 0.0 0.29142144 0.45904824 
0.0 0.0 0.428728 0.04558691 0.086072 0.14546275 
0.0 0.0 0.0 0.0 0.0 0.07698792 
0.0 0.0 0.0 0.0 0.0 0.07698792 
0.0 0.0 0.0 0.0 0.0 0.07698792 
0.0 0.0 0.0 0.0 0.0 0.07698792 
0.0 0.0 0.0 0.0 0.0 0.07698792 
0.0 0.0 0.0 0.0 0.0 0.07698792 
0.0 0.0 0.0 0.0 0.0 0.07698792 
0.0 0.0 0.0 0.0 0.0 0.07698792 
0.0 0.0 0.0 0.0 0.0 0.07698792 
0.0 0.0 0.0 0.0 0.0 0.07698792 
0.0 0.0 0.0 0.0 0.0 0.07698792 
0.0 0.0 0.0 0.0 0.0 0.07698792 
0.0 0.0 0.0 0.0 0.0 0.07698792 
0.0 0.0 0.0 0.0 0.0 0.07698792 

