0.0 0.0 0.0 0.0 0.0 0.07698792 
0.0 0.0 0.0 0.0 0.0 0.07698792 
0.0 0.0 0.0 0.0 0.0 0.07698792 
0.0 0.0 0.0 0.0 0.0 0.07698792 
0.0 0.0 0.0 0.0 0.0 0.07698792 
0.0 0.0 0.0 0.0 0.0 0.07698792 
0.0 0.0 0.0 0.0 0.0 0.07698792 
0.0 0.0 0.0 0.0 0.0 0.07698792 
0.0 0.0 0.0 0.0 0.0 0.07698792 
0.0 0.0 0.0 0.0 0.0 0.07698792 
0.0 0.0 0.0 0.0 0.0 0.07698792 
0.0 0.0 0.0 0.0 0.0 0.07698792 
0.0 0.0 0.0 0.0 0.0 0.07698792 
0.0 0.0 0.0 0.0 0.0 0.07698792 
0.0 0.0 0.0 0.0 0.0 0.07698792 
0.0 0.0 0.0 0.0 0.0 0.07698792 
0.0 0.0 0.0 0.0 0.0 0.07698792 
0.0 0.0 0.0 0.0 0.0 0.07698792 
0.0 0.0 0.0 0.0 0.0 0.07698792 
0.0 0.0 0.0 0.0 0.0 0.07698792 
0.0 0.0 0.0 0.0 0.0 0.07698792 
0.0 0.0 0.0 0.0 0.0 0.07698792 
0.0 0.0 0.0 0.0 0.0 0.07698792 
0.0 0.0 0.0 0.0 0.0 0.07698792 
0.0 0.0 0.0 0.0 0.0 0.07698792 
0.0 0.0 0.0 0.0 0.0 0.07698792 
0.0 0.0 0.0 0.0 0.0 0.07698792 
0.0 0.0 0.0 0.0 0.0 0.07698792 
0.0 0.0 0.0 0.0 0.0 0.07698792 
0.0 0.0 0.0 0.0 0.0 0.07698792 
0.0 0.0 0.0 0.0 0.0 0.07698792 
0.0 0.0 0.0 0.0 0.0 0.07698792 
0.0 0.0 0.0 0.0 0.0 0.07698792 
0.0 0.0 0.0 0.0 0.0 0.07698792 
0.0 0.0 0.0 0.0 0.0 0.07698792 
0.0 0.0 0.0 0.0 0.0 0.07698792 
0.0 0.0 0.0 0.0 0.0 0.07698792 
0.0 0.0 0.0 0.0 0.0 0.07698792 
0.0 0.0 0.0 0.0 0.0 0.07698792 
0.0 0.0 0.0 0.0 0.0 0.07698792 
0.0 0.0 0.0 0.0 0.0 0.07698792 
0.0 0.0 0.0 0.0 0.0 0.07698792 
0.0 0.0 0.0 0.0 0.0 0.07698792 
0.0 0.0 0.0 0.0 0.0 0.07698792 
0.0 0.0 0.0 0.0 0.0 0.07698792 
0.0 0.0 0.0 0.0 0.0 0.07698792 
0.0 0.0 0.0 0.0 0.0 0.07698792 
0.0 0.0 0.0 0.0 0.0 0.07698792 
0.0 0.0 0.0 0.0 0.0 0.07698792 
0.0 0.0 0.0 0.0 0.0 0.07698792 
0.0 0.0 0.0 0.0 0.0 0.07698792 
0.0 0.0 0.0 0.0 0.0 0.07698792 
0.0 0.0 0.0 0.0 0.0 0.07698792 
0.0 0.0 0.0 0.0 0.0 0.07698792 
0.0 0.0 0.0 0.0 0.0 0.07698792 
0.0 0.0 0.0 0.0 0.0 0.07698792 
0.0 0.0 0.0 0.0 0.0 0.07698792 
0.0 0.0 0.0 0.0 0.0 0.07698792 
0.0 0.0 0.0 0.0 0.0 0.07698792 
0.0 0.0 0.0 0.0 0.0 0.07698792 
0.0 0.0 0.0 0.0 0.0 0.07698792 
0.0 0.0 0.0 0.0 0.0 0.07698792 
0.0 0.0 0.0 0.0 0.0 0.07698792 
0.0 0.0 0.0 0.0 0.0 0.07698792 
0.0 0.0 0.0 0.0 0.0 0.07698792 
0.0 0.0 0.0 0.0 0.0 0.07698792 
0.0 0.0 0.0 0.0 0.0 0.07698792 
0.0 0.0 0.0 0.0 0.0 0.07698792 
0.0 0.0 0.0 0.0 0.0 0.07698792 
0.0 0.0 0.0 0.0 0.0 0.07698792 
0.0 0.0 0.0 0.0 0.0 0.07698792 
0.0 0.0 0.0 0.0 0.0 0.07698792 
0.0 0.0 0.0 0.0 0.0 0.07698792 
0.0 0.0 0.0 0.0 0.0 0.07698792 
0.0 0.0 0.0 0.0 0.0 0.07698792 
0.0 0.0 0.0 0.0 0.0 0.07698792 
0.0 0.0 0.0 0.0 0.0 0.07698792 
0.0 0.0 0.0 0.0 0.0 0.07698792 
0.0 0.0 0.0 0.0 0.0 0.07698792 
0.0 0.0 0.0 0.0 0.0 0.07698792 
0.0 0.0 0.0 0.0 0.0 0.07698792 
0.0 0.0 0.0 0.0 0.0 0.07698792 
0.0 0.0 0.0 0.0 0.0 0.07698792 
0.0 0.0 0.0 0.0 0.0 0.07698792 
0.0 0.0 0.0 0.0 0.0 0.07698792 
0.0 0.0 0.0 0.0 0.0 0.07698792 
0.0 0.0 0.0 0.0 0.0 0.07698792 
0.0 0.0 0.0 0.0 0.0 0.07698792 
0.0 0.0 0.0 0.0 0.0 0.07698792 
0.0 0.0 0.0 0.0 0.0 0.07698792 
0.0 0.0 0.0 0.0 0.0 0.07698792 
0.0 0.0 0.0 0.0 0.0 0.07698792 
0.0 0.0 0.0 0.0 0.0 0.07698792 
0.0 0.0 0.0 0.0 0.0 0.07698792 
0.0 0.0 0.0 0.0 0.0 0.07698792 
0.0 0.0 0.0 0.0 0.0 0.07698792 
0.0 0.0 0.0 0.0 0.0 0.07698792 
0.0 0.0 0.0 0.0 0.0 0.07698792 
0.0 0.0 0.0 0.0 0.0 0.07698792 
0.0 0.0 0.0 0.0 0.0 0.07698792 
0.0 0.0 0.0 0.0 0.0 0.07698792 
0.0 0.0 0.0 0.0 0.0 0.07698792 
0.0 0.0 0.0 0.0 0.0 0.07698792 
0.0 0.0 0.0 0.0 0.0 0.07698792 
0.0 0.0 0.0 0.0 0.0 0.07698792 
0.0 0.0 0.0 0.0 0.0 0.07698792 
0.0 0.0 0.0 0.0 0.0 0.07698792 
0.0 0.0 0.0 0.0 0.0 0.07698792 
0.0 0.0 0.0 0.0 0.0 0.07698792 
0.0 0.0 0.0 0.0 0.0 0.07698792 
0.0 0.0 0.0 0.0 0.0 0.07698792 
0.0 0.0 0.0 0.0 0.0 0.07698792 
0.0 0.0 0.0 0.0 0.0 0.07698792 
0.0 0.0 0.0 0.0 0.0 0.07698792 
0.0 0.0 0.0 0.0 0.0 0.07698792 
0.0 0.0 0.0 0.0 0.0 0.07698792 
0.0 0.0 0.0 0.0 0.0 0.07698792 
0.0 0.0 0.0 0.0 0.0 0.07698792 
0.0 0.0 0.0 0.0 0.0 0.07698792 
0.0 0.0 0.0 0.0 0.0 0.07698792 
0.0 0.0 0.0 0.0 0.0 0.07698792 
0.0 0.0 0.0 0.0 0.0 0.07698792 
0.0 0.0 0.0 0.0 0.0 0.07698792 
0.0 0.0 0.0 0.0 0.0 0.07698792 
0.0 0.0 0.0 0.0 0.0 0.07698792 
0.0 0.0 0.0 0.0 0.0 0.07698792 
0.0 0.0 0.0 0.0 0.0 0.07698792 
0.0 0.0 0.0 0.0 0.0 0.07698792 
0.0 0.0 0.0 0.0 0.0 0.07698792 
0.0 0.0 0.0 0.0 0.0 0.07698792 
0.0 0.0 0.0 0.0 0.0 0.07698792 
0.0 0.0 0.0 0.0 0.0 0.07698792 
0.0 0.0 0.0 0.0 0.0 0.07698792 
0.0 0.0 0.0 0.0 0.0 0.07698792 
0.0 0.0 0.0 0.0 0.0 0.07698792 
0.0 0.0 0.0 0.0 0.0 0.07698792 
0.0 0.0 0.0 0.0 0.0 0.07698792 
0.0 0.0 0.0 0.0 0.0 0.07698792 
0.0 0.0 0.0 0.0 0.0 0.07698792 
0.0 0.0 0.0 0.0 0.0 0.07698792 
0.0 0.0 0.0 0.0 0.0 0.07698792 
0.0 0.0 0.0 0.0 0.0 0.07698792 
0.0 0.0 0.0 0.0 0.0 0.07698792 
0.0 0.0 0.0 0.0 0.0 0.07698792 
0.0 0.0 0.0 0.0 0.0 0.07698792 
0.0 0.0 0.0 0.0 0.0 0.0751024 
0.007220231 0.0 0.03682392 0.0 0.0 0.027939897 
0.13544944 0.035798065 0.09866763 0.0 0.0 0.0 
0.1911121 0.10518375 0.20553595 0.0 0.0 0.0 
0.30255637 0.24181601 0.35213745 0.0 0.0 0.0 
0.34760264 0.40178612 0.4342334 0.0 0.0 0.0 
0.34976846 0.5017156 0.5003036 0.0 0.0 0.0 
0.34821984 0.5884738 0.54638374 0.0 0.0 0.0 
0.27351078 0.6533231 0.47803688 0.0 0.0 0.0 
0.15802959 0.58731633 0.42445725 0.0 0.0 0.0 
0.13788089 0.5138546 0.36760974 0.0 0.0 0.0 
0.046595864 0.44548526 0.20604032 0.0 0.0 0.0 
0.0 0.29121646 0.116572596 0.0 0.009906236 0.0 
0.0 0.19312869 0.05232712 0.0 0.018153954 0.0 
0.0 0.078859925 0.0 0.0 0.01279271 0.0 
0.0 0.00071451813 0.0 0.0 0.0 0.06865048 
0.0 0.0 0.0 0.0 0.0 0.07698792 
0.0 0.0 0.0 0.0 0.0 0.07698792 
0.0 0.0 0.0 0.0 0.0 0.07698792 
0.0 0.0 0.0 0.0 0.0 0.07698792 
0.0 0.0 0.0 0.0 0.0 0.07698792 
0.0 0.0 0.0 0.0 0.0 0.07698792 
0.0 0.0 0.0 0.0 0.0 0.07698792 
0.0 0.0 0.0 0.0 0.0 0.07698792 
0.0 0.0 0.0 0.0 0.0 0.07698792 
0.0 0.0 0.0 0.0 0.0 0.07698792 
0.0 0.0 0.0 0.0 0.0 0.07698792 
0.0 0.0 0.0 0.0 0.0 0.07698792 
0.023174249 0.0 0.05515512 0.0 0.0 0.02431677 
0.31832156 0.0 0.15267742 0.0 0.0 0.0 
0.57712007 0.06236077 0.30068165 0.0 0.0 0.0 
0.7295897 0.3305647 0.44078505 0.0 0.0 0.0 
0.7403351 0.6555583 0.69465935 0.0 0.0 0.0 
0.66931736 0.7928286 0.84140307 0.0 0.0 0.0 
0.63518536 0.94980496 0.94321096 0.0 0.0 0.0 
0.50435126 1.0486256 1.0618668 0.0 0.11283392 0.0 
0.36007988 1.119667 1.1388875 0.0 0.28683642 0.0 
0.22721231 1.1589164 1.1035941 0.0 0.3182508 0.0 
0.12670952 1.0650307 1.0835097 0.0 0.276812 0.0 
0.11462198 0.9677305 0.97848594 0.0 0.30297884 0.0 
0.046089016 0.9932777 0.7756347 0.0 0.22992648 0.0 
0.0 0.8299474 0.61935997 0.0 0.24509682 0.0 
0.0 0.5092426 0.32115656 0.0 0.24166296 0.0 
0.0 0.30048838 0.11484746 0.0 0.095991805 0.0 
0.0 0.13131595 0.006780386 0.0 0.027213614 0.0 
0.0 0.025403738 0.0 0.0 0.0 0.04572251 
0.0 0.0 0.0 0.0 0.0 0.07698792 
0.0 0.0 0.0 0.0 0.0 0.07698792 
0.0 0.0 0.0 0.0 0.0 0.07698792 
0.0 0.0 0.0 0.0 0.0 0.07698792 
0.0 0.0 0.0 0.0 0.0 0.07698792 
0.0 0.0 0.0 0.0 0.0 0.07698792 
0.0 0.0 0.0 0.0 0.0 0.07698792 
0.0 0.0 0.0 0.0 0.0 0.07698792 
0.0 0.0 0.0 0.0 0.0 0.07698792 
0.0 0.0 0.0 0.0 0.0 0.06303501 
0.21174335 0.0 0.07717406 0.0 0.0 0.0 
0.7941451 0.0 0.121760614 0.0 0.0 0.0 
1.1487944 0.0 0.26229596 0.0 0.0 0.0 
1.1236959 0.4999254 0.54009473 0.0 0.0 0.0 
0.70330286 0.8211715 0.838097 0.0 0.6342532 0.0 
0.47162133 0.8217592 1.1217644 0.07681126 0.99548537 0.0 
0.51305324 0.8802124 1.2117893 0.3838009 1.0971339 0.0 
0.44059294 0.935915 1.3725252 0.5523547 1.1542449 0.0 
0.35225242 1.1606294 1.6049443 0.5321659 1.0897828 0.0 
0.26980516 1.2830849 1.6769719 0.29658014 1.0734301 0.0 
0.30314228 1.2659264 1.7114276 0.075043276 0.9190216 0.0 
0.2719792 1.3771049 1.6700177 0.0 0.7418332 0.0 
0.15670058 1.3991554 1.5757133 0.0 0.67810714 0.0 
0.0 1.4627845 1.4946289 0.0 0.6373797 0.0 
0.0 1.3330508 1.0936813 0.0 0.65994346 0.0 
0.0 0.80032504 0.6122606 0.0 0.56970567 0.0 
0.0 0.3952239 0.27283496 0.0 0.3515019 0.0 
0.0 0.09509524 0.010854602 0.0 0.13143684 0.0 
0.0 0.0 0.0 0.0 0.0 0.07698792 
0.0 0.0 0.0 0.0 0.0 0.07698792 
0.0 0.0 0.0 0.0 0.0 0.07698792 
0.0 0.0 0.0 0.0 0.0 0.07698792 
0.0 0.0 0.0 0.0 0.0 0.07698792 
0.0 0.0 0.0 0.0 0.0 0.07698792 
0.0 0.0 0.0 0.0 0.0 0.07698792 
0.0 0.0 0.0 0.0 0.0 0.07698792 
0.0 0.0 0.0 0.0 0.0 0.07698792 
0.0 0.0 0.0 0.0 0.0 0.06591095 
0.5006373 0.0 0.0 0.0 0.0 0.13906306 
1.3154533 0.0 0.0 0.05068418 0.0 0.15192252 
1.5246737 0.108473614 0.0 0.18272278 0.13498889 0.0 
0.99823254 1.0011069 0.24186406 0.5439873 0.94565004 0.0 
0.33250606 1.4073559 0.6620834 0.85421526 1.8674153 0.23645264 
0.08589463 1.4181732 0.68286514 1.3358841 1.9795278 0.79044074 
0.13514994 1.0992702 0.543801 1.667891 1.8654567 1.2673905 
0.36422664 1.0041087 0.4832263 1.9195604 1.6959859 1.4370503 
0.3057312 1.2000587 0.7622971 1.9775326 1.5526989 1.330168 
0.12871948 1.1555088 1.0174192 1.8714948 1.5792438 1.087316 
0.26943806 1.0200535 1.2485238 1.7433976 1.4225658 0.8901523 
0.36056787 1.0922451 1.486241 1.4409887 1.2388794 0.4098686 
0.30962276 1.254394 1.6812639 0.9923592 1.0630774 0.0 
0.10761689 1.5382162 1.9976624 0.55035365 1.007922 0.0 
0.0 1.8462396 1.9449869 0.07064366 1.2194337 0.0 
0.0 1.4945208 1.4108267 0.0 1.093563 0.0 
0.0 0.8132746 0.85049 0.0 0.73700243 0.0 
0.0 0.14977315 0.17905435 0.0 0.35140935 0.0 
0.0 0.0 0.0 0.0 0.0 0.07698792 
0.0 0.0 0.0 0.0 0.0 0.07698792 
0.0 0.0 0.0 0.0 0.0 0.07698792 
0.0 0.0 0.0 0.0 0.0 0.07698792 
0.0 0.0 0.0 0.0 0.0 0.07698792 
0.0 0.0 0.0 0.0 0.0 0.07698792 
0.0 0.0 0.0 0.0 0.0 0.07698792 
0.0 0.0 0.0 0.0 0.0 0.07698792 
0.0 0.0 0.0 0.0 0.0 0.07698792 
0.037350535 0.0 0.0 0.0 0.0 0.10899682 
0.79874766 0.0 0.0 0.12286696 0.0 0.41636327 
1.7484367 0.0 0.0 0.23924968 0.079827964 0.6082797 
1.7648396 0.37599424 0.0 0.37123615 0.95068973 0.46107507 
0.92551523 1.3795258 0.0 0.47620454 1.9927095 0.45016414 
0.0 1.6841576 0.07539449 0.41576204 2.8085353 0.7326825 
0.0 1.0099816 0.0 0.46932364 2.7680733 1.3816304 
0.17816299 0.35689273 0.0 0.4761931 2.4187007 1.8446734 
0.45192963 0.10136058 0.0 0.62025064 2.136839 1.9296288 
0.35075817 0.07868141 0.0 0.7452099 2.0619652 1.9678385 
0.26945055 0.21123548 0.0 0.9418196 2.0048025 1.9052019 
0.5347676 0.1144891 0.0 1.0292462 1.7339308 1.8343253 
0.8761521 0.37976798 0.0 1.1346331 1.3158761 1.4711246 
0.9090208 0.7918655 0.49938864 0.9830596 1.187179 0.8505573 
0.5800931 1.5347881 1.3637809 0.841128 1.2183319 0.0622601 
0.0 2.1960053 2.0901988 0.5376025 1.5948195 0.0 
0.0 1.928021 2.0455434 0.3123835 1.4704866 0.0 
0.0 1.1698027 1.5153444 0.07459217 0.9722758 0.0 
0.0 0.32100466 0.49031526 0.0 0.4324021 0.0 
0.0 0.0 0.0 0.0 0.0 0.07698792 
0.0 0.0 0.0 0.0 0.0 0.07698792 
0.0 0.0 0.0 0.0 0.0 0.07698792 
0.0 0.0 0.0 0.0 0.0 0.07698792 
0.0 0.0 0.0 0.0 0.0 0.07698792 
0.0 0.0 0.0 0.0 0.0 0.07698792 
0.0 0.0 0.0 0.0 0.0 0.07698792 
0.0 0.0 0.0 0.0 0.0 0.07698792 
0.0 0.0 0.0 0.0 0.0 0.07698792 
0.092386976 0.0 0.0 0.029218223 0.0 0.1697542 
1.0756831 0.0 0.0 0.11217618 0.0 0.689581 
2.03341 0.0 0.0 0.12353784 0.5590571 0.9361056 
1.7936718 0.42495447 0.0 0.118360095 1.4184145 0.6292831 
0.6258722 1.5699248 0.0 0.0 2.295728 0.44140673 
0.0 1.6155864 0.20031902 0.0 2.7489803 0.5012672 
0.0 0.79143065 0.0077647343 0.0 2.2621872 0.92840284 
0.0 0.047362186 0.0 0.0 1.7612314 1.2629616 
0.2458618 0.0 0.0 0.0 1.3872684 1.3725636 
0.39108178 0.0 0.0 0.0 1.4042059 1.4928336 
0.40963846 0.0 0.0 0.0 1.4069575 1.5284 
0.9060698 0.0 0.0 0.0 1.1634573 1.5888567 
1.5377734 0.0 0.0 0.0 1.1701776 1.5288606 
1.6266842 0.12705469 0.0 0.0 1.3829443 1.0164206 
0.89845824 1.1827095 0.0 0.07285726 1.7656316 0.4867499 
0.0 1.9552915 1.1313382 0.10824662 2.2350812 0.0 
0.0 1.8003906 1.8593063 0.2602921 1.793156 0.0 
0.0 1.0753444 1.7488283 0.20760264 1.1208586 0.0045369565 
0.0 0.3146431 0.73106676 0.08468338 0.426129 0.008838788 
0.0 0.0 0.0 0.0 0.0 0.07698792 
0.0 0.0 0.0 0.0 0.0 0.07698792 
0.0 0.0 0.0 0.0 0.0 0.07698792 
0.0 0.0 0.0 0.0 0.0 0.07698792 
0.0 0.0 0.0 0.0 0.0 0.07698792 
0.0 0.0 0.0 0.0 0.0 0.07698792 
0.0 0.0 0.0 0.0 0.0 0.07698792 
0.0 0.0 0.0 0.0 0.0 0.07698792 
0.0 0.0 0.0 0.0 0.0 0.07698792 
0.14257163 0.0 0.0 0.012766802 0.0 0.21275048 
1.2159247 0.0 0.0 0.03787641 0.15324411 0.81727606 
2.0965903 0.0 0.0 0.04773813 0.70115143 1.0381103 
1.5837054 0.4510609 0.0 0.0 1.5363474 0.61899614 
0.14155827 1.4525173 0.0 0.0 2.1984541 0.26177037 
0.0 1.4287477 0.9139079 0.0 2.214738 0.09262383 
0.0 0.4719246 0.7614138 0.0 1.6932267 0.38669688 
0.0 0.0 0.0 0.0 1.0667027 0.43047506 
0.10830517 0.0 0.0 0.0 0.68573874 0.40626797 
0.20994836 0.0 0.0 0.0 0.74880505 0.5104302 
0.32522234 0.0 0.0 0.0 0.7016226 0.5598184 
1.1394598 0.0 0.0 0.0 0.58886087 0.85921806 
1.9339209 0.0 0.0 0.0 0.8877131 0.98932666 
1.8406551 0.0 0.0 0.0 1.5372005 0.7044931 
0.8915134 1.0283347 0.0 0.0 2.381258 0.53914976 
0.0 1.7956334 0.54474145 0.0 2.544417 0.08706975 
0.0 1.4816643 1.4631273 0.18536456 1.8815571 0.037132204 
0.0 0.6910064 1.4910667 0.16859138 1.1485988 0.27334702 
0.0 0.17953834 0.7341093 0.16972542 0.29069966 0.098202825 
0.0 0.0 0.0 0.0 0.0 0.07698792 
0.0 0.0 0.0 0.0 0.0 0.07698792 
0.0 0.0 0.0 0.0 0.0 0.07698792 
0.0 0.0 0.0 0.0 0.0 0.07698792 
0.0 0.0 0.0 0.0 0.0 0.07698792 
0.0 0.0 0.0 0.0 0.0 0.07698792 
0.0 0.0 0.0 0.0 0.0 0.07698792 
0.0 0.0 0.0 0.0 0.0 0.07698792 
0.0 0.0 0.0 0.0 0.0 0.07698792 
0.12348586 0.0 0.0 0.020560656 0.0059172846 0.24300697 
1.0811799 0.0 0.0 0.12344876 0.32544002 0.9626191 
1.784008 0.0 0.0 0.3159886 0.96025544 1.3982854 
1.1440749 0.27452254 0.0 0.46803525 1.6889908 1.0984061 
0.0 1.2794805 0.0 0.59158343 1.8476932 0.67467755 
0.0 1.1117184 1.3583359 0.49102458 1.680071 0.41812855 
0.0 0.44708163 1.2970265 0.27239883 0.9448734 0.33283445 
0.0 0.117812335 0.55622196 0.13918352 0.18024749 0.11036904 
0.0 0.0 0.0 0.0 0.0 0.07721622 
0.0 0.0 0.0 0.0 0.0 0.0955542 
0.27392125 0.0 0.0 0.0 0.0 0.17899829 
1.3105934 0.0 0.0 0.0045637013 0.0 0.53800356 
2.0726159 0.0 0.0 0.0 0.6658578 0.719261 
1.792053 0.48022678 0.0 0.051521834 1.5557886 0.5505127 
0.6003048 1.4963772 0.0 0.05094554 2.4866703 0.48488462 
0.0 1.8521993 0.58047956 0.12416965 2.467646 0.23296493 
0.0 1.1768547 1.3030548 0.12926584 1.6747367 0.31174296 
0.0 0.3929016 1.1656779 0.14201626 0.8423044 0.33357152 
0.0 0.07807525 0.52077925 0.12888545 0.11339943 0.13411619 
0.0 0.0 0.0 0.0 0.0 0.07698792 
0.0 0.0 0.0 0.0 0.0 0.07698792 
0.0 0.0 0.0 0.0 0.0 0.07698792 
0.0 0.0 0.0 0.0 0.0 0.07698792 
0.0 0.0 0.0 0.0 0.0 0.07698792 
0.0 0.0 0.0 0.0 0.0 0.07698792 
0.0 0.0 0.0 0.0 0.0 0.07698792 
0.0 0.0 0.0 0.0 0.0 0.07698792 
0.0 0.0 0.0 0.0 0.0 0.07698792 
0.08919957 0.0 0.0 0.018788308 0.05153512 0.22865519 
0.8561594 0.0 0.0 0.13658014 0.5266462 0.9442585 
1.2929518 0.0 0.0 0.32384983 1.2089344 1.4427276 
0.5995209 0.20836686 0.0 0.44252652 1.5706593 1.1571193 
0.0 0.71265954 0.0 0.5286661 1.4388992 0.95560807 
0.0 0.6109146 0.94501793 0.45311674 1.0493852 0.69358826 
0.0 0.2882385 0.96503556 0.27335742 0.43019703 0.36341822 
0.0 0.02707043 0.3407307 0.07299736 0.054451574 0.124138325 
0.0 0.0 0.0 0.0 0.0 0.07698792 
0.0 0.0 0.0067737177 0.0 0.0 0.046819463 
0.5051803 0.0 0.0 0.0 0.0 0.17435065 
1.6084175 0.0 0.0 0.0 0.06143454 0.5732975 
2.1512094 0.0 0.0 0.0 0.8179334 0.604196 
1.5842392 0.9171431 0.0 0.0 1.790474 0.40908015 
0.042669818 1.7661666 0.0 0.0 2.6194618 0.2951749 
0.0 1.6295651 0.82367045 0.0 2.2298903 0.15515235 
0.0 0.779405 1.1363099 0.0 1.3887042 0.31775555 
0.0 0.21785626 0.8243615 0.024910841 0.52553195 0.2603662 
0.0 0.0 0.20643339 0.0 0.046428155 0.112639695 
0.0 0.0 0.0 0.0 0.0 0.07698792 
0.0 0.0 0.0 0.0 0.0 0.07698792 
0.0 0.0 0.0 0.0 0.0 0.07698792 
0.0 0.0 0.0 0.0 0.0 0.07698792 
0.0 0.0 0.0 0.0 0.0 0.07698792 
0.0 0.0 0.0 0.0 0.0 0.07698792 
0.0 0.0 0.0 0.0 0.0 0.07698792 
0.0 0.0 0.0 0.0 0.0 0.07698792 
0.0 0.0 0.0 0.0 0.0 0.07698792 
0.029692098 0.0 0.0 0.0 0.035454158 0.17188956 
0.5793205 0.0 0.0 0.0026983963 0.5181092 0.72618157 
0.8247824 0.0 0.0 0.0 1.0082811 1.1445441 
0.29839313 0.09733019 0.0 0.0 1.082651 0.977312 
0.0 0.19890712 0.0 0.0 0.7292326 0.8118648 
0.0 0.06750281 0.34000665 0.0 0.47331086 0.55407214 
0.0 0.0 0.45458925 0.0 0.21532793 0.2715832 
0.0 0.0 0.08783949 0.0 0.016650598 0.09661916 
0.0 0.0 0.0 0.0 0.0 0.07698792 
0.11524464 0.0 0.07819531 0.0 0.0 0.016743835 
0.96493334 0.0 0.0 0.0 0.0 0.19224274 
1.9021754 0.0 0.0 0.0 0.26461264 0.47209886 
2.086287 0.20994699 0.0 0.0 1.1109577 0.3598318 
1.0464225 1.2828413 0.0 0.0 2.213152 0.28366944 
0.0 1.7555302 0.08155895 0.0 2.574863 0.16985208 
0.0 1.3800086 1.1323467 0.0 1.8780977 0.17114866 
0.0 0.5115813 1.1125221 0.0 1.1075648 0.29894945 
0.0 0.020238068 0.56408226 0.01218553 0.30712345 0.16934308 
0.0 0.0 0.0 0.0 0.0 0.08414798 
0.0 0.0 0.0 0.0 0.0 0.07698792 
0.0 0.0 0.0 0.0 0.0 0.07698792 
0.0 0.0 0.0 0.0 0.0 0.07698792 
0.0 0.0 0.0 0.0 0.0 0.07698792 
0.0 0.0 0.0 0.0 0.0 0.07698792 
0.0 0.0 0.0 0.0 0.0 0.07698792 
0.0 0.0 0.0 0.0 0.0 0.07698792 
0.0 0.0 0.0 0.0 0.0 0.07698792 
0.0 0.0 0.0 0.0 0.0 0.07698792 
0.0 0.0 0.0 0.0 0.01695146 0.10978836 
0.28110528 0.0 0.0 0.0 0.3804023 0.360841 
0.41421583 0.0 0.0 0.0 0.6712888 0.5335499 
0.0774139 0.0 0.0 0.0 0.4629601 0.38573503 
0.0 0.0 0.0 0.0 0.3154004 0.35512465 
0.0 0.0 0.0 0.0 0.25470135 0.28339362 
0.0 0.0 0.09814749 0.0 0.08338785 0.12057902 
0.0 0.0 0.0 0.0 0.0 0.079499215 
0.0 0.0 0.0 0.0 0.0 0.06793738 
0.31965664 0.0 0.0 0.0 0.0 0.10226543 
1.346406 0.0 0.0 0.0 0.0 0.3450099 
2.0851216 0.0 0.0 0.0 0.5509004 0.46152034 
1.7469914 0.70541084 0.0 0.04441817 1.5433298 0.36733666 
0.36606896 1.4957879 0.0 0.0 2.581716 0.25300986 
0.0 1.7608066 0.5704164 0.07764705 2.3328993 0.10155746 
0.0 1.0184276 1.3221636 0.06832458 1.6146115 0.27572232 
0.0 0.31653515 1.0453703 0.08411215 0.7994439 0.26952326 
0.0 0.0 0.33528167 0.03721958 0.096272215 0.11315903 
0.0 0.0 0.0 0.0 0.0 0.07721622 
0.0 0.0 0.0 0.0 0.0 0.07698792 
0.0 0.0 0.0 0.0 0.0 0.07698792 
0.0 0.0 0.0 0.0 0.0 0.07698792 
0.0 0.0 0.0 0.0 0.0 0.07698792 
0.0 0.0 0.0 0.0 0.0 0.07698792 
0.0 0.0 0.0 0.0 0.0 0.07698792 
0.0 0.0 0.0 0.0 0.0 0.07698792 
0.0 0.0 0.0 0.0 0.0 0.07698792 
0.0 0.0 0.0 0.0 0.0 0.07698792 
0.0 0.0 0.0 0.0 0.0 0.07698792 
0.0054504946 0.0 0.0 0.0 0.061047997 0.12897351 
0.007797286 0.0 0.0 0.0 0.05592199 0.13824886 
0.0 0.0 0.0 0.0 0.006598849 0.097521774 
0.0 0.0 0.0 0.0 0.006246131 0.12834555 
0.0 0.0 0.0 0.0 0.0 0.09569047 
0.0 0.0 0.0 0.0 0.0 0.07858601 
0.0 0.0 0.0 0.0 0.0 0.07698792 
0.02153527 0.0 0.029886626 0.0 0.0 0.037004855 
0.70178515 0.0 0.0 0.0 0.0 0.21865031 
1.6905274 0.0 0.0 0.0 0.02215347 0.4653732 
2.0949118 0.05068817 0.0 0.012019654 0.92320657 0.40933523 
1.3667893 1.1707466 0.0 0.094926134 2.0146546 0.38992205 
0.0 1.8927224 0.0 0.019952651 2.5944893 0.23524047 
0.0 1.5940804 0.955402 0.096838 2.0768137 0.19341004 
0.0 0.7279189 1.2463815 0.051384743 1.2970968 0.41416565 
0.0 0.18796341 0.8557219 0.16430755 0.38986084 0.23485702 
0.0 0.0 0.12456413 0.014647772 0.0 0.102621034 
0.0 0.0 0.0 0.0 0.0 0.07698792 
0.0 0.0 0.0 0.0 0.0 0.07698792 
0.0 0.0 0.0 0.0 0.0 0.07698792 
0.0 0.0 0.0 0.0 0.0 0.07698792 
0.0 0.0 0.0 0.0 0.0 0.07698792 
0.0 0.0 0.0 0.0 0.0 0.07698792 
0.0 0.0 0.0 0.0 0.0 0.07698792 
0.0 0.0 0.0 0.0 0.0 0.07698792 
0.0 0.0 0.0 0.0 0.0 0.07698792 
0.0 0.0 0.0 0.0 0.0 0.07698792 
0.0 0.0 0.0 0.0 0.0 0.07698792 
0.0 0.0 0.0 0.0 0.0 0.07698792 
0.0 0.0 0.0 0.0 0.0 0.07698792 
0.0 0.0 0.0 0.0 0.0 0.07698792 
0.0 0.0 0.0 0.0 0.0 0.07698792 
0.0 0.0 0.0 0.0 0.0 0.07698792 
0.0 0.0 0.0 0.0 0.0 0.07698792 
0.0 0.0 0.0 0.0 0.0 0.06680607 
0.20139885 0.0 0.059282623 0.0 0.0 0.01877191 
1.1740572 0.0 0.0 0.0 0.0 0.31335458 
2.0206974 0.0 0.0 0.0 0.41410568 0.54537654 
1.9607687 0.48190483 0.0 0.0 1.277412 0.36756065 
0.8540453 1.4937247 0.0 0.0 2.4029703 0.31111062 
0.0 1.905919 0.33014932 0.0 2.5807993 0.15758681 
0.0 1.2784903 1.1392863 0.0 1.7911404 0.2038905 
0.0 0.36904952 0.995453 0.0 1.0134257 0.31325203 
0.0 0.007763951 0.488194 0.044473086 0.18052055 0.18568826 
0.0 0.0 0.0 0.0 0.0 0.082619295 
0.0 0.0 0.0 0.0 0.0 0.07698792 
0.0 0.0 0.0 0.0 0.0 0.07698792 
0.0 0.0 0.0 0.0 0.0 0.07698792 
0.0 0.0 0.0 0.0 0.0 0.07698792 
0.0 0.0 0.0 0.0 0.0 0.07698792 
0.0 0.0 0.0 0.0 0.0 0.07698792 
0.0 0.0 0.0 0.0 0.0 0.07698792 
0.0 0.0 0.0 0.0 0.0 0.07698792 
0.0 0.0 0.0 0.0 0.0 0.07698792 
0.0 0.0 0.0 0.0 0.0 0.07698792 
0.0 0.0 0.0 0.0 0.0 0.07698792 
0.0 0.0 0.0 0.0 0.0 0.07698792 
0.0 0.0 0.0 0.0 0.0 0.07698792 
0.0 0.0 0.0 0.0 0.0 0.07698792 
0.0 0.0 0.0 0.0 0.0 0.07698792 
0.0 0.0 0.0 0.0 0.0 0.07698792 
0.0 0.0 0.0 0.0 0.0 0.07698792 
0.0 0.0 0.0 0.0 0.0 0.061138388 
0.48276627 0.0 0.0 0.0 0.0 0.12801972 
1.5972204 0.0 0.0 0.0 0.0 0.42822078 
2.1586406 0.0 0.0 0.0 0.78715014 0.48532793 
1.6583366 0.8012987 0.0 0.0 1.715138 0.3384744 
0.23238122 1.7164019 0.0 0.0 2.6448805 0.17150024 
0.0 1.7599782 0.8121876 0.0 2.3044937 0.0 
0.0 1.0106803 1.3576871 0.0 1.4988316 0.21277484 
0.0 0.26613376 0.9247567 0.0 0.71944064 0.19043662 
0.0 0.0 0.18884176 0.0 0.046832282 0.1108398 
0.0 0.0 0.0 0.0 0.0 0.07698792 
0.0 0.0 0.0 0.0 0.0 0.07698792 
0.0 0.0 0.0 0.0 0.0 0.07698792 
0.0 0.0 0.0 0.0 0.0 0.07698792 
0.0 0.0 0.0 0.0 0.0 0.07698792 
0.0 0.0 0.0 0.0 0.0 0.07698792 
0.0 0.0 0.0 0.0 0.0 0.07698792 
0.0 0.0 0.0 0.0 0.0 0.07698792 
0.0 0.0 0.0 0.0 0.0 0.07698792 
0.0 0.0 0.0 0.0 0.0 0.07698792 
0.0 0.0 0.0 0.0 0.0 0.07698792 
0.0 0.0 0.0 0.0 0.0 0.07698792 
0.0 0.0 0.0 0.0 0.0 0.07698792 
0.0 0.0 0.0 0.0 0.0 0.07698792 
0.0 0.0 0.0 0.0 0.0 0.07698792 
0.0 0.0 0.0 0.0 0.0 0.07698792 
0.0 0.0 0.0 0.0 0.0 0.07698792 
0.0 0.0 0.0 0.0 0.0 0.07698792 
0.033931077 0.0 0.0 0.0 0.0 0.09774853 
0.7889774 0.0 0.0 0.07229759 0.0 0.38168326 
1.8476925 0.0 0.0 0.10185474 0.21647198 0.6441731 
2.083078 0.13111082 0.0 0.11003634 1.0769067 0.5523981 
1.3591199 1.1632077 0.0 0.084898315 2.0212133 0.41052616 
0.0 1.9681034 0.15847659 0.0 2.580127 0.056894183 
0.0 1.6368196 1.2083604 0.0 2.0145578 0.0 
0.0 0.8122797 1.4482198 0.0 1.2942053 0.20203944 
0.0 0.19509001 0.8379345 0.025228012 0.4783195 0.10425563 
0.0 0.0 0.0 0.0 0.0 0.082619295 
0.0 0.0 0.0 0.0 0.0 0.07698792 
0.0 0.0 0.0 0.0 0.0 0.07698792 
0.0 0.0 0.0 0.0 0.0 0.07698792 
0.0 0.0 0.0 0.0 0.0 0.07698792 
0.0 0.0 0.0 0.0 0.0 0.07698792 
0.0 0.0 0.0 0.0 0.0 0.07698792 
0.0 0.0 0.0 0.0 0.0 0.07698792 
0.0 0.0 0.0 0.0 0.0 0.07698792 
0.0 0.0 0.0 0.0 0.0 0.07698792 
0.0 0.0 0.0 0.0 0.0 0.07698792 
0.0 0.0 0.0 0.0 0.0 0.07698792 
0.0 0.0 0.0 0.0 0.0 0.07698792 
0.0 0.0 0.0 0.0 0.0 0.07698792 
0.0 0.0 0.0 0.0 0.0 0.07698792 
0.0 0.0 0.0 0.0 0.0 0.07698792 
0.0 0.0 0.0 0.0 0.0 0.07698792 
0.0 0.0 0.0 0.0 0.0 0.07698792 
0.0 0.0 0.0 0.0 0.0 0.07698792 
0.14581689 0.0 0.0 0.0 0.0 0.13503203 
1.1342101 0.0 0.0 0.060169455 0.0 0.55696666 
2.0128226 0.0 0.0 0.033190515 0.52395 0.7833229 
2.024387 0.28922173 0.0 0.0447711 1.2839932 0.5585065 
1.2246249 1.3589274 0.0 0.0 2.112289 0.3286616 
0.0 2.1663136 0.6388487 0.0 2.393901 0.0 
0.0 1.6144067 1.4924395 0.0 1.8094782 0.0 
0.0 0.8505549 1.4949845 0.0 1.1432453 0.0 
0.0 0.21207748 0.7072448 0.0 0.40714052 0.0 
0.0 0.0 0.0 0.0 0.0 0.07698792 
0.0 0.0 0.0 0.0 0.0 0.07698792 
0.0 0.0 0.0 0.0 0.0 0.07698792 
0.0 0.0 0.0 0.0 0.0 0.07698792 
0.0 0.0 0.0 0.0 0.0 0.07698792 
0.0 0.0 0.0 0.0 0.0 0.07698792 
0.0 0.0 0.0 0.0 0.0 0.07698792 
0.0 0.0 0.0 0.0 0.0 0.07698792 
0.0 0.0 0.0 0.0 0.0 0.07698792 
0.0 0.0 0.0 0.0 0.0 0.07698792 
0.0 0.0 0.0 0.0 0.0 0.07698792 
0.0 0.0 0.0 0.0 0.0 0.07698792 
0.0 0.0 0.0 0.0 0.0 0.07698792 
0.0 0.0 0.0 0.0 0.0 0.07698792 
0.0 0.0 0.0 0.0 0.0 0.07698792 
0.0 0.0 0.0 0.0 0.0 0.07698792 
0.0 0.0 0.0 0.0 0.0 0.07698792 
0.0 0.0 0.0 0.0 0.0 0.07698792 
0.0 0.0 0.0 0.0 0.0 0.06529765 
0.34492436 0.0 0.0 0.0 0.0 0.13767508 
1.491518 0.0 0.0 0.0 0.024399552 0.57983345 
2.1463823 0.0 0.0 0.0 0.71707076 0.70452124 
1.9363608 0.49589148 0.0 0.0 1.445891 0.44382483 
0.9960814 1.3832084 0.0 0.0 2.1179533 0.23403634 
0.0 2.0590637 1.0444868 0.0 2.2775 0.0 
0.0 1.726159 1.663037 0.0 1.7821375 0.0 
0.0 1.0662493 1.6598728 0.0 1.1614481 0.0 
0.0 0.15426964 0.5836794 0.0 0.5803121 0.0 
0.0 0.0 0.0 0.0 0.0 0.07698792 
0.0 0.0 0.0 0.0 0.0 0.07698792 
0.0 0.0 0.0 0.0 0.0 0.07698792 
0.0 0.0 0.0 0.0 0.0 0.07698792 
0.0 0.0 0.0 0.0 0.0 0.07698792 
0.0 0.0 0.0 0.0 0.0 0.07698792 
0.0 0.0 0.0 0.0 0.0 0.07698792 
0.0 0.0 0.0 0.0 0.0 0.07698792 
0.0 0.0 0.0 0.0 0.0 0.07698792 
0.0 0.0 0.0 0.0 0.0 0.07698792 
0.0 0.0 0.0 0.0 0.0 0.07698792 
0.0 0.0 0.0 0.0 0.0 0.07698792 
0.0 0.0 0.0 0.0 0.0 0.07698792 
0.0 0.0 0.0 0.0 0.0 0.07698792 
0.0 0.0 0.0 0.0 0.0 0.07698792 
0.0 0.0 0.0 0.0 0.0 0.07698792 
0.0 0.0 0.0 0.0 0.0 0.07698792 
0.0 0.0 0.0 0.0 0.0 0.07698792 
0.0 0.0 0.0 0.0 0.0 0.06893027 
0.5818259 0.0 0.0 0.0 0.0 0.2453033 
1.7581303 0.0 0.0 0.0 0.13527027 0.6036094 
2.1819308 0.0 0.0 0.0 0.9295052 0.59671533 
1.7535899 0.7198704 0.0 0.0 1.6872066 0.42036152 
0.8223208 1.295302 0.0 0.0 2.3432136 0.3193351 
0.0 1.9293897 1.1770269 0.029151525 2.3230033 0.0 
0.0 1.719684 1.7935387 0.08392121 1.9352702 0.0 
0.0 1.1318015 1.8778964 0.092167675 1.2868832 0.0 
0.0 0.2744572 0.7100674 0.0 0.57906365 0.0 
0.0 0.0 0.0 0.0 0.0 0.07698792 
0.0 0.0 0.0 0.0 0.0 0.07698792 
0.0 0.0 0.0 0.0 0.0 0.07698792 
0.0 0.0 0.0 0.0 0.0 0.07698792 
0.0 0.0 0.0 0.0 0.0 0.07698792 
0.0 0.0 0.0 0.0 0.0 0.07698792 
0.0 0.0 0.0 0.0 0.0 0.07698792 
0.0 0.0 0.0 0.0 0.0 0.07698792 
0.0 0.0 0.0 0.0 0.0 0.07698792 
0.0 0.0 0.0 0.0 0.0 0.07698792 
0.0 0.0 0.0 0.0 0.0 0.07698792 
0.0 0.0 0.0 0.0 0.0 0.07698792 
0.0 0.0 0.0 0.0 0.0 0.07698792 
0.0 0.0 0.0 0.0 0.0 0.07698792 
0.0 0.0 0.0 0.0 0.0 0.07698792 
0.0 0.0 0.0 0.0 0.0 0.07698792 
0.0 0.0 0.0 0.0 0.0 0.07698792 
0.0 0.0 0.0 0.0 0.0 0.07698792 
0.005166009 0.0 0.0 0.0011165887 0.0 0.1102489 
0.7743354 0.0 0.0 0.097503655 0.0 0.48084792 
1.8726981 0.0 0.0 0.14452729 0.3285084 0.7937809 
2.0984025 0.046215676 0.0 0.15578789 1.1373273 0.67763776 
1.6172543 0.88445044 0.0 0.11703646 1.8721591 0.5877681 
0.62898034 1.5462155 0.0 0.17949688 2.5942001 0.57517415 
0.0 1.931165 0.8938993 0.20708422 2.5357664 0.13171332 
0.0 1.7017896 1.636668 0.38403192 1.9459802 0.0 
0.0 0.9169077 1.7991095 0.3468422 1.1962963 0.23126924 
0.0 0.3555459 0.8874267 0.24877158 0.37967542 0.07004161 
0.0 0.0 0.0 0.0 0.0 0.07698792 
0.0 0.0 0.0 0.0 0.0 0.07698792 
0.0 0.0 0.0 0.0 0.0 0.07698792 
0.0 0.0 0.0 0.0 0.0 0.07698792 
0.0 0.0 0.0 0.0 0.0 0.07698792 
0.0 0.0 0.0 0.0 0.0 0.07698792 
0.0 0.0 0.0 0.0 0.0 0.07698792 
0.0 0.0 0.0 0.0 0.0 0.07698792 
0.0 0.0 0.0 0.0 0.0 0.07698792 
0.0 0.0 0.0 0.0 0.0 0.07698792 
0.0 0.0 0.0 0.0 0.0 0.07698792 
0.0 0.0 0.0 0.0 0.0 0.07698792 
0.0 0.0 0.0 0.0 0.0 0.07698792 
0.0 0.0 0.0 0.0 0.0 0.07698792 
0.0 0.0 0.0 0.0 0.0 0.07698792 
0.0 0.0 0.0 0.0 0.0 0.07698792 
0.0 0.0 0.0 0.0 0.0 0.07698792 
0.0 0.0 0.0 0.0 0.0 0.07698792 
0.020922028 0.0 0.0 0.04043282 0.0 0.1635399 
0.86270165 0.0 0.0 0.19177432 0.07334699 0.7702423 
1.8440511 0.0 0.0 0.26859695 0.59815174 1.1605315 
1.9967248 0.0026599308 0.0 0.33632606 1.2708564 0.98316306 
1.449667 0.84433323 0.0 0.38619575 2.0506377 0.99796015 
0.32075256 1.50994 0.0 0.33800837 2.961826 0.84721273 
0.0 1.7667949 0.44981146 0.21847655 2.6600144 0.46180922 
0.0 1.2093719 1.156882 0.2508816 1.7906164 0.36070323 
0.0 0.47714695 1.2733445 0.22505063 0.96683186 0.43879563 
0.0 0.14068858 0.7555901 0.19163074 0.20567788 0.14280003 
0.0 0.0 0.0 0.0 0.0 0.07698792 
0.0 0.0 0.0 0.0 0.0 0.07698792 
0.0 0.0 0.0 0.0 0.0 0.07698792 
0.0 0.0 0.0 0.0 0.0 0.07698792 
0.0 0.0 0.0 0.0 0.0 0.07698792 
0.0 0.0 0.0 0.0 0.0 0.07698792 
0.0 0.0 0.0 0.0 0.0 0.07698792 
0.0 0.0 0.0 0.0 0.0 0.07698792 
0.0 0.0 0.0 0.0 0.0 0.07698792 
0.0 0.0 0.0 0.0 0.0 0.07698792 
0.0 0.0 0.0 0.0 0.0 0.07698792 
0.0 0.0 0.0 0.0 0.0 0.07698792 
0.0 0.0 0.0 0.0 0.0 0.07698792 
0.0 0.0 0.0 0.0 0.0 0.07698792 
0.0 0.0 0.0 0.0 0.0 0.07698792 
0.0 0.0 0.0 0.0 0.0 0.07698792 
0.0 0.0 0.0 0.0 0.0 0.07698792 
0.0 0.0 0.0 0.0 0.0 0.07698792 
0.026383318 0.0 0.0 0.015847985 0.0069230907 0.17217314 
0.7848686 0.0 0.0 0.12467617 0.40324527 0.8698488 
1.4734828 0.0 0.0 0.3030946 0.91526663 1.4891007 
1.5204184 0.0 0.0 0.57619077 1.5339059 1.6135893 
1.1052349 0.37432566 0.0 0.87398076 2.2661521 1.8157482 
0.0 1.1364056 0.0 0.8654845 2.7536259 1.4483662 
0.0 1.1408957 0.3378874 0.54942125 2.2008822 0.91282004 
0.0 0.59899026 0.85889304 0.22557452 1.2587847 0.6222069 
0.0 0.20594184 0.8294852 0.11491117 0.53339547 0.39346027 
0.0 0.0 0.37413055 0.020792626 0.09111297 0.13199298 
0.0 0.0 0.0 0.0 0.0 0.07698792 
0.0 0.0 0.0 0.0 0.0 0.07698792 
0.0 0.0 0.0 0.0 0.0 0.07698792 
0.0 0.0 0.0 0.0 0.0 0.07698792 
0.0 0.0 0.0 0.0 0.0 0.07698792 
0.0 0.0 0.0 0.0 0.0 0.07698792 
0.0 0.0 0.0 0.0 0.0 0.07698792 
0.0 0.0 0.0 0.0 0.0 0.07698792 
0.0 0.0 0.0 0.0 0.0 0.07698792 
0.0 0.0 0.0 0.0 0.0 0.07698792 
0.0 0.0 0.0 0.0 0.0 0.07698792 
0.0 0.0 0.0 0.0 0.0 0.07698792 
0.0 0.0 0.0 0.0 0.0 0.07698792 
0.0 0.0 0.0 0.0 0.0 0.07698792 
0.0 0.0 0.0 0.0 0.0 0.07698792 
0.0 0.0 0.0 0.0 0.0 0.07698792 
0.0 0.0 0.0 0.0 0.0 0.07698792 
0.0 0.0 0.0 0.0 0.0 0.07698792 
0.0 0.0 0.0 0.0 0.00968327 0.13314186 
0.56537193 0.0 0.0 0.00085495505 0.4796789 0.68523216 
1.1050057 0.0 0.0 0.085025705 1.0519935 1.3430364 
1.0072055 0.0 0.0 0.21565387 1.5258757 1.5401025 
0.5843959 0.051019117 0.0 0.37810364 1.9549626 1.6609254 
0.0 0.47074905 0.0 0.42877528 1.8961579 1.351501 
0.0 0.53838664 0.24247676 0.3388259 1.173318 0.86135536 
0.0 0.21086097 0.61467034 0.104345135 0.590566 0.5352988 
0.0 0.001427508 0.4657827 0.0045374827 0.23641182 0.24749525 
0.0 0.0 0.06330899 0.0 0.014246482 0.09303661 
0.0 0.0 0.0 0.0 0.0 0.07698792 
0.0 0.0 0.0 0.0 0.0 0.07698792 
0.0 0.0 0.0 0.0 0.0 0.07698792 
0.0 0.0 0.0 0.0 0.0 0.07698792 
0.0 0.0 0.0 0.0 0.0 0.07698792 
0.0 0.0 0.0 0.0 0.0 0.07698792 
0.0 0.0 0.0 0.0 0.0 0.07698792 
0.0 0.0 0.0 0.0 0.0 0.07698792 
0.0 0.0 0.0 0.0 0.0 0.07698792 
0.0 0.0 0.0 0.0 0.0 0.07698792 
0.0 0.0 0.0 0.0 0.0 0.07698792 
0.0 0.0 0.0 0.0 0.0 0.07698792 
0.0 0.0 0.0 0.0 0.0 0.07698792 
0.0 0.0 0.0 0.0 0.0 0.07698792 
0.0 0.0 0.0 0.0 0.0 0.07698792 
0.0 0.0 0.0 0.0 0.0 0.07698792 
0.0 0.0 0.0 0.0 0.0 0.07698792 
0.0 0.0 0.0 0.0 0.0 0.07698792 
0.0 0.0 0.0 0.0 0.0 0.0930787 
0.2730949 0.0 0.0 0.0 0.3245618 0.37262172 
0.65764236 0.0 0.0 0.0 0.7512089 0.8460894 
0.65014905 0.0 0.0 0.0 1.0789384 1.1301568 
0.35398453 0.0 0.0 0.0 1.1610222 1.1900561 
0.0 0.0 0.0 0.0 0.81904334 0.89493936 
0.0 0.0 0.0 0.0 0.46693084 0.5625223 
0.0 0.0 0.2908646 0.0 0.2545723 0.3357845 
0.0 0.0 0.18351448 0.0 0.06546311 0.123478666 
0.0 0.0 0.0 0.0 0.0 0.07843382 
0.0 0.0 0.0 0.0 0.0 0.07698792 
0.0 0.0 0.0 0.0 0.0 0.07698792 
0.0 0.0 0.0 0.0 0.0 0.07698792 
0.0 0.0 0.0 0.0 0.0 0.07698792 
0.0 0.0 0.0 0.0 0.0 0.07698792 
0.0 0.0 0.0 0.0 0.0 0.07698792 
0.0 0.0 0.0 0.0 0.0 0.07698792 
0.0 0.0 0.0 0.0 0.0 0.07698792 

