0.0 0.0 0.0 0.0 0.0 0.07698792 
0.0 0.0 0.0 0.0 0.0 0.07698792 
0.0 0.0 0.0 0.0 0.0 0.07698792 
0.0 0.0 0.0 0.0 0.0 0.07698792 
0.0 0.0 0.0 0.0 0.0 0.07698792 
0.0 0.0 0.0 0.0 0.0 0.07698792 
0.0 0.0 0.0 0.0 0.0 0.07698792 
0.0 0.0 0.0 0.0 0.0 0.07698792 
0.0 0.0 0.0 0.0 0.0 0.07698792 
0.0 0.0 0.0 0.0 0.0 0.07698792 
0.0 0.0 0.0 0.0 0.0 0.07698792 
0.0 0.0 0.0 0.0 0.0 0.07698792 
0.0 0.0 0.0 0.0 0.0 0.07698792 
0.0 0.0 0.0 0.0 0.0 0.07698792 
0.0 0.0 0.0 0.0 0.0 0.07698792 
0.0 0.0 0.0 0.0 0.0 0.07698792 
0.0 0.0 0.0 0.0 0.0 0.07698792 
0.0 0.0 0.0 0.0 0.0 0.07698792 
0.0 0.0 0.0 0.0 0.0 0.07698792 
0.0 0.0 0.0 0.0 0.0 0.07698792 
0.0 0.0 0.0 0.0 0.0 0.07698792 
0.0 0.0 0.0 0.0 0.0 0.07698792 
0.0 0.0 0.0 0.0 0.0 0.07698792 
0.0 0.0 0.0 0.0 0.0 0.07698792 
0.0 0.0 0.0 0.0 0.0 0.07698792 
0.0 0.0 0.0 0.0 0.0 0.07698792 
0.0 0.0 0.0 0.0 0.0 0.07698792 
0.0 0.0 0.0 0.0 0.0 0.07698792 
0.0 0.0 0.0 0.0 0.0 0.07698792 
0.0 0.0 0.0 0.0 0.0 0.07698792 
0.0 0.0 0.0 0.0 0.0 0.07698792 
0.0 0.0 0.0 0.0 0.0 0.07698792 
0.0 0.0 0.0 0.0 0.0 0.07698792 
0.0 0.0 0.0 0.0 0.0 0.07698792 
0.0 0.0 0.0 0.0 0.0 0.07698792 
0.0 0.0 0.0 0.0 0.0 0.07698792 
0.0 0.0 0.0 0.0 0.0 0.07698792 
0.0 0.0 0.0 0.0 0.0 0.07698792 
0.0 0.0 0.0 0.0 0.0 0.07698792 
0.0 0.0 0.0 0.0 0.0 0.07698792 
0.0 0.0 0.0 0.0 0.0 0.07698792 
0.0 0.0 0.0 0.0 0.0 0.07698792 
0.0 0.0 0.0 0.0 0.0 0.07698792 
0.0 0.0 0.0 0.0 0.0 0.07698792 
0.0 0.0 0.0 0.0 0.0 0.07698792 
0.0 0.0 0.0 0.0 0.0 0.07698792 
0.0 0.0 0.0 0.0 0.0 0.07698792 
0.0 0.0 0.0 0.0 0.0 0.07698792 
0.0 0.0 0.0 0.0 0.0 0.07698792 
0.0 0.0 0.0 0.0 0.0 0.07698792 
0.0 0.0 0.0 0.0 0.0 0.07698792 
0.0 0.0 0.0 0.0 0.0 0.07698792 
0.0 0.0 0.0 0.0 0.0 0.07698792 
0.0 0.0 0.0 0.0 0.0 0.07698792 
0.0 0.0 0.0 0.0 0.0 0.07698792 
0.0 0.0 0.0 0.0 0.0 0.07698792 
0.0 0.0 0.0 0.0 0.0 0.07698792 
0.0 0.0 0.0 0.0 0.0 0.07698792 
0.0 0.0 0.0 0.0 0.0 0.07698792 
0.0 0.0 0.0 0.0 0.0 0.07698792 
0.0 0.0 0.0 0.0 0.0 0.07698792 
0.0 0.0 0.0 0.0 0.0 0.07698792 
0.0 0.0 0.0 0.0 0.0 0.07698792 
0.0 0.0 0.0 0.0 0.0 0.058132634 
0.07613328 0.0 0.0816148 0.0 0.0 0.0 
0.24526021 0.051121935 0.22674799 0.0 0.0 0.0 
0.3064472 0.25822312 0.27814808 0.0 0.0 0.0 
0.17900026 0.40332118 0.30641305 0.0 0.0 0.0 
0.1059621 0.45200107 0.32481608 0.0 0.0 0.0 
0.08156595 0.39766994 0.26586893 0.0 0.0 0.0 
0.058625415 0.30458978 0.17580032 0.0 0.0 0.0 
0.0 0.25456142 0.09593838 0.0 0.0 0.0 
0.0 0.1826172 0.052690737 0.0 0.0 0.0 
0.0 0.106479496 0.0 0.0 0.0006440766 0.0 
0.0 0.027087092 0.0 0.0 0.0 0.04415924 
0.0 0.0 0.0 0.0 0.0 0.07698792 
0.0 0.0 0.0 0.0 0.0 0.07698792 
0.0 0.0 0.0 0.0 0.0 0.07698792 
0.0 0.0 0.0 0.0 0.0 0.07698792 
0.0 0.0 0.0 0.0 0.0 0.07698792 
0.0 0.0 0.0 0.0 0.0 0.07698792 
0.0 0.0 0.0 0.0 0.0 0.07698792 
0.0 0.0 0.0 0.0 0.0 0.07698792 
0.0 0.0 0.0 0.0 0.0 0.07698792 
0.0 0.0 0.0 0.0 0.0 0.07698792 
0.0 0.0 0.0 0.0 0.0 0.07698792 
0.0 0.0 0.0 0.0 0.0 0.07698792 
0.0 0.0 0.0 0.0 0.0 0.07698792 
0.0 0.0 0.0 0.0 0.0 0.07698792 
0.0 0.0 0.0 0.0 0.0 0.07698792 
0.0 0.0 0.0 0.0 0.0 0.05888685 
0.15755235 0.0 0.12376959 0.0 0.0 0.0 
0.4828617 0.0 0.21334136 0.0 0.0 0.0 
0.7279792 0.11046923 0.33744192 0.0 0.0 0.0 
0.8489971 0.52892154 0.6320907 0.0 0.0 0.0 
0.6063119 0.9933792 0.85732234 0.0 0.0 0.0 
0.2330578 1.1151822 1.0238824 0.0 0.15851858 0.0 
0.10688493 0.9076293 0.9608884 0.0 0.2213976 0.0 
0.23840511 0.82917315 0.82209074 0.0 0.103694946 0.0 
0.18607327 0.89512223 0.73533297 0.0 0.10735498 0.0 
0.0 0.84819764 0.57784986 0.0 0.19615795 0.0 
0.0 0.5857054 0.40507337 0.0 0.2173151 0.0 
0.0 0.33653778 0.16437656 0.0 0.14480898 0.0 
0.0 0.16230759 0.024777897 0.0 0.035232697 0.0 
0.0 0.0537595 0.0 0.0 0.0 0.0 
0.0 0.0096924165 0.0 0.0 0.0 0.06031304 
0.0 0.0 0.0 0.0 0.0 0.07698792 
0.0 0.0 0.0 0.0 0.0 0.07698792 
0.0 0.0 0.0 0.0 0.0 0.07698792 
0.0 0.0 0.0 0.0 0.0 0.07698792 
0.0 0.0 0.0 0.0 0.0 0.07698792 
0.0 0.0 0.0 0.0 0.0 0.07698792 
0.0 0.0 0.0 0.0 0.0 0.07698792 
0.0 0.0 0.0 0.0 0.0 0.07698792 
0.0 0.0 0.0 0.0 0.0 0.07698792 
0.0 0.0 0.0 0.0 0.0 0.07698792 
0.0 0.0 0.0 0.0 0.0 0.07698792 
0.0 0.0 0.0 0.0 0.0 0.05888685 
0.15114424 0.0 0.11822974 0.0 0.0 0.0 
0.5780214 0.0 0.13755468 0.0 0.0 0.0 
1.0232935 0.0 0.24949074 0.0 0.0 0.0 
1.3235669 0.18403742 0.38005453 0.0 0.0 0.0 
1.0088372 0.80786365 0.8326166 0.0 0.30326268 0.0 
0.47885513 1.1451175 1.288417 0.0 0.80478716 0.0 
0.31767368 1.3234239 1.6346135 0.0 0.87276936 0.0 
0.35165936 1.3298965 1.6755626 0.0 0.75562716 0.0 
0.37394473 1.2577119 1.4792112 0.0 0.6354341 0.0 
0.24514598 1.3336315 1.4430279 0.0 0.6105817 0.0 
0.05675958 1.4106183 1.4770293 0.0 0.6226727 0.0 
0.0 1.320565 1.3009856 0.0 0.52000064 0.0 
0.0 1.0289061 0.9359689 0.0 0.40768626 0.0 
0.0 0.701969 0.47235858 0.0 0.3123542 0.0 
0.0 0.45049146 0.25017023 0.0 0.18205354 0.0 
0.0 0.21930495 0.07381416 0.0 0.106378734 0.0 
0.0 0.064062566 0.0 0.0 0.007555101 0.006455496 
0.0 0.0 0.0 0.0 0.0 0.07438247 
0.0 0.0 0.0 0.0 0.0 0.07698792 
0.0 0.0 0.0 0.0 0.0 0.07698792 
0.0 0.0 0.0 0.0 0.0 0.07698792 
0.0 0.0 0.0 0.0 0.0 0.07698792 
0.0 0.0 0.0 0.0 0.0 0.07698792 
0.0 0.0 0.0 0.0 0.0 0.07698792 
0.0 0.0 0.0 0.0 0.0 0.07698792 
0.0 0.0 0.0 0.0 0.0 0.07698792 
0.0 0.0 0.0 0.0 0.0 0.07698792 
0.09263225 0.0 0.08913741 0.0 0.0 0.01022049 
0.55909413 0.0 0.11603207 0.0 0.0 0.0 
1.145174 0.0 0.11951394 0.0 0.0 0.0 
1.5630248 0.15709797 0.1578362 0.0 0.0 0.0 
1.4122217 0.8507524 0.3120072 0.072569996 0.6733619 0.0 
0.9515194 1.3286201 0.6531911 0.27778104 1.3700652 0.0 
0.60984725 1.6729981 1.2329656 0.4987882 1.5085895 0.0 
0.5086039 1.6903303 1.6920712 0.60003835 1.44865 0.0 
0.45438075 1.6605864 1.8861561 0.6227022 1.421109 0.0 
0.45550597 1.5930619 1.7438824 0.4938257 1.3745415 0.0 
0.338243 1.6055323 1.7813697 0.34081477 1.2704238 0.0 
0.14549723 1.6891377 2.0163956 0.1753265 1.0961539 0.0 
0.067283526 1.6566066 2.0848908 0.0 0.9285053 0.0 
0.025169209 1.6079527 1.8874778 0.0 0.7496756 0.0 
0.0 1.4879342 1.4249179 0.0 0.67807895 0.0 
0.0 1.1747289 0.9149687 0.0 0.63266367 0.0 
0.0 0.6785397 0.5467463 0.0 0.48640242 0.0 
0.0 0.26536882 0.14993757 0.0 0.26377395 0.0 
0.0 0.07236007 0.0 0.0 0.02721366 0.00015214086 
0.0 0.0 0.0 0.0 0.0 0.07698792 
0.0 0.0 0.0 0.0 0.0 0.07698792 
0.0 0.0 0.0 0.0 0.0 0.07698792 
0.0 0.0 0.0 0.0 0.0 0.07698792 
0.0 0.0 0.0 0.0 0.0 0.07698792 
0.0 0.0 0.0 0.0 0.0 0.07698792 
0.0 0.0 0.0 0.0 0.0 0.07698792 
0.0 0.0 0.0 0.0 0.0 0.07698792 
0.0 0.0 0.0 0.0 0.0 0.07698792 
0.24643636 0.0 0.0 0.0 0.0 0.10099014 
1.0453205 0.0 0.0038252398 0.0 0.0 0.13811606 
1.6891737 0.0 0.0 0.093657225 0.0 0.10656621 
1.7539787 0.57914037 0.0 0.20038775 0.8161241 0.029613711 
1.357482 1.1071527 0.0 0.06376907 1.9150308 0.16303998 
1.1143055 1.448366 0.04955157 0.18695843 2.2861705 0.37291974 
0.63064665 1.5931159 0.23693213 0.35408723 2.424875 0.53211915 
0.31889856 1.4195411 0.43674207 0.5669687 2.533489 0.81578916 
0.32950878 1.2335633 0.66398627 0.90421057 2.4632523 1.0429467 
0.44405353 1.2080203 0.68991697 1.1677859 2.2059183 1.1223023 
0.4201065 1.2994834 0.8925103 1.2321528 1.8574959 0.8631056 
0.29313233 1.3904996 1.4180839 0.9984619 1.6143959 0.33064756 
0.22443256 1.5201334 1.9315845 0.78823715 1.4000678 0.0 
0.12451561 1.607619 2.1806605 0.5102946 1.2134848 0.0 
0.0 1.8117963 2.2222497 0.1354713 1.073354 0.0 
0.0 1.832079 1.9351006 0.0 1.04317 0.0 
0.0 1.5242479 1.414337 0.0 0.8662144 0.0 
0.0 0.80376464 0.75349855 0.0 0.61355823 0.0 
0.0 0.2627939 0.1655688 0.0 0.29467562 0.0 
0.0 0.076643296 0.0 0.0 0.020583276 0.0 
0.0 0.0 0.0 0.0 0.0 0.07490356 
0.0 0.0 0.0 0.0 0.0 0.07698792 
0.0 0.0 0.0 0.0 0.0 0.07698792 
0.0 0.0 0.0 0.0 0.0 0.07698792 
0.0 0.0 0.0 0.0 0.0 0.07698792 
0.0 0.0 0.0 0.0 0.0 0.07698792 
0.0 0.0 0.0 0.0 0.0 0.07698792 
0.0 0.0 0.0027583987 0.0 0.0 0.048704993 
0.5695846 0.0 0.0 0.0 0.0 0.22868405 
1.4717593 0.0 0.0 0.13800108 0.0 0.39419702 
1.9909761 0.0 0.0 0.13671055 0.68062544 0.3648815 
1.7907748 0.87193066 0.0 0.21154472 1.5405197 0.3804126 
1.2548242 1.3037479 0.0 0.055483904 2.346228 0.43721277 
0.81567353 1.4666262 0.0 0.10819615 2.7884357 0.68283904 
0.3024883 1.3421066 0.0 0.22090495 3.1805198 0.9343609 
0.011424094 1.1684383 0.0 0.46249503 3.2399948 1.2671866 
0.0 0.6508194 0.0 0.7096764 3.0326054 1.7358165 
0.3038151 0.15441704 0.0 0.9464765 2.6499672 1.9944704 
0.6481169 0.24311197 0.0 1.1648237 2.2750957 1.9956048 
0.5935186 0.5226645 0.0 1.3214846 2.0236478 1.7987735 
0.52765214 0.72481936 0.4064224 1.3037058 1.8587867 1.4396918 
0.50421506 1.0834239 1.0513167 1.1899562 1.6365042 0.835244 
0.19161785 1.5098215 1.7728584 0.8888567 1.3595172 0.0 
0.0 1.9183933 2.3514957 0.45180744 1.2078123 0.0 
0.0 2.0351605 2.24579 0.0 1.2255081 0.0 
0.0 1.5695108 1.6279421 0.0 0.985522 0.0 
0.0 0.7613952 0.74163306 0.0 0.6322239 0.0 
0.0 0.16359754 0.0951725 0.0 0.29464504 0.0 
0.0 0.009550304 0.0 0.0 0.0 0.058874 
0.0 0.0 0.0 0.0 0.0 0.07698792 
0.0 0.0 0.0 0.0 0.0 0.07698792 
0.0 0.0 0.0 0.0 0.0 0.07698792 
0.0 0.0 0.0 0.0 0.0 0.07698792 
0.0 0.0 0.0 0.0 0.0 0.07698792 
0.0 0.0 0.0 0.0 0.0 0.07698792 
0.0425087 0.0 0.0 0.0 0.0 0.056216292 
0.92124933 0.0 0.0 0.054937657 0.0 0.4231217 
1.9217014 0.0 0.0 0.0 0.2937732 0.7267921 
2.044969 0.2319378 0.0 0.011107889 1.0850414 0.5358392 
1.6382885 0.92111164 0.0 0.0 1.8765663 0.5169772 
0.96613795 1.3837873 0.0 0.013358102 2.6475916 0.6218855 
0.39637095 1.4920303 0.07668202 0.096803606 3.104016 0.74260265 
0.0 1.6016724 0.051483855 0.15979525 3.179197 0.83394545 
0.0 1.2151544 0.0 0.17462532 2.9277184 1.2308068 
0.0 0.44174248 0.0 0.08441095 2.4370897 1.740025 
0.38871482 0.00455641 0.0 0.15328103 1.8889381 1.909241 
0.55418515 0.0 0.0 0.21918568 1.8664118 1.9351618 
0.6119251 0.0 0.0 0.48150373 2.0035977 2.0404363 
0.79574656 0.0 0.0 0.7400041 1.9109262 2.048115 
1.0629756 0.071573086 0.0 0.9141142 1.7312716 1.7508829 
0.9296275 0.7180311 0.11581554 0.88845605 1.5553988 1.1102862 
0.29324287 1.4127138 1.3818293 0.6647169 1.39612 0.110291205 
0.0 1.9405992 2.3911023 0.30473807 1.468353 0.0 
0.0 2.014068 2.3190172 0.0 1.3331968 0.0 
0.0 1.4447504 1.6336437 0.0 0.94442874 0.0 
0.0 0.53181946 0.5560422 0.0 0.55895877 0.0 
0.0 0.14129989 0.024968512 0.0 0.1062807 0.0 
0.0 0.0096924165 0.0 0.0 0.0 0.06031304 
0.0 0.0 0.0 0.0 0.0 0.07698792 
0.0 0.0 0.0 0.0 0.0 0.07698792 
0.0 0.0 0.0 0.0 0.0 0.07698792 
0.0 0.0 0.0 0.0 0.0 0.07698792 
0.0 0.0 0.0 0.0 0.0 0.07698792 
0.23563117 0.0 0.04053007 0.0 0.0 0.08888422 
1.3491485 0.0 0.0 0.0 0.0 0.4264131 
2.092842 0.0 0.0 0.0 0.6109674 0.6164809 
1.9871285 0.39270335 0.0 0.0 1.354494 0.36664104 
1.4897337 1.0548854 0.0 0.0 2.2018578 0.53693354 
0.8107957 1.3580211 0.13443181 0.0 2.8087263 0.57455754 
0.074813515 1.8193902 0.25949925 0.0 3.0459929 0.40318722 
0.0 1.6092021 0.34309486 0.0 2.883094 0.3696025 
0.0 0.8876782 0.32923353 0.0 2.2577698 0.5710821 
0.0 0.019075394 0.0 0.0 1.6304011 0.8589103 
0.21415487 0.0 0.0 0.0 1.2291572 1.0634016 
0.40901324 0.0 0.0 0.0 1.2925116 1.2061839 
0.54335 0.0 0.0 0.0 1.3999912 1.4838502 
0.7986597 0.0 0.0 0.0 1.4914757 1.8595486 
1.101176 0.0 0.0 0.123900205 1.5407177 1.9910338 
1.3298492 0.0 0.0 0.5288537 1.581801 1.7494438 
1.0019109 0.62227756 0.0 0.78054637 1.5220182 1.143491 
0.07571052 1.553252 1.4077027 0.566403 1.4944841 0.040454507 
0.0 1.9277782 2.4060576 0.17843169 1.4599718 0.0 
0.0 1.9246417 2.2883766 0.0 1.2062969 0.0 
0.0 1.2477187 1.388609 0.0 0.80235296 0.0 
0.0 0.39155552 0.33058438 0.0 0.43398744 0.0 
0.0 0.10282346 0.0 0.0 0.09709586 0.0 
0.0 0.0 0.0 0.0 0.0 0.07698792 
0.0 0.0 0.0 0.0 0.0 0.07698792 
0.0 0.0 0.0 0.0 0.0 0.07698792 
0.0 0.0 0.0 0.0 0.0 0.07698792 
0.0 0.0 0.0 0.0 0.0 0.07698792 
0.43568116 0.0 0.0 0.005148192 0.0 0.24036364 
1.648757 0.0 0.0 0.016102683 0.0 0.6104447 
2.1860862 0.0 0.0 0.0 0.7929663 0.6345148 
1.8285275 0.7336895 0.0 0.0 1.5305771 0.39382654 
1.2161291 1.1646588 0.0 0.0 2.4626555 0.53173935 
0.7273018 1.454977 0.28109848 0.0 2.7076797 0.4704841 
0.0 1.875373 0.6163233 0.0 2.7681403 0.011667542 
0.0 1.8107408 0.9842042 0.0 2.1800506 0.0 
0.0 1.0365503 1.2523466 0.0 1.4697002 0.0 
0.0 0.15385781 0.5666206 0.0 0.9894199 0.051930748 
0.010319956 0.0 0.0 0.0 0.5103512 0.25740498 
0.21655494 0.0 0.0 0.0 0.50391537 0.35372844 
0.3451927 0.0 0.0 0.0 0.7271329 0.55944073 
0.6562668 0.0 0.0 0.0 1.0304638 1.0544982 
1.0145574 0.0 0.0 0.0 1.3287219 1.5820534 
1.3155696 0.0 0.0 0.0 1.4268785 1.7609379 
1.4804275 0.0 0.0 0.39381605 1.5367205 1.5957568 
0.85654616 0.73611623 0.0 0.54179186 1.493304 0.8229211 
0.0 1.6425714 1.6362345 0.41978714 1.3564006 0.0 
0.0 1.9096018 2.3505816 0.07581209 1.5851816 0.0 
0.0 1.6568059 2.0428185 0.0 1.250558 0.0 
0.0 0.9025296 0.98666275 0.0 0.7535284 0.0 
0.0 0.13293064 0.14437306 0.0 0.36434463 0.0 
0.0 0.0 0.0 0.0 0.0 0.07698792 
0.0 0.0 0.0 0.0 0.0 0.07698792 
0.0 0.0 0.0 0.0 0.0 0.07698792 
0.0 0.0 0.0 0.0 0.0 0.07698792 
0.0 0.0 0.0 0.0 0.0 0.07698792 
0.6955343 0.0 0.0 0.03241132 0.0 0.4723186 
1.8739231 0.0 0.0 0.11162816 0.2265367 0.7829257 
2.1483073 0.0 0.0 0.09145042 1.0701197 0.64154655 
1.7122843 0.8602845 0.0 0.097079426 1.7695858 0.5447099 
1.0798213 1.2683083 0.0 0.0 2.6140943 0.5642065 
0.6968088 1.3324858 0.3403412 0.0 2.6564991 0.4406102 
0.0 1.8885208 0.94410634 0.0 2.325246 0.0 
0.0 1.8345122 1.6042525 0.0 1.9372255 0.0 
0.0 1.3482345 1.8539201 0.0 1.3992654 0.0 
0.0 0.5235938 1.0330088 0.0 0.7811153 0.0 
0.0 0.029716026 0.03681633 0.0 0.15713038 0.0 
0.0 0.0 0.0 0.0 0.0 0.088127695 
0.017496467 0.0 0.0 0.0 0.07773043 0.13869704 
0.3295425 0.0 0.0 0.0 0.41233364 0.41971543 
0.7661555 0.0 0.0 0.0 0.81705856 0.9619186 
1.2725372 0.0 0.0 0.0 0.99994475 1.4908822 
1.7458465 0.0 0.0 0.0 1.2125734 1.6026278 
1.4633672 0.09639717 0.0 0.2160205 1.351003 1.1458423 
0.57889754 1.1396267 0.53123677 0.36617056 1.4692255 0.3271313 
0.0 2.042026 1.9234785 0.31509945 1.8367876 0.0 
0.0 1.7848917 2.2519915 0.20460036 1.6261925 0.0 
0.0 1.239464 1.6749946 0.09313956 1.019909 0.0 
0.0 0.3224158 0.4754622 0.0 0.4742969 0.0 
0.0 0.0 0.0 0.0 0.0 0.07698792 
0.0 0.0 0.0 0.0 0.0 0.07698792 
0.0 0.0 0.0 0.0 0.0 0.07698792 
0.0 0.0 0.0 0.0 0.0 0.07698792 
0.0 0.0 0.0 0.0 0.0 0.07698792 
0.83147144 0.0 0.0 0.14604571 0.0 0.6855816 
1.9553151 0.0 0.0 0.15911548 0.46119377 1.095752 
2.0933867 0.0053418344 0.0 0.18888061 1.1745799 0.8253547 
1.7011497 0.85749024 0.0 0.19380198 1.8266282 0.7692764 
0.95923024 1.3238143 0.12030921 0.034531828 2.6310036 0.63700527 
0.7182409 1.3548297 0.34725505 0.0 2.5617661 0.49944562 
0.0 1.8252118 0.9515785 0.0 2.2820585 0.0 
0.0 1.9732491 1.7672485 0.008733449 1.97728 0.0 
0.0 1.5303738 2.114246 0.027484592 1.5052327 0.0 
0.0 0.81499547 1.3712062 0.0 0.8785443 0.0 
0.0 0.14565544 0.17942482 0.0 0.23136409 0.0 
0.0 0.0 0.0 0.0 0.0 0.07698792 
0.0 0.0 0.0 0.0 0.0 0.07698792 
0.045555256 0.0 0.0 0.0 0.11451277 0.15937337 
0.3563325 0.0 0.0 0.0 0.46230707 0.43071684 
0.99697167 0.0 0.0 0.0 0.68879676 1.0644027 
1.675786 0.0 0.0 0.0 0.95230335 1.498631 
1.8968222 0.0 0.0 0.0 1.3543476 1.3314462 
1.1912446 0.6779405 0.0 0.27008203 1.5958171 0.8617746 
0.0 1.9245623 1.19572 0.17519957 1.9412762 0.0 
0.0 2.0168283 1.9803742 0.0 1.7895709 0.0 
0.0 1.3160449 2.0227416 0.0 1.1652921 0.0 
0.0 0.55150384 0.8728559 0.0 0.55095655 0.0 
0.0 0.05065408 0.0 0.0 0.0 0.022273451 
0.0 0.0 0.0 0.0 0.0 0.07698792 
0.0 0.0 0.0 0.0 0.0 0.07698792 
0.0 0.0 0.0 0.0 0.0 0.07698792 
0.0 0.0 0.0 0.0 0.0 0.07698792 
0.8745369 0.0 0.0 0.07092529 0.22144647 0.8000852 
1.8974872 0.0 0.0 0.13733813 0.66777515 1.2824681 
2.031029 0.0 0.0 0.14832962 1.2295295 0.9931938 
1.7278752 0.63650924 0.0 0.16908911 1.874986 1.017235 
0.9375232 1.1942394 0.12384481 0.12763113 2.5952973 0.741448 
0.7159404 1.2702198 0.17962503 0.021571394 2.7520688 0.68099904 
0.0 1.7326547 0.54254013 0.18441685 2.534487 0.3204207 
0.0 1.8436184 1.3489612 0.24004585 2.2104628 0.0 
0.0 1.4766002 1.9052657 0.339857 1.6186843 0.0 
0.0 0.72619236 1.5089484 0.21231052 0.92505467 0.019469932 
0.0 0.18554251 0.36635274 0.07938654 0.20966439 0.04045542 
0.0 0.0 0.0 0.0 0.0 0.07698792 
0.0 0.0 0.0 0.0 0.0 0.07698792 
0.0 0.0 0.0 0.0 0.0 0.081320055 
0.029059306 0.0 0.0 0.0 0.07531209 0.15449522 
0.68685687 0.0 0.0 0.0 0.4610032 0.7087223 
1.5496798 0.0 0.0 0.0 0.6720084 1.2209082 
1.951786 0.0 0.0 0.0 1.0948793 1.1745772 
1.7093153 0.29077104 0.0 0.0 1.6096674 0.935095 
0.2211807 1.7470806 0.5433253 0.054545943 1.8296746 0.0 
0.0 1.9261895 1.6798643 0.0 1.9183395 0.0 
0.0 1.4188254 1.9855691 0.0 1.3811394 0.0 
0.0 0.60759556 1.1611232 0.0 0.7711627 0.0 
0.0 0.046362523 0.020480491 0.0 0.15141474 0.0 
0.0 0.0 0.0 0.0 0.0 0.07698792 
0.0 0.0 0.0 0.0 0.0 0.07698792 
0.0 0.0 0.0 0.0 0.0 0.07698792 
0.0 0.0 0.0 0.0 0.0 0.07698792 
0.75902283 0.0 0.0 0.035675626 0.29066655 0.71912926 
1.7538092 0.0 0.0 0.046438005 0.65532213 1.2559781 
1.9861608 0.0 0.0 0.032990273 1.1154655 1.0583429 
1.8429368 0.42880318 0.0 0.051621106 1.7532128 1.0257082 
0.935589 1.2236065 0.0 0.1957308 2.5834856 0.8301629 
0.3473354 1.2435832 0.0 0.19911666 3.0689194 0.94481033 
0.0 1.46193 0.21744192 0.45912638 2.9056194 0.8663283 
0.0 1.4087471 0.74236625 0.547917 2.3117201 0.5872514 
0.0 0.94713634 1.3904697 0.6160735 1.422237 0.5082729 
0.0 0.41422874 1.2501724 0.3529632 0.7264483 0.2890625 
0.0 0.13136645 0.41078284 0.13888091 0.10236831 0.100874774 
0.0 0.0 0.0 0.0 0.0 0.07698792 
0.0 0.0 0.0 0.0 0.0 0.07698792 
0.0 0.0 0.0 0.0 0.0 0.07698792 
0.0 0.0 0.0 0.0 0.0 0.088127695 
0.48820174 0.0 0.0 0.0 0.14458658 0.39786553 
1.57072 0.0 0.0 0.0 0.4009144 0.96532196 
2.0535185 0.0 0.0 0.0 0.8351592 0.99455386 
1.8836541 0.2973315 0.0 0.0 1.4426283 0.68364185 
0.33761534 1.5355403 0.11232274 0.0 1.9531785 0.0945057 
0.0 1.8510867 1.6011521 0.07096886 2.0770402 0.0 
0.0 1.4274901 2.0126412 0.14816254 1.570011 0.0 
0.0 0.6667635 1.3541433 0.05875628 0.89767504 0.0 
0.0 0.11244771 0.17661944 0.0 0.17148575 0.015032936 
0.0 0.0 0.0 0.0 0.0 0.07698792 
0.0 0.0 0.0 0.0 0.0 0.07698792 
0.0 0.0 0.0 0.0 0.0 0.07698792 
0.0 0.0 0.0 0.0 0.0 0.07698792 
0.6019353 0.0 0.0 0.0 0.24486773 0.55615115 
1.6472116 0.0 0.0 0.0 0.54143405 1.133944 
2.044855 0.0 0.0 0.0 0.9790463 1.0535829 
1.8993437 0.32405928 0.0 0.0 1.6423616 0.9334801 
0.85445404 1.2910731 0.0 0.04220426 2.6552017 0.7234099 
0.0 1.5271261 0.015736833 0.046312463 3.2012317 0.7874038 
0.0 1.4549667 0.17348054 0.14216788 2.7679923 0.8315011 
0.0 0.8803179 0.33593976 0.1306252 1.9250684 0.7179692 
0.0 0.4612874 0.77059513 0.3050269 0.81890076 0.655816 
0.0 0.20374233 0.8260098 0.21690914 0.32308722 0.33038235 
0.0 0.015447724 0.2574326 0.05422662 0.02996448 0.11569943 
0.0 0.0 0.0 0.0 0.0 0.07698792 
0.0 0.0 0.0 0.0 0.0 0.07698792 
0.0 0.0 0.0 0.0 0.0 0.07698792 
0.0 0.0 0.0 0.0 0.0 0.063412115 
0.48403388 0.0 0.0 0.0 0.0 0.21629769 
1.6471817 0.0 0.0 0.0 0.19857056 0.6647559 
2.195992 0.0 0.0 0.0 0.8486401 0.71744967 
1.7834854 0.55644363 0.0 0.0 1.5832072 0.5102445 
0.30683976 1.5750738 0.0 0.0 2.2945967 0.19973269 
0.0 1.9086163 1.3360018 0.12239835 2.2211127 0.0 
0.0 1.4032393 1.8730291 0.24461606 1.5704974 0.0012683868 
0.0 0.59104925 1.3629065 0.18538314 0.8246414 0.0807576 
0.0 0.1716263 0.3146781 0.14448425 0.07103412 0.08533638 
0.0 0.0 0.0 0.0 0.0 0.07698792 
0.0 0.0 0.0 0.0 0.0 0.07698792 
0.0 0.0 0.0 0.0 0.0 0.07698792 
0.0 0.0 0.0 0.0 0.0 0.07698792 
0.39936197 0.0 0.0 0.0 0.18466799 0.4508455 
1.415904 0.0 0.0 0.05776578 0.46026632 1.0830622 
2.054227 0.0 0.0 0.05699725 0.93860126 1.1550498 
1.893251 0.19483587 0.0 0.06517944 1.5892527 1.0157487 
0.8120371 1.3716972 0.0 0.0 2.417024 0.50990915 
0.0 1.835916 0.3682973 0.0 2.8811438 0.2418364 
0.0 1.4268703 0.515033 0.0 2.3030322 0.36722675 
0.0 0.61626667 0.3273549 0.0 1.3617113 0.24543224 
0.0 0.016509332 0.18721086 0.0 0.5086445 0.36892092 
0.0 0.0 0.309251 0.0 0.17218131 0.22847235 
0.0 0.0 0.050743945 0.0 0.0018387325 0.09149371 
0.0 0.0 0.0 0.0 0.0 0.07698792 
0.0 0.0 0.0 0.0 0.0 0.07698792 
0.0 0.0 0.0 0.0 0.0 0.063412115 
0.12723096 0.0 0.11405612 0.0 0.0 0.0 
0.7835032 0.0 0.0 0.0 0.0 0.0293191 
1.7523763 0.0 0.0 0.0 0.12896624 0.31861615 
2.1681738 0.098184966 0.0 0.0 0.9935077 0.30995163 
1.5938089 0.9375694 0.0 0.0 1.893139 0.33859944 
0.20635763 1.8351272 0.0 0.0 2.5819747 0.20476994 
0.0 1.8205099 1.0193669 0.0 2.2779472 0.0 
0.0 1.1643623 1.5309585 0.0 1.5079957 0.13679978 
0.0 0.34753484 1.0768863 0.0037723454 0.74926096 0.1545377 
0.0 0.029482223 0.24683177 0.062065076 0.02944136 0.109738216 
0.0 0.0 0.0 0.0 0.0 0.07698792 
0.0 0.0 0.0 0.0 0.0 0.07698792 
0.0 0.0 0.0 0.0 0.0 0.07698792 
0.0 0.0 0.0 0.0 0.0 0.07698792 
0.2512162 0.0 0.0 0.0409707 0.14558221 0.37694845 
1.1985557 0.0 0.0 0.09076573 0.42630598 1.0256643 
1.9434769 0.0 0.0 0.14536053 0.8520211 1.2037265 
1.9523549 0.0146574145 0.0 0.11831215 1.4450959 1.0402966 
0.9331452 1.2872955 0.0 0.0 1.9165127 0.33903015 
0.0 1.7786016 1.1279963 0.0 2.26462 0.0 
0.0 1.5714535 1.418127 0.0 1.7508774 0.0 
0.0 0.826509 1.099502 0.0 1.1258693 0.0 
0.0 0.10572643 0.20350322 0.0 0.5442484 0.0 
0.0 0.0 0.067276254 0.0 0.12624721 0.0 
0.0 0.0 0.0 0.0 0.0 0.07076966 
0.0 0.0 0.0 0.0 0.0 0.07397108 
0.0 0.0 0.0 0.0 0.0 0.053191416 
0.12876403 0.0 0.11719028 0.0 0.0 0.0 
0.5323291 0.0 0.14599654 0.0 0.0 0.0 
1.2937815 0.0 0.015652485 0.0 0.0 0.0 
2.0349355 0.004409856 0.0 0.0 0.48088852 0.08251511 
1.8557103 0.72517586 0.0 0.0 1.4531068 0.15620309 
1.0927014 1.1924685 0.0 0.0 2.4052844 0.37866992 
0.0 1.8775511 0.20802361 0.0 2.6867425 0.21180482 
0.0 1.6154243 1.093072 0.03479446 2.1369061 0.044904023 
0.0 0.8667455 1.4096415 0.014922139 1.35786 0.27211663 
0.0 0.18718196 0.85508746 0.026030477 0.5554071 0.1480144 
0.0 0.0 0.06925618 0.0 0.0 0.094370455 
0.0 0.0 0.0 0.0 0.0 0.07698792 
0.0 0.0 0.0 0.0 0.0 0.07698792 
0.0 0.0 0.0 0.0 0.0 0.07698792 
0.0 0.0 0.0 0.0 0.0 0.07698792 
0.14100432 0.0 0.0 0.0 0.12832606 0.27636448 
1.0220349 0.0 0.0 0.0063152174 0.4139621 0.9801545 
1.8529282 0.0 0.0 0.020088535 0.7515562 1.321352 
2.0375044 0.0 0.0 0.0261777 1.2889802 1.120856 
1.0539267 0.98519415 0.0 0.09468743 1.5207654 0.48992428 
0.0 1.7086076 1.529963 0.0 1.6312782 0.0 
0.0 1.8241079 2.3725193 0.0 1.4657073 0.0 
0.0 1.5565505 2.175422 0.0 1.001251 0.0 
0.0 0.993102 1.010984 0.0 0.5307527 0.0 
0.0 0.40271977 0.40375102 0.0 0.21243872 0.0 
0.117959976 0.30631295 0.2514456 0.0 0.0 0.0 
0.1588379 0.24056277 0.24039069 0.0 0.0 0.0 
0.29767665 0.23400605 0.3459853 0.0 0.0 0.0 
0.57056636 0.18497843 0.32036585 0.0 0.0 0.0 
1.0810127 0.0 0.29092646 0.0 0.0 0.0 
1.7461748 0.104640774 0.04171679 0.0 0.22769876 0.0 
1.8530202 0.61766535 0.0 0.0 1.2501265 0.0 
1.2446487 1.0857513 0.0 0.0 2.256865 0.27043003 
0.45371896 1.447796 0.0 0.107076555 2.8720326 0.6254466 
0.0 1.7508724 0.40478098 0.25615168 2.6386542 0.4291693 
0.0 1.2135894 1.1442125 0.3026526 1.8753306 0.39997643 
0.0 0.48041275 1.2686993 0.27266037 1.0007282 0.4284203 
0.0 0.1326215 0.70121485 0.14095224 0.2731963 0.14202748 
0.0 0.0 0.0 0.0 0.0 0.07980361 
0.0 0.0 0.0 0.0 0.0 0.07698792 
0.0 0.0 0.0 0.0 0.0 0.07698792 
0.0 0.0 0.0 0.0 0.0 0.07698792 
0.0 0.0 0.0 0.0 0.0 0.07698792 
0.036604024 0.0 0.0 0.0 0.094787076 0.15589045 
0.770538 0.0 0.0 0.0 0.4359439 0.8109082 
1.5510309 0.0 0.0 0.09364785 0.8094072 1.3860855 
1.8656917 0.0 0.0 0.21155182 1.2789409 1.3744175 
1.412667 0.44539836 0.0 0.42033 1.483055 1.0667989 
0.27657026 1.2524655 0.92757636 0.37985644 1.5792501 0.17095637 
0.0 1.7172053 2.1992502 0.13708642 1.44249 0.0 
0.0 1.7280419 2.5632172 0.0 1.1300371 0.0 
0.0 1.637989 2.0329547 0.0 0.72855604 0.0 
0.0 1.121559 1.2312877 0.0 0.33777073 0.0 
0.24274069 0.771337 0.88233566 0.0 0.052167166 0.0 
0.47817993 0.67604625 0.7066695 0.0 0.0 0.0 
0.64735556 0.6959345 0.72586614 0.0 0.0 0.0 
0.91563034 0.4614 0.65878344 0.0 0.004872013 0.0 
1.3408568 0.5290728 0.4379452 0.0 0.37780592 0.0 
1.4549391 0.77772486 0.02320718 0.0 1.3137721 0.0 
1.1130369 1.1061352 0.0 0.11052618 2.2197762 0.31994897 
0.6273721 1.3770767 0.0 0.412693 2.8688734 0.77756417 
0.0 1.6319581 0.0 0.50031775 2.9862387 0.957207 
0.0 1.3048145 0.4394734 0.46423125 2.2982864 0.82138973 
0.0 0.5677175 0.8726852 0.27840075 1.3366829 0.6250668 
0.0 0.27232903 0.9112713 0.24209462 0.47120425 0.4259201 
0.0 0.014055579 0.43742013 0.076274596 0.09667207 0.13217889 
0.0 0.0 0.0 0.0 0.0 0.07698792 
0.0 0.0 0.0 0.0 0.0 0.07698792 
0.0 0.0 0.0 0.0 0.0 0.07698792 
0.0 0.0 0.0 0.0 0.0 0.07698792 
0.0 0.0 0.0 0.0 0.0 0.07698792 
0.0 0.0 0.0 0.0 0.0 0.08441444 
0.48504668 0.0 0.0 0.03783981 0.3605812 0.59616655 
1.1673257 0.0 0.0 0.1370698 0.87044233 1.3091948 
1.4566238 0.0 0.0 0.2813921 1.185656 1.5542126 
1.6244063 0.0 0.0 0.5142158 1.4625823 1.5855374 
1.0326736 0.6809191 0.0 0.77510566 1.5447279 1.0861683 
0.30956656 1.332273 1.2734221 0.6007634 1.5317603 0.1870704 
0.0 1.5582458 2.1742332 0.34599188 1.4110781 0.0 
0.0 1.6367637 2.4236681 0.09952465 1.1060791 0.0 
0.19323385 1.4504399 1.9828075 0.0 0.8205185 0.0 
0.46064717 1.1665412 1.5000873 0.0 0.63519794 0.0 
0.5720933 1.0131003 1.2362745 0.0 0.62275267 0.0 
0.71003675 0.90018004 1.1303288 0.0 0.7247832 0.0 
0.9263004 0.98123443 1.0194833 0.0 1.0229334 0.0 
1.1538818 1.0189676 0.4641028 0.09899272 1.7245331 0.0 
0.97629267 1.3097552 0.0 0.30773976 2.4098272 0.35267636 
0.540713 1.3769131 0.0 0.46572557 2.9111068 0.83212644 
0.0 1.5400782 0.0 0.53115106 3.021528 1.0817249 
0.0 1.0683265 0.0 0.33548203 2.6116984 1.1109095 
0.0 0.61774087 0.32282788 0.19359611 1.4737886 0.9032786 
0.0 0.2294952 0.5493843 0.04839528 0.59314686 0.5328302 
0.0 0.0 0.40102378 0.0 0.22336076 0.2910614 
0.0 0.0 0.13124862 0.0 0.027941857 0.10277489 
0.0 0.0 0.0 0.0 0.0 0.07698792 
0.0 0.0 0.0 0.0 0.0 0.07698792 
0.0 0.0 0.0 0.0 0.0 0.07698792 
0.0 0.0 0.0 0.0 0.0 0.07698792 
0.0 0.0 0.0 0.0 0.0 0.07698792 
0.0 0.0 0.0 0.0 0.0 0.07698792 
0.25271085 0.0 0.0 0.0 0.28194088 0.3613354 
0.7906062 0.0 0.0 0.0 0.76453686 0.9712574 
1.1400926 0.0 0.0 0.0 1.1062745 1.505887 
1.3799398 0.0 0.0 0.17902364 1.3586754 1.8212566 
1.3075147 0.0 0.0 0.61635005 1.6850377 1.7878695 
0.8983426 0.5835114 0.0 0.97375673 1.6831769 1.371469 
0.5088566 1.1690673 0.99088645 0.94339794 1.651777 0.6697158 
0.25460756 1.375757 1.7112663 0.7149598 1.6070684 0.06256508 
0.3600102 1.4752902 1.9885236 0.6940939 1.4042481 0.0 
0.57424396 1.5424935 1.7313517 0.5495794 1.4169945 0.0 
0.6053212 1.5680281 1.4390694 0.5404007 1.4649457 0.0 
0.6945633 1.5455968 1.1000715 0.6377238 1.6693708 0.0 
0.7041215 1.4620152 0.7799249 0.71575683 2.1898956 0.38188407 
0.66696006 1.4121957 0.16375843 0.8334908 2.6176336 0.8623945 
0.3038319 1.3593993 0.0 0.86609286 2.9029932 1.1973991 
0.0 1.361245 0.0 0.7635389 2.9017932 1.3593531 
0.0 0.9191972 0.0 0.2697002 2.5198314 1.2714176 
0.0 0.48845437 0.06759516 0.03107166 1.4722599 0.90009004 
0.0 0.06914805 0.25306222 0.0 0.62537235 0.5687042 
0.0 0.0 0.27676618 0.0 0.28697518 0.30928746 
0.0 0.0 0.05723512 0.0 0.08402385 0.12812515 
0.0 0.0 0.0 0.0 0.0 0.080945104 
0.0 0.0 0.0 0.0 0.0 0.07698792 
0.0 0.0 0.0 0.0 0.0 0.07698792 
0.0 0.0 0.0 0.0 0.0 0.07698792 
0.0 0.0 0.0 0.0 0.0 0.07698792 
0.0 0.0 0.0 0.0 0.0 0.07698792 
0.0 0.0 0.0 0.0 0.0 0.07698792 
0.051849432 0.0 0.0 0.0 0.12777065 0.16208199 
0.3772244 0.0 0.0 0.0 0.47533628 0.45430353 
0.80480856 0.0 0.0 0.0 0.8717841 1.0040541 
1.1008041 0.0 0.0 0.0 1.2453411 1.5699816 
1.1265101 0.0 0.0 0.105593346 1.6557331 1.8549843 
0.97853345 0.0 0.0 0.64157915 1.8898878 1.9792922 
0.7430649 0.21553902 0.0 1.1810501 2.0380116 1.963578 
0.5238683 0.6358044 0.0 1.4258068 2.1281219 1.7606456 
0.3985917 0.8593723 0.31306642 1.5518227 2.2226937 1.6570735 
0.34181678 0.9438876 0.37898993 1.587043 2.3916013 1.6205652 
0.37170008 0.969835 0.24855626 1.564217 2.4333167 1.5860469 
0.3973964 1.012726 0.030674197 1.4315722 2.707184 1.6658249 
0.18980882 0.98222494 0.0 1.2750813 2.8857284 1.6982393 
0.0 0.8874485 0.0 1.0556113 2.8926132 1.6884897 
0.0 0.81884307 0.0 0.6954962 2.6772325 1.5510876 
0.0 0.5734365 0.0 0.26842403 2.159344 1.2823746 
0.0 0.37689015 0.0 0.051963598 1.223276 0.87965626 
0.0 0.020943288 0.20524126 0.0 0.5610917 0.4931342 
0.0 0.0 0.18165132 0.0 0.2719107 0.3009014 
0.0 0.0 0.106072776 0.0 0.07258445 0.10884139 
0.0 0.0 0.0 0.0 0.0 0.078309216 
0.0 0.0 0.0 0.0 0.0 0.07698792 
0.0 0.0 0.0 0.0 0.0 0.07698792 
0.0 0.0 0.0 0.0 0.0 0.07698792 
0.0 0.0 0.0 0.0 0.0 0.07698792 
0.0 0.0 0.0 0.0 0.0 0.07698792 
0.0 0.0 0.0 0.0 0.0 0.07698792 
0.0 0.0 0.0 0.0 0.0 0.07698792 
0.0 0.0 0.0 0.0 0.0 0.07946343 
0.042726718 0.0 0.0 0.0 0.11330187 0.1563349 
0.3746815 0.0 0.0 0.0 0.46702966 0.45696107 
0.76637405 0.0 0.0 0.0 0.8653859 0.9774765 
0.8699897 0.0 0.0 0.0 1.2552737 1.3968666 
0.8771409 0.0 0.0 0.0 1.6473869 1.7879574 
0.7256555 0.0 0.0 0.28747922 1.9714507 2.010561 
0.51927835 0.0 0.0 0.71223485 2.2282932 1.9997666 
0.41860896 0.06960261 0.0 0.92202914 2.3954453 2.067526 
0.3761546 0.19791654 0.0 1.0399531 2.4754174 2.0692503 
0.3347761 0.24957615 0.0 1.0223418 2.4642215 2.026462 
0.18338817 0.41674498 0.0 0.9313553 2.4113662 1.8964713 
0.038508855 0.48629877 0.0 0.717396 2.2849662 1.799833 
0.0 0.4843126 0.0 0.35938603 2.0148299 1.637315 
0.0 0.3396832 0.0 0.0 1.5291982 1.2412434 
0.0 0.14802325 0.0 0.0 0.842801 0.79075164 
0.0 0.0 0.11268558 0.0 0.43581346 0.47163308 
0.0 0.0 0.21435437 0.0 0.21001188 0.25421968 
0.0 0.0 0.06002312 0.0 0.034711335 0.10265879 
0.0 0.0 0.0 0.0 0.0 0.078639515 
0.0 0.0 0.0 0.0 0.0 0.07706402 
0.0 0.0 0.0 0.0 0.0 0.07698792 
0.0 0.0 0.0 0.0 0.0 0.07698792 
0.0 0.0 0.0 0.0 0.0 0.07698792 
0.0 0.0 0.0 0.0 0.0 0.07698792 
0.0 0.0 0.0 0.0 0.0 0.07698792 
0.0 0.0 0.0 0.0 0.0 0.07698792 
0.0 0.0 0.0 0.0 0.0 0.07698792 
0.0 0.0 0.0 0.0 0.0 0.07698792 
0.0 0.0 0.0 0.0 0.0 0.07946343 
0.049887702 0.0 0.0 0.0 0.12908243 0.15912125 
0.33949196 0.0 0.0 0.0 0.4558247 0.411717 
0.5105321 0.0 0.0 0.0 0.7576949 0.6737626 
0.5932685 0.0 0.0 0.0 1.0214164 1.0227591 
0.59711957 0.0 0.0 0.0 1.3282632 1.3980999 
0.40263668 0.0 0.0 0.0 1.4669143 1.5471792 
0.3803512 0.0 0.0 0.0 1.498693 1.6614676 
0.28055188 0.020174902 0.0 0.0 1.5232557 1.6979289 
0.24458292 0.020828214 0.0 0.0 1.5127121 1.6568644 
0.104037315 0.0 0.0 0.0 1.4364301 1.4684992 
0.0 0.0 0.0 0.0 1.2547184 1.2019112 
0.0 0.0 0.0 0.0 1.0104145 0.9011758 
0.0 0.0 0.0 0.0 0.6140693 0.5500135 
0.0 0.0 0.0 0.0 0.3402631 0.32975328 
0.0 0.0 0.0023949035 0.0 0.17431457 0.20656765 
0.0 0.0 0.025310703 0.0 0.029881474 0.099433646 
0.0 0.0 0.0 0.0 0.0 0.07828162 
0.0 0.0 0.0 0.0 0.0 0.07698792 
0.0 0.0 0.0 0.0 0.0 0.07698792 
0.0 0.0 0.0 0.0 0.0 0.07698792 
0.0 0.0 0.0 0.0 0.0 0.07698792 
0.0 0.0 0.0 0.0 0.0 0.07698792 
0.0 0.0 0.0 0.0 0.0 0.07698792 
0.0 0.0 0.0 0.0 0.0 0.07698792 
0.0 0.0 0.0 0.0 0.0 0.07698792 
0.0 0.0 0.0 0.0 0.0 0.07698792 
0.0 0.0 0.0 0.0 0.0 0.07698792 
0.0 0.0 0.0 0.0 0.0 0.07698792 
0.0 0.0 0.0 0.0 0.0 0.07698792 
0.012838066 0.0 0.0 0.0 0.07242775 0.13392451 
0.10682963 0.0 0.0 0.0 0.20763801 0.20535198 
0.23745564 0.0 0.0 0.0 0.47225466 0.31293625 
0.31787896 0.0 0.0 0.0 0.67852384 0.44516042 
0.24678421 0.0 0.0 0.0 0.8096412 0.48295313 
0.2158938 0.0 0.0 0.0 0.9075659 0.56202817 
0.14543302 0.0 0.0 0.0 0.9722777 0.573235 
0.11178309 0.0 0.0 0.0 0.9202355 0.55086684 
0.0 0.0 0.0 0.0 0.7223206 0.45930147 
0.0 0.0 0.0 0.0 0.52037305 0.361391 
0.0 0.0 0.0 0.0 0.3104231 0.26568407 
0.0 0.0 0.0 0.0 0.1392907 0.16001055 
0.0 0.0 0.0 0.0 0.025841322 0.117143214 
0.0 0.0 0.0 0.0 0.0 0.081173405 
0.0 0.0 0.0 0.0 0.0 0.07698792 
0.0 0.0 0.0 0.0 0.0 0.07698792 
0.0 0.0 0.0 0.0 0.0 0.07698792 
0.0 0.0 0.0 0.0 0.0 0.07698792 
0.0 0.0 0.0 0.0 0.0 0.07698792 
0.0 0.0 0.0 0.0 0.0 0.07698792 
0.0 0.0 0.0 0.0 0.0 0.07698792 
0.0 0.0 0.0 0.0 0.0 0.07698792 
0.0 0.0 0.0 0.0 0.0 0.07698792 
0.0 0.0 0.0 0.0 0.0 0.07698792 
0.0 0.0 0.0 0.0 0.0 0.07698792 
0.0 0.0 0.0 0.0 0.0 0.07698792 
0.0 0.0 0.0 0.0 0.0 0.07698792 
0.0 0.0 0.0 0.0 0.0 0.07698792 
0.0 0.0 0.0 0.0 0.0 0.07698792 
0.0 0.0 0.0 0.0 0.0 0.07698792 
0.0 0.0 0.0 0.0 0.0 0.07698792 
0.0 0.0 0.0 0.0 0.0 0.07698792 
0.0 0.0 0.0 0.0 0.0 0.07698792 
0.0 0.0 0.0 0.0 0.0 0.07698792 
0.0 0.0 0.0 0.0 0.0 0.07698792 
0.0 0.0 0.0 0.0 0.0 0.07698792 
0.0 0.0 0.0 0.0 0.0 0.07698792 
0.0 0.0 0.0 0.0 0.0 0.07698792 
0.0 0.0 0.0 0.0 0.0 0.07698792 
0.0 0.0 0.0 0.0 0.0 0.07698792 
0.0 0.0 0.0 0.0 0.0 0.07698792 
0.0 0.0 0.0 0.0 0.0 0.07698792 
0.0 0.0 0.0 0.0 0.0 0.07698792 
0.0 0.0 0.0 0.0 0.0 0.07698792 
0.0 0.0 0.0 0.0 0.0 0.07698792 
0.0 0.0 0.0 0.0 0.0 0.07698792 
0.0 0.0 0.0 0.0 0.0 0.07698792 
0.0 0.0 0.0 0.0 0.0 0.07698792 
0.0 0.0 0.0 0.0 0.0 0.07698792 
0.0 0.0 0.0 0.0 0.0 0.07698792 
0.0 0.0 0.0 0.0 0.0 0.07698792 
0.0 0.0 0.0 0.0 0.0 0.07698792 
0.0 0.0 0.0 0.0 0.0 0.07698792 
0.0 0.0 0.0 0.0 0.0 0.07698792 
0.0 0.0 0.0 0.0 0.0 0.07698792 
0.0 0.0 0.0 0.0 0.0 0.07698792 
0.0 0.0 0.0 0.0 0.0 0.07698792 
0.0 0.0 0.0 0.0 0.0 0.07698792 
0.0 0.0 0.0 0.0 0.0 0.07698792 
0.0 0.0 0.0 0.0 0.0 0.07698792 
0.0 0.0 0.0 0.0 0.0 0.07698792 
0.0 0.0 0.0 0.0 0.0 0.07698792 
0.0 0.0 0.0 0.0 0.0 0.07698792 
0.0 0.0 0.0 0.0 0.0 0.07698792 
0.0 0.0 0.0 0.0 0.0 0.07698792 
0.0 0.0 0.0 0.0 0.0 0.07698792 
0.0 0.0 0.0 0.0 0.0 0.07698792 
0.0 0.0 0.0 0.0 0.0 0.07698792 
0.0 0.0 0.0 0.0 0.0 0.07698792 
0.0 0.0 0.0 0.0 0.0 0.07698792 
0.0 0.0 0.0 0.0 0.0 0.07698792 
0.0 0.0 0.0 0.0 0.0 0.07698792 
0.0 0.0 0.0 0.0 0.0 0.07698792 
0.0 0.0 0.0 0.0 0.0 0.07698792 
0.0 0.0 0.0 0.0 0.0 0.07698792 
0.0 0.0 0.0 0.0 0.0 0.07698792 

