0.0 0.0 0.0 0.0 0.0 0.07698792 
0.0 0.0 0.0 0.0 0.0 0.07698792 
0.0 0.0 0.0 0.0 0.0 0.07698792 
0.0 0.0 0.0 0.0 0.0 0.07698792 
0.0 0.0 0.0 0.0 0.0 0.07698792 
0.0 0.0 0.0 0.0 0.0 0.07698792 
0.0 0.0 0.0 0.0 0.0 0.07698792 
0.0 0.0 0.0 0.0 0.0 0.07698792 
0.0 0.0 0.0 0.0 0.0 0.07698792 
0.041312233 0.0 0.08386784 0.0 0.0 0.010617316 
0.27540588 0.039945453 0.2148993 0.0 0.0 0.0 
0.2385267 0.2603115 0.18491897 0.0 0.0 0.0 
0.024728969 0.36375102 0.19240975 0.0 0.0 0.0 
0.0 0.36560836 0.16268566 0.0 0.037940357 0.0 
0.0 0.20603628 0.0377957 0.0 0.08227658 0.0 
0.0 0.03718723 0.0 0.0 0.0 0.03477962 
0.0 0.0 0.0 0.0 0.0 0.07698792 
0.0 0.0 0.0 0.0 0.0 0.07698792 
0.0 0.0 0.0 0.0 0.0 0.07698792 
0.0 0.0 0.0 0.0 0.0 0.07698792 
0.0 0.0 0.0 0.0 0.0 0.07698792 
0.0 0.0 0.0 0.0 0.0 0.07698792 
0.0 0.0 0.0 0.0 0.0 0.07698792 
0.0 0.0 0.0 0.0 0.0 0.07698792 
0.0 0.0 0.0 0.0 0.0 0.07698792 
0.0 0.0 0.0 0.0 0.0 0.07698792 
0.0 0.0 0.0 0.0 0.0 0.07698792 
0.0 0.0 0.0 0.0 0.0 0.07698792 
0.0 0.0 0.0 0.0 0.0 0.07698792 
0.0 0.0 0.0 0.0 0.0 0.07698792 
0.0 0.0 0.0 0.0 0.0 0.07698792 
0.0 0.0 0.0 0.0 0.0 0.07698792 
0.0 0.0 0.0 0.0 0.0 0.07698792 
0.0 0.0 0.0 0.0 0.0 0.07698792 
0.0 0.0 0.0 0.0 0.0 0.07698792 
0.0 0.0 0.0 0.0 0.0 0.07698792 
0.0 0.0 0.0 0.0 0.0 0.07698792 
0.15085706 0.0 0.0052157864 0.0 0.0 0.055169184 
0.64493454 0.0 0.18133247 0.0 0.0 0.0 
0.7725561 0.2931941 0.3466413 0.0 0.0 0.0 
0.23431236 0.950392 0.54119295 0.0 0.08034685 0.0 
0.0 0.911551 0.66543424 0.0 0.5051484 0.0 
0.0 0.3975711 0.3389466 0.0 0.5110313 0.0 
0.0 0.07583224 0.016493507 0.0 0.14413346 0.0 
0.0 0.0 0.0 0.0 0.0 0.07698792 
0.0 0.0 0.0 0.0 0.0 0.07698792 
0.0 0.0 0.0 0.0 0.0 0.07698792 
0.0 0.0 0.0 0.0 0.0 0.07698792 
0.0 0.0 0.0 0.0 0.0 0.07698792 
0.0 0.0 0.0 0.0 0.0 0.07698792 
0.0 0.0 0.0 0.0 0.0 0.07698792 
0.0 0.0 0.0 0.0 0.0 0.07698792 
0.0 0.0 0.0 0.0 0.0 0.07698792 
0.0 0.0 0.0 0.0 0.0 0.07698792 
0.0 0.0 0.0 0.0 0.0 0.07698792 
0.0 0.0 0.0 0.0 0.0 0.07698792 
0.0 0.0 0.0 0.0 0.0 0.07698792 
0.0 0.0 0.0 0.0 0.0 0.07698792 
0.0 0.0 0.0 0.0 0.0 0.07698792 
0.0 0.0 0.0 0.0 0.0 0.07698792 
0.0 0.0 0.0 0.0 0.0 0.07698792 
0.0 0.0 0.0 0.0 0.0 0.07698792 
0.0 0.0 0.0 0.0 0.0 0.07698792 
0.0 0.0 0.0 0.0 0.0 0.07698792 
0.0 0.0 0.0 0.0 0.0 0.07434818 
0.36736506 0.0 0.0 0.0 0.0 0.22256693 
1.0712843 0.0 0.0 0.07680848 0.0 0.1573557 
1.0191355 0.16493909 0.21432278 0.14091447 0.0016043074 0.0 
0.17346016 1.1910459 0.86058 0.18158798 0.6302788 0.0 
0.0 1.435271 1.3595159 0.0 1.0351413 0.0 
0.0 0.8468942 0.9772216 0.0 0.79175645 0.0 
0.0 0.15315756 0.1883153 0.0 0.29688165 0.0 
0.0 0.0 0.0 0.0 0.0 0.07698792 
0.0 0.0 0.0 0.0 0.0 0.07698792 
0.0 0.0 0.0 0.0 0.0 0.07698792 
0.0 0.0 0.0 0.0 0.0 0.07698792 
0.0 0.0 0.0 0.0 0.0 0.07698792 
0.0 0.0 0.0 0.0 0.0 0.07698792 
0.0 0.0 0.0 0.0 0.0 0.07698792 
0.0 0.0 0.0 0.0 0.0 0.07698792 
0.0 0.0 0.0 0.0 0.0 0.07698792 
0.0 0.0 0.0 0.0 0.0 0.07698792 
0.0 0.0 0.0 0.0 0.0 0.07698792 
0.0 0.0 0.0 0.0 0.0 0.07698792 
0.0 0.0 0.0 0.0 0.0 0.07698792 
0.0 0.0 0.0 0.0 0.0 0.07698792 
0.0 0.0 0.0 0.0 0.0 0.07698792 
0.0 0.0 0.0 0.0 0.0 0.07698792 
0.0 0.0 0.0 0.0 0.0 0.07698792 
0.0 0.0 0.0 0.0 0.0 0.07698792 
0.0 0.0 0.0 0.0 0.0 0.07698792 
0.0 0.0 0.0 0.0 0.0 0.07698792 
0.0 0.0 0.0 0.0 0.0 0.071202755 
0.61060345 0.0 0.0 0.100624785 0.0 0.39743134 
1.538466 0.0 0.0 0.24397752 0.0 0.6409508 
1.2924507 0.48233742 0.0 0.25615683 0.41613612 0.12665267 
0.13925889 1.6531702 0.6671636 0.3659618 0.94413203 0.0 
0.0 1.8053001 1.7818233 0.28659734 1.3041114 0.0 
0.0 1.1253332 1.5778383 0.15565215 0.93205655 0.0 
0.0 0.27837873 0.44663614 0.0 0.34349656 0.0 
0.0 0.0 0.0 0.0 0.0 0.07698792 
0.0 0.0 0.0 0.0 0.0 0.07698792 
0.0 0.0 0.0 0.0 0.0 0.07698792 
0.0 0.0 0.0 0.0 0.0 0.07698792 
0.0 0.0 0.0 0.0 0.0 0.07698792 
0.0 0.0 0.0 0.0 0.0 0.07698792 
0.0 0.0 0.0 0.0 0.0 0.07698792 
0.0 0.0 0.0 0.0 0.0 0.07698792 
0.0 0.0 0.0 0.0 0.0 0.07698792 
0.0 0.0 0.0 0.0 0.0 0.07698792 
0.0 0.0 0.0 0.0 0.0 0.07698792 
0.0 0.0 0.0 0.0 0.0 0.07698792 
0.0 0.0 0.0 0.0 0.0 0.07698792 
0.0 0.0 0.0 0.0 0.0 0.07698792 
0.0 0.0 0.0 0.0 0.0 0.07698792 
0.0 0.0 0.0 0.0 0.0 0.07698792 
0.0 0.0 0.0 0.0 0.0 0.07698792 
0.0 0.0 0.0 0.0 0.0 0.07698792 
0.0 0.0 0.0 0.0 0.0 0.07698792 
0.0 0.0 0.0 0.0 0.0 0.07698792 
0.033205956 0.0 0.03465484 0.0 0.0 0.03957396 
0.9700007 0.0 0.0 0.0 0.0 0.42064843 
1.9388585 0.0 0.0 0.0 0.442135 0.7775013 
1.467344 0.44291762 0.0 0.0 1.101043 0.34251943 
0.0 1.5133499 0.0 0.0505787 1.5726352 0.0 
0.0 1.4934856 1.417646 0.1804678 1.7179607 0.0 
0.0 0.770968 1.5954034 0.21921137 1.0660185 0.13930458 
0.0 0.20449495 0.5928113 0.11887703 0.30400223 0.057390098 
0.0 0.0 0.0 0.0 0.0 0.07698792 
0.0 0.0 0.0 0.0 0.0 0.07698792 
0.0 0.0 0.0 0.0 0.0 0.07698792 
0.0 0.0 0.0 0.0 0.0 0.07698792 
0.0 0.0 0.0 0.0 0.0 0.07698792 
0.0 0.0 0.0 0.0 0.0 0.07698792 
0.0 0.0 0.0 0.0 0.0 0.07698792 
0.0 0.0 0.0 0.0 0.0 0.07698792 
0.0 0.0 0.0 0.0 0.0 0.07698792 
0.0 0.0 0.0 0.0 0.0 0.07698792 
0.0 0.0 0.0 0.0 0.0 0.07698792 
0.0 0.0 0.0 0.0 0.0 0.07698792 
0.0 0.0 0.0 0.0 0.0 0.07698792 
0.0 0.0 0.0 0.0 0.0 0.07698792 
0.0 0.0 0.0 0.0 0.0 0.07698792 
0.0 0.0 0.0 0.0 0.0 0.07698792 
0.0 0.0 0.0 0.0 0.0 0.07698792 
0.0 0.0 0.0 0.0 0.0 0.07698792 
0.0 0.0 0.0 0.0 0.0 0.07698792 
0.0 0.0 0.0 0.0 0.0 0.06303501 
0.23214853 0.0 0.071278505 0.0 0.0 0.007055871 
1.312474 0.0 0.0 0.0 0.0 0.3615567 
2.0312858 0.0 0.0 0.0 0.617626 0.56043935 
1.2270699 0.8829462 0.0 0.0 1.5185374 0.113068506 
0.0 1.5928966 0.0 0.0 1.9234904 0.0 
0.0 1.2690042 1.2926481 0.10877289 1.6617211 0.09093332 
0.0 0.5181704 1.2829504 0.14490479 0.91270846 0.26514247 
0.0 0.13234203 0.5396501 0.16046478 0.1391307 0.116397806 
0.0 0.0 0.0 0.0 0.0 0.07698792 
0.0 0.0 0.0 0.0 0.0 0.07698792 
0.0 0.0 0.0 0.0 0.0 0.07698792 
0.0 0.0 0.0 0.0 0.0 0.07698792 
0.0 0.0 0.0 0.0 0.0 0.07698792 
0.0 0.0 0.0 0.0 0.0 0.07698792 
0.0 0.0 0.0 0.0 0.0 0.07698792 
0.0 0.0 0.0 0.0 0.0 0.07698792 
0.0 0.0 0.0 0.0 0.0 0.07698792 
0.0 0.0 0.0 0.0 0.0 0.07698792 
0.0 0.0 0.0 0.0 0.0 0.07698792 
0.0 0.0 0.0 0.0 0.0 0.07698792 
0.0 0.0 0.0 0.0 0.0 0.07698792 
0.0 0.0 0.0 0.0 0.0 0.07698792 
0.0 0.0 0.0 0.0 0.0 0.07698792 
0.0 0.0 0.0 0.0 0.0 0.07698792 
0.0 0.0 0.0 0.0 0.0 0.07698792 
0.0 0.0 0.0 0.0 0.0 0.07698792 
0.0 0.0 0.0 0.0 0.0 0.07698792 
0.07092199 0.0 0.0755325 0.0 0.0 0.016132995 
0.65127933 0.0 0.014867388 0.0 0.0 0.0007861927 
1.6456399 0.0 0.0 0.0 0.0 0.28151646 
1.9819787 0.22543684 0.0 0.0 0.9528437 0.28154576 
0.6726435 1.440218 0.0 0.0 1.8722085 0.0 
0.0 1.6772429 0.13349706 0.0 2.0222423 0.03482911 
0.0 1.092683 1.2570763 0.0 1.4394884 0.23845887 
0.0 0.2581705 0.9386487 0.0 0.6869028 0.23746076 
0.0 0.0 0.30262926 0.047833916 0.046534684 0.123907596 
0.0 0.0 0.0 0.0 0.0 0.07698792 
0.0 0.0 0.0 0.0 0.0 0.07698792 
0.0 0.0 0.0 0.0 0.0 0.07698792 
0.0 0.0 0.0 0.0 0.0 0.07698792 
0.0 0.0 0.0 0.0 0.0 0.07698792 
0.0 0.0 0.0 0.0 0.0 0.07698792 
0.0 0.0 0.0 0.0 0.0 0.07698792 
0.0 0.0 0.0 0.0 0.0 0.07698792 
0.0 0.0 0.0 0.0 0.0 0.07698792 
0.0 0.0 0.0 0.0 0.0 0.07698792 
0.0 0.0 0.0 0.0 0.0 0.07698792 
0.0 0.0 0.0 0.0 0.0 0.07698792 
0.0 0.0 0.0 0.0 0.0 0.07698792 
0.0 0.0 0.0 0.0 0.0 0.07698792 
0.0 0.0 0.0 0.0 0.0 0.07698792 
0.0 0.0 0.0 0.0 0.0 0.07698792 
0.0 0.0 0.0 0.0 0.0 0.07698792 
0.0 0.0 0.0 0.0 0.0 0.07698792 
0.0 0.0 0.0 0.0 0.0 0.07698792 
0.24889171 0.0 0.03763836 0.0 0.0 0.06670675 
1.1764796 0.0 0.0 0.0 0.0 0.2080878 
1.9190798 0.0 0.0 0.0 0.38153467 0.3918361 
1.5293515 0.7400045 0.0 0.05368702 1.5081809 0.24529155 
0.0 1.5220954 0.0 0.0 2.2754083 0.0038998723 
0.0 1.4791614 0.6577088 0.08718149 1.9486688 0.13455892 
0.0 0.6242088 1.1985167 0.020940658 1.2713274 0.3398457 
0.0 0.09749945 0.675472 0.022158228 0.45331904 0.18504474 
0.0 0.0 0.050381966 0.0 0.01008201 0.091224425 
0.0 0.0 0.0 0.0 0.0 0.07698792 
0.0 0.0 0.0 0.0 0.0 0.07698792 
0.0 0.0 0.0 0.0 0.0 0.07698792 
0.0 0.0 0.0 0.0 0.0 0.07698792 
0.0 0.0 0.0 0.0 0.0 0.07698792 
0.0 0.0 0.0 0.0 0.0 0.07698792 
0.0 0.0 0.0 0.0 0.0 0.07698792 
0.0 0.0 0.0 0.0 0.0 0.07698792 
0.0 0.0 0.0 0.0 0.0 0.07698792 
0.0 0.0 0.0 0.0 0.0 0.07698792 
0.0 0.0 0.0 0.0 0.0 0.07698792 
0.0 0.0 0.0 0.0 0.0 0.07698792 
0.0 0.0 0.0 0.0 0.0 0.07698792 
0.0 0.0 0.0 0.0 0.0 0.07698792 
0.0 0.0 0.0 0.0 0.0 0.07698792 
0.0 0.0 0.0 0.0 0.0 0.07698792 
0.0 0.0 0.0 0.0 0.0 0.07698792 
0.0 0.0 0.0 0.0 0.0 0.07698792 
0.0 0.0 0.027653381 0.0 0.0 0.037014715 
0.6029791 0.0 0.0 0.0 0.0 0.16258667 
1.6075404 0.0 0.0 0.020428564 0.0 0.3901896 
1.9593289 0.09026401 0.0 0.06605573 0.98879606 0.42320764 
0.8649924 1.3099389 0.0 0.21808532 1.9512941 0.31558377 
0.0 1.7261358 0.1061508 0.12278099 2.2623994 0.16565529 
0.0 1.1870183 1.1180949 0.22238055 1.634184 0.34783053 
0.0 0.40444252 1.164585 0.2106442 0.81266093 0.3732499 
0.0 0.10351748 0.5557313 0.1421988 0.13980614 0.14078668 
0.0 0.0 0.0 0.0 0.0 0.07805332 
0.0 0.0 0.0 0.0 0.0 0.07698792 
0.0 0.0 0.0 0.0 0.0 0.07698792 
0.0 0.0 0.0 0.0 0.0 0.07698792 
0.0 0.0 0.0 0.0 0.0 0.07698792 
0.0 0.0 0.0 0.0 0.0 0.07698792 
0.0 0.0 0.0 0.0 0.0 0.07698792 
0.0 0.0 0.0 0.0 0.0 0.07698792 
0.0 0.0 0.0 0.0 0.0 0.07698792 
0.0 0.0 0.0 0.0 0.0 0.07698792 
0.0 0.0 0.0 0.0 0.0 0.07698792 
0.0 0.0 0.0 0.0 0.0 0.07698792 
0.0 0.0 0.0 0.0 0.0 0.07698792 
0.0 0.0 0.0 0.0 0.0 0.07698792 
0.0 0.0 0.0 0.0 0.0 0.07698792 
0.0 0.0 0.0 0.0 0.0 0.07698792 
0.0 0.0 0.0 0.0 0.0 0.07698792 
0.0 0.0 0.0 0.0 0.0 0.07698792 
0.0 0.0 0.0 0.0 0.0 0.07095423 
0.15081178 0.0 0.07612463 0.0 0.0 0.0035824627 
1.1013827 0.0 0.0 0.0 0.0 0.2949614 
1.9193447 0.0 0.0 0.0 0.36913523 0.55797404 
1.5710113 0.6659788 0.0 0.0796061 1.5186996 0.38324583 
0.19583091 1.5004138 0.0 0.0040887417 2.322726 0.3739689 
0.0 1.5702353 0.459786 0.1274066 2.099678 0.41596803 
0.0 0.6275702 0.9475093 0.00965972 1.2873272 0.4815927 
0.0 0.15202832 0.7566557 0.08927448 0.4437332 0.33293772 
0.0 0.0 0.2574497 0.0018380643 0.054267067 0.11919123 
0.0 0.0 0.0 0.0 0.0 0.07698792 
0.0 0.0 0.0 0.0 0.0 0.07698792 
0.0 0.0 0.0 0.0 0.0 0.07698792 
0.0 0.0 0.0 0.0 0.0 0.07698792 
0.0 0.0 0.0 0.0 0.0 0.07698792 
0.0 0.0 0.0 0.0 0.0 0.07698792 
0.0 0.0 0.0 0.0 0.0 0.07698792 
0.0 0.0 0.0 0.0 0.0 0.07698792 
0.0 0.0 0.0 0.0 0.0 0.07698792 
0.0 0.0 0.0 0.0 0.0 0.07698792 
0.0 0.0 0.0 0.0 0.0 0.07698792 
0.0 0.0 0.0 0.0 0.0 0.07698792 
0.0 0.0 0.0 0.0 0.0 0.07698792 
0.0 0.0 0.0 0.0 0.0 0.07698792 
0.0 0.0 0.0 0.0 0.0 0.07698792 
0.0 0.0 0.0 0.0 0.0 0.07698792 
0.0 0.0 0.0 0.0 0.0 0.07698792 
0.0 0.0 0.0 0.0 0.0 0.07698792 
0.0 0.0 0.0 0.0 0.0 0.06591958 
0.40556443 0.0 0.0 0.0 0.0 0.103389345 
1.5636771 0.0 0.0 0.0 0.0 0.4337774 
1.9842865 0.0 0.0 0.0 0.95450836 0.5906226 
0.86915916 1.0956082 0.0 0.0 1.9475521 0.2897694 
0.0 1.4896423 0.0 0.0 2.346915 0.30405384 
0.0 1.0129699 0.8367659 0.028958809 1.7261381 0.46843648 
0.0 0.2511933 0.81631553 0.015940268 0.8206745 0.4049855 
0.0 0.0 0.40257984 0.0 0.1971447 0.20468687 
0.0 0.0 0.033172704 0.0 0.0 0.07965316 
0.043755367 0.0 0.0695684 0.0 0.0 0.0 
0.2077967 0.050936796 0.1647129 0.0 0.0 0.0 
0.29144186 0.16165832 0.30059838 0.0 0.0 0.0 
0.3363479 0.37470922 0.3876731 0.0 0.0 0.0 
0.18096983 0.5342062 0.3375161 0.0 0.0 0.0 
0.0 0.5068918 0.2509469 0.0 0.0 0.0 
0.0 0.3629974 0.14540955 0.0 0.08039783 0.0 
0.0 0.17136365 0.023325987 0.0 0.056937095 0.0 
0.0 0.03157604 0.0 0.0 0.0 0.03999052 
0.0 0.0 0.0 0.0 0.0 0.07698792 
0.0 0.0 0.0 0.0 0.0 0.07698792 
0.0 0.0 0.0 0.0 0.0 0.07698792 
0.0 0.0 0.0 0.0 0.0 0.07698792 
0.0 0.0 0.0 0.0 0.0 0.07698792 
0.0 0.0 0.0 0.0 0.0 0.07698792 
0.0 0.0 0.0 0.0 0.0 0.07698792 
0.0 0.0 0.0 0.0 0.0 0.07397108 
0.0 0.0 0.0 0.0 0.0 0.067898534 
0.049554333 0.0 0.015685953 0.0 0.0 0.04665013 
0.7823543 0.0 0.0 0.000388694 0.0 0.2545856 
1.8151636 0.0 0.0 0.0 0.20365258 0.5597124 
1.7331436 0.4760333 0.0 0.081329316 1.3640248 0.42804533 
0.22718617 1.4968643 0.0 0.0 2.0433567 0.14288934 
0.0 1.5213695 0.3967907 0.0 1.9695603 0.20916587 
0.0 0.58561593 1.0025585 0.0 1.2760012 0.3905918 
0.0 0.11955418 0.73080385 0.042402614 0.35747167 0.26371878 
0.0 0.0 0.29973337 0.0 0.0 0.00023245811 
0.24964815 0.046965197 0.20135307 0.0 0.0 0.0 
0.44227988 0.10198028 0.27426976 0.0 0.0 0.0 
0.6748998 0.24500069 0.43395716 0.0 0.0 0.0 
0.8352565 0.49408224 0.54486084 0.0 0.0 0.0 
0.76677233 0.836731 0.82240397 0.0 0.0 0.0 
0.4204319 1.1094153 0.9778172 0.0 0.19575574 0.0 
0.0 1.2786181 0.88062835 0.0 0.49680933 0.0 
0.0 0.9128716 0.68909645 0.0 0.61230946 0.0 
0.0 0.44259617 0.3399805 0.0 0.4371538 0.0 
0.0 0.12267417 0.031393774 0.0 0.16053428 0.0 
0.0 0.0012756363 0.0 0.0 0.0 0.06812939 
0.0 0.0 0.0 0.0 0.0 0.07698792 
0.0 0.0 0.0 0.0 0.0 0.07698792 
0.0 0.0 0.0 0.0 0.0 0.07698792 
0.0 0.0 0.0 0.0 0.0 0.07698792 
0.0 0.0 0.0 0.0 0.0 0.07698792 
0.0 0.0 0.0 0.0 0.0 0.07698792 
0.0 0.0 0.0 0.0 0.0 0.06768269 
0.0 0.011635925 0.0 0.0 0.0 0.043881003 
0.17648742 0.0 0.0 0.0 0.0 0.061770067 
1.1986132 0.0 0.0 0.011303407 0.0 0.4454815 
1.9713447 0.0 0.0 0.0 0.60845995 0.7117369 
1.2273557 0.8923712 0.0 0.0109388055 1.5986742 0.26545495 
0.0 1.5759621 0.0 0.0 2.0046449 0.05888349 
0.0 1.2814316 1.0116576 0.0 1.6585541 0.20369193 
0.0 0.32093322 1.037136 0.0 0.89010286 0.23729861 
0.0 0.0 0.60858613 0.0 0.0 0.0 
0.4692136 0.0 0.27580488 0.0 0.0 0.0 
0.74739707 0.15400836 0.3822652 0.0 0.0 0.0 
1.0439065 0.32462764 0.47742993 0.0 0.0 0.0 
1.0133636 0.60033023 0.5939541 0.0 0.034244765 0.0 
0.72440016 0.6738804 0.6308532 0.0 0.58287334 0.0 
0.4719023 0.76678604 0.9773334 0.068656154 0.916509 0.0 
0.2759822 1.1299965 1.4139056 0.30731848 1.0266823 0.0 
0.0 1.5238522 1.6300367 0.19759277 1.1360615 0.0 
0.0 1.5451356 1.5073336 0.0 1.0171062 0.0 
0.0 1.0305046 1.0698293 0.0 0.7642434 0.0 
0.0 0.3284107 0.31557292 0.0 0.44185248 0.0 
0.0 0.056783527 0.0 0.0 0.030038092 0.009904459 
0.0 0.0 0.0 0.0 0.0 0.07698792 
0.0 0.0 0.0 0.0 0.0 0.07698792 
0.0 0.0 0.0 0.0 0.0 0.07698792 
0.0 0.0 0.0 0.0 0.0 0.07698792 
0.0 0.0 0.0 0.0 0.0 0.07698792 
0.0 0.0 0.0 0.0 0.0 0.07698792 
0.0 0.0 0.0 0.0009470796 0.0 0.092911005 
0.0 0.0 0.0 0.013526942 0.0 0.08338002 
0.35756174 0.0 0.0 0.018557403 0.0 0.21914792 
1.4627976 0.0 0.0 0.08240792 0.07779735 0.658995 
1.9254303 0.0 0.0 0.07023537 1.004707 0.76579994 
0.70845264 1.1146702 0.0 0.0 1.6828446 0.176111 
0.0 1.5542967 0.23393059 0.0 1.8297328 0.0 
0.0 0.94481814 1.4005153 0.0 1.4186338 0.20549452 
0.0 0.14046754 1.08663 0.0 0.41959777 0.07249347 
0.5255715 0.0 0.3487767 0.0 0.0 0.0 
1.097054 0.0 0.2530784 0.0 0.0 0.0 
1.2263968 0.35837913 0.37222856 0.0 0.0 0.0 
0.87629527 0.76117986 0.48466086 0.0 0.68237036 0.0 
0.4958191 0.9358541 0.4788611 0.480015 1.4827148 0.0 
0.25310212 1.180332 0.43937922 1.099088 1.8849558 0.51384676 
0.20951319 1.0341634 0.50771445 1.4100553 1.7603022 0.96127427 
0.28518164 0.99972934 0.9649749 1.4191582 1.3398136 0.77154756 
0.098488316 1.4491383 1.4677231 1.0831766 1.101173 0.011963919 
0.0 1.8482766 1.9441997 0.6994971 1.0305103 0.0 
0.0 1.5558071 1.8059363 0.10830018 0.998071 0.0 
0.0 0.701251 0.85727066 0.0 0.6811144 0.0 
0.0 0.07001129 0.056972064 0.0 0.18539281 0.0 
0.0 0.0 0.0 0.0 0.0 0.07698792 
0.0 0.0 0.0 0.0 0.0 0.07698792 
0.0 0.0 0.0 0.0 0.0 0.07698792 
0.0 0.0 0.0 0.0 0.0 0.07698792 
0.0 0.0 0.0 0.0 0.0 0.07698792 
0.0 0.0 0.0 0.0 0.0 0.07698792 
0.0 0.0 0.0 0.01644623 0.0 0.117743134 
0.0 0.0 0.0 0.028371904 0.0 0.09944734 
0.45516497 0.0 0.0 0.13398114 0.0 0.40644962 
1.5876753 0.0 0.0 0.15786004 0.29361543 0.9185738 
1.7978895 0.08952291 0.0 0.17083773 1.1567982 0.7794654 
0.3622334 1.2828314 0.0 0.07381688 1.5539957 0.15494539 
0.0 1.5000474 0.70833814 0.0 1.6273304 0.0 
0.0 0.72692776 1.5099224 0.0 1.1309236 0.13534167 
0.0 0.0 0.9101936 0.0 0.025953803 0.014717318 
1.1632254 0.0 0.12061674 0.0 0.0 0.0 
1.487319 0.13249207 0.0 0.049955353 0.042416643 0.0 
1.0253482 0.91895163 0.16011032 0.42828044 1.046527 0.0 
0.39785954 1.2933259 0.29628557 0.71623045 2.1661928 0.38729012 
0.060436264 1.3704112 0.13789776 1.0220876 2.5455732 0.9810843 
0.0 1.0150386 0.0 0.9768375 2.4799235 1.3796694 
0.4450119 0.3913725 0.0 0.7349456 1.8898884 1.6905742 
1.0212984 0.21585706 0.0 0.4883654 1.2357597 1.4870226 
0.63965344 0.78372824 0.024319887 0.23781547 1.135569 0.507307 
0.0 1.5525275 1.2370751 0.26242745 1.2522774 0.0 
0.0 1.5532117 2.0037034 0.16875157 1.3247088 0.0 
0.0 0.8951483 1.3772259 0.026904162 0.87678057 0.0 
0.0 0.18143752 0.24779835 0.0 0.24353822 0.0 
0.0 0.0 0.0 0.0 0.0 0.07698792 
0.0 0.0 0.0 0.0 0.0 0.07698792 
0.0 0.0 0.0 0.0 0.0 0.07698792 
0.0 0.0 0.0 0.0 0.0 0.07698792 
0.0 0.0 0.0 0.0 0.0 0.07698792 
0.0 0.0 0.0 0.0 0.0 0.07698792 
0.0 0.0 0.0 0.0133635 0.0 0.11674024 
0.0 0.0071442556 0.0 0.0 0.0 0.12750721 
0.5878647 0.0 0.0 0.041715752 0.02216639 0.52495587 
1.6953962 0.0 0.0 0.05047619 0.3906326 0.99342585 
1.5733795 0.15648726 0.0 0.0 1.1067843 0.6172599 
0.2629276 1.2640145 0.0 0.0 1.4247409 0.009263352 
0.0 1.4471817 1.0208416 0.0 1.4694617 0.0 
0.0 0.5041923 1.4669605 0.0 0.8762338 0.0094959885 
0.5813843 0.0 0.5871735 0.0 0.0 0.12739994 
1.6352651 0.0 0.0 0.08875533 0.002651263 0.2434816 
1.4984252 0.6515325 0.0 0.31328574 1.1214087 0.2362167 
0.56874955 1.4040295 0.0 0.44452652 2.3069196 0.5209086 
0.0 1.5412166 0.0 0.56458527 2.7211492 0.9358084 
0.0 1.0289254 0.0 0.3623503 2.4733703 1.3506105 
0.0 0.33330226 0.0 0.0 1.6927453 1.3031061 
0.78913885 0.0 0.0 0.0 0.97636193 1.2719145 
1.5665357 0.0 0.0 0.0 0.973152 1.2026901 
1.0047877 0.52427936 0.0 0.0 1.2818621 0.39378938 
0.0 1.39901 0.3061497 0.0 1.6174331 0.0 
0.0 1.4468075 1.661806 0.10934829 1.594217 0.0 
0.0 0.76126266 1.5197777 0.16066813 0.9665517 0.029388905 
0.0 0.18661186 0.41426677 0.096824646 0.21323772 0.05245253 
0.0 0.0 0.0 0.0 0.0 0.07698792 
0.0 0.0 0.0 0.0 0.0 0.07698792 
0.0 0.0 0.0 0.0 0.0 0.07698792 
0.0 0.0 0.0 0.0 0.0 0.07698792 
0.0 0.0 0.0 0.0 0.0 0.07698792 
0.0 0.0 0.0 0.0 0.0 0.07698792 
0.0 0.0 0.0 0.0 0.0 0.0955542 
0.0 0.0 0.0 0.0 0.0 0.09422526 
0.5737102 0.0 0.0 0.0 0.087284505 0.5446296 
1.6630299 0.0 0.0 0.032314774 0.47119227 1.1140423 
1.5789173 0.0797881 0.0 0.0 0.92615753 0.59120625 
0.2874736 1.256841 0.0 0.0 1.1898227 0.0 
0.0 1.4121122 1.2986263 0.0 1.369603 0.0 
0.0 0.46308586 1.4922606 0.0 0.7756064 0.0 
1.0871086 0.0 0.283606 0.0 0.26472715 0.29308227 
1.9496853 0.0 0.0 0.07048718 0.86071604 0.5330131 
1.114984 1.1362702 0.0 0.23997217 1.9156653 0.43018454 
0.0 1.5257741 0.0 0.0 2.6992748 0.5421847 
0.0 1.0958457 0.018480368 0.0 2.4428618 0.85978776 
0.0 0.23808883 0.0 0.0 1.5823468 0.83300894 
0.025616243 0.0 0.0 0.0 0.49675992 0.5539887 
1.0889904 0.0 0.0 0.0 0.32350376 0.5993514 
1.8668072 0.0 0.0 0.0 0.885412 0.6431195 
1.03387 0.782774 0.0 0.0 1.6194266 0.09567134 
0.0 1.5548271 0.015688613 0.0 1.9431404 0.0 
0.0 1.2606442 1.3981111 0.108212054 1.6318654 0.08270547 
0.0 0.47835916 1.2809309 0.123340726 0.91574556 0.1948324 
0.0 0.108889975 0.41397128 0.12756695 0.103416786 0.10457431 
0.0 0.0 0.0 0.0 0.0 0.07698792 
0.0 0.0 0.0 0.0 0.0 0.07698792 
0.0 0.0 0.0 0.0 0.0 0.07698792 
0.0 0.0 0.0 0.0 0.0 0.07698792 
0.0 0.0 0.0 0.0 0.0 0.07698792 
0.0 0.0 0.0 0.0 0.0 0.07698792 
0.0 0.0 0.0 0.0 0.0 0.07698792 
0.0 0.0 0.0 0.0 0.0 0.07698792 
0.49721336 0.0 0.0 0.025761861 0.19898064 0.54290617 
1.473737 0.0 0.0 0.12897289 0.5170809 1.130933 
1.5365598 0.0 0.0 0.12168299 0.7438776 0.71874905 
0.60935104 0.95661 0.0 0.0 0.93697095 0.0 
0.0 1.5655972 1.6380528 0.0 1.0011666 0.0 
0.0 0.8403546 1.7883828 0.0 0.77659357 0.0 
1.3061736 0.062189303 0.25655073 0.0 0.8099656 0.0 
1.8565259 0.56621605 0.0 0.0 1.3516192 0.022416167 
0.80037016 1.5910339 0.0 0.0 2.0193775 0.0 
0.0 1.7679135 0.3944882 0.0 2.195598 0.0 
0.0 1.0287611 0.9224191 0.0 1.4746583 0.0 
0.0 0.34115827 0.7801854 0.0 0.5548011 0.0 
0.45512003 0.0 0.3086419 0.0 0.0 0.0 
1.5603333 0.0 0.0 0.0 0.07519886 0.11215103 
1.8989806 0.29701838 0.0 0.0 1.0927936 0.25221157 
0.5408135 1.4789083 0.0 0.0 1.9053057 0.032560185 
0.0 1.6773814 0.31801337 0.016559456 2.0094697 0.0338915 
0.0 1.0602375 1.3232816 0.10775892 1.428094 0.3352229 
0.0 0.28039137 1.0148338 0.111123785 0.62065846 0.2321996 
0.0 0.008739564 0.24132338 0.047615703 0.025191206 0.115080096 
0.0 0.0 0.0 0.0 0.0 0.07698792 
0.0 0.0 0.0 0.0 0.0 0.07698792 
0.0 0.0 0.0 0.0 0.0 0.07698792 
0.0 0.0 0.0 0.0 0.0 0.07698792 
0.0 0.0 0.0 0.0 0.0 0.07698792 
0.0 0.0 0.0 0.0 0.0 0.07698792 
0.0 0.0 0.0 0.0 0.0 0.07698792 
0.0 0.0 0.0 0.0 0.0 0.07698792 
0.3441111 0.0 0.0 0.06463886 0.19451101 0.46771345 
1.1486204 0.0 0.0 0.15723781 0.6463855 1.2228591 
1.3504415 0.0 0.0 0.31889048 0.7721116 1.2285633 
0.91117376 0.33501387 0.0 0.38093233 0.712816 0.48621023 
0.24107921 1.0596329 1.2470988 0.37334386 0.74494016 0.0 
0.53661984 0.8952989 1.8696831 0.0892095 1.0241966 0.0 
1.3577204 0.78195924 0.48953456 0.0 1.4481066 0.0 
1.2458818 1.0450555 0.0 0.0 1.833291 0.0 
0.43839306 1.5305848 0.0 0.0 1.9079856 0.0 
0.0 1.7835724 1.4815369 0.0 1.5419928 0.0 
0.0 1.3611898 1.8807817 0.0 0.9866913 0.0 
0.0 0.7483054 1.374762 0.0 0.39186516 0.0 
0.93885 0.14274877 0.4983909 0.0 0.14896545 0.0 
1.7313416 0.2842678 0.0 0.0 0.7949945 0.0 
1.2516613 0.9815158 0.0 0.0 1.9044585 0.15659857 
0.0 1.5716484 0.0 0.0 2.3422606 0.14176035 
0.0 1.4254297 0.6782708 0.1311665 1.8966173 0.2638995 
0.0 0.5248044 1.1364431 0.06568271 1.1675317 0.4186264 
0.0 0.11631623 0.7116588 0.0939068 0.3500323 0.20933351 
0.0 0.0 0.03844539 0.0 0.0 0.08973003 
0.0 0.0 0.0 0.0 0.0 0.07698792 
0.0 0.0 0.0 0.0 0.0 0.07698792 
0.0 0.0 0.0 0.0 0.0 0.07698792 
0.0 0.0 0.0 0.0 0.0 0.07698792 
0.0 0.0 0.0 0.0 0.0 0.07698792 
0.0 0.0 0.0 0.0 0.0 0.07698792 
0.0 0.0 0.0 0.0 0.0 0.07698792 
0.0 0.0 0.0 0.0 0.0 0.07698792 
0.21057299 0.0 0.0 0.0 0.22846673 0.32139182 
0.855399 0.0 0.0 0.025873557 0.7277677 0.9956728 
1.0981288 0.0 0.0 0.18804622 0.912615 1.3936598 
0.82255274 0.0 0.0 0.4797054 0.92314744 1.2498195 
0.6016582 0.0 0.0 0.9655548 0.97234124 0.9727112 
0.8521796 0.41421553 1.1409992 1.3333899 1.4408072 0.90286213 
1.1023867 0.74157715 0.5779724 1.0377051 2.0110288 0.817079 
0.9751304 1.0246944 0.0 0.41868678 2.084724 0.41669 
0.44479072 1.3467872 0.41260743 0.102841154 1.7760742 0.0 
0.0 1.4350806 1.8555664 0.0 1.4769439 0.0 
0.0 1.4122548 2.298911 0.0 1.1652867 0.0 
0.31648606 1.1266258 1.7919892 0.0 0.86784697 0.0 
0.9607193 0.85083365 0.74895614 0.0 1.146098 0.0 
1.0561423 0.86943805 0.0 0.005809146 2.0292299 0.17311971 
0.28917703 1.3586835 0.0 0.20366609 2.5865262 0.42779642 
0.0 1.4942391 0.0 0.31099808 2.2366 0.50044465 
0.0 0.87649715 0.9254396 0.2565192 1.4727548 0.53964293 
0.0 0.27904397 0.96613765 0.15440868 0.6824765 0.40051758 
0.0 0.0 0.44888622 0.05702503 0.12063341 0.14369407 
0.0 0.0 0.0 0.0 0.0 0.07812942 
0.0 0.0 0.0 0.0 0.0 0.07698792 
0.0 0.0 0.0 0.0 0.0 0.07698792 
0.0 0.0 0.0 0.0 0.0 0.07698792 
0.0 0.0 0.0 0.0 0.0 0.07698792 
0.0 0.0 0.0 0.0 0.0 0.07698792 
0.0 0.0 0.0 0.0 0.0 0.07698792 
0.0 0.0 0.0 0.0 0.0 0.07698792 
0.0 0.0 0.0 0.0 0.0 0.07698792 
0.040280715 0.0 0.0 0.0 0.08145127 0.16640575 
0.45824057 0.0 0.0 0.0 0.49209544 0.5754882 
0.892461 0.0 0.0 0.0 0.92853403 1.1849725 
0.8484827 0.0 0.0 0.12599137 0.9932292 1.478843 
0.6924419 0.0 0.0 0.584895 1.1581434 1.636395 
0.69382256 0.0 0.0 1.1144512 1.7181373 1.8766177 
0.8445136 0.3637959 0.0 1.4881968 2.0089843 1.9037819 
0.74389267 0.6816786 0.0 1.5429765 1.9802326 1.7573583 
0.39399073 0.8474662 0.0 1.4647831 1.9529155 1.5582235 
0.0 0.8904504 0.76057565 1.5027887 1.8816594 1.2395558 
0.0 0.89699906 1.353935 1.6571974 1.7435898 0.9302656 
0.12002222 0.8982089 1.2548121 1.7671561 1.7353355 0.8986733 
0.44655126 0.8881066 0.5778419 1.5869197 2.225005 1.1508238 
0.27923897 1.1225858 0.0 1.2996198 2.5862546 1.2557161 
0.0 1.199533 0.0 0.7986824 2.4094162 1.0271673 
0.0 0.936309 0.2515747 0.46472037 1.6324183 0.8014141 
0.0 0.36667714 0.7838433 0.176728 0.84643024 0.5777469 
0.0 0.08958709 0.62630576 0.07180048 0.30406234 0.29148299 
0.0 0.0 0.13653848 0.0 0.0297021 0.10351498 
0.0 0.0 0.0 0.0 0.0 0.07698792 
0.0 0.0 0.0 0.0 0.0 0.07698792 
0.0 0.0 0.0 0.0 0.0 0.07698792 
0.0 0.0 0.0 0.0 0.0 0.07698792 
0.0 0.0 0.0 0.0 0.0 0.07698792 
0.0 0.0 0.0 0.0 0.0 0.07698792 
0.0 0.0 0.0 0.0 0.0 0.07698792 
0.0 0.0 0.0 0.0 0.0 0.07698792 
0.0 0.0 0.0 0.0 0.0 0.07698792 
0.0 0.0 0.0 0.0 0.0 0.09431645 
0.145203 0.0 0.0 0.0 0.26390815 0.22922605 
0.48589033 0.0 0.0 0.0 0.58921987 0.5723673 
0.7382822 0.0 0.0 0.0 0.9672671 1.0309174 
0.79985476 0.0 0.0 0.0 1.3211617 1.4743419 
0.7375664 0.0 0.0 0.0 1.6184965 1.7498665 
0.6203605 0.0 0.0 0.15829095 1.8746278 1.9408517 
0.5489214 0.0 0.0 0.511164 2.062068 2.0308623 
0.40613827 0.049363405 0.0 0.8283781 2.1312666 1.9698234 
0.20526826 0.25619903 0.0 1.1221133 2.0558038 1.9006488 
0.11969778 0.4052221 0.0 1.3409826 2.0079443 1.8511283 
0.20933384 0.47387436 0.0 1.3999311 2.0837152 1.8361735 
0.22411418 0.6473111 0.0 1.2881469 2.1266124 1.7376094 
0.0 0.7578842 0.0 0.85659575 2.0116708 1.5130763 
0.0 0.72324175 0.0 0.4234197 1.4174563 1.1079376 
0.0 0.33402935 0.2681149 0.09098411 0.7684728 0.69057506 
0.0 0.04369103 0.47420645 0.0 0.37807298 0.4151851 
0.0 0.0 0.281216 0.0 0.1196869 0.15974319 
0.0 0.0 0.0 0.0 0.0 0.081097305 
0.0 0.0 0.0 0.0 0.0 0.07698792 
0.0 0.0 0.0 0.0 0.0 0.07698792 
0.0 0.0 0.0 0.0 0.0 0.07698792 
0.0 0.0 0.0 0.0 0.0 0.07698792 
0.0 0.0 0.0 0.0 0.0 0.07698792 
0.0 0.0 0.0 0.0 0.0 0.07698792 
0.0 0.0 0.0 0.0 0.0 0.07698792 
0.0 0.0 0.0 0.0 0.0 0.07698792 
0.0 0.0 0.0 0.0 0.0 0.07698792 
0.0 0.0 0.0 0.0 0.0 0.07698792 
0.0 0.0 0.0 0.0 0.0 0.08193893 
0.09709525 0.0 0.0 0.0 0.20138426 0.1911256 
0.33048952 0.0 0.0 0.0 0.4909157 0.3891992 
0.47528648 0.0 0.0 0.0 0.7400654 0.61918914 
0.51157236 0.0 0.0 0.0 1.0071235 0.9142522 
0.47274113 0.0 0.0 0.0 1.2328376 1.1923258 
0.46460766 0.0 0.0 0.0 1.393858 1.4391682 
0.38570744 0.0 0.0 0.0 1.4731269 1.5694611 
0.35321853 0.0 0.0 0.0 1.5010643 1.6520426 
0.29561764 0.0038743522 0.0 0.0 1.5180637 1.6905015 
0.2390889 0.019855771 0.0 0.0 1.5095865 1.6512403 
0.09664349 0.0 0.0 0.0 1.4317483 1.4553132 
0.0 0.0 0.0 0.0 1.0825921 1.0689445 
0.0 0.0 0.0 0.0 0.6195802 0.6619516 
0.0 0.0 0.06479628 0.0 0.34904256 0.39703494 
0.0 0.0 0.15610138 0.0 0.16150732 0.20321505 
0.0 0.0 0.03447912 0.0 0.0035561956 0.08903175 
0.0 0.0 0.0 0.0 0.0 0.07698792 
0.0 0.0 0.0 0.0 0.0 0.07698792 
0.0 0.0 0.0 0.0 0.0 0.07698792 
0.0 0.0 0.0 0.0 0.0 0.07698792 
0.0 0.0 0.0 0.0 0.0 0.07698792 
0.0 0.0 0.0 0.0 0.0 0.07698792 
0.0 0.0 0.0 0.0 0.0 0.07698792 
0.0 0.0 0.0 0.0 0.0 0.07698792 
0.0 0.0 0.0 0.0 0.0 0.07698792 
0.0 0.0 0.0 0.0 0.0 0.07698792 
0.0 0.0 0.0 0.0 0.0 0.07698792 
0.0 0.0 0.0 0.0 0.0 0.07698792 
0.0 0.0 0.0 0.0 0.0 0.07698792 
0.0 0.0 0.0 0.0 0.011261579 0.10731285 
0.07954092 0.0 0.0 0.0 0.17007728 0.18312062 
0.1554305 0.0 0.0 0.0 0.31439528 0.25025004 
0.23021254 0.0 0.0 0.0 0.5218345 0.3498143 
0.26717392 0.0 0.0 0.0 0.71894443 0.45955026 
0.22811797 0.0 0.0 0.0 0.83577853 0.5031411 
0.20006508 0.0 0.0 0.0 0.9089681 0.5511577 
0.15617198 0.0 0.0 0.0 0.95921 0.5708331 
0.10794319 0.0 0.0 0.0 0.9158512 0.548556 
0.0 0.0 0.0 0.0 0.70788366 0.4529997 
0.0 0.0 0.0 0.0 0.44456854 0.3269521 
0.0 0.0 0.0 0.0 0.2577493 0.23712245 
0.0 0.0 0.0 0.0 0.10918209 0.15053168 
0.0 0.0 0.0 0.0 0.0 0.08956928 
0.0 0.0 0.0 0.0 0.0 0.07767282 
0.0 0.0 0.0 0.0 0.0 0.07698792 
0.0 0.0 0.0 0.0 0.0 0.07698792 
0.0 0.0 0.0 0.0 0.0 0.07698792 
0.0 0.0 0.0 0.0 0.0 0.07698792 
0.0 0.0 0.0 0.0 0.0 0.07698792 
0.0 0.0 0.0 0.0 0.0 0.07698792 
0.0 0.0 0.0 0.0 0.0 0.07698792 
0.0 0.0 0.0 0.0 0.0 0.07698792 
0.0 0.0 0.0 0.0 0.0 0.07698792 
0.0 0.0 0.0 0.0 0.0 0.07698792 
0.0 0.0 0.0 0.0 0.0 0.07698792 
0.0 0.0 0.0 0.0 0.0 0.07698792 
0.0 0.0 0.0 0.0 0.0 0.07698792 
0.0 0.0 0.0 0.0 0.0 0.07698792 
0.0 0.0 0.0 0.0 0.0 0.07698792 
0.0 0.0 0.0 0.0 0.0 0.07698792 
0.0 0.0 0.0 0.0 0.0 0.07698792 
0.0 0.0 0.0 0.0 0.0 0.07698792 
0.0 0.0 0.0 0.0 0.0 0.07698792 
0.0 0.0 0.0 0.0 0.0 0.07698792 
0.0 0.0 0.0 0.0 0.0 0.07698792 
0.0 0.0 0.0 0.0 0.0 0.07698792 
0.0 0.0 0.0 0.0 0.0 0.07698792 
0.0 0.0 0.0 0.0 0.0 0.07698792 
0.0 0.0 0.0 0.0 0.0 0.07698792 
0.0 0.0 0.0 0.0 0.0 0.07698792 
0.0 0.0 0.0 0.0 0.0 0.07698792 
0.0 0.0 0.0 0.0 0.0 0.07698792 
0.0 0.0 0.0 0.0 0.0 0.07698792 
0.0 0.0 0.0 0.0 0.0 0.07698792 
0.0 0.0 0.0 0.0 0.0 0.07698792 
0.0 0.0 0.0 0.0 0.0 0.07698792 
0.0 0.0 0.0 0.0 0.0 0.07698792 
0.0 0.0 0.0 0.0 0.0 0.07698792 
0.0 0.0 0.0 0.0 0.0 0.07698792 
0.0 0.0 0.0 0.0 0.0 0.07698792 
0.0 0.0 0.0 0.0 0.0 0.07698792 
0.0 0.0 0.0 0.0 0.0 0.07698792 
0.0 0.0 0.0 0.0 0.0 0.07698792 
0.0 0.0 0.0 0.0 0.0 0.07698792 
0.0 0.0 0.0 0.0 0.0 0.07698792 
0.0 0.0 0.0 0.0 0.0 0.07698792 
0.0 0.0 0.0 0.0 0.0 0.07698792 
0.0 0.0 0.0 0.0 0.0 0.07698792 
0.0 0.0 0.0 0.0 0.0 0.07698792 
0.0 0.0 0.0 0.0 0.0 0.07698792 
0.0 0.0 0.0 0.0 0.0 0.07698792 
0.0 0.0 0.0 0.0 0.0 0.07698792 
0.0 0.0 0.0 0.0 0.0 0.07698792 
0.0 0.0 0.0 0.0 0.0 0.07698792 
0.0 0.0 0.0 0.0 0.0 0.07698792 
0.0 0.0 0.0 0.0 0.0 0.07698792 
0.0 0.0 0.0 0.0 0.0 0.07698792 
0.0 0.0 0.0 0.0 0.0 0.07698792 
0.0 0.0 0.0 0.0 0.0 0.07698792 
0.0 0.0 0.0 0.0 0.0 0.07698792 
0.0 0.0 0.0 0.0 0.0 0.07698792 
0.0 0.0 0.0 0.0 0.0 0.07698792 
0.0 0.0 0.0 0.0 0.0 0.07698792 
0.0 0.0 0.0 0.0 0.0 0.07698792 
0.0 0.0 0.0 0.0 0.0 0.07698792 
0.0 0.0 0.0 0.0 0.0 0.07698792 
0.0 0.0 0.0 0.0 0.0 0.07698792 
0.0 0.0 0.0 0.0 0.0 0.07698792 
0.0 0.0 0.0 0.0 0.0 0.07698792 
0.0 0.0 0.0 0.0 0.0 0.07698792 
0.0 0.0 0.0 0.0 0.0 0.07698792 
0.0 0.0 0.0 0.0 0.0 0.07698792 
0.0 0.0 0.0 0.0 0.0 0.07698792 
0.0 0.0 0.0 0.0 0.0 0.07698792 
0.0 0.0 0.0 0.0 0.0 0.07698792 
0.0 0.0 0.0 0.0 0.0 0.07698792 
0.0 0.0 0.0 0.0 0.0 0.07698792 
0.0 0.0 0.0 0.0 0.0 0.07698792 
0.0 0.0 0.0 0.0 0.0 0.07698792 
0.0 0.0 0.0 0.0 0.0 0.07698792 
0.0 0.0 0.0 0.0 0.0 0.07698792 
0.0 0.0 0.0 0.0 0.0 0.07698792 
0.0 0.0 0.0 0.0 0.0 0.07698792 
0.0 0.0 0.0 0.0 0.0 0.07698792 
0.0 0.0 0.0 0.0 0.0 0.07698792 
0.0 0.0 0.0 0.0 0.0 0.07698792 
0.0 0.0 0.0 0.0 0.0 0.07698792 
0.0 0.0 0.0 0.0 0.0 0.07698792 
0.0 0.0 0.0 0.0 0.0 0.07698792 
0.0 0.0 0.0 0.0 0.0 0.07698792 
0.0 0.0 0.0 0.0 0.0 0.07698792 
0.0 0.0 0.0 0.0 0.0 0.07698792 
0.0 0.0 0.0 0.0 0.0 0.07698792 
0.0 0.0 0.0 0.0 0.0 0.07698792 
0.0 0.0 0.0 0.0 0.0 0.07698792 
0.0 0.0 0.0 0.0 0.0 0.07698792 
0.0 0.0 0.0 0.0 0.0 0.07698792 
0.0 0.0 0.0 0.0 0.0 0.07698792 
0.0 0.0 0.0 0.0 0.0 0.07698792 
0.0 0.0 0.0 0.0 0.0 0.07698792 
0.0 0.0 0.0 0.0 0.0 0.07698792 
0.0 0.0 0.0 0.0 0.0 0.07698792 
0.0 0.0 0.0 0.0 0.0 0.07698792 
0.0 0.0 0.0 0.0 0.0 0.07698792 
0.0 0.0 0.0 0.0 0.0 0.07698792 
0.0 0.0 0.0 0.0 0.0 0.07698792 
0.0 0.0 0.0 0.0 0.0 0.07698792 
0.0 0.0 0.0 0.0 0.0 0.07698792 
0.0 0.0 0.0 0.0 0.0 0.07698792 
0.0 0.0 0.0 0.0 0.0 0.07698792 
0.0 0.0 0.0 0.0 0.0 0.07698792 
0.0 0.0 0.0 0.0 0.0 0.07698792 
0.0 0.0 0.0 0.0 0.0 0.07698792 
0.0 0.0 0.0 0.0 0.0 0.07698792 
0.0 0.0 0.0 0.0 0.0 0.07698792 
0.0 0.0 0.0 0.0 0.0 0.07698792 
0.0 0.0 0.0 0.0 0.0 0.07698792 
0.0 0.0 0.0 0.0 0.0 0.07698792 
0.0 0.0 0.0 0.0 0.0 0.07698792 
0.0 0.0 0.0 0.0 0.0 0.07698792 
0.0 0.0 0.0 0.0 0.0 0.07698792 

