0.0 0.0 0.0 0.0 0.0 0.07698792 
0.0 0.0 0.0 0.0 0.0 0.07698792 
0.0 0.0 0.0 0.0 0.0 0.07698792 
0.0 0.0 0.0 0.0 0.0 0.07698792 
0.0 0.0 0.0 0.0 0.0 0.07698792 
0.0 0.0 0.0 0.0 0.0 0.07698792 
0.0 0.0 0.0 0.0 0.0 0.07698792 
0.0 0.0 0.0 0.0 0.0 0.07698792 
0.0 0.0 0.0 0.0 0.0 0.07698792 
0.0 0.0 0.0 0.0 0.0 0.07698792 
0.0 0.0 0.0 0.0 0.0 0.07698792 
0.0 0.0 0.0 0.0 0.0 0.07698792 
0.0 0.0 0.0 0.0 0.0 0.07698792 
0.0 0.0 0.0 0.0 0.0 0.07698792 
0.0 0.0 0.0 0.0 0.0 0.07698792 
0.0 0.0 0.0 0.0 0.0 0.07698792 
0.0 0.0 0.0 0.0 0.0 0.07698792 
0.0 0.0 0.0 0.0 0.0 0.07698792 
0.0 0.0 0.0 0.0 0.0 0.07698792 
0.0 0.0 0.0 0.0 0.0 0.07698792 
0.0 0.0 0.0 0.0 0.0 0.07698792 
0.0 0.0 0.0 0.0 0.0 0.07698792 
0.0 0.0 0.0 0.0 0.0 0.07698792 
0.0 0.0 0.0 0.0 0.0 0.07698792 
0.0 0.0 0.0 0.0 0.0 0.07698792 
0.0 0.0 0.0 0.0 0.0 0.07698792 
0.0 0.0 0.0 0.0 0.0 0.07698792 
0.0 0.0 0.0 0.0 0.0 0.07698792 
0.0 0.0 0.0 0.0 0.0 0.07698792 
0.0 0.0 0.0 0.0 0.0 0.07698792 
0.0 0.0 0.0 0.0 0.0 0.07698792 
0.0 0.0 0.0 0.0 0.0 0.07698792 
0.0 0.0 0.0 0.0 0.0 0.07698792 
0.0 0.0 0.0 0.0 0.0 0.07698792 
0.0 0.0 0.0 0.0 0.0 0.07698792 
0.0 0.0 0.0 0.0 0.0 0.06303501 
0.031619646 0.0 0.03801603 0.0 0.0 0.0 
0.09702465 0.05640948 0.07941816 0.0 0.0 0.0 
0.13205619 0.11261299 0.17102638 0.0 0.0 0.0 
0.2530533 0.19507883 0.31775165 0.0 0.0 0.0 
0.34777176 0.33665305 0.39281702 0.0 0.0 0.0 
0.35061577 0.44590577 0.4683789 0.0 0.0 0.0 
0.344988 0.56922 0.52743024 0.0 0.0 0.0 
0.22425038 0.66043955 0.42938048 0.0 0.0 0.0 
0.021967188 0.5781134 0.29722673 0.0 0.0056507923 0.0 
0.0 0.4180871 0.18236747 0.0 0.07173158 0.0 
0.0 0.22331646 0.05248993 0.0 0.07420391 0.0 
0.0 0.059043013 0.0 0.0 0.0 0.0064045936 
0.0 0.0 0.0 0.0 0.0 0.07073484 
0.0 0.0 0.0 0.0 0.0 0.07698792 
0.0 0.0 0.0 0.0 0.0 0.07698792 
0.0 0.0 0.0 0.0 0.0 0.07698792 
0.0 0.0 0.0 0.0 0.0 0.07698792 
0.0 0.0 0.0 0.0 0.0 0.07698792 
0.0 0.0 0.0 0.0 0.0 0.07698792 
0.0 0.0 0.0 0.0 0.0 0.07698792 
0.0 0.0 0.0 0.0 0.0 0.07698792 
0.0 0.0 0.0 0.0 0.0 0.07698792 
0.0 0.0 0.0 0.0 0.0 0.07698792 
0.0 0.0 0.0 0.0 0.0 0.07698792 
0.0 0.0 0.0 0.0 0.0 0.07698792 
0.0 0.0 0.0 0.0 0.0 0.06303501 
0.05353251 0.0 0.06532019 0.0 0.0 0.0 
0.23239571 0.016745187 0.17182896 0.0 0.0 0.0 
0.42795938 0.105953775 0.28570837 0.0 0.0 0.0 
0.5699599 0.31198534 0.43580395 0.0 0.0 0.0 
0.61040854 0.5530425 0.5579643 0.0 0.0 0.0 
0.61973083 0.64891 0.6831204 0.0 0.0 0.0 
0.6884366 0.6910568 0.7777409 0.0 0.0 0.0 
0.72011745 0.8812404 0.8648077 0.0 0.0 0.0 
0.55239904 1.0615591 1.0442528 0.0 0.0643132 0.0 
0.3077799 1.1630422 1.1576998 0.0 0.33589324 0.0 
0.007871129 1.2787089 1.0492563 0.0 0.48643056 0.0 
0.0 1.1173668 0.81416273 0.0 0.57042557 0.0 
0.0 0.62394077 0.48705214 0.0 0.5000959 0.0 
0.0 0.28399616 0.15288123 0.0 0.23965882 0.0 
0.0 0.076039195 0.0 0.0 0.04124022 0.0 
0.0 0.0 0.0 0.0 0.0 0.07698792 
0.0 0.0 0.0 0.0 0.0 0.07698792 
0.0 0.0 0.0 0.0 0.0 0.07698792 
0.0 0.0 0.0 0.0 0.0 0.07698792 
0.0 0.0 0.0 0.0 0.0 0.07698792 
0.0 0.0 0.0 0.0 0.0 0.07698792 
0.0 0.0 0.0 0.0 0.0 0.07698792 
0.0 0.0 0.0 0.0 0.0 0.07698792 
0.0 0.0 0.0 0.0 0.0 0.07698792 
0.0 0.0 0.0 0.0 0.0 0.07698792 
0.0 0.0 0.0 0.0 0.0 0.07698792 
0.0 0.0 0.0 0.0 0.0 0.07698792 
0.07994494 0.0 0.086775415 0.0 0.0 0.010853514 
0.42895746 0.0 0.1805217 0.0 0.0 0.0 
0.7161724 0.0128973415 0.27576685 0.0 0.0 0.0 
0.9992556 0.24457106 0.4518693 0.0 0.0 0.0 
0.97115535 0.6470695 0.6921514 0.0 0.0 0.0 
0.7877364 0.83481985 0.9083736 0.0 0.27272877 0.0 
0.7339727 0.8321944 1.0729766 0.0 0.57084346 0.0 
0.7160645 0.89311296 1.1695486 0.0 0.77561474 0.0 
0.64478505 0.97677153 1.2581108 0.0 0.95942384 0.0 
0.5402075 1.1411887 1.5075363 0.14055255 1.0980868 0.0 
0.3343712 1.4379433 1.7771456 0.15123323 1.1050472 0.0 
0.06185521 1.6637349 1.9013166 0.0 1.0871893 0.0 
0.0 1.8028128 1.7675903 0.0 1.1074942 0.0 
0.0 1.4351848 1.3236814 0.0 0.922687 0.0 
0.0 0.7169279 0.68206245 0.0 0.6251255 0.0 
0.0 0.16732734 0.11693352 0.0 0.2919985 0.0 
0.0 0.019231435 0.0 0.0 0.0 0.0514545 
0.0 0.0 0.0 0.0 0.0 0.07698792 
0.0 0.0 0.0 0.0 0.0 0.07698792 
0.0 0.0 0.0 0.0 0.0 0.07698792 
0.0 0.0 0.0 0.0 0.0 0.07698792 
0.0 0.0 0.0 0.0 0.0 0.07698792 
0.0 0.0 0.0 0.0 0.0 0.07698792 
0.0 0.0 0.0 0.0 0.0 0.07698792 
0.0 0.0 0.0 0.0 0.0 0.07698792 
0.0 0.0 0.0 0.0 0.0 0.07698792 
0.0 0.0 0.0 0.0 0.0 0.07698792 
0.0 0.0 0.022031933 0.0 0.0 0.039654452 
0.3597682 0.0 0.06831046 0.0 0.0 0.0 
0.92472994 0.0 0.15924823 0.0 0.0 0.0 
1.3293326 0.0 0.22697252 0.0 0.0 0.0 
1.3228431 0.59404916 0.54376554 0.0 0.18922758 0.0 
0.9223683 0.98901135 0.83431953 0.0 0.93949115 0.0 
0.7646798 1.2598389 1.088862 0.26148227 1.2590247 0.0 
0.81839585 1.4610612 1.231319 0.5213929 1.4479669 0.0 
0.8086767 1.6538999 1.1884923 0.6299563 1.6081291 0.0 
0.76556623 1.7849767 1.1314402 0.6848665 1.663395 0.012919582 
0.71380115 1.8665751 1.2970052 0.75442237 1.6859175 0.09159423 
0.48773956 1.9301671 1.5948622 0.7212216 1.643546 0.0 
0.17231084 1.996736 1.977302 0.58168894 1.4561669 0.0 
0.0 2.2057374 2.3043833 0.3895262 1.4449605 0.0 
0.0 1.977644 2.1254494 0.08919161 1.3457962 0.0 
0.0 1.2954826 1.4686052 0.0 0.9572969 0.0 
0.0 0.4402006 0.49853575 0.0 0.5282722 0.0 
0.0 0.037129715 0.0 0.0 0.058791015 0.0155881345 
0.0 0.0 0.0 0.0 0.0 0.07698792 
0.0 0.0 0.0 0.0 0.0 0.07698792 
0.0 0.0 0.0 0.0 0.0 0.07698792 
0.0 0.0 0.0 0.0 0.0 0.07698792 
0.0 0.0 0.0 0.0 0.0 0.07698792 
0.0 0.0 0.0 0.0 0.0 0.07698792 
0.0 0.0 0.0 0.0 0.0 0.07698792 
0.0 0.0 0.0 0.0 0.0 0.07698792 
0.0 0.0 0.0 0.0 0.0 0.07698792 
0.0 0.0 0.0 0.0 0.0 0.07698792 
0.054956526 0.0 0.0 0.0 0.0 0.063748546 
0.7306797 0.0 0.0 0.0 0.0 0.19493708 
1.4655108 0.0 0.0 0.083547086 0.0 0.15466335 
1.6379414 0.2847825 0.0 0.2598351 0.32917318 0.0 
1.3615444 1.0404316 0.28196996 0.35818014 1.208489 0.0 
0.9985902 1.5171793 0.5899659 0.4038483 1.8778151 0.09058061 
0.88785326 1.609282 0.6589922 0.45505497 2.1070328 0.29439926 
0.9077629 1.517332 0.5965024 0.39789185 2.3940454 0.52442116 
0.9124162 1.4116026 0.3750458 0.3322533 2.5615783 0.6577763 
0.91774815 1.2926886 0.15429741 0.21092807 2.6142743 0.7222074 
0.90714 1.2507633 0.120132424 0.10767308 2.6523628 0.7440888 
0.71414614 1.3216914 0.33834237 0.1356017 2.4840174 0.6063495 
0.40560025 1.5048766 0.8251616 0.16161957 2.1694727 0.2628294 
0.0 1.9741493 1.7220316 0.11638873 1.9517983 0.0 
0.0 2.1099017 2.2157166 0.099673286 1.6869158 0.0 
0.0 1.6319016 2.0894868 0.0 1.2343191 0.0 
0.0 0.8139118 1.0778736 0.0 0.7231402 0.0 
0.0 0.14990461 0.105588995 0.0 0.20060323 0.0 
0.0 0.0 0.0 0.0 0.0 0.07698792 
0.0 0.0 0.0 0.0 0.0 0.07698792 
0.0 0.0 0.0 0.0 0.0 0.07698792 
0.0 0.0 0.0 0.0 0.0 0.07698792 
0.0 0.0 0.0 0.0 0.0 0.07698792 
0.0 0.0 0.0 0.0 0.0 0.07698792 
0.0 0.0 0.0 0.0 0.0 0.07698792 
0.0 0.0 0.0 0.0 0.0 0.07698792 
0.0 0.0 0.0 0.0 0.0 0.07698792 
0.0 0.0 0.0 0.0 0.0 0.07698792 
0.13008612 0.0 0.0 0.025415428 0.0 0.18885839 
0.9780579 0.0 0.0 0.24538827 0.0 0.5691043 
1.8274405 0.0 0.0 0.37167674 0.32863048 0.73114437 
1.8242404 0.38398632 0.0 0.4363839 1.1597885 0.6232137 
1.3745215 1.088433 0.0 0.41628608 2.0130906 0.66249615 
0.76146996 1.3550131 0.0 0.38825113 2.7260747 0.83253187 
0.5081533 1.1831764 0.0 0.49455643 2.9581673 1.1691813 
0.36591357 0.9114574 0.0 0.69762456 3.0144866 1.5029335 
0.36101472 0.6970641 0.0 0.89879495 2.961717 1.7312734 
0.5805385 0.48709428 0.0 0.93257785 2.7177784 1.7783098 
0.9143255 0.60906017 0.0 0.809035 2.5187688 1.5462852 
0.95860344 0.8039146 0.0 0.4961658 2.5041332 1.1942158 
0.8350133 1.1710259 0.24122417 0.27743825 2.3814003 0.70699507 
0.058753997 1.755047 0.8744593 0.0059817666 2.2105742 0.0 
0.0 2.0108843 1.7180895 0.013416012 2.0111294 0.0 
0.0 1.6905547 2.1052232 0.011608836 1.5696503 0.0 
0.0 1.002155 1.5584575 0.0 0.9452961 0.0 
0.0 0.19001746 0.30435592 0.0 0.37300912 0.0 
0.0 0.0 0.0 0.0 0.0 0.07698792 
0.0 0.0 0.0 0.0 0.0 0.07698792 
0.0 0.0 0.0 0.0 0.0 0.07698792 
0.0 0.0 0.0 0.0 0.0 0.07698792 
0.0 0.0 0.0 0.0 0.0 0.07698792 
0.0 0.0 0.0 0.0 0.0 0.07698792 
0.0 0.0 0.0 0.0 0.0 0.07698792 
0.0 0.0 0.0 0.0 0.0 0.07698792 
0.0 0.0 0.0 0.0 0.0 0.07698792 
0.0 0.0 0.0 0.0 0.0 0.07698792 
0.16524309 0.0 0.0 0.12065918 0.0 0.3093433 
0.9860392 0.0 0.0 0.27611345 0.33665365 1.0017843 
1.5997376 0.0 0.0 0.54281473 0.99476784 1.4585464 
1.5202281 0.0 0.0 0.81109905 1.7039844 1.5644271 
0.95450455 0.65624356 0.0 1.0500944 2.4275262 1.7727482 
0.17115699 0.8445836 0.0 1.033163 2.993521 1.7583168 
0.0 0.7045539 0.0 0.92815995 3.0204432 1.7826529 
0.0 0.49086985 0.0 0.86047965 2.8157673 1.8704371 
0.24352014 0.26401135 0.0 0.75930023 2.4729095 1.8796601 
0.7961554 0.015847825 0.0 0.5817518 1.9898738 1.7872553 
1.2821627 0.083869256 0.0 0.41767448 1.811145 1.5328395 
1.4839432 0.52380013 0.0 0.2216864 1.9738718 1.0642452 
1.2330232 1.1558053 0.0 0.13217047 2.2345638 0.7531257 
0.2907263 1.6198045 0.49088508 0.025294416 2.4940565 0.2775262 
0.0 1.947088 1.322635 0.08537596 2.258775 0.0 
0.0 1.6355153 1.912621 0.19167471 1.7897584 0.0 
0.0 0.93689096 1.7031218 0.1494713 1.11784 0.0 
0.0 0.25894237 0.54365695 0.042630304 0.35916618 0.0 
0.0 0.0 0.0 0.0 0.0 0.07698792 
0.0 0.0 0.0 0.0 0.0 0.07698792 
0.0 0.0 0.0 0.0 0.0 0.07698792 
0.0 0.0 0.0 0.0 0.0 0.07698792 
0.0 0.0 0.0 0.0 0.0 0.07698792 
0.0 0.0 0.0 0.0 0.0 0.07698792 
0.0 0.0 0.0 0.0 0.0 0.07698792 
0.0 0.0 0.0 0.0 0.0 0.07698792 
0.0 0.0 0.0 0.0 0.0 0.07698792 
0.0 0.0 0.0 0.0 0.0 0.07698792 
0.16908911 0.0 0.0 0.015546148 0.12861152 0.30368257 
0.8414963 0.0 0.0 0.09743028 0.67038065 0.99161 
1.1632595 0.0 0.0 0.23397823 1.2459984 1.4665897 
0.9467662 0.0 0.0 0.43845493 1.759784 1.630156 
0.50190836 0.19767335 0.0 0.6576175 2.1738627 1.8378031 
0.040546924 0.48604676 0.0 0.67695343 2.2833042 1.7909079 
0.0 0.4895813 0.0 0.3850165 2.0505965 1.6734407 
0.1283153 0.24526864 0.0 0.0 1.6834327 1.5502579 
0.5741799 0.010443627 0.0 0.0 1.2001613 1.3524199 
1.2983046 0.0 0.0 0.0 1.0161253 1.3109338 
1.7728221 0.0 0.0 0.0 1.2271377 1.0445786 
1.5967956 0.5094468 0.0 0.0 1.7934864 0.64955866 
1.1009638 0.96769685 0.0 0.0 2.4620092 0.6640052 
0.2512507 1.6653806 0.2976511 0.0826672 2.7390375 0.45695275 
0.0 1.9374173 0.9487144 0.097922675 2.4535046 0.038857058 
0.0 1.5591108 1.6487058 0.22256163 1.7876247 0.026727587 
0.0 0.7122868 1.5477017 0.18679698 1.044387 0.17649697 
0.0 0.2417835 0.6423263 0.17368942 0.23536982 0.08494654 
0.0 0.0 0.0 0.0 0.0 0.07698792 
0.0 0.0 0.0 0.0 0.0 0.07698792 
0.0 0.0 0.0 0.0 0.0 0.07698792 
0.0 0.0 0.0 0.0 0.0 0.07698792 
0.0 0.0 0.0 0.0 0.0 0.07698792 
0.0 0.0 0.0 0.0 0.0 0.07698792 
0.0 0.0 0.0 0.0 0.0 0.07698792 
0.0 0.0 0.0 0.0 0.0 0.07698792 
0.0 0.0 0.0 0.0 0.0 0.07698792 
0.0 0.0 0.0 0.0 0.0 0.07698792 
0.066233456 0.0 0.0 0.0 0.10005432 0.19285643 
0.5010621 0.0 0.0 0.0 0.527534 0.6344505 
0.747929 0.0 0.0 0.0 0.9588993 1.0755973 
0.6039097 0.0 0.0 0.0 1.2189614 1.2846339 
0.3432849 0.0 0.0 0.0 1.34584 1.3725653 
0.0 0.0 0.0 0.0 1.2862265 1.1985309 
0.0 0.0 0.0 0.0 1.0713688 0.90924275 
0.19145682 0.0 0.0 0.0 0.6756343 0.6165903 
0.9100605 0.0 0.0 0.0 0.41674998 0.43264762 
1.7025218 0.0 0.0 0.0 0.6513473 0.40046903 
1.9424589 0.0 0.0 0.0 1.361199 0.32939172 
1.403363 0.63763493 0.0 0.0 2.1764913 0.33665755 
1.0427618 1.0527368 0.0 0.0 2.7003205 0.55400574 
0.10818823 1.719888 0.26343086 0.0 2.9618027 0.40349856 
0.0 1.8326367 0.76215976 0.0 2.4785407 0.07629159 
0.0 1.230874 1.364522 0.0 1.6770693 0.13926029 
0.0 0.4609028 1.1760703 0.032502424 0.9053362 0.2566843 
0.0 0.041701682 0.478374 0.08557467 0.14272186 0.11895392 
0.0 0.0 0.0 0.0 0.0 0.07698792 
0.0 0.0 0.0 0.0 0.0 0.07698792 
0.0 0.0 0.0 0.0 0.0 0.07698792 
0.0 0.0 0.0 0.0 0.0 0.07698792 
0.0 0.0 0.0 0.0 0.0 0.07698792 
0.0 0.0 0.0 0.0 0.0 0.07698792 
0.0 0.0 0.0 0.0 0.0 0.07698792 
0.0 0.0 0.0 0.0 0.0 0.07698792 
0.0 0.0 0.0 0.0 0.0 0.07698792 
0.0 0.0 0.0 0.0 0.0 0.07698792 
0.0 0.0 0.0 0.0 0.006994169 0.10545622 
0.1796383 0.0 0.0 0.0 0.310329 0.2559673 
0.33951622 0.0 0.0 0.0 0.5680275 0.40151578 
0.27649167 0.0 0.0 0.0 0.6529329 0.43695885 
0.09775068 0.0 0.0 0.0 0.6234814 0.45757958 
0.0 0.0 0.0 0.0 0.48809573 0.3653013 
0.0 0.0 0.0 0.0 0.11154592 0.14270982 
0.5522803 0.0 0.006251879 0.0 0.0 0.0 
1.2885377 0.0 0.036323376 0.0 0.0 0.0 
1.9067054 0.06837674 0.0 0.0 0.5632318 0.0 
1.7692974 0.8794752 0.0 0.0 1.5676365 0.15107608 
1.3114066 1.2000254 0.0 0.0 2.2732327 0.33745953 
0.8386951 1.5637037 0.0 0.040399294 2.751379 0.5764619 
0.0 1.8017302 0.38189098 0.0 2.9172447 0.36723372 
0.0 1.6957685 0.90406865 0.02142898 2.2656896 0.13663718 
0.0 0.940104 1.3161347 0.0077786082 1.4596053 0.3120505 
0.0 0.22334924 0.92819583 0.053525575 0.64564735 0.23230112 
0.0 0.0 0.21781054 0.014435756 0.040944044 0.10897436 
0.0 0.0 0.0 0.0 0.0 0.07698792 
0.0 0.0 0.0 0.0 0.0 0.07698792 
0.0 0.0 0.0 0.0 0.0 0.07698792 
0.0 0.0 0.0 0.0 0.0 0.07698792 
0.0 0.0 0.0 0.0 0.0 0.07698792 
0.0 0.0 0.0 0.0 0.0 0.07698792 
0.0 0.0 0.0 0.0 0.0 0.07698792 
0.0 0.0 0.0 0.0 0.0 0.07698792 
0.0 0.0 0.0 0.0 0.0 0.07698792 
0.0 0.0 0.0 0.0 0.0 0.07698792 
0.0 0.0 0.0 0.0 0.0 0.07698792 
0.0 0.0 0.0 0.0 0.0 0.08441444 
0.0 0.0 0.0 0.0 0.0 0.092547126 
0.0 0.0 0.0 0.0 0.0 0.08841762 
0.0 0.0 0.0 0.0 0.0 0.06265527 
0.13536039 0.0 0.09988653 0.0 0.0 0.0 
0.55579686 0.0 0.14311299 0.0 0.0 0.0 
1.238364 0.0 0.097460665 0.0 0.0 0.0 
1.8919239 0.1067502 0.0 0.0 0.29327586 0.0 
1.801579 0.7679724 0.0 0.0 1.3424617 0.05618418 
1.37292 1.0953203 0.0 0.0 2.1639876 0.3017353 
1.0405202 1.3697832 0.0 0.024940487 2.5833795 0.5668336 
0.3925234 1.5669554 0.116758 0.06495848 3.0301163 0.63842076 
0.0 1.7973257 0.4744979 0.050886437 2.7857916 0.3048609 
0.0 1.3649929 1.0936453 0.115868025 2.000377 0.22631568 
0.0 0.55165464 1.1955113 0.06431254 1.1852053 0.3777408 
0.0 0.12642145 0.70906174 0.10955836 0.3224254 0.18649784 
0.0 0.0 0.032822415 0.0 0.0 0.08926591 
0.0 0.0 0.0 0.0 0.0 0.07698792 
0.0 0.0 0.0 0.0 0.0 0.07698792 
0.0 0.0 0.0 0.0 0.0 0.07698792 
0.0 0.0 0.0 0.0 0.0 0.07698792 
0.0 0.0 0.0 0.0 0.0 0.07698792 
0.0 0.0 0.0 0.0 0.0 0.07698792 
0.0 0.0 0.0 0.0 0.0 0.07698792 
0.0 0.0 0.0 0.0 0.0 0.07698792 
0.0 0.0 0.0 0.0 0.0 0.07698792 
0.0 0.0 0.0 0.0 0.0 0.07698792 
0.0 0.0 0.0 0.0 0.0 0.07698792 
0.0 0.0 0.0 0.0 0.0 0.07698792 
0.0 0.0 0.0 0.0 0.0 0.07698792 
0.0 0.0 0.0132326335 0.0 0.0 0.044176027 
0.22834855 0.0 0.16514337 0.0 0.0 0.0 
0.59949374 0.0 0.18035442 0.0 0.0 0.0 
1.1345592 0.0 0.21076533 0.0 0.0 0.0 
1.7394907 0.11964592 0.048477598 0.0 0.17602643 0.0 
1.802597 0.6574145 0.0 0.0 1.2645941 0.0 
1.3996503 1.0425973 0.0 0.0 2.106577 0.2001634 
1.121372 1.3093854 0.0 0.0 2.5478833 0.49808735 
0.61891395 1.3862342 0.0 0.12352681 2.9611146 0.78980625 
0.0 1.6175207 0.18224964 0.21443695 3.0916083 0.734549 
0.0 1.5872504 0.54908854 0.2558613 2.5105193 0.53838515 
0.0 0.9310559 1.0885209 0.21821617 1.5602261 0.53990567 
0.0 0.29651365 1.00822 0.16575539 0.6983771 0.3807694 
0.0 0.016362514 0.43762273 0.062126424 0.11997318 0.14727989 
0.0 0.0 0.0 0.0 0.0 0.07873821 
0.0 0.0 0.0 0.0 0.0 0.07698792 
0.0 0.0 0.0 0.0 0.0 0.07698792 
0.0 0.0 0.0 0.0 0.0 0.07698792 
0.0 0.0 0.0 0.0 0.0 0.07698792 
0.0 0.0 0.0 0.0 0.0 0.07698792 
0.0 0.0 0.0 0.0 0.0 0.07698792 
0.0 0.0 0.0 0.0 0.0 0.07698792 
0.0 0.0 0.0 0.0 0.0 0.07698792 
0.0 0.0 0.0 0.0 0.0 0.07698792 
0.0 0.0 0.0 0.0 0.0 0.07698792 
0.0 0.0 0.0 0.0 0.0 0.07698792 
0.0 0.0 0.0 0.0 0.0 0.07698792 
0.0 0.0 0.0 0.0 0.0 0.06152659 
0.18774557 0.0 0.096363224 0.0 0.0 0.0 
0.65931946 0.0 0.14778972 0.0 0.0 0.0 
1.1971807 0.0 0.18773496 0.0 0.0 0.0 
1.6453636 0.27677038 0.18308169 0.0 0.053614024 0.0 
1.618674 0.7605558 0.009182848 0.0 1.2033734 0.0 
1.3433893 1.1139461 0.0 0.0 2.0657437 0.1584014 
1.1363332 1.3547314 0.0 0.07531464 2.4686203 0.45048898 
0.6622483 1.4660124 0.0 0.20431328 2.8957765 0.77394927 
0.0793349 1.454346 0.0 0.29851863 3.2080657 0.9633671 
0.0 1.450808 0.1360006 0.25551367 2.94197 0.87571263 
0.0 0.99228567 0.5562241 0.28547573 1.9569958 0.70521206 
0.0 0.3484518 0.83150184 0.15409131 0.97935635 0.56550574 
0.0 0.118762776 0.6664381 0.09952178 0.32456425 0.30005905 
0.0 0.0 0.14128068 0.0 0.040339764 0.10146688 
0.0 0.0 0.0 0.0 0.0 0.07698792 
0.0 0.0 0.0 0.0 0.0 0.07698792 
0.0 0.0 0.0 0.0 0.0 0.07698792 
0.0 0.0 0.0 0.0 0.0 0.07698792 
0.0 0.0 0.0 0.0 0.0 0.07698792 
0.0 0.0 0.0 0.0 0.0 0.07698792 
0.0 0.0 0.0 0.0 0.0 0.07698792 
0.0 0.0 0.0 0.0 0.0 0.07698792 
0.0 0.0 0.0 0.0 0.0 0.07698792 
0.0 0.0 0.0 0.0 0.0 0.07698792 
0.0 0.0 0.0 0.0 0.0 0.07698792 
0.0 0.0 0.0 0.0 0.0 0.07698792 
0.0 0.0 0.0 0.0 0.0 0.06492054 
0.12747253 0.0 0.111896254 0.0 0.0 0.0 
0.62295806 0.0 0.088151105 0.0 0.0 0.0 
1.2150424 0.0 0.1040862 0.0 0.0 0.0 
1.6734226 0.16577676 0.072515585 0.0 0.069105566 0.0 
1.6701791 0.7574331 0.021693446 0.0 1.1977278 0.0 
1.3373449 1.187428 0.0 0.056534495 2.1034677 0.18516323 
1.184073 1.3483174 0.0 0.05223008 2.4303775 0.4018831 
0.7808882 1.5335096 0.0 0.101512656 2.848208 0.65437955 
0.07294406 1.5155163 0.044845305 0.14708033 3.191623 0.8108526 
0.0 1.4910327 0.08280807 0.15108562 3.0696833 0.8707331 
0.0 1.0637141 0.21784845 0.109223455 2.2580025 0.87795866 
0.0 0.4390479 0.5147228 0.08020703 1.1026319 0.68304247 
0.0 0.11659832 0.57707775 0.028618108 0.4190753 0.433174 
0.0 0.0 0.331256 0.0 0.11664903 0.16815406 
0.0 0.0 0.0 0.0 0.0 0.08256327 
0.0 0.0 0.0 0.0 0.0 0.07698792 
0.0 0.0 0.0 0.0 0.0 0.07698792 
0.0 0.0 0.0 0.0 0.0 0.07698792 
0.0 0.0 0.0 0.0 0.0 0.07698792 
0.0 0.0 0.0 0.0 0.0 0.07698792 
0.0 0.0 0.0 0.0 0.0 0.07698792 
0.0 0.0 0.0 0.0 0.0 0.07698792 
0.0 0.0 0.0 0.0 0.0 0.07698792 
0.0 0.0 0.0 0.0 0.0 0.07698792 
0.0 0.0 0.0 0.0 0.0 0.07698792 
0.0 0.0 0.0 0.0 0.0 0.07698792 
0.0 0.0 0.0 0.0 0.0 0.07698792 
0.023965895 0.0 0.023135789 0.0 0.0 0.04052122 
0.4345246 0.0 0.08020062 0.0 0.0 0.0 
1.1787097 0.0 0.03947582 0.0 0.0 0.0 
1.7494192 0.028863199 0.0 0.0 0.029260013 0.0 
1.7487042 0.69164044 0.0 0.0 1.083518 0.0 
1.3752759 1.1623054 0.0 0.006661025 2.0499732 0.23860252 
1.1593509 1.3721255 0.00719247 0.08309701 2.4288514 0.4412317 
0.9298385 1.4395553 0.0789826 0.06432608 2.662196 0.612985 
0.3737091 1.625081 0.1612181 0.03355645 3.0649993 0.6178778 
0.0 1.6961616 0.18682742 0.0 3.0894396 0.58870286 
0.0 1.2756342 0.4807924 0.0 2.4150984 0.5843753 
0.0 0.5683028 0.54375815 0.0 1.3309544 0.39942402 
0.0 0.16788879 0.56600755 0.0 0.36831415 0.09015472 
0.0 0.10831307 0.4864828 0.0 0.06459768 0.0 
0.028897285 0.16422394 0.30700278 0.0 0.0 0.0 
0.06222436 0.2961326 0.16912577 0.0 0.0 0.0 
0.0 0.26194435 0.101284675 0.0 0.0 0.0 
0.0 0.18556319 0.05189944 0.0 0.0045114495 0.0 
0.0 0.09404332 0.0 0.0 0.0059795715 0.0 
0.0 0.0153036015 0.0 0.0 0.0 0.055102132 
0.0 0.0 0.0 0.0 0.0 0.07698792 
0.0 0.0 0.0 0.0 0.0 0.07698792 
0.0 0.0 0.0 0.0 0.0 0.07698792 
0.0 0.0 0.0 0.0 0.0 0.07698792 
0.0 0.0 0.0 0.0 0.0 0.07698792 
0.0 0.0 0.0 0.0 0.0 0.07698792 
0.0 0.0 0.0 0.0 0.0 0.07698792 
0.0 0.0 0.011592098 0.0 0.0 0.04455683 
0.28481925 0.0 0.097501926 0.0 0.0 0.0 
0.9474099 0.0 0.027123876 0.0 0.0 0.0 
1.6697595 0.0 0.0 0.0 0.0 0.0 
1.9665473 0.3871314 0.0 0.0 0.96714467 0.04511813 
1.5527184 1.0615451 0.0 0.0 1.9132935 0.23423183 
1.2003431 1.2818655 0.0 0.0 2.451603 0.44044363 
0.96874064 1.3508333 0.09164167 0.0 2.653854 0.60602015 
0.8098959 1.3132826 0.26257125 0.0 2.7923245 0.597612 
0.23295915 1.7760059 0.5184504 0.0 2.8647037 0.19207992 
0.0 1.8023303 0.8432487 0.0 2.4275184 0.0 
0.0 1.2740818 1.2923391 0.0 1.3729223 0.0 
0.0 0.6363334 1.2360772 0.0 0.53908426 0.0 
0.33599603 0.4920363 0.87099206 0.0 0.0 0.0 
0.43152702 0.69338506 0.8438413 0.0 0.0 0.0 
0.37482548 0.8143107 0.8014204 0.0 0.0 0.0 
0.31302798 0.8756403 0.8148788 0.0 0.05139983 0.0 
0.16406947 0.9112673 0.7800645 0.0 0.119204104 0.0 
0.0 0.8615849 0.63412046 0.0 0.16996153 0.0 
0.0 0.5940332 0.40199018 0.0 0.20279382 0.0 
0.0 0.38399592 0.1870594 0.0 0.1127121 0.0 
0.0 0.20813356 0.047302075 0.0 0.059641052 0.0 
0.0 0.06439024 0.0 0.0 0.0 0.0 
0.0 0.005764586 0.0 0.0 0.0 0.063960664 
0.0 0.0 0.0 0.0 0.0 0.07698792 
0.0 0.0 0.0 0.0 0.0 0.07698792 
0.0 0.0 0.0 0.0 0.0 0.07698792 
0.0 0.0 0.0 0.0 0.0 0.07698792 
0.106755674 0.0 0.060283147 0.0 0.0 0.02541481 
0.7123052 0.0 0.045049623 0.0 0.0 0.0 
1.5020773 0.0 0.0 0.0 0.0 0.120413385 
1.9903932 0.17997316 0.0 0.0 0.63130987 0.13521004 
1.6868439 0.9166207 0.0 0.0 1.6471282 0.19134331 
1.2679069 1.20115 0.0 0.0 2.3359973 0.40278578 
1.0100398 1.3858021 0.057099827 0.002420512 2.6129975 0.5858399 
0.87532485 1.2666487 0.21232224 0.0 2.7228045 0.6221516 
0.7769363 1.3490059 0.28193426 0.0 2.7095053 0.5400549 
0.18817979 1.7075717 0.69628704 0.0 2.4091053 0.0 
0.0 1.7182566 1.4273654 0.0 1.6806116 0.0 
0.0 1.2383612 1.9063028 0.0 1.045605 0.0 
0.20075718 0.9234186 1.6858828 0.0 0.6444199 0.0 
0.5563583 0.77808577 1.066534 0.0 0.46392515 0.0 
0.54827183 1.0169015 1.169857 0.0 0.5332562 0.0 
0.4633537 1.1259017 1.352604 0.0 0.63662165 0.0 
0.3666104 1.2461382 1.4164124 0.0 0.6354107 0.0 
0.23148286 1.3325549 1.4625436 0.0 0.5959141 0.0 
0.11695984 1.3842509 1.5140936 0.0 0.5792688 0.0 
0.0 1.3456793 1.2837471 0.0 0.5310359 0.0 
0.0 1.1357039 0.85444593 0.0 0.51044226 0.0 
0.0 0.6456342 0.47849357 0.0 0.46026286 0.0 
0.0 0.34335843 0.1902538 0.0 0.23393084 0.0 
0.0 0.099144325 0.0 0.0 0.08306931 0.0 
0.0 0.0 0.0 0.0 0.0 0.07698792 
0.0 0.0 0.0 0.0 0.0 0.07698792 
0.0 0.0 0.0 0.0 0.0 0.07698792 
0.0 0.0 0.0 0.0 0.0 0.07698792 
0.20940268 0.0 0.0 0.0 0.0 0.1778208 
1.0645256 0.0 0.0 0.14012326 0.0 0.39706326 
1.9368362 0.0 0.0 0.18874398 0.36142293 0.50799465 
1.9195428 0.44652137 0.0 0.22376326 1.2623205 0.4545932 
1.4055603 1.0232755 0.0 0.021123257 2.115665 0.40194497 
1.0981293 1.3136635 0.0 0.0 2.578845 0.5523455 
0.8825004 1.2761295 0.20458508 0.0 2.7166648 0.62116235 
0.8631816 1.2506043 0.2254157 0.0 2.7331944 0.6238258 
0.7862073 1.2552756 0.28049862 0.0 2.6989336 0.53651166 
0.31501597 1.4484044 0.7318853 0.0 2.231479 0.049404167 
0.016357616 1.3492912 1.5513681 0.0 1.7395725 0.0 
0.2576375 1.2291254 2.0188549 0.17860892 1.509879 0.0 
0.46288586 1.2145308 1.7823956 0.25761226 1.4007906 0.0 
0.6795652 1.3464057 1.2234409 0.30004433 1.3220387 0.0 
0.67126536 1.4384762 1.3328023 0.40016443 1.3697375 0.0 
0.57487065 1.550584 1.5715342 0.5085564 1.4065453 0.0 
0.4758407 1.5817348 1.6394994 0.44011933 1.3755612 0.0 
0.348893 1.5606142 1.8026388 0.36698446 1.2661732 0.0 
0.21067813 1.6267242 2.026331 0.22786716 1.1143694 0.0 
0.0 1.7278243 1.9625818 0.03212358 1.0896819 0.0 
0.0 1.695083 1.6904236 0.0 1.15684 0.0 
0.0 1.3358294 1.2000778 0.0 0.97201425 0.0 
0.0 0.64731145 0.6476606 0.0 0.66326314 0.0 
0.0 0.06510776 0.109024085 0.0 0.29095092 0.0 
0.0 0.0 0.0 0.0 0.0 0.07698792 
0.0 0.0 0.0 0.0 0.0 0.07698792 
0.0 0.0 0.0 0.0 0.0 0.07698792 
0.0 0.0 0.0 0.0 0.0 0.07698792 
0.30123594 0.0 0.0 0.14697018 0.0 0.3988515 
1.1684008 0.0 0.0 0.36574695 0.11810131 0.8860086 
1.9084108 0.0 0.0 0.4912426 0.80975914 1.0324907 
1.8807132 0.3831855 0.0 0.51597923 1.4848069 0.9546344 
1.4089065 1.0962883 0.0 0.36028895 2.1125622 0.77001244 
0.95640725 1.3004289 0.116993465 0.047624554 2.6267104 0.6511081 
0.8631816 1.2506043 0.2254157 0.0 2.7331944 0.6238258 
0.8631816 1.2506043 0.2254157 0.0 2.7331944 0.6238258 
0.79761684 1.3107265 0.282439 0.0 2.6321988 0.5798856 
0.5543035 1.4698404 0.5840052 0.13101628 2.3051631 0.3932024 
0.41540974 1.5298135 1.108789 0.2949045 2.0604358 0.235791 
0.59135264 1.536451 1.4101739 0.46196944 2.071413 0.25867325 
0.74896693 1.6239828 1.2325698 0.55899125 2.0637765 0.23734984 
0.8419874 1.6933124 0.8450904 0.50606996 2.0472693 0.249888 
0.8309839 1.6747228 0.7760832 0.43746477 2.121173 0.33908638 
0.74637675 1.6235815 0.89814943 0.41826826 2.1765995 0.35577732 
0.65451944 1.6855332 0.9740299 0.4597574 2.0636022 0.28213945 
0.5171208 1.7294375 1.1825709 0.53035986 1.9131191 0.17048264 
0.24862796 1.7810799 1.3959209 0.606709 1.8703929 0.04181677 
0.0 1.8167005 1.7758362 0.77568555 1.8700335 0.0 
0.0 1.9249809 1.958906 0.83216155 1.7397162 0.0 
0.0 1.4889205 1.7807518 0.7044887 1.3893095 0.0 
0.0 0.7110844 1.1270864 0.35930252 0.79537493 0.0131445825 
0.0 0.20752974 0.35582805 0.108324476 0.20674102 0.028721754 
0.0 0.0 0.0 0.0 0.0 0.07698792 
0.0 0.0 0.0 0.0 0.0 0.07698792 
0.0 0.0 0.0 0.0 0.0 0.07698792 
0.0 0.0 0.0 0.0 0.0 0.07698792 
0.32023844 0.0 0.0 0.123888716 0.14084989 0.46574304 
1.1020508 0.0 0.0 0.19394861 0.6289971 1.2077689 
1.565028 0.0 0.0 0.40048793 1.0678923 1.526124 
1.7115514 0.0 0.0 0.5814793 1.5823919 1.5807176 
1.3678505 0.5458478 0.0 0.72754306 2.0807016 1.5135372 
0.9939913 0.9308314 0.0 0.50271577 2.4951584 1.1349497 
0.8760648 1.0773525 0.13851202 0.18478516 2.6463652 0.8506916 
0.87922204 1.1956146 0.20728847 0.017810192 2.6798697 0.6748926 
0.8631816 1.2506043 0.2254157 0.0 2.7331944 0.6238258 
0.83178437 1.2793952 0.25272274 0.0 2.6848302 0.60278404 
0.8072866 1.2863258 0.31982446 0.0 2.6506321 0.58324844 
0.84310424 1.2791175 0.35565066 0.0 2.6812205 0.6008628 
0.8713217 1.2826506 0.31819844 0.0 2.6936803 0.6004676 
0.88566804 1.2858639 0.23482966 0.0 2.6953988 0.60130763 
0.8819485 1.2754002 0.20518017 0.0 2.7171373 0.6212384 
0.8386907 1.2626163 0.19489929 0.0 2.7551897 0.63815576 
0.70207745 1.2918633 0.10625277 0.03426443 2.808549 0.7102216 
0.511634 1.2295752 0.07844842 0.2179932 2.8756897 0.8814535 
0.18214169 1.3559568 0.17228189 0.5945696 2.8749738 1.0337455 
0.0 1.5285568 0.50285965 0.8515447 2.637932 0.96660006 
0.0 1.478661 1.082685 0.8861223 2.0780025 0.6878043 
0.0 0.9753272 1.4356211 0.73389703 1.2616413 0.48064262 
0.0 0.55831814 1.1683463 0.5297054 0.4486558 0.32498348 
0.0 0.21496326 0.4650722 0.20650071 0.06745747 0.116843656 
0.0 0.0 0.0 0.0 0.0 0.07698792 
0.0 0.0 0.0 0.0 0.0 0.07698792 
0.0 0.0 0.0 0.0 0.0 0.07698792 
0.0 0.0 0.0 0.0 0.0 0.07698792 
0.22589645 0.0 0.0 0.0 0.25542077 0.33309925 
0.84379834 0.0 0.0 0.0 0.73148245 0.9897277 
1.1907365 0.0 0.0 0.044770174 1.1606697 1.4938798 
1.2272446 0.0 0.0 0.30343148 1.6109986 1.7872736 
1.0710981 0.0 0.0 0.7077067 2.028292 2.0253963 
0.8676082 0.19872592 0.0 1.0956906 2.3520892 2.0492504 
0.75078714 0.46488485 0.0 1.1519469 2.5994544 1.9510944 
0.58896756 0.6268908 0.0 1.1540835 2.7492561 1.8932121 
0.45531982 0.62340903 0.0 1.0978233 2.892303 1.8579555 
0.45531982 0.62340903 0.0 1.0978233 2.892303 1.8579555 
0.45531982 0.62340903 0.0 1.0978233 2.892303 1.8579555 
0.45531982 0.62340903 0.0 1.0978233 2.892303 1.8579555 
0.45531982 0.62340903 0.0 1.0978233 2.892303 1.8579555 
0.45531982 0.62340903 0.0 1.0978233 2.892303 1.8579555 
0.45531982 0.62340903 0.0 1.0978233 2.892303 1.8579555 
0.431529 0.6510068 0.0 1.0968794 2.9252234 1.8484178 
0.31308952 0.7447719 0.0 1.0828826 3.0313852 1.8146558 
0.093386844 0.7974064 0.0 1.0309862 3.0589526 1.7828617 
0.0 0.88908315 0.0 0.8892055 2.9696555 1.6575904 
0.0 0.8090603 0.0 0.55379206 2.552159 1.4098785 
0.0 0.7285377 0.14880913 0.34546095 1.5378236 1.000792 
0.0 0.30792513 0.55059755 0.11028932 0.7719015 0.5999576 
0.0 0.06784135 0.5772885 0.056896072 0.30665538 0.36003643 
0.0 0.0 0.25984782 0.0043195942 0.05964924 0.116107255 
0.0 0.0 0.0 0.0 0.0 0.07698792 
0.0 0.0 0.0 0.0 0.0 0.07698792 
0.0 0.0 0.0 0.0 0.0 0.07698792 
0.0 0.0 0.0 0.0 0.0 0.07698792 
0.038790807 0.0 0.0 0.0 0.09103081 0.16037521 
0.44204205 0.0 0.0 0.0 0.48479852 0.5444114 
0.8241536 0.0 0.0 0.0 0.92595255 1.0761431 
0.89152354 0.0 0.0 0.0 1.3096048 1.4684575 
0.88229376 0.0 0.0 0.0017535286 1.7019163 1.8509581 
0.66361135 0.0 0.0 0.40351608 2.0398772 2.0166554 
0.49819654 0.0 0.0 0.7614453 2.2812748 2.0226827 
0.41069597 0.10054594 0.0 0.94631183 2.4217165 2.0704696 
0.37007898 0.1972808 0.0 1.0314014 2.4758382 2.0655606 
0.37007898 0.1972808 0.0 1.0314014 2.4758382 2.0655606 
0.37007898 0.1972808 0.0 1.0314014 2.4758382 2.0655606 
0.37007898 0.1972808 0.0 1.0314014 2.4758382 2.0655606 
0.37007898 0.1972808 0.0 1.0314014 2.4758382 2.0655606 
0.37007898 0.1972808 0.0 1.0314014 2.4758382 2.0655606 
0.37007898 0.1972808 0.0 1.0314014 2.4758382 2.0655606 
0.32811594 0.25007322 0.0 1.0140795 2.4645393 2.0256925 
0.17348361 0.4177064 0.0 0.9222684 2.4085577 1.8910527 
0.037499882 0.48196456 0.0 0.7068711 2.2759082 1.7956755 
0.0 0.4752969 0.0 0.27821046 1.9738563 1.5299854 
0.0 0.34097084 0.0 0.013179396 1.3255798 1.0539201 
0.0 0.07406479 0.0 0.0 0.71040976 0.6799306 
0.0 0.0 0.2148754 0.0 0.3670139 0.38198712 
0.0 0.0 0.14630875 0.0 0.140211 0.18755187 
0.0 0.0 0.032988988 0.0 0.0 0.08912793 
0.0 0.0 0.0 0.0 0.0 0.07698792 
0.0 0.0 0.0 0.0 0.0 0.07698792 
0.0 0.0 0.0 0.0 0.0 0.07698792 
0.0 0.0 0.0 0.0 0.0 0.07698792 
0.0 0.0 0.0 0.0 0.0 0.088127695 
0.12292229 0.0 0.0 0.0 0.21756564 0.21891223 
0.39777148 0.0 0.0 0.0 0.5409253 0.48100707 
0.5356022 0.0 0.0 0.0 0.82321995 0.7516183 
0.60154927 0.0 0.0 0.0 1.1029135 1.1231561 
0.5410265 0.0 0.0 0.0 1.3732735 1.4376979 
0.39539498 0.0 0.0 0.0 1.4765905 1.5761116 
0.3544845 0.0 0.0 0.0 1.5043598 1.6699121 
0.27766827 0.02096247 0.0 0.0 1.5211886 1.6949899 
0.27766827 0.02096247 0.0 0.0 1.5211886 1.6949899 
0.27766827 0.02096247 0.0 0.0 1.5211886 1.6949899 
0.27766827 0.02096247 0.0 0.0 1.5211886 1.6949899 
0.27766827 0.02096247 0.0 0.0 1.5211886 1.6949899 
0.27766827 0.02096247 0.0 0.0 1.5211886 1.6949899 
0.27766827 0.02096247 0.0 0.0 1.5211886 1.6949899 
0.2404247 0.019836936 0.0 0.0 1.5089425 1.6509082 
0.098660335 0.0 0.0 0.0 1.4312927 1.4581745 
0.0 0.0 0.0 0.0 1.2453259 1.1917696 
0.0 0.0 0.0 0.0 0.8776813 0.8411553 
0.0 0.0 0.0 0.0 0.52253014 0.49493992 
0.0 0.0 0.0 0.0 0.29192653 0.32032448 
0.0 0.0 0.08220778 0.0 0.11605418 0.15368396 
0.0 0.0 0.0 0.0 0.0 0.09309477 
0.0 0.0 0.0 0.0 0.0 0.07835772 
0.0 0.0 0.0 0.0 0.0 0.07698792 
0.0 0.0 0.0 0.0 0.0 0.07698792 
0.0 0.0 0.0 0.0 0.0 0.07698792 
0.0 0.0 0.0 0.0 0.0 0.07698792 
0.0 0.0 0.0 0.0 0.0 0.07698792 
0.0 0.0 0.0 0.0 0.0 0.08874657 
0.032992147 0.0 0.0 0.0 0.10149579 0.14917365 
0.13987678 0.0 0.0 0.0 0.27155367 0.23171225 
0.2582442 0.0 0.0 0.0 0.52125454 0.34374073 
0.30233532 0.0 0.0 0.0 0.7092251 0.4540363 
0.23931023 0.0 0.0 0.0 0.83404607 0.5028304 
0.1976789 0.0 0.0 0.0 0.9231506 0.56453943 
0.14358614 0.0 0.0 0.0 0.9694328 0.5719972 
0.14358614 0.0 0.0 0.0 0.9694328 0.5719972 
0.14358614 0.0 0.0 0.0 0.9694328 0.5719972 
0.14358614 0.0 0.0 0.0 0.9694328 0.5719972 
0.14358614 0.0 0.0 0.0 0.9694328 0.5719972 
0.14358614 0.0 0.0 0.0 0.9694328 0.5719972 
0.14358614 0.0 0.0 0.0 0.9694328 0.5719972 
0.10849516 0.0 0.0 0.0 0.915379 0.5484799 
0.0 0.0 0.0 0.0 0.712151 0.45485634 
0.0 0.0 0.0 0.0 0.51586455 0.35838187 
0.0 0.0 0.0 0.0 0.3075975 0.2650046 
0.0 0.0 0.0 0.0 0.13619497 0.15712897 
0.0 0.0 0.0 0.0 0.024758715 0.11793511 
0.0 0.0 0.0 0.0 0.0 0.081325606 
0.0 0.0 0.0 0.0 0.0 0.07698792 
0.0 0.0 0.0 0.0 0.0 0.07698792 
0.0 0.0 0.0 0.0 0.0 0.07698792 
0.0 0.0 0.0 0.0 0.0 0.07698792 
0.0 0.0 0.0 0.0 0.0 0.07698792 
0.0 0.0 0.0 0.0 0.0 0.07698792 
0.0 0.0 0.0 0.0 0.0 0.07698792 
0.0 0.0 0.0 0.0 0.0 0.07698792 
0.0 0.0 0.0 0.0 0.0 0.07698792 
0.0 0.0 0.0 0.0 0.0 0.07698792 
0.0 0.0 0.0 0.0 0.0 0.07698792 
0.0 0.0 0.0 0.0 0.0 0.07698792 
0.0 0.0 0.0 0.0 0.0 0.07698792 
0.0 0.0 0.0 0.0 0.0 0.07698792 
0.0 0.0 0.0 0.0 0.0 0.07698792 
0.0 0.0 0.0 0.0 0.0 0.07698792 
0.0 0.0 0.0 0.0 0.0 0.07698792 
0.0 0.0 0.0 0.0 0.0 0.07698792 
0.0 0.0 0.0 0.0 0.0 0.07698792 
0.0 0.0 0.0 0.0 0.0 0.07698792 
0.0 0.0 0.0 0.0 0.0 0.07698792 
0.0 0.0 0.0 0.0 0.0 0.07698792 
0.0 0.0 0.0 0.0 0.0 0.07698792 
0.0 0.0 0.0 0.0 0.0 0.07698792 
0.0 0.0 0.0 0.0 0.0 0.07698792 
0.0 0.0 0.0 0.0 0.0 0.07698792 
0.0 0.0 0.0 0.0 0.0 0.07698792 
0.0 0.0 0.0 0.0 0.0 0.07698792 
0.0 0.0 0.0 0.0 0.0 0.07698792 
0.0 0.0 0.0 0.0 0.0 0.07698792 
0.0 0.0 0.0 0.0 0.0 0.07698792 
0.0 0.0 0.0 0.0 0.0 0.07698792 
0.0 0.0 0.0 0.0 0.0 0.07698792 
0.0 0.0 0.0 0.0 0.0 0.07698792 
0.0 0.0 0.0 0.0 0.0 0.07698792 
0.0 0.0 0.0 0.0 0.0 0.07698792 
0.0 0.0 0.0 0.0 0.0 0.07698792 
0.0 0.0 0.0 0.0 0.0 0.07698792 
0.0 0.0 0.0 0.0 0.0 0.07698792 
0.0 0.0 0.0 0.0 0.0 0.07698792 
0.0 0.0 0.0 0.0 0.0 0.07698792 
0.0 0.0 0.0 0.0 0.0 0.07698792 
0.0 0.0 0.0 0.0 0.0 0.07698792 
0.0 0.0 0.0 0.0 0.0 0.07698792 
0.0 0.0 0.0 0.0 0.0 0.07698792 
0.0 0.0 0.0 0.0 0.0 0.07698792 
0.0 0.0 0.0 0.0 0.0 0.07698792 
0.0 0.0 0.0 0.0 0.0 0.07698792 
0.0 0.0 0.0 0.0 0.0 0.07698792 
0.0 0.0 0.0 0.0 0.0 0.07698792 
0.0 0.0 0.0 0.0 0.0 0.07698792 
0.0 0.0 0.0 0.0 0.0 0.07698792 
0.0 0.0 0.0 0.0 0.0 0.07698792 
0.0 0.0 0.0 0.0 0.0 0.07698792 
0.0 0.0 0.0 0.0 0.0 0.07698792 
0.0 0.0 0.0 0.0 0.0 0.07698792 
0.0 0.0 0.0 0.0 0.0 0.07698792 
0.0 0.0 0.0 0.0 0.0 0.07698792 
0.0 0.0 0.0 0.0 0.0 0.07698792 
0.0 0.0 0.0 0.0 0.0 0.07698792 
0.0 0.0 0.0 0.0 0.0 0.07698792 
0.0 0.0 0.0 0.0 0.0 0.07698792 
0.0 0.0 0.0 0.0 0.0 0.07698792 
0.0 0.0 0.0 0.0 0.0 0.07698792 
0.0 0.0 0.0 0.0 0.0 0.07698792 
0.0 0.0 0.0 0.0 0.0 0.07698792 
0.0 0.0 0.0 0.0 0.0 0.07698792 
0.0 0.0 0.0 0.0 0.0 0.07698792 
0.0 0.0 0.0 0.0 0.0 0.07698792 
0.0 0.0 0.0 0.0 0.0 0.07698792 
0.0 0.0 0.0 0.0 0.0 0.07698792 
0.0 0.0 0.0 0.0 0.0 0.07698792 
0.0 0.0 0.0 0.0 0.0 0.07698792 
0.0 0.0 0.0 0.0 0.0 0.07698792 
0.0 0.0 0.0 0.0 0.0 0.07698792 
0.0 0.0 0.0 0.0 0.0 0.07698792 
0.0 0.0 0.0 0.0 0.0 0.07698792 
0.0 0.0 0.0 0.0 0.0 0.07698792 
0.0 0.0 0.0 0.0 0.0 0.07698792 
0.0 0.0 0.0 0.0 0.0 0.07698792 
0.0 0.0 0.0 0.0 0.0 0.07698792 
0.0 0.0 0.0 0.0 0.0 0.07698792 
0.0 0.0 0.0 0.0 0.0 0.07698792 
0.0 0.0 0.0 0.0 0.0 0.07698792 
0.0 0.0 0.0 0.0 0.0 0.07698792 
0.0 0.0 0.0 0.0 0.0 0.07698792 

