0.0 0.0 0.0 0.0 0.0 0.07698792 
0.0 0.0 0.0 0.0 0.0 0.07698792 
0.0 0.0 0.0 0.0 0.0 0.07698792 
0.0 0.0 0.0 0.0 0.0 0.07698792 
0.0 0.0 0.0 0.0 0.0 0.07698792 
0.0 0.0 0.0 0.0 0.0 0.07698792 
0.0 0.0 0.0 0.0 0.0 0.07698792 
0.0 0.0 0.0 0.0 0.0 0.07698792 
0.0 0.0 0.0 0.0 0.0 0.07698792 
0.0 0.0 0.0 0.0 0.0 0.07698792 
0.0 0.0 0.0 0.0 0.0 0.07698792 
0.0 0.0 0.0 0.0 0.0 0.07698792 
0.0 0.0 0.0 0.0 0.0 0.07698792 
0.0 0.0 0.0 0.0 0.0 0.07698792 
0.0 0.0 0.0 0.0 0.0 0.07698792 
0.0 0.0 0.0 0.0 0.0 0.07698792 
0.0 0.0 0.0 0.0 0.0 0.07698792 
0.0 0.0 0.0 0.0 0.0 0.07698792 
0.0 0.0 0.0 0.0 0.0 0.07698792 
0.0 0.0 0.0 0.0 0.0 0.07698792 
0.0 0.0 0.0 0.0 0.0 0.07698792 
0.0 0.0 0.0 0.0 0.0 0.07698792 
0.0 0.0 0.0 0.0 0.0 0.07698792 
0.0 0.0 0.0 0.0 0.0 0.07698792 
0.0 0.0 0.0 0.0 0.0 0.07698792 
0.0 0.0 0.0 0.0 0.0 0.07698792 
0.0 0.0 0.0 0.0 0.0 0.07698792 
0.0 0.0 0.0 0.0 0.0 0.07698792 
0.0 0.0 0.0 0.0 0.0 0.07698792 
0.0 0.0 0.0 0.0 0.0 0.07698792 
0.0 0.0 0.0 0.0 0.0 0.07698792 
0.0 0.0 0.0 0.0 0.0 0.07698792 
0.0 0.0 0.0 0.0 0.0 0.07698792 
0.0 0.0 0.0 0.0 0.0 0.07698792 
0.0 0.0 0.0 0.0 0.0 0.07698792 
0.0 0.0 0.0 0.0 0.0 0.07698792 
0.0 0.0 0.0 0.0 0.0 0.07698792 
0.0 0.0 0.0 0.0 0.0 0.07698792 
0.0 0.0 0.0 0.0 0.0 0.07698792 
0.0 0.0 0.0 0.0 0.0 0.07698792 
0.0 0.0 0.0 0.0 0.0 0.07698792 
0.0 0.0 0.0 0.0 0.0 0.07698792 
0.0 0.0 0.0 0.0 0.0 0.07698792 
0.0 0.0 0.0 0.0 0.0 0.07698792 
0.0 0.0 0.0 0.0 0.0 0.07698792 
0.0 0.0 0.0 0.0 0.0 0.07698792 
0.0 0.0 0.0 0.0 0.0 0.07698792 
0.0 0.0 0.0 0.0 0.0 0.07698792 
0.0 0.0 0.0 0.0 0.0 0.07698792 
0.0 0.0 0.0 0.0 0.0 0.07698792 
0.0 0.0 0.0 0.0 0.0 0.07698792 
0.0 0.0 0.0 0.0 0.0 0.07698792 
0.0 0.0 0.0 0.0 0.0 0.07698792 
0.0 0.0 0.0 0.0 0.0 0.07698792 
0.0 0.0 0.0 0.0 0.0 0.07698792 
0.0 0.0 0.0 0.0 0.0 0.07698792 
0.0 0.0 0.0 0.0 0.0 0.07698792 
0.0 0.0 0.0 0.0 0.0 0.07698792 
0.0 0.0 0.0 0.0 0.0 0.07698792 
0.0 0.0 0.0 0.0 0.0 0.07698792 
0.0 0.0 0.0 0.0 0.0 0.07698792 
0.0 0.0 0.0 0.0 0.0 0.07698792 
0.0 0.0 0.0 0.0 0.0 0.054738685 
0.054597527 0.002886544 0.046565086 0.0 0.0 0.0 
0.09616861 0.07000085 0.0892481 0.0 0.0 0.0 
0.1019533 0.14822897 0.14318436 0.0 0.0 0.0 
0.13044696 0.20243052 0.22009024 0.0 0.0 0.0 
0.242578 0.23099042 0.32958984 0.0 0.0 0.0 
0.34777176 0.33665305 0.39281702 0.0 0.0 0.0 
0.35061577 0.44590577 0.4683789 0.0 0.0 0.0 
0.35401094 0.56479454 0.53867316 0.0 0.0 0.0 
0.28914335 0.6460049 0.4974597 0.0 0.0 0.0 
0.14220369 0.62442863 0.38277936 0.0 0.0 0.0 
0.0 0.52321714 0.24926865 0.0 0.03250966 0.0 
0.0 0.33797446 0.12883127 0.0 0.07877721 0.0 
0.0 0.15686345 0.019154005 0.0 0.04121921 0.0 
0.0 0.03269828 0.0 0.0 0.0 0.03894834 
0.0 0.0 0.0 0.0 0.0 0.07698792 
0.0 0.0 0.0 0.0 0.0 0.07698792 
0.0 0.0 0.0 0.0 0.0 0.07698792 
0.0 0.0 0.0 0.0 0.0 0.07698792 
0.0 0.0 0.0 0.0 0.0 0.07698792 
0.0 0.0 0.0 0.0 0.0 0.07698792 
0.0 0.0 0.0 0.0 0.0 0.07698792 
0.0 0.0 0.0 0.0 0.0 0.07698792 
0.0 0.0 0.0 0.0 0.0 0.07698792 
0.0 0.0 0.0 0.0 0.0 0.07698792 
0.0 0.0 0.0 0.0 0.0 0.07698792 
0.0 0.0 0.0 0.0 0.0 0.059263952 
0.085245356 0.0 0.09570723 0.0 0.0 0.0 
0.28733653 0.027561963 0.18822327 0.0 0.0 0.0 
0.46594602 0.13772207 0.3206857 0.0 0.0 0.0 
0.5883441 0.37614384 0.4651826 0.0 0.0 0.0 
0.555278 0.6551611 0.6244703 0.0 0.0 0.0 
0.46258003 0.74115473 0.7193997 0.0 0.0 0.0 
0.52704936 0.6651531 0.72501254 0.0 0.0 0.0 
0.6884366 0.6910568 0.7777409 0.0 0.0 0.0 
0.72011745 0.8812404 0.8648077 0.0 0.0 0.0 
0.5611641 1.0513915 1.0380602 0.0 0.052184675 0.0 
0.3734929 1.102887 1.1295601 0.0 0.2662317 0.0 
0.1794771 1.2149674 1.0957286 0.0 0.40300718 0.0 
0.0 1.2331183 0.9025594 0.0 0.5772634 0.0 
0.0 0.85586613 0.64028794 0.0 0.59305805 0.0 
0.0 0.43306375 0.31721988 0.0 0.3958378 0.0 
0.0 0.11330022 0.02914147 0.0 0.1552607 0.0 
0.0 0.00071451813 0.0 0.0 0.0 0.06865048 
0.0 0.0 0.0 0.0 0.0 0.07698792 
0.0 0.0 0.0 0.0 0.0 0.07698792 
0.0 0.0 0.0 0.0 0.0 0.07698792 
0.0 0.0 0.0 0.0 0.0 0.07698792 
0.0 0.0 0.0 0.0 0.0 0.07698792 
0.0 0.0 0.0 0.0 0.0 0.07698792 
0.0 0.0 0.0 0.0 0.0 0.07698792 
0.0 0.0 0.0 0.0 0.0 0.07698792 
0.0 0.0 0.0 0.0 0.0 0.07698792 
0.0 0.0 0.0 0.0 0.0 0.07698792 
0.121008486 0.0 0.12571761 0.0 0.0 0.0 
0.5180747 0.0 0.1914531 0.0 0.0 0.0 
0.7924477 0.009670085 0.29554817 0.0 0.0 0.0 
1.0503998 0.33641466 0.5014202 0.0 0.0 0.0 
0.91998494 0.7511247 0.75822514 0.0 0.0 0.0 
0.6623899 0.9432058 1.0129603 0.0 0.33795825 0.0 
0.5616034 1.0039188 1.2024152 0.0 0.5398784 0.0 
0.6624435 0.89419574 1.1944951 0.0 0.6543571 0.0 
0.7160645 0.89311296 1.1695486 0.0 0.77561474 0.0 
0.64478505 0.97677153 1.2581108 0.0 0.95942384 0.0 
0.5556676 1.1217389 1.4974728 0.1469343 1.1022495 0.0 
0.43028176 1.3271936 1.7170866 0.2011328 1.136157 0.0 
0.22541115 1.5287019 1.8399479 0.07403305 1.1110386 0.0 
0.0 1.7917908 1.9025654 0.0 1.1471075 0.0 
0.0 1.6918852 1.546019 0.0 1.0452312 0.0 
0.0 1.0435618 1.0398566 0.0 0.7656317 0.0 
0.0 0.37798086 0.3417694 0.0 0.4220698 0.0 
0.0 0.08768057 0.0 0.0 0.0585056 0.0 
0.0 0.0 0.0 0.0 0.0 0.07698792 
0.0 0.0 0.0 0.0 0.0 0.07698792 
0.0 0.0 0.0 0.0 0.0 0.07698792 
0.0 0.0 0.0 0.0 0.0 0.07698792 
0.0 0.0 0.0 0.0 0.0 0.07698792 
0.0 0.0 0.0 0.0 0.0 0.07698792 
0.0 0.0 0.0 0.0 0.0 0.07698792 
0.0 0.0 0.0 0.0 0.0 0.07698792 
0.0 0.0 0.0 0.0 0.0 0.07698792 
0.0 0.0 0.0 0.0 0.0 0.07698792 
0.30250776 0.0 0.00037216395 0.0 0.0 0.09426589 
1.0392005 0.0 0.11375672 0.0 0.0 0.0 
1.4098978 0.0 0.14463398 0.0 0.0 0.0 
1.2974827 0.6619299 0.5836885 0.04723027 0.2545739 0.0 
0.80898833 1.0558279 0.913568 0.007681039 1.0851723 0.0 
0.6944715 1.3104041 1.2080824 0.274843 1.2771814 0.0 
0.65894526 1.4563901 1.4389246 0.46133453 1.3709061 0.0 
0.7545531 1.5415113 1.3966011 0.5981193 1.4771816 0.0 
0.8086767 1.6538999 1.1884923 0.6299563 1.6081291 0.0 
0.76556623 1.7849767 1.1314402 0.6848665 1.663395 0.012919582 
0.72752243 1.8669899 1.2874106 0.7653002 1.6904293 0.10783488 
0.5745297 1.9404286 1.519051 0.78371567 1.683518 0.047062807 
0.3514729 1.9742047 1.7535396 0.66559154 1.5529222 0.0 
0.0 2.1547203 2.2052045 0.43244866 1.3774307 0.0 
0.0 2.2098281 2.2660322 0.15652452 1.3689004 0.0 
0.0 1.6957341 1.8414543 0.0 1.1209925 0.0 
0.0 0.8853904 0.9848293 0.0 0.7139676 0.0 
0.0 0.13440439 0.10831366 0.0 0.33041766 0.0 
0.0 0.0 0.0 0.0 0.0 0.07698792 
0.0 0.0 0.0 0.0 0.0 0.07698792 
0.0 0.0 0.0 0.0 0.0 0.07698792 
0.0 0.0 0.0 0.0 0.0 0.07698792 
0.0 0.0 0.0 0.0 0.0 0.07698792 
0.0 0.0 0.0 0.0 0.0 0.07698792 
0.0 0.0 0.0 0.0 0.0 0.07698792 
0.0 0.0 0.0 0.0 0.0 0.07698792 
0.0 0.0 0.0 0.0 0.0 0.07698792 
0.0 0.0 0.0 0.0 0.0 0.07698792 
0.5771603 0.0 0.0 0.0514864 0.0 0.36596447 
1.4769876 0.0 0.0 0.28093594 0.0 0.40629765 
1.744318 0.06212426 0.0 0.4225163 0.39944115 0.17814967 
1.4769313 1.0869889 0.19981861 0.5997238 1.1291157 0.14130488 
0.9326106 1.5857247 0.64671457 0.4687287 1.9532119 0.1483584 
0.74042594 1.6798221 0.66498744 0.5757446 2.1157732 0.36409092 
0.56865746 1.5697939 0.6395448 0.6774041 2.3446677 0.6348178 
0.58951813 1.326572 0.43867835 0.7732293 2.6007557 0.97235733 
0.6535185 1.1414701 0.056343175 0.8732525 2.7214074 1.2684023 
0.75233406 0.89807504 0.0 0.81547016 2.6577888 1.3895454 
0.91720295 0.91273767 0.0 0.6330238 2.6054807 1.2834592 
0.80261064 1.0227116 0.12230725 0.40821725 2.522317 0.9901615 
0.61572194 1.2912229 0.5079032 0.2696043 2.2814567 0.53010905 
0.12742835 1.6277481 1.223738 0.09654726 2.0076947 0.0 
0.0 2.0711284 2.029115 0.1724758 1.875569 0.0 
0.0 1.8406626 2.1906536 0.11558667 1.5849901 0.0 
0.0 1.2399333 1.6782492 0.0 1.0234803 0.0 
0.0 0.29805034 0.423917 0.0 0.514196 0.0 
0.0 0.0 0.0 0.0 0.0 0.07698792 
0.0 0.0 0.0 0.0 0.0 0.07698792 
0.0 0.0 0.0 0.0 0.0 0.07698792 
0.0 0.0 0.0 0.0 0.0 0.07698792 
0.0 0.0 0.0 0.0 0.0 0.07698792 
0.0 0.0 0.0 0.0 0.0 0.07698792 
0.0 0.0 0.0 0.0 0.0 0.07698792 
0.0 0.0 0.0 0.0 0.0 0.07698792 
0.0 0.0 0.0 0.0 0.0 0.07698792 
0.0 0.0 0.0 0.0 0.0 0.07698792 
0.7345014 0.0 0.0 0.23045744 0.0 0.68722135 
1.6691513 0.0 0.0 0.38062358 0.4116011 1.1615767 
1.7845902 0.0 0.0 0.58822626 1.192454 1.0772729 
1.4279113 0.7476641 0.0 0.80089504 1.9256512 1.2464147 
0.6045703 1.1386354 0.0 0.81649417 2.7845113 1.308177 
0.36304116 0.98847526 0.0 0.79442054 3.0029671 1.4788904 
0.17263097 0.8755908 0.0 0.85829866 3.1019158 1.646812 
0.053649783 0.6612934 0.0 0.93846285 3.0170631 1.8235316 
0.121813655 0.41005364 0.0 0.98372084 2.8474994 1.9338934 
0.554974 0.09745634 0.0 0.91786015 2.3916533 1.9474945 
1.1261513 0.20542422 0.0 0.8133258 2.1136332 1.7272322 
1.2902911 0.5389923 0.0 0.52810186 2.1674428 1.3144596 
1.1258521 1.115787 0.07974286 0.34633812 2.221706 0.82891977 
0.51265407 1.4876794 0.57591987 0.112267986 2.2942128 0.35324883 
0.0 2.106096 1.3865913 0.082732305 2.230067 0.0 
0.0 1.9519535 2.004481 0.14900622 1.8670951 0.0 
0.0 1.3142363 2.0380971 0.128349 1.2031213 0.0 
0.0 0.4672406 0.81145483 0.0 0.5844379 0.0 
0.0 0.0 0.0 0.0 0.0 0.07698792 
0.0 0.0 0.0 0.0 0.0 0.07698792 
0.0 0.0 0.0 0.0 0.0 0.07698792 
0.0 0.0 0.0 0.0 0.0 0.07698792 
0.0 0.0 0.0 0.0 0.0 0.07698792 
0.0 0.0 0.0 0.0 0.0 0.07698792 
0.0 0.0 0.0 0.0 0.0 0.07698792 
0.0 0.0 0.0 0.0 0.0 0.07698792 
0.0 0.0 0.0 0.0 0.0 0.07698792 
0.0 0.0 0.0 0.0 0.0 0.07698792 
0.764495 0.0 0.0 0.1061588 0.3597532 0.824436 
1.4487412 0.0 0.0 0.2954161 1.0095559 1.4567697 
1.294503 0.0 0.0 0.5287113 1.6261222 1.5013866 
0.9651112 0.1932433 0.0 0.8196364 2.2294874 1.9175436 
0.23023158 0.54255486 0.0 1.0149486 2.7541747 1.8914332 
0.009134293 0.63300186 0.0 0.9000235 2.6846113 1.8102777 
0.0 0.57661504 0.0 0.69681627 2.5037158 1.7607889 
0.00093816966 0.40168256 0.0 0.4461868 2.2128031 1.801161 
0.2202731 0.2639357 0.0 0.22314392 1.8869177 1.7953243 
0.81026036 0.0 0.0 0.024219591 1.4789367 1.8812075 
1.4820039 0.0 0.0 0.0 1.3752922 1.709512 
1.6400805 0.1062183 0.0 0.018891003 1.6924927 1.2011802 
1.3504064 0.88845295 0.0 0.08944997 2.1099765 0.85348994 
0.77404296 1.3337721 0.26489654 0.0 2.5820642 0.5564289 
0.0 2.0750308 0.86907476 0.0 2.4856536 0.0 
0.0 1.9047554 1.6083351 0.0 2.0138252 0.0 
0.0 1.2522895 1.977969 0.008722839 1.3418216 0.0 
0.0 0.4020956 1.0181919 0.0 0.66927344 0.0 
0.0 0.0 0.0 0.0 0.0 0.07698792 
0.0 0.0 0.0 0.0 0.0 0.07698792 
0.0 0.0 0.0 0.0 0.0 0.07698792 
0.0 0.0 0.0 0.0 0.0 0.07698792 
0.0 0.0 0.0 0.0 0.0 0.07698792 
0.0 0.0 0.0 0.0 0.0 0.07698792 
0.0 0.0 0.0 0.0 0.0 0.07698792 
0.0 0.0 0.0 0.0 0.0 0.07698792 
0.0 0.0 0.0 0.0 0.0 0.07698792 
0.0 0.0 0.0 0.0 0.0 0.07698792 
0.5394782 0.0 0.0 0.04037165 0.41921473 0.6505364 
0.9881322 0.0 0.0 0.054331988 1.0074081 1.2219548 
0.7997791 0.0 0.0 0.05207528 1.3937503 1.3727474 
0.6444583 0.041816704 0.0 0.08813541 1.7136233 1.7268047 
0.1130352 0.25993243 0.0 0.17278785 1.8709664 1.6620884 
0.0 0.2251713 0.0 0.0 1.7166274 1.5081306 
0.0 0.078712225 0.0 0.0 1.4542334 1.2779887 
0.007813267 0.0 0.0 0.0 1.2078733 1.0398791 
0.27191758 0.0 0.0 0.0 0.9526966 0.8184764 
1.1435251 0.0 0.0 0.0 0.7575853 0.9693081 
1.8379767 0.0 0.0 0.0 1.0233004 1.007822 
1.8405445 0.015371955 0.0 0.0 1.5707133 0.6348035 
1.4337204 0.7951619 0.0 0.0 2.201478 0.6596406 
0.76407945 1.3040533 0.09197279 0.0 2.752967 0.6246186 
0.0 1.9800086 0.6972696 0.0008622529 2.6110265 0.044568792 
0.0 1.7943022 1.4375957 0.038410496 2.05783 0.0 
0.0 1.1330401 1.854523 0.0855861 1.3799139 0.100651205 
0.0 0.29184648 1.0361608 0.02006374 0.6390282 0.0 
0.0 0.0 0.0 0.0 0.0 0.07698792 
0.0 0.0 0.0 0.0 0.0 0.07698792 
0.0 0.0 0.0 0.0 0.0 0.07698792 
0.0 0.0 0.0 0.0 0.0 0.07698792 
0.0 0.0 0.0 0.0 0.0 0.07698792 
0.0 0.0 0.0 0.0 0.0 0.07698792 
0.0 0.0 0.0 0.0 0.0 0.07698792 
0.0 0.0 0.0 0.0 0.0 0.07698792 
0.0 0.0 0.0 0.0 0.0 0.07698792 
0.0 0.0 0.0 0.0 0.0 0.07698792 
0.27612746 0.0 0.0 0.0 0.34025094 0.36874756 
0.5429345 0.0 0.0 0.0 0.71690595 0.6904791 
0.4579321 0.0 0.0 0.0 0.8989031 0.79298466 
0.38015044 0.0 0.0 0.0 1.0483742 0.97777826 
0.01335565 0.0 0.0 0.0 1.0697509 0.8529034 
0.0 0.0 0.0 0.0 0.8212368 0.6444593 
0.0 0.0 0.0 0.0 0.5504844 0.44201744 
0.013793901 0.0 0.0 0.0 0.2320521 0.20165887 
0.5170416 0.0 0.0 0.0 0.0 0.0 
1.5043142 0.0 0.0 0.0 0.11092067 0.16883966 
2.1592267 0.0 0.0 0.0 0.8416338 0.29512396 
1.7609363 0.62747186 0.0 0.0 1.6724445 0.22664237 
1.2858543 0.9915673 0.0 0.0 2.4262822 0.54530674 
0.59311557 1.4017198 0.061899535 0.0054779584 2.9338663 0.66107595 
0.0 1.9244956 0.5976491 0.08309439 2.67595 0.17482196 
0.0 1.5959126 1.3636231 0.17032678 2.0074 0.0 
0.0 0.8509824 1.638516 0.17769137 1.2799418 0.2882097 
0.0 0.24869165 0.957994 0.16719164 0.42983904 0.077464566 
0.0 0.0 0.0 0.0 0.0 0.07698792 
0.0 0.0 0.0 0.0 0.0 0.07698792 
0.0 0.0 0.0 0.0 0.0 0.07698792 
0.0 0.0 0.0 0.0 0.0 0.07698792 
0.0 0.0 0.0 0.0 0.0 0.07698792 
0.0 0.0 0.0 0.0 0.0 0.07698792 
0.0 0.0 0.0 0.0 0.0 0.07698792 
0.0 0.0 0.0 0.0 0.0 0.07698792 
0.0 0.0 0.0 0.0 0.0 0.07698792 
0.0 0.0 0.0 0.0 0.0 0.07698792 
0.0350008 0.0 0.0 0.0 0.10656701 0.14877754 
0.11765805 0.0 0.0 0.0 0.22182061 0.21480972 
0.10185595 0.0 0.0 0.0 0.28146052 0.22592865 
0.05051075 0.0 0.0 0.0 0.29536024 0.2678341 
0.0 0.0 0.0 0.0 0.20341875 0.20676523 
0.0 0.0 0.0 0.0 0.08267379 0.14429554 
0.07773733 0.0 0.12882304 0.0 0.0 0.00423681 
0.52756596 0.0 0.19068685 0.0 0.0 0.0 
1.1249971 0.0 0.16554472 0.0 0.0 0.0 
1.8528101 0.0 0.0 0.0 0.25849375 0.0 
1.8899839 0.6347144 0.0 0.0 1.3449762 0.0012894943 
1.3855455 0.99676496 0.0 0.0 2.150714 0.21650288 
1.0835805 1.3108919 0.0 0.0 2.642018 0.5638355 
0.25310338 1.604614 0.13238907 0.04433121 3.0525706 0.6265409 
0.0 1.8478193 0.5344696 0.076739654 2.636081 0.29831684 
0.0 1.3137634 1.2239344 0.11402151 1.8019807 0.24052566 
0.0 0.52657783 1.287276 0.13989034 0.9985524 0.3792349 
0.0 0.11811587 0.72307426 0.15859878 0.2230648 0.13465936 
0.0 0.0 0.0 0.0 0.0 0.07698792 
0.0 0.0 0.0 0.0 0.0 0.07698792 
0.0 0.0 0.0 0.0 0.0 0.07698792 
0.0 0.0 0.0 0.0 0.0 0.07698792 
0.0 0.0 0.0 0.0 0.0 0.07698792 
0.0 0.0 0.0 0.0 0.0 0.07698792 
0.0 0.0 0.0 0.0 0.0 0.07698792 
0.0 0.0 0.0 0.0 0.0 0.07698792 
0.0 0.0 0.0 0.0 0.0 0.07698792 
0.0 0.0 0.0 0.0 0.0 0.07698792 
0.0 0.0 0.0 0.0 0.0 0.07698792 
0.0 0.0 0.0 0.0 0.0 0.07698792 
0.0 0.0 0.0 0.0 0.0 0.07698792 
0.0 0.0 0.0 0.0 0.0 0.07698792 
0.0 0.0 0.0 0.0 0.0 0.07020002 
0.06963217 0.0 0.050159886 0.0 0.0 0.011140749 
0.49139428 0.0 0.097104974 0.0 0.0 0.0 
1.1347344 0.0 0.11992737 0.0 0.0 0.0 
1.6621699 0.073966764 0.04990033 0.0 0.0 0.0 
1.7356064 0.6446139 0.0 0.0 1.0798221 0.0 
1.3916543 1.0993733 0.0 0.0 2.047848 0.17134169 
1.1885545 1.309381 0.0 0.01685832 2.427217 0.41307613 
0.722783 1.5703167 0.0 0.090105236 2.8543136 0.6382626 
0.0 1.6832747 0.23658356 0.0 3.0853078 0.5380539 
0.0 1.6245908 0.64159536 0.064177826 2.398197 0.32604206 
0.0 0.84488827 1.0684981 0.0060889507 1.5150853 0.403168 
0.0 0.23903327 0.9040221 0.08546141 0.6580373 0.34857687 
0.0 0.0 0.3686306 0.025073174 0.09759575 0.12495683 
0.0 0.0 0.0 0.0 0.0 0.07698792 
0.0 0.0 0.0 0.0 0.0 0.07698792 
0.0 0.0 0.0 0.0 0.0 0.07698792 
0.0 0.0 0.0 0.0 0.0 0.07698792 
0.0 0.0 0.0 0.0 0.0 0.07698792 
0.0 0.0 0.0 0.0 0.0 0.07698792 
0.0 0.0 0.0 0.0 0.0 0.07698792 
0.0 0.0 0.0 0.0 0.0 0.07698792 
0.0 0.0 0.0 0.0 0.0 0.07698792 
0.0 0.0 0.0 0.0 0.0 0.07698792 
0.0 0.0 0.0 0.0 0.0 0.07698792 
0.0 0.0 0.0 0.0 0.0 0.07698792 
0.0 0.0 0.0 0.0 0.0 0.07698792 
0.0 0.0 0.0 0.0 0.0 0.05964106 
0.13027306 0.0 0.13072225 0.0 0.0 0.0 
0.4834876 0.0 0.16388887 0.0 0.0 0.0 
1.0318217 0.0 0.12041121 0.0 0.0 0.0 
1.6357157 0.031498246 0.046786077 0.0 0.0 0.0 
1.8050084 0.5724426 0.0 0.0 1.008251 0.0 
1.4844673 1.1159238 0.0 0.027501073 1.9184047 0.19620404 
1.1856937 1.3373927 0.0 0.04863506 2.4220645 0.4068947 
0.80523264 1.4703413 0.0 0.13281494 2.785766 0.69550186 
0.11979829 1.4850464 0.0920287 0.17916092 3.1534472 0.8120145 
0.0 1.6357508 0.3212582 0.20831606 2.846978 0.616454 
0.0 1.1579674 0.83074105 0.22583908 1.9666084 0.57625353 
0.0 0.387507 0.97160804 0.1374621 1.0360931 0.49018192 
0.0 0.081801645 0.6249174 0.07339664 0.30034134 0.24176733 
0.0 0.0 0.088763304 0.0 0.007634517 0.096992135 
0.0 0.0 0.0 0.0 0.0 0.07698792 
0.0 0.0 0.0 0.0 0.0 0.07698792 
0.0 0.0 0.0 0.0 0.0 0.07698792 
0.0 0.0 0.0 0.0 0.0 0.07698792 
0.0 0.0 0.0 0.0 0.0 0.07698792 
0.0 0.0 0.0 0.0 0.0 0.07698792 
0.0 0.0 0.0 0.0 0.0 0.07698792 
0.0 0.0 0.0 0.0 0.0 0.07698792 
0.0 0.0 0.0 0.0 0.0 0.07698792 
0.0 0.0 0.0 0.0 0.0 0.07698792 
0.0 0.0 0.0 0.0 0.0 0.07698792 
0.0 0.0 0.0 0.0 0.0 0.07698792 
0.0 0.0 0.0 0.0 0.0 0.07698792 
0.04368739 0.0 0.030595332 0.0 0.0 0.037624326 
0.44626492 0.0 0.10793186 0.0 0.0 0.0 
1.0293152 0.0 0.15775621 0.0 0.0 0.0 
1.6256785 0.051895566 0.050644524 0.0 0.0 0.0 
1.7739458 0.5965577 0.0 0.0 0.93677855 0.0 
1.4436071 1.0218376 0.0 0.0 1.9262537 0.13486934 
1.22335 1.2571855 0.0 0.0 2.3778684 0.42005593 
0.84507823 1.4562962 0.0 0.1073069 2.7446816 0.6666344 
0.31823307 1.4320507 0.041829757 0.18596022 3.1769905 0.8584058 
0.0 1.5838603 0.10276411 0.21277317 3.1042626 0.79438096 
0.0 1.2611455 0.4726591 0.24849734 2.3562677 0.6969765 
0.0 0.52733976 0.7791473 0.15427706 1.3324956 0.6273362 
0.0 0.21343574 0.77079946 0.15865026 0.44705144 0.40502417 
0.0 0.0 0.31770214 0.0 0.108521655 0.15098514 
0.0 0.0 0.0 0.0 0.0 0.08010801 
0.0 0.0 0.0 0.0 0.0 0.07698792 
0.0 0.0 0.0 0.0 0.0 0.07698792 
0.0 0.0 0.0 0.0 0.0 0.07698792 
0.0 0.0 0.0 0.0 0.0 0.07698792 
0.0 0.0 0.0 0.0 0.0 0.07698792 
0.0 0.0 0.0 0.0 0.0 0.07698792 
0.0 0.0 0.0 0.0 0.0 0.07698792 
0.0 0.0 0.0 0.0 0.0 0.07698792 
0.0 0.0 0.0 0.0 0.0 0.07698792 
0.0 0.0 0.0 0.0 0.0 0.07698792 
0.0 0.0 0.0 0.0 0.0 0.07698792 
0.0 0.0 0.0 0.0 0.0 0.07698792 
0.0 0.0 0.0 0.0 0.0 0.073593974 
0.23178905 0.0 0.051603407 0.0 0.0 0.055762745 
0.964642 0.0 0.010117017 0.0 0.0 0.038282663 
1.52672 0.0 0.0 0.0 0.0 0.0 
1.8460994 0.3470007 0.0 0.0364041 0.7776576 0.0 
1.545721 1.0187101 0.0 0.0 1.861621 0.13568142 
1.2226768 1.2637361 0.0 0.0 2.3906803 0.33623347 
0.93397325 1.4051855 0.0 0.023473293 2.7238343 0.63035727 
0.35944742 1.3838134 0.026584141 0.15713356 3.1167805 0.8477969 
0.0 1.5930672 0.08460448 0.24158874 3.164244 0.8671273 
0.0 1.3224666 0.20167094 0.13909264 2.658314 0.8825296 
0.0 0.72618896 0.5265313 0.05278644 1.5193326 0.7359178 
0.0 0.20542604 0.6269227 0.0 0.6061042 0.43186566 
0.0 0.0 0.43218163 0.0 0.17807975 0.18283626 
0.0 0.0 0.10949237 0.0 0.00036311522 0.016198952 
0.0 0.03140114 0.0 0.0 0.0 0.0 
0.0 0.035510514 0.0 0.0 0.0 0.00384257 
0.0 0.026967376 0.0 0.0 0.0 0.019744135 
0.0 0.016745768 0.0 0.0 0.0 0.040670317 
0.0 0.0033728713 0.0 0.0 0.0 0.06416217 
0.0 0.0 0.0 0.0 0.0 0.07542465 
0.0 0.0 0.0 0.0 0.0 0.07698792 
0.0 0.0 0.0 0.0 0.0 0.07698792 
0.0 0.0 0.0 0.0 0.0 0.07698792 
0.0 0.0 0.0 0.0 0.0 0.07698792 
0.0 0.0 0.0 0.0 0.0 0.07698792 
0.0 0.0 0.0 0.0 0.0 0.07698792 
0.0 0.0 0.0 0.0 0.0 0.0686916 
0.08217022 0.0 0.10369421 0.0 0.0 0.0 
0.65340495 0.0 0.0 0.0 0.0 0.0 
1.4550631 0.0 0.0 0.0 0.0 0.13859582 
1.953866 0.16363242 0.0 0.0 0.48259154 0.09604866 
1.7213843 0.98048455 0.0 0.058895614 1.4655236 0.19117314 
1.260459 1.2891632 0.0 0.055942383 2.2938745 0.3862923 
1.0285704 1.4308043 0.12192715 0.079381734 2.550394 0.5370449 
0.7041404 1.5258647 0.1578491 0.0024637775 2.9061255 0.5958386 
0.031090297 1.6861422 0.2496795 0.0 3.0498261 0.50808126 
0.0 1.5268339 0.4931543 0.0 2.67322 0.30012468 
0.0 1.0119072 0.79884523 0.0 1.5970083 0.026708655 
0.0 0.544247 0.9897574 0.0 0.53394544 0.0 
0.005795911 0.4672974 0.92055655 0.0 0.062686265 0.0 
0.23359466 0.43084046 0.6846288 0.0 0.0 0.0 
0.32623035 0.62618977 0.6047773 0.0 0.0 0.0 
0.34113342 0.64588064 0.58870786 0.0 0.0 0.0 
0.2601664 0.6910419 0.50371194 0.0 0.0 0.0 
0.06400938 0.64368856 0.37973252 0.0 0.004935559 0.0 
0.0 0.5072389 0.25267172 0.0 0.08587623 0.0 
0.0 0.29062626 0.1065476 0.0 0.10488026 0.0 
0.0 0.110948056 0.0 0.0 0.023541491 0.0 
0.0 0.017548077 0.0 0.0 0.0 0.053017773 
0.0 0.0 0.0 0.0 0.0 0.07698792 
0.0 0.0 0.0 0.0 0.0 0.07698792 
0.0 0.0 0.0 0.0 0.0 0.07698792 
0.0 0.0 0.0 0.0 0.0 0.07698792 
0.0 0.0 0.0 0.0 0.0 0.07698792 
0.0 0.0 0.0 0.0 0.0 0.0647858 
0.2985752 0.0 0.08124203 0.0 0.0 0.0 
1.2169888 0.0 0.0 0.0 0.0 0.15554449 
1.9743724 0.0 0.0 0.0 0.30844715 0.29127035 
1.9435275 0.5465675 0.0 0.0 1.2606959 0.16914967 
1.408385 1.0347486 0.0 0.0 2.1737347 0.34966472 
1.07581 1.3169137 0.0 0.0 2.5920382 0.5600058 
0.88029253 1.2732123 0.20696568 0.0 2.718554 0.6214667 
0.565568 1.5908339 0.4244851 0.0 2.7811968 0.37924168 
0.008456424 1.765801 0.6377547 0.0 2.5805235 0.0 
0.0 1.6157086 1.1362745 0.0 1.64702 0.0 
0.0 0.9641611 1.4031204 0.0 0.80378187 0.0 
0.3102598 0.74778765 1.3246701 0.0 0.26973787 0.0 
0.50240415 0.80763584 1.1792388 0.0 0.11408204 0.0 
0.5256061 1.0508009 1.0766402 0.0 0.15269536 0.0 
0.42682773 1.0562106 1.1286666 0.0 0.2592899 0.0 
0.42682773 1.0562106 1.1286666 0.0 0.2592899 0.0 
0.3417254 1.1563382 1.1879939 0.0 0.35331914 0.0 
0.119421944 1.266568 1.1656169 0.0 0.45667776 0.0 
0.0 1.2598182 0.93411183 0.0 0.58083355 0.0 
0.0 0.79089683 0.6200092 0.0 0.56852907 0.0 
0.0 0.41247153 0.27496436 0.0 0.32430032 0.0 
0.0 0.119159624 0.010794759 0.0 0.13385503 0.0 
0.0 0.0 0.0 0.0 0.0 0.07698792 
0.0 0.0 0.0 0.0 0.0 0.07698792 
0.0 0.0 0.0 0.0 0.0 0.07698792 
0.0 0.0 0.0 0.0 0.0 0.07698792 
0.0 0.0 0.0 0.0 0.0 0.07698792 
0.011892185 0.0 0.0 0.0 0.0 0.09414218 
0.59460986 0.0 0.0 0.0 0.0 0.21994543 
1.6324809 0.0 0.0 0.14851794 0.0 0.41120753 
2.0886493 0.0 0.0 0.10812524 0.8702576 0.44416064 
1.6877828 0.8986855 0.0 0.09995392 1.6937968 0.34075955 
1.2308512 1.2291005 0.0 0.0 2.463223 0.4710022 
0.9330167 1.3321722 0.14467335 0.0 2.6764364 0.6133107 
0.8631816 1.2506043 0.2254157 0.0 2.7331944 0.6238258 
0.5293359 1.4367148 0.45549136 0.0 2.6081471 0.27087626 
0.062314168 1.5092211 1.0063657 0.0 2.0723276 0.0 
0.02683337 1.2490534 1.6294539 0.0 1.5013007 0.0 
0.24775714 0.99351615 1.7535284 0.0 1.1809005 0.0 
0.51151043 0.82835335 1.3995928 0.0 1.0390105 0.0 
0.5965809 0.99836224 1.3292565 0.0045590075 1.0648209 0.0 
0.5571566 1.1917052 1.5205342 0.20044854 1.1484277 0.0 
0.52187383 1.2667861 1.647279 0.26723602 1.1884599 0.0 
0.52187383 1.2667861 1.647279 0.26723602 1.1884599 0.0 
0.38434774 1.4233891 1.7374146 0.20562533 1.1506716 0.0 
0.17147212 1.5840547 1.8661718 0.044384282 1.0668925 0.0 
0.0 1.8567488 1.8216115 0.0 1.199844 0.0 
0.0 1.5689209 1.4400452 0.0 1.0831221 0.0 
0.0 0.91223365 0.9071669 0.0 0.7451668 0.0 
0.0 0.16812882 0.19109309 0.0 0.43763137 0.0 
0.0 0.0 0.0 0.0 0.0 0.07698792 
0.0 0.0 0.0 0.0 0.0 0.07698792 
0.0 0.0 0.0 0.0 0.0 0.07698792 
0.0 0.0 0.0 0.0 0.0 0.07698792 
0.0 0.0 0.0 0.0 0.0 0.07698792 
0.06106153 0.0 0.0 0.017055985 0.0 0.1458922 
0.8829773 0.0 0.0 0.18596321 0.0 0.5443226 
1.9074323 0.0 0.0 0.18839642 0.3572347 0.80232704 
2.0545983 0.21968827 0.0 0.23594633 1.1801529 0.6533527 
1.6096323 1.0049438 0.0 0.1714175 1.8776103 0.5465636 
1.0439806 1.3870099 0.0 0.0 2.604165 0.5868983 
0.86649334 1.2549801 0.22184467 0.0 2.7303605 0.6233692 
0.8631816 1.2506043 0.2254157 0.0 2.7331944 0.6238258 
0.57444924 1.3993244 0.45564693 0.0 2.4368663 0.36742255 
0.27323574 1.426483 1.0773549 0.10178593 2.0156531 0.013555624 
0.36266786 1.4106154 1.6316531 0.33419827 1.8131312 0.0 
0.5245265 1.4781243 1.6767321 0.5496047 1.7444044 0.0 
0.75673985 1.6378047 1.2055478 0.6038938 1.705052 0.0 
0.7760787 1.7777151 1.1013856 0.6625095 1.7211623 0.062391765 
0.7204023 1.8492976 1.2617823 0.7319383 1.7545272 0.14159986 
0.6611178 1.8958278 1.389196 0.7811107 1.770326 0.16012141 
0.6611178 1.8958278 1.389196 0.7811107 1.770326 0.16012141 
0.48100215 1.9316225 1.4056054 0.74020433 1.7669326 0.05455355 
0.10280877 1.8742787 1.5767707 0.76648736 1.7066562 0.0 
0.0 2.097527 2.0393414 0.7853003 1.7649399 0.0 
0.0 1.8305993 1.9658195 0.6565483 1.5570349 0.0 
0.0 1.1243252 1.5389165 0.37357253 1.0048183 0.0 
0.0 0.27635142 0.54274136 0.032228775 0.4694917 0.0 
0.0 0.0 0.0 0.0 0.0 0.07698792 
0.0 0.0 0.0 0.0 0.0 0.07698792 
0.0 0.0 0.0 0.0 0.0 0.07698792 
0.0 0.0 0.0 0.0 0.0 0.07698792 
0.0 0.0 0.0 0.0 0.0 0.07698792 
0.105879724 0.0 0.0 0.018602148 0.0 0.18850857 
1.1459048 0.0 0.0 0.07123008 0.076405734 0.77762574 
2.076091 0.0 0.0 0.074881226 0.63686436 1.0209405 
2.0078337 0.16615257 0.0 0.04804286 1.3277618 0.74822265 
1.5585308 0.9712065 0.0 0.052766528 2.0250955 0.7113066 
0.8951956 1.2929031 0.19089627 0.0 2.705803 0.619412 
0.8631816 1.2506043 0.2254157 0.0 2.7331944 0.6238258 
0.8631816 1.2506043 0.2254157 0.0 2.7331944 0.6238258 
0.74775076 1.3564533 0.325809 0.02275702 2.5553856 0.54646623 
0.6433814 1.3936756 0.5781288 0.10283004 2.4154813 0.46910307 
0.67605525 1.4305727 0.73881567 0.21161342 2.4644067 0.5152311 
0.7532234 1.3648626 0.6603778 0.27481988 2.5718706 0.5849747 
0.86653566 1.3682153 0.30901212 0.29791215 2.614831 0.68891096 
0.80562615 1.2881306 0.02631183 0.26611823 2.725457 0.83701843 
0.72578645 1.1232194 0.0070381016 0.26893672 2.7854407 0.97125167 
0.6917079 1.0870594 0.0 0.32375643 2.8425524 1.0459986 
0.5664867 1.0167423 0.0 0.4254566 2.9086483 1.193872 
0.34465623 1.1042364 0.0 0.6888037 2.8459892 1.2454274 
0.0 1.214532 0.18412274 0.922681 2.7489502 1.2603705 
0.0 1.526626 0.88824517 0.97620136 2.3400638 0.7969726 
0.0 1.2025269 1.5069433 0.93065244 1.6335548 0.41527513 
0.0 0.73511153 1.5406458 0.667839 0.8233251 0.39609945 
0.0 0.37301755 0.80415815 0.3323277 0.22294255 0.10641558 
0.0 0.0 0.0 0.0 0.0 0.07698792 
0.0 0.0 0.0 0.0 0.0 0.07698792 
0.0 0.0 0.0 0.0 0.0 0.07698792 
0.0 0.0 0.0 0.0 0.0 0.07698792 
0.0 0.0 0.0 0.0 0.0 0.07698792 
0.11092001 0.0 0.0 0.009714906 0.0 0.21453942 
1.1463411 0.0 0.0 0.059611607 0.2366765 0.88420975 
2.0478315 0.0 0.0 0.105841994 0.7455963 1.1683679 
1.9965663 0.056673773 0.0 0.08386567 1.3790187 0.89820355 
1.534796 0.8618153 0.0 0.09846887 2.056738 0.85904574 
0.87382066 1.2141315 0.21339256 0.0 2.697826 0.65769666 
0.8631816 1.2506043 0.2254157 0.0 2.7331944 0.6238258 
0.8631816 1.2506043 0.2254157 0.0 2.7331944 0.6238258 
0.77295214 1.294859 0.112986796 0.0 2.8142292 0.67662054 
0.60877556 1.203545 0.04232485 0.10078299 2.9068663 0.8431033 
0.4954902 1.1655506 0.0 0.33650222 3.0270042 1.0789165 
0.32199925 0.9687338 0.0 0.58381706 3.0777109 1.4178724 
0.3135804 0.755693 0.0 0.85572976 2.9805377 1.6704392 
0.31112003 0.63278085 0.0 0.9650055 2.9854176 1.8199198 
0.3371253 0.5669467 0.0 1.062307 2.8339293 1.8878114 
0.29543823 0.53674656 0.0 1.062455 2.855716 1.906738 
0.2674239 0.526504 0.0 1.0224192 2.890465 1.8892968 
0.07786836 0.69715846 0.0 1.0093958 2.7960517 1.820524 
0.0 0.71087873 0.0 0.80993634 2.6815846 1.688154 
0.0 0.83979505 0.0 0.5558602 1.892232 1.2400079 
0.0 0.577461 0.53711385 0.3388287 1.0079209 0.7369812 
0.0 0.2453213 0.8522601 0.21782245 0.4634275 0.5152505 
0.0 0.06578402 0.60574865 0.13433962 0.12424794 0.15509793 
0.0 0.0 0.0 0.0 0.0 0.07698792 
0.0 0.0 0.0 0.0 0.0 0.07698792 
0.0 0.0 0.0 0.0 0.0 0.07698792 
0.0 0.0 0.0 0.0 0.0 0.07698792 
0.0 0.0 0.0 0.0 0.0 0.07698792 
0.08114447 0.0 0.0 0.016774941 0.021077786 0.21467663 
0.9308781 0.0 0.0 0.14190859 0.41616005 0.9569543 
1.5900452 0.0 0.0 0.36220998 0.9899301 1.5076032 
1.5504465 0.0 0.0 0.63839096 1.6247889 1.6027901 
1.1916683 0.3157418 0.0 0.96358645 2.259172 1.909096 
0.54396373 0.62571836 0.0 1.1351388 2.797425 1.88134 
0.45531982 0.62340903 0.0 1.0978233 2.892303 1.8579555 
0.45531982 0.62340903 0.0 1.0978233 2.892303 1.8579555 
0.36766925 0.725085 0.0 1.0943457 3.0135884 1.8228166 
0.1789571 0.78380626 0.0 1.0505441 3.05291 1.7946782 
0.0 0.780614 0.0 0.9904025 3.0458722 1.7790294 
0.0 0.5519652 0.0 0.8531641 2.9164808 1.8175335 
0.06325069 0.4047529 0.0 0.8265263 2.5841053 1.9337494 
0.12890413 0.30345613 0.0 0.70341593 2.4093988 1.8771431 
0.2753783 0.20370325 0.0 0.6616743 2.2250862 1.9381642 
0.2521185 0.27508584 0.0 0.56543714 2.141845 1.9035835 
0.16687772 0.3168147 0.0 0.43955675 2.0629873 1.7638726 
0.02513571 0.32331106 0.0 0.18375294 1.9130129 1.6604104 
0.0 0.25000533 0.0 0.0 1.6270231 1.3567407 
0.0 0.16641572 0.0 0.0 0.94370466 0.89644885 
0.0 0.0 0.0 0.0 0.4852682 0.50798035 
0.0 0.0 0.21389765 0.0 0.26274526 0.32940733 
0.0 0.0 0.19000325 0.0 0.06847085 0.110446736 
0.0 0.0 0.0 0.0 0.0 0.07698792 
0.0 0.0 0.0 0.0 0.0 0.07698792 
0.0 0.0 0.0 0.0 0.0 0.07698792 
0.0 0.0 0.0 0.0 0.0 0.07698792 
0.0 0.0 0.0 0.0 0.0 0.07698792 
0.03832891 0.0 0.0 0.0035395036 0.029212598 0.18053123 
0.69893783 0.0 0.0 0.07336354 0.5467009 0.82971627 
1.1557918 0.0 0.0 0.18725318 1.1560119 1.4184647 
1.0065134 0.0 0.0 0.37884733 1.6611806 1.6110487 
0.7848803 0.0 0.0 0.67089206 2.1413095 1.9753349 
0.3970188 0.13311988 0.0 0.9749644 2.4399412 2.0688167 
0.37007898 0.1972808 0.0 1.0314014 2.4758382 2.0655606 
0.37007898 0.1972808 0.0 1.0314014 2.4758382 2.0655606 
0.21547836 0.39177927 0.0 0.9675839 2.4342115 1.918678 
0.08741981 0.4474482 0.0 0.8097744 2.3465843 1.8410847 
0.0 0.52354366 0.0 0.48711234 2.1120331 1.7290819 
0.0 0.36857182 0.0 0.1559268 1.8220154 1.5567489 
0.10233837 0.12351617 0.0 0.0 1.5847529 1.5496554 
0.103753805 0.0 0.0 0.0 1.4386594 1.3809674 
0.1740549 0.0 0.0 0.0 1.3207753 1.3199351 
0.16693036 0.0 0.0 0.0 1.316088 1.2580509 
0.03357023 0.0 0.0 0.0 1.2266303 1.0533984 
0.0 0.0 0.0 0.0 0.9923169 0.8393487 
0.0 0.0 0.0 0.0 0.6784081 0.5693961 
0.0 0.0 0.0 0.0 0.39509118 0.36161834 
0.0 0.0 0.0 0.0 0.20490916 0.2161264 
0.0 0.0 0.004446484 0.0 0.056829814 0.124928765 
0.0 0.0 0.0 0.0 0.0 0.081325606 
0.0 0.0 0.0 0.0 0.0 0.07698792 
0.0 0.0 0.0 0.0 0.0 0.07698792 
0.0 0.0 0.0 0.0 0.0 0.07698792 
0.0 0.0 0.0 0.0 0.0 0.07698792 
0.0 0.0 0.0 0.0 0.0 0.07698792 
0.0 0.0 0.0 0.0 0.014539737 0.12811592 
0.3936721 0.0 0.0 0.0 0.42943904 0.50774133 
0.7162733 0.0 0.0 0.0 0.86963755 0.9778835 
0.6593457 0.0 0.0 0.0 1.154477 1.2562113 
0.57281226 0.0 0.0 0.0 1.3716785 1.5667238 
0.3286178 0.0 0.0 0.0 1.5100267 1.6783566 
0.27766827 0.02096247 0.0 0.0 1.5211886 1.6949899 
0.27766827 0.02096247 0.0 0.0 1.5211886 1.6949899 
0.14045501 0.016815774 0.0 0.0 1.4760711 1.532584 
0.00986743 0.0 0.0 0.0 1.3131955 1.2885027 
0.0 0.0 0.0 0.0 1.1232125 1.0203414 
0.0 0.0 0.0 0.0 0.9398459 0.72472066 
0.0 0.0 0.0 0.0 0.84295195 0.6010756 
0.0 0.0 0.0 0.0 0.6876458 0.44916245 
0.025149837 0.0 0.0 0.0 0.64591444 0.4113139 
0.0 0.0 0.0 0.0 0.5503896 0.3853207 
0.0 0.0 0.0 0.0 0.3749942 0.27078885 
0.0 0.0 0.0 0.0 0.2239844 0.23088808 
0.0 0.0 0.0 0.0 0.120828226 0.15872043 
0.0 0.0 0.0 0.0 0.022213351 0.11185938 
0.0 0.0 0.0 0.0 0.0 0.085102 
0.0 0.0 0.0 0.0 0.0 0.07759672 
0.0 0.0 0.0 0.0 0.0 0.07698792 
0.0 0.0 0.0 0.0 0.0 0.07698792 
0.0 0.0 0.0 0.0 0.0 0.07698792 
0.0 0.0 0.0 0.0 0.0 0.07698792 
0.0 0.0 0.0 0.0 0.0 0.07698792 
0.0 0.0 0.0 0.0 0.0 0.07698792 
0.0 0.0 0.0 0.0 0.0 0.08874657 
0.11517891 0.0 0.0 0.0 0.22809552 0.20425361 
0.2945012 0.0 0.0 0.0 0.5004743 0.34349954 
0.3172843 0.0 0.0 0.0 0.6663556 0.4090211 
0.27985737 0.0 0.0 0.0 0.8173637 0.516087 
0.17946398 0.0 0.0 0.0 0.9387354 0.56705076 
0.14358614 0.0 0.0 0.0 0.9694328 0.5719972 
0.14358614 0.0 0.0 0.0 0.9694328 0.5719972 
0.014303558 0.0 0.0 0.0 0.7702871 0.48535457 
0.0 0.0 0.0 0.0 0.5967543 0.3906795 
0.0 0.0 0.0 0.0 0.37240496 0.3076525 
0.0 0.0 0.0 0.0 0.18034486 0.17155415 
0.0 0.0 0.0 0.0 0.052469466 0.13834506 
0.0 0.0 0.0 0.0 0.0 0.08383689 
0.0 0.0 0.0 0.0 0.0 0.07698792 
0.0 0.0 0.0 0.0 0.0 0.07698792 
0.0 0.0 0.0 0.0 0.0 0.07698792 
0.0 0.0 0.0 0.0 0.0 0.07698792 
0.0 0.0 0.0 0.0 0.0 0.07698792 
0.0 0.0 0.0 0.0 0.0 0.07698792 
0.0 0.0 0.0 0.0 0.0 0.07698792 
0.0 0.0 0.0 0.0 0.0 0.07698792 
0.0 0.0 0.0 0.0 0.0 0.07698792 
0.0 0.0 0.0 0.0 0.0 0.07698792 
0.0 0.0 0.0 0.0 0.0 0.07698792 
0.0 0.0 0.0 0.0 0.0 0.07698792 
0.0 0.0 0.0 0.0 0.0 0.07698792 
0.0 0.0 0.0 0.0 0.0 0.07698792 
0.0 0.0 0.0 0.0 0.0 0.07698792 
0.0 0.0 0.0 0.0 0.0 0.07698792 
0.0 0.0 0.0 0.0 0.0 0.07698792 
0.0 0.0 0.0 0.0 0.0 0.07698792 
0.0 0.0 0.0 0.0 0.0 0.07698792 
0.0 0.0 0.0 0.0 0.0 0.07698792 
0.0 0.0 0.0 0.0 0.0 0.07698792 
0.0 0.0 0.0 0.0 0.0 0.07698792 
0.0 0.0 0.0 0.0 0.0 0.07698792 
0.0 0.0 0.0 0.0 0.0 0.07698792 
0.0 0.0 0.0 0.0 0.0 0.07698792 
0.0 0.0 0.0 0.0 0.0 0.07698792 
0.0 0.0 0.0 0.0 0.0 0.07698792 
0.0 0.0 0.0 0.0 0.0 0.07698792 
0.0 0.0 0.0 0.0 0.0 0.07698792 
0.0 0.0 0.0 0.0 0.0 0.07698792 
0.0 0.0 0.0 0.0 0.0 0.07698792 
0.0 0.0 0.0 0.0 0.0 0.07698792 
0.0 0.0 0.0 0.0 0.0 0.07698792 
0.0 0.0 0.0 0.0 0.0 0.07698792 
0.0 0.0 0.0 0.0 0.0 0.07698792 
0.0 0.0 0.0 0.0 0.0 0.07698792 
0.0 0.0 0.0 0.0 0.0 0.07698792 
0.0 0.0 0.0 0.0 0.0 0.07698792 
0.0 0.0 0.0 0.0 0.0 0.07698792 
0.0 0.0 0.0 0.0 0.0 0.07698792 
0.0 0.0 0.0 0.0 0.0 0.07698792 
0.0 0.0 0.0 0.0 0.0 0.07698792 
0.0 0.0 0.0 0.0 0.0 0.07698792 
0.0 0.0 0.0 0.0 0.0 0.07698792 
0.0 0.0 0.0 0.0 0.0 0.07698792 
0.0 0.0 0.0 0.0 0.0 0.07698792 
0.0 0.0 0.0 0.0 0.0 0.07698792 
0.0 0.0 0.0 0.0 0.0 0.07698792 
0.0 0.0 0.0 0.0 0.0 0.07698792 
0.0 0.0 0.0 0.0 0.0 0.07698792 
0.0 0.0 0.0 0.0 0.0 0.07698792 
0.0 0.0 0.0 0.0 0.0 0.07698792 
0.0 0.0 0.0 0.0 0.0 0.07698792 
0.0 0.0 0.0 0.0 0.0 0.07698792 
0.0 0.0 0.0 0.0 0.0 0.07698792 
0.0 0.0 0.0 0.0 0.0 0.07698792 
0.0 0.0 0.0 0.0 0.0 0.07698792 
0.0 0.0 0.0 0.0 0.0 0.07698792 
0.0 0.0 0.0 0.0 0.0 0.07698792 
0.0 0.0 0.0 0.0 0.0 0.07698792 
0.0 0.0 0.0 0.0 0.0 0.07698792 
0.0 0.0 0.0 0.0 0.0 0.07698792 
0.0 0.0 0.0 0.0 0.0 0.07698792 
0.0 0.0 0.0 0.0 0.0 0.07698792 
0.0 0.0 0.0 0.0 0.0 0.07698792 

