0.0 0.0 0.0 0.0 0.0 0.07698792 
0.0 0.0 0.0 0.0 0.0 0.07698792 
0.0 0.0 0.0 0.0 0.0 0.07698792 
0.0 0.0 0.0 0.0 0.0 0.07698792 
0.0 0.0 0.0 0.0 0.0 0.07698792 
0.0 0.0 0.0 0.0 0.0 0.07698792 
0.0 0.0 0.0 0.0 0.0 0.07698792 
0.0 0.0 0.0 0.0 0.0 0.07698792 
0.0 0.0 0.0 0.0 0.0 0.07698792 
0.0 0.0 0.0 0.0 0.0 0.07698792 
0.0 0.0 0.0 0.0 0.0 0.07698792 
0.0 0.0 0.0 0.0 0.0 0.07698792 
0.0 0.0 0.0 0.0 0.0 0.07698792 
0.0 0.0 0.0 0.0 0.0 0.07698792 
0.0 0.0 0.0 0.0 0.0 0.07698792 
0.0 0.0 0.0 0.0 0.0 0.07698792 
0.0 0.0 0.0 0.0 0.0 0.07698792 
0.0 0.0 0.0 0.0 0.0 0.07698792 
0.0 0.0 0.0 0.0 0.0 0.07698792 
0.0 0.0 0.0 0.0 0.0 0.07698792 
0.0 0.0 0.0 0.0 0.0 0.07698792 
0.0 0.0 0.0 0.0 0.0 0.07698792 
0.0 0.0 0.0 0.0 0.0 0.07698792 
0.0 0.0 0.0 0.0 0.0 0.07698792 
0.0 0.0 0.0 0.0 0.0 0.07698792 
0.0 0.0 0.0 0.0 0.0 0.07698792 
0.0 0.0 0.0 0.0 0.0 0.07698792 
0.0 0.0 0.0 0.0 0.0 0.07698792 
0.0 0.0 0.0 0.0 0.0 0.07698792 
0.0 0.0 0.0 0.0 0.0 0.07698792 
0.0 0.0 0.0 0.0 0.0 0.07698792 
0.0 0.0 0.0 0.0 0.0 0.07698792 
0.0 0.0 0.0 0.0 0.0 0.07698792 
0.0 0.0 0.0 0.0 0.0 0.07698792 
0.0 0.0 0.0 0.0 0.0 0.07698792 
0.0 0.0 0.0 0.0 0.0 0.07698792 
0.0 0.0 0.0 0.0 0.0 0.07698792 
0.0 0.0 0.0 0.0 0.0 0.07698792 
0.0 0.0 0.0 0.0 0.0 0.07698792 
0.0 0.0 0.0 0.0 0.0 0.07698792 
0.0 0.0 0.0 0.0 0.0 0.07698792 
0.0 0.0 0.0 0.0 0.0 0.07698792 
0.0 0.0 0.0 0.0 0.0 0.07698792 
0.0 0.0 0.0 0.0 0.0 0.07698792 
0.0 0.0 0.0 0.0 0.0 0.07698792 
0.0 0.0 0.0 0.0 0.0 0.07698792 
0.0 0.0 0.0 0.0 0.0 0.07698792 
0.0 0.0 0.0 0.0 0.0 0.07698792 
0.0 0.0 0.0 0.0 0.0 0.07698792 
0.0 0.0 0.0 0.0 0.0 0.07698792 
0.0 0.0 0.0 0.0 0.0 0.07698792 
0.0 0.0 0.0 0.0 0.0 0.07698792 
0.0 0.0 0.0 0.0 0.0 0.07698792 
0.0 0.0 0.0 0.0 0.0 0.07698792 
0.0 0.0 0.0 0.0 0.0 0.07698792 
0.0 0.0 0.0 0.0 0.0 0.07698792 
0.0 0.0 0.0 0.0 0.0 0.07698792 
0.0 0.0 0.0 0.0 0.0 0.07698792 
0.0 0.0 0.0 0.0 0.0 0.07698792 
0.0 0.0 0.0 0.0 0.0 0.07698792 
0.0 0.0 0.0 0.0 0.0 0.07698792 
0.0 0.0 0.0 0.0 0.0 0.07698792 
0.0 0.0 0.0 0.0 0.0 0.07698792 
0.0 0.0 0.0 0.0 0.0 0.07698792 
0.0 0.0 0.0 0.0 0.0 0.07698792 
0.0 0.0 0.0 0.0 0.0 0.07698792 
0.0 0.0 0.0 0.0 0.0 0.07698792 
0.0 0.0 0.0 0.0 0.0 0.07698792 
0.0 0.0 0.0 0.0 0.0 0.07698792 
0.0 0.0 0.0 0.0 0.0 0.07698792 
0.0 0.0 0.0 0.0 0.0 0.07698792 
0.0 0.0 0.0 0.0 0.0 0.07698792 
0.0 0.0 0.0 0.0 0.0 0.07698792 
0.0 0.0 0.0 0.0 0.0 0.07698792 
0.0 0.0 0.0 0.0 0.0 0.07698792 
0.0 0.0 0.0 0.0 0.0 0.07698792 
0.0 0.0 0.0 0.0 0.0 0.07698792 
0.0 0.0 0.0 0.0 0.0 0.07698792 
0.0 0.0 0.0 0.0 0.0 0.07698792 
0.0 0.0 0.0 0.0 0.0 0.07698792 
0.0 0.0 0.0 0.0 0.0 0.07698792 
0.0 0.0 0.0 0.0 0.0 0.07698792 
0.0 0.0 0.0 0.0 0.0 0.07698792 
0.0 0.0 0.0 0.0 0.0 0.07698792 
0.0 0.0 0.0 0.0 0.0 0.07698792 
0.0 0.0 0.0 0.0 0.0 0.07698792 
0.0 0.0 0.0 0.0 0.0 0.07698792 
0.0 0.0 0.0 0.0 0.0 0.07698792 
0.0 0.0 0.0 0.0 0.0 0.07698792 
0.0 0.0 0.0 0.0 0.0 0.07698792 
0.0 0.0 0.0 0.0 0.0 0.07698792 
0.0 0.0 0.0 0.0 0.0 0.07698792 
0.0 0.0 0.0 0.0 0.0 0.07698792 
0.0 0.0 0.0 0.0 0.0 0.07698792 
0.0 0.0 0.0 0.0 0.0 0.07698792 
0.0 0.0 0.0 0.0 0.0 0.07698792 
0.0 0.0 0.0 0.0 0.0 0.07698792 
0.0 0.0 0.0 0.0 0.0 0.07698792 
0.0 0.0 0.0 0.0 0.0 0.07698792 
0.0 0.0 0.0 0.0 0.0 0.07698792 
0.0 0.0 0.0 0.0 0.0 0.07698792 
0.0 0.0 0.0 0.0 0.0 0.07698792 
0.0 0.0 0.009985976 0.0 0.0 0.04531104 
0.17996112 0.0 0.17995173 0.0 0.0 0.0 
0.26635283 0.19282514 0.1731109 0.0 0.0 0.0 
0.05072166 0.30913 0.15200448 0.0 0.0 0.0 
0.0 0.33711198 0.16234973 0.0 0.0 0.0 
0.0 0.23849763 0.059440367 0.0 0.08393487 0.0 
0.0 0.0573875 0.0 0.0 0.0052238293 0.016020369 
0.0 0.0 0.0 0.0 0.0 0.07698792 
0.0 0.0 0.0 0.0 0.0 0.07698792 
0.0 0.0 0.0 0.0 0.0 0.07698792 
0.0 0.0 0.0 0.0 0.0 0.07698792 
0.0 0.0 0.0 0.0 0.0 0.07698792 
0.0 0.0 0.0 0.0 0.0 0.07698792 
0.0 0.0 0.0 0.0 0.0 0.07698792 
0.0 0.0 0.0 0.0 0.0 0.07698792 
0.0 0.0 0.0 0.0 0.0 0.07698792 
0.0 0.0 0.0 0.0 0.0 0.07698792 
0.0 0.0 0.0 0.0 0.0 0.07698792 
0.0 0.0 0.0 0.0 0.0 0.07698792 
0.0 0.0 0.0 0.0 0.0 0.05398447 
0.0 0.036273453 0.0 0.0 0.0 0.007681355 
0.0 0.029421803 0.0 0.0 0.0 0.0 
0.0 0.045789797 0.0 0.0 0.0 0.0 
0.0 0.025964856 0.0 0.0 0.0 0.04520142 
0.0 0.0 0.0 0.0 0.0 0.07698792 
0.0 0.0 0.0 0.0 0.0 0.07698792 
0.0 0.0 0.0 0.0 0.0 0.07698792 
0.0 0.0 0.0 0.0 0.0 0.067183174 
0.16939546 0.0 0.11704587 0.0 0.0 0.0 
0.61300725 0.0 0.1802353 0.0 0.0 0.0 
0.78581166 0.21452439 0.43979597 0.0 0.0 0.0 
0.45693153 0.9353559 0.5115497 0.0 0.0 0.0 
0.0 1.0509554 0.67405045 0.0 0.42321137 0.0 
0.0 0.53664327 0.4437546 0.0 0.5402473 0.0 
0.0 0.124492794 0.05308678 0.0 0.24510892 0.0 
0.0 0.0 0.0 0.0 0.0 0.07698792 
0.0 0.0 0.0 0.0 0.0 0.07698792 
0.0 0.0 0.0 0.0 0.0 0.07698792 
0.0 0.0 0.0 0.0 0.0 0.07698792 
0.0 0.0 0.0 0.0 0.0 0.07698792 
0.0 0.0 0.0 0.0 0.0 0.07698792 
0.0 0.0 0.0 0.0 0.0 0.07698792 
0.0 0.0 0.0 0.0 0.0 0.07698792 
0.0 0.0 0.0 0.0 0.0 0.07698792 
0.0 0.0 0.0 0.0 0.0 0.07698792 
0.0 0.0 0.0 0.0 0.0 0.05888685 
0.12302609 0.0 0.14187047 0.0 0.0 0.0 
0.33261544 0.07593017 0.19066176 0.0 0.0 0.0 
0.2297306 0.30185485 0.19830287 0.0 0.0 0.0 
0.009478539 0.4251352 0.19511768 0.0 0.0 0.0 
0.0 0.4177027 0.20456547 0.0 0.110702574 0.0 
0.0 0.12610167 0.028638609 0.0 0.14394683 0.0 
0.0 0.004642348 0.0 0.0 0.0 0.06500285 
0.0 0.0 0.0 0.0 0.0 0.07698792 
0.0 0.0 0.0 0.0 0.0 0.06492054 
0.13419381 0.0 0.13860768 0.0 0.0 0.0 
0.62474656 0.0 0.09484064 0.0 0.0 0.0 
1.1657686 0.0 0.16442704 0.0 0.0 0.0 
1.1384258 0.42388248 0.28130725 0.0 0.0 0.0 
0.13651007 1.3131154 0.90896297 0.0 0.80651987 0.0 
0.0 1.4134933 1.2354333 0.0 1.22361 0.0 
0.0 0.94458 1.1046224 0.0063229026 0.88769275 0.0 
0.0 0.13390797 0.2790399 0.0 0.39661306 0.0 
0.0 0.0 0.0 0.0 0.0 0.07698792 
0.0 0.0 0.0 0.0 0.0 0.07698792 
0.0 0.0 0.0 0.0 0.0 0.07698792 
0.0 0.0 0.0 0.0 0.0 0.07698792 
0.0 0.0 0.0 0.0 0.0 0.07698792 
0.0 0.0 0.0 0.0 0.0 0.07698792 
0.0 0.0 0.0 0.0 0.0 0.07698792 
0.0 0.0 0.0 0.0 0.0 0.07698792 
0.0 0.0 0.0 0.0 0.0 0.07698792 
0.0 0.0 0.018819675 0.0 0.0 0.04116288 
0.19829983 0.0 0.13408443 0.0 0.0 0.0 
0.51278085 0.0 0.19313252 0.0 0.0 0.0 
0.73488 0.1324426 0.21559522 0.0 0.0 0.0 
0.42679667 0.6676734 0.39373228 0.0 0.07440944 0.0 
0.0 0.9781503 0.55118144 0.0 0.46456537 0.0 
0.0 0.6058727 0.54339755 0.0 0.6311158 0.0 
0.0 0.12029524 0.20270574 0.0 0.32614377 0.0 
0.0 0.0 0.0 0.0 0.0 0.0666291 
0.0 0.0 0.0 0.0 0.0 0.07057712 
0.08876972 0.0 0.08836553 0.0 0.0 0.0 
0.5091954 0.0 0.11588796 0.0 0.0 0.0 
1.2026279 0.0 0.09688332 0.0 0.0 0.0 
1.6923113 0.18258344 0.0 0.0 0.0056219585 0.0 
0.9911131 1.1369683 0.058422 0.17064501 1.0790213 0.0 
0.0 1.8083726 0.81146693 0.37054726 1.7103173 0.0 
0.0 1.63404 1.6307442 0.63304996 1.493757 0.0 
0.0 0.9166782 1.5146599 0.48123038 0.92427605 0.12674214 
0.0 0.3229222 0.57736284 0.25125358 0.19325976 0.067350686 
0.0 0.0 0.0 0.0 0.0 0.07698792 
0.0 0.0 0.0 0.0 0.0 0.07698792 
0.0 0.0 0.0 0.0 0.0 0.07698792 
0.0 0.0 0.0 0.0 0.0 0.07698792 
0.0 0.0 0.0 0.0 0.0 0.07698792 
0.0 0.0 0.0 0.0 0.0 0.07698792 
0.0 0.0 0.0 0.0 0.0 0.07698792 
0.0 0.0 0.0 0.0 0.0 0.07698792 
0.0 0.0 0.0 0.0 0.0 0.06152659 
0.14038935 0.0 0.053764105 0.0 0.0 0.0 
0.572597 0.0 0.14226887 0.0 0.0 0.0 
1.1266084 0.0 0.17108548 0.0 0.0 0.0 
1.1155329 0.44125786 0.35462227 0.0 0.102014646 0.0 
0.079376414 1.2406607 0.62729603 0.0 0.88634664 0.0 
0.0 1.2860079 1.0611684 0.008210343 1.1749068 0.0 
0.0 0.7755526 1.0039939 0.04174682 0.8867236 0.0 
0.0 0.33032426 0.47808784 0.11059465 0.2433566 0.01261431 
0.0 0.014297609 0.0 0.014228816 0.0 0.07439677 
0.0 0.0 0.00728485 0.0 0.0 0.04731529 
0.36035258 0.0 0.08091604 0.0 0.0 0.0 
1.069123 0.0 0.059774525 0.0 0.0 0.0 
1.7223678 0.0 0.0 0.0 0.0 0.0 
1.7545061 0.6123489 0.0 0.0 1.2121794 0.03244772 
0.56037587 1.6693388 0.0 0.14395711 2.2307382 0.0928071 
0.0 1.9089986 0.33145538 0.122777805 2.1971984 0.067109525 
0.0 1.4019344 1.2687212 0.19906402 1.537772 0.27418864 
0.0 0.44730744 1.2283661 0.15153028 0.7838169 0.30721992 
0.0 0.15080431 0.5461815 0.17952193 0.08664547 0.14193669 
0.0 0.0 0.0 0.0 0.0 0.07698792 
0.0 0.0 0.0 0.0 0.0 0.07698792 
0.0 0.0 0.0 0.0 0.0 0.07698792 
0.0 0.0 0.0 0.0 0.0 0.07698792 
0.0 0.0 0.0 0.0 0.0 0.07698792 
0.0 0.0 0.0 0.0 0.0 0.07698792 
0.0 0.0 0.0 0.0 0.0 0.07698792 
0.0 0.0 0.0 0.0 0.0 0.06152659 
0.09820281 0.0 0.06720976 0.0 0.0 0.0 
0.51576406 0.0 0.10012648 0.0 0.0 0.0 
1.1043518 0.0 0.0929342 0.0 0.0 0.0 
1.5436597 0.1039625 0.05502353 0.0 0.0 0.0 
1.0790508 1.1633388 0.2251783 0.07442084 0.9601373 0.0 
0.0 1.94697 0.67858166 0.10573113 1.5916008 0.0 
0.0 1.7133751 1.3217397 0.10240428 1.3540679 0.0 
0.0 0.9459744 1.2916657 0.08202902 0.84917694 0.0 
0.0 0.22468126 0.5395521 0.034203093 0.2635002 0.061993565 
0.0 0.012890453 0.0 0.017304748 0.0 0.08267318 
0.06938377 0.0 0.0 0.0 0.0 0.078571156 
0.71957546 0.0 0.0 0.0 0.0 0.18236005 
1.5736163 0.0 0.0 0.15922135 0.0 0.28014168 
1.9220257 0.1818085 0.0 0.14169201 0.82959586 0.31198877 
1.244123 1.2057824 0.0 0.25190696 1.9878849 0.36152637 
0.0 1.6839789 0.0 0.017810445 2.723498 0.29282188 
0.0 1.6659036 0.5401451 0.14131783 2.1671937 0.31498373 
0.0 0.68226653 1.023768 0.0 1.3794906 0.4194551 
0.0 0.13106883 0.74197143 0.0064820023 0.57988745 0.30038354 
0.0 0.0 0.2126292 0.0 0.07258247 0.111226894 
0.0 0.0 0.0 0.0 0.0 0.07698792 
0.0 0.0 0.0 0.0 0.0 0.07698792 
0.0 0.0 0.0 0.0 0.0 0.07698792 
0.0 0.0 0.0 0.0 0.0 0.07698792 
0.0 0.0 0.0 0.0 0.0 0.07698792 
0.0 0.0 0.0 0.0 0.0 0.07698792 
0.0 0.0 0.0 0.0 0.0 0.07698792 
0.025733605 0.0 0.014336489 0.0 0.0 0.045042794 
0.40154415 0.0 0.10849812 0.0 0.0 0.0 
1.040664 0.0 0.05972121 0.0 0.0 0.0 
1.6170607 0.0 0.0 0.0 0.0 0.0 
1.6457808 0.63332564 0.0 0.0 1.0848643 0.05022517 
0.62576234 1.361116 0.0 0.020696696 2.1001396 0.07495692 
0.0 1.729023 0.5017066 0.25246137 2.101589 0.0 
0.0 1.2655909 1.1915 0.23627806 1.6278611 0.18791261 
0.0 0.5044723 1.1781355 0.15188424 0.93662447 0.23085691 
0.0 0.0 0.38743103 0.0 0.2670503 0.08467339 
0.0 0.0 0.0 0.0 0.0 0.0797618 
0.21797878 0.0 0.0 0.0 0.0 0.15287755 
1.122612 0.0 0.0 0.12447375 0.0 0.42800057 
1.9404631 0.0 0.0 0.09286389 0.43898883 0.5958331 
1.8707511 0.5337778 0.0 0.18783659 1.3935287 0.4790212 
0.7767157 1.4780362 0.0 0.0922524 2.4228687 0.40474463 
0.0 1.8637625 0.28724596 0.04290844 2.5490615 0.23771937 
0.0 1.1668364 1.053312 0.032609012 1.814118 0.26334956 
0.0 0.41222307 1.0512488 0.047545012 0.9704128 0.38264996 
0.0 0.06892687 0.58326346 0.10296572 0.20580028 0.18107757 
0.0 0.0 0.0 0.0 0.0 0.08408527 
0.0 0.0 0.0 0.0 0.0 0.07698792 
0.0 0.0 0.0 0.0 0.0 0.07698792 
0.0 0.0 0.0 0.0 0.0 0.07698792 
0.0 0.0 0.0 0.0 0.0 0.07698792 
0.0 0.0 0.0 0.0 0.0 0.07698792 
0.0 0.0 0.0 0.0 0.0 0.07698792 
0.0 0.0 0.0 0.0 0.0 0.05398447 
0.25200027 0.0 0.06791041 0.0 0.0 0.0 
0.86028695 0.0 0.046018444 0.0 0.0 0.0 
1.560792 0.0 0.0 0.0 0.0 0.0 
1.8848875 0.3419926 0.0 0.0 0.80164605 0.024473347 
1.243294 1.1711814 0.0 0.01800352 2.0882683 0.214555 
0.0 1.7138797 0.0 0.1504635 2.528474 0.27013272 
0.0 1.6039672 0.7629185 0.2797577 2.1001043 0.25072405 
0.0 0.84180766 1.2773291 0.30414137 1.4103152 0.41052252 
0.0 0.34257802 1.0899059 0.34997842 0.48970577 0.29477564 
0.0 0.12529214 0.32559183 0.13534446 0.044704016 0.10775027 
0.019124992 0.0 0.06135352 0.0 0.0 0.02261199 
0.5574424 0.0 0.0 0.0 0.0 0.087771885 
1.5526662 0.0 0.0 0.0 0.008752916 0.45867118 
2.122946 0.0 0.0 0.0 0.7805857 0.502557 
1.5615005 0.9187292 0.0 0.0 1.7663165 0.3969055 
0.12791063 1.701432 0.0 0.0 2.586068 0.38160044 
0.0 1.6896688 0.706363 0.0 2.2816117 0.27615207 
0.0 0.8714184 1.1045811 0.0 1.4243604 0.3760625 
0.0 0.18689609 0.82041585 0.0084507475 0.59251994 0.29429424 
0.0 0.0 0.2807676 0.01049598 0.0586395 0.13078448 
0.0 0.0 0.0 0.0 0.0 0.07767282 
0.0 0.0 0.0 0.0 0.0 0.07698792 
0.0 0.0 0.0 0.0 0.0 0.07698792 
0.0 0.0 0.0 0.0 0.0 0.07698792 
0.0 0.0 0.0 0.0 0.0 0.07698792 
0.0 0.0 0.0 0.0 0.0 0.07698792 
0.0 0.0 0.0 0.0 0.0 0.07698792 
0.050500527 0.0 0.02074822 0.0 0.0 0.04289764 
0.60474825 0.0 0.014593504 0.0 0.0 0.0624964 
1.4034586 0.0 0.0 0.0 0.0 0.15849057 
1.888078 0.0848675 0.0 0.0 0.44963452 0.13026482 
1.7061205 0.8275389 0.0 0.0 1.5112156 0.16092366 
0.8212951 1.6794583 0.0 0.0 2.428437 0.07127103 
0.0 2.0546405 0.36618716 0.0 2.4405925 0.0 
0.0 1.6023337 1.000599 0.0 1.781726 0.0 
0.0 0.797211 1.0414785 0.0 1.0347725 0.0 
0.0 0.2711049 0.67091787 0.0 0.3610485 0.0 
0.0 0.06481719 0.2677249 0.0 0.034142863 0.0 
0.19207227 0.0 0.06722369 0.0 0.0 0.0 
0.9919564 0.0 0.0 0.0 0.0 0.117806695 
1.9228227 0.0 0.0 0.0 0.27990124 0.36329547 
1.9399884 0.3583146 0.0 0.0 1.2361134 0.3723619 
0.8689162 1.1249799 0.0 0.0 2.3627012 0.40249237 
0.0 1.6074435 0.0 0.0 2.6358967 0.33499646 
0.0 1.219569 0.98535407 0.108351015 1.9510106 0.33339655 
0.0 0.41605976 1.033907 0.031473126 1.0903252 0.3830812 
0.0 0.05384189 0.558204 0.030140769 0.31784153 0.1993824 
0.0 0.0 0.0222805 0.0 0.0048442893 0.08718528 
0.0 0.0 0.0 0.0 0.0 0.07698792 
0.0 0.0 0.0 0.0 0.0 0.07698792 
0.0 0.0 0.0 0.0 0.0 0.07698792 
0.0 0.0 0.0 0.0 0.0 0.07698792 
0.0 0.0 0.0 0.0 0.0 0.07698792 
0.0 0.0 0.0 0.0 0.0 0.07698792 
0.0 0.0 0.0 0.0 0.0 0.07698792 
0.11399484 0.0 0.0 0.004348698 0.0 0.15237185 
0.89844906 0.0 0.0 0.11418899 0.0 0.4113582 
1.8219116 0.0 0.0 0.22567421 0.21352972 0.56737685 
1.949759 0.26461008 0.0 0.21842995 1.1059487 0.5149671 
1.4775043 1.044435 0.0 0.09346172 1.9212404 0.39775142 
0.5799521 1.6803148 0.24550787 0.0 2.36042 0.005661987 
0.0 1.8412935 1.1334027 0.0 2.024078 0.0 
0.0 1.5732841 1.6998377 0.0 1.3878905 0.0 
0.0 1.172582 1.5987098 0.0 0.8810428 0.0 
0.0 0.6907963 0.8424171 0.0 0.48959497 0.0 
0.0 0.44940585 0.5792722 0.0 0.07471849 0.0 
0.55873877 0.06622226 0.2896183 0.0 0.0 0.0 
1.3902798 0.0 0.0017519668 0.0 0.0 0.0 
1.9777305 0.067408256 0.0 0.0 0.70922077 0.04976391 
1.5083115 0.95242727 0.0 0.0 1.866053 0.22988014 
0.20173493 1.6252176 0.0 0.0 2.5939798 0.27856427 
0.0 1.6515462 0.44767803 0.05897974 2.269262 0.2718559 
0.0 0.8726188 1.120234 0.048126496 1.4797527 0.40094572 
0.0 0.29413748 0.9702873 0.14910349 0.59303474 0.33869123 
0.0 0.0075119575 0.37843558 0.06419559 0.07784031 0.12665537 
0.0 0.0 0.0 0.0 0.0 0.07698792 
0.0 0.0 0.0 0.0 0.0 0.07698792 
0.0 0.0 0.0 0.0 0.0 0.07698792 
0.0 0.0 0.0 0.0 0.0 0.07698792 
0.0 0.0 0.0 0.0 0.0 0.07698792 
0.0 0.0 0.0 0.0 0.0 0.07698792 
0.0 0.0 0.0 0.0 0.0 0.07698792 
0.0 0.0 0.0 0.0 0.0 0.07698792 
0.16801503 0.0 0.0 0.10508209 0.0 0.29949743 
0.96372455 0.0 0.0 0.3113849 0.09797914 0.83196294 
1.7805607 0.0 0.0 0.46702677 0.73803335 1.136416 
1.878372 0.12988412 0.0 0.55641884 1.4172654 1.0950727 
1.4381094 0.8677804 0.0 0.45624346 1.9910527 0.9273346 
0.5003525 1.3723618 0.4310825 0.16084558 2.1606555 0.3066846 
0.0 1.475868 1.4950228 0.0 1.7223928 0.0 
0.0 1.5019794 2.2272751 0.0 1.3469357 0.0 
0.0 1.517863 2.3085697 0.0 0.9678145 0.0 
0.028650746 1.4397051 1.6899406 0.0 0.6500206 0.0 
0.15841429 1.1058162 1.2110543 0.0 0.35293737 0.0 
0.6912363 0.5773851 0.7858212 0.0 0.2293147 0.0 
1.4913905 0.3144529 0.06976796 0.0 0.70658755 0.0 
1.6400545 0.79955894 0.0 0.0 1.4756932 0.059207067 
0.7883059 1.4245037 0.0 0.0 2.4258037 0.2833457 
0.0 1.8001217 0.0077983215 0.0 2.627763 0.33734718 
0.0 1.3558971 0.77337164 0.0098277 1.930944 0.39049414 
0.0 0.44301564 0.9231279 0.0 1.0948082 0.40905565 
0.0 0.046376254 0.5811068 0.019927684 0.3286502 0.25304228 
0.0 0.0 0.10360908 0.0 0.018196095 0.09892222 
0.0 0.0 0.0 0.0 0.0 0.07698792 
0.0 0.0 0.0 0.0 0.0 0.07698792 
0.0 0.0 0.0 0.0 0.0 0.07698792 
0.0 0.0 0.0 0.0 0.0 0.07698792 
0.0 0.0 0.0 0.0 0.0 0.07698792 
0.0 0.0 0.0 0.0 0.0 0.07698792 
0.0 0.0 0.0 0.0 0.0 0.07698792 
0.0 0.0 0.0 0.0 0.0 0.07698792 
0.17554814 0.0 0.0 0.07475102 0.0874964 0.32650736 
0.90614325 0.0 0.0 0.16566846 0.54436857 1.0482533 
1.3858316 0.0 0.0 0.3724447 1.0631739 1.525387 
1.4425452 0.0 0.0 0.6428757 1.609359 1.6951013 
1.1534212 0.24936229 0.0 0.99079 2.0342276 1.8762949 
0.5812127 0.72102094 0.0 1.1651454 2.0796347 1.5344965 
0.30377176 0.9652198 0.7384811 1.0206617 1.8460926 0.92915946 
0.15783611 1.2030697 1.5902003 0.9520411 1.5855887 0.32218236 
0.1127343 1.3316059 2.1097112 0.7586835 1.3396515 0.0 
0.12123929 1.5692745 2.1191914 0.45996255 1.1038288 0.0 
0.36178368 1.3180825 1.8433887 0.16219983 0.97567564 0.0 
0.90927064 1.0391842 1.2952368 0.0 1.1745263 0.0 
1.3358498 0.95734286 0.29025382 0.0 1.7018269 0.0 
1.0657468 1.217953 0.0 0.0 2.3837504 0.21081617 
0.06564973 1.6579387 0.0 0.0 2.8134706 0.33086705 
0.0 1.5950975 0.5181364 0.08502313 2.3736405 0.27655756 
0.0 0.8127372 1.019099 0.02465995 1.5560504 0.41420865 
0.0 0.22276087 0.83504474 0.063882336 0.67292374 0.33254248 
0.0 0.0 0.2927095 0.0 0.12207812 0.14132485 
0.0 0.0 0.0 0.0 0.0 0.08018411 
0.0 0.0 0.0 0.0 0.0 0.07698792 
0.0 0.0 0.0 0.0 0.0 0.07698792 
0.0 0.0 0.0 0.0 0.0 0.07698792 
0.0 0.0 0.0 0.0 0.0 0.07698792 
0.0 0.0 0.0 0.0 0.0 0.07698792 
0.0 0.0 0.0 0.0 0.0 0.07698792 
0.0 0.0 0.0 0.0 0.0 0.07698792 
0.0 0.0 0.0 0.0 0.0 0.07698792 
0.104717895 0.0 0.0 0.0 0.14627336 0.2241832 
0.66671836 0.0 0.0 0.0 0.60478014 0.8027496 
1.0260606 0.0 0.0 0.0 1.1126608 1.3408563 
0.9761602 0.0 0.0 0.10563031 1.5365486 1.6284132 
0.8584761 0.0 0.0 0.4086967 1.9329059 1.973207 
0.6656436 0.0 0.0 0.83567613 2.0743952 2.0683646 
0.6135141 0.17656757 0.0 1.1617752 1.9893678 1.9573619 
0.501207 0.4798136 0.0 1.3775983 1.9356661 1.7811012 
0.37934467 0.7933275 0.5065157 1.5503422 1.7520046 1.4861135 
0.35128063 0.96068126 1.162317 1.4308501 1.5478297 0.9346664 
0.61667436 1.1806014 1.4441952 1.2983773 1.412464 0.5054283 
0.9533557 1.2699939 1.2625445 0.90405387 1.7443466 0.3441513 
1.0390272 1.4683853 0.56530803 0.47701955 2.2327507 0.30200225 
0.5799158 1.7867944 0.019771442 0.18399999 2.7450726 0.34674108 
0.0 1.9366701 0.2651747 0.048691478 2.6576712 0.28037703 
0.0 1.4038026 0.9503598 0.02144676 1.9275829 0.29199967 
0.0 0.5208381 1.0508373 0.0 1.1048418 0.40131277 
0.0 0.10426804 0.6658232 0.10879777 0.27456412 0.2374598 
0.0 0.0 0.08727317 0.0 0.0 0.097088315 
0.0 0.0 0.0 0.0 0.0 0.07698792 
0.0 0.0 0.0 0.0 0.0 0.07698792 
0.0 0.0 0.0 0.0 0.0 0.07698792 
0.0 0.0 0.0 0.0 0.0 0.07698792 
0.0 0.0 0.0 0.0 0.0 0.07698792 
0.0 0.0 0.0 0.0 0.0 0.07698792 
0.0 0.0 0.0 0.0 0.0 0.07698792 
0.0 0.0 0.0 0.0 0.0 0.07698792 
0.0 0.0 0.0 0.0 0.0 0.07698792 
0.0 0.0 0.0 0.0 0.022641335 0.11226386 
0.31090313 0.0 0.0 0.0 0.38432524 0.39878985 
0.6079623 0.0 0.0 0.0 0.7652859 0.786715 
0.64094275 0.0 0.0 0.0 1.0563538 1.0960639 
0.6781248 0.0 0.0 0.0 1.327325 1.4901247 
0.6407355 0.0 0.0 0.0 1.5957978 1.7907717 
0.62675637 0.0 0.0 0.0572184 1.7858951 1.9098909 
0.55918825 0.0 0.0 0.38658658 1.970455 1.9409158 
0.65253633 0.0 0.0 0.64759827 1.8811938 1.9741187 
0.9629629 0.06756648 0.0 0.8198405 1.5773262 1.7043588 
1.2389915 0.38027966 0.0 0.7102445 1.6716992 1.3150077 
1.2967296 0.97920215 0.1958744 0.5781212 2.0017376 0.9297969 
0.8302324 1.4664855 0.20372763 0.36123675 2.5745583 0.67685574 
0.0 1.8054749 0.23078462 0.107792504 2.9777834 0.49465123 
0.0 1.6757265 0.5809906 0.056580648 2.4733288 0.32709813 
0.0 0.9231294 1.0576626 0.0 1.5889896 0.42256993 
0.0 0.199569 0.830731 0.0 0.75101393 0.3247137 
0.0 0.0 0.29912052 0.0 0.12110832 0.15476225 
0.0 0.0 0.0 0.0 0.0 0.080792904 
0.0 0.0 0.0 0.0 0.0 0.07698792 
0.0 0.0 0.0 0.0 0.0 0.07698792 
0.0 0.0 0.0 0.0 0.0 0.07698792 
0.0 0.0 0.0 0.0 0.0 0.07698792 
0.0 0.0 0.0 0.0 0.0 0.07698792 
0.0 0.0 0.0 0.0 0.0 0.07698792 
0.0 0.0 0.0 0.0 0.0 0.07698792 
0.0 0.0 0.0 0.0 0.0 0.07698792 
0.0 0.0 0.0 0.0 0.0 0.07698792 
0.0 0.0 0.0 0.0 0.0 0.07698792 
0.037771143 0.0 0.0 0.0 0.11083442 0.15063417 
0.19277194 0.0 0.0 0.0 0.3372132 0.26542467 
0.28002152 0.0 0.0 0.0 0.5166047 0.3672293 
0.3698977 0.0 0.0 0.0 0.74977034 0.5727853 
0.44634038 0.0 0.0 0.0 0.99554664 0.8613072 
0.4807387 0.0 0.0 0.0 1.2116916 1.127703 
0.4738227 0.0 0.0 0.0 1.3175348 1.3242781 
0.854652 0.0 0.0 0.0 1.1946906 1.5918906 
1.4398203 0.0 0.0 0.0 1.1769208 1.6506498 
1.7235596 0.0 0.0 0.0 1.4645147 1.2924557 
1.395122 0.6510001 0.0 0.0103163915 2.0376096 0.95560706 
0.4541726 1.3496422 0.0 0.08875684 2.9071672 0.7790613 
0.0 1.724413 0.37564915 0.06531496 2.867042 0.43005806 
0.0 1.2889459 0.9242861 0.14415956 2.035158 0.3410744 
0.0 0.49685726 1.0952164 0.093892105 1.1487167 0.4517476 
0.0 0.13498448 0.71763813 0.12033541 0.32957897 0.22799973 
0.0 0.0 0.061885484 0.0 0.00458641 0.09307759 
0.0 0.0 0.0 0.0 0.0 0.07698792 
0.0 0.0 0.0 0.0 0.0 0.07698792 
0.0 0.0 0.0 0.0 0.0 0.07698792 
0.0 0.0 0.0 0.0 0.0 0.07698792 
0.0 0.0 0.0 0.0 0.0 0.07698792 
0.0 0.0 0.0 0.0 0.0 0.07698792 
0.0 0.0 0.0 0.0 0.0 0.07698792 
0.0 0.0 0.0 0.0 0.0 0.07698792 
0.0 0.0 0.0 0.0 0.0 0.07698792 
0.0 0.0 0.0 0.0 0.0 0.07698792 
0.0 0.0 0.0 0.0 0.0 0.07698792 
0.0 0.0 0.0 0.0 0.0 0.07698792 
0.0 0.0 0.0 0.0 0.0 0.07698792 
0.0 0.0 0.0 0.0 0.0 0.09431645 
0.013620332 0.0 0.0 0.0 0.07071908 0.13701631 
0.14254162 0.0 0.0 0.0 0.28507993 0.2326221 
0.23161432 0.0 0.0 0.0 0.4645534 0.32895142 
0.27592465 0.0 0.0 0.0 0.57377094 0.420194 
0.8810459 0.0 0.0 0.0 0.613494 0.8403956 
1.7177417 0.0 0.0 0.0 0.821043 1.1219194 
1.9202883 0.0 0.0 0.0 1.3382798 0.9618278 
1.3718014 0.62829906 0.0 0.0 2.1406724 0.7681845 
0.06370613 1.5664587 0.0 0.0 2.8753166 0.54765296 
0.0 1.6775934 0.5735841 0.0 2.4837887 0.34743828 
0.0 0.9457234 1.0025852 0.0 1.5570592 0.40025795 
0.0 0.27233788 0.89910936 0.04560077 0.6706659 0.37177193 
0.0 0.0 0.43177202 0.0473809 0.11253458 0.15656927 
0.0 0.0 0.0 0.0 0.0 0.07896651 
0.0 0.0 0.0 0.0 0.0 0.07698792 
0.0 0.0 0.0 0.0 0.0 0.07698792 
0.0 0.0 0.0 0.0 0.0 0.07698792 
0.0 0.0 0.0 0.0 0.0 0.07698792 
0.0 0.0 0.0 0.0 0.0 0.07698792 
0.0 0.0 0.0 0.0 0.0 0.07698792 
0.0 0.0 0.0 0.0 0.0 0.07698792 
0.0 0.0 0.0 0.0 0.0 0.07698792 
0.0 0.0 0.0 0.0 0.0 0.07698792 
0.0 0.0 0.0 0.0 0.0 0.07698792 
0.0 0.0 0.0 0.0 0.0 0.07698792 
0.0 0.0 0.0 0.0 0.0 0.07698792 
0.0 0.0 0.0 0.0 0.0 0.07698792 
0.0 0.0 0.0 0.0 0.0 0.07698792 
0.0 0.0 0.0 0.0 0.0 0.07698792 
0.0 0.0 0.0 0.0 0.0 0.07698792 
0.0 0.0 0.0 0.0 0.0 0.07698792 
0.017725766 0.0 0.0 0.0 0.0 0.11928059 
0.7913102 0.0 0.0 0.010015485 0.0 0.51117027 
1.8350544 0.0 0.0 0.0028784992 0.4355618 0.8800975 
2.0563896 0.0 0.0 0.0 1.1251581 0.7794585 
1.2907598 1.085983 0.0 0.0 2.031748 0.54490244 
0.0 1.7193905 0.07431764 0.0 2.702795 0.2650785 
0.0 1.4532739 0.90734214 0.0 2.0592077 0.16852471 
0.0 0.558549 0.9849216 0.0 1.2334684 0.2848649 
0.0 0.06983109 0.5824699 0.0 0.41842583 0.23515147 
0.0 0.0 0.10467062 0.0 0.036099445 0.09861196 
0.0 0.0 0.0 0.0 0.0 0.07698792 
0.0 0.0 0.0 0.0 0.0 0.07698792 
0.0 0.0 0.0 0.0 0.0 0.07698792 
0.0 0.0 0.0 0.0 0.0 0.07698792 
0.0 0.0 0.0 0.0 0.0 0.07698792 
0.0 0.0 0.0 0.0 0.0 0.07698792 
0.0 0.0 0.0 0.0 0.0 0.07698792 
0.0 0.0 0.0 0.0 0.0 0.07698792 
0.0 0.0 0.0 0.0 0.0 0.07698792 
0.0 0.0 0.0 0.0 0.0 0.07698792 
0.0 0.0 0.0 0.0 0.0 0.07698792 
0.0 0.0 0.0 0.0 0.0 0.07698792 
0.0 0.0 0.0 0.0 0.0 0.07698792 
0.0 0.0 0.0 0.0 0.0 0.07698792 
0.0 0.0 0.0 0.0 0.0 0.07698792 
0.0 0.0 0.0 0.0 0.0 0.07698792 
0.0 0.0 0.0 0.0 0.0 0.07698792 
0.0 0.0 0.0 0.0 0.0 0.07698792 
0.04227522 0.0 0.0 0.0012073135 0.0 0.111096025 
0.9423438 0.0 0.0 0.0 0.0 0.54905224 
1.9476581 0.0 0.0 0.0 0.44162425 0.8538683 
2.0284557 0.062134475 0.0 0.0 1.1882671 0.66261923 
0.9299788 1.3161513 0.0 0.0 2.101225 0.34482098 
0.0 1.7790775 0.4937876 0.0 2.382243 0.0047350526 
0.0 1.2527642 1.3382719 0.0 1.7079355 0.086254954 
0.0 0.44902986 1.1015637 0.0 0.971571 0.20908241 
0.0 0.0 0.40393785 0.0066513037 0.1852931 0.1221217 
0.0 0.0 0.0 0.0 0.0 0.079118714 
0.0 0.0 0.0 0.0 0.0 0.07698792 
0.0 0.0 0.0 0.0 0.0 0.07698792 
0.0 0.0 0.0 0.0 0.0 0.07698792 
0.0 0.0 0.0 0.0 0.0 0.07698792 
0.0 0.0 0.0 0.0 0.0 0.07698792 
0.0 0.0 0.0 0.0 0.0 0.07698792 
0.0 0.0 0.0 0.0 0.0 0.07698792 
0.0 0.0 0.0 0.0 0.0 0.07698792 
0.0 0.0 0.0 0.0 0.0 0.07698792 
0.0 0.0 0.0 0.0 0.0 0.07698792 
0.0 0.0 0.0 0.0 0.0 0.07698792 
0.0 0.0 0.0 0.0 0.0 0.07698792 
0.0 0.0 0.0 0.0 0.0 0.07698792 
0.0 0.0 0.0 0.0 0.0 0.07698792 
0.0 0.0 0.0 0.0 0.0 0.07698792 
0.0 0.0 0.0 0.0 0.0 0.07698792 
0.0 0.0 0.0 0.0 0.0 0.07698792 
0.0 0.0 0.0 0.0 0.0 0.07698792 
0.10029949 0.0 0.0 0.0 0.0 0.13780321 
1.0780208 0.0 0.0 0.0 0.0 0.5997102 
2.0424857 0.0 0.0 0.0 0.5376416 0.861119 
1.9477243 0.22075033 0.0 0.0 1.3182789 0.6168186 
0.6274004 1.529115 0.0 0.0 2.0551465 0.13082999 
0.0 1.8403503 0.905299 0.0 2.1755714 0.0 
0.0 1.1940804 1.5755553 0.0 1.506502 0.0 
0.0 0.40390274 1.076249 0.0 0.790587 0.052349515 
0.0 0.013210977 0.2122927 0.0 0.05965999 0.08213507 
0.0 0.0 0.0 0.0 0.0 0.07698792 
0.0 0.0 0.0 0.0 0.0 0.07698792 
0.0 0.0 0.0 0.0 0.0 0.07698792 
0.0 0.0 0.0 0.0 0.0 0.07698792 
0.0 0.0 0.0 0.0 0.0 0.07698792 
0.0 0.0 0.0 0.0 0.0 0.07698792 
0.0 0.0 0.0 0.0 0.0 0.07698792 
0.0 0.0 0.0 0.0 0.0 0.07698792 
0.0 0.0 0.0 0.0 0.0 0.07698792 
0.0 0.0 0.0 0.0 0.0 0.07698792 
0.0 0.0 0.0 0.0 0.0 0.07698792 
0.0 0.0 0.0 0.0 0.0 0.07698792 
0.0 0.0 0.0 0.0 0.0 0.07698792 
0.0 0.0 0.0 0.0 0.0 0.07698792 
0.0 0.0 0.0 0.0 0.0 0.07698792 
0.0 0.0 0.0 0.0 0.0 0.07698792 
0.0 0.0 0.0 0.0 0.0 0.07698792 
0.0 0.0 0.0 0.0 0.0 0.07698792 
0.0 0.0 0.0 0.0 0.0 0.07698792 
0.11802293 0.0 0.0 0.036321342 0.0 0.20157062 
1.1233144 0.0 0.0 0.10035283 0.082672924 0.75388294 
2.0259326 0.0 0.0 0.16752195 0.6770652 1.0055646 
1.7506192 0.28589448 0.0 0.17579445 1.454061 0.7685523 
0.32734492 1.5528888 0.0 0.1538191 2.0200064 0.29947814 
0.0 1.7092973 1.116627 0.049390536 2.0779848 0.0 
0.0 1.0710183 1.5899423 0.03523312 1.4004147 0.15998366 
0.0 0.28918946 0.98423195 0.0 0.6738823 0.073647216 
0.0 0.0 0.08084952 0.0 0.036245044 0.07939905 
0.0 0.0 0.0 0.0 0.0 0.07698792 
0.0 0.0 0.0 0.0 0.0 0.07698792 
0.0 0.0 0.0 0.0 0.0 0.07698792 
0.0 0.0 0.0 0.0 0.0 0.07698792 
0.0 0.0 0.0 0.0 0.0 0.07698792 
0.0 0.0 0.0 0.0 0.0 0.07698792 
0.0 0.0 0.0 0.0 0.0 0.07698792 
0.0 0.0 0.0 0.0 0.0 0.07698792 
0.0 0.0 0.0 0.0 0.0 0.07698792 
0.0 0.0 0.0 0.0 0.0 0.07698792 
0.0 0.0 0.0 0.0 0.0 0.07698792 
0.0 0.0 0.0 0.0 0.0 0.07698792 
0.0 0.0 0.0 0.0 0.0 0.07698792 
0.0 0.0 0.0 0.0 0.0 0.07698792 
0.0 0.0 0.0 0.0 0.0 0.07698792 
0.0 0.0 0.0 0.0 0.0 0.07698792 
0.0 0.0 0.0 0.0 0.0 0.07698792 
0.0 0.0 0.0 0.0 0.0 0.07698792 
0.0 0.0 0.0 0.0 0.0 0.07698792 
0.13296387 0.0 0.0 0.057363596 0.0027407221 0.26619998 
0.97564775 0.0 0.0 0.20601472 0.36771756 0.9891126 
1.5902236 0.0 0.0 0.44913262 1.0248593 1.4854953 
1.3165166 0.008469044 0.0 0.6903956 1.7432128 1.4576931 
0.0 1.0845093 0.0 0.8340123 1.9912442 1.0585513 
0.0 1.1339747 1.0371475 0.7284982 1.8076869 0.534716 
0.0 0.61780816 1.4125 0.43830916 1.1401225 0.4382632 
0.0 0.21928228 0.8758706 0.21214494 0.41812003 0.14529093 
0.0 0.0010925783 0.031317987 0.013774975 0.0 0.079252176 
0.0 0.0 0.0 0.0 0.0 0.07698792 
0.0 0.0 0.0 0.0 0.0 0.07698792 
0.0 0.0 0.0 0.0 0.0 0.07698792 
0.0 0.0 0.0 0.0 0.0 0.07698792 
0.0 0.0 0.0 0.0 0.0 0.07698792 
0.0 0.0 0.0 0.0 0.0 0.07698792 
0.0 0.0 0.0 0.0 0.0 0.07698792 
0.0 0.0 0.0 0.0 0.0 0.07698792 
0.0 0.0 0.0 0.0 0.0 0.07698792 
0.0 0.0 0.0 0.0 0.0 0.07698792 
0.0 0.0 0.0 0.0 0.0 0.07698792 
0.0 0.0 0.0 0.0 0.0 0.07698792 
0.0 0.0 0.0 0.0 0.0 0.07698792 
0.0 0.0 0.0 0.0 0.0 0.07698792 
0.0 0.0 0.0 0.0 0.0 0.07698792 
0.0 0.0 0.0 0.0 0.0 0.07698792 
0.0 0.0 0.0 0.0 0.0 0.07698792 
0.0 0.0 0.0 0.0 0.0 0.07698792 
0.0 0.0 0.0 0.0 0.0 0.07698792 
0.10591887 0.0 0.0 0.010531639 0.07815811 0.24377826 
0.78782743 0.0 0.0 0.098502055 0.6187028 0.92494625 
1.1270883 0.0 0.0 0.22273044 1.2142081 1.4094918 
0.7141027 0.0 0.0 0.36986318 1.6065279 1.4041848 
0.0 0.5206602 0.0 0.48139274 1.5057042 1.217397 
0.0 0.61753345 0.5513423 0.5055168 1.0562575 0.81094235 
0.0 0.37577674 0.9747958 0.349497 0.52726966 0.52736926 
0.0 0.12208426 0.6357661 0.17540501 0.139888 0.17671797 
0.0 0.015749756 0.007987663 0.021892492 0.0 0.08650459 
0.0 0.0 0.0 0.0 0.0 0.07698792 
0.0 0.0 0.0 0.0 0.0 0.07698792 
0.0 0.0 0.0 0.0 0.0 0.07698792 
0.0 0.0 0.0 0.0 0.0 0.07698792 
0.0 0.0 0.0 0.0 0.0 0.07698792 
0.0 0.0 0.0 0.0 0.0 0.07698792 
0.0 0.0 0.0 0.0 0.0 0.07698792 
0.0 0.0 0.0 0.0 0.0 0.07698792 
0.0 0.0 0.0 0.0 0.0 0.07698792 
0.0 0.0 0.0 0.0 0.0 0.07698792 
0.0 0.0 0.0 0.0 0.0 0.07698792 
0.0 0.0 0.0 0.0 0.0 0.07698792 
0.0 0.0 0.0 0.0 0.0 0.07698792 
0.0 0.0 0.0 0.0 0.0 0.07698792 
0.0 0.0 0.0 0.0 0.0 0.07698792 
0.0 0.0 0.0 0.0 0.0 0.07698792 
0.0 0.0 0.0 0.0 0.0 0.07698792 
0.0 0.0 0.0 0.0 0.0 0.07698792 
0.0 0.0 0.0 0.0 0.0 0.07698792 
0.030689277 0.0 0.0 0.0 0.0548021 0.1650098 
0.4603414 0.0 0.0 0.0 0.4842138 0.59291834 
0.7020894 0.0 0.0 0.0 0.9191157 1.0145056 
0.44138032 0.0 0.0 0.0 1.0676013 1.067729 
0.0 0.043183073 0.0 0.0 0.7966118 0.9012549 
0.0 0.0 0.0 0.0 0.4994311 0.5929987 
0.0 0.0 0.28408647 0.0 0.28016913 0.36830026 
0.0 0.0 0.21676031 0.0 0.08766645 0.14029136 
0.0 0.0 0.0 0.0 0.0 0.07972751 
0.0 0.0 0.0 0.0 0.0 0.07698792 
0.0 0.0 0.0 0.0 0.0 0.07698792 
0.0 0.0 0.0 0.0 0.0 0.07698792 
0.0 0.0 0.0 0.0 0.0 0.07698792 
0.0 0.0 0.0 0.0 0.0 0.07698792 
0.0 0.0 0.0 0.0 0.0 0.07698792 
0.0 0.0 0.0 0.0 0.0 0.07698792 
0.0 0.0 0.0 0.0 0.0 0.07698792 
0.0 0.0 0.0 0.0 0.0 0.07698792 
0.0 0.0 0.0 0.0 0.0 0.07698792 
0.0 0.0 0.0 0.0 0.0 0.07698792 
0.0 0.0 0.0 0.0 0.0 0.07698792 
0.0 0.0 0.0 0.0 0.0 0.07698792 
0.0 0.0 0.0 0.0 0.0 0.07698792 
0.0 0.0 0.0 0.0 0.0 0.07698792 
0.0 0.0 0.0 0.0 0.0 0.07698792 
0.0 0.0 0.0 0.0 0.0 0.07698792 
0.0 0.0 0.0 0.0 0.0 0.07698792 
0.0 0.0 0.0 0.0 0.0 0.07698792 
0.0 0.0 0.0 0.0 0.0 0.10050522 
0.16303642 0.0 0.0 0.0 0.29983765 0.23806901 
0.29098687 0.0 0.0 0.0 0.5049493 0.34810796 
0.14564517 0.0 0.0 0.0 0.4471899 0.31072557 
0.0 0.0 0.0 0.0 0.318521 0.29056284 
0.0 0.0 0.0 0.0 0.2416339 0.23471166 
0.0 0.0 0.0 0.0 0.10953368 0.15140562 
0.0 0.0 0.0008546226 0.0 0.0 0.08444569 
0.0 0.0 0.0 0.0 0.0 0.07698792 
0.0 0.0 0.0 0.0 0.0 0.07698792 
0.0 0.0 0.0 0.0 0.0 0.07698792 
0.0 0.0 0.0 0.0 0.0 0.07698792 
0.0 0.0 0.0 0.0 0.0 0.07698792 
0.0 0.0 0.0 0.0 0.0 0.07698792 
0.0 0.0 0.0 0.0 0.0 0.07698792 
0.0 0.0 0.0 0.0 0.0 0.07698792 
0.0 0.0 0.0 0.0 0.0 0.07698792 
0.0 0.0 0.0 0.0 0.0 0.07698792 
0.0 0.0 0.0 0.0 0.0 0.07698792 
0.0 0.0 0.0 0.0 0.0 0.07698792 
0.0 0.0 0.0 0.0 0.0 0.07698792 
0.0 0.0 0.0 0.0 0.0 0.07698792 
0.0 0.0 0.0 0.0 0.0 0.07698792 
0.0 0.0 0.0 0.0 0.0 0.07698792 
0.0 0.0 0.0 0.0 0.0 0.07698792 
0.0 0.0 0.0 0.0 0.0 0.07698792 
0.0 0.0 0.0 0.0 0.0 0.07698792 
0.0 0.0 0.0 0.0 0.0 0.07698792 
0.0 0.0 0.0 0.0 0.0 0.07698792 
0.0 0.0 0.0 0.0 0.0 0.07698792 
0.0 0.0 0.0 0.0 0.0 0.07698792 
0.0 0.0 0.0 0.0 0.0 0.07698792 
0.0 0.0 0.0 0.0 0.0 0.07698792 
0.0 0.0 0.0 0.0 0.0 0.07698792 
0.0 0.0 0.0 0.0 0.0 0.07698792 
0.0 0.0 0.0 0.0 0.0 0.07698792 
0.0 0.0 0.0 0.0 0.0 0.07698792 
0.0 0.0 0.0 0.0 0.0 0.07698792 
0.0 0.0 0.0 0.0 0.0 0.07698792 
0.0 0.0 0.0 0.0 0.0 0.07698792 
0.0 0.0 0.0 0.0 0.0 0.07698792 
0.0 0.0 0.0 0.0 0.0 0.07698792 
0.0 0.0 0.0 0.0 0.0 0.07698792 
0.0 0.0 0.0 0.0 0.0 0.07698792 
0.0 0.0 0.0 0.0 0.0 0.07698792 
0.0 0.0 0.0 0.0 0.0 0.07698792 

