0.0 0.0 0.0 0.0 0.0 0.07698792 
0.0 0.0 0.0 0.0 0.0 0.07698792 
0.0 0.0 0.0 0.0 0.0 0.07698792 
0.0 0.0 0.0 0.0 0.0 0.07698792 
0.0 0.0 0.0 0.0 0.0 0.07698792 
0.0 0.0 0.0 0.0 0.0 0.07698792 
0.0 0.0 0.0 0.0 0.0 0.07698792 
0.0 0.0 0.0 0.0 0.0 0.07698792 
0.0 0.0 0.0 0.0 0.0 0.07698792 
0.0 0.0 0.0 0.0 0.0 0.07698792 
0.0 0.0 0.0 0.0 0.0 0.07698792 
0.0 0.0 0.0 0.0 0.0 0.07698792 
0.0 0.0 0.0 0.0 0.0 0.07698792 
0.0 0.0 0.0 0.0 0.0 0.07698792 
0.0 0.0 0.0 0.0 0.0 0.07698792 
0.0 0.0 0.0 0.0 0.0 0.07698792 
0.0 0.0 0.0 0.0 0.0 0.07698792 
0.0 0.0 0.0 0.0 0.0 0.07698792 
0.0 0.0 0.0 0.0 0.0 0.07698792 
0.0 0.0 0.0 0.0 0.0 0.07698792 
0.0 0.0 0.0 0.0 0.0 0.07698792 
0.0 0.0 0.0 0.0 0.0 0.07698792 
0.0 0.0 0.0 0.0 0.0 0.07698792 
0.0 0.0 0.0 0.0 0.0 0.07698792 
0.0 0.0 0.0 0.0 0.0 0.07698792 
0.0 0.0 0.0 0.0 0.0 0.07698792 
0.0 0.0 0.0 0.0 0.0 0.07698792 
0.0 0.0 0.0 0.0 0.0 0.07698792 
0.0 0.0 0.0 0.0 0.0 0.07698792 
0.0 0.0 0.0 0.0 0.0 0.07698792 
0.0 0.0 0.0 0.0 0.0 0.07698792 
0.0 0.0 0.0 0.0 0.0 0.07698792 
0.0 0.0 0.0 0.0 0.0 0.07698792 
0.0 0.0 0.0 0.0 0.0 0.07698792 
0.0 0.0 0.0 0.0 0.0 0.07698792 
0.0 0.0 0.0 0.0 0.0 0.07698792 
0.0 0.0 0.0 0.0 0.0 0.07698792 
0.0 0.0 0.0 0.0 0.0 0.07698792 
0.0 0.0 0.0 0.0 0.0 0.07698792 
0.0 0.0 0.0 0.0 0.0 0.07698792 
0.0 0.0 0.0 0.0 0.0 0.07698792 
0.0 0.0 0.0 0.0 0.0 0.07698792 
0.0 0.0 0.0 0.0 0.0 0.07698792 
0.0 0.0 0.0 0.0 0.0 0.07698792 
0.0 0.0 0.0 0.0 0.0 0.07698792 
0.0 0.0 0.0 0.0 0.0 0.07698792 
0.0 0.0 0.0 0.0 0.0 0.07698792 
0.0 0.0 0.0 0.0 0.0 0.07698792 
0.0 0.0 0.0 0.0 0.0 0.07698792 
0.0 0.0 0.0 0.0 0.0 0.07698792 
0.0 0.0 0.0 0.0 0.0 0.07698792 
0.0 0.0 0.0 0.0 0.0 0.07698792 
0.0 0.0 0.0 0.0 0.0 0.07698792 
0.0 0.0 0.0 0.0 0.0 0.07698792 
0.0 0.0 0.0 0.0 0.0 0.07698792 
0.0 0.0 0.0 0.0 0.0 0.07698792 
0.0 0.0 0.0 0.0 0.0 0.07698792 
0.0 0.0 0.0 0.0 0.0 0.07698792 
0.0 0.0 0.0 0.0 0.0 0.07698792 
0.0 0.0 0.0 0.0 0.0 0.07698792 
0.0 0.0 0.0 0.0 0.0 0.07698792 
0.0 0.0 0.0 0.0 0.0 0.07698792 
0.0 0.0 0.0 0.0 0.0 0.07698792 
0.0 0.0 0.0 0.0 0.0 0.07698792 
0.0 0.0 0.0 0.0 0.0 0.07020002 
0.017575584 0.0 0.037860326 0.0 0.0 0.015055176 
0.20126042 0.0050910255 0.19167334 0.0 0.0 0.0 
0.3475449 0.17569043 0.30236894 0.0 0.0 0.0 
0.34139073 0.36528015 0.40359402 0.0 0.0 0.0 
0.24330345 0.5593627 0.4045555 0.0 0.0 0.0 
0.035787836 0.57769686 0.29261324 0.0 0.0 0.0 
0.0 0.4131823 0.17991525 0.0 0.07225005 0.0 
0.0 0.22651751 0.056828447 0.0 0.06846559 0.0 
0.0 0.06335421 0.0 0.0 0.0043831654 0.0050937384 
0.0 0.0 0.0 0.0 0.0 0.0728192 
0.0 0.0 0.0 0.0 0.0 0.07698792 
0.0 0.0 0.0 0.0 0.0 0.07698792 
0.0 0.0 0.0 0.0 0.0 0.07698792 
0.0 0.0 0.0 0.0 0.0 0.07698792 
0.0 0.0 0.0 0.0 0.0 0.07698792 
0.0 0.0 0.0 0.0 0.0 0.07698792 
0.0 0.0 0.0 0.0 0.0 0.07698792 
0.0 0.0 0.0 0.0 0.0 0.07698792 
0.0 0.0 0.0 0.0 0.0 0.07698792 
0.0 0.0 0.0 0.0 0.0 0.07698792 
0.0 0.0 0.0 0.0 0.0 0.07698792 
0.0 0.0 0.0 0.0 0.0 0.07698792 
0.0 0.0 0.0 0.0 0.0 0.07698792 
0.0 0.0 0.0 0.0 0.0 0.07698792 
0.0 0.0 0.0 0.0 0.0 0.07698792 
0.0 0.0 0.0 0.0 0.0 0.07698792 
0.0 0.0 0.0 0.0 0.0 0.06378922 
0.10138273 0.0 0.104765005 0.0 0.0 0.0 
0.38445854 0.0 0.19744474 0.0 0.0 0.0 
0.6542843 0.05985318 0.2963401 0.0 0.0 0.0 
0.88195693 0.3457318 0.5135822 0.0 0.0 0.0 
0.83712846 0.79332215 0.7427447 0.0 0.0 0.0 
0.48645598 1.1330793 1.0414842 0.0 0.12207353 0.0 
0.082575396 1.2149158 1.1161257 0.0 0.41715667 0.0 
0.0 1.1359111 0.8897023 0.0 0.4636421 0.0 
0.0 0.75305283 0.5708021 0.0 0.42767823 0.0 
0.0 0.41329446 0.25023207 0.0 0.2506559 0.0 
0.0 0.2056048 0.043132655 0.0 0.09132607 0.0 
0.0 0.038870584 0.0 0.0 0.0 0.033216346 
0.0 0.0 0.0 0.0 0.0 0.07698792 
0.0 0.0 0.0 0.0 0.0 0.07698792 
0.0 0.0 0.0 0.0 0.0 0.07698792 
0.0 0.0 0.0 0.0 0.0 0.07698792 
0.0 0.0 0.0 0.0 0.0 0.07698792 
0.0 0.0 0.0 0.0 0.0 0.07698792 
0.0 0.0 0.0 0.0 0.0 0.07698792 
0.0 0.0 0.0 0.0 0.0 0.07698792 
0.0 0.0 0.0 0.0 0.0 0.07698792 
0.0 0.0 0.0 0.0 0.0 0.07698792 
0.0 0.0 0.0 0.0 0.0 0.07698792 
0.0 0.0 0.0 0.0 0.0 0.07698792 
0.0 0.0 0.0 0.0 0.0 0.07698792 
0.0 0.0 0.0 0.0 0.0 0.07698792 
0.0 0.0 0.0 0.0 0.0 0.07698792 
0.029711097 0.0 0.026627198 0.0 0.0 0.039011568 
0.40525427 0.0 0.11140471 0.0 0.0 0.0 
0.89196575 0.0 0.17968565 0.0 0.0 0.0 
1.2379377 0.013658456 0.26608342 0.0 0.0 0.0 
1.0724447 0.5503388 0.53435916 0.0 0.24142577 0.0 
0.44715554 0.85993105 0.7716675 0.10793598 0.9957878 0.0 
0.0 1.0323225 1.1784271 0.51127267 1.2704433 0.0 
0.0 1.1244571 1.5410973 0.614512 1.0968912 0.0 
0.0 1.1868284 1.6178255 0.32255664 0.83478713 0.0 
0.0 1.2729571 1.37513 0.0 0.60761434 0.0 
0.0 1.0701739 0.9458599 0.0 0.5244762 0.0 
0.0 0.557136 0.46457672 0.0 0.47275624 0.0 
0.0 0.25538012 0.12147299 0.0 0.20248888 0.0 
0.0 0.07528493 0.0 0.0 0.01843771 0.0 
0.0 0.0 0.0 0.0 0.0 0.07438247 
0.0 0.0 0.0 0.0 0.0 0.07698792 
0.0 0.0 0.0 0.0 0.0 0.07698792 
0.0 0.0 0.0 0.0 0.0 0.07698792 
0.0 0.0 0.0 0.0 0.0 0.07698792 
0.0 0.0 0.0 0.0 0.0 0.07698792 
0.0 0.0 0.0 0.0 0.0 0.07698792 
0.0 0.0 0.0 0.0 0.0 0.07698792 
0.0 0.0 0.0 0.0 0.0 0.07698792 
0.0 0.0 0.0 0.0 0.0 0.07698792 
0.0 0.0 0.0 0.0 0.0 0.07698792 
0.0 0.0 0.0 0.0 0.0 0.07698792 
0.0 0.0 0.0 0.0 0.0 0.07698792 
0.0 0.0 0.0 0.0 0.0 0.07698792 
0.15759577 0.0 0.0038610771 0.0 0.0 0.07846111 
0.8097675 0.0 0.0 0.0 0.0 0.11601324 
1.2317803 0.0 0.0 0.14207283 0.0 0.098273784 
1.3055732 0.2807339 0.010897048 0.50430053 0.47333708 0.08670545 
1.0285964 1.0874445 0.37498266 0.7254511 1.2761525 0.19507557 
0.3226013 1.6291478 0.60813737 0.8873833 1.8948776 0.32640016 
0.0 1.6221559 0.90503126 1.023431 1.8336886 0.3868484 
0.0 1.174628 1.1520293 1.077356 1.5220364 0.45109698 
0.0 0.7481447 1.2881825 1.216909 1.003003 0.39023614 
0.20900935 0.90404135 1.5643613 1.1432691 0.5774411 0.0017787889 
0.0 1.3500597 1.5988714 0.52399766 0.5827441 0.0 
0.0 1.2033701 1.1933008 0.0 0.635647 0.0 
0.0 0.65764815 0.63764995 0.0 0.4998789 0.0 
0.0 0.24300808 0.14790449 0.0 0.28853932 0.0 
0.0 0.06113769 0.0 0.0 0.016331058 0.010573946 
0.0 0.0 0.0 0.0 0.0 0.07698792 
0.0 0.0 0.0 0.0 0.0 0.07698792 
0.0 0.0 0.0 0.0 0.0 0.07698792 
0.0 0.0 0.0 0.0 0.0 0.07698792 
0.0 0.0 0.0 0.0 0.0 0.07698792 
0.0 0.0 0.0 0.0 0.0 0.07698792 
0.0 0.0 0.0 0.0 0.0 0.07698792 
0.0 0.0 0.0 0.0 0.0 0.07698792 
0.0 0.0 0.0 0.0 0.0 0.07698792 
0.0 0.0 0.0 0.0 0.0 0.07698792 
0.0 0.0 0.0 0.0 0.0 0.07698792 
0.0 0.0 0.0 0.0 0.0 0.07698792 
0.0 0.0 0.0 0.0 0.0 0.07698792 
0.22477344 0.0 0.0 0.074849024 0.0 0.28280976 
0.9096296 0.0 0.0 0.4083641 0.0 0.71327204 
1.3361053 0.0 0.0 0.6707581 0.7036174 0.89355785 
1.3287785 0.38453683 0.0 0.76426446 1.3030548 0.9742766 
1.0572364 0.7917282 0.0 0.54129726 1.8317811 0.94643563 
0.6288592 1.4005265 0.0 0.14884692 2.2065132 0.5717529 
0.0 1.7381033 0.010499656 0.0 2.1307085 0.6009624 
0.0 1.11241 0.10736389 0.0 2.008817 0.97311133 
0.0 0.29358497 0.0 0.1489551 1.5064231 1.1775734 
0.07082167 0.047781467 0.17337394 0.7983549 0.7003721 0.8849516 
0.22406423 0.5449842 1.2208812 1.0189983 0.4757537 0.2623702 
0.0 1.3054296 1.6036454 0.691478 0.5687955 0.0 
0.0 1.2750299 1.3357441 0.012374767 0.57843465 0.0 
0.0 0.6635899 0.6922694 0.0 0.53550005 0.0 
0.0 0.19498837 0.10893849 0.0 0.26143545 0.0 
0.0 0.03269828 0.0 0.0 0.0 0.03894834 
0.0 0.0 0.0 0.0 0.0 0.07698792 
0.0 0.0 0.0 0.0 0.0 0.07698792 
0.0 0.0 0.0 0.0 0.0 0.07698792 
0.0 0.0 0.0 0.0 0.0 0.07698792 
0.0 0.0 0.0 0.0 0.0 0.07698792 
0.0 0.0 0.0 0.0 0.0 0.07698792 
0.0 0.0 0.0 0.0 0.0 0.07698792 
0.0 0.0 0.0 0.0 0.0 0.07698792 
0.0 0.0 0.0 0.0 0.0 0.07698792 
0.0 0.0 0.0 0.0 0.0 0.07698792 
0.0 0.0 0.0 0.0 0.0 0.07698792 
0.0 0.0 0.0 0.0 0.0 0.07698792 
0.29111418 0.0 0.0 0.1452822 0.06284727 0.43317035 
0.8940305 0.0 0.0 0.2972999 0.5792071 0.97036064 
1.1334429 0.0 0.0 0.2881799 0.9728305 1.0282203 
1.441194 0.0 0.0 0.16982786 1.1774054 1.1864574 
1.4389136 0.35422117 0.0 0.0 1.4682158 1.0579923 
0.51423496 1.1130509 0.0 0.0 1.9303099 0.14593844 
0.0 1.1663786 0.3449763 0.0 2.3327818 0.0 
0.0 0.7520562 0.3587605 0.0 2.274501 0.5489936 
0.0 0.03503926 0.0 0.0 1.7393867 1.0495608 
0.362625 0.0 0.0 0.0 0.95951265 1.33321 
0.42215502 0.0 0.0 0.25972843 0.5254506 0.9919935 
0.22207385 0.46789083 0.8421926 0.6554701 0.5250722 0.21103977 
0.0 1.2078742 1.4422536 0.55732274 0.64047545 0.0 
0.0 1.2019181 1.3854426 0.11017807 0.6182682 0.0 
0.0 0.46412095 0.51105374 0.0 0.53213954 0.0 
0.0 0.06657745 0.008875482 0.0 0.123205945 0.0 
0.0 0.0 0.0 0.0 0.0 0.07698792 
0.0 0.0 0.0 0.0 0.0 0.07698792 
0.0 0.0 0.0 0.0 0.0 0.07698792 
0.0 0.0 0.0 0.0 0.0 0.07698792 
0.0 0.0 0.0 0.0 0.0 0.07698792 
0.0 0.0 0.0 0.0 0.0 0.07698792 
0.0 0.0 0.0 0.0 0.0 0.07698792 
0.0 0.0 0.0 0.0 0.0 0.07698792 
0.0 0.0 0.0 0.0 0.0 0.07698792 
0.0 0.0 0.0 0.0 0.0 0.07698792 
0.0 0.0 0.0 0.0 0.0 0.07698792 
0.0 0.0 0.0 0.0 0.0 0.07698792 
0.24783298 0.0 0.0 0.03939334 0.17601383 0.3793051 
0.7755129 0.0 0.0 0.0 0.55782735 0.7791892 
1.156467 0.0 0.0 0.0 0.5262838 0.78257823 
1.6677268 0.0 0.0 0.0 0.6427974 0.825834 
1.4934366 0.25080085 0.0 0.0 1.3716332 0.6944177 
0.0 1.3634417 0.0 0.013224755 1.9263366 0.10640731 
0.0 1.428292 0.9045638 0.12780689 1.9884738 0.0 
0.0 0.816018 1.410429 0.19991344 1.6477104 0.40810966 
0.0 0.10387175 0.2557794 0.017334323 1.110926 0.5268202 
0.5965054 0.0 0.0 0.0 0.7803547 0.92987114 
0.765526 0.0 0.0 0.0 0.6272893 1.2115302 
0.5625738 0.0 0.0 0.05355789 0.49744454 0.65187865 
0.113583505 0.6715997 0.63093555 0.34518445 0.6719319 0.0 
0.0 1.2303343 1.5946693 0.34982416 0.68841356 0.0 
0.0 0.91066444 1.1572151 0.0 0.6282267 0.0 
0.0 0.22318515 0.2002303 0.0 0.31860682 0.0 
0.0 0.00800906 0.0 0.0 0.0 0.061876304 
0.0 0.0 0.0 0.0 0.0 0.07698792 
0.0 0.0 0.0 0.0 0.0 0.07698792 
0.0 0.0 0.0 0.0 0.0 0.07698792 
0.0 0.0 0.0 0.0 0.0 0.07698792 
0.0 0.0 0.0 0.0 0.0 0.07698792 
0.0 0.0 0.0 0.0 0.0 0.07698792 
0.0 0.0 0.0 0.0 0.0 0.07698792 
0.0 0.0 0.0 0.0 0.0 0.07698792 
0.0 0.0 0.0 0.0 0.0 0.07698792 
0.0 0.0 0.0 0.0 0.0 0.07698792 
0.0 0.0 0.0 0.0 0.0 0.07698792 
0.16079389 0.0 0.0 0.0 0.15452068 0.19250345 
0.6827547 0.0 0.0 0.0 0.121981084 0.2914101 
1.34916 0.0 0.0 0.0 0.0 0.3629119 
1.7592516 0.0 0.0 0.0 0.73513204 0.53539515 
1.1309395 0.6601124 0.0 0.0 1.9164503 0.51436746 
0.0 1.4542476 0.0 0.08934128 2.2893336 0.29082817 
0.0 1.3372756 0.7309509 0.29190612 1.7919722 0.40179616 
0.0 0.52887195 1.1609153 0.24456742 1.0221678 0.49001333 
0.0 0.08296504 0.68685144 0.111682236 0.3953681 0.2719736 
0.28616348 0.0 0.0 0.0 0.46316788 0.44615993 
0.83355033 0.0 0.0 0.0 0.58512086 1.0017941 
0.91000956 0.0 0.0 0.0 0.3845472 0.9507311 
0.50242823 0.33862355 0.0 0.06761172 0.55256754 0.25373453 
0.0 0.9378157 0.9590496 0.18377468 0.7463809 0.0 
0.0 1.1574302 1.6260722 0.13251376 0.66575694 0.0 
0.0 0.44618967 0.5783588 0.0 0.539447 0.0 
0.0 0.050746005 0.0 0.0 0.04211275 0.010798246 
0.0 0.0 0.0 0.0 0.0 0.07698792 
0.0 0.0 0.0 0.0 0.0 0.07698792 
0.0 0.0 0.0 0.0 0.0 0.07698792 
0.0 0.0 0.0 0.0 0.0 0.07698792 
0.0 0.0 0.0 0.0 0.0 0.07698792 
0.0 0.0 0.0 0.0 0.0 0.07698792 
0.0 0.0 0.0 0.0 0.0 0.07698792 
0.0 0.0 0.0 0.0 0.0 0.07698792 
0.0 0.0 0.0 0.0 0.0 0.07698792 
0.0 0.0 0.0 0.0 0.0 0.07698792 
0.0 0.0 0.0 0.0 0.0 0.07698792 
0.11202714 0.0 0.027128562 0.0 0.0 0.05290584 
0.7881045 0.0 0.0 0.0 0.0 0.12047377 
1.6448555 0.0 0.0 0.0 0.029578071 0.3303206 
1.7033267 0.35696015 0.0 0.0033196183 1.2480348 0.37605405 
0.43712312 1.3387427 0.0 0.007843074 2.1972196 0.31527907 
0.0 1.4244028 0.0 0.0047083767 2.2073598 0.4078744 
0.0 0.766724 0.7228262 0.037074607 1.4165968 0.55250955 
0.0 0.18931825 0.75335354 0.08418971 0.5433914 0.41794282 
0.0 0.0 0.36017233 0.0 0.1252811 0.16519316 
0.015681893 0.0 0.0 0.0 0.13448662 0.16070445 
0.5648018 0.0 0.0 0.0 0.49564674 0.64942473 
1.0522091 0.0 0.0 0.0 0.44693902 1.0344896 
0.7798329 0.0 0.0 0.0 0.40646043 0.41990566 
0.12742934 0.6857664 0.12087899 0.06364801 0.71463 0.0 
0.0 1.1092709 1.5555589 0.14405286 0.75677925 0.0 
0.0 0.7632834 1.108184 0.0 0.6730877 0.0 
0.0 0.13947627 0.09171001 0.0 0.22715585 0.0 
0.0 0.0 0.0 0.0 0.0 0.07334029 
0.0 0.0 0.0 0.0 0.0 0.07698792 
0.0 0.0 0.0 0.0 0.0 0.07698792 
0.0 0.0 0.0 0.0 0.0 0.07698792 
0.0 0.0 0.0 0.0 0.0 0.07698792 
0.0 0.0 0.0 0.0 0.0 0.07698792 
0.0 0.0 0.0 0.0 0.0 0.07698792 
0.0 0.0 0.0 0.0 0.0 0.07698792 
0.0 0.0 0.0 0.0 0.0 0.07698792 
0.0 0.0 0.0 0.0 0.0 0.07698792 
0.0 0.0 0.0 0.0 0.0 0.054738685 
0.33959872 0.0 0.039167017 0.0 0.0 0.03604249 
1.2519474 0.0 0.0 0.0 0.0 0.23856851 
1.8182473 0.0 0.0 0.0 0.6032208 0.42110726 
1.1022651 1.0062393 0.0 0.09409525 1.7415782 0.2803138 
0.0 1.4811552 0.0 0.0 2.2866256 0.2913978 
0.0 1.1629226 0.486764 0.009902616 1.7302779 0.48762572 
0.0 0.24394852 0.7309411 0.0 0.91358036 0.43494213 
0.0 0.0 0.43915844 0.0 0.24010561 0.25957447 
0.0 0.0 0.07167459 0.0 0.022103291 0.094074406 
0.0 0.0 0.0 0.0 0.0 0.08070118 
0.23691031 0.0 0.0 0.0 0.2670122 0.3430435 
0.9691692 0.0 0.0 0.050378554 0.39154032 0.9623959 
1.065645 0.0 0.0 0.0 0.26720354 0.673947 
0.449647 0.60185105 0.0 0.01038736 0.5361483 0.0 
0.0 1.0812601 1.1246864 0.06943956 0.7708599 0.0 
0.0 1.0934784 1.5974226 0.0 0.7616243 0.0 
0.0 0.31108955 0.3693038 0.0 0.45389137 0.0 
0.0 0.020104975 0.0 0.0 0.0 0.047894005 
0.0 0.0 0.0 0.0 0.0 0.07698792 
0.0 0.0 0.0 0.0 0.0 0.07698792 
0.0 0.0 0.0 0.0 0.0 0.07698792 
0.0 0.0 0.0 0.0 0.0 0.07698792 
0.0 0.0 0.0 0.0 0.0 0.07698792 
0.0 0.0 0.0 0.0 0.0 0.07698792 
0.0 0.0 0.0 0.0 0.0 0.07698792 
0.0 0.0 0.0 0.0 0.0 0.07698792 
0.0 0.0 0.0 0.0 0.0 0.073593974 
0.11471957 0.0 0.09499676 0.0 0.0 0.0 
0.80984956 0.0 0.0 0.0 0.0 0.05263123 
1.659447 0.0 0.0 0.0 0.053269166 0.3105193 
1.6647816 0.43681142 0.0 0.0 1.2575089 0.30628556 
0.27507508 1.3956096 0.0 0.0 2.104281 0.15172309 
0.0 1.3676356 0.17595658 0.003949237 1.9885622 0.26656276 
0.0 0.61070955 0.8860729 0.0 1.2709091 0.46298718 
0.0 0.12413351 0.6744037 0.042819593 0.44888952 0.30590647 
0.0 0.0 0.161113 0.0 0.06585431 0.119406916 
0.0 0.0 0.0 0.0 0.0 0.07835772 
0.0 0.0 0.0 0.0 0.0 0.07698792 
0.042484596 0.0 0.0 0.0 0.09672068 0.16285071 
0.8174357 0.0 0.0 0.0 0.35029057 0.7386603 
1.3486166 0.0 0.0 0.0 0.26844135 0.84325176 
0.7612102 0.38039255 0.0 0.0 0.4651703 0.0 
0.0 1.1069244 0.5794054 0.0 0.8226028 0.0 
0.0 1.2314578 1.7974075 0.0 0.9283459 0.0 
0.0 0.60143507 0.8352002 0.0 0.6454285 0.0 
0.0 0.07258535 0.0072911605 0.0 0.09332681 0.0 
0.0 0.0 0.0 0.0 0.0 0.07698792 
0.0 0.0 0.0 0.0 0.0 0.07698792 
0.0 0.0 0.0 0.0 0.0 0.07698792 
0.0 0.0 0.0 0.0 0.0 0.07698792 
0.0 0.0 0.0 0.0 0.0 0.07698792 
0.0 0.0 0.0 0.0 0.0 0.07698792 
0.0 0.0 0.0 0.0 0.0 0.07698792 
0.0 0.0 0.0 0.0 0.0 0.07698792 
0.0 0.0 0.010020375 0.0 0.0 0.045684453 
0.39702728 0.0 0.046344474 0.0 0.0 0.0 
1.3098109 0.0 0.0 0.0 0.0 0.19452044 
1.8129356 0.0 0.0 0.0 0.7000952 0.38095155 
0.9380824 1.0617435 0.0 0.071964845 1.8054012 0.25885126 
0.0 1.4743713 0.0 0.0 2.15885 0.2421763 
0.0 1.0541195 0.705924 0.099842414 1.5676882 0.46943662 
0.0 0.25352523 0.9108001 0.07959466 0.7764507 0.4138697 
0.0 0.0 0.46283823 0.041896045 0.15627383 0.17779842 
0.0 0.0 0.0 0.0 0.0 0.0815539 
0.0 0.0 0.0 0.0 0.0 0.07698792 
0.0 0.0 0.0 0.0 0.0 0.07698792 
0.0 0.0 0.0 0.0 0.0 0.088127695 
0.62473154 0.0 0.0 0.0 0.18813361 0.5399294 
1.5056338 0.0 0.0 0.033821296 0.26608625 0.91458416 
1.0813594 0.24071798 0.0 0.0 0.48652807 0.19052719 
0.032835096 1.1506122 0.20238489 0.009216 0.8861207 0.0 
0.0 1.328687 1.6941458 0.020700809 1.1135477 0.0 
0.0 0.84373695 1.3211082 0.0 0.8345476 0.0 
0.0 0.114902765 0.13627574 0.0 0.23817523 0.0 
0.0 0.0 0.0 0.0 0.0 0.07698792 
0.0 0.0 0.0 0.0 0.0 0.07698792 
0.0 0.0 0.0 0.0 0.0 0.07698792 
0.0 0.0 0.0 0.0 0.0 0.07698792 
0.0 0.0 0.0 0.0 0.0 0.07698792 
0.0 0.0 0.0 0.0 0.0 0.07698792 
0.0 0.0 0.0 0.0 0.0 0.07698792 
0.0 0.0 0.0 0.0 0.0 0.07698792 
0.11535004 0.0 0.048471488 0.0 0.0 0.037495777 
0.86015505 0.0 0.0 0.0 0.0 0.14132579 
1.71525 0.0 0.0 0.0 0.07831551 0.3276115 
1.5878687 0.5787167 0.0 0.04781818 1.338211 0.23802662 
0.10137881 1.4743986 0.0 0.0 2.1295826 0.08531499 
0.0 1.3921622 0.29951996 0.0 1.8974153 0.19933915 
0.0 0.5522809 0.86496437 0.0 1.1841587 0.4334583 
0.0 0.11751276 0.65998733 0.079273716 0.35076135 0.30292237 
0.0 0.0 0.15379822 0.0 0.043397833 0.10572187 
0.0 0.0 0.0 0.0 0.0 0.07698792 
0.0 0.0 0.0 0.0 0.0 0.07698792 
0.0 0.0 0.0 0.0 0.0 0.07698792 
0.0 0.0 0.0 0.0 0.0 0.07698792 
0.54156375 0.0 0.0 0.0 0.045315627 0.4386004 
1.6109374 0.0 0.0 0.011726764 0.29700038 0.90240747 
1.3341687 0.1711891 0.0 0.0 0.64154184 0.38328117 
0.08546366 1.1800072 0.0 0.031323854 1.0180804 0.0 
0.0 1.4139197 1.49341 0.099901974 1.2943145 0.0 
0.0 0.87002915 1.5927132 0.05013344 0.9908865 0.0 
0.0 0.21349679 0.34538615 0.0 0.274698 0.0 
0.0 0.0 0.0 0.0 0.0 0.07698792 
0.0 0.0 0.0 0.0 0.0 0.07698792 
0.0 0.0 0.0 0.0 0.0 0.07698792 
0.0 0.0 0.0 0.0 0.0 0.07698792 
0.0 0.0 0.0 0.0 0.0 0.07698792 
0.0 0.0 0.0 0.0 0.0 0.07698792 
0.0 0.0 0.0 0.0 0.0 0.07698792 
0.0 0.0 0.0 0.0 0.0 0.07397108 
0.30216762 0.0 0.0 0.0 0.0 0.13694297 
1.3232822 0.0 0.0 0.09736279 0.0 0.40956807 
1.9276237 0.0 0.0 0.04686172 0.6351717 0.5413116 
1.0427511 1.1807631 0.0 0.07709454 1.6750096 0.16560121 
0.0 1.654899 0.0 0.0 2.0569277 0.02619645 
0.0 1.2385347 0.9331603 0.0 1.5368794 0.24981466 
0.0 0.2660325 0.8653087 0.0 0.83974975 0.2928464 
0.0 0.0 0.3595387 0.0 0.12482077 0.17042336 
0.0 0.0 0.0 0.0 0.0 0.081097305 
0.0 0.0 0.0 0.0 0.0 0.07698792 
0.0 0.0 0.0 0.0 0.0 0.07698792 
0.0 0.0 0.0 0.0 0.0 0.07698792 
0.0 0.0 0.0 0.0 0.0 0.060772374 
0.62962836 0.0 0.0 0.0 0.0 0.34904522 
1.7533116 0.0 0.0 0.0 0.27938053 0.77036977 
1.4777784 0.30785796 0.0 0.0 0.8117266 0.3494339 
0.079336554 1.3311075 0.0 0.0 1.2235993 0.0 
0.0 1.4790978 1.2921281 0.0 1.4462968 0.0 
0.0 0.78238815 1.5729573 0.057810124 1.032762 0.0 
0.0 0.21778193 0.48976284 0.058771346 0.25379932 0.034503672 
0.0 0.0 0.0 0.0 0.0 0.07698792 
0.0 0.0 0.0 0.0 0.0 0.07698792 
0.0 0.0 0.0 0.0 0.0 0.07698792 
0.0 0.0 0.0 0.0 0.0 0.07698792 
0.0 0.0 0.0 0.0 0.0 0.07698792 
0.0 0.0 0.0 0.0 0.0 0.07698792 
0.0 0.0 0.0 0.0 0.0 0.07698792 
0.0 0.0 0.0 0.0 0.0 0.07258507 
0.55971855 0.0 0.0 0.034876715 0.0 0.32468826 
1.7086372 0.0 0.0 0.07995056 0.09544504 0.664365 
1.8341322 0.10916648 0.0 0.116733745 1.1435629 0.6228505 
0.44180894 1.3047254 0.0 0.03727946 1.8334359 0.10800268 
0.0 1.5641849 0.46674192 0.0 1.9265035 0.008201063 
0.0 0.7676554 1.2425953 0.0 1.3629466 0.30602717 
0.0 0.14529824 0.76788217 0.0072353864 0.54548323 0.19143784 
0.0 0.0 0.066518 0.0 0.02532335 0.09322392 
0.0 0.0 0.0 0.0 0.0 0.07698792 
0.0 0.0 0.0 0.0 0.0 0.07698792 
0.0 0.0 0.0 0.0 0.0 0.07698792 
0.0 0.0 0.0 0.0 0.0 0.06567475 
0.123413295 0.0 0.106219105 0.0 0.0 0.0 
0.9517142 0.0 0.0 0.0 0.0 0.17334259 
1.8726683 0.0 0.0 0.0 0.32588118 0.50958073 
1.4220684 0.6066252 0.0 0.0 1.1590246 0.10479296 
0.0 1.5039471 0.0 0.0 1.5846677 0.0 
0.0 1.3147359 1.1693835 0.0 1.585148 0.012180537 
0.0 0.5782419 1.3575536 0.07671258 1.0000533 0.16113198 
0.0 0.09575569 0.4607275 0.084298305 0.18999808 0.087483324 
0.0 0.0 0.0 0.0 0.0 0.07698792 
0.0 0.0 0.0 0.0 0.0 0.07698792 
0.0 0.0 0.0 0.0 0.0 0.07698792 
0.0 0.0 0.0 0.0 0.0 0.07698792 
0.0 0.0 0.0 0.0 0.0 0.07698792 
0.0 0.0 0.0 0.0 0.0 0.07698792 
0.0 0.0 0.0 0.0 0.0 0.07698792 
0.0 0.0 0.0 0.0 0.0 0.08436862 
0.7910922 0.0 0.0 0.08023744 0.0 0.5417992 
1.9063528 0.0 0.0 0.09576603 0.38954183 0.91399944 
1.5639744 0.42725486 0.0 0.13042723 1.3916421 0.603283 
0.0 1.5129498 0.0 0.11631468 1.7013766 0.12961268 
0.0 1.4240073 1.0585223 0.044880595 1.7109727 0.07731202 
0.0 0.54593265 1.2894882 0.04526181 1.0735847 0.3146683 
0.0 0.11935064 0.6748085 0.15719365 0.20430113 0.1396679 
0.0 0.0 0.0 0.0 0.0 0.07790112 
0.0 0.0 0.0 0.0 0.0 0.07698792 
0.0 0.0 0.0 0.0 0.0 0.07698792 
0.0 0.0 0.0 0.0 0.0 0.060018167 
0.13094105 0.0 0.11779822 0.0 0.0 0.0 
0.52930754 0.0 0.13789192 0.0 0.0 0.0 
1.3765407 0.0 0.0 0.0 0.0 0.0 
1.9621739 0.06071212 0.0 0.0 0.6977725 0.15353866 
0.8578571 1.194489 0.0 0.0 1.6775502 0.0 
0.0 1.5546358 0.018239312 0.0 1.9181627 0.0 
0.0 1.1336042 1.2372305 0.10398696 1.5101681 0.21325974 
0.0 0.37370077 1.1444263 0.13139582 0.7653298 0.22329445 
0.0 0.045632754 0.32070073 0.07900713 0.06626159 0.10893056 
0.0 0.0 0.0 0.0 0.0 0.07698792 
0.0 0.0 0.0 0.0 0.0 0.07698792 
0.0 0.0 0.0 0.0 0.0 0.07698792 
0.0 0.0 0.0 0.0 0.0 0.07698792 
0.0 0.0 0.0 0.0 0.0 0.07698792 
0.0 0.0 0.0 0.0 0.0 0.07698792 
0.0 0.0 0.0 0.0 0.0 0.07698792 
0.0 0.0 0.0 0.010868083 0.0 0.10761793 
0.87426996 0.0 0.0 0.098336756 0.0806324 0.739641 
1.8817635 0.0 0.0 0.17692375 0.6096321 1.1321604 
1.3071907 0.5154744 0.0 0.09105036 1.4180613 0.52619994 
0.0 1.4433352 0.0 0.030473065 1.5706866 0.1592191 
0.0 1.2195437 1.2794508 0.0 1.4736639 0.051983863 
0.0 0.41463032 1.0590756 0.0 0.8803127 0.12619887 
0.0 0.0 0.35986742 0.0 0.10468756 0.10328842 
0.0 0.0 0.0 0.0 0.0 0.07698792 
0.0 0.0 0.0 0.0 0.0 0.061903693 
0.0650443 0.0 0.07692579 0.0 0.0 0.0 
0.26697785 0.014377317 0.19475913 0.0 0.0 0.0 
0.56748086 0.009557038 0.23635364 0.0 0.0 0.0 
1.1068754 0.0 0.24962848 0.0 0.0 0.0 
1.7118421 0.14525762 0.0 0.0 0.2610583 0.0 
1.4350619 0.82854205 0.0 0.0 1.5850862 0.07553793 
0.01911126 1.5588998 0.0 0.006699737 2.2562673 0.06438339 
0.0 1.5084294 0.42050043 0.14945014 1.9109553 0.20331436 
0.0 0.76448405 1.175068 0.16163011 1.2408384 0.436858 
0.0 0.18830584 0.86640435 0.13740002 0.44628033 0.23463365 
0.0 0.0 0.1351633 0.00713827 0.006703254 0.102536984 
0.0 0.0 0.0 0.0 0.0 0.07698792 
0.0 0.0 0.0 0.0 0.0 0.07698792 
0.0 0.0 0.0 0.0 0.0 0.07698792 
0.0 0.0 0.0 0.0 0.0 0.07698792 
0.0 0.0 0.0 0.0 0.0 0.07698792 
0.0 0.0 0.0 0.0 0.0 0.07698792 
0.0 0.0 0.0 0.0 0.0 0.07698792 
0.0 0.0 0.0 0.009644416 0.0 0.116347946 
0.7792998 0.0 0.0 0.13140635 0.29963845 0.820498 
1.6434505 0.0 0.0 0.18550637 0.7178806 1.3018341 
1.1751282 0.32715052 0.0 0.04945935 1.0617996 0.48559985 
0.056469902 1.2005463 0.0 0.0 1.0833122 0.0 
0.0 1.3124913 1.6795111 0.0 1.0486217 0.0 
0.0 0.6782738 1.2974969 0.0 0.73713785 0.0 
0.0 0.22008474 0.37689212 0.0 0.08320163 0.0 
0.15071565 0.21272482 0.23274887 0.0 0.0 0.0 
0.28936428 0.20203027 0.30998427 0.0 0.0 0.0 
0.48461372 0.23925735 0.36194947 0.0 0.0 0.0 
0.76032585 0.23553069 0.41374707 0.0 0.0 0.0 
1.1483641 0.25310406 0.39435902 0.0 0.0 0.0 
1.3216832 0.5088483 0.19093242 0.0 0.34918946 0.0 
1.15417 0.6963282 0.0 0.029799212 1.6264986 0.11664982 
0.45417494 1.2490692 0.0 0.3689065 2.5275543 0.5346427 
0.0 1.4695549 0.0 0.4495668 2.3260403 0.5553353 
0.0 0.9895164 0.6820938 0.3747811 1.5542854 0.57795817 
0.0 0.31635904 0.9560499 0.16403443 0.8086274 0.45869544 
0.0 0.030056141 0.5389062 0.06521749 0.20184489 0.18370557 
0.0 0.0 0.0 0.0 0.0 0.08351828 
0.0 0.0 0.0 0.0 0.0 0.07698792 
0.0 0.0 0.0 0.0 0.0 0.07698792 
0.0 0.0 0.0 0.0 0.0 0.07698792 
0.0 0.0 0.0 0.0 0.0 0.07698792 
0.0 0.0 0.0 0.0 0.0 0.07698792 
0.0 0.0 0.0 0.0 0.0 0.07698792 
0.0 0.0 0.0 0.0 0.0 0.07698792 
0.0 0.0 0.0 0.0 0.0 0.10374943 
0.5960486 0.0 0.0 0.035852216 0.4315967 0.7017584 
1.3022904 0.0 0.0 0.09973637 0.7828107 1.346473 
0.98145145 0.0 0.0 0.10348085 0.63779426 0.7670459 
0.552795 0.56989694 0.0 0.07196219 0.5990995 0.103843406 
0.0 1.2290128 1.8696246 0.0 0.6542682 0.0 
0.0 1.1924595 1.9437779 0.0 0.5149014 0.0 
0.11076406 0.81036645 0.95408463 0.0 0.1520249 0.0 
0.42101583 0.6602755 0.7150084 0.0 0.0 0.0 
0.66959983 0.6126093 0.6765225 0.0 0.0 0.0 
0.8693764 0.55086535 0.6618819 0.0 0.0 0.0 
0.94839245 0.58651686 0.53742075 0.0 0.26712945 0.0 
0.847084 0.7253269 0.37678704 0.0 0.9362282 0.0 
0.70762205 0.83782065 0.053719863 0.44335917 2.0192204 0.32231337 
0.33166626 1.1695962 0.0 0.7972123 2.6111286 0.9139856 
0.0 1.1912467 0.0 0.70751363 2.4957025 1.0434635 
0.0 0.9428217 0.10223917 0.50349975 1.701436 0.8830266 
0.0 0.43010145 0.67907995 0.22292796 0.8567544 0.63848627 
0.0 0.12528694 0.6708944 0.09501515 0.3427312 0.34960157 
0.0 0.0 0.23514766 0.0 0.056138936 0.11976555 
0.0 0.0 0.0 0.0 0.0 0.07736842 
0.0 0.0 0.0 0.0 0.0 0.07698792 
0.0 0.0 0.0 0.0 0.0 0.07698792 
0.0 0.0 0.0 0.0 0.0 0.07698792 
0.0 0.0 0.0 0.0 0.0 0.07698792 
0.0 0.0 0.0 0.0 0.0 0.07698792 
0.0 0.0 0.0 0.0 0.0 0.07698792 
0.0 0.0 0.0 0.0 0.0 0.07698792 
0.0 0.0 0.0 0.0 0.0 0.08565219 
0.33048835 0.0 0.0 0.0 0.3525697 0.4283948 
0.9646453 0.0 0.0 0.013579174 0.7676893 1.1250451 
0.86018443 0.0 0.0 0.13285416 0.63824105 1.1243005 
0.58946264 0.0 0.0 0.44323698 0.59078926 0.72655433 
0.37397563 0.364473 0.9113366 0.778135 0.6947813 0.37623352 
0.15117013 0.9294221 1.9268333 0.7074309 0.5988435 0.0 
0.3972919 0.9619593 1.4465287 0.080887824 0.524236 0.0 
0.48570627 0.86112106 1.0787501 0.0 0.57573897 0.0 
0.5208783 0.7650532 0.8876714 0.0 0.7765906 0.0 
0.5206861 0.82661384 0.7088265 0.3027154 1.1688682 0.0 
0.4474824 0.9126056 0.4603585 0.8380779 1.7118801 0.2740172 
0.334387 1.046697 0.13390893 1.1096315 2.3164804 0.87866575 
0.010383576 1.1802721 0.0 1.1077685 2.540016 1.2238245 
0.0 0.9421305 0.0 0.7207501 2.3383267 1.32864 
0.0 0.7234127 0.0 0.28545314 1.6188214 1.139575 
0.0 0.307659 0.104982145 0.008383505 0.8084619 0.72244227 
0.0 0.0 0.33805916 0.0 0.39020112 0.4415092 
0.0 0.0 0.27460942 0.0 0.15319173 0.19582194 
0.0 0.0 0.0102106705 0.0 0.0 0.08580127 
0.0 0.0 0.0 0.0 0.0 0.07698792 
0.0 0.0 0.0 0.0 0.0 0.07698792 
0.0 0.0 0.0 0.0 0.0 0.07698792 
0.0 0.0 0.0 0.0 0.0 0.07698792 
0.0 0.0 0.0 0.0 0.0 0.07698792 
0.0 0.0 0.0 0.0 0.0 0.07698792 
0.0 0.0 0.0 0.0 0.0 0.07698792 
0.0 0.0 0.0 0.0 0.0 0.07698792 
0.0 0.0 0.0 0.0 0.0 0.07698792 
0.086396426 0.0 0.0 0.0 0.15367493 0.1968084 
0.57317084 0.0 0.0 0.0 0.5491342 0.68964374 
0.8333684 0.0 0.0 0.0686241 0.7496702 1.1846716 
0.6326583 0.0 0.0 0.29756397 0.78263485 1.2558329 
0.4518835 0.0 0.0 0.8435131 0.93553543 1.2042546 
0.28740406 0.16816323 0.5752681 1.4950138 0.99626106 1.0576887 
0.4120071 0.6039844 0.9300509 1.8021152 1.0956856 0.90332 
0.3919385 0.8179538 0.7619908 1.7536516 1.4066212 0.8348292 
0.29229528 0.99904054 0.5956024 1.7313664 1.7271138 0.981899 
0.12513024 1.0255913 0.36871052 1.5844233 2.1752546 1.2157247 
0.039998233 1.0132208 0.0 1.3404813 2.3530333 1.3763447 
0.0 0.9561912 0.0 0.97847295 2.2219617 1.4563949 
0.0 0.6819479 0.0 0.38314968 1.9154171 1.37008 
0.0 0.36184445 0.0 0.0 1.2893366 1.0583507 
0.0 0.0116634285 0.0 0.0 0.6957087 0.64625514 
0.0 0.0 0.016866907 0.0 0.36152253 0.37401444 
0.0 0.0 0.076205425 0.0 0.17036316 0.20338123 
0.0 0.0 0.032666124 0.0 0.014867466 0.092129156 
0.0 0.0 0.0 0.0 0.0 0.07736842 
0.0 0.0 0.0 0.0 0.0 0.07698792 
0.0 0.0 0.0 0.0 0.0 0.07698792 
0.0 0.0 0.0 0.0 0.0 0.07698792 
0.0 0.0 0.0 0.0 0.0 0.07698792 
0.0 0.0 0.0 0.0 0.0 0.07698792 
0.0 0.0 0.0 0.0 0.0 0.07698792 
0.0 0.0 0.0 0.0 0.0 0.07698792 
0.0 0.0 0.0 0.0 0.0 0.07698792 
0.0 0.0 0.0 0.0 0.0 0.07698792 
0.0 0.0 0.0 0.0 0.0 0.09369758 
0.22782469 0.0 0.0 0.0 0.3283465 0.31117558 
0.6104187 0.0 0.0 0.0 0.66974455 0.7515263 
0.72359943 0.0 0.0 0.0 0.9111072 1.1633177 
0.5991945 0.0 0.0 0.0 1.06073 1.4562354 
0.49607068 0.0 0.0 0.41834852 1.3113265 1.6792724 
0.38177207 0.15341514 0.0 0.9700397 1.531251 1.7498567 
0.29593128 0.47665948 0.0 1.212762 1.7391897 1.6512938 
0.23998469 0.6340061 0.0 1.1181009 1.9304217 1.6968446 
0.12298998 0.7175007 0.0 0.7810155 1.930463 1.6505628 
0.0 0.51619124 0.0 0.24339555 1.7345347 1.4640844 
0.0 0.22292575 0.0 0.0 1.3681724 1.1791708 
0.0 0.0 0.0 0.0 0.86102706 0.76913965 
0.0 0.0 0.0 0.0 0.47429094 0.46112418 
0.0 0.0 0.0 0.0 0.25748056 0.2659327 
0.0 0.0 0.01921381 0.0 0.08862747 0.13517876 
0.0 0.0 0.0 0.0 0.0 0.084431395 
0.0 0.0 0.0 0.0 0.0 0.07729232 
0.0 0.0 0.0 0.0 0.0 0.07698792 
0.0 0.0 0.0 0.0 0.0 0.07698792 
0.0 0.0 0.0 0.0 0.0 0.07698792 
0.0 0.0 0.0 0.0 0.0 0.07698792 
0.0 0.0 0.0 0.0 0.0 0.07698792 
0.0 0.0 0.0 0.0 0.0 0.07698792 
0.0 0.0 0.0 0.0 0.0 0.07698792 
0.0 0.0 0.0 0.0 0.0 0.07698792 
0.0 0.0 0.0 0.0 0.0 0.07698792 
0.0 0.0 0.0 0.0 0.0 0.07698792 
0.0 0.0 0.0 0.0 0.0 0.07698792 
0.0 0.0 0.0 0.0 0.028331209 0.114739366 
0.21306205 0.0 0.0 0.0 0.3507541 0.28376833 
0.45687777 0.0 0.0 0.0 0.63505626 0.54457057 
0.5430941 0.0 0.0 0.0 0.90752715 0.8195641 
0.56219953 0.0 0.0 0.0 1.1786948 1.178788 
0.47709477 0.0 0.0 0.0 1.3979448 1.4259155 
0.26252776 0.0 0.0 0.0 1.4225848 1.4222801 
0.1189346 0.0 0.0 0.0 1.3303744 1.2953339 
0.0 0.0 0.0 0.0 1.1760389 1.0447335 
0.0 0.0 0.0 0.0 0.85146075 0.7128213 
0.0 0.0 0.0 0.0 0.509406 0.44911277 
0.0 0.0 0.0 0.0 0.2884951 0.27114612 
0.0 0.0 0.0 0.0 0.124353826 0.16136515 
0.0 0.0 0.0007433742 0.0 0.0 0.090710774 
0.0 0.0 0.0 0.0 0.0 0.07767282 
0.0 0.0 0.0 0.0 0.0 0.07698792 
0.0 0.0 0.0 0.0 0.0 0.07698792 
0.0 0.0 0.0 0.0 0.0 0.07698792 
0.0 0.0 0.0 0.0 0.0 0.07698792 
0.0 0.0 0.0 0.0 0.0 0.07698792 
0.0 0.0 0.0 0.0 0.0 0.07698792 
0.0 0.0 0.0 0.0 0.0 0.07698792 
0.0 0.0 0.0 0.0 0.0 0.07698792 
0.0 0.0 0.0 0.0 0.0 0.07698792 
0.0 0.0 0.0 0.0 0.0 0.07698792 
0.0 0.0 0.0 0.0 0.0 0.07698792 
0.0 0.0 0.0 0.0 0.0 0.07698792 
0.0 0.0 0.0 0.0 0.0 0.07698792 
0.0 0.0 0.0 0.0 0.0 0.07698792 
0.0 0.0 0.0 0.0 0.0 0.089365445 
0.050334714 0.0 0.0 0.0 0.12810606 0.16088799 
0.15825686 0.0 0.0 0.0 0.2987162 0.24586871 
0.2536536 0.0 0.0 0.0 0.52738214 0.34525678 
0.27275115 0.0 0.0 0.0 0.6845852 0.4470126 
0.11332421 0.0 0.0 0.0 0.66596264 0.42695785 
0.0 0.0 0.0 0.0 0.56614727 0.39440513 
0.0 0.0 0.0 0.0 0.37622425 0.29880828 
0.0 0.0 0.0 0.0 0.1939259 0.19123349 
0.0 0.0 0.0 0.0 0.06891729 0.1401119 
0.0 0.0 0.0 0.0 0.0 0.08661569 
0.0 0.0 0.0 0.0 0.0 0.07736842 
0.0 0.0 0.0 0.0 0.0 0.07698792 
0.0 0.0 0.0 0.0 0.0 0.07698792 
0.0 0.0 0.0 0.0 0.0 0.07698792 
0.0 0.0 0.0 0.0 0.0 0.07698792 
0.0 0.0 0.0 0.0 0.0 0.07698792 
0.0 0.0 0.0 0.0 0.0 0.07698792 
0.0 0.0 0.0 0.0 0.0 0.07698792 
0.0 0.0 0.0 0.0 0.0 0.07698792 
0.0 0.0 0.0 0.0 0.0 0.07698792 
0.0 0.0 0.0 0.0 0.0 0.07698792 
0.0 0.0 0.0 0.0 0.0 0.07698792 
0.0 0.0 0.0 0.0 0.0 0.07698792 
0.0 0.0 0.0 0.0 0.0 0.07698792 
0.0 0.0 0.0 0.0 0.0 0.07698792 
0.0 0.0 0.0 0.0 0.0 0.07698792 
0.0 0.0 0.0 0.0 0.0 0.07698792 
0.0 0.0 0.0 0.0 0.0 0.07698792 
0.0 0.0 0.0 0.0 0.0 0.07698792 
0.0 0.0 0.0 0.0 0.0 0.07698792 
0.0 0.0 0.0 0.0 0.0 0.07698792 
0.0 0.0 0.0 0.0 0.0 0.07698792 
0.0 0.0 0.0 0.0 0.0 0.07698792 
0.0 0.0 0.0 0.0 0.0 0.07698792 
0.0 0.0 0.0 0.0 0.0 0.07698792 
0.0 0.0 0.0 0.0 0.0 0.07698792 
0.0 0.0 0.0 0.0 0.0 0.07698792 
0.0 0.0 0.0 0.0 0.0 0.07698792 
0.0 0.0 0.0 0.0 0.0 0.07698792 
0.0 0.0 0.0 0.0 0.0 0.07698792 
0.0 0.0 0.0 0.0 0.0 0.07698792 
0.0 0.0 0.0 0.0 0.0 0.07698792 
0.0 0.0 0.0 0.0 0.0 0.07698792 
0.0 0.0 0.0 0.0 0.0 0.07698792 
0.0 0.0 0.0 0.0 0.0 0.07698792 
0.0 0.0 0.0 0.0 0.0 0.07698792 
0.0 0.0 0.0 0.0 0.0 0.07698792 
0.0 0.0 0.0 0.0 0.0 0.07698792 
0.0 0.0 0.0 0.0 0.0 0.07698792 
0.0 0.0 0.0 0.0 0.0 0.07698792 
0.0 0.0 0.0 0.0 0.0 0.07698792 
0.0 0.0 0.0 0.0 0.0 0.07698792 
0.0 0.0 0.0 0.0 0.0 0.07698792 
0.0 0.0 0.0 0.0 0.0 0.07698792 
0.0 0.0 0.0 0.0 0.0 0.07698792 
0.0 0.0 0.0 0.0 0.0 0.07698792 
0.0 0.0 0.0 0.0 0.0 0.07698792 
0.0 0.0 0.0 0.0 0.0 0.07698792 
0.0 0.0 0.0 0.0 0.0 0.07698792 
0.0 0.0 0.0 0.0 0.0 0.07698792 
0.0 0.0 0.0 0.0 0.0 0.07698792 
0.0 0.0 0.0 0.0 0.0 0.07698792 
0.0 0.0 0.0 0.0 0.0 0.07698792 
0.0 0.0 0.0 0.0 0.0 0.07698792 
0.0 0.0 0.0 0.0 0.0 0.07698792 
0.0 0.0 0.0 0.0 0.0 0.07698792 
0.0 0.0 0.0 0.0 0.0 0.07698792 
0.0 0.0 0.0 0.0 0.0 0.07698792 
0.0 0.0 0.0 0.0 0.0 0.07698792 
0.0 0.0 0.0 0.0 0.0 0.07698792 
0.0 0.0 0.0 0.0 0.0 0.07698792 
0.0 0.0 0.0 0.0 0.0 0.07698792 
0.0 0.0 0.0 0.0 0.0 0.07698792 
0.0 0.0 0.0 0.0 0.0 0.07698792 
0.0 0.0 0.0 0.0 0.0 0.07698792 
0.0 0.0 0.0 0.0 0.0 0.07698792 

