0.0 0.0 0.0 0.0 0.0 0.07698792 
0.0 0.0 0.0 0.0 0.0 0.07698792 
0.0 0.0 0.0 0.0 0.0 0.07698792 
0.0 0.0 0.0 0.0 0.0 0.07698792 
0.0 0.0 0.0 0.0 0.0 0.07698792 
0.0 0.0 0.0 0.0 0.0 0.07698792 
0.0 0.0 0.0 0.0 0.0 0.07698792 
0.0 0.0 0.0 0.0 0.0 0.07698792 
0.0 0.0 0.0 0.0 0.0 0.07698792 
0.0 0.0 0.0 0.0 0.0 0.07698792 
0.0 0.0 0.0 0.0 0.0 0.07698792 
0.0 0.0 0.0 0.0 0.0 0.07698792 
0.0 0.0 0.0 0.0 0.0 0.07698792 
0.0 0.0 0.0 0.0 0.0 0.07698792 
0.0 0.0 0.0 0.0 0.0 0.07698792 
0.0 0.0 0.0 0.0 0.0 0.07698792 
0.0 0.0 0.0 0.0 0.0 0.07698792 
0.0 0.0 0.0 0.0 0.0 0.07698792 
0.0 0.0 0.0 0.0 0.0 0.07698792 
0.0 0.0 0.0 0.0 0.0 0.07698792 
0.0 0.0 0.0 0.0 0.0 0.07698792 
0.0 0.0 0.0 0.0 0.0 0.07698792 
0.0 0.0 0.0 0.0 0.0 0.07698792 
0.0 0.0 0.0 0.0 0.0 0.07698792 
0.0 0.0 0.0 0.0 0.0 0.07698792 
0.0 0.0 0.0 0.0 0.0 0.07698792 
0.0 0.0 0.0 0.0 0.0 0.07698792 
0.0 0.0 0.0 0.0 0.0 0.07698792 
0.0 0.0 0.0 0.0 0.0 0.07698792 
0.0 0.0 0.0 0.0 0.0 0.07698792 
0.0 0.0 0.0 0.0 0.0 0.07698792 
0.0 0.0 0.0 0.0 0.0 0.07698792 
0.0 0.0 0.0 0.0 0.0 0.07698792 
0.0 0.0 0.0 0.0 0.0 0.07698792 
0.0 0.0 0.0 0.0 0.0 0.07698792 
0.0 0.0 0.0 0.0 0.0 0.07698792 
0.0 0.0 0.0 0.0 0.0 0.07698792 
0.0 0.0 0.0 0.0 0.0 0.07698792 
0.0 0.0 0.0 0.0 0.0 0.07698792 
0.0 0.0 0.0 0.0 0.0 0.07698792 
0.0 0.0 0.0 0.0 0.0 0.07698792 
0.0 0.0 0.0 0.0 0.0 0.07698792 
0.0 0.0 0.0 0.0 0.0 0.07698792 
0.0 0.0 0.0 0.0 0.0 0.07698792 
0.0 0.0 0.0 0.0 0.0 0.07698792 
0.0 0.0 0.0 0.0 0.0 0.07698792 
0.0 0.0 0.0 0.0 0.0 0.07698792 
0.0 0.0 0.0 0.0 0.0 0.07698792 
0.0 0.0 0.0 0.0 0.0 0.07698792 
0.0 0.0 0.0 0.0 0.0 0.07698792 
0.0 0.0 0.0 0.0 0.0 0.07698792 
0.0 0.0 0.0 0.0 0.0 0.07698792 
0.0 0.0 0.0 0.0 0.0 0.07698792 
0.0 0.0 0.0 0.0 0.0 0.07698792 
0.0 0.0 0.0 0.0 0.0 0.07698792 
0.0 0.0 0.0 0.0 0.0 0.07698792 
0.0 0.0 0.0 0.0 0.0 0.07698792 
0.0 0.0 0.0 0.0 0.0 0.07698792 
0.0 0.0 0.0 0.0 0.0 0.07698792 
0.0 0.0 0.0 0.0 0.0 0.07698792 
0.0 0.0 0.0 0.0 0.0 0.07698792 
0.0 0.0 0.0 0.0 0.0 0.07698792 
0.0 0.0 0.0 0.0 0.0 0.07698792 
0.0 0.0 0.0 0.0 0.0 0.07698792 
0.0 0.0 0.0 0.0 0.0 0.07698792 
0.0 0.0 0.0 0.0 0.0 0.07698792 
0.0 0.0 0.0 0.0 0.0 0.07698792 
0.0 0.0 0.0 0.0 0.0 0.07698792 
0.0 0.0 0.0 0.0 0.0 0.07698792 
0.0 0.0 0.0 0.0 0.0 0.07698792 
0.0 0.0 0.0 0.0 0.0 0.063412115 
0.036375657 0.0 0.044855006 0.0 0.0 0.0 
0.16253474 0.034861494 0.15233523 0.0 0.0 0.0 
0.28818586 0.14856392 0.29017174 0.0 0.0 0.0 
0.35814166 0.33039582 0.40224412 0.0 0.0 0.0 
0.32531166 0.49676475 0.45616853 0.0 0.0 0.0 
0.19130951 0.60724 0.39010704 0.0 0.0 0.0 
0.0 0.5498258 0.26721337 0.0 0.024945613 0.0 
0.0 0.37156534 0.15151674 0.0 0.07947539 0.0 
0.0 0.18223318 0.03025306 0.0 0.058365796 0.0 
0.0 0.037748348 0.0 0.0 0.0 0.03425853 
0.0 0.0 0.0 0.0 0.0 0.07698792 
0.0 0.0 0.0 0.0 0.0 0.07698792 
0.0 0.0 0.0 0.0 0.0 0.07698792 
0.0 0.0 0.0 0.0 0.0 0.07698792 
0.0 0.0 0.0 0.0 0.0 0.07698792 
0.0 0.0 0.0 0.0 0.0 0.07698792 
0.0 0.0 0.0 0.0 0.0 0.07698792 
0.0 0.0 0.0 0.0 0.0 0.07698792 
0.0 0.0 0.0 0.0 0.0 0.07698792 
0.0 0.0 0.0 0.0 0.0 0.07698792 
0.0 0.0 0.0 0.0 0.0 0.07698792 
0.0 0.0 0.0 0.0 0.0 0.07698792 
0.0 0.0 0.0 0.0 0.0 0.07698792 
0.0 0.0 0.0 0.0 0.0 0.07698792 
0.0 0.0 0.0 0.0 0.0 0.07698792 
0.0 0.0 0.0 0.0 0.0 0.07057712 
0.02039811 0.0 0.042290114 0.0 0.0 0.013928711 
0.23139375 0.0 0.17924055 0.0 0.0 0.0 
0.46090186 0.09138087 0.27213073 0.0 0.0 0.0 
0.6342944 0.23538059 0.39920992 0.0 0.0 0.0 
0.7934561 0.47974142 0.5659346 0.0 0.0 0.0 
0.7965596 0.74301654 0.75826776 0.0 0.0 0.0 
0.6489067 0.9731192 0.94049835 0.0 0.0 0.0 
0.34617946 1.1885798 1.1078523 0.0 0.26493403 0.0 
0.0 1.2877028 0.96257806 0.0 0.5435245 0.0 
0.0 0.9756613 0.72318524 0.0 0.5953384 0.0 
0.0 0.51453674 0.39398846 0.0 0.44536445 0.0 
0.0 0.17503385 0.06648578 0.0 0.19626708 0.0 
0.0 0.022598144 0.0 0.0 0.0 0.04832796 
0.0 0.0 0.0 0.0 0.0 0.07698792 
0.0 0.0 0.0 0.0 0.0 0.07698792 
0.0 0.0 0.0 0.0 0.0 0.07698792 
0.0 0.0 0.0 0.0 0.0 0.07698792 
0.0 0.0 0.0 0.0 0.0 0.07698792 
0.0 0.0 0.0 0.0 0.0 0.07698792 
0.0 0.0 0.0 0.0 0.0 0.07698792 
0.0 0.0 0.0 0.0 0.0 0.07698792 
0.0 0.0 0.0 0.0 0.0 0.07698792 
0.0 0.0 0.0 0.0 0.0 0.07698792 
0.0 0.0 0.0 0.0 0.0 0.07698792 
0.0 0.0 0.0 0.0 0.0 0.07698792 
0.0 0.0 0.0 0.0 0.0 0.07698792 
0.0 0.0 0.0 0.0 0.0 0.052098945 
0.15504745 0.0 0.1445579 0.0 0.0 0.0 
0.42066985 0.031227216 0.22059676 0.0 0.0 0.0 
0.7026701 0.053921066 0.30464995 0.0 0.0 0.0 
1.0377321 0.23574416 0.4549653 0.0 0.0 0.0 
1.0713892 0.566389 0.522142 0.0 0.0 0.0 
0.7815253 0.6994477 0.7023237 0.0 0.47715273 0.0 
0.47764707 0.75951856 0.8329929 0.04868931 0.97550017 0.0 
0.34868568 0.7837766 1.1574906 0.43438187 1.1125971 0.0 
0.30224532 1.1134853 1.5098323 0.556488 1.0260113 0.0 
0.0 1.509385 1.7604334 0.2696022 1.0801271 0.0 
0.0 1.6376392 1.5722406 0.0 1.0066408 0.0 
0.0 1.1918521 1.1736631 0.0 0.8365596 0.0 
0.0 0.44772896 0.43733686 0.0 0.5255561 0.0 
0.0 0.08461163 0.004544195 0.0 0.11380005 0.0 
0.0 0.0 0.0 0.0 0.0 0.07698792 
0.0 0.0 0.0 0.0 0.0 0.07698792 
0.0 0.0 0.0 0.0 0.0 0.07698792 
0.0 0.0 0.0 0.0 0.0 0.07698792 
0.0 0.0 0.0 0.0 0.0 0.07698792 
0.0 0.0 0.0 0.0 0.0 0.07698792 
0.0 0.0 0.0 0.0 0.0 0.07698792 
0.0 0.0 0.0 0.0 0.0 0.07698792 
0.0 0.0 0.0 0.0 0.0 0.07698792 
0.0 0.0 0.0 0.0 0.0 0.07698792 
0.0 0.0 0.0 0.0 0.0 0.07698792 
0.0 0.0 0.0 0.0 0.0 0.07698792 
0.0032869726 0.0 0.03648708 0.0 0.0 0.032866552 
0.24930397 0.0 0.15555134 0.0 0.0 0.0 
0.5839929 0.0 0.20966512 0.0 0.0 0.0 
0.98372036 0.013881019 0.3359806 0.0 0.0 0.0 
1.2556822 0.30476922 0.3400893 0.0 0.0 0.0 
0.9895553 0.6937535 0.39306787 0.0 0.5377042 0.0 
0.5362705 0.8977481 0.42792296 0.41576943 1.3760217 0.0 
0.29032296 1.1159736 0.4420309 1.0504893 1.8289342 0.476011 
0.08663078 1.2030009 0.5017895 1.5124264 1.9875821 0.9917231 
0.20391208 0.9167333 0.5447293 1.6067659 1.615824 1.1780715 
0.54172957 0.9357721 0.9612669 1.501938 1.1693352 0.88256896 
0.29414332 1.4409515 1.5121013 1.1133816 1.0168861 0.015555896 
0.0 1.9999828 2.0433753 0.7296454 1.0740634 0.0 
0.0 1.7143567 1.930528 0.099328145 1.1893588 0.0 
0.0 0.90676624 1.091699 0.0 0.7818137 0.0 
0.0 0.13204588 0.15593848 0.0 0.3078553 0.0 
0.0 0.0 0.0 0.0 0.0 0.07698792 
0.0 0.0 0.0 0.0 0.0 0.07698792 
0.0 0.0 0.0 0.0 0.0 0.07698792 
0.0 0.0 0.0 0.0 0.0 0.07698792 
0.0 0.0 0.0 0.0 0.0 0.07698792 
0.0 0.0 0.0 0.0 0.0 0.07698792 
0.0 0.0 0.0 0.0 0.0 0.07698792 
0.0 0.0 0.0 0.0 0.0 0.07698792 
0.0 0.0 0.0 0.0 0.0 0.07698792 
0.0 0.0 0.0 0.0 0.0 0.07698792 
0.0 0.0 0.0 0.0 0.0 0.07698792 
0.0 0.0 0.0 0.0 0.0 0.07095423 
0.15576513 0.0 0.068849884 0.0 0.0 0.0074747056 
0.6811606 0.0 0.13336578 0.0 0.0 0.0 
1.1940074 0.0 0.15551665 0.0 0.0 0.0 
1.3291457 0.3362626 0.202373 0.0 0.048153657 0.0 
0.9108447 0.83799237 0.23823836 0.26645085 1.1294255 0.0 
0.452644 1.1614857 0.1668616 0.71112275 2.1007187 0.41971377 
0.05531192 1.326807 0.04853642 1.0400393 2.484776 0.9689436 
0.0 0.9751035 0.0 1.055472 2.4994874 1.4461205 
0.13716343 0.6893611 0.0 0.77500886 2.14575 1.60549 
0.81461024 0.17196742 0.0 0.3773767 1.5542392 1.6483665 
1.2388327 0.117877305 0.0 0.16646054 1.1739159 1.388742 
0.7922408 0.80510736 0.0 0.123548746 1.2654363 0.44405016 
0.0 1.726052 1.2458944 0.2796648 1.510996 0.0 
0.0 1.6844124 2.0662425 0.3270627 1.5438491 0.0 
0.0 1.0181258 1.5896585 0.2000047 0.9843046 0.0 
0.0 0.2359559 0.4166346 0.01649898 0.32453194 0.0 
0.0 0.0 0.0 0.0 0.0 0.07698792 
0.0 0.0 0.0 0.0 0.0 0.07698792 
0.0 0.0 0.0 0.0 0.0 0.07698792 
0.0 0.0 0.0 0.0 0.0 0.07698792 
0.0 0.0 0.0 0.0 0.0 0.07698792 
0.0 0.0 0.0 0.0 0.0 0.07698792 
0.0 0.0 0.0 0.0 0.0 0.07698792 
0.0 0.0 0.0 0.0 0.0 0.07698792 
0.0 0.0 0.0 0.0 0.0 0.07698792 
0.0 0.0 0.0 0.0 0.0 0.07698792 
0.0 0.0 0.0 0.0 0.0 0.07661082 
0.035617 0.0 0.056299597 0.0 0.0 0.02330178 
0.53003937 0.0 0.03295114 0.0 0.0 0.0 
1.1946695 0.0 0.04441417 0.0 0.0 0.0 
1.5586112 0.123111576 0.0 0.093097046 0.13565587 0.0 
1.1439211 0.92740446 0.0 0.39632973 1.3336169 0.10254654 
0.38070673 1.3980029 0.0 0.5813862 2.4544644 0.5497581 
0.0 1.406993 0.0 0.7049115 2.6862376 1.0596418 
0.0 0.9438714 0.0 0.46162271 2.3806083 1.3743696 
0.0 0.4399421 0.0 0.050481066 1.7462968 1.3856208 
0.32620454 0.0 0.0 0.0 1.0778246 1.089344 
1.200335 0.0 0.0 0.0 0.7989869 1.0329108 
1.7662003 0.0 0.0 0.0 1.1850739 0.95267427 
0.9023223 0.7525067 0.0 0.0 1.7292548 0.4040588 
0.0 1.4542228 0.18756154 0.0 2.079903 0.050514758 
0.0 1.416837 1.5968527 0.32378644 1.7387458 0.12487483 
0.0 0.65371567 1.5290464 0.30196267 0.9814519 0.20308533 
0.0 0.24175581 0.5789039 0.19151686 0.2009549 0.08505414 
0.0 0.0 0.0 0.0 0.0 0.07698792 
0.0 0.0 0.0 0.0 0.0 0.07698792 
0.0 0.0 0.0 0.0 0.0 0.07698792 
0.0 0.0 0.0 0.0 0.0 0.07698792 
0.0 0.0 0.0 0.0 0.0 0.07698792 
0.0 0.0 0.0 0.0 0.0 0.07698792 
0.0 0.0 0.0 0.0 0.0 0.07698792 
0.0 0.0 0.0 0.0 0.0 0.07698792 
0.0 0.0 0.0 0.0 0.0 0.07698792 
0.0 0.0 0.0 0.0 0.0 0.07698792 
0.0 0.0 0.0 0.0 0.0 0.07384496 
0.20152318 0.0 0.05735071 0.0 0.0 0.032700345 
1.0381808 0.0 0.0 0.0 0.0 0.14953965 
1.7274466 0.0 0.0 0.0 0.0 0.22915146 
1.6484413 0.68035287 0.0 0.10858109 1.1579288 0.14789338 
0.59561956 1.4935994 0.0 0.13185386 2.358413 0.34522197 
0.0 1.5881559 0.0 0.1412186 2.6933725 0.66138715 
0.0 0.94306225 0.0 0.0 2.3277752 0.99631846 
0.0 0.20786315 0.0 0.0 1.3923124 0.8845099 
0.0008198917 0.0 0.0 0.0 0.5904178 0.5211932 
0.6512017 0.0 0.0 0.0 0.09670603 0.2463488 
1.5435629 0.0 0.0 0.0 0.38788244 0.2356839 
1.7964568 0.16285774 0.0 0.0 1.3882362 0.2739209 
0.50420815 1.2134113 0.0 0.0 2.2504716 0.18643725 
0.0 1.5433891 0.045381553 0.0 2.2329195 0.20568526 
0.0 0.97535187 1.1478257 0.15067133 1.5654382 0.38823634 
0.0 0.3672171 1.1090035 0.22286114 0.6833342 0.3465084 
0.0 0.06491675 0.45572126 0.108268015 0.102632985 0.12518081 
0.0 0.0 0.0 0.0 0.0 0.07698792 
0.0 0.0 0.0 0.0 0.0 0.07698792 
0.0 0.0 0.0 0.0 0.0 0.07698792 
0.0 0.0 0.0 0.0 0.0 0.07698792 
0.0 0.0 0.0 0.0 0.0 0.07698792 
0.0 0.0 0.0 0.0 0.0 0.07698792 
0.0 0.0 0.0 0.0 0.0 0.07698792 
0.0 0.0 0.0 0.0 0.0 0.07698792 
0.0 0.0 0.0 0.0 0.0 0.07698792 
0.0 0.0 0.0 0.0 0.0 0.07698792 
0.0 0.0 0.0 0.0 0.0 0.080296025 
0.34586692 0.0 0.0 0.03746663 0.0 0.26771748 
1.3790741 0.0 0.0 0.21592945 0.0 0.59356374 
2.0864153 0.0 0.0 0.23239556 0.7096313 0.6592736 
1.4281986 1.0274074 0.0 0.18891916 1.6686918 0.3365198 
0.085277766 1.7252424 0.0 0.0 2.51997 0.07612267 
0.0 1.5087469 0.47553766 0.0 2.289891 0.17870617 
0.0 0.5949462 0.5701658 0.0 1.4337558 0.20660305 
0.0 0.0 0.3815058 0.0 0.40760556 0.13605742 
0.41540968 0.0 0.22256786 0.0 0.0 0.0 
1.2771733 0.0 0.10643942 0.0 0.0 0.0 
1.7771811 0.19973835 0.0 0.0 0.67238796 0.06408936 
1.0876882 1.1174521 0.0 0.098325774 1.9356468 0.2739156 
0.0 1.5467986 0.0 0.110171035 2.498214 0.38413435 
0.0 1.4013633 0.4493959 0.2273411 1.9191145 0.53108156 
0.0 0.49497893 0.898016 0.09046847 1.1098129 0.5005537 
0.0 0.110028364 0.68543255 0.077740245 0.36855236 0.2994678 
0.0 0.0 0.18443188 0.0 0.03630956 0.10825977 
0.0 0.0 0.0 0.0 0.0 0.07698792 
0.0 0.0 0.0 0.0 0.0 0.07698792 
0.0 0.0 0.0 0.0 0.0 0.07698792 
0.0 0.0 0.0 0.0 0.0 0.07698792 
0.0 0.0 0.0 0.0 0.0 0.07698792 
0.0 0.0 0.0 0.0 0.0 0.07698792 
0.0 0.0 0.0 0.0 0.0 0.07698792 
0.0 0.0 0.0 0.0 0.0 0.07698792 
0.0 0.0 0.0 0.0 0.0 0.07698792 
0.0 0.0 0.0 0.0 0.0 0.07698792 
0.0 0.0 0.0 0.0014347113 0.0 0.087590426 
0.44806933 0.0 0.0 0.20937973 0.0 0.5329869 
1.410955 0.0 0.0 0.33088732 0.34142676 1.0493739 
1.9906776 0.0 0.0 0.474454 0.9945839 1.0552781 
1.3609841 0.8189168 0.0 0.240156 1.5699737 0.56266284 
0.0 1.8759298 0.49324137 0.0 1.9289283 0.0 
0.0 1.5430133 1.5211109 0.0 1.6637985 0.0 
0.0 0.8423513 1.5260191 0.0 0.84680766 0.0 
0.13472988 0.018946566 0.7017065 0.0 0.061292414 0.0 
1.1902173 0.0 0.23323226 0.0 0.0 0.0 
1.6364644 0.28100047 0.0 0.0 0.51347303 0.0 
1.2156942 0.81681216 0.0 0.052459642 1.8708321 0.27207637 
0.16074048 1.361681 0.0 0.21293172 2.602451 0.5102431 
0.0 1.3300071 0.0 0.30621266 2.2812307 0.6410504 
0.0 0.64102393 0.6733674 0.20695364 1.4053899 0.63720095 
0.0 0.2045835 0.7278765 0.0919038 0.5895842 0.41854087 
0.0 0.0 0.32961577 0.0 0.15731041 0.17719403 
0.0 0.0 0.0011832826 0.0 0.0 0.08474257 
0.0 0.0 0.0 0.0 0.0 0.07698792 
0.0 0.0 0.0 0.0 0.0 0.07698792 
0.0 0.0 0.0 0.0 0.0 0.07698792 
0.0 0.0 0.0 0.0 0.0 0.07698792 
0.0 0.0 0.0 0.0 0.0 0.07698792 
0.0 0.0 0.0 0.0 0.0 0.07698792 
0.0 0.0 0.0 0.0 0.0 0.07698792 
0.0 0.0 0.0 0.0 0.0 0.07698792 
0.0 0.0 0.0 0.0 0.0 0.07698792 
0.0 0.0 0.0 0.0 0.0 0.07698792 
0.0 0.0 0.0 0.002735396 0.0 0.08804719 
0.45336068 0.0 0.0 0.11369387 0.25552607 0.59000444 
1.3032095 0.0 0.0 0.14006701 0.6594455 1.2978466 
1.8056288 0.0 0.0 0.23755088 1.0026438 1.3812816 
1.4904468 0.309127 0.0 0.21542212 1.2512017 0.8631123 
0.11381683 1.5362551 0.9156992 0.20750579 1.3775741 0.0 
0.0 1.6322806 2.100442 0.0 1.2621865 0.0 
0.0 1.0936419 2.1410306 0.0 0.68446946 0.0 
0.7085394 0.46288553 0.90853536 0.0 0.30485475 0.0 
1.3075855 0.5429065 0.09450296 0.0 0.5772843 0.0 
1.0024719 0.83492625 0.0 0.124437526 1.9143059 0.27086124 
0.24696362 1.3323954 0.0 0.42640233 2.5983624 0.68334246 
0.0 1.2849622 0.0 0.4082351 2.3628795 0.86917007 
0.0 0.8105076 0.34475517 0.26074898 1.5176603 0.7933795 
0.0 0.25838622 0.6556226 0.097649485 0.6642319 0.5449978 
0.0 0.009248375 0.4910565 0.020409174 0.22485353 0.26579747 
0.0 0.0 0.090581186 0.0 0.014853116 0.102933615 
0.0 0.0 0.0 0.0 0.0 0.07759672 
0.0 0.0 0.0 0.0 0.0 0.07698792 
0.0 0.0 0.0 0.0 0.0 0.07698792 
0.0 0.0 0.0 0.0 0.0 0.07698792 
0.0 0.0 0.0 0.0 0.0 0.07698792 
0.0 0.0 0.0 0.0 0.0 0.07698792 
0.0 0.0 0.0 0.0 0.0 0.07698792 
0.0 0.0 0.0 0.0 0.0 0.07698792 
0.0 0.0 0.0 0.0 0.0 0.07698792 
0.0 0.0 0.0 0.0 0.0 0.07698792 
0.0 0.0 0.0 0.0 0.0 0.07698792 
0.0 0.0 0.0 0.0 0.0 0.082557805 
0.30917537 0.0 0.0 0.0 0.3209024 0.3874015 
1.1550169 0.0 0.0 0.0 0.60279953 1.0311744 
1.7904761 0.0 0.0 0.0 0.8231853 1.2395942 
1.6519952 0.0 0.0 0.0 1.0419631 0.8938596 
0.64056015 1.033076 0.23409468 0.0 1.1532876 0.019856535 
0.039679036 1.4886421 1.9322368 0.029867258 1.2161857 0.0 
0.23733214 1.2408161 2.151724 0.0 1.1161841 0.0 
0.55299884 1.1375538 1.0972149 0.17856789 1.3591676 0.0 
0.6340927 0.98117477 0.009250991 0.31150252 2.1758382 0.2539237 
0.13698174 1.3536028 0.0 0.59280115 2.6355503 0.7519193 
0.0 1.0896798 0.0 0.39194497 2.4618034 0.9801938 
0.0 0.72407556 0.0 0.22526121 1.5469031 0.92099 
0.0 0.19246265 0.36975563 0.0 0.7459628 0.5805997 
0.0 0.0 0.32499605 0.0 0.31127992 0.33753434 
0.0 0.0 0.13542041 0.0 0.0899436 0.1347367 
0.0 0.0 0.0 0.0 0.0 0.08041241 
0.0 0.0 0.0 0.0 0.0 0.07698792 
0.0 0.0 0.0 0.0 0.0 0.07698792 
0.0 0.0 0.0 0.0 0.0 0.07698792 
0.0 0.0 0.0 0.0 0.0 0.07698792 
0.0 0.0 0.0 0.0 0.0 0.07698792 
0.0 0.0 0.0 0.0 0.0 0.07698792 
0.0 0.0 0.0 0.0 0.0 0.07698792 
0.0 0.0 0.0 0.0 0.0 0.07698792 
0.0 0.0 0.0 0.0 0.0 0.07698792 
0.0 0.0 0.0 0.0 0.0 0.07698792 
0.0 0.0 0.0 0.0 0.0 0.07434818 
0.015109591 0.0 0.044828683 0.0 0.0 0.0222736 
0.35995257 0.0 0.06510476 0.0 0.0 0.0 
1.1801865 0.0 0.0 0.0 0.103314996 0.23841369 
1.9355383 0.0 0.0 0.0 0.56195104 0.53664696 
1.9639235 0.16987291 0.0 0.0 1.0966569 0.40363014 
1.156599 0.9073793 0.0 0.0 1.4167297 0.10219333 
0.3466543 1.2905254 1.1546241 0.17869118 1.6887301 0.0 
0.31081128 1.4370372 1.5151843 0.5791167 2.121756 0.15037265 
0.08850722 1.5860617 0.9276239 0.72584236 2.576337 0.38326132 
0.0 1.5724736 0.0 0.64568985 2.6695805 0.7815154 
0.0 1.143836 0.0 0.36408854 2.3893788 1.0678167 
0.0 0.6135882 0.0 0.15011694 1.4398366 0.89514637 
0.0 0.14500442 0.20991603 0.0 0.64401245 0.5934755 
0.0 0.0 0.30305102 0.0 0.30946624 0.33501184 
0.0 0.0 0.12140206 0.0 0.09312655 0.1384303 
0.0 0.0 0.0 0.0 0.0 0.081021205 
0.0 0.0 0.0 0.0 0.0 0.07698792 
0.0 0.0 0.0 0.0 0.0 0.07698792 
0.0 0.0 0.0 0.0 0.0 0.07698792 
0.0 0.0 0.0 0.0 0.0 0.07698792 
0.0 0.0 0.0 0.0 0.0 0.07698792 
0.0 0.0 0.0 0.0 0.0 0.07698792 
0.0 0.0 0.0 0.0 0.0 0.07698792 
0.0 0.0 0.0 0.0 0.0 0.07698792 
0.0 0.0 0.0 0.0 0.0 0.07698792 
0.0 0.0 0.0 0.0 0.0 0.056247108 
0.09360094 0.0 0.098815985 0.0 0.0 0.0 
0.23126745 0.081649445 0.18588835 0.0 0.0 0.0 
0.38105774 0.11484947 0.27766272 0.0 0.0 0.0 
0.7082536 0.15157318 0.35913044 0.0 0.0 0.0 
1.452064 0.0 0.06825984 0.0 0.00043303147 0.0 
1.9777792 0.23416983 0.0 0.0 0.76314574 0.0 
1.6665511 0.5734656 0.0 0.0 1.6223624 0.11877673 
1.1245742 1.0505607 0.0 0.0 1.9992954 0.3282164 
0.7172259 1.2546785 0.40826172 0.061259415 2.38962 0.48466498 
0.3240264 1.7684134 0.73015016 0.32465264 2.8418229 0.5216766 
0.0 1.7984718 0.49573958 0.16947612 2.8928475 0.4484977 
0.0 1.3655484 0.16247967 0.0 2.4614718 0.6563865 
0.0 0.5808179 0.07371599 0.0 1.5705391 0.75398415 
0.0 0.056801595 0.13891685 0.0 0.5973337 0.5211356 
0.0 0.0 0.13532144 0.0 0.27849331 0.31522512 
0.0 0.0 0.11294327 0.0 0.090950936 0.13503262 
0.0 0.0 0.0 0.0 0.0 0.080792904 
0.0 0.0 0.0 0.0 0.0 0.07698792 
0.0 0.0 0.0 0.0 0.0 0.07698792 
0.0 0.0 0.0 0.0 0.0 0.07698792 
0.0 0.0 0.0 0.0 0.0 0.07698792 
0.0 0.0 0.0 0.0 0.0 0.07698792 
0.0 0.0 0.0 0.0 0.0 0.07698792 
0.0 0.0 0.0 0.0 0.0 0.07698792 
0.0 0.0 0.0 0.0 0.0 0.07698792 
0.0 0.0 0.0 0.0 0.0 0.07698792 
0.0 0.0 0.0 0.0 0.0 0.06567475 
0.14446062 0.0 0.11777554 0.0 0.0 0.0 
0.5056636 0.0 0.2007209 0.0 0.0 0.0 
0.72296345 0.1304707 0.35886717 0.0 0.0 0.0 
0.9816839 0.33484182 0.48835737 0.0 0.0 0.0 
1.0814536 0.49254838 0.6152553 0.0 0.0 0.0 
1.1690688 0.56093246 0.3210631 0.0 0.7820857 0.0 
1.1218512 0.72166246 0.0 0.066995606 1.831124 0.11072248 
1.0265825 0.818228 0.0 0.35457334 2.3348398 0.67439264 
1.155626 0.89594215 0.0 0.43447012 2.4539318 1.0361369 
0.9255042 1.0199969 0.0 0.3323926 2.533094 0.9927409 
0.19886488 1.7277362 0.3003147 0.04001185 2.7740333 0.43488842 
0.0 1.7451504 0.5268094 0.0 2.6761482 0.16011515 
0.0 1.1299648 0.8335564 0.0 1.7913378 0.21438274 
0.0 0.19694212 0.5011162 0.0 1.0075431 0.2825417 
0.0 0.0 0.17549238 0.0 0.22478147 0.24960057 
0.0 0.0 0.02254007 0.0 0.050111223 0.11753818 
0.0 0.0 0.0 0.0 0.0 0.08026021 
0.0 0.0 0.0 0.0 0.0 0.07698792 
0.0 0.0 0.0 0.0 0.0 0.07698792 
0.0 0.0 0.0 0.0 0.0 0.07698792 
0.0 0.0 0.0 0.0 0.0 0.07698792 
0.0 0.0 0.0 0.0 0.0 0.07698792 
0.0 0.0 0.0 0.0 0.0 0.07698792 
0.0 0.0 0.0 0.0 0.0 0.07698792 
0.0 0.0 0.0 0.0 0.0 0.07698792 
0.0 0.0 0.0 0.0 0.0 0.07698792 
0.0 0.0 0.0 0.0 0.0 0.07698792 
0.032381177 0.0 0.036066383 0.0 0.0 0.03436265 
0.47325724 0.0 0.06798009 0.0 0.0 0.0 
1.0366805 0.0 0.16543835 0.0 0.0 0.0 
1.2868755 0.1354096 0.3193074 0.0 0.0 0.0 
1.085356 0.7349652 0.5430261 0.0 0.40270296 0.0 
0.68919706 0.956393 0.5499648 0.30102456 1.3386261 0.0 
0.60250723 1.118292 0.27132666 0.70981973 2.179087 0.4352855 
0.37668517 1.2113281 0.0 0.9596694 2.6531167 1.0706863 
0.46512884 0.6531008 0.0 0.99036497 2.3564353 1.5263221 
1.0546534 0.36837098 0.0 0.72607905 2.1294832 1.591799 
1.2746973 0.563491 0.0 0.36380276 2.0818684 1.1359906 
0.20632231 1.712817 0.3925168 0.08284244 2.2590036 0.17264877 
0.0 1.7509357 1.1510187 0.0 2.2143366 0.0 
0.0 1.0870507 1.5221847 0.0 1.4751526 0.0 
0.0 0.24286383 0.8066946 0.0 0.79927397 0.03188409 
0.0 0.0 0.043713547 0.0 0.02785306 0.09709393 
0.0 0.0 0.0 0.0 0.0 0.07774892 
0.0 0.0 0.0 0.0 0.0 0.07698792 
0.0 0.0 0.0 0.0 0.0 0.07698792 
0.0 0.0 0.0 0.0 0.0 0.07698792 
0.0 0.0 0.0 0.0 0.0 0.07698792 
0.0 0.0 0.0 0.0 0.0 0.07698792 
0.0 0.0 0.0 0.0 0.0 0.07698792 
0.0 0.0 0.0 0.0 0.0 0.07698792 
0.0 0.0 0.0 0.0 0.0 0.07698792 
0.0 0.0 0.0 0.0 0.0 0.07698792 
0.0 0.0 0.0 0.0 0.0 0.07698792 
0.0 0.0 0.0 0.0 0.0 0.07698792 
0.16286497 0.0 0.009898767 0.0 0.0 0.072457395 
0.935123 0.0 0.0 0.0 0.0 0.17180905 
1.5283644 0.0 0.0 0.102808975 0.0 0.10428964 
1.388747 0.5655652 0.0 0.3918052 0.56083477 0.0 
0.74599934 1.2096325 0.26207042 0.6380188 1.7595395 0.23288327 
0.33198696 1.4262639 0.2686312 0.8815951 2.618223 0.7867622 
0.0 1.3609812 0.0 0.9595117 2.7324467 1.199578 
0.0 0.86182684 0.0 0.66446644 2.4570954 1.434844 
0.5949925 0.0020392304 0.0 0.37320197 1.7071649 1.8402982 
1.5002258 0.0 0.0 0.1017907 1.4260979 1.669044 
1.5050433 0.24016306 0.0 0.017966155 1.6274418 1.0226026 
0.12407741 1.6665791 0.1955516 0.053004872 1.9250306 0.11168863 
0.0 1.861437 1.5571184 0.0 2.0197048 0.0 
0.0 1.1995168 1.9160469 0.017496657 1.3435414 0.0 
0.0 0.36229464 0.9961742 0.0 0.65131915 0.0 
0.0 0.0 0.0 0.0 0.0 0.07744452 
0.0 0.0 0.0 0.0 0.0 0.07698792 
0.0 0.0 0.0 0.0 0.0 0.07698792 
0.0 0.0 0.0 0.0 0.0 0.07698792 
0.0 0.0 0.0 0.0 0.0 0.07698792 
0.0 0.0 0.0 0.0 0.0 0.07698792 
0.0 0.0 0.0 0.0 0.0 0.07698792 
0.0 0.0 0.0 0.0 0.0 0.07698792 
0.0 0.0 0.0 0.0 0.0 0.07698792 
0.0 0.0 0.0 0.0 0.0 0.07698792 
0.0 0.0 0.0 0.0 0.0 0.07698792 
0.0 0.0 0.0 0.0 0.0 0.07698792 
0.0 0.0 0.0 0.0 0.0 0.07698792 
0.33793953 0.0 0.0 0.009955456 0.0 0.22812304 
1.3379054 0.0 0.0 0.19737706 0.0 0.5206542 
1.9349077 0.0 0.0 0.21637875 0.52912164 0.56061816 
1.4877796 0.9367953 0.0 0.35708225 1.523395 0.4011996 
0.38208774 1.6414694 0.0 0.21502323 2.5458274 0.46190625 
0.0 1.5997907 0.047695003 0.19735058 2.7966988 0.8220204 
0.0 0.8960238 0.0 0.0 2.384979 1.1272273 
0.0 0.25285932 0.0 0.0 1.4086281 1.0386088 
0.90690124 0.0 0.0 0.0 0.83927906 1.2763317 
1.7596698 0.0 0.0 0.0 1.0721393 1.2487204 
1.608834 0.10768376 0.0 0.0 1.6675756 0.7385725 
0.10809429 1.5207082 0.0 0.0 2.0593812 0.16953444 
0.0 1.7288402 1.4262507 0.08743841 2.034084 0.0 
0.0 1.0327418 1.7742107 0.1202628 1.3458923 0.17111593 
0.0 0.26273924 0.98959506 0.07741523 0.5603922 0.027311537 
0.0 0.0 0.0 0.0 0.0 0.07698792 
0.0 0.0 0.0 0.0 0.0 0.07698792 
0.0 0.0 0.0 0.0 0.0 0.07698792 
0.0 0.0 0.0 0.0 0.0 0.07698792 
0.0 0.0 0.0 0.0 0.0 0.07698792 
0.0 0.0 0.0 0.0 0.0 0.07698792 
0.0 0.0 0.0 0.0 0.0 0.07698792 
0.0 0.0 0.0 0.0 0.0 0.07698792 
0.0 0.0 0.0 0.0 0.0 0.07698792 
0.0 0.0 0.0 0.0 0.0 0.07698792 
0.0 0.0 0.0 0.0 0.0 0.07698792 
0.0 0.0 0.0 0.0 0.0 0.07698792 
0.0 0.0 0.0 0.0 0.0 0.07698792 
0.42752606 0.0 0.0 0.14926472 0.0 0.47549275 
1.4896109 0.0 0.0 0.24304464 0.3038359 1.0203062 
2.0632086 0.0 0.0 0.32682678 0.9653066 0.9895919 
1.4415884 0.9053263 0.0 0.17723905 1.676673 0.61765033 
0.2680816 1.7243748 0.06258026 0.0 2.321082 0.13876587 
0.0 1.5406992 0.6862793 0.0 2.220535 0.0 
0.0 0.76910484 0.58763504 0.0 1.4136401 0.0 
0.0 0.097098194 0.270416 0.0 0.48730698 0.0 
1.2183769 0.0 0.0 0.0 0.42176917 0.25001052 
2.0445256 0.0 0.0 0.0 0.9164953 0.47151116 
1.5338726 0.7587747 0.0 0.0 1.7773141 0.2628709 
0.0 1.7343229 0.0 0.0 2.2109542 0.106915504 
0.0 1.552715 1.3784057 0.10625182 1.942151 0.0 
0.0 0.742692 1.5166621 0.11093719 1.2265037 0.30015898 
0.0 0.20359457 0.86332655 0.1873993 0.32910642 0.10667405 
0.0 0.0 0.0 0.0 0.0 0.07698792 
0.0 0.0 0.0 0.0 0.0 0.07698792 
0.0 0.0 0.0 0.0 0.0 0.07698792 
0.0 0.0 0.0 0.0 0.0 0.07698792 
0.0 0.0 0.0 0.0 0.0 0.07698792 
0.0 0.0 0.0 0.0 0.0 0.07698792 
0.0 0.0 0.0 0.0 0.0 0.07698792 
0.0 0.0 0.0 0.0 0.0 0.07698792 
0.0 0.0 0.0 0.0 0.0 0.07698792 
0.0 0.0 0.0 0.0 0.0 0.07698792 
0.0 0.0 0.0 0.0 0.0 0.07698792 
0.0 0.0 0.0 0.0 0.0 0.07698792 
0.0 0.0 0.0 0.0 0.0 0.07698792 
0.45676488 0.0 0.0 0.11620559 0.21356814 0.574828 
1.2840929 0.0 0.0 0.2321936 0.6418347 1.2512059 
1.7192914 0.0 0.0 0.37641785 1.088794 1.3511488 
1.4719362 0.26932934 0.0 0.22873098 1.4662637 0.9199625 
0.37334806 1.2882111 0.52656037 0.10212678 1.4736373 0.073442236 
0.0 1.4576613 1.7248592 0.0 1.3627785 0.0 
0.0 1.2779514 1.7895747 0.0 0.86312115 0.0 
0.23076504 0.5547264 1.1416451 0.0 0.40181974 0.0 
1.4153905 0.0935964 0.154955 0.0 0.6743731 0.0 
1.8485801 0.5124669 0.0 0.0 1.3568263 0.098773055 
0.8324998 1.2791604 0.0 0.0 2.29925 0.13504675 
0.0 1.7657855 0.0 0.0 2.3680794 0.15366015 
0.0 1.3016465 1.3092436 0.046267807 1.7328745 0.22311297 
0.0 0.437813 1.1899744 0.025661256 0.9781043 0.31185937 
0.0 0.0563509 0.57675403 0.106291 0.15641394 0.13447696 
0.0 0.0 0.0 0.0 0.0 0.07698792 
0.0 0.0 0.0 0.0 0.0 0.07698792 
0.0 0.0 0.0 0.0 0.0 0.07698792 
0.0 0.0 0.0 0.0 0.0 0.07698792 
0.0 0.0 0.0 0.0 0.0 0.07698792 
0.0 0.0 0.0 0.0 0.0 0.07698792 
0.0 0.0 0.0 0.0 0.0 0.07698792 
0.0 0.0 0.0 0.0 0.0 0.07698792 
0.0 0.0 0.0 0.0 0.0 0.07698792 
0.0 0.0 0.0 0.0 0.0 0.07698792 
0.0 0.0 0.0 0.0 0.0 0.07698792 
0.0 0.0 0.0 0.0 0.0 0.07698792 
0.0 0.0 0.0 0.0 0.0 0.07698792 
0.31788707 0.0 0.0 0.006401631 0.27329633 0.442079 
1.0063112 0.0 0.0 0.058002677 0.7946478 1.1913619 
1.3096299 0.0 0.0 0.19838025 1.0745391 1.5653253 
1.1857753 0.0 0.0 0.49815634 1.1847796 1.4511619 
0.5608571 0.3632555 0.0 0.8501663 1.2044272 0.92237085 
0.08995274 0.99916035 1.703835 0.93356425 1.121533 0.16052467 
0.08456667 1.0674664 2.1471758 0.5619562 1.0129535 0.0 
0.5849839 0.97948587 1.5348942 0.20797354 0.9541889 0.0 
1.1052036 0.82359284 0.4747134 0.04449066 1.5640038 0.0 
0.9781515 0.981546 0.0 0.18063635 2.370588 0.39576462 
0.050101735 1.4715232 0.0 0.24783197 2.6945145 0.47964448 
0.0 1.4684361 0.30165192 0.36538315 2.1885695 0.4756955 
0.0 0.7448889 1.1782328 0.23916802 1.3836759 0.52282095 
0.0 0.2354965 0.92929286 0.11364241 0.61954516 0.28765708 
0.0 0.0 0.23267835 0.0 0.067775235 0.110383704 
0.0 0.0 0.0 0.0 0.0 0.07698792 
0.0 0.0 0.0 0.0 0.0 0.07698792 
0.0 0.0 0.0 0.0 0.0 0.07698792 
0.0 0.0 0.0 0.0 0.0 0.07698792 
0.0 0.0 0.0 0.0 0.0 0.07698792 
0.0 0.0 0.0 0.0 0.0 0.07698792 
0.0 0.0 0.0 0.0 0.0 0.07698792 
0.0 0.0 0.0 0.0 0.0 0.07698792 
0.0 0.0 0.0 0.0 0.0 0.07698792 
0.0 0.0 0.0 0.0 0.0 0.07698792 
0.0 0.0 0.0 0.0 0.0 0.07698792 
0.0 0.0 0.0 0.0 0.0 0.07698792 
0.0 0.0 0.0 0.0 0.0 0.07698792 
0.1330786 0.0 0.0 0.0 0.21489657 0.2326227 
0.6270792 0.0 0.0 0.0 0.6209391 0.7395065 
1.0304029 0.0 0.0 0.0 1.075114 1.3374012 
0.98860043 0.0 0.0 0.15696909 1.2189047 1.6300178 
0.6696115 0.0 0.0 0.6673413 1.3473802 1.6493108 
0.29574442 0.24441645 0.0 1.2806637 1.3647529 1.4857435 
0.2925954 0.6024545 0.889621 1.7790679 1.3306632 1.2539763 
0.5508746 0.7703552 0.8374361 1.823441 1.7069986 1.2527347 
0.57697624 1.0551153 0.2869251 1.6421716 2.289435 1.3634038 
0.20906591 1.1460572 0.0 1.2543064 2.6809235 1.3920381 
0.0 1.2570624 0.0 0.82562417 2.3269417 1.0781233 
0.0 0.8449859 0.51946765 0.5023492 1.5189205 0.73031837 
0.0 0.35865557 0.95835364 0.2796235 0.7587109 0.56889915 
0.0 0.12443499 0.71495265 0.15390107 0.24316351 0.21627168 
0.0 0.0 0.02622848 0.0 0.0 0.08691978 
0.0 0.0 0.0 0.0 0.0 0.07698792 
0.0 0.0 0.0 0.0 0.0 0.07698792 
0.0 0.0 0.0 0.0 0.0 0.07698792 
0.0 0.0 0.0 0.0 0.0 0.07698792 
0.0 0.0 0.0 0.0 0.0 0.07698792 
0.0 0.0 0.0 0.0 0.0 0.07698792 
0.0 0.0 0.0 0.0 0.0 0.07698792 
0.0 0.0 0.0 0.0 0.0 0.07698792 
0.0 0.0 0.0 0.0 0.0 0.07698792 
0.0 0.0 0.0 0.0 0.0 0.07698792 
0.0 0.0 0.0 0.0 0.0 0.07698792 
0.0 0.0 0.0 0.0 0.0 0.07698792 
0.0 0.0 0.0 0.0 0.0 0.07698792 
0.0 0.0 0.0 0.0 0.0 0.09926746 
0.23839971 0.0 0.0 0.0 0.3353874 0.32261047 
0.62303257 0.0 0.0 0.0 0.70904714 0.76202494 
0.8403043 0.0 0.0 0.0 1.0992974 1.2401121 
0.79296845 0.0 0.0 0.0 1.3789426 1.5889583 
0.57119274 0.0 0.0 0.1927957 1.5290118 1.7760074 
0.43720168 0.0 0.0 0.6694126 1.7714758 1.8976889 
0.40588516 0.17854425 0.0 1.0013994 2.0744507 1.8709185 
0.21271768 0.497969 0.0 1.0194083 2.1609237 1.7356665 
0.0 0.68971664 0.0 0.6841246 2.05527 1.5511098 
0.0 0.648987 0.0 0.30684832 1.3918391 1.1391304 
0.0 0.27301094 0.26072997 0.019694675 0.7126972 0.66697156 
0.0 0.0304972 0.45729637 0.0 0.33829018 0.42302686 
0.0 0.0 0.33294335 0.0 0.09675631 0.14626813 
0.0 0.0 0.0 0.0 0.0 0.079485 
0.0 0.0 0.0 0.0 0.0 0.07698792 
0.0 0.0 0.0 0.0 0.0 0.07698792 
0.0 0.0 0.0 0.0 0.0 0.07698792 
0.0 0.0 0.0 0.0 0.0 0.07698792 
0.0 0.0 0.0 0.0 0.0 0.07698792 
0.0 0.0 0.0 0.0 0.0 0.07698792 
0.0 0.0 0.0 0.0 0.0 0.07698792 
0.0 0.0 0.0 0.0 0.0 0.07698792 
0.0 0.0 0.0 0.0 0.0 0.07698792 
0.0 0.0 0.0 0.0 0.0 0.07698792 
0.0 0.0 0.0 0.0 0.0 0.07698792 
0.0 0.0 0.0 0.0 0.0 0.07698792 
0.0 0.0 0.0 0.0 0.0 0.07698792 
0.0 0.0 0.0 0.0 0.0 0.07698792 
0.0 0.0 0.0 0.0 0.038288493 0.1190715 
0.2071943 0.0 0.0 0.0 0.33742464 0.28198737 
0.4484129 0.0 0.0 0.0 0.62602943 0.54295105 
0.53202456 0.0 0.0 0.0 0.90163255 0.81330615 
0.5564174 0.0 0.0 0.0 1.1614984 1.1643102 
0.51418334 0.0 0.0 0.0 1.398124 1.4551873 
0.3276209 0.0 0.0 0.0 1.4620185 1.5156925 
0.124079525 0.0 0.0 0.0 1.3663831 1.3636115 
0.0 0.0 0.0 0.0 1.0486356 1.0055165 
0.0 0.0 0.0 0.0 0.6087243 0.6270407 
0.0 0.0 0.0045194216 0.0 0.3399438 0.3593667 
0.0 0.0 0.06933939 0.0 0.15968022 0.19683105 
0.0 0.0 0.023276761 0.0 0.01229151 0.090801165 
0.0 0.0 0.0 0.0 0.0 0.07736842 
0.0 0.0 0.0 0.0 0.0 0.07698792 
0.0 0.0 0.0 0.0 0.0 0.07698792 
0.0 0.0 0.0 0.0 0.0 0.07698792 
0.0 0.0 0.0 0.0 0.0 0.07698792 
0.0 0.0 0.0 0.0 0.0 0.07698792 
0.0 0.0 0.0 0.0 0.0 0.07698792 
0.0 0.0 0.0 0.0 0.0 0.07698792 
0.0 0.0 0.0 0.0 0.0 0.07698792 
0.0 0.0 0.0 0.0 0.0 0.07698792 
0.0 0.0 0.0 0.0 0.0 0.07698792 
0.0 0.0 0.0 0.0 0.0 0.07698792 
0.0 0.0 0.0 0.0 0.0 0.07698792 
0.0 0.0 0.0 0.0 0.0 0.07698792 
0.0 0.0 0.0 0.0 0.0 0.07698792 
0.0 0.0 0.0 0.0 0.0 0.07698792 
0.0 0.0 0.0 0.0 0.0 0.09122207 
0.05434318 0.0 0.0 0.0 0.13396846 0.16384947 
0.14914995 0.0 0.0 0.0 0.2866491 0.24051264 
0.25160372 0.0 0.0 0.0 0.529239 0.34522876 
0.29858953 0.0 0.0 0.0 0.7212874 0.46556062 
0.17987522 0.0 0.0 0.0 0.7649037 0.468621 
0.0 0.0 0.0 0.0 0.6043236 0.41921425 
0.0 0.0 0.0 0.0 0.39576104 0.30378193 
0.0 0.0 0.0 0.0 0.22446777 0.22033569 
0.0 0.0 0.002262503 0.0 0.07949063 0.13206936 
0.0 0.0 0.0 0.0 0.0 0.0821627 
0.0 0.0 0.0 0.0 0.0 0.07698792 
0.0 0.0 0.0 0.0 0.0 0.07698792 
0.0 0.0 0.0 0.0 0.0 0.07698792 
0.0 0.0 0.0 0.0 0.0 0.07698792 
0.0 0.0 0.0 0.0 0.0 0.07698792 
0.0 0.0 0.0 0.0 0.0 0.07698792 
0.0 0.0 0.0 0.0 0.0 0.07698792 
0.0 0.0 0.0 0.0 0.0 0.07698792 
0.0 0.0 0.0 0.0 0.0 0.07698792 
0.0 0.0 0.0 0.0 0.0 0.07698792 
0.0 0.0 0.0 0.0 0.0 0.07698792 
0.0 0.0 0.0 0.0 0.0 0.07698792 
0.0 0.0 0.0 0.0 0.0 0.07698792 
0.0 0.0 0.0 0.0 0.0 0.07698792 
0.0 0.0 0.0 0.0 0.0 0.07698792 
0.0 0.0 0.0 0.0 0.0 0.07698792 
0.0 0.0 0.0 0.0 0.0 0.07698792 
0.0 0.0 0.0 0.0 0.0 0.07698792 
0.0 0.0 0.0 0.0 0.0 0.07698792 
0.0 0.0 0.0 0.0 0.0 0.07698792 
0.0 0.0 0.0 0.0 0.0 0.07698792 
0.0 0.0 0.0 0.0 0.0 0.07698792 
0.0 0.0 0.0 0.0 0.0 0.07698792 
0.0 0.0 0.0 0.0 0.0 0.07698792 
0.0 0.0 0.0 0.0 0.0 0.07698792 
0.0 0.0 0.0 0.0 0.0 0.07698792 
0.0 0.0 0.0 0.0 0.0 0.07698792 
0.0 0.0 0.0 0.0 0.0 0.07698792 
0.0 0.0 0.0 0.0 0.0 0.07698792 
0.0 0.0 0.0 0.0 0.0 0.07698792 
0.0 0.0 0.0 0.0 0.0 0.07698792 
0.0 0.0 0.0 0.0 0.0 0.07698792 
0.0 0.0 0.0 0.0 0.0 0.07698792 
0.0 0.0 0.0 0.0 0.0 0.07698792 
0.0 0.0 0.0 0.0 0.0 0.07698792 
0.0 0.0 0.0 0.0 0.0 0.07698792 
0.0 0.0 0.0 0.0 0.0 0.07698792 
0.0 0.0 0.0 0.0 0.0 0.07698792 
0.0 0.0 0.0 0.0 0.0 0.07698792 
0.0 0.0 0.0 0.0 0.0 0.07698792 
0.0 0.0 0.0 0.0 0.0 0.07698792 
0.0 0.0 0.0 0.0 0.0 0.07698792 
0.0 0.0 0.0 0.0 0.0 0.07698792 
0.0 0.0 0.0 0.0 0.0 0.07698792 
0.0 0.0 0.0 0.0 0.0 0.07698792 
0.0 0.0 0.0 0.0 0.0 0.07698792 
0.0 0.0 0.0 0.0 0.0 0.07698792 
0.0 0.0 0.0 0.0 0.0 0.07698792 
0.0 0.0 0.0 0.0 0.0 0.07698792 
0.0 0.0 0.0 0.0 0.0 0.07698792 
0.0 0.0 0.0 0.0 0.0 0.07698792 
0.0 0.0 0.0 0.0 0.0 0.07698792 
0.0 0.0 0.0 0.0 0.0 0.07698792 
0.0 0.0 0.0 0.0 0.0 0.07698792 
0.0 0.0 0.0 0.0 0.0 0.07698792 
0.0 0.0 0.0 0.0 0.0 0.07698792 
0.0 0.0 0.0 0.0 0.0 0.07698792 
0.0 0.0 0.0 0.0 0.0 0.07698792 
0.0 0.0 0.0 0.0 0.0 0.07698792 
0.0 0.0 0.0 0.0 0.0 0.07698792 
0.0 0.0 0.0 0.0 0.0 0.07698792 
0.0 0.0 0.0 0.0 0.0 0.07698792 
0.0 0.0 0.0 0.0 0.0 0.07698792 
0.0 0.0 0.0 0.0 0.0 0.07698792 
0.0 0.0 0.0 0.0 0.0 0.07698792 
0.0 0.0 0.0 0.0 0.0 0.07698792 
0.0 0.0 0.0 0.0 0.0 0.07698792 

