0.0 0.0 0.0 0.0 0.0 0.07698792 
0.0 0.0 0.0 0.0 0.0 0.07698792 
0.0 0.0 0.0 0.0 0.0 0.07698792 
0.0 0.0 0.0 0.0 0.0 0.07698792 
0.0 0.0 0.0 0.0 0.0 0.07698792 
0.0 0.0 0.0 0.0 0.0 0.07698792 
0.0 0.0 0.0 0.0 0.0 0.07698792 
0.0 0.0 0.0 0.0 0.0 0.07698792 
0.0 0.0 0.0 0.0 0.0 0.07698792 
0.0 0.0 0.0 0.0 0.0 0.07698792 
0.0 0.0 0.0 0.0 0.0 0.07698792 
0.0 0.0 0.0 0.0 0.0 0.07698792 
0.0 0.0 0.0 0.0 0.0 0.07698792 
0.0 0.0 0.0 0.0 0.0 0.07698792 
0.0 0.0 0.0 0.0 0.0 0.07698792 
0.0 0.0 0.0 0.0 0.0 0.07698792 
0.0 0.0 0.0 0.0 0.0 0.07698792 
0.0 0.0 0.0 0.0 0.0 0.07698792 
0.0 0.0 0.0 0.0 0.0 0.07698792 
0.0 0.0 0.0 0.0 0.0 0.07698792 
0.0 0.0 0.0 0.0 0.0 0.07698792 
0.0 0.0 0.0 0.0 0.0 0.07698792 
0.0 0.0 0.0 0.0 0.0 0.07698792 
0.0 0.0 0.0 0.0 0.0 0.07698792 
0.0 0.0 0.0 0.0 0.0 0.07698792 
0.0 0.0 0.0 0.0 0.0 0.07698792 
0.0 0.0 0.0 0.0 0.0 0.07698792 
0.0 0.0 0.0 0.0 0.0 0.07698792 
0.0 0.0 0.0 0.0 0.0 0.07698792 
0.0 0.0 0.0 0.0 0.0 0.07698792 
0.0 0.0 0.0 0.0 0.0 0.07698792 
0.0 0.0 0.0 0.0 0.0 0.07698792 
0.0 0.0 0.0 0.0 0.0 0.07698792 
0.0 0.0 0.0 0.0 0.0 0.07698792 
0.0 0.0 0.0 0.0 0.0 0.07698792 
0.0 0.0 0.0 0.0 0.0 0.07698792 
0.0 0.0 0.0 0.0 0.0 0.07698792 
0.0 0.0 0.0 0.0 0.0 0.07698792 
0.0 0.0 0.0 0.0 0.0 0.07698792 
0.0 0.0 0.0 0.0 0.0 0.07698792 
0.0 0.0 0.0 0.0 0.0 0.07698792 
0.0 0.0 0.0 0.0 0.0 0.07698792 
0.0 0.0 0.0 0.0 0.0 0.07698792 
0.0 0.0 0.0 0.0 0.0 0.07698792 
0.0 0.0 0.0 0.0 0.0 0.07698792 
0.0 0.0 0.0 0.0 0.0 0.07698792 
0.0 0.0 0.0 0.0 0.0 0.07698792 
0.0 0.0 0.0 0.0 0.0 0.07698792 
0.0 0.0 0.0 0.0 0.0 0.07698792 
0.0 0.0 0.0 0.0 0.0 0.07698792 
0.0 0.0 0.0 0.0 0.0 0.07698792 
0.0 0.0 0.0 0.0 0.0 0.07698792 
0.0 0.0 0.0 0.0 0.0 0.07698792 
0.0 0.0 0.0 0.0 0.0 0.07698792 
0.0 0.0 0.0 0.0 0.0 0.07698792 
0.0 0.0 0.0 0.0 0.0 0.07698792 
0.0 0.0 0.0 0.0 0.0 0.07698792 
0.0 0.0 0.0 0.0 0.0 0.07698792 
0.0 0.0 0.0 0.0 0.0 0.07698792 
0.0 0.0 0.0 0.0 0.0 0.07698792 
0.0 0.0 0.0 0.0 0.0 0.07698792 
0.0 0.0 0.0 0.0 0.0 0.07698792 
0.0 0.0 0.0 0.0 0.0 0.07698792 
0.0 0.0 0.0 0.0 0.0 0.07698792 
0.0 0.0 0.0 0.0 0.0 0.07698792 
0.0 0.0 0.0 0.0 0.0 0.07698792 
0.0 0.0 0.0 0.0 0.0 0.07698792 
0.0 0.0 0.0 0.0 0.0 0.07698792 
0.0 0.0 0.0 0.0 0.0 0.07698792 
0.0 0.0 0.0 0.0 0.0 0.053230263 
0.15802768 0.0 0.17179129 0.0 0.0 0.0 
0.35482144 0.13686118 0.27294445 0.0 0.0 0.0 
0.3531835 0.30984202 0.3955102 0.0 0.0 0.0 
0.31359965 0.5403282 0.45406717 0.0 0.0 0.0 
0.12627184 0.61951476 0.3702084 0.0 0.0 0.0 
0.0 0.50890875 0.24058029 0.0 0.038096566 0.0 
0.0 0.3232604 0.118813194 0.0 0.07884939 0.0 
0.0 0.1429522 0.011528239 0.0 0.03601254 0.0 
0.0 0.027087092 0.0 0.0 0.0 0.04415924 
0.0 0.0 0.0 0.0 0.0 0.07698792 
0.0 0.0 0.0 0.0 0.0 0.07698792 
0.0 0.0 0.0 0.0 0.0 0.07698792 
0.0 0.0 0.0 0.0 0.0 0.07698792 
0.0 0.0 0.0 0.0 0.0 0.07698792 
0.0 0.0 0.0 0.0 0.0 0.07698792 
0.0 0.0 0.0 0.0 0.0 0.07698792 
0.0 0.0 0.0 0.0 0.0 0.07698792 
0.0 0.0 0.0 0.0 0.0 0.07698792 
0.0 0.0 0.0 0.0 0.0 0.07698792 
0.0 0.0 0.0 0.0 0.0 0.07698792 
0.0 0.0 0.0 0.0 0.0 0.07698792 
0.0 0.0 0.0 0.0 0.0 0.07698792 
0.0 0.0 0.0 0.0 0.0 0.07698792 
0.0 0.0 0.0 0.0 0.0 0.07698792 
0.0 0.0 0.0 0.0 0.0 0.07698792 
0.0 0.0 0.0 0.0 0.0 0.07698792 
0.0 0.0 0.0 0.0 0.0 0.06492054 
0.15349163 0.0 0.11742333 0.0 0.0 0.0 
0.5728328 0.0 0.16793337 0.0 0.0 0.0 
0.8618546 0.08840571 0.38057685 0.0 0.0 0.0 
0.9656338 0.5995454 0.6298218 0.0 0.0 0.0 
0.62735707 1.1054268 1.0215497 0.0 0.0 0.0 
0.1884341 1.2062775 1.1268034 0.0 0.3880947 0.0 
0.0 1.2356747 0.9548949 0.0 0.5166366 0.0 
0.0 0.8959953 0.6653387 0.0 0.54594296 0.0 
0.0 0.4879013 0.34783915 0.0 0.37150043 0.0 
0.0 0.18684506 0.064700134 0.0 0.1652507 0.0 
0.0 0.032137163 0.0 0.0 0.0 0.03946943 
0.0 0.0 0.0 0.0 0.0 0.07698792 
0.0 0.0 0.0 0.0 0.0 0.07698792 
0.0 0.0 0.0 0.0 0.0 0.07698792 
0.0 0.0 0.0 0.0 0.0 0.07698792 
0.0 0.0 0.0 0.0 0.0 0.07698792 
0.0 0.0 0.0 0.0 0.0 0.07698792 
0.0 0.0 0.0 0.0 0.0 0.07698792 
0.0 0.0 0.0 0.0 0.0 0.07698792 
0.0 0.0 0.0 0.0 0.0 0.07698792 
0.0 0.0 0.0 0.0 0.0 0.07698792 
0.0 0.0 0.0 0.0 0.0 0.07698792 
0.0 0.0 0.0 0.0 0.0 0.07698792 
0.0 0.0 0.0 0.0 0.0 0.07698792 
0.0 0.0 0.0 0.0 0.0 0.07698792 
0.0 0.0 0.0 0.0 0.0 0.07698792 
0.0 0.0 0.0 0.0 0.0 0.06492054 
0.07801212 0.0 0.061268814 0.0 0.0 0.0 
0.5022471 0.0 0.08191251 0.0 0.0 0.0 
1.1457565 0.0 0.12853381 0.0 0.0 0.0 
1.4031825 0.07990205 0.2832868 0.0 0.0 0.0 
1.0707169 0.71999675 0.792798 0.0 0.41635635 0.0 
0.51693445 1.1499153 1.4052447 0.040810313 1.0040063 0.0 
0.23319584 1.5076765 1.8260499 0.06078429 1.0637729 0.0 
0.0 1.726856 1.9068391 0.0 1.0602713 0.0 
0.0 1.7146498 1.5737478 0.0 1.0164355 0.0 
0.0 1.1716588 1.0887768 0.0 0.79756474 0.0 
0.0 0.4830753 0.44443393 0.0 0.51631755 0.0 
0.0 0.105538435 0.024491936 0.0 0.15038149 0.0 
0.0 0.0 0.0 0.0 0.0 0.07125593 
0.0 0.0 0.0 0.0 0.0 0.07698792 
0.0 0.0 0.0 0.0 0.0 0.07698792 
0.0 0.0 0.0 0.0 0.0 0.07698792 
0.0 0.0 0.0 0.0 0.0 0.07698792 
0.0 0.0 0.0 0.0 0.0 0.07698792 
0.0 0.0 0.0 0.0 0.0 0.07698792 
0.0 0.0 0.0 0.0 0.0 0.07698792 
0.0 0.0 0.0 0.0 0.0 0.07698792 
0.0 0.0 0.0 0.0 0.0 0.07698792 
0.0 0.0 0.0 0.0 0.0 0.07698792 
0.0 0.0 0.0 0.0 0.0 0.07698792 
0.0 0.0 0.0 0.0 0.0 0.07698792 
0.0 0.0 0.0 0.0 0.0 0.07661082 
0.0 0.0 0.0 0.0 0.0 0.052094087 
0.16642228 0.0 0.1436286 0.0 0.0 0.0 
0.503332 0.0 0.19093302 0.0 0.0 0.0 
1.0601656 0.0 0.12477825 0.0 0.0 0.0 
1.6388814 0.1194984 0.055585608 0.0 0.0 0.0 
1.5686324 0.8081631 0.001153253 0.037820112 0.7244891 0.0 
1.0772755 1.4412398 0.45948666 0.41791126 1.3372884 0.0 
0.7176192 1.7794623 1.1656371 0.6194366 1.6350855 0.0 
0.37992698 1.9031761 1.7400124 0.6734658 1.5486413 0.0 
0.047864243 2.028507 2.171906 0.48943195 1.3725694 0.0 
0.0 2.1443856 2.3821347 0.20249759 1.332634 0.0 
0.0 1.8787812 1.9607354 0.0 1.15511 0.0 
0.0 1.1208428 1.225879 0.0 0.8027918 0.0 
0.0 0.35232857 0.3187785 0.0 0.4081858 0.0 
0.0 0.07775808 0.0 0.0 0.041412946 0.0 
0.0 0.0 0.0 0.0 0.0 0.07698792 
0.0 0.0 0.0 0.0 0.0 0.07698792 
0.0 0.0 0.0 0.0 0.0 0.07698792 
0.0 0.0 0.0 0.0 0.0 0.07698792 
0.0 0.0 0.0 0.0 0.0 0.07698792 
0.0 0.0 0.0 0.0 0.0 0.07698792 
0.0 0.0 0.0 0.0 0.0 0.07698792 
0.0 0.0 0.0 0.0 0.0 0.07698792 
0.0 0.0 0.0 0.0 0.0 0.07698792 
0.0 0.0 0.0 0.0 0.0 0.07698792 
0.0 0.0 0.0 0.0 0.0 0.07698792 
0.0 0.0 0.0 0.0 0.0 0.07698792 
0.021314442 0.0 0.05772748 0.0 0.0 0.022935688 
0.2819875 0.0 0.17424923 0.0 0.0 0.0 
0.60935026 0.0 0.20848453 0.0 0.0 0.0 
1.0704229 0.0 0.30891028 0.0 0.0 0.0 
1.6182067 0.26575708 0.1727885 0.0 0.033281777 0.0 
1.6900439 0.69107944 0.0 0.0 1.1863123 0.0 
1.1571486 1.0176504 0.0 0.0067274617 2.2048159 0.36844036 
0.8268348 1.037735 0.0 0.3535345 2.6699667 0.94863933 
0.62327236 1.0377569 0.0 0.7142014 2.6892776 1.3374035 
0.5559553 0.9571828 0.2584675 0.8409007 2.3492203 1.2409961 
0.26234776 1.2465914 0.9372084 0.7191712 1.9003762 0.59379596 
0.0 1.7892073 1.9539236 0.42444587 1.5554309 0.0 
0.0 2.0466702 2.320249 0.10338676 1.4752587 0.0 
0.0 1.6516612 1.9577242 0.0 1.1398928 0.0 
0.0 0.82396483 0.9262697 0.0 0.68970925 0.0 
0.0 0.11776383 0.0861269 0.0 0.28941157 0.0 
0.0 0.0 0.0 0.0 0.0 0.07698792 
0.0 0.0 0.0 0.0 0.0 0.07698792 
0.0 0.0 0.0 0.0 0.0 0.07698792 
0.0 0.0 0.0 0.0 0.0 0.07698792 
0.0 0.0 0.0 0.0 0.0 0.07698792 
0.0 0.0 0.0 0.0 0.0 0.07698792 
0.0 0.0 0.0 0.0 0.0 0.07698792 
0.0 0.0 0.0 0.0 0.0 0.07698792 
0.0 0.0 0.0 0.0 0.0 0.07698792 
0.0 0.0 0.0 0.0 0.0 0.07698792 
0.0 0.0 0.0 0.0 0.0 0.0690687 
0.010396987 0.0 0.026177071 0.0 0.0 0.01768035 
0.26924673 0.0 0.114352204 0.0 0.0 0.0 
0.739735 0.0 0.20027483 0.0 0.0 0.0 
1.2598922 0.0 0.22163177 0.0 0.0 0.0 
1.4946694 0.40009296 0.3265909 0.0 0.091418475 0.0 
1.3679864 0.7477169 0.07276075 0.0 1.3344837 0.0 
0.9902472 1.0885062 0.0 0.19896416 2.377584 0.36659092 
0.514253 1.2989283 0.0 0.46511975 2.9104106 0.8436846 
0.0988386 1.064379 0.0 0.6510067 3.0670955 1.4617162 
0.059844077 0.35215312 0.0 0.82504416 2.789616 1.8783762 
0.7611435 0.0 0.0 0.88908845 2.2725391 1.950309 
1.1549454 0.46621805 0.0 0.9229856 1.7567211 1.4528251 
0.4367342 1.2191168 0.75691223 0.6388337 1.5379052 0.462201 
0.0 1.9038116 1.9333332 0.35214448 1.6856956 0.0 
0.0 1.7736568 2.226052 0.043862637 1.5579334 0.0 
0.0 1.1885173 1.609885 0.0 0.97998697 0.0 
0.0 0.29862133 0.3903114 0.0 0.46625814 0.0 
0.0 0.009131297 0.0 0.0 0.0 0.060834125 
0.0 0.0 0.0 0.0 0.0 0.07698792 
0.0 0.0 0.0 0.0 0.0 0.07698792 
0.0 0.0 0.0 0.0 0.0 0.07698792 
0.0 0.0 0.0 0.0 0.0 0.07698792 
0.0 0.0 0.0 0.0 0.0 0.07698792 
0.0 0.0 0.0 0.0 0.0 0.07698792 
0.0 0.0 0.0 0.0 0.0 0.07698792 
0.0 0.0 0.0 0.0 0.0 0.07698792 
0.0 0.0 0.0 0.0 0.0 0.07698792 
0.0016111583 0.0 0.008727804 0.0 0.0 0.04681084 
0.27264184 0.0 0.14939255 0.0 0.0 0.0 
0.7871047 0.0 0.12132392 0.0 0.0 0.0 
1.2940447 0.0 0.18279758 0.0 0.0 0.0 
1.5988882 0.3546823 0.1748665 0.0 0.24248357 0.0 
1.4278786 0.95281976 0.1416342 0.07781879 1.297988 0.0 
0.91034454 1.4340644 0.015392244 0.3011737 2.372296 0.27525496 
0.30062586 1.621362 0.0 0.43929297 2.850593 0.67616093 
0.0 1.5487272 0.0 0.45471305 2.884792 1.0306528 
0.0 0.8813396 0.0 0.24404693 2.6088183 1.5301597 
0.18113711 0.12968643 0.0 0.17571601 2.0268404 1.936358 
0.9502937 0.0 0.0 0.071284026 1.4746653 1.9738536 
1.4907389 0.0 0.0 0.24095474 1.3973464 1.636251 
1.1170645 0.5186771 0.0 0.39314428 1.4490476 0.9543526 
0.0 1.8780427 1.2447478 0.3600525 1.6000782 0.0 
0.0 1.9799342 2.0808108 0.03847375 1.7630742 0.0 
0.0 1.3680623 2.024297 0.0 1.1665808 0.0 
0.0 0.5745457 0.83595157 0.0 0.58005345 0.0 
0.0 0.042258166 0.0 0.0 0.03687012 0.017895088 
0.0 0.0 0.0 0.0 0.0 0.07698792 
0.0 0.0 0.0 0.0 0.0 0.07698792 
0.0 0.0 0.0 0.0 0.0 0.07698792 
0.0 0.0 0.0 0.0 0.0 0.07698792 
0.0 0.0 0.0 0.0 0.0 0.07698792 
0.0 0.0 0.0 0.0 0.0 0.07698792 
0.0 0.0 0.0 0.0 0.0 0.07698792 
0.0 0.0 0.0 0.0 0.0 0.07698792 
0.0 0.0 0.0 0.0 0.0 0.07698792 
0.14977777 0.0 0.06011986 0.0 0.0 0.040781714 
0.7065086 0.0 0.0869182 0.0 0.0 0.0 
1.3379979 0.0 0.06075254 0.0 0.0 0.0 
1.7484467 0.3078179 0.0 0.0 0.2547814 0.0 
1.5483553 0.92774916 0.0 0.0 1.4145112 0.0 
1.0751336 1.324391 0.0 0.16074638 2.360099 0.37949142 
0.31321394 1.7115431 0.0 0.330681 2.8926482 0.62895536 
0.0 1.6409577 0.0 0.20113656 2.9486725 0.85478634 
0.0 0.9267923 0.10397052 0.0 2.4718454 0.98948973 
0.0 0.099776596 0.0 0.0 1.6940668 0.9052933 
0.13467841 0.0 0.0 0.0 1.206141 1.0482898 
1.0270152 0.0 0.0 0.0 1.0319966 1.4685221 
1.8257754 0.0 0.0 0.0 1.1155629 1.4612858 
1.6854084 0.0 0.0 0.0 1.4577688 0.9935112 
0.22760525 1.5393152 0.2292906 0.13532025 1.7309983 0.13749057 
0.0 1.8525734 1.6809378 0.0440689 1.988721 0.0 
0.0 1.3372483 1.9727768 0.0912268 1.4014596 0.0 
0.0 0.55779946 1.1306843 0.010720086 0.75062233 0.0 
0.0 0.019067883 0.04389617 0.0 0.09296964 0.042337205 
0.0 0.0 0.0 0.0 0.0 0.07698792 
0.0 0.0 0.0 0.0 0.0 0.07698792 
0.0 0.0 0.0 0.0 0.0 0.07698792 
0.0 0.0 0.0 0.0 0.0 0.07698792 
0.0 0.0 0.0 0.0 0.0 0.07698792 
0.0 0.0 0.0 0.0 0.0 0.07698792 
0.0 0.0 0.0 0.0 0.0 0.07698792 
0.0 0.0 0.0 0.0 0.0 0.07661082 
0.03913421 0.0 0.08024112 0.0 0.0 0.011366665 
0.5297439 0.0 0.034655243 0.0 0.0 0.0 
1.2196155 0.0 0.0022645667 0.0 0.0 0.0 
1.8343682 0.0 0.0 0.0 0.22117527 0.0 
1.8012629 0.7487076 0.0 0.0015350701 1.3039595 0.07801812 
1.1177068 1.2385459 0.0 0.10667193 2.3688645 0.39307186 
0.4678175 1.4743031 0.0 0.28305742 2.9587784 0.7692523 
0.0 1.5741799 0.033075772 0.24355368 3.033203 0.8185571 
0.0 1.0641463 0.3275726 0.15457034 2.4260192 0.8252533 
0.0 0.431227 0.47209382 0.03037564 1.3462827 0.6987653 
0.0 0.05545587 0.38732627 0.0 0.54798055 0.40443143 
0.015099838 0.0 0.046463586 0.0 0.4082469 0.32907438 
1.2276435 0.0 0.0 0.0 0.323562 0.7616835 
2.0806115 0.0 0.0 0.0 0.69919205 0.96871096 
1.9419465 0.087678835 0.0 0.0 1.375452 0.619199 
0.500188 1.4779232 0.0 0.0 1.9053246 0.10241274 
0.0 1.8778924 1.4739453 0.0 2.0900495 0.0 
0.0 1.2945037 1.9110994 0.07363954 1.4828817 0.0 
0.0 0.5090756 1.2152917 0.023154605 0.7678362 0.0 
0.0 0.13211158 0.15369591 0.053375207 0.023266125 0.055821 
0.0 0.0 0.0 0.0 0.0 0.07698792 
0.0 0.0 0.0 0.0 0.0 0.07698792 
0.0 0.0 0.0 0.0 0.0 0.07698792 
0.0 0.0 0.0 0.0 0.0 0.07698792 
0.0 0.0 0.0 0.0 0.0 0.07698792 
0.0 0.0 0.0 0.0 0.0 0.07698792 
0.0 0.0 0.0 0.0 0.0 0.07698792 
0.0 0.0 0.0 0.0 0.0 0.061400473 
0.24242538 0.0 0.08603866 0.0 0.0 0.0 
1.0683172 0.0 0.0 0.0 0.0 0.07271759 
1.7863874 0.0 0.0 0.0 0.003313873 0.15523008 
1.8925583 0.5097089 0.0 0.0 1.0039188 0.097859204 
1.2473156 1.1448785 0.0 0.03902721 2.186706 0.39989308 
0.49747068 1.4445432 0.0 0.3185037 2.9319932 0.78007 
0.0 1.6009464 0.0 0.3983284 3.0497339 0.96634275 
0.0 1.1704073 0.21170473 0.2571305 2.4742827 0.9339962 
0.0 0.5360231 0.5358791 0.15443629 1.3917264 0.7289384 
0.0 0.17472664 0.62730473 0.07016543 0.5446929 0.47961378 
0.0 0.0 0.36466825 0.0 0.17209023 0.19840413 
0.10567781 0.0 0.04742945 0.0 0.0 0.06637366 
1.3721099 0.0 0.0 0.0 0.0040583797 0.57817996 
2.2236192 0.0 0.0 0.0 0.6519258 0.8052828 
1.8694904 0.44233584 0.0 0.0 1.3393148 0.3837516 
0.512106 1.6862398 0.0 0.0 2.006271 0.0064943284 
0.0 1.987614 1.3585865 0.0 2.079613 0.0 
0.0 1.4158734 1.8171799 0.0 1.4197346 0.0 
0.0 0.56024736 1.1942616 0.0 0.75788105 0.0 
0.0 0.09688151 0.16843781 0.0 0.09936954 0.029703058 
0.0 0.0 0.0 0.0 0.0 0.07698792 
0.0 0.0 0.0 0.0 0.0 0.07698792 
0.0 0.0 0.0 0.0 0.0 0.07698792 
0.0 0.0 0.0 0.0 0.0 0.07698792 
0.0 0.0 0.0 0.0 0.0 0.07698792 
0.0 0.0 0.0 0.0 0.0 0.07283976 
0.029599316 0.0 0.05923208 0.0 0.0 0.011695221 
0.24350882 0.0 0.16002735 0.0 0.0 0.0 
0.71499294 0.0 0.08430759 0.0 0.0 0.0 
1.5513208 0.0 0.0 0.0 0.0 0.0 
2.0303519 0.18676263 0.0 0.0 0.8452705 0.05462727 
1.4840348 1.0066713 0.0 0.039721373 1.8930556 0.33581898 
0.6115944 1.3243802 0.0 0.18730643 2.8749268 0.7232303 
0.0 1.5815153 0.0 0.35040438 3.0698855 0.97246015 
0.0 1.0964848 0.08498571 0.17097577 2.647257 1.0431404 
0.0 0.5601531 0.27195966 0.08205166 1.5002807 0.8295309 
0.0 0.14056617 0.44003713 0.0 0.5865713 0.5124804 
0.0 0.0 0.3426511 0.0 0.23809694 0.28834882 
0.0 0.0 0.15461513 0.0 0.0 0.08064894 
0.43381935 0.0 0.0 0.0 0.0 0.113456614 
1.593859 0.0 0.0 0.0 0.014483724 0.4640381 
2.1880426 0.0 0.0 0.0 0.8413866 0.5560162 
1.7237504 0.68427557 0.0 0.0 1.5889868 0.30901307 
0.39388797 1.6803732 0.0 0.0 2.2460651 0.0 
0.0 1.7962574 1.3449563 0.0 2.1330175 0.0 
0.0 1.2993098 1.7526395 0.0 1.5446898 0.0 
0.0 0.5314958 1.1822163 0.0 0.8894739 0.0 
0.0 0.0 0.13909861 0.0 0.185477 0.026626952 
0.0 0.0 0.0 0.0 0.0 0.07698792 
0.0 0.0 0.0 0.0 0.0 0.07698792 
0.0 0.0 0.0 0.0 0.0 0.07698792 
0.0 0.0 0.0 0.0 0.0 0.07698792 
0.0 0.0 0.0 0.0 0.0 0.07698792 
0.0 0.0 0.0 0.0 0.0 0.05222013 
0.2674514 0.0 0.11634114 0.0 0.0 0.0 
0.71331817 0.0 0.21190238 0.0 0.0 0.0 
1.3471644 0.0 0.11036313 0.0 0.0 0.0 
1.8377054 0.28659806 0.0 0.0 0.52092487 0.0 
1.4668272 0.8759302 0.0 0.0 1.783169 0.16445112 
0.7225623 1.2254426 0.0 0.1761165 2.660207 0.6438047 
0.0 1.6211808 0.0 0.37710685 2.9898121 0.9289503 
0.0 1.1139278 0.057449237 0.16261667 2.6528819 1.028611 
0.0 0.5423276 0.25185055 0.055606518 1.5490037 0.83755046 
0.0 0.11414056 0.36722302 0.0 0.63768977 0.51914316 
0.0 0.0 0.26199317 0.0 0.2619857 0.29091096 
0.0 0.0 0.075523205 0.0 0.06399128 0.11625894 
0.07588333 0.0 0.07277145 0.0 0.0 0.037189253 
0.85008353 0.0 0.0 0.0 0.0 0.20220727 
1.8405163 0.0 0.0 0.0 0.20015396 0.5146986 
2.1381624 0.24111062 0.0 0.0 1.0315197 0.41451854 
1.4467945 1.0582967 0.0 0.0 1.9289587 0.39446995 
0.0 1.8022208 0.121623985 0.11035209 2.4612644 0.22404014 
0.0 1.7408732 1.3648964 0.27649525 2.155443 0.0 
0.0 1.1686864 1.7862695 0.36348423 1.5252565 0.16126727 
0.0 0.46129432 1.2511023 0.29063204 0.7108971 0.11127726 
0.0 0.13240014 0.21613821 0.10783486 0.05452529 0.07245257 
0.0 0.0 0.0 0.0 0.0 0.07698792 
0.0 0.0 0.0 0.0 0.0 0.07698792 
0.0 0.0 0.0 0.0 0.0 0.07698792 
0.0 0.0 0.0 0.0 0.0 0.07698792 
0.0 0.0 0.0 0.0 0.0 0.059263952 
0.18498832 0.0 0.10770976 0.0 0.0 0.0 
0.7405314 0.0 0.07518182 0.0 0.0 0.0 
1.2475665 0.0 0.16163963 0.0 0.0 0.0 
1.7622628 0.17673552 0.052216418 0.0 0.34827712 0.0 
1.6037257 0.8806971 0.0 0.0 1.5924269 0.04798053 
0.7538002 1.3610184 0.0 0.061636526 2.6254194 0.3360674 
0.0 1.5883844 0.0 0.12356582 2.919068 0.6947351 
0.0 1.2539858 0.08814032 0.04319976 2.6604068 0.87558424 
0.0 0.600378 0.27264163 0.0 1.5962251 0.7760137 
0.0 0.12223877 0.4016445 0.0 0.63578224 0.5199924 
0.0 0.0 0.30538145 0.0 0.26137438 0.28859046 
0.0 0.0 0.08392533 0.0 0.056013744 0.109658554 
0.0 0.0 0.0 0.0 0.0 0.07850991 
0.23332876 0.0 0.0 0.0 0.0 0.12739629 
1.289346 0.0 0.0 0.0 0.0 0.45389804 
2.0922015 0.0 0.0 0.0 0.5473413 0.5997106 
1.8959324 0.48497182 0.0 0.00938001 1.3976389 0.42486027 
0.9645098 1.2649137 0.0 0.0 2.533563 0.55228573 
0.0 1.8387372 0.19861418 0.16186008 2.745664 0.4313202 
0.0 1.5337427 1.0330604 0.23293075 2.1261203 0.32684034 
0.0 0.7763974 1.3127102 0.24190386 1.2934414 0.44866294 
0.0 0.27093494 0.96843445 0.27494565 0.39594808 0.25445187 
0.0 0.06885073 0.20965862 0.08457128 0.0 0.10664858 
0.0 0.0 0.0 0.0 0.0 0.07698792 
0.0 0.0 0.0 0.0 0.0 0.07698792 
0.0 0.0 0.0 0.0 0.0 0.07698792 
0.0 0.0 0.0 0.0 0.0 0.07698792 
0.027556561 0.0 0.00927335 0.0 0.0 0.047680065 
0.49807423 0.0 0.045540743 0.0 0.0 0.011692435 
1.2979839 0.0 0.0 0.0 0.0 0.08813756 
1.7339597 0.112769976 0.0 0.01995745 0.12768304 0.0 
1.5812912 0.80538845 0.0 0.11717549 1.2764058 0.051301222 
0.92482644 1.340904 0.0 0.25427666 2.4483519 0.4430233 
0.054164976 1.7454059 0.0 0.34856138 2.8702734 0.6004252 
0.0 1.48715 0.035997376 0.11631182 2.6742427 0.7998097 
0.0 0.7567696 0.41730392 0.0 1.735128 0.7360996 
0.0 0.13623469 0.44355637 0.0 0.77358407 0.48845434 
0.0 0.0 0.30138662 0.0 0.2633598 0.29732746 
0.0 0.0 0.1043896 0.0 0.058847222 0.112625614 
0.0 0.0 0.0 0.0 0.0 0.07850991 
0.0 0.0 0.0 0.0 0.0 0.053230263 
0.5304749 0.0 0.0 0.0 0.0 0.22381864 
1.5824561 0.0 0.0 0.03088456 0.0 0.52961504 
2.1082897 0.0 0.0 0.0068780305 0.8322902 0.5455588 
1.7274106 0.8206801 0.0 0.059381347 1.6982688 0.44936123 
0.55072623 1.7103729 0.0 0.0 2.7283587 0.40130115 
0.0 1.801391 0.41451862 0.0 2.6949084 0.28924334 
0.0 1.1800737 0.9235803 0.0 1.8259689 0.3165601 
0.0 0.37888962 0.86787045 0.0 0.9517543 0.37261158 
0.0 0.011333137 0.4918878 0.03306325 0.20977898 0.23351537 
0.0 0.0 0.061123766 0.0 0.0 0.09313948 
0.0 0.0 0.0 0.0 0.0 0.07698792 
0.0 0.0 0.0 0.0 0.0 0.07698792 
0.0 0.0 0.0 0.0 0.0 0.07698792 
0.0 0.0 0.0 0.0 0.0 0.07698792 
0.18465799 0.0 0.030780442 0.0 0.0 0.07371035 
0.9727275 0.0 0.0 0.0 0.0 0.16961432 
1.7505636 0.0 0.0 0.024714228 0.0752337 0.27851185 
1.9682376 0.36912024 0.0 0.07118681 0.9937417 0.2086738 
1.2633684 1.254901 0.0 0.11002378 2.1820066 0.35761562 
0.22680297 1.6161288 0.0 0.1657303 2.9439595 0.6048617 
0.0 1.569048 0.23165691 0.14186975 2.810188 0.6232627 
0.0 0.9218445 0.49211848 0.07572849 1.9642414 0.66497034 
0.0 0.26852545 0.6445575 0.062799245 0.90433997 0.542641 
0.0 0.012745465 0.43859273 0.0 0.32266983 0.2905779 
0.0 0.0 0.091821335 0.0 0.0635189 0.11869331 
0.0 0.0 0.0 0.0 0.0 0.079347014 
0.0 0.0 0.0 0.0 0.0 0.07095423 
0.100688666 0.0 0.06623427 0.0 0.0 0.006365575 
0.93812066 0.0 0.0 0.0 0.0 0.2600042 
1.9063511 0.0 0.0 0.0 0.29053077 0.5784375 
2.1055243 0.2340698 0.0 0.0 1.0786195 0.4301832 
1.410418 1.1165873 0.0 0.0 2.0318613 0.42626196 
0.0 1.8185647 0.036773987 0.0 2.799823 0.289029 
0.0 1.6649859 0.8186928 0.0 2.301651 0.12470117 
0.0 0.8830304 1.1511618 0.0 1.4576291 0.27455863 
0.0 0.15784481 0.7476124 0.0 0.66631466 0.22850585 
0.0 0.0 0.16190845 0.0 0.070387796 0.12892917 
0.0 0.0 0.0 0.0 0.0 0.079347014 
0.0 0.0 0.0 0.0 0.0 0.07698792 
0.0 0.0 0.0 0.0 0.0 0.07698792 
0.0 0.0 0.0 0.0 0.0 0.07698792 
0.0 0.0 0.0 0.0 0.0 0.07698792 
0.39009857 0.0 0.0 0.0 0.0 0.2036714 
1.4527981 0.0 0.0 0.11200364 0.0 0.47259107 
2.0615122 0.0 0.0 0.018115815 0.62351745 0.5412173 
1.8688707 0.74606544 0.0 0.0972797 1.4285066 0.37042612 
0.8250498 1.6343989 0.0 0.0 2.6393223 0.34528843 
0.0 1.9034511 0.11993524 0.0 2.9209704 0.4084423 
0.0 1.4345762 0.6604607 0.0 2.194764 0.410519 
0.0 0.5063947 0.6997056 0.0 1.2877616 0.45818767 
0.0 0.084587954 0.56970143 0.04034654 0.34728828 0.3803038 
0.0 0.0 0.25704074 0.0 0.08375311 0.14134224 
0.0 0.0 0.0 0.0 0.0 0.079347014 
0.0 0.0 0.009985976 0.0 0.0 0.04531104 
0.14873058 0.0 0.12147849 0.0 0.0 0.0 
0.48869544 0.0 0.13857889 0.0 0.0 0.0 
1.4012244 0.0 0.0 0.0 0.0 0.0 
2.1054003 0.0 0.0 0.0 0.64169466 0.18735588 
1.795083 0.6536487 0.0 0.0 1.5804825 0.25531852 
0.82335263 1.2387584 0.0 0.0 2.6092484 0.5244714 
0.0 1.7517548 0.34736177 0.06951836 2.6739485 0.2707342 
0.0 1.3282472 1.1551068 0.15736845 1.9609355 0.21747032 
0.0 0.5588494 1.2657499 0.10805071 1.1574763 0.34307218 
0.0 0.10316229 0.67952 0.065843344 0.35482767 0.13972196 
0.0 0.0 0.0 0.0 0.0 0.082391 
0.0 0.0 0.0 0.0 0.0 0.07698792 
0.0 0.0 0.0 0.0 0.0 0.07698792 
0.0 0.0 0.0 0.0 0.0 0.07698792 
0.0 0.0 0.0 0.0 0.0 0.07698792 
0.0 0.0 0.0 0.0 0.0 0.07698792 
0.59436315 0.0 0.0 0.06760211 0.0 0.44603917 
1.7571275 0.0 0.0 0.14587164 0.20646746 0.8245731 
2.1543193 0.0 0.0 0.14970183 1.010596 0.7306543 
1.7271245 0.78564256 0.0 0.14496681 1.7036196 0.6016145 
0.54774565 1.7501984 0.175383 0.0 2.6373422 0.1050948 
0.0 1.9292165 0.950721 0.0 2.3424 0.0 
0.0 1.4901173 1.5658863 0.0 1.4266917 0.0 
0.0 0.7648266 1.3237947 0.0 0.7002549 0.0 
0.09202473 0.4875632 0.8130702 0.0 0.0 0.0 
0.26822835 0.53734684 0.63503635 0.0 0.0 0.0 
0.33566487 0.6201673 0.5555675 0.0 0.0 0.0 
0.38858455 0.5596984 0.51871085 0.0 0.0 0.0 
0.575228 0.4374358 0.49883497 0.0 0.0 0.0 
1.0609107 0.22315475 0.36416936 0.0 0.0 0.0 
1.7161193 0.22344938 0.05977074 0.0 0.2824076 0.0 
1.8036911 0.6139436 0.0 0.0 1.3139571 0.0 
1.1478481 1.1143596 0.0 0.0 2.3347692 0.34868872 
0.10931261 1.6053326 0.0 0.13215509 2.825448 0.58277017 
0.0 1.6291873 0.55841357 0.2897287 2.4100125 0.4733367 
0.0 0.90442544 1.1190792 0.2491447 1.5580095 0.50518847 
0.0 0.35684684 1.1022755 0.27926177 0.6463901 0.3937377 
0.0 0.06885393 0.49407548 0.1116984 0.12117365 0.12728795 
0.0 0.0 0.0 0.0 0.0 0.07698792 
0.0 0.0 0.0 0.0 0.0 0.07698792 
0.0 0.0 0.0 0.0 0.0 0.07698792 
0.0 0.0 0.0 0.0 0.0 0.07698792 
0.0 0.0 0.0 0.0 0.0 0.07698792 
0.0 0.0 0.0 0.0 0.0 0.07698792 
0.7061587 0.0 0.0 0.14830056 0.010730427 0.66289884 
1.7638164 0.0 0.0 0.20217125 0.48145875 1.1310527 
2.0573058 0.0 0.0 0.27324256 1.1336623 0.942442 
1.7361407 0.6605548 0.0 0.2533076 1.7714249 0.8938219 
0.42727977 1.7006962 0.47374225 0.0 2.1363547 0.056487598 
0.0 1.7262506 1.5173602 0.0 1.671985 0.0 
0.0 1.4822147 2.1893272 0.0 1.0571305 0.0 
0.0 1.2565699 1.9755808 0.0 0.5790596 0.0 
0.35558903 0.95321745 1.1562046 0.0 0.25615844 0.0 
0.42006737 1.0391638 1.0946902 0.0 0.20107295 0.0 
0.42081428 1.0452452 1.0911314 0.0 0.200471 0.0 
0.5105137 0.9301149 1.0334767 0.0 0.22594161 0.0 
0.70363355 0.7621067 0.91943216 0.0 0.310151 0.0 
1.0510614 0.6503976 0.6639198 0.0 0.65077686 0.0 
1.3454452 0.7286036 0.13245755 0.0 1.4786948 0.0 
1.1053369 1.1148144 0.0 0.045019694 2.286905 0.2563368 
0.4287402 1.4891949 0.0 0.22588597 2.8615284 0.6160038 
0.0 1.6141365 0.0 0.23231828 2.8308163 0.78083736 
0.0 1.0899494 0.560228 0.2006438 1.9746524 0.72903204 
0.0 0.34887043 0.7610047 0.088361 1.0050699 0.544665 
0.0 0.094152465 0.6263909 0.084615454 0.30942053 0.32987642 
0.0 0.0 0.20638421 0.0 0.0474311 0.109306514 
0.0 0.0 0.0 0.0 0.0 0.07698792 
0.0 0.0 0.0 0.0 0.0 0.07698792 
0.0 0.0 0.0 0.0 0.0 0.07698792 
0.0 0.0 0.0 0.0 0.0 0.07698792 
0.0 0.0 0.0 0.0 0.0 0.07698792 
0.0 0.0 0.0 0.0 0.0 0.07698792 
0.671861 0.0 0.0 0.09842383 0.26937336 0.71878785 
1.5550823 0.0 0.0 0.18490052 0.7297881 1.3639159 
1.8247895 0.0 0.0 0.29643255 1.1890935 1.3176143 
1.8005953 0.2722286 0.0 0.3740587 1.7483046 1.328213 
0.6416511 1.1607115 0.26378998 0.3996592 1.9033405 0.5914462 
0.031267926 1.2550336 1.4571961 0.21183063 1.6891656 0.0 
0.1600018 1.2341275 2.1836703 0.2519088 1.5057652 0.0 
0.17482229 1.2219462 2.2463818 0.31493798 1.3148344 0.0 
0.5149244 1.2133942 1.653775 0.23354113 1.1516986 0.0 
0.5150919 1.2173539 1.6551245 0.23454599 1.1529955 0.0 
0.51141363 1.21955 1.6556226 0.23500802 1.1554483 0.0 
0.5917149 1.224108 1.6023786 0.30026987 1.1825801 0.0 
0.7127931 1.2870045 1.300352 0.42086515 1.3854337 0.0 
0.8252161 1.2513459 0.74328464 0.48270586 1.9050834 0.0 
0.84456664 1.2822853 0.110042 0.6121632 2.4558933 0.55501574 
0.44677472 1.3878764 0.0 0.72937155 2.862767 0.98232275 
0.0 1.4582 0.0 0.57174313 2.8652055 1.050885 
0.0 1.0455743 0.24089456 0.35777378 2.2015297 0.8894903 
0.0 0.4296527 0.56529385 0.08154182 1.219731 0.6837516 
0.0 0.120284826 0.5449445 0.006590843 0.45935014 0.3994525 
0.0 0.0 0.22575411 0.0 0.13096021 0.18059291 
0.0 0.0 0.014043689 0.0 0.0 0.086609945 
0.0 0.0 0.0 0.0 0.0 0.07698792 
0.0 0.0 0.0 0.0 0.0 0.07698792 
0.0 0.0 0.0 0.0 0.0 0.07698792 
0.0 0.0 0.0 0.0 0.0 0.07698792 
0.0 0.0 0.0 0.0 0.0 0.07698792 
0.0 0.0 0.0 0.0 0.0 0.07698792 
0.4894672 0.0 0.0 0.0 0.3688742 0.5784314 
1.1952057 0.0 0.0 0.11447698 0.8735387 1.2993596 
1.3826675 0.0 0.0 0.26258302 1.2710834 1.5716734 
1.4697831 0.0 0.0 0.5474617 1.7524202 1.8368318 
0.90899044 0.44775146 0.0 1.050927 1.8787357 1.6529834 
0.51620907 0.92798686 0.47780925 1.1657876 1.8451604 1.2368836 
0.5260086 1.3107033 1.1722642 1.1529049 1.8261405 0.86628324 
0.5123069 1.5299879 1.4895478 1.0632404 1.738521 0.46965334 
0.6705518 1.8336309 1.4206908 1.0046766 1.6210545 0.24125248 
0.65286165 1.9247495 1.4546422 0.858748 1.6916491 0.14586025 
0.6310918 1.9452872 1.4430422 0.8479267 1.7152294 0.14014411 
0.60664946 1.8979157 1.2745594 0.84716487 1.9168314 0.26345575 
0.5082675 1.7900678 0.9212004 0.8842868 2.370331 0.5648104 
0.35262045 1.5739479 0.3805475 0.9269922 2.7622159 0.96001375 
0.07701239 1.3407365 0.0 0.9421345 2.9122183 1.33762 
0.0 1.059228 0.0 0.74083006 2.7860122 1.4346361 
0.0 0.82448316 0.0 0.43792465 2.072735 1.1721928 
0.0 0.48642343 0.3701929 0.16963927 1.1334721 0.78129596 
0.0 0.119063556 0.5317967 0.0025657034 0.51687825 0.474603 
0.0 0.0 0.3292982 0.0 0.17854808 0.20911144 
0.0 0.0 0.0 0.0 0.0021558255 0.09399967 
0.0 0.0 0.0 0.0 0.0 0.07812942 
0.0 0.0 0.0 0.0 0.0 0.07698792 
0.0 0.0 0.0 0.0 0.0 0.07698792 
0.0 0.0 0.0 0.0 0.0 0.07698792 
0.0 0.0 0.0 0.0 0.0 0.07698792 
0.0 0.0 0.0 0.0 0.0 0.07698792 
0.0 0.0 0.0 0.0 0.0 0.07698792 
0.2462461 0.0 0.0 0.0 0.25901932 0.35478094 
0.7737951 0.0 0.0 0.0 0.74240863 0.9321751 
1.0261261 0.0 0.0 0.0 1.2069358 1.4128349 
1.0743518 0.0 0.0 0.162937 1.5695641 1.7955976 
0.9187782 0.0 0.0 0.5455469 1.9991225 2.0029862 
0.7886544 0.0 0.0 0.92114586 2.2072952 2.067397 
0.78354 0.21267541 0.0 1.117784 2.3530076 2.0569923 
0.7612088 0.3618696 0.0 1.1187433 2.5643551 1.9691074 
0.67246395 0.58605796 0.0 1.1651453 2.6632197 1.9160771 
0.48544645 0.61863977 0.0 1.1016833 2.858997 1.8632104 
0.44061857 0.6346091 0.0 1.0892733 2.906131 1.8476446 
0.33689785 0.7304372 0.0 1.0807085 3.015862 1.8162763 
0.0 0.9505191 0.0 0.9925761 3.0909965 1.6810215 
0.0 0.9501796 0.0 0.7942541 2.9467804 1.6109715 
0.0 0.6830703 0.0 0.42562062 2.5671017 1.5844631 
0.0 0.4301726 0.0 0.044544425 1.8468539 1.2745576 
0.0 0.24877295 0.0 0.0 0.9224691 0.8150386 
0.0 0.0 0.20698252 0.0 0.46728078 0.49042925 
0.0 0.0 0.28208187 0.0 0.2277246 0.26517254 
0.0 0.0 0.08248747 0.0 0.034339312 0.095361404 
0.0 0.0 0.0 0.0 0.0 0.07698792 
0.0 0.0 0.0 0.0 0.0 0.07698792 
0.0 0.0 0.0 0.0 0.0 0.07698792 
0.0 0.0 0.0 0.0 0.0 0.07698792 
0.0 0.0 0.0 0.0 0.0 0.07698792 
0.0 0.0 0.0 0.0 0.0 0.07698792 
0.0 0.0 0.0 0.0 0.0 0.07698792 
0.0 0.0 0.0 0.0 0.0 0.07698792 
0.05891961 0.0 0.0 0.0 0.106600046 0.18040678 
0.3727793 0.0 0.0 0.0 0.47892365 0.4741121 
0.63223994 0.0 0.0 0.0 0.81989807 0.85597163 
0.78989285 0.0 0.0 0.0 1.1671709 1.3185234 
0.72652173 0.0 0.0 0.0 1.4830538 1.6311483 
0.6657916 0.0 0.0 0.0 1.7672668 1.8740861 
0.6237677 0.0 0.0 0.35283846 1.9792765 2.0367534 
0.529818 0.0 0.0 0.67075425 2.200562 1.9983954 
0.4441417 0.03366825 0.0 0.8748968 2.3659875 2.0574172 
0.37877792 0.1769202 0.0 1.0105592 2.4574072 2.0611484 
0.34420872 0.22642255 0.0 1.018583 2.4617825 2.0360591 
0.1939145 0.4011436 0.0 0.9411729 2.4130707 1.9013855 
0.0 0.5610822 0.0 0.65623844 2.254436 1.6397164 
0.0 0.45896515 0.0 0.24505615 1.8850799 1.393583 
0.0 0.19543216 0.0 0.0 1.3500134 1.0747576 
0.0 0.0 0.0 0.0 0.7394765 0.6449395 
0.0 0.0 0.0 0.0 0.3792703 0.38123152 
0.0 0.0 0.045884922 0.0 0.19875701 0.23699382 
0.0 0.0 0.071025796 0.0 0.039121192 0.10452067 
0.0 0.0 0.0 0.0 0.0 0.07812942 
0.0 0.0 0.0 0.0 0.0 0.07698792 
0.0 0.0 0.0 0.0 0.0 0.07698792 
0.0 0.0 0.0 0.0 0.0 0.07698792 
0.0 0.0 0.0 0.0 0.0 0.07698792 
0.0 0.0 0.0 0.0 0.0 0.07698792 
0.0 0.0 0.0 0.0 0.0 0.07698792 
0.0 0.0 0.0 0.0 0.0 0.07698792 
0.0 0.0 0.0 0.0 0.0 0.07698792 
0.0 0.0 0.0 0.0 0.0 0.09617308 
0.05456668 0.0 0.0 0.0 0.13348028 0.16473284 
0.22503296 0.0 0.0 0.0 0.39094827 0.30037254 
0.4194129 0.0 0.0 0.0 0.6529679 0.5392665 
0.46262473 0.0 0.0 0.0 0.91223943 0.77011985 
0.48346955 0.0 0.0 0.0 1.1198106 1.0622747 
0.52193576 0.0 0.0 0.0 1.3482667 1.3803794 
0.3934834 0.0 0.0 0.0 1.4547037 1.5213511 
0.39045298 0.0 0.0 0.0 1.488257 1.6373062 
0.2934218 0.0062498106 0.0 0.0 1.513576 1.6855822 
0.25513822 0.020657387 0.0 0.0 1.5091422 1.6650157 
0.11955893 0.004772379 0.0 0.0 1.4471103 1.4907997 
0.0 0.0 0.0 0.0 1.1331042 1.1012142 
0.0 0.0 0.0 0.0 0.7431287 0.7270821 
0.0 0.0 0.0 0.0 0.46174034 0.4592756 
0.0 0.0 0.0 0.0 0.23481576 0.23272526 
0.0 0.0 0.0 0.0 0.07014063 0.1323435 
0.0 0.0 0.0 0.0 0.0 0.094114974 
0.0 0.0 0.0 0.0 0.0 0.07850991 
0.0 0.0 0.0 0.0 0.0 0.07698792 
0.0 0.0 0.0 0.0 0.0 0.07698792 
0.0 0.0 0.0 0.0 0.0 0.07698792 
0.0 0.0 0.0 0.0 0.0 0.07698792 
0.0 0.0 0.0 0.0 0.0 0.07698792 
0.0 0.0 0.0 0.0 0.0 0.07698792 
0.0 0.0 0.0 0.0 0.0 0.07698792 
0.0 0.0 0.0 0.0 0.0 0.07698792 
0.0 0.0 0.0 0.0 0.0 0.07698792 
0.0 0.0 0.0 0.0 0.0 0.07698792 
0.0 0.0 0.0 0.0 0.0 0.07698792 
0.0 0.0 0.0 0.0 0.0 0.08688994 
0.039141595 0.0 0.0 0.0 0.111280516 0.15301979 
0.10334952 0.0 0.0 0.0 0.21218164 0.20749386 
0.20414528 0.0 0.0 0.0 0.446896 0.30288786 
0.29306284 0.0 0.0 0.0 0.6664458 0.44166088 
0.24057066 0.0 0.0 0.0 0.7948391 0.47265357 
0.2253282 0.0 0.0 0.0 0.8859988 0.5479772 
0.15449342 0.0 0.0 0.0 0.95693046 0.5690932 
0.12321116 0.0 0.0 0.0 0.93602103 0.5571451 
0.0 0.0 0.0 0.0 0.74005145 0.46944258 
0.0 0.0 0.0 0.0 0.4515619 0.32930383 
0.0 0.0 0.0 0.0 0.26472813 0.24246402 
0.0 0.0 0.0 0.0 0.11970545 0.1578764 
0.0 0.0 0.0068062544 0.0 0.0 0.08520669 
0.0 0.0 0.0 0.0 0.0 0.07698792 
0.0 0.0 0.0 0.0 0.0 0.07698792 
0.0 0.0 0.0 0.0 0.0 0.07698792 
0.0 0.0 0.0 0.0 0.0 0.07698792 
0.0 0.0 0.0 0.0 0.0 0.07698792 
0.0 0.0 0.0 0.0 0.0 0.07698792 
0.0 0.0 0.0 0.0 0.0 0.07698792 
0.0 0.0 0.0 0.0 0.0 0.07698792 
0.0 0.0 0.0 0.0 0.0 0.07698792 
0.0 0.0 0.0 0.0 0.0 0.07698792 
0.0 0.0 0.0 0.0 0.0 0.07698792 
0.0 0.0 0.0 0.0 0.0 0.07698792 
0.0 0.0 0.0 0.0 0.0 0.07698792 
0.0 0.0 0.0 0.0 0.0 0.07698792 
0.0 0.0 0.0 0.0 0.0 0.07698792 
0.0 0.0 0.0 0.0 0.0 0.07698792 
0.0 0.0 0.0 0.0 0.0 0.07698792 
0.0 0.0 0.0 0.0 0.0 0.07698792 
0.0 0.0 0.0 0.0 0.0 0.07698792 
0.0 0.0 0.0 0.0 0.0 0.07698792 
0.0 0.0 0.0 0.0 0.0 0.07698792 
0.0 0.0 0.0 0.0 0.0 0.07698792 
0.0 0.0 0.0 0.0 0.0 0.07698792 
0.0 0.0 0.0 0.0 0.0 0.07698792 
0.0 0.0 0.0 0.0 0.0 0.07698792 
0.0 0.0 0.0 0.0 0.0 0.07698792 
0.0 0.0 0.0 0.0 0.0 0.07698792 
0.0 0.0 0.0 0.0 0.0 0.07698792 
0.0 0.0 0.0 0.0 0.0 0.07698792 
0.0 0.0 0.0 0.0 0.0 0.07698792 
0.0 0.0 0.0 0.0 0.0 0.07698792 
0.0 0.0 0.0 0.0 0.0 0.07698792 
0.0 0.0 0.0 0.0 0.0 0.07698792 
0.0 0.0 0.0 0.0 0.0 0.07698792 
0.0 0.0 0.0 0.0 0.0 0.07698792 
0.0 0.0 0.0 0.0 0.0 0.07698792 
0.0 0.0 0.0 0.0 0.0 0.07698792 
0.0 0.0 0.0 0.0 0.0 0.07698792 
0.0 0.0 0.0 0.0 0.0 0.07698792 
0.0 0.0 0.0 0.0 0.0 0.07698792 
0.0 0.0 0.0 0.0 0.0 0.07698792 
0.0 0.0 0.0 0.0 0.0 0.07698792 
0.0 0.0 0.0 0.0 0.0 0.07698792 
0.0 0.0 0.0 0.0 0.0 0.07698792 
0.0 0.0 0.0 0.0 0.0 0.07698792 
0.0 0.0 0.0 0.0 0.0 0.07698792 
0.0 0.0 0.0 0.0 0.0 0.07698792 
0.0 0.0 0.0 0.0 0.0 0.07698792 
0.0 0.0 0.0 0.0 0.0 0.07698792 
0.0 0.0 0.0 0.0 0.0 0.07698792 
0.0 0.0 0.0 0.0 0.0 0.07698792 
0.0 0.0 0.0 0.0 0.0 0.07698792 
0.0 0.0 0.0 0.0 0.0 0.07698792 
0.0 0.0 0.0 0.0 0.0 0.07698792 
0.0 0.0 0.0 0.0 0.0 0.07698792 
0.0 0.0 0.0 0.0 0.0 0.07698792 
0.0 0.0 0.0 0.0 0.0 0.07698792 
0.0 0.0 0.0 0.0 0.0 0.07698792 
0.0 0.0 0.0 0.0 0.0 0.07698792 
0.0 0.0 0.0 0.0 0.0 0.07698792 
0.0 0.0 0.0 0.0 0.0 0.07698792 
0.0 0.0 0.0 0.0 0.0 0.07698792 
0.0 0.0 0.0 0.0 0.0 0.07698792 
0.0 0.0 0.0 0.0 0.0 0.07698792 
0.0 0.0 0.0 0.0 0.0 0.07698792 
0.0 0.0 0.0 0.0 0.0 0.07698792 

