0.0 0.0 0.0 0.0 0.0 0.07698792 
0.0 0.0 0.0 0.0 0.0 0.07698792 
0.0 0.0 0.0 0.0 0.0 0.07698792 
0.0 0.0 0.0 0.0 0.0 0.07698792 
0.0 0.0 0.0 0.0 0.0 0.07698792 
0.0 0.0 0.0 0.0 0.0 0.07698792 
0.0 0.0 0.0 0.0 0.0 0.07698792 
0.0 0.0 0.0 0.0 0.0 0.07698792 
0.0 0.0 0.0 0.0 0.0 0.07698792 
0.0 0.0 0.0 0.0 0.0 0.07698792 
0.0 0.0 0.0 0.0 0.0 0.07698792 
0.0 0.0 0.0 0.0 0.0 0.07698792 
0.0 0.0 0.0 0.0 0.0 0.07698792 
0.0 0.0 0.0 0.0 0.0 0.07698792 
0.0 0.0 0.0 0.0 0.0 0.07698792 
0.0 0.0 0.0 0.0 0.0 0.07698792 
0.0 0.0 0.0 0.0 0.0 0.07698792 
0.0 0.0 0.0 0.0 0.0 0.07698792 
0.0 0.0 0.0 0.0 0.0 0.07698792 
0.0 0.0 0.0 0.0 0.0 0.07698792 
0.0 0.0 0.0 0.0 0.0 0.07698792 
0.0 0.0 0.0 0.0 0.0 0.07698792 
0.0 0.0 0.0 0.0 0.0 0.07698792 
0.0 0.0 0.0 0.0 0.0 0.07698792 
0.0 0.0 0.0 0.0 0.0 0.07698792 
0.0 0.0 0.0 0.0 0.0 0.07698792 
0.0 0.0 0.0 0.0 0.0 0.07698792 
0.0 0.0 0.0 0.0 0.0 0.07698792 
0.0 0.0 0.0 0.0 0.0 0.07698792 
0.0 0.0 0.0 0.0 0.0 0.07698792 
0.0 0.0 0.0 0.0 0.0 0.07698792 
0.0 0.0 0.0 0.0 0.0 0.07698792 
0.0 0.0 0.0 0.0 0.0 0.07698792 
0.0 0.0 0.0 0.0 0.0 0.07698792 
0.0 0.0 0.0 0.0 0.0 0.07698792 
0.0 0.0 0.0 0.0 0.0 0.07698792 
0.0 0.0 0.0 0.0 0.0 0.07698792 
0.0 0.0 0.0 0.0 0.0 0.07698792 
0.0 0.0 0.0 0.0 0.0 0.07698792 
0.0 0.0 0.0 0.0 0.0 0.07698792 
0.0 0.0 0.0 0.0 0.0 0.07698792 
0.0 0.0 0.0 0.0 0.0 0.07698792 
0.0 0.0 0.0 0.0 0.0 0.07698792 
0.0 0.0 0.0 0.0 0.0 0.07698792 
0.0 0.0 0.0 0.0 0.0 0.07698792 
0.0 0.0 0.0 0.0 0.0 0.07698792 
0.0 0.0 0.0 0.0 0.0 0.07698792 
0.0 0.0 0.0 0.0 0.0 0.07698792 
0.0 0.0 0.0 0.0 0.0 0.07698792 
0.0 0.0 0.0 0.0 0.0 0.07698792 
0.0 0.0 0.0 0.0 0.0 0.07698792 
0.0 0.0 0.0 0.0 0.0 0.07698792 
0.0 0.0 0.0 0.0 0.0 0.07698792 
0.0 0.0 0.0 0.0 0.0 0.07698792 
0.0 0.0 0.0 0.0 0.0 0.07698792 
0.0 0.0 0.0 0.0 0.0 0.07698792 
0.0 0.0 0.0 0.0 0.0 0.07698792 
0.0 0.0 0.0 0.0 0.0 0.07698792 
0.0 0.0 0.0 0.0 0.0 0.07698792 
0.0 0.0 0.0 0.0 0.0 0.07698792 
0.0 0.0 0.0 0.0 0.0 0.07698792 
0.0 0.0 0.0 0.0 0.0 0.07698792 
0.0 0.0 0.0 0.0 0.0 0.07698792 
0.0 0.0 0.0 0.0 0.0 0.07698792 
0.0 0.0 0.0 0.0 0.0 0.07698792 
0.0 0.0 0.0 0.0 0.0 0.07698792 
0.0 0.0 0.0 0.0 0.0 0.07698792 
0.0 0.0 0.0 0.0 0.0 0.06529765 
0.02148597 0.0 0.030866079 0.0 0.0 0.00594151 
0.12063824 0.033781197 0.11134664 0.0 0.0 0.0 
0.233073 0.110937916 0.24929845 0.0 0.0 0.0 
0.33173525 0.27857408 0.3578413 0.0 0.0 0.0 
0.24741209 0.46385852 0.33588335 0.0 0.0 0.0 
0.038765565 0.5135117 0.26157168 0.0 0.0 0.0 
0.0 0.40776908 0.1805956 0.0 0.06713949 0.0 
0.0 0.2261225 0.05323296 0.0 0.0777328 0.0 
0.0 0.05345967 0.0 0.0 0.0014149211 0.019668002 
0.0 0.0 0.0 0.0 0.0 0.07698792 
0.0 0.0 0.0 0.0 0.0 0.07698792 
0.0 0.0 0.0 0.0 0.0 0.07698792 
0.0 0.0 0.0 0.0 0.0 0.07698792 
0.0 0.0 0.0 0.0 0.0 0.07698792 
0.0 0.0 0.0 0.0 0.0 0.07698792 
0.0 0.0 0.0 0.0 0.0 0.07698792 
0.0 0.0 0.0 0.0 0.0 0.07698792 
0.0 0.0 0.0 0.0 0.0 0.07698792 
0.0 0.0 0.0 0.0 0.0 0.07698792 
0.0 0.0 0.0 0.0 0.0 0.07698792 
0.0 0.0 0.0 0.0 0.0 0.07698792 
0.0 0.0 0.0 0.0 0.0 0.07698792 
0.0 0.0 0.0 0.0 0.0 0.07698792 
0.0 0.0 0.0 0.0 0.0 0.07698792 
0.0 0.0 0.0 0.0 0.0 0.07698792 
0.0 0.0 0.0051675886 0.0 0.0 0.04757368 
0.1285797 0.0 0.12140571 0.0 0.0 0.0 
0.29215628 0.07661559 0.22829324 0.0 0.0 0.0 
0.44171244 0.1933208 0.3409918 0.0 0.0 0.0 
0.5875674 0.35402313 0.45944512 0.0 0.0 0.0 
0.71460015 0.5118704 0.55562806 0.0 0.0 0.0 
0.75953597 0.6857592 0.72545815 0.0 0.0 0.0 
0.6058215 0.96883553 0.89926445 0.0 0.019977394 0.0 
0.083896995 1.2896202 0.8704193 0.0 0.40518942 0.0 
0.0 1.0408993 0.75197834 0.0 0.6181131 0.0 
0.0 0.5388299 0.43751234 0.0 0.516883 0.0 
0.0 0.14828332 0.06635684 0.0 0.23204179 0.0 
0.0 0.009131297 0.0 0.0 0.0 0.060834125 
0.0 0.0 0.0 0.0 0.0 0.07698792 
0.0 0.0 0.0 0.0 0.0 0.07698792 
0.0 0.0 0.0 0.0 0.0 0.07698792 
0.0 0.0 0.0 0.0 0.0 0.07698792 
0.0 0.0 0.0 0.0 0.0 0.07698792 
0.0 0.0 0.0 0.0 0.0 0.07698792 
0.0 0.0 0.0 0.0 0.0 0.07698792 
0.0 0.0 0.0 0.0 0.0 0.07698792 
0.0 0.0 0.0 0.0 0.0 0.07698792 
0.0 0.0 0.0 0.0 0.0 0.07698792 
0.0 0.0 0.0 0.0 0.0 0.07698792 
0.0 0.0 0.0 0.0 0.0 0.07698792 
0.0 0.0 0.0 0.0 0.0 0.055492893 
0.074421495 0.0 0.073092066 0.0 0.0 0.0 
0.21038619 0.05502417 0.19954044 0.0 0.0 0.0 
0.37395436 0.15215524 0.29135367 0.0 0.0 0.0 
0.5636174 0.23091371 0.38870296 0.0 0.0 0.0 
0.81833714 0.3420268 0.48176545 0.0 0.0 0.0 
0.98487383 0.5408334 0.60381067 0.0 0.0 0.0 
0.90829897 0.7232404 0.74312556 0.0 0.041831616 0.0 
0.78908545 0.7216707 0.8533567 0.0 0.4251074 0.0 
0.7234065 0.80221134 1.0331793 0.0 0.7056463 0.0 
0.47945267 1.1352837 1.3285382 0.0 0.8936681 0.0 
0.0 1.6721787 1.5893583 0.0 1.2089409 0.0 
0.0 1.6807427 1.580022 0.0 1.2310733 0.0 
0.0 1.1475348 1.2054429 0.0 0.8925405 0.0 
0.0 0.32439986 0.36889994 0.0 0.5093187 0.0 
0.0 0.014763352 0.0 0.0 0.010207731 0.043428503 
0.0 0.0 0.0 0.0 0.0 0.07698792 
0.0 0.0 0.0 0.0 0.0 0.07698792 
0.0 0.0 0.0 0.0 0.0 0.07698792 
0.0 0.0 0.0 0.0 0.0 0.07698792 
0.0 0.0 0.0 0.0 0.0 0.07698792 
0.0 0.0 0.0 0.0 0.0 0.07698792 
0.0 0.0 0.0 0.0 0.0 0.07698792 
0.0 0.0 0.0 0.0 0.0 0.07698792 
0.0 0.0 0.0 0.0 0.0 0.07698792 
0.0 0.0 0.0 0.0 0.0 0.07698792 
0.0 0.0 0.0 0.0 0.0 0.07698792 
0.001997985 0.0 0.03488095 0.0 0.0 0.033620764 
0.24093589 0.0 0.15795198 0.0 0.0 0.0 
0.49519587 0.04831533 0.25889468 0.0 0.0 0.0 
0.70644706 0.21208541 0.3931145 0.0 0.0 0.0 
0.92064375 0.42145628 0.5567305 0.0 0.0 0.0 
0.98574406 0.5693481 0.6020905 0.0 0.0 0.0 
0.8405749 0.66085553 0.5996009 0.0 0.4093741 0.0 
0.62388384 0.722903 0.59683824 0.030870866 0.9512455 0.0 
0.44185346 0.8769269 0.6170496 0.63952154 1.4193352 0.0 
0.47454005 0.9191002 0.70546925 1.1341232 1.5737721 0.43472692 
0.71378773 1.0554137 0.7726202 1.3254266 1.5354763 0.67158663 
0.62329245 1.308429 0.9826311 1.1523565 1.4542409 0.42450294 
0.0 2.0252633 1.6146514 0.8716895 1.4882355 0.0 
0.0 2.1095607 2.0771933 0.50199103 1.5030051 0.0 
0.0 1.5412797 1.9344724 0.19932213 1.1589044 0.0 
0.0 0.567751 0.83419406 0.0 0.6599341 0.0 
0.0 0.041009024 0.023154885 0.0 0.041034866 0.041206166 
0.0 0.0 0.0 0.0 0.0 0.07698792 
0.0 0.0 0.0 0.0 0.0 0.07698792 
0.0 0.0 0.0 0.0 0.0 0.07698792 
0.0 0.0 0.0 0.0 0.0 0.07698792 
0.0 0.0 0.0 0.0 0.0 0.07698792 
0.0 0.0 0.0 0.0 0.0 0.07698792 
0.0 0.0 0.0 0.0 0.0 0.07698792 
0.0 0.0 0.0 0.0 0.0 0.07698792 
0.0 0.0 0.0 0.0 0.0 0.07698792 
0.0 0.0 0.0 0.0 0.0 0.07698792 
0.0 0.0 0.0 0.0 0.0 0.06454343 
0.18773651 0.0 0.09561416 0.0 0.0 0.0 
0.6932344 0.0 0.15709382 0.0 0.0 0.0 
1.079046 0.0 0.27183855 0.0 0.0 0.0 
1.2194905 0.37271443 0.49087936 0.0 0.0 0.0 
0.8993231 0.78197813 0.64742696 0.0 0.56145936 0.0 
0.5394165 0.93941355 0.6473729 0.28798595 1.3101367 0.0 
0.35183272 1.1300471 0.5093099 0.84973717 1.8458177 0.2538768 
0.19102573 1.1590697 0.28773028 1.2458531 2.1869044 0.90463454 
0.08013272 1.0293673 0.09244458 1.4537917 2.2954357 1.341845 
0.3961106 0.60279655 0.0 1.3139524 2.074545 1.6042936 
1.0622778 0.39632097 0.0 1.042815 1.8163049 1.631434 
1.2365177 0.62243736 0.0 0.7615707 1.6910764 1.2372639 
0.23488322 1.6817882 0.44828284 0.51202357 1.7734543 0.2920259 
0.0 1.9039756 1.5678548 0.27029505 1.8810359 0.0 
0.0 1.348222 2.018679 0.22557226 1.4076551 0.0 
0.0 0.55004036 1.1404887 0.10749528 0.7108179 0.0 
0.0 0.056092523 0.0862238 0.03650909 0.023179065 0.06981542 
0.0 0.0 0.0 0.0 0.0 0.07698792 
0.0 0.0 0.0 0.0 0.0 0.07698792 
0.0 0.0 0.0 0.0 0.0 0.07698792 
0.0 0.0 0.0 0.0 0.0 0.07698792 
0.0 0.0 0.0 0.0 0.0 0.07698792 
0.0 0.0 0.0 0.0 0.0 0.07698792 
0.0 0.0 0.0 0.0 0.0 0.07698792 
0.0 0.0 0.0 0.0 0.0 0.07698792 
0.0 0.0 0.0 0.0 0.0 0.07698792 
0.0 0.0 0.0 0.0 0.0 0.07698792 
0.0 0.0 0.0 0.0 0.0 0.076220155 
0.40794468 0.0 0.0 0.0 0.0 0.15269026 
1.1826138 0.0 0.0 0.04782291 0.0 0.14841306 
1.4421568 0.01703044 0.0 0.23755336 0.074241474 0.0 
1.0439162 0.7897171 0.17443043 0.6299812 0.8662227 0.0 
0.4779905 1.2474198 0.44227102 0.85330486 1.9733251 0.3711639 
0.13434073 1.4449071 0.34276775 1.1273066 2.4814594 0.89185077 
0.0 1.2380925 0.022831 1.1473954 2.5374613 1.3050067 
0.0 0.8636361 0.0 0.8591568 2.3564565 1.5653875 
0.050432727 0.61249787 0.0 0.44495746 1.9688269 1.6301451 
0.6019179 0.0 0.0 0.04955354 1.4446204 1.7357523 
1.4122348 0.0 0.0 0.0 1.2392792 1.6736383 
1.5962253 0.030170862 0.0 0.0 1.5741276 1.1943429 
0.3282534 1.3928672 0.0 0.0 1.9091662 0.30579585 
0.0 1.6995723 1.093431 0.0 2.0097115 0.0 
0.0 1.1579926 1.7546484 0.05456133 1.4413344 0.06548205 
0.0 0.3872519 1.1157839 0.05088703 0.67531633 0.055600516 
0.0 0.03683067 0.09429645 0.046904456 0.0 0.088547245 
0.0 0.0 0.0 0.0 0.0 0.07698792 
0.0 0.0 0.0 0.0 0.0 0.07698792 
0.0 0.0 0.0 0.0 0.0 0.07698792 
0.0 0.0 0.0 0.0 0.0 0.07698792 
0.0 0.0 0.0 0.0 0.0 0.07698792 
0.0 0.0 0.0 0.0 0.0 0.07698792 
0.0 0.0 0.0 0.0 0.0 0.07698792 
0.0 0.0 0.0 0.0 0.0 0.07698792 
0.0 0.0 0.0 0.0 0.0 0.07698792 
0.0 0.0 0.0 0.0 0.0 0.07698792 
0.0 0.0 0.0 0.012194009 0.0 0.1176341 
0.49062407 0.0 0.0 0.24059469 0.0 0.5284775 
1.1670284 0.0 0.0 0.63985014 0.24710836 0.9815839 
1.3208897 0.0 0.0 1.0375035 1.1244906 1.1685507 
0.8284727 0.74515486 0.0 1.3002838 1.9885474 1.4071891 
0.020084403 1.1690863 0.0 1.1915253 2.575465 1.4409544 
0.0 0.9651432 0.0 0.74692684 2.4981875 1.4452963 
0.0 0.5850606 0.0 0.22412078 1.9920396 1.4251845 
0.0 0.16933957 0.0 0.0 1.4803456 1.1986544 
0.0318558 0.0 0.0 0.0 1.0033566 0.84642744 
0.86335427 0.0 0.0 0.0 0.6462161 0.8624561 
1.7260668 0.0 0.0 0.0 0.87295187 0.94214803 
1.6551831 0.031450585 0.0 0.0 1.5814265 0.583901 
0.20762166 1.3616558 0.0 0.0 2.068444 0.1397862 
0.0 1.5981605 0.9626665 0.0 1.9863774 0.0 
0.0 0.9549507 1.5517107 0.027904946 1.3384913 0.23024075 
0.0 0.20740433 0.9246985 0.04540835 0.54627377 0.102844775 
0.0 0.0 0.03119903 0.0052763755 0.0 0.08947248 
0.0 0.0 0.0 0.0 0.0 0.07698792 
0.0 0.0 0.0 0.0 0.0 0.07698792 
0.0 0.0 0.0 0.0 0.0 0.07698792 
0.0 0.0 0.0 0.0 0.0 0.07698792 
0.0 0.0 0.0 0.0 0.0 0.07698792 
0.0 0.0 0.0 0.0 0.0 0.07698792 
0.0 0.0 0.0 0.0 0.0 0.07698792 
0.0 0.0 0.0 0.0 0.0 0.07698792 
0.0 0.0 0.0 0.0 0.0 0.07698792 
0.0 0.0 0.0 0.0 0.0 0.07698792 
0.0 0.0 0.0 0.033135857 0.0 0.14044926 
0.54700476 0.0 0.0 0.2155262 0.29461023 0.7095537 
1.0524125 0.0 0.0 0.34396264 0.97594947 1.2904177 
0.8561418 0.0 0.0 0.52978796 1.5348884 1.3882365 
0.44289523 0.34380245 0.0 0.5434932 1.8853065 1.5735981 
0.0 0.56501466 0.0 0.31634754 1.9011217 1.4985547 
0.0 0.2920883 0.0 0.0 1.420885 1.1042871 
0.0 0.0 0.0 0.0 0.8915016 0.742665 
0.0 0.0 0.0 0.0 0.54047006 0.46002632 
0.08095777 0.0 0.0 0.0 0.0 0.22428185 
1.2495782 0.0 0.0 0.0 0.0 0.41932368 
2.0231786 0.0 0.0 0.0 0.6702725 0.58118963 
1.4226224 0.76803803 0.0 0.0 1.6581081 0.25991312 
0.0 1.6090384 0.0 0.0 2.2104132 0.03360343 
0.0 1.4079374 1.0995609 0.100405484 1.8701814 0.08532807 
0.0 0.6079133 1.3423123 0.09761551 1.172902 0.32891962 
0.0 0.12410395 0.7201401 0.12869571 0.3097478 0.13198666 
0.0 0.0 0.0 0.0 0.0 0.07972751 
0.0 0.0 0.0 0.0 0.0 0.07698792 
0.0 0.0 0.0 0.0 0.0 0.07698792 
0.0 0.0 0.0 0.0 0.0 0.07698792 
0.0 0.0 0.0 0.0 0.0 0.07698792 
0.0 0.0 0.0 0.0 0.0 0.07698792 
0.0 0.0 0.0 0.0 0.0 0.07698792 
0.0 0.0 0.0 0.0 0.0 0.07698792 
0.0 0.0 0.0 0.0 0.0 0.07698792 
0.0 0.0 0.0 0.0 0.0 0.07698792 
0.0 0.0 0.0 0.0 0.0 0.07698792 
0.0 0.0 0.0 0.0 0.0 0.12525189 
0.4008696 0.0 0.0 0.0 0.4083422 0.53054917 
0.71299577 0.0 0.0 0.0 0.8760217 0.9984985 
0.50683343 0.0 0.0 0.0 1.0941056 1.0892944 
0.22951946 0.0 0.0 0.0 1.0979134 1.0720454 
0.0 0.0 0.0 0.0 0.82831174 0.79831237 
0.0 0.0 0.0 0.0 0.48329934 0.47499016 
0.0 0.0 0.0 0.0 0.26285788 0.27820283 
0.0 0.0 0.17847261 0.0 0.0 0.0774826 
0.6622104 0.0 0.0 0.0 0.0 0.078999594 
1.6801491 0.0 0.0 0.0 0.0 0.30319673 
2.039455 0.14819527 0.0 0.0 1.0297478 0.31543165 
0.8339254 1.3853325 0.0 0.0 2.0249255 0.157916 
0.0 1.7651982 0.077929474 0.0 2.2640111 0.09050012 
0.0 1.1723357 1.2221007 0.06047141 1.6130276 0.27613407 
0.0 0.37933594 1.1222334 0.09531344 0.80960333 0.31619936 
0.0 0.056692652 0.48370105 0.111548334 0.09886511 0.13514963 
0.0 0.0 0.0 0.0 0.0 0.07698792 
0.0 0.0 0.0 0.0 0.0 0.07698792 
0.0 0.0 0.0 0.0 0.0 0.07698792 
0.0 0.0 0.0 0.0 0.0 0.07698792 
0.0 0.0 0.0 0.0 0.0 0.07698792 
0.0 0.0 0.0 0.0 0.0 0.07698792 
0.0 0.0 0.0 0.0 0.0 0.07698792 
0.0 0.0 0.0 0.0 0.0 0.07698792 
0.0 0.0 0.0 0.0 0.0 0.07698792 
0.0 0.0 0.0 0.0 0.0 0.07698792 
0.0 0.0 0.0 0.0 0.0 0.07698792 
0.0 0.0 0.0 0.0 0.0 0.09184095 
0.14463806 0.0 0.0 0.0 0.27295384 0.22445503 
0.30109748 0.0 0.0 0.0 0.511337 0.3514275 
0.17557386 0.0 0.0 0.0 0.47380874 0.3213257 
0.0 0.0 0.0 0.0 0.35722342 0.30674213 
0.0 0.0 0.0 0.0 0.27229074 0.25395364 
0.0 0.0 0.0 0.0 0.11670478 0.14779103 
0.0 0.0 0.109636135 0.0 0.0 0.0077797994 
0.36121282 0.0 0.12927908 0.0 0.0 0.0 
1.2422614 0.0 0.0 0.0 0.0 0.06941572 
2.0167377 0.0 0.0 0.0 0.37817463 0.2419308 
1.6896672 0.87730765 0.0 0.0 1.5064673 0.1334301 
0.20069575 1.6876057 0.0 0.0 2.3643422 0.023489878 
0.0 1.760884 0.67339754 0.0 2.0809224 0.022468269 
0.0 0.8342745 1.1748155 0.0 1.3697509 0.23812942 
0.0 0.20555902 0.7998247 0.0 0.55860084 0.21793412 
0.0 0.0 0.16768238 0.0 0.039791297 0.10787943 
0.0 0.0 0.0 0.0 0.0 0.07698792 
0.0 0.0 0.0 0.0 0.0 0.07698792 
0.0 0.0 0.0 0.0 0.0 0.07698792 
0.0 0.0 0.0 0.0 0.0 0.07698792 
0.0 0.0 0.0 0.0 0.0 0.07698792 
0.0 0.0 0.0 0.0 0.0 0.07698792 
0.0 0.0 0.0 0.0 0.0 0.07698792 
0.0 0.0 0.0 0.0 0.0 0.07698792 
0.0 0.0 0.0 0.0 0.0 0.07698792 
0.0 0.0 0.0 0.0 0.0 0.07698792 
0.0 0.0 0.0 0.0 0.0 0.07698792 
0.0 0.0 0.0 0.0 0.0 0.07698792 
0.0 0.0 0.0 0.0 0.0 0.07698792 
0.0 0.0 0.0 0.0 0.0 0.07698792 
0.0 0.0 0.0 0.0 0.0 0.07698792 
0.0 0.0 0.0 0.0 0.0 0.06492054 
0.09012884 0.0 0.11059483 0.0 0.0 0.0 
0.30572784 0.05702907 0.20696509 0.0 0.0 0.0 
0.45859998 0.12505424 0.29745713 0.0 0.0 0.0 
0.9255448 0.0056399098 0.2800927 0.0 0.0 0.0 
1.7116394 0.0 0.0013466105 0.0 0.14052093 0.0 
2.0227194 0.42362764 0.0 0.0 1.1313776 0.019076988 
1.2391958 1.2711879 0.0 0.0 1.9981121 0.0 
0.0 1.9799945 0.15579659 0.0 2.276868 0.0 
0.0 1.7213873 1.3435326 0.0 1.8145384 0.0 
0.0 0.87885165 1.4155791 0.0 1.1819459 0.0 
0.0 0.23528849 0.6882522 0.0 0.48364797 0.0 
0.0 0.0 0.0 0.0 0.0075545125 0.04866073 
0.0 0.0 0.0 0.0 0.0 0.07698792 
0.0 0.0 0.0 0.0 0.0 0.07698792 
0.0 0.0 0.0 0.0 0.0 0.07698792 
0.0 0.0 0.0 0.0 0.0 0.07698792 
0.0 0.0 0.0 0.0 0.0 0.07698792 
0.0 0.0 0.0 0.0 0.0 0.07698792 
0.0 0.0 0.0 0.0 0.0 0.07698792 
0.0 0.0 0.0 0.0 0.0 0.07698792 
0.0 0.0 0.0 0.0 0.0 0.07698792 
0.0 0.0 0.0 0.0 0.0 0.07698792 
0.0 0.0 0.0 0.0 0.0 0.07698792 
0.0 0.0 0.0 0.0 0.0 0.07698792 
0.0 0.0 0.0 0.0 0.0 0.07698792 
0.0 0.0 0.0 0.0 0.0 0.07698792 
0.0 0.0 0.0 0.0 0.0 0.067183174 
0.11621566 0.0 0.11434867 0.0 0.0 0.0 
0.48501426 0.0 0.1681962 0.0 0.0 0.0 
0.7950162 0.025241107 0.32514238 0.0 0.0 0.0 
1.0899127 0.29446208 0.44836646 0.0 0.0 0.0 
1.2975938 0.54951984 0.5040176 0.0 0.107760966 0.0 
1.5010283 0.5774724 0.110564925 0.0 1.1944146 0.0 
1.470639 0.91972846 0.0 0.0 1.93626 0.13327152 
0.90368956 1.3941368 0.0 0.0 2.1715167 0.054152533 
0.0 2.0138218 0.9151127 0.0 1.9970654 0.0 
0.0 1.8436004 1.7824941 0.0 1.6930513 0.0 
0.0 1.2829475 1.7969581 0.0 1.2064141 0.0 
0.0 0.44156143 0.80404615 0.0 0.6591837 0.0 
0.0 0.09214754 0.012166493 0.0 0.13455485 0.0 
0.0 0.0 0.0 0.0 0.0 0.07698792 
0.0 0.0 0.0 0.0 0.0 0.07698792 
0.0 0.0 0.0 0.0 0.0 0.07698792 
0.0 0.0 0.0 0.0 0.0 0.07698792 
0.0 0.0 0.0 0.0 0.0 0.07698792 
0.0 0.0 0.0 0.0 0.0 0.07698792 
0.0 0.0 0.0 0.0 0.0 0.07698792 
0.0 0.0 0.0 0.0 0.0 0.07698792 
0.0 0.0 0.0 0.0 0.0 0.07698792 
0.0 0.0 0.0 0.0 0.0 0.07698792 
0.0 0.0 0.0 0.0 0.0 0.07698792 
0.0 0.0 0.0 0.0 0.0 0.07698792 
0.0 0.0 0.0 0.0 0.0 0.07698792 
0.0 0.0 0.0 0.0 0.0 0.07698792 
0.0 0.0 0.0 0.0 0.0 0.06918372 
0.3266883 0.0 0.04277698 0.0 0.0 0.034650903 
1.0268462 0.0 0.09502634 0.0 0.0 0.0 
1.3482618 0.0 0.16644588 0.0 0.0 0.0 
1.1430945 0.6252596 0.39140114 0.13607499 0.42430475 0.0 
0.83260614 0.8510424 0.3551451 0.32852432 1.6381828 0.0 
0.82287884 0.96469116 0.0 0.7055485 2.3728304 0.72336954 
0.8679994 0.8036995 0.0 0.8614801 2.5173173 1.2455878 
0.7644002 0.89948606 0.0 0.8350144 2.2268019 1.1773307 
0.0 1.33536 0.95814455 0.5754439 1.7895105 0.27307692 
0.0 1.7273328 1.9262441 0.24250266 1.6450323 0.0 
0.0 1.6030275 2.1309557 0.0 1.3979894 0.0 
0.0 0.95517254 1.2895808 0.0 0.8618165 0.0 
0.0 0.2042858 0.20812571 0.0 0.37115934 0.0 
0.0 0.00800906 0.0 0.0 0.0 0.061876304 
0.0 0.0 0.0 0.0 0.0 0.07698792 
0.0 0.0 0.0 0.0 0.0 0.07698792 
0.0 0.0 0.0 0.0 0.0 0.07698792 
0.0 0.0 0.0 0.0 0.0 0.07698792 
0.0 0.0 0.0 0.0 0.0 0.07698792 
0.0 0.0 0.0 0.0 0.0 0.07698792 
0.0 0.0 0.0 0.0 0.0 0.07698792 
0.0 0.0 0.0 0.0 0.0 0.07698792 
0.0 0.0 0.0 0.0 0.0 0.07698792 
0.0 0.0 0.0 0.0 0.0 0.07698792 
0.0 0.0 0.0 0.0 0.0 0.07698792 
0.0 0.0 0.0 0.0 0.0 0.07698792 
0.0 0.0 0.0 0.0 0.0 0.07698792 
0.0 0.0 0.0 0.009350895 0.0 0.11380386 
0.46427494 0.0 0.0 0.1343739 0.0 0.38958058 
1.1942894 0.0 0.0 0.5109563 0.0 0.638421 
1.3832119 0.026206173 0.0 0.88546354 0.65846854 0.70719725 
0.8667392 0.86066717 0.0 1.211463 1.6047875 0.894933 
0.3497456 1.1718038 0.0 1.1923344 2.543709 1.1803856 
0.06829247 1.0128549 0.0 1.1746163 2.7366278 1.5617318 
0.330204 0.34791484 0.0 0.99578565 2.414876 1.8612621 
0.8565971 0.14422098 0.0 0.9664786 1.8210535 1.8104999 
0.79482716 0.61203 0.08035279 0.7622465 1.4060334 1.0089265 
0.0 1.6806914 1.3917587 0.61084616 1.3872296 0.0 
0.0 1.8012391 2.1710334 0.258028 1.4643193 0.0 
0.0 1.3527033 1.8653597 0.0 1.0784107 0.0 
0.0 0.4411644 0.59295785 0.0 0.5519367 0.0 
0.0 0.014834409 0.0 0.0 0.0072884075 0.04414802 
0.0 0.0 0.0 0.0 0.0 0.07698792 
0.0 0.0 0.0 0.0 0.0 0.07698792 
0.0 0.0 0.0 0.0 0.0 0.07698792 
0.0 0.0 0.0 0.0 0.0 0.07698792 
0.0 0.0 0.0 0.0 0.0 0.07698792 
0.0 0.0 0.0 0.0 0.0 0.07698792 
0.0 0.0 0.0 0.0 0.0 0.07698792 
0.0 0.0 0.0 0.0 0.0 0.07698792 
0.0 0.0 0.0 0.0 0.0 0.07698792 
0.0 0.0 0.0 0.0 0.0 0.07698792 
0.0 0.0 0.0 0.0 0.0 0.07698792 
0.0 0.0 0.0 0.0 0.0 0.07698792 
0.0 0.0 0.0 0.0 0.0 0.07698792 
0.0 0.0 0.0 0.034078695 0.0 0.14701721 
0.53090435 0.0 0.0 0.2948725 0.113381386 0.67525065 
1.121717 0.0 0.0 0.50227606 0.7356432 1.2332182 
1.115969 0.0 0.0 0.816245 1.4943537 1.4121387 
0.6093113 0.5605027 0.0 0.9242211 2.0181556 1.5437624 
0.0 0.9076801 0.0 0.78469837 2.273683 1.5902717 
0.0 0.5536236 0.0 0.2979078 2.0965936 1.6467383 
0.44820362 0.0 0.0 0.007037581 1.6200311 1.8391824 
1.2169962 0.0 0.0 0.0 1.281915 1.8383393 
1.3784506 0.0 0.0 0.058138665 1.1565617 1.2502918 
0.33726943 1.1450323 0.13817954 0.15205052 1.4104258 0.20412113 
0.0 1.8138486 1.667928 0.20591296 1.578417 0.0 
0.0 1.3872696 2.0933385 0.048892625 1.3243027 0.0 
0.0 0.5812795 0.99527335 0.0 0.70390064 0.0 
0.0 0.04296267 0.021228902 0.0 0.043739263 0.03765872 
0.0 0.0 0.0 0.0 0.0 0.07698792 
0.0 0.0 0.0 0.0 0.0 0.07698792 
0.0 0.0 0.0 0.0 0.0 0.07698792 
0.0 0.0 0.0 0.0 0.0 0.07698792 
0.0 0.0 0.0 0.0 0.0 0.07698792 
0.0 0.0 0.0 0.0 0.0 0.07698792 
0.0 0.0 0.0 0.0 0.0 0.07698792 
0.0 0.0 0.0 0.0 0.0 0.07698792 
0.0 0.0 0.0 0.0 0.0 0.07698792 
0.0 0.0 0.0 0.0 0.0 0.07698792 
0.0 0.0 0.0 0.0 0.0 0.07698792 
0.0 0.0 0.0 0.0 0.0 0.07698792 
0.0 0.0 0.0 0.0 0.0 0.07698792 
0.0 0.0 0.0 0.0049515283 0.0 0.13716036 
0.49594742 0.0 0.0 0.030950025 0.41946638 0.6438872 
0.89450675 0.0 0.0 0.009938342 0.9641033 1.1867268 
0.6746659 0.0 0.0 0.0 1.2990028 1.2767437 
0.29582462 0.11236034 0.0 0.0 1.4739567 1.3352101 
0.0 0.084281355 0.0 0.0 1.36658 1.131325 
0.0 0.0 0.0 0.0 1.1144942 0.8455504 
0.44371688 0.0 0.0 0.0 0.8653648 0.9341992 
1.4931378 0.0 0.0 0.0 0.8659635 1.1947956 
1.8193598 0.0 0.0 0.0 1.1086823 0.9929008 
0.7678134 0.96543884 0.0 0.0 1.4638098 0.09147991 
0.0 1.7357962 1.1208051 0.0 1.7411511 0.0 
0.0 1.4248214 2.0346236 0.0350068 1.4666275 0.0 
0.0 0.57867163 1.2278292 0.0 0.80222553 0.0 
0.0 0.0784758 0.09458756 0.0 0.05645087 0.04437843 
0.0 0.0 0.0 0.0 0.0 0.07698792 
0.0 0.0 0.0 0.0 0.0 0.07698792 
0.0 0.0 0.0 0.0 0.0 0.07698792 
0.0 0.0 0.0 0.0 0.0 0.07698792 
0.0 0.0 0.0 0.0 0.0 0.07698792 
0.0 0.0 0.0 0.0 0.0 0.07698792 
0.0 0.0 0.0 0.0 0.0 0.07698792 
0.0 0.0 0.0 0.0 0.0 0.07698792 
0.0 0.0 0.0 0.0 0.0 0.07698792 
0.0 0.0 0.0 0.0 0.0 0.07698792 
0.0 0.0 0.0075767785 0.0 0.0 0.04644236 
0.14911444 0.0 0.14425424 0.0 0.0 0.0 
0.2202693 0.16020918 0.15345481 0.0 0.0 0.0 
0.11079955 0.23362416 0.13182893 0.0 0.0 0.0 
0.30202195 0.11569313 0.0 0.0 0.36568588 0.0 
0.46668458 0.0 0.0 0.0 0.7934641 0.2755143 
0.32288542 0.0 0.0 0.0 0.8675526 0.5145693 
0.063411474 0.0 0.0 0.0 0.6533001 0.5431718 
0.0 0.0 0.0 0.0 0.36870307 0.34420785 
0.0 0.0 0.07599517 0.0 0.15617634 0.072472945 
0.5189548 0.0 0.0 0.0 0.06848143 0.17203149 
1.7214215 0.0 0.0 0.0 0.35416564 0.56914437 
2.1290445 0.0 0.0 0.0 0.99084324 0.62032 
0.85069406 1.3028737 0.0 0.0 1.5601704 0.026674666 
0.0 1.6985333 0.79968905 0.0 1.9335207 0.0 
0.0 1.3828722 1.9177595 0.033056486 1.5247606 0.0 
0.0 0.52617085 1.2647252 0.0 0.8365212 0.0 
0.0 0.058260277 0.13323325 0.0035107592 0.06330049 0.059026405 
0.0 0.0 0.0 0.0 0.0 0.07698792 
0.0 0.0 0.0 0.0 0.0 0.07698792 
0.0 0.0 0.0 0.0 0.0 0.07698792 
0.0 0.0 0.0 0.0 0.0 0.07698792 
0.0 0.0 0.0 0.0 0.0 0.07698792 
0.0 0.0 0.0 0.0 0.0 0.07698792 
0.0 0.0 0.0 0.0 0.0 0.07698792 
0.0 0.0 0.0 0.0 0.0 0.07698792 
0.0 0.0 0.0 0.0 0.0 0.07698792 
0.0 0.0 0.0 0.0 0.0 0.07698792 
0.06753352 0.0 0.017523192 0.0 0.0 0.045277767 
0.46610254 0.0 0.14316681 0.0 0.0 0.0 
0.739111 0.12839894 0.3631705 0.0 0.0 0.0 
0.6131862 0.6713299 0.6174662 0.0 0.0 0.0 
0.25904638 0.95214814 0.85174924 0.0 0.14662999 0.0 
0.061063886 0.7704012 0.53264254 0.0 0.47327712 0.0 
0.123466045 0.5264119 0.27542537 0.0 0.20145579 0.0 
0.29597056 0.4327432 0.21935558 0.0 0.0 0.0 
0.37969014 0.34610197 0.38775426 0.0 0.0 0.0 
0.49641514 0.43585977 0.59822506 0.0 0.0 0.0 
1.0245657 0.23500665 0.27453536 0.0 0.0 0.0 
1.724211 0.08445823 0.0 0.0 0.55008435 0.0 
1.8534794 0.37198073 0.0 0.0 1.4489723 0.14094566 
0.5790283 1.5302831 0.0 0.0 1.9353428 0.0 
0.0 1.7971193 0.82155454 0.0 2.0101562 0.0 
0.0 1.2425342 1.790235 0.08448927 1.5205721 0.06688741 
0.0 0.42653772 1.2026446 0.04998761 0.7755535 0.04758885 
0.0 0.03406511 0.12725008 0.03294344 0.030950565 0.07975605 
0.0 0.0 0.0 0.0 0.0 0.07698792 
0.0 0.0 0.0 0.0 0.0 0.07698792 
0.0 0.0 0.0 0.0 0.0 0.07698792 
0.0 0.0 0.0 0.0 0.0 0.07698792 
0.0 0.0 0.0 0.0 0.0 0.07698792 
0.0 0.0 0.0 0.0 0.0 0.07698792 
0.0 0.0 0.0 0.0 0.0 0.07698792 
0.0 0.0 0.0 0.0 0.0 0.07698792 
0.0 0.0 0.0 0.0 0.0 0.07698792 
0.0 0.0 0.0 0.0 0.0 0.07698792 
0.12435074 0.0 0.0 0.023844022 0.0 0.18453968 
0.73012197 0.0 0.0 0.10024439 0.0 0.2818822 
1.1506884 0.0 0.13903034 0.1599162 0.0 0.0 
0.87710685 0.58894473 0.68754387 0.093765736 0.037263516 0.0 
0.42350802 1.2257477 1.4381638 0.0 0.3599964 0.0 
0.18069974 1.4383296 1.65711 0.0 0.5695179 0.0 
0.22835666 1.2194088 1.2984018 0.0 0.32265958 0.0 
0.37659228 0.93249905 1.1137701 0.0 0.18073392 0.0 
0.64897126 0.7324899 0.8701683 0.0 0.17741138 0.0 
0.7036217 0.9289695 0.95408857 0.0 0.18516964 0.0 
0.95475644 0.7291766 0.7583662 0.0 0.69432366 0.0 
1.4284675 0.7206042 0.12783855 0.0 1.4201274 0.0 
1.2183344 1.063821 0.0 0.0 2.1325803 0.14634301 
0.033767074 1.6735638 0.0 0.0 2.3668444 0.075848415 
0.0 1.7024227 0.93295956 0.12442237 2.044161 0.019179404 
0.0 0.97330576 1.5929036 0.16655025 1.3957688 0.28531873 
0.0 0.27823383 1.0467058 0.13937691 0.5832785 0.12994629 
0.0 0.018208284 0.08533449 0.033109207 0.0 0.089961365 
0.0 0.0 0.0 0.0 0.0 0.07698792 
0.0 0.0 0.0 0.0 0.0 0.07698792 
0.0 0.0 0.0 0.0 0.0 0.07698792 
0.0 0.0 0.0 0.0 0.0 0.07698792 
0.0 0.0 0.0 0.0 0.0 0.07698792 
0.0 0.0 0.0 0.0 0.0 0.07698792 
0.0 0.0 0.0 0.0 0.0 0.07698792 
0.0 0.0 0.0 0.0 0.0 0.07698792 
0.0 0.0 0.0 0.0 0.0 0.07698792 
0.0 0.0 0.0 0.0 0.0 0.07698792 
0.17969507 0.0 0.0 0.1231917 0.0 0.3237676 
0.79991806 0.0 0.0 0.4189122 0.002724275 0.8000179 
1.1975336 0.0 0.0 0.7047226 0.2720381 0.84080404 
1.0912006 0.28827822 0.0 0.9851539 0.5891378 0.5025157 
0.637333 0.9700347 1.1112685 1.1797227 0.88842326 0.14821202 
0.08910273 1.2974498 1.8615 0.99205613 1.198101 0.0 
0.18330714 1.0803938 1.6592844 0.7243949 1.1901889 0.0 
0.4369514 0.92651093 1.5019609 0.5920263 1.066837 0.0 
0.6963964 0.9173256 1.2376536 0.5574987 1.0747793 0.0 
0.7018077 1.0595934 1.1560787 0.48367277 1.1901793 0.0 
0.88517404 1.1717647 1.0510442 0.44406718 1.6437738 0.0 
1.0103114 1.2584995 0.43913743 0.3978989 2.2621803 0.21020295 
0.54238576 1.461441 0.0 0.3718214 2.7554216 0.49967685 
0.0 1.7254782 0.0 0.29021657 2.561988 0.46317315 
0.0 1.2274374 0.9186246 0.30182096 1.8742999 0.40488684 
0.0 0.55732846 1.2572639 0.22837007 1.0754815 0.4586073 
0.0 0.14479077 0.78789926 0.15429111 0.3162158 0.17103636 
0.0 0.0 0.013677254 0.0 0.0 0.08691352 
0.0 0.0 0.0 0.0 0.0 0.07698792 
0.0 0.0 0.0 0.0 0.0 0.07698792 
0.0 0.0 0.0 0.0 0.0 0.07698792 
0.0 0.0 0.0 0.0 0.0 0.07698792 
0.0 0.0 0.0 0.0 0.0 0.07698792 
0.0 0.0 0.0 0.0 0.0 0.07698792 
0.0 0.0 0.0 0.0 0.0 0.07698792 
0.0 0.0 0.0 0.0 0.0 0.07698792 
0.0 0.0 0.0 0.0 0.0 0.07698792 
0.0 0.0 0.0 0.0 0.0 0.07698792 
0.1732705 0.0 0.0 0.052540768 0.11076833 0.3207761 
0.8564133 0.0 0.0 0.13838753 0.5866715 1.035984 
1.1543956 0.0 0.0 0.4105734 0.886107 1.4345956 
1.0034995 0.0 0.0 0.83464694 1.1976198 1.5057285 
0.61059475 0.47348002 0.0 1.3990682 1.5327247 1.6711085 
0.09274486 0.8990027 0.5819341 1.7290013 1.7218884 1.4549315 
0.06270701 0.9789995 0.8229002 1.8967727 1.6679233 1.3313808 
0.31008965 0.90265006 0.67113155 1.911518 1.6438531 1.4265337 
0.49962562 0.89008087 0.39930454 1.8735088 1.7514771 1.4950027 
0.6856727 0.9285173 0.13212755 1.8061816 1.8478845 1.5408573 
0.5856724 1.0746278 0.24938047 1.7199503 2.2268136 1.5959239 
0.35102305 1.155652 0.08357767 1.4854492 2.6973064 1.6267903 
0.0 1.2559249 0.0033111162 1.1092987 2.758758 1.3742552 
0.0 1.1973251 0.16399404 0.68752944 2.1467595 0.95606154 
0.0 0.6782962 0.7651311 0.351531 1.2612792 0.659661 
0.0 0.25041127 0.8834563 0.17590195 0.5834078 0.43426594 
0.0 0.0066064065 0.45719707 0.06175148 0.12849563 0.15140626 
0.0 0.0 0.0 0.0 0.0 0.07896651 
0.0 0.0 0.0 0.0 0.0 0.07698792 
0.0 0.0 0.0 0.0 0.0 0.07698792 
0.0 0.0 0.0 0.0 0.0 0.07698792 
0.0 0.0 0.0 0.0 0.0 0.07698792 
0.0 0.0 0.0 0.0 0.0 0.07698792 
0.0 0.0 0.0 0.0 0.0 0.07698792 
0.0 0.0 0.0 0.0 0.0 0.07698792 
0.0 0.0 0.0 0.0 0.0 0.07698792 
0.0 0.0 0.0 0.0 0.0 0.07698792 
0.0 0.0 0.0 0.0 0.0 0.07698792 
0.08667965 0.0 0.0 0.0 0.14817393 0.19951423 
0.5873621 0.0 0.0 0.0 0.5706905 0.703486 
0.9428224 0.0 0.0 0.0 1.0566727 1.2478974 
0.8698975 0.0 0.0 0.0 1.4423556 1.5344641 
0.67972803 0.0 0.0 0.10036188 1.8011981 1.7966504 
0.28790766 0.11240499 0.0 0.4607953 1.8865315 1.852509 
0.2595331 0.1491413 0.0 0.52454054 1.9717115 1.8554473 
0.43677163 0.07012153 0.0 0.6124127 2.0428247 1.989649 
0.523593 0.0 0.0 0.6827736 2.0910757 1.9991021 
0.5488246 0.05829963 0.0 0.80449945 2.2273905 2.0211322 
0.33554968 0.19718228 0.0 0.87483555 2.3712866 1.9730957 
0.080172926 0.44939056 0.0 0.8150619 2.3555388 1.8072939 
0.0 0.59238887 0.0 0.5007787 1.9814624 1.4460402 
0.0 0.52305096 0.050844334 0.26108214 1.1927371 0.92636496 
0.0 0.18998489 0.4543751 0.043964524 0.5940792 0.5713107 
0.0 0.008160799 0.4705431 0.0 0.25970364 0.29881966 
0.0 0.0 0.15006068 0.0 0.034338843 0.10540326 
0.0 0.0 0.0 0.0 0.0 0.07698792 
0.0 0.0 0.0 0.0 0.0 0.07698792 
0.0 0.0 0.0 0.0 0.0 0.07698792 
0.0 0.0 0.0 0.0 0.0 0.07698792 
0.0 0.0 0.0 0.0 0.0 0.07698792 
0.0 0.0 0.0 0.0 0.0 0.07698792 
0.0 0.0 0.0 0.0 0.0 0.07698792 
0.0 0.0 0.0 0.0 0.0 0.07698792 
0.0 0.0 0.0 0.0 0.0 0.07698792 
0.0 0.0 0.0 0.0 0.0 0.07698792 
0.0 0.0 0.0 0.0 0.0 0.07698792 
0.0 0.0 0.0 0.0 0.0 0.09679196 
0.23154059 0.0 0.0 0.0 0.33117524 0.31513083 
0.5186766 0.0 0.0 0.0 0.67178804 0.63938725 
0.53465265 0.0 0.0 0.0 0.93231803 0.8585399 
0.4581234 0.0 0.0 0.0 1.1357418 1.090478 
0.29625624 0.0 0.0 0.0 1.2696186 1.199472 
0.22181419 0.0 0.0 0.0 1.2919002 1.2220049 
0.30610234 0.0 0.0 0.0 1.3196152 1.3217688 
0.39119884 0.0 0.0 0.0 1.4178351 1.4789345 
0.36999768 0.0 0.0 0.0 1.4791574 1.5711849 
0.2767871 0.0 0.0 0.0 1.4764515 1.5538242 
0.015798226 0.0 0.0 0.0 1.3181541 1.3235426 
0.0 0.0 0.0 0.0 0.89604956 0.9216684 
0.0 0.0 0.0 0.0 0.50157076 0.5475927 
0.0 0.0 0.1303437 0.0 0.27239105 0.32790244 
0.0 0.0 0.1411289 0.0 0.093613744 0.14574413 
0.0 0.0 0.0 0.0 0.0 0.081477806 
0.0 0.0 0.0 0.0 0.0 0.07698792 
0.0 0.0 0.0 0.0 0.0 0.07698792 
0.0 0.0 0.0 0.0 0.0 0.07698792 
0.0 0.0 0.0 0.0 0.0 0.07698792 
0.0 0.0 0.0 0.0 0.0 0.07698792 
0.0 0.0 0.0 0.0 0.0 0.07698792 
0.0 0.0 0.0 0.0 0.0 0.07698792 
0.0 0.0 0.0 0.0 0.0 0.07698792 
0.0 0.0 0.0 0.0 0.0 0.07698792 
0.0 0.0 0.0 0.0 0.0 0.07698792 
0.0 0.0 0.0 0.0 0.0 0.07698792 
0.0 0.0 0.0 0.0 0.0 0.07698792 
0.0 0.0 0.0 0.0 0.031176146 0.115977116 
0.108097166 0.0 0.0 0.0 0.21260826 0.20354223 
0.15970975 0.0 0.0 0.0 0.3290289 0.257583 
0.1420264 0.0 0.0 0.0 0.4127019 0.3028804 
0.09817228 0.0 0.0 0.0 0.49552187 0.3563292 
0.052359045 0.0 0.0 0.0 0.53472 0.36264545 
0.1317755 0.0 0.0 0.0 0.65705234 0.41586882 
0.21405631 0.0 0.0 0.0 0.7748479 0.4788978 
0.21872666 0.0 0.0 0.0 0.8419376 0.50020784 
0.1251946 0.0 0.0 0.0 0.7832474 0.49837756 
0.0 0.0 0.0 0.0 0.61143595 0.40722466 
0.0 0.0 0.0 0.0 0.38010302 0.3015914 
0.0 0.0 0.0 0.0 0.20372443 0.20058185 
0.0 0.0 0.0 0.0 0.06407294 0.13006818 
0.0 0.0 0.0 0.0 0.0 0.0822388 
0.0 0.0 0.0 0.0 0.0 0.07698792 
0.0 0.0 0.0 0.0 0.0 0.07698792 
0.0 0.0 0.0 0.0 0.0 0.07698792 
0.0 0.0 0.0 0.0 0.0 0.07698792 
0.0 0.0 0.0 0.0 0.0 0.07698792 
0.0 0.0 0.0 0.0 0.0 0.07698792 
0.0 0.0 0.0 0.0 0.0 0.07698792 
0.0 0.0 0.0 0.0 0.0 0.07698792 
0.0 0.0 0.0 0.0 0.0 0.07698792 
0.0 0.0 0.0 0.0 0.0 0.07698792 
0.0 0.0 0.0 0.0 0.0 0.07698792 
0.0 0.0 0.0 0.0 0.0 0.07698792 
0.0 0.0 0.0 0.0 0.0 0.07698792 
0.0 0.0 0.0 0.0 0.0 0.07698792 
0.0 0.0 0.0 0.0 0.0 0.07698792 
0.0 0.0 0.0 0.0 0.0 0.07698792 
0.0 0.0 0.0 0.0 0.0 0.07698792 
0.0 0.0 0.0 0.0 0.0 0.07698792 
0.0 0.0 0.0 0.0 0.0 0.07698792 
0.0 0.0 0.0 0.0 0.0 0.07698792 
0.0 0.0 0.0 0.0 0.0 0.07698792 
0.0 0.0 0.0 0.0 0.0 0.07698792 
0.0 0.0 0.0 0.0 0.0 0.07698792 
0.0 0.0 0.0 0.0 0.0 0.07698792 
0.0 0.0 0.0 0.0 0.0 0.07698792 
0.0 0.0 0.0 0.0 0.0 0.07698792 
0.0 0.0 0.0 0.0 0.0 0.07698792 
0.0 0.0 0.0 0.0 0.0 0.07698792 
0.0 0.0 0.0 0.0 0.0 0.07698792 
0.0 0.0 0.0 0.0 0.0 0.07698792 
0.0 0.0 0.0 0.0 0.0 0.07698792 
0.0 0.0 0.0 0.0 0.0 0.07698792 
0.0 0.0 0.0 0.0 0.0 0.07698792 
0.0 0.0 0.0 0.0 0.0 0.07698792 
0.0 0.0 0.0 0.0 0.0 0.07698792 
0.0 0.0 0.0 0.0 0.0 0.07698792 
0.0 0.0 0.0 0.0 0.0 0.07698792 
0.0 0.0 0.0 0.0 0.0 0.07698792 
0.0 0.0 0.0 0.0 0.0 0.07698792 
0.0 0.0 0.0 0.0 0.0 0.07698792 
0.0 0.0 0.0 0.0 0.0 0.07698792 
0.0 0.0 0.0 0.0 0.0 0.07698792 
0.0 0.0 0.0 0.0 0.0 0.07698792 
0.0 0.0 0.0 0.0 0.0 0.07698792 
0.0 0.0 0.0 0.0 0.0 0.07698792 
0.0 0.0 0.0 0.0 0.0 0.07698792 
0.0 0.0 0.0 0.0 0.0 0.07698792 
0.0 0.0 0.0 0.0 0.0 0.07698792 
0.0 0.0 0.0 0.0 0.0 0.07698792 
0.0 0.0 0.0 0.0 0.0 0.07698792 
0.0 0.0 0.0 0.0 0.0 0.07698792 
0.0 0.0 0.0 0.0 0.0 0.07698792 
0.0 0.0 0.0 0.0 0.0 0.07698792 
0.0 0.0 0.0 0.0 0.0 0.07698792 
0.0 0.0 0.0 0.0 0.0 0.07698792 
0.0 0.0 0.0 0.0 0.0 0.07698792 
0.0 0.0 0.0 0.0 0.0 0.07698792 
0.0 0.0 0.0 0.0 0.0 0.07698792 
0.0 0.0 0.0 0.0 0.0 0.07698792 
0.0 0.0 0.0 0.0 0.0 0.07698792 
0.0 0.0 0.0 0.0 0.0 0.07698792 
0.0 0.0 0.0 0.0 0.0 0.07698792 
0.0 0.0 0.0 0.0 0.0 0.07698792 
0.0 0.0 0.0 0.0 0.0 0.07698792 

