0.0 0.0 0.0 0.0 0.0 0.07698792 
0.0 0.0 0.0 0.0 0.0 0.07698792 
0.0 0.0 0.0 0.0 0.0 0.07698792 
0.0 0.0 0.0 0.0 0.0 0.07698792 
0.0 0.0 0.0 0.0 0.0 0.07698792 
0.0 0.0 0.0 0.0 0.0 0.07698792 
0.0 0.0 0.0 0.0 0.0 0.07698792 
0.0 0.0 0.0 0.0 0.0 0.07698792 
0.0 0.0 0.0 0.0 0.0 0.07698792 
0.0 0.0 0.0 0.0 0.0 0.07698792 
0.0 0.0 0.0 0.0 0.0 0.07698792 
0.0 0.0 0.0 0.0 0.0 0.07698792 
0.0 0.0 0.0 0.0 0.0 0.07698792 
0.0 0.0 0.0 0.0 0.0 0.07698792 
0.0 0.0 0.0 0.0 0.0 0.07698792 
0.0 0.0 0.0 0.0 0.0 0.07698792 
0.0 0.0 0.0 0.0 0.0 0.07698792 
0.0 0.0 0.0 0.0 0.0 0.07698792 
0.0 0.0 0.0 0.0 0.0 0.07698792 
0.0 0.0 0.0 0.0 0.0 0.07698792 
0.0 0.0 0.0 0.0 0.0 0.07698792 
0.0 0.0 0.0 0.0 0.0 0.07698792 
0.0 0.0 0.0 0.0 0.0 0.07698792 
0.0 0.0 0.0 0.0 0.0 0.07698792 
0.0 0.0 0.0 0.0 0.0 0.07698792 
0.0 0.0 0.0 0.0 0.0 0.07698792 
0.0 0.0 0.0 0.0 0.0 0.07698792 
0.0 0.0 0.0 0.0 0.0 0.07698792 
0.0 0.0 0.0 0.0 0.0 0.07698792 
0.0 0.0 0.0 0.0 0.0 0.07698792 
0.0 0.0 0.0 0.0 0.0 0.07698792 
0.0 0.0 0.0 0.0 0.0 0.07698792 
0.0 0.0 0.0 0.0 0.0 0.07698792 
0.0 0.0 0.0 0.0 0.0 0.07698792 
0.0 0.0 0.0 0.0 0.0 0.07698792 
0.0 0.0 0.0 0.0 0.0 0.07698792 
0.0 0.0 0.0 0.0 0.0 0.07698792 
0.0 0.0 0.0 0.0 0.0 0.07698792 
0.0 0.0 0.0 0.0 0.0 0.07698792 
0.0 0.0 0.0 0.0 0.0 0.07698792 
0.0 0.0 0.0 0.0 0.0 0.07698792 
0.0 0.0 0.0 0.0 0.0 0.07698792 
0.0 0.0 0.0 0.0 0.0 0.07698792 
0.0 0.0 0.0 0.0 0.0 0.07698792 
0.0 0.0 0.0 0.0 0.0 0.07698792 
0.0 0.0 0.0 0.0 0.0 0.07698792 
0.0 0.0 0.0 0.0 0.0 0.07698792 
0.0 0.0 0.0 0.0 0.0 0.07698792 
0.0 0.0 0.0 0.0 0.0 0.07698792 
0.0 0.0 0.0 0.0 0.0 0.07698792 
0.0 0.0 0.0 0.0 0.0 0.07698792 
0.0 0.0 0.0 0.0 0.0 0.07698792 
0.0 0.0 0.0 0.0 0.0 0.07698792 
0.0 0.0 0.0 0.0 0.0 0.07698792 
0.0 0.0 0.0 0.0 0.0 0.07698792 
0.0 0.0 0.0 0.0 0.0 0.07698792 
0.0 0.0 0.0 0.0 0.0 0.07698792 
0.0 0.0 0.0 0.0 0.0 0.07698792 
0.0 0.0 0.0 0.0 0.0 0.07698792 
0.0 0.0 0.0 0.0 0.0 0.07698792 
0.0 0.0 0.0 0.0 0.0 0.07698792 
0.0 0.0 0.0 0.0 0.0 0.07698792 
0.0 0.0 0.0 0.0 0.0 0.07698792 
0.0 0.0 0.0 0.0 0.0 0.07698792 
0.0 0.0 0.0 0.0 0.0 0.07698792 
0.050979674 0.0 0.095913805 0.0 0.0 0.0049607307 
0.2917171 0.050581038 0.22153124 0.0 0.0 0.0 
0.35048527 0.21562214 0.33093983 0.0 0.0 0.0 
0.3181192 0.44959974 0.40715176 0.0 0.0 0.0 
0.13389267 0.5899823 0.35436192 0.0 0.0 0.0 
0.0 0.5006218 0.25378639 0.0 0.032903317 0.0 
0.0 0.33379343 0.123610534 0.0 0.07052937 0.0 
0.0 0.14810571 0.0151720345 0.0 0.03524247 0.0 
0.0 0.03854826 0.0 0.0 0.0 0.021398135 
0.0 0.0018367553 0.0 0.0 0.0 0.0676083 
0.0 0.0 0.0 0.0 0.0 0.07698792 
0.0 0.0 0.0 0.0 0.0 0.07698792 
0.0 0.0 0.0 0.0 0.0 0.07698792 
0.0 0.0 0.0 0.0 0.0 0.07698792 
0.0 0.0 0.0 0.0 0.0 0.07698792 
0.0 0.0 0.0 0.0 0.0 0.07698792 
0.0 0.0 0.0 0.0 0.0 0.07698792 
0.0 0.0 0.0 0.0 0.0 0.07698792 
0.0 0.0 0.0 0.0 0.0 0.07698792 
0.0 0.0 0.0 0.0 0.0 0.07698792 
0.0 0.0 0.0 0.0 0.0 0.07698792 
0.0 0.0 0.0 0.0 0.0 0.07698792 
0.0 0.0 0.0 0.0 0.0 0.07698792 
0.0 0.0 0.0 0.0 0.0 0.07698792 
0.0 0.0 0.0 0.0 0.0 0.07698792 
0.0 0.0 0.0 0.0 0.0 0.07698792 
0.0 0.0 0.0 0.0 0.0 0.07698792 
0.0 0.0 0.0 0.0 0.0 0.07698792 
0.089353636 0.0 0.0 0.0 0.0 0.10041571 
0.44305855 0.0 0.013258442 0.0 0.0 0.056933776 
0.6565711 0.029092852 0.072970115 0.0 0.0 0.0 
0.5088596 0.4860492 0.49760538 0.0 0.0 0.0 
0.17765418 0.75903296 0.83578575 0.0 0.2707726 0.0 
0.0 0.87757015 0.77822345 0.0 0.39592865 0.0 
0.0 0.68465424 0.64254487 0.0 0.36698917 0.0 
0.0 0.5079053 0.36595666 0.0 0.27882078 0.0 
0.0 0.29627535 0.14008322 0.0 0.16412695 0.0 
0.0 0.11242618 0.012653604 0.0 0.030819762 0.0 
0.0 0.02877045 0.0 0.0 0.0 0.04259597 
0.0 0.0 0.0 0.0 0.0 0.07698792 
0.0 0.0 0.0 0.0 0.0 0.07698792 
0.0 0.0 0.0 0.0 0.0 0.07698792 
0.0 0.0 0.0 0.0 0.0 0.07698792 
0.0 0.0 0.0 0.0 0.0 0.07698792 
0.0 0.0 0.0 0.0 0.0 0.07698792 
0.0 0.0 0.0 0.0 0.0 0.07698792 
0.0 0.0 0.0 0.0 0.0 0.07698792 
0.0 0.0 0.0 0.0 0.0 0.07698792 
0.0 0.0 0.0 0.0 0.0 0.07698792 
0.0 0.0 0.0 0.0 0.0 0.07698792 
0.0 0.0 0.0 0.0 0.0 0.07698792 
0.0 0.0 0.0 0.0 0.0 0.07698792 
0.0 0.0 0.0 0.0 0.0 0.07698792 
0.0 0.0 0.0 0.0 0.0 0.07698792 
0.0 0.0 0.0 0.0 0.0 0.07698792 
0.0 0.0 0.0 0.0 0.0 0.07698792 
0.17949525 0.0 0.0 0.08523495 0.0 0.29369238 
0.4769346 0.0 0.0 0.3297111 0.038602445 0.43983617 
0.5012548 0.0 0.0 0.7110386 0.37725732 0.3490899 
0.23183468 0.059198834 0.12938532 1.0544742 0.6261497 0.31819123 
0.0 0.37661347 0.7188541 1.156219 0.6982627 0.20640954 
0.09390828 0.5365209 1.0843142 0.87551147 0.60000706 0.017174676 
0.216389 0.8974481 1.167812 0.38700503 0.33116505 0.0 
0.0 1.0158635 0.97591984 0.0 0.38958398 0.0 
0.0 0.64265573 0.58920616 0.0 0.4422463 0.0 
0.0 0.4406398 0.31139305 0.0 0.26708826 0.0 
0.0 0.13865201 0.034414314 0.0 0.16690113 0.0 
0.0 0.0023978734 0.0 0.0 0.0 0.06708721 
0.0 0.0 0.0 0.0 0.0 0.07698792 
0.0 0.0 0.0 0.0 0.0 0.07698792 
0.0 0.0 0.0 0.0 0.0 0.07698792 
0.0 0.0 0.0 0.0 0.0 0.07698792 
0.0 0.0 0.0 0.0 0.0 0.07698792 
0.0 0.0 0.0 0.0 0.0 0.07698792 
0.0 0.0 0.0 0.0 0.0 0.07698792 
0.0 0.0 0.0 0.0 0.0 0.07698792 
0.0 0.0 0.0 0.0 0.0 0.07698792 
0.0 0.0 0.0 0.0 0.0 0.07698792 
0.0 0.0 0.0 0.0 0.0 0.07698792 
0.0 0.0 0.0 0.0 0.0 0.07698792 
0.0 0.0 0.0 0.0 0.0 0.07698792 
0.0 0.0 0.0 0.0 0.0 0.07698792 
0.0 0.0 0.0 0.0 0.0 0.07698792 
0.0 0.0 0.0 0.0 0.0 0.07698792 
0.18685788 0.0 0.0 0.17458911 0.022440556 0.36675182 
0.46258074 0.0 0.0 0.32762757 0.2893558 0.7806778 
0.37223408 0.2900097 0.0 0.50753546 0.52299756 0.94626105 
0.29335335 0.37992582 0.0 0.67172134 0.6640556 1.1570778 
0.13420084 0.40079328 0.0 0.9069762 0.66361004 1.1647601 
0.09196934 0.32270026 0.38354963 1.0079993 0.40406933 0.74800223 
0.31656826 0.26542184 0.8832065 0.92632365 0.21003164 0.30081755 
0.3597054 0.88987875 1.2825594 0.5678288 0.33037546 0.0 
0.0 1.3149955 1.168313 0.040455323 0.4568819 0.0 
0.0 0.9661095 0.94165576 0.0 0.56718236 0.0 
0.0 0.3725731 0.35552716 0.0 0.47912523 0.0 
0.0 0.085890636 0.0 0.0 0.061252195 0.0 
0.0 0.0 0.0 0.0 0.0 0.07698792 
0.0 0.0 0.0 0.0 0.0 0.07698792 
0.0 0.0 0.0 0.0 0.0 0.07698792 
0.0 0.0 0.0 0.0 0.0 0.07698792 
0.0 0.0 0.0 0.0 0.0 0.07698792 
0.0 0.0 0.0 0.0 0.0 0.07698792 
0.0 0.0 0.0 0.0 0.0 0.07698792 
0.0 0.0 0.0 0.0 0.0 0.07698792 
0.0 0.0 0.0 0.0 0.0 0.07698792 
0.0 0.0 0.0 0.0 0.0 0.07698792 
0.0 0.0 0.0 0.0 0.0 0.07698792 
0.0 0.0 0.0 0.0 0.0 0.07698792 
0.0 0.0 0.0 0.0 0.0 0.07698792 
0.0 0.0 0.0 0.0 0.0 0.07698792 
0.0 0.0 0.0 0.0 0.0 0.07698792 
0.0 0.0 0.0 0.0 0.0 0.07698792 
0.16796547 0.0 0.0 0.0 0.23419966 0.27059612 
0.4362285 0.0 0.0 0.0 0.59396255 0.5472887 
0.40484414 0.0 0.0 0.0 0.7973943 0.6349838 
0.35402086 0.0 0.0 0.0 0.84435445 0.8179837 
0.23114985 0.0 0.0 0.0 0.8614586 1.0375836 
0.2542078 0.0 0.0 0.0 0.73792166 1.1711328 
0.634021 0.0 0.0 0.15813836 0.30507544 0.9951415 
0.67384213 0.26990256 0.4448037 0.45223656 0.2704594 0.2066548 
0.0 1.2055041 1.1768453 0.48830602 0.6400842 0.0 
0.0 1.44081 1.5228846 0.12800945 0.78256327 0.0 
0.0 0.8628548 1.004114 0.0 0.72781336 0.0 
0.0 0.10829408 0.10184873 0.0 0.29940066 0.0 
0.0 0.0 0.0 0.0 0.0 0.07698792 
0.0 0.0 0.0 0.0 0.0 0.07698792 
0.0 0.0 0.0 0.0 0.0 0.07698792 
0.0 0.0 0.0 0.0 0.0 0.07698792 
0.0 0.0 0.0 0.0 0.0 0.07698792 
0.0 0.0 0.0 0.0 0.0 0.07698792 
0.0 0.0 0.0 0.0 0.0 0.07698792 
0.0 0.0 0.0 0.0 0.0 0.07698792 
0.0 0.0 0.0 0.0 0.0 0.07698792 
0.0 0.0 0.0 0.0 0.0 0.07698792 
0.0 0.0 0.0 0.0 0.0 0.07698792 
0.0 0.0 0.0 0.0 0.0 0.07698792 
0.0 0.0 0.0 0.0 0.0 0.07698792 
0.0 0.0 0.0 0.0 0.0 0.07698792 
0.0 0.0 0.0 0.0 0.0 0.07698792 
0.0 0.0 0.0 0.0 0.0 0.07698792 
0.0 0.0 0.0 0.0 0.034021083 0.11721487 
0.056901738 0.0 0.0 0.0 0.13353916 0.16941546 
0.026958637 0.0 0.0 0.0 0.13191785 0.16376492 
0.075229526 0.0 0.0 0.0 0.2781358 0.24064937 
0.22642246 0.0 0.0 0.0 0.5445046 0.3911718 
0.5763874 0.0 0.0 0.0 0.4575136 0.6117713 
1.2394714 0.0 0.0 0.0 0.34895363 0.9274237 
1.0168161 0.0 0.0 0.0 0.586573 0.5444442 
0.071718276 0.85490793 0.31152427 0.14750494 0.9190896 0.0 
0.0 1.4674706 1.5572289 0.40665683 1.0825597 0.0 
0.0 1.0225329 1.5512086 0.23263353 0.9562909 0.0 
0.0 0.19761825 0.3617847 0.0 0.33866432 0.0 
0.0 0.0 0.0 0.0 0.0 0.07698792 
0.0 0.0 0.0 0.0 0.0 0.07698792 
0.0 0.0 0.0 0.0 0.0 0.07698792 
0.0 0.0 0.0 0.0 0.0 0.07698792 
0.0 0.0 0.0 0.0 0.0 0.07698792 
0.0 0.0 0.0 0.0 0.0 0.07698792 
0.0 0.0 0.0 0.0 0.0 0.07698792 
0.0 0.0 0.0 0.0 0.0 0.07698792 
0.0 0.0 0.0 0.0 0.0 0.07698792 
0.0 0.0 0.0 0.0 0.0 0.07698792 
0.0 0.0 0.0 0.0 0.0 0.07698792 
0.0 0.0 0.0 0.0 0.0 0.07698792 
0.0 0.0 0.0 0.0 0.0 0.07698792 
0.0 0.0 0.0 0.0 0.0 0.07698792 
0.0 0.0 0.0 0.0 0.0 0.07698792 
0.0 0.0 0.0 0.0 0.0 0.07698792 
0.0 0.0 0.0 0.0 0.0 0.07698792 
0.0 0.0 0.0 0.0 0.0 0.07698792 
0.0 0.0 0.0 0.0 0.0 0.07698792 
0.0 0.0 0.0 0.0 0.0 0.07520883 
0.030202791 0.0 0.012032002 0.0 0.0 0.04071378 
0.6451934 0.0 0.0 0.0 0.0 0.16682895 
1.6406658 0.0 0.0 0.0 0.25787905 0.5902007 
1.4119017 0.25773478 0.0 0.0 0.8111119 0.39230138 
0.005025238 1.195862 0.0 0.0 1.2638901 0.0 
0.0 1.2291601 1.0560459 0.12549803 1.44076 0.020679295 
0.0 0.6751451 1.5403594 0.29344752 0.97887236 0.18127656 
0.0 0.28492522 0.5791919 0.24388446 0.16346416 0.09226676 
0.0 0.0 0.0 0.0 0.0 0.07698792 
0.0 0.0 0.0 0.0 0.0 0.07698792 
0.0 0.0 0.0 0.0 0.0 0.07698792 
0.0 0.0 0.0 0.0 0.0 0.07698792 
0.0 0.0 0.0 0.0 0.0 0.07698792 
0.0 0.0 0.0 0.0 0.0 0.07698792 
0.0 0.0 0.0 0.0 0.0 0.07698792 
0.0 0.0 0.0 0.0 0.0 0.07698792 
0.0 0.0 0.0 0.0 0.0 0.07698792 
0.0 0.0 0.0 0.0 0.0 0.07698792 
0.0 0.0 0.0 0.0 0.0 0.07698792 
0.0 0.0 0.0 0.0 0.0 0.07698792 
0.0 0.0 0.0 0.0 0.0 0.07698792 
0.0 0.0 0.0 0.0 0.0 0.07698792 
0.0 0.0 0.0 0.0 0.0 0.07698792 
0.0 0.0 0.0 0.0 0.0 0.07698792 
0.0 0.0 0.0 0.0 0.0 0.07698792 
0.0 0.0 0.0 0.0 0.0 0.073593974 
0.0 0.0 0.009467997 0.0 0.0 0.03697101 
0.14330551 0.0 0.13351995 0.0 0.0 0.0 
0.37387735 0.025885798 0.20007724 0.0 0.0 0.0 
0.866983 0.0 0.0 0.0 0.0 0.0 
1.503449 0.0 0.0 0.0 0.5193835 0.1834462 
1.0728269 0.659884 0.0 0.0 1.4848853 0.27540532 
0.0 1.2396181 0.0 0.064561814 1.7120281 0.22711658 
0.0 0.86623883 0.6295335 0.15571786 1.3714571 0.4423126 
0.0 0.3007259 1.0716704 0.1823521 0.7290225 0.34955537 
0.0 0.06215559 0.45744604 0.11213799 0.084068894 0.13438445 
0.0 0.0 0.0 0.0 0.0 0.07698792 
0.0 0.0 0.0 0.0 0.0 0.07698792 
0.0 0.0 0.0 0.0 0.0 0.07698792 
0.0 0.0 0.0 0.0 0.0 0.07698792 
0.0 0.0 0.0 0.0 0.0 0.07698792 
0.0 0.0 0.0 0.0 0.0 0.07698792 
0.0 0.0 0.0 0.0 0.0 0.07698792 
0.0 0.0 0.0 0.0 0.0 0.07698792 
0.0 0.0 0.0 0.0 0.0 0.07698792 
0.0 0.0 0.0 0.0 0.0 0.07698792 
0.0 0.0 0.0 0.0 0.0 0.07698792 
0.0 0.0 0.0 0.0 0.0 0.07698792 
0.0 0.0 0.0 0.0 0.0 0.07698792 
0.0 0.0 0.0 0.0 0.0 0.07698792 
0.0 0.0 0.0 0.0 0.0 0.055492893 
0.06733203 0.0 0.06425836 0.0 0.0 0.0 
0.1408926 0.07544247 0.122990154 0.0 0.0 0.0 
0.17402217 0.16073956 0.20328537 0.0 0.0 0.0 
0.31382647 0.18828256 0.3193828 0.0 0.0 0.0 
0.5826464 0.21324535 0.3595659 0.0 0.0 0.0 
0.91589254 0.18613867 0.39401728 0.0 0.0 0.0 
1.2449887 0.41083542 0.24707338 0.0 0.12460174 0.0 
1.0118439 0.7713007 0.0 0.0 1.3509709 0.0 
0.0 1.1828995 0.0 0.0 2.017729 0.053250834 
0.0 0.9892162 0.0 0.061027627 1.6287416 0.25105685 
0.0 0.5626469 0.62634754 0.16759846 0.88936895 0.50718397 
0.0 0.15881194 0.7028844 0.121129826 0.34187207 0.29916066 
0.0 0.0 0.15075576 0.0 0.038546335 0.10539657 
0.0 0.0 0.0 0.0 0.0 0.07698792 
0.0 0.0 0.0 0.0 0.0 0.07698792 
0.0 0.0 0.0 0.0 0.0 0.07698792 
0.0 0.0 0.0 0.0 0.0 0.07698792 
0.0 0.0 0.0 0.0 0.0 0.07698792 
0.0 0.0 0.0 0.0 0.0 0.07698792 
0.0 0.0 0.0 0.0 0.0 0.07698792 
0.0 0.0 0.0 0.0 0.0 0.07698792 
0.0 0.0 0.0 0.0 0.0 0.07698792 
0.0 0.0 0.0 0.0 0.0 0.07698792 
0.0 0.0 0.0 0.0 0.0 0.07698792 
0.0 0.0 0.0 0.0 0.0 0.07698792 
0.0 0.0 0.0 0.0 0.0 0.07698792 
0.0 0.0 0.0 0.0 0.0 0.057378426 
0.17062415 0.0 0.12784913 0.0 0.0 0.0 
0.48344928 0.012272625 0.23289073 0.0 0.0 0.0 
0.6291886 0.22005416 0.38724303 0.0 0.0 0.0 
0.6719986 0.56012344 0.58666474 0.0 0.0 0.0 
0.677526 0.6157867 0.668695 0.0 0.0 0.0 
0.9030492 0.45168528 0.6623626 0.0 0.0 0.0 
1.1588407 0.55061275 0.5806141 0.0 0.3041884 0.0 
1.110503 1.0388241 0.59214085 0.0 1.1394111 0.0 
0.5622762 1.6145269 0.3364125 0.0 1.9981526 0.0 
0.0 1.854875 0.24373221 0.0 1.824345 0.0 
0.0 1.1711373 0.55493563 0.0 1.2151617 0.0 
0.0 0.46175212 0.71626717 0.0 0.6573965 0.0 
0.0 0.07112165 0.43384582 0.0 0.23948862 0.056480408 
0.0 0.0 0.0 0.0 0.0 0.07551751 
0.0 0.0 0.0 0.0 0.0 0.07698792 
0.0 0.0 0.0 0.0 0.0 0.07698792 
0.0 0.0 0.0 0.0 0.0 0.07698792 
0.0 0.0 0.0 0.0 0.0 0.07698792 
0.0 0.0 0.0 0.0 0.0 0.07698792 
0.0 0.0 0.0 0.0 0.0 0.07698792 
0.0 0.0 0.0 0.0 0.0 0.07698792 
0.0 0.0 0.0 0.0 0.0 0.07698792 
0.0 0.0 0.0 0.0 0.0 0.07698792 
0.0 0.0 0.0 0.0 0.0 0.07698792 
0.0 0.0 0.0 0.0 0.0 0.07698792 
0.0 0.0 0.0 0.0 0.0 0.07698792 
0.0 0.0 0.0 0.0 0.0 0.07698792 
0.012641057 0.0 0.0 0.0 0.0 0.059493996 
0.4476235 0.0 0.052596316 0.0 0.0 0.01632782 
0.9760515 0.0 0.13500321 0.0 0.0 0.0 
1.0202003 0.224998 0.25494453 0.0 0.0 0.0 
0.6391672 0.72623974 0.620977 0.0 0.35376123 0.0 
0.38121724 0.6770933 0.7333921 0.16842982 0.96770436 0.0 
0.5625331 0.6177331 0.53449404 0.7094424 1.213368 0.2092746 
0.747074 0.60843027 0.17887369 1.0447965 1.6117365 0.6735778 
0.6525041 0.92992294 0.15660012 0.96402365 1.9796354 0.7520591 
0.24399972 1.2988566 0.60262096 0.59630585 1.8739669 0.31154048 
0.0 1.5269761 1.156972 0.06140281 1.4556535 0.0 
0.0 1.3198854 1.2630137 0.0 1.1536946 0.0 
0.0 0.65930265 0.9617797 0.0 0.8322081 0.0 
0.0 0.15410475 0.34713036 0.0 0.46661714 0.0 
0.0 0.09122493 0.0 0.0 0.05447207 0.0 
0.0 0.0 0.0 0.0 0.0 0.07698792 
0.0 0.0 0.0 0.0 0.0 0.07698792 
0.0 0.0 0.0 0.0 0.0 0.07698792 
0.0 0.0 0.0 0.0 0.0 0.07698792 
0.0 0.0 0.0 0.0 0.0 0.07698792 
0.0 0.0 0.0 0.0 0.0 0.07698792 
0.0 0.0 0.0 0.0 0.0 0.07698792 
0.0 0.0 0.0 0.0 0.0 0.07698792 
0.0 0.0 0.0 0.0 0.0 0.07698792 
0.0 0.0 0.0 0.0 0.0 0.07698792 
0.0 0.0 0.0 0.0 0.0 0.07698792 
0.0 0.0 0.0 0.0 0.0 0.07698792 
0.0 0.0 0.0 0.0 0.0 0.07698792 
0.03601615 0.0 0.0 0.022270814 0.0 0.15187478 
0.56366354 0.0 0.0 0.21450591 0.0 0.46590275 
1.0550997 0.0 0.0 0.59531385 0.1183026 0.6287063 
0.89529455 0.1505743 0.0 1.0270687 0.7603587 0.59189016 
0.2970917 0.80334985 0.26058283 1.3895081 1.3828886 0.6947836 
0.0 0.8670502 0.5087369 1.5139304 1.891272 0.99252516 
0.25590786 0.6243216 0.046318747 1.4760159 2.070013 1.426538 
0.54041445 0.48212442 0.0 1.3743807 2.118227 1.6856611 
0.44578558 0.49596277 0.0 1.2735785 1.9003745 1.627487 
0.11427486 0.4655072 0.15744704 1.1626137 1.3939625 1.144201 
0.034794107 0.7514352 1.3525494 0.9455256 0.9841632 0.35262668 
0.0 1.2382634 1.8451946 0.5511384 0.96139187 0.0 
0.0 1.3530719 1.5664134 0.0 0.7768963 0.0 
0.0 0.8402919 0.8763932 0.0 0.62800324 0.0 
0.0 0.1861729 0.1394032 0.0 0.3452212 0.0 
0.0 0.023159266 0.0 0.0 0.0 0.04780687 
0.0 0.0 0.0 0.0 0.0 0.07698792 
0.0 0.0 0.0 0.0 0.0 0.07698792 
0.0 0.0 0.0 0.0 0.0 0.07698792 
0.0 0.0 0.0 0.0 0.0 0.07698792 
0.0 0.0 0.0 0.0 0.0 0.07698792 
0.0 0.0 0.0 0.0 0.0 0.07698792 
0.0 0.0 0.0 0.0 0.0 0.07698792 
0.0 0.0 0.0 0.0 0.0 0.07698792 
0.0 0.0 0.0 0.0 0.0 0.07698792 
0.0 0.0 0.0 0.0 0.0 0.07698792 
0.0 0.0 0.0 0.0 0.0 0.07698792 
0.0 0.0 0.0 0.0 0.0 0.07698792 
0.06829336 0.0 0.0 0.07388141 0.0 0.22229233 
0.61077064 0.0 0.0 0.33941463 0.23701192 0.7674529 
0.90836835 0.0 0.0 0.5994649 0.82158667 1.1514671 
0.6276779 0.25701115 0.0 0.8654077 1.32011 1.2361436 
0.2420885 0.6897489 0.0 0.9531958 1.5914329 1.4503007 
0.06869984 0.70916003 0.0 0.74211144 1.775454 1.5944712 
0.26800162 0.4535715 0.0 0.38218644 1.6487826 1.6821377 
0.38220394 0.18143392 0.0 0.09636937 1.5886704 1.7081711 
0.35276738 0.09566725 0.0 0.103692144 1.4304532 1.7319708 
0.4786225 0.0 0.0 0.24403228 0.9735227 1.5871947 
0.65273255 0.11554533 0.0058269873 0.3561805 0.61828893 0.9339424 
0.14796126 0.97358805 1.0434785 0.48688352 0.7348377 0.0 
0.0 1.5237151 1.7168221 0.39990398 0.8766756 0.0 
0.0 1.3722265 1.6058393 0.05297189 0.90938705 0.0 
0.0 0.40757143 0.52062607 0.0 0.57658404 0.0 
0.0 0.0 0.0 0.0 0.030919526 0.049546134 
0.0 0.0 0.0 0.0 0.0 0.07698792 
0.0 0.0 0.0 0.0 0.0 0.07698792 
0.0 0.0 0.0 0.0 0.0 0.07698792 
0.0 0.0 0.0 0.0 0.0 0.07698792 
0.0 0.0 0.0 0.0 0.0 0.07698792 
0.0 0.0 0.0 0.0 0.0 0.07698792 
0.0 0.0 0.0 0.0 0.0 0.07698792 
0.0 0.0 0.0 0.0 0.0 0.07698792 
0.0 0.0 0.0 0.0 0.0 0.07698792 
0.0 0.0 0.0 0.0 0.0 0.07698792 
0.0 0.0 0.0 0.0 0.0 0.07698792 
0.0 0.0 0.0 0.0 0.0 0.07698792 
0.055287853 0.0 0.0 0.01723281 0.04163273 0.20313303 
0.53655386 0.0 0.0 0.0003284337 0.51017296 0.7126558 
0.71048725 0.0 0.0 0.0 0.9603488 1.0687194 
0.45093477 0.0 0.0 0.0 1.1482068 1.0959802 
0.19491157 0.0 0.0 0.0 1.192185 1.1392927 
0.0 0.0 0.0 0.0 1.1565334 0.96566826 
0.03539513 0.0 0.0 0.0 1.0881157 0.8410838 
0.14811014 0.0 0.0 0.0 1.0726355 0.7989237 
0.39311737 0.0 0.0 0.0 1.0053127 0.8460885 
1.0546229 0.0 0.0 0.0 0.75210667 1.0817249 
1.4164107 0.0 0.0 0.0 0.6308917 0.9385644 
0.58222204 0.6783446 0.0 0.0 1.0201867 0.0061942935 
0.0 1.4745063 1.0876303 0.079768956 1.2794613 0.0 
0.0 1.2585448 1.909842 0.17827424 1.2522868 0.0 
0.0 0.5530961 0.94429946 0.071659386 0.65717405 0.0 
0.0 0.04651635 0.04053925 0.03714055 0.0 0.069146134 
0.0 0.0 0.0 0.0 0.0 0.07698792 
0.0 0.0 0.0 0.0 0.0 0.07698792 
0.0 0.0 0.0 0.0 0.0 0.07698792 
0.0 0.0 0.0 0.0 0.0 0.07698792 
0.0 0.0 0.0 0.0 0.0 0.07698792 
0.0 0.0 0.0 0.0 0.0 0.07698792 
0.0 0.0 0.0 0.0 0.0 0.07698792 
0.0 0.0 0.0 0.0 0.0 0.07698792 
0.0 0.0 0.0 0.0 0.0 0.07698792 
0.0 0.0 0.0 0.0 0.0 0.07698792 
0.0 0.0 0.0 0.0 0.0 0.07698792 
0.0 0.0 0.0 0.0 0.0 0.07698792 
0.0026801527 0.0 0.0 0.0 0.056780595 0.12711689 
0.25924915 0.0 0.0 0.0 0.39250752 0.32812965 
0.32166475 0.0 0.0 0.0 0.5702024 0.42659342 
0.12211688 0.0 0.0 0.0 0.5133303 0.37414056 
0.0 0.0 0.0 0.0 0.42074683 0.37622756 
0.0 0.0 0.0 0.0 0.34377024 0.2846495 
0.0 0.0 0.0 0.0 0.22643395 0.21106139 
0.0052019954 0.0 0.0 0.0 0.13555643 0.15230633 
0.42144248 0.0 0.0 0.0 0.0 0.12395942 
1.3619599 0.0 0.0 0.0 0.15601374 0.4664873 
1.7587676 0.0 0.0 0.0 0.7950434 0.65561837 
0.563058 0.91843563 0.0 0.0 1.4193543 0.07026446 
0.0 1.3938264 0.38926363 0.102953374 1.6663433 0.018782258 
0.0 1.0188314 1.6239816 0.32080585 1.3152238 0.29525155 
0.0 0.32376194 1.0561295 0.21786532 0.5554877 0.108000085 
0.0 0.047447477 0.063196056 0.05077542 0.0 0.09061684 
0.0 0.0 0.0 0.0 0.0 0.07698792 
0.0 0.0 0.0 0.0 0.0 0.07698792 
0.0 0.0 0.0 0.0 0.0 0.07698792 
0.0 0.0 0.0 0.0 0.0 0.07698792 
0.0 0.0 0.0 0.0 0.0 0.07698792 
0.0 0.0 0.0 0.0 0.0 0.07698792 
0.0 0.0 0.0 0.0 0.0 0.07698792 
0.0 0.0 0.0 0.0 0.0 0.07698792 
0.0 0.0 0.0 0.0 0.0 0.07698792 
0.0 0.0 0.0 0.0 0.0 0.07698792 
0.0 0.0 0.0 0.0 0.0 0.07698792 
0.0 0.0 0.0 0.0 0.0 0.07698792 
0.0 0.0 0.0 0.0 0.0 0.07698792 
0.0 0.0 0.0 0.0 0.0027267598 0.10359959 
0.0 0.0 0.0 0.0 0.0 0.10540803 
0.0 0.0 0.0 0.0 0.0 0.08477005 
0.0 0.0 0.0 0.0 0.0 0.102799304 
0.0 0.0 0.0 0.0 0.0 0.07774371 
0.01604186 0.0 0.045472495 0.0 0.0 0.015521482 
0.24995482 0.0 0.14581883 0.0 0.0 0.0 
0.71517205 0.0 0.04409872 0.0 0.0 0.0 
1.4046373 0.0 0.0 0.0 0.19822206 0.16906156 
1.4284542 0.32638127 0.0 0.0 1.3948905 0.49631298 
0.018022135 1.256649 0.0 0.1802866 1.8371694 0.2816126 
0.0 1.0328902 0.2725084 0.3062452 1.6292561 0.38476145 
0.0 0.5425035 1.1892531 0.3635743 0.9851995 0.5283209 
0.0 0.19327134 0.83367395 0.21322116 0.28353807 0.18488173 
0.0 0.0 0.00038824975 0.0 0.0 0.08483206 
0.0 0.0 0.0 0.0 0.0 0.07698792 
0.0 0.0 0.0 0.0 0.0 0.07698792 
0.0 0.0 0.0 0.0 0.0 0.07698792 
0.0 0.0 0.0 0.0 0.0 0.07698792 
0.0 0.0 0.0 0.0 0.0 0.07698792 
0.0 0.0 0.0 0.0 0.0 0.07698792 
0.0 0.0 0.0 0.0 0.0 0.07698792 
0.0 0.0 0.0 0.0 0.0 0.07698792 
0.0 0.0 0.0 0.0 0.0 0.07698792 
0.0 0.0 0.0 0.0 0.0 0.07698792 
0.0 0.0 0.0 0.0 0.0 0.07698792 
0.0 0.0 0.0 0.0 0.0 0.07698792 
0.0 0.0 0.0 0.0 0.0 0.07698792 
0.0 0.0 0.0 0.0 0.0 0.07698792 
0.0 0.0 0.0 0.0 0.0 0.07698792 
0.0 0.0 0.0 0.0 0.0 0.07698792 
0.0 0.0 0.0 0.0 0.0 0.06303501 
0.06483871 0.0 0.059849136 0.0 0.0 0.0 
0.32385886 0.0 0.17063108 0.0 0.0 0.0 
0.62113464 0.0 0.076681115 0.0 0.0 0.0 
0.9439387 0.0 0.0 0.0 0.0 0.0 
1.1591902 0.30624092 0.0 0.04259419 1.0896088 0.32701594 
0.45155662 0.8883837 0.0 0.2761576 1.9960614 0.6901685 
0.0 0.93031526 0.0 0.29730567 1.7804629 0.7335991 
0.0 0.6201999 0.27099717 0.19269638 1.0602596 0.65299267 
0.0 0.20246363 0.77814686 0.13587806 0.4580755 0.4721344 
0.0 0.0 0.48265243 0.061743293 0.110299036 0.1586985 
0.0 0.0 0.0 0.0 0.0 0.07805332 
0.0 0.0 0.0 0.0 0.0 0.07698792 
0.0 0.0 0.0 0.0 0.0 0.07698792 
0.0 0.0 0.0 0.0 0.0 0.07698792 
0.0 0.0 0.0 0.0 0.0 0.07698792 
0.0 0.0 0.0 0.0 0.0 0.07698792 
0.0 0.0 0.0 0.0 0.0 0.07698792 
0.0 0.0 0.0 0.0 0.0 0.07698792 
0.0 0.0 0.0 0.0 0.0 0.07698792 
0.0 0.0 0.0 0.0 0.0 0.07698792 
0.0 0.0 0.0 0.0 0.0 0.07698792 
0.0 0.0 0.0 0.0 0.0 0.07698792 
0.0 0.0 0.0 0.0 0.0 0.07698792 
0.0 0.0 0.0 0.0 0.0 0.0758566 
0.0 0.0 0.0 0.0 0.0 0.07282519 
0.0 0.0 0.0 0.0 0.0 0.060491186 
0.036942475 0.0 0.056085557 0.0 0.0 0.0 
0.17440811 0.030113596 0.10579527 0.0 0.0 0.0 
0.3684135 6.64955e-05 0.19296741 0.0 0.0 0.0 
0.6935085 0.0051967865 0.09114667 0.0 0.0 0.0 
0.8107922 0.12074435 0.075422 0.0 0.14050578 0.0 
0.75867283 0.46902576 0.0 0.21430477 0.9902316 0.124016486 
0.18374926 0.77624583 0.0 0.38167396 1.8539219 0.6018328 
0.0 0.5890041 0.0 0.2310564 1.9162353 0.7942222 
0.0 0.5057293 0.0 0.16544253 1.0041846 0.7160951 
0.0 0.14591727 0.23933598 0.0 0.49014124 0.4805622 
0.0 0.0 0.27088746 0.0 0.24824743 0.28365242 
0.0 0.0 0.10090422 0.0 0.047734503 0.09774809 
0.0 0.0 0.0 0.0 0.0 0.07698792 
0.0 0.0 0.0 0.0 0.0 0.07698792 
0.0 0.0 0.0 0.0 0.0 0.07698792 
0.0 0.0 0.0 0.0 0.0 0.07698792 
0.0 0.0 0.0 0.0 0.0 0.07698792 
0.0 0.0 0.0 0.0 0.0 0.07698792 
0.0 0.0 0.0 0.0 0.0 0.07698792 
0.0 0.0 0.0 0.0 0.0 0.07698792 
0.0 0.0 0.0 0.0 0.0 0.07698792 
0.0 0.0 0.0 0.0 0.0 0.07698792 
0.0 0.0 0.0 0.0 0.0 0.07698792 
0.0 0.0 0.0 0.0 0.0 0.06793738 
0.048977613 0.0 0.071511365 0.0 0.0 0.0 
0.21012488 0.051530868 0.16642308 0.0 0.0 0.0 
0.25802538 0.18421352 0.25465614 0.0 0.0 0.0 
0.32127512 0.30160043 0.39045715 0.0 0.0 0.0 
0.41559228 0.40218094 0.38336706 0.0 0.0 0.0 
0.45351142 0.383513 0.31533965 0.0 0.0 0.0 
0.5824981 0.27296755 0.15867957 0.0 0.0 0.0 
0.67361826 0.2659962 0.103614904 0.0 0.43675503 0.0 
0.4047626 0.5877154 0.0 0.43962994 1.1181806 0.28606313 
0.0 0.76687604 0.0 0.58918464 1.6770312 0.69557124 
0.0 0.6527689 0.0 0.28513703 1.6246421 0.8802724 
0.0 0.47562522 0.0 0.106731094 0.7985441 0.63899225 
0.0 0.091609396 0.033066943 0.0 0.36227724 0.46700758 
0.0 0.0 0.22649068 0.0 0.21357922 0.26893806 
0.0 0.0 0.07663391 0.0 0.042465333 0.105999164 
0.0 0.0 0.0 0.0 0.0 0.07820552 
0.0 0.0 0.0 0.0 0.0 0.07698792 
0.0 0.0 0.0 0.0 0.0 0.07698792 
0.0 0.0 0.0 0.0 0.0 0.07698792 
0.0 0.0 0.0 0.0 0.0 0.07698792 
0.0 0.0 0.0 0.0 0.0 0.07698792 
0.0 0.0 0.0 0.0 0.0 0.07698792 
0.0 0.0 0.0 0.0 0.0 0.07698792 
0.0 0.0 0.0 0.0 0.0 0.07698792 
0.0 0.0 0.0 0.0 0.0 0.07698792 
0.0 0.0 0.0 0.0 0.0 0.07698792 
0.0 0.0 0.0 0.0 0.0 0.07698792 
0.0 0.0 0.0 0.0 0.0 0.07396121 
0.21244621 0.0 0.06790691 0.0 0.0 0.00972902 
0.6101574 0.0 0.19038492 0.0 0.0 0.0 
0.71763504 0.24140076 0.34195188 0.0 0.0 0.0 
0.5911705 0.6195409 0.51072514 0.0 0.0 0.0 
0.33759022 0.61618596 0.548591 0.0 0.3155108 0.0 
0.21411487 0.5886424 0.44153824 0.0 0.67286426 0.0 
0.11971411 0.49563798 0.23534036 0.34047982 1.0172571 0.098644525 
0.006545514 0.5058397 0.0 0.66387516 1.4220903 0.59681714 
0.0 0.52697587 0.0 0.52040327 1.6309315 0.78344125 
0.0 0.4944422 0.0 0.25589764 1.2525753 0.7965217 
0.0 0.3018118 0.0 0.035944838 0.67336136 0.5937306 
0.0 0.0 0.014668591 0.0 0.35452083 0.37320462 
0.0 0.0 0.006923996 0.0 0.19246809 0.22263578 
0.0 0.0 0.0322586 0.0 0.042051356 0.103810534 
0.0 0.0 0.0 0.0 0.0 0.07866211 
0.0 0.0 0.0 0.0 0.0 0.07698792 
0.0 0.0 0.0 0.0 0.0 0.07698792 
0.0 0.0 0.0 0.0 0.0 0.07698792 
0.0 0.0 0.0 0.0 0.0 0.07698792 
0.0 0.0 0.0 0.0 0.0 0.07698792 
0.0 0.0 0.0 0.0 0.0 0.07698792 
0.0 0.0 0.0 0.0 0.0 0.07698792 
0.0 0.0 0.0 0.0 0.0 0.07698792 
0.0 0.0 0.0 0.0 0.0 0.07698792 
0.0 0.0 0.0 0.0 0.0 0.07698792 
0.0 0.0 0.0 0.0 0.0 0.07698792 
0.0 0.0 0.0 0.0 0.0 0.07698792 
0.0 0.0 0.0 0.008091461 0.0 0.10819164 
0.27146864 0.0 0.0 0.101375915 0.0 0.29788008 
0.64996266 0.0 0.0 0.34972024 0.0 0.395378 
0.72416747 0.0 0.0 0.6648472 0.25382707 0.27561933 
0.4043623 0.31403065 0.36531347 1.0195068 0.7581612 0.29921192 
0.0 0.62895566 0.6476422 1.1535178 1.294775 0.3334973 
0.0 0.77234536 0.5205241 1.126699 1.4346806 0.43365365 
0.0 0.68075925 0.18612519 0.92702156 1.4577912 0.7596795 
0.04818411 0.52792 0.0 0.4494036 1.3650817 0.96466774 
0.0 0.46831968 0.0 0.1537332 0.81123215 0.72374904 
0.0 0.10592872 0.0 0.0 0.40151384 0.4884122 
0.0 0.0 0.117726006 0.0 0.26165116 0.3491279 
0.0 0.0 0.14011002 0.0 0.11742446 0.15449283 
0.0 0.0 0.0 0.0 0.0 0.082467094 
0.0 0.0 0.0 0.0 0.0 0.07698792 
0.0 0.0 0.0 0.0 0.0 0.07698792 
0.0 0.0 0.0 0.0 0.0 0.07698792 
0.0 0.0 0.0 0.0 0.0 0.07698792 
0.0 0.0 0.0 0.0 0.0 0.07698792 
0.0 0.0 0.0 0.0 0.0 0.07698792 
0.0 0.0 0.0 0.0 0.0 0.07698792 
0.0 0.0 0.0 0.0 0.0 0.07698792 
0.0 0.0 0.0 0.0 0.0 0.07698792 
0.0 0.0 0.0 0.0 0.0 0.07698792 
0.0 0.0 0.0 0.0 0.0 0.07698792 
0.0 0.0 0.0 0.0 0.0 0.07698792 
0.0 0.0 0.0 0.0 0.0 0.07698792 
0.0 0.0 0.0 0.0 0.0 0.07698792 
0.0 0.0 0.0 0.02614298 0.0 0.13000886 
0.34361815 0.0 0.0 0.23724818 0.09191553 0.5182148 
0.59764284 0.0 0.0 0.5272572 0.39103362 0.83713204 
0.46521264 0.07210371 0.0 0.9024225 0.75485975 0.92352134 
0.23182797 0.5311139 0.0 1.2184007 1.0334755 1.1119609 
0.0 0.8882619 0.13683265 1.1688687 1.2588575 1.1563301 
0.0 0.84129995 0.06326958 0.7409878 1.1193085 1.056639 
0.0 0.4390115 0.0 0.18497948 0.92198414 0.87040526 
0.0 0.17547998 0.0 0.0 0.58895713 0.6182135 
0.0 0.0 0.0 0.0 0.32461858 0.3498649 
0.0 0.0 0.0 0.0 0.19973917 0.253659 
0.0 0.0 0.041304275 0.0 0.08797154 0.13398701 
0.0 0.0 0.0 0.0 0.0 0.0817822 
0.0 0.0 0.0 0.0 0.0 0.07698792 
0.0 0.0 0.0 0.0 0.0 0.07698792 
0.0 0.0 0.0 0.0 0.0 0.07698792 
0.0 0.0 0.0 0.0 0.0 0.07698792 
0.0 0.0 0.0 0.0 0.0 0.07698792 
0.0 0.0 0.0 0.0 0.0 0.07698792 
0.0 0.0 0.0 0.0 0.0 0.07698792 
0.0 0.0 0.0 0.0 0.0 0.07698792 
0.0 0.0 0.0 0.0 0.0 0.07698792 
0.0 0.0 0.0 0.0 0.0 0.07698792 
0.0 0.0 0.0 0.0 0.0 0.07698792 
0.0 0.0 0.0 0.0 0.0 0.07698792 
0.0 0.0 0.0 0.0 0.0 0.07698792 
0.0 0.0 0.0 0.0 0.0 0.07698792 
0.0 0.0 0.0 0.0 0.0 0.07698792 
0.0 0.0 0.0 0.0 0.0 0.119682 
0.30925784 0.0 0.0 0.031095933 0.27172318 0.46681783 
0.5688373 0.0 0.0 0.0 0.6866363 0.8763467 
0.4759124 0.05124894 0.0 0.0 0.8917375 1.0489264 
0.35328335 0.0 0.0 0.0 1.0667208 1.1542213 
0.0 0.0 0.0 0.0 0.9986294 0.9553837 
0.0 0.0 0.0 0.0 0.69285226 0.64524966 
0.0 0.0 0.0 0.0 0.43504405 0.42040658 
0.0 0.0 0.0 0.0 0.24745558 0.24087031 
0.0 0.0 0.0 0.0 0.08637421 0.13774243 
0.0 0.0 0.0 0.0 0.0 0.09046818 
0.0 0.0 0.0 0.0 0.0 0.07797722 
0.0 0.0 0.0 0.0 0.0 0.07698792 
0.0 0.0 0.0 0.0 0.0 0.07698792 
0.0 0.0 0.0 0.0 0.0 0.07698792 
0.0 0.0 0.0 0.0 0.0 0.07698792 
0.0 0.0 0.0 0.0 0.0 0.07698792 
0.0 0.0 0.0 0.0 0.0 0.07698792 
0.0 0.0 0.0 0.0 0.0 0.07698792 
0.0 0.0 0.0 0.0 0.0 0.07698792 
0.0 0.0 0.0 0.0 0.0 0.07698792 
0.0 0.0 0.0 0.0 0.0 0.07698792 
0.0 0.0 0.0 0.0 0.0 0.07698792 
0.0 0.0 0.0 0.0 0.0 0.07698792 
0.0 0.0 0.0 0.0 0.0 0.07698792 
0.0 0.0 0.0 0.0 0.0 0.07698792 
0.0 0.0 0.0 0.0 0.0 0.07698792 
0.0 0.0 0.0 0.0 0.0 0.07698792 
0.0 0.0 0.0 0.0 0.0 0.09184095 
0.14186773 0.0 0.0 0.0 0.26868644 0.2225984 
0.27584976 0.0 0.0 0.0 0.4727578 0.33423185 
0.2262859 0.0 0.0 0.0 0.5523573 0.35245568 
0.068945974 0.0 0.0 0.0 0.49774715 0.38025808 
0.0 0.0 0.0 0.0 0.35322508 0.28078938 
0.0 0.0 0.0 0.0 0.20267601 0.21162526 
0.0 0.0 0.0 0.0 0.07877125 0.13533565 
0.0 0.0 0.0 0.0 0.0 0.082695395 
0.0 0.0 0.0 0.0 0.0 0.07698792 
0.0 0.0 0.0 0.0 0.0 0.07698792 
0.0 0.0 0.0 0.0 0.0 0.07698792 
0.0 0.0 0.0 0.0 0.0 0.07698792 
0.0 0.0 0.0 0.0 0.0 0.07698792 
0.0 0.0 0.0 0.0 0.0 0.07698792 
0.0 0.0 0.0 0.0 0.0 0.07698792 
0.0 0.0 0.0 0.0 0.0 0.07698792 
0.0 0.0 0.0 0.0 0.0 0.07698792 
0.0 0.0 0.0 0.0 0.0 0.07698792 
0.0 0.0 0.0 0.0 0.0 0.07698792 
0.0 0.0 0.0 0.0 0.0 0.07698792 
0.0 0.0 0.0 0.0 0.0 0.07698792 
0.0 0.0 0.0 0.0 0.0 0.07698792 
0.0 0.0 0.0 0.0 0.0 0.07698792 
0.0 0.0 0.0 0.0 0.0 0.07698792 
0.0 0.0 0.0 0.0 0.0 0.07698792 
0.0 0.0 0.0 0.0 0.0 0.07698792 
0.0 0.0 0.0 0.0 0.0 0.07698792 
0.0 0.0 0.0 0.0 0.0 0.07698792 
0.0 0.0 0.0 0.0 0.0 0.07698792 
0.0 0.0 0.0 0.0 0.0 0.07698792 
0.0 0.0 0.0 0.0 0.0 0.07698792 
0.0 0.0 0.0 0.0 0.0 0.07698792 
0.0 0.0 0.0 0.0 0.0 0.07698792 
0.0 0.0 0.0 0.0 0.0 0.07698792 
0.0 0.0 0.0 0.0 0.0 0.07698792 
0.0 0.0 0.0 0.0 0.0 0.07698792 
0.0 0.0 0.0 0.0 0.0 0.07698792 
0.0 0.0 0.0 0.0 0.0 0.07698792 
0.0 0.0 0.0 0.0 0.0 0.07698792 
0.0 0.0 0.0 0.0 0.0 0.07698792 
0.0 0.0 0.0 0.0 0.0 0.07698792 
0.0 0.0 0.0 0.0 0.0 0.07698792 
0.0 0.0 0.0 0.0 0.0 0.07698792 
0.0 0.0 0.0 0.0 0.0 0.07698792 
0.0 0.0 0.0 0.0 0.0 0.07698792 
0.0 0.0 0.0 0.0 0.0 0.07698792 
0.0 0.0 0.0 0.0 0.0 0.07698792 
0.0 0.0 0.0 0.0 0.0 0.07698792 
0.0 0.0 0.0 0.0 0.0 0.07698792 
0.0 0.0 0.0 0.0 0.0 0.07698792 
0.0 0.0 0.0 0.0 0.0 0.07698792 
0.0 0.0 0.0 0.0 0.0 0.07698792 
0.0 0.0 0.0 0.0 0.0 0.07698792 
0.0 0.0 0.0 0.0 0.0 0.07698792 
0.0 0.0 0.0 0.0 0.0 0.07698792 
0.0 0.0 0.0 0.0 0.0 0.07698792 
0.0 0.0 0.0 0.0 0.0 0.07698792 
0.0 0.0 0.0 0.0 0.0 0.07698792 
0.0 0.0 0.0 0.0 0.0 0.07698792 
0.0 0.0 0.0 0.0 0.0 0.07698792 
0.0 0.0 0.0 0.0 0.0 0.07698792 
0.0 0.0 0.0 0.0 0.0 0.07698792 
0.0 0.0 0.0 0.0 0.0 0.07698792 
0.0 0.0 0.0 0.0 0.0 0.07698792 
0.0 0.0 0.0 0.0 0.0 0.07698792 
0.0 0.0 0.0 0.0 0.0 0.07698792 
0.0 0.0 0.0 0.0 0.0 0.07698792 
0.0 0.0 0.0 0.0 0.0 0.07698792 
0.0 0.0 0.0 0.0 0.0 0.07698792 
0.0 0.0 0.0 0.0 0.0 0.07698792 
0.0 0.0 0.0 0.0 0.0 0.07698792 
0.0 0.0 0.0 0.0 0.0 0.07698792 
0.0 0.0 0.0 0.0 0.0 0.07698792 
0.0 0.0 0.0 0.0 0.0 0.07698792 
0.0 0.0 0.0 0.0 0.0 0.07698792 
0.0 0.0 0.0 0.0 0.0 0.07698792 
0.0 0.0 0.0 0.0 0.0 0.07698792 
0.0 0.0 0.0 0.0 0.0 0.07698792 
0.0 0.0 0.0 0.0 0.0 0.07698792 

