0.0 0.0 0.0 0.0 0.0 0.07698792 
0.0 0.0 0.0 0.0 0.0 0.07698792 
0.0 0.0 0.0 0.0 0.0 0.07698792 
0.0 0.0 0.0 0.0 0.0 0.07698792 
0.0 0.0 0.0 0.0 0.0 0.07698792 
0.0 0.0 0.0 0.0 0.0 0.07698792 
0.0 0.0 0.0 0.0 0.0 0.07698792 
0.0 0.0 0.0 0.0 0.0 0.07698792 
0.0 0.0 0.0 0.0 0.0 0.07698792 
0.0 0.0 0.0 0.0 0.0 0.07698792 
0.0 0.0 0.0 0.0 0.0 0.07698792 
0.0 0.0 0.0 0.0 0.0 0.07698792 
0.0 0.0 0.0 0.0 0.0 0.07698792 
0.0 0.0 0.0 0.0 0.0 0.07698792 
0.0 0.0 0.0 0.0 0.0 0.07698792 
0.0 0.0 0.0 0.0 0.0 0.07698792 
0.0 0.0 0.0 0.0 0.0 0.07698792 
0.0 0.0 0.0 0.0 0.0 0.07698792 
0.0 0.0 0.0 0.0 0.0 0.07698792 
0.0 0.0 0.0 0.0 0.0 0.07698792 
0.0 0.0 0.0 0.0 0.0 0.07698792 
0.0 0.0 0.0 0.0 0.0 0.07698792 
0.0 0.0 0.0 0.0 0.0 0.07698792 
0.0 0.0 0.0 0.0 0.0 0.07698792 
0.0 0.0 0.0 0.0 0.0 0.07698792 
0.0 0.0 0.0 0.0 0.0 0.07698792 
0.0 0.0 0.0 0.0 0.0 0.07698792 
0.0 0.0 0.0 0.0 0.0 0.07698792 
0.0 0.0 0.0 0.0 0.0 0.07698792 
0.0 0.0 0.0 0.0 0.0 0.07698792 
0.0 0.0 0.0 0.0 0.0 0.07698792 
0.0 0.0 0.0 0.0 0.0 0.07698792 
0.0 0.0 0.0 0.0 0.0 0.07698792 
0.0 0.0 0.0 0.0 0.0 0.07698792 
0.0 0.0 0.0 0.0 0.0 0.07698792 
0.0 0.0 0.0 0.0 0.0 0.07698792 
0.0 0.0 0.0 0.0 0.0 0.07698792 
0.0 0.0 0.0 0.0 0.0 0.07698792 
0.0 0.0 0.0 0.0 0.0 0.07698792 
0.0 0.0 0.0 0.0 0.0 0.07698792 
0.0 0.0 0.0 0.0 0.0 0.07698792 
0.0 0.0 0.0 0.0 0.0 0.07698792 
0.0 0.0 0.0 0.0 0.0 0.07698792 
0.0 0.0 0.0 0.0 0.0 0.07698792 
0.0 0.0 0.0 0.0 0.0 0.07698792 
0.0 0.0 0.0 0.0 0.0 0.07698792 
0.0 0.0 0.0 0.0 0.0 0.07698792 
0.0 0.0 0.0 0.0 0.0 0.07698792 
0.0 0.0 0.0 0.0 0.0 0.07698792 
0.0 0.0 0.0 0.0 0.0 0.07698792 
0.0 0.0 0.0 0.0 0.0 0.07698792 
0.0 0.0 0.0 0.0 0.0 0.07698792 
0.0 0.0 0.0 0.0 0.0 0.07698792 
0.0 0.0 0.0 0.0 0.0 0.07698792 
0.0 0.0 0.0 0.0 0.0 0.07698792 
0.0 0.0 0.0 0.0 0.0 0.07698792 
0.0 0.0 0.0 0.0 0.0 0.07698792 
0.0 0.0 0.0 0.0 0.0 0.07698792 
0.0 0.0 0.0 0.0 0.0 0.07698792 
0.0 0.0 0.0 0.0 0.0 0.07698792 
0.0 0.0 0.0 0.0 0.0 0.0751024 
0.0 0.0 0.0 0.0 0.0 0.05056624 
0.10114035 0.0 0.11068682 0.0 0.0 0.0 
0.2774278 0.08159105 0.2432059 0.0 0.0 0.0 
0.3555665 0.25859222 0.35976124 0.0 0.0 0.0 
0.3610602 0.44460395 0.47531116 0.0 0.0 0.0 
0.34761328 0.5792057 0.54206455 0.0 0.0 0.0 
0.33599418 0.620704 0.55586606 0.0 0.0 0.0 
0.33541536 0.62005395 0.5550438 0.0 0.0 0.0 
0.33703166 0.61829966 0.55628 0.0 0.0 0.0 
0.32429716 0.62703025 0.53858674 0.0 0.0 0.0 
0.21576807 0.65288305 0.42534137 0.0 0.0 0.0 
0.014997631 0.57672817 0.2842416 0.0 0.012255225 0.0 
0.0 0.4027979 0.17312047 0.0 0.07845606 0.0 
0.0 0.21141404 0.04564838 0.0 0.070924684 0.0 
0.0 0.048409604 0.0 0.0 0.0 0.02435781 
0.0 0.0 0.0 0.0 0.0 0.07698792 
0.0 0.0 0.0 0.0 0.0 0.07698792 
0.0 0.0 0.0 0.0 0.0 0.07698792 
0.0 0.0 0.0 0.0 0.0 0.07698792 
0.0 0.0 0.0 0.0 0.0 0.07698792 
0.0 0.0 0.0 0.0 0.0 0.07698792 
0.0 0.0 0.0 0.0 0.0 0.07698792 
0.0 0.0 0.0 0.0 0.0 0.07698792 
0.0 0.0 0.0 0.0 0.0 0.07698792 
0.0 0.0 0.0 0.0 0.0 0.07698792 
0.0 0.0 0.0 0.0 0.0 0.07698792 
0.0 0.0 0.0 0.0 0.0 0.07698792 
0.0 0.0 0.0 0.0 0.0 0.06051892 
0.17984542 0.0 0.14110881 0.0 0.0 0.0 
0.53437495 0.0 0.20986927 0.0 0.0 0.0 
0.76140225 0.12920399 0.3677922 0.0 0.0 0.0 
0.91159093 0.52856475 0.62239707 0.0 0.0 0.0 
0.75650126 0.9276847 0.8771815 0.0 0.0 0.0 
0.5203682 1.0478387 1.0503106 0.0 0.09391561 0.0 
0.41775334 1.0468141 1.0938574 0.0 0.20096554 0.0 
0.41648036 1.0430712 1.0917205 0.0 0.20300908 0.0 
0.4212681 1.0408125 1.0903355 0.0 0.19723417 0.0 
0.4096796 1.0580616 1.1010032 0.0 0.21690442 0.0 
0.28421974 1.1687994 1.1287456 0.0 0.3497552 0.0 
0.0 1.2927482 0.9619533 0.0 0.5624756 0.0 
0.0 1.01626 0.74643105 0.0 0.62451667 0.0 
0.0 0.52595 0.42016166 0.0 0.49001864 0.0 
0.0 0.15982811 0.07080037 0.0 0.21405156 0.0 
0.0 0.019792553 0.0 0.0 0.0 0.050933413 
0.0 0.0 0.0 0.0 0.0 0.07698792 
0.0 0.0 0.0 0.0 0.0 0.07698792 
0.0 0.0 0.0 0.0 0.0 0.07698792 
0.0 0.0 0.0 0.0 0.0 0.07698792 
0.0 0.0 0.0 0.0 0.0 0.07698792 
0.0 0.0 0.0 0.0 0.0 0.07698792 
0.0 0.0 0.0 0.0 0.0 0.07698792 
0.0 0.0 0.0 0.0 0.0 0.07698792 
0.0 0.0 0.0 0.0 0.0 0.07698792 
0.0 0.0 0.0 0.0 0.0 0.07698792 
0.0 0.0 0.0 0.0 0.0 0.07698792 
0.0 0.0 0.0 0.0 0.0 0.08120881 
0.35999894 0.0 0.0 0.0 0.0 0.097751416 
0.96739453 0.0 0.040532872 0.0 0.0 0.032822248 
1.2230489 0.0 0.14596948 0.027800258 0.0 0.0 
0.89298713 0.5495652 0.54148066 0.26104075 0.43255487 0.0 
0.34022582 0.73557764 0.9208239 0.42156443 1.1330501 0.0 
0.24236917 0.8581964 1.1838826 0.7816133 1.2958684 0.0 
0.19558749 0.8310383 1.2376593 0.97482413 1.3325961 0.0 
0.21423796 0.76549083 1.2158548 1.0852692 1.2701998 0.0 
0.21926525 0.7600474 1.210195 1.0850432 1.2673639 0.0 
0.27124876 0.7551513 1.3210126 1.0291178 1.1946516 0.0 
0.25841329 1.0257508 1.5311302 0.82668525 1.0666145 0.0 
0.0 1.4593714 1.7343036 0.42263958 1.0864092 0.0 
0.0 1.6170584 1.586221 0.0 1.0365947 0.0 
0.0 1.1830716 1.211878 0.0 0.8221135 0.0 
0.0 0.47669736 0.46323878 0.0 0.50562733 0.0 
0.0 0.09996999 0.008880518 0.0 0.11542447 0.0 
0.0 0.0 0.0 0.0 0.0 0.07334029 
0.0 0.0 0.0 0.0 0.0 0.07698792 
0.0 0.0 0.0 0.0 0.0 0.07698792 
0.0 0.0 0.0 0.0 0.0 0.07698792 
0.0 0.0 0.0 0.0 0.0 0.07698792 
0.0 0.0 0.0 0.0 0.0 0.07698792 
0.0 0.0 0.0 0.0 0.0 0.07698792 
0.0 0.0 0.0 0.0 0.0 0.07698792 
0.0 0.0 0.0 0.0 0.0 0.07698792 
0.0 0.0 0.0 0.0 0.0 0.07698792 
0.0 0.0 0.0 0.0 0.0 0.07698792 
0.0059696212 0.0 0.0 0.02270908 0.0 0.14063251 
0.4521442 0.0 0.0 0.2174813 0.0 0.47892326 
0.9401558 0.0 0.0 0.656059 0.16723655 0.75823694 
1.0571394 0.0 0.0 1.172293 0.7523241 0.93647295 
0.65567464 0.7303952 0.0 1.6064359 1.4029018 1.1838064 
0.16200101 1.1267598 0.3055393 1.7785176 1.8163575 1.2699051 
0.0 1.1361763 0.55829453 1.8840497 1.7929372 1.4098485 
0.021193177 0.99930626 0.52856505 1.8989683 1.7256635 1.4735928 
0.17527387 1.0040667 0.46710265 1.9645722 1.5586697 1.512929 
0.18032044 1.0002534 0.45989847 1.9642115 1.5587159 1.5158365 
0.3358645 0.8660618 0.5504421 1.8843676 1.3591412 1.4601603 
0.57012445 0.89804286 0.8531655 1.6378427 1.0731341 1.0610211 
0.38431674 1.3654342 1.4713285 1.1815972 0.8695019 0.15435526 
0.0 1.9319744 1.9951986 0.6911513 0.9630249 0.0 
0.0 1.7717696 1.96537 0.04638995 1.0553963 0.0 
0.0 1.0235798 1.1735473 0.0 0.78296334 0.0 
0.0 0.20712897 0.19617999 0.0 0.3818744 0.0 
0.0 0.003832533 0.0 0.0 0.0 0.063005626 
0.0 0.0 0.0 0.0 0.0 0.07698792 
0.0 0.0 0.0 0.0 0.0 0.07698792 
0.0 0.0 0.0 0.0 0.0 0.07698792 
0.0 0.0 0.0 0.0 0.0 0.07698792 
0.0 0.0 0.0 0.0 0.0 0.07698792 
0.0 0.0 0.0 0.0 0.0 0.07698792 
0.0 0.0 0.0 0.0 0.0 0.07698792 
0.0 0.0 0.0 0.0 0.0 0.07698792 
0.0 0.0 0.0 0.0 0.0 0.07698792 
0.0 0.0 0.0 0.0 0.0 0.07698792 
0.01610849 0.0 0.0 0.044508763 0.0 0.17027587 
0.489806 0.0 0.0 0.26952457 0.2294816 0.6817474 
0.8631642 0.0 0.0 0.3848532 0.82464683 1.1715863 
0.8487829 0.0 0.0 0.56981504 1.4057192 1.4335792 
0.6114001 0.2900817 0.0 0.65946585 1.779425 1.6540918 
0.25794312 0.49049428 0.0 0.62935156 1.9740452 1.744997 
0.21990356 0.33695546 0.0 0.33956105 1.9367319 1.840085 
0.2549045 0.17854935 0.0 0.15060039 1.8437885 1.7878888 
0.30045348 0.0655008 0.0 0.05267171 1.7804831 1.7920241 
0.3051682 0.06454737 0.0 0.051924326 1.782534 1.7940137 
0.61889267 0.0 0.0 0.060495134 1.5546862 1.8837473 
1.0878823 0.0 0.0 0.19016583 1.1816081 1.6941745 
0.95847386 0.27501178 0.0 0.21597804 0.97917384 0.8366999 
0.041648246 1.4467233 1.0873635 0.3300111 1.1896303 0.0 
0.0 1.7626204 2.0329378 0.17849196 1.4366175 0.0 
0.0 1.3445615 1.8325411 0.0141403405 1.0890579 0.0 
0.0 0.4069689 0.5707534 0.0 0.5810532 0.0 
0.0 0.010209254 0.0 0.0 0.0 0.057258587 
0.0 0.0 0.0 0.0 0.0 0.07698792 
0.0 0.0 0.0 0.0 0.0 0.07698792 
0.0 0.0 0.0 0.0 0.0 0.07698792 
0.0 0.0 0.0 0.0 0.0 0.07698792 
0.0 0.0 0.0 0.0 0.0 0.07698792 
0.0 0.0 0.0 0.0 0.0 0.07698792 
0.0 0.0 0.0 0.0 0.0 0.07698792 
0.0 0.0 0.0 0.0 0.0 0.07698792 
0.0 0.0 0.0 0.0 0.0 0.07698792 
0.0 0.0 0.0 0.0 0.0 0.07698792 
0.0046061724 0.0 0.0 0.0 0.019373763 0.14551659 
0.39892977 0.0 0.0 0.0 0.4423 0.5242836 
0.6357961 0.0 0.0 0.0 0.8459819 0.8980495 
0.5401454 0.0 0.0 0.0 1.0553602 1.0753195 
0.35885572 0.0 0.0 0.0 1.2067488 1.1969688 
0.04448752 0.0 0.0 0.0 1.2079332 1.0761473 
0.09328553 0.0 0.0 0.0 1.1570648 0.99802965 
0.08983436 0.0 0.0 0.0 1.1360646 0.90606976 
0.17874944 0.0 0.0 0.0 1.1163212 0.8763875 
0.18215835 0.0 0.0 0.0 1.1155348 0.87579894 
0.68597955 0.0 0.0 0.0 0.9629461 1.1544194 
1.504961 0.0 0.0 0.0 0.9496444 1.3618658 
1.5374806 0.0 0.0 0.0 1.0618604 0.943324 
0.34881413 1.1442543 0.0 0.031404663 1.4409183 0.050025575 
0.0 1.7504678 1.5514723 0.18733755 1.7061516 0.0 
0.0 1.3382125 2.0593405 0.18389343 1.3064198 0.0 
0.0 0.5172013 0.9569191 0.016789597 0.65590686 0.0 
0.0 0.024079766 0.0045593344 0.0 0.0 0.064030476 
0.0 0.0 0.0 0.0 0.0 0.07698792 
0.0 0.0 0.0 0.0 0.0 0.07698792 
0.0 0.0 0.0 0.0 0.0 0.07698792 
0.0 0.0 0.0 0.0 0.0 0.07698792 
0.0 0.0 0.0 0.0 0.0 0.07698792 
0.0 0.0 0.0 0.0 0.0 0.07698792 
0.0 0.0 0.0 0.0 0.0 0.07698792 
0.0 0.0 0.0 0.0 0.0 0.07698792 
0.0 0.0 0.0 0.0 0.0 0.07698792 
0.0 0.0 0.0 0.0 0.0 0.07698792 
0.0 0.0 0.0 0.0 0.0 0.09802971 
0.12136954 0.0 0.0 0.0 0.23607062 0.20977789 
0.22430706 0.0 0.0 0.0 0.40371448 0.2988174 
0.20121539 0.0 0.0 0.0 0.5033512 0.33376828 
0.060874924 0.0 0.0 0.0 0.45251206 0.3531474 
0.0 0.0 0.0 0.0 0.40821537 0.29898435 
0.0 0.0 0.0 0.0 0.34861526 0.28749245 
0.0 0.0 0.0 0.0 0.27572772 0.22066583 
0.0 0.0 0.0 0.0 0.22188933 0.21199046 
0.06463839 0.0 0.0 0.0 0.15098955 0.16824496 
0.8260466 0.0 0.0 0.0 0.13128069 0.4540177 
1.7755013 0.0 0.0 0.0 0.4902018 0.7975687 
1.8307719 0.0 0.0 0.0 1.1502889 0.66149276 
0.45383513 1.3040357 0.0 0.0 1.697029 0.12998465 
0.0 1.6689354 1.042267 0.14346495 1.861613 0.0 
0.0 1.1012242 1.8218421 0.24183905 1.3791611 0.1806284 
0.0 0.37709728 1.0857099 0.16938677 0.5914468 0.057797268 
0.0 0.024414197 0.02682238 0.022884969 0.0 0.078090966 
0.0 0.0 0.0 0.0 0.0 0.07698792 
0.0 0.0 0.0 0.0 0.0 0.07698792 
0.0 0.0 0.0 0.0 0.0 0.07698792 
0.0 0.0 0.0 0.0 0.0 0.07698792 
0.0 0.0 0.0 0.0 0.0 0.07698792 
0.0 0.0 0.0 0.0 0.0 0.07698792 
0.0 0.0 0.0 0.0 0.0 0.07698792 
0.0 0.0 0.0 0.0 0.0 0.07698792 
0.0 0.0 0.0 0.0 0.0 0.07698792 
0.0 0.0 0.0 0.0 0.0 0.07698792 
0.0 0.0 0.0 0.0 0.0 0.07698792 
0.0 0.0 0.0 0.0 0.0 0.07698792 
0.0 0.0 0.0 0.0 0.0 0.07698792 
0.0 0.0 0.0 0.0 0.0 0.07698792 
0.0 0.0 0.0 0.0 0.0 0.07698792 
0.0 0.0 0.0 0.0 0.0 0.07698792 
0.0 0.0 0.0 0.0 0.0 0.07698792 
0.0 0.0 0.0 0.0 0.0 0.07698792 
0.0 0.0 0.0 0.0 0.0 0.06492054 
0.2015506 0.0 0.103788085 0.0 0.0 0.0 
1.1496265 0.0 0.0 0.0 0.0 0.19484985 
1.9563417 0.0 0.0 0.0 0.4406775 0.48032138 
1.6513081 0.55302733 0.0 0.0 1.4850264 0.36378872 
0.0061663687 1.5126811 0.0 0.0 2.086273 0.14492576 
0.0 1.388163 0.8243865 0.08845429 1.8936838 0.14867526 
0.0 0.70276016 1.418059 0.197528 1.2178526 0.40562904 
0.0 0.20677152 0.91708535 0.2165058 0.36170188 0.15847668 
0.0 0.003007655 0.011884429 0.01325822 0.0 0.08374082 
0.0 0.0 0.0 0.0 0.0 0.07698792 
0.0 0.0 0.0 0.0 0.0 0.07698792 
0.0 0.0 0.0 0.0 0.0 0.07698792 
0.0 0.0 0.0 0.0 0.0 0.07698792 
0.0 0.0 0.0 0.0 0.0 0.07698792 
0.0 0.0 0.0 0.0 0.0 0.07698792 
0.0 0.0 0.0 0.0 0.0 0.07698792 
0.0 0.0 0.0 0.0 0.0 0.07698792 
0.0 0.0 0.0 0.0 0.0 0.07698792 
0.0 0.0 0.0 0.0 0.0 0.07698792 
0.0 0.0 0.0 0.0 0.0 0.07698792 
0.0 0.0 0.0 0.0 0.0 0.07698792 
0.0 0.0 0.0 0.0 0.0 0.07698792 
0.0 0.0 0.0 0.0 0.0 0.07698792 
0.0 0.0 0.0 0.0 0.0 0.07698792 
0.0 0.0 0.0 0.0 0.0 0.07698792 
0.0 0.0 0.0 0.0 0.0 0.07698792 
0.0 0.0 0.0 0.0 0.0 0.06416633 
0.123926744 0.0 0.116654344 0.0 0.0 0.0 
0.6475297 0.0 0.061365455 0.0 0.0 0.0 
1.5150263 0.0 0.0 0.0 0.0 0.035699673 
1.9905684 0.14167716 0.0 0.0 0.82572496 0.09920612 
0.9948177 1.242192 0.0 0.0 2.0019686 0.070322245 
0.0 1.6434691 0.0 0.0 2.2827199 0.077766985 
0.0 1.151151 0.88790184 0.0 1.6518217 0.25576317 
0.0 0.38614085 1.0331143 0.019999903 0.8837694 0.37240773 
0.0 0.03569847 0.5633433 0.09757415 0.15516362 0.16597128 
0.0 0.0 0.0 0.0 0.0 0.08147698 
0.0 0.0 0.0 0.0 0.0 0.07698792 
0.0 0.0 0.0 0.0 0.0 0.07698792 
0.0 0.0 0.0 0.0 0.0 0.07698792 
0.0 0.0 0.0 0.0 0.0 0.07698792 
0.0 0.0 0.0 0.0 0.0 0.07698792 
0.0 0.0 0.0 0.0 0.0 0.07698792 
0.0 0.0 0.0 0.0 0.0 0.07698792 
0.0 0.0 0.0 0.0 0.0 0.07698792 
0.0 0.0 0.0 0.0 0.0 0.07698792 
0.0 0.0 0.0 0.0 0.0 0.07698792 
0.0 0.0 0.0 0.0 0.0 0.07698792 
0.0 0.0 0.0 0.0 0.0 0.07698792 
0.0 0.0 0.0 0.0 0.0 0.07698792 
0.0 0.0 0.0 0.0 0.0 0.07698792 
0.0 0.0 0.0 0.0 0.0 0.07698792 
0.0 0.0 0.0 0.0 0.0 0.07698792 
0.0 0.0 0.0 0.0 0.0 0.07698792 
0.04197494 0.0 0.043130793 0.0 0.0 0.031218458 
0.45350844 0.0 0.09687916 0.0 0.0 0.0 
1.215107 0.0 0.025409624 0.0 0.0 0.0 
1.8327954 0.0 0.0 0.0 0.28405285 0.07642665 
1.4270809 0.86727214 0.0 0.025102466 1.5627259 0.15425386 
0.10941361 1.5435369 0.0 0.0003353851 2.4335916 0.1860278 
0.0 1.6098349 0.42470604 0.14539947 2.0667176 0.26444107 
0.0 0.77164483 1.0132848 0.03571176 1.3184916 0.42403996 
0.0 0.12988386 0.7418643 0.0030375067 0.56257373 0.27880698 
0.0 0.0 0.19217634 0.0 0.058029767 0.11910017 
0.0 0.0 0.0 0.0 0.0 0.07782502 
0.0 0.0 0.0 0.0 0.0 0.07698792 
0.0 0.0 0.0 0.0 0.0 0.07698792 
0.0 0.0 0.0 0.0 0.0 0.07698792 
0.0 0.0 0.0 0.0 0.0 0.07698792 
0.0 0.0 0.0 0.0 0.0 0.07698792 
0.0 0.0 0.0 0.0 0.0 0.07698792 
0.0 0.0 0.0 0.0 0.0 0.07698792 
0.0 0.0 0.0 0.0 0.0 0.07698792 
0.0 0.0 0.0 0.0 0.0 0.07698792 
0.0 0.0 0.0 0.0 0.0 0.07698792 
0.0 0.0 0.0 0.0 0.0 0.07698792 
0.0 0.0 0.0 0.0 0.0 0.07698792 
0.0 0.0 0.0 0.0 0.0 0.07698792 
0.0 0.0 0.0 0.0 0.0 0.07698792 
0.0 0.0 0.0 0.0 0.0 0.07698792 
0.0 0.0 0.0 0.0 0.0 0.07698792 
0.0 0.0 0.0 0.0 0.0 0.05850974 
0.25692725 0.0 0.060549162 0.0 0.0 0.005264297 
0.9596128 0.0 0.023783118 0.0 0.0 0.0090967715 
1.7202525 0.0 0.0 0.0 0.0 0.07874433 
1.8114817 0.52248025 0.0 0.019065805 1.1903867 0.1536766 
0.6897993 1.3817143 0.0 0.043945212 2.3546286 0.2474555 
0.0 1.6867249 0.024640895 0.08549178 2.4159555 0.21272579 
0.0 1.1582345 0.9082865 0.16429968 1.751712 0.34813535 
0.0 0.38069016 1.0307901 0.12605286 0.9082715 0.41530472 
0.0 0.06825658 0.5675456 0.088933386 0.22346629 0.17916906 
0.0 0.0 0.0 0.0 0.0 0.082999796 
0.0 0.0 0.0 0.0 0.0 0.07698792 
0.0 0.0 0.0 0.0 0.0 0.07698792 
0.0 0.0 0.0 0.0 0.0 0.07698792 
0.0 0.0 0.0 0.0 0.0 0.07698792 
0.0 0.0 0.0 0.0 0.0 0.07698792 
0.0 0.0 0.0 0.0 0.0 0.07698792 
0.0 0.0 0.0 0.0 0.0 0.07698792 
0.0 0.0 0.0 0.0 0.0 0.07698792 
0.0 0.0 0.0 0.0 0.0 0.07698792 
0.0 0.0 0.0 0.0 0.0 0.07698792 
0.0 0.0 0.0 0.0 0.0 0.07698792 
0.0 0.0 0.0 0.0 0.0 0.07698792 
0.0 0.0 0.0 0.0 0.0 0.07698792 
0.0 0.0 0.0 0.0 0.0 0.07698792 
0.0 0.0 0.0 0.0 0.0 0.07698792 
0.0 0.0 0.0 0.0 0.0 0.07698792 
0.0 0.0 0.0 0.0 0.0 0.073593974 
0.094924405 0.0 0.082555674 0.0 0.0 0.004771188 
0.6929936 0.0 0.017868735 0.0 0.0 0.0009976625 
1.4697406 0.0 0.0 0.0 0.0 0.12485997 
1.9377108 0.14469564 0.0 0.0 0.7291244 0.191697 
1.2463503 1.1747508 0.0 0.11496921 1.9580046 0.32216188 
0.0 1.6776929 0.0 0.10613893 2.6081765 0.3957256 
0.0 1.6082286 0.45826554 0.1671919 2.1276429 0.5062747 
0.0 0.66441077 0.9512502 0.037786897 1.2925256 0.50021803 
0.0 0.15761513 0.7745827 0.08968428 0.46298918 0.3472787 
0.0 0.0 0.3081629 0.02970947 0.055511784 0.126695 
0.0 0.0 0.0 0.0 0.0 0.07698792 
0.0 0.0 0.0 0.0 0.0 0.07698792 
0.0 0.0 0.0 0.0 0.0 0.07698792 
0.0 0.0 0.0 0.0 0.0 0.07698792 
0.0 0.0 0.0 0.0 0.0 0.07698792 
0.0 0.0 0.0 0.0 0.0 0.07698792 
0.0 0.0 0.0 0.0 0.0 0.07698792 
0.0 0.0 0.0 0.0 0.0 0.07698792 
0.0 0.0 0.0 0.0 0.0 0.07698792 
0.0 0.0 0.0 0.0 0.0 0.07698792 
0.0 0.0 0.0 0.0 0.0 0.07698792 
0.0 0.0 0.0 0.0 0.0 0.07698792 
0.0 0.0 0.0 0.0 0.0 0.07698792 
0.0 0.0 0.0 0.0 0.0 0.07698792 
0.0 0.0 0.0 0.0 0.0 0.07698792 
0.0 0.0 0.0 0.0 0.0 0.07698792 
0.0 0.0 0.0 0.0 0.0 0.07434818 
0.040723644 0.0 0.065742746 0.0 0.0 0.01284226 
0.4402091 0.0 0.08999019 0.0 0.0 0.0 
1.2143421 0.0 0.0 0.0 0.0 0.008828156 
1.9450428 0.0 0.0 0.0 0.36091176 0.1271671 
1.6412549 0.8019174 0.0 0.0 1.5870395 0.24826372 
0.39191753 1.3878429 0.0 0.0 2.6112177 0.40016234 
0.0 1.5673246 0.091587074 0.11494237 2.5617049 0.46445483 
0.0 0.88555735 0.74042976 0.094886646 1.7531236 0.5608381 
0.0 0.22402678 0.7614879 0.056669723 0.8011536 0.43649417 
0.0 0.0 0.3837925 0.0 0.22518383 0.2196526 
0.0 0.0 0.036959708 0.0 0.00918049 0.08925335 
0.0 0.0 0.0 0.0 0.0 0.07698792 
0.0 0.0 0.0 0.0 0.0 0.07698792 
0.0 0.0 0.0 0.0 0.0 0.07698792 
0.0 0.0 0.0 0.0 0.0 0.07698792 
0.0 0.0 0.0 0.0 0.0 0.07698792 
0.0 0.0 0.0 0.0 0.0 0.07698792 
0.0 0.0 0.0 0.0 0.0 0.07698792 
0.0 0.0 0.0 0.0 0.0 0.07698792 
0.0 0.0 0.0 0.0 0.0 0.07698792 
0.0 0.0 0.0 0.0 0.0 0.07698792 
0.0 0.0 0.0 0.0 0.0 0.07698792 
0.0 0.0 0.0 0.0 0.0 0.07698792 
0.0 0.0 0.0 0.0 0.0 0.07698792 
0.0 0.0 0.0 0.0 0.0 0.07698792 
0.0 0.0 0.0 0.0 0.0 0.07698792 
0.0 0.0 0.0 0.0 0.0 0.07698792 
0.0 0.0 0.0 0.0 0.0 0.06969433 
0.2307806 0.0 0.08237823 0.0 0.0 0.003891483 
0.97424835 0.0 0.035699606 0.0 0.0 0.008953497 
1.7052019 0.0 0.0 0.0 0.015548918 0.117106766 
1.7915759 0.4585983 0.0 0.0 1.1448343 0.19794872 
0.7984685 1.2465382 0.0 0.08311085 2.4148183 0.42026192 
0.0 1.6407044 0.0 0.16092554 2.6758068 0.5624105 
0.0 1.2522795 0.56403923 0.21315306 1.9859649 0.64305884 
0.0 0.40033704 0.84470123 0.08857364 1.0693604 0.5493783 
0.0 0.1125794 0.6582641 0.10058806 0.29795003 0.3147202 
0.0 0.0 0.17791992 0.0 0.03396729 0.11394807 
0.0 0.0 0.0 0.0 0.0 0.07744452 
0.0 0.0 0.0 0.0 0.0 0.07698792 
0.0 0.0 0.0 0.0 0.0 0.07698792 
0.0 0.0 0.0 0.0 0.0 0.07698792 
0.0 0.0 0.0 0.0 0.0 0.07698792 
0.0 0.0 0.0 0.0 0.0 0.07698792 
0.0 0.0 0.0 0.0 0.0 0.07698792 
0.0 0.0 0.0 0.0 0.0 0.07698792 
0.0 0.0 0.0 0.0 0.0 0.07698792 
0.0 0.0 0.0 0.0 0.0 0.07698792 
0.0 0.0 0.0 0.0 0.0 0.07698792 
0.0 0.0 0.0 0.0 0.0 0.07698792 
0.0 0.0 0.0 0.0 0.0 0.07698792 
0.0 0.0 0.0 0.0 0.0 0.07698792 
0.0 0.0 0.0 0.0 0.0 0.07698792 
0.0 0.0 0.0 0.0 0.0 0.07698792 
0.0 0.0 0.0 0.0 0.0 0.07698792 
0.033132277 0.0 0.029673293 0.0 0.0 0.042086355 
0.5955638 0.0 0.0 0.0 0.0 0.078155786 
1.4568138 0.0 0.0 0.0057057412 0.0 0.19350004 
1.9384444 0.059645817 0.0 0.017163958 0.705702 0.22794925 
1.2806787 1.1171968 0.0 0.19652441 1.9406296 0.3422517 
0.0 1.5961709 0.0 0.031809907 2.751291 0.40035433 
0.0 1.434073 0.21816441 0.09618065 2.3278763 0.54267263 
0.0 0.5998327 0.66022325 0.0 1.3949276 0.60366875 
0.0 0.13915718 0.62159324 0.019034397 0.5074982 0.40272954 
0.0 0.0 0.2558023 0.0 0.13746084 0.17995176 
0.0 0.0 0.0 0.0 0.0 0.0833803 
0.0 0.0 0.0 0.0 0.0 0.07698792 
0.0 0.0 0.0 0.0 0.0 0.07698792 
0.0 0.0 0.0 0.0 0.0 0.07698792 
0.0 0.0 0.0 0.0 0.0 0.07698792 
0.0 0.0 0.0 0.0 0.0 0.07698792 
0.0 0.0 0.0 0.0 0.0 0.07698792 
0.0 0.0 0.0 0.0 0.0 0.07698792 
0.0 0.0 0.0 0.0 0.0 0.07698792 
0.0 0.0 0.0 0.0 0.0 0.07698792 
0.0 0.0 0.0 0.0 0.0 0.07698792 
0.0 0.0 0.0 0.0 0.0 0.07698792 
0.0 0.0 0.0 0.0 0.0 0.07698792 
0.0 0.0 0.0 0.0 0.0 0.07698792 
0.0 0.0 0.0 0.0 0.0 0.07698792 
0.0 0.0 0.0 0.0 0.0 0.07698792 
0.0 0.0 0.0 0.0 0.0 0.07698792 
0.0 0.0 0.0 0.0 0.0 0.052853156 
0.27257344 0.0 0.093513556 0.0 0.0 0.0 
1.1273136 0.0 0.0 0.0 0.0 0.15316933 
1.8820505 0.0 0.0 0.0 0.25080392 0.30529374 
1.7145593 0.6802705 0.0 0.03630304 1.3949866 0.25582013 
0.5238568 1.504316 0.0 0.057172064 2.4621778 0.4097765 
0.0 1.6979281 0.07884552 0.040916376 2.5452495 0.48778522 
0.0 0.982067 0.6857693 0.0 1.6776153 0.5429098 
0.0 0.182991 0.7053624 0.0 0.7831362 0.4377557 
0.0 0.0 0.41837922 0.0 0.20416568 0.23010175 
0.0 0.0 0.022875667 0.0 0.005316559 0.08726138 
0.0 0.0 0.0 0.0 0.0 0.07698792 
0.0 0.0 0.0 0.0 0.0 0.07698792 
0.0 0.0 0.0 0.0 0.0 0.07698792 
0.0 0.0 0.0 0.0 0.0 0.07698792 
0.0 0.0 0.0 0.0 0.0 0.07698792 
0.0 0.0 0.0 0.0 0.0 0.07698792 
0.0 0.0 0.0 0.0 0.0 0.07698792 
0.0 0.0 0.0 0.0 0.0 0.07698792 
0.0 0.0 0.0 0.0 0.0 0.07698792 
0.0 0.0 0.0 0.0 0.0 0.07698792 
0.0 0.0 0.0 0.0 0.0 0.07698792 
0.0 0.0 0.0 0.0 0.0 0.07698792 
0.0 0.0 0.0 0.0 0.0 0.07698792 
0.0 0.0 0.0 0.0 0.0 0.07698792 
0.0 0.0 0.0 0.0 0.0 0.07698792 
0.0 0.0 0.0 0.0 0.0 0.07698792 
0.0 0.0 0.0 0.0 0.0 0.07698792 
0.029176906 0.0 0.0 0.0 0.0 0.057226427 
0.5983075 0.0 0.0 0.0 0.0 0.11193905 
1.6446507 0.0 0.0 0.0 0.0 0.3694204 
2.106212 0.05807136 0.0 0.0 0.8379217 0.40037832 
1.3060908 1.1794701 0.0 0.0 1.9058623 0.14218122 
0.0 1.7181846 0.0 0.0 2.583687 0.0060712025 
0.0 1.5367157 0.8512143 0.0 1.9892148 0.0 
0.0 0.6484943 1.0298332 0.0 1.1804467 0.04400809 
0.0 0.2408377 0.70601004 0.0 0.38896897 0.017752841 
0.0 0.0 0.24910462 0.0 0.022384 0.0 
0.0036497265 0.10825113 0.0562473 0.0 0.0 0.0 
0.0036497265 0.10825113 0.0562473 0.0 0.0 0.0 
0.0 0.111096084 0.049019724 0.0 0.0 0.0 
0.0 0.1165371 0.015005961 0.0 0.0 0.0 
0.0 0.08323274 0.0 0.0 0.0 0.0 
0.0 0.051781666 0.0 0.0 0.0 0.0 
0.0 0.013059127 0.0 0.0 0.0 0.057186496 
0.0 0.0 0.0 0.0 0.0 0.07698792 
0.0 0.0 0.0 0.0 0.0 0.07698792 
0.0 0.0 0.0 0.0 0.0 0.07698792 
0.0 0.0 0.0 0.0 0.0 0.07698792 
0.0 0.0 0.0 0.0 0.0 0.07698792 
0.0 0.0 0.0 0.0 0.0 0.07698792 
0.0 0.0 0.0 0.0 0.0 0.07698792 
0.0 0.0 0.0 0.0 0.0 0.07698792 
0.0 0.0 0.0 0.0 0.0 0.07698792 
0.0 0.0 0.0 0.0 0.0 0.07698792 
0.0 0.0 0.0 0.0 0.0 0.07698792 
0.05803269 0.0 0.0 0.028088633 0.0 0.16797861 
0.81779176 0.0 0.0 0.20177224 0.0 0.5210522 
1.8808641 0.0 0.0 0.2825804 0.36722782 0.7664954 
1.9859216 0.2080738 0.0 0.3098971 1.205579 0.6611716 
1.0771303 1.3466756 0.0 0.0016898783 1.8642632 0.14115837 
0.0 1.9937057 0.71422166 0.0 2.0140467 0.0 
0.0 1.6438843 1.7431006 0.0 1.3549267 0.0 
0.0 1.0619655 1.7281331 0.0 0.7204005 0.0 
0.0 0.66771704 1.1217172 0.0 0.15542251 0.0 
0.33077276 0.67097586 0.67365605 0.0 0.0 0.0 
0.3498022 0.696176 0.6524142 0.0 0.0 0.0 
0.35061038 0.6952988 0.65303224 0.0 0.0 0.0 
0.33764166 0.70667464 0.6469619 0.0 0.0 0.0 
0.23331204 0.7551545 0.5852092 0.0 0.0 0.0 
0.00036453456 0.7290551 0.41528898 0.0 0.09608221 0.0 
0.0 0.5123014 0.2861272 0.0 0.1609936 0.0 
0.0 0.2686623 0.10518325 0.0 0.13119097 0.0 
0.0 0.0891073 0.0 0.0 0.025214862 0.0 
0.0 0.0 0.0 0.0 0.0 0.07021375 
0.0 0.0 0.0 0.0 0.0 0.07698792 
0.0 0.0 0.0 0.0 0.0 0.07698792 
0.0 0.0 0.0 0.0 0.0 0.07698792 
0.0 0.0 0.0 0.0 0.0 0.07698792 
0.0 0.0 0.0 0.0 0.0 0.07698792 
0.0 0.0 0.0 0.0 0.0 0.07698792 
0.0 0.0 0.0 0.0 0.0 0.07698792 
0.0 0.0 0.0 0.0 0.0 0.07698792 
0.0 0.0 0.0 0.0 0.0 0.07698792 
0.09551455 0.0 0.0 0.08958699 0.0 0.2509011 
0.8512005 0.0 0.0 0.30278403 0.18942405 0.88990855 
1.6855628 0.0 0.0 0.4501493 0.7472029 1.3141942 
1.9358392 0.0 0.0 0.5297702 1.3124579 1.1633339 
1.1499672 0.99747545 0.0 0.36442485 1.6068718 0.60539514 
0.0 1.5588241 1.2076778 0.050798383 1.5893756 0.0 
0.0 1.4235313 2.0395346 0.0 1.2667221 0.0 
0.0 1.3013524 2.075424 0.0 0.8501771 0.0 
0.29252067 1.0641719 1.4748662 0.0 0.5041181 0.0 
0.43545556 1.0762111 1.1955587 0.0 0.37597093 0.0 
0.43467432 1.0741773 1.1942846 0.0 0.37724933 0.0 
0.43747234 1.0726092 1.1939013 0.0 0.3738003 0.0 
0.4210003 1.0953498 1.2061608 0.0 0.38228056 0.0 
0.30226827 1.2170281 1.2688085 0.0 0.44415477 0.0 
0.0 1.3979275 1.1347761 0.0 0.6597946 0.0 
0.0 1.172914 0.9129027 0.0 0.72046334 0.0 
0.0 0.6825585 0.5741867 0.0 0.5666135 0.0 
0.0 0.18933254 0.12000931 0.0 0.312431 0.0 
0.0 0.016525093 0.0 0.0 0.0 0.04886199 
0.0 0.0 0.0 0.0 0.0 0.07698792 
0.0 0.0 0.0 0.0 0.0 0.07698792 
0.0 0.0 0.0 0.0 0.0 0.07698792 
0.0 0.0 0.0 0.0 0.0 0.07698792 
0.0 0.0 0.0 0.0 0.0 0.07698792 
0.0 0.0 0.0 0.0 0.0 0.07698792 
0.0 0.0 0.0 0.0 0.0 0.07698792 
0.0 0.0 0.0 0.0 0.0 0.07698792 
0.0 0.0 0.0 0.0 0.0 0.07698792 
0.08009054 0.0 0.0 0.018358715 0.06321412 0.22680016 
0.7953119 0.0 0.0 0.06585522 0.58568436 0.9524369 
1.352926 0.0 0.0 0.19808571 0.9793853 1.524529 
1.5068073 0.0 0.0 0.4534151 1.353914 1.6302421 
1.1648777 0.21569681 0.0 0.8035435 1.5314958 1.4979961 
0.40352133 0.85111153 0.7389679 0.99754506 1.51301 0.8240461 
0.238002 1.0745422 1.7379776 0.8777278 1.4707227 0.16877389 
0.26531982 1.1819364 2.0440938 0.7048436 1.3419245 0.0 
0.47111207 1.3260986 1.7595259 0.52180904 1.2169683 0.0 
0.53622305 1.3477743 1.6187184 0.35158852 1.2476774 0.0 
0.5340466 1.3514159 1.6193668 0.34043625 1.253832 0.0 
0.5383634 1.3474716 1.6166542 0.34120035 1.250128 0.0 
0.51686454 1.3666172 1.6323638 0.32917348 1.2446883 0.0 
0.34592682 1.4947703 1.713959 0.2590544 1.2099718 0.0 
0.0 1.8599012 1.8317907 0.17921935 1.3695773 0.0 
0.0 1.7444075 1.6962423 0.0065495437 1.3395332 0.0 
0.0 1.2142084 1.3269463 0.0 0.9751416 0.0 
0.0 0.36726695 0.46960115 0.0 0.560698 0.0 
0.0 0.01699802 0.0 0.0 0.02802806 0.047120295 
0.0 0.0 0.0 0.0 0.0 0.07698792 
0.0 0.0 0.0 0.0 0.0 0.07698792 
0.0 0.0 0.0 0.0 0.0 0.07698792 
0.0 0.0 0.0 0.0 0.0 0.07698792 
0.0 0.0 0.0 0.0 0.0 0.07698792 
0.0 0.0 0.0 0.0 0.0 0.07698792 
0.0 0.0 0.0 0.0 0.0 0.07698792 
0.0 0.0 0.0 0.0 0.0 0.07698792 
0.0 0.0 0.0 0.0 0.0 0.07698792 
0.015608408 0.0 0.0 0.0 0.07669516 0.13578115 
0.48729825 0.0 0.0 0.0 0.4792466 0.58344805 
1.0178909 0.0 0.0 0.0 0.9930993 1.2658358 
1.1384196 0.0 0.0 0.019125242 1.3413779 1.641773 
1.0275924 0.0 0.0 0.45333028 1.6285272 1.8398709 
0.61173815 0.0515873 0.0 1.0708942 1.7303151 1.8734593 
0.5002022 0.5265158 0.0 1.5317152 1.799694 1.7900894 
0.44892412 0.80505306 0.41909686 1.7238712 1.9057413 1.6199384 
0.39537048 1.1046284 0.59441936 1.8644004 1.9167227 1.5015824 
0.29059416 1.1823934 0.6192312 1.8451889 2.0351799 1.4543614 
0.27589214 1.1807166 0.6251391 1.8383422 2.0499628 1.4496677 
0.28116465 1.1769311 0.6193708 1.8385545 2.0475323 1.452282 
0.26102477 1.1864297 0.63524187 1.8367391 2.0325859 1.4323246 
0.10320307 1.2358545 0.7768042 1.8031721 1.9562966 1.27441 
0.0 1.6212246 1.3395202 1.600672 1.8834414 0.6788531 
0.0 1.6022859 1.728158 1.2876952 1.5695062 0.23627144 
0.0 1.1057907 1.7293025 0.80445504 1.045422 0.18711036 
0.0 0.43596628 0.8531606 0.28006065 0.49964747 0.048156664 
0.0 0.044992365 0.05175432 0.031039767 0.0051363 0.06906645 
0.0 0.0 0.0 0.0 0.0 0.07698792 
0.0 0.0 0.0 0.0 0.0 0.07698792 
0.0 0.0 0.0 0.0 0.0 0.07698792 
0.0 0.0 0.0 0.0 0.0 0.07698792 
0.0 0.0 0.0 0.0 0.0 0.07698792 
0.0 0.0 0.0 0.0 0.0 0.07698792 
0.0 0.0 0.0 0.0 0.0 0.07698792 
0.0 0.0 0.0 0.0 0.0 0.07698792 
0.0 0.0 0.0 0.0 0.0 0.07698792 
0.0 0.0 0.0 0.0 0.0 0.07698792 
0.16816959 0.0 0.0 0.0 0.26895043 0.25614 
0.5783467 0.0 0.0 0.0 0.6365009 0.68539524 
0.83502835 0.0 0.0 0.0 1.0390393 1.16957 
0.8444861 0.0 0.0 0.0 1.3987418 1.5640075 
0.7749611 0.0 0.0 0.0 1.7565218 1.8707166 
0.6257586 0.0 0.0 0.4051749 2.02094 2.030667 
0.50969696 0.0 0.0 0.7264824 2.247455 2.0119522 
0.42162192 0.074505955 0.0 0.9144033 2.3933413 2.0586898 
0.37174076 0.1876376 0.0 1.0196471 2.4622407 2.060115 
0.36658087 0.19747421 0.0 1.0285044 2.4670174 2.0579824 
0.37133896 0.194262 0.0 1.0277312 2.4678633 2.0605288 
0.35940737 0.20682362 0.0 1.0376762 2.4513829 2.05272 
0.23309827 0.32659373 0.0 1.1010327 2.3059149 1.9574039 
0.0 0.74220765 0.0 0.9932925 1.8702062 1.3647671 
0.0 0.7791274 0.69702923 0.8585322 1.2664038 0.8089428 
0.0 0.56635755 1.2408732 0.63413113 0.68652046 0.5774292 
0.0 0.32501003 0.88720906 0.35562423 0.22372599 0.19906503 
0.0 0.04059601 0.06937354 0.04652488 0.0 0.08824026 
0.0 0.0 0.0 0.0 0.0 0.07698792 
0.0 0.0 0.0 0.0 0.0 0.07698792 
0.0 0.0 0.0 0.0 0.0 0.07698792 
0.0 0.0 0.0 0.0 0.0 0.07698792 
0.0 0.0 0.0 0.0 0.0 0.07698792 
0.0 0.0 0.0 0.0 0.0 0.07698792 
0.0 0.0 0.0 0.0 0.0 0.07698792 
0.0 0.0 0.0 0.0 0.0 0.07698792 
0.0 0.0 0.0 0.0 0.0 0.07698792 
0.0 0.0 0.0 0.0 0.0 0.07698792 
0.0 0.0 0.0 0.0 0.0 0.09926746 
0.17075612 0.0 0.0 0.0 0.29412523 0.25060725 
0.42965543 0.0 0.0 0.0 0.58949775 0.5094923 
0.51653904 0.0 0.0 0.0 0.8551666 0.7538512 
0.5578202 0.0 0.0 0.0 1.1154927 1.1097429 
0.52045447 0.0 0.0 0.0 1.372124 1.4159985 
0.3922546 0.0 0.0 0.0 1.4663891 1.5535281 
0.36555713 0.0 0.0 0.0 1.4943094 1.6518393 
0.28404516 0.013483788 0.0 0.0 1.5140525 1.687433 
0.2749499 0.020865675 0.0 0.0 1.5155891 1.6889267 
0.27818927 0.020029835 0.0 0.0 1.5166899 1.6903737 
0.27774504 0.021211054 0.0 0.0 1.5170106 1.6907 
0.24533728 0.020361193 0.0 0.0 1.5059196 1.6534154 
0.0 0.17192042 0.0 0.0 1.1153144 1.2511013 
0.0 0.106980704 0.0 0.0 0.61346674 0.75310606 
0.0 0.01098043 0.35166404 0.0 0.3404782 0.5091505 
0.0 0.0 0.4566477 0.030260883 0.13192464 0.19937019 
0.0 0.0 0.013115399 0.0 0.0 0.08680982 
0.0 0.0 0.0 0.0 0.0 0.07698792 
0.0 0.0 0.0 0.0 0.0 0.07698792 
0.0 0.0 0.0 0.0 0.0 0.07698792 
0.0 0.0 0.0 0.0 0.0 0.07698792 
0.0 0.0 0.0 0.0 0.0 0.07698792 
0.0 0.0 0.0 0.0 0.0 0.07698792 
0.0 0.0 0.0 0.0 0.0 0.07698792 
0.0 0.0 0.0 0.0 0.0 0.07698792 
0.0 0.0 0.0 0.0 0.0 0.07698792 
0.0 0.0 0.0 0.0 0.0 0.07698792 
0.0 0.0 0.0 0.0 0.0 0.07698792 
0.0 0.0 0.0 0.0 0.0 0.08627106 
0.037497625 0.0 0.0 0.0 0.10885222 0.15182634 
0.12953898 0.0 0.0 0.0 0.2519046 0.22476587 
0.23451436 0.0 0.0 0.0 0.4891275 0.32505238 
0.29808247 0.0 0.0 0.0 0.6919763 0.45028663 
0.23737043 0.0 0.0 0.0 0.8191423 0.4911599 
0.2071737 0.0 0.0 0.0 0.9051885 0.55552804 
0.14814383 0.0 0.0 0.0 0.9612866 0.5698659 
0.14218159 0.0 0.0 0.0 0.9658423 0.57011676 
0.143657 0.0 0.0 0.0 0.9667924 0.5706595 
0.14345409 0.0 0.0 0.0 0.9663759 0.57061523 
0.11397669 0.0 0.0 0.0 0.92179626 0.5509563 
0.0 0.0 0.0 0.0 0.61192816 0.4123301 
0.0 0.0 0.0 0.0 0.36285004 0.2806058 
0.0 0.0 0.0 0.0 0.21494137 0.22823511 
0.0 0.0 0.052258693 0.0 0.06191558 0.10846092 
0.0 0.0 0.0 0.0 0.0 0.07889041 
0.0 0.0 0.0 0.0 0.0 0.07698792 
0.0 0.0 0.0 0.0 0.0 0.07698792 
0.0 0.0 0.0 0.0 0.0 0.07698792 
0.0 0.0 0.0 0.0 0.0 0.07698792 
0.0 0.0 0.0 0.0 0.0 0.07698792 
0.0 0.0 0.0 0.0 0.0 0.07698792 
0.0 0.0 0.0 0.0 0.0 0.07698792 
0.0 0.0 0.0 0.0 0.0 0.07698792 
0.0 0.0 0.0 0.0 0.0 0.07698792 
0.0 0.0 0.0 0.0 0.0 0.07698792 
0.0 0.0 0.0 0.0 0.0 0.07698792 
0.0 0.0 0.0 0.0 0.0 0.07698792 
0.0 0.0 0.0 0.0 0.0 0.07698792 
0.0 0.0 0.0 0.0 0.0 0.07698792 
0.0 0.0 0.0 0.0 0.0 0.07698792 
0.0 0.0 0.0 0.0 0.0 0.07698792 
0.0 0.0 0.0 0.0 0.0 0.07698792 
0.0 0.0 0.0 0.0 0.0 0.07698792 
0.0 0.0 0.0 0.0 0.0 0.07698792 
0.0 0.0 0.0 0.0 0.0 0.07698792 
0.0 0.0 0.0 0.0 0.0 0.07698792 
0.0 0.0 0.0 0.0 0.0 0.07698792 
0.0 0.0 0.0 0.0 0.0 0.07698792 
0.0 0.0 0.0 0.0 0.0 0.07698792 
0.0 0.0 0.0 0.0 0.0 0.07698792 
0.0 0.0 0.0 0.0 0.0 0.07698792 
0.0 0.0 0.0 0.0 0.0 0.07698792 
0.0 0.0 0.0 0.0 0.0 0.07698792 
0.0 0.0 0.0 0.0 0.0 0.07698792 
0.0 0.0 0.0 0.0 0.0 0.07698792 
0.0 0.0 0.0 0.0 0.0 0.07698792 
0.0 0.0 0.0 0.0 0.0 0.07698792 
0.0 0.0 0.0 0.0 0.0 0.07698792 
0.0 0.0 0.0 0.0 0.0 0.07698792 
0.0 0.0 0.0 0.0 0.0 0.07698792 
0.0 0.0 0.0 0.0 0.0 0.07698792 
0.0 0.0 0.0 0.0 0.0 0.07698792 
0.0 0.0 0.0 0.0 0.0 0.07698792 
0.0 0.0 0.0 0.0 0.0 0.07698792 
0.0 0.0 0.0 0.0 0.0 0.07698792 
0.0 0.0 0.0 0.0 0.0 0.07698792 
0.0 0.0 0.0 0.0 0.0 0.07698792 
0.0 0.0 0.0 0.0 0.0 0.07698792 
0.0 0.0 0.0 0.0 0.0 0.07698792 
0.0 0.0 0.0 0.0 0.0 0.07698792 
0.0 0.0 0.0 0.0 0.0 0.07698792 
0.0 0.0 0.0 0.0 0.0 0.07698792 
0.0 0.0 0.0 0.0 0.0 0.07698792 
0.0 0.0 0.0 0.0 0.0 0.07698792 
0.0 0.0 0.0 0.0 0.0 0.07698792 
0.0 0.0 0.0 0.0 0.0 0.07698792 
0.0 0.0 0.0 0.0 0.0 0.07698792 
0.0 0.0 0.0 0.0 0.0 0.07698792 
0.0 0.0 0.0 0.0 0.0 0.07698792 
0.0 0.0 0.0 0.0 0.0 0.07698792 
0.0 0.0 0.0 0.0 0.0 0.07698792 
0.0 0.0 0.0 0.0 0.0 0.07698792 
0.0 0.0 0.0 0.0 0.0 0.07698792 

