0.0 0.0 0.0 0.0 0.0 0.07698792 
0.0 0.0 0.0 0.0 0.0 0.07698792 
0.0 0.0 0.0 0.0 0.0 0.07698792 
0.0 0.0 0.0 0.0 0.0 0.07698792 
0.0 0.0 0.0 0.0 0.0 0.07698792 
0.0 0.0 0.0 0.0 0.0 0.07698792 
0.0 0.0 0.0 0.0 0.0 0.07698792 
0.0 0.0 0.0 0.0 0.0 0.07698792 
0.0 0.0 0.0 0.0 0.0 0.07698792 
0.0 0.0 0.0 0.0 0.0 0.07698792 
0.0 0.0 0.0 0.0 0.0 0.07698792 
0.0 0.0 0.0 0.0 0.0 0.07698792 
0.0 0.0 0.0 0.0 0.0 0.07698792 
0.0 0.0 0.0 0.0 0.0 0.07698792 
0.0 0.0 0.0 0.0 0.0 0.07698792 
0.0 0.0 0.0 0.0 0.0 0.07698792 
0.0 0.0 0.0 0.0 0.0 0.07698792 
0.0 0.0 0.0 0.0 0.0 0.07698792 
0.0 0.0 0.0 0.0 0.0 0.07698792 
0.0 0.0 0.0 0.0 0.0 0.07698792 
0.0 0.0 0.0 0.0 0.0 0.07698792 
0.0 0.0 0.0 0.0 0.0 0.07698792 
0.0 0.0 0.0 0.0 0.0 0.07698792 
0.0 0.0 0.0 0.0 0.0 0.07698792 
0.0 0.0 0.0 0.0 0.0 0.07698792 
0.0 0.0 0.0 0.0 0.0 0.07698792 
0.0 0.0 0.0 0.0 0.0 0.07698792 
0.0 0.0 0.0 0.0 0.0 0.07698792 
0.0 0.0 0.0 0.0 0.0 0.07698792 
0.0 0.0 0.0 0.0 0.0 0.07698792 
0.0 0.0 0.0 0.0 0.0 0.07698792 
0.0 0.0 0.0 0.0 0.0 0.07698792 
0.0 0.0 0.0 0.0 0.0 0.07698792 
0.0 0.0 0.0 0.0 0.0 0.07698792 
0.0 0.0 0.0 0.0 0.0 0.07698792 
0.0 0.0 0.0 0.0 0.0 0.07698792 
0.0 0.0 0.0 0.0 0.0 0.07698792 
0.0 0.0 0.0 0.0 0.0 0.07698792 
0.0 0.0 0.0 0.0 0.0 0.07698792 
0.0 0.0 0.0 0.0 0.0 0.07698792 
0.0 0.0 0.0 0.0 0.0 0.07698792 
0.0 0.0 0.0 0.0 0.0 0.07698792 
0.0 0.0 0.0 0.0 0.0 0.07698792 
0.0 0.0 0.0 0.0 0.0 0.07698792 
0.0 0.0 0.0 0.0 0.0 0.07698792 
0.0 0.0 0.0 0.0 0.0 0.07698792 
0.0 0.0 0.0 0.0 0.0 0.07698792 
0.0 0.0 0.0 0.0 0.0 0.07698792 
0.0 0.0 0.0 0.0 0.0 0.07698792 
0.0 0.0 0.0 0.0 0.0 0.07698792 
0.0 0.0 0.0 0.0 0.0 0.07698792 
0.0 0.0 0.0 0.0 0.0 0.07698792 
0.0 0.0 0.0 0.0 0.0 0.07698792 
0.0 0.0 0.0 0.0 0.0 0.07698792 
0.0 0.0 0.0 0.0 0.0 0.07698792 
0.0 0.0 0.0 0.0 0.0 0.07698792 
0.0 0.0 0.0 0.0 0.0 0.07698792 
0.0 0.0 0.0 0.0 0.0 0.07698792 
0.0 0.0 0.0 0.0 0.0 0.07698792 
0.0 0.0 0.0 0.0 0.0 0.07698792 
0.0 0.0 0.0 0.0 0.0 0.07698792 
0.0 0.0 0.0 0.0 0.0 0.07698792 
0.0 0.0 0.0 0.0 0.0 0.07698792 
0.0 0.0 0.0 0.0 0.0 0.07698792 
0.0 0.0 0.0 0.0 0.0 0.07698792 
0.0 0.0 0.0 0.0 0.0 0.07698792 
0.0 0.0 0.0 0.0 0.0 0.07698792 
0.0 0.0 0.0 0.0 0.0 0.07698792 
0.0 0.0 0.0 0.0 0.0 0.07698792 
0.0 0.0 0.0 0.0 0.0 0.07698792 
0.0 0.0 0.0 0.0 0.0 0.07698792 
0.0 0.0 0.0 0.0 0.0 0.07698792 
0.0 0.0 0.0 0.0 0.0 0.07698792 
0.0 0.0 0.0 0.0 0.0 0.07698792 
0.0 0.0 0.0 0.0 0.0 0.07698792 
0.0 0.0 0.0 0.0 0.0 0.07698792 
0.0 0.0 0.0 0.0 0.0 0.07698792 
0.0 0.0 0.0 0.0 0.0 0.07698792 
0.0 0.0 0.0 0.0 0.0 0.07698792 
0.0 0.0 0.0 0.0 0.0 0.07698792 
0.0 0.0 0.0 0.0 0.0 0.07698792 
0.0 0.0 0.0 0.0 0.0 0.07698792 
0.0 0.0 0.0 0.0 0.0 0.07698792 
0.0 0.0 0.0 0.0 0.0 0.07698792 
0.0 0.0 0.0 0.0 0.0 0.07698792 
0.0 0.0 0.0 0.0 0.0 0.07698792 
0.0 0.0 0.0 0.0 0.0 0.07698792 
0.0 0.0 0.0 0.0 0.0 0.07698792 
0.0 0.0 0.0 0.0 0.0 0.07698792 
0.0 0.0 0.0 0.0 0.0 0.07698792 
0.0 0.0 0.0 0.0 0.0 0.07698792 
0.0 0.0 0.0 0.0 0.0 0.07283976 
0.02444335 0.0 0.05280757 0.0 0.0 0.014712062 
0.2032423 0.02726046 0.17059359 0.0 0.0 0.0 
0.31069738 0.1593014 0.2943995 0.0 0.0 0.0 
0.36229935 0.35151097 0.42115965 0.0 0.0 0.0 
0.2994838 0.5428126 0.44438475 0.0 0.0 0.0 
0.107963756 0.6118634 0.33011988 0.0 0.0 0.0 
0.0 0.48036572 0.2257491 0.0 0.060446355 0.0 
0.0 0.2961694 0.11025786 0.0 0.07684676 0.0 
0.0 0.085806996 0.065018274 0.0 0.0 0.0 
0.0336394 0.07084788 0.003942929 0.0 0.0 0.0 
0.0 0.07365293 0.0 0.0 0.0 0.0 
0.0 0.092405334 0.0087878555 0.0 0.0 0.0 
0.0 0.061968 0.0 0.0 0.0 0.0 
0.0 0.0035201106 0.0 0.0 0.0 0.06604503 
0.0 0.0 0.0 0.0 0.0 0.07698792 
0.0 0.0 0.0 0.0 0.0 0.07698792 
0.0 0.0 0.0 0.0 0.0 0.07698792 
0.0 0.0 0.0 0.0 0.0 0.07698792 
0.0 0.0 0.0 0.0 0.0 0.07698792 
0.0 0.0 0.0 0.0 0.0 0.07698792 
0.0 0.0 0.0 0.0 0.0 0.07698792 
0.0 0.0 0.0 0.0 0.0 0.07698792 
0.0 0.0 0.0 0.0 0.0 0.07698792 
0.0 0.0 0.0 0.0 0.0 0.07698792 
0.0 0.0 0.0 0.0 0.0 0.07698792 
0.0 0.0 0.0 0.0 0.0 0.07698792 
0.0 0.0 0.0 0.0 0.0 0.07698792 
0.019841246 0.0 0.043667473 0.0 0.0 0.029970892 
0.32406527 0.0 0.14280674 0.0 0.0 0.0 
0.6502789 6.7315064e-05 0.2694042 0.0 0.0 0.0 
0.86594325 0.28556144 0.4531309 0.0 0.0 0.0 
0.846882 0.7410321 0.75641346 0.0 0.0 0.0 
0.5700546 1.0418091 1.0045605 0.0 0.06535941 0.0 
0.19860864 1.2504405 1.0958365 0.0 0.38501254 0.0 
0.0 1.2287252 0.9156611 0.0 0.549757 0.0 
0.0 0.75192136 0.8095834 0.0 0.40422955 0.0 
0.11265282 0.38602066 0.51289785 0.0 0.0038504936 0.0 
0.4045388 0.37699348 0.4343511 0.0 0.0 0.0 
0.27745506 0.6278403 0.34964895 0.0 0.0 0.0 
0.0 0.6765789 0.3871222 0.0 0.11448404 0.0 
0.0 0.38732764 0.22125444 0.0 0.23087712 0.0 
0.0 0.1515647 0.019364335 0.0 0.09479253 0.0 
0.0 0.014181363 0.0 0.0 0.0 0.056144316 
0.0 0.0 0.0 0.0 0.0 0.07698792 
0.0 0.0 0.0 0.0 0.0 0.07698792 
0.0 0.0 0.0 0.0 0.0 0.07698792 
0.0 0.0 0.0 0.0 0.0 0.07698792 
0.0 0.0 0.0 0.0 0.0 0.07698792 
0.0 0.0 0.0 0.0 0.0 0.07698792 
0.0 0.0 0.0 0.0 0.0 0.07698792 
0.0 0.0 0.0 0.0 0.0 0.07698792 
0.0 0.0 0.0 0.0 0.0 0.07698792 
0.0 0.0 0.0 0.0 0.0 0.07698792 
0.0 0.0 0.0 0.0 0.0 0.07698792 
0.0 0.0 0.0 0.0 0.0 0.07698792 
0.08196375 0.0 0.0 0.0 0.0 0.08696605 
0.65739197 0.0 0.031950213 0.0 0.0 0.09867829 
1.236722 0.0 0.115773134 0.0 0.0 0.0 
1.2655401 0.23534802 0.42381632 0.0 0.0 0.0 
0.86725193 0.784904 0.94016016 0.036326546 0.60069454 0.0 
0.44183493 1.1455989 1.4353924 0.07719644 1.0511432 0.0 
0.17677967 1.5162917 1.7815471 0.07777165 1.0710449 0.0 
0.0 1.686458 1.9288608 0.0 1.0183932 0.0 
0.0 1.4853865 1.5387436 0.0 0.66353697 0.0 
0.13266121 0.712916 1.153954 0.0 0.30500123 0.0 
0.6883982 0.5871198 0.7218908 0.0 0.09632367 0.0 
0.41106218 1.0872512 0.81990147 0.0 0.2937821 0.0 
0.0 1.2415457 0.95403993 0.0 0.64477915 0.0 
0.0 0.9433008 0.83462363 0.0 0.6943451 0.0 
0.0 0.31324908 0.27167636 0.0 0.44811818 0.0 
0.0 0.053160794 0.0 0.0 0.060889687 0.0042354465 
0.0 0.0 0.0 0.0 0.0 0.07698792 
0.0 0.0 0.0 0.0 0.0 0.07698792 
0.0 0.0 0.0 0.0 0.0 0.07698792 
0.0 0.0 0.0 0.0 0.0 0.07698792 
0.0 0.0 0.0 0.0 0.0 0.07698792 
0.0 0.0 0.0 0.0 0.0 0.07698792 
0.0 0.0 0.0 0.0 0.0 0.07698792 
0.0 0.0 0.0 0.0 0.0 0.07698792 
0.0 0.0 0.0 0.0 0.0 0.07698792 
0.0 0.0 0.0 0.0 0.0 0.07698792 
0.0 0.0 0.0 0.0 0.0 0.07698792 
0.0 0.0 0.0 0.0 0.0 0.07698792 
0.17489652 0.0 0.0 0.046740454 0.0 0.23209676 
0.92083097 0.0 0.0 0.23981221 0.0 0.47805557 
1.580878 0.0 0.0 0.49503258 0.051257852 0.4448747 
1.4096363 0.59661824 0.0 0.7746706 0.7373185 0.35553527 
0.77007765 1.4079657 0.4138797 1.0568058 1.5010607 0.43052655 
0.19799244 1.6032503 0.90336996 1.2066262 1.9410251 0.6089902 
0.052932277 1.3925046 1.4018694 1.3133204 1.6188219 0.5613353 
0.06044419 1.4357402 1.8809496 1.1720338 1.1274606 0.0 
0.12657994 1.361476 2.0897584 0.74198896 0.99772924 0.0 
0.36325473 1.155762 1.675561 0.22990386 0.82705015 0.0 
0.5885853 0.9113527 1.127282 0.0 0.8879845 0.0 
0.32194275 1.2387718 1.0709544 0.0 1.0537804 0.0 
0.0 1.8360898 1.6006701 0.13653666 1.1106592 0.0 
0.0 1.5273883 1.6524038 0.0 1.133217 0.0 
0.0 0.7186386 0.83807117 0.0 0.7038974 0.0 
0.0 0.11197005 0.09750419 0.0 0.20929696 0.0 
0.0 0.0 0.0 0.0 0.0 0.07698792 
0.0 0.0 0.0 0.0 0.0 0.07698792 
0.0 0.0 0.0 0.0 0.0 0.07698792 
0.0 0.0 0.0 0.0 0.0 0.07698792 
0.0 0.0 0.0 0.0 0.0 0.07698792 
0.0 0.0 0.0 0.0 0.0 0.07698792 
0.0 0.0 0.0 0.0 0.0 0.07698792 
0.0 0.0 0.0 0.0 0.0 0.07698792 
0.0 0.0 0.0 0.0 0.0 0.07698792 
0.0 0.0 0.0 0.0 0.0 0.07698792 
0.0 0.0 0.0 0.0 0.0 0.07698792 
0.0 0.0 0.0 0.0 0.0 0.07698792 
0.2144703 0.0 0.0 0.124810204 0.0 0.33832568 
1.1307461 0.0 0.0 0.21964845 0.12248537 0.9176822 
1.8767328 0.0 0.0 0.32636657 0.6653818 1.0761998 
1.619987 0.44421777 0.0 0.43263775 1.6416137 0.9694768 
0.62257177 1.2439471 0.0 0.57321036 2.491725 1.0390623 
0.0 1.1318698 0.0 0.595175 2.9060647 1.303227 
0.0 0.4155285 0.0 0.7773358 2.154602 1.6031971 
0.51012766 0.2529076 0.33021313 1.0185452 1.301706 1.224066 
0.70438415 0.9329771 1.148998 1.1007438 1.0183724 0.5197065 
0.85717833 1.282735 1.4421605 0.8780723 1.2635404 0.28345844 
0.78767556 1.5624039 1.0677805 0.43730918 1.4954742 0.09840211 
0.41303015 1.7817822 0.82243115 0.13557222 1.5477742 0.0 
0.0 2.1169584 1.5787753 0.26236355 1.5976838 0.0 
0.0 1.7840089 2.1159496 0.24268687 1.4171878 0.0 
0.0 1.0166044 1.4341539 0.055534344 0.8790434 0.0 
0.0 0.20035523 0.30164853 0.0 0.3019729 0.0 
0.0 0.0 0.0 0.0 0.0 0.07698792 
0.0 0.0 0.0 0.0 0.0 0.07698792 
0.0 0.0 0.0 0.0 0.0 0.07698792 
0.0 0.0 0.0 0.0 0.0 0.07698792 
0.0 0.0 0.0 0.0 0.0 0.07698792 
0.0 0.0 0.0 0.0 0.0 0.07698792 
0.0 0.0 0.0 0.0 0.0 0.07698792 
0.0 0.0 0.0 0.0 0.0 0.07698792 
0.0 0.0 0.0 0.0 0.0 0.07698792 
0.0 0.0 0.0 0.0 0.0 0.07698792 
0.0 0.0 0.0 0.0 0.0 0.07698792 
0.0 0.0 0.0 0.0 0.0 0.07698792 
0.20941105 0.0 0.0 0.0 0.15594643 0.3241817 
1.1290853 0.0 0.0 0.057661206 0.44864634 1.0373936 
1.8451467 0.0 0.0 0.09242153 0.86981297 1.2840905 
1.519537 0.3927246 0.0 0.047357965 1.6135775 0.89461285 
0.3302225 1.3194778 0.0 0.0 2.2391484 0.73919535 
0.0 1.1866639 0.02057685 0.0 2.4990633 0.8881435 
0.28307718 0.08688964 0.0 0.0 1.9636072 1.4292874 
1.1008899 0.0 0.0 0.0 1.1295146 1.553941 
1.2788005 0.0 0.0 0.12142976 1.271265 1.018168 
1.2753639 0.7046748 0.22101521 0.4069061 1.6650813 0.71437603 
1.1150832 1.1634005 0.50753844 0.20979922 2.2095957 0.48978615 
0.28692597 1.7662052 0.2476536 0.051791325 2.3778093 0.09459336 
0.0 1.7975155 0.9001137 0.0 2.2165825 0.0 
0.0 1.5817596 1.8616794 0.2241676 1.7271165 0.0 
0.0 0.8109865 1.5867091 0.17271532 1.0347236 0.030388407 
0.0 0.20757838 0.4845512 0.08996213 0.2706153 0.038367227 
0.0 0.0 0.0 0.0 0.0 0.07698792 
0.0 0.0 0.0 0.0 0.0 0.07698792 
0.0 0.0 0.0 0.0 0.0 0.07698792 
0.0 0.0 0.0 0.0 0.0 0.07698792 
0.0 0.0 0.0 0.0 0.0 0.07698792 
0.0 0.0 0.0 0.0 0.0 0.07698792 
0.0 0.0 0.0 0.0 0.0 0.07698792 
0.0 0.0 0.0 0.0 0.0 0.07698792 
0.0 0.0 0.0 0.0 0.0 0.07698792 
0.0 0.0 0.0 0.0 0.0 0.07698792 
0.0 0.0 0.0 0.0 0.0 0.07698792 
0.0 0.0 0.0 0.0 0.0 0.07698792 
0.08601299 0.0 0.0 0.0 0.09510745 0.21511915 
0.9155029 0.0 0.0 0.027944356 0.4426861 0.89009315 
1.685143 0.0 0.0 0.0014079558 0.7468674 1.238574 
1.4264894 0.11322499 0.0 0.0 1.1459719 0.61466837 
0.49249333 1.0176598 0.0 0.0 1.5664569 0.089375906 
0.0 1.164876 0.8747686 0.0 1.7666279 0.0 
0.20125335 0.1868001 0.092524536 0.0 1.563726 0.18723135 
1.3938944 0.0 0.0 0.0 1.335233 0.77232146 
1.7052743 0.0 0.0 0.0 1.1422588 0.6486967 
1.513968 0.5375622 0.0 0.0 1.7299968 0.56496716 
0.9846311 1.2657703 0.24350023 0.098597616 2.522809 0.66315705 
0.054844856 1.7196736 0.4449799 0.20745909 2.7655232 0.34792727 
0.0 1.9211835 0.74017847 0.19422968 2.352615 0.0821051 
0.0 1.3073137 1.5436101 0.24587756 1.711317 0.18643907 
0.0 0.50800985 1.3430617 0.2109152 0.9190727 0.24459784 
0.0 0.15125696 0.5015028 0.15878081 0.13652061 0.10679661 
0.0 0.0 0.0 0.0 0.0 0.07698792 
0.0 0.0 0.0 0.0 0.0 0.07698792 
0.0 0.0 0.0 0.0 0.0 0.07698792 
0.0 0.0 0.0 0.0 0.0 0.07698792 
0.0 0.0 0.0 0.0 0.0 0.07698792 
0.0 0.0 0.0 0.0 0.0 0.07698792 
0.0 0.0 0.0 0.0 0.0 0.07698792 
0.0 0.0 0.0 0.0 0.0 0.07698792 
0.0 0.0 0.0 0.0 0.0 0.07698792 
0.0 0.0 0.0 0.0 0.0 0.07698792 
0.0 0.0 0.0 0.0 0.0 0.07698792 
0.0 0.0 0.0 0.0 0.0 0.07698792 
0.0 0.0 0.0 0.0 0.020874154 0.13291153 
0.6428846 0.0 0.0 0.0 0.38177183 0.6991407 
1.4616435 0.0 0.0 0.009018456 0.6663682 1.2706435 
1.3968122 0.0 0.0 0.0 0.6727772 0.76781654 
0.6280418 0.75878197 0.0 0.015995484 0.80266666 0.0 
0.0 1.3256817 1.8043567 0.0 0.9867534 0.0 
0.22504908 0.8150487 1.635881 0.0 1.1119164 0.0 
1.5091968 0.20439261 0.0 0.0 1.1927847 0.0 
1.8564956 0.4140546 0.0 0.0 1.4177768 0.14501435 
1.4566159 0.8595744 0.0 0.0 2.1224036 0.45927173 
0.6791974 1.2739416 0.0 0.0 2.913611 0.6878968 
0.0 1.7472625 0.3246944 0.13649842 2.9684062 0.5164064 
0.0 1.6384813 0.7592029 0.19436722 2.30946 0.34034976 
0.0 0.86121625 1.2070348 0.14834605 1.4565107 0.46671182 
0.0 0.25975546 0.98123276 0.188652 0.56721157 0.31555134 
0.0 0.009222983 0.3102453 0.05666991 0.051936302 0.12049865 
0.0 0.0 0.0 0.0 0.0 0.07698792 
0.0 0.0 0.0 0.0 0.0 0.07698792 
0.0 0.0 0.0 0.0 0.0 0.07698792 
0.0 0.0 0.0 0.0 0.0 0.07698792 
0.0 0.0 0.0 0.0 0.0 0.07698792 
0.0 0.0 0.0 0.0 0.0 0.07698792 
0.0 0.0 0.0 0.0 0.0 0.07698792 
0.0 0.0 0.0 0.0 0.0 0.07698792 
0.0 0.0 0.0 0.0 0.0 0.07698792 
0.0 0.0 0.0 0.0 0.0 0.07698792 
0.0 0.0 0.0 0.0 0.0 0.07698792 
0.0 0.0 0.0 0.0 0.0 0.07698792 
0.0 0.0 0.0 0.0 0.0 0.08998432 
0.39367127 0.0 0.0 0.0 0.33221194 0.4806232 
1.1379209 0.0 0.0 0.101187095 0.64375705 1.1475153 
1.3779876 0.0 0.0 0.27845582 0.6163305 1.1448011 
1.0082235 0.299275 0.0 0.32183108 0.68952155 0.46457136 
0.42271513 0.9685442 1.2931536 0.44394076 0.79501396 0.0 
0.6094994 1.0531836 2.0429857 0.25339213 1.1048406 0.0 
1.2273548 1.0019859 0.7894771 0.0 1.6117955 0.0 
1.3796108 0.9213503 0.0 0.0 2.0823941 0.077524394 
0.9983924 1.1725559 0.0 0.0 2.6396027 0.5683346 
0.20248154 1.4724935 0.0 0.19331186 3.1389194 0.83717364 
0.0 1.5903245 0.25953913 0.22662728 2.8570876 0.70290035 
0.0 1.0780698 0.7841731 0.23943347 1.9044358 0.6209863 
0.0 0.32116786 0.9093316 0.115221895 0.9782466 0.50676095 
0.0 0.074645534 0.6051766 0.07998665 0.25876948 0.2508995 
0.0 0.0 0.07306034 0.0 0.0085791685 0.09463388 
0.0 0.0 0.0 0.0 0.0 0.07698792 
0.0 0.0 0.0 0.0 0.0 0.07698792 
0.0 0.0 0.0 0.0 0.0 0.07698792 
0.0 0.0 0.0 0.0 0.0 0.07698792 
0.0 0.0 0.0 0.0 0.0 0.07698792 
0.0 0.0 0.0 0.0 0.0 0.07698792 
0.0 0.0 0.0 0.0 0.0 0.07698792 
0.0 0.0 0.0 0.0 0.0 0.07698792 
0.0 0.0 0.0 0.0 0.0 0.07698792 
0.0 0.0 0.0 0.0 0.0 0.07698792 
0.0 0.0 0.0 0.0 0.0 0.07698792 
0.0 0.0 0.0 0.0 0.0 0.07698792 
0.0 0.0 0.0 0.0 0.0 0.07698792 
0.16259694 0.0 0.0 0.0 0.15391989 0.29179853 
0.8688427 0.0 0.0 0.0 0.5791152 0.91982204 
1.513771 0.0 0.0 0.020955723 0.6753345 1.2781787 
1.4787891 0.0 0.0 0.10478978 0.68565524 0.88293976 
1.1028471 0.53790694 0.0049934015 0.37070063 0.90683335 0.39165485 
0.9458539 1.1682734 1.4054477 0.60799783 1.5233823 0.21170643 
0.94286793 1.373178 1.0672938 0.3714495 2.214237 0.17513373 
0.9965721 1.5166624 0.0 0.24084187 2.5214107 0.36383 
0.45715076 1.5753496 0.0 0.232793 2.992823 0.71642596 
0.0 1.6484457 0.06646111 0.1904605 3.0365608 0.7525316 
0.0 1.1827587 0.4097413 0.17241013 2.2840793 0.70465505 
0.0 0.4775438 0.729596 0.11366227 1.1959407 0.637772 
0.0 0.16801824 0.6977732 0.09972145 0.40853682 0.38963938 
0.0 0.0 0.2705583 0.0 0.091901466 0.14378038 
0.0 0.0 0.0 0.0 0.0 0.079270914 
0.0 0.0 0.0 0.0 0.0 0.07698792 
0.0 0.0 0.0 0.0 0.0 0.07698792 
0.0 0.0 0.0 0.0 0.0 0.07698792 
0.0 0.0 0.0 0.0 0.0 0.07698792 
0.0 0.0 0.0 0.0 0.0 0.07698792 
0.0 0.0 0.0 0.0 0.0 0.07698792 
0.0 0.0 0.0 0.0 0.0 0.07698792 
0.0 0.0 0.0 0.0 0.0 0.07698792 
0.0 0.0 0.0 0.0 0.0 0.07698792 
0.0 0.0 0.0 0.0 0.0 0.07698792 
0.0 0.0 0.0 0.0 0.0 0.07698792 
0.0 0.0 0.0 0.0 0.0 0.07698792 
0.0 0.0 0.0 0.0 0.0 0.07698792 
0.08163318 0.0 0.0 0.0 0.057210926 0.13993362 
0.76165706 0.0 0.0 0.0 0.23731615 0.43330312 
1.7062304 0.0 0.0 0.0 0.4665471 0.84879094 
1.9054725 0.0 0.0 0.0 0.721644 0.7447157 
1.6528516 0.48330608 0.0 0.0 1.3226095 0.4772197 
1.1641543 1.1190315 0.20559609 0.01118995 2.168363 0.58241284 
0.8986957 1.37702 0.5903143 0.1739623 2.5671444 0.5145099 
0.7084808 1.6690142 0.29683065 0.081578374 2.7798138 0.44928235 
0.0 1.9456515 0.16754633 0.0 2.9907067 0.3885231 
0.0 1.5886487 0.4440382 0.0 2.5688577 0.35801357 
0.0 0.8638056 0.6393542 0.0 1.5604013 0.34730417 
0.0 0.19987532 0.58388263 0.0 0.64909273 0.37763232 
0.0 0.0 0.35730556 0.0 0.17609094 0.22259362 
0.0 0.0 0.015733704 0.0 0.0 0.08634818 
0.0 0.0 0.0 0.0 0.0 0.07698792 
0.0 0.0 0.0 0.0 0.0 0.07698792 
0.0 0.0 0.0 0.0 0.0 0.07698792 
0.0 0.0 0.0 0.0 0.0 0.07698792 
0.0 0.0 0.0 0.0 0.0 0.07698792 
0.0 0.0 0.0 0.0 0.0 0.07698792 
0.0 0.0 0.0 0.0 0.0 0.07698792 
0.0 0.0 0.0 0.0 0.0 0.07698792 
0.0 0.0 0.0 0.0 0.0 0.07698792 
0.0 0.0 0.0 0.0 0.0 0.07698792 
0.0 0.0 0.0 0.0 0.0 0.07698792 
0.0 0.0 0.0 0.0 0.0 0.07698792 
0.0 0.0 0.0 0.0 0.0 0.07698792 
0.0 0.0 0.0 0.0 0.0 0.07698792 
0.07668501 0.0 0.0130766705 0.0 0.0 0.051377997 
0.79784656 0.0 0.0 0.0 0.0 0.16520083 
1.8417835 0.0 0.0 0.0 0.22631748 0.49394998 
2.1862278 0.0 0.0 0.0 0.9764878 0.46101266 
1.6550906 0.7334036 0.0 0.0 1.8536135 0.40287584 
1.0112722 1.0085081 0.0 0.0 2.6624227 0.6673874 
0.7374118 1.1406386 0.16070354 0.07542221 2.799531 0.81926024 
0.515811 1.473927 0.36700404 0.0 2.7467413 0.54734886 
0.0 1.7460428 0.6299775 0.0 2.6449668 0.074648134 
0.0 1.6093223 1.0726928 0.0 1.8791676 0.0 
0.0 0.8381534 1.1402943 0.0 1.2377383 0.0 
0.0 0.14142615 0.5114949 0.0 0.63435787 0.0 
0.0 0.0 0.08368594 0.0 0.08575563 0.05091275 
0.0 0.0 0.0 0.0 0.0 0.07698792 
0.0 0.0 0.0 0.0 0.0 0.07698792 
0.0 0.0 0.0 0.0 0.0 0.07698792 
0.0 0.0 0.0 0.0 0.0 0.07698792 
0.0 0.0 0.0 0.0 0.0 0.07698792 
0.0 0.0 0.0 0.0 0.0 0.07698792 
0.0 0.0 0.0 0.0 0.0 0.07698792 
0.0 0.0 0.0 0.0 0.0 0.07698792 
0.0 0.0 0.0 0.0 0.0 0.07698792 
0.0 0.0 0.0 0.0 0.0 0.07698792 
0.0 0.0 0.0 0.0 0.0 0.07698792 
0.0 0.0 0.0 0.0 0.0 0.07698792 
0.0 0.0 0.0 0.0 0.0 0.07698792 
0.0 0.0 0.0 0.0 0.0 0.07698792 
0.0 0.0 0.0 0.0 0.0 0.06529765 
0.26779515 0.0 0.034312233 0.0 0.0 0.054589957 
1.1243804 0.0 0.0 0.0 0.0 0.18144895 
1.9384015 0.0 0.0 0.0 0.34085217 0.3097737 
2.0171664 0.42881072 0.0 0.0 1.2710813 0.25144637 
1.2794042 1.1336141 0.0 0.0 2.2979808 0.42958415 
0.5909448 1.2916152 0.0 0.15767622 2.9859397 0.8800097 
0.35871837 0.9491787 0.0 0.41696846 2.9509397 1.2571423 
0.3158835 0.81082803 0.12464086 0.42463782 2.5349898 1.118701 
0.0 1.2403457 0.88961273 0.35087526 1.7840173 0.19944736 
0.0 1.6275092 1.6970537 0.017330464 1.3848628 0.0 
0.0 1.3070933 1.8605982 0.0 1.1946838 0.0 
0.0 0.55843025 0.8696902 0.0 0.6854705 0.0 
0.0 0.13082188 0.034620717 0.0 0.19745822 0.0 
0.0 0.0 0.0 0.0 0.0 0.07698792 
0.0 0.0 0.0 0.0 0.0 0.07698792 
0.0 0.0 0.0 0.0 0.0 0.07698792 
0.0 0.0 0.0 0.0 0.0 0.07698792 
0.0 0.0 0.0 0.0 0.0 0.07698792 
0.0 0.0 0.0 0.0 0.0 0.07698792 
0.0 0.0 0.0 0.0 0.0 0.07698792 
0.0 0.0 0.0 0.0 0.0 0.07698792 
0.0 0.0 0.0 0.0 0.0 0.07698792 
0.0 0.0 0.0 0.0 0.0 0.07698792 
0.0 0.0 0.0 0.0 0.0 0.07698792 
0.0 0.0 0.0 0.0 0.0 0.07698792 
0.0 0.0 0.0 0.0 0.0 0.07698792 
0.0 0.0 0.0 0.0 0.0 0.07698792 
0.0 0.0 0.0 0.0 0.0 0.06553631 
0.5443866 0.0 0.0 0.0 0.0 0.20718834 
1.5733082 0.0 0.0 0.094327495 0.0 0.4651417 
2.0718389 0.0 0.0 0.025734734 0.74517137 0.4849713 
1.6570745 0.91542965 0.0 0.14759666 1.684899 0.4343169 
0.7109256 1.4038521 0.0 0.14579508 2.7980332 0.6708222 
0.0 1.5619015 0.0 0.35715353 3.1410396 1.0002992 
0.0 0.7384787 0.0 0.42835912 2.894302 1.59781 
0.33875024 0.14167693 0.0 0.55551046 1.9796377 1.6288297 
0.5244119 0.5203605 0.22181615 0.53411645 1.1146373 0.67537117 
0.0 1.410293 1.4558337 0.45052025 1.1281265 0.0 
0.0 1.6716843 2.1401908 0.12089899 1.1929941 0.0 
0.0 1.1887267 1.4974837 0.0 0.9113341 0.0 
0.0 0.24043515 0.28549826 0.0 0.49397817 0.0 
0.0 0.014742483 0.0 0.0 0.0 0.055623226 
0.0 0.0 0.0 0.0 0.0 0.07698792 
0.0 0.0 0.0 0.0 0.0 0.07698792 
0.0 0.0 0.0 0.0 0.0 0.07698792 
0.0 0.0 0.0 0.0 0.0 0.07698792 
0.0 0.0 0.0 0.0 0.0 0.07698792 
0.0 0.0 0.0 0.0 0.0 0.07698792 
0.0 0.0 0.0 0.0 0.0 0.07698792 
0.0 0.0 0.0 0.0 0.0 0.07698792 
0.0 0.0 0.0 0.0 0.0 0.07698792 
0.0 0.0 0.0 0.0 0.0 0.07698792 
0.0 0.0 0.0 0.0 0.0 0.07698792 
0.0 0.0 0.0 0.0 0.0 0.07698792 
0.0 0.0 0.0 0.0 0.0 0.07698792 
0.053337425 0.0 0.0 0.0 0.0 0.08761886 
0.8816604 0.0 0.0 0.037993398 0.0 0.40464407 
1.9161699 0.0 0.0 0.03517739 0.32132468 0.67856145 
2.055249 0.16308635 0.0 0.06952219 1.1842545 0.56072164 
1.2805386 1.1070472 0.0 0.1387355 2.2271168 0.60503095 
0.0 1.6670007 0.0 0.09362829 3.0638936 0.68862313 
0.0 1.3581762 0.1457639 0.064313985 2.912201 0.8785933 
0.0 0.35441586 0.0 0.0 2.272602 1.457824 
0.9101158 0.0 0.0 0.0 1.3348876 1.6144919 
1.1526432 0.0 0.0 0.0 0.87338185 0.9451983 
0.38679543 1.0122085 0.38293886 0.066523105 1.0782158 0.0 
0.0 1.7963003 1.8968118 0.22569773 1.3544168 0.0 
0.0 1.4576142 2.064435 0.0 1.2002995 0.0 
0.0 0.5940682 0.7987065 0.0 0.6323233 0.0 
0.0 0.047514077 0.0 0.0 0.056908052 0.009086587 
0.0 0.0 0.0 0.0 0.0 0.07698792 
0.0 0.0 0.0 0.0 0.0 0.07698792 
0.0 0.0 0.0 0.0 0.0 0.07698792 
0.0 0.0 0.0 0.0 0.0 0.07698792 
0.0 0.0 0.0 0.0 0.0 0.07698792 
0.0 0.0 0.0 0.0 0.0 0.07698792 
0.0 0.0 0.0 0.0 0.0 0.07698792 
0.0 0.0 0.0 0.0 0.0 0.07698792 
0.0 0.0 0.0 0.0 0.0 0.07698792 
0.0 0.0 0.0 0.0 0.0 0.07698792 
0.0 0.0 0.0 0.0 0.0 0.07698792 
0.0 0.0 0.0 0.0 0.0 0.07698792 
0.0 0.0 0.0 0.0 0.0 0.07698792 
0.092161 0.0 0.0 0.033521 0.0 0.17785762 
1.0753858 0.0 0.0 0.14693362 0.0 0.71640503 
2.0444257 0.0 0.0 0.17061964 0.58315736 0.9714775 
1.8264484 0.3346189 0.0 0.24754384 1.4680102 0.7944354 
0.7400068 1.343473 0.0 0.24108575 2.4498703 0.72188854 
0.0 1.6772215 0.15234241 0.005096224 2.879779 0.5741413 
0.0 0.95953995 0.6517705 0.0 2.050814 0.5913209 
0.0670024 0.0 0.30900967 0.0 1.1871175 0.68217665 
1.3520443 0.0 0.0 0.0 0.7692356 0.8780546 
1.7800853 0.0 0.0 0.0 0.8498016 0.5511606 
0.7732489 1.1385024 0.0 0.0 1.3122679 0.0 
0.0 1.789455 1.2865614 0.0 1.6437987 0.0 
0.0 1.5306106 2.1818995 0.04841697 1.4053489 0.0 
0.0 0.8019857 1.2968496 0.0 0.7886584 0.0 
0.0 0.08581762 0.084459074 0.0 0.16859019 0.0 
0.0 0.0 0.0 0.0 0.0 0.07698792 
0.0 0.0 0.0 0.0 0.0 0.07698792 
0.0 0.0 0.0 0.0 0.0 0.07698792 
0.0 0.0 0.0 0.0 0.0 0.07698792 
0.0 0.0 0.0 0.0 0.0 0.07698792 
0.0 0.0 0.0 0.0 0.0 0.07698792 
0.0 0.0 0.0 0.0 0.0 0.07698792 
0.0 0.0 0.0 0.0 0.0 0.07698792 
0.0 0.0 0.0 0.0 0.0 0.07698792 
0.0 0.0 0.0 0.0 0.0 0.07698792 
0.0 0.0 0.0 0.0 0.0 0.07698792 
0.0 0.0 0.0 0.0 0.0 0.07698792 
0.0 0.0 0.0 0.0 0.0 0.07698792 
0.12749565 0.0 0.0 0.05369625 0.0025914945 0.259639 
1.067812 0.0 0.0 0.1594107 0.2788828 0.91462874 
1.9353523 0.0 0.0 0.2574742 0.79556954 1.2222564 
1.7645605 0.25428048 0.0 0.23619226 1.5544099 0.9212403 
0.6153296 1.4181294 0.0 0.0 2.1250925 0.4150827 
0.0 1.6613897 1.0067232 0.0 1.9526078 0.0 
0.0 0.91167027 1.310126 0.0 0.9862135 0.0 
0.50854445 0.15832454 0.94381166 0.0 0.34429666 0.0 
1.7297106 0.0 0.0 0.0 0.55975837 0.0 
2.0212843 0.4152011 0.0 0.0 1.2531064 0.099016465 
0.6813348 1.4322574 0.0 0.0 1.8358507 0.0 
0.0 1.7606537 0.8431289 0.0 1.978969 0.0 
0.0 1.5233234 1.9992481 0.04298431 1.616384 0.0 
0.0 0.7333717 1.5070666 0.004408275 0.94449645 0.0 
0.0 0.16547844 0.25083286 0.0 0.19843613 0.002945438 
0.0 0.0 0.0 0.0 0.0 0.07698792 
0.0 0.0 0.0 0.0 0.0 0.07698792 
0.0 0.0 0.0 0.0 0.0 0.07698792 
0.0 0.0 0.0 0.0 0.0 0.07698792 
0.0 0.0 0.0 0.0 0.0 0.07698792 
0.0 0.0 0.0 0.0 0.0 0.07698792 
0.0 0.0 0.0 0.0 0.0 0.07698792 
0.0 0.0 0.0 0.0 0.0 0.07698792 
0.0 0.0 0.0 0.0 0.0 0.07698792 
0.0 0.0 0.0 0.0 0.0 0.07698792 
0.0 0.0 0.0 0.0 0.0 0.07698792 
0.0 0.0 0.0 0.0 0.0 0.07698792 
0.0 0.0 0.0 0.0 0.0 0.07698792 
0.09937844 0.0 0.0 0.04072332 0.052972566 0.24779865 
0.892902 0.0 0.0 0.105778925 0.4822609 0.978627 
1.6770535 0.0 0.0 0.1919013 0.81783223 1.4236257 
1.6933882 0.02302359 0.0 0.121377364 1.2314339 0.98837405 
0.7283039 1.0412121 0.0 0.0 1.3433617 0.34574682 
0.0 1.4408954 1.4767631 0.0 1.0647336 0.0 
0.10436866 0.9675285 1.7626536 0.0 0.82810247 0.0 
0.77695525 0.56278616 1.1554903 0.0 0.6694339 0.0 
1.4421716 0.51948553 0.16233718 0.0 1.2602426 0.0 
1.4299726 0.9071205 0.0 0.0 2.0031652 0.08194433 
0.4169734 1.7434316 0.0 0.0 2.3058798 0.0 
0.0 1.9405549 0.87800217 0.05236992 2.17549 0.0 
0.0 1.4557258 1.8077846 0.17204385 1.6608009 0.0 
0.0 0.61800486 1.4259149 0.124075755 0.9438794 0.07462399 
0.0 0.13590829 0.355766 0.09719226 0.15446217 0.07159979 
0.0 0.0 0.0 0.0 0.0 0.07698792 
0.0 0.0 0.0 0.0 0.0 0.07698792 
0.0 0.0 0.0 0.0 0.0 0.07698792 
0.0 0.0 0.0 0.0 0.0 0.07698792 
0.0 0.0 0.0 0.0 0.0 0.07698792 
0.0 0.0 0.0 0.0 0.0 0.07698792 
0.0 0.0 0.0 0.0 0.0 0.07698792 
0.0 0.0 0.0 0.0 0.0 0.07698792 
0.0 0.0 0.0 0.0 0.0 0.07698792 
0.0 0.0 0.0 0.0 0.0 0.07698792 
0.0 0.0 0.0 0.0 0.0 0.07698792 
0.0 0.0 0.0 0.0 0.0 0.07698792 
0.0 0.0 0.0 0.0 0.0 0.07698792 
0.043220997 0.0 0.0 0.0 0.08241807 0.16988587 
0.6474158 0.0 0.0 0.0 0.5264918 0.7570092 
1.3611796 0.0 0.0 0.029030021 0.82722837 1.4056978 
1.4986098 0.0 0.0 0.028109666 1.0022751 1.2128513 
1.1346273 0.17026427 0.0 0.21248972 0.9602693 0.57980514 
0.48813897 0.80249506 1.300411 0.38917047 1.0392587 0.0 
0.40488106 1.0494785 1.9116653 0.355101 1.3432177 0.0 
0.89016753 1.0589052 1.1803354 0.2230141 1.6645474 0.0 
1.1513159 1.2755286 0.3189169 0.23738457 2.111554 0.0859573 
0.9938753 1.4040842 0.0 0.30190757 2.5488334 0.50321996 
0.0 1.8088387 0.15221885 0.37496498 2.7189546 0.4780732 
0.0 1.7542373 0.84093463 0.3796318 2.2774892 0.25998288 
0.0 1.0489004 1.496905 0.33762795 1.5538208 0.3813101 
0.0 0.33678988 1.1673648 0.23241183 0.74011546 0.24620163 
0.0 0.07459308 0.3140096 0.10091263 0.05253287 0.10674398 
0.0 0.0 0.0 0.0 0.0 0.07698792 
0.0 0.0 0.0 0.0 0.0 0.07698792 
0.0 0.0 0.0 0.0 0.0 0.07698792 
0.0 0.0 0.0 0.0 0.0 0.07698792 
0.0 0.0 0.0 0.0 0.0 0.07698792 
0.0 0.0 0.0 0.0 0.0 0.07698792 
0.0 0.0 0.0 0.0 0.0 0.07698792 
0.0 0.0 0.0 0.0 0.0 0.07698792 
0.0 0.0 0.0 0.0 0.0 0.07698792 
0.0 0.0 0.0 0.0 0.0 0.07698792 
0.0 0.0 0.0 0.0 0.0 0.07698792 
0.0 0.0 0.0 0.0 0.0 0.07698792 
0.0 0.0 0.0 0.0 0.0 0.07698792 
0.0 0.0 0.0 0.0 0.0 0.09617308 
0.32571608 0.0 0.0 0.0 0.35446292 0.42408857 
1.0368688 0.0 0.0 0.0 0.78469974 1.1747363 
1.2883646 0.0 0.0 0.15617202 0.7670753 1.3980725 
1.3450558 0.0 0.0 0.50633305 0.8653989 1.2027249 
1.1047225 0.6042478 0.103112094 0.9714719 1.2371205 1.0430901 
0.7327217 1.2822107 1.0571771 1.110975 1.8562771 0.76007694 
0.69590026 1.4448388 0.57750237 0.9116815 2.4320126 0.7867721 
0.6026435 1.3384703 0.0 0.8633915 2.7476826 1.1085899 
0.29542404 1.2563926 0.0 0.909477 3.0049446 1.4286878 
0.0 1.3808426 0.0047978684 0.74815154 2.742561 1.1349688 
0.0 1.0545574 0.6725578 0.5665668 1.9246522 0.7540278 
0.0 0.5230473 1.0867715 0.32304287 1.0600266 0.6037457 
0.0 0.20923735 0.8524167 0.20571628 0.33069453 0.26938012 
0.0 0.0 0.14691383 0.01469224 0.0038130097 0.1057336 
0.0 0.0 0.0 0.0 0.0 0.07698792 
0.0 0.0 0.0 0.0 0.0 0.07698792 
0.0 0.0 0.0 0.0 0.0 0.07698792 
0.0 0.0 0.0 0.0 0.0 0.07698792 
0.0 0.0 0.0 0.0 0.0 0.07698792 
0.0 0.0 0.0 0.0 0.0 0.07698792 
0.0 0.0 0.0 0.0 0.0 0.07698792 
0.0 0.0 0.0 0.0 0.0 0.07698792 
0.0 0.0 0.0 0.0 0.0 0.07698792 
0.0 0.0 0.0 0.0 0.0 0.07698792 
0.0 0.0 0.0 0.0 0.0 0.07698792 
0.0 0.0 0.0 0.0 0.0 0.07698792 
0.0 0.0 0.0 0.0 0.0 0.07698792 
0.0 0.0 0.0 0.0 0.0 0.07698792 
0.07861231 0.0 0.0 0.0 0.14999658 0.18806921 
0.6362691 0.0 0.0 0.0 0.56853616 0.7395304 
1.1527295 0.0 0.0 0.0 0.9456902 1.3937364 
1.3030982 0.0 0.0 0.21510871 1.2478071 1.7012553 
1.3026183 0.0 0.0 0.6272343 1.8928105 1.9118025 
0.77042305 0.43799508 0.0 1.1005437 2.4761946 1.9227161 
0.23203951 0.8145923 0.0 1.1413522 2.8446386 1.816762 
0.0 0.68785334 0.0 0.9349676 2.961282 1.7865002 
0.0 0.700669 0.0 0.72806567 2.6618807 1.649921 
0.0 0.70555896 0.0 0.43334106 1.9479941 1.2309208 
0.0 0.47846004 0.33424285 0.21200524 1.0244508 0.79656893 
0.0 0.15432952 0.62710357 0.06682303 0.47274724 0.49078333 
0.0 0.0 0.42526707 0.001215999 0.16092224 0.19755766 
0.0 0.0 0.0 0.0 0.0 0.0832281 
0.0 0.0 0.0 0.0 0.0 0.07698792 
0.0 0.0 0.0 0.0 0.0 0.07698792 
0.0 0.0 0.0 0.0 0.0 0.07698792 
0.0 0.0 0.0 0.0 0.0 0.07698792 
0.0 0.0 0.0 0.0 0.0 0.07698792 
0.0 0.0 0.0 0.0 0.0 0.07698792 
0.0 0.0 0.0 0.0 0.0 0.07698792 
0.0 0.0 0.0 0.0 0.0 0.07698792 
0.0 0.0 0.0 0.0 0.0 0.07698792 
0.0 0.0 0.0 0.0 0.0 0.07698792 
0.0 0.0 0.0 0.0 0.0 0.07698792 
0.0 0.0 0.0 0.0 0.0 0.07698792 
0.0 0.0 0.0 0.0 0.0 0.07698792 
0.0 0.0 0.0 0.0 0.0 0.07698792 
0.0 0.0 0.0 0.0 0.0 0.089365445 
0.2771351 0.0 0.0 0.0 0.35418388 0.36227077 
0.8078576 0.0 0.0 0.0 0.7885815 0.95549434 
1.0719619 0.0 0.0 0.0 1.252623 1.4674633 
0.91125345 0.0 0.0 0.09060139 1.7056873 1.7037737 
0.44135016 0.0 0.0 0.37556854 2.0829961 1.7781923 
0.07303932 0.38943493 0.0 0.51723105 2.1424294 1.79531 
0.0 0.44563222 0.0 0.26622584 1.9377016 1.6341171 
0.0 0.25305277 0.0 0.0 1.5374887 1.3066771 
0.0 0.139833 0.0 0.0 0.84047425 0.8116595 
0.0 0.0 0.03553743 0.0 0.4324828 0.485986 
0.0 0.0 0.24179953 0.0 0.23171909 0.28356278 
0.0 0.0 0.103746794 0.0 0.045115527 0.09823898 
0.0 0.0 0.0 0.0 0.0 0.07698792 
0.0 0.0 0.0 0.0 0.0 0.07698792 
0.0 0.0 0.0 0.0 0.0 0.07698792 
0.0 0.0 0.0 0.0 0.0 0.07698792 
0.0 0.0 0.0 0.0 0.0 0.07698792 
0.0 0.0 0.0 0.0 0.0 0.07698792 
0.0 0.0 0.0 0.0 0.0 0.07698792 
0.0 0.0 0.0 0.0 0.0 0.07698792 
0.0 0.0 0.0 0.0 0.0 0.07698792 
0.0 0.0 0.0 0.0 0.0 0.07698792 
0.0 0.0 0.0 0.0 0.0 0.07698792 
0.0 0.0 0.0 0.0 0.0 0.07698792 
0.0 0.0 0.0 0.0 0.0 0.07698792 
0.0 0.0 0.0 0.0 0.0 0.07698792 
0.0 0.0 0.0 0.0 0.0 0.07698792 
0.0 0.0 0.0 0.0 0.0 0.07698792 
0.022639014 0.0 0.0 0.0 0.07565044 0.14552496 
0.36358133 0.0 0.0 0.0 0.4467952 0.45369804 
0.6740791 0.0 0.0 0.0 0.831631 0.8902747 
0.6000461 0.0 0.0 0.0 1.1319742 1.1424956 
0.33552453 0.0 0.0 0.0 1.2456182 1.2096128 
0.05351974 0.0 0.0 0.0 1.1953081 1.0911932 
0.0 0.0 0.0 0.0 0.99886376 0.82884943 
0.0 0.0 0.0 0.0 0.6178922 0.52471983 
0.0 0.0 0.0 0.0 0.34793457 0.310531 
0.0 0.0 0.0 0.0 0.18421012 0.21168652 
0.0 0.0 0.034002684 0.0 0.040772628 0.10263813 
0.0 0.0 0.0 0.0 0.0 0.07850991 
0.0 0.0 0.0 0.0 0.0 0.07698792 
0.0 0.0 0.0 0.0 0.0 0.07698792 
0.0 0.0 0.0 0.0 0.0 0.07698792 
0.0 0.0 0.0 0.0 0.0 0.07698792 
0.0 0.0 0.0 0.0 0.0 0.07698792 
0.0 0.0 0.0 0.0 0.0 0.07698792 
0.0 0.0 0.0 0.0 0.0 0.07698792 
0.0 0.0 0.0 0.0 0.0 0.07698792 
0.0 0.0 0.0 0.0 0.0 0.07698792 
0.0 0.0 0.0 0.0 0.0 0.07698792 
0.0 0.0 0.0 0.0 0.0 0.07698792 
0.0 0.0 0.0 0.0 0.0 0.07698792 
0.0 0.0 0.0 0.0 0.0 0.07698792 
0.0 0.0 0.0 0.0 0.0 0.07698792 
0.0 0.0 0.0 0.0 0.0 0.07698792 
0.0 0.0 0.0 0.0 0.0 0.07698792 
0.0 0.0 0.0 0.0 0.0 0.08317668 
0.056057736 0.0 0.0 0.0 0.13796234 0.16380647 
0.25460148 0.0 0.0 0.0 0.43843687 0.30984133 
0.249957 0.0 0.0 0.0 0.5141588 0.34725153 
0.08237955 0.0 0.0 0.0 0.46375164 0.33461547 
0.0 0.0 0.0 0.0 0.3887912 0.32335597 
0.0 0.0 0.0 0.0 0.24812563 0.22289181 
0.0 0.0 0.0 0.0 0.09618452 0.14636922 
0.0 0.0 0.0 0.0 0.003717754 0.101498954 
0.0 0.0 0.0 0.0 0.0 0.079270914 
0.0 0.0 0.0 0.0 0.0 0.07698792 
0.0 0.0 0.0 0.0 0.0 0.07698792 
0.0 0.0 0.0 0.0 0.0 0.07698792 
0.0 0.0 0.0 0.0 0.0 0.07698792 
0.0 0.0 0.0 0.0 0.0 0.07698792 
0.0 0.0 0.0 0.0 0.0 0.07698792 
0.0 0.0 0.0 0.0 0.0 0.07698792 
0.0 0.0 0.0 0.0 0.0 0.07698792 
0.0 0.0 0.0 0.0 0.0 0.07698792 
0.0 0.0 0.0 0.0 0.0 0.07698792 
0.0 0.0 0.0 0.0 0.0 0.07698792 
0.0 0.0 0.0 0.0 0.0 0.07698792 
0.0 0.0 0.0 0.0 0.0 0.07698792 
0.0 0.0 0.0 0.0 0.0 0.07698792 
0.0 0.0 0.0 0.0 0.0 0.07698792 
0.0 0.0 0.0 0.0 0.0 0.07698792 
0.0 0.0 0.0 0.0 0.0 0.07698792 
0.0 0.0 0.0 0.0 0.0 0.07698792 
0.0 0.0 0.0 0.0 0.0 0.07698792 
0.0 0.0 0.0 0.0 0.0 0.07698792 
0.0 0.0 0.0 0.0 0.0 0.07698792 
0.0 0.0 0.0 0.0 0.0 0.07698792 
0.0 0.0 0.0 0.0 0.0 0.07698792 
0.0 0.0 0.0 0.0 0.0 0.07698792 
0.0 0.0 0.0 0.0 0.0 0.07698792 
0.0 0.0 0.0 0.0 0.0 0.07698792 
0.0 0.0 0.0 0.0 0.0 0.07698792 
0.0 0.0 0.0 0.0 0.0 0.07698792 
0.0 0.0 0.0 0.0 0.0 0.07698792 
0.0 0.0 0.0 0.0 0.0 0.07698792 
0.0 0.0 0.0 0.0 0.0 0.07698792 
0.0 0.0 0.0 0.0 0.0 0.07698792 
0.0 0.0 0.0 0.0 0.0 0.07698792 
0.0 0.0 0.0 0.0 0.0 0.07698792 
0.0 0.0 0.0 0.0 0.0 0.07698792 
0.0 0.0 0.0 0.0 0.0 0.07698792 
0.0 0.0 0.0 0.0 0.0 0.07698792 

