0.0 0.0 0.0 0.0 0.0 0.07698792 
0.0 0.0 0.0 0.0 0.0 0.07698792 
0.0 0.0 0.0 0.0 0.0 0.07698792 
0.0 0.0 0.0 0.0 0.0 0.07698792 
0.0 0.0 0.0 0.0 0.0 0.07698792 
0.0 0.0 0.0 0.0 0.0 0.07698792 
0.0 0.0 0.0 0.0 0.0 0.07698792 
0.0 0.0 0.0 0.0 0.0 0.07698792 
0.0 0.0 0.0 0.0 0.0 0.07698792 
0.0 0.0 0.0 0.0 0.0 0.07698792 
0.0 0.0 0.0 0.0 0.0 0.07698792 
0.0 0.0 0.0 0.0 0.0 0.07698792 
0.0 0.0 0.0 0.0 0.0 0.07698792 
0.0 0.0 0.0 0.0 0.0 0.07698792 
0.0 0.0 0.0 0.0 0.0 0.07698792 
0.0 0.0 0.0 0.0 0.0 0.07698792 
0.0 0.0 0.0 0.0 0.0 0.07698792 
0.0 0.0 0.0 0.0 0.0 0.07698792 
0.0 0.0 0.0 0.0 0.0 0.07698792 
0.0 0.0 0.0 0.0 0.0 0.07698792 
0.0 0.0 0.0 0.0 0.0 0.07698792 
0.0 0.0 0.0 0.0 0.0 0.07698792 
0.0 0.0 0.0 0.0 0.0 0.07698792 
0.0 0.0 0.0 0.0 0.0 0.07698792 
0.0 0.0 0.0 0.0 0.0 0.07698792 
0.0 0.0 0.0 0.0 0.0 0.07698792 
0.0 0.0 0.0 0.0 0.0 0.07698792 
0.0 0.0 0.0 0.0 0.0 0.07698792 
0.0 0.0 0.0 0.0 0.0 0.07698792 
0.0 0.0 0.0 0.0 0.0 0.07698792 
0.0 0.0 0.0 0.0 0.0 0.07698792 
0.0 0.0 0.0 0.0 0.0 0.07698792 
0.0 0.0 0.0 0.0 0.0 0.07698792 
0.0 0.0 0.0 0.0 0.0 0.07698792 
0.0 0.0 0.0 0.0 0.0 0.07698792 
0.0 0.0 0.0 0.0 0.0 0.07698792 
0.0 0.0 0.0 0.0 0.0 0.07698792 
0.0 0.0 0.0 0.0 0.0 0.07698792 
0.0 0.0 0.0 0.0 0.0 0.07698792 
0.0 0.0 0.0 0.0 0.0 0.07698792 
0.0 0.0 0.0 0.0 0.0 0.07698792 
0.0 0.0 0.0 0.0 0.0 0.07698792 
0.0 0.0 0.0 0.0 0.0 0.07698792 
0.0 0.0 0.0 0.0 0.0 0.07698792 
0.0 0.0 0.0 0.0 0.0 0.07698792 
0.0 0.0 0.0 0.0 0.0 0.07698792 
0.0 0.0 0.0 0.0 0.0 0.07698792 
0.0 0.0 0.0 0.0 0.0 0.07698792 
0.0 0.0 0.0 0.0 0.0 0.07698792 
0.0 0.0 0.0 0.0 0.0 0.07698792 
0.0 0.0 0.0 0.0 0.0 0.07698792 
0.0 0.0 0.0 0.0 0.0 0.07698792 
0.0 0.0 0.0 0.0 0.0 0.07698792 
0.0 0.0 0.0 0.0 0.0 0.07698792 
0.0 0.0 0.0 0.0 0.0 0.07698792 
0.0 0.0 0.0 0.0 0.0 0.07698792 
0.0 0.0 0.0 0.0 0.0 0.07698792 
0.0 0.0 0.0 0.0 0.0 0.07698792 
0.0 0.0 0.0 0.0 0.0 0.07698792 
0.0 0.0 0.0 0.0 0.0 0.07698792 
0.0 0.0 0.0 0.0 0.0 0.07698792 
0.0 0.0 0.0 0.0 0.0 0.07698792 
0.0 0.0 0.0 0.0 0.0 0.07698792 
0.0 0.0 0.0 0.0 0.0 0.07698792 
0.0 0.0 0.0 0.0 0.0 0.07698792 
0.0 0.0 0.0 0.0 0.0 0.07698792 
0.0 0.0 0.0 0.0 0.0 0.07698792 
0.0 0.0 0.0 0.0 0.0 0.07698792 
0.032933787 0.0 0.07342801 0.0 0.0 0.01551969 
0.26247257 0.030137904 0.21065062 0.0 0.0 0.0 
0.20849669 0.26849952 0.14014885 0.0 0.0 0.0 
0.0 0.3170738 0.16606614 0.0 0.0 0.0 
0.0 0.32892823 0.13898322 0.0 0.035282385 0.0 
0.0 0.16317762 0.008771636 0.0 0.08130418 0.0 
0.0 0.0096924165 0.0 0.0 0.0 0.06031304 
0.0 0.0 0.0 0.0 0.0 0.07698792 
0.0 0.0 0.0 0.0 0.0 0.07698792 
0.0 0.0 0.0 0.0 0.0 0.07698792 
0.0 0.0 0.0 0.0 0.0 0.07698792 
0.0 0.0 0.0 0.0 0.0 0.07698792 
0.0 0.0 0.0 0.0 0.0 0.07698792 
0.0 0.0 0.0 0.0 0.0 0.07698792 
0.0 0.0 0.0 0.0 0.0 0.07698792 
0.0 0.0 0.0 0.0 0.0 0.07698792 
0.0 0.0 0.0 0.0 0.0 0.07698792 
0.0 0.0 0.0 0.0 0.0 0.07698792 
0.0 0.0 0.0 0.0 0.0 0.07698792 
0.0 0.0 0.0 0.0 0.0 0.07698792 
0.0 0.0 0.0 0.0 0.0 0.07698792 
0.0 0.0 0.0 0.0 0.0 0.07698792 
0.0 0.0 0.0 0.0 0.0 0.07698792 
0.0 0.0 0.0 0.0 0.0 0.07698792 
0.0 0.0 0.0 0.0 0.0 0.07698792 
0.0 0.0 0.0 0.0 0.0 0.07698792 
0.0 0.0 0.0 0.0 0.0 0.07698792 
0.0 0.0 0.0 0.0 0.0 0.0751024 
0.15760775 0.0 0.02495493 0.0 0.0 0.04056882 
0.64535934 0.0 0.18304586 0.0 0.0 0.0 
0.71351826 0.3387257 0.35181856 0.0 0.0 0.0 
0.15600142 0.93539935 0.49839354 0.0 0.09892526 0.0 
0.0 0.85281616 0.64195627 0.0 0.47293898 0.0 
0.0 0.28806818 0.25134358 0.0 0.47750118 0.0 
0.0 0.060178436 0.0 0.0 0.055741955 0.00086043775 
0.0 0.0 0.0 0.0 0.0 0.07698792 
0.0 0.0 0.0 0.0 0.0 0.07698792 
0.0 0.0 0.0 0.0 0.0 0.07698792 
0.0 0.0 0.0 0.0 0.0 0.07698792 
0.0 0.0 0.0 0.0 0.0 0.07698792 
0.0 0.0 0.0 0.0 0.0 0.07698792 
0.0 0.0 0.0 0.0 0.0 0.07698792 
0.0 0.0 0.0 0.0 0.0 0.07698792 
0.0 0.0 0.0 0.0 0.0 0.07698792 
0.0 0.0 0.0 0.0 0.0 0.07698792 
0.0 0.0 0.0 0.0 0.0 0.07698792 
0.0 0.0 0.0 0.0 0.0 0.07698792 
0.0 0.0 0.0 0.0 0.0 0.07698792 
0.0 0.0 0.0 0.0 0.0 0.07698792 
0.0 0.0 0.0 0.0 0.0 0.07698792 
0.0 0.0 0.0 0.0 0.0 0.07698792 
0.0 0.0 0.0 0.0 0.0 0.07698792 
0.0 0.0 0.0 0.0 0.0 0.07698792 
0.0 0.0 0.0 0.0 0.0 0.07698792 
0.0 0.0 0.0 0.0 0.0 0.07698792 
0.0 0.0 0.0 0.0 0.0 0.07183209 
0.41367596 0.0 0.0 0.0 0.0 0.18157873 
1.1411111 0.0 0.0 0.012441364 0.0 0.078739665 
0.9975969 0.29686895 0.35153407 0.0 0.0 0.0 
0.16108678 1.3198988 0.92321515 0.0 0.5849856 0.0 
0.0 1.4433324 1.3778368 0.0 0.99819654 0.0 
0.0 0.8066217 0.89695084 0.0 0.71797144 0.0 
0.0 0.14124194 0.10372441 0.0 0.25885156 0.0 
0.0 0.0 0.0 0.0 0.0 0.07698792 
0.0 0.0 0.0 0.0 0.0 0.07698792 
0.0 0.0 0.0 0.0 0.0 0.07698792 
0.0 0.0 0.0 0.0 0.0 0.07698792 
0.0 0.0 0.0 0.0 0.0 0.07698792 
0.0 0.0 0.0 0.0 0.0 0.07698792 
0.0 0.0 0.0 0.0 0.0 0.07698792 
0.0 0.0 0.0 0.0 0.0 0.07698792 
0.0 0.0 0.0 0.0 0.0 0.07698792 
0.0 0.0 0.0 0.0 0.0 0.07698792 
0.0 0.0 0.0 0.0 0.0 0.07698792 
0.0 0.0 0.0 0.0 0.0 0.07698792 
0.0 0.0 0.0 0.0 0.0 0.07698792 
0.0 0.0 0.0 0.0 0.0 0.07698792 
0.0 0.0 0.0 0.0 0.0 0.07698792 
0.0 0.0 0.0 0.0 0.0 0.07698792 
0.0 0.0 0.0 0.0 0.0 0.07698792 
0.0 0.0 0.0 0.0 0.0 0.07698792 
0.0 0.0 0.0 0.0 0.0 0.07698792 
0.0 0.0 0.0 0.0 0.0 0.07698792 
0.0 0.0 0.0 0.0 0.0 0.07330191 
0.67944926 0.0 0.0 0.09462246 0.0 0.39752433 
1.6104124 0.0 0.0 0.26407734 0.0 0.6072628 
1.3397219 0.5309057 0.0 0.18968388 0.33761987 0.0 
0.17753634 1.7947553 0.9256343 0.29017958 0.893818 0.0 
0.0 1.8671359 1.9034226 0.08445802 1.352788 0.0 
0.0 1.2635972 1.6447027 0.010295478 0.93510985 0.0 
0.0 0.26050845 0.3631036 0.0 0.45998082 0.0 
0.0 0.0 0.0 0.0 0.0 0.07698792 
0.0 0.0 0.0 0.0 0.0 0.07698792 
0.0 0.0 0.0 0.0 0.0 0.07698792 
0.0 0.0 0.0 0.0 0.0 0.07698792 
0.0 0.0 0.0 0.0 0.0 0.07698792 
0.0 0.0 0.0 0.0 0.0 0.07698792 
0.0 0.0 0.0 0.0 0.0 0.07698792 
0.0 0.0 0.0 0.0 0.0 0.07698792 
0.0 0.0 0.0 0.0 0.0 0.07698792 
0.0 0.0 0.0 0.0 0.0 0.07698792 
0.0 0.0 0.0 0.0 0.0 0.07698792 
0.0 0.0 0.0 0.0 0.0 0.07698792 
0.0 0.0 0.0 0.0 0.0 0.07698792 
0.0 0.0 0.0 0.0 0.0 0.07698792 
0.0 0.0 0.0 0.0 0.0 0.07698792 
0.0 0.0 0.0 0.0 0.0 0.07698792 
0.0 0.0 0.0 0.0 0.0 0.07698792 
0.0 0.0 0.0 0.0 0.0 0.07698792 
0.0 0.0 0.0 0.0 0.0 0.07698792 
0.0 0.0 0.0 0.0 0.0 0.07698792 
0.054028988 0.0 0.011783756 0.0 0.0 0.062270433 
1.0537794 0.0 0.0 0.0 0.0 0.5075041 
2.0285697 0.0 0.0 0.0 0.46041086 0.7885449 
1.6861064 0.3829296 0.0 0.0 0.88791126 0.2082301 
0.21228424 1.7418361 0.2503521 0.0005147131 1.4693497 0.0 
0.0 1.8761243 1.7965803 0.03653654 1.8129824 0.0 
0.0 1.2155505 1.9889454 0.04850396 1.2074639 0.0 
0.0 0.39828226 0.7025547 0.0 0.5632396 0.0 
0.0 0.0 0.0 0.0 0.0 0.07698792 
0.0 0.0 0.0 0.0 0.0 0.07698792 
0.0 0.0 0.0 0.0 0.0 0.07698792 
0.0 0.0 0.0 0.0 0.0 0.07698792 
0.0 0.0 0.0 0.0 0.0 0.07698792 
0.0 0.0 0.0 0.0 0.0 0.07698792 
0.0 0.0 0.0 0.0 0.0 0.07698792 
0.0 0.0 0.0 0.0 0.0 0.07698792 
0.0 0.0 0.0 0.0 0.0 0.07698792 
0.0 0.0 0.0 0.0 0.0 0.07698792 
0.0 0.0 0.0 0.0 0.0 0.07698792 
0.0 0.0 0.0 0.0 0.0 0.07698792 
0.0 0.0 0.0 0.0 0.0 0.07698792 
0.0 0.0 0.0 0.0 0.0 0.07698792 
0.0 0.0 0.0 0.0 0.0 0.07698792 
0.0 0.0 0.0 0.0 0.0 0.07698792 
0.0 0.0 0.0 0.0 0.0 0.07698792 
0.0 0.0 0.0 0.0 0.0 0.07698792 
0.0 0.0 0.0 0.0 0.0 0.07698792 
0.0 0.0 0.0 0.0 0.0 0.07698792 
0.1788562 0.0 0.0 0.0 0.0 0.10190433 
1.326226 0.0 0.0 0.0 0.0 0.5788635 
2.1449742 0.0 0.0 0.0 0.62292594 0.7931079 
1.6989262 0.5849255 0.0 0.0350781 1.2394943 0.3828307 
0.104114145 1.7702314 0.010029972 0.0 1.9227315 0.0 
0.0 1.89041 1.6293968 0.15825962 1.9510568 0.0 
0.0 1.1547341 1.9313562 0.14722547 1.2953649 0.0048823655 
0.0 0.36033523 0.92643267 0.043590408 0.57723695 0.0 
0.0 0.0 0.0 0.0 0.0 0.07698792 
0.0 0.0 0.0 0.0 0.0 0.07698792 
0.0 0.0 0.0 0.0 0.0 0.07698792 
0.0 0.0 0.0 0.0 0.0 0.07698792 
0.0 0.0 0.0 0.0 0.0 0.07698792 
0.0 0.0 0.0 0.0 0.0 0.07698792 
0.0 0.0 0.0 0.0 0.0 0.07698792 
0.0 0.0 0.0 0.0 0.0 0.07698792 
0.0 0.0 0.0 0.0 0.0 0.07698792 
0.0 0.0 0.0 0.0 0.0 0.07698792 
0.0 0.0 0.0 0.0 0.0 0.07698792 
0.0 0.0 0.0 0.0 0.0 0.07698792 
0.0 0.0 0.0 0.0 0.0 0.07698792 
0.0 0.0 0.0 0.0 0.0 0.07698792 
0.0 0.0 0.0 0.0 0.0 0.07698792 
0.0 0.0 0.0 0.0 0.0 0.07698792 
0.0 0.0 0.0 0.0 0.0 0.07698792 
0.0 0.0 0.0 0.0 0.0 0.07698792 
0.0 0.0 0.0 0.0 0.0 0.07698792 
0.0 0.0 0.0 0.0 0.0 0.07698792 
0.37564993 0.0 0.0 0.0 0.0 0.21531372 
1.5900533 0.0 0.0 0.0 0.06655079 0.62315756 
2.182741 0.0 0.0 0.0 0.8323643 0.7069732 
1.6273496 0.76214665 0.0 0.0 1.6494448 0.40483654 
0.0 1.8812017 0.0 0.0 2.2553732 0.0 
0.0 1.693288 1.462544 0.032898735 1.9873074 0.0 
0.0 0.95889986 1.7131006 0.056551393 1.2896881 0.12403487 
0.0 0.30012545 0.9502584 0.08017845 0.47554585 0.028501328 
0.0 0.0 0.0 0.0 0.0 0.07698792 
0.0 0.0 0.0 0.0 0.0 0.07698792 
0.0 0.0 0.0 0.0 0.0 0.07698792 
0.0 0.0 0.0 0.0 0.0 0.07698792 
0.0 0.0 0.0 0.0 0.0 0.07698792 
0.0 0.0 0.0 0.0 0.0 0.07698792 
0.0 0.0 0.0 0.0 0.0 0.07698792 
0.0 0.0 0.0 0.0 0.0 0.07698792 
0.0 0.0 0.0 0.0 0.0 0.07698792 
0.0 0.0 0.0 0.0 0.0 0.07698792 
0.0 0.0 0.0 0.0 0.0 0.07698792 
0.0 0.0 0.0 0.0 0.0 0.07698792 
0.0 0.0 0.0 0.0 0.0 0.07698792 
0.0 0.0 0.0 0.0 0.0 0.07698792 
0.0 0.0 0.0 0.0 0.0 0.07698792 
0.0 0.0 0.0 0.0 0.0 0.07698792 
0.0 0.0 0.0 0.0 0.0 0.07698792 
0.0 0.0 0.0 0.0 0.0 0.07698792 
0.0 0.0 0.0 0.0 0.0 0.07698792 
0.0 0.0 0.0 0.0 0.0 0.05172184 
0.6522974 0.0 0.0 0.0 0.0 0.31571585 
1.7884579 0.0 0.0 0.0 0.18508422 0.6869206 
2.1736367 0.0 0.0 0.0 0.97365934 0.6026899 
1.4342403 1.1213875 0.0 0.0 1.8101712 0.33633584 
0.0 2.008028 0.2011911 0.0 2.3604581 0.0 
0.0 1.6401713 1.4258881 0.0 1.8679668 0.0 
0.0 0.8354273 1.5664866 0.0 1.1601839 0.07117003 
0.0 0.22127998 0.80994684 0.0 0.3930842 0.0 
0.0 0.015212634 0.0 0.0 0.0 0.025782455 
0.0 0.025409091 0.0 0.0 0.0 0.020136058 
0.0 0.013059127 0.0 0.0 0.0 0.057186496 
0.0 0.0 0.0 0.0 0.0 0.07698792 
0.0 0.0 0.0 0.0 0.0 0.07698792 
0.0 0.0 0.0 0.0 0.0 0.07698792 
0.0 0.0 0.0 0.0 0.0 0.07698792 
0.0 0.0 0.0 0.0 0.0 0.07698792 
0.0 0.0 0.0 0.0 0.0 0.07698792 
0.0 0.0 0.0 0.0 0.0 0.07698792 
0.0 0.0 0.0 0.0 0.0 0.07698792 
0.0 0.0 0.0 0.0 0.0 0.07698792 
0.0 0.0 0.0 0.0 0.0 0.07698792 
0.0 0.0 0.0 0.0 0.0 0.07698792 
0.0 0.0 0.0 0.0 0.0 0.07698792 
0.0 0.0 0.0 0.0 0.0 0.07698792 
0.0 0.0 0.0 0.0 0.0 0.07698792 
0.0 0.0 0.0 0.0 0.0 0.07698792 
0.0 0.0 0.0 0.0 0.0 0.07698792 
0.025899164 0.0 0.0 0.0 0.0 0.060996257 
0.9627239 0.0 0.0 0.0 0.0 0.47824535 
2.0030732 0.0 0.0 0.0 0.3890724 0.77529275 
2.0746777 0.12865195 0.0 0.0 1.1696811 0.55483997 
1.138524 1.2353626 0.0 0.0 2.0578287 0.30872184 
0.0 1.9460723 0.58420414 0.0 2.3879993 0.0 
0.0 1.499371 1.4868457 0.0 1.8169888 0.0 
0.0 0.6875333 1.4964225 0.0 1.0551989 0.0485937 
0.0 0.15067822 0.6571835 0.0 0.29819366 0.0 
0.0 0.09795616 0.0 0.0 0.0 0.0 
0.0 0.15191354 0.061543696 0.0 0.0 0.0 
0.0 0.05154849 0.0 0.0 0.05633797 0.0065182373 
0.0 0.0 0.0 0.0 0.0 0.07698792 
0.0 0.0 0.0 0.0 0.0 0.07698792 
0.0 0.0 0.0 0.0 0.0 0.07698792 
0.0 0.0 0.0 0.0 0.0 0.07698792 
0.0 0.0 0.0 0.0 0.0 0.07698792 
0.0 0.0 0.0 0.0 0.0 0.07698792 
0.0 0.0 0.0 0.0 0.0 0.07698792 
0.0 0.0 0.0 0.0 0.0 0.07698792 
0.0 0.0 0.0 0.0 0.0 0.07698792 
0.0 0.0 0.0 0.0 0.0 0.07698792 
0.0 0.0 0.0 0.0 0.0 0.07698792 
0.0 0.0 0.0 0.0 0.0 0.07698792 
0.0 0.0 0.0 0.0 0.0 0.07698792 
0.0 0.0 0.0 0.0 0.0 0.07698792 
0.0 0.0 0.0 0.0 0.0 0.07698792 
0.0 0.0 0.0 0.0 0.0 0.07698792 
0.15687832 0.0 0.0 0.0 0.0 0.11028968 
1.2288795 0.0 0.0 0.01985408 0.0 0.54112184 
2.0854993 0.0 0.0 0.0 0.5963748 0.770582 
1.9872954 0.32488224 0.0 0.0 1.3342347 0.51498663 
0.88557047 1.5087963 0.0 0.0 2.1600637 0.28046632 
0.0 1.9560646 0.9075151 0.0 2.3644466 0.0 
0.0 1.4627008 1.6458882 0.046756312 1.7393615 0.0 
0.0 0.47165784 1.4085462 0.004395255 0.901968 0.14341941 
0.0 0.16142616 0.5629546 0.066418074 0.1538053 0.0 
0.0 0.1837841 0.009425335 0.0 0.034262527 0.0 
0.0 0.30578658 0.22094798 0.0 0.063099325 0.0 
0.0 0.08653548 0.08483703 0.0 0.18095995 0.0 
0.0 0.0 0.0 0.0 0.0 0.07698792 
0.0 0.0 0.0 0.0 0.0 0.07698792 
0.0 0.0 0.0 0.0 0.0 0.07698792 
0.0 0.0 0.0 0.0 0.0 0.07698792 
0.0 0.0 0.0 0.0 0.0 0.07698792 
0.0 0.0 0.0 0.0 0.0 0.07698792 
0.0 0.0 0.0 0.0 0.0 0.07698792 
0.0 0.0 0.0 0.0 0.0 0.07698792 
0.0 0.0 0.0 0.0 0.0 0.07698792 
0.0 0.0 0.0 0.0 0.0 0.07698792 
0.0 0.0 0.0 0.0 0.0 0.07698792 
0.0 0.0 0.0 0.0 0.0 0.07698792 
0.0 0.0 0.0 0.0 0.0 0.07698792 
0.0 0.0 0.0 0.0 0.0 0.07698792 
0.0 0.0 0.0 0.0 0.0 0.07698792 
0.0 0.0 0.0 0.0 0.0 0.07020002 
0.34529954 0.0 0.0 0.0 0.0 0.1832369 
1.511158 0.0 0.0 0.0 0.042460773 0.62515557 
2.1564367 0.0 0.0 0.0 0.75855625 0.7288093 
1.8576257 0.5552733 0.0 0.0 1.5131782 0.49663725 
0.5261878 1.6750551 0.0 0.0 2.4242094 0.301427 
0.0 1.9006735 0.94908357 0.011423501 2.3779266 0.0 
0.0 1.3222877 1.6031815 0.06395575 1.6392835 0.09943387 
0.0 0.18468967 1.1598151 0.066852555 0.7914134 0.30593958 
0.05978647 0.121103466 0.3577543 0.1459409 0.11342262 0.09152181 
0.0 0.24896991 0.0 0.056139942 0.13914526 0.0 
0.0 0.38744798 0.35467488 0.077544406 0.1494809 0.0 
0.0 0.1850454 0.26575765 0.0 0.22669594 0.0 
0.0 0.0 0.0 0.0 0.0 0.07698792 
0.0 0.0 0.0 0.0 0.0 0.07698792 
0.0 0.0 0.0 0.0 0.0 0.07698792 
0.0 0.0 0.0 0.0 0.0 0.07698792 
0.0 0.0 0.0 0.0 0.0 0.07698792 
0.0 0.0 0.0 0.0 0.0 0.07698792 
0.0 0.0 0.0 0.0 0.0 0.07698792 
0.0 0.0 0.0 0.0 0.0 0.07698792 
0.0 0.0 0.0 0.0 0.0 0.07698792 
0.0 0.0 0.0 0.0 0.0 0.07698792 
0.0 0.0 0.0 0.0 0.0 0.07698792 
0.0 0.0 0.0 0.0 0.0 0.07698792 
0.0 0.0 0.0 0.0 0.0 0.07698792 
0.0 0.0 0.0 0.0 0.0 0.07698792 
0.0 0.0 0.0 0.0 0.0 0.07698792 
0.0 0.0 0.0 0.0 0.0 0.059256557 
0.6289034 0.0 0.0 0.0 0.0 0.27701935 
1.7638094 0.0 0.0 0.0 0.17081153 0.6342684 
2.160662 0.0 0.0 0.0 0.94926685 0.59244746 
1.5998518 0.84743756 0.0 0.0 1.8710591 0.51271987 
0.019303612 1.7401627 0.0 0.0 2.670521 0.28666848 
0.0 1.7225305 0.9955404 0.08837712 2.276531 0.05637172 
0.0 1.0034009 1.4654999 0.07431904 1.4874786 0.3032643 
0.0 0.0 0.8793589 0.15349245 0.6167595 0.4398459 
0.22097766 0.05792608 0.0 0.0580325 0.16771117 0.21763343 
0.0 0.30062136 0.0 0.039898198 0.19039233 0.0 
0.0 0.40593693 0.3673991 0.076993 0.18692838 0.038878396 
0.0 0.21044493 0.41277847 0.0 0.2568344 0.0062997863 
0.0 0.0 0.0 0.0 0.0 0.07698792 
0.0 0.0 0.0 0.0 0.0 0.07698792 
0.0 0.0 0.0 0.0 0.0 0.07698792 
0.0 0.0 0.0 0.0 0.0 0.07698792 
0.0 0.0 0.0 0.0 0.0 0.07698792 
0.0 0.0 0.0 0.0 0.0 0.07698792 
0.0 0.0 0.0 0.0 0.0 0.07698792 
0.0 0.0 0.0 0.0 0.0 0.07698792 
0.0 0.0 0.0 0.0 0.0 0.07698792 
0.0 0.0 0.0 0.0 0.0 0.07698792 
0.0 0.0 0.0 0.0 0.0 0.07698792 
0.0 0.0 0.0 0.0 0.0 0.07698792 
0.0 0.0 0.0 0.0 0.0 0.07698792 
0.0 0.0 0.0 0.0 0.0 0.07698792 
0.0 0.0 0.0 0.0 0.0 0.07698792 
0.0858825 0.0 0.029573813 0.0 0.0 0.051475823 
0.9687777 0.0 0.0 0.0 0.0 0.34147307 
1.9393549 0.0 0.0 0.0 0.3325152 0.6213033 
2.1010618 0.19593954 0.0 0.0 1.1390808 0.45056632 
1.2885981 1.2471163 0.0 0.0 2.200303 0.4263643 
0.0 1.934824 0.14916593 0.0 2.6681259 0.14896911 
0.0 1.5504153 1.166277 0.0 2.0097163 0.027973443 
0.0 0.6966115 1.3237867 0.0 1.2534401 0.28444833 
0.0 0.0 0.6231143 0.10799815 0.43875328 0.45341647 
0.35492873 0.02925919 0.0 0.0 0.19218431 0.24236101 
0.0 0.25555196 0.0 0.0 0.22751169 0.0 
0.0 0.3840861 0.30548418 0.021442216 0.23232324 0.0804985 
0.0 0.15866536 0.4550351 0.0 0.2903653 0.011702865 
0.0 0.0 0.0 0.0 0.0 0.07698792 
0.0 0.0 0.0 0.0 0.0 0.07698792 
0.0 0.0 0.0 0.0 0.0 0.07698792 
0.0 0.0 0.0 0.0 0.0 0.07698792 
0.0 0.0 0.0 0.0 0.0 0.07698792 
0.0 0.0 0.0 0.0 0.0 0.07698792 
0.0 0.0 0.0 0.0 0.0 0.07698792 
0.0 0.0 0.0 0.0 0.0 0.07698792 
0.0 0.0 0.0 0.0 0.0 0.07698792 
0.0 0.0 0.0 0.0 0.0 0.07698792 
0.0 0.0 0.0 0.0 0.0 0.07698792 
0.0 0.0 0.0 0.0 0.0 0.07698792 
0.0 0.0 0.0 0.0 0.0 0.07698792 
0.0 0.0 0.0 0.0 0.0 0.07698792 
0.0 0.0 0.0 0.0 0.0 0.07698792 
0.21015549 0.0 0.0 0.0 0.0 0.13996956 
1.2922411 0.0 0.0 0.037808444 0.0 0.54609287 
2.1089613 0.0 0.0 0.0 0.5949734 0.7176122 
1.9276989 0.444807 0.0 0.020061981 1.3763667 0.48948705 
0.8516126 1.4969239 0.0 0.0 2.4345224 0.3204186 
0.0 1.9704939 0.5411793 0.0 2.51687 0.013042584 
0.0 1.3991203 1.3253601 0.0 1.7564889 0.034762174 
0.0 0.535709 1.1795788 0.0 1.0510973 0.19529843 
0.007948242 0.0 0.3287785 0.0056643346 0.2979036 0.4098115 
0.3963508 0.056444988 0.0 0.0033401297 0.16193995 0.23530515 
0.0 0.25555196 0.0 0.0 0.22751169 0.0 
0.0 0.3840861 0.30548418 0.021442216 0.23232324 0.0804985 
0.0 0.15866536 0.4550351 0.0 0.2903653 0.011702865 
0.0 0.0 0.0 0.0 0.0 0.07698792 
0.0 0.0 0.0 0.0 0.0 0.07698792 
0.0 0.0 0.0 0.0 0.0 0.07698792 
0.0 0.0 0.0 0.0 0.0 0.07698792 
0.0 0.0 0.0 0.0 0.0 0.07698792 
0.0 0.0 0.0 0.0 0.0 0.07698792 
0.0 0.0 0.0 0.0 0.0 0.07698792 
0.0 0.0 0.0 0.0 0.0 0.07698792 
0.0 0.0 0.0 0.0 0.0 0.07698792 
0.0 0.0 0.0 0.0 0.0 0.07698792 
0.0 0.0 0.0 0.0 0.0 0.07698792 
0.0 0.0 0.0 0.0 0.0 0.07698792 
0.0 0.0 0.0 0.0 0.0 0.07698792 
0.0 0.0 0.0 0.0 0.0 0.07698792 
0.0 0.0 0.0 0.0 0.0 0.07283976 
0.44660896 0.0 0.0 0.0 0.0 0.25392026 
1.5923078 0.0 0.0 0.024326202 0.05104888 0.61212736 
2.1211467 0.0 0.0 0.0 0.8356657 0.6583647 
1.8142321 0.66236967 0.0 0.0044390755 1.5985768 0.47805956 
0.46257454 1.733117 0.0 0.0 2.5141985 0.19676547 
0.0 1.8519064 0.95127344 0.0 2.3429272 0.0 
0.0 1.210015 1.5289516 0.0 1.6188886 0.04746741 
0.0 0.42222205 1.1152657 0.0 0.90414953 0.1305335 
0.18002036 0.0 0.055441663 0.0 0.18248533 0.3883221 
0.40610975 0.062204212 0.0 0.0054481598 0.15558586 0.23336838 
0.0 0.25555196 0.0 0.0 0.22751169 0.0 
0.0 0.3840861 0.30548418 0.021442216 0.23232324 0.0804985 
0.0 0.15866536 0.4550351 0.0 0.2903653 0.011702865 
0.0 0.0 0.0 0.0 0.0 0.07698792 
0.0 0.0 0.0 0.0 0.0 0.07698792 
0.0 0.0 0.0 0.0 0.0 0.07698792 
0.0 0.0 0.0 0.0 0.0 0.07698792 
0.0 0.0 0.0 0.0 0.0 0.07698792 
0.0 0.0 0.0 0.0 0.0 0.07698792 
0.0 0.0 0.0 0.0 0.0 0.07698792 
0.0 0.0 0.0 0.0 0.0 0.07698792 
0.0 0.0 0.0 0.0 0.0 0.07698792 
0.0 0.0 0.0 0.0 0.0 0.07698792 
0.0 0.0 0.0 0.0 0.0 0.07698792 
0.0 0.0 0.0 0.0 0.0 0.07698792 
0.0 0.0 0.0 0.0 0.0 0.07698792 
0.0 0.0 0.0 0.0 0.0 0.07698792 
0.0 0.0 0.006726533 0.0 0.0 0.04731775 
0.7322739 0.0 0.0 0.0 0.0 0.33132163 
1.8489068 0.0 0.0 0.0 0.23215623 0.7105587 
2.16842 0.031396918 0.0 0.0 0.9945138 0.5882579 
1.6095104 0.9434606 0.0 0.0 1.8495972 0.49996775 
0.0 1.8767253 0.07554073 0.0 2.5940063 0.17206538 
0.0 1.7743845 1.1748415 0.021170806 2.1851661 0.0 
0.0 1.0995152 1.635876 0.06599522 1.4584548 0.16399857 
0.0 0.3250476 1.0795169 0.06374844 0.677442 0.10805994 
0.2870586 0.0 0.0 0.055649314 0.078666195 0.3987929 
0.37907302 0.044678234 0.0 0.029792007 0.16869535 0.26487684 
0.0 0.23825385 0.0 0.0011758553 0.23001726 0.0 
0.0 0.3592748 0.28879333 0.05337212 0.23145665 0.12238936 
0.0 0.14295404 0.44985586 0.0 0.27512965 0.02629339 
0.0 0.0 0.0 0.0 0.0 0.07698792 
0.0 0.0 0.0 0.0 0.0 0.07698792 
0.0 0.0 0.0 0.0 0.0 0.07698792 
0.0 0.0 0.0 0.0 0.0 0.07698792 
0.0 0.0 0.0 0.0 0.0 0.07698792 
0.0 0.0 0.0 0.0 0.0 0.07698792 
0.0 0.0 0.0 0.0 0.0 0.07698792 
0.0 0.0 0.0 0.0 0.0 0.07698792 
0.0 0.0 0.0 0.0 0.0 0.07698792 
0.0 0.0 0.0 0.0 0.0 0.07698792 
0.0 0.0 0.0 0.0 0.0 0.07698792 
0.0 0.0 0.0 0.0 0.0 0.07698792 
0.0 0.0 0.0 0.0 0.0 0.07698792 
0.0 0.0 0.0 0.0 0.0 0.07698792 
0.07121016 0.0 0.0 0.0 0.0 0.06486141 
1.0609648 0.0 0.0 0.0 0.0 0.4645829 
2.038283 0.0 0.0 0.0 0.43153855 0.71510124 
2.0515835 0.1722017 0.0 0.0 1.2315587 0.48861593 
1.26788 1.149119 0.0 0.0 2.243313 0.51541775 
0.0 1.9044313 0.3064305 0.0 2.6799493 0.14872508 
0.0 1.6122949 1.198794 0.015070681 2.0563178 0.0 
0.0 0.84115076 1.4497695 0.019396339 1.3072342 0.265684 
0.0 0.20175153 0.8766875 0.08130978 0.4654384 0.13032225 
0.25077385 0.0 0.0 0.04614645 0.12514336 0.41813326 
0.26071453 0.0 0.0 0.087095045 0.21626057 0.3534829 
0.0 0.15956412 0.0 0.102348305 0.2230574 0.08321762 
0.0 0.24064341 0.20069012 0.13594496 0.20950381 0.25435528 
0.0 0.09849821 0.4192159 0.08013053 0.19018452 0.078574955 
0.0 0.0 0.0 0.0 0.0 0.07698792 
0.0 0.0 0.0 0.0 0.0 0.07698792 
0.0 0.0 0.0 0.0 0.0 0.07698792 
0.0 0.0 0.0 0.0 0.0 0.07698792 
0.0 0.0 0.0 0.0 0.0 0.07698792 
0.0 0.0 0.0 0.0 0.0 0.07698792 
0.0 0.0 0.0 0.0 0.0 0.07698792 
0.0 0.0 0.0 0.0 0.0 0.07698792 
0.0 0.0 0.0 0.0 0.0 0.07698792 
0.0 0.0 0.0 0.0 0.0 0.07698792 
0.0 0.0 0.0 0.0 0.0 0.07698792 
0.0 0.0 0.0 0.0 0.0 0.07698792 
0.0 0.0 0.0 0.0 0.0 0.07698792 
0.0 0.0 0.0 0.0 0.0 0.07698792 
0.14742976 0.0 0.0 0.022793718 0.0 0.18746915 
1.1942492 0.0 0.0 0.15773958 0.0 0.69031435 
2.1043062 0.0 0.0 0.1628347 0.6523166 0.9022292 
1.9137213 0.35761607 0.0 0.16107918 1.394977 0.67736167 
0.96250814 1.4193068 0.0 0.06867091 2.3626657 0.49561435 
0.0 1.9562907 0.56936693 0.0 2.597542 0.10268222 
0.0 1.423393 1.304259 0.0 1.8485922 0.063866615 
0.0 0.5706641 1.261847 0.0 1.1157962 0.28110415 
0.0 0.08294029 0.63477254 0.09877086 0.25673681 0.13888873 
0.2065996 0.0 0.0 0.015530017 0.17140584 0.35838363 
0.143505 0.017617144 0.0 0.034714006 0.21250738 0.33404538 
0.0 0.06697367 0.0 0.044759985 0.14721645 0.13053876 
0.0 0.07926245 0.042442463 0.06868026 0.12195952 0.2710902 
0.0 0.073737405 0.3288306 0.10232005 0.056488533 0.109118044 
0.0 0.0 0.0 0.0 0.0 0.07698792 
0.0 0.0 0.0 0.0 0.0 0.07698792 
0.0 0.0 0.0 0.0 0.0 0.07698792 
0.0 0.0 0.0 0.0 0.0 0.07698792 
0.0 0.0 0.0 0.0 0.0 0.07698792 
0.0 0.0 0.0 0.0 0.0 0.07698792 
0.0 0.0 0.0 0.0 0.0 0.07698792 
0.0 0.0 0.0 0.0 0.0 0.07698792 
0.0 0.0 0.0 0.0 0.0 0.07698792 
0.0 0.0 0.0 0.0 0.0 0.07698792 
0.0 0.0 0.0 0.0 0.0 0.07698792 
0.0 0.0 0.0 0.0 0.0 0.07698792 
0.0 0.0 0.0 0.0 0.0 0.07698792 
0.0 0.0 0.0 0.0 0.0 0.07698792 
0.19949579 0.0 0.0 0.106137745 0.0 0.3203702 
1.2466285 0.0 0.0 0.14550972 0.24353375 0.9323875 
2.0844193 0.0 0.0 0.2333745 0.8040583 1.0921218 
1.9123671 0.23342457 0.0 0.1648065 1.4675375 0.86120754 
0.73129046 1.6169803 0.0 0.08918099 2.2980368 0.42072317 
0.0 1.8976924 0.83349216 0.0 2.4390152 0.0 
0.0 1.2706193 1.4587183 0.0 1.6357136 0.044973582 
0.0 0.40792933 1.1029682 0.0 0.9278328 0.18707229 
0.0 0.0 0.3703121 0.054170035 0.08755301 0.12161966 
0.10792434 0.0 0.0 0.0 0.12271348 0.23840898 
0.06625858 0.015521486 0.0 0.0 0.13702755 0.26360813 
0.0 0.008990935 0.0 0.0 0.0343468 0.14314386 
0.0 0.0 0.0 0.0 0.026255269 0.20656836 
0.0 0.0 0.14932778 0.010958706 0.006947156 0.10601041 
0.0 0.0 0.0 0.0 0.0 0.07698792 
0.0 0.0 0.0 0.0 0.0 0.07698792 
0.0 0.0 0.0 0.0 0.0 0.07698792 
0.0 0.0 0.0 0.0 0.0 0.07698792 
0.0 0.0 0.0 0.0 0.0 0.07698792 
0.0 0.0 0.0 0.0 0.0 0.07698792 
0.0 0.0 0.0 0.0 0.0 0.07698792 
0.0 0.0 0.0 0.0 0.0 0.07698792 
0.0 0.0 0.0 0.0 0.0 0.07698792 
0.0 0.0 0.0 0.0 0.0 0.07698792 
0.0 0.0 0.0 0.0 0.0 0.07698792 
0.0 0.0 0.0 0.0 0.0 0.07698792 
0.0 0.0 0.0 0.0 0.0 0.07698792 
0.0 0.0 0.0 0.0 0.0 0.07698792 
0.20256448 0.0 0.0 0.044671137 0.10682388 0.33248743 
1.1969805 0.0 0.0 0.050854396 0.3585166 1.0229704 
2.0050619 0.0 0.0 0.09976992 0.7843291 1.222002 
1.9111247 0.099775955 0.0 0.10327366 1.4747443 0.9997908 
0.44382113 1.557254 0.0 0.15037969 2.1278374 0.4287781 
0.0 1.7891032 1.0635585 0.0 2.2316203 0.0 
0.0 1.1279185 1.5763557 0.0 1.4827666 0.1398751 
0.0 0.28292397 0.9923692 0.0 0.7493879 0.10573758 
0.0 0.0 0.11388896 0.0 0.010510895 0.10065079 
0.0026801527 0.0 0.0 0.0 0.056780595 0.12711689 
0.0 0.0 0.0 0.0 0.023032662 0.123528734 
0.0 0.0 0.0 0.0 0.0 0.08515322 
0.0 0.0 0.0 0.0 0.0 0.12447001 
0.0 0.0 0.0 0.0 0.0 0.083151996 
0.0 0.0 0.0 0.0 0.0 0.07698792 
0.0 0.0 0.0 0.0 0.0 0.07698792 
0.0 0.0 0.0 0.0 0.0 0.07698792 
0.0 0.0 0.0 0.0 0.0 0.07698792 
0.0 0.0 0.0 0.0 0.0 0.07698792 
0.0 0.0 0.0 0.0 0.0 0.07698792 
0.0 0.0 0.0 0.0 0.0 0.07698792 
0.0 0.0 0.0 0.0 0.0 0.07698792 
0.0 0.0 0.0 0.0 0.0 0.07698792 
0.0 0.0 0.0 0.0 0.0 0.07698792 
0.0 0.0 0.0 0.0 0.0 0.07698792 
0.0 0.0 0.0 0.0 0.0 0.07698792 
0.0 0.0 0.0 0.0 0.0 0.07698792 
0.0 0.0 0.0 0.0 0.0 0.07698792 
0.11402999 0.0 0.0 0.0 0.12879941 0.23415342 
0.9685002 0.0 0.0 0.06398871 0.4639993 1.0110986 
1.6081431 0.0 0.0 0.23775057 0.9795075 1.5462174 
1.4875844 0.0 0.0 0.5188806 1.7134658 1.564965 
0.124222904 0.9948508 0.0 0.7218368 2.0401428 1.1231735 
0.0 1.2396705 1.0216508 0.7069757 1.8770317 0.5192805 
0.0 0.6866934 1.490109 0.3788893 1.2089401 0.46671665 
0.0 0.20079115 0.91902405 0.14942041 0.47515103 0.12499576 
0.0 0.0 0.0 0.0 0.0 0.081173405 
0.0 0.0 0.0 0.0 0.0 0.07698792 
0.0 0.0 0.0 0.0 0.0 0.07698792 
0.0 0.0 0.0 0.0 0.0 0.07698792 
0.0 0.0 0.0 0.0 0.0 0.07698792 
0.0 0.0 0.0 0.0 0.0 0.07698792 
0.0 0.0 0.0 0.0 0.0 0.07698792 
0.0 0.0 0.0 0.0 0.0 0.07698792 
0.0 0.0 0.0 0.0 0.0 0.07698792 
0.0 0.0 0.0 0.0 0.0 0.07698792 
0.0 0.0 0.0 0.0 0.0 0.07698792 
0.0 0.0 0.0 0.0 0.0 0.07698792 
0.0 0.0 0.0 0.0 0.0 0.07698792 
0.0 0.0 0.0 0.0 0.0 0.07698792 
0.0 0.0 0.0 0.0 0.0 0.07698792 
0.0 0.0 0.0 0.0 0.0 0.07698792 
0.0 0.0 0.0 0.0 0.0 0.07698792 
0.0 0.0 0.0 0.0 0.0 0.07698792 
0.0 0.0 0.0 0.0 0.0 0.07698792 
0.0 0.0 0.0 0.0 0.0 0.07698792 
0.0017988384 0.0 0.0 0.0 0.032535035 0.1342251 
0.6998324 0.0 0.0 0.060049716 0.5219787 0.8031731 
1.1909406 0.0 0.0 0.16704103 1.1455826 1.4081194 
0.8522391 0.0 0.0 0.32568052 1.6188648 1.4310746 
0.0 0.44733503 0.0 0.4498589 1.5501233 1.1938045 
0.0 0.62131464 0.5762931 0.5751333 1.1202314 0.7634424 
0.0 0.40689486 1.1116873 0.41064385 0.60056204 0.5537671 
0.0 0.13832726 0.73074496 0.19863316 0.17371155 0.14845775 
0.0 0.0 0.0 0.0 0.0 0.07698792 
0.0 0.0 0.0 0.0 0.0 0.07698792 
0.0 0.0 0.0 0.0 0.0 0.07698792 
0.0 0.0 0.0 0.0 0.0 0.07698792 
0.0 0.0 0.0 0.0 0.0 0.07698792 
0.0 0.0 0.0 0.0 0.0 0.07698792 
0.0 0.0 0.0 0.0 0.0 0.07698792 
0.0 0.0 0.0 0.0 0.0 0.07698792 
0.0 0.0 0.0 0.0 0.0 0.07698792 
0.0 0.0 0.0 0.0 0.0 0.07698792 
0.0 0.0 0.0 0.0 0.0 0.07698792 
0.0 0.0 0.0 0.0 0.0 0.07698792 
0.0 0.0 0.0 0.0 0.0 0.07698792 
0.0 0.0 0.0 0.0 0.0 0.07698792 
0.0 0.0 0.0 0.0 0.0 0.07698792 
0.0 0.0 0.0 0.0 0.0 0.07698792 
0.0 0.0 0.0 0.0 0.0 0.07698792 
0.0 0.0 0.0 0.0 0.0 0.07698792 
0.0 0.0 0.0 0.0 0.0 0.07698792 
0.0 0.0 0.0 0.0 0.0 0.07698792 
0.0 0.0 0.0 0.0 0.0 0.09191587 
0.3823903 0.0 0.0 0.0 0.38824788 0.49652854 
0.74391043 0.0 0.0 0.0 0.8709444 1.0028195 
0.53086084 0.0 0.0 0.0 1.0819579 1.1053765 
0.029169329 0.14409685 0.0 0.0 0.784048 0.95426315 
0.0 0.0 0.0 0.0 0.49362287 0.62593067 
0.0 0.0 0.42274758 0.0 0.28269288 0.416685 
0.0 0.0 0.3358959 0.0037464472 0.07821578 0.13187264 
0.0 0.0 0.0 0.0 0.0 0.07698792 
0.0 0.0 0.0 0.0 0.0 0.07698792 
0.0 0.0 0.0 0.0 0.0 0.07698792 
0.0 0.0 0.0 0.0 0.0 0.07698792 
0.0 0.0 0.0 0.0 0.0 0.07698792 
0.0 0.0 0.0 0.0 0.0 0.07698792 
0.0 0.0 0.0 0.0 0.0 0.07698792 
0.0 0.0 0.0 0.0 0.0 0.07698792 
0.0 0.0 0.0 0.0 0.0 0.07698792 
0.0 0.0 0.0 0.0 0.0 0.07698792 
0.0 0.0 0.0 0.0 0.0 0.07698792 
0.0 0.0 0.0 0.0 0.0 0.07698792 
0.0 0.0 0.0 0.0 0.0 0.07698792 
0.0 0.0 0.0 0.0 0.0 0.07698792 
0.0 0.0 0.0 0.0 0.0 0.07698792 
0.0 0.0 0.0 0.0 0.0 0.07698792 
0.0 0.0 0.0 0.0 0.0 0.07698792 
0.0 0.0 0.0 0.0 0.0 0.07698792 
0.0 0.0 0.0 0.0 0.0 0.07698792 
0.0 0.0 0.0 0.0 0.0 0.07698792 
0.0 0.0 0.0 0.0 0.0 0.081320055 
0.1286954 0.0 0.0 0.0 0.2501649 0.21221171 
0.3133539 0.0 0.0 0.0 0.51834047 0.35607973 
0.21482101 0.0 0.0 0.0 0.5161815 0.33694857 
0.0 0.0 0.0 0.0 0.35752133 0.3100379 
0.0 0.0 0.0 0.0 0.27872455 0.25594538 
0.0 0.0 0.0 0.0 0.15311243 0.18065375 
0.0 0.0 0.028232135 0.0 0.009566959 0.08794627 
0.0 0.0 0.0 0.0 0.0 0.07698792 
0.0 0.0 0.0 0.0 0.0 0.07698792 
0.0 0.0 0.0 0.0 0.0 0.07698792 
0.0 0.0 0.0 0.0 0.0 0.07698792 
0.0 0.0 0.0 0.0 0.0 0.07698792 
0.0 0.0 0.0 0.0 0.0 0.07698792 
0.0 0.0 0.0 0.0 0.0 0.07698792 
0.0 0.0 0.0 0.0 0.0 0.07698792 
0.0 0.0 0.0 0.0 0.0 0.07698792 
0.0 0.0 0.0 0.0 0.0 0.07698792 
0.0 0.0 0.0 0.0 0.0 0.07698792 
0.0 0.0 0.0 0.0 0.0 0.07698792 
0.0 0.0 0.0 0.0 0.0 0.07698792 
0.0 0.0 0.0 0.0 0.0 0.07698792 
0.0 0.0 0.0 0.0 0.0 0.07698792 
0.0 0.0 0.0 0.0 0.0 0.07698792 
0.0 0.0 0.0 0.0 0.0 0.07698792 
0.0 0.0 0.0 0.0 0.0 0.07698792 
0.0 0.0 0.0 0.0 0.0 0.07698792 
0.0 0.0 0.0 0.0 0.0 0.07698792 
0.0 0.0 0.0 0.0 0.0 0.07698792 
0.0 0.0 0.0 0.0 0.0 0.07698792 
0.0 0.0 0.0 0.0 0.0 0.07698792 
0.0 0.0 0.0 0.0 0.0 0.07698792 
0.0 0.0 0.0 0.0 0.0 0.07698792 
0.0 0.0 0.0 0.0 0.0 0.07698792 
0.0 0.0 0.0 0.0 0.0 0.07698792 
0.0 0.0 0.0 0.0 0.0 0.07698792 
0.0 0.0 0.0 0.0 0.0 0.07698792 
0.0 0.0 0.0 0.0 0.0 0.07698792 
0.0 0.0 0.0 0.0 0.0 0.07698792 
0.0 0.0 0.0 0.0 0.0 0.07698792 
0.0 0.0 0.0 0.0 0.0 0.07698792 
0.0 0.0 0.0 0.0 0.0 0.07698792 
0.0 0.0 0.0 0.0 0.0 0.07698792 
0.0 0.0 0.0 0.0 0.0 0.07698792 
0.0 0.0 0.0 0.0 0.0 0.07698792 
0.0 0.0 0.0 0.0 0.0 0.07698792 
0.0 0.0 0.0 0.0 0.0 0.07698792 
0.0 0.0 0.0 0.0 0.0 0.07698792 
0.0 0.0 0.0 0.0 0.0 0.07698792 
0.0 0.0 0.0 0.0 0.0 0.07698792 
0.0 0.0 0.0 0.0 0.0 0.07698792 
0.0 0.0 0.0 0.0 0.0 0.07698792 
0.0 0.0 0.0 0.0 0.0 0.07698792 
0.0 0.0 0.0 0.0 0.0 0.07698792 
0.0 0.0 0.0 0.0 0.0 0.07698792 
0.0 0.0 0.0 0.0 0.0 0.07698792 
0.0 0.0 0.0 0.0 0.0 0.07698792 
0.0 0.0 0.0 0.0 0.0 0.07698792 
0.0 0.0 0.0 0.0 0.0 0.07698792 
0.0 0.0 0.0 0.0 0.0 0.07698792 
0.0 0.0 0.0 0.0 0.0 0.07698792 
0.0 0.0 0.0 0.0 0.0 0.07698792 
0.0 0.0 0.0 0.0 0.0 0.07698792 
0.0 0.0 0.0 0.0 0.0 0.07698792 
0.0 0.0 0.0 0.0 0.0 0.07698792 
0.0 0.0 0.0 0.0 0.0 0.07698792 
0.0 0.0 0.0 0.0 0.0 0.07698792 
0.0 0.0 0.0 0.0 0.0 0.07698792 
0.0 0.0 0.0 0.0 0.0 0.07698792 
0.0 0.0 0.0 0.0 0.0 0.07698792 
0.0 0.0 0.0 0.0 0.0 0.07698792 
0.0 0.0 0.0 0.0 0.0 0.07698792 
0.0 0.0 0.0 0.0 0.0 0.07698792 
0.0 0.0 0.0 0.0 0.0 0.07698792 
0.0 0.0 0.0 0.0 0.0 0.07698792 
0.0 0.0 0.0 0.0 0.0 0.07698792 

