0.0 0.0 0.0 0.0 0.0 0.07698792 
0.0 0.0 0.0 0.0 0.0 0.07698792 
0.0 0.0 0.0 0.0 0.0 0.07698792 
0.0 0.0 0.0 0.0 0.0 0.07698792 
0.0 0.0 0.0 0.0 0.0 0.07698792 
0.0 0.0 0.0 0.0 0.0 0.07698792 
0.0 0.0 0.0 0.0 0.0 0.07698792 
0.0 0.0 0.0 0.0 0.0 0.07698792 
0.0 0.0 0.0 0.0 0.0 0.07698792 
0.0 0.0 0.0 0.0 0.0 0.07698792 
0.0 0.0 0.0 0.0 0.0 0.07698792 
0.0 0.0 0.0 0.0 0.0 0.07698792 
0.0 0.0 0.0 0.0 0.0 0.07698792 
0.0 0.0 0.0 0.0 0.0 0.07698792 
0.0 0.0 0.0 0.0 0.0 0.07698792 
0.0 0.0 0.0 0.0 0.0 0.07698792 
0.0 0.0 0.0 0.0 0.0 0.07698792 
0.0 0.0 0.0 0.0 0.0 0.07698792 
0.0 0.0 0.0 0.0 0.0 0.07698792 
0.0 0.0 0.0 0.0 0.0 0.07698792 
0.0 0.0 0.0 0.0 0.0 0.07698792 
0.0 0.0 0.0 0.0 0.0 0.07698792 
0.0 0.0 0.0 0.0 0.0 0.07698792 
0.0 0.0 0.0 0.0 0.0 0.07698792 
0.0 0.0 0.0 0.0 0.0 0.07698792 
0.0 0.0 0.0 0.0 0.0 0.07698792 
0.0 0.0 0.0 0.0 0.0 0.07698792 
0.0 0.0 0.0 0.0 0.0 0.07698792 
0.0 0.0 0.0 0.0 0.0 0.07698792 
0.0 0.0 0.0 0.0 0.0 0.07698792 
0.0 0.0 0.0 0.0 0.0 0.07698792 
0.0 0.0 0.0 0.0 0.0 0.07698792 
0.0 0.0 0.0 0.0 0.0 0.07698792 
0.0 0.0 0.0 0.0 0.0 0.07698792 
0.0 0.0 0.0 0.0 0.0 0.07698792 
0.0 0.0 0.0 0.0 0.0 0.07698792 
0.0 0.0 0.0 0.0 0.0 0.07698792 
0.0 0.0 0.0 0.0 0.0 0.07698792 
0.0 0.0 0.0 0.0 0.0 0.07698792 
0.0 0.0 0.0 0.0 0.0 0.07698792 
0.0 0.0 0.0 0.0 0.0 0.07698792 
0.0 0.0 0.0 0.0 0.0 0.07698792 
0.0 0.0 0.0 0.0 0.0 0.07698792 
0.0 0.0 0.0 0.0 0.0 0.07698792 
0.0 0.0 0.0 0.0 0.0 0.07698792 
0.0 0.0 0.0 0.0 0.0 0.07698792 
0.0 0.0 0.0 0.0 0.0 0.07698792 
0.0 0.0 0.0 0.0 0.0 0.07698792 
0.0 0.0 0.0 0.0 0.0 0.07698792 
0.0 0.0 0.0 0.0 0.0 0.07698792 
0.0 0.0 0.0 0.0 0.0 0.07698792 
0.0 0.0 0.0 0.0 0.0 0.07698792 
0.0 0.0 0.0 0.0 0.0 0.07698792 
0.0 0.0 0.0 0.0 0.0 0.07698792 
0.0 0.0 0.0 0.0 0.0 0.07698792 
0.0 0.0 0.0 0.0 0.0 0.07698792 
0.0 0.0 0.0 0.0 0.0 0.07698792 
0.0 0.0 0.0 0.0 0.0 0.07698792 
0.0 0.0 0.0 0.0 0.0 0.07698792 
0.0 0.0 0.0 0.0 0.0 0.07698792 
0.0 0.0 0.0 0.0 0.0 0.07698792 
0.0 0.0 0.0 0.0 0.0 0.07698792 
0.0 0.0 0.0 0.0 0.0 0.07698792 
0.0 0.0 0.0 0.0 0.0 0.07698792 
0.0 0.0 0.0 0.0 0.0 0.07698792 
0.0 0.0 0.0 0.0 0.0 0.07698792 
0.0 0.0 0.0 0.0 0.0 0.07698792 
0.0 0.0 0.0 0.0 0.0 0.07698792 
0.0 0.0 0.0 0.0 0.0 0.07698792 
0.0 0.0 0.0 0.0 0.0 0.072085544 
0.017509304 0.0 0.042341866 0.0 0.0 0.017719194 
0.1692073 0.027757648 0.14195499 0.0 0.0 0.0 
0.28080463 0.13020508 0.27848154 0.0 0.0 0.0 
0.2612375 0.37205255 0.27408725 0.0 0.0 0.0 
0.02313225 0.44873375 0.2252227 0.0 0.0 0.0 
0.0 0.37998196 0.17131451 0.0 0.040861633 0.0 
0.0 0.22021417 0.047333345 0.0 0.08277178 0.0 
0.0 0.04616513 0.0 0.0 0.0 0.02644217 
0.0 0.0 0.0 0.0 0.0 0.07698792 
0.0 0.0 0.0 0.0 0.0 0.07698792 
0.0 0.0 0.0 0.0 0.0 0.07698792 
0.0 0.0 0.0 0.0 0.0 0.07698792 
0.0 0.0 0.0 0.0 0.0 0.07698792 
0.0 0.0 0.0 0.0 0.0 0.07698792 
0.0 0.0 0.0 0.0 0.0 0.07698792 
0.0 0.0 0.0 0.0 0.0 0.07698792 
0.0 0.0 0.0 0.0 0.0 0.07698792 
0.0 0.0 0.0 0.0 0.0 0.07698792 
0.0 0.0 0.0 0.0 0.0 0.07698792 
0.0 0.0 0.0 0.0 0.0 0.07698792 
0.0 0.0 0.0 0.0 0.0 0.07698792 
0.0 0.0 0.0 0.0 0.0 0.07698792 
0.0 0.0 0.0 0.0 0.0 0.07698792 
0.0 0.0 0.0 0.0 0.0 0.07698792 
0.0 0.0 0.0 0.0 0.0 0.07698792 
0.0 0.0 0.0 0.0 0.0 0.07698792 
0.0 0.0 0.0 0.0 0.0 0.07698792 
0.0 0.0 0.0018265694 0.0 0.0 0.049705267 
0.26508915 0.0 0.13089287 0.0 0.0 0.0 
0.6191282 0.0 0.25418082 0.0 0.0 0.0 
0.81247634 0.23648256 0.41087675 0.0 0.0 0.0 
0.7426976 0.7755056 0.7902418 0.0 0.0 0.0 
0.18241653 1.2180243 0.7950222 0.0 0.31761348 0.0 
0.0 1.064747 0.7470123 0.0 0.5323711 0.0 
0.0 0.5367582 0.43888244 0.0 0.52051634 0.0 
0.0 0.17119259 0.072263055 0.0 0.21909554 0.0 
0.0 0.019792553 0.0 0.0 0.0 0.050933413 
0.0 0.0 0.0 0.0 0.0 0.07698792 
0.0 0.0 0.0 0.0 0.0 0.07698792 
0.0 0.0 0.0 0.0 0.0 0.07698792 
0.0 0.0 0.0 0.0 0.0 0.07698792 
0.0 0.0 0.0 0.0 0.0 0.07698792 
0.0 0.0 0.0 0.0 0.0 0.07698792 
0.0 0.0 0.0 0.0 0.0 0.07698792 
0.0 0.0 0.0 0.0 0.0 0.07698792 
0.0 0.0 0.0 0.0 0.0 0.07698792 
0.0 0.0 0.0 0.0 0.0 0.07698792 
0.0 0.0 0.0 0.0 0.0 0.07698792 
0.0 0.0 0.0 0.0 0.0 0.07698792 
0.0 0.0 0.0 0.0 0.0 0.07698792 
0.0 0.0 0.0 0.0 0.0 0.07698792 
0.0 0.0 0.0 0.0 0.0 0.07698792 
0.0 0.0 0.0 0.0 0.0 0.07698792 
0.0 0.0 0.0 0.0 0.0 0.07698792 
0.0 0.0 0.008379847 0.0 0.0 0.046065256 
0.23262817 0.0 0.12115269 0.0 0.0 0.0 
0.7328096 0.0 0.11158865 0.0 0.0 0.0 
1.1604509 0.0 0.24891123 0.0 0.0 0.0 
1.2993736 0.32655397 0.46296436 0.0 0.0 0.0 
0.7882687 1.0551531 1.0744767 0.0 0.48525414 0.0 
0.049708694 1.5723641 1.5971855 0.0 1.0540748 0.0 
0.0 1.7483879 1.5978659 0.0 1.1190857 0.0 
0.0 1.2865465 1.2907037 0.0 0.87279147 0.0 
0.0 0.48514256 0.47710335 0.0 0.5318168 0.0 
0.0 0.115831226 0.018973067 0.0 0.11755206 0.0 
0.0 0.004642348 0.0 0.0 0.0 0.06500285 
0.0 0.0 0.0 0.0 0.0 0.07698792 
0.0 0.0 0.0 0.0 0.0 0.07698792 
0.0 0.0 0.0 0.0 0.0 0.07698792 
0.0 0.0 0.0 0.0 0.0 0.07698792 
0.0 0.0 0.0 0.0 0.0 0.07698792 
0.0 0.0 0.0 0.0 0.0 0.07698792 
0.0 0.0 0.0 0.0 0.0 0.07698792 
0.0 0.0 0.0 0.0 0.0 0.07698792 
0.0 0.0 0.0 0.0 0.0 0.07698792 
0.0 0.0 0.0 0.0 0.0 0.07698792 
0.0 0.0 0.0 0.0 0.0 0.07698792 
0.0 0.0 0.0 0.0 0.0 0.07698792 
0.0 0.0 0.0 0.0 0.0 0.07698792 
0.0 0.0 0.0 0.0 0.0 0.07698792 
0.0 0.0 0.0 0.0 0.0 0.07698792 
0.0 0.0 0.0 0.0 0.0 0.07133134 
0.12378508 0.0 0.07269975 0.0 0.0 0.0051055998 
0.64992857 0.0 0.09453706 0.0 0.0 0.0 
1.3177888 0.0 0.04340472 0.0 0.0 0.0 
1.6078193 0.30142358 0.03684274 0.0 0.09712985 0.0 
1.288923 0.9905799 0.28668088 0.20596586 0.8810622 0.0 
0.791052 1.4449515 0.8318812 0.35262254 1.4462065 0.0 
0.11521141 2.0185127 1.7672219 0.4265272 1.4149529 0.0 
0.0 2.1405919 2.3135312 0.20325947 1.3093973 0.0 
0.0 1.9703244 2.1791358 0.0 1.1262571 0.0 
0.0 1.1810176 1.2888248 0.0 0.77945536 0.0 
0.0 0.3944274 0.32913232 0.0 0.40116793 0.0 
0.0 0.11501825 0.002682764 0.0 0.07807925 0.0 
0.0 0.0035201106 0.0 0.0 0.0 0.06604503 
0.0 0.0 0.0 0.0 0.0 0.07698792 
0.0 0.0 0.0 0.0 0.0 0.07698792 
0.0 0.0 0.0 0.0 0.0 0.07698792 
0.0 0.0 0.0 0.0 0.0 0.07698792 
0.0 0.0 0.0 0.0 0.0 0.07698792 
0.0 0.0 0.0 0.0 0.0 0.07698792 
0.0 0.0 0.0 0.0 0.0 0.07698792 
0.0 0.0 0.0 0.0 0.0 0.07698792 
0.0 0.0 0.0 0.0 0.0 0.07698792 
0.0 0.0 0.0 0.0 0.0 0.07698792 
0.0 0.0 0.0 0.0 0.0 0.07698792 
0.0 0.0 0.0 0.0 0.0 0.07698792 
0.0 0.0 0.0 0.0 0.0 0.07698792 
0.0 0.0 0.0067737177 0.0 0.0 0.046819463 
0.14586021 0.0 0.12277562 0.0 0.0 0.0 
0.5243003 0.0 0.11624437 0.0 0.0 0.0 
1.1809118 0.0 0.09824101 0.0 0.0 0.0 
1.7826734 0.04660988 0.0 0.0 0.21520998 0.0 
1.591939 0.8147047 0.0 0.0600211 1.3195567 0.09031744 
1.0210223 1.0398693 0.0 0.23460051 2.2420192 0.5340779 
0.8817843 1.2452126 0.0 0.5648671 2.299058 0.8241531 
0.32658777 1.3829647 0.69368887 0.5262124 1.9881123 0.49636933 
0.0 1.6976974 1.7694819 0.40344745 1.4976121 0.0 
0.0 1.8970858 2.4521277 0.04577374 1.4003929 0.0 
0.0 1.7522163 2.0479767 0.0 1.1260949 0.0 
0.0 0.9884936 1.0204047 0.0 0.72709507 0.0 
0.0 0.2699327 0.21858296 0.0 0.38389978 0.0 
0.0 0.044857923 0.0 0.0 0.024450015 0.019408315 
0.0 0.0 0.0 0.0 0.0 0.07698792 
0.0 0.0 0.0 0.0 0.0 0.07698792 
0.0 0.0 0.0 0.0 0.0 0.07698792 
0.0 0.0 0.0 0.0 0.0 0.07698792 
0.0 0.0 0.0 0.0 0.0 0.07698792 
0.0 0.0 0.0 0.0 0.0 0.07698792 
0.0 0.0 0.0 0.0 0.0 0.07698792 
0.0 0.0 0.0 0.0 0.0 0.07698792 
0.0 0.0 0.0 0.0 0.0 0.07698792 
0.0 0.0 0.0 0.0 0.0 0.07698792 
0.0 0.0 0.0 0.0 0.0 0.07698792 
0.0 0.0 0.0 0.0 0.0 0.07698792 
0.0 0.0 0.0 0.0 0.0 0.074725285 
0.13117877 0.0 0.09257283 0.0 0.0 0.004270211 
0.5633143 0.0 0.17674321 0.0 0.0 0.0 
1.1103303 0.0 0.13217902 0.0 0.0 0.0 
1.6781228 0.15570349 0.02034039 0.0 0.04433242 0.0 
1.5919411 0.6923012 0.0 0.0 1.3411672 0.032958105 
0.8958816 1.172598 0.0 0.1772573 2.442674 0.5128762 
0.42214006 1.1485349 0.0 0.47739294 2.813597 1.0814288 
0.40866682 0.65719366 0.0 0.67370844 2.6737766 1.6479275 
0.6673882 0.3888311 0.0 0.7710859 2.1016223 1.431334 
0.55102456 0.9653508 0.6135571 0.7068253 1.4687271 0.61699015 
0.0 1.7286975 1.8722632 0.50586843 1.5016831 0.0 
0.0 1.8192534 2.3067856 0.18310592 1.5211807 0.0 
0.0 1.4742303 1.7696922 0.0 1.1082053 0.0 
0.0 0.59258085 0.69989586 0.0 0.6494053 0.0 
0.0 0.06292225 0.047786266 0.0 0.1455222 0.0 
0.0 0.0 0.0 0.0 0.0 0.07698792 
0.0 0.0 0.0 0.0 0.0 0.07698792 
0.0 0.0 0.0 0.0 0.0 0.07698792 
0.0 0.0 0.0 0.0 0.0 0.07698792 
0.0 0.0 0.0 0.0 0.0 0.07698792 
0.0 0.0 0.0 0.0 0.0 0.07698792 
0.0 0.0 0.0 0.0 0.0 0.07698792 
0.0 0.0 0.0 0.0 0.0 0.07698792 
0.0 0.0 0.0 0.0 0.0 0.07698792 
0.0 0.0 0.0 0.0 0.0 0.07698792 
0.0 0.0 0.0 0.0 0.0 0.07698792 
0.0 0.0 0.0 0.0 0.0 0.07698792 
0.04829117 0.0 0.085229225 0.0 0.0 0.010237746 
0.518306 0.0 0.060410388 0.0 0.0 0.0 
1.0706677 0.0 0.1448527 0.0 0.0 0.0 
1.6635442 0.0 0.050608225 0.0 0.0 0.0 
1.6720674 0.7053649 0.0 0.0 1.1685005 0.0 
0.8817677 1.2030519 0.0 0.10547066 2.4516413 0.32656163 
0.10814066 1.5395584 0.0 0.23590247 2.8641593 0.6670396 
0.0 1.0560468 0.0 0.36129025 2.8227623 1.3585145 
0.23925602 0.06963133 0.0 0.33499488 2.334808 1.9420972 
1.058686 0.0 0.0 0.45466608 1.6499765 1.7926388 
1.1879599 0.20950052 0.0 0.5554288 1.381651 1.2727339 
0.26703125 1.3282942 0.7351039 0.55546427 1.5637406 0.3208974 
0.0 1.9486927 1.9268388 0.43796036 1.6686639 0.0 
0.0 1.593681 2.140988 0.1907024 1.4047786 0.0 
0.0 0.8415236 1.2362663 0.01912764 0.8122012 0.0 
0.0 0.15266345 0.20536146 0.0 0.19054796 0.0 
0.0 0.0 0.0 0.0 0.0 0.07698792 
0.0 0.0 0.0 0.0 0.0 0.07698792 
0.0 0.0 0.0 0.0 0.0 0.07698792 
0.0 0.0 0.0 0.0 0.0 0.07698792 
0.0 0.0 0.0 0.0 0.0 0.07698792 
0.0 0.0 0.0 0.0 0.0 0.07698792 
0.0 0.0 0.0 0.0 0.0 0.07698792 
0.0 0.0 0.0 0.0 0.0 0.07698792 
0.0 0.0 0.0 0.0 0.0 0.07698792 
0.0 0.0 0.0 0.0 0.0 0.07698792 
0.0 0.0 0.0 0.0 0.0 0.07698792 
0.0 0.0 0.0 0.0 0.0 0.055492893 
0.26848394 0.0 0.08107089 0.0 0.0 0.0 
1.0608277 0.0 0.018233292 0.0 0.0 0.04041846 
1.6496339 0.0 0.0 0.0 0.0 0.0 
1.7119551 0.5754068 0.0 0.06598348 0.86474293 0.0 
1.0567505 1.2367525 0.0 0.19627962 2.239113 0.33341804 
0.13265415 1.7120371 0.0 0.34965795 2.830372 0.555941 
0.0 1.5033852 0.0 0.15754735 2.6976106 0.79602575 
0.0 0.5617095 0.0 0.0 2.1701388 1.140012 
0.3479554 0.0 0.0 0.0 1.5495545 1.5063615 
1.198175 0.0 0.0 0.0 1.2270428 1.6118321 
1.7171373 0.0 0.0 0.0 1.3065839 1.3876679 
0.82777995 0.8898385 0.0 0.13760352 1.5869957 0.5890647 
0.0 1.8333672 1.1435089 0.18319735 1.7702228 0.0 
0.0 1.5898417 1.973276 0.06377883 1.5971385 0.0 
0.0 0.7952362 1.4784924 0.012047087 0.92860633 0.0 
0.0 0.19345315 0.3492732 0.0 0.21334474 0.013781682 
0.0 0.0 0.0 0.0 0.0 0.07698792 
0.0 0.0 0.0 0.0 0.0 0.07698792 
0.0 0.0 0.0 0.0 0.0 0.07698792 
0.0 0.0 0.0 0.0 0.0 0.07698792 
0.0 0.0 0.0 0.0 0.0 0.07698792 
0.0 0.0 0.0 0.0 0.0 0.07698792 
0.0 0.0 0.0 0.0 0.0 0.07698792 
0.0 0.0 0.0 0.0 0.0 0.07698792 
0.0 0.0 0.0 0.0 0.0 0.07698792 
0.0 0.0 0.0 0.0 0.0 0.07698792 
0.0 0.0 0.0 0.0 0.0 0.05662421 
0.13210979 0.0 0.07803332 0.0 0.0 0.0 
0.7015693 0.0 0.018549256 0.0 0.0 0.0 
1.5647876 0.0 0.0 0.0 0.0 0.09759248 
1.9266698 0.20707828 0.0 0.0 0.7700044 0.15986928 
1.3066742 1.0304854 0.0 0.19897403 1.9445776 0.40208617 
0.3497184 1.5280801 0.0 0.28539848 2.8460355 0.66556454 
0.0 1.538272 0.065306954 0.24908543 2.818896 0.78775555 
0.0 0.9334 0.40132472 0.13336845 1.9390446 0.7669455 
0.0 0.11907545 0.39852783 0.0 1.1707319 0.68830484 
0.33479553 0.0 0.0 0.0 0.764047 0.8351299 
1.4739072 0.0 0.0 0.0 0.6697247 1.0382602 
2.0118487 0.0 0.0 0.0 1.0322418 1.027314 
1.1574059 0.7710828 0.0 0.0 1.5781131 0.33838496 
0.0 1.7024113 0.6093169 0.0 1.8915011 0.0 
0.0 1.522229 1.7773287 0.0 1.6779078 0.0 
0.0 0.72475046 1.4517751 0.0 1.0072562 0.0 
0.0 0.13875642 0.39391047 0.0 0.24876474 0.019489154 
0.0 0.0 0.0 0.0 0.0 0.07698792 
0.0 0.0 0.0 0.0 0.0 0.07698792 
0.0 0.0 0.0 0.0 0.0 0.07698792 
0.0 0.0 0.0 0.0 0.0 0.07698792 
0.0 0.0 0.0 0.0 0.0 0.07698792 
0.0 0.0 0.0 0.0 0.0 0.07698792 
0.0 0.0 0.0 0.0 0.0 0.07698792 
0.0 0.0 0.0 0.0 0.0 0.07698792 
0.0 0.0 0.0 0.0 0.0 0.07698792 
0.0 0.0 0.0 0.0 0.0 0.07321686 
0.08749831 0.0 0.06627748 0.0 0.0 0.011677891 
0.5144924 0.0 0.12633103 0.0 0.0 0.0 
1.2564764 0.0 0.0 0.0 0.0 0.0 
1.8940158 0.0030325828 0.0 0.0 0.45008978 0.14660606 
1.5511229 0.8066639 0.0 0.0028207777 1.703093 0.29863685 
0.6003009 1.3252963 0.0 0.20907097 2.6404107 0.6543699 
0.0 1.5766712 0.0 0.27057654 2.8659992 0.84391075 
0.0 1.0003481 0.33839774 0.1843927 2.1077302 0.8104543 
0.0 0.36364475 0.6131302 0.08526035 1.0402778 0.62652344 
0.0 0.046062104 0.52087027 0.0 0.44322005 0.3890236 
0.33954352 0.0 0.0 0.0 0.09689075 0.41257006 
1.6867869 0.0 0.0 0.0 0.27351913 0.7854718 
2.1716099 0.0 0.0 0.0 0.9216415 0.801964 
1.1236384 1.0371469 0.0 0.0 1.5502996 0.15870672 
0.0 1.7036377 0.48581362 0.0 2.0337205 0.0 
0.0 1.4964192 1.7591544 0.0 1.679894 0.0 
0.0 0.6955391 1.4342418 0.0 1.000466 0.0 
0.0 0.12416734 0.3891012 0.0 0.23461734 0.0330375 
0.0 0.0 0.0 0.0 0.0 0.07698792 
0.0 0.0 0.0 0.0 0.0 0.07698792 
0.0 0.0 0.0 0.0 0.0 0.07698792 
0.0 0.0 0.0 0.0 0.0 0.07698792 
0.0 0.0 0.0 0.0 0.0 0.07698792 
0.0 0.0 0.0 0.0 0.0 0.07698792 
0.0 0.0 0.0 0.0 0.0 0.07698792 
0.0 0.0 0.0 0.0 0.0 0.07698792 
0.0 0.0 0.0 0.0 0.0 0.07698792 
0.0 0.0 0.0 0.0 0.0 0.0564944 
0.3384055 0.0 0.055959895 0.0 0.0 0.015078943 
1.0201466 0.0 0.06250932 0.0 0.0 0.0 
1.7756901 0.0 0.0 0.0 0.118763536 0.06499652 
1.8088441 0.6099547 0.0 0.0 1.269681 0.19152641 
0.744989 1.305773 0.0 0.0 2.4648168 0.34479097 
0.0 1.5367908 0.0 0.026529063 2.8374965 0.67239517 
0.0 1.1726968 0.22613496 0.041873645 2.3014238 0.80622345 
0.0 0.43250448 0.45616364 0.0 1.21303 0.6509581 
0.0 0.073623374 0.4891625 0.0 0.44063982 0.43123263 
0.0 0.0 0.36659142 0.0 0.08763665 0.14820302 
0.66523784 0.0 0.0 0.0 0.0 0.29422912 
1.7836311 0.0 0.0 0.0 0.21473254 0.6208683 
2.0494444 0.0 0.0 0.0 1.1198703 0.59521717 
0.8218877 1.2351639 0.0 0.08029563 1.8343793 0.28361952 
0.0 1.7315488 0.54326 0.11416374 2.1514256 0.016895413 
0.0 1.2729433 1.6201023 0.24034806 1.654308 0.1835719 
0.0 0.5090305 1.3225679 0.18619397 0.88528734 0.16743135 
0.0 0.085812755 0.3616143 0.07093181 0.15857698 0.078867555 
0.0 0.0 0.0 0.0 0.0 0.07698792 
0.0 0.0 0.0 0.0 0.0 0.07698792 
0.0 0.0 0.0 0.0 0.0 0.07698792 
0.0 0.0 0.0 0.0 0.0 0.07698792 
0.0 0.0 0.0 0.0 0.0 0.07698792 
0.0 0.0 0.0 0.0 0.0 0.07698792 
0.0 0.0 0.0 0.0 0.0 0.07698792 
0.0 0.0 0.0 0.0 0.0 0.07698792 
0.0 0.0 0.0 0.0 0.0 0.063412115 
0.15972622 0.0 0.103037424 0.0 0.0 0.0 
0.8140562 0.0 0.0 0.0 0.0 0.0022381544 
1.5233521 0.0 0.0 0.0 0.0 0.046378218 
1.918103 0.23102118 0.0 0.0 0.7819874 0.058804654 
1.2491207 1.2155073 0.0 0.09340914 2.0490072 0.27870178 
0.0 1.6701626 0.0 0.01946741 2.779783 0.371639 
0.0 1.4447304 0.15722233 0.0 2.4348357 0.5783454 
0.0 0.61027664 0.5346285 0.0 1.5200046 0.5929591 
0.0 0.083154276 0.4677754 0.0 0.58103746 0.4136416 
0.0 0.0 0.29669788 0.0 0.1393756 0.19330102 
0.15115377 0.0 0.22582322 0.0 0.0 0.0 
1.1451843 0.0 0.0 0.0 0.0 0.18466568 
1.9636891 0.0 0.0 0.0 0.4256312 0.45829892 
1.6913288 0.59430784 0.0 0.0 1.5301675 0.39429715 
0.2689973 1.4379414 0.0 0.01984885 2.2382066 0.3713988 
0.0 1.5870562 0.6613607 0.28680265 2.127519 0.2964796 
0.0 0.82592314 1.3113651 0.28854278 1.425811 0.45082006 
0.0 0.3077675 1.0662999 0.29489893 0.53711087 0.284225 
0.0 0.06263533 0.28060085 0.08854291 0.042041805 0.10535311 
0.0 0.0 0.0 0.0 0.0 0.07698792 
0.0 0.0 0.0 0.0 0.0 0.07698792 
0.0 0.0 0.0 0.0 0.0 0.07698792 
0.0 0.0 0.0 0.0 0.0 0.07698792 
0.0 0.0 0.0 0.0 0.0 0.07698792 
0.0 0.0 0.0 0.0 0.0 0.07698792 
0.0 0.0 0.0 0.0 0.0 0.07698792 
0.0 0.0 0.0 0.0 0.0 0.07698792 
0.036137633 0.0 0.03341244 0.0 0.0 0.035868607 
0.49128318 0.0 0.06352132 0.0 0.0 0.0 
1.3610201 0.0 0.0 0.0 0.0 0.13233915 
1.9215732 0.025707308 0.0 0.0 0.43818697 0.20278916 
1.4994767 0.8379551 0.0 0.073252186 1.6517677 0.30120277 
0.38121024 1.4559278 0.0 0.13358194 2.6733782 0.50231564 
0.0 1.6229725 0.18632266 0.22030683 2.5941503 0.5282358 
0.0 0.971914 0.71904725 0.13418446 1.738174 0.59344506 
0.0 0.23293015 0.7567517 0.01482837 0.8463773 0.43454084 
0.0 0.0 0.38446015 0.0 0.23752011 0.22700235 
0.0 0.0 0.10465481 0.0 0.0 0.06520136 
0.5880175 0.0 0.052686572 0.0 0.0 0.015801173 
1.614876 0.0 0.0 0.0 0.0 0.25224292 
1.9980567 0.13363762 0.0 0.0 0.9227298 0.35334277 
0.971849 1.1423181 0.0 0.0 2.0759761 0.23316137 
0.0 1.5753183 0.0 0.0 2.4830456 0.35893276 
0.0 1.2012038 0.710073 0.0 1.8616153 0.466411 
0.0 0.41871405 0.89749205 0.026206497 0.9734345 0.47381577 
0.0 0.084219486 0.6348399 0.108421944 0.23051552 0.26634884 
0.0 0.0 0.122316726 0.008234722 0.0 0.102206245 
0.0 0.0 0.0 0.0 0.0 0.07698792 
0.0 0.0 0.0 0.0 0.0 0.07698792 
0.0 0.0 0.0 0.0 0.0 0.07698792 
0.0 0.0 0.0 0.0 0.0 0.07698792 
0.0 0.0 0.0 0.0 0.0 0.07698792 
0.0 0.0 0.0 0.0 0.0 0.07698792 
0.0 0.0 0.0 0.0 0.0 0.07698792 
0.0 0.0 0.0 0.0 0.0 0.06265791 
0.23367062 0.0 0.050868854 0.0 0.0 0.021247767 
0.9826996 0.0 0.0 0.0 0.0 0.08317824 
1.7976005 0.0 0.0 0.0 0.113520324 0.20683849 
1.8447275 0.49041712 0.0 0.03279295 1.2664677 0.25659144 
0.8042829 1.2909741 0.0 0.099022195 2.4482324 0.4474842 
0.0 1.6292461 0.0 0.09800773 2.7533233 0.5530386 
0.0 1.2058785 0.56882715 0.18140529 2.0471656 0.5851508 
0.0 0.41772673 0.8512872 0.11315051 1.0779335 0.5517717 
0.0 0.13071115 0.6990442 0.104911655 0.33507624 0.30898255 
0.0 0.0 0.27609092 0.0 0.0 0.047657244 
0.38990623 0.0 0.09266836 0.0 0.0 0.0 
1.0979037 0.0 0.0 0.0 0.0 0.0 
1.7611885 0.0 0.0 0.0 0.3625034 0.14208102 
1.4915919 0.69798374 0.0 0.10849575 1.5871903 0.30541962 
0.23086327 1.4824196 0.0 0.08610946 2.4231417 0.32305297 
0.0 1.4531261 0.1501776 0.0999912 2.2282004 0.46872744 
0.0 0.63686633 0.78382427 0.0028285207 1.387473 0.52890056 
0.0 0.09438988 0.60723585 0.0 0.58068365 0.33562762 
0.0 0.0 0.1954765 0.0 0.11726163 0.16125992 
0.0 0.0 0.0 0.0 0.0 0.0823149 
0.0 0.0 0.0 0.0 0.0 0.07698792 
0.0 0.0 0.0 0.0 0.0 0.07698792 
0.0 0.0 0.0 0.0 0.0 0.07698792 
0.0 0.0 0.0 0.0 0.0 0.07698792 
0.0 0.0 0.0 0.0 0.0 0.07698792 
0.0 0.0 0.0 0.0 0.0 0.07698792 
0.0 0.0 0.0 0.0 0.0 0.07698792 
0.084437996 0.0 0.09115147 0.0 0.0 0.008841872 
0.6730524 0.0 0.024551257 0.0 0.0 0.0 
1.4770772 0.0 0.0 0.0 0.0 0.15471172 
1.952178 0.12809438 0.0 0.0 0.7552953 0.23129433 
1.2472045 1.1111777 0.0 0.09309482 1.9877251 0.37341183 
0.057017356 1.5906191 0.0 0.092970654 2.7310135 0.53551227 
0.0 1.4944048 0.22734448 0.1347806 2.343069 0.6809677 
0.0 0.60842824 0.6528843 0.0 1.3972156 0.6130123 
0.0 0.13610712 0.6237817 0.008178593 0.5279682 0.42703363 
0.0 0.0 0.40158325 0.0 0.07258952 0.15544645 
0.23418093 0.0 0.18238807 0.0 0.0 0.0 
0.8964431 0.0 0.08187405 0.0 0.0 0.0 
1.6061912 0.0 0.0 0.0 0.0 0.08127418 
1.628573 0.52678794 0.0 0.0 1.2076567 0.26597092 
0.6068679 1.2455395 0.0 0.087834194 2.277051 0.42504942 
0.0 1.4479243 0.0 0.22423038 2.357837 0.51041263 
0.0 0.94039875 0.7083115 0.28895393 1.6289065 0.5651363 
0.0 0.29702705 0.89911014 0.18161912 0.75708926 0.47302586 
0.0 0.039559685 0.51640487 0.058698233 0.21204735 0.19545513 
0.0 0.0 0.00025945902 0.0 0.0 0.08436959 
0.0 0.0 0.0 0.0 0.0 0.07698792 
0.0 0.0 0.0 0.0 0.0 0.07698792 
0.0 0.0 0.0 0.0 0.0 0.07698792 
0.0 0.0 0.0 0.0 0.0 0.07698792 
0.0 0.0 0.0 0.0 0.0 0.07698792 
0.0 0.0 0.0 0.0 0.0 0.07698792 
0.0 0.0 0.0 0.0 0.0 0.07698792 
0.0 0.0 0.009985976 0.0 0.0 0.04531104 
0.34638426 0.0 0.055896543 0.0 0.0 0.0 
1.1887379 0.0 0.0 0.0 0.0 0.09772626 
1.9654548 0.0 0.0 0.0 0.32064012 0.22352983 
1.7237713 0.7682109 0.0 0.0 1.4895619 0.22352824 
0.42419767 1.4590235 0.0 0.0 2.5719776 0.27622148 
0.0 1.5738451 0.044253103 0.0 2.5818596 0.3931791 
0.0 0.9042695 0.670946 0.0 1.7668029 0.49258387 
0.0 0.20438492 0.7215204 0.0 0.7609382 0.3975471 
0.0 0.0 0.51844275 0.0 0.095972046 0.09311461 
0.24531555 0.0 0.2864807 0.0 0.0 0.0 
0.7513822 0.0 0.19757396 0.0 0.0 0.0 
1.4221494 0.0 0.08458803 0.0 0.0 0.0 
1.7049592 0.35222957 0.0 0.0 0.9570009 0.0 
0.8690531 1.1458095 0.0 0.03610795 2.1464856 0.26882452 
0.0 1.4161632 0.0 0.04382208 2.5787847 0.51964295 
0.0 1.1064124 0.14053285 0.09763533 1.9080331 0.71895856 
0.0 0.38521096 0.6849214 0.07038653 0.95848197 0.5784784 
0.0 0.086408794 0.6072863 0.063044906 0.30736566 0.3573294 
0.0 0.0 0.25244868 0.0 0.050996397 0.12018336 
0.0 0.0 0.0 0.0 0.0 0.07698792 
0.0 0.0 0.0 0.0 0.0 0.07698792 
0.0 0.0 0.0 0.0 0.0 0.07698792 
0.0 0.0 0.0 0.0 0.0 0.07698792 
0.0 0.0 0.0 0.0 0.0 0.07698792 
0.0 0.0 0.0 0.0 0.0 0.07698792 
0.0 0.0 0.0 0.0 0.0 0.07698792 
0.0 0.0 0.0 0.0 0.0 0.07698792 
0.042987414 0.0 0.0 0.0 0.0 0.061492078 
0.7135186 0.0 0.0 0.0 0.0 0.20409852 
1.662746 0.0 0.0 0.050862696 0.0 0.35310748 
2.0131843 0.111771084 0.0 0.06774573 0.89292 0.32907182 
1.1789935 1.2817345 0.0 0.06463434 2.0268285 0.2251811 
0.0 1.7873521 0.0 0.0 2.6219137 0.1622079 
0.0 1.5396874 0.7729254 0.0 1.9605473 0.18474576 
0.0 0.59143764 1.136395 0.0 1.0789367 0.1598194 
0.0 0.1575512 0.9075593 0.0 0.10157198 0.0 
0.3886574 0.04426422 0.5301156 0.0 0.0 0.0 
0.8860296 0.17539167 0.3915453 0.0 0.0 0.0 
1.3455398 0.274305 0.33707774 0.0 0.0 0.0 
1.4813602 0.61528176 0.038171507 0.0 0.7236476 0.0 
0.91664964 1.1284502 0.0 0.0 2.015381 0.07997285 
0.0 1.5535123 0.0 0.09210463 2.561104 0.3449004 
0.0 1.3167406 0.14055711 0.09023392 2.1452081 0.5559986 
0.0 0.53221273 0.4484675 0.0 1.2423239 0.5939011 
0.0 0.04624174 0.44451725 0.0 0.47003546 0.38729984 
0.0 0.0 0.17969328 0.0 0.1506719 0.18825626 
0.0 0.0 0.009186909 0.0 0.0 0.08551109 
0.0 0.0 0.0 0.0 0.0 0.07698792 
0.0 0.0 0.0 0.0 0.0 0.07698792 
0.0 0.0 0.0 0.0 0.0 0.07698792 
0.0 0.0 0.0 0.0 0.0 0.07698792 
0.0 0.0 0.0 0.0 0.0 0.07698792 
0.0 0.0 0.0 0.0 0.0 0.07698792 
0.0 0.0 0.0 0.0 0.0 0.07698792 
0.0 0.0 0.0 0.0 0.0 0.07698792 
0.10006103 0.0 0.0 0.025417663 0.0 0.17852777 
0.94803685 0.0 0.0 0.24421284 0.0 0.58582884 
1.9143853 0.0 0.0 0.2943846 0.43783268 0.8228175 
1.9317195 0.32575282 0.0 0.32609823 1.2620265 0.6799603 
0.98555416 1.4405011 0.0 0.012748775 2.0680835 0.18119925 
0.0 1.9827545 0.77614665 0.0 2.137215 0.0 
0.0 1.4092308 1.6038241 0.0 1.3786333 0.0 
0.0 0.7130243 1.4546609 0.0 0.5641906 0.0 
0.51578665 0.31469616 0.91568756 0.0 0.0 0.0 
1.0449266 0.33588162 0.565883 0.0 0.0 0.0 
1.1702464 0.58788806 0.56635404 0.0 0.20039241 0.0 
1.13625 0.735875 0.3137697 0.0 1.1029567 0.0 
0.8829444 1.0535848 0.0 0.20907913 2.196935 0.23176871 
0.1287356 1.5329193 0.0 0.3320165 2.686506 0.49018836 
0.0 1.4063755 0.012775414 0.26569113 2.309013 0.62042874 
0.0 0.7537589 0.6219694 0.1419678 1.446988 0.61948615 
0.0 0.15231481 0.6603735 0.0011030966 0.6410673 0.41484296 
0.0 0.0 0.31877267 0.0 0.16943637 0.19713913 
0.0 0.0 0.007929958 0.0 0.0 0.08541408 
0.0 0.0 0.0 0.0 0.0 0.07698792 
0.0 0.0 0.0 0.0 0.0 0.07698792 
0.0 0.0 0.0 0.0 0.0 0.07698792 
0.0 0.0 0.0 0.0 0.0 0.07698792 
0.0 0.0 0.0 0.0 0.0 0.07698792 
0.0 0.0 0.0 0.0 0.0 0.07698792 
0.0 0.0 0.0 0.0 0.0 0.07698792 
0.0 0.0 0.0 0.0 0.0 0.07698792 
0.0 0.0 0.0 0.0 0.0 0.07698792 
0.13548124 0.0 0.0 0.10675874 0.0 0.28347912 
1.0725021 0.0 0.0 0.18195298 0.22090884 0.90531886 
1.940707 0.0 0.0 0.28076598 0.74219054 1.1576757 
1.9258566 0.11897847 0.0 0.23734039 1.3483051 0.92111737 
0.9503539 1.3959688 0.0 0.082015514 1.6620014 0.2742447 
0.0 1.7382292 1.340308 0.0 1.6631376 0.0 
0.0 1.4151626 2.0407624 0.0 1.0980434 0.0 
0.21921429 0.9177337 1.8057702 0.0 0.6784828 0.0 
0.7962232 0.6737439 1.0121406 0.0 0.5104952 0.0 
0.92948693 0.87850535 0.6506073 0.0 0.8879281 0.0 
0.7665516 1.0803199 0.45067704 0.33019882 1.611706 0.0 
0.6366909 1.2564883 0.19885269 0.6650279 2.4164102 0.5342703 
0.15465723 1.4731643 0.0 0.8063431 2.7616217 0.92112345 
0.0 1.3299782 0.0 0.60868746 2.4394658 0.89475566 
0.0 0.8390203 0.38372692 0.36274344 1.56417 0.75782794 
0.0 0.27477553 0.73375314 0.12426537 0.7553722 0.528938 
0.0 0.025805146 0.5026976 0.021550342 0.25689086 0.25879538 
0.0 0.0 0.08034364 0.0 0.020677123 0.096864976 
0.0 0.0 0.0 0.0 0.0 0.07714012 
0.0 0.0 0.0 0.0 0.0 0.07698792 
0.0 0.0 0.0 0.0 0.0 0.07698792 
0.0 0.0 0.0 0.0 0.0 0.07698792 
0.0 0.0 0.0 0.0 0.0 0.07698792 
0.0 0.0 0.0 0.0 0.0 0.07698792 
0.0 0.0 0.0 0.0 0.0 0.07698792 
0.0 0.0 0.0 0.0 0.0 0.07698792 
0.0 0.0 0.0 0.0 0.0 0.07698792 
0.0 0.0 0.0 0.0 0.0 0.07698792 
0.1325441 0.0 0.0 0.016878843 0.100930706 0.27192348 
0.9284709 0.0 0.0 0.09594337 0.47664413 1.0158371 
1.6160405 0.0 0.0 0.23617429 0.91279364 1.5034006 
1.8388228 0.0 0.0 0.34890085 1.3576374 1.40171 
1.1272349 0.66896623 0.0 0.4389736 1.5365677 0.9003625 
0.17620559 1.1120534 1.1744373 0.37802204 1.5765972 0.04150646 
0.20322412 1.1864688 1.8733517 0.25717583 1.4952325 0.0 
0.29969594 1.2269871 1.6965196 0.40262213 1.5141495 0.0 
0.6084871 1.1973364 0.8097422 0.60629076 1.758138 0.0 
0.56585246 1.2778059 0.35207883 0.8839041 2.289334 0.6104903 
0.37628314 1.3003322 0.0 1.0584661 2.6720903 1.1040621 
0.0 1.2834947 0.0 1.0123839 2.7573628 1.3635864 
0.0 1.0069534 0.0 0.60981894 2.462826 1.3267863 
0.0 0.6992433 0.020027004 0.27893713 1.5536348 0.99573255 
0.0 0.2716484 0.40803736 0.046353165 0.7371103 0.6306125 
0.0 0.026018541 0.47788233 0.0 0.31291476 0.36386698 
0.0 0.0 0.21746671 0.0 0.07624498 0.13410237 
0.0 0.0 0.0 0.0 0.0 0.07904261 
0.0 0.0 0.0 0.0 0.0 0.07698792 
0.0 0.0 0.0 0.0 0.0 0.07698792 
0.0 0.0 0.0 0.0 0.0 0.07698792 
0.0 0.0 0.0 0.0 0.0 0.07698792 
0.0 0.0 0.0 0.0 0.0 0.07698792 
0.0 0.0 0.0 0.0 0.0 0.07698792 
0.0 0.0 0.0 0.0 0.0 0.07698792 
0.0 0.0 0.0 0.0 0.0 0.07698792 
0.0 0.0 0.0 0.0 0.0 0.07698792 
0.0 0.0 0.0 0.0 0.0 0.07698792 
0.045878053 0.0 0.0 0.0 0.08888589 0.17066018 
0.68979037 0.0 0.0 0.0060467096 0.56052834 0.80033517 
1.2179823 0.0 0.0 0.10342516 1.0208992 1.4031603 
1.296588 0.0 0.0 0.36605066 1.3893896 1.6540146 
1.0541866 0.0 0.0 0.8771042 1.5877012 1.7927847 
0.53419334 0.5495541 0.0 1.4157189 1.7739799 1.6147892 
0.2936546 0.95787305 0.6855653 1.685982 2.0609567 1.5240605 
0.17975059 1.005905 0.6710792 1.6285237 2.4349706 1.44697 
0.23207814 1.1164244 0.10822932 1.502393 2.632843 1.5411489 
0.0 1.0340197 0.0 1.1996995 2.7116935 1.5671098 
0.0 0.8907961 0.0 0.82558525 2.542103 1.5728784 
0.0 0.58595985 0.0 0.31093177 2.1471312 1.4289203 
0.0 0.37020013 0.0 0.012975293 1.3541594 1.0341172 
0.0 0.06760429 0.0 0.0 0.677735 0.6227167 
0.0 0.0 0.16386658 0.0 0.34129202 0.36474442 
0.0 0.0 0.13436356 0.0 0.13529289 0.17221686 
0.0 0.0 0.0008546226 0.0 0.0 0.08444569 
0.0 0.0 0.0 0.0 0.0 0.07698792 
0.0 0.0 0.0 0.0 0.0 0.07698792 
0.0 0.0 0.0 0.0 0.0 0.07698792 
0.0 0.0 0.0 0.0 0.0 0.07698792 
0.0 0.0 0.0 0.0 0.0 0.07698792 
0.0 0.0 0.0 0.0 0.0 0.07698792 
0.0 0.0 0.0 0.0 0.0 0.07698792 
0.0 0.0 0.0 0.0 0.0 0.07698792 
0.0 0.0 0.0 0.0 0.0 0.07698792 
0.0 0.0 0.0 0.0 0.0 0.07698792 
0.0 0.0 0.0 0.0 0.0 0.07698792 
0.0 0.0 0.0 0.0 0.0 0.09493533 
0.34865028 0.0 0.0 0.0 0.35394982 0.4602664 
0.83913386 0.0 0.0 0.0 0.8659149 1.0783362 
1.0196795 0.0 0.0 0.0 1.265574 1.5311756 
0.97489184 0.0 0.0 0.18801162 1.6446457 1.8249648 
0.55787957 0.0 0.0 0.64578795 2.0669677 1.9407244 
0.34306005 0.17989537 0.0 0.95029974 2.3239233 1.9829235 
0.18638843 0.43423226 0.0 0.9801009 2.3542173 1.8719771 
0.052896142 0.5634049 0.0 0.72544396 2.205958 1.7558544 
0.0 0.49824253 0.0 0.29961008 1.9586161 1.573792 
0.0 0.2677748 0.0 0.0 1.5175886 1.2582307 
0.0 0.047444277 0.0 0.0 0.9408791 0.83940184 
0.0 0.0 0.0 0.0 0.49851027 0.49644113 
0.0 0.0 0.025050566 0.0 0.26290843 0.28838173 
0.0 0.0 0.06402312 0.0 0.09372096 0.14453794 
0.0 0.0 0.0 0.0 0.0 0.082543194 
0.0 0.0 0.0 0.0 0.0 0.07698792 
0.0 0.0 0.0 0.0 0.0 0.07698792 
0.0 0.0 0.0 0.0 0.0 0.07698792 
0.0 0.0 0.0 0.0 0.0 0.07698792 
0.0 0.0 0.0 0.0 0.0 0.07698792 
0.0 0.0 0.0 0.0 0.0 0.07698792 
0.0 0.0 0.0 0.0 0.0 0.07698792 
0.0 0.0 0.0 0.0 0.0 0.07698792 
0.0 0.0 0.0 0.0 0.0 0.07698792 
0.0 0.0 0.0 0.0 0.0 0.07698792 
0.0 0.0 0.0 0.0 0.0 0.07698792 
0.0 0.0 0.0 0.0 0.0 0.07698792 
0.0 0.0 0.0 0.0 0.0 0.07698792 
0.10887657 0.0 0.0 0.0 0.22036456 0.19828764 
0.41474968 0.0 0.0 0.0 0.5298252 0.48113167 
0.65059805 0.0 0.0 0.0 0.8609933 0.87146795 
0.67316693 0.0 0.0 0.0 1.2131124 1.2806485 
0.5039078 0.0 0.0 0.0 1.4228054 1.5143158 
0.32665685 0.0 0.0 0.0 1.4764804 1.5907168 
0.09906894 0.0 0.0 0.0 1.4134588 1.4442186 
0.0 0.0 0.0 0.0 1.250872 1.1659203 
0.0 0.0 0.0 0.0 0.93257016 0.8206593 
0.0 0.0 0.0 0.0 0.59066635 0.5230902 
0.0 0.0 0.0 0.0 0.3386149 0.3148496 
0.0 0.0 0.0 0.0 0.15832554 0.1807966 
0.0 0.0 0.0 0.0 0.025165875 0.106887735 
0.0 0.0 0.0 0.0 0.0 0.07957531 
0.0 0.0 0.0 0.0 0.0 0.07698792 
0.0 0.0 0.0 0.0 0.0 0.07698792 
0.0 0.0 0.0 0.0 0.0 0.07698792 
0.0 0.0 0.0 0.0 0.0 0.07698792 
0.0 0.0 0.0 0.0 0.0 0.07698792 
0.0 0.0 0.0 0.0 0.0 0.07698792 
0.0 0.0 0.0 0.0 0.0 0.07698792 
0.0 0.0 0.0 0.0 0.0 0.07698792 
0.0 0.0 0.0 0.0 0.0 0.07698792 
0.0 0.0 0.0 0.0 0.0 0.07698792 
0.0 0.0 0.0 0.0 0.0 0.07698792 
0.0 0.0 0.0 0.0 0.0 0.07698792 
0.0 0.0 0.0 0.0 0.0 0.07698792 
0.0 0.0 0.0 0.0 0.0 0.07698792 
0.0 0.0 0.0 0.0 0.0 0.07698792 
0.037771143 0.0 0.0 0.0 0.11083442 0.15063417 
0.24725533 0.0 0.0 0.0 0.42113885 0.30193835 
0.32833382 0.0 0.0 0.0 0.61813396 0.39092773 
0.29789335 0.0 0.0 0.0 0.76427454 0.4741934 
0.16214287 0.0 0.0 0.0 0.8208009 0.5246673 
0.0 0.0 0.0 0.0 0.7142048 0.45273653 
0.0 0.0 0.0 0.0 0.4716755 0.3442713 
0.0 0.0 0.0 0.0 0.26721522 0.23371172 
0.0 0.0 0.0 0.0 0.11837602 0.16189194 
0.0 0.0 0.0 0.0 0.010409508 0.098711856 
0.0 0.0 0.0 0.0 0.0 0.07866211 
0.0 0.0 0.0 0.0 0.0 0.07698792 
0.0 0.0 0.0 0.0 0.0 0.07698792 
0.0 0.0 0.0 0.0 0.0 0.07698792 
0.0 0.0 0.0 0.0 0.0 0.07698792 
0.0 0.0 0.0 0.0 0.0 0.07698792 
0.0 0.0 0.0 0.0 0.0 0.07698792 
0.0 0.0 0.0 0.0 0.0 0.07698792 
0.0 0.0 0.0 0.0 0.0 0.07698792 
0.0 0.0 0.0 0.0 0.0 0.07698792 
0.0 0.0 0.0 0.0 0.0 0.07698792 
0.0 0.0 0.0 0.0 0.0 0.07698792 
0.0 0.0 0.0 0.0 0.0 0.07698792 
0.0 0.0 0.0 0.0 0.0 0.07698792 
0.0 0.0 0.0 0.0 0.0 0.07698792 
0.0 0.0 0.0 0.0 0.0 0.07698792 
0.0 0.0 0.0 0.0 0.0 0.07698792 
0.0 0.0 0.0 0.0 0.0 0.07698792 
0.0 0.0 0.0 0.0 0.0 0.07698792 
0.0 0.0 0.0 0.0 0.0 0.07698792 
0.0 0.0 0.0 0.0 0.0 0.07698792 
0.0 0.0 0.0 0.0 0.0 0.07698792 
0.0 0.0 0.0 0.0 0.0 0.07698792 
0.0 0.0 0.0 0.0 0.0 0.07698792 
0.0 0.0 0.0 0.0 0.0 0.07698792 
0.0 0.0 0.0 0.0 0.0 0.07698792 
0.0 0.0 0.0 0.0 0.0 0.07698792 
0.0 0.0 0.0 0.0 0.0 0.07698792 
0.0 0.0 0.0 0.0 0.0 0.07698792 
0.0 0.0 0.0 0.0 0.0 0.07698792 
0.0 0.0 0.0 0.0 0.0 0.07698792 
0.0 0.0 0.0 0.0 0.0 0.07698792 
0.0 0.0 0.0 0.0 0.0 0.07698792 
0.0 0.0 0.0 0.0 0.0 0.07698792 
0.0 0.0 0.0 0.0 0.0 0.07698792 
0.0 0.0 0.0 0.0 0.0 0.07698792 
0.0 0.0 0.0 0.0 0.0 0.07698792 
0.0 0.0 0.0 0.0 0.0 0.07698792 
0.0 0.0 0.0 0.0 0.0 0.07698792 
0.0 0.0 0.0 0.0 0.0 0.07698792 
0.0 0.0 0.0 0.0 0.0 0.07698792 
0.0 0.0 0.0 0.0 0.0 0.07698792 
0.0 0.0 0.0 0.0 0.0 0.07698792 
0.0 0.0 0.0 0.0 0.0 0.07698792 
0.0 0.0 0.0 0.0 0.0 0.07698792 
0.0 0.0 0.0 0.0 0.0 0.07698792 
0.0 0.0 0.0 0.0 0.0 0.07698792 
0.0 0.0 0.0 0.0 0.0 0.07698792 
0.0 0.0 0.0 0.0 0.0 0.07698792 
0.0 0.0 0.0 0.0 0.0 0.07698792 
0.0 0.0 0.0 0.0 0.0 0.07698792 
0.0 0.0 0.0 0.0 0.0 0.07698792 
0.0 0.0 0.0 0.0 0.0 0.07698792 
0.0 0.0 0.0 0.0 0.0 0.07698792 
0.0 0.0 0.0 0.0 0.0 0.07698792 
0.0 0.0 0.0 0.0 0.0 0.07698792 
0.0 0.0 0.0 0.0 0.0 0.07698792 
0.0 0.0 0.0 0.0 0.0 0.07698792 
0.0 0.0 0.0 0.0 0.0 0.07698792 
0.0 0.0 0.0 0.0 0.0 0.07698792 
0.0 0.0 0.0 0.0 0.0 0.07698792 
0.0 0.0 0.0 0.0 0.0 0.07698792 
0.0 0.0 0.0 0.0 0.0 0.07698792 
0.0 0.0 0.0 0.0 0.0 0.07698792 
0.0 0.0 0.0 0.0 0.0 0.07698792 
0.0 0.0 0.0 0.0 0.0 0.07698792 
0.0 0.0 0.0 0.0 0.0 0.07698792 
0.0 0.0 0.0 0.0 0.0 0.07698792 
0.0 0.0 0.0 0.0 0.0 0.07698792 

