0.0 0.0 0.0 0.0 0.0 0.07698792 
0.0 0.0 0.0 0.0 0.0 0.07698792 
0.0 0.0 0.0 0.0 0.0 0.07698792 
0.0 0.0 0.0 0.0 0.0 0.07698792 
0.0 0.0 0.0 0.0 0.0 0.07698792 
0.0 0.0 0.0 0.0 0.0 0.07698792 
0.0 0.0 0.0 0.0 0.0 0.07698792 
0.0 0.0 0.0 0.0 0.0 0.07698792 
0.0 0.0 0.0 0.0 0.0 0.07698792 
0.0 0.0 0.0 0.0 0.0 0.07698792 
0.0 0.0 0.0 0.0 0.0 0.07698792 
0.0 0.0 0.0 0.0 0.0 0.07698792 
0.0 0.0 0.0 0.0 0.0 0.07698792 
0.0 0.0 0.0 0.0 0.0 0.07698792 
0.0 0.0 0.0 0.0 0.0 0.07698792 
0.0 0.0 0.0 0.0 0.0 0.07698792 
0.0 0.0 0.0 0.0 0.0 0.07698792 
0.0 0.0 0.0 0.0 0.0 0.07698792 
0.0 0.0 0.0 0.0 0.0 0.07698792 
0.0 0.0 0.0 0.0 0.0 0.07698792 
0.0 0.0 0.0 0.0 0.0 0.07698792 
0.0 0.0 0.0 0.0 0.0 0.07698792 
0.0 0.0 0.0 0.0 0.0 0.07698792 
0.0 0.0 0.0 0.0 0.0 0.07698792 
0.0 0.0 0.0 0.0 0.0 0.07698792 
0.0 0.0 0.0 0.0 0.0 0.07698792 
0.0 0.0 0.0 0.0 0.0 0.07698792 
0.0 0.0 0.0 0.0 0.0 0.07698792 
0.0 0.0 0.0 0.0 0.0 0.07698792 
0.0 0.0 0.0 0.0 0.0 0.07698792 
0.0 0.0 0.0 0.0 0.0 0.07698792 
0.0 0.0 0.0 0.0 0.0 0.07698792 
0.0 0.0 0.0 0.0 0.0 0.07698792 
0.0 0.0 0.0 0.0 0.0 0.07698792 
0.0 0.0 0.0 0.0 0.0 0.07698792 
0.0 0.0 0.0 0.0 0.0 0.07698792 
0.0 0.0 0.0 0.0 0.0 0.07698792 
0.0 0.0 0.0 0.0 0.0 0.07698792 
0.0 0.0 0.0 0.0 0.0 0.07698792 
0.0 0.0 0.0 0.0 0.0 0.07698792 
0.0 0.0 0.0 0.0 0.0 0.07698792 
0.0 0.0 0.0 0.0 0.0 0.07698792 
0.0 0.0 0.0 0.0 0.0 0.07698792 
0.0 0.0 0.0 0.0 0.0 0.07698792 
0.0 0.0 0.0 0.0 0.0 0.07698792 
0.0 0.0 0.0 0.0 0.0 0.07698792 
0.0 0.0 0.0 0.0 0.0 0.07698792 
0.0 0.0 0.0 0.0 0.0 0.07698792 
0.0 0.0 0.0 0.0 0.0 0.07698792 
0.0 0.0 0.0 0.0 0.0 0.07698792 
0.0 0.0 0.0 0.0 0.0 0.07698792 
0.0 0.0 0.0 0.0 0.0 0.07698792 
0.0 0.0 0.0 0.0 0.0 0.07698792 
0.0 0.0 0.0 0.0 0.0 0.07698792 
0.0 0.0 0.0 0.0 0.0 0.07698792 
0.0 0.0 0.0 0.0 0.0 0.07698792 
0.0 0.0 0.0 0.0 0.0 0.07698792 
0.0 0.0 0.0 0.0 0.0 0.07698792 
0.0 0.0 0.0 0.0 0.0 0.07698792 
0.0 0.0 0.0 0.0 0.0 0.07698792 
0.0 0.0 0.0 0.0 0.0 0.07698792 
0.0 0.0 0.0 0.0 0.0 0.07698792 
0.0 0.0 0.0 0.0 0.0 0.07698792 
0.0 0.0 0.0 0.0 0.0 0.07698792 
0.0 0.0 0.0 0.0 0.0 0.07698792 
0.0 0.0 0.0 0.0 0.0 0.07698792 
0.0 0.0 0.0 0.0 0.0 0.07698792 
0.0 0.0 0.0 0.0 0.0 0.07698792 
0.0 0.0 0.0 0.0 0.0 0.07698792 
0.0 0.0 0.0 0.0 0.0 0.07698792 
0.0 0.0 0.0 0.0 0.0 0.07698792 
0.0 0.0 0.0 0.0 0.0 0.07698792 
0.0 0.0 0.0 0.0 0.0 0.07698792 
0.0 0.0 0.0 0.0 0.0 0.07698792 
0.0 0.0 0.0 0.0 0.0 0.07698792 
0.0 0.0 0.0 0.0 0.0 0.07698792 
0.0 0.0 0.0 0.0 0.0 0.07698792 
0.0 0.0 0.0 0.0 0.0 0.07698792 
0.0 0.0 0.0 0.0 0.0 0.07698792 
0.0 0.0 0.0 0.0 0.0 0.07698792 
0.0 0.0 0.0 0.0 0.0 0.07698792 
0.0 0.0 0.0 0.0 0.0 0.07698792 
0.0 0.0 0.0 0.0 0.0 0.07698792 
0.0 0.0 0.0 0.0 0.0 0.07698792 
0.0 0.0 0.0 0.0 0.0 0.07698792 
0.0 0.0 0.0 0.0 0.0 0.07698792 
0.0 0.0 0.0 0.0 0.0 0.07698792 
0.0 0.0 0.0 0.0 0.0 0.07698792 
0.0 0.0 0.0 0.0 0.0 0.07698792 
0.0 0.0 0.0 0.0 0.0 0.07698792 
0.0 0.0 0.0 0.0 0.0 0.07698792 
0.0 0.0 0.0 0.0 0.0 0.07698792 
0.0 0.0 0.0 0.0 0.0 0.07698792 
0.0 0.0 0.0 0.0 0.0 0.07698792 
0.0 0.0 0.0 0.0 0.0 0.07698792 
0.0 0.0 0.0 0.0 0.0 0.07698792 
0.0 0.0 0.0 0.0 0.0 0.07698792 
0.0 0.0 0.0 0.0 0.0 0.07698792 
0.0 0.0 0.0 0.0 0.0 0.07698792 
0.0 0.0 0.0 0.0 0.0 0.07698792 
0.0 0.0 0.0 0.0 0.0 0.07698792 
0.0 0.0 0.0 0.0 0.0 0.07698792 
0.0 0.0 0.0 0.0 0.0 0.07698792 
0.0 0.0 0.0 0.0 0.0 0.07698792 
0.0 0.0 0.0 0.0 0.0 0.07698792 
0.0 0.0 0.0 0.0 0.0 0.07698792 
0.0 0.0 0.0 0.0 0.0 0.07698792 
0.0 0.0 0.0 0.0 0.0 0.07698792 
0.0 0.0 0.0 0.0 0.0 0.07698792 
0.0 0.0 0.0 0.0 0.0 0.07698792 
0.0 0.0 0.0 0.0 0.0 0.07698792 
0.0 0.0 0.0 0.0 0.0 0.07698792 
0.0 0.0 0.0 0.0 0.0 0.07698792 
0.0 0.0 0.0 0.0 0.0 0.07698792 
0.0 0.0 0.0 0.0 0.0 0.07698792 
0.0 0.0 0.0 0.0 0.0 0.07698792 
0.0 0.0 0.0 0.0 0.0 0.07698792 
0.0 0.0 0.0 0.0 0.0 0.07698792 
0.0 0.0 0.0 0.0 0.0 0.07698792 
0.0 0.0 0.0 0.0 0.0 0.07698792 
0.0 0.0 0.0 0.0 0.0 0.07698792 
0.0 0.0 0.0 0.0 0.0 0.07698792 
0.0 0.0 0.0 0.0 0.0 0.07698792 
0.0 0.0 0.0 0.0 0.0 0.07698792 
0.0 0.0 0.0 0.0 0.0 0.07698792 
0.0 0.0 0.0 0.0 0.0 0.07698792 
0.0 0.0 0.0 0.0 0.0 0.07698792 
0.0 0.0 0.0 0.0 0.0 0.07698792 
0.0 0.0 0.0 0.0 0.0 0.07698792 
0.0 0.0 0.0 0.0 0.0 0.07698792 
0.0 0.0 0.0 0.0 0.0 0.07698792 
0.0 0.0 0.0 0.0 0.0 0.07698792 
0.0 0.0 0.0 0.0 0.0 0.07698792 
0.0 0.0 0.0 0.0 0.0 0.07170844 
0.0 0.0 0.0 0.0 0.0 0.045620162 
0.0 0.030320268 0.0 0.0 0.0 0.011539653 
0.0 0.02947165 0.0 0.0 0.0 0.00079449266 
0.0 0.035923105 0.0 0.0 0.0 0.008352488 
0.0 0.014742483 0.0 0.0 0.0 0.055623226 
0.0 0.0 0.0 0.0 0.0 0.07698792 
0.0 0.0 0.0 0.0 0.0 0.07698792 
0.0 0.0 0.0 0.0 0.0 0.07698792 
0.0 0.0 0.0 0.0 0.0 0.07698792 
0.0 0.0 0.0 0.0 0.0 0.07698792 
0.0 0.0 0.0 0.0 0.0 0.07698792 
0.0 0.0 0.0 0.0 0.0 0.07698792 
0.0 0.0 0.0 0.0 0.0 0.07698792 
0.0 0.0 0.0 0.0 0.0 0.07698792 
0.0 0.0 0.0 0.0 0.0 0.07698792 
0.0 0.0 0.0 0.0 0.0 0.07698792 
0.0 0.0 0.0 0.0 0.0 0.07698792 
0.0 0.0 0.0 0.0 0.0 0.07698792 
0.0 0.0 0.0 0.0 0.0 0.07698792 
0.0 0.0 0.0 0.0 0.0 0.07698792 
0.0 0.0 0.0 0.0 0.0 0.07698792 
0.0 0.0 0.0 0.0 0.0 0.07698792 
0.0 0.0 0.0 0.0 0.0 0.07698792 
0.0 0.0 0.0 0.0 0.0 0.060772374 
0.02370742 0.0 0.022680178 0.0 0.0 0.0 
0.10926059 0.026667934 0.117718495 0.0 0.0 0.0 
0.21689123 0.13185024 0.21826828 0.0 0.0 0.0 
0.2880403 0.23670787 0.32762733 0.0 0.0 0.0 
0.36298978 0.36363655 0.39610535 0.0 0.0 0.0 
0.20990667 0.56392604 0.29978412 0.0 0.0 0.0 
0.0 0.5143985 0.24554476 0.0 0.064003095 0.0 
0.0 0.39156118 0.18580255 0.0 0.12741907 0.0 
0.0 0.115409434 0.00670401 0.0 0.12274782 0.0 
0.0 0.0 0.0 0.0 0.0 0.07698792 
0.0 0.0 0.0 0.0 0.0 0.07698792 
0.0 0.0 0.0 0.0 0.0 0.07698792 
0.0 0.0 0.0 0.0 0.0 0.07698792 
0.0 0.0 0.0 0.0 0.0 0.07698792 
0.0 0.0 0.0 0.0 0.0 0.07698792 
0.0 0.0 0.0 0.0 0.0 0.07698792 
0.0 0.0 0.0 0.0 0.0 0.07698792 
0.0 0.0 0.0 0.0 0.0 0.07698792 
0.0 0.0 0.0 0.0 0.0 0.07698792 
0.0 0.0 0.0 0.0 0.0 0.07698792 
0.0 0.0 0.0 0.0 0.0 0.07698792 
0.0 0.0 0.0 0.0 0.0 0.053607367 
0.048063412 0.009818469 0.0356849 0.0 0.0 0.0 
0.01722452 0.09188091 0.0060593784 0.0 0.0 0.0 
0.0095811635 0.06564402 0.111431174 0.0 0.0 0.0 
0.16197324 0.13291372 0.1926296 0.0 0.0 0.0 
0.24563122 0.16759574 0.26952374 0.0 0.0 0.0 
0.37211537 0.26484105 0.36694112 0.0 0.0 0.0 
0.45230108 0.3950319 0.4614395 0.0 0.0 0.0 
0.5719857 0.47291973 0.50377953 0.0 0.0 0.0 
0.59381926 0.62151605 0.5178977 0.0 0.0 0.0 
0.48808104 0.64058316 0.4997571 0.0 0.0 0.0 
0.39590517 0.6654221 0.5249828 0.0 0.1279193 0.0 
0.02135083 0.82899034 0.6017643 0.0 0.54997844 0.0 
0.0 0.8061421 0.53105384 0.0 0.6423214 0.0 
0.0 0.47897792 0.5113932 0.0 0.5427568 0.0 
0.0 0.041118193 0.138803 0.0 0.30603203 0.0 
0.0 0.0 0.0 0.0 0.0 0.07698792 
0.0 0.0 0.0 0.0 0.0 0.07698792 
0.0 0.0 0.0 0.0 0.0 0.07698792 
0.0 0.0 0.0 0.0 0.0 0.07698792 
0.0 0.0 0.0 0.0 0.0 0.07698792 
0.0 0.0 0.0 0.0 0.0 0.07698792 
0.0 0.0 0.0 0.0 0.0 0.07698792 
0.0 0.0 0.0 0.0 0.0 0.07698792 
0.0 0.0 0.0 0.0 0.0 0.07698792 
0.0 0.0 0.0 0.0 0.0 0.07698792 
0.0 0.0 0.0 0.0 0.0 0.07698792 
0.0 0.0 0.0 0.0 0.0 0.072085544 
0.08983979 0.0 0.056677103 0.0 0.0 0.013671264 
0.38884768 0.0 0.19806969 0.0 0.0 0.0 
0.4498548 0.26325926 0.32012028 0.0 0.0 0.0 
0.38403738 0.4675035 0.4786951 0.0 0.0 0.0 
0.41240215 0.5215997 0.6038177 0.0 0.0 0.0 
0.5895742 0.44367138 0.511155 0.0 0.0 0.0 
0.79794514 0.6100064 0.62984574 0.0 0.0 0.0 
0.66717315 0.73168904 0.6883475 0.0 0.067998305 0.0 
0.5121859 0.7054414 0.64440453 0.0 0.37572724 0.0 
0.27073953 0.71467596 0.665895 0.0 0.80694383 0.0 
0.028745443 0.6581651 0.6245837 0.29046696 1.1337842 0.0 
0.0 0.5798139 0.6502004 0.75239676 1.2843565 0.074966 
0.0 0.73155636 0.74237335 0.8840566 1.2446758 0.018944882 
0.0 0.6868303 0.807224 0.81803757 0.8835833 0.049287736 
0.0 0.5086969 0.8081867 0.5066032 0.468901 0.1769966 
0.0 0.24146281 0.3902611 0.20375189 0.1155453 0.06551636 
0.0 0.0 0.0 0.0 0.0 0.07698792 
0.0 0.0 0.0 0.0 0.0 0.07698792 
0.0 0.0 0.0 0.0 0.0 0.07698792 
0.0 0.0 0.0 0.0 0.0 0.07698792 
0.0 0.0 0.0 0.0 0.0 0.07698792 
0.0 0.0 0.0 0.0 0.0 0.07698792 
0.0 0.0 0.0 0.0 0.0 0.07698792 
0.0 0.0 0.0 0.0 0.0 0.07698792 
0.0 0.0 0.0 0.0 0.0 0.07698792 
0.0 0.0 0.0 0.0 0.0 0.07698792 
0.0 0.0 0.0 0.0 0.0 0.07698792 
0.010136969 0.0 0.029130742 0.0 0.0 0.03688367 
0.40226683 0.0 0.07734061 0.0 0.0 0.0 
0.79490954 0.0 0.1131959 0.0 0.0 0.0 
0.7586267 0.319057 0.3486394 0.0 0.0 0.0 
0.607945 0.6832984 0.60086316 0.0 0.08910915 0.0 
0.32992408 0.69101256 0.7430365 0.0 0.5604405 0.0 
0.30046967 0.39965022 0.48113275 0.12964292 0.78112763 0.0 
0.33419925 0.35946947 0.44031158 0.649948 0.939907 0.058735967 
0.20769668 0.4478627 0.5683994 1.0906702 1.3052117 0.3221191 
0.14013612 0.66684836 0.580945 1.428261 1.4912536 0.5490837 
0.0 0.99043745 0.61148864 1.4810212 1.6495324 0.66198224 
0.0 1.05141 0.5059945 1.3974959 1.6101545 0.8319256 
0.0 0.98906493 0.34176445 1.1707006 1.3575367 1.0632071 
0.0 0.9519643 0.31693596 0.80156076 0.8821458 0.82017416 
0.0 0.6641402 0.49679685 0.53681946 0.34946427 0.5062921 
0.0 0.34815732 0.6512763 0.33998722 0.13388892 0.35561275 
0.0 0.15826672 0.4059777 0.17264202 0.01578546 0.13567017 
0.0 0.0 0.0 0.0 0.0 0.07698792 
0.0 0.0 0.0 0.0 0.0 0.07698792 
0.0 0.0 0.0 0.0 0.0 0.07698792 
0.0 0.0 0.0 0.0 0.0 0.07698792 
0.0 0.0 0.0 0.0 0.0 0.07698792 
0.0 0.0 0.0 0.0 0.0 0.07698792 
0.0 0.0 0.0 0.0 0.0 0.07698792 
0.0 0.0 0.0 0.0 0.0 0.07698792 
0.0 0.0 0.0 0.0 0.0 0.07698792 
0.0 0.0 0.0 0.0 0.0 0.07698792 
0.0097319335 0.0 0.04451772 0.0 0.0 0.029095493 
0.3092934 0.0 0.1340402 0.0 0.0 0.0 
0.86577374 0.0 0.023702279 0.0 0.0 0.0 
1.1747963 0.0 0.0 0.0 0.0 0.0 
0.76372033 0.60835296 0.12993485 0.038836848 0.5207447 0.0 
0.27103958 0.8618581 0.60757625 0.54945785 1.1056073 0.0 
0.0 0.87834376 0.7881426 0.9462171 1.5781069 0.3595145 
0.0 0.91626734 0.42532483 1.2806535 1.5270883 0.6627501 
0.08511917 0.72695696 0.035430007 1.3036627 1.5944992 1.1293273 
0.12396988 0.7789913 0.0 1.4253261 1.5707942 1.3507924 
0.16799733 0.85491985 0.0 1.3148437 1.5209244 1.4357026 
0.0 0.885741 0.0 0.90654904 1.515585 1.3683484 
0.0 0.60429406 0.0 0.3792126 1.3439511 1.1876552 
0.0 0.20628184 0.0 0.0 1.1196622 1.0098318 
0.0 0.024288084 0.0 0.0 0.6527788 0.627306 
0.0 0.0 0.0 0.0 0.35322052 0.3739896 
0.0 0.0 0.048107766 0.0 0.21613358 0.2704416 
0.0 0.0 0.12781537 0.0 0.052027684 0.10163504 
0.0 0.0 0.0 0.0 0.0 0.07698792 
0.0 0.0 0.0 0.0 0.0 0.07698792 
0.0 0.0 0.0 0.0 0.0 0.07698792 
0.0 0.0 0.0 0.0 0.0 0.07698792 
0.0 0.0 0.0 0.0 0.0 0.07698792 
0.0 0.0 0.0 0.0 0.0 0.07698792 
0.0 0.0 0.0 0.0 0.0 0.07698792 
0.0 0.0 0.0 0.0 0.0 0.07698792 
0.0 0.0 0.0 0.0 0.0 0.07623371 
0.027933232 0.0 0.0653715 0.0 0.0 0.017395508 
0.32977292 0.0 0.15029156 0.0 0.0 0.0 
0.8018331 0.0 0.1689882 0.0 0.0 0.0 
1.479434 0.0 0.094185494 0.0 0.0 0.0 
1.4916718 0.7518796 0.0 0.0 0.64380866 0.0 
0.6608675 1.3989099 0.111568116 0.0 1.257773 0.0 
0.28823748 1.4796563 0.6145381 0.0 1.6076604 0.0 
0.23529115 1.5906184 0.65055597 0.0 1.7051114 0.03200543 
0.09102912 1.3868488 0.09073708 0.0 1.615132 0.25484616 
0.15787204 0.9255837 0.0 0.0 1.6348841 0.7249246 
0.14035946 0.43470713 0.0 0.0 1.5383153 1.0256937 
0.06891966 0.007617983 0.0 0.0 1.3378459 1.1289454 
0.0 0.0 0.0 0.0 0.99763185 0.90460783 
0.0 0.0 0.0 0.0 0.69409794 0.6047793 
0.0 0.0 0.0 0.0 0.4517729 0.40236595 
0.0 0.0 0.0 0.0 0.23002593 0.21615599 
0.0 0.0 0.0 0.0 0.072927356 0.13682356 
0.0 0.0 0.0 0.0 0.0 0.10058576 
0.0 0.0 0.0 0.0 0.0 0.079270914 
0.0 0.0 0.0 0.0 0.0 0.07698792 
0.0 0.0 0.0 0.0 0.0 0.07698792 
0.0 0.0 0.0 0.0 0.0 0.07698792 
0.0 0.0 0.0 0.0 0.0 0.07698792 
0.0 0.0 0.0 0.0 0.0 0.07698792 
0.0 0.0 0.0 0.0 0.0 0.07698792 
0.0 0.0 0.0 0.0 0.0 0.07698792 
0.0 0.0 0.0 0.0 0.0 0.07698792 
0.0 0.0 0.005889073 0.0 0.0 0.047321454 
0.27206913 0.0 0.11046683 0.0 0.0 0.0 
0.8360796 0.0 0.14545995 0.0 0.0 0.0 
1.4232059 0.0 0.12439258 0.0 0.0 0.0 
1.6966269 0.4606398 0.02201613 0.0 0.5090161 0.0 
1.1001377 1.1686964 0.0 0.0 1.6164423 0.0 
0.5312867 1.3750932 0.0 0.0 1.9592451 0.0 
0.45080924 1.2206652 0.35891232 0.0 1.8984371 0.22537266 
0.2333408 1.0739423 0.52671313 0.0 1.7220051 0.0 
0.0 0.90249634 0.34121925 0.0 1.5947793 0.0 
0.0 0.72221476 0.17236921 0.0 1.5486952 0.0 
0.0 0.19408616 0.0 0.0 1.3457595 0.0 
0.0 0.0 0.0 0.0 0.8593115 0.009995684 
0.0 0.0 0.0 0.0 0.3730004 0.20640521 
0.0 0.0 0.0 0.0 0.16100757 0.1813708 
0.0 0.0 0.0 0.0 0.04267581 0.1193727 
0.0 0.0 0.0 0.0 0.0 0.081097305 
0.0 0.0 0.0 0.0 0.0 0.07698792 
0.0 0.0 0.0 0.0 0.0 0.07698792 
0.0 0.0 0.0 0.0 0.0 0.07698792 
0.0 0.0 0.0 0.0 0.0 0.07698792 
0.0 0.0 0.0 0.0 0.0 0.07698792 
0.0 0.0 0.0 0.0 0.0 0.07698792 
0.0 0.0 0.0 0.0 0.0 0.07698792 
0.0 0.0 0.0 0.0 0.0 0.07698792 
0.0 0.0 0.0 0.0 0.0 0.07698792 
0.0 0.0 0.0 0.0 0.0 0.07698792 
0.0 0.0 0.0 0.0 0.0 0.07698792 
0.013689369 0.0 0.0 0.0 0.0 0.07955618 
0.5429232 0.0 0.0 0.0 0.0 0.17139798 
1.2783082 0.0 0.0 0.16227193 0.0 0.23202348 
1.5583 0.0441842 0.0 0.39653015 0.5192229 0.31728882 
1.2078502 0.6966301 0.0 0.5588498 1.6966856 0.54529697 
0.41251108 1.0614233 0.0 0.6539276 2.382846 0.67557865 
0.0 0.9186179 0.18741894 0.9070022 2.334997 0.85409033 
0.0 0.49772105 0.49633557 1.007352 2.0931559 0.981534 
0.0 0.27557334 0.921252 0.9559314 1.4235216 0.51421183 
0.14840929 0.81168354 1.2432668 0.68071145 1.016044 0.0 
0.0 1.3804796 1.5743037 0.2948245 0.9857829 0.0 
0.0 1.21433 1.4266127 0.0 0.843459 0.0 
0.0 0.6367281 0.64442015 0.0 0.6143624 0.0 
0.0 0.112949975 0.04999771 0.0 0.21694972 0.0 
0.0 0.0 0.0 0.0 0.0 0.07698792 
0.0 0.0 0.0 0.0 0.0 0.07698792 
0.0 0.0 0.0 0.0 0.0 0.07698792 
0.0 0.0 0.0 0.0 0.0 0.07698792 
0.0 0.0 0.0 0.0 0.0 0.07698792 
0.0 0.0 0.0 0.0 0.0 0.07698792 
0.0 0.0 0.0 0.0 0.0 0.07698792 
0.0 0.0 0.0 0.0 0.0 0.07698792 
0.0 0.0 0.0 0.0 0.0 0.07698792 
0.0 0.0 0.0 0.0 0.0 0.07698792 
0.0 0.0 0.0 0.0 0.0 0.07698792 
0.0 0.0 0.0 0.0 0.0 0.07698792 
0.0 0.0 0.0 0.0 0.0 0.07698792 
0.0 0.0 0.0 0.0 0.0 0.07698792 
0.05074027 0.0 0.0 0.03586791 0.0 0.1762926 
0.61286956 0.0 0.0 0.33024725 0.0 0.6063564 
1.2277837 0.0 0.0 0.6815097 0.5434534 1.0384681 
1.2712641 0.053724628 0.0 0.9809466 1.528625 1.3010623 
0.6563919 0.74986297 0.0 1.2048075 2.1639411 1.4983108 
0.0 1.0158243 0.0 1.1930043 2.31774 1.4906971 
0.0 0.8286438 0.0 1.0818894 2.0501726 1.5838859 
0.0 0.54379493 0.02632489 1.119036 1.6510408 1.696106 
0.3715514 0.22177586 0.054714657 1.1055429 0.92453206 1.4921947 
0.59070784 0.5437012 0.5693446 1.0280789 0.5724281 0.715312 
0.114952326 1.2777271 1.3062176 0.8329423 0.7848181 0.0 
0.0 1.7031404 1.880975 0.49940702 0.84028393 0.0 
0.0 1.1378747 1.4015226 0.0 0.86251664 0.0 
0.0 0.2483058 0.30159763 0.0 0.4441248 0.0 
0.0 0.005203467 0.0 0.0 0.0 0.06448176 
0.0 0.0 0.0 0.0 0.0 0.07698792 
0.0 0.0 0.0 0.0 0.0 0.07698792 
0.0 0.0 0.0 0.0 0.0 0.07698792 
0.0 0.0 0.0 0.0 0.0 0.07698792 
0.0 0.0 0.0 0.0 0.0 0.07698792 
0.0 0.0 0.0 0.0 0.0 0.07698792 
0.0 0.0 0.0 0.0 0.0 0.07698792 
0.0 0.0 0.0 0.0 0.0 0.07698792 
0.0 0.0 0.0 0.0 0.0 0.07698792 
0.0 0.0 0.0 0.0 0.0 0.07698792 
0.0 0.0 0.0 0.0 0.0 0.07698792 
0.0 0.0 0.0 0.0 0.0 0.07698792 
0.0 0.0 0.0 0.0 0.0 0.07698792 
0.06555849 0.0 0.0 0.0807924 0.0 0.22558561 
0.6509283 0.0 0.0 0.22937612 0.413339 0.8297893 
0.9757752 0.0 0.0 0.33255315 1.0704944 1.2690251 
0.7274934 0.08886917 0.0 0.43056336 1.5460148 1.3799682 
0.3477612 0.39975482 0.0 0.3577206 1.7956374 1.5907035 
0.0 0.43662804 0.0 0.13144732 1.7740003 1.5238585 
0.0 0.11265348 0.0 0.0 1.4975177 1.3517408 
0.1845183 0.0 0.0 0.0 1.3399476 1.3314672 
0.82144 0.0 0.0 0.0 1.0018178 1.5952108 
1.1250706 0.0 0.0 0.0 0.6723057 1.1648929 
0.39264664 0.66352594 0.0 0.033638667 0.92297167 0.118872985 
0.0 1.4242494 1.4385943 0.29025954 1.081248 0.0 
0.0 1.3429719 1.9258208 0.12473276 1.060831 0.0 
0.0 0.46645126 0.7033436 0.0 0.5753377 0.0 
0.0 0.0043507963 0.0 0.0 0.0 0.055847533 
0.0 0.0 0.0 0.0 0.0 0.07698792 
0.0 0.0 0.0 0.0 0.0 0.07698792 
0.0 0.0 0.0 0.0 0.0 0.07698792 
0.0 0.0 0.0 0.0 0.0 0.07698792 
0.0 0.0 0.0 0.0 0.0 0.07698792 
0.0 0.0 0.0 0.0 0.0 0.07698792 
0.0 0.0 0.0 0.0 0.0 0.07698792 
0.0 0.0 0.0 0.0 0.0 0.07698792 
0.0 0.0 0.0 0.0 0.0 0.07698792 
0.0 0.0 0.0 0.0 0.0 0.057378426 
0.062109783 0.0 0.062315397 0.0 0.0 0.0 
0.05923617 0.112498954 0.018766977 0.0 0.0 0.0 
0.0 0.118801355 0.03126257 0.0 0.0 0.0 
0.059569374 0.068296984 0.0 0.0 0.103711665 0.0 
0.45243543 0.0 0.0 0.0 0.5747761 0.53776157 
0.6195595 0.0 0.0 0.0 0.90101606 0.9221758 
0.38913375 0.0 0.0 0.0 1.0334182 0.94826174 
0.144059 0.0 0.0 0.0 1.0189203 0.92844975 
0.0 0.0 0.0 0.0 0.8561124 0.69793755 
0.0 0.0 0.0 0.0 0.6665394 0.50782377 
0.12121169 0.0 0.0 0.0 0.5840499 0.39482158 
1.1847985 0.0 0.0 0.0 0.4723536 0.74091804 
1.6771665 0.0 0.0 0.0 0.6606083 0.8338509 
0.6751731 0.6640102 0.0 0.0 1.0898373 0.0 
0.0 1.3410283 0.6096666 0.0 1.3415558 0.0 
0.0 1.1686169 1.8848164 0.17422159 1.2785996 0.0 
0.0 0.44164786 0.99521446 0.0838794 0.62934965 0.0 
0.0 0.014574145 0.0 0.003615398 0.0 0.06715149 
0.0 0.0 0.0 0.0 0.0 0.07698792 
0.0 0.0 0.0 0.0 0.0 0.07698792 
0.0 0.0 0.0 0.0 0.0 0.07698792 
0.0 0.0 0.0 0.0 0.0 0.07698792 
0.0 0.0 0.0 0.0 0.0 0.07698792 
0.0 0.0 0.0 0.0 0.0 0.07698792 
0.0 0.0 0.0 0.0 0.0 0.07698792 
0.0 0.0 0.0 0.0 0.0 0.07698792 
0.0 0.0 0.0 0.0 0.0 0.07698792 
0.08160213 0.0 0.070503764 0.0 0.0 0.019143686 
0.419888 0.0 0.17790344 0.0 0.0 0.0 
0.44462258 0.2621093 0.2812112 0.0 0.0 0.0 
0.1528864 0.59790576 0.33703932 0.0 0.0 0.0 
0.0 0.5857025 0.35720563 0.0 0.2572012 0.0 
0.0 0.078753464 0.0 0.0 0.6138611 0.0 
0.19518122 0.0 0.0 0.0 0.48259857 0.17865905 
0.109457955 0.0 0.0 0.0 0.31591347 0.21180993 
0.11173275 0.0 0.0 0.0 0.098771915 0.10326832 
0.10780959 0.0 0.091084264 0.0 0.0 0.0 
0.18179101 0.13169369 0.3471628 0.0 0.0 0.0 
0.41177386 0.18192671 0.37850857 0.0 0.0 0.0 
1.3716595 0.0 0.0 0.0 0.07762702 0.0 
1.7963576 0.09539322 0.0 0.0 0.96351177 0.3270834 
0.4507265 1.1379452 0.0 0.0 1.4308777 0.0 
0.0 1.2715232 0.2364536 0.033665437 1.6325691 0.04474199 
0.0 0.7974031 1.5154674 0.29278827 1.2643247 0.3471808 
0.0 0.28200936 1.004715 0.24507724 0.45746127 0.11864081 
0.0 0.03338035 0.023230307 0.0354211 0.0 0.081927225 
0.0 0.0 0.0 0.0 0.0 0.07698792 
0.0 0.0 0.0 0.0 0.0 0.07698792 
0.0 0.0 0.0 0.0 0.0 0.07698792 
0.0 0.0 0.0 0.0 0.0 0.07698792 
0.0 0.0 0.0 0.0 0.0 0.07698792 
0.0 0.0 0.0 0.0 0.0 0.07698792 
0.0 0.0 0.0 0.0 0.0 0.07698792 
0.0 0.0 0.0 0.0 0.0 0.07698792 
0.0 0.0 0.0 0.0 0.0 0.07698792 
0.15456593 0.0 0.0 0.0 0.0 0.14856257 
0.7252833 0.0 0.051661186 0.0 0.0 0.12196434 
0.9343155 0.17567274 0.32441235 0.0 0.0 0.0 
0.4671262 0.9156366 0.8282356 0.0 0.056944434 0.0 
0.0 1.2052251 1.2640849 0.0 0.37578586 0.0 
0.0 0.97350913 1.0518478 0.0 0.34674415 0.0 
0.09921679 0.6634976 0.6464388 0.0 0.025332797 0.0 
0.3074777 0.51168126 0.5030004 0.0 0.0 0.0 
0.55080944 0.41885957 0.4781252 0.0 0.0 0.0 
0.750137 0.47272435 0.5509122 0.0 0.0 0.0 
0.78315365 0.73734504 0.6913554 0.0 0.0 0.0 
0.7602019 0.68325335 0.6356047 0.0 0.017363768 0.0 
0.9990241 0.43110648 0.19770697 0.0 0.90734094 0.0 
0.86951435 0.7229193 0.0 0.0 1.9005765 0.2020436 
0.0 1.2495077 0.0 0.16470802 1.9841937 0.28362978 
0.0 0.95740706 0.29852095 0.27434874 1.5096647 0.46001172 
0.0 0.44682744 1.0741755 0.30262613 0.82815176 0.5019681 
0.0 0.13862982 0.7296196 0.18302381 0.20579784 0.17948902 
0.0 0.0 0.0 0.0043575633 0.0 0.084955834 
0.0 0.0 0.0 0.0 0.0 0.07698792 
0.0 0.0 0.0 0.0 0.0 0.07698792 
0.0 0.0 0.0 0.0 0.0 0.07698792 
0.0 0.0 0.0 0.0 0.0 0.07698792 
0.0 0.0 0.0 0.0 0.0 0.07698792 
0.0 0.0 0.0 0.0 0.0 0.07698792 
0.0 0.0 0.0 0.0 0.0 0.07698792 
0.0 0.0 0.0 0.0 0.0 0.07698792 
0.0 0.0 0.0 0.0 0.0 0.07698792 
0.23653844 0.0 0.0 0.124643326 0.0 0.35463208 
0.74846727 0.0 0.0 0.42677388 0.0 0.6856661 
0.86529714 0.0 0.0 0.6610096 0.20141973 0.4405583 
0.672515 0.51317155 0.50582516 0.7733634 0.32602385 0.0 
0.33047348 1.1739279 1.5785772 0.50745374 0.43406448 0.0 
0.097449675 1.2589431 1.7703922 0.0 0.4371496 0.0 
0.30636355 1.1128875 1.3086919 0.0 0.26440153 0.0 
0.45574027 0.9055128 1.0300449 0.0 0.22324921 0.0 
0.65057427 0.7092279 0.82027674 0.0 0.29408655 0.0 
0.6540918 0.68354946 0.74251425 0.0 0.5203712 0.0 
0.4611562 0.79466146 0.76911485 0.0 0.8424434 0.0 
0.351879 0.8679452 0.8352534 0.49366608 1.333778 0.0 
0.36863077 1.007214 0.450198 0.72294897 2.0871599 0.3996882 
0.0 1.2013911 0.0 0.64165705 2.3549118 0.699825 
0.0 0.93303233 0.0 0.40371168 1.7184166 0.697073 
0.0 0.5533637 0.35696003 0.21098137 0.9032354 0.6149701 
0.0 0.14427711 0.62614954 0.07675584 0.38858435 0.41117314 
0.0 0.0 0.3253942 0.0 0.098960236 0.1448751 
0.0 0.0 0.0 0.0 0.0 0.07881431 
0.0 0.0 0.0 0.0 0.0 0.07698792 
0.0 0.0 0.0 0.0 0.0 0.07698792 
0.0 0.0 0.0 0.0 0.0 0.07698792 
0.0 0.0 0.0 0.0 0.0 0.07698792 
0.0 0.0 0.0 0.0 0.0 0.07698792 
0.0 0.0 0.0 0.0 0.0 0.07698792 
0.0 0.0 0.0 0.0 0.0 0.07698792 
0.0 0.0 0.0 0.0 0.0 0.07698792 
0.0 0.0 0.0 0.0 0.0 0.07698792 
0.24850118 0.0 0.0 0.13683747 0.09990215 0.4111907 
0.79833454 0.0 0.0 0.27761972 0.55633813 1.0468957 
0.7634619 0.0 0.0 0.5692747 0.6768267 1.1556656 
0.5703396 0.0 0.0 0.9565022 0.7357884 1.0363281 
0.3847112 0.27456006 0.5101568 1.4371359 0.91132116 0.9229768 
0.2383573 0.59195924 1.341314 1.6192139 0.9600515 0.52992725 
0.2153126 0.71740955 1.2621977 1.4408743 1.0708237 0.2543009 
0.20181099 0.65222985 1.0405194 1.315889 1.2465518 0.22363701 
0.33073664 0.72157687 0.79111266 1.3866531 1.4410415 0.44574738 
0.2722407 0.86492604 0.49474603 1.4533701 1.6950463 0.72175086 
0.1089973 1.0168076 0.4454937 1.5981227 1.8243157 0.94624025 
0.010722198 1.0953155 0.46172458 1.5259678 2.1075203 1.136059 
0.0 1.1746764 0.25372338 1.1990199 2.1805556 1.1798759 
0.0 0.89352334 0.0 0.59941447 1.6966268 0.95478445 
0.0 0.5411036 0.032184817 0.19316195 0.8620013 0.70467585 
0.0 0.08153505 0.32429534 0.0 0.42320296 0.44536766 
0.0 0.0 0.25430134 0.0 0.18292081 0.22512117 
0.0 0.0 0.04221624 0.0 0.00969566 0.090021044 
0.0 0.0 0.0 0.0 0.0 0.07698792 
0.0 0.0 0.0 0.0 0.0 0.07698792 
0.0 0.0 0.0 0.0 0.0 0.07698792 
0.0 0.0 0.0 0.0 0.0 0.07698792 
0.0 0.0 0.0 0.0 0.0 0.07698792 
0.0 0.0 0.0 0.0 0.0 0.07698792 
0.0 0.0 0.0 0.0 0.0 0.07698792 
0.0 0.0 0.0 0.0 0.0 0.07698792 
0.0 0.0 0.0 0.0 0.0 0.07698792 
0.0 0.0 0.0 0.0 0.0 0.07698792 
0.17989653 0.0 0.0 0.0 0.23476626 0.28614014 
0.6073116 0.0 0.0 0.0 0.64364266 0.76374835 
0.7540174 0.0 0.0 0.0 0.89342964 1.1962419 
0.6751494 0.0 0.0 0.10530713 1.0098892 1.5070865 
0.42663813 0.0 0.0 0.62038076 1.1848307 1.5986514 
0.18649492 0.23715702 0.0 1.2740977 1.2903515 1.5831327 
0.20244545 0.5969265 0.21725881 1.7002124 1.360143 1.5399206 
0.26396832 0.8009832 0.29088998 1.8080369 1.535808 1.5070243 
0.2896147 0.8743107 0.101105966 1.664562 1.7918214 1.5878375 
0.23775417 0.7776173 0.0 1.3893452 1.963633 1.6391454 
0.18113786 0.7616551 0.0 1.0384952 1.8957862 1.6344278 
0.0 0.6514173 0.0 0.5485717 1.8318816 1.507024 
0.0 0.46255273 0.0 0.13233584 1.4147307 1.173511 
0.0 0.22308233 0.0 0.0 0.7594194 0.7160753 
0.0 0.0 0.14409804 0.0 0.38337094 0.43304616 
0.0 0.0 0.1763485 0.0 0.18593395 0.22525238 
0.0 0.0 0.036253303 0.0 0.020601962 0.09544234 
0.0 0.0 0.0 0.0 0.0 0.07767282 
0.0 0.0 0.0 0.0 0.0 0.07698792 
0.0 0.0 0.0 0.0 0.0 0.07698792 
0.0 0.0 0.0 0.0 0.0 0.07698792 
0.0 0.0 0.0 0.0 0.0 0.07698792 
0.0 0.0 0.0 0.0 0.0 0.07698792 
0.0 0.0 0.0 0.0 0.0 0.07698792 
0.0 0.0 0.0 0.0 0.0 0.07698792 
0.0 0.0 0.0 0.0 0.0 0.07698792 
0.0 0.0 0.0 0.0 0.0 0.07698792 
0.0 0.0 0.0 0.0 0.0 0.07698792 
0.0017567053 0.0 0.0 0.0 0.055358123 0.12649801 
0.23189613 0.0 0.0 0.0 0.38610104 0.29461038 
0.47826147 0.0 0.0 0.0 0.6559929 0.56698215 
0.62225044 0.0 0.0 0.0 0.9581929 0.9391671 
0.5681228 0.0 0.0 0.0 1.2449925 1.2859898 
0.4967885 0.0 0.0 0.0 1.4043885 1.5423629 
0.40581593 0.0 0.0 0.0 1.4758935 1.6466169 
0.25303403 0.041175332 0.0 0.0 1.546507 1.6043077 
0.17543659 0.083281964 0.0 0.0 1.5416073 1.576787 
0.10825892 0.055714056 0.0 0.0 1.4451213 1.4503808 
0.04298103 0.0 0.0 0.0 1.3210999 1.2384093 
0.0 0.0 0.0 0.0 0.9910032 0.8840061 
0.0 0.0 0.0 0.0 0.57804316 0.55520046 
0.0 0.0 0.0 0.0 0.33352873 0.34014744 
0.0 0.0 0.05095888 0.0 0.15681958 0.18650724 
0.0 0.0 0.015857928 0.0 0.0077359416 0.09055027 
0.0 0.0 0.0 0.0 0.0 0.07744452 
0.0 0.0 0.0 0.0 0.0 0.07698792 
0.0 0.0 0.0 0.0 0.0 0.07698792 
0.0 0.0 0.0 0.0 0.0 0.07698792 
0.0 0.0 0.0 0.0 0.0 0.07698792 
0.0 0.0 0.0 0.0 0.0 0.07698792 
0.0 0.0 0.0 0.0 0.0 0.07698792 
0.0 0.0 0.0 0.0 0.0 0.07698792 
0.0 0.0 0.0 0.0 0.0 0.07698792 
0.0 0.0 0.0 0.0 0.0 0.07698792 
0.0 0.0 0.0 0.0 0.0 0.07698792 
0.0 0.0 0.0 0.0 0.0 0.07698792 
0.0 0.0 0.0 0.0 0.0 0.07698792 
0.0 0.0 0.0 0.0 0.0 0.08503331 
0.06468344 0.0 0.0 0.0 0.15093711 0.16986233 
0.24170959 0.0 0.0 0.0 0.42001918 0.30240715 
0.2999533 0.0 0.0 0.0 0.59469765 0.38482594 
0.3403233 0.0 0.0 0.0 0.7809418 0.55019253 
0.269971 0.0 0.0 0.0 0.9532384 0.66829056 
0.12589191 0.0 0.0 0.0 0.96819955 0.6280704 
0.060070455 0.0 0.0 0.0 0.8588226 0.581508 
0.0 0.0 0.0 0.0 0.75814015 0.49963236 
0.0 0.0 0.0 0.0 0.53038496 0.37714595 
0.0 0.0 0.0 0.0 0.29763362 0.2442027 
0.0 0.0 0.0 0.0 0.15187639 0.18704766 
0.0 0.0 0.0 0.0 0.04592363 0.116997 
0.0 0.0 0.0 0.0 0.0 0.0806407 
0.0 0.0 0.0 0.0 0.0 0.07698792 
0.0 0.0 0.0 0.0 0.0 0.07698792 
0.0 0.0 0.0 0.0 0.0 0.07698792 
0.0 0.0 0.0 0.0 0.0 0.07698792 
0.0 0.0 0.0 0.0 0.0 0.07698792 
0.0 0.0 0.0 0.0 0.0 0.07698792 
0.0 0.0 0.0 0.0 0.0 0.07698792 
0.0 0.0 0.0 0.0 0.0 0.07698792 
0.0 0.0 0.0 0.0 0.0 0.07698792 
0.0 0.0 0.0 0.0 0.0 0.07698792 
0.0 0.0 0.0 0.0 0.0 0.07698792 
0.0 0.0 0.0 0.0 0.0 0.07698792 
0.0 0.0 0.0 0.0 0.0 0.07698792 
0.0 0.0 0.0 0.0 0.0 0.07698792 
0.0 0.0 0.0 0.0 0.0 0.07698792 
0.0 0.0 0.0 0.0 0.0 0.07698792 
0.0 0.0 0.0 0.0 0.0 0.07698792 
0.0 0.0 0.0 0.0 0.0 0.080082305 
0.0 0.0 0.0 0.0 0.029092941 0.115755625 
0.0 0.0 0.0 0.0 0.040919323 0.12752713 
0.0 0.0 0.0 0.0 0.0022376291 0.10127927 
0.0 0.0 0.0 0.0 0.0 0.11408971 
0.0 0.0 0.0 0.0 0.0 0.09722906 
0.0 0.0 0.0 0.0 0.0 0.07904261 
0.0 0.0 0.0 0.0 0.0 0.07698792 
0.0 0.0 0.0 0.0 0.0 0.07698792 
0.0 0.0 0.0 0.0 0.0 0.07698792 
0.0 0.0 0.0 0.0 0.0 0.07698792 
0.0 0.0 0.0 0.0 0.0 0.07698792 
0.0 0.0 0.0 0.0 0.0 0.07698792 
0.0 0.0 0.0 0.0 0.0 0.07698792 
0.0 0.0 0.0 0.0 0.0 0.07698792 
0.0 0.0 0.0 0.0 0.0 0.07698792 
0.0 0.0 0.0 0.0 0.0 0.07698792 
0.0 0.0 0.0 0.0 0.0 0.07698792 
0.0 0.0 0.0 0.0 0.0 0.07698792 
0.0 0.0 0.0 0.0 0.0 0.07698792 
0.0 0.0 0.0 0.0 0.0 0.07698792 
0.0 0.0 0.0 0.0 0.0 0.07698792 
0.0 0.0 0.0 0.0 0.0 0.07698792 
0.0 0.0 0.0 0.0 0.0 0.07698792 
0.0 0.0 0.0 0.0 0.0 0.07698792 
0.0 0.0 0.0 0.0 0.0 0.07698792 
0.0 0.0 0.0 0.0 0.0 0.07698792 
0.0 0.0 0.0 0.0 0.0 0.07698792 
0.0 0.0 0.0 0.0 0.0 0.07698792 
0.0 0.0 0.0 0.0 0.0 0.07698792 
0.0 0.0 0.0 0.0 0.0 0.07698792 
0.0 0.0 0.0 0.0 0.0 0.07698792 
0.0 0.0 0.0 0.0 0.0 0.07698792 
0.0 0.0 0.0 0.0 0.0 0.07698792 
0.0 0.0 0.0 0.0 0.0 0.07698792 
0.0 0.0 0.0 0.0 0.0 0.07698792 
0.0 0.0 0.0 0.0 0.0 0.07698792 
0.0 0.0 0.0 0.0 0.0 0.07698792 
0.0 0.0 0.0 0.0 0.0 0.07698792 
0.0 0.0 0.0 0.0 0.0 0.07698792 
0.0 0.0 0.0 0.0 0.0 0.07698792 
0.0 0.0 0.0 0.0 0.0 0.07698792 
0.0 0.0 0.0 0.0 0.0 0.07698792 
0.0 0.0 0.0 0.0 0.0 0.07698792 
0.0 0.0 0.0 0.0 0.0 0.07698792 
0.0 0.0 0.0 0.0 0.0 0.07698792 
0.0 0.0 0.0 0.0 0.0 0.07698792 
0.0 0.0 0.0 0.0 0.0 0.07698792 
0.0 0.0 0.0 0.0 0.0 0.07698792 
0.0 0.0 0.0 0.0 0.0 0.07698792 
0.0 0.0 0.0 0.0 0.0 0.07698792 
0.0 0.0 0.0 0.0 0.0 0.07698792 
0.0 0.0 0.0 0.0 0.0 0.07698792 
0.0 0.0 0.0 0.0 0.0 0.07698792 
0.0 0.0 0.0 0.0 0.0 0.07698792 
0.0 0.0 0.0 0.0 0.0 0.07698792 
0.0 0.0 0.0 0.0 0.0 0.07698792 
0.0 0.0 0.0 0.0 0.0 0.07698792 
0.0 0.0 0.0 0.0 0.0 0.07698792 
0.0 0.0 0.0 0.0 0.0 0.07698792 
0.0 0.0 0.0 0.0 0.0 0.07698792 
0.0 0.0 0.0 0.0 0.0 0.07698792 
0.0 0.0 0.0 0.0 0.0 0.07698792 
0.0 0.0 0.0 0.0 0.0 0.07698792 
0.0 0.0 0.0 0.0 0.0 0.07698792 
0.0 0.0 0.0 0.0 0.0 0.07698792 
0.0 0.0 0.0 0.0 0.0 0.07698792 
0.0 0.0 0.0 0.0 0.0 0.07698792 
0.0 0.0 0.0 0.0 0.0 0.07698792 
0.0 0.0 0.0 0.0 0.0 0.07698792 
0.0 0.0 0.0 0.0 0.0 0.07698792 
0.0 0.0 0.0 0.0 0.0 0.07698792 
0.0 0.0 0.0 0.0 0.0 0.07698792 
0.0 0.0 0.0 0.0 0.0 0.07698792 
0.0 0.0 0.0 0.0 0.0 0.07698792 
0.0 0.0 0.0 0.0 0.0 0.07698792 
0.0 0.0 0.0 0.0 0.0 0.07698792 
0.0 0.0 0.0 0.0 0.0 0.07698792 
0.0 0.0 0.0 0.0 0.0 0.07698792 
0.0 0.0 0.0 0.0 0.0 0.07698792 
0.0 0.0 0.0 0.0 0.0 0.07698792 
0.0 0.0 0.0 0.0 0.0 0.07698792 
0.0 0.0 0.0 0.0 0.0 0.07698792 
0.0 0.0 0.0 0.0 0.0 0.07698792 
0.0 0.0 0.0 0.0 0.0 0.07698792 
0.0 0.0 0.0 0.0 0.0 0.07698792 
0.0 0.0 0.0 0.0 0.0 0.07698792 
0.0 0.0 0.0 0.0 0.0 0.07698792 
0.0 0.0 0.0 0.0 0.0 0.07698792 
0.0 0.0 0.0 0.0 0.0 0.07698792 
0.0 0.0 0.0 0.0 0.0 0.07698792 
0.0 0.0 0.0 0.0 0.0 0.07698792 
0.0 0.0 0.0 0.0 0.0 0.07698792 
0.0 0.0 0.0 0.0 0.0 0.07698792 
0.0 0.0 0.0 0.0 0.0 0.07698792 
0.0 0.0 0.0 0.0 0.0 0.07698792 
0.0 0.0 0.0 0.0 0.0 0.07698792 
0.0 0.0 0.0 0.0 0.0 0.07698792 
0.0 0.0 0.0 0.0 0.0 0.07698792 
0.0 0.0 0.0 0.0 0.0 0.07698792 
0.0 0.0 0.0 0.0 0.0 0.07698792 
0.0 0.0 0.0 0.0 0.0 0.07698792 
0.0 0.0 0.0 0.0 0.0 0.07698792 
0.0 0.0 0.0 0.0 0.0 0.07698792 
0.0 0.0 0.0 0.0 0.0 0.07698792 
0.0 0.0 0.0 0.0 0.0 0.07698792 
0.0 0.0 0.0 0.0 0.0 0.07698792 
0.0 0.0 0.0 0.0 0.0 0.07698792 
0.0 0.0 0.0 0.0 0.0 0.07698792 
0.0 0.0 0.0 0.0 0.0 0.07698792 
0.0 0.0 0.0 0.0 0.0 0.07698792 
0.0 0.0 0.0 0.0 0.0 0.07698792 
0.0 0.0 0.0 0.0 0.0 0.07698792 
0.0 0.0 0.0 0.0 0.0 0.07698792 
0.0 0.0 0.0 0.0 0.0 0.07698792 
0.0 0.0 0.0 0.0 0.0 0.07698792 
0.0 0.0 0.0 0.0 0.0 0.07698792 
0.0 0.0 0.0 0.0 0.0 0.07698792 
0.0 0.0 0.0 0.0 0.0 0.07698792 
0.0 0.0 0.0 0.0 0.0 0.07698792 
0.0 0.0 0.0 0.0 0.0 0.07698792 
0.0 0.0 0.0 0.0 0.0 0.07698792 
0.0 0.0 0.0 0.0 0.0 0.07698792 
0.0 0.0 0.0 0.0 0.0 0.07698792 
0.0 0.0 0.0 0.0 0.0 0.07698792 
0.0 0.0 0.0 0.0 0.0 0.07698792 
0.0 0.0 0.0 0.0 0.0 0.07698792 
0.0 0.0 0.0 0.0 0.0 0.07698792 
0.0 0.0 0.0 0.0 0.0 0.07698792 
0.0 0.0 0.0 0.0 0.0 0.07698792 
0.0 0.0 0.0 0.0 0.0 0.07698792 
0.0 0.0 0.0 0.0 0.0 0.07698792 
0.0 0.0 0.0 0.0 0.0 0.07698792 

