0.0 0.0 0.0 0.0 0.0 0.07698792 
0.0 0.0 0.0 0.0 0.0 0.07698792 
0.0 0.0 0.0 0.0 0.0 0.07698792 
0.0 0.0 0.0 0.0 0.0 0.07698792 
0.0 0.0 0.0 0.0 0.0 0.07698792 
0.0 0.0 0.0 0.0 0.0 0.07698792 
0.0 0.0 0.0 0.0 0.0 0.07698792 
0.0 0.0 0.0 0.0 0.0 0.07698792 
0.0 0.0 0.0 0.0 0.0 0.07698792 
0.0 0.0 0.0 0.0 0.0 0.07698792 
0.0 0.0 0.0 0.0 0.0 0.07698792 
0.0 0.0 0.0 0.0 0.0 0.07698792 
0.0 0.0 0.0 0.0 0.0 0.07698792 
0.0 0.0 0.0 0.0 0.0 0.07698792 
0.0 0.0 0.0 0.0 0.0 0.07698792 
0.0 0.0 0.0 0.0 0.0 0.07698792 
0.0 0.0 0.0 0.0 0.0 0.07698792 
0.0 0.0 0.0 0.0 0.0 0.07698792 
0.0 0.0 0.0 0.0 0.0 0.07698792 
0.0 0.0 0.0 0.0 0.0 0.07698792 
0.0 0.0 0.0 0.0 0.0 0.07698792 
0.0 0.0 0.0 0.0 0.0 0.07698792 
0.0 0.0 0.0 0.0 0.0 0.07698792 
0.0 0.0 0.0 0.0 0.0 0.07698792 
0.0 0.0 0.0 0.0 0.0 0.07698792 
0.0 0.0 0.0 0.0 0.0 0.07698792 
0.0 0.0 0.0 0.0 0.0 0.07698792 
0.0 0.0 0.0 0.0 0.0 0.07698792 
0.0 0.0 0.0 0.0 0.0 0.07698792 
0.0 0.0 0.0 0.0 0.0 0.07698792 
0.0 0.0 0.0 0.0 0.0 0.07698792 
0.0 0.0 0.0 0.0 0.0 0.07698792 
0.0 0.0 0.0 0.0 0.0 0.07698792 
0.0 0.0 0.0 0.0 0.0 0.07698792 
0.0 0.0 0.0 0.0 0.0 0.07698792 
0.0 0.0 0.0 0.0 0.0 0.07698792 
0.0 0.0 0.0 0.0 0.0 0.07698792 
0.0 0.0 0.0 0.0 0.0 0.07698792 
0.0 0.0 0.0 0.0 0.0 0.07698792 
0.0 0.0 0.0 0.0 0.0 0.07698792 
0.0 0.0 0.0 0.0 0.0 0.07698792 
0.0 0.0 0.0 0.0 0.0 0.07698792 
0.0 0.0 0.0 0.0 0.0 0.07698792 
0.0 0.0 0.0 0.0 0.0 0.07698792 
0.0 0.0 0.0 0.0 0.0 0.07698792 
0.0 0.0 0.0 0.0 0.0 0.07698792 
0.0 0.0 0.0 0.0 0.0 0.07698792 
0.0 0.0 0.0 0.0 0.0 0.07698792 
0.0 0.0 0.0 0.0 0.0 0.07698792 
0.0 0.0 0.0 0.0 0.0 0.07698792 
0.0 0.0 0.0 0.0 0.0 0.07698792 
0.0 0.0 0.0 0.0 0.0 0.07698792 
0.0 0.0 0.0 0.0 0.0 0.07698792 
0.0 0.0 0.0 0.0 0.0 0.07698792 
0.0 0.0 0.0 0.0 0.0 0.07698792 
0.0 0.0 0.0 0.0 0.0 0.07698792 
0.0 0.0 0.0 0.0 0.0 0.07698792 
0.0 0.0 0.0 0.0 0.0 0.07698792 
0.0 0.0 0.0 0.0 0.0 0.07698792 
0.0 0.0 0.0 0.0 0.0 0.07698792 
0.0 0.0 0.0 0.0 0.0 0.07698792 
0.0 0.0 0.0 0.0 0.0 0.07698792 
0.0 0.0 0.0 0.0 0.0 0.07698792 
0.0 0.0 0.0 0.0 0.0 0.07698792 
0.0 0.0 0.0 0.0 0.0 0.07698792 
0.0 0.0 0.0 0.0 0.0 0.07698792 
0.0 0.0 0.0 0.0 0.0 0.07698792 
0.0 0.0 0.0 0.0 0.0 0.07698792 
0.0 0.0 0.0 0.0 0.0 0.07698792 
0.0 0.0 0.0 0.0 0.0 0.07698792 
0.0 0.0 0.0 0.0 0.0 0.07698792 
0.0 0.0 0.0 0.0 0.0 0.07698792 
0.0 0.0 0.0 0.0 0.0 0.07698792 
0.0 0.0 0.0 0.0 0.0 0.07698792 
0.0 0.0 0.0 0.0 0.0 0.07698792 
0.0 0.0 0.0 0.0 0.0 0.07698792 
0.0 0.0 0.0 0.0 0.0 0.07698792 
0.0 0.0 0.0 0.0 0.0 0.07698792 
0.0 0.0 0.0 0.0 0.0 0.07698792 
0.0 0.0 0.0 0.0 0.0 0.07698792 
0.0 0.0 0.0 0.0 0.0 0.07698792 
0.0 0.0 0.0 0.0 0.0 0.07698792 
0.0 0.0 0.0 0.0 0.0 0.07698792 
0.0 0.0 0.0 0.0 0.0 0.07698792 
0.0 0.0 0.0 0.0 0.0 0.07698792 
0.0 0.0 0.0 0.0 0.0 0.07698792 
0.0 0.0 0.0 0.0 0.0 0.07698792 
0.0 0.0 0.0 0.0 0.0 0.07698792 
0.0 0.0 0.0 0.0 0.0 0.07698792 
0.0 0.0 0.0 0.0 0.0 0.07698792 
0.0 0.0 0.0 0.0 0.0 0.07698792 
0.0 0.0 0.0 0.0 0.0 0.07698792 
0.0 0.0 0.0 0.0 0.0 0.051344734 
0.09557785 0.0 0.08941255 0.0 0.0 0.0 
0.23271435 0.06929438 0.219118 0.0 0.0 0.0 
0.31742954 0.24564794 0.31849384 0.0 0.0 0.0 
0.3216771 0.38812092 0.4397372 0.0 0.0 0.0 
0.3077871 0.5484348 0.45375746 0.0 0.0 0.0 
0.121383876 0.5975912 0.33192584 0.0 0.0 0.0 
0.0 0.48115572 0.23111176 0.0 0.033599693 0.0 
0.0 0.3189535 0.11471919 0.0 0.082635626 0.0 
0.0 0.12664656 0.0 0.0 0.04173742 0.0 
0.0 0.012498009 0.0 0.0 0.0 0.057707585 
0.0 0.0 0.0 0.0 0.0 0.07698792 
0.0 0.0 0.0 0.0 0.0 0.07698792 
0.0 0.0 0.0 0.0 0.0 0.07698792 
0.0 0.0 0.0 0.0 0.0 0.07698792 
0.0 0.0 0.0 0.0 0.0 0.07698792 
0.0 0.0 0.0 0.0 0.0 0.07698792 
0.0 0.0 0.0 0.0 0.0 0.07698792 
0.0 0.0 0.0 0.0 0.0 0.07698792 
0.0 0.0 0.0 0.0 0.0 0.07698792 
0.0 0.0 0.0 0.0 0.0 0.07698792 
0.0 0.0 0.0 0.0 0.0 0.07698792 
0.0 0.0 0.0 0.0 0.0 0.07698792 
0.0 0.0 0.0 0.0 0.0 0.07698792 
0.0 0.0 0.0 0.0 0.0 0.07698792 
0.0 0.0 0.0 0.0 0.0 0.07698792 
0.0 0.0 0.0 0.0 0.0 0.07698792 
0.01746589 0.0 0.054154485 0.0 0.0 0.024570227 
0.27804545 0.0 0.16883719 0.0 0.0 0.0 
0.49433506 0.070506856 0.23254353 0.0 0.0 0.0 
0.6560496 0.22045954 0.35079324 0.0 0.0 0.0 
0.69364613 0.5709654 0.5195934 0.0 0.0 0.0 
0.53698224 0.7250366 0.6685178 0.0 0.0 0.0 
0.4435588 0.8341645 0.9135665 0.0 0.1018427 0.0 
0.2295632 0.9988944 0.9587146 0.0 0.34066185 0.0 
0.0 1.1351303 0.81038785 0.0 0.4597189 0.0 
0.0 0.7948482 0.6354409 0.0 0.53987426 0.0 
0.0 0.38973737 0.2790287 0.0 0.37625372 0.0 
0.0 0.123379365 0.010695636 0.0 0.114559904 0.0 
0.0 0.0 0.0 0.0 0.0 0.07073484 
0.0 0.0 0.0 0.0 0.0 0.07698792 
0.0 0.0 0.0 0.0 0.0 0.07698792 
0.0 0.0 0.0 0.0 0.0 0.07698792 
0.0 0.0 0.0 0.0 0.0 0.07698792 
0.0 0.0 0.0 0.0 0.0 0.07698792 
0.0 0.0 0.0 0.0 0.0 0.07698792 
0.0 0.0 0.0 0.0 0.0 0.07698792 
0.0 0.0 0.0 0.0 0.0 0.07698792 
0.0 0.0 0.0 0.0 0.0 0.07698792 
0.0 0.0 0.0 0.0 0.0 0.07698792 
0.0 0.0 0.0 0.0 0.0 0.07698792 
0.0 0.0 0.0 0.0 0.0 0.07698792 
0.0 0.0 0.0 0.0 0.0 0.07698792 
0.0 0.0 0.0 0.0 0.0 0.07698792 
0.0 0.0 0.0 0.0 0.0 0.07698792 
0.13413721 0.0 0.0296124 0.0 0.0 0.042111393 
0.61500394 0.0 0.033679627 0.0 0.0 0.0 
0.8242542 0.0 0.00032501295 0.0 0.0 0.0 
0.7267561 0.21687181 0.15244597 0.11532365 0.19255556 0.0 
0.288771 0.4763249 0.45347792 0.41674513 0.84408766 0.0 
0.03306357 0.3416761 0.5375759 0.82458514 1.1444138 0.1181541 
0.19702312 0.30241987 0.9431051 1.0646496 0.8768446 0.15244251 
0.36189336 0.71328855 1.248296 0.8428183 0.720284 0.0 
0.036959663 1.321791 1.4126847 0.4098701 0.8135658 0.0 
0.0 1.4739498 1.410682 0.0 0.8436603 0.0 
0.0 0.964715 0.96458066 0.0 0.7427049 0.0 
0.0 0.23040837 0.2200689 0.0 0.42787096 0.0 
0.0 0.021610692 0.0 0.0 0.0 0.044531938 
0.0 0.0 0.0 0.0 0.0 0.07698792 
0.0 0.0 0.0 0.0 0.0 0.07698792 
0.0 0.0 0.0 0.0 0.0 0.07698792 
0.0 0.0 0.0 0.0 0.0 0.07698792 
0.0 0.0 0.0 0.0 0.0 0.07698792 
0.0 0.0 0.0 0.0 0.0 0.07698792 
0.0 0.0 0.0 0.0 0.0 0.07698792 
0.0 0.0 0.0 0.0 0.0 0.07698792 
0.0 0.0 0.0 0.0 0.0 0.07698792 
0.0 0.0 0.0 0.0 0.0 0.07698792 
0.0 0.0 0.0 0.0 0.0 0.07698792 
0.0 0.0 0.0 0.0 0.0 0.07698792 
0.0 0.0 0.0 0.0 0.0 0.07698792 
0.0 0.0 0.0 0.0 0.0 0.07698792 
0.0 0.0 0.0 0.0 0.0 0.07698792 
0.19720125 0.0 0.0 0.06451212 0.0 0.26925513 
0.68369573 0.0 0.0 0.36439264 0.0 0.5265982 
0.7926065 0.0 0.0 0.7660134 0.5060948 0.5385641 
0.36944017 0.51860017 0.0 1.2017701 1.0506449 0.7397093 
0.0 0.7840138 0.11955162 1.2812748 1.478387 0.97374666 
0.0013401061 0.7043684 0.11306759 1.3544723 1.3287667 1.1963716 
0.58211076 0.4142998 0.15911344 1.2968017 0.75386447 1.3488774 
0.8507403 0.56651396 0.5679015 1.1383256 0.5119996 0.7846946 
0.37705198 1.320215 1.1105587 0.8819099 0.74240154 0.0 
0.0 1.8349288 1.8468546 0.62507993 0.9879647 0.0 
0.0 1.4343293 1.7293053 0.10062651 1.0651869 0.0 
0.0 0.48750356 0.6574637 0.0 0.6184331 0.0 
0.0 0.019057885 0.0 0.0 0.043877553 0.040806014 
0.0 0.0 0.0 0.0 0.0 0.07698792 
0.0 0.0 0.0 0.0 0.0 0.07698792 
0.0 0.0 0.0 0.0 0.0 0.07698792 
0.0 0.0 0.0 0.0 0.0 0.07698792 
0.0 0.0 0.0 0.0 0.0 0.07698792 
0.0 0.0 0.0 0.0 0.0 0.07698792 
0.0 0.0 0.0 0.0 0.0 0.07698792 
0.0 0.0 0.0 0.0 0.0 0.07698792 
0.0 0.0 0.0 0.0 0.0 0.07698792 
0.0 0.0 0.0 0.0 0.0 0.07698792 
0.0 0.0 0.0 0.0 0.0 0.07698792 
0.0 0.0 0.0 0.0 0.0 0.07698792 
0.0 0.0 0.0 0.0 0.0 0.07698792 
0.0 0.0 0.0 0.0 0.0 0.07698792 
0.0 0.0 0.0 0.0 0.0 0.07698792 
0.26840776 0.0 0.0 0.18888645 0.041362662 0.432329 
0.6296527 0.0 0.0 0.41149455 0.41453192 0.83928853 
0.4818374 0.18094262 0.0 0.5193802 0.9311969 0.91054624 
0.31287134 0.3908782 0.0 0.46601063 1.2695295 1.1847279 
0.18562523 0.5062332 0.0 0.2547191 1.297866 1.3044283 
0.31499124 0.10812399 0.0 0.0 1.1071323 1.2145143 
1.111294 0.0 0.0 0.0 0.8279606 1.4211841 
1.3431189 0.0 0.0 0.0 0.80348206 1.1504316 
0.507105 0.81594473 0.0 0.0 1.200301 0.196518 
0.0 1.567407 1.1930559 0.28033182 1.4242301 0.0 
0.0 1.3249024 1.9835595 0.34373823 1.2988253 0.0 
0.0 0.56067336 1.0492879 0.17010725 0.6483931 0.0 
0.0 0.05291496 0.067850806 0.034658447 0.0186929 0.066201165 
0.0 0.0 0.0 0.0 0.0 0.07698792 
0.0 0.0 0.0 0.0 0.0 0.07698792 
0.0 0.0 0.0 0.0 0.0 0.07698792 
0.0 0.0 0.0 0.0 0.0 0.07698792 
0.0 0.0 0.0 0.0 0.0 0.07698792 
0.0 0.0 0.0 0.0 0.0 0.07698792 
0.0 0.0 0.0 0.0 0.0 0.07698792 
0.0 0.0 0.0 0.0 0.0 0.07698792 
0.0 0.0 0.0 0.0 0.0 0.07698792 
0.0 0.0 0.0 0.0 0.0 0.07698792 
0.0 0.0 0.0 0.0 0.0 0.07698792 
0.0 0.0 0.0 0.0 0.0 0.07698792 
0.0 0.0 0.0 0.0 0.0 0.07698792 
0.0 0.0 0.0 0.0 0.0 0.07698792 
0.0 0.0 0.0 0.0 0.0 0.07698792 
0.23755759 0.0 0.0 0.027338076 0.19890346 0.3776198 
0.539529 0.0 0.0 0.0 0.68259716 0.76420724 
0.31306353 0.0 0.0 0.0 0.7977547 0.71704304 
0.15735956 0.0 0.0 0.0 0.7546826 0.68120545 
0.0 0.0 0.0 0.0 0.6945263 0.6004744 
0.24412704 0.0 0.0 0.0 0.43103167 0.41670138 
1.4207623 0.0 0.0 0.0 0.44670436 0.70937955 
1.8285606 0.0 0.0 0.0 1.0933999 0.75306875 
0.5007912 0.9909497 0.0 0.0 1.56435 0.072407395 
0.0 1.353398 0.4105759 0.0 1.7471794 0.0 
0.0 0.992389 1.6170473 0.1740095 1.3703167 0.24139209 
0.0 0.33716983 1.0665257 0.20067075 0.529118 0.12299664 
0.0 0.053980425 0.094210334 0.058920875 0.0 0.09016667 
0.0 0.0 0.0 0.0 0.0 0.07698792 
0.0 0.0 0.0 0.0 0.0 0.07698792 
0.0 0.0 0.0 0.0 0.0 0.07698792 
0.0 0.0 0.0 0.0 0.0 0.07698792 
0.0 0.0 0.0 0.0 0.0 0.07698792 
0.0 0.0 0.0 0.0 0.0 0.07698792 
0.0 0.0 0.0 0.0 0.0 0.07698792 
0.0 0.0 0.0 0.0 0.0 0.07698792 
0.0 0.0 0.0 0.0 0.0 0.07698792 
0.0 0.0 0.0 0.0 0.0 0.07698792 
0.0 0.0 0.0 0.0 0.0 0.07698792 
0.0 0.0 0.0 0.0 0.0 0.07698792 
0.0 0.0 0.0 0.0 0.0 0.07698792 
0.0 0.0 0.0 0.0 0.0 0.07698792 
0.0 0.0 0.0 0.0 0.0 0.07698792 
0.09871864 0.0 0.0 0.0 0.20471738 0.19148 
0.19507757 0.0 0.0 0.0 0.33389685 0.27302188 
0.012921527 0.0 0.0 0.0 0.19123748 0.18204525 
0.0 0.0 0.0 0.0 0.123314604 0.19161129 
0.016847588 0.0 0.08339841 0.0 0.0 0.07206916 
0.6719901 0.0 0.101961024 0.0 0.0 0.0 
1.6353116 0.0 0.0 0.0 0.1114368 0.26988727 
1.6498623 0.39236227 0.0 0.0 1.2576365 0.29171425 
0.13281883 1.4201257 0.0 0.0 1.8250821 0.0065093637 
0.0 1.352894 0.43045834 0.0 1.7127758 0.1834473 
0.0 0.60396194 1.2243978 0.08694189 1.1521331 0.38901693 
0.0 0.12936005 0.7636133 0.12581477 0.3277507 0.17973138 
0.0 0.0 0.028984942 0.0 0.0 0.089030094 
0.0 0.0 0.0 0.0 0.0 0.07698792 
0.0 0.0 0.0 0.0 0.0 0.07698792 
0.0 0.0 0.0 0.0 0.0 0.07698792 
0.0 0.0 0.0 0.0 0.0 0.07698792 
0.0 0.0 0.0 0.0 0.0 0.07698792 
0.0 0.0 0.0 0.0 0.0 0.07698792 
0.0 0.0 0.0 0.0 0.0 0.07698792 
0.0 0.0 0.0 0.0 0.0 0.07698792 
0.0 0.0 0.0 0.0 0.0 0.07698792 
0.0 0.0 0.0 0.0 0.0 0.07698792 
0.0 0.0 0.0 0.0 0.0 0.07698792 
0.0 0.0 0.0 0.0 0.0 0.07698792 
0.0 0.0 0.0 0.0 0.0 0.07698792 
0.0 0.0 0.0 0.0 0.0 0.07698792 
0.0 0.0 0.0 0.0 0.0 0.07698792 
0.0 0.0 0.0 0.0 0.0 0.07698792 
0.0 0.0 0.0 0.0 0.0 0.07698792 
0.0 0.0 0.0 0.0 0.0 0.060018167 
0.13094105 0.0 0.11779822 0.0 0.0 0.0 
0.54534066 0.0 0.12591976 0.0 0.0 0.0 
1.2791104 0.0 0.042443402 0.0 0.0 0.0 
1.80515 0.15288828 0.0 0.0 0.6596697 0.08318256 
0.8865604 1.1488564 0.0 0.0 1.8104378 0.06812765 
0.0 1.4732764 0.0 0.0 2.026699 0.036425173 
0.0 1.0262241 0.75215924 0.06110328 1.5195969 0.35959697 
0.0 0.31355795 0.9749985 0.11580224 0.75728637 0.37009713 
0.0 0.0 0.43392253 0.042937636 0.14172313 0.14730045 
0.0 0.0 0.0 0.0 0.0 0.079347014 
0.0 0.0 0.0 0.0 0.0 0.07698792 
0.0 0.0 0.0 0.0 0.0 0.07698792 
0.0 0.0 0.0 0.0 0.0 0.07698792 
0.0 0.0 0.0 0.0 0.0 0.07698792 
0.0 0.0 0.0 0.0 0.0 0.07698792 
0.0 0.0 0.0 0.0 0.0 0.07698792 
0.0 0.0 0.0 0.0 0.0 0.07698792 
0.0 0.0 0.0 0.0 0.0 0.07698792 
0.0 0.0 0.0 0.0 0.0 0.07698792 
0.0 0.0 0.0 0.0 0.0 0.07698792 
0.0 0.0 0.0 0.0 0.0 0.07698792 
0.0 0.0 0.0 0.0 0.0 0.07698792 
0.0 0.0 0.0 0.0 0.0 0.07698792 
0.0 0.0 0.0 0.0 0.0 0.07698792 
0.0 0.0 0.0 0.0 0.0 0.07698792 
0.0 0.0 0.0 0.0 0.0 0.07698792 
0.0 0.0 0.0 0.0 0.0 0.06793738 
0.13128868 0.0 0.119064175 0.0 0.0 0.0 
0.5540982 0.0 0.1516383 0.0 0.0 0.0 
1.1157215 0.0 0.14887923 0.0 0.0 0.0 
1.7857387 0.03612931 0.0 0.0 0.13606215 0.0 
1.5635378 0.9391194 0.0 0.0 1.4289696 0.0 
0.18006182 1.7359254 0.0 0.0 2.171796 0.0 
0.0 1.6674403 0.50379956 0.0 1.8429557 0.0 
0.0 0.8350387 1.0517169 0.0 1.2296431 0.05409001 
0.0 0.26224104 0.7717456 0.0 0.47353908 0.14609936 
0.0 0.0 0.16219908 0.0 0.03834932 0.09452157 
0.0 0.0 0.0 0.0 0.0 0.07698792 
0.0 0.0 0.0 0.0 0.0 0.07698792 
0.0 0.0 0.0 0.0 0.0 0.07698792 
0.0 0.0 0.0 0.0 0.0 0.07698792 
0.0 0.0 0.0 0.0 0.0 0.07698792 
0.0 0.0 0.0 0.0 0.0 0.07698792 
0.0 0.0 0.0 0.0 0.0 0.07698792 
0.0 0.0 0.0 0.0 0.0 0.07698792 
0.0 0.0 0.0 0.0 0.0 0.07698792 
0.0 0.0 0.0 0.0 0.0 0.07698792 
0.0 0.0 0.0 0.0 0.0 0.07698792 
0.0 0.0 0.0 0.0 0.0 0.07698792 
0.0 0.0 0.0 0.0 0.0 0.07698792 
0.0 0.0 0.0 0.0 0.0 0.07698792 
0.0 0.0 0.0 0.0 0.0 0.07698792 
0.0 0.0 0.0 0.0 0.0 0.07698792 
0.0 0.0 0.0 0.0 0.0 0.07698792 
0.0 0.0 0.0 0.0 0.0 0.076978065 
0.315397 0.0 0.006539054 0.0 0.0 0.08183463 
1.034136 0.0 0.0 0.0 0.0 0.08406987 
1.529938 0.0 0.0 0.13469465 0.039242584 0.11760804 
1.6665819 0.44841525 0.0 0.25433174 1.0264572 0.21577793 
0.98302466 1.2546605 0.0 0.015356225 1.9893473 0.0788163 
0.06666832 1.8315096 0.5121244 0.0 1.9582237 0.0 
0.0 1.8471867 1.3018137 0.0 1.5387036 0.0 
0.0 1.0955801 1.4623767 0.0 1.1272527 0.0 
0.0 0.30591708 0.6891221 0.0 0.60801345 0.0 
0.0 0.07506877 0.050809823 0.0 0.1183963 0.0 
0.0 0.0029589916 0.0 0.0 0.0 0.06656612 
0.0 0.0 0.0 0.0 0.0 0.07698792 
0.0 0.0 0.0 0.0 0.0 0.07698792 
0.0 0.0 0.0 0.0 0.0 0.07698792 
0.0 0.0 0.0 0.0 0.0 0.07698792 
0.0 0.0 0.0 0.0 0.0 0.07698792 
0.0 0.0 0.0 0.0 0.0 0.07698792 
0.0 0.0 0.0 0.0 0.0 0.07698792 
0.0 0.0 0.0 0.0 0.0 0.07698792 
0.0 0.0 0.0 0.0 0.0 0.07698792 
0.0 0.0 0.0 0.0 0.0 0.07698792 
0.0 0.0 0.0 0.0 0.0 0.07698792 
0.0 0.0 0.0 0.0 0.0 0.07698792 
0.0 0.0 0.0 0.0 0.0 0.07698792 
0.0 0.0 0.0 0.0 0.0 0.07698792 
0.0 0.0 0.0 0.0 0.0 0.07698792 
0.0 0.0 0.0 0.0 0.0 0.07698792 
0.0 0.0 0.0 0.007892742 0.0 0.10618369 
0.4074531 0.0 0.0 0.17263846 0.0 0.4407473 
1.0297267 0.0 0.0 0.60900277 0.15479119 0.81290776 
1.3689382 0.0 0.0 0.91429216 1.1078147 1.1093545 
1.1125271 0.40385875 0.0 1.2291553 1.8576285 1.5018644 
0.5453636 0.59500796 0.0 1.0131438 2.1007493 1.2686806 
0.08609986 1.1047758 0.64911103 0.82010263 1.5172473 0.48938847 
0.0 1.3483584 1.7868073 0.34307128 1.3065546 0.0 
0.0 1.4694498 1.9573172 0.0 1.0944203 0.0 
0.0 0.9161075 1.158213 0.0 0.7684691 0.0 
0.0 0.33064964 0.27057958 0.0 0.4102588 0.0 
0.0 0.08641622 0.0 0.0 0.06325598 0.0 
0.0 0.0 0.0 0.0 0.0 0.07698792 
0.0 0.0 0.0 0.0 0.0 0.07698792 
0.0 0.0 0.0 0.0 0.0 0.07698792 
0.0 0.0 0.0 0.0 0.0 0.07698792 
0.0 0.0 0.0 0.0 0.0 0.07698792 
0.0 0.0 0.0 0.0 0.0 0.07698792 
0.0 0.0 0.0 0.0 0.0 0.07698792 
0.0 0.0 0.0 0.0 0.0 0.07698792 
0.0 0.0 0.0 0.0 0.0 0.07698792 
0.0 0.0 0.0 0.0 0.0 0.07698792 
0.0 0.0 0.0 0.0 0.0 0.07698792 
0.0 0.0 0.0 0.0 0.0 0.07698792 
0.0 0.0 0.0 0.0 0.0 0.07698792 
0.0 0.0 0.0 0.0 0.0 0.07698792 
0.0 0.0 0.0 0.0 0.0 0.07698792 
0.0 0.0 0.0 0.0 0.0 0.07698792 
0.0 0.0 0.0 0.022496272 0.0 0.12161557 
0.47737503 0.0 0.0 0.26413056 0.18263546 0.6554726 
0.9191617 0.0 0.0 0.37518686 0.830897 1.1620903 
0.85478216 0.0 0.0 0.5836118 1.4463098 1.3704879 
0.7612899 0.06763074 0.0 0.70156384 1.8509213 1.8093579 
0.4623137 0.2660363 0.0 0.96107066 1.6381211 1.8563333 
0.34422404 0.06957309 0.0 0.8595939 1.1656376 1.321701 
0.2996204 0.7197073 1.1089998 0.85210365 0.8535718 0.38404572 
0.0 1.4587187 2.0084188 0.6068235 0.8830395 0.0 
0.0 1.584788 1.8248256 0.012570814 0.88077706 0.0 
0.0 0.8974582 0.946615 0.0 0.6971796 0.0 
0.0 0.20564935 0.15616533 0.0 0.33939877 0.0 
0.0 0.029331569 0.0 0.0 0.0 0.04207488 
0.0 0.0 0.0 0.0 0.0 0.07698792 
0.0 0.0 0.0 0.0 0.0 0.07698792 
0.0 0.0 0.0 0.0 0.0 0.07698792 
0.0 0.0 0.0 0.0 0.0 0.07698792 
0.0 0.0 0.0 0.0 0.0 0.07698792 
0.0 0.0 0.0 0.0 0.0 0.07698792 
0.0 0.0 0.0 0.0 0.0 0.07698792 
0.0 0.0 0.0 0.0 0.0 0.07698792 
0.0 0.0 0.0 0.0 0.0 0.07698792 
0.0 0.0 0.0 0.0 0.0 0.07698792 
0.0 0.0 0.0 0.0 0.0 0.07698792 
0.0 0.0 0.0 0.0 0.0 0.07698792 
0.0 0.0 0.0 0.0 0.0 0.07698792 
0.0 0.0 0.0 0.0 0.0 0.07698792 
0.0 0.0 0.0 0.0 0.0 0.07698792 
0.0 0.0 0.0 0.0 0.0 0.11040165 
0.3946385 0.0 0.0 0.0 0.3872452 0.52279794 
0.6644049 0.0 0.0 0.0 0.8542935 0.9382065 
0.50500554 0.0 0.0 0.0 1.0403756 1.0490639 
0.52492374 0.0 0.0 0.0 1.2175974 1.3592682 
0.4918564 0.0 0.0 0.0 1.3752086 1.6807575 
0.7228399 0.0 0.0 0.01917604 0.9729416 1.688539 
0.7570257 0.0 0.0 0.2851721 0.71167517 1.0263836 
0.2570697 0.86501664 0.8799617 0.5587695 0.8353444 0.11118843 
0.0 1.5968301 1.9470624 0.4892619 0.9748989 0.0 
0.0 1.3997898 1.7213348 0.0 0.94079983 0.0 
0.0 0.5242302 0.6041141 0.0 0.59310305 0.0 
0.0 0.055568248 0.0018209144 0.0 0.103565365 0.0 
0.0 0.0 0.0 0.0 0.0 0.07698792 
0.0 0.0 0.0 0.0 0.0 0.07698792 
0.0 0.0 0.0 0.0 0.0 0.07698792 
0.0 0.0 0.0 0.0 0.0 0.07698792 
0.0 0.0 0.0 0.0 0.0 0.07698792 
0.0 0.0 0.0 0.0 0.0 0.07698792 
0.0 0.0 0.0 0.0 0.0 0.07698792 
0.0 0.0 0.0 0.0 0.0 0.07698792 
0.0 0.0 0.0 0.0 0.0 0.07698792 
0.0 0.0 0.0 0.0 0.0 0.07698792 
0.0 0.0 0.0 0.0 0.0 0.07698792 
0.0 0.0 0.0 0.0 0.0 0.07698792 
0.0 0.0 0.0 0.0 0.0 0.07698792 
0.0 0.0 0.0 0.0 0.0 0.07698792 
0.0 0.0 0.0 0.0 0.0 0.07698792 
0.0 0.0 0.0 0.0 0.0 0.08688994 
0.1490318 0.0 0.0 0.0 0.28055438 0.22666605 
0.25650343 0.0 0.0 0.0 0.4357154 0.3210466 
0.17663056 0.0 0.0 0.0 0.48296276 0.31350663 
0.19148973 0.0 0.0 0.0 0.66619056 0.45937175 
0.36217415 0.0 0.0 0.0 0.89764136 0.73821515 
0.979304 0.0 0.0 0.0 0.9527305 1.2869864 
1.2744927 0.0 0.0 0.0 0.7160234 1.2514665 
0.77653164 0.24045579 0.0 0.01459114 0.83289295 0.40936247 
0.0 1.3235424 1.1528325 0.33236113 1.0816704 0.0 
0.0 1.5181792 2.0675037 0.21214925 1.1190006 0.0 
0.0 0.8878873 1.2121899 0.0 0.787613 0.0 
0.0 0.14458066 0.14637461 0.0 0.2389514 0.0 
0.0 0.0 0.0 0.0 0.0 0.07698792 
0.0 0.0 0.0 0.0 0.0 0.07698792 
0.0 0.0 0.0 0.0 0.0 0.07698792 
0.0 0.0 0.0 0.0 0.0 0.07698792 
0.0 0.0 0.0 0.0 0.0 0.07698792 
0.0 0.0 0.0 0.0 0.0 0.07698792 
0.0 0.0 0.0 0.0 0.0 0.07698792 
0.0 0.0 0.0 0.0 0.0 0.07698792 
0.0 0.0 0.0 0.0 0.0 0.07698792 
0.0 0.0 0.0 0.0 0.0 0.07698792 
0.0 0.0 0.0 0.0 0.0 0.07698792 
0.0 0.0 0.0 0.0 0.0 0.07698792 
0.0 0.0 0.0 0.0 0.0 0.07698792 
0.0 0.0 0.0 0.0 0.0 0.07698792 
0.0 0.0 0.0 0.0 0.0 0.07698792 
0.0 0.0 0.0 0.0 0.0 0.07698792 
0.0 0.0 0.0 0.0 0.0 0.07698792 
0.0 0.0 0.0 0.0 0.0 0.07698792 
0.0 0.0 0.0 0.0 0.0 0.07698792 
0.0 0.0 0.0 0.0 0.0 0.07698792 
0.12165734 0.0 0.0 0.0 0.20442815 0.22194919 
0.89761204 0.0 0.0 0.0 0.40776733 0.7570665 
1.7018294 0.0 0.0 0.0 0.53818345 1.0911827 
1.2260506 0.20940925 0.0 0.0 0.78287494 0.53546613 
0.0 1.1292033 0.14675546 0.0 1.1668359 0.0 
0.0 1.4945546 1.7628498 0.14924897 1.3403282 0.0 
0.0 0.93351775 1.5927376 0.07412042 0.9714473 0.0 
0.0 0.20756778 0.35866666 0.0 0.30802295 0.0 
0.0 0.0 0.0 0.0 0.0 0.07698792 
0.0 0.0 0.0 0.0 0.0 0.07698792 
0.0 0.0 0.0 0.0 0.0 0.07698792 
0.0 0.0 0.0 0.0 0.0 0.07698792 
0.0 0.0 0.0 0.0 0.0 0.07698792 
0.0 0.0 0.0 0.0 0.0 0.07698792 
0.0 0.0 0.0 0.0 0.0 0.07698792 
0.0 0.0 0.0 0.0 0.0 0.07698792 
0.0 0.0 0.0 0.0 0.0 0.07698792 
0.0 0.0 0.0 0.0 0.0 0.07698792 
0.0 0.0 0.0 0.0 0.0 0.07698792 
0.0 0.0 0.0 0.0 0.0 0.07698792 
0.0 0.0 0.0 0.0 0.0 0.07698792 
0.0 0.0 0.0 0.0 0.0 0.07698792 
0.0 0.0 0.0 0.0 0.0 0.07698792 
0.0 0.0 0.0 0.0 0.0 0.07698792 
0.0 0.0 0.0 0.0 0.0 0.07698792 
0.0 0.0 0.0 0.0 0.0 0.07698792 
0.0 0.0 0.0 0.0 0.0 0.07698792 
0.0 0.0 0.0 0.0 0.0 0.07698792 
0.0 0.0 0.0 0.0 0.0 0.072173655 
0.78160447 0.0 0.0 0.0 0.045561228 0.4202088 
1.8374953 0.0 0.0 0.0 0.40154138 0.8222899 
1.4643552 0.23327558 0.0 0.0 0.95787627 0.39557773 
0.0 1.2722837 0.0 0.0 1.3665506 0.0 
0.0 1.3387655 1.3325435 0.04258575 1.5659182 0.0 
0.0 0.7405267 1.5506593 0.14138415 1.0588374 0.07299624 
0.0 0.20216188 0.5096549 0.11540553 0.24012633 0.0553627 
0.0 0.0 0.0 0.0 0.0 0.07698792 
0.0 0.0 0.0 0.0 0.0 0.07698792 
0.0 0.0 0.0 0.0 0.0 0.07698792 
0.0 0.0 0.0 0.0 0.0 0.07698792 
0.0 0.0 0.0 0.0 0.0 0.07698792 
0.0 0.0 0.0 0.0 0.0 0.07698792 
0.0 0.0 0.0 0.0 0.0 0.07698792 
0.0 0.0 0.0 0.0 0.0 0.07698792 
0.0 0.0 0.0 0.0 0.0 0.07698792 
0.0 0.0 0.0 0.0 0.0 0.07698792 
0.0 0.0 0.0 0.0 0.0 0.07698792 
0.0 0.0 0.0 0.0 0.0 0.07698792 
0.0 0.0 0.0 0.0 0.0 0.07698792 
0.0 0.0 0.0 0.0 0.0 0.07698792 
0.0 0.0 0.0 0.0 0.0 0.07698792 
0.0 0.0 0.025244191 0.0 0.0 0.03814603 
0.048993587 0.06029994 0.0 0.0 0.0 0.0 
0.0 0.07070132 0.0 0.0 0.0 0.0 
0.0 0.095980324 0.013310298 0.0 0.0 0.0 
0.0 0.06308262 0.0 0.0 0.0 0.0 
0.108870804 0.0 0.08581922 0.0 0.0 0.0 
0.99067503 0.0 0.0 0.0 0.0 0.23680475 
1.8479145 0.0 0.0 0.0 0.39992687 0.56611645 
1.2864645 0.63268435 0.0 0.0 1.2532095 0.19349822 
0.0 1.4878579 0.0 0.0 1.654275 0.0 
0.0 1.2509096 1.1459899 0.09420262 1.5561777 0.16080254 
0.0 0.47704953 1.2926223 0.15095259 0.9012123 0.2346278 
0.0 0.12267801 0.46896803 0.13813095 0.117179886 0.11316015 
0.0 0.0 0.0 0.0 0.0 0.07698792 
0.0 0.0 0.0 0.0 0.0 0.07698792 
0.0 0.0 0.0 0.0 0.0 0.07698792 
0.0 0.0 0.0 0.0 0.0 0.07698792 
0.0 0.0 0.0 0.0 0.0 0.07698792 
0.0 0.0 0.0 0.0 0.0 0.07698792 
0.0 0.0 0.0 0.0 0.0 0.07698792 
0.0 0.0 0.0 0.0 0.0 0.07698792 
0.0 0.0 0.0 0.0 0.0 0.07698792 
0.0 0.0 0.0 0.0 0.0 0.07698792 
0.0 0.0 0.0 0.0 0.0 0.07698792 
0.0 0.0 0.0 0.0 0.0 0.07698792 
0.0 0.0 0.0 0.0 0.0 0.07698792 
0.0 0.0 0.0 0.0 0.0 0.07698792 
0.0 0.0 0.0 0.0 0.0 0.07698792 
0.1438233 0.0 0.085689254 0.0 0.0 0.014220357 
0.3422362 0.10677015 0.11071304 0.0 0.0 0.0 
0.07154417 0.27281857 0.08989034 0.0 0.0 0.0 
0.0 0.41556033 0.2754748 0.0 0.0110100545 0.0 
0.0 0.14463797 0.26348191 0.0 0.09410451 0.0 
0.47091234 0.0 0.12897769 0.0 0.0 0.0 
1.3368926 0.0 0.0 0.0 0.0 0.07042981 
1.8021581 0.060374193 0.0 0.0 0.8438401 0.30066 
0.6796369 1.167727 0.0 0.0 1.7451565 0.06820029 
0.0 1.4044907 0.0 0.0074509243 1.8630546 0.10543111 
0.0 0.88218147 1.0516416 0.12311639 1.370657 0.39514422 
0.0 0.2616878 0.96582305 0.13734254 0.59336966 0.2758796 
0.0 0.0 0.2525287 0.023722209 0.049255345 0.11309153 
0.0 0.0 0.0 0.0 0.0 0.07698792 
0.0 0.0 0.0 0.0 0.0 0.07698792 
0.0 0.0 0.0 0.0 0.0 0.07698792 
0.0 0.0 0.0 0.0 0.0 0.07698792 
0.0 0.0 0.0 0.0 0.0 0.07698792 
0.0 0.0 0.0 0.0 0.0 0.07698792 
0.0 0.0 0.0 0.0 0.0 0.07698792 
0.0 0.0 0.0 0.0 0.0 0.07698792 
0.0 0.0 0.0 0.0 0.0 0.07698792 
0.0 0.0 0.0 0.0 0.0 0.07698792 
0.0 0.0 0.0 0.0 0.0 0.07698792 
0.0 0.0 0.0 0.0 0.0 0.07698792 
0.0 0.0 0.0 0.0 0.0 0.07698792 
0.0 0.0 0.0 0.0 0.0 0.07698792 
0.0 0.0 0.0 0.0 0.0 0.07698792 
0.2699571 0.0 0.0 0.0 0.0 0.19651964 
0.614256 0.0 0.21363562 0.0 0.0 0.0 
0.49734324 0.43200147 0.30396804 0.0 0.0 0.0 
0.069194645 0.83916414 0.8762695 0.0 0.0 0.0 
0.08960615 0.50436866 0.7944437 0.0 0.016604844 0.0 
0.91495115 0.10048279 0.30299774 0.0 0.0 0.0 
1.5489655 0.13256632 0.0 0.0 0.45577326 0.0 
1.1758606 0.8228711 0.0 0.0 1.6548797 0.23367664 
0.0 1.3511747 0.0 0.06806283 2.1290562 0.2602331 
0.0 1.1223668 0.31820372 0.18496622 1.6539503 0.4264245 
0.0 0.45314124 0.96890676 0.16402674 0.9443236 0.4806131 
0.0 0.09651332 0.6729155 0.10192607 0.28127947 0.2204741 
0.0 0.0 0.04641124 0.0 0.0 0.091099 
0.0 0.0 0.0 0.0 0.0 0.07698792 
0.0 0.0 0.0 0.0 0.0 0.07698792 
0.0 0.0 0.0 0.0 0.0 0.07698792 
0.0 0.0 0.0 0.0 0.0 0.07698792 
0.0 0.0 0.0 0.0 0.0 0.07698792 
0.0 0.0 0.0 0.0 0.0 0.07698792 
0.0 0.0 0.0 0.0 0.0 0.07698792 
0.0 0.0 0.0 0.0 0.0 0.07698792 
0.0 0.0 0.0 0.0 0.0 0.07698792 
0.0 0.0 0.0 0.0 0.0 0.07698792 
0.0 0.0 0.0 0.0 0.0 0.07698792 
0.0 0.0 0.0 0.0 0.0 0.07698792 
0.0 0.0 0.0 0.0 0.0 0.07698792 
0.0 0.0 0.0 0.0 0.0 0.07698792 
0.0 0.0 0.0 0.0 0.0 0.07698792 
0.3775363 0.0 0.0 0.1803057 0.0 0.46861693 
0.67855567 0.0 0.0 0.23981792 0.0 0.3708482 
0.7030689 0.18682274 0.14504796 0.26321083 0.0 0.0 
0.6265112 0.7234525 0.90356857 0.0406832 0.0 0.0 
0.48594785 0.88820297 1.232923 0.0 0.24351932 0.0 
0.74917275 0.5478355 0.401877 0.0 0.8048481 0.0 
0.81190825 0.65950066 0.0 0.14086512 1.7766603 0.27754655 
0.09066683 1.0722799 0.0 0.39018628 2.3530405 0.65406233 
0.0 1.0608358 0.0 0.42747846 1.8720888 0.66539824 
0.0 0.6032915 0.5282052 0.24313353 1.0941314 0.6006586 
0.0 0.17957234 0.7221751 0.09909077 0.4841586 0.4000517 
0.0 0.0 0.33514875 0.0 0.10970752 0.14255926 
0.0 0.0 0.0 0.0 0.0 0.07896651 
0.0 0.0 0.0 0.0 0.0 0.07698792 
0.0 0.0 0.0 0.0 0.0 0.07698792 
0.0 0.0 0.0 0.0 0.0 0.07698792 
0.0 0.0 0.0 0.0 0.0 0.07698792 
0.0 0.0 0.0 0.0 0.0 0.07698792 
0.0 0.0 0.0 0.0 0.0 0.07698792 
0.0 0.0 0.0 0.0 0.0 0.07698792 
0.0 0.0 0.0 0.0 0.0 0.07698792 
0.0 0.0 0.0 0.0 0.0 0.07698792 
0.0 0.0 0.0 0.0 0.0 0.07698792 
0.0 0.0 0.0 0.0 0.0 0.07698792 
0.0 0.0 0.0 0.0 0.0 0.07698792 
0.0 0.0 0.0 0.0 0.0 0.07698792 
0.0 0.0 0.0 0.0 0.0 0.07698792 
0.0 0.0 0.0 0.0 0.0 0.07698792 
0.402476 0.0 0.0 0.15327623 0.18741088 0.5495528 
0.7220516 0.0 0.0 0.23464988 0.30697885 0.8966425 
0.6001732 0.0 0.0 0.54779494 0.27548018 0.6511127 
0.73566574 0.0 0.0 0.9875699 0.57852113 0.68129665 
0.39284325 0.5996844 0.944808 1.5364149 1.1265455 0.7029047 
0.2954743 0.80271775 0.36622778 1.3065293 1.9579312 0.8536326 
0.0 0.95708674 0.0 0.96612585 2.2946887 1.0184027 
0.0 0.83268565 0.0 0.5417179 1.8939517 0.93821055 
0.0 0.6262443 0.07998612 0.29553667 1.0452685 0.7566916 
0.0 0.20047376 0.49594748 0.06596564 0.5013382 0.50154966 
0.0 0.0 0.3927573 0.0 0.20370866 0.24070264 
0.0 0.0 0.06720864 0.0 0.0075917356 0.093790084 
0.0 0.0 0.0 0.0 0.0 0.07698792 
0.0 0.0 0.0 0.0 0.0 0.07698792 
0.0 0.0 0.0 0.0 0.0 0.07698792 
0.0 0.0 0.0 0.0 0.0 0.07698792 
0.0 0.0 0.0 0.0 0.0 0.07698792 
0.0 0.0 0.0 0.0 0.0 0.07698792 
0.0 0.0 0.0 0.0 0.0 0.07698792 
0.0 0.0 0.0 0.0 0.0 0.07698792 
0.0 0.0 0.0 0.0 0.0 0.07698792 
0.0 0.0 0.0 0.0 0.0 0.07698792 
0.0 0.0 0.0 0.0 0.0 0.07698792 
0.0 0.0 0.0 0.0 0.0 0.07698792 
0.0 0.0 0.0 0.0 0.0 0.07698792 
0.0 0.0 0.0 0.0 0.0 0.07698792 
0.0 0.0 0.0 0.0 0.0 0.07698792 
0.0 0.0 0.0 0.0 0.0 0.07698792 
0.28605154 0.0 0.0 0.0 0.32120404 0.38537595 
0.6835486 0.0 0.0 0.12625161 0.52100873 0.9074175 
0.6494412 0.0 0.0 0.28847262 0.67836624 1.1170161 
0.5440057 0.0139208725 0.0 0.76619416 1.0349408 1.322159 
0.2526199 0.30830476 0.0 1.1089269 1.5634423 1.4274242 
0.09019184 0.82648635 0.0 1.0932615 1.749025 1.3880997 
0.0 0.74851567 0.0 0.51982737 1.46802 1.1807935 
0.0 0.48482025 0.0 0.09368731 0.8654073 0.82429135 
0.0 0.033952802 0.08676011 0.0 0.46222088 0.5088638 
0.0 0.0 0.22288784 0.0 0.23466249 0.28876454 
0.0 0.0 0.10155649 0.0 0.054950673 0.11743398 
0.0 0.0 0.0 0.0 0.0 0.07904261 
0.0 0.0 0.0 0.0 0.0 0.07698792 
0.0 0.0 0.0 0.0 0.0 0.07698792 
0.0 0.0 0.0 0.0 0.0 0.07698792 
0.0 0.0 0.0 0.0 0.0 0.07698792 
0.0 0.0 0.0 0.0 0.0 0.07698792 
0.0 0.0 0.0 0.0 0.0 0.07698792 
0.0 0.0 0.0 0.0 0.0 0.07698792 
0.0 0.0 0.0 0.0 0.0 0.07698792 
0.0 0.0 0.0 0.0 0.0 0.07698792 
0.0 0.0 0.0 0.0 0.0 0.07698792 
0.0 0.0 0.0 0.0 0.0 0.07698792 
0.0 0.0 0.0 0.0 0.0 0.07698792 
0.0 0.0 0.0 0.0 0.0 0.07698792 
0.0 0.0 0.0 0.0 0.0 0.07698792 
0.0 0.0 0.0 0.0 0.0 0.07698792 
0.0 0.0 0.0 0.0 0.0 0.07698792 
0.059916794 0.0 0.0 0.0 0.125948 0.173527 
0.43030477 0.0 0.0 0.0 0.46956977 0.5399514 
0.64315987 0.0 0.0 0.0 0.81306034 0.9455864 
0.56597036 0.0 0.0 0.0 1.1071225 1.2235425 
0.33630556 0.0 0.0 0.0 1.252643 1.2980981 
0.0 0.0 0.0 0.0 1.0748852 1.0234487 
0.0 0.0 0.0 0.0 0.6786496 0.68633145 
0.0 0.0 0.0 0.0 0.40124515 0.40622157 
0.0 0.0 0.004326068 0.0 0.21038394 0.22807637 
0.0 0.0 0.015966699 0.0 0.05308764 0.114286005 
0.0 0.0 0.0 0.0 0.0 0.08003191 
0.0 0.0 0.0 0.0 0.0 0.07698792 
0.0 0.0 0.0 0.0 0.0 0.07698792 
0.0 0.0 0.0 0.0 0.0 0.07698792 
0.0 0.0 0.0 0.0 0.0 0.07698792 
0.0 0.0 0.0 0.0 0.0 0.07698792 
0.0 0.0 0.0 0.0 0.0 0.07698792 
0.0 0.0 0.0 0.0 0.0 0.07698792 
0.0 0.0 0.0 0.0 0.0 0.07698792 
0.0 0.0 0.0 0.0 0.0 0.07698792 
0.0 0.0 0.0 0.0 0.0 0.07698792 
0.0 0.0 0.0 0.0 0.0 0.07698792 
0.0 0.0 0.0 0.0 0.0 0.07698792 
0.0 0.0 0.0 0.0 0.0 0.07698792 
0.0 0.0 0.0 0.0 0.0 0.07698792 
0.0 0.0 0.0 0.0 0.0 0.07698792 
0.0 0.0 0.0 0.0 0.0 0.07698792 
0.0 0.0 0.0 0.0 0.0 0.07698792 
0.0 0.0 0.0 0.0 0.0 0.08688994 
0.11948149 0.0 0.0 0.0 0.23503534 0.20686202 
0.29993486 0.0 0.0 0.0 0.5059467 0.34721917 
0.28622863 0.0 0.0 0.0 0.62115574 0.38754526 
0.10090765 0.0 0.0 0.0 0.54683286 0.39641094 
0.0 0.0 0.0 0.0 0.39491898 0.3105775 
0.0 0.0 0.0 0.0 0.24561997 0.23367256 
0.0 0.0 0.00021310896 0.0 0.09916578 0.14297053 
0.0 0.0 0.0 0.0 0.0 0.0833803 
0.0 0.0 0.0 0.0 0.0 0.07698792 
0.0 0.0 0.0 0.0 0.0 0.07698792 
0.0 0.0 0.0 0.0 0.0 0.07698792 
0.0 0.0 0.0 0.0 0.0 0.07698792 
0.0 0.0 0.0 0.0 0.0 0.07698792 
0.0 0.0 0.0 0.0 0.0 0.07698792 
0.0 0.0 0.0 0.0 0.0 0.07698792 
0.0 0.0 0.0 0.0 0.0 0.07698792 
0.0 0.0 0.0 0.0 0.0 0.07698792 
0.0 0.0 0.0 0.0 0.0 0.07698792 
0.0 0.0 0.0 0.0 0.0 0.07698792 
0.0 0.0 0.0 0.0 0.0 0.07698792 
0.0 0.0 0.0 0.0 0.0 0.07698792 
0.0 0.0 0.0 0.0 0.0 0.07698792 
0.0 0.0 0.0 0.0 0.0 0.07698792 
0.0 0.0 0.0 0.0 0.0 0.07698792 
0.0 0.0 0.0 0.0 0.0 0.07698792 
0.0 0.0 0.0 0.0 0.0 0.07698792 
0.0 0.0 0.0 0.0 0.0 0.07698792 
0.0 0.0 0.0 0.0 0.0 0.07698792 
0.0 0.0 0.0 0.0 0.0 0.07698792 
0.0 0.0 0.0 0.0 0.0 0.07698792 
0.0 0.0 0.0 0.0 0.0 0.07698792 
0.0 0.0 0.0 0.0 0.0 0.07698792 
0.0 0.0 0.0 0.0 0.0 0.07698792 
0.0 0.0 0.0 0.0 0.0 0.07698792 
0.0 0.0 0.0 0.0 0.0 0.07698792 
0.0 0.0 0.0 0.0 0.0 0.07698792 
0.0 0.0 0.0 0.0 0.0 0.07698792 
0.0 0.0 0.0 0.0 0.0 0.07698792 
0.0 0.0 0.0 0.0 0.0 0.07698792 
0.0 0.0 0.0 0.0 0.0 0.07698792 
0.0 0.0 0.0 0.0 0.0 0.07698792 
0.0 0.0 0.0 0.0 0.0 0.07698792 
0.0 0.0 0.0 0.0 0.0 0.07698792 
0.0 0.0 0.0 0.0 0.0 0.07698792 
0.0 0.0 0.0 0.0 0.0 0.07698792 
0.0 0.0 0.0 0.0 0.0 0.07698792 
0.0 0.0 0.0 0.0 0.0 0.07698792 

