0.0 0.0 0.0 0.0 0.0 0.07698792 
0.0 0.0 0.0 0.0 0.0 0.07698792 
0.0 0.0 0.0 0.0 0.0 0.07698792 
0.0 0.0 0.0 0.0 0.0 0.07698792 
0.0 0.0 0.0 0.0 0.0 0.07698792 
0.0 0.0 0.0 0.0 0.0 0.07698792 
0.0 0.0 0.0 0.0 0.0 0.07698792 
0.0 0.0 0.0 0.0 0.0 0.07698792 
0.0 0.0 0.0 0.0 0.0 0.07698792 
0.0 0.0 0.0 0.0 0.0 0.07698792 
0.0 0.0 0.0 0.0 0.0 0.07698792 
0.0 0.0 0.0 0.0 0.0 0.07698792 
0.0 0.0 0.0 0.0 0.0 0.07698792 
0.0 0.0 0.0 0.0 0.0 0.07698792 
0.0 0.0 0.0 0.0 0.0 0.07698792 
0.0 0.0 0.0 0.0 0.0 0.07698792 
0.0 0.0 0.0 0.0 0.0 0.07698792 
0.0 0.0 0.0 0.0 0.0 0.07698792 
0.0 0.0 0.0 0.0 0.0 0.07698792 
0.0 0.0 0.0 0.0 0.0 0.07698792 
0.0 0.0 0.0 0.0 0.0 0.07698792 
0.0 0.0 0.0 0.0 0.0 0.07698792 
0.0 0.0 0.0 0.0 0.0 0.07698792 
0.0 0.0 0.0 0.0 0.0 0.07698792 
0.0 0.0 0.0 0.0 0.0 0.07698792 
0.0 0.0 0.0 0.0 0.0 0.07698792 
0.0 0.0 0.0 0.0 0.0 0.07698792 
0.0 0.0 0.0 0.0 0.0 0.07698792 
0.0 0.0 0.0 0.0 0.0 0.07698792 
0.0 0.0 0.0 0.0 0.0 0.07698792 
0.0 0.0 0.0 0.0 0.0 0.07698792 
0.0 0.0 0.0 0.0 0.0 0.07698792 
0.0 0.0 0.0 0.0 0.0 0.07698792 
0.0 0.0 0.0 0.0 0.0 0.07698792 
0.0 0.0 0.0 0.0 0.0 0.07698792 
0.0 0.0 0.0 0.0 0.0 0.07698792 
0.0 0.0 0.0 0.0 0.0 0.07698792 
0.0 0.0 0.0 0.0 0.0 0.07698792 
0.0 0.0 0.0 0.0 0.0 0.07698792 
0.0 0.0 0.0 0.0 0.0 0.07698792 
0.0 0.0 0.0 0.0 0.0 0.07698792 
0.0 0.0 0.0 0.0 0.0 0.07698792 
0.0 0.0 0.0 0.0 0.0 0.07698792 
0.0 0.0 0.0 0.0 0.0 0.07698792 
0.0 0.0 0.0 0.0 0.0 0.07698792 
0.0 0.0 0.0 0.0 0.0 0.07698792 
0.0 0.0 0.0 0.0 0.0 0.07698792 
0.0 0.0 0.0 0.0 0.0 0.07698792 
0.0 0.0 0.0 0.0 0.0 0.07698792 
0.0 0.0 0.0 0.0 0.0 0.07698792 
0.0 0.0 0.0 0.0 0.0 0.07698792 
0.0 0.0 0.0 0.0 0.0 0.07698792 
0.0 0.0 0.0 0.0 0.0 0.07698792 
0.0 0.0 0.0 0.0 0.0 0.07698792 
0.0 0.0 0.0 0.0 0.0 0.07698792 
0.0 0.0 0.0 0.0 0.0 0.07698792 
0.0 0.0 0.0 0.0 0.0 0.07698792 
0.0 0.0 0.0 0.0 0.0 0.07698792 
0.0 0.0 0.0 0.0 0.0 0.07698792 
0.0 0.0 0.0 0.0 0.0 0.07698792 
0.0 0.0 0.0 0.0 0.0 0.07698792 
0.0 0.0 0.0 0.0 0.0 0.07698792 
0.0 0.0 0.0 0.0 0.0 0.07698792 
0.0 0.0 0.0 0.0 0.0 0.07698792 
0.0 0.0 0.0 0.0 0.0 0.07698792 
0.0 0.0 0.0 0.0 0.0 0.07698792 
0.0 0.0 0.0 0.0 0.0 0.07698792 
0.0 0.0 0.0 0.0 0.0 0.07698792 
0.0 0.0 0.0 0.0 0.0 0.07698792 
0.0 0.0 0.0 0.0 0.0 0.07698792 
0.0 0.0 0.0 0.0 0.0 0.07698792 
0.0 0.0 0.0 0.0 0.0 0.07698792 
0.0 0.0 0.0 0.0 0.0 0.07698792 
0.0 0.0 0.0 0.0 0.0 0.07698792 
0.0 0.0 0.0 0.0 0.0 0.07698792 
0.0 0.0 0.0 0.0 0.0 0.07698792 
0.0 0.0 0.0 0.0 0.0 0.07698792 
0.0 0.0 0.0 0.0 0.0 0.07698792 
0.0 0.0 0.0 0.0 0.0 0.07698792 
0.0 0.0 0.0 0.0 0.0 0.07698792 
0.0 0.0 0.0 0.0 0.0 0.07698792 
0.0 0.0 0.0 0.0 0.0 0.07698792 
0.0 0.0 0.0 0.0 0.0 0.07698792 
0.0 0.0 0.0 0.0 0.0 0.07698792 
0.0 0.0 0.0 0.0 0.0 0.07698792 
0.0 0.0 0.0 0.0 0.0 0.07698792 
0.0 0.0 0.0 0.0 0.0 0.07698792 
0.0 0.0 0.0 0.0 0.0 0.07698792 
0.0 0.0 0.0 0.0 0.0 0.07698792 
0.0 0.0 0.0 0.0 0.0 0.07698792 
0.0 0.0 0.0 0.0 0.0 0.07698792 
0.0 0.0 0.0 0.0 0.0 0.07698792 
0.0 0.0 0.0 0.0 0.0 0.07698792 
0.0 0.0 0.0 0.0 0.0 0.07698792 
0.0 0.0 0.0 0.0 0.0 0.07698792 
0.0 0.0 0.0 0.0 0.0 0.07698792 
0.0 0.0 0.0 0.0 0.0 0.07698792 
0.0 0.0 0.0 0.0 0.0 0.07698792 
0.0 0.0 0.0 0.0 0.0 0.07698792 
0.0 0.0 0.0 0.0 0.0 0.07698792 
0.0 0.0 0.0 0.0 0.0 0.07698792 
0.0 0.0 0.0 0.0 0.0 0.07698792 
0.0 0.0 0.0 0.0 0.0 0.07698792 
0.0 0.0 0.0035614632 0.0 0.0 0.048327886 
0.13873625 0.0 0.13588676 0.0 0.0 0.0 
0.30104873 0.10765674 0.2589348 0.0 0.0 0.0 
0.23821542 0.34801772 0.23270825 0.0 0.0 0.0 
0.0033159256 0.42182818 0.21804854 0.0 0.0 0.0 
0.0 0.37302008 0.16190702 0.0 0.054218885 0.0 
0.0 0.19484176 0.030457497 0.0 0.081361055 0.0 
0.0 0.030453805 0.0 0.0 0.0 0.041032698 
0.0 0.0 0.0 0.0 0.0 0.07698792 
0.0 0.0 0.0 0.0 0.0 0.07698792 
0.0 0.0 0.0 0.0 0.0 0.07698792 
0.0 0.0 0.0 0.0 0.0 0.07698792 
0.0 0.0 0.0 0.0 0.0 0.07698792 
0.0 0.0 0.0 0.0 0.0 0.07698792 
0.0 0.0 0.0 0.0 0.0 0.07698792 
0.0 0.0 0.0 0.0 0.0 0.07698792 
0.0 0.0 0.0 0.0 0.0 0.07698792 
0.0 0.0 0.0 0.0 0.0 0.07698792 
0.0 0.0 0.0 0.0 0.0 0.07698792 
0.0 0.0 0.0 0.0 0.0 0.07698792 
0.0 0.0 0.0 0.0 0.0 0.07698792 
0.0 0.0 0.0 0.0 0.0 0.07698792 
0.0 0.0 0.0 0.0 0.0 0.07698792 
0.0 0.0 0.0 0.0 0.0 0.07698792 
0.0 0.0 0.0 0.0 0.0 0.07698792 
0.0 0.0 0.0 0.0 0.0 0.07698792 
0.0 0.0 0.0 0.0 0.0 0.07698792 
0.012954414 0.0 0.048533037 0.0 0.0 0.027209967 
0.26994246 0.0 0.15535086 0.0 0.0 0.0 
0.555085 0.005429036 0.23859382 0.0 0.0 0.0 
0.8044713 0.2081105 0.4046455 0.0 0.0 0.0 
0.7129982 0.7738822 0.66781604 0.0 0.0 0.0 
0.07464172 1.1944364 0.7023533 0.0 0.34119833 0.0 
0.0 0.92820024 0.685865 0.0 0.5766613 0.0 
0.0 0.3783838 0.32555708 0.0 0.4913015 0.0 
0.0 0.08355312 0.012187868 0.0 0.1336912 0.0 
0.0 0.0 0.0 0.0 0.0 0.07698792 
0.0 0.0 0.0 0.0 0.0 0.07698792 
0.0 0.0 0.0 0.0 0.0 0.07698792 
0.0 0.0 0.0 0.0 0.0 0.07698792 
0.0 0.0 0.0 0.0 0.0 0.07698792 
0.0 0.0 0.0 0.0 0.0 0.07698792 
0.0 0.0 0.0 0.0 0.0 0.07698792 
0.0 0.0 0.0 0.0 0.0 0.07698792 
0.0 0.0 0.0 0.0 0.0 0.07698792 
0.0 0.0 0.0 0.0 0.0 0.07698792 
0.0 0.0 0.0 0.0 0.0 0.07698792 
0.0 0.0 0.0 0.0 0.0 0.07698792 
0.0 0.0 0.0 0.0 0.0 0.07698792 
0.0 0.0 0.0 0.0 0.0 0.07698792 
0.0 0.0 0.0 0.0 0.0 0.07698792 
0.0 0.0 0.0 0.0 0.0 0.07698792 
0.0 0.0 0.0 0.0 0.0 0.07698792 
0.0 0.0 0.0 0.0 0.0 0.07321686 
0.009219989 0.0 0.03475157 0.0 0.0 0.02414456 
0.27970225 0.0 0.124090634 0.0 0.0 0.0 
0.733147 0.0 0.19114032 0.0 0.0 0.0 
1.1382136 0.0 0.21579993 0.0 0.0 0.0 
1.0532446 0.4241393 0.31788525 0.0 0.12443416 0.0 
0.2831215 0.95723337 0.76416475 0.021793809 0.82940096 0.0 
0.0 1.290616 1.167239 0.30755246 1.3040229 0.0 
0.0 1.1666243 1.2338023 0.3259258 1.1304716 0.0 
0.0 0.63206273 0.85491174 0.15692693 0.6384489 0.0 
0.0 0.07463862 0.1544334 0.0 0.24502276 0.0 
0.0 0.0 0.0 0.0 0.0 0.07698792 
0.0 0.0 0.0 0.0 0.0 0.07698792 
0.0 0.0 0.0 0.0 0.0 0.07698792 
0.0 0.0 0.0 0.0 0.0 0.07698792 
0.0 0.0 0.0 0.0 0.0 0.07698792 
0.0 0.0 0.0 0.0 0.0 0.07698792 
0.0 0.0 0.0 0.0 0.0 0.07698792 
0.0 0.0 0.0 0.0 0.0 0.07698792 
0.0 0.0 0.0 0.0 0.0 0.07698792 
0.0 0.0 0.0 0.0 0.0 0.07698792 
0.0 0.0 0.0 0.0 0.0 0.07698792 
0.0 0.0 0.0 0.0 0.0 0.07698792 
0.0 0.0 0.0 0.0 0.0 0.07698792 
0.0 0.0 0.0 0.0 0.0 0.07698792 
0.0 0.0 0.0 0.0 0.0 0.07698792 
0.0 0.0 0.0 0.0 0.0 0.07698792 
0.0 0.0 0.0 0.0 0.0 0.07698792 
0.0 0.0 0.0015474185 0.0 0.0 0.0497065 
0.25373018 0.0 0.131488 0.0 0.0 0.0 
0.7864758 0.0 0.128405 0.0 0.0 0.0 
1.2434366 0.0 0.083542965 0.0 0.0 0.0 
1.2421911 0.46195957 0.01955726 0.06324682 0.41548494 0.0 
0.6234169 1.0836872 0.13852105 0.54569924 1.4498599 0.09791182 
0.0 1.4057487 0.44534874 0.8968628 1.8924491 0.3948962 
0.0 1.394644 1.0862608 1.0999784 1.5669228 0.34749174 
0.0 0.945624 1.3426799 0.9795273 0.98548585 0.3187854 
0.0 0.6568781 1.1394424 0.64281815 0.3959206 0.24477331 
0.0 0.20786984 0.35466483 0.17301133 0.10019681 0.07291821 
0.0 0.0 0.0 0.0 0.0 0.07698792 
0.0 0.0 0.0 0.0 0.0 0.07698792 
0.0 0.0 0.0 0.0 0.0 0.07698792 
0.0 0.0 0.0 0.0 0.0 0.07698792 
0.0 0.0 0.0 0.0 0.0 0.07698792 
0.0 0.0 0.0 0.0 0.0 0.07698792 
0.0 0.0 0.0 0.0 0.0 0.07698792 
0.0 0.0 0.0 0.0 0.0 0.07698792 
0.0 0.0 0.0 0.0 0.0 0.07698792 
0.0 0.0 0.0 0.0 0.0 0.07095423 
0.03546606 0.0 0.06197811 0.0 0.0 0.0056372434 
0.13510825 0.07485311 0.07995734 0.0 0.0 0.0 
0.02258455 0.1616534 0.05159495 0.0 0.0 0.0 
0.0 0.18372935 0.07153923 0.0 0.0 0.0 
0.0 0.1541494 0.024643242 0.0 0.021192197 0.0 
0.0 0.04448177 0.0 0.0 0.0 0.028005447 
0.0 0.0 0.0 0.0 0.0 0.053230263 
0.21853057 0.0 0.1296595 0.0 0.0 0.0 
0.73629355 0.0 0.11545596 0.0 0.0 0.0 
1.3028274 0.0 0.06835329 0.0 0.0 0.0 
1.4717927 0.43831804 0.0 0.0 0.54858637 0.0 
0.79880023 1.1076542 0.0 0.2656087 1.8346264 0.23526932 
0.0323247 1.3689973 0.0 0.468726 2.534056 0.7104004 
0.0 1.1861907 0.0 0.58297724 2.1922922 1.1038384 
0.0 0.78263354 0.108360566 0.3657565 1.331206 0.9620759 
0.0 0.41686374 0.5227717 0.24285373 0.6063666 0.6062655 
0.0 0.10410542 0.6695538 0.16402596 0.23879607 0.35000136 
0.0 0.10361274 0.33754522 0.12547685 0.023430008 0.123376004 
0.0 0.0 0.0 0.0 0.0 0.07698792 
0.0 0.0 0.0 0.0 0.0 0.07698792 
0.0 0.0 0.0 0.0 0.0 0.07698792 
0.0 0.0 0.0 0.0 0.0 0.07698792 
0.0 0.0 0.0 0.0 0.0 0.07698792 
0.0 0.0 0.0 0.0 0.0 0.07698792 
0.0 0.0 0.0 0.0 0.0 0.07698792 
0.0 0.0 0.0 0.0 0.0 0.07698792 
0.0 0.0 0.0 0.0 0.0 0.07698792 
0.0049257353 0.0 0.018970072 0.0 0.0 0.041784815 
0.3064837 0.0 0.13021722 0.0 0.0 0.0 
0.51925546 0.107869074 0.22559059 0.0 0.0 0.0 
0.28330886 0.49074584 0.25662783 0.0 0.0 0.0 
0.0 0.692683 0.39746755 0.0 0.16221999 0.0 
0.0 0.41125956 0.2863113 0.0 0.3541714 0.0 
0.0 0.068075836 0.021358334 0.0 0.15603538 0.0 
0.056264162 0.0 0.025485016 0.0 0.0 0.04075989 
0.56771743 0.0 0.051524766 0.0 0.0 0.0 
1.3025925 0.0 0.012612157 0.0 0.0 0.0136651695 
1.6335475 0.19685102 0.0 0.035088312 0.43863907 0.036160737 
0.98854107 1.038646 0.0 0.2080098 1.789982 0.20225683 
0.0 1.4531528 0.0 0.21020253 2.5746224 0.509792 
0.0 1.1420989 0.0 0.08999704 2.3774407 0.8922321 
0.0 0.41441438 0.0 0.0 1.6251124 0.95006275 
0.0 0.045880817 0.0 0.0 0.7563701 0.65350723 
0.0 0.0 0.0 0.0 0.3583369 0.35310724 
0.0 0.0 0.025776498 0.0 0.17286325 0.23300485 
0.0 0.0 0.10734663 0.0 0.027255077 0.09924084 
0.0 0.0 0.0 0.0 0.0 0.07698792 
0.0 0.0 0.0 0.0 0.0 0.07698792 
0.0 0.0 0.0 0.0 0.0 0.07698792 
0.0 0.0 0.0 0.0 0.0 0.07698792 
0.0 0.0 0.0 0.0 0.0 0.07698792 
0.0 0.0 0.0 0.0 0.0 0.07698792 
0.0 0.0 0.0 0.0 0.0 0.07698792 
0.0 0.0 0.0 0.0 0.0 0.07698792 
0.0 0.0 0.0 0.0 0.0 0.06265791 
0.19794011 0.0 0.08369403 0.0 0.0 0.0 
0.7780301 0.0 0.08074533 0.0 0.0 0.0 
0.88921136 0.12424748 0.16976422 0.0 0.0 0.0 
0.26978338 0.856507 0.47777206 0.0 0.34167385 0.0 
0.0 1.1199232 0.84717757 0.0 0.75085527 0.0 
0.0 0.63734126 0.7369924 0.0 0.72978216 0.0 
0.0 0.10173382 0.20695761 0.0 0.21443073 0.0 
0.26495072 0.0 0.03538858 0.0 0.0 0.056530386 
1.0654349 0.0 0.0 0.0 0.0 0.14722478 
1.6354697 0.0 0.0 0.11739468 0.19735943 0.2544191 
1.3654191 0.66052645 0.0 0.304561 1.4784921 0.3314668 
0.21864581 1.4915572 0.0 0.2632666 2.414399 0.44793484 
0.0 1.305377 0.0 0.14421692 2.362043 0.6647006 
0.0 0.6136849 0.30021676 0.01445311 1.4882189 0.71128243 
0.0 0.0499127 0.29785198 0.0 0.6660641 0.48387018 
0.0 0.0 0.07976607 0.0 0.2727327 0.27940536 
0.0 0.0 0.0 0.0 0.07574652 0.12055059 
0.0 0.0 0.0 0.0 0.0 0.10156906 
0.0 0.0 0.0 0.0 0.0 0.07980361 
0.0 0.0 0.0 0.0 0.0 0.07698792 
0.0 0.0 0.0 0.0 0.0 0.07698792 
0.0 0.0 0.0 0.0 0.0 0.07698792 
0.0 0.0 0.0 0.0 0.0 0.07698792 
0.0 0.0 0.0 0.0 0.0 0.07698792 
0.0 0.0 0.0 0.0 0.0 0.07698792 
0.0 0.0 0.0 0.0 0.0 0.07698792 
0.0 0.0 0.0 0.0 0.0 0.06265791 
0.13637248 0.0 0.121176235 0.0 0.0 0.0 
0.64417446 0.0 0.080369346 0.0 0.0 0.0 
1.3134971 0.0 0.031104304 0.0 0.0 0.0 
1.1987686 0.6249086 0.046455614 0.0 0.33619612 0.0 
0.0 1.53426 0.5558827 0.0 1.0273671 0.0 
0.0 1.4191153 1.2640009 0.117611535 1.2053384 0.0 
0.0 0.7927189 1.1750332 0.11988787 0.8266214 0.0 
0.0 0.15211368 0.51332146 0.028293248 0.016130764 0.0 
0.6791205 0.0 0.0 0.0 0.0 0.05191098 
1.5304325 0.0 0.0 0.0 0.0 0.2869281 
1.7589266 0.305011 0.0 0.0 1.0396929 0.35098124 
0.6590383 1.3256613 0.0 0.08748233 2.0713048 0.34511763 
0.0 1.4335666 0.0 0.032471385 2.3489392 0.4562498 
0.0 0.9067654 0.48728085 0.055452537 1.6283945 0.63157374 
0.0 0.19120406 0.6218846 0.02054581 0.69766617 0.4785294 
0.0 0.0 0.35425892 0.0 0.22338165 0.24402349 
0.0 0.0 0.04384005 0.0 0.02341694 0.09942621 
0.0 0.0 0.0 0.0 0.0 0.07797722 
0.0 0.0 0.0 0.0 0.0 0.07698792 
0.0 0.0 0.0 0.0 0.0 0.07698792 
0.0 0.0 0.0 0.0 0.0 0.07698792 
0.0 0.0 0.0 0.0 0.0 0.07698792 
0.0 0.0 0.0 0.0 0.0 0.07698792 
0.0 0.0 0.0 0.0 0.0 0.07698792 
0.0 0.0 0.0 0.0 0.0 0.07698792 
0.0 0.0 0.0 0.0 0.0 0.07698792 
0.0 0.0 0.0 0.0 0.0 0.07434818 
0.09046015 0.0 0.09226548 0.0 0.0 0.0016428754 
0.5323783 0.0 0.11853398 0.0 0.0 0.0 
1.1930473 0.0 0.06394746 0.0 0.0 0.0 
1.7350457 0.09474385 0.0 0.0 0.294257 0.0 
0.8824791 1.2061019 0.0 0.0026037293 1.3742813 0.0 
0.0 1.6659226 0.2962712 0.115293466 1.7832202 0.0 
0.0 1.3722878 1.244369 0.26117823 1.3964456 0.12383368 
0.0 0.5213566 1.2715081 0.15990797 0.74631846 0.14632958 
0.058372825 0.0 0.50176543 0.0 0.0 0.0 
1.2055135 0.0 0.0 0.0 0.0 0.12201541 
1.8914022 0.0 0.0 0.0 0.48565248 0.317536 
1.2652469 0.94703305 0.0 0.0 1.6789684 0.20539631 
0.0 1.4501384 0.0 0.0 2.3728712 0.24697646 
0.0 1.230735 0.3491453 0.0 1.8697276 0.46836826 
0.0 0.3035506 0.7105471 0.0 1.053806 0.4563952 
0.0 0.017039116 0.47852963 0.0 0.28578877 0.30350155 
0.0 0.0 0.12199741 0.0 0.04887608 0.11037539 
0.0 0.0 0.0 0.0 0.0 0.07797722 
0.0 0.0 0.0 0.0 0.0 0.07698792 
0.0 0.0 0.0 0.0 0.0 0.07698792 
0.0 0.0 0.0 0.0 0.0 0.07698792 
0.0 0.0 0.0 0.0 0.0 0.07698792 
0.0 0.0 0.0 0.0 0.0 0.07698792 
0.0 0.0 0.0 0.0 0.0 0.07698792 
0.0 0.0 0.0 0.0 0.0 0.07698792 
0.0 0.0 0.0 0.0 0.0 0.07698792 
0.0 0.0 0.0 0.0 0.0 0.07434818 
0.03624901 0.0 0.06261207 0.0 0.0 0.014225803 
0.4248109 0.0 0.09194914 0.0 0.0 0.0 
1.070318 0.0 0.09713856 0.0 0.0 0.0 
1.6664774 0.0 0.0 0.0 0.080862835 0.0 
1.4798839 0.70399725 0.0 0.050177034 1.4398327 0.13506503 
0.1491562 1.4533238 0.0 0.11708096 2.277285 0.122705474 
0.0 1.5008996 0.460464 0.2592439 1.9181985 0.086670145 
0.0 0.86834604 1.1866993 0.18572469 1.2643832 0.31019112 
0.0 0.23208839 1.220352 0.0 0.30106768 0.022135805 
0.696008 0.0 0.3425721 0.0 0.0 0.0 
1.5938032 0.0 0.0 0.0 0.0 0.09730609 
1.7002721 0.4077597 0.0 0.0 1.1886659 0.2013822 
0.38022012 1.4003128 0.0 0.0 2.1830814 0.1347791 
0.0 1.440056 0.07746146 0.039227795 2.108409 0.2381745 
0.0 0.7330257 0.84006286 0.01235081 1.3847553 0.47900063 
0.0 0.14153862 0.702639 0.009307862 0.5655611 0.32178056 
0.0 0.0 0.18979645 0.0 0.09630671 0.141186 
0.0 0.0 0.0 0.0 0.0 0.08026021 
0.0 0.0 0.0 0.0 0.0 0.07698792 
0.0 0.0 0.0 0.0 0.0 0.07698792 
0.0 0.0 0.0 0.0 0.0 0.07698792 
0.0 0.0 0.0 0.0 0.0 0.07698792 
0.0 0.0 0.0 0.0 0.0 0.07698792 
0.0 0.0 0.0 0.0 0.0 0.07698792 
0.0 0.0 0.0 0.0 0.0 0.07698792 
0.0 0.0 0.0 0.0 0.0 0.07698792 
0.0 0.0 0.0 0.0 0.0 0.07698792 
0.0 0.0 0.0 0.0 0.0 0.06780881 
0.23066387 0.0 0.08797046 0.0 0.0 0.0 
0.96357805 0.0 0.038738623 0.0 0.0 0.0 
1.6169121 0.0 0.0 0.0 0.0 0.011544667 
1.7936947 0.5132705 0.0 0.0 0.9290371 0.0 
0.976011 1.4924456 0.0 0.0 2.10142 0.0 
0.0 1.8814437 0.27244067 0.0 2.0659883 0.0 
0.0 1.5452255 1.1311398 0.0 1.3340887 0.0 
0.0 0.9521715 1.4602214 0.0 0.6475557 0.0 
0.19973409 0.4709888 1.1522617 0.0 0.0 0.0 
1.1763484 0.07578851 0.41910732 0.0 0.0 0.0 
1.7426028 0.29476684 0.0 0.0 0.89771193 0.0 
0.96969336 1.2129905 0.0 0.03204319 1.9251851 0.19091992 
0.0 1.5639617 0.0 0.008107019 2.297447 0.19050208 
0.0 1.2057445 0.70954746 0.15590227 1.6690464 0.4029545 
0.0 0.34454694 0.9768368 0.10896366 0.87461996 0.44163018 
0.0 0.05687213 0.57400274 0.08592695 0.20299803 0.19555575 
0.0 0.0 0.0 0.0 0.0 0.083151996 
0.0 0.0 0.0 0.0 0.0 0.07698792 
0.0 0.0 0.0 0.0 0.0 0.07698792 
0.0 0.0 0.0 0.0 0.0 0.07698792 
0.0 0.0 0.0 0.0 0.0 0.07698792 
0.0 0.0 0.0 0.0 0.0 0.07698792 
0.0 0.0 0.0 0.0 0.0 0.07698792 
0.0 0.0 0.0 0.0 0.0 0.07698792 
0.0 0.0 0.0 0.0 0.0 0.07698792 
0.0 0.0 0.0 0.0 0.0 0.07698792 
0.0 0.0 0.0 0.0 0.0 0.07698792 
0.0 0.0 0.0 0.0 0.0 0.08067478 
0.49070996 0.0 0.0 0.0 0.0 0.18368244 
1.4561043 0.0 0.0 0.14499159 0.0 0.32120755 
1.9957595 0.0 0.0 0.10081974 0.6016127 0.3491751 
1.6133347 1.0130523 0.0 0.09654404 1.4894936 0.15026826 
0.67044204 1.6120892 0.038584225 0.0 2.1985593 0.0 
0.01212053 1.7139671 0.82634 0.0 1.7299334 0.0 
0.0 1.2117157 1.4731774 0.0 1.083568 0.0 
0.10599451 1.0050898 1.5229257 0.0 0.7008718 0.0 
0.5619611 0.6112023 1.0990691 0.0 0.52786815 0.0 
1.2318766 0.56598014 0.5672149 0.0 0.954531 0.0 
1.3232629 0.9819773 0.0 0.0 1.8532566 0.0 
0.3893663 1.7030033 0.0 0.0 2.2562456 0.0 
0.0 1.8474119 0.46260947 0.0 1.9504236 0.0 
0.0 0.9678842 1.0764604 0.0 1.3142129 0.0 
0.0 0.40551415 0.8511438 0.0 0.56897086 0.0024110898 
0.0 0.0 0.28134102 0.0 0.14732818 0.041271277 
0.0 0.0 0.0 0.0 0.0 0.07698792 
0.0 0.0 0.0 0.0 0.0 0.07698792 
0.0 0.0 0.0 0.0 0.0 0.07698792 
0.0 0.0 0.0 0.0 0.0 0.07698792 
0.0 0.0 0.0 0.0 0.0 0.07698792 
0.0 0.0 0.0 0.0 0.0 0.07698792 
0.0 0.0 0.0 0.0 0.0 0.07698792 
0.0 0.0 0.0 0.0 0.0 0.07698792 
0.0 0.0 0.0 0.0 0.0 0.07698792 
0.0 0.0 0.0 0.0 0.0 0.07698792 
0.0 0.0 0.0 0.0 0.0 0.07698792 
0.0 0.0 0.0 0.010627329 0.0 0.117910355 
0.6803151 0.0 0.0 0.20084435 0.0 0.5402893 
1.6913893 0.0 0.0 0.32832268 0.28895792 0.8946988 
1.9854777 0.03220008 0.0 0.44798878 1.1469809 0.8467149 
1.3309183 0.87938774 0.0 0.4170421 1.8419025 0.71505296 
0.30139947 1.3270924 0.24413535 0.274261 2.1886137 0.33676094 
0.0 1.0681155 1.1219012 0.3767999 1.8711351 0.17689824 
0.10640186 0.7915783 1.5900307 0.53557986 1.5462806 0.0985784 
0.30252874 0.89027345 1.5554074 0.55591387 1.2723378 0.0 
0.78633523 0.92432123 1.1829699 0.5623486 1.3042629 0.0 
1.2238913 1.1043586 0.73842233 0.34262818 1.8332131 0.085170224 
0.91529167 1.6111368 0.25194004 0.0 2.1609764 0.0 
0.25884867 1.7997202 0.4390752 0.0 1.9598633 0.0 
0.0 1.8863522 1.5540675 0.0 1.5008907 0.0 
0.0 1.4050833 1.7527626 0.0 1.0402235 0.0 
0.0 0.8394206 1.1389929 0.0 0.6406995 0.0 
0.0 0.401804 0.36947945 0.0 0.3259443 0.0 
0.0 0.29720715 0.10019416 0.0 0.08182661 0.0 
0.0 0.10913248 0.0 0.0 0.03220867 0.0 
0.0 0.007447942 0.0 0.0 0.0 0.062397398 
0.0 0.0 0.0 0.0 0.0 0.07698792 
0.0 0.0 0.0 0.0 0.0 0.07698792 
0.0 0.0 0.0 0.0 0.0 0.07698792 
0.0 0.0 0.0 0.0 0.0 0.07698792 
0.0 0.0 0.0 0.0 0.0 0.07698792 
0.0 0.0 0.0 0.0 0.0 0.07698792 
0.0 0.0 0.0 0.0 0.0 0.07698792 
0.0 0.0 0.0 0.0 0.0 0.07698792 
0.0029312149 0.0 0.0 0.026941411 0.0 0.14864993 
0.74045306 0.0 0.0 0.22236101 0.24375053 0.8210528 
1.448771 0.0 0.0 0.40869498 0.8601332 1.4240217 
1.4607065 0.0 0.0 0.72291714 1.5577713 1.5412667 
0.9714362 0.43777242 0.0 1.0441419 2.0734365 1.7288179 
0.0 0.9268169 0.0 1.3509468 2.2403011 1.5549579 
0.0 0.6908765 0.5101542 1.3701565 2.1364453 1.4679997 
0.3697459 0.6002953 0.69873726 1.4472814 1.7263272 1.3852139 
0.79810256 0.8552608 0.7086125 1.3555185 1.3660712 0.99427944 
1.1125219 1.0956631 0.4815467 1.0160573 1.727435 0.80487007 
0.99949247 1.3702992 0.36247367 0.82961017 2.2497213 0.83382136 
0.44153792 1.3274541 0.24035868 0.47013274 2.4565315 0.60939497 
0.043840453 1.2889771 0.6654772 0.46451068 1.9349554 0.31461257 
0.0 1.1868415 1.8007839 0.34606656 1.4111911 0.0 
0.0 1.351496 2.2404459 0.012737391 1.0334116 0.0 
0.0 1.4294231 1.8052366 0.0 0.79460716 0.0 
0.0 1.3113257 1.0766956 0.0 0.67221457 0.0 
0.0 0.73808795 0.58133334 0.0 0.57213706 0.0 
0.0 0.2973026 0.20408475 0.0 0.34327367 0.0 
0.0 0.06873733 0.0 0.0 0.058065254 0.0 
0.0 0.0 0.0 0.0 0.0 0.07698792 
0.0 0.0 0.0 0.0 0.0 0.07698792 
0.0 0.0 0.0 0.0 0.0 0.07698792 
0.0 0.0 0.0 0.0 0.0 0.07698792 
0.0 0.0 0.0 0.0 0.0 0.07698792 
0.0 0.0 0.0 0.0 0.0 0.07698792 
0.0 0.0 0.0 0.0 0.0 0.07698792 
0.0 0.0 0.0 0.0 0.0 0.07698792 
0.0 0.0 0.0 0.0014465759 0.0 0.14221571 
0.61136276 0.0 0.0 0.05186323 0.4895176 0.73554057 
1.0989752 0.0 0.0 0.1273031 1.0907888 1.3564539 
0.92172784 0.0 0.0 0.2357867 1.5337967 1.5063226 
0.61800355 0.071251824 0.0 0.4290597 1.9038192 1.759558 
0.15297797 0.29599515 0.0 0.6183283 2.040441 1.8304338 
0.39247409 0.19490701 0.0 0.44466984 1.7809368 1.7567585 
1.068181 0.0 0.0 0.21853383 1.4691952 1.6601422 
1.4257014 0.08868636 0.0 0.099930264 1.4610845 1.3605108 
1.1962128 0.72948384 0.0 0.15042883 2.083586 0.988313 
0.4518214 1.1373118 0.0 0.30692896 2.7905624 1.0987785 
0.0 1.070137 0.0 0.71251905 2.7252052 1.2833793 
0.0 0.61552256 0.053984404 1.0318352 2.183748 1.4402156 
0.022836164 0.48321965 0.6853699 1.3807893 1.5237187 1.2093263 
0.024430439 0.74083096 1.4504617 1.526963 1.1452507 0.590801 
0.0 1.1940207 1.751074 1.3340666 1.1245883 0.03208832 
0.0 1.3895986 1.6534122 0.8553496 1.1734289 0.0 
0.0 1.0585854 1.181821 0.29690722 0.94322115 0.0 
0.0 0.46298546 0.6187262 0.0 0.5597745 0.0 
0.0 0.031831473 0.07108099 0.0 0.17678505 0.009424992 
0.0 0.0 0.0 0.0 0.0 0.07698792 
0.0 0.0 0.0 0.0 0.0 0.07698792 
0.0 0.0 0.0 0.0 0.0 0.07698792 
0.0 0.0 0.0 0.0 0.0 0.07698792 
0.0 0.0 0.0 0.0 0.0 0.07698792 
0.0 0.0 0.0 0.0 0.0 0.07698792 
0.0 0.0 0.0 0.0 0.0 0.07698792 
0.0 0.0 0.0 0.0 0.0 0.07698792 
0.0 0.0 0.0 0.0 0.0 0.1100159 
0.32634187 0.0 0.0 0.0 0.38744038 0.42959332 
0.6552014 0.0 0.0 0.0 0.7931408 0.86177 
0.5842608 0.0 0.0 0.0 1.062 1.072101 
0.40378377 0.0 0.0 0.0 1.2108941 1.2222953 
0.2095241 0.0 0.0 0.0 1.2168609 1.1964419 
0.5861647 0.0 0.0 0.0 0.90238076 1.1338596 
1.4565153 0.0 0.0 0.0 0.85549575 1.1396008 
1.7098987 0.0 0.0 0.0 1.4348378 0.97624993 
0.8048202 0.84544647 0.0 0.0 2.2836363 0.6702829 
0.0 1.200028 0.0 0.0 2.9071524 0.90716344 
0.0 0.8317597 0.0 0.14215901 2.7238853 1.5113032 
0.0302684 0.18586622 0.0 0.30507505 2.116665 1.7841804 
0.30847085 0.048008684 0.0 0.6871647 1.4792694 1.7970679 
0.16925074 0.1716097 0.0 1.0408279 1.4091635 1.6190064 
0.0 0.6431832 0.45802242 1.3486494 1.3268322 1.1289451 
0.0 1.0107806 1.255955 1.3846555 1.0638329 0.5371455 
0.0 0.93393636 1.3896117 1.0435014 0.7575424 0.30208683 
0.0 0.5539498 0.944692 0.5227452 0.3728545 0.16896844 
0.0 0.14878675 0.23276901 0.12047899 0.06838265 0.066037685 
0.0 0.0 0.0 0.0 0.0 0.07698792 
0.0 0.0 0.0 0.0 0.0 0.07698792 
0.0 0.0 0.0 0.0 0.0 0.07698792 
0.0 0.0 0.0 0.0 0.0 0.07698792 
0.0 0.0 0.0 0.0 0.0 0.07698792 
0.0 0.0 0.0 0.0 0.0 0.07698792 
0.0 0.0 0.0 0.0 0.0 0.07698792 
0.0 0.0 0.0 0.0 0.0 0.07698792 
0.0 0.0 0.0 0.0 0.0 0.08503331 
0.06468344 0.0 0.0 0.0 0.15093711 0.16986233 
0.23339856 0.0 0.0 0.0 0.40721694 0.29683727 
0.23223782 0.0 0.0 0.0 0.49726328 0.33610308 
0.1077196 0.0 0.0 0.0 0.4917455 0.35265702 
0.15706341 0.0 0.0 0.0 0.3753545 0.34259307 
0.85365486 0.0 0.0 0.0 0.13048506 0.4518725 
1.6771924 0.0 0.0 0.0 0.5349261 0.61745745 
1.5589969 0.21419767 0.0 0.0 1.5697742 0.53651136 
0.26635736 1.2405404 0.0 0.0 2.3496077 0.4006201 
0.0 1.1568744 0.0 0.0 2.52752 0.654911 
0.0 0.3530583 0.0 0.0 2.0355294 1.0513824 
0.06770453 0.0 0.0 0.0 1.4586866 1.174645 
0.47530907 0.0 0.0 0.0 1.3693949 1.4032717 
0.46094316 0.0 0.0 0.0 1.3728858 1.5333452 
0.035083577 0.08635822 0.0 0.0 1.1633393 1.3333592 
0.0 0.2977818 0.0 0.06371357 0.8313658 0.9352693 
0.0 0.30035892 0.5593993 0.24499671 0.46453324 0.5732781 
0.0 0.19426946 0.68550056 0.24248677 0.1719776 0.29636067 
0.0 0.10589721 0.25266802 0.115952075 0.0 0.11313547 
0.0 0.0 0.0 0.0 0.0 0.07698792 
0.0 0.0 0.0 0.0 0.0 0.07698792 
0.0 0.0 0.0 0.0 0.0 0.07698792 
0.0 0.0 0.0 0.0 0.0 0.07698792 
0.0 0.0 0.0 0.0 0.0 0.07698792 
0.0 0.0 0.0 0.0 0.0 0.07698792 
0.0 0.0 0.0 0.0 0.0 0.07698792 
0.0 0.0 0.0 0.0 0.0 0.07698792 
0.0 0.0 0.0 0.0 0.0 0.07698792 
0.0 0.0 0.0 0.0 0.0 0.07698792 
0.0 0.0 0.0 0.0 0.0 0.07698792 
0.0 0.0 0.0 0.0 0.0 0.07698792 
0.0 0.0 0.0 0.0 0.0 0.069822915 
0.28073627 0.0 0.0014125407 0.0 0.0 0.0950637 
1.3064759 0.0 0.0 0.01918241 0.0 0.39804098 
1.8918278 0.0 0.0 0.0 0.6814405 0.5652079 
1.0559878 1.0346769 0.0 0.042520594 1.7023482 0.24632615 
0.0 1.5020734 0.0 0.0 2.1448028 0.17178327 
0.0 1.062713 0.6957319 0.0 1.7346648 0.3818751 
0.0 0.18148129 0.6080234 0.0 1.0780797 0.49662414 
0.0 0.0 0.0 0.0 0.650267 0.41768408 
0.28554776 0.0 0.0 0.0 0.6900454 0.48519635 
0.35799664 0.0 0.0 0.0 0.8563079 0.63664144 
0.15700729 0.0 0.0 0.0 0.81248057 0.62782913 
0.0 0.0 0.0 0.0 0.5392832 0.478225 
0.0 0.0 0.0 0.0 0.3280527 0.33875477 
0.0 0.0 0.08944217 0.0 0.16480204 0.21711548 
0.0 0.0 0.07957382 0.0 0.012529019 0.09549857 
0.0 0.0 0.0 0.0 0.0 0.07698792 
0.0 0.0 0.0 0.0 0.0 0.07698792 
0.0 0.0 0.0 0.0 0.0 0.07698792 
0.0 0.0 0.0 0.0 0.0 0.07698792 
0.0 0.0 0.0 0.0 0.0 0.07698792 
0.0 0.0 0.0 0.0 0.0 0.07698792 
0.0 0.0 0.0 0.0 0.0 0.07698792 
0.0 0.0 0.0 0.0 0.0 0.07698792 
0.0 0.0 0.0 0.0 0.0 0.07698792 
0.0 0.0 0.0 0.0 0.0 0.07698792 
0.0 0.0 0.0 0.0 0.0 0.07698792 
0.0 0.0 0.0 0.0 0.0 0.07698792 
0.0 0.0 0.0 0.0 0.0 0.07082072 
0.54549754 0.0 0.0 0.0 0.0 0.26404378 
1.676858 0.0 0.0 0.046633217 0.07001108 0.59622854 
1.7562649 0.20950976 0.0 0.06253226 1.1327835 0.54853725 
0.426762 1.2953156 0.0 0.0 1.8659681 0.17537299 
0.0 1.5009248 0.23565495 0.0 1.8968898 0.17000926 
0.0 0.7064786 1.0327379 0.0 1.2861282 0.35117912 
0.0 0.11046804 0.7049573 0.0 0.49059293 0.26307234 
0.0 0.0 0.15858933 0.0 0.050650213 0.11167217 
0.0 0.0 0.0 0.0 0.028259661 0.11566703 
0.019033186 0.0 0.0 0.0 0.08120489 0.14452699 
0.0 0.0 0.0 0.0 0.0757363 0.13809797 
0.0 0.0 0.0 0.0 0.04112876 0.13380481 
0.0 0.0 0.0 0.0 0.020018946 0.11720163 
0.0 0.0 0.0 0.0 0.0 0.099421665 
0.0 0.0 0.0 0.0 0.0 0.079347014 
0.0 0.0 0.0 0.0 0.0 0.07698792 
0.0 0.0 0.0 0.0 0.0 0.07698792 
0.0 0.0 0.0 0.0 0.0 0.07698792 
0.0 0.0 0.0 0.0 0.0 0.07698792 
0.0 0.0 0.0 0.0 0.0 0.07698792 
0.0 0.0 0.0 0.0 0.0 0.07698792 
0.0 0.0 0.0 0.0 0.0 0.07698792 
0.0 0.0 0.0 0.0 0.0 0.07698792 
0.0 0.0 0.0 0.0 0.0 0.07698792 
0.0 0.0 0.0 0.0 0.0 0.07698792 
0.0 0.0 0.0 0.0 0.0 0.07698792 
0.0 0.0 0.0 0.0 0.0 0.07698792 
0.049514137 0.0 0.018835865 0.0 0.0 0.055931263 
0.89770347 0.0 0.0 0.012735692 0.0 0.3783369 
1.771236 0.0 0.0 0.040614482 0.44204834 0.74254996 
1.3134856 0.46813485 0.0 0.07208681 1.4918599 0.47672737 
0.0 1.4077107 0.0 0.12471077 1.7836531 0.15879816 
0.0 1.1654301 0.81340516 0.08919771 1.6834637 0.29002547 
0.0 0.35602912 1.0370237 0.062435027 0.9688503 0.35191777 
0.0 0.006136274 0.4786958 0.034001768 0.21613644 0.15632504 
0.0 0.0 0.0 0.0 0.0 0.0817822 
0.0 0.0 0.0 0.0 0.0 0.07698792 
0.0 0.0 0.0 0.0 0.0 0.07698792 
0.0 0.0 0.0 0.0 0.0 0.07698792 
0.0 0.0 0.0 0.0 0.0 0.07698792 
0.0 0.0 0.0 0.0 0.0 0.07698792 
0.0 0.0 0.0 0.0 0.0 0.07698792 
0.0 0.0 0.0 0.0 0.0 0.07698792 
0.0 0.0 0.0 0.0 0.0 0.07698792 
0.0 0.0 0.0 0.0 0.0 0.07698792 
0.0 0.0 0.0 0.0 0.0 0.07698792 
0.0 0.0 0.0 0.0 0.0 0.07698792 
0.0 0.0 0.0 0.0 0.0 0.07698792 
0.0 0.0 0.0 0.0 0.0 0.07698792 
0.0 0.0 0.0 0.0 0.0 0.07698792 
0.0 0.0 0.0 0.0 0.0 0.07698792 
0.0 0.0 0.0 0.0 0.0 0.07698792 
0.0 0.0 0.0 0.0 0.0 0.07698792 
0.0 0.0 0.0 0.0 0.0 0.07698792 
0.0 0.0 0.0 0.0 0.0 0.07698792 
0.058664843 0.0 0.0 0.027716734 0.0 0.16158155 
0.93005043 0.0 0.0 0.22407338 0.12994663 0.82545537 
1.5428545 0.0 0.0 0.4335164 1.0140201 1.2808046 
0.6418341 0.6130372 0.0 0.552309 1.5751305 0.8724341 
0.0 1.0167316 0.0 0.49845538 1.5841547 0.69147223 
0.0 0.6660493 1.0094028 0.3283096 1.221066 0.571343 
0.0 0.237764 0.91482145 0.19764794 0.45932707 0.31017548 
0.0 0.0 0.25794935 0.039787184 0.037918936 0.11611822 
0.0 0.0 0.0 0.0 0.0 0.07698792 
0.0 0.0 0.0 0.0 0.0 0.07698792 
0.0 0.0 0.0 0.0 0.0 0.07698792 
0.0 0.0 0.0 0.0 0.0 0.07698792 
0.0 0.0 0.0 0.0 0.0 0.07698792 
0.0 0.0 0.0 0.0 0.0 0.07698792 
0.0 0.0 0.0 0.0 0.0 0.07698792 
0.0 0.0 0.0 0.0 0.0 0.07698792 
0.0 0.0 0.0 0.0 0.0 0.07698792 
0.0 0.0 0.0 0.0 0.0 0.07698792 
0.0 0.0 0.0 0.0 0.0 0.07698792 
0.0 0.0 0.0 0.0 0.0 0.07698792 
0.0 0.0 0.0 0.0 0.0 0.07698792 
0.0 0.0 0.0 0.0 0.0 0.07698792 
0.0 0.0 0.0 0.0 0.0 0.07698792 
0.0 0.0 0.0 0.0 0.0 0.07698792 
0.0 0.0 0.0 0.0 0.0 0.07698792 
0.0 0.0 0.0 0.0 0.0 0.07698792 
0.0 0.0 0.0 0.0 0.0 0.07698792 
0.0 0.0 0.0 0.0 0.0 0.07698792 
0.1151983 0.0 0.0 0.061994616 0.01599202 0.25668058 
0.7854158 0.0 0.0 0.24905893 0.539987 0.8718409 
0.9174244 0.0 0.0 0.35630062 1.2098483 1.1365719 
0.13063006 0.29729602 0.0 0.29661855 1.3427745 0.8775361 
0.0 0.48634377 0.0 0.2541035 0.94926924 0.7923203 
0.0 0.2925945 0.7231791 0.1826379 0.5773873 0.5349801 
0.0 0.015329278 0.5064924 0.034321725 0.21363764 0.2329 
0.0 0.0 0.044263773 0.0 0.0 0.090601414 
0.0 0.0 0.0 0.0 0.0 0.07698792 
0.0 0.0 0.0 0.0 0.0 0.07698792 
0.0 0.0 0.0 0.0 0.0 0.07698792 
0.0 0.0 0.0 0.0 0.0 0.07698792 
0.0 0.0 0.0 0.0 0.0 0.07698792 
0.0 0.0 0.0 0.0 0.0 0.07698792 
0.0 0.0 0.0 0.0 0.0 0.07698792 
0.0 0.0 0.0 0.0 0.0 0.07698792 
0.0 0.0 0.0 0.0 0.0 0.07698792 
0.0 0.0 0.0 0.0 0.0 0.07698792 
0.0 0.0 0.0 0.0 0.0 0.07698792 
0.0 0.0 0.0 0.0 0.0 0.07698792 
0.0 0.0 0.0 0.0 0.0 0.07698792 
0.0 0.0 0.0 0.0 0.0 0.07698792 
0.0 0.0 0.0 0.0 0.0 0.07698792 
0.0 0.0 0.0 0.0 0.0 0.07698792 
0.0 0.0 0.0 0.0 0.0 0.07698792 
0.0 0.0 0.0 0.0 0.0 0.07698792 
0.0 0.0 0.0 0.0 0.0 0.07698792 
0.0 0.0 0.0 0.0 0.0 0.07698792 
0.08011302 0.0 0.0 0.07244234 0.024062555 0.24342094 
0.52303153 0.0 0.0 0.0 0.54603875 0.7378752 
0.509606 0.014020002 0.0 0.0 0.8743431 0.9151458 
0.015272833 0.12307468 0.0 0.0 0.55132663 0.6393785 
0.0 0.022422977 0.0 0.0 0.35130984 0.54383576 
0.0 0.0 0.3473649 0.0 0.26959267 0.34901756 
0.0 0.0 0.1784245 0.0 0.071173325 0.12257299 
0.0 0.0 0.0 0.0 0.0 0.07843382 
0.0 0.0 0.0 0.0 0.0 0.07698792 
0.0 0.0 0.0 0.0 0.0 0.07698792 
0.0 0.0 0.0 0.0 0.0 0.07698792 
0.0 0.0 0.0 0.0 0.0 0.07698792 
0.0 0.0 0.0 0.0 0.0 0.07698792 
0.0 0.0 0.0 0.0 0.0 0.07698792 
0.0 0.0 0.0 0.0 0.0 0.07698792 
0.0 0.0 0.0 0.0 0.0 0.07698792 
0.0 0.0 0.0 0.0 0.0 0.07698792 
0.0 0.0 0.0 0.0 0.0 0.07698792 
0.0 0.0 0.0 0.0 0.0 0.07698792 
0.0 0.0 0.0 0.0 0.0 0.07698792 
0.0 0.0 0.0 0.0 0.0 0.07698792 
0.0 0.0 0.0 0.0 0.0 0.07698792 
0.0 0.0 0.0 0.0 0.0 0.07698792 
0.0 0.0 0.0 0.0 0.0 0.07698792 
0.0 0.0 0.0 0.0 0.0 0.07698792 
0.0 0.0 0.0 0.0 0.0 0.07698792 
0.0 0.0 0.0 0.0 0.0 0.07698792 
0.0 0.0 0.0 0.0 0.0 0.07698792 
0.04608216 0.0 0.0 0.0 0.12363665 0.15620407 
0.2528166 0.0 0.0 0.0 0.42876884 0.30649066 
0.15560547 0.0 0.0 0.0 0.35867664 0.27676833 
0.0 0.0 0.0 0.0 0.22354312 0.21649581 
0.0 0.0 0.0 0.0 0.19868137 0.24130556 
0.0 0.0 0.033210985 0.0 0.104048476 0.13602655 
0.0 0.0 0.0 0.0 0.0 0.0821627 
0.0 0.0 0.0 0.0 0.0 0.07698792 
0.0 0.0 0.0 0.0 0.0 0.07698792 
0.0 0.0 0.0 0.0 0.0 0.07698792 
0.0 0.0 0.0 0.0 0.0 0.07698792 
0.0 0.0 0.0 0.0 0.0 0.07698792 
0.0 0.0 0.0 0.0 0.0 0.07698792 
0.0 0.0 0.0 0.0 0.0 0.07698792 
0.0 0.0 0.0 0.0 0.0 0.07698792 
0.0 0.0 0.0 0.0 0.0 0.07698792 
0.0 0.0 0.0 0.0 0.0 0.07698792 
0.0 0.0 0.0 0.0 0.0 0.07698792 
0.0 0.0 0.0 0.0 0.0 0.07698792 
0.0 0.0 0.0 0.0 0.0 0.07698792 
0.0 0.0 0.0 0.0 0.0 0.07698792 
0.0 0.0 0.0 0.0 0.0 0.07698792 
0.0 0.0 0.0 0.0 0.0 0.07698792 
0.0 0.0 0.0 0.0 0.0 0.07698792 
0.0 0.0 0.0 0.0 0.0 0.07698792 
0.0 0.0 0.0 0.0 0.0 0.07698792 
0.0 0.0 0.0 0.0 0.0 0.07698792 
0.0 0.0 0.0 0.0 0.0 0.07698792 
0.0 0.0 0.0 0.0 0.0 0.07698792 
0.0 0.0 0.0 0.0 0.0 0.07698792 
0.0 0.0 0.0 0.0 0.0 0.07698792 
0.0 0.0 0.0 0.0 0.0 0.07698792 
0.0 0.0 0.0 0.0 0.0 0.07698792 
0.0 0.0 0.0 0.0 0.0 0.07698792 
0.0 0.0 0.0 0.0 0.0 0.07698792 
0.0 0.0 0.0 0.0 0.0 0.07698792 
0.0 0.0 0.0 0.0 0.0 0.07698792 
0.0 0.0 0.0 0.0 0.0 0.07698792 
0.0 0.0 0.0 0.0 0.0 0.07698792 
0.0 0.0 0.0 0.0 0.0 0.07698792 
0.0 0.0 0.0 0.0 0.0 0.07698792 
0.0 0.0 0.0 0.0 0.0 0.07698792 
0.0 0.0 0.0 0.0 0.0 0.07698792 
0.0 0.0 0.0 0.0 0.0 0.07698792 
0.0 0.0 0.0 0.0 0.0 0.07698792 
0.0 0.0 0.0 0.0 0.0 0.07698792 
0.0 0.0 0.0 0.0 0.0 0.07698792 
0.0 0.0 0.0 0.0 0.0 0.07698792 

