0.0 0.0 0.0 0.0 0.0 0.07698792 
0.0 0.0 0.0 0.0 0.0 0.07698792 
0.0 0.0 0.0 0.0 0.0 0.07698792 
0.0 0.0 0.0 0.0 0.0 0.07698792 
0.0 0.0 0.0 0.0 0.0 0.07698792 
0.0 0.0 0.0 0.0 0.0 0.07698792 
0.0 0.0 0.0 0.0 0.0 0.07698792 
0.0 0.0 0.0 0.0 0.0 0.07698792 
0.0 0.0 0.0 0.0 0.0 0.07698792 
0.0 0.0 0.0 0.0 0.0 0.07698792 
0.0 0.0 0.0 0.0 0.0 0.07698792 
0.0 0.0 0.0 0.0 0.0 0.07698792 
0.0 0.0 0.0 0.0 0.0 0.07698792 
0.0 0.0 0.0 0.0 0.0 0.07698792 
0.0 0.0 0.0 0.0 0.0 0.07698792 
0.0 0.0 0.0 0.0 0.0 0.07698792 
0.0 0.0 0.0 0.0 0.0 0.07698792 
0.0 0.0 0.0 0.0 0.0 0.07698792 
0.0 0.0 0.0 0.0 0.0 0.07698792 
0.0 0.0 0.0 0.0 0.0 0.07698792 
0.0 0.0 0.0 0.0 0.0 0.07698792 
0.0 0.0 0.0 0.0 0.0 0.07698792 
0.0 0.0 0.0 0.0 0.0 0.07698792 
0.0 0.0 0.0 0.0 0.0 0.07698792 
0.0 0.0 0.0 0.0 0.0 0.07698792 
0.0 0.0 0.0 0.0 0.0 0.07698792 
0.0 0.0 0.0 0.0 0.0 0.07698792 
0.0 0.0 0.0 0.0 0.0 0.07698792 
0.0 0.0 0.0 0.0 0.0 0.07698792 
0.0 0.0 0.0 0.0 0.0 0.07698792 
0.0 0.0 0.0 0.0 0.0 0.07698792 
0.0 0.0 0.0 0.0 0.0 0.07698792 
0.0 0.0 0.0 0.0 0.0 0.07698792 
0.0 0.0 0.0 0.0 0.0 0.07698792 
0.0 0.0 0.0 0.0 0.0 0.07698792 
0.0 0.0 0.0 0.0 0.0 0.07698792 
0.0 0.0 0.0 0.0 0.0 0.07698792 
0.0 0.0 0.0 0.0 0.0 0.07698792 
0.0 0.0 0.0 0.0 0.0 0.07698792 
0.0 0.0 0.0 0.0 0.0 0.07698792 
0.0 0.0 0.0 0.0 0.0 0.07698792 
0.0 0.0 0.0 0.0 0.0 0.07698792 
0.0 0.0 0.0 0.0 0.0 0.07698792 
0.0 0.0 0.0 0.0 0.0 0.07698792 
0.0 0.0 0.0 0.0 0.0 0.07698792 
0.0 0.0 0.0 0.0 0.0 0.07698792 
0.0 0.0 0.0 0.0 0.0 0.07698792 
0.0 0.0 0.0 0.0 0.0 0.07698792 
0.0 0.0 0.0 0.0 0.0 0.07698792 
0.0 0.0 0.0 0.0 0.0 0.07698792 
0.0 0.0 0.0 0.0 0.0 0.07698792 
0.0 0.0 0.0 0.0 0.0 0.07698792 
0.0 0.0 0.0 0.0 0.0 0.07698792 
0.0 0.0 0.0 0.0 0.0 0.07698792 
0.0 0.0 0.0 0.0 0.0 0.07698792 
0.0 0.0 0.0 0.0 0.0 0.07698792 
0.0 0.0 0.0 0.0 0.0 0.07698792 
0.0 0.0 0.0 0.0 0.0 0.07698792 
0.0 0.0 0.0 0.0 0.0 0.07698792 
0.0 0.0 0.0 0.0 0.0 0.07698792 
0.0 0.0 0.0 0.0 0.0 0.07698792 
0.0 0.0 0.0 0.0 0.0 0.07698792 
0.0 0.0 0.0 0.0 0.0 0.07698792 
0.0 0.0 0.0 0.0 0.0 0.07698792 
0.0 0.0 0.0 0.0 0.0 0.07698792 
0.0 0.0 0.0 0.0 0.0 0.07698792 
0.0 0.0 0.0 0.0 0.0 0.07698792 
0.0 0.0 0.0 0.0 0.0 0.07698792 
0.0 0.0 0.0 0.0 0.0 0.07698792 
0.0 0.0 0.0 0.0 0.0 0.07698792 
0.0 0.0 0.0 0.0 0.0 0.07698792 
0.0 0.0 0.0 0.0 0.0 0.07698792 
0.0 0.0 0.0 0.0 0.0 0.07698792 
0.0 0.0 0.0 0.0 0.0 0.07698792 
0.0 0.0 0.0 0.0 0.0 0.07698792 
0.0 0.0 0.0 0.0 0.0 0.07698792 
0.0 0.0 0.0 0.0 0.0 0.07698792 
0.0 0.0 0.0 0.0 0.0 0.07698792 
0.0 0.0 0.0 0.0 0.0 0.07698792 
0.0 0.0 0.0 0.0 0.0 0.07698792 
0.0 0.0 0.0 0.0 0.0 0.07698792 
0.0 0.0 0.0 0.0 0.0 0.07698792 
0.0 0.0 0.0 0.0 0.0 0.07698792 
0.0 0.0 0.0 0.0 0.0 0.07698792 
0.0 0.0 0.0 0.0 0.0 0.07698792 
0.0 0.0 0.0 0.0 0.0 0.07698792 
0.0 0.0 0.0 0.0 0.0 0.07698792 
0.0 0.0 0.0 0.0 0.0 0.07698792 
0.0 0.0 0.0 0.0 0.0 0.07698792 
0.0 0.0 0.0 0.0 0.0 0.07698792 
0.0 0.0 0.0 0.0 0.0 0.07698792 
0.0 0.0 0.0 0.0 0.0 0.07698792 
0.0 0.0 0.0 0.0 0.0 0.07698792 
0.0 0.0 0.0 0.0 0.0 0.07698792 
0.0 0.0 0.0 0.0 0.0 0.07698792 
0.0 0.0 0.0 0.0 0.0 0.07698792 
0.0 0.0 0.0 0.0 0.0 0.07698792 
0.0 0.0 0.0 0.0 0.0 0.07698792 
0.0 0.0 0.0 0.0 0.0 0.07698792 
0.0 0.0 0.0 0.0 0.0 0.07698792 
0.0 0.0 0.0 0.0 0.0 0.07698792 
0.0 0.0 0.0 0.0 0.0 0.07698792 
0.0 0.0 0.0 0.0 0.0 0.07698792 
0.0 0.0 0.0 0.0 0.0 0.07698792 
0.0 0.0 0.0 0.0 0.0 0.07698792 
0.0 0.0 0.0 0.0 0.0 0.07698792 
0.0 0.0 0.0 0.0 0.0 0.07698792 
0.0 0.0 0.0 0.0 0.0 0.07698792 
0.0 0.0 0.0 0.0 0.0 0.07698792 
0.0 0.0 0.0 0.0 0.0 0.07698792 
0.0 0.0 0.0 0.0 0.0 0.07698792 
0.0 0.0 0.0 0.0 0.0 0.07698792 
0.0 0.0 0.0 0.0 0.0 0.07698792 
0.0 0.0 0.0 0.0 0.0 0.07698792 
0.0 0.0 0.0 0.0 0.0 0.07698792 
0.0 0.0 0.0 0.0 0.0 0.07698792 
0.0 0.0 0.0 0.0 0.0 0.07698792 
0.0 0.0 0.0 0.0 0.0 0.07698792 
0.0 0.0 0.0 0.0 0.0 0.07698792 
0.0 0.0 0.0 0.0 0.0 0.07698792 
0.0 0.0 0.0 0.0 0.0 0.07698792 
0.0 0.0 0.0 0.0 0.0 0.07698792 
0.0 0.0 0.0 0.0 0.0 0.07698792 
0.0 0.0 0.0 0.0 0.0 0.07698792 
0.0 0.0 0.0 0.0 0.0 0.07698792 
0.0 0.0 0.0 0.0 0.0 0.07698792 
0.0 0.0 0.0 0.0 0.0 0.07698792 
0.0 0.0 0.0 0.0 0.0 0.07698792 
0.0 0.0 0.0 0.0 0.0 0.07698792 
0.0 0.0 0.0 0.0 0.0 0.07698792 
0.0 0.0 0.0 0.0 0.0 0.07698792 
0.0 0.0 0.0 0.0 0.0 0.07698792 
0.0 0.0 0.0 0.0 0.0 0.07698792 
0.0 0.0 0.0 0.0 0.0 0.07698792 
0.0 0.0 0.0 0.0 0.0 0.07698792 
0.0 0.0 0.0 0.0 0.0 0.07698792 
0.0 0.0 0.0 0.0 0.0 0.07698792 
0.0 0.0 0.0 0.0 0.0 0.07698792 
0.0 0.0 0.0 0.0 0.0 0.07698792 
0.0 0.0 0.0 0.0 0.0 0.07698792 
0.0 0.0 0.0 0.0 0.0 0.07698792 
0.0 0.0 0.0 0.0 0.0 0.07698792 
0.0 0.0 0.0 0.0 0.0 0.07698792 
0.0 0.0 0.0 0.0 0.0 0.07698792 
0.0 0.0 0.0 0.0 0.0 0.07698792 
0.0 0.0 0.0 0.0 0.0 0.07698792 
0.0 0.0 0.0 0.0 0.0 0.07698792 
0.0 0.0 0.0 0.0 0.0 0.07698792 
0.0 0.0 0.0 0.0 0.0 0.07698792 
0.0 0.0 0.0 0.0 0.0 0.07698792 
0.0 0.0 0.0 0.0 0.0 0.07698792 
0.0 0.0 0.0 0.0 0.0 0.07698792 
0.0 0.0 0.0 0.0 0.0 0.0686916 
0.006929964 0.0 0.020944223 0.0 0.0 0.019183919 
0.106832385 0.025225148 0.09698898 0.0 0.0 0.0 
0.21447408 0.0955589 0.22642183 0.0 0.0 0.0 
0.32477522 0.24853852 0.3495623 0.0 0.0 0.0 
0.3496586 0.4047311 0.4415655 0.0 0.0 0.0 
0.31070867 0.54653203 0.46513307 0.0 0.0 0.0 
0.1890539 0.5989444 0.41643333 0.0 0.0 0.0 
0.03860861 0.5598257 0.27695748 0.0 0.0027042069 0.0 
0.0 0.38095805 0.15862635 0.0 0.070828006 0.0 
0.0 0.20779668 0.05132599 0.0 0.0485151 0.0 
0.0 0.06415144 0.0 0.0 0.005984608 0.005026564 
0.0 0.0 0.0 0.0 0.0 0.07334029 
0.0 0.0 0.0 0.0 0.0 0.07698792 
0.0 0.0 0.0 0.0 0.0 0.07698792 
0.0 0.0 0.0 0.0 0.0 0.07698792 
0.0 0.0 0.0 0.0 0.0 0.07698792 
0.0 0.0 0.0 0.0 0.0 0.07698792 
0.0 0.0 0.0 0.0 0.0 0.07698792 
0.0 0.0 0.0 0.0 0.0 0.07698792 
0.0 0.0 0.0 0.0 0.0 0.07698792 
0.0 0.0 0.0 0.0 0.0 0.07698792 
0.0 0.0 0.0 0.0 0.0 0.07698792 
0.0 0.0 0.0 0.0 0.0 0.07698792 
0.0 0.0 0.0 0.0 0.0 0.07698792 
0.0 0.0 0.0 0.0 0.0 0.06567475 
0.042998888 0.0 0.058584712 0.0 0.0 0.0 
0.1662558 0.05429186 0.1357435 0.0 0.0 0.0 
0.26578176 0.1230734 0.26727766 0.0 0.0 0.0 
0.43194866 0.2527067 0.367015 0.0 0.0 0.0 
0.5516014 0.36363956 0.45369154 0.0 0.0 0.0 
0.6986229 0.48895192 0.5385346 0.0 0.0 0.0 
0.7470415 0.6648718 0.6811714 0.0 0.0 0.0 
0.67549324 0.8270068 0.78654146 0.0 0.0 0.0 
0.51767755 0.9954148 0.98478115 0.0 0.08945 0.0 
0.303074 1.1145064 1.0743243 0.0 0.2835525 0.0 
0.0 1.1770272 1.010333 0.0 0.45482323 0.0 
0.0 1.0197595 0.7308959 0.0 0.52417964 0.0 
0.0 0.64194995 0.47809464 0.0 0.43870565 0.0 
0.0 0.26560277 0.14913091 0.0 0.260147 0.0 
0.0 0.07060565 0.0 0.0 0.028500598 0.0009958893 
0.0 0.0 0.0 0.0 0.0 0.07698792 
0.0 0.0 0.0 0.0 0.0 0.07698792 
0.0 0.0 0.0 0.0 0.0 0.07698792 
0.0 0.0 0.0 0.0 0.0 0.07698792 
0.0 0.0 0.0 0.0 0.0 0.07698792 
0.0 0.0 0.0 0.0 0.0 0.07698792 
0.0 0.0 0.0 0.0 0.0 0.07698792 
0.0 0.0 0.0 0.0 0.0 0.07698792 
0.0 0.0 0.0 0.0 0.0 0.07698792 
0.0 0.0 0.0 0.0 0.0 0.07698792 
0.0 0.0 0.0 0.0 0.0 0.06492054 
0.046376772 0.0 0.060968034 0.0 0.0 0.0 
0.23023036 0.014020859 0.17794988 0.0 0.0 0.0 
0.44487512 0.08651891 0.2676849 0.0 0.0 0.0 
0.63574296 0.25304744 0.42117572 0.0 0.0 0.0 
0.7920769 0.46296412 0.5252204 0.0 0.0 0.0 
0.8677323 0.6143958 0.70195895 0.0 0.0 0.0 
0.8377958 0.7002352 0.733189 0.0 0.09487499 0.0 
0.7349325 0.7507232 0.7715869 0.0 0.41853973 0.0 
0.49831223 0.7814449 0.8045999 0.0 0.8614718 0.0 
0.23497632 0.80110246 0.8665448 0.32605088 1.2032475 0.0 
0.07144633 0.78264695 1.0447956 0.75041157 1.2599989 0.0 
0.11724886 0.7938959 1.3471992 0.8839768 1.0932229 0.0 
0.10131146 1.1224097 1.5074617 0.6435768 0.9138751 0.0 
0.0 1.439863 1.4452932 0.1931007 0.91242886 0.0 
0.0 1.2070837 1.1826346 0.0 0.8370845 0.0 
0.0 0.6312049 0.6358267 0.0 0.6094903 0.0 
0.0 0.09632152 0.0664968 0.0 0.2508147 0.0 
0.0 0.0 0.0 0.0 0.0 0.07698792 
0.0 0.0 0.0 0.0 0.0 0.07698792 
0.0 0.0 0.0 0.0 0.0 0.07698792 
0.0 0.0 0.0 0.0 0.0 0.07698792 
0.0 0.0 0.0 0.0 0.0 0.07698792 
0.0 0.0 0.0 0.0 0.0 0.07698792 
0.0 0.0 0.0 0.0 0.0 0.07698792 
0.0 0.0 0.0 0.0 0.0 0.07698792 
0.0 0.0 0.0 0.0 0.0 0.07698792 
0.0 0.0 0.0 0.0 0.0 0.06416633 
0.123926744 0.0 0.116654344 0.0 0.0 0.0 
0.43852806 0.0 0.20176303 0.0 0.0 0.0 
0.70906 0.05401218 0.3027351 0.0 0.0 0.0 
1.0325577 0.22737497 0.44541222 0.0 0.0 0.0 
1.0472515 0.5804769 0.6084715 0.0 0.0 0.0 
0.84470683 0.71682066 0.7222791 0.0 0.44358554 0.0 
0.6193693 0.8453685 0.7754131 0.002344218 0.95972246 0.0 
0.42127037 0.9547875 0.75221694 0.5309428 1.4082524 0.0 
0.31460157 1.0724264 0.6375255 1.054271 1.7145221 0.31976134 
0.11946216 1.2168032 0.59634507 1.4377443 1.9571546 0.80559176 
0.0 1.2704417 0.5127735 1.6253337 1.9673098 1.0752002 
0.0 1.0273596 0.45209438 1.6495551 1.723529 1.2928724 
0.12575318 0.62387466 0.6334143 1.6046032 1.2034992 1.2538495 
0.42733073 0.7797721 1.0022024 1.4401543 0.8216516 0.66554564 
0.0 1.4439511 1.4684514 1.137035 0.8991651 0.0 
0.0 1.5434253 1.72487 0.6239768 0.9500099 0.0 
0.0 1.0124933 1.3024985 0.06915651 0.8115632 0.0 
0.0 0.23233604 0.3180406 0.0 0.38732558 0.0 
0.0 0.0 0.0 0.0 0.0 0.07698792 
0.0 0.0 0.0 0.0 0.0 0.07698792 
0.0 0.0 0.0 0.0 0.0 0.07698792 
0.0 0.0 0.0 0.0 0.0 0.07698792 
0.0 0.0 0.0 0.0 0.0 0.07698792 
0.0 0.0 0.0 0.0 0.0 0.07698792 
0.0 0.0 0.0 0.0 0.0 0.07698792 
0.0 0.0 0.0 0.0 0.0 0.07698792 
0.0 0.0 0.0 0.0 0.0 0.06492054 
0.12309 0.0 0.11499251 0.0 0.0 0.0 
0.52955246 0.0 0.13993317 0.0 0.0 0.0 
0.9642107 0.0 0.2478033 0.0 0.0 0.0 
1.3096569 0.17653474 0.33678812 0.0 0.0 0.0 
1.1538665 0.7123728 0.46554375 0.0 0.41084108 0.0 
0.649831 0.9750583 0.5081771 0.24561541 1.2646981 0.0 
0.39118809 1.180399 0.539692 0.83636713 1.7717725 0.22513035 
0.26051733 1.2542348 0.48006308 1.2519153 2.1833158 0.85227966 
0.025236614 1.2245847 0.27044383 1.4601034 2.3214684 1.2347684 
0.0 0.99283594 0.0 1.3452852 2.3435636 1.4866588 
0.0 0.86708575 0.0 1.0334122 2.2583663 1.576612 
0.017573535 0.68057364 0.0 0.5913865 1.9508723 1.5358067 
0.32803378 0.33501107 0.0 0.14769426 1.525157 1.5241911 
0.8568162 0.0 0.0 0.0 1.0630963 1.4201632 
0.8559843 0.17346218 0.0 0.0 0.821005 0.8497477 
0.13230959 1.0409086 0.29597738 0.0 1.0388612 0.0 
0.0 1.5250049 1.44032 0.16973032 1.1092005 0.0 
0.0 1.1444807 1.6907437 0.16186093 0.901552 0.0 
0.0 0.3689294 0.624635 0.0 0.43683723 0.0 
0.0 0.0 0.0 0.0 0.0 0.07698792 
0.0 0.0 0.0 0.0 0.0 0.07698792 
0.0 0.0 0.0 0.0 0.0 0.07698792 
0.0 0.0 0.0 0.0 0.0 0.07698792 
0.0 0.0 0.0 0.0 0.0 0.07698792 
0.0 0.0 0.0 0.0 0.0 0.07698792 
0.0 0.0 0.0 0.0 0.0 0.07698792 
0.0 0.0 0.0 0.0 0.0 0.07698792 
0.000119537115 0.0 0.0 0.0 0.0 0.054474134 
0.38814992 0.0 0.07085437 0.0 0.0 0.0 
1.0921829 0.0 0.08375908 0.0 0.0 0.0 
1.4687257 0.026388992 0.032015257 0.0 0.0 0.0 
1.2021129 0.7349441 0.061727338 0.28615823 0.76560014 0.0 
0.63194424 1.1042938 0.15344676 0.5794285 1.963241 0.32301188 
0.27021092 1.3789318 0.124111034 1.014928 2.4947727 0.88008946 
0.0 1.1627532 0.0 1.1100882 2.639932 1.3671372 
0.0 0.9101198 0.0 0.96562624 2.4874156 1.5867982 
0.0 0.6355561 0.0 0.5588433 2.1596591 1.603544 
0.0 0.43749556 0.0 0.14337936 1.7749587 1.5476861 
0.0 0.11738749 0.0 0.0 1.4192774 1.238703 
0.086553514 0.0 0.0 0.0 0.9032693 0.793187 
0.6297602 0.0 0.0 0.0 0.5382802 0.44761345 
1.3911769 0.0 0.0 0.0 0.6484687 0.44386408 
1.5670998 0.06417884 0.0 0.0 0.9998849 0.20429826 
0.25364438 1.2127843 0.0 0.0 1.4454125 0.0 
0.0 1.2645984 0.7776681 0.0 1.5699388 0.0 
0.0 0.93276185 1.5727974 0.0 1.1432878 0.0 
0.0 0.29701206 0.7761286 0.0 0.5018919 0.0 
0.0 0.0 0.0 0.0 0.0 0.07698792 
0.0 0.0 0.0 0.0 0.0 0.07698792 
0.0 0.0 0.0 0.0 0.0 0.07698792 
0.0 0.0 0.0 0.0 0.0 0.07698792 
0.0 0.0 0.0 0.0 0.0 0.07698792 
0.0 0.0 0.0 0.0 0.0 0.07698792 
0.0 0.0 0.0 0.0 0.0 0.07698792 
0.0 0.0 0.0 0.0 0.0 0.07698792 
0.1325176 0.0 0.03146197 0.0 0.0 0.06150409 
0.8349307 0.0 0.0 0.0 0.0 0.12536073 
1.5568707 0.0 0.0 0.07967287 0.0 0.15659842 
1.6520612 0.45020032 0.0 0.2579933 0.8382499 0.12121874 
0.8469633 1.2559787 0.0 0.4149471 2.1131732 0.41389182 
0.08469084 1.5026876 0.0 0.5347863 2.7745712 0.8131781 
0.0 1.1829983 0.0 0.51641077 2.7021596 1.2803273 
0.0 0.60930777 0.0 0.26826355 2.1827939 1.4944489 
0.0 0.2735387 0.0 0.0 1.5895277 1.3221078 
0.0 0.0 0.0 0.0 1.186566 0.98567903 
0.0 0.0 0.0 0.0 0.8529145 0.6996493 
0.011929207 0.0 0.0 0.0 0.36338612 0.32083437 
0.43375897 0.0 0.0 0.0 0.0 0.0 
1.0664902 0.0 0.08993653 0.0 0.0 0.0 
1.670681 0.0 0.0 0.0 0.44156894 0.0 
1.2932718 0.76626754 0.0 0.0 1.4520298 0.0 
0.0 1.5229313 0.0 0.0 2.0013745 0.0 
0.0 1.4561986 0.86448574 0.004734882 1.7350568 0.0 
0.0 0.7938082 1.4324667 0.10666134 1.1666993 0.17308864 
0.0 0.18369162 0.76815784 0.090971455 0.42659923 0.053310733 
0.0 0.0 0.0 0.0 0.0 0.07698792 
0.0 0.0 0.0 0.0 0.0 0.07698792 
0.0 0.0 0.0 0.0 0.0 0.07698792 
0.0 0.0 0.0 0.0 0.0 0.07698792 
0.0 0.0 0.0 0.0 0.0 0.07698792 
0.0 0.0 0.0 0.0 0.0 0.07698792 
0.0 0.0 0.0 0.0 0.0 0.07698792 
0.0 0.0 0.0 0.0 0.0 0.07698792 
0.26249728 0.0 0.0 0.0004596049 0.0 0.18757696 
1.23435 0.0 0.0 0.17445184 0.0 0.50980294 
1.9917057 0.0 0.0 0.14279404 0.47394404 0.6230927 
1.5788677 0.9028182 0.0 0.22208709 1.5444686 0.37736183 
0.35799903 1.6815249 0.0 0.0 2.453658 0.28317028 
0.0 1.6320013 0.0970206 0.0 2.5965376 0.5275559 
0.0 0.73574847 0.0 0.0 2.0596106 0.68845505 
0.0 0.08521559 0.0 0.0 1.1331321 0.59725136 
0.0 0.0 0.0 0.0 0.58503044 0.3727059 
0.0 0.0 0.0 0.0 0.22956811 0.057955794 
0.17455018 0.0 0.14287898 0.0 0.0 0.0 
0.5274807 0.0 0.28274918 0.0 0.0 0.0 
1.1818023 0.0 0.26053077 0.0 0.0 0.0 
1.5769339 0.33261552 0.13972598 0.0 0.11035396 0.0 
1.3271294 0.889337 0.0 0.09072462 1.2712955 0.0 
0.47619897 1.4204332 0.0 0.39546874 2.3192112 0.28156877 
0.0 1.8411794 0.496427 0.57748055 2.1778843 0.17756507 
0.0 1.3348131 1.1659262 0.5554401 1.578699 0.29736102 
0.0 0.5363624 1.2511003 0.37158352 0.86926484 0.3886643 
0.0 0.1650509 0.66466963 0.1919052 0.1914433 0.1200833 
0.0 0.0 0.0 0.0 0.0 0.07698792 
0.0 0.0 0.0 0.0 0.0 0.07698792 
0.0 0.0 0.0 0.0 0.0 0.07698792 
0.0 0.0 0.0 0.0 0.0 0.07698792 
0.0 0.0 0.0 0.0 0.0 0.07698792 
0.0 0.0 0.0 0.0 0.0 0.07698792 
0.0 0.0 0.0 0.0 0.0 0.07698792 
0.0 0.0 0.0 0.0 0.0 0.07698792 
0.36415568 0.0 0.0 0.10320058 0.0 0.4056106 
1.4071109 0.0 0.0 0.23192087 0.22889395 0.91777366 
2.081993 0.0 0.0 0.31291267 0.91269726 0.9785016 
1.4210219 0.83710897 0.0 0.11583261 1.6004779 0.48961297 
0.29243305 1.6091383 0.19529808 0.0 2.0556464 0.0 
0.0 1.5637331 1.2188851 0.0 1.7886704 0.0 
0.0 0.97764826 1.1399195 0.0 1.1015213 0.0 
0.0 0.49215534 0.74623513 0.0 0.38406786 0.0 
0.20312208 0.3006474 0.5901921 0.0 0.007488627 0.0 
0.50939405 0.38559172 0.5434097 0.0 0.0 0.0 
0.7786586 0.46031207 0.5848385 0.0 0.0 0.0 
1.1206844 0.35771334 0.49161798 0.0 0.0 0.0 
1.3621514 0.5884158 0.23427561 0.0 0.48088416 0.0 
1.1865475 0.77469486 0.0 0.0 1.6666895 0.07861917 
0.6888043 1.2423731 0.0 0.43879366 2.5508044 0.6321896 
0.0 1.552198 0.0 0.5767292 2.7236397 0.8638452 
0.0 1.3396164 0.32838926 0.5364101 2.0833323 0.8270997 
0.0 0.6060698 0.8610694 0.27726498 1.1939429 0.63180435 
0.0 0.24184665 0.8609368 0.2063527 0.42527446 0.40165573 
0.0 0.012368926 0.39483002 0.07024333 0.071499854 0.13393195 
0.0 0.0 0.0 0.0 0.0 0.07698792 
0.0 0.0 0.0 0.0 0.0 0.07698792 
0.0 0.0 0.0 0.0 0.0 0.07698792 
0.0 0.0 0.0 0.0 0.0 0.07698792 
0.0 0.0 0.0 0.0 0.0 0.07698792 
0.0 0.0 0.0 0.0 0.0 0.07698792 
0.0 0.0 0.0 0.0 0.0 0.07698792 
0.0 0.0 0.0 0.0 0.0 0.07698792 
0.37952125 0.0 0.0 0.14453158 0.123451814 0.5121304 
1.2009594 0.0 0.0 0.24994478 0.5985488 1.2280214 
1.6616616 0.0 0.0 0.48690355 1.1196483 1.4833434 
1.3604403 0.21210197 0.0 0.44324255 1.3846515 1.0548706 
0.37818074 1.156044 0.50590724 0.45648465 1.2538105 0.27099538 
0.0 1.2834967 1.9345682 0.0 1.1691427 0.0 
0.0 1.3682556 2.1412387 0.0 0.82722527 0.0 
0.17745222 1.034408 1.5010449 0.0 0.46864417 0.0 
0.5035775 0.90277684 1.0993599 0.0 0.2714682 0.0 
0.73096067 0.7346762 0.8874809 0.0 0.30617866 0.0 
0.8644684 0.7700924 0.89824986 0.0 0.49677637 0.0 
1.0014403 0.873881 0.7009635 0.0 1.0370055 0.0 
0.9592944 1.0892634 0.17371413 0.14021356 2.0340223 0.029808577 
0.50619036 1.3708731 0.0 0.42353344 2.6894922 0.5697006 
0.0 1.4194145 0.0 0.4647709 2.8118107 0.9357102 
0.0 1.0317452 0.0 0.29142103 2.4210012 1.0880892 
0.0 0.54472566 0.2607354 0.17745888 1.3158151 0.84793526 
0.0 0.14457703 0.4846959 0.0 0.57791 0.5027989 
0.0 0.0 0.35259005 0.0 0.2247793 0.26836538 
0.0 0.0 0.0892963 0.0 0.027555745 0.09655058 
0.0 0.0 0.0 0.0 0.0 0.07698792 
0.0 0.0 0.0 0.0 0.0 0.07698792 
0.0 0.0 0.0 0.0 0.0 0.07698792 
0.0 0.0 0.0 0.0 0.0 0.07698792 
0.0 0.0 0.0 0.0 0.0 0.07698792 
0.0 0.0 0.0 0.0 0.0 0.07698792 
0.0 0.0 0.0 0.0 0.0 0.07698792 
0.0 0.0 0.0 0.0 0.0 0.07698792 
0.29633844 0.0 0.0 0.0 0.2656847 0.41451094 
0.9564143 0.0 0.0 0.060834583 0.80702823 1.1325543 
1.2147403 0.0 0.0 0.1749088 1.2148184 1.5405526 
0.9636907 0.0 0.0 0.5426912 1.2816347 1.557457 
0.4642362 0.045662627 0.0 1.04938 1.3415829 1.3738742 
0.1560579 0.6032324 0.958776 1.4725718 1.3908404 0.9891588 
0.0 0.7936932 1.5683676 1.540553 1.353811 0.5069971 
0.14235963 0.6572019 1.4317493 1.3786509 1.2150451 0.33242548 
0.56734407 0.70060307 1.244191 1.149469 1.0758187 0.15112442 
0.7722929 0.87586904 1.0307876 0.93702084 1.1119217 0.0 
0.89294875 1.1739045 0.8717725 0.748262 1.4557837 0.0 
0.7747668 1.4453652 0.5886124 0.6076198 2.208369 0.26308307 
0.3686983 1.6965507 0.17987081 0.593425 2.7496755 0.5887239 
0.0 1.6047615 0.0 0.47900346 2.8134778 0.9028917 
0.0 1.0527124 0.0 0.13893089 2.3661644 1.1071968 
0.0 0.41996637 0.0469378 0.0 1.3450876 0.81333715 
0.0 0.03292092 0.21980697 0.0 0.53582954 0.53126395 
0.0 0.0 0.27969426 0.0 0.2546972 0.28885335 
0.0 0.0 0.084755026 0.0 0.05723558 0.11341244 
0.0 0.0 0.0 0.0 0.0 0.07889041 
0.0 0.0 0.0 0.0 0.0 0.07698792 
0.0 0.0 0.0 0.0 0.0 0.07698792 
0.0 0.0 0.0 0.0 0.0 0.07698792 
0.0 0.0 0.0 0.0 0.0 0.07698792 
0.0 0.0 0.0 0.0 0.0 0.07698792 
0.0 0.0 0.0 0.0 0.0 0.07698792 
0.0 0.0 0.0 0.0 0.0 0.07698792 
0.0 0.0 0.0 0.0 0.0 0.07698792 
0.11229251 0.0 0.0 0.0 0.17337818 0.2227179 
0.5556195 0.0 0.0 0.0 0.58224386 0.6819128 
0.87905747 0.0 0.0 0.0 1.0330216 1.2174802 
0.86802435 0.0 0.0 0.0 1.2317749 1.5902386 
0.62873393 0.0 0.0 0.3892159 1.439978 1.7399094 
0.1961171 0.15682593 0.0 1.0425054 1.6049361 1.7014966 
0.100420356 0.41244933 0.20657444 1.4406028 1.4748428 1.5183821 
0.57052946 0.5537011 0.53914636 1.5136223 1.1900631 1.3236661 
1.0557363 0.66354716 0.51860154 1.30478 1.0975633 1.0833764 
1.4017482 0.97767496 0.34544724 0.9286971 1.3723731 0.73764133 
1.1816783 1.5591791 0.22144401 0.68818545 2.0768018 0.660819 
0.31909722 1.6955259 0.19736215 0.50802904 2.830103 0.74634904 
0.0 1.6324642 0.09286065 0.3059436 2.9314806 0.80056554 
0.0 0.9850269 0.12801233 0.07120345 2.423883 0.90749925 
0.0 0.40018648 0.22276992 0.0 1.329618 0.7786986 
0.0 0.022343192 0.22626069 0.0 0.5537234 0.43683475 
0.0 0.0 0.087357946 0.0 0.2296258 0.26546913 
0.0 0.0 0.0795318 0.0 0.05796549 0.11261715 
0.0 0.0 0.0 0.0 0.0 0.07889041 
0.0 0.0 0.0 0.0 0.0 0.07698792 
0.0 0.0 0.0 0.0 0.0 0.07698792 
0.0 0.0 0.0 0.0 0.0 0.07698792 
0.0 0.0 0.0 0.0 0.0 0.07698792 
0.0 0.0 0.0 0.0 0.0 0.07698792 
0.0 0.0 0.0 0.0 0.0 0.07698792 
0.0 0.0 0.0 0.0 0.0 0.07698792 
0.0 0.0 0.0 0.0 0.0 0.07698792 
0.0 0.0 0.0 0.0 0.0 0.07698792 
0.0 0.0 0.0 0.0 0.004149232 0.10421847 
0.19613928 0.0 0.0 0.0 0.3276429 0.27036494 
0.4644013 0.0 0.0 0.0 0.62178546 0.5505505 
0.6418402 0.0 0.0 0.0 0.93199545 0.93030864 
0.6471183 0.0 0.0 0.0 1.2597858 1.3227041 
0.51160806 0.0 0.0 0.0 1.3330071 1.4546998 
0.68160015 0.0 0.0 0.0 1.0619568 1.439781 
1.2179782 0.0 0.0 0.0 0.98015934 1.4105201 
1.6911926 0.0 0.0 0.0 1.2019914 1.1530135 
1.4595797 0.6277316 0.0 0.0 1.8178588 0.8168344 
0.4970582 1.2106802 0.0 0.0 2.7820399 0.80194944 
0.0 1.4894633 0.0 0.09780798 3.070215 0.84465116 
0.0 1.1870136 0.27841592 0.06879787 2.44357 0.85683864 
0.0 0.4676755 0.4272081 0.0 1.3752867 0.6738106 
0.0 0.083077505 0.45528668 0.0 0.5226398 0.46396315 
0.0 0.0 0.28183484 0.0 0.18653427 0.20984153 
0.0 0.0 0.0 0.0 0.010113586 0.09863745 
0.0 0.0 0.0 0.0 0.0 0.07858601 
0.0 0.0 0.0 0.0 0.0 0.07698792 
0.0 0.0 0.0 0.0 0.0 0.07698792 
0.0 0.0 0.0 0.0 0.0 0.07698792 
0.0 0.0 0.0 0.0 0.0 0.07698792 
0.0 0.0 0.0 0.0 0.0 0.07698792 
0.0 0.0 0.0 0.0 0.0 0.07698792 
0.0 0.0 0.0 0.0 0.0 0.07698792 
0.0 0.0 0.0 0.0 0.0 0.07698792 
0.0 0.0 0.0 0.0 0.0 0.07698792 
0.0 0.0 0.0 0.0 0.0 0.07698792 
0.0 0.0 0.0 0.0 0.0 0.07698792 
0.0 0.0 0.0 0.0 0.0 0.08874657 
0.059772104 0.0 0.0 0.0 0.14274739 0.16712105 
0.25126976 0.0 0.0 0.0 0.44012466 0.30902487 
0.38966078 0.0 0.0 0.0 0.57078743 0.37205434 
0.6190534 0.0 0.0 0.0 0.49359903 0.31051156 
1.1070123 0.0 0.0 0.0 0.4545057 0.3112685 
1.6580441 0.0 0.0 0.0 0.70804024 0.3029323 
1.7390187 0.0 0.0 0.0 1.5116826 0.30957478 
0.90662766 0.6495665 0.0 0.0 2.5654635 0.5976547 
0.0 1.25171 0.0 0.0 3.0293682 0.7340682 
0.0 1.1544284 0.1400927 0.10956014 2.6157727 0.83955747 
0.0 0.5792731 0.4882993 0.09227371 1.5319897 0.73754257 
0.0 0.14083797 0.5088748 0.0 0.62525076 0.44586578 
0.0 0.0 0.2624487 0.0 0.21282877 0.24952137 
0.0 0.0 0.077567704 0.0 0.025786247 0.096318886 
0.0 0.0 0.0 0.0 0.0 0.07714012 
0.0 0.0 0.0 0.0 0.0 0.07698792 
0.0 0.0 0.0 0.0 0.0 0.07698792 
0.0 0.0 0.0 0.0 0.0 0.07698792 
0.0 0.0 0.0 0.0 0.0 0.07698792 
0.0 0.0 0.0 0.0 0.0 0.07698792 
0.0 0.0 0.0 0.0 0.0 0.07698792 
0.0 0.0 0.0 0.0 0.0 0.07698792 
0.0 0.0 0.0 0.0 0.0 0.07698792 
0.0 0.0 0.0 0.0 0.0 0.07698792 
0.0 0.0 0.0 0.0 0.0 0.07698792 
0.0 0.0 0.0 0.0 0.0 0.07698792 
0.0 0.0 0.0 0.0 0.0 0.07698792 
0.0 0.0 0.0 0.0 0.0 0.07698792 
0.0 0.0 0.0 0.0 0.0 0.07698792 
0.0097319335 0.0 0.04451772 0.0 0.0 0.029095493 
0.28785947 0.0 0.13911614 0.0 0.0 0.0 
0.7258826 0.0 0.14913267 0.0 0.0 0.0 
1.3892977 0.0 0.12143753 0.0 0.0 0.0 
1.766633 0.35214734 0.0 0.0 0.6136011 0.0 
1.188226 1.0474341 0.0 0.081460804 1.9694327 0.27051443 
0.21708483 1.4716457 0.0 0.2355142 2.7280228 0.58315235 
0.0 1.4390639 0.0 0.2619914 2.5397494 0.8032736 
0.0 0.7207015 0.40380937 0.13462974 1.6413715 0.7568562 
0.0 0.22100961 0.60514545 0.06603187 0.6743589 0.53667337 
0.0 0.0 0.41862673 0.0 0.24305789 0.2619931 
0.0 0.0 0.05848501 0.0 0.031064797 0.107262656 
0.0 0.0 0.0 0.0 0.0 0.07858601 
0.0 0.0 0.0 0.0 0.0 0.07698792 
0.0 0.0 0.0 0.0 0.0 0.07698792 
0.0 0.0 0.0 0.0 0.0 0.07698792 
0.0 0.0 0.0 0.0 0.0 0.07698792 
0.0 0.0 0.0 0.0 0.0 0.07698792 
0.0 0.0 0.0 0.0 0.0 0.07698792 
0.0 0.0 0.0 0.0 0.0 0.07698792 
0.0 0.0 0.0 0.0 0.0 0.07698792 
0.0 0.0 0.0 0.0 0.0 0.07698792 
0.0 0.0 0.0 0.0 0.0 0.07698792 
0.0 0.0 0.0 0.0 0.0 0.07698792 
0.0 0.0 0.0 0.0 0.0 0.07698792 
0.0 0.0 0.0 0.0 0.0 0.07698792 
0.0 0.0 0.0 0.0 0.0 0.07698792 
0.043245725 0.0 0.08627703 0.0 0.0 0.009485997 
0.35869533 0.0 0.16069299 0.0 0.0 0.0 
0.7672107 0.0 0.20167336 0.0 0.0 0.0 
1.3589664 0.0 0.1797438 0.0 0.0 0.0 
1.650069 0.4166967 0.0 0.0 0.5477181 0.0 
1.2070143 0.89609814 0.0 0.052728813 1.9160656 0.21578217 
0.28978676 1.45212 0.0 0.29145166 2.691992 0.54585516 
0.0 1.415853 0.0 0.23098229 2.6779773 0.83492786 
0.0 0.8348183 0.2700911 0.12034076 1.782597 0.8435001 
0.0 0.21616893 0.47707355 0.0 0.8005758 0.5502042 
0.0 0.0 0.36954132 0.0 0.290787 0.333183 
0.0 0.0 0.15157095 0.0 0.072476566 0.12294332 
0.0 0.0 0.0 0.0 0.0 0.07889041 
0.0 0.0 0.0 0.0 0.0 0.07698792 
0.0 0.0 0.0 0.0 0.0 0.07698792 
0.0 0.0 0.0 0.0 0.0 0.07698792 
0.0 0.0 0.0 0.0 0.0 0.07698792 
0.0 0.0 0.0 0.0 0.0 0.07698792 
0.0 0.0 0.0 0.0 0.0 0.07698792 
0.0 0.0 0.0 0.0 0.0 0.07698792 
0.0 0.0 0.0 0.0 0.0 0.07698792 
0.0 0.0 0.0 0.0 0.0 0.07698792 
0.0 0.0 0.0 0.0 0.0 0.07698792 
0.0 0.0 0.0 0.0 0.0 0.07698792 
0.0 0.0 0.0 0.0 0.0 0.07698792 
0.0 0.0 0.0 0.0 0.0 0.07698792 
0.0 0.0 0.0 0.0 0.0 0.07698792 
0.0 0.0 0.0 0.0 0.0 0.07057712 
0.20851618 0.0 0.05787567 0.0 0.0 0.014357984 
0.8503834 0.0 0.12148642 0.0 0.0 0.0 
1.3846989 0.0 0.07948943 0.0 0.0 0.0 
1.530735 0.446457 0.0 0.042889442 0.48192325 0.0 
1.0288608 0.9052625 0.0 0.16329528 1.9688028 0.24442372 
0.3328013 1.4060942 0.0 0.46102217 2.7026746 0.6727274 
0.0 1.364238 0.0 0.3655325 2.6755164 0.8923469 
0.0 0.87749135 0.21841058 0.25091606 1.8382452 0.846138 
0.0 0.25145268 0.48898798 0.020149447 0.8867904 0.59898764 
0.0 0.0 0.40438935 0.0 0.34425762 0.33393902 
0.0 0.0 0.10774433 0.0 0.0960322 0.13852222 
0.0 0.0 0.0 0.0 0.0 0.081249505 
0.0 0.0 0.0 0.0 0.0 0.07698792 
0.0 0.0 0.0 0.0 0.0 0.07698792 
0.0 0.0 0.0 0.0 0.0 0.07698792 
0.0 0.0 0.0 0.0 0.0 0.07698792 
0.0 0.0 0.0 0.0 0.0 0.07698792 
0.0 0.0 0.0 0.0 0.0 0.07698792 
0.0 0.0 0.0 0.0 0.0 0.07698792 
0.0 0.0 0.0 0.0 0.0 0.07698792 
0.0 0.0 0.0 0.0 0.0 0.07698792 
0.0 0.0 0.0 0.0 0.0 0.07698792 
0.0 0.0 0.0 0.0 0.0 0.07698792 
0.0 0.0 0.0 0.0 0.0 0.07698792 
0.0 0.0 0.0 0.0 0.0 0.07698792 
0.0 0.0 0.0 0.0 0.0 0.07698792 
0.0 0.0 0.0 0.0 0.0 0.07698792 
0.0 0.0 0.00969404 0.0 0.0 0.04618397 
0.5520933 0.0 0.0 0.0 0.0 0.12490436 
1.3308263 0.0 0.0 0.046294514 0.0 0.13249235 
1.6610365 0.092861906 0.0 0.2378158 0.4138029 0.07076538 
1.2153502 0.95407045 0.0 0.4356635 1.7265747 0.33898175 
0.29562095 1.50976 0.0 0.47987935 2.7014084 0.6339618 
0.0 1.3662064 0.0 0.35125676 2.696935 0.92421407 
0.0 0.8843518 0.029562108 0.21653411 1.8480254 0.93250793 
0.0 0.28706267 0.42307398 0.033450138 0.866876 0.63901496 
0.0 0.025425162 0.44905722 0.0 0.35643333 0.38493595 
0.0 0.0 0.22234091 0.0 0.10373865 0.14509556 
0.0 0.0 0.0 0.0 0.0 0.08018411 
0.0 0.0 0.0 0.0 0.0 0.07698792 
0.0 0.0 0.0 0.0 0.0 0.07698792 
0.0 0.0 0.0 0.0 0.0 0.07698792 
0.0 0.0 0.0 0.0 0.0 0.07698792 
0.0 0.0 0.0 0.0 0.0 0.07698792 
0.0 0.0 0.0 0.0 0.0 0.07698792 
0.0 0.0 0.0 0.0 0.0 0.07698792 
0.0 0.0 0.0 0.0 0.0 0.07698792 
0.0 0.0 0.0 0.0 0.0 0.07698792 
0.0 0.0 0.0 0.0 0.0 0.07698792 
0.0 0.0 0.0 0.0 0.0 0.07698792 
0.0 0.0 0.0 0.0 0.0 0.07698792 
0.0 0.0 0.0 0.0 0.0 0.07698792 
0.0 0.0 0.0 0.0 0.0 0.07698792 
0.0 0.0 0.0 0.0 0.0 0.07698792 
0.0 0.0 0.0 0.0 0.0 0.07698792 
0.12539965 0.0 0.03934554 0.0 0.0 0.047647253 
1.0012138 0.0 0.0 0.039118987 0.0 0.3030549 
1.7341683 0.0 0.0 0.08956188 0.1884846 0.5256972 
1.5485077 0.54688615 0.0 0.26967058 1.3475876 0.4771859 
0.5700372 1.3947947 0.0 0.36227176 2.3551586 0.6600196 
0.0 1.4844186 0.0 0.25608596 2.700998 0.88025963 
0.0 0.85724556 0.067346446 0.055293676 1.951428 0.92051727 
0.0 0.229946 0.25027463 0.0 0.917033 0.64049 
0.0 0.0 0.29775605 0.0 0.36818728 0.38954073 
0.0 0.0 0.17437059 0.0 0.13745323 0.17590818 
0.0 0.0 0.0 0.0 0.0 0.08421739 
0.0 0.0 0.0 0.0 0.0 0.07698792 
0.0 0.0 0.0 0.0 0.0 0.07698792 
0.0 0.0 0.0 0.0 0.0 0.07698792 
0.0 0.0 0.0 0.0 0.0 0.07698792 
0.0 0.0 0.0 0.0 0.0 0.07698792 
0.0 0.0 0.0 0.0 0.0 0.07698792 
0.0 0.0 0.0 0.0 0.0 0.07698792 
0.0 0.0 0.0 0.0 0.0 0.07698792 
0.0 0.0 0.0 0.0 0.0 0.07698792 
0.0 0.0 0.0 0.0 0.0 0.07698792 
0.0 0.0 0.0 0.0 0.0 0.07698792 
0.0 0.0 0.0 0.0 0.0 0.07698792 
0.0 0.0 0.0 0.0 0.0 0.07698792 
0.0 0.0 0.0 0.0 0.0 0.07698792 
0.0 0.0 0.0 0.0 0.0 0.07698792 
0.0 0.0 0.0 0.0 0.0 0.07698792 
0.0 0.0 0.0 0.0 0.0 0.07698792 
0.23070076 0.0 0.0 0.014758737 0.0 0.20237452 
1.3315194 0.0 0.0 0.1201684 0.0 0.655351 
1.9812224 0.0 0.0 0.16490525 0.881682 0.8213614 
1.0640132 0.88272 0.0 0.18414068 1.8395576 0.55950767 
0.0 1.3241241 0.0 0.0 2.4759042 0.54163426 
0.0 1.0226012 0.30924577 0.0 2.0992427 0.61423725 
0.0 0.3020427 0.4037524 0.0 1.067892 0.5440271 
0.0 0.0 0.2949978 0.0 0.37293732 0.35699573 
0.0 0.0 0.124958016 0.0 0.12981603 0.16803229 
0.0 0.0 0.0 0.0 0.0 0.08414129 
0.0 0.0 0.0 0.0 0.0 0.07698792 
0.0 0.0 0.0 0.0 0.0 0.07698792 
0.0 0.0 0.0 0.0 0.0 0.07698792 
0.0 0.0 0.0 0.0 0.0 0.07698792 
0.0 0.0 0.0 0.0 0.0 0.07698792 
0.0 0.0 0.0 0.0 0.0 0.07698792 
0.0 0.0 0.0 0.0 0.0 0.07698792 
0.0 0.0 0.0 0.0 0.0 0.07698792 
0.0 0.0 0.0 0.0 0.0 0.07698792 
0.0 0.0 0.0 0.0 0.0 0.07698792 
0.0 0.0 0.0 0.0 0.0 0.07698792 
0.0 0.0 0.0 0.0 0.0 0.07698792 
0.0 0.0 0.0 0.0 0.0 0.07698792 
0.0 0.0 0.0 0.0 0.0 0.07698792 
0.0 0.0 0.0 0.0 0.0 0.07698792 
0.0 0.0 0.0 0.0 0.0 0.07698792 
0.0 0.0 0.0 0.0 0.0 0.07698792 
0.0 0.0 0.0 0.0 0.0 0.07698792 
0.30571637 0.0 0.0 0.14280005 0.0 0.41743845 
1.1627188 0.0 0.0 0.34831133 0.41828525 1.0701618 
1.424866 0.0 0.0 0.6092836 1.2622801 1.2733331 
0.57132715 0.68730897 0.0 0.55444026 1.8484479 1.0380703 
0.0 1.1411507 0.0 0.4048197 1.7633339 0.83870167 
0.0 0.54457855 0.7496628 0.052132376 1.2685767 0.55735433 
0.0 0.05163589 0.55258894 0.0 0.54309493 0.32789984 
0.0 0.0 0.1885367 0.0 0.1065422 0.1583113 
0.0 0.0 0.0 0.0 0.0 0.0820866 
0.0 0.0 0.0 0.0 0.0 0.07698792 
0.0 0.0 0.0 0.0 0.0 0.07698792 
0.0 0.0 0.0 0.0 0.0 0.07698792 
0.0 0.0 0.0 0.0 0.0 0.07698792 
0.0 0.0 0.0 0.0 0.0 0.07698792 
0.0 0.0 0.0 0.0 0.0 0.07698792 
0.0 0.0 0.0 0.0 0.0 0.07698792 
0.0 0.0 0.0 0.0 0.0 0.07698792 
0.0 0.0 0.0 0.0 0.0 0.07698792 
0.0 0.0 0.0 0.0 0.0 0.07698792 
0.0 0.0 0.0 0.0 0.0 0.07698792 
0.0 0.0 0.0 0.0 0.0 0.07698792 
0.0 0.0 0.0 0.0 0.0 0.07698792 
0.0 0.0 0.0 0.0 0.0 0.07698792 
0.0 0.0 0.0 0.0 0.0 0.07698792 
0.0 0.0 0.0 0.0 0.0 0.07698792 
0.0 0.0 0.0 0.0 0.0 0.07698792 
0.0 0.0 0.0 0.0 0.0 0.07698792 
0.0 0.0 0.0 0.0 0.0 0.07698792 
0.3107811 0.0 0.0 0.11322575 0.1647398 0.4595353 
0.9629366 0.0 0.0 0.18240185 0.806111 1.1644175 
0.8287772 0.0 0.0 0.23424357 1.2929868 1.2209549 
0.070080295 0.25760943 0.0 0.27920488 1.3030361 0.8835258 
0.0 0.43510073 0.06301939 0.35546777 0.9951752 0.73671937 
0.0 0.27140674 0.80809325 0.21679498 0.6068106 0.4720571 
0.0 0.0 0.42742348 0.016767953 0.20811291 0.18196735 
0.0 0.0 0.0008546226 0.0 0.0 0.08444569 
0.0 0.0 0.0 0.0 0.0 0.07698792 
0.0 0.0 0.0 0.0 0.0 0.07698792 
0.0 0.0 0.0 0.0 0.0 0.07698792 
0.0 0.0 0.0 0.0 0.0 0.07698792 
0.0 0.0 0.0 0.0 0.0 0.07698792 
0.0 0.0 0.0 0.0 0.0 0.07698792 
0.0 0.0 0.0 0.0 0.0 0.07698792 
0.0 0.0 0.0 0.0 0.0 0.07698792 
0.0 0.0 0.0 0.0 0.0 0.07698792 
0.0 0.0 0.0 0.0 0.0 0.07698792 
0.0 0.0 0.0 0.0 0.0 0.07698792 
0.0 0.0 0.0 0.0 0.0 0.07698792 
0.0 0.0 0.0 0.0 0.0 0.07698792 
0.0 0.0 0.0 0.0 0.0 0.07698792 
0.0 0.0 0.0 0.0 0.0 0.07698792 
0.0 0.0 0.0 0.0 0.0 0.07698792 
0.0 0.0 0.0 0.0 0.0 0.07698792 
0.0 0.0 0.0 0.0 0.0 0.07698792 
0.0 0.0 0.0 0.0 0.0 0.07698792 
0.0 0.0 0.0 0.0 0.0 0.07698792 
0.20151529 0.0 0.0 0.0 0.24075596 0.31220227 
0.6184049 0.0 0.0 0.0 0.6784683 0.7903897 
0.46480942 0.0 0.0 0.0 0.83476645 0.9146481 
0.0 0.12531315 0.0 0.0 0.58203286 0.722305 
0.0 8.89739e-05 0.0 0.0 0.37720913 0.5622656 
0.0 0.004234637 0.49126208 0.020529881 0.21164717 0.33385488 
0.0 0.0 0.22612828 0.026171677 0.025236372 0.11694537 
0.0 0.0 0.0 0.0 0.0 0.07698792 
0.0 0.0 0.0 0.0 0.0 0.07698792 
0.0 0.0 0.0 0.0 0.0 0.07698792 
0.0 0.0 0.0 0.0 0.0 0.07698792 
0.0 0.0 0.0 0.0 0.0 0.07698792 
0.0 0.0 0.0 0.0 0.0 0.07698792 
0.0 0.0 0.0 0.0 0.0 0.07698792 
0.0 0.0 0.0 0.0 0.0 0.07698792 
0.0 0.0 0.0 0.0 0.0 0.07698792 
0.0 0.0 0.0 0.0 0.0 0.07698792 
0.0 0.0 0.0 0.0 0.0 0.07698792 
0.0 0.0 0.0 0.0 0.0 0.07698792 
0.0 0.0 0.0 0.0 0.0 0.07698792 
0.0 0.0 0.0 0.0 0.0 0.07698792 
0.0 0.0 0.0 0.0 0.0 0.07698792 

