0.0 0.0 0.0 0.0 0.0 0.07698792 
0.0 0.0 0.0 0.0 0.0 0.07698792 
0.0 0.0 0.0 0.0 0.0 0.07698792 
0.0 0.0 0.0 0.0 0.0 0.07698792 
0.0 0.0 0.0 0.0 0.0 0.07698792 
0.0 0.0 0.0 0.0 0.0 0.07698792 
0.0 0.0 0.0 0.0 0.0 0.07698792 
0.0 0.0 0.0 0.0 0.0 0.07698792 
0.0 0.0 0.0 0.0 0.0 0.07698792 
0.0 0.0 0.0 0.0 0.0 0.07698792 
0.0 0.0 0.0 0.0 0.0 0.07698792 
0.0 0.0 0.0 0.0 0.0 0.07698792 
0.0 0.0 0.0 0.0 0.0 0.07698792 
0.0 0.0 0.0 0.0 0.0 0.07698792 
0.0 0.0 0.0 0.0 0.0 0.07698792 
0.0 0.0 0.0 0.0 0.0 0.07698792 
0.0 0.0 0.0 0.0 0.0 0.07698792 
0.0 0.0 0.0 0.0 0.0 0.07698792 
0.0 0.0 0.0 0.0 0.0 0.07698792 
0.0 0.0 0.0 0.0 0.0 0.07698792 
0.0 0.0 0.0 0.0 0.0 0.07698792 
0.0 0.0 0.0 0.0 0.0 0.07698792 
0.0 0.0 0.0 0.0 0.0 0.07698792 
0.0 0.0 0.0 0.0 0.0 0.07698792 
0.0 0.0 0.0 0.0 0.0 0.07698792 
0.0 0.0 0.0 0.0 0.0 0.07698792 
0.0 0.0 0.0 0.0 0.0 0.07698792 
0.0 0.0 0.0 0.0 0.0 0.07698792 
0.0 0.0 0.0 0.0 0.0 0.07698792 
0.0 0.0 0.0 0.0 0.0 0.07698792 
0.0 0.0 0.0 0.0 0.0 0.07698792 
0.0 0.0 0.0 0.0 0.0 0.07698792 
0.0 0.0 0.0 0.0 0.0 0.07698792 
0.0 0.0 0.0 0.0 0.0 0.07698792 
0.0 0.0 0.0 0.0 0.0 0.07698792 
0.0 0.0 0.0 0.0 0.0 0.07698792 
0.0 0.0 0.0 0.0 0.0 0.07698792 
0.0 0.0 0.0 0.0 0.0 0.07698792 
0.0 0.0 0.0 0.0 0.0 0.07698792 
0.0 0.0 0.0 0.0 0.0 0.07698792 
0.0 0.0 0.0 0.0 0.0 0.07698792 
0.0 0.0 0.0 0.0 0.0 0.07698792 
0.0 0.0 0.0 0.0 0.0 0.07698792 
0.0 0.0 0.0 0.0 0.0 0.07698792 
0.0 0.0 0.0 0.0 0.0 0.07698792 
0.0 0.0 0.0 0.0 0.0 0.07698792 
0.0 0.0 0.0 0.0 0.0 0.07698792 
0.0 0.0 0.0 0.0 0.0 0.07698792 
0.0 0.0 0.0 0.0 0.0 0.07698792 
0.0 0.0 0.0 0.0 0.0 0.07698792 
0.0 0.0 0.0 0.0 0.0 0.07698792 
0.0 0.0 0.0 0.0 0.0 0.07698792 
0.0 0.0 0.0 0.0 0.0 0.07698792 
0.0 0.0 0.0 0.0 0.0 0.07698792 
0.0 0.0 0.0 0.0 0.0 0.07698792 
0.0 0.0 0.0 0.0 0.0 0.07698792 
0.0 0.0 0.0 0.0 0.0 0.07698792 
0.0 0.0 0.0 0.0 0.0 0.07698792 
0.0 0.0 0.0 0.0 0.0 0.07698792 
0.0 0.0 0.0 0.0 0.0 0.07698792 
0.0 0.0 0.0 0.0 0.0 0.07698792 
0.0 0.0 0.0 0.0 0.0 0.07698792 
0.0 0.0 0.0 0.0 0.0 0.07698792 
0.0 0.0 0.0 0.0 0.0 0.07698792 
0.0 0.0 0.0 0.0 0.0 0.07698792 
0.0 0.0 0.0 0.0 0.0 0.07434818 
0.0 0.0 0.0 0.0 0.0 0.05998417 
0.0016570315 0.0 0.016015418 0.0 0.0 0.011627145 
0.103235304 0.02115516 0.10661451 0.0 0.0 0.0 
0.24547619 0.09269523 0.2531634 0.0 0.0 0.0 
0.3350352 0.27914193 0.3354415 0.0 0.0 0.0 
0.17940247 0.47341907 0.273628 0.0 0.0 0.0 
0.0 0.46296445 0.23408559 0.0 0.0 0.0 
0.0 0.3526582 0.13774654 0.0 0.082874835 0.0 
0.0 0.14820519 0.005051993 0.0 0.06347169 0.0 
0.0 0.011936891 0.0 0.0 0.0 0.058228675 
0.0 0.0 0.0 0.0 0.0 0.07698792 
0.0 0.0 0.0 0.0 0.0 0.07698792 
0.0 0.0 0.0 0.0 0.0 0.07698792 
0.0 0.0 0.0 0.0 0.0 0.07698792 
0.0 0.0 0.0 0.0 0.0 0.07698792 
0.0 0.0 0.0 0.0 0.0 0.07698792 
0.0 0.0 0.0 0.0 0.0 0.07698792 
0.0 0.0 0.0 0.0 0.0 0.07698792 
0.0 0.0 0.0 0.0 0.0 0.07698792 
0.0 0.0 0.0 0.0 0.0 0.07698792 
0.0 0.0 0.0 0.0 0.0 0.07698792 
0.0 0.0 0.0 0.0 0.0 0.07698792 
0.0 0.0 0.0 0.0 0.0 0.07698792 
0.0 0.0 0.0 0.0 0.0 0.07698792 
0.0 0.0 0.0 0.0 0.0 0.07698792 
0.0 0.0 0.0 0.0 0.0 0.07698792 
0.0 0.0 0.0 0.0 0.0 0.05775553 
0.10540661 0.0 0.10862049 0.0 0.0 0.0 
0.30604228 0.06020236 0.23253173 0.0 0.0 0.0 
0.43437403 0.20212162 0.33456045 0.0 0.0 0.0 
0.5559672 0.3538873 0.4583286 0.0 0.0 0.0 
0.70985097 0.4767549 0.5444431 0.0 0.0 0.0 
0.7895041 0.671243 0.71089906 0.0 0.0 0.0 
0.5190352 1.0701648 0.85215396 0.0 0.11485647 0.0 
0.0 1.2657102 0.8034796 0.0 0.4792466 0.0 
0.0 0.8546321 0.67284644 0.0 0.6139037 0.0 
0.0 0.32727337 0.25985348 0.0 0.43268037 0.0 
0.0 0.08023659 0.0 0.0 0.08116929 0.0 
0.0 0.0 0.0 0.0 0.0 0.07698792 
0.0 0.0 0.0 0.0 0.0 0.07698792 
0.0 0.0 0.0 0.0 0.0 0.07698792 
0.0 0.0 0.0 0.0 0.0 0.07698792 
0.0 0.0 0.0 0.0 0.0 0.07698792 
0.0 0.0 0.0 0.0 0.0 0.07698792 
0.0 0.0 0.0 0.0 0.0 0.07698792 
0.0 0.0 0.0 0.0 0.0 0.07698792 
0.0 0.0 0.0 0.0 0.0 0.07698792 
0.0 0.0 0.0 0.0 0.0 0.07698792 
0.0 0.0 0.0 0.0 0.0 0.07698792 
0.0 0.0 0.0 0.0 0.0 0.07698792 
0.0 0.0 0.0 0.0 0.0 0.07698792 
0.0 0.0 0.0 0.0 0.0 0.07698792 
0.0 0.0 0.0 0.0 0.0 0.07698792 
0.0 0.0 0.0 0.0 0.0 0.05850974 
0.15793388 0.0 0.12210973 0.0 0.0 0.0 
0.51218987 0.0 0.19126463 0.0 0.0 0.0 
0.80198246 0.0683769 0.33453685 0.0 0.0 0.0 
1.0173862 0.4035412 0.54004186 0.0 0.0 0.0 
0.96010774 0.71791065 0.76223236 0.0 0.0 0.0 
0.8481971 0.7222555 0.883296 0.0 0.38534638 0.0 
0.7270922 0.8364946 1.0268587 0.0 0.6904543 0.0 
0.3172964 1.330581 1.3973413 0.0 0.95142275 0.0 
0.0 1.7548994 1.6001166 0.0 1.242158 0.0 
0.0 1.5525944 1.5203156 0.0 1.1135707 0.0 
0.0 0.85593337 0.91337126 0.0 0.72597224 0.0 
0.0 0.16402537 0.14209527 0.0 0.31903175 0.0 
0.0 0.0012756363 0.0 0.0 0.0 0.06812939 
0.0 0.0 0.0 0.0 0.0 0.07698792 
0.0 0.0 0.0 0.0 0.0 0.07698792 
0.0 0.0 0.0 0.0 0.0 0.07698792 
0.0 0.0 0.0 0.0 0.0 0.07698792 
0.0 0.0 0.0 0.0 0.0 0.07698792 
0.0 0.0 0.0 0.0 0.0 0.07698792 
0.0 0.0 0.0 0.0 0.0 0.07698792 
0.0 0.0 0.0 0.0 0.0 0.07698792 
0.0 0.0 0.0 0.0 0.0 0.07698792 
0.0 0.0 0.0 0.0 0.0 0.07698792 
0.0 0.0 0.0 0.0 0.0 0.07698792 
0.0 0.0 0.0 0.0 0.0 0.07698792 
0.0 0.0 0.0 0.0 0.0 0.07698792 
0.0 0.0 0.0 0.0 0.0 0.07698792 
0.10872622 0.0 0.10796862 0.0 0.0 0.0014209449 
0.5917914 0.0 0.120199285 0.0 0.0 0.0 
1.0612619 0.0 0.19258982 0.0 0.0 0.0 
1.378926 0.16792813 0.34059572 0.0 0.0 0.0 
1.161643 0.73916703 0.68374145 0.0 0.43280372 0.0 
0.86473083 1.0318067 0.9737375 0.11232437 1.0682919 0.0 
0.86156875 1.3403456 1.0969551 0.42849073 1.3908671 0.0 
0.83451647 1.5780516 1.0581481 0.5345611 1.5741234 0.0 
0.42650306 1.8833249 1.3626271 0.4478034 1.5442373 0.0 
0.0 2.266845 2.0525572 0.3391501 1.4948148 0.0 
0.0 2.1270459 2.2145407 0.10363908 1.3545625 0.0 
0.0 1.4201015 1.7400613 0.0 0.9692152 0.0 
0.0 0.47839335 0.5551785 0.0 0.5212651 0.0 
0.0 0.079789385 0.0 0.0 0.05234744 0.0 
0.0 0.0 0.0 0.0 0.0 0.07698792 
0.0 0.0 0.0 0.0 0.0 0.07698792 
0.0 0.0 0.0 0.0 0.0 0.07698792 
0.0 0.0 0.0 0.0 0.0 0.07698792 
0.0 0.0 0.0 0.0 0.0 0.07698792 
0.0 0.0 0.0 0.0 0.0 0.07698792 
0.0 0.0 0.0 0.0 0.0 0.07698792 
0.0 0.0 0.0 0.0 0.0 0.07698792 
0.0 0.0 0.0 0.0 0.0 0.07698792 
0.0 0.0 0.0 0.0 0.0 0.07698792 
0.0 0.0 0.0 0.0 0.0 0.07698792 
0.0 0.0 0.0 0.0 0.0 0.07698792 
0.0 0.0 0.0 0.0 0.0 0.07698792 
0.029711306 0.0 0.0694127 0.0 0.0 0.01740522 
0.45594716 0.0 0.06881804 0.0 0.0 0.0 
1.1230576 0.0 0.09541116 0.0 0.0 0.0 
1.6436925 0.041212663 0.028250039 0.0 0.0 0.0 
1.5226359 0.8432308 0.20026487 0.1335291 0.6628567 0.0 
1.0434604 1.3087492 0.41057634 0.2807782 1.5885615 0.0 
0.8799595 1.56335 0.60236394 0.5291007 2.0315735 0.2680211 
0.9170286 1.4690616 0.62587184 0.5504027 2.3169923 0.5663992 
0.9884427 1.4487634 0.3773467 0.4868041 2.416325 0.6905475 
0.62284905 1.5077636 0.45321167 0.3570514 2.169683 0.44775897 
0.0 1.8795397 1.3684415 0.07949427 1.8470677 0.0 
0.0 2.074937 2.119475 0.0 1.7290372 0.0 
0.0 1.6341656 2.1745157 0.0 1.3016595 0.0 
0.0 0.9450783 1.1984426 0.0 0.7528842 0.0 
0.0 0.14430565 0.10486997 0.0 0.3186966 0.0 
0.0 0.0 0.0 0.0 0.0 0.07698792 
0.0 0.0 0.0 0.0 0.0 0.07698792 
0.0 0.0 0.0 0.0 0.0 0.07698792 
0.0 0.0 0.0 0.0 0.0 0.07698792 
0.0 0.0 0.0 0.0 0.0 0.07698792 
0.0 0.0 0.0 0.0 0.0 0.07698792 
0.0 0.0 0.0 0.0 0.0 0.07698792 
0.0 0.0 0.0 0.0 0.0 0.07698792 
0.0 0.0 0.0 0.0 0.0 0.07698792 
0.0 0.0 0.0 0.0 0.0 0.07698792 
0.0 0.0 0.0 0.0 0.0 0.07698792 
0.0 0.0 0.0 0.0 0.0 0.07698792 
0.0 0.0 0.0 0.0 0.0 0.07698792 
0.17567948 0.0 0.058149196 0.0 0.0 0.02953339 
0.9877091 0.0 0.0 0.0 0.0 0.10248902 
1.6733038 0.0 0.0 0.0 0.0 0.120102614 
1.8379495 0.44930896 0.0 0.0848456 0.80845946 0.015948854 
1.3298769 1.1092232 0.0 0.107058346 1.9743327 0.2824541 
0.83404607 1.3398142 0.0 0.33526656 2.6708472 0.7012557 
0.44992334 1.2578067 0.0 0.5646147 2.9734867 1.1606345 
0.3665331 0.8228288 0.0 0.7081626 2.911405 1.5607765 
0.67270845 0.47404572 0.0 0.78168434 2.6450987 1.660022 
0.9280487 0.69345075 0.0 0.7046996 2.3046153 1.3080347 
0.37175643 1.316847 0.68702084 0.42790145 1.8473502 0.39690432 
0.0 1.9469153 1.755015 0.15759194 1.8736365 0.0 
0.0 1.7909752 2.1783257 0.0 1.6660894 0.0 
0.0 1.225511 1.7921627 0.0 1.0633317 0.0 
0.0 0.2934241 0.4144711 0.0 0.5372371 0.0 
0.0 0.0 0.0 0.0 0.0 0.07698792 
0.0 0.0 0.0 0.0 0.0 0.07698792 
0.0 0.0 0.0 0.0 0.0 0.07698792 
0.0 0.0 0.0 0.0 0.0 0.07698792 
0.0 0.0 0.0 0.0 0.0 0.07698792 
0.0 0.0 0.0 0.0 0.0 0.07698792 
0.0 0.0 0.0 0.0 0.0 0.07698792 
0.0 0.0 0.0 0.0 0.0 0.07698792 
0.0 0.0 0.0 0.0 0.0 0.07698792 
0.0 0.0 0.0 0.0 0.0 0.07698792 
0.0 0.0 0.0 0.0 0.0 0.07698792 
0.0 0.0 0.0 0.0 0.0 0.07698792 
0.0 0.0 0.0 0.0 0.0 0.07698792 
0.30111992 0.0 0.0 0.040027976 0.0 0.269058 
1.2505045 0.0 0.0 0.33647197 0.0 0.61558294 
1.9126539 0.0 0.0 0.42829964 0.73466283 0.7814309 
1.4643879 0.6463025 0.0 0.6546272 1.6889275 0.88565916 
0.7589951 1.019748 0.0 0.6381671 2.6734147 1.0899289 
0.1397579 1.250148 0.0 0.7651155 3.1005228 1.4064045 
0.0 0.9043722 0.0 0.774889 3.0304525 1.6495168 
0.027052566 0.25152957 0.0 0.71445465 2.6195674 1.9252505 
0.8242338 0.0 0.0 0.6150958 2.0004702 1.9419296 
1.3954277 0.07200837 0.0 0.55921483 1.7930368 1.5690999 
1.070982 0.7944891 0.0 0.51338804 1.6589279 0.9140716 
0.0 1.9793146 1.2329247 0.32391337 1.9017519 0.0 
0.0 1.9538776 1.9911648 0.12467021 1.9035631 0.0 
0.0 1.3369786 2.097846 0.117317826 1.2428783 0.0 
0.0 0.47869316 0.82339704 0.0 0.6223065 0.0 
0.0 0.0 0.0 0.0 0.0 0.07698792 
0.0 0.0 0.0 0.0 0.0 0.07698792 
0.0 0.0 0.0 0.0 0.0 0.07698792 
0.0 0.0 0.0 0.0 0.0 0.07698792 
0.0 0.0 0.0 0.0 0.0 0.07698792 
0.0 0.0 0.0 0.0 0.0 0.07698792 
0.0 0.0 0.0 0.0 0.0 0.07698792 
0.0 0.0 0.0 0.0 0.0 0.07698792 
0.0 0.0 0.0 0.0 0.0 0.07698792 
0.0 0.0 0.0 0.0 0.0 0.07698792 
0.0 0.0 0.0 0.0 0.0 0.07698792 
0.0 0.0 0.0 0.0 0.0 0.07698792 
0.0 0.0 0.0 0.0 0.0 0.07698792 
0.39041728 0.0 0.0 0.22670433 0.0 0.52371466 
1.1815033 0.0 0.0 0.40773165 0.5365582 1.1649432 
1.4469018 0.0 0.0 0.7623571 1.3687506 1.4287267 
1.0436068 0.32950717 0.0 0.9667012 2.0942838 1.6143732 
0.19285035 0.9835828 0.0 1.0100378 2.57306 1.6721952 
0.0 0.7473285 0.0 0.57894176 2.593348 1.5412564 
0.0 0.47883213 0.0 0.112101346 1.999005 1.3938894 
0.50115246 0.09536752 0.0 0.0 1.3772475 1.3313482 
1.2733338 0.0 0.0 0.0 1.1372813 1.3143337 
1.6679771 0.0 0.0 0.0 1.3460274 1.0481207 
1.5599892 0.47874072 0.0 0.0 1.7204174 0.7437431 
0.0 1.9049878 0.5123347 0.0 2.1311352 0.00876075 
0.0 1.9374431 1.6127263 0.031794842 2.0378318 0.0 
0.0 1.2881162 2.0331736 0.07281369 1.3608035 0.0 
0.0 0.42980927 1.0673369 0.0 0.6872626 0.0 
0.0 0.0 0.0 0.0 0.0 0.07698792 
0.0 0.0 0.0 0.0 0.0 0.07698792 
0.0 0.0 0.0 0.0 0.0 0.07698792 
0.0 0.0 0.0 0.0 0.0 0.07698792 
0.0 0.0 0.0 0.0 0.0 0.07698792 
0.0 0.0 0.0 0.0 0.0 0.07698792 
0.0 0.0 0.0 0.0 0.0 0.07698792 
0.0 0.0 0.0 0.0 0.0 0.07698792 
0.0 0.0 0.0 0.0 0.0 0.07698792 
0.0 0.0 0.0 0.0 0.0 0.07698792 
0.0 0.0 0.0 0.0 0.0 0.07698792 
0.0 0.0 0.0 0.0 0.0 0.07698792 
0.0 0.0 0.0 0.0 0.0 0.07698792 
0.3929478 0.0 0.0 0.0859294 0.2657308 0.5308701 
0.98318 0.0 0.0 0.11437228 0.8963783 1.2195365 
0.89709985 0.0 0.0 0.18915284 1.3457268 1.3911407 
0.5479979 0.16569883 0.0 0.21671072 1.697108 1.5070789 
0.037975818 0.33115515 0.0 0.08372837 1.7465758 1.472106 
0.032787748 0.2187255 0.0 0.0 1.1653782 0.9430184 
0.30888027 0.0 0.0 0.0 0.5428176 0.2876161 
0.85152036 0.0 0.0 0.0 0.45830128 0.0 
1.6379972 0.0 0.0 0.0 0.8228212 0.13913968 
1.8386099 0.09316568 0.0 0.0 1.4542129 0.26675975 
1.4006875 0.68798643 0.0 0.0 2.1845171 0.44994858 
0.0 1.6657795 0.03703139 0.0 2.4988592 0.09619805 
0.0 1.7688154 1.3764646 0.08793016 2.0803194 0.0 
0.0 1.0958095 1.8318535 0.12987009 1.3941928 0.18056543 
0.0 0.2919785 1.0829678 0.07649687 0.61800927 0.018752158 
0.0 0.0 0.0 0.0 0.0 0.07698792 
0.0 0.0 0.0 0.0 0.0 0.07698792 
0.0 0.0 0.0 0.0 0.0 0.07698792 
0.0 0.0 0.0 0.0 0.0 0.07698792 
0.0 0.0 0.0 0.0 0.0 0.07698792 
0.0 0.0 0.0 0.0 0.0 0.07698792 
0.0 0.0 0.0 0.0 0.0 0.07698792 
0.0 0.0 0.0 0.0 0.0 0.07698792 
0.0 0.0 0.0 0.0 0.0 0.07698792 
0.0 0.0 0.0 0.0 0.0 0.07698792 
0.0 0.0 0.0 0.0 0.0 0.07698792 
0.0 0.0 0.0 0.0 0.0 0.07698792 
0.0 0.0 0.0 0.0 0.0 0.07698792 
0.22352517 0.0 0.0 0.0 0.29722154 0.317392 
0.5947373 0.0 0.0 0.0 0.6923567 0.7362414 
0.5425334 0.0 0.0 0.0 0.9671894 0.91069454 
0.28072622 0.0 0.0 0.0 1.0126947 0.8996505 
0.13700742 0.0 0.0 0.0 0.5611984 0.63604975 
0.4077391 0.0 0.0 0.0 0.008776087 0.21414709 
0.81877875 0.0 0.24623576 0.0 0.0 0.0 
1.2531745 0.08257562 0.43610775 0.0 0.1692608 0.0 
1.5066342 0.48589176 0.24330461 0.0 1.0856361 0.0 
1.4876974 0.8084745 0.0 0.0 1.9208993 0.002888374 
1.0936503 1.2471393 0.0 0.0 2.508655 0.24957368 
0.0 2.0037653 0.14299244 0.0 2.5021079 0.0 
0.0 1.6775291 1.3902237 0.0 1.9718379 0.0 
0.0 0.92936754 1.6532215 0.0 1.2760617 0.08811332 
0.0 0.31091517 0.9773425 0.038319703 0.46389475 0.021844666 
0.0 0.0 0.0 0.0 0.0 0.07698792 
0.0 0.0 0.0 0.0 0.0 0.07698792 
0.0 0.0 0.0 0.0 0.0 0.07698792 
0.0 0.0 0.0 0.0 0.0 0.07698792 
0.0 0.0 0.0 0.0 0.0 0.07698792 
0.0 0.0 0.0 0.0 0.0 0.07698792 
0.0 0.0 0.0 0.0 0.0 0.07698792 
0.0 0.0 0.0 0.0 0.0 0.07698792 
0.0 0.0 0.0 0.0 0.0 0.07698792 
0.0 0.0 0.0 0.0 0.0 0.07698792 
0.0 0.0 0.0 0.0 0.0 0.07698792 
0.0 0.0 0.0 0.0 0.0 0.07698792 
0.0 0.0 0.0 0.0 0.0 0.07698792 
0.0054504946 0.0 0.0 0.0 0.061047997 0.12897351 
0.17955846 0.0 0.0 0.0 0.3205013 0.25335982 
0.17415142 0.0 0.0 0.0 0.3601118 0.27680176 
0.016738005 0.0 0.0 0.0 0.1749257 0.2102855 
0.3374068 0.0 0.0 0.0 0.0 0.2797928 
1.077868 0.0 0.010525711 0.0 0.0 0.21432403 
1.475807 0.0 0.0813536 0.09898574 0.0488209 0.0 
1.4198554 0.76201457 0.3553685 0.33738917 0.73430794 0.0 
1.2489834 1.1517999 0.47063124 0.19428387 1.8435708 0.0055563077 
1.2062247 1.4093989 0.24990204 0.2139009 2.2797492 0.26691288 
0.86319065 1.6594446 0.17963701 0.0 2.4697921 0.2201739 
0.0 2.1540484 0.7442346 0.0 2.2668712 0.0 
0.0 1.8655288 1.5220462 0.0 1.7416049 0.0 
0.0 1.1175094 1.6835648 0.0 1.1739796 0.0 
0.0 0.3622571 0.88793373 0.0 0.556024 0.0 
0.0 0.092176855 0.0 0.0 0.03895991 0.0 
0.0 0.0 0.0 0.0 0.0 0.07698792 
0.0 0.0 0.0 0.0 0.0 0.07698792 
0.0 0.0 0.0 0.0 0.0 0.07698792 
0.0 0.0 0.0 0.0 0.0 0.07698792 
0.0 0.0 0.0 0.0 0.0 0.07698792 
0.0 0.0 0.0 0.0 0.0 0.07698792 
0.0 0.0 0.0 0.0 0.0 0.07698792 
0.0 0.0 0.0 0.0 0.0 0.07698792 
0.0 0.0 0.0 0.0 0.0 0.07698792 
0.0 0.0 0.0 0.0 0.0 0.07698792 
0.0 0.0 0.0 0.0 0.0 0.07698792 
0.0 0.0 0.0 0.0 0.0 0.07698792 
0.0 0.0 0.0 0.0 0.0 0.07698792 
0.0 0.0 0.0 0.0 0.0 0.07698792 
0.0 0.0 0.0 0.0 0.0 0.07698792 
0.0 0.0 0.0 0.011936888 0.0 0.11859288 
0.5489247 0.0 0.0 0.21016861 0.0 0.4982439 
1.4065638 0.0 0.0 0.4899445 0.0914707 0.8339531 
1.7676094 0.019722864 0.0 0.6892069 0.7752576 0.80618656 
1.5151339 0.8005769 0.0 0.74005055 1.5477697 0.80568206 
1.1331804 1.2429153 0.10863208 0.5495969 2.266118 0.73096716 
0.97336954 1.3298099 0.19936302 0.29707256 2.526434 0.7054326 
0.6646709 1.3934997 0.32358998 0.0 2.5145214 0.4288284 
0.0 1.7705142 1.1109306 0.0 2.0028567 0.0 
0.0 1.8338484 1.8594731 0.0 1.7096109 0.0 
0.0 1.5398364 1.9388623 0.0 1.3293558 0.0 
0.0 0.7645716 1.1455803 0.0 0.794305 0.0 
0.0 0.17513213 0.12311152 0.0 0.33797818 0.0 
0.0 0.02484262 0.0 0.0 0.0 0.0462436 
0.0 0.0 0.0 0.0 0.0 0.07698792 
0.0 0.0 0.0 0.0 0.0 0.07698792 
0.0 0.0 0.0 0.0 0.0 0.07698792 
0.0 0.0 0.0 0.0 0.0 0.07698792 
0.0 0.0 0.0 0.0 0.0 0.07698792 
0.0 0.0 0.0 0.0 0.0 0.07698792 
0.0 0.0 0.0 0.0 0.0 0.07698792 
0.0 0.0 0.0 0.0 0.0 0.07698792 
0.0 0.0 0.0 0.0 0.0 0.07698792 
0.0 0.0 0.0 0.0 0.0 0.07698792 
0.0 0.0 0.0 0.0 0.0 0.07698792 
0.0 0.0 0.0 0.0 0.0 0.07698792 
0.0 0.0 0.0 0.0 0.0 0.07698792 
0.0 0.0 0.0 0.0 0.0 0.07698792 
0.0 0.0 0.0 0.036005583 0.0 0.14768252 
0.60705656 0.0 0.0 0.22035623 0.23943321 0.7340852 
1.2848136 0.0 0.0 0.39432508 0.8144331 1.3512344 
1.4352782 0.0 0.0 0.70415133 1.4366395 1.5714169 
1.2631307 0.13395731 0.0 0.9746672 2.0177639 1.8474557 
0.8016582 0.5401702 0.0 1.1492885 2.4548223 1.9008629 
0.7617999 0.49311867 0.0 0.94372416 2.5681973 1.7274969 
0.73830813 0.81210965 0.037786655 0.7744589 2.255251 1.2324669 
0.22190261 1.232264 0.8870729 0.4570688 1.8186918 0.3166817 
0.0 1.8333479 1.9665476 0.23490408 1.6847912 0.0 
0.0 1.8183655 2.2817473 0.0017791959 1.5677508 0.0 
0.0 1.3543422 1.7317489 0.0 1.0620352 0.0 
0.0 0.48193946 0.55333346 0.0 0.5795203 0.0 
0.0 0.041263383 0.0 0.0 0.07774067 0.007821821 
0.0 0.0 0.0 0.0 0.0 0.07698792 
0.0 0.0 0.0 0.0 0.0 0.07698792 
0.0 0.0 0.0 0.0 0.0 0.07698792 
0.0 0.0 0.0 0.0 0.0 0.07698792 
0.0 0.0 0.0 0.0 0.0 0.07698792 
0.0 0.0 0.0 0.0 0.0 0.07698792 
0.0 0.0 0.0 0.0 0.0 0.07698792 
0.0 0.0 0.0 0.0 0.0 0.07698792 
0.0 0.0 0.0 0.0 0.0 0.07698792 
0.0 0.0 0.0 0.0 0.0 0.07698792 
0.0 0.0 0.0 0.0 0.0 0.07698792 
0.0 0.0 0.0 0.0 0.0 0.07698792 
0.0 0.0 0.0 0.0 0.0 0.07698792 
0.0 0.0 0.0 0.0 0.0 0.07698792 
0.0 0.0 0.0 0.0 0.0 0.13391337 
0.49238777 0.0 0.0 0.010225163 0.4280784 0.62979954 
0.992727 0.0 0.0 0.03778715 0.9851125 1.2641723 
0.9859559 0.0 0.0 0.12209603 1.4174305 1.539685 
0.826498 0.0 0.0 0.34640995 1.8639152 1.8385146 
0.5324891 0.0 0.0 0.66894263 2.1371708 2.0455196 
0.8125703 0.0 0.0 0.7796739 1.9839753 2.0500298 
1.2390528 0.08310199 0.0 0.7884217 1.8045846 1.7263081 
1.0169723 0.74644023 0.0 0.7287218 1.593383 1.0614762 
0.016397297 1.7394607 1.2293435 0.4856777 1.6818738 0.0 
0.0 2.0088205 2.092148 0.2407338 1.7910577 0.0 
0.0 1.5527916 2.1477172 0.1378698 1.3158015 0.0 
0.0 0.79036486 1.1153901 0.0 0.7472362 0.0 
0.0 0.09832936 0.10600454 0.0 0.15849294 0.0 
0.0 0.0 0.0 0.0 0.0 0.07698792 
0.0 0.0 0.0 0.0 0.0 0.07698792 
0.0 0.0 0.0 0.0 0.0 0.07698792 
0.0 0.0 0.0 0.0 0.0 0.07698792 
0.0 0.0 0.0 0.0 0.0 0.07698792 
0.0 0.0 0.0 0.0 0.0 0.07698792 
0.0 0.0 0.0 0.0 0.0 0.07698792 
0.0 0.0 0.0 0.0 0.0 0.07698792 
0.0 0.0 0.0 0.0 0.0 0.07698792 
0.0 0.0 0.0 0.0 0.0 0.07698792 
0.0 0.0 0.0 0.0 0.0 0.07698792 
0.0 0.0 0.027653381 0.0 0.0 0.037014715 
0.07275081 0.052374892 0.026281916 0.0 0.0 0.0 
0.0 0.09591828 0.010486461 0.0 0.0 0.0 
0.0 0.09131062 0.003696002 0.0 0.0 0.0 
0.2252289 0.0 0.0 0.0 0.38298082 0.18957138 
0.5611841 0.0 0.0 0.0 0.7199871 0.6829252 
0.62739396 0.0 0.0 0.0 1.0064969 1.0132513 
0.5413862 0.0 0.0 0.0 1.2379838 1.2924075 
0.4915648 0.0 0.0 0.0 1.4198323 1.5692682 
0.91590947 0.0 0.0 0.0 1.287878 1.8448129 
1.516876 0.0 0.0 0.0 1.3048602 1.7060864 
1.5849411 0.0023636436 0.0 0.102772936 1.5568252 1.2555497 
0.50825435 1.4164257 0.17832944 0.25730783 1.758866 0.3474377 
0.0 1.9609418 1.4951525 0.07653111 1.9975508 0.0 
0.0 1.5528412 2.0404565 0.07549403 1.553208 0.0 
0.0 0.77262 1.4393078 0.008697425 0.89533 0.0 
0.0 0.17503913 0.262526 0.0 0.18684918 0.006439179 
0.0 0.0 0.0 0.0 0.0 0.07698792 
0.0 0.0 0.0 0.0 0.0 0.07698792 
0.0 0.0 0.0 0.0 0.0 0.07698792 
0.0 0.0 0.0 0.0 0.0 0.07698792 
0.0 0.0 0.0 0.0 0.0 0.07698792 
0.0 0.0 0.0 0.0 0.0 0.07698792 
0.0 0.0 0.0 0.0 0.0 0.07698792 
0.0 0.0 0.0 0.0 0.0 0.07698792 
0.0 0.0 0.0 0.0 0.0 0.07698792 
0.0 0.0 0.0 0.0 0.0 0.07698792 
0.0 0.0 0.0 0.0 0.0 0.05775553 
0.20412439 0.0 0.11060507 0.0 0.0 0.0 
0.4573322 0.07840063 0.22982264 0.0 0.0 0.0 
0.262117 0.41153598 0.19733018 0.0 0.0 0.0 
0.0 0.58220494 0.34785143 0.0 0.049957838 0.0 
0.0 0.32348317 0.17807662 0.0 0.3709062 0.0 
0.061715156 0.0 0.0 0.0 0.47094557 0.099708855 
0.25879458 0.0 0.0 0.0 0.4700776 0.29922372 
0.27435136 0.0 0.0 0.0 0.5661932 0.34966493 
0.4781235 0.0 0.0 0.0 0.63177013 0.42811123 
1.2246976 0.0 0.0 0.0 0.6515042 0.7732072 
1.8151033 0.0 0.0 0.0 0.9296466 0.9213211 
1.9210033 0.0 0.0 0.0 1.4517982 0.66080505 
0.76077175 1.3079934 0.0 0.0 1.9664334 0.25313643 
0.0 1.8771821 1.1073422 0.0 2.1613357 0.0 
0.0 1.4943504 1.8203851 0.053096246 1.6465244 0.0 
0.0 0.6758645 1.4306319 0.021852214 0.96417576 0.0 
0.0 0.12864122 0.3462139 0.02617304 0.19317324 0.045428157 
0.0 0.0 0.0 0.0 0.0 0.07698792 
0.0 0.0 0.0 0.0 0.0 0.07698792 
0.0 0.0 0.0 0.0 0.0 0.07698792 
0.0 0.0 0.0 0.0 0.0 0.07698792 
0.0 0.0 0.0 0.0 0.0 0.07698792 
0.0 0.0 0.0 0.0 0.0 0.07698792 
0.0 0.0 0.0 0.0 0.0 0.07698792 
0.0 0.0 0.0 0.0 0.0 0.07698792 
0.0 0.0 0.0 0.0 0.0 0.07698792 
0.0 0.0 0.0 0.0 0.0 0.07698792 
0.019748926 0.0 0.0 0.0 0.0 0.05471773 
0.51810694 0.0 0.020535178 0.0 0.0 0.054732144 
0.92714345 0.0 0.25404742 0.0 0.0 0.0 
0.6765958 0.6630584 0.54294115 0.0 0.0 0.0 
0.049383104 1.1969613 1.0269697 0.0 0.26429504 0.0 
0.0 1.0287377 1.086504 0.0 0.4683173 0.0 
0.0 0.5698738 0.5883648 0.0 0.19293357 0.0 
0.20645255 0.43911988 0.41909784 0.0 0.0 0.0 
0.32131648 0.38656893 0.42489523 0.0 0.0 0.0 
0.617736 0.23140511 0.32143706 0.0 0.0 0.0 
1.5042291 0.0 0.0 0.0 0.06402379 0.0 
2.129322 0.07415469 0.0 0.0 0.80256325 0.087509476 
1.746202 0.648781 0.0 0.0 1.6575314 0.23239759 
0.418294 1.3816351 0.0 0.0 2.4184022 0.22405069 
0.0 1.7525368 0.9004376 0.040556055 2.2885897 0.0 
0.0 1.2800161 1.6476264 0.17685178 1.6372433 0.13171571 
0.0 0.4793372 1.2845312 0.13485198 0.87874997 0.15075812 
0.0 0.08278408 0.33012602 0.0822327 0.11292142 0.0878132 
0.0 0.0 0.0 0.0 0.0 0.07698792 
0.0 0.0 0.0 0.0 0.0 0.07698792 
0.0 0.0 0.0 0.0 0.0 0.07698792 
0.0 0.0 0.0 0.0 0.0 0.07698792 
0.0 0.0 0.0 0.0 0.0 0.07698792 
0.0 0.0 0.0 0.0 0.0 0.07698792 
0.0 0.0 0.0 0.0 0.0 0.07698792 
0.0 0.0 0.0 0.0 0.0 0.07698792 
0.0 0.0 0.0 0.0 0.0 0.07698792 
0.0 0.0 0.0 0.0 0.0 0.07698792 
0.1023629 0.0 0.0 0.0 0.0 0.118766695 
0.86516905 0.0 0.0 0.09734146 0.0 0.3461896 
1.3627493 0.0 0.0 0.13053106 0.0 0.098928 
0.89525074 0.7753101 0.47262383 0.09184815 0.19368698 0.0 
0.31362242 1.4312277 1.4505997 0.0 0.5065157 0.0 
0.0 1.5724095 1.9878825 0.0 0.6372128 0.0 
0.13858916 1.2135447 1.3981315 0.0 0.35993305 0.0 
0.34273344 0.9203537 0.9732119 0.0 0.10180846 0.0 
0.5048143 0.7541228 0.8831805 0.0 0.04923824 0.0 
0.8646142 0.5399597 0.7319192 0.0 0.08907077 0.0 
1.3815408 0.44720232 0.4521243 0.0 0.6696174 0.0 
1.554291 0.6689906 0.0 0.0 1.5949565 0.0 
1.0366528 1.0917403 0.0 0.0 2.4423647 0.27410322 
0.0 1.7009125 0.0 0.0810111 2.6856232 0.35919064 
0.0 1.5878159 0.83636856 0.24566483 2.2175472 0.26450422 
0.0 0.876538 1.3770962 0.2561921 1.427928 0.4407626 
0.0 0.28011438 1.0453962 0.23564255 0.5579896 0.25051072 
0.0 0.034921683 0.22612044 0.06293123 0.02400254 0.1054277 
0.0 0.0 0.0 0.0 0.0 0.07698792 
0.0 0.0 0.0 0.0 0.0 0.07698792 
0.0 0.0 0.0 0.0 0.0 0.07698792 
0.0 0.0 0.0 0.0 0.0 0.07698792 
0.0 0.0 0.0 0.0 0.0 0.07698792 
0.0 0.0 0.0 0.0 0.0 0.07698792 
0.0 0.0 0.0 0.0 0.0 0.07698792 
0.0 0.0 0.0 0.0 0.0 0.07698792 
0.0 0.0 0.0 0.0 0.0 0.07698792 
0.0 0.0 0.0 0.0 0.0 0.07698792 
0.14974621 0.0 0.0 0.0739454 0.0 0.25065377 
1.083292 0.0 0.0 0.2404612 0.0 0.7656632 
1.7470644 0.0 0.0 0.38656706 0.31217673 0.7706097 
1.2161 0.5900708 0.0 0.38434568 0.61378634 0.07361698 
0.6232802 1.2711512 1.1813681 0.42200717 0.89707047 0.0 
0.154133 1.5055186 2.2608411 0.23833431 1.1889328 0.0 
0.22548252 1.4017675 1.9973651 0.05570766 1.0098422 0.0 
0.500222 1.1643225 1.5442252 0.0 0.8920549 0.0 
0.64387304 1.0768646 1.405032 0.0 0.9139808 0.0 
0.82585216 1.0976839 1.0737461 0.168702 1.1113731 0.0 
1.0025175 1.0973153 0.5886819 0.2796759 1.8009425 0.0 
0.90177536 1.3245885 0.0056653395 0.5026336 2.4290347 0.47697073 
0.39715168 1.4868177 0.0 0.57350564 2.8585587 0.82671446 
0.0 1.6844277 0.04742542 0.530474 2.610297 0.7919871 
0.0 1.06853 0.7631836 0.35443488 1.8192612 0.65109664 
0.0 0.3774883 0.9838327 0.19140571 0.9453502 0.5303296 
0.0 0.11105654 0.68143666 0.13303784 0.24375744 0.23939471 
0.0 0.0 0.070875086 0.0 0.0 0.09473674 
0.0 0.0 0.0 0.0 0.0 0.07698792 
0.0 0.0 0.0 0.0 0.0 0.07698792 
0.0 0.0 0.0 0.0 0.0 0.07698792 
0.0 0.0 0.0 0.0 0.0 0.07698792 
0.0 0.0 0.0 0.0 0.0 0.07698792 
0.0 0.0 0.0 0.0 0.0 0.07698792 
0.0 0.0 0.0 0.0 0.0 0.07698792 
0.0 0.0 0.0 0.0 0.0 0.07698792 
0.0 0.0 0.0 0.0 0.0 0.07698792 
0.0 0.0 0.0 0.0 0.0 0.07698792 
0.1794678 0.0 0.0 0.07018458 0.05700202 0.31827363 
1.0284684 0.0 0.0 0.1919408 0.42839056 1.0403118 
1.6829422 0.0 0.0 0.4225352 0.8198536 1.3760371 
1.5939345 0.11673498 0.0 0.6323688 1.0089575 1.0311837 
1.0329626 0.98644596 0.14429262 0.823977 1.3117274 0.7637677 
0.45177615 1.4272385 1.5217764 0.77656865 1.6861726 0.24445018 
0.37773997 1.6481254 1.7069253 0.6891264 1.6417128 0.0 
0.50093794 1.6927983 1.4522659 0.7643706 1.6534008 0.0 
0.49785048 1.6306531 1.1864687 0.91604805 1.848245 0.22731476 
0.56780994 1.4502332 0.6640663 0.9598977 2.3276029 0.6903177 
0.5175027 1.3233501 0.11142934 1.0751071 2.6799634 1.154743 
0.1934838 1.2176331 0.0 1.0569222 2.875254 1.4091618 
0.0 1.1842775 0.0 0.74660224 2.779037 1.3401194 
0.0 0.89457566 0.12720084 0.4612093 2.0012157 1.0061207 
0.0 0.43249407 0.5953367 0.16437924 1.0680431 0.69445795 
0.0 0.13840997 0.6394345 0.06143533 0.41622475 0.4053892 
0.0 0.0 0.2864764 0.0 0.105884895 0.15457042 
0.0 0.0 0.0 0.0 0.0 0.08018411 
0.0 0.0 0.0 0.0 0.0 0.07698792 
0.0 0.0 0.0 0.0 0.0 0.07698792 
0.0 0.0 0.0 0.0 0.0 0.07698792 
0.0 0.0 0.0 0.0 0.0 0.07698792 
0.0 0.0 0.0 0.0 0.0 0.07698792 
0.0 0.0 0.0 0.0 0.0 0.07698792 
0.0 0.0 0.0 0.0 0.0 0.07698792 
0.0 0.0 0.0 0.0 0.0 0.07698792 
0.0 0.0 0.0 0.0 0.0 0.07698792 
0.0 0.0 0.0 0.0 0.0 0.07698792 
0.123683244 0.0 0.0 0.0009868918 0.108875856 0.26026323 
0.8267103 0.0 0.0 0.07392054 0.63432163 0.9776341 
1.3123326 0.0 0.0 0.20958847 1.0445971 1.5217867 
1.346983 0.0 0.0 0.5470925 1.4307985 1.6951902 
1.1941605 0.0 0.0 0.94027394 1.948373 1.9398572 
0.70765716 0.6509106 0.0 1.355891 2.2909868 1.8661549 
0.3515948 0.8060573 0.0072583184 1.3436816 2.5687664 1.708951 
0.26732746 0.88366383 0.029312484 1.3184562 2.7339184 1.6985497 
0.1798065 0.8631096 0.0 1.2579935 2.8667696 1.7256582 
0.023292787 0.8562424 0.0 1.1184694 2.8870203 1.7035389 
0.0 0.7588192 0.0 0.91561717 2.739795 1.713597 
0.0 0.677847 0.0 0.58750117 2.4427357 1.625884 
0.0 0.5444788 0.0 0.2129778 1.7939416 1.2397912 
0.0 0.33384573 0.062304296 0.03673793 0.91158444 0.79286593 
0.0 0.034719963 0.38349825 0.0 0.44074306 0.47135037 
0.0 0.0 0.31238735 0.0 0.18155046 0.22346592 
0.0 0.0 0.022875667 0.0 0.005316559 0.08726138 
0.0 0.0 0.0 0.0 0.0 0.07698792 
0.0 0.0 0.0 0.0 0.0 0.07698792 
0.0 0.0 0.0 0.0 0.0 0.07698792 
0.0 0.0 0.0 0.0 0.0 0.07698792 
0.0 0.0 0.0 0.0 0.0 0.07698792 
0.0 0.0 0.0 0.0 0.0 0.07698792 
0.0 0.0 0.0 0.0 0.0 0.07698792 
0.0 0.0 0.0 0.0 0.0 0.07698792 
0.0 0.0 0.0 0.0 0.0 0.07698792 
0.0 0.0 0.0 0.0 0.0 0.07698792 
0.0 0.0 0.0 0.0 0.0 0.07698792 
0.03042312 0.0 0.0 0.0 0.079328775 0.15426415 
0.49268967 0.0 0.0 0.0 0.49323377 0.605886 
0.98105294 0.0 0.0 0.0 1.0121816 1.2690296 
1.0433776 0.0 0.0 0.0 1.4162387 1.635611 
0.9138768 0.0 0.0 0.29056814 1.8874197 1.8849645 
0.51155883 0.0 0.0 0.74194825 2.27899 2.0397344 
0.3307097 0.21838778 0.0 0.95965123 2.4228384 2.0060308 
0.2069307 0.3642815 0.0 0.921576 2.4039638 1.9211228 
0.100956365 0.4595787 0.0 0.7419128 2.2824347 1.8437474 
0.0 0.48085108 0.0 0.41732284 2.0649393 1.6767888 
0.0 0.32397136 0.0 0.04809386 1.7482576 1.4708679 
0.0 0.116188444 0.0 0.0 1.3301288 1.1368542 
0.0 0.0 0.0 0.0 0.71996665 0.6794562 
0.0 0.0 0.0 0.0 0.37939525 0.409204 
0.0 0.0 0.13878691 0.0 0.20258744 0.24065198 
0.0 0.0 0.062023193 0.0 0.031505834 0.092394345 
0.0 0.0 0.0 0.0 0.0 0.07698792 
0.0 0.0 0.0 0.0 0.0 0.07698792 
0.0 0.0 0.0 0.0 0.0 0.07698792 
0.0 0.0 0.0 0.0 0.0 0.07698792 
0.0 0.0 0.0 0.0 0.0 0.07698792 
0.0 0.0 0.0 0.0 0.0 0.07698792 
0.0 0.0 0.0 0.0 0.0 0.07698792 
0.0 0.0 0.0 0.0 0.0 0.07698792 
0.0 0.0 0.0 0.0 0.0 0.07698792 
0.0 0.0 0.0 0.0 0.0 0.07698792 
0.0 0.0 0.0 0.0 0.0 0.07698792 
0.0 0.0 0.0 0.0 0.0 0.07698792 
0.0 0.0 0.0 0.0 0.0 0.08750881 
0.17679843 0.0 0.0 0.0 0.29828513 0.2559337 
0.5404185 0.0 0.0 0.0 0.6327254 0.6350432 
0.69693035 0.0 0.0 0.0 0.99118656 1.0261828 
0.6205408 0.0 0.0 0.0 1.2843727 1.3737159 
0.46562535 0.0 0.0 0.0 1.4579688 1.587342 
0.2647446 0.0 0.0 0.0 1.4899015 1.6152978 
0.12608209 0.0 0.0 0.0 1.4242048 1.4762094 
0.030436307 0.0 0.0 0.0 1.3105217 1.2596276 
0.0 0.0 0.0 0.0 1.0812105 0.95358497 
0.0 0.0 0.0 0.0 0.8037965 0.6648695 
0.0 0.0 0.0 0.0 0.48229954 0.42450607 
0.0 0.0 0.0 0.0 0.2571932 0.24014896 
0.0 0.0 0.0 0.0 0.10813576 0.16276261 
0.0 0.0 0.009864889 0.0 0.00031775236 0.08838858 
0.0 0.0 0.0 0.0 0.0 0.07729232 
0.0 0.0 0.0 0.0 0.0 0.07698792 
0.0 0.0 0.0 0.0 0.0 0.07698792 
0.0 0.0 0.0 0.0 0.0 0.07698792 
0.0 0.0 0.0 0.0 0.0 0.07698792 
0.0 0.0 0.0 0.0 0.0 0.07698792 
0.0 0.0 0.0 0.0 0.0 0.07698792 
0.0 0.0 0.0 0.0 0.0 0.07698792 
0.0 0.0 0.0 0.0 0.0 0.07698792 
0.0 0.0 0.0 0.0 0.0 0.07698792 
0.0 0.0 0.0 0.0 0.0 0.07698792 
0.0 0.0 0.0 0.0 0.0 0.07698792 
0.0 0.0 0.0 0.0 0.0 0.07698792 
0.0 0.0 0.0 0.0 0.0 0.07698792 
0.0 0.0 0.0 0.0 0.0 0.08998432 
0.1286248 0.0 0.0 0.0 0.2485993 0.21344817 
0.30268452 0.0 0.0 0.0 0.5131732 0.35055178 
0.3137313 0.0 0.0 0.0 0.67200255 0.41031057 
0.27581728 0.0 0.0 0.0 0.8236689 0.5225655 
0.122864604 0.0 0.0 0.0 0.86731607 0.53397804 
0.0 0.0 0.0 0.0 0.74948305 0.46899188 
0.0 0.0 0.0 0.0 0.55508953 0.38237357 
0.0 0.0 0.0 0.0 0.33297706 0.26770148 
0.0 0.0 0.0 0.0 0.16310145 0.18241614 
0.0 0.0 0.0 0.0 0.05031724 0.12553513 
0.0 0.0 0.0 0.0 0.0 0.085375495 
0.0 0.0 0.0 0.0 0.0 0.07744452 
0.0 0.0 0.0 0.0 0.0 0.07698792 
0.0 0.0 0.0 0.0 0.0 0.07698792 
0.0 0.0 0.0 0.0 0.0 0.07698792 
0.0 0.0 0.0 0.0 0.0 0.07698792 
0.0 0.0 0.0 0.0 0.0 0.07698792 
0.0 0.0 0.0 0.0 0.0 0.07698792 
0.0 0.0 0.0 0.0 0.0 0.07698792 
0.0 0.0 0.0 0.0 0.0 0.07698792 
0.0 0.0 0.0 0.0 0.0 0.07698792 
0.0 0.0 0.0 0.0 0.0 0.07698792 
0.0 0.0 0.0 0.0 0.0 0.07698792 
0.0 0.0 0.0 0.0 0.0 0.07698792 
0.0 0.0 0.0 0.0 0.0 0.07698792 
0.0 0.0 0.0 0.0 0.0 0.07698792 
0.0 0.0 0.0 0.0 0.0 0.07698792 
0.0 0.0 0.0 0.0 0.0 0.07698792 
0.0 0.0 0.0 0.0 0.0 0.07698792 
0.0 0.0 0.0 0.0 0.0 0.07698792 
0.0 0.0 0.0 0.0 0.0 0.07698792 
0.0 0.0 0.0 0.0 0.0 0.07698792 
0.0 0.0 0.0 0.0 0.0 0.07698792 
0.0 0.0 0.0 0.0 0.0 0.07698792 
0.0 0.0 0.0 0.0 0.0 0.07698792 
0.0 0.0 0.0 0.0 0.0 0.07698792 
0.0 0.0 0.0 0.0 0.0 0.07698792 
0.0 0.0 0.0 0.0 0.0 0.07698792 
0.0 0.0 0.0 0.0 0.0 0.07698792 
0.0 0.0 0.0 0.0 0.0 0.07698792 
0.0 0.0 0.0 0.0 0.0 0.07698792 
0.0 0.0 0.0 0.0 0.0 0.07698792 
0.0 0.0 0.0 0.0 0.0 0.07698792 
0.0 0.0 0.0 0.0 0.0 0.07698792 
0.0 0.0 0.0 0.0 0.0 0.07698792 
0.0 0.0 0.0 0.0 0.0 0.07698792 
0.0 0.0 0.0 0.0 0.0 0.07698792 
0.0 0.0 0.0 0.0 0.0 0.07698792 
0.0 0.0 0.0 0.0 0.0 0.07698792 
0.0 0.0 0.0 0.0 0.0 0.07698792 
0.0 0.0 0.0 0.0 0.0 0.07698792 
0.0 0.0 0.0 0.0 0.0 0.07698792 
0.0 0.0 0.0 0.0 0.0 0.07698792 
0.0 0.0 0.0 0.0 0.0 0.07698792 
0.0 0.0 0.0 0.0 0.0 0.07698792 
0.0 0.0 0.0 0.0 0.0 0.07698792 
0.0 0.0 0.0 0.0 0.0 0.07698792 
0.0 0.0 0.0 0.0 0.0 0.07698792 
0.0 0.0 0.0 0.0 0.0 0.07698792 
0.0 0.0 0.0 0.0 0.0 0.07698792 
0.0 0.0 0.0 0.0 0.0 0.07698792 
0.0 0.0 0.0 0.0 0.0 0.07698792 
0.0 0.0 0.0 0.0 0.0 0.07698792 
0.0 0.0 0.0 0.0 0.0 0.07698792 
0.0 0.0 0.0 0.0 0.0 0.07698792 
0.0 0.0 0.0 0.0 0.0 0.07698792 
0.0 0.0 0.0 0.0 0.0 0.07698792 
0.0 0.0 0.0 0.0 0.0 0.07698792 
0.0 0.0 0.0 0.0 0.0 0.07698792 
0.0 0.0 0.0 0.0 0.0 0.07698792 
0.0 0.0 0.0 0.0 0.0 0.07698792 
0.0 0.0 0.0 0.0 0.0 0.07698792 
0.0 0.0 0.0 0.0 0.0 0.07698792 
0.0 0.0 0.0 0.0 0.0 0.07698792 
0.0 0.0 0.0 0.0 0.0 0.07698792 
0.0 0.0 0.0 0.0 0.0 0.07698792 
0.0 0.0 0.0 0.0 0.0 0.07698792 

