0.0 0.0 0.0 0.0 0.0 0.07698792 
0.0 0.0 0.0 0.0 0.0 0.07698792 
0.0 0.0 0.0 0.0 0.0 0.07698792 
0.0 0.0 0.0 0.0 0.0 0.07698792 
0.0 0.0 0.0 0.0 0.0 0.07698792 
0.0 0.0 0.0 0.0 0.0 0.07698792 
0.0 0.0 0.0 0.0 0.0 0.07698792 
0.0 0.0 0.0 0.0 0.0 0.07698792 
0.0 0.0 0.0 0.0 0.0 0.07698792 
0.0 0.0 0.0 0.0 0.0 0.07698792 
0.0 0.0 0.0 0.0 0.0 0.07698792 
0.0 0.0 0.0 0.0 0.0 0.07698792 
0.0 0.0 0.0 0.0 0.0 0.07698792 
0.0 0.0 0.0 0.0 0.0 0.07698792 
0.0 0.0 0.0 0.0 0.0 0.07698792 
0.0 0.0 0.0 0.0 0.0 0.07698792 
0.0 0.0 0.0 0.0 0.0 0.07698792 
0.0 0.0 0.0 0.0 0.0 0.07698792 
0.0 0.0 0.0 0.0 0.0 0.07698792 
0.0 0.0 0.0 0.0 0.0 0.07698792 
0.0 0.0 0.0 0.0 0.0 0.07698792 
0.0 0.0 0.0 0.0 0.0 0.07698792 
0.0 0.0 0.0 0.0 0.0 0.07698792 
0.0 0.0 0.0 0.0 0.0 0.07698792 
0.0 0.0 0.0 0.0 0.0 0.07698792 
0.0 0.0 0.0 0.0 0.0 0.07698792 
0.0 0.0 0.0 0.0 0.0 0.07698792 
0.0 0.0 0.0 0.0 0.0 0.07698792 
0.0 0.0 0.0 0.0 0.0 0.07698792 
0.0 0.0 0.0 0.0 0.0 0.07698792 
0.0 0.0 0.0 0.0 0.0 0.07698792 
0.0 0.0 0.0 0.0 0.0 0.07698792 
0.0 0.0 0.0 0.0 0.0 0.07698792 
0.0 0.0 0.0 0.0 0.0 0.07698792 
0.0 0.0 0.0 0.0 0.0 0.07698792 
0.0 0.0 0.0 0.0 0.0 0.07698792 
0.0 0.0 0.0 0.0 0.0 0.07698792 
0.0 0.0 0.0 0.0 0.0 0.07698792 
0.0 0.0 0.0 0.0 0.0 0.07698792 
0.0 0.0 0.0 0.0 0.0 0.07698792 
0.0 0.0 0.0 0.0 0.0 0.07698792 
0.0 0.0 0.0 0.0 0.0 0.07698792 
0.0 0.0 0.0 0.0 0.0 0.07698792 
0.0 0.0 0.0 0.0 0.0 0.07698792 
0.0 0.0 0.0 0.0 0.0 0.07698792 
0.0 0.0 0.0 0.0 0.0 0.07698792 
0.0 0.0 0.0 0.0 0.0 0.07698792 
0.0 0.0 0.0 0.0 0.0 0.07698792 
0.0 0.0 0.0 0.0 0.0 0.07698792 
0.0 0.0 0.0 0.0 0.0 0.07698792 
0.0 0.0 0.0 0.0 0.0 0.07698792 
0.0 0.0 0.0 0.0 0.0 0.07698792 
0.0 0.0 0.0 0.0 0.0 0.07698792 
0.0 0.0 0.0 0.0 0.0 0.07698792 
0.0 0.0 0.0 0.0 0.0 0.07698792 
0.0 0.0 0.0 0.0 0.0 0.07698792 
0.0 0.0 0.0 0.0 0.0 0.07698792 
0.0 0.0 0.0 0.0 0.0 0.07698792 
0.0 0.0 0.0 0.0 0.0 0.07698792 
0.0 0.0 0.0 0.0 0.0 0.07698792 
0.0 0.0 0.0 0.0 0.0 0.07698792 
0.0 0.0 0.0 0.0 0.0 0.07698792 
0.0 0.0 0.0 0.0 0.0 0.07698792 
0.0 0.0 0.0 0.0 0.0 0.07698792 
0.0 0.0 0.0 0.0 0.0 0.07698792 
0.0 0.0 0.0 0.0 0.0 0.07698792 
0.0 0.0 0.0 0.0 0.0 0.07698792 
0.0 0.0 0.0 0.0 0.0 0.07698792 
0.0 0.0 0.0 0.0 0.0 0.07698792 
0.0 0.0 0.0 0.0 0.0 0.07698792 
0.0 0.0 0.0 0.0 0.0 0.07698792 
0.0 0.0 0.0 0.0 0.0 0.07698792 
0.0 0.0 0.0 0.0 0.0 0.06756028 
0.0 0.0 0.0 0.0 0.0 0.030859623 
0.039802358 0.010202157 0.051466204 0.0 0.0 0.0 
0.17502978 0.0453474 0.19437933 0.0 0.0 0.0 
0.3210165 0.1893211 0.31006485 0.0 0.0 0.0 
0.26319999 0.392825 0.2988201 0.0 0.0 0.0 
0.04756695 0.48315844 0.25042835 0.0 0.0 0.0 
0.0 0.41151407 0.18590358 0.0 0.059593666 0.0 
0.0 0.23495317 0.05705595 0.0 0.083811074 0.0 
0.0 0.05514303 0.0 0.0 0.0030473098 0.018104728 
0.0 0.0 0.0 0.0 0.0 0.07698792 
0.0 0.0 0.0 0.0 0.0 0.07698792 
0.0 0.0 0.0 0.0 0.0 0.07698792 
0.0 0.0 0.0 0.0 0.0 0.07698792 
0.0 0.0 0.0 0.0 0.0 0.07698792 
0.0 0.0 0.0 0.0 0.0 0.07698792 
0.0 0.0 0.0 0.0 0.0 0.07698792 
0.0 0.0 0.0 0.0 0.0 0.07698792 
0.0 0.0 0.0 0.0 0.0 0.07698792 
0.0 0.0 0.0 0.0 0.0 0.07698792 
0.0 0.0 0.0 0.0 0.0 0.07698792 
0.0 0.0 0.0 0.0 0.0 0.07698792 
0.0 0.0 0.0 0.0 0.0 0.07698792 
0.0 0.0 0.0 0.0 0.0 0.07698792 
0.0 0.0 0.0 0.0 0.0 0.07698792 
0.0 0.0 0.0 0.0 0.0 0.07698792 
0.0 0.0 0.0 0.0 0.0 0.05662421 
0.06742117 0.0 0.0671079 0.0 0.0 0.0 
0.22246611 0.029369287 0.18802258 0.0 0.0 0.0 
0.3893658 0.16464576 0.31431404 0.0 0.0 0.0 
0.49090272 0.32323405 0.4132414 0.0 0.0 0.0 
0.62351435 0.4309356 0.5053101 0.0 0.0 0.0 
0.7643687 0.54284173 0.63155544 0.0 0.0 0.0 
0.6660196 0.8931352 0.74090284 0.0 0.0 0.0 
0.07091677 1.2284563 0.76968163 0.0 0.3903121 0.0 
0.0 0.9899876 0.71206814 0.0 0.6299394 0.0 
0.0 0.4537435 0.3868014 0.0 0.5348077 0.0 
0.0 0.0763787 0.03494247 0.0 0.19247507 0.0 
0.0 0.0 0.0 0.0 0.0 0.07698792 
0.0 0.0 0.0 0.0 0.0 0.07698792 
0.0 0.0 0.0 0.0 0.0 0.07698792 
0.0 0.0 0.0 0.0 0.0 0.07698792 
0.0 0.0 0.0 0.0 0.0 0.07698792 
0.0 0.0 0.0 0.0 0.0 0.07698792 
0.0 0.0 0.0 0.0 0.0 0.07698792 
0.0 0.0 0.0 0.0 0.0 0.07698792 
0.0 0.0 0.0 0.0 0.0 0.07698792 
0.0 0.0 0.0 0.0 0.0 0.07698792 
0.0 0.0 0.0 0.0 0.0 0.07698792 
0.0 0.0 0.008379847 0.0 0.0 0.046065256 
0.08764279 0.015253636 0.066745624 0.0 0.0 0.0 
0.068648174 0.11466236 0.053569056 0.0 0.0 0.0 
0.050990358 0.123893335 0.15514448 0.0 0.0 0.0 
0.21216017 0.17445394 0.2861362 0.0 0.0 0.0 
0.3580966 0.22464108 0.3112618 0.0 0.0 0.0 
0.49666554 0.2659537 0.39853293 0.0 0.0 0.0 
0.72147113 0.35832262 0.47075325 0.0 0.0 0.0 
0.8866403 0.5225256 0.5950026 0.0 0.0 0.0 
0.91485524 0.6789021 0.7188158 0.0 0.0 0.0 
0.8922957 0.72142273 0.842355 0.0 0.20781101 0.0 
0.8142004 0.7567503 0.9531437 0.0 0.55150676 0.0 
0.38631624 1.1819593 1.0905645 0.0 0.9704805 0.0 
0.0 1.5764749 1.3820437 0.0051775994 1.353388 0.0 
0.0 1.4750926 1.4564646 0.048561636 1.2522515 0.0 
0.0 0.8154058 0.9874141 0.0 0.82728684 0.0 
0.0 0.14255401 0.22765255 0.0 0.27812326 0.0 
0.0 0.0 0.0 0.0 0.0 0.07698792 
0.0 0.0 0.0 0.0 0.0 0.07698792 
0.0 0.0 0.0 0.0 0.0 0.07698792 
0.0 0.0 0.0 0.0 0.0 0.07698792 
0.0 0.0 0.0 0.0 0.0 0.07698792 
0.0 0.0 0.0 0.0 0.0 0.07698792 
0.0 0.0 0.0 0.0 0.0 0.07698792 
0.0 0.0 0.0 0.0 0.0 0.07698792 
0.0 0.0 0.0 0.0 0.0 0.07698792 
0.0 0.0 0.0 0.0 0.0 0.073593974 
0.010753527 0.0 0.03757523 0.0 0.0 0.023772307 
0.25648212 0.0 0.15213278 0.0 0.0 0.0 
0.5154306 0.06571142 0.28399348 0.0 0.0 0.0 
0.5810404 0.38274407 0.4704131 0.0 0.0 0.0 
0.4923066 0.69174665 0.6196336 0.0 0.0 0.0 
0.4520527 0.6346231 0.7152335 0.0 0.0 0.0 
0.74674016 0.48460695 0.6498361 0.0 0.0 0.0 
0.99844736 0.6368881 0.6746127 0.0 0.0 0.0 
0.94996494 0.71268076 0.7943047 0.0 0.21492453 0.0 
0.8564284 0.7586717 0.85871786 0.0 0.64863676 0.0 
0.79116267 0.96871734 0.9514992 0.0 0.9794374 0.0 
0.8163644 1.1737272 1.0720692 0.32359257 1.2757739 0.0 
0.8265088 1.4774987 1.0001729 0.58194596 1.5613805 0.0 
0.21923387 1.9334267 1.0186412 0.65899163 1.8932272 0.0 
0.0 2.1474378 1.471937 0.66918224 1.8299171 0.0 
0.0 1.7156358 1.8689579 0.63204217 1.4231493 0.0 
0.0 0.84915805 1.3997749 0.38462442 0.8411863 0.09011464 
0.0 0.22938605 0.43970183 0.17269388 0.1649955 0.06920893 
0.0 0.0 0.0 0.0 0.0 0.07698792 
0.0 0.0 0.0 0.0 0.0 0.07698792 
0.0 0.0 0.0 0.0 0.0 0.07698792 
0.0 0.0 0.0 0.0 0.0 0.07698792 
0.0 0.0 0.0 0.0 0.0 0.07698792 
0.0 0.0 0.0 0.0 0.0 0.07698792 
0.0 0.0 0.0 0.0 0.0 0.07698792 
0.0 0.0 0.0 0.0 0.0 0.07698792 
0.0 0.0 0.0 0.0 0.0 0.07698792 
0.0 0.0 0.011626504 0.0 0.0 0.044930242 
0.26820672 0.0 0.13473049 0.0 0.0 0.0 
0.74032146 0.0 0.16992924 0.0 0.0 0.0 
1.0726347 0.04600831 0.33318847 0.0 0.0 0.0 
0.987349 0.6805015 0.6762394 0.0 0.0 0.0 
0.68122935 0.9780374 1.0439464 0.0 0.28267458 0.0 
0.66216546 0.88541025 1.1911647 0.0 0.5499487 0.0 
0.80256927 0.849116 1.0609798 0.0 0.6845691 0.0 
0.81959975 0.93705356 0.89078146 0.0 1.0056646 0.0 
0.7507825 1.1987185 0.88005435 0.38581985 1.4401432 0.0 
0.67890465 1.396344 0.69983274 0.7169418 1.8168322 0.11886346 
0.5440453 1.4201725 0.48815358 0.9879868 2.123149 0.62122744 
0.5684206 1.2257936 0.27757198 1.1800265 2.386444 1.142298 
0.55611545 1.0944227 0.05811897 1.295335 2.6441178 1.495717 
0.0 1.3968164 0.037236728 1.1664553 2.6314533 1.2369218 
0.0 1.5010854 0.5644602 0.8523372 2.1175423 0.74040544 
0.0 0.9535249 1.3089818 0.5187659 1.4505824 0.54501665 
0.0 0.34544408 1.1683671 0.28107527 0.6925928 0.31965685 
0.0 0.10648827 0.41545752 0.1365541 0.06623973 0.12201147 
0.0 0.0 0.0 0.0 0.0 0.07698792 
0.0 0.0 0.0 0.0 0.0 0.07698792 
0.0 0.0 0.0 0.0 0.0 0.07698792 
0.0 0.0 0.0 0.0 0.0 0.07698792 
0.0 0.0 0.0 0.0 0.0 0.07698792 
0.0 0.0 0.0 0.0 0.0 0.07698792 
0.0 0.0 0.0 0.0 0.0 0.07698792 
0.0 0.0 0.0 0.0 0.0 0.07698792 
0.0 0.0 0.0 0.0 0.0 0.054738685 
0.21560544 0.0 0.117091574 0.0 0.0 0.0 
0.7469064 0.0 0.112980284 0.0 0.0 0.0 
1.3121643 0.0 0.1401099 0.0 0.0 0.0 
1.5149956 0.37319207 0.2444556 0.0 0.101163685 0.0 
1.0156982 1.0061651 0.6797349 0.0 0.7850928 0.0 
0.66589266 1.2643586 1.2233831 0.2764063 1.2216234 0.0 
0.7076562 1.4532411 1.4084743 0.59071004 1.458522 0.0 
0.6586194 1.5473496 1.000627 0.7016478 1.7902375 0.01040931 
0.6052283 1.5207069 0.5374654 0.8300815 2.1567342 0.45576897 
0.49144626 1.4181927 0.31298402 1.0197965 2.5578954 0.9768483 
0.2765165 1.2504948 0.012185872 1.1530073 2.8182418 1.4093704 
0.094778925 0.928792 0.0 1.0823313 2.8729393 1.6553905 
0.10177027 0.54630387 0.0 0.99376845 2.7716897 1.8848231 
0.13196719 0.39713582 0.0 0.90714556 2.614092 1.9278305 
0.0 0.6434632 0.0 0.71129805 2.2175763 1.4637816 
0.0 0.694171 0.14368206 0.5429914 1.4541736 0.9626766 
0.0 0.42634168 0.8072908 0.2964386 0.7974515 0.6533778 
0.0 0.1537569 0.73204273 0.13753623 0.32118103 0.30837488 
0.0 0.0 0.17673862 0.0 0.029916484 0.10948339 
0.0 0.0 0.0 0.0 0.0 0.07698792 
0.0 0.0 0.0 0.0 0.0 0.07698792 
0.0 0.0 0.0 0.0 0.0 0.07698792 
0.0 0.0 0.0 0.0 0.0 0.07698792 
0.0 0.0 0.0 0.0 0.0 0.07698792 
0.0 0.0 0.0 0.0 0.0 0.07698792 
0.0 0.0 0.0 0.0 0.0 0.07698792 
0.0 0.0 0.0 0.0 0.0 0.07020002 
0.11638567 0.0 0.088857345 0.0 0.0 0.0 
0.64047974 0.0 0.07977227 0.0 0.0 0.0 
1.3106449 0.0 0.054710723 0.0 0.0 0.0 
1.7830727 0.19891337 0.0 0.0 0.2144291 0.0 
1.5476284 0.9512597 0.0 0.07324043 1.1602155 0.0 
0.9902378 1.4380008 0.24724251 0.2976446 1.7735751 0.07337602 
0.69468385 1.6600841 0.6013662 0.53911984 2.148515 0.36250353 
0.48391598 1.5546948 0.6277169 0.7130439 2.6211467 0.7753753 
0.3380742 1.3754176 0.2259272 0.8733638 2.8984594 1.1231785 
0.10203138 1.1963264 0.0 0.92552125 2.9787643 1.4548454 
0.0 0.89383066 0.0 0.8632848 2.8832839 1.6728065 
0.0 0.6348696 0.0 0.65287846 2.5949433 1.723465 
0.0 0.501177 0.0 0.3701916 2.18241 1.6896558 
0.07576661 0.29735544 0.0 0.11678867 1.8350266 1.6957712 
0.14378709 0.14833021 0.0 0.0 1.6310486 1.6055954 
0.0 0.16826677 0.0 0.0 1.1711441 1.143779 
0.0 0.04257682 0.0 0.0 0.6295337 0.7048646 
0.0 0.0 0.31796324 0.0 0.354248 0.45922798 
0.0 0.0 0.33420876 0.0 0.14342907 0.18769255 
0.0 0.0 0.0 0.0 0.0 0.083075896 
0.0 0.0 0.0 0.0 0.0 0.07698792 
0.0 0.0 0.0 0.0 0.0 0.07698792 
0.0 0.0 0.0 0.0 0.0 0.07698792 
0.0 0.0 0.0 0.0 0.0 0.07698792 
0.0 0.0 0.0 0.0 0.0 0.07698792 
0.0 0.0 0.0 0.0 0.0 0.07698792 
0.0 0.0 0.0 0.0 0.0 0.07698792 
0.0 0.0 0.0 0.0 0.0 0.06755289 
0.34540945 0.0 0.03473205 0.0 0.0 0.055348 
1.1852989 0.0 0.0 0.0 0.0 0.11524279 
1.8075135 0.0 0.0 0.0093122395 0.13550797 0.12782821 
1.847919 0.6101089 0.0 0.05115142 1.1555531 0.09729206 
1.3843663 1.1463772 0.0 0.0 2.1220932 0.27092367 
1.114629 1.3816617 0.0 0.013707382 2.5338607 0.47099796 
0.6471569 1.572184 0.0902764 0.029001456 2.9233758 0.6043712 
0.026097886 1.5032678 0.03049402 0.044466686 3.1587946 0.7586544 
0.0 1.2728859 0.0 0.14039044 3.0501568 1.033541 
0.0 0.8350118 0.0 0.122896805 2.673494 1.3509626 
0.0 0.46060678 0.0 0.057631407 2.0071418 1.4463832 
0.0 0.14006284 0.0 0.0 1.5061373 1.2481794 
0.0 0.0 0.0 0.0 1.177522 0.95621365 
0.0 0.0 0.0 0.0 1.043786 0.7781002 
0.0 0.0 0.0 0.0 0.89872354 0.6348431 
0.0 0.0 0.0 0.0 0.5321825 0.39141366 
0.0 0.0 0.0 0.0 0.30532876 0.2809356 
0.0 0.0 0.0 0.0 0.17692286 0.2063766 
0.0 0.0 0.051938727 0.0 0.024722386 0.09107305 
0.0 0.0 0.0 0.0 0.0 0.07698792 
0.0 0.0 0.0 0.0 0.0 0.07698792 
0.0 0.0 0.0 0.0 0.0 0.07698792 
0.0 0.0 0.0 0.0 0.0 0.07698792 
0.0 0.0 0.0 0.0 0.0 0.07698792 
0.0 0.0 0.0 0.0 0.0 0.07698792 
0.0 0.0 0.0 0.0 0.0 0.07698792 
0.0 0.0 0.0 0.0 0.0 0.07698792 
0.0 0.0 0.0 0.0032302234 0.0 0.10289694 
0.53235114 0.0 0.0 0.10536209 0.0 0.3719516 
1.5243001 0.0 0.0 0.33123296 0.0 0.6422061 
2.0392036 0.0 0.0 0.3390376 0.85926235 0.6514764 
1.6970675 0.83980244 0.0 0.34411088 1.6502545 0.563009 
1.2083571 1.2318966 0.0 0.06957868 2.394189 0.51359665 
0.90731156 1.4263822 0.15090525 0.0 2.6420546 0.5635413 
0.5020191 1.640203 0.44819665 0.0 2.7933245 0.35700545 
0.0 1.8776779 0.43198997 0.0 2.7993958 0.19460097 
0.0 1.5118691 0.34320155 0.0 2.5001972 0.27109033 
0.0 0.7021713 0.0 0.0 1.9018307 0.33916909 
0.0 0.05324735 0.0 0.0 1.1625012 0.45151436 
0.0 0.0 0.0 0.0 0.62475795 0.44152632 
0.0 0.0 0.0 0.0 0.33681765 0.29547992 
0.0 0.0 0.0 0.0 0.18380068 0.19384299 
0.0 0.0 0.0 0.0 0.06274749 0.13029207 
0.0 0.0 0.0 0.0 0.0 0.091567144 
0.0 0.0 0.0 0.0 0.0 0.08992751 
0.0 0.0 0.0 0.0 0.0 0.08026851 
0.0 0.0 0.0 0.0 0.0 0.07721622 
0.0 0.0 0.0 0.0 0.0 0.07698792 
0.0 0.0 0.0 0.0 0.0 0.07698792 
0.0 0.0 0.0 0.0 0.0 0.07698792 
0.0 0.0 0.0 0.0 0.0 0.07698792 
0.0 0.0 0.0 0.0 0.0 0.07698792 
0.0 0.0 0.0 0.0 0.0 0.07698792 
0.0 0.0 0.0 0.0 0.0 0.07698792 
0.0 0.0 0.0 0.0 0.0 0.07698792 
0.0 0.0 0.0 0.027556002 0.0 0.13819367 
0.6045549 0.0 0.0 0.2698387 0.07538824 0.69669235 
1.409786 0.0 0.0 0.45719102 0.6578003 1.281476 
1.7199073 0.0 0.0 0.73764086 1.3210462 1.4067056 
1.5909283 0.35200724 0.0 0.8237276 1.8409648 1.4666014 
1.1412799 0.9411555 0.0 0.69618744 2.3611248 1.2641478 
0.8424076 1.0143166 0.12834343 0.2664961 2.601275 0.8994934 
0.46410906 1.3697007 0.5191342 0.0 2.4940567 0.2603585 
0.0 1.6362919 1.1154776 0.0 2.2751193 0.0 
0.0 1.652042 1.3953804 0.0 1.8709426 0.0 
0.0 1.1850567 1.1900278 0.0 1.3497376 0.0 
0.0 0.42490426 0.5135924 0.0 0.8417372 0.0 
0.0 0.059557304 0.10945121 0.0 0.35911372 0.0 
0.0 0.0 0.0 0.0 0.046748463 0.022740558 
0.0 0.0 0.0 0.0 0.0 0.07165964 
0.0 0.0 0.0 0.0 0.0 0.07698792 
0.0 0.0 0.0 0.0 0.0 0.07698792 
0.0 0.0 0.0 0.0 0.0 0.07698792 
0.0 0.0 0.0 0.0 0.0 0.07698792 
0.0 0.0 0.0 0.0 0.0 0.07698792 
0.0 0.0 0.0 0.0 0.0 0.07698792 
0.0 0.0 0.0 0.0 0.0 0.07698792 
0.0 0.0 0.0 0.0 0.0 0.07698792 
0.0 0.0 0.0 0.0 0.0 0.07698792 
0.0 0.0 0.0 0.0 0.0 0.07698792 
0.0 0.0 0.0 0.0 0.0 0.07698792 
0.0 0.0 0.0 0.0 0.0 0.07698792 
0.0 0.0 0.0 0.0 0.0 0.07698792 
0.0 0.0 0.0 0.013410847 0.0 0.13734429 
0.57731646 0.0 0.0 0.09586459 0.4217259 0.725414 
1.1387062 0.0 0.0 0.18238609 1.0073255 1.3849149 
1.1778221 0.0 0.0 0.38730785 1.4361544 1.6266425 
1.1939757 0.0 0.0 0.68814015 1.8413647 1.9653983 
1.0655448 0.06507099 0.0 0.976682 2.1226614 1.9822927 
1.1323426 0.49969456 0.0 0.9148024 2.18426 1.6238227 
0.6972579 0.9973255 0.26243797 0.6301227 2.0247834 0.9039018 
0.011870995 1.4702915 1.3387995 0.29481825 1.6873906 0.0 
0.0 1.7722678 2.3175743 0.0 1.4887534 0.0 
0.0 1.8802233 2.3348835 0.0 1.2658317 0.0 
0.0 1.417023 1.5271145 0.0 0.90777636 0.0 
0.0 0.6559328 0.5983178 0.0 0.57697517 0.0 
0.0 0.20786327 0.101742215 0.0 0.23523177 0.0 
0.0 0.026064109 0.0 0.0 0.0 0.04000346 
0.0 0.0 0.0 0.0 0.0 0.07698792 
0.0 0.0 0.0 0.0 0.0 0.07698792 
0.0 0.0 0.0 0.0 0.0 0.07698792 
0.0 0.0 0.0 0.0 0.0 0.07698792 
0.0 0.0 0.0 0.0 0.0 0.07698792 
0.0 0.0 0.0 0.0 0.0 0.07698792 
0.0 0.0 0.0 0.0 0.0 0.07698792 
0.0 0.0 0.0 0.0 0.0 0.07698792 
0.0 0.0 0.0 0.0 0.0 0.07698792 
0.0 0.0 0.0 0.0 0.0 0.07698792 
0.0 0.0 0.0 0.0 0.0 0.07698792 
0.0 0.0 0.0 0.0 0.0 0.07698792 
0.0 0.0 0.0 0.0 0.0 0.07698792 
0.0 0.0 0.0 0.0 0.0 0.1068466 
0.34059936 0.0 0.0 0.0 0.3936814 0.43917412 
0.7502591 0.0 0.0 0.0 0.83397627 0.9625705 
0.8516417 0.0 0.0 0.0 1.1941047 1.3632011 
0.92415947 0.0 0.0 0.0 1.5381899 1.7982883 
0.8616177 0.0 0.0 0.24063225 1.7572718 2.0340273 
1.0474961 0.0 0.0 0.63829905 1.864644 2.0338693 
1.1822522 0.20427069 0.0 0.900623 1.7657963 1.6749218 
0.7426841 0.930661 0.36748523 0.8364752 1.615652 0.9213717 
0.057147726 1.5000088 1.6383039 0.54702944 1.4899048 0.0 
0.0 1.8437214 2.5324347 0.19914933 1.4146667 0.0 
0.0 2.0165753 2.2816145 0.0 1.2304312 0.0 
0.0 1.4268578 1.4930848 0.0 0.9061303 0.0 
0.0 0.5802263 0.5634673 0.0 0.56582594 0.0 
0.0 0.1710015 0.0634516 0.0 0.17626204 0.0 
0.0 0.0096924165 0.0 0.0 0.0 0.06031304 
0.0 0.0 0.0 0.0 0.0 0.07698792 
0.0 0.0 0.0 0.0 0.0 0.07698792 
0.0 0.0 0.0 0.0 0.0 0.07698792 
0.0 0.0 0.0 0.0 0.0 0.07698792 
0.0 0.0 0.0 0.0 0.0 0.07698792 
0.0 0.0 0.0 0.0 0.0 0.07698792 
0.0 0.0 0.0 0.0 0.0 0.07698792 
0.0 0.0 0.0 0.0 0.0 0.07698792 
0.0 0.0 0.0 0.0 0.0 0.07698792 
0.0 0.0 0.0 0.0 0.0 0.07698792 
0.0 0.0 0.0 0.0 0.0 0.07698792 
0.0 0.0 0.0 0.0 0.0 0.07698792 
0.0 0.0 0.0 0.0 0.0 0.08070118 
0.07164459 0.0 0.0 0.0 0.1623884 0.17388567 
0.31766993 0.0 0.0 0.0 0.47005293 0.37885416 
0.48520547 0.0 0.0 0.0 0.7319809 0.6230757 
0.61280113 0.0 0.0 0.0 1.0249643 1.0122778 
0.7833641 0.0 0.0 0.0 1.373267 1.5333507 
0.9611923 0.0 0.0 0.0 1.5112824 1.8705332 
1.2294474 0.0 0.0 0.24511279 1.5991725 1.9114869 
1.2985888 0.01088532 0.0 0.6781842 1.606838 1.6179457 
0.8348615 0.8849005 0.26361233 0.75677115 1.5471559 0.8959475 
0.07095097 1.6062316 1.6433412 0.51331884 1.4650156 0.0 
0.0 1.9592938 2.4638858 0.17810632 1.5008756 0.0 
0.0 1.9727352 2.2132432 0.0 1.2590566 0.0 
0.0 1.2809286 1.3954589 0.0 0.86131984 0.0 
0.0 0.38575384 0.38905337 0.0 0.50760394 0.0 
0.0 0.077011995 0.0 0.0 0.07206586 0.0 
0.0 0.0 0.0 0.0 0.0 0.07698792 
0.0 0.0 0.0 0.0 0.0 0.07698792 
0.0 0.0 0.0 0.0 0.0 0.07698792 
0.0 0.0 0.0 0.0 0.0 0.07698792 
0.0 0.0 0.0 0.0 0.0 0.07698792 
0.0 0.0 0.0 0.0 0.0 0.07698792 
0.0 0.0 0.0 0.0 0.0 0.07698792 
0.0 0.0 0.0 0.0 0.0 0.07698792 
0.0 0.0 0.0 0.0 0.0 0.07698792 
0.0 0.0 0.0 0.0 0.0 0.07698792 
0.0 0.0 0.0 0.0 0.0 0.07698792 
0.0 0.0 0.0 0.0 0.0 0.07698792 
0.0 0.0 0.0 0.0 0.0 0.07698792 
0.0 0.0 0.0 0.0 0.0 0.07698792 
0.0 0.0 0.0 0.0 0.014106516 0.10855061 
0.08282885 0.0 0.0 0.0 0.17493388 0.18550754 
0.24667862 0.0 0.0 0.0 0.42650458 0.3245421 
0.5042498 0.0 0.0 0.0 0.71497005 0.66108197 
0.83433867 0.0 0.0 0.0 1.091653 1.2421749 
1.1349902 0.0 0.0 0.0 1.3055611 1.7183361 
1.4744911 0.0 0.0 0.041309495 1.4662263 1.7925742 
1.4420295 0.051653676 0.0 0.4991028 1.5654914 1.4715643 
0.7702142 0.94643086 0.29481798 0.5549926 1.5951596 0.7174912 
0.0 1.7639431 1.7767428 0.34589458 1.5763624 0.0 
0.0 2.01185 2.3851748 0.06751679 1.618971 0.0 
0.0 1.7368795 2.1097972 0.0 1.2367207 0.0 
0.0 0.9314904 1.077878 0.0 0.74999136 0.0 
0.0 0.18651819 0.14763248 0.0 0.3152752 0.0 
0.0 0.013620245 0.0 0.0 0.0 0.056665406 
0.0 0.0 0.0 0.0 0.0 0.07698792 
0.0 0.0 0.0 0.0 0.0 0.07698792 
0.0 0.0 0.0 0.0 0.0 0.07698792 
0.0 0.0 0.0 0.0 0.0 0.07698792 
0.0 0.0 0.0 0.0 0.0 0.07698792 
0.0 0.0 0.0 0.0 0.0 0.07698792 
0.0 0.0 0.0 0.0 0.0 0.07698792 
0.0 0.0 0.0 0.0 0.0 0.07698792 
0.0 0.0 0.0 0.0 0.0 0.07698792 
0.0 0.0 0.0 0.0 0.0 0.07698792 
0.0 0.0 0.0 0.0 0.0 0.07698792 
0.012954414 0.0 0.048533037 0.0 0.0 0.027209967 
0.18304643 0.03058016 0.13998058 0.0 0.0 0.0 
0.22304311 0.15211117 0.20955613 0.0 0.0 0.0 
0.16691336 0.3210187 0.23242602 0.0 0.0 0.0 
0.034549974 0.36606774 0.17049176 0.0 0.0 0.0 
0.1178323 0.14067599 0.0 0.0 0.32130554 0.0 
0.45536178 0.0 0.0 0.0 0.65502053 0.3325989 
0.9149808 0.0 0.0 0.0 0.98088616 1.0973222 
1.3646145 0.0 0.0 0.0 1.131146 1.6171455 
1.7167072 0.0 0.0 0.029146787 1.4307548 1.6227927 
1.4323459 0.29590118 0.0 0.4210177 1.5860281 1.2432287 
0.49601167 1.3517776 0.70279413 0.4066822 1.6108284 0.32350406 
0.0 2.0161974 2.005249 0.14301598 1.7662158 0.0 
0.0 1.9326259 2.3453555 0.0 1.5232061 0.0 
0.0 1.4261712 1.8318084 0.0 1.0190164 0.0 
0.0 0.49579528 0.56953573 0.0 0.55023223 0.0 
0.0 0.07227435 0.0 0.0 0.07793045 0.0 
0.0 0.0 0.0 0.0 0.0 0.07698792 
0.0 0.0 0.0 0.0 0.0 0.07698792 
0.0 0.0 0.0 0.0 0.0 0.07698792 
0.0 0.0 0.0 0.0 0.0 0.07698792 
0.0 0.0 0.0 0.0 0.0 0.07698792 
0.0 0.0 0.0 0.0 0.0 0.07698792 
0.0 0.0 0.0 0.0 0.0 0.07698792 
0.0 0.0 0.0 0.0 0.0 0.07698792 
0.0 0.0 0.0 0.0 0.0 0.07698792 
0.0 0.0 0.0 0.0 0.0 0.07698792 
0.0 0.0 0.021228872 0.0 0.0 0.04003156 
0.2733584 0.0 0.12218694 0.0 0.0 0.0 
0.62028444 0.0 0.26572978 0.0 0.0 0.0 
0.7821015 0.30242562 0.43841255 0.0 0.0 0.0 
0.6359808 0.8353117 0.77843904 0.0 0.0 0.0 
0.20784205 1.073321 0.9184303 0.0 0.1818803 0.0 
0.0 0.9944245 0.7986542 0.0 0.2988201 0.0 
0.0 0.58228123 0.3809604 0.0 0.5182895 0.0 
0.4436767 0.14619325 0.0 0.0 0.78286004 0.0 
1.1652954 0.0 0.0 0.0 0.93848747 0.8764587 
1.7098281 0.0 0.0 0.0 1.1175809 1.3600581 
1.8445103 0.0 0.0 0.0 1.5592016 1.2826865 
1.1273379 0.8105487 0.0 0.28642586 1.6917869 0.7986549 
0.0 1.7680411 1.2621721 0.13950641 1.8281235 0.0 
0.0 2.017465 2.0761096 0.0097637 1.8177363 0.0 
0.0 1.576102 2.1814542 0.0 1.3561732 0.0 
0.0 0.88786346 1.1764833 0.0 0.7724636 0.0 
0.0 0.12324186 0.11934552 0.0 0.27143234 0.0 
0.0 0.0 0.0 0.0 0.0 0.07698792 
0.0 0.0 0.0 0.0 0.0 0.07698792 
0.0 0.0 0.0 0.0 0.0 0.07698792 
0.0 0.0 0.0 0.0 0.0 0.07698792 
0.0 0.0 0.0 0.0 0.0 0.07698792 
0.0 0.0 0.0 0.0 0.0 0.07698792 
0.0 0.0 0.0 0.0 0.0 0.07698792 
0.0 0.0 0.0 0.0 0.0 0.07698792 
0.0 0.0 0.0 0.0 0.0 0.07698792 
0.0 0.0 0.0 0.0 0.0 0.06492054 
0.17411529 0.0 0.10033587 0.0 0.0 0.0 
0.75495154 0.0 0.09083039 0.0 0.0 0.0 
1.1744277 0.0 0.21398485 0.0 0.0 0.0 
1.1996083 0.42782244 0.5165449 0.0 0.0 0.0 
0.69208634 1.0797989 1.1119052 0.0 0.4536076 0.0 
0.23828292 1.3957165 1.5819856 0.0 0.7534255 0.0 
0.09747891 1.5081576 1.6974435 0.0 0.70925564 0.0 
0.009875461 1.4269077 1.5021541 0.0 0.62359387 0.0 
0.14251423 1.0212564 0.95073175 0.0 0.7009175 0.0 
0.8666791 0.31507334 0.0 0.0 0.8616251 0.0 
1.6367142 0.0 0.0 0.0 1.0288947 0.21715692 
1.883136 0.120268136 0.0 0.0 1.4238945 0.4759408 
1.5548952 0.68105525 0.0 0.0 1.8482422 0.5919668 
0.35226318 1.6192824 0.61876523 0.0 2.0181582 0.09161186 
0.0 2.031316 1.6944462 0.05210064 2.035889 0.0 
0.0 1.6938338 2.1332798 0.07599206 1.6316867 0.0 
0.0 1.0401254 1.6515471 0.01608355 0.9993455 0.0 
0.0 0.25700483 0.37620896 0.0 0.37955168 0.0 
0.0 0.0 0.0 0.0 0.0 0.07698792 
0.0 0.0 0.0 0.0 0.0 0.07698792 
0.0 0.0 0.0 0.0 0.0 0.07698792 
0.0 0.0 0.0 0.0 0.0 0.07698792 
0.0 0.0 0.0 0.0 0.0 0.07698792 
0.0 0.0 0.0 0.0 0.0 0.07698792 
0.0 0.0 0.0 0.0 0.0 0.07698792 
0.0 0.0 0.0 0.0 0.0 0.07698792 
0.0 0.0 0.0 0.0 0.0 0.07698792 
0.0 0.0 0.0 0.0 0.0 0.07521495 
0.3907547 0.0 0.0 0.0 0.0 0.1301985 
1.2514658 0.0 0.0 0.08240434 0.0 0.22595763 
1.640995 0.016065113 0.0 0.19479287 0.06794125 0.07256084 
1.3143585 0.89002997 0.27404493 0.38613063 0.68431497 0.0 
0.7375429 1.3865248 0.9797168 0.34580615 1.3306854 0.0 
0.38128436 1.652723 1.7365376 0.47490388 1.3564221 0.0 
0.18835172 1.7016901 2.1034067 0.3786913 1.207025 0.0 
0.06087722 1.704353 2.1896896 0.11991575 1.0309281 0.0 
0.15879115 1.5294138 1.9353423 0.0 0.8622824 0.0 
0.79446805 1.0292476 1.1645299 0.0 1.0153426 0.0 
1.4725325 0.646663 0.0 0.0 1.3722204 0.0 
1.5453823 0.64019614 0.0 0.0 1.8021365 0.10584559 
1.345649 0.8275679 0.0 0.0 2.270584 0.40350756 
0.4601962 1.4387195 0.111175515 0.0 2.4031146 0.29182392 
0.0 2.0045152 1.2491833 0.029624764 2.2813275 0.0 
0.0 1.7425838 1.8830467 0.119484484 1.7965508 0.0 
0.0 1.0057558 1.7775698 0.09988682 1.1170255 0.0 
0.0 0.3102973 0.62472606 0.015856441 0.4062417 0.0 
0.0 0.0 0.0 0.0 0.0 0.07698792 
0.0 0.0 0.0 0.0 0.0 0.07698792 
0.0 0.0 0.0 0.0 0.0 0.07698792 
0.0 0.0 0.0 0.0 0.0 0.07698792 
0.0 0.0 0.0 0.0 0.0 0.07698792 
0.0 0.0 0.0 0.0 0.0 0.07698792 
0.0 0.0 0.0 0.0 0.0 0.07698792 
0.0 0.0 0.0 0.0 0.0 0.07698792 
0.0 0.0 0.0 0.0 0.0 0.07698792 
0.0 0.0 0.0 0.0117878495 0.0 0.117086925 
0.47486693 0.0 0.0 0.22567818 0.0 0.5065174 
1.2346046 0.0 0.0 0.57700366 0.33110908 1.0066924 
1.5640612 0.0 0.0 0.9226629 1.1036072 1.2409513 
1.3081458 0.49807963 0.0 1.164428 1.6602544 1.3585515 
0.8968324 0.97415787 0.0 1.1276333 2.0014212 1.2204816 
0.61194557 1.2791536 0.7078341 0.9807667 1.9071828 0.8297959 
0.39912546 1.4885911 1.2970142 0.7342157 1.7748493 0.31447178 
0.2667535 1.6178362 1.8394082 0.60064894 1.569018 0.0 
0.27145195 1.6012071 2.1020892 0.5334926 1.3846741 0.0 
0.6010389 1.3473846 1.8603191 0.40933853 1.5370424 0.0 
1.0942533 1.1756651 0.99368453 0.25848582 1.9224421 0.0 
1.2364528 1.1693156 0.011622034 0.02787016 2.2912343 0.124927685 
1.0640111 1.2356938 0.0 0.0 2.5903594 0.47757548 
0.38713813 1.4569529 0.0 0.09775578 2.7952678 0.6053792 
0.0 1.7944734 0.8138175 0.25858366 2.5113575 0.23671098 
0.0 1.4389378 1.500964 0.345081 1.8333685 0.15035784 
0.0 0.7131008 1.5440493 0.272017 1.091767 0.2593668 
0.0 0.18440042 0.68888927 0.14483996 0.3225858 0.0784248 
0.0 0.0 0.0 0.0 0.0 0.07698792 
0.0 0.0 0.0 0.0 0.0 0.07698792 
0.0 0.0 0.0 0.0 0.0 0.07698792 
0.0 0.0 0.0 0.0 0.0 0.07698792 
0.0 0.0 0.0 0.0 0.0 0.07698792 
0.0 0.0 0.0 0.0 0.0 0.07698792 
0.0 0.0 0.0 0.0 0.0 0.07698792 
0.0 0.0 0.0 0.0 0.0 0.07698792 
0.0 0.0 0.0 0.0 0.0 0.07698792 
0.0 0.0 0.0 0.03327055 0.0 0.14138754 
0.5334409 0.0 0.0 0.23074797 0.27072227 0.6988995 
1.0484967 0.0 0.0 0.35671934 0.9679523 1.2820871 
1.0539846 0.0 0.0 0.62042034 1.5168351 1.5440664 
0.99883646 0.0 0.0 0.85251176 1.8940972 1.9259102 
0.9175917 0.09373139 0.0 1.0806843 2.129113 2.0720422 
0.9490314 0.2549561 0.0 1.1090428 2.2382214 1.9684741 
0.80786496 0.59582484 0.0 1.1158233 2.2229466 1.6823514 
0.6185668 0.96313816 0.33377323 1.0868249 2.0766094 1.283716 
0.509802 1.2114481 0.8879648 0.9659936 2.001159 0.89280164 
0.6435058 1.3993195 1.1845739 0.8394273 1.9811951 0.5857975 
0.8351956 1.5458407 0.93510306 0.62954575 2.2741227 0.5002456 
0.7555199 1.584364 0.3645487 0.5292546 2.6178172 0.65214187 
0.4913932 1.4246664 0.0 0.52552044 2.9182913 0.96435356 
0.0 1.4346322 0.0 0.582326 3.006478 1.1089737 
0.0 1.3401769 0.4552294 0.58550817 2.3894935 0.77948767 
0.0 0.8573256 1.1161635 0.51555717 1.4771006 0.5745404 
0.0 0.37836328 1.1700885 0.3351126 0.7181836 0.4120105 
0.0 0.1203827 0.55783314 0.16371657 0.1243958 0.12872556 
0.0 0.0 0.0 0.0 0.0 0.07698792 
0.0 0.0 0.0 0.0 0.0 0.07698792 
0.0 0.0 0.0 0.0 0.0 0.07698792 
0.0 0.0 0.0 0.0 0.0 0.07698792 
0.0 0.0 0.0 0.0 0.0 0.07698792 
0.0 0.0 0.0 0.0 0.0 0.07698792 
0.0 0.0 0.0 0.0 0.0 0.07698792 
0.0 0.0 0.0 0.0 0.0 0.07698792 
0.0 0.0 0.0 0.0 0.0 0.07698792 
0.0 0.0 0.0 0.0 0.0 0.1269531 
0.40277666 0.0 0.0 0.0 0.40647736 0.5358196 
0.7160452 0.0 0.0 0.0 0.87747055 1.0081804 
0.71645176 0.0 0.0 0.0 1.1601909 1.3278396 
0.79948574 0.0 0.0 0.0 1.4332651 1.7560682 
0.7083796 0.0 0.0 0.047936242 1.7099179 1.9777236 
0.7331863 0.0 0.0 0.40341848 1.95162 2.035634 
0.7017277 0.0 0.0 0.757081 2.14972 2.042907 
0.73271453 0.018176943 0.0 1.0145115 2.2581024 2.1050656 
0.8156613 0.19367714 0.0 1.1243883 2.4008667 2.0541804 
0.8068973 0.44010785 0.0 1.1735448 2.5200238 1.977138 
0.54724133 0.67440736 0.0 1.1493968 2.8177512 1.8759301 
0.17144679 0.86613953 0.0 1.0522064 3.0585036 1.7519102 
0.0 0.93646836 0.0 0.90971845 3.030434 1.6679468 
0.0 0.89829177 0.0 0.6008681 2.6174562 1.412977 
0.0 0.71576923 0.120833375 0.36336574 1.6479071 0.9832713 
0.0 0.3751999 0.5999318 0.18224457 0.77469057 0.66054845 
0.0 0.12320617 0.67182165 0.10533397 0.31097326 0.35983717 
0.0 0.0 0.26920876 0.0173922 0.046015974 0.122804224 
0.0 0.0 0.0 0.0 0.0 0.07698792 
0.0 0.0 0.0 0.0 0.0 0.07698792 
0.0 0.0 0.0 0.0 0.0 0.07698792 
0.0 0.0 0.0 0.0 0.0 0.07698792 
0.0 0.0 0.0 0.0 0.0 0.07698792 
0.0 0.0 0.0 0.0 0.0 0.07698792 
0.0 0.0 0.0 0.0 0.0 0.07698792 
0.0 0.0 0.0 0.0 0.0 0.07698792 
0.0 0.0 0.0 0.0 0.0 0.07698792 
0.0 0.0 0.0 0.0 0.0 0.0930787 
0.1497729 0.0 0.0 0.0 0.28065538 0.22807969 
0.30741334 0.0 0.0 0.0 0.5220958 0.35640293 
0.37093243 0.0 0.0 0.0 0.69689435 0.4894098 
0.476843 0.0 0.0 0.0 0.9571546 0.8192554 
0.546912 0.0 0.0 0.0 1.2349514 1.1850162 
0.60935104 0.0 0.0 0.0 1.440554 1.478945 
0.6012864 0.0 0.0 0.0 1.6066886 1.7240002 
0.6716892 0.0 0.0 0.024504978 1.7783302 1.9710374 
0.61405504 0.0 0.0 0.39430276 1.9999412 2.0079029 
0.527067 0.0 0.0 0.68809825 2.229315 2.0281463 
0.3110416 0.22156727 0.0 0.87236285 2.370195 1.9554958 
0.024814889 0.49768344 0.0 0.78113115 2.3312342 1.7551358 
0.0 0.52295226 0.0 0.4336367 2.0649564 1.5561874 
0.0 0.40593964 0.0 0.051713996 1.4633858 1.1546564 
0.0 0.14290738 0.0 0.0 0.74639 0.67735714 
0.0 0.0 0.1483972 0.0 0.368951 0.41325954 
0.0 0.0 0.20779148 0.0 0.16392316 0.2036229 
0.0 0.0 0.018114358 0.0 0.0015384257 0.08665258 
0.0 0.0 0.0 0.0 0.0 0.07698792 
0.0 0.0 0.0 0.0 0.0 0.07698792 
0.0 0.0 0.0 0.0 0.0 0.07698792 
0.0 0.0 0.0 0.0 0.0 0.07698792 
0.0 0.0 0.0 0.0 0.0 0.07698792 
0.0 0.0 0.0 0.0 0.0 0.07698792 
0.0 0.0 0.0 0.0 0.0 0.07698792 
0.0 0.0 0.0 0.0 0.0 0.07698792 
0.0 0.0 0.0 0.0 0.0 0.07698792 
0.0 0.0 0.0 0.0 0.0 0.07698792 
0.0 0.0 0.0 0.0 0.0 0.07698792 
0.0 0.0 0.0 0.0 0.0 0.07698792 
0.0 0.0 0.0 0.0 0.039710965 0.11969037 
0.121938035 0.0 0.0 0.0 0.22736691 0.2158843 
0.31011933 0.0 0.0 0.0 0.50952166 0.38829625 
0.40037578 0.0 0.0 0.0 0.747014 0.56990373 
0.42161453 0.0 0.0 0.0 0.9427572 0.78756386 
0.5166458 0.0 0.0 0.0 1.1883312 1.1419277 
0.46730518 0.0 0.0 0.0 1.3856752 1.3845096 
0.43823707 0.0 0.0 0.0 1.4605082 1.5485773 
0.2587306 0.0 0.0 0.0 1.4674944 1.5370774 
0.0 0.0 0.0 0.0 1.2795805 1.2575774 
0.0 0.0 0.0 0.0 0.94605166 0.8999373 
0.0 0.0 0.0 0.0 0.550114 0.5522307 
0.0 0.0 0.0 0.0 0.29553646 0.3009914 
0.0 0.0 0.019850202 0.0 0.12956823 0.17805666 
0.0 0.0 0.019304685 0.0 0.0024829619 0.08680478 
0.0 0.0 0.0 0.0 0.0 0.07698792 
0.0 0.0 0.0 0.0 0.0 0.07698792 
0.0 0.0 0.0 0.0 0.0 0.07698792 
0.0 0.0 0.0 0.0 0.0 0.07698792 
0.0 0.0 0.0 0.0 0.0 0.07698792 
0.0 0.0 0.0 0.0 0.0 0.07698792 
0.0 0.0 0.0 0.0 0.0 0.07698792 
0.0 0.0 0.0 0.0 0.0 0.07698792 
0.0 0.0 0.0 0.0 0.0 0.07698792 
0.0 0.0 0.0 0.0 0.0 0.07698792 
0.0 0.0 0.0 0.0 0.0 0.07698792 
0.0 0.0 0.0 0.0 0.0 0.07698792 
0.0 0.0 0.0 0.0 0.0 0.07698792 
0.0 0.0 0.0 0.0 0.0 0.07698792 
0.0 0.0 0.0 0.0 0.0 0.080082305 
0.0 0.0 0.0 0.0 0.012023311 0.10832911 
0.009317644 0.0 0.0 0.0 0.06583358 0.13672297 
0.097134665 0.0 0.0 0.0 0.23406337 0.20722117 
0.2394129 0.0 0.0 0.0 0.4880351 0.34196204 
0.28171635 0.0 0.0 0.0 0.6733355 0.41932777 
0.26743734 0.0 0.0 0.0 0.80012065 0.49419972 
0.10854949 0.0 0.0 0.0 0.76499534 0.49157834 
0.0 0.0 0.0 0.0 0.5520287 0.37849545 
0.0 0.0 0.0 0.0 0.33896276 0.2810305 
0.0 0.0 0.0 0.0 0.17693186 0.18848696 
0.0 0.0 0.0001327619 0.0 0.03652929 0.11016832 
0.0 0.0 0.0 0.0 0.0 0.07980361 
0.0 0.0 0.0 0.0 0.0 0.07698792 
0.0 0.0 0.0 0.0 0.0 0.07698792 
0.0 0.0 0.0 0.0 0.0 0.07698792 
0.0 0.0 0.0 0.0 0.0 0.07698792 
0.0 0.0 0.0 0.0 0.0 0.07698792 
0.0 0.0 0.0 0.0 0.0 0.07698792 
0.0 0.0 0.0 0.0 0.0 0.07698792 
0.0 0.0 0.0 0.0 0.0 0.07698792 
0.0 0.0 0.0 0.0 0.0 0.07698792 
0.0 0.0 0.0 0.0 0.0 0.07698792 
0.0 0.0 0.0 0.0 0.0 0.07698792 
0.0 0.0 0.0 0.0 0.0 0.07698792 
0.0 0.0 0.0 0.0 0.0 0.07698792 
0.0 0.0 0.0 0.0 0.0 0.07698792 
0.0 0.0 0.0 0.0 0.0 0.07698792 
0.0 0.0 0.0 0.0 0.0 0.07698792 
0.0 0.0 0.0 0.0 0.0 0.07698792 
0.0 0.0 0.0 0.0 0.0 0.07698792 
0.0 0.0 0.0 0.0 0.0 0.07698792 
0.0 0.0 0.0 0.0 0.0 0.07698792 
0.0 0.0 0.0 0.0 0.0 0.07698792 
0.0 0.0 0.0 0.0 0.0 0.07698792 
0.0 0.0 0.0 0.0 0.0 0.07698792 
0.0 0.0 0.0 0.0 0.0 0.07698792 
0.0 0.0 0.0 0.0 0.0 0.07698792 
0.0 0.0 0.0 0.0 0.0 0.07698792 
0.0 0.0 0.0 0.0 0.0 0.07698792 
0.0 0.0 0.0 0.0 0.0 0.07698792 
0.0 0.0 0.0 0.0 0.0 0.07698792 
0.0 0.0 0.0 0.0 0.0 0.07698792 
0.0 0.0 0.0 0.0 0.0 0.07698792 
0.0 0.0 0.0 0.0 0.0 0.07698792 
0.0 0.0 0.0 0.0 0.0 0.07698792 
0.0 0.0 0.0 0.0 0.0 0.07698792 
0.0 0.0 0.0 0.0 0.0 0.07698792 
0.0 0.0 0.0 0.0 0.0 0.07698792 
0.0 0.0 0.0 0.0 0.0 0.07698792 
0.0 0.0 0.0 0.0 0.0 0.07698792 
0.0 0.0 0.0 0.0 0.0 0.07698792 
0.0 0.0 0.0 0.0 0.0 0.07698792 
0.0 0.0 0.0 0.0 0.0 0.07698792 
0.0 0.0 0.0 0.0 0.0 0.07698792 
0.0 0.0 0.0 0.0 0.0 0.07698792 
0.0 0.0 0.0 0.0 0.0 0.07698792 
0.0 0.0 0.0 0.0 0.0 0.07698792 
0.0 0.0 0.0 0.0 0.0 0.07698792 
0.0 0.0 0.0 0.0 0.0 0.07698792 
0.0 0.0 0.0 0.0 0.0 0.07698792 
0.0 0.0 0.0 0.0 0.0 0.07698792 
0.0 0.0 0.0 0.0 0.0 0.07698792 
0.0 0.0 0.0 0.0 0.0 0.07698792 
0.0 0.0 0.0 0.0 0.0 0.07698792 
0.0 0.0 0.0 0.0 0.0 0.07698792 
0.0 0.0 0.0 0.0 0.0 0.07698792 
0.0 0.0 0.0 0.0 0.0 0.07698792 
0.0 0.0 0.0 0.0 0.0 0.07698792 
0.0 0.0 0.0 0.0 0.0 0.07698792 
0.0 0.0 0.0 0.0 0.0 0.07698792 
0.0 0.0 0.0 0.0 0.0 0.07698792 
0.0 0.0 0.0 0.0 0.0 0.07698792 
0.0 0.0 0.0 0.0 0.0 0.07698792 
0.0 0.0 0.0 0.0 0.0 0.07698792 
0.0 0.0 0.0 0.0 0.0 0.07698792 
0.0 0.0 0.0 0.0 0.0 0.07698792 

