0.0 0.0 0.0 0.0 0.0 0.07698792 
0.0 0.0 0.0 0.0 0.0 0.07698792 
0.0 0.0 0.0 0.0 0.0 0.07698792 
0.0 0.0 0.0 0.0 0.0 0.07698792 
0.0 0.0 0.0 0.0 0.0 0.07698792 
0.0 0.0 0.0 0.0 0.0 0.07698792 
0.0 0.0 0.0 0.0 0.0 0.07698792 
0.0 0.0 0.0 0.0 0.0 0.07698792 
0.0 0.0 0.0 0.0 0.0 0.07698792 
0.0 0.0 0.0 0.0 0.0 0.07698792 
0.0 0.0 0.0 0.0 0.0 0.07698792 
0.0 0.0 0.0 0.0 0.0 0.07698792 
0.0 0.0 0.0 0.0 0.0 0.07698792 
0.0 0.0 0.0 0.0 0.0 0.07698792 
0.0 0.0 0.0 0.0 0.0 0.07698792 
0.0 0.0 0.0 0.0 0.0 0.07698792 
0.0 0.0 0.0 0.0 0.0 0.07698792 
0.0 0.0 0.0 0.0 0.0 0.07698792 
0.0 0.0 0.0 0.0 0.0 0.07698792 
0.0 0.0 0.0 0.0 0.0 0.07698792 
0.0 0.0 0.0 0.0 0.0 0.07698792 
0.0 0.0 0.0 0.0 0.0 0.07698792 
0.0 0.0 0.0 0.0 0.0 0.07698792 
0.0 0.0 0.0 0.0 0.0 0.07698792 
0.0 0.0 0.0 0.0 0.0 0.07698792 
0.0 0.0 0.0 0.0 0.0 0.07698792 
0.0 0.0 0.0 0.0 0.0 0.07698792 
0.0 0.0 0.0 0.0 0.0 0.07698792 
0.0 0.0 0.0 0.0 0.0 0.07698792 
0.0 0.0 0.0 0.0 0.0 0.07698792 
0.0 0.0 0.0 0.0 0.0 0.07698792 
0.0 0.0 0.0 0.0 0.0 0.07698792 
0.0 0.0 0.0 0.0 0.0 0.07698792 
0.0 0.0 0.0 0.0 0.0 0.07698792 
0.0 0.0 0.0 0.0 0.0 0.07698792 
0.0 0.0 0.0 0.0 0.0 0.07698792 
0.0 0.0 0.0 0.0 0.0 0.07698792 
0.0 0.0 0.0 0.0 0.0 0.07698792 
0.0 0.0 0.0 0.0 0.0 0.07698792 
0.0 0.0 0.0 0.0 0.0 0.07698792 
0.0 0.0 0.0 0.0 0.0 0.07698792 
0.0 0.0 0.0 0.0 0.0 0.07698792 
0.0 0.0 0.0 0.0 0.0 0.07698792 
0.0 0.0 0.0 0.0 0.0 0.07698792 
0.0 0.0 0.0 0.0 0.0 0.07698792 
0.0 0.0 0.0 0.0 0.0 0.07698792 
0.0 0.0 0.0 0.0 0.0 0.07698792 
0.0 0.0 0.0 0.0 0.0 0.07698792 
0.0 0.0 0.0 0.0 0.0 0.07698792 
0.0 0.0 0.0 0.0 0.0 0.07698792 
0.0 0.0 0.0 0.0 0.0 0.07698792 
0.0 0.0 0.0 0.0 0.0 0.07698792 
0.0 0.0 0.0 0.0 0.0 0.07698792 
0.0 0.0 0.0 0.0 0.0 0.07698792 
0.0 0.0 0.0 0.0 0.0 0.07698792 
0.0 0.0 0.0 0.0 0.0 0.07698792 
0.0 0.0 0.0 0.0 0.0 0.07698792 
0.0 0.0 0.0 0.0 0.0 0.07698792 
0.0 0.0 0.0 0.0 0.0 0.07698792 
0.0 0.0 0.0 0.0 0.0 0.07698792 
0.0 0.0 0.0 0.0 0.0 0.07698792 
0.0 0.0 0.0 0.0 0.0 0.07698792 
0.0 0.0 0.0 0.0 0.0 0.07698792 
0.0 0.0 0.0 0.0 0.0 0.07698792 
0.0 0.0 0.0 0.0 0.0 0.07698792 
0.0 0.0 0.0 0.0 0.0 0.07283976 
0.023154363 0.0 0.05120144 0.0 0.0 0.015466273 
0.15603869 0.047927644 0.11360193 0.0 0.0 0.0 
0.21703991 0.11707333 0.24060625 0.0 0.0 0.0 
0.3313493 0.28312984 0.37625536 0.0 0.0 0.0 
0.3393024 0.43681708 0.4466132 0.0 0.0 0.0 
0.2709151 0.5586465 0.4252408 0.0 0.0 0.0 
0.09416181 0.58277154 0.33718544 0.0 0.0 0.0 
0.0 0.47390646 0.2177732 0.0 0.04982597 0.0 
0.0 0.28522995 0.0942389 0.0 0.075212896 0.0 
0.0 0.11329912 0.0 0.0 0.021339018 0.0 
0.0 0.017548077 0.0 0.0 0.0 0.053017773 
0.0 0.0 0.0 0.0 0.0 0.07698792 
0.0 0.0 0.0 0.0 0.0 0.07698792 
0.0 0.0 0.0 0.0 0.0 0.07698792 
0.0 0.0 0.0 0.0 0.0 0.07698792 
0.0 0.0 0.0 0.0 0.0 0.07698792 
0.0 0.0 0.0 0.0 0.0 0.07698792 
0.0 0.0 0.0 0.0 0.0 0.07698792 
0.0 0.0 0.0 0.0 0.0 0.07698792 
0.0 0.0 0.0 0.0 0.0 0.07698792 
0.0 0.0 0.0 0.0 0.0 0.07698792 
0.0 0.0 0.0 0.0 0.0 0.07698792 
0.0 0.0 0.0 0.0 0.0 0.07698792 
0.0 0.0 0.0 0.0 0.0 0.07698792 
0.0 0.0 0.0 0.0 0.0 0.07698792 
0.0 0.0 0.0 0.0 0.0 0.07698792 
0.0 0.0 0.0 0.0 0.0 0.07698792 
0.0037288517 0.0 0.023590878 0.0 0.0 0.039398532 
0.2973464 0.0 0.1347796 0.0 0.0 0.0 
0.60670406 0.036375582 0.28947937 0.0 0.0 0.0 
0.7585381 0.30316964 0.4219454 0.0 0.0 0.0 
0.76340663 0.66228575 0.7264728 0.0 0.0 0.0 
0.6563805 0.8407311 0.86935616 0.0 0.0 0.0 
0.5202242 1.0781335 1.0312746 0.0 0.11426377 0.0 
0.18005428 1.2255442 1.096446 0.0 0.3594798 0.0 
0.0 1.2027929 0.90734243 0.0 0.5244677 0.0 
0.0 0.8095851 0.60660225 0.0 0.5241404 0.0 
0.0 0.43389258 0.29024145 0.0 0.324452 0.0 
0.0 0.15646544 0.036468364 0.0 0.13358442 0.0 
0.0 0.016425837 0.0 0.0 0.0 0.054059952 
0.0 0.0 0.0 0.0 0.0 0.07698792 
0.0 0.0 0.0 0.0 0.0 0.07698792 
0.0 0.0 0.0 0.0 0.0 0.07698792 
0.0 0.0 0.0 0.0 0.0 0.07698792 
0.0 0.0 0.0 0.0 0.0 0.07698792 
0.0 0.0 0.0 0.0 0.0 0.07698792 
0.0 0.0 0.0 0.0 0.0 0.07698792 
0.0 0.0 0.0 0.0 0.0 0.07698792 
0.0 0.0 0.0 0.0 0.0 0.07698792 
0.0 0.0 0.0 0.0 0.0 0.07698792 
0.0 0.0 0.0 0.0 0.0 0.07698792 
0.0 0.0 0.0 0.0 0.0 0.07698792 
0.0 0.0 0.0 0.0 0.0 0.07698792 
0.0 0.0 0.0 0.0 0.0 0.07698792 
0.0 0.0 0.0 0.0 0.0 0.07698792 
0.12818348 0.0 0.03826896 0.0 0.0 0.04448908 
0.7259353 0.0 0.058890387 0.0 0.0 0.0 
1.1375992 0.0 0.20622301 0.0 0.0 0.0 
1.2184994 0.33432087 0.48840356 0.0 0.0 0.0 
0.92357683 0.8056254 0.9854897 0.0 0.48137167 0.0 
0.638736 1.0018014 1.2981436 0.0 0.9230412 0.0 
0.4517151 1.2379284 1.5161282 0.03162017 1.0239204 0.0 
0.20795682 1.512981 1.8000127 0.0 1.0264174 0.0 
0.0 1.7317251 1.9357512 0.0 1.0199556 0.0 
0.0 1.7032824 1.5118233 0.0 0.95188516 0.0 
0.0 1.0961347 1.012591 0.0 0.7473039 0.0 
0.0 0.44227588 0.38584375 0.0 0.47343263 0.0 
0.0 0.11530285 0.008381583 0.0 0.1271268 0.0 
0.0 0.0 0.0 0.0 0.0 0.07698792 
0.0 0.0 0.0 0.0 0.0 0.07698792 
0.0 0.0 0.0 0.0 0.0 0.07698792 
0.0 0.0 0.0 0.0 0.0 0.07698792 
0.0 0.0 0.0 0.0 0.0 0.07698792 
0.0 0.0 0.0 0.0 0.0 0.07698792 
0.0 0.0 0.0 0.0 0.0 0.07698792 
0.0 0.0 0.0 0.0 0.0 0.07698792 
0.0 0.0 0.0 0.0 0.0 0.07698792 
0.0 0.0 0.0 0.0 0.0 0.07698792 
0.0 0.0 0.0 0.0 0.0 0.07698792 
0.0 0.0 0.0 0.0 0.0 0.07698792 
0.0 0.0 0.0 0.0 0.0 0.07698792 
0.0 0.0 0.0 0.0 0.0 0.07698792 
0.0 0.0 0.0 0.0 0.0 0.07698792 
0.25444072 0.0 0.0 0.0079314755 0.0 0.20243432 
1.050035 0.0 0.0 0.21032049 0.0 0.42309245 
1.446445 0.0 0.0 0.4245976 0.13981701 0.35055545 
1.1903608 0.6150451 0.0 0.8174712 0.73115647 0.25167122 
0.8022278 1.1611654 0.5572419 1.0175494 1.4719342 0.42316574 
0.59266156 1.4441165 0.99604666 1.1943252 1.7044276 0.5489001 
0.6018989 1.5489459 1.1736547 1.130713 1.5888278 0.4074426 
0.3698973 1.6695583 1.6401118 0.937501 1.4327713 0.0 
0.04388322 1.9165915 2.1956775 0.6100283 1.2315295 0.0 
0.0 2.120792 2.3474462 0.1903447 1.3190094 0.0 
0.0 1.8278157 1.8639085 0.0 1.1529218 0.0 
0.0 1.0798389 1.1550124 0.0 0.78515476 0.0 
0.0 0.2533901 0.24151254 0.0 0.43197003 0.0 
0.0 0.045042887 0.0 0.0 0.0 0.027484357 
0.0 0.0 0.0 0.0 0.0 0.07698792 
0.0 0.0 0.0 0.0 0.0 0.07698792 
0.0 0.0 0.0 0.0 0.0 0.07698792 
0.0 0.0 0.0 0.0 0.0 0.07698792 
0.0 0.0 0.0 0.0 0.0 0.07698792 
0.0 0.0 0.0 0.0 0.0 0.07698792 
0.0 0.0 0.0 0.0 0.0 0.07698792 
0.0 0.0 0.0 0.0 0.0 0.07698792 
0.0 0.0 0.0 0.0 0.0 0.07698792 
0.0 0.0 0.0 0.0 0.0 0.07698792 
0.0 0.0 0.0 0.0 0.0 0.07698792 
0.0 0.0 0.0 0.0 0.0 0.07698792 
0.0 0.0 0.0 0.0 0.0 0.07698792 
0.0 0.0 0.0 0.0 0.0 0.07698792 
0.3281489 0.0 0.0 0.15953128 0.0 0.43628582 
1.0576022 0.0 0.0 0.4446806 0.33697766 1.011581 
1.3194251 0.0 0.0 0.8117208 1.0619307 1.2731395 
1.0372136 0.2993326 0.0 1.0987467 1.7568995 1.5228357 
0.6330844 0.6229956 0.0 1.2507703 2.3829958 1.7877805 
0.48454583 0.46632528 0.0 1.2006165 2.5057542 1.882484 
0.7653315 0.39931518 0.0 1.1405808 2.1534646 1.7919087 
0.8824779 0.72644573 0.054423355 1.0143434 1.8806323 1.3296432 
0.45114988 1.2174405 0.96158266 0.7609059 1.6455227 0.55165637 
0.0 1.9250761 2.0130951 0.49315608 1.5962963 0.0 
0.0 2.0099895 2.2847173 0.18328634 1.572076 0.0 
0.0 1.5410866 1.902242 0.0 1.129186 0.0 
0.0 0.6244481 0.76112854 0.0 0.64827144 0.0 
0.0 0.043912213 0.013963744 0.0 0.13409744 0.0 
0.0 0.0 0.0 0.0 0.0 0.07698792 
0.0 0.0 0.0 0.0 0.0 0.07698792 
0.0 0.0 0.0 0.0 0.0 0.07698792 
0.0 0.0 0.0 0.0 0.0 0.07698792 
0.0 0.0 0.0 0.0 0.0 0.07698792 
0.0 0.0 0.0 0.0 0.0 0.07698792 
0.0 0.0 0.0 0.0 0.0 0.07698792 
0.0 0.0 0.0 0.0 0.0 0.07698792 
0.0 0.0 0.0 0.0 0.0 0.07698792 
0.0 0.0 0.0 0.0 0.0 0.07698792 
0.0 0.0 0.0 0.0 0.0 0.07698792 
0.0 0.0 0.0 0.0 0.0 0.07698792 
0.0 0.0 0.0 0.0 0.0 0.07698792 
0.0 0.0 0.0 0.0 0.0 0.07698792 
0.34787953 0.0 0.0 0.112198114 0.19122066 0.491392 
0.91413426 0.0 0.0 0.16491689 0.8143575 1.1105285 
0.90181726 0.0 0.0 0.27102745 1.3399359 1.3421221 
0.7014125 0.022870868 0.0 0.33319357 1.7255251 1.6357396 
0.43310916 0.21302085 0.0 0.4198097 1.9505359 1.8635247 
0.56297094 0.0 0.0 0.3457898 1.919979 1.8934004 
1.0468295 0.0 0.0 0.244973 1.6262146 1.7999399 
1.402473 0.0 0.0 0.25579694 1.6490285 1.4427369 
1.2589941 0.69189745 0.0 0.33122012 1.6512905 0.88587683 
0.15732627 1.8152515 0.95407987 0.2830014 1.8285575 0.012110643 
0.0 2.0154843 1.9335455 0.19685155 1.9550432 0.0 
0.0 1.5321561 2.1715016 0.207817 1.4367882 0.0 
0.0 0.8184078 1.2802207 0.06580865 0.8226133 0.0 
0.0 0.11846575 0.16289878 0.0 0.17390047 0.0027421266 
0.0 0.0 0.0 0.0 0.0 0.07698792 
0.0 0.0 0.0 0.0 0.0 0.07698792 
0.0 0.0 0.0 0.0 0.0 0.07698792 
0.0 0.0 0.0 0.0 0.0 0.07698792 
0.0 0.0 0.0 0.0 0.0 0.07698792 
0.0 0.0 0.0 0.0 0.0 0.07698792 
0.0 0.0 0.0 0.0 0.0 0.07698792 
0.0 0.0 0.0 0.0 0.0 0.07698792 
0.0 0.0 0.0 0.0 0.0 0.07698792 
0.0 0.0 0.0 0.0 0.0 0.07698792 
0.0 0.0 0.0 0.0 0.0 0.07698792 
0.0 0.0 0.0 0.0 0.0 0.07698792 
0.0 0.0 0.0 0.0 0.0 0.07698792 
0.0 0.0 0.0 0.0 0.0 0.07698792 
0.22302073 0.0 0.0 0.0 0.24894606 0.33718207 
0.5679366 0.0 0.0 0.0 0.68091273 0.74368596 
0.5223386 0.0 0.0 0.0 0.94251055 0.9038564 
0.5020038 0.0 0.0 0.0 1.0121472 1.0207558 
0.54296464 0.0 0.0 0.0 0.9823789 0.93709993 
0.8374491 0.0 0.0 0.0 0.8643619 0.7867146 
1.5097995 0.0 0.0 0.0 0.95644146 0.8821861 
1.8084121 0.0 0.0 0.0 1.3213819 0.7477291 
1.5390322 0.55785364 0.0 0.0 1.9107286 0.5932941 
0.18503726 1.609401 0.09106628 0.0 2.3104403 0.26779944 
0.0 1.899452 1.3310837 0.13553785 2.2252634 0.0 
0.0 1.4396162 1.8934501 0.25524902 1.6006131 0.009724528 
0.0 0.60576826 1.4067768 0.18078521 0.8711725 0.060718037 
0.0 0.1582154 0.30476162 0.11655703 0.10742615 0.07295461 
0.0 0.0 0.0 0.0 0.0 0.07698792 
0.0 0.0 0.0 0.0 0.0 0.07698792 
0.0 0.0 0.0 0.0 0.0 0.07698792 
0.0 0.0 0.0 0.0 0.0 0.07698792 
0.0 0.0 0.0 0.0 0.0 0.07698792 
0.0 0.0 0.0 0.0 0.0 0.07698792 
0.0 0.0 0.0 0.0 0.0 0.07698792 
0.0 0.0 0.0 0.0 0.0 0.07698792 
0.0 0.0 0.0 0.0 0.0 0.07698792 
0.0 0.0 0.0 0.0 0.0 0.07698792 
0.0 0.0 0.0 0.0 0.0 0.07698792 
0.0 0.0 0.0 0.0 0.0 0.07698792 
0.0 0.0 0.0 0.0 0.0 0.07698792 
0.0 0.0 0.0 0.0 0.0 0.07698792 
0.04238838 0.0 0.0 0.0 0.117946774 0.15372856 
0.18621665 0.0 0.0 0.0 0.32659516 0.2614899 
0.265803 0.0 0.0 0.0 0.26502204 0.20728675 
0.50497687 0.0 0.0 0.0 0.072387934 0.056683525 
0.7765243 0.0 0.0 0.0 0.0 0.0 
1.2833974 0.0 0.0 0.0 0.1955355 0.0 
1.825284 0.0 0.0 0.0 0.7848557 0.0 
1.7145679 0.36365452 0.0 0.0 1.6753548 0.106291674 
1.1208141 0.8587393 0.0 0.0 2.4912877 0.38127357 
0.0 1.516598 0.0 0.0 2.7734158 0.35599792 
0.0 1.7295709 0.9870789 0.16794899 2.307521 0.11729312 
0.0 1.0693605 1.5050281 0.20330021 1.5382224 0.3033517 
0.0 0.34359393 1.1370327 0.1839427 0.7033387 0.21820524 
0.0 0.060673364 0.27721024 0.08688113 0.0393234 0.10629516 
0.0 0.0 0.0 0.0 0.0 0.07698792 
0.0 0.0 0.0 0.0 0.0 0.07698792 
0.0 0.0 0.0 0.0 0.0 0.07698792 
0.0 0.0 0.0 0.0 0.0 0.07698792 
0.0 0.0 0.0 0.0 0.0 0.07698792 
0.0 0.0 0.0 0.0 0.0 0.07698792 
0.0 0.0 0.0 0.0 0.0 0.07698792 
0.0 0.0 0.0 0.0 0.0 0.07698792 
0.0 0.0 0.0 0.0 0.0 0.07698792 
0.0 0.0 0.0 0.0 0.0 0.07698792 
0.0 0.0 0.0 0.0 0.0 0.07698792 
0.0 0.0 0.0 0.0 0.0 0.07698792 
0.0 0.0 0.0 0.0 0.0 0.07698792 
0.0 0.0 0.0 0.0 0.0 0.07698792 
0.0 0.0 0.0 0.0 0.0 0.07698792 
0.0 0.0 0.0 0.0 0.0 0.07698792 
0.19897223 0.0 0.0707588 0.0 0.0 0.025468212 
0.84887755 0.0 0.12344781 0.0 0.0 0.0 
1.3152957 0.0 0.15236446 0.0 0.0 0.0 
1.4798276 0.42582068 0.370168 0.0 0.11158025 0.0 
1.4206243 0.7601611 0.3054331 0.0 1.3656999 0.0 
1.3116243 1.1540301 0.0 0.047359224 2.1631348 0.14189094 
0.7665719 1.5528623 0.0 0.101902775 2.7273414 0.37327158 
0.0 1.9067425 0.06385887 0.057274308 2.7366922 0.3518678 
0.0 1.4659722 0.9588262 0.09413156 2.0897882 0.27206624 
0.0 0.663103 1.1942554 0.07042737 1.2384278 0.43153647 
0.0 0.1797281 0.8265729 0.14798725 0.37653762 0.23589858 
0.0 0.0 0.11534133 0.0032007927 0.0 0.101155065 
0.0 0.0 0.0 0.0 0.0 0.07698792 
0.0 0.0 0.0 0.0 0.0 0.07698792 
0.0 0.0 0.0 0.0 0.0 0.07698792 
0.0 0.0 0.0 0.0 0.0 0.07698792 
0.0 0.0 0.0 0.0 0.0 0.07698792 
0.0 0.0 0.0 0.0 0.0 0.07698792 
0.0 0.0 0.0 0.0 0.0 0.07698792 
0.0 0.0 0.0 0.0 0.0 0.07698792 
0.0 0.0 0.0 0.0 0.0 0.07698792 
0.0 0.0 0.0 0.0 0.0 0.07698792 
0.0 0.0 0.0 0.0 0.0 0.07698792 
0.0 0.0 0.0 0.0 0.0 0.07698792 
0.0 0.0 0.0 0.0 0.0 0.07698792 
0.0 0.0 0.0 0.0 0.0 0.07698792 
0.0 0.0 0.0 0.0 0.0 0.07698792 
0.0 0.0 0.0 0.0 0.0 0.07698792 
0.43808705 0.0 0.0 0.0 0.0 0.22353457 
1.3346858 0.0 0.0 0.14790088 0.0 0.25013316 
1.7461627 0.0 0.0 0.293054 0.1889554 0.101341225 
1.5990455 0.8989573 0.0846547 0.41282326 1.0520526 0.053543635 
1.216917 1.3308119 0.24890947 0.1904886 2.117034 0.1971809 
1.0906377 1.5260042 0.24781302 0.19306877 2.4439833 0.39117396 
0.4015147 1.9385607 0.32483083 0.0 2.7728558 0.24343354 
0.0 1.9843321 0.5687088 0.0 2.5064852 0.0 
0.0 1.3049442 1.1666478 0.0 1.7152222 0.0 
0.0 0.50126016 1.0313162 0.0 0.9593621 0.1067736 
0.0 0.056969836 0.4897732 0.0 0.24175434 0.115417615 
0.0 0.0 0.0 0.0 0.0 0.0819344 
0.0 0.0 0.0 0.0 0.0 0.07698792 
0.0 0.0 0.0 0.0 0.0 0.07698792 
0.0 0.0 0.0 0.0 0.0 0.07698792 
0.0 0.0 0.0 0.0 0.0 0.07698792 
0.0 0.0 0.0 0.0 0.0 0.07698792 
0.0 0.0 0.0 0.0 0.0 0.07698792 
0.0 0.0 0.0 0.0 0.0 0.07698792 
0.0 0.0 0.0 0.0 0.0 0.07698792 
0.0 0.0 0.0 0.0 0.0 0.07698792 
0.0 0.0 0.0 0.0 0.0 0.07698792 
0.0 0.0 0.0 0.0 0.0 0.07698792 
0.0 0.0 0.0 0.0 0.0 0.07698792 
0.0 0.0 0.0 0.0 0.0 0.07698792 
0.0 0.0 0.0 0.0 0.0 0.07698792 
0.0 0.0 0.0 0.0 0.0 0.07698792 
0.0 0.0 0.0 0.0 0.0 0.07698792 
0.6151031 0.0 0.0 0.19612437 0.0 0.55583704 
1.6057816 0.0 0.0 0.38287896 0.13737383 0.9217969 
1.9881208 0.0 0.0 0.4786364 0.96829623 0.8128378 
1.690762 0.8485007 0.0 0.52858657 1.6750529 0.79325765 
1.1020939 1.309245 0.019407488 0.26826873 2.4399738 0.64036036 
0.86144537 1.4032928 0.19405434 0.0 2.6195903 0.5673585 
0.17953444 1.7594553 0.6304823 0.0 2.5906687 0.052662745 
0.0 1.974852 1.1202759 0.0 2.1446006 0.0 
0.0 1.4174266 1.571208 0.0 1.5325736 0.0 
0.0 0.6528042 1.1771753 0.0 0.94339925 0.0 
0.0 0.011668249 0.2752238 0.0 0.3235055 0.0 
0.0 0.0 0.0 0.0 0.0 0.07698792 
0.0 0.0 0.0 0.0 0.0 0.07698792 
0.0 0.0 0.0 0.0 0.0 0.07698792 
0.0 0.0 0.0 0.0 0.0 0.07698792 
0.0 0.0 0.0 0.0 0.0 0.07698792 
0.0 0.0 0.0 0.0 0.0 0.07698792 
0.0 0.0 0.0 0.0 0.0 0.07698792 
0.0 0.0 0.0 0.0 0.0 0.07698792 
0.0 0.0 0.0 0.0 0.0 0.07698792 
0.0 0.0 0.0 0.0 0.0 0.07698792 
0.0 0.0 0.0 0.0 0.0 0.07698792 
0.0 0.0 0.0 0.0 0.0 0.07698792 
0.0 0.0 0.0 0.0 0.0 0.07698792 
0.0 0.0 0.0 0.0 0.0 0.07698792 
0.0 0.0 0.0 0.0 0.0 0.07698792 
0.0 0.0 0.0 0.0 0.0 0.07698792 
0.0 0.0 0.0 0.0 0.0 0.07698792 
0.6913393 0.0 0.0 0.17629588 0.22875755 0.7737225 
1.4651966 0.0 0.0 0.3479509 0.8297327 1.4351842 
1.5353742 0.0 0.0 0.6429648 1.4493876 1.519367 
1.5075097 0.10905956 0.0 0.82858753 1.9058473 1.7623632 
1.1086776 0.7364638 0.0 0.8517565 2.3536382 1.50193 
0.86609066 0.88788205 0.0522388 0.40996784 2.487877 1.0359356 
0.25886452 1.479817 0.7352326 0.06615055 2.169855 0.097868115 
0.0 1.9446398 1.5541565 0.0 2.0306232 0.0 
0.0 1.628908 1.9762777 0.0 1.666004 0.0 
0.0 0.978298 1.5712066 0.0 1.050152 0.0 
0.0 0.19782594 0.33493012 0.0 0.45305154 0.0 
0.0 0.0 0.0 0.0 0.0 0.07698792 
0.0 0.0 0.0 0.0 0.0 0.07698792 
0.0 0.0 0.0 0.0 0.0 0.07698792 
0.0 0.0 0.0 0.0 0.0 0.07698792 
0.0 0.0 0.0 0.0 0.0 0.07698792 
0.0 0.0 0.0 0.0 0.0 0.07698792 
0.0 0.0 0.0 0.0 0.0 0.07698792 
0.0 0.0 0.0 0.0 0.0 0.07698792 
0.0 0.0 0.0 0.0 0.0 0.07698792 
0.0 0.0 0.0 0.0 0.0 0.07698792 
0.0 0.0 0.0 0.0 0.0 0.07698792 
0.0 0.0 0.0 0.0 0.0 0.07698792 
0.0 0.0 0.0 0.0 0.0 0.07698792 
0.0 0.0 0.0 0.0 0.0 0.07698792 
0.0 0.0 0.0 0.0 0.0 0.07698792 
0.0 0.0 0.0 0.0 0.0 0.07698792 
0.0 0.0 0.0 0.0 0.0 0.07698792 
0.5505211 0.0 0.0 0.044930033 0.42218804 0.661028 
1.1121697 0.0 0.0 0.11289663 1.044581 1.3365705 
1.0467274 0.0 0.0 0.21503343 1.4514793 1.522471 
1.2880664 0.0 0.0 0.36542037 1.5998042 1.8641102 
1.3485789 0.0 0.0 0.57688826 1.8254017 1.7142744 
1.3822865 0.54784244 0.0 0.48620397 1.9388772 1.2171035 
0.6729455 1.442159 0.39341772 0.39420635 1.8777466 0.45910498 
0.0 2.021326 1.4766697 0.12714109 2.173234 0.0 
0.0 1.8399746 2.0327919 0.19444247 1.7958496 0.0 
0.0 1.1904781 1.9009581 0.1583397 1.1398724 0.0 
0.0 0.34295598 0.63054776 0.0 0.50767857 0.0 
0.0 0.0 0.0 0.0 0.0 0.07698792 
0.0 0.0 0.0 0.0 0.0 0.07698792 
0.0 0.0 0.0 0.0 0.0 0.07698792 
0.0 0.0 0.0 0.0 0.0 0.07698792 
0.0 0.0 0.0 0.0 0.0 0.07698792 
0.0 0.0 0.0 0.0 0.0 0.07698792 
0.0 0.0 0.0 0.0 0.0 0.07698792 
0.0 0.0 0.0 0.0 0.0 0.07698792 
0.0 0.0 0.0 0.0 0.0 0.07698792 
0.0 0.0 0.0 0.0 0.0 0.07698792 
0.0 0.0 0.0 0.0 0.0 0.06944581 
0.0 0.00633886 0.0 0.0 0.0 0.05426446 
0.0 0.0040924167 0.0 0.0 0.0 0.050037675 
0.0 0.009458973 0.0 0.0 0.0 0.04706589 
0.0 0.0029589916 0.0 0.0 0.0 0.06656612 
0.0 0.0 0.0 0.0 0.0 0.07698792 
0.0 0.0 0.0 0.0 0.0 0.07698792 
0.28592843 0.0 0.0 0.0 0.3434736 0.380348 
0.6542123 0.0 0.0 0.0 0.76166296 0.82875127 
0.77868867 0.0 0.0 0.0 0.96488994 1.1011829 
1.3866456 0.0 0.0 0.0 0.9667826 1.5740223 
1.7343247 0.0 0.0 0.0 1.2121873 1.5080912 
1.6917682 0.14099976 0.0 0.0 1.6671535 1.0259147 
0.9573547 1.171396 0.0 0.07336198 2.1541603 0.6407313 
0.0 2.0012782 0.94746435 0.03388876 2.447594 0.0 
0.0 1.7426163 1.6891619 0.13684273 1.9389297 0.0 
0.0 1.0168982 1.820461 0.13185419 1.2415735 0.024195537 
0.0 0.35860637 0.85225713 0.08758591 0.45465156 0.0015184954 
0.0 0.0 0.0 0.0 0.0 0.07698792 
0.0 0.0 0.0 0.0 0.0 0.07698792 
0.0 0.0 0.0 0.0 0.0 0.07698792 
0.0 0.0 0.0 0.0 0.0 0.07698792 
0.0 0.0 0.0 0.0 0.0 0.07698792 
0.0 0.0 0.0 0.0 0.0 0.07698792 
0.0 0.0 0.0 0.0 0.0 0.07698792 
0.0 0.0 0.0 0.0 0.0 0.07698792 
0.0 0.0 0.0 0.0 0.0 0.07698792 
0.0 0.0 0.014804356 0.0 0.0 0.043048408 
0.18134794 0.0 0.15175411 0.0 0.0 0.0 
0.18662626 0.2087931 0.08042937 0.0 0.0 0.0 
0.0 0.23280668 0.10072673 0.0 0.0 0.0 
0.0 0.2777406 0.1235295 0.0 0.0114787035 0.0 
0.0 0.11896111 0.0 0.0 0.09481555 0.0 
0.0 0.0 0.0 0.0 0.0 0.07698792 
0.0 0.0 0.0 0.0 0.0 0.07698792 
0.04939124 0.0 0.0 0.0 0.11616114 0.15194947 
0.31617776 0.0 0.0 0.0 0.30197102 0.22728902 
0.7211903 0.0 0.0 0.0 0.27998564 0.21651918 
1.5517423 0.0 0.0 0.0 0.42144105 0.591653 
2.0529447 0.0 0.0 0.0 1.0060189 0.707733 
1.8134639 0.2271615 0.0 0.0 1.7011174 0.49864784 
0.958785 1.216641 0.0 0.0 2.4464703 0.5134314 
0.0 1.9725047 0.6994914 0.0 2.5726254 0.058633015 
0.0 1.6464678 1.4594436 0.014203426 1.883284 0.0 
0.0 0.8321128 1.5716985 0.036163542 1.181608 0.17331105 
0.0 0.20763323 0.80852336 0.091123104 0.38191223 0.0678466 
0.0 0.0 0.0 0.0 0.0 0.07698792 
0.0 0.0 0.0 0.0 0.0 0.07698792 
0.0 0.0 0.0 0.0 0.0 0.07698792 
0.0 0.0 0.0 0.0 0.0 0.07698792 
0.0 0.0 0.0 0.0 0.0 0.07698792 
0.0 0.0 0.0 0.0 0.0 0.07698792 
0.0 0.0 0.0 0.0 0.0 0.07698792 
0.0 0.0 0.0 0.0 0.0 0.07698792 
0.0 0.0 0.0 0.0 0.0 0.07698792 
0.11957191 0.0 0.07136289 0.0 0.0 0.020385083 
0.5810342 0.0 0.14976633 0.0 0.0 0.0 
0.61716133 0.29468554 0.3450488 0.0 0.0 0.0 
0.17259929 0.8091984 0.40396428 0.0 0.049764607 0.0 
0.0 0.81934196 0.5992526 0.0 0.35405716 0.0 
0.0 0.26737157 0.23248398 0.0 0.42312774 0.0 
0.0 0.07983492 0.0 0.0 0.011253174 0.0 
0.0 0.0 0.00868205 0.0 0.0 0.037672963 
0.14776723 0.0 0.13553452 0.0 0.0 0.0 
0.39639145 0.013212695 0.20624268 0.0 0.0 0.0 
0.8603189 0.0 0.20740265 0.0 0.0 0.0 
1.7720993 0.0 0.0 0.0 0.14419219 0.0 
2.0925937 0.3600745 0.0 0.0 1.0638794 0.10912456 
1.4993303 0.86818933 0.0 0.0 1.9857153 0.27878404 
0.54459465 1.3933014 0.0 0.0 2.7939792 0.5229138 
0.0 1.8092318 0.64555347 0.12419453 2.5641332 0.1996715 
0.0 1.2689222 1.324523 0.14122018 1.8066064 0.2071493 
0.0 0.50721323 1.279048 0.12631331 1.03756 0.3067665 
0.0 0.05744099 0.59482247 0.0804897 0.24425407 0.103035435 
0.0 0.0 0.0 0.0 0.0 0.07698792 
0.0 0.0 0.0 0.0 0.0 0.07698792 
0.0 0.0 0.0 0.0 0.0 0.07698792 
0.0 0.0 0.0 0.0 0.0 0.07698792 
0.0 0.0 0.0 0.0 0.0 0.07698792 
0.0 0.0 0.0 0.0 0.0 0.07698792 
0.0 0.0 0.0 0.0 0.0 0.07698792 
0.0 0.0 0.0 0.0 0.0 0.07698792 
0.0 0.0 0.0 0.0 0.0 0.07698792 
0.2940871 0.0 0.0 0.0 0.0 0.14492883 
1.0535772 0.0 0.009339891 0.0027806284 0.0 0.12421069 
1.0232854 0.2901888 0.33453232 0.0 0.0 0.0 
0.37643152 1.187977 0.99326575 0.0 0.2817963 0.0 
0.0 1.4318652 1.5292557 0.0 0.62904775 0.0 
0.0 1.0634897 1.2470995 0.0 0.39793608 0.0 
0.109316856 0.61036915 0.60876524 0.0 0.005812574 0.0 
0.3362382 0.5063486 0.4961698 0.0 0.0 0.0 
0.56838465 0.39280102 0.46704602 0.0 0.0 0.0 
0.9547693 0.2474958 0.43318814 0.0 0.0 0.0 
1.3844752 0.32021022 0.37625113 0.0 0.0 0.0 
1.6776063 0.48815602 0.07776851 0.0 0.8832641 0.0 
1.4851055 0.87690425 0.0 0.0 1.888362 0.07760815 
0.91121954 1.2326397 0.0 0.013270945 2.6566374 0.4753936 
0.0 1.6879859 0.0 0.19177149 2.8795965 0.60350555 
0.0 1.5308754 0.7350281 0.3106671 2.3494775 0.45113963 
0.0 0.82065976 1.1997637 0.27670762 1.46527 0.49923325 
0.0 0.31879678 1.0527488 0.25892675 0.58067244 0.33365804 
0.0 0.03938737 0.36075786 0.08027334 0.07533018 0.11712099 
0.0 0.0 0.0 0.0 0.0 0.07698792 
0.0 0.0 0.0 0.0 0.0 0.07698792 
0.0 0.0 0.0 0.0 0.0 0.07698792 
0.0 0.0 0.0 0.0 0.0 0.07698792 
0.0 0.0 0.0 0.0 0.0 0.07698792 
0.0 0.0 0.0 0.0 0.0 0.07698792 
0.0 0.0 0.0 0.0 0.0 0.07698792 
0.0 0.0 0.0 0.0 0.0 0.07698792 
0.0 0.0 0.0 0.0 0.0 0.07698792 
0.51481044 0.0 0.0 0.081707194 0.0 0.37523222 
1.4518838 0.0 0.0 0.29290617 0.0 0.5795352 
1.3467624 0.2693974 0.0 0.22234955 0.23106654 0.0 
0.61089355 1.3146298 0.9434805 0.22855094 0.42359886 0.0 
0.10472806 1.6776619 2.078135 0.0 0.76635236 0.0 
0.0 1.5747254 2.0999334 0.0 0.56372964 0.0 
0.31580895 1.1602013 1.3007579 0.0 0.2898436 0.0 
0.49724483 0.9061045 1.0170884 0.0 0.18887165 0.0 
0.74277294 0.68768185 0.8721609 0.0 0.24953686 0.0 
1.0003457 0.65856993 0.7155019 0.0 0.49152747 0.0 
1.1988962 0.79666656 0.4820454 0.0 1.1159183 0.0 
1.1774344 1.0982512 0.09144024 0.101218 1.9688584 0.040812448 
0.86512107 1.3415085 0.0 0.34758925 2.6095288 0.54231995 
0.23218572 1.5862938 0.0 0.46904525 2.978665 0.86119515 
0.0 1.5353276 0.03821654 0.38628927 2.757085 0.92082804 
0.0 0.9513831 0.60384417 0.28200817 1.8221767 0.762463 
0.0 0.3521593 0.83035016 0.14843899 0.878684 0.5503988 
0.0 0.08284803 0.6292282 0.09013966 0.26636797 0.28230378 
0.0 0.0 0.13367763 0.0 0.016492147 0.10206031 
0.0 0.0 0.0 0.0 0.0 0.07698792 
0.0 0.0 0.0 0.0 0.0 0.07698792 
0.0 0.0 0.0 0.0 0.0 0.07698792 
0.0 0.0 0.0 0.0 0.0 0.07698792 
0.0 0.0 0.0 0.0 0.0 0.07698792 
0.0 0.0 0.0 0.0 0.0 0.07698792 
0.0 0.0 0.0 0.0 0.0 0.07698792 
0.0 0.0 0.0 0.0 0.0 0.07698792 
0.0 0.0 0.0 0.0 0.0 0.07698792 
0.6742843 0.0 0.0 0.12793022 0.0 0.5942711 
1.7536814 0.0 0.0 0.16201682 0.3797545 1.0460682 
1.7139454 0.09616456 0.0 0.30308977 0.65060985 0.58197993 
1.0102971 0.90787905 0.08330565 0.33781245 0.88756156 0.015122883 
0.2997141 1.4231381 1.8064601 0.38791928 1.3401744 0.0 
0.15646914 1.3411565 2.3158333 0.3239644 1.2963206 0.0 
0.3947711 1.3351669 1.8886778 0.24559882 1.1168398 0.0 
0.5861875 1.2018062 1.5866021 0.20508793 1.1111368 0.0 
0.8130736 1.2148286 1.3182161 0.31120613 1.2500441 0.0 
1.0005386 1.2926036 0.85687685 0.34022832 1.6781762 0.0 
0.9933571 1.4077979 0.27973834 0.38960755 2.2289069 0.24240416 
0.68478215 1.468465 0.0 0.5274828 2.73589 0.7022097 
0.13836123 1.5268031 0.0 0.6177817 3.027497 1.0559052 
0.0 1.2952366 0.0 0.438895 2.914603 1.1546655 
0.0 0.81533986 0.1573965 0.2805953 2.0420184 0.95963925 
0.0 0.34166571 0.47982013 0.091205046 1.0004244 0.67493397 
0.0 0.07527646 0.50449884 0.0 0.40364563 0.39353338 
0.0 0.0 0.22377753 0.0 0.11992212 0.16029507 
0.0 0.0 0.0 0.0 0.0 0.08283339 
0.0 0.0 0.0 0.0 0.0 0.07698792 
0.0 0.0 0.0 0.0 0.0 0.07698792 
0.0 0.0 0.0 0.0 0.0 0.07698792 
0.0 0.0 0.0 0.0 0.0 0.07698792 
0.0 0.0 0.0 0.0 0.0 0.07698792 
0.0 0.0 0.0 0.0 0.0 0.07698792 
0.0 0.0 0.0 0.0 0.0 0.07698792 
0.0 0.0 0.0 0.0 0.0 0.07698792 
0.0 0.0 0.0 0.0 0.0 0.07698792 
0.6509327 0.0 0.0 0.08841668 0.24391232 0.7075301 
1.5281637 0.0 0.0 0.24748263 0.71515703 1.3506701 
1.6882646 0.0 0.0 0.5039956 1.0770239 1.2774916 
1.3778276 0.47390375 0.0 0.755518 1.3503124 1.1966717 
0.693297 1.1991585 0.7505571 0.9309582 1.7010413 0.7895098 
0.4846648 1.5089003 1.4485519 0.850485 1.7816793 0.3719265 
0.54066813 1.7613326 1.5403035 0.8356155 1.7084881 0.12309283 
0.60722977 1.8148644 1.3269119 0.80710727 1.8677788 0.1876176 
0.728612 1.6350394 0.9591117 0.78096235 2.193031 0.48169073 
0.7203472 1.5349448 0.37260926 0.7946991 2.570533 0.80732745 
0.4181255 1.3923975 0.0 0.7932518 2.914637 1.1370299 
0.0 1.3678302 0.0 0.74682456 3.0277262 1.3019395 
0.0 1.0679041 0.0 0.4607874 2.8432517 1.3461397 
0.0 0.68016946 0.0 0.200594 1.964105 1.1178598 
0.0 0.31703976 0.23585334 0.011342523 0.9428833 0.7209582 
0.0 0.01540061 0.36446866 0.0 0.4038752 0.43801776 
0.0 0.0 0.25565606 0.0 0.15214165 0.19535226 
0.0 0.0 0.0052553043 0.0 0.0 0.088656165 
0.0 0.0 0.0 0.0 0.0 0.07736842 
0.0 0.0 0.0 0.0 0.0 0.07698792 
0.0 0.0 0.0 0.0 0.0 0.07698792 
0.0 0.0 0.0 0.0 0.0 0.07698792 
0.0 0.0 0.0 0.0 0.0 0.07698792 
0.0 0.0 0.0 0.0 0.0 0.07698792 
0.0 0.0 0.0 0.0 0.0 0.07698792 
0.0 0.0 0.0 0.0 0.0 0.07698792 
0.0 0.0 0.0 0.0 0.0 0.07698792 
0.0 0.0 0.0 0.0 0.0 0.07698792 
0.48885107 0.0 0.0 0.05561639 0.35136628 0.6037388 
1.1496713 0.0 0.0 0.1669153 0.8965308 1.3035088 
1.2721751 0.0 0.0 0.36224252 1.3479496 1.5701561 
1.2984903 0.0 0.0 0.6752108 1.7927464 1.9141545 
0.9524645 0.1818137 0.0 1.0858724 2.2293704 2.018087 
0.72276163 0.5145798 0.0 1.2047951 2.5321755 1.9235461 
0.5218993 0.69074875 0.0 1.2097125 2.7231576 1.8440535 
0.34354633 0.7490003 0.0 1.1440642 2.9365919 1.7973623 
0.23978174 0.74059534 0.0 1.1069258 2.9654195 1.8150132 
0.058373198 0.7620108 0.0 1.0289673 3.0058246 1.7771134 
0.0 0.85424554 0.0 0.83463943 2.8579943 1.6313069 
0.0 0.7735602 0.0 0.47547793 2.4581237 1.4422281 
0.0 0.4649587 0.0 0.07389884 1.7419978 1.0979135 
0.0 0.17709477 0.043925524 0.0 0.8270864 0.69407636 
0.0 0.0 0.16412908 0.0 0.39370728 0.39592683 
0.0 0.0 0.12323638 0.0 0.17220718 0.20597805 
0.0 0.0 0.024467088 0.0 0.013236042 0.090953365 
0.0 0.0 0.0 0.0 0.0 0.07736842 
0.0 0.0 0.0 0.0 0.0 0.07698792 
0.0 0.0 0.0 0.0 0.0 0.07698792 
0.0 0.0 0.0 0.0 0.0 0.07698792 
0.0 0.0 0.0 0.0 0.0 0.07698792 
0.0 0.0 0.0 0.0 0.0 0.07698792 
0.0 0.0 0.0 0.0 0.0 0.07698792 
0.0 0.0 0.0 0.0 0.0 0.07698792 
0.0 0.0 0.0 0.0 0.0 0.07698792 
0.0 0.0 0.0 0.0 0.0 0.07698792 
0.0 0.0 0.0 0.0 0.0 0.07698792 
0.26489866 0.0 0.0 0.0 0.28733033 0.37631834 
0.7639892 0.0 0.0 0.0 0.77440804 0.96110165 
0.93213826 0.0 0.0 0.0 1.1766735 1.3812296 
0.9817304 0.0 0.0 0.021363933 1.5897129 1.7844648 
0.72158676 0.0 0.0 0.3857175 2.0069106 1.9941144 
0.49682033 0.0 0.0 0.76719224 2.288647 2.028611 
0.36928087 0.15823698 0.0 0.9416883 2.4185317 2.0352464 
0.22556376 0.35572603 0.0 0.9474482 2.4244683 1.9389181 
0.17126817 0.37518862 0.0 0.80962807 2.3389833 1.9133182 
0.02640383 0.485964 0.0 0.5324662 2.145775 1.7344167 
0.0 0.39088455 0.0 0.14527453 1.8257552 1.3934038 
0.0 0.24636757 0.0 0.0 1.2053683 1.0177088 
0.0 0.03286702 0.0 0.0 0.63165647 0.5883329 
0.0 0.0 0.11379909 0.0 0.31222492 0.34242755 
0.0 0.0 0.10352177 0.0 0.123886675 0.1657342 
0.0 0.0 0.0 0.0 0.0 0.08421739 
0.0 0.0 0.0 0.0 0.0 0.07698792 
0.0 0.0 0.0 0.0 0.0 0.07698792 
0.0 0.0 0.0 0.0 0.0 0.07698792 
0.0 0.0 0.0 0.0 0.0 0.07698792 
0.0 0.0 0.0 0.0 0.0 0.07698792 
0.0 0.0 0.0 0.0 0.0 0.07698792 
0.0 0.0 0.0 0.0 0.0 0.07698792 
0.0 0.0 0.0 0.0 0.0 0.07698792 
0.0 0.0 0.0 0.0 0.0 0.07698792 
0.0 0.0 0.0 0.0 0.0 0.07698792 
0.0 0.0 0.0 0.0 0.0 0.07698792 
0.0 0.0 0.0 0.0 0.0 0.07698792 
0.062704206 0.0 0.0 0.0 0.14924109 0.16734383 
0.35116753 0.0 0.0 0.0 0.4727107 0.41883922 
0.55208844 0.0 0.0 0.0 0.77736 0.7218903 
0.6279079 0.0 0.0 0.0 1.0778005 1.0994623 
0.5678279 0.0 0.0 0.0 1.3569038 1.428782 
0.40525472 0.0 0.0 0.0 1.4756793 1.5830553 
0.31273532 0.0 0.0 0.0 1.4957857 1.6347015 
0.14547835 0.0 0.0 0.0 1.4507707 1.5168703 
0.09016693 0.0 0.0 0.0 1.351503 1.3609045 
0.0 0.0 0.0 0.0 1.180943 1.0887609 
0.0 0.0 0.0 0.0 0.77156085 0.6964359 
0.0 0.0 0.0 0.0 0.43969652 0.44710928 
0.0 0.0 0.043099374 0.0 0.2435999 0.26003823 
0.0 0.0 0.027037479 0.0 0.07498132 0.12927644 
0.0 0.0 0.0 0.0 0.0 0.081477806 
0.0 0.0 0.0 0.0 0.0 0.07698792 
0.0 0.0 0.0 0.0 0.0 0.07698792 
0.0 0.0 0.0 0.0 0.0 0.07698792 
0.0 0.0 0.0 0.0 0.0 0.07698792 
0.0 0.0 0.0 0.0 0.0 0.07698792 
0.0 0.0 0.0 0.0 0.0 0.07698792 
0.0 0.0 0.0 0.0 0.0 0.07698792 
0.0 0.0 0.0 0.0 0.0 0.07698792 
0.0 0.0 0.0 0.0 0.0 0.07698792 
0.0 0.0 0.0 0.0 0.0 0.07698792 
0.0 0.0 0.0 0.0 0.0 0.07698792 
0.0 0.0 0.0 0.0 0.0 0.07698792 
0.0 0.0 0.0 0.0 0.0 0.07698792 
0.0 0.0 0.0 0.0 0.0 0.07698792 
0.010067724 0.0 0.0 0.0 0.06816034 0.13206789 
0.14622316 0.0 0.0 0.0 0.26863167 0.23147766 
0.27026922 0.0 0.0 0.0 0.5159485 0.33848983 
0.31235653 0.0 0.0 0.0 0.70013213 0.44793808 
0.2435171 0.0 0.0 0.0 0.8369958 0.5091038 
0.16058153 0.0 0.0 0.0 0.8818764 0.54502976 
0.018229693 0.0 0.0 0.0 0.77976876 0.48495978 
0.0 0.0 0.0 0.0 0.6651528 0.42872643 
0.0 0.0 0.0 0.0 0.42044216 0.31992942 
0.0 0.0 0.0 0.0 0.2143888 0.19630603 
0.0 0.0 0.0 0.0 0.096800745 0.16449787 
0.0 0.0 0.010584272 0.0 0.008876603 0.09266677 
0.0 0.0 0.0 0.0 0.0 0.07774892 
0.0 0.0 0.0 0.0 0.0 0.07698792 
0.0 0.0 0.0 0.0 0.0 0.07698792 
0.0 0.0 0.0 0.0 0.0 0.07698792 
0.0 0.0 0.0 0.0 0.0 0.07698792 
0.0 0.0 0.0 0.0 0.0 0.07698792 
0.0 0.0 0.0 0.0 0.0 0.07698792 
0.0 0.0 0.0 0.0 0.0 0.07698792 
0.0 0.0 0.0 0.0 0.0 0.07698792 
0.0 0.0 0.0 0.0 0.0 0.07698792 
0.0 0.0 0.0 0.0 0.0 0.07698792 
0.0 0.0 0.0 0.0 0.0 0.07698792 
0.0 0.0 0.0 0.0 0.0 0.07698792 
0.0 0.0 0.0 0.0 0.0 0.07698792 
0.0 0.0 0.0 0.0 0.0 0.07698792 
0.0 0.0 0.0 0.0 0.0 0.07698792 
0.0 0.0 0.0 0.0 0.0 0.07698792 
0.0 0.0 0.0 0.0 0.0 0.07698792 
0.0 0.0 0.0 0.0 0.0 0.07698792 
0.0 0.0 0.0 0.0 0.0 0.07698792 
0.0 0.0 0.0 0.0 0.0 0.07698792 
0.0 0.0 0.0 0.0 0.0 0.07698792 
0.0 0.0 0.0 0.0 0.0 0.07698792 
0.0 0.0 0.0 0.0 0.0 0.07698792 
0.0 0.0 0.0 0.0 0.0 0.07698792 
0.0 0.0 0.0 0.0 0.0 0.07698792 
0.0 0.0 0.0 0.0 0.0 0.07698792 
0.0 0.0 0.0 0.0 0.0 0.07698792 
0.0 0.0 0.0 0.0 0.0 0.07698792 
0.0 0.0 0.0 0.0 0.0 0.07698792 
0.0 0.0 0.0 0.0 0.0 0.07698792 
0.0 0.0 0.0 0.0 0.0 0.07698792 
0.0 0.0 0.0 0.0 0.0 0.07698792 
0.0 0.0 0.0 0.0 0.0 0.07698792 
0.0 0.0 0.0 0.0 0.0 0.07698792 
0.0 0.0 0.0 0.0 0.0 0.07698792 
0.0 0.0 0.0 0.0 0.0 0.07698792 
0.0 0.0 0.0 0.0 0.0 0.07698792 
0.0 0.0 0.0 0.0 0.0 0.07698792 
0.0 0.0 0.0 0.0 0.0 0.07698792 
0.0 0.0 0.0 0.0 0.0 0.07698792 
0.0 0.0 0.0 0.0 0.0 0.07698792 
0.0 0.0 0.0 0.0 0.0 0.07698792 
0.0 0.0 0.0 0.0 0.0 0.07698792 
0.0 0.0 0.0 0.0 0.0 0.07698792 
0.0 0.0 0.0 0.0 0.0 0.07698792 
0.0 0.0 0.0 0.0 0.0 0.07698792 
0.0 0.0 0.0 0.0 0.0 0.07698792 
0.0 0.0 0.0 0.0 0.0 0.07698792 
0.0 0.0 0.0 0.0 0.0 0.07698792 
0.0 0.0 0.0 0.0 0.0 0.07698792 
0.0 0.0 0.0 0.0 0.0 0.07698792 
0.0 0.0 0.0 0.0 0.0 0.07698792 
0.0 0.0 0.0 0.0 0.0 0.07698792 
0.0 0.0 0.0 0.0 0.0 0.07698792 
0.0 0.0 0.0 0.0 0.0 0.07698792 
0.0 0.0 0.0 0.0 0.0 0.07698792 
0.0 0.0 0.0 0.0 0.0 0.07698792 
0.0 0.0 0.0 0.0 0.0 0.07698792 
0.0 0.0 0.0 0.0 0.0 0.07698792 
0.0 0.0 0.0 0.0 0.0 0.07698792 
0.0 0.0 0.0 0.0 0.0 0.07698792 
0.0 0.0 0.0 0.0 0.0 0.07698792 
0.0 0.0 0.0 0.0 0.0 0.07698792 
0.0 0.0 0.0 0.0 0.0 0.07698792 
0.0 0.0 0.0 0.0 0.0 0.07698792 
0.0 0.0 0.0 0.0 0.0 0.07698792 
0.0 0.0 0.0 0.0 0.0 0.07698792 

