0.0 0.0 0.0 0.0 0.0 0.07698792 
0.0 0.0 0.0 0.0 0.0 0.07698792 
0.0 0.0 0.0 0.0 0.0 0.07698792 
0.0 0.0 0.0 0.0 0.0 0.07698792 
0.0 0.0 0.0 0.0 0.0 0.07698792 
0.0 0.0 0.0 0.0 0.0 0.07698792 
0.0 0.0 0.0 0.0 0.0 0.07698792 
0.0 0.0 0.0 0.0 0.0 0.07698792 
0.0 0.0 0.0 0.0 0.0 0.07698792 
0.0 0.0 0.0 0.0 0.0 0.07698792 
0.0 0.0 0.0 0.0 0.0 0.07698792 
0.0 0.0 0.0 0.0 0.0 0.07698792 
0.0 0.0 0.0 0.0 0.0 0.07698792 
0.0 0.0 0.0 0.0 0.0 0.07698792 
0.0 0.0 0.0 0.0 0.0 0.07698792 
0.0 0.0 0.0 0.0 0.0 0.07698792 
0.0 0.0 0.0 0.0 0.0 0.07698792 
0.0 0.0 0.0 0.0 0.0 0.07698792 
0.0 0.0 0.0 0.0 0.0 0.07698792 
0.0 0.0 0.0 0.0 0.0 0.07698792 
0.0 0.0 0.0 0.0 0.0 0.07698792 
0.0 0.0 0.0 0.0 0.0 0.07698792 
0.0 0.0 0.0 0.0 0.0 0.07698792 
0.0 0.0 0.0 0.0 0.0 0.07698792 
0.0 0.0 0.0 0.0 0.0 0.07698792 
0.0 0.0 0.0 0.0 0.0 0.07698792 
0.0 0.0 0.0 0.0 0.0 0.07698792 
0.0 0.0 0.0 0.0 0.0 0.07698792 
0.0 0.0 0.0 0.0 0.0 0.07698792 
0.0 0.0 0.0 0.0 0.0 0.07698792 
0.0 0.0 0.0 0.0 0.0 0.07698792 
0.0 0.0 0.0 0.0 0.0 0.07698792 
0.0 0.0 0.0 0.0 0.0 0.07698792 
0.0 0.0 0.0 0.0 0.0 0.07698792 
0.0 0.0 0.0 0.0 0.0 0.07698792 
0.0 0.0 0.0 0.0 0.0 0.07698792 
0.0 0.0 0.0 0.0 0.0 0.07698792 
0.0 0.0 0.0 0.0 0.0 0.07698792 
0.0 0.0 0.0 0.0 0.0 0.07698792 
0.0 0.0 0.0 0.0 0.0 0.07698792 
0.0 0.0 0.0 0.0 0.0 0.07698792 
0.0 0.0 0.0 0.0 0.0 0.07698792 
0.0 0.0 0.0 0.0 0.0 0.07698792 
0.0 0.0 0.0 0.0 0.0 0.07698792 
0.0 0.0 0.0 0.0 0.0 0.07698792 
0.0 0.0 0.0 0.0 0.0 0.07698792 
0.0 0.0 0.0 0.0 0.0 0.07698792 
0.0 0.0 0.0 0.0 0.0 0.07698792 
0.0 0.0 0.0 0.0 0.0 0.07698792 
0.0 0.0 0.0 0.0 0.0 0.07698792 
0.0 0.0 0.0 0.0 0.0 0.07698792 
0.0 0.0 0.0 0.0 0.0 0.07698792 
0.0 0.0 0.0 0.0 0.0 0.07698792 
0.0 0.0 0.0 0.0 0.0 0.07698792 
0.0 0.0 0.0 0.0 0.0 0.07698792 
0.0 0.0 0.0 0.0 0.0 0.07698792 
0.0 0.0 0.0 0.0 0.0 0.07698792 
0.0 0.0 0.0 0.0 0.0 0.07698792 
0.0 0.0 0.0 0.0 0.0 0.07698792 
0.0 0.0 0.0 0.0 0.0 0.07698792 
0.0 0.0 0.0 0.0 0.0 0.07698792 
0.0 0.0 0.0 0.0 0.0 0.07698792 
0.0 0.0 0.0 0.0 0.0 0.07698792 
0.0 0.0 0.0 0.0 0.0 0.07698792 
0.0 0.0 0.0 0.0 0.0 0.07698792 
0.0 0.0 0.0 0.0 0.0 0.07698792 
0.0 0.0 0.0 0.0 0.0 0.07698792 
0.0 0.0 0.0 0.0 0.0 0.07698792 
0.0 0.0 0.0 0.0 0.0 0.07698792 
0.0 0.0 0.0 0.0 0.0 0.07698792 
0.0 0.0 0.0 0.0 0.0 0.07698792 
0.0 0.0 0.0 0.0 0.0 0.07698792 
0.0 0.0 0.0 0.0 0.0 0.07698792 
0.0 0.0 0.0 0.0 0.0 0.07698792 
0.0 0.0 0.0 0.0 0.0 0.07698792 
0.0 0.0 0.0 0.0 0.0 0.07698792 
0.0 0.0 0.0 0.0 0.0 0.07698792 
0.0 0.0 0.0 0.0 0.0 0.07698792 
0.0 0.0 0.0 0.0 0.0 0.07698792 
0.0 0.0 0.0 0.0 0.0 0.07698792 
0.0 0.0 0.0 0.0 0.0 0.07698792 
0.0 0.0 0.0 0.0 0.0 0.07698792 
0.0 0.0 0.0 0.0 0.0 0.07698792 
0.0 0.0 0.0 0.0 0.0 0.07698792 
0.0 0.0 0.0 0.0 0.0 0.07698792 
0.0 0.0 0.0 0.0 0.0 0.07698792 
0.0 0.0 0.0 0.0 0.0 0.07698792 
0.0 0.0 0.0 0.0 0.0 0.07698792 
0.0 0.0 0.0 0.0 0.0 0.07698792 
0.0 0.0 0.0 0.0 0.0 0.07698792 
0.0 0.0 0.0 0.0 0.0 0.07698792 
0.0 0.0 0.0 0.0 0.0 0.07698792 
0.0 0.0 0.0 0.0 0.0 0.07698792 
0.0 0.0 0.0 0.0 0.0 0.07698792 
0.0 0.0 0.0 0.0 0.0 0.07698792 
0.0 0.0 0.0 0.0 0.0 0.07698792 
0.0 0.0 0.0 0.0 0.0 0.07698792 
0.0 0.0 0.0 0.0 0.0 0.073593974 
0.0 0.0 0.0 0.0 0.0 0.05205524 
0.058493674 0.0 0.07413403 0.0 0.0 0.0 
0.16845885 0.07955362 0.1377728 0.0 0.0 0.0 
0.1741392 0.17869477 0.20516908 0.0 0.0 0.0 
0.18165678 0.28935072 0.2740523 0.0 0.0 0.0 
0.14860424 0.36076137 0.2752244 0.0 0.0 0.0 
0.06705421 0.37058076 0.20097902 0.0 0.0 0.0 
0.0 0.3067734 0.12692252 0.0 0.0 0.0 
0.0 0.2053791 0.059066117 0.0 0.02123608 0.0 
0.0 0.09424723 0.0 0.0 0.007973764 0.0 
0.0 0.014506363 0.0 0.0 0.0 0.055169303 
0.0 0.0 0.0 0.0 0.0 0.07646683 
0.0 0.0 0.0 0.0 0.0 0.07698792 
0.0 0.0 0.0 0.0 0.0 0.07698792 
0.0 0.0 0.0 0.0 0.0 0.07698792 
0.0 0.0 0.0 0.0 0.0 0.07698792 
0.0 0.0 0.0 0.0 0.0 0.07698792 
0.0 0.0 0.0 0.0 0.0 0.07698792 
0.0 0.0 0.0 0.0 0.0 0.07698792 
0.0 0.0 0.0 0.0 0.0 0.07698792 
0.0 0.0 0.0 0.0 0.0 0.07698792 
0.0 0.0 0.0 0.0 0.0 0.07698792 
0.0 0.0 0.0 0.0 0.0 0.07698792 
0.0 0.0 0.0 0.0 0.0 0.07698792 
0.0 0.0 0.0 0.0 0.0 0.07698792 
0.0 0.0 0.0 0.0 0.0 0.06680607 
0.03922105 0.0 0.056615874 0.0 0.0 0.0 
0.19609809 0.032843933 0.16135305 0.0 0.0 0.0 
0.33411604 0.13050964 0.28479844 0.0 0.0 0.0 
0.50223136 0.24767438 0.37346426 0.0 0.0 0.0 
0.6328952 0.41655436 0.5183927 0.0 0.0 0.0 
0.6729011 0.6557137 0.628101 0.0 0.0 0.0 
0.54027086 0.86112624 0.7994337 0.0 0.0 0.0 
0.37952432 0.88886076 0.8778093 0.0 0.03697366 0.0 
0.28671342 0.95420253 0.905283 0.0 0.12139097 0.0 
0.09241247 1.0003865 0.81582195 0.0 0.20015614 0.0 
0.0 0.86980337 0.59824485 0.0 0.2770057 0.0 
0.0 0.54441035 0.3494097 0.0 0.2626715 0.0 
0.0 0.30116996 0.12554827 0.0 0.14065616 0.0 
0.0 0.1085942 0.0 0.0 0.037322495 0.0 
0.0 0.004642348 0.0 0.0 0.0 0.06500285 
0.0 0.0 0.0 0.0 0.0 0.07698792 
0.0 0.0 0.0 0.0 0.0 0.07698792 
0.0 0.0 0.0 0.0 0.0 0.07698792 
0.0 0.0 0.0 0.0 0.0 0.07698792 
0.0 0.0 0.0 0.0 0.0 0.07698792 
0.0 0.0 0.0 0.0 0.0 0.07698792 
0.0 0.0 0.0 0.0 0.0 0.07698792 
0.0 0.0 0.0 0.0 0.0 0.07698792 
0.0 0.0 0.0 0.0 0.0 0.07698792 
0.0 0.0 0.0 0.0 0.0 0.07698792 
0.0 0.0 0.0 0.0 0.0 0.0758566 
0.021243729 0.0 0.056123324 0.0 0.0 0.020784602 
0.24170315 0.002227976 0.17424634 0.0 0.0 0.0 
0.4442299 0.07099007 0.25698924 0.0 0.0 0.0 
0.6755673 0.20475219 0.4010689 0.0 0.0 0.0 
0.87503546 0.42660585 0.52766645 0.0 0.0 0.0 
0.9820052 0.584245 0.66925955 0.0 0.0 0.0 
0.87505424 0.7571663 0.81786984 0.0 0.16526753 0.0 
0.64544696 0.92526746 0.96681607 0.0 0.5002648 0.0 
0.4710331 1.0022737 1.2129669 0.0 0.7179161 0.0 
0.4392606 1.1423746 1.4036462 0.0 0.7528169 0.0 
0.3295896 1.2533796 1.4773836 0.0 0.70600253 0.0 
0.19624484 1.3907053 1.5689216 0.0 0.67027074 0.0 
0.0 1.5549061 1.407244 0.0 0.8017089 0.0 
0.0 1.2770538 1.0537581 0.0 0.7835792 0.0 
0.0 0.714633 0.6053973 0.0 0.60797364 0.0 
0.0 0.19698706 0.14245734 0.0 0.34103945 0.0 
0.0 0.014486459 0.0 0.0 0.0 0.046827666 
0.0 0.0 0.0 0.0 0.0 0.07698792 
0.0 0.0 0.0 0.0 0.0 0.07698792 
0.0 0.0 0.0 0.0 0.0 0.07698792 
0.0 0.0 0.0 0.0 0.0 0.07698792 
0.0 0.0 0.0 0.0 0.0 0.07698792 
0.0 0.0 0.0 0.0 0.0 0.07698792 
0.0 0.0 0.0 0.0 0.0 0.07698792 
0.0 0.0 0.0 0.0 0.0 0.07698792 
0.0 0.0 0.0 0.0 0.0 0.07698792 
0.0 0.0 0.0 0.0 0.0 0.07170844 
0.035899885 0.0 0.060677014 0.0 0.0 0.008285463 
0.33061743 0.0 0.14738041 0.0 0.0 0.0 
0.70043904 0.0 0.2581087 0.0 0.0 0.0 
1.0525792 0.11549286 0.34561968 0.0 0.0 0.0 
1.1283553 0.492112 0.5446837 0.0 0.0 0.0 
0.8692349 0.70486176 0.64940286 0.0 0.51960146 0.0 
0.63359743 0.83202904 0.6815894 0.16953516 1.079113 0.0 
0.45443225 0.98886126 0.6606353 0.70100325 1.50323 0.0 
0.25687724 1.0981045 0.70259315 1.1481806 1.716746 0.39078692 
0.1899848 1.054835 0.77874017 1.4847993 1.6998266 0.7143207 
0.13129266 0.97600675 0.96060836 1.6677247 1.6149216 0.8453834 
0.22854966 0.87640595 1.1269432 1.5729831 1.421965 0.65739906 
0.25277573 1.093698 1.511953 1.3573552 1.1602471 0.1680881 
0.0 1.5589793 1.8173565 0.9548684 1.2894574 0.0 
0.0 1.6098049 1.7512788 0.44395462 1.2598656 0.0 
0.0 1.1789976 1.3506229 0.014891063 0.96120936 0.0 
0.0 0.3962466 0.51038074 0.0 0.5610093 0.0 
0.0 0.031464465 0.009157643 0.0 0.033524726 0.043529935 
0.0 0.0 0.0 0.0 0.0 0.07698792 
0.0 0.0 0.0 0.0 0.0 0.07698792 
0.0 0.0 0.0 0.0 0.0 0.07698792 
0.0 0.0 0.0 0.0 0.0 0.07698792 
0.0 0.0 0.0 0.0 0.0 0.07698792 
0.0 0.0 0.0 0.0 0.0 0.07698792 
0.0 0.0 0.0 0.0 0.0 0.07698792 
0.0 0.0 0.0 0.0 0.0 0.07698792 
0.0 0.0 0.0 0.0 0.0 0.07698792 
0.012052029 0.0 0.030294545 0.0 0.0 0.036380455 
0.32287812 0.0 0.13336748 0.0 0.0 0.0 
0.8496135 0.0 0.15004489 0.0 0.0 0.0 
1.2840819 0.0 0.22239882 0.0 0.0 0.0 
1.229276 0.53373593 0.24422702 0.0 0.30774233 0.0 
0.7061602 0.916039 0.35932174 0.36392224 1.233314 0.0 
0.3882392 1.1528533 0.4348567 0.9430745 1.9012418 0.41932487 
0.27331945 1.1533271 0.2544898 1.2918202 2.301704 1.0600743 
0.12027806 1.0846541 0.07226577 1.5269517 2.3618693 1.437953 
0.0 0.90729237 0.0 1.4356332 2.305569 1.5786245 
0.0859368 0.66644377 0.0 1.3575104 2.176609 1.7626433 
0.25498667 0.4624766 0.0 1.3044024 1.9553255 1.8231354 
0.48650873 0.40258285 0.0 1.3430154 1.5375638 1.6833799 
0.61448985 0.53769183 0.14711237 1.2976573 1.2725116 1.3530519 
0.13138689 1.3190458 1.0252674 1.1214433 1.2767812 0.49193552 
0.0 1.7504646 1.7097096 0.8416126 1.1868407 0.0 
0.0 1.413173 1.8513522 0.40880576 0.98751265 0.0 
0.0 0.6213498 0.96217644 0.023521174 0.5824091 0.0 
0.0 0.105872646 0.091239326 0.0 0.06186411 0.008215003 
0.0 0.0 0.0 0.0 0.0 0.07073484 
0.0 0.0 0.0 0.0 0.0 0.07698792 
0.0 0.0 0.0 0.0 0.0 0.07698792 
0.0 0.0 0.0 0.0 0.0 0.07698792 
0.0 0.0 0.0 0.0 0.0 0.07698792 
0.0 0.0 0.0 0.0 0.0 0.07698792 
0.0 0.0 0.0 0.0 0.0 0.07698792 
0.0 0.0 0.0 0.0 0.0 0.07698792 
0.0 0.0 0.0 0.0 0.0 0.07698792 
0.10939929 0.0 0.0 0.0 0.0 0.06673914 
0.7115932 0.0 0.035160035 0.0 0.0 0.05288098 
1.4171507 0.0 0.005802639 0.0 0.0 0.017203093 
1.593946 0.3701556 0.0 0.18993285 0.34297094 0.0 
0.94579023 1.2092719 0.04279615 0.36515385 1.6209384 0.029012933 
0.25062466 1.4780586 0.038065568 0.55546385 2.5102713 0.54213274 
0.0 1.3284161 0.0 0.7586645 2.6823566 1.1174176 
0.0 0.8440915 0.0 0.6712282 2.5022888 1.5333197 
0.10440621 0.56376594 0.0 0.4602578 1.9886855 1.6627584 
0.26278207 0.4101101 0.0 0.0 1.6612443 1.5044253 
0.4651882 0.26112354 0.0 0.0 1.3720642 1.2424011 
0.7345153 0.19920863 0.0 0.0 1.2086272 0.98870516 
1.063401 0.05858895 0.0 0.0 1.1851432 0.90883285 
1.3175659 0.18076657 0.0 0.0 1.2439756 0.77752054 
0.6238983 0.96780574 0.0 0.0 1.2443833 0.033302978 
0.0 1.4568199 1.0285236 0.0 1.1623065 0.0 
0.0 1.4765922 1.7899866 0.0 1.0394665 0.0 
0.0 0.950507 1.3772953 0.0 0.662987 0.0 
0.0 0.39625183 0.32578415 0.0 0.2509968 0.0 
0.0 0.116439745 0.0 0.0 0.0804176 0.0 
0.0 0.0 0.0 0.0 0.0 0.07698792 
0.0 0.0 0.0 0.0 0.0 0.07698792 
0.0 0.0 0.0 0.0 0.0 0.07698792 
0.0 0.0 0.0 0.0 0.0 0.07698792 
0.0 0.0 0.0 0.0 0.0 0.07698792 
0.0 0.0 0.0 0.0 0.0 0.07698792 
0.0 0.0 0.0 0.0 0.0 0.07698792 
0.0 0.0 0.0 0.0 0.0 0.073593974 
0.3011918 0.0 0.0 0.0 0.0 0.16534545 
1.150368 0.0 0.0 0.11084144 0.0 0.3141262 
1.8161821 0.0 0.0 0.18196754 0.26074025 0.35288388 
1.6964221 0.7224699 0.0 0.28718662 1.3310219 0.30302584 
0.57423735 1.6854254 0.0 0.17534494 2.4329891 0.2903949 
0.0 1.7173574 0.0 0.036061335 2.7476428 0.61703897 
0.0 1.0299032 0.0 0.0 2.3675559 1.025408 
0.0 0.23526523 0.0 0.0 1.5832188 0.8953641 
0.36711627 0.0 0.0 0.0 0.83679146 0.48373044 
0.5477747 0.0 0.0 0.0 0.55183786 0.0 
0.83031875 0.0 0.0 0.0 0.51470584 0.0 
1.0750589 0.0 0.0 0.0 0.6803337 0.0 
1.3050923 0.013653568 0.0 0.0 1.0353239 0.0 
1.3283114 0.2647842 0.0 0.0 1.5206555 0.0 
0.58091027 0.8016943 0.0 0.0 1.6491741 0.0 
0.0 1.1477271 0.44962442 0.0 1.4850377 0.0 
0.0 1.3025534 1.5649436 0.0 1.446314 0.0 
0.0 1.098717 1.4865545 0.0 1.0934262 0.0 
0.0 0.52763104 0.6678184 0.0 0.62204224 0.0 
0.0 0.004075763 0.08932703 0.0 0.2818545 0.0 
0.0 0.0 0.0 0.0 0.0 0.07698792 
0.0 0.0 0.0 0.0 0.0 0.07698792 
0.0 0.0 0.0 0.0 0.0 0.07698792 
0.0 0.0 0.0 0.0 0.0 0.07698792 
0.0 0.0 0.0 0.0 0.0 0.07698792 
0.0 0.0 0.0 0.0 0.0 0.07698792 
0.0 0.0 0.0 0.0 0.0 0.07698792 
0.0 0.0 0.0 0.0 0.0 0.06981921 
0.52485406 0.0 0.0 0.036528807 0.0 0.31050146 
1.5957775 0.0 0.0 0.09727502 0.003817711 0.659324 
2.0847108 0.0 0.0 0.054401245 0.8022705 0.64951515 
1.5366218 1.0269817 0.0 0.076994985 1.7229357 0.38295922 
0.083174065 1.7901533 0.015619941 0.0 2.5299745 0.060528904 
0.0 1.4762743 0.8495424 0.0 2.2216222 0.0 
0.0 0.66953194 0.86900187 0.0 1.3883972 0.0 
0.15995905 0.13843296 0.39376795 0.0 0.40804842 0.0 
0.73934954 0.010532989 0.18781656 0.0 0.0 0.0 
0.9356658 0.26081666 0.5121784 0.0 0.0351902 0.0 
0.91371995 0.5741762 0.7401533 0.0 0.31431493 0.0 
0.73129904 0.7546432 0.8428893 0.0 0.8016231 0.0 
0.74101186 0.82754666 0.637908 0.12340613 1.5014699 0.0 
0.6847169 0.8730603 0.17283064 0.44461244 2.1109812 0.2350752 
0.24807021 1.00224 0.0 0.76621443 2.1547167 0.5088136 
0.0 0.9711251 0.44706774 0.94575083 2.031425 0.5613971 
0.0 1.0773534 1.2809402 1.0590221 1.7123606 0.3184251 
0.0 0.77555364 1.483168 0.8877321 1.2099885 0.12898542 
0.0 0.51109874 0.9590266 0.51077527 0.5616407 0.16042864 
0.0 0.22030187 0.33106014 0.1905797 0.08867042 0.06349175 
0.0 0.0 0.0 0.0 0.0 0.07698792 
0.0 0.0 0.0 0.0 0.0 0.07698792 
0.0 0.0 0.0 0.0 0.0 0.07698792 
0.0 0.0 0.0 0.0 0.0 0.07698792 
0.0 0.0 0.0 0.0 0.0 0.07698792 
0.0 0.0 0.0 0.0 0.0 0.07698792 
0.0 0.0 0.0 0.0 0.0 0.07698792 
0.0 0.0 0.0 0.0 0.0 0.084031776 
0.74751866 0.0 0.0 0.01844531 0.0 0.4822926 
1.8679512 0.0 0.0 0.043767463 0.34673932 0.8487069 
2.1164467 0.0 0.0 0.015206245 1.0875493 0.71565866 
1.3653479 1.0779188 0.0 0.0 1.7967069 0.3132249 
0.0 1.8497931 0.6301551 0.0 2.0697458 0.0 
0.0 1.5108726 1.6936814 0.0 1.3533063 0.0 
0.0 0.88253564 1.8170913 0.0 0.70364153 0.0 
0.6922506 0.5183377 1.1791809 0.0 0.27548417 0.0 
1.0655828 0.67946625 0.7192242 0.0 0.36956576 0.0 
0.829312 0.920112 0.6393301 0.0 1.0240862 0.0 
0.5629659 1.1735189 0.5863341 0.5381975 1.5706706 0.0 
0.37964338 1.3389667 0.56937534 1.0082203 2.0179377 0.47636247 
0.20238462 1.3491485 0.45261002 1.3148724 2.3738005 1.0209689 
0.015903033 1.2021664 0.15051648 1.4237643 2.4399116 1.3685861 
0.0 1.0934412 0.0 1.364592 2.173703 1.4633176 
0.0 1.0403504 0.063144006 1.1542907 1.7517561 1.3548434 
0.0 0.9355355 0.47169757 0.81243736 1.1870235 1.0177903 
0.0 0.70621324 0.8870646 0.60399306 0.54008955 0.61160547 
0.0 0.3542267 0.8007725 0.3675319 0.16088785 0.33737788 
0.0 0.16460975 0.36456206 0.1719737 0.0 0.13421467 
0.0 0.0 0.0 0.0 0.0 0.07698792 
0.0 0.0 0.0 0.0 0.0 0.07698792 
0.0 0.0 0.0 0.0 0.0 0.07698792 
0.0 0.0 0.0 0.0 0.0 0.07698792 
0.0 0.0 0.0 0.0 0.0 0.07698792 
0.0 0.0 0.0 0.0 0.0 0.07698792 
0.0 0.0 0.0 0.0 0.0 0.07698792 
0.0 0.0 0.0 0.015515336 0.0 0.11943021 
0.8243954 0.0 0.0 0.102276154 0.0 0.6491766 
1.8980868 0.0 0.0 0.14493673 0.4931346 1.0314741 
2.065387 0.0 0.0 0.13810962 1.1758875 0.846182 
1.3322995 1.0196645 0.0 0.023526665 1.6412896 0.403943 
0.10478422 1.6214274 0.9376379 0.0 1.7836311 0.0 
0.0238761 1.2782311 1.835838 0.0 1.4258922 0.0 
0.37366962 1.0855479 1.838602 0.0 1.1855793 0.0 
0.6535404 1.0078771 1.0785358 0.14877136 1.2483028 0.0 
0.72921216 1.2088373 0.48548353 0.5133806 1.7688144 0.029613644 
0.47299105 1.3963629 0.35285395 0.88676625 2.369606 0.6174415 
0.23308522 1.3709267 0.056441106 1.0674515 2.6889925 1.108861 
0.0 1.1461301 0.0 1.0716909 2.7399957 1.495091 
0.0 0.82608694 0.0 0.8183622 2.508219 1.6107752 
0.0 0.58823144 0.0 0.43201345 2.1271384 1.6090393 
0.0 0.33604005 0.0 0.01797964 1.7376577 1.5058186 
0.0 0.08421697 0.0 0.0 1.3607796 1.1753213 
0.0 0.0 0.0 0.0 0.75157446 0.7343907 
0.0 0.0 0.0 0.0 0.406229 0.43497565 
0.0 0.0 0.13495499 0.0 0.22902517 0.27221406 
0.0 0.0 0.101532705 0.0 0.049451847 0.0977966 
0.0 0.0 0.0 0.0 0.0 0.07698792 
0.0 0.0 0.0 0.0 0.0 0.07698792 
0.0 0.0 0.0 0.0 0.0 0.07698792 
0.0 0.0 0.0 0.0 0.0 0.07698792 
0.0 0.0 0.0 0.0 0.0 0.07698792 
0.0 0.0 0.0 0.0 0.0 0.07698792 
0.0 0.0 0.0 0.0 0.0 0.07698792 
0.0 0.0 0.0 0.0126192095 0.0 0.12965594 
0.8986811 0.0 0.0 0.03606656 0.12129383 0.6999925 
1.9157476 0.0 0.0 0.05071562 0.5639072 1.0708014 
2.0462296 0.0 0.0 0.010867593 1.1844897 0.85465455 
1.4764299 0.8763959 0.0 0.066278994 1.5921779 0.55437315 
0.4323396 1.3961277 0.8531269 0.11105603 1.8911693 0.049055442 
0.37679094 1.3872406 1.5050218 0.33048993 1.891962 0.0043118447 
0.42943656 1.465129 1.3013455 0.58078086 2.1309159 0.18171339 
0.4268633 1.4509234 0.5477352 0.7196803 2.4774196 0.5344533 
0.3359321 1.4300206 0.022967353 0.8703491 2.8215244 1.0406853 
0.0 1.285814 0.0 0.89287025 2.867046 1.3742929 
0.0 0.9233887 0.0 0.6518325 2.5661256 1.536443 
0.0 0.4960697 0.0 0.19817677 2.1105297 1.5113404 
0.0 0.21118538 0.0 0.0 1.5160162 1.2590597 
0.0 0.0 0.0 0.0 1.1251267 0.9153836 
0.0 0.0 0.0 0.0 0.81892556 0.6558066 
0.0 0.0 0.0 0.0 0.5003839 0.40209484 
0.0 0.0 0.0 0.0 0.2721528 0.24562111 
0.0 0.0 0.0 0.0 0.1286953 0.16972008 
0.0 0.0 0.0062240735 0.0 0.012073424 0.09559776 
0.0 0.0 0.0 0.0 0.0 0.07812942 
0.0 0.0 0.0 0.0 0.0 0.07698792 
0.0 0.0 0.0 0.0 0.0 0.07698792 
0.0 0.0 0.0 0.0 0.0 0.07698792 
0.0 0.0 0.0 0.0 0.0 0.07698792 
0.0 0.0 0.0 0.0 0.0 0.07698792 
0.0 0.0 0.0 0.0 0.0 0.07698792 
0.0 0.0 0.0 0.0 0.0 0.072085544 
0.12471455 0.0 0.063668765 0.0 0.0 0.033719532 
1.1241522 0.0 0.0 0.0 0.00031319633 0.44247943 
1.9913902 0.0 0.0 0.0 0.5113194 0.7620853 
2.0932653 0.0848379 0.0 0.0 1.1709014 0.51323515 
1.5744991 0.9457731 0.0 0.0 1.7841091 0.53544545 
0.69711584 1.3699702 0.34180024 0.10228003 2.324385 0.48474237 
0.4715492 1.4356091 0.5810023 0.31279746 2.7261934 0.6737957 
0.20985386 1.4773821 0.4266991 0.5573868 3.035177 0.89970845 
0.0 1.4195837 0.0 0.6578345 3.0398605 1.1541657 
0.0 1.1328588 0.0 0.5335405 2.8062646 1.4282458 
0.0 0.55470896 0.0 0.1833049 2.2771351 1.4000423 
0.0 0.24685344 0.0 0.0 1.5087525 1.154074 
0.0 0.0 0.0 0.0 0.9711421 0.78225166 
0.0 0.0 0.0 0.0 0.57955265 0.50038445 
0.0 0.0 0.0 0.0 0.31934223 0.28299695 
0.0 0.0 0.0 0.0 0.1486791 0.18038544 
0.0 0.0 0.0 0.0 0.029583368 0.10808273 
0.0 0.0 0.0 0.0 0.0 0.07965141 
0.0 0.0 0.0 0.0 0.0 0.07698792 
0.0 0.0 0.0 0.0 0.0 0.07698792 
0.0 0.0 0.0 0.0 0.0 0.07698792 
0.0 0.0 0.0 0.0 0.0 0.07698792 
0.0 0.0 0.0 0.0 0.0 0.07698792 
0.0 0.0 0.0 0.0 0.0 0.07698792 
0.0 0.0 0.0 0.0 0.0 0.07698792 
0.0 0.0 0.0 0.0 0.0 0.07698792 
0.0 0.0 0.0 0.0 0.0 0.06039527 
0.07671659 0.0 0.0719269 0.0 0.0 0.0 
0.42194912 0.0 0.11164362 0.0 0.0 0.0 
1.4202683 0.0 0.0 0.0 0.0 0.1124302 
2.1644952 0.0 0.0 0.0 0.61303324 0.31461465 
1.9266989 0.53592485 0.0 0.0 1.4366598 0.22308014 
1.3758953 0.9596234 0.0 0.0 2.3021593 0.48734894 
0.72060424 1.3111906 0.0 0.0 2.9062393 0.69705296 
0.13954416 1.4369463 0.051743157 0.19517832 3.2255824 0.88439554 
0.0 1.465904 0.00523296 0.28411347 3.1469734 0.9984096 
0.0 0.98036504 0.0 0.17671712 2.746947 1.2445667 
0.0 0.39118147 0.0 0.0 1.9106704 1.1718817 
0.0 0.099204905 0.0 0.0 0.9939762 0.78243434 
0.0 0.0 0.0 0.0 0.51812553 0.4853753 
0.0 0.0 0.0 0.0 0.2766482 0.2705201 
0.0 0.0 0.0 0.0 0.10364547 0.1457907 
0.0 0.0 0.0 0.0 0.0 0.08954668 
0.0 0.0 0.0 0.0 0.0 0.07774892 
0.0 0.0 0.0 0.0 0.0 0.07698792 
0.0 0.0 0.0 0.0 0.0 0.07698792 
0.0 0.0 0.0 0.0 0.0 0.07698792 
0.0 0.0 0.0 0.0 0.0 0.07698792 
0.0 0.0 0.0 0.0 0.0 0.07698792 
0.0 0.0 0.0 0.0 0.0 0.07698792 
0.0 0.0 0.0 0.0 0.0 0.07698792 
0.0 0.0 0.0 0.0 0.0 0.07698792 
0.0 0.0 0.0 0.0 0.0 0.07698792 
0.0 0.0 0.0 0.0 0.0 0.07133134 
0.10772815 0.0 0.09914481 0.0 0.0 0.0 
0.47185987 0.0 0.18121845 0.0 0.0 0.0 
0.962771 0.0 0.15221107 0.0 0.0 0.0 
1.7179911 0.0 0.010554753 0.0 0.057512347 0.0 
1.9577138 0.4308981 0.0 0.0 1.1437007 0.0 
1.5349979 0.9399848 0.0 0.0 1.9711732 0.18772756 
1.1540322 1.2522213 0.0 0.0 2.5718315 0.5063944 
0.41752666 1.5781045 0.034260787 0.043892946 3.0861392 0.659398 
0.0 1.6767303 0.1280146 0.023521628 3.142494 0.68784803 
0.0 1.2513386 0.21966484 0.0 2.6613228 0.81193835 
0.0 0.46040326 0.11950537 0.0 1.7620405 0.8309708 
0.0 0.053646754 0.050822526 0.0 0.69238037 0.58021545 
0.0 0.0 0.031111069 0.0 0.31080666 0.31169635 
0.0 0.0 0.010836728 0.0 0.1341726 0.18172435 
0.0 0.0 0.023470826 0.0 0.0057888217 0.08733748 
0.0 0.0 0.0 0.0 0.0 0.07698792 
0.0 0.0 0.0 0.0 0.0 0.07698792 
0.0 0.0 0.0 0.0 0.0 0.07698792 
0.0 0.0 0.0 0.0 0.0 0.07698792 
0.0 0.0 0.0 0.0 0.0 0.07698792 
0.0 0.0 0.0 0.0 0.0 0.07698792 
0.0 0.0 0.0 0.0 0.0 0.07698792 
0.0 0.0 0.0 0.0 0.0 0.07698792 
0.0 0.0 0.0 0.0 0.0 0.07698792 
0.0 0.0 0.0 0.0 0.0 0.07698792 
0.0 0.0 0.0 0.0 0.0 0.07698792 
0.0 0.0 0.0 0.0 0.0 0.07698792 
0.006877646 0.0 0.02262465 0.0 0.0 0.040025398 
0.40378493 0.0 0.06989037 0.0 0.0 0.0 
0.9842009 0.0 0.15233612 0.0 0.0 0.0 
1.5210924 0.0 0.04366774 0.0 0.0 0.0 
1.62146 0.5637661 0.0 0.0 0.93499386 0.0 
1.29737 0.86826426 0.0 0.08911173 1.9804765 0.34149492 
1.2696187 1.0808487 0.0 0.23699652 2.3534663 0.6630204 
0.90181893 1.3420922 0.0 0.27616385 2.6824734 0.8345604 
0.04228577 1.7468885 0.23884416 0.051748242 2.954345 0.47985107 
0.0 1.6394422 0.46389848 0.0 2.765322 0.28548986 
0.0 1.0179108 0.7316305 0.0 1.8282934 0.3671175 
0.0 0.20130795 0.5189556 0.0 0.92130905 0.34460053 
0.0 0.0 0.1931827 0.0 0.24431784 0.26274425 
0.0 0.0 0.038577102 0.0 0.057060625 0.11387969 
0.0 0.0 0.0 0.0 0.0 0.07965141 
0.0 0.0 0.0 0.0 0.0 0.07698792 
0.0 0.0 0.0 0.0 0.0 0.07698792 
0.0 0.0 0.0 0.0 0.0 0.07698792 
0.0 0.0 0.0 0.0 0.0 0.07698792 
0.0 0.0 0.0 0.0 0.0 0.07698792 
0.0 0.0 0.0 0.0 0.0 0.07698792 
0.0 0.0 0.0 0.0 0.0 0.07698792 
0.0 0.0 0.0 0.0 0.0 0.07698792 
0.0 0.0 0.0 0.0 0.0 0.07698792 
0.0 0.0 0.0 0.0 0.0 0.07698792 
0.0 0.0 0.0 0.0 0.0 0.07698792 
0.0 0.0 0.0 0.0 0.0 0.07698792 
0.0 0.0 0.0 0.0 0.0 0.07698792 
0.14676113 0.0 0.051815726 0.0 0.0 0.0410175 
0.88681394 0.0 0.0 0.0 0.0 0.09927276 
1.504977 0.0 0.0 0.0 0.0 0.036400042 
1.7147243 0.36956912 0.0 0.12452695 0.7612115 0.0 
1.1788809 1.0886112 0.0 0.22372127 2.05794 0.32918167 
0.7922061 1.084574 0.0 0.3033049 2.4734921 0.71050084 
0.99303395 0.8757579 0.0 0.33382824 2.4730098 1.0921507 
0.9115738 0.98221904 0.0 0.22776225 2.5214097 0.9373793 
0.0 1.8162287 0.4183037 0.0 2.47031 0.21643063 
0.0 1.7078941 1.0640957 0.0 2.1314304 0.0 
0.0 0.9281907 1.3380717 0.0 1.3723332 0.0 
0.0 0.21290283 0.7567726 0.0 0.66686577 0.08304159 
0.0 0.0 0.07055437 0.0 0.03521586 0.09315099 
0.0 0.0 0.0 0.0 0.0 0.07744452 
0.0 0.0 0.0 0.0 0.0 0.07698792 
0.0 0.0 0.0 0.0 0.0 0.07698792 
0.0 0.0 0.0 0.0 0.0 0.07698792 
0.0 0.0 0.0 0.0 0.0 0.07698792 
0.0 0.0 0.0 0.0 0.0 0.07698792 
0.0 0.0 0.0 0.0 0.0 0.07698792 
0.0 0.0 0.0 0.0 0.0 0.07698792 
0.0 0.0 0.0 0.0 0.0 0.07698792 
0.0 0.0 0.0 0.0 0.0 0.07698792 
0.0 0.0 0.0 0.0 0.0 0.07698792 
0.0 0.0 0.0 0.0 0.0 0.07698792 
0.0 0.0 0.0 0.0 0.0 0.07698792 
0.0 0.0 0.0 0.0 0.0 0.07698792 
0.0 0.0 0.0 0.0 0.0 0.07698792 
0.32739517 0.0 0.0 0.0 0.0 0.18134052 
1.3362741 0.0 0.0 0.14875536 0.0 0.43242902 
1.952934 0.0 0.0 0.16297404 0.40842208 0.46806902 
1.5793557 0.9200019 0.0 0.24769571 1.4776734 0.30139765 
0.6584969 1.5260549 0.0 0.03670877 2.4384844 0.37495315 
0.53086513 1.1831037 0.0 0.0 2.4378362 0.83321166 
0.9753483 0.6430865 0.0 0.0 2.2510033 1.1224482 
1.0755882 0.7725867 0.0 0.0 2.113696 0.669892 
0.0 1.7817903 0.45085806 0.0 2.0686603 0.0 
0.0 1.7204748 1.5069989 0.0 1.9148208 0.0 
0.0 1.063104 1.686678 0.0 1.2823828 0.0 
0.0 0.23671158 0.8001101 0.0 0.6005126 0.0 
0.0 0.0 0.0 0.0 0.0 0.07027787 
0.0 0.0 0.0 0.0 0.0 0.07698792 
0.0 0.0 0.0 0.0 0.0 0.07698792 
0.0 0.0 0.0 0.0 0.0 0.07698792 
0.0 0.0 0.0 0.0 0.0 0.07698792 
0.0 0.0 0.0 0.0 0.0 0.07698792 
0.0 0.0 0.0 0.0 0.0 0.07698792 
0.0 0.0 0.0 0.0 0.0 0.07698792 
0.0 0.0 0.0 0.0 0.0 0.07698792 
0.0 0.0 0.0 0.0 0.0 0.07698792 
0.0 0.0 0.0 0.0 0.0 0.07698792 
0.0 0.0 0.0 0.0 0.0 0.07698792 
0.0 0.0 0.0 0.0 0.0 0.07698792 
0.0 0.0 0.0 0.0 0.0 0.07698792 
0.0 0.0 0.0 0.0 0.0 0.07698792 
0.0 0.0 0.0 0.0 0.0 0.07698792 
0.4756124 0.0 0.0 0.12669837 0.0 0.4444463 
1.5719059 0.0 0.0 0.23840709 0.19481768 0.89092034 
2.1279633 0.0 0.0 0.30194464 0.9566862 0.86250424 
1.484483 0.9439612 0.0 0.17425132 1.7173251 0.4988623 
0.49843973 1.5395656 0.07177403 0.0 2.2645266 0.10011169 
0.4904483 1.00231 0.49756968 0.0 2.1944804 0.37078065 
1.1234646 0.5499955 0.0 0.0 2.1631403 0.5817399 
0.9485411 0.9131154 0.0 0.0 2.1423652 0.37951922 
0.0 1.5873841 0.25830472 0.0 2.2248476 0.0 
0.0 1.6434523 1.5664481 0.14769179 1.9411014 0.0 
0.0 0.98830116 1.7450073 0.16860676 1.2592841 0.08666475 
0.0 0.2553908 0.8198104 0.05285788 0.5186689 0.010510638 
0.0 0.00030069053 0.0 0.0 0.0 0.07329926 
0.0 0.0 0.0 0.0 0.0 0.07698792 
0.0 0.0 0.0 0.0 0.0 0.07698792 
0.0 0.0 0.0 0.0 0.0 0.07698792 
0.0 0.0 0.0 0.0 0.0 0.07698792 
0.0 0.0 0.0 0.0 0.0 0.07698792 
0.0 0.0 0.0 0.0 0.0 0.07698792 
0.0 0.0 0.0 0.0 0.0 0.07698792 
0.0 0.0 0.0 0.0 0.0 0.07698792 
0.0 0.0 0.0 0.0 0.0 0.07698792 
0.0 0.0 0.0 0.0 0.0 0.07698792 
0.0 0.0 0.0 0.0 0.0 0.07698792 
0.0 0.0 0.0 0.0 0.0 0.07698792 
0.0 0.0 0.0 0.0 0.0 0.07698792 
0.0 0.0 0.0 0.0 0.0 0.07698792 
0.0 0.0 0.0 0.0 0.0 0.07698792 
0.5664052 0.0 0.0 0.14451577 0.100723535 0.6087765 
1.5673594 0.0 0.0 0.17862202 0.50497055 1.1680136 
2.0055666 0.0 0.0 0.26788607 1.0524044 1.0918181 
1.5071993 0.6640915 0.0 0.11321592 1.5078728 0.66288006 
0.5756343 1.3759179 0.52922165 0.023532625 1.7215219 0.10871272 
0.64635175 1.041665 1.0372628 0.0 2.0738995 0.2018953 
0.9127645 1.0172309 0.28493643 0.0 2.3954556 0.38505605 
0.4373191 1.1405085 0.0 0.0 2.630092 0.43970808 
0.0 1.6407804 0.105653025 0.19470727 2.4312618 0.33589393 
0.0 1.3017 1.313283 0.41662124 1.8628812 0.29644603 
0.0 0.64262635 1.481715 0.389358 1.0360155 0.37866127 
0.0 0.23511726 0.79284024 0.23053868 0.29004505 0.11684905 
0.0 0.007353016 0.0 0.011129898 0.0 0.07884016 
0.0 0.0 0.0 0.0 0.0 0.07698792 
0.0 0.0 0.0 0.0 0.0 0.07698792 
0.0 0.0 0.0 0.0 0.0 0.07698792 
0.0 0.0 0.0 0.0 0.0 0.07698792 
0.0 0.0 0.0 0.0 0.0 0.07698792 
0.0 0.0 0.0 0.0 0.0 0.07698792 
0.0 0.0 0.0 0.0 0.0 0.07698792 
0.0 0.0 0.0 0.0 0.0 0.07698792 
0.0 0.0 0.0 0.0 0.0 0.07698792 
0.0 0.0 0.0 0.0 0.0 0.07698792 
0.0 0.0 0.0 0.0 0.0 0.07698792 
0.0 0.0 0.0 0.0 0.0 0.07698792 
0.0 0.0 0.0 0.0 0.0 0.07698792 
0.0 0.0 0.0 0.0 0.0 0.07698792 
0.0 0.0 0.0 0.0 0.0 0.07698792 
0.4770276 0.0 0.0 0.037541404 0.28485674 0.5719055 
1.305654 0.0 0.0 0.1352136 0.72201943 1.32654 
1.6224883 0.0 0.0 0.31821063 1.1954231 1.5596073 
1.299375 0.031249601 0.0 0.58903605 1.5983876 1.476589 
0.47393245 0.60564536 0.0 1.0660012 1.8768181 1.2720768 
0.39576134 0.6653962 0.5626683 1.1364541 2.4639912 1.3368998 
0.33864057 0.9196865 0.20448601 1.1299578 2.80807 1.340831 
0.0 1.1942155 0.0 0.8674069 2.7687905 1.1786945 
0.0 1.2932063 0.081657596 0.60599655 2.2051306 0.9233832 
0.0 0.72171074 0.8549126 0.35018033 1.3798872 0.6452231 
0.0 0.30138236 0.96587884 0.2449398 0.5879399 0.45726797 
0.0 0.07067344 0.5424781 0.124977276 0.1224193 0.15386432 
0.0 0.0 0.0 0.0 0.0 0.07997589 
0.0 0.0 0.0 0.0 0.0 0.07698792 
0.0 0.0 0.0 0.0 0.0 0.07698792 
0.0 0.0 0.0 0.0 0.0 0.07698792 
0.0 0.0 0.0 0.0 0.0 0.07698792 
0.0 0.0 0.0 0.0 0.0 0.07698792 
0.0 0.0 0.0 0.0 0.0 0.07698792 
0.0 0.0 0.0 0.0 0.0 0.07698792 
0.0 0.0 0.0 0.0 0.0 0.07698792 
0.0 0.0 0.0 0.0 0.0 0.07698792 
0.0 0.0 0.0 0.0 0.0 0.07698792 
0.0 0.0 0.0 0.0 0.0 0.07698792 
0.0 0.0 0.0 0.0 0.0 0.07698792 
0.0 0.0 0.0 0.0 0.0 0.07698792 
0.0 0.0 0.0 0.0 0.0 0.07698792 
0.0 0.0 0.0 0.0 0.0 0.07698792 
0.28808856 0.0 0.0 0.0 0.28989035 0.38876727 
0.95637256 0.0 0.0 0.05649615 0.78450185 1.0803449 
1.1889307 0.0 0.0 0.1555888 1.310066 1.4906769 
0.90107006 0.0 0.0 0.54381025 1.6463171 1.6683362 
0.49572462 0.057012632 0.0 0.92439073 2.038326 1.8782866 
0.31920847 0.41392404 0.0 1.2245005 2.3642867 1.9439411 
0.10112569 0.65191174 0.0 1.0962522 2.3577182 1.6824985 
0.0 0.80081964 0.0 0.6994675 2.06235 1.3586078 
0.0 0.6582208 0.047411904 0.33832446 1.3450036 0.9708631 
0.0 0.23990677 0.46718025 0.050051797 0.6869492 0.57824206 
0.0 0.0 0.4342172 0.0 0.2869712 0.32916388 
0.0 0.0 0.18810207 0.0 0.05700868 0.117056385 
0.0 0.0 0.0 0.0 0.0 0.07767282 
0.0 0.0 0.0 0.0 0.0 0.07698792 
0.0 0.0 0.0 0.0 0.0 0.07698792 
0.0 0.0 0.0 0.0 0.0 0.07698792 
0.0 0.0 0.0 0.0 0.0 0.07698792 
0.0 0.0 0.0 0.0 0.0 0.07698792 
0.0 0.0 0.0 0.0 0.0 0.07698792 
0.0 0.0 0.0 0.0 0.0 0.07698792 
0.0 0.0 0.0 0.0 0.0 0.07698792 
0.0 0.0 0.0 0.0 0.0 0.07698792 
0.0 0.0 0.0 0.0 0.0 0.07698792 
0.0 0.0 0.0 0.0 0.0 0.07698792 
0.0 0.0 0.0 0.0 0.0 0.07698792 
0.0 0.0 0.0 0.0 0.0 0.07698792 
0.0 0.0 0.0 0.0 0.0 0.07698792 
0.0 0.0 0.0 0.0 0.0 0.07698792 
0.08180168 0.0 0.0 0.0 0.10741103 0.2103348 
0.5411148 0.0 0.0 0.0 0.55380815 0.68614703 
0.7892995 0.0 0.0 0.0 0.99615866 1.1348124 
0.69490165 0.0 0.0 0.0 1.2878472 1.3999102 
0.5500091 0.0 0.0 0.0 1.5283884 1.6761518 
0.26029235 0.047153644 0.0 0.0 1.6449713 1.6954658 
0.0 0.11428492 0.0 0.0 1.4964356 1.4222848 
0.0 0.11457254 0.0 0.0 1.0290059 0.97961015 
0.0 0.0 0.0 0.0 0.5699806 0.6107671 
0.0 0.0 0.23399153 0.0 0.29905897 0.34186485 
0.0 0.0 0.12829995 0.0 0.10229795 0.1553307 
0.0 0.0 0.0 0.0 0.0 0.082695395 
0.0 0.0 0.0 0.0 0.0 0.07698792 
0.0 0.0 0.0 0.0 0.0 0.07698792 
0.0 0.0 0.0 0.0 0.0 0.07698792 
0.0 0.0 0.0 0.0 0.0 0.07698792 
0.0 0.0 0.0 0.0 0.0 0.07698792 
0.0 0.0 0.0 0.0 0.0 0.07698792 
0.0 0.0 0.0 0.0 0.0 0.07698792 
0.0 0.0 0.0 0.0 0.0 0.07698792 
0.0 0.0 0.0 0.0 0.0 0.07698792 
0.0 0.0 0.0 0.0 0.0 0.07698792 
0.0 0.0 0.0 0.0 0.0 0.07698792 
0.0 0.0 0.0 0.0 0.0 0.07698792 
0.0 0.0 0.0 0.0 0.0 0.07698792 
0.0 0.0 0.0 0.0 0.0 0.07698792 
0.0 0.0 0.0 0.0 0.0 0.07698792 
0.0 0.0 0.0 0.0 0.0 0.07698792 
0.0 0.0 0.0 0.0 0.026908744 0.11412049 
0.21458495 0.0 0.0 0.0 0.3448918 0.28821966 
0.3811491 0.0 0.0 0.0 0.61146265 0.46066868 
0.3618903 0.0 0.0 0.0 0.7840162 0.55962634 
0.30318856 0.0 0.0 0.0 0.94403726 0.6980793 
0.13557167 0.0 0.0 0.0 0.9927636 0.69706017 
0.0 0.0 0.0 0.0 0.73154384 0.53877395 
0.0 0.0 0.0 0.0 0.43327302 0.36244577 
0.0 0.0 0.0 0.0 0.25016525 0.25896692 
0.0 0.0 0.047188364 0.0 0.09476076 0.14054398 
0.0 0.0 0.0 0.0 0.0 0.082391 
0.0 0.0 0.0 0.0 0.0 0.07698792 
0.0 0.0 0.0 0.0 0.0 0.07698792 
0.0 0.0 0.0 0.0 0.0 0.07698792 
0.0 0.0 0.0 0.0 0.0 0.07698792 
0.0 0.0 0.0 0.0 0.0 0.07698792 
0.0 0.0 0.0 0.0 0.0 0.07698792 
0.0 0.0 0.0 0.0 0.0 0.07698792 
0.0 0.0 0.0 0.0 0.0 0.07698792 
0.0 0.0 0.0 0.0 0.0 0.07698792 
0.0 0.0 0.0 0.0 0.0 0.07698792 
0.0 0.0 0.0 0.0 0.0 0.07698792 
0.0 0.0 0.0 0.0 0.0 0.07698792 
0.0 0.0 0.0 0.0 0.0 0.07698792 
0.0 0.0 0.0 0.0 0.0 0.07698792 
0.0 0.0 0.0 0.0 0.0 0.07698792 
0.0 0.0 0.0 0.0 0.0 0.07698792 
0.0 0.0 0.0 0.0 0.0 0.07698792 
0.0 0.0 0.0 0.0 0.0 0.07698792 
0.0 0.0 0.0 0.0 0.0 0.09369758 
0.0 0.0 0.0 0.0 0.02277178 0.11601882 
0.0 0.0 0.0 0.0 0.047951702 0.12506095 
0.0 0.0 0.0 0.0 0.07096541 0.14199717 
0.0 0.0 0.0 0.0 0.065145165 0.13936028 
0.0 0.0 0.0 0.0 0.02378581 0.117477454 
0.0 0.0 0.0 0.0 0.0 0.10417138 
0.0 0.0 0.0 0.0 0.0 0.09160368 
0.0 0.0 0.0 0.0 0.0 0.07850991 
0.0 0.0 0.0 0.0 0.0 0.07698792 
0.0 0.0 0.0 0.0 0.0 0.07698792 
0.0 0.0 0.0 0.0 0.0 0.07698792 
0.0 0.0 0.0 0.0 0.0 0.07698792 
0.0 0.0 0.0 0.0 0.0 0.07698792 
0.0 0.0 0.0 0.0 0.0 0.07698792 
0.0 0.0 0.0 0.0 0.0 0.07698792 
0.0 0.0 0.0 0.0 0.0 0.07698792 
0.0 0.0 0.0 0.0 0.0 0.07698792 
0.0 0.0 0.0 0.0 0.0 0.07698792 
0.0 0.0 0.0 0.0 0.0 0.07698792 
0.0 0.0 0.0 0.0 0.0 0.07698792 
0.0 0.0 0.0 0.0 0.0 0.07698792 
0.0 0.0 0.0 0.0 0.0 0.07698792 
0.0 0.0 0.0 0.0 0.0 0.07698792 
0.0 0.0 0.0 0.0 0.0 0.07698792 
0.0 0.0 0.0 0.0 0.0 0.07698792 
0.0 0.0 0.0 0.0 0.0 0.07698792 
0.0 0.0 0.0 0.0 0.0 0.07698792 
0.0 0.0 0.0 0.0 0.0 0.07698792 
0.0 0.0 0.0 0.0 0.0 0.07698792 
0.0 0.0 0.0 0.0 0.0 0.07698792 
0.0 0.0 0.0 0.0 0.0 0.07698792 
0.0 0.0 0.0 0.0 0.0 0.07698792 
0.0 0.0 0.0 0.0 0.0 0.07698792 
0.0 0.0 0.0 0.0 0.0 0.07698792 
0.0 0.0 0.0 0.0 0.0 0.07698792 
0.0 0.0 0.0 0.0 0.0 0.07698792 
0.0 0.0 0.0 0.0 0.0 0.07698792 
0.0 0.0 0.0 0.0 0.0 0.07698792 
0.0 0.0 0.0 0.0 0.0 0.07698792 
0.0 0.0 0.0 0.0 0.0 0.07698792 
0.0 0.0 0.0 0.0 0.0 0.07698792 
0.0 0.0 0.0 0.0 0.0 0.07698792 
0.0 0.0 0.0 0.0 0.0 0.07698792 
0.0 0.0 0.0 0.0 0.0 0.07698792 
0.0 0.0 0.0 0.0 0.0 0.07698792 
0.0 0.0 0.0 0.0 0.0 0.07698792 
0.0 0.0 0.0 0.0 0.0 0.07698792 
0.0 0.0 0.0 0.0 0.0 0.07698792 
0.0 0.0 0.0 0.0 0.0 0.07698792 
0.0 0.0 0.0 0.0 0.0 0.07698792 

