0.0 0.0 0.0 0.0 0.0 0.07698792 
0.0 0.0 0.0 0.0 0.0 0.07698792 
0.0 0.0 0.0 0.0 0.0 0.07698792 
0.0 0.0 0.0 0.0 0.0 0.07698792 
0.0 0.0 0.0 0.0 0.0 0.07698792 
0.0 0.0 0.0 0.0 0.0 0.07698792 
0.0 0.0 0.0 0.0 0.0 0.07698792 
0.0 0.0 0.0 0.0 0.0 0.07698792 
0.0 0.0 0.0 0.0 0.0 0.07698792 
0.0 0.0 0.0 0.0 0.0 0.07698792 
0.0 0.0 0.0 0.0 0.0 0.07698792 
0.0 0.0 0.0 0.0 0.0 0.07698792 
0.0 0.0 0.0 0.0 0.0 0.07698792 
0.0 0.0 0.0 0.0 0.0 0.07698792 
0.0 0.0 0.0 0.0 0.0 0.07698792 
0.0 0.0 0.0 0.0 0.0 0.07698792 
0.0 0.0 0.0 0.0 0.0 0.07698792 
0.0 0.0 0.0 0.0 0.0 0.07698792 
0.0 0.0 0.0 0.0 0.0 0.07698792 
0.0 0.0 0.0 0.0 0.0 0.07698792 
0.0 0.0 0.0 0.0 0.0 0.07698792 
0.0 0.0 0.0 0.0 0.0 0.07698792 
0.0 0.0 0.0 0.0 0.0 0.07698792 
0.0 0.0 0.0 0.0 0.0 0.07698792 
0.0 0.0 0.0 0.0 0.0 0.07698792 
0.0 0.0 0.0 0.0 0.0 0.07698792 
0.0 0.0 0.0 0.0 0.0 0.07698792 
0.0 0.0 0.0 0.0 0.0 0.07698792 
0.0 0.0 0.0 0.0 0.0 0.07698792 
0.0 0.0 0.0 0.0 0.0 0.07698792 
0.0 0.0 0.0 0.0 0.0 0.07698792 
0.0 0.0 0.0 0.0 0.0 0.07698792 
0.0 0.0 0.0 0.0 0.0 0.07698792 
0.0 0.0 0.0 0.0 0.0 0.07698792 
0.0 0.0 0.0 0.0 0.0 0.07698792 
0.0 0.0 0.0 0.0 0.0 0.07698792 
0.0 0.0 0.0 0.0 0.0 0.07698792 
0.0 0.0 0.0 0.0 0.0 0.07698792 
0.0 0.0 0.0 0.0 0.0 0.07698792 
0.0 0.0 0.0 0.0 0.0 0.07698792 
0.0 0.0 0.0 0.0 0.0 0.07698792 
0.0 0.0 0.0 0.0 0.0 0.07698792 
0.0 0.0 0.0 0.0 0.0 0.07698792 
0.0 0.0 0.0 0.0 0.0 0.07698792 
0.0 0.0 0.0 0.0 0.0 0.07698792 
0.0 0.0 0.0 0.0 0.0 0.07698792 
0.0 0.0 0.0 0.0 0.0 0.07698792 
0.0 0.0 0.0 0.0 0.0 0.07698792 
0.0 0.0 0.0 0.0 0.0 0.07698792 
0.0 0.0 0.0 0.0 0.0 0.07698792 
0.0 0.0 0.0 0.0 0.0 0.07698792 
0.0 0.0 0.0 0.0 0.0 0.07698792 
0.0 0.0 0.0 0.0 0.0 0.07698792 
0.0 0.0 0.0 0.0 0.0 0.07698792 
0.0 0.0 0.0 0.0 0.0 0.07698792 
0.0 0.0 0.0 0.0 0.0 0.07698792 
0.0 0.0 0.0 0.0 0.0 0.07698792 
0.0 0.0 0.0 0.0 0.0 0.07698792 
0.0 0.0 0.0 0.0 0.0 0.07698792 
0.0 0.0 0.0 0.0 0.0 0.07698792 
0.0 0.0 0.0 0.0 0.0 0.07698792 
0.0 0.0 0.0 0.0 0.0 0.07698792 
0.0 0.0 0.0 0.0 0.0 0.059263952 
0.0 0.019729767 0.0 0.0 0.0 0.016045671 
0.0 0.035374984 0.0 0.0 0.0 0.0 
0.0 0.045739945 0.0 0.0 0.0 0.0 
0.0 0.03583155 0.0 0.0 0.0 0.022574652 
0.0 0.0029589916 0.0 0.0 0.0 0.06656612 
0.0 0.0 0.0 0.0 0.0 0.07698792 
0.0 0.0 0.0 0.0 0.0 0.07698792 
0.0 0.0 0.0 0.0 0.0 0.07698792 
0.0 0.0 0.0 0.0 0.0 0.07698792 
0.0 0.0 0.0 0.0 0.0 0.050213415 
0.13415849 0.0 0.13474685 0.0 0.0 0.0 
0.13923024 0.18527266 0.053914167 0.0 0.0 0.0 
0.0 0.1812979 0.07644897 0.0 0.0 0.0 
0.0 0.21323016 0.07786264 0.0 0.0 0.0 
0.0 0.10676594 0.0 0.0 0.053107303 0.0 
0.0 0.0 0.0 0.0 0.0 0.07698792 
0.0 0.0 0.0 0.0 0.0 0.07698792 
0.0 0.0 0.0 0.0 0.0 0.07698792 
0.0 0.0 0.0 0.0 0.0 0.07698792 
0.0 0.0 0.0 0.0 0.0 0.07698792 
0.0 0.0 0.0 0.0 0.0 0.07698792 
0.0 0.0 0.0 0.0 0.0 0.07698792 
0.0 0.0 0.0 0.0 0.0 0.07698792 
0.0 0.0 0.0 0.0 0.0 0.07698792 
0.0 0.0 0.0 0.0 0.0 0.07698792 
0.0 0.0 0.0 0.0 0.0 0.07698792 
0.0 0.0 0.0 0.0 0.0 0.07698792 
0.08942819 0.0 0.08636748 0.0 0.0 0.011477917 
0.35490257 0.04461904 0.21378404 0.0 0.0 0.0 
0.22012904 0.32016796 0.14659637 0.0 0.0 0.0 
0.0 0.41976362 0.238935 0.0 0.0 0.0 
0.0 0.34420013 0.17391118 0.0 0.1413398 0.0 
0.0 0.12767506 0.0027103797 0.0 0.092497244 0.0 
0.0 0.0 0.0 0.0 0.0 0.07021375 
0.0 0.0 0.0 0.0 0.0 0.07698792 
0.0 0.0 0.0 0.0 0.0 0.07698792 
0.0 0.0 0.0 0.0 0.0 0.07698792 
0.07222919 0.0 0.03559851 0.0 0.0 0.036357038 
0.43197185 0.0 0.10415662 0.0 0.0 0.0 
0.4294557 0.25407746 0.19176438 0.0 0.0 0.0 
0.029601395 0.58058786 0.25222948 0.0 0.081883505 0.0 
0.0 0.59557676 0.42105705 0.0 0.27806765 0.0 
0.0 0.096116 0.09397169 0.0 0.3490734 0.0 
0.0 0.0 0.0 0.0 0.0 0.07698792 
0.0 0.0 0.0 0.0 0.0 0.07698792 
0.0 0.0 0.0 0.0 0.0 0.07698792 
0.0 0.0 0.0 0.0 0.0 0.07698792 
0.0 0.0 0.0 0.0 0.0 0.07698792 
0.0 0.0 0.0 0.0 0.0 0.07698792 
0.0 0.0 0.0 0.0 0.0 0.07698792 
0.0 0.0 0.0 0.0 0.0 0.07698792 
0.0 0.0 0.0 0.0 0.0 0.07698792 
0.0 0.0 0.0 0.0 0.0 0.07698792 
0.0 0.0 0.0 0.0 0.0 0.07698792 
0.0 0.0 0.0 0.0 0.0 0.07698792 
0.24024978 0.0 0.0 0.0 0.0 0.10044542 
0.74737304 0.0 0.1929076 0.0 0.0 0.0 
0.63206685 0.45074195 0.28110003 0.0 0.0 0.0 
0.0 0.9726671 0.5924869 0.0 0.23842572 0.0 
0.0 0.7962642 0.6865479 0.0 0.567022 0.0 
0.0 0.19707623 0.18457708 0.0 0.42636952 0.0 
0.0 0.009791671 0.0 0.0 0.0 0.055115074 
0.0 0.0 0.0 0.0 0.0 0.07698792 
0.0 0.0 0.0 0.0 0.0 0.07698792 
0.0 0.0 0.0 0.0 0.0 0.06756028 
0.28476202 0.0 0.02618561 0.0 0.0 0.07109552 
0.82275814 0.0 0.0 0.0 0.0 0.04444859 
0.4854225 0.3254552 0.15877879 0.0 0.12662442 0.0 
0.0 0.87330085 0.5058579 0.089811705 0.49705455 0.0 
0.0 0.7916717 0.8388158 0.0 0.7081706 0.0 
0.0 0.23639874 0.4002152 0.0 0.39313045 0.0 
0.0 0.0 0.0 0.0 0.0 0.07698792 
0.0 0.0 0.0 0.0 0.0 0.07698792 
0.0 0.0 0.0 0.0 0.0 0.07698792 
0.0 0.0 0.0 0.0 0.0 0.07698792 
0.0 0.0 0.0 0.0 0.0 0.07698792 
0.0 0.0 0.0 0.0 0.0 0.07698792 
0.0 0.0 0.0 0.0 0.0 0.07698792 
0.0 0.0 0.0 0.0 0.0 0.07698792 
0.0 0.0 0.0 0.0 0.0 0.07698792 
0.0 0.0 0.0 0.0 0.0 0.07698792 
0.0 0.0 0.0 0.0 0.0 0.07698792 
0.0 0.0 0.0 0.0 0.0 0.07698792 
0.46079206 0.0 0.0 0.047934327 0.0 0.3207351 
1.1407816 0.0 0.0 0.13635416 0.0 0.2446824 
0.7407289 0.48006895 0.14018273 0.21841684 0.25289378 0.0 
0.0 1.2295239 0.86107826 0.24434789 0.7145851 0.0 
0.0 1.230382 1.3760113 0.036123913 0.94134516 0.0 
0.0 0.43058088 0.59910226 0.0 0.6026007 0.0 
0.0 0.013496521 0.0 0.0 0.006703194 0.05508504 
0.0 0.0 0.0 0.0 0.0 0.07698792 
0.0 0.0 0.0 0.0 0.0 0.07698792 
0.0 0.0 0.0 0.0 0.0 0.07081826 
0.5478269 0.0 0.0 0.0053133788 0.0 0.252239 
1.1980073 0.0 0.0 0.2049601 0.0 0.3568612 
0.48580372 0.7249563 0.0 0.124559715 0.54948545 0.0 
0.0 1.2468551 0.6346246 0.26226535 0.7313492 0.0 
0.0 0.83312017 1.1179026 0.08015387 0.85372216 0.0 
0.0 0.3911396 0.6887892 0.18011475 0.26626223 0.038837083 
0.0 0.0 0.0 0.0 0.0 0.07698792 
0.0 0.0 0.0 0.0 0.0 0.07698792 
0.0 0.0 0.0 0.0 0.0 0.07698792 
0.0 0.0 0.0 0.0 0.0 0.07698792 
0.0 0.0 0.0 0.0 0.0 0.07698792 
0.0 0.0 0.0 0.0 0.0 0.07698792 
0.0 0.0 0.0 0.0 0.0 0.07698792 
0.0 0.0 0.0 0.0 0.0 0.07698792 
0.0 0.0 0.0 0.0 0.0 0.07698792 
0.0 0.0 0.0 0.0 0.0 0.07698792 
0.0 0.0 0.0 0.0 0.0 0.07698792 
0.0 0.0 0.0 0.0 0.0 0.06680607 
0.7123844 0.0 0.0 0.09475287 0.0 0.4877254 
1.5 0.0 0.0 0.26346514 0.061669167 0.74744415 
0.7291062 0.69036025 0.0 0.29374608 0.6911622 0.059713036 
0.0 1.4522146 0.6482006 0.46472266 0.96321946 0.0 
0.0 1.3068569 1.7340024 0.37677163 1.1022317 0.0 
0.0 0.52271813 0.99124265 0.17772448 0.5865593 0.0 
0.0 0.033395965 0.02851528 0.024639238 0.0 0.07218587 
0.0 0.0 0.0 0.0 0.0 0.07698792 
0.0 0.0 0.0 0.0 0.0 0.07698792 
0.0 0.0 0.0 0.0 0.0 0.09905525 
0.8259298 0.0 0.0 0.08036086 0.0 0.49660313 
1.4141514 0.0 0.0 0.109876305 0.46111825 0.5686839 
0.4123416 0.7826495 0.0 0.0702889 0.9350745 0.0072544813 
0.0 1.1845634 0.41358277 0.059334558 0.8975179 0.0 
0.0 0.7236292 1.0767089 0.0 0.97659 0.115685366 
0.0 0.09762721 0.6150826 0.04070744 0.28066462 0.08392158 
0.0 0.0 0.0 0.0 0.0 0.07698792 
0.0 0.0 0.0 0.0 0.0 0.07698792 
0.0 0.0 0.0 0.0 0.0 0.07698792 
0.0 0.0 0.0 0.0 0.0 0.07698792 
0.0 0.0 0.0 0.0 0.0 0.07698792 
0.0 0.0 0.0 0.0 0.0 0.07698792 
0.0 0.0 0.0 0.0 0.0 0.07698792 
0.0 0.0 0.0 0.0 0.0 0.07698792 
0.0 0.0 0.0 0.0 0.0 0.07698792 
0.0 0.0 0.0 0.0 0.0 0.07698792 
0.0 0.0 0.0 0.0 0.0 0.07698792 
0.0 0.0 0.0 0.0 0.0 0.0551047 
0.9728816 0.0 0.0 0.0 0.0 0.5391547 
1.761347 0.0 0.0 0.001269945 0.6510962 0.896017 
0.6610368 0.6936157 0.0 0.0 1.1338319 0.21067728 
0.0 1.255918 0.07659001 0.10545497 1.2312022 0.0038252175 
0.0 0.8629928 1.4130708 0.1242875 1.2607244 0.27786463 
0.0 0.29233178 1.0074457 0.20913216 0.45737252 0.12472346 
0.0 0.024709605 0.037074663 0.031433217 0.0 0.08552015 
0.0 0.0 0.0 0.0 0.0 0.07698792 
0.0 0.0 0.0 0.0 0.0 0.07698792 
0.07586847 0.0 0.0 0.0 0.0 0.11005224 
1.0767529 0.0 0.0 0.05410186 0.0 0.6366506 
1.3313854 0.0 0.0 0.0 0.70062137 0.585694 
0.18332681 0.80964565 0.0 0.024463803 0.95785373 0.0 
0.0 1.0543242 0.55102026 0.057243563 0.95879537 0.023550421 
0.0 0.5612695 1.1389714 0.0 0.9636105 0.14251521 
0.0 0.0076953517 0.3907562 0.029048331 0.16622083 0.091544226 
0.0 0.0 0.0 0.0 0.0 0.07698792 
0.0 0.0 0.0 0.0 0.0 0.07698792 
0.0 0.0 0.0 0.0 0.0 0.07698792 
0.0 0.0 0.0 0.0 0.0 0.07698792 
0.0 0.0 0.0 0.0 0.0 0.07698792 
0.0 0.0 0.0 0.0 0.0 0.07698792 
0.0 0.0 0.0 0.0 0.0 0.07698792 
0.0 0.0 0.0 0.0 0.0 0.07698792 
0.0 0.0 0.0 0.0 0.0 0.07698792 
0.0 0.0 0.0 0.0 0.0 0.07698792 
0.0 0.0 0.0 0.0 0.0 0.07698792 
0.10839787 0.0 0.017994143 0.0 0.0 0.06405385 
1.1878738 0.0 0.0 0.0 0.0 0.5023274 
1.6602063 0.0 0.0 0.0 0.80044484 0.62497467 
0.41820675 0.9260756 0.0 0.0 1.2317485 0.0 
0.0 1.2042077 0.16802162 0.0 1.2398192 0.0063887835 
0.0 0.60850084 1.1313696 0.0 1.1171205 0.24829602 
0.0 0.121731624 0.7131124 0.08799812 0.27680555 0.14699417 
0.0 0.0 0.0 0.0 0.0 0.08410535 
0.0 0.0 0.0 0.0 0.0 0.07698792 
0.0 0.0 0.0 0.0 0.0 0.074725285 
0.20200211 0.0 0.0 0.0 0.0 0.11915957 
1.3243277 0.0 0.0 0.0 0.0989479 0.64598566 
1.2167003 0.25882697 0.0 0.0 0.71716845 0.4075442 
0.0 0.94612706 0.0 0.0 0.9364077 0.0 
0.0 1.0134057 0.7002142 0.0 1.0073799 0.08757204 
0.0 0.43086556 1.158899 0.0 0.7991897 0.10410571 
0.0 0.03809918 0.2295481 0.061250906 0.032122288 0.10316687 
0.0 0.0 0.0 0.0 0.0 0.07698792 
0.0 0.0 0.0 0.0 0.0 0.07698792 
0.0 0.0 0.0 0.0 0.0 0.07698792 
0.0 0.0 0.0 0.0 0.0 0.07698792 
0.0 0.0 0.0 0.0 0.0 0.07698792 
0.0 0.0 0.0 0.0 0.0 0.07698792 
0.0 0.0 0.0 0.0 0.0 0.07698792 
0.0 0.0 0.0 0.0 0.0 0.07698792 
0.0 0.0 0.0 0.0 0.0 0.07698792 
0.0 0.0 0.0 0.0 0.0 0.07698792 
0.0 0.0 0.0 0.0 0.0 0.07698792 
0.26540738 0.0 0.0 0.0 0.0 0.15391447 
1.4241328 0.0 0.0 0.01147369 0.0 0.58845454 
1.4905941 0.21148707 0.0 0.0 0.87987256 0.39104733 
0.1015486 1.157354 0.0 0.0 1.1774095 0.0 
0.0 1.1649804 0.56279457 0.0 1.2360524 0.0 
0.0 0.5064527 1.0732054 0.0 0.97900623 0.12338734 
0.0 0.0 0.3778388 0.0 0.18244079 0.10466897 
0.0 0.0 0.0 0.0 0.0 0.07835772 
0.0 0.0 0.0 0.0 0.0 0.07698792 
0.0 0.0 0.0 0.0 0.0 0.069066234 
0.4097979 0.0 0.0 0.0 0.0 0.16372226 
1.5212715 0.0 0.0 0.0 0.10738079 0.5324652 
1.1252103 0.47706023 0.0 0.0 0.82281095 0.109282374 
0.0 1.1573038 0.0 0.0 0.9819831 0.0 
0.0 0.9939688 0.82911485 0.0 1.0950767 0.0 
0.0 0.3195883 1.0052115 0.0 0.7284042 0.054688077 
0.0 0.0 0.081585996 0.0 0.0 0.0942824 
0.0 0.0 0.0 0.0 0.0 0.07698792 
0.0 0.0 0.0 0.0 0.0 0.07698792 
0.0 0.0 0.0 0.0 0.0 0.07698792 
0.0 0.0 0.0 0.0 0.0 0.07698792 
0.0 0.0 0.0 0.0 0.0 0.07698792 
0.0 0.0 0.0 0.0 0.0 0.07698792 
0.0 0.0 0.0 0.0 0.0 0.07698792 
0.0 0.0 0.0 0.0 0.0 0.07698792 
0.0 0.0 0.0 0.0 0.0 0.07698792 
0.0 0.0 0.0 0.0 0.0 0.07698792 
0.0 0.0 0.0 0.0 0.0 0.07698792 
0.4542902 0.0 0.0 0.03107917 0.0 0.3248826 
1.6026452 0.0 0.0 0.088272765 0.17548476 0.75638604 
1.2468004 0.39696625 0.0 0.02991372 0.955213 0.29364324 
0.0 1.2354147 0.0 0.049218114 1.1417052 0.0 
0.0 1.1623236 1.0504463 0.0 1.2622894 0.0 
0.0 0.4323952 1.140313 0.0 0.8654508 0.06555383 
0.0 0.0 0.17156506 0.0 0.0740671 0.084145576 
0.0 0.0 0.0 0.0 0.0 0.07698792 
0.0 0.0 0.0 0.0 0.0 0.07698792 
0.0 0.0 0.0 0.0 0.0 0.08013008 
0.633514 0.0 0.0 0.024503108 0.0 0.34306318 
1.6904695 0.0 0.0 0.0 0.21308447 0.6155799 
0.9885126 0.7310004 0.0 0.0 0.8726885 0.0 
0.0 1.3456936 0.1761238 0.0 1.0442672 0.0 
0.0 1.087066 1.2053968 0.0 1.1993793 0.0 
0.0 0.2828821 0.9477147 0.0 0.6710736 0.0 
0.0 0.0 0.0 0.0 0.0 0.081899285 
0.0 0.0 0.0 0.0 0.0 0.07698792 
0.0 0.0 0.0 0.0 0.0 0.07698792 
0.0 0.0 0.0 0.0 0.0 0.07698792 
0.0 0.0 0.0 0.0 0.0 0.07698792 
0.0 0.0 0.0 0.0 0.0 0.07698792 
0.0 0.0 0.0 0.0 0.0 0.07698792 
0.0 0.0 0.0 0.0 0.0 0.07698792 
0.0 0.0 0.0 0.0 0.0 0.07698792 
0.0 0.0 0.0 0.0 0.0 0.07698792 
0.0 0.0 0.0 0.0 0.0 0.07698792 
0.0 0.0 0.0 0.0 0.0 0.07698792 
0.62272584 0.0 0.0 0.07339179 0.0 0.49147025 
1.7292843 0.0 0.0 0.080946 0.34907612 0.8981313 
1.1116433 0.5997272 0.0 0.05350817 0.9313615 0.20920618 
0.0 1.3291343 0.011455618 0.006415804 1.0951469 0.0 
0.0 1.2405995 1.410116 0.0 1.2183963 0.0 
0.0 0.43813848 1.1565056 0.0 0.7559338 0.0 
0.0 0.044563845 0.094480224 0.0 0.006297175 0.0682534 
0.0 0.0 0.0 0.0 0.0 0.07698792 
0.0 0.0 0.0 0.0 0.0 0.07698792 
0.010534443 0.0 0.0 0.0 0.0 0.096842565 
0.90210956 0.0 0.0 0.05737443 0.0 0.53754604 
1.8171034 0.0 0.0 0.062595166 0.36051676 0.7123773 
0.9855824 0.82777214 0.0 0.0 0.8536007 0.0 
0.0 1.573227 0.71361667 0.0 0.9474339 0.0 
0.0 1.4636298 1.7658032 0.0 1.1277548 0.0 
0.0 0.602877 1.1385013 0.0 0.633195 0.0 
0.0 0.2559953 0.09324912 0.0 0.048690278 0.0 
0.0 0.098349154 0.0 0.0 0.04494534 0.0 
0.0 0.0 0.0 0.0 0.0 0.07698792 
0.0 0.0 0.0 0.0 0.0 0.07698792 
0.0 0.0 0.0 0.0 0.0 0.07698792 
0.0 0.0 0.0 0.0 0.0 0.07698792 
0.0 0.0 0.0 0.0 0.0 0.07698792 
0.0 0.0 0.0 0.0 0.0 0.07698792 
0.0 0.0 0.0 0.0 0.0 0.07698792 
0.0 0.0 0.0 0.0 0.0 0.07698792 
0.0 0.0 0.0 0.0 0.0 0.07698792 
0.0 0.0 0.0 0.0 0.0 0.07698792 
0.7372034 0.0 0.0 0.033468757 0.0059449784 0.5860004 
1.7999835 0.0 0.0 0.017176416 0.4248279 0.96669686 
1.1862781 0.54005724 0.0 0.0 0.8186158 0.123947576 
0.0 1.4356279 0.095736764 0.0 1.0041171 0.0 
0.0 1.3709701 1.618534 0.0 1.2100486 0.0 
0.0 0.5843695 1.2190232 0.0 0.7885651 0.0 
0.0 0.10995131 0.09748068 0.0 0.12537225 0.0 
0.0 0.008133304 0.0 0.0 0.0 0.049065232 
0.0 0.0 0.0 0.0 0.0 0.035511535 
0.16354918 0.0 0.032570012 0.0 0.0 0.016780362 
1.2070339 0.0 0.0 0.0 0.0 0.5162123 
1.9588981 0.0 0.0 0.0 0.49826244 0.6645757 
1.1110294 0.9025915 0.0 0.0 0.7603532 0.0 
0.013316661 1.6001831 0.7180962 0.0 0.9727152 0.0 
0.0 1.605262 2.0948343 0.0 1.3197397 0.0 
0.0 1.0758624 1.410455 0.0 0.9084361 0.0 
0.0 0.47881082 0.3858333 0.0 0.46669874 0.0 
0.0 0.011920004 0.057653144 0.0 0.24501474 0.0 
0.0 0.0 0.0 0.0 0.0 0.07698792 
0.0 0.0 0.0 0.0 0.0 0.07698792 
0.0 0.0 0.0 0.0 0.0 0.07698792 
0.0 0.0 0.0 0.0 0.0 0.07698792 
0.0 0.0 0.0 0.0 0.0 0.07698792 
0.0 0.0 0.0 0.0 0.0 0.07698792 
0.0 0.0 0.0 0.0 0.0 0.07698792 
0.0 0.0 0.0 0.0 0.0 0.07698792 
0.0 0.0 0.0 0.0 0.0 0.07698792 
0.0 0.0 0.0 0.0 0.0 0.07698792 
0.7301048 0.0 0.0 0.029957347 0.09533338 0.6336617 
1.764718 0.0 0.0 0.053271305 0.48126057 1.0617402 
1.3239527 0.27671722 0.0 0.0 0.64104813 0.19373588 
0.31541678 1.2524278 0.40870413 0.0 0.8297946 0.0 
0.0 1.6290227 2.0282156 0.0 1.0933396 0.0 
0.0 1.1828163 1.872346 0.0 0.71481067 0.0 
0.0 0.58104366 0.72297096 0.0 0.14443633 0.0 
0.31950584 0.5252188 0.50613886 0.0 0.0 0.0 
0.38057914 0.5194134 0.5058515 0.0 0.0 0.0 
0.59487766 0.39565483 0.43462172 0.0 0.0 0.0 
1.5368047 0.0 0.0 0.0 0.17543572 0.0 
2.0430288 0.18245894 0.0 0.0 0.8576582 0.10101867 
1.0507634 0.98667985 0.0 0.0 1.2217225 0.0 
0.0 1.338376 0.57253516 0.009092667 1.687139 0.0 
0.0 1.5641607 2.006192 0.41658917 1.8187162 0.0 
0.0 1.0951583 1.6947476 0.45385376 1.3372625 0.0 
0.0 0.45757872 0.73886585 0.22573966 0.67229044 0.024272837 
0.0 0.17757864 0.27534428 0.1339685 0.11655401 0.05020197 
0.0 0.0 0.0 0.0 0.0 0.07698792 
0.0 0.0 0.0 0.0 0.0 0.07698792 
0.0 0.0 0.0 0.0 0.0 0.07698792 
0.0 0.0 0.0 0.0 0.0 0.07698792 
0.0 0.0 0.0 0.0 0.0 0.07698792 
0.0 0.0 0.0 0.0 0.0 0.07698792 
0.0 0.0 0.0 0.0 0.0 0.07698792 
0.0 0.0 0.0 0.0 0.0 0.07698792 
0.0 0.0 0.0 0.0 0.0 0.07698792 
0.0 0.0 0.0 0.0 0.0 0.07698792 
0.61059666 0.0 0.0 0.07941377 0.22371556 0.6651573 
1.5167732 0.0 0.0 0.2250176 0.5764751 1.2550912 
1.4196613 0.0 0.0 0.3139052 0.6458135 0.7346397 
0.6959817 0.8325077 0.08669344 0.30138847 0.68938506 0.0019347295 
0.0 1.4698148 2.089258 0.15774922 0.92065173 0.0 
0.0 1.536191 2.3752809 0.0 0.7435688 0.0 
0.1979239 1.2220482 1.4742771 0.0 0.3146108 0.0 
0.43747848 0.8983552 1.0053273 0.0 0.16012329 0.0 
0.56983864 0.9101431 0.93719816 0.0 0.120548725 0.0 
0.7313337 0.78768 0.8803878 0.0 0.28898308 0.0 
1.3244953 0.48188248 0.36510345 0.0 0.95670563 0.0 
1.4701838 0.7342878 0.0 0.0 1.6941824 0.022915442 
0.5727393 1.2750707 0.0 0.011309561 2.0897095 0.1181918 
0.0 1.7173804 0.357534 0.42260805 2.262284 0.3228543 
0.0 1.5980155 1.4588337 0.6498907 2.0238378 0.40613633 
0.0 0.96443915 1.4743611 0.6208997 1.1220077 0.3448679 
0.0 0.48279488 0.8769457 0.44045132 0.2987466 0.26377028 
0.0 0.18124913 0.35274118 0.18095085 0.00069639087 0.12320384 
0.0 0.0 0.0 0.0 0.0 0.07698792 
0.0 0.0 0.0 0.0 0.0 0.07698792 
0.0 0.0 0.0 0.0 0.0 0.07698792 
0.0 0.0 0.0 0.0 0.0 0.07698792 
0.0 0.0 0.0 0.0 0.0 0.07698792 
0.0 0.0 0.0 0.0 0.0 0.07698792 
0.0 0.0 0.0 0.0 0.0 0.07698792 
0.0 0.0 0.0 0.0 0.0 0.07698792 
0.0 0.0 0.0 0.0 0.0 0.07698792 
0.0 0.0 0.0 0.0 0.0 0.07698792 
0.45636398 0.0 0.0 0.051154777 0.31734467 0.5703927 
1.1890244 0.0 0.0 0.16716011 0.79109514 1.2996643 
1.2236476 0.0 0.0 0.49362344 0.8936259 1.3798976 
0.9047941 0.0047301194 0.0 0.7702339 1.06216 1.1568182 
0.2519454 0.7034833 0.90928316 1.2338521 1.1816572 0.71634895 
0.0 0.9066898 1.8657441 1.2677698 1.2805927 0.18994534 
0.0303507 0.88285786 1.5867006 1.0779594 1.214808 0.0 
0.2289182 0.750953 1.1020997 0.94983226 1.1972567 0.0 
0.18348926 0.6855987 0.91389763 1.0483532 1.3175687 0.03429985 
0.42809826 0.5768448 0.9496974 1.2217305 1.3889533 0.3227535 
1.0627944 0.57621884 0.5678344 1.0704571 1.762692 0.65096295 
1.0842388 1.0297168 0.0 0.82735795 2.2631586 0.7590782 
0.26175746 1.5612118 0.0 0.49960592 2.5647624 0.57693034 
0.0 1.6180719 0.13388494 0.08864384 2.617361 0.5798634 
0.0 1.0314087 0.6680858 0.037322227 1.8320081 0.6045024 
0.0 0.30365106 0.69668454 0.041513782 0.7936592 0.46626014 
0.0 0.07174514 0.44780016 0.032342143 0.23795225 0.29797867 
0.0 0.0 0.13971418 0.0 0.039533895 0.10372989 
0.0 0.0 0.0 0.0 0.0 0.07698792 
0.0 0.0 0.0 0.0 0.0 0.07698792 
0.0 0.0 0.0 0.0 0.0 0.07698792 
0.0 0.0 0.0 0.0 0.0 0.07698792 
0.0 0.0 0.0 0.0 0.0 0.07698792 
0.0 0.0 0.0 0.0 0.0 0.07698792 
0.0 0.0 0.0 0.0 0.0 0.07698792 
0.0 0.0 0.0 0.0 0.0 0.07698792 
0.0 0.0 0.0 0.0 0.0 0.07698792 
0.0 0.0 0.0 0.0 0.0 0.07698792 
0.25101465 0.0 0.0 0.0 0.26874724 0.36325368 
0.847419 0.0 0.0 0.0 0.78074545 1.0286613 
1.0670445 0.0 0.0 0.06962674 1.1297765 1.4672725 
0.841973 0.0 0.0 0.4898405 1.2956053 1.6168985 
0.36398327 0.084164545 0.0 1.004947 1.4823319 1.6457837 
0.09895666 0.57139474 0.35714215 1.6055833 1.5698655 1.540879 
0.11943124 0.77306515 0.66301227 1.8447675 1.5924059 1.4205165 
0.11621164 1.0125693 0.52285534 1.9129708 1.6071851 1.403683 
0.08382024 0.9613169 0.2955234 1.7816312 1.7075161 1.4309747 
0.49604738 0.61807793 0.22460854 1.5921572 1.531907 1.582824 
1.1854515 0.47202322 0.006049834 1.289831 1.5447598 1.5421987 
1.111176 1.0441903 0.0 0.86728114 1.9761261 1.1120276 
0.059819594 1.6516833 0.0 0.32209203 2.2777765 0.571223 
0.0 1.4729174 0.5930507 0.0 2.0644221 0.34875035 
0.0 0.5272132 0.7365043 0.0 1.3283842 0.3792261 
0.0 0.040643737 0.48225385 0.0 0.44502923 0.32190973 
0.0 0.0 0.1696333 0.0 0.09671296 0.14184153 
0.0 0.0 0.0 0.0 0.0 0.0806407 
0.0 0.0 0.0 0.0 0.0 0.07698792 
0.0 0.0 0.0 0.0 0.0 0.07698792 
0.0 0.0 0.0 0.0 0.0 0.07698792 
0.0 0.0 0.0 0.0 0.0 0.07698792 
0.0 0.0 0.0 0.0 0.0 0.07698792 
0.0 0.0 0.0 0.0 0.0 0.07698792 
0.0 0.0 0.0 0.0 0.0 0.07698792 
0.0 0.0 0.0 0.0 0.0 0.07698792 
0.0 0.0 0.0 0.0 0.0 0.07698792 
0.0 0.0 0.0 0.0 0.0 0.07698792 
0.059520245 0.0 0.0 0.0 0.13364941 0.16973883 
0.4325112 0.0 0.0 0.0 0.50128764 0.5227456 
0.74859774 0.0 0.0 0.0 0.90789884 1.0017922 
0.75377625 0.0 0.0 0.0 1.2442853 1.3609424 
0.61336774 0.0 0.0 0.0 1.4387769 1.6287837 
0.33892745 0.0 0.0 0.0 1.5761002 1.710746 
0.2634579 0.11914155 0.0 0.15983379 1.7110696 1.7305114 
0.22129205 0.21190771 0.0 0.14168218 1.7149105 1.7038045 
0.20957133 0.24296978 0.0 0.015479312 1.6297312 1.6198049 
0.75599676 0.0 0.0 0.0 1.2965169 1.7974 
1.4954431 0.0 0.0 0.0 1.2339516 1.68274 
1.0018892 0.47500035 0.0 0.0 1.7514777 0.8670094 
0.0 1.3234972 0.0 0.0 1.8450038 0.17467198 
0.0 1.2012461 1.1430452 0.0 1.6545042 0.08446145 
0.0 0.40416285 0.9856353 0.0 1.0003985 0.17742947 
0.0 0.0 0.3283139 0.0 0.19118029 0.14912488 
0.0 0.0 0.0 0.0 0.0 0.082543194 
0.0 0.0 0.0 0.0 0.0 0.07698792 
0.0 0.0 0.0 0.0 0.0 0.07698792 
0.0 0.0 0.0 0.0 0.0 0.07698792 
0.0 0.0 0.0 0.0 0.0 0.07698792 
0.0 0.0 0.0 0.0 0.0 0.07698792 
0.0 0.0 0.0 0.0 0.0 0.07698792 
0.0 0.0 0.0 0.0 0.0 0.07698792 
0.0 0.0 0.0 0.0 0.0 0.07698792 
0.0 0.0 0.0 0.0 0.0 0.07698792 
0.0 0.0 0.0 0.0 0.0 0.07698792 
0.0 0.0 0.0 0.0 0.0 0.07698792 
0.0 0.0 0.0 0.0 0.0 0.082557805 
0.09227508 0.0 0.0 0.0 0.19385527 0.18798694 
0.32782662 0.0 0.0 0.0 0.48934868 0.38654912 
0.41067687 0.0 0.0 0.0 0.7187118 0.53993934 
0.4133862 0.0 0.0 0.0 0.918085 0.7480015 
0.3056641 0.0 0.0 0.0 1.097068 0.8756911 
0.16669856 0.0 0.0 0.0 1.1208827 0.8646986 
0.12191245 0.0 0.0 0.0 1.0738996 0.8153061 
0.049055688 0.0 0.0 0.0 0.9744931 0.7005907 
0.8616497 0.0 0.0 0.0 0.71176815 1.032192 
1.7728918 0.0 0.0 0.0 0.9488235 1.1800301 
0.9672211 0.35718223 0.0 0.0 1.5074052 0.3737645 
0.0 1.2587743 0.0 0.0 1.5364064 0.0 
0.0 1.1346955 1.4661301 0.0 1.488907 0.0 
0.0 0.38005057 1.0776657 0.0 0.8207746 0.069710575 
0.0 0.0 0.15079725 0.0 0.0452249 0.09187865 
0.0 0.0 0.0 0.0 0.0 0.07698792 
0.0 0.0 0.0 0.0 0.0 0.07698792 
0.0 0.0 0.0 0.0 0.0 0.07698792 
0.0 0.0 0.0 0.0 0.0 0.07698792 
0.0 0.0 0.0 0.0 0.0 0.07698792 
0.0 0.0 0.0 0.0 0.0 0.07698792 
0.0 0.0 0.0 0.0 0.0 0.07698792 
0.0 0.0 0.0 0.0 0.0 0.07698792 
0.0 0.0 0.0 0.0 0.0 0.07698792 
0.0 0.0 0.0 0.0 0.0 0.07698792 
0.0 0.0 0.0 0.0 0.0 0.07698792 
0.0 0.0 0.0 0.0 0.0 0.07698792 
0.0 0.0 0.0 0.0 0.0 0.07698792 
0.0 0.0 0.0 0.0 0.0 0.07698792 
0.0 0.0 0.0 0.0 0.009839114 0.106693976 
0.01510255 0.0 0.0 0.0 0.07092108 0.1398436 
0.059672058 0.0 0.0 0.0 0.17334683 0.17955956 
0.048127614 0.0 0.0 0.0 0.19585516 0.2095724 
0.0 0.0 0.0 0.0 0.19901006 0.19553846 
0.0 0.0 0.0 0.0 0.1523862 0.19363603 
0.0 0.0 0.0 0.0 0.062765285 0.16295782 
0.9343528 0.0 0.0 0.0 0.07186949 0.724464 
1.9601018 0.0 0.0 0.01434352 0.58160543 0.97563535 
1.0019116 0.75195277 0.0 0.0 1.1432053 0.08338414 
0.0 1.5132195 0.22642529 0.0 1.3006244 0.0 
0.0 1.2403705 1.6850173 0.0 1.3972974 0.0 
0.0 0.37537858 1.0660028 0.0 0.73787254 0.0 
0.0 0.0067689223 0.046626516 0.0 0.0 0.07120113 
0.0 0.0 0.0 0.0 0.0 0.07698792 
0.0 0.0 0.0 0.0 0.0 0.07698792 
0.0 0.0 0.0 0.0 0.0 0.07698792 
0.0 0.0 0.0 0.0 0.0 0.07698792 
0.0 0.0 0.0 0.0 0.0 0.07698792 
0.0 0.0 0.0 0.0 0.0 0.07698792 
0.0 0.0 0.0 0.0 0.0 0.07698792 
0.0 0.0 0.0 0.0 0.0 0.07698792 
0.0 0.0 0.0 0.0 0.0 0.07698792 
0.0 0.0 0.0 0.0 0.0 0.07698792 
0.0 0.0 0.0 0.0 0.0 0.07698792 
0.0 0.0 0.0 0.0 0.0 0.07698792 
0.0 0.0 0.0 0.0 0.0 0.07698792 
0.0 0.0 0.0 0.0 0.0 0.07698792 
0.0 0.0 0.0 0.0 0.0 0.07698792 
0.0 0.0 0.0 0.0 0.0 0.07698792 
0.0 0.0 0.0 0.0 0.0 0.07698792 
0.0 0.0 0.0 0.0 0.0 0.07698792 
0.0 0.0 0.0 0.0 0.0 0.07698792 
0.0 0.0 0.0 0.0 0.0 0.07698792 
0.0 0.0 0.0 0.004495033 0.0 0.11735152 
1.0516441 0.0 0.0 0.040106576 0.06884909 0.76141727 
2.024377 0.0 0.0 0.033475157 0.565355 1.0079291 
1.0233591 0.7883808 0.0 0.0 1.0235746 0.020982176 
0.0 1.5948789 0.39339805 0.0 1.2304345 0.0 
0.0 1.3549688 1.8798596 0.0 1.3805108 0.0 
0.0 0.48113438 1.1165928 0.0 0.74645084 0.0 
0.0 0.041677188 0.020526119 0.0 0.05394632 0.019400533 
0.0 0.0 0.0 0.0 0.0 0.07698792 
0.0 0.0 0.0 0.0 0.0 0.07698792 
0.0 0.0 0.0 0.0 0.0 0.07698792 
0.0 0.0 0.0 0.0 0.0 0.07698792 
0.0 0.0 0.0 0.0 0.0 0.07698792 
0.0 0.0 0.0 0.0 0.0 0.07698792 
0.0 0.0 0.0 0.0 0.0 0.07698792 
0.0 0.0 0.0 0.0 0.0 0.07698792 
0.0 0.0 0.0 0.0 0.0 0.07698792 
0.0 0.0 0.0 0.0 0.0 0.07698792 
0.0 0.0 0.0 0.0 0.0 0.07698792 
0.0 0.0 0.0 0.0 0.0 0.07698792 
0.0 0.0 0.0 0.0 0.0 0.07698792 
0.0 0.0 0.0 0.0 0.0 0.07698792 
0.0 0.0 0.0 0.0 0.0 0.07698792 
0.0 0.0 0.0 0.0 0.0 0.07698792 
0.0 0.0 0.0 0.0 0.0 0.07698792 
0.0 0.0 0.0 0.0 0.0 0.07698792 
0.0 0.0 0.0 0.0 0.0 0.07698792 
0.0 0.0 0.0 0.0 0.0 0.07698792 
0.0006138012 0.0 0.0 0.0 0.0 0.1229214 
1.0895259 0.0 0.0 0.007559997 0.12626547 0.78763026 
2.0302505 0.0 0.0 0.03187385 0.6123827 1.0539885 
0.98513335 0.65837914 0.0 0.0 1.0398794 0.129367 
0.0 1.4710724 0.40864387 0.064062245 1.3078169 0.0 
0.0 1.3479954 1.9259299 0.023286413 1.4884719 0.0 
0.0 0.5405325 1.2203017 0.0 0.81802577 0.0 
0.0 0.015169921 0.059119374 0.0 0.12381238 0.030677766 
0.0 0.0 0.0 0.0 0.0 0.07698792 
0.0 0.0 0.0 0.0 0.0 0.07698792 
0.0 0.0 0.0 0.0 0.0 0.07698792 
0.0 0.0 0.0 0.0 0.0 0.07698792 
0.0 0.0 0.0 0.0 0.0 0.07698792 
0.0 0.0 0.0 0.0 0.0 0.07698792 
0.0 0.0 0.0 0.0 0.0 0.07698792 
0.0 0.0 0.0 0.0 0.0 0.07698792 
0.0 0.0 0.0 0.0 0.0 0.07698792 
0.0 0.0 0.0 0.0 0.0 0.07698792 
0.0 0.0 0.0 0.0 0.0 0.07698792 
0.0 0.0 0.0 0.0 0.0 0.07698792 
0.0 0.0 0.0 0.0 0.0 0.07698792 
0.0 0.0 0.0 0.0 0.0 0.07698792 
0.0 0.0 0.0 0.0 0.0 0.07698792 
0.0 0.0 0.0 0.0 0.0 0.07698792 
0.0 0.0 0.0 0.0 0.0 0.07698792 
0.0 0.0 0.0 0.0 0.0 0.07698792 
0.0 0.0 0.0 0.0 0.0 0.07698792 
0.0 0.0 0.0 0.0 0.0 0.07698792 
0.0 0.0 0.0 0.004120278 0.0 0.1293322 
0.90806836 0.0 0.0 0.12498495 0.2823922 0.90273005 
1.6276515 0.0 0.0 0.3716422 0.9068439 1.4616606 
0.76652837 0.3381469 0.0 0.5790441 1.2890631 0.8393883 
0.0 1.106754 0.078223415 0.7481276 1.3834149 0.5390837 
0.0 0.936043 1.7224593 0.6774455 1.3773297 0.40496975 
0.0 0.39005983 1.2199968 0.34497163 0.6599677 0.13763016 
0.0 0.1134743 0.16766724 0.09656763 0.029145103 0.07282386 
0.0 0.0 0.0 0.0 0.0 0.07698792 
0.0 0.0 0.0 0.0 0.0 0.07698792 
0.0 0.0 0.0 0.0 0.0 0.07698792 
0.0 0.0 0.0 0.0 0.0 0.07698792 
0.0 0.0 0.0 0.0 0.0 0.07698792 
0.0 0.0 0.0 0.0 0.0 0.07698792 
0.0 0.0 0.0 0.0 0.0 0.07698792 
0.0 0.0 0.0 0.0 0.0 0.07698792 
0.0 0.0 0.0 0.0 0.0 0.07698792 
0.0 0.0 0.0 0.0 0.0 0.07698792 
0.0 0.0 0.0 0.0 0.0 0.07698792 
0.0 0.0 0.0 0.0 0.0 0.07698792 
0.0 0.0 0.0 0.0 0.0 0.07698792 
0.0 0.0 0.0 0.0 0.0 0.07698792 
0.0 0.0 0.0 0.0 0.0 0.07698792 
0.0 0.0 0.0 0.0 0.0 0.07698792 
0.0 0.0 0.0 0.0 0.0 0.07698792 
0.0 0.0 0.0 0.0 0.0 0.07698792 
0.0 0.0 0.0 0.0 0.0 0.07698792 
0.0 0.0 0.0 0.0 0.0 0.07698792 
0.0 0.0 0.0 0.0036980016 0.0 0.12506531 
0.72854906 0.0 0.0 0.11370304 0.50497425 0.836899 
1.1581109 0.0 0.0 0.26290545 1.1318345 1.3641689 
0.32961598 0.221055 0.0 0.406553 1.2412905 0.9607871 
0.0 0.5121394 0.0 0.44619495 1.095938 0.86333597 
0.0 0.56810063 1.078131 0.53469175 0.75868565 0.6669559 
0.0 0.26110107 0.93043834 0.30821195 0.26983836 0.25893697 
0.0 0.064657375 0.16749755 0.07644597 0.0 0.1043946 
0.0 0.0 0.0 0.0 0.0 0.07698792 
0.0 0.0 0.0 0.0 0.0 0.07698792 
0.0 0.0 0.0 0.0 0.0 0.07698792 
0.0 0.0 0.0 0.0 0.0 0.07698792 
0.0 0.0 0.0 0.0 0.0 0.07698792 
0.0 0.0 0.0 0.0 0.0 0.07698792 
0.0 0.0 0.0 0.0 0.0 0.07698792 
0.0 0.0 0.0 0.0 0.0 0.07698792 
0.0 0.0 0.0 0.0 0.0 0.07698792 
0.0 0.0 0.0 0.0 0.0 0.07698792 
0.0 0.0 0.0 0.0 0.0 0.07698792 
0.0 0.0 0.0 0.0 0.0 0.07698792 
0.0 0.0 0.0 0.0 0.0 0.07698792 
0.0 0.0 0.0 0.0 0.0 0.07698792 
0.0 0.0 0.0 0.0 0.0 0.07698792 
0.0 0.0 0.0 0.0 0.0 0.07698792 
0.0 0.0 0.0 0.0 0.0 0.07698792 
0.0 0.0 0.0 0.0 0.0 0.07698792 
0.0 0.0 0.0 0.0 0.0 0.07698792 
0.0 0.0 0.0 0.0 0.0 0.07698792 
0.0 0.0 0.0 0.0 0.0 0.10722956 
0.43618858 0.0 0.0 0.0 0.41983715 0.5646243 
0.7253832 0.0 0.0 0.0 0.91028804 1.0211985 
0.22992834 0.08295466 0.0 0.0 0.82529527 0.8446246 
0.0 0.069912225 0.0 0.0 0.5074651 0.6895701 
0.0 0.0 0.24519795 0.0 0.3669726 0.4998014 
0.0 0.0 0.37732744 0.0 0.16544046 0.2234208 
0.0 0.0 0.034774475 0.0 0.0 0.08935623 
0.0 0.0 0.0 0.0 0.0 0.07698792 
0.0 0.0 0.0 0.0 0.0 0.07698792 
0.0 0.0 0.0 0.0 0.0 0.07698792 
0.0 0.0 0.0 0.0 0.0 0.07698792 
0.0 0.0 0.0 0.0 0.0 0.07698792 
0.0 0.0 0.0 0.0 0.0 0.07698792 
0.0 0.0 0.0 0.0 0.0 0.07698792 
0.0 0.0 0.0 0.0 0.0 0.07698792 
0.0 0.0 0.0 0.0 0.0 0.07698792 
0.0 0.0 0.0 0.0 0.0 0.07698792 
0.0 0.0 0.0 0.0 0.0 0.07698792 
0.0 0.0 0.0 0.0 0.0 0.07698792 
0.0 0.0 0.0 0.0 0.0 0.07698792 
0.0 0.0 0.0 0.0 0.0 0.07698792 
0.0 0.0 0.0 0.0 0.0 0.07698792 
0.0 0.0 0.0 0.0 0.0 0.07698792 
0.0 0.0 0.0 0.0 0.0 0.07698792 
0.0 0.0 0.0 0.0 0.0 0.07698792 
0.0 0.0 0.0 0.0 0.0 0.07698792 
0.0 0.0 0.0 0.0 0.0 0.07698792 
0.0 0.0 0.0 0.0 0.0 0.08750881 
0.17468539 0.0 0.0 0.0 0.31996688 0.24395029 
0.29891372 0.0 0.0 0.0 0.49895737 0.3521329 
0.058047518 0.0 0.0 0.0 0.31802806 0.24206087 
0.0 0.0 0.0 0.0 0.23779096 0.25828454 
0.0 0.0 0.0 0.0 0.20263578 0.21888869 
0.0 0.0 0.049435534 0.0 0.050356034 0.10321603 
0.0 0.0 0.0 0.0 0.0 0.07835772 
0.0 0.0 0.0 0.0 0.0 0.07698792 
0.0 0.0 0.0 0.0 0.0 0.07698792 
0.0 0.0 0.0 0.0 0.0 0.07698792 
0.0 0.0 0.0 0.0 0.0 0.07698792 
0.0 0.0 0.0 0.0 0.0 0.07698792 
0.0 0.0 0.0 0.0 0.0 0.07698792 
0.0 0.0 0.0 0.0 0.0 0.07698792 
0.0 0.0 0.0 0.0 0.0 0.07698792 
0.0 0.0 0.0 0.0 0.0 0.07698792 
0.0 0.0 0.0 0.0 0.0 0.07698792 
0.0 0.0 0.0 0.0 0.0 0.07698792 
0.0 0.0 0.0 0.0 0.0 0.07698792 
0.0 0.0 0.0 0.0 0.0 0.07698792 
0.0 0.0 0.0 0.0 0.0 0.07698792 
0.0 0.0 0.0 0.0 0.0 0.07698792 
0.0 0.0 0.0 0.0 0.0 0.07698792 
0.0 0.0 0.0 0.0 0.0 0.07698792 
0.0 0.0 0.0 0.0 0.0 0.07698792 
0.0 0.0 0.0 0.0 0.0 0.07698792 
0.0 0.0 0.0 0.0 0.0 0.07698792 
0.0 0.0 0.0 0.0 0.0 0.07698792 
0.0 0.0 0.0 0.0 0.0 0.07698792 
0.0 0.0 0.0 0.0 0.0 0.07698792 
0.0 0.0 0.0 0.0 0.0 0.07698792 
0.0 0.0 0.0 0.0 0.0 0.07698792 
0.0 0.0 0.0 0.0 0.0 0.07698792 
0.0 0.0 0.0 0.0 0.0 0.07698792 
0.0 0.0 0.0 0.0 0.0 0.07698792 
0.0 0.0 0.0 0.0 0.0 0.07698792 
0.0 0.0 0.0 0.0 0.0 0.07698792 
0.0 0.0 0.0 0.0 0.0 0.07698792 
0.0 0.0 0.0 0.0 0.0 0.07698792 
0.0 0.0 0.0 0.0 0.0 0.07698792 
0.0 0.0 0.0 0.0 0.0 0.07698792 
0.0 0.0 0.0 0.0 0.0 0.07698792 
0.0 0.0 0.0 0.0 0.0 0.07698792 
0.0 0.0 0.0 0.0 0.0 0.07698792 
0.0 0.0 0.0 0.0 0.0 0.07698792 
0.0 0.0 0.0 0.0 0.0 0.07698792 
0.0 0.0 0.0 0.0 0.0 0.07698792 
0.0 0.0 0.0 0.0 0.0 0.07698792 
0.0 0.0 0.0 0.0 0.0 0.07698792 
0.0 0.0 0.0 0.0 0.0 0.07698792 
0.0 0.0 0.0 0.0 0.0 0.07698792 
0.0 0.0 0.0 0.0 0.0 0.07698792 
0.0 0.0 0.0 0.0 0.0 0.07698792 
0.0 0.0 0.0 0.0 0.0 0.07698792 
0.0 0.0 0.0 0.0 0.0 0.07698792 
0.0 0.0 0.0 0.0 0.0 0.07698792 
0.0 0.0 0.0 0.0 0.0 0.07698792 
0.0 0.0 0.0 0.0 0.0 0.07698792 
0.0 0.0 0.0 0.0 0.0 0.07698792 
0.0 0.0 0.0 0.0 0.0 0.07698792 
0.0 0.0 0.0 0.0 0.0 0.07698792 
0.0 0.0 0.0 0.0 0.0 0.07698792 
0.0 0.0 0.0 0.0 0.0 0.07698792 
0.0 0.0 0.0 0.0 0.0 0.07698792 
0.0 0.0 0.0 0.0 0.0 0.07698792 
0.0 0.0 0.0 0.0 0.0 0.07698792 
0.0 0.0 0.0 0.0 0.0 0.07698792 
0.0 0.0 0.0 0.0 0.0 0.07698792 
0.0 0.0 0.0 0.0 0.0 0.07698792 
0.0 0.0 0.0 0.0 0.0 0.07698792 

