0.0 0.0 0.0 0.0 0.0 0.07698792 
0.0 0.0 0.0 0.0 0.0 0.07698792 
0.0 0.0 0.0 0.0 0.0 0.07698792 
0.0 0.0 0.0 0.0 0.0 0.07698792 
0.0 0.0 0.0 0.0 0.0 0.07698792 
0.0 0.0 0.0 0.0 0.0 0.07698792 
0.0 0.0 0.0 0.0 0.0 0.07698792 
0.0 0.0 0.0 0.0 0.0 0.07698792 
0.0 0.0 0.0 0.0 0.0 0.07698792 
0.0 0.0 0.0 0.0 0.0 0.07698792 
0.0 0.0 0.0 0.0 0.0 0.07698792 
0.0 0.0 0.010789037 0.0 0.0 0.044933937 
0.0946431 0.015547338 0.07272979 0.0 0.0 0.0 
0.21465376 0.052301437 0.2315059 0.0 0.0 0.0 
0.3351397 0.26055935 0.31541118 0.0 0.0 0.0 
0.16803662 0.4437155 0.26119864 0.0 0.0 0.0 
0.0 0.44718444 0.22769633 0.0 0.0 0.0 
0.0 0.34841433 0.13494891 0.0 0.08236265 0.0 
0.0 0.14912184 0.007786125 0.0 0.057733852 0.0 
0.0 0.016425837 0.0 0.0 0.0 0.054059952 
0.0 0.0 0.0 0.0 0.0 0.07698792 
0.0 0.0 0.0 0.0 0.0 0.07698792 
0.0 0.0 0.0 0.0 0.0 0.07698792 
0.0 0.0 0.0 0.0 0.0 0.07698792 
0.0 0.0 0.0 0.0 0.0 0.07698792 
0.0 0.0 0.0 0.0 0.0 0.07698792 
0.0 0.0 0.0 0.0 0.0 0.07698792 
0.0 0.0 0.0 0.0 0.0 0.07698792 
0.0 0.0 0.0 0.0 0.0 0.07698792 
0.0 0.0 0.0 0.0 0.0 0.07698792 
0.0 0.0 0.0 0.0 0.0 0.07698792 
0.0 0.0 0.0 0.0 0.0 0.07698792 
0.0 0.0 0.0 0.0 0.0 0.07698792 
0.0 0.0 0.0 0.0 0.0 0.07698792 
0.0 0.0 0.0 0.0 0.0 0.07698792 
0.0 0.0 0.0 0.0 0.0 0.07698792 
0.0 0.0 0.0 0.0 0.0 0.07698792 
0.0 0.0 0.0 0.0 0.0 0.07698792 
0.0 0.0 0.0 0.0 0.0 0.056247108 
0.19773257 0.0 0.1246605 0.0 0.0 0.0 
0.525657 0.016591698 0.2521674 0.0 0.0 0.0 
0.71561456 0.17357466 0.33432958 0.0 0.0 0.0 
0.76542276 0.5684955 0.612753 0.0 0.0 0.0 
0.38953543 0.99228805 0.70118 0.0 0.19481133 0.0 
0.0 1.1353679 0.7181843 0.0 0.48983333 0.0 
0.0 0.7182809 0.572582 0.0 0.613734 0.0 
0.0 0.21703099 0.1953165 0.0 0.38060662 0.0 
0.0 0.026646104 0.0 0.0 0.04115421 0.027287647 
0.0 0.0 0.0 0.0 0.0 0.07698792 
0.0 0.0 0.0 0.0 0.0 0.07698792 
0.0 0.0 0.0 0.0 0.0 0.07698792 
0.0 0.0 0.0 0.0 0.0 0.07698792 
0.0 0.0 0.0 0.0 0.0 0.07698792 
0.0 0.0 0.0 0.0 0.0 0.07698792 
0.0 0.0 0.0 0.0 0.0 0.07698792 
0.0 0.0 0.0 0.0 0.0 0.07698792 
0.0 0.0 0.0 0.0 0.0 0.07698792 
0.0 0.0 0.0 0.0 0.0 0.07698792 
0.0 0.0 0.0 0.0 0.0 0.07698792 
0.0 0.0 0.0 0.0 0.0 0.07698792 
0.0 0.0 0.0 0.0 0.0 0.07698792 
0.0 0.0 0.0 0.0 0.0 0.07698792 
0.0 0.0 0.0 0.0 0.0 0.07698792 
0.0 0.0 0.0 0.0 0.0 0.07698792 
0.0 0.0 0.0 0.0 0.0 0.07698792 
0.0 0.0 0.0 0.0 0.0 0.06265791 
0.14894925 0.0 0.11606591 0.0 0.0 0.0 
0.64241016 0.0 0.105920814 0.0 0.0 0.0 
1.0164952 0.0 0.23325872 0.0 0.0 0.0 
1.121486 0.27301097 0.22836778 0.0 0.0 0.0 
0.5885787 0.7669366 0.627601 0.0 0.6588284 0.0 
0.0 1.1241025 0.9848503 0.3482881 1.2797736 0.0 
0.0 1.1507677 1.1528786 0.5338898 1.3176033 0.0 
0.0 0.8539995 1.101401 0.44887874 0.9126183 0.0 
0.0 0.35248962 0.5467774 0.1429965 0.42584926 0.0 
0.0 0.03285932 0.04973317 0.0 0.06073815 0.051399507 
0.0 0.0 0.0 0.0 0.0 0.07698792 
0.0 0.0 0.0 0.0 0.0 0.07698792 
0.0 0.0 0.0 0.0 0.0 0.07698792 
0.0 0.0 0.0 0.0 0.0 0.07698792 
0.0 0.0 0.0 0.0 0.0 0.07698792 
0.0 0.0 0.0 0.0 0.0 0.07698792 
0.0 0.0 0.0 0.0 0.0 0.07698792 
0.0 0.0 0.0 0.0 0.0 0.07698792 
0.0 0.0 0.0 0.0 0.0 0.07698792 
0.0 0.0 0.0 0.0 0.0 0.07698792 
0.0 0.0 0.0 0.0 0.0 0.07698792 
0.0 0.0 0.0 0.0 0.0 0.07698792 
0.0 0.0 0.0 0.0 0.0 0.07698792 
0.0 0.0 0.0 0.0 0.0 0.07698792 
0.0 0.0 0.0 0.0 0.0 0.07698792 
0.0 0.0 0.0 0.0 0.0 0.07698792 
0.0 0.0 0.0 0.0 0.0 0.07698792 
0.09990591 0.0 0.11042499 0.0 0.0 0.0 
0.58045757 0.0 0.11196283 0.0 0.0 0.0 
1.2021463 0.0 0.09208421 0.0 0.0 0.0 
1.4601152 0.2612023 0.004094988 0.0 0.06815602 0.0 
0.8544061 1.0423331 0.160032 0.3171706 1.1042554 0.0 
0.04437173 1.4187313 0.4028981 0.74046886 1.8939599 0.25899154 
0.0 1.556933 0.8558541 1.0107042 1.8525342 0.43406904 
0.0 1.1069161 1.0515677 0.9836543 1.2270826 0.43878102 
0.0 0.7756138 1.2127995 0.83384657 0.5403237 0.3757629 
0.0 0.40631405 0.74160135 0.41089347 0.18335553 0.18503618 
0.0 0.088812366 0.12429995 0.08604282 0.0 0.08499138 
0.0 0.0 0.0 0.0 0.0 0.07698792 
0.0 0.0 0.0 0.0 0.0 0.07698792 
0.0 0.0 0.0 0.0 0.0 0.07698792 
0.0 0.0 0.0 0.0 0.0 0.07698792 
0.0 0.0 0.0 0.0 0.0 0.07698792 
0.0 0.0 0.0 0.0 0.0 0.07698792 
0.0 0.0 0.0 0.0 0.0 0.07698792 
0.0 0.0 0.0 0.0 0.0 0.07698792 
0.0 0.0 0.0 0.0 0.0 0.07698792 
0.0 0.0 0.0 0.0 0.0 0.07698792 
0.0 0.0 0.0 0.0 0.0 0.07698792 
0.0 0.0 0.0 0.0 0.0 0.07698792 
0.0 0.0 0.0 0.0 0.0 0.07698792 
0.0 0.0 0.0 0.0 0.0 0.07698792 
0.0 0.0 0.0 0.0 0.0 0.07698792 
0.0 0.0 0.0 0.0 0.0 0.07698792 
0.0 0.0 0.0 0.0 0.0 0.07698792 
0.26271993 0.0 0.0 0.0 0.0 0.08747304 
1.1007652 0.0 0.01646059 0.0 0.0 0.12632196 
1.7076385 0.0 0.0 0.08138408 0.061540175 0.15909874 
1.3502209 0.8441682 0.0 0.34182385 1.1671124 0.13334864 
0.25473344 1.476684 0.0 0.24921402 2.4056108 0.3352188 
0.0 1.5154799 0.0 0.35876623 2.5397356 0.85195005 
0.0 1.006102 0.053918265 0.22794668 1.8437701 0.99117094 
0.0 0.46250916 0.12417816 0.08258252 0.8797911 0.7402029 
0.0 0.10356525 0.41589522 0.019850958 0.36798343 0.4843991 
0.0 0.0041282373 0.41624522 0.04966519 0.121851295 0.2170134 
0.0 0.008272021 0.08260734 0.026633777 0.0 0.09696958 
0.0 0.0 0.0 0.0 0.0 0.07698792 
0.0 0.0 0.0 0.0 0.0 0.07698792 
0.0 0.0 0.0 0.0 0.0 0.07698792 
0.0 0.0 0.0 0.0 0.0 0.07698792 
0.0 0.0 0.0 0.0 0.0 0.07698792 
0.0 0.0 0.0 0.0 0.0 0.07698792 
0.0 0.0 0.0 0.0 0.0 0.07698792 
0.0 0.0 0.0 0.0 0.0 0.07698792 
0.0 0.0 0.0 0.0 0.0 0.07698792 
0.0 0.0 0.0 0.0 0.0 0.07698792 
0.0 0.0 0.0 0.0 0.0 0.07698792 
0.0 0.0 0.0 0.0 0.0 0.07698792 
0.0 0.0 0.0 0.0 0.0 0.07698792 
0.0 0.0 0.0 0.0 0.0 0.07698792 
0.0 0.0 0.0 0.0 0.0 0.07698792 
0.0 0.0 0.0 0.0 0.0 0.07698792 
0.0 0.0 0.0 0.0 0.0 0.06265791 
0.5600363 0.0 0.0 0.0067469226 0.0 0.28554496 
1.5231035 0.0 0.0 0.20955682 0.0 0.44672188 
1.8545084 0.03405706 0.0 0.26123443 0.9310155 0.458422 
0.943227 1.2838315 0.0 0.37121418 1.9961938 0.41171026 
0.0 1.5999489 0.0 0.02485646 2.6152694 0.36866257 
0.0 1.0305132 0.22123444 0.0 2.156412 0.68433875 
0.0 0.19861716 0.17446265 0.0 1.2646741 0.64642596 
0.0 0.0 0.0 0.0 0.48167148 0.39392743 
0.0 0.0 0.0 0.0 0.21754925 0.23376754 
0.0 0.0 0.023357533 0.0 0.071518764 0.13321511 
0.0 0.0 0.0 0.0 0.0 0.0819344 
0.0 0.0 0.0 0.0 0.0 0.07698792 
0.0 0.0 0.0 0.0 0.0 0.07698792 
0.0 0.0 0.0 0.0 0.0 0.07698792 
0.0 0.0 0.0 0.0 0.0 0.07698792 
0.0 0.0 0.0 0.0 0.0 0.07698792 
0.0 0.0 0.0 0.0 0.0 0.07698792 
0.0 0.0 0.0 0.0 0.0 0.07698792 
0.0 0.0 0.0 0.0 0.0 0.07698792 
0.0 0.0 0.0 0.0 0.0 0.07698792 
0.0 0.0 0.0 0.0 0.0 0.07698792 
0.0 0.0 0.0 0.0 0.0 0.07698792 
0.0 0.0 0.0 0.0 0.0 0.07698792 
0.0 0.0 0.0 0.0 0.0 0.07698792 
0.0 0.0 0.0 0.0 0.0 0.07698792 
0.0 0.0 0.0 0.0 0.0 0.07698792 
0.0 0.0 0.0 0.0 0.0 0.07698792 
0.072192565 0.0 0.075893246 0.0 0.0 0.016006887 
0.99980515 0.0 0.0 0.0123594375 0.0 0.3674377 
1.9237423 0.0 0.0 0.0 0.3018392 0.6726836 
1.7425427 0.5949848 0.0 0.0 1.3375195 0.36776328 
0.39039078 1.5656037 0.0 0.0 2.1552536 0.23159255 
0.0 1.6681653 0.54264486 0.0 2.1354005 0.21408775 
0.0 0.69984484 0.872872 0.0 1.406231 0.359093 
0.0 0.12903401 0.604879 0.0 0.535277 0.30765527 
0.0 0.0 0.16116554 0.0 0.09689428 0.14575046 
0.0 0.0 0.0 0.0 0.0 0.090453885 
0.0 0.0 0.0 0.0 0.0 0.07828162 
0.0 0.0 0.0 0.0 0.0 0.07698792 
0.0 0.0 0.0 0.0 0.0 0.07698792 
0.0 0.0 0.0 0.0 0.0 0.07698792 
0.0 0.0 0.0 0.0 0.0 0.07698792 
0.0 0.0 0.0 0.0 0.0 0.07698792 
0.0 0.0 0.0 0.0 0.0 0.07698792 
0.0 0.0 0.0 0.0 0.0 0.07698792 
0.0 0.0 0.0 0.0 0.0 0.07698792 
0.0 0.0 0.0 0.0 0.0 0.07698792 
0.0 0.0 0.0 0.0 0.0 0.07698792 
0.0 0.0 0.0 0.0 0.0 0.07698792 
0.0 0.0 0.0 0.0 0.0 0.07698792 
0.0 0.0 0.0 0.0 0.0 0.07698792 
0.0 0.0 0.0 0.0 0.0 0.07698792 
0.0 0.0 0.0 0.0 0.0 0.07698792 
0.0 0.0 0.0 0.0 0.0 0.07698792 
0.0 0.0 0.0 0.0 0.0 0.07698792 
0.2506221 0.0 0.036477216 0.0 0.0 0.0680069 
1.4737539 0.0 0.0 0.0 0.0 0.4575555 
2.1195393 0.0 0.0 0.0 0.72658473 0.67925715 
1.2286067 0.8827349 0.0 0.0 1.6921159 0.22107042 
0.0 1.5306567 0.0 0.0 2.2844985 0.14478359 
0.0 1.250076 1.0513223 0.0 1.8252966 0.24551225 
0.0 0.41789 1.0283022 0.0 1.0504116 0.2953005 
0.0 0.0 0.4533348 0.0 0.28263506 0.16543502 
0.0 0.0 0.0 0.0 0.0 0.08406519 
0.0 0.0 0.0 0.0 0.0 0.07698792 
0.0 0.0 0.0 0.0 0.0 0.07698792 
0.0 0.0 0.0 0.0 0.0 0.07698792 
0.0 0.0 0.0 0.0 0.0 0.07698792 
0.0 0.0 0.0 0.0 0.0 0.07698792 
0.0 0.0 0.0 0.0 0.0 0.07698792 
0.0 0.0 0.0 0.0 0.0 0.07698792 
0.0 0.0 0.0 0.0 0.0 0.07698792 
0.0 0.0 0.0 0.0 0.0 0.07698792 
0.0 0.0 0.0 0.0 0.0 0.07698792 
0.0 0.0 0.0 0.0 0.0 0.07698792 
0.0 0.0 0.0 0.0 0.0 0.07698792 
0.0 0.0 0.0 0.0 0.0 0.07698792 
0.0 0.0 0.0 0.0 0.0 0.07698792 
0.0 0.0 0.0 0.0 0.0 0.07698792 
0.0 0.0 0.0 0.0 0.0 0.07698792 
0.0 0.0 0.0 0.0 0.0 0.07698792 
0.0 0.0 0.0 0.0 0.0 0.07698792 
0.0 0.0 0.017213546 0.0 0.0 0.04191709 
0.5914857 0.0 0.0 0.0 0.0 0.17956613 
1.7074032 0.0 0.0 0.0 0.021244083 0.47397894 
1.9951582 0.102445066 0.0 0.030682486 1.1384844 0.49627146 
0.5917683 1.328057 0.0 0.034559797 1.9345064 0.14916876 
0.0 1.607747 0.2653282 0.018949807 2.1153424 0.051382095 
0.0 0.9060779 1.2788191 0.10513264 1.5160503 0.33026513 
0.0 0.30609217 1.0275124 0.17073426 0.6430497 0.2678092 
0.0 0.0 0.2747223 0.040499642 0.06561057 0.10578819 
0.0 0.0 0.0 0.0 0.0 0.07698792 
0.0 0.0 0.0 0.0 0.0 0.07698792 
0.0 0.0 0.0 0.0 0.0 0.07698792 
0.0 0.0 0.0 0.0 0.0 0.07698792 
0.0 0.0 0.0 0.0 0.0 0.07698792 
0.0 0.0 0.0 0.0 0.0 0.07698792 
0.0 0.0 0.0 0.0 0.0 0.07698792 
0.0 0.0 0.0 0.0 0.0 0.07698792 
0.0 0.0 0.0 0.0 0.0 0.07698792 
0.0 0.0 0.0 0.0 0.0 0.07698792 
0.0 0.0 0.0 0.0 0.0 0.07698792 
0.0 0.0 0.0 0.0 0.0 0.07698792 
0.0 0.0 0.0 0.0 0.0 0.07698792 
0.0 0.0 0.0 0.0 0.0 0.07698792 
0.0 0.0 0.0 0.0 0.0 0.07698792 
0.0 0.0 0.0 0.0 0.0 0.07698792 
0.0 0.0 0.0 0.0 0.0 0.07698792 
0.0 0.0 0.0 0.0 0.0 0.07698792 
0.0 0.0 0.0 0.0 0.0 0.07698792 
0.09953727 0.0 0.042731725 0.0 0.0 0.033959664 
1.045413 0.0 0.0 0.014280287 0.0 0.3632939 
1.9504678 0.0 0.0 0.0 0.33990368 0.6289725 
1.5842614 0.7051156 0.0 0.072703496 1.477284 0.3509839 
0.012640521 1.6298367 0.0 0.0 2.0766344 0.17487195 
0.0 1.5867654 0.79637045 0.04626572 1.8779193 0.21854323 
0.0 0.6081432 1.1269004 0.0 1.1759757 0.39164382 
0.0 0.12503363 0.73904145 0.12373501 0.3050576 0.23165153 
0.0 0.0 0.09874339 0.011071683 0.0 0.09896907 
0.0 0.0 0.0 0.0 0.0 0.07698792 
0.0 0.0 0.0 0.0 0.0 0.07698792 
0.0 0.0 0.0 0.0 0.0 0.07698792 
0.0 0.0 0.0 0.0 0.0 0.07698792 
0.0 0.0 0.0 0.0 0.0 0.07698792 
0.0 0.0 0.0 0.0 0.0 0.07698792 
0.0 0.0 0.0 0.0 0.0 0.07698792 
0.0 0.0 0.0 0.0 0.0 0.07698792 
0.0 0.0 0.0 0.0 0.0 0.07698792 
0.0 0.0 0.0 0.0 0.0 0.07698792 
0.0 0.0 0.0 0.0 0.0 0.07698792 
0.0 0.0 0.0 0.0 0.0 0.07698792 
0.0 0.0 0.0 0.0 0.0 0.07698792 
0.0 0.0 0.0 0.0 0.0 0.07698792 
0.0 0.0 0.0 0.0 0.0 0.07698792 
0.0 0.0 0.0 0.0 0.0 0.07698792 
0.0 0.0 0.0 0.0 0.0 0.07698792 
0.0 0.0 0.0 0.0 0.0 0.07698792 
0.0 0.0 0.0 0.0 0.0 0.07698792 
0.2593565 0.0 0.0 0.0 0.0 0.14934729 
1.4220376 0.0 0.0 0.058347058 0.0 0.5659511 
2.0875354 0.0 0.0 0.037792113 0.7968181 0.7462684 
1.0683215 1.0327917 0.0 0.0 1.7602764 0.22970097 
0.0 1.5884825 0.0 0.0 2.1389 0.060533196 
0.0 1.1748567 1.1294363 0.0 1.6763843 0.20702761 
0.0 0.31523728 0.9236795 0.0 0.90663165 0.2633493 
0.0 0.0 0.3410669 0.0 0.14878158 0.15180537 
0.0 0.0 0.0 0.0 0.0 0.06965459 
0.0 0.0 0.0 0.0 0.0 0.06352301 
0.0 0.0 0.0 0.0 0.0 0.07229811 
0.0 0.0 0.0 0.0 0.0 0.07698792 
0.0 0.0 0.0 0.0 0.0 0.07698792 
0.0 0.0 0.0 0.0 0.0 0.07698792 
0.0 0.0 0.0 0.0 0.0 0.07698792 
0.0 0.0 0.0 0.0 0.0 0.07698792 
0.0 0.0 0.0 0.0 0.0 0.07698792 
0.0 0.0 0.0 0.0 0.0 0.07698792 
0.0 0.0 0.0 0.0 0.0 0.07698792 
0.0 0.0 0.0 0.0 0.0 0.07698792 
0.0 0.0 0.0 0.0 0.0 0.07698792 
0.0 0.0 0.0 0.0 0.0 0.07698792 
0.0 0.0 0.0 0.0 0.0 0.07698792 
0.0 0.0 0.0 0.0 0.0 0.07698792 
0.0 0.0 0.0 0.0 0.0 0.07698792 
0.0 0.0 0.0 0.0 0.0 0.07698792 
0.0 0.0 0.0 0.0 0.0 0.07698792 
0.0 0.0 0.0 0.0 0.0 0.07698792 
0.40463322 0.0 0.0 0.10544698 0.0 0.37120873 
1.5512834 0.0 0.0 0.15719293 0.20061024 0.8539987 
1.965368 0.0 0.0 0.24999774 1.0737063 0.86292154 
0.61325806 1.2080768 0.0 0.13448726 1.7076694 0.27066594 
0.0 1.6305186 0.43387288 0.01970702 1.822825 0.005562097 
0.0 0.9419518 1.4483659 0.0 1.3924761 0.18521309 
0.0 0.20673591 1.0537964 0.0 0.49903825 0.055936277 
0.09529531 0.027596492 0.30038828 0.0 0.0 0.0 
0.18210664 0.1805702 0.21671659 0.0 0.0 0.0 
0.21655107 0.31470257 0.33348683 0.0 0.0 0.0 
0.20079589 0.391462 0.3401432 0.0 0.0 0.0 
0.14599432 0.42197508 0.27858812 0.0 0.0 0.0 
0.0063546896 0.40938655 0.18947801 0.0 0.0 0.0 
0.0 0.29541954 0.11382993 0.0 0.039876487 0.0 
0.0 0.1598773 0.02349148 0.0 0.035030093 0.0 
0.0 0.038870584 0.0 0.0 0.0 0.033216346 
0.0 0.0 0.0 0.0 0.0 0.07698792 
0.0 0.0 0.0 0.0 0.0 0.07698792 
0.0 0.0 0.0 0.0 0.0 0.07698792 
0.0 0.0 0.0 0.0 0.0 0.07698792 
0.0 0.0 0.0 0.0 0.0 0.07698792 
0.0 0.0 0.0 0.0 0.0 0.07698792 
0.0 0.0 0.0 0.0 0.0 0.07698792 
0.0 0.0 0.0 0.0 0.0 0.07698792 
0.0 0.0 0.0 0.0 0.0 0.07698792 
0.0 0.0 0.0 0.0 0.0 0.07698792 
0.0 0.0 0.0 0.0 0.0 0.07698792 
0.0 0.0 0.0 0.0 0.0 0.07434818 
0.5801999 0.0 0.0 0.069481246 0.0 0.4893129 
1.6596622 0.0 0.0 0.055285644 0.36799166 0.9606265 
1.7404776 0.03075689 0.0 0.047654044 1.1470249 0.76380795 
0.41901684 1.2303538 0.0 0.0 1.555334 0.14849067 
0.0 1.5440603 0.8759335 0.0 1.5872691 0.0 
0.0 0.7506863 1.5440526 0.0 1.1469392 0.07497587 
0.0 0.052162796 0.9621141 0.0 0.082987815 0.0 
0.63884884 0.030463755 0.3543499 0.0 0.0 0.0 
0.73259455 0.44077864 0.49413407 0.0 0.0 0.0 
0.58242124 0.8131425 0.8105501 0.0 0.0 0.0 
0.42746338 0.85704297 0.8983736 0.0 0.037586216 0.0 
0.3960614 0.9688864 0.92608726 0.0 0.095713854 0.0 
0.16229929 1.0859196 0.9422961 0.0 0.23428293 0.0 
0.0 1.0357132 0.6920794 0.0 0.375699 0.0 
0.0 0.6298828 0.4520619 0.0 0.37004557 0.0 
0.0 0.3262223 0.16762584 0.0 0.2091902 0.0 
0.0 0.11518272 0.0 0.0 0.061269257 0.0 
0.0 0.0 0.0 0.0 0.0 0.07698792 
0.0 0.0 0.0 0.0 0.0 0.07698792 
0.0 0.0 0.0 0.0 0.0 0.07698792 
0.0 0.0 0.0 0.0 0.0 0.07698792 
0.0 0.0 0.0 0.0 0.0 0.07698792 
0.0 0.0 0.0 0.0 0.0 0.07698792 
0.0 0.0 0.0 0.0 0.0 0.07698792 
0.0 0.0 0.0 0.0 0.0 0.07698792 
0.0 0.0 0.0 0.0 0.0 0.07698792 
0.0 0.0 0.0 0.0 0.0 0.07698792 
0.0 0.0 0.0 0.0 0.0 0.06969433 
0.704048 0.0 0.0 0.0 0.0 0.44400817 
1.8331971 0.0 0.0 0.0 0.3724405 0.8840984 
1.587779 0.22549435 0.0 0.0 1.093055 0.5397863 
0.17590448 1.2824867 0.0 0.0 1.4575288 0.0 
0.0 1.3853253 1.0464553 0.0 1.5693631 0.0 
0.0 0.5563841 1.3779811 0.0 0.9873648 0.1899777 
0.178828 0.0 0.58352375 0.069548 0.015954006 0.2188777 
1.0734627 0.0 0.062713966 0.07777676 0.0 0.0 
0.98233217 0.330642 0.3964663 0.15816772 0.050576527 0.0 
0.64701957 0.7405041 1.0093477 0.10495136 0.506795 0.0 
0.4736423 0.9904566 1.3336788 0.019638043 0.7944327 0.0 
0.37649786 1.1221143 1.4002515 0.0 0.79140776 0.0 
0.22043037 1.3591279 1.6010118 0.0 0.7367147 0.0 
0.0 1.6291617 1.5881345 0.0 0.9093402 0.0 
0.0 1.4355203 1.206506 0.0 0.86145407 0.0 
0.0 0.8419419 0.7606934 0.0 0.65090436 0.0 
0.0 0.1861395 0.15288296 0.0 0.40245593 0.0 
0.0 0.029892687 0.0 0.0 0.0 0.041553788 
0.0 0.0 0.0 0.0 0.0 0.07698792 
0.0 0.0 0.0 0.0 0.0 0.07698792 
0.0 0.0 0.0 0.0 0.0 0.07698792 
0.0 0.0 0.0 0.0 0.0 0.07698792 
0.0 0.0 0.0 0.0 0.0 0.07698792 
0.0 0.0 0.0 0.0 0.0 0.07698792 
0.0 0.0 0.0 0.0 0.0 0.07698792 
0.0 0.0 0.0 0.0 0.0 0.07698792 
0.0 0.0 0.0 0.0 0.0 0.07698792 
0.0 0.0 0.0 0.0 0.0 0.0846993 
0.7560082 0.0 0.0 0.0 0.0 0.47190028 
1.9108481 0.0 0.0 0.0 0.35908625 0.84567904 
1.5171463 0.35218784 0.0 0.0 1.1681529 0.36304134 
0.0 1.448741 0.0 0.0 1.4796172 0.0 
0.0 1.2772505 1.2011629 0.0 1.6026776 0.0 
0.0 0.36515164 1.1869628 0.0025484757 1.032019 0.2515872 
0.39032283 0.0 0.021020755 0.43306962 0.27112174 0.670389 
0.9733352 0.0 0.0 0.7877843 0.39738783 0.8672714 
0.82611984 0.1732318 0.0 1.27385 0.8596571 0.9073581 
0.5740418 0.6741368 0.26081154 1.6481119 1.2450131 1.0483449 
0.29297915 0.91730535 0.804621 1.7752265 1.4949011 1.0240295 
0.4043431 0.87468684 0.9719435 1.5701815 1.3620306 0.7858252 
0.46338242 1.1288887 1.4254811 1.3255776 1.1092149 0.24712804 
0.0 1.6593544 2.0397944 0.83999497 1.1541228 0.0 
0.0 1.9104002 2.0161018 0.2769719 1.2007765 0.0 
0.0 1.4880782 1.6419351 0.0 1.0304654 0.0 
0.0 0.6538611 0.71546376 0.0 0.6229442 0.0 
0.0 0.12026964 0.027064443 0.0 0.15869023 0.0 
0.0 0.0 0.0 0.0 0.0 0.07125593 
0.0 0.0 0.0 0.0 0.0 0.07698792 
0.0 0.0 0.0 0.0 0.0 0.07698792 
0.0 0.0 0.0 0.0 0.0 0.07698792 
0.0 0.0 0.0 0.0 0.0 0.07698792 
0.0 0.0 0.0 0.0 0.0 0.07698792 
0.0 0.0 0.0 0.0 0.0 0.07698792 
0.0 0.0 0.0 0.0 0.0 0.07698792 
0.0 0.0 0.0 0.0 0.0 0.07698792 
0.0 0.0 0.0 0.0071840035 0.0 0.108396426 
0.80630827 0.0 0.0 0.09234509 0.0 0.6004063 
1.8780622 0.0 0.0 0.15633868 0.43630412 0.9533469 
1.4110265 0.5319038 0.0 0.09673898 1.0721525 0.2802643 
0.0 1.6193231 0.0 0.0 1.354307 0.0 
0.0 1.537054 1.5062102 0.0 1.4482323 0.0 
0.0 0.5956939 1.2043483 0.0 1.0323788 0.03786803 
0.3961926 0.0 0.0 0.047127273 0.7999969 0.8174275 
0.8806974 0.0 0.0 0.40055025 0.96604306 1.292269 
0.71661425 0.031963646 0.0 0.6060889 1.3492306 1.4692101 
0.55542815 0.20906027 0.0 0.8837732 1.7217095 1.798336 
0.42167416 0.28725195 0.0 1.0637361 1.8591987 1.8819492 
0.6715147 0.16710292 0.0 1.1078945 1.5024476 1.762783 
0.9630298 0.40249577 0.0 1.1277336 1.2131 1.4120905 
0.52799207 1.184348 0.9188688 0.8262349 1.1356629 0.40323135 
0.0 2.0250428 1.9838964 0.6185358 1.1970284 0.0 
0.0 1.8558306 2.2059977 0.09539099 1.2960082 0.0 
0.0 1.1857742 1.4795367 0.0 0.8633187 0.0 
0.0 0.21081926 0.23957828 0.0 0.42656693 0.0 
0.0 0.0 0.0 0.0 0.0 0.06521422 
0.0 0.0 0.0 0.0 0.0 0.07698792 
0.0 0.0 0.0 0.0 0.0 0.07698792 
0.0 0.0 0.0 0.0 0.0 0.07698792 
0.0 0.0 0.0 0.0 0.0 0.07698792 
0.0 0.0 0.0 0.0 0.0 0.07698792 
0.0 0.0 0.0 0.0 0.0 0.07698792 
0.0 0.0 0.0 0.0 0.0 0.07698792 
0.0 0.0 0.0 0.0 0.0 0.07698792 
0.0 0.0 0.0 0.016724415 0.0 0.12866344 
0.8766327 0.0 0.0 0.10738741 0.09627588 0.74152607 
1.9052138 0.0 0.0 0.11429625 0.57308257 1.1434736 
1.432136 0.3652067 0.0 0.0 0.92512935 0.35419822 
0.25840446 1.4579309 0.27396446 0.0 1.1204804 0.0 
0.0 1.7290909 1.8484753 0.0 1.3601516 0.0 
0.0 0.97246826 1.5116289 0.0 1.2136794 0.0 
0.087102205 0.10352118 0.0 0.0 1.0564153 0.10238166 
0.61064756 0.0 0.0 0.0 0.9977003 0.7810578 
0.5383176 0.0 0.0 0.0 1.1636417 1.1420779 
0.4755689 0.0 0.0 0.0 1.2851645 1.3856905 
0.5580901 0.0 0.0 0.0 1.3148226 1.454005 
1.089572 0.0 0.0 0.0 1.1424155 1.5279336 
1.6020143 0.0 0.0 0.0 1.1851707 1.3568714 
1.089797 0.51165044 0.0 0.0 1.3148556 0.55794334 
0.0 1.5865383 0.87789714 0.11772021 1.6160425 0.0 
0.0 1.7192237 1.9955922 0.26555955 1.760672 0.0 
0.0 1.1231076 1.8768277 0.2282916 1.1728684 0.0 
0.0 0.34020078 0.5941306 0.024247166 0.48354056 0.0 
0.0 0.002061705 0.0 0.0 0.0 0.07104052 
0.0 0.0 0.0 0.0 0.0 0.07698792 
0.0 0.0 0.0 0.0 0.0 0.07698792 
0.0 0.0 0.0 0.0 0.0 0.07698792 
0.0 0.0 0.0 0.0 0.0 0.07698792 
0.0 0.0 0.0 0.0 0.0 0.07698792 
0.0 0.0 0.0 0.0 0.0 0.07698792 
0.0 0.0 0.0 0.0 0.0 0.07698792 
0.0 0.0 0.0 0.0 0.0 0.07698792 
0.0 0.0 0.0 0.0 0.0 0.124979034 
0.7648357 0.0 0.0 0.0584772 0.3110133 0.7834718 
1.727066 0.0 0.0 0.14075582 0.69919103 1.3340435 
1.5850687 0.0 0.0 0.16300452 0.78938913 0.72761506 
0.5684974 1.0567015 0.10902027 0.09600732 0.9171307 0.0 
0.0 1.6494746 2.160774 0.0 1.200334 0.0 
0.0 1.5914731 2.3352532 0.0 1.0478497 0.0 
0.0 0.9937565 1.0326575 0.0 0.7877381 0.0 
0.21619052 0.38693345 0.0 0.0 0.6638793 0.0 
0.4013147 0.17595647 0.0 0.0 0.5307131 0.0 
0.54125005 0.0 0.0 0.0 0.5288472 0.0 
0.80124784 0.0 0.0 0.0 0.4837725 0.0 
1.4801311 0.0 0.0 0.0 0.6335362 0.110473394 
1.8943624 0.0 0.0 0.0 1.2172084 0.4608679 
1.0628664 0.64794993 0.0 0.0 1.8823267 0.42449576 
0.0 1.4238133 0.003978096 0.0 2.1880133 0.2249273 
0.0 1.4921092 1.506957 0.48295024 1.8830372 0.18312597 
0.0 0.7706164 1.6748495 0.4547182 1.1101297 0.29208064 
0.0 0.34367552 0.8158487 0.2946139 0.30436802 0.10598375 
0.0 0.0147716915 0.0 0.017841764 0.0 0.079051405 
0.0 0.0 0.0 0.0 0.0 0.07698792 
0.0 0.0 0.0 0.0 0.0 0.07698792 
0.0 0.0 0.0 0.0 0.0 0.07698792 
0.0 0.0 0.0 0.0 0.0 0.07698792 
0.0 0.0 0.0 0.0 0.0 0.07698792 
0.0 0.0 0.0 0.0 0.0 0.07698792 
0.0 0.0 0.0 0.0 0.0 0.07698792 
0.0 0.0 0.0 0.0 0.0 0.07698792 
0.0 0.0 0.0 0.0 0.0 0.10367172 
0.56539166 0.0 0.0 0.040587258 0.39966512 0.67308205 
1.3684661 0.0 0.0 0.15250844 0.73118556 1.3252861 
1.5229533 0.0 0.0 0.38603416 0.86806136 1.2153499 
1.071832 0.3516357 0.0 0.43587273 0.9783214 0.66585153 
0.20700932 1.3264419 1.5757803 0.57369703 1.0013555 0.0 
0.0 1.5247431 2.498149 0.08986898 1.0362706 0.0 
0.0 1.5852516 2.1414688 0.0 0.6892936 0.0 
0.14219195 1.3118365 1.4227711 0.0 0.42405197 0.0 
0.1970061 1.0451255 1.1093994 0.0 0.23596443 0.0 
0.42006007 0.7443962 0.86115694 0.0 0.111111045 0.0 
0.822915 0.53375727 0.6445851 0.0 0.13935493 0.0 
1.3247824 0.37225682 0.07570327 0.0 0.8191183 0.0 
1.272232 0.64162475 0.0 0.0 1.8655821 0.22103614 
0.3891067 1.1070766 0.0 0.077087246 2.581704 0.5458662 
0.0 1.368997 0.0 0.27925548 2.3422816 0.6705881 
0.0 0.888288 0.8941169 0.36133593 1.5697863 0.61173064 
0.0 0.3767084 1.0919918 0.2932492 0.7193273 0.48237902 
0.0 0.10844344 0.63493705 0.16191134 0.14886503 0.1652725 
0.0 0.0 0.0 0.003135885 0.0 0.08166347 
0.0 0.0 0.0 0.0 0.0 0.07698792 
0.0 0.0 0.0 0.0 0.0 0.07698792 
0.0 0.0 0.0 0.0 0.0 0.07698792 
0.0 0.0 0.0 0.0 0.0 0.07698792 
0.0 0.0 0.0 0.0 0.0 0.07698792 
0.0 0.0 0.0 0.0 0.0 0.07698792 
0.0 0.0 0.0 0.0 0.0 0.07698792 
0.0 0.0 0.0 0.0 0.0 0.07698792 
0.0 0.0 0.0 0.0 0.0 0.08627106 
0.31792796 0.0 0.0 0.0 0.2972814 0.43811244 
1.0449634 0.0 0.0 0.027157854 0.7782275 1.2247927 
1.3145497 0.0 0.0 0.21920568 1.0512241 1.5763018 
1.1488681 0.0 0.0 0.6180606 1.1458085 1.4748082 
0.60384387 0.3906785 0.01415091 1.0223554 1.2588314 1.1353538 
0.22837982 0.92822737 1.5570012 1.1913356 1.2843314 0.44796908 
0.13128197 1.1686839 2.1196256 0.95616436 1.1050488 0.0 
0.1817568 1.324695 1.8946643 0.5511704 1.0484782 0.0 
0.2390567 1.1919214 1.6109872 0.21463819 0.98467416 0.0 
0.39119866 1.0117971 1.241011 0.19464773 1.0174761 0.0 
0.4760896 0.8733796 0.8153877 0.4685994 1.2918994 0.0 
0.6107633 0.8125278 0.29051992 0.766336 2.0093913 0.44955012 
0.3403494 1.1239295 0.0 0.90560704 2.5524414 0.9522037 
0.0 1.1518106 0.0 0.65380096 2.4871557 1.0287368 
0.0 0.91552603 0.0 0.3771923 1.7039176 0.90434533 
0.0 0.34930784 0.53707135 0.09827468 0.8744882 0.62863654 
0.0 0.07442208 0.56256086 0.027022596 0.34068263 0.3733578 
0.0 0.0 0.24386737 0.0 0.07634349 0.12923306 
0.0 0.0 0.0 0.0 0.0 0.07812942 
0.0 0.0 0.0 0.0 0.0 0.07698792 
0.0 0.0 0.0 0.0 0.0 0.07698792 
0.0 0.0 0.0 0.0 0.0 0.07698792 
0.0 0.0 0.0 0.0 0.0 0.07698792 
0.0 0.0 0.0 0.0 0.0 0.07698792 
0.0 0.0 0.0 0.0 0.0 0.07698792 
0.0 0.0 0.0 0.0 0.0 0.07698792 
0.0 0.0 0.0 0.0 0.0 0.07698792 
0.0 0.0 0.0 0.0 0.0 0.07698792 
0.11538026 0.0 0.0 0.0 0.21019594 0.21120074 
0.67411035 0.0 0.0 0.0 0.6214587 0.7719342 
1.0438082 0.0 0.0 0.0 1.119481 1.3336792 
0.9984413 0.0 0.0 0.11209821 1.3700539 1.6484199 
0.79979604 0.0 0.0 0.60724354 1.4928775 1.8238256 
0.4563831 0.25089222 0.0 1.2828423 1.5719632 1.734865 
0.30735558 0.65837985 0.4097342 1.6552528 1.546444 1.5194263 
0.16238587 0.94181424 0.95254457 1.8460603 1.6018423 1.2217579 
0.12874931 1.0954916 1.0173634 1.8835008 1.6234397 1.0684714 
0.073804945 1.1359774 0.9292586 1.8625209 1.8216134 1.1136816 
0.11648171 1.0151376 0.4204732 1.6026446 2.192672 1.2739751 
0.043428935 1.0521448 0.0 1.3397024 2.2997088 1.3808889 
0.0 0.9045662 0.0 0.8104114 2.1809661 1.3183057 
0.0 0.7080893 0.0 0.36420578 1.5213033 1.0572538 
0.0 0.318475 0.13821295 0.038981512 0.78866583 0.69528586 
0.0 0.0 0.32576358 0.0 0.3905646 0.4055568 
0.0 0.0 0.20625234 0.0 0.14647947 0.1855376 
0.0 0.0 0.0032352768 0.0 0.0 0.084750086 
0.0 0.0 0.0 0.0 0.0 0.07698792 
0.0 0.0 0.0 0.0 0.0 0.07698792 
0.0 0.0 0.0 0.0 0.0 0.07698792 
0.0 0.0 0.0 0.0 0.0 0.07698792 
0.0 0.0 0.0 0.0 0.0 0.07698792 
0.0 0.0 0.0 0.0 0.0 0.07698792 
0.0 0.0 0.0 0.0 0.0 0.07698792 
0.0 0.0 0.0 0.0 0.0 0.07698792 
0.0 0.0 0.0 0.0 0.0 0.07698792 
0.0 0.0 0.0 0.0 0.0 0.07698792 
0.0 0.0 0.0 0.0 0.0 0.08750881 
0.27759534 0.0 0.0 0.0 0.35380507 0.3657549 
0.62242085 0.0 0.0 0.0 0.7428175 0.778317 
0.78465545 0.0 0.0 0.0 1.0713329 1.1942952 
0.8702327 0.0 0.0 0.0 1.4276506 1.6469324 
0.64398265 0.0 0.0 0.020249773 1.7466383 1.8130372 
0.49811655 0.0 0.0 0.4647979 1.870299 1.92928 
0.26966143 0.17696232 0.0 0.80385643 1.9483076 1.8462961 
0.16698332 0.35007754 0.0 0.97311044 2.0006006 1.791755 
0.12829177 0.5077758 0.0 0.90774745 2.0217445 1.7549622 
0.08478439 0.60980207 0.0 0.647935 1.9268625 1.6217005 
0.0 0.45341498 0.0 0.17376684 1.6742836 1.4357367 
0.0 0.2866194 0.0 0.0 1.1726096 1.0515087 
0.0 0.0126484325 0.0 0.0 0.629085 0.63585794 
0.0 0.0 0.11608296 0.0 0.3318898 0.37784368 
0.0 0.0 0.14628345 0.0 0.14422987 0.18620718 
0.0 0.0 0.010972396 0.0 0.0 0.08573938 
0.0 0.0 0.0 0.0 0.0 0.07698792 
0.0 0.0 0.0 0.0 0.0 0.07698792 
0.0 0.0 0.0 0.0 0.0 0.07698792 
0.0 0.0 0.0 0.0 0.0 0.07698792 
0.0 0.0 0.0 0.0 0.0 0.07698792 
0.0 0.0 0.0 0.0 0.0 0.07698792 
0.0 0.0 0.0 0.0 0.0 0.07698792 
0.0 0.0 0.0 0.0 0.0 0.07698792 
0.0 0.0 0.0 0.0 0.0 0.07698792 
0.0 0.0 0.0 0.0 0.0 0.07698792 
0.0 0.0 0.0 0.0 0.0 0.07698792 
0.0 0.0 0.0 0.0 0.0 0.07698792 
0.024842888 0.0 0.0 0.0 0.09091985 0.14196992 
0.19357896 0.0 0.0 0.0 0.32447615 0.27122337 
0.40459666 0.0 0.0 0.0 0.59900635 0.50313187 
0.54051304 0.0 0.0 0.0 0.898362 0.82421243 
0.49425006 0.0 0.0 0.0 1.1458126 1.0828674 
0.48566884 0.0 0.0 0.0 1.3207278 1.352951 
0.33087358 0.0 0.0 0.0 1.4214958 1.4434252 
0.20487815 0.0 0.0 0.0 1.3810741 1.3950741 
0.10731451 0.0 0.0 0.0 1.3202065 1.2667847 
0.0 0.0 0.0 0.0 1.1370091 0.97683895 
0.0 0.0 0.0 0.0 0.7996033 0.68184596 
0.0 0.0 0.0 0.0 0.47129104 0.42065376 
0.0 0.0 0.0 0.0 0.26003814 0.25414652 
0.0 0.0 0.00077403337 0.0 0.102949694 0.148815 
0.0 0.0 0.0 0.0 0.0 0.08398909 
0.0 0.0 0.0 0.0 0.0 0.07698792 
0.0 0.0 0.0 0.0 0.0 0.07698792 
0.0 0.0 0.0 0.0 0.0 0.07698792 
0.0 0.0 0.0 0.0 0.0 0.07698792 
0.0 0.0 0.0 0.0 0.0 0.07698792 
0.0 0.0 0.0 0.0 0.0 0.07698792 
0.0 0.0 0.0 0.0 0.0 0.07698792 
0.0 0.0 0.0 0.0 0.0 0.07698792 
0.0 0.0 0.0 0.0 0.0 0.07698792 
0.0 0.0 0.0 0.0 0.0 0.07698792 
0.0 0.0 0.0 0.0 0.0 0.07698792 
0.0 0.0 0.0 0.0 0.0 0.07698792 
0.0 0.0 0.0 0.0 0.0 0.07698792 
0.0 0.0 0.0 0.0 0.0 0.07698792 
0.0 0.0 0.0 0.0 0.0 0.08503331 
0.039750367 0.0 0.0 0.0 0.11253044 0.15315267 
0.15392038 0.0 0.0 0.0 0.2875991 0.24109674 
0.20738313 0.0 0.0 0.0 0.44621798 0.3084113 
0.25450635 0.0 0.0 0.0 0.6469602 0.4228416 
0.16373427 0.0 0.0 0.0 0.6964329 0.44919664 
0.061664015 0.0 0.0 0.0 0.6755138 0.4288906 
0.0 0.0 0.0 0.0 0.54191667 0.38792363 
0.0 0.0 0.0 0.0 0.33201954 0.25887764 
0.0 0.0 0.0 0.0 0.16955872 0.19465245 
0.0 0.0 0.0 0.0 0.06437619 0.13021642 
0.0 0.0 0.0 0.0 0.0 0.08575599 
0.0 0.0 0.0 0.0 0.0 0.07744452 
0.0 0.0 0.0 0.0 0.0 0.07698792 
0.0 0.0 0.0 0.0 0.0 0.07698792 
0.0 0.0 0.0 0.0 0.0 0.07698792 
0.0 0.0 0.0 0.0 0.0 0.07698792 
0.0 0.0 0.0 0.0 0.0 0.07698792 
0.0 0.0 0.0 0.0 0.0 0.07698792 
0.0 0.0 0.0 0.0 0.0 0.07698792 
0.0 0.0 0.0 0.0 0.0 0.07698792 
0.0 0.0 0.0 0.0 0.0 0.07698792 
0.0 0.0 0.0 0.0 0.0 0.07698792 
0.0 0.0 0.0 0.0 0.0 0.07698792 
0.0 0.0 0.0 0.0 0.0 0.07698792 
0.0 0.0 0.0 0.0 0.0 0.07698792 
0.0 0.0 0.0 0.0 0.0 0.07698792 
0.0 0.0 0.0 0.0 0.0 0.07698792 
0.0 0.0 0.0 0.0 0.0 0.07698792 
0.0 0.0 0.0 0.0 0.0 0.07698792 
0.0 0.0 0.0 0.0 0.0 0.07698792 
0.0 0.0 0.0 0.0 0.0 0.07698792 
0.0 0.0 0.0 0.0 0.0 0.07698792 
0.0 0.0 0.0 0.0 0.0 0.07698792 
0.0 0.0 0.0 0.0 0.0 0.07698792 
0.0 0.0 0.0 0.0 0.0 0.07698792 
0.0 0.0 0.0 0.0 0.0 0.07698792 
0.0 0.0 0.0 0.0 0.0 0.07698792 
0.0 0.0 0.0 0.0 0.0 0.07698792 
0.0 0.0 0.0 0.0 0.0 0.07698792 
0.0 0.0 0.0 0.0 0.0 0.07698792 
0.0 0.0 0.0 0.0 0.0 0.07698792 
0.0 0.0 0.0 0.0 0.0 0.07698792 
0.0 0.0 0.0 0.0 0.0 0.07698792 
0.0 0.0 0.0 0.0 0.0 0.07698792 
0.0 0.0 0.0 0.0 0.0 0.07698792 
0.0 0.0 0.0 0.0 0.0 0.07698792 
0.0 0.0 0.0 0.0 0.0 0.07698792 
0.0 0.0 0.0 0.0 0.0 0.07698792 
0.0 0.0 0.0 0.0 0.0 0.07698792 
0.0 0.0 0.0 0.0 0.0 0.07698792 
0.0 0.0 0.0 0.0 0.0 0.07698792 
0.0 0.0 0.0 0.0 0.0 0.07698792 
0.0 0.0 0.0 0.0 0.0 0.07698792 
0.0 0.0 0.0 0.0 0.0 0.07698792 
0.0 0.0 0.0 0.0 0.0 0.07698792 
0.0 0.0 0.0 0.0 0.0 0.07698792 
0.0 0.0 0.0 0.0 0.0 0.07698792 
0.0 0.0 0.0 0.0 0.0 0.07698792 
0.0 0.0 0.0 0.0 0.0 0.07698792 
0.0 0.0 0.0 0.0 0.0 0.07698792 
0.0 0.0 0.0 0.0 0.0 0.07698792 
0.0 0.0 0.0 0.0 0.0 0.07698792 
0.0 0.0 0.0 0.0 0.0 0.07698792 
0.0 0.0 0.0 0.0 0.0 0.07698792 
0.0 0.0 0.0 0.0 0.0 0.07698792 
0.0 0.0 0.0 0.0 0.0 0.07698792 
0.0 0.0 0.0 0.0 0.0 0.07698792 
0.0 0.0 0.0 0.0 0.0 0.07698792 
0.0 0.0 0.0 0.0 0.0 0.07698792 
0.0 0.0 0.0 0.0 0.0 0.07698792 
0.0 0.0 0.0 0.0 0.0 0.07698792 
0.0 0.0 0.0 0.0 0.0 0.07698792 
0.0 0.0 0.0 0.0 0.0 0.07698792 
0.0 0.0 0.0 0.0 0.0 0.07698792 
0.0 0.0 0.0 0.0 0.0 0.07698792 
0.0 0.0 0.0 0.0 0.0 0.07698792 
0.0 0.0 0.0 0.0 0.0 0.07698792 
0.0 0.0 0.0 0.0 0.0 0.07698792 
0.0 0.0 0.0 0.0 0.0 0.07698792 
0.0 0.0 0.0 0.0 0.0 0.07698792 
0.0 0.0 0.0 0.0 0.0 0.07698792 
0.0 0.0 0.0 0.0 0.0 0.07698792 
0.0 0.0 0.0 0.0 0.0 0.07698792 
0.0 0.0 0.0 0.0 0.0 0.07698792 
0.0 0.0 0.0 0.0 0.0 0.07698792 
0.0 0.0 0.0 0.0 0.0 0.07698792 
0.0 0.0 0.0 0.0 0.0 0.07698792 
0.0 0.0 0.0 0.0 0.0 0.07698792 
0.0 0.0 0.0 0.0 0.0 0.07698792 
0.0 0.0 0.0 0.0 0.0 0.07698792 
0.0 0.0 0.0 0.0 0.0 0.07698792 
0.0 0.0 0.0 0.0 0.0 0.07698792 
0.0 0.0 0.0 0.0 0.0 0.07698792 
0.0 0.0 0.0 0.0 0.0 0.07698792 
0.0 0.0 0.0 0.0 0.0 0.07698792 
0.0 0.0 0.0 0.0 0.0 0.07698792 
0.0 0.0 0.0 0.0 0.0 0.07698792 
0.0 0.0 0.0 0.0 0.0 0.07698792 
0.0 0.0 0.0 0.0 0.0 0.07698792 
0.0 0.0 0.0 0.0 0.0 0.07698792 
0.0 0.0 0.0 0.0 0.0 0.07698792 
0.0 0.0 0.0 0.0 0.0 0.07698792 
0.0 0.0 0.0 0.0 0.0 0.07698792 
0.0 0.0 0.0 0.0 0.0 0.07698792 
0.0 0.0 0.0 0.0 0.0 0.07698792 
0.0 0.0 0.0 0.0 0.0 0.07698792 
0.0 0.0 0.0 0.0 0.0 0.07698792 
0.0 0.0 0.0 0.0 0.0 0.07698792 
0.0 0.0 0.0 0.0 0.0 0.07698792 
0.0 0.0 0.0 0.0 0.0 0.07698792 
0.0 0.0 0.0 0.0 0.0 0.07698792 
0.0 0.0 0.0 0.0 0.0 0.07698792 
0.0 0.0 0.0 0.0 0.0 0.07698792 
0.0 0.0 0.0 0.0 0.0 0.07698792 
0.0 0.0 0.0 0.0 0.0 0.07698792 
0.0 0.0 0.0 0.0 0.0 0.07698792 
0.0 0.0 0.0 0.0 0.0 0.07698792 
0.0 0.0 0.0 0.0 0.0 0.07698792 
0.0 0.0 0.0 0.0 0.0 0.07698792 
0.0 0.0 0.0 0.0 0.0 0.07698792 
0.0 0.0 0.0 0.0 0.0 0.07698792 
0.0 0.0 0.0 0.0 0.0 0.07698792 
0.0 0.0 0.0 0.0 0.0 0.07698792 
0.0 0.0 0.0 0.0 0.0 0.07698792 
0.0 0.0 0.0 0.0 0.0 0.07698792 
0.0 0.0 0.0 0.0 0.0 0.07698792 
0.0 0.0 0.0 0.0 0.0 0.07698792 
0.0 0.0 0.0 0.0 0.0 0.07698792 
0.0 0.0 0.0 0.0 0.0 0.07698792 
0.0 0.0 0.0 0.0 0.0 0.07698792 

