0.0 0.0 0.0 0.0 0.0 0.07698792 
0.0 0.0 0.0 0.0 0.0 0.07698792 
0.0 0.0 0.0 0.0 0.0 0.07698792 
0.0 0.0 0.0 0.0 0.0 0.07698792 
0.0 0.0 0.0 0.0 0.0 0.07698792 
0.0 0.0 0.0 0.0 0.0 0.07698792 
0.0 0.0 0.0 0.0 0.0 0.07698792 
0.0 0.0 0.0 0.0 0.0 0.07698792 
0.0 0.0 0.0 0.0 0.0 0.07698792 
0.0 0.0 0.0 0.0 0.0 0.07698792 
0.0 0.0 0.0 0.0 0.0 0.07698792 
0.0 0.0 0.0 0.0 0.0 0.07698792 
0.0 0.0 0.0 0.0 0.0 0.07698792 
0.0 0.0 0.0 0.0 0.0 0.07698792 
0.0 0.0 0.0 0.0 0.0 0.07698792 
0.0 0.0 0.0 0.0 0.0 0.07698792 
0.0 0.0 0.0 0.0 0.0 0.07698792 
0.0 0.0 0.0 0.0 0.0 0.07698792 
0.0 0.0 0.0 0.0 0.0 0.07698792 
0.0 0.0 0.0 0.0 0.0 0.07698792 
0.0 0.0 0.0 0.0 0.0 0.07698792 
0.0 0.0 0.0 0.0 0.0 0.07698792 
0.0 0.0 0.0 0.0 0.0 0.07698792 
0.0 0.0 0.0 0.0 0.0 0.07698792 
0.0 0.0 0.0 0.0 0.0 0.07698792 
0.0 0.0 0.0 0.0 0.0 0.07698792 
0.0 0.0 0.0 0.0 0.0 0.07698792 
0.0 0.0 0.0 0.0 0.0 0.07698792 
0.0 0.0 0.0 0.0 0.0 0.07698792 
0.0 0.0 0.0 0.0 0.0 0.07698792 
0.0 0.0 0.0 0.0 0.0 0.07698792 
0.0 0.0 0.0 0.0 0.0 0.07698792 
0.0 0.0 0.0 0.0 0.0 0.07698792 
0.0 0.0 0.0 0.0 0.0 0.07698792 
0.0 0.0 0.0 0.0 0.0 0.07698792 
0.0 0.0 0.0 0.0 0.0 0.07698792 
0.0 0.0 0.0 0.0 0.0 0.07698792 
0.0 0.0 0.0 0.0 0.0 0.07698792 
0.0 0.0 0.0 0.0 0.0 0.07698792 
0.0 0.0 0.0 0.0 0.0 0.07698792 
0.0 0.0 0.0 0.0 0.0 0.07698792 
0.0 0.0 0.0 0.0 0.0 0.07698792 
0.0 0.0 0.0 0.0 0.0 0.07698792 
0.0 0.0 0.0 0.0 0.0 0.07698792 
0.0 0.0 0.0 0.0 0.0 0.07698792 
0.0 0.0 0.0 0.0 0.0 0.07698792 
0.0 0.0 0.0 0.0 0.0 0.07698792 
0.0 0.0 0.0 0.0 0.0 0.07698792 
0.0 0.0 0.0 0.0 0.0 0.07698792 
0.0 0.0 0.0 0.0 0.0 0.07698792 
0.0 0.0 0.0 0.0 0.0 0.07698792 
0.0 0.0 0.0 0.0 0.0 0.07698792 
0.0 0.0 0.0 0.0 0.0 0.07698792 
0.0 0.0 0.0 0.0 0.0 0.07698792 
0.0 0.0 0.0 0.0 0.0 0.07698792 
0.0 0.0 0.0 0.0 0.0 0.07698792 
0.0 0.0 0.0 0.0 0.0 0.07698792 
0.0 0.0 0.0 0.0 0.0 0.07698792 
0.0 0.0 0.0 0.0 0.0 0.07698792 
0.0 0.0 0.0 0.0 0.0 0.07698792 
0.0 0.0 0.0 0.0 0.0 0.07698792 
0.0 0.0 0.0 0.0 0.0 0.07698792 
0.0 0.0 0.0 0.0 0.0 0.07698792 
0.0 0.0 0.0 0.0 0.0 0.07698792 
0.0 0.0 0.0 0.0 0.0 0.07698792 
0.0 0.0 0.0 0.0 0.0 0.07698792 
0.0 0.0 0.0 0.0 0.0 0.07698792 
0.0 0.0 0.0 0.0 0.0 0.07698792 
0.0 0.0 0.0 0.0 0.0 0.07698792 
0.0 0.0 0.0 0.0 0.0 0.07698792 
0.0 0.0 0.0 0.0 0.0 0.07698792 
0.0 0.0 0.0 0.0 0.0 0.07698792 
0.0 0.0 0.0 0.0 0.0 0.07698792 
0.0 0.0 0.0 0.0 0.0 0.07698792 
0.0 0.0 0.0 0.0 0.0 0.07698792 
0.0 0.0 0.0 0.0 0.0 0.07698792 
0.0 0.0 0.0 0.0 0.0 0.07698792 
0.0 0.0 0.0 0.0 0.0 0.07698792 
0.0 0.0 0.0 0.0 0.0 0.07698792 
0.0 0.0 0.0 0.0 0.0 0.07698792 
0.0 0.0 0.0 0.0 0.0 0.07698792 
0.0 0.0 0.0 0.0 0.0 0.07698792 
0.0 0.0 0.0 0.0 0.0 0.07698792 
0.0 0.0 0.0 0.0 0.0 0.07698792 
0.0 0.0 0.0 0.0 0.0 0.07698792 
0.0 0.0 0.0 0.0 0.0 0.07698792 
0.0 0.0 0.0 0.0 0.0 0.07698792 
0.0 0.0 0.0 0.0 0.0 0.07698792 
0.0 0.0 0.0 0.0 0.0 0.07698792 
0.0 0.0 0.0 0.0 0.0 0.07698792 
0.0 0.0 0.0 0.0 0.0 0.07698792 
0.0 0.0 0.0 0.0 0.0 0.07698792 
0.0 0.0 0.0 0.0 0.0 0.07698792 
0.0 0.0 0.0 0.0 0.0 0.07698792 
0.0 0.0 0.0 0.0 0.0 0.07698792 
0.0 0.0 0.0 0.0 0.0 0.07698792 
0.0 0.0 0.0 0.0 0.0 0.07698792 
0.0 0.0 0.0 0.0 0.0 0.07698792 
0.0 0.0 0.0 0.0 0.0 0.07698792 
0.0 0.0 0.0 0.0 0.0 0.07698792 
0.0 0.0 0.0 0.0 0.0 0.07698792 
0.0 0.0 0.0 0.0 0.0 0.07698792 
0.0 0.0 0.0 0.0 0.0 0.07698792 
0.0 0.0 0.0 0.0 0.0 0.07698792 
0.0 0.0 0.0 0.0 0.0 0.07698792 
0.0 0.0 0.0 0.0 0.0 0.07698792 
0.0 0.0 0.0 0.0 0.0 0.07698792 
0.0 0.0 0.0 0.0 0.0 0.07698792 
0.0 0.0 0.0 0.0 0.0 0.07698792 
0.0 0.0 0.0 0.0 0.0 0.07698792 
0.0 0.0 0.0 0.0 0.0 0.07698792 
0.0 0.0 0.0 0.0 0.0 0.07698792 
0.0 0.0 0.0 0.0 0.0 0.07698792 
0.0 0.0 0.0 0.0 0.0 0.07698792 
0.0 0.0 0.0 0.0 0.0 0.07698792 
0.0 0.0 0.0 0.0 0.0 0.07698792 
0.0 0.0 0.0 0.0 0.0 0.07698792 
0.0 0.0 0.0 0.0 0.0 0.07698792 
0.0 0.0 0.0 0.0 0.0 0.07698792 
0.0 0.0 0.0 0.0 0.0 0.07698792 
0.0 0.0 0.0 0.0 0.0 0.07698792 
0.0 0.0 0.0 0.0 0.0 0.07698792 
0.0 0.0 0.0 0.0 0.0 0.07698792 
0.0 0.0 0.0 0.0 0.0 0.07698792 
0.0 0.0 0.0 0.0 0.0 0.07698792 
0.0 0.0 0.0 0.0 0.0 0.0622808 
0.07624528 0.0 0.09179542 0.0 0.0 0.0 
0.2651328 0.057152152 0.22963077 0.0 0.0 0.0 
0.3569677 0.23503768 0.3442673 0.0 0.0 0.0 
0.2640031 0.47339013 0.34343022 0.0 0.0 0.0 
0.028178878 0.5426811 0.27861077 0.0 0.0 0.0 
0.0 0.4231786 0.18683082 0.0 0.0791679 0.0 
0.0 0.22431976 0.049902722 0.0 0.08343969 0.0 
0.0 0.048409604 0.0 0.0 0.0 0.02435781 
0.0 0.0 0.0 0.0 0.0 0.07698792 
0.0 0.0 0.0 0.0 0.0 0.07698792 
0.0 0.0 0.0 0.0 0.0 0.07698792 
0.0 0.0 0.0 0.0 0.0 0.07698792 
0.0 0.0 0.0 0.0 0.0 0.07698792 
0.0 0.0 0.0 0.0 0.0 0.07698792 
0.0 0.0 0.0 0.0 0.0 0.07698792 
0.0 0.0 0.0 0.0 0.0 0.07698792 
0.0 0.0 0.0 0.0 0.0 0.07698792 
0.0 0.0 0.0 0.0 0.0 0.07698792 
0.0 0.0 0.0 0.0 0.0 0.07698792 
0.0 0.0 0.0 0.0 0.0 0.07698792 
0.0 0.0 0.0 0.0 0.0 0.07698792 
0.0 0.0 0.0 0.0 0.0 0.07698792 
0.0 0.0 0.0 0.0 0.0 0.07698792 
0.0 0.0 0.0 0.0 0.0 0.07698792 
0.0 0.0 0.0 0.0 0.0 0.073593974 
0.0 0.0 0.0 0.0 0.0 0.061859988 
0.008136161 0.0 0.0351203 0.0 0.0 0.010871068 
0.20655802 0.0 0.1575546 0.0 0.0 0.0 
0.47362918 0.025802128 0.2328738 0.0 0.0 0.0 
0.74726576 0.14780715 0.37725988 0.0 0.0 0.0 
0.9134213 0.49757192 0.5913015 0.0 0.0 0.0 
0.63732016 1.0362681 0.83459634 0.0 0.0012875684 0.0 
0.0 1.2830223 0.8490507 0.0 0.51711464 0.0 
0.0 0.97403044 0.7276883 0.0 0.67383665 0.0 
0.0 0.43011793 0.36735174 0.0 0.5263499 0.0 
0.0 0.07456056 0.027492315 0.0 0.1727826 0.0 
0.0 0.0 0.0 0.0 0.0 0.07698792 
0.0 0.0 0.0 0.0 0.0 0.07698792 
0.0 0.0 0.0 0.0 0.0 0.07698792 
0.0 0.0 0.0 0.0 0.0 0.07698792 
0.0 0.0 0.0 0.0 0.0 0.07698792 
0.0 0.0 0.0 0.0 0.0 0.07698792 
0.0 0.0 0.0 0.0 0.0 0.07698792 
0.0 0.0 0.0 0.0 0.0 0.07698792 
0.0 0.0 0.0 0.0 0.0 0.07698792 
0.0 0.0 0.0 0.0 0.0 0.07698792 
0.0 0.0 0.0 0.0 0.0 0.07698792 
0.0 0.0 0.0 0.0 0.0 0.07698792 
0.0 0.0 0.0 0.0 0.0 0.07698792 
0.0 0.0 0.0 0.0 0.0 0.07698792 
0.0 0.0 0.0 0.0 0.0 0.07698792 
0.0 0.0 0.0 0.0 0.0 0.06416633 
0.11017151 0.0 0.12763086 0.0 0.0 0.0 
0.33733958 0.08096533 0.24433687 0.0 0.0 0.0 
0.43839097 0.19232538 0.32324725 0.0 0.0 0.0 
0.6784185 0.2506386 0.4281366 0.0 0.0 0.0 
1.0328457 0.25051507 0.44097194 0.0 0.0 0.0 
1.2284021 0.4065395 0.5042148 0.0 0.0 0.0 
1.009069 0.68783456 0.78266406 0.0 0.43966666 0.0 
0.3281485 1.2716465 1.1377357 0.0 1.0685347 0.0 
0.0 1.633798 1.5210971 0.15009764 1.4425987 0.0 
0.0 1.4679857 1.4887049 0.12552533 1.2514598 0.0 
0.0 0.76009864 0.93782496 0.0 0.8103122 0.0 
0.0 0.106722936 0.19813731 0.0 0.24225985 0.0 
0.0 0.0 0.0 0.0 0.0 0.07698792 
0.0 0.0 0.0 0.0 0.0 0.07698792 
0.0 0.0 0.0 0.0 0.0 0.07698792 
0.0 0.0 0.0 0.0 0.0 0.07698792 
0.0 0.0 0.0 0.0 0.0 0.07698792 
0.0 0.0 0.0 0.0 0.0 0.07698792 
0.0 0.0 0.0 0.0 0.0 0.07698792 
0.0 0.0 0.0 0.0 0.0 0.07698792 
0.0 0.0 0.0 0.0 0.0 0.07698792 
0.0 0.0 0.0 0.0 0.0 0.07698792 
0.0 0.0 0.0 0.0 0.0 0.07698792 
0.0 0.0 0.0 0.0 0.0 0.07698792 
0.0 0.0 0.0 0.0 0.0 0.07698792 
0.0 0.0 0.0 0.0 0.0 0.07698792 
0.0 0.0 0.0 0.0 0.0 0.0754795 
0.0667766 0.0 0.0703832 0.0 0.0 0.014606383 
0.46264702 0.0 0.12799495 0.0 0.0 0.0 
0.81710327 0.0 0.3052855 0.0 0.0 0.0 
1.0796051 0.30314994 0.46099043 0.0 0.0 0.0 
1.066884 0.6503463 0.6558366 0.0 0.014997344 0.0 
0.8670899 0.75464404 0.52871305 0.0 0.7349813 0.0 
0.76734966 0.87381184 0.33147573 0.29898712 1.307741 0.0 
0.7631222 1.1026189 0.4851473 0.80636674 1.5757576 0.35765865 
0.28894833 1.7547008 0.89126533 1.0168276 1.835698 0.28977412 
0.0 2.0487068 1.5186253 0.91228974 1.7067538 0.0 
0.0 1.6878555 1.964167 0.6637839 1.2845192 0.0 
0.0 0.8555603 1.3689181 0.22572264 0.8500484 0.0 
0.0 0.24548343 0.3972526 0.13657482 0.12462267 0.056274768 
0.0 0.0 0.0 0.0 0.0 0.07698792 
0.0 0.0 0.0 0.0 0.0 0.07698792 
0.0 0.0 0.0 0.0 0.0 0.07698792 
0.0 0.0 0.0 0.0 0.0 0.07698792 
0.0 0.0 0.0 0.0 0.0 0.07698792 
0.0 0.0 0.0 0.0 0.0 0.07698792 
0.0 0.0 0.0 0.0 0.0 0.07698792 
0.0 0.0 0.0 0.0 0.0 0.07698792 
0.0 0.0 0.0 0.0 0.0 0.07698792 
0.0 0.0 0.0 0.0 0.0 0.07698792 
0.0 0.0 0.0 0.0 0.0 0.07698792 
0.0 0.0 0.0 0.0 0.0 0.07698792 
0.0 0.0 0.0 0.0 0.0 0.07698792 
0.0 0.0 0.0 0.0 0.0 0.07698792 
0.0 0.0 0.0 0.0 0.0 0.05800529 
0.298852 0.0 0.065828055 0.0 0.0 0.0016984046 
1.0010786 0.0 0.0630194 0.0 0.0 0.0 
1.3770535 0.0 0.15097746 0.0 0.0 0.0 
1.2169383 0.5907131 0.4098269 0.114761814 0.34531587 0.0 
0.70167875 1.0403875 0.6145247 0.42715165 1.403716 0.0 
0.45753467 1.2417964 0.4793644 0.7971141 2.2353585 0.38902667 
0.48265165 1.0667045 0.0 0.91600424 2.5163722 1.019362 
0.77036625 0.6615634 0.0 0.88382965 2.2661395 1.39778 
0.5157546 1.088214 0.0 0.59245855 2.0069823 0.8870012 
0.0 1.6152452 0.64998174 0.104347825 1.6211158 0.0029156283 
0.0 1.5948346 1.6626552 0.0 1.2396895 0.0 
0.0 0.7792344 1.4430789 0.0 0.9188108 0.0 
0.0 0.27400562 0.45622885 0.0 0.22867836 0.0 
0.0 0.045042887 0.0 0.0 0.0 0.027484357 
0.0 0.0 0.0 0.0 0.0 0.07698792 
0.0 0.0 0.0 0.0 0.0 0.07698792 
0.0 0.0 0.0 0.0 0.0 0.07698792 
0.0 0.0 0.0 0.0 0.0 0.07698792 
0.0 0.0 0.0 0.0 0.0 0.07698792 
0.0 0.0 0.0 0.0 0.0 0.07698792 
0.0 0.0 0.0 0.0 0.0 0.07698792 
0.0 0.0 0.0 0.0 0.0 0.07698792 
0.0 0.0 0.0 0.0 0.0 0.07698792 
0.0 0.0 0.0 0.0 0.0 0.07698792 
0.0 0.0 0.0 0.0 0.0 0.07698792 
0.0 0.0 0.0 0.0 0.0 0.07698792 
0.0 0.0 0.0 0.0 0.0 0.0751024 
0.08348915 0.0 0.058689304 0.0 0.0 0.022812828 
0.7262904 0.0 0.0 0.0 0.0 0.07145038 
1.500582 0.0 0.0 0.012805966 0.0 0.15693107 
1.721411 0.36501822 0.0 0.20313533 0.39956823 0.025269277 
1.0511997 1.3121629 0.0 0.4696251 1.5250231 0.15732388 
0.30607522 1.602919 0.28289178 0.65097976 2.5549424 0.5920945 
0.0 1.5900553 0.25364417 0.7977963 2.710439 0.9947911 
0.032556742 0.8024878 0.0 0.5012433 2.2638056 1.3918443 
1.0195751 0.09131817 0.0 0.22427171 1.6371421 1.6377413 
1.0460103 0.49676475 0.0 0.0 1.2999979 0.7868833 
0.15981907 1.2493244 0.4296207 0.0 1.1348964 0.0 
0.0 1.5033519 1.5393714 0.0 1.3252214 0.0 
0.0 1.1606622 1.6295005 0.0 1.1059067 0.0 
0.0 0.36832646 0.56163895 0.0 0.5722713 0.0 
0.0 0.06411248 0.020622723 0.0 0.15368612 0.0 
0.0 0.0 0.0 0.0 0.0 0.07698792 
0.0 0.0 0.0 0.0 0.0 0.07698792 
0.0 0.0 0.0 0.0 0.0 0.07698792 
0.0 0.0 0.0 0.0 0.0 0.07698792 
0.0 0.0 0.0 0.0 0.0 0.07698792 
0.0 0.0 0.0 0.0 0.0 0.07698792 
0.0 0.0 0.0 0.0 0.0 0.07698792 
0.0 0.0 0.0 0.0 0.0 0.07698792 
0.0 0.0 0.0 0.0 0.0 0.07698792 
0.0 0.0 0.0 0.0 0.0 0.07698792 
0.0 0.0 0.0 0.0 0.0 0.07698792 
0.0 0.0 0.0 0.0 0.0 0.07698792 
0.0 0.0 0.0 0.0 0.0 0.068438135 
0.2858214 0.0 0.026984923 0.0 0.0 0.06285431 
1.2337947 0.0 0.0 0.0052664997 0.0 0.27474177 
1.97754 0.0 0.0 0.0 0.3741329 0.40134528 
1.8253982 0.67538977 0.0 0.04971138 1.3892177 0.2737184 
0.790785 1.4982265 0.0 0.0 2.4972613 0.32611138 
0.0 1.730521 0.085570134 0.0 2.7527907 0.46474355 
0.0 1.1736988 0.3491336 0.0 2.2711968 0.5196446 
0.3326862 0.2084834 0.0 0.0 1.4010434 0.5250387 
1.4295077 0.0 0.0 0.0 0.9752545 0.58680487 
1.3340526 0.2442576 0.0 0.0 1.1314974 0.08065035 
0.27402836 1.1582847 0.18992954 0.0 1.3718411 0.0 
0.0 1.554266 1.5813773 0.0 1.715592 0.0 
0.0 1.4087658 2.0045202 0.15388435 1.3935753 0.0 
0.0 0.67531836 0.9381485 0.0 0.7862366 0.0 
0.0 0.094742 0.17563072 0.0 0.20468311 0.0106344 
0.0 0.0 0.0 0.0 0.0 0.07698792 
0.0 0.0 0.0 0.0 0.0 0.07698792 
0.0 0.0 0.0 0.0 0.0 0.07698792 
0.0 0.0 0.0 0.0 0.0 0.07698792 
0.0 0.0 0.0 0.0 0.0 0.07698792 
0.0 0.0 0.0 0.0 0.0 0.07698792 
0.0 0.0 0.0 0.0 0.0 0.07698792 
0.0 0.0 0.0 0.0 0.0 0.07698792 
0.0 0.0 0.0 0.0 0.0 0.07698792 
0.0 0.0 0.0 0.0 0.0 0.07698792 
0.0 0.0 0.0 0.0 0.0 0.07698792 
0.0 0.0 0.0 0.0 0.0 0.07698792 
0.0 0.0 0.0 0.0 0.0 0.08875955 
0.4482847 0.0 0.0 0.07695004 0.0 0.33725256 
1.549705 0.0 0.0 0.22350192 0.05286831 0.7156345 
2.12649 0.0 0.0 0.2374722 0.881804 0.7482179 
1.592931 0.8726228 0.0 0.17460153 1.677902 0.48144037 
0.5375246 1.6769965 0.0 0.0 2.3900487 0.049966596 
0.0 1.6130171 0.8228708 0.0 2.0987747 0.0 
0.0 0.9789488 1.1028509 0.0 1.2625228 0.0 
0.7331196 0.33298662 0.66348124 0.0 0.7942633 0.0 
1.5171015 0.24829596 0.0 0.0 1.1482537 0.0 
1.1404674 0.8376923 0.0 0.0 1.6811022 0.017995827 
0.083207995 1.4533141 0.021980464 0.058396462 2.0701141 0.0 
0.0 1.8860205 1.2550862 0.4728066 2.0279675 0.0 
0.0 1.3117963 1.9268415 0.5752705 1.4850694 0.07581249 
0.0 0.6051399 1.2091494 0.38972422 0.710995 0.1394594 
0.0 0.19517183 0.3403682 0.17077775 0.068921044 0.085541666 
0.0 0.0 0.0 0.0 0.0 0.07698792 
0.0 0.0 0.0 0.0 0.0 0.07698792 
0.0 0.0 0.0 0.0 0.0 0.07698792 
0.0 0.0 0.0 0.0 0.0 0.07698792 
0.0 0.0 0.0 0.0 0.0 0.07698792 
0.0 0.0 0.0 0.0 0.0 0.07698792 
0.0 0.0 0.0 0.0 0.0 0.07698792 
0.0 0.0 0.0 0.0 0.0 0.07698792 
0.0 0.0 0.0 0.0 0.0 0.07698792 
0.0 0.0 0.0 0.0 0.0 0.07698792 
0.0 0.0 0.0 0.0 0.0 0.07698792 
0.0 0.0 0.0 0.0 0.0 0.07698792 
0.0 0.0 0.0 0.012291915 0.0 0.110066354 
0.524768 0.0 0.0 0.22371727 0.038765732 0.60819066 
1.4450703 0.0 0.0 0.35696718 0.53023034 1.174056 
1.908226 0.0 0.0 0.5495007 1.1611235 1.2241588 
1.5591025 0.5302163 0.0 0.45047766 1.663452 0.99399036 
0.52898973 1.4129913 0.33065683 0.15351894 1.8405632 0.24730328 
0.0 1.2600924 1.4042556 0.0 1.5620188 0.0 
0.27240002 1.0077084 1.7673242 0.0 1.208572 0.0 
0.7775207 0.776692 1.2622635 0.0 1.3818746 0.0 
1.1805675 0.9039463 0.15841603 0.0 1.9952382 0.0 
0.7382845 1.3400654 0.0 0.24727854 2.6136386 0.3912669 
0.0 1.7437172 0.0 0.33415937 2.6675227 0.4989822 
0.0 1.484712 0.71536803 0.39456218 2.1635578 0.52294815 
0.0 0.74951106 1.2352532 0.35706362 1.2704037 0.5421374 
0.0 0.3054505 0.97802925 0.2762198 0.43277463 0.29961783 
0.0 0.04812 0.27587292 0.079192266 0.023414966 0.117511116 
0.0 0.0 0.0 0.0 0.0 0.07698792 
0.0 0.0 0.0 0.0 0.0 0.07698792 
0.0 0.0 0.0 0.0 0.0 0.07698792 
0.0 0.0 0.0 0.0 0.0 0.07698792 
0.0 0.0 0.0 0.0 0.0 0.07698792 
0.0 0.0 0.0 0.0 0.0 0.07698792 
0.0 0.0 0.0 0.0 0.0 0.07698792 
0.0 0.0 0.0 0.0 0.0 0.07698792 
0.0 0.0 0.0 0.0 0.0 0.07698792 
0.0 0.0 0.0 0.0 0.0 0.07698792 
0.0 0.0 0.0 0.0 0.0 0.07698792 
0.0 0.0 0.0 0.0 0.0 0.07698792 
0.0 0.0 0.0 0.012693531 0.0 0.11024344 
0.5027519 0.0 0.0 0.10198609 0.33065557 0.6493903 
1.1840382 0.0 0.0 0.19019277 0.8410266 1.3609352 
1.3930225 0.0 0.0 0.42075709 1.2922424 1.6217158 
1.2921839 0.0 0.0 0.689985 1.6531531 1.7083602 
0.616665 0.52026385 0.0 1.0546254 1.6038365 1.2853968 
0.45335627 0.7815928 1.0503281 1.076585 1.571743 0.76384753 
0.63943183 1.0760658 1.4060942 0.9860787 1.6466259 0.47887194 
0.8270677 1.288149 0.95788443 0.67294395 2.009821 0.29114246 
0.7963368 1.6278774 0.26568848 0.5170357 2.5700195 0.4788176 
0.06401768 1.8067046 0.080247425 0.434343 2.9086049 0.6477072 
0.0 1.6167616 0.15333304 0.24678934 2.6161516 0.7259403 
0.0 0.8518139 0.5397007 0.10770494 1.6953309 0.6719416 
0.0 0.26090494 0.7289107 0.087146044 0.7210622 0.52124125 
0.0 0.021707486 0.5179111 0.031346746 0.23079325 0.25284213 
0.0 0.0 0.06668011 0.0 0.009609621 0.09365879 
0.0 0.0 0.0 0.0 0.0 0.07698792 
0.0 0.0 0.0 0.0 0.0 0.07698792 
0.0 0.0 0.0 0.0 0.0 0.07698792 
0.0 0.0 0.0 0.0 0.0 0.07698792 
0.0 0.0 0.0 0.0 0.0 0.07698792 
0.0 0.0 0.0 0.0 0.0 0.07698792 
0.0 0.0 0.0 0.0 0.0 0.07698792 
0.0 0.0 0.0 0.0 0.0 0.07698792 
0.0 0.0 0.0 0.0 0.0 0.07698792 
0.0 0.0 0.0 0.0 0.0 0.07698792 
0.0 0.0 0.0 0.0 0.0 0.07698792 
0.0 0.0 0.0 0.0 0.0 0.07698792 
0.0 0.0 0.0 0.0 0.0 0.0930787 
0.31189165 0.0 0.0 0.0 0.35225877 0.40906736 
0.8569185 0.0 0.0 0.0 0.8324334 1.0419292 
1.0370347 0.0 0.0 0.0 1.2495464 1.457073 
1.0147305 0.0 0.0 0.17396843 1.4870361 1.7030528 
0.8956969 0.0 0.0 0.5616081 1.4380311 1.6889837 
1.117291 0.22660533 0.0 0.7707196 1.5712596 1.4352574 
1.3408701 0.724557 0.13433656 0.6735024 1.8609773 1.0811372 
1.070169 1.3610691 0.10766307 0.50687855 2.351471 0.7520481 
0.19333127 1.7620975 0.06316347 0.23280907 2.9499717 0.6533187 
0.0 1.5966667 0.18379703 0.004292031 2.93989 0.6502524 
0.0 1.0591604 0.46018738 0.0 2.0449805 0.68069106 
0.0 0.30145913 0.5647324 0.0 0.99043804 0.52523494 
0.0 0.0018485868 0.43202478 0.0 0.3400958 0.34576124 
0.0 0.0 0.18268156 0.0 0.08132069 0.12733537 
0.0 0.0 0.0 0.0 0.0 0.07889041 
0.0 0.0 0.0 0.0 0.0 0.07698792 
0.0 0.0 0.0 0.0 0.0 0.07698792 
0.0 0.0 0.0 0.0 0.0 0.07698792 
0.0 0.0 0.0 0.0 0.0 0.07698792 
0.0 0.0 0.0 0.0 0.0 0.07698792 
0.0 0.0 0.0 0.0 0.0 0.07698792 
0.0 0.0 0.0 0.0 0.0 0.07698792 
0.0 0.0 0.0 0.0 0.0 0.07698792 
0.0 0.0 0.0 0.0 0.0 0.07698792 
0.0 0.0 0.0 0.0 0.0 0.07698792 
0.0 0.0 0.0 0.0 0.0 0.07698792 
0.0 0.0 0.0 0.0 0.0 0.07698792 
0.0 0.0 0.0 0.0 0.0 0.07698792 
0.06517422 0.0 0.0 0.0 0.13998382 0.17453444 
0.4202659 0.0 0.0 0.0 0.5008515 0.50892586 
0.71986866 0.0 0.0 0.0 0.8053607 0.86418444 
1.0461576 0.0 0.0 0.0 0.89810514 1.1187837 
1.514034 0.0 0.0 0.0 1.0010061 1.3106658 
1.6722722 0.0 0.0 0.0 1.2886263 1.138989 
1.5537691 0.45961836 0.0 0.0 1.8245938 0.82388586 
0.7177658 1.2819146 0.0 0.0 2.6769223 0.7240088 
0.0 1.6416471 0.14889875 0.0 3.0141475 0.54610795 
0.0 1.364871 0.60340416 0.0 2.3193452 0.47630244 
0.0 0.5223166 0.7419765 0.0 1.3672153 0.48980266 
0.0 0.090039335 0.56389207 0.0 0.48702452 0.34501415 
0.0 0.0 0.18056306 0.0 0.1173248 0.15500987 
0.0 0.0 0.0 0.0 0.0 0.0822388 
0.0 0.0 0.0 0.0 0.0 0.07698792 
0.0 0.0 0.0 0.0 0.0 0.07698792 
0.0 0.0 0.0 0.0 0.0 0.07698792 
0.0 0.0 0.0 0.0 0.0 0.07698792 
0.0 0.0 0.0 0.0 0.0 0.07698792 
0.0 0.0 0.0 0.0 0.0 0.07698792 
0.0 0.0 0.0 0.0 0.0 0.07698792 
0.0 0.0 0.0 0.0 0.0 0.07698792 
0.0 0.0 0.0 0.0 0.0 0.07698792 
0.0 0.0 0.0 0.0 0.0 0.07698792 
0.0 0.0 0.0 0.0 0.0 0.07698792 
0.0 0.0 0.0 0.0 0.0 0.07698792 
0.0 0.0 0.0 0.0 0.0 0.07698792 
0.0 0.0 0.0 0.0 0.0 0.07698792 
0.0 0.0 0.0 0.0 0.0 0.08379556 
0.08796394 0.0 0.0 0.0 0.16500394 0.17395459 
0.45673585 0.0 0.0 0.0 0.20970808 0.2576974 
1.1164501 0.0 0.0 0.0 0.18548846 0.31471685 
1.810632 0.0 0.0 0.0 0.54296726 0.50114584 
1.9523199 0.0 0.0 0.0 1.2416319 0.45667732 
1.2613168 0.6683078 0.0 0.0 2.267836 0.53078985 
0.089061454 1.271254 0.0 0.0 3.0029182 0.5900387 
0.0 1.5176827 0.34927168 0.08197096 2.6137898 0.49298355 
0.0 0.91792476 0.9039462 0.08240755 1.6855303 0.53708124 
0.0 0.2644874 0.85270464 0.05818116 0.78177893 0.40342158 
0.0 0.0 0.40263027 0.0 0.18488443 0.18758118 
0.0 0.0 0.01057265 0.0 0.0 0.08607055 
0.0 0.0 0.0 0.0 0.0 0.07698792 
0.0 0.0 0.0 0.0 0.0 0.07698792 
0.0 0.0 0.0 0.0 0.0 0.07698792 
0.0 0.0 0.0 0.0 0.0 0.07698792 
0.0 0.0 0.0 0.0 0.0 0.07698792 
0.0 0.0 0.0 0.0 0.0 0.07698792 
0.0 0.0 0.0 0.0 0.0 0.07698792 
0.0 0.0 0.0 0.0 0.0 0.07698792 
0.0 0.0 0.0 0.0 0.0 0.07698792 
0.0 0.0 0.0 0.0 0.0 0.07698792 
0.0 0.0 0.0 0.0 0.0 0.07698792 
0.0 0.0 0.0 0.0 0.0 0.07698792 
0.0 0.0 0.0 0.0 0.0 0.07698792 
0.0 0.0 0.0 0.0 0.0 0.07698792 
0.0 0.0 0.0 0.0 0.0 0.07698792 
0.0 0.0 0.0 0.0 0.0 0.07698792 
0.031386912 0.0 0.05438646 0.0 0.0 0.025067285 
0.50866336 0.0 0.03779059 0.0 0.0 0.0 
1.2756071 0.0 0.0 0.0 0.0 0.05557262 
1.9057474 0.0 0.0 0.0 0.38388476 0.056591377 
1.6893299 0.70964617 0.0 0.0 1.541599 0.19913918 
0.6681755 1.336731 0.0 0.07770175 2.6695058 0.49533686 
0.0 1.6450454 0.0 0.11726778 2.7909892 0.55388856 
0.0 1.1977313 0.6338531 0.17662427 2.0294678 0.5560801 
0.0 0.41748583 0.89914393 0.108535826 1.0918372 0.528492 
0.0 0.12525411 0.6811404 0.10484165 0.3396624 0.29128504 
0.0 0.0 0.13264677 0.0 0.04070166 0.10841447 
0.0 0.0 0.0 0.0 0.0 0.07790112 
0.0 0.0 0.0 0.0 0.0 0.07698792 
0.0 0.0 0.0 0.0 0.0 0.07698792 
0.0 0.0 0.0 0.0 0.0 0.07698792 
0.0 0.0 0.0 0.0 0.0 0.07698792 
0.0 0.0 0.0 0.0 0.0 0.07698792 
0.0 0.0 0.0 0.0 0.0 0.07698792 
0.0 0.0 0.0 0.0 0.0 0.07698792 
0.0 0.0 0.0 0.0 0.0 0.07698792 
0.0 0.0 0.0 0.0 0.0 0.07698792 
0.0 0.0 0.0 0.0 0.0 0.07698792 
0.0 0.0 0.0 0.0 0.0 0.07698792 
0.0 0.0 0.0 0.0 0.0 0.07698792 
0.0 0.0 0.0 0.0 0.0 0.07698792 
0.0 0.0 0.0 0.0 0.0 0.07698792 
0.0 0.0 0.0 0.0 0.0 0.07698792 
0.0 0.0 0.0 0.0 0.0 0.07698792 
0.14300495 0.0 0.0015552267 0.0 0.0 0.06559551 
0.92871517 0.0 0.0 0.0 0.0 0.19645384 
1.7323151 0.0 0.0 0.047510277 0.003404919 0.3269024 
1.7883134 0.4220674 0.0 0.14214697 1.0656482 0.34169528 
0.95515615 1.1700826 0.0 0.2447741 2.2988708 0.5391799 
0.0 1.6179353 0.0 0.2664613 2.8552635 0.68334603 
0.0 1.4284352 0.28165507 0.27324465 2.332339 0.7450928 
0.0 0.6064256 0.68834656 0.09167978 1.3574345 0.6378482 
0.0 0.16985421 0.6871284 0.04972001 0.5366749 0.42366368 
0.0 0.0 0.35203865 0.0 0.12761743 0.17376566 
0.0 0.0 0.0 0.0 0.0 0.08353167 
0.0 0.0 0.0 0.0 0.0 0.07698792 
0.0 0.0 0.0 0.0 0.0 0.07698792 
0.0 0.0 0.0 0.0 0.0 0.07698792 
0.0 0.0 0.0 0.0 0.0 0.07698792 
0.0 0.0 0.0 0.0 0.0 0.07698792 
0.0 0.0 0.0 0.0 0.0 0.07698792 
0.0 0.0 0.0 0.0 0.0 0.07698792 
0.0 0.0 0.0 0.0 0.0 0.07698792 
0.0 0.0 0.0 0.0 0.0 0.07698792 
0.0 0.0 0.0 0.0 0.0 0.07698792 
0.0 0.0 0.0 0.0 0.0 0.07698792 
0.0 0.0 0.0 0.0 0.0 0.07698792 
0.0 0.0 0.0 0.0 0.0 0.07698792 
0.0 0.0 0.0 0.0 0.0 0.07698792 
0.0 0.0 0.0 0.0 0.0 0.07698792 
0.0 0.0 0.0 0.0 0.0 0.07698792 
0.0 0.0 0.008379847 0.0 0.0 0.046065256 
0.45074487 0.0 0.0 0.0 0.0 0.10456828 
1.3567982 0.0 0.0 0.0042164596 0.0 0.30768678 
1.9130814 0.0 0.0 0.0346777 0.71879303 0.4380948 
1.4200892 0.82807314 0.0 0.23926696 1.8549504 0.52866876 
0.25968656 1.4542112 0.0 0.20882507 2.7111895 0.68254155 
0.0 1.3787708 0.04266332 0.17625187 2.6000364 0.78171057 
0.0 0.6882596 0.50767744 0.095808536 1.6420884 0.70212036 
0.0 0.19511844 0.62050015 0.043528065 0.6867865 0.49751806 
0.0 0.0 0.38716745 0.0 0.23754098 0.24650143 
0.0 0.0 0.046245918 0.0 0.025100637 0.098274715 
0.0 0.0 0.0 0.0 0.0 0.07782502 
0.0 0.0 0.0 0.0 0.0 0.07698792 
0.0 0.0 0.0 0.0 0.0 0.07698792 
0.0 0.0 0.0 0.0 0.0 0.07698792 
0.0 0.0 0.0 0.0 0.0 0.07698792 
0.0 0.0 0.0 0.0 0.0 0.07698792 
0.0 0.0 0.0 0.0 0.0 0.07698792 
0.0 0.0 0.0 0.0 0.0 0.07698792 
0.0 0.0 0.0 0.0 0.0 0.07698792 
0.0 0.0 0.0 0.0 0.0 0.07698792 
0.0 0.0 0.0 0.0 0.0 0.07698792 
0.0 0.0 0.0 0.0 0.0 0.07698792 
0.0 0.0 0.0 0.0 0.0 0.07698792 
0.0 0.0 0.0 0.0 0.0 0.07698792 
0.0 0.0 0.0 0.0 0.0 0.07698792 
0.0 0.0 0.0 0.0 0.0 0.07698792 
0.0 0.0 0.0 0.0 0.0 0.066051856 
0.16740969 0.0 0.11427792 0.0 0.0 0.0 
0.9381183 0.0 0.0 0.0 0.0 0.08955925 
1.764359 0.0 0.0 0.0 0.17370336 0.36271092 
1.7423317 0.5051927 0.0 0.0 1.275049 0.3594277 
0.63199955 1.2962778 0.0 0.002445546 2.3132734 0.49130976 
0.0 1.459733 0.0 0.051242482 2.6143434 0.7121071 
0.0 0.93203586 0.38983262 0.055206265 1.8142387 0.75449127 
0.0 0.23639816 0.55968094 0.0 0.8242277 0.5415404 
0.0 0.0 0.4441569 0.0 0.27821583 0.31919605 
0.0 0.0 0.15766135 0.0 0.052577425 0.114113525 
0.0 0.0 0.0 0.0 0.0 0.07782502 
0.0 0.0 0.0 0.0 0.0 0.07698792 
0.0 0.0 0.0 0.0 0.0 0.07698792 
0.0 0.0 0.0 0.0 0.0 0.07698792 
0.0 0.0 0.0 0.0 0.0 0.07698792 
0.0 0.0 0.0 0.0 0.0 0.07698792 
0.0 0.0 0.0 0.0 0.0 0.07698792 
0.0 0.0 0.0 0.0 0.0 0.07698792 
0.0 0.0 0.0 0.0 0.0 0.07698792 
0.0 0.0 0.0 0.0 0.0 0.07698792 
0.0 0.0 0.0 0.0 0.0 0.07698792 
0.0 0.0 0.0 0.0 0.0 0.07698792 
0.0 0.0 0.0 0.0 0.0 0.07698792 
0.0 0.0 0.0 0.0 0.0 0.07698792 
0.0 0.0 0.0 0.0 0.0 0.07698792 
0.0 0.0 0.0 0.0 0.0 0.07698792 
0.0 0.0 0.0 0.0 0.0 0.07698792 
0.0 0.0 0.0 0.0 0.0 0.07219934 
0.40326494 0.0 0.0040040985 0.0 0.0 0.09629344 
1.4542298 0.0 0.0 0.0 0.0 0.29901195 
2.0156562 0.0 0.0 0.0 0.6712795 0.3711031 
1.2313402 1.0775046 0.0 0.0 1.8149583 0.15766153 
0.0 1.4942842 0.0 0.0 2.6012852 0.22140007 
0.0 1.2157714 0.35053343 0.0 2.069064 0.38770774 
0.0 0.3729129 0.57653767 0.0 1.1922368 0.46926993 
0.0 0.01677429 0.42004007 0.0 0.35940203 0.34141746 
0.0 0.0 0.13429484 0.0 0.10060269 0.14601085 
0.0 0.0 0.0 0.0 0.0 0.08163 
0.0 0.0 0.0 0.0 0.0 0.07698792 
0.0 0.0 0.0 0.0 0.0 0.07698792 
0.0 0.0 0.0 0.0 0.0 0.07698792 
0.0 0.0 0.0 0.0 0.0 0.07698792 
0.0 0.0 0.0 0.0 0.0 0.07698792 
0.0 0.0 0.0 0.0 0.0 0.07698792 
0.0 0.0 0.0 0.0 0.0 0.07698792 
0.0 0.0 0.0 0.0 0.0 0.07698792 
0.0 0.0 0.0 0.0 0.0 0.07698792 
0.0 0.0 0.0 0.0 0.0 0.07698792 
0.0 0.0 0.0 0.0 0.0 0.07698792 
0.0 0.0 0.0 0.0 0.0 0.07698792 
0.0 0.0 0.0 0.0 0.0 0.07698792 
0.0 0.0 0.0 0.0 0.0 0.07698792 
0.0 0.0 0.0 0.0 0.0 0.07698792 
0.0 0.0 0.0 0.0 0.0 0.07698792 
0.0 0.0 0.0 0.0 0.0 0.07698792 
0.03794442 0.0 0.0 0.0 0.0 0.08150588 
0.75308573 0.0 0.0 0.04126432 0.0 0.3087801 
1.731601 0.0 0.0 0.132682 0.06338203 0.5011939 
1.937521 0.21828628 0.0 0.13032669 1.041359 0.3643778 
0.7581143 1.5851307 0.0 0.004314375 1.988643 0.013789222 
0.0 1.8250192 0.34164736 0.0 2.2393548 0.0 
0.0 1.1352086 1.0606285 0.0 1.526554 0.116921544 
0.0 0.23187104 0.74514794 0.0 0.82593864 0.207064 
0.0 0.0 0.24002066 0.0 0.1113783 0.16144073 
0.0 0.0 0.0 0.0 0.0 0.08163 
0.0 0.0 0.0 0.0 0.0 0.07698792 
0.0 0.0 0.0 0.0 0.0 0.07698792 
0.0 0.0 0.0 0.0 0.0 0.07698792 
0.0 0.0 0.0 0.0 0.0 0.07698792 
0.0 0.0 0.0 0.0 0.0 0.07698792 
0.0 0.0 0.0 0.0 0.0 0.07698792 
0.0 0.0 0.0 0.0 0.0 0.07698792 
0.0 0.0 0.0 0.0 0.0 0.07698792 
0.0 0.0 0.0 0.0 0.0 0.07698792 
0.0 0.0 0.0 0.0 0.0 0.07698792 
0.0 0.0 0.0 0.0 0.0 0.07698792 
0.0 0.0 0.0 0.0 0.0 0.07698792 
0.0 0.0 0.0 0.0 0.0 0.07698792 
0.0 0.0 0.0 0.0 0.0 0.07698792 
0.0 0.0 0.0 0.0 0.0 0.07698792 
0.0 0.0 0.0 0.0 0.0 0.07698792 
0.0 0.0 0.0 0.0 0.0 0.07698792 
0.0 0.0 0.0 0.0 0.0 0.07698792 
0.06990063 0.0 0.0 0.022031851 0.0 0.15397015 
1.032356 0.0 0.0 0.17415348 0.0 0.67313987 
2.0145586 0.0 0.0 0.17024958 0.49757478 0.9350954 
1.7236984 0.42685014 0.0 0.22072825 1.3323654 0.640655 
0.28026268 1.5830083 0.0 0.09817185 1.9908816 0.1024857 
0.0 1.7819477 1.097107 0.03178781 2.0183089 0.0 
0.0 0.93524307 1.4917091 0.0 1.3585784 0.12010446 
0.0 0.18948555 0.7957408 0.0 0.6320315 0.07960399 
0.0 0.0 0.014543377 0.0 0.0 0.08619598 
0.0 0.0 0.0 0.0 0.0 0.07698792 
0.0 0.0 0.0 0.0 0.0 0.07698792 
0.0 0.0 0.0 0.0 0.0 0.07698792 
0.0 0.0 0.0 0.0 0.0 0.07698792 
0.0 0.0 0.0 0.0 0.0 0.07698792 
0.0 0.0 0.0 0.0 0.0 0.07698792 
0.0 0.0 0.0 0.0 0.0 0.07698792 
0.0 0.0 0.0 0.0 0.0 0.07698792 
0.0 0.0 0.0 0.0 0.0 0.07698792 
0.0 0.0 0.0 0.0 0.0 0.07698792 
0.0 0.0 0.0 0.0 0.0 0.07698792 
0.0 0.0 0.0 0.0 0.0 0.07698792 
0.0 0.0 0.0 0.0 0.0 0.07698792 
0.0 0.0 0.0 0.0 0.0 0.07698792 
0.0 0.0 0.0 0.0 0.0 0.07698792 
0.0 0.0 0.0 0.0 0.0 0.07698792 
0.0 0.0 0.0 0.0 0.0 0.07698792 
0.0 0.0 0.0 0.0 0.0 0.07698792 
0.0 0.0 0.0 0.0 0.0 0.07698792 
0.10669662 0.0 0.0 0.039721664 0.0 0.23501506 
0.9882452 0.0 0.0 0.20627686 0.3365508 0.9514876 
1.6537132 0.0 0.0 0.4689886 1.0353009 1.4701025 
1.2945063 0.06197165 0.0 0.70043164 1.7290596 1.3882129 
0.0 1.2188686 0.0 0.8282258 1.9188006 0.95910126 
0.0 1.1608428 1.2188097 0.6856717 1.7653967 0.4840126 
0.0 0.62584656 1.4904668 0.40986216 1.0519644 0.41474143 
0.0 0.19320278 0.80862117 0.17972167 0.33886018 0.09672162 
0.0 0.0 0.0 0.0 0.0 0.07698792 
0.0 0.0 0.0 0.0 0.0 0.07698792 
0.0 0.0 0.0 0.0 0.0 0.07698792 
0.0 0.0 0.0 0.0 0.0 0.07698792 
0.0 0.0 0.0 0.0 0.0 0.07698792 
0.0 0.0 0.0 0.0 0.0 0.07698792 
0.0 0.0 0.0 0.0 0.0 0.07698792 
0.0 0.0 0.0 0.0 0.0 0.07698792 
0.0 0.0 0.0 0.0 0.0 0.07698792 
0.0 0.0 0.0 0.0 0.0 0.07698792 
0.0 0.0 0.0 0.0 0.0 0.07698792 
0.0 0.0 0.0 0.0 0.0 0.07698792 
0.0 0.0 0.0 0.0 0.0 0.07698792 
0.0 0.0 0.0 0.0 0.0 0.07698792 
0.0 0.0 0.0 0.0 0.0 0.07698792 
0.0 0.0 0.0 0.0 0.0 0.07698792 
0.0 0.0 0.0 0.0 0.0 0.07698792 
0.0 0.0 0.0 0.0 0.0 0.07698792 
0.0 0.0 0.0 0.0 0.0 0.07698792 
0.0 0.0 0.0 0.0 0.0 0.07698792 
0.08318563 0.0 0.0 0.05597738 0.026193116 0.23686741 
0.8021502 0.0 0.0 0.13235778 0.60498846 0.9602223 
1.1557107 0.0 0.0 0.29827562 1.2163018 1.4404702 
0.7044074 0.0 0.0 0.44370645 1.6155871 1.369858 
0.0 0.57867855 0.0 0.54228836 1.4949232 1.157162 
0.0 0.61460966 0.6964139 0.5442629 1.0391824 0.7399962 
0.0 0.34631032 1.0253576 0.3504477 0.5181702 0.48858038 
0.0 0.09921115 0.5904774 0.15404275 0.13092174 0.13945547 
0.0 0.0 0.0 0.0 0.0 0.07698792 
0.0 0.0 0.0 0.0 0.0 0.07698792 
0.0 0.0 0.0 0.0 0.0 0.07698792 
0.0 0.0 0.0 0.0 0.0 0.07698792 
0.0 0.0 0.0 0.0 0.0 0.07698792 
0.0 0.0 0.0 0.0 0.0 0.07698792 
0.0 0.0 0.0 0.0 0.0 0.07698792 
0.0 0.0 0.0 0.0 0.0 0.07698792 
0.0 0.0 0.0 0.0 0.0 0.07698792 
0.0 0.0 0.0 0.0 0.0 0.07698792 
0.0 0.0 0.0 0.0 0.0 0.07698792 
0.0 0.0 0.0 0.0 0.0 0.07698792 
0.0 0.0 0.0 0.0 0.0 0.07698792 
0.0 0.0 0.0 0.0 0.0 0.07698792 
0.0 0.0 0.0 0.0 0.0 0.07698792 
0.0 0.0 0.0 0.0 0.0 0.07698792 
0.0 0.0 0.0 0.0 0.0 0.07698792 
0.0 0.0 0.0 0.0 0.0 0.07698792 
0.0 0.0 0.0 0.0 0.0 0.07698792 
0.0 0.0 0.0 0.0 0.0 0.07698792 
0.044314384 0.0 0.0 0.0 0.08053993 0.17212826 
0.49944234 0.0 0.0 0.0 0.5095318 0.63081235 
0.7315882 0.0 0.0 0.0 0.96085757 1.0675728 
0.4209728 0.0 0.0 0.0 1.0738274 1.1036952 
0.0 0.08627592 0.0 0.0 0.7497879 0.9074687 
0.0 0.0 0.0 0.0 0.46228376 0.58950406 
0.0 0.0 0.38953757 0.0 0.2507635 0.3603406 
0.0 0.0 0.2479206 0.0 0.055933807 0.11938139 
0.0 0.0 0.0 0.0 0.0 0.07698792 
0.0 0.0 0.0 0.0 0.0 0.07698792 
0.0 0.0 0.0 0.0 0.0 0.07698792 
0.0 0.0 0.0 0.0 0.0 0.07698792 
0.0 0.0 0.0 0.0 0.0 0.07698792 
0.0 0.0 0.0 0.0 0.0 0.07698792 
0.0 0.0 0.0 0.0 0.0 0.07698792 
0.0 0.0 0.0 0.0 0.0 0.07698792 
0.0 0.0 0.0 0.0 0.0 0.07698792 
0.0 0.0 0.0 0.0 0.0 0.07698792 
0.0 0.0 0.0 0.0 0.0 0.07698792 
0.0 0.0 0.0 0.0 0.0 0.07698792 
0.0 0.0 0.0 0.0 0.0 0.07698792 
0.0 0.0 0.0 0.0 0.0 0.07698792 
0.0 0.0 0.0 0.0 0.0 0.07698792 
0.0 0.0 0.0 0.0 0.0 0.07698792 
0.0 0.0 0.0 0.0 0.0 0.07698792 
0.0 0.0 0.0 0.0 0.0 0.07698792 
0.0 0.0 0.0 0.0 0.0 0.07698792 
0.0 0.0 0.0 0.0 0.0 0.07698792 
0.0 0.0 0.0 0.0 0.0 0.09802971 
0.18601084 0.0 0.0 0.0 0.33564347 0.2530992 
0.3199926 0.0 0.0 0.0 0.5438234 0.3693628 
0.15539122 0.0 0.0 0.0 0.4782808 0.32070673 
0.0 0.0 0.0 0.0 0.3462802 0.31160128 
0.0 0.0 0.0 0.0 0.26427132 0.24282388 
0.0 0.0 0.0 0.0 0.11825962 0.15619391 
0.0 0.0 0.0050207637 0.0 0.0 0.08497839 
0.0 0.0 0.0 0.0 0.0 0.07698792 
0.0 0.0 0.0 0.0 0.0 0.07698792 
0.0 0.0 0.0 0.0 0.0 0.07698792 
0.0 0.0 0.0 0.0 0.0 0.07698792 
0.0 0.0 0.0 0.0 0.0 0.07698792 
0.0 0.0 0.0 0.0 0.0 0.07698792 
0.0 0.0 0.0 0.0 0.0 0.07698792 
0.0 0.0 0.0 0.0 0.0 0.07698792 
0.0 0.0 0.0 0.0 0.0 0.07698792 
0.0 0.0 0.0 0.0 0.0 0.07698792 
0.0 0.0 0.0 0.0 0.0 0.07698792 
0.0 0.0 0.0 0.0 0.0 0.07698792 
0.0 0.0 0.0 0.0 0.0 0.07698792 

