0.0 0.0 0.0 0.0 0.0 0.07698792 
0.0 0.0 0.0 0.0 0.0 0.07698792 
0.0 0.0 0.0 0.0 0.0 0.07698792 
0.0 0.0 0.0 0.0 0.0 0.07698792 
0.0 0.0 0.0 0.0 0.0 0.07698792 
0.0 0.0 0.0 0.0 0.0 0.07698792 
0.0 0.0 0.0 0.0 0.0 0.07698792 
0.0 0.0 0.0 0.0 0.0 0.07698792 
0.0 0.0 0.0 0.0 0.0 0.07698792 
0.0 0.0 0.0 0.0 0.0 0.07698792 
0.0 0.0 0.0 0.0 0.0 0.07698792 
0.0 0.0 0.0 0.0 0.0 0.07698792 
0.0 0.0 0.0 0.0 0.0 0.07698792 
0.0 0.0 0.0 0.0 0.0 0.07698792 
0.0 0.0 0.0 0.0 0.0 0.07698792 
0.0 0.0 0.0 0.0 0.0 0.07698792 
0.0 0.0 0.0 0.0 0.0 0.07698792 
0.0 0.0 0.0 0.0 0.0 0.07698792 
0.0 0.0 0.0 0.0 0.0 0.07698792 
0.0 0.0 0.0 0.0 0.0 0.07698792 
0.0 0.0 0.0 0.0 0.0 0.07698792 
0.0 0.0 0.0 0.0 0.0 0.07698792 
0.0 0.0 0.0 0.0 0.0 0.07698792 
0.0 0.0 0.0 0.0 0.0 0.07698792 
0.0 0.0 0.0 0.0 0.0 0.07698792 
0.0 0.0 0.0 0.0 0.0 0.07698792 
0.0 0.0 0.0 0.0 0.0 0.07698792 
0.0 0.0 0.0 0.0 0.0 0.07698792 
0.0 0.0 0.0 0.0 0.0 0.07698792 
0.0 0.0 0.0 0.0 0.0 0.07698792 
0.0 0.0 0.0 0.0 0.0 0.07698792 
0.0 0.0 0.0 0.0 0.0 0.07698792 
0.0 0.0 0.0 0.0 0.0 0.07698792 
0.0 0.0 0.0 0.0 0.0 0.07698792 
0.0 0.0 0.0 0.0 0.0 0.07698792 
0.0 0.0 0.0 0.0 0.0 0.07698792 
0.0 0.0 0.0 0.0 0.0 0.07698792 
0.0 0.0 0.0 0.0 0.0 0.07698792 
0.0 0.0 0.0 0.0 0.0 0.07698792 
0.0 0.0 0.0 0.0 0.0 0.07698792 
0.0 0.0 0.0 0.0 0.0 0.07698792 
0.0 0.0 0.0 0.0 0.0 0.07698792 
0.0 0.0 0.0 0.0 0.0 0.07698792 
0.0 0.0 0.0 0.0 0.0 0.07698792 
0.0 0.0 0.0 0.0 0.0 0.07698792 
0.0 0.0 0.0 0.0 0.0 0.07698792 
0.0 0.0 0.0 0.0 0.0 0.07698792 
0.0 0.0 0.0 0.0 0.0 0.07698792 
0.0 0.0 0.0 0.0 0.0 0.07698792 
0.0 0.0 0.0 0.0 0.0 0.07698792 
0.0 0.0 0.0 0.0 0.0 0.07698792 
0.0 0.0 0.0 0.0 0.0 0.07698792 
0.0 0.0 0.0 0.0 0.0 0.07698792 
0.0 0.0 0.0 0.0 0.0 0.07698792 
0.0 0.0 0.0 0.0 0.0 0.07698792 
0.0 0.0 0.0 0.0 0.0 0.07698792 
0.0 0.0 0.0 0.0 0.0 0.07698792 
0.0 0.0 0.0 0.0 0.0 0.07698792 
0.0 0.0 0.0 0.0 0.0 0.07698792 
0.0 0.0 0.0 0.0 0.0 0.07698792 
0.0 0.0 0.0 0.0 0.0 0.07698792 
0.0 0.0 0.0 0.0 0.0 0.07698792 
0.0 0.0 0.0 0.0 0.0 0.07698792 
0.0 0.0 0.0 0.0 0.0 0.07698792 
0.0 0.0 0.0 0.0 0.0 0.07698792 
0.0 0.0 0.0 0.0 0.0 0.07698792 
0.0 0.0 0.0 0.0 0.0 0.07698792 
0.0 0.0 0.0 0.0 0.0 0.07698792 
0.0 0.0 0.0 0.0 0.0 0.07698792 
0.0 0.0 0.0 0.0 0.0 0.07698792 
0.0 0.0 0.0 0.0 0.0 0.07698792 
0.0 0.0 0.0 0.0 0.0 0.07698792 
0.0 0.0 0.0 0.0 0.0 0.07698792 
0.0 0.0 0.0 0.0 0.0 0.07698792 
0.0 0.0 0.0 0.0 0.0 0.07698792 
0.0 0.0 0.0 0.0 0.0 0.07698792 
0.0 0.0 0.0 0.0 0.0 0.07698792 
0.0 0.0 0.0 0.0 0.0 0.07698792 
0.0 0.0 0.0 0.0 0.0 0.07698792 
0.0 0.0 0.0 0.0 0.0 0.07698792 
0.0 0.0 0.0 0.0 0.0 0.07698792 
0.0 0.0 0.0 0.0 0.0 0.07698792 
0.0 0.0 0.0 0.0 0.0 0.07698792 
0.0 0.0 0.0 0.0 0.0 0.07698792 
0.0 0.0 0.0 0.0 0.0 0.07698792 
0.0 0.0 0.0 0.0 0.0 0.07698792 
0.0 0.0 0.0 0.0 0.0 0.07698792 
0.0 0.0 0.0 0.0 0.0 0.07698792 
0.0 0.0 0.0 0.0 0.0 0.07698792 
0.0 0.0 0.0 0.0 0.0 0.07698792 
0.0 0.0 0.0 0.0 0.0 0.07698792 
0.0 0.0 0.0 0.0 0.0 0.07698792 
0.0 0.0 0.0 0.0 0.0 0.07698792 
0.0 0.0 0.0 0.0 0.0 0.07698792 
0.0 0.0 0.0 0.0 0.0 0.07698792 
0.0 0.0 0.0 0.0 0.0 0.07698792 
0.0 0.0 0.0 0.0 0.0 0.07698792 
0.0 0.0 0.0 0.0 0.0 0.07698792 
0.0 0.0 0.0 0.0 0.0 0.07698792 
0.0 0.0 0.0 0.0 0.0 0.07698792 
0.0 0.0 0.0 0.0 0.0 0.07698792 
0.0 0.0 0.0 0.0 0.0 0.07698792 
0.0 0.0 0.0 0.0 0.0 0.07698792 
0.0 0.0 0.0 0.0 0.0 0.07698792 
0.0 0.0 0.0 0.0 0.0 0.07698792 
0.0 0.0 0.0 0.0 0.0 0.07698792 
0.0 0.0 0.0 0.0 0.0 0.07698792 
0.0 0.0 0.0 0.0 0.0 0.07698792 
0.0 0.0 0.0 0.0 0.0 0.07698792 
0.0 0.0 0.0 0.0 0.0 0.07698792 
0.0 0.0 0.0 0.0 0.0 0.07698792 
0.0 0.0 0.0 0.0 0.0 0.07698792 
0.0 0.0 0.0 0.0 0.0 0.07698792 
0.0 0.0 0.0 0.0 0.0 0.07698792 
0.0 0.0 0.0 0.0 0.0 0.07698792 
0.0 0.0 0.0 0.0 0.0 0.07698792 
0.0 0.0 0.0 0.0 0.0 0.07698792 
0.0 0.0 0.0 0.0 0.0 0.07698792 
0.0 0.0 0.0 0.0 0.0 0.07698792 
0.0 0.0 0.0 0.0 0.0 0.07698792 
0.0 0.0 0.0 0.0 0.0 0.07698792 
0.0 0.0 0.0 0.0 0.0 0.07698792 
0.0 0.0 0.0 0.0 0.0 0.07698792 
0.0 0.0 0.0 0.0 0.0 0.07698792 
0.0 0.0 0.0 0.0 0.0 0.07698792 
0.0 0.0 0.0 0.0 0.0 0.07698792 
0.0 0.0 0.0 0.0 0.0 0.05247605 
0.094377995 0.0 0.09065596 0.0 0.0 0.0 
0.1109322 0.13095586 0.06314895 0.0 0.0 0.0 
0.08531019 0.11742598 0.20652092 0.0 0.0 0.0 
0.28309396 0.23638964 0.3368018 0.0 0.0 0.0 
0.21311343 0.38549852 0.22942168 0.0 0.0 0.0 
0.0076984987 0.37951243 0.19636947 0.0 0.0 0.0 
0.0 0.36031657 0.15881363 0.0 0.03886616 0.0 
0.0 0.1977362 0.032019638 0.0 0.0825112 0.0 
0.0 0.03157604 0.0 0.0 0.0 0.03999052 
0.0 0.0 0.0 0.0 0.0 0.07698792 
0.0 0.0 0.0 0.0 0.0 0.07698792 
0.0 0.0 0.0 0.0 0.0 0.07698792 
0.0 0.0 0.0 0.0 0.0 0.07698792 
0.0 0.0 0.0 0.0 0.0 0.07698792 
0.0 0.0 0.0 0.0 0.0 0.07698792 
0.0 0.0 0.0 0.0 0.0 0.07698792 
0.0 0.0 0.0 0.0 0.0 0.07698792 
0.0 0.0 0.0 0.0 0.0 0.07698792 
0.0 0.0 0.0 0.0 0.0 0.07698792 
0.0 0.0 0.0 0.0 0.0 0.07698792 
0.0 0.0 0.0 0.0 0.0 0.07698792 
0.0 0.0 0.0 0.0 0.0 0.07698792 
0.0 0.0 0.0 0.0 0.0 0.07698792 
0.0 0.0 0.0 0.0 0.0 0.07698792 
0.0 0.0 0.0 0.0 0.0 0.07698792 
0.0 0.0 0.0 0.0 0.0 0.07698792 
0.0 0.0 0.0 0.0 0.0 0.053230263 
0.19034415 0.0 0.1326004 0.0 0.0 0.0 
0.5160449 0.0 0.23055652 0.0 0.0 0.0 
0.5782402 0.31842265 0.40805268 0.0 0.0 0.0 
0.5258023 0.5916537 0.54685473 0.0 0.0 0.0 
0.48733544 0.6631208 0.715448 0.0 0.0 0.0 
0.35839638 0.73854387 0.56000113 0.0 0.18953054 0.0 
0.0 0.9980827 0.5644916 0.0 0.33370262 0.0 
0.0 0.81316733 0.58538896 0.0 0.5550623 0.0 
0.0 0.22458333 0.23001245 0.0 0.47333863 0.0 
0.0 0.0 0.0 0.0 0.051182073 0.045713015 
0.0 0.0 0.0 0.0 0.0 0.07698792 
0.0 0.0 0.0 0.0 0.0 0.07698792 
0.0 0.0 0.0 0.0 0.0 0.07698792 
0.0 0.0 0.0 0.0 0.0 0.07698792 
0.0 0.0 0.0 0.0 0.0 0.07698792 
0.0 0.0 0.0 0.0 0.0 0.07698792 
0.0 0.0 0.0 0.0 0.0 0.07698792 
0.0 0.0 0.0 0.0 0.0 0.07698792 
0.0 0.0 0.0 0.0 0.0 0.07698792 
0.0 0.0 0.0 0.0 0.0 0.07698792 
0.0 0.0 0.0 0.0 0.0 0.07698792 
0.0 0.0 0.0 0.0 0.0 0.07698792 
0.0 0.0 0.0 0.0 0.0 0.07698792 
0.0 0.0 0.0 0.0 0.0 0.07698792 
0.0 0.0 0.0 0.0 0.0 0.07698792 
0.0 0.0 0.0 0.0 0.0 0.07698792 
0.0 0.0 0.0 0.0 0.0 0.06944581 
0.11968988 0.0 0.086259104 0.0 0.0 0.0 
0.6031174 0.0 0.10957817 0.0 0.0 0.0 
1.0426366 0.0 0.20011604 0.0 0.0 0.0 
1.0189223 0.50749135 0.55429655 0.0 0.0 0.0 
0.7617168 0.8633493 0.90202177 0.0 0.23392929 0.0 
0.5588334 0.8713021 1.1149446 0.0 0.69055223 0.0 
0.0913963 1.2423823 1.055432 0.0 1.078366 0.0 
0.0 1.3527182 1.0525364 0.022121083 1.2186103 0.0 
0.0 1.0419569 1.1926053 0.1191691 1.0713161 0.0 
0.0 0.4049116 0.61888987 0.055654492 0.5463849 0.0 
0.0 0.061429307 0.06301757 0.0518867 0.0 0.06947403 
0.0 0.0 0.0 0.0 0.0 0.07698792 
0.0 0.0 0.0 0.0 0.0 0.07698792 
0.0 0.0 0.0 0.0 0.0 0.07698792 
0.0 0.0 0.0 0.0 0.0 0.07698792 
0.0 0.0 0.0 0.0 0.0 0.07698792 
0.0 0.0 0.0 0.0 0.0 0.07698792 
0.0 0.0 0.0 0.0 0.0 0.07698792 
0.0 0.0 0.0 0.0 0.0 0.07698792 
0.0 0.0 0.0 0.0 0.0 0.07698792 
0.0 0.0 0.0 0.0 0.0 0.07698792 
0.0 0.0 0.0 0.0 0.0 0.07698792 
0.0 0.0 0.0 0.0 0.0 0.07698792 
0.0 0.0 0.0 0.0 0.0 0.07698792 
0.0 0.0 0.0 0.0 0.0 0.07698792 
0.0 0.0 0.0 0.0 0.0 0.07698792 
0.0 0.0 0.0 0.0 0.0 0.07133134 
0.069500476 0.0 0.080850266 0.0 0.0 0.0 
0.49622494 0.0 0.09517003 0.0 0.0 0.0 
1.1124818 0.0 0.036791243 0.0 0.0 0.0 
1.4733255 0.0862367 0.01311893 0.0 0.010724146 0.0 
1.0870988 0.83702445 0.39312693 0.0792702 0.6025116 0.0 
0.7266218 1.1451217 0.96690464 0.39005646 1.1170294 0.0 
0.5819135 1.5245035 1.1499245 0.6880531 1.5842062 0.0 
0.0 2.0534797 1.1840031 0.6473267 1.8331426 0.0 
0.0 1.8329171 1.2317073 0.48951775 1.5880166 0.0 
0.0 1.1321627 1.4812112 0.44261193 1.0306877 0.17612329 
0.0 0.42414787 0.8642525 0.30845484 0.34983355 0.13427934 
0.0 0.055707157 0.084647544 0.05943794 0.0 0.094605565 
0.0 0.0 0.0 0.0 0.0 0.07698792 
0.0 0.0 0.0 0.0 0.0 0.07698792 
0.0 0.0 0.0 0.0 0.0 0.07698792 
0.0 0.0 0.0 0.0 0.0 0.07698792 
0.0 0.0 0.0 0.0 0.0 0.07698792 
0.0 0.0 0.0 0.0 0.0 0.07698792 
0.0 0.0 0.0 0.0 0.0 0.07698792 
0.0 0.0 0.0 0.0 0.0 0.07698792 
0.0 0.0 0.0 0.0 0.0 0.07698792 
0.0 0.0 0.0 0.0 0.0 0.07698792 
0.0 0.0 0.0 0.0 0.0 0.07698792 
0.0 0.0 0.0 0.0 0.0 0.07698792 
0.0 0.0 0.0 0.0 0.0 0.07698792 
0.0 0.0 0.0 0.0 0.0 0.07698792 
0.0 0.0 0.0 0.0 0.0 0.0758566 
0.01194448 0.0 0.026199624 0.0 0.0 0.035485562 
0.35775986 0.0 0.10557187 0.0 0.0 0.0 
0.9917783 0.0 0.015298404 0.0 0.0 0.0 
1.4998147 0.0 0.0 0.0 0.105806366 0.060271796 
1.4984648 0.56357753 0.0 0.13212863 1.00897 0.15545216 
0.99983126 1.0968715 0.0 0.34979868 1.555101 0.3052097 
0.7736819 1.1588882 0.22384694 0.5422508 2.0058873 0.6142029 
0.44743806 1.522227 0.48652977 0.64670604 2.5554554 0.6944342 
0.0 1.8413008 0.5712839 0.46043235 2.4094093 0.30766404 
0.0 1.3129486 0.87900263 0.31774873 1.7310269 0.33225703 
0.0 0.46365833 1.0575076 0.17061876 0.9946013 0.4309315 
0.0 0.08829112 0.64386433 0.1122586 0.24647595 0.1863839 
0.0 0.0 0.0040591657 0.0 0.0 0.08520586 
0.0 0.0 0.0 0.0 0.0 0.07698792 
0.0 0.0 0.0 0.0 0.0 0.07698792 
0.0 0.0 0.0 0.0 0.0 0.07698792 
0.0 0.0 0.0 0.0 0.0 0.07698792 
0.0 0.0 0.0 0.0 0.0 0.07698792 
0.0 0.0 0.0 0.0 0.0 0.07698792 
0.0 0.0 0.0 0.0 0.0 0.07698792 
0.0 0.0 0.0 0.0 0.0 0.07698792 
0.0 0.0 0.0 0.0 0.0 0.07698792 
0.0 0.0 0.0 0.0 0.0 0.07698792 
0.0 0.0 0.0 0.0 0.0 0.07698792 
0.0 0.0 0.0 0.0 0.0 0.07698792 
0.0 0.0 0.0 0.0 0.0 0.07698792 
0.0 0.0 0.0 0.0 0.0 0.07698792 
0.0 0.0 0.0 0.0 0.0 0.0513435 
0.25437003 0.0 0.11519138 0.0 0.0 0.0 
0.86205226 0.0 0.056026764 0.0 0.0 0.0 
1.3921509 0.0 0.0 0.0 0.0 0.0 
1.4654725 0.41326913 0.0 0.0 1.0921657 0.14052135 
1.1200242 0.85763514 0.0 0.08391118 1.8247144 0.45333314 
0.9733346 0.80458736 0.0 0.1837478 2.1555018 0.8749498 
0.80937517 0.9872774 0.0 0.28255978 2.4936397 1.0331084 
0.0 1.5068063 0.0 0.24641314 2.649973 0.73195887 
0.0 1.3527385 0.43661186 0.14911254 2.2631214 0.5250728 
0.0 0.73002577 0.9158269 0.1531387 1.3262202 0.567024 
0.0 0.22752662 0.8609163 0.15507953 0.4936624 0.37765944 
0.0 0.0 0.33867308 0.026597343 0.0771009 0.13679743 
0.0 0.0 0.0 0.0 0.0 0.07782502 
0.0 0.0 0.0 0.0 0.0 0.07698792 
0.0 0.0 0.0 0.0 0.0 0.07698792 
0.0 0.0 0.0 0.0 0.0 0.07698792 
0.0 0.0 0.0 0.0 0.0 0.07698792 
0.0 0.0 0.0 0.0 0.0 0.07698792 
0.0 0.0 0.0 0.0 0.0 0.07698792 
0.0 0.0 0.0 0.0 0.0 0.07698792 
0.0 0.0 0.0 0.0 0.0 0.07698792 
0.0 0.0 0.0 0.0 0.0 0.07698792 
0.0 0.0 0.0 0.0 0.0 0.07698792 
0.0 0.0 0.0 0.0 0.0 0.07698792 
0.0 0.0 0.0 0.0 0.0 0.07698792 
0.0 0.0 0.0 0.0 0.0 0.07698792 
0.0 0.0 0.020425804 0.0 0.0 0.040408667 
0.22005326 0.0 0.12618631 0.0 0.0 0.0 
0.70028925 0.0 0.101023175 0.0 0.0 0.0 
1.3413384 0.0 0.0 0.0 0.0 0.0 
1.4688303 0.43267995 0.0 0.0 0.8865614 0.046613928 
0.92020893 1.0119798 0.0 0.0047248052 1.724448 0.24052614 
0.7815892 0.7716712 0.0 0.0 1.9561225 0.6947859 
0.9465459 0.6864958 0.0 0.028476711 2.1338208 0.97616553 
0.49299598 1.1132615 0.0 0.042488936 2.404606 0.7236648 
0.0 1.3635408 0.0 0.0 2.466345 0.5337591 
0.0 0.92624956 0.5132636 0.0 1.7427915 0.52952915 
0.0 0.22765592 0.70779395 0.0 0.80998904 0.46530288 
0.0 0.0 0.4650706 0.0 0.23182388 0.2510702 
0.0 0.0 0.055176586 0.0 0.015105214 0.09180562 
0.0 0.0 0.0 0.0 0.0 0.07698792 
0.0 0.0 0.0 0.0 0.0 0.07698792 
0.0 0.0 0.0 0.0 0.0 0.07698792 
0.0 0.0 0.0 0.0 0.0 0.07698792 
0.0 0.0 0.0 0.0 0.0 0.07698792 
0.0 0.0 0.0 0.0 0.0 0.07698792 
0.0 0.0 0.0 0.0 0.0 0.07698792 
0.0 0.0 0.0 0.0 0.0 0.07698792 
0.0 0.0 0.0 0.0 0.0 0.07698792 
0.0 0.0 0.0 0.0 0.0 0.07698792 
0.0 0.0 0.0 0.0 0.0 0.07698792 
0.0 0.0 0.0 0.0 0.0 0.07698792 
0.0 0.0 0.0 0.0 0.0 0.07698792 
0.0 0.0 0.0 0.0 0.0 0.061903693 
0.17411084 0.0 0.09425018 0.0 0.0 0.0 
0.65974206 0.0 0.14410156 0.0 0.0 0.0 
1.2370441 0.0 0.0 0.0 0.0 0.0 
1.4749205 0.28526178 0.0 0.0 0.66308945 0.026765183 
0.85679895 0.960963 0.0 0.0 1.7961637 0.14438735 
0.42675975 0.92998636 0.0 0.0 1.8975172 0.43744022 
0.787284 0.487193 0.0 0.053492516 1.7350448 0.91959864 
0.8803428 0.6812326 0.0 0.0 2.0517437 0.7560211 
0.0 1.2651482 0.0 0.0 2.3147354 0.37252665 
0.0 1.1474801 0.25998068 0.0 1.9857725 0.3579557 
0.0 0.49301878 0.75222737 0.0 1.1875724 0.43549764 
0.0 0.054850593 0.5470718 0.0 0.406214 0.3128137 
0.0 0.0 0.1691108 0.0 0.06798124 0.116877325 
0.0 0.0 0.0 0.0 0.0 0.07797722 
0.0 0.0 0.0 0.0 0.0 0.07698792 
0.0 0.0 0.0 0.0 0.0 0.07698792 
0.0 0.0 0.0 0.0 0.0 0.07698792 
0.0 0.0 0.0 0.0 0.0 0.07698792 
0.0 0.0 0.0 0.0 0.0 0.07698792 
0.0 0.0 0.0 0.0 0.0 0.07698792 
0.0 0.0 0.0 0.0 0.0 0.07698792 
0.0 0.0 0.0 0.0 0.0 0.07698792 
0.0 0.0 0.0 0.0 0.0 0.07698792 
0.0 0.0 0.0 0.0 0.0 0.07698792 
0.0 0.0 0.0 0.0 0.0 0.07698792 
0.0 0.0 0.0 0.0 0.0 0.07698792 
0.0 0.0 0.0 0.0 0.0 0.07095423 
0.07855497 0.0 0.06677094 0.0 0.0 0.005118005 
0.56242925 0.0 0.06914083 0.0 0.0 0.0 
1.1616805 0.0 0.044499926 0.0 0.0 0.0 
1.495276 0.17157176 0.0 0.020682856 0.4200587 0.0 
0.99599725 0.95345426 0.0 0.1375038 1.702122 0.20096424 
0.17790988 1.2128328 0.0 0.045951623 2.0112712 0.28133556 
0.3989026 0.58251786 0.036831662 0.065640725 1.5053524 0.66590816 
1.0327501 0.33209714 0.0 0.058041815 1.6090388 0.8744418 
0.5168749 1.0307132 0.0 0.022186514 2.0385878 0.4101441 
0.0 1.3023436 0.0 0.0 2.0795357 0.18482584 
0.0 0.90959203 0.7237279 0.016436856 1.5009371 0.40384328 
0.0 0.2471573 0.85974514 0.057660144 0.70848995 0.35206398 
0.0 0.0 0.34069204 0.0 0.1326803 0.16127315 
0.0 0.0 0.0 0.0 0.0 0.081401706 
0.0 0.0 0.0 0.0 0.0 0.07698792 
0.0 0.0 0.0 0.0 0.0 0.07698792 
0.0 0.0 0.0 0.0 0.0 0.07698792 
0.0 0.0 0.0 0.0 0.0 0.07698792 
0.0 0.0 0.0 0.0 0.0 0.07698792 
0.0 0.0 0.0 0.0 0.0 0.07698792 
0.0 0.0 0.0 0.0 0.0 0.07698792 
0.0 0.0 0.0 0.0 0.0 0.07698792 
0.0 0.0 0.0 0.0 0.0 0.07698792 
0.0 0.0 0.0 0.0 0.0 0.07698792 
0.0 0.0 0.0 0.0 0.0 0.07698792 
0.0 0.0 0.0 0.0 0.0 0.07698792 
0.0 0.0 0.0 0.0 0.0 0.07698792 
0.0 0.0 0.0 0.0 0.0 0.051589563 
0.3423187 0.0 0.080582164 0.0 0.0 0.0 
1.0912821 0.0 0.00043874234 0.0 0.0 0.028619133 
1.5655243 0.0 0.0 0.0 0.14387389 0.08119056 
1.2750928 0.7907832 0.0 0.08569457 1.372111 0.09317334 
0.38436127 1.4330359 0.0 0.0 2.090458 0.15418041 
0.028101087 0.9886347 0.1704216 0.0 1.6029537 0.35209125 
0.8396423 0.3113086 0.28538543 0.0 1.1894912 0.6074345 
1.1337378 0.6597309 0.0 0.0 1.6950005 0.43395838 
0.0 1.4101311 0.0 0.0 2.0528405 0.012560189 
0.0 1.3387992 0.40628275 0.0 1.7645487 0.04402551 
0.0 0.6694155 0.97210896 0.0 1.1083031 0.28827244 
0.0 0.14123505 0.6811886 0.010496733 0.36737263 0.21828027 
0.0 0.0 0.1041043 0.0 0.014933135 0.099081114 
0.0 0.0 0.0 0.0 0.0 0.07698792 
0.0 0.0 0.0 0.0 0.0 0.07698792 
0.0 0.0 0.0 0.0 0.0 0.07698792 
0.0 0.0 0.0 0.0 0.0 0.07698792 
0.0 0.0 0.0 0.0 0.0 0.07698792 
0.0 0.0 0.0 0.0 0.0 0.07698792 
0.0 0.0 0.0 0.0 0.0 0.07698792 
0.0 0.0 0.0 0.0 0.0 0.07698792 
0.0 0.0 0.0 0.0 0.0 0.07698792 
0.0 0.0 0.0 0.0 0.0 0.07698792 
0.0 0.0 0.0 0.0 0.0 0.07698792 
0.0 0.0 0.0 0.0 0.0 0.07698792 
0.0 0.0 0.0 0.0 0.0 0.07698792 
0.0 0.0 0.0 0.0 0.0 0.069822915 
0.13410425 0.0 0.053279422 0.0 0.0 0.021623012 
0.7751762 0.0 0.0 0.0 0.0 0.046719775 
1.599127 0.0 0.0 0.0 0.0 0.16854645 
1.8423789 0.40585282 0.0 0.0 0.89635557 0.0698383 
0.963088 1.4260975 0.0 0.0 1.7365925 0.0 
0.1268321 1.4669143 0.3039402 0.0 1.7926865 0.0 
0.40728158 0.83194053 0.73632735 0.0 1.2627809 0.0 
1.1872334 0.495562 0.3965723 0.0 1.4079189 0.18397883 
0.8266095 1.0969596 0.0 0.0 1.9450344 0.0 
0.0 1.6457108 0.06520312 0.0 1.9424971 0.0 
0.0 1.4097986 0.992643 0.0 1.5155836 0.0 
0.0 0.59318167 1.1015831 0.0 0.9393293 0.0 
0.0 0.04598301 0.42773318 0.0 0.32342786 0.027440727 
0.0 0.0 0.0 0.0 0.0 0.075201504 
0.0 0.0 0.0 0.0 0.0 0.07698792 
0.0 0.0 0.0 0.0 0.0 0.07698792 
0.0 0.0 0.0 0.0 0.0 0.07698792 
0.0 0.0 0.0 0.0 0.0 0.07698792 
0.0 0.0 0.0 0.0 0.0 0.07698792 
0.0 0.0 0.0 0.0 0.0 0.07698792 
0.0 0.0 0.0 0.0 0.0 0.07698792 
0.0 0.0 0.0 0.0 0.0 0.07698792 
0.0 0.0 0.0 0.0 0.0 0.07698792 
0.0 0.0 0.0 0.0 0.0 0.07698792 
0.0 0.0 0.0 0.0 0.0 0.07698792 
0.0 0.0 0.0 0.0 0.0 0.07698792 
0.0 0.0 0.0 0.0 0.0 0.07698792 
0.0 0.0 0.0 0.0 0.0 0.060261764 
0.39229003 0.0 0.027985223 0.0 0.0 0.06584462 
1.3013556 0.0 0.0 0.0 0.0 0.23210882 
1.9604282 0.0 0.0 0.0 0.42558548 0.3062507 
1.6706481 0.86844283 0.0 0.0 1.2900516 0.009290248 
0.76126915 1.4159989 0.0 0.0 1.797642 0.0 
0.31403244 1.456114 0.9775623 0.0 1.5132184 0.0 
0.6250879 0.95714664 1.1063055 0.0 1.6765633 0.0 
0.72985137 0.92425483 0.2302976 0.0 2.2107086 0.22755662 
0.124779165 1.2082525 0.0 0.0 2.2661407 0.13917617 
0.0 1.4678173 0.49194092 0.2614296 1.9465786 0.1397304 
0.0 1.0886852 1.3259122 0.2948738 1.4691459 0.25001743 
0.0 0.5131215 1.1906489 0.16504909 0.8210554 0.12590003 
0.0 0.001977509 0.31428784 0.0 0.3153977 0.021539912 
0.0 0.0 0.0 0.0 0.0 0.07339033 
0.0 0.0 0.0 0.0 0.0 0.07698792 
0.0 0.0 0.0 0.0 0.0 0.07698792 
0.0 0.0 0.0 0.0 0.0 0.07698792 
0.0 0.0 0.0 0.0 0.0 0.07698792 
0.0 0.0 0.0 0.0 0.0 0.07698792 
0.0 0.0 0.0 0.0 0.0 0.07698792 
0.0 0.0 0.0 0.0 0.0 0.07698792 
0.0 0.0 0.0 0.0 0.0 0.07698792 
0.0 0.0 0.0 0.0 0.0 0.07698792 
0.0 0.0 0.0 0.0 0.0 0.07698792 
0.0 0.0 0.0 0.0 0.0 0.07698792 
0.0 0.0 0.0 0.0 0.0 0.07698792 
0.0 0.0 0.0 0.0 0.0 0.07698792 
0.0077506304 0.0 0.0 0.0 0.0 0.09765279 
0.59978855 0.0 0.0 0.0810565 0.0 0.3522403 
1.5912943 0.0 0.0 0.23841682 0.14371242 0.7054553 
1.8875408 0.007415115 0.0 0.3557149 1.1004686 0.814124 
1.1592672 0.6944577 0.0 0.4146744 1.7994708 0.70742726 
0.53737646 1.0105207 0.18120918 0.5313456 1.9536318 0.5177761 
0.46024895 0.9979232 1.0539018 0.6494273 1.9345856 0.5018036 
0.54229313 1.1060761 0.9271735 0.6386946 2.3383622 0.51832163 
0.30254322 1.3662316 0.27265143 0.48735163 2.714123 0.5085963 
0.0 1.5041735 0.04404357 0.4788079 2.4430456 0.5485337 
0.0 1.1341537 0.65334815 0.53343827 1.8843467 0.5393663 
0.0 0.58925676 1.1544881 0.6250512 1.1558027 0.46335003 
0.0 0.39942664 1.0760335 0.50284976 0.44085792 0.29423496 
0.0 0.19638425 0.3837244 0.18932764 0.09346442 0.09001989 
0.0 0.0016075335 0.0 0.005237774 0.0 0.076487005 
0.0 0.0 0.0 0.0 0.0 0.07698792 
0.0 0.0 0.0 0.0 0.0 0.07698792 
0.0 0.0 0.0 0.0 0.0 0.07698792 
0.0 0.0 0.0 0.0 0.0 0.07698792 
0.0 0.0 0.0 0.0 0.0 0.07698792 
0.0 0.0 0.0 0.0 0.0 0.07698792 
0.0 0.0 0.0 0.0 0.0 0.07698792 
0.0 0.0 0.0 0.0 0.0 0.07698792 
0.0 0.0 0.0 0.0 0.0 0.07698792 
0.0 0.0 0.0 0.0 0.0 0.07698792 
0.0 0.0 0.0 0.0 0.0 0.07698792 
0.0 0.0 0.0 0.0 0.0 0.07698792 
0.0 0.0 0.0 0.0 0.0 0.07698792 
0.031986 0.0 0.0 0.038194958 0.0 0.16786674 
0.65385056 0.0 0.0 0.26869103 0.10502918 0.6980565 
1.3607621 0.0 0.0 0.49647096 0.7889873 1.2520993 
1.3585482 0.0 0.0 0.8235485 1.6414275 1.4418304 
0.8619055 0.47710642 0.0 1.0390433 1.9004389 1.5399735 
0.58649075 0.64988184 0.0 1.0371062 1.9200392 1.4734828 
0.8112281 0.6051353 0.23015618 0.8318399 2.051586 1.2726731 
0.72740704 1.2870492 0.27467346 0.7301912 2.3144557 0.8620195 
0.0 1.854504 0.26690385 0.46490937 2.5885577 0.63585025 
0.0 1.4699631 0.2698113 0.22102445 2.3401842 0.83893734 
0.0 0.7727954 0.28655985 0.014898536 1.5005573 0.8571637 
0.0 0.29478157 0.41811126 0.08985801 0.5614965 0.55820775 
0.0 0.06434888 0.49138558 0.09663354 0.17415778 0.33919805 
0.0 0.08273396 0.3088929 0.108221486 0.013616618 0.13317165 
0.0 0.0 0.0 0.004066713 0.0 0.07954688 
0.0 0.0 0.0 0.0 0.0 0.07698792 
0.0 0.0 0.0 0.0 0.0 0.07698792 
0.0 0.0 0.0 0.0 0.0 0.07698792 
0.0 0.0 0.0 0.0 0.0 0.07698792 
0.0 0.0 0.0 0.0 0.0 0.07698792 
0.0 0.0 0.0 0.0 0.0 0.07698792 
0.0 0.0 0.0 0.0 0.0 0.07698792 
0.0 0.0 0.0 0.0 0.0 0.07698792 
0.0 0.0 0.0 0.0 0.0 0.07698792 
0.0 0.0 0.0 0.0 0.0 0.07698792 
0.0 0.0 0.0 0.0 0.0 0.07698792 
0.0 0.0 0.0 0.0 0.0 0.07698792 
0.0 0.0 0.0 0.0 0.0 0.07698792 
0.041046277 0.0 0.0 0.04181308 0.0 0.1926389 
0.59516776 0.0 0.0 0.14532875 0.43246678 0.75455046 
1.0082076 0.0 0.0 0.21648818 1.0623728 1.302633 
0.8271827 0.0 0.0 0.2458665 1.4271485 1.3585107 
0.9289271 0.0047288006 0.0 0.16292334 1.4712927 1.5688639 
1.2351849 0.0003319895 0.0 0.07339393 1.4935911 1.6643033 
1.3020854 0.3414785 0.0 0.0 1.8284856 1.2759941 
0.40357625 1.1093206 0.0 0.0 2.3472164 0.7706742 
0.0 1.3141645 0.1517742 0.0 2.5576036 0.58196104 
0.0 0.707701 0.536991 0.0 1.9908837 0.6951322 
0.0 0.08826647 0.20913455 0.0 0.99526924 0.511492 
0.0 0.0 0.0 0.0 0.3371772 0.28479865 
0.0 0.0 0.0 0.0 0.15548067 0.20343429 
0.0 0.0 0.05716911 0.0 0.029999647 0.09903741 
0.0 0.0 0.0 0.0 0.0 0.07774892 
0.0 0.0 0.0 0.0 0.0 0.07698792 
0.0 0.0 0.0 0.0 0.0 0.07698792 
0.0 0.0 0.0 0.0 0.0 0.07698792 
0.0 0.0 0.0 0.0 0.0 0.07698792 
0.0 0.0 0.0 0.0 0.0 0.07698792 
0.0 0.0 0.0 0.0 0.0 0.07698792 
0.0 0.0 0.0 0.0 0.0 0.07698792 
0.0 0.0 0.0 0.0 0.0 0.07698792 
0.0 0.0 0.0 0.0 0.0 0.07698792 
0.0 0.0 0.0 0.0 0.0 0.07698792 
0.0 0.0 0.0 0.0 0.0 0.07698792 
0.0 0.0 0.0 0.0 0.0 0.07698792 
0.0 0.0 0.0 0.0 0.0 0.07698792 
0.015800834 0.0 0.0 0.0 0.034243 0.15402544 
0.37711635 0.0 0.0 0.0 0.44668767 0.49604717 
0.6261746 0.0 0.0 0.0 0.81935084 0.85817814 
0.63509685 0.0 0.0 0.0 0.8264471 0.87703884 
1.1277676 0.0 0.0 0.0 0.67019457 0.97194713 
1.582114 0.0 0.0 0.0 1.0544649 1.0202847 
1.1349428 0.32362956 0.0 0.0 1.901062 0.6773402 
0.0 1.1362603 0.0 0.0 2.3450449 0.3552856 
0.0 1.0556512 0.43351415 0.0 1.9489845 0.37136146 
0.0 0.43663707 0.93675745 0.013989356 1.1124756 0.469373 
0.0 0.098683044 0.6195038 0.078480385 0.32384983 0.2733559 
0.0 0.0 0.08419786 0.0 0.02752566 0.100869104 
0.0 0.0 0.0 0.0 0.0 0.0846085 
0.0 0.0 0.0 0.0 0.0 0.07797722 
0.0 0.0 0.0 0.0 0.0 0.07698792 
0.0 0.0 0.0 0.0 0.0 0.07698792 
0.0 0.0 0.0 0.0 0.0 0.07698792 
0.0 0.0 0.0 0.0 0.0 0.07698792 
0.0 0.0 0.0 0.0 0.0 0.07698792 
0.0 0.0 0.0 0.0 0.0 0.07698792 
0.0 0.0 0.0 0.0 0.0 0.07698792 
0.0 0.0 0.0 0.0 0.0 0.07698792 
0.0 0.0 0.0 0.0 0.0 0.07698792 
0.0 0.0 0.0 0.0 0.0 0.07698792 
0.0 0.0 0.0 0.0 0.0 0.07698792 
0.0 0.0 0.0 0.0 0.0 0.07698792 
0.0 0.0 0.0 0.0 0.0 0.07698792 
0.0 0.0 0.0 0.0 0.0 0.07698792 
0.0 0.0 0.0 0.0 0.0 0.09926746 
0.09233683 0.0 0.0 0.0 0.19114077 0.19050413 
0.27645266 0.0 0.0 0.0 0.31842616 0.25031152 
0.5972994 0.0 0.0 0.0 0.0 0.20987275 
1.3074563 0.0 0.0 0.0 0.05626556 0.39426214 
1.6023347 0.0 0.0 0.0 1.0465645 0.5231676 
0.6454328 0.9386161 0.0 0.0 1.9243872 0.27743003 
0.0 1.3877184 0.0 0.0 2.013512 0.27389577 
0.0 0.85721517 0.7040688 0.0 1.4109849 0.4660402 
0.0 0.17445359 0.77765834 0.026215643 0.6236469 0.36978555 
0.0 0.0 0.33440775 0.0 0.11022583 0.15873775 
0.0 0.0 0.0 0.0 0.0 0.08026021 
0.0 0.0 0.0 0.0 0.0 0.07698792 
0.0 0.0 0.0 0.0 0.0 0.07698792 
0.0 0.0 0.0 0.0 0.0 0.07698792 
0.0 0.0 0.0 0.0 0.0 0.07698792 
0.0 0.0 0.0 0.0 0.0 0.07698792 
0.0 0.0 0.0 0.0 0.0 0.07698792 
0.0 0.0 0.0 0.0 0.0 0.07698792 
0.0 0.0 0.0 0.0 0.0 0.07698792 
0.0 0.0 0.0 0.0 0.0 0.07698792 
0.0 0.0 0.0 0.0 0.0 0.07698792 
0.0 0.0 0.0 0.0 0.0 0.07698792 
0.0 0.0 0.0 0.0 0.0 0.07698792 
0.0 0.0 0.0 0.0 0.0 0.07698792 
0.0 0.0 0.0 0.0 0.0 0.07698792 
0.0 0.0 0.0 0.0 0.0 0.07698792 
0.0 0.0 0.0 0.0 0.0 0.07698792 
0.0 0.0 0.0 0.0 0.0 0.07698792 
0.0 0.0 0.0 0.0 0.0 0.07170844 
0.14462994 0.0 0.061173797 0.0 0.0 0.018568803 
0.8938442 0.0 0.0 0.0 0.0 0.1232371 
1.6375041 0.0 0.0 0.0 0.22055297 0.3785659 
1.3248239 0.59978884 0.0 0.01623341 1.3886048 0.29981473 
0.0 1.3646026 0.0 0.0 1.9936107 0.1323137 
0.0 1.1490467 0.37155062 0.042152893 1.7154624 0.3210184 
0.0 0.39547446 0.8443893 0.037554566 0.9871227 0.42539912 
0.0 0.042854395 0.5323468 0.030548114 0.28387332 0.23937964 
0.0 0.0 0.0581524 0.0 0.017466549 0.09218612 
0.0 0.0 0.0 0.0 0.0 0.07698792 
0.0 0.0 0.0 0.0 0.0 0.07698792 
0.0 0.0 0.0 0.0 0.0 0.07698792 
0.0 0.0 0.0 0.0 0.0 0.07698792 
0.0 0.0 0.0 0.0 0.0 0.07698792 
0.0 0.0 0.0 0.0 0.0 0.07698792 
0.0 0.0 0.0 0.0 0.0 0.07698792 
0.0 0.0 0.0 0.0 0.0 0.07698792 
0.0 0.0 0.0 0.0 0.0 0.07698792 
0.0 0.0 0.0 0.0 0.0 0.07698792 
0.0 0.0 0.0 0.0 0.0 0.07698792 
0.0 0.0 0.0 0.0 0.0 0.07698792 
0.0 0.0 0.0 0.0 0.0 0.07698792 
0.0 0.0 0.0 0.0 0.0 0.07698792 
0.0 0.0 0.0 0.0 0.0 0.07698792 
0.0 0.0 0.0 0.0 0.0 0.07698792 
0.0 0.0 0.0 0.0 0.0 0.07698792 
0.0 0.0 0.0 0.0 0.0 0.07698792 
0.019141488 0.0 0.03912825 0.0 0.0 0.032232292 
0.4862861 0.0 0.036204726 0.0 0.0 0.0016947314 
1.3195107 0.0 0.0 0.0 0.0 0.22892168 
1.6261735 0.0816461 0.0 0.0 0.90152144 0.38429663 
0.609295 1.1601727 0.0 0.059285548 1.7971851 0.22692809 
0.0 1.3576688 0.0 0.046319924 1.8839661 0.29666144 
0.0 0.7552759 0.76437527 0.07769949 1.2816229 0.48502788 
0.0 0.18960917 0.80557525 0.100545004 0.5063705 0.34899652 
0.0 0.0 0.29541054 0.008565727 0.07149108 0.13307986 
0.0 0.0 0.0 0.0 0.0 0.07797722 
0.0 0.0 0.0 0.0 0.0 0.07698792 
0.0 0.0 0.0 0.0 0.0 0.07698792 
0.0 0.0 0.0 0.0 0.0 0.07698792 
0.0 0.0 0.0 0.0 0.0 0.07698792 
0.0 0.0 0.0 0.0 0.0 0.07698792 
0.0 0.0 0.0 0.0 0.0 0.07698792 
0.0 0.0 0.0 0.0 0.0 0.07698792 
0.0 0.0 0.0 0.0 0.0 0.07698792 
0.0 0.0 0.0 0.0 0.0 0.07698792 
0.0 0.0 0.0 0.0 0.0 0.07698792 
0.0 0.0 0.0 0.0 0.0 0.07698792 
0.0 0.0 0.0 0.0 0.0 0.07698792 
0.0 0.0 0.0 0.0 0.0 0.07698792 
0.0 0.0 0.0 0.0 0.0 0.07698792 
0.0 0.0 0.0 0.0 0.0 0.07698792 
0.0 0.0 0.0 0.0 0.0 0.07698792 
0.0 0.0 0.0 0.0 0.0 0.07698792 
0.0 0.0 0.0 0.0 0.0 0.06416633 
0.19368961 0.0 0.056900248 0.0 0.0 0.0063583106 
0.9137995 0.0 0.0 0.0 0.0 0.14148399 
1.5331762 0.0 0.0 0.025072452 0.38259035 0.4314428 
1.1090105 0.6746198 0.0 0.14105976 1.4966879 0.38295582 
0.0 1.2634957 0.0 0.08428017 1.9831237 0.30994132 
0.0 0.95796543 0.3187868 0.11572578 1.5657903 0.48032498 
0.0 0.31314525 0.77388096 0.086589396 0.805698 0.45233786 
0.0 0.00239548 0.4710893 0.0108922655 0.23161374 0.22693983 
0.0 0.0 0.036859773 0.0 0.0054452606 0.08933615 
0.0 0.0 0.0 0.0 0.0 0.07698792 
0.0 0.0 0.0 0.0 0.0 0.07698792 
0.0 0.0 0.0 0.0 0.0 0.07698792 
0.0 0.0 0.0 0.0 0.0 0.07698792 
0.0 0.0 0.0 0.0 0.0 0.07698792 
0.0 0.0 0.0 0.0 0.0 0.07698792 
0.0 0.0 0.0 0.0 0.0 0.07698792 
0.0 0.0 0.0 0.0 0.0 0.07698792 
0.0 0.0 0.0 0.0 0.0 0.07698792 
0.0 0.0 0.0 0.0 0.0 0.07698792 
0.0 0.0 0.0 0.0 0.0 0.07698792 
0.0 0.0 0.0 0.0 0.0 0.07698792 
0.0 0.0 0.0 0.0 0.0 0.07698792 
0.0 0.0 0.0 0.0 0.0 0.07698792 
0.0 0.0 0.0 0.0 0.0 0.07698792 
0.0 0.0 0.0 0.0 0.0 0.07698792 
0.0 0.0 0.0 0.0 0.0 0.07698792 
0.0 0.0 0.0 0.0 0.0 0.07698792 
0.0 0.0 0.0 0.0 0.0 0.08552168 
0.2547933 0.0 0.0 0.08091707 0.0 0.28413647 
0.98866695 0.0 0.0 0.3948755 0.13753808 0.7605925 
1.2709563 0.0 0.0 0.5977113 1.1299609 1.012877 
0.31937417 0.78772414 0.0 0.5858621 1.7416668 0.83726436 
0.0 0.8994255 0.0 0.3722649 1.568642 0.66490865 
0.0 0.47884476 0.60504895 0.15799473 0.9657118 0.56073004 
0.0 0.113851 0.65040624 0.06858498 0.36298677 0.33402368 
0.0 0.0 0.20527363 0.0 0.056996826 0.119058564 
0.0 0.0 0.0 0.0 0.0 0.07767282 
0.0 0.0 0.0 0.0 0.0 0.07698792 
0.0 0.0 0.0 0.0 0.0 0.07698792 
0.0 0.0 0.0 0.0 0.0 0.07698792 
0.0 0.0 0.0 0.0 0.0 0.07698792 
0.0 0.0 0.0 0.0 0.0 0.07698792 
0.0 0.0 0.0 0.0 0.0 0.07698792 
0.0 0.0 0.0 0.0 0.0 0.07698792 
0.0 0.0 0.0 0.0 0.0 0.07698792 
0.0 0.0 0.0 0.0 0.0 0.07698792 
0.0 0.0 0.0 0.0 0.0 0.07698792 
0.0 0.0 0.0 0.0 0.0 0.07698792 
0.0 0.0 0.0 0.0 0.0 0.07698792 
0.0 0.0 0.0 0.0 0.0 0.07698792 
0.0 0.0 0.0 0.0 0.0 0.07698792 
0.0 0.0 0.0 0.0 0.0 0.07698792 
0.0 0.0 0.0 0.0 0.0 0.07698792 
0.0 0.0 0.0 0.0 0.0 0.07698792 
0.0 0.0 0.0 0.0 0.0 0.07698792 
0.0 0.0 0.0 0.012053692 0.0 0.112659425 
0.32079953 0.0 0.0 0.21473798 0.08409701 0.4649878 
0.8033846 0.0 0.0 0.3889281 0.67639256 0.9500564 
0.63208085 0.056639507 0.0 0.4258 1.2933179 1.0163566 
0.0 0.4294061 0.0 0.3480818 1.2138056 0.84863955 
0.0 0.48233455 0.010428883 0.23196644 0.77555114 0.6883916 
0.0 0.16387779 0.5454755 0.05844835 0.43867514 0.43586197 
0.0 0.0 0.30889425 0.0 0.15234938 0.18412504 
0.0 0.0 0.0 0.0 0.0 0.083968185 
0.0 0.0 0.0 0.0 0.0 0.07698792 
0.0 0.0 0.0 0.0 0.0 0.07698792 
0.0 0.0 0.0 0.0 0.0 0.07698792 
0.0 0.0 0.0 0.0 0.0 0.07698792 
0.0 0.0 0.0 0.0 0.0 0.07698792 
0.0 0.0 0.0 0.0 0.0 0.07698792 
0.0 0.0 0.0 0.0 0.0 0.07698792 
0.0 0.0 0.0 0.0 0.0 0.07698792 
0.0 0.0 0.0 0.0 0.0 0.07698792 
0.0 0.0 0.0 0.0 0.0 0.07698792 
0.0 0.0 0.0 0.0 0.0 0.07698792 
0.0 0.0 0.0 0.0 0.0 0.07698792 
0.0 0.0 0.0 0.0 0.0 0.07698792 
0.0 0.0 0.0 0.0 0.0 0.07698792 
0.0 0.0 0.0 0.0 0.0 0.07698792 
0.0 0.0 0.0 0.0 0.0 0.07698792 
0.0 0.0 0.0 0.0 0.0 0.07698792 
0.0 0.0 0.0 0.0 0.0 0.07698792 
0.0 0.0 0.0 0.0 0.0 0.07698792 
0.0 0.0 0.0 0.022972718 0.0 0.11642942 
0.27604023 0.0 0.0 0.05951305 0.22701888 0.45069894 
0.5726367 0.0 0.0 0.0 0.7267608 0.86194134 
0.293147 0.07654049 0.0 0.0 0.7696138 0.7979068 
0.0 0.07953402 0.0 0.0 0.45207372 0.59550864 
0.0 0.0 0.0 0.0 0.32119304 0.4661821 
0.0 0.0 0.2944835 0.0 0.19086722 0.24489549 
0.0 0.0 0.06272193 0.0 0.015224669 0.0943888 
0.0 0.0 0.0 0.0 0.0 0.07714012 
0.0 0.0 0.0 0.0 0.0 0.07698792 
0.0 0.0 0.0 0.0 0.0 0.07698792 
0.0 0.0 0.0 0.0 0.0 0.07698792 
0.0 0.0 0.0 0.0 0.0 0.07698792 
0.0 0.0 0.0 0.0 0.0 0.07698792 
0.0 0.0 0.0 0.0 0.0 0.07698792 
0.0 0.0 0.0 0.0 0.0 0.07698792 
0.0 0.0 0.0 0.0 0.0 0.07698792 
0.0 0.0 0.0 0.0 0.0 0.07698792 
0.0 0.0 0.0 0.0 0.0 0.07698792 
0.0 0.0 0.0 0.0 0.0 0.07698792 
0.0 0.0 0.0 0.0 0.0 0.07698792 
0.0 0.0 0.0 0.0 0.0 0.07698792 
0.0 0.0 0.0 0.0 0.0 0.07698792 
0.0 0.0 0.0 0.0 0.0 0.07698792 
0.0 0.0 0.0 0.0 0.0 0.07698792 
0.0 0.0 0.0 0.0 0.0 0.07698792 
0.0 0.0 0.0 0.0 0.0 0.07698792 
0.0 0.0 0.0 0.0 0.0 0.07698792 
0.0 0.0 0.0 0.0 0.0 0.09802971 
0.14537917 0.0 0.0 0.0 0.27305484 0.22586867 
0.24211723 0.0 0.0 0.0 0.42844355 0.31313756 
0.046592653 0.0 0.0 0.0 0.28407595 0.23493786 
0.0 0.0 0.0 0.0 0.20651235 0.23192912 
0.0 0.0 0.0 0.0 0.1670847 0.20159703 
0.0 0.0 0.033407517 0.0 0.040300366 0.10256203 
0.0 0.0 0.0 0.0 0.0 0.07850991 
0.0 0.0 0.0 0.0 0.0 0.07698792 
0.0 0.0 0.0 0.0 0.0 0.07698792 
0.0 0.0 0.0 0.0 0.0 0.07698792 
0.0 0.0 0.0 0.0 0.0 0.07698792 
0.0 0.0 0.0 0.0 0.0 0.07698792 
0.0 0.0 0.0 0.0 0.0 0.07698792 
0.0 0.0 0.0 0.0 0.0 0.07698792 
0.0 0.0 0.0 0.0 0.0 0.07698792 
0.0 0.0 0.0 0.0 0.0 0.07698792 
0.0 0.0 0.0 0.0 0.0 0.07698792 
0.0 0.0 0.0 0.0 0.0 0.07698792 
0.0 0.0 0.0 0.0 0.0 0.07698792 
0.0 0.0 0.0 0.0 0.0 0.07698792 
0.0 0.0 0.0 0.0 0.0 0.07698792 

