0.0 0.0 0.0 0.0 0.0 0.07698792 
0.0 0.0 0.0 0.0 0.0 0.07698792 
0.0 0.0 0.0 0.0 0.0 0.07698792 
0.0 0.0 0.0 0.0 0.0 0.07698792 
0.0 0.0 0.0 0.0 0.0 0.07698792 
0.0 0.0 0.0 0.0 0.0 0.07698792 
0.0 0.0 0.0 0.0 0.0 0.07698792 
0.0 0.0 0.0 0.0 0.0 0.07698792 
0.0 0.0 0.0 0.0 0.0 0.07698792 
0.0 0.0 0.0 0.0 0.0 0.07698792 
0.0 0.0 0.0 0.0 0.0 0.07698792 
0.0 0.0 0.0 0.0 0.0 0.07698792 
0.0 0.0 0.0 0.0 0.0 0.07698792 
0.0 0.0 0.0 0.0 0.0 0.07698792 
0.0 0.0 0.0 0.0 0.0 0.07698792 
0.0 0.0 0.0 0.0 0.0 0.07698792 
0.0 0.0 0.0 0.0 0.0 0.07698792 
0.0 0.0 0.0 0.0 0.0 0.07698792 
0.0 0.0 0.0 0.0 0.0 0.07698792 
0.0 0.0 0.0 0.0 0.0 0.07698792 
0.0 0.0 0.0 0.0 0.0 0.07698792 
0.0 0.0 0.0 0.0 0.0 0.07698792 
0.0 0.0 0.0 0.0 0.0 0.07698792 
0.0 0.0 0.0 0.0 0.0 0.07698792 
0.0 0.0 0.0 0.0 0.0 0.07698792 
0.0 0.0 0.0 0.0 0.0 0.07698792 
0.0 0.0 0.0 0.0 0.0 0.07698792 
0.0 0.0 0.0 0.0 0.0 0.07698792 
0.0 0.0 0.0 0.0 0.0 0.07698792 
0.0 0.0 0.0 0.0 0.0 0.07698792 
0.0 0.0 0.0 0.0 0.0 0.07698792 
0.0 0.0 0.0 0.0 0.0 0.07698792 
0.0 0.0 0.0 0.0 0.0 0.07698792 
0.0 0.0 0.0 0.0 0.0 0.07698792 
0.0 0.0 0.0 0.0 0.0 0.07698792 
0.0 0.0 0.0 0.0 0.0 0.07698792 
0.0 0.0 0.0 0.0 0.0 0.07698792 
0.0 0.0 0.0 0.0 0.0 0.07698792 
0.0 0.0 0.0 0.0 0.0 0.07698792 
0.0 0.0 0.0 0.0 0.0 0.07698792 
0.0 0.0 0.0 0.0 0.0 0.07698792 
0.0 0.0 0.0 0.0 0.0 0.07698792 
0.0 0.0 0.0 0.0 0.0 0.07698792 
0.0 0.0 0.0 0.0 0.0 0.07698792 
0.0 0.0 0.0 0.0 0.0 0.07698792 
0.0 0.0 0.0 0.0 0.0 0.07698792 
0.0 0.0 0.0 0.0 0.0 0.07698792 
0.0 0.0 0.0 0.0 0.0 0.07698792 
0.0 0.0 0.0 0.0 0.0 0.07698792 
0.0 0.0 0.0 0.0 0.0 0.07698792 
0.0 0.0 0.0 0.0 0.0 0.07698792 
0.0 0.0 0.0 0.0 0.0 0.07698792 
0.0 0.0 0.0 0.0 0.0 0.07698792 
0.0 0.0 0.0 0.0 0.0 0.07698792 
0.0 0.0 0.0 0.0 0.0 0.07698792 
0.0 0.0 0.0 0.0 0.0 0.07698792 
0.0 0.0 0.0 0.0 0.0 0.07698792 
0.0 0.0 0.0 0.0 0.0 0.07698792 
0.0 0.0 0.0 0.0 0.0 0.07698792 
0.0 0.0 0.0 0.0 0.0 0.07698792 
0.0 0.0 0.0 0.0 0.0 0.07698792 
0.0 0.0 0.0 0.0 0.0 0.07698792 
0.0 0.0 0.0 0.0 0.0 0.07698792 
0.0 0.0 0.0 0.0 0.0 0.07698792 
0.0 0.0 0.0 0.0 0.0 0.07698792 
0.0 0.0 0.0 0.0 0.0 0.07698792 
0.0 0.0 0.0 0.0 0.0 0.07698792 
0.0 0.0 0.0 0.0 0.0 0.07698792 
0.0 0.0 0.0 0.0 0.0 0.07698792 
0.0 0.0 0.0 0.0 0.0 0.07698792 
0.0 0.0 0.0 0.0 0.0 0.07698792 
0.0 0.0 0.0 0.0 0.0 0.07698792 
0.0 0.0 0.0 0.0 0.0 0.07698792 
0.0 0.0 0.0 0.0 0.0 0.07698792 
0.0 0.0 0.0 0.0 0.0 0.07698792 
0.0 0.0 0.0 0.0 0.0 0.07698792 
0.0 0.0 0.0 0.0 0.0 0.07698792 
0.0 0.0 0.0 0.0 0.0 0.07698792 
0.0 0.0 0.0 0.0 0.0 0.07698792 
0.0 0.0 0.0 0.0 0.0 0.07698792 
0.0 0.0 0.0 0.0 0.0 0.07698792 
0.0 0.0 0.0 0.0 0.0 0.07698792 
0.0 0.0 0.0 0.0 0.0 0.07698792 
0.0 0.0 0.0 0.0 0.0 0.07698792 
0.0 0.0 0.0 0.0 0.0 0.07698792 
0.0 0.0 0.0 0.0 0.0 0.07698792 
0.0 0.0 0.0 0.0 0.0 0.07698792 
0.0 0.0 0.0 0.0 0.0 0.07698792 
0.0 0.0 0.0 0.0 0.0 0.07698792 
0.0 0.0 0.0 0.0 0.0 0.07698792 
0.0 0.0 0.0 0.0 0.0 0.07698792 
0.0 0.0 0.0 0.0 0.0 0.07698792 
0.0 0.0 0.0 0.0 0.0 0.07698792 
0.0 0.0 0.0 0.0 0.0 0.07698792 
0.0 0.0 0.0 0.0 0.0 0.07698792 
0.0 0.0 0.0 0.0 0.0 0.07698792 
0.004575968 0.0 0.03809321 0.0 0.0 0.03211234 
0.21587232 0.0 0.19274944 0.0 0.0 0.0 
0.26265752 0.2143499 0.1867547 0.0 0.0 0.0 
0.05307275 0.33806613 0.17164406 0.0 0.0 0.0 
0.0 0.35462943 0.16733402 0.0 0.003882438 0.0 
0.0 0.23616429 0.058063187 0.0 0.08332886 0.0 
0.0 0.056265265 0.0 0.0 0.0041355677 0.017062549 
0.0 0.0 0.0 0.0 0.0 0.07698792 
0.0 0.0 0.0 0.0 0.0 0.07698792 
0.0 0.0 0.0 0.0 0.0 0.07698792 
0.0 0.0 0.0 0.0 0.0 0.07698792 
0.0 0.0 0.0 0.0 0.0 0.07698792 
0.0 0.0 0.0 0.0 0.0 0.07698792 
0.0 0.0 0.0 0.0 0.0 0.07698792 
0.0 0.0 0.0 0.0 0.0 0.07698792 
0.0 0.0 0.0 0.0 0.0 0.07698792 
0.0 0.0 0.0 0.0 0.0 0.07698792 
0.0 0.0 0.0 0.0 0.0 0.07698792 
0.0 0.0 0.0 0.0 0.0 0.07698792 
0.0 0.0 0.0 0.0 0.0 0.07698792 
0.0 0.0 0.0 0.0 0.0 0.07698792 
0.0 0.0 0.0 0.0 0.0 0.07698792 
0.0 0.0 0.0 0.0 0.0 0.07698792 
0.0 0.0 0.0 0.0 0.0 0.07698792 
0.0 0.0 0.0 0.0 0.0 0.07698792 
0.0 0.0 0.0 0.0 0.0 0.07698792 
0.0 0.0 0.0 0.0 0.0 0.07698792 
0.0 0.0 0.0 0.0 0.0 0.067183174 
0.1623058 0.0 0.06542667 0.0 0.0 0.0 
0.60757875 0.0 0.17909503 0.0 0.0 0.0 
0.73949665 0.25932553 0.33566087 0.0 0.0 0.0 
0.30166933 0.8724859 0.49032223 0.0 0.06258036 0.0 
0.0 0.9521672 0.6340123 0.0 0.4580371 0.0 
0.0 0.4349729 0.37418386 0.0 0.5339633 0.0 
0.0 0.062279686 0.031436555 0.0 0.18179114 0.0 
0.0 0.0 0.016410485 0.0 0.0 0.042294197 
0.14642446 0.0 0.13086134 0.0 0.0 0.0 
0.21942076 0.13987869 0.17792794 0.0 0.0 0.0 
0.09774661 0.29573086 0.15179682 0.0 0.0 0.0 
0.0 0.3146119 0.14526805 0.0 0.0 0.0 
0.0 0.23991585 0.073344 0.0 0.048334952 0.0 
0.0 0.08831006 0.0 0.0 0.02361342 0.0 
0.0 0.0 0.0 0.0 0.0 0.06969266 
0.0 0.0 0.0 0.0 0.0 0.07698792 
0.0 0.0 0.0 0.0 0.0 0.07698792 
0.0 0.0 0.0 0.0 0.0 0.07698792 
0.0 0.0 0.0 0.0 0.0 0.07698792 
0.0 0.0 0.0 0.0 0.0 0.07698792 
0.0 0.0 0.0 0.0 0.0 0.07698792 
0.0 0.0 0.0 0.0 0.0 0.07698792 
0.0 0.0 0.0 0.0 0.0 0.07698792 
0.0 0.0 0.0 0.0 0.0 0.07698792 
0.0 0.0 0.0 0.0 0.0 0.07698792 
0.0 0.0 0.0 0.0 0.0 0.07698792 
0.0 0.0 0.0 0.0 0.0 0.07698792 
0.060812682 0.0 0.07638275 0.0 0.0 0.015257608 
0.5717127 0.0 0.051195703 0.0 0.0 0.0 
1.1216378 0.0 0.07348662 0.0 0.0 0.0 
0.97399646 0.3995204 0.24904981 0.0 0.08303319 0.0 
0.0 1.2242498 0.8145488 0.031309757 0.81679535 0.0 
0.0 1.2950258 1.22235 0.08377549 1.1201736 0.0 
0.0 0.7122251 0.9161016 0.024923611 0.79684585 0.0 
0.0 0.09400801 0.25891933 0.0 0.17518567 0.0 
0.21707106 0.0 0.13107163 0.0 0.0 0.0 
0.58357334 0.0 0.23121312 0.0 0.0 0.0 
0.7446198 0.24859321 0.4285491 0.0 0.0 0.0 
0.49950337 0.87247247 0.59255236 0.0 0.0 0.0 
0.0 1.0312376 0.62902933 0.0 0.36719838 0.0 
0.0 0.660338 0.49329805 0.0 0.4693168 0.0 
0.0 0.21471274 0.13543749 0.0 0.31009534 0.0 
0.0 0.031078652 0.0 0.0 0.00062911585 0.034953885 
0.0 0.0 0.0 0.0 0.0 0.07698792 
0.0 0.0 0.0 0.0 0.0 0.07698792 
0.0 0.0 0.0 0.0 0.0 0.07698792 
0.0 0.0 0.0 0.0 0.0 0.07698792 
0.0 0.0 0.0 0.0 0.0 0.07698792 
0.0 0.0 0.0 0.0 0.0 0.07698792 
0.0 0.0 0.0 0.0 0.0 0.07698792 
0.0 0.0 0.0 0.0 0.0 0.07698792 
0.0 0.0 0.0 0.0 0.0 0.07698792 
0.0 0.0 0.0 0.0 0.0 0.07698792 
0.0 0.0 0.0 0.0 0.0 0.07698792 
0.0 0.0 0.0 0.0 0.0 0.051344734 
0.30012518 0.0 0.06855988 0.0 0.0 0.0 
1.0851612 0.0 0.005367182 0.0 0.0 0.057973437 
1.5847192 0.0130324 0.0 0.04355578 0.019578177 0.1282436 
0.8367974 1.1031243 0.0 0.25639212 0.9371659 0.0 
0.0 1.7249815 0.7005286 0.36295614 1.5169996 0.0 
0.0 1.4186505 1.5206014 0.54923195 1.3023065 0.0 
0.0 0.6850617 1.2672856 0.41683063 0.68742675 0.14404047 
0.0 0.10245854 0.52793765 0.08212448 0.0 0.0051780865 
0.6618131 0.0 0.09097845 0.0 0.0 0.0 
1.1312923 0.0 0.19611382 0.0 0.0 0.0 
1.1456947 0.40322974 0.37116146 0.0 0.0 0.0 
0.28093392 1.259315 0.92985636 0.0 0.69582355 0.0 
0.0 1.4161744 1.2198538 0.0 1.1891767 0.0 
0.0 1.0753171 1.12331 0.0 0.94875246 0.0 
0.0 0.3506983 0.48137683 0.0 0.5325396 0.0 
0.0 0.010889077 0.0073661283 0.0 0.06054612 0.043448452 
0.0 0.0 0.0 0.0 0.0 0.07698792 
0.0 0.0 0.0 0.0 0.0 0.07698792 
0.0 0.0 0.0 0.0 0.0 0.07698792 
0.0 0.0 0.0 0.0 0.0 0.07698792 
0.0 0.0 0.0 0.0 0.0 0.07698792 
0.0 0.0 0.0 0.0 0.0 0.07698792 
0.0 0.0 0.0 0.0 0.0 0.07698792 
0.0 0.0 0.0 0.0 0.0 0.07698792 
0.0 0.0 0.0 0.0 0.0 0.07698792 
0.0 0.0 0.0 0.0 0.0 0.07698792 
0.0 0.0 0.0 0.0 0.0 0.0751024 
0.09490809 0.0 0.06296036 0.0 0.0 0.018610023 
0.7459507 0.0 0.0 0.0 0.0 0.055020653 
1.5339541 0.0 0.0 0.0 0.0 0.21394251 
1.6739798 0.28183815 0.0 0.06607023 1.116856 0.29357642 
0.40055886 1.405802 0.0 0.17820069 1.9578947 0.18446815 
0.0 1.5118413 0.23778212 0.1903576 1.9678077 0.2162058 
0.0 0.8729118 1.0572482 0.22515403 1.310984 0.4687343 
0.0 0.20187518 1.106295 0.1491917 0.39070204 0.24305384 
0.3131534 0.0 0.41313916 0.0 0.0 0.0 
1.2040641 0.0 0.044159524 0.0 0.0 0.0 
1.5951579 0.12977472 0.0 0.0 0.035262775 0.0 
0.99586934 1.0063136 0.08753405 0.31988025 0.986484 0.0 
0.0 1.6448306 0.8197778 0.5401341 1.7288288 0.0 
0.0 1.6766647 1.5238965 0.7877813 1.6007806 0.0 
0.0 1.0338247 1.5212069 0.6532844 1.05662 0.1244644 
0.0 0.44377047 0.82640886 0.36075568 0.3957544 0.096747205 
0.0 0.07179561 0.08922563 0.0606806 0.0036105178 0.0719773 
0.0 0.0 0.0 0.0 0.0 0.07698792 
0.0 0.0 0.0 0.0 0.0 0.07698792 
0.0 0.0 0.0 0.0 0.0 0.07698792 
0.0 0.0 0.0 0.0 0.0 0.07698792 
0.0 0.0 0.0 0.0 0.0 0.07698792 
0.0 0.0 0.0 0.0 0.0 0.07698792 
0.0 0.0 0.0 0.0 0.0 0.07698792 
0.0 0.0 0.0 0.0 0.0 0.07698792 
0.0 0.0 0.0 0.0 0.0 0.07698792 
0.0 0.0 0.0 0.0 0.0 0.07698792 
0.012217812 0.0 0.041503042 0.0 0.0 0.030727565 
0.42012742 0.0 0.06703215 0.0 0.0 0.0 
1.2471654 0.0 0.0 0.0 0.0 0.12184713 
1.7505665 0.002740278 0.0 0.0 0.5949299 0.29330724 
1.0270765 1.0151887 0.0 0.121406406 1.7768117 0.3023075 
0.0 1.4786326 0.0 0.083787955 2.2570293 0.3464701 
0.0 1.1524078 0.5131207 0.176135 1.7083786 0.5183939 
0.0 0.31870228 0.88983524 0.06860855 0.81768596 0.45473686 
0.0 0.0 0.70174253 0.0 0.0 0.11351696 
0.93558484 0.0 0.15873164 0.0 0.0 0.0 
1.6893532 0.0 0.0 0.0 0.023657132 0.07227512 
1.5451865 0.6442948 0.0 0.13641256 1.218601 0.18980886 
0.49797451 1.4005357 0.0 0.38901842 2.2718492 0.46211982 
0.0 1.7132366 0.19039959 0.574651 2.28519 0.57719594 
0.0 1.2189152 0.97236085 0.5724373 1.621946 0.60757715 
0.0 0.53677255 1.1286397 0.44001192 0.77285254 0.49847168 
0.0 0.24365261 0.7476889 0.27759373 0.16814938 0.21939205 
0.0 0.048458375 0.097811006 0.056077965 0.0 0.09552068 
0.0 0.0 0.0 0.0 0.0 0.07698792 
0.0 0.0 0.0 0.0 0.0 0.07698792 
0.0 0.0 0.0 0.0 0.0 0.07698792 
0.0 0.0 0.0 0.0 0.0 0.07698792 
0.0 0.0 0.0 0.0 0.0 0.07698792 
0.0 0.0 0.0 0.0 0.0 0.07698792 
0.0 0.0 0.0 0.0 0.0 0.07698792 
0.0 0.0 0.0 0.0 0.0 0.07698792 
0.0 0.0 0.0 0.0 0.0 0.07698792 
0.0 0.0 0.018819675 0.0 0.0 0.04116288 
0.2623226 0.0 0.10803505 0.0 0.0 0.0 
0.91443145 0.0 0.03976606 0.0 0.0 0.0 
1.672643 0.0 0.0 0.0 0.14560227 0.15948057 
1.4685483 0.649138 0.0 0.0 1.4272219 0.25859696 
0.17044848 1.3729528 0.0 0.0 2.2554536 0.27670673 
0.0 1.2992008 0.041219473 0.040432964 1.9984559 0.47057742 
0.0 0.5017801 0.7361408 0.0 1.1901007 0.5179589 
0.0 0.0049189245 0.80546534 0.0 0.1772359 0.25325143 
0.5905657 0.0 0.34179488 0.0 0.0 0.0 
1.5166621 0.0 0.0 0.0 0.0 0.038104884 
1.7761106 0.33241287 0.0 0.0 1.0088087 0.16641891 
0.85085464 1.2176603 0.0 0.15447822 2.2363117 0.4181295 
0.0 1.4350324 0.0 0.1568148 2.7275856 0.675908 
0.0 1.1243285 0.07083783 0.17077821 2.159628 0.87055606 
0.0 0.39092857 0.44957864 0.03769728 1.1295619 0.6847997 
0.0 0.084017925 0.480017 0.0 0.413819 0.4260977 
0.0 0.0 0.27677715 0.0 0.13221465 0.1837602 
0.0 0.0 0.009315699 0.0 0.0 0.085973546 
0.0 0.0 0.0 0.0 0.0 0.07698792 
0.0 0.0 0.0 0.0 0.0 0.07698792 
0.0 0.0 0.0 0.0 0.0 0.07698792 
0.0 0.0 0.0 0.0 0.0 0.07698792 
0.0 0.0 0.0 0.0 0.0 0.07698792 
0.0 0.0 0.0 0.0 0.0 0.07698792 
0.0 0.0 0.0 0.0 0.0 0.07698792 
0.0 0.0 0.0 0.0 0.0 0.07698792 
0.0 0.0 0.0 0.0 0.0 0.07698792 
0.11496833 0.0 0.059514493 0.0 0.0 0.026165314 
0.70346326 0.0 0.06911536 0.0 0.0 0.0 
1.4332426 0.0 0.0 0.0 0.0 0.071747914 
1.6604578 0.2852822 0.0 0.0 0.9393809 0.18804832 
0.59439117 1.2499675 0.0 0.0 2.0862935 0.17507939 
0.0 1.4022001 0.0 0.0 2.1939805 0.29934755 
0.0 0.87388 0.5540713 0.021678142 1.486739 0.5286724 
0.0 0.122026 0.8149348 0.0 0.54464006 0.35882136 
0.24626979 0.0 0.44299012 0.0 0.0 0.082262374 
1.2664049 0.0 0.033830903 0.0 0.0 0.07839896 
1.8090894 0.06663516 0.0 0.0 0.60610145 0.1984988 
1.1294682 1.0375513 0.0 0.16890888 1.8932303 0.33170688 
0.0 1.4546225 0.0 0.102718495 2.6324146 0.52617866 
0.0 1.2428279 0.016042754 0.09431325 2.271548 0.7834969 
0.0 0.45676625 0.4002632 0.0 1.3046916 0.68205434 
0.0 0.04592487 0.40028813 0.0 0.4877244 0.43007195 
0.0 0.0 0.20043993 0.0 0.17597082 0.21354134 
0.0 0.0 0.010667093 0.0 0.014267657 0.09546816 
0.0 0.0 0.0 0.0 0.0 0.07805332 
0.0 0.0 0.0 0.0 0.0 0.07698792 
0.0 0.0 0.0 0.0 0.0 0.07698792 
0.0 0.0 0.0 0.0 0.0 0.07698792 
0.0 0.0 0.0 0.0 0.0 0.07698792 
0.0 0.0 0.0 0.0 0.0 0.07698792 
0.0 0.0 0.0 0.0 0.0 0.07698792 
0.0 0.0 0.0 0.0 0.0 0.07698792 
0.0 0.0 0.0 0.0 0.0 0.07698792 
0.0 0.0 0.023638062 0.0 0.0 0.03890024 
0.42400932 0.0 0.027477816 0.0 0.0 0.016947888 
1.1849332 0.0 0.0 0.0 0.0 0.08404606 
1.7002714 0.0 0.0 0.01988696 0.47094408 0.20357938 
1.1218288 0.99673396 0.0 0.18294866 1.6963772 0.27626622 
0.0 1.5099615 0.0 0.045106288 2.3014662 0.25452846 
0.0 1.2007115 0.3966704 0.11623955 1.7380729 0.43684036 
0.0 0.369081 0.8274999 0.027199998 0.9346308 0.4544864 
0.0 0.0 0.6640755 0.0 0.012333814 0.2008509 
0.9508752 0.0 0.09982132 0.0 0.0 0.121114664 
1.7273915 0.0 0.0 0.0 0.20400216 0.23759243 
1.4976063 0.6726042 0.0 0.15434761 1.48177 0.2882606 
0.25140136 1.445791 0.0 0.087926224 2.4496925 0.3827359 
0.0 1.3664832 0.0 0.06628952 2.361208 0.579089 
0.0 0.6661596 0.4899428 0.018769745 1.4623641 0.6350851 
0.0 0.11496845 0.53907895 0.0 0.58320785 0.4306088 
0.0 0.0 0.26842532 0.0 0.19235389 0.22030847 
0.0 0.0 0.029422462 0.0 0.010511491 0.088098474 
0.0 0.0 0.0 0.0 0.0 0.07698792 
0.0 0.0 0.0 0.0 0.0 0.07698792 
0.0 0.0 0.0 0.0 0.0 0.07698792 
0.0 0.0 0.0 0.0 0.0 0.07698792 
0.0 0.0 0.0 0.0 0.0 0.07698792 
0.0 0.0 0.0 0.0 0.0 0.07698792 
0.0 0.0 0.0 0.0 0.0 0.07698792 
0.0 0.0 0.0 0.0 0.0 0.07698792 
0.0 0.0 0.0 0.0 0.0 0.07698792 
0.0 0.0 0.0 0.0 0.0 0.07698792 
0.11485782 0.0 0.052042164 0.0 0.0 0.02993391 
0.88214666 0.0 0.0 0.0 0.0 0.15672314 
1.6425595 0.0 0.0 0.0 0.05477013 0.34304646 
1.5346198 0.5212826 0.0 0.10509901 1.2583766 0.31091082 
0.3049122 1.3792382 0.0 0.04343949 2.1946435 0.28511032 
0.0 1.432926 0.1494379 0.105576605 2.039005 0.3492941 
0.0 0.66983694 0.73967963 0.038535368 1.2737286 0.49773625 
0.0 0.07441956 0.83953017 0.0 0.36284676 0.30844796 
0.44119036 0.0 0.3199072 0.0 0.0 0.10800377 
1.5296266 0.0 0.0 0.0 0.0 0.25025192 
1.8258462 0.24802753 0.0 0.0 0.9762339 0.30597132 
0.7531065 1.3274014 0.0 0.08515744 2.0729408 0.3032381 
0.0 1.5098642 0.0 0.0 2.417658 0.39735365 
0.0 1.0306343 0.52403593 0.030505773 1.6865224 0.573785 
0.0 0.21672615 0.67927027 0.0 0.78582865 0.46219 
0.0 0.0 0.41841558 0.0 0.2299337 0.25281262 
0.0 0.0 0.069227315 0.0 0.01772407 0.0938252 
0.0 0.0 0.0 0.0 0.0 0.07698792 
0.0 0.0 0.0 0.0 0.0 0.07698792 
0.0 0.0 0.0 0.0 0.0 0.07698792 
0.0 0.0 0.0 0.0 0.0 0.07698792 
0.0 0.0 0.0 0.0 0.0 0.07698792 
0.0 0.0 0.0 0.0 0.0 0.07698792 
0.0 0.0 0.0 0.0 0.0 0.07698792 
0.0 0.0 0.0 0.0 0.0 0.07698792 
0.0 0.0 0.0 0.0 0.0 0.07698792 
0.0 0.0 0.0 0.0 0.0 0.07698792 
0.012954414 0.0 0.048533037 0.0 0.0 0.027209967 
0.46118993 0.0 0.04027445 0.0 0.0 0.0 
1.3356607 0.0 0.0 0.0 0.0 0.20867068 
1.7606032 0.0044205626 0.0 0.0 0.794856 0.3799218 
0.8810174 1.0586386 0.0 0.08690238 1.870338 0.3272778 
0.0 1.4360454 0.0 0.039754536 2.2164037 0.3947292 
0.0 0.9860428 0.60997957 0.1115984 1.6078655 0.5454028 
0.0 0.19602881 0.87716365 0.0 0.6960996 0.39207527 
0.05424553 0.0 0.59165335 0.0 0.0 0.046189785 
1.113034 0.0 0.035557866 0.0 0.0 0.07570613 
1.8676918 0.0 0.0 0.0 0.46100834 0.26757875 
1.3177621 0.88862336 0.0 0.003503983 1.7022322 0.26337853 
0.0 1.456612 0.0 0.0 2.4043639 0.30508864 
0.0 1.3133835 0.37398547 0.078151256 1.9744109 0.48081288 
0.0 0.39082664 0.78010446 0.0 1.1522561 0.48118138 
0.0 0.057431765 0.54308707 0.005130942 0.361007 0.30686226 
0.0 0.0 0.13971144 0.0 0.062269937 0.11723527 
0.0 0.0 0.0 0.0 0.0 0.07850991 
0.0 0.0 0.0 0.0 0.0 0.07698792 
0.0 0.0 0.0 0.0 0.0 0.07698792 
0.0 0.0 0.0 0.0 0.0 0.07698792 
0.0 0.0 0.0 0.0 0.0 0.07698792 
0.0 0.0 0.0 0.0 0.0 0.07698792 
0.0 0.0 0.0 0.0 0.0 0.07698792 
0.0 0.0 0.0 0.0 0.0 0.07698792 
0.0 0.0 0.0 0.0 0.0 0.07698792 
0.0 0.0 0.0 0.0 0.0 0.07698792 
0.0 0.0 0.0 0.0 0.0 0.06793738 
0.18189031 0.0 0.075763606 0.0 0.0 0.0 
0.9562767 0.0 0.0 0.0 0.0 0.08982584 
1.7343245 0.0 0.0 0.0 0.20450483 0.3086385 
1.5535178 0.66288227 0.0 0.0 1.3220961 0.16774562 
0.3028927 1.4685471 0.0 0.0 1.9700707 0.0 
0.0 1.4438435 0.5369007 0.0 1.6500179 0.0 
0.0 0.8120345 1.1945368 0.0 0.8929712 0.0 
0.0 0.43834344 1.0208715 0.0 0.057579372 0.0 
0.7066749 0.0 0.47186112 0.0 0.0 0.0 
1.6625073 0.0 0.0 0.0 0.103002325 0.0 
1.6884375 0.5901937 0.0 0.0 1.3199441 0.14574331 
0.37728584 1.3832046 0.0 0.0 2.2685442 0.17587493 
0.0 1.4643888 0.0 0.022429775 2.1909873 0.29971847 
0.0 0.81077605 0.8295458 0.051910993 1.4542916 0.5074206 
0.0 0.21030071 0.7896312 0.07612952 0.5886417 0.374334 
0.0 0.0 0.3056076 0.0 0.11875445 0.15832724 
0.0 0.0 0.0 0.0 0.0 0.0813047 
0.0 0.0 0.0 0.0 0.0 0.07698792 
0.0 0.0 0.0 0.0 0.0 0.07698792 
0.0 0.0 0.0 0.0 0.0 0.07698792 
0.0 0.0 0.0 0.0 0.0 0.07698792 
0.0 0.0 0.0 0.0 0.0 0.07698792 
0.0 0.0 0.0 0.0 0.0 0.07698792 
0.0 0.0 0.0 0.0 0.0 0.07698792 
0.0 0.0 0.0 0.0 0.0 0.07698792 
0.0 0.0 0.0 0.0 0.0 0.07698792 
0.0 0.0 0.0 0.0 0.0 0.07698792 
0.0 0.0 0.0 0.0 0.0 0.05586014 
0.4829598 0.0 0.0 0.0 0.0 0.098175324 
1.456352 0.0 0.0 0.0 0.0 0.27425137 
1.9492853 0.019588657 0.0 0.0 0.7057596 0.24956611 
1.2158711 1.2137628 0.0 0.0 1.4484115 0.0 
0.13623285 1.6075683 0.27344036 0.0 1.6069559 0.0 
0.0 1.4065034 1.3257685 0.0 1.0514554 0.0 
0.015992597 1.0636166 1.6167614 0.0 0.511331 0.0 
0.3476811 0.65879124 1.1960454 0.0 0.2389775 0.0 
1.029206 0.4399517 0.61765647 0.0 0.31504384 0.0 
1.5344081 0.50896734 0.038433142 0.0 1.1236565 0.0 
1.0165093 1.3562064 0.0 0.0 2.0980053 0.0 
0.0 1.7602379 0.0 0.0 2.3517437 0.0 
0.0 1.4485742 0.68136513 0.0 1.7627217 0.100975305 
0.0 0.48162618 0.9260723 0.0 1.0569836 0.27423728 
0.0 0.06452724 0.55587214 0.0 0.2841675 0.21595103 
0.0 0.0 0.057894 0.0 0.008956384 0.0938352 
0.0 0.0 0.0 0.0 0.0 0.07714012 
0.0 0.0 0.0 0.0 0.0 0.07698792 
0.0 0.0 0.0 0.0 0.0 0.07698792 
0.0 0.0 0.0 0.0 0.0 0.07698792 
0.0 0.0 0.0 0.0 0.0 0.07698792 
0.0 0.0 0.0 0.0 0.0 0.07698792 
0.0 0.0 0.0 0.0 0.0 0.07698792 
0.0 0.0 0.0 0.0 0.0 0.07698792 
0.0 0.0 0.0 0.0 0.0 0.07698792 
0.0 0.0 0.0 0.0 0.0 0.07698792 
0.0 0.0 0.0 0.0 0.0 0.07698792 
0.04908754 0.0 0.0 0.0 0.0 0.09120216 
0.81337 0.0 0.0 0.08899717 0.0 0.36585677 
1.8218131 0.0 0.0 0.12516007 0.16054875 0.6013477 
1.8935175 0.3277636 0.0 0.062289085 1.0042461 0.34414622 
1.0842171 1.1478373 0.0 0.0 1.4847901 0.0 
0.3081267 1.4331452 0.9520303 0.0 1.5255841 0.0 
0.14688185 1.1607993 1.7442553 0.0 1.3021561 0.0 
0.20531291 1.0430183 1.7949847 0.0 1.1273081 0.0 
0.58599174 0.98886794 1.4545815 0.0 1.0339948 0.0 
1.0954669 1.0205724 0.9362823 0.041187357 1.4214795 0.0 
1.2548568 1.2141802 0.2606326 0.0010048198 1.9526795 0.0 
0.5156055 1.7972667 0.035263143 0.0 2.3969445 0.0 
0.0 1.9634893 0.55176234 0.0 2.1519158 0.0 
0.0 1.3074856 1.3071885 0.0 1.5504264 0.0 
0.0 0.40920457 0.95988166 0.0 0.94080466 0.059050217 
0.0 0.0 0.268268 0.0 0.19221376 0.085758254 
0.0 0.0 0.0 0.0 0.0 0.07866211 
0.0 0.0 0.0 0.0 0.0 0.07698792 
0.0 0.0 0.0 0.0 0.0 0.07698792 
0.0 0.0 0.0 0.0 0.0 0.07698792 
0.0 0.0 0.0 0.0 0.0 0.07698792 
0.0 0.0 0.0 0.0 0.0 0.07698792 
0.0 0.0 0.0 0.0 0.0 0.07698792 
0.0 0.0 0.0 0.0 0.0 0.07698792 
0.0 0.0 0.0 0.0 0.0 0.07698792 
0.0 0.0 0.0 0.0 0.0 0.07698792 
0.0 0.0 0.0 0.0 0.0 0.07698792 
0.0 0.0 0.0 0.0 0.0 0.07698792 
0.119078666 0.0 0.0 0.024628315 0.0 0.17631455 
1.098695 0.0 0.0 0.13340074 0.0 0.6557644 
2.0377629 0.0 0.0 0.14515024 0.5705991 0.88421863 
1.8148823 0.32049292 0.0 0.13268873 1.2370842 0.54849523 
0.9613679 1.1903801 0.0 0.3323202 1.6077653 0.31124547 
0.17069419 1.381923 0.93539417 0.5341746 2.076833 0.35101765 
0.11873773 1.2861917 1.3144324 0.92943835 2.0100794 0.5198771 
0.37275696 1.192967 1.3218232 1.1684116 1.7157261 0.5220393 
0.78413194 1.2911588 1.1130067 1.1638875 1.7043195 0.5439995 
0.90894014 1.3438616 0.66130316 0.91047496 2.1366944 0.6311549 
0.7636885 1.3334897 0.18434268 0.6295514 2.457535 0.6733717 
0.0 1.7775974 0.31328815 0.41820282 2.5170686 0.34285998 
0.0 1.6048169 1.0340317 0.3830992 2.1108437 0.14237136 
0.0 1.0247059 1.6466386 0.32001033 1.4357877 0.21348664 
0.0 0.35275865 1.0777194 0.06860712 0.7779011 0.07293005 
0.0 0.0 0.125078 0.0 0.078326285 0.0674808 
0.0 0.0 0.0 0.0 0.0 0.07698792 
0.0 0.0 0.0 0.0 0.0 0.07698792 
0.0 0.0 0.0 0.0 0.0 0.07698792 
0.0 0.0 0.0 0.0 0.0 0.07698792 
0.0 0.0 0.0 0.0 0.0 0.07698792 
0.0 0.0 0.0 0.0 0.0 0.07698792 
0.0 0.0 0.0 0.0 0.0 0.07698792 
0.0 0.0 0.0 0.0 0.0 0.07698792 
0.0 0.0 0.0 0.0 0.0 0.07698792 
0.0 0.0 0.0 0.0 0.0 0.07698792 
0.0 0.0 0.0 0.0 0.0 0.07698792 
0.0 0.0 0.0 0.0 0.0 0.07698792 
0.1960172 0.0 0.0 0.036979083 0.0 0.24154268 
1.2334182 0.0 0.0 0.07839871 0.17931508 0.8321425 
1.911437 0.0 0.0 0.18931499 0.8584102 1.1251206 
1.5054462 0.2661714 0.0 0.43042603 1.5543588 1.0399506 
0.76375335 0.9784088 0.0 0.7451316 2.3305042 1.2728448 
0.0 1.0752386 0.07799543 0.9739709 2.9306836 1.506181 
0.079478875 0.6653665 0.06934921 1.1056564 2.6088297 1.6466682 
0.6598423 0.45093122 0.0 1.0123068 2.1065176 1.570708 
1.0475705 0.5924877 0.0 0.81909704 2.0442913 1.3739529 
0.87177694 1.03952 0.0 0.672242 2.4669435 1.1310077 
0.29002696 1.3039353 0.0 0.6305551 2.784929 1.134259 
0.0 1.4187278 0.27523202 0.62539494 2.596689 0.896818 
0.0 1.0288363 0.8290942 0.65477854 1.8295281 0.62155926 
0.0 0.71752495 1.3982099 0.6471105 0.94116956 0.5582024 
0.0 0.32740375 1.0313044 0.33561513 0.40473703 0.18764146 
0.0 0.0677997 0.116755836 0.07107651 0.0 0.08946539 
0.0 0.0 0.0 0.0 0.0 0.07698792 
0.0 0.0 0.0 0.0 0.0 0.07698792 
0.0 0.0 0.0 0.0 0.0 0.07698792 
0.0 0.0 0.0 0.0 0.0 0.07698792 
0.0 0.0 0.0 0.0 0.0 0.07698792 
0.0 0.0 0.0 0.0 0.0 0.07698792 
0.0 0.0 0.0 0.0 0.0 0.07698792 
0.0 0.0 0.0 0.0 0.0 0.07698792 
0.0 0.0 0.0 0.0 0.0 0.07698792 
0.0 0.0 0.0 0.0 0.0 0.07698792 
0.0 0.0 0.0 0.0 0.0 0.07698792 
0.0 0.0 0.0 0.0 0.0 0.07698792 
0.18838844 0.0 0.0 0.028120872 0.01792181 0.29599786 
1.0613339 0.0 0.0 0.1657607 0.46381637 1.0323174 
1.5109053 0.0 0.0 0.37807086 1.2228688 1.4525905 
1.0587599 0.13584681 0.0 0.5924442 1.9421414 1.4832001 
0.24973255 0.6364171 0.0 0.722393 2.4709451 1.6988506 
0.0 0.58104044 0.0 0.6079068 2.598652 1.7274742 
0.3309769 0.142086 0.0 0.31911266 1.8947537 1.8118563 
1.2112992 0.0 0.0 0.091488935 1.4517671 1.753638 
1.3851664 0.17954706 0.0 0.0 1.7537682 1.3854492 
0.5795551 1.0435249 0.0 0.07889292 2.3375895 0.92211384 
0.0 1.2306554 0.0 0.04956844 2.81344 1.0630202 
0.0 1.0313113 0.0 0.010469434 2.275039 1.0695199 
0.0 0.49224386 0.18846264 0.08127181 1.1671902 0.7263929 
0.0 0.1840659 0.5824042 0.12070008 0.48797074 0.5802167 
0.0 0.079317905 0.6344572 0.12366247 0.18898131 0.22246781 
0.0 0.0 0.053515427 0.007350159 0.0 0.09261265 
0.0 0.0 0.0 0.0 0.0 0.07698792 
0.0 0.0 0.0 0.0 0.0 0.07698792 
0.0 0.0 0.0 0.0 0.0 0.07698792 
0.0 0.0 0.0 0.0 0.0 0.07698792 
0.0 0.0 0.0 0.0 0.0 0.07698792 
0.0 0.0 0.0 0.0 0.0 0.07698792 
0.0 0.0 0.0 0.0 0.0 0.07698792 
0.0 0.0 0.0 0.0 0.0 0.07698792 
0.0 0.0 0.0 0.0 0.0 0.07698792 
0.0 0.0 0.0 0.0 0.0 0.07698792 
0.0 0.0 0.0 0.0 0.0 0.07698792 
0.0 0.0 0.0 0.0 0.0 0.07698792 
0.14809543 0.0 0.0 0.018620688 0.094858065 0.28049704 
0.78527313 0.0 0.0 0.12605777 0.6302424 0.9011738 
0.92788017 0.0 0.0 0.18289839 1.2052503 1.2192585 
0.5038264 0.118266955 0.0 0.12033751 1.5688796 1.2826374 
0.14492929 0.25844577 0.0 0.0 1.6550857 1.44435 
0.0 0.103787966 0.0 0.0 1.4129245 1.2040002 
0.59760505 0.0 0.0 0.0 0.92491496 1.161304 
1.4883795 0.0 0.0 0.0 0.9396201 1.1779258 
1.3433876 0.0 0.0 0.0 1.6920861 0.8239224 
0.1746017 0.98183984 0.0 0.0 2.257876 0.46309954 
0.0 1.0056792 0.0106898025 0.0 2.4016287 0.6262813 
0.0 0.44558352 0.1281352 0.0 1.6431515 0.6985269 
0.0 0.0 0.0 0.0 0.6392484 0.43784586 
0.0 0.0 0.0 0.0 0.26908186 0.32969156 
0.0 0.0 0.19453251 0.0 0.100290224 0.14325069 
0.0 0.0 0.0 0.0 0.0 0.08041241 
0.0 0.0 0.0 0.0 0.0 0.07698792 
0.0 0.0 0.0 0.0 0.0 0.07698792 
0.0 0.0 0.0 0.0 0.0 0.07698792 
0.0 0.0 0.0 0.0 0.0 0.07698792 
0.0 0.0 0.0 0.0 0.0 0.07698792 
0.0 0.0 0.0 0.0 0.0 0.07698792 
0.0 0.0 0.0 0.0 0.0 0.07698792 
0.0 0.0 0.0 0.0 0.0 0.07698792 
0.0 0.0 0.0 0.0 0.0 0.07698792 
0.0 0.0 0.0 0.0 0.0 0.07698792 
0.0 0.0 0.0 0.0 0.0 0.07698792 
0.0 0.0 0.0 0.0 0.0 0.07698792 
0.06354223 0.0 0.0 0.008329236 0.055535156 0.20816174 
0.45934606 0.0 0.0 0.0 0.5123878 0.6213366 
0.5157872 0.0 0.0 0.0 0.8560617 0.8239615 
0.22587553 0.0 0.0 0.0 0.83321315 0.71671826 
0.0 0.0 0.0 0.0 0.6855409 0.65966153 
0.0 0.0 0.0 0.0 0.4843801 0.47543353 
0.6773208 0.0 0.0 0.0 0.21217896 0.7043958 
1.6245816 0.0 0.0 0.0 0.7583911 0.97679174 
1.0303414 0.40580896 0.0 0.010550485 1.5698037 0.60055083 
0.0 1.2037252 0.0 0.08143984 1.7296777 0.25569385 
0.0 0.8922719 0.71546084 0.0 1.6774124 0.42845288 
0.0 0.23803502 0.7247497 0.0 0.8883121 0.3740912 
0.0 0.0 0.16952342 0.0 0.19732206 0.16974291 
0.0 0.0 0.0 0.0 0.02768645 0.13096939 
0.0 0.0 0.0 0.0 0.0 0.0833042 
0.0 0.0 0.0 0.0 0.0 0.07698792 
0.0 0.0 0.0 0.0 0.0 0.07698792 
0.0 0.0 0.0 0.0 0.0 0.07698792 
0.0 0.0 0.0 0.0 0.0 0.07698792 
0.0 0.0 0.0 0.0 0.0 0.07698792 
0.0 0.0 0.0 0.0 0.0 0.07698792 
0.0 0.0 0.0 0.0 0.0 0.07698792 
0.0 0.0 0.0 0.0 0.0 0.07698792 
0.0 0.0 0.0 0.0 0.0 0.07698792 
0.0 0.0 0.0 0.0 0.0 0.07698792 
0.0 0.0 0.0 0.0 0.0 0.07698792 
0.0 0.0 0.0 0.0 0.0 0.07698792 
0.0 0.0 0.0 0.0 0.0 0.07698792 
0.0017567053 0.0 0.0 0.0 0.055358123 0.12649801 
0.16836533 0.0 0.0 0.0 0.30367577 0.24549162 
0.12478477 0.0 0.0 0.0 0.28211206 0.24214017 
0.0 0.0 0.0 0.0 0.16663365 0.1840639 
0.0 0.0 0.0 0.0 0.14253254 0.20619968 
0.0 0.0 0.0 0.0 0.027574617 0.19943406 
1.0039194 0.0 0.0 0.030571025 0.037364993 0.6416925 
1.6644278 0.0 0.0 0.12489928 0.8359376 0.8391156 
0.5838056 0.74 0.0 0.023896392 1.4066371 0.3091047 
0.0 1.2051352 0.0 0.05027235 1.3452417 0.15881488 
0.0 0.70338833 1.0312604 0.0 1.2058786 0.31253812 
0.0 0.19307064 0.79402286 0.090109766 0.39095178 0.22562395 
0.0 0.0 0.12362648 0.0 0.010953773 0.10071142 
0.0 0.0 0.0 0.0 0.0 0.07698792 
0.0 0.0 0.0 0.0 0.0 0.07698792 
0.0 0.0 0.0 0.0 0.0 0.07698792 
0.0 0.0 0.0 0.0 0.0 0.07698792 
0.0 0.0 0.0 0.0 0.0 0.07698792 
0.0 0.0 0.0 0.0 0.0 0.07698792 
0.0 0.0 0.0 0.0 0.0 0.07698792 
0.0 0.0 0.0 0.0 0.0 0.07698792 
0.0 0.0 0.0 0.0 0.0 0.07698792 
0.0 0.0 0.0 0.0 0.0 0.07698792 
0.0 0.0 0.0 0.0 0.0 0.07698792 
0.0 0.0 0.0 0.0 0.0 0.07698792 
0.0 0.0 0.0 0.0 0.0 0.07698792 
0.0 0.0 0.0 0.0 0.0 0.07698792 
0.0 0.0 0.0 0.0 0.0 0.07698792 
0.0 0.0 0.0 0.0 0.0 0.07698792 
0.0 0.0 0.0 0.0 0.0 0.07698792 
0.0 0.0 0.0 0.0 0.0 0.07698792 
0.0 0.0 0.0 0.0 0.0 0.07698792 
0.0 0.0 0.0 0.0 0.0 0.07698792 
0.08426255 0.0 0.0 0.052306466 0.0 0.2153919 
0.9268255 0.0 0.0 0.19901396 0.26072237 0.9167136 
1.2100084 0.0 0.0 0.27489832 1.0010694 1.1109686 
0.28003162 0.6077011 0.0 0.26477593 1.2221034 0.6117683 
0.0 0.8423123 0.11763168 0.23328656 1.0268158 0.56617707 
0.0 0.34728664 0.9502518 0.054217976 0.8820023 0.35932276 
0.0 0.0 0.46339786 0.0 0.23090078 0.1588307 
0.0 0.0 0.0 0.0 0.0 0.08268119 
0.0 0.0 0.0 0.0 0.0 0.07698792 
0.0 0.0 0.0 0.0 0.0 0.07698792 
0.0 0.0 0.0 0.0 0.0 0.07698792 
0.0 0.0 0.0 0.0 0.0 0.07698792 
0.0 0.0 0.0 0.0 0.0 0.07698792 
0.0 0.0 0.0 0.0 0.0 0.07698792 
0.0 0.0 0.0 0.0 0.0 0.07698792 
0.0 0.0 0.0 0.0 0.0 0.07698792 
0.0 0.0 0.0 0.0 0.0 0.07698792 
0.0 0.0 0.0 0.0 0.0 0.07698792 
0.0 0.0 0.0 0.0 0.0 0.07698792 
0.0 0.0 0.0 0.0 0.0 0.07698792 
0.0 0.0 0.0 0.0 0.0 0.07698792 
0.0 0.0 0.0 0.0 0.0 0.07698792 
0.0 0.0 0.0 0.0 0.0 0.07698792 
0.0 0.0 0.0 0.0 0.0 0.07698792 
0.0 0.0 0.0 0.0 0.0 0.07698792 
0.0 0.0 0.0 0.0 0.0 0.07698792 
0.0 0.0 0.0 0.0 0.0 0.07698792 
0.0 0.0 0.0 0.0 0.0 0.07698792 
0.0895264 0.0 0.0 0.012734783 0.054735977 0.22658816 
0.7746811 0.0 0.0 0.11411826 0.5879836 0.8821258 
0.6757117 0.0 0.0 0.098703876 0.99014026 0.89034414 
0.0 0.18739438 0.0 0.20794725 0.8615878 0.45297006 
0.0 0.23761535 0.076541 0.20233986 0.6794949 0.58033603 
0.0 0.23228517 0.8343078 0.2204571 0.4276033 0.3131786 
0.0 0.0 0.21159369 0.0 0.06941286 0.10216974 
0.0 0.0 0.0 0.0 0.0 0.07736842 
0.0 0.0 0.0 0.0 0.0 0.07698792 
0.0 0.0 0.0 0.0 0.0 0.07698792 
0.0 0.0 0.0 0.0 0.0 0.07698792 
0.0 0.0 0.0 0.0 0.0 0.07698792 
0.0 0.0 0.0 0.0 0.0 0.07698792 
0.0 0.0 0.0 0.0 0.0 0.07698792 
0.0 0.0 0.0 0.0 0.0 0.07698792 
0.0 0.0 0.0 0.0 0.0 0.07698792 
0.0 0.0 0.0 0.0 0.0 0.07698792 
0.0 0.0 0.0 0.0 0.0 0.07698792 
0.0 0.0 0.0 0.0 0.0 0.07698792 
0.0 0.0 0.0 0.0 0.0 0.07698792 
0.0 0.0 0.0 0.0 0.0 0.07698792 
0.0 0.0 0.0 0.0 0.0 0.07698792 
0.0 0.0 0.0 0.0 0.0 0.07698792 
0.0 0.0 0.0 0.0 0.0 0.07698792 
0.0 0.0 0.0 0.0 0.0 0.07698792 
0.0 0.0 0.0 0.0 0.0 0.07698792 
0.0 0.0 0.0 0.0 0.0 0.07698792 
0.0 0.0 0.0 0.0 0.0 0.07698792 
0.027148351 0.0 0.0 0.0026484365 0.026785936 0.17219761 
0.4575783 0.0 0.0 0.0 0.4512798 0.62112314 
0.33809093 0.0838691 0.0 0.0 0.56244594 0.72350544 
0.0 0.1473222 0.0 0.0 0.31234935 0.45271432 
0.0 0.06822903 0.0 0.0 0.2111397 0.47215688 
0.0 0.024081264 0.5131089 0.077016115 0.12890399 0.22796789 
0.0 0.0015206737 0.06449041 0.019548297 0.0 0.09433451 
0.0 0.0 0.0 0.0 0.0 0.07698792 
0.0 0.0 0.0 0.0 0.0 0.07698792 
0.0 0.0 0.0 0.0 0.0 0.07698792 
0.0 0.0 0.0 0.0 0.0 0.07698792 
0.0 0.0 0.0 0.0 0.0 0.07698792 
0.0 0.0 0.0 0.0 0.0 0.07698792 
0.0 0.0 0.0 0.0 0.0 0.07698792 
0.0 0.0 0.0 0.0 0.0 0.07698792 
0.0 0.0 0.0 0.0 0.0 0.07698792 
0.0 0.0 0.0 0.0 0.0 0.07698792 
0.0 0.0 0.0 0.0 0.0 0.07698792 
0.0 0.0 0.0 0.0 0.0 0.07698792 
0.0 0.0 0.0 0.0 0.0 0.07698792 
0.0 0.0 0.0 0.0 0.0 0.07698792 
0.0 0.0 0.0 0.0 0.0 0.07698792 
0.0 0.0 0.0 0.0 0.0 0.07698792 
0.0 0.0 0.0 0.0 0.0 0.07698792 
0.0 0.0 0.0 0.0 0.0 0.07698792 
0.0 0.0 0.0 0.0 0.0 0.07698792 
0.0 0.0 0.0 0.0 0.0 0.07698792 
0.0 0.0 0.0 0.0 0.0 0.07698792 
0.0 0.0 0.0 0.0 0.022641335 0.11226386 
0.19981253 0.0 0.0 0.0 0.3545101 0.26445788 
0.15139058 0.0 0.0 0.0 0.3010535 0.2604165 
0.0 0.0 0.0 0.0 0.16402689 0.16720457 
0.0 0.0 0.0 0.0 0.15707523 0.23341961 
0.0 0.0 0.0433572 0.0 0.09479222 0.12825376 
0.0 0.0 0.0 0.0 0.0 0.081173405 
0.0 0.0 0.0 0.0 0.0 0.07698792 
0.0 0.0 0.0 0.0 0.0 0.07698792 
0.0 0.0 0.0 0.0 0.0 0.07698792 
0.0 0.0 0.0 0.0 0.0 0.07698792 
0.0 0.0 0.0 0.0 0.0 0.07698792 
0.0 0.0 0.0 0.0 0.0 0.07698792 
0.0 0.0 0.0 0.0 0.0 0.07698792 
0.0 0.0 0.0 0.0 0.0 0.07698792 
0.0 0.0 0.0 0.0 0.0 0.07698792 
0.0 0.0 0.0 0.0 0.0 0.07698792 
0.0 0.0 0.0 0.0 0.0 0.07698792 
0.0 0.0 0.0 0.0 0.0 0.07698792 
0.0 0.0 0.0 0.0 0.0 0.07698792 
0.0 0.0 0.0 0.0 0.0 0.07698792 
0.0 0.0 0.0 0.0 0.0 0.07698792 
0.0 0.0 0.0 0.0 0.0 0.07698792 
0.0 0.0 0.0 0.0 0.0 0.07698792 
0.0 0.0 0.0 0.0 0.0 0.07698792 
0.0 0.0 0.0 0.0 0.0 0.07698792 
0.0 0.0 0.0 0.0 0.0 0.07698792 
0.0 0.0 0.0 0.0 0.0 0.07698792 
0.0 0.0 0.0 0.0 0.0 0.07698792 
0.0 0.0 0.0 0.0 0.0 0.07698792 
0.0 0.0 0.0 0.0 0.0 0.07698792 
0.0 0.0 0.0 0.0 0.0 0.07698792 
0.0 0.0 0.0 0.0 0.0 0.07698792 
0.0 0.0 0.0 0.0 0.0 0.07698792 
0.0 0.0 0.0 0.0 0.0 0.07698792 
0.0 0.0 0.0 0.0 0.0 0.07698792 
0.0 0.0 0.0 0.0 0.0 0.07698792 
0.0 0.0 0.0 0.0 0.0 0.07698792 
0.0 0.0 0.0 0.0 0.0 0.07698792 
0.0 0.0 0.0 0.0 0.0 0.07698792 
0.0 0.0 0.0 0.0 0.0 0.07698792 
0.0 0.0 0.0 0.0 0.0 0.07698792 
0.0 0.0 0.0 0.0 0.0 0.07698792 
0.0 0.0 0.0 0.0 0.0 0.07698792 
0.0 0.0 0.0 0.0 0.0 0.07698792 
0.0 0.0 0.0 0.0 0.0 0.07698792 

