0.0 0.0 0.0 0.0 0.0 0.07698792 
0.0 0.0 0.0 0.0 0.0 0.07698792 
0.0 0.0 0.0 0.0 0.0 0.07698792 
0.0 0.0 0.0 0.0 0.0 0.07698792 
0.0 0.0 0.0 0.0 0.0 0.07698792 
0.0 0.0 0.0 0.0 0.0 0.07698792 
0.0 0.0 0.0 0.0 0.0 0.07698792 
0.0 0.0 0.0 0.0 0.0 0.07698792 
0.0 0.0 0.0 0.0 0.0 0.07698792 
0.0 0.0 0.0 0.0 0.0 0.07698792 
0.0 0.0 0.0 0.0 0.0 0.07698792 
0.0 0.0 0.0 0.0 0.0 0.07698792 
0.0 0.0 0.0 0.0 0.0 0.07698792 
0.0 0.0 0.0 0.0 0.0 0.07698792 
0.0 0.0 0.0 0.0 0.0 0.07698792 
0.0 0.0 0.0 0.0 0.0 0.07698792 
0.0 0.0 0.0 0.0 0.0 0.07698792 
0.0 0.0 0.0 0.0 0.0 0.07698792 
0.0 0.0 0.0 0.0 0.0 0.07698792 
0.0 0.0 0.0 0.0 0.0 0.07698792 
0.0 0.0 0.0 0.0 0.0 0.07698792 
0.0 0.0 0.0 0.0 0.0 0.07698792 
0.0 0.0 0.0 0.0 0.0 0.07698792 
0.0 0.0 0.0 0.0 0.0 0.07698792 
0.0 0.0 0.0 0.0 0.0 0.07698792 
0.0 0.0 0.0 0.0 0.0 0.07698792 
0.0 0.0 0.0 0.0 0.0 0.07698792 
0.0 0.0 0.0 0.0 0.0 0.07698792 
0.0 0.0 0.0 0.0 0.0 0.07698792 
0.0 0.0 0.0 0.0 0.0 0.07698792 
0.0 0.0 0.0 0.0 0.0 0.07698792 
0.0 0.0 0.0 0.0 0.0 0.07698792 
0.0 0.0 0.0 0.0 0.0 0.07698792 
0.0 0.0 0.0 0.0 0.0 0.07698792 
0.0 0.0 0.0 0.0 0.0 0.07698792 
0.0 0.0 0.0 0.0 0.0 0.07698792 
0.0 0.0 0.0 0.0 0.0 0.07698792 
0.0 0.0 0.0 0.0 0.0 0.07698792 
0.0 0.0 0.0 0.0 0.0 0.07698792 
0.0 0.0 0.0 0.0 0.0 0.07698792 
0.0 0.0 0.0 0.0 0.0 0.07698792 
0.0 0.0 0.0 0.0 0.0 0.07698792 
0.0 0.0 0.0 0.0 0.0 0.07698792 
0.0 0.0 0.0 0.0 0.0 0.07698792 
0.0 0.0 0.0 0.0 0.0 0.07698792 
0.0 0.0 0.0 0.0 0.0 0.07698792 
0.0 0.0 0.0 0.0 0.0 0.07698792 
0.0 0.0 0.0 0.0 0.0 0.07698792 
0.0 0.0 0.0 0.0 0.0 0.07698792 
0.0 0.0 0.0 0.0 0.0 0.07698792 
0.0 0.0 0.0 0.0 0.0 0.07698792 
0.0 0.0 0.0 0.0 0.0 0.07698792 
0.0 0.0 0.0 0.0 0.0 0.07698792 
0.0 0.0 0.0 0.0 0.0 0.07698792 
0.0 0.0 0.0 0.0 0.0 0.07698792 
0.0 0.0 0.0 0.0 0.0 0.07698792 
0.0 0.0 0.0 0.0 0.0 0.07698792 
0.0 0.0 0.0 0.0 0.0 0.07698792 
0.0 0.0 0.0 0.0 0.0 0.07698792 
0.0 0.0 0.0 0.0 0.0 0.07698792 
0.0 0.0 0.0 0.0 0.0 0.07698792 
0.0 0.0 0.0 0.0 0.0 0.07698792 
0.0 0.0 0.0 0.0 0.0 0.07698792 
0.0 0.0 0.0 0.0 0.0 0.07698792 
0.0 0.0 0.0 0.0 0.0 0.07698792 
0.0 0.0 0.0 0.0 0.0 0.07698792 
0.0 0.0 0.0 0.0 0.0 0.07698792 
0.0 0.0 0.0 0.0 0.0 0.07698792 
0.0 0.0 0.0 0.0 0.0 0.07698792 
0.0 0.0 0.0 0.0 0.0 0.07698792 
0.0 0.0 0.0 0.0 0.0 0.07698792 
0.0 0.0 0.0 0.0 0.0 0.07698792 
0.0 0.0 0.0 0.0 0.0 0.07698792 
0.0 0.0 0.0 0.0 0.0 0.07698792 
0.0 0.0 0.0 0.0 0.0 0.07698792 
0.0 0.0 0.0 0.0 0.0 0.07698792 
0.0 0.0 0.0 0.0 0.0 0.07698792 
0.0 0.0 0.0 0.0 0.0 0.07698792 
0.0 0.0 0.0 0.0 0.0 0.07698792 
0.0 0.0 0.0 0.0 0.0 0.07698792 
0.0 0.0 0.0 0.0 0.0 0.07698792 
0.0 0.0 0.0 0.0 0.0 0.07698792 
0.0 0.0 0.0 0.0 0.0 0.07698792 
0.0 0.0 0.0 0.0 0.0 0.07698792 
0.0 0.0 0.0 0.0 0.0 0.07698792 
0.0 0.0 0.0 0.0 0.0 0.07698792 
0.0 0.0 0.0 0.0 0.0 0.07698792 
0.0 0.0 0.0 0.0 0.0 0.07698792 
0.0 0.0 0.0 0.0 0.0 0.07698792 
0.0 0.0 0.0 0.0 0.0 0.07698792 
0.0 0.0 0.0 0.0 0.0 0.07698792 
0.0 0.0 0.0 0.0 0.0 0.07698792 
0.0 0.0 0.0 0.0 0.0 0.07698792 
0.0 0.0 0.0 0.0 0.0 0.07698792 
0.0 0.0 0.0 0.0 0.0 0.07698792 
0.0 0.0 0.0 0.0 0.0 0.07698792 
0.0 0.0 0.0 0.0 0.0 0.07698792 
0.0 0.0 0.0 0.0 0.0 0.07698792 
0.0 0.0 0.0 0.0 0.0 0.07698792 
0.0 0.0 0.0 0.0 0.0 0.07698792 
0.0 0.0 0.0 0.0 0.0 0.0758566 
0.036711633 0.0 0.07539686 0.0 0.0 0.011734068 
0.26275578 0.033037484 0.21157661 0.0 0.0 0.0 
0.3508687 0.20087008 0.32027555 0.0 0.0 0.0 
0.21115258 0.4773171 0.26267487 0.0 0.0 0.0 
0.0 0.47451392 0.24242812 0.0 0.00950193 0.0 
0.0 0.36674812 0.14628324 0.0 0.086557 0.0 
0.0 0.14489417 0.0 0.0 0.08014108 0.0 
0.0 0.0 0.0 0.0 0.0 0.07073484 
0.0 0.0 0.0 0.0 0.0 0.07698792 
0.0 0.0 0.0 0.0 0.0 0.07698792 
0.0 0.0 0.0 0.0 0.0 0.07698792 
0.0 0.0 0.0 0.0 0.0 0.07698792 
0.0 0.0 0.0 0.0 0.0 0.07698792 
0.0 0.0 0.0 0.0 0.0 0.07698792 
0.0 0.0 0.0 0.0 0.0 0.07698792 
0.0 0.0 0.0 0.0 0.0 0.07698792 
0.0 0.0 0.0 0.0 0.0 0.07698792 
0.0 0.0 0.0 0.0 0.0 0.07698792 
0.0 0.0 0.0 0.0 0.0 0.07698792 
0.0 0.0 0.0 0.0 0.0 0.07698792 
0.0 0.0 0.0 0.0 0.0 0.07698792 
0.0 0.0 0.0 0.0 0.0 0.07698792 
0.0 0.0 0.0 0.0 0.0 0.07698792 
0.0 0.0 0.0 0.0 0.0 0.07698792 
0.0 0.0 0.0 0.0 0.0 0.07698792 
0.0 0.0 0.0 0.0 0.0 0.07698792 
0.0 0.0 0.0 0.0 0.0 0.0751024 
0.039389767 0.0 0.07324094 0.0 0.0 0.010968909 
0.36623794 0.0 0.1397121 0.0 0.0 0.0 
0.70848143 0.0 0.28195572 0.0 0.0 0.0 
0.9419493 0.32733694 0.47499216 0.0 0.0 0.0 
0.53802353 1.0982125 0.71821207 0.0 0.07778421 0.0 
0.0 1.1915258 0.7448914 0.0 0.60239327 0.0 
0.0 0.7832393 0.64335126 0.0 0.63897675 0.0 
0.0 0.14833161 0.15294808 0.0 0.45266888 0.0 
0.0 0.0 0.0 0.0 0.0 0.06693882 
0.0 0.0 0.0 0.0 0.0 0.07698792 
0.0 0.0 0.0 0.0 0.0 0.07698792 
0.0 0.0 0.0 0.0 0.0 0.07698792 
0.0 0.0 0.0 0.0 0.0 0.07698792 
0.0 0.0 0.0 0.0 0.0 0.07698792 
0.0 0.0 0.0 0.0 0.0 0.07698792 
0.0 0.0 0.0 0.0 0.0 0.07698792 
0.0 0.0 0.0 0.0 0.0 0.07698792 
0.0 0.0 0.0 0.0 0.0 0.07698792 
0.0 0.0 0.0 0.0 0.0 0.07698792 
0.0 0.0 0.0 0.0 0.0 0.07698792 
0.0 0.0 0.0 0.0 0.0 0.07698792 
0.0 0.0 0.0 0.0 0.0 0.07698792 
0.0 0.0 0.0 0.0 0.0 0.07698792 
0.0 0.0 0.0 0.0 0.0 0.07698792 
0.0 0.0 0.0 0.0 0.0 0.07698792 
0.0 0.0 0.0 0.0 0.0 0.07698792 
0.0 0.0 0.0 0.0 0.0 0.07698792 
0.0 0.0 0.010986611 0.0 0.0 0.045057584 
0.29361528 0.0 0.108359106 0.0 0.0 0.0 
0.892375 0.0 0.12697059 0.0 0.0 0.0 
1.2913766 0.0 0.16492456 0.0 0.0 0.0 
1.0348618 0.51485425 0.3446357 0.0 0.29287955 0.0 
0.0 1.2738737 1.0193994 0.20209171 1.2076125 0.0 
0.0 1.4520909 1.3226151 0.40860412 1.4470078 0.0 
0.0 1.0041497 1.27105 0.32987684 1.029322 0.0 
0.0 0.26782826 0.5224681 0.09080753 0.46047583 0.0 
0.0 0.0031909104 0.0 0.0006593717 0.0 0.07242946 
0.0 0.0 0.0 0.0 0.0 0.07698792 
0.0 0.0 0.0 0.0 0.0 0.07698792 
0.0 0.0 0.0 0.0 0.0 0.07698792 
0.0 0.0 0.0 0.0 0.0 0.07698792 
0.0 0.0 0.0 0.0 0.0 0.07698792 
0.0 0.0 0.0 0.0 0.0 0.07698792 
0.0 0.0 0.0 0.0 0.0 0.07698792 
0.0 0.0 0.0 0.0 0.0 0.07698792 
0.0 0.0 0.0 0.0 0.0 0.07698792 
0.0 0.0 0.0 0.0 0.0 0.07698792 
0.0 0.0 0.0 0.0 0.0 0.07698792 
0.0 0.0 0.0 0.0 0.0 0.07698792 
0.0 0.0 0.0 0.0 0.0 0.07698792 
0.0 0.0 0.0 0.0 0.0 0.07698792 
0.0 0.0 0.0 0.0 0.0 0.07698792 
0.0 0.0 0.0 0.0 0.0 0.07698792 
0.0 0.0 0.0 0.0 0.0 0.07698792 
0.0 0.0 0.0 0.0 0.0 0.054361578 
0.17039573 0.0 0.07189245 0.0 0.0 0.0 
0.73164773 0.0 0.052552253 0.0 0.0 0.0 
1.4377787 0.0 0.03251887 0.0 0.0 0.0 
1.5820732 0.459602 0.0 0.14419137 0.40917304 0.0 
0.7543159 1.3902249 0.13470423 0.50736547 1.4885442 0.012884058 
0.0 1.9643936 0.8039404 0.60161424 1.9596189 0.0 
0.0 1.65096 1.5150288 0.7942419 1.5205938 0.04021859 
0.0 0.86160547 1.4666152 0.6274559 0.8235245 0.32086906 
0.0 0.43558717 0.8064369 0.41309896 0.14501794 0.14239508 
0.0 0.0115713915 0.0 0.015119878 0.0 0.079507664 
0.0 0.0 0.0 0.0 0.0 0.07698792 
0.0 0.0 0.0 0.0 0.0 0.07698792 
0.0 0.0 0.0 0.0 0.0 0.07698792 
0.0 0.0 0.0 0.0 0.0 0.07698792 
0.0 0.0 0.0 0.0 0.0 0.07698792 
0.0 0.0 0.0 0.0 0.0 0.07698792 
0.0 0.0 0.0 0.0 0.0 0.07698792 
0.0 0.0 0.0 0.0 0.0 0.07698792 
0.0 0.0 0.0 0.0 0.0 0.07698792 
0.0 0.0 0.0 0.0 0.0 0.07698792 
0.0 0.0 0.0 0.0 0.0 0.07698792 
0.0 0.0 0.0 0.0 0.0 0.07698792 
0.0 0.0 0.0 0.0 0.0 0.07698792 
0.0 0.0 0.0 0.0 0.0 0.07698792 
0.0 0.0 0.0 0.0 0.0 0.07698792 
0.0 0.0 0.0 0.0 0.0 0.07698792 
0.0 0.0 0.0 0.0 0.0 0.07698792 
0.09756717 0.0 0.08061727 0.0 0.0 0.014740828 
0.5952914 0.0 0.10411724 0.0 0.0 0.0 
1.279176 0.0 0.0 0.0 0.0 0.0 
1.8228211 0.09755708 0.0 0.0 0.37643465 0.023031168 
1.4142995 0.96126395 0.0 0.021121267 1.6823933 0.17026258 
0.3584566 1.6111171 0.0 0.1477699 2.569033 0.43159103 
0.0 1.7723136 0.14875749 0.16978492 2.3235433 0.5176389 
0.0 0.9566342 0.78256476 0.032629244 1.4694759 0.5487669 
0.0 0.22428025 0.84198934 0.062306937 0.6418972 0.45553225 
0.0 0.0 0.52725106 0.07219464 0.11720115 0.173798 
0.0 0.0 0.0 0.0 0.0 0.08071598 
0.0 0.0 0.0 0.0 0.0 0.07698792 
0.0 0.0 0.0 0.0 0.0 0.07698792 
0.0 0.0 0.0 0.0 0.0 0.07698792 
0.0 0.0 0.0 0.0 0.0 0.07698792 
0.0 0.0 0.0 0.0 0.0 0.07698792 
0.0 0.0 0.0 0.0 0.0 0.07698792 
0.0 0.0 0.0 0.0 0.0 0.07698792 
0.0 0.0 0.0 0.0 0.0 0.07698792 
0.0 0.0 0.0 0.0 0.0 0.07698792 
0.0 0.0 0.0 0.0 0.0 0.07698792 
0.0 0.0 0.0 0.0 0.0 0.07698792 
0.0 0.0 0.0 0.0 0.0 0.07698792 
0.0 0.0 0.0 0.0 0.0 0.07698792 
0.0 0.0 0.0 0.0 0.0 0.07698792 
0.0 0.0 0.0 0.0 0.0 0.07698792 
0.0 0.0 0.0 0.0 0.0 0.07698792 
0.0 0.0 0.0 0.0 0.0 0.052098945 
0.34351856 0.0 0.023893438 0.0 0.0 0.027406823 
1.0774715 0.0 0.033736095 0.0 0.0 0.03277693 
1.8223422 0.0 0.0 0.0 0.15217113 0.11604587 
1.7785063 0.6738912 0.0 0.0 1.27873 0.22051628 
0.66513914 1.3526801 0.0 0.0 2.4789789 0.28912005 
0.0 1.5765635 0.0 0.0 2.715285 0.3827402 
0.0 1.1458428 0.603294 0.052411754 1.9933249 0.47492635 
0.0 0.28006223 0.71352035 0.0 1.0618988 0.44778836 
0.0 0.007193708 0.4297304 0.0 0.34546894 0.28498137 
0.0 0.0 0.090983115 0.0 0.06425585 0.103899404 
0.0 0.0 0.0 0.0 0.0 0.07782502 
0.0 0.0 0.0 0.0 0.0 0.07698792 
0.0 0.0 0.0 0.0 0.0 0.07698792 
0.0 0.0 0.0 0.0 0.0 0.07698792 
0.0 0.0 0.0 0.0 0.0 0.07698792 
0.0 0.0 0.0 0.0 0.0 0.07698792 
0.0 0.0 0.0 0.0 0.0 0.07698792 
0.0 0.0 0.0 0.0 0.0 0.07698792 
0.0 0.0 0.0 0.0 0.0 0.07698792 
0.0 0.0 0.0 0.0 0.0 0.07698792 
0.0 0.0 0.0 0.0 0.0 0.07698792 
0.0 0.0 0.0 0.0 0.0 0.07698792 
0.0 0.0 0.0 0.0 0.0 0.07698792 
0.0 0.0 0.0 0.0 0.0 0.07698792 
0.0 0.0 0.0 0.0 0.0 0.07698792 
0.0 0.0 0.0 0.0 0.0 0.07698792 
0.0 0.0 0.0 0.0 0.0 0.05964106 
0.16870314 0.0 0.11993054 0.0 0.0 0.0 
0.84710586 0.0 0.0 0.0 0.0 0.004579857 
1.5730929 0.0 0.0 0.0 0.0 0.06751042 
1.9309902 0.23878728 0.0 0.0 0.85110754 0.068096 
1.2616861 1.1778286 0.0 0.07598465 2.0891209 0.3200478 
0.0 1.7406349 0.0 0.08534441 2.711681 0.35966432 
0.0 1.5739937 0.44247064 0.107843846 2.2084823 0.42853403 
0.0 0.6974812 0.97504365 0.023484733 1.3631654 0.4881491 
0.0 0.19135036 0.8081238 0.10071847 0.4903849 0.34781742 
0.0 0.0 0.30366188 0.017729752 0.067000344 0.13048595 
0.0 0.0 0.0 0.0 0.0 0.07759672 
0.0 0.0 0.0 0.0 0.0 0.07698792 
0.0 0.0 0.0 0.0 0.0 0.07698792 
0.0 0.0 0.0 0.0 0.0 0.07698792 
0.0 0.0 0.0 0.0 0.0 0.07698792 
0.0 0.0 0.0 0.0 0.0 0.07698792 
0.0 0.0 0.0 0.0 0.0 0.07698792 
0.0 0.0 0.0 0.0 0.0 0.07698792 
0.0 0.0 0.0 0.0 0.0 0.07698792 
0.0 0.0 0.0 0.0 0.0 0.07698792 
0.0 0.0 0.0 0.0 0.0 0.07698792 
0.0 0.0 0.0 0.0 0.0 0.07698792 
0.0 0.0 0.0 0.0 0.0 0.07698792 
0.0 0.0 0.0 0.0 0.0 0.07698792 
0.0 0.0 0.0 0.0 0.0 0.07698792 
0.0 0.0 0.0 0.0 0.0 0.07698792 
0.0 0.0 0.0 0.0 0.0 0.07698792 
0.01661855 0.0 0.0 0.0 0.0 0.053462766 
0.46354294 0.0 0.051357485 0.0 0.0 0.009769186 
1.3903956 0.0 0.0 0.0 0.0 0.18540552 
1.9492393 0.010675839 0.0 0.0 0.4816883 0.2841368 
1.5061121 0.85325235 0.0 0.06740191 1.6431706 0.32091904 
0.42247418 1.4373604 0.0 0.08445381 2.684234 0.5096549 
0.0 1.6521487 0.19558978 0.20720245 2.6090777 0.5250659 
0.0 1.0130967 0.75003046 0.13907464 1.7583424 0.567094 
0.0 0.26325694 0.81607646 0.03827324 0.8626592 0.43980557 
0.0 0.0 0.44518745 0.0 0.23965706 0.22490506 
0.0 0.0 0.040397443 0.0 0.007033784 0.08982034 
0.0 0.0 0.0 0.0 0.0 0.07698792 
0.0 0.0 0.0 0.0 0.0 0.07698792 
0.0 0.0 0.0 0.0 0.0 0.07698792 
0.0 0.0 0.0 0.0 0.0 0.07698792 
0.0 0.0 0.0 0.0 0.0 0.07698792 
0.0 0.0 0.0 0.0 0.0 0.07698792 
0.0 0.0 0.0 0.0 0.0 0.07698792 
0.0 0.0 0.0 0.0 0.0 0.07698792 
0.0 0.0 0.0 0.0 0.0 0.07698792 
0.0 0.0 0.0 0.0 0.0 0.07698792 
0.0 0.0 0.0 0.0 0.0 0.07698792 
0.0 0.0 0.0 0.0 0.0 0.07698792 
0.0 0.0 0.0 0.0 0.0 0.07698792 
0.0 0.0 0.0 0.0 0.0 0.07698792 
0.0 0.0 0.0 0.0 0.0 0.07698792 
0.0 0.0 0.0 0.0 0.0 0.07698792 
0.0 0.0 0.0003492087 0.0 0.0 0.049836308 
0.26420468 0.0 0.085828714 0.0 0.0 0.0 
0.9614646 0.0 0.0 0.0 0.0 0.030072555 
1.7833588 0.0 0.0 0.0 0.13377851 0.1501993 
1.9365525 0.43458116 0.0 0.0 1.2255876 0.19304845 
0.9583487 1.3338662 0.0 0.04312231 2.3645916 0.36098403 
0.0 1.6892918 0.0 0.0 2.7916377 0.45975107 
0.0 1.2845225 0.5800948 0.072304055 2.1094072 0.48026973 
0.0 0.4839226 0.8580416 0.030664172 1.1657268 0.5149381 
0.0 0.14046146 0.69624335 0.10480469 0.37006125 0.32820636 
0.0 0.0 0.19720721 0.0 0.057583455 0.11610228 
0.0 0.0 0.0 0.0 0.0 0.07774892 
0.0 0.0 0.0 0.0 0.0 0.07698792 
0.0 0.0 0.0 0.0 0.0 0.07698792 
0.0 0.0 0.0 0.0 0.0 0.07698792 
0.0 0.0 0.0 0.0 0.0 0.07698792 
0.0 0.0 0.0 0.0 0.0 0.07698792 
0.0 0.0 0.0 0.0 0.0 0.07698792 
0.0 0.0 0.0 0.0 0.0 0.07698792 
0.0 0.0 0.0 0.0 0.0 0.07698792 
0.0 0.0 0.0 0.0 0.0 0.07698792 
0.0 0.0 0.0 0.0 0.0 0.07698792 
0.0 0.0 0.0 0.0 0.0 0.07698792 
0.0 0.0 0.0 0.0 0.0 0.07698792 
0.0 0.0 0.0 0.0 0.0 0.07698792 
0.0 0.0 0.0 0.0 0.0 0.07698792 
0.0 0.0 0.0 0.0 0.0 0.07698792 
0.0 0.0 0.0 0.0 0.0 0.07698792 
0.09283464 0.0 0.060051166 0.0 0.0 0.024917752 
0.66754985 0.0 0.047936067 0.0 0.0 0.0 
1.5137992 0.0 0.0 0.0 0.0 0.18449146 
1.9751849 0.17529054 0.0 0.0 0.6943093 0.25334382 
1.337915 1.0583296 0.0 0.016280297 1.8849846 0.32100767 
0.18021357 1.5869261 0.0 0.04163244 2.720641 0.48330474 
0.0 1.6440192 0.30248854 0.11580284 2.4256327 0.552068 
0.0 0.80804396 0.7670516 0.0 1.5247669 0.54921794 
0.0 0.15840082 0.6859236 0.0 0.67123026 0.40246812 
0.0 0.0 0.3520021 0.0 0.14685383 0.1920275 
0.0 0.0 0.0064398125 0.0 0.0 0.08551026 
0.0 0.0 0.0 0.0 0.0 0.07698792 
0.0 0.0 0.0 0.0 0.0 0.07698792 
0.0 0.0 0.0 0.0 0.0 0.07698792 
0.0 0.0 0.0 0.0 0.0 0.07698792 
0.0 0.0 0.0 0.0 0.0 0.07698792 
0.0 0.0 0.0 0.0 0.0 0.07698792 
0.0 0.0 0.0 0.0 0.0 0.07698792 
0.0 0.0 0.0 0.0 0.0 0.07698792 
0.0 0.0 0.0 0.0 0.0 0.07698792 
0.0 0.0 0.0 0.0 0.0 0.07698792 
0.0 0.0 0.0 0.0 0.0 0.07698792 
0.0 0.0 0.0 0.0 0.0 0.07698792 
0.0 0.0 0.0 0.0 0.0 0.07698792 
0.0 0.0 0.0 0.0 0.0 0.07698792 
0.0 0.0 0.0 0.0 0.0 0.07698792 
0.0 0.0 0.0 0.0 0.0 0.07698792 
0.0 0.0 0.0043645278 0.0 0.0 0.047950782 
0.35700798 0.0 0.028749362 0.0 0.0 0.022352885 
1.1626406 0.0 0.0 0.0 0.0 0.10326148 
1.9285772 0.0 0.0 0.0 0.34846595 0.20337442 
1.7477274 0.66113603 0.0 0.026278395 1.5037162 0.28648984 
0.5684017 1.3153794 0.0 0.0016590795 2.606855 0.42786282 
0.0 1.5661267 0.0 0.050845977 2.6982765 0.4830312 
0.0 1.0176096 0.715784 0.12149474 1.9329249 0.5220282 
0.0 0.31579426 0.8286399 0.0658949 0.96814686 0.47449413 
0.0 0.034182034 0.5009089 0.007786465 0.3051323 0.24484296 
0.0 0.0 0.055140063 0.0 0.030939553 0.09944381 
0.0 0.0 0.0 0.0 0.0 0.07782502 
0.0 0.0 0.0 0.0 0.0 0.07698792 
0.0 0.0 0.0 0.0 0.0 0.07698792 
0.0 0.0 0.0 0.0 0.0 0.07698792 
0.0 0.0 0.0 0.0 0.0 0.07698792 
0.0 0.0 0.0 0.0 0.0 0.07698792 
0.0 0.0 0.0 0.0 0.0 0.07698792 
0.0 0.0 0.0 0.0 0.0 0.07698792 
0.0 0.0 0.0 0.0 0.0 0.07698792 
0.0 0.0 0.0 0.0 0.0 0.07698792 
0.0 0.0 0.0 0.0 0.0 0.07698792 
0.0 0.0 0.0 0.0 0.0 0.07698792 
0.0 0.0 0.0 0.0 0.0 0.07698792 
0.0 0.0 0.0 0.0 0.0 0.07698792 
0.0 0.0 0.0 0.0 0.0 0.07698792 
0.0 0.0 0.0 0.0 0.0 0.07698792 
0.0 0.0 0.0 0.0 0.0 0.061903693 
0.17061228 0.0 0.11433955 0.0 0.0 0.0 
0.85409606 0.0 0.0027883276 0.0 0.0 0.005975157 
1.618926 0.0 0.0 0.0 0.0 0.15067425 
1.8659589 0.3235828 0.0 0.0 0.9850909 0.21701281 
1.0399661 1.2078725 0.0 0.15324926 2.205118 0.45642537 
0.0 1.6533965 0.0 0.22235148 2.7116604 0.5906346 
0.0 1.4136391 0.41958475 0.23757279 2.146879 0.66806316 
0.0 0.5428506 0.8286679 0.09946692 1.2252989 0.57018065 
0.0 0.15925235 0.7366833 0.10973765 0.41588482 0.3731259 
0.0 0.0 0.30980805 0.019767314 0.07087694 0.13367805 
0.0 0.0 0.0 0.0 0.0 0.07790112 
0.0 0.0 0.0 0.0 0.0 0.07698792 
0.0 0.0 0.0 0.0 0.0 0.07698792 
0.0 0.0 0.0 0.0 0.0 0.07698792 
0.0 0.0 0.0 0.0 0.0 0.07698792 
0.0 0.0 0.0 0.0 0.0 0.07698792 
0.0 0.0 0.0 0.0 0.0 0.07698792 
0.0 0.0 0.0 0.0 0.0 0.07698792 
0.0 0.0 0.0 0.0 0.0 0.07698792 
0.0 0.0 0.0 0.0 0.0 0.07698792 
0.0 0.0 0.0 0.0 0.0 0.07698792 
0.0 0.0 0.0 0.0 0.0 0.07698792 
0.0 0.0 0.0 0.0 0.0 0.07698792 
0.0 0.0 0.0 0.0 0.0 0.07698792 
0.0 0.0 0.0 0.0 0.0 0.07698792 
0.0 0.0 0.0 0.0 0.0 0.07698792 
0.0 0.0 0.0 0.0 0.0 0.07170844 
0.080333054 0.0 0.07081213 0.0 0.0 0.005127713 
0.55480844 0.0 0.077959515 0.0 0.0 0.0 
1.3881764 0.0 0.0 0.0 0.0 0.04708258 
1.958884 0.060119316 0.0 0.0 0.6124971 0.17406675 
1.3658292 0.9521035 0.0 0.0 1.8629189 0.31196767 
0.16279608 1.4368206 0.0 0.00051876623 2.718526 0.49611783 
0.0 1.4073167 0.09619326 0.1144765 2.507943 0.6469489 
0.0 0.6911439 0.5835728 0.050943088 1.5715247 0.6566559 
0.0 0.17335312 0.6199709 0.018893301 0.6396608 0.4468261 
0.0 0.0 0.3232216 0.0 0.20001058 0.22736163 
0.0 0.0 0.046282448 0.0 0.009266291 0.09063654 
0.0 0.0 0.0 0.0 0.0 0.07698792 
0.0 0.0 0.0 0.0 0.0 0.07698792 
0.0 0.0 0.0 0.0 0.0 0.07698792 
0.0 0.0 0.0 0.0 0.0 0.07698792 
0.0 0.0 0.0 0.0 0.0 0.07698792 
0.0 0.0 0.0 0.0 0.0 0.07698792 
0.0 0.0 0.0 0.0 0.0 0.07698792 
0.0 0.0 0.0 0.0 0.0 0.07698792 
0.0 0.0 0.0 0.0 0.0 0.07698792 
0.0 0.0 0.0 0.0 0.0 0.07698792 
0.0 0.0 0.0 0.0 0.0 0.07698792 
0.0 0.0 0.0 0.0 0.0 0.07698792 
0.0 0.0 0.0 0.0 0.0 0.07698792 
0.0 0.0 0.0 0.0 0.0 0.07698792 
0.0 0.0 0.0 0.0 0.0 0.07698792 
0.0 0.0 0.0 0.0 0.0 0.072085544 
0.06365512 0.0 0.08272702 0.0 0.0 0.0 
0.44486952 0.0 0.12010711 0.0 0.0 0.0 
1.0948436 0.0 0.06535909 0.0 0.0 0.0 
1.776768 0.0 0.0 0.0 0.22693 0.0 
1.5837262 0.6905401 0.0 0.0 1.5027527 0.19307482 
0.5034534 1.3707331 0.0 0.13050906 2.5308547 0.4557364 
0.0 1.535403 0.0 0.12518126 2.6067317 0.6524099 
0.0 0.94842255 0.50484544 0.10114923 1.7719802 0.6812883 
0.0 0.24208891 0.6683217 0.009289019 0.8426759 0.51058555 
0.0 0.0041957116 0.4664771 0.0 0.25466308 0.27851224 
0.0 0.0 0.09215415 0.0 0.032394398 0.105638824 
0.0 0.0 0.0 0.0 0.0 0.07790112 
0.0 0.0 0.0 0.0 0.0 0.07698792 
0.0 0.0 0.0 0.0 0.0 0.07698792 
0.0 0.0 0.0 0.0 0.0 0.07698792 
0.0 0.0 0.0 0.0 0.0 0.07698792 
0.0 0.0 0.0 0.0 0.0 0.07698792 
0.0 0.0 0.0 0.0 0.0 0.07698792 
0.0 0.0 0.0 0.0 0.0 0.07698792 
0.0 0.0 0.0 0.0 0.0 0.07698792 
0.0 0.0 0.0 0.0 0.0 0.07698792 
0.0 0.0 0.0 0.0 0.0 0.07698792 
0.0 0.0 0.0 0.0 0.0 0.07698792 
0.0 0.0 0.0 0.0 0.0 0.07698792 
0.0 0.0 0.0 0.0 0.0 0.07698792 
0.0 0.0 0.0 0.0 0.0 0.07698792 
0.0 0.0 0.0 0.0 0.0 0.072462656 
0.0626291 0.0 0.083583824 0.0 0.0 0.0 
0.41666174 0.0 0.1378414 0.0 0.0 0.0 
0.972259 0.0 0.14286628 0.0 0.0 0.0 
1.6465707 0.0 0.0 0.0 0.0 0.0 
1.624907 0.63954103 0.0 0.0 1.2175636 0.07823057 
0.6771917 1.2475836 0.0 0.13188392 2.3883393 0.40780258 
0.0 1.4770252 0.0 0.17895317 2.6737916 0.6053211 
0.0 1.1207532 0.31615636 0.22052406 2.0072768 0.7112376 
0.0 0.34642628 0.63222975 0.062887564 1.0359739 0.5816773 
0.0 0.05776102 0.51361984 0.0 0.3772079 0.33837855 
0.0 0.0 0.16545191 0.0 0.085949466 0.13271147 
0.0 0.0 0.0 0.0 0.0 0.07972751 
0.0 0.0 0.0 0.0 0.0 0.07698792 
0.0 0.0 0.0 0.0 0.0 0.07698792 
0.0 0.0 0.0 0.0 0.0 0.07698792 
0.0 0.0 0.0 0.0 0.0 0.07698792 
0.0 0.0 0.0 0.0 0.0 0.07698792 
0.0 0.0 0.0 0.0 0.0 0.07698792 
0.0 0.0 0.0 0.0 0.0 0.07698792 
0.0 0.0 0.0 0.0 0.0 0.07698792 
0.0 0.0 0.0 0.0 0.0 0.07698792 
0.0 0.0 0.0 0.0 0.0 0.07698792 
0.0 0.0 0.0 0.0 0.0 0.07698792 
0.0 0.0 0.0 0.0 0.0 0.07698792 
0.0 0.0 0.0 0.0 0.0 0.07698792 
0.0 0.0 0.0 0.0 0.0 0.07698792 
0.0 0.0 0.0 0.0 0.0 0.050213415 
0.1558503 0.0 0.14710635 0.0 0.0 0.0 
0.46490455 0.0 0.18345526 0.0 0.0 0.0 
0.95312065 0.0 0.21808234 0.0 0.0 0.0 
1.5343153 0.06402505 0.108758636 0.0 0.0 0.0 
1.5983646 0.578399 0.0 0.0 1.0796256 0.0 
0.8109694 1.1767874 0.0 0.15818065 2.3355572 0.36293465 
0.0 1.4991323 0.0 0.23183134 2.7149408 0.61958945 
0.0 1.2357516 0.09034916 0.2119971 2.1720219 0.8036507 
0.0 0.45440522 0.56641036 0.07764499 1.2081299 0.64840573 
0.0 0.11126734 0.5828884 0.033672877 0.42952463 0.4159208 
0.0 0.0 0.29542702 0.0 0.12477134 0.16996223 
0.0 0.0 0.0 0.0 0.0 0.0820105 
0.0 0.0 0.0 0.0 0.0 0.07698792 
0.0 0.0 0.0 0.0 0.0 0.07698792 
0.0 0.0 0.0 0.0 0.0 0.07698792 
0.0 0.0 0.0 0.0 0.0 0.07698792 
0.0 0.0 0.0 0.0 0.0 0.07698792 
0.0 0.0 0.0 0.0 0.0 0.07698792 
0.0 0.0 0.0 0.0 0.0 0.07698792 
0.0 0.0 0.0 0.0 0.0 0.07698792 
0.0 0.0 0.0 0.0 0.0 0.07698792 
0.0 0.0 0.0 0.0 0.0 0.07698792 
0.0 0.0 0.0 0.0 0.0 0.07698792 
0.0 0.0 0.0 0.0 0.0 0.07698792 
0.0 0.0 0.0 0.0 0.0 0.07698792 
0.0 0.0 0.0 0.0 0.0 0.07698792 
0.0 0.0 0.0 0.0 0.0 0.07397108 
0.10443114 0.0 0.068420626 0.0 0.0 0.013314739 
0.5321331 0.0 0.14711758 0.0 0.0 0.0 
1.0499811 0.0 0.19575262 0.0 0.0 0.0 
1.4728315 0.18336879 0.15050268 0.0 0.0 0.0 
1.3563485 0.661105 0.0 0.0 1.0918485 0.0 
0.7628182 1.0976982 0.0 0.27855942 2.3407087 0.42728066 
0.0 1.4806488 0.0 0.42338684 2.7239926 0.7174554 
0.0 1.2190756 0.0 0.33336356 2.311835 0.86447746 
0.0 0.55514604 0.3987157 0.11484889 1.3501593 0.73686177 
0.0 0.11664197 0.49856055 0.0 0.53579056 0.4465962 
0.0 0.0 0.2684645 0.0 0.18861584 0.23034671 
0.0 0.0 0.048101246 0.0 0.011928167 0.09083723 
0.0 0.0 0.0 0.0 0.0 0.07698792 
0.0 0.0 0.0 0.0 0.0 0.07698792 
0.0 0.0 0.0 0.0 0.0 0.07698792 
0.0 0.0 0.0 0.0 0.0 0.07698792 
0.0 0.0 0.0 0.0 0.0 0.07698792 
0.0 0.0 0.0 0.0 0.0 0.07698792 
0.0 0.0 0.0 0.0 0.0 0.07698792 
0.0 0.0 0.0 0.0 0.0 0.07698792 
0.0 0.0 0.0 0.0 0.0 0.07698792 
0.0 0.0 0.0 0.0 0.0 0.07698792 
0.0 0.0 0.0 0.0 0.0 0.07698792 
0.0 0.0 0.0 0.0 0.0 0.07698792 
0.0 0.0 0.0 0.0 0.0 0.07698792 
0.0 0.0 0.0 0.0 0.0 0.07698792 
0.0 0.0 0.0 0.0 0.0 0.07698792 
0.0 0.0 0.0 0.0 0.0 0.051090043 
0.37648398 0.0 0.042132705 0.0 0.0 0.021162786 
1.0601263 0.0 0.061853267 0.0 0.0 0.0 
1.5137832 0.0 0.0 0.005820957 0.0 0.0 
1.445936 0.64908564 0.0 0.22424482 1.0541723 0.0 
0.72739315 1.2463053 0.0 0.35901922 2.3736959 0.40175533 
0.0 1.4985175 0.0 0.44384935 2.7476127 0.73739547 
0.0 1.1867774 0.0 0.2796497 2.3704686 0.91394573 
0.0 0.61000764 0.30495992 0.13876721 1.3653245 0.7820375 
0.0 0.1410085 0.5071752 0.0 0.5742682 0.49941537 
0.0 0.0 0.3383302 0.0 0.21876352 0.2499214 
0.0 0.0 0.04508891 0.0 0.025401186 0.09809492 
0.0 0.0 0.0 0.0 0.0 0.07782502 
0.0 0.0 0.0 0.0 0.0 0.07698792 
0.0 0.0 0.0 0.0 0.0 0.07698792 
0.0 0.0 0.0 0.0 0.0 0.07698792 
0.0 0.0 0.0 0.0 0.0 0.07698792 
0.0 0.0 0.0 0.0 0.0 0.07698792 
0.0 0.0 0.0 0.0 0.0 0.07698792 
0.0 0.0 0.0 0.0 0.0 0.07698792 
0.0 0.0 0.0 0.0 0.0 0.07698792 
0.0 0.0 0.0 0.0 0.0 0.07698792 
0.0 0.0 0.0 0.0 0.0 0.07698792 
0.0 0.0 0.0 0.0 0.0 0.07698792 
0.0 0.0 0.0 0.0 0.0 0.07698792 
0.0 0.0 0.0 0.0 0.0 0.07698792 
0.0 0.0 0.0 0.0 0.0 0.07698792 
0.0 0.0 0.0 0.0 0.0 0.072462656 
0.15541326 0.0 0.10786907 0.0 0.0 0.0 
0.88430667 0.0 0.0 0.0 0.0 0.042715132 
1.50576 0.0 0.0 0.0 0.0 0.14312637 
1.6029654 0.42052445 0.0 0.16945258 0.90843666 0.1891936 
0.86453074 1.230759 0.0 0.41086337 2.141591 0.54485065 
0.0 1.5154277 0.0 0.5172301 2.730404 0.8550739 
0.0 1.1877491 0.0 0.28971106 2.4108934 1.0474963 
0.0 0.59023446 0.16011724 0.08638004 1.3950016 0.8138109 
0.0 0.07757551 0.34790748 0.0 0.61468446 0.5064729 
0.0 0.0 0.30968344 0.0 0.24872257 0.2893626 
0.0 0.0 0.09786896 0.0 0.0488902 0.10459186 
0.0 0.0 0.0 0.0 0.0 0.07774892 
0.0 0.0 0.0 0.0 0.0 0.07698792 
0.0 0.0 0.0 0.0 0.0 0.07698792 
0.0 0.0 0.0 0.0 0.0 0.07698792 
0.0 0.0 0.0 0.0 0.0 0.07698792 
0.0 0.0 0.0 0.0 0.0 0.07698792 
0.0 0.0 0.0 0.0 0.0 0.07698792 
0.0 0.0 0.0 0.0 0.0 0.07698792 
0.0 0.0 0.0 0.0 0.0 0.07698792 
0.0 0.0 0.0 0.0 0.0 0.07698792 
0.0 0.0 0.0 0.0 0.0 0.07698792 
0.0 0.0 0.0 0.0 0.0 0.07698792 
0.0 0.0 0.0 0.0 0.0 0.07698792 
0.0 0.0 0.0 0.0 0.0 0.07698792 
0.0 0.0 0.0 0.0 0.0 0.07698792 
0.0 0.0 0.0 0.0 0.0 0.07698792 
0.021756314 0.0 0.044831283 0.0 0.0 0.029467672 
0.49018735 0.0 0.03485679 0.0 0.0 0.0 
1.3521879 0.0 0.0 0.0 0.0 0.20360069 
1.7698853 0.02813705 0.0 0.0 0.77750516 0.39733794 
1.067172 0.93857694 0.0 0.26162767 1.9503168 0.53666663 
0.0 1.2378434 0.0 0.23981386 2.7076151 0.8425458 
0.0 1.0028102 0.0 0.23504855 2.428025 1.0288563 
0.0 0.4437623 0.18093926 0.1038058 1.4197798 0.8136966 
0.0 0.09503609 0.3372043 0.0 0.5999531 0.50300515 
0.0 0.0 0.24035406 0.0 0.26525074 0.27644527 
0.0 0.0 0.08103231 0.0 0.05904347 0.11207946 
0.0 0.0 0.0 0.0 0.0 0.07881431 
0.0 0.0 0.0 0.0 0.0 0.07698792 
0.0 0.0 0.0 0.0 0.0 0.07698792 
0.0 0.0 0.0 0.0 0.0 0.07698792 
0.0 0.0 0.0 0.0 0.0 0.07698792 
0.0 0.0 0.0 0.0 0.0 0.07698792 
0.0 0.0 0.0 0.0 0.0 0.07698792 
0.0 0.0 0.0 0.0 0.0 0.07698792 
0.0 0.0 0.0 0.0 0.0 0.07698792 
0.0 0.0 0.0 0.0 0.0 0.07698792 
0.0 0.0 0.0 0.0 0.0 0.07698792 
0.0 0.0 0.0 0.0 0.0 0.07698792 
0.0 0.0 0.0 0.0 0.0 0.07698792 
0.0 0.0 0.0 0.0 0.0 0.07698792 
0.0 0.0 0.0 0.0 0.0 0.07698792 
0.0 0.0 0.0 0.0 0.0 0.07698792 
0.0 0.0 0.0 0.0 0.0 0.07698792 
0.025026567 0.0 0.0 0.005353773 0.0 0.12321092 
0.60999304 0.0 0.0 0.21837404 0.0 0.51194704 
1.3712256 0.0 0.0 0.5318186 0.4977549 0.96528614 
1.2369967 0.2263669 0.0 0.81242126 1.5892681 1.1012111 
0.15982138 0.9353277 0.0 0.69907826 2.2629642 1.1031387 
0.0 0.9243234 0.0 0.35795698 2.1804516 1.090339 
0.0 0.48360905 0.16168699 0.06836939 1.3173152 0.8480687 
0.0 0.108710974 0.32726806 0.0 0.5261701 0.51094 
0.0 0.0 0.27265045 0.0 0.2179832 0.27846846 
0.0 0.0 0.10560878 0.0 0.039097715 0.11332308 
0.0 0.0 0.0 0.0 0.0 0.07850991 
0.0 0.0 0.0 0.0 0.0 0.07698792 
0.0 0.0 0.0 0.0 0.0 0.07698792 
0.0 0.0 0.0 0.0 0.0 0.07698792 
0.0 0.0 0.0 0.0 0.0 0.07698792 
0.0 0.0 0.0 0.0 0.0 0.07698792 
0.0 0.0 0.0 0.0 0.0 0.07698792 
0.0 0.0 0.0 0.0 0.0 0.07698792 
0.0 0.0 0.0 0.0 0.0 0.07698792 
0.0 0.0 0.0 0.0 0.0 0.07698792 
0.0 0.0 0.0 0.0 0.0 0.07698792 
0.0 0.0 0.0 0.0 0.0 0.07698792 
0.0 0.0 0.0 0.0 0.0 0.07698792 
0.0 0.0 0.0 0.0 0.0 0.07698792 
0.0 0.0 0.0 0.0 0.0 0.07698792 
0.0 0.0 0.0 0.0 0.0 0.07698792 
0.0 0.0 0.0 0.0 0.0 0.07698792 
0.0 0.0 0.0 0.0 0.0 0.07698792 
0.08761695 0.0 0.0 0.0669614 0.0 0.23149616 
0.6210999 0.0 0.0 0.38335034 0.290471 0.7399024 
0.95381683 0.0 0.0 0.5303661 1.0847938 1.1673644 
0.51495343 0.27732128 0.0 0.58207554 1.5872711 1.1744137 
0.0 0.5051548 0.0 0.34044755 1.5381349 1.0991564 
0.0 0.500067 0.009379029 0.16380703 1.0199388 0.853325 
0.0 0.036892418 0.25957948 0.0 0.5376534 0.48585337 
0.0 0.0 0.14257604 0.0 0.23303966 0.25420123 
0.0 0.0 0.017751254 0.0 0.059061173 0.12025508 
0.0 0.0 0.0 0.0 0.0 0.0806407 
0.0 0.0 0.0 0.0 0.0 0.07698792 
0.0 0.0 0.0 0.0 0.0 0.07698792 
0.0 0.0 0.0 0.0 0.0 0.07698792 
0.0 0.0 0.0 0.0 0.0 0.07698792 
0.0 0.0 0.0 0.0 0.0 0.07698792 
0.0 0.0 0.0 0.0 0.0 0.07698792 
0.0 0.0 0.0 0.0 0.0 0.07698792 
0.0 0.0 0.0 0.0 0.0 0.07698792 
0.0 0.0 0.0 0.0 0.0 0.07698792 
0.0 0.0 0.0 0.0 0.0 0.07698792 
0.0 0.0 0.0 0.0 0.0 0.07698792 
0.0 0.0 0.0 0.0 0.0 0.07698792 
0.0 0.0 0.0 0.0 0.0 0.07698792 
0.0 0.0 0.0 0.0 0.0 0.07698792 
0.0 0.0 0.0 0.0 0.0 0.07698792 
0.0 0.0 0.0 0.0 0.0 0.07698792 
0.0 0.0 0.0 0.0 0.0 0.07698792 
0.0 0.0 0.0 0.0 0.0 0.07698792 
0.07029499 0.0 0.0 0.090919465 0.0018141903 0.23986033 
0.5125016 0.0 0.0 0.003120673 0.52993 0.7359765 
0.6318492 0.011002923 0.0 0.0 0.93862194 1.0507028 
0.24987927 0.06092766 0.0 0.0 0.8848012 0.89758974 
0.0 0.09621675 0.0 0.0 0.55838686 0.70419455 
0.0 0.0 0.10146781 0.0 0.38770622 0.4661147 
0.0 0.0 0.23471951 0.0 0.19901232 0.2386666 
0.0 0.0 0.040469877 0.0 0.023497079 0.09306325 
0.0 0.0 0.0 0.0 0.0 0.07736842 
0.0 0.0 0.0 0.0 0.0 0.07698792 
0.0 0.0 0.0 0.0 0.0 0.07698792 
0.0 0.0 0.0 0.0 0.0 0.07698792 
0.0 0.0 0.0 0.0 0.0 0.07698792 
0.0 0.0 0.0 0.0 0.0 0.07698792 
0.0 0.0 0.0 0.0 0.0 0.07698792 
0.0 0.0 0.0 0.0 0.0 0.07698792 
0.0 0.0 0.0 0.0 0.0 0.07698792 
0.0 0.0 0.0 0.0 0.0 0.07698792 
0.0 0.0 0.0 0.0 0.0 0.07698792 
0.0 0.0 0.0 0.0 0.0 0.07698792 
0.0 0.0 0.0 0.0 0.0 0.07698792 
0.0 0.0 0.0 0.0 0.0 0.07698792 
0.0 0.0 0.0 0.0 0.0 0.07698792 
0.0 0.0 0.0 0.0 0.0 0.07698792 
0.0 0.0 0.0 0.0 0.0 0.07698792 
0.0 0.0 0.0 0.0 0.0 0.07698792 
0.0 0.0 0.0 0.0 0.0 0.07698792 
0.0 0.0 0.0 0.0 0.0 0.07698792 
0.051622845 0.0 0.0 0.0 0.13217147 0.15991732 
0.25806317 0.0 0.0 0.0 0.43622628 0.310557 
0.24789062 0.0 0.0 0.0 0.50506616 0.33983535 
0.0032226592 0.0 0.0 0.0 0.33132985 0.27880934 
0.0 0.0 0.0 0.0 0.2564468 0.25357813 
0.0 0.0 0.0 0.0 0.16950278 0.19492413 
0.0 0.0 0.04077197 0.0 0.022180077 0.090945065 
0.0 0.0 0.0 0.0 0.0 0.07714012 
0.0 0.0 0.0 0.0 0.0 0.07698792 
0.0 0.0 0.0 0.0 0.0 0.07698792 
0.0 0.0 0.0 0.0 0.0 0.07698792 
0.0 0.0 0.0 0.0 0.0 0.07698792 
0.0 0.0 0.0 0.0 0.0 0.07698792 
0.0 0.0 0.0 0.0 0.0 0.07698792 
0.0 0.0 0.0 0.0 0.0 0.07698792 
0.0 0.0 0.0 0.0 0.0 0.07698792 
0.0 0.0 0.0 0.0 0.0 0.07698792 
0.0 0.0 0.0 0.0 0.0 0.07698792 
0.0 0.0 0.0 0.0 0.0 0.07698792 
0.0 0.0 0.0 0.0 0.0 0.07698792 
0.0 0.0 0.0 0.0 0.0 0.07698792 
0.0 0.0 0.0 0.0 0.0 0.07698792 
0.0 0.0 0.0 0.0 0.0 0.07698792 
0.0 0.0 0.0 0.0 0.0 0.07698792 
0.0 0.0 0.0 0.0 0.0 0.07698792 
0.0 0.0 0.0 0.0 0.0 0.07698792 
0.0 0.0 0.0 0.0 0.0 0.07698792 
0.0 0.0 0.0 0.0 0.0 0.07698792 
0.0 0.0 0.0 0.0 0.0 0.07698792 
0.0 0.0 0.0 0.0 0.0 0.07698792 
0.0 0.0 0.0 0.0 0.0 0.07698792 
0.0 0.0 0.0 0.0 0.0 0.07698792 
0.0 0.0 0.0 0.0 0.0 0.07698792 
0.0 0.0 0.0 0.0 0.0 0.07698792 
0.0 0.0 0.0 0.0 0.0 0.07698792 
0.0 0.0 0.0 0.0 0.0 0.07698792 
0.0 0.0 0.0 0.0 0.0 0.07698792 
0.0 0.0 0.0 0.0 0.0 0.07698792 
0.0 0.0 0.0 0.0 0.0 0.07698792 
0.0 0.0 0.0 0.0 0.0 0.07698792 
0.0 0.0 0.0 0.0 0.0 0.07698792 
0.0 0.0 0.0 0.0 0.0 0.07698792 
0.0 0.0 0.0 0.0 0.0 0.07698792 
0.0 0.0 0.0 0.0 0.0 0.07698792 
0.0 0.0 0.0 0.0 0.0 0.07698792 
0.0 0.0 0.0 0.0 0.0 0.07698792 
0.0 0.0 0.0 0.0 0.0 0.07698792 
0.0 0.0 0.0 0.0 0.0 0.07698792 
0.0 0.0 0.0 0.0 0.0 0.07698792 
0.0 0.0 0.0 0.0 0.0 0.07698792 
0.0 0.0 0.0 0.0 0.0 0.07698792 
0.0 0.0 0.0 0.0 0.0 0.07698792 
0.0 0.0 0.0 0.0 0.0 0.07698792 

