0.0 0.0 0.0 0.0 0.0 0.032598227 0.0 0.0 0.067068785 0.0 0.34035137 0.0 0.0 0.0 0.0 0.0 
0.07999866 0.0 2.4803162 0.0 0.10134616 1.6737404 0.0 0.0 0.0 0.0 0.2754604 0.0 0.0 1.29299 1.8260633 0.0 
0.70101213 0.0 1.7764009 0.0 0.0 0.0 2.060209 0.10599603 0.07783811 0.0 0.0 1.7155802 0.47384226 0.0 0.7529012 0.0 
0.4661573 0.0 0.73946005 0.0 0.0 0.29884672 0.0 0.0 0.89909697 0.0 0.0 2.800002 0.88556266 0.44429842 0.0 0.0 
0.0 0.0 0.34551033 0.0 0.0 0.20877218 0.0 0.0 0.0 0.0 0.0 0.0 0.0 0.11953505 0.0 0.0 
0.0 0.0 0.0 0.0 0.05187776 0.0 0.010032464 0.0 0.0 0.0 0.39341593 0.1738781 0.0 0.0 0.0 0.0 
0.0 0.26070204 2.7654998 0.0 0.5670272 2.438013 0.0 0.0 0.0 0.0 0.6036502 0.32319397 0.0 0.0 1.1988477 0.0 
0.0 0.0 3.812608 0.23587146 0.0 0.0 2.530322 0.24266176 0.27187636 0.0 0.0 0.0 0.0 0.0 1.2449491 0.0 
0.0 0.0 0.03681982 0.07359463 0.0 0.3419387 0.0 0.0 1.3874785 0.0 0.0 1.9847194 0.26648164 0.018737838 0.0 0.0 
0.0 0.0 0.42050365 0.0 0.0 0.21450341 0.0 0.0 0.0 0.0 0.0 0.0 0.0 0.043986306 0.0 0.0 
0.0 0.0 0.0 0.0 0.022646412 0.0 0.0 0.0 0.0 0.0 0.2745214 0.067011476 0.0 0.0 0.0 0.0 
0.0 0.02633367 1.9539295 0.0 0.47917253 2.7438266 0.0 0.0 0.0 0.0 0.8768181 0.25242484 0.0 0.0 0.0 0.0 
0.0 0.0 4.356692 0.0 0.0 0.0 3.1290674 0.30002654 0.0 0.0 0.0 0.0 0.0 0.09987695 0.92450076 0.0 
0.0 0.0 0.0 0.0 0.0 0.25075752 0.0 0.0 1.7339786 0.0 0.0 1.5606238 0.5643749 0.0 0.0 0.0 
0.0 0.0 0.4307122 0.08095694 0.0 0.13050532 0.0 0.0 0.0 0.0 0.0 0.027903289 0.0 0.0 0.0 0.0 
0.0 0.015665103 0.0 0.0 0.0 0.0 0.0 0.0 0.0 0.0 0.16069481 0.0 0.0 0.0 0.0 0.0 
0.021736931 0.3335558 0.8222765 0.0 0.33489266 2.8788188 0.0 0.0 0.0 0.0 0.71832365 0.2917171 0.0 0.0 0.0 0.0 
0.0 0.17434931 4.1863217 0.20686722 0.0 0.0 3.0639434 0.04547564 0.0 0.0 0.0 0.0 0.0 0.0 1.1537029 0.0 
0.0 0.0 0.0 0.0607716 0.0 0.21151194 0.0 0.0 1.4013915 0.0 0.0 1.9492573 0.32755733 0.0 0.0 0.0 
0.0 0.0 0.34397745 0.27531365 0.0 0.3707676 0.0 0.0 0.0 0.0 0.059599183 0.05932197 0.0 0.16537324 0.0 0.0 
0.0 0.0 0.0 0.013229061 0.0 0.0 0.011858989 0.0 0.0 0.0 0.013555029 0.0 0.0 0.0 0.0 0.0 
0.0 0.0 0.0 0.0 0.2942919 2.6898131 0.0 0.0 0.2040939 0.0766509 1.2403584 0.12498872 0.0 0.0 0.0 0.0 
0.0 0.0 2.7574346 0.0 0.0 2.3116837 3.2144294 0.2508415 0.0 0.0 1.714214 0.0 0.4048956 2.1707494 1.1853577 0.0 
0.0 0.0 0.0 0.0 0.0 0.0 0.0 0.0 1.103123 0.0 2.1900077 1.7870932 0.95761603 1.3828573 0.0 0.0 
0.22914277 0.0 0.70593154 0.0 0.0 0.0 0.0 0.0 0.0 0.0 0.13991803 1.0831734 0.94792277 0.0 0.0 0.0 

