3.6609356 3.1521835 0.0 0.0 0.4014163 0.0 0.0 0.0 0.0 1.0427736 0.0 0.7195046 0.0 0.7002941 0.0 0.70150787 
3.9842448 1.8521684 0.0 0.0 0.40482312 0.0 0.0 0.0 0.0 0.30188453 0.0 0.57028246 0.0 1.5691689 0.0 0.0 
3.9643502 1.805212 0.0 0.0 0.0 0.0 0.0 0.0 0.0 0.32711264 0.0 0.5381298 0.0 1.3344365 0.0 0.0 
3.5269291 1.4577615 0.48840576 0.7174781 1.0229813 0.15597594 0.0 0.0 0.0 0.36167043 0.0 1.3831954 0.56626123 0.0 0.0 0.0 
1.7522318 0.17011236 0.0 1.3315483 1.4997655 1.2912183 0.0 0.0 0.0 0.35415307 0.5260797 1.8359416 0.7200937 0.56700975 0.0 0.0 
0.0 2.1141984 0.0 1.0210283 0.0 0.0 0.0 0.0 0.0 0.0 1.8114232 0.0 2.552754 3.2001672 1.1982511 0.0 
0.0 5.4319334 0.0 1.0552639 0.0 0.0 0.0 0.0 0.0 0.0 2.0269942 0.0 3.1245365 3.8281515 0.785225 0.0 
0.44447276 4.80425 0.0 0.920757 0.0 0.0 0.0 0.0 0.0 0.0 2.145436 0.0 2.3361754 5.1982126 2.6948297 0.0 
2.1919491 0.0 0.7842698 0.0 0.0 0.0 0.0 0.0 0.0 0.0 0.0 0.0 0.94928604 3.6757474 3.0695417 0.0 
2.0233877 0.0 0.0 0.0 0.0 0.0 0.0 0.0 0.0 0.0 0.0 3.2584972 1.6475146 0.0 0.0 0.0 
0.0 2.015377 0.0 3.5203087 0.0 1.2652247 0.21188055 0.0 0.472802 2.8237853 0.6814623 0.0 0.0 0.64483327 0.0 0.4029721 
0.0 0.84597194 0.0 0.2158605 0.0 0.0857988 0.0 0.0 0.0 3.0962498 1.7846893 0.0 0.0 2.1791255 0.0 0.29127488 
0.0 0.0 0.0 0.0 0.0 0.0 0.0 0.0 0.0 3.5523918 1.4400474 0.0 0.7976726 1.5970687 0.77912545 0.0 
0.0 0.0 0.95201695 0.0 0.0 0.0 0.0 0.0 0.0 1.3102874 0.0 0.0 1.2858726 0.0 3.7896981 0.0 
0.0 0.0 0.0 0.0 0.0 0.0 0.8788395 0.0 1.1456556 0.0 0.0 1.2489072 1.3468386 0.0 0.911115 0.0 
1.484739 2.0486612 0.0 0.0 0.0 0.54218894 0.0 0.0 0.0 0.27075085 0.14025104 0.18316486 0.0 0.0 0.0 0.0 
0.85292023 4.745852 0.0 0.0 0.0 0.0 0.0 0.26614535 0.0 3.5767026 0.0 0.0 0.49213636 0.0 0.9635064 0.0 
0.0 4.8581605 0.0 1.0378482 0.0 0.0 0.0 0.0 0.0 4.616926 0.9984243 0.0 0.0 0.0 0.0 0.0 
0.0 1.4963903 0.0 0.8129616 0.0 0.0 0.09257483 0.46227503 0.0 2.3672059 0.47775155 0.0 0.18611008 0.0 0.1837974 0.0 
0.0 0.0 0.0 0.0 0.0 0.0 1.2613974 0.0 2.5370133 0.0 0.18277146 0.0 0.628309 0.25335532 0.16081311 0.0 
0.16873316 0.5828153 0.0 0.0 0.0 0.6655684 0.0 0.0 0.0 1.2570401 1.2301035 0.04554671 0.51518905 0.97997963 0.6733132 0.0 
0.0 1.0184999 0.0 0.06446467 0.0 0.0 0.41646725 0.20171912 0.0 1.8444266 3.0022178 0.0 0.9744603 2.540949 1.8348795 0.0 
0.0 2.0879607 0.0 4.6533546 0.0 0.0 0.0 0.0 0.0 0.9574812 4.3009505 0.0 1.8361956 1.5199257 0.65517664 0.0 
0.0 2.6547184 0.0 6.608862 0.0 0.0 0.018298589 0.0 0.88238007 0.0 3.4150918 0.0 2.0580978 0.0031980053 0.0 0.0 
0.0 0.120942794 0.0 3.5199287 0.6039118 0.36121872 0.0 0.0 2.689229 0.0 1.6971861 0.0 0.45186514 0.32503775 0.47429436 2.8599403 

