0.0 0.0 0.0 0.0 0.0 0.0 0.10399357 0.0 0.0 0.0 0.0 0.0 0.0 0.0 0.0 0.0 
0.36907598 0.22863932 0.3821404 0.0 0.7253512 0.68318266 0.28998592 0.0 0.0 0.0 0.0 0.0 0.0 0.32302204 0.36059344 0.25110763 
1.6696745 0.0 2.9415126 0.0 0.0 0.16792789 0.57458776 0.0 0.0 0.5920316 0.0 0.0 1.1956329 0.79169846 2.240826 1.7894598 
2.3454392 0.0 0.0 0.0 0.0 0.0 2.0101392 0.0 0.0 0.39743227 0.0 1.1405013 1.8300714 1.0623397 0.6901402 0.0 
1.8153216 0.0 0.90468645 0.0 0.0 0.0 0.0 0.0 1.6487235 0.0 0.15160602 0.97939456 1.4167709 0.8932422 0.0 0.0 
0.014184605 0.0 0.0 0.00841511 0.24139604 0.13345127 0.24396504 0.0 0.0 0.0 0.04537782 0.0 0.0 0.0 0.0 0.0 
0.0 0.0 0.56304765 0.0 1.4062395 0.26723436 0.0 0.0 0.0 0.3076241 0.0 0.0 0.0 0.0 0.123432085 1.0730883 
0.0 0.0 3.2634587 0.0 0.0 0.0 4.1829605 2.1858962 0.0 0.534934 0.0 0.0 1.7599741 0.0 1.4606087 0.2191671 
0.0 0.0 0.0 0.39222234 0.0 0.0 2.6473258 0.5518143 3.847249 0.0 0.0 0.23055756 1.2954879 0.0 0.7093334 0.0 
0.0 0.0 0.0 1.4642158 0.0 0.5263154 0.0 0.0 2.1791475 0.0 1.0099672 0.33314958 0.03244037 0.15141886 0.0 0.9903951 
0.014149424 0.0 0.0 0.0 0.7275573 0.087302655 0.09602097 0.0 0.0 0.0 0.25226265 0.0 0.0 0.0 0.0 0.0 
0.0 0.0 1.9300257 0.0 1.4533461 0.6398954 0.0 0.0 0.0 0.7410921 0.0 0.0 0.0 0.0 0.0 0.7366434 
0.0031775236 0.0 3.1529646 0.0 0.0 0.0 4.8372164 2.2573068 0.0 0.53369665 0.0 0.0 0.0 0.0 0.010311291 0.0 
0.014008943 0.0 0.0 0.0 0.0 0.0 1.5876812 0.0 2.8789406 0.0 0.0 1.0405484 0.0 0.0 0.0 0.0 
0.0 0.0 0.07018165 0.0 0.0 0.89845824 0.0 0.0 0.0 0.0 0.0 0.8076893 0.3585655 0.0 0.0 0.09348332 
0.0 0.0 0.0 0.0 0.9568 0.06801087 0.031900644 0.0 0.0 0.0 0.47604573 0.39078772 0.0 0.0 0.0 0.0 
0.0 0.12782757 2.5213702 0.0 1.2876781 1.3327348 0.0 1.0784212 0.0 0.59590036 0.06829249 0.0 0.0 0.0 0.0 0.0 
0.0 0.0 2.399203 0.0 0.0 0.0 4.208192 1.5709841 0.22965294 0.4416911 0.0 0.0 0.50771207 0.0 0.0 0.0 
0.0 0.0 0.0 0.0 0.0 0.21898547 0.0 0.0 3.0428176 0.0 0.1719285 0.0 0.29802537 0.20735905 0.0 0.0 
0.0 0.0 0.0 0.39079526 0.0 0.0 0.0 0.0 0.0 0.0 0.107010454 0.8657236 0.32080126 0.0 0.0 0.11119088 
0.005398635 0.0 0.0 0.0 0.68773603 0.10044427 0.0 0.0 0.068968594 0.0 1.1179597 0.19984567 0.0 0.0 0.0 0.0 
0.0 0.0 1.7009221 0.0 0.4516257 1.7929606 0.84140587 1.5049498 0.0 1.122398 2.0127213 0.0 0.0 0.76778865 0.0 0.0 
0.0 0.0 0.0 0.7655586 0.0 0.0 3.7183812 1.9849434 3.1195114 0.19164276 1.3013163 0.0 0.0 1.0744759 0.0 0.0 
0.0 0.0 0.0 0.0 0.0 0.32491654 0.0 0.0 3.1840045 0.0 0.47762716 0.23809397 0.38217902 0.045892842 0.0 0.58687615 
0.0 0.0021402945 0.0 0.31111506 0.0 0.0 0.0 0.0 0.0 0.0 0.0 0.0 0.060977466 0.0 0.0 0.5077851 

