0.89481425 0.71764135 0.13892263 0.0 0.19698992 0.44332647 0.0 0.0 0.0 0.36657113 0.0 0.0 0.0 0.36439526 0.11471923 0.777893 
2.505731 1.4560995 1.1988243 0.0 0.0 0.0 0.0 0.0 0.0 0.9014485 0.0 0.0 0.8749047 0.41276348 0.8109765 1.7089652 
3.6866887 0.0 0.0 0.0 0.0 0.0 0.0 0.13216905 0.0 0.95143557 0.0 0.0 1.7088851 4.0082636 0.0 0.07507437 
3.3495386 0.0 1.136106 0.0 0.0 0.0 0.0 0.0 0.0 0.23562163 0.0 0.44168594 0.26770037 4.254731 0.0 0.0 
1.6073415 0.0 0.20922258 0.5408976 1.1584674 1.161694 0.0 0.0 0.0 0.61369556 0.0 2.4076753 1.6400222 0.0 0.0 0.0 
0.0 0.0 0.0 0.0 0.2112118 1.047647 0.0 0.0 0.0 0.23231164 1.5957732 0.058519334 0.12768613 0.23400554 0.19503082 0.1403102 
0.0 0.0 0.7539356 0.13998632 0.0 1.9641604 0.0 0.9378957 0.0 0.0 0.8915359 0.0 2.0318718 0.60161746 0.92468876 0.0 
0.0 0.0 0.0 0.3348423 0.0 0.0 0.0 0.0 0.05261096 0.0 0.0 0.8421575 2.816224 0.44738868 0.36769652 0.0 
0.0 0.0 0.0 0.0 0.0 0.0 0.0 0.0 0.0 0.0 0.50134444 0.0 0.8128153 3.3619974 3.6909885 0.0 
0.7040653 0.0 0.0 0.0 0.0 0.0 0.0 0.0 0.0 0.0 0.0 3.1690896 1.2820739 0.5405658 1.4922152 0.0 
0.26384962 0.7410402 0.0 0.043849982 0.28369159 0.17377076 0.17633791 0.0 0.0 0.07441628 1.2575006 0.40787223 0.0 0.0 0.0 0.0 
0.0 1.554738 2.90765 1.1706607 0.0 2.513426 0.0 0.0 0.0 1.341561 0.7714762 0.0 0.0 0.48351076 1.6517564 0.0 
0.0 0.0 0.0 0.13700151 0.0 0.0 1.4813997 0.0 0.0 0.85978603 0.0 0.0 0.071447104 0.0 1.6354995 0.7647688 
0.0 0.0 0.0 0.0 0.0 0.0 0.0 0.0 0.0 1.5637085 0.0 1.6081959 1.897905 0.0 1.1636727 0.0 
0.0 0.0 0.0 2.166837 0.0 0.0 0.0 0.0 2.7163672 0.0 1.9026607 0.0 0.50885004 0.42772087 1.7555082 1.2976793 
0.56788766 0.22439428 0.0 0.0 0.91114414 0.34699538 0.36471033 0.0 0.0 0.2201395 0.1475088 0.0 0.0 0.0 0.0 0.088412814 
0.0 0.6317556 1.8075123 0.0 0.05274743 0.5189226 0.7342546 0.0 0.0 1.1970663 0.0 0.0 0.1451222 0.0 0.15279736 1.3648324 
0.0 0.0 0.0 0.7231569 0.0 0.62583065 1.1991818 0.78196627 0.9787195 0.0 0.0 0.0 0.5028276 0.0 1.3538036 0.0 
0.0 0.0 0.0 2.5965657 0.0 0.0 0.15502948 0.0 0.66182536 0.40600008 0.0 2.7470677 0.12700549 0.0 0.0 0.0 
0.0 0.0 0.0 3.4800577 0.30916166 0.98753935 0.0 0.0 0.44487795 0.0 0.6509933 0.35651723 0.0 0.0 0.0 1.6660864 
0.0 0.0 0.0 0.0 0.7280452 2.31571 0.0 0.0 0.12020104 0.0 0.93224674 0.17917064 0.0 0.0 0.0 0.0 
0.62258404 1.8191365 0.0 0.0 0.0 1.7797523 1.3664373 2.0444603 0.0 1.3331431 1.5185008 0.0 0.0 1.2300122 0.0 0.0 
0.0 1.0655737 0.0 0.0 0.0 0.0 0.0 0.6255714 0.0 1.4186463 0.0 0.0 0.39132428 0.0 0.21085443 0.0 
0.0 0.0 0.0 0.0 0.0 0.0 1.0980201 0.0 2.0821178 0.0 0.0 0.0 1.2235817 0.0 0.1177329 0.0 
0.08052781 0.0 0.83661085 0.0 0.0 0.0 0.0 0.0 0.68646955 0.0 0.0 1.7198433 0.8267291 0.0 0.0 0.0 

