0.9336218 0.8109104 0.5008574 0.0 0.16640547 0.0066958442 0.0 0.0 0.0 0.7541481 0.0 0.0 0.0 0.0 0.44819504 1.7510606 
2.1876523 2.2866256 0.067922294 0.0 0.0 0.0 0.62300795 0.0 0.0 0.6605143 0.0 0.0 0.0 2.0138946 0.0 1.1736795 
1.8731796 1.0280874 1.1632825 0.0 0.0 0.0 0.0 0.0 0.0 0.48189098 0.0 0.42718396 0.16835313 1.2164193 0.0 0.0 
1.3425797 0.14401184 1.1680495 0.62713736 0.79103124 0.6542121 0.15025283 0.0 0.0 0.5177265 0.0 1.783468 0.93164474 0.0 0.0 0.0 
0.6053046 0.17782405 0.29132834 0.67471683 0.6379101 0.2969312 0.0 0.0 0.0 0.0 0.22057012 0.43496552 0.1275361 0.3190428 0.0 0.0 
0.0 0.33668798 0.90508944 0.0 0.0 0.0 0.24544422 0.35874557 0.0 0.5259397 0.0 0.0 0.9131888 0.0 0.39658755 1.6637341 
0.0 0.39705378 0.0 0.0 0.0 0.0 0.87089396 0.30517274 0.38891053 0.0 0.17378598 1.0490192 1.6269264 1.6361022 0.41378456 0.0 
0.30063912 0.4028145 1.0218631 0.16893812 0.0 0.26696664 0.0 0.0 0.0 0.0 0.0 0.0 0.413877 2.5276024 2.4369178 1.6382334 
0.72641087 0.0 0.22311455 0.0 0.0 0.0 0.9483571 0.0 0.0 0.0 0.0 2.6866636 1.041679 0.0 0.0 0.0 
0.6783053 0.0 0.84123796 0.0 0.0 0.24508274 0.0 0.0 1.1890211 0.0 0.0 2.0028744 0.77373624 0.1285035 0.0 0.0 
0.84561294 0.38935843 0.016648341 0.0 0.0 2.1520293 2.0444412 2.115062 0.0 0.0 1.8497872 0.0 0.0 2.937768 0.0 0.0 
1.2717727 0.005097909 0.0 0.0 0.0 0.0 0.0 0.65411526 0.0 2.0791867 1.5064493 0.0 0.0 2.0684085 0.0 0.0 
0.0 0.0 2.400441 0.0 0.0 0.4106974 0.0 0.0 0.0 2.2670598 0.0 0.0 0.712792 0.27756903 2.1521938 0.0 
0.0 0.0 0.8774138 0.0 0.0 0.0 1.7297838 0.035758473 2.8666744 0.0 0.0 0.38389012 1.3960618 0.0 0.5604415 0.0 
0.0 0.0 0.3211232 0.0 0.0 0.03690353 0.0 0.0 1.6550889 0.0 0.0 1.7840937 0.75245243 0.08711473 0.0 0.0 
0.0 1.296808 0.36316136 0.8139523 0.0 0.850178 0.9078843 0.35214823 0.0 0.0 2.2391562 0.0 0.6571623 1.8619449 1.5674932 0.0 
0.0 2.070763 0.0 3.2286868 0.0 0.0 0.0 0.0 0.0 0.0 3.8278408 0.0 0.9424644 1.9591633 1.878875 0.0 
0.0 2.129712 1.7216845 3.3635132 0.0 0.62783736 0.0 0.0 0.0 0.0 2.8403332 0.0 0.624025 0.68599784 0.4282955 0.0 
0.0 0.0 0.95088893 1.9228152 0.0 0.0 2.2323935 0.0 0.8868633 0.0 0.0 0.0 0.3214627 0.0 0.37795186 0.0 
0.0 0.0 0.17646694 0.0 0.0 0.22827965 0.0 0.0 0.7773932 0.0 0.0 1.3442925 0.06418599 0.0034787804 0.0 0.0 
0.19235776 0.67385715 0.0 1.3440555 0.0 0.0 0.42832014 0.042797253 0.0 1.6231776 0.035745315 0.0 0.0 0.0 0.0 0.0 
0.042190965 0.62826365 0.0 1.852398 0.4510095 0.0 0.48479468 0.0 0.19536877 2.9604387 0.22338639 0.0 0.0 0.0 0.0 0.10886181 
0.0 0.0 1.7413406 0.20518702 1.0255834 2.3842242 0.0 0.0 0.0 2.531253 0.38673964 0.0 0.0 0.0 0.7140792 0.0 
0.0 0.0 1.6462015 0.29832366 0.0 0.0 2.7976103 0.3926999 0.33023757 0.0 0.0 0.0 0.0 0.0 0.49610758 0.0 
0.0 0.0 0.20726854 0.0 0.0 0.21481368 0.0 0.0 1.37468 0.0 0.0 0.8416101 0.055860616 0.0 0.0 0.0 

