1.0743916 1.1139637 0.9256942 0.0 0.0 0.0 0.0 0.0 0.0 1.0449164 0.0 0.0 0.26057357 0.0 0.4682387 2.0921078 
1.7727025 1.0697562 0.0 0.0 0.0 0.0 1.0439401 0.85843456 0.0 0.7283995 0.0 0.0 1.118513 0.6329083 0.09700923 1.362621 
2.3149815 0.0 0.22944048 0.0 0.0 0.4097309 0.0 0.06809831 0.047981914 0.0044513606 1.0641932 0.0 1.6533967 2.7130685 1.3364223 0.0 
1.9755578 0.0 0.0 0.0 0.0 0.0 0.0 0.0 0.0 0.0 1.156037 0.0 0.5584069 4.28594 0.48568982 0.0 
1.4883891 0.0 0.1267137 0.0 0.0 0.0 0.0 0.0 0.0 0.17758864 0.0 3.2244565 1.4423921 0.0 0.0 0.0 
0.0 0.088095635 0.65027016 0.0 0.0 0.0 1.7385026 1.7457498 0.0 0.91840625 0.0 0.6300347 1.3678685 0.0 0.3237406 2.1343887 
0.0 0.0 0.0 0.9487827 0.0 0.0 0.43312505 1.5266125 2.305374 0.0 0.57785946 0.0 1.1733409 0.0 0.0 0.0 
0.0 0.7974618 0.0 1.7046814 0.0 0.04762529 0.0 0.0 1.1615 1.026837 1.1947038 0.0 0.5301847 0.0 1.9486337 0.08777587 
0.0 0.0 0.51690257 1.0529346 0.0 2.0642397 0.0 0.0 0.0 0.97177994 1.2167923 0.0 0.0 1.6546798 3.3451848 0.0 
0.0 0.0 0.0 1.303865 0.0 0.0 0.0 0.0 0.0 0.0 0.0 2.0505886 0.5915839 0.13524279 2.3114662 0.20402671 
0.0 0.24804533 0.0 1.3395913 0.0 0.0 2.0423799 1.9190519 1.3516226 0.0 0.0 0.69448113 0.11792803 0.0 0.0 0.0 
0.03684074 0.38655943 0.0 1.6271765 0.020968802 0.81528234 0.0 0.0 3.46804 0.0 0.19724315 1.2707992 0.0 0.0 0.0 0.24400532 
0.9069324 2.436128 0.0 1.5748178 0.80304956 0.52983123 0.15004197 0.0 0.0 0.043261003 0.1734513 0.0 0.0 0.0 0.0 0.7093314 
1.2671345 2.5535417 2.5119522 0.0 1.5291624 2.1119218 0.0 0.0 0.0 1.874212 0.0 0.0 0.0 0.0 0.9519389 0.48040304 
0.09820785 0.0 2.6940315 0.0 0.0 0.0 2.6396918 0.0 0.0 0.77725464 0.0 0.0 0.0 0.0 2.3960285 0.0 
0.59811455 0.0 0.21785852 0.0 0.0 0.682689 1.8232912 0.4476167 0.0 0.0 2.5701537 0.0 0.19921343 3.6253467 1.4584613 0.0 
2.4240289 0.0 0.0 0.0 0.0 0.0 0.0 0.0 0.0 0.0 2.8578992 0.0 1.1048871 4.186993 0.0 0.0 
3.7643023 0.0 0.0 0.0 0.0 0.0 0.0 0.0 0.0 1.7449719 0.9440154 0.0 1.9785485 3.0360093 0.0 0.0 
2.4407804 0.0 0.0 0.0 0.0 0.0 0.0 0.33311075 0.0 2.1118302 0.9264381 0.0 2.390731 1.4424806 0.0 0.0 
0.01862074 0.0 0.82452893 0.4761081 0.0 0.0 0.9307495 1.2800626 3.192742 0.0 1.0828085 0.0 1.4499946 0.46860895 0.24571566 0.0 
0.0 1.0771884 0.0 0.7120228 0.0 0.12957367 0.0 0.0 0.0 0.36866403 1.6755363 0.0 0.49828792 0.0 3.0109644 0.0 
0.0 1.8627595 0.0 2.6419349 0.0 0.0 0.0 0.0 0.0 0.28966722 3.6028457 0.0 1.7609847 2.0012941 2.5893357 0.0 
0.0 2.5482342 0.0 5.635274 0.0 0.0 0.0 0.0 0.0 0.3358478 3.7678764 0.0 2.672994 1.8037511 1.7754275 0.0 
0.0 2.3719258 0.0 6.264784 0.0 0.0 0.0 0.16091928 0.0 1.9034712 3.7197082 0.0 1.4460224 0.3264667 0.046592817 0.18649739 
0.0 1.2295054 0.0 4.532826 0.55400854 0.3472847 0.0 0.0 1.6667988 1.2743847 1.9557855 0.0 0.0 0.15449846 0.020565838 1.8660772 

