0.45754108 0.17279743 0.7816002 0.0 0.4565276 0.19277737 0.0 0.0 0.02590717 0.26378176 0.0 0.0 0.0 0.0 0.5174884 0.6871392 
0.0 0.0 1.3300664 0.0 0.0 0.0 1.4549665 0.83989275 0.0 0.6605152 0.0 0.0 1.5323213 0.0 0.66546136 2.520161 
0.013634797 0.0 0.0 2.2174137 0.0 0.0 0.7393184 0.93667287 2.1045165 0.0 0.90633935 0.0 1.9573884 2.2042584 0.23706444 0.0 
0.16700627 0.5163779 0.0 2.4964461 0.0 0.0 0.0 0.0 1.326566 0.0 1.5663122 0.33905685 1.0040514 1.4842565 0.17424484 1.4455373 
0.0 0.19169779 0.29700568 1.2336347 0.033326022 0.0 0.008219834 0.0 0.0 0.0 0.32217485 0.38146213 0.54671407 0.041886598 0.0 0.5642216 
0.0 0.0 0.7842601 0.0 0.78714025 1.8975327 0.0 0.0 0.0 0.0 0.55121565 0.15034154 0.0 0.0 0.0 0.0 
0.0 0.0 2.1094913 0.88799435 0.0 0.0 3.8520198 1.6395613 0.11443815 0.20302346 0.0 0.10348602 0.0 0.0 0.0 0.0 
0.0 0.0 0.0 2.0164769 0.0 0.30740184 0.0 0.0 2.8294628 0.97708976 0.0 1.646251 0.0 0.0 0.0 0.0058643697 
0.0 1.4138445 0.0 1.2730627 0.81486547 0.55953884 0.0 0.0 0.0 0.5311581 0.020973014 0.15980291 0.0 0.0 0.38487756 1.3347927 
0.0 0.67820084 0.0 1.0858313 1.1136816 0.58163244 0.0 0.0 0.0 0.18792593 0.45088845 0.13769217 0.0 0.40221804 0.0 0.35259765 
0.0 0.0 1.4943359 0.0 0.37524918 3.4388747 0.0 0.0 0.0 0.0 0.93426406 0.32950208 0.0 0.16645855 0.0 0.0 
0.010536369 0.0 4.043593 0.13857149 0.0 0.0 2.710516 0.66795456 0.0 0.0 0.0 0.0 0.0 0.34031716 1.1070664 0.0 
1.111563 0.0 0.0 0.0 0.0 0.21879807 0.0 0.0 1.1440753 0.0 0.0 1.1090156 0.18459515 1.8807961 0.0 0.0 
1.8469896 1.313265 0.581494 0.0 0.0 0.0 0.0 0.0 0.0 0.5961099 0.0 0.098318964 0.0 3.0707314 0.0 0.0 
1.6742991 0.107250914 0.0 0.43048877 1.1784098 0.97060543 0.0 0.0 0.0 0.84483105 0.0 1.8051665 1.0309036 0.0 0.0 0.0 
0.0 0.0 0.0 0.0 0.27449733 3.2464166 0.0 0.0 0.06382468 0.0 0.90733176 0.23544157 0.0 0.0 0.0 0.0 
0.0 0.0 3.3996842 0.0 0.0 3.2809498 1.3550705 0.0 0.0 0.0 0.0 0.0 0.0 1.4264511 0.9231239 0.0 
0.0 0.0 0.0 0.0 0.0 0.0 0.0 0.0 0.0 0.0 0.0 0.553846 1.1617777 0.0 0.0 0.0 
1.1206168 0.0 0.0 0.0 0.0 0.0 0.0 0.0 0.0 0.0 0.0 0.0 0.47686535 2.1932914 3.1795886 0.0 
0.9067504 0.0 0.0 0.0 0.0 0.0 0.0 0.0 0.26264548 0.0 0.0 2.1040516 0.99934274 0.7469554 0.69044095 0.0 
0.0 0.3400959 0.0 0.0 0.058484532 0.26088813 0.017810538 0.10619071 0.0 0.0 0.9030039 0.26691398 0.0 0.0 0.0 0.0 
0.0 0.88233334 0.94372106 0.0 0.0 2.5072029 1.437771 0.0 0.0 0.0 1.9270096 0.0 0.39642626 2.2014024 2.0719447 0.0 
0.0 0.50611323 0.0 0.09121741 0.0 0.0 0.0 0.0 0.0 0.60417235 4.006434 0.0 0.39489788 2.650101 2.6408632 0.0 
0.0 1.5466063 0.0 5.334378 0.0 0.0 0.0 0.0 0.0 0.7820806 3.4354372 0.0 2.6759617 0.021546654 1.5595957 0.0 
0.0 0.0 0.0 3.488031 0.0 0.0 0.0 0.0 2.3499968 0.0 1.7772176 0.0 1.7122707 0.07094387 1.6703124 2.5216892 

