0.8676943 0.6375034 0.0 0.0 0.0 1.2614136 0.0021300334 0.0 0.0 0.0 0.25771022 0.0 0.0 1.4819189 0.19256409 0.0 
2.1192021 2.2144613 1.316213 0.0 0.0 0.0 0.4245336 0.0 0.0 0.36532426 0.0 0.0 0.39510155 1.6220605 0.20929481 1.307242 
3.2198544 1.6924574 0.0 0.0 0.0 0.0 0.0 0.0 0.0 0.4678924 0.0 0.71155894 0.7111825 2.5415912 0.0 0.0 
2.3531609 0.8327642 1.5772667 0.0 0.0 0.0 0.0 0.0 0.0 0.8459072 0.0 0.10441002 0.94119805 1.4392766 0.0 0.0 
1.3943893 0.26856437 0.0 0.6098253 1.1065893 0.78757083 0.0 0.0 0.0 0.8281003 0.0 2.1238012 1.1408558 0.27359456 0.0 0.0 
0.0 0.30645186 0.0 0.0 0.07892605 1.7371974 0.0 0.0 0.091760874 0.0 0.7019833 0.24637493 0.0 0.6355813 0.7532677 0.0 
0.0 0.5331665 2.0082757 1.065159 0.0 0.34925342 1.702579 0.0 0.0 0.0 0.64528126 0.0 2.0287328 1.4822224 1.669599 0.0 
0.0 0.0 0.0 0.036116116 0.0 0.06389907 0.0 0.0 0.17788474 0.0 0.8313475 0.0 1.9252534 3.1215708 1.9523823 0.0 
0.29879954 0.0 1.4339812 1.9073249 0.0 0.10402125 0.5404511 0.0 0.0 0.0 0.0 0.0 1.4850509 3.7848186 3.0509567 0.0 
0.57217246 0.0 0.0 0.74739516 0.0 0.0 0.22350965 0.0 0.34210232 0.0 0.0 2.2926621 1.2453521 0.0 0.0 0.0 
0.012275275 0.49431676 0.0 0.0 0.6069862 1.4190893 0.08665853 0.0 0.0 0.13407049 0.5729323 0.33536947 0.0 0.0 0.0 0.0 
0.0 0.37219813 2.8977776 1.476975 0.0 0.8277729 4.294475 0.0 0.0 1.4671006 0.0 0.0 0.0 0.0 0.0 0.0 
0.0 0.0 0.0 0.0 0.0 0.46922898 0.3297527 0.0 1.3115518 1.4320358 0.0 0.048615575 0.0 0.0 0.0 0.31891865 
0.0 0.0 2.9068177 0.6248733 0.0 0.9395085 4.393725 0.0 0.0 1.3291271 0.0 0.0 0.38164788 0.0 1.9285052 0.0 
0.0 0.0 0.0 0.088451214 0.0 0.154253 0.0 0.0 2.0396314 0.0 0.14667559 0.0 0.0 0.0 0.0 0.111825265 
0.22711809 0.3855382 0.0 0.0 0.25794002 0.628571 0.0 0.0 0.0 0.19631395 0.88451916 0.0 0.0 0.0 0.0 0.42799965 
0.0 0.0 2.0384102 0.0 0.0 0.20280755 3.2526174 0.0 0.0 0.2040401 0.0 0.0 0.0 0.13405687 0.0 0.0 
0.0 0.0 0.3474455 0.0 0.0 0.0 0.0 0.0 2.7069297 0.0 0.0 0.0 0.08749749 0.0 0.0 0.73314166 
0.0 0.0 1.2609274 0.19865145 0.0 0.0 3.2597451 0.96978337 1.3404291 0.0 0.0 0.2134023 0.40929025 0.0 0.0 0.0 
0.0 0.0 0.0 0.0 0.0 0.46231484 0.0 0.0 3.0886645 0.0 0.2360706 0.0 0.0 0.0 0.0 0.40637293 
0.0 0.8365741 0.0 1.1367581 0.0 0.8927083 0.0 0.3121776 0.0 0.0 1.0883541 0.26002303 0.0 0.0 0.0 0.0 
0.0 0.6886467 0.0 1.2319399 0.29250723 0.5695783 1.044454 0.0 1.0756934 0.22467256 0.97777057 0.0 0.0 0.13369569 0.20482697 0.37502155 
0.0 0.0 0.0 0.0 0.0 0.4735127 1.654148 0.40766972 1.0678103 0.0 0.0 0.0 0.0 0.0 0.0 2.0947065 
0.0 0.0 0.0 0.5536221 0.0 0.0 3.1839523 0.5217705 2.5722134 0.0 0.0 0.29977942 0.0 0.0 0.0 0.0 
0.0 0.0 0.0 0.13304251 0.0 0.75256824 0.0 0.0 1.2545674 0.0 0.26942328 0.0 0.012533195 0.012848832 0.0 0.54450506 

