0.20660077 0.2703098 0.112260535 0.008025905 0.4318654 0.0 0.20822941 0.0 0.0 0.0 0.0 0.0 0.0 0.0 0.0 0.0 
0.8205802 1.0207236 1.2160491 0.0 0.18184528 0.0 0.0 0.0 0.2834572 1.110323 0.0 0.0 0.0 0.0 0.48195028 2.9632142 
1.16724 1.5570765 0.49289185 0.0 0.017261855 0.0 0.032494865 0.9728603 0.0 1.369065 0.0 0.0 1.5324142 0.0 0.24551018 2.32737 
0.47257742 0.0 0.0 0.0 0.0 0.0 0.0 1.6172159 0.16287167 0.34265456 0.32517198 0.0 1.6028745 1.0171356 0.0 0.0 
0.16375 0.0 0.0 2.0447388 0.0 0.0 0.0 0.35708082 1.8098012 0.0 1.11811 0.0 1.598628 1.012375 0.79703504 0.28591132 
0.5214346 0.48662832 1.4130179 0.0 0.71731 0.09932099 0.0 0.0 0.0 0.829225 0.0 0.0 0.0 0.0 0.535124 2.156709 
0.6304507 0.94351494 1.690065 0.0 0.0 0.0 1.154053 1.4139298 0.0 0.95808774 0.0 0.0 0.9519256 0.0 0.50492567 2.7074938 
1.1667373 0.0 0.0 0.0 0.0 0.0 0.6374965 3.4404473 0.8011444 0.0 0.0 0.37797394 1.5299472 0.0 0.0 0.0 
0.59889394 0.13951093 0.0 3.7711105 0.51769704 0.0 0.0 0.6751924 2.1241121 0.80457664 1.3627852 0.010594517 0.0 0.0 0.0 0.065758675 
0.0 0.0 0.0 3.215482 1.9085156 1.5452986 0.0 0.0 0.36693597 0.7421778 0.92221814 0.0 0.0 0.30316123 0.14885347 1.4616096 
0.042297486 0.0 1.721396 0.0 1.195756 1.5533335 0.0 0.09934841 0.0 0.49046463 0.0 0.0 0.0 0.0 0.52721906 2.1069758 
0.88640755 0.0 0.8313741 0.0 0.0 0.0 3.1796353 2.473149 0.17362733 0.0 0.0 0.3192947 0.952081 0.3186176 0.0 0.0 
2.0815163 0.0 0.0 0.0 0.0 1.0005095 0.0 1.1066222 1.9497919 0.0 1.6040146 0.0 0.7378779 4.8934674 0.0 0.0 
0.7575209 0.0 0.0 0.0 0.0 0.0 0.0 0.0 0.0 0.0 0.11954683 0.0 1.5629798 3.8406343 0.0 0.0 
1.0592055 0.0 0.0 0.0 0.15003216 0.45418942 0.0 0.0 0.0 0.15025464 0.0 3.093957 1.7516477 0.0 0.0 0.0 
0.0 0.0 1.7928307 0.0 0.79430753 3.406055 0.0 0.633841 0.0 0.0 1.3536485 0.1351289 0.0 0.86394256 0.0 0.0 
0.0 0.0 0.32992688 0.40666178 0.0 0.0 3.6414275 2.2337682 0.93385595 0.0 0.0 0.35105082 0.0 0.25435033 0.0 0.0 
0.287017 0.0 0.0 0.0 0.0 1.1841216 0.0 0.0 0.7210944 0.8797149 0.0 1.1108352 0.0 0.0 2.535037 0.0 
0.0 0.44163352 1.5744361 1.1561124 0.0 0.0 0.66403913 0.0 0.0 1.9569203 0.0 0.0 0.0 0.0 4.141696 0.0 
0.0 0.0 0.0 0.54782724 0.0 0.0 0.0 0.0 1.1371613 0.0 0.0 2.7871168 0.93200755 0.0 0.11005552 0.0 
0.0 0.60625434 1.6776464 0.0 0.22814769 3.5457609 0.0 0.17720404 0.0 0.16113187 1.552522 0.3525052 0.0 0.672178 0.08261736 0.0 
0.0 0.0 1.599306 1.302816 0.0 0.21341935 3.2345474 0.8633373 0.5779424 0.0 2.5990956 0.0 0.0 2.1187766 1.7580318 0.0 
0.0 0.0 0.0 0.0 0.0 0.2987586 0.0 0.0 1.1092914 0.0 3.0791383 0.47513613 0.99478894 0.7381375 0.17004432 0.61317617 
0.0 0.0 2.107716 2.839505 0.0 0.2682647 2.6668115 0.49887598 0.6315767 0.0 2.0707238 0.0 0.9839491 1.0355695 0.2753117 0.0 
0.0 0.0 0.0 2.1445854 0.0 0.0 0.0 0.0 3.2228708 0.0 2.0233216 0.0 1.0743555 0.31246066 0.048427507 2.1389322 

