0.17569654 1.1808667 0.0 0.0 0.23475233 0.017344028 0.0 0.0 0.6527387 0.0 0.0 0.0 0.0 0.11199892 0.0 0.8089814 
0.0 1.8036103 0.0 0.0 0.0 2.1457894 0.0 0.0 0.0 0.0 1.0328418 0.14552796 1.0151465 2.8460472 0.8856432 0.6010576 
0.98031217 0.0 0.0 0.0 0.0 1.9412503 0.13198756 0.0 0.0 0.0 1.0993146 0.0 0.39774436 5.1800447 2.535781 0.0 
1.349503 0.0 0.0 0.0 0.0 0.0 0.0 0.0 0.0 0.0 0.0 4.346459 2.2282495 1.3711058 0.0 0.0 
0.9762977 0.0 0.6688634 0.0 0.0 0.8111895 0.0 0.0 0.0 0.0 0.0 4.885889 1.8794769 0.6717677 0.0 0.0 
0.80409896 0.2363873 2.167255 0.0 0.31226498 0.5691153 0.0 0.0 0.0 0.0 0.0 0.0 0.0 0.2475321 0.6600557 1.2603055 
0.6535066 0.2859201 0.0 0.0 0.0 0.0 3.4064357 0.42291725 0.04169399 0.65720785 0.0 1.5491252 0.0 0.0 0.0 0.0 
0.0 0.0 2.8901885 0.0 0.0 3.895039 0.0 0.0 1.6070162 0.55081993 0.0 0.7573713 0.0 0.0 3.3825836 0.0 
0.0 0.0 3.3343005 0.6417333 0.0 0.18184367 1.4828179 0.0 0.0 0.0 0.0 0.0 0.0 0.28040242 4.0115776 0.35804093 
0.33465537 0.0 0.0 0.0 0.0 0.0 0.0 0.0 0.0 0.0 0.0 4.7405825 1.3294017 0.0 0.0 0.0 
0.0 0.010062655 4.037313 0.0 0.29604244 1.7282758 0.67064786 0.74319035 0.0 0.0 0.0 0.0 0.0 0.0 0.7269687 0.0 
0.16590916 0.0 0.0 0.0 0.0 0.0 4.165391 0.030681528 2.6524575 0.0 0.0 1.6971182 0.14503384 0.0 0.0 0.0 
0.23253118 0.3639829 1.7453575 0.0 0.7967478 2.3527966 0.0 0.0 1.627742 0.535427 0.0 1.3975251 0.0 0.0 0.0 0.5736652 
0.0 0.8857314 5.191589 0.0 0.0 0.31607166 4.0781126 0.7114029 0.0 1.1283976 0.0 0.0 0.0 0.0 2.2429192 0.0 
0.0 0.0 0.0 0.0 0.0 0.0 0.0 0.0 2.381919 0.0 0.0 2.3502734 0.3051685 0.0 0.0 0.0 
0.0 0.0 3.5730054 0.0 0.0 3.824244 0.7258175 0.54394466 0.0 0.0 0.52019405 0.0 0.0 2.1939871 1.0107569 0.0 
1.5890439 0.0 0.0 0.0 0.0 0.0 2.1560123 0.0 0.0 0.0 0.0 0.0 0.0 1.7403544 0.28223562 0.0 
1.8084673 0.0 0.0 0.0 0.0 0.0 0.0 0.26468647 0.0 0.74668175 0.0 1.1195297 2.2330825 0.0 0.0 0.19619744 
0.0 0.0 0.53700435 0.0 0.0 0.0 2.1633947 2.450163 2.9343822 0.5747846 0.04176461 0.0 1.7245564 0.34486315 0.0 0.0 
0.0 0.0 0.0 0.0 0.0 0.0 0.0 0.0 4.3578644 0.0 0.9343365 0.0 0.6895361 0.20447889 0.0 1.554179 
0.0 1.0271844 1.377372 0.0 0.0 2.3567936 0.060046457 0.0 0.0 0.0 1.4265795 0.0522743 0.2660625 1.1667316 2.1320786 0.0 
0.0 0.3923091 0.0 2.5608852 0.0 0.0 0.3964718 0.0 0.0 0.0 4.1967144 0.0 1.3887422 2.146551 2.6382382 0.0 
0.0 1.2920989 0.0 6.489791 0.0 0.0 0.0 0.35200012 0.0 0.0 3.905039 0.0 2.1236904 0.575361 0.0 0.0 
0.0 0.34121048 0.0 4.6415663 0.061143152 0.0 0.0 0.22154365 3.1039734 0.0 1.4587653 0.0 0.6680269 0.13632563 0.0 2.4602041 
0.0 0.071154825 0.0 1.2160617 0.56004995 0.5998665 0.0 0.0 1.0952423 0.0 1.0705675 0.0 0.0 0.0 0.0 2.559001 

