0.051226866 0.28509235 1.4626248 0.0 0.0 0.0 0.51002413 0.0 0.13689637 0.44718367 0.0 0.0 0.68957806 0.0 0.6164641 1.4589001 
0.3876185 0.0 0.0 0.15307443 0.0 0.0 2.202113 0.38176113 1.377054 0.0 0.0 0.5980952 1.022426 0.82492954 0.0 0.0 
0.17240036 0.38186818 0.8555098 0.785779 0.0 0.0 0.0 0.0 1.2026734 0.0 0.26613235 0.27509663 0.23155554 0.5935371 0.0 0.8666118 
0.50559497 1.4343342 1.1505538 0.5340492 0.15911356 0.0 0.92552084 0.0 0.27877477 0.5708449 0.0 1.257225 0.05166381 0.0 0.0 1.7212747 
0.57302576 0.9415238 0.0 0.6670017 0.93973106 0.2809559 0.5166272 0.0 0.0 0.25783876 0.11489101 1.2766643 0.114193305 0.32851848 0.0 0.00814905 
0.11085059 0.0 1.1177026 0.0 0.0 2.734945 2.024227 1.739793 0.0 0.0 0.0 0.0 0.0 1.4836427 0.0 0.0 
0.86605674 0.0 0.0 0.2444865 0.0 0.0 2.0393708 0.20990907 2.641534 0.0038002655 0.0 1.7227441 0.0 0.0 0.0 0.0 
1.0204549 0.50067174 0.68126714 0.2981367 0.6411117 1.8051398 0.0 0.0 0.0 0.3951497 0.0 0.30748308 0.0 0.16279843 0.054370955 1.6993066 
0.77556634 0.0 1.5642809 0.0 0.0 0.0 2.324375 0.5483973 0.0 0.10651086 0.0 1.1819854 0.26378947 0.0 0.30436558 1.7254546 
0.6648955 0.0 0.39565292 0.0 0.0 0.25350726 0.0 0.0 1.2423859 0.0 0.0 1.8313111 0.68632764 0.38320723 0.0 0.0 
0.0 0.4755347 1.0223904 0.0 0.0 3.38609 1.806801 0.596303 0.0 0.0 1.5143776 0.0 0.47746098 3.4480648 2.5541909 0.0 
1.3645798 0.0 0.0 0.0 0.0 0.0 0.0 0.0 0.0 0.0 4.1221704 0.0 0.41548377 3.5965846 2.2133458 0.0 
1.3738278 0.0 2.8055704 0.0 0.0 0.0 0.0 0.0 0.0 0.0 3.3927772 0.30147505 1.557935 2.7901263 0.0 0.0 
1.2833959 0.0 2.3897498 0.0 0.0 0.0 2.0770624 0.42848104 1.3062643 0.0 0.0 0.0 1.8815264 0.5775647 0.0 0.0 
0.48264596 0.0 0.25882646 0.0 0.0 0.18143207 0.0 0.0 2.7201548 0.0 0.22723728 0.94029117 0.48745453 0.12967691 0.0 0.0 
0.20969923 1.2481806 0.058948774 1.3239797 0.0 0.33926415 0.16130574 0.0 0.0 0.9816097 0.0 0.23613247 0.024814539 0.0 1.1850733 0.0 
0.0 1.2201223 0.0 1.9338413 0.0 0.0 0.2027323 0.0 0.0 2.3278205 2.3591583 0.0 0.21402828 0.0 3.1179528 0.0 
0.0 2.3247323 0.0 3.3786151 0.04546976 3.1067004 0.0 0.0 0.0 2.7554584 3.0127833 0.0 0.0 0.0 1.4160932 0.0 
0.0 1.035261 0.4181659 3.819381 0.0 0.0 1.4485856 0.0 0.8947702 0.57370603 0.0 0.0 0.28095013 0.0 0.24656723 0.0 
0.0 0.0 0.0 1.4958614 0.0040841103 1.0361114 0.0 0.0 1.5227625 0.0 0.19551693 1.3208973 0.22655185 0.0 0.0 0.0 
0.38353142 0.21135227 0.0 0.64269173 0.0 0.0 0.49909896 0.08764091 0.0 0.6045247 0.11668709 0.0 0.0 0.0 0.0 0.0 
0.26456478 0.22893487 0.0 1.0088354 0.15045103 0.0 0.6389342 0.055443123 0.2682403 1.1085641 0.31088537 0.22740385 0.0 0.0 0.0 0.0 
0.0 0.5612905 0.72556704 0.0 0.26023284 3.458611 0.0 0.0 0.0 0.56401235 0.82626885 0.24302068 0.0 0.1966888 0.15412189 0.0 
0.101240486 0.0 0.8729461 0.0 0.0 0.94548863 1.9043481 0.0 0.0 0.0 2.5074923 0.0 0.33658642 2.7460377 2.521615 0.0 
0.9018018 0.0 0.0 0.0 0.0 0.0 0.0 0.0 0.0 0.0 2.7623212 1.3653047 1.1322618 3.4310334 0.15891065 0.0 

