0.65173775 0.26252306 0.0 0.0 0.4552101 0.11833432 0.19793354 0.0 0.0 0.0 0.0 0.043824673 0.0 0.08921351 0.0 0.0 
1.6669532 1.9617274 1.542572 0.0 0.0 0.0 0.0 0.0 0.0 0.5905977 0.0 0.0 0.0 0.07038338 0.2875346 1.4976412 
2.4652877 2.9598894 0.73695177 0.0 0.1981503 0.0 0.41207278 0.0 0.0 0.47752178 0.0 1.147265 0.2787215 0.0 0.0 1.2939578 
1.4991168 0.0 0.0 0.18641473 1.2802507 0.9642984 0.0 0.0 0.0 0.69624996 0.0 2.5474098 1.111833 0.0 0.0 0.0 
0.6568873 0.0 0.7034084 0.37586254 0.658954 0.84985375 0.0 0.0 0.0 0.0 0.22281814 0.0 0.0 0.7854993 0.0 0.0 
0.40500143 0.017435392 0.0 0.0 0.51328117 1.8776886 0.0 0.0 0.0 0.0 0.45982665 0.0 0.0 0.22028732 0.0 0.29603192 
0.0 0.0 0.8257877 0.0 0.0 0.05608681 0.0 0.48145604 0.0 0.36710864 0.0 0.0 0.35232508 0.0 0.8962942 1.7896949 
1.9912686 0.0 0.0 0.0 0.0 0.0 0.0 0.38597357 0.0 0.0 0.0 0.0 0.98767024 0.0 1.7952888 0.0 
0.8038861 0.0 0.0 0.0 0.0 0.0 0.0 0.0 0.5333751 0.0 0.0 3.3948565 1.3349707 0.0 0.0 0.0 
0.37491974 0.0 1.0693538 0.0 0.0 0.28470287 0.0 0.0 0.0 0.0 0.0 1.6997179 0.6929861 0.32915786 0.0 0.0 
0.0 0.48439732 0.0 0.0 0.42127562 1.5990436 0.0 0.13120145 0.13942379 0.0 1.7227466 0.2847205 0.0 0.0 0.0 0.0 
0.0 0.6349043 0.0 0.0 0.0 1.089334 1.0358757 1.2249427 0.0 0.0 3.6370177 0.0 0.11000273 1.3149893 0.0 0.0 
0.0 0.0 0.11940728 2.2275229 0.0 0.8632809 0.0 0.0 0.0 0.0 1.8751724 0.0 0.83024734 1.5239038 1.1813163 0.0 
0.0 0.0 0.0 1.2383685 0.0 0.0 2.0008347 0.0 1.5710292 0.0 0.58620226 0.8548614 1.389942 0.0 0.0 0.036033798 
0.0 0.0 0.3510892 0.06418187 0.0 0.028462365 0.0 0.0 0.0 0.0 0.0 1.6349417 0.6628299 0.056305915 0.0 0.0 
0.47525916 0.8416123 0.0 0.55046046 0.0 0.0 0.34493887 0.24472676 0.0 0.44637236 0.7531709 0.62222755 0.0 0.0 0.0 0.0 
0.27254847 1.8946099 0.0 2.034094 0.31409836 0.0 0.6541198 0.68922377 0.2945122 2.196222 1.4032679 0.0 0.0 0.0 0.0 0.0 
0.0 1.44794 3.2224119 3.253924 0.71201307 2.9164042 0.0 0.0 0.0 1.7040266 0.0 0.0 0.0 0.0 2.3680336 0.0 
0.0 0.0 0.0 2.077968 0.0 0.0 3.3817089 0.0 0.9803554 0.0 0.0 0.51313317 0.0 0.0 0.67586577 0.115671344 
0.0 0.0 0.39115927 0.068262115 0.0 0.23535323 0.0 0.0 0.16282597 0.0 0.0 1.7233075 0.4706285 0.0 0.0 0.0 
0.1509997 0.11007533 0.0 0.24464765 0.0 0.0 0.18677896 0.014124908 0.0 0.14006129 0.05515083 0.0 0.0 0.0 0.0 0.0 
0.09123498 0.15823615 0.0 0.31197566 0.64123356 0.0 0.30695495 0.0 0.24920219 0.39133352 0.83235025 0.17342457 0.0 0.0 0.0 0.0 
0.0 0.02140016 4.2020416 0.0 0.7253719 3.0735567 0.0 0.13188459 0.0 0.0 0.07430924 0.0 0.0 0.52929133 0.7916284 0.0 
0.0 0.0 0.35311738 0.0 0.0 0.0 3.8914273 0.31933373 1.0198613 0.0 0.0 0.6077709 0.017938502 0.0 0.027625456 0.0 
0.0 0.0 0.36061096 0.0 0.0 0.1377962 0.0 0.0 0.65618426 0.0 0.0 2.1004786 0.516748 0.0 0.0 0.0 

