1.1590823 0.6114758 0.0 0.0 0.25559908 0.33130783 0.075400986 0.0 0.0 0.09270671 0.0 0.0 0.0 0.10181791 0.0 0.39839053 
1.4582708 1.5136747 0.36129755 0.0 0.0 0.0 0.0 0.0 0.0 1.649762 0.0 0.0 0.18087517 0.0 0.7132466 2.3223808 
3.766901 0.0 0.0 0.0 0.0 0.0 0.5333525 0.8010749 0.0 0.9842392 0.0 0.0 1.8898418 3.09714 1.2728062 1.3098798 
3.4171932 0.0 0.49936742 0.0 0.0 0.0 0.0 0.7687409 0.0 0.0 0.0 0.0 0.9836876 4.906158 0.0 0.0 
2.028445 0.0 0.0 0.0 0.0 0.013212167 0.0 0.0 0.0 0.4823926 0.0 3.6619668 1.9460249 0.3424044 0.0 0.0 
0.4024014 0.18399546 0.0 0.0 0.0 0.51021105 0.0 0.0 0.38227192 0.5733253 0.7551227 0.0 0.70535934 0.84719825 0.37283665 0.88372266 
0.0 0.72838205 0.0 2.765366 0.0 0.21563527 0.3317802 1.3728726 0.0 0.32267642 1.8995223 0.0 1.8396556 0.49470207 0.04179828 0.5468189 
0.0 0.88978314 0.0 4.529275 0.0 0.0 0.0 1.4096859 2.659169 0.0 1.4335036 0.0 2.464077 0.0 1.7676768 0.0 
0.0 0.43282023 0.6756198 2.0480933 0.0 2.1265848 0.0 0.0 0.99577427 0.020113606 1.3534383 0.0 0.5513202 2.5232878 4.333589 0.0 
0.0 0.0 0.0 2.2800882 0.0 0.0 0.583728 0.0 0.0 0.0 0.80187994 2.822775 0.9077824 0.29709467 2.989587 0.0 
2.912401 4.2045255 0.0 0.0 0.0 0.0 0.49499553 0.0 0.0 1.9032339 0.0 0.49372956 0.0 0.0 0.0 1.6302259 
2.388679 5.1375856 0.0 4.2350826 0.0 0.0 0.30948272 0.8028235 0.0 2.4141986 0.0 0.0 0.0 0.98635006 0.0 0.0 
1.765653 2.727487 0.0 4.1273317 1.6924517 0.0 0.0 0.0 0.20440792 1.5161344 0.0 0.090788424 0.0 0.0 0.0 0.43315488 
1.8992755 1.1271322 3.1898456 0.3761196 2.5359757 2.2425008 0.0 0.0 0.0 1.2499819 0.0 0.23469505 0.0 0.0 0.047188506 0.0 
1.1805692 0.0 0.20317009 0.53138 0.0 0.0 3.079233 1.2037575 0.6368814 0.0 0.0 0.0 0.0 0.0 0.6010389 0.0 
0.6792233 0.0 0.0 0.0 0.0 0.0 0.0 1.5460595 0.0 0.0 0.36647192 0.0 0.8155217 0.19429478 0.0 0.0 
1.3181877 0.0 0.0 0.0 0.0 0.0 0.0 0.0 0.0 0.0 0.0 0.0 0.92421806 1.9724706 2.4400187 0.0 
1.7280145 0.0 0.0 0.0 0.0 0.0 0.0 0.0 0.0 0.0 1.88686 0.0 1.8600619 2.6806874 3.2167027 0.0 
1.678833 0.0 1.573416 0.0 0.0 0.0 0.0 0.8990898 0.0 0.0 2.5026648 0.0 2.9252856 2.0643196 0.0 0.0 
1.135555 0.0 0.36903626 0.0 0.0 0.0 1.0788873 0.99792296 2.478305 0.0 2.144465 0.0 2.2632406 2.1143692 0.0 0.0 
0.0 1.4785455 0.0 2.2465997 0.0 0.0 1.7772056 1.7154835 0.0 0.48936826 3.7584295 0.0 0.05284644 2.2880526 1.4195498 0.0 
0.0 3.3270342 0.0 4.9238935 0.0 0.0 0.0 0.0 0.0 1.1128736 3.0464938 0.0 1.974638 0.94663954 0.2554658 0.0 
0.0 3.4937549 0.0 6.145031 0.0 0.0 0.2943285 0.0 0.0 0.17216277 2.7278743 0.0 2.4630156 0.0 1.1897347 0.0 
0.0 2.0617688 0.0 5.3863907 0.0 0.23782632 0.0 0.0 0.0 1.9531282 3.287431 0.0 0.46851587 0.0 1.1566787 0.17204471 
0.0 0.9815387 0.0 5.6667104 0.8076267 0.5124901 0.0 0.0 0.74367565 1.9020256 2.5939143 0.0 0.0 0.32860634 1.0002561 2.2584534 

