1.2949984 1.7222852 0.341197 1.0529549 0.82285565 0.0 0.21265793 0.0 0.0 0.094685555 0.0 1.5875387 0.0 0.0 0.0 0.6726135 
1.6282612 1.6308663 0.0 1.3626343 1.027929 0.6969864 0.0 0.0 0.102764174 0.278683 0.0 0.93397987 0.0 0.107370906 0.0 0.0 
2.3561816 2.0742984 0.33219218 0.713673 0.6008853 0.15867129 0.0 0.0 0.0 1.2320219 0.0 0.027330875 0.0 0.0 0.0 0.7072325 
2.3532472 2.4305904 0.26910457 0.24227859 0.892803 0.0 0.276749 0.1960605 0.0 1.104316 0.0 1.1944035 0.0 0.0 0.0 1.3921859 
1.2345105 0.0 0.40194222 0.2423642 1.475674 0.5349151 0.0 0.0049477816 0.0 0.5011612 0.0 1.3518344 0.592575 0.48300138 0.0 0.0 
2.484059 0.0 0.0 0.0 0.0 0.0 0.7261792 0.65884775 0.0 0.0 3.497367 0.0 1.2124666 4.1971593 1.6982375 0.0 
3.6601136 0.0 0.0 0.0 0.0 0.0 0.0 0.0 0.0 0.7616778 2.9762042 0.0 2.7216573 4.064077 0.0 0.0 
2.7738047 0.0 1.1046882 0.0 0.0 0.0 0.0 0.0 0.0 0.8589473 1.8149376 0.0 2.360041 2.4366014 0.7409474 0.0 
1.805069 0.0 1.1345185 0.0 0.0 0.0 1.4491502 0.0 0.56396896 0.0 0.4491047 0.0 2.2390678 0.7164325 1.1478426 0.0 
0.7839159 0.0 0.9374244 0.39442474 0.0 0.0 0.0 0.0 2.2476132 0.0 0.601466 1.3621377 1.5807841 0.44536862 0.0 0.0 
0.0 1.3510567 0.0 2.6998322 0.0 0.0 0.103407346 0.0 0.0 1.7556473 2.5365374 0.0 0.6685795 0.0 3.0118763 0.0 
0.0 1.9707357 0.0 3.6855397 0.0 0.0 0.0 0.0 0.0 2.5966918 3.0696495 0.0 0.7795425 0.0 2.1576998 0.0 
0.0 2.7890403 0.0 3.1618943 0.7557936 0.96270436 0.0 0.0 0.0 2.8381672 2.4334059 0.0 0.0 0.0 1.1356037 0.32154873 
0.0 1.0272778 0.0 3.8870473 0.0 0.0 1.9597764 0.0 0.0 1.5442704 0.0 0.0 0.0 0.0 1.3442358 0.0 
0.0 0.0 0.0 0.5232669 0.0 0.42559284 0.0 0.0 1.1142821 0.0 0.12792313 0.20709935 0.0 0.0 0.0 0.3174499 
0.1447061 0.41572586 0.0 1.2905122 0.0 0.0 0.6764173 0.0 0.0 1.6632748 0.0 0.0 0.0 0.0 0.0 0.0 
0.0 0.2745616 0.0 1.2171314 0.7748432 0.027689457 0.69284827 0.0 0.0 1.6347893 0.10631855 0.0011290461 0.0 0.0 0.0 0.12295096 
0.0 0.3966882 3.2529843 0.0 1.2699624 1.2628696 0.0 0.0 0.0 1.0460631 0.0 0.0 0.0 0.0 0.12048428 1.004869 
0.0 0.0 1.0601705 0.13617426 0.0 0.0 4.365121 0.5789457 2.0076883 0.0 0.0 0.0 0.37142336 0.0 0.0234278 0.0 
0.0 0.0 0.27906355 0.0 0.0 0.15965766 0.0 0.0 2.0604918 0.0 0.17997877 0.53467226 0.14864202 0.17923483 0.0 0.0 
0.0 0.0 0.0 0.0 0.0 0.0 0.0 0.0 0.0 0.0 0.0 0.0 0.0 0.0 0.0 0.0 
0.04906934 0.023046335 0.0 0.0 0.82799417 0.8639167 0.11166409 0.0 0.0 0.0 0.1798788 0.027684003 0.0 0.0 0.0 0.0 
0.0 0.6108437 2.3514073 0.0 0.16791347 1.2714238 2.1411629 1.5001907 0.0 0.09856798 0.0 0.0 0.0 0.0 0.0 0.24596132 
0.0 0.0 0.0 0.0 0.0 0.0 4.091208 0.6153883 2.2702367 0.0 0.0 0.34795013 0.0 0.0 0.0 0.0 
0.0 0.0 0.0 0.15289737 0.0 0.9156861 0.0 0.0 1.0633482 0.0 0.17731673 0.0643937 0.0 0.26724184 0.0 0.027533185 

