0.0 0.5279552 3.170951 0.0 1.0147176 1.3600335 0.0 0.0 0.0 0.0 0.0 0.056732982 0.0 0.70084405 1.8903375 0.07416305 
0.39443135 0.0 3.901546 0.0 0.0 0.0 3.8810825 0.0 0.0 0.0 0.0 0.0 0.7533 0.4417875 2.54538 0.0 
0.40762746 0.0 0.45158917 0.13492025 0.0 0.0 0.0 0.0 2.9196553 0.0 0.0 2.283465 0.90385956 0.0 0.0 0.0 
0.7169946 3.0363865 1.869644 0.9247353 0.19002458 0.11339514 0.0 0.0 0.2638535 0.0 0.0 1.1679151 0.10883123 0.0 0.0 0.70354915 
0.46935108 1.6882033 0.0 1.2343181 1.9096754 0.896134 0.22206898 0.0 0.0 0.5682247 0.39605176 1.2707872 0.0 0.16948393 0.0 0.0 
0.0 0.0 3.5735998 0.0 1.448451 1.4511921 0.0 0.0 0.0 0.7000658 0.119579226 0.031445295 0.0 0.0 0.0 0.0 
0.006435033 0.0 3.7398636 0.0 0.0 0.0 4.5273147 0.0 1.4366443 0.0 0.0 0.0 0.0 0.0 0.564034 0.0 
0.3990294 0.0 0.21997523 0.0 0.0 0.0 0.0 0.0 3.1378887 0.0 0.0 0.0 0.23620467 0.19712844 0.0 1.4253432 
3.106116 0.06925554 0.0 0.0 0.0 0.0 0.0 0.20988868 0.0 0.018197846 0.0 0.12421431 0.57480866 2.2789497 0.0 0.47509533 
2.470484 0.0 0.7929074 0.0 0.0 0.0 0.0 0.0 0.0 0.7845887 0.0 3.583605 2.153154 0.0 0.0 0.0 
0.0 0.0 3.7039309 0.0 1.2794617 2.6347592 0.0 0.0 0.0 0.16394448 0.52994543 0.0 0.0 0.0 0.0 0.0 
0.0 0.0 2.2772233 0.0 0.0 0.0 4.1297474 0.0 2.8598485 0.0062836185 0.0 0.0 0.0 0.0 0.10971959 0.0 
0.0 0.0 0.0 0.0 0.0 0.0 0.0 0.0 1.9260002 0.0 0.0 0.58895004 1.5668582 0.0 0.0 1.8121278 
0.0 0.0 1.1818217 0.0 0.0 1.4509957 0.0 0.0 1.030453 0.0 0.0 0.58072674 1.4692223 1.8201492 2.3684359 0.0 
0.007818561 0.0 0.50915605 0.7340776 0.0 0.0 0.176927 0.0 0.0 0.0 0.0 1.9680632 1.0662048 0.37232316 2.6142704 0.0 
0.0 0.0 1.8947904 0.0 0.5949522 2.8374531 0.0 0.0 0.0 0.0 1.6627727 0.09026283 0.0 0.70323664 0.0 0.0 
0.0 0.0 0.8873675 0.0 0.0 0.0 1.3226523 0.049587026 0.0 0.0 2.1838906 0.0 0.0 1.0505205 0.0 0.0 
1.4510074 0.0 0.0 0.0 0.0 0.0 0.3599166 0.395783 0.0 0.0 0.0 0.58727527 0.0 1.3498081 0.0 0.0 
1.0378238 0.0 0.20230654 0.0 0.0 1.6667798 0.0 0.0 1.2243798 0.0 0.0 1.666494 0.0 0.0 0.0 0.0 
0.0 0.0 1.7135499 0.0 0.0 0.0 1.1498157 0.0 1.0874232 0.0 0.0 0.0 1.17902 0.0 1.2517285 0.0 
0.0 1.0185894 0.0 0.0 0.123639815 1.2053955 0.0 0.3022759 0.0 0.0 1.4191842 0.4594253 0.0 0.0 0.0 0.0 
0.0 1.5739686 0.0 1.1014602 0.0 1.3277206 0.0 0.5160698 0.0 0.08736931 4.3281465 0.0 0.0 1.4679823 0.2923789 0.0 
0.0 0.9782789 0.0 1.4334954 0.0 0.22402516 0.0 0.0 0.0 0.0 4.275457 0.0 0.8443978 3.581433 2.3528523 0.0 
0.0 1.5866865 0.0 4.7467666 0.0 0.0 0.0 0.0 0.0 0.0 5.1916003 0.0 1.96859 2.097233 0.619259 0.0 
0.0 1.151524 0.6085122 5.748505 0.0 0.0 0.6729338 0.0 3.6522322 0.0 2.680732 0.0 2.1567333 1.013014 0.0 1.4745724 

