1.1542134 1.0310317 1.4485984 0.0 0.37030572 0.0 0.0 0.0 0.0 0.89128476 0.0 0.0 0.0 0.0 0.78594375 2.4147892 
3.386915 1.6007662 0.8576431 0.0 0.0 0.0 0.0 0.12675546 0.0 0.8988536 0.0 0.0 1.0394276 0.4423453 0.97453684 1.8296579 
4.750805 0.0 0.0 0.0 0.0 0.0 0.0 0.053533733 0.0 1.0228028 1.1736231 0.0 1.9639604 4.918315 0.0 0.0 
4.792664 0.0 0.0 0.0 0.0 0.0 0.0 0.0 0.0 1.4024894 2.049073 0.0 2.8368795 5.48305 0.0 0.0 
4.123925 0.0 0.0 0.0 0.0 0.0 0.0 0.0 0.0 1.292141 0.676278 0.0 3.0825274 4.241028 0.0 0.0 
0.3016612 0.0 0.62427807 0.0 0.0 1.5526214 0.0 0.5180934 0.0 0.5775313 1.9769937 0.0 0.68198216 1.6562774 0.11653407 1.2843982 
0.08724053 0.0 0.0 0.0 0.0 0.0 0.0 2.253662 0.0 0.0 0.26496765 0.0 2.6522985 1.2195818 0.33986914 0.0 
0.0 0.0 0.0 0.0 0.0 0.0 0.0 0.0 0.0 0.0 0.8186844 0.35067055 2.9992063 0.0 0.3222416 0.0 
0.0 1.1612494 0.0 6.275857 0.0 0.37903824 0.0 0.0 0.0 2.0764596 4.5092883 0.0 2.0119233 1.864226 1.7317599 0.0 
0.0 1.114431 0.0 6.7005024 0.22493902 0.41799736 0.0 0.0 0.0 2.0725927 3.5227027 0.0 1.2979755 1.2789273 2.0784848 0.8628761 
0.0 1.9987861 0.0 1.5477751 0.0 1.0466976 0.0 1.4400455 0.0 0.80585206 3.589905 0.19305456 0.18422781 0.47784886 0.18444134 0.0 
0.0 1.324753 0.0 1.5213326 0.0 2.0378265 0.43146956 0.98329705 0.0 0.0 3.8368802 0.0 0.0 4.3704414 3.5503628 0.0 
0.025770497 0.0 0.0 0.0 0.0 0.9515862 0.0 0.0 0.0 0.43910384 1.9186376 0.0 0.0 3.7062542 2.2386546 0.0 
0.0 0.0 0.0 0.0 0.0 0.0 0.0 0.0 0.0 3.0483325 0.0 4.3607607 1.7116189 0.0 0.0 0.0 
0.6298024 0.0 0.4532689 1.5041887 1.012815 1.3202319 0.0 0.0 0.0 2.2424352 0.0 2.12629 1.2427511 0.3672957 0.0 0.3789293 
0.78084916 2.0527625 0.0 1.9749564 0.0 0.0 0.3815608 0.052976556 0.09424126 1.3820504 0.0 0.21498221 0.0 0.0 0.0 0.0 
0.7427137 3.354703 0.0 2.129237 0.53044814 1.2304943 0.20126131 0.0 0.16258171 1.0891135 0.0 0.7689092 0.0 0.0 1.0852913 0.0 
0.0 3.282921 2.0241752 0.6999888 0.06378735 2.6783276 0.0 0.0 0.0 1.2502586 0.19130027 0.0 0.0 0.53593016 4.9042034 0.0 
0.0 0.0 0.0 1.2984617 0.0 0.0 0.15046269 0.0 0.0 0.0 0.0 2.2019475 0.2661361 0.0 3.1350896 0.45383197 
0.3300186 0.0 0.9009952 0.0 0.0 0.045760065 0.0 0.0 0.0 0.0 0.0 3.9789948 1.4606223 0.17018557 0.0 0.0 
2.0208042 1.0147969 0.0 0.0 0.0 0.97351676 0.0 0.0 0.0 0.0 1.1106385 0.0 0.20665608 3.4614933 0.11241795 0.054361608 
3.5755062 1.4693482 0.0 0.0 0.0 0.0 0.0 0.0 0.0 1.8085269 1.4707171 0.0 0.3935187 3.6140625 0.0 0.0 
2.8455818 0.0 1.0163761 0.0 0.0 0.0 0.0 0.0 0.0 2.9128704 0.36059088 0.0 2.1570387 0.9886414 0.075220555 0.0 
0.0 0.0 0.9071402 0.0 0.0 0.0 1.003105 0.9906575 2.6762795 0.6335659 0.0 0.0 2.3073869 0.80446815 1.6927341 0.0 
0.0 0.0 0.014427137 0.0 0.0 0.0 0.0 0.0 3.595945 0.0 0.18550406 1.3085713 0.76659906 0.15816674 0.0 0.0 

