0.2940664 0.0 0.0 0.0 0.23795947 0.22368649 0.017270552 0.0 0.0 0.0 0.0062414613 0.0 0.0 0.0 0.0 0.0 
0.57593507 0.22685665 0.60011107 0.0 0.047738515 0.09597686 0.0 0.0 0.08859676 0.3082118 0.0 0.0 0.5638257 0.021943472 0.49732035 1.9688796 
1.3010845 0.0 0.0 0.0 0.0 0.0 0.08068081 0.0 0.0 0.0 0.0 0.0 1.1811143 2.9094245 2.334177 0.0 
1.4214447 0.0 0.0 0.15786858 0.0 0.0 0.0 0.0 0.0 0.0 0.19917713 1.5874484 1.4387152 1.145814 1.0919609 0.0 
1.0403174 0.0 1.1581634 0.0 0.0 0.0 0.0 0.0 0.7679491 0.0 0.0 2.3903232 1.5777386 0.11362035 0.0 0.0 
0.0 0.0 0.0 0.0 0.4036492 0.27226636 0.0 0.0 0.0 0.0 0.85048413 0.23204935 0.0 0.0 0.0 0.0 
0.0 0.0 0.5167603 0.0 0.0 2.4625368 0.0 0.28163058 0.0 0.26219195 0.35734847 0.0 0.0 0.5193101 0.0 0.0 
0.0 0.0 0.0 0.0 0.0 0.0 0.0 0.0 0.0 1.234818 0.0 0.0 0.19259025 0.0 0.5557146 0.0 
0.0 0.0 0.0 0.067122534 0.0 0.0 0.85839885 0.0 1.8290429 0.0 0.0 0.44743142 0.5205614 0.0 1.4593316 0.0 
0.0 0.0 0.0 0.767059 0.0 0.6955077 0.0 0.0 1.754667 0.0 0.8256801 0.8728509 0.37475568 0.2281836 0.0 0.79587907 
0.40708914 0.3312274 0.0 0.0 0.829506 0.0 0.33369806 0.0 0.0 0.0 0.2884484 0.38936064 0.0 0.0 0.0 0.0 
0.0 1.0792475 2.3248484 0.0 0.22598472 1.3957233 0.0 0.0 0.0 0.7765073 0.0 0.0 0.0 0.0 1.0984045 0.96294546 
0.09446286 0.0 0.0 0.0 0.0 0.0 2.4679966 0.291269 0.0 0.0 0.0 0.0 0.0 0.55146575 0.0 0.0 
0.0 0.0 0.0 0.0 0.0 0.0 0.0 0.0 2.0226507 0.0 0.0 2.8185146 0.9141279 0.0 0.0 0.0 
0.0 0.0 0.0 0.72227114 0.5841695 1.392782 0.0 0.0 0.0 0.0 0.3465909 1.484067 0.80741775 0.44250247 0.0 0.15479293 
0.39714575 0.4704262 0.13496387 0.0 0.88207805 0.19164038 0.0 0.0 0.20631695 0.402027 0.0 0.0 0.0 0.0 0.17194267 1.477874 
0.0 0.15508658 0.32453483 0.0 0.0 0.0 2.5835614 1.538775 0.0 0.91233504 0.0 0.0 0.0039867163 0.0 0.0 2.223679 
0.0 0.0 0.64654136 0.0 0.0 0.0 2.225188 0.36138225 1.7028694 0.0 0.0 0.0 0.0 0.814903 1.675453 0.0 
0.0 0.0 0.0 0.0 0.0 0.0 0.0 0.0 0.46148786 0.0 0.0 1.5596455 0.39050514 0.0 1.891756 0.0 
0.29296443 0.0 0.6957757 0.0 0.0 0.16203573 0.0 0.0 0.0 0.0 0.0 3.2872837 1.3141648 0.19463798 0.0 0.0 
0.0 0.0 0.0 0.0 0.7036061 2.0465662 0.0 0.6348352 0.0 0.14258412 1.7352134 0.0 0.016308628 0.3626286 0.0 0.24998663 
0.0 0.0 0.16093731 0.47267148 0.0 0.08432959 2.736685 2.0905585 1.61145 0.0 2.798441 0.0 0.0 1.3126191 0.0 0.0 
0.0 0.0 1.1859039 0.0 0.0 2.2462962 0.0 0.0 2.6441088 0.0 3.0014508 0.0 0.56070334 0.515463 0.0 0.0038054069 
0.0 0.0 0.4748391 0.1835863 0.0 0.0 2.191457 0.0 2.4114318 0.0 1.4032158 0.0 0.82794625 1.0529375 1.7216103 0.0 
0.0 0.0 0.091217265 0.64096415 0.0 0.0 0.0 0.0 3.0189056 0.0 1.2197545 1.3819458 1.0286204 0.3518016 0.0 1.0979067 

