1.0753098 0.8797206 1.6504505 0.0 0.51215494 0.21082166 0.0 0.0 0.0 0.9331816 0.0 0.0 0.0 0.16259417 0.9514497 2.766011 
2.7393074 1.4520661 0.92513627 0.0 0.0 0.0 1.1285505 0.0 0.0 0.7338754 0.0 0.0 0.53228396 1.7352188 0.5971657 1.8921751 
3.0626185 0.0 1.3154782 0.0 0.0 0.0 0.0 0.0 0.0 0.2509877 0.0 0.04097586 0.7443996 2.7883272 0.0 0.0 
1.5527704 0.0 0.0 0.0 0.7354704 0.6242066 0.0 0.0 0.0 0.45844203 0.0 2.7369862 1.7194444 0.0 0.0 0.0 
0.74644864 0.0 0.7055881 0.44664052 0.7735126 0.8355648 0.0 0.0 0.0 0.0 0.27549374 0.013341777 0.16677484 0.8033825 0.0 0.0 
0.0 0.0 2.193842 0.0 0.6109598 2.215757 0.0 0.9308227 0.0 0.02463441 0.0 0.0 0.31563675 0.0 0.73433566 1.3354911 
0.0 0.0 0.0 0.0 0.0 0.0 1.6462575 1.6021978 0.080510184 0.0 0.0 0.018235847 1.6464059 0.0 0.34759408 0.0 
0.0 0.0 1.2461522 0.0 0.0 0.0 0.0 0.0 0.5889174 0.0 0.0 0.0 0.9839141 0.82464385 2.8279338 0.0 
0.0 0.0 0.0 0.0 0.0 0.0 0.7600985 0.0 1.1101519 0.0 0.0 3.7221775 1.450369 0.0 0.07122445 0.0 
0.29793942 0.0 1.0667776 0.0 0.0 0.27472922 0.0 0.0 0.29279622 0.0 0.0 1.8465744 0.5826251 0.3164488 0.0 0.0 
0.0 0.31635866 0.6429977 0.0 0.0 2.732227 0.20036586 1.3728497 0.0 0.0 1.6486027 0.0 0.0 2.1609452 0.81097424 0.0 
0.29786336 0.0 0.0 0.0 0.0 0.0 2.4607685 1.6649833 0.0 0.27178505 5.219016 0.0 0.0 2.2905376 0.68743557 0.0 
0.0 0.0 3.4072683 0.0 0.0 1.9540522 0.0 0.0 0.0 0.0 1.6433282 0.0 1.2809652 3.0812683 0.41272002 0.0 
0.0 0.0 0.0 0.0 0.0 0.0 1.9655668 0.0 2.8192904 0.0 0.0 1.6694726 1.3416886 0.0 0.0 0.0 
0.0 0.0 0.29551885 0.27446234 0.0 0.48780668 0.0 0.0 0.0 0.0 0.0 2.6374876 1.0228746 0.39300177 0.0 0.0 
0.25522578 1.2630421 0.07048577 1.1331195 0.0 0.81022733 0.11343696 0.06669244 0.0 0.63841575 0.6919282 0.32847425 0.0 0.0 0.04485935 0.0 
0.0 1.4276708 0.0 1.4062799 0.0 0.0 0.2002265 0.0 0.0 1.386055 3.8975697 0.0 0.0 0.0 1.8302392 0.0 
0.0 1.06624 1.2129743 3.341679 0.0 3.3271997 0.0 0.0 0.0 2.2400842 2.8993063 0.0 0.0 1.4961618 2.4465988 0.0 
0.0 0.0 0.0 1.5444725 0.0 0.0 1.9020365 0.0 0.6375029 0.0 0.0 0.63488305 0.10987122 0.0 1.3316138 0.029505327 
0.05984963 0.0 0.117892295 0.08248091 0.0 0.2963405 0.0 0.0 0.0 0.0 0.0 4.0486507 1.1390737 0.2800612 0.0 0.0 
0.33306947 0.23637636 0.0 0.5553591 0.0 0.0 0.45930284 0.08213472 0.0 0.5946207 0.11466965 0.0 0.0 0.0 0.0 0.0 
0.30419978 0.39048725 0.0 0.98799694 0.09193166 0.0 0.64934725 0.06800534 0.047104653 1.5264657 0.47029465 0.19846696 0.0 0.0 0.0 0.0 
0.0 0.40301538 1.8643514 0.0 0.5319133 4.2316685 0.0 0.0 0.0 0.97288287 1.0235547 0.20047632 0.0 0.0 0.9586802 0.0 
0.0 0.0 2.8358433 0.0 0.0 1.0878499 2.4507563 0.0 0.0 0.0 0.9325695 0.0 0.0 1.5777562 2.2354429 0.0 
0.1713612 0.0 0.0 0.0 0.0 0.0 0.0 0.0 0.27811745 0.0 0.0 2.7103508 1.3937994 0.060273364 0.0 0.0 

