1.9166815 0.9327186 1.9836653 0.0 0.0 0.0 1.5636618 0.0 0.0 1.3522149 0.0 0.0 1.4585384 0.0 0.9574544 2.418049 
3.690436 0.0 0.0 0.0 0.0 0.0 0.0 0.1742736 0.0 0.57994866 0.5916071 0.0 2.25666 3.3349135 0.53999025 0.0 
3.444439 0.0 0.0 0.0 0.0 0.0 0.0 0.19514541 0.0 0.0 2.269315 0.0 2.195647 6.166617 0.074854895 0.0 
3.4419718 0.0 0.24894911 0.0 0.0 0.0 0.0 0.0 0.0 0.07335155 0.0 1.0939515 0.95562285 4.137472 0.0 0.0 
1.8196387 0.0 0.0 0.43673578 1.0011481 1.3130932 0.0 0.0 0.0 0.54316705 0.0 2.912071 1.8170218 0.0 0.0 0.0 
0.0 0.0 1.7245451 0.36690813 0.0 0.0 3.5328648 1.3034613 0.0 0.0 0.0 1.1218207 1.9168775 0.0 0.9829442 0.0 
0.0 0.0 0.0 2.3510413 0.0 0.2957444 0.0 0.49322075 2.810157 0.13086829 1.8105993 0.8080721 1.797888 0.0 1.4063736 0.0 
0.0 0.57179517 0.0 2.4409575 0.0 0.80762196 0.0 0.0 0.0 0.81273264 3.6195993 0.0 1.1496449 2.4391623 4.132264 0.0 
0.0 0.0 0.0 0.77153105 0.0 2.6625934 0.0 0.0 0.0 0.0 2.4852993 0.0 0.21278112 4.3601866 5.4540653 0.0 
0.19908638 0.0 0.0 1.0068572 0.0 0.0 0.0 0.0 0.0 0.0 0.0 4.6238675 2.146145 0.28237295 1.4362742 0.0 
0.0 0.0 2.9153447 1.1737682 0.0 0.0 3.2821941 1.7456849 1.6089562 0.05677786 0.0 0.65410686 0.0 0.0 0.0 0.0 
0.0 0.0 0.0 1.4388208 0.0 1.170896 0.0 0.0 3.097631 0.0 0.0 2.7149832 0.0 0.0 0.0 0.0 
0.66411936 2.0643053 0.0 1.7811778 1.3793187 0.26073802 0.016664786 0.0 0.0 0.65498364 0.0 0.3867623 0.0 0.0 0.0 0.0 
0.2419415 2.6345277 2.8818924 0.5694205 1.976266 1.894496 0.0 0.0 0.0 1.8714025 0.0 0.0 0.0 0.0 4.330146 0.4152259 
0.0 0.0 1.0151628 1.0880787 0.0 0.0 2.6499176 0.0 0.0 0.67086345 0.0 0.0 0.0 0.0 3.8739278 0.0 
0.38951007 0.0 2.5083845 0.0 0.0 1.8159249 1.8632957 0.46886766 0.0 0.0 1.1640975 0.0 0.0 2.9768465 1.7365532 0.0 
2.0710053 0.0 0.0 0.0 0.0 0.0 0.0 0.0 0.0 0.0 0.0 2.1783483 0.78449583 2.2965162 0.0 0.0 
3.0686817 0.07440967 0.0 0.0 0.28030849 0.0 0.0 0.0 0.0 1.9106234 0.0 0.0 1.4059448 0.815514 0.0 0.0 
2.0804095 0.0 0.0 0.0 0.0 0.0 0.0 1.6495119 0.0 2.3700716 0.0 0.0 2.376993 0.0 0.0 0.0 
0.019632388 0.0 0.6391414 0.0 0.0 0.0 1.5636376 1.8246747 4.053623 0.0 0.43294233 0.0 2.0579634 0.12639499 0.31109005 0.0 
0.0 1.2716061 1.5613055 0.3386965 0.0 1.7981389 0.5239624 0.0 0.0 0.0 2.9932325 0.0 0.55813867 2.331704 3.578282 0.0 
0.0 1.5455457 0.0 2.8527796 0.0 0.0 0.0 0.0 0.0 0.0 4.4689245 0.0 2.384332 3.192282 3.3029962 0.0 
0.0 2.6087568 0.0 5.344021 0.0 0.0 0.0 0.0 0.0 0.0 4.0366936 0.0 3.9839506 2.1393507 0.6548102 0.0 
0.0 2.6362925 0.0 6.610013 0.0 0.0 0.0 0.99565727 0.0 0.016558398 3.847708 0.0 2.4276745 1.0336543 0.0 0.0 
0.0 0.9461481 0.0 4.593594 0.43807888 0.272696 0.0 0.0 2.6624007 0.0 2.204979 0.0 0.14815883 0.5506087 0.0 2.7556274 

