2.0774465 2.1850405 0.8477167 0.0 0.0 0.0 0.0 0.0 0.0 1.2213982 0.0 0.0 0.0 0.09462682 0.21208306 2.043701 
3.5191712 2.994874 0.0 0.0 0.0 0.0 0.37235367 0.0718378 0.0 0.30030382 0.0 0.0 0.0 2.5652583 0.0 0.94225997 
2.9329777 1.3171794 0.0 0.0 0.0 0.0 0.0 0.20067869 0.0 0.93298066 0.0 0.5154259 0.2677608 1.4868178 0.0 0.0 
2.167238 0.22753651 0.8280218 0.5190675 0.80018574 0.7337788 0.0 0.0 0.0 0.542131 0.0 1.282039 0.9053034 0.0 0.0 0.0 
0.93837816 0.40460247 0.13258725 0.77254546 0.93307465 0.6963527 0.0 0.0 0.0 0.12905201 0.22863111 1.3343678 0.036253907 0.20142531 0.0 0.0 
0.0 0.0 0.8583204 0.0 0.0 0.0 0.917834 1.080279 0.0 0.88499475 0.0 1.0486891 1.8754663 0.0 0.4766401 2.4301853 
0.0 0.0 0.0 0.580614 0.0 0.7701799 0.0 0.30051047 0.9291635 0.0 1.4645783 0.0 2.141474 3.019272 1.0451148 0.0 
0.6990962 0.11430907 0.0 1.3643216 0.0 0.26936066 0.0 0.0 0.0 0.0 0.835902 0.0 1.4847978 3.181995 2.5432308 0.0 
1.1115777 0.0 1.1679871 0.0 0.0 0.0 0.0 0.0 0.0 0.0 0.0 1.1675699 1.5635548 1.0754145 1.3806959 0.643646 
1.1843758 0.0 0.0 0.0 0.0 0.0 0.70758694 0.0 0.8626571 0.0 0.0 2.4866536 1.1279187 0.0 0.0 0.0 
1.3806524 0.0 0.0 0.0 0.0 0.0 2.469029 2.5286865 0.0 0.09614985 1.2737203 0.0 0.0 3.024176 0.0 0.0 
2.2235577 0.9505444 0.0 0.0 0.0 0.0 0.0 0.0 0.8935634 1.2698513 0.0 1.1225064 0.0 0.38945362 0.0 0.0 
0.8802443 1.0365767 0.0 0.13393234 0.3445765 0.13294098 0.0 0.0 0.0 2.3863935 0.0 0.0 0.0 0.0 1.7026889 0.0 
0.0 0.0 1.5611098 0.0 0.0 0.0 1.2969593 0.0 0.0 0.72389585 0.0 0.0 1.280852 0.0 2.5074048 0.37608287 
0.34475407 0.0 0.0 0.0 0.0 0.0 0.0 0.0 2.450108 0.0 0.0 1.6425213 1.412012 0.20520213 0.0 0.0 
0.0 1.2339803 0.12886386 1.1727165 0.0 0.0 1.8271313 0.0901119 0.0 0.0 3.9408457 0.0 0.39600486 3.4889388 3.282206 0.0 
0.0 2.6948197 0.0 4.045689 0.0 0.0 0.0 0.0 0.0 0.0 3.88637 0.0 2.3299258 4.227287 3.1521766 0.0 
0.0 2.8823175 0.0 3.8346355 0.0 0.42314923 0.0 0.0 0.0 0.0 3.3217432 0.0 1.9355755 1.9097297 0.0 0.0 
0.0 1.4255883 1.9045471 3.9929798 0.0 0.0 3.236889 0.0 0.0 0.0 0.25372076 0.0 1.061767 0.0 0.4999947 0.0 
0.0 0.0 0.0 0.9576078 0.0 0.65753466 0.14845833 0.0 2.3096216 0.0 0.14295039 0.52214074 0.2171442 0.38179567 0.0 0.19262807 
0.4124008 1.1946169 0.0 2.4546397 0.0 0.0 0.7819705 0.0 0.07297827 2.0636287 0.0 0.0 0.0 0.0 0.0 0.0 
0.0 1.0943464 0.0 4.004357 0.11908954 0.047195792 0.84225446 0.0 0.010472562 3.4855518 0.06771437 0.0 0.0 0.0 0.43494618 0.5825134 
0.0 0.24331956 0.0 2.0375967 1.2444044 3.3666108 0.0680749 0.0 0.0 3.3604882 0.79729337 0.0 0.0 0.0 0.0 0.40885514 
0.00051184 0.0 2.9677308 1.1115044 0.0 1.7968383 3.3377836 0.11661996 0.0 1.1630498 0.0 0.0 0.0 0.6784991 0.68576103 0.0 
0.3795028 0.0 0.0 0.0 0.0 0.146963 0.0 0.0 0.24287307 0.0 0.0 1.9213055 0.76678056 0.0 0.0 0.0 

