0.0 0.0 0.0 0.0 0.0 0.0 0.0 0.0 0.0 0.0 0.0 0.0 0.0 0.0 0.0 0.0 
0.43083996 0.0 0.0 0.0 0.76889646 1.2276607 0.26446098 0.0 0.0 0.0 0.034426466 0.0 0.0 0.48370817 0.39523578 0.0 
1.0962117 0.3638286 3.2144303 0.0 0.0 0.3578373 1.950736 0.0 0.0 0.20527676 0.0 0.0 0.15626878 0.57032186 1.631876 1.2781918 
0.99606854 0.0 0.0 0.0 0.0 0.0 2.3526683 0.0 0.6532123 0.2261492 0.0 2.7613208 1.0640421 0.0 0.0 0.0 
0.6814963 0.0 1.1277124 0.0 0.0 0.53099704 0.0 0.0 0.0 0.0 0.0 0.95014155 0.61535275 0.4120984 0.0 0.0 
0.0 0.0 0.0 0.006416198 0.0 0.0 0.18949376 0.0 0.0 0.0 0.0012122821 0.0 0.0 0.0 0.0 0.0 
0.0 0.25915754 0.11433998 0.0 1.0735729 1.1998949 0.0 0.0 0.081803516 0.0 0.3252555 0.21333182 0.0 0.0 0.48968875 0.34139884 
0.0 0.42538834 4.230242 0.0 0.0 0.8654962 4.4022126 0.6106701 0.0 0.0 0.0 0.0 0.9230292 0.0 2.0498478 0.0 
0.0 0.0 0.0 0.0 0.0 0.0 2.479277 0.0 3.0879571 0.0 0.0 1.0894042 0.7866078 0.27839872 0.0 0.0 
0.0 0.0 0.55300885 0.5387013 0.0 0.22943509 0.0 0.0 0.07888621 0.0 0.45265543 1.3995488 0.45737153 0.024544448 0.0 0.0 
0.103535354 0.0 0.0 0.0 0.5292829 0.042090163 0.25264582 0.0 0.0 0.0 0.0 0.0 0.0 0.0 0.0 0.0 
0.17044765 0.71307707 1.6684254 0.0 1.309651 0.3916033 0.0 0.0 0.0 0.95005727 0.0 0.105161935 0.0 0.0 0.0 1.6053735 
0.0 0.4489426 3.5111544 0.0 0.0 0.0 5.268197 1.4426204 0.0 0.9448488 0.0 0.0 0.19218527 0.0 0.0 0.0 
0.0 0.0 0.0 0.0 0.0 0.1262836 0.5498912 0.0 3.6113474 0.0 0.0 0.0 0.023898005 0.0 0.0 0.0 
0.0 0.0 0.0 0.5011974 0.0 0.16888958 0.0 0.0 0.0 0.0 0.0 0.3064586 0.4406247 0.0 0.0 0.13078628 
0.0014896989 0.03149136 0.0 0.0 1.2197068 0.21298772 0.22880284 0.0 0.0 0.0 0.03060458 0.0 0.0 0.0 0.0 0.0 
0.0 0.4321398 2.3522115 0.0 0.96229887 0.0 0.7019376 1.2256942 0.0 0.35114363 0.0 0.0 0.0 0.0 0.14646436 1.4308096 
0.0 0.0 0.44786447 0.033661544 0.0 0.0 4.5955057 2.3836544 3.0973556 0.0 0.0 0.0 0.747899 0.0 0.0 0.0 
0.0 0.0 0.0 0.0 0.0 0.42673236 0.0 0.0 4.37053 0.0 0.49883988 0.0 0.0 0.25905606 0.0 0.80653673 
0.0 0.0010748233 0.0 0.40585884 0.0 0.0 0.0 0.0 0.0 0.0 0.13926572 0.5044594 0.18188332 0.0 0.0 0.5421895 
0.09375812 0.0 0.0 0.0 0.9115103 1.3305824 0.0 0.0 0.31062245 0.0 1.4522198 0.0 0.0 0.0 0.0 0.010920453 
0.0 0.0 1.0093457 0.009234671 0.0 2.4461687 3.4202878 2.3563643 0.0 0.18289147 1.4133216 0.0 0.0 1.4355313 0.0 0.0 
0.0 0.0 0.0 0.0 0.0 0.0 3.7929978 1.3587921 3.719746 0.0 0.90152377 0.0 0.0 0.44722632 0.0 0.0 
0.0 0.0 0.0 0.15789807 0.0 0.80616826 0.0 0.0 0.7806225 0.0 0.09018242 0.12636466 0.442263 0.0 0.0 0.5057643 
0.0 0.08567815 0.0 0.25445825 0.0 0.0 0.0 0.0 0.0 0.0 0.0 0.0 0.0 0.0 0.0 0.13360578 

