0.54817545 0.4203274 0.19354561 0.0 0.3024775 0.032893732 0.15382211 0.0 0.0 0.0 0.0 0.04116279 0.0 0.045267336 0.0 0.07406553 
1.8851159 1.8479269 0.7367197 0.0 0.0 0.0 0.0 0.0 0.0 0.95779896 0.0 0.0 0.0 0.0 0.047133476 1.9120079 
3.0072465 3.168235 0.0 0.0 0.12834436 0.0 0.12193276 0.3837515 0.0 0.2819856 0.0 0.057245255 0.0 0.848196 0.0 0.8781763 
2.293954 1.360612 0.4521252 0.0 0.99285805 0.14804603 0.0 0.0 0.0 0.83506197 0.0 2.6743526 1.3697817 0.0 0.0 0.0 
1.1589339 0.0 0.36040333 0.5754172 1.0969166 1.1518195 0.0 0.0 0.0 0.38785732 0.34417862 1.9444116 1.1007589 0.70364803 0.0 0.0 
0.64581823 0.53005165 1.2219522 0.0 0.51240987 0.59876484 0.0 0.0 0.04175027 0.49182642 0.0 0.0 0.0 0.04691556 0.48133284 1.1608379 
0.38047418 0.0 1.2414027 0.0 0.0 0.0 1.42689 0.0 0.0 0.8708437 0.0 0.68577147 1.1928498 0.0 0.6305137 2.9812083 
0.31209505 0.0 0.92057735 0.0 0.0 0.4925766 0.04560004 0.0 0.22132856 0.0 0.0 0.0 1.1641517 3.152499 2.5712006 0.0 
1.1884536 0.0 1.1030514 0.38512522 0.0 0.0 0.38838345 0.0 0.0 0.0 0.0 1.4904262 1.0923754 1.1672366 2.2753925 0.0 
0.824824 0.0 0.24784407 0.0 0.0 0.2967471 0.0 0.0 0.0 0.0 0.0 3.7667677 1.2312799 0.0 0.0 0.0 
0.0 0.0 0.35284713 0.0 0.74559534 3.4003675 0.0 0.105268955 0.0 0.0 1.1253065 0.011100404 0.0 1.2403358 0.0 0.0 
0.5304515 0.0 0.0 0.0 0.0 0.0 2.313944 1.609068 0.0 0.34339434 0.73197013 0.0 0.0 2.309331 0.0 0.0 
0.0 0.0 0.6644143 0.0 0.0 0.25527012 0.0 0.0 1.8904802 2.0125184 0.0 0.11109945 1.0712149 0.0 0.36938816 0.4598257 
0.0 0.0 0.0 0.0 0.0 0.275695 2.1078782 0.0 1.5670942 0.32424256 0.0 0.0 1.9867465 0.27684036 2.4776018 0.0 
0.0 0.0 0.0 1.0649902 0.0 0.0 0.0 0.0 2.6584115 0.0 1.4817437 1.6822304 0.9168714 0.9196809 0.0 0.35312146 
0.0 1.1234761 0.10661666 0.0 0.0 2.4178636 0.0 0.11631201 0.0 0.0 1.3110663 0.455839 0.0 0.0 0.29437727 0.0 
0.0 0.92616385 0.39204186 0.0 0.0 0.7961101 2.210223 0.0 0.0 0.0 2.869297 0.0 0.0 2.4363396 2.5686576 0.0 
0.0 0.88204944 0.0 3.454152 0.0 0.0 1.6469097 0.0 0.0 0.0 0.9457609 0.0 1.3724914 1.0692048 1.8101008 0.0 
0.0 0.0 0.0 2.8069243 0.0 0.0 3.0397103 0.16340433 3.9813101 0.0 0.0 1.3543 1.4436041 0.0 0.0 0.0 
0.0 0.0 0.0 0.98926044 0.07992282 0.80796516 0.0 0.0 1.1053545 0.0 0.45534772 0.0 0.0 0.0 0.27432376 1.5617212 
0.3602375 0.77980685 0.0 0.69940674 0.0 0.0 0.42316535 0.13467303 0.0 0.4427126 0.23522526 0.25478318 0.0 0.0 0.0 0.0 
0.07415664 0.9317788 0.0 0.0 0.51634616 2.0804305 0.0 0.0 0.24324283 1.9596668 0.41478378 0.062297508 0.0 0.0 0.040051118 0.0 
0.0 0.0 2.544716 1.5762182 0.0 0.83208966 4.4480786 0.0 0.0 2.3622122 0.0 0.0 0.0 0.0 1.1465528 0.0 
0.0 0.0 0.0 0.25178164 0.0 0.11365943 0.0 0.0 2.1119297 0.0 0.0 0.0 0.0771672 0.0 0.0 0.0 
0.0 0.0 0.0 0.15730578 0.0 0.33529982 0.0 0.0 0.0 0.0 0.0 0.25224677 0.25294346 0.0 0.0 0.09518889 

