1.4554466 1.7320167 0.46467775 0.21788786 0.072956465 0.0 0.0 0.0 0.18477127 0.35553387 0.0 0.0 0.0 0.0 0.0 1.4448711 
3.0154293 2.5585039 0.0 0.2278203 0.48434782 0.0 0.0 0.24241166 0.0 0.46158284 0.0 0.7041038 0.0 0.0 0.0 0.7537559 
3.3451843 2.3534873 0.0 0.066167325 0.6866512 0.0 0.0 0.39838874 0.0 1.1776943 0.0 0.122425556 0.0 0.21029139 0.0 0.0 
3.1290944 2.5860846 0.0 0.0 0.39384907 0.0 0.0 0.0 0.0 1.4113426 0.0 0.0 0.34484607 0.8815887 0.0 0.14383696 
2.3230255 1.0800616 0.0 0.0 0.0 0.0 0.0 0.42140305 0.0 1.3408766 0.0 0.0 1.536965 1.8477906 0.0 0.0 
1.5897812 1.0419747 0.9995347 0.0 0.0 0.0 0.0 0.955594 0.0 0.51020247 0.0 0.0 1.472929 0.8048264 0.39558738 2.186525 
2.1887054 0.0 0.0 0.0 0.0 0.0 0.5699809 1.2503814 0.0 0.4740876 0.0 0.0 1.9735918 1.8943461 0.0 0.0 
0.68896043 2.2303162 0.0 0.8273782 0.0 0.0 0.0 0.0 0.0 0.0 1.7780193 0.0 1.6832223 3.5434117 0.0 0.0 
0.0 2.4068778 0.0 4.7758865 0.0 0.0 0.0 0.0 0.0 0.0 2.94109 0.0 2.6926057 3.382371 0.10110968 0.0 
0.0 2.6456785 0.0 5.6298695 0.0 0.0 0.0 0.0 0.0 0.0 2.573196 0.0 2.4677103 1.919039 0.84175056 0.0 
0.20807652 0.16437478 0.0 0.0 0.0 2.0630772 1.5593286 2.1727214 0.0 0.17976794 2.6433253 0.0 0.51447016 2.030257 1.1065154 0.0 
1.0926524 0.0 0.0 0.0 0.0 0.0 0.0 0.8951841 0.0 0.0 3.4708538 0.0 0.0 3.652444 0.12122221 0.0 
0.79521716 0.4966725 0.0 0.0 0.0 0.0 0.0 0.0 0.0 1.2489067 1.5706351 0.0 0.0 3.2014968 0.0 0.0 
0.47566757 1.0225885 0.0 3.3546522 0.0 0.0 0.0 0.0 0.0 3.3662646 0.0 0.43206844 0.29847664 0.0 0.0 0.0 
0.25786677 0.115910225 0.0 3.9940662 1.3442061 0.81076014 0.0 0.0 0.0 3.3170292 0.05716747 0.7039373 0.30354214 0.0 0.0 0.45790794 
0.27394867 2.182865 0.0 1.5846918 0.0 0.24610275 0.015330227 0.040044516 0.0 1.013179 0.1136132 0.0 0.0 0.0 1.6732584 0.0 
0.0 2.5556536 0.0 2.0509322 0.0 0.0 0.0 0.0 0.0 1.8155692 2.1269083 0.0 0.0 0.14665544 2.987081 0.0 
0.0 2.6799443 0.0 1.6045648 0.0 0.0 0.0 0.0 0.0 1.9940132 2.2024412 0.0 0.07379739 2.165425 4.355653 0.042476144 
0.09769468 0.03251655 0.0 0.18436863 0.0 0.0 0.0 0.0 0.0 0.30285543 0.0 0.27163672 0.6737772 1.4383044 3.6192467 0.0 
0.57307446 0.0 0.36029008 0.0 0.0 0.0 0.0 0.0 0.25497273 0.0 0.0 2.2118654 0.9794224 0.0 0.0 0.0 
1.5467203 1.2459589 0.0 0.0 0.0 0.7767245 0.0 0.1494323 0.0 0.6646086 0.9197405 0.0 0.0 2.1948953 0.0 0.0 
2.124877 1.2431477 0.0 0.0 0.0 0.0 0.0 0.0 0.0 2.7326577 1.1500638 0.0 0.6607925 2.0713968 0.0 0.0 
1.1318132 0.0 0.0 0.0 0.0 0.0 0.0 0.0 0.0 3.2818909 0.023235293 0.0 1.4759141 0.52214146 0.40473992 0.0 
0.0 0.0 0.019018773 0.75498176 0.0 0.0 0.0 0.45893496 2.3781307 0.69609547 0.9339827 0.0 1.0037118 0.122721486 1.9562566 0.0 
0.0 0.0 0.0 0.80738294 0.0 0.0 0.0 0.0 2.1745994 0.0 1.1600232 0.61966324 0.42412084 0.044338062 0.17352717 1.7953587 

