0.0 0.17932108 0.0 0.0 0.0 0.0 0.0 0.0 0.08225812 0.0 0.7546639 0.20135573 0.1564637 0.0 0.11895223 0.0 
0.0 0.56016 0.22033262 0.0 0.0 1.8698015 0.0 0.0 0.0 0.0 1.3848424 0.0 0.37906986 3.5653746 2.6778193 0.0 
1.2406788 0.0 0.0 0.0 0.0 1.1274409 0.0 0.0 0.0 0.0 1.5452857 0.0 0.0 4.3684573 3.5459585 0.0 
1.4996659 0.0 0.0 0.0 0.0 0.0 0.0 0.0 0.0 0.0 0.0 3.8610394 1.8824147 0.8384514 0.0 0.0 
1.1498867 0.0 0.9571084 0.0 0.0 0.73458034 0.0 0.0 0.0 0.0 0.0 3.6683466 1.8427662 0.64060664 0.0 0.0 
0.22647269 0.69491744 0.0 0.2227426 0.0 0.0 0.034576952 0.0 0.056535434 0.0 0.027950672 0.22048539 0.0 0.0 0.0 0.0 
0.45710185 2.9998145 0.0 0.63948196 0.0 0.60044664 0.0 0.0 0.031314064 0.0 0.0 0.500682 0.0 0.0 0.0 0.0 
0.0 3.4507115 1.945625 1.1031156 0.6221138 1.931992 0.0 0.0 0.0 1.6146655 0.0 0.0 0.0 0.0 4.7234564 0.0 
0.0 0.0 0.5265735 1.9314766 0.0 0.0 1.2378788 0.0 0.0 0.47248703 0.24540201 0.0 0.0 0.0 3.1739058 0.18416442 
0.0 0.0 0.652322 0.0 0.0 0.016311727 0.0 0.0 0.9581338 0.0 0.0 3.4802957 0.8732918 0.0 0.0 0.0 
1.4107643 1.5924591 1.0067887 0.0 0.0 0.0 0.0 0.0 0.0 0.93327093 0.0 0.0 0.0 0.0 0.13877963 2.0748322 
2.9622881 2.3434982 0.0 0.0 0.0 0.0 0.23151809 0.0 0.0 0.86040276 0.0 0.0 0.05011083 1.4725264 0.0 0.8006569 
1.8871814 0.55363584 2.3716366 0.0 0.21134755 0.0 0.0 0.0 0.0 1.9977323 0.0 0.0 0.0 0.0 0.0 0.0 
1.0893074 0.0 1.9692215 0.0 0.0 0.0 1.8741429 1.1486901 1.8137391 0.0 0.0 0.030767381 0.96782655 0.0 0.0 0.0 
0.0 0.0 0.0 0.8802793 0.0 0.52208996 0.0 0.0 2.9394758 0.0 0.12273829 0.6759404 0.0 0.0 0.0 0.0 
0.46678516 0.46881223 0.6084795 0.0 0.0 0.0 0.0 1.7704755 0.0 0.40922663 0.0 0.0 0.80884886 0.6668947 0.0 1.7399107 
0.6100915 0.0 0.0 0.0 0.0 0.0 0.0 1.2805536 0.0 0.0 0.0 0.0 1.2605729 0.0 0.9217859 0.0 
0.19544612 0.0 0.0 0.0 0.0 0.9830583 0.0 0.16642205 0.0 0.0 1.2296274 0.0 1.2890745 2.1123965 1.6284394 0.0 
0.9695074 0.0 0.0 0.0 0.0 0.0 0.0 1.300239 0.1936788 0.0 2.2310522 0.0 0.3920949 3.6285787 0.8230989 0.0 
1.3759518 0.0 0.0 0.0 0.0 0.0 0.0 0.0 0.0 0.0 0.32247022 0.7807988 1.8340037 2.3843396 0.0 0.0 
0.0 1.2767081 0.0 2.3106089 0.0 0.633995 1.2706696 1.5230728 0.0 0.0 3.6926801 0.0 0.46502542 2.115405 0.78795266 0.0 
0.0 2.3679714 0.0 5.080104 0.0 0.0 0.0 0.0 0.0 0.0 3.1387608 0.0 0.47985274 1.168813 0.20864029 0.0 
0.0 2.3797376 0.0 4.5150657 0.0 0.0 0.0 0.0 0.39824888 0.0 2.0966444 0.0 0.7750378 0.0 1.509669 0.0 
0.0 1.0980968 0.0 2.2223387 0.0 0.66512775 0.0 0.0 0.0 0.0 3.7536032 0.0 0.60155493 2.716984 3.4501188 0.0 
0.0 1.485607 0.0 4.576988 0.0 0.0 0.0 0.0 0.0 0.0 3.3778176 0.0 1.6237944 2.8693426 3.0663452 0.018521138 

