0.0 0.0 0.0 0.0 0.0 0.08043578 0.19853912 0.0 0.0 0.0 0.08689398 0.0 0.0 0.0 0.0 0.0 
0.342033 0.0 1.391895 0.0 0.8830401 1.4024742 0.0 0.0 0.0 0.0 0.0 0.0 0.0 0.7280045 1.0754863 0.36496904 
1.5771996 0.0 4.5018334 0.0 0.0 0.02330219 3.493986 0.0 0.0 0.14578581 0.0 0.0 1.0846304 0.34853 2.417417 1.3666075 
1.3782883 0.0 0.0 0.0 0.0 0.0 1.1973438 0.0 1.7512966 0.0 0.0 2.752261 1.0509319 0.0 0.0 0.0 
0.8447011 0.0 1.0358108 0.0 0.0 0.36526155 0.0 0.0 0.0 0.0 0.0 1.3014113 0.6838558 0.10491536 0.0 0.0 
0.023961138 0.0 0.0 0.0 0.31616384 0.069875136 0.19017716 0.0 0.0 0.0 0.16015477 0.0 0.0 0.0 0.0 0.0 
0.0 0.24034446 1.548663 0.0 1.4693305 0.6811393 0.0 0.0 0.0 0.5612085 0.0 0.17175129 0.0 0.0 0.4212799 0.6547274 
0.0 0.0 4.9283257 0.0 0.0 0.0 4.9562607 0.9991794 0.0 0.37731725 0.0 0.0 1.1574765 0.0 1.8705871 0.0 
0.0 0.0 0.0 0.0 0.0 0.0 0.83921367 0.0 3.0657094 0.0 0.0 0.7322718 0.55452067 0.10359045 0.0 0.0 
0.0 0.0 0.19595666 0.47734445 0.0 0.19589105 0.0 0.0 0.0 0.0 0.19034874 1.2969451 0.38443398 0.0 0.0 0.03031895 
0.0 0.0 0.0 0.0 0.6620741 0.0 0.0 0.0 0.13320655 0.0 0.7320586 0.14941695 0.0 0.0 0.0 0.0 
0.0 0.0 3.123428 0.0 1.4912106 1.7188835 0.0 0.3901866 0.0 0.40814894 0.37593213 0.0 0.0 0.0 0.0 0.03479184 
0.0 0.0 3.2629259 0.21653645 0.0 0.0 5.029347 1.5918818 1.2665231 0.27609164 0.0 0.11559072 0.08000542 0.0 0.0 0.0 
0.0 0.0 0.0 0.0 0.0 0.87547743 0.0 0.0 3.7853167 0.0 0.3275887 0.61274564 0.20602106 0.52856857 0.0 0.0 
0.0 0.0 0.0 0.27903032 0.0 0.22231868 0.0 0.0 0.0 0.0 0.0827167 0.02112446 0.02071213 0.0 0.0 0.088762395 
0.0 0.0 0.0 0.0 0.61116123 0.0 0.0 0.0 0.10037066 0.0 0.824616 0.30570632 0.0 0.0 0.0 0.0 
0.0 0.39961088 3.6406581 0.0 1.3715985 2.1578243 0.0 0.25536948 0.0 0.4015497 0.4393206 0.065442085 0.0 0.0 0.0 0.0 
0.0 0.0 3.2465458 0.98550576 0.0 0.0 3.9267268 1.5248168 1.5299112 0.0 0.0 0.0 0.0 0.0 0.0 0.0 
0.0 0.0 0.0 0.0 0.0 0.8286009 0.0 0.0 2.9495747 0.0 0.0 1.3138394 0.073387995 0.38094014 0.0 0.0 
0.0 0.0135421865 0.120434925 0.31125402 0.0 0.21858433 0.0 0.0 0.0 0.0 0.05854415 0.0 0.0 0.02339869 0.0 0.0 
0.0 0.0 0.0 0.0 0.42012382 0.0 0.0 0.0 0.21212867 0.0 1.0007908 0.15651046 0.0 0.0 0.0 0.0 
0.0 0.0 2.5752897 0.0 0.5784436 3.0589416 0.0 0.6408033 0.0 0.5940889 1.8880634 0.042051837 0.0 0.8290927 0.0 0.0 
0.0 0.0 2.331201 0.1961198 0.0 0.0 3.768271 1.5796769 1.2791684 0.0 2.3088498 0.0 0.3321916 1.8948604 0.93808347 0.0 
0.0 0.0 0.0 0.0 0.0 0.0 0.0 0.0 2.634631 0.0 1.3484223 1.6410786 1.2210944 0.8312467 0.0 0.0 
0.0 0.0 0.54411656 6.538257e-05 0.0 0.0 0.0 0.0 0.0 0.0 0.0 0.6052275 0.48382723 0.0 0.0 0.0 

