0.6975258 0.0 0.0 0.0 0.0 0.14297503 0.0 0.0 0.0 0.540346 1.128322 0.0 0.5396513 1.868888 0.7087694 0.8768016 
1.7683626 0.0 0.3892554 0.0 0.0 0.0 0.0 0.0 0.0 0.0 0.022584768 0.0 2.2361462 2.3968875 3.3790488 0.0 
3.4669924 0.0 0.0 0.0 0.0 0.0 0.0 0.0 0.0 0.0 1.0529057 0.0 2.7145581 3.9502854 2.5031052 0.0 
3.3633072 0.0 1.0413387 0.0 0.0 0.0 0.0 0.0 0.0 0.0 0.34158084 0.0 0.92249364 4.2442503 0.26930088 0.0 
1.9248002 0.0 0.0 0.0 0.0 0.0 0.0 0.0 0.0 0.2469405 0.0 4.616606 2.1648934 0.12837836 0.0 0.0 
0.31753096 2.7362251 0.14219457 0.0 0.33266196 0.0 0.0 0.0 0.0 3.7999833 0.10294023 0.0 0.0 0.0 0.355345 1.5956632 
0.0 2.1031857 0.0 0.3525216 0.0 0.0 3.254476 0.98263913 0.0 2.5754635 0.0 0.0 0.58652925 0.0 0.9270658 0.26755422 
0.0 0.0 0.0 0.0 0.0 0.0 0.7654221 0.9909621 3.5789528 0.0 0.019285737 0.0 0.45157248 0.0 1.450406 0.0 
0.0 0.0 1.2623322 0.17781225 0.0 2.587878 0.0 0.0 0.0 0.0 0.12333816 0.0 0.0 1.8087591 4.3063297 0.0 
0.0 0.0 0.0 1.0342349 0.0 0.0 0.0 0.0 0.0 0.0 0.0 2.4853654 0.5996902 0.0726848 3.2689219 0.0 
0.0 0.2681744 2.0741572 0.0 1.0528231 0.0 0.8762751 0.7229585 0.27545613 1.3566272 0.0 0.0 0.0 0.0 0.06372462 1.8628892 
0.0 0.0 0.0 0.9186397 0.0 0.0 4.561346 2.3684514 3.806784 0.0 0.0 0.8457793 0.40088052 0.0 0.0 0.0 
0.0 0.0 0.0 0.9487324 0.09767584 0.600267 0.0 0.0 4.6895266 0.0 0.64173144 0.0 0.0 0.0 0.0 0.55889577 
0.0 1.5349736 3.570179 0.0 1.412326 2.785747 0.0 0.0 0.0 0.89093566 0.0 0.12741531 0.0 0.0 1.178411 0.8896675 
0.0 0.0 4.105067 0.3349965 0.0 0.0 3.9489286 0.0 0.0 0.03642484 0.0 0.0 0.0 0.0 2.506287 0.0 
0.0 0.0 1.7418694 0.0 0.0 2.7481616 2.6413577 2.5438297 0.0 0.0 0.0 0.0 0.0 0.8094906 0.0 0.0 
2.3475509 0.0 0.0 0.0 0.0 0.0 4.1072454 1.28069 4.269259 0.0 0.0 1.6610401 0.0 0.0 0.0 0.0 
2.8392425 1.2684925 0.0 0.0 1.1690391 1.060822 0.0 0.0 0.6303987 1.2861744 0.0 0.0 0.0 0.0 0.0 0.7391527 
1.6920737 2.2841327 1.1163493 0.0 2.4558578 0.0 0.0 0.99131984 0.0 2.1267502 0.0 0.0 0.0732055 0.0 0.0 1.9690259 
0.0 0.0 1.1656479 0.0 0.0 0.0 2.6685889 2.4855816 2.5272803 0.42157164 0.0 0.0 1.1991436 0.0 0.75399005 0.0 
0.0 0.20786823 1.3143063 0.0 0.0 3.9355862 2.6681023 1.4238484 0.0 0.0 2.706164 0.0 0.75212353 3.4510508 2.1342893 0.0 
1.5654857 0.0 0.0 0.0 0.0 0.0 0.0 0.0 0.0 0.0 4.6818147 0.0 1.9927747 3.4525337 2.6989298 0.0 
1.3817672 0.0 0.0 0.0 0.0 0.0 0.0 0.0 0.0 0.0 4.5287642 0.0 3.530711 2.4179938 0.0 0.0 
0.0 0.0 0.0 3.8178077 0.0 0.0 0.0 1.6496453 0.20028839 0.0 3.9623067 0.0 2.5601022 0.83311343 0.0 0.0 
0.0 0.0 0.0 4.3162975 0.0 0.0 0.4442316 1.3649219 4.647854 0.0 2.3996842 0.0 1.4822977 0.49608478 0.0 2.194726 

