1.1727922 1.163661 0.9439901 0.0 0.19359192 0.0 0.0 0.0 0.0 1.1709248 0.0 0.0 0.0 0.0 0.44567412 2.4605818 
2.74085 1.9780859 0.16837785 0.0 0.0 0.0 0.20304368 0.0 0.0 1.2295555 0.0 0.0 0.38995957 1.8692458 0.2635147 2.0465178 
2.8973227 0.30259922 0.2976246 0.0 0.0 0.0 0.0 0.29033685 0.0 0.5797952 0.0 0.0 0.5439863 3.0174925 0.0 0.0 
1.9485075 0.0 0.57463956 0.0 0.0 0.0 0.0 0.0 0.0 0.2825452 0.0 2.4660978 1.4871821 0.0 0.0 0.0 
1.181517 0.0 0.0 0.7454841 0.9994103 0.65439665 0.0 0.0 0.0 0.0 0.14314382 1.7205234 0.45364207 0.5315964 0.0 0.0 
0.49960664 0.6917967 1.4680278 0.0 0.0 0.0 0.0 1.0366639 0.0 0.8557174 0.0 0.0 1.2306296 0.0 0.68604296 2.502769 
0.4258066 0.062795624 0.0 0.0 0.0 0.0 0.9302821 1.9058307 0.0 0.0 0.0 0.2548998 2.0379174 0.0 0.0 0.0 
0.055019293 0.0 0.3220851 0.0 0.0 0.0 0.0 0.0 0.0 0.42498937 0.0 0.0 0.40204746 1.6049949 2.859712 0.0 
0.75528765 0.0 0.0 0.0 0.0 0.0 0.0 0.0 0.0 0.0 0.0 2.3179069 1.1280394 0.0 2.5814118 1.1891507 
0.77869636 0.0 0.48210472 0.0 0.0 0.0 0.0 0.0 1.130459 0.0 0.0019182079 2.2381895 1.5679884 0.39844134 0.0 0.0 
0.63089 0.0 0.0 0.0 0.0 2.5180469 2.4419107 3.3276873 0.0 0.0 3.442531 0.0 0.0 3.510804 0.61777484 0.0 
1.24296 0.0 0.0 0.0 0.0 0.0 0.3317705 1.6822076 0.0 1.5410911 4.1117086 0.0 0.0 3.3797767 0.0 0.0 
0.0 0.0 2.177645 0.0 0.0 0.0 0.0 0.0 0.0 0.7041607 2.0720344 0.0 1.0167139 0.69437563 0.26472604 0.0 
0.0 0.0 2.1902359 0.4355927 0.0 0.0 2.6485538 0.0 1.7808774 0.0 0.0 0.0 1.4179617 0.0 1.0309914 0.0 
0.0 0.0 0.0 0.0 0.0 0.67867 0.0 0.0 2.6434891 0.0 0.10349701 1.4248196 0.75140387 0.33002305 0.0 0.0 
0.0 1.5834509 0.0 2.619822 0.0 1.1039927 0.46776384 0.18103059 0.0 1.5930232 1.1515334 0.0 0.008669965 0.0 2.2038033 0.0 
0.0 1.2849371 0.0 3.4631433 0.09592239 0.0 0.0 0.0 0.0 2.6783662 3.76701 0.0 0.0 0.0 2.636426 0.0 
0.0 2.2655594 0.9727304 3.1417732 1.4239907 2.1915662 0.0 0.0 0.0 2.402345 2.9799578 0.0 0.0 0.0 0.635193 0.12667456 
0.0 0.0 2.1348293 3.1445832 0.0 0.0 3.0218205 0.0 0.0 0.0 0.0 0.0 0.0 0.0 0.9663157 0.0 
0.0 0.0 0.0 0.0 0.0 0.6062212 0.0 0.0 1.8043873 0.0 0.0 1.0530872 0.04013168 0.20742667 0.0 0.0 
0.4345248 0.42792413 0.0 1.3928779 0.0 0.0 0.7421138 0.064227745 0.0 1.477244 0.0 0.0 0.0 0.0 0.0 0.0 
0.0 0.39923468 0.0 1.4232181 0.73574126 0.0 0.9092824 0.0 0.3187031 1.6911018 0.62093866 0.008435458 0.0 0.0 0.0 0.55754423 
0.0 0.0 2.3920865 0.0 1.3563172 3.590369 0.0 0.0 0.0 0.10460892 1.2803134 0.0038733855 0.0 0.9213775 0.0 0.30690327 
0.0 0.0 3.2599728 0.0 0.0 0.0 3.1790452 1.451101 0.0 0.0 0.18309402 0.0 0.0 1.2982997 0.49784374 0.0 
0.0 0.0 0.08587432 0.0 0.0 0.5643241 0.0 0.0 1.699657 0.0 0.0 1.3841051 1.0017737 0.0 0.0 0.0 

