0.58816445 0.3732077 0.5428936 0.0 0.5551389 0.22685498 0.20958577 0.0 0.0 0.29548022 0.0 0.0 0.0 0.015793063 0.2343627 0.7588807 
1.803262 0.850492 1.7033161 0.0 0.0 0.0 0.3777059 0.0 0.0 1.137264 0.0 0.0 1.2994033 0.0 0.83234566 2.9116523 
3.4622185 0.0 0.0 0.0 0.0 0.0 0.9203887 0.27828908 0.0 0.7482935 0.0 0.0 2.1460617 2.4265397 0.21435733 0.64315957 
3.1527052 0.0 0.88340384 0.0 0.0 0.0 0.0 0.0 0.0 0.0 0.0 0.0 1.0564322 3.3794556 0.0 0.0 
2.6938565 0.0 1.4854571 0.0 0.0 0.0 0.0 0.0 0.0 0.09728439 0.0 1.0890414 0.6016604 1.3320118 0.0 0.0 
0.0 0.0 0.8447696 0.0 0.8524931 0.900987 0.0 0.0 0.0 0.32439363 0.22695315 0.0 0.0 0.0 0.6527366 1.0955039 
0.0 0.0 1.5556394 0.0 0.0 0.0 2.336337 1.4838291 0.0 0.0 0.0 0.0 1.4397594 0.0 0.0 0.94199526 
0.53475475 0.0 0.0 0.0 0.0 0.0 0.0 0.7600923 1.6855828 2.1759617 0.0 0.0 1.2142622 0.0 1.2754867 0.44036266 
0.0 0.9280357 0.0 0.0 0.0 0.0 0.0 0.0 0.0 2.0861924 0.5112813 0.0 1.531607 0.5931481 3.6283343 0.81731915 
0.0 0.0 0.0 0.20916976 0.0 0.0 0.0 0.0 0.0 0.0 1.4532812 0.0 2.0520449 2.2796755 2.7537467 0.0 
0.0 0.58750844 1.4319041 0.0 0.89122605 2.741498 0.0 0.0 0.0 0.0 0.7853759 0.33548617 0.0 0.044923432 0.09904201 0.0 
0.010165971 0.0 3.1633036 0.0 0.0 0.0 2.1641269 1.0913332 0.0 1.033189 0.0 0.0 0.0 0.12094759 0.83112603 0.0 
0.0 0.0 0.0 0.0 0.0 0.0 0.0 0.0 0.7028136 0.8264291 0.0 2.005162 1.5972492 0.0 0.0 1.2100296 
0.0 0.0 0.0 5.010398 0.0 0.0 0.0 0.80347764 1.9364196 0.0 1.9613135 0.4953657 0.6750653 0.05971829 0.0 0.0 
0.0 0.64167655 0.0 4.699164 0.31787732 0.09836589 0.0 0.0 1.7823968 1.4181587 1.3159801 0.0 0.0 0.0 0.6060805 1.3904021 
0.37889162 0.7351378 1.3040992 0.0 0.79296243 1.5144737 0.0 0.0 0.0 0.8019621 0.26792425 0.15352002 0.0 0.0 0.0 0.0 
0.0 0.0 2.2299254 0.0 0.0 0.0 0.90655273 1.001025 0.0 0.0 0.0 0.0 0.025863811 0.0 1.088889 0.0 
0.58651847 0.0 0.0 1.1746558 0.0 0.0 0.0 0.0 0.78360033 0.0 0.0 1.1738566 0.0 0.0 0.0 0.0 
0.0 0.0 0.0 2.3600647 0.40469205 0.804799 0.0 0.0 1.2308214 0.22939065 0.0 3.0856855 0.15131885 0.0 0.0 0.0 
0.0 0.0 0.0 1.8797791 1.4171253 1.5157084 0.0 0.0 0.0 0.07222673 0.24619672 0.0 0.0 0.4690298 0.0 1.0782906 
0.0 0.33682197 0.0 0.0 0.19824648 2.0427027 0.0 1.0783552 0.0 0.0 2.0917177 0.30956334 0.0 1.0944574 0.0 0.0 
0.0 0.0 0.0 0.0 0.0 0.0 1.0852118 2.0541024 0.0 0.42947373 3.823499 0.0 0.0 1.2832563 0.0 0.0 
0.9777277 0.0 0.0 0.0 0.0 1.3927894 0.0 0.0 0.0 0.0 2.8420317 0.0 2.3045316 3.3260021 2.3847473 0.0 
0.7033016 0.0 0.0 0.0 0.0 0.0 0.0 0.0 0.0 0.0 1.7333208 3.206522 1.69447 3.110705 0.08288665 0.0 
1.1486758 0.0 1.0987382 0.0 0.0 0.28079143 0.0 0.0 0.0 0.0 0.0 2.0503206 1.7345047 0.20439565 0.0 0.0 

