1.6918114 1.9868149 2.3615887 0.0 0.0 0.0 1.5837603 0.0 0.15245998 0.75653845 0.0 0.0 0.3398837 0.0 0.98137814 2.534061 
1.5453212 1.005697 0.0 0.0 0.90191483 0.0 2.0434358 0.62810844 0.0 0.54885405 0.0 1.6170086 0.69432795 0.0 0.0 0.032816794 
0.9932068 0.0 1.3911964 0.0 0.57789516 1.2960505 0.0 0.0 0.44414017 0.0 0.0 0.5274073 0.038134016 0.5974463 0.00304541 0.0 
1.2188472 0.1331893 3.2544603 0.0 0.0 0.0 2.3941176 0.0 0.0 0.5099942 0.0 0.0 1.1168379 0.18912488 1.5261742 1.8588699 
1.27829 0.0 0.0 0.0 0.0 0.0 2.8210127 0.15893447 1.9825499 0.26672283 0.0 1.8419024 0.963005 0.0023496523 0.0 0.0 
0.0 0.0 2.5095901 0.0 0.0 0.0 2.7486546 2.091412 0.0 0.0 0.0 0.0 1.4545752 0.0 1.3222789 1.343193 
0.31974205 0.0 0.0 0.11262563 0.0 0.0 0.68695045 0.42361826 3.1140034 0.0 0.17665611 0.13058133 1.2064469 0.9387286 0.0 0.0 
0.0 0.77673405 1.3226442 0.0 2.0788138 1.0806022 0.0 0.0 0.7852999 0.0 0.3083694 0.98518395 0.0 0.0 0.019652784 0.5346713 
0.0 0.0639525 4.104452 0.11046532 0.0 0.0 4.527777 1.4702201 0.0 0.25285456 0.0 0.0 1.0122955 0.0 1.169273 0.0 
0.0 0.0 0.0 0.0 0.0 0.07873739 2.0409396 0.0 3.647357 0.0 0.0 0.17420918 0.84060764 0.0 0.0 0.0 
1.019368 0.0 0.0 0.0 0.0 0.26034898 2.3860798 2.9352827 0.0 0.0 3.9804022 0.0 0.0 4.8414397 0.34309536 0.0 
1.7997764 0.0 0.0 0.0 0.0 0.0 0.0 0.0 0.0 0.0 2.9337466 0.0 0.8177401 5.2729874 0.0 0.0 
1.2938855 0.0 2.1061797 0.0 0.0 0.0 0.0 0.0 0.0 0.9895086 0.23627856 0.0 0.48427463 1.6199719 0.0 0.0 
0.85707337 0.0 4.1593747 0.0 0.0 0.0 3.4958048 1.1979009 0.0 0.8016929 0.0 0.0 1.4070632 0.0 0.0 0.0 
0.13131431 0.0 0.0 0.0 0.0 0.2925952 0.0 0.0 3.1658795 0.0 0.004583504 0.36938068 0.56800604 0.3792986 0.0 0.0 
0.0 1.615468 0.0 1.9166441 0.0 0.0 0.40086284 0.0 0.0 1.1378657 2.9557574 0.0 0.41153115 0.1838091 3.6185079 0.0 
0.0 1.9913393 0.0 2.197958 0.0 0.0 0.0 0.0 0.0 0.45506978 4.515326 0.0 1.4257512 2.194911 2.999823 0.0 
0.0 2.3236496 1.0801334 2.8526285 0.0 0.008754268 0.0 0.0 0.0 0.2593195 3.973862 0.0 0.87601256 1.9766942 2.1064277 0.0 
0.0 0.6084656 2.7027617 3.5711792 0.0 0.0 3.5954983 0.0 0.6199277 0.0 0.0 0.0 1.7907873 0.0 0.64591503 0.0 
0.0 0.0 0.0 0.0 0.0 0.50878423 0.0 0.0 3.2793245 0.0 0.21628934 0.6770388 0.32311296 0.30280453 0.0 0.0 
0.16034076 0.67191887 0.0 1.3903388 0.0 0.0 0.55977744 0.0 0.0 1.9158674 0.013791719 0.0 0.0 0.0 0.0 0.0 
0.13192432 0.8243512 0.0 1.6714163 0.55068815 0.0 0.38907972 0.0 0.26643896 3.0460825 0.9006571 0.0 0.0 0.0 0.0 0.12650682 
0.0 0.0 1.6481464 0.0 0.62883013 2.5569751 0.0 0.0 0.0 3.6837153 1.6798723 0.0 0.0 0.92877537 0.9228516 0.0 
0.0 0.0 0.78797793 0.0 0.0 0.0 4.011932 0.8263536 2.2068577 1.5127819 0.9341512 0.0 0.27118188 1.5138695 0.73576313 0.0 
0.0 0.0 0.0 0.0 0.0 0.2841122 0.0 0.0 2.8912435 0.0 0.3121019 0.84921277 0.66409063 0.14924175 0.0 0.0 

