3.445391 2.6366668 0.04385556 1.0324086 0.58238226 0.0 0.0 0.0 0.0 0.93349236 0.0 0.8446249 0.0 0.0 0.0 0.37766203 
3.850628 2.355226 0.0 1.3476987 1.1060001 0.0 0.0 0.0 0.0 1.1048633 0.0 0.8699057 0.0 0.0 0.0 0.15174189 
3.4178617 1.9827757 0.0 1.5162804 1.0548018 0.0 0.0 0.0 0.0 0.4851873 0.0 0.5299082 0.0 0.0 0.0 0.0 
2.9570673 1.8381723 0.0 1.7634603 1.0456866 0.0 0.0 0.0 0.0 0.6220787 0.0 0.52551806 0.0 0.0 0.0 0.0 
1.5803155 0.9502551 0.0 1.4855844 1.4663569 0.7729539 0.0 0.0 0.0 0.71229297 0.27741316 1.1635836 0.0 0.14857283 0.0 0.0 
2.7836077 0.0 0.0 0.0 0.0 0.0 0.0 0.0 0.0 0.34909752 3.500715 0.0 2.380761 3.0383983 1.721244 0.0 
3.6991494 0.0 0.0 0.0 0.0 0.0 0.0 0.0 0.0 0.0 1.9718357 0.0 2.6914263 2.976484 0.9272346 0.0 
4.077772 0.0 0.0 0.0 0.0 0.0 0.0 0.0 0.0 0.0 0.0 0.0 2.8244815 2.2841587 1.1813623 0.0 
3.3239272 0.0 1.2840102 0.0 0.0 0.0 0.0 0.0 0.0 0.0 0.6106869 0.0 2.3800504 2.425855 1.8045106 0.0 
3.1887941 0.0 0.0 0.0 0.0 0.0 0.0 0.0 0.23545453 0.0 0.0 1.6394515 1.8522589 2.1837711 0.0 0.0 
0.0 1.9841763 0.0 2.9646764 0.0 0.015668355 0.0 0.0 0.0 2.7033675 3.8396082 0.0 0.14182283 0.0 1.8599095 0.0 
0.0 0.8996012 0.0 1.6429033 0.0 1.7203047 0.0 0.0 0.0 1.8290185 3.2297122 0.0 0.0 0.37450668 1.3397274 0.0 
0.0 0.0 0.0 0.0 0.0 0.0 0.0 0.0 0.0 1.6302392 0.89366484 0.0 0.12122673 0.0 1.8042836 0.5656125 
0.0 0.0 0.0 0.81471467 0.0 0.0 0.0 0.0 0.0 0.34403327 0.0 0.0 2.0265372 0.0 2.2060628 0.0 
0.0 0.0 0.0 2.2533915 0.0 0.052818537 0.0 0.0 2.4013486 0.0 1.2680314 0.0 0.9088553 0.23244521 0.91484207 1.078613 
0.10807514 0.5611817 0.0 1.1538671 0.08705621 0.0 0.82166374 0.0 0.13321549 1.5181069 0.4750734 0.0 0.0 0.0 0.0 0.0 
0.0 0.8007397 0.0 0.0 0.512386 2.1459727 0.0 0.0 0.0 1.0915477 0.74281085 0.0 0.0 0.0 0.0 0.0 
0.0 0.0 0.57104206 0.0 0.0 1.9883103 0.6498735 0.544552 0.0 0.32036525 0.0 0.0 0.0 0.319508 0.21930118 0.0 
0.095239684 0.0 0.0 0.6801287 0.0 0.0 0.7636276 0.46479064 1.2471076 0.0 0.0 2.7645633 0.0 0.0 0.0 0.0 
0.09349084 0.0 0.0 0.8454223 0.597538 1.6012666 0.0 0.0 1.2760874 0.0 0.30510902 2.125329 0.09549746 0.14994782 0.0 0.36269185 
0.0 0.050528802 0.0 0.0014602207 0.0 0.0 0.0 0.0 0.0 0.0 0.35930717 0.11823523 0.0 0.0 0.0 0.0 
0.0 0.68457764 0.0 0.0 0.24906254 1.4545867 0.0 0.2905699 0.0 0.0 2.0194101 0.42549387 0.0 0.0 0.0 0.0 
0.0 0.90587693 0.38589904 0.102190286 0.0 3.1327138 1.3712244 0.64918905 0.0 0.08907598 2.231385 0.0 0.0 3.0050635 2.066696 0.0 
0.0 0.0 0.0 0.03845845 0.0 0.031621233 1.0580518 0.0 0.0 0.0 3.2946408 0.0 0.4778784 3.129635 3.0151172 0.0 
0.39925694 0.0 0.24843732 0.0 0.0 0.0 0.0 0.0 0.0 0.0 2.3258052 1.9177042 1.8084284 1.7316611 0.0 0.0 

