1.096769 0.9216424 0.84656394 0.0 0.21071193 0.006065406 0.0 0.0 0.0 0.6049107 0.0 0.0 0.0 0.03156715 0.33828533 2.156692 
2.3918476 2.6304233 0.00046306476 0.0 0.0 0.0 0.6016361 0.07035914 0.0 0.78395784 0.0 0.0 0.08907902 2.3450696 0.0 1.3721162 
2.3107882 1.4621916 0.5604788 0.0 0.0 0.0 0.0 0.0993118 0.0 0.55771583 0.0 0.08296466 0.20442759 2.1743276 0.0 0.0 
1.3826662 0.0 1.0074916 0.48086235 0.8407919 1.0964143 0.0 0.0 0.0 0.6270528 0.0 1.7557943 0.97632056 0.0 0.0 0.0 
0.63472086 0.0 0.0 0.79793894 0.8732817 0.746364 0.0 0.0 0.0 0.0 0.3406543 0.67901397 0.20518859 0.59608054 0.0 0.0 
0.054935586 0.31739247 0.9807304 0.0 0.2530191 0.24519059 0.0 0.7490563 0.110412315 0.38941884 0.0 0.0 0.91394657 0.0 0.49600333 1.5062147 
0.0 0.0 0.0 0.0 0.0 0.0 1.3014826 1.0724975 0.39393532 0.0 0.49084702 0.7575903 1.8466932 1.6547036 0.0 0.0 
0.3320588 0.2502634 0.24186254 1.086217 0.0 1.265029 0.0 0.0 0.049711872 0.0 0.8927025 0.0 0.5374296 3.411723 2.8824697 0.0 
0.30728945 0.0 0.58851874 0.0 0.0 0.0 0.0 0.0 0.0 0.0 0.0 2.6811686 1.1170374 0.05809734 0.99892503 1.3821257 
1.1363205 0.0 0.0 0.0 0.27121225 0.5781204 0.0 0.0 0.0 0.0 0.0 3.4976127 1.0388842 0.0977725 0.0 0.0 
0.20290415 0.0 0.64597267 0.0 0.0 3.0892434 1.6113744 2.1343505 0.0 0.0 0.99981093 0.0 0.0 3.1883864 0.104488835 0.0 
0.8803149 0.0 0.0 0.0 0.0 0.0 1.5475019 0.8465559 0.15254983 1.5844907 1.4745 0.88403475 0.0 2.395627 0.0 0.0 
0.0 0.0 1.688234 0.0 0.0 1.0956638 0.0 0.0 0.0 2.2125347 0.0 0.0 1.1362755 0.0 2.7377872 0.0 
0.0 0.0 2.489181 0.0 0.0 0.0 0.9923077 0.0 0.0 0.5382918 0.0 0.0 1.8099375 0.0 3.2546287 0.0 
0.29493904 0.0 0.0 0.3842107 0.0 0.0 0.0 0.0 2.2756262 0.0 0.55495363 1.8839505 1.2701559 0.1470578 0.0 0.0 
0.0 1.1925434 0.91029155 0.19582334 0.0 1.1392984 0.7021442 0.0 0.0 0.0 0.82080513 0.0 0.40278584 0.9526924 2.2183676 0.0 
0.0 1.1075766 0.0 1.6861261 0.0 0.0 0.0 0.0 0.0 0.0 3.8224707 0.0 0.36033517 2.0393028 2.4781215 0.0 
0.0 2.2515838 0.23670217 2.8246613 0.0 0.0 0.0 0.0 0.0 0.34273997 2.754303 0.0 0.78815573 0.7230177 0.0 0.0 
0.0 0.13309805 1.709802 3.1456168 0.0 0.0 3.3841872 0.0 0.8018219 0.48843813 0.011320081 0.0 1.1541369 0.0 0.12860106 0.0 
0.0 0.0 0.0 0.44623518 0.0 0.7530948 0.0 0.0 1.6906037 0.0 0.35281867 0.0 0.0 0.0 0.0 0.5821664 
0.2916052 0.69006884 0.0 0.9043031 0.0 0.0 0.37413672 0.044403583 0.0 0.90734965 0.092659324 0.11591682 0.0 0.0 0.0 0.0 
0.27514553 0.93485695 0.0 1.6696848 0.5700801 0.0 0.5522321 0.0 0.20393778 2.2596993 0.0 0.0 0.0 0.0 0.0 0.0 
0.0 0.30821577 1.7607372 0.1260021 1.1895397 1.4288924 0.0 0.0 0.0 3.140411 0.0 0.0 0.0 0.0 0.42571622 1.5320667 
0.0 0.0 0.0710696 0.51358837 0.0 0.0 3.628595 0.6141977 1.6510998 0.450365 0.0 0.0 0.13955666 0.0 0.045906007 0.0 
0.0 0.0 0.0 0.0 0.0 0.45039207 0.0 0.0 2.307282 0.0 0.0 0.10392706 0.033405118 0.0 0.0 0.0 

