0.5601864 0.002170386 0.0 0.0 0.0 0.0 0.0 0.19484316 0.0 0.9423661 0.89251953 0.0 1.3803444 0.55036044 0.33935636 1.5962095 
0.07347898 0.0 0.0 0.0 0.0 0.0 0.0 0.12628104 0.16784045 0.06597887 0.6008861 0.0 1.982677 2.0882537 0.17465882 0.0 
0.0 4.4504714 0.0 1.1716439 0.0 0.0 0.0 0.0 0.05333684 0.0 0.7929229 0.0 1.9455268 2.2129138 1.5112139 0.0 
0.56950045 3.0948315 0.7533154 0.022667762 0.0 0.0 0.15375054 0.0 0.0 0.16017504 0.0 0.0 1.4893177 1.2897522 3.0434225 0.26537913 
0.80604 0.0 0.0 0.0 0.0 0.0 0.6205216 0.0 1.2439885 0.0 0.0 1.7392577 0.91814786 0.24788776 0.6107721 0.0 
0.0 1.6288294 0.0 2.4005475 0.0 0.34222424 0.5728367 0.42098486 0.3826229 1.3308116 1.3613353 0.0 0.10292022 0.0 0.0 0.0 
0.0 1.3103927 0.0 2.5092125 0.4099765 0.0 0.0 0.0 1.4371243 2.1194596 0.0 0.0 0.0 0.0 0.0 4.831872 
0.0 1.6119794 0.0 0.0 0.6637817 0.0 0.0 0.5046018 0.0 4.6538334 0.0 0.0 0.89064604 0.0 0.17497121 2.974672 
0.0 0.0 0.0 0.0 0.0 0.0 0.028325396 1.816933 1.3775457 3.0960581 0.092914164 0.0 1.4653609 0.40725622 0.827353 0.0 
0.0 0.0 0.0 0.9444146 0.0 0.0 0.0 0.0 4.001049 0.0 1.587075 0.0 1.3243704 0.7063108 0.3172242 1.7472566 
0.75567937 1.3171743 1.2577082 0.5916708 0.66836727 0.0 0.0 0.0 0.8838349 1.8562104 0.0 0.0 0.0 0.0 0.0 2.5410128 
0.0 0.33847803 0.8205088 0.0 0.72413105 0.0 0.0 1.3350612 0.0 1.4130749 0.0 0.29539734 1.0043224 0.0 0.36164933 4.2424617 
0.7238657 1.1283524 0.0 2.1135917 0.0 0.0 0.0 2.40338 0.68777394 0.0 0.0 0.0 1.388624 0.0 0.0 0.0 
0.044786137 1.4169942 0.0 5.0267377 0.29983935 0.0 0.0 0.2546249 3.3834538 0.359831 0.24622136 0.0 0.0 0.0 0.0 1.1481158 
0.0 0.3302269 0.0 3.9991133 1.671885 1.0637546 0.0 0.0 1.3222669 0.542499 0.7570425 0.0 0.0 0.0 0.0 2.4618006 
0.43230128 0.0 0.35951933 0.0 0.0 1.4429407 0.0 1.2227612 0.0 0.60248405 1.9700835 0.0 0.38075858 1.3885949 0.0 1.349036 
2.818687 0.0 0.0 0.0 0.0 0.0 0.5534329 2.5583975 0.0 0.047220808 1.4175247 0.0 0.43014777 1.9346807 0.0 0.0 
2.981548 0.0 0.0 0.0 0.0 0.0 0.0 0.41060853 0.0 0.93193275 0.0 0.0 1.9024435 2.5863206 0.021472812 0.0 
2.491393 0.0 0.0 0.0 0.0 0.0 0.0 0.0 0.0 0.09854558 0.0 0.0 2.9012842 3.6496027 0.34983546 0.0 
3.162684 0.0 0.0 0.0 0.0 0.0 0.0 0.0 0.0 0.19771013 0.0 0.71877134 2.854587 3.0654707 0.0 0.0 
0.0 1.4163808 0.0 1.9688313 0.0 1.3231769 0.0 1.3981633 0.0 0.23243314 3.5628726 0.005244471 0.28763437 0.68275017 0.52651536 0.0 
0.0 1.3672782 0.0 4.1651998 0.0 0.0 0.16226678 0.663653 0.0 0.0 4.102195 0.0 1.7047424 1.0706111 0.89961773 0.0 
0.0 2.7166402 0.0 4.855283 0.0 0.0 0.0 0.0 0.0 0.0 3.774268 0.0 2.7609885 0.6460251 1.8835065 0.0 
0.0 2.6112456 0.0 5.3258233 0.0 0.40644312 0.0 0.0 0.0 0.0 4.3815393 0.0 2.5573952 1.6444386 2.9152994 0.0 
0.0 1.6620075 0.0 5.868934 0.0 0.007839508 0.0 0.0 0.0 0.0 3.320129 0.0 1.502302 1.9738654 2.5618265 1.1081865 

