1.2619171 0.0 3.5548768 0.0 0.0 0.0 2.1921003 0.0 0.0 0.36618584 0.0 0.57454276 0.62323433 0.5345297 1.6182077 0.9819143 
1.3434013 0.0 0.0 0.0 0.0 0.17075127 0.0 0.0 0.84993196 0.17748687 0.0 3.1692483 1.1587082 0.0 0.0 0.0 
1.0277907 0.17653154 1.70363 0.0 0.024673745 1.6682456 0.0 0.0 0.0 0.0 0.0 0.31717077 0.0 1.3395439 0.0 0.0 
1.2517678 1.9707026 2.6231968 0.0 0.0 0.0 1.4546642 0.0 0.0 0.54284966 0.0 1.1523577 0.0 0.18289027 0.0 1.2115413 
1.2594539 0.6414263 0.0 0.48847315 1.4171574 0.8451995 0.50958663 0.0 0.0 0.5995815 0.0 3.3715777 1.1013416 0.032062598 0.0 0.0 
0.0 0.0 4.3046327 0.0 0.0 0.0 2.4931667 0.0 0.0 0.0 0.0 0.0 0.47543663 0.0 2.5626032 0.0 
0.2620363 0.0 0.0 0.0 0.0 0.0 0.0 0.0 1.717056 0.0 0.0 3.9016237 0.82370996 0.0 0.0 0.0 
0.09839454 0.0 1.6754146 0.0 0.4011665 3.019116 0.0 0.0 0.0 0.0 0.0 2.4055905 0.0 0.6855953 0.0 0.0 
0.7503746 0.0 3.407075 0.0 0.0 0.19056499 1.8903062 0.036690608 0.0 0.0 0.0 0.0 0.0 1.6530243 1.7740791 0.0 
0.81445867 0.0 0.0 0.0 0.0 0.0 0.0 0.0 1.2958025 0.0 0.0 3.831233 1.4808663 0.0 0.0 0.0 
0.0 0.0 2.767499 0.0 0.0 2.6888175 1.7211802 0.10803515 0.0 0.066674426 1.6132315 0.0 0.0 1.4987208 1.6817364 0.0 
1.6834757 0.0 0.0 0.0 0.0 0.0 0.0 0.0 0.0 0.0 1.2349988 0.0 1.1898352 1.6702862 1.958971 0.0 
1.9291404 0.0 0.0 0.0 0.0 0.0 0.0 0.0 0.0 0.0 0.29726258 1.5046016 1.8801165 0.56104743 0.0 0.0 
0.0 0.0 4.5567956 0.0 0.0 0.0 0.58176136 0.0 0.0 0.0 0.0 0.0 1.1251649 0.0 1.45118 0.0 
0.0 0.0 0.0 0.0 0.0 0.0 2.7772489 0.0 1.6152887 0.0 0.0 1.9046758 0.78390735 0.0 0.0 0.0 
0.0 2.0714688 0.0 2.159802 0.0 1.5611336 0.45128274 0.42824048 0.0 0.26885006 2.8650253 0.0 0.21883647 0.0 1.2281904 0.0 
0.0 2.1169214 0.0 5.4976883 0.0 0.23665425 0.0 0.0 0.0 0.0 3.8625138 0.0 1.6326779 0.35291836 2.0786872 0.0 
0.0 1.6778483 0.0 4.336654 0.78244495 0.8397717 0.0 0.0 0.1127855 0.25426012 3.8137116 0.0 1.1032476 0.0 0.0861513 0.5463969 
0.0 0.0 2.471933 1.2799691 0.14439657 2.606911 0.45592803 0.0 0.0 0.25313282 0.45215088 0.0 0.0 0.0 0.93335015 0.09357201 
0.0 0.0 0.0 0.0 0.0 0.0 3.2524502 0.0 1.2918139 0.0 0.0 0.85234 0.13403799 0.0 0.12213875 0.0 
0.4629471 1.6715952 0.0 2.9489121 0.0 0.0 0.7377716 0.4408059 0.02104422 2.1168926 0.09887025 0.3469623 0.0 0.0 0.0 0.0 
0.0 1.9545074 0.0 4.3886952 0.23072383 0.3229093 0.8394822 0.0 0.104855254 3.0646033 0.43214166 0.0 0.0 0.0 0.0 0.67760706 
0.0 0.31879866 0.0 1.7932112 1.7074714 1.9324768 0.070805825 0.0 0.03361581 2.1137648 1.148394 0.0 0.0 0.0 0.0 1.3436885 
0.0 0.0 2.351178 0.0 0.13742387 3.7796726 0.9179672 0.4103878 0.0 0.46543002 1.7545205 0.0 0.0 1.0153311 0.6808898 0.0 
0.0 0.0 0.0 0.0 0.0 0.0 3.1917164 0.0 1.5828404 0.0 1.5414138 0.0 0.12391925 1.557282 0.87198085 0.0 

