0.0 0.21063282 0.0 0.0 0.0 0.97038513 0.0 0.0 0.0 0.14640787 1.3640084 0.0 0.8207452 2.5564337 1.5349697 0.1196245 
1.2683372 0.0 0.0 0.0 0.0 0.019561395 0.079180986 0.0 0.0 0.0 1.9559383 0.0 0.7534711 5.4749103 3.8579018 0.0 
1.9877324 0.0 0.7363205 0.0 0.0 0.0 0.0 0.0 0.0 0.0 0.0 0.0 1.494695 3.198815 3.8027275 0.0 
1.5740345 0.0 0.0 0.0 0.0 0.0 0.0 0.0 0.0 0.0 0.0 4.001276 2.2260232 0.0 0.0 0.0 
0.6819656 0.0 1.020455 0.0 0.0 0.53464466 0.0 0.0 0.0 0.0 0.0 0.95889413 0.4815436 0.41516757 0.0 0.0 
0.45769098 1.1916306 0.0 0.5654092 0.0 0.0 0.83381385 0.0 0.0 0.79292464 0.23062178 0.36761758 0.0 0.0 0.0 0.0 
0.0 1.6518037 0.36679274 0.65786535 1.1088995 1.0073223 0.0 0.0 0.02701205 2.6386163 0.08001433 0.0 0.0 0.0 3.263211 0.72689176 
0.0 0.0 3.821811 0.9634503 0.0 0.68883455 3.7520423 0.0 0.0 1.509278 0.0 0.0 0.44586682 0.0 5.6239247 0.18377794 
0.0 0.0 0.0 0.0 0.0 0.0 1.2774948 0.0 2.4973419 0.0 0.0 2.9256659 0.9316226 0.0 0.0 0.0 
0.08373307 0.0 0.8234511 0.0 0.0 0.04094571 0.0 0.0 0.0 0.0 0.0 1.7533895 0.6046099 0.0 0.0 0.0 
0.3309709 0.18316473 0.0 0.0 0.9914285 0.22460815 0.42029744 0.0 0.0 0.025341813 0.0 0.0 0.0 0.0 0.0 0.0 
0.1950127 0.5511403 1.545609 0.0 1.2587452 0.0 0.0 0.0 0.0 1.4821782 0.0 0.0 0.0 0.0 0.0 2.1362128 
0.0 0.0 2.488237 0.0 0.0 0.0 4.7695208 1.7203741 0.40559253 1.0182093 0.0 0.0 0.31277752 0.0 0.0 0.0 
0.0 0.0 0.0 0.0 0.0 0.0 0.81000745 0.0 4.7751293 0.0 0.0 0.0 0.14744338 0.0 0.0 0.6479657 
0.0 0.29998302 0.0 1.1215621 0.7361608 0.10148351 0.0 0.0 0.0 0.0 0.16013989 1.0190881 0.35222536 0.0 0.0 0.6764918 
0.1926919 0.0 0.0 0.0 1.1027704 1.591877 0.0 0.0 0.0 0.0 0.7358653 0.0 0.0 0.0 0.0 0.3092688 
0.0 0.0 0.9283441 0.0 0.21823731 1.1806674 0.33215207 3.050676 0.0 0.21824127 0.0 0.0 0.0 0.2629662 0.0 1.1174036 
1.7682023 0.0 0.0 0.0 0.0 0.0 2.8718228 2.6762033 2.0144827 0.0 0.0 0.0 0.0022390783 0.0 0.0 0.0 
1.8668618 0.0 0.0 0.0 0.0 0.0 0.0 0.0 2.5819697 0.0 0.0 0.0 0.0 0.27250782 0.0 1.3068128 
0.89383334 0.07362454 0.0 0.0 0.7183066 0.0 0.0 0.0 0.0 0.3696771 0.0 0.9876107 0.92123735 0.03294135 0.0 0.0 
0.0 0.44042173 0.0 0.0 0.31489226 1.4661579 0.0 0.12508193 0.08513406 0.0 1.9928656 0.35179776 0.0 0.0 0.0 0.0 
0.0 0.58908606 0.0 0.20717424 0.0 2.8324983 1.6037188 2.509777 0.0 0.0 2.958284 0.0 0.3243292 2.8894284 1.2429469 0.0 
0.0 0.0 0.0 0.0 0.0 0.0 1.3069615 0.21628766 0.0 0.0 3.9121182 0.0 0.96005327 3.1894674 1.7265333 0.0 
0.0 0.27209052 0.0 3.000878 0.0 0.0 0.0 0.0 0.0 0.0 2.8138294 0.0 2.607765 2.3241673 1.4458652 0.0 
0.15233453 0.5197286 0.0 2.9080465 0.0 0.0 0.0 0.0 1.0331149 0.0 1.7769127 0.1580692 1.8661659 1.5774198 0.9189022 1.3654177 

