0.84284854 0.0 2.4236536 0.0 0.0 1.2359543 1.7664562 0.12528239 0.0 0.036984604 0.0 0.0 0.36028552 0.86035514 1.2436795 0.7714846 
0.5386486 0.0 0.0 0.0 0.0 0.0 2.4911425 0.0 1.1141127 0.016268943 0.0 2.8471713 0.81838906 0.0 0.0 0.0 
0.5339172 0.0 1.5827656 0.0 0.01896064 2.1522224 0.0 0.0 0.0 0.0 0.0 0.2816077 0.0 1.0788937 0.0031609982 0.0 
0.6478105 0.39596498 3.0372748 0.0 0.0 0.0 2.3527627 0.0 0.0 0.24062192 0.0 0.80739343 0.12972565 0.3874757 0.6028846 1.0770563 
0.5982555 0.0 0.0 0.0 0.2555627 0.37774733 0.39292115 0.0 0.37241608 0.30669475 0.0 3.0863101 0.70768726 0.21981612 0.0 0.0 
0.0 0.11036866 4.1811814 0.061342243 0.0 2.4004357 2.6433396 0.59379774 0.0 0.0 0.0 0.0 0.0 0.0 1.5599964 0.0 
0.0 0.0 0.0 0.0 0.0 0.0 2.8837125 0.0 2.3891246 0.0 0.0 2.4120166 0.16277753 0.0 0.0 0.0 
0.0 0.0 1.9327637 0.0 0.2863442 2.8650017 0.0 0.0 0.0 0.0 0.0 2.0777318 0.0 0.0 0.14755337 0.0 
0.16462289 0.0 4.6368437 0.0 0.0 0.33912405 3.3684087 0.0 0.0 0.0 0.0 0.0 0.0 0.113373585 1.8102275 0.0 
0.48328558 0.0 0.0 0.0 0.0 0.0 0.0 0.0 0.99494123 0.0 0.0 2.849841 0.5802643 0.0 0.0 0.0 
0.0 0.0 3.4377964 0.0 0.0 4.092829 1.9634702 0.9155535 0.0 0.0 0.16569859 0.0 0.0 2.8358207 0.85808545 0.0 
1.0320873 0.0 0.0 0.0 0.0 0.0 1.6460023 0.0 0.20450465 0.0 0.41238913 1.074859 0.0 1.7853646 0.0 0.0 
1.4084884 0.33537236 0.48993003 0.0 0.38196772 0.0 0.0 0.0 0.0 0.60953295 0.0 2.0046437 0.29385215 0.0 0.0 0.0 
0.101215675 0.0 3.5676568 0.0 0.0 0.0 2.6331072 0.48482668 0.0 0.9361783 0.0 0.0 1.9282062 0.0 0.6704435 0.0 
0.0 0.0 0.0 0.0 0.0 0.0 0.0 0.0 2.1910572 0.0 0.12001556 0.30113354 1.2916094 0.63476956 0.0 0.0 
0.0 1.3210964 1.5339398 0.16141416 0.0 1.9204185 1.0708368 0.0 0.0 0.0 1.3541592 0.0 0.5203525 1.6623625 2.3079467 0.0 
0.0 1.1617383 0.0 1.558064 0.0 0.0 0.81020707 0.0 0.0 0.0 4.3324294 0.0 0.8734874 3.3999724 2.9053614 0.0 
0.0 2.9996953 0.0 3.3715062 0.0 0.33514184 0.0 0.0 0.0 0.0 3.7260337 0.0 1.8188475 2.4993563 0.7334537 0.0 
0.0 1.548404 2.104198 4.3774505 0.0 0.0 3.059248 0.6871288 0.31591636 0.0 0.0 0.0 1.6830316 0.0 0.0 0.0 
0.0 0.0 0.0 0.0 0.0 1.0265355 0.0 0.0 3.2054758 0.0 0.0029815622 0.7827915 0.3966239 0.16196626 0.0 0.0 
0.44251016 1.2822096 0.0 1.8182182 0.0 0.0 0.63972676 0.13566837 0.0 1.1601727 0.13920689 0.34197715 0.0 0.0 0.0 0.0 
0.2055615 1.5605592 0.0 2.8278096 0.106946625 0.0 0.8091156 0.0 0.3162582 2.6236892 0.41686332 0.0 0.0 0.0 0.0 0.16481146 
0.0 0.46837074 0.41752878 0.8827245 0.6997476 3.3752806 0.0 0.0 0.0 3.1495025 0.9927361 0.0 0.0 0.0 0.60687846 0.42612046 
0.0 0.0 1.8753976 1.5212746 0.0 0.6374462 2.5020983 0.0 0.0 1.5453635 1.3960968 0.0 0.0 1.1171423 1.1103339 0.0 
0.0 0.0 0.0 0.0 0.0 0.28831175 0.0 0.0 2.0307782 0.0 0.6979558 1.0549636 0.8629383 0.4619998 0.0 0.0 

