0.81261843 1.2660517 1.970936 0.0 0.3071352 0.7665965 0.0 0.0 0.014927041 0.2706283 0.0 0.0 0.0 0.5438921 0.23678796 1.5721825 
0.8136645 1.4167247 0.0 0.08121955 1.1839614 0.0 1.7732154 0.0 0.0 0.48649675 0.0 1.9403924 0.3613692 0.0 0.0 0.69751704 
0.94196326 0.0 0.71450424 0.10789244 0.91525763 0.7080539 0.0 0.0 0.32471064 0.0 0.0 0.74503875 0.0 0.20877734 0.0 0.0 
0.9179268 0.20133498 2.8552458 0.0 0.5017372 0.66372037 0.36810818 0.0 0.0152851045 0.48297942 0.0 0.0 0.29186213 0.15318844 1.4596896 2.0380127 
1.1002805 0.0 0.0 0.0 0.0 0.0 3.5215454 0.42791373 0.4875981 0.36912668 0.0 1.7264649 0.9189478 0.0 0.0 0.0 
0.0765274 0.3099915 2.9379086 0.0 0.0 0.6156617 1.3196828 0.0 0.070077285 0.14231665 0.0 0.0 0.40671176 0.0 1.1727669 1.0908061 
1.4987864 0.0 0.0 0.0 0.0 0.0 3.2153249 0.0 1.0912722 0.0 0.0 1.1939224 0.35816514 0.0 0.0 0.0 
1.5816635 0.6027466 0.38675556 0.0 0.57875353 0.0 0.0 0.0 1.2948422 0.31254122 0.0 0.97986627 0.0 0.0 0.0 0.57865065 
0.45380244 0.5810514 1.270253 0.0 0.83723795 0.0 1.883189 1.3860266 0.0 0.5077444 0.0 0.0 0.77704465 0.0 0.539769 1.4247981 
0.0 0.0 0.0 0.0 0.0 0.0 3.1969552 1.3538085 4.0758953 0.0 0.0 0.0 0.3996719 0.0 0.0 0.0 
0.8739578 0.77500755 2.0243974 0.0 0.0 0.4227246 2.0548315 1.6922092 0.0 0.75006056 0.0 0.0 0.0 0.25213045 0.38129485 0.3485804 
1.5305579 0.0 0.0 0.0 0.0 0.0 1.1336615 0.08268739 0.0 0.6188367 0.0 0.0 0.9180111 0.45697007 0.0 0.0704311 
1.1284397 0.0 0.35922194 0.0 0.0 0.0 0.0 0.0 0.0 0.0 0.0 0.0 1.8257793 0.7441432 0.44028252 0.0 
0.10919388 0.0 1.8309227 1.0672553 0.0 0.0 3.19031 1.1621724 0.29791787 0.0 0.0 0.26451835 1.3330156 0.0 0.0 0.0 
0.0 0.0 0.0 0.0 0.0 0.6251771 0.0 0.0 3.6863492 0.0 0.0 0.2324408 0.61761236 0.0 0.0 0.030150548 
0.0 0.19787145 1.1286463 2.3337114 0.0 0.89008385 1.8674968 1.9628863 0.0 0.0 2.492433 0.0 1.8837246 0.87901706 0.535496 0.0 
0.0 0.06348084 0.0 3.2012942 0.0 0.0 0.0 0.0 1.7594569 0.0 2.7086487 0.0 1.5931447 0.0 0.0 0.0 
0.0 0.34820223 0.2494542 1.0351503 0.0 0.0 0.07771649 0.0 0.14657956 1.016075 0.0 0.0 0.049791068 0.0 0.42249936 2.441542 
0.0 0.0 0.0 1.4768367 0.0 0.0 4.157074 0.0 2.3655226 0.0 0.0 0.0 0.13055898 0.0 0.0 0.0 
0.0 0.0 0.0 0.0 0.0 0.5594566 0.0 0.0 2.5941687 0.0 0.20539948 0.0 0.0 0.0 0.0 0.19021115 
0.0 2.1736135 0.0 5.1213307 0.23016316 0.10847801 1.0202901 1.1441966 0.6666455 2.3230941 1.2759249 0.0 0.0 0.0 0.0 0.0 
0.0 0.7272606 0.0 3.0984743 1.7296752 2.1719377 0.0 0.0 1.882381 1.5905969 1.603324 0.0 0.0 0.0 0.0 2.9105906 
0.0 0.0 0.9228986 0.0 0.0 2.5861158 3.639531 1.5280488 0.0 0.36365622 1.1522796 0.0 0.05304628 1.2807083 0.0 1.9806944 
0.0 0.0 0.0 0.0 0.0 0.0 3.5859523 0.117434904 3.5457509 0.0 0.76003796 0.0 0.0 0.2660571 0.0 0.0 
0.0 0.0 0.0 0.21174726 0.0 0.67154515 0.0 0.0 0.4904048 0.0 0.1286009 0.43381986 0.5040894 0.0 0.0 0.2552073 

