0.946531 0.42576727 1.117279 0.0 0.54780185 0.27316445 0.0 0.0 0.0 0.6755907 0.0 0.0 0.0 0.35969645 0.77514005 1.8753988 
2.4463837 0.6170815 0.8371438 0.0 0.0 0.0 1.6477464 0.0 0.0 0.6916918 0.0 0.0 1.2457536 1.9815668 1.0355016 1.6965023 
2.8969069 0.0 0.55461276 0.0 0.0 0.0 0.0 0.16231427 0.0 0.25289637 0.0 0.0 0.9033456 4.0093937 0.0 0.0 
1.6213953 0.0 0.0 0.0 0.0 0.47933912 0.0 0.0 0.0 0.31768745 0.0 3.1123114 1.4972959 0.0 0.0 0.0 
0.7230508 0.0 0.5590193 0.28168118 0.32977748 0.87698686 0.0 0.0 0.0 0.0 0.23081061 0.27024782 0.3114211 0.72424567 0.0 0.0 
0.0 0.17254864 1.5289645 0.0 0.8531844 0.630943 0.0 0.3827048 0.08201493 0.034568783 0.0 0.0 0.15800174 0.0 0.5082844 1.715911 
0.0 0.0 0.0 0.0 0.0 0.0 2.618449 1.0483829 0.57580125 0.30594194 0.0 0.9295043 1.2506428 0.0 0.4887672 0.0 
0.0 0.0 1.3436465 0.7586233 0.0 1.1424203 0.0 0.0 1.2020645 0.44761544 0.0 0.0 0.19259112 0.943442 3.0459127 0.0 
0.0 0.0 0.0 1.002812 0.0 0.0 0.49385917 0.0 0.0 0.0 0.0 3.8759332 1.0355797 0.0 1.0597191 0.27990904 
0.2520036 0.0 0.94675785 0.0 0.0 0.40201163 0.0 0.0 0.0 0.0 0.0 2.6611989 0.87241936 0.23016885 0.0 0.0 
0.0 0.0 1.0550458 0.0 0.3376394 2.6957662 0.38913324 1.3442638 0.0 0.0 1.4106567 0.0 0.0 2.683223 0.0 0.0 
0.8460067 0.0 0.0 0.0 0.0 0.0 2.4938517 1.8302423 0.45909473 0.7205733 2.103566 0.22926679 0.0 2.5750725 0.0 0.0 
0.2049637 0.0 4.1882286 0.0 0.0 0.54717964 0.0 0.0 0.0 0.7426607 0.0 0.0 1.2468973 0.20700243 1.1464069 0.0 
0.11466856 0.0 1.052295 0.0 0.0 0.0 2.0187688 0.0 2.8884237 0.0 0.0 0.3415189 1.3545339 0.0 0.76439774 0.0 
0.0 0.0 0.5230069 0.0 0.0 0.0 0.0 0.0 1.363661 0.0 0.0 2.2560575 0.91723675 0.0 0.0 0.0 
0.0 1.2898743 1.0002491 0.23939168 0.0 1.2104676 0.1606697 0.14189653 0.0 0.0 1.0902944 0.035090506 0.31226754 0.6758911 1.6971604 0.0 
0.0 1.2676644 0.0 1.8297691 0.0 0.0 0.6338351 0.0 0.0 0.0 4.4987845 0.0 0.6552205 1.7443407 1.7728463 0.0 
0.0 2.12605 2.559758 3.8085604 0.0 1.2124794 0.0 0.0 0.0 0.0 2.939893 0.0 1.0603094 1.0329325 0.85570306 0.0 
0.0 0.0 0.87738824 2.444569 0.0 0.0 3.5052724 0.0 1.679848 0.0 0.0 0.0 0.71518344 0.0 0.47350216 0.0 
0.0 0.0 0.16382143 0.0 0.0 0.06671485 0.0 0.0 1.2020552 0.0 0.0 1.570416 0.2411385 0.0 0.0 0.0 
0.295284 0.8219731 0.0 1.1415491 0.0 0.0 0.40548247 0.056565717 0.0 1.0059707 0.09669277 0.1770815 0.0 0.0 0.0 0.0 
0.1501443 1.1071666 0.0 2.1388178 0.6504638 0.0 0.509153 0.0 0.42934147 2.4805408 0.30643886 0.0 0.0 0.0 0.0 0.0 
0.0 0.03237897 2.3556051 0.70514303 1.3892167 2.2185924 0.0 0.0 0.0 2.6589613 0.28548804 0.0 0.0 0.0 0.7805788 0.20655175 
0.0 0.0 0.7674003 0.61406 0.0 0.0 3.9395897 0.5365931 1.4366798 0.0 0.0 0.0 0.0 0.020660914 0.5808065 0.0 
0.0 0.0 0.06883456 0.0 0.0 0.11187515 0.0 0.0 1.780746 0.0 0.0 0.5824355 0.34809113 0.0 0.0 0.0 

