2.4888535 2.6384404 0.17383355 0.0 0.0 0.0 0.0 0.0 0.0 0.22045249 0.0 0.0 0.0 2.8429098 0.0 0.36259124 
3.8140569 1.9012396 0.0 0.0 0.026935607 0.0 0.0 0.0 0.0 0.4345525 0.0 0.9811735 0.28033173 1.617947 0.0 0.0 
3.9250956 1.5870262 0.30234513 0.0 0.5074234 0.0 0.0 0.0 0.0 0.16320512 0.0 0.25056663 0.0 1.421764 0.0 0.0 
3.348251 1.6033478 1.9750963 0.0 0.51618356 0.0 0.0 0.0 0.0 0.70328945 0.0 0.053964794 0.63156617 0.0 0.0 0.0 
2.5629692 0.5472984 0.0 0.07356701 1.5122354 0.2291536 0.020186359 0.0 0.0 0.75402814 0.0 1.8355639 1.1946384 0.0 0.0 0.0 
0.0 1.4670156 0.0 1.4196091 0.0 0.8761509 0.0 0.0 0.0 0.0 3.2481523 0.0 1.845742 3.898277 3.2026408 0.0 
0.0 1.8122686 0.0 2.6598923 0.0 0.0 0.0 0.0 0.0 0.0 3.5455666 0.0 2.6402297 4.239613 2.85747 0.0 
0.0 2.2349555 0.3433571 1.7361436 0.0 0.0 0.0 0.0 0.0 0.0 2.2198896 0.0 2.0875385 4.355087 3.5874124 0.0 
0.8123389 0.7500788 2.0323746 0.46213916 0.0 0.0 1.3709527 0.0 0.0 0.0 0.4204967 0.0 2.4016633 2.2605243 3.0249658 0.0 
1.1436507 0.0 0.0 0.0 0.0 0.0 0.8912133 0.0 2.7244236 0.0 0.25125492 1.7056559 1.8272727 0.48271772 0.0 0.0 
0.40102407 1.3445046 0.0 3.2132072 0.0 0.0 1.1074044 0.0 0.08081961 2.5941079 0.0 0.0 0.0 0.0 0.0 0.0 
0.20871167 1.1584471 0.0 3.4913108 1.3174075 0.052080512 0.85647553 0.0 0.09416698 2.6535118 0.0 0.0 0.0 0.0 0.0 1.7196733 
0.0 1.4853805 0.7684643 0.7878704 0.97745776 0.0 1.2406464 0.0 0.0 3.5320914 0.0 0.0 0.0 0.0 1.257419 3.5571449 
0.0 0.0 0.0 1.0323247 0.0 0.0 4.115261 1.288319 2.34624 2.187936 0.0 0.0 0.0 0.0 1.0361073 0.0 
0.0 0.0 0.0 0.50234884 0.0 0.4457811 0.0 0.0 4.1248927 0.0 0.48365572 0.0 0.0 0.0 0.0 1.3267521 
0.14901026 0.015354168 0.0 0.04333396 0.685633 0.06464094 0.3347394 0.0 0.0 0.0 0.0 0.0 0.0 0.0 0.0 0.0 
0.12548703 0.371934 1.4913034 0.0 1.2416298 0.0 0.0 0.0 0.1436837 0.89566225 0.0 0.0 0.0 0.0 0.36158448 2.5173028 
0.0 0.0 1.6829066 0.0 0.0 0.0 4.178515 3.524854 0.0 0.42948687 0.0 0.0 0.43270957 0.0 0.0 1.6222425 
0.0 0.0 0.0 0.0 0.0 0.0 3.3993964 3.1779435 4.788144 0.0 0.0 0.0 0.0 0.0 0.0 0.0 
0.0 0.0 0.0 0.0069881566 0.0 0.4727348 0.0 0.0 2.1422122 0.0 0.29001713 0.0 0.0 0.0 0.0 1.1058527 
0.35611343 0.34542856 0.0 0.0 0.8906282 0.86382 0.12517996 0.0 0.0 0.24444813 0.10206016 0.0 0.0 0.0 0.0 0.5994393 
0.0 0.5253841 0.7323497 0.0 0.71561694 0.0 0.994621 2.1356876 0.0 0.8220112 0.0 0.0 0.11390807 0.0 0.25276363 2.2418888 
0.0 0.0 0.0 0.0 0.0 0.0 3.3461456 3.0289686 3.744908 0.21648043 0.0 0.0 0.15199994 0.0 0.0 0.0 
0.0 0.0 0.0 0.0 0.0 0.38320947 0.0 0.0 4.8322945 0.0 0.39937872 0.0 0.0 0.0 0.0 1.1136734 
0.0 0.08015569 0.0 0.27095345 0.053071283 0.035553813 0.0 0.0 0.0 0.0 0.20747274 0.0 0.0 0.0 0.0 0.9665008 

