0.9527429 0.99399835 2.2850604 0.0 0.0 0.0 1.4103619 0.0 0.0 0.32207537 0.0 0.0 0.309556 0.94659686 0.594241 1.1248567 
1.0920368 0.0 0.0 0.0 0.759501 0.63408905 1.5337178 0.0 0.40482402 0.47343296 0.0 2.3253615 0.54915315 0.0 0.0 0.0 
0.7870537 0.0 3.9623244 0.0 0.6174479 2.7652867 0.0 0.0 0.0 0.0 0.0 0.0 0.0 1.4291544 0.90966374 1.0642704 
0.7880825 0.0 0.30008724 0.0 0.0 0.0 2.9661522 0.0 0.8230546 0.18854591 0.0 2.6938314 0.89615566 0.0 0.0 0.0 
0.929826 0.0 1.0087981 0.0 0.0 0.32621312 0.0 0.0 1.3227683 0.0 0.0 2.292356 0.89337844 0.17342374 0.0 0.0 
0.1789911 0.0 2.9821408 0.0 0.0 2.485469 2.036087 0.8079325 0.0 0.0 0.0 0.0 0.35528046 0.724338 1.7038802 0.0 
0.0 0.0 0.0 0.0 0.0 0.0 1.8714306 0.0 1.8050518 0.0 0.0 3.852553 0.37986475 0.0 0.0 0.0 
0.0 0.14899604 5.2547474 0.0 0.0 3.5032754 0.0 0.0 0.0 0.0024544448 0.0 1.0827692 0.0 0.09972096 1.232694 0.0 
0.17311084 0.0 1.3938944 0.7887613 0.0 0.0 3.8798385 0.0 2.5076935 0.0 0.0 1.5463521 0.016815118 0.0 0.42637318 0.0 
0.0 0.0 0.14813489 0.36915344 0.0 0.41604722 0.0 0.0 1.3721172 0.0 0.04264608 2.9809353 0.6557109 0.29081768 0.0 0.0 
0.0 0.0 2.3579948 0.0 0.0 4.204807 1.852942 1.0880864 0.0 0.0 1.4338211 0.0 0.1383111 3.2572587 1.6565607 0.0 
1.3744133 0.0 0.0 0.0 0.0 0.0 0.8433377 0.0 0.0 0.0 3.7633245 0.0 0.18379097 3.5185258 0.3942291 0.0 
1.3789982 0.0 4.4101195 0.0 0.0 0.0 0.0 0.0 0.0 0.4302217 0.8606363 0.89433956 1.909977 1.6266611 0.0 0.0 
1.8260899 0.0 2.8185194 0.0 0.0 0.0 1.8272468 0.2386436 0.43042198 0.0 0.0 0.0 2.7208931 0.6101699 1.1548152 0.0 
0.82414436 0.0 0.0 0.0 0.0 0.0 0.0 0.0 1.4097074 0.0 0.29748544 1.7541884 1.0468004 1.3446534 0.0 0.0 
0.0 1.7882566 1.0194825 1.3520168 0.0 1.1918347 0.37906796 0.0 0.0 0.016646367 1.1069803 0.046606272 0.6840743 0.0 2.2605858 0.0 
0.0 1.6797949 0.0 2.5814598 0.0 0.0 0.0 0.0 0.0 0.85161054 4.6436214 0.0 0.8105396 0.7617442 2.7480614 0.0 
0.0 1.8755155 1.7953475 3.131586 0.39722407 1.2925878 0.0 0.0 0.0 1.2539424 3.7329998 0.0 0.75778115 0.07100544 0.74577457 0.007892716 
0.0 0.0 1.156224 3.1488874 0.0 0.0 2.7977257 0.0 0.33851087 0.5084222 0.0 0.0 1.2909249 0.0 1.2973795 0.0 
0.0 0.0 0.0 1.4597659 0.0 0.5027141 0.0 0.0 2.2803319 0.0 0.9263182 0.5293281 0.16496255 0.2679722 0.0 0.0 
0.37163642 0.7480828 0.0 1.4752145 0.0 0.0 0.42186615 0.12797667 0.0 1.5909792 0.058340184 0.05542478 0.0 0.0 0.0 0.0 
0.0 0.8559805 0.0 2.1417933 0.5958909 0.0 0.6224123 0.0 0.33647066 2.614842 0.95627177 0.0 0.0 0.0 0.0 0.18430753 
0.0 0.0 2.061966 0.0 1.109851 2.673771 0.0 0.06076522 0.0 2.3714373 1.7895494 0.0 0.0 1.5362983 0.0 0.64073145 
0.0 0.0 0.90593964 0.0 0.0 0.0 4.2267346 1.0267007 1.7239877 0.71655774 1.033579 0.0 0.24060743 1.940545 0.052053407 0.0 
0.0 0.0 0.19695581 0.0 0.0 0.45985395 0.0 0.0 2.4763477 0.0 0.0 1.0234514 0.89447415 0.14378971 0.0 0.0 

