0.98872095 0.041714594 2.3261437 0.0 0.5660546 0.45055044 0.0 0.0 0.0 0.81478214 0.0 0.0 0.80731744 0.26125345 0.93058556 2.8219666 
1.7144946 0.0 0.0 0.0 0.0 0.0 1.0347314 0.04374239 0.0 1.0712006 0.0 0.0 3.010421 2.01688 0.53140473 1.3293825 
1.47781 0.0 0.0 3.0045595 0.0 0.0 0.0 0.4580487 0.19237927 0.0 1.9835999 0.0 2.4585683 4.077136 0.86571807 0.0 
0.96902853 1.0219737 0.0 4.832125 0.0 0.0 0.0 0.0 0.30806714 0.0 2.6076944 0.0 2.4005516 2.983791 0.52886564 0.40954402 
0.26314992 0.3867909 0.5060212 2.818863 0.0 0.0 0.0 0.0 0.8485141 0.0 1.6856203 0.64804983 1.3294085 0.5735472 0.0 0.9764181 
0.09013857 0.5402419 0.99347436 0.0 0.6403535 3.192909 0.47489887 2.0198627 0.0 0.3183871 0.31723985 0.0 0.019175261 1.0295194 0.0 0.0 
2.0357869 1.4160545 0.0 0.0 0.0 0.0 2.677569 2.1503484 0.0 1.7017906 0.0 0.28649545 0.029574133 0.28075162 0.0 0.0 
2.4252763 2.9407809 0.0 4.7792373 0.0 0.0 0.0 0.0 0.0 1.5919348 0.0 0.0 0.0 0.0 0.0 0.0 
1.2815914 1.8226706 0.0 4.4323297 2.0217016 0.70789796 0.0 0.0 0.0 2.1659024 0.0 0.42066118 0.5327161 0.0 0.0 0.57228416 
0.8670494 0.0 0.0 2.5751765 1.9804827 1.5142252 0.0 0.0 0.0 0.7068142 0.50255626 1.0959365 0.5915827 0.3521543 0.0 0.049786907 
0.0 1.8081759 1.4575492 0.48781145 0.0 2.44799 1.2670269 0.97357446 0.0 0.04738648 1.7115679 0.0 0.10529964 2.2234983 0.7782791 0.0 
0.0 1.9751333 0.0 1.9128506 0.0 0.0 2.3314083 0.0 0.035133157 0.0 3.2151752 0.0 0.698936 4.0128636 1.9630103 0.0 
0.4789842 1.9404767 0.0 2.2638693 0.0 1.0573976 0.0 0.0 0.0 0.0 3.429616 0.0 1.5865892 5.525835 2.903431 0.0 
1.5509567 0.0 0.0 0.625765 0.0 0.0 0.0 0.0 0.0 0.0 1.6923375 0.0 1.2880121 4.2074366 2.4336011 0.0 
1.2316033 0.0 0.0 0.0 0.0 0.0 0.0 0.0 0.0 0.0 0.0 4.4976172 2.0777016 0.0 0.0 0.0 
2.0601573 3.7919953 0.0 1.2301611 0.0 1.2263947 0.0 0.0 0.0 1.4353653 0.0 0.057608813 0.0 0.9291024 0.0 0.0 
2.615579 4.638779 0.0 2.896625 0.0 0.0 0.26111546 0.0 0.0 2.2518182 0.0 0.0 0.0 0.0 0.0 0.0 
2.6808214 2.180795 0.0 2.8840058 0.0 2.0021772 0.0 0.0 0.0 2.1649666 0.0 0.37990704 0.0 0.0 0.84098583 0.0 
0.0 0.19216962 0.062311586 1.7702963 0.0 2.3263607 0.0 0.0 0.0 2.4119062 0.0 0.0 0.0 0.0 4.015291 0.0 
0.0 0.0 0.0 0.20184872 0.0 0.0 0.0 0.0 0.0 0.0 0.0 3.3327413 0.3074144 0.0 1.4226921 0.0 
0.0 0.5032971 0.0 0.0 0.0 2.014588 0.0 0.004193008 0.0 0.0 1.7413697 0.0 0.8717526 3.4538436 2.2230377 0.0 
1.8358034 0.0 0.0 0.0 0.0 0.0 0.21597552 0.0 0.0 0.0 4.6012836 0.0 1.3020531 4.652925 3.6000834 0.0 
2.7522523 0.0 0.0 0.0 0.0 0.0 0.0 0.0 0.0 0.19040486 5.3812346 0.0 2.6228206 3.2431283 1.2967122 0.0 
0.47431198 0.0 1.8538574 0.50258213 0.0 0.0 0.0 0.009792648 0.0 0.69226223 4.2378273 0.0 2.6831183 1.6963371 0.0 0.0 
0.0 0.0 0.0 1.663803 0.0 0.0 0.52668726 0.0 2.910265 0.0 2.2727408 0.0 1.7502955 1.1390725 0.48363203 1.3803502 

