0.8281249 0.0 0.0 0.0 0.0 0.0 0.0 0.0 0.0 0.7650291 0.7673787 0.0 1.5471172 2.1005385 0.5688333 1.4885783 
2.1267753 0.0 0.18170801 0.0 0.0 0.0 0.0 0.0 0.0 0.0 0.49229696 0.0 1.2151846 3.8956275 3.085728 0.0 
1.9913161 0.0 0.89786327 0.9175443 0.0 0.0 0.0 0.0 0.0 0.0 0.0 2.3096194 1.7307208 1.1710899 1.1675813 0.0 
0.96394974 0.0 0.88473696 0.058673102 0.0 0.49206918 0.0 0.0 0.0 0.0 0.0 4.067313 1.6445365 0.41454047 0.0 0.0 
0.0 0.0 0.51631355 0.538399 0.25300327 0.77760595 0.03497432 0.0 0.0 0.0 0.31617066 0.0 0.0 0.46705267 0.0 0.0 
0.48094645 2.816403 0.0 0.67828745 0.0 0.51372564 0.0 0.0 0.0 2.9816148 0.100416765 0.0 0.0 0.0 0.0 0.0 
0.0 3.666432 0.0 0.0 0.0 0.0 0.0 0.0 0.0 3.4544804 0.0147980545 0.0 0.0 0.0 3.0548966 1.6664746 
0.7723444 0.0 0.0 0.0 0.0 0.0 0.0 0.0 0.0 0.028249975 0.0 0.0 0.10314843 0.6766717 3.1757402 0.0 
0.52485675 0.0 0.0 0.0 0.0 0.0 0.0 0.0 0.0 0.0 0.0 3.4498136 1.4772102 0.0 0.0 0.0 
0.9735212 0.0 0.0 1.0646815 1.0621499 1.1331236 0.0 0.0 0.0 0.14034891 0.48716775 3.2412438 1.1935128 0.8149577 0.0 0.0 
0.0 1.8628498 0.0 0.0 0.0 0.4019433 0.0 0.0 0.31699103 1.1416202 1.0300215 0.3069431 0.0 0.09468908 0.0 0.3821345 
0.0 4.197676 0.0 4.1204615 0.0 0.0 0.0 1.3202575 0.0 0.0 2.7090619 0.0 1.8362933 0.5464323 0.0 0.0 
0.0 3.0426314 0.0 4.301574 0.0 2.5516734 0.0 0.0 0.5391627 0.0 2.6954103 0.0 1.9763832 4.784791 2.9312756 0.0 
0.0 0.0 0.0 0.43094966 0.0 1.8583629 0.0 0.0 0.0 0.0 1.2852744 0.0 0.43914837 4.370908 3.509556 0.0 
1.0537246 0.0 0.0 0.0 0.0 0.0 0.0 0.0 0.0 0.0 0.0 5.027493 1.9404345 0.0 0.0 0.0 
1.1415269 1.8573623 0.0 0.4526971 0.0 2.0728803 0.0 0.3832695 0.0 0.49199545 0.7273511 0.31798178 0.0 2.2195296 0.0 0.0 
1.8969284 3.1270294 0.0081190355 1.9702741 0.0 0.0 0.27779418 0.6854655 0.0 2.9222617 0.0 0.0 0.0 2.4027743 0.0 0.0 
2.6526716 1.2628944 0.0 1.1253526 0.0 2.3554852 0.0 0.0 0.0 2.071397 0.0 0.46546426 0.0 0.0 0.0 0.0 
0.79930866 0.03628756 1.1226214 0.6050868 0.0 3.9803102 0.0 0.0 0.0 2.2961574 0.0 0.0 0.0 0.0 4.4966307 0.0 
0.0 0.0 0.0 0.33903694 0.0 0.0 0.5916579 0.0 0.121754095 0.0 0.0 1.9988333 0.0 0.0 2.1659393 0.0070936866 
0.0 0.69733727 0.0 0.0 0.0 2.1963553 0.0 0.0 0.0 0.0 0.91152877 0.14660683 0.19246145 0.6943148 1.880014 0.0 
1.062523 0.0 0.10749832 0.0 0.0 1.6661797 0.0 0.0 0.0 0.0 2.8218093 0.0 0.94951385 4.830194 4.3703446 0.0 
1.9108292 0.0 0.0 0.0 0.0 0.0 0.0 0.0 0.0 0.0 5.0750413 0.0 1.9495149 3.6390557 2.7105277 0.0 
0.7527595 0.0 2.3931754 0.36214703 0.0 0.0 0.0 0.0 0.0 0.43633264 4.603142 0.0 2.4185467 1.7062811 0.0 0.0 
0.0 0.0 0.0 1.7591836 0.0 0.0 1.0250899 0.0 3.291039 0.0 1.991441 0.0 1.7163225 0.9465202 0.19850124 0.9529891 

