2.185355 0.61534417 0.0 0.0 0.0 0.07827212 0.0 0.036641926 0.0 0.8646409 1.6718975 0.0 0.9446865 2.8000333 0.3883313 1.0086712 
3.4300277 0.0 0.0 0.0 0.0 0.0 0.0 0.0 0.0 1.4072396 1.7922174 0.0 2.5522187 3.0247102 0.0 0.01225784 
3.55513 0.0 1.345403 0.0 0.0 0.0 0.0 0.0 0.0 0.0 1.2254369 0.0 1.9725134 3.6197803 1.404552 0.0 
2.4056575 0.0 0.8235487 0.0 0.0 0.0 0.06942013 0.0 0.0 0.0 0.0 2.473324 1.7643728 1.0996796 0.0 0.0 
1.1868057 0.0 1.307249 0.0 0.0 0.44009435 0.0 0.0 0.9164097 0.0 0.0 3.0798292 1.4402575 0.37385947 0.0 0.0 
0.0 2.0790157 0.0 2.8732517 0.0 0.0 0.0 0.1652883 0.0 0.7792329 1.7990637 0.0 1.215916 0.03232056 1.2016575 0.0 
0.0 2.427834 0.0 4.4831724 0.0 0.0 0.0 0.0 0.07903226 2.4519916 2.5336366 0.0 1.2365458 0.0 1.1183264 0.0 
0.0 2.1674001 0.37575054 1.9924748 0.9676087 1.4474263 0.0 0.0 0.0 2.859222 1.4951535 0.0 0.0 0.0 3.7098424 1.3218228 
0.0 0.8308587 0.0 2.4050474 0.0 0.0 0.95729375 0.0 0.0 1.3594098 0.0 0.024538398 0.0 0.0 2.1057472 0.0 
1.3465152 0.0 0.0 0.0 0.0 0.0 0.0 0.0 0.0 0.0 0.0 2.1065176 0.41382432 0.0 0.0 0.0 
1.3258442 1.535627 0.28450125 1.4457189 0.0 0.0 0.19420087 0.0 0.074352935 1.9933807 0.0 0.0 0.0 0.0 0.0 1.825506 
1.6082032 1.8547189 0.0 0.9684884 1.5290172 0.0 0.0 0.0 0.0 2.26842 0.0 0.0 0.0 0.0 0.0 2.240855 
0.14270656 0.67420924 0.5362828 0.0 1.3668419 0.0 0.0 0.8638814 0.0 2.1305852 0.0 0.0 1.9986494 0.0 0.0 3.0388532 
0.19351272 0.0 0.0 0.0 0.0 0.0 2.7472432 1.4471598 1.8036458 0.0 0.8146747 0.0 2.635992 1.8128487 0.735699 0.0 
0.0 0.8530199 0.0 3.477244 0.0 0.0 0.0 0.0 0.43821993 0.0 1.9767296 0.0 2.1369827 3.2583325 1.2651895 0.0 
0.74614185 0.6380431 0.28233045 0.0 0.0 0.40347618 0.0 0.20956682 0.0 0.66840124 0.0 0.0 0.7508616 1.119217 0.1292428 1.8772302 
0.24392839 0.0 0.0 0.0 0.0 0.0 0.0 0.46118867 0.0 0.0 0.0 0.0 0.85442936 0.0 0.0 0.0 
0.0 0.0 0.0 2.4930108 0.0 0.0 2.2817018 1.4270554 0.0 0.17107452 0.4038304 0.0 0.8870333 0.0 0.0 0.0 
0.0 0.0 0.0 2.1982377 0.0 0.076137275 0.79115045 1.2439574 2.6597533 0.12840351 0.07840365 0.0 0.32409632 0.0 0.0 0.0 
0.0 0.15962383 0.0 3.431161 0.42211458 0.20662159 0.0 0.0 0.0 1.7091223 0.037364803 0.0 0.0 0.0 0.89471644 1.1406759 
0.0 1.0005357 0.0 0.5019833 0.0 1.321851 0.46927696 1.0723279 0.0 0.6522894 2.5333328 0.0 0.40073287 1.5214666 0.6707136 0.0 
0.0 0.0 0.0 0.0 0.0 0.9818869 0.0 0.0 0.0 1.500367 2.8667276 0.0 0.0 1.4280162 0.33974093 0.0 
0.0 0.0 0.0 0.6596419 0.0 0.0 1.5773377 0.0 1.3159822 0.76192886 1.6569335 0.0 0.8376967 0.7346938 0.0 0.0 
0.0 0.0 0.0 0.0 0.0 0.8672183 0.0 0.0 2.7423635 0.0 0.20506907 0.0 0.09050785 0.0 0.0 0.53013885 
0.0 0.034472425 0.0 0.3354355 0.0 0.0 0.0 0.0 0.0 0.0 0.0 0.0054246634 0.053605594 0.0 0.0 0.63514906 

