0.0 0.0 0.0 0.0 0.0 0.0048162937 0.05390898 0.0 0.0 0.0 0.07983771 0.0 0.0 0.0 0.0 0.0 
0.7547595 0.0 1.0590848 0.0 0.52225465 1.6661751 0.0 0.0 0.0 0.0 0.10897088 0.0 0.0 0.7475455 1.0956573 0.08347527 
0.8960314 0.0 3.6525738 0.0 0.0 0.0 3.2021568 0.0 0.0 0.32213485 0.0 0.0 0.8751947 0.24551293 1.6441051 1.5589278 
1.06147 0.0 0.0 0.0 0.0 0.0 0.69772595 0.0 1.7188139 0.0 0.0 2.5631545 0.9410915 0.0 0.0 0.0 
0.47366014 0.0 1.135718 0.0 0.0 0.2513553 0.0 0.0 0.0 0.0 0.0 0.3458542 0.07041398 0.08500414 0.0 0.0 
0.0 0.0 0.0 0.0 0.019980691 0.0 0.0058199763 0.0 0.0 0.0 0.19818783 0.0 0.0 0.0 0.0 0.0 
0.0 0.0 1.0838319 0.0 0.8531438 2.164062 0.0 0.0 0.0 0.0 0.59943914 0.31108075 0.0 0.0 0.675715 0.0 
0.0 0.0 4.593042 0.0 0.0 0.0 4.656595 0.43809444 0.0 0.0 0.0 0.0 0.522662 0.0 1.7065908 0.0 
0.0 0.0 0.0 0.0 0.0 0.29881233 0.0 0.0 2.8363845 0.0 0.0 1.2518679 0.2372934 0.019777715 0.0 0.0 
0.0 0.0 0.40520683 0.18613523 0.0 0.16715413 0.0 0.0 0.0 0.0 0.062430203 0.5663284 0.06603265 0.0 0.0 0.0 
0.0 0.0 0.0 0.0 0.040490426 0.0 0.012935769 0.0 0.0 0.0 0.2500548 0.052917823 0.0 0.0 0.0 0.0 
0.0 0.041823313 1.3515564 0.0 0.8712241 2.4042783 0.0 0.0 0.0 0.0 0.5732886 0.32990405 0.0 0.0 0.0 0.0 
0.0 0.0 4.987519 0.17085196 0.0 0.0 4.8283286 0.53081983 0.0 0.0 0.0 0.0 0.0 0.0 0.41479462 0.0 
0.0 0.0 0.0 0.0 0.0 0.6719111 0.0 0.0 2.7728217 0.0 0.0 1.1450772 0.13108212 0.015208557 0.0 0.0 
0.0 0.011482608 0.35209903 0.18053997 0.0 0.18280622 0.0 0.0 0.0 0.0 0.0 0.08920619 0.0 0.0 0.0 0.0 
0.0 0.0 0.0 0.0 0.03629098 0.0 0.020180376 0.0 0.0 0.0 0.25758094 0.039073043 0.0 0.0 0.0 0.0 
0.0 0.3105148 1.5706832 0.0 0.83793485 2.5032728 0.0 0.0 0.0 0.0 0.565526 0.34926298 0.0 0.0 0.0 0.0 
0.0 0.0 5.1920805 0.0 0.0 0.0 4.621653 0.5202542 0.0 0.0 0.0 0.0 0.040296942 0.0 0.6034573 0.0 
0.0 0.0 0.0 0.0 0.0 0.5903109 0.0 0.0 2.5131092 0.0 0.0 1.4467182 0.20960866 0.025636986 0.0 0.0 
0.0 0.0 0.37175998 0.0029611439 0.0 0.12835255 0.0 0.0 0.0 0.0 0.0 0.22168544 0.0 0.0 0.0 0.0 
0.0 0.0 0.0 0.0 0.032596014 0.0 0.0 0.0 0.004275065 0.0 0.27609375 0.028695092 0.0 0.0 0.0 0.0 
0.030456226 0.0 0.6154634 0.0 0.6034675 2.9470496 0.0 0.0 0.0 0.055765558 1.1206144 0.25121018 0.0 0.22187483 0.0 0.0 
0.0 0.0 3.580832 0.0 0.0 0.8734314 3.8070695 0.9095208 0.0 0.0 1.1076742 0.0 0.042165443 1.9154904 0.6111662 0.0 
0.0 0.0 0.0 0.0 0.0 0.2074118 0.0 0.0 1.8915514 0.0 0.26331037 1.3286426 0.92691535 0.39252868 0.0 0.0 
0.0 0.0 0.40107787 0.0074132793 0.0 0.101255596 0.0 0.0 0.0 0.0 0.0 0.41672483 0.6565079 0.0 0.0 0.0 

