1.2725462 0.26961446 2.3813584 0.0 0.49342686 0.66383123 0.0 0.0 0.0 0.5921656 0.0 0.0 0.0 0.31370005 1.4495467 1.8007914 
3.0484695 0.0 0.9632417 0.0 0.0 0.0 0.57231855 0.0 0.0 0.8924136 0.0 0.0 1.9437349 0.24870023 1.0935063 1.3632985 
3.7487826 0.0 0.0 0.0 0.0 0.0 0.0 0.0 0.0 0.0 0.5410663 0.0 2.9923882 3.277249 0.0 0.0 
3.6873798 0.0 0.0 0.0 0.0 0.0 0.0 0.0 0.0 0.0 1.6530583 1.1475028 2.166034 4.1896663 0.0 0.0 
1.9050623 0.0 1.2968163 0.0 0.0 0.28727967 0.0 0.0 0.15882905 0.0 0.28046462 1.5730141 1.249336 1.475393 0.0 0.0 
0.0 0.0 1.7195984 0.0 0.66040283 2.5449748 0.0 0.7206836 0.0 0.0 0.543509 0.0 0.012807347 0.0 0.23242544 0.0 
0.45990273 0.0 0.0 0.0 0.0 0.0 0.92657804 2.0574603 0.0 1.0500747 0.0 0.0 1.1811609 0.0 0.0 0.0 
0.9378562 1.4031521 0.0 1.1746014 0.0 0.0 0.0 0.0 0.0 0.40082985 0.0 0.0 1.1035117 0.0 0.0 0.0 
0.0 0.0 0.0 3.7348974 0.0 0.0 0.0 0.0 0.0 0.78946525 1.9237275 0.0 0.05480273 0.96348083 0.0 0.0 
0.0 0.0 0.0 3.4820096 0.8961727 1.0192046 0.0 0.0 0.0 0.0 2.7948515 0.6919793 0.0 1.7296576 0.0 0.2765045 
0.0 0.46070325 0.124770254 0.0 0.0 2.203197 0.0 0.86995876 0.0 0.8013691 1.8407829 0.0 0.0 1.3068817 0.0 0.0 
0.0 0.13811092 0.0 1.2358922 0.0 0.0 1.8353026 1.4199808 0.0 0.6068842 2.9166136 0.0 0.91750574 1.8653291 0.8835984 0.0 
0.40019003 0.0 0.0 0.71847653 0.0 1.0281646 0.0 0.0 0.0 0.0 2.9753878 0.0 0.56280816 3.282441 2.503756 0.0 
0.37582287 0.0 0.0 0.91268015 0.0 0.0 0.0 0.0 0.0 0.0 1.2599705 1.7065264 1.6664165 2.9334886 1.1079382 0.0 
0.5196321 0.0 0.16049129 0.0 0.0 0.55180556 0.0 0.0 0.0 0.065974355 0.0 4.809098 1.577431 0.0 0.0 0.0 
1.5555605 2.466153 0.0 0.551596 0.0 0.716364 0.0 0.0 0.0 1.2516593 0.3771008 0.6584413 0.0 0.0 0.0 0.0 
1.5586063 4.971952 0.0 4.315548 0.0 0.0 0.7848891 0.0 0.0 3.0302448 0.0 0.0 0.0 0.0 0.0 0.0 
1.546221 4.046887 0.0 2.8698292 0.0 2.473578 0.0 0.0 0.0 2.6519842 0.0 0.0 0.0 0.0 1.1075802 0.0 
0.0 0.0 1.9852034 2.109404 0.0 0.36419004 0.32671112 0.0 0.0 1.1558493 0.024206733 0.0 0.0 0.0 2.7568612 0.6281545 
0.0 0.0 0.0 0.24142107 0.0 0.0 0.0 0.0 0.49222663 0.0 0.0 3.106211 0.9860485 0.0 0.0 0.0 
0.42569005 0.0 0.0 0.0 0.08966293 1.8978331 0.0 0.0 0.0 0.7379579 1.7967834 0.0 0.4985587 1.0522095 0.5480199 0.0 
1.4514362 0.0 0.7462938 0.0 0.0 2.1241002 0.57650673 0.050626323 0.0 0.246741 3.4358995 0.0 1.699717 2.5919812 2.8226373 0.0 
2.2755575 0.0 0.0 0.0 0.0 0.0 0.0 0.0 0.0 0.0 4.547903 0.0 1.387613 2.5512216 1.6309531 0.0 
0.9702937 0.0 1.8979483 0.0 0.0 0.0 0.9176378 0.0 0.0 0.0 2.1259608 0.0 2.334285 2.286505 0.0 0.0 
0.37510222 0.0 0.0 0.0 0.0 0.0 0.0 0.0 2.7223217 0.0 0.6271036 0.54679406 1.5112201 0.7999772 0.0 0.0 

