0.5017627 0.2021756 0.0 0.0 0.3673901 0.49240148 0.13901909 0.0 0.0 0.0 0.008279638 0.0 0.0 0.22084716 0.0 0.0 
1.835343 0.7119149 1.1420765 0.0 0.0 0.0 0.0 0.0 0.0 0.67221177 0.0 0.0 0.6494931 0.083602674 0.8127323 1.8636738 
3.3633175 0.0 0.0 0.0 0.0 0.0 1.244263 0.0 0.0 0.8209871 0.0 0.0 1.2025195 2.1309805 0.0 0.64803797 
2.898323 0.0 1.755671 0.0 0.0 0.0 0.0 0.0 0.0 1.0863365 0.0 0.0 1.9609344 1.4809362 0.0 0.0 
2.681934 0.0 0.0 0.0 0.0 0.0 0.72214884 0.24270706 1.6529859 0.0 0.0 0.33921063 2.035154 0.85094297 0.0 0.0 
0.0 0.0 0.0 0.0 0.78844184 1.0831518 0.0 0.0 0.15166734 0.0 0.8010687 0.18562374 0.0 0.16743785 0.0 0.0 
0.0 0.0 0.88803 0.0 0.0 2.4648147 0.22080179 1.0861712 0.0 0.0 0.0 0.0 1.1126559 0.13573602 0.0 0.0430908 
0.0 0.0 0.0 0.0 0.0 0.0 0.0 0.0 0.0 1.5966506 0.0 0.85091984 1.2572205 0.0 1.4930717 0.0 
0.0 0.0 0.0 1.1509541 0.0 0.0 0.0 0.0 0.0 0.65130585 0.55418533 0.0 0.55702525 0.0 0.797234 0.0 
0.0 0.0 0.0 1.1126808 0.0 0.0 0.0 0.37587708 2.8274956 0.0 0.5174832 0.0 1.041186 0.0 0.0 1.0986745 
0.699831 1.1931819 0.0 0.0 0.7569626 0.1498969 0.0 0.0 0.006453097 0.4383596 0.17513256 0.30036068 0.0 0.0 0.0 1.0511068 
0.0 0.99905425 1.7616692 0.0 0.0 1.8650408 1.5173552 0.0 0.0 1.3594974 0.0 0.0 0.0 0.031657472 0.72849107 0.39200088 
0.0 0.0 0.0 0.0 0.0 0.0 0.22870587 0.16441944 0.0 0.13254483 0.0 0.0 0.0 0.0 0.0 0.0 
0.0 0.0 0.0 1.115595 0.0 0.0 0.0 0.0 1.4661096 0.0 0.0 2.4254942 0.5383437 0.0 0.0 0.0 
0.0 0.0 0.0 1.8116987 0.37560543 1.128778 0.0 0.0 2.7375307 0.0 1.1942836 0.0 0.0 0.52466536 0.0 1.776595 
0.6144692 0.46764034 0.53857255 0.0 0.90245444 0.61039585 0.0 0.11021298 0.0 1.0738901 0.0 0.0 0.0 0.0 0.0 2.517261 
0.0 0.0 0.0 0.0 0.0 0.011036001 0.9578636 2.2037117 0.0 0.110447764 0.0 0.0 0.47400212 0.0 0.0 0.0 
0.0 0.0 0.0 0.0 0.0 0.0 0.15415786 0.47452652 0.41290438 0.19295488 0.0 0.0 0.0 0.0 0.7522872 0.0 
0.0 0.0 0.0 0.0 0.0 0.0 0.0 0.0 0.87338483 0.0 0.0 2.106511 0.111393794 0.114906885 0.0 0.0 
0.0 0.0 0.35503516 0.0 0.0 0.5005956 0.0 0.0 0.0 0.0 0.0 1.3195987 0.9261086 0.0 0.0 0.0 
0.0 0.0 0.033445705 0.0 0.18519601 2.3600607 0.6207712 1.5428301 0.0 0.0 2.7450402 0.0 0.051933594 1.8456824 0.14009558 0.0 
0.7788274 0.0 0.0 0.0 0.0 0.0 1.777839 3.063164 0.0 1.0175664 4.396745 0.0 0.11977503 2.8136983 0.0 0.0 
0.0 0.0 0.0 0.33945808 0.0 0.0 0.36662874 0.0 0.0 0.0 2.4339216 0.0 1.4512373 1.2632257 0.14957632 0.0 
0.0 0.0 0.0 0.6168412 0.0 0.0 0.0 0.0 3.2098634 0.0 1.2097509 0.0 0.8005011 0.0 0.5344804 2.2069812 
0.0 0.022132954 0.0 0.7209524 0.0 0.0 0.0 0.0 0.0 0.0 0.3419521 0.8787179 0.42710483 0.0 0.0 0.96196735 

