0.15957825 0.0 0.0 0.0 0.2607062 0.30960837 0.0 0.0 0.11705145 0.0 0.6833505 0.0 0.0 0.014986657 0.0 0.0 
0.7350595 0.0 3.6676478 0.0 0.259391 2.5819182 0.0 0.0 0.0 0.0 0.06872687 0.0 0.0 1.3336817 2.5486977 0.3144064 
1.2704511 0.0 2.2955852 0.0 0.0 0.0 2.5369544 0.0 0.041758437 0.0 0.0 2.7746596 0.7885821 0.40895668 0.8582991 0.0 
1.0321716 0.0 0.9702419 0.0 0.0 0.41027826 0.0 0.0 1.1482248 0.0 0.0 3.9195414 1.3387926 0.3781685 0.0 0.0 
0.13304022 0.0 0.88219124 0.0059009735 0.0 0.46305203 0.0 0.0 0.0 0.0 0.0 0.0 0.0 0.25191307 0.0 0.0 
0.0 0.0 0.0 0.0 0.3640197 0.0 0.0 0.0 0.083008915 0.0 0.7421868 0.35154682 0.0 0.0 0.0 0.0 
0.0 0.15400381 4.4314775 0.0 0.97770584 2.3518026 0.0 0.0 0.0 0.030801933 0.31315976 0.20678365 0.0 0.0 2.2506075 0.0 
0.0 0.0 4.644921 0.47357315 0.0 0.0 3.0220194 0.0 0.88587916 0.0 0.0 0.0 0.04674086 0.0 2.3729582 0.0 
0.0 0.0 0.0 0.0 0.0 0.4232815 0.0 0.0 1.7982018 0.0 0.0 2.8062668 0.4321326 0.019689247 0.0 0.0 
0.0 0.0 0.8584598 0.14133893 0.0 0.1961456 0.0 0.0 0.0 0.0 0.087171584 0.0674997 0.0 0.061391458 0.0 0.0 
0.0 0.0 0.0 0.014102463 0.31441927 0.0 0.0 0.0 0.17425466 0.0 0.7335742 0.20132762 0.0 0.0 0.0 0.0 
0.0 0.0 2.8428416 0.0 1.0706968 3.6645663 0.0 0.0 0.0 0.0 0.9997971 0.30542195 0.0 0.16226736 0.0 0.0 
0.0 0.0 5.2107744 0.0 0.0 0.0 3.4708703 0.33738977 0.49443254 0.0 0.0 0.0 0.0 0.2436043 1.1930981 0.0 
0.0 0.0 0.0 0.0 0.0 0.3672068 0.0 0.0 1.7979981 0.0 0.0 3.7179277 1.1839198 0.0 0.0 0.0 
0.0 0.0 0.5582447 0.18781939 0.0 0.48371702 0.0 0.0 0.0 0.0 0.17608044 0.79112875 0.1827352 0.33659032 0.0 0.0 
0.0 0.0 0.0 0.0 0.17684466 0.0 0.0 0.0 0.05824055 0.0 0.56943 0.20778885 0.0 0.0 0.0 0.0 
0.0 0.08764756 0.6277742 0.0 0.70156014 3.408295 0.0 0.0 0.0 0.0 0.9966546 0.47247735 0.0 0.0 0.0 0.0 
0.0 0.0 4.9683237 0.0 0.0 1.5461628 2.705675 0.0 0.0 0.013367187 0.0 0.0 0.0 0.10400251 1.6352742 0.0 
0.0 0.0 0.0 0.0 0.0 0.0 0.9707976 0.0 0.33739656 0.0 0.0 3.5854928 0.93121135 0.0 0.0 0.0 
0.13496234 0.0 0.9099899 0.0 0.0 0.42090404 0.0 0.0 0.0 0.0 0.0 1.9418775 0.62793005 0.066870905 0.0 0.0 
0.0 0.013869356 0.0 0.0 0.0 0.0 0.0 0.002203472 0.0 0.0 0.2539917 0.035746813 0.0 0.0 0.0 0.0 
0.0 0.0027411168 0.0 0.0 0.4377874 1.8383691 0.0 0.0 0.048794452 0.10015237 1.6986609 0.24580157 0.0 0.0 0.0 0.0 
0.0 0.0 2.5237226 1.4345301 0.0 2.9586422 3.2916873 0.6170121 0.0 0.43925315 1.5919734 0.0 0.0 1.0678873 1.3290173 0.0 
0.0 0.0 0.0 1.2099864 0.0 0.0 1.864763 0.0 2.4411027 0.0 2.3736978 0.0 0.39775938 0.89369726 0.77970976 0.7750996 
0.0 0.0 0.29093185 0.43388268 0.0 0.0 0.0 0.0 0.0 0.0 0.8640782 1.5529895 1.1894684 0.14064923 0.0 0.64286965 

