0.70388156 0.63382566 0.34101206 0.0 0.26946786 0.031609714 0.14810506 0.0 0.0 0.0 0.0 0.01473964 0.0 0.0 0.0 0.27690178 
2.2834938 2.0170586 0.773358 0.0 0.0 0.0 0.0 0.0 0.00219718 1.0320776 0.0 0.0 0.0 0.0 0.080038175 2.052124 
3.3823235 3.3128889 0.25381997 0.0 0.18352845 0.0 0.0 0.24327804 0.0 0.5936419 0.0 0.28061965 0.0 0.5195785 0.0 1.1786844 
2.8797915 1.2067671 0.0 0.0 0.9178822 0.0 0.0 0.0 0.0 0.7459216 0.0 2.4517536 1.4257549 0.0 0.0 0.0 
1.3215162 0.0 0.41822508 0.51777714 1.2495526 1.2220078 0.0 0.0 0.0 0.4464918 0.29807007 2.0137758 1.1510955 0.83806 0.0 0.0 
0.7338952 0.31515086 0.9587873 0.0 0.68027437 0.19142178 0.0 0.0 0.035199855 0.7379169 0.0 0.0 0.11285581 0.046741284 0.61346644 2.0978866 
0.4101705 0.0 0.70269704 0.0 0.0 0.0 0.29057533 0.5354831 0.0 1.2591766 0.0 0.0 1.9049271 0.05331441 0.96740943 2.608065 
0.61680907 0.0 0.0 0.0 0.0 0.0 0.0 0.0 0.0 0.0 0.077888615 0.0 1.4319196 2.762075 2.8653328 0.0 
1.4945028 0.0 0.31016487 0.0 0.0 0.0 0.0 0.0 0.0 0.0 0.0 0.6877736 1.525773 1.6931225 2.9630218 0.0 
0.63771653 0.0 0.86489624 0.0 0.0 0.0 0.0 0.0 0.0 0.0 0.0 3.7487962 1.6389508 0.0 0.0 0.0 
0.64755064 0.4441265 0.0012107268 0.0 0.7115158 2.1340883 0.0 1.6925707 0.0 0.0 0.055121556 0.0 0.14316687 0.06880488 0.0 0.13704601 
0.40242466 1.0483813 0.0 0.0 0.0 0.0 0.99998933 2.4453871 0.0 2.7904377 0.33932918 0.0 0.0 0.0 0.0 0.0 
0.0 0.0 0.0 0.0 0.0 0.85474545 0.0 0.0 0.0 1.1848942 0.0 0.0 0.0 0.0 0.332659 0.0 
0.0 0.0 1.7445027 0.0 0.0 0.0 1.8438488 0.0 0.0 0.0 0.0 0.0 0.5713564 0.0 2.744368 0.0 
0.0 0.0 0.0 0.0 0.0 0.0 0.0 0.0 0.8559965 0.0 0.0 2.3919232 0.73096746 0.0 0.0 0.048952106 
0.0 0.5303466 0.014307123 0.0 0.0 1.7731001 0.08510656 1.2825613 0.0 0.52083313 2.0137167 0.0 0.46313137 2.2000842 0.9321433 0.0 
0.0 0.31025368 0.0 2.605043 0.0 0.0 1.4901338 0.36368805 0.0 0.599627 3.256992 0.0 0.18819539 2.156598 0.91509897 0.0 
0.0 0.9703725 0.0 2.0605388 0.0 0.0 0.0 0.0 0.62713987 0.0 1.9812043 0.0 0.07027544 0.0 0.0 1.343022 
0.0 0.0 2.35233 0.38611978 0.0 0.0 4.1145005 0.0 0.7773754 0.0 0.0 0.0 0.1496702 0.0 0.0 0.89297074 
0.0 0.0 0.0 0.0 0.0 0.20602274 0.29475144 0.0 1.5766611 0.0 0.0 0.25594702 0.03804908 0.0 0.0 0.0 
0.3635157 1.5334299 0.0 1.3520621 0.0 0.0 0.46988338 0.3997243 0.0 1.4010357 0.1708625 0.24768761 0.0 0.0 0.0 0.0 
0.0 1.7417198 0.0 3.578641 0.6056266 0.09519914 0.5580078 0.0 0.6982137 2.2815526 1.0080473 0.0 0.0 0.0 0.28277463 0.32075638 
0.0 0.33732167 0.33608207 0.7533885 1.4541899 1.5534675 0.0 0.0 0.0 1.0204085 0.17195675 0.0 0.0 0.0 0.0 3.0281408 
0.0 0.0 1.2351022 0.0 0.0 0.0 4.230704 0.9869949 0.0 0.0 0.0 0.0 0.28021997 0.0 0.1427399 0.0 
0.0 0.0 0.0 0.0 0.0 0.49923676 0.0 0.0 3.2405202 0.0 0.0 0.32350546 0.17984101 0.12482879 0.0 0.0 

