0.0 0.077411875 0.0 0.042343963 0.14857975 0.0 0.12737444 0.0 0.0 0.0 0.0 0.0 0.0 0.0 0.0 0.0 
1.380848 0.99763757 0.44948536 0.022140756 0.26897335 0.3793708 0.0 0.0 0.08810133 0.07296565 0.0 0.018244058 0.0 0.21519229 0.0 1.0864978 
3.0759869 3.2921867 0.26924706 0.0 0.018855058 0.0 0.0 0.0 0.0 1.4003665 0.0 0.46504888 0.0 0.0 0.0 1.9680059 
3.5442653 3.457164 0.0 0.0 0.77787083 0.0 0.0 0.29065162 0.0 1.0663991 0.0 0.23884428 0.0 1.1146845 0.0 0.50631243 
2.3765118 0.89685035 0.0 0.0 0.8495226 0.0 0.0 0.12639543 0.0 0.9913409 0.0 0.9054823 1.1517841 0.53008807 0.0 0.0 
0.5397105 1.3205041 0.45249498 0.0 0.19548586 0.12277983 0.042802624 0.0 0.0703302 0.1426431 0.0 0.0 0.0 0.0 0.0 0.92333543 
0.7190449 1.4670318 0.7228049 0.0 0.06497329 0.0 0.0 0.0 0.19857657 1.0770789 0.0 0.0 1.1936105 0.09870676 0.91083544 2.220893 
0.75312924 0.0 0.0 0.0 0.0 0.0 0.37701112 0.81531435 0.0 0.48190862 1.0721445 0.0 1.8971131 2.323012 0.48699433 0.5057369 
0.0 1.0921342 0.0 4.4161825 0.0 0.0 0.0 0.1481541 0.058742616 0.0 2.8591766 0.0 3.074822 3.4150546 1.5883261 0.0 
0.0 0.8101604 0.0 4.6557384 0.0 0.0 0.0 0.0 0.96545786 0.0 2.547656 0.0 2.2127187 3.1183174 1.6398802 1.3781269 
0.70071054 0.0 0.0 0.0 0.011202969 1.8916161 0.0 0.0 0.0 0.14736763 1.4356295 0.0 0.45790285 1.6926906 0.2665115 1.0624381 
1.5956204 0.0 0.0 0.0 0.0 0.26538587 0.606401 1.8328578 0.0 0.0 2.1722116 0.0 0.007812545 3.1843605 0.0 0.0 
1.3871931 0.67689764 0.0 1.320364 0.0 0.0 0.0 1.9345671 0.0 1.5877975 0.0 0.0 0.0 1.022506 0.0 0.0 
0.35159346 1.1196187 0.0 5.351617 0.60915995 0.6594243 0.0 0.0 0.0 2.2849991 0.0 1.2602977 0.0 0.0 0.0 0.0 
0.0 0.0 0.0 3.5832646 0.7867706 1.0712616 0.0 0.0 0.0 2.0112863 0.37885994 0.0 0.0 0.0 1.068149 1.8792734 
0.44009095 2.9087443 0.0 0.29153883 0.0 0.74417233 0.0 0.07080467 0.0 0.03550237 1.0739843 0.3328133 0.105646655 0.0 0.0 0.0 
0.0 3.7884707 0.0 0.0 0.0 0.0 0.14359333 0.0 0.0 1.3619909 1.4125736 0.0 0.0 2.4262428 3.438669 0.0 
0.0 0.0 0.0 0.0 0.0 0.0 0.0 0.0 0.0 0.0 0.38629487 0.0 0.20200582 2.71556 4.5486174 0.0 
0.40327457 0.0 0.0 0.0 0.0 0.0 0.0 0.0 0.8132147 0.0 0.12271543 1.9949912 1.4211322 0.15376231 0.0 0.0 
0.5031367 0.0 1.1757144 0.0 0.0 0.03923835 0.0 0.0 0.0 0.0 0.0 1.1668694 0.94979566 0.019154623 0.0 0.0 
1.4084336 0.091577224 0.0 0.0 0.0 0.102815315 0.0 0.26811814 0.0 1.7800719 1.2481682 0.0 0.73461336 1.0776861 0.0 0.10056346 
0.645403 0.0 0.0 0.0 0.0 0.0 0.0 0.40079987 0.0 2.6583064 1.6311308 0.0 0.8775941 0.9179674 0.0 0.0 
0.0 1.1922764 0.0 2.860732 0.0 0.0 0.23852241 0.0 0.76706696 0.8406657 0.6857077 0.0 1.0953041 0.0 2.163202 0.0 
0.0 0.0 0.0 2.154768 0.48772871 0.66804075 0.0 0.0 1.6623206 0.0 1.1152763 0.0 0.18595073 0.045662537 1.150127 1.788714 
0.0 0.006462667 0.0 0.8504396 0.17099074 0.0 1.3473444e-05 0.0 0.0 0.0 0.4491949 0.7866086 0.16794695 0.0 0.0 0.62196654 

