0.0 0.06660556 0.0 0.0 0.3479537 0.028721377 0.056235872 0.0 0.0 0.0 0.33785915 0.06438188 0.0 0.0048655197 0.0 0.0 
0.0 0.5491973 1.4169878 0.75754374 0.0 0.5609516 0.7607787 0.41798848 0.0 0.5159892 0.0 0.0 0.24857359 0.0 1.2227932 0.0 
0.0 0.0 0.0 1.0928074 0.0 0.0 2.3984334 0.2752819 1.9560051 0.6902257 0.6394016 0.0 0.12467435 0.0 1.3160208 0.0 
0.0 0.0 0.0 0.99571764 0.0 0.49008393 0.0 0.0 1.2873013 0.0 0.72902995 0.59698844 0.22898854 0.07856748 0.0 1.1236807 
0.0 0.0 0.0 0.33903408 0.0 0.0 0.033370346 0.0 0.0 0.0 0.012798706 0.09801884 0.0730252 0.0 0.0 0.0 
0.0 0.2500555 0.0 0.0 0.28185445 0.32628506 0.026379177 0.0 0.0 0.0 0.1921213 0.01783695 0.0 0.0 0.0 0.0 
0.0 0.87902576 1.0235829 0.96217936 0.0 0.48590237 1.6383603 0.049087472 0.0 0.022168145 0.0 0.0 0.0 0.0 0.0 0.0 
0.41395319 1.2308264 0.0 1.2610165 0.0 0.0 1.568279 0.0 1.8621519 0.0 0.0 0.08516839 0.0 0.0 0.0 0.6302644 
0.4166451 1.8194494 0.0 0.99680716 0.7651242 0.42676574 0.087682106 0.0 0.0 0.5200375 0.0 1.2799219 0.0 0.0 0.0 0.7918091 
0.16171688 0.5103459 0.0 0.883283 1.2759477 0.7115004 0.07624127 0.0 0.0 0.5573827 0.24851969 0.7797743 0.0 0.68395084 0.0 0.0 
0.094074935 0.0 0.0 0.0 0.12915182 1.2363908 0.0 0.0 0.072796434 0.0 0.41305122 0.031786203 0.0 0.0 0.0 0.0 
0.88824123 0.09518731 1.1510102 0.0 0.0 1.4513466 0.26373684 0.0 0.0 0.10494575 0.0 0.0 0.0 1.0555276 0.025000364 0.0 
1.9937267 0.0 0.0 0.0 0.0 0.0 0.0 0.0 0.0 0.3131857 0.0 0.15693288 0.71521264 0.11053189 0.0 0.15864925 
2.0004065 0.0 0.34402582 0.0 0.0 0.0 0.0 0.0 0.0 0.08701475 0.0 0.7829009 0.89614546 0.5245756 0.0 0.0 
1.0173484 0.0 0.3660381 0.0 0.0 0.23733777 0.0 0.0 0.042551715 0.075564325 0.0 2.1516466 0.914845 0.2205618 0.0 0.0 
0.0 0.009718683 0.0 0.0 0.20620126 0.61526823 0.0 0.0 0.0 0.0 0.7631257 0.0743036 0.0 0.0 0.0 0.0 
0.0 0.0 0.16351242 0.0 0.0 2.4767747 0.0 0.697949 0.0 0.0 1.3849071 0.0 0.1521108 1.2600391 0.6969268 0.0 
0.0 0.0 0.0 0.0 0.0 0.0 0.34010974 0.6069059 0.0 0.7185642 3.686041 0.0 0.013000183 1.3726418 0.35209322 0.0 
0.76825243 0.0 0.0 0.0 0.0 0.0 0.0 0.0 0.0 0.0 0.0 0.0 1.5125498 0.49666932 1.5381489 0.0 
0.0 0.0 0.0 0.0 0.0 0.0 0.0 0.0 1.8285528 0.0 0.19289258 1.6675243 0.78410065 0.0008557476 0.0 0.0 
0.0 0.14521348 0.0 0.013870243 0.15610293 0.0 0.041126065 0.16223589 0.0 0.0 0.6644334 0.3070688 0.0 0.0 0.0 0.0 
0.0 1.4628218 0.0 0.97784495 0.0 0.6777094 0.0 0.7871224 0.0 0.0 1.2545091 0.3577713 0.0 0.0 0.22104569 0.0 
0.0 1.9042158 0.0 3.8642092 0.0 0.0 0.6630425 0.0 0.0 0.85859495 3.2214305 0.0 0.0 0.72424835 1.0564835 0.0 
0.0 1.7913647 0.0 4.595691 0.0 0.0 0.026301937 0.0 0.0 0.93142146 2.1887968 0.0 1.1628379 0.7981261 1.1987092 1.4500453 
0.0 0.07534925 0.0 2.0572906 0.47720426 0.021188952 0.0 0.0 2.058875 0.0 1.618742 0.059307665 0.056147 0.2452429 0.28718758 2.4412842 

