0.33289883 1.1994287 0.0 0.30643135 0.0 0.0 0.0 0.0 0.06330463 0.0 0.0 0.0 0.0 0.0 0.0 0.0 
1.1721419 2.6144989 0.18948299 0.6265143 0.41043863 0.0 0.07230633 0.0 0.34488505 0.141412 0.0 0.15371189 0.0 0.0 0.0 0.3344797 
1.7685536 2.2484179 1.0182692 1.1609577 1.2116103 0.0 0.0 0.0 0.3768315 0.90917116 0.0 0.22674707 0.0 0.0 0.0 1.0010041 
1.6019558 1.7889344 0.12676834 1.0021069 1.514671 0.0 0.54410976 0.0 0.0 0.95007765 0.0 2.0615194 0.0 0.0 0.0 0.94978774 
0.9688907 0.0 0.28001118 0.8213309 1.4238158 0.6320335 0.0 0.018025227 0.0 0.22078776 0.3414765 1.0054446 0.0038063526 0.5270398 0.0 0.0 
1.5625608 0.33984014 0.0 0.0 0.0 0.6221676 0.0 0.0 0.0 0.20106097 1.1969148 0.0 0.4274993 1.7192191 0.39820182 0.569293 
2.204229 0.0 0.0 0.0 0.0 0.0 0.0 0.0 0.0 0.9457379 1.4291236 0.0 0.6027691 2.4680328 0.0 0.60630745 
2.5069463 0.0 2.1608996 0.0 0.0 0.0 0.0 0.0 0.0 1.0385948 0.0 0.0 2.4266844 0.97250926 1.3406231 0.0 
2.422905 0.0 0.0 0.0 0.0 0.0 2.1268477 0.0 1.1053783 0.0 0.0 1.1479286 2.0795565 0.89046574 0.3633241 0.0 
1.2233236 0.0 1.1743892 0.0 0.0 0.0 0.0 0.0 1.9488866 0.0 0.0 1.8060249 0.99594325 0.45272288 0.0 0.0 
0.0 1.1817828 0.0 0.5493384 0.0 0.2186971 0.0 0.0 0.0 0.0 0.9667061 0.27453312 0.679005 0.0 0.64877665 0.0 
0.0 1.6676015 0.0 0.77107006 0.0 0.0 0.0 0.0 0.0 2.2845213 1.4151862 0.0 0.27755082 0.0 1.650111 0.0 
0.0 0.74670017 0.0 2.2149875 0.0 0.0 1.7017926 0.0 0.0 1.9517583 0.9984766 0.0 0.9777215 0.0 1.4901793 0.25650996 
0.0 0.0 0.0 1.25831 0.0 0.0 1.9867258 0.0 2.7218685 0.0 0.35554427 0.0 0.58325535 0.0 0.54736704 0.0 
0.0 0.0 0.0 0.7703883 0.0 0.41408354 0.0 0.0 1.2287087 0.0 0.85085315 0.7588608 0.28036165 0.17854148 0.0 1.1203854 
0.46117958 0.36874908 0.0 0.6389966 0.2280592 0.0 0.23309466 0.05694613 0.0 0.947969 0.15310204 0.0 0.0 0.0 0.0 0.0 
0.0 0.19269505 0.0 0.0 0.4691174 0.0 0.0 0.0 0.09654832 1.8199853 0.0 0.0 0.0 0.0 0.0 1.1674191 
0.0 0.0 0.0 0.7035927 0.0 0.21697733 3.4711096 0.86563075 0.3176287 1.1146832 0.0 0.0 0.0 0.0 0.0 0.0 
0.0 0.0 0.0 0.24970248 0.0 0.5156165 0.0 0.0 2.8302186 0.0 0.36134714 0.0 0.0 0.049634576 0.0 0.69828755 
0.0 0.06805507 0.0 0.14929944 0.03619019 0.29054287 0.0 0.0 0.0 0.0 0.0 0.0 0.07874252 0.0 0.0 0.6016975 
0.0057087205 0.6389595 0.0 0.0 0.38419303 0.0 0.04665342 0.0 0.0 0.0 0.019293258 0.0 0.0 0.0 0.0 0.0807597 
0.0 1.0681624 0.2133174 0.0 0.0 0.34898162 0.78073245 0.7810504 0.0 0.70947504 0.0 0.0 0.0 0.0 0.0 0.09598797 
0.0 0.0 0.0 1.0006634 0.0 0.0 2.3712425 1.0651942 1.280771 0.5795271 0.0 0.0 0.0 0.0 0.0 0.0 
0.0 0.0 0.0 0.0244313 0.0 0.33892885 0.0 0.0 1.3704842 0.0 0.28728986 0.0 0.0 0.0 0.0 0.54970354 
0.0 0.044394515 0.0 0.31493428 0.0 0.0 0.0 0.0 0.0 0.0 0.006382894 0.053350955 0.053269066 0.0 0.0 0.29029748 

