0.73971224 0.6673836 3.181443 0.0 0.5421919 1.4138346 0.0 0.0 0.0 0.2281771 0.0 0.0 0.0 0.6863062 1.0197554 1.4897819 
1.1233714 0.4331155 0.76260793 0.0 0.37178433 0.0 2.3292522 0.0 0.0 0.6892294 0.0 2.419438 0.42339396 0.0 0.0 0.96145105 
1.4370025 0.0 4.583156 0.0 0.5332224 1.4733276 0.0 0.0 0.53817797 0.0 0.0 1.7765003 0.061334424 1.1273831 0.48511934 0.0 
0.827847 0.0 1.7683065 0.0 0.0 0.0 2.2312758 0.0 0.0 0.118079334 0.0 2.8645234 0.68902177 0.0 0.0 0.0 
0.9084114 0.0 1.0641284 0.0 0.0 0.4470054 0.0 0.0 0.9656947 0.0 0.0 3.1485147 1.2219893 0.3858783 0.0 0.0 
0.0 0.0 3.9817488 0.0 0.73805434 2.8200302 0.0 0.0 0.0 0.0 0.0474198 0.0 0.0 0.0 1.9354684 0.0 
0.0 0.0 1.6864944 0.0 0.0 0.0 3.3096979 0.8323827 2.362127 0.0 0.0 2.0530941 0.5841328 0.0 0.56982285 0.0 
0.0 0.0 5.265468 0.0 0.0 3.1032715 0.0 0.0 1.5264713 0.0 0.0 3.0927193 0.0 0.3068735 0.5697684 0.0 
0.0 0.0 3.7863405 1.1530969 0.0 0.0 3.372151 0.0 1.5821872 0.0 0.0 0.4919528 0.17501636 0.0 1.1729597 0.0 
0.0 0.0 0.500075 0.0 0.0 0.45218027 0.0 0.0 2.549413 0.0 0.0 2.858834 0.6161025 0.067346774 0.0 0.0 
0.0 0.0 2.5133152 0.0 0.48034734 3.8910694 0.0 0.00913164 0.0 0.0 1.581725 0.0002399832 0.0 1.5953151 0.53723305 0.0 
0.59436256 0.0 1.2398862 0.0 0.0 0.16048118 2.6748345 1.2584169 0.0 0.0 2.059804 0.0 0.0 3.7311616 0.91643053 0.0 
0.17549261 0.0 2.989995 0.0 0.0 0.1297925 0.0 0.0 0.0 0.0 0.0 2.035671 0.3681786 0.29060742 0.0 0.0 
2.283168 0.0 3.1176472 0.0 0.0 0.0 2.2221622 0.16806751 1.6625048 0.0 0.0 0.0 0.8413927 0.0 0.0 0.0 
1.2100058 0.0 0.0 0.18233803 0.0 0.79247296 0.0 0.0 2.3944392 0.0 0.0 1.8119755 0.15556194 0.0 0.0 0.0 
0.0 1.2878116 0.067762494 0.1290372 0.0 1.55914 0.0 0.09250386 0.0 0.0 1.2391536 0.45318177 0.0 0.0 0.27526814 0.0 
0.0 1.7061508 0.41742998 0.2619269 0.0 0.95872086 0.96375656 0.0 0.0 0.0 3.9731154 0.0 0.4692639 2.219603 2.639987 0.0 
0.0 1.6996902 0.7751567 1.3415973 0.0 0.0 0.0 0.0 0.0 0.0 3.5680008 0.0 1.020758 2.2578583 2.7924962 0.0 
1.6279495 0.0 1.1316758 0.0 0.0 0.0 1.4910071 0.0 0.0 0.0 0.8275772 0.0 1.9732444 1.9322481 1.1755757 0.0 
0.7493978 0.0 0.0 0.0 0.0 0.0 0.0 0.0 0.0 0.0 1.7149038 1.1611813 1.2190387 2.7681117 0.0 0.0 
0.32917246 0.607295 0.0 0.59520483 0.0 0.0 0.36550665 0.20023869 0.0 0.6689544 0.236682 0.26957223 0.0 0.0 0.0 0.0 
0.23034303 1.1557885 0.0 1.2012712 0.39997283 0.388007 0.3964219 0.0 0.17016469 1.9827362 0.62378883 0.0 0.0 0.0 0.0 0.0 
0.0 0.19860654 0.0 0.19222632 0.0 2.3089797 2.3797617 0.33628738 0.0 2.5778787 0.55725396 0.0 0.0 0.23725986 0.24432434 0.0 
0.0 0.0 0.0 0.80255026 0.0 0.0 3.1366231 0.0 2.4008129 0.23582888 0.6086833 0.0 0.16479096 0.0 1.2028133 0.0 
0.0 0.0 0.0 2.717337 0.0 0.0 0.0 0.0 0.53138036 0.73539126 1.0837969 0.0 0.0 0.0 1.6859701 1.2757788 

