0.0 0.38090706 0.0 0.0 0.0 0.13368069 0.06543207 0.08131826 0.0 0.0 2.630926 0.0 1.6523099 3.8016121 2.072654 0.0 
1.426297 0.0 0.33286703 0.37670732 0.0 0.052441776 0.0 0.0 0.0 0.0 2.110224 0.0 1.4282901 4.9154243 3.9493945 0.0 
1.2091311 0.0 0.63778245 1.1595628 0.0 0.0 0.0 0.0 0.0 0.0 0.0 3.644065 1.9603071 0.8331646 0.9466334 0.0 
0.8427065 0.0 1.0276912 0.0 0.0 0.54544824 0.0 0.0 0.0 0.0 0.0 4.04774 1.5006709 0.50445706 0.0 0.0 
0.14633183 0.0 0.6413618 0.023521997 0.0 0.3743363 0.0 0.0 0.0 0.0 0.03823652 0.0 0.0 0.23100734 0.0 0.0 
0.0 1.9329339 0.0 3.109495 0.94071966 0.0 0.986538 0.39144212 0.45083174 2.0609581 0.51591593 0.0 0.0 0.0 0.0 0.0 
0.0 1.19915 3.4899411 1.3895526 1.3224938 1.5426767 0.0 0.0 0.36759782 1.868857 0.0 0.0 0.0 0.0 4.444762 1.6725421 
0.0 0.0 1.5910423 0.97915024 0.0 0.0 3.9967902 0.0 0.0 0.022515219 0.0 0.0 0.37356085 0.0 4.019446 0.0 
0.0 0.0 0.2559553 0.0 0.0 0.0 0.0 0.0 2.5954642 0.0 0.0 2.215526 0.50469273 0.0 0.0 0.0 
0.09748317 0.0 0.72316444 0.0054109935 0.0 0.0 0.0 0.0 0.0 0.0 0.0 0.40211046 0.3263688 0.0 0.0 0.0 
0.31295726 0.37086213 0.0 0.0 1.2201543 0.3636824 0.3521776 0.0 0.0 0.10766566 0.0 0.0 0.0 0.0 0.0 0.6136855 
0.0 0.59164834 3.4364686 0.0 0.9117565 0.0 1.6464884 0.7023105 0.0 0.7508272 0.0 0.0 0.016395457 0.0 0.0 2.3631387 
0.0 0.0 0.6691264 0.0 0.0 0.0 4.9960613 1.325729 4.4129987 0.0 0.0 0.3893093 0.6679253 0.0 0.0 0.0 
0.0 2.373419 0.0 1.1179315 0.053492464 0.07001071 0.0 0.0 4.4093513 0.0 0.0 1.0842992 0.094938874 0.0 0.0 0.96637785 
0.7365022 3.2890286 0.0 1.8572576 1.0917994 0.28087214 0.14336905 0.0 0.0 0.7339236 0.0 0.81445646 0.0 0.0 0.0 0.43419412 
0.0 0.0 0.0 0.0 0.7562506 2.5859299 0.0 0.0 0.0 0.0 1.8139291 0.0 0.0 0.0 0.0 0.35253647 
0.20210074 0.0 0.86863923 0.0 0.0 2.3250601 1.942128 2.5441873 0.0 0.0 1.6012075 0.0 0.0 2.8081317 0.0 0.0 
3.2135355 0.0 0.0 0.0 0.0 0.0 0.44841838 0.9643524 0.16763002 0.0 0.2215423 0.0 0.7541697 2.2618356 0.0 0.0 
3.3027236 0.0 0.0 0.0 0.0 0.0 0.0 0.0 0.0 0.30795836 0.0 0.0 2.5613716 3.7451484 0.0 0.37854722 
3.7683954 0.0 0.0 0.0 0.0 0.0 0.0 0.12951027 0.0 1.1463844 0.0 0.0 2.4296494 4.3386 0.0 0.0 
0.0 1.0558794 0.0 0.0 0.15247974 1.0304158 0.0 0.35796148 0.0 0.0 2.1242707 0.4563487 0.0 0.0 0.0 0.0 
0.0 1.8693416 0.05648205 2.3074846 0.0 1.7668228 1.1245024 0.81911016 0.0 0.0 3.6373076 0.0 0.63543975 2.4425485 1.5080464 0.0 
0.0 2.6369467 0.0 4.435197 0.0 0.0 0.0 0.0 0.0 0.0 4.6229286 0.0 2.5739279 2.386451 1.8587055 0.0 
0.0 2.9874954 0.0 5.3866935 0.0 0.0 0.0 0.0 0.0 0.0 3.6176798 0.0 3.809951 1.7380393 2.0223222 0.0 
0.0 2.3255174 0.0 5.6898093 0.0 0.0 0.0 0.0 0.0 0.09373492 3.2338796 0.0 2.9848654 2.8186257 3.0249307 0.0 

