1.9199679 2.3904464 0.2969562 0.0 0.0 0.66950196 0.0 0.046707273 0.0 0.6652834 0.0 0.0 0.0 1.8865452 0.47425252 1.0622633 
3.7417595 2.2214825 0.0 0.0 0.0 0.0 0.0 0.0 0.0 1.0300906 0.0 0.0 1.2966644 2.2890584 0.0 0.38574585 
3.733995 0.0 1.53022 0.0 0.0 0.0 0.0 0.0 0.0 0.8211955 0.0 0.0 1.056738 3.520739 0.0 0.0 
2.4679508 0.0 0.21753079 0.0 0.0 0.0 0.0 0.0 0.0 1.0337427 0.0 3.7986143 2.2159028 0.0 0.0 0.0 
1.1859027 0.0 0.8987696 0.0 0.25546214 0.81171286 0.0 0.0 0.0 0.0 0.0 2.1392143 1.5311494 0.54602367 0.0 0.0 
0.0 1.3649822 0.0 0.9359238 0.0 1.3450272 0.0 0.75771266 0.0 0.0 2.4370244 0.0 1.9449947 2.571189 1.4535509 0.0 
0.0 2.081426 0.0 3.191568 0.0 0.0 0.0 0.0 0.45925376 0.0 3.2590833 0.0 2.757126 2.3153532 1.2821597 0.0 
0.0 1.9387536 1.3368701 2.5173445 0.0 0.9984339 0.0 0.0 0.0 0.0 1.8320259 0.0 2.0838065 2.9923682 4.421565 0.0 
0.0 0.0 0.0 2.4231317 0.0 0.0 1.1481233 0.0 0.0 0.0 0.0 2.7586806 1.6848545 0.42224348 2.950977 0.0 
0.054288644 0.0 1.0952349 0.0 0.0 0.13707867 0.0 0.0 0.5700391 0.0 0.0 3.7855701 1.7496098 0.16032979 0.0 0.0 
0.37521264 1.7413871 0.0 3.5070984 0.0 0.0 0.8376886 0.63809353 0.16251776 2.3794365 0.2342391 0.03936927 0.0 0.0 0.0 0.0 
0.0 1.2363697 0.0 4.1296897 1.3475602 0.06875825 1.1482347 0.0 0.32775733 3.0531476 0.7145163 0.0 0.0 0.0 0.0 0.27136168 
0.0 0.6080915 4.8370457 0.34374708 1.7164538 1.92552 0.0 0.0 0.0 2.3494031 0.0 0.0 0.0 0.0 1.8952763 1.3300124 
0.0 0.0 1.9613017 0.71688116 0.0 0.0 5.581941 0.0 1.4923158 0.1599315 0.0 0.0 0.27586406 0.0 2.0503345 0.0 
0.0 0.0 0.1289405 0.0 0.0 0.22670937 0.0 0.0 2.886326 0.0 0.0 1.3808582 0.23218147 0.0 0.0 0.0 
0.0 0.017725002 0.0 0.11322406 0.0 0.0 0.104214616 0.0 0.0 0.07483247 0.0 0.0 0.0 0.0 0.0 0.0 
0.020338904 0.10960686 0.0 0.0 1.476101 0.14363757 0.30387878 0.0 0.0 0.0 0.0 0.035551757 0.0 0.0 0.0 0.44859573 
0.0 0.27288005 4.6309543 0.0 0.8982997 0.61640644 2.0214972 0.53562945 0.0 0.45493543 0.0 0.0 0.0 0.0 0.05197206 1.307543 
0.0 0.0 0.5260537 0.0 0.0 0.0 5.7881784 1.4308714 3.7166083 0.0 0.0 0.0 0.46946192 0.0 0.0 0.0 
0.0 0.0 0.009372313 0.0 0.0 0.2561753 0.0 0.0 2.8498833 0.0 0.0 0.88624465 0.16486123 0.1440348 0.0 0.0 
0.16786931 0.021212248 0.0 0.0 0.0018858686 0.12829003 0.09010044 0.0 0.0 0.0 0.18931235 0.0 0.0 0.023850821 0.0 0.0 
0.18684314 0.48581544 0.0 0.0 1.0445864 0.96200603 0.0 0.0 0.0 0.6201126 0.99880564 0.0 0.0 0.0 0.0 1.1183232 
0.0 0.21862336 1.5574526 0.0 0.0 0.20922446 3.6033783 2.6827838 0.0 0.5228334 0.24712315 0.0 0.3144781 0.0 0.0 0.27901548 
0.0 0.0 0.0 0.0 0.0 0.0 3.1377695 1.4525464 4.0262017 0.0 0.0 0.0 0.49320513 0.0 0.0 0.0 
0.0 0.0 0.0 0.073270425 0.0 0.44153035 0.0 0.0 0.83815306 0.0 0.0 0.2863728 0.52748525 0.0 0.0 0.31786972 

