0.0 1.2360854 0.0 0.0 0.0 0.23035511 0.13003503 0.0 0.0 0.07198836 1.5847056 0.0 1.0940824 2.2141383 0.5926971 0.0 
0.14757757 1.7940228 0.60997 1.9077702 0.0 0.0 0.0 0.0 0.0 0.0 0.2812908 0.0 1.4102383 3.1638463 2.9317403 0.0 
0.14786983 0.0 0.0 1.5482897 0.0 0.0 1.1378568 0.0 0.26037073 0.0 0.31839004 2.1951704 1.1937742 0.6587019 0.46353722 0.0 
0.20275353 0.0 0.7457574 0.3330193 0.0 0.14573017 0.0 0.0 0.22450855 0.0 0.0 1.4615011 0.67036176 0.14170003 0.0 0.0 
0.0 0.0 0.0 0.0 0.0 0.0 0.0 0.0 0.0 0.0 0.0 0.0 0.0 0.0 0.0 0.0 
0.12197055 1.1478223 0.0 1.4594023 1.2297187 0.084762186 0.7336011 0.0 0.2993406 1.8204691 0.2275669 0.0 0.0 0.0 0.0 0.0 
0.0 0.49157935 2.592059 1.0060267 0.048662715 1.2436447 1.9396861 0.0 0.10860571 2.3100667 0.0 0.0 0.0 0.0 2.00087 1.196563 
0.0 0.0 0.0 0.28589875 0.0 0.0 4.1201367 0.0 2.4687183 0.07361753 0.0 0.0 0.31314975 0.0 0.74899995 0.0 
0.0 0.0 0.2086038 0.57320064 0.0 0.44747835 0.0 0.0 0.7141186 0.0 0.0 0.5064583 0.013621464 0.0 0.0 0.0 
0.013865087 1.5695083 0.33330995 1.1261451 0.0878435 0.0 0.0 0.0 0.4201973 0.0 0.0 0.08446486 0.0 0.0 0.0 0.8047904 
0.08791694 0.45465964 0.0 0.0 1.0448321 0.73695886 0.0979955 0.0 0.1005446 0.0 0.0 0.0 0.0 0.0 0.0 0.0 
0.34581012 1.0876327 2.7121286 0.47265708 0.0 0.39604706 2.9444432 0.73615015 0.0 0.0 0.0 0.0 0.0 0.0 0.0 0.3997928 
1.6860306 0.0 0.0 0.5331722 0.0 0.0 3.0679624 0.0 2.926437 0.0 0.0 0.38062996 0.0 0.0 0.0 0.0 
2.738046 2.1692033 0.0 0.12637243 0.0 0.2878623 0.0 0.0 0.0 1.472746 0.0 0.5709847 0.0 0.0 0.0 0.5793905 
3.0664885 2.9398172 0.0 0.0 0.7585853 0.0 0.0 0.4585058 0.0 1.6624221 0.0 0.0 0.0 0.7181616 0.0 1.060952 
0.036117386 0.0 0.0 0.0 0.5184156 2.2375243 0.0 0.0 0.09899439 0.0 2.0513844 0.0 0.0 0.23317787 0.13261457 0.0 
1.4518567 0.0 1.9066253 0.0 0.0 1.3912673 2.2774785 1.2839751 0.0 0.0 3.2289493 0.0 1.389061 3.533176 0.7931256 0.0 
2.7603123 0.0 0.0 0.0 0.0 0.0 0.0 0.0 0.0 0.0 3.5014913 0.0 2.9574754 3.488022 0.0 0.0 
1.9963996 0.0 0.0 0.0 0.0 0.0 0.0 0.0 0.0 0.0 2.9084706 0.0 3.9464645 2.3097925 0.0 0.0 
0.2816236 0.093504265 0.0 2.8058128 0.0 0.0 0.0 0.0 0.46554178 0.0 2.5125618 0.0 2.8658853 2.5880125 1.4924536 0.0 
0.0994128 1.0010695 0.0 0.8454268 0.059593104 0.8143086 0.0 0.3357764 0.0 0.22369704 1.1689826 0.41607624 0.0 0.0 0.0 0.0 
0.0 1.630667 0.0 3.5937102 0.0 0.6887526 0.26946405 0.5191946 0.029432673 2.1717987 2.3212326 0.0 0.5293538 0.0 2.3715866 0.0 
0.0 2.110772 0.0 4.6916947 0.0 0.0 0.0 0.0 0.18270831 2.9548233 3.2797515 0.0 0.43586498 0.0 2.3756268 0.0 
0.0 3.1224718 0.0 6.147501 0.25575352 0.023853384 0.0 0.0 0.0 3.6490984 3.266465 0.0 0.061910324 0.0 0.31407243 0.5252993 
0.0 2.5480611 0.0 6.498032 0.78300315 0.36571574 0.0 0.0 0.0 2.5985775 1.8637718 0.0 0.0 0.0 0.17008997 1.6929567 

