0.74480647 0.39258108 0.37188333 0.0 0.40666398 0.326599 0.20145354 0.0 0.0 0.25744438 0.0 0.0 0.0 0.12201155 0.14321016 0.89292413 
2.1224792 2.3285916 1.634233 0.0 0.0 0.19794899 0.11620228 0.0 0.0 0.4130425 0.0 0.0 0.0 0.41929767 0.48725277 1.6858325 
2.8443458 1.6057234 0.0 0.0 0.4862914 0.0 0.9874001 0.61157995 0.0 0.301226 0.0 2.5741656 0.69419324 0.0 0.0 0.24314068 
1.7546003 0.0 0.11844042 0.7347822 0.8507893 1.1855457 0.0 0.0 0.0 0.3244941 0.19828063 3.260156 1.0558515 0.7778787 0.0 0.0 
0.0 0.0 0.08091287 0.6015373 0.63296646 0.8711324 0.0 0.0 0.0 0.0 0.3761514 0.0 0.0 0.78866327 0.0 0.0 
0.12105754 0.090817235 0.7556013 0.0 0.86048007 0.7992696 0.0 0.0 0.010657854 0.51042765 0.0 0.0 0.0 0.0 0.87569994 1.8690082 
0.10761733 0.5294156 1.1233431 0.0 0.0 0.3865411 1.5532591 0.0 0.0 0.0 0.0 0.0 1.0352675 2.1092136 1.0277172 0.29963955 
1.334183 0.0 0.0 0.0 0.0 0.0 0.0 0.30847472 0.42015424 0.0 0.0 0.0 0.67576784 2.7416632 2.672188 0.0 
1.0045493 0.0 0.0 0.0 0.0 0.0 0.0 0.0 0.0 0.0 0.0 4.538717 2.0559535 0.0 0.0 0.0 
0.6808939 0.0 0.7552135 0.0 0.0 0.4732594 0.0 0.0 0.0 0.0 0.0 1.6390307 0.62141454 0.3918752 0.0 0.0 
0.0 0.0 0.0 0.0 0.44379604 2.92496 0.0 0.66321135 0.0 0.0051153414 1.4026667 0.06965087 0.0 1.3546022 0.0 0.0 
0.06101301 0.38561046 0.0 0.0 0.0 0.0 1.6102294 2.3091109 0.0 0.9684627 2.6358657 0.0 0.0 2.281969 0.0 0.0 
0.0 0.0 1.5173075 0.0 0.0 1.052851 0.0 0.0 0.0 0.0 0.0 0.0 1.1193454 0.52264756 3.060086 0.0 
0.0 0.0 0.0 0.0 0.0 0.0 0.0 0.0 0.7332647 0.0 0.0 3.5654292 0.9496421 0.0 0.35986835 0.0 
0.0 0.0 0.5612675 0.17232007 0.0 0.5698375 0.0 0.0 0.0 0.0 0.0 4.149846 1.3641707 0.42824242 0.0 0.0 
0.0 1.2145451 0.0 0.0 0.0 1.5195913 0.0 0.15174505 0.0 0.0 1.2170135 0.37548396 0.0 0.0 0.18743433 0.0 
0.0 1.7709647 0.0 3.362421 0.0 0.0 0.73434263 0.31298083 0.0 0.556129 3.9582603 0.0 0.41358382 0.7459377 1.2864134 0.0 
0.0 1.7015344 0.0 3.0524244 0.0 2.8382037 0.0 0.0 0.8264025 0.8188722 3.5007472 0.0 0.37701184 1.202783 1.1663023 0.0 
0.0 0.0 0.40468216 0.63425964 0.0 1.3159258 0.26527798 0.0 0.0 0.0 0.0 0.0 0.0 1.3619164 2.1354663 0.42811495 
0.0 0.0 0.0 0.0 0.0 0.0 0.0 0.0 0.0 0.0 0.0 4.410368 1.2184682 0.0 0.0 0.0 
0.31757692 0.6614398 0.0 0.7177783 0.0 0.0 0.25194898 0.19338377 0.0 0.7254197 0.20942324 0.12029421 0.0 0.0 0.0 0.0 
0.09824434 1.0524561 0.0 2.2079856 0.0 0.0 0.7681797 0.16824342 0.30989596 2.6639721 0.0 0.0 0.0 0.0 0.0 0.0 
0.0 0.46504503 0.0 1.0163686 0.66497046 2.1489906 0.18870884 0.0 0.26620337 1.8867553 0.6227716 0.0 0.0 0.0 0.0 0.6179793 
0.0 0.006811591 1.5124981 0.0 0.0 3.4875135 0.61267847 0.0 0.0 0.0 0.0 0.0 0.0 1.2970859 2.663088 0.0 
0.0 0.0 0.0 0.0 0.0 0.0 0.7025586 0.0 0.0 0.0 1.0820017 2.8490694 0.25077724 1.1014385 0.99593526 0.0 

