0.02756301 0.0 0.0 0.011228256 0.36791795 0.02692549 0.18955852 0.0 0.0 0.0 0.0 0.0 0.0 0.0 0.0 0.0 
0.542037 0.8012277 1.4876143 0.0 0.6033156 0.0004891455 0.0 0.0 0.0 1.0983859 0.0 0.0 0.0 0.0 0.59297115 2.5180485 
1.108033 0.9252116 1.567798 0.0 0.22586077 0.0 1.1280919 0.0 0.0 0.9729123 0.0 0.0 0.7337574 0.0 0.7410069 2.915125 
2.284988 0.0 0.0 0.0 0.0 0.0 0.7762461 1.0985101 0.94011664 0.0 0.0 0.0 1.1192385 0.658069 1.1181052 0.0 
1.0785469 0.0 0.0 0.0 0.0 0.0 0.0 0.0 0.9701922 0.0 0.0 3.5213938 1.424186 0.0 0.0 0.0 
0.402566 0.252722 0.69769 0.0 0.90442085 0.08006911 0.25990734 0.0 0.02801077 0.45997974 0.0 0.0 0.0 0.0 0.26552963 1.1402174 
0.27093175 0.5768269 1.9201032 0.0 0.64681846 0.0 0.26677102 0.0 0.00032243505 1.2740492 0.0 0.0 0.65150785 0.0 0.7785225 3.4693825 
0.0 0.0 0.0 0.0 0.0 0.0 2.773669 1.7321349 1.6213064 0.0 0.0 0.039648958 0.99492866 0.0 0.0 0.0 
0.0 0.0 1.7545695 0.0 0.0 0.0 0.71635556 1.0610275 3.44276 0.0 0.0 0.0 0.5026657 0.0 1.3369168 0.0 
0.0 0.0 0.0 0.0 0.0 0.0 2.9526002 0.0 1.0998363 0.0 0.0 2.4463646 0.1736618 0.0 0.0 0.0 
0.1483102 0.0 1.6576408 0.0 1.4810237 0.61673653 0.0 0.0 0.0 0.7495533 0.0 0.0 0.0 0.0 0.5824377 2.2758703 
0.0 0.0 1.2664236 0.0 0.0 0.0 4.04204 1.3996964 0.0 0.17038491 0.0 0.75338113 0.4966374 0.0 0.0 1.3346946 
0.0 0.0 0.0 0.0 0.0 0.0 2.0316172 1.4434886 5.139727 0.0 0.0 0.0 0.0 0.0 0.0 2.6594136 
0.0 0.0 1.5547991 0.0 0.0 0.16118306 4.0383267 1.0192273 0.4063388 0.0 0.0 0.0 0.29107964 0.0 0.44766766 1.9258113 
0.0 0.0 0.0 0.0 0.0 0.0 2.4217625 0.17871255 3.407262 0.0 0.0 0.0 0.47994906 0.0 0.0 0.0 
0.0 0.15226947 1.8735203 0.0 1.4272704 2.4931586 0.0 0.5004433 0.0 0.0 0.0 0.09275903 0.0 0.0 0.0 0.0 
0.5414692 0.012973322 0.6942408 0.0 0.0 0.0 3.1921723 1.8614256 0.8658917 0.5096698 0.0 0.3105159 0.0 0.0 0.0 0.0 
0.0 0.0 0.0 0.0 0.0 0.0 0.0 0.0 3.3237407 0.0 0.0 0.0 0.2502064 0.0 0.0 2.3676927 
0.0 0.0 0.0 0.0 0.0 0.0 2.6006625 2.6426802 3.1359317 0.0 0.0 0.0 0.69265836 0.0 0.0 0.0 
0.0 0.0 0.0 0.0 0.0 0.053100437 0.0 0.0 4.4197516 0.0 0.5115318 0.0 0.18312871 0.05589387 0.0 1.1379676 
0.0 0.0 1.7834386 0.0 0.27587792 2.5731432 0.0 0.77286285 0.0 0.591865 1.9777958 0.0 0.13261563 1.4152495 0.2479346 0.0 
0.0 0.0 0.1564188 0.0 0.0 0.0 2.1522443 1.3621619 0.0 0.6237639 4.845963 0.0 1.2624139 1.6649736 0.5665758 0.0 
0.0 0.0 0.0 3.7439783 0.0 0.0 0.0 1.0019773 0.0 0.0 3.7598915 0.0 2.1075444 0.87721103 0.0 0.0 
0.0 0.0 0.0 3.5712264 0.0 0.0 0.0033445759 1.343348 4.484623 0.0 1.8477426 0.0 1.101823 0.106991865 0.0 2.2958992 
0.0 0.07457312 0.0 0.5627986 0.2989135 0.44214934 0.0 0.0 1.513186 0.0 0.81168455 0.0 0.0 0.08274279 0.0 2.158813 

