0.0 0.4998804 0.0 0.0 0.0 0.45025808 0.34116247 0.3554389 0.0 0.0 2.814812 0.0 1.7105658 4.4066577 3.1274319 0.0 
2.2063987 0.0 0.0 0.0 0.0 0.0 0.0 0.0 0.31713524 0.0 3.9445796 0.0 1.3413044 5.2722006 4.054407 0.0 
2.6296077 0.0 0.0 0.0 0.0 0.0 0.0 0.0 0.0 0.0 2.556432 0.8769505 1.1347193 5.3730083 0.12719293 0.0 
2.2889411 0.0 0.0 0.0 0.0 0.0 0.0 0.0 0.0 0.44789404 0.0 2.7719617 1.8606503 0.2903362 0.0 0.0 
1.5032165 0.0 0.0 0.89319706 1.0091658 1.3408918 0.0 0.0 0.0 0.3064946 0.4183741 2.7990549 1.2175059 0.8578458 0.0 0.0 
0.06030557 2.2486534 0.0 3.3890798 0.0 0.0 0.29879853 0.0 1.0073328 1.3139802 0.013803693 0.0 0.0 0.0 0.0 0.37034312 
0.0 3.7528703 0.0 2.448302 0.0 1.0586455 0.0 0.0 0.08821224 1.1225708 1.3800979 0.0 0.0 0.0 4.2988367 0.0 
0.0 1.552935 0.0 1.380423 0.0 4.0982327 0.0 0.0 0.0 0.9350306 2.5939724 0.0 0.0 3.8970287 5.12419 0.0 
0.0 0.0 0.0 1.1013371 0.0 1.324897 0.0 0.0 0.0 0.0 0.31769568 0.0 0.60538644 3.186289 4.219319 0.0 
0.88744175 0.0 0.0 0.0 0.0 0.0 0.0 0.0 0.0 0.0 0.0 5.0598392 2.1278276 0.0 0.0 0.0 
2.0589414 1.5438763 0.8595486 0.0 0.0 0.3209495 0.0 0.0 0.0 0.4322269 0.0 0.0 0.100594625 0.92779994 0.78496665 1.6704642 
2.6208167 2.3673356 0.0 0.0 0.0 0.0 1.0834917 0.0 0.0 0.88977623 0.0 0.76981044 0.0 2.3844259 0.0 0.0025373353 
2.168604 0.3736886 0.0 0.0 0.0 2.038728 0.0 0.0 0.0 1.2292068 0.0 2.0345497 0.0 0.0 0.0 0.0 
0.0 0.0 3.0900917 1.5404953 0.0 4.538204 0.0 0.0 0.0 0.7241001 0.0 0.0 0.0 0.42916122 3.6127143 0.0 
0.0 0.0 0.0 0.6172681 0.0 0.0 1.1830568 0.0 0.0 0.0 0.11209947 3.3195558 0.43912607 0.0 0.5610579 0.01690625 
0.15865545 0.16610251 0.48585784 0.0 0.0 2.0304067 0.0 1.8917089 0.0 0.0 0.0 0.0 1.4507221 0.8300143 0.35503888 0.05194247 
1.3237422 0.0 0.0 0.0 0.0 0.0 0.0 0.0 0.0 0.0 0.0 0.0 1.0821191 1.1487911 2.450929 0.0 
2.1419308 0.0 0.0 0.0 0.0 0.0 0.0 0.0 0.0 0.0 0.5460377 0.0 0.31948435 1.803127 3.1281364 0.0 
1.3420045 0.0 2.9804027 0.0 0.0 0.0 0.0 0.04417588 0.0 0.810004 0.80230886 0.60783803 2.600147 1.4225401 0.0 0.0 
0.8465986 0.0 0.0 0.0 0.0 0.0 1.4378316 0.0 3.4073627 0.0 0.36717597 0.0 2.5346727 1.2632924 0.0 0.0 
0.0 1.0840532 0.0 0.0 0.0 1.999629 1.3753129 1.166484 0.0 0.32098255 2.6948304 0.0 0.054162018 2.4336631 1.9776206 0.0 
0.0 1.6321932 0.0 1.8164829 0.0 0.0 0.0 0.0 0.0 0.29398015 3.663876 0.0 0.6807105 1.8983326 1.5905076 0.0 
0.0 2.471212 0.0 5.488779 0.0 0.0 0.0 0.0 0.0 0.0 3.176628 0.0 3.3813126 0.0 1.850244 0.0 
0.0 2.2862427 0.0 6.0245214 0.0 0.0 0.0 0.0 0.011840854 0.6663482 3.7479494 0.0 1.5632501 0.83196807 0.7388362 0.0 
0.0 0.7536908 0.0 4.9616756 0.540573 0.06456414 0.0 0.0 2.1109767 0.46797287 3.092644 0.0 0.76899093 1.0563939 0.8854509 3.010546 

