0.65729094 1.1426024 1.9626783 0.0 0.08589979 1.5741899 0.0 0.0 0.0 0.0 0.0 0.0 0.0 1.0945609 0.26185018 0.8402141 
0.8151614 1.2205464 0.7578314 0.0 0.70358384 0.0 1.3908432 0.0 0.0 0.6535331 0.0 2.4589322 0.5845305 0.0 0.0 0.75319785 
0.9863017 0.0 1.0775554 0.0 0.91233903 1.2246578 0.0 0.0 0.018466905 0.0 0.0 1.6911913 0.33026493 0.78665406 0.0 0.0 
0.86985123 0.0 2.9325016 0.0 0.0 0.14657263 2.3152432 0.0 0.0 0.47741258 0.0 0.0 0.7978076 0.295551 0.9448975 1.4332083 
0.8689265 0.0 0.0 0.0 0.0 0.0 2.1640024 0.016518198 1.7620926 0.035940517 0.0 1.5362884 0.770543 0.073599316 0.0 0.0 
0.0 0.23255691 3.8788936 0.0 0.34256786 1.8959126 0.0 0.0 0.0 0.0 0.0 0.0 0.0 1.2649015 2.0512674 0.0 
0.07205008 0.0 1.8169895 0.38928416 0.0 0.0 3.0343056 0.0 1.0208482 0.0 0.0 1.4335569 0.5872174 0.0 1.3670623 0.0 
0.3551162 0.0 1.8351216 0.0 0.018844359 1.1640055 0.0 0.0 1.4673234 0.0 0.0 2.6587856 0.20277376 0.0 0.0 0.0 
0.0 0.0 3.6034155 0.0 0.0 0.0 4.850118 0.9385217 0.0 0.0 0.0 0.09754495 0.71101946 0.0 0.5152331 0.0 
0.0 0.0 0.0 0.0 0.0 0.48647523 1.1293931 0.031238638 2.9056244 0.0 0.12424648 0.06099212 0.4075638 0.09819234 0.0 0.06955949 
0.0 0.56728935 3.3139167 0.0 0.6719712 3.0289645 0.0 0.0 0.0 0.0 0.83054537 0.008924931 0.0 1.1975234 0.2807837 0.0 
0.87613606 0.0 1.870298 0.08907591 0.0 0.0 2.8921633 1.4689502 1.0480539 0.0 0.0 0.0 0.0 0.6495762 0.3507774 0.0 
0.77498186 0.0 1.5796335 0.0 0.25220105 2.6542118 0.0 0.0 1.080744 0.0 0.0 1.8547975 0.0 0.0 0.0 0.0 
0.20878373 0.0 3.1430097 0.62775093 0.0 0.0 4.5733576 0.48735887 0.0 0.106033176 0.0 0.15164144 0.0 0.0 0.0 0.0 
0.0 0.0 0.0 0.0 0.0 0.97798175 0.0 0.0 3.2948766 0.0 0.0 0.6624383 0.04970926 0.26954427 0.0 0.0 
0.0 0.87045 1.1124433 0.0 0.1371842 3.297966 0.0 0.23189984 0.0 0.0 1.6316655 0.3741429 0.0 1.6941694 0.48804837 0.0 
0.9646248 0.048140585 0.70180285 0.0 0.0 0.0 2.4447403 0.71849054 0.0 0.0 3.3307004 0.0 0.59391415 3.9743075 2.1757958 0.0 
0.37579536 0.0 2.709672 0.0 0.0 0.0 0.0 0.0 0.0 0.0 1.9843168 0.0 1.2131788 1.7018491 0.0845439 0.0 
0.16663545 0.0 2.4027767 0.0 0.0 0.0 2.8400402 0.0 2.236837 0.0 0.0 0.0 1.5777402 0.0 0.0 0.0 
0.0 0.0 0.11433154 0.0 0.0 0.17594194 0.0 0.0 2.9717634 0.0 0.006565761 0.75377464 0.07207152 0.28684217 0.0 0.0 
0.2607015 1.3294692 0.0 0.7626308 0.0 0.0 0.33130607 0.115238816 0.0 0.84022844 0.5098353 0.43413708 0.0 0.0 0.0 0.0 
0.0 1.6513188 0.0 0.7953281 0.0 0.04338488 0.13757353 0.0 0.0 2.2500923 0.72902757 0.0 0.0 0.0 2.2911267 0.0 
0.0 1.185676 0.0 3.0866547 0.0 2.2715514 0.86455476 0.0 0.0 2.418411 0.60613376 0.0 0.0 0.0 2.9682484 0.0 
0.0 0.0 0.0 1.833513 0.0 0.0 1.9990432 0.0 1.8696609 0.0 0.546223 0.0 0.2766466 0.0 0.0 0.0 
0.0 0.0 0.0 0.013403498 0.0 0.58780485 0.0 0.0 0.58761734 0.0 0.0 0.18456617 0.46836042 0.062971875 0.0 0.19205877 

