0.5513129 0.67838997 1.1777413 0.0 0.45102906 0.0 0.11377873 0.0 0.023242548 0.19317713 0.0 0.0 0.0 0.0 0.0 0.9243712 
1.7819657 1.6739522 1.65752 0.0 0.3168049 0.0 0.0 0.0 0.0024677627 1.1624054 0.0 0.0 0.0 0.0 0.29951102 2.507727 
2.6896718 1.5659996 0.6838102 0.0 0.43323803 0.0 0.0 0.0 0.0 0.7484108 0.0 0.0 0.3335113 0.19513121 0.06795524 1.6849443 
3.30318 0.0 0.0 0.0 0.0 0.0 0.0 0.0 0.0 0.0 0.0 0.1996575 0.28889596 1.3576922 0.0 0.0 
2.4199126 0.0 0.06266625 0.0 0.0 0.0 0.0 0.0 0.0 0.0 0.0 4.1850348 2.1509445 0.0 0.0 0.0 
0.52681524 0.50135124 1.8203901 0.0 0.64910144 0.0 0.0 0.0 0.0 1.1728822 0.0 0.0 0.0 0.0 0.86686414 2.5935166 
0.5720024 0.0 1.261633 0.0 0.0 0.0 0.0 2.4369876 0.0 1.077314 0.0 0.0 2.118345 0.0 1.0692278 2.4642417 
0.0 0.0 0.0 0.0 0.0 0.0 0.0 2.0814624 0.67701536 0.0 0.827216 0.0 1.9891973 0.0 0.09513265 0.0 
0.0 0.0 0.7534733 0.0 0.0 0.0 0.0 0.0 0.62322146 0.0 0.47253394 0.0 1.6041888 1.7488829 4.1243563 0.0 
0.12715526 0.0 0.0 0.0 0.0 0.0 0.0 0.0 0.0 0.0 0.0 1.9009415 1.3361974 0.63507617 3.8124228 0.0 
0.0 0.0 1.7812995 0.0 0.4170597 0.0 1.1313853 1.9992115 0.0 0.62259066 0.0 0.0 0.4431824 0.0 0.33696187 2.0894923 
0.0 0.0 0.0 0.99626184 0.0 0.0 3.0409465 2.869122 2.2992146 0.0 0.0 0.91349006 1.3707415 0.0 0.0 0.0 
0.0 0.0 0.0 0.6231025 0.84356093 0.0 0.0 0.39965183 2.7279737 1.0135843 0.2662428 0.0 0.0 0.0 0.0 2.4441397 
0.0 0.8017929 0.29096752 0.06332584 1.5103894 0.0 0.10779883 0.0 0.0 1.8023874 0.0 0.0 0.0 0.0 1.4541655 3.7434204 
0.0 0.0 0.0 0.0 0.0 0.0 2.559847 1.0156488 1.6195034 0.0 0.0 0.0 0.555504 0.0 2.494767 0.0 
0.0 0.0 0.9963919 0.0 0.0 2.5684288 1.8201846 2.614408 0.0 0.3026783 0.43956694 0.0 0.0 1.0530663 0.0 0.0 
1.3912894 0.0 0.0 0.0 0.0 0.0 1.9550177 1.1839911 0.89861995 0.0 0.0 0.3523327 0.0 0.41599056 0.0 0.0 
0.74520016 0.0 0.0 0.0 1.2166944 0.0 0.0 0.0 0.0 1.0265179 0.0 0.0 0.9931944 0.0 0.0 2.461018 
0.0 0.0 0.0 0.0 0.6286963 0.0 0.80415255 3.8150382 0.0 0.92359406 0.0 0.0 1.2497872 0.0 0.0 0.0 
0.0 0.0 0.0 0.0 0.0 0.0 1.4817711 2.9941356 3.788537 0.0 0.05511497 0.0 0.15497145 0.078659214 0.0 0.0 
0.0 1.4344655 0.0 0.5730585 0.0 2.807626 1.9799511 0.97040874 0.0 0.31311584 3.3431172 0.0 0.14290275 3.0164323 1.6262364 0.0 
0.0 0.14621937 0.0 0.16779092 0.0 0.0 0.23476903 0.0 0.0 0.0 5.128369 0.0 1.0220269 3.6972153 2.6646013 0.0 
0.0 1.6080401 0.0 5.3022275 0.0 0.0 0.0 0.43380368 0.0 0.0 5.346141 0.0 3.0685878 2.0672696 0.0069640577 0.0 
0.0 1.3115815 0.0 6.506548 0.0 0.0 0.0 1.9724975 2.1346884 0.0 3.71204 0.0 1.8394552 0.5609879 0.0 0.039859522 
0.0 0.0 0.0 2.3165894 0.5262497 0.55737305 0.0 0.0 3.4147127 0.0 1.0969193 0.0 0.0 0.49499825 0.0 2.546731 

