0.34127983 0.22545804 0.30951113 0.0 0.96093965 0.09882611 0.2568751 0.0 0.0 0.091928124 0.0 0.0 0.0 0.0 0.0 0.30670565 
0.21539702 0.41311842 2.6301513 0.0 1.018022 0.0 0.0 0.0 0.0 1.1411402 0.0 0.0 0.0 0.0 1.4171356 2.7821438 
0.74016804 0.0 2.9162397 0.0 0.0 0.0 3.677919 1.9701374 0.15154296 0.0 0.0 0.0 1.1889437 0.0 2.2762072 0.0 
0.9007221 0.0 0.0 0.0 0.0 0.0 0.0 0.5286526 4.8967557 0.0 0.0 1.7348044 0.6251725 0.0 0.0 0.0 
0.09586544 0.0 0.90106136 1.0061773 0.21500614 0.0 0.07618476 0.0 0.0 0.0 0.5141235 1.0987221 0.73136944 0.30204967 0.0 0.0 
0.15156966 0.0 1.1665556 0.0 1.2214698 0.306175 0.0 0.0 0.0 0.55659825 0.0 0.0 0.0 0.0 0.32787997 1.8045875 
0.0 0.0 1.4429278 0.0 0.41167396 0.0 1.9678382 1.7954794 0.0 0.6862936 0.0 0.0 0.2645002 0.0 0.0 2.4949472 
1.3472497 0.0 0.0 0.0 0.0 0.0 2.2838206 2.6546187 3.166537 0.0 0.0 0.0 0.31505734 0.0 0.0 0.0 
1.5570675 0.0 0.0 0.3431757 0.0 0.0 0.0 0.0 3.9206996 0.0 0.0 0.7214693 0.0 0.0 0.0 1.348501 
0.8700028 0.0 0.0 1.494118 1.6251756 0.9477373 0.0 0.0 0.0 0.0 0.27216262 2.3450706 0.7561289 0.5300874 0.0 0.0 
0.0 0.0 1.1093918 0.0 1.3512939 1.8089197 0.0 0.057327896 0.0 0.0 0.39654595 0.01981537 0.0 0.0 0.0 0.7158919 
0.0 0.0 0.8851035 0.0 0.0 0.0 2.5571086 1.6763742 0.2052723 0.051694874 0.0 0.0 0.0 0.0 0.0 0.0 
0.0 0.0 0.0 0.0 0.0 0.0 0.0 0.0 2.2090895 0.0 0.0 0.0 0.0 2.7945008 0.42452627 0.0 
0.509762 0.0 0.0 0.0 0.0 0.0 0.0 0.0 0.0 0.0 0.0 0.0 1.1358347 2.5212774 1.9734755 0.0 
0.95754117 0.0 0.0 0.0 0.0 0.0 0.0 0.0 0.0 0.0 0.0 3.6528554 1.622869 0.0 0.0 0.0 
0.0 0.0029560889 0.61077553 0.0 0.5288484 3.6362247 0.0 0.25283092 0.0 0.0 1.6772147 0.25376272 0.0 1.2750002 0.032465905 0.0 
0.0 0.0 0.0 0.0 0.0 0.0 1.8104645 1.6929704 0.0 0.0 3.7301137 0.0 0.0 2.479205 0.42088705 0.0 
0.10700889 0.0 0.0 0.0 0.0 0.0 0.0 0.0 0.0 0.3187141 2.1294744 0.0 0.52475893 2.3747478 0.0 0.0 
0.0 0.0 0.0 0.0 0.0 0.0 0.0 0.0 0.0 0.81094396 0.0 0.0 2.0492175 0.0 2.4520533 0.0 
0.0 0.0 0.0 0.0 0.0 0.0 0.0 0.0 2.9550827 0.0 0.0 1.1992344 2.058593 0.07944576 0.12294872 0.0 
0.15385723 1.1500672 0.0 0.4322016 0.0 0.9942909 0.0 0.18082176 0.0 0.10697013 1.104659 0.42747107 0.0 0.0 0.0 0.0 
0.0 1.8678324 0.0 2.1630726 0.0 0.09821673 0.0 0.14275718 0.0 0.44395447 4.1926613 0.0 0.26088446 0.0 1.9342589 0.0 
0.0 2.2219388 0.0 5.4334235 0.0 0.21351463 0.0 0.0 0.0 0.0 5.4439263 0.0 1.4712589 1.0888574 1.3727036 0.0 
0.0 2.6103945 0.0 6.829634 0.0 0.0 0.0 0.0 0.08337234 0.0 4.057508 0.0 1.1837145 1.3226477 0.081486866 0.0 
0.0 0.09897328 0.0 3.671991 0.66219115 0.3780095 0.0 0.0 2.2579126 0.0 2.127204 0.0 0.703801 0.58235824 0.4960124 2.9495845 

