0.0 0.13285242 0.0 0.0 0.0 0.0 0.0 0.0 0.10337928 0.08501105 0.5099694 0.0 0.1052797 0.07926489 0.0 0.0 
0.2045093 0.52119285 0.0 0.0 0.0 1.0417378 0.0 0.0 0.0 0.10605623 1.3514435 0.0 0.6952433 3.2523885 1.443602 0.18337376 
1.9388357 0.0 0.09526746 0.0 0.0 0.9639872 0.0 0.0 0.0 0.0 1.7017467 0.0 0.27941358 5.0017343 3.5557485 0.0 
1.9827981 0.0 0.33428386 0.047541197 0.0 0.0 0.0 0.0 0.0 0.0 0.0 3.174701 2.0885525 1.1093354 0.7119095 0.0 
1.256259 0.0 1.0958443 0.0 0.0 0.4113245 0.0 0.0 0.06619251 0.0 0.0 3.7655516 1.7566701 0.370792 0.0 0.0 
0.8646613 2.1846523 0.43587974 0.31657463 0.0 0.0 0.0 0.0 0.26253957 0.0 0.0 0.26695696 0.0 0.0 0.0 0.5131378 
2.161967 3.5007496 0.0 1.0378405 0.60090256 0.0 0.0 0.0 0.0 1.7234434 0.0 0.57228863 0.0 0.0 0.0 0.08511106 
0.76354533 2.8082626 1.2957134 2.0604415 1.3133821 1.1213958 0.0 0.0 0.0 3.1069646 0.0 0.0 0.0 0.0 4.358238 0.0 
0.0 0.0 0.81299084 3.2629676 0.0 0.0 0.95795894 0.0 0.12889922 0.70454085 0.0 0.0 0.0 0.0 3.4087064 0.0 
0.0 0.0 0.0023067854 0.6864555 0.0 1.3185718 0.0 0.0 1.7033541 0.0 0.027930142 2.749798 0.5144197 0.063257925 0.0 0.0 
2.2216787 1.0783476 1.0831333 0.0 0.0 0.0 0.0 0.0 0.0 1.2050697 0.0 0.0 0.9791185 0.0 0.5863054 2.0960495 
3.5743792 0.0 0.0 0.0 0.0 0.0 0.45764983 0.0 0.0 1.0408049 0.0 0.0 1.4354289 0.46074137 0.0 0.0 
2.0224683 0.0 2.5107388 0.0 0.0 0.0 0.0 0.0 0.0 1.2298769 1.2984041 0.0 0.8458952 1.0004026 0.0 0.0 
2.1956677 0.0 2.1071708 0.0 0.0 0.0 0.8868563 1.0164248 0.0 0.0 0.0 0.0 0.93562865 3.4473276 0.0 0.0 
1.2628556 0.0 0.0 0.0 0.0 0.0 0.0 0.0 0.98656464 0.0 0.0 2.6883075 1.4588705 1.896143 0.0 0.0 
0.0 0.0 0.0 0.0 0.0 1.9236896 0.80060303 2.5557718 0.0 0.0 3.6914577 0.0 1.1979307 2.0579329 0.0 0.0 
0.0 0.0 0.0 0.0 0.0 0.0 0.0 0.9803639 0.0 1.6720045 3.3320765 0.0 0.69253993 0.7937011 0.6184529 0.0 
0.0 0.0 0.0 0.0 0.0 0.0 0.0 0.0 0.0 0.39577463 1.2182647 0.0 0.7861057 0.0 0.5608469 0.0 
0.0 0.0 0.0 0.08605564 0.0 0.39462483 0.0 0.0 1.527339 0.0 2.0955768 0.0 1.4810718 3.1385198 3.6449368 0.0 
0.0 0.0 0.0 3.2431538 0.0 0.0 0.0 0.0 0.0 0.0 3.391991 0.0 1.1743988 4.9817247 4.3862853 0.0 
0.0 1.8822668 0.0 2.1421342 0.0 0.937095 0.7791234 1.0093986 0.0 0.5489068 3.212395 0.0 0.0 1.0741643 0.51400805 0.0 
0.0 2.330842 0.0 5.5580373 0.0 0.0 0.0 0.0 0.0 0.92071474 4.388789 0.0 0.0 1.0370917 0.98255235 0.0 
0.0 1.9279975 0.0 6.191689 0.1537117 0.0 0.5296393 0.0 1.2270192 1.4540433 2.9342628 0.0 0.0 0.016418189 0.0 2.0106997 
0.0 1.106447 0.0 2.9351175 0.40972063 0.69696665 0.019048486 0.0 1.3942237 0.9741492 1.0232897 0.0 0.0 0.0 0.0 1.6801057 
0.0 1.1432636 0.0 3.337768 0.04592827 0.0 0.5023727 0.0 0.07424246 1.7092124 0.49670532 0.0 0.0 0.0 2.603456 0.36347726 

