1.684041 1.0132407 1.0081258 0.0 0.0 1.9165349 0.0 0.0 0.0 0.067770645 0.0 0.0 0.0 2.4080408 0.5519522 0.77922976 
3.3340857 1.1476232 0.052694995 0.0 0.0 0.0 0.0 0.0 0.0 0.4162979 0.0 0.9467317 0.10316847 2.257993 0.0 0.08242657 
4.2467237 0.24130756 0.0 0.0 0.0 0.0 0.0 0.0 0.0 0.35314667 0.0 0.7921655 0.3279447 1.1053064 0.0 0.0 
3.7226067 0.41293103 0.41169652 0.0 0.75437015 0.09685971 0.0 0.0 0.0 0.3788649 0.0 1.7075844 1.0049168 0.0 0.0 0.0 
1.7665626 0.0 0.0 1.0874962 1.5452715 1.2890141 0.0 0.0 0.0 0.41136056 0.48332754 2.566789 0.9691288 0.8251642 0.0 0.0 
0.0 0.77906597 0.0648503 0.0 0.0 1.6939533 0.0 0.5734409 0.0 0.0 1.7351207 0.0 1.2537633 1.8188555 2.426875 0.0 
0.0 0.40276194 0.0 0.8002779 0.0 0.0 0.0 0.0 0.0 0.0 3.7115161 0.0 1.9731188 3.5164766 2.4456208 0.0 
0.31786284 0.0 0.0 0.53146785 0.0 0.0 0.0 0.0 0.0 0.0 3.1035345 0.0 2.3550057 4.9627266 4.1738806 0.0 
1.5196706 0.0 0.6684561 0.1514218 0.0 0.0 0.0 0.0 0.0 0.0 0.45775312 0.0 1.7739921 3.190817 4.352754 0.0 
1.3543973 0.0 0.0 0.0 0.0 0.0 0.0 0.0 0.0 0.0 0.0 4.0936623 2.373444 0.0 0.0 0.0 
0.5015087 1.8467526 0.0 2.1502144 0.0 0.0 0.7998874 0.39513046 0.0 1.0795367 0.7260368 0.48951605 0.0 0.0 0.0 0.0 
0.45455584 3.1475124 0.0 3.8961549 0.5010941 0.0 0.26608732 0.0 0.048906166 3.3152113 0.23995402 0.0 0.0 0.0 0.0 1.2731189 
0.04799534 3.8571134 0.0 3.0847597 1.061804 0.0 0.0 0.0 0.0 4.2733545 0.0 0.0 0.0 0.0 2.5105395 2.7446992 
0.0 0.7912866 0.0 0.5778954 0.0 0.0 1.2572298 0.0 0.0 2.274328 0.0 0.0 0.674286 0.0 4.5840487 1.4153857 
0.0 0.0 0.0 0.0 0.0 0.0 0.0 0.0 2.9073405 0.0 0.0 1.675562 0.81554914 0.0 0.4338833 0.0 
0.73771536 0.49491185 0.8924381 0.0 0.6350189 0.14108941 0.23636518 0.0 0.0 0.58122945 0.0 0.0 0.0 0.0 0.2308525 1.4701272 
0.7931276 0.8366845 1.4953969 0.0 0.55052876 0.0 0.0 0.0 0.0 2.0420506 0.0 0.0 0.71356124 0.0 0.7784591 3.1535637 
0.48277727 0.0 0.0 0.0 0.11413481 0.0 0.0 3.8025498 0.0 1.6134238 0.06329747 0.0 1.6288412 0.0 0.0 1.7740266 
0.0 0.0 0.0 1.5263683 0.0 0.0 1.1931894 2.935668 2.8066638 0.0 1.149632 0.0 1.2504247 0.4791967 0.0 0.0 
0.0 0.0 0.0 1.1066657 0.0 0.0 0.0 0.0 3.8272467 0.0 1.1130447 0.0 0.82094663 0.28018355 0.0 2.273329 
0.3206332 0.0 0.30167687 0.0 0.67798793 1.309289 0.0 0.28428644 0.0 0.67470646 1.3073369 0.0 0.0 0.19799528 0.07114573 1.703377 
0.0 0.0 0.188676 0.0 0.0 0.0 1.3616288 3.6759076 0.0 0.12336406 1.9530507 0.0 0.822067 0.21235862 0.0 0.2923691 
0.0 0.0 0.0 0.0 0.0 0.0 0.5167557 4.0650578 2.5794291 0.0 0.0 0.0 0.7166283 0.0 0.0 0.0 
0.0 0.0 0.0 2.529037 0.0 0.36179507 0.0 0.0 2.2388787 0.0 0.7778395 0.0 0.0 0.0 0.0 1.885959 
0.0 0.053994946 0.0 1.6225256 0.6204075 0.5419433 0.0 0.0 0.16452362 0.0 0.8534383 0.0 0.0 0.0 0.08807163 2.4957697 

