1.9590242 2.3042724 0.39508438 0.0 0.0 0.0 0.0 0.0 0.0 0.90776795 0.0 0.0 0.0 0.5832661 0.0 0.9768444 
3.9433584 2.787438 0.0 0.0 0.29571462 0.0 0.0 0.0 0.0 1.001465 0.0 0.57266665 0.0 0.0 0.0 0.37424353 
3.8998454 1.6299677 0.0 0.0 0.32441303 0.0 0.0 0.0 0.0 0.25700417 0.0 0.54640734 0.0 0.5446697 0.0 0.0 
3.6077 0.7759578 0.9934888 0.0 0.5189471 0.0 0.0 0.0 0.0 0.59550124 0.0 1.4991822 0.9491337 0.0 0.0 0.0 
1.8196257 0.0 0.121149704 0.5463765 1.270187 0.99942917 0.0 0.0 0.0 0.52534485 0.0 3.1832066 1.3945137 0.6367201 0.0 0.0 
0.19225867 0.0 0.0 0.0 0.0 0.87236696 0.0 0.10307303 0.0 0.26323515 2.8718858 0.0 1.6677603 2.3982508 1.4490052 0.16574521 
0.0 0.0 0.0 0.0 0.0 0.0 0.0 0.0 0.0 0.0 3.6686037 0.0 2.4138408 2.6141994 1.1950918 0.0 
0.16646557 0.3226244 0.19881523 0.0 0.0 0.0 0.0 0.0 0.0 0.0 2.475979 0.0 2.3653655 3.8515437 3.3967988 0.0 
1.3870051 0.073367365 2.0559564 0.59005517 0.0 0.0 0.50117075 0.0 0.0 0.0 0.0 0.0 2.2002668 2.163663 3.8139489 0.0 
1.1887709 0.0 0.0 0.0 0.0 0.0 0.0 0.0 0.18344694 0.0 0.0 3.6955438 2.041505 0.0 0.0 0.0 
0.28581497 2.0231974 0.0 2.7825887 0.0 0.1639623 0.88947994 0.46850228 0.0 2.1605113 1.4516844 0.16688904 0.0 0.0 0.0 0.0 
0.0 3.151202 0.0 4.58379 0.8364486 0.0 0.0 0.0 0.0 4.25825 1.7722583 0.0 0.0 0.0 0.0 2.2981434 
0.0 3.5261247 0.0 2.9817448 1.1549932 0.0 0.0 0.0 0.0 4.375613 0.0 0.0 0.0 0.0 1.6936574 4.2075653 
0.0 0.0 0.0 0.11701596 0.0 0.0 1.4262905 0.0666441 0.0 1.0360041 0.0 0.0 1.0266073 0.0 3.266035 0.6097813 
0.0 0.0 0.0 0.0 0.0 0.0 0.0 0.0 2.9137428 0.0 0.0 1.0567809 0.81913257 0.0 0.0 0.0 
0.6537927 0.30981806 0.48459983 0.349758 0.9574133 0.07595539 0.82228494 0.0 0.0 0.9246079 0.0 0.0 0.0 0.0 0.07805933 0.65244424 
0.41338 0.6634779 1.8127879 0.0 0.8348449 0.0 0.0 0.0 0.008939002 2.200076 0.0 0.0 0.44675374 0.0 0.74220693 4.2596316 
0.0 0.0 0.0 0.0 0.30063555 0.0 1.5669775 4.289769 0.0 0.9784905 0.0 0.4079892 1.2671747 0.0 0.0 1.648196 
0.0 0.0 0.0 2.1298614 0.0 0.0 0.6310581 3.1355178 3.2699564 0.0 0.9479198 0.0 1.0024023 0.47952285 0.0 0.0 
0.0 0.0 0.0 1.4675958 0.2724744 0.32857704 0.0 0.0 3.7848883 0.0 1.0445307 0.0 0.028515063 0.31826374 0.0 2.2133477 
0.22063972 0.2392468 0.38373 0.0 0.94538975 0.930296 0.0 0.0 0.0 0.33085316 0.15469097 0.0 0.0 0.0 0.0 1.3279696 
0.0 0.08875609 1.4546849 0.0 0.0 0.0 2.578852 3.6068745 0.0 0.52504015 0.0 0.0 0.29201788 0.0 0.009939969 1.6256847 
0.09835416 0.0 0.0 1.176366 0.0 0.0 2.3408816 4.0441203 3.6588354 0.0 0.0 0.5857763 0.0 0.0 0.0 0.0 
0.0 0.0 0.0 1.8013177 0.0 0.63646305 0.0 0.0 3.3214462 0.0 0.06492144 0.0 0.0 0.0 0.0 1.153398 
0.0 0.062207688 0.0 0.6958909 0.45152348 0.5894564 0.0 0.0 0.0 0.0 0.39519542 0.0 0.0 0.0 0.05806741 2.2430553 

