1.2633283 0.0 0.0 0.0 0.004465416 1.3046963 0.0 0.0 0.012308106 0.1932132 1.4014884 0.0 0.5467454 1.2148333 1.0307151 0.5095962 
2.586006 0.0 0.6701523 0.0 0.0 1.1539121 0.5579263 0.0 0.0 0.21811408 2.126491 0.0 1.32966 4.0627084 1.5121936 0.45473787 
3.4408987 0.0 0.74492437 0.0 0.0 0.0 0.0 0.0 0.0 0.0 0.21139792 0.0 0.95719546 4.8294683 0.022791311 0.0 
2.671651 0.0 0.889273 0.0 0.0 0.0 0.0 0.0 0.0 0.40011567 0.0 3.1899972 1.8005011 0.6181443 0.0 0.0 
1.3800429 0.0 0.88839763 0.0 0.5154469 0.77993214 0.0 0.0 0.0 0.0 0.0 2.2213311 1.359286 0.6159651 0.0 0.0 
0.08699554 1.0965407 0.0 1.005941 0.0 0.6352827 0.0 0.39559108 0.0 0.28678063 1.0089028 0.37333825 0.42038244 0.0 0.21762554 0.0 
0.0 1.9072005 0.0 1.6378703 0.0 1.0879123 0.0 0.0 0.0 2.4866343 1.0461372 0.0 0.18990128 0.0 2.7617004 0.0 
0.0 2.1072085 0.0 0.34023467 0.0 0.0 0.0 0.0 0.0 3.098697 0.31204256 0.0 0.0 0.0 4.724667 0.60505205 
0.0 0.0 0.0 0.0 0.0 0.0 0.32199317 0.0 0.61447304 0.0 0.0 0.7192122 1.071602 0.24933794 2.269703 0.0 
0.28480926 0.0 1.1990597 1.1350032 0.0 0.0 0.0 0.0 1.5416257 0.0 0.83675367 2.307933 1.2959282 0.37278286 0.0 0.0 
0.39489132 0.24357729 0.0 0.4970304 0.0 0.0 0.5127621 0.13387285 0.027984358 0.75130814 0.17492583 0.0 0.0 0.0 0.0 0.0 
0.0 0.22273013 0.0 0.0 0.41821516 1.5408363 0.25943127 0.0 0.4306755 1.6211225 1.3607626 0.32022184 0.0 0.0 0.0 0.0 
0.0 0.0 1.2040818 1.5130643 0.0 3.511866 1.2930181 0.6521544 0.0 0.0 1.7559128 0.0 0.0 2.4415202 0.0 0.0 
0.0 0.0 0.0 0.7318908 0.0 0.0 2.2453291 0.0 2.383015 0.0 0.0 0.6184764 0.76713663 0.39859354 0.0 0.0 
0.0 0.0 0.0 1.3013916 0.54644936 0.9600796 0.0 0.0 0.19253102 0.0 0.56045705 2.1293721 0.70766705 0.59001994 0.0 0.0 
1.2675496 2.000417 0.03188021 0.17231402 0.058269218 0.0 0.0 0.0 0.1947791 0.0 0.0 0.0 0.0 0.0 0.0 0.773083 
3.764013 3.3593915 0.0 0.0 0.0 0.0 0.0 0.0 0.16015482 1.6058247 0.0 1.0347801 0.0 0.0 0.0 0.9810109 
2.7716057 4.303735 0.6113884 0.9049199 0.0 0.09632343 0.0 0.0 0.0 2.7787232 0.0 0.0 0.0 0.0 1.007452 0.0 
0.0 0.0 0.0 0.27538756 0.0 0.0 0.0 0.0 0.0 0.5150227 0.0 0.0 0.09481856 0.0 2.5476744 0.0 
0.060394216 0.0 0.4569134 0.0 0.0 0.0 0.0 0.0 1.0515583 0.0 0.0 2.5121908 1.2141961 0.0 0.0 0.0 
1.6560137 0.0 0.15186211 0.0 0.0 0.8636355 0.0 0.013009191 0.0 0.98585784 1.7251238 0.0 1.2154202 2.0377395 0.8103688 1.5105103 
2.552423 0.0 0.0 0.0 0.0 0.0 0.0 0.4395066 0.0 1.2999637 2.3966115 0.0 3.2016022 2.1300342 0.42341924 0.3440293 
1.3852406 0.0 0.0 0.9158183 0.0 0.0 0.0 0.10749872 0.0 0.708582 3.1844976 0.0 2.8644822 0.9439126 0.0 0.0 
0.0 0.69942886 1.098739 4.5208244 0.0 0.0 0.0 0.0 2.149465 0.0 2.6090715 0.0 2.5198824 0.8036444 0.76718414 0.0 
0.0 0.0 0.0 1.7202777 0.043680713 0.0 0.0 0.0 3.529969 0.0 1.5177528 0.7490524 0.56045514 0.11055245 0.0 2.764086 

