0.5191285 0.5275871 0.5801951 0.0 0.44156522 0.03023298 0.16259052 0.0 0.0 0.1820099 0.0 0.0 0.0 0.0 0.0 0.77601385 
0.6916491 0.9797905 1.3802869 0.0 0.6905124 0.0 0.0 0.0 0.0 1.1759086 0.0 0.0 0.39347422 0.0 1.0642065 2.6298678 
3.140856 0.0 1.0930842 0.0 0.0 0.0 1.0516087 1.133685 0.0 0.46208873 0.0 0.0 1.7529025 2.3536289 1.5473535 1.5654235 
2.956259 0.0 0.0 0.0 0.0 0.0 0.0 0.7904272 0.0 0.0 0.0 0.46114233 0.7593833 4.5371413 0.15311117 0.0 
2.1165123 0.0 0.0 0.0 0.0 0.0 0.0 0.0 0.0 0.15946305 0.0 4.622543 2.2242827 0.0 0.0 0.0 
0.5397186 0.67198354 1.6081226 0.0 0.7627857 0.0 0.0 0.0 0.059782792 1.0346856 0.0 0.0 0.0 0.0 0.56683385 3.1329875 
0.0 0.0 0.93035454 0.0 0.1587367 0.0 2.6192338 3.6578436 0.0 1.1378452 0.0 0.30753228 1.2600187 0.0 0.43448788 3.1310062 
0.0 0.0 0.0 0.47133982 0.0 0.0 0.28057268 3.195256 3.8665159 0.0 0.52172184 0.0 1.8095337 0.0 1.1430279 0.0 
0.0 0.0 0.55808115 0.07331471 0.0 2.2689085 0.0 0.0 1.2690749 0.0 1.3107195 0.0 0.26959282 3.025237 4.641059 0.0 
0.0 0.0 0.0 1.3258103 0.0 0.0 0.0 0.0 0.0 0.0 0.0 2.5105371 0.77941406 0.83885574 3.7155752 0.12783359 
0.0 0.0 1.5853596 0.0 0.63453925 0.0 1.6862538 1.7667406 0.0 0.6048147 0.0 0.0 0.41299725 0.0 0.59608525 2.2299092 
0.0 0.0 0.0 1.302477 0.0 0.0 4.1085534 3.0064058 4.140094 0.0 0.0 1.1867688 0.82424164 0.0 0.0 0.0 
0.0 0.0 0.0 1.4335684 0.5257197 0.8206541 0.0 0.0 4.522112 0.0 0.5987049 0.0 0.0 0.2975175 0.0 1.5942525 
0.0 1.3898039 2.9305446 0.0 1.3659456 1.7555671 0.0 0.0 0.0 1.4625932 0.0 0.0 0.0 0.0 1.6501471 2.5527976 
0.0 0.0 1.8213849 0.0 0.0 0.0 3.5897007 0.28907448 0.0 0.15293406 0.0 0.0 0.20984887 0.0 3.2159903 0.0 
0.0 0.0 1.5971491 0.31302598 0.0 4.002143 2.6534803 2.753228 0.0 0.0 0.0 0.0 0.0 1.9118658 0.0 0.0 
1.2895559 0.0 0.0 0.0 0.0 0.0 3.0884829 0.60421336 3.2615952 0.0 0.0 2.3060744 0.0 0.0 0.0 0.0 
1.6199551 0.5547653 0.0 0.0 1.7423729 1.7808535 0.0 0.0 0.0 1.4497653 0.0 0.31679058 0.0 0.0 0.0 1.9102999 
0.07216804 0.4059233 0.0 0.0 1.2077128 0.0 0.3617586 3.1498199 0.0 1.0232383 0.0 0.0 0.25349247 0.0 0.0 2.7212875 
0.0 0.0 0.0 0.11808449 0.0 0.0 2.392379 2.5982268 4.231276 0.0 0.107499704 0.0 0.66145754 0.0 0.0 0.0 
0.0 0.79604554 1.3297611 0.0 0.0 3.827386 1.8538991 0.35675418 0.0 0.0 1.4586163 0.0 0.4435569 3.6090434 2.8717768 0.0 
0.6531161 0.0 0.0 0.0 0.0 0.0 0.008782744 0.0 0.0 0.0 4.817665 0.0 1.2732584 3.5392225 3.7233334 0.0 
0.0 0.0 0.0 0.0 0.0 0.0 0.0 0.0 0.0 0.0 4.5174193 0.0 2.473133 2.1283662 0.0 0.0 
0.06644252 0.0 0.0 2.1449974 0.0 0.0 0.0 2.1099086 3.2524707 0.0 2.4695146 0.0 1.8326144 0.7517928 0.0 0.0 
0.0 0.0 0.0 1.5741453 0.08584442 0.3622373 0.0 0.0 4.095646 0.0 0.9902276 0.0 0.0 0.15068352 0.0 1.9443573 

