0.0 0.33321312 0.05699749 0.19641213 0.09324185 0.0 0.03716117 0.0 0.03845002 0.0 0.0 0.0 0.0 0.0 0.0 0.0 
0.91388994 1.6182269 0.18849194 0.09764169 0.21725327 0.18188438 0.03507761 0.0 0.0 0.012620401 0.0 0.039119266 0.0 0.0 0.0 0.7990362 
2.5038924 2.2723622 0.48849714 0.0 0.08895526 0.0 0.0 0.0 0.08526179 1.2961417 0.0 0.0 0.0 0.0 0.0 2.2064784 
3.0316224 2.8196898 0.0 0.0 0.0 0.0 0.0 0.4122241 0.0 0.8044295 0.0 0.0 0.0 2.0431037 0.0 1.0063599 
2.5679746 0.6046691 0.3588814 0.0 0.0 0.0 0.0 0.30359918 0.0 0.8480977 0.0 1.4498603 1.2322161 0.34571448 0.0 0.0 
1.6933244 1.5706451 0.68977255 0.0 0.0 0.0 0.0 0.0 0.0040928647 1.1791302 0.0 0.0 0.0 0.0 0.0 2.2179163 
1.8350136 2.2089605 0.0 0.0 0.46908432 0.0 0.0 0.0 0.0 1.5520318 0.0 0.0 1.0642155 0.0 0.0 2.176133 
1.1216526 0.0 0.0 0.0 0.0 0.0 0.0 0.918556 0.0 1.5062579 0.0 0.0 2.1144118 0.661543 0.13814612 0.8871988 
0.0 0.4132246 0.0 0.7172526 0.0 0.0 0.0 0.0 1.8940605 0.0 0.72432935 0.0 2.0305 2.3715177 2.577888 0.0 
0.7694099 0.19329591 0.8697929 2.2027454 0.0 0.0 0.9869415 0.0 0.0 0.0 0.34142503 0.0 1.7645713 1.8484606 3.2429607 0.0 
1.156561 1.40038 0.58836526 0.0 0.0 0.0 0.0 1.5925059 0.0 0.94404894 0.0 0.0 1.3945764 0.0 0.39141715 2.8280447 
2.118766 1.0699031 0.0 0.0 0.0 0.0 0.0 2.2443774 0.0 0.0 0.0 0.0 1.4838444 0.0 0.0 0.0 
1.5055518 2.3589668 0.0 2.5587761 0.0 0.0 0.0 0.50218695 1.0086226 2.7167304 0.0 0.0 0.239484 0.0 0.0 0.18774316 
0.26281804 2.8844278 0.0 2.3598511 0.19405133 0.0 0.0 0.0 0.69206506 3.1077793 0.0 0.0 0.0 0.0 0.0 2.0545251 
0.24652527 0.0 0.0 0.090345174 0.0 0.0 0.9044697 0.078875855 0.0 1.3915621 0.0 0.0 0.839229 0.0 1.968298 0.0 
0.94847625 0.39836636 0.0 0.1502598 0.0 0.0 0.5414286 2.5238233 0.0 0.0 4.137354 0.0 0.7214872 2.9103112 0.73584396 0.0 
1.652846 0.0 0.0 0.0 0.0 0.0 0.0 0.1176112 0.0 1.4394811 3.9056175 0.0 1.651035 3.3660955 0.0 0.0 
0.7939409 0.0 0.0 0.0 0.0 0.0 0.0 0.0 0.0 1.3804991 3.6134334 0.0 3.1374233 2.1154332 0.045481145 0.0 
0.0 0.051343527 0.0 2.5110881 0.0 0.0 0.0 0.21604715 0.0 0.0 4.0139804 0.0 2.2975893 1.230061 0.0 0.0 
0.0 0.30223176 0.0 3.830717 0.0 0.0 0.0 0.67477906 2.9623258 0.0 2.3268812 0.0 1.9911668 0.99489427 0.08949827 1.1693617 
0.0 2.2178767 0.0 2.8630157 0.0 0.0 0.36878642 0.0 0.0 2.4525084 1.1328192 0.0 0.0 0.0 2.1323636 0.0 
0.0 2.5585465 0.0 3.4857488 0.0 0.0 0.0 0.0 0.0 3.5104876 2.0249455 0.0 0.0066949055 0.0 2.7241037 0.0 
0.0 3.2477443 0.0 5.4486303 0.0 0.0 0.0 0.0 0.0 3.9929981 2.4586852 0.0 0.08649632 0.0 1.5083139 0.0 
0.0 3.1624107 0.0 6.5840936 0.6340116 0.1187606 0.0 0.0 0.0 3.61625 2.22016 0.0 0.0 0.0 0.0 1.2232772 
0.0 0.60870236 0.0 4.3582315 0.58718276 0.31461662 0.0 0.0 0.0 0.94416463 0.56400913 0.0 0.0 0.0 0.16883822 2.394943 

