0.24048026 0.812174 0.40589324 0.075335905 0.17322579 0.0 0.046445988 0.0 0.0 0.0 0.0 0.006492555 0.0 0.0 0.0 0.24328499 
1.6666214 1.7568022 0.22843239 0.0 0.29989627 0.041770056 0.0 0.0 0.0 1.2027142 0.0 0.0 0.0 0.0 0.12844862 2.386342 
2.350057 1.8564495 0.40854308 0.0 0.17774945 0.0 0.0 0.0 0.0 1.2361038 0.0 0.0 0.0 0.6687617 0.23885126 1.6097807 
2.3970115 0.0 0.0 0.0 0.0 0.0 0.0 0.6457439 0.0 1.377733 0.0 0.0 2.9009938 0.0 0.0 1.1468402 
2.4088013 0.0 0.0 0.0 0.0 0.0 0.0 0.46082342 0.6301335 0.0 0.0 0.0 3.216021 1.2104245 0.0 0.0 
1.0265925 1.2173134 1.3085748 0.0 0.10712331 0.040842026 0.0 0.0 0.0 1.3256202 0.0 0.0 0.0 0.0 0.73259455 3.2354121 
1.2498355 1.0864328 0.12113595 0.0 0.0 0.0 0.12953077 2.0131183 0.0 1.4120868 0.0 0.0 1.8751541 0.0 0.28641874 2.9353979 
0.0 0.0 0.0 0.0 0.0 0.0 0.0 2.2240248 1.0270395 0.0 1.8382815 0.0 1.8763409 0.45727816 0.0 0.0 
0.0 0.0 0.0 2.6670992 0.0 0.968705 0.0 0.56619763 0.0 0.0 0.8575538 0.0 1.4317662 0.91478026 0.0066650063 0.0 
0.0 0.0 0.0 1.5041238 0.0 0.0 1.1573818 0.0 1.3922119 0.13089776 0.0 2.76212 0.7508732 0.0 0.0 0.0 
0.0 0.053260036 1.4951462 0.0 0.0 0.0 2.319228 1.9691839 0.0 1.1681874 0.0 0.76806045 1.5469 0.0 0.8209323 2.985124 
0.0 0.0 0.0 3.0139983 0.0 0.0 0.887908 3.178252 4.2006454 0.0 0.0 0.028897755 1.2844799 0.0 0.0 0.0 
0.0 1.3003315 0.0 2.7882862 1.3811063 0.0 0.0 0.25164658 2.6732266 0.0 1.7126011 0.0 0.0 0.0 0.0 1.5252686 
0.0 2.1846082 2.8905337 1.5594733 1.1394064 3.5357013 0.92846286 0.0 0.0 0.40891588 0.0 0.0 0.0 0.22928843 1.7523743 0.0 
0.0 0.0 0.0 0.3879975 0.0 0.0 2.7010386 0.0 0.114403814 0.0 0.0 1.1685683 0.0 0.0 1.1048859 0.21018098 
1.6402997 0.31083196 0.0 0.0 0.0 0.0 2.1270173 3.044641 0.0 0.26412308 0.37859905 0.30673292 0.0 1.2152296 0.0 0.0 
2.5725663 0.13709335 0.0 0.0 0.0 0.0 0.0 0.07072055 1.6204479 0.0 0.0 0.5327027 0.0 1.0118257 0.0 0.0 
2.5617757 1.163908 0.0 0.0 1.0539297 0.0 0.0 0.0 0.0 1.136369 0.0 0.0 0.56196785 1.2114702 0.0 0.8205662 
1.2406899 0.14922494 1.3423638 0.0 0.0 0.0 0.0 0.2820943 0.0 2.101018 0.0 0.0 2.0425963 0.9532716 0.2828741 0.0 
0.5327541 0.0 0.0 0.0 0.0 0.0 1.8791956 0.31504732 3.3549204 0.0 0.7638927 0.0 2.13394 1.1825988 0.56117123 0.0 
0.0 1.2146819 0.0 1.4887273 0.0 0.0 2.7656167 1.2653562 0.0 0.0 3.6080432 0.0 0.54967797 3.713071 2.8704758 0.0 
0.0 2.3398724 0.0 3.4054756 0.0 0.0 0.0 0.0 0.0 0.0 3.2848384 0.0 3.3465424 3.9879155 2.436805 0.0 
0.0 3.1265354 0.0 5.315422 0.0 0.0 0.0 0.0 0.0 0.0 3.71755 0.0 3.9000914 3.3491633 1.1450605 0.0 
0.0 3.3828669 0.0 6.6733956 0.0 0.0 0.0 0.19557454 0.0 0.43861997 3.9326136 0.0 2.3544054 1.2545962 0.0 0.0 
0.0 0.8054223 0.0 4.6412144 0.48512703 0.11862573 0.0 0.0 2.5430558 0.42186692 2.3324285 0.0 0.80118436 0.8542255 0.46293074 2.5304885 

