1.8130912 1.7263281 0.0 0.0 0.0 1.0984375 0.0 0.0 0.0 0.2635088 0.0 0.0 0.0 1.3272172 0.0 0.69624925 
2.8445902 3.237559 0.0 0.0 0.23677075 0.0 0.0 0.0 0.0 0.5789767 0.0 0.41087914 0.0 1.1890225 0.0 0.3752207 
3.484613 2.7749465 1.5533724 0.0 0.67051876 0.0 0.0 0.0 0.0 0.39857483 0.0 0.28234664 0.0 0.99649 0.0 0.0 
2.851299 1.7775358 1.1082737 0.466434 1.404552 0.0 0.0 0.0 0.0 0.77072716 0.0 2.0326006 0.97475535 0.0 0.0 0.0 
1.3715608 0.1230544 0.54609084 0.82274896 1.6026391 0.7755548 0.0 0.02423241 0.0 0.2926329 0.38351756 1.1696501 0.7473043 0.65944046 0.0 0.0 
0.0 0.58268934 0.0 0.0 0.0 0.7777976 0.0 0.0 0.0 0.111349195 0.879541 0.093793675 0.60827255 2.1679535 0.8299431 0.087654136 
0.16864914 1.34353 0.0 0.0 0.0 0.030505523 0.0 0.0 0.0 0.0 1.5824245 0.0 1.2826238 3.0087063 2.1859243 0.0 
1.7428744 0.0 0.0 0.0 0.0 0.0 0.0 0.0 0.0 0.0 0.7257351 0.0 0.98566324 1.5119057 2.1130414 0.0 
2.1779041 0.0 0.0 0.0 0.0 0.0 0.0 0.0 0.0 0.0 0.0 1.5184938 0.9595534 0.008452803 0.7602836 0.0 
0.95341295 0.0 0.41815084 0.0 0.0 0.6255813 0.0 0.0 0.0642519 0.0 0.0 2.7870166 1.0363699 0.053536855 0.0 0.0 
1.251897 2.3979943 0.0 0.7956805 0.0 0.0 0.0 0.10741949 0.0 1.2356521 0.31176412 0.86739516 0.0 0.0 0.0 0.0 
0.0 1.9864578 0.0 1.2032244 0.0 0.797621 0.0 0.0 0.0 2.676287 2.3939455 0.9883863 0.0 0.0 0.0 0.0 
0.0 4.0448337 0.0 3.6661377 0.0 0.84309596 0.0 0.0 0.0 1.5872492 3.085038 0.0 0.7466351 1.1769227 0.32202387 0.0 
0.0 3.077676 0.0 2.3681972 0.0 0.0 0.0 0.0 0.0 0.0 1.0483748 0.0 0.33652472 2.8818414 2.4110112 0.6242244 
0.0 0.0 0.0 0.0 0.0 0.0 0.0 0.0 0.0 0.0 0.38767987 3.3222501 1.5839953 1.0150163 0.0 0.0 
2.2603784 0.0 0.0 0.0 0.0 0.0 0.0 0.0 0.0 0.0 1.9986882 0.0 0.51709926 4.5192895 0.31364477 0.0 
3.2594507 1.6645024 0.0 0.0 0.0 0.0 0.0 0.0 0.0 1.7896903 0.6941384 0.6510476 0.0 3.265518 0.0 0.0 
3.220963 2.6923132 0.0 0.84705895 0.0 0.0 0.0 0.0 0.0 3.880233 0.0 0.0 0.0 0.26689157 0.0 0.0 
0.0 1.1295016 0.038410585 0.0 0.0 0.0 0.0 0.0 0.0 3.6581807 0.0 0.0 1.6502771 0.0 4.357928 0.0 
0.0 0.0 0.0 0.0 0.0 0.0 0.0 0.0 2.5522964 0.0 0.71913534 0.0 1.6856184 0.0 3.2743793 0.0 
0.0 0.9843225 0.0 0.8333256 0.0 0.0 0.0 0.0 0.0 0.47587985 2.8974018 0.0 0.79027295 2.0779097 3.6237912 0.0 
0.0 1.7147613 0.0 3.234013 0.0 0.0 0.0 0.0 0.0 0.0 3.9339235 0.0 2.2376993 3.7700338 3.7555828 0.0 
0.0 3.1891606 0.0 5.4021564 0.0 0.0 0.0 0.0 0.0 0.0 3.6962383 0.0 3.0286505 3.3010871 1.5447215 0.0 
0.0 3.1755543 0.0 6.122137 0.0 0.0 0.0 0.037413217 0.0 0.7248364 3.1064255 0.0 1.7361337 0.84297484 0.0 0.0 
0.0 0.38439462 0.0 3.5629237 0.47056442 0.23370293 0.04596159 0.0 2.0273447 0.57261497 1.5995027 0.0 0.29772508 0.27312148 0.30723852 1.9244518 

