0.8207657 0.51414883 0.6695153 0.0 0.43255353 0.15681797 0.13023989 0.0 0.016421136 0.0235533 0.0 0.0 0.0 0.06832086 0.0 0.66460645 
2.0339549 1.995632 1.1063075 0.0 0.0 0.0 0.0 0.0 0.0 1.1181265 0.0 0.0 0.0 0.0 0.0 2.0720932 
2.5307324 1.7412815 0.0 0.0 0.1473085 0.0 0.0 0.0 0.0 0.99972165 0.0 0.0 1.2125171 0.06904546 0.0 1.8046709 
3.1766367 0.0 1.2028435 0.0 0.0 0.039910913 0.0 0.23249249 0.0 0.11694521 0.0 0.0 1.117064 3.020532 0.0 0.0 
2.0582876 0.0 0.45562732 0.0 0.0 0.0 0.0 0.0 0.0 0.0 0.0 3.6739178 1.6897782 0.21418491 0.0 0.0 
0.36184883 0.39562193 1.0981809 0.0 0.35953486 0.016960628 0.0 0.0 0.048136223 0.7761456 0.0 0.0 0.47938085 0.0 0.6764215 2.2318797 
0.8935421 0.0 0.08789712 0.0 0.0 0.0 0.010849811 2.566142 0.0 0.52789307 0.50989425 0.0 1.6499746 0.1929313 0.5747732 1.4223968 
0.0 0.0 0.0 0.0 0.0 0.0 0.0 2.3691826 0.7797465 0.0 1.389559 0.0 2.4186234 0.0 0.0 0.0 
0.0 0.0 2.6145413 0.0 0.0 1.5518541 0.0 0.0 1.9425079 0.0 0.0 0.0 1.350033 1.6243508 3.0322423 0.0 
0.0 0.0 0.14439273 0.8833491 0.0 0.0 1.6087486 0.0 0.0 0.0 0.0 1.2493497 0.47909683 0.44310138 2.9012296 0.0 
0.0 0.0 1.1836319 0.0 0.0 0.0 3.1749315 2.3049622 0.0 0.3025418 0.0 0.68828666 1.1746777 0.0 0.0 2.4053476 
0.0 0.0 0.0 3.0656564 0.0 0.0 1.0114517 2.9836924 2.3146372 0.0 1.1055454 0.98688877 1.2226775 0.0 0.0 0.0 
0.0 0.4417511 0.0 3.2128727 1.0073292 0.030796513 0.0 0.0 1.3447912 0.0 2.543575 0.0 0.0 0.89586365 0.0 2.0908122 
0.0 0.8769083 2.8122091 0.0 1.7990842 1.8858645 0.0 0.0 1.1512233 0.0 0.42480615 0.0 0.0 0.0 0.24998514 3.67219 
0.0 0.0 1.5934823 0.2725733 0.0 0.0 4.783357 0.5425808 1.6729764 0.0 0.0 0.0 0.0 0.0 1.5530808 0.0 
0.08748531 0.109934695 1.6966125 1.169632 0.0 0.0 4.431685 1.7671587 0.0 0.0 0.0 1.0185162 0.0 0.0 0.0 0.0 
1.0483924 0.29143244 0.0 2.3234396 0.0 1.2201545 0.0 0.0 3.2431965 0.0 0.0 1.4239373 0.0 0.0 0.0 0.0 
1.0051168 1.2916125 0.0 1.4469829 1.854694 0.45427507 0.0 0.0 0.0 2.0553794 0.0 0.0 0.0 0.0 0.0 2.8471713 
0.012934957 0.88011104 0.11666478 0.0 1.6753886 0.0 0.75509375 2.3693337 0.0 1.1649112 0.0 0.0 0.045663707 0.0 0.0 3.2812378 
0.0 0.0 0.0 0.0 0.0 0.0 3.6704516 2.1707692 4.212775 0.0 0.012157248 0.0 0.32475996 0.0 0.0 0.0 
1.5289271 0.0 1.5966437 0.0 0.0 0.54928756 1.942317 1.7848195 0.0 0.0 4.0293665 0.0 0.67677754 4.0101466 1.9099367 0.0 
2.7705283 0.0 0.0 0.0 0.0 0.0 0.0 0.0 0.0 0.2438736 3.3862157 0.0 3.1792479 4.3987837 0.0 0.0 
2.0992439 0.0 0.0 0.0 0.0 0.0 0.0 0.4666273 0.0 1.0487001 2.3668191 0.0 3.6924639 1.9081516 0.0 0.0 
0.0 0.0 0.0 2.3098829 0.0 0.0 0.00454724 1.7437028 2.649875 0.0 2.2489107 0.0 1.4691353 0.7706793 0.0 0.0 
0.0 0.0 0.0 1.8504059 0.0 0.25676265 0.0 0.0 3.8875592 0.0 1.1245216 0.0 0.5820303 0.030360773 0.0 1.962201 

