0.25313488 0.0013327023 0.0 0.0 0.9866507 0.16057271 0.244321 0.0 0.0 0.0 0.0 0.0 0.0 0.0 0.0 0.0 
1.2566609 0.0 2.6817417 0.0 0.35403842 0.6657615 0.0 0.0 0.0 0.49889338 0.0 0.0 0.0 0.30401188 1.7129741 1.5327814 
2.8627439 0.0 1.0563021 0.0 0.0 0.0 0.48173162 0.0 0.0 0.58190405 0.0 0.0 1.7640219 0.0 1.3385961 0.9261724 
4.0146422 0.0 0.0 0.0 0.0 0.0 0.0 0.0 0.0 0.29303068 1.0268276 0.0 3.3255758 2.7853453 0.0 0.0 
3.6706424 0.0 0.0 0.0 0.0 0.0 0.0 0.0 0.0 0.0 2.4116964 0.0 2.2837694 5.294847 0.0 0.0 
0.1446051 0.28341827 0.0 0.0 1.4111919 1.1511409 0.0 0.0 0.50780964 0.36342627 0.30762732 0.0 0.0 0.0 0.0 0.8765899 
0.0 0.0 1.4470512 0.0 0.29121265 0.36831072 1.2831626 1.5810674 0.0 0.40457964 1.5398734 0.0 0.22665317 0.0 1.2361656 1.5507176 
0.14433058 0.0 0.0 0.0 0.0 0.0 0.8896088 1.6709151 0.0 0.0 0.0 0.0 1.2955638 0.0 0.89105445 0.0 
0.0 0.0 0.0 0.0 0.0 0.0 0.0 0.054392055 0.0 1.0192505 0.0 2.0249279 2.2994235 0.0 0.0 0.0 
0.0 0.0 0.0 5.3245897 0.0 1.0568254 0.0 0.0 0.0 1.8728441 3.169023 0.3516501 0.8423312 1.682012 1.7436892 0.0 
0.5573714 1.3207619 0.26453456 0.0 0.7871451 0.0 0.0 0.0 0.0 0.31384173 0.0 1.6823566 0.0 0.0 0.0 1.5976347 
0.0 0.0 0.0 2.8675175 0.30553794 1.2539079 1.2280504 2.4411654 0.27343145 0.0 3.1660237 2.0031881 0.26505834 0.051322795 0.0 0.0 
0.0 0.110663995 1.1409435 1.7506638 0.0 2.8256319 0.0 0.0 2.1132348 0.0 2.4564357 0.0 0.0 1.7935522 2.2397027 0.0 
0.0 0.0 0.5819563 0.925224 0.0 0.0 1.6817323 0.0 0.0 0.0 0.0 0.40082014 0.0 0.45869592 3.113479 0.0 
0.0 0.0 0.8666086 0.0 0.0 0.5255217 0.0 0.0 0.0 0.0 0.0 3.4427893 0.46293384 0.0 0.0 0.0 
1.131284 0.0 1.318975 0.0 0.0 0.0 1.233634 0.8586254 0.0 0.0 0.0 0.0 0.0 1.926849 0.30282676 0.0 
2.4694748 0.0 0.0 1.0000565 0.0 0.0 0.0 0.0 0.9054738 1.1041014 0.0 2.8613908 0.0 0.0 0.0 0.0 
1.8388762 0.927596 1.5407034 0.0 1.6112971 2.8228052 0.0 0.0 0.0 1.3935676 0.0 0.0 0.0 0.0 0.0 0.8518031 
0.0 0.0 1.098485 0.0 0.0 0.0 2.5925422 1.2490314 0.5885337 0.0 0.0 0.0 0.30640984 0.0 1.720929 0.0 
0.0 0.0 0.0 0.0 0.0 0.0 0.0 0.0 3.5934477 0.0 0.0 1.5377618 0.8135695 0.0 0.0 0.0 
0.0 0.0 1.3525428 0.0 0.0 2.3252265 0.63223493 0.0 0.0 0.0 2.619769 0.0 0.521409 3.4724874 3.8010392 0.0 
0.38984922 0.0 0.0 0.0 0.0 0.0 0.0 0.0 0.0 0.0 4.498927 0.0 1.9939547 2.6927102 3.0511465 0.0 
0.0743781 0.0 0.65523887 0.0 0.0 0.0 0.0 0.37830853 0.0 0.0 4.0828094 0.0 2.5290306 1.0848873 0.0 0.0 
0.0 0.0 0.64768386 1.723876 0.0 0.0 0.87943226 1.7552825 3.702495 0.0 1.5176399 0.0 1.7552888 0.60175806 0.0 0.0 
0.0 0.0058364905 0.0 0.69867337 0.13621306 0.0 0.0 0.0 3.5230188 0.0 1.0258608 0.5151818 0.32703328 0.13612175 0.0 2.4013498 

