0.0 0.0 0.0 0.0 0.0 0.017353691 0.15533958 0.0 0.0 0.0 0.0 0.0 0.0 0.0 0.0 0.0 
0.20766796 0.0 0.6613461 0.0 1.0709084 0.67391104 0.17753895 0.0 0.0 0.0015057437 0.0 0.0 0.0 0.17998838 0.46250254 0.62987757 
0.9326081 0.0 4.049903 0.0 0.0 0.35162947 2.780991 0.0 0.0 0.4542219 0.0 0.0 0.90704316 0.115750484 1.9734449 1.9105661 
1.2974207 0.0 0.0 0.0 0.0 0.0 3.345316 0.07038234 2.896427 0.0 0.0 2.4625 0.9508036 0.0 0.0 0.0 
0.66752416 0.0 0.9958333 0.0 0.0 0.19463432 0.0 0.0 0.7728283 0.0 0.0 1.5834684 0.5262683 0.20700952 0.0 0.0 
0.0 0.0 0.0 0.0056313183 0.32718617 0.12586962 0.25745454 0.0 0.0 0.0 0.05068177 0.0 0.0 0.0 0.0 0.0 
0.0 0.0 1.070123 0.0 1.5843325 0.5732172 0.0 0.0 0.0 0.38088265 0.0 0.11765015 0.0 0.0 0.061270624 1.142411 
0.0 0.0 4.344207 0.0 0.0 0.1606009 5.1955495 1.8130187 0.0 0.30030257 0.0 0.0 1.072282 0.0 1.0782684 0.0 
0.0 0.0 0.0 0.0 0.0 0.0 2.9152603 0.0 3.6100729 0.0 0.0 0.03736283 0.89078516 0.0 0.0 0.0 
0.0 0.0 0.0 0.23135045 0.0 0.27947307 0.0 0.0 0.08251749 0.0 0.107314646 1.0223416 0.23283787 0.0 0.0 0.0 
0.0 0.0 0.0 0.0 1.0924112 0.106714755 0.22107835 0.0 0.0 0.0 0.046261214 0.054760158 0.0 0.0 0.0 0.0 
0.0 0.0 3.1347466 0.0 1.5654101 0.41350907 0.0 0.0 0.0 0.50890064 0.0 0.0 0.0 0.0 0.0 0.94031614 
0.0 0.0 3.303778 0.0 0.0 0.0 5.219359 1.4909158 1.0169448 0.26543757 0.0 0.0 0.12815453 0.0 0.0 0.0 
0.0 0.0 0.0 0.0 0.0 0.5873929 0.0 0.0 3.9943182 0.0 0.20285484 0.02625224 0.11978635 0.2681129 0.0 0.0 
0.0 0.0 0.0 0.3590557 0.0 0.20882437 0.0 0.0 0.0 0.0 0.051294617 0.1384513 0.09610991 0.0 0.0 0.17103481 
0.027934369 0.0 0.0 0.0 1.3016645 0.93218297 0.17828019 0.0 0.013662498 0.0 0.23770544 0.12798625 0.0 0.0 0.0 0.0 
0.0 0.0 3.6286788 0.0 1.0303854 0.5731996 0.0 1.4191787 0.0 0.52949095 0.0 0.0 0.0 0.0 0.0 0.7834183 
0.38221347 0.0 1.0196142 0.0 0.0 0.0 4.466514 2.2284822 1.9339039 0.06583142 0.0 0.1278127 0.022983134 0.0 0.0 0.0 
0.0 0.0 0.0 0.0 0.0 0.7415949 0.0 0.0 3.4934225 0.0 0.0 0.6789681 0.12216361 0.1062225 0.0 0.0 
0.0 0.00017654407 0.0 0.22334704 0.0 0.111105636 0.0 0.0 0.0 0.0 0.0 0.0 0.0 0.0 0.0 0.0 
0.0 0.0 0.0 0.0 0.66229945 1.4609959 0.0 0.0 0.26062596 0.0 1.8590685 0.098409325 0.0 0.0 0.0 0.0 
0.0 0.0 1.9354918 0.0 0.0 1.9903789 1.4822062 2.1188376 0.0 0.2540108 2.7249792 0.0 0.2896551 1.6451997 0.0 0.0 
0.0 0.0 0.0 0.72161305 0.0 0.0 3.552456 1.7271107 2.5260336 0.0 2.4875598 0.0 0.4439264 1.880519 0.15990098 0.0 
0.0 0.0 0.0 0.0 0.0 0.0 0.0 0.0 1.9469203 0.0 1.2649605 0.9497825 0.8448845 0.66264886 0.0 0.5435393 
0.0 0.0 0.016242627 0.2335377 0.0 0.0 0.0 0.0 0.0 0.0 0.015847528 0.26324782 0.27442855 0.0 0.0 0.04202908 

