0.81866604 0.48419195 0.98360515 0.0 0.5288138 0.24806276 0.15616177 0.0 0.0 0.477009 0.0 0.0 0.0 0.04524374 0.46471405 1.4150661 
2.9226072 2.900273 1.4009379 0.0 0.0 0.0 0.6897204 0.0 0.0 0.862898 0.0 0.0 0.0 0.96768355 0.8571513 2.3485413 
3.6253524 2.8796427 0.0 0.0 0.35243207 0.0 0.019858846 0.0 0.0 0.0 0.0 1.0437701 0.0 1.6525673 0.0 0.065801896 
3.7277806 1.7247155 1.7520405 0.0 0.27694687 0.0 0.0 0.0 0.0 0.56148595 0.0 0.27378118 0.2506131 0.5372628 0.0 0.0 
3.281142 1.576358 0.0 0.37106606 1.5844188 0.0 0.0 0.0 0.0 0.78431183 0.0 1.1994625 0.8848058 0.0 0.0 0.0 
0.67504567 0.6646091 0.9952761 0.0 0.5754746 0.61595106 0.0 0.01780513 0.0 1.0542263 0.15361473 0.0 0.4231019 0.042271443 0.98493713 2.5782914 
0.0 0.0 0.0 0.0 0.0 0.0 1.3786715 1.0824867 0.0 0.58595914 0.0 0.0 1.7353554 0.9002848 1.6020085 0.50577116 
0.0 0.45973063 0.0 0.0 0.0 0.0 0.0 0.0 2.244363 0.0 0.42521054 0.0 1.6004839 4.008971 3.706236 0.0 
0.8095043 1.4803157 1.4129341 0.18234006 0.0 0.0 0.0 0.0 0.0 0.0 0.568527 0.0 2.440845 2.9501426 3.5600152 0.5821443 
1.4811304 0.0 0.0 0.0 0.0 0.0 0.20331153 0.0 1.7342672 0.0 0.10059184 0.8991952 2.0908332 1.3308126 0.52428097 0.0 
0.0 1.3356112 0.0 2.5645938 0.0 1.1858127 0.5770254 0.884591 0.0 0.0 1.750538 0.1258556 0.39854598 0.42304015 0.0 0.0 
0.0 1.7397199 0.0 3.526699 0.079019465 0.0 2.1797802 1.3766197 2.904321 0.9095719 1.6365937 0.0 0.0 0.019961402 0.0 2.9908724 
0.0 0.27930114 0.0 0.0 0.7671425 0.0 0.33980072 0.0 2.9862792 2.8896337 0.0 0.0 0.0 0.0 0.56402665 5.82006 
0.0 0.0 0.0 0.56986475 0.0 0.0 2.6260512 1.7932303 1.6970955 2.5551674 0.0 0.0 0.0 0.0 0.9572297 0.0 
0.0 0.0 0.0 0.54870796 0.0 0.04619281 0.0 0.0 4.284015 0.0 0.3805817 0.0 0.01637499 0.0 0.1770194 1.6206782 
0.71032757 1.7488399 1.2520297 2.093496 0.46821076 0.25111726 0.08218291 0.0 0.31792104 1.830325 0.20543763 0.20257834 0.0 0.0 0.0 1.5052274 
0.0 1.4661278 1.3747535 0.52951413 1.2297478 0.0 0.0 0.0 1.1435695 2.7054744 0.0 0.0 0.50910515 0.0 0.7983428 5.770877 
0.0 0.0 0.0 0.0 0.82234454 0.0 1.4816179 3.6916726 0.0 0.115605116 0.0 0.0 0.73413587 0.0 0.0 1.8155997 
0.0 0.0 0.0 0.39494225 0.0 0.0 1.2859409 3.5543883 4.8146 0.0 0.38171142 0.0 0.0 0.06585669 0.0 1.0006517 
0.0 0.010914732 0.0 0.17060769 0.22727686 0.41266578 0.0 0.0 2.1897576 0.0 0.5675623 0.0 0.0 0.0 0.0 1.7422568 
0.8651938 1.1550862 0.8013101 0.0 0.3583842 0.0 0.0 0.16815665 0.0 1.5593593 0.0 0.0 0.23034449 0.0 0.6196571 3.1189227 
0.0 0.0 0.0 0.0 0.062241822 0.0 0.9506386 3.5582225 0.0 0.8835518 0.0 0.0 0.8414373 0.0 0.0 0.7223709 
0.0 0.0 0.0 1.0694065 0.0 0.0 0.61481076 4.0582223 4.0567145 0.0 0.4187014 0.0 0.15866548 0.020535387 0.0 0.05986109 
0.0 0.0 0.0 0.9935341 0.35568732 0.3207266 0.0 0.0 3.2245035 0.0 0.63905996 0.0 0.0 0.0 0.0 1.9861896 
0.0 0.10289348 0.0 0.17484999 0.2911872 0.15959018 0.0 0.0 0.0 0.0 0.11309937 0.0 0.0 0.0 0.0 1.1470766 

