0.0 0.0 0.0 0.0 0.02785366 0.14463916 0.10827379 0.0 0.015989032 0.0 0.2292533 0.0 0.0 0.0 0.0 0.0 
0.21764399 0.0 1.8653843 0.0 0.6611345 1.9135025 0.0 0.0 0.0 0.0 0.14346305 0.0 0.0 1.1618023 1.5412686 0.30053347 
1.0246685 0.0 4.024883 0.0 0.0 0.0 3.4691193 0.0 0.0 0.0 0.0 0.0 0.8315238 0.62901056 2.3154612 0.5444366 
1.0877638 0.0 0.0 0.0 0.0 0.0 0.0 0.0 1.505521 0.0 0.0 2.5852613 1.2099227 0.0 0.0 0.0 
0.47107252 0.0 1.1689934 0.0 0.0 0.026211344 0.0 0.0 0.0 0.0 0.0 0.6539639 0.1904213 0.04342772 0.0 0.0 
0.0 0.0 0.0 0.0 0.20443428 0.0 0.08617401 0.0 0.013522614 0.0 0.34142512 0.16495349 0.0 0.0 0.0 0.0 
0.0 0.2739486 1.5819539 0.0 1.100167 1.948066 0.0 0.0 0.0 0.0 0.13143383 0.35668287 0.0 0.0 0.33606917 0.0 
0.0 0.0 4.936819 0.0 0.0 0.0 4.461067 0.18161844 0.0 0.14613822 0.0 0.0 0.3279578 0.0 1.5326421 0.0 
0.0 0.0 0.0 0.0 0.0 0.14696005 0.0 0.0 2.5491874 0.0 0.0 1.3291268 0.17264126 0.0 0.0 0.0 
0.0 0.0 0.0 0.37015676 0.0 0.21053988 0.0 0.0 0.0 0.0 0.05918031 0.42432722 0.0 0.03905891 0.0 0.0 
0.0 0.0 0.0 0.0 0.28999552 0.0 0.0 0.0 0.19391282 0.0 0.6587209 0.094992116 0.0 0.0 0.0 0.0 
0.0 0.0 1.7173775 0.0 1.1001215 2.556287 0.0 0.0 0.0 0.0 0.57180774 0.28843677 0.0 0.0 0.0 0.0 
0.0 0.0 5.199305 0.0 0.0 0.0 4.374124 0.49957865 0.0 0.0 0.0 0.0 0.12383218 0.0 0.9454047 0.0 
0.0 0.0 0.0 0.0 0.0 0.0 0.0 0.0 2.0763967 0.0 0.0 2.4392772 0.750981 0.0 0.0 0.0 
0.0 0.0 0.3992447 0.0 0.0 0.13752449 0.0 0.0 0.0 0.0 0.0 0.8280456 0.12390092 0.11243851 0.0 0.0 
0.0 0.0 0.0 0.0 0.2806789 0.0 0.0 0.0 0.10478321 0.0 0.62830406 0.24382716 0.0 0.0 0.0 0.0 
0.0 0.0 1.0118126 0.0 0.82786167 2.893287 0.0 0.0 0.0 0.0 0.90348566 0.39901918 0.0 0.0 0.0 0.0 
0.0 0.0 5.0752172 0.0 0.0 0.0 4.006214 0.28314507 0.0 0.115959674 0.0 0.0 0.0 0.0 0.98618525 0.0 
0.0 0.0 0.0 0.0 0.0 0.0 0.0 0.0 1.5701452 0.0 0.0 2.2687304 0.4869982 0.0 0.0 0.0 
0.0 0.0 0.109450355 0.045251127 0.0 0.44513 0.0 0.0 0.0 0.0 0.0 0.86761117 0.0 0.097439624 0.0 0.0 
0.0 0.0 0.0 0.0 0.04207909 0.0 0.0 0.0 0.060578812 0.0 0.5179001 0.15279493 0.0 0.0 0.0 0.0 
0.0 0.0032137667 0.0 0.0 0.48184717 2.9558408 0.0 0.27306658 0.0 0.0 1.87448 0.37620023 0.0 0.0 0.0 0.0 
0.0 0.0 2.8010652 1.2294283 0.0 2.74841 3.793232 0.5226613 0.0 0.0 1.8977253 0.0 0.0 1.8579496 0.8243526 0.0 
0.0 0.0 0.0 0.21950838 0.0 0.0 0.0 0.0 1.8008518 0.0 2.6149137 1.1468278 0.71634877 1.130192 0.0 0.3517155 
0.0 0.0 0.1361193 0.0 0.0 0.0 0.0 0.0 0.0 0.0 0.16609737 1.2415447 0.8294621 0.0 0.0 0.0 

