0.4324107 0.0 0.0 0.0 0.0 1.2349842 0.0 0.0 0.0027040765 0.0 0.29560128 0.0 0.0 0.9593129 0.35555398 0.0 
1.1069038 0.0 2.1036053 0.0 0.0 1.9537654 0.0 0.0 0.0 0.0 0.0 0.0 0.0 1.8662076 1.2163084 0.044584822 
0.8658952 0.0 0.0 0.0 0.0 0.0 0.96728134 0.0 0.0 0.41998804 0.0 4.036829 1.1286426 0.0 0.0 0.0 
0.782377 0.0 0.6680472 0.034004778 0.025579728 0.69118583 0.0 0.0 0.0 0.0 0.0 2.6001532 1.0515914 0.60753095 0.0 0.0 
0.0 0.0 0.0 0.30150855 0.051704988 0.2312952 0.0 0.0 0.0 0.0 0.24874148 0.0 0.0 0.20042202 0.0 0.0 
0.0 0.016696943 0.0 0.0 0.2136046 0.2918615 0.0 0.0 0.0 0.0 0.7165696 0.18549734 0.0 0.0 0.0 0.0 
0.0 0.0 2.9824517 0.0 0.0 3.5699925 0.0 0.0 0.0 0.0 0.5036275 0.0 0.0 1.3972015 2.8115835 0.0 
0.0 0.0 1.4594668 0.0 0.0 0.0 1.2709036 0.0 0.3645051 0.0 0.0 1.4912795 0.13383615 0.6206573 1.6076676 0.0 
0.38396364 0.0 0.6048891 0.0 0.0 0.3579894 0.0 0.0 0.0 0.0 0.0 4.547439 1.4606446 0.1082798 0.0 0.0 
0.25429377 0.0 0.7574401 0.105728775 0.05537171 0.5100097 0.0 0.0 0.0 0.0 0.039977364 0.0 0.0 0.41328177 0.0 0.0 
0.0 0.13543774 0.0 0.024099637 0.18137181 0.0 0.022784175 0.15387024 0.0 0.0 0.7369457 0.30668136 0.0 0.0 0.0 0.0 
0.0 0.37211853 2.2756076 0.0 0.17045608 3.8540332 0.0 0.0 0.0 0.15959129 1.0320636 0.24873781 0.0 0.08250158 0.98531693 0.0 
0.0 0.0 3.9179754 0.0 0.0 1.3232975 2.4787545 0.0 0.0 0.0 0.0 0.0 0.0 0.6207549 2.6991646 0.087173514 
0.0 0.0 0.0 0.0 0.0 0.0 0.0 0.0 0.5544831 0.0 0.0 3.5168765 1.439153 0.0 0.0 0.0 
0.13035093 0.0 0.9334104 0.0 0.0 0.27747947 0.0 0.0 0.0 0.0 0.025058152 0.7880652 0.23391806 0.19618404 0.0 0.0 
0.064377114 0.06263687 0.0 0.026097674 0.0 0.0 0.11087062 0.09353052 0.0 0.0 0.18433833 0.0 0.0 0.0 0.0 0.0 
0.0 0.34717643 0.0 0.0 0.3147076 1.9299183 0.0 0.04429151 0.040029828 0.0 0.8550378 0.39956364 0.0 0.0 0.0 0.0 
0.0 0.5520209 3.6457722 0.8880275 0.0 3.0597851 2.852122 0.0 0.0 0.0 0.0 0.0 0.0 0.0 1.3081436 0.0 
0.0 0.0 0.0 0.0 0.0 0.0 1.5965683 0.0 1.1960998 0.0 0.0 2.6534562 0.29944766 0.0 0.0 0.0 
0.0 0.0 0.53121 0.0 0.0 0.31253976 0.0 0.0 0.0 0.0 0.0 1.6585943 0.46123666 0.09729879 0.0 0.0 
0.0 0.0 0.0 0.0 0.0 0.0 0.0 0.0 0.0 0.0 0.0 0.0 0.0 0.0 0.0 0.0 
0.17000046 0.18300585 0.0 0.0 0.31749082 0.048865557 0.042012684 0.075945646 0.13335885 0.041305985 0.9893073 0.24156591 0.0 0.0 0.0 0.0 
0.0 0.18492809 3.1422043 0.0 0.0 3.0945709 1.257084 0.13067535 0.0 0.41927955 0.38903376 0.0 0.051536717 1.2301023 1.2574978 0.0 
0.0 0.0 0.0 0.0 0.0 0.0 2.7878568 0.0 1.5313122 0.0 1.2405078 0.0 0.12725474 0.99499834 0.34419543 0.0 
0.0057056807 0.0 0.6103056 0.0 0.0 0.049242496 0.0 0.0 0.42964584 0.0 0.030055316 1.7058692 0.73762196 0.0 0.0 0.0 

