0.0 0.13035367 0.0 0.0 0.0 0.0 0.0 0.0 0.0 0.17404889 0.6356278 0.0 0.22175442 0.117603295 0.0 0.058073264 
0.0 0.6951921 0.0 0.0 0.0 0.7082777 0.0 0.0 0.0 0.23401847 1.1614277 0.0 0.82027113 2.307717 0.7575061 0.20209992 
0.0 1.5093672 0.0 0.6229672 0.0 0.0 0.10777008 0.0 0.0 0.0 1.2942312 0.0 1.1887618 3.0194616 2.6473572 0.0 
0.47963127 0.19641991 1.1346904 1.7181172 0.0 0.0 1.4883423 0.0 0.0 0.0 0.69513756 0.21788174 1.8911282 1.1458716 1.9513841 0.0 
0.3307573 0.0 0.33556524 0.0 0.0 0.0 0.0 0.0 0.82872087 0.0 0.0 1.8957273 1.0359426 0.17306015 0.0 0.0 
0.26622126 0.28203 0.0 0.04020519 0.050764598 0.0 0.27320895 0.0 0.0 0.0 0.1256842 0.3149471 0.0 0.0 0.0 0.0 
0.8024711 1.8806162 0.1766853 1.1975187 0.40656447 0.0 0.0 0.0 0.0 2.0913103 0.0 0.27346855 0.0 0.0 0.0 1.2681818 
0.27956674 2.4649196 0.0 0.5938638 0.41884032 0.0 0.999394 0.0 0.18730415 2.6941807 0.0 0.0 0.0 0.0 0.9544354 2.6546547 
0.0 0.0 0.0 0.2080926 0.0 0.0 2.1340356 0.63884866 1.8904375 1.1061845 0.0 0.0 0.48884463 0.0 1.4343112 0.0 
0.0 0.0 0.0 0.58142865 0.0 0.0 0.0 0.0 2.3092844 0.0 0.31578565 0.645005 0.40655965 0.0 0.0 0.5087372 
0.80137247 0.9135066 0.40979463 0.0 0.53801703 0.04947564 0.07726291 0.0 0.0 0.7161603 0.0 0.021786407 0.0 0.0 0.0 1.4455642 
0.54014903 1.472666 1.16857 0.0 0.6685642 0.0 0.0 0.50829816 0.25697377 0.9759159 0.0 0.0 0.55534583 0.0 0.22254436 3.3831978 
0.0 0.0 0.0 0.0 0.0 0.0 1.4766289 3.163986 0.0 0.048234355 0.0 0.4715722 0.80840135 0.0 0.0 0.0 
0.0 0.0 0.0 2.4050565 0.0 0.4065997 0.24233596 1.1240187 3.6477618 0.0 0.4125669 0.0 0.0 0.21256596 0.0 0.72944903 
0.0 0.596762 0.0 1.575771 0.94558036 0.4827426 0.0 0.0 0.87516934 0.0 0.5901562 0.19074717 0.011047922 0.0 0.0 1.113447 
0.6368496 1.0707219 0.23426247 0.0 0.0 0.0 0.0 0.38017774 0.0 1.4783396 0.2598347 0.0 0.6919788 0.0 0.16093628 2.4020188 
1.5323375 0.0 0.0 0.0 0.0 0.0 0.3331389 3.466179 0.0 0.35014102 0.12097603 0.0 1.1476539 1.9497813 0.0 0.0 
1.2395728 0.0 0.0 0.0 0.0 0.0 0.0 3.5443163 0.78750193 0.0 1.5819778 0.0 0.13088822 4.277397 0.0 0.0 
0.9779442 0.0 0.0 0.0 0.0 0.0 0.0 0.0 0.0 0.0 0.27304807 0.0 0.96893305 2.1564248 0.0 0.23664238 
1.2461038 0.24885197 0.0 0.0 0.79102236 0.0 0.0 0.0 0.0 0.5707289 0.0 0.45967355 0.7875548 0.0791801 0.0 0.0 
0.0 0.843041 0.0 3.0031471 0.0 0.7113345 0.8826772 1.8763002 0.0 0.0 2.8514423 0.0 0.89851177 0.55811524 0.0 0.0 
0.0 0.8583726 0.0 4.364332 0.0 0.0 0.0 1.64644 1.9719846 0.0 2.1077979 0.0 1.0726612 0.0 0.9335094 0.0 
0.0 0.6291033 0.0 1.8069144 0.0 0.0 0.0 0.0 1.2169037 0.0 3.2963836 0.0 0.8268666 2.144843 2.927399 0.0 
0.0 1.403707 0.0 3.8412552 0.0 0.0 0.0 0.0 0.0 0.0 3.3149097 0.0 1.8135897 2.8684418 3.0275838 0.0 
0.0 1.0209383 0.0 3.7956393 0.0 0.0 0.0 0.0 0.5156066 0.0 1.635677 0.0 1.5384154 2.1400185 1.1479421 1.0413568 

