0.0 0.13319202 0.0 0.026475288 0.26483056 0.0 0.13644539 0.0 0.0 0.0 0.0 0.009200826 0.0 0.0 0.0 0.0 
0.7270326 1.1102268 0.59774697 0.0 0.5826145 0.11503789 0.09288854 0.0 0.0 0.855523 0.0 0.0 0.0 0.0 0.12310813 1.9474238 
1.9600916 1.2470739 1.397173 0.0 0.0 0.0 0.0 0.45153493 0.0 0.344318 0.0 0.0 0.6079369 0.0 0.5820573 2.7857616 
2.509391 0.0 0.0 0.0 0.0 0.0 0.30758438 1.9013116 0.0 0.15812813 0.0 0.0 2.516322 2.0252259 0.0 0.065308504 
1.4618206 0.0 0.0 2.638996 0.0 0.0 0.0 0.0 0.0 0.0 2.306554 0.0 2.498416 3.9248276 0.31686872 0.0 
0.67955106 0.553223 0.15235832 0.0 0.49209756 0.33923173 0.13612068 0.0 0.29760507 0.5635099 0.0 0.0 0.0 0.0 0.12977077 1.3053184 
0.6638273 0.9805598 0.39944848 0.0 0.26222667 0.0 0.0 0.25022262 0.0 1.6749334 1.0481983 0.0 0.873019 0.0 0.41711837 3.1976666 
1.1042343 0.0 0.0 0.0 0.0 0.0 0.6782835 2.3923128 0.0 0.0 0.7550305 0.0 1.0358233 1.1112529 0.0 0.0 
0.8679324 0.0 0.0 0.28647566 0.0 0.0 0.005427731 2.0606713 0.86208767 0.0 0.0 0.0 0.48316038 1.3788228 0.5608503 0.0 
0.0 0.0 0.0 2.5553424 0.0 0.0 0.0 0.0 0.0 0.5258755 0.0 1.6735725 0.97264785 0.0 0.18173517 0.0 
1.2398758 2.0260584 0.3699084 0.0 0.5514147 0.0 0.0 0.0 0.0 0.15851925 0.0 0.17185807 0.0 0.0 0.0 1.6469522 
1.1266243 1.2323074 0.0 0.0 0.0 0.0 0.63111526 2.006802 0.0 0.0 0.0 0.0 0.5947753 0.0 0.0 0.0 
0.4261133 0.0 0.0 1.5235528 0.6540023 1.3019898 0.0 0.51639175 2.51427 1.3361422 0.8324699 1.1158493 0.0 0.0 0.0 0.7950042 
0.0 0.0 1.5891217 1.6616101 0.0 0.9195592 3.2707102 0.0 0.0 0.679575 0.0 0.0 0.0 0.0 3.063562 0.12505193 
0.0 0.0 0.0 0.1894378 0.0 0.0 0.0 0.0 1.6878294 0.0 0.0 2.099748 0.3952747 0.0 0.0 0.0 
0.6213643 0.0 0.0 0.0 0.0 0.003406465 0.018965816 0.77489686 0.0 0.0 0.09489223 0.0 0.20710422 0.59471285 0.17867519 0.0 
2.1662304 0.0 0.0 0.0 0.0 0.0 0.0 0.6009313 0.0 1.0790075 0.0 0.0 0.0 0.90166706 0.51223433 0.0 
0.961448 0.0 0.0 0.0 0.0 0.0 0.0 0.0 0.0 1.2409592 0.11397813 0.28240904 1.7618089 0.0 0.0 0.0 
0.0 0.0 0.9282263 0.0 0.0 0.0 2.3526835 1.2965926 2.1084168 0.0 0.0 0.0 1.889727 0.0544281 0.0 0.0 
0.0 0.0 0.0 0.0 0.0 0.0 0.0 0.0 4.0446186 0.0 0.72926193 0.0 0.5239317 0.13775048 0.0 1.1013778 
0.0 0.89073116 0.0 0.0 0.0 0.97744995 0.27643812 0.83083016 0.0 0.42582527 3.403393 0.0 0.0 0.9359257 0.19846039 0.0 
0.0 0.57663405 0.0 2.1201468 0.0 0.118994415 0.0 0.0 0.0 0.15205128 3.1237364 0.0 1.7303665 1.0837785 2.273388 0.0 
0.0 1.1551023 0.0 4.9380608 0.0 0.0 0.0 0.0 0.8807044 0.0 3.6226578 0.0 1.8155612 0.0 0.47143775 0.0 
0.0 0.9934665 0.0 4.7596307 0.06671012 0.0 0.0 0.0 3.0386589 0.0 1.4299762 0.0 1.0114863 0.17277148 0.0 2.3328853 
0.0 0.083213605 0.0 0.8699921 0.5001166 0.4659102 0.0 0.0 1.1847371 0.0 1.0037435 0.0 0.0 0.0 0.0 2.405402 

