0.2947096 0.19265398 0.0 0.0 0.4005847 0.042854115 0.21513678 0.0 0.0 0.0 0.0 0.0 0.0 0.0 0.0 0.0 
0.930299 1.0232987 0.6659484 0.0 0.22585419 0.018680803 0.0 0.0 0.0 1.3409171 0.0 0.0 0.0 0.0 0.81903356 2.7613375 
1.390302 1.2962244 0.46179515 0.0 0.0 0.0 0.0 1.3211932 0.0 1.5202719 0.0 0.0 2.051246 0.07271824 0.5016445 2.7836485 
1.1080632 0.0 0.0 0.0 0.0 0.0 0.0 1.536302 0.5655973 0.382881 0.4220706 0.0 2.2086573 2.163899 1.302074 0.0 
0.7801183 0.0 0.0 2.124093 0.0 0.0 0.0 0.0 2.1782427 0.0 1.6172482 0.0 1.6324838 1.6636157 0.896975 1.0453842 
0.3606314 0.41203803 1.5206856 0.0 0.7355804 0.0 0.0 0.0 0.29374376 0.47906 0.0 0.0 0.0 0.0 0.5664936 2.0841832 
0.0 0.18475804 1.2764443 0.0 0.0 0.0 1.4620262 1.0465184 0.0 0.9419777 0.0 0.5769278 1.1131601 0.0 0.67577624 2.6209989 
0.0 1.17177 0.0 2.9535556 0.0 0.0 0.36553082 2.759741 2.2117577 0.0 0.0 0.0 1.5698689 0.0 0.0 0.0 
0.0 1.9597702 0.0 4.209772 1.1751624 0.0 0.0 0.4510703 2.5075686 0.8813509 0.93215084 0.0 0.014155433 0.0 0.0 1.6213646 
0.0 0.30865294 0.0 3.4873092 2.0519116 1.33495 0.0 0.0 0.2492019 0.81466997 0.89795727 0.0 0.0 0.0 0.51327676 2.192532 
0.29276133 0.2580159 1.9100763 0.0 1.2255911 0.7257602 0.0 0.36205912 0.0 0.013844635 0.0 0.0 0.0 0.0 0.024303526 1.8278043 
1.6602842 0.7518712 0.0 0.0 0.0 0.0 2.6045046 2.6075118 0.0 0.61353266 0.0 0.0 0.0 1.0071647 0.0 0.0 
2.4065723 0.0 0.0 0.0 0.0 0.0 0.0 1.073791 0.0 0.74022615 0.0 0.0 0.0 3.1620657 0.0 0.0 
2.9223413 0.0 0.0 0.0 0.0 0.0 0.0 0.0 0.0 0.63620585 0.0 0.0 0.83683336 2.141837 0.0 0.4353414 
2.3014364 0.0 0.0 0.0 0.9329986 0.027043343 0.0 0.0 0.0 0.69362324 0.0 1.8954077 1.3054166 0.0 0.0 0.0 
0.0 0.0 1.8000896 0.0 0.41409966 2.835645 0.0 1.3859361 0.0 0.0 1.3609954 0.0 0.0 1.057321 0.0 0.0 
0.084254995 0.0 0.0 0.0 0.0 0.0 2.3717055 1.7699615 0.0 0.0 0.5006934 0.0 1.0370891 0.0 0.0 0.0 
0.056984138 0.3548141 0.0 0.0 0.0 0.0 0.0 0.0 0.0 0.5152618 0.26811203 0.0 1.0021906 0.71789813 1.2320209 0.0 
0.13937828 0.0 0.0 0.0 0.0 0.0 0.0 0.0 0.0 0.0 0.6832603 0.0 1.679729 2.1836398 3.269508 0.0 
0.29467162 0.0 0.0 0.7131009 0.0 0.0 0.0 0.0 2.0472865 0.0 1.3251411 1.2093759 1.706265 1.603305 1.9241557 0.0 
0.0 1.6615251 0.0 1.2898629 0.0 1.5322318 0.88024855 1.23057 0.0 0.3438577 2.010387 0.08110049 0.0 1.1236954 0.07282488 0.0 
0.0 1.4452972 0.0 2.892693 0.0 0.0 2.0856895 0.7789893 0.0 0.38932353 3.6246316 0.0 0.0 2.003141 1.4087723 0.0 
0.0 3.2848 0.0 5.5090356 0.0 0.0 0.0 0.0 0.0 0.13845468 2.800217 0.0 1.3910531 0.80254424 0.36680353 0.0 
0.0 2.902106 0.0 6.0277686 0.0 0.0 0.0 0.0 0.14405303 1.0330439 1.7452697 0.0 0.8343175 0.0 1.0652347 0.5485101 
0.0 0.0 0.0 3.2431922 0.66717106 0.3965242 0.0 0.0 1.735435 0.45306918 1.332897 0.0 0.0 0.0 1.3428588 2.9147246 

