2.6851928 1.9080263 0.0 0.0 0.0 0.0 0.0 0.0 0.0 0.71150297 0.1555115 0.0 0.66362417 1.9265946 0.04154797 1.1030666 
4.1069436 0.3382389 0.0 0.0 0.0 0.0 0.0 0.0 0.0 1.3293015 0.0 0.0 1.859844 3.7615073 0.0 0.0 
3.8870697 0.0 0.58771265 0.0 0.0 0.0 0.0 0.0 0.0 0.60052043 0.0 0.0 1.4802092 4.3221774 0.0 0.0 
3.5159411 0.0 0.78736967 0.0 0.0 0.0 0.0 0.0 0.0 0.38410163 0.0 0.46945855 0.8593475 1.9598025 0.0 0.0 
2.595393 0.0 0.0 0.0 0.87575644 0.0 0.0 0.0 0.0 0.50472325 0.0 1.6096104 1.3494389 0.0 0.0 0.0 
0.0 2.1402864 0.0 2.515566 0.0 0.37637013 0.0 0.0 0.0 0.0 2.4095771 0.0 1.8199385 1.8633746 0.82529736 0.0 
0.0 3.111482 0.0 3.4225652 0.0 0.0 0.0 0.0 0.35646534 1.8841612 1.3800013 0.0 1.5768863 0.51406556 2.2246432 1.8172212 
0.0 1.292729 0.0 0.0 0.0 0.0 0.0 0.0 0.0 2.5149593 0.99841833 0.0 1.3402622 0.44745055 3.655993 0.7218236 
0.0 0.0 0.0 1.247089 0.0 0.0 0.0 0.0 0.0 0.0 1.3524534 0.0 2.3310523 2.2444992 2.5631146 0.0 
0.10583034 0.0 0.0 2.2848117 0.0 0.0 0.0 0.0 1.554356 0.0 2.034213 0.79225206 2.3328013 1.7749594 1.538475 0.71755546 
0.5822148 1.4320635 0.0 1.6841753 0.46705854 1.2670798 0.14240636 0.0 0.0 3.1692853 0.036269292 0.0 0.0 0.0 0.0 0.666484 
0.0 0.8406615 0.0 0.0 0.23272914 1.2640955 0.031293713 0.4277917 0.0 4.025907 0.0 0.0 0.0 0.0 0.0 2.338302 
1.7937096 0.0 0.0 0.0 0.0 0.0 0.0 2.6974425 0.0 0.20522879 0.0 0.0 0.0 0.0 0.0 0.0 
0.904482 0.1067167 0.0 5.608124 0.0 0.4991451 0.0 0.0 1.6518329 1.3292302 0.8941034 0.8439777 0.0 0.0 0.0 0.0 
0.0 0.0 0.0 4.4320974 1.4289286 1.7849982 0.0 0.0 0.23417428 0.4217777 1.6123327 0.0 0.0 0.11324865 0.4398986 2.8469255 
0.0 1.6783969 0.0 0.0 0.151571 0.93958694 0.0 0.0 0.3147365 0.0 1.7063292 0.935163 0.19665204 0.0 0.0 0.0 
0.0 4.270357 0.0 2.1499803 0.0 1.9132385 1.9803464 1.4729135 0.0 0.0 3.6806476 0.0 0.22688855 3.3465912 0.0 0.0 
0.43765455 2.955968 0.0 1.1189603 0.0 0.0 1.0952334 0.0 0.0 0.0 2.2202148 0.0 0.0 5.023489 3.079324 0.0 
0.03203926 0.0 0.0 0.0 0.0 0.0 0.0 0.0 0.0 0.0 0.0 2.610553 1.3850114 0.82701737 0.509836 0.0 
0.5918434 0.0 0.9131572 0.0 0.0 0.59646475 0.0 0.0 0.0 0.0 0.0 3.5963445 1.4259391 0.29939806 0.0 0.0 
2.5152514 3.1821766 0.0 0.0 0.0 0.30318534 0.0 0.33246917 0.0 1.2595596 0.0 0.08587968 0.0 1.5728403 0.0 0.17480546 
2.4271622 3.5880635 0.0 0.0 0.0 0.0 0.0 0.0 0.0 3.5192518 0.0 0.44738933 0.0 0.98058045 0.0 0.0 
0.47852466 1.0542696 0.0 0.0 0.0 0.0 0.0 0.0 0.0 3.6093264 0.0 0.0 1.7703526 0.0 3.937197 0.0 
0.0 0.0 0.06633942 0.0 0.0 0.0 0.0 0.0 1.2510208 0.0 0.81140167 0.0 2.515428 0.4423748 4.1157575 0.0 
0.0 0.0 0.34884384 0.0826132 0.0 0.0 0.0 0.0 2.6264613 0.0 1.0526739 1.8717643 1.3682637 0.2887776 0.0 0.06492085 

