0.000000
0.000000
0.047749
0.000000
0.000000
1.081874
0.000000
0.071599
0.243066
0.059430
0.000000
0.000000
0.134400
0.000000
0.000000
0.000000
0.000000
0.898974
0.000000
0.215458
0.000000
0.041448
0.000000
0.000000
0.000000
0.000000
0.000000
0.000000
0.000000
0.000000
0.000000
0.000000
0.000000
0.321768
1.032443
0.000000
0.000000
0.404897
0.000000
0.862605
0.000000
0.000000
0.000000
0.000000
0.000000
0.000000
0.000000
0.000000
0.000000
0.002990
0.000000
0.000000
0.000000
0.000000
0.000000
0.000000
0.000000
0.000000
0.000000
0.000000
0.000000
0.000000
1.126753
0.000000
0.005534
0.000000
0.000000
0.000000
0.000000
0.000000
0.000000
0.000000
0.000000
0.000000
0.021381
0.000000
0.000000
0.000000
0.085666
0.000000
0.000000
0.000000
0.000000
0.000000
0.000000
0.000000
0.313049
0.000000
0.033584
0.000000
0.000000
0.000000
0.175138
0.000000
1.240730
0.000000
0.297795
0.235895
0.204300
0.000000
0.000000
0.130176
0.000000
0.000000
0.000000
0.045042
0.000000
0.000000
0.222236
0.000000
0.000000
0.154477
0.000000
0.883137
0.000000
0.000000
0.028388
0.914548
0.000000
0.000000
0.008485
0.000000
0.000000
0.000000
0.768604
0.000000
0.000000
0.000000
0.000000
0.000000
0.092736
0.000000
0.000000
0.000000
0.200603
0.000000
0.000000
0.000000
0.388228
0.000000
0.000000
0.000000
0.000000
0.000000
0.000000
0.000000
0.000000
0.001819
0.116118
0.000000
0.338507
0.000000
0.000000
0.000000
1.450197
0.000000
0.022200
0.450985
1.743376
0.000000
0.000000
0.033595
0.000000
1.092658
0.000000
1.660776
0.000000
0.000000
0.000000
0.000000
0.021836
0.000000
0.000000
0.000000
0.000000
0.000000
0.000000
0.000000
0.000000
0.000000
0.000000
0.000000
0.000000
0.716499
0.000000
0.000000
0.451018
0.000000
0.117522
0.000000
0.000000
0.000000
0.337984
0.282188
0.000000
0.000000
0.000000
0.000000
0.283276
0.000000
0.000000
0.000000
0.000000
0.000000
0.858273
0.055238
0.641043
0.000000
0.000000
0.000000
0.000000
0.273031
0.000000
0.000000
0.000000
0.000000
0.055316
0.000000
0.060793
0.000000
0.000000
0.000000
0.000000
0.000000
0.000000
0.000000
0.271668
0.000000
0.000000
0.000000
0.000000
0.000000
0.063116
0.000000
0.000000
0.000000
0.022659
1.126756
0.000000
0.178918
0.680239
0.000000
0.000000
0.419056
0.015349
0.000000
0.332249
0.000000
0.059048
0.000000
0.000000
0.687845
0.000000
0.000000
0.000000
0.000000
0.000000
0.201478
0.000000
0.000000
0.000000
0.000000
0.000000
1.140430
0.625610
0.718226
0.589324
0.000000
0.000000
0.470031
0.000000
0.000000
0.000000
0.000000
0.981962
0.055327
0.000000
0.169276
0.000000
0.060609
0.000000
0.000000
0.115031
0.000000
0.000000
0.000000
0.000000
0.000000
0.000000
0.000000
0.000000
0.082575
2.007091
0.000000
0.090267
0.000000
0.000000
0.000000
0.000000
0.000000
0.000000
0.000000
0.000000
0.710645
0.000000
0.000000
0.000000
0.000000
0.000000
0.000000
0.002549
0.264130
0.000000
0.046708
0.000000
0.000000
0.128713
0.000000
0.028720
0.464757
0.000000
0.000000
0.000000
0.136119
0.000000
0.000000
0.450469
0.000000
0.000000
0.233322
0.000000
0.000000
0.000000
0.001140
0.000000
0.000000
0.000000
0.057446
0.000000
0.000000
0.000000
0.767253
0.000000
0.000000
0.000000
1.136143
0.012104
0.000000
0.000000
0.026556
0.000000
0.000000
0.000000
0.000000
0.000000
0.088119
0.000000
0.000000
0.841598
0.279976
0.833011
0.000000
0.165048
0.335360
0.000000
0.067536
0.000000
0.000000
0.151966
0.000000
0.000000
0.105891
0.000000
0.000000
0.134681
0.052110
0.000000
0.037460
0.000000
0.220662
0.000000
0.532597
0.000000
0.000000
0.000000
0.000000
0.000000
0.000000
0.000000
0.000000
0.000000
0.000000
0.000000
0.000000
0.000000
0.000000
0.000000
0.000000
0.000000
0.000000
0.463017
0.000000
0.277964
0.000000
0.035040
0.000000
0.000000
0.546388
0.000000
0.000000
0.000000
0.000000
0.751726
0.000000
0.000000
0.000000
0.042895
0.000000
0.000000
0.000000
0.000000
0.000000
0.000000
0.000000
0.000000
0.000000
0.000000
0.000000
0.000000
0.000000
0.000000
0.000000
0.315676
0.252402
0.000000
0.000000
0.150495
0.072710
0.063685
0.000000
0.000000
0.142439
0.000000
0.000000
0.000000
0.000000
0.022975
0.000000
0.000000
0.000000
0.000000
0.256865
0.000000
0.000000
0.423552
0.000000
0.120641
0.000000
0.059018
0.000000
0.060229
0.000000
1.061418
0.620526
0.000000
0.000000
0.000000
0.000000
0.000000
0.731420
0.000000
0.722001
0.000000
0.000000
0.000000
0.016459
0.000000
0.443183
0.000000
0.180467
0.000000
0.000000
0.000000
0.325863
1.095152
0.391220
0.032939
0.000000
0.000000
0.519070
0.000000
0.122930
0.000000
0.000000
0.000000
0.000000
0.991435
0.400721
0.039111
0.000000
