0.000000
0.000000
0.000000
0.000000
0.000000
0.000000
0.000000
0.051637
0.015446
0.000000
0.000000
0.000000
0.795645
0.000000
0.000000
0.000000
0.000000
1.066504
0.000000
0.570308
0.000000
0.000000
0.086704
0.000000
0.169771
0.000000
0.000000
0.000000
0.000000
0.000000
0.000000
1.419294
0.000000
0.000000
0.000000
0.000000
0.000000
0.582055
0.000000
0.000000
0.000000
0.000000
0.000000
0.000000
0.000000
0.000000
0.000000
0.000000
0.000000
0.000000
0.000000
0.000000
0.000000
0.137593
0.619006
0.084605
0.000000
0.408299
0.000000
0.000000
0.000000
0.000000
0.000000
0.621788
0.311104
0.000000
0.000000
0.000000
0.000000
0.000000
0.000000
0.000000
0.000000
0.000000
0.000000
1.184330
0.000000
0.085865
0.000000
0.000000
0.000000
0.000000
0.000000
0.000000
0.000000
0.000000
1.497308
0.000000
0.000000
0.000000
0.000000
0.308501
0.000000
0.000000
2.379942
0.000000
0.484283
0.000000
0.000000
0.000000
0.108863
0.361296
0.000000
0.000000
0.000000
0.000000
0.000000
0.000000
0.161823
0.142922
0.000000
0.000000
0.000000
0.000000
0.000000
0.000000
1.434654
0.000000
0.000000
0.545503
0.000000
0.000000
0.000000
0.000000
0.000000
0.000000
0.000000
0.448069
0.000000
0.000000
0.000000
2.961553
0.000000
0.000000
1.471343
0.265297
0.000000
0.098538
0.265355
0.000000
0.000000
0.000000
0.000000
2.396715
0.000000
0.000000
0.000000
0.000000
0.000000
0.000000
0.000000
0.000000
0.000000
0.944835
0.000000
0.000000
0.000000
0.000000
0.000000
0.000000
0.041393
0.000000
0.000000
0.000000
0.000000
0.000000
0.000000
0.000000
0.000000
0.000000
0.000000
0.000000
0.000000
0.000000
0.000000
0.000000
0.000000
0.000000
0.000000
0.427605
0.000000
0.000000
0.000000
1.723176
0.000000
0.305036
0.492463
0.000000
0.066082
0.000000
0.000000
0.000000
0.000000
0.611637
0.000000
1.037596
0.000000
0.000000
0.000000
1.488537
0.000000
0.000000
0.000000
0.000000
0.000000
0.000000
3.033573
0.000000
0.000000
0.000000
0.232030
0.367992
1.336235
0.021547
0.000000
0.000000
0.000000
0.000000
0.000000
0.000000
0.000000
0.000000
0.000000
0.000000
0.000000
0.000000
0.000000
0.000000
0.000000
0.000000
0.145819
0.000000
0.000000
0.075608
0.000000
0.000000
0.381969
0.054388
0.549303
0.000000
0.000000
0.000000
1.120206
0.000000
0.000000
0.000000
1.664497
1.079659
0.133690
0.000000
0.000000
0.000000
0.000000
0.000000
0.000000
0.000000
0.000000
2.378320
0.000000
0.000000
0.000000
0.000000
0.000000
0.000000
2.348922
0.921686
0.331729
0.442203
0.086716
0.000000
0.587976
0.000000
0.190126
0.000000
0.000000
0.000000
0.000000
0.000000
1.599479
0.000000
0.000000
0.000000
0.000000
0.000000
0.000000
0.000000
0.072388
0.000000
0.000000
0.102707
0.000000
0.000000
0.000000
0.102835
0.000000
0.000000
0.000000
0.318831
0.000000
0.000000
0.000000
0.468417
0.347929
0.000000
0.000000
0.000000
0.000000
0.000000
0.000000
2.441005
0.000000
0.000000
0.000000
0.000000
0.000000
0.000000
0.145595
0.000000
0.000000
0.000000
0.000000
0.000000
0.000000
0.000000
0.000000
0.000000
0.000000
1.748109
0.000000
0.530396
0.421605
0.000000
0.000000
0.000000
0.000000
0.000000
0.000000
0.000000
0.000000
0.000000
1.171907
1.222883
0.000000
0.607110
0.000000
0.000000
0.000000
0.000000
0.000000
0.000000
0.000000
0.000000
0.000000
0.000000
0.301969
0.000000
0.000000
0.000000
0.000000
0.000000
2.608711
0.432453
0.000000
0.280399
0.000000
0.000000
0.000000
0.000000
0.000000
0.360483
0.000000
2.215684
0.000000
0.000000
0.193169
0.000000
2.113702
0.000000
0.000000
0.345451
0.980311
0.000000
0.000000
0.000000
0.000000
0.000000
0.000000
0.162665
0.000000
0.000000
0.154865
0.000000
0.000000
0.005244
0.000000
0.000000
0.000000
0.000000
0.000000
0.000000
0.000000
0.000000
0.000000
0.000000
0.000000
0.000000
0.573142
0.000000
0.576784
0.000000
0.000000
0.977057
0.087037
0.000000
0.000000
0.000000
0.000000
0.000000
0.170767
0.000000
0.000000
0.000000
0.052654
0.000000
0.000000
0.000000
0.000000
0.000000
0.089745
0.000000
0.000000
2.124510
0.042092
0.000000
0.000000
0.000000
0.000000
0.000000
1.204428
0.000000
0.000000
0.005896
0.000000
0.000000
0.000000
0.977607
0.000000
0.000000
0.000000
0.000000
0.000000
0.000000
0.000000
2.480254
0.000000
0.000000
0.000000
0.000000
0.000000
0.987648
0.000000
0.000000
0.269531
0.000000
0.406813
0.000000
0.000000
0.000000
0.000000
0.000000
0.000000
0.000000
0.492851
0.000000
0.000000
0.000000
0.000000
0.000000
0.000000
0.000000
0.571182
0.000000
0.000000
0.000000
0.000000
0.000000
0.093195
0.000000
0.000000
1.767825
0.000000
0.000000
0.000000
0.000000
0.000000
0.000000
0.000000
3.029734
0.804508
0.296474
