0.012007
0.000000
0.000000
0.000000
0.000000
0.000000
0.767408
0.148052
0.045600
0.030061
0.000000
0.000000
0.000000
2.882711
0.000000
0.000000
0.000000
0.000000
0.000000
0.462008
0.056963
0.000000
0.000000
0.000000
0.000000
0.000000
0.000000
0.607388
0.000000
0.000000
0.000000
1.626689
0.000000
0.000000
0.000000
0.000000
0.000000
0.693712
0.000000
0.000000
0.000000
0.000000
0.000000
0.000000
0.000000
0.343381
0.000000
0.000000
0.000000
0.000000
0.000000
0.000000
0.000000
0.000000
0.000000
0.000000
0.000000
0.149755
0.000000
0.000000
0.000000
0.000000
0.000000
0.225869
0.415925
0.000000
0.000000
0.744771
0.000000
0.000000
0.221051
0.089966
0.000000
0.000000
0.000000
0.294002
0.000000
0.149441
0.235703
0.000000
0.000000
0.000000
0.000000
0.000000
0.286726
0.000000
3.750090
0.000000
0.000000
0.000000
0.000000
0.102005
0.000000
0.053113
0.368641
0.000000
0.000000
0.522750
0.582950
0.000000
0.494871
0.355437
0.658641
0.000000
0.000000
1.243088
0.000000
0.247925
0.000000
0.346507
0.000000
1.781181
0.000000
0.000000
0.000000
0.000000
1.245357
0.000000
0.000000
0.000000
0.000000
0.000000
0.000000
0.000000
0.000000
0.000000
0.606114
0.000000
0.000000
0.000000
0.000000
0.000000
0.000000
0.985995
0.000000
0.029072
0.000000
0.000000
0.000307
0.000000
3.011221
0.000000
0.000000
1.466159
0.000000
0.000000
0.000000
0.000000
0.000000
0.000000
0.000000
0.000000
0.000000
0.000000
0.845804
0.245920
0.000000
0.000000
0.000000
0.000000
2.330323
0.973139
0.000000
0.000000
0.000000
0.093609
0.000000
0.000000
0.000000
0.000000
0.000000
0.000000
0.000000
1.033352
0.000000
0.000000
0.000000
0.000000
0.000000
0.133306
0.000000
0.000000
0.000000
0.047296
0.000000
0.000000
0.000000
0.000000
0.000000
0.025167
0.000000
0.000000
0.000000
1.567616
0.000000
0.000000
0.000000
0.000000
0.000000
2.376033
0.000000
0.000000
0.000000
0.000000
0.000000
0.000000
2.766070
0.000000
1.398017
0.199311
0.119170
0.000000
0.000000
0.498497
0.000000
0.000000
0.000000
0.000000
0.000000
0.000000
0.035745
0.000000
0.000000
1.243015
0.000000
0.000000
0.000000
0.000000
0.000000
0.000000
0.056384
0.000000
0.529424
0.000000
0.000000
0.000000
0.092781
0.000000
0.000000
0.000000
0.000000
0.273968
0.000000
0.000000
0.000000
0.000000
0.000000
0.000000
0.173397
0.000000
0.000000
0.330550
0.000000
0.000000
0.399629
0.000000
0.525211
1.770573
0.000000
0.000000
0.000000
0.000000
0.000000
0.000000
0.895248
0.774318
0.327456
0.000000
0.000000
0.000000
0.000000
0.000000
0.000000
0.000000
0.000000
0.000000
0.638899
0.036547
0.000000
0.000000
0.000000
0.000000
0.000000
0.000000
0.000000
1.204310
0.121513
0.000000
0.000000
0.351944
0.000000
0.439409
1.338222
0.029210
0.000000
0.000000
0.000000
1.188946
0.000000
0.000000
0.000000
0.590217
0.531425
0.000000
0.000000
0.000000
0.000000
0.000000
0.393963
0.682013
0.000000
0.000000
0.550436
0.000000
0.756737
0.000000
0.941462
0.000000
0.000000
0.000000
0.000000
0.000000
0.000000
0.000000
0.000000
0.000000
0.003386
1.435220
0.000000
0.000000
0.000000
0.000000
0.000000
0.000000
0.000000
0.778557
0.000000
0.000000
0.000000
0.000000
0.891513
0.000000
0.000000
0.000000
0.000000
0.000000
0.000000
0.038012
0.000000
0.000000
0.709716
0.000000
0.000000
0.000000
1.064973
0.488248
0.000000
0.000000
0.000000
0.503892
0.672435
1.163639
0.000000
0.000000
0.307480
0.418113
0.000000
0.000000
0.000000
0.075456
1.056387
0.000000
0.000000
0.419439
0.222366
0.000000
0.428580
0.000000
0.000000
0.000000
1.993067
0.000000
0.243601
2.627994
0.000000
0.000000
0.154377
0.000000
0.000000
0.388408
0.436394
0.218090
0.000000
0.220397
0.000000
0.000000
0.000000
0.000000
0.000000
0.000000
0.027685
0.000000
0.000000
0.000000
0.000000
0.000000
4.015065
0.000000
0.000000
0.000000
1.087922
0.000000
0.000000
0.000000
0.000000
0.638210
0.000000
0.000000
0.042878
0.000000
0.000000
0.000000
0.000000
0.000000
0.000000
0.036542
0.354810
0.000000
0.000000
0.000000
0.000000
0.316583
0.000000
0.000000
0.000000
0.000000
0.000000
0.248636
2.851841
0.000000
0.000000
1.182747
1.106252
0.000000
0.000000
0.000000
0.000000
0.000000
0.000000
0.000000
0.000000
0.000000
0.000000
0.000000
0.566980
0.000000
0.000000
0.000000
0.120990
0.829320
0.000000
0.000000
1.766505
0.000000
0.836529
0.000000
0.420112
0.000000
0.000000
0.000000
0.000000
0.000000
0.000000
0.000000
0.000000
0.000000
0.526173
0.000000
0.000000
0.000000
0.000000
0.000000
0.401771
0.000000
0.000000
0.398155
0.000000
0.371281
0.000000
0.000000
0.000000
0.000000
0.000000
0.147709
0.000000
0.000000
0.000000
1.614507
0.419842
0.077853
