0.000000
0.000000
0.000000
0.000000
0.000000
0.302934
0.000000
0.000000
0.070097
0.000000
0.000000
0.000000
0.000000
0.000000
0.000000
0.000000
0.000000
0.110889
0.000000
0.000000
0.163604
0.161465
0.230933
0.000000
0.248836
0.000000
0.294344
0.000000
0.000000
0.000000
0.000000
0.000000
0.000000
0.788673
0.000000
0.098135
0.000000
0.433312
0.000000
0.654843
0.000000
0.000000
0.000000
0.000000
0.000000
0.000000
0.195333
0.000000
0.000000
0.186201
0.000000
0.227394
0.122936
0.040693
0.000000
0.000000
0.167579
0.000000
0.000000
0.000000
0.015097
0.000000
0.000000
0.559386
0.000000
0.000000
0.075332
0.235720
0.000000
0.000000
0.191742
0.145183
0.000000
0.000000
0.000000
0.467604
0.000000
0.097061
0.047362
0.116374
0.000000
0.046235
0.626435
0.064868
0.000000
0.000000
0.000000
0.000000
0.000000
0.000000
0.000000
0.000000
0.000000
0.000000
0.347800
0.000000
0.000000
0.371371
0.000000
0.000000
0.000000
0.129153
0.000000
0.000000
0.107714
0.000000
0.000000
0.000000
0.024839
0.000000
0.000000
0.000000
0.000000
0.000000
0.000000
0.000000
0.415505
0.235357
0.000000
0.335346
0.234631
0.000000
0.000000
0.056581
0.163479
0.000000
0.330910
0.593152
0.000000
0.000000
0.000000
0.331373
0.000000
0.000000
0.324199
0.000000
0.000000
0.000000
0.000000
0.237635
0.179728
0.000000
0.000000
0.000000
0.000000
0.000000
0.000000
0.000000
0.630907
0.000000
0.000000
0.000000
0.000000
0.000000
0.641181
0.000000
0.000000
0.288028
0.000000
0.064319
0.000000
0.039037
0.000000
0.150257
0.000000
0.000000
0.000000
0.000000
0.000000
0.000000
0.000000
0.000000
0.000000
0.000000
0.000000
0.000000
0.000000
0.000000
0.000000
0.447931
0.000000
0.481016
0.000000
0.293402
0.000000
0.000000
0.337973
0.396471
0.026621
0.000000
0.000000
0.000000
0.000000
0.000000
0.087193
0.000000
0.000000
0.000000
0.000000
0.000000
0.000000
0.000000
0.000000
0.000000
0.514453
0.000000
0.478502
0.000000
0.000000
0.000000
0.135560
1.085617
0.000000
0.000000
0.000000
0.000000
0.058056
0.000000
0.000000
0.000000
0.000000
0.000000
0.000000
0.000000
0.000000
0.000000
0.306921
0.000000
0.000000
0.000000
0.000000
0.000000
0.000000
0.866405
0.000000
0.052303
0.103873
0.390620
0.000000
0.000000
0.000000
0.000000
0.674077
0.084467
0.000000
0.000000
0.350213
0.000000
0.000000
0.024509
0.122553
0.242980
0.000000
0.000000
0.000000
0.430189
0.040886
0.042768
0.000000
0.000000
0.000000
0.000000
0.000000
0.000000
0.311834
0.396599
0.104973
0.224911
0.000000
0.277456
0.174704
0.000000
0.000000
0.000000
0.000000
0.000000
0.000000
0.054310
0.000000
0.000000
0.000000
0.000000
0.062104
0.080414
0.491963
0.000000
0.000000
0.000000
0.000000
0.000000
0.000000
0.000000
0.618052
0.000000
0.000000
0.000000
0.283391
0.000000
0.619455
0.000000
0.000000
0.000000
0.101152
0.030804
0.000000
0.000000
0.000000
0.000000
0.000000
0.000000
0.000000
0.193983
0.483467
0.000000
0.000000
0.000000
0.119415
0.000000
0.000000
0.205641
0.000000
0.000000
0.000000
0.000000
0.000000
0.000000
0.067126
0.000000
0.000000
0.000000
0.000000
0.000000
0.000000
0.000000
0.000000
0.000000
0.000000
0.055602
0.000000
0.000000
0.326313
0.379321
0.000000
0.039075
0.000000
0.392381
0.000000
0.000000
0.000000
0.000000
0.000000
0.000000
0.000000
0.000000
0.000000
0.000000
0.000000
0.000000
0.149216
0.000000
0.000000
0.000000
0.004671
0.570975
0.000000
0.000000
0.000000
0.000000
0.177304
0.643094
0.000000
0.000000
0.000000
0.125407
0.000000
0.048119
0.000000
0.000000
0.000000
0.328229
0.000000
0.848540
0.000000
0.000000
0.243626
0.000000
0.000000
0.309513
0.000000
0.000000
0.000000
0.000000
0.271389
0.097194
0.033570
0.392638
0.049950
0.002074
0.000000
0.000000
0.000000
0.000000
0.000000
0.000000
0.000000
0.148683
0.000000
0.490498
0.000000
0.000000
0.000000
0.082140
0.000000
0.007291
0.000000
0.000000
0.064222
0.300886
0.516718
0.018293
0.000000
0.000000
0.005094
0.000000
0.000000
0.000000
0.000000
0.000000
0.000000
0.088818
0.000000
0.000000
0.000000
0.155083
0.000000
0.000000
0.045797
0.000000
0.000000
0.000000
0.031681
0.000000
0.000000
0.000000
0.175012
0.215856
0.000000
0.000000
0.000000
0.000000
0.000000
0.000000
0.000000
0.525605
0.051480
0.000000
0.139841
0.000000
0.000000
0.189365
0.000000
0.000000
0.217716
0.000000
0.204448
0.000000
0.000000
0.000000
0.000000
0.000000
0.211987
0.000000
0.000000
0.000000
0.000000
0.000000
0.000000
0.000000
0.000000
0.000000
0.711401
0.480138
0.000000
0.102753
1.166012
0.000000
0.000000
0.000000
0.000000
0.450870
0.000000
0.200160
0.000000
0.000000
0.000000
0.000000
0.088510
0.516065
0.004368
0.122324
