0.269344
0.000000
0.000000
0.000000
0.000000
0.000000
0.373749
0.000000
0.000000
0.000000
0.000000
0.000000
0.000000
3.208097
0.175930
0.000000
0.000000
0.000000
0.000000
0.000000
0.584943
0.000000
0.000000
0.000000
0.000000
0.000000
0.000000
0.980446
0.046312
0.000000
0.000000
0.000000
0.000000
0.000000
0.000000
0.000000
0.000000
0.000000
0.000000
0.000000
0.000000
0.000000
0.000000
0.000000
0.000000
0.671874
0.000000
0.000000
0.000000
0.000000
0.000000
0.000000
0.000000
0.000000
1.748175
0.000000
0.000000
0.000000
0.000000
0.000000
0.000000
0.118724
0.000000
0.000000
0.000000
0.000000
0.000000
0.000000
0.000000
0.000000
0.694665
0.000000
0.000000
0.000000
0.000000
0.000000
0.000000
0.000000
0.381569
0.000000
0.000000
0.000000
0.000000
0.000000
0.000000
0.336683
4.506511
0.616394
0.000000
0.000000
0.000000
0.025558
0.000000
0.000000
1.444526
0.000000
0.000000
0.152057
0.000000
0.000000
0.694608
0.000000
0.106160
0.079510
0.000000
1.690787
0.000000
0.000000
0.205507
0.000000
0.000000
2.549406
0.000000
0.000000
0.000000
0.000000
0.853701
0.000000
0.000000
0.000000
0.000000
0.000000
0.000000
0.000000
0.352661
0.000000
0.087219
0.000000
0.000000
0.000000
0.000000
0.000000
0.000000
1.157079
0.000000
0.000000
0.000000
0.000000
0.000000
0.221874
1.932570
0.000000
1.450629
1.009499
0.000000
0.000000
0.133399
0.000000
0.420155
0.000000
0.000000
0.000000
0.000000
1.011625
1.354783
0.126753
0.000000
0.000000
0.000000
0.093406
2.681852
0.000000
0.000000
0.000000
0.000000
0.000000
0.000000
0.000000
0.000000
0.000000
0.000000
0.000000
0.000000
0.000000
0.000000
0.000000
0.000000
0.000000
0.000000
0.567587
0.000000
0.000000
0.000000
0.000000
0.000000
0.000000
0.000000
0.154303
0.000000
0.000000
0.000000
0.000000
0.000000
0.836265
0.000000
1.463530
0.000000
0.000000
0.000000
0.817545
0.000000
0.000000
0.000000
0.000000
0.000000
0.000000
5.148852
0.307469
0.639049
0.137691
0.000000
0.000000
0.000000
0.045680
0.000000
0.000000
0.000000
0.000000
0.000000
0.000000
0.000000
0.000000
0.000000
1.106367
0.000000
0.000000
0.000000
0.000000
0.000000
0.000000
0.038013
0.000000
0.000000
0.264023
0.000000
0.000000
0.000000
0.508459
0.000000
0.000000
0.000000
0.000000
0.047946
0.000000
0.000000
0.000000
0.000000
0.000000
0.000000
0.000000
0.000000
0.094466
0.000000
0.047449
0.225219
0.000000
0.245738
1.639284
0.000000
0.000000
0.000000
0.000000
0.000000
0.000000
0.000000
0.000000
0.676915
0.000000
0.000000
0.000000
0.649454
0.000000
0.000000
0.000000
0.000000
0.000000
0.000000
0.355627
0.389461
0.000000
0.000000
0.000000
0.179269
0.000000
0.000000
0.718793
0.222438
0.000000
0.000000
0.000000
0.000000
0.491325
0.000000
0.000000
0.000000
0.000000
0.000000
0.902530
0.000000
0.000000
0.000000
0.000000
1.726691
0.000000
0.000000
0.000000
0.000000
0.000000
0.000000
0.709140
0.000000
0.000000
0.000000
0.000000
0.000000
0.000000
1.073841
0.000000
0.000000
0.000000
0.000000
0.000000
0.114460
0.000000
0.000000
0.000000
1.027798
2.328895
0.000000
0.453894
0.213499
0.000000
0.000000
0.010542
0.000000
0.064181
0.000000
0.000000
0.000000
0.000000
0.217538
0.326724
0.000000
0.000000
0.709603
0.000000
0.000000
0.000000
0.000000
0.000000
0.000000
0.000000
0.000000
0.000000
1.178320
0.000000
0.000000
0.000000
0.000000
0.000000
0.000000
1.178286
0.000000
0.000000
0.250963
0.000000
0.000000
0.000000
0.365968
0.000000
0.804045
0.000000
0.000000
0.000000
0.000000
0.000000
0.256453
0.000000
0.000000
0.000000
0.711031
0.000000
0.000000
0.758687
0.000000
0.000000
0.051787
0.000000
0.000000
1.414028
0.000000
0.017090
0.000000
0.000000
0.000000
0.000000
0.000000
0.000000
0.000000
0.000000
0.000000
0.000000
0.000000
0.000000
0.000000
0.000000
3.536674
0.000000
0.000000
0.000000
1.037432
0.000000
0.000000
0.000000
0.000000
0.949558
0.000000
0.000000
0.811110
0.000000
0.748105
0.000000
0.000000
0.000000
0.000000
0.000000
0.000000
0.000000
0.000000
0.000000
0.000000
1.431587
0.000000
0.000000
0.025760
0.000000
0.000000
0.000000
3.818968
0.000000
0.000000
0.243801
1.171081
0.000000
0.000000
0.000000
0.000000
0.000000
1.476524
0.000000
0.000000
0.000000
0.000000
0.000000
0.739876
0.000000
0.000000
0.000000
0.000000
0.738306
0.000000
0.000000
1.853859
0.000000
0.143261
0.000000
0.618525
0.000000
0.000000
0.000000
0.000000
0.000000
1.153529
0.000000
0.000000
0.000000
0.000000
0.000000
0.000000
0.000000
0.000000
0.000000
0.000000
0.000000
0.089836
0.000000
0.000000
0.000000
0.000000
0.000000
0.000000
0.000000
0.000000
0.000000
0.000000
0.522895
0.000000
1.807737
0.000000
0.401528
