0.210156
0.008143
0.000000
0.000000
0.025054
0.000000
0.182475
0.228871
0.000000
0.000000
0.000000
0.000000
0.794191
0.000000
0.000000
0.068515
0.000000
0.859219
0.000000
0.000000
0.000000
0.000000
0.000000
0.000000
0.106245
0.000000
0.000000
0.216711
0.000000
0.000000
0.000000
0.616928
0.000000
0.000000
0.000000
0.000000
0.000000
0.000000
0.000000
0.653141
0.000000
0.000000
0.000000
0.000000
0.000000
0.000000
0.000000
0.000000
0.000000
0.000000
0.000000
0.058978
0.190576
0.218502
0.000000
0.349829
0.000000
0.329437
0.000000
0.776811
0.000000
0.000000
0.000000
0.195232
0.042796
0.000000
0.267038
0.000000
0.000000
0.117858
0.798959
0.141760
0.000000
0.000000
0.000000
0.540987
0.000000
0.000000
0.018016
1.041626
0.000000
0.000000
0.000000
0.003914
0.000000
0.005119
1.099025
0.000000
0.000000
0.000000
0.000000
0.069578
0.000000
0.263057
0.728775
0.000000
0.000000
0.151007
0.000000
0.115842
0.214959
0.694797
0.000000
0.000000
0.000000
0.000000
0.000000
0.000000
0.028799
0.000000
0.000000
0.000000
0.000000
0.000000
0.000000
0.000000
0.949256
0.000000
0.000000
0.717551
0.000000
0.000000
0.000000
0.000000
0.000000
0.000000
0.000000
0.583888
0.000000
0.000000
0.000000
0.696878
0.000000
0.000000
0.207854
0.000543
0.000000
0.262072
0.000000
0.000000
0.279726
0.260915
0.495865
0.000000
0.910194
0.000000
0.000000
0.000000
0.712088
0.000000
0.424245
0.000000
0.000000
0.216209
1.201609
1.323167
0.317754
0.000000
0.000000
0.000000
0.000000
0.000000
0.000000
0.000000
0.280823
0.000000
0.000000
0.000000
0.000000
0.000000
0.000000
0.000000
0.000000
1.996331
0.000000
0.000000
0.000000
0.000000
0.000000
0.754040
0.000000
0.016694
0.000000
1.468121
0.000000
0.000000
0.000000
0.000000
0.256231
0.000000
0.000000
0.019913
0.000000
0.244046
0.059682
0.000000
0.000000
0.000000
0.000000
0.431470
0.000000
0.000000
0.000000
0.000000
0.000000
0.000000
1.292325
0.000000
0.000000
0.000000
0.000000
0.923234
0.277768
0.133203
0.000000
0.000000
0.000000
0.000000
0.000000
0.000000
0.000000
0.000000
0.000000
0.000000
0.000000
0.000000
0.000000
0.000000
0.000000
0.000000
0.000000
0.000000
0.213175
0.000000
0.000000
0.110567
0.966005
0.000000
0.000000
0.000000
0.000000
0.000000
0.863115
0.000000
0.000000
0.000000
0.000000
0.196304
0.000000
0.000000
0.000000
0.000000
0.000000
0.000000
0.000000
0.000000
0.000000
0.000000
0.000000
0.000000
0.000000
0.000000
0.000000
0.000000
0.353265
0.860672
0.611215
0.000000
0.000000
0.000000
0.000000
0.263105
0.000000
0.000000
0.276176
0.000000
0.000000
0.813455
0.369994
0.000000
0.000000
0.000000
0.000000
0.488675
0.000000
0.000000
0.327773
0.000000
0.000000
0.521337
0.000000
0.000000
0.623483
0.000000
0.479444
0.000000
0.000000
0.000000
0.011933
0.000000
0.000000
1.001049
0.167668
0.000000
0.517576
0.000000
0.000000
0.000000
0.333312
0.411423
0.198421
0.000000
0.492694
0.000000
0.983898
0.000000
0.190782
0.000000
0.000000
0.000000
0.000000
0.000000
0.591453
0.000000
0.042142
0.000000
0.000000
0.228352
0.000000
0.189147
0.240382
0.000000
0.000000
0.000000
0.000000
0.000000
0.027280
0.000000
0.000000
0.000000
0.670693
0.000000
0.000000
1.264531
0.000000
0.245676
0.000000
0.079350
0.000000
0.098773
0.000000
0.000000
0.000000
0.000000
0.070085
0.000000
0.000000
0.000000
0.000000
0.000000
0.000000
0.375774
0.000000
0.836735
0.000000
0.828399
0.000000
0.000000
0.598710
0.820086
0.000000
0.000000
0.000000
0.259833
0.000000
0.000000
0.000000
0.052985
0.000000
0.279329
0.296170
1.806152
0.357124
0.000000
0.000000
0.000000
0.002591
0.483393
0.000000
0.328299
1.346129
0.000000
0.000000
0.011809
0.000000
0.000000
0.000000
0.000000
0.000000
0.000000
0.037193
0.000000
0.011619
0.000000
0.000000
0.361539
0.000000
0.000000
0.000000
0.000000
0.000000
0.620538
0.000000
0.000000
0.512517
0.000000
0.000000
0.267954
0.285096
0.000000
0.000000
0.000000
0.039310
0.000000
0.000000
0.230193
0.394197
0.000000
0.515058
0.093736
0.000000
0.688494
0.156153
0.000000
0.067573
0.000000
0.000000
0.000000
0.307257
0.000000
0.000000
0.000000
0.000000
0.017441
0.000000
0.000000
0.000000
0.000000
0.067204
0.000000
0.000000
0.000000
0.000000
0.796934
0.058397
0.000000
0.000000
0.000000
0.000000
0.826462
0.000000
0.000000
0.000000
0.319581
0.936182
0.000000
0.000000
0.000000
0.000000
0.000000
0.147775
0.000000
0.000000
0.000000
0.000000
0.084990
0.460073
0.000000
0.000000
0.000000
0.000000
0.000000
0.000000
0.000000
0.000000
0.445680
0.000000
0.000000
0.000000
0.205226
0.000000
0.000000
0.000000
0.000000
0.000000
0.000000
0.000000
1.850863
0.000000
0.300689
