0.031847
0.000000
0.000000
0.000000
0.000000
0.000000
0.137145
0.217128
0.161411
0.108109
0.000000
0.000000
0.000000
0.000000
0.253667
0.000000
0.000000
0.880937
0.000000
0.979567
0.000000
0.002742
0.000000
0.000000
0.000000
0.000000
0.000000
0.000000
0.000000
0.000000
0.000000
0.050814
0.000000
0.000000
0.000000
0.000000
0.000000
0.130146
0.000000
0.000000
0.000000
0.000000
0.062348
0.000000
0.000000
1.949992
0.000000
0.000000
0.000000
0.000000
0.158845
0.000000
0.172328
0.000000
0.985103
0.000000
0.000000
0.822711
0.000000
0.308142
0.000000
0.000000
0.000000
0.000000
0.059290
0.000000
0.338817
0.000000
0.000000
0.000000
0.000000
0.000000
0.000000
0.000000
0.000000
0.000000
0.349835
0.000000
0.000000
0.271378
0.000000
0.000000
0.000000
0.020606
1.259894
0.000000
1.583948
0.000000
0.218969
0.000000
0.000000
0.071876
0.000000
1.138046
1.168015
0.000000
0.516607
0.066829
0.475512
0.000000
0.000000
0.107895
0.338477
0.000000
0.000000
0.260508
0.000000
0.183476
0.000000
0.656089
0.000000
0.646875
0.004831
0.000000
0.000000
0.039522
0.000000
0.000000
0.000000
0.000000
0.000000
0.000000
0.000000
0.000000
0.000000
0.000000
0.263062
0.000000
0.000000
0.000000
0.000000
0.112353
0.000000
0.000000
0.029254
0.185531
0.001523
0.748143
0.000000
0.000000
0.000000
0.032814
0.000000
0.124331
0.189591
0.000000
0.031567
0.000000
0.000000
0.000000
1.988843
0.078543
0.000000
0.059744
0.848154
2.052932
0.000000
0.000000
0.000000
0.000000
0.545243
0.000000
0.000000
0.000000
0.000000
0.000000
0.000000
0.000000
0.000000
0.000000
0.000000
0.000000
0.000000
2.485753
0.000000
0.000000
0.000000
0.000000
0.000000
0.000000
0.000000
0.020471
0.000000
1.479514
0.000000
0.000000
0.000000
0.000000
0.109403
0.000000
0.000000
0.000000
0.921144
0.000000
0.000000
0.000000
0.000000
0.000000
0.248128
1.522822
0.000000
0.000000
0.026298
0.000000
0.000000
0.000000
1.705678
0.000000
0.000000
0.000000
0.347525
0.000000
1.591064
0.486214
0.000000
0.000000
0.000000
0.000000
0.000000
0.000000
0.000000
0.000000
0.000000
0.720225
0.000000
0.000000
0.000000
0.000000
0.000000
0.000000
0.559808
0.000000
1.057285
0.000000
0.000000
0.000000
0.079245
0.000000
0.000000
0.000000
0.000000
0.000000
0.000000
0.007494
0.008059
1.016244
0.000000
0.000000
0.081523
0.000000
0.000000
1.059997
0.000000
0.000000
0.344841
0.000000
0.000000
0.787029
0.000000
0.000000
0.000000
0.000000
0.471363
0.000000
0.000000
0.351720
0.308218
0.000000
0.061053
0.000000
0.000000
0.126898
0.000000
0.000000
0.000000
0.000000
0.531984
0.090767
1.714954
0.100618
0.000000
0.000000
0.000000
1.060307
0.000000
0.578403
0.634854
0.161886
0.000000
0.865778
0.000000
0.000000
0.862184
0.146797
0.000000
0.231830
0.000000
0.948313
0.000000
0.000000
0.000000
0.321937
0.088065
0.000000
0.620596
0.000000
0.000000
0.000000
0.000000
0.040478
0.098619
0.000000
0.000000
0.000000
1.690337
0.007774
0.325859
0.021627
0.000000
0.000000
0.000000
0.000000
0.000000
0.000000
0.035730
0.000000
0.000000
1.451496
0.000000
0.000000
0.689755
0.000000
0.000000
0.766650
0.000000
0.293575
0.000000
0.000000
0.000000
0.000000
0.000000
0.000000
0.000000
1.055000
0.000000
0.000000
0.000000
0.000000
0.000000
0.000000
0.000000
0.000000
0.000000
0.000000
0.654495
0.099193
0.000000
0.000000
0.000000
1.295991
1.026712
0.286744
0.014560
0.000000
0.000000
0.893192
0.000000
0.000000
0.000000
0.000000
0.000000
0.017831
0.000000
0.000000
1.527255
0.000000
0.279235
0.000000
0.155501
0.008426
1.622239
0.528626
1.781992
0.000000
0.000000
0.646103
0.000000
0.000000
0.076932
0.000000
1.922492
0.157251
0.000000
0.214738
0.000000
0.000000
0.000000
0.000000
0.000000
0.000000
0.020290
0.000000
1.336643
0.000000
0.041472
0.000000
0.000000
0.236690
0.000000
0.000000
0.000000
1.837348
0.455810
0.000000
0.388386
0.000000
0.049361
0.000000
0.257984
0.000000
0.000000
0.000000
0.000000
0.000000
0.000000
0.318095
1.366489
0.320783
1.348359
0.142167
0.000000
0.860082
0.000000
0.000000
0.085074
0.000000
0.000000
0.000000
0.526665
0.214288
0.000000
0.961697
0.000000
0.000000
0.000000
0.161689
0.000000
0.000000
0.000000
0.000000
0.000000
0.000000
0.000000
0.000000
0.402597
0.000000
0.000000
0.000000
0.052262
0.000000
0.000000
0.000000
0.000000
0.172773
0.203248
0.000000
0.000000
0.000000
0.000000
0.000000
0.000000
0.000000
0.000000
0.000000
0.381912
0.098569
2.096232
0.000000
0.000000
0.022808
0.000000
0.000000
0.000000
0.000000
0.000000
1.788309
0.739336
0.000000
0.000000
0.000000
0.000000
0.000000
0.000000
0.000000
0.000000
0.000000
0.000000
0.133056
0.000000
0.000000
