0.368978
0.000000
0.000000
0.000000
0.100097
0.000000
0.573363
0.000000
0.000000
0.000000
0.000000
0.000000
0.000000
2.166015
0.000000
0.000000
0.000000
0.000000
0.000000
0.000000
1.424002
0.000000
0.000000
0.160468
0.493475
0.000000
0.000000
0.026806
0.050239
0.223577
0.000000
0.000000
0.097847
0.000000
0.000000
0.271633
0.000000
0.000000
0.000000
0.210718
0.305955
0.000000
0.000000
1.875556
0.000000
1.044790
0.000000
0.000000
0.258292
0.000000
0.000000
0.000000
2.717776
0.000000
0.000000
0.000000
0.055643
0.028944
0.000000
1.095044
0.000000
0.089640
0.167134
0.000000
0.000000
0.000000
0.000000
0.000000
0.000000
0.205131
0.885401
0.051886
0.142848
0.000000
0.000000
0.000000
0.000000
0.000000
0.062630
0.000000
0.000000
0.772489
0.547301
0.000000
0.000000
1.573854
0.401928
0.480914
0.000000
0.000000
0.000000
0.125590
0.000000
0.521426
0.580030
0.000000
0.000000
0.000000
0.000000
0.000000
0.000000
0.000000
0.000000
0.873190
0.000000
0.000000
0.000000
0.184813
0.000000
0.000000
0.000000
0.000000
0.000000
0.000000
0.000000
0.178164
0.000000
1.830403
0.000000
0.000000
0.000000
0.113018
0.000000
0.000000
0.000000
0.000000
0.000000
0.000000
0.000000
0.000000
0.000000
0.000000
0.000000
1.292005
0.000000
0.041894
0.000000
0.000000
0.000000
0.384675
0.000000
0.328239
1.236453
0.000000
0.000000
0.000000
0.039036
0.000000
0.000000
0.000000
0.000000
0.997532
0.000000
0.561958
1.038763
0.187991
1.029695
0.000000
0.000000
0.000000
0.001211
0.000000
0.000000
0.184155
0.000000
0.000000
0.000000
0.000000
0.000000
0.000000
0.000000
0.000000
0.305598
0.000000
0.000000
0.000000
0.000000
0.000000
0.000000
0.646780
0.250878
0.000000
0.000000
0.000000
0.962029
1.549008
0.000000
0.391133
0.000000
0.000000
0.000000
0.000000
0.000000
0.000000
0.000000
0.433530
0.000000
0.506563
0.215051
0.000000
0.000000
0.000000
0.000000
0.000000
0.056324
0.000000
0.991381
0.174746
0.482656
0.000000
0.000000
0.000000
0.000000
0.000000
0.001964
0.000000
0.011745
0.000000
0.000000
0.000000
0.000000
0.000000
0.000000
1.240994
0.000000
0.000000
0.000000
0.000000
0.000000
0.000000
0.000000
0.000000
1.155498
0.271045
0.000000
0.586803
0.000000
0.000000
0.000000
0.000000
0.258900
0.348544
0.000000
0.000000
0.000000
0.961322
0.000000
0.000000
0.000000
0.000000
0.000000
0.000000
0.090475
0.933560
0.000000
0.000000
0.000000
0.000000
0.000000
0.163386
0.000000
0.000000
0.000000
0.000000
0.000000
0.000000
0.000000
0.000000
0.000000
0.000000
0.000000
0.000000
0.000000
0.000000
0.000000
2.380075
0.000000
1.162474
0.000000
0.000000
0.000000
0.000000
0.000000
0.816205
0.000000
0.794882
0.344285
0.000000
0.000000
0.000000
0.000000
0.264043
0.000000
0.000000
0.000000
0.102170
1.385909
1.199140
0.000000
0.000000
0.000000
0.000000
0.000000
0.385134
0.051697
0.000000
0.000000
0.000000
0.000000
0.000000
0.000000
0.000000
0.000000
1.037702
0.000000
0.000000
0.000000
0.000000
0.000000
0.000000
0.000000
0.000000
0.012923
0.000000
0.000000
0.000000
1.067181
0.116500
0.000000
0.254722
0.000000
0.000000
0.000000
0.474174
0.000000
0.126206
0.000000
0.000000
0.000000
0.000000
0.000000
0.027127
0.000000
0.000000
1.044393
0.000000
0.036467
0.032212
0.000000
0.000000
0.512345
0.000000
0.000000
1.216929
0.000000
0.000000
0.000000
0.000000
0.000000
0.000000
0.000000
0.000000
0.000000
0.000000
0.000000
1.122081
0.000000
0.000000
1.309182
0.085099
0.000000
0.000000
0.000000
0.000000
0.000000
0.000000
0.000000
0.000000
0.000000
0.126778
0.000000
0.000000
0.000000
0.313810
0.671449
0.181605
0.000000
0.000000
0.000000
0.405592
0.114732
0.000000
0.000000
0.000000
0.000000
0.175598
0.000000
0.208438
0.000000
0.000000
0.000000
0.000000
0.000000
0.000000
0.000000
0.000000
1.769874
0.000000
0.447524
0.000000
0.135916
0.353897
0.000000
0.000000
0.000000
1.076509
0.000000
0.117290
2.721611
0.000000
0.624913
0.000000
0.000000
0.000000
0.000000
0.000000
0.000000
0.000000
0.052380
0.000000
0.000000
0.860091
0.000000
0.984826
0.000000
0.000000
0.000000
0.000000
0.000000
0.000000
0.000000
0.637016
0.992852
0.000000
0.000000
0.000000
0.083629
0.263827
1.017259
0.034553
0.000000
0.000000
0.000000
0.000000
1.095868
0.000000
0.000000
0.000000
0.000000
0.000000
0.000000
0.072735
0.346710
0.000000
0.000000
0.000000
0.000000
0.000000
0.000000
0.000000
0.000000
0.000000
0.932930
0.000000
0.683074
0.000000
0.000000
0.000000
1.906483
0.000000
0.000000
0.096359
0.000000
0.000000
0.000000
0.000000
0.000000
0.556532
0.000000
0.000000
0.000000
0.107467
0.009140
0.356003
0.000000
0.035937
0.000000
0.000000
0.000000
0.684230
