0.000000
0.000000
0.000000
0.000000
0.000000
0.000000
0.129715
0.386699
0.000000
0.000000
0.000000
0.000000
0.492490
1.609018
0.000000
0.042153
0.000000
0.954607
0.000000
0.451294
0.000000
0.000000
0.000000
0.000000
0.000000
0.176672
0.000000
1.055649
0.000000
0.000000
0.000000
0.000000
0.000000
0.000000
1.578992
0.000000
0.000000
0.000000
0.000000
0.000000
0.000000
0.000000
0.000000
0.000000
0.000000
0.000000
0.000000
0.000000
0.518072
0.000000
0.000000
0.000000
0.000000
0.000000
0.000000
0.000000
0.000000
0.000000
0.000000
0.000000
0.000000
0.000000
0.000000
0.000000
0.211491
0.000000
0.000000
0.631939
0.000000
0.000000
0.000000
0.000000
0.000000
0.000000
0.000000
0.126909
0.000000
0.299025
0.000000
0.000000
0.000000
0.000000
0.000000
0.000000
0.000000
0.376306
2.389812
0.000000
0.000000
0.000000
0.000000
0.000000
0.000000
0.000000
2.234931
0.000000
0.000000
0.000000
0.022953
0.000000
0.000000
0.000000
0.000000
0.000000
0.000000
1.830491
0.000000
0.000000
0.028467
0.000000
0.000000
2.058989
0.000000
0.000000
0.000000
0.000000
0.488078
0.000000
0.000000
0.000000
0.000000
0.000000
0.000000
0.000000
0.134786
0.000000
0.193575
0.000000
0.000000
0.000000
0.251528
0.154718
0.000000
0.000000
0.000000
0.169849
0.000000
0.000000
0.000000
0.000000
0.763160
0.000000
1.382115
0.000000
0.000000
0.000000
0.225462
0.000000
0.000000
0.000000
0.000000
0.000000
0.000000
0.467562
3.211595
0.421984
0.000000
0.000000
1.615914
0.000000
0.131734
0.281544
0.000000
0.000000
0.000000
1.603894
0.000000
0.000000
0.000000
0.000000
0.709640
0.000000
0.000000
1.221726
0.000000
0.000000
0.000000
0.000000
0.000000
0.000000
0.000000
0.000000
0.000000
0.835646
0.000000
0.000000
0.000000
0.000000
0.000000
0.000000
0.000000
0.000000
0.828608
2.199713
0.389929
0.000000
0.000000
0.000000
0.000000
0.901227
0.000000
0.000000
0.000000
0.000000
0.030724
0.260138
1.738548
0.052129
0.000000
0.000000
0.000000
0.000000
0.000000
0.000000
0.000000
0.000000
0.000000
0.000000
0.000000
0.000000
0.000000
0.000000
0.000000
0.000000
0.000000
0.000000
0.177515
0.000000
0.000000
0.000000
1.463288
0.000000
0.000000
0.000000
0.000000
0.000000
0.000000
0.000000
0.000000
0.000000
0.000000
0.000000
0.000000
0.000000
0.000000
0.000000
0.000000
1.279702
0.000000
0.263833
0.000000
0.000000
0.000000
0.000000
0.284946
0.000000
1.204218
1.905729
0.000000
0.000000
0.000000
0.000000
0.000000
0.000000
1.167433
0.070540
1.290017
0.000000
0.000000
0.000000
0.000000
0.000000
0.000000
0.000000
0.901005
0.000000
0.000000
0.000000
0.000000
0.000000
0.000000
0.000000
0.000000
0.000000
0.000000
0.000000
0.628829
0.000000
0.000000
0.000000
0.000000
0.350798
0.887700
0.000000
0.000000
0.000000
0.000000
0.000000
0.000000
0.000000
0.000000
0.166210
0.911236
0.000000
0.000000
0.000000
0.000000
0.000000
0.221016
0.000000
0.000000
0.000000
0.000000
0.000000
0.976694
0.000000
0.375689
0.000000
0.000000
0.000000
0.000000
0.000000
0.000000
0.000000
0.000000
0.000000
0.000000
0.537264
0.000000
0.075691
0.000000
0.000000
0.000000
0.000000
0.000000
0.000000
0.000000
0.000000
0.000000
0.000000
0.462755
1.719362
0.000000
0.276309
0.000000
0.000000
0.000000
0.000000
0.000000
0.000000
0.311949
0.000000
0.000000
0.000000
0.036149
0.302231
0.000000
0.000000
0.000000
0.474314
3.134894
0.719956
0.000000
0.351673
0.000000
0.000000
0.000000
0.000000
0.000000
0.000000
0.513251
1.167148
0.000000
0.000000
0.000000
0.000000
0.793009
0.000000
0.000000
0.029656
1.581787
0.000000
0.000000
1.163071
0.000000
0.000000
0.043269
0.000000
0.000000
0.170568
0.487185
0.000000
0.000000
0.136717
0.000000
0.000000
0.000000
0.000000
0.000000
0.000000
0.423037
0.000000
0.000000
0.000000
0.000000
0.000000
1.843333
0.000000
0.000000
0.000000
0.000000
0.000000
0.000000
0.000000
0.000000
0.041061
0.000000
0.000000
0.284334
0.000000
0.000000
0.000000
0.026268
0.000000
0.000000
0.000000
0.000000
0.000000
0.000000
0.000000
0.000000
0.000000
0.000000
0.000000
0.000000
0.000000
0.000000
0.059154
2.795075
0.214136
0.000000
1.564187
0.000000
0.000000
0.000000
0.000000
0.000000
0.000000
0.000000
0.000000
0.000000
0.000000
0.000000
0.000000
0.598417
0.000000
0.000000
0.000000
0.000000
0.211078
0.000000
0.000000
2.423583
0.000000
0.584095
0.000000
0.190090
0.000000
0.000000
0.000000
0.000000
0.000000
0.000000
0.000000
0.000000
0.000000
0.000000
0.000000
0.000000
0.000000
0.000000
0.000000
0.000000
0.000000
0.000000
0.000000
0.000000
0.000000
0.000000
0.236939
0.000000
0.000000
0.000000
0.000000
0.000000
0.165357
0.000000
1.867850
0.482013
0.008600
