0.000000
0.143955
0.000000
0.000000
0.000000
0.780555
0.000000
0.000000
1.180982
0.000000
0.000000
0.000000
1.945404
2.866610
0.000000
0.000000
0.000000
0.004545
0.000000
0.000000
1.259005
0.053789
0.000000
0.000000
0.000000
0.000000
0.000000
2.417602
0.000000
0.000000
0.000000
1.091673
0.000000
0.000000
0.142055
0.099717
0.000000
0.000000
0.000000
0.000000
0.000000
0.000000
0.000000
0.000000
0.000000
0.000000
0.706380
0.000000
0.240519
0.000000
0.000000
0.000000
0.000000
0.063855
0.000000
0.000000
0.000000
0.192587
0.000000
0.801438
0.000000
0.018922
0.375951
0.368453
0.000000
0.000000
0.000000
0.000000
0.000000
0.000000
0.000000
0.000000
0.000000
0.000000
0.000000
1.615265
0.000000
0.000000
0.000000
0.000000
0.715307
0.000000
0.000000
0.893925
0.000000
0.314609
0.000000
0.000000
0.000000
0.000000
0.000000
1.323272
0.000000
0.000000
0.000000
0.000000
0.000000
0.000000
0.000000
0.436429
0.875360
0.278595
0.000000
0.301548
0.000000
0.000000
0.000000
0.000000
0.000000
0.628104
0.000000
0.849049
0.000000
0.769571
0.000000
0.000000
0.890499
0.000000
0.000000
0.000000
0.000000
0.000000
0.000000
0.000000
0.235329
0.000000
0.000000
0.686951
0.000000
0.000000
0.000000
0.000000
0.000000
0.000000
0.000000
0.251575
0.000000
0.085919
0.553944
1.003852
0.000000
0.000000
1.608313
1.148819
0.000000
0.000000
0.000000
0.000000
0.033744
0.000000
0.000000
0.000000
0.000000
0.000000
1.015071
0.000000
0.000000
0.000000
0.373938
0.000000
0.665834
0.000000
0.041619
0.000000
0.000000
0.000000
0.000000
0.000000
0.000000
0.000000
0.173203
0.000000
1.273445
0.034894
0.000000
0.000000
0.000000
0.000000
0.000000
0.049752
0.000000
0.103044
0.000000
0.000000
0.000000
0.000000
0.137008
0.000000
0.000000
0.000000
0.000000
0.000000
0.000000
2.484209
0.000000
0.000000
0.000000
0.000000
0.000000
0.000000
0.000000
0.000000
0.000000
0.000000
1.525492
0.000000
0.473430
1.031529
0.000000
0.000000
0.000000
0.000000
0.140356
0.387587
0.000000
0.000000
0.000000
0.024007
0.000000
0.000000
0.000000
0.000000
0.000000
0.000000
0.112801
0.000000
0.000000
0.000000
0.000000
0.000000
0.000000
0.000000
0.000000
0.761728
0.000000
2.134904
0.000000
0.912700
0.154249
0.000000
0.000000
0.000000
1.661913
0.000000
0.155657
0.000000
0.000000
0.293483
0.000000
0.000000
0.000000
0.000000
0.000000
0.000000
0.000000
0.000000
0.000000
0.000000
0.000000
0.000000
0.000000
0.000000
0.000000
0.000000
0.000000
0.000000
1.826797
0.000000
0.000000
0.000000
0.000000
0.000000
0.000000
0.000000
0.582077
0.000000
0.000000
0.688050
0.000000
0.000000
0.008140
0.000000
0.000000
0.000000
0.000000
0.000000
0.000000
0.000000
0.000000
0.355982
0.000000
0.157462
0.000000
0.000000
0.007421
0.000000
0.000000
0.000000
0.000000
0.000000
0.000000
0.000000
0.000000
0.924147
0.464673
0.000000
0.000000
0.000000
0.000000
0.000000
0.039275
0.000000
0.282353
0.000000
0.000000
0.000000
0.000000
0.000000
0.000000
0.000000
0.000000
0.000000
0.000000
0.104483
0.000000
0.000000
0.000000
0.335826
0.000000
1.367483
0.140372
0.000000
0.000000
0.000000
0.000000
0.000000
0.034933
0.000000
0.000000
0.000000
0.597152
0.000000
0.000000
0.498029
0.000000
0.000000
0.000000
0.012622
0.000000
0.000000
0.100591
0.000000
0.000000
0.000000
0.000000
0.000000
0.000000
0.000000
0.000000
0.000000
2.205189
0.206809
0.000000
0.341979
0.000000
0.000000
0.000000
0.000000
0.471106
0.481146
0.000000
0.058815
0.000000
0.000000
0.000000
0.000000
0.000000
0.000000
0.000000
0.816199
0.000000
0.000000
0.000000
0.794344
0.412542
0.116167
0.233304
0.846766
0.000000
0.028328
0.000000
0.000000
0.000000
0.000000
0.000000
1.368801
0.000000
0.000000
0.000000
0.000000
0.232454
1.323146
0.000000
0.000000
0.000000
0.054021
0.502983
0.000000
0.403500
0.000000
0.000000
0.000000
0.000000
0.000000
0.000000
0.000000
0.000000
1.571523
0.687770
0.000000
0.000000
0.000000
0.000000
0.000000
0.000000
0.000000
0.000000
0.000000
0.000000
0.000000
0.000000
0.684174
0.205672
0.000000
0.772332
0.000000
0.181099
0.000000
1.044506
0.000000
0.000000
0.000000
2.099339
0.000000
0.000000
0.000000
0.000000
0.000000
0.335577
0.141055
0.000000
0.000000
0.000000
0.277726
0.000000
0.000000
0.000000
0.000000
0.000000
0.723394
0.116810
0.267196
2.257911
0.175632
1.782390
0.000000
0.000000
0.000000
0.000000
0.000000
0.000000
0.000000
0.885018
0.000000
1.000151
0.000000
0.000000
0.000000
0.443841
0.000000
0.000000
0.000000
0.000000
0.000000
0.000000
0.000000
0.000000
3.084869
0.000000
0.000000
0.000000
0.000000
0.000000
0.488755
0.019433
0.866770
0.000000
1.269292
0.089197
0.664304
