0.159249
0.914912
0.047709
0.089923
0.000000
0.462140
0.000000
0.465508
0.000000
0.083743
0.000000
0.000000
0.842875
0.000000
0.000000
0.499020
0.000000
0.000000
1.142918
0.000000
0.000000
0.018307
0.000000
0.000000
0.592241
0.000000
0.000000
0.000000
0.000000
0.000000
0.210913
0.000000
0.000000
0.087741
0.000000
0.000000
0.000000
0.000000
0.000000
0.000000
1.016246
0.196459
0.000000
0.000000
0.000000
0.000000
0.593103
0.000000
0.578673
1.445853
0.000000
1.402961
0.432757
0.040823
0.000000
0.925061
0.000000
0.000000
0.000000
1.384565
0.192022
0.113151
0.000000
0.451556
0.000000
0.000000
0.000000
0.921746
0.000000
0.575897
0.624310
0.000000
0.000000
0.216552
0.000000
0.000000
0.000000
0.000000
0.000000
0.467317
0.481148
0.233232
0.000000
0.302339
0.000000
1.466130
0.000000
0.000000
0.000000
0.000000
0.000000
0.000000
0.000000
0.000000
0.000000
0.000000
0.272853
0.000000
0.000000
0.335819
0.000000
0.000000
0.539372
0.000000
0.090403
0.000000
0.000000
0.000000
0.052256
0.012529
0.000000
0.000000
0.000000
0.000000
0.000000
0.000000
0.000000
0.000000
0.000000
0.000000
0.164109
0.000000
0.000000
1.236590
0.000000
0.000000
0.872506
0.000000
0.000000
0.000000
0.659523
0.000000
0.000000
0.000000
0.977315
0.000000
0.071214
0.000000
0.584072
0.359111
0.000000
0.425075
3.102959
0.000000
0.307697
0.000000
0.000000
0.116419
0.298072
0.000000
0.000000
0.988836
0.000000
0.370284
1.519852
0.000000
0.000000
1.530271
1.386464
0.000000
0.000000
0.000000
0.311837
0.000000
0.000000
0.879867
0.000000
0.000000
0.105150
0.000000
0.307802
0.000000
0.000000
0.000000
0.000000
0.000000
0.000000
0.000000
1.470787
0.000000
0.000000
0.000000
0.000000
0.934793
0.000000
0.000000
0.435792
0.475172
0.000000
0.000000
0.000000
0.000000
0.000000
0.320947
0.742473
0.000000
0.000000
0.000000
0.000000
0.000000
0.000000
0.000000
0.266932
0.000000
0.000000
0.254416
0.000000
3.024273
0.000000
0.000000
0.000000
0.000000
0.000000
0.040908
0.000000
0.000000
0.000000
0.000000
0.000000
0.000000
0.371652
0.000000
0.000000
0.000000
0.000000
0.000000
1.778889
0.000000
0.000000
0.000000
0.994238
0.000000
0.000000
0.000000
0.000000
0.000000
0.000000
0.000000
0.000000
0.000000
0.000000
0.000000
0.048441
0.379224
0.082195
0.000000
1.645935
0.674120
0.000000
0.000000
0.000000
0.000000
0.000000
0.000000
0.000000
0.000000
0.000000
0.531937
0.000000
0.000000
0.000000
0.000000
0.000000
0.000000
0.000000
0.000000
0.000000
0.839504
0.000000
0.000000
0.164347
0.000000
0.000000
0.000000
0.000000
0.000000
0.000000
0.186406
0.000000
0.000000
0.000000
0.000000
0.220150
0.000000
0.000000
0.000000
0.000000
0.000000
0.000000
0.000000
0.000000
0.000000
0.170303
0.000000
0.507581
0.000000
0.523279
0.000000
0.219560
0.000000
0.000000
0.000000
0.063794
0.000000
0.000000
0.000000
0.000000
0.000000
0.114727
0.000000
0.001589
0.000000
0.621926
0.000000
0.000000
0.000000
0.034599
0.296516
0.000000
0.000000
0.000000
0.000000
1.110201
0.000000
0.000000
0.000000
0.437411
0.000000
0.000000
0.000000
0.000000
0.000000
0.000000
0.000000
0.408230
0.000000
0.315883
1.897709
0.000000
0.000000
2.283709
0.000000
0.000000
0.000000
0.000000
0.000000
0.000000
0.096548
0.000000
0.100940
0.000000
0.000000
0.175924
0.263795
0.000000
0.000000
0.000000
0.000000
0.000000
0.000000
0.000000
0.000000
0.000000
0.000000
0.000000
0.000000
0.000000
0.000000
0.000000
0.000000
0.000000
1.293190
0.000000
0.000000
0.000000
0.000000
0.000000
0.000000
0.182266
0.000000
0.000000
0.000000
0.000000
0.000000
0.000000
0.000000
0.309041
0.044870
0.000000
0.889024
0.000000
0.000000
0.806530
0.000000
0.000000
0.000000
0.274316
0.000000
0.000000
0.000000
0.000000
0.098480
0.000000
0.000000
0.000000
0.000000
0.000000
0.000000
0.000000
0.000000
0.000000
0.000000
0.000000
0.277472
0.000000
0.000000
0.112499
0.000000
0.000000
0.000000
0.262996
0.000000
1.024224
0.000000
0.000000
0.000000
0.000000
0.000000
0.000000
0.000000
0.000000
0.000000
0.070055
0.112659
0.000000
0.000000
0.000000
0.000000
0.379048
0.000000
0.000000
0.000000
0.000000
0.000000
0.000000
0.000000
0.003756
0.000000
3.148560
0.000000
0.000000
0.000000
0.000000
1.922321
0.000000
0.695796
0.000000
0.186388
0.273142
0.000000
0.000000
0.185980
0.000000
0.796637
0.000000
0.000000
0.000000
0.000000
0.000000
0.000000
0.066748
0.000000
0.000000
0.000000
0.210991
0.296322
0.000000
0.000000
0.126957
0.000000
1.586513
0.017795
0.000000
0.355512
0.000000
0.000000
0.148782
0.220770
0.000000
0.000000
0.000000
0.000000
0.000000
0.112469
0.281077
0.000000
0.000000
0.931896
0.000000
0.377129
