0.000000
0.000000
0.000000
0.000000
0.000000
0.000000
0.000000
0.000000
0.000000
0.000000
0.000000
0.000000
0.000000
0.738459
0.562847
0.000000
0.000000
3.384235
0.000000
0.000000
0.000000
0.000000
0.127409
0.000000
0.000000
0.000000
0.000000
0.973737
0.000000
0.000000
0.000000
0.910942
0.000000
0.000000
0.000000
0.000000
0.000000
0.000000
0.000000
0.000000
0.000000
0.000000
0.000000
0.000000
0.000000
0.000000
0.000000
0.000000
0.000000
0.000000
0.000000
0.000000
0.000000
1.077920
0.692849
0.000000
0.000000
0.409172
0.000000
0.000000
0.000000
0.000000
0.000000
0.000000
0.000000
0.000000
0.000000
0.000000
0.000000
0.000000
0.212269
0.000000
0.000000
0.000000
0.000000
0.685512
0.000000
0.153622
0.000000
0.000000
0.000000
0.000000
0.000000
0.000000
0.000000
0.000000
2.194025
0.000000
0.000000
0.000000
0.000000
0.512208
0.000000
0.247114
1.801026
0.000000
0.000000
0.000000
0.000000
0.000000
0.689503
0.094497
0.000000
0.000000
0.000000
0.298060
0.000000
0.000000
0.111359
0.000000
0.000000
0.825229
0.000000
0.187612
0.000000
0.000000
0.863319
0.000000
0.000000
0.248410
0.000000
0.000000
0.000000
0.000000
0.080687
0.000000
0.000000
0.000000
0.000000
0.000000
0.000000
0.972572
0.000000
0.000000
0.000000
0.287860
0.000000
0.000000
0.000000
0.000000
0.924391
0.000000
0.304427
1.762206
0.000000
0.000000
0.000000
0.000000
0.298179
0.000000
0.000000
0.000000
0.000000
1.472441
1.531726
0.312994
0.000000
0.000000
0.000000
0.174744
0.000000
0.000000
0.000000
0.000000
0.000000
0.000000
0.000000
0.000000
0.000000
0.000000
0.000000
0.000000
0.000000
1.067453
0.000000
0.000000
0.000000
0.000000
0.000000
1.308146
0.000000
0.000000
0.000000
1.062655
0.000000
0.000000
0.229778
0.000000
0.182187
0.000000
0.000000
0.000000
0.000000
0.030401
0.030084
0.861823
0.000000
0.000000
0.000000
0.494477
0.000000
0.000000
0.000000
0.000000
0.000000
0.000000
5.011736
0.000000
0.000000
0.000000
0.000000
0.666400
0.390166
0.000000
0.000000
0.000000
0.000000
0.000000
0.000000
0.000000
0.000000
0.000000
0.000000
0.000000
0.000000
0.000000
0.000000
0.000000
0.000000
0.000000
0.000000
0.000000
0.000000
0.147027
0.000000
0.000000
0.000000
0.497109
0.000000
0.000000
0.000000
0.000000
0.619419
0.000000
0.000000
0.617943
0.505929
0.323745
0.000000
0.000000
0.000000
0.000000
0.000000
0.000000
0.257540
0.000000
0.000000
1.647040
0.000000
0.000000
0.000000
0.000000
0.000000
0.000000
1.131730
0.757187
0.939389
0.000000
0.000000
0.000000
1.003311
0.000000
0.000000
0.000000
0.605837
0.000000
0.000000
0.085953
1.563674
0.000000
0.000000
0.000000
0.000000
0.000000
0.000000
0.000000
0.437782
0.000000
0.000000
0.369154
0.000000
0.000000
0.000000
0.000000
0.000000
0.000000
0.000000
0.306176
0.000000
0.000000
0.000000
0.420816
0.854775
0.000000
0.143639
0.000000
0.000000
0.000000
0.109964
1.943992
0.000000
0.000000
0.000000
0.000000
0.135368
0.000000
0.376690
0.000000
0.000000
0.000000
0.000000
0.000000
0.000000
0.000000
0.000000
0.000000
0.000000
1.242796
0.000000
1.226465
0.751618
0.000000
0.000000
0.013031
0.000000
0.000000
0.000000
0.000000
0.000000
0.000000
0.000000
1.286450
0.000000
1.871004
0.000000
0.070832
0.000000
0.000000
0.000000
0.000000
0.000000
0.000000
0.000000
0.000000
0.685817
0.000000
0.000000
0.000000
0.000000
0.000000
1.263341
0.309770
0.000000
0.332590
0.000000
0.235921
0.000000
0.000000
0.528879
0.622162
0.357755
0.419542
0.000000
0.000000
0.000000
0.000000
0.981112
0.000000
0.000000
0.584150
0.583078
0.000000
0.000000
0.325421
0.000000
0.022346
0.000000
0.000000
0.000000
0.023504
0.754036
0.000000
0.000000
0.062448
0.000000
0.000000
0.000000
0.000000
0.000000
0.000000
0.000000
0.000000
0.000000
0.000000
0.000000
0.000000
1.030072
0.000000
0.000000
0.000000
0.000000
0.676943
0.000000
0.000000
0.547952
0.052960
0.000000
0.000000
1.292496
0.000000
0.000000
0.000000
0.156465
0.000000
0.000000
0.000000
0.000000
0.000000
0.000000
0.000000
0.000000
2.151532
0.182788
0.000000
0.045959
0.000000
0.000000
0.000000
1.482533
0.000000
0.000000
0.169015
0.000000
0.000000
0.000000
0.372146
0.000000
0.000000
0.000000
0.000000
0.000000
0.000000
0.000000
0.568835
0.000000
0.000000
0.000000
0.000000
0.000000
1.708298
0.000000
0.000000
0.871339
0.000000
1.111639
0.000000
0.203448
0.000000
0.000000
0.000000
0.000000
0.000000
0.737199
0.000000
0.000000
0.000000
0.000000
0.000000
0.000000
0.019528
0.000000
0.000000
0.000000
0.000000
0.000000
0.000000
0.760166
0.000000
0.000000
0.809586
0.000000
0.000000
0.000000
0.000000
0.000000
0.086798
0.000000
2.247833
0.000000
0.000000
