0.152087
0.761909
0.000000
0.000000
0.074685
1.331738
0.000000
0.432360
0.000000
0.000000
0.000000
0.000000
0.118048
0.000000
0.000000
0.441607
0.000000
0.000000
0.399549
0.000000
0.492540
0.000000
0.000000
0.000000
0.573264
0.000000
0.000000
0.000000
0.433670
0.000000
0.000000
0.000000
0.022116
0.000000
0.270786
0.000000
0.000000
0.000000
0.000000
0.000000
0.517572
0.125911
0.000000
0.000000
0.000000
0.000000
0.542345
0.000000
0.859195
0.021138
0.000000
0.042170
0.000000
0.000000
0.000000
0.441617
0.084320
0.000000
0.000000
0.000000
0.275130
0.054286
0.000000
0.402192
0.000000
0.000000
0.000000
0.721973
0.000000
0.000000
0.374556
0.000000
0.000000
0.000000
0.000000
0.000000
0.000000
0.000000
0.000000
0.841923
0.104222
0.000000
0.000000
0.000000
0.000000
0.757673
0.619166
0.000000
0.000000
0.000000
0.000000
0.000000
0.000000
0.183184
0.000000
0.000000
0.000000
0.000000
0.000000
0.063937
0.000000
0.000000
0.000000
0.000000
0.000000
0.145893
0.000000
0.000000
0.385272
0.000000
0.000000
0.030675
0.000000
0.000000
0.000000
0.000000
0.000000
0.000000
0.000000
0.000000
0.000000
0.000000
0.019835
0.591752
0.050946
0.000000
0.000000
0.000000
0.000000
0.000000
0.448744
0.000000
0.000000
0.000000
0.105020
0.000000
0.016280
0.000000
0.000000
0.509271
0.000000
0.184326
1.129954
0.000000
0.000000
0.000000
0.000000
0.019845
0.034462
0.000000
0.000000
0.000000
0.000000
0.561227
0.981554
1.151886
0.000000
0.694508
0.330579
0.000000
0.000000
0.022148
0.000000
0.000000
0.000000
0.000000
0.000000
0.000000
0.000000
0.000000
0.197273
0.000000
0.000000
0.000000
0.000000
0.000000
0.000000
0.000000
0.000000
0.000000
0.307204
0.000000
0.000000
1.035888
0.470243
0.000000
0.244006
0.000000
0.155855
0.000000
0.000000
0.000000
0.000000
0.495209
0.500927
0.000000
0.000000
0.000000
0.000000
0.185379
0.000000
0.000000
0.016427
0.000000
0.056651
0.000000
0.000000
1.574369
0.000000
0.000000
0.000000
1.223835
0.000000
0.000000
0.000000
0.000000
0.000000
0.000000
0.000000
0.000000
0.340926
0.000000
0.000000
0.000000
0.000000
0.000000
1.411600
0.000000
0.000000
0.000000
0.071416
0.000000
0.000000
0.000000
0.000000
0.000000
0.000000
0.783652
0.103440
0.000000
0.000000
0.000000
0.000000
0.000000
0.436222
0.000000
0.331600
0.000000
0.000000
0.332514
0.000000
0.000000
0.000000
0.000000
0.000000
0.000000
0.079632
0.000000
0.000000
0.000000
0.000000
0.000000
0.000000
0.000000
0.000000
0.000000
0.073093
0.041023
0.000000
0.162997
0.000000
0.452070
0.000000
0.000000
0.000000
0.000000
0.000000
0.000000
0.000000
0.000000
0.000000
0.000000
0.080407
0.000000
0.000000
0.000000
0.000000
0.000000
0.000000
0.000000
0.000000
0.000000
0.000000
0.021358
0.450060
0.354028
0.000000
0.045295
0.361002
0.000000
0.000000
0.185414
0.208752
0.000000
0.201932
0.000000
0.000000
0.000000
0.942163
0.000000
0.000000
0.000000
0.853660
0.000000
0.857945
0.000000
0.000000
0.220871
0.000000
0.005843
0.000000
0.000000
0.614646
0.000000
0.000000
0.000000
0.192024
0.000000
0.000000
0.088089
0.000000
0.000000
0.000000
0.000000
0.000000
0.000000
0.110854
0.993016
0.000000
0.000000
1.593652
0.000000
0.000000
0.000000
0.006329
0.000000
0.000000
0.023009
0.000000
0.000000
0.000000
0.000000
0.147528
0.152678
0.000000
0.153054
0.000000
0.000000
0.000000
0.000000
0.000000
0.000000
0.000000
0.000000
0.512448
0.000000
0.000000
0.000000
0.380154
0.228443
0.000000
0.800462
0.000000
0.000000
0.000000
0.000000
0.000000
0.000000
0.000000
0.000000
0.000000
1.000160
0.000000
0.000000
0.000000
0.000000
0.603978
0.102461
0.000000
0.967813
0.000000
0.000000
0.424258
0.000000
0.000000
0.000000
0.200240
0.002964
0.000000
0.000000
0.000000
0.000000
0.000000
0.000000
0.000000
0.000000
0.001301
0.000000
0.000000
0.000000
0.000000
0.000000
0.000000
0.000000
0.000000
0.009792
0.000000
0.066638
0.000000
0.000000
0.000000
0.000000
0.000000
0.000000
0.000000
0.000000
0.000000
0.000000
0.000000
0.000000
0.000000
0.000000
0.000000
0.137797
0.142825
0.000000
0.000000
0.055969
0.374611
0.000000
0.000000
0.000000
0.118065
0.082471
0.000000
0.347352
0.000000
0.135259
2.629618
0.000000
0.000000
0.000000
0.000000
0.696873
0.000000
0.199608
0.000000
0.099299
0.000000
0.000000
0.022595
0.763002
0.000000
0.115952
0.097963
0.000000
0.000000
0.000000
0.000000
0.000000
0.668578
0.000000
0.000000
0.000000
0.000000
0.000000
0.000000
0.000000
0.000000
0.038808
0.063721
0.000000
0.000000
0.008540
0.000000
0.000000
0.000000
0.000000
0.000000
0.026500
0.000000
0.000000
0.000000
0.000000
0.000000
0.834778
0.000000
1.279580
0.144800
0.425165
