0.000000
0.000000
0.000000
0.000000
0.000000
0.000000
0.000000
0.000000
0.000000
0.004438
0.000000
0.000000
0.000000
0.733621
1.780504
0.000000
0.000000
1.545353
0.000000
0.000000
0.000000
0.000000
0.000000
0.216820
0.000000
0.138571
0.612094
0.000000
0.000000
0.000000
0.000000
0.211619
0.000000
0.000000
0.000000
0.000000
0.000000
0.044381
0.000000
0.766264
0.000000
0.000000
0.598088
0.643429
0.000000
0.000000
0.000000
0.000000
0.000000
0.000000
0.558318
0.000000
0.000000
0.000000
0.987469
1.581560
0.000000
0.000000
0.000000
0.309454
0.000000
0.008627
0.000000
0.000000
0.000000
0.000000
0.223564
0.024393
0.000000
0.677125
0.139742
0.014520
0.000000
0.000000
0.546548
0.000000
0.000000
0.061955
0.108996
0.000000
0.000000
0.000000
0.000000
0.000000
0.000000
0.000000
0.141981
0.000000
0.000000
0.000000
0.000000
0.000000
0.135088
0.000000
0.970709
0.000000
0.445664
0.099682
0.000000
0.000000
0.000000
0.000000
0.168189
0.000000
0.000000
0.107497
0.000000
0.000000
0.257616
0.000000
0.000000
0.000000
0.000000
0.232155
0.000000
0.000000
0.000000
0.000000
0.000000
0.472074
0.000000
0.000000
0.000000
0.000000
0.000000
0.000000
0.000000
0.000000
0.000000
0.000000
0.000000
0.830381
0.000000
0.000000
0.000000
0.000000
0.000000
0.000000
0.000000
0.000000
0.214598
0.000000
0.000000
1.140132
0.000000
0.000000
0.061607
0.000000
0.000000
0.000000
0.423272
0.000000
0.000000
1.485110
0.309211
0.246455
1.503382
0.000000
0.000000
1.472869
0.955955
0.000000
0.000000
0.000000
1.514485
0.000000
0.000000
0.000000
0.000000
0.000000
0.000000
0.000000
0.000000
0.221866
0.000000
0.000000
0.000000
0.000000
0.239950
0.000000
1.063400
2.082911
0.000000
0.318651
0.000000
0.000000
0.964889
0.000000
0.184044
0.000000
0.000000
0.000000
0.605137
0.000000
0.000000
0.000000
0.000000
0.000000
0.167783
0.000000
0.000000
0.000000
0.000000
0.000000
0.000000
0.000000
0.400460
0.000000
0.000000
0.000000
0.210281
0.478596
0.000000
0.195052
0.000000
0.000000
0.000000
0.000000
0.000000
0.000000
0.000000
0.000000
0.000000
0.000000
0.000000
0.000000
0.000000
0.000000
0.000000
0.000000
0.317718
0.000000
0.202839
0.000000
0.000000
0.000000
0.000000
0.000000
0.000000
0.127632
0.000000
0.000000
0.000000
1.167400
0.000000
0.806478
0.667787
0.000000
0.000000
0.040629
0.000000
0.197165
0.000000
0.000000
0.316107
0.000000
0.262136
0.000000
0.000000
0.000000
0.000000
0.000000
0.000000
0.000000
0.000000
0.000000
0.000000
1.466839
0.156877
2.636751
0.000000
0.326131
1.062646
0.000000
0.000000
0.000000
0.000000
0.000000
0.000000
0.146488
0.000000
0.017688
0.000000
0.000000
1.958564
0.000000
0.174827
0.000000
0.000000
0.000000
0.000000
0.000000
0.000000
0.174690
0.000000
0.144505
0.000000
0.000000
0.155722
0.000000
0.000000
0.000000
0.000000
0.000000
0.677035
0.000000
0.000000
0.000000
0.000000
1.498066
0.000000
0.764691
0.430004
0.000000
0.465831
0.000000
0.184601
0.000000
0.000000
0.341103
0.362446
0.000000
0.000000
0.131610
0.000000
0.000000
0.000000
0.107200
0.069561
0.000000
0.000000
0.000000
0.000000
0.676512
0.000000
0.000000
0.000000
0.000000
0.000000
0.000000
0.000000
0.000000
0.000000
0.296275
0.000000
1.880002
0.000000
0.000000
0.000000
0.000000
0.000000
0.000000
0.498784
0.691806
0.041840
0.000000
0.000000
0.000000
0.940620
0.000000
1.823864
0.000000
0.043925
0.000000
1.728698
0.000000
0.000000
0.000000
0.000000
0.000000
0.062937
0.000000
0.000000
0.000000
0.272459
0.000000
0.181604
0.000000
0.081016
0.000000
0.536626
0.411634
0.117930
0.000000
0.250921
0.000000
0.000000
0.000000
0.078558
0.000000
0.316868
0.000000
0.439977
0.000000
0.000000
0.000000
0.000000
0.000000
0.000000
0.000000
0.000000
0.000000
0.915175
0.000000
0.000000
0.000000
0.000000
2.075687
0.000000
0.000000
0.000000
0.000000
0.580429
0.000000
1.115507
0.000000
0.051732
0.000000
0.409537
0.000000
0.186156
0.000000
0.805142
0.000000
0.000000
0.498522
0.000000
0.000000
0.000000
1.182091
0.000000
0.717769
0.074041
0.000000
0.000000
0.000000
0.000000
0.000000
0.000000
0.082284
0.000000
0.059165
0.000000
0.000000
0.654881
0.956100
0.000000
0.000000
0.000000
0.000000
0.000000
0.349940
0.000000
1.684717
0.045471
0.000000
0.000000
0.000000
0.081886
0.018368
0.000000
0.000000
0.000000
0.599180
0.000000
0.000000
0.753810
0.000000
0.000000
0.000000
0.445087
0.665007
0.000000
0.000000
0.000000
0.020542
0.000000
0.000000
0.000000
0.000000
0.427213
0.000000
0.390863
0.000000
0.000000
0.060630
2.019255
0.000000
0.000000
0.893657
0.000000
0.000000
0.000000
0.000000
0.000000
0.669298
0.350997
0.000000
0.000000
0.000000
