0.233156
0.000000
0.000000
0.000000
0.246914
0.000000
0.159687
0.000000
0.000000
0.000000
0.000000
0.000000
0.000000
0.000000
0.607496
0.000000
0.000000
1.728441
0.000000
0.000000
0.000000
0.000000
0.000000
0.000000
0.535426
0.075304
0.000000
0.000000
0.100741
0.000000
0.147006
0.097175
0.000000
0.000000
0.000000
0.000000
0.000000
0.000000
0.000000
0.000000
0.000000
0.000000
0.000000
0.000000
0.000000
0.334994
0.000000
0.000000
0.145861
0.000000
0.178285
0.000000
0.731641
0.000000
0.076753
0.311536
0.000000
0.000000
0.000000
0.659473
0.018752
0.000000
0.000000
0.090584
0.027119
0.000000
0.597751
0.000000
0.002370
0.099660
1.408710
0.024906
0.000000
0.000000
0.000000
0.000000
0.199026
0.000000
0.002722
0.724514
0.000000
0.000000
0.000000
0.000000
0.000000
0.000310
1.283904
0.000000
0.000000
0.000000
0.000000
0.204041
0.000000
0.131431
0.352277
0.000000
0.163213
0.000000
0.000000
0.000000
0.000000
0.000000
0.000000
0.000000
0.000000
0.000000
0.000000
0.000000
0.163929
0.000000
0.000000
0.462644
0.000000
0.000000
0.000000
0.030381
0.000000
0.000000
0.000000
2.184558
0.000000
0.000000
0.000000
0.000000
0.000000
0.000000
0.066967
0.000000
0.000000
0.000000
0.000000
0.984807
0.000000
0.000000
0.364046
0.123291
0.271712
0.041861
0.000000
0.000000
0.000000
0.962208
1.051726
0.407170
0.256385
0.000000
0.000000
0.000000
0.000000
0.000000
0.000000
0.070204
0.000000
0.386152
0.864134
0.988655
0.096107
0.000000
0.000000
0.610010
0.000000
0.000000
0.000000
0.000000
0.037351
0.000000
0.000000
0.000000
0.000000
0.000000
0.000000
0.000000
0.000000
1.346728
0.000000
0.000000
0.000000
0.000000
0.000000
0.000000
0.600908
0.507249
0.000000
1.983175
0.074462
0.000000
0.283131
0.000000
0.157761
0.000000
0.000000
0.139411
0.000000
0.000000
0.480290
0.000000
0.000000
0.000000
0.000000
1.159353
0.000000
0.000000
0.000000
0.000000
0.000000
0.000000
2.327846
0.000000
0.000000
0.000000
0.298996
0.941903
0.395000
0.000000
0.000000
0.000000
0.026354
0.000000
0.000000
0.000000
0.000000
0.000000
0.000000
0.102960
0.000000
0.000000
0.035221
0.000000
0.000000
0.000000
0.000000
0.000000
0.323209
0.000000
0.000000
0.000000
1.190282
0.000000
0.000000
0.000000
0.000000
0.000000
0.000000
0.000000
0.245564
0.450005
0.331395
0.121399
0.000000
0.000000
0.000000
0.000000
0.000000
0.000000
0.000000
0.000000
0.000000
0.617774
0.000000
0.000000
0.000000
0.000000
0.000000
0.000000
0.000000
0.554521
0.000000
0.000000
0.000000
0.479209
0.000000
0.407023
0.000000
0.000000
0.000000
0.000000
0.000000
0.302382
0.161327
0.000000
0.000000
0.000000
0.000000
0.306875
0.000000
0.000000
0.000000
0.000000
0.000000
0.000000
0.000000
0.000000
0.000000
0.116578
0.087884
1.112206
0.000000
0.638031
0.000000
0.000000
0.000000
0.340577
0.208184
0.000000
1.001143
0.000000
0.000000
0.000000
0.915609
0.546067
0.185364
0.000000
0.000000
0.000000
1.195313
0.000000
0.262120
0.000000
0.000000
0.000000
0.000000
0.000000
1.081102
0.000000
0.038243
0.000000
0.000000
0.222732
0.000000
0.249818
0.124458
0.000000
0.000000
0.000000
0.000000
0.000000
0.000000
0.000000
0.000000
0.000000
1.748514
0.125938
0.000000
1.857696
0.000000
0.000000
0.000000
0.000000
0.000000
0.000000
0.000000
0.000000
0.379916
0.090012
0.000000
0.000000
0.000000
0.000000
0.000000
0.000000
0.000000
0.075558
0.000000
0.000000
0.000000
0.022166
0.000000
0.000000
0.000000
1.135895
0.000000
0.000000
0.000000
0.075969
0.000000
0.000000
0.376605
0.000000
0.000000
0.000000
0.000000
1.387240
0.000000
0.000000
0.000000
0.000000
0.000000
0.000000
0.000000
0.181950
1.413316
0.018067
0.000000
0.000000
0.000000
0.000000
0.000000
0.000000
0.000000
0.000000
0.000000
0.000000
0.000000
0.000000
0.044520
0.000000
0.086101
0.000000
0.000000
0.000000
0.000000
0.877673
0.000000
0.000000
0.838618
0.000000
0.000000
0.000000
0.000000
0.000000
0.000000
0.000000
0.091486
0.000000
0.000000
0.120459
0.820721
0.000000
0.364469
0.000000
0.000000
1.078587
0.263500
0.000000
0.443960
0.000000
0.000000
0.000000
0.026110
0.000000
0.000000
0.000000
0.000000
0.000000
0.464996
0.605539
0.000000
0.000000
1.296792
0.000000
0.000000
0.000000
0.000000
0.000000
0.000000
0.000000
0.000000
0.197534
0.000000
0.777143
0.000000
0.096214
0.000000
0.134684
0.464434
0.000000
0.000000
0.000000
0.000000
0.000000
0.118748
0.000000
0.000000
0.000000
0.110855
0.000000
0.356344
0.000000
0.000000
0.000000
0.000000
0.000000
0.000000
0.000000
0.000000
0.000000
0.524825
0.000000
0.000000
0.168076
0.000000
0.000000
0.000000
0.000000
0.103780
0.000000
0.000000
0.997943
0.000000
0.000000
