0.000000
0.000000
0.000000
0.000000
0.000000
0.000000
0.000000
0.000000
0.000000
0.000000
0.000000
0.000000
0.000000
2.304759
0.949185
0.035894
0.000000
0.000000
0.000000
0.000000
0.000000
0.000000
0.000000
0.000000
0.772487
0.000000
0.000000
0.000000
0.230240
0.000000
0.498913
2.069398
0.000000
0.000000
0.000000
0.000000
0.000000
0.000000
0.000000
0.453895
1.626230
0.000000
0.105368
0.013105
0.000000
0.000000
0.000000
0.000000
0.000000
0.000000
0.071937
0.159797
0.000000
0.000000
0.445376
2.133262
0.000000
0.000000
0.000000
0.000000
0.310202
0.100693
0.000000
0.000000
0.000000
0.000000
0.000000
0.000000
0.000000
0.000000
1.522772
0.480355
0.083747
0.000000
0.078562
0.000000
0.000000
0.000000
0.141029
0.000000
0.814013
0.000000
0.000000
0.207379
0.000000
0.000000
0.300725
0.503375
0.000000
0.000000
0.000000
1.908421
0.000000
0.000000
0.000000
0.000000
0.000000
0.448192
0.000000
0.000000
0.000000
0.000000
0.000000
0.908650
0.045952
0.000000
0.000000
1.380173
0.000000
0.000000
0.000000
0.000000
0.000000
1.195006
0.000000
0.000000
0.324419
0.000000
0.000000
0.625491
0.000000
0.000000
0.000000
0.000000
0.035401
0.000000
0.000000
0.840435
0.000000
0.000000
0.000000
0.884457
0.000000
0.000000
0.000000
0.000000
0.000000
1.438089
0.532225
0.000000
0.000000
0.000000
0.430410
4.784547
0.000000
0.000000
0.000000
0.000000
0.000000
0.000000
0.000000
0.000000
0.000000
0.380876
0.000000
0.000000
0.728362
0.000000
0.000000
0.276147
1.717185
0.000000
1.936743
0.000000
0.910193
0.000000
0.000000
0.000000
0.000000
0.000000
0.000000
0.000000
0.000000
0.006328
0.000000
0.000000
0.000000
0.000000
0.000000
0.000000
1.187137
0.366480
0.000000
0.000000
0.000000
0.000000
1.315807
0.000000
0.261859
0.000000
0.000000
0.000000
0.000000
0.000000
0.000000
0.000000
0.000000
0.000000
0.000000
0.000000
0.000000
0.000000
0.000000
0.000000
0.000000
0.000000
0.533481
1.072425
0.000000
0.000000
0.000000
0.000000
0.000000
0.091763
0.000000
0.000000
0.000000
0.000000
0.000000
1.067569
0.000000
0.000000
0.000000
0.000000
0.000000
0.000000
0.000000
0.000000
0.000000
0.000000
0.000000
0.000000
0.000000
0.000000
0.000000
0.000000
0.318334
0.000000
0.609158
0.000000
0.000000
0.185491
0.646321
0.000000
0.000000
0.000000
0.000000
0.000000
0.177392
0.000000
0.000000
0.000000
0.440921
0.000000
0.010243
0.000000
0.000000
0.000000
0.000000
0.000000
0.000000
0.000000
0.000000
0.000000
0.347318
0.000000
0.000000
0.860601
0.318018
0.064182
0.000000
0.000000
3.852705
0.000000
0.000000
0.000000
0.000000
0.000000
0.408651
0.000000
0.000000
0.000000
0.000000
0.000000
1.818945
0.000000
0.244718
0.000000
0.000000
0.000000
0.000000
0.000000
0.000000
0.011502
0.000000
0.000000
0.000000
0.287967
0.525827
0.000000
0.000000
0.317699
0.000000
0.000000
0.000000
0.000000
0.000000
0.000000
0.000000
2.164303
0.000000
0.000000
0.000000
0.345948
0.000000
0.000000
0.645327
0.000000
0.000000
0.000000
0.000000
0.000000
0.538472
0.314545
0.000000
0.000000
0.061592
0.312865
0.000000
0.000000
0.000000
0.407976
0.000000
0.000000
1.381313
0.000000
0.282242
0.489648
0.000000
0.081530
0.309420
0.000000
0.000000
0.000000
0.000000
0.000000
0.000000
0.000000
0.000000
0.000000
0.000000
0.000000
0.047077
0.001104
0.284142
0.000000
0.000000
0.000000
0.000000
0.000000
0.112940
0.876318
0.000000
0.000000
1.329018
0.000000
0.000000
0.000000
0.000000
0.142113
0.065054
0.000000
0.000000
0.026215
0.000000
0.000000
0.000000
0.000000
0.204236
0.000000
0.000000
0.000000
0.000000
0.437220
0.218994
0.000000
0.000000
0.000000
0.000000
0.148334
0.000000
0.000000
1.034424
0.502795
0.000000
0.000000
0.000000
0.000000
0.000000
0.000000
0.000000
0.000000
0.000000
0.000000
0.000000
0.000000
0.451517
0.000000
1.483765
0.000000
0.000000
0.000000
0.000000
1.696070
0.000000
0.000000
0.000000
0.000000
0.000000
0.000000
0.213935
0.000000
0.262919
0.000000
0.000000
2.334071
0.000000
0.000000
0.000000
1.142882
0.000000
0.331627
0.000000
0.000000
0.000000
0.000000
0.000000
0.000000
0.000000
0.000000
0.149543
0.000000
2.183191
0.000000
0.000000
0.000000
0.000000
0.000000
0.394639
0.000000
0.000000
0.000000
0.000000
1.722318
0.000000
0.000000
0.251693
0.000000
0.052072
0.000000
0.000000
0.525947
0.000000
1.111816
0.000000
0.000000
0.058999
0.000000
0.000000
0.202356
0.460609
0.000000
0.000000
0.000000
2.442687
0.047575
0.000000
0.000000
1.369215
0.000000
0.002642
0.000000
1.371021
0.000000
0.079113
0.000000
0.000000
4.762460
0.000000
0.000000
0.000000
0.000000
0.000000
0.911574
0.127701
0.000000
0.000000
1.291183
0.000000
0.242715
