0.000000
0.000000
0.066389
0.843683
0.000000
0.000000
0.000000
0.057048
0.188000
0.000000
0.000000
0.000000
0.000000
0.092494
0.000000
0.110879
0.000000
1.068167
0.000000
1.017374
0.000000
0.032458
0.000000
0.000000
0.000000
0.041281
0.000000
0.000000
0.000000
0.000000
0.000000
0.263172
0.000000
0.000000
1.105842
0.000000
0.000000
0.439173
0.000000
0.372988
0.000000
0.000000
0.000000
0.000000
0.000000
0.985084
0.000000
0.000000
0.000000
0.000000
0.000000
0.000000
0.117732
0.000000
0.472516
0.000000
0.000000
0.000000
0.000000
0.000000
0.000000
0.000000
0.717722
0.000000
0.000000
0.000000
0.573898
0.246175
0.000000
0.000000
0.000000
0.000000
0.000000
0.000000
0.000000
0.181377
0.301251
0.000000
0.286228
1.500857
0.000000
0.000000
0.000000
0.058513
1.310659
0.008667
0.619987
0.000000
0.106995
0.000000
0.000000
0.000000
0.000000
0.000000
0.877462
0.000000
0.000000
0.152156
1.069319
0.000000
0.031483
0.163778
0.000000
0.000000
0.000000
0.480915
0.000000
0.000000
0.000000
0.359329
0.000000
1.042993
0.089544
0.000000
0.000000
0.000000
0.098951
0.000000
0.000000
0.027170
0.000000
0.000000
0.000000
0.000000
0.000000
0.000000
0.700498
0.000000
0.000000
0.000000
0.000000
0.000000
0.000000
0.000000
0.000000
0.000000
0.000000
0.397418
0.386687
0.000000
0.000000
0.208629
0.082022
0.000000
0.395286
0.000000
0.220647
0.000000
0.000000
0.000000
1.616152
0.000000
0.000000
0.055606
1.145250
2.037670
0.000000
0.000000
0.205706
0.013690
0.000000
0.083732
0.000000
0.000000
0.223561
2.341782
0.000000
0.000000
0.000000
0.000000
0.000000
0.000000
0.000000
2.071268
0.000000
0.000000
0.000000
0.000000
0.000000
0.000000
0.000000
0.113109
0.000000
0.425936
0.000000
0.000000
0.000000
0.000000
0.048965
0.000000
0.000000
0.000000
1.021043
0.722803
0.000000
0.000000
0.000000
0.000000
0.539170
0.622512
0.000000
0.000000
0.000000
0.000000
0.000000
0.000000
0.650628
0.000000
0.000000
0.000000
0.000000
0.000000
0.021051
0.145668
0.000000
0.000000
0.000000
0.000000
0.000000
0.000000
0.000000
0.000000
0.000000
0.368425
0.000000
0.000000
0.000000
0.000000
0.000000
0.000000
0.201139
0.000000
0.938333
0.000000
0.000000
0.000000
0.234279
0.000000
0.000000
0.000000
0.000000
0.000000
0.000000
0.000000
0.143966
0.000000
0.000000
0.000000
0.025812
0.094966
0.000000
0.767698
0.000000
0.000000
0.000000
0.000000
0.000000
0.207316
0.000000
0.000000
0.000000
0.000000
0.471026
0.000000
0.121177
0.707609
0.988097
0.000000
0.000000
0.615337
0.000000
0.000000
0.000000
0.000000
1.095568
0.000000
0.347510
0.098337
0.188948
0.000000
0.000000
0.000000
0.000000
0.250961
0.000000
0.325846
0.834816
0.005116
0.000000
0.000000
0.000000
0.103755
1.168897
0.000000
0.000000
0.000000
0.000000
0.000000
0.000000
0.000000
0.000000
0.133448
0.198009
0.000000
0.209666
0.000000
0.000000
0.000000
0.000000
0.000000
0.000000
0.210975
0.000000
0.118308
1.819140
0.000000
0.585988
0.000000
0.000000
0.000000
0.000000
0.000000
0.000000
0.000000
0.000000
0.000000
0.000000
0.000000
0.000000
0.331915
0.043935
0.000000
0.000000
0.067639
0.000000
0.672172
0.000000
0.000000
0.000000
0.000000
0.231372
0.000000
0.000000
1.066290
0.000000
0.000000
0.180976
0.000000
0.000000
0.040681
0.205980
0.000000
0.000000
0.000000
0.000000
0.000000
0.000000
0.000000
0.349472
1.367620
1.636198
0.235502
0.000000
0.000000
0.000000
0.499803
0.000000
0.000000
0.000000
0.004905
0.000000
0.336091
0.000000
0.059192
1.388160
0.000000
0.257965
0.000000
0.000000
0.000000
1.409105
0.827841
0.555306
0.000000
0.000000
0.197836
0.051413
0.000000
0.000000
0.000000
2.062043
0.192792
0.000000
0.017403
0.000000
0.000000
0.000000
0.000000
0.000000
0.000000
0.191727
0.000000
1.277613
0.000000
0.085596
0.000000
0.000000
0.890081
0.000000
0.000000
0.000000
0.469490
0.450575
0.000000
0.000000
0.000000
0.000000
0.000000
0.104284
0.000000
0.353311
0.000000
0.009433
0.000000
0.000000
0.000000
1.326040
0.574947
0.288475
0.000000
0.000000
0.000000
0.330203
0.000000
0.000000
0.000000
0.000000
0.195384
0.611325
0.248495
0.000000
1.071408
0.000000
0.000000
0.000000
0.114843
0.000000
0.192208
0.000000
0.000000
0.000000
0.177709
0.000000
0.000000
0.696443
0.000000
0.000000
0.000000
0.323539
0.252027
0.000000
0.000000
0.544157
0.553706
0.000000
0.000000
0.000000
0.000000
0.000000
0.627260
0.000000
0.345876
0.000000
0.000000
0.183992
0.062834
1.922494
0.000000
0.000000
0.195821
0.000000
0.000000
0.000000
0.000000
0.000000
1.644557
0.028704
0.000000
0.000000
0.000000
0.133812
0.285956
0.000000
0.000000
0.000000
0.194618
0.000000
0.043726
0.000000
0.000000
