0.000000
0.208575
0.000000
0.000000
0.000000
0.000000
0.000000
0.248556
0.000000
0.000000
0.000000
0.000000
0.062069
0.311251
0.734496
0.000000
0.000000
3.138907
0.000000
0.022881
0.000000
0.000000
0.000000
0.010869
0.000000
0.000000
0.000000
1.906007
0.000000
0.000000
0.000000
0.164462
0.000000
0.000000
0.714451
0.000000
0.000000
0.000000
0.000000
0.000000
0.000000
0.000000
0.000000
0.000000
0.000000
0.459593
0.000000
0.000000
0.383189
0.000000
0.000000
0.000000
0.000000
1.425467
1.097335
0.000000
0.000000
0.140006
0.000000
0.367821
0.000000
0.000000
0.000000
0.000000
0.000000
0.000000
0.000000
0.000000
0.000000
0.000000
0.575143
0.000000
0.000000
0.000000
0.000000
0.095691
0.000000
0.000000
0.000000
0.000000
0.260243
0.000000
0.000000
0.000000
0.000000
0.000000
1.375251
0.000000
0.000000
0.000000
0.000000
0.407099
0.000000
0.529620
1.248839
0.000000
0.000000
0.000000
0.000000
0.000000
0.877555
0.127905
0.000000
0.000000
0.000000
0.417288
0.000000
0.000000
0.788564
0.000000
0.000000
1.559748
0.000000
0.732159
0.000000
0.000000
0.707882
0.000000
0.000000
0.000000
0.000000
0.000000
0.000000
0.000000
1.196497
0.000000
0.000000
1.539271
0.000000
0.000000
0.000000
0.000000
0.000000
0.000000
0.000000
0.108481
0.000000
0.000000
0.000000
0.000000
0.337265
0.000000
1.673592
0.559506
0.000000
0.000000
0.000000
0.000000
1.114836
0.000000
0.000000
0.000000
0.000000
1.660328
1.964085
0.297390
0.000000
0.000000
0.000000
0.573572
0.000000
0.000000
0.000000
0.000000
0.000000
0.000000
0.000000
0.000000
0.000000
0.000000
0.000000
0.000000
0.000000
0.897969
0.000000
0.000000
0.000000
0.000000
0.000000
1.003626
0.000000
0.000000
0.000000
0.750304
0.000000
0.000000
0.249989
0.000000
0.000000
0.000000
0.000000
0.000000
0.016578
0.186714
0.959751
0.428731
0.000000
0.000000
0.000000
0.896464
0.000000
0.000000
0.000000
0.000000
0.000000
0.000000
3.118766
0.000000
0.000000
0.000000
0.000000
0.000000
0.109801
0.000000
0.000000
0.000000
0.000000
0.000000
0.000000
0.000000
0.000000
0.000000
0.000000
0.000000
0.000000
0.000000
0.000000
0.000000
0.000000
0.000000
0.000000
0.000000
0.000000
0.996353
0.000000
0.000000
0.000000
1.288128
0.000000
0.000000
0.000000
0.000000
0.757241
0.000000
0.000000
0.430816
0.623709
1.092732
0.000000
0.000000
0.000000
0.227908
0.000000
0.093892
0.000000
0.000000
0.000000
1.541551
0.000000
0.000000
0.000000
0.000000
0.000000
0.000000
0.105670
0.000000
1.249211
0.000000
0.000000
0.000000
1.397047
0.000000
0.000000
0.000000
1.759006
0.000000
0.000000
0.317917
2.556759
0.000000
0.000000
0.000000
0.084981
0.000000
0.000000
0.000000
0.395359
0.000000
0.000000
0.000000
0.000000
0.000000
0.000000
0.026702
0.000000
0.000000
0.000000
0.000000
0.000000
0.000000
0.000000
0.119755
0.843513
0.000000
0.000000
0.000000
0.000000
0.000000
0.000000
1.587891
0.034691
0.000000
0.000000
0.000000
0.000000
0.000000
0.631191
0.000000
0.000000
0.000000
0.000000
0.000000
0.654966
0.000000
0.000000
0.000000
0.000000
1.537952
0.000000
1.939360
1.013025
0.000000
0.000000
0.000000
0.000000
0.000000
0.000000
0.000000
0.000000
0.000000
0.983274
1.958116
0.000000
2.082294
0.000000
0.000000
0.000000
0.000000
0.000000
0.000000
0.000000
0.000000
0.000000
0.000000
0.561945
0.000000
0.000000
0.000000
0.000000
0.000000
0.018497
0.309373
0.000000
0.000000
0.000000
0.099815
0.000000
0.000000
0.635388
0.964419
0.114291
0.783643
0.000000
0.000000
0.000000
0.000000
0.658696
0.000000
0.000000
0.131764
0.377050
0.000000
0.000000
0.000000
0.000000
0.000000
0.443106
0.160899
0.000000
0.560707
0.000000
0.000000
0.000000
0.150256
0.000000
0.000000
0.000000
0.000000
0.000000
0.000000
0.000000
0.000000
0.000000
0.000000
0.000000
0.000000
0.082217
0.000000
0.000000
0.000000
0.000000
0.447486
0.000000
0.000000
0.000000
0.018368
0.000000
0.000000
0.261020
0.000000
0.133761
0.000000
0.449493
0.000000
0.000000
0.000000
0.000000
0.000000
0.000000
0.000000
0.000000
1.762177
0.215590
0.000000
0.670840
0.000000
0.000000
0.000000
1.922340
0.000000
0.000000
0.005013
0.000000
0.000000
0.000000
0.000000
0.000000
0.000000
1.502297
0.000000
0.000000
0.000000
0.000000
1.702426
0.000000
0.000000
0.000000
0.000000
0.000000
1.457533
0.000000
0.000000
0.577941
0.349274
0.583420
0.000000
0.000000
0.000000
0.000000
0.000000
0.000000
0.000000
0.824687
0.000000
0.000000
0.000000
0.000000
0.000000
0.000000
0.000000
0.000000
0.000000
0.000000
0.000000
0.272478
0.000000
0.507681
0.090054
0.000000
0.000000
0.000000
0.000000
0.000000
0.000000
0.000000
1.028203
0.000000
2.994269
0.000000
0.000000
