0.000000
0.000000
0.000000
0.000000
0.000000
0.000000
0.000000
0.181403
0.000000
0.000000
0.000000
0.000000
1.715275
0.000000
0.000000
0.000000
0.000000
0.000000
0.000000
0.000000
0.483646
0.068366
0.111134
0.000000
0.494576
0.000000
0.458970
0.000000
0.000000
0.000000
0.000000
0.000000
0.000000
0.550827
0.000000
0.000000
0.000000
0.000000
0.000000
0.358021
0.462739
0.000000
0.000000
1.583545
0.000000
0.000000
0.000000
0.000000
0.006022
0.000000
0.000000
0.201068
0.856807
0.000000
0.000000
0.628825
0.000000
0.000000
0.000000
1.987136
0.000000
0.000000
0.084531
0.845349
0.000000
0.000000
0.000000
0.000000
0.000000
0.421669
0.610978
0.000000
0.376542
0.000000
0.000000
0.077979
0.000000
0.000000
0.000000
0.000000
0.000000
0.057963
2.626367
0.496179
0.000000
0.000000
0.000000
0.247326
0.000000
0.000000
0.000000
0.000000
0.000000
0.117293
0.592019
0.000000
0.386271
0.000000
0.000000
0.000000
0.000000
0.473118
0.000000
0.000000
0.075213
0.000000
0.000000
0.000000
0.000000
0.000000
0.000000
0.000000
0.000000
0.000000
0.000000
0.000000
0.013607
1.072336
0.000000
0.747437
0.134179
0.000000
0.000000
0.000000
0.000000
0.000000
0.000000
0.000000
0.000000
0.000000
0.000000
0.742020
0.000000
0.000000
0.000000
0.000000
0.000000
0.000000
0.000000
2.092878
0.000000
1.378935
0.689668
0.000000
0.000000
0.000000
0.000000
0.000000
0.000000
0.000000
0.000000
0.000000
0.000000
0.000000
1.205053
0.000000
0.000000
0.000000
0.000000
0.000000
0.000000
0.000000
0.000000
0.000000
0.000000
0.000000
0.000000
0.000000
0.000000
0.000000
0.007537
0.000000
0.025763
0.000000
0.000000
0.000000
0.000000
0.000000
0.000000
0.449086
0.058813
1.445908
0.000000
1.419237
0.554259
1.537982
0.000000
1.057736
0.000000
0.000000
0.000000
0.000000
0.000000
0.323305
0.000000
0.377792
0.000000
0.346147
0.000000
0.000000
0.000000
0.000000
0.000000
0.000000
0.879367
0.000000
2.179715
0.000000
0.214026
0.012323
0.135002
1.618683
1.592540
0.000000
0.000000
0.000000
0.000000
0.000000
0.000000
0.000000
0.000000
0.000000
0.000000
0.000000
0.000000
0.000000
0.000000
0.000000
0.000000
0.000000
0.000000
0.000000
0.466148
0.869884
0.000000
0.407483
0.000000
0.000000
0.418499
0.000000
0.117069
0.000000
0.879672
1.222920
0.175637
0.723268
0.964396
0.000000
0.000000
0.042978
0.000000
0.000000
0.000000
0.000000
0.000000
0.627073
0.000000
0.000000
0.000000
0.000000
0.000000
0.000000
0.000000
0.000000
0.000000
0.000000
0.000000
0.937817
0.000000
0.330332
0.113886
0.000000
0.000000
0.000000
0.000000
0.000000
0.000000
0.247561
0.000000
0.000000
0.000000
0.000000
0.000000
0.239542
0.000000
0.038881
0.000000
0.000000
0.000000
0.000000
0.000000
0.000000
0.000000
0.000000
0.000000
0.000000
1.174814
0.000000
0.000000
0.000000
0.000000
0.000000
0.000000
0.110872
0.041821
0.000000
0.000000
0.000000
0.000000
0.000000
0.000000
0.000000
0.463055
0.247175
0.000000
0.000000
0.000000
0.000000
0.000000
0.000000
0.000000
0.000000
0.000000
0.000000
0.000000
0.000000
0.350747
0.030478
0.000000
0.074393
0.000000
0.001070
0.000000
0.000000
0.136135
0.020875
0.000000
0.000000
0.000000
0.000000
1.820301
0.973443
0.000000
0.000000
0.000000
0.000000
0.004332
0.000000
0.000000
0.000000
0.171794
0.000000
0.000000
0.000000
0.000000
0.000000
0.000000
0.000000
0.000000
0.000000
0.000000
0.000000
0.000000
0.000000
0.000000
0.824066
0.000000
0.000000
0.479343
0.647382
0.000000
0.000000
0.000000
0.000000
0.000000
0.000000
0.000000
0.000000
0.102570
1.179159
0.000000
0.000000
0.000000
0.000000
1.059222
0.000000
0.000000
0.000000
0.000000
0.000000
0.000000
0.000000
0.000000
0.000000
0.000000
0.389668
0.000000
0.101645
0.000000
0.000000
0.000000
0.000000
0.000000
0.000000
0.000000
0.000000
0.000000
0.778183
0.703092
0.000000
0.100552
1.268387
0.000000
0.000000
0.000000
0.098033
0.000000
0.230012
2.355120
0.000000
0.000000
0.000000
0.000000
0.000000
0.000000
0.000000
0.000000
0.000000
0.262952
0.075279
0.000000
0.711705
0.000000
0.094709
0.000000
0.000000
0.000000
0.000000
0.000000
0.000000
0.000000
0.127670
0.000000
0.034115
0.000000
0.026902
0.000000
0.000000
0.000000
0.055623
0.000000
0.000000
0.000000
0.000000
0.000000
0.000000
0.000000
0.000000
0.000000
0.021270
0.000000
0.000000
0.000000
0.000000
0.000000
0.000000
0.000000
0.000000
0.000000
0.000000
0.456503
0.000000
1.020664
0.000000
0.000000
0.000000
0.000000
0.000000
0.258226
0.285060
1.928515
0.574736
0.000000
0.443693
0.010346
0.000000
1.210966
0.000000
0.000000
0.000000
0.000000
1.513595
0.000000
0.000000
0.609238
0.000000
0.000000
0.000000
0.000000
0.337182
