0.000000
0.000000
0.005190
0.538151
0.000000
1.505187
0.035743
0.000000
0.198164
0.000000
0.000000
0.000000
0.157817
0.000000
0.054101
0.000000
0.000000
1.149346
0.000000
0.039719
0.000000
0.100817
0.000000
0.000000
0.087400
0.093769
0.002248
0.000000
0.000000
0.103582
0.000000
0.000000
0.000000
0.000000
1.754522
0.000000
0.000000
0.061861
0.000000
0.705677
0.000000
0.032968
0.074496
0.322140
0.000000
0.000000
0.000000
0.000000
0.141864
0.168487
0.000000
0.000000
0.021930
0.000000
0.000000
0.000000
0.000000
0.000000
0.000000
0.380477
0.000000
0.143441
1.345733
0.000000
0.000000
0.000000
0.133313
0.422273
0.000000
0.000000
0.109466
0.000000
0.000000
0.013111
0.000000
0.068984
0.204641
0.000000
0.167540
1.278827
0.000000
0.000000
0.000000
0.000000
0.260693
0.277715
0.320264
0.000000
0.149523
0.000000
0.000000
0.000000
0.323592
0.000000
0.971966
0.000000
0.034655
0.010706
0.104858
0.134117
0.027509
0.000000
0.000000
0.000000
0.000000
0.529904
0.000000
0.000000
0.289830
0.000000
0.000000
0.280039
0.000000
0.000000
0.000000
0.000000
0.000000
0.324767
0.000000
0.000000
0.000000
0.000000
0.208624
0.000000
0.000000
0.000000
0.000000
0.000000
0.000000
0.000000
0.000000
0.000000
0.000000
0.000000
0.000000
0.000000
0.000000
0.076769
0.332247
0.003823
0.000000
0.000000
0.118787
0.000000
0.276693
0.000000
0.128494
0.000000
0.000000
0.000000
1.525580
0.167015
0.000000
0.000000
1.508519
1.266690
0.000000
0.470032
2.206968
0.022786
0.000000
0.000000
0.000000
0.000000
0.382009
1.425475
0.000000
0.000000
0.000000
0.000000
0.181747
0.000000
0.000000
0.223338
0.000000
0.000000
0.000000
0.000000
0.000000
0.000000
0.000000
0.000000
0.000000
0.709194
0.000000
0.000000
0.422295
0.000000
0.173978
0.000000
0.000000
0.000000
0.921030
0.859330
0.095876
0.000000
0.000000
0.000000
0.563239
0.000000
0.000000
0.000000
0.090925
0.000000
0.059301
0.010189
0.594543
0.000000
0.000000
0.000000
0.000000
0.637381
0.000000
0.082199
0.000000
0.000000
0.000000
0.000000
0.000000
0.000000
0.000000
0.000000
0.000000
0.109231
0.000000
0.000000
0.131262
0.000000
0.000000
0.000000
0.182674
0.000000
0.211116
0.000000
0.000000
0.000000
0.000000
0.375636
0.000000
0.647837
0.394928
0.000000
0.000000
0.147587
0.218958
0.037051
0.000000
0.000000
0.041074
0.429063
0.000000
0.512243
0.000000
0.000000
0.000000
0.000000
0.100327
0.036932
0.000000
0.000000
0.000000
0.000000
0.000000
0.985472
0.194555
0.484506
0.982622
0.000000
0.000000
0.673425
0.000000
0.000000
0.000000
0.000000
0.916373
0.000000
0.000000
0.000000
0.000000
0.000000
0.000000
0.000000
0.000000
0.000000
0.000000
0.112278
0.118577
0.000000
0.000000
0.000000
0.000000
0.431413
1.170976
0.101848
0.293726
0.000000
0.000000
0.000000
0.000000
0.000000
0.000000
0.000000
0.105995
0.509011
0.433181
0.000000
0.000000
0.000000
0.000000
0.000000
0.000000
0.535922
0.170147
0.409145
0.741955
0.000000
0.000000
0.000000
0.000000
0.377656
0.000000
0.000000
0.000000
0.377775
0.000000
0.000000
0.116765
0.000000
0.000000
1.190336
0.000000
0.000000
0.000000
0.026817
0.000000
0.000000
0.000000
0.070494
0.000000
0.000000
0.000000
0.001627
0.000000
0.000000
0.000000
0.595381
0.000000
0.161173
0.000000
0.000000
0.000000
0.000000
0.000000
0.321023
0.000000
0.005414
0.000000
0.000000
0.932342
0.410530
0.985867
0.293982
0.084992
0.733427
0.070968
0.000000
0.000000
0.000000
0.000000
0.000000
0.000000
0.058821
0.000000
0.000000
0.447572
0.000000
0.000000
0.000000
0.000000
0.000000
0.000000
1.258047
0.000000
0.000000
0.000000
0.379638
0.000000
0.000000
0.000000
0.000000
0.437565
0.131026
0.000000
0.000000
0.000000
0.000000
0.000000
0.000000
0.000000
0.000000
0.449399
0.132114
1.206767
0.000000
0.073198
0.000000
0.000000
0.311663
0.000000
0.000000
0.000000
0.000000
0.593329
0.000000
0.000000
0.000000
0.078915
0.049630
0.083903
0.000000
0.049620
0.000000
0.044351
0.000000
0.000000
0.000000
0.051941
0.022700
0.000000
0.000000
0.000000
0.000000
0.477922
0.000000
0.000000
0.000000
0.162463
0.273861
0.190111
0.248853
0.000000
1.068361
0.000000
0.000000
0.007495
0.015924
0.000000
0.592390
0.000000
0.000000
0.000000
0.082127
0.000000
0.000000
0.367380
0.001758
0.058663
0.000000
0.170591
0.000000
0.006736
0.000000
1.242104
0.785244
0.000000
0.000000
0.222068
0.000000
0.000000
0.593420
0.000000
1.102152
0.000000
0.000000
0.000000
0.164218
0.598503
0.728666
0.000000
0.542218
0.000000
0.000000
0.000000
0.000000
0.000000
1.496093
0.000000
0.000000
0.000000
0.757145
0.000000
0.726574
0.000000
0.000000
0.121515
0.000000
1.129023
0.062647
0.000000
0.000000
