0.000000
0.000000
0.000000
0.000000
0.000000
0.000000
0.268371
0.000000
0.120380
0.000000
0.000000
0.000000
0.268205
0.000000
0.000000
0.000000
0.000000
0.000000
0.000000
0.000000
0.000000
0.038393
0.000612
0.000000
0.394109
0.000000
0.642224
0.000000
0.000000
0.000000
0.000000
0.000000
0.000000
0.909737
0.000000
0.000000
0.000000
0.000000
0.000000
0.763779
0.000000
0.000000
0.000000
0.766365
0.000000
0.247642
0.000000
0.000000
0.256631
0.128889
0.000000
0.427094
1.976263
0.000000
0.000000
0.000000
0.000000
0.000000
0.000000
1.140090
0.000000
0.000000
0.217913
0.305949
0.000000
0.000000
0.199618
0.396677
0.000000
0.564317
0.679661
0.000000
0.000000
0.000000
0.000000
0.000000
0.000000
0.000000
0.000000
0.000000
0.000000
0.489843
1.976311
0.287691
0.000000
0.000000
0.000000
0.000000
0.000000
0.000000
0.000000
0.000000
0.000000
0.000000
0.055973
0.000000
0.513431
0.301534
1.012766
0.000000
0.000000
0.026512
0.000000
0.000000
0.116441
0.000000
0.000000
0.000000
0.000000
0.000000
0.000000
0.000000
0.000000
0.000000
0.000000
0.000000
0.000000
1.553859
0.000000
1.359257
0.388043
0.000000
0.000000
0.000000
0.255497
0.000000
1.228598
0.000000
0.000000
0.000000
0.000000
0.518398
0.000000
0.000000
0.000000
0.000000
0.000000
0.000000
0.000000
1.767053
0.000000
1.640334
0.840443
0.000000
0.101179
0.000000
0.000000
0.000000
1.295242
0.000000
0.000000
0.586731
0.000000
0.000000
2.163145
0.000000
0.000000
0.265354
0.000000
0.000000
0.125882
0.202245
0.000000
0.578040
0.000000
1.013724
0.000000
0.000000
0.000000
0.000000
0.000000
0.000000
0.000000
0.000000
0.000000
0.000000
0.000000
0.000000
0.302605
0.189144
0.000000
1.471505
0.000000
1.798310
0.000000
0.368125
0.000000
1.638139
0.000000
0.000000
0.000000
0.000000
0.000000
0.000000
0.043718
0.000000
0.000000
0.000000
0.000000
0.300201
0.000000
0.000000
0.000000
0.000000
0.565058
0.000000
1.562260
0.000000
0.000000
0.000000
0.355969
1.074017
0.437250
0.000000
0.000000
0.000000
0.000916
0.000000
0.000000
0.000000
0.000000
0.000000
0.000000
0.000000
0.000000
0.000000
0.121531
0.000000
0.000000
0.000000
0.000000
0.000000
0.046467
1.774763
0.000000
0.000000
0.000000
0.360152
0.000000
0.000000
0.000000
0.000000
0.656500
1.033465
0.290853
0.082130
1.394214
0.000000
0.000000
0.000000
0.000000
0.000000
0.000000
0.000000
0.000000
0.826589
0.000000
0.606790
0.000000
0.000000
0.000000
0.000000
0.000000
0.104924
0.000000
0.347678
0.000000
0.412881
0.000000
0.258348
0.037485
0.000000
0.000000
0.000000
0.000000
0.000000
0.000000
0.165721
0.000000
0.000000
0.000000
0.000000
0.212913
0.722607
0.000000
0.000000
0.000000
0.000000
0.000000
0.000000
0.000000
0.000000
1.483743
0.000000
0.000000
0.000000
1.368829
0.000000
0.000000
0.000000
0.000000
0.000000
0.047412
0.000000
0.077155
0.000000
0.000000
0.000000
0.016435
0.000000
0.114815
0.000000
0.000000
0.000000
0.000000
0.000000
0.000000
0.000000
0.000000
0.124278
0.000000
0.000000
0.178694
0.000000
0.000000
0.000000
0.194500
0.494401
0.000000
0.142779
0.000000
0.000000
0.000000
0.000000
0.000000
0.191326
0.122200
0.000000
0.000000
0.000000
1.575469
1.679328
0.000000
0.153619
0.000000
0.982134
0.000000
0.000000
0.000000
0.000000
0.000000
0.000000
0.000000
0.521160
0.000000
0.000000
0.000000
0.000000
0.000000
0.000000
0.131839
0.000000
0.000000
0.000000
0.000000
0.506183
0.000000
0.000000
0.024929
1.150476
0.000000
0.000000
0.000000
0.000000
0.000000
0.000000
0.000000
0.000000
0.000000
0.419307
0.345374
0.000000
0.000000
0.000000
0.096376
0.000000
0.000000
0.000000
0.000000
0.000000
0.000000
0.000000
0.000000
0.000000
0.000000
1.300715
0.000000
0.039156
0.000000
0.000000
0.000000
0.000000
0.000000
0.000000
0.000000
0.000000
0.000000
0.000000
0.000000
0.000000
0.000000
1.733602
0.000000
0.000000
0.142855
0.000000
0.000000
0.000000
0.614109
0.000000
0.000000
0.000000
0.000000
0.000000
0.000000
0.000000
0.000000
0.000000
0.000000
0.107068
0.000000
0.000000
0.017985
0.331431
0.000000
0.000000
0.229194
0.000000
0.000000
0.000000
0.000000
0.427976
0.000000
0.000000
0.011862
0.000000
0.000000
0.000000
0.000000
0.000000
0.000000
0.189662
0.000000
0.000000
0.000000
0.000000
0.136882
0.000000
0.000000
0.000000
0.000000
0.000000
0.000000
0.000000
0.000000
0.000000
0.000000
0.000000
0.000000
0.569141
0.000000
0.000000
0.189371
0.000000
0.000000
0.000000
0.000000
0.000000
0.000000
0.000000
1.425481
0.483050
0.000000
0.287643
1.844675
0.000000
0.000000
0.000000
0.000000
0.000434
0.000000
0.894266
0.000000
0.000000
0.000000
0.000000
0.000000
0.000000
0.000000
0.116066
