0.059314
0.000000
0.000000
0.000000
0.000000
0.000000
0.000000
0.098557
0.288923
0.000000
0.000000
0.000000
0.000000
0.015371
0.000000
0.033180
0.000000
1.324913
0.000000
0.918737
0.000000
0.000000
0.000000
0.000000
0.000000
0.000000
0.000000
0.000000
0.000000
0.000000
0.000000
0.480833
0.000000
0.000000
0.000000
0.000000
0.000000
0.074672
0.000000
0.112936
0.000000
0.000000
0.000000
0.000000
0.000000
2.205331
0.000000
0.000000
0.000000
0.000000
0.000000
0.000000
0.000000
0.180760
0.471302
0.000000
0.000000
0.615274
0.000000
0.257047
0.000000
0.000000
0.000000
0.000000
0.009769
0.000000
0.336276
0.000000
0.000000
0.000000
0.101193
0.000000
0.000000
0.000000
0.000000
0.080934
0.032722
0.000000
0.102538
1.182232
0.000000
0.000000
0.000000
0.000000
1.217909
0.000000
1.066115
0.000000
0.119177
0.000000
0.000000
0.000000
0.000000
0.754582
1.353437
0.000000
0.132322
0.131458
0.545853
0.000000
0.212193
0.053086
0.219856
0.000000
0.000000
0.283258
0.000000
0.000000
0.000000
0.519821
0.000000
0.473109
0.039237
0.000000
0.000000
0.000000
0.184865
0.000000
0.000000
0.000000
0.000000
0.000000
0.000000
0.000000
0.000000
0.000000
0.339258
0.000000
0.000000
0.000000
0.000000
0.000000
0.000000
0.000000
0.000000
0.013543
0.000000
0.498476
0.000000
0.000000
0.000000
0.000000
0.135438
0.156539
0.567161
0.000000
0.017476
0.000000
0.000000
0.000000
2.090487
0.000000
0.000000
0.226074
1.150062
1.692820
0.000000
0.000000
0.000000
0.000000
0.000000
0.000000
0.000000
0.000000
0.000000
0.103273
0.000000
0.000000
0.000000
0.000000
0.000000
0.000000
0.000000
2.227618
0.000000
0.000000
0.000000
0.000000
0.000000
0.070427
0.000000
0.216377
0.000000
1.254858
0.000000
0.000000
0.000000
0.000000
0.013267
0.000000
0.000000
0.000000
0.873149
0.239984
0.000000
0.000000
0.000000
0.000000
0.687478
1.040186
0.000000
0.000000
0.000000
0.000000
0.000000
0.000000
1.417143
0.000000
0.000000
0.084092
0.268290
0.000000
1.155271
0.308266
0.000000
0.000000
0.000000
0.000000
0.000000
0.000000
0.000000
0.000000
0.000000
0.321189
0.000000
0.000000
0.000000
0.000000
0.000000
0.000000
0.327802
0.000000
1.093102
0.000000
0.000000
0.000000
0.129751
0.000000
0.000000
0.000000
0.000000
0.000000
0.000000
0.000000
0.037613
0.505657
0.000000
0.000000
0.049795
0.000000
0.000000
0.999687
0.000000
0.000000
0.049357
0.000000
0.000000
0.565647
0.000000
0.000000
0.000000
0.000000
0.483677
0.000000
0.000000
0.462123
0.453313
0.000000
0.000000
0.291654
0.000000
0.381936
0.000000
0.000000
1.056832
0.000000
0.244382
0.194837
1.199655
0.042498
0.000000
0.000000
0.000000
0.818780
0.000000
0.338193
0.686941
0.011587
0.000000
0.397973
0.000000
0.000000
1.029128
0.088394
0.000000
0.167275
0.000000
0.000000
0.000000
0.000000
0.000000
0.108694
0.159947
0.000000
1.179463
0.000000
0.000000
0.000000
0.000000
0.498950
0.023138
0.277828
0.000000
0.000000
1.542850
0.000000
0.252047
0.000000
0.000000
0.000000
0.000000
0.000000
0.000000
0.000000
0.035461
0.000000
0.000000
1.180674
0.000000
0.421146
0.612572
0.000000
0.000000
0.260689
0.000000
0.290093
0.014239
0.000000
0.000000
0.000000
0.233794
0.200343
0.000000
1.652327
0.000000
0.199053
0.038409
0.000000
0.000000
0.104736
0.032766
0.000000
0.000000
0.000000
0.397496
0.000000
0.000000
0.000000
0.636524
0.915915
1.265074
0.139375
0.000000
0.000000
0.000000
0.139299
0.000000
0.000000
0.000000
0.223830
0.000000
0.134547
0.000000
0.000000
1.086458
0.000000
0.211055
0.000000
0.000000
0.000000
1.881709
1.006345
1.601010
0.000000
0.000000
0.786534
0.000000
0.000000
0.079449
0.000000
2.218968
0.196602
0.000000
0.000000
0.000000
0.000000
0.000000
0.000000
0.000000
0.000000
0.036617
0.000000
1.231463
0.000000
0.005944
0.000000
0.000000
0.577986
0.000000
0.000000
0.000000
1.329254
0.671266
0.000000
0.487213
0.000000
0.086316
0.000000
0.532012
0.000000
0.000000
0.000000
0.083189
0.000000
0.000000
0.000000
0.979170
0.436118
0.893436
0.000000
0.000000
0.062652
0.306261
0.000000
0.000000
0.000000
0.000000
0.000000
0.728125
0.000000
0.000000
1.038527
0.000000
0.000000
0.000000
0.000000
0.000000
0.000000
0.000000
0.000000
0.000000
0.458400
0.000000
0.000000
0.766412
0.000000
0.000000
0.000000
0.000000
0.660040
0.000000
0.000000
0.215926
0.494569
0.000000
0.000000
0.000000
0.000000
0.000000
0.000000
0.000000
0.550898
0.000000
0.000000
0.171496
0.077949
2.044658
0.000000
0.000000
0.008037
0.000000
0.000000
0.000000
0.000000
0.000000
1.339996
0.134078
0.000000
0.000000
0.000000
0.031019
0.137169
0.000000
0.000000
0.000000
0.108647
0.000000
0.318779
0.000000
0.000000
