0.000000
0.541603
0.000000
0.000000
0.281512
0.000000
0.000000
0.098419
0.193982
0.115873
0.000000
0.000000
0.000000
0.000000
0.883672
0.000000
0.000000
1.533381
0.000000
0.000000
0.000000
0.000000
0.461330
2.139343
0.000000
0.025226
0.120743
0.000000
0.000000
0.000000
0.000000
0.201253
0.009951
0.606303
0.000000
0.000000
0.000000
0.254542
0.000000
0.000000
0.000000
0.000000
0.457875
0.211875
0.000000
0.344666
0.000000
0.000000
0.000000
0.000000
0.000000
0.348820
0.816594
1.572716
0.000000
0.000000
0.000000
0.626376
0.000000
0.912912
0.000000
0.000000
0.000000
0.000000
0.000000
0.000000
0.000000
0.000000
0.000000
0.000000
0.000000
0.000000
0.000000
0.000000
0.000000
0.000000
0.000000
0.123185
0.000000
0.000000
0.000000
0.117723
0.000000
0.018072
0.000000
0.692737
0.164300
0.000000
0.000000
0.000000
0.000000
0.000000
0.000000
0.566379
1.503077
0.000000
0.000000
0.000000
0.000000
0.000000
0.019884
0.000000
0.000000
0.000000
0.000000
0.000000
0.000000
0.000000
0.000000
0.000000
0.000000
0.000000
0.000000
1.543142
0.000000
0.000000
0.000000
0.596292
0.000000
0.000000
0.000000
0.000000
0.049869
0.000000
0.131546
0.000000
0.000000
0.000000
0.000000
0.000000
0.000000
0.000000
0.000000
0.000000
0.000000
0.000000
0.000000
0.000000
0.000000
0.046452
0.406294
0.000000
0.090812
0.144347
0.052553
0.000000
0.000000
0.000000
0.318076
0.000000
1.844262
0.404276
0.000000
1.364137
2.138570
0.000000
0.771559
0.000000
0.000000
0.202616
0.000000
0.000000
0.000000
0.000000
0.000000
0.000000
0.000000
0.206713
0.000000
0.000000
0.000000
0.000000
0.000000
0.000000
0.000000
0.174696
0.000000
0.000000
0.000000
0.399902
0.176237
0.023358
0.000000
0.900232
0.000000
0.000000
0.288538
0.000000
0.000000
0.000000
0.000000
0.000000
0.000000
0.000000
0.000000
0.000000
0.000000
0.000000
0.407129
0.000000
0.000000
0.000000
0.000000
0.000000
0.000000
0.000000
0.000000
0.000000
0.000000
0.000000
0.183809
0.000000
1.062444
0.000000
0.000000
0.000000
0.444321
0.000000
0.000000
0.000000
0.000000
0.000000
0.000000
0.340346
0.000000
0.000000
0.164697
0.000000
0.000000
0.000000
0.000000
0.000000
0.903868
0.775899
0.000000
0.207524
0.069337
0.000000
0.000000
0.000000
0.000000
0.000000
0.000000
0.242584
0.000000
2.045304
0.072465
0.000000
0.000000
0.000000
0.000000
0.476426
0.000000
0.000000
0.001210
0.000000
0.000000
0.000000
0.000000
0.971913
0.000000
0.000000
0.000000
0.607633
0.000000
0.013446
0.000000
0.000000
0.000000
0.000000
0.706375
0.766683
0.000000
0.000000
1.188935
2.896144
0.000000
0.000000
0.504541
0.000000
0.000000
0.000000
0.950660
0.787384
0.306316
0.000000
0.000000
0.000000
0.000000
0.000000
0.000000
0.000000
0.562142
0.059996
0.000000
0.454054
0.000000
0.000000
0.000000
0.000000
0.000000
0.000000
0.000000
0.000000
1.965476
0.000000
0.000000
0.000000
0.204730
0.000000
0.203788
0.117807
0.000000
0.000000
0.000000
0.000000
0.000000
0.000000
0.587326
0.146794
0.000000
0.000000
0.000000
0.000000
0.000000
0.000000
0.000000
0.457055
0.162930
0.000000
0.396588
0.000000
0.000000
0.397271
0.000000
0.000000
0.036123
0.000000
0.000000
0.000000
0.000000
1.168557
0.000000
0.000000
0.000000
1.414327
0.000000
0.000000
0.000000
0.000000
0.000000
0.000000
0.000000
2.426891
0.000000
0.000000
0.000000
0.000000
1.355789
0.000000
0.446067
0.000000
0.007741
0.000000
0.000000
0.000000
0.000000
0.000000
0.851178
0.000000
0.279373
0.000000
0.000000
0.000000
0.000000
0.221256
0.000000
0.000000
0.000000
0.588859
0.000000
0.000260
0.598639
0.000000
0.118685
0.967001
0.000000
0.000000
0.000000
0.000000
0.144441
0.055641
0.000000
0.000000
0.000000
0.000000
0.000000
0.000000
0.000000
0.000000
0.000000
0.000000
0.000000
0.000000
0.000000
0.000000
0.191875
0.000000
0.000000
0.000000
0.075363
0.574727
0.233111
0.000000
0.709980
0.000000
0.000000
0.000000
1.659692
0.000000
0.000000
0.000000
0.000000
0.000000
0.000000
0.000000
0.000000
0.000000
0.100275
0.000000
0.000000
0.979253
0.000000
0.251998
0.000000
0.000000
0.000000
0.000000
0.000000
0.000000
0.054124
0.463535
0.000000
0.000000
0.000000
0.000000
0.000000
0.000000
0.000000
0.158529
0.000000
1.449568
0.000000
0.000000
0.443826
0.000000
0.000000
0.000000
0.000000
0.141548
0.000000
0.000000
0.000000
0.000000
0.106436
0.000000
0.000000
0.000000
0.000000
0.000000
0.000000
1.711389
0.089249
0.000000
0.358933
0.000000
0.156911
0.000000
0.000000
0.000000
0.000000
0.000000
0.000000
0.000000
0.000000
0.000000
0.000000
0.000000
0.000000
0.000000
0.000000
0.437041
0.000000
0.000000
0.000000
0.000000
0.174089
0.000000
0.087620
0.000000
