0.181881
0.000000
0.000000
0.000000
0.000000
0.000000
0.012300
0.143276
0.000000
0.000000
0.000000
0.000000
0.182851
0.000000
0.000000
0.000000
0.000000
1.911000
0.000000
0.000000
0.000000
0.000000
0.000000
0.000000
0.200004
0.000000
0.000000
0.164313
0.000000
0.000000
0.000000
0.000000
0.012613
0.000000
0.000000
0.000000
0.000000
0.000000
0.000000
0.000000
0.000000
0.000000
0.000000
0.014211
0.000000
0.000000
0.000000
0.000000
1.090260
0.000000
0.000000
1.341559
0.882492
0.775171
0.000000
0.000000
0.000000
0.000000
0.000000
1.250545
0.000000
0.000000
0.210935
0.125830
0.000000
0.000000
0.000000
0.000000
0.000000
0.000000
1.009504
0.000000
0.000000
0.000000
0.000000
0.000000
0.000000
0.000000
0.083123
1.609729
0.000000
0.000000
0.000000
0.221632
0.000000
0.081012
0.000000
0.000000
0.000000
0.000000
0.000000
0.000000
0.000000
0.000000
0.000000
0.000000
0.000000
0.000000
0.000000
0.515370
0.000000
0.196132
0.000000
0.000000
0.000000
0.000000
0.000000
0.000000
0.497745
0.189383
0.000000
0.000000
0.000000
0.000000
0.000000
0.000000
0.239967
0.000000
0.000000
0.774073
0.000000
0.000000
0.000000
0.000000
0.196136
0.000000
0.000000
0.000000
0.000000
0.000000
0.000000
0.000000
0.000000
0.000000
0.096475
0.000000
0.000000
0.000000
0.000000
1.143909
0.000000
1.928120
2.549441
0.000000
0.178806
0.000000
0.000000
0.000000
1.059579
0.000000
0.000000
0.000000
0.000000
0.000000
2.395274
0.459139
0.000000
0.000000
0.000000
0.000000
0.000000
0.000000
0.000000
0.000000
0.000000
0.118231
0.000000
0.098341
0.000000
0.000000
0.000000
0.000000
0.000000
0.000000
0.000000
0.000000
0.000000
0.000000
0.000000
0.014727
0.000000
0.619925
0.000000
1.962799
0.000000
0.161377
0.000000
0.000000
0.000000
0.000000
0.000000
0.000000
0.000000
0.000000
0.680248
0.000000
0.000000
0.000000
0.000000
0.245250
0.000000
0.000000
0.000000
0.000000
0.000000
0.000000
1.209037
1.344056
0.000000
0.000000
0.000000
1.491027
0.127575
0.268127
0.000000
0.000000
0.000000
0.000000
0.000000
0.000000
0.000000
0.000000
0.000000
0.000000
0.000000
0.000000
0.461957
0.000000
0.000000
0.000000
0.000000
0.000000
0.000000
0.000000
0.000000
0.000000
0.000000
0.262851
0.217772
0.000000
0.000000
0.000000
0.125866
0.152836
0.483367
0.000000
0.140378
0.398196
0.000000
0.000000
0.000000
0.000000
0.000000
0.000000
0.000000
0.000000
0.000000
0.000000
0.000000
0.000000
0.000000
0.000000
0.000000
0.000000
0.000000
0.000000
0.000000
0.000000
0.000000
0.175653
0.000000
0.202924
0.000000
0.000000
1.283157
0.000000
0.000000
0.706078
0.000000
0.000000
0.000000
0.000000
0.000000
0.000000
0.000000
0.000000
0.117777
0.000000
0.000000
0.000000
0.000000
0.000000
0.000000
0.000000
0.000000
0.000000
0.000000
0.000000
0.000000
0.000000
0.000000
0.000000
0.000000
0.063409
0.867674
0.000000
0.000000
0.000000
0.610683
0.000000
0.000000
0.000000
0.212576
0.000000
0.000000
0.000000
0.000000
0.047899
0.000000
0.000000
0.000000
0.000000
1.689376
0.000000
0.000000
0.000000
0.000000
0.000000
0.000000
2.504002
0.000000
0.000000
0.000000
0.000000
0.000000
0.000000
0.216854
0.000000
0.000000
0.000000
2.887229
1.055399
0.000000
1.860265
0.000000
0.000000
0.000000
0.000000
0.000000
0.194229
0.000000
0.000000
0.000000
0.000000
0.000000
0.000000
0.000000
0.000000
0.310836
0.000000
0.000000
0.000000
0.000000
0.000000
0.000000
0.000000
0.000000
0.000000
0.826825
1.590969
0.000000
0.181379
0.000000
0.031395
0.000000
0.000000
0.000000
0.000000
0.000000
0.000000
0.000000
0.244575
0.000000
0.000000
0.000000
0.000000
0.207418
0.345239
0.000000
0.491399
0.213777
0.000000
0.089715
0.000000
0.000000
0.000000
0.000000
0.000000
0.000000
0.000000
0.000000
0.000000
0.000000
0.000000
0.000000
0.000000
0.000000
0.000000
0.000000
0.000000
0.000000
0.114144
0.000000
0.000000
0.000000
0.141310
0.000000
0.000000
0.111295
0.000000
0.382714
0.000000
0.131026
0.000000
0.000000
0.000000
0.000000
0.000000
0.000000
0.000000
0.000000
0.000000
0.380582
0.000000
0.000000
0.000000
0.086366
0.000000
0.000000
0.000000
0.000000
0.527120
0.000000
0.045644
0.000000
0.000000
0.033039
0.000000
3.206564
0.000000
0.000000
0.000000
0.000000
0.391924
0.000000
0.000000
0.000000
0.094302
0.000000
0.581660
0.000000
0.771599
0.000000
0.000000
0.000000
0.000000
0.000000
0.000000
0.000000
0.000000
0.000000
0.000000
0.487650
0.000000
0.000000
0.000000
0.000000
0.000000
0.000000
0.000000
0.028647
0.047557
0.000000
0.000000
0.000000
0.000000
0.000000
0.000000
0.000000
0.000000
0.000000
0.000000
0.000000
0.000000
0.115759
0.665746
0.000000
1.588449
0.000000
0.625813
