0.000000
0.000000
0.000000
0.000000
0.000000
0.000000
0.000000
0.000000
0.000000
0.155864
0.000000
0.000000
0.088084
2.179400
0.834118
0.000000
0.000000
0.000000
0.066914
0.000000
0.000000
0.014329
0.000000
0.000000
0.000000
0.000000
0.000000
0.885512
0.259744
0.000000
0.044743
1.984145
0.000000
0.000000
0.108894
0.000000
0.000000
0.000000
0.000000
0.000000
0.533305
0.000000
0.000000
0.000000
0.000000
1.003981
0.000000
0.000000
0.305691
0.000000
0.000000
0.272495
0.000000
0.000000
2.116273
1.328254
0.000000
0.000000
0.000000
0.000000
0.297955
0.151506
0.000000
0.000000
0.000000
0.000000
0.000000
0.000000
0.000000
0.000000
0.328956
0.000000
0.000000
0.000000
0.000000
0.000000
0.000000
0.000000
0.004230
0.000000
2.322976
0.000000
0.000000
0.000000
0.000000
0.000000
0.000000
0.466114
0.000000
0.000000
0.000000
1.339247
0.000000
0.000000
0.485816
0.000000
0.000000
0.000000
0.000000
0.000000
0.000000
0.000000
0.215322
1.421944
0.000000
0.474129
0.000000
0.200480
0.000000
0.000000
0.000000
0.383084
0.000000
0.776753
0.000000
0.000000
0.000644
0.000000
0.000000
0.000000
0.000000
0.000000
0.000000
0.000000
0.921668
0.000000
0.000000
1.729246
0.000000
0.000000
0.000000
0.000000
0.000000
0.000000
0.035463
0.000000
0.000000
1.541780
0.000000
0.000000
0.000000
0.000000
1.226609
2.522651
0.000000
0.000000
0.624768
0.000000
0.000000
0.000000
0.000000
0.000000
0.000000
0.582530
0.000000
0.074703
0.000000
0.000000
0.000000
0.489275
1.581906
0.000000
1.247173
0.000000
0.000000
0.000000
0.000000
0.000000
0.000000
0.000000
0.000000
0.076825
0.854822
0.000000
0.000000
0.000000
0.000000
0.000000
0.000000
0.000000
0.413579
0.000000
0.000000
0.000000
0.000000
0.000000
0.554787
0.000000
0.000000
0.000000
0.000000
0.000000
0.328255
0.897768
0.000000
0.101257
0.000000
0.000000
0.000000
0.522173
0.000000
0.000000
0.000000
0.000000
0.000000
0.000000
0.000000
2.147894
0.000000
0.000000
0.000000
0.000000
0.000000
0.197146
0.000000
0.000000
0.000000
0.025067
0.000000
0.060241
0.206124
0.000000
0.000000
0.000000
0.358947
0.000000
0.342749
0.000000
0.000000
0.000000
0.359486
0.000000
0.000000
0.076132
0.000000
0.000000
0.000000
0.731640
0.304860
0.000000
0.000000
0.000000
0.690802
0.277706
0.130800
0.000000
0.000000
0.991923
0.013859
0.000000
0.000000
0.196784
0.000000
0.833018
0.000000
0.000000
0.000000
0.305384
0.000000
0.000000
0.000000
0.000000
0.000000
0.000000
0.000000
0.000000
1.305192
0.000000
0.000000
0.000000
1.045170
0.000000
1.750409
0.000000
0.000000
0.000000
0.000000
0.000000
1.667453
0.000000
0.000000
0.000000
0.000000
0.000000
0.369283
0.000000
0.000000
0.000000
0.000000
0.000000
0.000000
0.070513
0.000000
0.000000
0.000000
0.000000
0.000000
0.000000
0.190442
0.000000
0.000000
0.004423
0.000000
0.000000
0.000000
0.000000
0.000000
0.000000
0.000000
2.796840
0.000000
0.000000
0.000000
0.000000
0.000000
0.000000
1.087573
0.000000
0.000000
0.000000
0.000000
0.000000
0.648461
0.153371
0.000000
0.000000
0.508071
0.595141
0.000000
0.107290
0.056034
0.395154
0.000000
0.000000
0.307145
0.000000
0.000000
0.290501
0.000000
0.190881
1.054600
0.039240
0.000000
0.000000
0.000000
0.000000
0.271507
0.000000
0.000000
0.000000
0.000000
0.000000
0.000000
0.000000
0.331886
0.182510
0.000000
0.000000
0.000000
0.000000
0.479359
1.314329
0.000000
0.000000
0.000000
0.000000
0.000000
0.000000
0.000000
0.000000
0.000000
0.996473
0.102580
0.000000
0.000000
0.000000
1.253035
0.000000
0.430334
0.000000
0.000000
0.000000
0.000000
0.000000
0.000000
0.000000
1.003894
0.000000
0.000000
0.835432
0.000000
0.000000
0.464195
0.251314
0.000000
0.274472
0.356061
0.000000
0.000000
0.000000
0.000000
0.000000
0.000000
0.000000
0.000000
0.000000
0.523848
0.000000
0.493851
0.000000
0.000000
0.000000
0.000000
0.550389
0.000000
0.133735
0.000000
0.000000
0.000000
0.036130
0.000000
0.000000
0.293214
0.000000
0.000000
0.763474
0.000000
0.000000
0.000000
0.000000
0.000000
0.629688
0.077587
0.000000
0.973474
0.000000
0.000000
0.000000
1.247824
0.000000
0.000000
0.000000
2.068467
0.000000
0.000000
0.000000
0.000000
0.000000
2.004916
0.000000
0.000000
0.000000
0.000000
2.248768
0.000000
0.000000
0.558078
0.056205
0.000000
1.019601
0.097591
0.326405
0.000000
1.230183
0.000000
0.000000
0.000000
0.000000
0.000000
0.000000
0.000000
0.000000
0.111995
0.000000
2.136436
0.035287
0.000000
0.000000
2.241616
0.000000
0.000000
0.000000
0.700749
0.000000
0.000000
0.000000
0.000000
4.737154
0.000000
0.000000
0.000000
0.000000
0.000000
1.928846
0.000000
1.619245
0.000000
1.885011
0.000000
0.276737
