0.193568
0.000000
0.000000
0.000000
0.000000
0.000000
0.747841
0.124419
0.367868
0.000000
0.000000
0.000000
0.000000
1.369001
0.000000
0.232237
0.000000
0.538207
0.000000
0.000000
0.308903
0.000000
0.126412
1.396061
0.092248
0.000000
0.000000
0.460997
0.265431
0.106959
0.000000
0.000000
0.000000
2.010983
0.000000
0.000000
0.000000
0.000000
0.000000
0.056773
0.000000
0.000000
0.000000
0.000000
0.000000
0.670697
0.000000
0.000000
0.630292
0.000000
0.011440
0.000000
1.757325
0.000000
0.000000
0.000000
0.000000
0.000000
0.000000
0.000000
0.000000
0.000000
0.263327
0.000000
0.000000
0.000000
0.000000
0.000000
0.000000
0.000000
0.079621
0.000000
0.000000
0.000000
0.000000
0.000000
0.000000
0.000000
0.000000
0.000000
0.000000
0.000000
0.574964
0.000000
0.000000
1.493634
2.235031
0.889131
0.000000
0.000000
0.000000
0.000000
0.000000
0.572344
0.060103
0.000000
0.000000
0.124666
0.095543
0.000000
0.000000
0.000000
0.000000
0.000000
0.280136
0.030709
0.000000
0.000000
0.000000
0.000000
0.000000
0.000000
0.000000
0.000000
0.000000
0.000000
0.000000
1.612391
0.000000
0.000000
0.000000
0.000000
0.000000
0.000000
0.964677
0.000000
1.810287
0.000000
0.000000
0.000000
0.000000
0.000000
0.000000
0.000000
0.000000
0.000000
0.000000
0.000000
0.000000
0.000000
1.286631
0.000000
1.618076
0.000000
0.000000
0.000000
0.047354
0.000000
0.053206
0.000000
0.000000
1.105037
0.000000
1.123440
2.619114
0.000000
0.304831
0.455600
0.000000
0.000000
0.000000
0.911949
0.000000
0.000000
0.000000
0.000000
0.000000
0.000000
0.000000
0.000000
0.795547
0.000000
0.000000
0.000000
0.000000
0.000000
0.000000
0.000000
0.459111
0.058142
0.139693
0.000000
0.000000
0.000000
0.000000
0.000000
0.000000
0.000000
0.000000
0.000000
0.000000
0.020089
0.000000
0.000000
0.770452
0.000000
0.000000
0.000000
0.000000
0.857108
0.000000
0.000000
0.000000
0.000000
0.541587
0.000000
1.789424
0.000000
0.000000
0.000000
0.000000
0.000000
0.000000
0.191291
0.000000
0.000000
0.000000
0.000000
0.000000
0.000000
0.000000
0.000000
0.000000
1.704022
0.030918
0.000000
0.000000
0.000000
0.000000
0.041243
0.868434
0.000000
0.000000
1.081158
0.000000
0.349945
0.000000
0.000000
0.000000
0.000000
0.000000
0.000000
0.000000
0.000000
0.000000
0.858293
0.000000
0.091164
0.000000
0.000000
0.000000
0.000000
0.000000
0.000000
0.159358
0.797085
0.415696
1.173264
0.000000
0.000000
0.000000
0.000000
0.000000
0.262944
0.000000
0.000000
0.000000
0.000000
0.000000
0.120027
0.393956
0.000000
0.000000
0.000000
0.000000
0.000000
0.000000
0.081904
0.630848
0.000000
0.000000
0.000000
0.714973
0.095730
0.000000
0.000000
0.000000
0.000000
0.000000
0.000000
0.000000
0.000000
1.774883
0.000000
0.000000
0.581666
1.529367
0.000000
0.000000
0.000000
0.000000
0.000000
2.137916
0.130743
0.000000
0.000000
0.000000
0.000000
0.519173
0.000000
0.000000
0.000000
0.000000
0.000000
0.157836
0.000000
0.621462
0.081087
0.000000
0.220922
0.000000
0.000000
0.000000
0.000000
0.000000
0.000000
0.084520
0.514957
0.000000
0.000000
0.000000
0.000000
0.000000
0.000000
0.000000
0.000000
0.000000
0.000000
0.000000
0.000000
0.000000
0.627800
0.000000
0.000000
0.000000
0.000000
0.000000
0.000000
0.000000
0.000000
0.028673
0.000000
0.000000
0.709656
0.000000
0.000000
0.000000
0.000000
0.509013
0.000000
0.080527
0.000000
0.000000
0.000000
0.000000
1.257061
0.000000
0.000000
0.196635
0.000000
1.159999
0.000000
0.000000
0.000000
0.000000
0.000000
0.000000
0.000000
0.000000
0.315624
2.043492
0.000000
0.443449
0.598812
0.000000
0.000000
0.583984
0.000000
0.000000
0.000000
0.000000
0.005910
0.000000
0.117962
0.000000
1.234951
0.000000
0.000000
0.000000
0.000000
0.130887
0.000000
0.000000
0.000000
0.103844
0.000000
2.801870
0.000000
0.000000
0.000000
0.854977
0.644655
0.000000
0.000000
0.000000
0.273098
0.000000
0.000000
0.000000
0.000000
0.000000
0.000000
0.000000
0.000000
0.000000
0.000000
0.000000
0.000000
0.000000
0.000000
0.000000
0.000000
0.050452
0.403954
0.000000
0.000000
0.000000
0.000000
0.872802
0.000000
0.000000
1.871576
0.267495
0.000000
0.000000
0.000000
0.000000
0.000000
0.227817
0.000000
0.000000
0.790514
0.000000
0.000000
0.393434
0.000000
0.124641
0.000000
0.000000
0.000000
0.000000
0.000000
0.000000
0.000000
0.013892
0.000000
0.000000
0.000000
0.000000
0.426942
0.016842
0.000000
0.182008
0.000000
0.000000
0.000000
0.000000
0.000000
0.000000
0.159828
0.000000
0.000000
0.000000
0.377642
0.241676
0.000000
0.192232
0.000000
0.000000
0.000000
0.000000
0.000000
0.000000
0.038667
0.000000
0.000000
0.000000
0.446413
0.000000
0.000000
