0.000000
0.322242
0.000000
0.012994
0.060400
0.222693
0.000000
0.145202
0.000000
0.000000
0.000000
0.000000
0.000000
2.253593
0.231427
0.103977
0.000000
0.000000
0.000000
0.000000
0.417324
0.000000
0.132585
0.000000
0.184930
0.000000
0.000000
0.000000
0.000000
0.000000
0.000000
0.102238
0.000000
0.000000
0.000000
0.242047
0.000000
0.000000
0.000000
0.117870
0.600104
0.000000
0.000000
0.000000
0.000000
0.000000
1.402215
0.000000
0.173813
0.000000
0.000000
0.407082
0.068260
0.237604
0.245451
0.879138
0.118964
0.000000
0.109676
0.000000
0.387304
0.008147
0.000000
0.234530
0.000000
0.000000
0.000000
0.524034
0.000000
0.000000
0.552022
0.001602
0.000000
0.124763
0.000000
0.000000
0.000000
0.000000
0.124500
1.776126
0.000000
0.000000
0.000000
0.395537
0.000000
0.084212
0.000000
0.000000
0.000000
0.000000
0.000000
0.000000
0.000000
0.000000
0.078268
0.000000
0.000000
0.000000
0.000000
0.000000
0.000000
0.381823
0.320170
0.140148
0.000000
0.225555
0.000000
0.000000
0.069212
0.696367
0.000000
0.280242
0.000000
0.219320
0.000000
0.000000
0.148887
0.000000
0.000000
0.286454
0.000000
0.000000
0.087180
0.374369
0.000000
0.000000
0.000000
0.853690
0.000000
0.000000
0.000000
0.000000
0.000000
0.000000
0.000000
0.000000
0.030482
0.492286
0.000000
0.000000
0.000000
0.164589
1.246994
0.000000
0.000000
0.000000
0.000000
0.000000
0.000000
0.000000
0.000000
0.000000
0.000000
0.373231
0.000000
0.000000
0.360351
0.136177
0.112919
0.418069
0.670872
0.000000
0.000000
0.000000
0.577007
0.000000
0.000000
0.000000
0.000000
0.000000
0.000000
0.000000
0.000000
0.884197
0.000000
0.000000
0.000000
0.000000
0.209306
0.166447
0.000000
0.406319
0.000000
0.000000
0.000000
0.610956
0.000000
0.000000
0.001065
0.000000
0.000000
0.000000
0.000000
0.000000
0.646260
0.628902
0.000000
0.000000
0.000000
0.000000
0.000000
0.000000
0.039095
0.000000
0.000000
0.038612
0.000000
0.000000
0.000000
0.000000
0.000000
1.348276
0.000000
0.351887
0.000000
0.000000
0.000000
0.000000
0.000000
0.000000
0.000000
0.000000
0.000000
0.000000
0.000000
0.000000
0.245601
0.000000
0.000000
0.000000
0.471453
0.000000
0.000000
0.191771
0.000000
0.343485
0.200734
0.000000
0.000000
0.000000
0.000000
0.000000
0.414329
0.000000
0.000000
0.000000
0.000000
0.254777
0.000000
0.707410
0.000000
0.000000
0.000000
0.038711
0.000000
0.000000
0.521209
0.000000
0.000000
0.251418
0.000000
0.000000
0.000000
0.000000
0.225024
0.000000
0.000000
0.126708
0.000000
0.000000
0.571271
0.555454
0.000000
0.000000
0.000000
0.000000
0.000000
0.751012
0.000000
0.000000
0.000000
0.000000
0.000000
0.000000
1.869964
0.000000
0.000501
0.000000
0.000000
0.000000
0.000000
0.000000
0.000000
0.000000
0.000000
0.000000
0.000000
0.339313
0.000000
0.000000
0.000000
0.124959
0.000000
0.000000
0.000000
0.000000
0.000000
0.000000
0.152714
0.843434
0.000000
0.000000
1.022234
0.000000
1.045154
0.000000
0.245806
0.301140
0.000000
0.000000
0.216151
0.000000
0.333216
0.000000
0.000000
0.000000
0.030551
0.000000
0.000000
0.000000
0.000000
0.000000
0.000000
0.000000
0.000000
0.000000
0.210606
0.000000
0.000000
0.000000
0.244475
0.888916
0.000000
0.126911
0.000000
0.000000
0.000000
0.031648
0.000000
0.000000
0.000000
0.000000
0.000000
0.000000
0.000000
0.249349
0.000000
0.000000
0.000000
0.000000
0.863113
0.400312
0.000000
0.636836
0.210917
0.000000
0.000000
0.000000
0.362923
0.367140
0.009948
0.000000
0.000000
0.129739
0.000000
0.000000
0.620670
0.000000
0.000000
0.000000
0.000000
0.404321
0.000000
0.000000
0.000000
0.000000
0.165502
0.047787
0.000000
0.246871
0.654864
0.000000
1.433564
0.102540
0.000000
0.000000
0.589961
0.000000
0.000000
0.000000
0.000000
0.224556
0.000000
0.000000
0.000000
0.398913
0.074530
0.000000
0.000000
0.000000
0.000000
0.000000
0.000000
0.140971
0.023216
0.329303
0.269391
0.632443
0.110701
0.000000
0.607197
0.000000
0.143704
0.000000
0.000000
0.000000
0.000000
0.000000
0.000000
1.115958
0.000000
0.036722
0.000000
0.000000
0.000000
0.000000
0.000000
0.000000
0.151320
0.000000
0.000000
0.000000
0.641152
0.090944
0.220702
0.000000
0.000000
0.000000
0.964552
0.000000
0.000000
0.000000
0.000000
0.332012
0.041002
0.000000
0.000000
0.100805
0.335337
1.069508
0.053692
0.583167
0.000000
0.000000
0.000000
0.000000
0.000000
0.000000
0.000000
0.000000
0.136435
0.000000
0.634134
0.000000
0.205505
0.000000
0.000000
0.000000
1.295621
0.000000
0.000000
0.352700
0.000000
0.000000
0.000000
0.000000
0.000000
0.000000
0.000000
0.000000
0.000000
0.000000
0.000000
0.000000
0.000000
0.523467
0.000000
0.436005
0.083043
0.735454
