0.000000
0.000000
0.000000
0.000000
0.000000
0.000000
0.000000
0.093728
0.193987
0.000000
0.000000
0.000000
1.008492
0.000000
0.000000
0.000000
0.000000
0.297577
0.000000
0.000000
0.000000
0.165522
0.051092
0.347483
0.426120
0.000000
0.916047
0.000000
0.000000
0.000000
0.000000
0.000000
0.000000
1.027157
0.000000
0.252014
0.000000
0.000000
0.000000
0.803917
0.000000
0.000000
0.000000
1.453779
0.000000
0.470627
0.000000
0.000000
0.168818
0.000000
0.000000
0.685250
1.843107
0.217330
0.000000
0.000000
0.000000
0.000000
0.000000
2.064287
0.000000
0.000000
0.000000
0.184186
0.000000
0.000000
0.000000
0.000000
0.000000
0.386353
0.545905
0.000000
0.050721
0.000000
0.000000
0.000000
0.000000
0.000000
0.000000
0.000000
0.000000
0.518873
2.835261
0.467693
0.000000
0.150178
0.000000
0.267904
0.000000
0.000000
0.000000
0.000000
0.000000
0.144754
0.576917
0.000000
0.737277
0.000000
0.294316
0.000000
0.000000
0.000000
0.000000
0.000000
0.097669
0.000000
0.000000
0.000000
0.000000
0.000000
0.000000
0.000000
0.000000
0.288443
0.000000
0.000000
0.000000
1.733858
0.000000
0.594040
0.182167
0.000000
0.000000
0.000000
0.225795
0.000000
0.193348
0.000000
0.000000
0.000000
0.000000
0.000000
0.000000
0.000000
0.000000
0.000000
0.000000
0.000000
0.000000
2.277622
0.000000
1.417032
0.813010
0.000000
0.000000
0.000000
0.000000
0.000000
0.284112
0.000000
0.000000
0.646694
0.000000
0.044783
2.169691
0.000000
0.280481
0.241008
0.000000
0.000000
0.000000
0.148264
0.000000
0.257861
0.000000
0.000000
0.000000
0.000000
0.008804
0.000000
0.090040
0.000000
0.195306
0.000000
0.000000
0.000000
0.000000
0.000000
0.133101
0.038797
0.000000
1.666728
0.000000
1.954301
0.000000
1.125600
0.000000
1.665647
0.000000
0.000000
0.000000
0.000000
0.000000
0.000000
0.032648
0.000000
0.000000
0.051941
0.000000
0.000000
0.000000
0.000000
0.000000
0.000000
1.059510
0.000000
1.595144
0.000000
0.270442
0.114878
0.211731
1.026555
1.205958
0.000000
0.000000
0.000000
0.000000
0.000000
0.000000
0.000000
0.000000
0.000000
0.000000
0.098040
0.000000
0.000000
0.000000
0.000000
0.000000
0.000000
0.039264
0.000000
0.818718
1.789322
0.000000
0.493393
0.000000
0.000000
0.000000
0.000000
0.002704
0.000000
0.376539
1.471847
0.178559
0.794546
1.313527
0.000000
0.000000
0.000000
0.000000
0.000000
0.000000
0.000000
0.000000
0.732499
0.000000
0.000000
0.000000
0.076799
0.000000
0.000000
0.000000
0.000000
0.000000
0.000000
0.000000
0.347668
0.000000
0.119309
0.183542
0.248349
0.000000
0.000000
0.000000
0.292306
0.000000
0.506287
0.000000
0.000000
0.000000
0.000000
0.130592
0.637970
0.000000
0.197048
0.000000
0.000000
0.000000
0.000000
0.000000
0.000000
0.517424
0.000000
0.000000
0.015135
1.206795
0.000000
0.000000
0.000000
0.000000
0.000000
0.000000
0.000000
0.573174
0.000000
0.000000
0.000000
0.000000
0.000000
0.304278
0.000000
0.000000
0.000000
0.000000
0.000000
0.000000
0.000000
0.018228
0.198271
0.000000
0.000000
0.000000
0.000000
0.000000
0.000000
0.117468
0.784041
0.065915
0.482300
0.000000
0.000000
0.000000
0.000000
0.234838
0.205958
0.097920
0.000000
0.000000
0.000000
1.595340
1.413808
0.000000
0.220245
0.000000
0.928479
0.052686
0.000000
0.000000
0.000000
0.000000
0.000000
0.000000
1.169750
0.000000
0.000000
0.000000
0.000000
0.000000
0.000000
0.104774
0.000000
0.000000
0.000000
0.000000
0.547514
0.000000
0.000000
0.621148
1.006455
0.000000
0.000000
0.000000
0.000000
0.000000
0.000000
0.000000
0.000000
0.000000
0.920499
0.000000
0.000000
0.000000
0.000000
0.595456
0.000000
0.000000
0.000000
0.000000
0.000000
0.000000
0.000000
0.000000
0.000000
0.000000
1.372150
0.000000
0.159796
0.000000
0.000000
0.000000
0.000000
0.000000
0.000000
0.000000
0.000000
0.000000
0.212625
0.000000
0.000000
0.001459
1.926875
0.000000
0.000000
0.381458
0.000000
0.125972
0.000000
1.565375
0.000000
0.000000
0.000000
0.000000
0.000000
0.000000
0.000000
0.000000
0.000000
0.008304
0.000000
0.000000
0.430758
0.122208
0.562767
0.000000
0.000000
0.077365
0.000000
0.000000
0.000000
0.000000
0.049754
0.000000
0.000000
0.000000
0.000000
0.069236
0.000000
0.202624
0.058017
0.000000
0.298676
0.000000
0.000000
0.000000
0.000000
0.007425
0.000000
0.000000
0.000000
0.000000
0.000000
0.000000
0.000000
0.000000
0.000000
0.000000
0.000000
0.000000
0.029030
0.000000
0.000000
0.553019
0.000000
0.000000
0.000000
0.000000
0.000000
0.000000
0.000000
1.743040
0.537579
0.000000
0.377441
1.261714
0.000000
0.000000
0.000000
0.000000
0.000000
0.000000
1.368700
0.000000
0.000000
0.186816
0.268846
0.000000
0.000000
0.000000
0.000000
