0.056904
0.401282
0.000000
0.000000
0.000000
0.000000
0.584476
0.000000
0.160729
0.000000
0.000000
0.000000
0.358757
0.736559
0.000000
0.000000
0.000000
1.300428
0.018161
0.582883
0.493083
0.012532
0.096329
0.386719
0.000000
0.000000
0.000000
1.337919
0.000000
0.000000
0.000000
0.000000
0.000000
1.214715
0.392527
0.000000
0.000000
0.000000
0.000000
0.000000
0.000000
0.000000
0.000000
0.000000
0.000000
0.576233
0.000000
0.000000
0.655136
0.000000
0.049015
0.000000
0.000000
0.531695
0.000000
0.000000
0.000000
0.451338
0.000000
0.000000
0.000000
0.000000
0.000000
0.000000
0.056078
0.000000
0.000000
0.000000
0.000000
0.000000
0.000000
0.000000
0.000000
0.000000
0.000000
0.000000
0.156890
0.429055
0.000000
0.000000
0.000000
0.000000
0.000000
0.000000
0.312174
0.627331
1.245872
0.000000
0.070373
0.000000
0.000000
0.306654
0.000000
0.000000
0.000000
0.000000
0.000000
0.085480
0.536947
0.106825
0.662117
0.017934
0.000000
0.000000
0.000000
0.774268
0.000000
0.521759
0.000000
0.000000
0.000000
1.960116
0.000000
0.000000
0.000000
0.000000
1.020463
0.000000
0.000000
0.000000
0.000000
0.000000
0.000000
0.000000
0.856966
0.000000
0.393301
0.000000
0.000000
0.000000
0.171922
0.000000
0.000000
0.000000
0.000000
0.356137
0.000000
0.000000
0.018873
0.000000
1.386077
0.000000
1.272542
0.000000
0.000000
0.000000
0.000000
0.000000
0.069513
0.000000
0.000000
0.000000
0.000000
0.165144
2.785558
0.000000
0.000000
0.528483
0.330965
0.000000
0.222154
0.690228
0.000000
0.000000
0.000000
0.574782
0.000000
0.000000
0.000000
0.000000
0.170352
0.000000
0.000000
0.663597
0.000000
0.000000
0.000000
0.000000
0.000000
0.595198
0.000000
0.000000
0.000000
0.000000
0.000000
0.000000
0.000000
0.562101
0.000000
0.049702
0.000000
0.000000
0.355689
0.566861
0.383547
0.000000
0.000000
0.000000
0.000000
0.000000
0.000000
0.000000
0.000000
0.000000
0.424446
0.164536
2.235852
0.000000
0.000000
0.000000
0.000000
0.000000
0.000000
0.034826
0.000000
0.000000
0.000000
0.000000
0.026827
0.000000
0.000000
0.000000
0.000000
0.292040
0.000000
0.000000
0.000000
0.000000
0.000000
0.053964
0.851455
0.000000
0.513893
0.803648
0.000000
0.881299
0.000000
0.000000
0.000000
0.000000
0.000000
0.000000
0.000000
0.000000
0.000000
0.000000
0.000000
0.000000
0.000000
0.000000
0.000000
0.037437
0.000000
0.000000
0.220621
0.000000
0.079441
0.850871
0.000000
0.000000
0.000000
0.000000
0.000000
0.000000
0.191702
0.115754
0.295535
0.000000
0.000000
0.000000
0.696553
0.000000
0.000000
0.000000
1.034919
0.000000
0.000000
0.174525
0.456124
0.000000
0.000000
0.000000
1.194248
0.000000
0.000000
0.356644
0.287858
0.000000
0.000000
0.195791
0.000000
0.000000
1.270098
0.000000
0.000000
0.000000
0.039215
0.000000
0.000000
0.000000
0.000000
0.350082
1.430556
0.797324
0.000000
0.000000
0.000000
0.000000
0.106226
0.000000
0.151267
0.000000
0.000000
0.000000
0.162187
0.000000
0.153081
0.000000
0.000000
0.000000
0.000000
0.000000
0.000000
0.000000
0.000000
0.000000
0.000000
0.968299
0.000000
0.304535
0.424707
0.000000
0.000000
0.000000
0.000000
0.430230
0.000000
0.000000
0.000000
0.000000
0.073445
0.279065
0.000000
1.194894
0.000000
0.000000
0.000000
0.000000
0.000000
0.000000
0.887202
0.000000
0.000000
0.000000
0.101950
0.000000
0.000000
0.000000
0.000000
0.760608
0.000000
0.217297
0.000000
0.000000
0.000000
0.000000
0.000000
0.000000
0.421050
0.131579
0.888942
0.401303
0.000000
0.000000
0.000000
0.000000
0.000000
0.000000
0.000000
0.099800
1.247822
0.000000
0.000000
1.921545
0.000000
0.000000
0.948743
0.000000
0.000000
0.294710
0.832094
0.192368
0.000000
0.025023
0.000000
0.000000
0.000000
0.000000
0.000000
0.000000
0.371785
0.000000
0.000000
0.000000
0.000000
0.000000
2.336514
0.000000
0.000000
0.000000
0.016236
0.000000
0.000000
0.000000
0.000000
0.074636
0.000000
0.000000
0.000000
0.000000
0.000000
0.000000
0.332728
0.000000
0.000000
0.000000
0.114937
0.000000
0.000000
0.000000
0.000000
0.000000
0.000000
0.151335
0.137869
0.000000
0.000000
0.150432
2.962892
0.000000
0.000000
0.765576
0.915021
0.000000
0.000000
0.000000
0.000000
0.000000
0.331032
0.058316
0.000000
0.578340
0.000000
0.000000
0.059980
0.408882
0.110528
0.000000
0.000000
0.024594
0.000000
0.000000
1.310137
0.000000
0.651648
0.000000
0.000000
0.000000
0.000000
0.000000
0.000000
0.000000
0.424374
0.000000
0.000000
0.000000
0.483740
0.000000
0.000000
0.274579
0.000000
0.000000
0.000000
0.000000
0.000000
0.000000
0.282018
0.292252
0.000000
0.000000
0.000000
0.000000
0.000000
0.299990
0.000000
0.000000
0.000000
1.232458
0.478729
0.000000
