0.000000
0.978257
0.000000
0.000000
0.044355
2.538661
0.000000
0.418012
1.103132
0.000000
0.000000
0.000000
0.393805
2.544618
0.000000
0.094928
0.000000
0.000000
0.000000
0.000000
1.285749
0.012777
0.000000
0.000000
0.000000
0.062364
0.000000
1.940115
0.000000
0.259126
0.000000
0.000000
0.000000
0.000000
0.520717
0.496952
0.000000
0.000000
0.000000
0.000000
0.000000
0.000000
0.000000
0.000000
0.000000
0.000000
0.788951
0.000000
0.794691
0.000000
0.058478
0.000000
0.000000
0.354091
0.000000
0.374964
0.196698
0.000000
0.000000
0.804569
0.000000
0.012308
0.000000
0.345589
0.000000
0.000000
0.000000
0.000000
0.000000
0.000000
0.000000
0.000000
0.000000
0.000000
0.000000
1.236394
0.000000
0.231831
0.000000
0.780993
0.000000
0.000000
0.000000
0.000000
0.000000
1.248904
0.000000
0.000000
0.000000
0.000000
0.000000
0.000000
0.000000
0.210261
0.000000
0.000000
0.000000
0.000000
0.000000
0.035382
0.939574
0.000000
0.000000
0.000000
0.000000
0.204788
0.000000
0.000000
0.000000
0.222437
0.000000
0.086909
0.000000
0.000000
0.000000
0.000000
0.252190
0.000000
0.000000
0.000000
0.000000
0.150390
0.000000
1.173869
0.000000
0.000000
0.000000
0.000000
0.000000
0.000000
0.356162
0.351652
0.000000
0.000000
0.000000
0.039259
0.000000
0.000000
0.000000
0.000000
1.781957
0.000000
1.235254
0.000000
0.449246
0.000000
0.000000
0.000000
0.000000
0.000000
0.000000
0.000000
0.000000
0.790583
0.953289
0.283223
0.000000
0.727811
1.001469
0.000000
0.000000
0.000000
0.000000
0.000000
0.541571
0.000000
0.000000
0.000000
0.000000
0.000000
0.328153
0.000000
0.000000
0.069206
0.000000
0.000000
0.000000
0.000000
0.000000
0.000000
0.000000
0.754016
0.000000
0.000000
0.730190
0.000000
0.000000
0.752183
0.001680
0.000000
0.000000
0.000000
0.000000
1.322911
0.676338
0.000000
0.000000
0.200753
0.000000
0.000000
0.000000
0.000000
0.000000
0.000000
1.455906
0.008743
0.000000
0.923231
0.000000
0.000000
0.000000
1.916317
0.000000
0.261621
0.000000
0.000000
0.000000
0.000000
0.000000
0.000000
0.160546
0.000000
0.000000
0.000000
0.000000
0.000000
0.000000
0.000000
0.000000
0.000000
0.267114
0.000000
0.000000
0.000000
0.000000
1.258613
0.000000
0.938346
0.273019
0.000000
0.000000
0.000000
0.038548
0.000000
0.000000
0.000000
0.349192
0.000000
0.000000
1.128469
0.000000
0.000000
0.000000
0.000000
0.000000
0.000000
2.039710
0.000000
0.000000
0.000000
0.000000
0.000000
0.000000
0.000000
0.018752
0.000000
1.213488
0.000000
0.000000
0.000000
0.000000
0.707706
0.000000
0.000000
0.000000
0.000000
0.000000
0.800095
0.000000
0.000000
0.000000
0.000000
0.000000
0.000000
0.000000
0.000000
0.000000
0.000000
0.000000
0.000000
0.000000
0.993123
0.000000
0.000000
0.347492
0.000000
0.000000
0.000000
0.000000
0.000000
0.000000
0.632189
0.000000
0.000000
0.532666
0.000000
0.000000
0.000000
0.488525
0.000000
0.000000
0.000000
2.282196
0.000000
0.000000
0.000000
0.000000
0.121096
0.000000
0.661277
0.310221
0.000000
0.000000
0.000000
0.000000
0.000000
0.000000
0.000000
0.000000
1.310060
0.000000
0.000000
0.000000
0.000000
0.000000
0.000000
0.275352
0.725831
0.000000
0.000000
0.442628
0.000000
0.000000
0.000000
0.000000
0.000000
0.000000
0.485921
0.000000
0.000000
0.651193
0.000000
0.000000
0.000000
0.000000
0.115041
0.000000
0.000000
0.000000
0.000000
1.220104
0.000000
0.000000
2.326258
0.109448
0.000000
0.000000
0.000000
0.574374
0.090507
0.224743
0.083413
0.000000
0.000000
0.000000
0.000000
0.000000
0.153138
0.000000
0.953451
0.339212
0.797717
0.000000
0.358641
0.368300
0.000000
0.255679
0.381388
0.000000
0.351791
0.000000
0.000000
0.189997
0.000000
0.000000
0.000000
0.026301
0.000000
0.000000
0.000000
0.074366
0.298127
0.000000
0.000000
0.000000
0.000000
0.932274
0.000000
0.000000
0.000000
0.000000
0.000000
0.000000
0.000000
0.601259
0.000000
0.000000
1.920843
0.450490
0.000000
0.900727
0.000000
0.315497
0.000000
0.000000
0.000000
0.000000
0.000000
0.000000
0.000000
0.000000
0.000000
0.140044
0.199957
0.000000
0.000000
0.000000
0.000000
0.000000
0.217798
0.000000
1.172236
0.174277
0.393385
0.000000
0.367609
0.000000
0.000000
0.861629
0.494496
0.000000
0.000000
0.000000
0.000000
0.024258
0.296864
0.000000
0.000000
0.000000
0.000000
0.000000
0.363571
2.310215
0.000000
2.291619
0.000000
0.250294
0.000000
0.000000
0.000000
0.523456
0.000000
0.101851
0.000000
0.000000
0.000000
0.000000
0.000000
0.000000
0.017693
0.000000
0.000000
0.000000
0.079461
0.828793
0.000000
0.588939
0.000000
0.000000
0.041007
0.000000
0.000000
0.000000
0.000000
0.000000
1.214985
0.000000
0.194543
0.026669
0.746436
