0.000000
0.000000
0.000000
0.000000
0.000000
0.000000
0.000000
0.054922
0.000000
0.000000
0.000000
0.000000
1.412900
0.000000
0.000000
0.000000
0.000000
0.000000
0.000000
0.000000
0.000000
0.000000
0.214480
0.000000
0.483270
0.000000
0.000000
0.000000
0.000000
0.000000
0.000000
1.139799
0.000000
0.000000
0.000000
0.000000
0.000000
1.501703
0.000000
0.000000
0.000000
0.000000
0.000000
0.000000
0.000000
0.000000
0.000000
0.000000
0.000000
0.000000
0.000000
0.000000
0.000000
0.568137
0.000000
0.735832
0.000000
0.000000
0.000000
1.595055
0.000000
0.049696
0.000000
0.873757
0.000000
0.000000
0.400197
0.000000
0.000000
0.270513
0.308543
0.000000
0.120662
0.000000
0.459736
1.022407
0.182229
0.569889
0.000000
0.000000
0.000000
0.000000
0.453557
0.000000
0.000000
0.000000
1.744064
0.341754
0.000000
0.000000
0.000000
0.000000
0.000000
0.433417
1.613032
0.000000
0.828795
0.090659
0.000000
0.000000
0.000000
0.503189
0.000000
0.000000
0.000000
0.000000
0.000000
0.000000
0.929019
0.000000
0.000000
0.000000
0.000000
0.000000
0.000000
0.000000
0.896389
0.000000
0.000000
1.477080
0.000000
0.000000
0.000000
0.000000
0.000000
0.000000
0.000000
0.000000
0.000000
0.000000
0.000000
2.957195
0.000000
0.000000
0.160115
0.000000
0.000000
0.000000
0.000000
0.000000
0.000000
0.165495
0.000000
2.214167
0.000000
0.000000
0.000000
0.023336
0.000000
0.000000
0.217903
0.000000
0.000000
0.541259
0.000000
0.000000
0.000000
0.000000
0.000000
0.000000
1.714938
0.000000
0.000000
0.000000
0.095500
0.000000
0.000000
0.000000
0.000000
0.000000
0.000000
0.000000
0.000000
0.000000
0.000000
0.000000
0.000000
0.000000
0.530339
0.356154
0.281087
0.000000
0.000000
2.770950
0.000000
0.407843
0.495492
0.000000
0.000000
0.000000
0.000000
0.000000
0.000000
0.832596
0.000000
0.394301
0.000000
0.000000
0.000000
0.330744
0.000000
0.000000
0.000000
0.000000
0.000000
0.000000
4.254491
0.000000
0.000000
0.000000
0.441743
0.434783
1.585741
0.000000
0.000000
0.000000
0.000000
0.000000
0.000000
0.000000
0.000000
0.000000
0.000000
0.000000
0.000000
0.000000
0.000000
0.000000
0.000000
0.000000
0.000000
0.000000
0.000000
0.000000
0.000000
0.000000
0.000000
0.000000
0.692465
0.000000
0.042734
0.210463
0.699523
0.000000
0.000000
0.727780
1.779848
0.000000
0.104197
0.000000
0.000000
0.000000
0.000000
0.000000
0.000000
0.000000
0.601702
2.187349
0.000000
0.000000
0.000000
0.000000
0.000000
0.000000
1.050540
0.745169
0.000000
1.733123
0.292914
0.000000
0.220083
0.000000
1.129641
0.000000
0.000000
0.000000
0.000000
0.000000
0.474149
0.000000
0.000000
0.000000
0.000000
0.000000
0.307399
0.000000
0.210745
0.000000
0.000000
0.000000
0.000000
0.000000
0.000000
0.363936
0.000000
0.000000
0.000000
0.000000
0.101477
0.000000
0.000000
0.000000
1.352240
0.000000
0.000000
0.000000
0.000000
0.000000
0.000000
1.594962
0.000000
0.000000
0.361301
0.000000
0.000000
0.000000
0.000000
0.000000
0.000000
0.000000
1.397077
0.000000
0.000000
0.000000
0.000000
0.000000
0.558628
0.926732
0.106021
0.000000
0.000000
0.029264
0.000000
0.064876
0.000000
0.000000
0.000000
0.000000
0.000000
0.000000
1.422163
0.000000
0.000000
0.000000
0.000000
0.652478
0.000000
0.000000
0.000000
0.000000
0.000000
0.000000
0.572578
0.000000
0.000000
0.000000
0.000000
0.000000
0.000000
0.000000
1.289367
0.000000
0.000000
0.856776
0.000000
0.152263
0.000000
0.000000
0.000000
0.852291
0.056507
0.810983
0.000000
0.000000
0.000000
0.000000
1.064483
0.000000
0.000000
0.436768
0.000000
0.335241
0.000000
0.381297
0.479853
0.000000
0.000000
0.000000
0.000000
0.000000
0.000000
0.000000
0.000000
0.035618
0.000000
0.000000
0.000000
0.038975
0.000000
0.000000
0.000000
0.000000
0.000000
0.000000
0.000000
0.000000
0.000000
1.707726
1.136796
0.000000
0.000000
1.083275
0.123618
0.000000
0.000000
0.000000
0.000000
0.000000
0.786289
0.000000
0.000000
0.000000
0.000000
0.000000
0.000000
0.000000
0.000000
0.000000
0.523736
0.774928
0.000000
2.793011
0.000000
0.000000
0.000000
0.000000
0.000000
0.000000
0.000000
0.000000
0.000000
0.295121
0.000000
0.000000
0.000000
1.132172
0.000000
0.000000
0.000000
0.000000
0.000000
0.000000
0.000000
1.858300
0.000000
0.000000
0.000000
0.000000
0.000000
0.000000
0.000000
0.000000
0.143278
0.000000
0.000000
0.000000
0.000000
0.000000
0.000000
0.000000
0.071102
0.000000
0.000000
0.000000
0.000000
0.000000
0.000000
0.000000
0.000000
0.000000
2.498205
0.131903
0.567998
0.000000
0.198013
0.000000
0.887117
0.000000
0.000000
1.819590
0.000000
0.000000
0.000000
0.000000
0.000000
0.000000
0.000000
1.198411
0.000000
0.000000
