0.000000
0.727678
0.000000
0.129417
0.669087
0.380674
0.000000
0.000000
0.000000
0.000000
0.000000
0.000000
0.000000
3.021218
0.000000
0.000000
0.000000
0.000000
0.000000
0.000000
0.553331
0.000000
0.000000
0.000000
0.205274
0.000000
0.000000
0.000000
0.000000
0.000000
0.000000
0.395006
0.053238
0.000000
0.000000
0.000000
0.000000
0.332624
0.000000
0.174477
0.000000
0.000000
0.000000
0.531837
0.000000
0.000000
0.000000
0.000000
0.000000
0.000000
0.000000
0.000000
0.000000
0.454337
0.000000
0.000000
0.000000
0.000000
0.000000
0.940991
0.000000
0.424813
0.000000
0.351933
0.000000
0.000000
0.000000
0.000000
0.000000
0.000000
0.490732
0.000000
0.220380
0.000000
0.060335
0.000000
0.000000
0.302980
0.360951
0.000000
0.000000
0.000000
0.000000
0.000000
0.000000
0.000000
2.129610
0.243939
0.000000
0.000000
0.000000
0.000000
0.000000
0.532879
0.000000
0.000000
0.000000
0.025991
0.000000
0.000000
0.484000
0.000000
0.000000
0.000000
0.000000
0.585555
0.000000
0.371699
0.673222
0.109661
0.000000
0.594217
0.000000
0.000000
0.000000
0.000000
0.145119
0.000000
0.000000
0.000000
0.000000
0.000000
0.000000
0.000000
0.132084
0.000000
0.000000
0.000000
0.000000
0.000000
0.000000
0.000000
0.000000
0.832117
0.000000
0.000000
0.000000
0.000000
0.000000
0.000000
2.565543
0.101090
0.000000
2.500028
0.000000
0.000000
0.000000
0.159061
0.000000
0.000000
0.000000
0.000000
0.000000
0.000000
0.000000
0.271794
0.000000
0.000000
0.000000
0.000000
1.251957
0.000000
0.000000
0.000000
0.677346
0.000000
0.000000
0.000000
0.088136
0.000000
0.000000
0.000000
0.000000
0.000000
0.000000
0.000000
0.000000
0.000000
0.000000
0.000000
0.175017
0.000000
0.000000
0.000000
0.341660
0.000000
0.041884
0.000000
0.000000
0.000000
0.000000
0.000000
0.000000
0.000000
0.000000
0.515807
0.000000
0.000000
0.000000
0.000000
0.000000
0.000000
0.000000
0.000000
0.000000
0.000000
4.134989
0.000000
0.819040
0.726506
0.033930
0.192559
0.353652
0.738402
0.000000
0.000000
0.000000
0.000000
0.000000
0.000000
0.000000
0.000000
0.000000
0.569257
0.000000
0.000000
0.000000
0.000000
0.000000
0.000000
0.000000
0.000000
0.000000
0.000000
0.000000
0.000000
0.080453
0.000000
1.289767
0.000000
0.266450
1.129728
0.000000
0.000000
0.000000
0.733857
0.000000
0.000000
0.000000
0.000000
0.000000
0.272070
0.000000
0.179499
0.004200
0.000000
0.000000
0.260879
0.000000
0.000000
0.000000
0.000000
0.000000
0.000000
0.000000
0.000000
0.198294
0.000000
0.000000
0.492924
0.000000
0.000000
1.119977
0.000000
0.000000
0.000000
0.000000
0.000000
0.000000
0.029560
0.000000
0.000000
0.000000
0.000000
0.000000
1.463641
0.000000
0.000000
0.000000
0.000000
0.000000
1.416546
0.000000
0.033360
0.000000
0.000000
0.000000
1.025553
0.000000
0.000000
0.000000
0.000000
1.289036
0.246999
0.000000
0.000000
0.000000
0.000000
0.000000
0.000000
0.000000
0.000000
0.377413
0.391399
0.000000
0.000000
0.000000
0.170610
0.000000
0.000000
0.774705
0.000000
0.000000
0.000000
0.000000
0.000000
0.188614
0.215669
0.429278
0.249649
0.000000
0.000000
0.000000
0.518472
0.000000
0.000000
0.000000
0.000000
0.000000
0.000000
0.406473
0.000000
0.000000
0.000000
0.000000
0.000000
0.000000
0.000000
0.000000
0.000000
0.728996
0.000000
0.012319
0.000000
0.417447
0.000000
0.000000
0.036355
0.000000
0.000000
0.000000
0.000000
0.000000
0.296490
1.163606
0.000000
0.000000
0.000000
0.000000
0.000000
0.074649
0.000000
0.000000
0.000000
0.000000
0.000000
0.000000
0.000000
0.000000
0.000000
0.000000
0.000000
0.000000
1.956850
0.331940
0.000000
0.000000
0.000000
0.000000
0.475237
0.268137
0.046492
0.000000
0.000000
0.000000
0.000000
0.000000
0.000000
0.000000
0.000000
0.000000
0.000000
0.000000
0.000000
0.000000
0.000000
1.253415
0.012691
2.057775
0.000000
0.455842
0.000000
0.000000
0.000000
0.000000
0.076919
0.000000
0.000000
1.963922
0.000000
0.718342
0.000000
0.000000
0.000000
0.000000
0.000000
0.000000
0.000000
0.445593
0.000000
0.000000
1.952447
0.000000
0.000000
0.000000
0.000000
0.124944
0.000000
0.254901
0.000000
0.000000
0.000000
0.000000
0.081858
0.000000
0.000000
0.000000
0.000000
0.234269
0.106290
0.000000
0.000000
0.000000
0.000000
1.155364
0.000000
0.000000
0.000000
0.223423
0.000000
0.000000
0.193240
1.966303
0.000000
0.592168
0.000000
0.640087
0.000000
0.000000
0.000000
0.059317
0.000000
0.000000
0.000000
0.000000
0.000000
0.000000
0.000000
0.000000
0.012100
0.000000
0.000000
0.086080
0.172621
0.397295
0.000000
1.231554
0.000000
0.000000
0.177656
0.075606
0.000000
0.000000
0.000000
0.000000
0.000000
0.000000
0.000000
0.000000
0.000000
