0.553566
0.000000
0.000000
0.000000
0.000000
0.000000
0.499945
0.419183
0.000000
0.000000
0.000000
0.000000
0.000000
1.582289
0.000000
0.182817
0.000000
0.000000
0.000000
0.000000
0.657040
0.000000
0.000000
0.142655
1.013660
0.000000
0.000000
0.538337
0.348428
0.113428
0.000000
0.000000
0.000000
0.000000
0.000000
0.816437
0.000000
0.000000
0.000000
0.421654
0.461025
0.133058
0.000000
1.955682
0.000000
1.358038
0.000000
0.000000
0.284214
0.000000
0.000000
0.104203
3.224125
0.000000
0.000000
0.000000
0.030813
0.000000
0.000000
1.645835
0.000000
0.000000
0.233409
0.267937
0.000000
0.000000
0.000000
0.000000
0.000000
0.750768
1.157436
0.000000
0.000000
0.000000
0.000000
0.000000
0.000000
0.000000
0.042762
0.000000
0.000000
0.813971
0.536225
0.000000
0.325990
2.324170
0.459419
0.448502
0.000000
0.000000
0.000000
0.000000
0.000000
0.606795
0.100849
0.000000
0.000000
0.000000
0.063843
0.000000
0.149612
0.000000
0.000000
1.205823
0.000000
0.000000
0.000000
0.050464
0.000000
0.000000
0.000000
0.000000
0.000000
0.000000
0.000000
0.433419
0.000000
2.415921
0.000000
0.000000
0.000000
0.000000
0.000000
0.000000
0.000000
0.000000
0.223955
0.000000
0.000000
0.000000
0.000000
0.000000
0.000000
1.590953
0.000000
0.058442
0.000000
0.000000
0.000000
0.000000
0.000000
1.189840
2.699347
0.000000
0.000000
0.000000
0.000000
0.000000
0.432760
0.000000
0.000000
1.620338
0.000000
0.420155
1.206819
0.000000
0.000000
0.000000
0.000000
0.000000
0.000000
0.000000
0.000000
0.269866
0.000000
0.402123
0.000000
0.000000
0.044957
0.000000
0.109309
0.000000
0.049299
0.000000
0.000000
0.000000
0.000000
0.000000
0.000000
0.066333
0.000000
0.000000
0.000000
0.511961
0.424143
0.524164
0.000000
0.832864
0.344870
0.000000
0.000000
0.080446
0.000000
0.000000
0.135029
0.000000
0.000000
0.265601
0.646409
0.253138
0.000000
0.000000
0.000000
0.000000
0.000000
0.000000
1.299399
2.188957
0.000000
0.000000
0.000000
0.000000
0.445654
0.037705
0.000000
0.000000
0.000000
0.000000
0.000000
0.000000
0.115367
0.000000
0.000000
1.718707
0.000000
0.000000
0.000000
0.000000
0.000000
0.000000
0.000000
0.000000
0.366750
0.378122
0.000000
0.277969
0.000000
0.000000
0.000000
0.000000
0.131416
0.000000
0.000000
0.000000
0.000000
1.051971
0.000000
0.000000
0.000000
0.000000
0.000000
0.000000
0.181168
1.672293
0.000000
0.263115
0.000000
0.000000
0.000000
0.000000
0.000000
0.000000
0.000000
0.000000
0.000000
0.000000
0.000000
0.000000
0.000000
0.000000
0.000000
0.000000
0.000000
0.000000
0.000000
1.740932
0.000000
0.872520
0.000000
0.000000
0.000000
0.000000
0.000000
0.509425
0.000000
0.470975
0.164513
0.000000
0.000000
0.000000
0.000000
0.000000
0.194958
0.000000
0.000000
0.005837
1.951167
0.576872
0.000000
0.000000
0.000000
0.000000
0.000000
0.680100
0.000000
0.000000
0.000000
0.000000
0.000000
0.000000
0.000000
0.000000
0.000000
0.828566
0.000000
0.000000
0.000000
0.192797
0.000000
0.000000
0.000000
0.000000
0.163657
0.000000
0.000000
0.000000
1.030281
0.000000
0.000000
1.070346
0.000000
0.000000
0.000000
0.000000
0.000000
0.000000
0.000000
0.000000
0.000000
0.000000
0.114695
0.382049
0.000000
0.000000
2.032170
0.000000
0.045844
0.233007
0.000000
0.000000
0.231732
0.000000
0.000000
0.657977
0.000000
0.000000
0.000000
0.000000
0.000000
0.000000
0.000000
0.000000
0.000000
0.000000
0.000000
1.169434
0.000000
0.000000
0.649828
0.000000
0.000000
0.000000
0.000000
0.000000
0.000000
0.000000
0.000000
0.000000
0.000000
0.000000
0.000000
0.000000
0.000000
0.000000
0.350800
0.000000
0.204060
0.000000
0.000000
0.235099
0.000000
0.044804
0.000000
0.000000
0.000000
0.406222
0.000000
0.161258
0.000000
0.000000
0.000000
0.000000
0.000000
0.000000
0.000000
0.000000
1.157354
0.000000
0.000000
0.000000
0.042382
0.404875
0.000000
0.000000
0.000000
1.003937
0.000000
0.000000
0.862300
0.000000
0.492292
0.000000
0.000000
0.000000
0.000000
0.000000
0.000000
0.000000
0.000000
0.000000
0.000000
0.000000
0.000000
0.875351
0.000000
0.000000
0.000000
0.046414
0.000000
0.000000
0.000000
0.799958
1.061115
0.000000
0.000000
0.000000
0.208212
0.371706
1.942451
0.000000
0.186157
0.000000
0.000000
0.000000
1.382551
0.000000
0.000000
0.028656
0.000000
0.000000
0.000000
0.258723
0.336127
0.000000
0.000000
0.000000
0.000000
0.000000
0.000000
0.497361
0.000000
0.000000
0.698161
0.000000
0.350777
0.000000
0.000000
0.000000
2.308235
0.000000
0.000000
0.000000
0.000000
0.000000
0.000000
0.000000
0.000000
0.293941
0.000000
0.000000
0.000000
0.000000
0.067551
0.304964
0.000000
0.000000
0.000000
0.000000
0.000000
1.026039
