0.182354
0.000000
0.000000
0.000000
0.000000
0.000000
0.787045
0.000000
0.178942
0.000000
0.000000
0.000000
0.000000
1.740135
0.000000
0.089516
0.000000
0.000000
0.000000
0.000000
0.386956
0.000000
0.000000
1.147544
0.000000
0.000000
0.000000
1.501703
0.390524
0.070564
0.000000
0.000000
0.000865
0.000000
0.763134
0.131843
0.000000
0.000000
0.000000
0.000000
0.000000
0.000000
0.000000
0.000000
0.000000
0.291804
0.000000
0.000000
0.000000
0.000000
0.144034
0.000000
2.135045
0.000000
0.000000
0.000000
0.000000
0.000000
0.000000
0.061139
0.000000
0.000000
0.023023
0.178880
0.000000
0.000000
0.000000
0.000000
0.000000
0.000000
0.321196
0.000000
0.000000
0.000000
0.000000
0.574207
0.010822
0.000000
0.000000
0.000000
0.000000
0.000000
0.000000
0.000000
0.672595
1.793693
3.075668
0.000000
0.011597
0.000000
0.000000
0.038792
0.000000
0.438635
0.000000
0.000000
0.000000
0.000000
0.513355
0.000000
1.045101
0.000000
0.000000
0.315272
0.006163
0.278632
0.000000
0.246503
0.000000
0.000000
0.000000
1.789251
0.000000
0.000000
0.000000
0.236046
0.000000
0.000000
0.000000
0.000000
0.000000
0.000000
0.000000
0.000000
0.000000
0.000000
0.976169
0.000000
0.000000
0.000000
0.000000
0.000000
0.000000
0.552627
0.000000
0.000000
0.000000
0.000000
0.000000
0.000000
1.367321
0.000000
1.188746
0.000000
0.000000
0.000000
0.000000
0.000000
1.126408
0.000000
0.000000
0.774272
0.000000
1.137556
1.916973
0.721074
0.000000
0.000000
0.000000
0.000000
2.343406
1.078792
0.000000
0.000000
0.000000
0.281387
0.000000
0.000000
0.000000
0.000000
0.000000
0.000000
0.000000
1.825654
0.000000
0.000000
0.000000
0.000000
0.000000
0.958564
0.000000
0.000000
0.000000
0.000000
0.000000
0.000000
0.000000
0.000000
0.000000
0.000000
0.000000
0.000000
0.000000
0.000000
0.000000
0.000000
0.000000
0.000000
0.000000
1.074484
0.000000
0.000000
0.000000
0.000000
0.000000
0.000000
3.320731
1.058169
0.000000
0.000000
0.000000
0.000000
0.000000
0.234044
0.000000
0.000000
0.000000
0.000000
0.000000
0.000000
0.336751
0.000000
0.000000
2.153723
0.000000
0.000000
0.000000
0.000000
0.000000
0.000000
0.000000
0.000000
0.229385
0.000000
0.000000
0.314528
0.000000
0.000000
0.000000
0.000000
0.000000
0.000000
0.157951
0.000000
0.000000
0.767380
0.000000
0.000000
0.000000
0.000000
0.000000
0.396555
0.000000
0.000000
0.568215
0.033779
0.000000
0.000000
0.000000
0.000000
0.000000
0.000000
0.000000
0.000000
0.000000
0.000000
0.584749
0.000000
0.000000
0.000000
0.000000
0.000000
0.000000
0.000000
0.495811
0.000000
0.190791
0.511506
1.591879
0.000000
0.000000
0.000000
0.000000
0.116589
0.000000
0.907962
0.667516
0.000000
0.000000
0.000000
0.000000
0.140548
1.703006
0.008066
0.319647
0.000000
1.487941
0.796635
0.000000
0.000000
0.000000
0.212001
1.509726
0.000000
0.000000
0.000000
0.000000
0.000000
0.387216
0.000000
0.000000
0.000000
0.040962
0.000000
1.377225
0.000000
0.474385
0.092379
0.000000
0.000000
0.000000
0.000000
0.000000
0.000000
0.000000
0.000000
0.000000
0.633863
0.000000
0.000000
0.212664
0.000000
0.000000
0.000000
0.000000
0.825876
0.000000
0.000000
0.000000
0.000000
1.023129
0.015669
0.000000
0.000000
0.470974
0.000000
0.000000
0.000000
0.000000
0.000000
0.942868
0.000000
0.000000
0.000000
0.492682
0.000000
0.000000
0.000000
0.000000
0.487381
0.000000
0.024350
0.000000
0.000000
0.501466
0.000000
0.000000
0.000000
0.440611
0.426407
0.598298
0.000000
0.000000
0.000000
0.000000
0.000000
0.000000
0.000000
0.000000
0.000000
0.469634
0.000000
0.374777
2.450308
0.000000
0.000000
0.540217
0.000000
0.000000
0.492795
0.998215
0.007448
0.000000
0.190767
0.000000
0.269094
0.138924
0.079377
0.000000
0.000000
0.319738
0.000000
0.000000
0.000000
0.000000
0.000000
1.838424
0.000000
0.000000
0.000000
0.773324
0.006290
0.000000
0.000000
0.000000
0.495643
0.000000
0.000000
0.000000
0.000000
0.000000
0.000000
0.000000
0.000000
0.000000
0.000000
0.651190
0.000000
0.000000
0.000000
0.000000
0.000000
0.009149
0.224513
0.156244
0.000000
0.000000
0.249737
0.910895
0.000000
0.000000
1.296357
0.631863
0.130389
0.000000
0.000000
0.000000
0.869501
0.988371
0.009350
0.000000
0.000000
0.000000
0.000000
0.000000
0.000000
0.000000
0.032782
0.237298
0.000000
0.023643
0.000000
0.614653
0.000000
0.643845
0.000000
0.111784
0.000000
0.000000
0.654113
0.000000
0.000000
0.000000
0.000000
0.011691
0.000000
0.894359
0.000000
0.000000
0.067815
0.000000
0.000000
0.000000
0.000000
0.000000
0.534957
0.591674
0.073263
0.000000
0.000000
0.000000
0.000000
0.000000
0.347726
0.000000
0.000000
0.000000
0.377321
0.000000
0.153153
