0.000000
0.000000
0.000000
0.000000
0.000000
0.000000
0.031250
0.000000
0.000000
0.000000
0.000000
0.000000
0.000000
0.000000
0.000000
0.000000
0.000000
2.244866
0.000000
0.095628
0.000000
0.000000
0.190769
0.000000
0.000000
0.000000
0.000000
1.077037
0.000000
0.000000
0.000000
0.691984
0.000000
0.028796
0.433840
0.000000
0.000000
0.000000
0.000000
0.000000
0.000000
0.000000
0.000000
0.000000
0.000000
0.645149
0.000000
0.000000
0.051090
0.000000
0.000000
0.000000
0.000000
1.097381
0.000000
0.365713
0.000000
0.756203
0.000000
0.215733
0.000000
0.000000
0.000000
0.069566
0.000000
0.000000
0.000000
0.000000
0.000000
0.000000
0.161700
0.000000
0.000000
0.000000
0.000000
1.037501
0.000000
0.000000
0.000000
0.000000
0.000000
0.000000
0.000000
0.119803
0.000000
0.000000
1.022806
0.000000
0.000000
0.000000
0.000000
0.556209
0.000000
0.484585
0.311246
0.000000
0.000000
0.000000
0.000000
0.000000
0.798736
0.477084
0.000000
0.000000
0.000000
0.095452
0.000000
0.000000
0.260532
0.139761
0.000000
0.125215
0.000000
0.554594
0.000000
0.000000
1.059970
0.000000
0.000000
0.491323
0.000000
0.000000
0.000000
0.000000
0.027938
0.000000
0.000000
0.455655
0.000000
0.000000
0.000000
0.924661
0.000000
0.000000
0.177955
0.102863
0.000000
0.457388
0.235373
0.000000
0.440892
0.000000
0.748171
0.893672
0.072168
0.000000
0.000000
0.000000
0.370861
0.000000
0.744224
0.000000
0.000000
0.787144
0.930995
0.126796
0.000000
0.000000
0.000000
0.000000
0.000000
0.000000
0.000000
0.000000
0.000000
0.000000
0.000000
0.000000
0.000000
0.000000
0.000000
0.000000
0.000000
1.104652
0.000000
0.000000
0.000000
0.000000
0.000000
0.255621
0.000000
0.000000
0.000000
1.267199
0.000000
0.000000
0.000000
0.000000
0.108100
0.000000
0.000000
0.000000
0.000000
0.078434
0.706737
0.000000
0.000000
0.000000
0.000000
1.172735
0.000000
0.000000
0.000000
0.000000
0.000000
0.000000
2.426834
0.000000
0.000000
0.000000
0.000000
0.444438
0.695091
0.000000
0.000000
0.000000
0.000000
0.000000
0.000000
0.000000
0.000000
0.000000
0.000000
0.000000
0.000000
0.000000
0.000000
0.000000
0.000000
0.000000
0.000000
0.000000
0.000000
0.000000
0.000000
0.000000
0.000000
0.748542
0.000000
0.000000
0.000000
0.000000
0.394809
0.000000
0.008737
0.407530
0.214589
0.307456
0.103088
0.000000
0.000000
0.079155
0.000000
0.000000
0.000000
0.000000
0.000000
0.714390
0.000000
0.000000
0.000000
0.000000
0.000000
0.000000
0.058764
0.159794
0.185786
0.000000
0.017003
0.127393
0.711604
0.009302
0.000000
0.000000
1.298576
0.000000
0.000000
0.000000
1.613141
0.000000
0.000000
0.000000
0.000000
0.471267
0.000000
0.000000
0.000000
0.000000
0.000000
0.359675
0.000000
0.000000
0.181128
0.323285
0.000000
0.000000
0.000000
0.000000
0.000000
0.000000
0.000000
0.269374
0.775538
0.000000
1.336095
0.000000
0.000000
0.000000
0.000000
1.315012
0.032796
0.078757
0.000000
0.000000
0.000000
0.000000
0.000000
0.000000
0.000000
0.000000
0.000000
0.000000
0.329331
0.000000
0.000000
0.000000
0.000000
0.590548
0.000000
1.382441
0.697192
0.000000
0.000000
0.000000
0.000000
0.000000
0.000000
0.000000
0.000000
0.000000
0.379867
0.313183
0.000000
1.678872
0.000000
0.303999
0.000000
0.000000
0.000000
0.000000
0.000000
0.000000
0.038369
0.000000
0.304473
0.000000
0.000000
0.000000
0.554159
0.000000
0.331075
0.321990
0.000000
0.000000
0.000000
0.438667
0.000000
0.000000
0.008156
0.729038
0.236714
0.227835
0.000000
0.000000
0.000000
0.000000
0.000000
0.000000
0.000000
0.163567
0.825441
0.017759
0.307333
0.344852
0.000000
0.475486
0.000000
0.316218
0.000000
0.000000
0.768058
0.000000
0.000000
0.030770
0.000000
0.000000
0.000000
0.000000
0.000000
0.000000
0.119976
0.000000
0.000000
0.000000
0.000000
0.000000
0.000000
0.000000
0.000000
0.000000
0.000000
0.966333
0.212682
0.000000
0.079410
0.000000
0.049376
0.000000
0.000000
0.000000
0.000000
0.000000
0.138736
0.000000
0.000000
0.000000
0.000000
0.000000
0.010583
0.000000
0.000000
1.187093
0.200164
0.000000
0.000000
0.000000
0.000000
0.000000
0.903079
0.000000
0.012917
0.063732
0.134778
0.000000
0.000000
0.139594
0.000000
0.000000
0.070258
0.000000
0.000000
0.000000
0.000000
0.878364
0.000000
0.000000
0.000000
0.000000
0.000000
1.224945
0.000000
0.000000
0.133834
0.309841
0.252697
0.000000
0.124441
0.000000
0.000000
0.000000
0.000000
0.000000
0.000000
0.000000
0.098320
0.000000
0.190468
0.000000
0.000000
0.000000
0.344961
0.000000
0.000000
0.000000
0.000000
0.000000
0.307680
0.000000
0.000000
0.104765
0.000000
0.000000
0.000000
0.000000
0.000000
0.072663
0.000000
2.195101
0.000000
0.000000
