0.000000
0.065632
0.000000
0.000000
0.379711
0.153191
0.000000
0.000000
0.151662
0.157635
0.000000
0.000000
0.117147
1.787039
0.692540
0.000000
0.000000
0.000000
0.000000
0.000000
0.288183
0.000000
0.419259
1.052341
0.000000
0.105317
0.000000
0.000000
0.000000
0.000000
0.000000
2.108799
0.000000
0.000000
0.000000
0.000000
0.000000
0.210542
0.000000
0.684025
0.000000
0.000000
1.130112
1.132752
0.000000
0.000000
0.000000
0.000000
0.000000
0.000000
0.496955
0.000000
0.000000
1.430857
0.000000
0.000000
0.000000
0.888386
0.000000
0.904459
0.000000
0.205043
0.000000
0.000000
0.000000
0.000000
0.000000
0.000000
0.000000
0.000000
0.000000
0.000000
0.000000
0.000000
0.000000
0.000000
0.000000
0.000000
0.029117
0.000000
0.182987
0.000000
0.000000
0.000000
0.000000
0.000000
0.000000
0.000000
0.000000
0.000000
0.000000
0.064915
0.000000
0.000000
1.638744
0.000000
0.000000
0.102043
0.000000
0.033056
0.000000
0.000000
0.195181
0.000000
0.000000
0.000000
0.000000
0.155617
0.000000
0.625781
0.000000
0.000000
0.095764
0.425796
0.000000
0.000000
0.000000
0.105262
0.000000
0.000000
0.000000
0.000000
0.026621
0.000000
0.000000
0.000000
0.000000
0.000000
0.000000
0.000000
0.000000
0.000000
0.000000
0.000000
0.000000
0.000000
0.000000
0.000000
0.000000
0.585674
0.547299
0.000000
0.000000
1.346511
0.000000
0.000000
0.160224
0.000000
0.000000
0.000000
2.462376
0.000000
0.000000
0.006794
0.829533
0.751547
1.640047
0.000000
0.000000
0.486387
0.322414
0.111126
0.098572
0.000000
0.000000
0.000000
0.000000
0.138535
0.000000
0.000000
0.000000
0.000000
0.000000
0.323237
0.000000
1.008034
0.000000
0.000000
0.000000
0.000000
0.000000
0.000000
0.000000
0.000000
0.030365
0.506299
0.000000
0.540184
0.000000
0.000000
0.000000
0.000000
0.074461
0.000000
0.000000
0.000000
0.000000
0.000000
0.145929
0.000000
0.000000
0.000000
0.000000
0.000000
0.000000
0.000000
0.000000
0.000000
0.000000
0.000000
0.000000
0.000000
0.147289
0.170452
0.000000
0.000000
0.000000
0.000000
0.000000
0.000000
0.000000
0.000000
0.000000
0.000000
0.000000
0.000000
0.000000
0.000000
0.000000
0.000000
0.000000
0.000000
2.049853
0.000000
0.000000
0.205897
0.000000
0.000000
0.290284
0.000000
0.010573
0.635791
0.000000
0.542771
0.000000
1.230212
0.000000
0.000000
0.000000
0.000000
0.362197
0.000000
0.000000
0.523417
0.147959
0.000000
0.000000
0.000000
0.000000
0.309297
0.000000
0.000000
0.000000
0.000000
0.000000
0.000000
0.000000
0.000000
0.000000
0.000000
0.176292
0.407475
0.000000
0.000000
0.181845
1.570398
0.196551
0.449761
0.000000
0.086292
0.000000
0.000000
0.463315
0.802666
0.000000
0.151516
0.000000
0.000000
0.000000
0.634869
0.000000
0.070790
0.000000
0.000000
0.000000
1.663435
0.000000
0.000000
0.000000
0.000000
0.000000
0.000000
0.000000
0.000000
2.133290
0.000000
0.000000
0.000000
0.184181
0.000000
0.159393
0.021961
0.000000
0.684012
0.000000
0.459002
0.151308
0.000000
0.000000
0.000000
0.422686
0.000000
0.000000
0.012678
0.000000
0.000000
0.000000
0.000000
0.632111
0.000000
0.000000
0.000000
0.000000
1.273481
0.000000
0.000000
0.000000
0.000000
0.000000
0.000000
0.000000
0.000000
0.000000
0.000000
0.000000
0.499629
0.042547
0.000000
0.000000
0.000000
0.000000
0.000000
0.000000
3.002541
0.000000
0.314000
0.000000
0.000000
1.359092
0.000000
0.699972
0.000000
0.000000
0.218224
0.000000
0.073383
0.000000
0.000000
0.000000
0.000000
0.004025
0.000000
0.000000
0.000000
0.000000
0.330792
0.652338
0.000000
0.000000
0.759146
0.000000
0.000000
0.000000
0.000000
0.481244
2.246127
0.000000
0.000000
0.000000
0.245271
1.240429
0.000000
0.000000
0.000000
0.000000
0.000000
0.000000
0.000000
0.000000
0.000000
0.000000
0.000000
0.553073
0.000000
0.083937
0.000000
0.333929
0.000000
0.652389
0.000000
0.000000
0.000000
0.000000
0.000000
0.763027
0.000000
0.000000
0.000000
1.889208
0.000000
0.735484
0.000000
0.552420
0.000000
0.000000
0.000000
0.000000
0.000000
0.000000
0.000000
0.000000
1.497328
0.000000
0.000000
0.000000
0.000000
0.017431
0.000000
0.000000
0.415049
0.000000
0.000000
0.062027
0.000000
0.000000
0.000000
0.000000
0.000000
0.000000
0.000000
0.000000
1.314740
0.000000
0.000000
0.985164
0.000000
0.000000
0.000000
0.000000
0.043967
0.000000
0.000000
0.000000
0.000000
0.006153
0.000000
0.025155
0.000000
0.000000
0.000000
0.000000
1.231315
0.543033
0.000000
0.226801
0.037166
0.436501
0.000000
0.000000
0.000000
0.000000
0.000000
0.133632
0.000000
0.000000
0.299943
0.000000
0.000000
0.000000
0.000000
0.000000
0.611616
0.000000
0.000000
0.029752
0.166128
0.000000
0.000000
0.000000
0.000000
