0.000118
1.318139
0.000000
0.000000
0.110001
0.000000
0.000000
0.000000
0.825666
0.165585
0.000000
0.000000
0.051911
0.323763
0.524590
0.000000
0.000000
0.000000
0.000000
0.000000
0.000000
0.000000
0.000000
0.000000
0.000000
0.484217
0.301764
0.000000
0.000000
0.000000
0.000000
1.150055
0.000000
0.000000
0.000000
0.000000
0.000000
1.576658
0.000000
1.528591
0.000000
0.000000
1.112900
0.876712
0.000000
0.000000
0.149731
0.000000
0.000000
0.465885
0.000000
0.417330
0.000000
0.513037
0.000000
0.000000
0.000000
0.266237
0.000000
1.204468
0.000000
0.000000
0.000000
0.000000
0.000000
0.000000
0.193538
0.000000
0.000000
0.000000
0.000000
0.556581
0.000000
0.000000
0.000000
0.000000
0.000000
0.197844
0.000000
0.000000
0.000000
0.000000
0.000000
0.136478
0.000000
0.000000
0.000000
0.000000
0.011461
0.000000
0.000000
0.000000
0.027890
0.000000
0.060497
0.000000
1.292210
0.000000
0.114059
0.159956
0.000000
0.246595
0.368850
0.000000
0.000000
0.000000
0.000000
0.295046
0.000000
0.124324
0.000000
0.000000
0.072540
0.000000
0.000000
0.000000
0.000000
0.000000
0.000000
0.000000
0.000000
0.000000
0.402575
0.000000
0.131993
0.000000
0.000000
0.000000
0.000000
0.000000
0.000000
0.000000
0.000000
0.000000
0.000000
0.000000
0.000000
0.000000
0.000000
0.700397
0.029034
0.000000
0.000000
0.318749
0.586345
0.000000
0.204857
0.000000
0.000000
0.000000
1.514382
0.000000
0.000000
0.000000
0.000000
0.211975
0.256816
0.000000
0.000000
0.690933
1.114411
1.248690
0.203126
0.000000
0.000000
0.000000
0.000000
0.000000
0.000000
0.000000
0.000000
0.000000
0.000000
0.000000
0.000000
2.304061
0.000000
0.000000
0.000000
0.000000
0.000000
1.163175
0.000000
0.455847
0.000000
0.000000
0.221846
0.000000
0.000000
0.000000
0.000000
0.000000
0.719002
0.142654
0.000000
0.000000
0.000000
0.000000
0.286165
0.000000
0.000000
0.000000
0.050840
0.000000
0.000000
0.000000
0.000000
0.000000
0.378450
0.129386
0.000000
0.000000
0.206978
0.474192
0.000000
0.000000
0.000000
0.000000
0.000000
0.000000
0.000000
0.000000
0.000000
0.000000
0.000000
0.000000
0.000000
0.000000
0.000000
0.000000
0.293821
0.000000
0.337109
0.000000
0.000000
0.000000
0.000000
0.259610
0.000000
0.000000
0.000000
0.184890
0.000000
0.866381
0.069177
0.000000
0.611687
0.000000
0.089916
0.000000
1.177336
0.000000
0.000000
0.225927
0.000000
0.000000
0.045045
0.084755
0.000000
0.000000
0.000000
0.000000
0.000000
0.000000
0.171893
0.373832
1.661669
0.000000
0.030395
0.000000
0.000000
1.310847
0.103996
0.000000
0.000000
0.095303
0.556249
0.000000
0.000000
0.000000
0.000000
0.000000
0.115681
0.000000
0.000000
0.000000
0.000000
0.000000
0.000000
0.000000
0.000000
0.972425
0.348457
0.048428
0.000000
1.251788
0.000000
0.000000
0.000000
0.000000
0.000000
0.000000
0.000000
0.000000
1.651881
0.000000
0.000000
0.000000
0.000000
0.000000
0.022789
1.159888
0.000000
0.180201
0.000000
1.187436
0.000000
0.000000
0.000000
0.000000
0.607734
0.000000
0.035901
0.254945
0.000000
0.000000
0.040809
0.074642
0.721294
0.178931
0.000000
0.000000
0.000000
0.000000
0.000000
0.153432
0.000000
0.000000
0.000000
0.000000
0.000000
0.000000
0.000000
0.000000
0.000000
1.443347
0.000000
0.000000
0.000000
0.198200
0.000000
0.000000
0.000000
2.645548
0.000000
0.094357
0.000000
0.000000
0.929623
0.000000
2.124178
0.000000
0.135136
0.334477
0.000000
0.000000
0.000000
0.000000
0.000000
0.000000
0.000000
0.807957
0.000000
0.469874
0.210828
0.902598
0.936322
0.000000
0.000000
0.000000
0.131681
0.000000
0.000000
0.802461
0.000000
1.300608
0.000000
0.000000
0.000000
0.000000
0.000000
0.214037
0.145806
0.000000
0.000000
0.000000
0.000000
0.000000
0.000000
0.000000
0.000000
0.850957
1.212483
0.000000
0.232705
1.385315
0.000000
0.000000
0.000000
0.000000
0.000000
0.000000
0.119515
0.046824
1.158377
0.000000
0.257349
0.000000
0.000000
0.000000
0.017176
0.000000
0.204266
0.000000
0.000000
0.000000
0.000000
0.000000
0.056316
0.378362
0.000000
0.000000
0.012905
0.000000
0.000000
0.000000
0.662966
0.000000
0.000000
0.355431
0.000000
0.000000
0.000000
0.000000
0.107250
0.000000
0.000000
0.000000
0.000000
0.000000
0.000000
0.000000
0.000000
0.143124
0.000000
0.000000
0.000000
0.152519
0.066799
0.000000
0.000000
0.000000
0.275685
0.000000
0.000000
0.000000
0.208179
0.000000
0.000000
0.000000
0.000000
0.898834
0.000000
0.000000
0.078450
0.000000
0.000000
0.000000
0.000000
0.000000
0.284337
0.000000
0.234461
0.000000
0.013389
0.528143
0.000000
0.000000
0.000000
0.000000
0.019955
0.328338
0.000000
0.000000
0.663813
0.931540
0.095919
0.000000
0.380915
0.000000
