0.158089
0.000000
0.000000
0.000000
0.000000
0.000000
0.000000
0.331856
0.444655
0.009735
0.000000
0.000000
0.000000
0.530280
0.000000
0.000000
0.000000
0.000000
0.000000
0.000000
0.293245
0.000000
0.000000
0.000000
0.078009
0.000000
0.000000
0.393714
0.000000
0.108366
0.000000
0.000000
0.000000
0.000000
0.000000
0.143443
0.000000
0.000000
0.000000
0.855020
0.249045
0.000000
0.000000
0.734055
0.000000
1.041153
0.000000
0.000000
0.000000
0.000000
0.112744
0.000000
0.000000
0.000000
0.000000
0.000000
0.000000
0.255297
0.000000
1.352330
0.000000
0.000000
0.738971
0.000000
0.000000
0.000000
0.217007
0.000000
0.000000
0.847343
0.108666
0.223729
0.088881
0.000000
0.000000
0.230351
0.000000
0.000000
0.190510
0.000000
0.219422
0.086068
0.102482
0.000000
0.634756
0.037934
0.000000
0.614812
0.000000
0.000000
0.000000
0.000000
0.000000
0.000000
0.531620
0.000000
0.561987
0.300762
1.671298
0.000000
0.000000
0.000000
0.000000
0.000000
0.005458
0.000000
0.000000
0.000000
0.000000
0.000000
0.000000
0.652485
0.000000
0.000000
0.000000
0.024393
0.000000
0.802856
0.000000
0.475185
0.000000
0.000000
0.000000
0.000000
0.142727
0.000000
0.748540
0.000000
0.000000
0.000000
0.000000
0.000000
0.000000
0.469089
0.000000
0.000000
0.000000
0.000000
0.000000
1.522633
0.000000
1.543626
0.190252
0.000000
0.000000
0.000000
0.000000
0.000000
0.260910
0.000000
0.000000
0.000000
0.000000
0.000000
0.803814
0.000000
0.415040
0.000000
0.000000
0.000000
0.000000
0.523044
0.000000
1.050275
0.000000
1.695477
0.000000
0.000000
0.000000
0.000000
0.000000
0.000000
0.101159
0.000000
0.000000
0.000000
0.000000
0.000000
0.000000
0.000000
0.000000
0.376019
0.000000
0.965918
0.049540
1.334660
0.000000
1.434520
0.118793
0.000000
0.000000
0.000000
0.000000
0.299647
0.000000
0.000000
0.000000
0.178818
0.000000
0.076444
0.000000
0.000000
0.000000
0.000000
0.000000
0.000000
0.438438
0.308367
1.751618
0.141263
0.000000
0.000000
1.270320
0.031325
0.000000
0.000000
0.050825
0.000000
0.000000
0.000000
0.465452
0.000000
0.000000
0.200403
0.000000
0.000000
0.000000
0.000000
0.000000
0.180084
0.000000
0.000000
0.597581
0.748692
0.000000
0.000000
0.000000
0.086186
0.000000
0.000000
0.286982
0.000000
0.278352
0.466323
0.261198
0.235902
0.182657
0.000000
0.000000
0.065075
0.000000
0.000000
0.000000
0.913663
0.000000
0.062579
0.000000
0.000000
0.000000
0.000000
0.000000
0.000000
0.000000
0.000000
0.000000
0.307013
0.478197
0.156072
0.000000
0.000000
0.166402
0.000000
0.000000
0.000000
0.000000
0.000000
0.387067
0.406103
0.000000
0.000000
0.000000
0.000000
0.135232
0.453736
0.000000
0.203555
0.603296
0.000000
0.000000
0.000000
0.000000
0.495081
0.140800
0.000000
0.000000
0.120865
0.063340
0.000000
0.000000
0.000000
0.000000
0.000000
0.000000
0.634566
0.466362
0.000000
0.000000
0.000000
0.000000
0.000000
0.320915
0.000000
0.545980
0.673026
0.000000
0.000000
0.000000
0.000000
0.000000
0.000000
0.000000
0.000000
0.251941
0.000000
0.000000
0.000000
0.278676
0.911415
0.000000
0.212092
0.000000
0.000000
0.000000
0.000000
0.000000
0.474706
0.000000
0.000000
0.000000
0.000000
0.497174
0.138672
0.000000
0.191730
0.781300
0.675389
0.169690
0.037383
0.000000
0.000000
0.209461
0.000000
0.000000
0.000000
0.210527
0.127982
0.000000
0.000000
0.000000
0.236582
0.000000
0.000000
0.000000
0.000000
0.000000
0.878588
0.000000
0.000000
0.000000
0.000000
0.000000
0.000000
0.000000
0.475397
0.000000
0.000000
0.000000
0.000000
0.000000
0.000000
0.101865
0.000000
0.000000
0.772887
0.150549
0.000000
0.488196
0.000000
0.000000
0.000000
0.000000
0.000000
0.000000
0.053520
0.000000
1.201731
0.000000
0.029060
0.000000
0.000000
0.000000
0.000000
0.000000
0.000000
0.000000
0.184809
0.000000
0.000000
0.000000
0.000000
0.331669
0.835157
0.000000
0.000000
0.152178
0.000000
0.077538
0.068347
0.905699
0.000000
0.491469
0.000000
0.000000
0.000000
0.000000
0.000000
0.000000
0.000000
0.065827
0.000000
0.000000
0.000000
0.000000
0.000000
0.000000
0.000000
0.140964
0.000000
0.000000
0.071028
0.000000
0.298850
0.176435
0.117111
0.000000
0.129338
0.000000
0.000000
0.132238
0.000000
0.000000
0.000000
0.000000
0.056080
0.163838
0.000000
0.000000
0.061989
0.000000
0.000000
0.000000
0.000000
0.753616
0.000000
0.000000
0.000000
0.203084
0.000000
0.000000
0.100224
0.011991
0.000000
0.328479
0.000000
0.000000
0.000000
0.000000
0.000000
0.000000
0.000000
0.093927
0.285780
0.000000
0.000000
0.063583
0.000000
0.000000
0.000000
0.000000
0.000000
0.000000
0.877865
0.000000
0.000000
0.000000
0.313614
0.000000
0.274728
0.000000
0.807226
