0.000000
0.000000
0.095603
0.000000
0.000000
0.277924
0.000000
0.045252
0.181871
0.019454
0.000000
0.000000
0.000000
0.000000
0.000000
0.000000
0.000000
1.012496
0.000000
0.415527
0.000000
0.099351
0.000000
0.000000
0.059188
0.000000
0.000000
0.000000
0.000000
0.000000
0.000000
0.000000
0.000000
0.372156
0.831400
0.000000
0.000000
0.105964
0.000000
0.888186
0.000000
0.000000
0.031136
0.132361
0.000000
0.000000
0.000000
0.000000
0.078272
0.065893
0.000000
0.000000
0.000000
0.000000
0.000000
0.000000
0.000000
0.000000
0.000000
0.000000
0.000000
0.000000
1.497048
0.000000
0.000000
0.000000
0.000000
0.000000
0.000000
0.000000
0.000000
0.000000
0.000000
0.000000
0.083887
0.000000
0.000000
0.000000
0.219690
0.000000
0.000000
0.000000
0.000000
0.000000
0.335955
0.000000
0.265003
0.000000
0.000000
0.000000
0.000000
0.000000
0.233586
0.000000
1.210270
0.000000
0.204553
0.249057
0.439018
0.000000
0.000000
0.000000
0.000000
0.000000
0.000000
0.238380
0.000000
0.000000
0.170183
0.000000
0.000000
0.429763
0.000000
0.373613
0.000000
0.000000
0.000000
0.935145
0.000000
0.000000
0.043498
0.000000
0.000000
0.000000
0.750828
0.000000
0.296058
0.000000
0.000000
0.000000
0.000000
0.000000
0.039534
0.000000
0.013876
0.000000
0.000000
0.000000
0.354410
0.000000
0.000000
0.000000
0.000000
0.000000
0.000000
0.000000
0.066568
0.089250
0.000000
0.000000
0.728933
0.000000
0.000000
0.000000
1.444990
0.000000
0.124710
0.142374
1.473562
0.000000
0.000000
0.052029
0.000000
1.060429
0.150106
2.111434
0.000000
0.000000
0.001383
0.000000
0.065605
0.000000
0.000000
0.000000
0.000000
0.000000
0.000000
0.000000
0.000000
0.000000
0.000000
0.000000
0.000000
0.551660
0.000000
0.000000
0.288441
0.000000
0.252906
0.000000
0.000000
0.000000
0.497478
0.259058
0.000000
0.000000
0.000000
0.000000
0.398544
0.000000
0.000000
0.000000
0.000000
0.000000
0.635644
0.020177
0.776029
0.000000
0.000000
0.000000
0.000000
0.081739
0.000000
0.000000
0.000000
0.000000
0.042120
0.000000
0.024059
0.000000
0.000000
0.000000
0.000000
0.090379
0.000000
0.000000
0.202756
0.000000
0.000000
0.000000
0.000000
0.000000
0.259497
0.000000
0.000000
0.000000
0.110549
0.674108
0.000000
0.167175
0.568759
0.000000
0.000000
0.187503
0.007026
0.000000
0.000000
0.000000
0.050777
0.000000
0.000000
0.707786
0.000000
0.000000
0.000000
0.000000
0.000000
0.260870
0.000000
0.000000
0.000000
0.000000
0.000000
0.953345
0.348292
0.596019
0.402938
0.000000
0.000000
0.799314
0.000000
0.000000
0.000000
0.000000
0.960134
0.061495
0.000000
0.151680
0.001253
0.036027
0.000000
0.000000
0.141634
0.000000
0.000000
0.069094
0.000000
0.000000
0.000000
0.000000
0.000000
0.000000
1.764118
0.000000
0.000000
0.000000
0.000000
0.000000
0.000000
0.000000
0.000000
0.000000
0.000000
0.963877
0.000000
0.000000
0.000000
0.000000
0.074829
0.000000
0.000000
0.178788
0.000000
0.042251
0.000000
0.000000
0.000000
0.000000
0.093836
0.422609
0.000000
0.000000
0.000000
0.135953
0.000000
0.000000
0.379252
0.000000
0.000000
0.440360
0.000000
0.000000
0.000000
0.000000
0.000000
0.146343
0.000000
0.000000
0.000000
0.000000
0.074614
0.622305
0.000000
0.045270
0.000000
0.977352
0.167702
0.000000
0.000000
0.000000
0.000000
0.000000
0.000000
0.112935
0.000000
0.000000
0.000000
0.000000
0.944498
0.554887
0.496802
0.054659
0.214031
0.000000
0.000000
0.056053
0.000000
0.000000
0.000000
0.000000
0.000000
0.000000
0.000000
0.059451
0.597599
0.000000
0.000000
0.000000
0.000000
0.045098
0.436622
0.337879
0.000000
0.000000
0.000000
0.000000
0.000000
0.000000
0.000000
0.000000
0.000000
0.000000
0.000000
0.000000
0.000000
0.000000
0.000000
0.000000
0.000000
0.000000
0.330237
0.000000
0.409684
0.000000
0.000000
0.000000
0.000000
0.732667
0.000000
0.000000
0.057007
0.000000
0.613816
0.000000
0.000000
0.000000
0.000000
0.000000
0.171507
0.000000
0.000000
0.000000
0.000000
0.000000
0.000000
0.000000
0.000000
0.134307
0.000000
0.000000
0.000000
0.000000
0.295371
0.136832
0.000000
0.000000
0.000000
0.092704
0.200750
0.083790
0.000000
0.296502
0.000000
0.000000
0.000000
0.000000
0.034019
0.000000
0.000000
0.000000
0.000000
0.445840
0.000000
0.000000
0.318612
0.000000
0.158549
0.000000
0.172837
0.000000
0.029930
0.000000
0.726496
0.437401
0.000000
0.000000
0.000000
0.000000
0.000000
0.862476
0.000000
0.834178
0.000000
0.000000
0.000000
0.031154
0.405141
0.389782
0.000000
0.198381
0.065002
0.000000
0.000000
0.326098
0.437747
0.731924
0.091746
0.000000
0.000000
0.365150
0.000000
0.261231
0.000000
0.000000
0.000000
0.000000
0.746543
0.042765
0.000000
0.000000
