0.000000
0.000000
0.000000
0.000000
0.000000
0.000000
0.000000
0.000000
0.000000
0.000000
0.000000
0.000000
0.000000
2.331234
0.909000
0.000000
0.000000
0.000000
0.000000
0.000000
0.233345
0.008123
0.140167
0.079632
0.529952
0.000000
0.128267
0.000000
0.000000
0.000000
0.055062
2.661081
0.000000
0.000000
0.000000
0.000000
0.000000
0.000000
0.000000
0.232960
0.309645
0.000000
0.617345
0.102515
0.000000
0.000000
0.090731
0.000000
0.000000
0.000000
0.081036
0.278911
0.000000
0.000000
0.000000
2.477780
0.000000
0.352892
0.000000
0.000000
0.025157
0.051770
0.392611
0.321616
0.000000
0.000000
0.000000
0.000000
0.000000
0.000000
0.704990
0.313687
0.435348
0.000000
0.226097
0.000000
0.000000
0.000000
0.062257
0.000000
0.000000
0.000000
0.000000
0.384579
0.000000
0.000000
0.000000
0.533709
0.000000
0.000000
0.000000
0.947247
0.000000
0.000000
0.779591
0.000000
0.000000
0.516730
0.000000
0.000000
0.000000
0.293271
0.000000
0.488057
0.085862
0.000000
0.000000
0.067664
0.000000
0.000000
0.000000
0.000000
0.000000
2.002370
0.000000
0.000000
0.115893
0.000000
0.000000
0.318442
0.000000
0.000000
0.000000
0.000000
0.000000
0.000000
0.000000
0.000000
0.000000
0.000000
0.000000
2.047690
0.000000
0.211311
0.000000
0.000000
0.000000
0.632851
0.655316
0.000000
0.384732
0.000000
0.000000
4.538345
0.000000
0.000000
0.000000
0.000000
0.000000
0.000000
0.000000
0.000000
0.000000
0.000000
0.000000
0.000000
0.569857
0.000000
0.000000
0.000000
1.144309
0.000000
1.469209
0.199485
1.124758
0.000000
0.000000
0.000000
0.000000
0.000000
0.000000
0.000000
0.000000
0.000000
0.000000
0.000000
0.000000
0.000000
0.000000
0.000000
0.416971
0.000000
0.000000
0.000000
0.000000
0.000000
1.081121
0.000000
0.047294
0.000000
0.000000
0.000000
0.000000
0.000000
0.000000
0.000000
0.000000
0.000000
0.000000
0.000000
0.000000
0.000000
0.000000
0.000000
0.137108
0.000000
0.000000
0.000000
0.000000
0.000000
0.273821
0.000000
0.000000
0.268923
0.000000
0.000000
0.162739
0.000000
0.000000
0.614051
0.000000
0.000000
0.000000
0.000000
0.000000
0.000000
0.000000
0.000000
0.000000
0.000000
0.121552
0.000000
0.000000
0.000000
0.000000
0.000000
0.117199
0.000000
1.729969
0.000000
0.125459
0.359660
0.000000
0.000000
0.000000
0.000000
0.372261
0.000000
0.114582
0.000000
0.000000
0.000000
0.272889
0.208839
0.074854
0.000000
0.000000
0.000000
0.000000
0.181821
0.000000
0.000000
0.000000
0.000000
0.000000
0.000000
0.000000
1.810295
0.361901
0.455913
0.869498
0.000000
4.658414
0.000000
0.000000
0.000000
0.000000
0.000000
0.000000
0.000000
0.000000
0.000000
0.000000
0.000000
1.621499
0.000000
0.000000
0.000000
0.000000
0.000000
0.000000
0.000000
0.000000
0.086816
0.000000
0.000000
0.000000
0.394605
0.000000
0.000000
0.000000
0.000000
0.000000
0.000000
0.000000
0.000000
0.000000
0.000000
0.000000
2.097490
0.000000
0.000000
0.000000
0.458823
0.000000
0.000000
0.330207
0.000000
0.289977
0.000000
0.603609
0.000000
0.000000
0.174768
0.000000
0.000000
0.000000
0.395035
0.197467
0.000000
0.000000
0.228994
0.000000
0.244205
1.085088
0.000000
0.080392
0.000000
0.000000
0.000000
0.000000
0.000000
0.000000
0.000000
0.000000
0.308999
0.000000
0.008647
0.000000
0.000000
0.000000
0.000000
0.000000
0.000000
0.043367
0.000000
0.000000
0.000000
0.000000
0.000000
1.420310
0.300388
0.000000
0.000000
0.190187
0.000000
0.000000
0.000000
0.000000
0.000000
0.000000
0.000000
0.000000
0.110317
0.000000
0.000000
0.662009
0.000000
0.409728
0.079730
0.000000
0.000000
0.000000
0.669415
1.073142
0.163904
0.000000
0.000000
0.000000
0.000000
0.000000
0.000000
0.692644
0.047649
0.000000
0.000000
0.000000
0.000000
0.000000
0.000000
0.000000
0.000000
0.000000
0.000000
0.000000
0.000000
0.332388
0.000000
2.371130
0.000000
0.000000
0.000000
0.000000
1.391524
0.000000
0.000000
0.000000
0.000000
0.936569
0.000000
0.000000
0.000000
0.457081
0.000000
0.000000
1.523460
0.000000
0.000000
0.000000
1.428616
0.000000
0.597330
0.000000
0.000000
0.000000
0.000000
0.263741
0.000000
0.000000
0.000000
0.001230
0.000000
1.256755
0.000000
0.000000
0.000000
0.000000
0.000000
0.000000
0.000000
0.000000
0.000000
0.000000
1.273919
0.510769
0.000000
0.000000
0.000000
0.084441
0.065254
0.000000
0.000000
0.000000
0.231381
0.000000
0.000000
0.000000
0.000000
0.000000
0.000000
0.000000
0.000000
0.064474
0.000000
1.533961
0.000000
0.000000
0.000000
3.890566
0.000000
0.889065
0.000000
1.277289
0.049280
0.000000
0.000000
0.000000
2.018965
0.000000
0.000000
0.016200
0.000000
0.000000
0.000000
0.246833
0.000000
0.000000
0.000000
0.000000
0.000000
