0.298326
0.000000
0.000000
0.000000
0.000000
0.000000
0.000000
0.653481
0.000000
0.000000
0.000000
0.000000
0.524615
0.000000
0.000000
0.000000
0.000000
0.116721
0.000000
0.000000
0.000000
0.000000
0.000000
0.000000
0.000000
0.000000
0.000000
0.000000
0.184043
0.000000
0.000000
0.297603
0.113484
0.000000
0.000000
0.000000
0.000000
0.000000
0.000000
0.000000
0.000000
0.000000
0.000000
0.000000
0.000000
0.220702
0.000000
0.000000
0.281892
0.000000
0.000000
0.000000
0.000000
0.000000
0.000000
0.000000
0.000000
0.000000
0.000000
1.018293
0.208244
0.000000
0.000000
0.000000
0.000000
0.000000
0.000000
0.438504
0.000000
0.019281
0.000000
0.000000
0.000000
0.000000
0.000000
0.000000
0.006750
0.111005
0.000000
1.815424
0.000000
0.000000
0.000000
0.050046
0.000000
0.000000
0.222996
0.000000
0.000000
0.000000
0.000000
0.000000
0.000000
0.533908
0.000000
0.000000
0.228322
0.000000
0.000000
0.264372
0.000000
0.304266
0.000000
0.000000
0.000000
0.272829
0.000000
0.000000
0.797460
0.229675
0.000000
0.826568
0.000000
0.000000
0.000000
0.000000
0.685873
0.063766
0.000000
0.390983
0.000000
0.000000
0.000000
0.000000
0.000000
0.000000
0.000000
0.000000
0.000000
0.000000
0.000000
0.000000
0.000000
0.000000
0.000000
0.000000
0.179892
0.000000
0.000000
1.020342
0.000000
1.835310
0.948703
0.000000
0.000000
0.000000
0.000000
0.000000
0.000000
0.000000
0.000000
0.000000
0.000000
0.000000
2.592755
0.000000
0.000000
0.000000
0.000000
0.134735
0.361614
0.276775
0.000000
0.000000
0.000000
0.000000
0.000000
0.000000
0.000000
0.000000
0.074902
0.188572
0.000000
1.166712
0.000000
0.000000
0.000000
0.000000
0.000000
0.000000
0.288626
0.158855
0.000000
1.768923
0.000000
0.146120
0.000000
0.143974
0.000000
0.000000
0.000000
0.000000
0.000000
0.894577
0.000000
0.247689
0.000000
0.000000
0.000000
0.510905
0.000000
0.000000
0.000000
0.000000
0.000000
0.066569
0.628931
1.293274
0.627210
0.000000
0.000000
0.047728
0.275885
0.163582
0.000000
0.000000
0.000000
0.000000
0.000000
0.000000
0.774412
0.000000
0.000000
0.000000
0.000927
0.000000
0.000000
0.000000
0.000000
0.000000
0.282641
0.021342
0.014499
0.141686
0.000000
0.000000
0.000000
0.000000
0.000000
0.000000
0.467053
0.000000
0.000000
1.003795
0.229641
0.000000
0.000000
1.105180
0.000000
0.576565
0.083267
0.000000
0.000000
0.970162
0.000000
0.000000
0.000000
0.000000
0.000000
0.000000
0.000000
0.000000
0.000000
0.000000
0.000000
0.000000
0.064134
0.025418
0.000000
0.000000
0.000000
0.000000
0.000000
0.000000
0.348467
0.000000
0.000000
0.616921
0.048823
0.000000
0.000000
0.000000
0.000000
0.000000
0.000000
0.000000
0.147227
0.000000
0.000000
0.000000
0.000000
0.000000
0.000000
0.000000
0.000000
0.000000
0.000000
0.000000
0.000000
0.000000
0.000000
0.000000
0.027473
0.056489
0.000000
0.000000
0.000000
0.000000
0.000000
0.088318
0.395459
0.000000
0.671403
0.000000
2.066469
0.000000
0.364667
0.111001
0.000000
0.000000
0.000000
0.000000
0.875756
0.000000
0.000000
0.000000
0.000000
0.318926
0.000000
0.000000
0.105299
0.000000
0.000000
0.000000
0.000000
0.164737
0.000000
0.000000
0.000000
0.000000
3.060494
0.399590
0.040678
0.767516
0.000000
0.000000
0.141208
0.021204
0.000000
0.144005
0.105000
0.000000
0.000000
0.000000
0.000000
0.000000
0.000000
0.000000
0.000000
0.000000
0.000000
0.000000
0.000000
0.000000
0.128142
0.101926
0.000000
0.000000
0.440598
0.952580
0.000000
0.286157
0.000000
0.193961
0.000000
0.000000
0.668196
0.000000
0.266588
0.000000
0.000000
0.044395
0.000000
0.000000
0.000000
0.000000
0.868004
0.000000
0.000000
0.711820
0.853203
0.000000
0.000000
0.000000
0.000000
0.000000
0.068022
0.000000
0.000000
0.000000
0.000000
0.000000
0.000000
0.000000
0.000000
0.000000
0.000000
0.000000
0.000000
0.000000
0.000000
0.008537
0.000000
0.000000
0.000000
0.000000
0.000000
0.000000
0.000000
0.000000
0.000000
0.000000
0.000000
0.000000
0.000000
0.000000
0.227170
0.000000
0.000000
0.000000
0.000000
0.000000
0.000000
0.000000
0.202117
0.000000
0.000000
0.000000
1.354043
0.000000
0.019350
0.118885
0.000000
0.086012
0.000000
0.000000
0.035646
0.000000
2.383663
0.000000
0.000000
0.000000
0.000000
0.553807
0.000000
0.000000
0.000000
0.104220
0.193287
0.661861
0.074424
0.470537
0.000000
0.000000
0.000000
0.000000
0.000000
0.000000
0.000000
0.000000
0.000000
0.000000
0.495489
0.000000
0.000000
0.000000
0.000000
0.000000
0.247624
0.075175
0.553574
0.046316
0.000000
0.000000
0.000000
0.000000
0.000000
0.000000
0.000000
0.000000
0.000000
0.000000
0.000000
0.093324
0.000000
0.403273
0.000000
1.857231
0.000000
0.166407
