0.000000
0.000000
0.000000
0.000000
0.000000
0.000000
0.000000
0.569715
0.054840
0.000000
0.000000
0.000000
0.221076
0.000000
0.000000
0.389862
0.000000
0.000000
0.684706
0.125221
0.000000
0.000000
0.000000
0.000000
0.381305
0.000000
0.000000
0.000000
0.000000
0.000000
0.000000
0.167492
0.000000
0.000000
0.000000
0.000000
0.000000
0.000000
0.000000
0.000000
0.000000
0.000000
0.000000
0.000000
0.000000
0.000000
0.000000
0.000000
0.000000
0.836341
0.000000
0.000000
0.000000
0.000000
0.000000
0.549719
0.000000
0.000000
0.000000
0.779859
0.000000
0.000000
0.000000
0.000000
0.267043
0.000000
0.450709
0.221946
0.000000
1.048956
0.318612
0.000000
0.168700
0.000000
0.000000
0.367047
0.000000
0.000000
0.000000
0.000000
0.000000
0.000000
0.000000
0.000000
0.000000
0.000000
0.058868
0.000000
0.000000
0.000000
0.000000
0.000000
0.000000
0.000000
0.918373
0.000000
0.604063
0.000000
0.128395
0.000000
0.000000
0.000000
0.000000
0.000000
0.000000
0.009670
0.000000
0.000000
0.676331
0.000000
0.000000
0.335389
0.000000
0.000000
0.000000
0.000000
0.888651
0.092200
0.000000
1.870169
0.571793
0.000000
0.000000
0.000000
0.000000
0.000000
1.288939
0.390597
0.000000
0.000000
0.017638
2.872213
0.000000
0.000000
1.063621
0.000000
0.000000
0.000000
0.033469
0.000000
0.000000
1.325336
0.371185
0.000000
0.041984
0.000000
0.000000
0.000000
0.519834
0.000000
0.000000
0.000000
0.000000
0.000000
1.738583
0.000000
0.000000
0.000000
0.732037
0.000000
0.370713
0.000000
0.000000
0.000000
0.000000
2.141109
0.000000
0.000000
0.000000
0.000000
0.181153
0.000000
0.000000
0.000000
0.000000
0.000000
0.000000
0.000000
0.000000
0.000000
0.000000
0.000000
0.000000
2.128428
0.000000
0.860069
0.724611
0.138292
0.000000
0.000000
0.000000
0.000000
0.000000
1.726341
0.000000
0.118769
0.000000
0.000000
0.000000
1.521646
0.000000
0.000000
0.000000
0.000000
0.000000
0.254595
0.647995
0.111638
0.000000
0.000000
0.000000
0.000000
0.347682
0.000000
0.000000
0.000000
0.000000
0.000000
0.000000
0.000000
0.005058
0.000000
0.000000
0.000000
0.000000
0.000000
1.450400
0.000000
0.000000
0.000000
0.000000
0.000000
0.000000
0.316945
0.000000
0.000000
0.069718
0.000000
0.000000
0.000000
0.000000
0.000000
0.501592
0.000000
0.000000
0.000000
2.184487
2.324440
0.005729
0.154072
0.000000
0.000000
0.000000
0.000000
0.000000
0.000000
0.383682
2.686816
0.000000
0.000000
0.000000
0.000000
0.000000
0.000000
1.291636
0.201339
0.000000
2.471924
0.000000
0.000000
0.321205
0.000000
0.000000
0.000000
0.728406
0.000000
0.000000
0.000000
0.000000
0.000000
0.000000
0.000000
0.275159
0.000000
0.000000
0.000000
0.281170
0.000000
0.000000
0.000000
0.000000
0.000000
0.000000
0.000000
0.000000
0.085914
0.000000
0.000000
0.416143
0.000000
0.000000
0.000000
0.713602
0.000000
0.000000
0.000000
0.000000
0.000000
0.310181
0.711410
0.000000
0.000000
0.759898
0.000000
0.000000
0.000000
0.022086
0.000000
0.000000
0.000000
0.000000
0.000000
0.000000
0.000000
0.000000
0.000000
0.000000
0.877664
0.000000
0.328053
0.000000
0.000000
0.000000
0.000000
0.000000
0.000000
0.074547
0.000000
0.000000
0.000000
2.603021
1.792524
0.000000
0.000000
0.000000
0.069673
0.000000
0.000000
0.000000
0.000000
0.000000
0.000000
0.190621
0.000000
0.000000
0.000000
0.000000
0.000000
0.000000
0.000000
1.709428
0.000000
0.000000
0.000000
0.000000
1.061453
0.000000
0.000000
0.000000
0.816099
0.000000
1.789686
0.000000
0.314974
0.000000
0.000000
1.655600
0.000000
0.000000
0.000000
1.440806
0.000000
0.000000
0.000000
0.000000
0.000000
0.000000
0.190385
0.000000
0.015309
0.000000
0.000000
0.000000
0.000000
0.000000
0.375837
0.000000
0.000000
0.000000
0.000000
0.000000
0.000000
0.000000
0.000000
0.000000
0.100718
0.000000
0.000000
0.000000
0.000000
0.000000
1.056995
0.000000
0.000000
0.000000
0.000000
0.000000
0.000000
0.000000
0.000000
0.000000
0.000000
0.030426
0.000000
0.000000
0.000000
0.000000
0.000000
0.000000
0.022005
0.000000
0.000000
0.000000
0.000000
0.000000
0.000000
0.000000
0.000000
1.371015
0.000000
0.000000
0.521150
0.000000
0.000000
0.000000
1.179213
0.000000
0.000000
0.000000
0.000000
0.000000
0.000000
0.000000
2.850141
0.000000
0.000000
0.000000
0.031736
0.009680
0.497890
0.000000
0.000000
0.719174
0.000000
0.000000
0.000000
0.000000
0.000000
0.000000
0.260036
0.000000
0.000000
0.331286
0.000000
0.000000
0.000000
0.000000
0.000000
0.000000
0.000000
1.971478
0.402497
0.000000
0.022757
0.036113
0.000000
0.000000
0.000000
0.000000
1.606689
0.000000
0.000000
0.000000
0.000000
0.000000
0.000000
0.000000
3.118504
0.000000
0.252588
