0.094245
0.000000
0.000000
0.000000
0.000000
0.000000
0.000000
0.578923
0.000000
0.000000
0.000000
0.000000
0.000000
0.000000
0.937973
0.000000
0.000000
0.000000
0.018126
0.339965
0.000000
0.000000
0.000000
0.000000
0.230149
0.186630
0.000000
0.000000
0.000000
0.000000
0.000000
0.703415
0.000000
0.000000
0.136277
0.000000
0.000000
0.000000
0.000000
0.000000
0.000000
0.000000
0.000000
0.000000
0.000000
0.787126
0.015815
0.000000
0.000000
0.000000
0.000000
0.000000
0.000000
0.000000
2.801407
1.104144
0.000000
0.000000
0.000000
0.000000
0.384787
0.000000
0.000000
0.000000
0.238108
0.000000
0.238496
2.088763
0.000000
0.283497
0.815579
0.000000
0.000000
0.000000
0.000000
0.000000
0.000000
0.000000
0.000000
0.588251
0.023240
0.000000
0.000000
0.000000
0.000000
0.000000
3.166133
0.000000
0.000000
0.000000
0.000000
0.146281
0.000000
0.520003
2.429999
0.000000
0.281746
0.000000
0.000000
0.000000
0.000000
0.000000
1.038505
0.000000
0.000000
0.812274
0.000000
0.000000
0.406647
0.000000
0.000000
0.462225
0.000000
0.000000
0.000000
0.000000
0.808636
0.000000
0.000000
1.357792
0.000000
0.000000
0.000000
0.000000
0.000000
0.000000
0.112046
1.267123
0.000000
0.000000
0.000000
0.307364
0.000000
0.000000
0.582003
0.000000
0.010823
1.550266
0.000000
0.000000
0.000000
0.216984
0.524220
1.579599
0.000000
0.000000
0.000000
0.000000
0.682726
0.000000
0.000000
0.000000
0.000000
0.864546
0.000000
0.806975
0.917805
0.000000
0.000000
0.356686
3.708864
0.000000
0.547575
0.000000
0.000000
0.000000
0.000000
0.000000
0.000000
0.000000
0.000000
0.110219
0.000000
1.158093
0.000000
0.000000
0.000000
0.000000
0.000000
0.000000
0.954579
0.000000
0.000000
2.587021
0.000000
0.000000
0.165383
0.000000
0.042289
0.000000
0.000000
0.000000
0.000000
0.000000
0.000000
0.413967
0.000000
0.000000
0.000000
3.306526
0.000000
0.000000
0.000000
0.000000
0.000000
0.000000
2.126544
0.353501
0.000000
0.000000
0.329675
0.000000
0.000000
0.215455
0.000000
0.000000
0.000000
0.000000
0.000000
0.000000
0.000000
0.000000
0.000000
0.000000
0.000000
0.000000
0.000000
0.000000
0.000000
0.000000
0.982172
0.000000
0.000000
0.000000
0.000000
0.000000
0.000000
0.000000
0.000000
0.000000
0.000000
0.000000
0.480864
0.000000
0.000000
0.000000
0.483263
1.317020
0.111064
0.000000
0.000000
0.660466
0.000000
0.000000
0.335191
0.000000
0.000000
2.121581
0.000000
0.000000
0.000000
0.000000
0.028560
0.000000
0.738523
0.000000
0.666550
0.165282
0.044281
0.000000
0.113786
0.000000
0.024968
0.000000
0.000000
0.000000
0.000000
0.000000
3.068631
0.000000
0.000000
0.000000
0.000000
0.000000
0.000000
0.000000
0.381268
0.099249
0.000000
0.000000
0.000000
0.000000
0.000000
0.272604
0.000000
0.000000
0.000000
0.557638
0.383401
0.000000
0.000000
0.314095
0.280112
0.000000
0.000000
0.000000
0.000000
0.000000
0.000000
3.405637
0.203619
0.000000
0.000000
0.000000
1.667343
0.000000
0.974237
0.040658
0.000000
0.000000
0.000000
0.000000
0.443491
0.000000
0.000000
0.000000
0.345396
1.944498
0.000000
0.000000
0.293742
0.083201
0.000000
0.000000
0.000000
0.000000
0.000000
0.000000
0.000000
0.000000
0.753231
0.000000
0.000000
0.000000
0.000000
0.360202
0.000000
0.000000
0.000000
0.000000
0.000000
0.000000
0.208219
0.000000
1.026467
0.000000
0.000000
0.000000
0.000000
0.097380
0.659562
1.470726
0.000000
0.000000
1.357283
0.283875
0.000000
0.000000
0.000000
0.000000
0.123021
1.165961
0.000000
0.000000
0.181763
0.000000
1.517451
0.000000
0.000000
0.000000
1.346004
0.000000
0.000000
0.000000
0.000000
0.000000
0.000000
0.000000
0.000000
0.558276
0.100744
0.053385
0.595225
0.181463
0.000000
0.059281
0.261562
0.000000
0.000000
0.000000
0.000000
0.000000
0.000000
0.000000
0.027952
0.203155
0.000000
0.000000
0.000000
0.000000
0.024581
0.402490
0.000000
0.000000
0.000000
0.000000
0.000000
0.000000
0.000000
0.000000
0.000000
0.000000
0.000000
0.000000
0.000000
0.472249
0.000000
0.000000
0.000000
1.044512
0.000000
1.855108
0.000000
0.000000
0.292666
0.000000
0.000000
0.000000
2.258238
0.000000
0.000000
0.000000
0.000000
0.000000
0.000000
0.222976
0.000000
0.000000
1.089985
0.000000
0.000000
0.000000
0.000000
2.725749
0.000000
0.000000
0.000000
0.000000
0.262428
0.314939
0.000000
0.248775
0.000000
0.525361
0.000000
0.000000
0.000000
0.000000
0.000000
0.000000
0.512519
0.000000
0.000000
0.000000
0.025554
0.019632
0.000000
0.000000
0.000000
0.000000
0.000000
0.000000
0.938490
0.000000
0.000000
0.072324
0.000000
0.070716
0.000000
0.184639
0.000000
0.000000
0.000000
0.000000
0.000000
0.312930
0.000000
3.519274
0.000000
0.079561
