0.000000
0.000000
0.000000
0.000000
0.055150
0.000000
0.000000
0.396697
0.839965
0.000000
0.000000
0.000000
0.475164
0.073624
0.000000
0.000000
0.000000
0.000000
0.000000
0.000000
0.034476
0.000000
0.000000
0.000000
0.000000
0.000000
0.157816
0.000000
0.000000
0.108803
0.000000
0.012774
0.000000
0.000000
0.000000
0.005394
0.000000
0.000000
0.000000
0.497294
0.736807
0.000000
0.153491
0.616574
0.000000
1.182256
0.247798
0.000000
0.000000
0.435384
0.249089
0.000000
0.000000
0.000000
0.000000
0.000000
0.077400
0.000000
0.000000
1.889163
0.000000
0.000000
0.000000
0.072336
0.000000
0.000000
0.473994
0.000000
0.000000
0.836321
0.018257
0.392812
0.394154
0.037381
0.000000
0.200481
0.000000
0.000000
0.182496
0.000000
0.000000
0.000000
1.090970
0.000000
0.286921
0.319083
0.163019
0.745530
0.000000
0.000000
0.000000
0.000000
0.000000
0.485134
0.059102
0.000000
1.058847
0.033901
0.715541
0.000000
0.052694
0.000000
0.000000
0.000000
0.000000
0.000000
0.000000
0.000000
0.000000
0.000000
0.000000
0.102016
0.000000
0.000000
0.000000
0.000000
0.000000
1.403903
0.000000
0.253871
0.000000
0.020660
0.000000
0.094581
0.000000
0.000000
0.834670
0.000000
0.000000
0.000000
0.000000
0.000000
0.000000
0.000000
0.000000
0.000000
0.000000
0.000000
0.000000
0.856975
0.133237
1.088514
0.000000
0.000000
0.610593
0.000000
0.000000
0.000000
0.000000
0.000000
0.000000
0.000000
0.000000
0.000000
1.092531
0.000000
0.406179
0.000000
0.000000
0.000000
0.780542
0.635724
0.000000
0.000000
0.000000
0.506352
0.000000
0.000000
0.049571
0.000000
0.000000
0.000000
0.000000
0.000000
0.000000
0.000000
0.000000
0.000000
0.000000
0.000000
0.000000
1.900924
0.000000
1.011267
0.160621
1.626953
0.000000
2.483472
0.000000
0.000000
0.000000
0.000000
0.000000
0.510227
0.000000
0.294491
0.000000
0.602174
0.000000
0.000000
0.000000
0.000000
0.000000
0.000000
0.000000
0.000000
0.283637
0.000000
1.740193
0.936203
0.057268
0.490091
1.574222
0.179814
0.000000
0.000000
0.000000
0.000000
0.000000
0.000000
0.561517
0.000000
0.000000
0.233482
0.000000
0.000000
0.000000
0.000000
0.000000
0.015236
0.000000
0.000000
0.774143
0.559003
0.000000
0.252075
0.000000
0.000000
0.000000
0.000000
0.000000
0.000000
0.059911
0.620521
0.000000
0.257927
0.660638
0.000000
0.000000
0.518021
0.000000
0.000000
0.000000
0.114769
0.000000
0.284766
0.000000
0.000000
0.000000
0.000000
0.000000
0.000000
0.000000
0.000000
0.000000
0.000000
0.178539
0.538162
0.000000
0.000000
0.000000
0.669674
0.000000
0.000000
0.000000
0.000000
0.316629
0.559618
0.000000
0.000000
0.000000
0.000000
0.000000
0.415517
0.000000
0.282024
0.223849
0.000000
0.000000
0.000000
0.000000
0.325239
0.000000
0.000000
0.000000
0.319628
0.000000
0.000000
0.000000
0.000000
0.000000
0.000000
0.000000
0.000000
0.612511
0.000000
0.000000
0.000000
0.000000
0.000000
0.261953
0.000000
1.430038
0.205278
0.000000
0.000000
0.000000
0.133173
0.000000
0.183300
0.000000
0.000000
0.158170
0.000000
0.000000
0.000000
0.199596
0.721668
0.000000
0.000000
0.000000
0.000000
0.000000
0.000000
0.000000
0.627089
0.490576
0.000000
0.000000
0.000000
0.972313
0.264136
0.000000
0.000000
0.000000
0.104273
0.167272
0.135363
0.000000
0.020645
0.624197
0.000000
0.000000
0.000000
0.000000
0.000000
0.000000
0.000000
0.000000
0.000000
0.000000
0.000000
0.000000
0.000000
0.303944
0.874617
0.000000
0.000000
0.000000
0.438480
0.000000
0.000000
0.000000
0.367088
0.000000
0.000000
0.000000
0.000000
0.000000
0.189369
0.061983
0.479653
0.257132
0.623279
0.281510
0.000000
0.000000
0.000000
0.000000
0.000000
0.000000
0.000000
0.000000
0.000000
0.000000
1.100123
0.000000
0.000000
0.000000
0.000000
0.000000
0.000000
0.000000
0.000000
0.000000
0.000000
0.000000
0.325312
0.000000
0.000000
0.391648
1.405936
0.000000
0.000000
0.648316
0.000000
0.000000
0.463542
0.979534
0.000000
0.502986
0.005633
0.000000
0.000000
0.000000
0.000000
0.000000
0.000000
0.666767
0.414591
0.000000
0.000000
0.000000
0.000000
0.000000
0.000000
0.000000
0.000000
0.000000
0.000000
0.000000
0.589675
0.000000
0.112780
0.098036
0.393650
0.000000
0.000000
0.182560
0.080297
0.000000
0.000000
0.000000
0.000000
0.000000
0.000000
0.000000
0.000000
0.095872
0.000000
0.000000
0.000000
0.639721
0.000000
0.000000
0.000000
0.000000
0.000000
0.000000
0.000000
0.315415
0.000000
0.422626
0.000000
0.000000
0.000000
0.000000
0.000000
0.000000
0.000000
0.943428
0.776950
0.000000
0.054321
0.542632
0.000000
0.160685
0.000000
0.000000
0.000000
0.000000
1.651833
0.000000
0.000000
0.000000
0.103323
0.000000
0.000000
0.000000
0.201594
