0.233676
0.083379
0.000000
0.000000
0.000000
0.000000
0.000000
0.887534
0.000000
0.000000
0.000000
0.000000
0.423226
0.000000
0.000000
0.473872
0.000000
0.061528
0.000000
0.000000
0.000000
0.000000
0.000000
0.000000
1.407270
0.000000
0.354110
0.000000
0.011336
0.000000
0.015850
0.000000
0.045359
0.000000
0.000000
0.000000
0.000000
0.000000
0.000000
0.492724
0.132590
0.000000
0.124549
0.037018
0.000000
0.000000
0.012892
0.000000
0.101374
0.000000
0.000000
0.140826
2.199039
0.000000
0.000000
1.685358
0.000000
0.000000
0.000000
2.148829
0.000000
0.000000
0.000000
0.000000
0.000000
0.000000
0.000000
0.598081
0.000000
0.804804
1.227826
0.000000
0.000000
0.000000
0.000000
0.000000
0.000000
0.004262
0.000000
0.000000
0.000000
0.458856
0.000000
0.161023
0.000000
1.562742
1.090669
0.000000
0.000000
0.000000
0.000000
0.000000
0.000000
1.326810
1.089321
0.000000
0.000000
0.000000
0.000000
0.000000
0.000000
0.000000
0.000000
0.298366
0.000000
0.000000
0.000000
0.000000
0.208469
0.094623
0.000000
0.000000
0.000000
0.641394
0.000000
0.000000
0.000000
0.000000
0.000000
1.772362
0.442166
0.000000
0.055418
0.000000
0.000000
0.000000
0.000000
0.000000
0.000000
0.000000
0.000000
0.825642
0.000000
0.000000
0.000000
0.000000
0.000000
0.000000
0.000000
0.000000
0.000000
1.571980
2.538443
0.000000
0.000000
0.000000
0.000000
0.000000
0.531904
0.000000
0.000000
0.233232
0.000000
0.884692
1.463431
0.000000
0.856885
0.000000
0.000000
0.000000
0.839900
0.000000
0.000000
0.000000
0.000000
0.000000
0.000000
0.000000
0.000000
0.000000
0.000000
0.000000
0.000000
0.000000
0.000000
0.000000
0.000000
0.000000
0.000000
0.000000
0.177403
0.000000
0.000000
2.317451
0.069570
1.029593
0.896604
0.000000
0.069383
0.000000
0.000000
0.000000
0.000000
0.000000
0.000000
0.000000
0.000000
0.000000
0.142104
0.148073
0.000000
0.000000
0.000000
0.000000
0.000000
0.000000
0.000000
1.479428
0.000000
0.000000
0.000000
0.000000
0.883088
0.083234
0.000000
0.000000
0.089765
0.000000
0.000000
0.000000
0.000000
0.000000
0.000000
0.982079
0.000000
0.000000
0.066411
0.000000
0.000000
0.000000
0.000000
0.000000
0.000000
0.329378
0.000000
0.000000
0.000000
0.000000
0.000000
0.000000
0.017852
0.000000
0.000000
0.000000
0.000000
0.685584
0.898471
0.588376
0.000000
0.000000
0.000000
0.000000
0.000000
0.000000
0.000000
0.000000
0.000000
0.000000
0.000000
0.329954
0.000000
0.000000
0.000000
0.000000
0.000000
0.000000
0.000000
1.677188
0.000000
0.000000
0.000000
0.000000
0.000000
0.000000
0.422437
1.774864
0.000000
0.000000
0.100378
0.000000
0.000000
0.000000
0.000000
0.000000
0.028534
0.000000
0.323617
0.000000
0.000000
0.000000
0.000000
0.000000
0.000000
0.000000
0.000000
0.708689
0.563911
0.131475
0.000000
0.000000
0.000000
0.000000
0.000000
0.000000
0.203343
0.000000
0.000000
0.000000
0.000000
0.000000
0.000000
0.000000
0.000000
0.000000
0.000000
0.000000
0.000000
0.165819
0.000000
0.000000
0.000000
0.000000
0.274027
0.000000
0.000000
0.000000
0.809057
0.360671
0.000000
0.000000
0.000000
0.000000
0.000000
0.000000
0.000000
0.000000
0.000000
0.000000
0.000000
0.000000
1.942981
1.297574
0.000000
0.000000
0.000000
0.000000
0.000000
0.000000
0.000000
0.018764
0.000000
0.000000
0.000000
1.888415
0.000000
0.000000
0.000000
0.000000
0.000000
0.000000
0.000000
0.000000
0.000000
0.438308
0.329678
0.371142
0.000000
0.000000
0.760278
0.000000
0.000000
0.000000
0.000000
0.000000
0.000000
0.000000
0.000000
0.000000
0.000000
0.000000
0.000000
0.000000
0.000000
0.000000
0.221785
0.149743
0.000000
0.000000
0.000000
0.000000
0.000000
0.000000
0.745912
0.000000
0.000000
0.000000
0.000000
0.034884
0.000000
0.000000
0.000000
0.000000
0.000000
0.000000
0.000000
0.146998
0.000000
0.000000
0.000000
0.000000
0.000000
0.177325
0.000000
0.000000
0.000000
0.251702
0.015898
0.000000
0.925030
0.000000
0.000000
0.000000
0.000000
0.000000
0.000000
0.000000
0.000000
0.000000
0.168640
0.864440
0.000000
0.223616
0.000000
0.271773
0.000000
0.000000
0.000000
0.000000
0.000000
0.000000
0.014464
0.591132
0.000000
0.000000
0.000000
0.000000
0.000000
0.000000
1.352536
0.000000
0.000000
0.000000
0.000000
1.060311
0.205478
0.000000
0.000000
0.102786
0.156223
0.000000
0.000000
0.382807
0.000000
0.000000
0.000000
0.000000
0.000000
0.000000
0.000000
0.586565
0.339642
0.000000
0.129767
0.000000
0.591382
0.000000
0.000000
0.000000
0.906107
0.000000
2.034489
0.069485
0.000000
0.000000
0.000000
0.000000
0.000000
0.000000
0.000000
0.000000
0.000000
0.000000
0.040792
0.000000
0.000000
0.000000
0.000000
0.374972
0.000000
0.457856
