0.143251
0.000000
0.000000
0.000000
0.000000
0.000000
0.000000
0.822649
0.000000
0.000000
0.000000
0.000000
0.000000
0.000000
0.935403
0.374873
0.000000
0.000000
1.492469
0.000000
0.000000
0.000000
0.000000
0.000000
0.556315
0.000000
0.000000
0.000000
0.000000
0.000000
0.291472
0.459763
0.000000
0.000000
0.000000
0.000000
0.000000
0.000000
0.000000
0.000000
0.000000
0.000000
0.000000
0.000000
0.000000
0.491511
0.000000
0.000000
0.097837
1.795089
0.000000
0.000000
0.000000
0.000000
0.000000
1.665072
0.000000
0.000000
0.000000
0.859552
0.324643
0.000000
0.000000
0.000000
0.384636
0.000000
0.294333
0.000000
0.000000
1.774079
1.081309
0.000000
0.000000
0.000000
0.000000
0.000000
0.000000
0.159862
0.000000
0.000000
0.000000
0.000000
0.000000
0.000000
0.000000
0.689111
0.000000
0.000000
0.000000
0.000000
0.000000
0.000000
0.000000
0.000000
1.060378
0.000000
0.387889
0.000000
0.000000
0.000000
0.000000
0.096689
1.092388
0.000000
0.000000
0.000000
0.000000
0.160566
0.767681
0.000000
0.000000
0.000000
0.000000
0.000000
0.000000
0.000000
0.421935
0.000000
0.000000
2.154214
0.232217
0.000000
0.000000
0.000000
0.000000
0.000000
1.658745
0.024859
0.000000
0.000000
0.437939
1.956017
0.000000
0.000000
0.197635
0.000000
0.000000
0.000000
0.000000
0.000000
0.000000
3.010068
0.731120
0.436195
0.286315
0.000000
0.436714
0.017901
0.000000
0.000000
0.000000
0.000000
0.000000
0.000000
0.000000
0.299019
1.465896
0.000000
0.000000
0.177287
0.568099
0.000000
0.046338
0.000000
0.645023
0.810144
0.000000
0.000000
0.000000
0.000000
0.000000
0.000000
0.000000
0.000000
0.000000
0.000000
0.000000
0.000000
0.013855
0.000000
0.591239
0.274469
0.000000
2.369091
0.000000
0.050267
1.165023
0.000000
0.152700
0.000000
0.000000
0.114075
0.144225
0.000000
0.000000
0.074786
0.000000
0.000000
0.000000
1.803132
0.000000
0.000000
0.000000
0.000000
0.000000
0.294977
0.000000
0.000000
0.000000
0.000000
0.000000
0.000000
0.000000
0.174435
0.000000
0.000000
0.000000
0.000000
0.000000
0.000000
0.000000
0.000000
0.000000
0.000000
0.000000
0.000000
2.008594
0.000000
0.000000
0.000000
0.000000
0.000000
0.000000
0.000000
0.000000
0.000000
0.544966
0.000000
0.390781
0.000000
0.000000
0.000000
0.000000
0.000000
0.000000
0.000000
1.748713
1.022534
0.000000
0.000000
0.000000
0.000000
0.000000
0.000000
0.000000
0.000000
0.000000
2.112555
0.000000
0.000000
0.000000
0.000000
0.000000
0.000000
0.503345
0.000000
0.000000
2.282226
0.000000
0.067763
0.001516
0.048494
0.227806
0.000000
0.000000
0.000000
0.000000
0.000000
0.000000
0.000000
0.000000
0.000000
0.109521
0.000000
0.380184
0.000000
0.178437
0.000000
0.000000
0.000000
0.000000
0.000000
0.000000
0.000000
0.000000
0.335498
0.000000
0.000000
0.741042
0.000000
0.000000
0.041354
0.000000
0.000000
0.000000
0.000000
0.000000
0.000000
0.000000
0.999740
0.000000
0.022155
0.135506
0.000000
0.017415
0.000000
0.000000
0.000000
0.000000
0.000000
0.000000
0.000000
1.359743
0.000000
0.000000
0.000000
0.000000
1.382712
0.000000
0.000000
0.000000
0.000000
0.000000
0.000000
0.000000
0.000000
0.000000
0.239537
0.000000
0.000000
2.723888
0.000000
0.000000
0.552519
0.000000
0.962968
0.000000
0.186124
0.000000
0.000000
0.000000
0.000000
0.358196
0.000000
0.000000
0.447090
0.000000
0.000000
0.000000
0.000000
0.000000
0.173833
0.000000
0.000000
0.636922
2.072170
0.000000
0.000000
0.000000
0.108186
0.000000
1.316518
0.000000
0.600043
0.012621
0.000000
1.313420
0.000000
0.000000
0.000000
1.474394
0.097477
0.000000
0.000000
0.000000
0.000000
0.000000
0.000000
0.000000
0.364405
0.803594
0.000000
0.000000
0.000000
0.000000
0.000000
0.000000
0.000000
0.000000
0.000000
0.000000
0.000000
0.000000
0.000000
0.000000
0.000000
0.000000
0.000000
0.000000
0.000000
0.000000
1.572525
0.000000
0.000000
0.000000
0.000000
0.000000
0.000000
0.000000
0.000000
1.007496
0.000000
0.454432
0.000000
0.000000
0.000000
0.000000
0.000000
0.000000
0.801163
0.000000
0.000000
0.000000
0.000000
0.000000
0.000000
0.000000
0.000000
0.304247
0.000000
0.000000
0.139697
0.000000
0.000000
0.000000
1.666850
0.000000
0.000000
0.885243
0.000000
0.000000
0.000000
0.000000
3.168722
0.000000
0.000000
0.000000
0.000000
0.197445
0.000000
0.000000
0.113318
0.000000
0.000000
0.000000
0.000000
0.000000
0.000000
0.000000
0.000000
0.337436
0.000000
0.000000
0.000000
0.000000
0.000000
0.000000
0.000000
0.000000
0.000000
0.917402
0.000000
0.000000
0.033206
0.000000
0.000000
0.042993
0.000000
0.000000
1.315713
0.000000
0.000000
0.000000
0.000000
0.000000
0.000000
0.000000
2.822361
0.000000
0.000000
