0.000000
0.000000
0.000000
0.000000
0.000000
0.000000
0.419913
0.000000
0.008668
0.000000
0.000000
0.000000
0.000000
3.210204
0.000000
0.000000
0.000000
0.000000
0.000000
0.309370
0.515573
0.000000
0.000000
0.000000
0.000000
0.000000
0.000000
0.893361
0.000000
0.000000
0.000000
0.373716
0.000000
0.000000
0.245992
0.000000
0.000000
0.486164
0.000000
0.885303
0.000000
0.000000
0.000000
0.000000
0.000000
0.000000
0.000000
0.000000
0.000000
0.000000
0.000000
0.000000
0.000000
0.502898
0.000000
0.000000
0.000000
0.000000
0.000000
0.053068
0.000000
0.000000
0.240774
0.078014
0.000000
0.000000
0.000000
0.000000
0.000000
0.000000
0.279268
0.000000
0.092591
0.000000
0.000000
0.665306
0.000000
0.625302
0.624566
0.000000
0.000000
0.000000
0.000000
0.000000
0.000000
0.027781
2.578410
0.556931
0.000000
0.000000
0.000000
0.000000
0.000000
0.000000
0.000000
0.000000
0.000000
0.451962
1.093654
0.000000
0.966319
0.000000
0.141020
0.000000
0.000000
0.983265
0.000000
0.513460
0.115379
0.068313
0.000000
1.019623
0.000000
0.000000
0.000000
0.000000
1.090908
0.000000
0.000000
0.000000
0.000000
0.000000
0.000000
0.000000
0.000000
0.000000
0.446913
0.000000
0.000000
0.000000
0.000000
0.000000
0.000000
0.599202
0.000000
0.000000
0.000000
0.000000
0.000000
0.000000
2.878650
0.000000
0.054205
0.768049
0.000000
0.000000
0.000000
0.000000
0.648235
0.000000
0.000000
0.000000
0.000000
0.000000
1.158246
0.000000
0.000000
0.000000
0.000000
0.000000
1.943199
0.709464
0.000000
0.000000
0.000000
0.407039
0.000000
0.000000
0.000000
0.000000
0.000000
0.000000
0.000000
0.381978
0.000000
0.000000
0.000000
0.000000
0.000000
0.799982
0.000000
0.000000
0.000000
0.000000
0.000000
0.000000
0.000000
0.843471
0.108117
0.000000
0.000000
0.000000
0.000000
1.375149
0.000000
0.000000
0.000000
0.000000
0.000000
0.781513
0.000000
0.000000
0.000000
0.000000
0.000000
0.000000
3.700187
0.305182
1.196854
0.164925
0.000000
0.000000
0.000000
0.416231
0.000000
0.000000
0.000000
0.000000
0.000000
0.000000
0.176293
0.000000
0.000000
0.873744
0.000000
0.000000
0.000000
0.000000
0.000000
0.000000
0.000000
0.000000
0.180767
0.000000
0.000000
0.000000
0.000000
0.000000
0.000000
0.000000
0.000000
0.146518
0.460192
0.000000
0.000000
0.000000
0.000000
0.000000
0.000000
0.000000
0.000000
0.501439
0.000000
0.487409
0.310222
0.000000
0.534670
1.233725
0.000000
0.000000
0.000000
0.000000
0.000000
0.000000
0.000000
0.292615
0.436167
0.000000
0.000000
0.000000
0.000000
0.000000
0.000000
0.000000
0.132250
0.000000
0.000000
0.401417
0.000000
0.000000
0.000000
0.000000
0.000000
0.000000
0.000000
0.898588
0.471031
0.000000
0.000000
0.145139
0.000000
0.626497
1.284125
0.000000
0.000000
0.000000
0.000000
0.224157
0.000000
0.000000
0.000000
0.000000
1.371812
0.000000
0.000000
0.000000
0.000000
0.000000
0.000000
0.000000
0.000000
0.000000
0.878102
0.140207
0.000000
0.000000
0.576741
0.199611
0.000000
0.000000
0.000000
0.000000
0.000000
0.000000
0.000000
0.000000
0.658943
1.219759
0.000000
0.369853
0.081294
0.000000
0.000000
0.000000
0.000000
0.517596
0.130573
0.000000
0.000000
0.000000
0.145522
0.177268
0.000000
0.000000
0.234091
0.000000
0.000000
0.000000
0.000000
0.000000
0.744063
0.000000
0.000000
0.000000
0.640051
0.018518
0.000000
0.000000
0.000000
0.324388
0.558482
0.276397
0.000000
0.028988
0.832083
0.112258
0.000000
0.000000
0.000000
0.000000
1.024964
0.000000
0.000000
0.000000
0.000000
0.000429
0.186824
0.000000
0.000000
0.000000
1.167599
0.000000
0.000000
3.326079
0.000000
0.327855
0.000000
0.000000
0.000000
0.386952
0.325533
0.000000
0.000000
0.115739
0.000000
0.000000
0.213326
0.000000
0.000000
0.000000
0.000000
0.000000
0.000000
0.000000
0.000000
0.000000
1.870274
0.000000
0.000000
0.000000
0.971817
0.000000
0.000000
0.000000
0.000000
0.492034
0.000000
0.000000
0.735434
0.000000
0.572240
0.000000
0.000000
0.000000
0.000000
0.000000
0.000000
0.000000
0.000000
0.000000
0.000000
0.000000
0.000000
0.000000
0.000000
0.000000
0.000000
0.123253
1.843066
0.000000
0.000000
0.537441
0.889055
0.294389
0.000000
0.000000
0.000000
0.000000
0.282083
0.064981
0.000000
0.000000
0.000000
0.000000
0.815554
0.000000
0.000000
0.000000
0.021566
0.633918
0.000000
0.000000
2.245646
0.000000
0.096087
0.000000
0.323417
0.000000
0.000000
0.000000
0.000000
0.000000
0.303938
0.000000
0.000000
0.000000
0.143458
0.000000
0.000000
0.000000
0.000000
0.000000
0.026659
0.000000
0.018231
0.050718
0.000000
0.000000
0.000000
0.156486
0.000000
0.000000
0.000000
0.000000
0.000000
0.000000
0.000000
1.049842
0.000000
0.475541
