0.000000
0.000000
0.000000
0.000000
0.000000
0.000000
0.000000
0.377648
0.966978
0.301847
0.000000
0.000000
0.443827
0.761004
0.000000
0.015420
0.000000
0.000000
0.000000
0.000000
0.000000
0.000000
0.213114
0.000000
0.179249
0.000000
0.010715
0.000000
0.000000
0.000000
0.000000
0.000000
0.000000
0.000000
0.000000
0.000000
0.000000
0.000000
0.000000
1.683302
0.000000
0.000000
0.870863
1.511598
0.000000
0.185217
0.000000
0.000000
0.000000
0.793855
0.000000
0.000000
0.383375
0.000000
0.000000
0.000000
0.000000
0.000000
0.000000
2.061882
0.000000
0.000000
0.000000
0.000000
0.093212
0.000000
0.000000
0.000000
0.000000
1.297991
0.061818
0.377615
0.311927
0.023273
0.000000
0.000000
0.103612
0.000000
0.091302
0.000000
0.000000
0.016153
2.050559
0.000000
0.000000
0.242092
0.000000
0.203126
0.000000
0.000000
0.000000
0.000000
0.000000
0.000000
1.846712
0.000000
0.442797
0.000000
1.030662
0.142727
0.000000
0.114516
0.090597
0.000000
0.000000
0.000000
0.000000
0.000000
0.000000
0.000000
0.000000
0.000000
0.063055
0.000000
0.000000
0.000000
0.000000
3.236287
0.000000
0.000000
0.000000
0.000000
0.000000
0.433832
0.000000
0.000000
0.938178
0.000000
0.000000
0.000000
0.000000
0.000000
0.000000
0.000000
0.000000
0.000000
0.000000
0.000000
0.000000
0.886947
0.000000
0.491373
0.076163
0.000000
0.375855
0.000000
0.000000
0.000000
0.000000
0.000000
0.000000
0.470512
0.000000
0.000000
1.888312
0.000000
1.742587
0.000000
0.428966
0.000000
0.501202
0.304002
0.000000
0.000000
0.000000
1.097425
0.000000
0.000000
0.041716
0.000000
0.323988
0.000000
0.000000
0.000000
0.000000
1.112413
0.000000
0.000000
0.015261
0.000000
0.000000
0.254835
0.000000
0.665261
0.000000
1.577030
0.000000
2.677703
0.000000
0.000000
0.000000
0.000000
0.166359
0.000000
0.000000
0.104698
0.000000
0.135742
0.155892
0.000000
0.000000
0.000000
0.000000
0.000000
0.628033
0.000000
0.000000
0.000000
0.000000
0.000000
0.000000
0.264152
0.590385
0.008005
0.000000
0.000000
0.000000
0.000000
0.000000
0.000000
0.000000
0.000000
0.000000
0.000000
0.000000
0.000000
0.000000
0.000000
0.000000
0.000000
0.302510
0.000000
0.409876
0.197882
0.000000
0.000000
0.000000
0.000000
0.000000
0.000000
0.065894
0.000000
0.000000
0.683770
0.092021
0.173100
0.000000
0.000000
0.000000
0.215702
0.151279
0.000000
0.000000
0.663204
0.000000
0.231661
0.987236
0.000000
0.000000
0.000000
0.000000
0.000000
0.000000
0.549094
0.000000
0.000000
0.000000
0.195690
0.000000
0.000000
0.000000
0.338212
0.000000
0.000000
0.000000
1.498031
0.274462
0.508156
0.000000
0.000000
0.000000
0.000000
0.000000
0.238760
0.000000
0.000000
0.000000
0.000000
0.000000
0.000000
0.000000
0.391742
0.000000
0.000000
0.000000
0.648295
0.341028
0.000000
0.000000
0.000000
0.000000
0.000000
0.000000
0.000000
0.011122
0.000000
0.000000
0.000000
0.000000
0.000000
0.000000
0.000000
0.000000
0.373122
0.000000
0.274644
0.424936
0.000000
0.000000
0.744389
0.231099
0.000000
0.000000
0.000000
0.000000
0.000000
0.730633
0.133723
0.253338
0.000000
0.000000
0.000000
0.000000
0.360678
0.000000
0.000000
0.000000
0.000000
0.000000
0.000000
0.296876
1.450820
0.000000
0.000000
0.000000
1.461268
0.015286
0.182206
0.000000
0.059540
0.200752
0.000000
0.000000
2.126782
0.000000
0.447100
0.000000
0.000000
0.336140
0.000000
1.156009
0.000000
0.100375
0.000000
0.000000
1.998249
0.000000
0.000000
0.000000
0.000000
0.000000
0.000000
0.000000
0.478488
0.000000
0.000000
0.195774
0.000000
0.000000
1.040571
0.021906
0.000000
0.000000
0.024434
0.962615
0.000000
0.000000
0.000000
0.000000
0.000000
0.000000
0.000000
0.000000
0.000000
0.000000
0.231260
0.000000
0.000000
0.000000
0.000000
0.000000
0.597269
0.392047
0.000000
0.000000
0.012072
0.000000
0.698081
0.000000
0.000000
0.065801
1.052825
0.000000
0.000000
0.385293
0.000000
0.048319
0.000000
1.252287
0.000000
0.971383
0.000000
0.101653
0.000000
0.000000
0.000000
0.000000
0.000000
0.000000
0.750131
0.000000
0.000000
0.000000
0.000000
0.000173
0.000000
0.099331
0.000000
0.000000
0.362624
0.000000
0.128045
0.000000
0.000000
0.000000
0.000000
0.000000
0.000000
0.000000
0.000000
0.000000
0.809194
0.000000
0.000000
0.516317
0.000000
0.000000
0.000000
0.168203
0.000000
0.000000
0.000000
0.000000
0.000000
0.000000
0.000000
0.000000
0.000000
0.000000
0.000000
0.000000
0.252405
1.134815
0.000000
0.000000
0.000000
0.000000
0.000000
0.000000
0.066310
0.009348
0.368792
0.000000
0.617199
0.601456
0.058215
0.000000
0.000000
0.000000
0.000000
0.000000
1.013794
0.000000
0.000000
0.392398
0.245808
0.000000
0.000000
0.000000
0.000000
