0.000000
0.754553
0.000000
0.000000
0.433631
1.054465
0.000000
0.000000
2.526166
0.000000
0.000000
0.000000
1.519042
3.942399
0.000000
0.000000
0.000000
0.000000
0.000000
0.000000
1.555644
0.051008
0.416290
0.000000
0.000000
0.000000
0.000000
1.895404
0.000000
0.000000
0.000000
0.403853
0.000000
0.000000
0.000000
0.312841
0.000000
0.000000
0.000000
0.397966
0.000000
0.000000
0.000000
0.597704
0.000000
0.000000
1.588739
0.000000
0.000000
0.000000
0.000000
0.000000
0.000000
0.000000
0.000000
0.000000
0.000000
0.000000
0.000000
0.697947
0.000000
0.000000
0.000000
1.129744
0.000000
0.000000
0.000000
0.000000
0.000000
0.000000
0.000000
0.050817
0.000000
0.000000
0.000000
1.465916
0.000000
0.000000
0.000000
0.093157
0.000000
0.000000
0.000000
0.754909
0.000000
0.000000
0.185151
0.000000
0.000000
0.000000
0.000000
0.000000
0.000000
0.000000
0.000000
0.000000
0.000000
0.105484
0.000000
0.357874
0.399733
0.577704
0.000000
0.000000
0.000000
0.000000
0.000000
0.000000
0.000000
1.588864
0.000000
0.172453
0.000000
0.000000
0.000000
0.000000
0.282822
0.482095
0.000000
0.000000
0.000000
0.033418
0.000000
0.410380
0.000000
0.000000
0.000000
0.000000
0.000000
0.000000
0.000000
0.000000
0.000000
0.000000
0.000000
0.193737
0.000000
0.000000
0.000000
1.226656
0.416058
0.000000
0.934859
0.000000
0.282324
0.000000
0.000000
0.000000
0.000000
0.000000
0.000000
0.000000
0.000000
0.000000
1.156882
0.000000
0.000000
0.000000
0.000000
0.000000
1.647328
0.538483
0.000000
0.000000
0.000000
0.000000
0.000000
0.000000
0.000000
0.000000
0.607662
0.000000
0.529087
0.000000
0.000000
0.000000
0.000000
0.000000
0.000000
0.080517
0.000000
0.192331
0.000000
0.000000
0.662862
0.000000
0.000000
0.198155
0.000000
0.000000
0.000000
0.000000
0.000000
1.756113
0.000000
0.000000
0.000000
0.318634
0.000000
0.000000
0.000000
0.000000
0.000000
0.000000
0.544868
0.000000
0.009996
0.000000
0.000000
0.138938
0.000000
1.008231
0.000000
1.003208
0.000000
0.000000
0.000000
0.000000
0.000000
0.000000
0.000000
0.000000
0.000000
0.000000
0.000000
0.000000
0.000000
0.000000
0.000000
0.000000
0.676721
0.000000
0.060405
0.767951
0.000000
2.690401
0.000000
1.304284
0.519105
0.000000
0.000000
0.000000
1.137021
0.510550
0.000000
0.093642
0.000000
0.000000
0.000000
0.000000
0.000000
0.000000
0.000000
0.270119
0.000000
0.000000
0.711029
0.000000
0.000000
0.000000
0.000000
0.000000
0.000000
0.000000
0.000000
0.000000
1.761359
0.000000
0.000000
0.000000
0.000000
0.924492
0.000000
0.000000
0.000000
0.000000
0.000000
0.462002
0.000000
0.000000
0.000000
0.000000
0.000000
0.381843
0.000000
0.000000
0.000000
0.000000
0.000000
0.016678
0.000000
0.416843
0.000000
0.000000
0.000000
0.000000
0.000000
0.000000
0.000000
0.000000
0.000000
0.000000
0.000000
0.000000
1.228526
0.000000
0.000000
0.000000
0.373767
0.000000
0.064531
0.000000
0.000000
0.000000
0.000000
0.000000
0.000000
0.000000
0.000000
0.000000
0.000000
0.000000
0.000000
0.000000
0.000000
0.000000
0.000000
0.000000
0.000000
0.000000
0.000000
0.000000
0.000000
0.000000
0.000000
0.199028
0.000000
0.000000
0.000000
0.000000
0.000000
0.000000
0.000000
0.000000
0.000000
0.000000
0.000000
0.223829
0.000000
0.006528
1.041140
0.000000
0.000000
0.000000
0.000000
0.000000
0.000000
0.000000
0.000000
0.000000
3.041170
0.000000
0.000000
1.851167
0.000000
0.295864
0.000000
0.000000
0.218019
0.422655
0.000000
0.000000
0.000000
0.000000
0.000000
0.000000
0.000000
0.000000
0.000000
1.932447
0.178922
0.000000
0.000000
0.614622
0.112419
0.356108
0.727249
0.668141
0.000000
0.021969
0.000000
0.000000
0.116573
0.000000
0.000000
1.424502
0.000000
0.000000
0.000000
0.000000
0.000000
1.438278
0.000000
0.000000
0.000000
0.826783
0.000000
0.000000
0.421548
0.000000
0.000000
0.314577
0.000000
0.000000
1.069337
0.000000
0.000000
1.581677
1.002730
0.000000
0.000000
0.000000
0.000000
0.000000
0.000000
0.000000
0.000000
0.000000
0.000000
0.000000
0.000000
0.617523
0.000000
0.000000
0.801460
0.000000
0.000000
0.000000
0.000000
0.000000
0.000000
0.063854
1.741958
0.000000
0.000000
0.000000
0.000000
0.000000
0.000000
0.000000
0.000000
0.000000
0.000000
0.000000
0.248840
0.000000
0.000000
0.041016
0.000000
0.000000
0.000000
0.084444
0.968688
0.000000
2.138362
0.000000
0.000000
0.000000
0.000000
0.000000
0.000000
0.000000
1.031495
0.000000
0.000000
0.000000
0.000000
0.000000
0.264441
0.000000
0.000000
0.425669
0.000000
0.088911
0.000000
0.000000
0.000000
0.000000
0.000000
0.000000
0.000000
0.000000
0.000000
0.000000
0.000000
1.023621
0.000000
0.000000
0.099110
0.858188
