0.200574
0.000000
0.009991
0.000000
0.000000
0.000000
0.000000
0.382422
0.690379
0.000000
0.000000
0.000000
0.000000
1.113659
0.000000
0.000000
0.000000
0.000000
0.000000
0.000000
0.000000
0.000000
0.000000
0.126557
0.000000
0.000000
0.000000
0.173534
0.056045
0.028570
0.000000
0.000000
0.000000
0.158957
0.000000
0.064944
0.000000
0.000000
0.000000
1.090593
0.349933
0.000000
0.000000
1.198310
0.000000
1.826187
0.000000
0.000000
0.000000
0.000000
0.800736
0.000000
0.248959
0.000000
0.000000
0.000000
0.000000
0.000000
0.000000
1.170415
0.000000
0.000000
0.881375
0.000000
0.000000
0.000000
0.212080
0.000000
0.000000
1.321978
0.147002
0.629245
0.000000
0.000000
0.000000
0.000000
0.000000
0.000000
0.310567
0.000000
0.624541
0.000000
1.302883
0.146325
0.637791
0.056319
0.000000
0.328535
0.000000
0.000000
0.000000
0.000000
0.000000
0.230126
0.346308
0.000000
0.614887
0.040418
1.247225
0.000000
0.000000
0.013656
0.000000
0.000000
0.000000
0.000000
0.000000
0.000000
0.000000
0.000000
0.000000
0.541661
0.000000
0.000000
0.000000
0.000000
0.000000
2.096141
0.000000
0.220478
0.000000
0.060747
0.000000
0.000000
0.369544
0.000000
1.259295
0.000000
0.000000
0.000000
0.000000
0.000000
0.000000
0.000000
0.000000
0.000000
0.044284
0.000000
0.000000
1.575921
0.000000
0.662787
0.681457
0.000000
0.214042
0.000000
0.000000
0.000000
0.000000
0.000000
0.000000
0.038312
0.000000
0.000000
1.984080
0.000000
0.945047
0.000000
0.000000
0.198955
0.233062
1.010803
0.000000
0.772889
0.000000
1.378828
0.000000
0.000000
0.030064
0.000000
0.000000
0.000000
0.000000
0.000000
0.000000
0.000000
0.000000
0.000000
0.000000
0.040708
0.000000
2.187974
0.000000
0.772682
0.000000
0.635154
0.000000
1.991493
0.000000
0.000000
0.000000
0.000000
0.000000
0.000000
0.000000
0.000000
0.000000
0.188781
0.000000
0.000000
0.000000
0.000000
0.000000
0.000000
0.296314
0.000000
0.110466
0.000000
1.548011
0.159209
0.000000
0.691777
0.782430
0.023520
0.000000
0.000000
0.000000
0.000000
0.000000
0.000000
0.530016
0.000000
0.000000
0.573580
0.000000
0.000000
0.000000
0.000000
0.000000
0.000000
0.000000
0.000000
0.805111
1.302151
0.000000
0.407551
0.000000
0.122308
0.000000
0.000000
0.000000
0.000000
0.113235
1.065315
0.210155
0.785564
0.374019
0.000000
0.000000
0.297462
0.000000
0.000000
0.000000
0.398598
0.000000
0.981668
0.000000
0.000000
0.000000
0.000000
0.000000
0.000000
0.000000
0.000000
0.000000
0.000000
0.123076
0.027408
0.000000
0.038563
0.000000
0.182793
0.000000
0.000000
0.000000
0.000000
0.637833
0.616418
0.000000
0.000000
0.000000
0.000000
0.000000
0.732399
0.000000
0.476761
0.128204
0.000000
0.000000
0.000000
0.000000
0.000000
1.596420
0.000000
0.000000
0.284053
0.350854
0.000000
0.000000
0.000000
0.000000
0.000000
0.000000
0.000000
0.437863
0.000000
0.000000
0.000000
0.000000
0.000000
0.399935
0.000000
0.451552
0.188529
0.173025
0.000000
0.187303
0.000000
0.000000
0.287062
0.000000
0.000000
0.065672
0.000000
0.000000
0.000000
0.048623
0.473667
0.000000
0.000000
0.000000
0.000000
0.000000
0.306125
0.000000
0.916983
0.021210
0.000000
0.000000
0.000000
0.004664
0.648773
0.000000
0.188839
0.000000
0.839528
0.311321
0.000000
0.000000
0.066683
0.482893
0.000000
0.000000
0.000000
0.000000
0.005144
0.000000
0.000000
0.000000
0.068567
0.043126
0.000000
0.000000
0.000000
0.062036
1.860410
0.000000
0.000000
0.024345
0.000000
0.000000
0.000000
0.000000
0.230742
0.000000
0.000000
0.000000
0.000000
0.000000
0.397112
0.650128
0.000000
0.151249
0.114296
0.376733
0.000000
0.698394
0.000000
0.028985
0.000000
0.000000
0.000000
0.000000
0.000000
0.000000
2.389323
0.000000
0.000000
0.000000
0.000000
0.000000
0.000000
0.000000
0.000000
0.058925
0.000000
0.000000
0.113655
0.000000
0.000000
0.429867
1.612854
0.000000
0.000000
0.818256
0.000000
0.000000
0.000000
0.922169
0.000000
0.568781
0.000000
0.000000
0.000000
0.000000
0.000000
0.000000
0.000000
0.000000
0.233518
0.000000
0.000000
0.000000
0.004512
0.152569
0.000000
0.000000
0.000000
0.000000
0.000000
0.000000
0.824571
0.123158
0.061233
0.415359
0.000000
0.000000
0.000000
0.000000
0.000000
0.000000
0.317395
0.000000
0.000000
0.113133
0.000000
0.000000
0.000000
0.026545
0.000000
0.035553
0.014053
0.000000
0.000000
0.000000
0.000000
0.191149
0.000000
0.000000
0.232113
0.150848
0.000000
0.139794
0.000000
0.000000
0.000000
0.000000
0.000000
0.000000
0.000000
0.000000
0.501444
0.000000
0.323155
1.129334
0.000000
0.353319
0.000000
0.000000
0.000000
0.000000
1.247144
0.000000
0.000000
0.000000
0.902047
0.000000
0.000000
0.000000
0.151463
