0.085759
0.000000
0.000000
0.000000
0.087349
0.000000
0.000000
0.000000
0.000000
0.000000
0.000000
0.000000
0.726392
0.726594
0.644666
0.000000
0.000000
1.979614
0.000000
0.000000
0.345658
0.201249
0.239198
0.000000
0.123796
0.000000
0.000000
0.000000
0.000000
0.022568
0.000000
0.746026
0.000000
0.170526
0.000000
0.000000
0.000000
0.000000
0.000000
0.979351
0.000000
0.000000
0.000000
1.262698
0.000000
0.000000
0.015009
0.000000
0.118146
0.000000
0.033033
0.245286
0.047170
0.807173
0.000000
0.210866
0.000000
0.288942
0.000000
1.014755
0.000000
0.053218
0.000000
0.269323
0.000000
0.000000
0.000000
0.000000
0.000000
0.000000
0.822664
0.311025
0.000000
0.000000
0.000000
0.000000
0.000000
0.000000
0.400285
1.366507
0.000000
0.000000
0.000000
0.282388
0.000000
0.000000
0.000000
0.000000
0.000000
0.000000
0.000000
0.424472
0.000000
0.000950
0.772725
0.000000
0.163205
0.000000
0.000000
0.100865
0.000000
0.203751
0.000000
0.000000
0.000000
0.000000
0.000000
0.000000
0.049006
0.000000
0.000000
0.000000
0.000000
0.000000
0.000000
0.000000
0.515107
0.000000
0.000000
0.614476
0.000000
0.000000
0.000000
0.000000
0.000000
0.000000
0.000000
0.000000
0.000000
0.000000
0.000000
0.000000
0.000000
0.000000
0.000000
0.019316
0.000000
0.000000
0.000000
0.860195
0.500225
0.835414
1.309441
0.255161
0.516104
0.000000
0.000000
0.000000
0.497994
0.000000
0.000000
0.000000
0.000000
0.000000
0.822632
0.000000
0.140131
0.000000
0.000000
0.154307
0.000000
0.000000
0.000000
0.000000
0.303497
0.000000
0.000000
0.000000
0.000000
0.000000
0.000000
0.000000
0.000000
0.000000
0.000000
0.000000
0.000000
0.000000
0.000000
0.458507
0.000000
1.421611
0.000000
1.288861
0.000000
0.000000
0.017470
0.000000
0.069738
0.000000
0.000000
0.000000
0.000000
0.000000
0.221893
0.000000
0.000000
0.000000
0.000000
0.000000
0.000000
0.000000
0.089146
0.000000
0.000000
0.000000
2.641521
0.000000
0.099734
0.105054
0.330790
1.508411
0.231719
0.024098
0.000000
0.000000
0.000000
0.000000
0.000000
0.000000
0.000000
0.000000
0.000000
0.000000
0.000000
0.000000
0.000000
0.000000
0.000000
0.000000
0.000000
0.000000
0.403002
0.186612
0.000000
0.394460
0.000000
0.158022
0.000000
0.000000
0.000000
0.000000
0.499883
1.025219
0.177137
0.515417
0.245976
0.000000
0.000000
0.000000
0.000000
0.219813
0.000000
0.340082
0.000000
0.000000
0.000000
0.000000
0.000000
0.000000
0.000000
0.000000
0.000000
0.000000
0.000000
0.000000
0.042593
0.000000
0.000000
0.447258
0.164134
0.652995
0.000000
0.000000
0.000000
0.000000
0.000000
0.516859
0.163465
0.036423
0.000000
0.000000
0.000000
0.235957
0.000000
0.275487
0.000000
0.000000
0.000000
0.147777
0.000000
0.000000
0.429320
0.229479
0.000000
0.299369
0.000000
0.000000
0.000000
0.000000
0.000000
0.000000
0.000000
0.000000
1.483062
0.000000
0.000000
0.000000
0.000000
0.000000
0.243992
0.000000
0.000000
0.078255
0.088019
0.000000
0.000000
0.000000
0.000000
0.000000
0.000000
0.000000
1.031040
0.048224
0.000000
0.000000
0.000000
0.153457
0.000000
1.324611
0.091438
0.000000
0.000000
0.000000
0.000000
0.000000
0.000000
0.000000
0.000000
0.000000
0.000000
0.124900
0.000000
1.388333
0.000000
1.098296
0.000000
0.000000
0.000000
0.147920
0.000000
0.000000
0.000000
0.000000
0.074178
0.000000
0.000000
0.000000
0.487534
0.000000
0.000000
0.000000
0.000000
0.554838
0.674611
0.272144
0.000000
0.000000
0.634195
0.604619
0.000000
0.000000
0.000000
0.000000
0.000000
0.000000
0.000000
0.000000
0.000000
0.957075
0.000000
0.228447
0.000000
0.000000
0.263031
0.484978
0.121489
0.000000
0.000000
0.000000
0.197512
0.000000
0.000000
0.000000
0.000000
0.000000
0.000000
0.000000
0.000000
0.000000
0.000000
0.000000
0.000000
0.000000
0.000000
0.289245
0.000000
0.000000
0.000000
0.000000
0.278561
0.486137
0.000000
0.000000
1.552776
0.000000
0.187472
0.000000
1.627702
0.000000
0.000000
0.000000
0.000000
0.000000
0.000000
0.000000
0.000000
0.000000
0.000000
0.000000
0.000000
1.739824
0.119664
0.000000
0.000000
0.000000
0.359366
0.000000
0.000000
0.000000
0.115794
0.000000
0.473230
0.000000
0.334677
0.000000
0.000000
0.000000
0.867131
0.000000
0.000000
0.000000
0.000000
0.169002
0.000000
0.000000
0.000000
0.000000
0.000000
0.706043
0.000000
0.042617
0.000000
0.103487
0.000000
0.000000
0.237199
0.000000
0.000000
0.000000
0.012967
0.000000
0.042463
0.000000
0.133196
0.000000
0.000000
0.000000
0.000000
0.000000
0.309790
0.000000
0.000000
0.000000
0.000000
0.000000
0.000000
0.000000
0.000000
0.000000
0.000000
0.114423
0.000000
0.000000
0.113176
0.306865
0.000000
0.479131
0.000000
0.546869
