0.000000
0.140236
0.000000
0.000000
0.000000
0.000000
0.221376
0.000000
0.417035
0.349778
0.000000
0.000000
0.000000
0.000000
0.000000
0.328586
0.000000
0.000000
0.011569
1.193205
0.000000
0.000000
0.000000
0.000000
0.000000
0.082302
0.000000
0.000000
0.000000
0.000000
0.000000
0.816078
0.000000
0.000000
0.000000
0.000000
0.000000
2.772981
0.000000
0.000000
0.000000
0.000000
0.000000
0.000000
0.000000
0.000000
0.000000
0.000000
0.000000
0.000000
0.000000
0.000000
0.000000
0.583562
0.175432
0.000000
0.000000
0.000000
0.000000
0.000000
0.000000
0.000000
0.000000
0.665478
0.398794
0.000000
0.000000
0.252270
0.000000
0.000000
0.000000
0.000000
0.016554
0.000000
0.000000
1.100237
0.000000
0.443305
0.000000
0.000000
0.000000
0.000000
0.000000
0.000000
0.000000
0.000000
0.000000
0.000000
0.000000
0.000000
0.000000
0.000000
0.000000
0.000000
1.431055
0.000000
0.000000
0.000000
0.535908
0.000000
0.000000
0.532486
0.670084
0.000000
0.000000
0.000000
0.000000
0.025285
0.000000
0.000000
0.000000
0.000000
0.011229
0.000000
0.000000
0.000000
0.415152
0.000000
0.000000
0.000000
0.397408
0.000000
0.000000
0.000000
0.000000
0.000000
0.702700
0.000000
0.000000
0.000000
0.000000
1.746020
0.000000
0.000000
2.928917
0.107941
0.000000
0.000000
0.717159
0.000000
0.020829
0.000000
0.000000
1.338735
0.002548
0.000000
0.123034
0.000000
0.123635
0.000000
0.000000
0.000000
0.000000
0.600687
0.439576
0.000000
0.000000
0.000000
0.085245
0.000000
0.932739
0.000000
0.000000
0.031027
0.000000
1.288789
0.000000
0.000000
0.000000
0.000000
0.000000
0.000000
0.000000
0.000000
0.000000
0.000000
0.000000
0.000000
0.000000
0.535536
0.000000
0.000000
0.000000
0.283406
0.000000
0.610164
0.000000
1.088237
0.000000
0.000000
0.000000
0.000000
0.273287
0.796306
0.000000
0.198378
0.000000
0.000000
0.000000
1.330292
0.000000
0.000000
0.000000
0.000000
0.000000
0.000000
0.000000
0.000000
0.000000
0.000000
0.173794
0.000000
0.000000
0.000000
0.000000
0.000000
0.028803
0.000000
0.000000
0.000000
0.000000
0.000000
0.000000
0.000000
0.000000
0.000000
1.593790
0.000000
0.000000
0.000000
0.000000
0.000000
0.000000
0.000000
0.000000
0.000000
0.505165
0.049153
0.000000
0.000000
0.000000
0.000000
0.400226
0.000000
0.000000
0.000000
1.042234
0.000000
0.344656
0.000000
0.036796
0.000000
0.000000
0.000000
0.000000
0.000000
0.990264
0.591015
0.000000
0.000000
0.000000
0.000000
0.000000
0.000000
3.078426
1.387300
0.482471
0.000000
0.000000
0.000000
0.000000
0.000000
0.000000
0.000000
0.690657
0.000000
0.000000
0.000000
0.000000
0.000000
0.000000
0.000000
0.000000
0.000000
0.000000
0.000000
0.156465
0.000000
0.000000
0.000000
0.000000
0.952558
0.000000
0.000000
0.000000
0.000000
0.000000
0.000000
0.000000
0.000000
0.000000
0.751655
0.000000
0.000000
0.000000
0.000000
0.000000
0.000000
0.372356
0.992007
0.000000
0.000000
0.000000
0.000000
0.000000
0.027489
0.480853
0.000000
0.000000
0.083515
0.005700
0.000000
0.000000
0.000000
0.000000
0.000000
0.357579
1.266553
0.000000
0.117651
0.000000
0.000000
0.000000
0.000000
0.000000
0.000000
0.000000
0.000000
0.000000
0.000000
0.546665
1.304691
0.000000
0.000000
0.000000
0.000000
0.000000
0.000000
0.000000
0.000000
0.000000
0.000000
0.000000
0.000000
0.000000
0.356641
0.000000
0.000000
0.000000
0.000000
3.318836
0.000000
0.000000
0.000000
0.000000
0.000000
0.000000
0.000000
0.000000
0.000000
0.172196
2.344821
0.000000
0.000000
0.911358
0.580877
1.946079
0.000000
0.000000
0.000000
1.014976
0.000000
0.000000
0.000000
0.000000
0.000000
0.000000
0.331660
0.000000
0.208465
0.000000
0.000000
0.000000
0.018136
0.000000
0.000000
0.000000
0.000000
0.000000
0.000000
0.000000
0.857804
0.000000
0.000000
0.000000
0.000000
1.096087
0.000000
0.000000
0.000000
0.012410
0.000000
0.153578
0.000000
0.000000
0.073133
0.000000
0.000000
0.247283
0.000000
0.000000
0.000000
0.135406
0.000000
0.000000
0.000000
0.000000
0.000000
0.000000
0.000000
0.000000
0.000000
0.000000
0.000000
0.000000
0.000000
0.000000
0.206419
0.000000
0.000000
0.000000
0.055620
0.000000
0.000000
0.000000
0.570114
0.000000
0.000000
0.000000
0.000000
0.000000
0.000000
0.000000
0.824297
0.000000
0.000000
0.000000
0.000000
0.000000
0.000000
0.000000
0.000000
1.061727
0.000000
0.000000
0.000000
0.000000
0.000000
0.000000
0.000000
0.000000
0.000000
0.000000
0.000000
0.000000
0.000000
0.000000
0.000000
0.000000
0.000000
0.000000
0.110680
0.014405
0.000000
0.190897
0.000000
0.000000
0.000000
0.000000
1.224409
0.000000
0.000000
0.000000
0.000000
0.000000
0.000000
0.000000
1.349082
1.477104
0.000000
