0.000000
0.713314
0.000000
0.000000
0.251400
0.000000
0.000000
0.001066
0.000000
0.212854
0.000000
0.000000
0.002802
0.337659
1.042968
0.000000
0.000000
1.171263
0.000000
0.000000
0.153995
0.064004
0.541153
1.982177
0.205722
0.008419
0.359186
0.000000
0.000000
0.000000
0.000000
0.126460
0.000000
0.941106
0.000000
0.000000
0.000000
0.215493
0.000000
0.472016
0.000000
0.000000
0.755567
1.388919
0.000000
0.120565
0.167520
0.000000
0.000000
0.000758
0.030272
1.278825
0.211742
1.460501
0.000000
0.000000
0.000000
0.673585
0.000000
0.939499
0.000000
0.000000
0.000000
0.000000
0.000000
0.000000
0.000000
0.000000
0.000000
0.000000
0.000000
0.000000
0.000000
0.000000
0.000000
0.000000
0.000000
0.152176
0.000000
0.000000
0.180904
0.051099
1.401717
0.001392
0.000000
0.000000
0.000000
0.430630
0.000000
0.000000
0.000000
0.022642
0.000000
0.000000
1.522336
0.000000
0.000000
0.000000
0.000000
0.029855
0.000000
0.000000
0.000000
0.000000
0.170122
0.000000
0.000000
0.000000
0.000000
0.000000
0.000000
0.000000
0.000000
1.536809
0.000000
0.000000
0.000000
0.708671
0.000000
0.000000
0.001771
0.000000
0.000000
0.358082
0.096527
0.000000
0.000000
0.000000
0.000000
0.000000
0.000000
0.010774
0.000000
0.000000
0.000000
0.000000
0.000000
0.000000
0.000000
1.367616
0.815896
0.000000
0.000000
0.768079
0.203298
0.000000
0.000000
0.000000
0.000000
0.000000
0.037985
0.248620
0.000000
0.833201
1.029991
0.000000
1.371835
0.000000
0.000000
0.297416
0.000000
0.000000
0.000000
0.000000
0.000000
0.000000
0.000000
0.049447
0.000000
0.000000
0.000000
0.000000
0.245483
0.000000
0.000000
0.000000
0.000000
0.000000
0.350276
0.205742
0.186610
0.377442
0.000000
0.117787
0.000000
1.224099
0.275095
0.387122
0.003904
0.000000
0.000000
0.000000
0.000000
0.000000
0.000000
0.356512
0.000000
0.000000
0.000000
0.000000
0.000000
0.000000
0.000000
0.000000
0.148319
0.000000
0.000000
0.000000
0.000000
0.073490
0.143361
0.174056
0.947089
0.000000
0.000000
0.000000
0.320295
0.000000
0.000000
0.552135
0.000000
0.000000
0.000000
0.000000
0.000000
0.000000
0.000000
0.000000
0.000000
0.000000
0.000000
0.000000
0.214310
1.082236
0.000000
0.225227
0.000000
0.000000
0.157417
0.000000
0.000000
0.000000
0.000000
1.221700
0.000000
1.091443
0.035956
0.000000
0.000000
0.000000
0.000000
0.000000
0.000000
0.234510
0.000000
0.000000
0.000000
0.000000
0.000000
1.276129
0.000000
0.000000
0.000000
0.038077
0.000000
0.000000
0.000000
0.000000
0.030920
0.319442
1.219950
0.427803
0.000000
0.000000
0.000000
1.494256
0.000000
0.000000
0.000000
0.000000
0.000000
0.000000
1.075433
0.406748
1.288810
0.000000
0.000000
0.000000
0.000000
0.000000
0.000000
0.000000
0.000000
0.000000
0.000000
0.761585
0.705211
0.000000
0.000000
0.000000
0.000000
0.000000
0.000000
0.000000
1.406403
0.000000
0.000000
0.000000
0.000000
0.000000
0.061747
0.000000
0.000000
0.000000
0.000000
0.000000
0.000000
0.000000
0.646558
0.023636
0.179875
0.000000
0.000000
0.000000
0.000000
0.000000
0.000000
0.488880
0.756180
0.253038
0.129774
0.014759
0.000000
0.344657
1.480423
0.000000
0.387650
0.000000
0.000000
0.000000
0.000000
1.043464
0.000000
0.343117
0.000000
1.462723
0.000000
0.000000
0.000000
0.000000
0.000000
0.000000
0.007874
2.526656
0.000000
0.000000
0.000000
0.000000
1.361344
0.000000
0.321604
0.000000
0.000000
0.000000
0.000000
0.000000
0.000000
0.000000
0.474778
0.000000
0.142580
0.000000
0.000000
0.000000
0.000000
0.186011
0.057724
0.000000
0.047773
1.109568
0.000000
0.000000
0.546113
0.000000
0.908881
0.000000
0.000000
0.000000
0.000000
0.000000
0.000000
0.000000
0.337272
0.000000
0.198432
0.294214
0.000000
0.000000
0.000000
0.000000
0.000000
0.000000
0.000000
0.000000
0.034271
0.000000
0.143176
0.000000
0.565894
0.000000
0.000000
0.650984
0.024112
0.495256
0.478717
0.000000
0.149917
0.000000
1.773368
0.000000
0.150880
0.000000
0.556456
0.000000
0.000000
0.000000
0.000000
0.000000
0.000000
0.000000
0.000000
1.815494
0.000000
0.000000
0.000000
0.000000
0.000000
0.000000
0.000000
0.000000
0.000000
0.000000
0.093042
0.000000
0.000000
0.000000
0.000000
0.000000
0.000000
0.000000
0.000000
1.205607
0.000000
0.024385
0.061591
0.000000
0.000000
0.000000
0.000000
0.145009
0.000000
0.000000
0.000000
0.000000
0.373722
0.000000
0.000000
0.000000
0.000000
0.000000
0.000000
0.908287
1.049020
0.000000
0.000000
0.000000
0.000000
0.000000
0.000000
0.000000
0.051384
0.152284
0.000000
0.000000
0.898701
0.000000
0.534794
0.000000
0.000000
0.000000
0.000000
0.171143
0.000000
0.000000
0.000000
0.038526
0.000000
0.000000
0.000000
0.000000
