0.000000
0.407392
0.140000
0.000000
0.000000
0.000000
0.093913
0.219277
0.000000
0.386144
0.000000
0.000000
0.351650
0.004207
0.000000
0.083325
0.000000
0.000000
1.003461
0.234626
0.000000
0.041991
0.000000
0.000000
0.000000
0.224176
0.000000
0.000000
0.000000
0.000000
0.094462
0.557704
0.000000
0.000000
0.000000
0.000000
0.000000
0.000000
0.000000
0.000000
0.000000
0.000000
0.000000
0.000000
0.000000
1.044680
0.416099
0.000000
0.000000
0.480857
0.000000
0.424065
0.000000
0.209625
0.155072
0.000000
0.000000
0.000000
0.000000
0.000000
0.299166
0.000000
0.000000
0.138619
0.469561
0.000000
0.000000
1.684789
0.000000
0.000000
0.394053
0.000000
0.482365
0.000000
0.000000
0.000000
0.000000
0.000000
0.167888
0.000000
0.586976
0.000000
0.000000
0.309256
0.000000
0.000000
0.000000
0.502918
0.000000
0.000000
0.000000
0.000000
0.000000
0.000000
2.039018
0.000000
0.000000
0.000000
0.000000
0.253839
0.000000
0.994552
1.059332
0.000000
0.000000
0.000000
0.000000
0.000000
0.000000
0.340984
0.000000
0.052027
0.000000
0.000000
0.000000
0.000000
0.500387
0.000000
0.000000
0.000000
0.000000
0.000000
0.000000
0.000000
0.000000
0.000000
0.512228
0.483351
0.000000
0.000000
0.344266
0.000000
0.000000
0.000000
2.093163
0.000000
0.000000
0.417962
0.539302
0.000000
0.000000
0.000000
1.259956
0.495997
0.000000
0.000000
0.000000
0.000000
0.000000
0.000000
0.000000
0.000000
0.000000
0.000000
0.503660
0.000000
0.000000
0.000000
0.000000
0.000000
2.290015
0.000000
0.636835
0.004725
0.000000
0.000000
0.000000
0.000000
0.000000
0.000000
0.000000
0.059696
0.000000
0.000000
0.000000
0.520111
0.000000
0.000000
0.000000
0.000000
0.000000
0.000000
0.000000
1.261942
0.000000
0.000000
0.329676
0.000000
0.117589
0.022326
0.000000
0.000000
0.000000
0.895120
0.000000
0.000000
0.000000
0.000000
0.000000
1.518072
0.000000
0.000000
0.000000
0.000000
0.000000
0.316403
0.000000
1.057447
0.000000
0.000000
0.445530
0.000000
0.000000
0.496333
0.000000
0.000000
0.000000
0.000000
0.000000
0.000000
0.000000
0.000000
0.000000
0.000000
0.000000
0.000000
1.370872
0.000000
0.000000
0.000000
0.730021
0.000000
0.000000
0.000000
0.000000
0.000000
0.490901
0.000000
0.000000
0.000000
0.000000
0.000000
0.000000
0.000000
0.000000
0.000000
0.867164
0.276296
0.063410
0.000000
0.029141
0.000000
0.000000
0.000000
0.000000
0.000000
0.000000
2.091282
0.000000
0.031830
0.000000
0.000000
0.000000
0.000000
1.339869
0.000000
0.000000
0.000000
0.000000
0.000000
0.000000
0.000000
0.000000
0.000000
0.000000
0.000000
0.000000
0.000000
0.000000
0.000000
0.000000
0.000000
0.000000
0.000000
0.000000
0.000000
0.000000
0.000000
0.000000
0.000000
0.000000
0.000000
0.023534
0.133588
0.000000
0.000000
0.000000
0.407683
0.000000
0.000000
0.000000
0.000000
0.000000
0.000000
0.000000
0.000000
0.000000
0.000000
0.000000
1.043289
0.000000
0.000000
0.000000
0.378145
0.000000
0.000000
0.803133
0.307265
0.000000
0.000000
0.000000
0.000000
0.457060
0.141788
0.000000
0.000000
0.717805
1.950158
0.000000
0.000000
0.000000
0.155854
0.000000
0.000000
0.000000
0.000000
0.807611
0.000000
0.000000
0.246360
1.651712
0.402174
0.000000
0.000000
0.000000
0.000000
0.000000
0.144457
0.000000
0.044371
0.000000
0.000000
0.000000
0.000000
0.000000
0.631325
0.000000
0.000000
0.000000
0.000000
0.866414
0.187310
0.000000
0.000000
0.000000
0.000000
0.000000
0.000000
0.000000
0.089978
0.000000
1.955368
0.000000
0.832966
0.000000
0.000000
1.856016
0.000000
0.264682
0.000000
1.393445
0.000000
0.000000
0.000000
0.000000
0.224708
0.000000
0.095655
0.000000
0.771113
0.000000
0.018666
0.373195
0.040877
0.000000
0.474096
0.000000
0.000000
0.000000
0.000000
0.000000
1.118592
0.000000
0.000000
0.000000
0.441293
0.287606
0.000000
0.000000
0.000000
0.000000
0.178315
0.000000
0.428451
0.000000
0.000000
0.000000
0.000000
0.000000
0.000000
0.000000
0.000000
0.456214
0.000000
0.000000
0.075176
0.000000
0.000000
0.000000
0.000000
0.000000
0.000000
0.000000
0.000000
0.024317
0.000000
0.000000
0.000000
0.650214
0.000000
0.000000
0.000000
0.354844
0.000000
0.000000
0.000000
0.000000
0.000000
1.442632
0.000000
0.000000
0.000000
0.000000
1.444837
0.000000
0.000000
0.000000
0.077053
0.243322
0.246544
0.000000
0.000000
0.000000
0.000000
0.000000
0.000000
0.000000
0.000000
0.000000
0.000000
0.000000
0.000000
0.000000
0.000000
0.190971
0.350378
0.000000
0.000000
0.000000
0.000000
0.000000
0.389934
0.409953
0.000000
0.000000
0.000000
0.000000
1.022848
0.000000
0.000000
0.000000
0.000000
0.000000
0.220016
0.000000
0.000000
0.000000
1.665971
0.613732
0.174105
