0.000000
0.368900
0.000000
0.000000
0.665008
0.533890
0.000000
0.000000
0.458361
0.000000
0.000000
0.000000
1.733324
0.000000
0.000000
0.000000
0.000000
1.831408
0.000000
0.000000
0.000000
0.000000
0.052466
0.000000
0.000000
0.035133
0.000000
0.851969
0.000000
0.000000
0.000000
0.458614
0.000000
0.029201
0.000000
0.000000
0.000000
0.000000
0.000000
1.132383
0.000000
0.000000
0.000000
0.797880
0.000000
0.000000
0.000000
0.000000
0.069688
0.025092
0.000000
0.763062
0.000000
0.356489
0.000000
0.031046
0.000000
0.083900
0.000000
1.852941
0.000000
0.139097
0.000000
0.000000
0.000000
0.000000
0.200316
0.000000
0.000000
0.097711
0.341607
0.328238
0.000000
0.000000
0.000000
0.000000
0.000000
0.000000
0.056594
0.938148
0.003457
0.000000
0.000000
0.164009
0.000000
0.000000
0.000000
0.000000
0.000000
0.000000
0.000000
0.159279
0.000000
0.009492
0.000000
0.000000
0.610822
0.250415
0.000000
0.535771
0.286379
0.184106
0.000000
0.000000
0.000000
0.000000
0.000000
0.000000
0.034244
0.000000
0.000000
0.044660
0.000000
0.000000
0.000000
0.000000
0.058882
0.000000
0.000000
0.250560
0.000000
0.000000
0.000000
0.319301
0.000000
0.000000
0.000000
0.000000
0.000000
0.000000
0.000000
0.401863
0.000000
0.000000
0.000000
0.037694
0.000000
0.000000
0.000000
0.628963
0.000000
0.000000
0.065015
0.092949
0.820601
0.000000
0.000000
0.000000
0.000000
0.000000
0.035611
0.000000
0.000000
0.212667
1.059528
0.787846
0.700903
0.345736
0.000000
0.801624
0.000000
0.663677
0.000000
0.000000
0.187197
0.000000
0.000000
0.000000
0.000000
0.000000
0.000000
0.000000
0.000000
1.374520
0.000000
0.000000
0.000000
0.000000
0.000000
0.000000
0.000000
2.503219
0.000000
1.011560
0.085481
0.000000
0.175439
0.000000
0.000000
0.000000
0.000000
0.000000
0.000000
0.000000
0.260826
0.143759
0.000000
0.000000
0.000000
0.000000
0.000000
0.000000
0.000000
0.000000
0.292911
0.000000
0.087749
0.000000
0.000000
0.000000
0.000000
0.766699
0.000000
0.000000
0.000000
0.000000
0.000000
0.000000
0.000000
0.000000
0.000000
0.000000
0.000000
0.000000
0.000000
0.000000
0.000000
0.000000
0.000000
0.000000
0.000000
0.000000
0.000000
0.604611
0.000000
0.805722
0.298887
0.000000
0.816937
0.000000
0.000000
0.000000
0.164955
0.971737
0.407744
0.000000
0.119947
0.338209
0.000000
0.000000
0.141663
0.000000
0.000000
0.000000
0.000000
0.000000
0.000000
0.000000
0.000000
0.000000
0.000000
0.000000
0.000000
0.000000
0.000000
0.000000
0.941047
0.000000
0.000197
0.000000
0.000000
1.283604
0.000000
0.000000
0.000000
0.000000
0.000000
0.657463
0.000000
0.000000
0.000000
0.000000
0.000000
0.413212
0.000000
0.000000
0.000000
0.000000
0.000000
0.000000
0.000000
0.000000
0.000000
0.000000
0.703262
0.078196
0.000000
0.000000
0.000000
0.000000
0.000000
0.000000
0.000000
0.000000
1.489164
0.000000
0.000000
0.000000
0.489577
0.000000
0.144946
0.446970
0.000000
0.000000
0.304105
0.000000
0.312682
0.000000
0.000000
0.000000
0.000000
0.000000
0.623121
0.000000
0.000000
0.000000
0.000000
0.000000
0.000000
0.439701
0.408430
0.000000
0.000000
0.000000
0.000000
0.037662
0.000000
0.000000
0.000000
0.000000
1.986116
0.000000
0.000000
1.875023
0.000000
0.029024
0.000000
0.094762
0.000000
0.396302
0.000000
0.000000
0.000000
0.000000
0.000000
0.000000
0.000000
0.000000
0.589288
0.000000
0.259776
0.000000
0.000000
0.775516
0.000000
0.787681
0.000000
0.000000
0.377263
1.298040
0.000000
0.033057
0.000000
0.542434
0.000000
0.000000
0.000000
0.000000
0.000000
1.248282
0.000000
1.354199
0.000000
0.051583
0.190625
0.000000
0.000000
0.471122
0.000000
0.474678
0.699783
0.000000
0.000000
0.000000
0.000000
0.285854
0.000000
0.000000
0.000000
0.000000
0.000000
0.000000
0.000000
0.000000
0.000000
0.339261
0.000000
0.000000
0.000000
0.000000
0.000000
0.670575
0.000000
0.000000
1.793677
0.000000
0.000000
0.000000
0.000000
0.000000
0.684084
0.000000
0.954592
0.000000
0.000000
0.005304
0.000000
0.000000
0.142910
0.021362
0.000000
0.878298
0.245490
0.000000
0.837337
0.000000
0.023759
0.000000
0.000000
0.000000
0.034319
0.000000
0.000000
0.151949
0.265854
0.384789
0.000000
0.000000
0.000000
0.000000
0.000000
0.000000
0.000000
0.801667
0.000000
0.000000
0.000000
0.000000
0.000000
0.451265
0.082562
0.171475
0.000000
0.320711
1.260775
0.000000
0.000000
0.000000
0.000000
0.000000
0.000000
0.000000
0.027681
0.000000
0.000000
0.000000
0.000000
0.000000
0.000000
0.000000
0.004651
0.509820
0.000000
0.383802
0.004621
0.000000
0.000000
0.000000
0.000000
0.000000
0.000000
0.000000
0.000000
0.000000
0.531567
1.091604
0.000000
0.938396
0.128116
0.000000
