0.000000
0.039555
0.000000
0.000000
0.000000
0.000000
0.000000
0.000000
0.000000
0.000000
0.000000
0.000000
0.000000
2.855024
1.914683
0.000000
0.000000
0.329486
0.000000
0.000000
0.000000
0.000000
0.000000
0.000000
0.000000
0.000000
0.000000
0.000000
0.107192
0.000000
0.371871
1.930321
0.000000
0.000000
1.293243
0.000000
0.000000
0.000000
0.000000
0.000000
0.833228
0.000000
0.000000
0.000000
0.000000
0.000000
0.000000
0.000000
0.531039
0.000000
0.000000
0.003043
0.000000
0.000000
2.626816
1.873332
0.000000
0.000000
0.000000
0.000000
0.233218
0.355039
0.000000
0.000000
0.000000
0.000000
0.000000
0.000000
0.000000
0.000000
0.934530
0.000000
0.000000
0.000000
0.000000
0.000000
0.000000
0.000000
0.000000
0.000000
1.771097
0.000000
0.000000
0.000000
0.000000
0.000000
0.000000
0.000000
0.000000
0.000000
0.000000
2.255455
0.000000
0.000000
0.000000
0.000000
0.000000
0.000000
0.000000
0.000000
0.000000
0.000000
0.000000
1.926974
0.000000
0.000000
0.000000
0.943129
0.000000
0.000000
0.000000
0.000000
0.000000
1.716957
0.000000
0.000000
0.000000
0.000000
0.000000
0.000000
0.000000
0.000000
0.000000
0.000000
0.950412
0.000000
0.000000
0.795232
0.000000
0.000000
0.000000
0.000000
0.000000
0.000000
0.071606
0.000000
0.000000
2.025799
0.583208
0.000000
0.000000
0.000000
1.343612
4.403710
0.000000
0.000000
0.088307
0.000000
0.444168
0.000000
0.000000
0.000000
0.000000
2.062503
0.000000
0.616855
0.000000
0.000000
0.000000
0.601615
1.704608
0.000000
2.124680
0.000000
0.000000
0.000000
0.000000
0.000000
0.000000
0.000000
0.000000
0.000000
0.000000
0.549228
0.000000
0.000000
0.000000
0.000000
0.076369
0.000000
1.521580
0.000000
0.000000
0.000000
0.000000
0.000000
1.437117
0.000000
0.000000
0.000000
0.000000
0.000000
0.000000
0.000000
0.000000
0.000000
0.000000
0.000000
0.000000
0.678495
0.000000
0.000000
0.000000
0.000000
0.000000
0.000000
0.185613
2.544871
0.000000
0.000000
0.000000
0.000000
0.000000
0.000000
0.000000
0.000000
0.000000
0.000000
0.000000
0.000000
0.000000
0.000000
0.000000
0.000000
0.000000
0.000000
0.295432
0.000000
0.000000
0.000000
0.000000
0.000000
0.000000
0.000000
0.000000
0.000000
0.000000
0.000000
0.546565
0.000000
0.000000
0.000000
0.581413
0.452040
0.000000
0.000000
0.455568
0.749702
0.000000
0.000000
0.000000
0.267559
0.038729
1.099578
0.000000
0.000000
0.000000
0.000000
0.000000
0.000000
0.000000
0.000000
0.000000
0.000000
0.000000
0.000000
0.000000
0.000000
0.016166
0.067236
0.516926
0.000000
3.375593
0.000000
0.000000
0.000000
0.000000
0.000000
1.804735
0.000000
0.000000
0.000000
0.000000
0.000000
1.567394
0.000000
0.804794
0.000000
0.000000
0.000000
0.000000
0.000000
0.000000
0.000000
0.000000
0.000000
0.000000
0.000000
0.000000
0.000000
0.000000
0.000000
0.000000
0.000000
0.000000
0.000000
0.000000
0.000000
0.000000
2.647335
0.000000
0.000000
0.000000
0.183503
0.000000
0.000000
1.270561
0.000000
0.000000
0.000000
0.000000
0.000000
0.932811
0.195844
0.000000
0.000000
1.047153
0.005247
0.000000
0.185950
0.000000
0.424536
0.000000
0.000000
0.334133
0.000000
0.000000
0.942845
0.000000
0.000000
0.791269
0.000000
0.000000
0.000000
0.000000
0.000000
0.000000
0.000000
0.000000
0.000000
0.000000
0.000000
0.000000
0.000000
0.036717
0.000000
0.000000
0.000000
0.000000
0.000000
0.642917
1.241780
0.000000
0.000000
0.822859
0.000000
0.000000
0.000000
0.000000
0.000000
0.000000
0.895933
0.000000
0.000000
0.000000
0.000000
0.568916
0.000000
0.432288
0.000000
0.000000
0.000000
0.000000
0.000000
0.000000
0.000000
0.025092
0.000000
0.000000
0.971546
0.000000
0.029040
0.987816
0.666193
0.000000
0.000000
0.000000
0.000000
0.000000
0.000000
0.000000
0.000000
0.000000
0.000000
0.000000
0.000000
0.964618
0.000000
1.085969
0.000000
0.000000
0.000000
0.000000
1.447965
0.000000
0.000000
0.000000
0.000000
0.000000
0.000000
0.214139
0.000000
0.451112
0.000000
0.000000
1.814184
0.000000
0.000000
0.000000
0.000000
0.000000
0.727487
0.022287
0.000000
0.000000
0.000000
0.000000
0.000000
0.000000
0.000000
0.000000
0.000000
2.608451
0.000000
0.000000
0.000000
0.000000
0.000000
1.847747
0.000000
0.000000
0.000000
0.000000
2.452515
0.000000
0.000000
0.977134
0.000000
0.000000
0.000000
0.000000
0.437454
0.000000
2.159844
0.000000
0.000000
0.000000
0.000000
0.000000
0.408496
0.000000
0.000000
0.000000
0.000000
3.135698
0.090309
0.000000
0.000000
1.946676
0.000000
0.000000
0.000000
1.093557
0.012170
0.000000
0.000000
0.216536
6.492087
0.000000
0.000000
0.000000
0.000000
0.000000
1.942517
0.000000
0.918868
0.121414
1.815863
0.000000
0.401128
