0.198231
0.000000
0.000000
0.085043
0.385236
0.490213
0.036989
0.000000
0.828332
0.221700
0.000000
0.000000
0.000000
4.070387
0.000000
0.000000
0.000000
0.000000
0.000000
0.000000
0.132347
0.000000
0.028481
0.780877
0.000000
0.349153
0.000000
0.000000
0.000000
0.000000
0.000000
0.909980
0.000000
0.000000
0.000000
0.000000
0.000000
0.852724
0.000000
0.153318
0.000000
0.017043
0.578424
0.206227
0.000000
0.000000
0.000000
0.000000
0.000000
0.000000
0.000000
0.000000
0.429716
0.000000
0.000000
0.000000
0.000000
0.098195
0.000000
0.000000
0.000000
0.000000
0.000000
0.000000
0.000000
0.000000
0.000000
0.000000
0.000000
0.000000
0.000000
0.596029
0.000000
0.000000
0.000000
0.000000
0.127138
0.159031
0.240199
0.000000
0.000000
0.000000
0.000000
0.000000
0.000000
1.296296
1.469299
1.152212
0.000000
0.000000
0.000000
0.000000
0.000000
0.000000
0.000000
0.000000
0.000000
0.172315
0.044225
0.000000
0.000000
0.000000
0.445089
0.091292
0.000000
0.000000
0.000000
0.457008
0.000000
0.383158
0.000000
0.184318
0.061272
0.000000
0.000000
0.051203
0.000000
0.560598
0.000000
0.000000
0.000000
0.026250
0.697667
0.000000
0.000000
0.000000
0.000000
0.000000
0.000000
0.000000
0.000000
0.000000
0.000000
0.887064
0.000000
0.057702
0.000000
0.000000
0.000000
0.000000
1.701125
0.000000
0.000000
1.173842
0.000000
0.000000
0.181633
0.000000
0.000000
0.000000
0.322389
0.217176
0.000000
0.000000
0.000000
0.000000
1.594268
0.000000
0.000000
0.000000
1.290600
0.982008
0.096560
0.000000
0.000000
0.000000
0.000000
0.000000
0.000000
0.000000
0.046392
0.000000
0.000000
0.000000
0.000000
1.922406
0.000000
0.000000
0.000000
0.000000
0.000000
0.000000
0.000000
0.000000
0.000000
0.373152
0.000000
0.000000
0.240064
0.000000
0.000000
0.000000
0.364315
0.000000
0.000000
0.000000
0.000000
0.000000
0.000000
0.120994
0.000000
0.000000
0.000000
0.000000
0.000000
0.108441
0.000000
0.000000
0.435552
0.000000
0.000000
0.000000
0.000000
0.510725
0.000000
0.000000
0.000000
0.000000
0.000000
0.000000
0.000000
0.000000
0.000000
1.113464
0.000000
0.000000
0.000000
0.000000
0.000000
0.000000
0.280272
0.000000
0.000000
0.000000
0.000000
0.198304
0.000000
0.000000
0.772536
0.000000
0.000000
1.145389
0.000000
0.000000
0.000000
0.337904
0.000000
0.000000
0.000000
0.000000
0.419736
0.000000
0.000000
0.000000
0.113495
0.000000
0.978987
0.000000
0.000000
0.000000
0.000000
0.000000
0.000000
0.000000
0.000000
0.000000
0.394551
0.000000
0.078504
0.000000
0.000000
0.375062
0.378618
0.000000
0.000000
3.081317
1.053827
0.000000
0.000000
0.000000
0.000000
0.000000
0.000000
0.000000
0.000000
0.404918
0.000000
0.000000
0.000000
0.000000
0.000000
1.628383
0.000000
0.000000
0.110797
1.371044
0.000000
1.465412
0.000000
0.000000
0.000000
0.495164
0.000000
0.108663
0.000000
0.000000
0.000000
0.000000
0.005534
0.000000
0.000000
0.000000
0.000000
0.616369
0.867422
1.507162
0.593591
0.157134
0.000000
0.013802
0.566001
0.000000
0.000000
0.038819
0.000000
0.000000
0.458607
0.000000
0.000000
0.000000
0.000000
0.000000
0.000000
0.939660
0.000000
0.132633
0.000000
0.000000
0.000000
0.000000
0.000000
0.000000
0.000000
0.000000
0.000000
0.000000
0.000000
0.259761
0.000000
0.000000
0.404819
0.000000
0.000000
2.190222
0.250545
0.736138
0.000000
0.000000
0.000000
0.000000
1.146577
0.000000
0.084412
0.404425
0.000000
0.790895
0.000000
0.000000
0.000000
0.000000
0.318621
0.000000
0.000000
0.111027
0.032810
0.250291
0.000000
0.000000
0.000000
0.237053
0.244513
0.000000
0.060596
2.173446
0.000000
0.509712
0.000000
0.000000
0.024491
0.322187
0.466926
0.346019
0.000000
0.001029
0.000000
0.000000
0.000000
0.000000
0.000000
0.000000
0.000000
0.016658
0.224315
0.000000
0.220297
0.000000
1.714093
0.000000
0.720918
0.000000
0.661831
0.000000
0.000000
0.000000
0.768721
0.145229
0.000000
0.000000
0.402545
0.000000
0.847984
0.000000
0.000000
0.000000
0.000000
0.000000
0.000000
0.000000
0.000000
0.000000
0.000000
0.000000
0.000000
0.000000
0.000000
0.000000
0.000000
0.001966
0.000000
0.462139
0.000000
0.729918
0.880838
0.000000
0.000000
0.000000
0.000000
1.187497
0.000000
0.058214
0.000000
0.194084
0.000000
0.000000
1.531343
0.000000
0.000000
0.000000
0.089767
0.000000
0.000000
0.000000
0.719552
0.000000
0.000000
0.000000
0.923755
0.000000
0.000000
0.000000
0.000000
0.000000
0.315395
0.000000
0.000000
0.098375
0.000000
0.000000
1.545878
0.000000
0.000000
0.000000
0.457527
0.217695
0.000000
0.110440
0.000000
0.000000
0.000000
0.000000
0.000000
0.000000
0.000000
0.000000
0.000000
0.000000
0.000000
0.000000
0.384215
0.000000
