0.000000
0.000000
0.000000
0.000000
0.000000
0.000000
0.332484
0.000000
0.184921
0.000000
0.000000
0.000000
0.000000
0.000000
0.000000
0.343870
0.000000
1.431258
0.000000
0.000000
0.023201
0.166566
0.066896
1.597660
0.672415
0.000000
0.000000
0.567935
0.136500
0.000000
0.000000
0.000000
0.000000
2.317916
0.000000
0.166942
0.000000
0.000000
0.000000
0.000000
0.000000
0.000000
0.000000
0.346115
0.000000
0.198806
0.000000
0.000000
0.612571
0.000000
0.000000
0.211172
2.725061
0.000000
0.000000
0.000000
0.027747
0.016156
0.000000
0.382155
0.000000
0.000000
0.000000
0.000000
0.000000
0.000000
0.000000
0.000000
0.000000
0.523751
0.311532
0.000000
0.000000
0.000000
0.000000
0.000000
0.000000
0.000000
0.000000
0.000000
0.000000
0.587143
2.653165
0.000000
0.000000
0.835031
0.533389
0.939727
0.000000
0.000000
0.000000
0.015667
0.000000
0.075136
0.716326
0.000000
0.000000
0.000000
0.150138
0.000000
0.164837
0.000000
0.000000
0.000000
0.454239
0.000000
0.000000
0.000000
0.000000
0.000000
0.000000
0.000000
0.000000
0.980496
0.000000
0.000000
0.000000
1.005989
0.000000
0.689460
0.636946
0.000000
0.000000
0.000000
0.972746
0.000000
1.330492
0.000000
0.000000
0.000000
0.000000
0.474157
0.000000
0.000000
0.000000
0.000000
0.000000
0.000000
0.000000
0.000000
0.000000
0.493804
1.146155
0.000000
0.000000
0.000000
0.000000
0.000000
1.023889
0.000000
0.000000
1.425606
0.000000
1.225226
2.219936
0.000000
0.000000
0.224223
0.000000
0.000000
0.000000
0.000000
0.000000
0.653497
0.000000
0.071594
0.000000
0.000000
0.116687
0.000000
0.232723
0.000000
0.000000
0.000000
0.000000
0.000000
0.000000
0.000000
0.440517
0.975788
0.639020
0.000000
0.000000
0.665892
0.000000
0.527012
0.104556
1.126774
0.000000
0.000000
0.000000
0.000000
0.000000
0.000000
0.943108
0.000000
0.000000
0.000000
0.000000
0.000000
0.000000
0.000000
0.000000
0.000000
1.006173
0.000000
1.692018
0.000000
0.000000
0.000000
0.004333
0.465003
0.807344
0.000000
0.000000
0.000000
0.095390
0.000000
0.000000
0.000000
0.000000
0.000000
0.000000
0.550258
0.000000
0.000000
0.124451
0.000000
0.000000
0.132635
0.000000
0.000000
0.000000
2.582201
0.000000
0.000000
0.000000
0.000000
0.384737
0.000000
0.000000
0.000000
0.530056
0.045900
0.000000
1.218176
0.780905
0.663599
0.000000
0.000000
0.000000
0.000000
0.000000
0.000000
0.000000
1.450268
0.000000
0.204251
0.000000
0.161959
0.000000
0.000000
0.000000
0.254041
0.000000
0.408920
0.000000
0.565274
0.000000
0.271314
1.251516
0.000000
0.000000
0.000000
0.000000
0.826164
0.000000
0.060173
1.974734
0.000000
0.000000
0.000000
0.807104
0.141716
0.089200
0.000000
0.005117
0.000000
0.000000
0.000000
0.000000
0.000000
0.461657
0.000000
0.000000
0.000000
1.444402
0.000000
0.000000
0.000000
0.000000
0.000000
1.168321
0.204584
0.000000
0.000000
0.000000
0.000000
0.070546
0.000000
0.000000
0.000000
0.000000
0.000000
0.000000
0.000000
0.168884
0.000000
0.724295
0.097066
0.000000
0.000000
0.261579
0.000000
0.000000
0.000000
0.056387
0.409827
0.000000
0.514634
0.277824
0.000000
0.000000
0.000000
0.282227
0.000000
0.000000
0.015352
0.000000
0.000000
0.520643
1.840752
0.000000
0.086187
0.000000
0.783719
0.000000
0.000000
0.000000
0.000000
0.000000
0.000000
0.038451
0.660662
0.000000
0.000000
0.000000
0.000000
0.000000
0.000000
0.000000
0.000000
0.000000
0.000000
0.000000
0.602509
0.000000
0.000000
0.534640
0.000000
0.003758
0.000000
0.000000
0.000000
0.000000
0.000000
0.000000
0.079323
0.000000
0.558703
0.000000
0.000000
0.000000
0.000000
0.000000
0.000000
0.512132
0.000000
0.000000
0.000000
0.000000
0.000000
0.000000
0.122286
0.000000
0.979304
0.000000
0.100088
0.000000
0.000000
0.000000
0.000000
0.000000
0.000000
0.000000
0.000000
1.012477
0.000000
0.000000
0.000000
0.409244
1.007491
0.122812
0.048983
0.000000
0.281436
0.000000
0.000000
0.000000
0.000000
0.000000
0.000000
0.000000
0.000000
0.000000
0.000000
0.000000
0.000000
0.000000
0.000000
0.000000
0.000000
0.030538
0.974393
0.000000
0.000000
0.000000
0.000000
0.000000
0.000000
0.007943
0.548301
0.000000
0.000000
0.156571
0.000000
0.000000
0.000000
0.000000
0.001312
0.000000
0.724563
0.000000
0.589503
0.000000
0.000000
0.445391
0.000000
0.000000
0.000000
0.000000
0.000000
0.000000
0.000000
0.000000
0.000000
0.000000
0.000000
0.000000
0.730773
0.034670
0.000000
0.696558
0.000000
0.000000
0.000000
0.000000
0.000000
0.000000
0.013894
0.000000
0.279412
0.000000
0.571454
1.211684
0.000000
0.460537
0.000000
0.000000
0.063515
0.000000
0.000000
0.000000
0.000000
0.000000
0.000000
0.000000
0.053981
0.000000
0.450080
