0.000000
0.034132
0.000000
0.000000
0.000000
0.000000
0.000000
0.000000
0.000000
0.000000
0.000000
0.000000
0.000000
0.760920
0.856973
0.000000
0.000000
0.996056
0.000000
0.000000
0.000000
0.000000
0.000000
0.000000
0.153107
0.217132
0.000000
0.000000
0.000000
0.000000
0.000000
0.000000
0.000000
0.000000
0.022794
0.000000
0.000000
0.000000
0.000000
0.000000
0.000000
0.000000
0.000000
0.030969
0.000000
0.242257
0.141772
0.000000
0.333380
0.000000
0.080706
0.000000
0.000000
0.026616
0.231545
0.572627
0.000000
0.000000
0.000000
0.000000
0.000000
0.000000
0.000000
0.000000
0.034410
0.000000
0.475294
0.628266
0.000000
0.000000
0.715493
0.000000
0.000000
0.000000
0.000000
0.000000
0.000000
0.000000
0.146494
1.954739
0.000000
0.000000
0.000000
0.000000
0.000000
0.000000
0.988499
0.000000
0.000000
0.000000
0.000000
0.000000
0.000000
0.659765
1.242229
0.000000
0.139925
0.251719
0.000000
0.121630
0.000000
0.256034
0.382514
0.000000
0.000000
0.000000
0.000000
0.000000
0.000000
0.016784
0.000000
0.000000
0.000000
0.000000
0.000000
0.000000
0.486831
0.000000
0.000000
0.877230
0.000000
0.000000
0.000000
0.000000
0.000000
0.000000
1.009412
0.044734
0.000000
0.000000
0.000000
0.638348
0.000000
0.000000
0.281765
0.000000
0.000000
0.393622
0.000000
0.000000
0.211193
0.569387
0.814598
0.000000
0.794230
0.000000
0.000000
0.000000
0.000000
0.000000
0.000000
0.000000
0.000000
0.649594
0.378277
0.935412
0.274657
0.000000
0.000000
0.803303
0.000000
0.000000
0.000000
0.000000
0.974298
0.000000
0.000000
0.000000
0.000000
0.000000
0.000000
0.000000
0.000000
0.432041
0.000000
0.000000
0.000000
0.000000
0.000000
0.000000
0.000000
0.807270
0.000000
1.578170
0.000000
0.000000
0.114317
0.000000
0.058706
0.000000
0.000000
0.000000
0.000000
0.000000
0.504109
0.000000
0.000000
0.000000
0.000000
1.815591
0.000000
0.000000
0.000000
0.000000
0.000000
0.000000
0.655631
0.000000
0.000000
0.000000
0.407547
1.678467
0.000000
0.263627
0.000000
0.000000
0.000000
0.000000
0.000000
0.000000
0.000000
0.000000
0.000000
0.000000
0.000000
0.000000
0.354588
0.000000
0.000000
0.000000
0.000000
0.000000
0.587529
0.000000
0.000000
0.000000
1.168637
0.727228
0.000000
0.000000
0.000000
0.000000
0.136849
0.000000
0.000000
0.000000
0.772742
0.000000
0.000000
0.000000
0.000000
0.000000
0.000000
0.000000
0.000000
0.000000
0.000000
0.704794
0.000000
0.000000
0.000000
0.000000
0.000000
0.000000
0.889591
0.000000
0.397052
0.000000
0.000000
1.137317
0.000000
1.254032
0.000000
0.000000
0.000000
0.000000
0.000000
0.472812
0.420295
0.000000
0.000000
0.000000
0.000000
0.161826
0.000000
0.047630
0.021542
0.000000
0.000000
0.000000
0.000000
0.000000
0.138766
0.009606
0.000000
0.064874
0.000000
0.183723
0.335269
0.000000
0.000000
0.642044
0.000000
0.000000
0.164362
0.000000
0.000000
0.000000
0.503019
0.369025
0.072950
0.143366
0.130879
0.000000
0.523611
0.000000
0.000000
0.050482
0.000000
0.000000
0.000000
0.000000
0.638632
0.000000
0.000000
0.000000
0.000000
0.326307
0.000000
1.457030
0.000000
0.000000
0.000000
0.239740
0.000000
0.000000
0.198878
0.000000
0.000000
0.000000
0.643081
0.000000
0.000000
1.853827
0.000000
0.923543
0.000000
0.000000
0.000000
0.007388
0.000000
0.000000
0.000000
0.000000
0.000000
0.275440
0.000000
0.000000
0.000000
0.000000
0.000000
0.474321
0.000000
0.272503
0.511672
0.433331
0.000000
0.000000
0.000000
0.631804
0.000000
0.126807
0.000000
0.004853
0.000000
0.000000
0.247598
0.000000
0.000000
0.000000
1.137419
2.454821
0.462290
0.000000
0.000000
0.000000
0.115276
0.000000
0.000000
0.076937
0.525192
0.000000
0.100450
0.000000
0.000000
0.000000
0.000000
0.000000
0.000000
0.000000
0.000000
0.000000
0.000000
0.000000
0.065502
0.000000
0.424581
0.000000
0.000000
0.000000
0.000000
1.144869
0.000000
0.000000
0.979602
0.000000
0.050342
0.000000
0.000000
0.000000
0.725538
0.000000
0.000000
0.000000
0.000000
0.000000
0.000000
0.000000
0.146465
0.000000
0.000000
0.000000
0.315385
0.000000
0.000000
0.000000
0.000000
0.000000
0.179942
0.000000
0.000000
0.399846
0.000000
0.000000
0.532068
0.500848
0.000000
0.000000
0.466319
0.000000
0.000000
0.000000
0.000000
0.601388
0.000000
0.000000
0.000000
0.000000
0.000000
0.161558
0.000000
0.381859
0.000000
0.000000
0.432808
0.000000
0.000000
0.000000
0.000000
0.000000
0.370297
0.000000
0.000000
0.000000
0.012657
0.000000
0.000000
0.000000
0.000000
0.000000
0.000000
0.030303
0.000000
0.000000
0.177530
0.000000
0.048273
0.000000
0.000000
0.706958
0.000000
0.000000
0.000000
0.000000
0.000000
0.324946
0.000000
0.998044
0.000000
0.417830
