0.000000
0.270312
0.000000
0.000000
0.222261
0.000000
0.000000
0.098763
0.265008
0.087460
0.000000
0.000000
0.000000
0.000000
0.538029
0.000000
0.000000
2.675611
0.000000
0.000000
0.000000
0.000000
0.252894
1.358861
0.243442
0.000000
0.000000
0.147763
0.000000
0.000000
0.000000
0.000000
0.003637
1.119585
0.000000
0.000000
0.000000
0.000000
0.000000
0.000000
0.000000
0.000000
0.000000
1.020416
0.000000
0.724852
0.000000
0.000000
0.390429
0.000000
0.000000
1.210269
2.663460
0.080634
0.000000
0.000000
0.112269
0.475550
0.000000
0.664074
0.000000
0.000000
0.000000
0.000000
0.000000
0.000000
0.000000
0.000000
0.000000
0.000000
0.000000
0.000000
0.000000
0.000000
0.000000
0.000000
0.000000
0.000000
0.000000
0.000000
0.211251
0.897056
3.097996
0.000000
0.000000
1.202799
0.000000
1.491423
0.000000
0.000000
0.000000
0.099817
0.000000
0.128593
1.256141
0.000000
0.000000
0.000000
0.000000
0.000000
0.000000
0.623476
0.000000
0.000000
0.000000
0.000000
0.000000
0.000000
0.000000
0.000000
0.000000
0.000000
0.000000
1.868729
0.000000
0.000000
0.000000
1.234210
0.000000
0.000000
0.985318
0.162573
0.000000
0.000000
0.869213
0.000000
0.219873
0.000000
0.000000
0.000000
0.000000
0.000000
0.000000
0.000000
0.000000
0.022010
0.000000
0.000000
0.000000
0.000000
0.000000
0.986342
0.866921
0.000000
0.299293
0.000000
0.166673
0.000000
0.000000
0.000000
0.000000
0.812523
0.000000
1.429443
1.399651
0.000000
0.355375
0.000000
0.000000
0.000000
0.000000
0.000000
0.000000
0.412059
0.000000
0.000000
0.000000
0.000000
0.103074
0.000000
0.381061
0.000000
0.692287
0.000000
0.000000
0.706527
0.000000
0.000000
0.000000
0.345159
0.000000
0.000000
0.000000
0.606038
0.183000
1.507136
0.000000
0.343351
0.000000
0.000000
0.000000
0.000000
0.000000
0.000000
0.000000
0.322734
0.000000
0.348400
0.000000
0.000000
0.000000
0.000000
0.000000
0.000000
0.205427
0.000000
0.000000
0.000000
0.000000
0.000000
0.205526
0.000000
1.062027
0.000000
0.062017
0.000000
0.241032
0.000000
0.000000
0.909456
0.000000
0.000000
0.000000
0.000000
0.000000
0.000000
0.000000
0.000000
0.000000
0.114658
0.111090
0.000000
0.000000
2.356284
0.000000
0.000000
0.000000
0.000000
0.909763
0.000000
0.000000
0.000000
0.000000
0.053903
0.000000
0.670602
0.117877
0.000000
0.000000
0.000000
0.523518
0.000000
0.000000
0.276786
0.000000
1.224838
0.000000
0.000000
0.000000
1.938356
0.000000
0.000000
0.000000
0.000000
0.000000
0.000000
0.000000
0.034037
0.000000
0.000000
0.521065
0.000000
0.000000
0.000000
0.000000
4.487859
0.000000
0.000000
0.000000
0.000000
0.000000
0.000000
0.000000
0.330290
0.000000
0.000000
0.000000
0.000000
0.000000
0.000000
0.000000
0.305295
0.000000
0.000000
0.000000
0.401142
0.629774
0.664191
0.000000
0.000000
0.000000
0.000000
0.000000
0.000000
0.000000
0.000000
0.000000
0.000000
0.000000
0.000000
0.000000
0.000000
0.000000
0.000000
0.000000
0.567611
0.000000
0.000000
0.905452
0.000000
0.502101
0.000000
0.000000
0.000000
0.000000
0.000000
0.743068
0.423420
0.000000
0.557222
0.000000
0.000000
0.000000
0.073417
0.652367
0.000000
0.000000
0.000000
0.000000
0.000000
0.424949
1.628628
0.000000
0.170626
0.000000
0.508632
0.000000
0.000000
0.000000
0.052324
0.000000
0.000000
0.000000
1.775589
0.000000
0.122632
0.000000
0.000000
0.000000
0.000000
0.655389
0.000000
0.000000
0.000000
0.000000
1.349546
0.000000
0.000000
0.743451
0.000000
0.000000
0.000000
0.000000
0.000000
0.000000
0.000000
0.000000
0.000000
0.000000
1.137799
0.000000
0.000000
0.000000
0.000000
0.646242
0.000000
0.177824
0.000000
0.000000
0.000000
0.000000
0.000000
0.000000
0.021503
0.000000
0.455599
0.000000
0.000000
0.000000
0.000000
0.000000
0.000000
0.000000
0.000000
0.000000
0.000000
0.882452
0.000000
0.761958
0.000000
0.031349
1.277013
0.000000
0.000000
0.000000
0.684572
0.000000
0.000000
1.146438
0.000000
0.154341
0.000000
0.000000
0.000000
0.000000
0.000000
0.000000
0.000000
0.000000
0.000000
0.000000
1.024735
0.000000
1.039572
0.298888
0.000000
0.000000
0.000000
0.000000
0.000000
0.000000
1.167434
0.327143
0.000000
0.000000
0.000000
0.000000
0.000000
0.000000
0.024293
0.000000
0.660156
0.000000
0.222396
0.401857
0.000000
0.000000
0.000000
0.000000
0.000000
0.000000
0.000000
0.000000
0.000000
0.000000
0.000000
0.000000
0.000000
0.000000
0.000000
0.000000
0.000000
1.433283
0.000000
0.082839
0.000000
0.000000
0.000000
1.384640
0.000000
0.000000
0.429074
0.000000
0.453226
0.220760
0.000000
0.000000
0.000000
0.000000
0.000000
0.000000
0.000000
0.033216
0.000000
0.000000
0.000000
0.000000
0.000000
0.653677
0.496679
