0.000000
0.000000
0.000000
0.000000
0.000000
0.000000
0.000000
0.000000
0.000000
0.000000
0.000000
0.000000
0.000000
1.613125
0.499909
0.000000
0.000000
3.227578
0.000000
0.000000
0.247336
0.000000
0.000000
0.000000
0.000000
0.007630
0.000000
1.371826
0.000000
0.000000
0.000000
0.000000
0.000000
1.788886
0.000000
0.000000
0.000000
0.000000
0.000000
0.000000
0.000000
0.000000
0.000000
0.000000
0.000000
0.687961
0.000000
0.000000
1.411437
0.000000
0.000000
0.000000
0.494676
0.207569
0.510320
0.109609
0.000000
0.000000
0.000000
0.000000
0.131002
0.238059
0.000000
0.000000
0.074359
0.000000
0.000000
0.000000
0.000000
0.000000
0.018385
0.000000
0.000000
0.000000
0.000000
0.000000
0.242241
0.129739
0.119927
1.436299
0.000000
0.000000
0.212839
0.000000
0.000000
0.971917
0.212427
1.176872
0.000000
0.000000
0.000000
0.000000
0.000000
0.196736
0.308775
0.000000
0.000000
0.000000
0.000000
0.096097
0.000000
0.436330
0.000000
0.000000
0.000000
0.000000
0.000000
0.000000
0.276389
0.003457
0.000000
0.000000
0.000000
0.000000
0.000000
0.022498
0.628729
0.000000
0.000000
0.000000
0.060174
0.000000
0.000000
0.000000
1.256930
0.000000
0.380849
0.435160
0.000000
0.000000
0.000000
0.000000
0.000000
0.000000
0.000000
0.229835
0.000000
0.000000
0.000000
0.000000
0.000000
0.429216
2.731139
0.000000
0.000000
0.000000
0.611990
0.004873
0.000000
0.000000
0.000000
0.000000
0.000000
1.603580
1.477938
0.000000
0.000000
0.000000
0.000000
0.331033
0.000000
0.000000
0.000000
0.000000
0.000000
0.000000
0.000000
0.000000
0.000000
0.000000
0.932949
0.000000
0.239846
0.000000
0.000000
0.000000
0.000000
0.000000
0.000000
0.153875
0.000000
0.000000
0.000000
0.000000
0.000000
0.473956
0.000000
0.000000
0.129495
0.000000
0.000000
0.000000
0.610727
0.000000
1.931005
0.990572
0.000000
0.000000
0.000000
0.341687
0.000000
0.000000
0.000000
0.000000
0.000000
0.000000
1.231494
0.000000
0.000000
0.000000
0.000000
0.790322
0.000000
0.087639
0.000000
0.000000
0.000000
0.000000
0.000000
0.000000
0.000000
0.000000
0.000000
0.000000
0.000000
0.000000
0.000000
0.000000
0.000000
0.000000
1.314908
0.000000
0.000000
1.753005
0.000000
0.000000
0.000000
0.826319
0.947039
0.000000
0.000000
0.000000
0.121560
0.000000
0.000000
0.000000
0.000000
1.343206
0.000000
0.619452
0.000000
0.000000
0.000000
0.234956
0.000000
0.239821
0.945019
1.017596
0.000000
0.000000
0.000000
0.000000
0.000000
0.000000
0.000000
0.000000
0.080682
0.000000
0.000000
0.000000
0.911401
0.000000
0.000000
0.000000
0.000000
0.000000
0.000000
0.000000
1.204422
0.000000
0.000000
0.000000
0.370910
0.000000
0.000000
0.000000
0.000000
0.000000
0.000000
0.000000
0.000000
0.000000
0.000000
0.000000
0.000000
0.120022
0.000000
0.097118
0.000000
0.000000
0.000000
0.000000
1.210256
0.375451
0.000000
0.000000
0.000000
0.000000
0.000000
0.000000
0.000000
0.000000
0.000000
0.000000
0.067628
0.000000
0.000000
0.000000
0.000000
0.000000
0.244286
0.000000
0.327881
0.000000
0.000000
0.000000
0.000000
0.000000
0.000000
2.636628
0.098299
0.000000
0.000000
0.000000
0.000000
0.000000
0.000000
0.000000
0.000000
0.000000
0.000000
1.728694
0.000000
2.110668
0.345583
0.000000
0.000000
0.000000
0.000000
0.000000
0.000000
0.000000
0.000000
0.000000
0.000000
0.000000
0.000000
0.000000
0.000000
0.000000
0.961452
0.000000
0.000000
0.000000
0.000000
0.768371
0.000000
0.000000
0.153032
0.000000
0.359007
0.000000
0.000000
0.000000
0.000000
0.000000
0.430700
0.000000
0.000000
0.306353
1.009476
0.000000
0.000000
0.000000
0.000000
0.000000
1.214383
0.000000
0.000000
0.570350
0.047827
0.000000
0.000000
0.000000
0.000000
0.000000
0.000000
0.000000
0.000000
0.000000
0.000000
0.000000
0.000000
0.000000
0.000000
0.000000
1.432825
0.000000
0.546696
0.000000
0.000000
0.000000
0.000000
0.000000
0.379178
0.883036
0.000000
0.000000
0.000000
0.000000
0.475368
0.000000
0.610541
0.000000
0.000000
0.000000
0.000000
0.000000
0.000000
0.000000
0.000000
0.403379
0.452235
0.198292
0.000000
0.000000
0.000000
0.057873
1.429468
0.000000
0.000000
1.624892
1.056927
0.000000
0.000000
0.000000
0.000000
0.000000
1.316264
0.000000
0.000000
0.314942
0.000000
0.000000
0.000000
0.000000
0.067027
0.000000
0.000000
0.547856
0.000000
0.025154
0.000000
0.000000
0.000000
0.000000
0.000000
0.000000
0.000000
0.000000
0.000000
0.000000
2.263987
0.000000
0.000000
0.000000
0.000000
0.000000
2.182486
0.164202
0.000000
0.000000
0.000000
0.350134
0.000000
0.000000
0.000000
0.000000
0.000000
0.000000
0.000000
0.000000
0.000000
0.000000
0.000000
0.435704
0.000000
1.765023
0.000000
0.809248
