0.509159
0.000000
0.000000
0.000000
0.000000
0.000000
0.278216
0.000000
0.068425
0.000000
0.000000
0.000000
0.000000
2.212643
0.344736
0.000000
0.000000
0.000000
0.000000
0.000000
0.464672
0.000000
0.154016
0.000000
0.000000
0.000000
0.000000
1.186960
0.000000
0.223207
0.013892
0.472995
0.000000
0.000000
0.000000
0.000000
0.000000
0.000000
0.000000
0.434282
0.000000
0.000000
0.000000
0.000000
0.000000
1.548540
0.000000
0.000000
0.000000
0.000000
0.000000
0.000000
0.000000
0.065361
1.701076
0.000000
0.000000
0.288816
0.000000
0.629809
0.000000
0.000000
0.000000
0.000000
0.058358
0.000000
0.000000
0.000000
0.000000
0.236823
0.768057
0.040778
0.000000
0.000000
0.000000
0.000000
0.000000
0.455116
0.399590
0.000000
0.000000
0.000000
0.000000
0.000000
0.000000
0.000000
2.654712
0.644379
0.000000
0.000000
0.000000
0.000000
0.000000
1.049902
2.046971
0.000000
0.000000
0.315887
0.000000
0.000000
0.742632
0.188041
0.438899
0.000000
0.000000
0.727488
0.000000
0.058679
0.169484
0.000000
0.000000
0.971115
0.000000
0.000000
0.000000
0.000000
0.725576
0.000000
0.000000
0.313831
0.000000
0.000000
0.000000
0.000000
0.000000
0.000000
0.000000
0.000000
0.000000
0.000000
0.000000
0.000000
0.000000
0.806639
0.000000
0.021862
0.068649
0.000000
0.000000
0.858330
2.021498
0.047714
0.280486
1.480733
0.000000
0.000000
0.121140
0.000000
0.077889
0.000000
0.000000
0.000000
0.000000
0.381269
0.000000
0.129605
1.015289
0.000000
0.000000
0.075374
1.817737
0.000000
0.000000
0.000000
0.000000
0.000000
0.000000
0.044885
0.000000
0.000000
0.000000
0.000000
0.000000
0.000000
0.000000
0.000000
0.000000
0.000000
0.000000
0.000000
0.043497
0.000000
0.000000
1.505000
0.000000
0.053066
0.000000
0.000000
0.000000
0.000000
0.000000
0.000000
0.000000
0.000000
0.000000
0.571967
0.000000
0.000000
0.000000
1.725888
0.000000
0.000000
0.000000
0.000000
0.000000
0.000000
2.733783
0.014550
0.771898
0.956987
0.000000
0.000000
0.000000
0.000000
0.000000
0.000000
0.000000
0.000000
0.000000
0.000000
0.000000
0.000000
0.000000
0.611854
0.000000
0.000000
0.000000
0.000000
0.000000
0.000000
0.000000
0.000000
0.084872
0.000000
0.000000
0.000000
0.000000
0.829732
0.000000
0.000000
0.000000
0.585357
0.030096
0.000000
0.000000
0.015698
0.000000
0.000000
0.000000
0.000000
0.000000
0.050844
0.000000
0.000000
0.000000
0.000000
0.000000
1.126289
0.000000
0.000000
0.000000
0.000000
0.000000
0.000000
0.000000
0.000000
0.355626
0.000000
0.000000
0.000000
0.127129
0.201606
0.000000
0.000000
0.000000
0.000000
0.000000
0.696497
0.341333
0.000000
0.000000
0.000000
0.000000
0.164987
0.000000
1.336887
0.000000
0.000000
0.000000
0.158159
0.000000
0.483633
0.000000
0.076157
0.000000
0.015212
0.000000
1.421302
0.000000
0.000000
0.000000
0.000000
0.000000
0.000000
0.000000
0.000000
0.000000
0.000000
0.000000
1.085666
0.197535
0.000000
0.000000
0.609142
0.000000
0.000000
0.634314
0.000000
0.000000
0.000000
0.000000
0.000000
0.673627
0.000000
0.000000
0.000000
1.335993
2.448267
0.000000
0.408094
0.259304
0.000000
0.000000
0.780218
0.000000
0.000000
0.399058
0.000000
0.000000
0.000000
0.069078
0.000000
0.000000
0.381384
0.489593
0.729938
0.000000
0.000000
0.000000
0.000000
0.000000
0.000000
0.000000
0.000000
1.181459
0.233820
0.000000
0.000000
0.000000
0.000000
0.000000
0.833122
0.000000
0.000000
0.388649
1.055515
0.000000
0.000000
0.196452
0.000000
0.542388
0.000000
0.000000
0.000000
0.000000
0.000000
0.000000
0.000000
0.000000
0.015574
0.641076
0.000000
0.000000
0.018967
0.095282
0.164787
0.024309
0.000000
0.000000
0.570373
0.000000
0.000000
0.000000
0.018526
0.000000
0.000000
0.000000
0.000000
0.000000
0.000000
0.000000
0.000000
0.000000
0.000000
0.152650
0.000000
1.867335
0.000000
0.000000
0.000000
0.788764
0.686467
0.000000
0.000000
0.588095
0.496676
0.061772
0.000000
0.420661
0.000000
0.352936
0.000000
0.000000
0.000000
0.000000
0.000000
0.000000
0.000000
0.000000
0.000000
0.000000
2.535403
0.000000
0.000000
0.056215
0.000000
0.000000
0.000000
1.394677
0.000000
0.000000
0.755648
0.875907
0.000000
0.361924
0.000000
0.000000
0.000000
0.690216
0.000000
0.000000
0.000000
0.000000
0.000000
0.746765
0.000000
0.000000
0.000000
0.000000
0.000000
0.000000
0.000000
0.999461
0.000000
0.886301
0.000000
1.338600
0.000000
0.000000
0.000000
0.280021
0.000000
0.542228
0.000000
0.000000
0.000000
0.000000
0.000000
0.000000
0.000000
0.000000
0.000000
0.390557
0.000000
1.107331
0.000000
0.000000
0.000000
0.000000
0.000000
0.000000
0.000000
0.000000
0.000000
0.000000
0.365761
0.000000
1.391905
0.000000
0.174136
