0.412839
0.305100
0.000000
0.000000
0.239933
1.144216
0.858935
0.000000
0.000000
0.000000
0.000000
0.000000
0.000000
2.689269
0.000000
0.000000
0.000000
0.000000
0.000000
0.000000
1.426889
0.000000
0.000000
0.470818
0.186353
0.000000
0.000000
1.698302
0.179372
0.051914
0.000000
0.000000
0.000000
0.673225
0.000000
0.119247
0.000000
0.000000
0.000000
0.000000
0.000000
0.431735
0.000000
1.099229
0.000000
0.000000
0.000000
0.000000
0.140860
0.000000
0.000000
0.000000
1.665034
0.957492
0.000000
0.000000
0.000000
0.000000
0.000000
0.000000
0.000000
0.274450
0.000000
0.069955
0.000000
0.000000
0.000000
0.000000
0.000000
0.000000
0.000000
0.000000
0.000000
0.000000
0.000000
0.367656
0.045382
0.501193
0.000000
0.000000
0.954253
0.177614
0.429399
0.000000
0.000000
0.578444
0.000000
0.489708
0.000000
0.000000
0.000000
0.000000
0.000000
0.000000
0.000000
0.000000
0.000000
0.000000
0.000000
0.000000
1.449874
0.003164
0.000000
1.278910
0.000000
0.000000
0.000000
0.234243
0.000000
0.017219
0.000000
0.000000
0.000000
0.000000
0.000000
0.284037
0.000000
0.371652
0.000000
0.000000
0.000000
0.067246
0.106243
0.198822
0.576642
0.000000
0.000000
0.000000
0.000000
0.000000
0.000000
0.000000
0.000000
0.686843
0.000000
0.000000
0.000000
0.000000
0.000000
1.429396
1.811821
0.000000
1.693036
0.000000
0.000000
0.000000
0.000000
0.000000
0.448567
0.000000
0.000000
1.155210
0.000000
1.277159
0.000000
0.000000
0.000000
0.000000
0.265804
0.000000
0.000000
0.000000
0.000000
0.000000
0.000000
0.000000
0.000000
0.110900
0.000000
0.000000
0.780228
0.000000
0.471372
0.000000
0.000000
0.000000
0.000000
0.000000
0.000000
0.237235
0.000000
0.000000
0.000000
0.000000
0.463135
0.066265
0.000000
1.076850
0.476067
0.037915
0.000000
0.000000
0.000000
0.000000
0.047896
0.077372
0.000000
0.000000
0.000000
0.000000
0.000000
0.000000
0.011871
0.000000
0.249444
0.000000
0.207055
2.154267
0.000000
0.000000
0.000000
0.000000
0.000000
0.000000
0.000000
0.000000
0.000000
0.000000
0.000000
0.000000
0.000000
0.000000
0.000000
0.534373
0.000000
0.000000
0.000000
0.000000
0.000000
0.000000
0.000000
0.000000
0.000000
0.631646
0.000000
0.000000
0.000000
0.687168
1.090682
0.000000
0.000000
0.718752
0.000000
0.069578
0.000000
0.000000
0.000000
0.000000
0.000000
0.000000
0.000000
0.000000
0.000000
2.037821
0.000000
0.000000
1.595738
0.000000
0.000000
0.000000
0.000000
0.000000
0.000000
0.000000
0.000000
0.000000
0.254551
0.000000
0.000000
0.000000
0.000000
0.000000
0.000000
0.000000
0.000000
0.691601
0.000000
0.000000
0.000000
0.000000
0.000000
0.000000
1.282970
0.052723
0.000000
0.000000
0.000000
0.000000
0.000000
0.000000
0.000000
0.864984
0.000000
0.000000
0.900581
0.000000
1.666120
0.802646
0.000000
0.000000
0.000000
0.000000
0.000000
0.305941
0.000000
0.000000
0.000000
0.000000
0.000000
0.000000
0.000000
0.000000
0.000000
0.061161
0.000000
0.000000
0.000000
0.000000
0.000000
0.000000
0.895069
0.000000
0.000000
0.000000
0.000000
0.000000
0.451998
0.000000
0.163918
1.077445
0.000000
0.000000
0.000000
0.000000
0.000000
0.000000
0.000000
0.000000
0.000000
0.000000
0.000000
0.000000
0.000000
0.000000
2.159343
0.000000
0.000000
0.020448
0.000000
0.000000
0.277920
0.000000
0.000000
0.000000
0.000000
0.000000
0.000000
0.000000
0.000000
0.000000
0.000000
0.000000
0.000000
0.362251
0.000000
0.062925
0.000000
0.000000
0.328127
0.000000
0.367168
0.000000
0.000000
0.000000
0.000000
0.000000
0.000000
0.079117
0.209578
0.023500
0.000000
0.000000
0.000000
0.471931
0.000000
0.000000
0.763801
0.000000
0.000000
1.312403
0.000000
0.192946
0.000000
0.000000
0.000000
0.000000
0.000000
0.000000
0.000000
0.000000
0.000000
0.000000
0.000000
0.000000
0.000000
0.000000
1.341274
0.000000
1.809911
0.000000
0.000000
0.000000
0.000000
0.000000
0.000000
1.324425
0.116394
0.000000
0.000000
0.000000
0.293406
0.000000
0.000000
0.000000
0.000000
0.000000
0.000000
0.000000
0.000000
0.000000
0.000000
0.829632
0.024731
0.102817
0.000000
0.000000
0.115750
0.620387
0.000000
0.000000
0.000000
0.261262
1.523971
0.000000
0.000000
0.000000
0.090417
0.624788
1.229101
0.213734
0.000000
0.000000
0.000000
0.000000
1.140010
0.000000
0.000000
0.000000
0.000000
0.000000
0.000000
0.000000
0.469325
0.000000
0.489317
0.000000
0.000000
0.000000
0.000000
0.000000
0.000000
0.000000
1.395704
0.000000
0.000000
0.000000
0.000000
0.000000
2.881515
0.290895
0.000000
0.000000
0.000000
0.000000
0.000000
0.000000
0.000000
0.000066
0.000000
0.000000
0.000000
0.000000
0.000000
0.659220
0.000000
0.470698
0.000000
0.000000
0.000000
1.027114
