0.000000
0.716211
0.000000
0.000000
0.000000
0.009305
0.000000
0.000000
0.000000
0.000000
0.000000
0.000000
0.000000
4.241907
1.134101
0.000000
0.000000
0.583822
0.000000
0.000000
0.023763
0.000000
0.000000
0.886437
0.000000
0.052759
0.000000
0.426774
0.108052
0.000000
0.152929
1.400440
0.000000
0.000000
0.384625
0.000000
0.000000
0.000000
0.000000
0.000000
0.376089
0.000000
0.000000
0.000000
0.000000
0.000000
0.000000
0.000000
1.052746
0.000000
0.000000
0.000000
0.903920
0.000000
1.086474
1.015267
0.000000
0.000000
0.000000
0.000000
0.000000
0.000000
0.000000
0.000000
0.000000
0.000000
0.000000
0.000000
0.000000
0.000000
0.177353
0.000000
0.000000
0.000000
0.000000
0.000000
0.000000
0.000000
0.000000
0.000000
1.313343
0.000000
0.000000
0.121323
0.000000
0.000000
0.000000
0.000000
0.000000
0.000000
0.000000
1.710882
0.000000
0.000000
0.000000
0.000000
0.000000
0.000000
0.000000
0.000000
0.000000
0.000000
0.000000
2.145755
0.000000
0.000000
0.000000
0.131635
0.000000
0.000000
0.000000
0.183230
0.000000
1.153011
0.000000
0.000000
0.000000
0.000000
0.000000
0.000000
0.014805
0.000000
0.000000
0.000000
0.831733
0.000000
0.000000
0.000000
0.000000
0.000000
0.000000
0.000000
0.000000
0.201750
0.170671
0.000000
0.000000
1.005931
0.000000
0.000000
0.326298
0.000000
1.924423
2.719591
0.000000
0.000000
0.151138
0.000000
0.000000
0.000000
0.000000
0.000000
0.000000
2.272056
0.000000
0.000000
0.000000
0.000000
0.000000
0.366284
0.328459
0.000000
0.717521
0.000000
0.000000
0.000000
0.000000
0.000000
0.000000
0.000000
0.246644
0.000000
0.607486
0.000000
0.000000
0.000000
0.000000
0.000000
0.000000
0.000000
0.046085
0.000000
0.000000
0.000000
0.000000
0.000000
0.242359
0.000000
0.000000
0.000000
0.000000
0.000000
0.000000
0.000000
0.233403
0.000000
0.000000
0.000000
0.000000
0.000000
0.000000
0.000000
0.000000
0.000000
0.411516
0.000000
0.000000
1.326358
0.000000
0.000000
0.000000
0.000000
0.000000
0.000000
0.000000
0.000000
0.000000
0.000000
0.000000
0.000000
0.000000
0.000000
0.000000
0.000000
0.000000
0.000000
0.000000
0.000000
0.000000
0.000000
0.000000
0.000000
0.000000
0.000000
0.000000
0.036801
0.000000
0.504387
0.537009
0.000000
0.000000
0.000000
0.141430
0.000000
0.000000
0.000000
0.000000
0.517774
0.000000
0.000000
0.000000
0.000000
0.000000
0.204871
0.000000
0.000000
0.000000
0.000000
0.000000
0.000000
0.000000
0.000000
0.000000
0.000000
0.000000
0.000000
0.000000
0.000000
0.000000
0.000000
0.686198
0.000000
1.668295
0.000000
0.000000
0.000000
0.000000
0.000000
0.000000
0.000000
0.000000
0.000000
0.000000
0.000000
0.573737
0.000000
0.252323
0.000000
0.000000
0.000000
0.000000
0.000000
0.000000
0.000000
0.000000
0.000000
0.841661
0.769328
0.000000
0.000000
0.000000
0.399148
0.000000
0.000000
0.000000
0.000000
0.000000
0.000000
0.000000
1.293900
0.000000
0.000000
0.000000
0.000000
0.000000
0.000000
0.607049
0.000000
0.000000
0.000000
0.000000
0.000000
0.000000
0.285653
0.000000
0.000000
0.762976
0.000000
0.000000
0.011168
0.000000
0.038797
0.000000
0.000000
0.000000
0.000000
0.000000
0.181398
0.000000
0.000000
0.000000
0.124120
0.000000
0.000000
0.000000
0.000000
0.000000
0.000000
0.000000
0.000000
0.000000
0.000000
0.000000
1.092231
0.000000
0.000000
0.000000
0.000000
0.000000
0.000000
2.134388
0.766454
0.000000
0.000000
0.000000
0.000000
0.000000
0.000000
0.000000
0.000000
0.210320
0.000000
0.000000
0.000000
0.000000
0.000000
0.000000
0.000000
0.000000
0.000000
0.000000
0.000000
0.000000
0.089852
0.000000
0.000000
0.155154
0.000000
0.000000
0.572598
0.041271
0.000000
0.488838
0.465778
0.000000
0.000000
0.000000
0.000000
0.000000
0.000000
0.000000
0.000000
0.000000
0.000000
0.000000
0.000000
2.447603
0.000000
1.175835
0.000000
0.000000
0.000000
0.000000
0.674463
0.000000
0.594525
0.000000
0.000000
0.000000
0.000000
0.000000
0.000000
0.009620
0.000000
0.000000
0.616381
0.000000
0.000000
0.000000
0.000000
0.000000
0.446839
0.000000
0.000000
0.000000
0.000000
0.000000
0.000000
0.000000
0.000000
0.000000
0.000000
3.620374
0.000000
0.000000
0.000000
0.000000
0.000000
0.687748
0.000000
0.000000
0.000000
0.000000
0.000000
0.000000
0.000000
0.637309
0.000000
0.000000
0.438838
0.000000
0.133964
0.000000
0.226391
0.000000
0.000000
0.232642
0.000000
0.000000
0.000000
0.000000
0.000000
0.533735
0.000000
3.217619
0.000000
0.000000
0.000000
4.045812
0.000000
0.000000
0.000000
0.003651
0.047981
0.000000
0.000000
0.000000
4.641776
0.000000
0.000000
0.000000
0.000000
0.000000
1.307695
0.000000
0.640940
0.000000
0.426325
0.114735
0.296914
