0.000000
0.449836
0.000000
0.000000
0.000000
0.000000
0.000000
0.000000
0.000000
0.143645
0.000000
0.000000
0.234078
0.000000
1.422496
0.000000
0.000000
3.532738
0.000000
0.000000
0.000000
0.000000
0.131610
1.256302
0.006165
0.077110
0.000000
0.000000
0.000000
0.000000
0.000000
0.727052
0.000000
0.000000
0.000000
0.000000
0.000000
0.000000
0.000000
0.141417
0.000000
0.000000
0.261673
1.366229
0.000000
0.000000
0.000000
0.000000
0.000000
0.000000
0.000000
1.370069
0.793185
1.341901
0.000000
0.000000
0.000000
0.726681
0.000000
1.543383
0.000000
0.000000
0.000000
0.000000
0.000000
0.000000
0.071539
0.000000
0.000000
0.000000
0.000000
0.000000
0.000000
0.000000
0.000000
0.000000
0.000000
0.000000
0.000000
0.067399
0.461987
0.000000
0.000000
0.221202
0.000000
0.000000
0.000000
0.000000
0.000000
0.000000
0.000000
0.177331
0.000000
0.000000
1.792745
0.000000
0.000000
0.000000
0.000000
0.023627
0.000000
0.000000
0.000000
0.000000
0.000000
0.000000
0.000000
0.000000
0.000000
0.000000
0.000000
0.000000
0.000000
0.825609
0.000000
0.000000
0.000000
0.341202
0.000000
0.000000
0.000000
0.000000
0.000000
0.000000
0.000183
0.000000
0.000000
0.000000
0.000000
0.000000
0.000000
0.103160
0.000000
0.000000
0.340895
0.000000
0.000000
0.000000
0.000000
1.031482
0.000000
0.000000
0.125533
1.063223
0.127282
0.000000
0.000000
0.000000
0.000000
0.000000
2.276698
0.375654
0.000000
1.374459
2.097110
0.816108
0.000000
0.000000
0.000000
0.680858
0.000000
0.000000
0.000000
0.000000
0.000000
0.000000
0.000000
0.035266
0.000000
0.000000
0.000000
0.000000
0.000000
0.904733
0.000000
0.000000
0.000000
0.000000
0.000000
0.294352
0.000000
0.240281
0.000000
1.089348
0.000000
0.000000
0.175165
0.000000
0.000000
0.000000
0.000000
0.000000
0.000000
0.000000
0.000000
0.000000
0.000000
0.000000
0.264589
0.000000
0.000000
0.000000
0.000000
0.000000
0.000000
0.000000
0.000000
0.000000
0.000000
0.000000
0.123353
0.000000
1.635195
0.202193
0.000000
0.000000
0.184167
0.000000
0.000000
0.000000
0.000000
0.000000
0.000000
0.000000
0.000000
0.000000
0.000000
0.000000
0.000000
0.000000
0.000000
0.000000
1.021503
0.000000
0.000000
0.031650
0.000000
0.000000
0.007920
0.000000
0.000000
0.000000
0.000000
1.603845
0.182023
2.205830
0.000000
0.000000
0.000000
0.000000
0.000000
0.387258
0.000000
0.000000
0.000000
0.000000
0.000000
0.000000
0.000000
0.236095
0.000000
0.000000
0.000000
0.000000
0.000000
0.000000
0.000000
0.000000
0.000000
0.000000
0.000000
0.073980
0.000000
0.000000
1.768325
2.434376
0.000000
0.000000
0.000000
0.022162
0.000000
0.000000
0.529124
1.036800
0.000000
0.000000
0.000000
0.000000
0.000000
0.000000
0.000000
0.000000
0.123786
0.000000
0.000000
0.557003
0.000000
0.000000
0.000000
0.000000
0.000000
0.000000
0.000000
0.000000
2.727803
0.000000
0.000000
0.000000
0.000000
0.000000
0.051438
0.240913
0.000000
0.000000
0.049138
0.000000
0.000000
0.000000
0.513277
0.000000
0.000000
0.000000
0.000000
0.023281
0.003333
0.000000
0.000000
0.000000
0.000000
0.286693
0.541079
0.000000
0.000000
0.425032
0.000000
0.000000
0.000000
0.000000
0.000000
0.000000
0.505515
0.836189
0.000000
0.818090
0.000000
0.825302
0.000000
0.000000
0.000000
0.120053
0.000000
0.000000
0.000000
2.138450
0.000000
0.000000
0.000000
0.000000
2.101518
0.000000
0.946933
0.000000
0.000000
0.000000
0.000000
0.000000
0.000000
0.000000
0.380864
0.000000
0.000000
0.000000
0.000000
0.000000
0.000000
0.000000
0.000000
0.000000
0.000000
0.548250
0.000000
0.000000
0.453137
0.000000
0.008519
1.016448
0.000000
0.000000
0.000000
0.000000
1.278289
0.000000
0.000000
0.000000
0.000000
0.000000
0.000000
0.000000
0.000000
0.000000
0.000000
0.000000
0.000000
0.000000
0.000000
0.000000
0.000000
0.000000
0.000000
0.000000
0.000000
0.930483
0.459314
0.000000
0.432923
0.000000
0.000000
0.000000
2.028440
0.000000
0.000000
0.000000
0.226051
0.000000
0.000000
0.000000
0.000000
0.000000
0.280927
0.000000
0.000000
1.183201
0.140010
0.000000
0.000000
0.000000
0.000000
0.000000
0.000000
0.000000
0.000000
0.000000
0.000000
0.000000
0.000000
0.000000
0.000000
0.000000
0.000000
0.000000
0.000000
1.428595
0.000000
0.000000
0.000000
0.000000
0.000000
0.000000
0.000000
0.000000
0.000000
0.000000
0.000000
0.207759
0.000000
0.000000
0.000000
0.000000
0.000000
0.000000
0.000000
1.801652
0.000000
0.000000
0.614290
0.000000
0.757774
0.000000
0.000000
0.000000
0.069825
0.000000
0.000000
0.000000
0.000000
0.219234
0.115186
0.000000
0.000000
0.000000
0.000000
0.920990
0.000000
0.000000
0.000000
0.247975
0.000000
0.000000
0.000000
0.000000
