0.000000
0.000000
0.000000
0.117610
0.000000
0.152379
0.000000
0.095910
0.000000
0.000000
0.000000
0.000000
1.426969
3.849590
0.000000
0.000000
0.000000
0.000000
0.000000
0.000000
1.312632
0.007956
0.000000
0.000000
0.000000
0.000000
0.000000
0.000000
0.000000
0.000000
0.000000
1.085691
0.000000
0.000000
0.000000
0.098901
0.000000
0.000000
0.000000
0.000000
1.642878
0.000000
0.000000
0.000000
0.000000
0.000000
0.514824
0.000000
0.000000
0.000000
0.000000
0.000000
0.000000
0.000000
0.000000
0.848706
0.000000
0.000000
0.000000
0.300268
0.000000
0.000000
0.586595
1.115871
0.000000
0.000000
0.000000
0.476451
0.000000
0.000000
0.202173
0.000000
0.000000
0.000000
0.000000
0.815801
0.000000
0.000000
0.000000
0.083854
0.000000
0.000000
0.000000
0.479574
0.000000
0.669283
0.000000
0.000000
0.000000
0.000000
0.000000
0.874607
0.000000
0.000000
0.113860
0.000000
0.000000
0.171122
0.050228
0.078180
0.058269
0.000000
0.001156
0.577681
0.000000
0.000000
0.000000
0.000000
0.000000
0.019256
0.000000
0.880312
0.000000
0.000000
0.000000
0.000000
0.402822
0.000000
0.000000
0.000000
0.000000
0.000000
0.000000
0.000000
0.000000
0.000000
0.000000
0.000000
0.000000
0.000000
0.000000
0.000000
0.000000
0.594903
0.000000
0.000000
0.000000
0.412490
1.427971
0.098286
0.014310
0.000000
0.212421
1.827563
0.000000
0.000000
0.000000
0.000000
0.000000
0.000000
0.000000
0.000000
0.000000
0.789585
0.000000
0.951812
0.000000
0.000000
0.000000
0.000000
1.836692
0.000000
0.115551
0.143502
0.954584
0.000000
0.000000
0.000000
0.000000
0.000000
0.000000
0.000000
0.000000
1.156361
0.000000
0.000000
0.000000
0.000000
0.000000
0.000000
0.000000
0.375129
0.000000
0.000000
0.000000
0.000000
0.000000
0.000000
0.000000
0.000000
0.000000
0.000000
0.000000
1.289531
0.000000
0.041077
0.000000
0.000000
0.087279
0.000000
0.000000
0.000000
0.000000
0.000000
0.790723
0.000000
0.000000
0.300353
0.105830
0.088678
0.000000
0.113754
0.000000
0.347679
0.000000
0.000000
0.000000
0.000000
0.000000
0.000000
1.569684
0.000000
0.000000
0.366981
0.000000
0.000000
0.000000
0.000000
0.000000
0.000000
0.134561
0.000000
1.292811
0.000000
0.000000
0.000000
0.000000
0.000000
0.000000
0.000000
0.000000
0.000000
0.557881
0.000000
0.000000
0.000000
0.000000
0.000000
0.000000
0.000000
0.000000
0.378081
0.000000
0.489377
0.056830
0.000000
0.000000
0.000000
0.000000
0.000000
0.000000
0.000000
0.000000
0.000000
0.000000
0.000000
1.142376
0.000000
0.039298
1.564304
0.000000
0.000000
0.957536
0.000000
0.000000
0.000000
0.000000
0.841591
0.000000
0.000000
0.000000
0.000000
0.000000
0.000000
0.000000
0.183205
0.753468
0.000000
0.000000
0.000000
0.000000
0.000000
0.000000
0.000000
0.000000
0.000000
0.000000
0.000000
0.000000
0.000000
0.000000
0.000000
0.000000
0.076769
0.000000
0.000000
0.000000
0.000000
0.000000
0.464882
0.000000
0.000000
2.889610
0.352617
0.564097
0.000000
0.000000
0.000000
0.000000
0.000000
0.000000
0.000000
0.000000
0.000000
0.000000
0.000000
0.000000
0.346085
0.000000
0.000000
0.000000
0.000000
0.000000
0.831695
0.000000
0.000000
0.338493
0.000000
0.000000
0.000000
0.118389
0.000000
0.000000
0.000000
0.000000
0.000000
0.163167
0.000000
0.000000
0.000000
0.035711
0.000000
0.000000
0.000000
0.119949
0.000000
0.000000
0.000000
0.000000
0.000000
2.633043
0.000000
0.000000
0.000000
1.131235
0.000000
0.000000
0.000000
0.000000
0.045852
0.000000
0.000000
0.000000
0.000000
0.000000
0.000000
0.000000
0.000000
0.153641
0.000000
0.000000
0.000000
0.000000
0.630758
0.502572
0.000000
0.000000
0.075994
0.000000
0.304871
0.283350
0.000000
0.338856
0.291184
0.000000
0.000000
0.564991
0.012180
0.000000
0.000000
0.000000
0.452893
0.000000
0.000000
0.000000
0.000000
2.500215
0.000000
0.000000
0.000000
0.274669
0.000000
0.000000
0.311352
0.000000
0.122069
0.016410
0.456300
1.925202
0.000000
0.107715
0.000000
0.000000
0.000000
0.000000
0.566704
0.000000
0.000000
0.000000
0.082947
0.000000
0.244711
0.000000
0.000000
0.000000
0.000000
0.000000
0.000000
0.000000
0.000000
0.000000
0.000000
1.780982
0.173728
0.000000
0.000000
0.000000
0.000000
0.458089
0.434752
0.000000
0.000000
0.000000
0.000000
0.306115
0.000000
0.000000
0.000000
0.120348
0.000000
0.000000
0.111482
2.235756
0.000000
0.000000
0.000000
0.190103
0.000000
0.000000
0.000000
0.110343
0.000000
0.000000
0.000000
1.367321
0.061894
0.000000
0.000000
0.000000
0.000000
0.000000
0.000000
0.050847
0.000000
0.049254
0.000000
0.814755
3.748600
0.000000
0.000000
0.000000
0.000000
0.000000
0.885094
0.000000
0.344978
0.000000
0.000000
0.000000
0.164245
