0.000000
0.166868
0.000000
0.000000
1.047501
0.000000
0.000000
0.560260
1.183270
0.000000
0.000000
0.000000
1.220197
0.970641
0.000000
0.000000
0.000000
0.000000
0.000000
0.000000
0.751132
0.015882
0.348800
0.000000
0.000000
0.000000
0.104572
0.000000
0.000000
0.000000
0.000000
0.000000
0.000000
0.000000
0.000000
0.000000
0.000000
0.000000
0.000000
1.357400
0.489160
0.000000
0.087532
1.526916
0.000000
1.350907
0.339057
0.000000
0.000000
0.223781
0.000000
0.119822
0.000000
0.022233
0.000000
0.057440
0.000000
0.000000
0.000000
2.600813
0.000000
0.000000
0.000000
0.000000
0.000000
0.000000
0.000000
0.000000
0.000000
0.905683
0.000000
0.551296
0.231937
0.000000
0.000000
0.000000
0.000000
0.000000
0.000000
0.000000
0.256449
0.000000
2.618268
0.227317
0.000000
0.000000
0.000000
0.970839
0.000000
0.000000
0.000000
0.000000
0.000000
0.391179
1.070423
0.000000
0.816449
0.000000
0.000000
0.036062
0.000000
0.000000
0.000000
0.000000
0.000000
0.000000
0.000000
0.000000
0.000000
0.000000
0.000000
0.000000
0.000000
0.000000
0.000000
0.000000
0.000000
2.112725
0.000000
0.000000
0.000000
0.097348
0.000000
0.603661
0.000000
0.000000
0.000000
0.000000
0.000000
0.000000
0.000000
0.000000
0.000000
0.000000
0.000000
0.000000
0.000000
0.000000
0.000000
1.836188
0.571870
0.276382
0.000000
0.235659
0.799217
0.000000
0.000000
0.000000
0.000000
0.000000
0.000000
0.000000
0.000000
0.000000
0.660396
0.000000
1.476623
0.000000
0.000000
0.000000
0.624508
0.574742
0.000000
0.000000
0.000000
0.000000
0.000000
0.000000
0.068196
0.000000
0.000000
0.000000
0.802372
0.000000
0.000000
0.000000
0.000000
0.000000
0.000000
0.000000
0.000000
1.868502
0.000000
1.513689
0.080014
1.483468
0.000000
1.306380
0.000000
0.000000
0.000000
0.000000
0.000000
0.000000
0.000000
0.665133
0.000000
0.389958
0.000000
0.000000
0.000000
0.000000
0.000000
0.000000
0.000000
0.000000
0.025604
0.000000
1.102938
1.233959
0.015149
1.343069
1.707138
0.316492
0.000000
0.000000
0.000000
0.000000
0.000000
0.000000
0.000000
0.000000
0.000000
0.025154
0.000000
0.000000
0.000000
0.000000
0.000000
0.000000
0.074734
0.000000
0.278308
1.268304
0.000000
0.834887
0.000000
0.268737
0.250282
0.000000
0.000000
0.111565
0.091582
1.119249
0.000000
0.804237
0.124766
0.000000
0.000000
0.000000
0.000000
0.000000
0.000000
0.315955
0.000000
0.087278
0.000000
0.000000
0.000000
0.000000
0.000000
0.000000
0.000000
0.000000
0.000000
0.000000
0.289628
0.263123
0.000000
0.000000
0.000000
1.005124
0.000000
0.000000
0.000000
0.237324
0.000000
0.852461
0.000000
0.000000
0.000000
0.000000
0.000000
0.660727
0.000000
0.190520
0.000000
0.000000
0.000000
0.000000
0.000000
0.171791
0.000000
0.000000
0.000000
0.554046
0.000000
0.000000
0.000000
0.000000
0.000000
0.000000
0.000000
0.000000
1.087611
0.000000
0.000000
0.000000
0.000000
0.000000
0.445812
0.000000
0.308112
0.000000
0.000000
0.000000
0.000000
0.000000
0.000000
0.160471
0.057999
0.000000
0.000000
0.000000
0.000000
0.000000
0.024459
0.671074
0.471119
0.000000
0.000000
0.000000
0.000000
0.631228
0.445388
0.348587
0.294478
0.000000
0.000000
0.000000
0.742553
0.000000
0.000000
0.000000
0.000000
0.586977
0.108585
0.116018
0.000000
0.146211
0.482718
0.000000
0.000000
0.208505
0.000000
0.026444
0.000000
0.000000
0.000000
0.000000
0.413310
0.000000
0.000000
0.144155
0.082367
1.347534
0.000000
0.000000
0.176540
0.000000
0.000000
0.000000
0.000000
0.269301
0.000000
0.000000
0.000000
0.000000
0.000000
1.636957
0.000000
0.000000
0.520882
0.348592
1.331406
0.000000
0.000000
0.000000
0.000000
0.000000
0.000000
0.000000
0.164839
0.000000
0.000000
1.534382
0.000000
0.000000
0.000000
0.000000
0.000000
0.021975
0.000000
0.000000
0.000000
0.000000
0.000000
0.469369
0.770675
0.000000
0.425383
1.747692
0.000000
0.000000
1.420663
0.000000
0.030105
0.000000
1.920367
0.000000
0.000000
0.000000
0.000000
0.000000
0.000000
0.000000
0.000000
0.000000
0.584769
0.423267
0.000000
2.450092
0.000000
0.000000
0.913932
0.000000
0.000000
0.000000
0.000000
0.000000
0.000000
0.175866
0.000000
0.091716
0.000000
0.195299
0.000000
0.000000
0.000000
0.000000
0.000000
0.000000
0.000000
0.000000
0.000000
0.000000
0.000000
0.000000
0.000000
0.000000
0.000000
0.031873
0.000000
0.000000
1.005332
0.000000
0.250043
0.000000
0.000000
0.000000
0.459628
0.000000
0.770877
0.000000
0.000000
0.000000
0.000000
0.000000
0.000000
0.000000
1.174863
0.730429
0.000000
0.300989
1.376275
0.000000
0.000000
0.000000
0.000000
0.000000
0.000000
1.531938
0.000000
0.000000
1.011094
0.981820
0.000000
0.000000
0.000000
0.071134
