0.000000
0.000000
0.000000
0.000000
0.173770
0.000000
0.000000
0.000000
0.000000
0.000000
0.000000
0.000000
1.782263
0.099826
0.125600
0.000000
0.000000
1.124666
0.000000
0.000000
0.000000
0.000000
0.119808
0.000000
0.000000
0.007093
0.000000
0.000000
0.000000
0.000000
0.000000
1.510897
0.000000
0.000000
0.000000
0.000000
0.000000
0.000000
0.000000
1.530290
0.000000
0.000000
0.000000
0.511763
0.000000
0.000000
0.000000
0.000000
0.000000
0.000000
0.000000
0.000000
0.000000
0.353131
0.000000
0.394424
0.000000
0.000000
0.000000
1.541244
0.000000
0.000000
0.000000
0.000000
0.000000
0.000000
0.330108
0.000000
0.000000
0.000000
0.866426
0.239979
0.000000
0.000000
0.099648
0.000000
0.200713
0.000000
0.000000
1.138064
0.000000
0.000000
0.000000
0.143847
0.000000
0.000000
0.964435
0.000000
0.000000
0.000000
0.000000
0.000000
0.000000
0.519017
0.430775
0.000000
0.000000
0.717475
0.000000
0.437281
0.000000
0.513839
0.000000
0.000000
0.000000
0.000000
0.000000
0.000000
0.000000
0.000000
0.000000
0.135404
0.000000
0.000000
0.000000
0.000000
0.338730
0.000000
0.000000
0.886231
0.000000
0.000000
0.000000
0.000000
0.000000
0.000000
0.000000
0.000000
0.000000
0.000000
0.000000
0.665195
0.000000
0.000000
0.000000
0.000000
0.002956
0.000000
0.000000
0.000000
0.000000
0.000000
0.067283
1.375004
0.650633
0.000000
0.000000
0.000000
0.000000
0.000000
0.126125
0.000000
0.000000
0.806104
1.238337
1.560244
0.943669
0.000000
0.000000
0.840677
1.004871
0.000000
0.000000
0.000000
0.261026
0.000000
0.000000
0.000000
0.000000
0.000000
0.000000
0.000000
0.000000
2.349813
0.000000
0.000000
0.000000
0.000000
0.000000
0.664615
0.000000
2.284569
0.000000
0.701432
0.124485
0.000000
0.046373
0.000000
0.000000
0.000000
0.000000
0.000000
0.000000
0.000000
0.000000
0.514877
0.000000
0.000000
0.000000
0.000000
0.000000
0.000000
0.000000
0.000000
0.000000
0.000000
1.749623
0.000000
0.000000
0.000000
0.000000
1.198327
0.039746
0.000000
0.000000
0.000000
0.000000
0.000000
0.000000
0.000000
0.000000
0.000000
0.000000
0.000000
0.000000
0.000000
0.000000
0.000000
0.000000
0.000000
0.000000
0.000000
0.625772
0.000000
0.000000
0.514550
0.948649
0.000000
0.000000
0.000000
0.000000
0.000000
0.170950
0.000000
0.067890
0.268557
0.000000
0.020713
0.000000
0.000000
0.000000
0.000000
0.000000
0.000000
0.028114
0.000000
0.000000
0.000000
0.000000
0.000000
0.000000
0.000000
0.000000
0.000000
0.091381
0.127942
0.413356
0.000000
0.000000
0.000000
0.000000
1.235908
0.000000
0.000000
0.000000
0.000000
0.000000
0.806474
0.000000
0.000000
0.000000
0.000000
0.000000
0.455657
0.000000
0.000000
0.441230
0.000000
0.000000
0.000000
0.000000
0.000000
0.000000
0.000000
0.231651
0.000000
0.000000
0.000000
0.000000
0.000000
0.000000
1.066437
0.056891
0.000000
0.942493
0.000000
0.000000
0.000000
0.286395
1.414176
0.000000
0.249433
0.000000
0.000000
1.830230
0.000000
1.200408
0.000000
0.000000
0.000000
0.000000
0.000000
0.424092
0.000000
0.000000
0.000000
0.000000
0.000000
0.000000
0.000000
0.343036
0.000000
0.000000
0.235282
0.000000
0.000000
0.000000
0.000000
0.000000
0.000000
1.097986
0.000000
0.000000
1.363281
0.000000
0.000000
0.000000
0.000000
0.000000
0.355707
0.000000
0.000000
0.000000
0.000000
0.000000
0.000000
0.000000
0.000000
0.252673
0.000000
0.113167
0.000000
0.000000
0.580134
0.000000
0.970554
0.000000
0.000000
0.540146
1.511733
0.000000
0.000000
0.000000
0.287134
0.000000
0.000000
0.270087
0.000000
0.000000
0.932484
0.000000
1.949674
0.000000
0.000000
0.270195
0.000000
0.000000
0.432493
0.000000
0.802045
1.499648
0.000000
0.000000
0.043330
0.000000
0.000000
0.000000
0.000000
0.000000
0.000000
0.000000
0.000000
0.000000
0.000000
0.000000
0.465006
0.000000
0.019849
0.000000
0.000000
0.000000
0.672257
0.000000
0.000000
1.756787
0.000000
0.000000
0.000000
1.392776
0.000000
0.963043
0.000000
0.731306
0.000000
0.000000
0.000000
0.105375
0.000000
0.084130
1.222890
0.000000
1.087994
0.067285
0.000000
0.425556
0.000000
0.000000
0.000000
0.000000
0.000000
0.000000
0.739761
0.000000
0.000000
0.382759
0.000000
0.000000
0.000000
0.000000
0.000000
0.000000
0.000000
0.000000
0.130008
0.000000
0.000000
0.000000
0.000000
0.000000
1.452472
0.000000
0.087068
0.000000
0.000000
0.673143
0.000000
0.000000
0.000000
0.000000
0.000000
0.000000
0.000000
0.000000
0.000000
0.000000
0.000000
0.000000
0.000000
0.000000
0.000000
0.000000
0.358239
0.000000
0.032072
0.000000
0.164136
0.000000
0.000000
0.000000
0.000000
0.000000
0.000000
0.000000
0.000000
0.000000
0.457630
0.000000
1.430162
0.000000
0.000000
