0.433796
0.142081
0.945857
-0.155450
-0.005458
-0.518327
0.478672
0.290592
1.077389
0.973789
-0.021708
-0.785418
-0.069567
1.242697
-0.341608
-0.002721
0.101024
0.426337
0.241327
0.039986
0.234079
-0.012071
0.337819
-0.163649
0.065558
1.870109
-0.941428
0.259923
-1.048632
-0.101680
-0.003873
-0.237999
0.103528
-0.732355
0.026732
0.246425
-0.146928
0.055857
1.457295
-0.100446
-0.531483
0.379794
0.815301
0.615050
-0.128501
-0.118928
0.214448
-0.036081
0.629870
1.600418
-1.191981
-0.921886
0.862929
0.327259
-0.229243
-0.321746
0.777117
-0.941557
0.421762
0.318784
-1.481797
1.381404
1.016071
0.349130
-0.592507
-1.354705
-0.599049
-0.669510
0.330392
-0.258411
0.468692
-0.281156
0.321264
-0.234305
-0.437960
-0.291285
0.351497
-0.214526
-0.553806
-0.492063
-0.460190
0.527363
0.145913
-0.468525
-0.143417
-0.628016
-0.021573
0.362178
-1.355651
0.330349
-0.033246
-0.133617
-0.462309
0.043390
0.392251
-0.892425
0.273605
1.098152
-0.032328
0.238223
-0.290980
0.082620
-0.617954
-0.396769
1.414993
-0.502471
-0.559223
-0.328259
0.081146
-0.675596
0.119544
0.413324
-0.290080
0.236401
-0.879754
-0.113921
0.336559
1.103622
1.774472
0.096482
-0.708373
0.005458
-0.063279
-0.127653
0.250990
-0.278361
0.043555
0.273325
0.364065
0.441536
0.326231
0.676794
-1.243345
0.504790
0.738797
0.216301
-0.536669
-0.436459
1.248481
-0.081669
-0.171322
-0.177965
-0.261442
0.458907
0.158652
-0.289929
0.383839
1.058959
-0.069553
-0.374070
0.584315
0.125137
-0.191982
-1.326828
-0.082532
0.079509
1.708247
1.431270
0.307718
-0.354892
-0.110200
-0.124379
-0.731039
-0.490775
-0.382928
0.478731
1.100952
0.147858
-1.522407
-0.435453
0.086074
0.097813
-0.049692
0.214451
0.338112
-0.201545
-0.333306
0.683514
0.571848
-0.216753
0.273485
-1.035950
0.514431
-0.106582
-0.275057
-0.796742
0.210428
-0.195798
0.130253
0.175176
0.418561
-0.782230
1.026381
0.151274
0.082356
-0.110252
0.115525
-0.319334
0.282976
-0.331579
0.491783
-0.392607
0.056342
0.019732
1.405462
0.493005
1.615923
0.356436
-0.025107
-0.014187
-0.088971
-0.225411
-0.035394
1.428430
0.114765
1.364107
-0.318951
0.390830
0.168070
0.228018
-1.175935
1.265461
0.784987
0.914631
0.329338
0.429260
-0.545942
1.695100
-0.041344
-0.351945
0.020245
2.175235
0.063637
-0.118841
-0.260446
-0.639476
1.307022
0.160582
-0.715096
-0.948638
-0.199208
0.465468
0.359182
0.973990
-2.196136
0.619752
-0.176726
-0.402159
-0.117978
-1.027061
-0.468878
0.639265
0.627680
-0.264385
1.478090
0.755121
-0.597003
-0.007228
-0.441598
0.414800
0.096199
-0.108262
-0.337602
0.474219
-0.324461
1.046164
-0.101231
0.373349
0.160409
-0.291696
-0.312046
-0.137252
-0.603650
-0.461379
0.581833
-0.285023
0.029403
1.169695
1.340030
-0.283595
-0.228669
-0.020936
-0.624196
-0.556037
1.096254
0.165978
-1.199784
0.167625
1.978506
1.433841
-0.240121
0.059706
-0.886062
-0.311115
-0.109338
-0.076684
0.744755
-0.489480
-0.403334
0.335461
0.132958
-0.290375
0.287759
-0.043427
0.116691
-0.754181
0.289853
-0.424121
0.082473
0.108986
-0.241608
-0.029475
0.193140
0.024641
0.811046
0.817259
-0.119338
0.414335
-0.311484
-0.123475
-0.176816
-0.233156
1.582833
-1.267787
-0.462490
0.337139
-0.224225
0.029673
-0.246849
0.034693
0.243627
-0.097200
0.605676
0.203005
0.340819
0.040785
1.114060
-1.005873
-0.831921
0.094085
-0.212632
-0.326844
-0.197942
-0.119882
-0.190660
1.852204
0.168184
0.198732
-0.238699
0.134185
0.167922
1.149406
-1.897785
1.276366
-0.002548
-0.176144
0.904662
0.725305
-0.125922
-0.355448
-0.677412
-0.745977
-0.028468
-0.598514
-0.649348
0.041725
0.703362
0.244594
-0.676588
0.447812
-0.122603
0.335175
-0.072441
0.243446
0.166654
0.413117
-0.697579
0.239661
0.534205
2.139748
-0.075293
-0.289553
0.259087
0.051236
-0.500617
1.736640
-0.414461
-0.540742
1.566949
-0.396611
0.632879
-0.345790
0.267008
-0.307113
-0.093857
0.135002
0.064355
0.618277
-0.217097
-0.241498
-0.294079
1.898383
-0.341163
-0.085160
-0.929659
1.104196
0.126602
0.632311
0.626950
0.998771
0.203744
0.299433
-1.812194
0.811448
-1.053048
-0.133669
0.061168
-1.036261
0.178967
0.021665
-0.786419
-0.073150
-0.343091
-0.666942
1.265469
1.786472
0.555387
-0.104875
-0.085620
1.231002
1.210428
-0.367326
2.741573
0.180501
0.246455
0.535375
-0.263573
-0.179391
-0.066755
1.053635
-0.734021
-0.367809
0.267662
1.501109
-0.089317
0.268169
-0.193326
-0.221609
-0.387976
-1.044369
-0.265613
0.473396
0.684520
-0.534489
-0.577223
-1.311475
0.397256
-0.514640
-0.241704
-0.307135
-0.852152
0.559186
-0.279938
-0.469703
-0.550879
-0.917113
0.131664
0.150511
-0.787339
-0.078296
0.821364
-0.965168
0.045227
-0.417744
-0.169685
-0.175241
0.698034
-1.221169
0.475090
0.933091
0.177524
-0.635648
-0.469523
0.399507
0.825530
-0.126452
1.046443
0.288868
0.809811
-0.602511
0.330534
0.362482
-0.137576
-0.003944
-0.481785
0.581037
0.120965
0.455475
-0.870660
1.052172
