0.422298
-0.230083
0.059562
-0.638705
-0.541789
0.097646
-0.106288
0.737709
0.976677
-0.956465
-0.036191
-0.671946
-0.417391
0.570876
0.208147
-0.973640
0.414675
0.717287
0.865550
-0.762874
0.330412
-0.091934
0.210411
-0.408877
-0.031017
-0.168243
-2.227665
0.030137
-0.283349
-0.745141
0.284923
-0.754909
0.813242
-0.757567
-0.921188
0.891280
0.494689
-0.589567
1.590137
0.159067
-0.986601
0.191805
0.385288
1.198941
-0.728621
-0.082408
0.786857
0.357314
0.507232
0.668581
-0.725540
-0.022681
1.897917
0.235987
-0.084950
-0.089473
0.279555
-1.034358
-1.211321
0.618626
-2.281532
1.094576
0.553196
0.677639
0.397021
-2.146635
-0.590545
0.058501
-0.814631
-0.154479
0.435338
0.613482
0.474973
-0.411664
-0.144946
0.393240
1.374693
-0.486251
-0.638954
0.174062
0.559089
0.820346
0.194812
0.619876
-0.821060
-0.217719
0.113389
0.543908
-0.955937
0.061133
0.051418
-0.466199
0.903205
0.447106
-0.745910
-0.651115
-0.121765
0.491228
0.049101
-0.017121
-0.247904
0.123036
-0.897887
0.018247
0.830280
-0.519074
-0.082520
-0.455407
-0.478905
-0.565232
-0.069201
-0.131549
-0.706604
0.778996
0.268661
-0.176164
-0.017985
1.686034
1.691074
-0.419211
-0.331797
0.227740
0.193683
0.421922
1.124583
0.032190
0.280485
-0.636218
0.318015
0.095653
-0.413905
0.771035
-2.085796
-0.554203
2.028315
0.051513
0.427728
-0.455063
2.240923
-1.090458
-0.525129
-0.176799
0.701656
-0.508227
0.244414
0.976747
0.216648
1.199899
0.468344
0.639761
-0.194275
0.224678
-0.904049
-0.847565
0.071398
-1.063839
0.811697
0.388370
0.462056
-0.244925
-0.596498
-0.531636
0.418713
0.322387
0.028151
0.080029
0.890320
0.332564
0.648954
-0.555735
0.677985
0.635745
0.047309
0.472023
0.373478
0.210765
-0.680420
1.188158
1.294569
-0.296143
0.571210
-0.888858
1.166568
0.048461
0.815334
-0.600149
0.071434
-0.393910
0.584286
0.708916
-0.043234
-0.569444
1.297403
-0.031611
-0.057695
-0.305915
-0.141614
0.088116
1.116644
-0.255848
0.279822
-0.518028
-0.078783
-0.275141
1.751106
0.017381
0.367954
0.021718
-0.488808
1.422637
-0.136674
-0.226544
0.600383
0.074445
0.331837
-0.231787
-0.295790
-0.324402
-0.414481
-0.379010
0.827144
1.604798
0.048070
0.588129
0.701303
0.561366
-0.992980
1.707445
0.323342
0.140448
1.187059
1.528974
-0.011416
0.350693
0.225663
0.465238
2.110626
0.356241
-0.594563
-0.485752
-0.769754
-0.339018
-0.145730
-0.188922
-1.228047
0.161193
0.097988
-0.236315
0.688444
-0.444038
-0.282406
1.290154
0.773146
-0.342499
1.196918
-0.293291
-0.057633
-1.380567
-0.900399
-0.370841
1.389850
-0.238693
0.723397
0.042575
-0.395205
0.426890
0.316525
0.427419
0.978132
0.843530
-0.537908
-0.394919
-0.445339
-0.398470
-0.168468
-0.443081
-0.786930
-0.156313
1.764412
-0.085951
0.107447
0.335299
0.061804
-0.004994
0.406380
-0.684248
-1.004087
-0.399702
2.320746
0.083144
-0.552107
0.124305
-1.136933
-0.344237
-0.340705
-0.050488
0.674482
-0.961593
0.019083
0.183312
0.566950
-0.395940
0.402043
0.503070
-0.373464
-0.909685
1.308385
-0.483735
-0.893905
-0.108214
-0.456325
0.225591
0.504285
-0.374951
0.076506
-0.093937
0.297060
1.602237
0.262260
-0.347716
-0.284805
-0.288069
0.837064
-0.045949
0.215246
-0.818944
-0.135647
0.259968
0.671585
-0.439816
-0.052364
-0.139890
0.883334
0.374036
0.414569
-0.218273
-0.254201
-0.883180
-1.550420
-0.542039
0.071693
0.039904
-0.407609
0.084585
-0.661402
0.571770
-0.204410
0.555307
0.492604
1.165820
-0.710393
0.526906
-1.359859
1.646001
-0.234518
-0.119369
-0.004939
0.245912
-0.351242
-1.297353
-0.066326
-0.258834
-1.196588
-0.142560
-0.154282
-0.105550
-1.345016
0.572871
0.578056
0.131034
0.343457
-0.078495
-0.491795
0.330011
0.177906
0.450324
-0.326312
0.458840
0.005299
2.023282
0.734072
-0.227408
0.082157
0.204496
-0.432056
1.787917
-0.222729
-0.167639
0.707132
0.321524
0.038254
-0.430676
0.967931
0.269574
0.621400
0.979799
-0.681108
0.588518
-0.391031
0.483164
-0.366776
-0.385235
0.398803
-0.711837
-1.263126
0.398600
1.160596
1.007527
0.640011
-0.608089
0.658791
0.770069
-0.528113
-0.250644
-0.839815
0.062972
-0.328602
-2.223110
-0.104727
-0.336593
-0.309580
-0.529613
0.103975
-0.592025
-0.027391
1.298130
-1.046020
-0.187418
-1.061870
-0.030602
1.631752
-0.951578
1.328171
-0.296023
0.156031
-0.301282
-0.663068
0.353478
-0.323183
-0.270395
-0.889905
-0.188303
0.910838
0.879139
0.026477
0.127350
0.090952
-0.200320
0.900798
-1.490510
1.573234
0.077070
0.762132
-0.788783
-0.061522
-0.391781
0.399183
-0.312441
-0.384461
-0.250084
0.049588
0.191105
-0.732352
-0.384489
1.009589
0.141449
0.987471
0.932314
-0.884579
0.320563
0.615630
-0.957420
0.895025
0.584580
0.222124
1.109352
0.895307
-0.633216
-0.420604
1.044696
0.589980
-1.017759
-0.587010
0.842614
0.524190
-0.152758
-0.219653
1.015661
-0.587818
0.257870
0.595516
0.266714
-0.061651
-0.220831
0.179261
-0.198144
0.496491
0.043233
-0.383009
0.355606
