0.288094
0.419410
-0.539242
-0.157460
-0.245428
-0.771175
0.073353
0.159041
-0.123703
-0.391471
1.417386
-0.852488
-1.172357
0.167837
0.250868
-0.263910
0.411129
-0.215237
-0.159243
-0.066780
-0.227868
-0.835218
-0.100845
0.102549
0.010213
0.452846
0.389691
-0.283106
-0.111017
-0.999557
-0.238753
0.039580
0.034957
-0.916079
-0.259131
-0.313266
-0.116493
-0.406906
0.244818
-0.339232
-0.594697
0.366062
0.056909
-1.222089
-0.122943
-0.200732
-0.186493
0.201427
-0.628520
0.264433
-0.381377
0.095801
-0.014621
0.248995
-0.120455
0.688591
0.111064
-0.171770
-0.208560
0.550551
-0.539866
1.161742
0.140418
-0.071728
-0.191877
-0.662519
0.232167
0.144709
-0.052878
0.001681
-0.336742
-1.037477
0.077725
0.009201
0.085088
-0.182145
-0.049660
-0.809124
-0.505395
0.782764
0.191910
-0.155453
-0.358438
-0.633809
0.079811
-0.419656
0.618670
0.257354
0.804969
0.039300
-0.369107
-0.752964
0.592988
0.165172
-0.095123
-0.079902
-0.122444
0.238120
-0.323112
-0.088689
0.080943
-0.047809
0.357697
0.411846
0.382321
-0.185548
0.762137
-0.186018
0.057952
0.653893
0.171324
0.506184
-0.829040
-0.353975
-0.518734
0.178599
0.035517
0.162912
0.068568
-0.195368
-0.179240
-0.575929
0.084445
0.085414
0.117537
-0.076822
-0.108926
-0.324885
0.027576
-0.045628
-0.124862
0.220827
-0.317764
-0.070734
-0.781154
0.089356
1.013935
0.466753
0.846867
-0.081039
-0.473920
-0.012411
-0.040464
-0.998053
-0.042454
-0.250793
-0.481204
0.370757
0.068045
-1.134398
0.274072
0.185437
0.261249
1.015690
0.420451
0.429191
0.515412
0.683759
0.398618
-0.546581
-0.656763
0.017447
0.008350
-0.506506
-0.424856
-0.084197
-0.364504
0.228941
-0.108503
0.038543
-0.384148
0.287509
0.221292
0.052576
-0.577352
-0.026665
0.102760
0.029387
-0.146181
0.224880
0.314488
-0.601670
-0.690481
-0.299390
0.294483
-0.490353
-0.055936
0.206908
-0.117531
-0.221848
0.659638
-0.368915
0.094727
0.050046
0.028885
-0.253298
0.086466
0.359329
-0.211461
-0.372989
0.028661
0.125466
-0.065921
0.242313
0.700464
1.035791
-0.752499
0.475626
0.730999
-0.176694
-0.030748
-0.033852
-0.838671
1.313450
-0.477107
0.035078
0.466109
-0.223013
-0.941935
-0.186010
-0.131085
0.088965
-0.692055
0.326361
-0.531369
0.279114
0.842495
1.091777
-0.107119
-0.227645
0.490511
0.636591
-0.137118
0.156685
0.238006
-0.576820
0.236806
0.191471
0.352598
-0.235630
0.950382
1.234553
0.519058
0.226668
-0.914783
0.482103
-0.703441
-0.107184
0.329361
-0.915253
1.032764
-0.005933
-0.060796
-0.243007
0.371598
0.132309
0.145030
-0.013932
-0.140460
0.383402
0.518520
-0.226420
-0.222422
0.348925
0.190517
-0.232704
-0.490227
0.002479
-0.119532
0.576625
-0.475599
-0.234546
-0.048046
-0.379800
0.295658
0.426630
0.159716
0.767724
0.285713
-0.793938
-0.934404
-0.733844
0.138748
0.359242
0.819345
0.378325
0.174478
0.098592
0.759667
1.644001
-0.176900
0.032594
-0.004287
-0.056781
-0.090992
-0.181900
0.118464
-0.045286
-0.281262
0.095119
-0.039212
0.199603
-0.220251
-0.030658
0.031071
-0.508376
-0.194235
0.654264
-0.117669
0.135864
0.904540
0.424947
-0.017024
-0.171927
0.176787
0.118918
0.254486
0.296022
0.165663
0.543302
0.055902
-0.253066
0.952290
-0.359761
0.368586
-1.248226
-0.682645
0.037185
-0.387877
-0.192340
-0.457633
-0.285049
0.239806
-0.108098
-0.346437
-0.488461
0.124960
-0.817453
0.336740
0.054664
-0.095733
0.063349
-0.152288
-0.359115
-0.045921
-0.564827
-0.405169
0.033987
0.898063
-0.011394
0.410076
-0.296337
0.172729
0.703699
-0.236498
-0.504377
0.866779
1.582858
-0.024216
0.144138
-0.022687
-0.506933
-0.491371
0.880689
1.127899
-0.045092
-0.005506
0.166665
0.340790
-0.016797
-0.639498
-0.393192
0.003600
0.670586
-0.237439
0.025807
0.721301
0.463736
0.087209
-0.021164
0.169004
-0.354286
0.066677
0.610278
0.082823
0.018770
0.511943
0.252324
0.750552
0.499556
-0.326187
-0.047008
0.381976
0.806050
-1.351117
-0.450141
0.221608
0.107333
-0.054244
0.207195
0.492446
1.476747
-0.454654
-0.045489
-0.438782
0.345915
0.678344
0.391401
0.509366
1.298767
0.161838
-0.537234
1.433564
-0.372200
1.489207
-0.145671
-0.399870
-0.284311
0.466419
0.141384
-0.336472
0.384181
0.233426
-0.095093
-0.066483
-0.095953
0.284365
-0.086791
-0.059448
0.325084
-0.457345
-0.024401
-0.463705
0.162846
-0.008678
-0.341346
0.108872
-0.110057
-0.145364
-0.510510
-0.004484
-0.173990
-0.262087
-0.188044
-0.022327
0.053580
-0.005725
0.353899
-0.691795
0.108572
-1.257373
-1.916302
0.041721
-0.089380
1.111643
0.217379
-0.313572
0.782092
-0.388603
-0.143424
0.010974
1.078680
0.129202
-0.688585
-0.024988
-0.186621
0.007272
-0.067837
0.083959
0.229551
-0.263443
0.300398
0.231825
0.364176
-0.877508
0.020359
0.025051
-0.240930
0.248892
-0.576635
0.037574
0.015748
-1.330833
-0.076158
-0.340285
-0.447176
0.368867
0.041388
-0.386603
0.060954
-0.408895
0.155383
-0.122129
0.216142
0.054853
0.480227
-0.306257
-0.272714
0.317575
-0.443104
