0.199684
-0.522370
0.962735
-0.619812
0.011509
-0.226772
0.634757
-0.096492
-0.118310
0.059585
0.018889
0.181063
-0.061836
-0.822662
-0.067643
-0.065255
-0.151430
0.186917
0.179227
0.041725
-0.897498
0.598820
-0.563599
-0.461493
-0.206809
-0.365037
-1.135357
0.783293
0.432274
-0.324291
0.034517
-0.425814
-0.206390
-0.055259
0.555166
0.674143
0.024737
-0.984439
1.511199
0.083449
-1.325985
-0.386773
0.218158
-0.455542
-0.000789
0.075314
-0.966464
-0.469075
0.407324
0.346903
-0.362775
0.325083
1.239913
-0.022843
0.081538
-0.423876
-0.648122
-0.646851
-0.908868
0.205644
-1.195944
0.219611
-0.221751
0.178527
0.377428
-0.335662
-0.223407
-0.081767
-0.216411
0.133013
-0.453469
0.025802
0.151493
-0.075528
-0.206175
0.602640
0.227782
0.910929
-0.312976
-0.167566
-0.101930
0.621550
-0.408655
-0.999768
0.425096
-0.240235
-0.176144
-0.606066
-0.089367
-0.744471
0.097830
-0.023290
-0.031579
-0.344476
-0.559015
0.114311
0.020947
0.188095
0.126220
0.181285
0.271799
0.551003
-0.391509
0.134382
-0.157940
-0.281704
0.116274
-0.444498
1.445930
-0.649779
0.398283
-0.255936
-0.127260
0.654149
-2.091572
-0.604391
-0.671526
1.110033
1.475320
-0.730269
-0.079523
-0.219641
0.011818
-0.372962
-0.102098
-0.679512
0.480858
-0.485815
0.299302
-0.135361
0.360886
0.730816
-0.513228
-0.257865
0.874402
-0.802499
0.278635
-0.962238
1.622880
-0.333897
-0.434746
-0.086103
0.973897
-0.320803
0.238643
-1.723862
-0.189215
-0.168468
-0.007097
-0.608343
0.103366
0.134926
-0.372234
0.155041
-0.237021
0.350797
-0.767907
1.061511
0.030454
0.262836
-0.409653
0.433386
-0.232051
1.235851
0.124377
-1.310831
-0.036117
0.788906
-1.907021
-1.072647
0.649665
-0.248178
-0.503661
0.234997
0.114790
1.150982
-0.489441
0.365153
-0.192408
0.305410
0.849061
-0.238346
0.348750
-0.152618
0.881822
-0.455079
0.643316
-0.335367
0.790385
1.619936
0.121396
-0.032923
0.893908
-0.465691
-0.126781
-0.390979
0.444713
-0.099805
0.942669
-0.080725
0.042491
-0.941756
-0.168796
-1.490929
1.389546
-0.966289
-0.117472
-0.572758
1.382636
-0.369968
-0.071724
-0.356302
-0.194677
-1.082123
0.750103
-0.177986
-0.219572
0.090700
0.155996
-0.391953
0.155762
1.177230
-0.357951
-0.060474
-2.163239
0.623728
0.134939
0.766724
-0.379929
-0.778870
0.511269
0.827654
-0.104005
0.510894
-0.165951
-1.300898
0.838037
0.390022
0.120430
-0.257687
-0.274182
-0.167201
0.084641
0.242168
-1.684342
0.077716
0.098607
0.022863
0.844963
-1.118162
-0.513695
0.790571
0.476983
-0.233340
1.083353
-0.158973
0.291032
-1.511363
-0.406693
-0.438632
1.219572
0.066309
0.199927
-0.990624
0.000029
-0.168508
-0.231115
0.404453
0.412151
1.002989
-1.270059
0.219502
-0.221724
-0.279519
0.461843
0.150463
-0.012625
-0.072812
0.968486
-0.472312
-0.066237
-0.204590
0.772534
-0.088231
0.952173
-0.492476
0.878467
-0.926172
1.656133
-0.104434
0.245014
0.119716
0.284609
-0.055391
-0.564273
-0.054904
-0.026401
-0.290254
-0.096100
-0.351666
0.483882
-0.028192
-0.079491
-0.261022
-0.243308
-0.243479
1.148102
0.111444
-0.516091
0.070321
0.869607
1.153764
0.102178
-0.266452
0.254659
0.402898
0.157498
0.098688
0.357924
0.239978
-0.093596
-0.280218
0.191161
1.406812
-0.049478
-0.247297
-0.271774
-0.152554
-0.066493
-0.218566
-0.661812
-0.048193
0.715275
-0.108965
0.138987
-0.265933
0.085734
-0.109032
-1.038543
0.409819
-0.257591
-0.187514
-0.484655
0.092792
-0.374784
0.135332
-0.286204
-0.132438
0.423874
-0.573065
-0.400517
-0.688758
-0.536082
0.952124
-0.067893
-0.054756
-0.825750
0.417687
-0.222652
0.309641
0.108878
-0.190488
0.529955
-0.214604
0.521557
-0.579285
0.341315
-0.132824
-0.619545
-0.041586
-0.159562
0.607972
-0.576673
0.546562
-0.336937
0.002986
-1.477323
0.670302
-0.170766
0.590467
-0.030170
-0.169706
-0.186997
0.025972
0.390028
0.728889
-0.020552
-0.743441
0.561475
-0.206600
0.831182
-0.160887
0.809122
1.898914
-0.292406
-0.188156
0.408980
-0.053068
-0.200211
0.002585
0.010592
-0.505964
-0.027026
-0.758163
-0.858630
0.050772
1.895653
0.498139
0.227094
-0.694296
0.191595
-0.150111
0.545077
-0.297776
-0.052190
0.271660
0.272662
-0.297702
0.270385
0.036334
0.330523
-0.703837
-0.335450
-0.380331
-0.619848
0.097256
-0.152454
0.737860
0.745401
0.075083
0.947361
-0.534985
-0.001769
0.070431
0.200728
-0.273986
0.053101
-0.338399
-0.200772
0.469871
-0.558930
-0.909730
0.337661
0.199594
0.312015
-0.511358
-0.085631
-0.059291
-0.318259
-0.144445
1.369843
1.250585
-0.220690
-0.970925
0.007172
-0.021803
0.427646
0.125965
-0.326490
-0.310433
-1.131388
0.081027
1.272036
0.098325
0.541608
0.550665
0.231355
-0.011987
-0.703803
-0.167895
0.160657
-0.825277
0.457949
0.204491
0.335530
-0.073667
0.066702
0.551270
-0.025923
-0.380072
0.078742
0.158491
-0.184720
0.266524
-0.287665
0.562791
-0.181881
0.133818
0.171316
0.866556
0.194337
0.322566
-0.119637
-0.049400
0.704516
0.086056
0.926080
1.420982
0.184445
-0.411086
