-0.029083
-0.159577
0.091707
-0.011423
-0.261442
-0.507350
-0.078385
0.225093
0.458200
-0.948932
-0.055789
-1.204823
0.098374
0.484831
-0.302274
-0.388957
-0.383720
0.697138
0.200861
0.235166
-0.301896
-0.164371
-0.429543
-0.368510
-0.005175
-1.021890
-0.687598
-0.120988
-0.879031
0.739566
-0.020720
-0.283690
0.033671
-0.640878
-0.307971
1.194970
0.286747
-0.806573
0.267179
0.220626
-0.436268
0.413101
0.249374
-0.420467
-0.137894
0.080201
-1.486226
-0.594025
-0.039976
0.075247
-0.238748
-0.260800
0.604379
-0.037199
-0.182132
0.511981
-0.104735
-0.320618
-0.557563
0.115522
-1.215401
-0.098743
0.099714
-0.665104
0.258279
-0.535574
-0.961546
0.249128
0.015915
-0.362490
0.044154
-0.286444
-0.301005
-0.078328
-0.023773
0.497191
0.855006
-1.280767
-0.589497
-0.008530
0.124800
0.223784
0.054218
-0.021568
0.020073
-0.269260
-0.353914
1.760528
-0.271456
0.417103
0.060248
-0.269692
0.035781
1.060382
-1.299439
-0.262658
-0.042857
-0.070596
-0.064971
-0.087477
0.125470
0.222100
-0.207687
-0.190294
-0.025663
0.018907
0.062351
-0.757509
0.240261
0.994126
0.034557
0.179289
-0.599255
-0.168806
-0.286198
-0.781861
-0.191731
0.712045
0.550901
-0.007732
-0.067238
0.532912
0.189968
-0.762608
-0.423902
-0.461326
0.323003
-1.026566
0.422698
-0.379987
0.153710
0.527447
-0.772695
0.208685
-0.004123
0.774297
0.264670
-0.140051
0.918280
-0.394486
-0.211926
-0.201558
0.281923
-0.482760
0.150018
-0.646242
0.412536
0.243486
0.458600
0.846421
0.196974
0.098285
0.577097
-0.631528
0.679755
-0.336423
1.279771
0.376557
0.512879
0.183080
-0.726305
-0.044490
0.658997
0.040095
-0.285262
-0.596755
-0.135671
-0.888869
0.468983
0.270364
0.531836
-0.193997
0.130622
-0.038553
-0.433322
0.674205
-0.112569
-0.098509
0.217801
-0.828067
0.389234
-0.519267
-0.240686
-0.241681
0.519687
-0.322109
-0.282060
0.452781
1.359784
-0.829299
-0.121111
0.164631
0.856234
0.017990
0.172115
0.062375
-0.091877
0.195487
1.356856
-0.260340
0.406857
-0.322624
-0.140029
-0.479705
0.784386
0.064821
-0.004585
1.047515
0.250401
-0.109747
-0.074972
-0.022547
0.225099
0.268671
-0.220060
-0.222750
-0.205986
-0.207932
-0.528176
-0.099213
-0.777125
0.563570
0.469254
-0.638724
-1.045779
0.621213
0.235209
0.676359
-0.759429
-0.748473
1.240726
-0.202797
-0.025523
0.410375
0.228403
-0.153944
0.981641
0.255606
-0.441667
-1.318835
0.104261
0.550348
-0.332883
0.014380
-0.020855
0.068456
-0.398998
-0.389051
-0.009606
0.270661
0.280296
0.715159
-0.500560
-0.022967
0.233015
0.379989
-0.581162
-0.369657
-0.242459
0.166517
1.099275
-0.148577
0.299537
-0.482917
-0.260426
0.129455
-0.492210
-0.444219
-0.021201
0.376908
-0.661352
-0.176799
0.032207
-0.074839
0.165405
0.142860
-0.198714
0.081580
0.613178
0.021872
0.233323
-0.044357
1.232253
0.804785
0.773238
-0.276890
0.546924
0.282326
0.479833
0.117632
-0.396308
-0.265208
0.531295
0.320928
0.195526
-0.310951
-0.015753
-0.040695
0.630609
-0.293541
0.544073
0.118988
1.003335
-0.110741
0.201006
-0.443907
-0.295561
-0.139818
-0.236505
0.630845
-1.064628
0.743783
0.213466
0.309305
0.406912
0.043729
0.290471
0.714532
-0.007621
0.251731
-0.373741
-0.107693
-0.350781
-0.149249
0.126007
-0.770380
-0.210399
-0.239703
0.436532
-0.614968
-0.040731
-0.539149
0.170717
0.100269
0.150646
0.250486
0.034576
0.101242
-0.219408
-0.176916
-0.004357
-0.336385
-0.021938
0.039016
-0.500882
-0.463645
-0.974549
0.154924
0.840237
0.234231
-0.141255
0.143779
-0.408307
0.617223
-0.140532
-0.040737
0.552355
-0.012500
-0.077403
0.133713
-0.601087
-0.677383
-0.066860
0.670381
1.181893
0.574154
0.392325
-0.031162
-0.445692
0.190888
0.412655
-0.116023
-0.297841
-0.444580
0.130888
0.303951
-0.097297
0.152139
-0.770802
0.936357
0.486685
-0.310710
0.197076
-0.090202
-0.295112
0.613477
0.430032
0.883061
0.313272
0.634658
0.195626
-0.028865
0.338323
0.954789
-0.558974
-0.078169
0.266760
0.437771
-0.211535
0.443463
0.027099
-0.180451
0.232922
-0.595613
-0.900273
0.253871
1.014896
0.485027
0.114839
0.309531
-0.041082
0.446047
0.082071
-0.710627
0.589416
0.116901
0.073417
-1.063584
0.171599
0.208658
0.176201
0.537375
1.054907
-0.291959
0.118799
-0.136399
0.416928
-0.350296
-0.247611
-0.531768
0.908895
-0.768818
-0.082919
-0.077160
0.142168
-0.112441
-0.134393
-0.227703
-0.356381
-0.168274
-0.184973
-0.058321
1.048274
1.049220
-0.240724
-0.341878
0.757309
-0.119535
-0.226455
-0.211510
-0.766677
-0.225235
0.806733
0.114406
0.947740
-0.223014
-0.231356
-0.010687
0.352638
0.140353
-0.406061
-0.150084
0.085806
0.135573
0.734468
0.745676
0.408407
0.182612
-0.009557
-0.364281
0.021665
0.263409
1.016296
0.535633
-0.267028
0.519188
0.810273
-0.783915
-1.026182
-0.855034
-0.191730
-0.004634
-0.685052
-0.689654
0.112030
0.197647
-0.212099
0.161279
0.739668
0.507932
-0.163187
0.317659
-0.085537
-0.064356
0.371149
0.613915
-1.661232
-0.093375
-0.803282
0.045432
