-0.562663
1.413669
0.531891
0.575198
2.521241
-0.582969
-0.995606
1.796904
0.634479
0.399715
1.370037
-0.715987
-0.798495
0.653300
-0.753833
-0.323668
-0.630090
0.211238
-0.435641
-0.584226
0.517948
-1.078213
0.135714
-0.023806
-0.141234
0.372753
-0.876946
0.890042
-0.558525
-0.765129
0.262442
-1.380202
1.346721
-0.728238
-0.317805
-0.589628
-0.217487
-1.109522
-1.215581
0.164123
0.170105
0.023437
-0.035515
0.592945
-0.007823
-0.229748
-0.030182
-0.657017
0.376624
0.830974
-0.495882
-1.307928
-0.603842
1.032761
-0.101207
-0.101827
0.789131
-1.264246
-1.389180
-0.743232
-0.929773
2.974964
0.450931
0.751202
-0.689841
-0.277844
-1.129555
0.082558
-0.125549
-0.185168
0.704137
-0.376929
-0.132948
0.076277
1.037815
-0.290479
0.121327
-1.560798
-0.200204
0.123302
-0.295932
1.562960
0.169808
0.494500
-0.496739
0.005639
0.110944
0.058734
-0.779278
-0.769152
-0.324096
-0.091805
-0.395148
-1.329306
-1.952484
-0.223958
-0.233170
0.320754
0.113083
-0.258617
1.050719
-0.200953
-0.185862
-0.021450
1.259943
-0.475834
-0.468593
0.478551
-0.273901
-1.419446
-0.017543
0.591531
0.112790
0.506959
-1.076209
0.147655
2.525601
1.130840
-1.504905
0.890107
0.209147
0.084469
0.339882
0.719745
1.361804
-0.583429
0.859308
-0.193464
-0.529993
0.352615
-0.101444
-0.655969
-0.842858
-0.341677
0.568283
0.764137
-0.206967
1.527004
1.270086
-0.544782
-0.165425
-0.196135
-0.676554
0.754563
1.029242
0.966625
0.043448
1.388657
-0.014041
0.904621
0.387803
0.952538
-1.228267
-0.895423
-0.811580
0.208672
0.345344
-0.298430
-0.032587
-0.308200
0.663607
-0.175959
-0.268665
0.458480
-0.148634
1.599857
0.048625
-0.846976
-1.193638
-0.229911
-0.432069
1.266568
0.494710
1.200666
2.705579
0.473854
0.011184
1.621887
-0.240065
-0.564635
0.212963
-0.304624
0.474072
-0.093074
-1.136328
-0.118677
-0.495044
-0.226842
-1.393891
-1.682239
-0.037084
-0.120187
-0.898470
-0.225602
-0.153607
0.569472
-0.107902
0.129278
-1.345739
-0.281201
-0.125843
0.952559
-1.023915
2.587256
0.127720
0.658572
1.551214
-0.729309
-0.563337
1.149279
-0.341840
-0.198946
-0.195915
2.823524
0.480700
0.496142
-0.572255
0.560808
0.452793
-0.459851
0.484963
0.570041
1.049286
0.506533
0.764348
1.515075
0.417652
0.667578
-0.960442
-0.239262
-1.207096
0.043337
-0.209178
-0.108891
0.132940
0.415192
0.472685
-0.230617
-0.361881
-0.978407
-0.264751
-0.329525
-0.236771
0.078728
1.947721
1.375574
-1.212089
-0.459030
-0.582486
1.045258
0.594264
-0.726663
-1.714842
-0.412209
1.845386
0.357703
0.274551
-0.551620
-0.278930
0.217414
-0.658745
-0.069273
0.019415
0.356609
-0.019935
-0.216306
-0.834708
-0.488119
0.900971
-0.944507
0.485798
-0.534607
-0.057955
-0.097966
0.124348
0.019961
-0.239406
0.807839
0.430042
-0.877816
-0.745282
-0.122320
0.113690
-0.516638
-0.443693
-0.444766
0.015589
-0.032564
1.597926
0.385180
-0.238677
-0.586152
-0.677050
-0.424944
2.151737
-0.683910
0.092090
-0.602714
-0.082038
-0.274752
-0.346489
-0.199971
-0.086640
0.736466
-0.063444
0.497619
-0.619849
0.025870
0.325420
0.223583
-2.121597
-0.262494
0.981420
1.415334
-0.341190
-0.653922
-0.109502
1.476121
1.018258
0.457316
-0.666386
-0.112719
0.093283
-1.117272
-0.628665
0.261214
-0.859924
-0.174330
-1.102013
0.101779
1.356229
-0.178447
0.138393
0.489431
0.039541
0.054924
0.307837
-0.339868
0.740004
-0.400150
0.249298
0.073009
0.278509
0.251298
-0.315294
1.187381
0.097864
1.195128
-1.013593
0.634425
0.863379
0.554635
-1.813920
-0.551245
-0.042200
-0.776434
-0.027601
-0.871318
0.029677
-0.177528
-0.127657
0.373033
-0.115209
-0.576710
-1.558668
-0.195197
-0.149848
0.432386
-0.340633
-0.539055
0.157822
-0.361050
0.000013
-1.501719
0.350725
0.599897
-0.734749
-1.126770
-0.721310
-0.697362
-0.081218
-0.242379
-0.275632
0.627144
-0.317027
-0.372781
-0.585306
-0.650845
-0.782155
0.022557
1.220475
-0.255439
2.173019
-1.508885
0.465497
1.028664
1.007007
0.358857
-0.061818
-0.604674
-0.340179
0.491138
0.023251
0.135111
-0.169701
0.454287
-1.105882
-0.185817
-0.688240
0.161943
0.429537
0.139681
-1.775699
0.442720
0.041866
-0.353791
-0.361338
-1.415269
0.316021
0.444922
-0.342109
-0.425806
-0.003549
-0.665710
0.205725
-1.464830
0.840067
-0.584284
-1.256311
-0.004321
-1.023461
-1.279913
2.694255
0.095774
0.238609
-0.718510
0.287814
-0.098492
-0.091326
0.909754
-0.400144
-0.856986
-0.455035
-0.025719
-1.090446
0.495186
0.075075
-0.219928
-0.593873
-0.816165
-0.414478
-0.849447
0.414187
-1.572286
-0.880820
0.151837
0.517129
-0.571130
-1.314850
-0.108753
0.633865
-0.131200
-0.088815
-0.488046
-0.623754
-0.032708
0.644859
1.546686
-0.492507
-0.645692
0.194637
-0.576099
0.070335
-0.188523
0.009258
-1.271392
0.089588
-2.175428
0.064735
0.568765
-0.197783
-0.768070
-1.690698
-0.205969
1.427130
1.027214
1.042378
1.153344
0.109974
-1.139805
1.144305
0.392838
-0.000696
0.263657
-1.294333
-0.572541
-2.278794
-0.667366
-1.462023
2.564343
