0.038269
0.222042
-0.188629
-0.216538
-0.224210
-0.398784
-0.089141
-0.056092
0.033831
-0.385245
1.227406
-0.498349
-1.070039
0.276292
-0.241942
-0.091023
0.310981
-0.088863
-0.027782
-0.060663
0.087420
-1.165532
0.108841
0.297097
-0.081735
-0.017122
0.977534
0.291366
0.345877
-0.901317
0.349690
0.119160
0.694909
-0.248180
-0.175072
-0.004636
-0.029253
0.190386
0.403177
-0.126315
0.744440
0.369734
0.508558
-0.289648
-0.094150
-0.194990
-0.483291
0.108611
-0.339688
-0.087566
0.443954
-0.610731
0.385484
0.553427
-0.050628
0.551681
-0.013584
0.414674
1.343544
0.291327
0.539119
0.763536
0.540995
0.328328
-0.247727
-0.293031
-0.347744
0.269943
0.151769
0.489173
0.290419
-0.483356
-0.347259
0.661574
0.121820
0.562982
0.064056
0.440142
-0.171469
0.740212
0.619339
-0.381351
0.013401
0.073061
-0.235830
-0.058338
0.723059
0.716371
-0.431347
-0.086177
-0.187251
-0.803014
0.191114
0.175869
0.792572
0.452285
-0.194659
0.212007
-0.213124
0.016586
0.150932
-0.143976
0.361579
0.285276
-0.071370
-0.175073
0.111248
0.410373
0.189775
0.350520
-0.143125
0.177365
-0.578863
0.121130
-0.280267
0.462399
-0.256816
-1.069183
-0.030094
-0.108482
-0.153819
-0.394034
-0.331359
0.321671
0.092254
0.034869
-0.323595
-0.494957
-0.137869
-0.024487
-0.606554
-0.338061
0.623665
-0.600468
-1.084470
0.460012
0.777194
0.517579
0.571298
-0.236295
-0.393363
-0.025800
-0.346452
0.184637
-0.132131
-0.264043
-0.476644
0.713063
-0.092635
-0.240235
0.163737
-0.456181
0.224114
-0.398253
-0.454275
0.412355
0.429792
-0.629417
-0.660915
-0.203739
0.093707
0.052022
-0.005221
-0.370490
-0.460563
-0.032159
0.565911
-0.520268
-0.660322
-0.011597
0.155138
0.009295
1.022697
0.006388
0.228360
-0.040524
-0.047853
0.317704
-0.066669
-0.104414
0.294596
-0.289884
-0.049475
-0.109673
0.021714
-0.177722
-0.375739
0.182130
0.290864
0.248761
0.520897
1.215857
-0.423950
-0.057042
0.045576
-0.359873
-0.072726
0.158047
0.233521
-0.096119
-0.314326
0.462907
0.216380
0.182726
0.370600
0.491987
0.041602
0.092953
-0.225098
-0.004413
-0.018773
0.022170
-0.457388
0.868420
-0.248335
-0.263691
0.002902
-0.216096
-0.101585
-0.002036
-0.120579
-1.014489
-0.229795
0.496812
-0.182824
-0.067502
0.098143
0.559308
0.129239
-0.098690
-0.122704
-0.077477
-0.130011
-0.050502
0.960786
-0.448935
0.195853
-0.212490
-0.385476
-0.090197
0.223951
0.477157
0.249078
-0.171140
1.158220
0.231616
-1.078726
-0.453911
0.187600
0.147646
1.030519
-0.480570
0.083317
0.024081
0.645301
0.040219
-0.226960
0.648528
0.026863
0.198071
0.022910
-0.651730
0.106976
0.042020
0.590222
-0.767104
-0.047995
0.251319
-0.100149
-0.010458
-0.319163
0.004670
-0.055535
-0.054693
-0.156266
0.008946
0.338029
0.234750
-0.090628
-0.923678
0.491407
-0.357870
-0.050739
0.037531
0.038699
0.232926
0.070123
0.414907
0.633321
0.729996
0.129215
0.297112
-0.021082
0.022520
-0.309134
-0.428914
0.815551
0.124775
-0.170680
0.253032
0.159001
0.211153
0.161025
0.296550
0.229879
-0.256511
0.241601
0.099424
-0.252334
-0.282136
0.383895
0.076674
0.045547
-0.286570
0.043299
-1.254257
0.012519
0.246561
-0.271128
0.179963
-0.062550
-0.136328
0.346698
-0.146089
0.238559
-0.774121
-0.179902
-0.191790
0.061118
-0.141541
-0.189048
-0.060960
0.129377
-0.327962
0.300359
0.538678
0.090530
-0.863307
0.685572
-0.041956
-0.121676
-0.049353
0.090014
-0.243355
-0.061929
-0.111899
-0.055730
0.060618
-0.317559
-0.060203
0.323785
0.442513
-0.087904
0.430579
-0.239132
-0.416274
0.302191
0.440384
-0.059309
0.043202
0.240988
0.445002
-0.151175
0.041784
0.020663
-0.096222
-1.213781
0.066263
0.382406
0.221022
-0.915150
0.246210
0.276555
0.297577
-0.199430
0.005786
0.152048
0.002843
-0.205934
-0.873905
0.141865
-0.163721
-0.144414
0.712951
0.003312
-2.081558
0.278375
0.020716
0.332456
0.276453
0.052174
0.152268
-0.565912
-0.000531
-0.806677
0.023556
-0.251421
-0.083705
-0.077193
0.079712
-0.319669
0.747717
0.091170
-0.062522
0.196239
0.206843
-0.317918
-0.153041
0.208897
0.530834
0.278703
0.631148
0.016826
-0.208824
0.611893
-0.063091
0.294198
0.392602
0.090237
-0.176265
-0.916487
0.066810
0.206798
0.056564
-0.234796
0.422497
0.078790
0.203392
-0.075287
0.459856
-0.701533
-0.455791
-0.056657
-0.733044
-0.060709
-0.919875
0.157390
-0.107935
0.079921
-0.411015
-0.109644
0.248886
0.057870
0.177099
-0.053055
-0.135376
-0.290735
0.383181
-0.020048
0.264130
-1.715382
-1.234971
-0.082535
-0.074249
0.259128
1.865107
0.009849
0.140418
0.089611
-0.337431
0.532529
0.570069
-0.032750
-0.848074
0.244359
-0.425998
0.007983
0.188978
0.033384
-0.033245
-0.159695
0.228555
0.094765
0.436370
-0.794584
0.050699
-0.097695
-0.527359
-0.381271
-0.277335
-0.350782
-0.299260
-1.666508
0.353165
-0.681978
0.082492
0.647515
0.014549
-0.740642
-0.088584
-0.022605
0.103973
-0.135758
0.149775
0.383083
0.376605
-0.126785
-0.687192
-0.711629
0.138477
