-0.353663
0.340822
-0.372698
0.832536
0.453388
-0.365091
-0.806096
-0.054755
-0.152677
-0.950793
-0.545423
1.864840
-0.008588
0.292885
0.190441
-0.642745
-0.405198
0.333000
-0.003189
-0.390335
-0.746036
0.631314
0.196864
-0.692264
-0.017114
-0.483469
-0.921988
0.149533
-2.739269
0.724725
-0.177365
0.663070
-0.721531
-0.388824
-0.427927
0.736453
0.026420
-1.569113
-1.231295
-0.054747
-1.001069
1.513426
-1.457032
-1.416828
0.474043
-0.179214
-0.275855
-1.078260
-0.418213
-0.633239
-2.353601
-0.042848
-1.276551
-0.103957
0.257337
0.152038
-0.173641
-0.868281
-1.828550
-0.236685
-1.510202
0.299666
-0.664834
-0.068853
0.150607
-0.955144
-0.208397
-0.336595
-0.375680
-0.458235
-0.238241
0.213671
-0.183020
-0.384714
0.303139
0.165736
0.156913
-2.447315
-0.143015
-0.131321
-0.179204
0.252983
-0.449031
-1.310660
-0.300584
-0.122716
-0.910389
1.774679
0.676904
1.618169
0.124434
0.216137
0.131747
-1.106396
-1.721357
-0.646748
-0.228996
0.025324
-0.179557
0.417829
-0.513560
0.581190
-1.382726
-0.092409
0.103801
-0.022565
0.420613
-0.113093
-0.551560
0.772240
0.215418
0.254697
-0.747580
-0.843794
-0.141104
-0.351488
0.184741
1.182415
0.231262
0.193698
0.132201
0.274547
0.279147
-0.955883
0.136353
-0.407414
0.635947
2.000530
0.181443
0.390389
-0.368673
-0.214289
-0.807266
0.144959
0.686262
-1.266328
-0.070536
-0.145206
1.233687
-0.364881
1.093081
-0.323095
0.647657
0.125564
0.336491
0.109194
0.812647
-1.066113
0.103484
0.268807
-0.672380
0.186183
0.822583
0.897204
0.479607
-0.762307
1.202851
0.036195
0.701777
-0.024065
-0.413201
-0.293342
1.398819
1.206394
0.351322
0.451915
-0.884420
2.264446
1.153869
0.938252
0.240866
0.227639
-0.553825
0.457132
-0.170412
0.284602
-0.339317
0.097755
0.386272
-0.240913
0.662843
-0.168110
-0.376703
-0.218254
0.102700
0.015673
0.741066
0.078249
1.250240
-1.052636
-0.462171
-0.872005
0.447848
0.630042
-0.226750
-0.468751
0.001273
0.033696
0.972071
-0.217140
0.577107
-0.165089
-0.158491
-0.136835
-0.364653
0.257174
-0.054010
0.815454
2.094141
-0.315217
-0.201081
-0.279980
-0.016016
-1.604072
-0.280073
0.065996
0.070061
-0.084334
-0.274598
-0.008247
-1.098486
0.649317
-0.337453
-0.288755
-0.117286
0.256008
0.241535
0.123645
-0.552649
-1.040901
1.621424
-0.951921
-0.025456
0.642147
0.102311
-0.115394
0.867275
0.296438
0.060485
-0.445754
0.541845
0.724075
-0.166619
0.188488
-0.647948
-0.458645
0.620636
0.524478
0.126970
-0.248209
0.357763
1.696561
-0.711614
0.016774
0.053261
0.366758
-0.429919
-0.335102
0.041695
-0.525274
0.645512
0.511757
0.216161
-0.436401
-1.069981
0.367963
-0.279163
0.051401
0.159184
1.346927
-0.376591
-0.229972
0.009140
-0.078642
0.195393
0.435810
-0.457388
-0.421441
-0.331758
1.773967
0.046773
-0.026782
1.079723
0.824524
-0.609133
-0.264106
-0.229493
-0.141534
-0.344874
-0.837539
-1.304347
-0.173319
0.131834
1.466883
1.142600
-0.171398
-0.779110
-0.071783
0.326951
-1.076050
0.128453
-0.268831
0.224635
-1.094420
0.269248
0.332787
-0.619803
-0.758120
0.110611
1.068634
0.499360
0.833518
0.163959
0.465640
-1.190086
0.018178
-0.031102
0.265106
0.252524
-0.449806
-0.084826
-0.264422
-0.013104
0.950844
-0.639318
-0.038649
-0.186703
1.480088
-0.459521
0.613374
-0.572073
-0.860691
-0.044782
0.648506
0.089708
0.233782
-0.143688
2.441337
-1.879147
0.126582
0.474612
-0.360517
-0.180606
0.067092
0.327802
-0.609043
-0.245346
-0.565784
1.345232
0.316947
-1.000505
0.426421
-0.406613
-0.124236
0.428306
0.118315
-0.271268
-0.363601
0.067698
0.215015
-0.981905
-0.641438
0.649992
1.178946
1.986750
1.010483
-0.829499
0.841966
-0.419161
-0.848345
0.998057
-0.609194
-0.136226
-0.323385
0.265263
-0.108623
0.670751
0.202669
-0.023298
0.273330
0.590148
-0.114875
0.096945
0.411191
0.126137
2.303109
1.486613
0.264136
-0.645861
1.152115
-0.169387
-0.245019
1.102861
1.300336
-0.060554
0.377872
0.190509
-0.019015
-0.256526
1.036963
0.767403
-0.572888
-0.399574
0.085869
-0.250189
0.346795
0.000206
1.002056
-0.015803
-0.097956
0.216745
-0.046140
0.077963
-0.090687
0.772280
0.123755
-0.783797
-1.156628
-0.001043
-0.121634
0.907361
0.632895
1.224675
-0.019847
0.124566
-1.593710
-0.674333
-0.417342
-1.380452
-0.667866
0.431543
1.015660
0.292351
0.856185
0.359913
0.356061
-0.819179
-0.478809
-0.087669
-0.319426
-0.233278
-1.840414
2.136988
0.419290
-0.369273
-0.294685
1.236158
-0.099732
-0.470035
-0.468078
1.802805
0.502005
0.712023
-0.085996
1.597942
-1.770905
-0.191386
0.062140
0.201549
0.438674
-0.392228
-0.946145
-0.453781
2.935679
-0.102370
1.483344
-0.047976
0.174206
0.605391
0.102799
0.170290
0.100416
0.802558
0.678865
0.177492
0.574737
0.563679
0.476940
-0.327884
-0.435843
0.294714
-0.266401
-0.246328
-0.363426
0.464564
-1.137551
-0.741113
0.308942
0.438454
-1.152960
-0.001511
0.766392
-0.185782
0.000603
0.645974
0.653929
-0.880287
0.064230
0.148488
0.246788
