0.126361
-0.025932
-0.510701
-0.365441
-0.009400
0.332178
0.747457
-1.109799
-0.761121
2.539229
0.193069
0.478386
0.586261
-0.490163
0.871392
1.331246
-0.415323
0.746488
0.395632
1.131185
0.183815
-0.629711
0.659599
0.682909
0.114882
0.586994
-0.492704
-0.110655
0.618081
-0.085661
0.647638
1.372112
0.525972
0.638198
1.022834
1.819397
0.469520
0.898426
1.467920
0.001483
-0.520387
1.476622
0.369707
-0.587210
-0.037894
-0.198411
1.442895
-0.346915
-0.513597
-0.156768
0.362499
-0.577102
1.599248
-0.316885
-0.025370
-0.483774
-0.054079
0.090175
2.106164
-0.485208
-0.635169
-0.066906
0.857314
0.948700
-0.761851
-0.906711
0.638802
-0.435509
-0.435646
0.253536
-0.317559
-0.372768
0.199978
0.568242
-0.150915
0.836000
0.559796
1.068060
0.254306
0.022149
-0.711437
-0.825679
-0.379209
1.634060
0.644748
-0.173492
-0.000195
-0.067691
0.177880
-1.321414
-0.225523
0.487267
-1.071470
-1.507621
1.739509
0.498615
-0.036897
0.387362
-0.048565
0.211101
0.519981
-0.145359
0.208734
-0.557946
-0.362196
-0.425595
-0.091814
-0.288188
-0.517695
-1.068791
-0.204517
1.197533
0.428872
0.828463
-0.802628
0.628843
-0.913705
-1.060610
0.747901
-0.527764
-0.359675
-0.691710
0.567882
-0.612541
-0.826591
-0.123344
-1.656845
-0.608217
-0.175025
-0.212513
0.019181
0.351718
-0.409212
0.763398
-0.769122
-0.976718
1.001696
-0.340495
1.327734
0.233420
-0.400898
-0.069735
-0.764486
1.014786
0.201189
-0.268907
-0.488147
0.569425
0.151369
-0.831732
1.115693
-1.014819
-0.398226
0.381996
-1.008199
0.145591
-1.238512
-0.505687
-0.036716
-0.191041
-0.055908
0.776771
-0.205238
0.656829
-0.105912
-1.290203
1.069540
0.531451
-3.550494
-0.800232
0.005238
-0.728431
-0.232810
-0.530935
-1.537106
-0.027147
-0.004287
-0.802803
0.059248
1.053750
0.710346
-0.559941
0.747644
-0.228399
0.555849
-0.040484
-0.296748
-1.212774
1.411410
0.446650
0.211288
0.834321
-1.066805
-0.233238
0.372864
0.134957
-0.424430
0.701306
-0.093365
-0.190723
0.369813
-0.222124
-0.135146
-1.039998
0.210209
0.882151
1.264499
-1.025445
0.518913
0.448110
-0.257359
-0.217083
-0.078641
-0.075919
-0.570690
-0.044321
0.206543
0.175185
0.196396
0.227870
-0.012035
-1.012202
-1.020043
-0.785115
0.243756
0.529153
-0.191408
-0.123460
0.445017
1.115429
0.696235
0.722306
-0.360337
0.216691
0.354133
-1.638046
-0.246083
-0.273975
0.159828
0.150006
-0.502091
0.049724
1.219916
-0.211179
-1.162482
0.198727
-0.405182
-0.453225
0.662163
-0.816024
-0.514618
0.544458
0.475818
-0.072360
0.773525
0.606715
-0.372801
-0.594500
-0.383676
-0.172658
-0.730316
0.077846
-1.129162
-0.984566
0.190015
-0.311017
0.579744
1.157615
0.137481
1.270397
-1.142637
-0.149851
-0.127095
-0.006414
-0.140495
-0.574869
0.549281
-0.589977
-0.841843
-0.670714
1.090774
-0.144338
0.338029
-0.767038
0.036246
-0.264829
0.061781
-0.540377
1.226723
-0.087880
1.056612
0.355295
-0.580591
0.465646
-1.448167
0.100674
0.618900
0.496094
-0.572935
0.087631
0.068719
0.012940
-0.228324
0.119164
0.744435
-0.044680
0.050926
0.544440
-0.338947
0.683434
1.982826
0.073886
-0.993433
-0.848371
-0.237804
-0.159171
0.071662
0.400686
-1.375312
0.008825
0.067741
-0.340454
-0.244940
0.056181
0.958664
0.789137
0.974818
0.147217
0.898806
0.166874
-0.148638
1.046799
0.188670
0.334819
0.202630
0.522963
2.155157
-1.874555
-0.242401
-0.341857
-0.695532
-0.407146
0.185659
-0.348274
-0.082543
2.278786
0.182570
0.523933
-0.179795
-0.830392
-0.426321
0.713152
-0.832500
0.195638
-0.146214
0.212851
-1.573746
-0.189610
-0.375401
0.557270
0.285469
0.821445
-0.943905
-0.234641
0.249345
0.507061
0.234526
-0.313649
-0.317450
0.661683
-0.998282
0.672957
-0.036949
0.310847
0.161138
0.418314
-1.613292
-0.026881
-0.039570
-0.908738
0.779178
-0.365178
-0.244993
0.079211
0.488488
-1.219175
1.131049
-0.911957
0.222702
-0.409242
0.299080
-0.047225
-1.308666
-0.572990
-1.039712
1.091251
-0.243021
-0.342339
-0.247406
-0.018248
0.169126
0.154541
1.080195
0.236887
0.465023
0.920840
-0.457687
0.323668
-0.778163
-0.810172
0.838847
0.030874
-1.104392
0.650528
-0.951368
0.519227
0.180230
0.478661
-0.363168
0.344603
-1.279780
-0.852755
-1.185583
-0.217329
0.014008
0.669556
-0.955304
-0.293315
2.161158
0.820799
-0.136275
0.024192
-1.023626
0.048958
0.008471
-0.882072
-0.017993
-0.364049
-0.079106
2.324877
-0.184358
1.836005
1.511789
-0.174156
-1.237908
0.306305
-0.043465
-0.129064
0.716351
-0.930174
-0.858331
0.419244
-1.727621
0.486361
1.567878
0.421052
0.121332
0.427879
0.323888
-0.592079
-0.090080
-0.080424
-0.333301
-0.225452
-1.573878
-1.315300
-0.156389
0.214201
-0.407080
-0.087691
-0.194650
-0.513969
-0.902232
1.316751
0.410206
0.020158
-1.189934
0.412873
0.795004
0.326870
0.534409
-0.629273
0.228568
-0.340509
1.351364
0.276342
-0.095995
-0.708027
-0.020604
0.562423
-0.696409
-0.536645
-0.215299
-0.355633
0.615240
-1.581136
2.031715
-0.617324
0.606507
-0.607200
