0.008451
0.710484
-0.029735
-0.138112
1.037608
0.314523
0.006609
0.277044
-0.380776
-0.953508
-0.830495
-0.468414
-0.111302
-0.547283
0.516886
-0.896310
0.419268
0.064348
-0.017985
-0.157354
0.217054
0.350278
0.128497
-0.284248
-0.086484
-2.277947
-1.645094
-0.314896
0.724003
0.038682
0.406396
-0.786072
0.404452
-0.366134
-0.745517
-0.376404
-0.020270
-1.329532
1.197341
0.139546
-0.832506
0.204755
-0.183014
-0.239738
-0.161395
0.066247
0.038200
0.177971
-0.295990
-0.511907
0.778410
-0.284211
1.452665
-0.331973
-0.154914
-0.494602
0.245116
-0.940510
-1.646532
-0.158356
-1.506654
0.946782
-1.434469
0.919576
0.657304
-1.095273
-0.242893
0.520216
-1.135846
-0.062856
0.025267
1.143210
0.245932
-0.173769
0.079799
0.854813
0.490222
-0.200247
-0.372211
-0.459529
-0.211533
0.242155
0.607893
-0.253159
-0.339949
-0.089605
-0.287557
-0.429160
-0.441775
-0.352000
0.090575
0.041444
0.963521
-0.489705
-1.413678
0.285555
-0.159156
-0.071269
-0.351284
-0.112436
0.487545
-0.290945
0.479941
-0.487616
0.356231
0.058215
-0.082609
0.381729
-0.461711
-1.559875
0.078767
-0.698879
-0.583476
1.169359
0.776511
0.079068
0.552526
0.983053
-0.553653
0.056975
-0.182776
0.181600
-0.013534
0.793128
0.688778
0.288849
0.413593
-1.145583
0.236254
0.316524
0.286987
0.703793
-1.053539
0.339503
0.997716
-0.479139
0.387137
-0.343940
1.502831
-0.276079
-0.345367
-0.329470
0.622757
0.017414
0.206409
0.298113
0.033737
0.108413
0.914491
-0.091237
-0.608248
-0.003297
-0.775013
-0.638614
-0.491642
-0.020203
-1.207496
0.360444
0.761366
0.498326
-0.295303
-0.135660
0.184812
1.175111
0.699013
1.265723
0.153218
-0.271353
1.012323
-0.151992
0.604106
0.068154
-0.372224
0.523521
0.950364
0.586442
-0.494560
1.047310
-0.116515
-0.036198
0.775993
-0.512730
0.423364
-0.153578
-0.142885
-0.194264
-0.124604
0.082751
-0.009680
0.671231
-0.924220
-0.303621
-0.663671
-0.138672
-0.164952
-0.389989
0.336198
0.369182
-0.232985
-0.187704
-0.352890
-0.467111
-0.208273
0.171236
0.740504
-0.624766
0.188758
-1.297043
0.675949
0.092352
-0.108767
-0.391503
0.460714
-0.158922
0.097481
0.324375
-0.033134
-0.141162
0.279016
-0.418239
1.261653
1.230420
0.150334
0.030820
0.223178
0.946284
-0.299393
0.399411
-0.075817
0.319000
0.906306
0.468688
-0.197842
0.654600
-0.288896
0.560779
-0.428914
0.306585
-0.013247
0.166632
-0.616662
-0.760233
-0.297286
0.037687
-0.480354
-0.004160
-0.080090
-0.278209
0.786481
-0.063950
-0.194401
1.239376
0.091424
-0.159531
0.737119
-0.769094
0.347641
-1.304633
-0.233809
0.133779
-0.267527
0.820957
0.718712
-0.178070
-0.114349
0.055020
-0.387289
0.758413
0.558877
0.767817
0.186668
-0.109738
-0.082941
-0.172587
-0.654310
0.045655
-0.500394
-0.684114
1.950310
0.388093
-0.030187
0.145788
1.567322
-0.314396
1.009017
-0.925833
1.143081
-0.586386
1.371199
0.005621
-0.326678
-0.173985
0.209488
-0.245173
0.229710
-0.080523
-1.247168
-0.570420
0.599381
-0.243290
0.372217
0.026277
0.505324
0.474116
-0.421364
0.567292
0.883114
-0.161106
0.085307
0.256709
-0.232346
-0.000871
0.523577
0.216356
-0.023648
0.048250
0.334409
0.248164
0.926025
0.119715
-0.428829
-0.282916
-0.524927
0.465710
0.490277
0.254145
0.251162
0.258446
-0.144428
0.331001
-0.469514
-0.203424
0.512147
0.257173
-0.136680
0.195024
-0.835512
0.194957
-0.132242
-0.168638
0.045174
-0.083009
-0.068633
-0.054993
-0.544074
-0.977789
-0.086095
0.252056
-0.275796
0.978507
-0.336414
-0.814592
0.455012
-0.959979
-0.179524
-0.112435
-2.339333
-0.336569
-0.318508
0.555582
0.776425
0.228815
-0.512034
-0.065225
-0.269574
-0.013394
0.435806
-0.212542
0.054308
-0.162502
0.162616
-0.122360
-0.330470
-0.223002
0.100276
-0.210867
-0.668760
-0.165121
-0.456685
0.382737
0.635435
-0.023452
-0.237060
0.054486
0.193170
1.390067
0.332050
-0.264915
-0.187486
0.247432
0.515509
-0.402777
1.409932
-0.354640
1.120568
0.835111
-0.107928
0.300356
-0.305117
-0.130505
-0.235230
-0.304910
0.274589
-0.372929
-0.524431
-0.928273
1.267552
0.198069
-0.231316
-1.079831
0.799784
-0.086375
-0.821701
0.008914
-0.262112
0.229300
0.202627
-1.365832
-0.446940
0.191684
0.767268
-0.697821
-0.837583
0.060678
-0.116305
-1.343051
0.341473
0.424627
-0.569455
-0.854731
-0.682288
-0.461544
-0.348679
1.154210
-0.393051
-0.195913
-0.268324
0.399147
-0.239705
-1.271698
-0.446468
-0.662781
-0.700582
-0.405036
0.409674
-0.285595
-0.405887
-0.118972
0.055488
-0.978868
0.862841
0.237152
0.183411
-0.618332
0.107472
-0.325176
0.310134
-0.416200
-0.452009
-0.162931
0.405324
-0.369784
0.753893
0.060354
1.395562
1.097857
0.892175
0.726433
-0.295072
0.173751
-0.161004
-0.704685
-0.010630
0.683328
0.630493
0.771888
-1.014229
-0.280280
-0.442463
0.111054
-0.052477
-0.673793
0.629565
0.265364
0.169842
-0.053348
-0.252069
0.343940
-0.208112
0.592069
0.551344
-0.641754
-0.129002
0.086617
-0.909115
-0.842237
-0.409498
0.067989
0.635827
0.201259
