-0.835660
2.048020
-1.591565
0.458569
1.536244
-0.462290
-0.784491
-0.160074
-1.600806
-0.446015
0.161044
-0.050382
-0.837475
-1.179740
-0.207147
0.007563
0.536228
0.137404
-0.677111
0.333587
0.819651
0.016384
0.785543
0.469945
-0.157113
-0.653553
-0.153523
0.552180
-1.334958
0.035427
0.093114
-0.194871
1.462394
-1.042026
-0.187278
-0.739499
-0.172943
-0.892500
-1.289773
-0.072400
-0.336001
1.519207
-0.447655
-1.468991
0.292273
-0.258245
1.109701
-0.278726
-1.768277
-1.600927
-0.920010
-0.972405
-0.367620
-0.499431
-0.449072
0.000825
0.573758
-0.774941
-1.125942
-0.162687
-1.089366
3.354515
-0.749265
1.840110
-0.456439
-0.812914
0.148420
0.470946
-1.352897
-0.785746
-0.518009
0.026918
-0.043464
-0.022346
1.013294
0.508433
-0.177072
-2.085032
0.105121
-0.796466
0.304225
-0.388303
0.271494
0.154751
-0.226396
-0.487039
-0.363370
-0.780509
0.712795
-0.271459
-0.336580
0.289262
1.156213
-2.313776
-1.436377
-0.181404
-0.186286
-0.098984
-0.746375
-0.013168
0.386328
-0.589322
0.709943
0.321559
-0.024679
0.122239
-0.154096
0.962833
-0.887700
-1.891612
-0.338265
-0.194589
-1.190281
-0.010496
0.242006
0.893451
1.409879
0.426369
-1.540710
-0.188617
0.170578
-0.629961
0.374184
1.270083
1.642561
-0.047725
0.332918
-0.293818
-0.204629
0.538260
0.849526
-0.443687
-0.517185
0.652212
-0.212125
-0.691853
0.967191
1.176051
1.469535
-0.408139
0.057715
-0.176088
-0.681407
0.671395
0.469487
2.070088
-0.343423
0.314835
0.075500
-1.926623
0.111668
0.471701
-0.191137
0.451959
-0.733081
0.087261
-1.061541
-0.294059
0.423466
-0.424618
0.698816
-0.014961
1.285629
0.658413
0.278379
2.148043
-1.304150
-0.129473
0.175745
0.508736
-0.161238
1.110315
-0.940719
0.931879
2.133846
0.079260
-0.221999
1.959055
-0.053698
0.137960
0.157716
-0.273784
-0.912944
-0.320705
-0.785310
0.577092
-0.023714
0.334619
-0.611117
-0.939365
-0.296472
-1.081837
-1.474661
-0.097985
-0.492526
0.026086
-0.234367
0.520762
-1.689675
-0.436251
0.189262
-0.164504
-0.209292
1.986130
-0.279997
3.085916
1.477135
-1.398167
0.309244
0.164280
-0.576841
-0.329962
0.154906
0.988152
-1.351682
-0.976561
-0.493933
-0.224789
-0.064923
-0.548989
-0.667928
-0.621759
-1.277622
0.017521
2.056110
1.127082
1.725882
0.118692
-0.763885
-0.084240
0.110047
-0.906359
-0.486912
1.195175
0.040265
0.793096
-1.497753
-0.251025
0.580373
-0.358254
1.076009
1.777912
1.672302
0.818721
-1.415788
1.175328
-0.975416
-0.118238
0.055245
-1.157896
0.941715
0.171282
-1.221655
-0.261672
0.494383
-0.861495
0.174897
-0.524834
0.392954
-0.100822
-1.088649
0.585805
-0.000521
0.475212
0.014245
-0.379784
-1.239445
0.866258
0.355249
0.525660
1.471926
-0.694869
-0.001753
-0.304116
-0.061185
0.707974
-0.411100
0.121075
-0.720886
0.391584
-0.197177
0.209856
1.103893
-0.480708
-0.117360
0.058903
1.932826
-0.754497
1.167395
1.413633
-0.112732
0.312510
1.050066
-0.000571
1.270528
-0.222733
-0.850196
-0.124327
0.594694
-0.472393
-0.942058
0.264132
-0.574275
0.547392
0.436826
0.615910
-1.461801
-0.334536
0.624244
0.942839
1.460946
-0.603939
0.741826
0.475610
-1.482004
0.371035
0.045062
0.999479
1.260568
0.914452
-0.165009
-0.239264
0.398970
0.177878
0.020300
0.382727
-0.721381
0.228823
-0.861682
0.252641
-0.761260
-0.359459
0.060659
0.320067
-0.630762
-0.524352
0.173765
-0.410347
0.447318
-0.447294
0.190549
-0.203576
0.906927
-0.088123
-0.010001
-1.472558
0.219768
0.480984
-0.828961
0.690666
0.550615
-0.529431
2.186473
-1.923728
-0.092787
-0.479359
-1.050393
1.723120
0.026275
0.930454
-0.332967
-0.026410
-0.855815
0.080375
-0.455981
0.391118
2.666352
0.202762
-1.058039
-0.790327
-0.712853
-0.567711
0.255249
1.071558
0.295572
-0.074132
1.219764
-0.031704
0.121196
-1.401247
0.608439
-0.117899
-0.020227
0.128109
0.351102
0.555484
0.741916
-0.461122
0.017187
0.536126
-0.595099
-0.234790
1.622141
-2.014791
0.139459
0.957594
1.025912
-0.620647
-0.148070
-0.757678
0.076602
2.133936
0.500342
0.546361
0.370078
-0.541562
-0.610047
-0.643731
-0.807592
-0.436057
1.220172
-0.615776
0.370268
-0.292922
0.397338
-0.207913
-0.967503
-0.880742
-1.003088
0.853151
-0.386699
-0.348212
-0.404260
0.602128
-1.162537
-1.436792
0.555153
-0.703619
-0.749492
-0.117061
-1.078101
0.523982
-1.399220
0.806875
-0.274296
-0.944990
0.023187
-0.295318
0.197583
-1.050931
0.595912
-0.050959
0.045463
-1.079403
-0.455914
0.967411
0.538910
0.000434
-0.698150
-0.878585
-0.394055
-1.268953
-0.536518
-0.574582
0.989222
-0.801650
-0.507616
0.767658
-0.135238
0.165901
1.328325
0.835104
-0.048519
0.412819
-0.357441
0.259704
0.536328
1.480049
0.032157
0.681421
-0.843130
0.009467
0.197682
1.226627
-0.614139
-0.397662
-1.576300
0.203671
0.086025
0.424581
-0.087463
-0.397675
-0.865353
-0.442540
1.308085
-0.178176
0.982628
0.342859
0.794917
-0.743557
0.843822
0.134865
-0.224160
0.128527
-1.052086
-0.056142
-2.104884
-0.802332
0.006752
0.215683
