0.529108
0.181234
0.844586
-0.123147
-0.005596
-0.264763
0.563443
-0.101695
1.434422
1.153991
0.173258
-0.265405
-0.178776
1.521771
-0.195950
-0.275098
0.159627
0.142013
0.517505
0.446172
0.255580
-0.081362
0.247235
-0.062275
0.074478
1.823346
-1.134445
-0.044262
-1.007272
-0.494301
-0.183929
0.312746
0.085249
-0.552886
0.220484
-0.052852
0.028747
0.397737
1.168914
-0.246784
-0.421050
0.342492
0.861905
0.831448
-0.069012
-0.115382
0.432429
0.008620
0.427492
1.595325
-1.088511
-1.359700
0.913560
0.547586
-0.096455
-0.578115
1.094673
0.509330
1.766886
0.138991
-0.913238
0.951070
1.135852
0.182571
-0.531307
-1.663248
-0.336039
-0.708382
0.187378
-0.101779
0.597165
-0.072216
0.026473
-0.121962
-0.587162
-0.321066
0.359183
-0.692920
-0.605280
-0.357271
-0.463926
-0.078485
0.420799
-0.361199
-0.563916
-0.213319
0.305002
0.292424
-1.517523
0.794879
-0.137890
-0.063162
-0.620412
0.552553
1.069539
-0.686190
0.260505
1.029664
0.187548
0.342957
-0.277949
0.342226
-0.946752
-0.684654
1.261905
-0.628680
-0.320057
0.039628
-0.220074
-0.472515
-0.043633
0.538381
-0.136867
-0.001438
-0.266784
0.190227
0.290469
-0.533492
1.548602
0.120854
-0.667267
0.069258
0.122787
0.106880
0.321873
0.069717
-0.547241
0.236550
0.375796
0.122194
-0.092569
0.213575
-0.584861
0.077812
0.072651
0.426192
0.061363
-0.253529
1.484647
-0.005611
-0.237665
-0.201391
-0.198920
-0.084668
0.442708
-0.078632
0.227047
0.718784
-0.040920
0.088028
0.577724
-0.687211
-0.560584
-1.098271
-0.207880
-0.087495
1.623532
1.282944
0.024553
-0.751264
-0.399244
-0.344854
-0.804877
-0.176914
-0.318635
0.193518
0.955288
1.451068
-1.322849
-0.317585
-0.088625
0.139892
0.026461
0.083430
-0.255068
-0.486805
-0.402652
-0.013557
0.661294
-0.113824
0.407149
-1.075959
0.859322
-0.158837
-0.415197
-0.668692
0.243525
-0.698823
0.210396
-0.111157
0.652317
-0.638513
1.305014
0.303750
0.078527
-0.631776
0.037474
-0.122538
0.186435
-0.274247
0.259729
0.000109
0.008556
0.739806
1.343252
0.612881
1.183942
0.342163
0.073399
-0.153825
-0.148223
-0.242122
-0.568391
0.790447
-0.025656
1.205756
-0.172486
0.243508
-0.202559
0.195604
-0.149743
-0.450262
0.765212
0.569618
0.525312
1.072649
-0.943701
1.848471
0.199821
-0.024762
0.267947
1.469432
-0.116975
-0.163871
0.129258
-1.348657
1.869932
0.247902
-0.778230
-0.624327
-0.112362
-0.186043
0.341398
0.848867
-1.297685
0.491058
0.145663
-0.621453
-0.041525
-0.964342
-0.151835
1.225543
0.476207
-0.241205
1.467458
0.631349
-0.635507
-0.303104
-0.240098
0.054888
0.235467
-0.150565
-0.624107
0.649681
-0.308793
0.961524
-0.297842
0.375138
0.164726
0.172453
-0.051547
-0.220997
-0.692719
-0.344216
0.445951
-0.529879
-0.039844
0.663949
0.408838
-0.613307
-0.267903
0.086593
-0.266376
-0.534424
0.619495
0.120278
-1.486164
0.153303
2.099789
0.828869
-0.080963
-0.024312
-1.330364
-0.394468
0.245086
-0.146494
0.824927
-0.464927
-0.901278
0.056205
0.212535
-0.317622
0.114255
-0.145034
-0.184853
-0.833948
-0.230120
-0.430805
0.307601
0.197252
-0.175702
0.296181
0.007943
-0.119967
0.680757
0.476694
-0.062920
0.174084
-0.665135
-0.207160
-0.158446
-0.249682
1.790899
-0.856506
-0.190869
-0.008022
-0.257761
0.342111
-0.231656
0.367702
0.374737
0.205216
0.672814
0.354995
0.306474
-0.250216
0.990928
-0.644577
-1.220278
0.156202
-0.223647
-0.271179
-0.439811
-0.317208
-0.023038
2.302403
-0.076732
-0.065823
-0.193964
0.199816
0.269721
1.303523
-2.288034
1.983607
-0.220102
0.205183
0.918146
0.426473
-0.190358
-0.266226
-0.214867
-0.640445
-0.132642
-0.304464
-0.363378
0.140815
-0.783481
0.309017
-0.190284
0.529634
-0.258469
0.164021
0.069385
-0.134386
0.206325
0.576598
-0.422390
0.217436
0.417388
1.287914
0.007836
-0.409280
0.223969
0.029542
-0.290456
1.175640
-0.137304
-0.232656
1.475807
-0.341455
0.580212
-0.233795
-0.177273
-0.447509
-0.876572
0.305529
-0.346170
0.040046
-0.225556
0.230783
-0.472527
1.913927
-0.354805
0.060354
-0.904234
1.687876
0.192366
0.832799
0.365424
0.516459
0.123594
0.079112
-1.995965
0.739288
-1.351206
-0.028627
0.058608
-0.893197
0.292765
-0.304281
-0.918988
-0.093183
-0.340591
-0.766535
1.222602
1.645531
-0.238207
-0.210201
0.276762
1.154423
0.980536
-0.232916
2.045203
0.093692
0.342444
0.115603
-0.411105
-0.133683
-0.074458
2.078123
-0.799503
-0.329215
0.706662
1.252842
-0.362653
0.292721
-0.519174
-0.123178
0.012959
-1.466964
0.772183
0.709509
0.838692
-0.133992
-0.221461
-0.989742
0.200273
-0.447483
-0.384623
-0.370269
-0.270640
0.177742
-0.221067
-0.369199
-1.338771
-0.848532
0.180209
-0.046869
-0.811821
0.141828
0.630495
-0.940004
-0.278668
-0.183439
0.173099
-0.196937
0.737389
-1.036227
0.409576
1.272511
0.246067
-1.050244
-0.002564
0.481814
0.892556
-0.422649
0.855738
0.357630
-0.078460
-0.564191
0.029790
-0.074759
-0.138924
-0.074791
-0.185788
0.720403
0.253770
0.943704
-0.307930
0.871489
