0.016958
-0.014144
-0.052085
-0.098723
-0.214048
-0.359937
0.027281
0.493201
0.019669
0.401381
0.046827
-0.109397
-0.293183
0.320133
0.429415
0.088510
0.165529
0.638362
0.427123
-0.290462
0.133004
-0.379161
0.650975
-0.030356
0.142873
0.420835
-0.856285
0.289440
0.141091
-0.178015
0.627469
0.313448
0.753956
0.078141
-0.016713
0.407139
0.420971
0.122375
1.156153
0.016957
-0.331831
0.811815
-0.163756
0.056166
-0.284687
-0.099823
0.461122
0.407685
0.010256
0.123232
0.196900
0.034240
1.075927
-0.102414
-0.177248
0.405923
-0.270284
-0.786352
-0.579618
0.187512
-0.733394
0.459060
0.401510
0.906719
0.237350
-1.034927
-0.097654
-0.090312
-0.382368
0.412324
0.078189
-0.459521
0.500777
0.187372
-0.322369
0.529193
0.336712
0.938340
-0.179002
-0.390502
0.316733
0.632892
-0.316186
0.849840
-0.180591
-0.491164
-0.046948
0.150454
-0.272587
-0.628126
-0.101476
-0.133607
-0.300969
-0.817714
-0.088409
0.279230
0.004003
0.448269
-0.115910
-0.126942
0.587163
-0.317877
0.320834
0.110247
0.222091
-0.644439
-0.113567
-0.023303
-0.525378
-0.080059
-0.072096
0.397674
-0.385990
1.508207
-0.690953
0.392296
-0.128141
0.623987
0.015019
-0.147262
-0.267817
-0.421602
0.196789
-0.058600
0.065835
0.031812
0.121331
-0.196936
-0.298267
0.212047
0.034014
0.174000
-0.657660
0.395342
0.716726
-0.465995
0.367270
0.005533
1.084412
-0.726254
-0.403347
-0.122815
-0.078031
0.580085
0.298779
0.469361
0.051308
0.921406
0.159602
-0.202310
0.157760
0.146373
-0.041015
0.025856
-0.637002
-0.379526
-0.054095
-0.548475
-0.175325
0.898769
-0.019657
0.156664
-0.241713
0.619949
0.100052
-0.548579
0.739455
0.082311
-1.389478
-0.711080
0.349807
0.136772
-0.105281
0.244713
-0.067139
-0.162435
-0.315939
0.167911
0.266549
0.285122
0.682341
-0.713432
0.844692
0.060802
0.587773
-0.189671
-0.244245
0.125080
0.625347
0.696973
0.181686
0.588805
-0.257358
-0.086207
-0.065465
-0.135845
-0.309793
0.092752
0.659844
-0.189165
0.095193
-0.262438
0.334155
-0.467419
0.157026
0.405889
0.506913
-0.660814
0.042837
1.061355
-0.034637
-0.317268
0.464943
0.373140
-0.124163
0.276368
0.178596
0.076638
-0.087246
0.259577
-0.141706
0.722403
0.092457
0.330074
0.791418
-0.639914
-0.571043
0.420821
0.359839
0.348753
0.627091
0.664940
-0.192821
0.279300
-0.158614
0.216601
0.162892
0.066917
0.106649
0.456466
-0.364398
0.839770
0.475372
-0.148373
-0.760535
0.298313
-0.571715
-0.241630
0.671383
-0.642139
0.391199
0.221914
0.592832
-0.123745
0.254162
0.231343
0.236474
-0.831214
-0.576624
-0.035996
0.116463
0.010154
0.402235
0.012153
-0.097864
-0.354291
0.391151
0.621177
0.131709
0.903032
-1.082546
-0.209613
-0.228148
0.026924
-0.077279
-0.052079
-0.053442
-0.017198
0.808370
0.331036
-0.335160
-0.130176
0.301089
-0.646900
-0.011423
-0.367404
-0.245392
-0.341464
0.811815
0.286746
0.177816
0.397905
-0.482570
0.034288
-0.755826
-0.080560
0.491143
-0.153557
-0.006109
0.257473
0.440994
-0.334621
0.099546
0.667827
0.495285
0.094082
1.240100
0.089674
-0.715552
-0.204033
0.949247
-0.197556
-0.111846
-0.421720
-0.582188
-0.149449
0.128618
1.059277
-0.437952
0.053655
0.047426
-0.129676
-0.190951
0.034152
0.128166
0.260814
0.248569
0.493943
0.621610
-0.514269
0.022001
0.266187
0.295240
0.290244
0.381508
-0.129855
0.893356
-0.742099
-0.383109
-0.599655
-0.199388
-0.072403
-0.083248
-0.191077
-0.485101
0.632684
0.290361
0.525756
0.428536
0.253507
-0.401946
0.527295
-0.769907
0.478202
-0.183533
-0.331464
-0.918698
-0.415469
-0.409736
0.025949
0.220509
0.352692
-0.861113
0.119862
0.246038
-0.228197
0.183817
0.398675
0.270879
0.226981
-0.114457
0.290637
0.001660
-0.090978
0.150018
0.053268
-1.222542
0.028494
0.100488
0.129172
0.579029
-0.262236
-0.103096
0.141294
-0.027575
0.225445
0.376406
-0.458144
-0.077506
0.256369
-0.299267
-0.096369
-0.133785
0.166948
0.556834
1.335398
-0.354408
0.284045
-0.298513
0.367555
0.238796
-0.060851
0.996515
-0.081923
0.109160
0.106415
-0.029610
0.184332
0.063838
0.071122
0.882201
0.552709
0.129646
0.362908
0.023713
0.132065
-0.178095
-0.582081
-0.089653
0.027492
-0.278396
-0.519145
-0.361001
-0.528284
0.214306
0.314173
0.160685
-0.259351
-0.184018
0.091384
-0.291518
0.017138
0.964732
0.130839
0.125309
-0.094482
-0.395957
0.237329
-0.204120
0.602143
-0.477021
0.562686
0.400825
0.071541
-0.362515
0.016986
-0.424365
-0.041175
0.365358
-0.687167
-0.022826
-0.632745
-0.516238
-0.197815
1.057662
0.338111
0.085019
-0.116101
-0.372897
-0.251826
-0.048195
-0.132976
-0.344261
-0.272921
0.879727
-0.305037
0.223512
0.439082
-0.333339
-0.176486
0.118598
-0.369087
0.257922
0.826494
-0.320028
0.717273
-0.296845
0.150630
-0.069080
0.827880
0.415316
-0.671555
-0.521792
0.534050
0.819095
0.203814
0.393086
0.522108
0.458709
0.317691
0.069260
-0.415929
-0.107207
-0.065907
0.925637
-0.624948
1.415099
-0.834304
0.730001
0.233221
