0.007739
0.577779
0.037175
-0.068666
0.528301
0.029414
-0.259144
0.206656
-0.138007
0.120577
0.933528
-0.459161
-0.772006
0.369574
0.339074
0.170114
0.854856
0.331063
0.140844
-0.145070
0.310344
-1.027024
0.227490
0.204378
0.029097
-0.998790
0.140303
-0.397221
0.029231
-0.224298
0.965670
-0.490935
0.593805
-0.312250
-0.694194
0.068523
0.346692
-0.358759
1.201555
-0.041307
0.122522
0.332169
0.472173
0.142441
-0.062386
-0.064552
-0.704838
0.599433
-0.516557
-0.490115
0.009658
-0.454525
1.165304
0.002506
-0.344451
0.207242
0.084136
-0.461427
0.311547
0.415527
-0.057570
1.722584
-0.093962
0.947283
-0.283707
-0.142308
-0.254383
0.452425
0.097995
0.238913
0.140327
-0.837139
-0.254607
0.108529
0.384240
0.702263
0.749389
-0.342842
-0.406474
-0.142538
-0.265489
-0.031576
0.224759
0.033631
-0.311983
-0.303449
0.099202
-0.517988
0.508805
-0.093034
-0.117689
0.647118
1.026609
-0.658986
-0.041350
0.233494
-0.253704
0.516031
-0.283436
-0.093233
-0.010876
-0.740991
-0.036716
-0.264623
0.736947
0.149964
-0.399163
0.111151
-0.378896
-0.934730
-0.338333
0.598315
-0.569102
0.359799
0.708036
0.007333
0.904607
0.011406
0.073889
0.135742
-0.232150
-0.527936
-0.263870
0.869877
1.214814
0.641655
-0.300913
-0.860757
0.146054
0.343088
0.141352
-0.008965
-0.111572
-0.211033
-0.055164
0.368383
-0.812236
-0.064119
1.659937
0.095454
-0.334614
-0.127951
-0.765276
0.078007
-0.253517
0.817086
-0.450448
1.163835
0.289952
-1.251909
0.075995
-0.015185
-0.031198
0.061631
-0.545124
-0.290333
-0.740234
-0.085389
-0.366744
0.600193
0.017706
0.077684
0.231201
-0.289780
-0.566639
1.899604
0.118165
-0.418059
0.004815
0.283840
0.229356
0.114163
-0.280270
0.815404
2.143464
-0.053351
0.222898
1.810218
0.323060
-0.107374
0.264379
-0.202779
0.065750
-0.059583
-0.283482
-0.209267
-0.149813
0.126254
-0.538086
0.231760
0.184467
0.258658
-1.074593
0.049614
-0.075348
-0.264753
0.277534
-0.210951
-0.033627
-0.115389
0.115478
-0.057322
-0.392743
0.812883
0.103390
-0.498557
0.629025
-0.639367
-0.954452
1.279912
-0.068283
-0.078755
0.045899
0.492962
-0.268936
-0.537632
0.226803
0.032488
0.597277
0.152226
-0.317865
0.010322
-0.070863
1.151492
0.363278
0.696343
-0.043046
1.055568
0.663291
-0.085094
0.370890
-0.698043
-0.050274
-0.307532
0.378986
0.312680
-0.495811
0.145778
0.483066
0.191334
-0.077429
0.281669
-0.440422
0.408981
-0.994592
0.134923
-1.554415
-0.324574
0.434459
-0.306868
0.433601
0.285429
0.451945
-0.211269
0.713743
0.070331
-0.083728
0.166014
-0.402398
-0.216234
0.064895
-0.261868
0.057917
0.838182
0.546473
-0.484994
0.412512
0.013510
0.923362
-0.040659
0.273909
-0.282193
0.275535
-0.233925
-0.181234
0.136711
-0.200099
0.100187
0.574127
-0.570348
0.150437
-0.366713
-0.029144
-0.127380
0.179356
-0.005348
0.215388
-0.129147
1.606613
0.877081
0.463581
-0.324246
0.089961
-0.182831
0.567767
-0.145216
0.064133
-0.245984
0.010385
0.389253
-0.487737
0.224026
0.259878
0.675367
0.161560
0.183145
0.176447
-0.616468
-0.177836
0.420738
-0.259622
-0.859192
0.514859
-0.216784
-0.156686
-0.326156
-0.063467
0.861306
0.403731
0.080560
0.140216
-0.198569
0.416344
-0.452303
0.129465
-0.273506
0.340271
0.034270
0.297754
-0.279818
-0.181375
0.122999
0.595022
-0.666287
0.159869
0.212425
0.291122
-0.707850
0.004837
-0.244153
-0.302353
-0.023377
0.060703
-0.226060
-0.365768
-0.387210
0.143460
1.070109
-0.727904
0.697300
1.120560
0.100128
0.416980
-0.660185
-0.229327
-0.401728
-0.019288
0.876523
-0.024328
0.116808
0.034896
0.253642
-0.651444
-1.015904
-1.008860
0.417820
1.259309
0.331729
-0.635013
0.495206
-1.201261
0.459188
0.062228
0.838125
-0.091595
0.104801
-1.069662
0.082295
0.354654
-0.180357
0.518218
0.054634
-0.060097
-0.401386
-0.231991
-0.506255
-0.044009
-0.508636
0.207118
-0.369056
0.439904
-0.202228
0.567125
-1.508504
0.092019
-0.097497
-0.003213
-0.219086
-0.363915
-0.574452
0.022917
1.905536
0.164002
0.019612
-0.113699
-0.759861
0.237712
0.136319
0.371170
-0.249972
0.654272
-0.230700
-0.680878
-0.007714
0.432500
0.065656
0.461227
-0.200607
-0.216665
0.561920
-0.448966
-0.359727
-0.795686
0.339425
-0.456242
-0.228258
0.459951
-0.307059
-0.201659
-0.218753
-0.985888
0.076745
0.983326
-0.293627
-0.409551
-0.973217
-0.063623
-0.076236
0.218566
-1.828588
-0.140648
0.236414
0.248001
-0.027926
-0.153632
-0.368734
-0.166628
-0.290326
0.612238
0.201934
-0.362977
-0.503844
0.334917
-0.020323
-0.647401
0.640894
0.054129
-0.050723
0.115636
0.093506
-0.287707
1.037560
-0.147163
-0.100317
0.105089
-0.610498
0.577723
1.140449
0.028457
0.349753
-0.092077
-0.470343
-0.033895
0.271414
-0.505190
0.443783
-0.690151
-0.021309
-0.559748
-0.415291
-0.034649
0.169610
-1.895346
0.678658
-0.828837
0.190421
0.147792
0.300504
0.389029
-0.199468
1.055171
-0.574680
-0.084272
0.283306
-0.965737
-0.176238
-0.143381
-0.106600
-0.178076
0.392878
