0.429867
0.542301
-1.278452
-0.103727
0.015420
0.076566
-0.412392
1.328490
-1.084442
-1.266344
0.253486
0.159104
-0.232636
0.212907
0.807428
-1.015914
0.222023
0.859020
0.114244
-0.337501
0.295916
-0.289955
0.553764
-0.488399
-0.032276
0.591146
-0.797307
0.719067
0.487813
0.271129
0.999704
-1.402308
0.483288
-0.780201
-0.865005
0.123067
0.378382
-1.102649
0.155224
0.590007
-0.752064
0.869422
-1.046236
-0.949301
0.018510
0.091317
0.549765
-0.083310
-0.460255
-1.342002
0.769606
0.184757
0.533990
-0.184304
-0.158887
1.051797
0.749725
-1.028871
-1.495522
0.386634
-1.435573
1.951041
1.060059
1.968218
0.406243
-1.137574
0.197454
0.901353
-0.879144
-0.157140
0.298120
-0.183627
0.187488
0.042581
0.000878
0.964258
0.472118
-1.228127
-0.215009
-0.371415
0.718120
0.277689
1.036875
0.287993
-0.397380
0.084083
-0.138939
-0.204285
-0.078555
-0.597349
-0.030763
0.549046
1.100185
-1.842736
-1.913777
0.171745
-0.289621
0.329085
-0.309730
-0.644654
0.976752
-0.393459
0.296686
-0.195687
0.147091
-0.324678
-0.443731
-0.463273
0.226955
-1.087448
-0.165798
0.947829
-1.109782
1.451252
0.033932
-0.274841
0.822368
0.710058
0.191383
-0.143609
0.138258
-1.176195
0.615711
0.741369
0.785786
-0.046017
0.657484
-0.773860
-0.648488
0.284635
0.202134
0.020237
-1.105167
0.884668
0.712623
-0.524039
-1.008906
-0.192431
1.418651
-0.742884
-0.042512
-0.167728
0.281552
1.089312
0.024026
0.121213
-0.403779
0.321351
1.170655
-0.740028
-0.427599
0.260069
-0.977185
-0.091473
-0.690012
-0.482712
-0.567574
-1.473566
0.452738
0.887629
0.769577
-0.090840
0.798337
0.441476
0.330584
1.689572
-0.466094
0.002098
0.826182
-0.606472
0.420704
-0.001444
-0.689877
0.644967
1.874970
-0.383161
-0.130486
2.174600
0.401729
0.305550
0.113055
-0.287692
0.023702
-0.009951
0.159945
-0.810268
0.057251
0.173563
-0.123256
-0.116550
0.102387
0.411879
-0.356345
-0.690638
0.172782
-0.017847
-0.172729
0.244365
0.173391
-0.053122
-0.030488
-0.434854
-1.103301
0.727966
-0.098225
0.817472
1.117857
-1.539660
0.153122
1.473615
-0.093956
-0.272369
0.719319
-0.883961
-0.211586
-0.349729
0.422605
-0.743329
0.559896
0.179167
1.015851
0.519518
-0.771712
1.202105
1.354665
0.492139
-0.481531
0.170398
0.273900
0.450739
1.211648
-0.657330
-0.066825
-0.638394
-0.176856
1.704571
-0.132825
-0.098737
0.241844
0.759645
-0.175054
0.380050
0.210159
-0.144720
-1.237408
-0.120634
-0.253519
0.235676
0.730764
-0.497281
-0.194655
0.688126
-0.205521
-0.241008
-0.037641
-1.103256
0.370990
-1.040594
-0.220387
-0.105558
-0.771687
-0.283589
0.587015
0.068418
-0.328233
-0.665092
0.566918
-0.456633
0.833323
0.753088
-0.663525
-0.637586
0.133484
-0.194539
-0.121822
-0.438494
-0.487205
-0.001327
0.722449
0.894859
0.133464
0.288814
-0.038881
-1.203586
-0.158282
-0.183696
0.130293
-0.984970
0.574101
0.073569
-0.206855
0.468734
-0.409050
-0.259981
0.550078
-0.206500
1.095301
-0.544419
1.018782
-0.151174
0.434608
-0.159755
0.182956
0.890967
0.234002
0.206201
1.322867
0.113856
-1.048446
0.094202
-0.369229
-0.565280
0.045621
-0.253166
-1.917128
-0.190686
0.618858
1.062949
0.797605
0.675432
0.027263
-0.203263
-0.002242
0.382083
-0.074186
0.283148
0.910926
0.139410
0.429408
-0.233342
-0.755416
-0.157281
0.088556
0.324948
0.142207
0.231411
0.941140
0.435036
-0.762494
-0.457455
-0.026479
0.196717
0.003424
-0.383419
-0.390261
0.778831
0.472315
1.058953
-0.212268
1.663603
0.083402
0.190470
0.186014
-0.077898
-0.334302
-0.449431
-1.296170
0.389462
-0.254577
-0.064485
0.340390
0.564079
-1.251486
-0.185881
-0.556957
0.084483
0.470787
1.019079
-0.244781
-0.320063
-0.712474
-0.229000
-0.156222
0.747214
0.062970
-0.041849
-0.756891
-0.100080
0.369476
-0.664981
0.916739
-0.206838
-0.150631
-0.594865
0.152463
1.037008
-0.225655
-0.992024
-0.201561
0.288160
-0.320122
-0.324239
1.154496
-0.105295
1.147154
1.298307
-0.571598
-0.311322
-0.249308
-0.440339
0.255575
0.276571
0.730428
0.400744
0.413330
0.158700
-0.530035
-0.190667
0.327085
-0.225348
1.020205
0.828772
-0.452673
0.074730
-0.226697
-0.049792
-0.094265
-1.773721
0.240532
0.111061
0.744365
-1.153785
-1.557771
-0.106146
-0.249590
-1.667478
0.006804
-0.149716
-1.038979
-0.247031
-0.012863
0.698972
0.056542
-0.376306
-0.118671
-0.030493
-0.578669
0.891159
-0.009019
-2.063196
0.086831
-0.384394
-0.255972
-0.534336
-0.549834
0.501597
0.391399
-0.404115
-0.313185
-0.560103
0.017075
0.026924
-0.780879
-1.225943
0.203748
0.448587
-0.145292
0.139602
-0.182954
-0.468582
-0.218408
-0.023435
0.469474
-0.064688
1.542405
0.767852
1.483088
1.636876
-0.841165
0.610094
-0.397622
-0.377470
-0.464484
1.097277
-0.226693
1.447520
-1.079806
0.662764
-0.453083
0.630576
0.827964
-0.602124
-0.357163
0.638329
1.118106
0.476620
-0.542984
0.346471
0.687727
-0.336068
1.237247
-0.880441
-0.186082
0.043526
-0.984813
-0.592878
-0.471266
-0.982714
0.167089
0.560285
