-0.069945
0.666817
0.090346
0.102690
0.813587
0.739431
-0.066714
-0.453505
-0.455072
0.867300
-0.654517
0.126140
0.421145
-0.256097
-0.375102
0.455047
0.107856
0.788004
0.122164
0.581925
0.145975
0.582727
0.081685
-0.174515
0.082353
-0.108819
-0.877035
0.005323
-1.150199
-0.013143
0.160358
0.311624
0.095922
0.092073
0.817466
0.772809
-0.005723
-0.347830
0.286913
-0.004614
-0.932148
0.263412
0.029347
0.546805
-0.343109
0.040920
-0.159992
-0.242506
0.232913
0.101608
-0.718349
-0.058582
0.570774
-0.342397
-0.116958
-0.964846
-0.147612
-0.616764
-1.888685
-0.800064
-0.589141
0.758516
0.387122
0.046416
-0.699292
0.073345
-0.530532
-0.325779
-0.181486
-0.708459
0.386181
0.867211
0.077388
-0.527878
-0.014030
0.568360
0.690803
-0.550628
-0.261691
-0.656033
0.539896
0.137120
0.288252
-0.465333
0.328377
0.232641
-0.669839
0.508406
-0.609771
-0.058087
-0.010330
0.187033
-0.451295
-0.884950
-0.502057
-0.370087
0.026101
0.141649
0.339630
0.274795
-0.124563
0.260166
0.351825
0.645682
0.527152
0.000904
-0.278211
0.137295
0.179150
-1.189965
0.203294
0.184751
0.450811
-0.739189
0.064504
-0.207897
0.255108
1.388514
0.446898
-0.057725
0.023628
-0.163335
-0.074239
-0.325916
0.396417
0.237187
-0.069241
0.353033
0.277363
-0.173692
0.684357
0.360423
-0.155005
-0.009342
1.015816
-0.991795
-0.122502
-0.659272
0.890056
0.597616
0.126962
-0.182254
0.133725
-0.270322
0.351496
-0.281287
0.418579
0.315562
-0.049074
-0.776030
0.206480
0.640289
0.033379
-0.750636
-0.306428
0.244988
-0.394153
1.865945
0.941016
0.305964
-0.461819
0.007330
0.322994
1.032160
0.363768
0.255127
0.098805
-0.071511
-0.559817
0.503670
0.272937
-0.011262
-0.874091
0.334965
0.526097
-0.110701
-0.068985
0.054458
0.219693
0.016075
0.356969
-0.360194
0.312809
-0.112416
-0.145334
0.024599
0.321981
-1.466725
-0.100015
-0.184833
-0.539110
-0.955797
0.357905
-0.101015
-0.384454
-0.131246
0.279153
-0.167918
-0.380338
-0.154983
0.241469
-0.805568
-0.168237
0.234933
1.136903
-0.579072
-0.364687
-0.802243
0.310056
0.251137
-0.126981
-0.194202
0.233210
0.207132
0.076162
-0.683288
-0.194704
0.397146
-0.116185
-0.060698
-0.852085
1.389321
-0.500242
-0.111781
-0.330873
0.280171
0.124410
0.723041
-0.217735
-0.185440
0.322324
-0.216836
0.007971
0.066060
-0.405582
-0.450024
0.009270
0.414099
-0.189905
-0.942808
-0.217679
0.338456
-0.151089
-0.139120
-1.999263
0.161738
0.405658
0.338340
0.019210
-0.990975
-0.589514
1.426872
-0.322327
-0.108335
0.624131
-0.042156
-0.186075
-0.666159
-0.367769
-0.031730
0.260869
-0.439653
-1.179920
-0.007126
-0.211262
0.789179
0.424269
0.179657
0.495542
0.130661
0.163271
0.087104
-0.137853
-0.361844
-0.055765
-0.532478
-0.332265
-1.104968
0.216290
0.701858
0.338772
0.733320
0.092749
-0.131506
1.424095
0.063958
0.001223
-0.559349
1.309349
0.453736
0.045484
0.144401
-0.872480
0.594947
0.433196
0.140349
0.380960
-0.245866
-0.412221
-0.232128
0.162377
-0.195869
0.420179
-0.267958
-0.027140
0.041319
-0.764168
-0.531909
0.408533
1.047528
0.310845
-0.115740
0.226850
0.137194
0.505551
0.676378
0.309228
-0.274234
0.808047
0.643771
-0.187840
-0.186316
0.215109
0.108345
-0.313434
-0.032161
0.155897
-0.339940
0.016555
-0.103057
-0.258608
0.392745
0.388435
0.454477
0.146458
-0.452801
0.943320
0.087148
-0.472347
0.400983
-0.065720
-0.123140
-0.009322
-0.032357
0.031543
1.432392
0.156188
0.211019
-0.249633
0.062016
0.479826
-0.326728
-1.026832
0.070356
0.100683
0.225690
-0.176310
0.469259
-0.041452
0.440051
-0.642965
-0.512858
0.145921
-0.769412
-0.734113
0.467898
1.347338
0.035316
-0.679905
0.110346
0.070842
0.354670
-0.031857
0.012388
0.071994
-0.108608
-0.597722
-0.119692
-0.598163
1.174646
0.273782
0.069957
0.001298
-0.543783
-0.250634
1.947285
-0.248509
-1.008570
0.216942
-0.300114
0.187773
-0.230291
1.062506
-0.486546
-0.691298
-0.252434
0.346019
-0.014430
-0.005342
-0.333658
0.058602
0.856308
-0.618057
-0.127785
-0.606213
0.780750
0.492383
0.552424
-0.655642
-1.272913
0.553365
0.561028
-0.731306
-0.133163
-1.830372
0.050203
0.136851
-0.238919
-0.203592
-0.005784
0.238823
-0.518874
-0.571231
0.278217
-0.355474
-0.577478
-1.432411
-0.279886
0.608594
0.047984
0.303471
-0.903457
-1.230922
-0.439307
-0.103056
-0.082725
0.143677
-0.374763
-0.286092
1.315077
0.029333
-0.158315
0.463998
0.632525
-0.424520
-0.329382
1.005380
-0.233011
0.267318
-0.318562
0.864394
0.628059
0.594527
-0.439147
-0.373494
-1.029255
0.286582
0.154010
0.334291
-0.076782
-0.673214
0.527985
0.086928
1.170511
-1.953552
0.121250
0.215623
0.288825
-0.341042
-0.157005
0.007155
-0.622539
-0.285872
0.358637
1.229754
0.113856
-0.289628
-0.524376
0.166857
0.216906
0.059739
0.170334
0.160941
0.519140
-0.252470
-0.343336
-0.132059
-0.112093
0.666079
-0.596365
0.351954
0.923052
0.034633
-0.597299
-0.506782
-0.587380
-0.493037
1.528876
-0.346533
-0.408042
