0.238500
-0.421629
0.760608
-0.629114
-0.024011
-0.058542
0.196671
0.280950
0.535775
1.111043
-0.081131
-0.644474
0.086190
-0.104685
0.118594
0.818976
0.722011
0.833491
1.186286
0.033900
-0.180310
-0.190724
-0.098278
-0.117914
0.015707
-0.399581
-1.860613
-0.002112
-0.322108
-0.023827
0.623894
-0.145077
0.418627
0.354971
0.047111
2.118341
0.386233
0.104776
2.009407
0.239301
-1.024560
0.107512
0.944881
1.086854
-0.782413
-0.004033
-0.319989
0.486588
0.495097
1.023727
-0.198394
0.212684
1.970595
-0.556905
-0.029918
-0.389260
-1.134867
-1.098648
-0.009935
0.209945
-1.643265
0.834802
0.185171
0.510439
-0.212246
-1.144599
-0.743881
-0.024119
-0.281357
0.088957
-0.056937
0.138043
0.384429
-0.157865
-0.466998
1.188812
1.242003
1.176400
-0.559769
-0.284550
0.111533
0.993831
-0.981716
1.643963
0.370000
-0.700803
-0.014702
0.439227
-0.373409
-0.913787
-0.147639
-0.240500
-0.279715
0.379289
-0.213662
-0.105653
-0.033419
0.458929
0.068594
0.235440
0.440230
0.093815
-0.042748
0.106826
0.243402
-0.478045
-0.079166
-0.763523
-0.266661
-0.855021
0.246002
0.371456
-0.143660
1.225228
-0.923544
-0.638650
-0.469614
1.496187
1.724278
-0.590650
-0.647908
-0.435769
0.179694
-0.760432
0.080425
-0.138104
-0.344049
-0.381180
0.489554
-0.235847
0.540046
1.023202
-1.319405
0.329839
1.206130
-0.500059
0.162806
-1.081627
2.217992
-0.834989
-0.726247
-0.375450
0.463271
-0.358276
0.369025
-0.447918
0.145287
1.785893
0.326190
-0.002326
0.521510
-0.054667
-0.153003
-0.307539
0.009052
0.031444
-0.735963
0.907341
0.090681
0.517687
-1.094842
0.464285
-0.346285
0.699153
0.072228
-1.717610
1.660068
0.123414
-2.693526
-0.970727
0.855376
-0.209225
0.098552
0.272516
-0.487997
0.416138
-0.598048
0.268240
0.458623
0.152119
0.973115
-1.118623
1.983546
-0.234435
0.998446
-0.285136
-0.000603
-0.442826
1.268686
1.534820
0.085190
0.223636
0.966498
-0.379646
0.016084
0.079764
-0.077454
0.096502
1.399587
-0.255483
0.427881
-1.041220
0.369590
-2.138691
1.830658
-1.048145
-0.104453
-0.349746
-0.010326
1.104355
-0.084548
-0.331252
0.313792
0.516640
0.399134
0.115272
-0.167448
0.355184
0.064441
-0.342023
-0.120803
1.519581
0.048210
-0.033333
-0.536099
0.385076
0.005925
1.451014
0.293988
0.015199
1.009532
1.545607
-0.153433
0.351669
0.117759
-1.048335
0.607876
0.591848
-0.027978
-0.699607
-1.791988
-0.086047
-0.193018
-0.335144
-2.112506
0.457196
-0.158704
-0.525592
0.909631
-0.755722
-0.797878
1.216275
0.754103
-0.315137
1.498980
0.323695
-0.304075
-1.396100
-1.351374
-0.068050
1.539278
-0.244745
0.137086
-0.130171
-0.100115
0.123899
0.579471
0.582801
0.494267
1.084597
-1.815905
0.182985
-0.270150
-0.290512
-0.198826
-0.351710
-0.202236
-0.339130
1.561705
-0.331803
0.084512
-0.041367
0.338240
-0.307341
1.159602
-0.700605
-0.725978
-0.427747
2.648029
0.134052
0.220620
0.157919
-1.082756
0.352049
-1.221687
-0.116357
-0.035184
-0.400912
-0.298043
0.256260
0.434415
-0.403353
0.473242
0.497762
0.235151
-0.760693
1.016604
0.179262
-0.890991
0.622591
0.928195
0.614558
0.357513
-0.618827
0.809947
0.396095
0.220927
1.732811
-0.454537
0.134735
-0.322218
-0.355987
-0.011775
-0.025519
-0.056409
-0.265921
0.120791
-0.129223
0.778660
-0.674119
-0.105210
0.426497
0.915760
0.185337
0.392845
0.101454
0.830656
-1.374657
-0.897373
-0.652839
-0.290454
-0.167363
-0.250433
0.117477
-0.799059
0.234832
-0.076281
1.074081
0.759123
-0.313987
-0.284732
-0.137245
-1.613469
1.081652
-0.216367
-0.177001
-0.110424
-0.339051
-0.392114
-0.025763
-0.128111
0.131815
-0.570034
-0.309345
0.122046
-0.118113
0.624153
-0.206396
-0.340641
0.869660
0.093562
0.842407
-0.489368
0.060682
0.271098
0.479117
-2.542837
0.091387
-0.502647
1.655075
0.792796
-0.333453
-0.134050
-0.529352
-0.044127
1.546618
-0.037569
-0.667932
0.859785
-0.021093
0.783954
-0.402611
0.502650
0.520301
-0.076450
0.589231
-0.110664
0.570342
-0.445042
0.715632
0.050525
0.606401
1.292945
-1.250200
-1.015835
0.266753
1.705070
0.689673
0.061560
-0.945392
0.865764
0.453936
-0.405499
-0.072567
-0.401971
0.269154
0.760349
-0.745494
-0.158733
0.485786
-0.623353
-0.665720
-0.342468
-0.804280
-0.204812
1.563762
-0.505054
0.133891
0.648424
0.146373
2.062762
-1.417586
1.056605
-0.446469
0.007872
-0.313716
-0.125428
-0.450881
-0.467835
0.768809
-0.921583
0.836146
0.881147
0.546329
-0.577927
-0.706345
0.171918
-0.261725
1.177124
-0.859865
0.325673
0.426761
0.053758
0.062884
0.407216
-0.150403
0.538176
-0.041900
0.019193
-0.417696
-1.290137
0.721105
-0.031657
0.014939
0.336331
-0.346850
0.590781
0.754901
-0.766394
-0.310951
0.510197
-1.092458
0.993461
1.012560
0.323624
0.081038
0.143357
-0.422734
-0.152955
0.361464
0.115455
-0.355796
-1.005314
0.364643
0.133921
1.009100
-0.089038
0.868479
0.717237
0.713933
0.137281
-0.021672
-0.098705
-0.469871
1.202821
-0.872183
1.113781
0.004160
-0.360800
-0.194848
