0.317514
-0.094950
0.996638
-0.008076
0.252870
-0.471779
-0.115834
0.906289
1.367195
0.168148
1.185518
-0.331279
-0.543315
1.302168
-0.108573
-0.440741
0.233275
0.483023
0.189001
-0.492920
0.127820
0.084153
-0.023598
-0.048740
0.176813
0.898643
-1.423321
0.040745
-0.676548
-0.404966
0.031590
-0.726947
-0.143692
-0.462972
-0.461562
0.638496
0.150093
-0.988978
0.737445
-0.172422
-0.971686
-0.074635
0.487620
0.809941
-0.186795
0.001955
-1.137911
-0.014678
1.589806
0.958364
-0.915935
0.398341
0.468891
0.567005
-0.093973
-0.019598
0.096767
-0.992956
-1.734971
0.387683
-1.081679
0.713404
0.338356
0.134290
-0.027063
-0.449506
-0.546041
-0.154573
0.326825
-0.246352
0.322021
-0.452161
0.095036
-0.415788
-0.129534
-0.325575
0.392501
-0.742964
-0.799373
-0.298074
-0.290308
1.868168
-0.205864
0.518101
-0.520888
-0.311748
0.058622
0.164156
-0.758412
-0.197811
-0.039230
-0.005298
0.154942
-0.109851
-1.361869
-0.567297
-0.081611
0.713596
0.192219
0.062550
0.339079
0.199437
-0.934474
0.050605
0.959892
-0.348779
-0.089373
-0.618267
0.161373
0.112654
0.488994
0.398994
-0.056959
0.400518
-1.002087
-0.490376
0.563995
1.563067
1.193886
0.097101
-0.598984
0.246238
-0.277025
-0.366962
-0.292443
0.046623
0.855876
-0.259248
0.321446
0.315569
0.529859
0.418869
-0.811252
-0.108201
1.876155
1.519431
-0.300589
-0.580129
1.336452
-0.494365
-0.297798
-0.168203
0.497095
-0.220555
0.189424
-0.673430
0.325868
0.898080
0.087001
0.087927
0.201564
0.464146
0.015533
-0.596929
-0.003751
-0.498672
1.203643
0.512126
0.452389
0.114049
-0.032469
0.009105
-0.353788
-0.404691
-0.611022
0.108258
0.255468
0.592708
-0.839023
-0.261422
0.112806
-0.289167
0.119890
0.535352
0.908085
0.416264
-0.146253
0.613316
0.449551
-0.650279
0.404325
-0.454381
1.228063
-0.065819
0.062491
-0.652218
0.366077
-0.116638
0.127394
-0.083875
0.558715
-0.721005
1.374305
-0.225109
0.201948
0.597980
0.389163
-0.338270
0.534835
-0.208655
0.009935
-0.449366
-0.232173
-0.157329
0.647950
-0.259741
0.571158
0.454602
0.698017
0.690167
0.153326
-0.049698
0.152143
0.380758
0.773931
0.635319
-0.231989
0.097985
-0.120028
0.150242
-0.290030
1.471052
0.798350
0.676595
-0.523892
0.387940
-0.468308
1.521603
0.202792
-0.446180
0.542100
0.397451
0.058203
-0.334863
-0.343581
-0.114200
1.565798
0.422022
-0.079974
-0.371340
-0.799848
0.001972
-0.371675
0.083377
-1.761223
0.312814
-0.778254
-0.314074
0.457776
-0.584200
-0.281180
0.438999
0.093256
-0.166609
0.992702
0.425447
0.074391
-0.661619
-0.963407
-0.350036
1.062574
-0.077441
0.460960
0.582974
-0.113225
0.487042
0.012265
-0.064889
0.734873
0.167583
-1.300866
-0.305713
-0.132864
-0.352032
0.166714
-0.034140
-0.307108
0.700999
0.562308
-0.469826
-0.827024
-0.272456
-0.102041
0.003065
0.022036
-0.182764
-1.406773
0.044311
1.441138
0.322879
0.086652
-0.144923
-0.849770
-0.189336
0.225358
-0.193440
0.367670
-0.337412
-0.159389
0.500759
0.297460
-0.192984
0.160896
0.342724
-0.264189
-0.636363
0.535238
0.013293
-0.208579
0.074961
-1.108178
0.012177
0.154687
0.163303
-0.103312
0.896702
-0.008867
1.176162
0.327054
0.153683
0.028615
-0.257325
0.733770
-0.291768
-0.208813
-0.617230
-0.313298
0.029418
-0.123024
-0.484675
0.631700
-0.098311
0.571116
-0.050347
0.362906
-0.569936
0.538331
0.106214
-1.420706
-0.257281
-0.019163
-0.012327
-0.308160
0.038686
-0.428587
0.893418
-0.160297
0.790044
0.695314
0.328634
1.242343
0.328464
-2.185561
1.517333
-0.046967
-0.153667
1.729382
-0.167250
-0.006475
-0.322698
-0.179563
-0.752683
-0.365750
-0.272034
0.332857
-0.112446
0.978620
0.333906
-0.472165
0.422846
0.062140
-0.050257
-0.346368
-0.324800
0.071302
0.218998
-1.223272
-0.042120
-0.122776
1.505561
-0.012169
-0.323649
0.034456
-0.230422
-0.539195
1.331843
-0.133241
-0.123957
-0.405545
-0.233756
0.707689
-0.245374
0.886924
0.394558
0.327964
0.152463
0.053247
0.253154
-0.257946
-0.125246
-0.159798
0.965961
0.517253
-0.423688
-0.679743
0.572645
0.670637
0.675485
0.438039
0.871661
-0.244298
-0.152483
0.085043
0.019310
0.539864
-0.088494
0.306851
-1.044946
1.027184
0.242501
-0.069564
0.071076
0.051865
-0.803414
0.409275
-0.052870
0.745391
-0.313223
-0.480780
0.245126
0.649461
0.085150
2.336189
0.109498
-0.113080
-0.253729
-0.115097
-0.316175
-0.190838
0.839650
-0.367192
-0.403528
0.366532
0.924119
-0.612630
0.112574
-0.214900
-0.192668
-0.150227
-0.494680
1.693557
0.469764
1.653714
-0.895300
-0.295245
-0.606678
0.221346
-0.744391
-0.609198
0.133872
-1.114723
0.380595
0.152909
0.251319
0.377345
-0.430283
0.107781
0.119739
-0.520619
-0.247254
0.887681
-0.580857
0.134803
-0.320040
-0.138370
-0.070029
1.346698
-0.400363
-0.310820
0.759211
0.043298
-0.155145
-1.237990
0.452266
0.022820
0.920735
0.709343
0.811330
0.675329
0.012034
0.580026
0.466251
0.085797
0.055647
-0.199809
0.310642
-0.083863
0.534193
-0.049007
0.915598
