-0.130769
1.820752
-1.196454
0.203457
0.517439
-0.847603
0.218864
-0.707963
-0.432698
-0.726619
0.893222
0.031366
-1.378306
0.052617
0.755352
-0.567564
1.497378
-0.442756
-0.294946
-0.534060
0.339397
-0.744893
1.162048
1.283046
-0.106944
-0.990287
-0.308066
-0.783137
0.304363
-1.558091
-0.084596
0.749820
1.227891
-1.205316
-0.706790
-1.694894
-0.218855
-0.547914
1.547157
-0.671991
-0.751435
1.596172
-0.052788
-1.389387
0.637784
-0.377443
1.628712
1.310484
-0.611421
-0.977239
-0.229011
-0.816571
1.280385
-0.132868
-0.536169
0.452512
1.160335
-1.132597
-1.861853
1.046050
-1.126554
2.459749
-1.438789
1.804526
-0.127722
-1.357709
0.480434
0.238900
-0.862513
-0.020187
-0.386981
-0.226286
0.493348
0.044176
0.180993
0.007142
-0.293146
-0.424624
-0.158499
-0.508960
-0.388746
-0.236922
0.192611
-0.524121
-0.463310
-0.758598
0.622799
-1.363912
-0.170769
-0.399067
-0.108683
-0.474751
1.789000
-1.629181
0.442406
-0.097138
-0.261416
0.455634
-0.855809
0.124982
0.222712
-0.692178
0.224016
-0.017302
0.401339
-0.065675
0.232017
0.780338
-0.822919
-0.698749
-0.034379
0.587579
-1.399049
1.244405
0.054617
1.856483
0.104103
-0.011473
-0.111378
-0.194374
-0.359499
-0.460636
0.149283
1.988293
1.580184
0.530595
-0.048761
-1.033387
0.315149
0.563617
0.527475
0.448186
-0.831279
0.061458
0.543803
0.172508
2.064286
0.059967
1.949039
-0.284226
-0.949127
-0.194942
-0.349210
-0.412536
-0.228703
1.690466
-0.630423
0.628834
-0.106802
-2.026633
-0.219287
-0.168857
-0.388289
0.509228
-0.740018
-0.256437
-0.512291
-0.240339
0.146493
-0.424613
-0.135940
0.070383
-0.591034
-0.714245
-0.539303
1.513102
-0.526254
0.486356
-0.169625
0.022032
-0.103025
0.809673
-0.488297
0.245838
0.764018
-0.147082
-0.482773
0.922385
0.107640
0.703327
0.574250
-0.221189
-0.639301
-0.264598
-0.322200
-0.445657
0.197290
0.821649
-0.102907
0.934607
-0.023606
-1.003618
-1.222371
0.304121
-0.330385
-0.547482
0.101720
0.393538
-1.413767
-0.363729
-0.119769
0.285200
0.771179
1.526134
-0.412445
2.504930
1.288032
-0.743003
0.562829
-0.076480
-0.126931
-0.220495
-0.974285
-0.164291
-0.782844
1.083080
0.648663
-0.423087
-0.167843
-0.258014
0.439424
-0.069344
-1.059517
0.575130
1.974764
0.721425
0.404502
0.490067
0.658222
0.715557
-0.070167
0.884702
-0.217511
1.074358
-0.480746
-0.049903
-1.131932
-0.205001
0.643394
0.493650
1.169541
0.430138
1.171610
0.879235
-2.076308
0.844221
-1.821176
-0.546694
0.372691
-1.296214
0.653339
-0.490339
0.892965
-0.265097
0.645299
-0.419275
0.405662
-0.178874
0.298882
-0.311492
-0.565956
0.809878
0.671269
1.154203
0.385119
-0.643316
-1.398080
1.846559
0.093651
1.011785
1.118249
-0.678494
-0.184692
-0.245859
0.011375
0.642623
-0.134783
0.976042
0.912930
-1.434180
-1.363914
-1.381094
0.364135
-0.141799
-0.383490
-0.150883
0.695526
-0.113242
1.637109
1.059188
0.100813
0.314385
0.515337
-1.059026
-0.062151
0.123164
-1.138688
0.021443
-0.363755
0.356764
-0.707260
0.329890
-0.582462
0.578750
0.101172
0.193690
0.527008
0.355253
0.125743
-0.123189
2.103157
-0.574848
0.674056
0.008122
-0.916062
0.267091
-0.103080
0.796784
0.993653
0.474415
-0.142852
-0.518643
0.828935
-0.167060
1.321764
-0.802959
-0.570277
0.856049
-0.596337
0.515742
-0.753558
-0.204149
0.246299
-0.229663
-0.566553
-0.817265
-0.417984
-1.450935
-0.439670
-0.241519
-0.154765
-0.058209
0.219113
-0.201130
-0.078507
-1.378038
0.128837
-0.093509
-0.369035
0.211805
1.053841
0.075023
1.538417
-1.147043
-0.451815
-0.629548
-0.107156
1.326079
-0.282033
0.831726
0.630147
0.147355
-1.658702
0.381292
0.109582
-0.270044
1.961858
-0.344796
0.460127
-0.270902
-1.046462
-0.168305
0.054003
1.381478
0.083360
-0.203955
1.189574
0.220159
0.546764
-0.936756
0.559854
-0.298620
-0.064952
0.058903
0.053179
-0.069326
1.069917
0.063062
-0.411633
0.189993
-0.658414
-0.209257
0.892815
-1.619346
-0.160808
0.764617
-0.051991
-0.375204
-0.501105
-0.341972
-0.200060
2.391996
0.635672
0.144274
0.186846
-0.869133
0.234980
0.307429
0.707138
0.856843
1.303324
-0.668401
0.342466
0.321933
1.363862
0.060848
-1.034360
-0.523959
-0.105814
0.694541
-0.823045
-0.053816
-0.641112
0.172936
0.118905
-0.928278
1.856882
-0.125674
-0.516276
0.261676
-0.916714
1.308045
0.802321
1.275144
-0.223339
-1.432529
-0.267230
0.040978
0.108283
-1.578521
0.243454
0.155656
0.012820
-0.716400
0.563418
0.663665
-1.758590
-0.001672
0.063491
-0.797269
1.217963
-0.822889
0.133413
-0.449540
1.598231
-0.851174
-0.412647
-0.136234
-1.512094
0.082169
1.405781
1.127557
0.142441
-0.981913
1.051103
-0.779048
0.182775
0.781562
-0.055014
0.981539
-0.138569
-0.485092
0.012220
0.996968
-1.551126
-0.182534
-0.727128
0.972481
0.299965
0.336691
0.380667
-0.756684
-0.713228
-0.177798
0.193001
-1.249870
1.061635
0.406825
-0.351670
0.184223
-0.014871
-0.394424
-0.408661
0.277046
-0.817562
-0.087469
1.144963
-0.516046
1.381131
-0.210272
