-0.017878
0.414704
0.672932
0.155731
0.957825
-0.785732
-0.185277
0.857695
0.586581
0.407525
1.218864
-0.901317
-0.945102
0.441910
0.101197
0.210688
1.522913
-0.365408
0.295844
-0.345098
0.586048
-1.054474
0.142486
0.357484
-0.078289
-0.221188
0.040981
-0.217417
0.398758
-0.163139
0.171098
-0.677497
0.561731
-0.193084
-0.703931
-0.436811
-0.014494
-0.109584
1.018307
-0.078306
-0.087161
-0.447582
0.648972
0.748916
-0.286678
0.015198
-0.556873
0.889880
0.299394
0.367482
0.082616
0.054762
0.869080
0.088089
-0.238693
0.197717
-0.412424
-0.280595
0.072553
0.472084
-0.276232
1.869585
-0.513197
0.771959
-0.215193
-0.360474
-0.446900
0.324119
0.526004
0.037148
0.091050
-0.871252
-0.013287
0.029207
-0.009170
-0.016925
0.133134
-0.242759
-0.556589
0.087040
-0.116233
0.978211
-0.505396
0.792357
-0.106770
-0.685197
0.468440
-0.930040
-0.065044
-0.152091
-0.163170
-0.085778
0.747544
-0.010736
-0.683223
0.090348
-0.287760
0.300431
-0.212278
-0.286056
0.570260
-0.456361
-0.052054
-0.254732
0.858024
-0.200526
-0.221854
0.265230
-0.093917
-0.548125
0.065543
0.160478
-0.420863
0.924566
-0.248165
0.141249
0.857143
0.342865
-0.503811
0.264514
-0.542795
-0.457400
-0.389512
0.788919
1.118580
0.709497
0.265653
-0.852249
0.199753
0.434340
0.324229
0.287720
-0.255944
-0.152275
0.502783
1.197336
-0.179171
0.252673
1.015168
-0.013625
-0.549124
-0.055142
-0.507206
-0.451964
0.026071
0.411372
-0.329357
1.497457
0.318350
-0.643752
0.076785
0.081141
0.211450
-0.144391
0.003646
-0.153848
-0.372700
-0.092466
-0.362415
0.450156
0.139521
0.115536
-1.148852
-0.958280
-0.610335
1.214905
0.466872
-0.047644
-0.937054
-0.216546
-0.302717
0.339399
0.497395
0.831706
1.714110
0.080005
0.055907
1.655078
0.153389
-0.382030
0.214747
-0.308672
0.617463
0.037841
-0.343927
-0.178963
-0.199696
0.749706
-0.240014
0.666023
0.438114
-0.210819
-0.389809
-0.120750
0.033034
0.039576
0.087408
-0.219076
-0.364240
-0.120851
-0.247567
0.167234
0.151318
0.317479
0.163019
-0.875638
0.233604
0.138722
-0.261904
0.889886
-0.031288
-0.085857
0.192993
1.111239
0.260377
0.609580
-0.301426
0.341176
0.468344
-0.254575
-0.042701
0.267111
0.835221
1.010063
0.432001
0.562163
-0.046295
1.007436
0.246950
0.094765
0.281373
0.211086
-0.164929
-0.521551
-0.120551
-0.003203
-0.375481
-0.037654
0.197586
0.016220
-0.421836
0.099604
-0.204188
0.225224
-0.646057
0.439885
-1.391732
-0.398436
0.019545
-0.158069
0.595652
-0.082395
0.095644
-0.306969
1.000653
0.119109
0.169583
0.192179
-0.493344
0.000702
0.084853
-0.289114
0.029877
1.154251
0.511398
-0.451465
-0.363522
-0.190308
0.642513
0.067015
-0.206922
-0.053411
0.151671
-0.179367
-0.058484
0.391631
-0.257203
0.845930
1.238917
-0.815639
-0.833199
-0.901637
-0.120104
-0.211956
-0.017944
-0.046905
-0.421629
0.130056
1.451247
1.035374
0.145772
-0.040313
0.026722
-0.641548
0.542234
-0.267589
-0.597705
-0.068837
0.248007
0.542795
-0.332474
0.039153
-0.104463
0.892908
-0.149622
-0.221455
0.387007
-0.075522
-0.345548
0.138745
-0.000388
-0.421232
0.630585
0.267342
-0.515862
-0.194120
-0.112707
1.215930
0.210226
0.406822
0.009786
-0.089341
0.833910
-0.576891
0.030854
-0.359325
-0.469869
0.108609
-0.101326
-0.548061
0.309606
0.079715
0.521893
-0.664578
-0.233825
-0.163597
-0.061044
-0.338568
0.073630
-0.298311
-0.197172
0.175484
-0.005586
-0.067806
-0.520301
-0.985324
0.102678
1.050504
-0.174385
0.229299
1.341492
-0.064080
-0.254433
-0.161340
-0.318522
-0.596978
1.103834
0.119163
-0.287885
0.459275
0.074638
0.020459
-0.505173
-0.447774
-0.708640
-0.109996
1.103912
-0.318238
-0.298226
0.550150
-0.577557
0.221785
-0.095736
0.115715
0.135137
-0.013742
-1.143490
-0.269304
0.010714
-0.006759
0.226620
-0.189041
0.014578
-0.277509
-0.432530
-0.239666
-0.233631
-0.225527
-0.145340
-0.080907
0.371002
-0.173627
0.834012
-0.975641
0.585392
0.342602
0.026513
0.037202
-0.385841
-0.091999
-0.156995
2.127305
0.779972
-0.304814
-0.019036
-0.759836
-0.061644
-0.209289
0.498109
0.869643
0.609142
-0.329334
0.428230
0.119103
1.613469
0.213738
0.517782
-0.393496
0.630821
0.432423
-0.499237
-0.127741
-0.316197
-0.601953
-0.091351
0.144452
1.639538
0.021815
-0.239214
-0.163229
-0.306038
-0.112108
2.280494
0.012524
-0.101142
-0.271488
0.136972
-0.182727
-0.097048
-1.162411
-0.293011
0.386887
-0.467758
-0.012076
-0.112248
-0.201108
-0.826004
-0.090664
0.195218
-0.083023
0.257365
-1.268165
1.057142
-0.281832
-0.131342
0.201548
0.179560
-0.486441
-0.296239
0.048256
-0.086494
0.915660
-0.101363
-0.817688
0.024837
-0.787119
0.728728
0.619992
-0.045169
0.224026
0.177032
-0.105108
0.172815
0.184268
-1.184876
-0.205640
-0.016332
-0.311032
-0.514726
0.231946
-0.201027
0.018245
-1.788589
0.480005
-0.168527
0.871678
0.839984
0.871849
0.565568
-0.048656
0.915140
-0.658491
-0.205974
0.223479
-0.372050
-0.021903
-0.234834
-0.377927
-0.325564
1.086029
