0.134641
0.052145
0.085692
0.106516
-0.704303
-0.437042
-0.328195
0.242042
-0.342562
-1.952362
-0.103621
0.971962
-0.030790
0.052536
0.467863
-1.500589
-0.893831
0.071495
0.120304
-0.239051
-1.249414
0.190699
-0.073473
-1.094300
-0.008276
-0.795781
-1.306952
0.009026
-0.602237
0.861912
-0.207287
-0.091669
-0.356510
-1.244492
-0.556922
0.054013
-0.197245
-0.931662
-0.816302
-0.035317
-0.949975
0.899772
-1.150093
-1.753182
0.396271
-0.098310
-0.017201
-1.084257
-0.181278
-0.640203
-0.976903
-0.800873
-0.472760
-0.276320
-0.217505
0.316907
0.503820
0.070604
-0.769112
0.138002
-1.984514
0.082861
-0.175359
-0.613367
0.517718
-1.384044
-0.665004
-0.260292
-0.765256
0.699645
0.069161
0.644561
-0.173737
-0.345281
0.276292
-0.152674
0.322358
-2.453241
-0.148998
-0.306328
-0.545311
-0.108511
0.007695
-2.115851
-0.031669
0.171426
-0.020864
2.192833
-1.460759
1.463439
0.117809
-0.390581
0.263511
0.245942
-1.577326
-0.899503
-0.222670
-0.089486
-0.147136
0.615149
-0.499460
0.544941
-0.433012
-0.634882
0.206560
-0.185128
0.222277
-0.727856
0.056224
0.874858
0.393960
0.277171
-0.837394
-1.022906
-0.647123
-0.774986
-0.132142
0.776552
1.419422
-0.071811
0.189160
0.386419
1.228019
-0.639266
-0.414717
-0.666636
0.397364
0.671625
0.614537
-0.152345
-0.174568
0.805548
-1.051739
0.903805
-0.042657
-1.427004
0.691479
0.003669
1.493317
-0.814150
0.151108
-0.395130
1.319602
-0.720512
0.422059
-0.378060
0.524694
-1.152145
0.432818
1.821630
0.027312
0.258878
-0.203620
-0.269746
0.947365
-0.093472
2.179879
-0.486540
0.613120
-0.834958
-0.951379
-0.529269
1.533584
1.367835
0.539207
-0.163069
-0.294525
1.785566
2.481293
0.151684
0.049520
0.173755
-0.651297
0.064776
-0.749345
0.614540
-0.501312
0.063473
0.419798
-1.078176
0.584578
-0.136666
-0.673431
-0.243754
0.563629
-0.858571
0.367106
-0.184279
1.612055
-1.224496
-0.245310
0.012574
1.148883
0.640056
-0.195813
-0.686031
-0.507828
0.545387
1.109963
-0.565027
0.367693
-0.302564
-0.664645
0.260785
0.386329
0.736407
-0.661759
0.338393
2.945230
-0.432442
-0.114056
-0.217774
-0.501863
-1.073498
-0.162823
0.029206
-0.417023
-0.520370
-0.945827
0.111800
2.257829
0.215479
-0.517280
-0.415764
-1.155590
0.533531
-0.300363
0.954928
-1.103806
-0.530429
1.603420
0.685534
-0.083726
0.957592
0.226725
-0.385763
2.203696
-0.274656
-0.336261
-1.299342
1.411427
-1.041085
-0.296692
0.317640
-0.671961
-0.499830
0.809051
0.696761
0.821360
-0.204909
-0.030677
1.530419
-0.691148
-0.069463
-0.047230
-0.594478
-0.094905
-1.160075
-0.139678
0.577709
1.367849
0.390420
0.869331
-0.367882
-1.258198
0.109621
-0.359734
-0.227847
-0.155948
1.303399
-0.075884
-0.132929
-0.125755
-0.049853
0.669714
0.004140
-0.346954
-0.169099
0.629153
1.045516
-0.421562
0.045534
1.241900
0.928150
0.790915
-0.641062
0.911343
-0.261715
0.268355
-0.260515
-1.564015
-0.039884
0.122631
0.225219
0.982033
-0.502171
0.049454
-0.559089
0.330189
-1.310648
1.145152
-0.319301
0.645497
-1.044426
0.124152
-0.182408
-0.030967
0.568694
-0.659528
0.233840
-0.243092
0.859499
-0.004775
0.824989
-1.023186
0.084039
0.669880
-0.063745
0.472726
0.363684
-0.091377
-0.468681
0.114762
1.139874
-0.256105
-1.089098
0.076550
0.985151
-0.668075
0.032906
-0.804077
-1.040380
0.335253
1.006271
0.508035
0.907305
-1.166139
2.475789
-1.065095
0.385837
0.403389
-0.055179
-0.439838
-0.135814
0.033098
-0.212177
-0.777170
-0.987567
1.917790
1.215772
-0.632656
-0.265228
-0.498123
1.002982
0.134054
0.376080
-1.015582
0.267946
-0.378936
-0.518895
0.032821
-0.333714
0.557368
1.747596
1.908385
0.476291
-0.491971
0.645723
0.493201
-1.026760
0.691384
-0.685801
-0.508549
0.267593
-0.248026
-0.143814
0.976166
0.359624
-0.227756
0.692097
0.692182
-0.291402
0.221314
0.611493
0.636074
2.202138
0.752779
0.628520
0.331504
1.493779
-0.267251
-0.259233
0.973455
2.555354
-0.947746
0.174421
-0.846314
-0.133467
-0.074283
1.514436
0.545573
-0.520766
-1.043684
-0.263109
-0.375210
0.823581
1.410012
0.779221
0.280750
-1.192206
-0.067065
0.717445
-0.317198
-0.631989
0.013456
-0.057234
-1.298772
-2.340890
-0.331260
0.254630
1.227339
0.157827
1.058645
-0.392032
-0.342364
-1.021975
-0.663351
-0.048787
-1.228872
-0.618492
0.975794
0.080762
-0.367087
-0.105563
0.528986
0.003502
-0.596974
0.574273
-0.244853
-0.212790
-0.159475
-2.209364
0.962698
0.775422
-0.105847
-0.321165
0.351308
-0.255713
-0.920994
-0.838093
0.080611
0.058009
0.643951
-0.393305
1.610732
-0.437194
-0.006788
0.701961
-0.356162
0.247000
-0.092216
-0.586310
0.325949
1.808728
1.409197
2.714139
-0.035095
-0.239245
-0.179208
-0.048611
0.292487
-0.030459
0.451172
0.639078
-0.150305
0.494504
0.589400
0.018428
-1.038000
-0.500319
-0.314120
-0.680460
-0.218911
-0.252104
0.758159
-1.518531
-1.750763
0.298135
-0.936831
-0.201454
-0.618948
-0.521507
-0.045795
-0.029329
0.263847
0.717156
-1.877270
0.373298
-0.410910
-0.337133
