0.149565
1.420673
-1.789988
0.233034
-0.166135
-0.638507
-0.083442
0.372064
-0.318428
-1.206600
1.251554
-0.397490
-0.775568
0.316054
-0.001733
-0.149434
1.048071
-0.179520
0.402496
-0.299031
0.649131
-0.519894
0.724262
0.586513
0.115050
0.110017
-0.259131
0.674092
-0.030471
-0.819673
0.314008
-0.146314
0.802170
-1.240316
-0.573193
-1.384422
0.031823
-0.685027
1.306478
0.030618
-0.381162
1.414748
0.299617
-0.225485
-0.053355
-0.156754
0.490883
1.301625
-0.890168
-0.894886
-0.281904
0.143264
1.065229
-0.202785
-0.244928
1.015695
0.147659
-0.327812
-0.369252
1.050920
-0.903790
3.824728
0.342954
1.633170
-0.327083
-1.016188
-0.563939
0.891464
-0.128680
-0.475602
0.097312
-0.183691
-0.219149
-0.178909
0.428208
0.493111
-0.370878
-0.864536
-0.409891
-0.442140
0.414096
0.074367
0.249642
1.382297
0.006338
-0.626258
0.461310
0.577239
-0.211133
-0.023840
-0.393065
0.160702
1.712507
-0.703307
-0.396394
-0.250938
-0.338992
0.426541
-0.900891
0.081876
-0.068929
-0.211883
0.393077
-0.031469
0.211508
0.087167
-0.070930
-0.518511
-0.505079
-0.683700
-0.145552
1.264802
-2.235766
-0.037281
0.126723
0.250479
0.400484
0.611067
1.073933
-0.392979
0.118299
-1.311021
0.575210
1.571147
1.911263
0.283568
-0.199461
-0.597954
0.308968
0.320108
0.086967
0.748075
-0.732142
-0.216713
-0.217410
1.173763
0.843049
-0.139839
1.412798
-0.443877
-0.603953
-0.135253
-0.640090
-0.108598
-0.550065
1.182557
-0.507517
1.503767
0.000808
-0.946606
-0.129311
0.090912
-0.344128
-0.641280
-0.149283
-0.222948
0.749795
-0.471052
-0.104586
0.582756
0.455833
-0.008917
0.429018
-1.146617
-0.600626
2.165173
-0.637082
-0.220250
0.092329
0.149935
0.059428
0.795243
-0.670538
0.760953
1.938344
0.227135
-0.209961
2.592771
0.406990
-0.351565
0.281245
-0.591581
0.042925
-0.152536
-0.568321
-0.294029
0.259160
0.963174
-0.277137
0.430065
0.606956
-0.123395
0.555274
-0.238797
-0.299669
0.562464
-0.099219
0.119363
0.117179
-0.285869
0.255032
-0.505508
0.630726
0.289659
0.831462
2.484032
0.839592
0.400593
-0.861698
1.234339
-0.164846
-0.152956
-0.367485
0.873895
-1.222260
-0.124445
-0.068594
-0.872747
-0.056854
-0.085307
-0.043907
-0.438027
-1.131368
1.591355
2.091739
0.010419
1.553470
1.725417
0.482599
-0.007501
0.388209
0.025046
-0.162454
0.317744
0.229823
0.693332
-0.627835
-0.001169
0.244825
0.068608
0.026640
0.137066
0.972810
0.663557
-2.157201
0.609294
-0.824215
-0.205780
0.288767
-0.885629
0.395823
-0.092753
0.347037
-0.431588
0.568528
-0.145380
-0.128586
-0.039002
-0.061139
-0.201882
-0.149195
-0.615906
0.273373
0.725305
0.132454
-0.500160
-0.183349
0.682398
0.209986
-0.016931
-0.478110
-0.767232
-0.046780
-0.746881
-0.276353
0.472062
0.110931
0.726277
0.368094
-0.768231
-0.184220
-0.564425
0.055583
0.537662
0.462575
0.141346
-0.105395
-0.289197
1.567433
1.625178
0.028084
0.758300
0.499695
-0.718736
0.024554
-0.351417
0.822280
-0.202630
0.311662
0.174869
-0.363721
0.345367
0.189258
0.538167
1.156775
-0.514677
0.144284
-0.212292
-0.509266
0.218582
1.011842
0.072663
0.763867
-0.611624
-1.514167
0.202859
0.058023
1.258654
0.745441
0.348325
0.173419
-0.368575
1.440230
-0.242964
0.396339
-0.971335
0.115901
-0.025272
-0.230016
-0.355111
-1.332421
-0.584215
0.318704
-0.183583
-0.114913
0.044591
0.472215
-1.401481
-0.647311
-0.439904
-0.260161
-0.066368
0.352615
-0.321877
-0.105722
-0.993499
0.317607
0.848086
-0.399725
0.429780
0.848191
0.257962
1.580639
-0.277202
-0.482587
-0.138981
1.358342
2.042473
-0.314945
-0.517406
-0.240636
-0.554843
-1.458451
-0.031832
-0.510015
0.281233
1.029307
0.432787
-0.522287
0.456924
-1.075623
0.016989
0.119441
1.721126
0.213370
-0.214187
0.447276
0.633364
0.649971
-0.283949
0.709448
-0.195836
0.009689
-1.115760
-0.200812
0.575119
0.123197
-0.170528
0.790368
0.902583
-1.320882
-0.113552
0.873409
-1.598975
-0.433899
0.174799
-0.187813
-0.375106
-0.292801
-0.350154
0.047511
2.867452
0.790341
0.014945
0.024134
-0.046012
-0.136181
-0.181485
0.628988
0.565281
1.598228
0.406458
0.170428
-0.399920
1.140696
-0.538681
-0.142089
-0.836616
-0.674282
0.192504
-1.021978
0.170940
0.107609
0.804076
-0.490114
-0.152219
0.404605
0.104413
-0.701595
0.402370
1.037274
0.616576
0.000445
-1.079502
-0.115858
-1.513625
-0.495792
-0.070242
0.241259
-2.774250
0.278521
0.692460
-0.401615
0.322285
-0.178812
0.766620
-0.522576
-0.470080
0.382428
-0.742774
-0.674034
0.349744
0.399828
-0.523066
1.341148
-0.182969
-0.686145
0.279802
-0.214536
-0.014659
-0.038572
1.588828
-0.797884
-0.674527
0.182184
-1.103428
0.700691
1.448194
0.225334
1.209785
-0.431999
-0.143066
0.872705
0.966626
-1.777218
0.195930
-0.034777
-0.064220
-1.142249
0.553115
0.193234
-0.384867
-2.471362
0.401854
0.896995
0.216763
0.431560
0.557375
0.205929
-0.531641
1.187979
0.254478
-0.199969
-0.007768
-0.797728
1.216579
-0.922797
-0.799276
-0.018214
0.402112
