0.752269
0.367854
-0.781626
-0.346490
-1.010410
-0.388786
-0.166808
0.397027
-0.567485
-0.661515
1.558930
0.471674
-0.369727
0.597621
0.515047
-0.113762
0.135923
0.645153
0.558285
0.107272
0.149950
-0.972923
0.648606
-0.168898
0.330862
0.070666
-0.139603
0.685100
-0.577708
-0.096039
1.065387
-0.669125
0.247618
-1.106306
-0.768242
1.187302
0.621334
-1.468655
1.768589
0.067399
-0.630216
1.266229
0.470733
-0.461510
0.318560
0.014532
-0.394837
-0.367566
-0.177842
-1.089313
-0.652627
-0.560494
1.751246
0.441759
-0.230576
0.913109
0.012729
-0.372494
0.393287
0.767149
-1.049270
2.427487
0.991942
1.613457
-0.086707
-1.155853
0.086560
0.281669
-0.006087
0.192774
-0.170798
-1.259745
0.052504
0.111079
0.152130
1.036115
0.968579
-1.671354
-0.516542
0.317007
-0.955471
-0.146894
0.555193
-0.210306
-0.237269
-0.715356
-0.413677
-0.427802
0.803592
0.451332
-0.049391
1.180940
1.202107
-1.642401
-0.524176
-0.132252
-0.417247
0.858409
-0.537731
0.038634
0.072327
-0.154400
-1.169076
-0.570972
0.743126
-0.061180
-0.309292
-0.846092
-0.008132
-1.238216
-0.165552
0.628768
-1.632786
0.147692
-0.196995
-0.401287
0.283545
0.483620
2.952892
-0.413653
-0.204074
-1.157069
0.108353
-0.014048
0.949644
-0.377208
-0.507758
-0.761571
0.477863
0.710468
-0.574890
0.890369
-0.399098
-0.752914
0.191295
0.198811
-0.485671
-0.924598
2.868527
-0.395214
-0.375876
-0.095935
-0.409756
0.210753
-0.259714
-0.254080
-0.612388
1.420184
0.752191
-1.867042
0.308813
-0.657560
-0.387447
0.510293
-0.475331
-0.477514
0.497536
-0.122094
-0.220345
0.595394
0.537245
-0.040145
0.750229
-0.775043
-1.114125
2.147883
-0.315420
1.144018
-0.525264
-0.213170
0.521770
-0.156444
-0.906346
0.807366
2.453464
-0.217966
-0.013164
3.046049
1.054696
0.196538
0.533775
-0.187601
-0.451210
-0.031276
0.077942
-1.220275
0.592618
-0.069411
0.710613
0.312053
0.772289
0.346385
1.224294
-0.474197
0.200147
-0.090538
0.107805
0.145456
1.435704
-0.323697
0.603126
-0.979553
-1.040136
-0.308671
1.156768
0.666632
1.221268
-0.081711
0.323626
1.413900
-0.250477
-0.182841
0.162832
-1.585424
-0.565911
-1.082419
-0.135070
-0.626119
0.009820
0.453962
-0.389648
-0.061587
-1.057126
2.022996
0.778979
0.775021
-0.257617
2.428185
0.390207
-0.606665
1.378115
-0.466006
-0.093531
-0.152347
0.772182
0.056742
2.226438
0.050746
0.609137
0.754355
0.388400
0.512594
0.266814
0.558546
-3.311451
-0.137510
-1.086517
0.077919
1.301391
-1.542822
-0.229204
1.347781
0.585139
-0.332347
1.040236
-0.342541
-0.298564
-0.055012
-0.655279
-0.515456
-0.395992
-0.452158
-0.036709
-0.421524
0.236512
-0.578889
1.047252
0.679818
1.120711
1.335751
-1.171733
-0.750335
0.037903
-0.425576
-0.032300
-0.415137
-0.306403
0.313008
0.184655
-0.201223
0.946786
-0.580282
0.062509
-0.000800
0.291197
0.207070
-0.698385
-0.903081
2.196239
0.644679
0.375471
0.480699
0.086162
0.091221
0.382413
-0.538492
1.562915
-0.572249
0.133712
0.243471
0.131163
0.053236
-0.328649
0.287957
0.098733
-0.755689
0.780320
-0.695741
-1.056090
0.829519
0.798722
0.149100
-0.064756
-0.591512
-2.028532
-0.495911
0.286021
1.063584
-0.203753
-0.435811
0.572844
-0.396523
2.114575
0.466684
0.280831
-0.897833
0.376791
0.375773
0.625903
0.017844
-1.069629
-0.417317
0.820055
-0.564943
0.318622
0.285425
0.559361
-0.721762
-1.802689
0.002992
-0.207626
-0.062959
-0.360995
-0.580758
-0.303981
0.627909
0.090567
0.811434
-0.113493
0.953497
0.685025
0.770436
-0.107374
1.595976
-0.370768
-0.026032
0.445441
2.104553
-0.256555
-0.753767
-0.313211
0.453090
-0.917180
-0.764560
-0.397752
0.663823
-0.108026
0.887720
-0.412225
0.560097
-1.747965
0.234877
-0.196567
2.331650
-0.163619
0.288097
-0.910808
0.909635
1.390633
0.139732
1.088598
-0.194202
0.118367
-0.667348
-0.201060
0.702218
0.592800
-0.835497
0.621205
-0.136537
-0.060717
-0.484556
0.323782
-0.536708
-0.652113
0.092560
-0.352151
-0.505890
-0.434401
-0.861748
0.683894
2.005403
0.224764
0.524430
-0.182024
0.143210
-0.380009
0.519016
1.136836
-0.018550
1.135712
0.169151
-0.904031
-0.241056
0.324425
0.098070
0.143155
-1.263681
-0.381843
0.273071
-0.741862
-0.442863
-0.744761
-0.096986
-0.316107
0.203772
-0.418156
-0.459437
-0.151784
0.105602
0.732969
0.827256
1.455455
-0.468334
0.127753
-1.788027
-0.644654
-0.335623
0.080626
-2.373328
-0.189571
-0.283707
1.312874
0.444473
-1.021559
0.444628
-0.307784
-0.391858
0.688532
-0.703942
0.258365
1.122070
0.421888
-1.025156
0.424591
1.163316
-0.401931
0.082799
0.188140
-0.258685
-0.980484
0.857423
-0.828417
0.395306
-0.207829
-0.587450
1.068791
1.537781
-0.604580
0.965111
0.305439
-0.509299
0.396582
1.084459
-1.451244
0.999367
0.188399
0.826432
-0.355312
-0.206638
0.898988
0.005761
-2.287746
1.351516
-0.036988
-0.395665
-0.471331
0.278000
0.536260
-0.892075
1.598822
-0.258111
-0.231379
0.180182
-0.886432
0.676771
0.311319
-0.210174
-0.345050
0.097253
