-0.115773
0.532337
0.768195
0.201152
1.271444
0.287913
-0.160821
0.410238
0.128288
0.288221
-0.560435
-0.332345
-0.185098
-0.032860
-0.244501
-0.160113
0.160902
0.207267
0.147471
-0.282362
0.797873
-0.338863
0.074935
-0.683301
-0.135749
0.753422
-1.318850
0.168521
-0.019647
-0.608193
0.221044
-0.338871
0.400614
-0.306452
0.479098
-0.445643
0.025587
-1.312090
1.169112
0.097743
-0.922283
-0.141249
0.212741
0.848897
-1.184963
0.042138
0.920178
0.606045
0.804158
0.399000
0.082829
-1.240564
1.175558
-0.052791
-0.100166
-0.953989
0.436461
-0.925035
-3.148386
-0.170094
-1.356344
1.163007
1.090993
0.109393
-0.376960
-0.700296
-1.151465
-0.313452
-0.836397
0.097111
1.196471
0.299903
0.126487
-0.265772
0.010377
0.517069
0.738345
-1.071194
-0.263799
-0.150826
0.268971
0.457176
0.490739
-0.138969
0.619959
0.190666
0.112698
0.083989
-1.069816
-0.202718
-0.122243
-0.515306
-0.443850
-0.554177
-1.868602
-0.235700
-0.142394
0.252580
0.355728
-0.227027
0.122318
0.286134
0.336649
-0.403992
1.393263
-0.220901
-0.185830
0.154210
0.015340
-1.159057
0.047124
0.060000
0.774322
0.054707
0.230875
-0.117452
0.601573
2.404940
-0.809855
0.408741
0.111180
0.625453
0.643640
0.766457
0.744595
0.159097
0.457895
0.445524
0.351620
-0.140909
-0.026850
0.570679
-0.811651
-0.119821
1.134487
-1.165761
0.211633
0.336725
1.062677
0.320647
-0.145780
-0.338469
0.370369
0.216645
0.805805
0.187014
0.518871
0.747066
0.284375
0.712508
-0.295540
0.964039
-1.161831
-0.905896
-0.226983
0.340289
-0.142651
1.448375
0.452421
-0.333071
-0.538792
-0.095189
-0.260609
1.232446
0.605209
0.238622
0.192307
-1.228182
0.194679
0.189238
0.319453
0.234409
-0.383341
0.574923
0.834561
-0.256660
-0.400167
-0.135959
-0.285958
-0.170046
0.300620
-0.698595
0.638074
-0.119781
-0.202006
0.235064
-0.399329
-1.424469
-0.376183
0.259699
-0.432997
-0.768000
0.454253
-0.171472
-0.306486
0.148324
0.303325
-0.038569
-0.111663
-0.172571
-0.112694
-0.291396
-0.041792
1.310028
1.329490
-0.549129
0.176106
-0.652926
-0.573836
0.347968
-0.222091
-0.243108
0.128467
2.056139
0.602305
0.218814
-0.286095
0.777666
-0.129291
-0.209924
0.865179
2.441154
0.342707
-0.235873
-0.118505
0.986005
-0.103174
1.007614
-0.214896
0.471003
0.502995
0.597332
-0.101661
0.149742
-0.177718
0.372789
0.336920
0.354892
-0.473140
-1.359348
-0.075732
-0.736465
-0.093509
-0.067257
0.777207
0.652131
0.886023
0.399628
-0.103764
0.091780
-0.044513
0.812315
-0.141283
-0.168692
1.595074
-0.465914
0.101537
-1.459345
-0.380904
0.514336
0.241128
-0.354393
-0.486470
-0.212419
-0.728463
0.326620
-0.532632
-0.349043
0.548214
0.192280
0.262762
0.086417
-0.034698
-0.128356
0.468290
-0.857900
-0.406038
-0.248494
1.969901
0.111018
-0.377533
0.573927
-0.312391
-0.278269
2.139956
-0.411165
-0.572481
-0.538671
1.818394
0.099481
-0.525830
-0.311007
-1.651236
-0.080246
0.918892
0.007588
0.893467
-0.577805
0.034623
0.061796
0.302988
-0.493852
0.550306
0.047631
-0.334772
-0.188329
-0.002971
-0.043610
0.529924
0.765091
-1.094033
0.254581
0.171977
0.790539
0.468989
-0.630752
0.188710
0.325407
1.333096
0.428829
-0.345791
-0.281804
-0.004289
-0.466723
-0.307865
-0.022872
-0.369040
-0.465592
0.253771
-0.096820
0.675305
0.303941
0.598090
0.845131
0.286908
-0.295553
0.446637
0.119514
0.361429
-0.052589
0.053145
-0.055115
-0.230421
0.091077
-0.100521
1.639291
0.189847
0.041434
-0.181644
0.368256
0.029326
0.621394
-2.393730
0.680851
-0.057030
-0.348897
-0.357790
-0.613370
-0.330816
-0.376972
-0.095551
0.332587
-0.493141
-0.303171
-0.786039
0.062363
-0.709673
-0.075919
0.004093
0.062959
0.701056
0.312934
-0.142737
-1.372170
0.732824
0.027958
-0.719510
-1.000473
-1.301936
1.403843
0.526711
-0.188486
0.008706
-0.070136
-0.303414
1.654364
-0.455947
-0.695168
-0.071343
0.068606
0.792007
-0.310348
2.014803
-0.475040
0.068554
0.567116
-0.241837
0.935842
-0.156071
0.307568
0.151009
-0.937056
-0.392596
-0.149152
-0.670138
1.173984
0.715060
0.050091
-0.329568
-1.051496
0.696792
-0.017792
-1.613684
0.125932
-1.741089
0.349242
-0.279420
-1.653606
0.356066
-0.484689
1.007378
-0.751070
-0.093396
-0.310455
-0.276546
-1.190148
-1.433172
0.023031
-0.278635
0.160608
0.625870
-2.018672
0.095053
-0.509063
-0.350004
0.599020
0.222237
0.166169
-0.394821
1.986730
-0.232003
-0.546778
-0.070318
0.072458
-0.010780
0.093896
0.146958
-0.356531
0.333045
-0.785504
0.614050
-0.664590
1.432274
-0.920585
-0.421764
-0.369520
1.033166
0.012562
-0.203064
0.041789
-0.033029
0.285004
0.192213
0.753702
-0.776680
0.868398
0.751413
0.461623
-0.689565
-0.733294
-0.254459
-0.773585
-0.086848
0.371342
1.130382
-0.196255
0.446038
-1.875152
0.192932
0.532885
-0.108006
-0.622651
-0.278711
0.770657
1.252822
-0.245721
-0.607487
0.467078
-0.285490
-0.651346
0.380323
-0.132261
0.089829
-0.482447
-0.291547
-0.831045
-0.804287
1.540999
-1.134833
0.569076
