0.179029
0.300701
0.514539
0.085118
0.269906
0.072537
-0.225187
0.534127
0.686456
0.041685
-0.520418
0.360481
-0.018175
0.946478
-0.263328
-0.310691
0.173293
0.388845
0.284623
-0.314229
0.404965
0.740728
0.141696
0.007841
0.076415
0.744400
-1.106247
-0.003876
-1.266309
-0.607269
-0.124199
-0.432192
-0.044833
-0.741533
-0.537457
0.632963
0.039427
-1.314662
0.773271
-0.200277
-0.812506
0.262651
0.240475
0.089939
-0.080613
0.028527
0.410593
0.069598
0.766563
0.175212
-1.494519
-0.124595
0.276965
0.380877
0.117268
-0.308016
0.456875
-1.072180
-2.261492
0.193791
-1.043257
0.995615
0.625300
0.264771
-0.057796
-0.683871
-0.420929
-0.271070
-0.112096
-0.890498
0.710344
0.463022
0.180560
-0.512038
-0.130437
-0.145499
0.444121
-1.042539
-0.520427
-0.352380
-0.062034
0.757416
0.155048
-0.378099
-0.222273
-0.266175
-0.300130
-0.012680
-1.272283
0.344175
0.193434
0.039783
0.356129
-0.725922
-1.251136
-0.716582
0.049834
0.408410
-0.055277
0.168011
-0.158788
0.377320
-0.913621
-0.119094
1.448499
0.049978
-0.197072
-0.140299
0.013662
-0.681502
0.503180
0.152129
-0.372392
0.034524
-0.195064
0.032376
0.593544
1.932093
0.973177
0.221359
-0.202072
0.531749
-0.051946
-0.346511
0.211480
0.237200
0.703651
0.382370
0.389773
0.265169
0.242880
0.531484
-0.628985
-0.342249
1.925444
0.111424
0.043406
-0.753425
0.966726
-0.051613
0.099466
-0.078097
0.197898
0.366957
-0.049628
0.030059
0.320473
0.437659
0.072892
-0.524410
-0.131324
0.481067
-0.190865
-1.064548
-0.035134
-0.218828
0.993871
1.166226
0.255105
-0.116845
0.108637
-0.042722
-0.442043
-0.280384
-0.355538
1.461516
-0.055730
0.709680
-0.164401
0.187462
0.315438
-0.224510
-0.496995
0.639243
1.292016
-0.343910
-0.229176
0.921936
0.807713
-0.454180
0.237092
-0.155529
0.336565
0.097993
-0.234438
-0.232383
0.641332
-0.453773
0.003307
-0.113075
-0.053078
-1.131216
0.951114
0.028845
0.009909
0.123698
0.675566
-0.315905
0.328178
-0.099487
0.296532
-0.237974
-0.161728
0.417175
0.425618
-0.101590
0.758773
0.308060
0.601203
0.192137
-0.191245
-0.101411
0.106446
0.184122
0.529794
-0.000361
-0.360951
0.098781
0.137719
-0.383517
-0.396921
1.750367
0.071574
0.903015
0.490176
0.495578
-0.445646
1.194675
0.263919
-0.370266
0.602033
0.302143
0.096665
-0.093412
-0.241604
0.150588
1.036261
0.461415
-0.534895
-0.436220
-0.071835
-0.108098
0.129690
0.407579
-2.006813
-0.051210
0.225999
-0.006347
-0.081752
-0.602170
-0.618677
1.351585
0.279586
-0.127276
0.918836
0.098108
-0.188895
-0.487018
-0.598386
-0.415317
-0.267740
-0.175844
0.167326
0.434976
-0.339628
0.747043
0.011989
-0.025669
0.669202
0.136867
-0.153910
-0.246059
-0.299608
-0.279704
0.288627
-0.343913
-0.385436
0.242170
0.735307
0.228615
-0.228288
0.264702
-0.583795
-0.307218
0.215794
0.111584
-1.355927
-0.162202
1.265853
0.501450
-0.225951
-0.064963
-0.788626
0.025775
0.901629
0.116909
0.720213
-0.437686
-0.194236
0.244634
-0.046842
-0.138452
0.209119
-0.050817
-0.085613
-0.305597
0.185871
-0.354085
0.192692
0.423998
-0.615645
-0.045788
0.275825
0.204099
-0.292687
0.904355
-0.187959
0.389843
0.611500
-0.120160
0.043454
-0.104085
1.073434
-0.678386
-0.220008
0.149605
-0.368575
0.141762
-0.497631
-0.086976
0.309741
-0.033718
0.445305
0.141146
0.362962
-0.332461
0.152163
0.748204
-1.470756
0.107404
0.039502
-0.041718
-0.294281
0.034880
-0.103387
0.401934
0.226553
0.306851
0.006969
0.322916
0.689900
0.875500
-1.337060
0.436610
0.050978
0.003026
1.052365
0.662184
0.100850
-0.270165
-0.528165
-0.674191
0.002996
-0.661303
-0.127741
0.295735
0.043508
0.217841
-0.398896
0.099430
-0.103748
0.051170
-0.264228
0.025953
0.248601
0.058392
-0.652751
-0.102237
0.159443
1.224628
0.069459
-0.046559
0.176370
-0.150523
-0.463904
1.911028
-0.471169
-0.561396
-0.191839
-0.302423
0.586001
-0.201030
1.257398
-0.552331
0.518404
0.173218
0.186304
0.313698
-0.234664
-0.431925
-0.120469
1.056314
-0.183395
0.056913
-0.666927
0.542979
0.022346
0.691114
0.386880
0.505479
0.182788
0.219369
-0.655412
0.083179
-1.244911
0.081860
0.175276
-1.113660
0.245298
-0.336613
0.309305
-0.088083
-0.090920
-0.521124
0.131724
-0.382555
-0.693797
-0.366515
-0.541199
0.387188
0.702578
0.364650
1.450367
-0.519515
-0.054793
0.297631
-0.231433
-0.336766
-0.019467
0.391799
-0.094685
-1.071811
0.818727
1.302708
-0.272021
0.497902
0.117479
-0.222578
0.044432
-0.618071
2.786633
0.848049
1.966751
-0.840441
-0.604101
-1.604658
0.299392
-0.359118
-0.394455
0.352123
-0.518335
0.270389
0.107778
1.155209
-0.142447
-0.233704
0.132591
0.190361
-0.421138
0.035709
0.548441
-0.872119
-0.136941
-0.263104
0.233615
-0.104711
1.052163
-0.818781
0.117619
0.811489
0.333224
-0.187163
0.006252
0.564649
0.492846
0.001264
0.309071
0.526277
0.269597
-0.829252
0.771634
0.486380
-0.125577
-0.185490
-0.798589
0.183818
-0.474748
1.059649
-0.140494
0.693169
