0.615015
0.035174
0.023245
-0.556885
-0.598806
0.046104
0.031751
0.415916
0.504259
-0.303101
-0.003663
-0.547602
-0.006890
0.440186
0.159860
-0.272005
0.629398
0.490142
0.746353
-0.189955
0.146639
0.082967
0.265815
-0.196677
0.103832
-0.222939
-1.472603
0.038563
-0.006448
0.167463
0.509930
-0.411980
0.312435
-0.452432
-0.803999
0.584428
0.374699
0.176551
1.182368
0.159677
-0.615472
0.155413
0.309799
0.979890
-0.430524
0.076978
0.217762
0.315591
0.099894
0.629048
-0.190007
0.045721
1.443754
-0.299509
-0.148188
0.235230
0.149234
-0.359107
0.489795
0.413824
-1.154130
1.069234
0.211594
0.700911
-0.020983
-1.326461
-0.429968
0.172245
-0.194032
0.021557
0.098364
0.149856
0.328715
-0.331609
-0.337758
0.382876
1.018119
-0.003514
-0.316147
-0.110215
0.094702
0.548444
0.081107
0.359017
-0.386850
-0.610415
-0.027648
0.059463
-0.580585
0.109326
-0.005664
-0.177855
0.604265
0.662161
0.177096
-0.473730
-0.156361
0.575899
-0.038325
-0.034743
0.039814
-0.012525
-0.430282
0.080452
0.454252
-0.490236
-0.062751
-0.717490
-0.296511
-0.495957
-0.014138
0.125964
-0.671376
0.592314
-0.024119
-0.220444
-0.078063
0.631836
1.807187
-0.419339
-0.534748
-0.433922
0.228396
0.182049
0.747867
0.056391
-0.370571
-0.723574
0.379034
0.108643
0.035637
0.636243
-1.190802
-0.173859
0.785776
0.106757
-0.391702
-0.714988
1.511296
-0.702936
-0.510205
-0.123011
0.221277
-0.169103
-0.159034
0.626499
-0.021377
0.864397
0.231724
-0.128539
0.298453
-0.132626
-0.302351
-0.645241
0.287795
-0.679487
0.658027
0.329271
0.243328
0.246157
-0.514703
-0.184393
0.002000
-0.095183
-0.191848
0.149131
0.797804
0.205206
-0.318637
-0.265158
0.470156
0.481426
-0.382151
0.284043
0.014421
0.009509
-0.381401
1.297196
1.034739
-0.008305
0.248912
-0.673518
0.822114
-0.096355
0.483587
-0.607340
-0.013862
-0.067208
0.220978
0.820367
0.160432
-0.297383
0.950068
0.068941
-0.125823
-0.286721
-0.305125
-0.294648
0.724645
-0.167767
0.321446
-0.673833
0.072392
-0.645847
1.435067
0.018221
0.004224
-0.007025
-0.718082
1.198820
0.029825
-0.077172
0.297903
-0.429405
-0.033749
-0.081872
0.045516
-0.346524
-0.007095
-0.105981
-0.001961
0.567062
0.233334
0.805677
0.526432
-0.044308
-0.801647
1.374831
0.483354
-0.004598
0.693067
0.872213
-0.031845
0.088512
-0.017667
0.077929
1.570876
0.114733
-0.166256
0.022150
-0.441153
-0.260142
-0.117663
0.034238
-2.048860
0.062095
-0.108056
-0.124944
0.553271
-0.779483
-0.693122
0.954359
0.783284
-0.239102
0.606414
0.009826
-0.244584
-0.657586
-0.662814
-0.105061
1.146362
-0.111391
0.308181
0.327706
-0.192960
0.184111
0.464637
0.169319
0.522251
0.708072
-0.635894
-0.045577
-0.370253
-0.345925
-0.033743
-0.093681
-0.326207
-0.014151
0.914253
0.082350
-0.019210
-0.027932
-0.141093
-0.097311
0.598269
-0.403315
-0.500637
-0.312917
1.707444
0.222615
-0.212816
0.061378
-0.442433
-0.123188
-0.706804
-0.034808
0.336567
-0.573936
-0.017673
0.284298
0.398027
-0.335605
0.455664
0.424878
-0.139243
-0.608763
1.268301
-0.348232
-0.849386
-0.000457
0.322587
-0.246134
0.422678
-0.615895
0.108505
0.180409
0.473617
1.073390
-0.166871
-0.038276
-0.110084
-0.222816
0.880855
0.199266
0.018376
-0.256061
0.007097
-0.026403
0.766756
-0.475696
-0.429085
-0.098724
0.764503
-0.001169
0.211775
-0.092040
0.139078
-1.116637
-1.180987
-0.345867
-0.241842
-0.067347
-0.348229
-0.076035
-0.374208
0.540622
-0.036545
0.610824
0.512726
0.909311
-0.174645
0.182801
-0.257784
1.423020
-0.275431
-0.022142
0.105008
0.616383
-0.305423
-0.589384
-0.105018
-0.135840
-0.841047
-0.213950
-0.384697
0.134729
0.285735
0.433416
0.056237
0.165327
-0.117608
0.232726
-0.268906
0.855718
0.048872
0.330732
-0.779472
0.731119
0.373718
1.487264
0.478031
-0.069756
0.202827
-0.579788
-0.199998
1.588692
-0.216261
-0.410870
1.274790
0.120838
-0.207957
-0.417529
0.137815
0.052084
0.172253
0.295683
-0.442672
0.164547
-0.190197
0.473205
0.022931
1.084429
0.319990
-0.560790
-0.746873
0.041421
1.076551
0.662336
0.750345
-0.443381
0.596428
0.597528
-0.507982
-0.114225
-0.427949
0.017617
-0.151731
-1.060171
-0.482021
0.092512
-0.367491
-0.205217
-0.460969
-0.433182
0.106468
1.567449
-0.203096
-0.012370
-0.318900
0.000384
1.617022
-0.466503
1.489898
-0.338925
0.249839
-0.292794
-0.559133
0.061950
-0.207586
-1.010296
-0.582520
0.349451
0.463013
0.683752
0.019428
-0.195247
-0.136917
-0.402070
0.958948
-0.959462
0.068774
0.617021
-0.021703
-0.043031
-0.138299
-0.395729
0.123354
-0.191573
-0.152577
-0.477436
-0.538188
0.826526
-0.737744
-0.476863
0.911342
-0.238446
0.674184
0.706585
-0.463320
0.475488
0.476204
-0.873925
0.676957
0.569522
-0.173954
0.512094
0.144251
0.344315
-0.387551
0.414340
0.430903
-0.422590
-0.172883
0.951879
0.241983
0.008583
-0.290766
0.710006
0.128581
0.404154
0.404699
-0.182584
-0.171440
-0.190300
0.191074
0.063263
0.924720
-0.287254
0.118245
0.077949
