-0.043067
0.042849
0.327118
-0.826638
0.724773
-0.180937
0.602888
-0.533357
0.120602
0.588892
0.546133
-0.527209
-0.566500
0.488666
1.205876
0.103787
0.129433
-0.156040
-0.178291
0.188455
-0.005457
-0.326945
0.522751
-0.044121
0.081494
-0.556029
-1.741345
0.428076
0.440049
-1.352708
0.311032
0.366947
0.288368
-0.101831
0.409993
-0.074473
-0.120186
-0.991969
1.847825
-0.507662
-1.663132
1.256170
-0.127166
-1.089931
-0.281631
-0.287697
0.438618
-0.241957
-0.210705
-0.540328
-0.509958
-0.520328
1.922958
0.044697
-0.487124
-0.846506
0.156077
-0.808891
-1.227812
-0.114347
-1.650852
1.080647
-0.479809
1.119553
0.965046
-1.439702
-0.086183
-0.244678
-0.968038
-0.182879
-0.122230
-0.253190
0.566558
0.188344
-0.360174
0.112707
-0.271086
0.019815
-0.743561
-0.145240
-1.434671
-0.022826
-0.414184
-1.189215
-0.641831
-0.403342
0.027473
-0.721057
0.051164
-0.088858
-0.023099
1.022556
0.092945
-0.885195
-1.213309
0.570816
-0.227722
0.322638
-0.174357
0.569693
-0.029180
0.017305
-0.136364
-1.240031
0.912983
-0.295551
-0.132311
0.554232
-0.077997
-1.108433
-0.111541
0.416233
-0.794527
0.969212
-0.628902
0.701321
-0.068688
-0.004767
0.409217
-0.292946
-0.202582
0.488747
-0.182404
0.020351
0.220038
0.203044
0.096603
-1.624904
0.431687
0.774883
0.042466
0.768365
-0.822714
-0.370483
1.438023
-0.476048
1.495716
-0.335435
2.790855
0.009667
-0.705511
-0.252926
0.719947
-0.163720
0.531273
-0.340926
-0.515268
-0.241382
0.417361
-0.218456
-0.150687
-0.840003
-0.847103
-0.219243
-0.705635
-0.358248
-0.966084
0.749131
-0.295968
-0.337937
-0.215411
-0.050014
-0.045703
1.165599
0.288751
1.181046
-0.411394
1.050032
-0.615976
-0.539602
-0.112241
-0.080641
-0.936561
0.516562
0.217291
0.405855
-0.507407
0.999367
0.491861
-0.367337
1.615963
-0.260634
-0.065200
-0.147348
-0.068311
-0.158569
0.581543
-0.731305
1.065577
0.648645
-0.491586
-0.756677
-0.173285
0.498884
0.083099
-0.949144
0.366487
0.581586
0.568512
-0.429292
0.213798
-0.172439
-0.093958
-0.129218
0.637964
0.651634
1.365474
-0.947267
2.899487
-0.445514
-0.309373
-0.527405
-0.261697
0.093867
0.096908
0.138434
-0.145402
0.105599
-0.344182
0.200729
2.069840
0.483219
-0.266395
0.204210
-0.145232
0.925777
-0.382094
2.237527
-0.406688
0.110453
1.888740
0.362278
-0.238311
1.224900
-0.664820
-1.134673
0.067671
0.356434
0.451302
1.676805
0.408729
-0.218219
0.754325
0.970312
-1.908366
-0.054108
-0.771592
-0.224302
1.697338
-1.209219
0.207278
0.803227
0.503900
-0.273164
0.649354
-0.642960
0.695023
-1.373451
-0.278363
-1.004284
-0.853749
0.489832
-0.370014
-0.223071
0.683017
-0.253177
-0.278274
1.431973
0.567689
1.752697
-0.338395
-0.024735
-0.370337
-0.303602
0.206506
-0.091582
-0.504883
-0.117535
1.349315
-0.708467
-0.427167
-0.339279
2.423503
-0.309677
-0.484507
-0.452647
0.701291
-0.715122
1.618468
0.935535
0.456009
0.412770
0.413314
-0.618821
0.174017
0.123149
-0.199279
-0.379655
0.003729
-0.577374
-0.089272
-0.010758
0.231160
0.142823
-0.427078
-0.177849
0.360333
-0.232771
-0.125078
0.147317
1.584230
0.132049
-0.250242
0.217134
-0.798047
0.340641
-0.075877
-0.155352
0.174453
-0.118913
0.392502
-0.406192
0.923670
0.506170
1.163309
-0.116962
0.217940
1.509929
-0.287273
0.250700
-0.495020
0.102553
0.836575
-0.035426
-0.199930
-0.595017
0.055649
0.402597
-1.166246
0.219177
-0.327980
-0.060726
-0.062347
-0.421354
-0.635760
0.010196
-0.401311
-0.520895
-0.019544
0.825906
-0.397870
1.201891
-0.563653
0.242939
-0.424981
-0.255987
-2.294105
0.778976
-0.397851
-0.072713
0.959879
0.313558
-0.339033
0.286413
0.697483
-0.234484
-0.285332
0.023512
-0.193648
-0.433619
-0.537617
0.027915
-0.410585
0.853601
-0.289152
-0.421696
-0.495317
0.893164
0.993318
0.180321
0.347902
-0.452919
-0.045246
0.622028
0.183880
0.344360
1.800466
-0.278123
-0.040922
-0.060003
0.036209
-0.191349
0.511450
0.383189
-0.090595
1.141576
-0.373926
0.134067
-0.553293
-0.029519
-0.135385
-0.031911
-0.058392
0.091060
-0.864326
-0.108077
1.149895
0.535756
-0.459274
-0.131481
0.346860
-0.554076
0.198713
0.396743
0.208077
0.441730
-0.520644
-1.461930
-0.058673
-0.654862
0.079099
-0.498598
-0.391649
-0.238671
-0.152955
-0.879393
-0.296651
-0.220706
0.610467
-0.408611
-0.943836
0.902043
-0.173219
0.981665
-0.100073
-0.881694
-0.390563
-0.046891
-0.065264
1.062151
-0.427798
-0.809000
0.191714
-0.138647
0.057764
0.424027
-1.129072
0.000463
-0.837664
-1.219503
3.240589
0.775537
0.812104
-0.743576
1.419888
0.553404
0.005188
-0.015227
-1.214028
-0.155030
0.294763
-0.091923
0.497487
-0.302277
-0.479528
0.953661
0.208641
-0.108052
-0.301366
0.427848
0.116729
-0.709689
-0.303233
0.869511
-0.302934
0.328483
-0.313869
0.267893
-0.802750
0.766383
0.080989
-1.029652
-0.305948
1.495440
0.566917
-0.845650
-0.268893
-0.086390
-1.462537
1.029293
0.031931
-0.751882
-0.254847
0.231759
0.312858
-0.516419
0.576899
0.789740
1.820245
0.261935
