0.271064
1.202071
-0.433229
0.252852
0.271271
-0.513163
0.005668
0.443696
-0.321855
-0.084273
0.696567
-0.316117
0.063869
0.696868
0.419340
0.069344
1.169422
0.113326
-0.242296
0.079226
0.127886
-0.627584
0.347473
0.259531
0.316285
-0.356506
-0.496685
-0.144609
0.568835
0.724051
0.779405
-0.107369
0.504220
-0.431581
0.062637
-1.506592
0.119991
-0.777638
1.509563
0.056249
-0.617139
0.753048
0.174356
0.017470
-0.011693
0.137173
-0.565606
1.212632
-0.087892
-0.649442
0.813227
-0.256261
1.254176
-0.638318
-0.414829
0.573149
0.096251
-0.799715
-1.140730
0.262316
-0.819577
1.810784
0.483805
0.873998
0.032204
-0.338100
-0.678570
0.276209
-0.020950
-0.019385
0.058174
-0.909084
-0.033358
-0.162997
0.110158
0.725214
0.152098
-0.649610
-0.485554
-0.908891
-0.323205
0.268388
0.373917
0.100337
0.152910
-0.427877
-0.314397
0.234457
0.280565
-0.140269
-0.236156
0.964172
0.622881
-1.038494
-0.760483
0.284340
-0.423897
0.071028
-0.425705
-0.001047
0.351472
-0.756719
0.688973
-0.172310
0.605645
0.180663
-0.125497
-0.219948
-0.257357
-0.825676
-0.067262
1.221799
-0.786039
0.649514
0.101480
-0.254264
0.659455
0.495602
0.498721
0.114388
-0.178802
-0.553764
0.225365
1.354372
1.329969
0.691918
0.084937
-0.725809
0.088582
0.110034
0.932072
0.817746
-0.375017
0.692257
0.305744
0.117955
-0.911967
-0.601529
1.386193
0.153488
-0.411024
-0.176760
-0.273283
0.287131
-0.215261
0.159230
-0.052645
1.233093
0.447138
-0.973708
-0.495965
0.036212
-0.013408
-0.017986
-0.152556
-0.052214
-0.788870
0.014075
-0.118223
2.130930
0.099371
0.275296
0.174917
-0.291957
-0.330267
1.451843
0.036616
-0.005238
-0.233931
-0.085882
0.076167
0.130656
-0.818043
0.611368
1.635001
-0.030389
0.002003
1.004404
-0.082397
-0.362089
0.579669
-0.538551
0.014574
-0.004039
-0.372197
-0.144024
0.192063
0.223047
0.341354
0.371901
-0.018317
0.218845
-0.341925
-0.052341
-0.195922
0.229253
-0.142501
0.006240
0.108343
-0.144000
0.012745
-0.745527
0.377144
0.738840
0.236381
0.111964
-0.002136
-0.304008
-0.129238
0.855945
-0.196297
-0.230437
0.325122
0.265739
-0.213288
0.074414
0.264600
-0.200397
-0.169772
0.193349
-0.500585
0.273435
-0.154643
0.643468
0.514360
0.083977
0.551410
1.010355
0.454895
0.044506
0.768738
-0.155432
-0.164260
0.011082
-0.138560
0.372524
-1.498936
0.062758
1.054362
0.165321
-0.215911
0.200278
-0.537826
0.361470
-1.949602
0.376224
-1.129503
-0.099038
0.656210
-0.606841
-0.540691
0.316176
0.605453
-0.237506
0.206447
-0.195083
-0.012148
-0.358077
-0.203864
-0.038042
-0.201844
-0.517419
-0.022172
0.630327
0.127014
-0.509249
-0.072900
0.418973
0.131964
0.228480
-0.307497
-0.362012
0.209691
-0.244139
-0.026271
0.056689
-0.222102
0.172102
1.049424
0.013756
-0.356011
-0.536254
0.646940
0.281423
0.861308
0.045758
-0.313054
-0.445245
1.079638
0.474029
0.147773
0.118766
-0.067280
-0.548238
0.387204
-0.256120
0.534178
-0.157559
0.505919
0.119077
-0.127968
0.015255
0.460245
0.378097
0.639488
0.086519
0.355986
-0.404291
-0.506285
0.407106
0.169067
-0.506475
0.506440
-0.091815
-1.118881
0.256052
0.149937
0.636055
0.643703
0.569159
0.117320
-0.126358
0.074004
-0.376329
0.228506
-0.480333
0.600454
0.197817
-0.149201
-0.455968
-0.458341
0.051016
0.311350
-0.294989
-0.163120
0.252927
0.698904
-0.431940
-0.455717
-0.152773
-0.182752
-0.176563
-0.006714
-0.158221
-0.443679
-0.024109
0.078535
0.578947
-0.416536
0.530949
1.133206
0.483474
-0.025278
-0.445290
-0.406383
-0.441667
0.501521
0.245947
-0.356910
0.312694
0.125153
0.138109
-0.937214
-0.374746
-0.514821
0.205998
2.544219
0.285430
-0.819623
0.554708
-0.777048
0.430394
-0.172759
0.293879
0.315246
-0.139426
-0.542137
-0.267988
0.032872
-0.010030
0.829069
-0.141137
-0.137802
-1.785772
-0.226738
0.717578
0.135244
-0.503351
-0.327145
0.067490
-0.679126
-0.203130
0.606012
-0.925442
0.146755
0.400101
0.043241
-0.153994
-0.414696
-0.352799
0.175658
1.915488
0.392803
-0.059625
-0.144195
-0.561058
0.178498
-0.096847
0.008032
-0.081070
1.295622
0.336565
-0.915695
-0.026949
0.737902
0.072365
0.108081
-0.592447
-0.041488
1.042012
-0.141260
-0.364442
-0.468081
0.366521
-0.251739
-0.740222
0.598406
-0.052191
-0.497651
-0.635091
0.403075
0.319345
0.158925
-0.874227
-0.326859
-0.603132
-0.428839
0.184636
-0.265388
-1.087448
-0.161219
0.136010
-0.810991
-0.204897
-0.385267
0.052261
-0.359360
-0.642224
0.113470
-0.304238
-0.208055
0.508552
0.555259
-0.389650
1.080572
0.481904
-0.090159
-0.264417
-0.107383
0.042716
-0.699300
0.951715
-0.017659
-0.517512
0.131394
-0.518230
0.563885
1.072368
-0.044701
0.092847
-0.065226
-0.188550
0.208952
0.966280
-0.793133
0.617939
-0.422466
0.081016
-0.879164
-0.199255
0.323437
0.051733
-1.995543
0.531184
0.308955
-0.125471
-0.399947
0.452040
1.813134
-0.354099
0.912745
-0.763910
-0.007805
-0.158892
-0.519779
-0.221568
-0.120042
-0.089985
-0.158523
0.140211
