0.298509
-0.355383
0.498124
-0.572663
-0.140355
-0.159182
0.481469
-0.741708
0.164659
0.482383
0.090445
-1.098981
0.134035
-0.149660
0.262570
0.167153
-0.152765
0.263721
0.195767
0.617107
-0.735959
-0.622793
-0.485783
-0.479001
0.245675
-0.634401
-0.689183
-0.386898
0.446219
0.868504
0.450506
0.467410
-0.275218
-0.014474
0.350397
1.219650
0.095548
0.068127
0.794245
0.185262
-0.185893
-0.161309
1.268011
0.078240
0.149182
-0.101503
-2.256420
-0.408862
-0.425886
0.569979
0.369238
-0.331130
1.196055
-0.757290
-0.244358
-0.430169
-0.145492
1.090019
2.534350
-0.075584
-0.265972
-0.357116
0.248629
-0.307731
-0.282451
-0.402243
-0.262931
0.028734
-0.093476
0.913197
-0.373262
-0.367591
-0.282858
0.252987
-0.071271
0.727114
0.552832
0.533558
-0.547161
-0.424599
-0.040037
-0.581933
0.026309
-0.306274
0.145780
-0.279915
0.186714
0.438347
-0.312626
0.078633
-0.203073
0.297944
-0.289534
0.799572
0.444396
0.502234
0.031911
0.151701
0.008545
0.352841
0.090269
-0.229407
0.357555
0.047678
-0.304367
-0.070543
0.033168
-0.098652
0.289012
-0.487610
-0.122992
0.293662
-0.208226
-0.334407
-0.089074
-0.793364
-0.715476
-1.218074
0.799081
-0.387215
-0.534229
-0.174448
-0.453391
-1.000790
-0.973213
-0.063851
-0.943708
-1.172483
0.379571
-0.292812
1.186614
0.121554
0.141985
0.940887
-1.040912
-0.228989
0.117661
-0.444527
1.717055
-0.126402
-0.727389
-0.309297
0.198316
-0.613549
-0.044699
-1.634757
-0.000897
0.325610
0.325431
-0.750225
0.627490
-0.877547
0.214298
-0.241445
0.171035
0.390981
-0.225124
0.726634
-0.009742
0.384102
-0.963041
0.380402
0.123063
0.916151
0.076808
-1.238016
1.163585
0.320036
-1.394882
-0.258753
0.196970
-0.603824
0.323037
-0.291947
-1.081694
0.564774
-0.315305
-0.641317
-0.173669
0.000291
0.845425
-0.964351
0.966132
-0.434765
0.399893
-0.238897
-0.061357
-0.479324
1.299690
0.285939
0.404117
0.768427
0.021760
0.066021
0.131293
-0.455629
-0.150824
0.462067
0.562218
-0.280905
-0.180729
-1.176969
0.041351
-1.145398
1.697216
-0.353454
-0.402029
-0.374067
1.148871
-0.614617
-0.002901
-0.321105
-0.396498
0.070242
-0.158697
0.458092
0.196246
-0.031216
-0.527075
0.427929
0.231359
-1.216954
0.336055
-0.463534
-1.922099
0.834174
0.498226
1.126255
-0.192623
-0.425011
0.837397
0.126320
-0.224216
0.095753
0.585198
-1.842949
0.114291
0.317472
0.215935
-0.946330
-0.836097
0.138047
-0.229409
0.279811
-1.741449
0.187620
-0.254177
-0.775298
0.963027
-0.912887
-0.195956
0.875962
0.185391
-0.052852
0.865981
0.016732
-0.195635
-0.516692
-0.484889
0.334736
1.165905
0.043632
-0.414021
-0.198521
0.501101
0.239449
-0.059733
0.396360
-0.151965
0.673694
-1.029227
0.130306
-0.074587
-0.319432
-0.303323
-0.153485
0.039183
-0.432631
-0.385487
-0.930790
-0.159096
0.018486
1.326245
0.156677
1.591693
-0.105584
1.324044
-0.335332
1.646911
0.769823
0.647836
-0.050509
-0.182821
-0.020493
-0.948804
-0.247499
0.294756
-0.087944
-0.237775
-0.265844
0.532181
0.026550
0.334922
-0.360706
-0.057896
-0.232514
-0.442749
0.170225
-0.018383
0.268754
0.541691
0.479735
-0.040801
-0.681761
0.976607
0.746349
0.432909
-0.025379
-0.760596
0.836935
-0.203683
-0.269479
-0.233532
0.564603
0.162532
-0.466479
-0.040922
-0.118063
0.226386
-0.061668
-0.522563
0.190549
0.634130
-0.381665
0.414300
0.009181
0.512687
-0.999279
0.273830
0.048073
-0.442092
-0.199341
0.014561
-0.383074
-0.439952
0.833022
-0.689810
0.050297
0.704701
-0.422342
0.299551
-0.528879
-0.629813
0.578411
-0.255298
0.248740
-0.396354
0.125746
-0.252188
0.941072
0.478077
-0.376119
0.400878
0.027414
0.698902
0.087214
2.155715
-0.043448
-0.337876
0.833167
-0.578292
0.312549
-0.091436
0.155357
-0.230953
0.171932
-0.884514
0.369807
-0.423099
0.274894
0.260690
-0.237671
-0.156625
-0.872292
0.619768
-0.275681
0.502389
-0.270171
1.221519
-0.052972
0.552590
0.006280
-0.988040
1.300070
-1.530282
-0.629103
0.119702
-0.422479
-0.186548
0.152667
-0.311280
1.400568
0.005217
-0.618177
-0.902032
0.252476
1.761081
0.308261
-0.184489
-0.868407
-0.255645
-0.340826
-0.484114
-0.306314
0.022067
0.123966
0.696891
0.168370
-0.084631
1.025028
-0.543289
-0.047258
-0.252242
-0.001363
-0.120368
0.919333
-0.003327
0.294055
1.452699
-0.077541
0.344811
-0.715974
-1.236972
0.007210
-0.149348
-0.504409
0.127396
-0.339255
-0.384542
0.660603
-0.533538
0.432326
0.373101
0.698213
-0.301473
-0.818321
-0.029737
0.056363
-0.233112
-0.451987
-1.262711
-0.213493
-0.405005
0.305254
0.737944
0.960147
0.169963
0.234022
0.555066
-0.343041
-1.064048
0.221185
0.895489
-0.865721
-0.386282
0.285878
-0.019719
-0.361904
-0.350023
-0.319399
-0.238427
-0.273072
0.183936
0.657843
0.296885
0.211973
-0.794675
-0.117614
-0.039806
-0.384759
-0.270427
0.141094
-1.028254
-0.200481
-0.694778
0.625046
0.049365
-0.102619
0.984087
0.814102
-0.751898
-0.903562
-0.004819
-0.224225
0.604541
0.346193
0.026177
0.701800
-0.308415
-0.950093
