-0.141994
0.442936
-0.272443
0.004351
0.355268
-0.974371
-0.519661
1.211679
-0.201281
-0.238266
0.218185
-0.817606
-0.716305
0.871625
0.353280
-0.196001
0.227771
0.022632
0.320909
0.284727
0.434658
-0.528760
0.286512
-0.304098
-0.103933
-0.041907
-0.655175
0.655363
0.389645
0.280588
0.746054
-1.478934
0.581557
-0.682370
-0.816573
-0.268482
0.361734
-0.668315
-0.096987
0.347471
-0.202583
0.451606
-0.582612
-0.201698
-0.435174
0.009370
0.550701
0.283175
-0.558153
-0.668535
0.593143
-0.338822
0.622220
-0.034889
-0.241830
0.821571
0.317703
-0.635737
-0.883616
0.225416
-1.234125
1.959457
-0.008575
1.368294
0.300814
-1.291251
-0.618528
0.870527
-0.328659
-0.383671
0.357976
-0.411384
0.270216
-0.010855
-0.023308
0.393739
0.449001
-1.217847
-0.260184
-0.312025
-0.518787
0.583502
-0.019526
0.748497
-0.370379
-0.542183
-0.183993
0.054079
-0.599931
-0.269501
-0.113990
-0.085780
0.846690
-0.178960
-2.181130
0.178525
-0.479774
0.109760
-0.370670
-0.422075
1.079742
-0.262989
-0.064756
-0.971207
0.825332
-0.370997
-0.464775
-0.492014
-0.287589
-0.959569
-0.053483
0.057208
-1.154923
1.652134
-0.316647
-0.044935
1.314447
0.511854
-0.572860
0.357397
-0.102450
-0.353349
-0.018521
0.704321
1.190762
0.099136
0.701838
-1.035541
0.108131
0.627957
-0.202500
0.299501
-0.954895
0.640048
0.589966
0.475629
-0.462625
0.375360
1.281609
-0.810265
-0.155808
-0.177421
0.000269
0.932068
0.430689
0.860855
-0.225421
0.682106
1.097768
0.494379
-0.169784
-0.086800
-0.579951
-1.080245
0.035678
-0.265667
0.047986
-0.943813
-0.006284
0.559014
0.484001
0.066921
-0.037608
-0.536858
-0.089335
2.137706
-0.077732
-0.913763
-0.525712
-0.316190
0.316817
0.419853
0.258611
0.795869
1.438807
-0.412255
-0.204045
2.361693
0.250766
-0.681182
0.197504
-0.398286
-0.002282
-0.134493
-0.168245
-0.477411
-0.364960
0.802794
-0.239611
-0.318842
0.166100
0.288031
-0.173914
0.017484
0.144612
0.003495
-0.317703
0.018013
0.285479
-0.150588
-0.068706
0.300461
-0.710054
0.417634
-0.069245
0.515216
1.103656
-0.239197
-0.423321
1.152316
-0.139650
-0.123585
0.484162
0.761843
-0.354690
0.034510
-0.416602
0.048220
0.336835
-0.377925
1.090587
0.240838
0.415408
0.716753
1.590818
1.001278
0.128294
0.878910
-0.356955
0.294645
1.689059
-0.124624
-0.053004
0.148210
-0.041732
0.626602
0.285621
0.115431
-0.494179
0.520660
-0.135416
-0.395360
0.115195
0.393784
0.134537
0.322924
-0.550765
0.124456
0.284979
0.364555
-0.069755
1.018881
-0.535100
-0.202798
0.551747
-0.508994
0.086199
-0.520125
-0.306695
-0.012273
-1.394291
-0.005094
0.742653
0.168063
-0.013015
-0.660545
-0.634220
-0.675010
0.792413
0.314767
-0.345891
-0.343671
0.006205
0.042789
-0.130329
-0.202995
-0.373482
0.548029
1.160838
0.264303
-0.450672
-0.397341
0.348985
-0.901014
-0.175998
-0.419838
-0.156874
-0.138932
0.838113
0.544946
-0.361419
0.092773
0.386247
-0.506445
1.061324
-0.442251
-0.077050
-0.383495
1.086486
-0.269465
-0.135620
0.001317
0.704208
0.932186
-0.233469
-0.356451
1.015029
-0.146902
-0.757363
0.619541
-0.585739
-0.027485
0.569004
0.685299
-1.172808
-0.518886
0.153058
1.249299
0.468870
0.048998
-0.365460
-0.095652
0.630576
-0.442995
0.109060
0.428993
0.048640
0.159829
-0.039370
-0.220997
-0.197993
-0.061067
0.341072
-0.172295
-0.137620
0.403867
-0.084231
0.905549
-0.006143
-0.481724
0.040044
0.125187
-0.023962
-0.139166
-0.477824
-0.998550
0.018336
0.836102
-0.413667
1.365938
0.103755
1.049794
0.086568
0.010745
-0.237753
-0.544463
-0.674706
0.174883
-0.284669
-0.473565
0.186296
0.417593
-0.864606
-0.050883
-0.704397
0.191886
-0.449717
0.201217
-0.585159
-0.362472
-0.449328
0.197049
-0.154559
0.189485
0.279878
0.229594
-0.740558
-0.239192
0.327506
-0.051002
0.567248
-0.234831
-0.003735
-0.228892
-0.349792
0.687463
-0.039367
-0.061864
-0.024518
0.106148
0.086830
-0.190245
1.208178
-0.907471
1.180723
1.241139
0.229533
0.123093
-0.241303
-0.006495
-0.104351
0.233563
1.001703
0.302470
0.117222
-0.465275
-0.495992
-0.317134
0.351390
0.648262
0.827114
-0.042046
-0.410703
0.147802
0.212179
0.459462
-0.267483
-1.753885
-0.100033
-0.140210
0.548014
-0.205165
-0.446173
-0.805665
-0.096431
-0.906383
0.944593
0.039306
-0.553564
-0.443686
0.149120
0.069987
1.857639
-0.316827
-0.011912
0.061510
-0.163876
0.308921
0.098565
-1.594903
-0.145465
-0.210173
-0.448400
-0.460397
-0.326290
0.376851
0.065126
-0.259385
0.170172
-0.726737
0.519431
-0.583859
0.923500
-0.417090
-0.221696
0.326083
-0.125883
-0.278350
-0.450658
-0.130294
0.234405
0.403005
-0.107838
0.063443
1.633454
0.810127
0.982244
1.201130
-0.366535
0.559958
-0.298602
-0.321284
0.500997
0.451381
-1.154378
0.123813
-0.131602
-0.782639
-1.053749
0.365774
-0.052132
-0.702499
-0.862780
0.703212
1.015238
0.079721
-0.017663
0.846160
-0.092922
0.230440
0.939416
-0.907844
-0.144000
0.301303
-0.737979
-0.105943
-1.726537
-1.178505
-0.224739
1.635813
