0.901487
-0.013065
0.898280
-0.289781
-0.278153
-0.251983
0.664099
-0.134445
0.523174
1.303623
0.211847
0.352362
0.231117
0.836064
-0.183015
-0.121702
0.438571
-0.111143
0.745733
0.722787
-0.013096
-0.151465
0.075756
-0.109297
-0.022089
2.125733
0.043538
-0.028385
-0.392586
0.201726
0.157767
-0.084304
-0.065896
-0.265867
0.171994
-0.142609
0.092773
1.062134
0.798413
0.175452
-0.023765
0.091370
0.621591
0.751064
0.033041
-0.044293
-0.169537
0.477795
0.312712
1.168872
-0.204762
-1.070172
0.812214
-0.300648
-0.059420
-0.252448
0.635859
1.079081
3.165557
0.458101
-0.346404
1.322905
1.100933
0.437034
-0.642990
-1.144843
0.056122
-0.372719
0.227486
0.643321
0.287036
-0.115406
-0.194066
0.140418
-0.917195
0.278158
0.331642
0.213901
-0.199783
-0.654225
-0.425150
-0.163470
0.323622
0.259594
0.006292
-0.359318
0.329615
-0.290111
-0.997083
0.609551
-0.255339
0.383982
-0.433259
0.635548
1.324557
-0.375871
0.171458
0.734890
0.327547
0.138609
-0.081883
0.226733
-0.363908
-0.491977
0.550361
-0.569619
-0.501602
-0.683171
-0.002948
-0.857742
-0.122049
0.570800
0.015571
0.404917
-0.590799
-0.249353
0.050254
-1.311662
2.638760
-0.303937
-0.756439
-0.654458
0.100551
0.225127
0.581585
-0.065847
-0.632784
0.623995
0.503582
-0.024362
0.350787
0.122086
0.085294
0.067884
-1.044304
0.221703
-0.546884
-0.888696
1.237822
-0.484537
-0.162132
-0.236737
-0.396135
0.494416
0.486220
-0.130072
-0.163045
0.673692
0.072625
-0.597644
0.810912
-1.089879
-0.452306
-0.548145
-0.249820
0.523129
0.835291
0.253280
-0.202189
-0.132232
-0.151998
0.094207
-0.991223
-0.311497
-0.263289
-0.753947
0.655153
1.721971
-2.275523
-0.987358
0.076909
0.173798
-0.396470
0.112057
-0.318344
-0.713985
-0.206264
0.560700
0.182945
0.572187
0.315003
-0.708877
0.893976
-0.206479
-0.226761
-0.970125
0.155213
-0.571779
0.172824
0.740929
0.875639
0.244771
1.828312
0.074466
0.107142
-0.339689
-0.538529
-0.360727
0.145580
-0.231283
0.084531
-0.815331
0.055385
-0.148405
1.220492
0.140214
1.201807
-0.333612
-0.599618
0.155658
-0.084786
-0.243391
-0.367842
-0.090012
-0.377652
0.834423
-0.313566
0.180549
0.180910
0.324365
-0.455637
-1.590860
0.600822
0.649249
0.240392
1.044863
-0.651530
1.428346
0.157115
-0.218970
-0.210420
0.853409
-0.072075
-0.467491
0.232867
-1.278025
1.551496
-0.031727
-0.383941
-0.589730
-0.289125
-0.109960
0.107348
0.765230
-2.138376
0.601807
0.483805
-0.270819
0.144022
-1.484214
-0.967490
1.052485
0.445215
-0.143262
1.174172
0.156589
-0.729767
-0.157595
-0.423600
0.450225
0.032937
-0.411554
-0.077015
0.688649
-0.115998
0.623011
-0.185891
0.268015
-0.060789
-0.006943
-0.432030
-0.106097
-0.370965
-0.129139
0.579294
-0.634716
0.280157
0.620050
-0.305654
-0.287027
-0.084404
0.207776
-0.700075
-0.853588
1.094849
0.140207
-1.401535
-0.388540
2.093887
0.471069
0.276877
0.145849
-1.236878
-0.313220
-0.321056
-0.230141
0.864462
-0.294342
-0.439266
0.161305
0.357653
-0.312580
-0.178597
-0.015300
-0.261248
-1.156815
0.477002
-0.574834
-0.288645
0.280125
0.310590
0.603930
0.116505
-0.372390
0.046366
0.584405
0.105569
0.641567
-0.824455
-0.091193
0.005007
-0.159444
1.321021
0.207197
-0.519330
0.451589
0.002877
-0.213074
-0.094287
0.151431
-0.263631
0.136817
0.648238
0.106274
0.237155
-0.218719
1.171158
-0.406397
-0.737067
-0.091452
-0.181328
-0.306139
-0.463853
-0.490725
0.059613
1.967016
0.090896
0.324520
-0.494191
0.022092
0.610721
0.626582
-1.802528
2.266954
-0.258757
0.328439
1.222235
0.718850
-0.185687
-0.292927
-0.131976
-0.337206
0.042879
-0.738622
-0.893025
-0.030168
0.240237
0.100264
-0.753922
0.591151
-0.906165
0.697534
0.224776
0.648479
0.070454
0.726012
-1.266269
0.492751
0.543094
0.632812
0.120999
-0.234845
0.170141
-1.429978
0.174177
0.623791
-0.464245
-0.700794
1.791509
-0.493902
0.642106
-0.140685
-0.555214
-0.672644
-0.797539
0.151694
0.056027
-0.728711
-0.192203
0.183238
-0.426994
2.343229
0.160135
0.032430
-0.388363
1.302511
0.044826
0.052167
0.562090
0.113564
0.417271
0.081633
-1.904351
0.595948
-1.248582
-0.032953
0.323285
-0.407847
0.144231
-0.044273
-1.020729
-0.541687
-0.858400
-0.938648
0.532326
1.779123
-0.224591
0.417198
0.626392
1.063689
2.366665
-0.021274
1.807669
-0.265409
0.043706
-0.154737
-0.101421
-0.271624
0.091918
1.374748
-0.589748
0.165030
0.342340
0.620177
-0.269197
-0.057376
-0.288538
-0.363509
0.334321
-0.858855
-0.856008
1.250319
-0.593936
-0.137668
-0.557877
0.079766
-0.049183
-0.146068
0.459438
-0.554588
-1.023878
0.725574
0.005539
-0.096481
-0.257680
-0.914463
0.314855
0.267282
-1.096305
0.313744
0.339408
-0.819641
-0.190937
-0.125668
0.216613
-0.285675
0.210851
0.222665
0.690295
0.798477
-0.045930
-0.437710
0.015382
0.807276
0.432245
-0.176100
0.484937
0.376330
0.444353
-0.394371
0.253815
-0.245454
-0.097031
-0.425236
0.264146
0.771676
0.719425
0.742417
-0.598443
0.162122
