0.401819
-0.264841
0.295561
-0.275069
0.272439
0.382764
0.082688
0.241029
0.165528
-0.138080
-0.309839
0.255177
0.639225
-0.242409
0.067871
0.082650
0.354759
0.530163
0.725668
0.357335
-0.355167
0.981604
-0.133576
-0.433145
-0.006831
-1.016137
-1.795711
-0.287933
-0.326195
0.951534
0.075572
-0.216440
-0.539266
0.167841
-0.004267
1.138995
0.319203
-0.829333
0.935014
0.492584
-1.387658
0.079471
0.202534
1.043464
-0.232514
0.234191
-1.009932
-0.025805
0.828857
0.056916
-0.486807
1.704905
0.885094
-0.377388
0.235117
-0.415109
-1.070674
-0.464050
-1.533715
-0.032656
-0.933818
0.220697
-1.207457
-0.030062
0.274618
-0.101910
-0.208273
0.006331
-0.118545
-0.298940
-0.148588
1.016391
0.228686
-0.495728
-0.383026
0.680923
0.792119
-0.365521
-0.436885
-0.315659
-0.160869
1.293180
-0.578550
0.606013
-0.088248
-0.105726
-0.440968
0.695736
-0.383957
-0.124960
0.134631
0.029268
-0.060163
-0.358836
-1.268907
-0.439198
-0.033376
0.056258
-0.099708
-0.014923
0.025133
0.332659
-0.403627
0.364751
-0.161762
-0.052474
0.201629
-1.206046
0.208889
-0.366507
0.496252
-0.061826
-0.059662
0.109926
-0.209891
-1.188471
-0.111016
1.583523
2.070969
-0.328975
-0.334043
-0.274340
-0.076359
-0.655915
-0.003968
-0.093988
0.220630
-0.205648
0.537879
-0.209936
0.355966
1.089887
-0.625717
0.000470
1.568169
0.165385
-0.313629
-1.572619
1.233785
-0.202265
-0.161862
-0.228844
1.125690
-1.072378
0.027730
-0.741517
0.412191
0.409481
0.388854
0.171841
-0.213295
0.108089
0.118391
-0.109330
0.465129
-0.392440
-0.300104
0.979286
0.940213
0.613351
-0.757524
0.022892
0.190652
0.413146
0.081474
-0.663663
0.419149
1.030395
-0.027148
-0.061867
0.477118
-0.168780
-0.444876
0.377818
-0.091607
0.846180
-0.259226
0.135117
0.548640
-0.044546
0.653569
-0.273584
1.428154
-0.017106
0.783807
-0.573769
0.566411
-0.242195
0.820957
0.472408
-0.271601
-0.609112
1.367646
-0.327316
-0.042638
0.393261
0.113055
-0.172884
0.706778
-0.150810
0.254925
-1.234486
0.015203
-1.397248
1.351861
-1.265491
-1.047968
-0.184828
0.459234
1.114046
0.069288
-0.313744
0.587932
-1.633118
0.505277
-0.054144
-0.078587
-0.072775
-0.288759
-0.425222
0.386036
1.269585
-0.156579
-0.167754
-0.959033
0.274875
-0.309454
0.780480
0.203279
-0.229924
1.379927
0.027173
-0.119137
0.127081
-0.369787
-0.584128
0.916979
0.487602
0.201454
-0.410246
-0.991945
-0.309322
-0.553569
-0.513477
-2.231649
-0.386388
0.769319
0.255642
0.859568
-0.536158
-1.169724
1.786814
0.047235
-0.196896
0.600326
-0.305443
-0.164325
-1.151310
-1.057178
-0.745580
1.909519
0.547468
-0.472822
0.077028
-0.449457
0.144931
0.969268
0.142810
0.680374
1.009268
-1.402596
0.022273
-0.048145
-0.378417
-0.552725
0.160146
-0.508838
-0.628339
0.522040
0.805338
0.343174
-0.051748
1.004705
0.152045
0.644925
-0.690175
-0.372446
-0.730704
1.382041
-0.509572
-0.143924
-0.028483
-0.257083
0.650013
-0.355535
0.104684
-0.788616
-0.469008
-0.052606
-0.205653
0.526656
-0.240122
0.379869
0.059954
0.044834
-0.169110
0.146690
-0.226357
-0.442153
0.614582
0.084638
0.079427
0.342678
-0.323007
-0.348395
0.698788
0.397029
0.884165
0.389782
0.079620
-0.165640
-0.238618
-0.359647
0.774951
0.171628
-0.517595
0.518572
-0.143258
0.513863
-0.452640
-0.350293
0.039538
0.571584
0.159557
0.162095
0.162663
-0.059160
0.170782
-1.877828
-0.070858
-0.192077
-0.109536
-0.373228
0.086446
-0.235012
-0.454531
-0.418572
0.580507
0.960557
0.203202
0.399902
-1.339631
-0.633115
0.653804
-0.057635
0.639164
0.301241
-0.251644
-0.244324
-0.288637
-0.093121
-0.497133
-0.190453
-0.157367
0.551080
0.331888
0.646765
0.044704
-0.261759
0.309199
0.272596
0.163317
-0.679884
0.112061
0.008803
-0.025357
-1.380660
0.371977
-0.652720
1.250530
0.394633
-0.169556
-0.089550
-1.127336
0.042796
2.525955
-0.174451
-0.555150
0.004677
0.247196
0.386652
-0.283023
0.832660
1.026906
-0.009168
-0.181697
-0.446291
-0.003320
-0.274361
0.315870
-0.073701
0.329470
0.291613
-1.128113
-0.742682
-0.273266
1.739452
0.984772
-0.088436
-1.014295
0.464146
0.413545
0.853786
-0.353294
0.257289
0.369217
0.483657
-0.666720
-0.219441
0.564276
0.663053
-0.275799
-0.290341
-0.133021
0.018087
-0.173636
-0.038033
0.114567
0.530225
-0.477579
1.991154
-0.487840
0.254475
0.291091
0.005820
-0.389838
-0.336801
-0.446587
-0.479316
-0.182157
-0.235071
-0.119389
0.753666
0.585626
-0.447458
-0.740576
0.140137
-0.276645
0.894820
-0.453345
1.981825
1.778241
0.511991
-0.594036
0.544229
-1.305950
0.025745
-0.362594
0.295280
-0.165755
-1.556139
0.183311
-0.130351
1.011095
-0.483242
0.669471
0.625949
0.294988
-0.253366
-0.082385
0.509300
-0.599835
0.618516
0.575928
0.480382
0.403345
0.209882
0.413350
-0.215212
-0.214714
0.080637
0.227772
0.374920
-0.122113
-0.647655
0.767820
-0.809458
0.597077
0.614080
0.295589
0.254039
0.034310
-0.100155
-0.090031
0.082449
-0.248269
0.108504
0.801083
0.109160
-0.393495
