0.325571
0.239066
-0.057460
-0.157455
-0.696539
-1.037051
0.306181
-0.211651
0.087286
-0.538819
1.011033
0.005965
-0.605163
0.686916
0.574491
-0.586348
0.281521
0.051960
-0.226832
0.178841
-0.517180
-0.062570
0.419315
0.014684
-0.057783
0.286528
-0.517452
0.360052
-0.631218
0.512994
0.280917
0.424095
-0.484312
-0.923533
-0.090445
-0.151896
-0.140444
-0.827869
0.647712
-0.344446
-0.891617
1.430831
-0.251321
-1.843531
0.570680
0.029202
-0.333889
-0.373057
-0.292061
-0.057783
-1.269930
-0.619566
0.087207
-0.078846
-0.289569
0.910772
0.307983
-0.417677
-0.737942
0.541168
-1.322956
0.889779
0.225578
0.383012
0.135890
-1.052308
0.136899
-0.159761
0.096871
-0.535142
0.044605
-1.167228
-0.073711
-0.075640
0.103895
0.149547
-0.603321
-1.598614
-0.533155
-0.367370
-1.168976
-0.341633
0.073293
-1.692900
0.338393
-0.185587
0.009302
-0.001337
0.544276
0.366380
0.074849
0.589637
0.557735
0.205755
-0.576039
-0.326773
-0.115090
0.567123
-0.437205
0.425996
-0.197858
0.052197
-0.224654
-1.219956
0.096434
-0.181131
0.257569
-0.316449
0.329831
0.459730
0.189044
0.947411
-1.407141
-0.444461
-0.929244
-0.171812
-0.323474
-0.036275
1.693518
-0.544434
-0.166519
-0.391149
0.211799
-0.451090
-0.827442
-0.015079
-0.172663
-0.356622
0.210742
0.282742
0.369668
0.761434
-0.982582
1.151253
-0.426691
0.094154
-0.178961
-0.730528
1.422987
-0.236543
-0.129087
-0.104288
0.589616
0.117726
-0.242553
-1.193203
-0.151312
-0.701894
0.093582
-0.376495
0.244890
-0.253843
0.513623
0.265709
0.371171
-0.013488
0.847214
0.067083
0.440054
-0.260897
-0.300754
-0.237854
0.769862
-0.371507
-0.588034
0.481931
-0.541274
1.113198
0.534303
0.657468
-0.136488
-0.666140
-0.302251
-0.059859
-0.765120
-0.152418
-0.055686
0.413492
0.387148
-0.232504
0.595233
-0.627729
-0.881912
-0.317795
-0.064228
-0.441884
0.612464
0.333670
1.174444
-0.326770
0.603932
-0.237119
0.149795
0.455869
0.294143
-0.224812
0.148346
0.155838
0.917998
-0.453177
0.697887
-0.485931
0.032133
-0.217224
0.453884
1.540101
0.761109
0.614463
2.103404
-1.293745
-0.083859
-0.151763
-0.382180
-0.624613
-0.588767
0.484642
0.176055
-0.458618
-0.479834
0.482558
-0.455039
0.025754
-0.623536
0.492146
-1.032307
0.119664
0.455444
1.386533
0.096185
-0.482658
1.454744
0.783084
-0.105937
0.318712
-0.113804
-0.803265
0.656775
0.251844
0.371182
0.561575
0.599301
0.661088
0.536996
0.964990
-2.044616
-0.183987
-0.994652
-0.168903
0.827805
-0.983058
-0.194713
0.488992
0.554004
-0.010289
-0.091955
0.320461
-0.509087
0.054378
0.137793
-0.181192
-0.108791
0.258376
0.069717
-0.089383
-0.520785
0.027805
-0.145843
0.523099
-0.353329
1.098217
-0.474587
-0.053330
-0.319108
-0.432403
0.719138
0.301510
0.058565
0.938366
0.164714
-0.184796
-0.069037
-0.725277
1.110504
0.003639
0.195254
0.185442
-0.123019
0.088552
0.313322
0.664247
-0.468689
0.362249
0.671371
0.014149
-0.267186
-0.308222
0.182573
0.026531
-0.044712
-0.117057
0.338182
0.055838
0.061773
-0.817087
0.474274
-0.051852
-0.098552
0.148007
0.412625
0.574115
1.198128
0.165255
-0.446327
-0.589477
-0.371306
0.492924
0.018545
-0.775266
-0.173618
-0.082883
0.195692
-0.293888
1.247237
0.166782
0.441782
-0.498869
0.386943
0.323242
-0.349162
0.448398
-1.153165
-0.580712
0.331611
0.168046
0.168560
1.087318
0.350881
-0.013105
-1.000800
0.531701
-0.056537
-0.211257
-0.045326
-0.217203
-0.137896
0.202929
-0.326734
-0.808399
0.429096
0.466628
0.039811
0.779711
0.522555
0.922453
-0.145324
-0.163905
0.067997
1.662819
-0.045075
0.362359
-0.155524
-0.095455
-0.283006
0.708598
1.317211
0.622424
1.082978
0.615067
-0.547180
-0.198409
-0.892261
-0.124035
-0.372324
1.726004
-0.219774
-0.205015
0.816514
0.718514
1.067463
0.271776
0.232867
-0.432612
0.055927
0.276832
-0.248344
0.852439
1.079808
0.383640
0.353078
0.209514
-0.592218
-0.198218
0.104028
1.129801
-1.053116
-0.127340
-0.415854
-0.042182
-0.219821
0.519866
0.141377
1.287610
-0.822667
0.357361
-0.568629
0.492917
0.508921
0.420451
0.592031
1.099339
-0.119687
-0.296067
0.242575
-0.048368
0.930022
-0.298762
-0.512332
-0.806555
0.260758
0.458246
-0.028714
0.552306
-0.329944
0.065547
0.546924
0.089770
0.590534
0.071410
-0.280045
0.358657
0.145003
1.563765
0.215116
0.601123
-0.019141
-0.458570
-0.328494
-0.018723
0.045502
-0.386940
-0.334670
-1.052851
0.751995
0.374924
0.293729
0.201989
-0.246609
-0.435773
-1.292953
-0.320706
-0.191109
0.677658
0.187587
0.074765
1.365715
-0.211220
-0.579099
-0.096700
-0.713307
-0.264339
-0.181547
0.602742
0.185599
0.469422
0.446311
0.113263
-0.146594
-0.393463
0.165781
0.657137
0.109394
-0.192573
-0.291754
0.672799
-1.328920
0.328223
0.128663
0.972815
-0.581688
-0.566252
0.149173
-0.472761
-1.287002
0.100330
0.431732
-1.146855
-0.309172
-0.541117
0.748596
0.011615
-0.381938
-0.723768
-0.161112
0.416149
0.323979
1.270249
-0.336771
0.114178
0.328355
-0.420545
