0.395148
1.162893
-0.921560
-0.039711
-0.369860
-0.939609
0.369257
-0.043881
0.235615
-0.943615
2.285063
-0.321123
-0.348337
0.376444
0.312884
-0.795579
0.443687
-0.397664
-0.300748
0.149561
-0.031643
-0.692294
0.023961
0.267528
0.010407
-0.075499
-0.591787
0.253435
-0.128078
0.242556
0.224346
-0.042228
0.546041
-0.978430
-0.276635
-0.980938
-0.261204
-0.970340
1.290030
-0.244478
-1.055794
0.706032
0.626774
-0.234870
0.353272
-0.050594
-0.273262
0.609719
-0.063076
-0.395923
-0.547711
-0.979048
0.927101
0.156641
-0.423436
0.918531
1.118104
-0.184922
-0.163825
0.814513
-1.048216
2.228720
0.654259
0.883946
-0.114797
-0.652471
0.063995
0.505118
-0.117257
-0.195759
-0.302153
-1.658406
-0.298612
0.027581
0.353704
0.200536
-0.048413
-1.959773
-0.399560
-0.084104
-1.493559
-0.016885
0.676385
-0.024658
-0.122952
-0.388686
0.189816
-1.208393
1.747869
0.194042
-0.145212
1.448406
1.393813
-0.405280
-0.198163
-0.283762
-0.373386
0.788306
-0.465494
0.323274
-0.170243
-0.350019
-0.235654
-0.567661
0.519618
-0.055349
0.234667
-0.344364
-0.106843
-0.152600
-0.046812
0.793275
-1.663721
-0.346466
-0.208351
-0.068883
-0.055567
0.062652
2.109493
-0.516606
-0.074725
-0.624691
0.077270
1.227059
1.064270
-0.057021
-0.101351
-0.812287
0.531280
0.481205
0.115664
0.771075
-0.399294
0.037155
-0.204035
0.573302
-0.380989
-0.405002
2.054252
-0.629834
-0.550974
-0.070679
-0.062912
-0.178320
-0.410715
-0.027915
-0.483186
0.908593
0.338523
-1.344344
0.222616
-0.311696
0.132104
1.513562
0.346620
0.349053
-0.056171
-0.190771
0.208731
1.022879
-0.064242
0.108784
0.534996
-0.731953
-1.124994
1.078073
-0.931730
0.747646
0.547666
0.402230
-0.256410
0.591346
-0.742862
0.315081
0.986959
-0.318720
-0.044587
1.441074
-0.319758
0.274486
0.312544
-0.244721
-0.425991
-0.248421
-0.518987
-0.623126
0.449641
0.236452
0.134854
0.418419
0.680736
-0.463734
0.609784
-0.195581
-0.213688
0.195430
0.207127
-0.133644
0.441155
-0.473630
0.549764
-0.490507
0.670527
0.699778
0.898360
1.315996
0.740871
0.418034
0.093547
-0.188645
-0.138766
-0.125247
-0.111248
0.393817
-0.698862
-0.088209
0.435170
-0.907886
-0.556819
0.746407
-1.053312
-0.658178
-0.773609
1.008665
0.507623
0.612924
2.103567
1.580168
0.311865
-0.380452
0.398736
-0.040206
-0.109888
0.430270
0.348635
-0.366125
-0.017129
0.080768
1.190104
0.262212
0.182822
0.620977
-0.054029
0.888009
-2.379240
0.508832
-1.430182
-0.019356
0.806206
-0.905360
-0.078228
-0.543777
0.720279
-0.204778
0.701407
-0.427124
-0.441180
-0.065197
-0.009205
-0.375770
0.672476
-0.524236
0.305076
0.011635
-0.014585
-0.579447
-0.645418
0.914091
-0.216120
0.847370
-0.151724
-0.467201
0.029201
-0.434211
0.390874
0.192434
-0.325611
0.815347
0.643281
-0.893701
0.227104
-0.756427
0.352277
0.462361
0.378186
0.120242
-0.647829
-0.387256
1.876552
0.975874
0.213375
0.457535
-0.344887
-0.451822
-0.222550
-0.506957
0.309977
-0.396661
0.118686
0.194659
-0.383936
0.026170
-0.901925
0.049209
-0.006591
-0.705127
-0.054667
-0.573844
0.242557
0.432695
0.623492
0.733758
0.356814
-0.451664
-1.141456
-0.181160
0.219074
0.680589
0.463314
0.166798
0.602194
-0.425682
1.741663
0.021536
0.244997
-0.975170
0.263171
0.186955
-0.277080
0.599027
-1.151182
-0.603561
0.668281
-0.573193
-0.423844
0.589230
-0.024928
-1.178641
-0.868380
0.005463
-0.200153
-0.234824
0.222024
-0.410331
-0.174995
0.375877
-0.063903
0.036584
0.001110
0.210750
0.838954
0.346225
0.046176
0.849393
-0.234085
-0.437900
1.004582
1.751538
-0.255642
-0.074217
-0.197873
-0.056152
-0.933095
-0.029977
0.052128
0.336940
1.092028
0.362903
-1.121949
0.205776
-1.314769
-0.327887
-0.303893
1.925262
0.031835
0.088289
0.701922
0.604024
0.911703
-0.538753
0.876321
-0.291590
-0.085866
-0.656058
-0.312984
0.145500
0.774345
-0.104786
0.639696
0.388742
-0.664190
-0.173029
0.608081
-0.455937
-0.577901
-0.157410
0.317242
-0.361905
-0.406986
-0.197704
0.419764
2.057628
0.222300
0.014229
-0.266119
0.142348
0.617943
0.241200
0.947815
0.123175
1.195177
-0.650012
-1.037515
-0.246736
1.526790
-0.156190
-0.335453
-0.664945
0.231521
0.632685
-0.693275
0.395847
-0.326334
0.474061
-0.131154
0.326403
0.175668
0.000083
-0.311250
0.079197
0.762852
0.728589
-0.442068
-0.232928
-0.000292
-1.299958
-0.159666
-0.065743
0.134781
-0.858339
-0.015789
0.029619
-0.311394
-0.665374
0.157857
0.392207
-0.869961
-0.542150
-0.017586
-0.754786
-0.640947
0.628967
0.512518
-0.532246
0.862274
0.597570
-0.295823
-0.016421
-0.179737
-0.159597
-0.261394
1.896481
-0.324974
-0.600874
-0.294882
-0.603661
0.367588
1.101632
0.168360
0.835089
-0.097908
-0.168865
0.817825
1.034079
-1.558161
0.190162
0.430623
0.946608
-0.781389
0.161317
0.488433
-0.143118
-2.391336
0.033517
0.091616
-0.315568
-0.226915
0.191422
1.129849
-0.178371
0.578144
-0.519321
-0.076179
-0.197060
-0.358362
0.977364
0.049972
0.336591
-0.506875
-0.225495
