0.089136
0.366424
0.605624
0.179965
1.495581
0.034367
0.535187
0.095006
0.700218
1.110962
0.027586
-0.248657
-0.138597
0.908486
-0.400588
0.170606
0.117546
0.265880
-0.166647
0.019333
0.182845
0.106262
0.116168
-0.087481
-0.065689
1.971035
-0.878717
0.260084
-0.556104
-0.891436
-0.312466
0.166027
0.074558
-0.092369
1.181656
-0.739473
0.003374
-0.872135
1.108364
-0.393471
-1.347312
0.186427
0.332145
0.799360
-0.494904
-0.095314
-0.110116
0.252527
1.035055
0.658416
-0.757294
-0.494275
0.799175
0.559647
-0.290026
-1.189172
0.362744
-1.095848
-2.636383
-0.090880
-1.088437
1.263044
1.197553
0.011740
-0.508201
-0.136877
-0.758433
-0.760396
-0.001081
-0.526405
0.650877
0.332891
0.054802
-0.453726
-0.035751
-0.227073
-0.142600
-0.648451
-0.510825
-0.658665
0.136387
0.833950
0.391791
-0.455027
0.127585
0.144870
-0.013963
0.476639
-1.205544
-0.108702
-0.187859
-0.237529
-0.780978
-0.793084
-1.307840
-0.435403
0.086290
0.595048
0.478426
0.039014
-0.003102
0.379208
-0.094423
0.102854
1.312932
-0.250890
-0.424923
0.069562
0.335922
-0.516445
0.206203
0.616210
0.710418
-0.442809
-0.808981
0.067750
0.376080
1.717755
0.047199
0.150222
-0.113122
0.604598
0.224111
0.367565
0.603183
0.050485
0.724979
0.420378
0.366388
0.043222
0.572607
0.387068
-0.556597
0.170165
1.614444
0.224254
0.031806
-0.157043
0.971502
0.726689
-0.105730
-0.317815
0.131078
-0.177275
0.725562
-0.360186
0.380372
0.487569
-0.161774
-0.507916
-0.087290
0.913612
-0.216474
-1.285603
-0.265071
0.108863
0.750130
2.108160
0.429428
0.067093
-0.299343
-0.113319
-0.353367
0.687316
0.158993
0.319884
-0.274432
-0.419632
-0.697395
-0.070400
-0.366090
-0.116649
-0.745116
0.624487
0.813533
-0.200211
-0.005691
-0.228007
0.083977
-0.553048
0.323472
-0.634217
0.386608
0.014305
-0.428805
-0.091882
0.259743
-1.422113
-0.225636
0.371371
-0.119656
-1.509057
1.133950
-0.084955
-0.210226
0.210162
0.517731
-0.442673
-0.232387
-0.162703
-0.106617
-0.424282
-0.052883
0.652451
1.058543
0.137779
0.982772
-0.315417
0.109909
0.086926
-0.046115
-0.248405
-0.363727
1.470208
0.458045
0.706592
-0.230668
0.301715
-0.261145
-0.109066
-0.950025
2.134477
0.263275
0.040431
-0.280037
0.719397
-0.131026
1.323579
-0.259664
-0.149214
0.245146
0.545127
0.062816
-0.047386
-0.697885
-0.461923
0.469638
0.508580
-0.555684
-1.043353
0.099092
0.364314
-0.094158
0.461006
-1.613888
0.567927
-0.148417
0.036417
-0.285493
-0.933501
0.129464
0.429221
0.203556
-0.332454
1.073341
0.211532
-0.024443
-0.745026
-0.212738
-0.162730
0.097649
-0.614489
-1.040070
0.190058
-0.314475
1.049637
-0.531601
0.405540
0.554975
-0.110107
-0.166451
-0.098113
-0.170319
-0.462916
0.770268
-0.516967
-0.106941
0.099271
0.992547
-0.480358
-0.828524
0.383758
-0.361887
-0.329051
1.086613
0.106045
-1.356815
-0.106146
1.475181
0.966057
0.085556
-0.105302
-1.570985
-0.399207
0.495918
0.121401
0.702105
-0.318822
-0.439499
-0.063134
-0.112416
-0.196300
0.277467
-0.516813
0.134028
-0.418172
-0.799187
-0.276735
0.538955
0.555650
-0.376858
0.180211
0.012537
0.499227
0.357582
0.939421
-0.278875
-0.129584
0.967694
0.479675
-0.107667
-0.180578
0.695002
-0.331243
-0.227291
-0.149780
-0.033906
-0.333597
-0.278203
0.010378
0.373425
0.240634
0.532263
0.781837
0.036563
-0.497833
1.361756
0.117048
-0.697620
0.413729
-0.120756
-0.147744
-0.145528
-0.058382
-0.100275
2.055476
0.000698
0.064745
-0.164064
-0.552634
0.858580
0.648224
-2.611599
1.002867
0.005512
0.032845
1.317136
0.385616
-0.103298
0.008442
-0.564164
-0.888053
-0.105095
-0.620292
-0.445361
-0.161385
0.650202
-0.041674
-0.838482
0.273708
0.220318
0.248464
-0.185230
-0.167918
0.224779
-0.123664
-0.254239
-0.262337
-0.439058
1.672531
-0.184227
-0.412998
-0.025663
0.016822
-0.630920
1.720394
-0.567230
-0.637281
-0.040444
-0.399738
0.530880
-0.128616
1.419182
-0.509412
-0.342204
0.022830
0.185020
0.359521
-0.128299
-0.293877
-0.158528
0.981416
-0.495058
0.046129
-0.811119
1.817277
0.289430
0.418569
-0.385659
0.342527
0.230291
0.128895
-0.735816
0.511171
-1.490312
0.115052
-0.218510
-0.653428
0.957108
-0.289944
0.292464
-0.396379
-0.192285
0.113762
0.411011
-0.976314
-0.633741
0.057307
0.400540
0.850608
0.038584
-0.629771
0.432409
-0.152379
-0.285952
0.091758
-0.005047
-0.414380
-0.270372
3.284800
-0.141329
-0.521009
-0.099712
1.047727
-0.176877
0.286272
0.067937
-0.295613
-0.338426
-0.481588
2.122824
-0.073410
1.529809
-0.721356
-0.466477
-1.661068
0.617760
-0.284252
-0.867717
0.158746
-0.612538
0.427854
0.239986
0.397420
-2.115367
-0.287207
-0.064492
0.161170
-0.440853
-0.249493
0.320898
-0.611581
-0.347961
-0.280943
1.338949
-0.601690
0.973634
-1.196568
0.242944
1.078375
0.133709
-0.263410
-0.250088
0.610180
0.718048
-0.084756
0.777391
0.316821
0.552136
-0.661245
0.183548
0.468285
0.159560
-0.410270
-0.415095
-0.136421
-0.753160
2.023838
-0.682732
0.622114
