-0.090069
0.313191
0.294446
-0.274383
0.581178
-0.090552
1.028041
-1.169687
-0.279129
1.595445
0.622955
-0.478474
0.108713
-0.600486
0.231411
1.396757
0.017019
-0.278483
0.103221
1.315360
-1.172538
-0.284759
-0.291627
0.657988
-0.141344
-1.654917
-0.955815
-0.838571
1.263310
-0.832303
0.090339
1.333868
0.147278
-0.044405
1.574445
-0.824537
0.004993
0.139192
1.721567
-0.445167
-0.944407
0.185972
-0.055996
-0.670300
0.439241
-0.229863
0.656545
0.660339
-0.321027
0.089961
0.468149
-0.965184
1.652801
0.181981
-0.223978
-0.767251
0.524208
-0.251767
-0.605433
0.093632
-0.452374
-0.691635
-0.747050
-0.684232
-0.489203
-0.253536
-0.121785
-1.020157
0.239121
0.020901
-0.546185
-0.022169
0.252398
-0.009242
0.236841
-0.057730
-0.025256
-0.051696
-0.071647
0.227411
-1.060521
-0.459940
-0.672184
-3.088264
0.208889
-0.268764
0.441265
0.757541
-0.114981
-0.938157
0.074737
0.029580
-0.382565
-0.143899
1.316864
0.129004
0.078659
0.227388
-0.161994
0.574139
0.186746
0.008596
-0.386549
-0.045648
-0.093190
-0.193937
0.765328
0.180355
-0.417173
0.130721
-0.113397
0.667001
0.788375
-0.331154
-1.105012
0.794592
-0.448975
-0.348049
0.207974
-0.348636
0.113348
0.458742
0.214720
-0.045303
1.127953
-0.120673
-0.902136
-1.621114
0.355545
-0.054933
0.079936
0.936829
-0.813349
-0.188088
-0.456402
-0.507192
1.868993
0.412900
1.499819
1.105763
-1.137539
-0.116667
-0.013022
-2.199706
0.086197
0.430839
-0.012198
-0.355185
-0.136708
-0.199949
0.525886
-0.128438
-0.462423
0.008178
-0.223577
0.078915
-0.186763
0.626899
0.120863
-0.038517
-1.494903
0.054538
-0.443987
0.356701
-0.418818
-1.219079
0.244053
-0.086034
-2.335639
0.164683
-0.216426
0.669983
-0.551486
-0.262079
-1.697896
1.003999
-0.265665
-1.631212
-0.229265
0.260772
0.953546
-0.332397
-0.608984
-0.240615
0.372177
-0.227781
0.113972
-0.547503
0.435326
-0.413144
0.069981
0.234003
-0.330691
1.143593
-0.360346
-0.967105
-0.104911
0.397511
-0.567098
-0.278917
0.162773
-0.173409
0.493184
0.909505
0.928988
0.729278
-1.080660
0.069842
0.359801
-0.446972
-0.243462
-0.277370
-1.613256
-0.153971
-0.162490
1.036493
0.453837
0.305987
-1.113120
-0.308315
0.258829
0.071541
-1.340233
-0.980170
-1.448290
1.173509
0.140640
0.061182
-0.093445
0.316145
0.445555
1.063183
-0.248697
1.367685
0.298118
-2.962048
0.238844
0.013598
0.035966
-0.692529
2.026341
-0.788014
-0.138901
0.344099
-0.373804
0.703434
-0.822731
-0.451312
0.305225
-0.435109
0.099092
-0.196379
0.590524
-0.377896
0.374437
0.591218
-0.063718
-0.598860
0.554044
-0.335049
1.083045
0.277546
-1.920350
0.183000
0.556066
-0.302862
-0.978353
1.224466
-0.017378
0.394893
1.137666
0.127634
-0.258322
-0.187144
0.796954
0.446932
0.355404
-0.177084
0.289463
-1.731371
0.307398
-0.734662
1.227925
1.062374
0.686559
-0.593594
1.075900
0.016281
1.267865
-0.077998
0.708291
-0.483828
0.271852
-0.588581
-0.658870
-0.159904
-0.878010
0.088902
-1.304420
-0.576865
-0.336700
0.008009
0.235035
-1.134890
-0.188296
0.233275
-0.654224
0.341387
-0.050380
0.558621
1.145398
0.360330
0.676847
-0.031067
1.060181
-0.246324
-0.107661
-0.537174
0.450474
-0.050684
-0.570212
-0.348836
-0.016445
0.606033
1.479227
-1.559624
0.556007
0.383710
-0.300021
0.425457
-0.482451
0.134629
0.257035
-0.601557
-0.248352
0.247527
0.375522
-2.009211
-0.212703
1.126566
-0.513341
-0.299651
-0.139969
0.017331
0.190004
0.252457
-0.785565
-1.518296
0.411443
-0.861805
0.191468
-0.611458
0.684153
-0.318258
-0.337502
0.295503
-0.544110
-0.027298
-0.233701
0.022440
0.114756
0.012083
-0.318732
0.464847
0.600467
0.103388
-0.033181
-0.454470
-0.179768
-0.321757
-0.171706
0.525534
-0.568481
-0.139897
-0.511327
0.294492
1.668377
0.200190
-0.376061
-0.217361
0.305354
-0.349650
-0.138344
0.321243
0.034024
-0.591473
0.971208
0.129215
0.286383
-0.153080
-0.241211
-0.247967
0.231898
0.737084
-2.424683
-0.815165
0.354790
0.092106
-0.165593
0.161376
-0.087919
-0.124603
-1.418578
-1.025284
-0.959060
0.241224
1.968681
0.837886
-0.284781
-0.906996
0.064897
-0.406003
-0.258734
0.337431
0.465925
0.421278
-1.802029
0.688434
-0.424915
0.503349
-0.956176
0.274612
0.347015
0.109772
0.424553
0.035634
-0.073271
0.038116
1.731207
0.158007
-0.467757
-0.245654
-0.547964
0.462147
0.189510
-1.427234
0.311547
-0.413417
-0.326922
1.456499
-0.374223
-0.165548
0.263640
0.279039
0.290722
-0.706703
-0.658139
-0.144773
0.788771
-0.102033
0.355025
0.600953
-0.468704
0.824117
1.299869
-0.270659
0.033713
0.458026
-0.963568
-0.208646
-0.137265
-0.264191
0.053768
-1.123589
-2.765194
-1.104693
-0.040402
-0.094096
0.052661
0.150312
0.066737
-0.116524
0.618079
0.329247
0.089083
-0.837340
-0.241830
-0.089318
0.209490
-1.674675
-0.018913
-0.385147
-0.581579
-0.834784
-0.868926
-2.554800
-0.657439
0.545983
-0.235969
0.565371
-1.386007
0.085324
-0.039402
0.022597
0.052230
-0.417227
1.046421
1.027468
0.784750
-1.136581
