-0.170686
0.232013
0.553203
0.175741
-0.153335
-0.024279
-0.645017
1.224758
0.876852
-0.566707
0.120135
-0.148165
-0.180374
0.465994
0.112954
-0.493189
-0.437210
0.444352
0.640140
-0.248287
-0.151863
0.327847
-0.134009
-0.608275
-0.033833
-0.069734
-0.692266
0.098651
-1.837092
-0.121592
-0.210025
-1.232298
-0.547867
-0.673174
-1.359182
3.016819
-0.101133
-0.586988
-1.029489
0.155490
-0.436554
-0.182387
0.175379
-0.460499
0.302286
-0.046037
-1.722899
-1.512649
0.546289
0.337025
-1.468939
-0.097794
-1.259241
0.561452
0.121985
0.284651
-0.202080
-0.098405
-0.167820
0.019532
-0.711862
0.917088
0.219420
-0.071575
-0.041882
-0.180647
-0.372095
0.139155
-0.013544
-0.653210
0.553647
0.194252
0.032352
-0.188512
0.040250
0.144278
0.904526
-2.041762
-0.766548
0.185680
0.322550
0.745614
0.251045
0.407691
0.198454
-0.242901
-0.058578
0.087559
-0.409020
0.558816
0.232452
0.202565
0.422599
0.557473
-1.632156
-0.479356
-0.176448
0.320769
-0.108117
-0.226380
0.312439
0.359271
-1.317492
-0.645591
0.787127
-0.239617
0.170999
-0.353358
0.807444
0.204062
0.376651
0.141158
-0.691402
0.136822
-0.205269
-0.550711
1.153783
0.383652
0.516193
0.083064
-0.193736
-0.266802
0.167737
-1.135969
-1.290407
-0.222381
0.205223
-0.089018
-0.135741
-0.057426
-0.003585
-0.333141
-0.106317
-0.413260
0.642029
0.392430
-0.477836
-0.486567
1.169464
-0.835211
0.182032
-0.162254
0.953914
-0.118419
-0.019318
-1.505014
-0.009631
0.476556
0.578356
0.127128
0.198512
-0.006712
-0.190654
0.001297
0.133342
0.126416
0.933646
0.392451
0.145685
-0.733592
-0.152673
0.081172
-0.175330
-0.497946
-0.080076
1.187035
-0.442050
1.455998
0.398640
0.250017
0.574090
-0.460234
-0.105721
0.485991
1.215866
-0.001048
-0.057273
1.009589
0.797680
-0.794104
-0.062515
0.116596
0.451508
-0.232721
0.406137
-1.018015
0.652286
0.213425
0.293928
-1.083669
0.277226
-0.309453
0.737104
-0.172866
0.262644
-0.115164
0.556789
0.103193
0.743230
-0.173823
0.544081
0.405197
-1.421690
0.375564
0.405538
-1.155053
-0.074533
-0.003037
1.860860
-0.071179
-0.086093
-0.076351
0.154564
-0.563360
0.900689
-0.666165
-0.204714
0.065467
0.144197
-0.321443
0.399811
0.406316
0.376700
0.779851
-0.999868
1.126959
-0.121048
1.093193
-0.324660
-0.624255
0.993449
-0.837628
0.090252
-0.959214
0.187939
-0.188459
1.738433
0.302763
-0.244700
-0.293551
-0.485291
-0.092836
-0.598408
-0.025354
-0.761132
-0.438468
-0.046209
-0.121248
0.123653
0.260285
0.318071
1.660497
-0.950593
-0.138132
1.130683
-0.547014
-0.054449
-0.509124
-1.013374
-0.517296
1.154869
-0.145323
0.603209
0.486094
-0.261026
0.051698
0.434944
-1.438530
1.009647
1.071502
-0.897514
-0.082058
-0.093175
-0.367331
-0.138381
-0.230767
-0.649990
0.028285
-0.051253
-0.027496
-0.153762
-0.048215
-0.413250
-0.214611
-0.438288
-0.087263
-0.360045
-0.286464
0.951928
0.067915
-0.672592
-0.451315
-0.463206
0.538919
1.590732
-0.138726
-0.037989
-0.426170
0.137964
-0.271074
0.454488
-0.026564
0.277430
0.365920
-0.227048
-0.354102
0.138898
0.331706
-0.169039
0.995140
-1.188564
0.569457
0.323542
0.588165
-0.469125
0.088585
0.143948
0.899120
0.246996
0.302191
-0.038635
-0.105578
1.139531
-0.441859
-0.561587
0.001952
-0.442897
0.299354
0.011773
-0.238849
0.344315
-0.255197
0.310860
0.043764
0.559272
-0.141566
-0.065098
1.509233
-1.567892
-0.175837
0.081426
0.141506
-0.151243
-0.008873
-0.541959
-0.015765
-0.349759
0.851180
0.967104
0.793928
0.673862
-0.032276
-1.373848
0.710688
0.114197
-0.285151
0.230275
0.165371
0.172081
-0.022975
-0.404315
-0.269698
0.521653
0.254020
0.876496
0.340564
-0.635176
0.260313
-0.115539
0.059053
-0.183751
-0.296381
-0.158249
-0.482369
0.111601
-0.055446
-1.521461
0.161734
-0.168221
0.137174
0.164490
0.011844
0.229157
0.082976
0.010769
1.921243
-0.052698
-0.234971
0.170006
0.382438
1.243315
-0.119181
1.410513
1.550595
0.272506
0.183232
0.337930
-0.072280
-0.112895
0.532860
0.298949
0.961267
0.038701
-0.248224
-0.528533
0.227470
0.777355
0.472471
0.640380
0.054309
-0.586979
0.153133
-0.042058
-0.442572
0.015551
0.090171
1.170774
-1.261082
0.767924
-0.479125
0.843413
-0.244247
-0.167674
-1.006272
-0.283767
-0.804510
-0.203228
-0.692983
-0.348790
-0.486503
-0.118765
0.212015
1.917121
-0.211346
0.614463
0.291150
-0.178524
0.081403
-0.208821
-1.452183
-0.317564
-1.191235
1.738925
0.674533
-1.167506
-0.176419
0.492621
0.040188
-0.582298
-0.050164
2.270503
0.325584
1.362977
-0.386024
-0.315113
-0.793573
0.124064
-0.233810
-0.018996
0.177568
-0.832671
-0.209099
0.815643
1.165279
0.706251
0.814363
0.570578
0.221390
-0.353329
-0.243407
0.600146
-0.593342
-0.020352
0.272075
-0.310819
0.007922
0.588372
-0.600320
-0.816020
-0.058459
0.315426
-0.125839
-0.119141
-0.103476
0.082647
1.043920
-0.446411
0.233020
-0.083998
-0.342138
0.495407
0.252931
-0.206886
0.186639
-0.492525
0.687949
-2.080631
0.581475
-0.179270
0.822376
