0.082088
0.131491
0.758153
0.018869
0.011505
-0.455020
-0.232838
0.421436
0.671903
0.064553
-0.193354
-0.472790
-0.343312
1.028222
-0.246684
-0.410108
0.423449
0.476788
0.061829
-0.428581
0.512782
0.099126
0.088937
-0.090041
0.008656
1.182199
-0.593572
0.064981
-1.034837
-0.440743
-0.049830
-0.462453
0.156747
-0.742606
-0.640843
0.203567
0.055193
-0.861648
0.986174
-0.144553
-0.505919
0.157915
0.467363
0.181798
-0.394580
0.024200
0.202410
0.008643
0.610555
0.738795
-1.074455
-0.521629
0.615358
0.300300
-0.180573
-0.149987
0.469728
-1.192013
-1.517164
0.390468
-1.046505
0.966094
0.722376
0.400621
-0.371444
-0.822978
-0.518203
-0.203013
0.072529
-0.413330
0.666970
-0.213133
0.416642
-0.414385
-0.316355
-0.315484
0.303615
-0.247508
-0.431689
-0.419429
-0.054258
0.620671
0.023441
-0.241674
-0.150798
-0.529401
-0.208570
0.016323
-0.974632
0.104018
0.100200
-0.158662
0.351532
-0.359655
-0.532189
-0.658931
0.117440
0.884649
-0.117990
0.255784
-0.094005
0.100938
-0.491315
-0.136339
1.454173
-0.112409
-0.291954
-0.066237
-0.088850
-0.697602
0.298458
0.172038
-0.570017
0.377799
-0.269403
0.032437
0.627092
2.052346
0.622592
0.328746
-0.506059
0.110264
-0.011780
-0.217777
0.287854
0.229540
0.460867
0.301343
0.330557
0.488845
0.425938
0.642799
-0.841877
0.324451
1.390376
0.138179
-0.123336
-0.294335
0.898520
-0.224019
0.003581
-0.146903
-0.077094
0.398508
-0.035563
0.158382
0.383193
0.798223
-0.067255
-0.720546
0.262816
0.559563
-0.119769
-1.134502
0.022212
-0.279513
1.156355
1.385299
0.352326
-0.155964
-0.083789
-0.091239
-0.504365
-0.526257
-0.273932
1.306442
0.457267
-0.299437
-0.635496
0.058298
0.287316
0.067587
-0.052889
0.451656
0.949172
-0.328828
-0.190927
0.971200
0.377961
-0.340677
0.187606
-0.646362
0.130037
0.021040
-0.232729
-0.326564
0.234237
0.068853
-0.186358
0.080652
0.224565
-0.959394
0.796361
0.084231
-0.045773
0.115974
0.482802
-0.145855
0.032020
-0.189618
0.180464
-0.338261
-0.099273
0.215604
0.840460
0.129713
0.941876
0.324692
0.081664
0.149603
-0.032791
-0.109028
0.084410
1.274679
0.200469
0.826974
-0.352156
0.381517
0.210212
0.016791
-0.702585
2.087840
0.520802
1.103192
0.496544
0.018117
-0.612125
1.112449
0.316639
-0.422640
0.108094
1.149692
0.050432
-0.221055
-0.282856
0.447619
0.781775
0.490994
-0.485982
-0.554602
-0.051154
0.489665
0.261908
0.685744
-1.969182
0.305567
-0.176688
-0.134466
-0.158339
-0.765061
-0.092336
0.849290
0.457858
-0.211874
1.131959
0.474022
-0.193574
-0.063953
-0.394051
0.260188
-0.285028
-0.126435
0.268021
0.537027
-0.250952
0.836811
-0.166223
-0.010408
0.223873
-0.258145
0.033120
-0.227327
-0.329286
-0.332817
0.335097
-0.148026
-0.188201
1.001608
1.263671
0.075104
-0.521884
-0.100276
-0.641606
-0.542608
0.978657
0.176682
-0.788872
0.077801
1.300106
1.188956
-0.366253
0.088228
-0.484975
-0.127576
0.291176
-0.003390
0.602292
-0.250733
-0.227245
0.496705
0.013733
-0.095661
0.273653
0.204880
-0.000700
-0.366763
0.479888
-0.191485
0.143895
0.201825
-0.481802
-0.358429
0.310459
-0.043403
0.546882
0.866109
-0.057482
0.436233
0.382690
0.020954
-0.005452
-0.079625
1.208867
-1.234030
-0.415395
0.253715
-0.508767
-0.032339
-0.350605
-0.069994
0.336371
-0.133249
0.375976
0.218769
0.304135
-0.428482
0.483893
-0.334475
-0.626079
-0.019019
-0.049015
-0.094097
-0.152587
-0.022675
-0.191730
0.711446
0.258753
0.432202
-0.112392
0.328120
0.658820
0.863845
-1.160983
0.549088
0.172364
-0.170149
0.818624
0.641221
-0.028935
0.005667
-0.557598
-0.616438
-0.051982
-0.485806
-0.463794
0.012949
0.834615
0.100639
-0.506432
0.322211
-0.140574
0.065951
-0.067552
-0.015060
0.329825
0.190117
-0.429396
-0.179504
0.395418
1.794862
-0.009171
-0.152292
0.414517
0.263595
-0.529938
1.885854
-0.324804
-0.401509
0.559168
-0.451460
0.590319
-0.275236
0.912884
-0.642980
0.374680
0.200873
0.286364
0.744166
-0.177612
-0.493378
0.218053
1.420332
-0.015137
0.245516
-0.662018
0.547197
0.086430
0.483197
0.618295
1.107791
0.181504
0.027905
-0.746797
0.439142
-0.620168
-0.116477
0.165300
-0.981544
0.224003
-0.109718
-0.134142
-0.059430
-0.237383
-0.549646
0.741953
0.618876
0.424289
-0.243122
-0.538434
0.766761
0.406409
-0.199168
2.352596
0.169440
-0.099791
0.661622
-0.159551
-0.093560
-0.040964
-0.185942
-0.248777
-0.444993
-0.013744
1.158376
0.106403
0.194300
-0.067062
-0.056801
-0.275802
-0.627661
0.316026
-0.149281
1.416013
-0.597645
-0.683066
-1.171517
0.334960
-0.370150
-0.245878
0.037012
-0.268441
0.537284
-0.017641
0.292170
0.473193
-0.523401
0.102930
0.183298
-0.543892
-0.006792
0.533017
-0.717586
-0.185855
-0.415444
-0.318145
0.068967
0.768117
-1.170968
0.336856
0.663980
0.141384
-0.189915
-0.470975
0.542309
0.626331
0.032269
0.949994
0.297042
0.551745
-0.586296
0.659018
0.373816
-0.138965
0.123949
-0.829983
0.291744
-0.152195
0.545058
-0.278017
0.994886
