0.078999
-0.051337
0.287668
0.057142
0.402171
-0.313519
0.057263
0.221524
0.968077
-0.321684
0.933859
-0.888973
-0.469835
0.911061
-0.507566
-0.469333
-0.483322
0.512129
-0.149517
-0.451077
-0.182235
-1.090952
-0.148618
0.087972
0.153871
0.575832
-0.402094
-0.180370
-0.345433
0.098992
0.022694
0.055226
0.398820
-0.386704
0.305130
0.206202
0.075075
0.111977
0.272417
0.109220
0.173052
-0.083248
0.849446
1.283180
-0.286787
-0.114619
-0.403989
-0.256109
0.754778
1.374694
-0.328402
-0.442274
0.008136
0.535381
-0.082415
-0.192284
0.206211
-0.540768
0.258113
-0.067335
-0.730800
-0.115657
0.558255
-0.523994
-0.288659
-0.379022
-0.794962
-0.323121
0.188226
0.113060
0.313321
-0.467397
-0.037609
0.050915
0.397370
-0.183658
0.371338
-0.525609
-0.345221
0.287801
0.336744
0.567104
0.075894
0.311075
-0.263838
0.150446
0.250312
1.058940
-0.513058
0.049108
-0.118221
-0.947815
-0.679034
0.442529
0.261971
-0.325793
-0.114663
0.373733
0.351567
0.051160
-0.045731
-0.205594
-0.425652
0.489358
0.270920
-0.318705
-0.328400
-0.051852
-0.031006
0.284537
0.103018
-0.163923
0.417434
-0.354690
-0.260544
-0.106330
-0.064387
0.771222
0.298339
0.164699
-0.305454
0.322612
-0.204348
-0.157145
-0.280823
-0.343909
0.003646
-0.065309
0.209275
-0.383481
0.000578
0.119722
-0.862831
0.488898
0.406385
1.014804
-0.236131
0.274343
0.856055
-0.101292
-0.323464
-0.078698
-0.168540
-0.246464
0.457315
-0.292333
0.400063
1.031317
-0.286960
0.532139
0.250913
0.346520
-0.069333
-0.527460
0.133260
-0.323260
0.973481
0.464539
0.285822
-0.274658
-0.202237
-0.264387
0.381911
0.133768
-0.288238
-0.817587
0.896671
-0.373440
0.022010
0.110744
-0.329619
-0.052615
1.294690
-0.040120
-0.258045
0.433422
-0.183996
-0.916048
0.054349
-0.327499
0.321033
-0.610996
0.738512
-0.156650
-0.053888
-0.168987
-0.437424
-0.494699
0.306084
-0.672666
0.247868
0.008069
0.335575
0.017494
0.018551
0.149253
-0.221327
0.201668
0.401545
-0.090343
0.035132
0.187548
0.009108
0.156974
1.022615
0.190199
-0.095354
0.557345
-0.222118
0.298925
0.085282
0.060931
-0.270018
1.204216
0.315815
0.407143
-0.161689
0.080159
-0.841061
0.189073
-0.307716
0.703620
0.582583
-0.203210
-0.534216
0.469113
-0.044418
0.754182
-0.427679
-0.184794
0.108928
1.159320
-0.127681
0.005220
0.191727
-0.156385
0.892662
-0.087059
-0.272793
-1.301385
-0.406349
0.007343
-0.600323
-0.716593
0.795511
0.322452
-0.816012
-0.321434
-0.027159
0.290574
0.355116
-0.116772
-0.178294
-0.111852
0.737800
0.550893
-0.289248
0.093597
-0.308018
0.653438
1.045284
-0.221397
-0.012317
-0.053623
-0.186308
0.523762
-0.333882
0.271015
0.018457
-0.273666
-0.484650
-0.281853
-0.082935
-0.099848
-0.078014
-0.231760
0.056991
0.151940
0.488796
-0.881879
0.069463
-0.220757
0.264411
0.128610
0.643232
0.046677
-0.949763
0.686935
1.013115
0.210192
-0.269365
-0.219607
-1.134246
0.130578
-0.042134
-0.302350
0.406650
-0.263322
-0.060540
0.127402
0.353171
-0.230532
0.538969
-0.132792
-0.020408
-0.338193
-0.361244
-0.042033
0.283245
-0.189934
-0.802038
0.258548
-0.117473
0.346332
0.974472
-0.404844
-0.168506
0.479753
-0.042116
0.151176
-0.349358
-0.170886
0.124313
-0.373655
-0.197562
-1.260319
-0.361935
-0.095128
0.003421
-0.220514
0.727619
-0.206953
0.424887
0.309324
0.422537
0.428661
0.359515
-0.749038
0.215353
-0.121852
0.110165
-0.122464
-0.069213
0.318780
-0.106795
1.257595
-0.474667
0.036637
0.205234
0.062202
0.312919
0.380805
-2.184072
0.850622
-0.094905
-0.297220
0.980139
-0.830295
-0.107060
-0.119306
-0.309554
-0.400330
-0.100806
-0.068118
-0.095205
0.116449
-0.178301
0.103307
0.149233
0.292158
0.325041
-0.272917
0.004126
-0.852787
0.103995
0.344344
0.249222
-0.390909
-0.637343
0.931176
0.066921
-0.333831
-0.049936
0.409544
-0.405291
-0.227150
-0.105606
0.345637
0.371283
0.084440
0.120225
-0.089474
0.119173
0.091660
-0.562232
0.112659
-0.243024
0.448527
-0.062010
0.006915
-0.290647
0.567454
-0.240386
-0.444381
-0.341046
0.910030
-0.149582
0.251798
-0.112915
0.353613
-0.111638
0.170597
-1.079368
-0.149913
-0.048269
-0.399900
-0.189165
-0.514979
0.650781
0.490436
-0.714649
0.356907
0.557605
-0.135421
0.431984
0.896468
0.346796
-0.199936
-0.639969
0.347870
0.084347
-1.649775
0.150094
-0.027090
0.248815
-0.600531
0.138906
0.060918
-0.304991
1.497519
-0.325951
0.059613
0.317507
0.639701
-0.238491
0.009703
-0.078678
0.026444
-0.007346
-0.379082
-1.312280
-1.233128
0.445393
-0.467615
0.116899
0.715111
0.363581
-0.461784
-0.224768
-0.246121
-0.045853
0.044061
-0.250100
-0.474342
-0.602936
-0.113939
-0.278093
-0.319647
-0.237799
-0.750372
0.580015
0.037119
0.190755
-0.171251
0.122434
0.111045
0.819557
-1.271333
-0.089680
0.113403
-0.006370
-0.310464
-1.509891
-0.084820
-0.050136
0.128171
0.805377
0.321580
0.443066
-0.202377
-0.308489
0.497296
0.279967
-0.202077
0.058424
0.056134
-0.470604
-0.445548
-1.915068
0.326249
