-0.105311
1.166545
-0.869642
0.215391
1.005288
-0.178116
-0.542988
1.511247
-0.767674
-0.729230
0.200092
0.237253
-0.294728
-0.075615
0.445273
-0.668974
0.133714
0.161740
-0.339156
0.301578
0.404111
-0.260494
-0.051070
-0.232659
-0.194113
-0.027669
-0.687711
0.265287
0.035227
0.199128
0.460104
-1.408627
0.814868
-0.786774
-0.693880
-0.798605
-0.137742
-0.875836
-0.717767
0.354886
-0.310031
0.116941
-0.504249
-0.334356
0.238205
0.112972
0.723580
-0.239414
-0.533427
-0.961613
0.727982
-0.619856
0.092454
-0.018923
-0.420734
0.543381
0.729596
-0.617560
-1.025921
-0.244879
-1.211079
2.413426
0.581769
1.230001
0.133695
-0.911185
-0.016004
0.860648
-0.928478
-0.025665
-0.155111
-0.029162
0.144864
-0.117114
0.250788
0.324632
0.398989
-1.681027
0.099363
-0.159985
0.022371
0.298195
0.538616
0.632862
-0.470895
-0.116764
-0.194034
-0.544281
-0.424509
-0.153162
-0.042836
0.758001
0.744838
-1.068499
-1.520537
-0.049762
-0.378627
-0.133100
-0.095652
-0.314224
1.155984
-0.346893
-0.051617
-0.454769
0.382433
-0.352754
0.075253
0.287415
-0.460089
-1.188338
-0.331940
0.017260
-0.822379
1.329840
0.038786
0.129897
1.361426
0.466381
-0.300307
0.027204
0.109676
-0.522958
0.262276
1.518383
1.618968
0.044463
0.745159
-0.275204
-0.681877
0.129576
0.201484
0.006118
-0.729942
0.009486
0.388114
-0.344833
0.171947
0.672409
1.027227
-0.874974
0.162011
-0.171373
0.114461
0.520582
0.569083
1.126490
-0.294281
0.779580
1.025670
-0.548492
-0.177568
0.184677
-1.012363
-0.134420
-0.415286
-0.204948
-0.122014
-0.838960
0.141388
0.070183
0.604384
-0.281200
0.171900
0.348408
0.194973
1.564605
-0.329391
0.075351
0.686917
-0.262267
0.220441
0.948430
-0.475252
0.683822
2.127482
-0.122910
-0.212397
1.718807
0.128212
0.000110
0.119375
-0.147132
-0.061728
0.174494
-0.368183
-0.213093
0.028599
0.236995
-0.685489
-0.913364
-0.176197
0.223601
-0.383020
-0.423560
-0.182932
-0.097804
-0.312922
0.273920
-0.425231
-0.299041
-0.248500
0.046794
-0.804458
1.588152
-0.173714
0.834946
0.297811
-0.954821
-0.076337
0.739808
-0.276667
-0.168152
0.860699
-0.341961
-0.321834
-0.417528
-0.041525
-0.287299
-0.305189
-0.073927
1.315355
-0.236787
-0.340137
0.662872
1.520149
0.904908
0.226974
0.079998
-0.505236
0.321317
0.347171
-0.261201
-0.175601
0.303316
0.085075
1.267828
-0.025409
-0.292717
0.036217
0.388824
0.024429
-0.239771
0.308625
0.266161
-0.695000
0.471815
0.020068
0.240566
0.106316
-0.217569
0.029899
0.500453
-0.855406
-0.190928
0.277259
-1.012429
0.513150
-0.767071
0.064684
0.164750
-0.398290
-0.173031
0.602235
0.086411
-0.039906
-0.497556
-0.756358
-0.243885
0.346534
0.391362
0.268108
-0.471309
-0.001207
-0.123354
-0.220119
-0.155127
-0.566605
0.206532
0.593984
0.774611
-0.290328
0.526266
0.450720
-0.624253
0.048231
-0.310878
0.445317
-0.810902
0.582661
-0.048793
-0.317326
0.038118
0.044447
-0.491954
1.214129
-0.341578
0.211459
-0.704933
0.819175
-0.166104
0.029427
-0.135613
-0.340657
1.021821
-0.309620
0.177255
0.400905
-0.193458
-0.852216
0.492788
-0.247674
-0.199238
0.717168
0.439193
-1.567788
-0.194709
0.415724
1.614315
1.017179
0.538307
-0.075334
-0.089637
0.256342
0.132880
-0.006844
0.290057
-0.179808
0.253869
-0.355059
-0.139421
-0.366117
-0.249595
-0.007066
0.091501
-0.286752
-0.107305
-0.198317
0.429597
-0.158051
-0.518584
0.361778
0.209920
0.097399
-0.190315
-0.192216
-0.617003
-0.007584
0.740152
-0.271305
1.633599
0.065155
-0.003808
0.317428
-0.429437
-0.176266
-0.579874
-0.856212
0.170660
-0.289760
-0.127370
0.289712
0.458498
-0.670117
0.190125
-0.663394
-0.081147
0.113365
0.275252
-0.262481
-0.652273
-0.511261
-0.503071
0.013108
0.408692
0.206874
0.231796
0.160646
-0.150880
0.086366
-0.539563
0.675802
-0.131168
0.078745
-0.143594
0.316839
0.731843
0.142791
-0.405404
-0.108719
0.575196
-0.149064
-0.206250
1.512406
-0.708833
1.280536
1.309224
0.370037
-0.305165
-0.225940
-0.210527
0.102804
0.692891
0.710644
0.324140
0.129255
-0.214982
-0.245093
-0.382979
-0.209676
-0.354705
0.784945
0.683668
-0.730069
-0.246643
0.080790
0.086948
-0.288217
-1.667024
-0.181396
0.000123
0.406994
-0.557807
-0.656319
-0.564132
-0.609697
-1.204118
-0.079009
-0.352511
-1.142520
-0.598247
-0.401548
0.414863
0.385700
-0.427846
-0.140796
0.282584
-0.140988
0.519590
0.047370
-0.803505
0.000157
-0.286101
-0.791993
-0.603045
-0.877264
0.547568
0.438779
-0.247936
-0.177150
-0.886464
-0.092070
-0.175337
-0.483711
-1.064196
0.161195
0.333350
-0.221216
0.096245
-0.270566
-0.231508
0.880527
0.126386
0.135706
-0.276250
0.869515
0.650826
0.926194
1.654963
-0.530215
0.305143
-0.339386
-0.106131
0.450853
0.799764
-0.330659
0.300580
-0.595337
0.237153
-0.315090
0.728882
0.186193
-0.588783
-0.356433
0.242603
1.097976
0.355384
0.265850
0.841577
-0.233017
-0.469626
1.221129
-0.460406
-0.080440
-0.121589
-1.094410
-0.417805
-1.400806
-0.522025
0.170621
0.703229
