-0.039345
0.546219
-0.153435
-0.291156
0.530417
-0.252579
0.272806
0.548723
-0.127393
-0.038928
0.435493
-0.413084
-0.635473
-0.251956
0.666522
-0.111343
0.729942
0.268250
-0.067723
-0.578741
0.241302
-0.457216
0.330126
0.298057
-0.031798
-1.439798
-0.698020
0.235841
1.007357
-2.082314
0.538173
0.107205
1.371279
-0.059552
-0.296440
-0.574353
-0.014193
-0.351458
1.794448
-0.354508
-0.475113
0.655562
0.041266
-0.920749
-0.155563
-0.174899
0.235180
0.499562
-0.438899
-0.026489
0.631704
-0.176257
1.744546
0.246929
-0.166994
0.198641
-0.242982
-1.411656
-1.791593
0.031555
-0.998194
0.991752
-0.849858
1.219741
0.520171
-1.031542
0.209671
0.325084
-0.737512
-0.184790
-0.498916
-0.254506
0.452027
-0.040763
-0.142392
0.999172
-0.111747
2.333479
-0.343359
0.029199
-0.339526
0.217148
-0.212130
0.014414
-0.038694
-0.435372
0.129640
-1.336559
0.703718
-1.590686
-0.063025
0.477363
0.365409
-0.498813
-0.123591
0.929013
0.027786
-0.003117
-0.249279
0.148541
0.934075
-0.175394
1.214381
-0.313941
0.068890
-0.370224
0.434499
0.865057
-0.392186
-0.617559
-0.214677
0.478084
-0.793653
1.970690
-0.660935
1.045174
-0.021927
0.429844
-0.565277
-0.601792
0.042657
-0.363625
0.228643
0.840051
0.893923
0.165976
0.235044
-1.237329
-0.439056
0.220107
0.008151
0.198189
-0.929795
-0.891359
0.431207
-0.408004
1.426801
0.065572
1.389891
-0.715980
-0.923908
-0.117440
-0.172943
0.127178
0.053117
0.300532
-0.440576
0.640245
0.110234
-0.215389
-0.316865
0.115660
-0.736873
0.925963
-1.479963
0.005337
-1.421121
-0.336103
-0.078541
0.021414
-0.093699
0.159534
-0.332127
0.764586
0.269476
-0.458451
0.180460
0.081297
-1.362833
-1.171130
0.597319
0.269226
-0.530286
0.363560
0.423909
0.904047
-0.369234
0.751434
-0.035222
0.648985
1.095094
-0.727845
0.061854
0.071318
0.472620
0.212632
-0.079469
0.543994
0.224529
1.175186
-0.288981
0.323795
-0.973973
-0.228883
-0.116650
-0.530910
0.037177
0.651096
0.422716
-0.122584
-0.058661
-0.250247
0.349070
-0.145317
0.397440
0.080626
0.342912
-1.034417
0.647511
0.103497
-0.186849
-0.428929
-0.057073
0.548548
-0.115981
0.532162
0.428791
0.085650
0.393575
-0.392933
0.669307
0.917560
-0.232762
0.395413
0.260734
0.167135
0.015483
0.380501
0.236745
0.180504
-0.085859
0.929384
-0.261443
0.836365
-0.244769
0.086502
-0.770162
0.146654
0.590725
1.135981
-0.423215
-0.186937
0.265330
0.072224
0.227337
0.430164
-1.226551
-0.925947
1.011799
-0.242825
0.767724
-0.705319
0.639715
-0.291104
0.272505
0.427374
0.991225
-1.065681
-0.136017
-0.176976
-0.182082
0.219368
0.940641
-0.251613
0.609932
-0.637864
-0.314663
1.095914
0.153383
0.913589
-0.560855
-0.164763
-0.176419
-0.164559
-0.188601
0.429582
0.086501
0.081243
1.725224
-1.056457
-0.691787
-0.522227
1.226508
-0.056368
0.193519
-0.709691
1.269966
-0.433234
1.013097
0.212522
0.308436
0.328101
0.627526
-0.798607
-0.854818
-0.142605
-0.884571
-0.068032
-0.266068
0.140086
0.162397
0.240923
-0.538496
0.848410
0.148394
0.446716
1.524624
0.260651
-0.677623
-0.571572
1.101009
0.372838
0.326040
-0.444795
-0.006250
-0.482311
0.131298
0.506724
0.327225
0.121038
-0.059553
-0.121493
-0.390881
0.504231
0.436486
0.229103
-0.318042
0.414274
-0.042696
0.004342
-0.341872
0.059804
0.154738
0.008168
-0.206363
-0.997175
-0.069826
-1.756183
0.112197
-0.330825
-0.262044
-0.011832
0.110862
-0.062706
-0.729350
-0.756439
0.226029
0.397788
-0.099083
-0.038074
-0.760336
-0.202074
0.493132
-0.875569
-0.567202
-0.559359
-1.935585
0.018400
-0.418668
0.341381
0.895411
0.775305
-0.676433
0.263305
0.371534
-0.898990
-0.393790
0.069110
0.474112
0.044476
-0.163040
0.159294
-0.017906
0.149210
-0.171796
-0.074416
-1.038755
0.229823
0.034573
-0.385763
0.806016
-0.201474
-0.207567
0.823176
0.100921
-0.868796
0.915395
-0.104096
-0.574229
0.369852
-0.076583
-0.138086
0.653976
0.039647
0.605383
1.276465
0.107816
0.327762
-0.314831
-0.101335
0.234304
-0.930983
0.634873
-0.517192
-0.306220
-0.646646
0.577862
0.203522
-0.141021
0.117550
1.156070
-0.081336
0.057371
0.176194
1.075278
0.043396
-0.116309
-0.260884
-0.216827
-0.473173
-0.657037
-0.774155
-0.367596
-0.119282
-0.096725
-0.679693
0.185109
0.188764
-0.541902
-0.371130
-1.277840
0.123398
0.274094
0.977598
-0.227593
-0.645103
-0.267123
0.410228
-0.008000
-0.406739
-0.636649
0.206711
-0.551950
-0.867151
0.333126
-0.101373
-0.786515
-0.067116
-0.165308
-0.558515
-0.026632
0.264818
-1.152204
-0.141898
1.020411
0.547296
-0.013255
-0.152579
-1.377219
-0.283936
0.823587
-0.248444
0.593162
-1.420402
1.475070
-0.678438
0.797447
0.879744
-0.080052
0.215601
-0.231581
-0.467380
0.399115
1.216817
-0.349875
0.180320
-0.696175
0.408244
-0.036141
0.232750
0.466517
-0.940351
-0.796367
0.494903
0.515068
-0.082008
0.589028
0.406394
-0.729700
1.228675
0.330226
0.233112
-0.134974
0.019849
0.778399
-0.861262
2.043977
-0.564080
1.951889
0.139548
