0.092324
1.310449
-1.127266
0.184081
-0.623406
0.214385
0.215793
-0.363101
-0.939927
-0.990714
-0.101481
2.169413
-0.271374
-0.843970
-0.012786
-0.359093
1.134307
0.312890
-0.358725
-0.510762
-0.699860
0.799542
0.452842
0.314316
-0.054347
-0.617760
-1.510710
0.391357
-0.725372
-0.261300
-0.137798
0.868309
0.031542
-0.657362
0.329078
-1.036707
-0.155455
-0.697819
0.645387
-0.050887
-1.462778
1.742715
-0.893324
-1.800944
1.445698
-0.036356
0.386377
0.622392
-0.432388
-1.614820
-0.384297
0.683141
0.035349
-0.460945
0.003803
0.308668
-0.205149
-1.074854
-1.950551
0.633440
-2.074422
1.534591
-0.827064
0.824714
0.007031
-1.148718
0.247252
-0.236155
-0.823889
-0.135535
-0.846223
0.963136
-0.120324
-0.290247
0.233478
0.158618
-0.356356
-1.276152
0.060892
-0.249767
1.418452
0.314072
-0.559754
-0.331230
-0.156501
0.075538
0.106158
1.430899
-0.346198
0.156301
-0.211074
-0.448597
1.122354
-1.830552
-0.241395
-1.103092
-0.176591
-0.113838
-0.673435
0.292134
-0.324022
0.680925
-0.630463
0.624505
-1.968760
0.078178
0.803060
-0.296835
-0.189880
0.445276
0.366311
0.991141
-1.055879
-0.181546
-0.517625
0.253029
-0.705519
0.919708
1.381515
-1.003956
0.325707
-1.038742
0.822952
1.075967
1.108345
-0.096756
0.181757
0.301459
-0.088340
-0.387736
0.358773
0.576170
-1.342317
-0.008471
0.782395
-0.836003
1.412639
-0.565770
1.248543
0.049350
-0.058259
-0.172448
0.339478
-0.587024
-0.333316
0.586628
0.252843
-0.372756
-0.013753
-0.639886
-0.524883
0.204339
-0.334450
0.515818
0.044416
-0.931465
0.724547
-2.071467
0.582854
-0.124201
0.206241
-0.414567
1.177548
0.852225
0.141945
-0.955386
-0.432432
2.039734
1.056000
-0.105721
0.371800
0.217622
-1.339743
-0.446778
-0.981869
1.625546
-0.288929
0.063763
0.106049
0.545957
0.384597
-0.057042
-0.298701
-0.117679
0.412953
-0.096630
0.872238
0.369189
1.362253
0.366972
-0.433306
-0.093754
0.630224
0.136891
-0.211167
-0.113062
-0.500938
0.815036
-0.098947
-0.296018
-0.158868
-0.736915
0.628480
0.473756
-1.247707
2.587598
-0.704120
0.011534
1.492581
0.043597
-0.055422
-0.342712
-0.000401
-3.876927
-0.392400
-0.715522
0.585232
-1.174987
-0.732800
-0.968457
-0.130291
0.061713
-1.924973
-0.368985
0.502334
-0.060514
0.557279
-0.411032
0.362988
0.038309
0.025400
0.407306
-0.266547
1.362327
0.176294
0.322701
-0.224257
-0.723247
0.314951
-0.827351
0.661454
0.293029
0.957688
-0.289141
-1.912035
0.219340
0.190391
0.221348
0.228680
-1.418336
0.137442
0.053713
0.526600
-0.356563
-0.954784
-0.383246
-0.152939
-1.440966
0.278543
-0.866603
1.025263
0.297842
-0.078329
0.169337
-1.132533
-0.376858
-0.230509
0.935891
-0.231252
0.757226
-0.098524
-0.785450
-0.021681
-0.167573
-0.042563
0.921490
-0.327485
-0.197739
-0.269364
0.358975
-0.070916
-0.094703
1.020438
1.295454
-1.483859
-0.797731
1.178673
-0.965665
-0.008581
-1.256265
-0.735798
0.559162
1.565717
0.103428
-0.684088
-0.130511
-0.437841
-0.057928
-0.139801
-0.281036
0.240385
0.093215
-0.058166
-0.327126
1.329613
0.241182
0.136198
0.177925
-0.906102
-0.106523
2.260686
0.399956
0.647211
-0.412150
-2.086771
0.380205
0.244650
0.473904
0.751088
0.660448
-0.202169
-0.287857
-0.676923
2.163766
0.739067
-0.911951
0.024795
1.145333
-0.566093
-0.071775
-1.522216
-0.372721
-0.005857
0.888129
-0.042166
-0.126078
0.333027
0.135875
-1.980965
-0.148514
-0.135080
-0.171874
-0.064153
0.117689
0.237080
-1.593614
-0.222519
-0.342818
0.752616
0.234229
0.153267
-1.372268
2.445804
0.115604
-0.100095
0.080465
-0.244374
0.953268
-0.300791
0.370075
-0.078984
-0.903413
-1.147175
1.207512
1.638512
0.207708
1.328592
0.659307
0.304456
-0.451471
0.586302
-0.293441
-0.359746
1.533242
-0.189461
0.018885
0.981883
0.729097
-0.007238
0.282153
0.593165
-0.304246
-0.056137
-0.348180
0.627751
1.514136
1.161543
0.176130
-1.746801
1.236723
-1.452532
-0.263860
0.724425
1.165086
-0.783210
0.124999
-0.458142
-1.045994
-0.155282
0.386964
0.006277
0.705387
-0.076840
-0.434321
0.121533
0.248759
0.326723
0.810633
0.196209
-1.473187
0.631635
0.620002
1.830225
-0.441036
1.156458
-0.543576
-0.842098
-1.016923
-0.039525
0.762408
-0.138983
0.009110
0.760224
0.756385
-0.719467
-0.694660
0.132619
0.052441
-0.918616
-0.400412
1.350135
1.582910
-1.207315
0.054918
0.156194
-0.863526
-1.188977
0.295566
-0.270907
-1.049138
0.003798
-0.551755
0.680170
0.262549
0.106009
0.398646
0.317919
-0.264828
-0.329902
-0.720423
0.742636
0.795905
-0.752254
-0.256700
2.489579
-1.775145
-1.179617
0.796354
-0.450741
0.317653
0.043491
-0.390585
0.109496
-0.063792
-0.294112
0.290476
0.290028
0.740052
0.152442
0.683436
0.414365
-0.108976
0.604868
1.025875
-0.143839
0.418471
0.175584
2.207159
-0.079495
-0.291374
0.446984
-0.203796
-0.061347
-1.238987
0.722720
-0.816256
-0.445073
0.130880
0.770557
-0.059069
-0.211366
0.834845
-0.306449
0.179136
0.460066
-0.036481
0.847923
-0.851201
0.931762
-1.563467
