0.275732
-0.018893
1.280009
-0.379927
-0.171085
-0.170732
-0.257779
0.687187
1.264586
-0.547600
0.602421
-0.533132
-0.714177
0.749217
0.051151
-0.439191
0.520307
0.718380
0.501508
-0.765280
0.406172
-0.417244
0.153364
-0.578229
0.008357
0.188554
-1.490932
0.602734
-1.406307
-0.316487
0.243901
-0.634710
-0.002356
-0.425999
-0.605283
2.074048
-0.135880
-1.154089
1.529128
-0.025497
-0.987459
0.215378
0.936873
0.079373
-0.728222
0.062666
-1.197518
-0.731341
1.245993
0.908636
-1.408478
-0.086574
0.774420
0.394452
-0.068657
-0.289342
-0.616759
-1.180741
-0.802701
0.196592
-1.954194
1.540398
0.555340
0.370861
0.018642
-1.358299
-0.939046
-0.184687
-0.052543
-0.133805
0.712283
-0.073546
0.174417
-0.207200
-0.285693
0.728538
0.947785
-0.644361
-1.007447
0.350945
0.290478
0.930730
0.125898
0.319297
-0.188539
-0.289208
0.060208
0.759368
-0.709298
0.423862
-0.059181
-0.530808
0.198702
0.034461
-1.106194
-0.500204
-0.268936
0.514902
-0.028560
0.135418
-0.294308
0.409634
-0.973008
-0.568948
1.379256
-0.304956
-0.169742
-0.318110
0.931822
-0.389288
0.545481
0.125279
-0.662738
0.181795
-0.738201
-0.608013
-0.017178
1.816933
1.636341
-0.116766
-0.715119
-0.071707
-0.082616
-0.661438
-0.548420
-0.337741
0.212514
-0.076818
0.410243
0.266875
-0.197227
0.807837
-0.967178
-0.032452
1.960651
0.329043
-0.060631
-0.926406
2.098963
-0.401697
-0.092824
-0.350819
1.000948
-0.215228
0.312716
-1.975095
0.298085
1.145407
0.532690
0.187852
0.052581
0.100763
0.111334
-0.512331
0.108048
-0.120026
0.683393
1.390069
0.102468
-0.524058
-0.330826
-0.065137
0.245474
0.281645
-0.487953
0.497317
0.983021
1.070524
-0.100409
-0.338031
0.719540
-0.681922
0.637924
0.581144
1.197819
0.503218
-0.438824
1.331874
0.929572
-0.614255
0.847275
-0.815733
0.891240
-0.095854
0.408493
-0.813867
0.608808
-0.531923
1.071657
1.029411
0.109282
-0.450995
1.208362
-0.506707
0.263109
-0.295213
0.708659
0.060043
1.502714
-0.342879
0.403872
-0.258171
-0.333949
-1.116269
1.567121
-1.667313
0.380558
0.540043
1.707673
-0.037776
-0.100544
-0.135174
0.469020
0.615537
1.259609
-0.324644
-0.480253
0.155250
0.192713
-0.407021
-0.263060
1.985417
0.457629
0.905286
-1.404826
0.467817
-0.526413
2.220036
-0.074767
-0.461014
1.356716
1.179229
0.049479
-0.141328
0.233725
-0.509617
2.033590
0.378498
-0.303613
-0.810786
-1.303912
0.484304
-0.215509
0.014858
-1.325597
-0.432013
-0.276472
-0.264460
0.914772
-0.487455
0.173095
1.754077
0.224134
-0.164618
1.899883
-0.029895
-0.292286
-0.661652
-1.263038
-0.076798
1.488799
-0.380513
-0.113723
-0.102445
-0.228208
0.251893
0.812214
-0.143182
1.043651
1.236359
-1.786822
0.135234
-0.185473
-0.493806
-0.173941
-0.430713
-0.656318
0.191667
2.007986
-0.110310
0.037581
-0.203244
-0.015643
0.069074
0.530221
-0.101468
-1.043717
-0.065013
2.123206
0.446452
-0.471303
0.048728
-0.816379
0.545691
0.494718
-0.225551
0.648452
-0.707655
0.087594
0.230468
0.729795
-0.109839
0.371087
0.392062
0.122112
-0.848777
0.593041
-0.085074
-0.525470
0.364227
-0.556076
0.700361
0.059272
0.275754
0.036458
-0.170818
0.126887
0.566413
-0.180313
0.108486
-0.064220
-0.355584
1.050508
-0.609704
-0.441119
-0.729646
-0.353431
0.312298
0.223624
-0.403122
0.107099
-0.006417
0.940464
0.264185
0.650901
0.285870
0.201193
0.495889
-1.452353
-0.057046
-0.114281
-0.157475
-0.339928
0.100329
-0.660220
0.487370
-0.178177
0.769088
0.787299
0.514472
0.136598
0.591679
-2.595139
1.816386
0.043565
-0.480617
0.659044
0.446612
-0.259086
-0.287442
-0.243175
-0.160970
0.076864
-0.034329
0.537367
0.046363
-0.646670
0.270491
0.184330
0.805943
0.033351
0.194124
-0.378214
-0.366448
0.155933
-0.220844
-2.046496
0.300616
-0.375500
2.060551
0.467766
-0.324196
0.050026
0.677741
-0.431308
1.971995
0.030957
-0.283261
0.427695
0.314051
1.116824
-0.276828
1.013896
1.233710
0.006432
0.246780
-0.818649
0.663117
-0.409236
0.583084
0.054035
0.790096
0.058380
-0.732350
-0.938529
0.662935
0.873930
0.979830
0.502381
0.007004
0.435501
0.458602
-0.437662
-0.339776
-0.042868
0.213998
1.349838
-1.550371
0.855608
-0.042356
0.046572
-0.498205
0.169497
-0.544995
-0.276305
0.677272
-0.457023
-0.016970
-0.571018
0.241756
1.418946
-0.891075
1.479620
-0.452410
0.148789
0.124730
-0.277610
-0.081263
-0.217336
-0.186750
-0.840574
-0.902998
1.414255
1.178532
-0.646170
-0.122607
0.220307
0.126554
-0.556086
-0.771707
1.690661
-0.012644
1.857441
-1.173684
0.004058
-0.084810
0.867676
-0.495674
-0.077495
-0.113507
-0.885044
0.725861
0.345214
0.639834
-0.192323
0.610433
0.759116
0.253567
-0.671045
-0.472923
0.980680
-1.037313
0.298134
0.518620
-0.150785
0.679911
1.009216
-1.234244
-0.546802
0.421513
0.043310
-0.403979
-1.305403
0.962341
-0.071311
0.969390
0.251354
0.087555
-0.031639
-0.322571
0.850468
0.237776
-0.164249
0.023012
-0.092454
0.232615
-0.616125
0.851798
-1.140229
0.789073
