0.396280
0.019048
1.214373
-0.330390
0.066690
0.116545
-0.133849
0.208842
0.256310
1.130430
-0.982648
0.423727
0.179573
0.631759
-0.290337
0.070922
0.903642
0.776074
0.469599
-0.063776
0.691545
0.526351
0.157215
-0.447090
0.072876
1.816097
-1.010965
0.016631
-1.614047
-0.068564
0.455064
-0.454519
0.026408
-0.411400
-0.288321
1.366613
0.179884
0.010420
0.802429
-0.042761
-0.721008
0.152919
0.211199
0.321196
-0.907476
-0.011080
0.673372
0.208988
0.835387
0.901763
-1.089727
-0.830286
0.630576
-0.488146
-0.236103
-0.451680
0.389204
-0.983741
-0.974655
0.380459
-1.423017
1.155461
1.409927
0.665631
-0.583662
-1.240460
-0.323818
-0.419888
-0.376222
-0.385633
0.833855
0.300741
0.502582
-0.469759
-0.660303
0.409960
1.108222
-0.015997
-0.188922
-0.792725
0.091361
0.302327
0.135937
-0.096273
0.040364
-0.542557
-0.545059
-0.549457
-1.259013
0.152348
0.065037
0.178685
0.169244
-0.419380
-0.268858
-0.741803
-0.012483
0.600977
0.214918
0.323955
0.005738
0.175597
-0.496333
-0.191385
1.511092
-0.328658
-0.445974
-0.340594
-0.070450
-1.338960
0.270196
-0.072188
0.174859
0.693694
-0.342381
-0.095428
0.461800
1.804579
1.601966
-0.093012
-0.692733
0.138389
0.162597
-0.573749
0.259548
0.431145
0.159423
1.025287
0.472292
0.302807
0.743602
0.619331
-0.863703
0.285082
1.476919
-0.990465
-0.808304
-0.974836
1.229600
-0.183201
0.259919
-0.196193
0.263915
1.117866
0.319849
0.288435
0.370554
0.581324
0.054384
-0.860538
0.470020
0.274036
-0.269589
-1.216847
-0.116543
-0.237652
0.513174
1.239491
0.291668
-0.275865
-0.227436
0.038822
-0.565311
0.354037
0.092247
0.548742
0.686704
0.612935
-1.656500
-0.297138
0.668721
-0.048731
-0.632088
0.557154
0.596224
-0.848359
-0.404117
1.067745
0.912261
-0.049700
0.142151
-0.587133
0.670105
-0.057384
0.203627
-0.201898
0.369130
-0.877374
0.130582
1.012675
0.113429
-0.980813
1.216025
0.091021
-0.138469
-0.058629
0.113365
-0.421389
0.220595
-0.241105
0.445138
-0.843174
-0.067927
-0.300169
1.163736
-0.356533
0.674029
-0.323809
-0.093554
0.233167
-0.197025
-0.227633
0.410573
0.690054
0.466770
-0.255837
-0.353691
0.520975
0.329705
-0.302560
-0.824911
2.033323
0.189259
0.861362
0.096007
0.157563
-1.117260
1.446337
0.434483
-0.128845
0.672459
0.824173
0.039016
-0.168466
-0.254848
-0.289435
1.168499
0.328075
-0.402522
-0.482777
-0.300106
0.117412
0.477388
0.478601
-3.056231
0.127108
0.634748
0.398862
0.153765
-1.410486
-1.327522
2.054909
0.728648
-0.164043
1.112120
-0.035834
-0.506935
-0.562158
-0.783764
0.230714
0.117146
-0.345431
0.117941
0.525458
-0.501447
1.048795
0.071636
-0.257879
0.348894
0.409393
-0.115908
0.198730
-0.349663
-0.264291
0.666253
-0.781018
-0.328279
0.322911
1.099422
1.022483
-0.187919
0.734074
-1.137415
-1.034005
1.284003
0.113166
-1.396463
-0.469808
1.861068
0.585660
-0.337311
0.121541
-1.279500
0.268056
-0.066624
0.071743
1.135153
-0.471865
-0.295693
0.621308
0.385194
-0.499555
0.163229
0.189489
-0.203426
-0.698363
1.160711
-0.546222
-0.481802
0.737078
0.079824
-0.325627
0.218414
0.005420
0.363379
0.930191
0.063059
0.737587
0.350739
0.190009
0.068201
-0.218493
1.095024
-0.528558
-0.860938
0.735247
-0.550824
-0.140495
0.180823
-0.485308
0.094478
0.349391
0.726638
0.379222
0.535016
-0.473595
0.888876
0.255595
-0.994054
-0.047316
-0.055472
-0.154673
-0.447289
0.085734
-0.133005
1.340476
0.505609
0.527660
-0.007917
0.699471
0.499148
0.921374
-1.717193
1.379877
0.234949
-0.140987
0.337893
0.742109
-0.042234
-0.270107
-0.661615
-0.410350
-0.154397
-0.819918
-0.654627
0.159819
1.021629
0.196438
-0.954540
0.321309
-0.242605
0.828696
-0.157165
0.196878
0.390746
0.181100
-1.694600
0.116367
0.439836
2.409395
0.322033
-0.059031
0.387164
-0.533019
-0.157155
2.644140
-0.645121
-0.981179
0.950310
-0.585011
0.601828
-0.338958
0.772747
-0.285012
0.326288
0.482379
0.159794
0.440664
-0.259774
0.318146
0.243519
1.180236
-0.013210
0.036206
-0.635893
0.905792
0.082398
0.636541
0.405644
-0.032424
0.331444
0.414478
-1.345156
0.192875
-2.107049
0.202682
0.303674
-1.148841
-0.039304
-0.123870
0.044379
-0.793013
-0.801909
-0.906427
-0.025588
1.218836
-1.042910
-0.113544
-0.234093
0.591817
1.815076
-0.152394
1.913646
-0.822200
-0.444384
1.012904
-0.165913
-0.254566
-0.032515
1.052217
-0.438766
-0.374631
0.912763
1.101249
-0.014196
0.077710
0.752028
-0.245645
0.170642
-0.865763
0.763332
0.738778
1.129048
-0.189498
-1.103007
-1.249878
0.548840
-0.002485
0.389393
-0.083775
-0.888043
1.108599
-0.113356
1.378314
0.404095
-0.296763
0.214335
0.212240
-1.136680
-0.050835
0.777667
-1.204274
-0.162803
-0.005203
0.690835
0.082680
0.496521
-0.297434
0.583634
0.965367
0.183068
-0.223067
0.284307
1.563247
0.638673
-0.281459
0.292426
0.425128
0.429857
-0.497346
0.480476
0.211564
-0.108706
-0.491462
-0.004717
-0.312112
0.363850
1.162739
-0.434779
0.295505
