0.217925
0.060927
1.248422
0.182516
0.852572
-0.409570
-0.191999
0.843412
0.751231
1.016103
-0.068719
1.193507
-0.109296
0.826310
-0.255655
-0.485128
0.044992
0.392173
0.218453
-0.373525
0.299259
0.167445
0.333183
-0.304959
-0.120141
2.250259
-0.866568
0.545363
-1.751719
0.471864
0.111720
-1.027362
0.019494
-0.537391
-0.604432
0.722309
-0.064148
-0.314344
0.072942
0.165031
-0.729917
0.031226
-0.197173
-0.146298
0.436673
-0.208657
0.608808
-0.053827
1.050368
0.033721
-1.602948
-0.734087
-0.131721
-0.085635
-0.150421
-0.713107
1.256216
-0.759517
-0.113918
0.124536
-1.456783
1.753579
1.357739
1.208628
-0.088383
-0.805551
-0.143305
-0.163038
-0.029799
-0.731871
0.430175
-0.140828
0.112788
-0.164445
-0.477426
-0.578213
0.464053
-1.501709
-0.301514
-0.799785
-0.019262
0.872381
0.426038
0.244684
-0.660452
-0.430453
-0.243925
-0.989626
-1.006941
0.594474
-0.096491
0.933609
0.389974
-1.527378
-1.797755
-0.811594
-0.020779
0.452799
0.233269
-0.151357
0.186425
0.271394
-1.529578
-0.724906
1.178426
-0.193020
-1.057225
-0.366878
0.255731
-1.653365
0.209039
0.259619
-0.070993
1.347258
-0.912286
-0.180567
1.148510
0.431568
0.867056
0.330163
-0.416188
0.054234
-0.195832
0.290739
1.034490
-0.305206
1.064028
0.740467
0.178044
0.409046
0.433002
-0.117702
-0.440023
0.055087
1.776629
0.188932
-1.157973
-0.974674
1.377865
-0.706055
0.538221
-0.061167
-0.395298
1.396771
0.966529
0.405441
0.071492
0.172197
0.332999
-0.909064
0.214877
-0.334194
-0.453355
-0.888972
-0.537748
-0.737283
0.318704
-0.908041
-0.256987
-0.086379
1.104643
0.167086
-0.476860
0.057204
-0.242341
1.362546
-0.596996
1.881120
-1.359604
-0.928727
-0.001956
0.117734
-0.800058
0.980745
2.069465
-0.487013
-0.072452
2.167962
0.574083
-0.127576
0.032081
0.526249
0.422897
-0.003340
-0.605822
-0.447215
0.807981
-0.445353
-0.036557
0.037463
0.218885
-0.784009
0.985125
-0.240352
0.186031
-0.081310
-0.001340
-0.583585
-0.265314
-0.051876
0.262857
-0.238253
-0.982674
1.065154
-1.009818
-0.278000
2.622265
-0.568956
0.723004
0.468829
-0.298394
-0.372110
0.830073
-0.924000
0.694576
-0.060236
-0.924865
0.254040
0.878148
-0.402358
-0.764957
0.210848
0.818078
0.531620
1.143710
1.694332
-0.835694
0.884004
-0.341601
-0.277396
0.243834
-0.380747
0.206367
-0.443402
-0.159501
0.304296
0.800412
-0.140993
-0.450527
-0.180382
-0.116871
0.330980
0.123814
0.620117
-2.082662
0.150929
0.105577
0.311229
-0.145460
-0.801408
-1.069475
1.390668
-0.463375
-0.202575
0.666750
-0.218190
-0.294114
-0.486489
-0.596587
-0.687262
-1.312128
-0.354446
0.782610
0.707802
-0.263715
0.386030
-0.664769
-0.344701
1.243534
-0.497023
0.081193
-0.541251
0.068741
0.168983
0.801631
-0.831930
-0.475279
0.812934
0.555974
0.749802
-0.126385
0.445210
-0.689516
-1.123619
-1.757633
-0.146183
-1.850538
-0.835664
1.325002
-0.510325
0.160421
-0.142722
-0.861310
-0.152090
1.715341
-0.016263
1.024836
-0.470396
0.544224
-0.132366
-0.343076
-0.120013
-0.209394
0.565826
-0.461469
-0.555620
0.796652
-0.879529
-0.521906
0.650948
-0.609834
-0.050124
0.218024
1.121097
-2.277265
0.787975
-0.380459
1.108048
0.171467
0.091759
0.328294
-0.158336
0.961507
-0.039502
-0.785322
1.374557
-0.387020
0.824842
-0.701622
-0.015118
0.718415
0.101237
0.500432
0.272697
0.140394
-0.400930
0.974356
2.450031
-1.600719
-0.248145
0.061275
-0.096363
-0.217995
0.048195
-0.184458
1.367288
0.435453
0.865367
-1.106608
0.687948
0.464450
0.951480
-2.040810
0.586165
0.176036
-0.283129
0.803521
0.183462
-0.006698
-0.234017
-0.466833
-0.442274
0.037383
-1.389074
-1.134584
0.096308
0.494275
0.217700
-1.496751
-0.153309
-0.301367
0.013223
-0.137915
-0.162239
0.296003
0.345688
-1.841900
-0.080569
0.445853
0.597199
-0.080790
-0.038803
0.123099
-1.166644
-0.303781
1.436998
-0.491270
-1.034987
-0.987338
-0.789962
1.277991
-0.223525
1.416714
-1.625154
1.394904
1.274684
0.641173
-0.480427
-0.352243
-0.702724
-0.541626
1.355522
0.819644
0.390689
0.205302
1.083419
-1.587065
0.309286
0.396424
0.236835
0.187438
0.057676
-1.678215
0.528039
-1.311333
0.321903
0.197088
-1.490248
0.934962
-0.186812
0.334798
-0.999362
-0.817887
-1.117810
-0.093622
-0.529983
0.007917
-0.620805
-0.717052
0.454616
1.382322
1.417659
3.045852
-0.471299
0.261181
0.742343
-0.213883
-0.212465
0.122625
0.832651
0.079379
-1.274587
1.526666
0.679672
-0.765240
0.739865
0.630048
-0.529659
-0.522249
-0.796306
3.124469
0.884104
1.028279
-1.326103
-1.417378
-1.058017
0.187965
-0.485106
0.607350
0.286499
-0.892790
-0.274172
0.473237
1.365882
0.479540
0.223416
0.518078
0.721106
-1.154211
0.206628
0.899070
-0.777901
-0.628563
-0.557479
0.305689
-0.063087
0.681187
-0.054762
0.174010
1.508264
0.167717
-0.327498
0.247904
0.354371
1.165308
0.279334
0.511196
0.638548
1.032186
-0.860088
1.384036
-0.157769
-0.150538
-0.286522
-0.653368
-0.324214
-0.879317
0.543226
-0.802206
1.262646
