0.262808
0.140121
0.390318
0.007039
0.310555
0.015844
-0.116954
0.514715
0.452876
-0.423148
0.465860
-0.064927
-0.129680
0.199173
0.139986
0.284227
0.429305
0.323840
1.038882
-0.186827
-0.662824
0.510169
-0.072253
-0.233417
-0.025618
-1.230232
-0.619936
-0.254702
-1.374578
0.288197
0.307744
-0.310520
-0.325926
0.095435
-0.512977
2.499037
0.223358
-0.569868
0.359504
0.054927
-0.896077
0.138303
0.779131
1.022883
0.206806
0.063977
-2.506093
-0.463462
0.521547
-0.016670
-1.308049
1.520508
0.224816
-0.053903
0.079801
-0.044013
-1.218317
-0.591638
-0.899622
-0.107511
-0.468146
1.225074
-0.952439
-0.142403
0.023216
0.198399
-0.371415
0.261231
0.127108
-0.771740
-0.271436
0.397945
-0.257507
-0.549489
-0.127467
1.026838
0.671012
-0.546181
-0.807765
-0.159818
0.648870
1.310626
-0.484611
0.675026
-0.111479
-0.502150
-0.379312
0.284036
0.452258
0.132484
-0.069339
0.092139
-0.001018
0.590254
-1.534877
-0.060641
-0.141200
0.006774
0.016024
0.082609
0.273714
0.199064
0.254496
0.946933
0.231286
-0.112282
0.216322
-0.701364
0.385603
0.079994
0.264080
0.234621
-0.456786
-0.218358
-0.382684
-0.900953
0.052975
1.039882
1.547724
-0.354468
-0.307977
-0.269068
-0.646638
-1.199003
-0.377438
-0.417307
0.427772
0.157898
0.254585
-0.540925
0.791801
0.005950
0.075973
0.099984
1.086391
0.889649
-0.291311
-1.337117
1.430246
-0.596660
0.087527
-0.207684
0.935593
-1.154187
0.137531
-1.351986
-0.042788
1.203036
0.382592
-1.324002
-0.158316
0.192339
1.085311
0.787646
0.291212
-0.008443
-0.484911
1.369907
0.370105
0.634234
-0.826824
0.328825
0.547248
-0.051912
-0.418627
-0.401717
-0.024875
1.028847
-0.036262
0.208686
0.458152
-0.499703
-0.359425
0.540815
0.919023
0.181367
0.068403
0.633851
0.945489
-0.131958
0.565539
-0.243584
1.265860
-0.003351
0.775226
-0.837628
0.642959
0.080403
1.026862
0.222435
-0.157427
-0.489843
1.074105
-0.277705
0.099107
0.281611
0.415439
-0.290566
1.300016
-0.204447
0.638398
-0.959842
-0.363465
-1.204576
1.028752
-1.702750
-0.733736
-0.112009
0.854130
0.858403
0.184084
-0.143722
0.114341
-0.975212
0.405782
-0.679422
0.213311
-0.124969
-0.248414
-0.508984
-1.125792
0.774993
0.262500
0.193174
-0.983257
0.643653
0.466278
1.207146
-0.420006
-0.816629
1.370902
-0.690734
0.064826
-0.230431
-0.217582
-0.587519
0.828572
0.730159
0.632620
-0.411067
-1.160861
0.956113
-1.149081
-0.022527
-3.174443
-0.443597
-0.645877
-0.112220
0.615327
-0.845225
0.072310
1.125582
-0.522291
-0.058950
0.544717
-0.046758
0.278063
-0.457310
-1.247803
-0.668296
2.049762
-0.231150
0.099169
0.379574
0.068014
0.149403
0.830845
-0.166724
1.057713
1.218182
-1.864466
0.056974
0.085817
-0.520988
-0.532745
0.139468
-0.364157
-0.696403
0.165785
0.150569
-0.568382
-0.248508
0.517216
0.309415
0.555382
-0.183854
-0.451114
-0.253030
1.235758
0.428048
0.144691
-0.053965
-0.492120
0.518443
0.430999
0.025940
-0.964370
-0.346092
0.203672
-0.131466
0.262424
-0.186494
-0.022627
0.148456
-0.032543
-0.447827
-0.193228
-0.163342
-0.607209
0.898298
0.041321
0.906198
0.480127
0.170295
-0.151959
1.004027
0.064911
1.296914
0.036565
0.210600
0.104034
-0.110852
0.043532
0.352629
-0.331436
-0.696003
0.119495
-0.364081
0.627558
-0.448824
-0.445655
-0.220281
0.573522
-0.272591
0.249636
-0.259830
-0.207219
0.813504
-1.583508
-0.071406
0.123255
0.032781
-0.279501
-0.158449
-0.513667
-1.382195
-0.555626
1.022636
1.356531
0.082268
0.973985
-1.117564
-1.340715
0.846858
-0.059130
0.028962
1.555189
0.529840
-0.162413
0.339393
-0.380704
-0.612106
0.331695
-0.268879
0.896636
0.323381
1.895692
0.199720
0.037244
0.552038
-0.284316
0.189217
-0.302266
0.445675
-0.235707
-0.036653
-1.682615
0.412967
-0.380540
0.574936
0.508596
-0.150188
-0.245011
-0.932125
-0.443211
1.404996
-0.161902
-0.509044
-0.152399
0.473821
0.500499
-0.191253
0.778234
1.043253
-0.067721
-0.351436
0.104751
-0.388872
-0.193085
0.275217
0.082859
1.865638
0.229503
-0.889141
-0.762491
-0.570493
1.458575
0.431203
0.232445
-0.299072
0.522019
-0.024343
1.396252
-0.834547
0.878086
0.131309
1.075527
-0.218456
0.667486
0.443628
0.490608
-0.038364
-0.330477
-0.304855
-0.777368
-0.836157
-0.001001
-0.157280
0.191473
-0.605804
0.646580
0.105247
0.227054
0.106667
0.245710
-0.770838
-0.206130
-0.711980
-0.252476
-0.547692
-0.305161
-0.249823
1.675512
0.270003
-0.862377
-0.824805
0.608980
-0.079665
0.938765
0.310664
2.422220
0.366129
0.790287
-0.216232
0.390835
-0.955494
-0.043184
-0.370900
-0.154074
0.093952
-1.688441
0.799515
0.493845
1.232525
-0.230756
0.236244
0.641761
0.352114
0.297576
0.051842
0.253699
-0.325671
1.142746
0.873658
-0.057853
0.230177
0.213214
0.631604
-0.423288
-0.278710
0.335189
0.423046
-0.967739
-0.138783
-1.138495
1.235132
0.240454
0.845991
1.470942
-0.144904
0.550845
0.401695
-0.002968
-0.339479
0.438959
0.346238
-0.737392
0.894453
-0.077136
-0.332453
