0.309848
-0.705746
1.161395
-0.518032
-0.052841
0.012048
0.405038
0.463634
0.150158
2.266002
0.067294
0.072620
-0.178378
0.213033
0.237970
0.679222
0.021980
0.530595
0.498068
0.660066
0.409203
-0.828546
0.263030
-0.010671
-0.131019
1.545881
-0.655039
0.454884
0.302970
-0.244195
0.647506
-0.712026
0.762266
0.656747
0.222474
1.664121
0.510332
0.931386
1.346775
0.239340
-0.037125
-0.135205
0.305098
-0.177197
-0.590970
0.004892
1.027744
-0.175626
0.281877
0.695428
0.261609
-0.913853
1.560705
-0.219341
-0.088498
-0.501163
-0.396159
-0.158261
1.854905
0.033619
-0.917147
0.423460
1.065087
1.070984
-0.334393
-1.250911
0.158786
-0.147779
0.053751
0.097165
0.000001
-0.351257
0.168490
0.371597
-0.476420
0.427528
0.726274
0.806961
0.138950
-0.217338
-0.569647
-0.005789
-0.473368
0.860050
0.087035
-0.369211
0.304935
-0.870065
-0.629026
-0.721355
-0.063144
0.269799
-0.627862
-0.334568
0.558689
0.093386
-0.004961
0.722650
0.219535
0.007202
0.675089
-0.056774
-0.433179
-0.984098
0.273489
-0.747851
-0.768151
-0.216206
0.130091
-1.399354
-0.182770
0.500811
0.456733
1.692888
-1.409463
0.092621
0.099098
-0.222263
0.515612
-0.037987
-0.597646
-0.392727
0.376498
-0.101477
0.437875
-0.130191
-0.425757
-0.090672
0.044483
0.286638
-0.084861
0.446647
-0.827305
0.371226
0.171017
-0.513967
-0.369493
0.023439
1.293308
-0.518963
-0.275396
-0.047990
-0.528355
1.261324
0.608191
-0.006143
-0.310444
0.780768
0.272609
0.289428
1.040707
-0.516976
-1.017777
-0.598828
-0.656615
-0.284395
-0.695625
-0.952249
-0.276047
-0.728149
0.317502
0.385533
-1.174271
0.374083
0.203896
-0.433796
1.311705
0.208261
-3.393928
-1.304767
0.180147
-0.289326
0.252151
0.412406
0.172469
-0.390278
-0.182402
1.008903
0.264090
0.481495
0.283691
-0.336575
0.838438
0.041588
0.280469
-0.169492
-0.354195
-0.468519
0.556019
0.682335
0.585035
0.387826
-0.276833
-0.306567
0.324921
-0.379815
-0.197734
-0.074269
0.176330
-0.015194
0.129451
0.136018
-0.497138
-0.823450
0.188326
-0.946284
1.668662
-1.035491
-0.325972
0.872155
-0.243855
-0.132955
0.458575
0.536454
0.236504
0.542864
-0.643277
0.538792
1.244665
-0.177208
0.839066
-0.156855
0.483193
0.192998
0.073437
0.981875
-1.233778
0.383594
0.489765
0.394580
0.312586
1.268264
-0.218700
-0.595081
0.142040
-0.777857
0.647110
-0.352416
-0.354158
0.086646
-1.021137
-0.997695
0.586598
-0.030666
-0.112705
0.429023
-0.170600
-0.294346
0.132371
-0.285002
-0.650966
0.820998
0.532691
-0.210404
1.068389
0.045083
-0.212359
-0.691333
-0.468908
0.085563
-1.163844
0.035550
-0.105799
-0.292568
0.089304
-0.073254
0.293749
0.036780
0.742805
0.332973
-0.797293
0.064085
-0.150171
0.216631
0.502513
-0.692544
0.064693
0.330163
0.549186
-0.062605
0.385220
0.090537
-0.927830
-1.634396
-0.386950
-0.405326
-0.761796
-0.344452
1.619925
-0.077276
0.601039
0.151779
-0.902720
-0.167467
-0.439477
0.050212
0.553730
-0.006679
0.037442
0.262255
0.292107
-0.316501
-0.112085
0.460357
-0.109958
-0.479853
1.248597
-0.192312
-0.962515
0.377976
0.437923
-0.084790
-0.406963
-0.162711
-0.210645
-0.319776
0.013531
0.998571
-1.023119
0.020092
-0.091973
-0.154783
0.477386
-0.213121
-0.367212
1.477864
0.296339
0.103745
0.709768
-0.411214
0.255992
0.703703
0.553754
0.252997
0.147678
-0.005102
1.709602
-0.424870
0.070954
-0.449752
-0.283710
-0.100860
-0.138447
-0.028455
-0.346414
1.778212
0.578356
0.954842
-0.709140
-0.044120
-0.468380
1.154582
-1.381332
0.794858
-0.124051
-0.073329
-1.180170
-0.413669
-0.171516
0.197492
0.089738
0.887673
-0.241116
-0.880341
-0.971263
0.104768
-0.578298
-0.302460
-0.568217
0.590011
-0.352304
1.011577
-0.233405
-0.118418
0.211837
0.551212
-2.435491
-0.116283
0.322986
0.034178
0.391080
-0.290995
-0.093191
0.327499
0.212343
-0.558134
-0.310981
-0.846310
0.588139
-0.907731
1.211978
-0.092497
-0.227999
-0.831219
0.733475
1.342472
-0.123135
0.170671
-0.379700
0.108068
-0.125162
-0.035452
1.260869
0.157999
0.317443
0.808630
-0.808419
-0.238231
-0.025607
-0.385552
0.447220
0.079784
-1.547408
0.954409
-1.131372
0.505261
0.562395
-0.698917
0.274929
-0.194155
-0.649579
-1.205828
-1.133629
-1.455826
0.190256
1.543326
-0.098066
-0.100247
0.915419
0.810565
0.857089
-0.539996
2.195986
-0.087388
0.064029
0.344449
0.042771
-0.017328
-0.033126
1.422595
-0.701523
0.684920
0.837204
-0.113588
-0.771075
0.041411
0.251847
-0.435812
0.351194
-0.635477
-0.162854
0.209037
-0.863637
0.066404
-0.665126
0.509872
0.573420
-0.170339
0.114017
-0.624818
-0.315254
-0.108529
0.107006
0.183251
0.211866
-0.504596
0.692259
0.607519
-1.253965
-0.031652
0.228033
-0.881407
-0.683816
0.320385
0.343587
0.074383
-0.389257
-0.262054
0.403158
0.886489
0.460720
-0.710152
0.117447
0.401394
1.176385
0.895738
0.323883
0.173632
-0.634599
0.298045
0.487579
-0.616643
-0.129721
-0.278529
0.319691
-1.253661
1.065711
-0.353832
-0.104677
0.767422
