0.555916
0.384590
0.590592
0.019556
-0.204380
-0.603321
0.178499
0.238564
0.276320
-0.075315
-0.025996
-0.498562
-0.396902
0.838896
-0.048475
-0.559972
0.568143
-0.101209
0.409634
0.032734
0.318578
-0.613826
0.271016
-0.075525
0.030716
1.261371
0.502149
-0.201702
-0.419396
0.164844
0.174807
-0.368552
0.168270
-0.991000
-0.914586
-0.440622
-0.050623
0.528790
0.548828
-0.073218
0.548248
0.093030
0.652758
0.404901
0.072781
-0.075577
-0.300912
0.235438
-0.331549
0.840808
-0.023599
-1.081661
0.495099
-0.100163
-0.274218
0.148101
0.794126
0.648126
2.436400
0.606954
-0.379450
1.355575
0.566577
0.591289
-0.648283
-1.443859
-0.070947
0.111679
0.239840
0.722225
0.460075
-0.508433
-0.262177
0.038147
-0.435703
-0.066200
0.336221
-0.092216
-0.301149
-0.489803
-0.061059
-0.257990
0.537289
-0.376304
-0.074965
-0.708215
0.398565
-0.472322
-0.860205
0.910985
-0.273163
-0.136316
0.404721
0.529313
0.952349
-0.227859
0.070635
0.877629
-0.166014
0.159005
-0.037423
-0.164457
-0.033490
-0.383951
1.055350
-0.301840
-0.578637
0.075296
-0.288776
-0.765731
-0.165635
-0.039173
-0.757749
0.401471
0.050425
0.072867
0.436672
-0.845248
1.118647
0.154383
-0.756707
-0.687835
-0.064792
0.408680
0.233645
0.182161
-0.320007
0.257922
0.385697
0.352270
0.397712
0.019425
-0.090956
0.632515
-1.022420
0.272385
-0.457588
-0.001085
0.952411
-0.365419
-0.103427
-0.209221
-0.407284
0.448647
-0.024536
0.056254
-0.186585
0.794754
0.079792
-0.824999
0.515250
-0.380457
-0.103298
-0.583891
-0.127608
0.247037
1.019910
0.290902
-0.060029
-0.306509
-0.006045
-0.100110
-0.750177
-0.723361
-0.198401
0.926377
0.903466
0.440996
-0.889996
-0.221509
0.027886
0.055504
0.298467
0.102640
0.496892
-0.758139
-0.058389
1.288079
0.199946
-0.032983
-0.004961
-0.994097
0.275371
-0.181414
-0.467299
-1.072478
-0.170029
0.436098
-0.169325
0.327425
0.787526
0.103685
0.633083
0.177116
0.086104
-0.612980
-0.213034
-0.062660
0.030459
-0.295440
-0.172057
-0.302097
0.001181
0.459488
0.987111
0.294042
1.245520
-0.104404
-0.401597
-0.080164
0.005436
-0.065789
-0.364012
0.896511
-0.563569
1.028374
-0.112795
0.124487
0.383143
0.144133
-0.217961
-0.855188
1.010266
1.212857
0.662446
0.702507
-0.526467
1.135016
0.220893
-0.197395
-0.272339
1.028477
-0.104469
-0.519406
0.348583
-0.304354
0.832101
0.105538
-0.433078
-0.544259
0.033488
0.435390
0.424395
1.138572
-1.619190
0.448050
-0.147889
-0.330996
0.014921
-1.065217
0.106787
0.642643
0.284111
-0.153333
1.113518
0.177556
-0.293369
0.380764
-0.217667
0.936916
-0.177400
-0.107590
0.397893
0.746098
-0.007443
0.603786
-0.461285
-0.136043
-0.051595
-0.086943
0.200495
-0.134908
-0.372716
-0.235160
0.308466
-0.112210
0.313435
1.059298
0.438745
-0.450466
-0.535318
-0.015861
-0.668960
-0.876589
1.155167
0.333414
-0.303563
0.015441
1.469175
1.581186
-0.209375
0.053549
-0.516367
-0.448362
0.007856
-0.184911
0.338674
-0.285064
-0.170926
0.518448
0.326245
-0.165686
-0.272523
0.216470
-0.097984
-0.630778
0.636084
-0.329793
-0.121719
-0.065422
-0.210150
-0.001139
0.370925
-0.214802
0.317513
0.493270
0.080320
0.301109
-0.546393
0.105956
-0.125203
-0.117465
1.436583
-0.612125
-0.568303
0.460391
-0.478341
-0.160546
-0.275252
0.073852
-0.341306
-0.115451
0.524073
-0.073878
0.187784
-0.371646
0.478243
-0.461473
0.163532
-0.107700
-0.138665
-0.121313
-0.124271
-0.442473
-0.023897
0.797982
0.072533
0.266997
-0.156647
0.463637
0.873964
0.642441
-0.556606
1.220319
-0.077575
-0.111173
0.547066
0.730819
-0.143900
0.452855
0.064182
-0.449777
-0.133877
-0.264826
-0.815767
0.083581
1.052161
0.142473
-0.223163
0.453134
-0.698847
0.320672
0.379241
0.660122
-0.046860
0.363846
-0.643822
-0.028073
0.648642
0.704719
0.064880
-0.161541
0.154147
-0.266782
-0.008704
0.277698
-0.380004
-0.412431
1.774392
-0.301556
0.388516
-0.258866
-0.375420
-0.789110
-0.324264
0.170459
0.005764
-0.332941
-0.156059
-0.139449
-0.215653
2.513753
-0.103964
0.221419
-0.179719
0.404087
-0.111512
-0.145345
1.144753
1.138753
0.148878
-0.284859
-1.168879
0.358382
-0.602442
-0.194407
0.297442
-0.711229
0.022403
0.085576
-0.731728
-0.144195
-0.667004
-0.666864
0.702622
1.323685
0.866577
0.359497
-0.159779
0.914400
0.590641
-0.025861
2.451988
0.249559
-0.035923
0.468761
-0.160938
0.139183
0.154100
-1.150562
-0.499946
-0.057774
-0.154246
0.629491
0.121568
0.018426
-0.340976
-0.045661
-0.070094
-0.656707
-1.634091
-0.520832
-0.038291
-0.137428
-0.582254
0.035047
0.100102
-0.226437
0.193593
-0.261911
-0.059354
0.646203
0.145404
-0.567945
0.717732
-0.660803
0.213858
0.153711
-0.635100
0.280343
-0.020894
-0.623688
-0.120338
-0.101601
-0.719954
-0.158213
-0.099005
-0.322070
0.374434
0.681377
-0.053897
-0.425616
-0.691252
0.467723
0.391600
-0.201657
1.094004
0.239142
0.273673
-0.549513
0.321190
-0.299404
-0.200242
0.177263
-0.706115
1.187673
-0.103643
0.071350
-0.512158
0.706218
