0.157243
0.984644
-0.787142
0.186358
0.440708
-0.317865
-0.197983
1.424577
-1.069615
0.182139
-0.201608
0.954030
-0.119331
-0.369651
0.773641
-0.611720
0.438887
0.728054
0.381169
-0.289455
0.682049
-0.187085
0.260688
-0.178973
-0.075473
1.076596
-1.121914
0.592084
0.269810
0.001255
0.828517
-1.524468
0.830316
-0.937858
-1.640361
0.161277
0.433501
-1.014470
1.139433
0.432146
-0.971276
0.663850
-0.787617
-1.063108
0.004376
-0.052822
1.612803
0.596172
-0.392081
-1.317896
0.666608
-0.312932
1.494240
-0.461168
-0.187345
0.647733
0.985585
-0.950556
-0.670250
0.577647
-1.971070
2.711454
1.116402
2.537386
-0.128423
-1.796634
0.389543
0.911469
-1.078083
-0.035671
0.015379
-0.248469
0.234721
0.080174
-0.342233
0.830047
1.118201
-0.715916
0.093658
-0.469944
0.213610
0.415406
0.548362
1.263316
-0.329559
-0.983728
-0.191745
-1.383323
-0.389303
-0.955921
-0.186399
1.402864
1.301348
-2.598099
-1.541221
0.086059
-0.192113
0.488969
-0.492694
-0.602062
1.612077
-0.155672
-0.576437
-0.455015
0.449167
-0.561655
-0.116759
-0.371367
-0.801478
-2.088650
-0.250668
0.461067
-1.390206
3.097327
-0.685206
0.221732
1.029844
1.015773
0.128482
-0.161971
-0.188812
-1.518728
0.814056
1.690067
1.980684
-0.058170
0.451130
-0.296390
-0.729497
0.584509
0.135163
0.325013
-1.226936
0.008117
0.860695
-0.951109
-0.270822
-0.065010
1.732566
-1.379758
-0.022532
-0.216575
-0.578283
2.112942
0.101084
1.642773
-0.478481
0.785101
1.267785
-1.203121
0.094705
-0.225533
-1.175331
-0.148506
-1.073231
-0.853869
-0.585632
-2.010754
-0.024168
1.088855
1.219007
0.659898
-0.805050
0.075459
0.192868
1.627746
-0.204981
0.562828
-1.857755
-1.559849
0.864446
0.798660
-1.203035
0.765989
2.257005
-0.222247
-0.300793
3.186997
0.639845
0.605056
0.068994
-0.451085
0.479446
0.093501
0.008083
-0.499349
0.273882
0.552368
-0.552926
0.643794
0.359518
0.508080
-0.354371
-0.919836
-0.156785
0.283767
-0.316043
0.193967
-0.541506
-0.308276
-0.108714
-0.743659
-0.811675
0.761880
-0.473044
0.856209
1.757418
-1.510387
-0.386642
1.690922
-0.310431
-0.344047
1.269274
-0.980124
-0.380767
0.111284
0.086665
-0.447187
1.186169
-0.547224
0.364168
0.439818
-0.631756
1.214133
2.411771
0.925314
-0.589990
-0.115197
0.766906
0.690150
0.618669
-0.055120
-0.245382
-0.369205
0.264340
1.477021
-0.057890
-0.222955
-0.076846
0.642394
-0.468534
0.136290
1.207304
0.285276
-1.664300
0.502297
0.272483
0.135324
0.372675
-0.929308
-0.724972
1.098768
0.248961
-0.375882
0.742030
-0.493556
0.035849
-1.496964
-0.401635
-0.453127
-1.277386
-0.236932
1.432137
-0.156571
-0.348001
-0.840544
-0.365082
-0.402456
0.954946
0.401530
-0.787212
-0.985877
0.229395
-0.084640
0.244456
-0.329756
-0.305794
0.665805
1.208848
0.727013
0.001722
0.120925
-0.720271
-1.166108
-0.357608
-0.594156
0.092502
-1.456980
1.424979
-0.307733
0.310097
0.346245
0.076509
-0.633820
0.406288
-0.261366
0.976032
-0.394318
0.898075
0.244559
-0.024221
0.042100
-0.409324
1.144711
-0.069450
0.090279
2.500135
-0.276523
-1.918869
0.422384
0.195466
-0.388135
0.583310
-0.475142
-2.732128
-0.059669
0.456071
2.152313
0.476406
0.376850
0.233254
-0.258841
0.133001
0.268154
-0.150672
1.688201
-0.175415
0.445850
0.447121
-0.388157
-0.504834
0.222892
-0.071913
0.055552
-0.050835
-0.297628
0.906842
-0.127825
-1.079508
-0.827811
-0.147854
0.136022
-0.005460
-0.391829
-0.460461
0.264224
1.044337
1.568561
-0.777151
1.165544
-0.390025
0.176483
0.593929
-0.522604
-0.261679
-0.502944
-1.224507
0.531222
-0.528399
-0.010678
0.346170
0.375101
-1.786172
-0.847458
-1.140833
-0.081730
0.195036
0.393133
-1.129565
0.040776
-0.708995
0.156084
-0.086214
0.319215
0.597309
0.408952
-2.137617
-0.106971
0.446744
-0.408813
1.184720
-0.167617
0.020964
-0.946853
0.417336
0.944722
0.009305
-1.362346
-0.335328
0.112953
0.233015
-0.356091
1.383574
-1.591877
2.015191
2.122922
0.388667
-0.332439
-0.484456
-0.766970
0.362785
0.409538
2.025218
0.475109
0.712770
-0.226970
-1.172775
0.227056
0.551936
-0.150237
1.413457
0.384488
-1.301976
0.365706
-0.218565
0.369185
-0.045751
-1.671342
-0.354787
-0.082762
0.088491
-1.595325
-1.573238
-1.053339
-0.339315
-1.253163
-0.030107
-0.458859
-0.837263
0.124144
0.607480
1.232792
2.432766
-0.383214
-0.086493
0.479466
-0.748392
0.461917
0.169750
-2.005657
0.002269
0.279833
0.469701
-0.273776
-0.951309
0.804335
0.085334
-0.561217
0.402036
-1.278946
0.459424
0.555079
-0.827747
-1.028792
-0.035182
-0.238861
-0.183348
0.089879
0.693019
-0.279149
0.028489
-0.167164
0.182889
-0.182140
2.391145
-0.649688
1.454547
2.391531
-1.075738
0.866106
-0.235823
-0.877886
0.056911
1.053174
-0.405132
0.808744
-0.902783
0.840062
0.476233
1.414331
0.599993
-0.696035
0.137785
0.450872
2.305020
0.509008
-0.219284
1.022041
0.755988
-0.203713
1.730116
-0.763514
-0.340523
-0.025126
-0.957669
-0.899478
0.533831
-1.000241
0.626185
0.904319
