-0.060283
1.121357
-1.025290
0.941446
0.059905
-0.263314
-0.717321
0.184413
-0.545656
-1.341419
-0.469840
2.247344
-0.585682
0.002953
0.669387
-0.840715
0.125464
-0.161453
-0.586959
-0.536247
0.086364
0.516318
0.726133
-0.112353
0.024810
0.052547
-1.015919
-0.292083
-1.555029
-0.246877
-0.248912
0.289703
0.172286
-0.779972
-0.195247
-0.745061
-0.244986
-1.172630
-1.178333
-0.246785
-1.027260
1.192100
-1.400650
-1.586258
0.548314
-0.052031
1.334335
-0.134675
-0.127425
-1.264032
-1.283999
-0.175113
-1.317331
-0.208370
-0.150031
0.512415
0.592023
-0.973367
-2.176055
0.120334
-1.914741
0.872411
-0.879739
0.742720
0.307060
-1.291898
0.489669
-0.065092
-1.213495
0.145089
-0.504529
0.420026
0.126898
-0.376526
0.565445
-0.326507
-0.155692
-2.958214
0.291885
-0.432636
0.285750
-0.025815
0.018834
-0.532959
-0.268299
0.053509
-0.176852
0.160648
-0.533378
0.903692
0.048697
-0.106842
0.786171
-1.821222
-1.027680
-1.121016
-0.286254
-0.058525
-0.302201
0.310375
0.267624
0.256335
-1.302859
-0.037597
0.184692
-0.163816
0.433753
0.294340
0.103131
0.187018
0.312344
-0.015351
-0.848855
-0.007975
-0.197754
0.711282
0.432349
1.379580
0.815166
0.073085
0.187134
-0.186336
0.460443
0.593349
0.392160
0.064534
0.936554
2.261695
-0.158177
0.379171
-0.043812
-0.051349
-1.010104
0.820515
1.096118
-1.288714
0.614486
-0.538313
0.941888
-0.530705
0.827696
-0.142038
0.716739
0.199580
0.163940
0.009062
0.216162
-0.900244
0.214341
-0.240062
-0.658432
0.304672
-0.398591
1.081298
-0.008819
-0.669793
0.983061
-0.655735
0.416238
-0.828049
0.153583
-0.420666
1.316841
0.866732
0.621348
1.079405
-0.968505
2.384430
1.845130
0.635665
-0.063628
0.047929
-0.654486
0.188046
0.574694
0.110470
-0.584708
0.316686
0.235986
0.287848
-0.015147
0.109751
-0.421600
-0.081004
0.120758
-0.321479
0.539665
0.082761
0.678988
-0.832896
-0.367582
-1.059180
-0.074461
-0.066656
-0.159100
-0.077523
-0.299703
0.393224
0.264326
-0.357995
0.150144
0.552872
-0.061693
0.711154
-1.293605
1.311939
0.072126
-0.026254
2.101700
-0.354238
-0.128002
-0.221655
0.193919
-2.262571
-0.095013
0.012898
0.259285
-0.364068
-0.432175
-0.033434
1.292305
0.547599
-1.225662
0.319679
1.212130
0.283350
0.401996
-0.656069
-0.027119
0.138300
1.043972
0.380109
-0.061406
1.124181
-0.405115
1.415466
0.270405
-0.279878
0.233121
-0.128343
0.332796
-0.009502
0.604630
-0.034028
-1.100227
-0.495848
0.829030
0.484443
0.176796
-0.406897
0.163307
1.343001
-0.258971
-0.167219
-0.362485
-0.451703
0.211658
-1.012478
0.250180
0.179345
0.700017
0.928057
0.933820
0.058908
-1.245588
-0.014412
-0.511133
0.521518
-0.058869
1.526556
0.190697
-0.554032
0.028399
0.098702
0.155157
0.296212
-0.681102
-0.214507
0.106237
1.711979
-0.839923
-0.167839
0.229236
0.190278
-0.867830
-0.249486
0.266016
-0.472009
-0.178759
-0.712906
-1.195050
0.028639
-0.363611
0.271372
1.469812
0.068470
-0.721168
-0.202312
0.495213
-0.427146
0.065359
-0.196676
-0.369906
0.068932
-0.064951
0.311939
-0.206486
0.285231
0.075429
0.493272
0.523744
0.499259
-0.113797
0.409538
-2.212758
0.311932
0.038212
0.125644
0.908919
0.390249
-0.092857
-0.281974
0.292325
0.629031
-0.081047
-0.079354
-0.246680
1.407599
-0.544864
0.756131
-0.397770
-0.428285
-0.034175
0.912262
0.056772
0.111543
-0.649328
1.912105
-1.609207
-0.255470
0.658033
-0.062158
0.028150
0.027600
0.613931
-0.774471
0.334153
-0.387733
1.376569
1.092398
-0.166763
-0.153377
0.066195
-0.346604
0.224499
-0.370315
-0.339844
-0.011870
-0.063170
0.274184
0.111471
-0.250274
-0.459260
1.345293
1.349214
0.399992
-0.038364
0.653163
0.200129
-1.221929
0.460927
-0.790746
-0.005606
0.504241
0.431741
-0.270778
1.009140
-0.015784
0.214468
-0.327026
0.726969
-0.257389
0.192070
0.516016
0.480005
2.481301
1.138414
0.193752
-0.851601
1.087721
-0.673009
-0.212169
1.185270
0.932613
0.602841
0.955661
-0.401030
-0.528000
-0.105580
0.691982
0.738997
0.054245
0.208064
0.574254
0.601056
0.110510
-0.641694
0.525939
0.095262
-0.568766
0.303245
0.012196
0.217328
-0.090608
0.795173
-0.016222
-0.882153
-2.085766
0.352457
0.003904
0.824844
0.284975
0.374324
-0.025099
-0.389369
-1.754402
-0.126787
-0.563893
-1.707425
-0.368424
0.362283
1.349751
-0.669247
0.392112
-0.022501
0.197321
-0.758795
0.075789
0.020418
-0.328516
0.041323
-1.512444
0.916306
-0.462379
-0.634126
0.463043
0.154484
-0.046076
-0.870937
-0.756219
1.624475
0.030733
0.336865
-0.825777
1.520177
-1.538469
-0.284844
0.323386
-0.854804
0.399586
0.774961
-0.352273
0.168655
2.080942
1.122508
1.000298
0.216676
0.421025
0.161317
0.244483
0.169198
-0.065733
0.077064
0.815428
-0.142503
0.014658
0.089881
1.139142
0.368871
0.383808
0.232822
-0.753634
0.821792
-0.151167
1.100851
-0.787457
-0.144705
0.238789
-0.822690
-1.296013
0.382810
-0.057435
-0.171923
-0.056150
-0.382150
-0.107550
-0.589263
-0.425072
0.709139
-0.020696
