0.300229
0.287393
-0.298988
-0.215459
-0.399391
0.629275
0.372098
-0.401477
-0.002019
0.385376
-0.663663
-0.101485
0.755581
-0.449319
-0.257149
0.407417
0.417395
0.626017
1.095948
0.765326
-0.733940
0.714410
-0.330756
0.083450
0.136122
-1.881427
-1.031113
-0.840853
-0.518652
0.607933
0.183413
0.309599
0.150074
-0.171359
-0.090290
1.553936
0.347574
0.789160
0.994417
0.444621
-0.351790
0.148450
0.789127
1.265266
0.211886
-0.063144
-0.901991
0.227512
-0.736038
0.299494
-0.221342
0.641369
1.219959
-0.507168
-0.018112
-0.255396
-0.585789
0.232228
1.939749
-0.056193
-0.551183
0.503907
-1.214651
-0.220872
-0.294915
-0.573216
-0.192485
-0.058234
-0.115321
-0.373160
-0.768161
1.434842
-0.121447
-0.504720
-0.254631
1.071358
1.373192
0.247226
-0.317009
-0.091591
0.137224
0.069926
-0.317876
0.390400
-0.300425
-0.411975
-0.357736
0.960239
-0.363625
0.267029
-0.030097
0.160202
-0.056871
0.690966
1.497786
-0.307557
0.119357
-0.248686
-0.164201
0.292274
-0.177063
-0.017302
0.053063
0.816438
-0.683592
-0.075146
0.289163
-0.805914
-0.707640
-0.675151
-0.206041
-0.199005
-0.384089
0.018354
0.365061
-0.574811
-0.288081
-0.382567
2.491355
-0.608467
-0.393574
-0.578457
-0.040444
-0.381146
0.730301
-0.181631
-1.075067
-0.078126
0.512961
-0.736427
0.386642
0.640778
-0.695178
-0.313460
-0.333948
0.049210
0.056419
-0.798449
1.408689
-0.249554
-0.209640
-0.192945
0.112629
-1.053328
-0.059656
0.519242
0.270460
1.212572
0.231149
-0.273769
0.296115
-0.572101
0.201011
-0.075631
0.185839
-0.383751
0.003109
1.117387
0.525170
0.343303
-0.903740
-0.114622
0.499037
0.259469
0.036047
-1.074997
1.133963
1.093921
-0.596478
-0.090327
0.839115
0.431456
-0.416886
-0.165388
-0.530540
0.896122
-0.305074
0.129963
1.120888
0.352999
0.602010
-0.754769
1.259130
-0.180730
0.656094
-0.730443
0.167508
0.129272
0.669869
-0.071744
-0.436044
0.112929
0.912967
0.047501
-0.276845
-0.222290
-0.430053
0.223461
0.664698
-0.253136
0.497978
-0.947721
0.138395
-1.116787
1.745977
-0.503844
-1.309526
-0.201035
-0.852059
1.071363
-0.099011
-0.177972
-0.058522
-1.267263
-0.691265
-0.454202
0.112280
-0.243205
-0.290948
-0.682577
-0.249503
-0.608675
-0.359263
-0.059726
-0.078737
0.568813
-0.002868
0.719793
-0.015864
-0.411238
0.569042
0.741155
-0.027723
0.505322
0.560205
-1.288175
1.023013
0.187299
0.189287
-0.919475
-0.811361
-0.169953
-0.549404
-0.331100
-2.088011
0.097896
0.438486
-0.289325
0.430988
-0.762226
-0.950446
1.659046
0.247852
-0.230813
0.464429
0.228735
-0.584457
-0.309296
-0.550141
-0.297298
2.037776
0.257292
-0.162545
0.402573
-0.034533
0.486212
0.632887
0.707058
0.279152
0.343318
-0.427165
-0.143448
-0.292331
-0.498152
-0.658889
0.446915
-0.082893
-0.974260
-0.000860
0.010431
0.771575
0.159117
1.024531
0.702671
1.194154
-0.456775
0.225048
-0.292549
1.627266
0.129944
0.195469
-0.000642
0.246009
0.323990
-0.779663
-0.050125
-0.919913
-0.477011
-0.680241
-0.383447
0.219012
-0.131731
0.226151
-0.022331
0.015699
-0.388188
-0.216951
-0.593711
-0.680083
0.659280
0.574891
0.579456
1.039865
-0.651757
0.765297
0.419741
0.458614
1.254016
-0.288489
-0.134871
-0.367778
-0.156150
-0.127820
0.241240
0.185615
-0.456784
0.138740
-0.232559
0.628772
-0.394598
-0.821476
-0.033767
0.513516
-0.138766
0.237560
0.308968
-0.407065
-1.511273
-1.137120
-0.161081
-0.093704
-0.220644
-0.175870
-0.022690
-0.022184
-1.163764
-0.657966
0.592624
0.356033
0.110616
-0.021629
-1.478187
0.731071
0.172139
-0.163036
0.586098
0.150073
0.332027
-0.347889
-0.158923
-0.251838
-0.588428
-0.389134
-0.322898
0.017025
0.376138
0.746925
0.142971
-0.213480
0.635507
-0.082137
0.474454
-0.176513
0.721578
-0.289100
0.588364
-0.459662
0.740453
-0.326543
0.895023
0.686664
0.101136
-0.073987
-0.970038
0.215186
1.384580
-0.065222
-0.136037
1.401394
0.506323
-0.197087
-0.323451
-0.358070
0.078079
-0.754745
-0.464127
0.042456
-0.498158
-0.103613
0.161368
-0.282428
1.707600
-0.062453
-1.103699
-0.920009
-0.921659
1.646724
1.072502
0.012940
-1.639388
0.705617
0.813763
-0.412454
-0.550452
-0.210600
-0.032529
0.393199
0.199562
-1.440135
0.672806
-0.948371
0.025054
0.036058
-0.029647
-0.118391
1.466362
-0.514433
-0.233784
0.481918
-0.457097
1.648381
-0.862198
-0.079066
0.075605
0.260690
-0.867789
-0.339271
-0.539329
-0.211099
-0.812200
-0.549630
0.676327
1.187794
0.677468
-0.596098
-1.017893
0.452656
-0.245984
1.557278
-0.542345
-0.505444
1.438471
-0.969584
0.445669
0.519406
-0.631120
-0.389141
-0.077736
0.480021
-0.330489
-0.869143
0.337997
-0.567070
-0.220465
-0.572967
-0.592335
0.552211
0.857037
-0.168992
0.322498
0.239547
-0.613183
1.440904
0.712532
0.637986
0.416289
-0.441109
-0.050435
0.099081
-0.543670
0.113473
0.029273
0.115691
-0.577911
-1.113551
-0.037429
-0.171548
0.837676
0.370100
0.256671
0.100194
0.524774
-0.079421
-0.364769
0.037530
0.149816
0.299921
0.094983
-0.208965
-0.983783
