0.093075
0.273941
-0.180035
0.036348
-0.870744
-0.294148
0.359447
-0.406884
0.485340
-1.139478
-0.445679
-0.181950
0.419092
0.138452
0.349927
-1.066606
-0.665517
0.310469
0.218113
0.088833
-0.465762
0.504860
-0.059594
-0.821012
0.052560
-0.756535
-2.388169
0.054737
-0.353708
1.551963
-0.207787
0.636488
-0.606524
-0.962054
0.102085
-0.016893
-0.051022
-1.131261
0.846922
0.217428
-1.432861
0.839405
-0.147074
-0.687387
0.131458
0.015248
-0.248352
-0.177248
-0.059301
0.072390
-0.800496
-0.459639
0.479772
-0.336049
-0.210083
-0.317043
0.569908
0.001763
-1.013070
0.263706
-2.414568
-0.125807
-0.644291
-0.340090
0.603925
-1.593392
-0.222324
-0.251267
-0.925977
-0.039062
-0.166072
0.438822
0.023529
-0.549961
0.030316
-0.105942
0.533879
-2.108754
-0.686134
-0.712747
-1.137932
0.152247
0.241132
-0.798206
-0.136956
0.073740
-0.322080
0.650116
-0.068123
1.329311
0.065548
0.562567
0.372664
0.030092
-1.423228
-0.714910
-0.043604
0.134648
-0.212929
0.300991
-0.723368
0.137709
-0.714569
-1.351762
0.018250
-0.032138
0.323430
-0.868420
-0.332129
0.281557
0.407622
0.204572
-1.012456
-0.629633
0.227845
-0.857749
-0.539384
0.844382
1.458909
-0.202472
0.078028
0.105398
0.818594
-0.341290
-0.229655
-0.178387
-0.172125
-0.533741
0.862261
0.110111
0.016921
1.266545
-1.657141
1.206915
0.555808
-0.722530
0.109501
-0.285380
1.755880
-0.286975
-0.234285
-0.362263
0.798823
-0.619184
0.279509
-0.231874
0.907206
-0.525658
0.345198
1.120642
-0.203700
0.157283
-0.036956
0.410024
0.866828
-0.707967
0.948717
0.220239
1.250104
0.064860
-0.602407
-0.338260
1.519879
1.334302
0.304422
0.070406
-0.223736
1.885382
2.110802
0.178331
0.052396
0.113191
-0.792838
-0.235538
-1.026079
0.811956
-0.561778
-0.330639
0.073923
-0.421170
0.779570
-0.838269
-0.036671
-0.390129
0.161173
-0.475031
0.442560
-0.135403
1.152286
-0.620049
-0.399477
-1.027153
1.361247
0.387113
-0.038175
-0.371674
-0.261759
0.639423
1.284222
-0.475347
0.611373
-0.869593
0.154237
0.069032
0.884123
1.067845
-0.609500
0.323670
2.102882
-0.338356
-0.241638
-0.358430
0.306978
-0.358253
-0.246613
0.401899
-0.085042
-0.442778
-1.260214
0.227704
0.909919
0.807064
-0.070562
-0.630180
-0.503764
0.613737
0.460905
1.495376
-0.491807
-0.306708
1.839172
0.815101
-0.115350
1.133237
-0.341243
-0.433315
1.503767
0.122916
0.502926
-1.025323
0.237848
-0.100072
-0.168173
0.340265
-0.954589
-0.277680
0.934511
0.239030
1.229668
-0.466546
-0.310712
1.784405
0.176197
-0.023122
0.045729
-0.688883
-0.502402
-1.402603
-0.274516
0.067195
1.344569
0.837813
0.424028
-0.373756
-1.294829
0.513466
-0.249759
0.556257
-0.214567
1.196588
-0.178907
-0.277510
-0.203482
-0.273852
0.250517
-0.005525
-0.674712
-0.104918
0.880038
0.734683
-0.178325
0.052001
2.077681
0.924598
0.700756
-0.551286
0.295416
-0.480198
0.778378
-0.034115
-1.110311
0.016204
0.153812
0.315745
-0.024954
-0.303077
-0.470082
-0.616094
0.387455
-0.898508
0.413047
-0.260398
0.213773
-0.749173
0.189101
-0.305836
-0.221727
-0.150799
0.276376
0.528412
0.070269
1.100799
0.016720
0.216966
-0.786305
0.251037
0.519226
0.035473
0.353143
-0.172060
-0.063915
-0.307771
0.374389
0.372394
0.169208
-0.640899
0.272333
1.090919
-0.112339
0.142608
-0.649542
-0.534319
0.775400
0.908562
0.273888
0.463696
-0.711875
0.923889
-1.185255
0.031765
0.048140
-0.321238
-0.329563
-0.002165
-0.174192
0.136921
-0.648719
-0.716427
1.029107
0.736437
-0.727562
-0.537096
-0.295611
0.935010
-0.103790
0.565537
-1.011662
0.328767
-0.458736
-0.421493
0.099992
-0.775832
-0.341385
1.147075
1.427545
0.447048
-0.122876
0.500177
-0.172432
-0.364902
1.021509
-0.507443
-0.589194
0.125928
0.130541
-0.011522
0.755235
0.724309
-0.127275
1.533535
0.702856
-0.313973
0.106293
-0.297484
0.355635
2.984816
0.968758
0.636388
0.348447
1.037088
-0.602452
-0.375415
0.730891
1.516910
-0.636305
0.110546
-0.656579
0.226031
-0.167169
0.711477
0.326029
-0.241134
-0.611553
-0.492795
-0.714674
0.621942
1.697292
1.157897
0.251916
-1.103231
0.351637
-0.234873
-0.579843
-0.380420
0.112330
-0.021550
-0.807571
-2.101512
-0.358112
0.619914
0.970121
0.216444
0.845499
0.204945
0.310631
0.008831
-0.402256
-0.107452
-0.558795
-0.870498
1.282973
-0.170972
-0.773484
1.061017
0.387792
0.277205
-0.792323
0.298347
-0.371363
0.199360
-0.386420
-1.346974
0.915032
0.403601
0.057741
0.124618
-0.377874
-0.567347
-0.700093
-1.441533
0.574168
0.755430
0.604849
-0.239259
1.688100
-1.414599
-0.143457
0.103474
-0.070664
0.263598
-0.234673
-0.384795
0.080337
0.776932
0.628241
2.118721
0.242757
-0.265372
0.042631
0.040205
0.244454
-0.296852
0.672860
0.790944
0.050806
0.988984
0.653692
-0.551012
-0.842805
0.282897
0.127468
-0.670329
0.320200
-0.857712
0.932525
-1.094756
-1.526947
0.103482
0.226017
0.196837
-0.442190
-0.973217
-0.095085
0.111283
0.150510
0.635014
-0.766866
0.264615
-0.369466
-0.758374
