0.679511
0.044268
0.824362
-0.149639
-0.409597
-0.556669
0.578420
0.062766
1.104087
1.223702
0.044033
0.190817
-0.023971
1.050880
-0.253228
-0.235691
0.256374
0.059717
0.712209
0.609870
-0.047489
0.040318
0.217183
-0.119006
0.042870
1.874948
-0.990471
0.069136
-0.855672
0.133874
-0.065831
0.078415
-0.111579
-0.777909
-0.256689
-0.269267
-0.082339
0.523706
1.299780
0.012893
-0.349319
0.155150
0.953892
0.825900
0.537270
-0.085407
0.218548
0.306173
0.245203
1.422492
-0.791542
-1.252556
1.069631
0.243413
0.007972
-0.188251
1.057393
0.656469
2.423555
0.516990
-0.948314
1.383807
0.852184
0.638301
-0.639841
-1.775245
-0.033178
-0.478595
0.516754
0.234539
0.198442
-0.485619
0.010228
-0.047940
-0.726423
-0.279722
0.401795
-0.500771
-0.354589
-0.534495
-0.869979
0.204776
0.096229
-0.002820
-0.137978
-0.738216
0.191857
-0.519739
-1.394391
0.901734
-0.210570
0.233859
-0.229303
0.415667
1.078254
-0.974289
0.323529
1.186477
-0.154620
0.263274
-0.108601
0.409843
-1.264337
-0.912204
0.828495
-0.617404
-0.405517
-0.323141
-0.202975
-0.721662
0.146132
0.378061
-0.658734
0.446881
-0.705926
-0.083926
0.195958
-0.443703
2.509429
-0.147551
-0.759639
-0.640334
0.019208
0.287402
0.395247
-0.059399
-0.473233
0.260635
0.471119
0.289417
-0.012749
0.473451
-0.589348
0.049413
-0.262451
0.385151
-0.513965
-0.818722
1.593087
-0.327676
-0.348077
-0.189180
-0.521409
0.418031
0.096717
-0.116035
0.153042
0.992163
-0.022694
-0.370264
0.798097
-0.721527
-0.604150
-0.969635
-0.172187
0.142882
1.763212
0.469518
-0.016543
-0.494548
-0.126687
-0.075692
-1.234025
-0.796144
-0.537605
0.037931
1.084464
1.753223
-2.117334
-0.740535
0.076340
0.127040
-0.251957
0.132989
-0.331795
-0.381806
-0.431279
0.706452
0.259251
0.240745
0.196843
-1.009492
0.928696
-0.315970
-0.401060
-1.139270
0.416280
0.026588
0.070593
0.531788
0.970124
-0.322563
1.650109
0.289888
0.226917
-0.528494
-0.241682
-0.398780
0.253843
-0.335613
0.228750
-0.436621
0.046543
0.135144
1.176093
0.820814
1.589393
0.323063
-0.143441
0.000375
-0.139885
-0.149070
-0.264513
-0.435558
-0.186621
1.495669
-0.129279
0.294433
0.201970
0.321845
-0.582100
-0.744485
0.815464
1.041542
0.753523
1.205297
-0.530111
1.836684
0.375324
-0.132352
-0.015270
1.488698
-0.103260
-0.224131
0.133675
-1.309491
2.140552
0.027286
-0.812604
-0.562127
-0.118858
-0.185914
0.524081
1.272494
-2.101389
0.604681
0.171835
-0.615957
0.126271
-1.398608
-0.489278
0.989593
0.653573
-0.209974
1.490923
0.657513
-0.773730
-0.256326
-0.417580
0.140163
0.157764
-0.003155
-0.195453
0.631085
-0.348057
0.842498
-0.338484
0.110536
0.040915
0.180409
-0.370528
-0.332608
-0.570520
-0.359090
0.486742
-0.276299
0.197275
1.125524
0.250237
-0.589637
-0.148054
-0.078324
-0.574235
-0.684572
0.579315
0.017478
-1.119525
-0.242849
2.344250
0.708427
-0.108404
0.098207
-0.767420
-0.477915
-0.238970
-0.286173
0.591818
-0.407217
-0.718280
0.346105
0.206969
-0.423616
-0.074752
-0.040060
-0.213341
-0.923780
0.558002
-0.593710
-0.089949
0.362545
0.619409
0.429714
0.033325
-0.345828
0.155928
0.525823
0.018638
0.410410
-0.924232
-0.312411
-0.045135
-0.278065
2.149111
-0.228426
-0.418710
0.490673
-0.315562
0.369960
-0.344501
0.334487
-0.189934
0.015094
0.770895
0.026333
0.380103
-0.293545
1.062449
-0.795996
-1.414749
-0.064876
-0.363108
-0.223819
-0.437121
-0.443131
0.006981
1.932338
0.102374
0.151128
-0.198342
-0.066953
0.568854
0.975546
-1.215000
2.089981
-0.203585
0.172153
1.010212
0.788140
-0.212803
-0.064749
-0.306513
-0.583956
-0.226219
-0.504299
-0.560941
0.054329
-0.029522
0.198902
-0.683070
0.692834
-0.563098
0.387992
0.116946
0.939246
0.080137
0.757556
-1.157949
0.593386
0.983238
1.452413
-0.058542
-0.418043
0.296086
-0.477495
-0.077521
1.384349
-0.134244
-0.579693
1.622923
-0.423496
0.639597
-0.313057
-0.290056
-0.424527
-0.740401
0.064898
-0.023643
-0.397473
-0.276439
0.128306
-0.364559
2.599224
0.137145
0.023656
-0.589973
1.228261
0.279603
0.795718
1.058345
0.679372
0.122700
-0.223503
-1.961218
0.877467
-0.978033
0.017490
0.129480
-0.692898
-0.025819
-0.158268
-1.086411
-0.065635
-0.540657
-1.133517
1.308697
2.018859
0.568659
0.193108
0.326583
1.181811
1.643237
0.283011
3.263710
0.306163
0.422967
0.201679
-0.355123
-0.189386
-0.007482
0.676994
-0.761647
-0.081491
0.485561
1.225255
-0.356887
0.193338
-0.647504
-0.315020
0.159112
-1.448389
0.298975
1.340490
0.275304
-0.247483
-0.393049
-0.984400
-0.043202
-0.323034
0.085451
-0.416508
-0.783861
0.320411
-0.337727
-0.511265
-0.432750
-1.201725
0.151902
0.116230
-0.987157
0.561993
0.792984
-1.102871
0.027678
-0.253856
-0.573128
-0.421923
0.471591
-0.074844
0.665932
1.297568
0.208793
-0.821838
-0.127787
0.272825
0.790950
-0.412734
0.784103
0.467536
0.547694
-0.506929
0.168892
-0.203439
-0.311713
0.172941
-0.277513
1.254630
0.751767
0.624273
-0.207062
0.770477
