0.339264
0.727776
0.213186
-0.304305
-0.268585
-0.677874
-0.150328
0.329337
-0.315566
0.144294
1.749508
-0.386033
-0.628591
0.774065
0.777248
-0.233090
1.345448
0.945577
-0.412710
-0.413822
0.203800
-2.005819
0.508512
0.622340
0.150022
-0.149301
0.370563
-0.341408
0.434737
0.027001
1.201606
0.039351
0.892888
-0.396176
-0.908766
0.122535
0.138972
0.352539
1.282602
-0.174689
0.261815
0.879270
0.429721
-0.761306
-0.221650
0.018973
-0.246734
0.244158
-0.053640
-0.097393
0.663192
-1.110467
1.172847
-0.469357
-0.536008
0.927930
0.210766
-0.715396
0.684674
0.439898
-0.440829
1.567473
0.826839
1.516768
-0.302861
-0.667940
-0.015871
0.219569
0.129624
0.370012
0.279766
-1.887767
0.110731
0.432681
-0.298398
0.900896
0.624525
0.879824
-0.302063
0.028043
-0.739038
-0.576461
0.403805
-0.294688
0.064031
-0.487418
-0.217534
-1.191161
0.804291
-0.439546
-0.135307
1.079666
0.534788
-0.932344
0.992679
0.621383
-0.301095
0.500380
-0.282789
0.225074
0.468523
-1.045483
0.818755
-0.506731
0.725220
-0.111741
-0.416351
0.194058
-0.261294
-0.922452
-0.360661
0.893100
-0.630512
1.488849
-0.273219
0.404619
0.314768
-0.579662
0.621830
-0.191352
-0.551039
-0.716571
0.023923
0.893266
0.687868
0.621876
-0.431529
-1.016895
-0.191685
0.330929
0.447216
0.444033
-0.228699
0.123594
-0.202604
0.069362
-0.644586
-0.355951
1.814311
-0.388734
-0.678198
0.000086
-0.677783
0.672285
-0.302287
-0.063337
-0.646563
1.055685
0.398826
-1.159935
0.420811
-0.631320
0.199486
0.589413
-0.638783
0.230646
-0.977936
-0.842361
-0.412783
1.133725
0.058808
0.313619
-0.305180
-0.772388
-1.067059
0.807189
0.695685
0.190921
-1.316421
-0.826352
0.261987
-0.245030
0.122286
0.269253
1.034688
-0.516465
0.060521
1.576997
0.501930
0.366888
0.520967
-0.244005
-0.381183
-0.019574
0.000800
-0.229756
-0.124677
0.162997
0.915529
0.944887
0.385290
0.949028
-1.044719
0.006412
0.144943
-0.278590
-0.274988
0.393379
-0.136448
-0.118933
0.006807
-0.322387
-0.195019
0.102144
0.194981
-0.041140
1.212256
-0.593912
0.319186
0.211905
-0.130922
-0.145947
0.155747
0.550074
-0.236169
-0.025684
0.187942
0.049585
0.652868
0.725309
-0.773527
-0.522556
0.022730
1.110445
0.019421
0.038200
-0.677463
1.069817
0.658968
0.056177
0.220202
0.039622
-0.210290
-0.604673
0.467551
-0.171767
-1.064598
-0.236827
0.837539
0.851784
-0.081843
0.400965
-0.253304
0.067477
-1.335237
0.239863
-2.317680
-0.515925
0.816001
-0.650102
-0.300744
0.137839
0.790779
-0.197360
0.769017
0.137332
-0.546689
0.461882
-0.177270
0.251000
-0.749470
-0.405229
0.466902
0.464898
0.528137
-0.652264
0.066355
0.471780
0.053377
0.754361
-0.066442
-0.059400
0.127069
0.021038
0.033327
0.071474
-0.187571
0.620988
0.738681
-0.881504
0.364280
-0.939808
0.081654
-0.645966
0.574565
0.175962
-0.551387
-0.124227
1.389319
0.580742
0.524246
0.514117
0.032447
-0.371338
-0.516689
-0.525741
0.732639
-0.059495
-0.051408
0.532120
0.133644
0.166923
-0.018750
0.577499
0.509816
-0.052648
1.204700
-0.157363
-1.013395
-0.246033
0.755573
-1.330829
0.154384
-0.405961
-0.543469
-0.684819
0.195895
0.770773
-0.252174
0.357785
0.312981
-0.179606
0.537150
-0.450217
0.252322
-0.456062
0.030821
0.377486
0.159484
-0.471060
-0.375455
0.065727
0.331185
-0.534063
-0.049449
0.252350
0.823481
-1.261236
0.270197
-0.111579
-0.381634
-0.236098
0.058090
-0.269903
-0.554415
0.553380
0.147958
0.797578
-0.817424
0.595742
0.987802
1.135487
-0.417954
0.034820
-0.456317
-0.703615
-0.282616
0.482507
-0.221251
0.785211
0.219894
1.163754
-0.551631
-0.536132
-0.790681
0.091516
1.747036
0.199978
-0.530565
0.602417
-1.487872
0.492912
-0.095772
0.700132
0.013913
0.155787
-1.291353
-0.151708
0.761047
-0.473354
0.756952
-0.090428
-0.034878
-0.685140
-0.154846
-1.457599
0.624135
-0.405911
0.166887
-0.629372
0.272442
-0.172368
-0.407576
-0.951236
-0.015894
0.884723
-0.080145
-0.164752
-0.427504
-0.012668
0.357800
1.976880
0.647292
0.189732
0.122555
-0.620494
-0.480131
-0.010964
0.479525
0.653040
1.098043
0.478726
-1.561131
0.125336
0.870243
0.095609
0.579579
-0.094939
0.083469
0.878847
-1.269797
-0.828048
-1.276137
-0.429920
0.030218
0.755867
0.994168
-0.120576
-0.479074
0.010051
-0.080783
0.261524
1.526571
-0.352374
-0.374773
-1.084902
-0.150244
0.483887
-0.002203
-1.652163
-0.275105
0.607860
-0.160103
-0.285501
0.086059
-0.099255
-0.457549
-0.386781
-0.099085
-0.257690
-1.910246
-0.410543
-0.498058
0.199399
0.799459
1.860315
0.278955
-0.411221
0.086688
-0.507131
-0.067677
1.160532
0.115997
-0.793895
0.874890
-1.150696
0.634422
0.924031
-0.636078
0.058431
0.271854
-0.500419
-0.620063
1.278543
-1.335671
1.148315
-0.755228
0.762451
-0.321547
-0.240097
0.689705
-0.055017
-2.567616
1.147330
-0.154924
-0.428915
0.096783
-0.137777
1.150973
0.074569
0.452969
-0.837803
-0.256041
-0.022490
0.089757
-0.432633
1.621976
-0.730836
-0.381020
0.249778
