-0.087774
1.032868
-0.062007
0.392831
0.047229
-0.526529
-0.044811
1.116672
0.465078
-0.443003
1.188970
-0.751576
-0.946329
0.133331
-0.164688
-0.226558
0.625240
-0.242876
0.038128
-0.626797
0.705215
-1.097544
0.441930
0.407681
-0.106293
-1.008147
-1.512685
0.403443
1.279432
-1.433283
0.109167
-0.014281
1.219012
-0.596372
-0.274007
-1.522954
-0.169324
-0.715676
1.848693
-0.429465
-0.090136
0.674926
0.516668
-0.355819
-0.427086
0.317683
0.776229
0.931443
0.412133
0.496997
0.758756
-0.895444
1.344090
0.264412
-0.181473
0.689378
-0.002620
-0.728716
-2.343592
0.313841
-1.385458
1.734081
-0.029390
0.215490
-0.506174
-0.728218
-0.957795
0.055747
0.046916
0.113766
0.948508
0.010794
-0.190149
-0.169113
0.765684
0.310472
-0.410433
0.084182
-0.201257
-0.063328
-0.371239
0.380512
0.082017
0.710464
1.176813
0.405829
1.059492
0.880292
-0.848040
-1.084445
-0.079434
-0.975791
0.332018
0.429491
-0.156625
-0.531036
-0.154024
0.298105
-0.255248
-0.021060
-0.001310
0.076515
0.844802
-0.734770
0.486956
-0.107016
0.091362
0.231652
-0.039547
0.261697
0.053781
1.345747
-0.397994
-0.229079
-0.680936
0.043249
0.482274
1.407549
-0.305022
0.057222
0.468345
-0.106090
1.751877
1.273654
0.756175
0.069952
-0.512399
-0.830385
0.074260
-0.180169
-0.413027
1.239197
-1.503206
0.106630
-0.182246
0.662828
1.610960
0.409814
0.500833
-0.139025
-1.020282
-0.108723
0.051613
-0.628953
-0.202933
0.212404
0.241263
0.988473
-0.089007
2.701034
0.289789
0.999143
-1.479314
-0.682230
-0.277479
0.529642
1.383438
-0.812460
0.300819
-1.098288
-0.404472
-0.312439
-0.205574
-0.352236
-0.364684
0.171908
0.558392
-1.308378
0.364534
-0.036587
0.079256
0.104607
0.392225
0.331007
0.500110
1.008528
-0.386843
0.372277
-0.224873
-0.441416
0.170238
-0.821447
0.065606
-0.009688
0.005422
0.047612
-0.481009
0.213453
0.010397
0.244228
0.254098
0.834991
0.088473
-0.227825
-0.215999
0.622605
0.157075
0.423520
-0.003770
-0.191321
0.153302
0.248130
0.484844
0.946541
0.613592
0.691311
-0.099835
0.366504
-0.441899
0.069051
0.036099
-0.121845
-0.874770
1.962207
0.005392
0.878658
-0.055436
0.036659
0.090572
-0.278541
2.199530
0.919452
-0.279313
0.457879
-0.417189
0.063273
0.313365
0.801598
0.438011
0.612467
-0.816835
2.173575
-0.189312
0.114031
0.269610
-0.002512
-0.031848
-0.307041
-0.376260
-1.416157
-0.605668
-2.983872
-0.025775
0.115068
2.449471
0.605237
-0.779113
-0.637773
-0.266595
1.399082
0.072560
-1.547879
0.328167
-0.183903
1.067947
0.650826
-0.102813
-1.037084
-0.033803
0.647062
0.435639
-0.047351
0.082875
-0.143048
-0.837588
-0.620835
-0.121113
0.221956
-0.029747
-0.257256
-0.274521
-0.047732
-0.152021
-0.111263
-0.118579
0.231363
0.181452
0.590737
1.886662
-1.991968
-0.834549
-1.011536
-0.193008
0.905880
1.108011
-1.036428
0.446113
0.276475
1.393065
-0.131359
-0.612161
-0.076317
0.108981
-1.206939
0.017927
-0.475345
0.285788
-0.181372
-0.638704
0.490233
0.657213
0.140988
0.244745
0.301296
1.240057
0.265640
0.238641
1.272435
-0.157787
-0.359686
-0.913469
0.018369
0.112766
-0.019911
0.717533
-1.222679
0.000624
0.141508
0.727328
0.457014
-0.668228
-0.151816
0.217320
-0.600199
0.387467
-1.371626
-0.268917
-0.454763
-0.124427
-0.076598
0.148179
-0.111370
0.253339
0.628217
0.302036
0.660957
0.099952
-2.178817
0.777690
-0.079853
-0.142634
0.059760
0.048534
0.460047
-0.343926
0.493541
0.021093
0.218235
0.005233
0.023143
0.188762
0.085310
-0.016562
-0.086039
-0.352295
0.058734
0.236602
-0.256385
-0.340332
-0.540683
0.168859
0.934765
-1.108819
0.589822
-0.166575
-0.041571
-0.345509
0.012613
1.284981
0.622703
0.519741
0.181189
-0.407898
-0.774588
0.609765
-0.111104
-0.295213
-0.522929
-0.902790
0.378242
0.627812
-0.338398
-0.193873
0.141080
-0.398520
-0.724043
-0.280008
0.482501
-0.620586
0.813964
-0.283486
-0.119871
1.074439
-0.079805
-0.918880
0.270689
-0.957449
0.589527
-0.126883
0.785146
-0.318420
-0.746259
-0.095887
-0.785943
-0.408316
0.580272
0.597995
-0.065441
0.282929
-0.842699
0.947122
0.323123
-0.936945
-0.035581
0.647895
-0.259921
-0.024372
-1.244109
-0.358127
0.515800
-0.789143
-0.060750
0.837892
0.121706
-0.043023
-0.024674
0.416043
0.135604
-0.378755
0.249156
0.442977
-1.414782
0.457585
-0.691270
-0.075259
-1.233945
-0.001171
0.732717
-0.199101
-0.422307
-0.539019
0.299508
-0.419320
0.324600
-0.054596
0.358508
-0.943238
-0.610172
-0.120198
-0.735407
-1.683180
0.375958
0.704299
-0.226419
1.135521
-0.177644
0.426812
-0.229768
-1.699013
-0.078143
0.769800
0.209670
-0.209026
-1.371319
0.268791
-0.922480
0.480286
0.846912
-0.189153
-0.041812
-0.166503
-0.399235
-0.110622
0.601969
-0.836152
-0.711542
0.524155
-1.102568
-0.745158
-0.438461
0.031325
-0.767878
-2.131320
-0.318380
1.554390
-0.115540
-0.354163
0.242680
-1.049442
0.173426
0.138609
-0.031186
0.013868
0.030773
-0.193618
-0.007641
-0.238816
-0.357476
-0.323942
0.675880
