0.119893
0.563992
0.142094
-0.109423
0.437382
0.539818
-0.241115
0.179348
-0.074749
-0.444198
-0.655683
-0.309369
-0.771282
-0.176319
-0.322449
0.107756
0.605631
1.357773
0.961607
-0.353656
-0.471762
0.332591
0.067366
-0.011001
-0.053458
-1.073491
-1.212198
-0.691228
-1.990699
-0.084142
0.266189
0.120144
0.416752
-0.579116
-0.538823
2.246311
0.525782
-0.475931
1.292431
0.314993
-1.042242
0.480162
0.939808
1.216101
-0.320771
-0.091738
-1.433652
0.144755
0.128961
-0.140094
-1.350746
1.070159
1.077573
-0.061821
-0.145183
-0.665010
-1.010863
-1.670739
-2.331397
0.170621
-1.438496
1.563342
-0.217819
0.064168
-0.390967
-0.715263
-0.783129
-0.105917
-0.309389
-1.210766
0.046840
1.299382
0.075483
-0.825935
0.009890
1.190307
1.611401
-0.693721
-0.890603
-0.274296
2.577624
1.010419
-0.375481
-0.236690
-0.216671
-0.634632
-0.662916
1.186825
-1.018463
0.199514
-0.072353
-1.313577
0.136043
-0.429992
-0.931453
-0.489653
-0.016169
0.219697
-0.130660
0.038396
-0.048287
-0.002957
0.188705
1.634955
0.413831
-0.095345
-0.114980
-0.285709
-0.363178
-0.828766
0.145583
-0.470241
-0.238123
-0.201315
0.145503
-0.371984
0.126533
2.597733
0.771111
-0.352096
-0.456276
-0.140698
-0.602664
-0.494554
0.654590
-0.074848
0.470684
0.430054
0.411577
-0.609137
0.813490
0.469900
-0.907771
0.204436
2.112682
0.053376
0.095639
-0.664045
2.146701
-0.205581
0.046672
-0.324244
0.237159
-1.038402
0.096067
0.224384
0.524383
1.845155
0.310957
-2.090691
-0.195382
1.272871
0.959575
-0.661023
0.086461
-0.601781
0.278088
1.950989
1.046060
0.588083
-1.016757
-0.111700
0.948345
0.627012
-0.140677
-0.080330
0.838705
0.228158
-0.089838
0.093835
1.039862
-0.014344
-0.355001
0.712510
0.890463
0.322178
-0.348343
0.491405
1.363881
-0.275577
0.660985
-0.701701
1.248716
-0.090803
0.921527
-0.531405
0.379129
-0.349982
0.785147
0.085458
-0.557005
-1.155246
0.814539
0.076498
-0.131484
-0.221953
0.106653
-0.171398
0.582501
-0.311154
0.284528
-1.212598
-0.189192
-0.641079
1.770463
-0.759281
-0.878278
-0.497333
0.059690
1.527218
-0.001186
-0.359794
0.543035
-0.374425
0.154237
-1.223282
-0.096460
-0.131992
-0.438184
-1.155954
-2.398959
2.541175
-0.464716
0.279703
-0.202942
0.811285
-0.293043
1.618330
0.003392
-0.646177
1.686756
0.209923
-0.015386
0.044927
-0.037289
-0.163190
0.679148
0.535516
-0.381717
-1.749090
-0.393180
2.257290
-0.563836
-0.335484
-3.428687
0.000132
-0.655712
-0.271504
0.145481
-1.488938
0.552838
2.213328
-0.068763
-0.270495
0.978733
-0.117924
-0.302149
-0.635451
-1.192861
-0.371064
2.079980
-0.327872
-0.135825
0.752846
-0.330878
0.759333
0.654736
0.303313
1.323032
0.870009
-0.591792
-0.297650
-0.166933
-0.646540
-0.497057
0.163611
-0.550105
-1.200237
0.969937
0.677039
0.041719
0.397125
0.241078
0.017861
1.596823
-0.069473
-0.393381
-0.465354
2.337284
1.073565
-0.391821
0.087943
-0.589879
0.880181
0.268387
0.037101
-0.162688
-0.554492
-0.087317
-0.153621
0.400454
-0.378205
0.793559
-0.003136
0.459589
-0.260161
-0.094543
-0.659524
-0.810966
0.985037
0.752126
-0.043054
0.766163
0.037372
0.311379
0.895758
0.345650
1.638753
0.766130
0.546582
-0.314939
-0.254847
0.106524
0.403187
-0.384062
-0.754261
-0.151260
-0.337346
0.511490
-0.933077
-0.527662
-0.068515
0.880285
0.250950
0.690453
-0.376087
0.187916
0.189257
-1.371436
-0.028688
0.009721
-0.118887
-0.176725
0.089496
-0.430199
-1.375866
-0.491841
0.887404
0.746359
0.235593
0.963784
-1.074274
-0.833691
0.258540
0.118401
-0.369298
1.142504
0.927813
-0.216033
0.663108
-1.004832
-1.367417
-0.284062
-0.659484
0.169239
0.629703
1.987954
0.097833
-0.234399
0.528897
0.063183
0.519633
-0.140607
0.565631
-0.155971
0.177817
-1.129747
0.356457
-0.730356
2.310030
0.552947
-0.120438
-0.021101
-0.245464
-0.691036
2.628115
-0.416638
-0.896744
0.301217
0.324661
0.243383
-0.264406
1.482807
-0.147673
-0.271655
-0.217839
0.147792
-0.090463
-0.310668
-0.133037
-0.040755
2.652309
-0.041227
-1.129002
-1.111766
-0.292838
1.430396
1.147269
-0.054942
-0.842326
1.083463
1.230574
0.956929
-0.722899
-0.790859
0.207536
0.312001
-0.572098
-0.128064
0.193401
0.044789
-0.524876
-0.155221
-0.160820
-0.923053
-0.130619
-0.559456
-0.450079
-0.488469
-0.067910
0.139545
-1.109022
-0.210808
-0.271879
0.101260
-0.387548
-0.520290
-0.369461
-0.589214
-0.560285
-0.241591
-0.100772
1.924166
1.341356
-0.592562
-0.919871
1.550394
0.151789
1.150429
-0.362916
1.983638
-1.190766
1.001573
-0.365017
0.333886
-1.752934
0.177394
-0.041767
0.513201
0.165999
-1.171564
0.776368
0.016218
1.425273
-0.471378
-0.095404
0.646968
0.608258
-0.303412
0.005432
0.578985
-0.694828
1.019726
1.039315
0.755793
1.149871
-0.106132
-0.433064
-0.029166
-0.059626
0.473649
0.056440
-0.900397
-0.102449
-1.039524
0.068367
0.859256
1.199114
1.967401
-0.618544
0.478868
1.296889
-0.013087
-0.482804
-0.227365
-0.035267
-0.619653
1.136506
-1.019182
-0.691062
