0.162426
-0.155560
-0.023162
-0.127020
0.228387
0.621713
0.542763
-0.904242
-0.268561
1.250306
0.555071
-0.514296
0.167001
-0.498582
0.440377
1.269772
0.091327
0.072324
0.446693
1.103476
-0.797766
-0.415251
0.247815
0.407686
0.079930
-1.860151
-0.555580
-0.717212
0.765072
-0.487818
0.476683
1.362103
0.105865
0.448619
1.058455
0.300028
0.216679
0.746840
1.141634
-0.330017
-0.260684
0.605577
0.047098
-0.175466
0.272189
-0.157240
0.094062
0.403425
-0.664050
0.288504
0.184949
0.125024
1.057033
0.112062
-0.060727
-0.603721
-0.576951
0.049637
0.603653
-0.399009
0.027561
-0.480942
-1.115335
-0.513254
-0.262353
0.143460
0.100045
-0.681493
0.306635
0.012295
-0.407866
0.123510
0.270120
0.038881
0.109649
0.215686
0.014973
0.437324
-0.288379
0.806967
-0.895516
-0.267343
-0.560202
-0.836155
0.391324
0.446610
0.297952
0.666535
0.857157
-0.507504
-0.091965
0.053211
-0.778095
-0.047575
1.381264
0.222210
-0.001706
0.073010
0.016368
0.326127
-0.749315
-0.180114
0.471600
-0.140858
-0.156266
0.211537
0.272742
-0.086612
-0.774835
-0.069053
-0.288155
0.798552
0.719717
-1.098738
0.529172
-0.019237
-0.221500
-0.666381
0.256799
-0.239572
0.140065
0.030720
0.361217
-0.908981
-0.353714
-0.174605
-1.319746
-1.425653
0.364108
-0.284620
-0.307115
0.742419
-0.498571
-0.016709
-0.896976
-0.182088
0.989039
0.201208
1.069132
1.365067
-0.773778
-0.088851
-0.345935
-1.727576
0.120960
0.238577
0.005492
0.024299
0.211636
0.266854
0.431513
-0.203827
-0.323401
0.872115
-0.344733
0.325858
-0.745224
0.613764
0.284190
-0.464817
-1.210021
-0.419419
0.178993
0.459995
-0.141567
-1.000970
0.651957
0.171903
-0.283980
0.592862
-0.679100
-0.086451
-0.263498
-0.088266
-1.427003
1.149388
0.258546
-1.160800
0.006921
0.333363
0.914647
-0.431013
-0.081226
-0.320246
0.171085
-0.418361
-0.243507
-0.942493
0.485296
-0.607071
-0.121838
0.362547
-0.587705
0.725774
0.085657
-0.467789
-0.125883
0.283641
-0.038453
-0.226097
0.309923
-0.245639
0.004120
-0.097588
0.575631
-0.144481
-0.971665
-0.441030
0.575715
0.283503
0.020911
-0.253250
-0.959339
-0.128366
-0.333729
0.292788
0.593933
0.568883
-0.763146
0.105799
0.700184
-0.234358
-0.807686
-0.358535
-1.140699
0.379644
0.031824
0.272675
-0.157017
0.375983
0.557736
0.499888
-0.212607
0.438090
0.043948
-1.672874
0.063490
0.047781
0.475884
-0.345445
0.825803
-0.435904
-0.283472
-0.092862
0.015404
0.080474
-0.768635
-0.631564
0.496171
-0.132029
0.301157
0.016290
0.201042
-0.220068
0.186551
0.461083
-0.031365
-0.388709
-0.176651
0.082189
0.850489
0.676660
-1.995084
0.108315
0.360634
-0.031117
0.919189
1.067655
0.133582
0.259592
0.021093
0.134462
0.028458
-0.183906
-0.334380
0.329348
0.226651
-0.551104
-0.170491
-1.130757
0.573134
-0.633023
1.423908
0.585426
0.630058
-0.609470
0.858896
-0.157218
0.894155
0.100652
0.450644
-0.239252
0.227118
0.303866
-0.446804
-0.138537
-0.818093
-0.000447
-1.045116
-0.301247
0.097121
0.049537
0.028565
-0.418623
0.177032
0.343448
-1.270689
0.389031
0.218905
0.188274
0.839860
-0.058913
-0.020714
-0.360288
1.403855
-0.345582
-0.186718
-0.315641
-0.344765
-0.377590
-0.357562
-0.131052
-0.235087
0.364343
1.356110
-1.061163
1.002360
0.068725
0.120522
0.098049
-0.164849
0.310212
0.323556
-0.037711
-0.038217
0.253254
0.412057
-1.858644
0.098741
0.539811
-0.479996
-0.115136
0.000970
-0.026591
-0.018892
0.404451
-0.773832
-0.322248
0.292298
-0.148806
0.051437
-0.875517
0.589207
-0.313655
-0.249077
0.449191
-1.129284
-0.321719
-0.193064
-0.098207
0.007756
0.493949
-0.172160
0.325533
0.535251
0.244314
-0.138640
0.196358
0.676540
0.203007
-0.116540
0.160106
-0.377042
-0.165983
-0.423312
0.130045
0.314196
0.223487
-0.257375
-0.197028
0.329296
-0.159477
-0.256280
0.152246
0.059198
-0.685446
1.008920
-0.006131
0.205924
0.005772
-0.063103
-0.199429
-0.749359
0.471483
-2.230253
-0.489149
-0.371268
-0.118523
-0.126843
0.238618
0.014888
0.012324
-1.129110
-0.844961
-0.595464
-0.058151
1.373538
0.433613
-0.518106
-1.081319
0.041009
-0.289936
0.500184
0.335159
0.404426
0.197205
-0.682927
0.529795
-0.679959
0.338710
-1.135325
0.091180
0.054838
0.688088
0.121072
0.107212
-0.162410
-0.292005
1.569519
-0.343875
-1.394621
-0.460756
-1.181783
1.269514
0.135024
-1.484640
0.333742
-0.225242
-0.324453
0.848982
-0.362227
0.397559
0.568143
-0.052871
-0.173928
-0.781208
-0.318960
0.027387
0.611630
0.025138
-1.140962
0.526676
-1.144781
0.734762
1.546857
0.147613
-0.067605
0.418483
-0.382987
-0.189613
-0.354359
-0.491765
-0.811069
-0.702121
-3.019147
-0.709908
-0.132002
-0.221553
0.334880
0.032324
0.090723
0.307802
-0.125712
0.460674
0.570657
0.232322
-0.849499
0.228159
0.276809
-1.466512
0.212054
0.046653
-0.347335
-0.406913
-0.644099
-1.410374
-0.708488
-0.156009
-0.409568
0.495530
-0.869112
-0.119401
-0.137732
0.205104
0.183990
-0.610496
0.902119
-0.044343
0.905221
-0.878852
