0.112314
0.434405
0.185476
0.026874
0.132986
-0.276637
0.193751
-0.735904
-1.139605
0.303076
-0.182647
3.584358
-0.806382
-0.358924
1.423610
-0.179156
-0.173873
0.255777
-0.127888
0.351313
-1.234103
0.355396
1.127197
-0.445883
-0.159601
0.598777
-1.781173
-0.046592
-1.546981
-0.760984
0.245133
0.932739
-0.600605
-0.589395
0.067523
0.553250
-0.305854
-0.409405
-0.256301
-0.588717
-1.394188
1.965381
-1.580752
-3.508977
1.911878
-0.380205
1.027400
-0.642175
-0.112631
-1.311728
-1.705380
-1.451057
-0.292342
-0.703305
-0.372151
-0.718015
0.591005
-0.699896
-0.051364
0.112405
-2.576892
0.967760
-0.503590
1.417853
0.126672
-2.505789
1.209083
-0.710136
-1.194395
0.614749
-0.931368
-0.011791
0.389096
-0.002729
-0.062299
-0.144354
0.164561
-1.903541
0.364833
-0.139357
-0.567909
-0.979896
-0.069255
-2.570942
-0.432854
-0.061900
-0.011088
-0.614751
-0.254671
1.230446
0.017249
0.430635
0.377011
-2.893157
-0.168149
-0.726876
-0.114641
0.440828
-0.190002
0.728884
-0.394526
0.642090
-1.771537
-1.424161
0.197046
-0.532765
0.271994
0.166034
0.095403
-0.928082
0.185406
0.194322
-0.730509
0.184262
-1.285370
0.503805
-0.360637
-0.361582
1.485517
-0.483720
-0.229884
-0.415210
0.618177
-0.770367
-0.267723
-0.385366
-0.090645
0.868379
0.349189
0.909767
-0.019096
0.183418
-1.206264
0.547516
1.012575
-2.915969
1.627387
-0.718051
3.067207
-0.030429
0.328667
-0.316064
0.370198
0.017987
0.652229
-0.992512
0.275439
-1.575337
0.546764
-0.727514
0.181466
-0.879346
-0.984535
1.550749
-0.723743
-0.292311
0.394190
-1.666820
0.453839
-1.853749
0.071280
-0.263248
0.037342
1.992089
0.716080
0.458301
-0.314012
4.879591
-0.637721
-0.760132
0.127936
-0.616945
-1.315973
0.224670
-0.516267
0.896663
-0.980435
1.135320
0.278792
0.981152
1.183941
0.122465
-0.592747
-0.257019
0.514185
-0.916453
1.176317
-0.919690
1.708754
-0.371961
0.042529
-0.602088
0.164466
0.586038
0.003830
-1.579255
-0.622001
0.735146
0.189401
-0.631582
0.357486
-0.389377
-0.626173
-0.016180
-1.427860
1.096910
0.915512
-1.368140
5.224483
-1.544442
-0.417072
-0.660406
-0.169207
-3.721742
0.111866
0.198660
0.396668
0.250465
-0.474016
0.150782
1.132485
-0.124041
-1.544878
0.367401
-0.235119
1.657897
-0.412487
0.538188
-0.588725
0.131916
1.670555
0.645454
-0.328785
1.086245
-0.150480
-1.667754
0.982995
-0.837139
0.155823
0.019829
1.211980
-0.209924
1.181934
0.707669
-2.505194
-0.422220
0.551878
0.248339
1.355253
-2.136391
-0.271357
2.408690
-0.103874
-0.314943
0.470700
-0.951201
-0.152500
-1.898392
-0.175479
-0.088413
-0.005150
1.115519
-0.585184
-0.631923
-0.809227
-0.078312
-0.532831
1.383651
0.425362
2.551257
-0.251161
-0.376564
-0.259019
0.253746
0.454705
-0.004437
-0.501295
-0.053467
0.022822
1.037387
-0.412536
-0.158087
0.778616
-0.383923
-1.646679
-0.979111
0.935472
-1.436558
1.058904
-1.064787
-0.584644
0.254926
0.224259
0.308774
0.528966
-0.115407
-0.370873
-0.436543
-0.156782
-0.978331
0.167074
-0.334866
-0.720414
-0.804120
-0.071528
0.051496
0.126192
0.471966
-0.707539
0.691814
2.766749
0.622827
-0.292027
0.347902
-2.533911
0.124974
-0.017350
-0.768381
-0.134613
0.062943
-0.022287
-0.673500
1.087770
2.488952
0.459811
0.222865
-0.013348
3.049021
-1.081873
1.071832
-1.173257
-0.399864
0.771864
0.637779
0.290631
-0.172153
0.504152
2.605016
-2.246845
0.274447
-0.084926
-0.282714
-0.214126
-0.217634
0.340808
0.757244
-0.081969
-1.151152
1.198101
0.672712
-0.797751
0.178683
-0.257377
0.202446
0.132876
-0.308754
-2.718359
0.396469
-0.350626
0.430274
0.122235
0.396649
0.492124
1.266790
2.118789
0.217312
-0.560610
0.320981
0.008877
-1.232450
-0.170345
-0.434197
-0.413650
1.551878
-0.409557
-0.180647
-0.420474
0.731434
0.994914
0.061573
0.456966
-0.486880
0.031073
0.761516
1.434510
1.946426
2.343321
-0.536120
-1.003997
0.158686
0.553922
-0.440056
0.362939
2.075570
-0.919404
0.987401
-0.477538
-1.205298
-0.380164
0.785169
0.685861
0.032261
-0.577903
0.411281
0.339262
0.864041
-0.131695
1.094028
0.373553
-1.534478
-0.029745
-0.523996
-0.380755
0.370860
-0.253191
0.823665
-1.224928
-2.054373
0.174336
-0.068456
0.164860
-0.941322
-0.215733
-0.568871
-0.399551
-0.928545
-0.874241
-0.359974
0.125895
-0.095593
0.180584
2.726506
0.558187
1.484789
0.323843
0.223492
-0.470227
0.237974
0.110409
0.334468
-0.547918
-2.109428
2.956470
-0.164743
-0.621237
0.178173
0.084319
0.152615
-1.880411
-1.466283
3.215471
1.141109
-0.725507
-0.663828
2.063040
-1.314230
-0.084039
1.086680
-0.586977
0.278837
-0.335211
-1.189795
0.755581
2.124987
-1.158458
1.090075
-0.032216
-0.269580
-0.629630
0.772169
0.880064
-0.763349
-0.515550
1.016069
0.317213
0.101713
-0.408054
2.577483
0.912795
0.352907
0.452636
-1.220872
1.186081
0.060600
1.112144
-2.327967
-0.737235
-0.175248
-0.877782
-0.514422
-0.419979
-0.731201
-0.535803
0.296998
0.260322
-0.422872
0.951503
0.015688
1.546951
-0.486700
