0.274302
0.278119
0.313849
-0.567892
-0.233469
-0.158341
0.956486
-1.225270
-0.337657
0.949583
0.036141
1.287850
-0.571686
-0.470195
1.176469
-0.005424
-0.187540
-0.308983
-0.112892
0.528250
-0.940842
0.349999
0.511677
-0.176762
-0.298350
-0.174237
-2.099133
-0.348041
0.164007
-1.205002
-0.150424
1.168571
-0.303407
-0.368668
0.439184
-0.161314
-0.241062
0.032340
1.023999
-0.632724
-1.760677
1.410402
-0.583325
-1.471807
1.055828
-0.377606
1.338121
-0.149876
-0.252024
-0.527702
-1.131222
-0.431119
1.079810
-0.117392
-0.381195
-0.839964
0.529085
-0.142655
-0.872723
0.332898
-2.174656
0.192646
-1.549302
0.633415
0.321621
-1.873746
1.312081
-0.941648
-1.245487
0.046812
-1.098452
0.479448
0.559989
-0.229185
-0.086815
-0.575406
-0.076365
-0.761069
-0.113888
0.144789
-1.489359
-0.461896
-0.657122
-2.004339
-0.345728
-0.197629
0.309478
-0.962912
-0.118694
0.343459
0.054335
0.192972
0.275581
-0.968053
0.289606
-0.669122
-0.045579
0.589268
-0.364504
0.591648
-0.553034
0.459769
-0.955713
-1.031304
-0.113766
-0.535277
0.543431
0.350711
-0.345642
-0.315765
0.020493
0.211493
-0.318676
0.021754
-0.850353
0.714458
-0.592865
-0.260184
1.255045
-0.806708
-0.239514
-0.067639
0.472848
-0.139931
0.008469
-0.032549
-0.527865
-0.619931
0.846634
0.520159
-0.076683
0.747404
-1.402685
-0.247666
0.649067
-1.705982
1.924602
-0.514230
2.591001
0.267653
-0.554743
-0.153291
0.597753
-0.889065
0.240439
0.011910
-0.131011
-1.369219
0.144682
-0.003581
0.204411
-0.671430
-1.242555
1.333376
-0.400795
-0.379705
0.245488
-0.586626
1.148553
-2.404438
-0.857778
-0.402817
-0.099068
1.238250
0.549659
-0.416333
-0.169292
2.914041
-0.170927
-0.299138
-0.169608
0.127641
-1.351533
-0.248117
-2.192824
0.844764
-0.582756
-0.533478
0.071800
0.890144
0.936305
-0.143260
-0.217670
-0.388136
0.815586
-0.479083
0.834315
-0.827114
0.900404
0.202930
-0.060959
-1.281368
0.270047
0.844596
0.031309
-1.173662
-0.355184
0.779247
-0.235519
-0.517258
0.133686
-0.274239
-0.201053
0.103496
0.033667
1.790992
0.199269
-1.090582
3.263817
-0.857609
-0.183554
-0.598563
-0.807265
-1.783639
-0.194996
0.744687
0.573505
-0.030552
-0.786817
-0.127710
2.379085
0.114276
-1.239372
-0.563194
-0.693029
1.376316
-0.290253
1.408305
-0.172939
0.514984
1.393229
1.354250
-0.267884
1.537615
-0.663267
-2.129493
1.034440
-0.353335
0.315120
0.327048
1.437189
-1.011431
1.011432
0.835474
-1.877825
0.038977
0.222123
-0.005103
1.479385
-1.755812
-0.028710
1.223715
0.788323
-0.305048
0.271849
-0.835000
0.285543
-1.899051
-0.068933
-0.780501
0.725902
1.729305
-0.861084
-0.014456
-0.613343
-0.109546
-0.453011
1.389902
0.358579
2.107960
0.156153
-0.090388
-0.314070
-0.306309
0.399970
0.283467
-0.304468
0.138189
0.526650
-0.576543
-0.841768
-0.482622
1.483551
-0.074489
-0.748616
-1.025250
1.149650
-0.951390
1.458350
0.105033
-0.599990
0.006735
0.414356
-0.166548
-0.572085
0.065757
-1.522214
-0.404164
-0.965931
-0.743855
-0.008642
-0.140939
-0.967005
-0.885786
-0.467728
-0.055235
0.095352
0.421931
-0.059461
0.092988
2.776802
0.277924
-0.369979
-0.121953
-0.792761
0.318098
0.151269
-0.715041
0.171750
0.049852
0.129741
-0.495983
1.192747
1.879430
1.067275
-0.165405
-0.106672
1.971039
-0.589727
0.789315
-0.845188
0.090278
0.893739
0.656297
-0.312990
-0.690150
-0.130537
0.236623
-1.623334
0.460759
-0.276710
-0.143361
-0.325468
-0.342575
0.127285
0.308487
-0.567032
-1.300579
0.912984
0.330004
-0.570378
-0.681340
0.409367
0.770222
-0.098881
0.286313
-2.446037
0.922209
-0.293248
-0.326538
0.793079
-0.131433
-0.390345
1.170122
1.881994
0.108837
-0.454965
0.058720
0.516832
-1.085527
0.072073
-0.091423
-0.730534
1.645262
-0.532474
-0.123971
0.383428
1.315114
0.962254
0.672529
0.196887
-0.501440
0.006646
1.009306
0.941454
1.229402
1.910502
0.123625
-0.331395
0.255856
0.060588
-0.362604
0.269745
1.645107
-1.501251
0.234454
-0.676123
-0.498791
-0.272442
0.778795
0.187210
-0.230059
-0.831666
-0.214980
-0.509001
0.574025
1.364116
1.392176
0.346495
-1.177722
-0.309337
-1.249277
0.495331
0.706424
0.271474
0.663768
-1.628488
-1.331582
-0.214110
-0.065733
-0.070077
-0.358588
-0.119767
-0.528368
0.261920
-0.098424
-0.240042
-0.194648
0.987554
-0.088492
-0.244302
1.860121
0.219343
2.575671
0.027762
-0.683730
-0.582526
0.322701
-0.040662
1.181494
-0.430491
-1.260017
1.299917
-0.329738
0.218305
0.067128
-0.885999
-0.107485
-0.644101
-1.382428
2.499173
1.071182
-0.384895
-0.056368
1.643007
-1.753234
-0.325667
0.717956
-1.081557
-0.066039
0.175683
-0.425028
0.323161
0.227182
-1.181507
1.023955
-0.092395
-0.608607
-0.273564
0.840291
0.604120
-0.678956
-0.252264
0.614496
0.188612
-0.079899
-0.233260
1.982457
1.050622
0.059787
0.209094
-1.031880
1.190891
-0.540534
0.757453
-2.366370
-0.750249
-0.064260
-1.846024
0.906894
-1.369162
-0.454886
-0.345458
0.382050
0.485071
-0.274180
1.986682
0.529010
2.251825
-1.039907
