0.512183
-0.439629
0.441724
-0.663486
-0.699847
0.371641
0.512414
-0.473042
0.117412
0.298228
-0.161227
0.320960
0.876744
-0.373064
0.291643
-0.080147
0.162682
0.225876
0.538636
0.450452
-0.653566
0.610625
-0.257160
-0.526086
0.065251
-0.474896
-1.504178
0.277010
-0.058571
0.178325
-0.010399
0.114136
-0.862810
0.069771
0.050327
1.336163
0.089920
-0.130577
0.547587
0.323120
-0.929259
0.282957
0.787541
0.182201
0.181420
0.184550
-1.175580
-0.826480
0.111130
0.423554
-0.167740
0.078297
0.462295
-0.410979
0.318400
-0.161256
-0.241475
0.869320
1.513969
-0.260945
-0.724343
-0.040940
-0.359566
-0.026072
-0.101784
-0.753733
0.085470
-0.177742
-0.162946
0.610694
-0.362856
0.263171
-0.016551
0.016919
-0.367115
0.658181
0.732673
0.601122
0.054125
0.216414
-0.693055
-0.322285
0.059338
0.025342
0.358437
-0.092753
0.127906
0.114061
-0.209816
-0.025530
0.048072
0.399980
-0.260225
0.833769
0.540852
-0.365465
0.065485
0.084065
-0.087143
0.353315
-0.091413
0.947308
-0.289983
-0.550445
-0.463312
-0.162139
0.485098
-0.999774
0.705755
-0.636216
0.274340
0.366398
-0.354854
-0.138395
-0.588427
-0.874305
-0.613287
-0.639177
2.543024
-0.773691
-0.278641
-0.524301
0.563432
-0.865495
-1.021477
-0.502449
-0.872764
-0.183173
0.214084
-0.395147
-0.126412
0.406273
-0.330193
-0.214422
-0.373318
-0.572746
0.321826
-1.424572
1.462141
-0.112153
-0.246970
-0.183611
0.884611
-0.493391
-0.181103
-2.085864
-0.018620
-0.292712
0.154068
0.962812
0.381900
-1.201707
-0.840194
0.313819
0.108688
0.506405
-0.281291
0.831886
0.155849
-1.084681
-0.765706
0.027810
-0.119107
0.363567
0.205277
-1.534577
0.884905
1.591066
-0.981433
-0.657497
0.485449
-0.681779
-0.155581
-0.662390
-1.562334
0.716619
-0.554218
-0.421790
0.309856
0.394443
0.654383
-0.420581
1.089980
-0.261266
0.849649
-0.431724
0.485982
-0.367509
1.333019
0.504556
0.249286
0.098727
1.149238
-0.111330
0.327114
-0.204773
-0.021660
0.556833
0.721526
-0.245331
0.458396
-0.917192
-0.095080
-1.594494
1.434556
-0.434928
-0.196806
-0.223469
1.589702
-0.555955
0.066948
-0.278682
-0.559751
-1.812520
0.296369
0.189484
0.158517
-0.106542
0.029960
0.008149
1.799216
-1.182243
-0.107674
-0.363732
-1.690222
0.960128
0.064990
0.804208
0.042509
-0.336921
0.578745
0.531732
-0.147575
0.071790
0.366284
-1.977427
1.204619
0.303489
0.052448
-0.098347
-1.057393
-1.560922
-0.047625
0.016024
-0.869970
-0.437527
1.180213
-0.213660
0.871734
-0.468362
-1.510903
1.023594
0.174007
-0.179013
1.276802
-0.095017
-0.360980
-1.387394
-0.562215
-0.383720
1.297065
0.622068
-0.340397
-0.945210
-0.369238
0.216967
0.629512
0.073670
0.111467
1.173170
-1.221114
0.209836
-0.437481
-0.389671
-0.256052
-0.178547
-0.020195
-0.362671
-0.641782
-0.426009
0.621100
-0.255765
0.904405
0.307680
0.964058
-0.561181
0.332407
-0.657253
1.526021
-1.052257
0.020271
0.147804
-0.113804
0.221063
-1.054900
-0.063043
-0.204230
-0.222914
-0.636784
-0.430091
0.595422
-0.081604
0.294946
-0.354812
-0.052849
-0.458655
-0.080405
0.651307
-0.333855
0.043967
0.362684
0.757656
-0.088303
-0.710601
0.784835
0.347015
0.449507
-0.268777
-0.763292
-0.143551
-0.269879
-0.130974
0.002741
0.794818
0.174478
-0.267112
0.034324
-0.032947
0.222068
0.334732
-0.629342
0.034001
0.439888
-0.002652
0.270559
0.167826
0.114025
-0.486183
-1.332823
0.235330
-0.391661
-0.163218
-0.354761
-0.216360
0.014722
0.594515
-0.519239
-0.091919
0.754651
-0.335957
-0.618046
-0.060407
-0.671853
1.189440
-0.023098
0.650903
-0.557964
0.244314
-0.291784
0.016205
0.620499
0.118986
0.417964
0.302373
0.809728
-0.095041
-1.024353
0.033868
0.315931
0.465236
-0.080642
0.073052
-0.439147
0.201988
0.023084
0.365082
-1.468846
0.561945
-0.095777
0.400911
0.053255
-0.307527
0.074363
-0.533104
0.768003
0.706561
0.731916
-0.401857
0.955294
0.066728
0.767392
-0.179346
-0.701598
1.763333
-1.174731
-0.310277
-0.494632
-0.401322
0.018640
0.606641
-0.295372
-0.338985
-0.167759
-0.699600
-0.841267
-0.029297
1.820120
1.113201
-0.073920
-1.365524
0.009979
0.104784
-0.576105
-0.083564
-0.118514
0.051484
0.857121
-0.531787
-0.317265
0.216832
-0.167670
-0.316671
-0.431947
-0.371638
0.050828
0.805100
-0.706015
0.557255
1.280882
-0.084572
2.362318
-0.406412
-0.148319
0.353736
0.207405
-0.444278
-0.125788
-0.112976
-0.067289
-0.258450
-0.691799
-0.056343
0.909316
0.017891
-0.266004
-0.307915
-0.074439
-0.169031
0.081144
-1.039130
0.424531
2.434638
-0.677763
-0.193913
0.862471
-0.216333
0.137765
0.143370
0.048720
-0.541132
-1.053758
-0.147401
0.620888
-0.126676
-0.451369
0.230557
0.329529
-0.040712
-0.429995
0.049421
0.275131
-1.051429
-0.066767
0.738664
0.144260
-0.114508
-0.232988
0.826366
0.267814
-0.310901
0.240897
-0.253415
0.862822
-0.106777
0.111443
0.507931
-1.179182
-0.232447
-0.749380
0.663635
-0.436542
0.015206
-0.162943
0.283899
0.808111
0.167421
1.109226
0.948801
0.386972
-0.560979
