0.472971
-0.586411
1.633550
-0.820118
-0.408121
-0.023627
0.492360
-0.127189
0.387003
0.554425
0.373145
0.613775
-0.059549
-0.229514
0.380627
-0.005817
0.277804
0.591608
0.551657
-0.248166
-0.772879
0.214738
-0.135248
-0.569729
-0.062558
0.579700
-1.714032
0.603391
-0.983166
-0.208764
0.172985
0.023851
-0.398891
0.243772
0.491562
1.946691
-0.017685
-0.258958
1.209858
-0.056357
-1.384866
0.068649
0.761958
-0.400154
-0.029982
0.043755
-1.249896
-0.634573
1.037945
0.984152
-1.271178
-0.231396
0.480406
-0.412892
0.009500
-0.416982
-0.732598
-0.572152
0.928970
0.296046
-1.714542
0.451886
0.491675
0.226400
0.014683
-1.227297
-0.224685
-0.545340
-0.060497
0.620468
-0.214605
-0.332720
0.133208
-0.079847
-0.344875
0.741497
0.761872
0.697901
-0.412935
0.041310
0.146075
0.272617
-0.424835
-0.830848
0.366343
-0.337014
-0.003335
-0.040432
-0.045887
0.090940
-0.006853
0.148895
-0.332627
-0.115915
0.203582
-0.492333
0.148098
0.497100
0.267129
0.646784
-0.077008
0.753378
-1.092962
-0.320149
0.266504
-0.502461
0.032798
-0.501510
1.478312
-0.836388
0.540302
0.259536
-0.055150
0.294011
-1.913242
-0.772096
-0.939719
0.604407
2.725532
-0.847825
-0.556885
-0.475782
-0.060618
-1.257014
-0.774179
-0.609751
-0.155351
0.421622
0.276080
-0.034909
0.274183
0.583791
-0.782047
0.179514
1.136733
-0.994310
-0.275134
-1.661406
2.375313
-0.448204
-0.180093
-0.208723
1.072585
-0.436897
0.311247
-2.839005
0.133249
0.259010
-0.051378
-0.143555
0.532930
-0.571867
-0.234433
0.293831
0.005372
0.318869
-0.243040
1.032776
-0.060122
-0.198487
-0.574070
0.170300
0.046696
1.038466
0.052378
-1.638553
1.039974
2.561301
-2.120614
-1.193601
0.837980
-0.781918
-0.122797
0.064856
-0.625250
0.468771
-0.759012
0.304579
0.373188
0.319294
0.875593
-0.440778
1.005674
-0.148711
1.003150
-0.397259
0.864956
-0.894804
1.670146
1.760374
0.312190
-0.108383
1.479920
-0.422845
0.253652
-0.866232
0.178477
0.122315
1.506508
-0.267586
0.605191
-0.958029
0.179690
-2.145211
1.560321
-1.742947
-0.262376
0.054522
2.547353
-0.938958
-0.105573
-0.325041
0.038301
-1.470803
1.267155
-0.350409
-0.244974
0.190228
0.139777
-0.008553
-0.306857
0.551186
-0.167723
0.119379
-2.473258
0.658905
-0.104349
1.690646
-0.061975
-0.863361
0.722083
1.390243
0.022001
-0.088034
0.237754
-2.023100
1.649116
0.207231
0.221488
-0.431376
-1.421749
-0.308792
-0.136883
0.056611
-2.542293
-0.183860
0.497904
-0.165768
1.079740
-1.540263
-1.207842
1.528935
0.678204
-0.206079
1.456816
-0.009338
-0.243953
-1.316648
-0.852096
-0.293403
1.571448
-0.392790
-0.067016
-0.730750
-0.377622
0.409768
0.596325
0.585650
0.442502
1.677261
-1.569339
0.388413
-0.524479
-0.225324
0.487179
-0.503362
-0.232379
-0.245853
0.936347
-0.058332
-0.123435
0.155077
-0.049979
0.033134
0.293957
-0.268276
-0.457044
-0.789657
2.247696
-0.693407
0.009084
0.144616
-0.911548
0.286439
-0.717690
-0.108709
0.490343
-0.548278
-0.519333
-0.351595
0.551964
-0.420619
0.139581
-0.358058
-0.046992
-0.835320
0.820592
0.118303
-0.393257
0.100157
1.092094
1.280799
-0.191112
-0.407888
0.198398
0.404933
0.230125
0.015372
-0.552112
0.201967
-0.064553
-0.430550
0.817828
1.059221
-0.575609
-0.507577
-0.345982
0.671882
0.062054
-0.027649
-0.710914
-0.055364
1.076612
0.010238
0.553545
-0.029890
0.690176
0.315845
-1.874777
0.242425
-0.334829
-0.180198
-0.515575
0.070732
-0.282564
1.323232
-0.113754
-0.113628
0.886863
-0.457437
-0.676909
0.073362
-1.984414
1.853525
0.049167
-0.238576
0.086391
0.325289
-0.248174
0.109618
0.051472
0.055418
0.876800
-0.007857
0.807905
-0.384822
0.053535
0.242913
-0.015280
0.489122
0.059844
0.721096
-0.583123
0.710831
-0.315447
0.077106
-2.182285
0.892175
0.078535
1.581985
0.136082
-0.295967
-0.104634
-0.093019
0.509560
1.757034
0.317480
-0.944023
0.884199
-0.293073
0.980949
-0.302688
0.119389
2.386784
-0.740913
-0.196042
-0.337965
-0.228460
-0.326635
0.892123
-0.067435
0.211482
-0.239985
-0.904264
-1.039013
0.795049
1.263326
0.922764
0.340952
-1.058493
0.078705
0.171178
-0.548862
-0.273788
-0.286113
0.266933
0.992229
-0.879738
0.766023
0.247326
-0.350009
-0.794435
-0.277780
-0.578740
-0.595255
1.721883
-1.310604
0.636275
0.411153
0.255300
2.807754
-0.445341
0.440584
-0.627901
0.498690
0.164662
0.033323
-0.152052
-0.234674
0.882475
-1.200659
-0.905862
1.567061
0.633865
0.021770
-0.616535
0.334944
-0.086750
-0.852208
-0.820842
1.910495
1.594026
0.082610
-0.830081
0.335350
-0.177494
0.772260
0.149070
-0.318975
-0.379882
-1.767343
0.239160
0.989531
0.395757
-0.109709
0.205185
0.463801
-0.113295
-1.040554
-0.230125
0.815772
-1.475184
0.026731
0.679075
0.295502
0.162140
0.429841
0.640342
-0.025694
0.082547
0.470271
-0.269634
-0.437771
0.505683
-0.288671
0.633637
-0.439922
-0.022069
0.361638
0.197229
-0.026203
0.046818
-0.113434
-0.231608
1.227015
-0.032394
1.474953
1.410414
-0.546988
-0.570002
