0.317140
0.226703
-0.107245
-0.046712
-0.446914
-0.308098
-0.019737
0.324601
0.221284
-0.520877
0.117053
-1.248279
0.286480
0.223560
-0.021308
-0.089120
0.294709
0.267630
0.491611
0.358175
0.334543
0.119338
-0.116242
-0.236764
-0.023697
-0.680122
-1.270701
-0.107414
0.657983
1.047025
0.205284
-0.364078
0.301341
-0.217179
-0.074330
0.027956
0.478244
-0.929831
1.077468
0.232200
-0.984189
-0.029800
0.714504
1.299924
-0.577546
0.346750
-0.621089
0.571419
0.163668
-0.139904
0.260847
0.526728
1.486971
-0.288121
-0.185078
0.150261
-0.250366
-0.033593
-1.368543
0.202186
-0.530592
0.651209
-0.179108
-0.045328
0.039714
-0.144533
-0.817272
0.163722
0.031787
-0.056333
0.112377
-0.092862
-0.068453
-0.493495
-0.062566
0.375258
0.581535
-1.051974
-0.491413
-0.505847
-0.484264
0.995564
0.157468
0.611598
0.059051
-0.165935
-0.453853
0.706193
-0.238192
0.005176
-0.026245
0.284361
0.062155
0.316993
-1.359427
-0.303917
-0.062338
0.077866
-0.058895
-0.158939
-0.191729
-0.248252
0.431982
0.115692
0.451269
0.054262
0.021214
-0.785202
-0.100889
-0.014328
0.136614
0.162258
-0.528923
-0.562428
0.176912
-0.851462
0.103741
1.550415
1.388007
-0.058571
-0.083795
0.003272
0.178384
0.209683
0.600341
0.006327
0.284078
-0.985883
0.752155
-0.071059
0.468983
0.983345
-0.493223
0.864120
0.713372
0.621450
-0.763042
-0.500363
0.951529
-0.174521
-0.622891
-0.081564
0.367069
-0.692115
-0.100174
0.143199
0.293694
1.098593
0.527938
0.270245
-0.294989
0.584656
0.301881
-0.425857
0.681116
-0.006767
0.548743
0.969354
0.721103
1.667995
-0.617135
0.031832
0.421328
-0.446110
-0.248656
0.179651
0.039202
-0.854304
0.654994
0.276884
0.096194
0.271317
-0.476832
0.318873
0.508768
0.188125
-0.053977
0.482702
0.207864
-0.617357
0.241753
-0.599519
0.569077
-0.085774
0.049505
-0.388177
-0.049294
-0.217236
0.427190
-0.066580
-0.014219
-0.495682
1.146289
-0.149503
-0.108673
0.640198
0.064872
-0.294447
0.728305
-0.106432
0.060426
-0.952770
0.162773
-0.099282
1.507991
-0.301622
-0.354060
0.281263
-1.070135
1.196204
0.033113
-0.073399
0.430599
0.832621
-0.123065
0.017176
-0.238894
-0.131250
-0.358672
0.112708
-0.238648
0.881130
0.247984
0.080164
0.056144
0.041320
0.518594
0.978910
-0.047349
-0.185982
1.184734
-0.160365
-0.108860
0.025525
-0.187303
0.139854
0.679950
0.517209
0.284784
-0.844226
-0.423077
0.239439
-0.602293
-0.018589
-1.492702
0.341659
-0.070003
-0.117957
0.324092
-0.147529
-0.420064
0.796394
0.015698
-0.230009
0.621498
-0.401473
-0.283317
-0.672844
-0.525968
-0.024634
0.912132
-0.005860
-0.417199
0.194859
-0.284030
-0.002095
0.436361
-0.175334
0.305272
0.363095
-0.703373
-0.107890
-0.055149
-0.414218
-0.135715
0.073342
-0.457240
-0.062143
0.530972
0.115097
-0.107745
-0.074298
0.263924
0.436931
1.664667
-0.216664
-0.192402
-0.269927
1.402851
0.840498
-0.104160
0.068014
-0.443919
-0.158587
-0.023766
-0.051661
-0.039107
-0.446833
0.350425
0.060554
0.129129
-0.201571
0.441538
0.041102
0.234259
-0.544198
-0.226050
-0.306396
-0.185395
0.483196
-0.891054
0.070110
0.444129
0.003922
0.034095
0.448975
0.504923
0.985999
0.563073
0.337069
-0.123758
-0.087525
0.086595
-0.493025
0.023146
-0.598805
0.426488
-0.714808
0.589539
-0.740843
-0.199801
-0.003042
0.581331
-0.048428
-0.050522
0.378331
-0.196206
-0.813099
-0.333141
-0.183998
-0.069683
-0.089118
-0.162136
-0.108938
-0.388445
-0.080334
-0.292727
0.489331
0.552341
0.361418
0.713655
-0.217483
-0.818621
0.850852
-0.350856
0.245243
1.073985
0.113375
-0.242233
-0.297265
-0.401360
-0.180273
-0.785335
-0.122828
-0.274055
0.298445
1.572785
0.159213
-0.675469
0.471483
0.100711
0.270228
-0.359983
0.087734
0.256482
0.210990
-0.298074
-0.089563
-0.454956
0.963785
0.524022
-0.126879
-0.016443
-1.094615
-0.486961
1.660683
-0.506122
-0.051368
0.614939
0.170212
-0.072379
-0.200007
0.720979
-0.015791
-0.091848
-0.232307
-0.125922
0.209486
-0.131948
0.096814
0.143919
0.827547
0.284271
-0.559919
-0.845693
-0.070288
1.410555
-0.089387
0.176741
-0.371286
0.746385
0.076670
0.062551
-0.410031
0.186190
0.175427
0.028320
-0.879636
-0.259293
0.629245
0.235990
0.159195
0.172200
0.028019
0.048133
0.198001
0.093673
0.050341
0.167606
-0.441977
1.264986
-1.002012
0.125911
-0.291248
-0.119425
-0.374731
-0.118778
-0.084709
-0.400533
-0.374762
-0.037226
0.454205
-0.376787
0.413547
-0.271728
-0.253969
-0.088906
-0.482139
0.841606
-0.310375
0.142460
0.511057
0.863866
-0.296951
0.447950
-0.401916
0.119801
-0.292974
-0.024217
-0.014761
-0.799224
0.973866
-0.518427
-0.106093
-0.328740
0.061163
0.647409
0.626103
-0.120670
-0.073901
-0.181108
-0.227301
0.903713
0.596211
-0.126795
0.421004
0.508367
-0.622755
-0.699037
-0.080229
0.099102
0.148244
-0.948490
0.031242
0.135650
0.284244
-0.681166
0.593000
1.303332
-0.012755
0.465197
-0.588437
0.058524
-0.185398
-0.143605
0.214347
-0.798172
0.449625
-0.703691
0.057873
