-0.510228
1.940831
0.059296
0.659872
0.800158
-0.396332
-1.256688
1.724098
0.064036
-0.259540
0.414285
-0.245321
-1.433156
0.864980
-0.439348
0.349120
0.190925
0.947330
0.769610
-1.003613
0.277893
-0.940775
1.034001
0.281570
-0.131574
-0.522941
-0.372617
0.150028
-1.963774
-1.697279
0.595750
-0.941151
1.022768
-0.929441
-1.636035
3.041310
0.153888
-0.443813
-1.170521
-0.228280
0.339965
1.755323
-0.281230
-1.562912
0.444366
-0.207046
-0.509459
-0.941351
-0.385549
-0.284253
-1.356675
-1.139060
-0.763873
0.504000
0.029497
0.986647
-0.203293
-1.502228
-1.712660
-0.329047
-1.386884
3.373264
0.978490
0.994586
-0.845177
-1.146514
-1.310667
0.373812
-0.044334
-1.387552
1.247463
0.437869
-0.263336
-0.098159
0.718913
0.967441
0.919503
-1.583482
-0.647875
0.324980
1.417132
0.434387
0.042636
0.787852
0.669471
-0.304584
0.336221
1.619839
-1.226735
-0.577475
-0.142448
-1.708142
0.231669
-0.622402
-1.513705
-0.411997
-0.365580
0.301490
-0.586969
-0.209880
0.950575
-0.152425
1.152564
0.428588
1.016912
-0.396239
-0.031384
0.299131
-0.430985
-0.243031
0.214391
1.596161
-1.090317
0.242727
-0.582852
0.307386
1.789568
1.083159
-1.358077
0.318124
-0.256970
-0.647351
1.434771
-1.366170
-0.842359
0.110102
-0.025904
-0.053095
-0.536722
-0.551353
0.116408
-0.660335
-1.152811
-0.043290
0.173350
0.317432
1.286284
0.886044
1.672764
-0.879006
-0.239449
-0.304004
-0.220805
0.474514
-0.249103
0.175221
-0.259259
1.474125
0.492066
0.403183
0.863851
0.856940
-0.784471
-0.865537
-0.664232
0.484352
1.084974
-1.072743
0.312937
-1.680502
-0.210254
0.030920
-0.145767
-0.745146
-0.232223
1.881245
0.604031
-0.453341
-0.834660
0.946524
0.626364
-0.329065
0.000775
1.131454
2.073387
-0.244361
0.063671
1.926085
0.796524
-0.969703
0.162816
-0.588081
0.289998
-0.122400
0.442943
-0.625041
-0.328401
0.272940
0.459345
-1.570723
0.022654
0.427743
-1.114327
0.198700
-0.018625
-0.338106
0.160433
0.506498
0.019531
-0.420144
0.672190
0.955013
-1.030940
1.285778
-0.262757
0.770982
0.862479
-0.485267
1.647042
0.845083
-0.266603
-0.161241
-0.647579
2.601805
0.050386
-0.778709
-0.305281
0.215468
0.925957
-1.391084
0.007713
0.605643
-0.126442
1.045063
0.364793
0.900478
0.377049
1.199727
-0.189091
-0.103945
0.442076
0.323473
-0.196352
-1.206031
0.777345
0.254932
-0.045330
-0.178637
-0.820943
-1.251458
-0.320865
-0.600346
-0.066870
0.107432
0.417558
0.271798
-2.117155
-0.989699
-0.538028
0.483391
1.321576
0.549754
-1.391988
-0.350318
1.345030
0.561320
0.084450
-0.443369
-1.253883
0.545434
-0.215796
-0.965048
0.617863
0.803582
-0.229612
-0.335965
0.864325
-1.222784
1.293367
0.647514
-0.576951
-0.544725
-0.284310
-0.199283
-0.436795
0.268238
-0.000598
0.002489
0.039802
-0.694723
-0.597222
-0.430115
-1.125947
-0.553871
-0.346762
-0.594264
-0.021846
0.295354
1.373743
0.970236
-0.915031
-0.008612
-0.545075
0.515351
1.715916
-0.552897
0.457121
-0.024115
-0.108436
-0.115897
0.461456
-0.037959
0.986068
0.756129
1.363727
-0.075613
-0.282237
1.551426
-0.179486
0.848259
-0.841208
-0.407261
0.991177
0.529193
-0.117959
-0.822119
0.170670
1.265973
0.292638
0.735323
-0.616450
-0.362313
0.606857
-0.889466
-0.629099
-0.129985
-0.848941
0.211540
-0.591052
-0.726074
0.228300
-0.081518
-0.051011
0.206020
0.756371
0.217067
1.212660
0.252082
0.171194
-0.594257
-0.041587
0.070177
0.542159
-0.090199
-0.809667
-0.068962
-0.212002
1.617737
1.026761
0.813842
1.415202
1.010311
-1.028431
-0.811768
-0.212783
-0.924907
0.032588
0.004716
0.239205
0.647780
-0.604071
0.477378
0.080747
0.678957
0.563487
1.105362
-0.026115
0.602640
1.277302
-0.083157
-0.853788
-0.247632
0.104031
-0.530143
0.158124
0.000013
-1.790797
-0.936911
-0.586076
-0.405551
0.959566
-0.141012
-0.235857
0.638233
-0.518791
0.238579
-0.488062
-0.365958
-0.980533
1.079687
0.783470
-0.368175
1.613432
-0.215546
-0.265475
1.173622
0.178893
-0.063797
-0.141670
0.791339
0.404078
1.807240
-0.065217
0.013192
-0.011410
0.143872
-0.522840
-0.242821
0.073452
0.279839
0.919786
1.263977
-0.389077
-0.643459
-0.282058
-0.248207
0.757300
-1.530497
-0.091266
-0.032430
-0.438465
-0.463281
-0.180437
-0.882345
-0.662225
-1.504270
-0.126951
-1.047772
-0.935632
0.292930
-1.392206
-0.433402
1.778722
-0.934383
0.380634
-0.923500
0.050200
0.087637
-0.404930
-1.746339
-0.507495
-0.337727
1.997589
0.695499
-1.664644
0.238788
1.193395
0.057163
-0.452064
-0.370868
-0.024132
-1.811556
1.434735
-0.072061
0.691592
-0.524793
0.454537
0.105052
-1.440731
0.317613
0.239508
0.454258
0.313918
1.254060
0.677590
-0.421408
0.877242
1.432963
0.055793
-0.280951
-0.004745
-0.516000
0.284416
1.422044
-0.985739
-0.703407
-0.331208
-1.666305
-0.997092
0.002951
0.083714
-0.988578
-2.512127
-0.513314
1.317065
0.864304
0.870577
0.695091
-0.266460
-0.959781
0.588855
1.123571
-0.264755
0.119558
-0.380713
0.018935
-2.589128
-1.009235
-0.341575
1.641320
