-0.319017
0.635013
0.663973
-0.271420
0.709592
-0.043343
0.452672
-1.079485
-0.363135
0.614127
0.172339
0.687294
-0.714972
-0.257793
0.662942
-0.099075
-0.139381
-0.342950
-0.496807
0.116423
-0.289608
-0.225355
0.725060
-0.115168
-0.156503
-0.381282
-1.546588
0.268601
0.076063
-1.274749
-0.077996
1.232912
0.563179
-0.079127
0.755807
-0.727411
-0.428056
-0.050232
0.196168
-0.773524
-1.229784
1.640687
-0.984041
-2.087340
0.200097
-0.470516
1.650236
-0.366426
-0.528237
-0.791734
-0.979325
-1.052141
0.385825
-0.178695
-0.521870
-0.998734
0.514397
-0.680488
-1.251977
-0.477437
-2.033065
0.801089
-1.355036
0.571176
0.603731
-1.583035
0.279714
-0.829154
-1.325675
-0.312140
-0.364190
0.407559
0.510368
0.074678
0.089140
-0.481094
-0.474144
-0.444314
-0.193997
0.196017
-1.308280
-0.550339
-0.498482
-1.672426
-0.303388
0.310679
0.203859
-0.735288
0.004596
0.570553
-0.099838
0.068780
-0.218322
-1.377472
-0.604272
-0.006991
-0.021146
-0.137713
-0.137115
0.703336
-0.905179
-0.000955
0.537445
-1.326305
0.469398
-0.104034
-0.043568
0.890508
-0.203415
-0.750793
-0.036826
0.419096
-0.262666
-0.288370
-0.596904
0.923523
0.121614
-0.374545
-0.394970
-0.143341
0.142590
0.644916
0.835540
0.125194
0.059229
-0.072562
-0.094073
-0.606012
0.825639
0.286087
-0.181381
0.394935
-1.098430
-0.124761
0.714682
-1.647313
2.067596
0.405392
2.140966
0.560467
-0.305685
-0.200250
0.181412
-0.049177
0.954917
0.294478
-0.040131
-1.299300
0.097974
0.730142
0.051623
-0.217016
-1.054346
0.659764
-0.633166
0.162009
-0.763462
-0.470300
0.521139
-2.352774
-0.262912
-0.453906
0.365417
1.944728
0.731382
0.734786
-0.542235
1.914284
0.475953
-0.154791
-0.711968
0.363526
-1.148849
0.077598
-0.714290
0.979130
-0.442404
0.261560
-0.031805
0.003514
1.361320
0.061001
-0.782540
-0.316125
-0.037905
0.065351
0.322840
-1.112567
1.070737
-0.091265
-0.847712
-1.191716
-0.819190
0.908223
-0.117758
-1.289261
-0.251454
0.878457
-0.345500
-0.513037
0.237897
0.411201
0.016014
0.730555
-0.634603
1.414432
0.962645
-1.223768
3.719894
-1.151577
-0.484842
-0.646106
-0.648194
0.703837
-0.040351
0.209299
-0.126883
0.373667
-0.547068
-0.291681
2.567811
0.303643
-0.521904
-0.697499
-0.430847
1.090801
0.125232
1.398171
-1.214824
0.460028
1.177508
1.013243
-0.374285
1.632825
-0.822477
-1.249940
-0.560551
-0.414512
0.638897
0.543772
1.363170
-0.823836
0.993222
0.880576
-0.203726
0.142128
-0.195761
0.019688
1.183007
-1.014697
0.411547
0.636551
-0.199608
-0.244300
0.096683
-0.685084
0.342791
-1.613294
0.113670
-0.260531
-1.004534
1.128078
-0.633843
-0.162688
-0.177807
-0.170460
-0.746544
1.286060
0.121821
1.431998
0.812773
0.106800
-0.248006
0.098642
0.614487
0.184822
-0.281969
0.011285
1.198366
-0.321579
-0.898758
-0.214630
2.343733
0.081115
-0.880056
-0.853997
1.349326
-0.777134
0.898950
0.706373
-0.439710
0.219010
0.712397
-0.229157
0.796684
0.029471
-1.242652
-0.176057
-0.282444
-1.344919
-0.050351
-0.119559
-0.575407
-0.324358
-0.068274
0.157723
-0.591151
0.578677
0.228142
-0.096838
1.816051
0.229719
-0.299273
1.099489
-0.978833
-0.130088
-0.140731
-0.961084
0.535321
0.311481
0.233712
-0.363519
0.362949
0.821015
0.813526
0.189161
-0.393894
1.989128
-1.206992
0.346313
-0.330667
0.088797
0.678352
1.073467
-0.455155
-0.742057
-0.334021
1.680660
-0.117369
0.425128
-0.245187
-0.113711
0.026639
-0.252228
0.069462
0.021031
-0.504894
-1.147537
0.143519
0.824963
-0.579196
0.047535
-0.276565
-0.539157
-0.068532
-0.145004
-3.184547
0.509528
-0.298472
0.013583
0.786514
0.424379
0.433884
1.192664
1.098778
-0.017040
-0.565985
0.151177
0.653628
-1.299025
0.216935
-0.168342
-0.310612
0.488068
-0.385116
-0.407033
0.139899
0.546971
0.491745
0.091791
0.328943
-0.335513
-0.095289
1.320849
0.684316
0.032670
1.857739
0.265059
-0.930115
0.461241
0.108981
-0.075017
0.542172
0.459192
-0.857520
1.061945
-0.448638
-0.254399
-0.215986
0.556626
0.232093
-0.282615
-0.785026
0.099895
-0.022288
0.440281
0.442347
0.505145
-0.668168
-1.068651
0.340300
-0.640835
0.326149
0.294790
-0.051221
0.549617
-1.409543
-1.763748
-0.325093
-0.313969
0.261522
-0.596472
0.206512
0.172037
-0.431589
-1.404507
-0.483042
-0.418139
0.226684
-0.608054
-1.640150
1.085079
-0.760865
1.847094
0.054772
-0.490023
-0.262133
0.457251
0.052911
2.075099
-0.178977
-1.613934
0.661345
-0.950280
0.363188
0.488111
-0.695415
-0.133859
-1.665887
-1.213105
2.091409
0.193610
0.200785
-0.402264
1.903982
-0.571354
-0.010129
0.672206
-1.428000
0.372310
1.063433
-0.361398
0.469154
0.553752
-1.153425
2.163702
-0.261756
-0.711330
0.091868
0.162729
0.274877
-0.462200
-0.649875
0.845686
0.393913
0.102314
-0.546625
0.444798
-0.245368
0.691122
-0.132344
-1.176989
0.436207
0.105176
1.354296
-2.050771
-0.667772
-0.386696
-2.379719
0.549001
-0.687381
-0.447788
-0.202656
0.246138
0.431668
-0.765875
0.103159
0.230217
1.516953
-0.097355
