0.173769
0.897776
-0.967291
-0.050647
-0.086163
-0.583667
-0.106917
0.247700
-1.031330
-0.797738
1.377637
-0.764402
-0.864009
0.488277
0.581868
0.075632
1.092000
0.134233
-0.296267
-0.369132
-0.140031
-1.481985
0.580169
0.496656
0.335326
-0.663833
0.730374
0.630005
0.630558
-0.242196
0.903014
0.185009
0.950626
-0.610011
0.120590
-0.940113
0.104907
-0.589358
0.914270
-0.206755
-0.231650
1.649243
-0.114263
-1.486261
0.177122
-0.146729
-0.826011
0.356531
-0.814320
-1.333869
0.713764
-0.323990
0.726391
-0.188663
-0.620489
1.030448
-0.412438
-0.965801
-0.745677
0.644452
-0.521203
2.497733
0.703224
1.099989
0.002368
-0.044248
-0.743412
0.370381
-0.125712
0.156620
0.456026
-0.940560
0.044492
0.421482
0.505860
0.974088
-0.748177
0.025100
-0.527051
-0.545455
0.743812
-0.368388
-0.021568
-0.780108
0.554695
-0.280314
0.273733
1.205004
0.029242
-0.777159
-0.264971
-0.051872
0.567927
-1.004004
-0.552831
0.780551
-0.476139
0.196397
-0.630698
-0.014870
0.468424
-0.856619
1.464648
0.145320
-0.061235
0.093029
-0.418040
0.092174
0.242180
-0.206348
-0.363691
1.536881
-1.162407
0.187904
-0.539311
0.202366
0.249225
-0.133662
-0.089396
-0.257952
-0.013402
-0.734674
0.301998
0.690431
0.599037
0.198573
-0.063649
-0.997304
-0.306680
-0.022789
0.790025
0.353313
-0.115503
0.942101
-0.598424
0.324675
0.091800
0.223427
1.412310
-0.052375
-0.611726
-0.094243
-0.094088
-0.242930
-0.186388
-0.192989
-0.736046
0.974220
0.288368
-1.552384
-0.250084
0.042538
0.210903
-0.307476
-0.395273
0.281888
-0.568044
-0.690367
-0.893989
1.348910
0.037330
0.157133
1.092897
-0.329268
-0.503385
0.976339
-0.535567
-1.070960
0.083269
-0.096469
-0.190658
-0.296456
-0.586592
0.395275
1.367369
-0.410126
0.254166
0.965876
0.231780
-0.488642
0.680417
-0.177962
-0.983057
-0.108207
0.009485
-0.161079
0.017629
0.304922
0.976971
0.368498
0.250838
1.224550
-0.827153
0.094680
0.148556
0.012570
-0.094078
0.546583
0.371453
-0.112685
-0.037266
-0.293966
-0.098200
0.479265
-0.126262
1.560931
0.361412
-0.796209
0.490143
0.646887
-0.094224
-0.143487
-0.584373
0.586719
-0.817946
-0.856589
-0.061715
-0.478737
-0.327411
0.071709
0.028820
-0.288143
-1.176558
0.900457
0.105306
-0.115660
0.583998
1.058913
0.078219
-0.132467
0.827208
-0.507100
-0.155558
-0.020219
0.258333
0.292992
-1.485981
-0.188746
0.919000
0.567068
0.802247
1.142395
0.140984
0.363240
-1.801556
0.291157
-2.172916
-0.122122
0.662057
-0.956168
0.932190
-0.760636
0.344582
-0.266160
-0.170451
-0.399252
0.324108
0.069938
0.018842
-0.172631
-0.714154
-0.843296
0.126449
0.469905
0.507781
-1.014468
0.271297
0.906779
0.162797
0.440298
-0.306880
-0.235561
0.143950
-0.361518
-0.039793
0.168139
0.030133
0.146196
0.336634
-0.800720
-0.254148
-0.723135
0.826783
-0.055255
0.382904
0.403789
0.656101
-0.123501
0.648221
1.290186
0.424192
0.656905
0.685210
-0.526813
0.087453
-0.345830
1.444182
0.120615
0.283048
-0.261486
0.246980
0.169015
0.836186
0.425618
1.389089
0.194797
0.163143
0.208021
-0.726161
-0.142374
1.100594
-0.678141
0.111698
-0.115990
-1.205092
-0.237815
-0.055784
0.338690
0.487158
0.943037
0.234501
-0.245431
0.560645
0.076755
0.547972
-1.562293
0.716456
-0.011168
-0.115855
-0.188469
-1.030270
-0.149538
0.107793
-0.253057
0.218973
0.544418
0.601618
-0.759219
0.204608
0.078277
-0.194642
-0.031502
0.237684
-0.305490
-0.499302
-0.840438
-0.418547
0.357272
-0.360652
0.493199
1.136979
0.590916
0.836039
-0.404267
-0.439424
-0.640688
0.405829
1.613160
-0.307672
0.655240
0.249738
0.545242
-0.662786
0.129793
-0.127835
0.021985
2.553988
0.606820
-0.013594
0.287947
-1.527213
0.323251
0.061796
1.296838
-0.042567
-0.355633
0.453645
0.020655
0.517159
-1.162768
0.676379
-0.318837
-0.166438
-0.701328
-0.104809
-1.048312
0.364148
-0.319710
-0.081994
0.448404
-1.022131
0.009406
0.354359
-0.404518
-0.862657
0.210133
-0.549082
-0.486435
-0.267132
-0.212790
0.176356
2.540481
-0.121827
0.335253
0.044549
-0.055701
-0.223859
-0.767997
0.059347
0.435573
1.188902
0.867541
0.592452
-0.237244
0.981204
-0.456683
-0.042390
0.007667
0.044497
0.877072
-0.480647
-0.321495
-0.635423
0.776563
-0.917026
-0.934783
0.695889
-0.025466
-0.389795
-0.063437
-1.008415
0.491967
-1.121996
-1.211231
-0.289537
-1.765412
-0.180956
0.346579
-0.184854
-1.585526
0.367378
0.195011
-0.843228
-0.152405
-0.178525
0.108374
-0.393981
-0.153609
-0.549739
0.295522
-0.985092
-1.421910
-0.146188
-0.309376
1.633062
1.637919
-0.522847
0.387562
-0.668508
-0.161567
-0.076731
1.102333
0.380879
-0.863694
0.434332
-0.239000
0.343070
0.873679
0.038028
0.437060
-0.453873
0.454864
-0.439782
1.495588
-1.432111
0.706288
-0.867874
0.379803
-1.282783
-0.945132
0.308648
0.037849
-3.024888
0.889917
0.143989
-0.076253
0.226225
-0.105022
1.241618
-0.237585
0.313517
-0.788914
-0.068804
0.054612
0.149065
0.077846
-0.536080
-0.509938
-0.159571
-0.261101
